Source: USDA Branded Food Products Database Release December 2017 Software v.3.8.6.4 2017-10-02
Report Run at: December 17, 2017 22:17 EST
"Nutrient data for: 45016825, 1-2-3 GLUTEN FREE, SOUTHERN GLORY, BISCUITS BAKING MIX, UPC: 182566000004"
Food Group:  Branded Food Products Database
Common Name:

Nutrient,Unit,Data points,Std. Error,"0.062 MIX = 31.0g",1Value per 100 g,
Proximates
"Energy",kcal,--,--,110,355
"Protein",g,--,--,1.00,3.23
"Total lipid (fat)",g,--,--,0.00,0.00
"Carbohydrate, by difference",g,--,--,26.00,83.87
"Fiber, total dietary",g,--,--,1.0,3.2
"Sugars, total",g,--,--,3.00,9.68
Minerals
"Calcium, Ca",mg,--,--,60,194
"Iron, Fe",mg,--,--,2.32,7.49
"Sodium, Na",mg,--,--,390,1258
Vitamins
"Vitamin C, total ascorbic acid",mg,--,--,0.0,0.0
"Thiamin",mg,--,--,0.310,1.000
"Riboflavin",mg,--,--,0.102,0.329
"Niacin",mg,--,--,2.258,7.284
"Vitamin A, IU",IU,--,--,0,0
Lipids
"Fatty acids, total saturated",g,--,--,0.000,0.000
"Fatty acids, total trans",g,--,--,0.000,0.000
"Cholesterol",mg,--,--,0,0
Amino Acids
Other
Ingredients
"RICE FLOUR, TAPIOCA STARCH, POTATO STARCH, NON-GMO CORN-STARCH ALUMINUM-FREE CORN-FREE BAKING POWDER (SODIUM ACID PYROPHOSPHATE, BAKING SODA, TAPIOCA STARCH, MONOCALCIUM PHOSPHATE), XANTHAN GUM (STABILIZER), SALT, NIACIN (VITAMIN B3), REDUCED IRON, CALCIUM CARBONATE, THIAMIN MONONITRATE (VITAMIN B1), RIBOFLAVIN (VITAMIN B2), FOLIC ACID (VITAMIN B9)." Date available: 06/25/2017 Date last updated by company: 06/25/2017
