Source: USDA Branded Food Products Database Release December 2017 Software v.3.8.6.4 2017-10-02
Report Run at: December 17, 2017 20:15 EST
"Nutrient data for: 45289522, 1.5% MILKFAT LOWFAT YOGURT POUCHES, UPC: 492841016522"
Food Group:  Branded Food Products Database
Common Name:

Nutrient,Unit,Data points,Std. Error,"1 POUCH = 100.0g",1Value per 100 g,
Proximates
"Energy",kcal,--,--,90,90
"Protein",g,--,--,5.00,5.00
"Total lipid (fat)",g,--,--,1.50,1.50
"Carbohydrate, by difference",g,--,--,15.00,15.00
"Fiber, total dietary",g,--,--,0.0,0.0
"Sugars, total",g,--,--,14.00,14.00
Minerals
"Calcium, Ca",mg,--,--,150,150
"Iron, Fe",mg,--,--,0.00,0.00
"Potassium, K",mg,--,--,220,220
"Sodium, Na",mg,--,--,80,80
Vitamins
"Vitamin C, total ascorbic acid",mg,--,--,0.0,0.0
"Vitamin A, IU",IU,--,--,1700,1700
"Vitamin D",IU,--,--,40,40
Lipids
"Fatty acids, total saturated",g,--,--,1.000,1.000
"Fatty acids, total trans",g,--,--,0.000,0.000
"Cholesterol",mg,--,--,5,5
Amino Acids
Other
Ingredients
"CULTURED GRADE A LOWFAT MILK, SUGAR, CONTAINS LESS THAN 2% OF STRAWBERRY PUREE, BANANA PUREE, NATURAL FLAVOR, PECTIN, VEGETABLE JUICE (COLOR), CAROB BEAN GUM, CORNSTARCH, GELATIN, VITAMIN A PALMITATE, VITAMIN D3." Date available: 07/14/2017 Date last updated by company: 07/14/2017
