Source: USDA Branded Food Products Database Release December 2017 Software v.3.8.6.4 2017-10-02
Report Run at: December 17, 2017 12:02 EST
"Nutrient data for: 45282380, 1% LOWFAT MILK, UPC: 075450097016"
Food Group:  Branded Food Products Database
Common Name:

Nutrient,Unit,Data points,Std. Error,"1 cup = 236.0g",1Value per 100 g,
Proximates
"Energy",kcal,--,--,111,47
"Protein",g,--,--,8.00,3.39
"Total lipid (fat)",g,--,--,2.50,1.06
"Carbohydrate, by difference",g,--,--,13.00,5.51
"Fiber, total dietary",g,--,--,0.0,0.0
"Sugars, total",g,--,--,11.99,5.08
Minerals
"Calcium, Ca",mg,--,--,300,127
"Iron, Fe",mg,--,--,0.00,0.00
"Potassium, K",mg,--,--,411,174
"Sodium, Na",mg,--,--,135,57
Vitamins
"Vitamin C, total ascorbic acid",mg,--,--,2.4,1.0
"Vitamin A, IU",IU,--,--,507,215
"Vitamin D",IU,--,--,99,42
Lipids
"Fatty acids, total saturated",g,--,--,1.510,0.640
"Fatty acids, total trans",g,--,--,0.000,0.000
"Cholesterol",mg,--,--,9,4
Amino Acids
Other
Ingredients
"LOWFAT MILK, VITAMIN A PALMITATE, VITAMIN D3." Date available: 07/14/2017 Date last updated by company: 07/14/2017
