Source: USDA Branded Food Products Database Release December 2017 Software v.3.8.6.4 2017-10-02
Report Run at: December 17, 2017 19:05 EST
"Nutrient data for: 45322690, 10 BOLD TASTING CALORIES, UPC: 07899304"
Food Group:  Branded Food Products Database
Common Name:

Nutrient,Unit,Data points,Std. Error,"1 BOTTLE = 16.0g",1Value per 100 g,
Proximates
"Energy",kcal,--,--,0,3
"Protein",g,--,--,0.00,0.00
"Total lipid (fat)",g,--,--,0.00,0.00
"Carbohydrate, by difference",g,--,--,0.13,0.83
"Sugars, total",g,--,--,0.10,0.62
Minerals
"Sodium, Na",mg,--,--,3,17
Vitamins
Lipids
Amino Acids
Other
Ingredients
"CARBONATED WATER, HIGH FRUCTOSE CORN SYRUP, CARAMEL COLOR, PHOSPHORIC ACID, ASPARTAME, SODIUM BENZOATE (PRESERVATIVE), CAFFEINE, NATURAL AND ARTIFICIAL FLAVORS, ACESULFAME POTASSIUM, SODIUM PHOSPHATE." Date available: 08/28/2017 Date last updated by company: 08/28/2017
