Source: USDA Branded Food Products Database Release December 2017 Software v.3.8.6.4 2017-10-02
Report Run at: December 18, 2017 15:24 EST
"Nutrient data for: 45239781, 100% JUICE, UPC: 041318130317"
Food Group:  Branded Food Products Database
Common Name:

Nutrient,Unit,Data points,Std. Error,"8.0 OZA = 240.0g",1Value per 100 g,
Proximates
"Energy",kcal,--,--,50,21
"Protein",g,--,--,1.01,0.42
"Total lipid (fat)",g,--,--,0.00,0.00
"Carbohydrate, by difference",g,--,--,10.99,4.58
"Fiber, total dietary",g,--,--,1.9,0.8
"Sugars, total",g,--,--,6.00,2.50
Minerals
"Calcium, Ca",mg,--,--,19,8
"Iron, Fe",mg,--,--,1.08,0.45
"Sodium, Na",mg,--,--,619,258
Vitamins
"Vitamin C, total ascorbic acid",mg,--,--,72.0,30.0
"Vitamin A, IU",IU,--,--,1750,729
Lipids
"Fatty acids, total saturated",g,--,--,0.000,0.000
"Fatty acids, total trans",g,--,--,0.000,0.000
"Cholesterol",mg,--,--,0,0
Amino Acids
Other
Ingredients
"TOMATO JUICE FROM CONCENTRATE (WATER, TOMATO PASTE), RECONSTITUTED VEGETABLE JUICES OF CARROTS, CELERY, BEETS, PARSLEY, LETTUCE, WATERCRESS, AND SPINACH, SALT, VITAMIN C (ASCORBIC ACID), NATURAL FLAVORS, CITRIC ACID." Date available: 06/25/2017 Date last updated by company: 06/25/2017
