Source: USDA Branded Food Products Database Release December 2017 Software v.3.8.6.4 2017-10-02
Report Run at: December 18, 2017 00:19 EST
"Nutrient data for: 45314854, 100% GRAIN-FREE SLICED LOAF, UPC: 869745000191"
Food Group:  Branded Food Products Database
Common Name:

Nutrient,Unit,Data points,Std. Error,"1 Slice = 26.0g",1Value per 100 g,
Proximates
"Energy",kcal,--,--,90,346
"Protein",g,--,--,3.00,11.54
"Total lipid (fat)",g,--,--,5.00,19.23
"Carbohydrate, by difference",g,--,--,6.00,23.08
"Fiber, total dietary",g,--,--,5.0,19.2
"Sugars, total",g,--,--,1.00,3.85
Minerals
"Calcium, Ca",mg,--,--,50,192
"Iron, Fe",mg,--,--,2.08,7.99
"Sodium, Na",mg,--,--,90,346
Vitamins
"Vitamin C, total ascorbic acid",mg,--,--,0.0,0.0
"Vitamin A, IU",IU,--,--,0,0
Lipids
"Fatty acids, total saturated",g,--,--,1.999,7.690
"Fatty acids, total trans",g,--,--,0.000,0.000
"Cholesterol",mg,--,--,16,62
Amino Acids
Other
Ingredients
"EGG WHITES, WHOLE EGGS, WATER, APPLESAUCE (UNSWEETENED), ALMOND FLOUR, PSYLLIUM HUSK, COCONUT OIL, COCONUT FLOUR, SWEET POTATO FLOUR, FLAXSEED MEAL, ALMOND BUTTER, HAZELNUT FLOUR, APPLE CIDER VINEGAR, HONEY, BAKING POWDER (MONOCALCIUM PHOSPHATE, POTATO STARCH, POTASSIUM BICARBONATE AS LEAVENING AGENT), BAKING SODA (AS LEAVENING AGENT), SEA SALT, CINNAMON" Date available: 07/14/2017 Date last updated by company: 07/14/2017
