Source: USDA Branded Food Products Database Release December 2017 Software v.3.8.6.4 2017-10-02
Report Run at: December 18, 2017 05:19 EST
"Nutrient data for: 45084857, 100% ORGANIC ITALIAN DICED PLUM TOMATOES IN HEAVY JUICE, UPC: 072368424248"
Food Group:  Branded Food Products Database
Common Name:

Nutrient,Unit,Data points,Std. Error,"3.5 ONZ = 100.0g",1Value per 100 g,
Proximates
"Energy",kcal,--,--,20,20
"Protein",g,--,--,1.00,1.00
"Total lipid (fat)",g,--,--,0.00,0.00
"Carbohydrate, by difference",g,--,--,4.00,4.00
"Fiber, total dietary",g,--,--,1.0,1.0
"Sugars, total",g,--,--,4.00,4.00
Minerals
"Calcium, Ca",mg,--,--,0,0
"Iron, Fe",mg,--,--,0.47,0.47
"Sodium, Na",mg,--,--,100,100
Vitamins
"Vitamin C, total ascorbic acid",mg,--,--,20.3,20.3
"Vitamin A, IU",IU,--,--,1300,1300
Lipids
"Fatty acids, total saturated",g,--,--,0.000,0.000
"Fatty acids, total trans",g,--,--,0.000,0.000
"Cholesterol",mg,--,--,0,0
Amino Acids
Other
Ingredients
"ORGANIC PEELED DICED TOMATOES, ORGANIC TOMATO JUICE, CITRIC ACID." Date available: 08/11/2017 Date last updated by company: 08/11/2017
