Source: USDA Branded Food Products Database Release December 2017 Software v.3.8.6.4 2017-10-02
Report Run at: December 18, 2017 15:07 EST
"Nutrient data for: 45148421, 100% JUICE BLEND, UPC: 075450008098"
Food Group:  Branded Food Products Database
Common Name:

Nutrient,Unit,Data points,Std. Error,"8.0 OZA = 240.0g",1Value per 100 g,
Proximates
"Energy",kcal,--,--,130,54
"Protein",g,--,--,0.00,0.00
"Total lipid (fat)",g,--,--,0.00,0.00
"Carbohydrate, by difference",g,--,--,31.99,13.33
"Sugars, total",g,--,--,31.01,12.92
Minerals
"Potassium, K",mg,--,--,199,83
"Sodium, Na",mg,--,--,36,15
Vitamins
"Vitamin C, total ascorbic acid",mg,--,--,78.0,32.5
Lipids
Amino Acids
Other
Ingredients
"WATER, APPLE JUICE CONCENTRATE, GRAPE JUICE CONCENTRATE, CHEERY JUICE CONCENTRATE, NATURAL FLAVOR, ASCORBIC ACID (VITAMIN C)." Date available: 07/14/2017 Date last updated by company: 07/14/2017
