Source: USDA Branded Food Products Database Release December 2017 Software v.3.8.6.4 2017-10-02
Report Run at: December 17, 2017 16:35 EST
"Nutrient data for: 45272216, 100% FRUIT & VEGETABLE JUICE, UPC: 851720003020"
Food Group:  Branded Food Products Database
Common Name:

Nutrient,Unit,Data points,Std. Error,"8.0 OZA = 240.0g",1Value per 100 g,
Proximates
"Energy",kcal,--,--,60,25
"Protein",g,--,--,1.01,0.42
"Total lipid (fat)",g,--,--,0.50,0.21
"Carbohydrate, by difference",g,--,--,12.00,5.00
"Fiber, total dietary",g,--,--,0.0,0.0
"Sugars, total",g,--,--,12.00,5.00
Minerals
"Calcium, Ca",mg,--,--,60,25
"Iron, Fe",mg,--,--,0.72,0.30
"Sodium, Na",mg,--,--,41,17
Vitamins
"Vitamin C, total ascorbic acid",mg,--,--,60.0,25.0
"Vitamin A, IU",IU,--,--,499,208
Lipids
"Fatty acids, total saturated",g,--,--,0.000,0.000
"Fatty acids, total trans",g,--,--,0.000,0.000
"Cholesterol",mg,--,--,0,0
Amino Acids
Other
Ingredients
"RECONSTITUTED VEGETABLE JUICE BLEND (FILTERED WATER AND CONCENTRATED JUICES OF CUCUMBER, CARROT, TOMATO, BEET), RECONSTITUTED FRUIT JUICE BLEND (FILTERED WATER AND CONCENTRATED JUICES OF APPLE, TANGERINE, ORANGE, PINEAPPLE), CONTAINS LESS THAN 2%: NATURAL FLAVORS, PECTIN, CITRIC ACID, VITAMIN C (ASCORBIC ACID)." Date available: 07/14/2017 Date last updated by company: 07/14/2017
