Source: USDA Branded Food Products Database Release December 2017 Software v.3.8.6.4 2017-10-02
Report Run at: December 19, 2017 03:57 EST
"Nutrient data for: 45208458, 100% WHOLE WHEAT BREAD, UPC: 073410026205"
Food Group:  Branded Food Products Database
Common Name:

Nutrient,Unit,Data points,Std. Error,"1 SLICES = 38.0g",1Value per 100 g,
Proximates
"Energy",kcal,--,--,90,237
"Protein",g,--,--,5.00,13.16
"Total lipid (fat)",g,--,--,1.00,2.63
"Carbohydrate, by difference",g,--,--,17.00,44.74
"Fiber, total dietary",g,--,--,3.0,7.9
"Sugars, total",g,--,--,3.00,7.89
Minerals
"Calcium, Ca",mg,--,--,0,0
"Iron, Fe",mg,--,--,1.42,3.74
"Sodium, Na",mg,--,--,120,316
Vitamins
"Vitamin C, total ascorbic acid",mg,--,--,0.0,0.0
"Thiamin",mg,--,--,0.000,0.000
"Riboflavin",mg,--,--,0.034,0.089
"Niacin",mg,--,--,1.578,4.153
"Vitamin A, IU",IU,--,--,0,0
Lipids
"Fatty acids, total saturated",g,--,--,0.000,0.000
"Fatty acids, total monounsaturated",g,--,--,0.000,0.000
"Fatty acids, total polyunsaturated",g,--,--,0.000,0.000
"Fatty acids, total trans",g,--,--,0.000,0.000
"Cholesterol",mg,--,--,0,0
Amino Acids
Other
Ingredients
"ORGANIC WHOLE WHEAT FLOUR, WATER, ORGANIC WHEAT GLUTEN, ORGANIC CRACKED WHEAT, ORGANIC SUGAR, YEAST, ORGANIC WHOLE WHEAT FLAKES, ORGANIC HONEY, ORGANIC SOYBEAN OIL, CULTURED ORGANIC WHEAT FLOUR, SEA SALT, ORGANIC MOLASSES, ORGANIC VINEGAR, CALCIUM SULFATE." Date available: 07/14/2017 Date last updated by company: 07/14/2017
