Source: USDA Branded Food Products Database Release December 2017 Software v.3.8.6.4 2017-10-02
Report Run at: December 17, 2017 15:46 EST
"Nutrient data for: 45273909, 100% FRUIT JUICE SMOOTHIE, UPC: 085239408636"
Food Group:  Branded Food Products Database
Common Name:

Nutrient,Unit,Data points,Std. Error,"8.0 OZA = 240.0g",1Value per 100 g,
Proximates
"Energy",kcal,--,--,130,54
"Protein",g,--,--,1.01,0.42
"Total lipid (fat)",g,--,--,0.00,0.00
"Carbohydrate, by difference",g,--,--,30.00,12.50
"Fiber, total dietary",g,--,--,1.0,0.4
"Sugars, total",g,--,--,28.99,12.08
Minerals
"Calcium, Ca",mg,--,--,19,8
"Iron, Fe",mg,--,--,1.08,0.45
"Potassium, K",mg,--,--,365,152
"Sodium, Na",mg,--,--,5,2
Vitamins
"Vitamin C, total ascorbic acid",mg,--,--,30.0,12.5
"Vitamin A, IU",IU,--,--,0,0
Lipids
"Fatty acids, total saturated",g,--,--,0.000,0.000
"Fatty acids, total trans",g,--,--,0.000,0.000
"Cholesterol",mg,--,--,0,0
Amino Acids
Other
Ingredients
"APPLE JUICE FROM CONCENTRATE (WATER, APPLE JUICE CONCENTRATE), STRAWBERRY PUREE, BANANA PUREE, BLACKBERRY PUREE, RASPBERRY PUREE, PECTIN, NATURAL FLAVORS." Date available: 07/14/2017 Date last updated by company: 07/14/2017
