Source: USDA Branded Food Products Database Release December 2017 Software v.3.8.6.4 2017-10-02
Report Run at: December 18, 2017 15:17 EST
"Nutrient data for: 45237951, 100% JUICE SMOOTHIE, A BLEND OF 5 JUICES WITH ADDED INGREDIENTS, UPC: 082592660152"
Food Group:  Branded Food Products Database
Common Name:

Nutrient,Unit,Data points,Std. Error,"15.2 OZA = 450.0g",1Value per 100 g,
Proximates
"Energy",kcal,--,--,288,64
"Protein",g,--,--,1.98,0.44
"Total lipid (fat)",g,--,--,0.00,0.00
"Carbohydrate, by difference",g,--,--,68.00,15.11
"Fiber, total dietary",g,--,--,0.0,0.0
"Sugars, total",g,--,--,57.02,12.67
Minerals
"Calcium, Ca",mg,--,--,40,9
"Iron, Fe",mg,--,--,0.41,0.09
"Potassium, K",mg,--,--,648,144
"Sodium, Na",mg,--,--,18,4
Vitamins
"Vitamin C, total ascorbic acid",mg,--,--,6.3,1.4
"Vitamin A, IU",IU,--,--,6134,1363
Lipids
"Fatty acids, total saturated",g,--,--,0.000,0.000
"Fatty acids, total trans",g,--,--,0.000,0.000
"Cholesterol",mg,--,--,0,0
Amino Acids
Other
Ingredients
"MANGO PUREE, APPLE JUICE, ORANGE JUICE, BANANA PUREE, LEMON JUICE, NATURAL FLAVORS, BETA CAROTENE (VITAMIN A)." Date available: 07/14/2017 Date last updated by company: 07/14/2017
