Source: USDA Branded Food Products Database Release December 2017 Software v.3.8.6.4 2017-10-02
Report Run at: December 18, 2017 15:25 EST
"Nutrient data for: 45239887, 100% JUICE, UPC: 075355112517"
Food Group:  Branded Food Products Database
Common Name:

Nutrient,Unit,Data points,Std. Error,"8.0 FL OZ (240 ML) | RECON. = 60.0g",1Value per 100 g,
Proximates
"Energy",kcal,--,--,120,200
"Protein",g,--,--,0.00,0.00
"Total lipid (fat)",g,--,--,0.00,0.00
"Carbohydrate, by difference",g,--,--,31.00,51.67
"Sugars, total",g,--,--,29.00,48.33
Minerals
"Iron, Fe",mg,--,--,0.36,0.60
"Potassium, K",mg,--,--,280,467
"Sodium, Na",mg,--,--,25,42
Vitamins
"Vitamin C, total ascorbic acid",mg,--,--,72.0,120.0
Lipids
Amino Acids
Other
Ingredients
"APPLE JUICE CONCENTRATE, FILTERED WATER, PEAR JUICE CONCENTRATE, GRAPE JUICE CONCENTRATE, NATURAL FLAVORS, CITRIC ACID, CRANBERRY JUICE CONCENTRATE, ASCORBIC ACID (VITAMIN C)." Date available: 07/14/2017 Date last updated by company: 07/14/2017
