Source: USDA Branded Food Products Database Release December 2017 Software v.3.8.6.4 2017-10-02
Report Run at: December 18, 2017 15:27 EST
"Nutrient data for: 45262978, 100% JUICE, UPC: 014800004724"
Food Group:  Branded Food Products Database
Common Name:

Nutrient,Unit,Data points,Std. Error,"8.0 OZA = 240.0g",1Value per 100 g,
Proximates
"Energy",kcal,--,--,120,50
"Protein",g,--,--,0.00,0.00
"Total lipid (fat)",g,--,--,0.00,0.00
"Carbohydrate, by difference",g,--,--,28.99,12.08
"Sugars, total",g,--,--,27.00,11.25
Minerals
"Iron, Fe",mg,--,--,0.72,0.30
"Potassium, K",mg,--,--,290,121
"Sodium, Na",mg,--,--,29,12
Vitamins
"Vitamin C, total ascorbic acid",mg,--,--,72.0,30.0
Lipids
Amino Acids
Other
Ingredients
"WATER, APPLE JUICE CONCENTRATE, MANGO PUREE CONCENTRATE, ASCORBIC ACID (VITAMIN C), NATURAL FLAVORS, BETA CAROTENE (FOR COLOR)." Date available: 07/14/2017 Date last updated by company: 07/14/2017
