Source: USDA Branded Food Products Database Release December 2017 Software v.3.8.6.4 2017-10-02
Report Run at: December 18, 2017 05:28 EST
"Nutrient data for: 45316823, 100% ORGANIC LENTILS, UPC: 661475114434"
Food Group:  Branded Food Products Database
Common Name:

Nutrient,Unit,Data points,Std. Error,"0.5 cup = 130.0g",1Value per 100 g,
Proximates
"Energy",kcal,--,--,112,86
"Protein",g,--,--,9.59,7.38
"Total lipid (fat)",g,--,--,1.00,0.77
"Carbohydrate, by difference",g,--,--,16.50,12.69
"Fiber, total dietary",g,--,--,10.0,7.7
"Sugars, total",g,--,--,0.49,0.38
Minerals
"Calcium, Ca",mg,--,--,40,31
"Iron, Fe",mg,--,--,4.75,3.65
"Sodium, Na",mg,--,--,384,295
Vitamins
"Vitamin C, total ascorbic acid",mg,--,--,11.3,8.7
"Vitamin A, IU",IU,--,--,377,290
Lipids
"Fatty acids, total saturated",g,--,--,0.000,0.000
"Fatty acids, total trans",g,--,--,0.000,0.000
"Cholesterol",mg,--,--,0,0
Amino Acids
Other
Ingredients
"ORGANIC LENTILS, WATER, SEA SALT." Date available: 07/14/2017 Date last updated by company: 07/14/2017
