Source: USDA Branded Food Products Database Release December 2017 Software v.3.8.6.4 2017-10-02
Report Run at: December 17, 2017 16:35 EST
"Nutrient data for: 45317349, 100% FRUIT & VEGETABLE JUICE, UPC: 048500021491"
Food Group:  Branded Food Products Database
Common Name:

Nutrient,Unit,Data points,Std. Error,"12.0 OZA = 355.0g",1Value per 100 g,
Proximates
"Energy",kcal,--,--,192,54
"Protein",g,--,--,1.99,0.56
"Total lipid (fat)",g,--,--,0.00,0.00
"Carbohydrate, by difference",g,--,--,46.01,12.96
"Sugars, total",g,--,--,36.99,10.42
Minerals
"Calcium, Ca",mg,--,--,21,6
"Iron, Fe",mg,--,--,0.50,0.14
"Magnesium, Mg",mg,--,--,18,5
"Potassium, K",mg,--,--,561,158
"Sodium, Na",mg,--,--,60,17
Vitamins
"Vitamin C, total ascorbic acid",mg,--,--,60.7,17.1
"Vitamin A, IU",IU,--,--,2364,666
Lipids
"Fatty acids, total saturated",g,--,--,0.000,0.000
"Fatty acids, total trans",g,--,--,0.000,0.000
"Cholesterol",mg,--,--,0,0
Amino Acids
Other
Ingredients
"RECONSTITUTED CLARIFIED SWEET POTATO JUICE, GRAPE JUICE, APPLE JUICE, CARROT JUICE, BANANA PUREE, STRAWBERRY PUREE AND RED BEET JUICE (FILTERED WATER, CLARIFIED SWEET POTATO JUICE, GRAPE JUICE, APPLE JUICE, BANANA PUREE, CARROT JUICE, STRAWBERRY PUREE AND RED BEET JUICE CONCENTRATES), NATURAL FLAVORS, CITRIC ACID, ASCORBIC ACID (VITAMIN C) AND BETA-CAROTENE." Date available: 07/14/2017 Date last updated by company: 07/14/2017
