Source: USDA Branded Food Products Database Release December 2017 Software v.3.8.6.4 2017-10-02
Report Run at: December 18, 2017 14:02 EST
"Nutrient data for: 45137901, 100% POMEGRANATE CHERRY JUICE, UPC: 824150405160"
Food Group:  Branded Food Products Database
Common Name:

Nutrient,Unit,Data points,Std. Error,"8.0 ONZ = 236.0g",1Value per 100 g,
Proximates
"Energy",kcal,--,--,151,64
"Protein",g,--,--,0.99,0.42
"Total lipid (fat)",g,--,--,0.00,0.00
"Carbohydrate, by difference",g,--,--,35.99,15.25
"Fiber, total dietary",g,--,--,0.0,0.0
"Sugars, total",g,--,--,29.00,12.29
Minerals
"Calcium, Ca",mg,--,--,19,8
"Iron, Fe",mg,--,--,0.35,0.15
"Potassium, K",mg,--,--,571,242
"Sodium, Na",mg,--,--,9,4
Vitamins
"Vitamin C, total ascorbic acid",mg,--,--,1.2,0.5
"Vitamin A, IU",IU,--,--,101,43
Lipids
"Fatty acids, total saturated",g,--,--,0.000,0.000
"Fatty acids, total trans",g,--,--,0.000,0.000
"Cholesterol",mg,--,--,0,0
Amino Acids
Other
Ingredients
"POMEGRANATE (51%) AND CHERRY (49%) JUICES FROM CONCENTRATE." Date available: 07/14/2017 Date last updated by company: 07/14/2017
