Source: USDA Branded Food Products Database Release December 2017 Software v.3.8.6.4 2017-10-02
Report Run at: December 18, 2017 15:25 EST
"Nutrient data for: 45239797, 100% JUICE, UPC: 889497108365"
Food Group:  Branded Food Products Database
Common Name:

Nutrient,Unit,Data points,Std. Error,"8.0 OZA = 240.0g",1Value per 100 g,
Proximates
"Energy",kcal,--,--,149,62
"Protein",g,--,--,0.00,0.00
"Total lipid (fat)",g,--,--,0.00,0.00
"Carbohydrate, by difference",g,--,--,37.99,15.83
"Sugars, total",g,--,--,34.01,14.17
Minerals
"Potassium, K",mg,--,--,170,71
"Sodium, Na",mg,--,--,24,10
Vitamins
"Vitamin C, total ascorbic acid",mg,--,--,72.0,30.0
Lipids
Amino Acids
Other
Ingredients
"APPLE JUICE FROM CONCENTRATE (WATER, JUICE CONCENTRATE), WHITE GRAPE JUICE FROM CONCENTRATE (WATER, JUICE CONCENTRATE), ASCORBIC ACID (VITAMIN C), CITRIC ACID, NATURAL FLAVORS." Date available: 07/14/2017 Date last updated by company: 07/14/2017
