Source: USDA Branded Food Products Database Release December 2017 Software v.3.8.6.4 2017-10-02
Report Run at: December 16, 2017 22:47 EST
"Nutrient data for: 45258390, 100% ALL NATURAL TURKEY MEATBALLS IN TOMATO SAUCE, UPC: 856106004035"
Food Group:  Branded Food Products Database
Common Name:

Nutrient,Unit,Data points,Std. Error,"1 MEATBALL = 170.0g",1Value per 100 g,
Proximates
"Energy",kcal,--,--,201,118
"Protein",g,--,--,14.99,8.82
"Total lipid (fat)",g,--,--,11.00,6.47
"Carbohydrate, by difference",g,--,--,8.99,5.29
"Fiber, total dietary",g,--,--,2.0,1.2
"Sugars, total",g,--,--,2.99,1.76
Minerals
"Calcium, Ca",mg,--,--,150,88
"Iron, Fe",mg,--,--,1.27,0.75
"Sodium, Na",mg,--,--,510,300
Vitamins
"Vitamin C, total ascorbic acid",mg,--,--,6.3,3.7
"Vitamin A, IU",IU,--,--,529,311
Lipids
"Fatty acids, total saturated",g,--,--,3.502,2.060
"Cholesterol",mg,--,--,75,44
Amino Acids
Other
Ingredients
"MEATBALL; TURKEY, EGGS, BREAD CRUMBS [UNBLEACHED FLOUR (WHEAT FLOUR, MALTED BARLEY FLOUR) WATER, BUTTER, YEAST, EGGS, SUGAR, SALT], PECORINO ROMANO CHEESE (PASTEURIZED SHEEP'S MILK, CULTURES, RENNET, SALT), GRANA PADANO CHEESE (COWS MILK, SALT, RENNET, LYZOZYME FROM EGG WHITE) PARSLEY. UNBLEACHED FLOUR (WHEAT FLOUR, MALTED BARLEY FLOUR), SHALLOTS, BASIL, GARLIC, CANOLA OIL, BLACK PEPPER, TOMATO SAUCE: ITALIAN PEELED TOMATOES (PEELED TOMATOES, TOMATO PUREE, SALT, CITRIC ACID, BASIL LEAF), WATER, ONION, EXTRA VIRGIN OLIVE OIL, TOMATO PASTE, SALT, PEPPER, PARSLEY, BASIL." Date available: 07/14/2017 Date last updated by company: 07/14/2017
