Source: USDA Branded Food Products Database Release December 2017 Software v.3.8.6.4 2017-10-02
Report Run at: December 19, 2017 02:39 EST
"Nutrient data for: 45203942, 100% WHOLE CHOCOLATE MILK, UPC: 893660002077"
Food Group:  Branded Food Products Database
Common Name:

Nutrient,Unit,Data points,Std. Error,"1 cup = 236.0g",1Value per 100 g,
Proximates
"Energy",kcal,--,--,201,85
"Protein",g,--,--,8.00,3.39
"Total lipid (fat)",g,--,--,8.00,3.39
"Carbohydrate, by difference",g,--,--,27.00,11.44
"Fiber, total dietary",g,--,--,0.9,0.4
"Sugars, total",g,--,--,24.99,10.59
Minerals
"Calcium, Ca",mg,--,--,300,127
"Iron, Fe",mg,--,--,0.73,0.31
"Potassium, K",mg,--,--,769,326
"Sodium, Na",mg,--,--,201,85
Vitamins
"Vitamin C, total ascorbic acid",mg,--,--,0.0,0.0
"Vitamin A, IU",IU,--,--,304,129
Lipids
"Fatty acids, total saturated",g,--,--,5.003,2.120
"Fatty acids, total trans",g,--,--,0.000,0.000
"Cholesterol",mg,--,--,35,15
Amino Acids
Other
Ingredients
"MILK, SUGAR, COCOA, (PROCESSED WITH ALKALI), DEXTROSE. CORNSTARCH, SALT, CARAGEENAN AND PURE VANILLA." Date available: 10/19/2017 Date last updated by company: 10/19/2017
