Source: USDA Branded Food Products Database Release December 2017 Software v.3.8.6.4 2017-10-02
Report Run at: December 18, 2017 15:28 EST
"Nutrient data for: 45275394, 100% JUICE, UPC: 041800158003"
Food Group:  Branded Food Products Database
Common Name:

Nutrient,Unit,Data points,Std. Error,"2.0 OZA = 60.0g",1Value per 100 g,
Proximates
"Energy",kcal,--,--,130,217
"Protein",g,--,--,0.00,0.00
"Total lipid (fat)",g,--,--,0.00,0.00
"Carbohydrate, by difference",g,--,--,32.00,53.33
"Sugars, total",g,--,--,31.00,51.67
Minerals
"Calcium, Ca",mg,--,--,0,0
"Iron, Fe",mg,--,--,0.00,0.00
"Sodium, Na",mg,--,--,20,33
Vitamins
"Vitamin C, total ascorbic acid",mg,--,--,72.0,120.0
"Vitamin A, IU",IU,--,--,0,0
Lipids
Amino Acids
Other
Ingredients
"APPLE AND GRAPE JUICE CONCENTRATES, FILTERED WATER, PINEAPPLE AND CHERRY JUICE CONCENTRATES, NATURAL FLAVOR, ASCORBIC ACID (VITAMIN C), CITRIC ACID (FOR TARTNESS)." Date available: 07/14/2017 Date last updated by company: 07/14/2017
