Source: USDA Branded Food Products Database Release December 2017 Software v.3.8.6.4 2017-10-02
Report Run at: December 17, 2017 23:35 EST
"Nutrient data for: 45233441, 100% NATURAL CRUNCHY GRANOLA BARS, UPC: 041497543595"
Food Group:  Branded Food Products Database
Common Name:

Nutrient,Unit,Data points,Std. Error,"2.0 BARS = 42.0g",1Value per 100 g,
Proximates
"Energy",kcal,--,--,200,476
"Protein",g,--,--,4.00,9.52
"Total lipid (fat)",g,--,--,7.00,16.67
"Carbohydrate, by difference",g,--,--,29.00,69.05
"Fiber, total dietary",g,--,--,2.0,4.8
"Sugars, total",g,--,--,12.00,28.57
Minerals
"Calcium, Ca",mg,--,--,0,0
"Iron, Fe",mg,--,--,0.68,1.63
"Potassium, K",mg,--,--,105,250
"Sodium, Na",mg,--,--,150,357
Vitamins
"Vitamin C, total ascorbic acid",mg,--,--,0.0,0.0
"Vitamin A, IU",IU,--,--,0,0
Lipids
"Fatty acids, total saturated",g,--,--,0.500,1.190
"Fatty acids, total monounsaturated",g,--,--,3.998,9.520
"Fatty acids, total polyunsaturated",g,--,--,1.999,4.760
"Fatty acids, total trans",g,--,--,0.000,0.000
"Cholesterol",mg,--,--,0,0
Amino Acids
Other
Ingredients
"WHOLE GRAIN ROLLED OATS, SUGAR, CANOLA OIL, CRISP RICE WITH SOY PROTEIN (RICE FLOUR, SOY PROTEIN CONCENTRATE, SUGAR, SALT), MOLASSES, HONEY, SALT, SOY LECITHIN, NATURAL FLAVOR BAKING SODA, MIXED TOCOPHEROLS (TO RETAIN FRESHNESS), MAPLE SYRUP, BROWN SUGAR, PEANUT FLOUR." Date available: 07/14/2017 Date last updated by company: 07/14/2017
