Source: USDA Branded Food Products Database Release December 2017 Software v.3.8.6.4 2017-10-02
Report Run at: December 18, 2017 15:26 EST
"Nutrient data for: 45240482, 100% JUICE, UPC: 889497874574"
Food Group:  Branded Food Products Database
Common Name:

Nutrient,Unit,Data points,Std. Error,"1 BOX = 200.0g",1Value per 100 g,
Proximates
"Energy",kcal,--,--,100,50
"Protein",g,--,--,0.00,0.00
"Total lipid (fat)",g,--,--,0.00,0.00
"Carbohydrate, by difference",g,--,--,25.00,12.50
"Sugars, total",g,--,--,23.00,11.50
Minerals
"Potassium, K",mg,--,--,180,90
"Sodium, Na",mg,--,--,16,8
Vitamins
"Vitamin C, total ascorbic acid",mg,--,--,72.0,36.0
Lipids
Amino Acids
Other
Ingredients
"APPLE JUICE FROM CONCENTRATE (WATER, JUICE CONCENTRATE), GRAPE JUICE FROM CONCENTRATE (WATER, JUICE CONCENTRATE), NATURAL FLAVORS, ASCORBIC ACID (VITAMIN C), CITRIC ACID." Date available: 07/14/2017 Date last updated by company: 07/14/2017
