Source: USDA Branded Food Products Database Release December 2017 Software v.3.8.6.4 2017-10-02
Report Run at: December 19, 2017 02:50 EST
"Nutrient data for: 45147386, 12 CREAM PARTY, UPC: 851659006505"
Food Group:  Branded Food Products Database
Common Name:

Nutrient,Unit,Data points,Std. Error,"7.5 OZA = 225.0g",1Value per 100 g,
Proximates
"Energy",kcal,--,--,130,58
"Protein",g,--,--,0.00,0.00
"Total lipid (fat)",g,--,--,9.00,4.00
"Carbohydrate, by difference",g,--,--,11.99,5.33
"Fiber, total dietary",g,--,--,0.0,0.0
"Sugars, total",g,--,--,8.01,3.56
Minerals
"Calcium, Ca",mg,--,--,20,9
"Iron, Fe",mg,--,--,0.00,0.00
"Potassium, K",mg,--,--,490,218
"Sodium, Na",mg,--,--,20,9
Vitamins
"Vitamin C, total ascorbic acid",mg,--,--,0.0,0.0
"Vitamin A, IU",IU,--,--,0,0
Lipids
"Fatty acids, total saturated",g,--,--,8.010,3.560
"Fatty acids, total trans",g,--,--,0.000,0.000
"Cholesterol",mg,--,--,0,0
Amino Acids
Other
Ingredients
"COCONUT WATER, COCONUT CREAM" Date available: 07/14/2017 Date last updated by company: 07/14/2017
