Source: USDA Branded Food Products Database Release December 2017 Software v.3.8.6.4 2017-10-02
Report Run at: December 18, 2017 07:44 EST
"Nutrient data for: 45274416, 16 ORIGINAL BEEF PATTIES, UPC: 049485683308"
Food Group:  Branded Food Products Database
Common Name:

Nutrient,Unit,Data points,Std. Error,"1 PATTY = 85.0g",1Value per 100 g,
Proximates
"Energy",kcal,--,--,240,282
"Protein",g,--,--,16.00,18.82
"Total lipid (fat)",g,--,--,19.00,22.35
"Carbohydrate, by difference",g,--,--,4.00,4.71
"Fiber, total dietary",g,--,--,2.0,2.4
"Sugars, total",g,--,--,1.00,1.18
Minerals
"Calcium, Ca",mg,--,--,60,71
"Iron, Fe",mg,--,--,2.70,3.18
"Sodium, Na",mg,--,--,410,482
Vitamins
"Vitamin C, total ascorbic acid",mg,--,--,0.0,0.0
"Vitamin A, IU",IU,--,--,0,0
Lipids
"Fatty acids, total saturated",g,--,--,7.998,9.410
"Fatty acids, total trans",g,--,--,1.003,1.180
"Cholesterol",mg,--,--,50,59
Amino Acids
Other
Ingredients
"BEEF, WATER, TEXTURED SOY PROTEIN (SOY FLOUR, CARAMEL COLORED), SOY PROTEIN CONCENTRATE, HYDROLYZED SOY PROTEIN, SOY FLOUR, SALT, SEASONING (HYDROLYZED SOY AND CORN PROTEIN, SALT), CARAMEL COLOR." Date available: 07/14/2017 Date last updated by company: 07/14/2017
