Source: USDA Branded Food Products Database Release December 2017 Software v.3.8.6.4 2017-10-02
Report Run at: December 17, 2017 19:44 EST
"Nutrient data for: 45316237, 18 MILD COUNTRY SAUSAGE PATTIES, UPC: 072494480538"
Food Group:  Branded Food Products Database
Common Name:

Nutrient,Unit,Data points,Std. Error,"1 COOKED PATTY = 57.0g",1Value per 100 g,
Proximates
"Energy",kcal,--,--,160,281
"Protein",g,--,--,14.00,24.56
"Total lipid (fat)",g,--,--,11.00,19.30
"Carbohydrate, by difference",g,--,--,1.00,1.75
"Fiber, total dietary",g,--,--,0.0,0.0
"Sugars, total",g,--,--,0.00,0.00
Minerals
"Calcium, Ca",mg,--,--,20,35
"Iron, Fe",mg,--,--,0.70,1.22
"Sodium, Na",mg,--,--,520,912
Vitamins
"Vitamin C, total ascorbic acid",mg,--,--,0.0,0.0
"Vitamin A, IU",IU,--,--,96,169
Lipids
"Fatty acids, total saturated",g,--,--,4.001,7.020
"Fatty acids, total trans",g,--,--,0.000,0.000
"Cholesterol",mg,--,--,50,88
Amino Acids
Other
Ingredients
"PORK, WATER, CONTAINS 2% OR LESS OF THE FOLLOWING: SALT, SPICES, DEXTROSE, SODIUM TRIPOLYPHOSPHATE, NATURAL FLAVOR, MONOSODIUM GLUTAMATE, BHA, BHT, CITRIC ACID." Date available: 07/14/2017 Date last updated by company: 07/14/2017
