Source: USDA Branded Food Products Database Release December 2017 Software v.3.8.6.4 2017-10-02
Report Run at: December 18, 2017 07:30 EST
"Nutrient data for: 45021249, 1ST NATIONAL BAGEL COMPANY, PRESLICED BAGELS, RAISIN-CINNAMON, UPC: 735022003004"
Food Group:  Branded Food Products Database
Common Name:

Nutrient,Unit,Data points,Std. Error,"3.0 ONZ = 85.0g",1Value per 100 g,
Proximates
"Energy",kcal,--,--,230,271
"Protein",g,--,--,10.00,11.76
"Total lipid (fat)",g,--,--,1.00,1.18
"Carbohydrate, by difference",g,--,--,47.00,55.29
"Fiber, total dietary",g,--,--,2.0,2.4
"Sugars, total",g,--,--,8.00,9.41
Minerals
"Calcium, Ca",mg,--,--,0,0
"Iron, Fe",mg,--,--,5.82,6.85
"Sodium, Na",mg,--,--,400,471
Vitamins
"Vitamin C, total ascorbic acid",mg,--,--,0.0,0.0
"Vitamin A, IU",IU,--,--,0,0
Lipids
"Fatty acids, total saturated",g,--,--,0.000,0.000
"Fatty acids, total trans",g,--,--,0.000,0.000
"Cholesterol",mg,--,--,0,0
Amino Acids
Other
Ingredients
"ENRICHED HIGH-GLUTEN FLOUR (WHEAT FLOUR, MALTED BARLEY FLOUR, NIACIN, REDUCED IRON, THIAMINE MONONITRATE, RIBOFLAVIN, FOLIC ACID), WATER, RAISINS, SUGAR, MALT, SALT, CINNAMON, CORNMEAL, CULTURED WHEAT FLOUR, MONO-AND DIGLYCERIDES, DATEM, CALCIUM PROPIONATE (PRESERVATIVE), YEAST, ENZYMES." Date available: 06/25/2017 Date last updated by company: 06/25/2017
