Source: USDA Branded Food Products Database Release December 2017 Software v.3.8.6.4 2017-10-02
Report Run at: December 17, 2017 18:50 EST
"Nutrient data for: 45197576, 20 SAUSAGE & BISCUITS, UPC: 072895121870"
Food Group:  Branded Food Products Database
Common Name:

Nutrient,Unit,Data points,Std. Error,"2.0 SANDWICHES = 82.0g",1Value per 100 g,
Proximates
"Energy",kcal,--,--,280,341
"Protein",g,--,--,8.00,9.76
"Total lipid (fat)",g,--,--,16.00,19.51
"Carbohydrate, by difference",g,--,--,26.00,31.71
"Fiber, total dietary",g,--,--,1.0,1.2
"Sugars, total",g,--,--,4.00,4.88
Minerals
"Calcium, Ca",mg,--,--,40,49
"Iron, Fe",mg,--,--,3.08,3.75
"Potassium, K",mg,--,--,130,159
"Sodium, Na",mg,--,--,640,780
Vitamins
"Vitamin C, total ascorbic acid",mg,--,--,0.0,0.0
"Vitamin A, IU",IU,--,--,0,0
Lipids
"Fatty acids, total saturated",g,--,--,5.002,6.100
"Fatty acids, total trans",g,--,--,1.000,1.220
"Cholesterol",mg,--,--,20,24
Amino Acids
Other
Ingredients
"BISCUIT: ENRICHED WHEAT FLOUR (BLEACHED WHEAT FLOUR, MALTED BARLEY FLOUR, NIACIN, REDUCED IRON, THIAMINE MONONITRATE, RIBOFLAVIN, FOLIC ACID), WATER, HIGH FRUCTOSE CORN SYRUP, SOYBEAN OIL, CONTAINS 2% OR LESS: SALT, YEAST, VITAL WHEAT GLUTEN, AZODICARBONAMIDE, ASCORBIC ACID, CALCIUM PROPIONATE (PRESERVATIVE), DOUGH CONDITIONERS (ENZYME), SAUSAGE PATTY: PORK, WATER, CONTAINS LESS THAN 2% OF: SALT, SPICE AND SPICE EXTRACTIVES, SODIUM PHOSPHATES, SUGAR, MONOSODIUM GLUTAMATE, CARAMEL COLOR, BHT, CITRIC ACID, PROPYL GALLATE." Date available: 07/14/2017 Date last updated by company: 07/14/2017
