Source: USDA Branded Food Products Database Release December 2017 Software v.3.8.6.4 2017-10-02
Report Run at: December 18, 2017 00:08 EST
"Nutrient data for: 45202864, 20G PROTEIN BAR, CHIA & FLAX SEEDS, UPC: 853152100445"
Food Group:  Branded Food Products Database
Common Name:

Nutrient,Unit,Data points,Std. Error,"1 BAR = 70.0g",1Value per 100 g,
Proximates
"Energy",kcal,--,--,290,414
"Protein",g,--,--,20.00,28.57
"Total lipid (fat)",g,--,--,10.00,14.29
"Carbohydrate, by difference",g,--,--,32.00,45.71
"Fiber, total dietary",g,--,--,5.0,7.1
"Sugars, total",g,--,--,15.00,21.43
Minerals
"Calcium, Ca",mg,--,--,80,114
"Iron, Fe",mg,--,--,1.03,1.47
"Potassium, K",mg,--,--,190,271
"Sodium, Na",mg,--,--,380,543
Vitamins
"Vitamin C, total ascorbic acid",mg,--,--,0.0,0.0
"Vitamin A, IU",IU,--,--,0,0
Lipids
"Fatty acids, total saturated",g,--,--,4.998,7.140
"Fatty acids, total trans",g,--,--,0.000,0.000
"Cholesterol",mg,--,--,0,0
Amino Acids
Other
Ingredients
"SOY PROTEIN ISOLATE, ORGANIC TAPIOCA SYRUP, GROUND PEANUTS, ORGANIC AGAVE SYRUP, ORGANIC DRIED CANE SYRUP, FRACTIONATED PALM KERNEL OIL, GLYCERINE, ORGANIC AGAVE INULIN, PARTIALLY DEFATTED PEANUT FLOUR, OMEGA BLEND (FLAXSEED, CHIA SEED), COCOA, TAPIOCA STARCH, ORGANIC SOY PROTEIN ISOLATE, NATURAL FLAVOR, SALT, SOY LECITHIN, COCOA (PROCESSED WITH ALKALI), UNSWEETENED CHOCOLATE, GUM ARABIC, ROSEMARY EXTRACT, TOCOPHEROLS ADDED TO PROTECT FLAVOR, CITRIC ACID, ASCORBIC ACID." Date available: 07/14/2017 Date last updated by company: 07/14/2017
