Source: USDA Branded Food Products Database Release December 2017 Software v.3.8.6.4 2017-10-02
Report Run at: December 19, 2017 06:01 EST
"Nutrient data for: 45098976, 22 DAYS NUTRITION, ORGANIC PROTEIN BAR, DAILY, MOCHA MANTRA, UPC: 853409003055"
Food Group:  Branded Food Products Database
Common Name:

Nutrient,Unit,Data points,Std. Error,"1 BAR = 50.0g",1Value per 100 g,
Proximates
"Energy",kcal,--,--,220,440
"Protein",g,--,--,10.00,20.00
"Total lipid (fat)",g,--,--,12.00,24.00
"Carbohydrate, by difference",g,--,--,21.00,42.00
"Fiber, total dietary",g,--,--,5.0,10.0
"Sugars, total",g,--,--,14.00,28.00
Minerals
"Calcium, Ca",mg,--,--,60,120
"Iron, Fe",mg,--,--,1.44,2.88
"Sodium, Na",mg,--,--,20,40
Vitamins
"Vitamin C, total ascorbic acid",mg,--,--,0.0,0.0
"Vitamin A, IU",IU,--,--,0,0
Lipids
"Fatty acids, total saturated",g,--,--,2.500,5.000
"Fatty acids, total trans",g,--,--,0.000,0.000
"Cholesterol",mg,--,--,0,0
Amino Acids
Other
Ingredients
"ORGANIC RAW ALMOND BUTTER, ORGANIC COCONUT SYRUP, ORGANIC HEMP PROTEIN CONCENTRATE, ORGANIC COCOA POWDER, ORGANIC COFFEE, ORGANIC BROWN RICE PROTEIN CONCENTRATE, ORGANIC INULIN (DIETARY FIBER), SEA SALT. CHOCOLATE COATING: ORGANIC DARK CHOCOLATE (ORGANIC EVAPORATED CANE JUICE, ORGANIC COCOA BUTTER, ORGANIC CHOCOLATE LIQUOR, ORGANIC SOYA LECITHIN)" Date available: 07/14/2017 Date last updated by company: 07/14/2017
