Source: USDA Branded Food Products Database Release December 2017 Software v.3.8.6.4 2017-10-02
Report Run at: December 19, 2017 00:22 EST
"Nutrient data for: 45120568, 24 CARROT ORANGE ORGANIC FRUIT SNACK MADE WITH 0.5 CUP OF FRUITS & VEGGIES, UPC: 853311005147"
Food Group:  Branded Food Products Database
Common Name:

Nutrient,Unit,Data points,Std. Error,"1 POUCH = 99.0g",1Value per 100 g,
Proximates
"Energy",kcal,--,--,70,71
"Protein",g,--,--,0.00,0.00
"Total lipid (fat)",g,--,--,0.00,0.00
"Carbohydrate, by difference",g,--,--,17.00,17.17
"Sugars, total",g,--,--,12.00,12.12
Minerals
"Sodium, Na",mg,--,--,20,20
Vitamins
"Vitamin C, total ascorbic acid",mg,--,--,30.3,30.6
"Vitamin A, IU",IU,--,--,1010,1020
Lipids
Amino Acids
Other
Ingredients
"ORGANIC WHITE GRAPE JUICE (WATER, ORGANIC WHITE GRAPE JUICE CONCENTRATE), ORGANIC CARROT JUICE (WATER, ORGANIC CARROT JUICE CONCENTRATE), ORGANIC APPLE JUICE (WATER, ORGANIC APPLE JUICE CONCENTRATE), ORGANIC ORANGE JUICE (WATER, ORGANIC ORANGE JUICE CONCENTRATE), ORGANIC TAPIOCA STARCH, CAROB BEAN GUM, NATURAL FLAVORS, CITRIC ACID, ASCORBIC ACID." Date available: 10/11/2017 Date last updated by company: 10/11/2017
