Source: USDA Branded Food Products Database Release December 2017 Software v.3.8.6.4 2017-10-02
Report Run at: December 18, 2017 00:20 EST
"Nutrient data for: 45289138, 24 GRAIN & SEED BREAD, UPC: 073711840302"
Food Group:  Branded Food Products Database
Common Name:

Nutrient,Unit,Data points,Std. Error,"1 SLICE = 43.0g",1Value per 100 g,
Proximates
"Energy",kcal,--,--,120,279
"Protein",g,--,--,5.00,11.63
"Total lipid (fat)",g,--,--,3.50,8.14
"Carbohydrate, by difference",g,--,--,19.00,44.19
"Fiber, total dietary",g,--,--,4.0,9.3
"Sugars, total",g,--,--,4.00,9.30
Minerals
"Calcium, Ca",mg,--,--,60,140
"Iron, Fe",mg,--,--,1.67,3.89
"Sodium, Na",mg,--,--,170,395
Vitamins
"Vitamin C, total ascorbic acid",mg,--,--,0.0,0.0
"Vitamin A, IU",IU,--,--,0,0
Lipids
"Fatty acids, total saturated",g,--,--,0.000,0.000
"Fatty acids, total trans",g,--,--,0.000,0.000
"Cholesterol",mg,--,--,0,0
Amino Acids
Other
Ingredients
"WATER, ORGANIC WHOLE WHEAT FLOUR, ORGANIC DRIED CANE SYRUP, ORGANIC STEEL CUT WHITE WHOLE WHEAT, YEAST, ORGANIC WHEAT GLUTEN, ORGANIC BLACK SESAME SEED, ORGANIC BROWN FLAX SEED, ORGANIC POPPY SEED, CONTAINS 2% OR LESS OF THE FOLLOWING: ORGANIC CRIMSON RED CORN MEAL, ORGANIC WHOLE GRAIN WHEAT, ORGANIC WHOLE GRAIN OATS, ORGANIC WHOLE GRAIN TRITICALE, ORGANIC WHOLE GRAIN BARLEY, ORGANIC WHOLE GRAIN CORN, ORGANIC WHOLE GRAIN RYE, ORGANIC WHOLE GRAIN SPELT, ORGANIC WHOLE GRAIN KHORASAN WHEAT, ORGANIC SUNFLOWER SEEDS, ORGANIC SESAME SEEDS, ORGANIC WHOLE GRAIN BULGUR WHEAT, ORGANIC BROWN RICE, ORGANIC WHOLE GRAIN BUCKWHEAT, ORGANIC QUINOA, ORGANIC MILLET, ORGANIC AMARANTH, ORGANIC ROLLED OATS, ORGANIC VINEGAR, SEA SALT, ORGANIC SOYBEAN OIL, ORGANIC MOLASSES, CULTURED ORGANIC UNBLEACHED WHEAT FLOUR, ORGANIC AMARANTH, ORGANIC PUMPKIN SEEDS, ORGANIC SOY LECITHIN, CALCIUM SULFATE, ASCORBIC ACID, ENZYMES." Date available: 07/14/2017 Date last updated by company: 07/14/2017
