Source: USDA Branded Food Products Database Release December 2017 Software v.3.8.6.4 2017-10-02
Report Run at: December 19, 2017 00:15 EST
"Nutrient data for: 45322933, 3 COLOR CHEESE TORTELLINI, UPC: 072036014641"
Food Group:  Branded Food Products Database
Common Name:

Nutrient,Unit,Data points,Std. Error,"1 cup = 115.0g",1Value per 100 g,
Proximates
"Energy",kcal,--,--,320,278
"Protein",g,--,--,15.00,13.04
"Total lipid (fat)",g,--,--,5.00,4.35
"Carbohydrate, by difference",g,--,--,56.01,48.70
"Fiber, total dietary",g,--,--,3.0,2.6
"Sugars, total",g,--,--,3.00,2.61
Minerals
"Calcium, Ca",mg,--,--,78,68
"Iron, Fe",mg,--,--,2.00,1.74
"Potassium, K",mg,--,--,184,160
"Sodium, Na",mg,--,--,200,174
Vitamins
Lipids
"Fatty acids, total saturated",g,--,--,2.001,1.740
"Fatty acids, total trans",g,--,--,0.000,0.000
"Cholesterol",mg,--,--,49,43
Amino Acids
Other
Ingredients
"PASTA: ENRICHED DURUM WHEAT SEMOLINA (ENRICHED WITH NIACIN, FERROUS SULFATE, THIAMIN MONONITRATE, RIBOFLAVIN, FOLIC ACID), WHOLE PASTEURIZED EGGS, ENRICHED WHEAT FLOUR (ENRICHED WITH NIACIN, FERROUS SULFATE, THIAMIN MONONITRATE, RIBOFLAVIN, FOLIC ACID), WATER, TOMATO AND BEET POWDER, SPINACH POWDER. FILLING: CHEESE (RICOTTA, PARMESAN, ROMANO, ASIAGO, BLUE CHEESE [PASTEURIZED COW'S MILK, WHEY, SALT, LIPASE, MICROBIAL ENZYME, BACTERIAL CULTURE, CALCIUM CHLORIDE, PENICILLIUM ROQUEFORTI, CITRIC ACID]), TOASTED WHEAT CRUMBS (WHEAT FLOUR, YEAST), CANOLA OIL, NATURAL ROMANO CHEESE FLAVOR (ROMANO CHEESE [PASTEURIZED COW'S MILK, CULTURES, SALT, AND ENZYMES], WATER, CREAM, SALT, NATURAL FLAVORS, SODIUM PHOSPHATE, SODIUM CITRATE, XANTHAN GUM), YEAST EXTRACT, SALT, SPICES, ONION POWDER." Date available: 09/25/2017 Date last updated by company: 09/25/2017
