Source: USDA Branded Food Products Database Release December 2017 Software v.3.8.6.4 2017-10-02
Report Run at: December 17, 2017 06:13 EST
"Nutrient data for: 45059534, 365 EVERYDAY VALUE, LIGHTLY SALTED TORTILLA CHIPS, MULTIGRAIN, UPC: 099482435530"
Food Group:  Branded Food Products Database
Common Name:

Nutrient,Unit,Data points,Std. Error,"8.0 CHIPS | ABOUT = 28.0g",1Value per 100 g,
Proximates
"Energy",kcal,--,--,150,536
"Protein",g,--,--,3.00,10.71
"Total lipid (fat)",g,--,--,8.00,28.57
"Carbohydrate, by difference",g,--,--,16.00,57.14
"Fiber, total dietary",g,--,--,2.0,7.1
"Sugars, total",g,--,--,0.00,0.00
Minerals
"Calcium, Ca",mg,--,--,20,71
"Iron, Fe",mg,--,--,1.29,4.59
"Potassium, K",mg,--,--,110,393
"Sodium, Na",mg,--,--,45,161
Vitamins
"Vitamin C, total ascorbic acid",mg,--,--,0.0,0.0
"Vitamin A, IU",IU,--,--,0,0
Lipids
"Fatty acids, total saturated",g,--,--,1.000,3.570
"Fatty acids, total monounsaturated",g,--,--,1.999,7.140
"Fatty acids, total polyunsaturated",g,--,--,4.500,16.070
"Fatty acids, total trans",g,--,--,0.000,0.000
"Cholesterol",mg,--,--,0,0
Amino Acids
Other
Ingredients
"STONE GROUND WHITE CORN, EXPELLER PRESSED CORN OR SUNFLOWER SEED OIL, BROWN RICE FLOUR, SUNFLOWER KERNELS, BROWN FLAXSEED, OAT FIBER, SOY GRITS, WHITE SESAME SEED, ORGANIC QUINOA FLOUR, SEA SALT, WATER, TRACE OF LIME." Date available: 07/14/2017 Date last updated by company: 07/14/2017
