Source: USDA Branded Food Products Database Release December 2017 Software v.3.8.6.4 2017-10-02
Report Run at: December 17, 2017 06:06 EST
"Nutrient data for: 45168023, 365 EVERYDAY VALUE, BREADED CHICKENLESS PATTIES, UPC: 099482443085"
Food Group:  Branded Food Products Database
Common Name:

Nutrient,Unit,Data points,Std. Error,"1 PATTY | ABOUT = 71.0g",1Value per 100 g,
Proximates
"Energy",kcal,--,--,150,211
"Protein",g,--,--,11.00,15.49
"Total lipid (fat)",g,--,--,6.00,8.45
"Carbohydrate, by difference",g,--,--,14.00,19.72
"Fiber, total dietary",g,--,--,2.0,2.8
"Sugars, total",g,--,--,1.00,1.41
Minerals
"Calcium, Ca",mg,--,--,20,28
"Iron, Fe",mg,--,--,0.84,1.18
"Sodium, Na",mg,--,--,410,577
Vitamins
"Vitamin C, total ascorbic acid",mg,--,--,0.0,0.0
"Vitamin A, IU",IU,--,--,0,0
Lipids
"Fatty acids, total saturated",g,--,--,0.497,0.700
"Fatty acids, total monounsaturated",g,--,--,3.500,4.930
"Fatty acids, total polyunsaturated",g,--,--,2.002,2.820
"Fatty acids, total trans",g,--,--,0.000,0.000
"Cholesterol",mg,--,--,0,0
Amino Acids
Other
Ingredients
"WATER, TEXTURED WHEAT PROTEIN, BREAD CRUMBS (UNBLEACHED ENRICHED WHEAT FLOUR [WHEAT FLOUR, NIACIN, FERROUS SULFATE, THIAMINE MONONITRATE, RIBOFLAVIN, FOLIC ACID], ORGANIC CANE SUGAR, SEA SALT, YEAST, EXPELLER PRESSED CANOLA OIL, CORN FLOUR, EXTRACTIVES OF PAPRIKA, ROSEMARY EXTRACT), EXPELLER PRESSED CANOLA OIL, VITAL WHEAT GLUTEN, NATURAL FLAVORS, BATTER (UNBLEACHED WHEAT FLOUR, CORNSTARCH, CORN FLOUR, SEA SALT, EXPELLER PRESSED CANOLA OIL, SODIUM ACID PYROPHOSPHATE, BAKING SODA [SODIUM BICARBONATE], GUAR GUM), CELLULOSE GUM, WHEAT STARCH, PEA FIBER, PEA PROTEIN, ONION POWDER, GARLIC POWDER, SEA SALT, GROUND CELERY SEED." Date available: 09/24/2017 Date last updated by company: 09/24/2017
