Source: USDA Branded Food Products Database Release December 2017 Software v.3.8.6.4 2017-10-02
Report Run at: December 17, 2017 06:20 EST
"Nutrient data for: 45090711, 365 EVERYDAY VALUE, ORGANIC MIXED BERRY CONSERVE, UPC: 099482161521"
Food Group:  Branded Food Products Database
Common Name:

Nutrient,Unit,Data points,Std. Error,"1 Tbsp = 19.0g",1Value per 100 g,
Proximates
"Energy",kcal,--,--,40,211
"Protein",g,--,--,0.00,0.00
"Total lipid (fat)",g,--,--,0.00,0.00
"Carbohydrate, by difference",g,--,--,10.00,52.63
"Fiber, total dietary",g,--,--,0.0,0.0
"Sugars, total",g,--,--,10.00,52.63
Minerals
"Calcium, Ca",mg,--,--,0,0
"Iron, Fe",mg,--,--,0.00,0.00
"Potassium, K",mg,--,--,15,79
"Sodium, Na",mg,--,--,0,0
Vitamins
"Vitamin C, total ascorbic acid",mg,--,--,40.6,213.6
"Vitamin A, IU",IU,--,--,0,0
Lipids
"Fatty acids, total saturated",g,--,--,0.000,0.000
"Fatty acids, total trans",g,--,--,0.000,0.000
"Cholesterol",mg,--,--,0,0
Amino Acids
Other
Ingredients
"ORGANIC FRUIT (ORGANIC BLUEBERRIES, ORGANIC STRAWBERRIES, ORGANIC SEEDLESS BLACKBERRY PUREE, ORGANIC ORGANIC SEEDLESS RASPBERRY PUREE), ORGANIC CANE SUGAR, NATURAL FRUIT PECTIN, ASCORBIC ACID, CITRIC ACID." Date available: 06/25/2017 Date last updated by company: 06/25/2017
