Source: USDA Branded Food Products Database Release December 2017 Software v.3.8.6.4 2017-10-02
Report Run at: December 17, 2017 06:19 EST
"Nutrient data for: 45091032, 365 EVERYDAY VALUE, ORGANIC HOT COCOA, MILK CHOCOLATE, UPC: 099482421236"
Food Group:  Branded Food Products Database
Common Name:

Nutrient,Unit,Data points,Std. Error,"1 PACKET MIX (MAKES 6 FL OZ) = 28.0g",1Value per 100 g,
Proximates
"Energy",kcal,--,--,110,393
"Protein",g,--,--,2.00,7.14
"Total lipid (fat)",g,--,--,0.00,0.00
"Carbohydrate, by difference",g,--,--,24.00,85.71
"Fiber, total dietary",g,--,--,1.0,3.6
"Sugars, total",g,--,--,22.00,78.57
Minerals
"Calcium, Ca",mg,--,--,100,357
"Iron, Fe",mg,--,--,0.00,0.00
"Sodium, Na",mg,--,--,140,500
Vitamins
"Vitamin C, total ascorbic acid",mg,--,--,0.0,0.0
"Vitamin A, IU",IU,--,--,0,0
Lipids
"Fatty acids, total saturated",g,--,--,0.000,0.000
"Fatty acids, total trans",g,--,--,0.000,0.000
"Cholesterol",mg,--,--,0,0
Amino Acids
Other
Ingredients
"ORGANIC CANE SYRUP SOLIDS, ORGANIC NONFAT DRY MILK, ORGANIC COCOA (PROCESSED WITH ALKALI), SEA SALT, CALCIUM CARBONATE, NATURAL VANILLA FLAVOR, XANTHAN GUM." Date available: 08/11/2017 Date last updated by company: 08/11/2017
