Source: USDA Branded Food Products Database Release December 2017 Software v.3.8.6.4 2017-10-02
Report Run at: December 17, 2017 06:18 EST
"Nutrient data for: 45167816, 365 EVERYDAY VALUE, ORGANIC FIVE CHEESE RAVIOLI, UPC: 099482425951"
Food Group:  Branded Food Products Database
Common Name:

Nutrient,Unit,Data points,Std. Error,"0.5 PACKAGE = 114.0g",1Value per 100 g,
Proximates
"Energy",kcal,--,--,260,228
"Protein",g,--,--,10.00,8.77
"Total lipid (fat)",g,--,--,4.50,3.95
"Carbohydrate, by difference",g,--,--,44.00,38.60
"Fiber, total dietary",g,--,--,2.1,1.8
"Sugars, total",g,--,--,1.00,0.88
Minerals
"Calcium, Ca",mg,--,--,80,70
"Iron, Fe",mg,--,--,0.75,0.66
"Potassium, K",mg,--,--,140,123
"Sodium, Na",mg,--,--,170,149
Vitamins
"Vitamin C, total ascorbic acid",mg,--,--,3.8,3.3
"Vitamin A, IU",IU,--,--,106,93
Lipids
"Fatty acids, total saturated",g,--,--,2.497,2.190
"Fatty acids, total trans",g,--,--,0.000,0.000
"Cholesterol",mg,--,--,21,18
Amino Acids
Other
Ingredients
"FILLING: ORGANIC RICOTTA CHEESE (ORGANIC PASTEURIZED MILK, ORGANIC VINEGAR, SALT), ORGANIC HALF & HALF (ORGANIC PASTEURIZED MILK, ORGANIC PASTEURIZED CREAM), WATER, ORGANIC POTATO FLAKES, ORGANIC MOZZARELLA CHEESE (ORGANIC PASTEURIZED MILK, CULTURE, VEGETABLE ENZYME, SALT), ORGANIC ASIAGO CHEESE (ORGANIC PASTEURIZED MILK, CULTURE, VEGETABLE ENZYME, SALT), ORGANIC PARMESAN CHEESE (ORGANIC PASTEURIZED MILK, CULTURE, VEGETABLE ENZYME, SALT), ORGANIC ROMANO CHEESE (ORGANIC PASTEURIZED MILK, CULTURE, VEGETABLE ENZYME, SALT), ORGANIC GRANULATED GARLIC, SEA SALT, ORGANIC WHITE PEPPER, DOUGH: ORGANIC UNBLEACHED WHEAT FLOUR, WATER, ORGANIC DURUM WHEAT SEMOLINA, ORGANIC EGGS, ORGANIC TURMERIC." Date available: 07/14/2017 Date last updated by company: 07/14/2017
