Source: USDA Branded Food Products Database Release December 2017 Software v.3.8.6.4 2017-10-02
Report Run at: December 17, 2017 06:17 EST
"Nutrient data for: 45087387, 365 EVERYDAY VALUE, ORGANIC CREAMY VODKA PASTA SAUCE, UPC: 099482455767"
Food Group:  Branded Food Products Database
Common Name:

Nutrient,Unit,Data points,Std. Error,"0.5 cup = 118.0g",1Value per 100 g,
Proximates
"Energy",kcal,--,--,80,68
"Protein",g,--,--,1.99,1.69
"Total lipid (fat)",g,--,--,4.50,3.81
"Carbohydrate, by difference",g,--,--,7.00,5.93
"Fiber, total dietary",g,--,--,2.0,1.7
"Sugars, total",g,--,--,3.00,2.54
Minerals
"Calcium, Ca",mg,--,--,80,68
"Iron, Fe",mg,--,--,1.14,0.97
"Potassium, K",mg,--,--,190,161
"Sodium, Na",mg,--,--,440,373
Vitamins
"Vitamin C, total ascorbic acid",mg,--,--,12.6,10.7
"Vitamin A, IU",IU,--,--,422,358
Lipids
"Fatty acids, total saturated",g,--,--,1.994,1.690
"Fatty acids, total trans",g,--,--,0.000,0.000
"Cholesterol",mg,--,--,9,8
Amino Acids
Other
Ingredients
"ORGANIC TOMATO PUREE, ORGANIC DICED TOMATOES ORGANIC HEAVY CREAM, ORGANIC EXTRA VIRGIN OLIVE OIL, ORGANIC GARLIC PUREE, ORGANIC ONIONS, SALT, ORGANIC GARLIC, ORGANIC PARMESAN CHEESE (CULTURED PASTEURIZED ORGANIC MILK, SALT, POWDERED CELLULOSE [TO PREVENT CAKING], MICROBIAL ENZYMES), ORGANIC ROMANO CHEESE (CULTURED PASTEURIZED ORGANIC MILK, SALT, POWDERED CELLULOSE [TO PREVENT CAKING], MICROBIAL ENZYMES), ORGANIC BASIL, ORGANIC VODKA, ORGANIC BLACK PEPPER, ORGANIC OREGANO." Date available: 07/14/2017 Date last updated by company: 07/14/2017
