Source: USDA Branded Food Products Database Release December 2017 Software v.3.8.6.4 2017-10-02
Report Run at: December 17, 2017 06:06 EST
"Nutrient data for: 45167946, 365 EVERYDAY VALUE, BLUEBERRY WAFFLES, UPC: 099482436971"
Food Group:  Branded Food Products Database
Common Name:

Nutrient,Unit,Data points,Std. Error,"2.0 WAFFLES = 70.0g",1Value per 100 g,
Proximates
"Energy",kcal,--,--,180,257
"Protein",g,--,--,4.00,5.71
"Total lipid (fat)",g,--,--,7.00,10.00
"Carbohydrate, by difference",g,--,--,28.00,40.00
"Fiber, total dietary",g,--,--,3.0,4.3
"Sugars, total",g,--,--,5.00,7.14
Minerals
"Calcium, Ca",mg,--,--,0,0
"Iron, Fe",mg,--,--,1.31,1.87
"Sodium, Na",mg,--,--,270,386
Vitamins
"Vitamin C, total ascorbic acid",mg,--,--,0.0,0.0
"Vitamin A, IU",IU,--,--,0,0
Lipids
"Fatty acids, total saturated",g,--,--,1.001,1.430
"Fatty acids, total trans",g,--,--,0.000,0.000
"Cholesterol",mg,--,--,0,0
Amino Acids
Other
Ingredients
"WATER, ORGANIC WHOLE WHEAT FLOUR, ORGANIC ENRICHED WHEAT FLOUR (ORGANIC WHEAT FLOUR, NIACIN, REDUCED IRON, THIAMIN MONONITRATE, RIBOFLAVIN, FOLIC ACID, ASCORBIC ACID [VITAMIN C]), ORGANIC EXPELLER PRESSED CANOLA AND/OR ORGANIC EXPELLER PRESSED SOYBEAN OIL, ORGANIC EVAPORATED CANE SUGAR, LEAVENING (SODIUM ACID PYROPHOSPHATE, SODIUM BICARBONATE, MONOCALCIUM PHOSPHATE), ORGANIC BLUEBERRY PUREE, ORGANIC PEAR JUICE CONCENTRATE, ORGANIC WHEAT BRAN, ORGANIC SOY LECITHIN (EMULSIFIER), NATURAL FLAVOR, SEA SALT, CITRIC ACID, SODIUM ALGINATE, SODIUM BICARBONATE, ORGANIC ELDERBERRY JUICE CONCENTRATE, DICALCIUM PHOSPHATE." Date available: 07/14/2017 Date last updated by company: 07/14/2017
