Source: USDA Branded Food Products Database Release December 2017 Software v.3.8.6.4 2017-10-02
Report Run at: December 17, 2017 06:15 EST
"Nutrient data for: 45029402, 365 EVERYDAY VALUE, MORNING O'S, HONEY & NUT, LIGHTLY SWEETENED ORGANIC WHOLE GRAIN OAT & RICE FLOUR CEREAL, WITH REAL ORGANIC HONEY & ALMONDS, UPC: 099482452940"
Food Group:  Branded Food Products Database
Common Name:

Nutrient,Unit,Data points,Std. Error,"0.75 cup = 28.0g",1Value per 100 g,
Proximates
"Energy",kcal,--,--,110,393
"Protein",g,--,--,2.00,7.14
"Total lipid (fat)",g,--,--,1.00,3.57
"Carbohydrate, by difference",g,--,--,23.00,82.14
"Fiber, total dietary",g,--,--,2.0,7.1
"Sugars, total",g,--,--,8.00,28.57
Minerals
"Calcium, Ca",mg,--,--,80,286
"Iron, Fe",mg,--,--,1.03,3.67
"Potassium, K",mg,--,--,75,268
"Sodium, Na",mg,--,--,75,268
Vitamins
"Vitamin C, total ascorbic acid",mg,--,--,0.0,0.0
"Vitamin A, IU",IU,--,--,0,0
Lipids
"Fatty acids, total saturated",g,--,--,0.000,0.000
"Fatty acids, total trans",g,--,--,0.000,0.000
"Cholesterol",mg,--,--,0,0
Amino Acids
Other
Ingredients
"ORGANIC WHOLE GRAIN OATS, ORGANIC CANE SUGAR, ORGANIC RICE FLOUR, ORGANIC HONEY, ORGANIC ALMONDS, SEA SALT, CALCIUM CARBONATE, MIXED TOCOPHEROLS ADDED TO MAINTAIN FRESHNESS." Date available: 06/24/2017 Date last updated by company: 06/24/2017
