Source: USDA Branded Food Products Database Release December 2017 Software v.3.8.6.4 2017-10-02
Report Run at: December 17, 2017 06:19 EST
"Nutrient data for: 45168374, 365 EVERYDAY VALUE, ORGANIC INSTANT PUDDING CHOCOLATE, UPC: 099482460761"
Food Group:  Branded Food Products Database
Common Name:

Nutrient,Unit,Data points,Std. Error,"0.25 PACKAGE, ABOUT 0.5 CUP PREPARED = 28.0g",1Value per 100 g,
Proximates
"Energy",kcal,--,--,100,357
"Protein",g,--,--,1.00,3.57
"Total lipid (fat)",g,--,--,0.00,0.00
"Carbohydrate, by difference",g,--,--,25.00,89.29
"Fiber, total dietary",g,--,--,1.0,3.6
"Sugars, total",g,--,--,15.00,53.57
Minerals
"Calcium, Ca",mg,--,--,0,0
"Iron, Fe",mg,--,--,3.86,13.78
"Sodium, Na",mg,--,--,75,268
Vitamins
"Vitamin C, total ascorbic acid",mg,--,--,0.0,0.0
"Vitamin A, IU",IU,--,--,0,0
Lipids
"Fatty acids, total saturated",g,--,--,0.000,0.000
"Fatty acids, total trans",g,--,--,0.000,0.000
"Cholesterol",mg,--,--,0,0
Amino Acids
Other
Ingredients
"ORGANIC CANE SUGAR, ORGANIC CORNSTARCH, ORGANIC COCOA POWDER (PROCESSED WITH ALKALI)*, SEA SALT." Date available: 07/14/2017 Date last updated by company: 07/14/2017
