Source: USDA Branded Food Products Database Release December 2017 Software v.3.8.6.4 2017-10-02
Report Run at: December 17, 2017 06:12 EST
"Nutrient data for: 45168337, 365 EVERYDAY VALUE, JUICE DRINK WITH PULP, ALOE VERA, UPC: 099482459741"
Food Group:  Branded Food Products Database
Common Name:

Nutrient,Unit,Data points,Std. Error,"8.0 OZA = 240.0g",1Value per 100 g,
Proximates
"Energy",kcal,--,--,50,21
"Protein",g,--,--,0.00,0.00
"Total lipid (fat)",g,--,--,0.00,0.00
"Carbohydrate, by difference",g,--,--,13.01,5.42
"Fiber, total dietary",g,--,--,0.0,0.0
"Sugars, total",g,--,--,12.00,5.00
Minerals
"Calcium, Ca",mg,--,--,41,17
"Iron, Fe",mg,--,--,0.00,0.00
"Sodium, Na",mg,--,--,65,27
Vitamins
"Vitamin C, total ascorbic acid",mg,--,--,26.9,11.2
"Vitamin A, IU",IU,--,--,0,0
Lipids
"Fatty acids, total saturated",g,--,--,0.000,0.000
"Fatty acids, total trans",g,--,--,0.000,0.000
"Cholesterol",mg,--,--,0,0
Amino Acids
Other
Ingredients
"REVERSE OSMOSIS WATER, ALOE VERA JUICE, ALOE VERA PULP, CANE SUGAR, NATURAL WHITE GRAPE FLAVOR, CALCIUM LACTATE, SODIUM CITRATE, CITRIC ACID, MALIC ACID, GELLAN GUM, ASCORBIC ACID (VITAMIN C)." Date available: 07/14/2017 Date last updated by company: 07/14/2017
