Source: USDA Branded Food Products Database Release December 2017 Software v.3.8.6.4 2017-10-02
Report Run at: December 17, 2017 06:18 EST
"Nutrient data for: 45029407, 365 EVERYDAY VALUE, ORGANIC FROSTED FLAKES CEREAL, UPC: 099482438999"
Food Group:  Branded Food Products Database
Common Name:

Nutrient,Unit,Data points,Std. Error,"1 cup = 30.0g",1Value per 100 g,
Proximates
"Energy",kcal,--,--,110,367
"Protein",g,--,--,1.00,3.33
"Total lipid (fat)",g,--,--,0.00,0.00
"Carbohydrate, by difference",g,--,--,27.00,90.00
"Fiber, total dietary",g,--,--,1.0,3.3
"Sugars, total",g,--,--,8.00,26.67
Minerals
"Calcium, Ca",mg,--,--,0,0
"Iron, Fe",mg,--,--,0.66,2.20
"Potassium, K",mg,--,--,45,150
"Sodium, Na",mg,--,--,65,217
Vitamins
"Vitamin C, total ascorbic acid",mg,--,--,0.0,0.0
"Vitamin A, IU",IU,--,--,0,0
Lipids
"Fatty acids, total saturated",g,--,--,0.000,0.000
"Fatty acids, total monounsaturated",g,--,--,0.000,0.000
"Fatty acids, total polyunsaturated",g,--,--,0.000,0.000
"Fatty acids, total trans",g,--,--,0.000,0.000
"Cholesterol",mg,--,--,0,0
Amino Acids
Other
Ingredients
"ORGANIC MILLED CORN, ORGANIC CANE SUGAR, SEA SALT." Date available: 06/24/2017 Date last updated by company: 06/24/2017
