Source: USDA Branded Food Products Database Release December 2017 Software v.3.8.6.4 2017-10-02
Report Run at: December 17, 2017 06:21 EST
"Nutrient data for: 45168352, 365 EVERYDAY VALUE, ORGANIC SOUP, CARIBBEAN BLACK BEAN, UPC: 099482460174"
Food Group:  Branded Food Products Database
Common Name:

Nutrient,Unit,Data points,Std. Error,"1 cup = 245.0g",1Value per 100 g,
Proximates
"Energy",kcal,--,--,169,69
"Protein",g,--,--,8.99,3.67
"Total lipid (fat)",g,--,--,0.00,0.00
"Carbohydrate, by difference",g,--,--,35.01,14.29
"Fiber, total dietary",g,--,--,7.1,2.9
"Sugars, total",g,--,--,5.00,2.04
Minerals
"Calcium, Ca",mg,--,--,59,24
"Iron, Fe",mg,--,--,2.69,1.10
"Potassium, K",mg,--,--,659,269
"Sodium, Na",mg,--,--,720,294
Vitamins
"Vitamin C, total ascorbic acid",mg,--,--,0.0,0.0
"Vitamin A, IU",IU,--,--,500,204
Lipids
"Fatty acids, total saturated",g,--,--,0.000,0.000
"Fatty acids, total trans",g,--,--,0.000,0.000
"Cholesterol",mg,--,--,0,0
Amino Acids
Other
Ingredients
"FILTERED WATER, ORGANIC BLACK BEANS, ORGANIC DICED TOMATOES (ORGANIC TOMATOES, ORGANIC TOMATO JUICE, CALCIUM CHLORIDE, CITRIC ACID), ORGANIC RED BELL PEPPERS, ORGANIC CORN, ORGANIC TOMATO PASTE, ORGANIC BROWN RICE, ORGANIC ONIONS, CONTAINS LESS THAN 2% OF: ORGANIC POTATO STARCH, ORGANIC PINEAPPLE JUICE CONCENTRATE, SEA SALT, ORGANIC JALAPENO PEPPERS, ORGANIC GINGER PUREE, ORGANIC GARLIC PUREE, ORGANIC CILANTRO, ORGANIC ONION POWDER, ORGANIC LIME JUICE CONCENTRATE, ORGANIC PAPRIKA, ORGANIC THYME, ORGANIC CAYENNE PEPPER, ORGANIC ALLSPICE, ORGANIC BLACK PEPPER." Date available: 07/14/2017 Date last updated by company: 07/14/2017
