Source: USDA Branded Food Products Database Release December 2017 Software v.3.8.6.4 2017-10-02
Report Run at: December 17, 2017 06:14 EST
"Nutrient data for: 45167825, 365 EVERYDAY VALUE, MACARONI & CHEESE, UPC: 099482427702"
Food Group:  Branded Food Products Database
Common Name:

Nutrient,Unit,Data points,Std. Error,"2.5 ONZ = 70.0g",1Value per 100 g,
Proximates
"Energy",kcal,--,--,240,343
"Protein",g,--,--,8.00,11.43
"Total lipid (fat)",g,--,--,1.00,1.43
"Carbohydrate, by difference",g,--,--,51.00,72.86
"Fiber, total dietary",g,--,--,2.0,2.9
"Sugars, total",g,--,--,4.00,5.71
Minerals
"Calcium, Ca",mg,--,--,60,86
"Iron, Fe",mg,--,--,6.43,9.18
"Sodium, Na",mg,--,--,550,786
Vitamins
"Vitamin C, total ascorbic acid",mg,--,--,0.0,0.0
"Vitamin A, IU",IU,--,--,1429,2041
Lipids
"Fatty acids, total saturated",g,--,--,0.000,0.000
"Fatty acids, total trans",g,--,--,0.000,0.000
"Cholesterol",mg,--,--,0,0
Amino Acids
Other
Ingredients
"ENRICHED MACARONI PRODUCT (DURUM WHEAT FLOUR, NIACIN, IRON [FERROUS SULFATE], THIAMINE MONONITRATE, RIBOFLAVIN, FOLIC ACID), CHEDDAR CHEESE SAUCE (UNBLEACHED ENRICHED WHEAT FLOUR [WHEAT FLOUR, NIACIN, IRON, THIAMINE MONONITRATE, RIBOFLAVIN, FOLIC ACID], WHEY [MILK], MALTODEXTRIN**, CHEDDAR CHEESE [PASTEURIZED MILK, CHEESE CULTURE, SALT, MICROBIAL ENZYMES], SALT, NONFAT DRY MILK, CORNSTARCH, NATURAL FLAVORS, CITRIC ACID, SODIUM PHOSPHATE, YEAST EXTRACT, ANNATTO [FOR COLOR], BETA CAROTENE [FOR COLOR])." Date available: 07/14/2017 Date last updated by company: 07/14/2017
