Source: USDA Branded Food Products Database Release December 2017 Software v.3.8.6.4 2017-10-02
Report Run at: December 17, 2017 06:25 EST
"Nutrient data for: 45168267, 365 EVERYDAY VALUE, RAISIN BREAD, CINNAMON, UPC: 099482455880"
Food Group:  Branded Food Products Database
Common Name:

Nutrient,Unit,Data points,Std. Error,"1 SLICE = 32.0g",1Value per 100 g,
Proximates
"Energy",kcal,--,--,90,281
"Protein",g,--,--,2.00,6.25
"Total lipid (fat)",g,--,--,1.00,3.12
"Carbohydrate, by difference",g,--,--,19.00,59.38
"Fiber, total dietary",g,--,--,1.0,3.1
"Sugars, total",g,--,--,8.00,25.00
Minerals
"Calcium, Ca",mg,--,--,20,62
"Iron, Fe",mg,--,--,1.69,5.28
"Sodium, Na",mg,--,--,110,344
Vitamins
"Vitamin C, total ascorbic acid",mg,--,--,0.0,0.0
"Vitamin A, IU",IU,--,--,0,0
Lipids
"Fatty acids, total saturated",g,--,--,0.000,0.000
"Fatty acids, total trans",g,--,--,0.000,0.000
"Cholesterol",mg,--,--,0,0
Amino Acids
Other
Ingredients
"UNBLEACHED ENRICHED WHEAT FLOUR (WHEAT FLOUR, MALTED BARLEY FLOUR, NIACIN, REDUCED IRON, THIAMINE MONONITRATE, RIBOFLAVIN, FOLIC ACID), RAISINS, WATER, GRAIN BLEND (OAT FLOUR, POTATO FLAKES), CINNAMON CHIPS (SUGAR, PALM OIL, CINNAMON, SOY LECITHIN [EMULSIFIER], NONFAT DRY MILK), SUGAR, YEAST, CONTAINS 2% OR LESS OF THE FOLLOWING: VITAL WHEAT GLUTEN, CANOLA AND/OR SOYBEAN OIL, CINNAMON SWIRL BLEND (SUGAR, COCOA POWDER [PROCESSED WITH ALKALI], CINNAMON), SALT, CULTURED WHEAT FLOUR, ASCORBIC ACID (VITAMIN C), MICROBIAL ENZYMES." Date available: 07/14/2017 Date last updated by company: 07/14/2017
