Source: USDA Branded Food Products Database Release December 2017 Software v.3.8.6.4 2017-10-02
Report Run at: December 17, 2017 06:23 EST
"Nutrient data for: 45168013, 365 EVERYDAY VALUE, ORGANIC WHOLE WHEAT PANCAKES, UPC: 099482442866"
Food Group:  Branded Food Products Database
Common Name:

Nutrient,Unit,Data points,Std. Error,"3.0 PANCAKES = 117.0g",1Value per 100 g,
Proximates
"Energy",kcal,--,--,209,179
"Protein",g,--,--,7.00,5.98
"Total lipid (fat)",g,--,--,2.50,2.14
"Carbohydrate, by difference",g,--,--,41.00,35.04
"Fiber, total dietary",g,--,--,5.0,4.3
"Sugars, total",g,--,--,9.00,7.69
Minerals
"Calcium, Ca",mg,--,--,60,51
"Iron, Fe",mg,--,--,1.36,1.16
"Potassium, K",mg,--,--,60,51
"Sodium, Na",mg,--,--,410,350
Vitamins
"Vitamin C, total ascorbic acid",mg,--,--,0.0,0.0
"Vitamin A, IU",IU,--,--,0,0
Lipids
"Fatty acids, total saturated",g,--,--,0.503,0.430
"Fatty acids, total trans",g,--,--,0.000,0.000
"Cholesterol",mg,--,--,0,0
Amino Acids
Other
Ingredients
"ORGANIC WHOLE WHEAT FLOUR, ORGANIC SKIM MILK, WATER, ORGANIC CANE SUGAR, ORGANIC EXPELLER PRESSED SOYBEAN OIL, LEAVENING (SODIUM BICARBONATE, SODIUM ACID PYROPHOSPHATE, MONOCALCIUM PHOSPHATE), ORGANIC VANILLA FLAVOR, SEA SALT, ORGANIC OAT FIBER, ORGANIC EGGS, ORGANIC SOY LECITHIN (EMULSIFIER)." Date available: 09/23/2017 Date last updated by company: 09/23/2017
