Source: USDA Branded Food Products Database Release December 2017 Software v.3.8.6.4 2017-10-02
Report Run at: December 17, 2017 06:14 EST
"Nutrient data for: 45168351, 365 EVERYDAY VALUE, MINESTRONE WITH FARRO SOUP, UPC: 099482460181"
Food Group:  Branded Food Products Database
Common Name:

Nutrient,Unit,Data points,Std. Error,"1 cup = 245.0g",1Value per 100 g,
Proximates
"Energy",kcal,--,--,149,61
"Protein",g,--,--,7.01,2.86
"Total lipid (fat)",g,--,--,1.00,0.41
"Carbohydrate, by difference",g,--,--,29.99,12.24
"Fiber, total dietary",g,--,--,5.9,2.4
"Sugars, total",g,--,--,3.99,1.63
Minerals
"Calcium, Ca",mg,--,--,59,24
"Iron, Fe",mg,--,--,1.79,0.73
"Potassium, K",mg,--,--,500,204
"Sodium, Na",mg,--,--,571,233
Vitamins
"Vitamin C, total ascorbic acid",mg,--,--,0.0,0.0
"Vitamin A, IU",IU,--,--,2249,918
Lipids
"Fatty acids, total saturated",g,--,--,0.000,0.000
"Fatty acids, total trans",g,--,--,0.000,0.000
"Cholesterol",mg,--,--,0,0
Amino Acids
Other
Ingredients
"FILTERED WATER, ORGANIC DICED TOMATOES (ORGANIC TOMATOES, ORGANIC TOMATO JUICE, CALCIUM CHLORIDE, CITRIC ACID), ORGANIC CARROTS, ORGANIC FARRO (WHEAT), ORGANIC ONIONS, ORGANIC TOMATO PASTE, ORGANIC CHICKPEAS, ORGANIC RED KIDNEY BEANS, ORGANIC GREEN BEANS, ORGANIC CELERY, CONTAINS LESS THAN 2% OF: ORGANIC GARLIC PUREE, ORGANIC CARROT PUREE, ORGANIC POTATO STARCH, SEA SALT, ORGANIC BASIL, ORGANIC OREGANO, ORGANIC ONION POWDER, ORGANIC BLACK PEPPER." Date available: 07/14/2017 Date last updated by company: 07/14/2017
