Source: USDA Branded Food Products Database Release December 2017 Software v.3.8.6.4 2017-10-02
Report Run at: December 17, 2017 06:07 EST
"Nutrient data for: 45253407, 365 EVERYDAY VALUE, CHICKEN & WILD RICE SOUP, UPC: 099482442705"
Food Group:  Branded Food Products Database
Common Name:

Nutrient,Unit,Data points,Std. Error,"1 cup = 245.0g",1Value per 100 g,
Proximates
"Energy",kcal,--,--,100,41
"Protein",g,--,--,8.01,3.27
"Total lipid (fat)",g,--,--,0.00,0.00
"Carbohydrate, by difference",g,--,--,17.00,6.94
"Fiber, total dietary",g,--,--,2.0,0.8
"Sugars, total",g,--,--,2.01,0.82
Minerals
"Calcium, Ca",mg,--,--,20,8
"Iron, Fe",mg,--,--,0.71,0.29
"Potassium, K",mg,--,--,159,65
"Sodium, Na",mg,--,--,691,282
Vitamins
"Vitamin C, total ascorbic acid",mg,--,--,0.0,0.0
"Vitamin A, IU",IU,--,--,2499,1020
Lipids
"Fatty acids, total saturated",g,--,--,0.000,0.000
"Fatty acids, total trans",g,--,--,0.000,0.000
"Cholesterol",mg,--,--,0,0
Amino Acids
Other
Ingredients
"CHICKEN BROTH (FILTERED WATER, CONCENTRATED CHICKEN STOCK), COOKED WHITE CHICKEN (CHICKEN WHITE MEAT, FILTERED WATER, POTATO STARCH, SEA SALT), CARROTS, CELERY, WILD RICE, POTATO STARCH, ONIONS, CORNSTARCH, LONG GRAIN WHITE RICE, CANE SUGAR, SEA SALT, GARLIC POWDER, BETA CAROTENE (FOR COLOR)." Date available: 07/14/2017 Date last updated by company: 07/14/2017
