Source: USDA Branded Food Products Database Release December 2017 Software v.3.8.6.4 2017-10-02
Report Run at: December 17, 2017 06:21 EST
"Nutrient data for: 45096947, 365 EVERYDAY VALUE, ORGANIC PEPPERED BEEF JERKY, UPC: 099482415204"
Food Group:  Branded Food Products Database
Common Name:

Nutrient,Unit,Data points,Std. Error,"1 ONZ = 28.0g",1Value per 100 g,
Proximates
"Energy",kcal,--,--,70,250
"Protein",g,--,--,11.00,39.29
"Total lipid (fat)",g,--,--,1.00,3.57
"Carbohydrate, by difference",g,--,--,5.00,17.86
"Fiber, total dietary",g,--,--,0.0,0.0
"Sugars, total",g,--,--,5.00,17.86
Minerals
"Calcium, Ca",mg,--,--,0,0
"Iron, Fe",mg,--,--,1.29,4.59
"Potassium, K",mg,--,--,135,482
"Sodium, Na",mg,--,--,270,964
Vitamins
"Vitamin C, total ascorbic acid",mg,--,--,0.0,0.0
"Vitamin A, IU",IU,--,--,0,0
Lipids
"Fatty acids, total saturated",g,--,--,0.000,0.000
"Fatty acids, total trans",g,--,--,0.000,0.000
"Cholesterol",mg,--,--,10,36
Amino Acids
Other
Ingredients
"ORGANIC BEEF, ORGANIC EVAPORATED CANE SUGAR, WATER, ORGANIC SOY SAUCE (WATER, ORGANIC SOYBEANS, SALT, ORGANIC ALCOHOL), ORGANIC APPLE CIDER VINEGAR, ORGANIC BLACK PEPPER, SEA SALT, ORGANIC PAPRIKA, NATURAL SMOKE FLAVOR, ORGANIC ONION POWDER, ORGANIC GARLIC POWDER." Date available: 06/25/2017 Date last updated by company: 06/25/2017
