Source: USDA Branded Food Products Database Release December 2017 Software v.3.8.6.4 2017-10-02
Report Run at: December 17, 2017 06:26 EST
"Nutrient data for: 45060493, 365 EVERYDAY VALUE, SHELLS & CREAMY CHEDDAR SAUCE, CHEDDAR CHEESE, UPC: 099482438203"
Food Group:  Branded Food Products Database
Common Name:

Nutrient,Unit,Data points,Std. Error,"0.5 CUP PASTA  AND 1/4 CUP CHEESE SAUCE | ABOUT = 113.0g",1Value per 100 g,
Proximates
"Energy",kcal,--,--,370,327
"Protein",g,--,--,12.99,11.50
"Total lipid (fat)",g,--,--,12.99,11.50
"Carbohydrate, by difference",g,--,--,48.00,42.48
"Fiber, total dietary",g,--,--,2.0,1.8
"Sugars, total",g,--,--,8.99,7.96
Minerals
"Calcium, Ca",mg,--,--,200,177
"Iron, Fe",mg,--,--,1.59,1.41
"Sodium, Na",mg,--,--,970,858
Vitamins
"Vitamin C, total ascorbic acid",mg,--,--,0.0,0.0
"Vitamin A, IU",IU,--,--,885,783
Lipids
"Fatty acids, total saturated",g,--,--,8.000,7.080
"Fatty acids, total trans",g,--,--,0.000,0.000
"Cholesterol",mg,--,--,35,31
Amino Acids
Other
Ingredients
"ORGANIC MACARONI PRODUCT (ORGANIC DURUM WHEAT SEMOLINA FLOUR), ORGANIC CHEDDAR CHEESE SAUCE (ORGANIC CHEDDAR CHEESE [PASTEURIZED ORGANIC MILK, CHEESE CULTURE, SALT, ENZYMES], WATER, ORGANIC WHEY, ORGANIC BUTTER [PASTEURIZED ORGANIC SWEET CREAM, SALT], SODIUM PHOSPHATE, CONTAINS 2% OR LESS OF EACH OF THE FOLLOWING: SALT, ORGANIC GUAR GUM, COLORS [ORGANIC FRUIT JUICE (ORGANIC PUMPKIN, ORGANIC APPLE), ANNATTO EXTRACT], LACTIC ACID, SODIUM CITRATE, ENZYMES)." Date available: 07/14/2017 Date last updated by company: 07/14/2017
