Source: USDA Branded Food Products Database Release December 2017 Software v.3.8.6.4 2017-10-02
Report Run at: December 17, 2017 06:20 EST
"Nutrient data for: 45168303, 365 EVERYDAY VALUE, ORGANIC MEDITERRANEAN OLIVES, UPC: 099482458317"
Food Group:  Branded Food Products Database
Common Name:

Nutrient,Unit,Data points,Std. Error,"3.0 OLIVES = 15.0g",1Value per 100 g,
Proximates
"Energy",kcal,--,--,35,233
"Protein",g,--,--,0.00,0.00
"Total lipid (fat)",g,--,--,3.50,23.33
"Carbohydrate, by difference",g,--,--,1.00,6.67
Minerals
"Sodium, Na",mg,--,--,230,1533
Vitamins
Lipids
"Cholesterol",mg,--,--,0,0
Amino Acids
Other
Ingredients
"ORGANIC OLIVES (ORGANIC KALAMATA OLIVES, ORGANIC AMFISSA OLIVES), WATER, ORGANIC RED WINE VINEGAR , SEA SALT, ORGANIC SPICES (ORGANIC OREGANO, ORGANIC BAY LEAF), CITRIC ACID." Date available: 10/13/2017 Date last updated by company: 10/13/2017
