Source: USDA Branded Food Products Database Release December 2017 Software v.3.8.6.4 2017-10-02
Report Run at: December 17, 2017 06:23 EST
"Nutrient data for: 45167860, 365 EVERYDAY VALUE, ORGANIC WHOLE WHEAT BREAD, TOUCH OF HONEY, UPC: 099482430955"
Food Group:  Branded Food Products Database
Common Name:

Nutrient,Unit,Data points,Std. Error,"1 SLICE = 43.0g",1Value per 100 g,
Proximates
"Energy",kcal,--,--,100,233
"Protein",g,--,--,4.00,9.30
"Total lipid (fat)",g,--,--,1.00,2.33
"Carbohydrate, by difference",g,--,--,19.00,44.19
"Fiber, total dietary",g,--,--,3.0,7.0
"Sugars, total",g,--,--,2.00,4.65
Minerals
"Calcium, Ca",mg,--,--,0,0
"Iron, Fe",mg,--,--,0.84,1.95
"Potassium, K",mg,--,--,80,186
"Sodium, Na",mg,--,--,160,372
Vitamins
"Vitamin C, total ascorbic acid",mg,--,--,0.0,0.0
"Thiamin",mg,--,--,0.000,0.000
"Riboflavin",mg,--,--,0.034,0.079
"Niacin",mg,--,--,1.396,3.247
"Vitamin A, IU",IU,--,--,0,0
Lipids
"Fatty acids, total saturated",g,--,--,0.000,0.000
"Fatty acids, total trans",g,--,--,0.000,0.000
"Cholesterol",mg,--,--,0,0
Amino Acids
Other
Ingredients
"ORGANIC WHOLE WHEAT FLOUR, WATER, ORGANIC HONEY, ORGANIC VITAL WHEAT GLUTEN, ORGANIC EVAPORATED CANE JUICE, YEAST, ORGANIC EXPELLER PRESSED HIGH OLEIC SUNFLOWER AND/OR SAFFLOWER SEED OIL, SEA SALT, ORGANIC OAT FLOUR, ORGANIC VINEGAR, ORGANIC MOLASSES, ORGANIC CULTURED WHEAT STARCH, ORGANIC BARLEY MALT, ASCORBIC ACID (VITAMIN C), MICROBIAL ENZYMES." Date available: 07/14/2017 Date last updated by company: 07/14/2017
