Source: USDA Branded Food Products Database Release December 2017 Software v.3.8.6.4 2017-10-02
Report Run at: December 19, 2017 01:59 EST
"Nutrient data for: 45273449, 4 CHEESE SAUCE, UPC: 747479001502"
Food Group:  Branded Food Products Database
Common Name:

Nutrient,Unit,Data points,Std. Error,"0.5 cup = 113.0g",1Value per 100 g,
Proximates
"Energy",kcal,--,--,80,71
"Protein",g,--,--,2.00,1.77
"Total lipid (fat)",g,--,--,6.00,5.31
"Carbohydrate, by difference",g,--,--,4.00,3.54
"Fiber, total dietary",g,--,--,1.0,0.9
"Sugars, total",g,--,--,4.00,3.54
Minerals
"Calcium, Ca",mg,--,--,60,53
"Iron, Fe",mg,--,--,0.76,0.67
"Sodium, Na",mg,--,--,360,319
Vitamins
"Vitamin C, total ascorbic acid",mg,--,--,9.5,8.4
"Vitamin A, IU",IU,--,--,792,701
Lipids
"Fatty acids, total saturated",g,--,--,0.994,0.880
"Fatty acids, total trans",g,--,--,0.000,0.000
"Cholesterol",mg,--,--,5,4
Amino Acids
Other
Ingredients
"ITALIAN TOMATOES, OLIVE OIL, PARMESAN CHEESE (COW'S MILK, SALT, CHEESE CULTURES, ENZYMES), CARROTS, WHEY, SALT, PECORINO ROMANO CHEESE (SHEEP'S MILK, ENZYMES, SALT), GRANA PADANO CHEESE (COW'S MILK, SALT, ENZYMES), ASIAGO CHEESE (COW'S MILK, SALT, ENZYMES), BASIL" Date available: 07/14/2017 Date last updated by company: 07/14/2017
