Source: USDA Branded Food Products Database Release December 2017 Software v.3.8.6.4 2017-10-02
Report Run at: December 19, 2017 01:53 EST
"Nutrient data for: 45328954, 4 CHEESE MEXICAN, UPC: 046100800850"
Food Group:  Branded Food Products Database
Common Name:

Nutrient,Unit,Data points,Std. Error,"0.25 cup = 28.0g",1Value per 100 g,
Proximates
"Energy",kcal,--,--,80,286
"Protein",g,--,--,8.00,28.57
"Total lipid (fat)",g,--,--,6.00,21.43
"Carbohydrate, by difference",g,--,--,1.00,3.57
"Fiber, total dietary",g,--,--,0.0,0.0
"Sugars, total",g,--,--,0.00,0.00
Minerals
"Calcium, Ca",mg,--,--,238,850
"Iron, Fe",mg,--,--,0.00,0.00
"Potassium, K",mg,--,--,25,89
"Sodium, Na",mg,--,--,190,679
Vitamins
"Vitamin D",IU,--,--,0,0
Lipids
"Fatty acids, total saturated",g,--,--,3.500,12.500
"Fatty acids, total trans",g,--,--,0.000,0.000
"Cholesterol",mg,--,--,15,54
Amino Acids
Other
Ingredients
"REDUCED FAT MONTEREY JACK CHEESE (PASTEURIZED REDUCED FAT MILK, CHEESE CULTURE, SALT, ENZYMES, VITAMIN A PALMITATE), REDUCED FAT CHEDDAR CHEESE [PASTEURIZED REDUCED FAT MILK, CHEESE CULTURE, SALT, ENZYMES, ANNATTO (VEGETABLE COLOR), VITAMIN A PALMITATE], REDUCED FAT QUESO QUESADILLA CHEESE (PASTEURIZED REDUCED FAT MILK, CHEESE CULTURE, SALT, ENZYMES, VITAMIN A PALMITATE), REDUCED FAT ASADERO CHEESE [PASTEURIZED REDUCED FAT MILK, CHEESE CULTURE, SALT, ENZYMES, ANNATTO (VEGETABLE COLOR), VITAMIN A PALMITATE], POTATO STARCH AND POWDERED CELLULOSE (TO PREVENT CAKING), NATAMYCIN (A NATURAL MOLD INHIBITOR)." Date available: 10/13/2017 Date last updated by company: 10/13/2017
