Source: USDA Branded Food Products Database Release December 2017 Software v.3.8.6.4 2017-10-02
Report Run at: December 19, 2017 01:40 EST
"Nutrient data for: 45324402, 5 CHEESE BREADSTICKS, UPC: 681131165655"
Food Group:  Branded Food Products Database
Common Name:

Nutrient,Unit,Data points,Std. Error,"2.0 BREADSTICKS = 62.0g",1Value per 100 g,
Proximates
"Energy",kcal,--,--,170,274
"Protein",g,--,--,8.00,12.90
"Total lipid (fat)",g,--,--,6.00,9.68
"Carbohydrate, by difference",g,--,--,20.00,32.26
"Fiber, total dietary",g,--,--,1.0,1.6
"Sugars, total",g,--,--,1.00,1.61
Minerals
"Calcium, Ca",mg,--,--,100,161
"Iron, Fe",mg,--,--,1.16,1.87
"Sodium, Na",mg,--,--,320,516
Vitamins
"Vitamin C, total ascorbic acid",mg,--,--,1.0,1.6
"Vitamin A, IU",IU,--,--,161,260
Lipids
"Fatty acids, total saturated",g,--,--,2.499,4.030
"Fatty acids, total trans",g,--,--,0.000,0.000
"Cholesterol",mg,--,--,10,16
Amino Acids
Other
Ingredients
"CRUST (ENRICHED FLOUR [WHEAT FLOUR, NIACIN, REDUCED IRON, THIAMINE MONONITRATE, RIBOFLAVIN, ENZYME, FOLIC ACID], WATER PRE-MIX BLEND [GLUCONO DELTA-LACTONE, BAKING SODA {SODIUM BICARBONATE}, ENCAPSULATED SALT {SALT, HYDROGENATED VEGETABLE OIL (PALM OIL)}, DOUGH CONDITIONER BLEND {WHEAT FLOUR, YEAST, WHEAT GLUTEN, CONTAINS LESS THAN 2% OF ENZYME, ASCORBIC ACID, L-CYSTEINE, SOYBEAN OIL}, VEGETABLE GUM BLEND {ARABIC, GUAR}, CELLULOSE GUM, SODIUM PROPIONATE {PRESERVATIVE}], HIGH FRUCTOSE CORN STARCH CORN SYRUP, SOYBEAN OIL, YEAST), FIVE CHEESE BLEND (LOW MOISTURE PART-SKIM MOZZARELLA CHEESE [PASTEURIZED PART SKIM MILK, CULTURES, SALT, ENZYMES], SHREDDED PARMESAN, ASIAGO, AND ROMANO CHEESE [PASTEURIZED COW'S MILK, CHEESE CULTURE, SALT, ENZYMES], POWDERED CELLULOSE [ANTI-CAKING AGENT], SHREDDED CHEESE [PASTEURIZED MILK, CHEESE CULTURES, SALT, ENZYMES, ANNATTO EXTRACT COLOR, POWDERED CELLULOSE [ANTI-CAKING AGENT], POWDERED CELLULOSE [ANTI-CAKING AGENT], SEASONING [OREGANO, BASIL, RED PEPPER, PARSLEY]), GARLIC SPREAD (SOYBEAN OIL, WATER, SALT, CONTAINS LESS THAN 2% OF HYDROGENATED SOYBEAN OIL, NATURAL FLAVOR AND ARTIFICIAL FLAVORS, MONO- & DIGLYCERIDES, SOY LECITHIN, SODIUM BENZOATE [PRESERVATIVE], CITRIC ACID, BETA-CAROTENE [COLOR], VITAMIN A PALMITATE ADDED, CALCIUM DISODIUM EDTA ADDED TO PROTECT FLAVOR)." Date available: 08/10/2017 Date last updated by company: 08/10/2017
