Source: USDA Branded Food Products Database Release December 2017 Software v.3.8.6.4 2017-10-02
Report Run at: December 19, 2017 06:11 EST
"Nutrient data for: 45202903, 5 YOGURT & OAT BAR, UPC: 853335000234"
Food Group:  Branded Food Products Database
Common Name:

Nutrient,Unit,Data points,Std. Error,"1 BAR = 45.0g",1Value per 100 g,
Proximates
"Energy",kcal,--,--,180,400
"Protein",g,--,--,7.00,15.56
"Total lipid (fat)",g,--,--,6.00,13.33
"Carbohydrate, by difference",g,--,--,26.00,57.78
"Fiber, total dietary",g,--,--,3.0,6.7
"Sugars, total",g,--,--,14.00,31.11
Minerals
"Calcium, Ca",mg,--,--,40,89
"Iron, Fe",mg,--,--,1.28,2.84
"Magnesium, Mg",mg,--,--,7,16
"Potassium, K",mg,--,--,100,222
"Sodium, Na",mg,--,--,160,356
"Zinc, Zn",mg,--,--,0.60,1.33
Vitamins
"Vitamin C, total ascorbic acid",mg,--,--,0.0,0.0
"Thiamin",mg,--,--,0.000,0.000
"Vitamin A, IU",IU,--,--,0,0
Lipids
"Fatty acids, total saturated",g,--,--,1.998,4.440
"Fatty acids, total trans",g,--,--,0.000,0.000
"Cholesterol",mg,--,--,0,0
Amino Acids
Other
Ingredients
"GLUTEN FREE ROLLED OATS, ORGANIC BROWN RICE SYRUP, HONEY, SOY NUGGETS (ISOLATED SOY PROTEIN, RICE STARCH), YOGURT COATING [SUGAR, PALM KERNEL OIL, NONFAT DRY MILK, YOGURT POWDER (CULTURED WHEY PROTEIN CONCENTRATE AND CULTURED SKIM MILK), SOY LECITHIN, SALT], PISTACHIOS, SUNFLOWER SEEDS, RAISINS (RAISINS, VEGETABLE OIL), FIG PASTE, ORGANIC GUM ACACIA, HIGH OLEIC SUNFLOWER OIL, ORGANIC FLAX MEAL, NATURAL FLAVOR, CHERRIES (CHERRIES, APPLE JUICE CONCENTRATE, SUNFLOWER OIL), SEA SALT." Date available: 07/14/2017 Date last updated by company: 07/14/2017
