Source: USDA Branded Food Products Database Release December 2017 Software v.3.8.6.4 2017-10-02
Report Run at: December 18, 2017 11:44 EST
"Nutrient data for: 45256353, 6 INCH PIE, UPC: 072036957078"
Food Group:  Branded Food Products Database
Common Name:

Nutrient,Unit,Data points,Std. Error,"0.25 PIE = 100.0g",1Value per 100 g,
Proximates
"Energy",kcal,--,--,280,280
"Protein",g,--,--,2.00,2.00
"Total lipid (fat)",g,--,--,16.00,16.00
"Carbohydrate, by difference",g,--,--,34.00,34.00
"Fiber, total dietary",g,--,--,1.0,1.0
"Sugars, total",g,--,--,15.00,15.00
Minerals
"Calcium, Ca",mg,--,--,20,20
"Iron, Fe",mg,--,--,0.45,0.45
"Sodium, Na",mg,--,--,170,170
Vitamins
"Vitamin C, total ascorbic acid",mg,--,--,11.2,11.2
"Vitamin A, IU",IU,--,--,625,625
Lipids
"Fatty acids, total saturated",g,--,--,7.000,7.000
"Fatty acids, total trans",g,--,--,0.000,0.000
"Cholesterol",mg,--,--,0,0
Amino Acids
Other
Ingredients
"PIE: CHERRIES, ENRICHED UNBLEACHED FLOUR (WHEAT FLOUR, NIACIN, REDUCED IRON, THIAMIN MONONITRATE, RIBOFLAVIN, FOLIC ACID), PALM OIL, WATER, HIGH FRUCTOSE CORN SYRUP, SUGAR, MODIFIED FOOD STARCH, SALT, DEXTROSE, CALCIUM PROPIONATE AND POTASSIUM SORBATE (PRESERVATIVES), NATURAL FLAVOR. CORN SYRUP: HIGH FRUCTOSE CORN SYRUP, CORN SYRUP, WATER, SALT, NATURAL AND ARTIFICIAL FLAVOR." Date available: 07/14/2017 Date last updated by company: 07/14/2017
