Source: USDA Branded Food Products Database Release December 2017 Software v.3.8.6.4 2017-10-02
Report Run at: December 18, 2017 00:18 EST
"Nutrient data for: 45177478, 7-GRAIN BROAD, UPC: 085239125403"
Food Group:  Branded Food Products Database
Common Name:

Nutrient,Unit,Data points,Std. Error,"1 SLICE = 36.0g",1Value per 100 g,
Proximates
"Energy",kcal,--,--,80,222
"Protein",g,--,--,2.00,5.56
"Total lipid (fat)",g,--,--,1.00,2.78
"Carbohydrate, by difference",g,--,--,16.00,44.44
"Fiber, total dietary",g,--,--,1.0,2.8
"Sugars, total",g,--,--,2.00,5.56
Minerals
"Calcium, Ca",mg,--,--,0,0
"Iron, Fe",mg,--,--,0.50,1.39
"Sodium, Na",mg,--,--,135,375
Vitamins
"Vitamin C, total ascorbic acid",mg,--,--,0.0,0.0
"Vitamin A, IU",IU,--,--,0,0
Lipids
"Fatty acids, total saturated",g,--,--,0.000,0.000
"Fatty acids, total trans",g,--,--,0.000,0.000
"Cholesterol",mg,--,--,10,28
Amino Acids
Other
Ingredients
"WATER, BROWN RICE FLOUR, TAPIOCA STARCH, TAPIOCA SYRUP, WHOLE GRAIN SORGHUM FLOUR, XANTHAN GUM, CULTURED RICE FLOUR, WHOLE GRAIN MILLET SEED, DRIED WHOLE EGG SOLIDS, WHOLE GRAIN TEFF SEED, EXTRA VIRGIN OLIVE OIL, SUGARCANE MOLASSES, WHOLE GRAIN AMARANTH SEED, SEA SALT, WHOLE GRAIN MILLET FLOUR, RED QUINOA SEED, INSTANT DRY YEAST, ENZYMES." Date available: 07/14/2017 Date last updated by company: 07/14/2017
