Source: USDA Branded Food Products Database Release December 2017 Software v.3.8.6.4 2017-10-02
Report Run at: December 18, 2017 00:19 EST
"Nutrient data for: 45080637, 7 GRAIN & LENTIL BLEND, UPC: 099482455101"
Food Group:  Branded Food Products Database
Common Name:

Nutrient,Unit,Data points,Std. Error,"1 cup = 140.0g",1Value per 100 g,
Proximates
"Energy",kcal,--,--,251,179
"Protein",g,--,--,4.00,2.86
"Total lipid (fat)",g,--,--,6.01,4.29
"Carbohydrate, by difference",g,--,--,41.01,29.29
"Fiber, total dietary",g,--,--,6.0,4.3
"Sugars, total",g,--,--,0.00,0.00
Minerals
"Calcium, Ca",mg,--,--,41,29
"Iron, Fe",mg,--,--,3.47,2.48
"Sodium, Na",mg,--,--,350,250
Vitamins
"Vitamin C, total ascorbic acid",mg,--,--,0.0,0.0
"Vitamin A, IU",IU,--,--,0,0
Lipids
"Fatty acids, total saturated",g,--,--,0.994,0.710
"Fatty acids, total monounsaturated",g,--,--,2.996,2.140
"Fatty acids, total polyunsaturated",g,--,--,0.994,0.710
"Fatty acids, total trans",g,--,--,0.000,0.000
"Cholesterol",mg,--,--,0,0
Amino Acids
Other
Ingredients
"INGREDIENTS: WATER, LONG GRAIN WHITE RICE, WHEAT BERRIES, WHITE QUINOA, RED QUINOA, RED RICE, WILD RICE, BULGER (DURUM WHEAT), GREEN NUTS, EXTRA VIRGIN OLIVE OIL, SEA SALT." Date available: 06/25/2017 Date last updated by company: 06/25/2017
