Source: USDA Branded Food Products Database Release December 2017 Software v.3.8.6.4 2017-10-02
Report Run at: December 17, 2017 20:04 EST
"Nutrient data for: 45147478, 7 SELECT, GO! YUM, ENGLISH TOFFEE, CRISP, BUTTERY, MILK CHOCOLATE, UPC: 052548527341"
Food Group:  Branded Food Products Database
Common Name:

Nutrient,Unit,Data points,Std. Error,"3.0 PIECES = 40.0g",1Value per 100 g,
Proximates
"Energy",kcal,--,--,200,500
"Protein",g,--,--,1.00,2.50
"Total lipid (fat)",g,--,--,10.00,25.00
"Carbohydrate, by difference",g,--,--,26.00,65.00
"Fiber, total dietary",g,--,--,1.0,2.5
"Sugars, total",g,--,--,22.00,55.00
Minerals
"Calcium, Ca",mg,--,--,0,0
"Iron, Fe",mg,--,--,0.90,2.25
"Sodium, Na",mg,--,--,25,62
Vitamins
"Vitamin C, total ascorbic acid",mg,--,--,0.0,0.0
"Vitamin A, IU",IU,--,--,125,312
Lipids
"Fatty acids, total saturated",g,--,--,6.000,15.000
"Fatty acids, total trans",g,--,--,0.000,0.000
"Cholesterol",mg,--,--,10,25
Amino Acids
Other
Ingredients
"ENGLISH TOFFEE CENTER & TOPPING (SUGAR, CORN SYRUP, CASHEW PIECES, BUTTER (PASTEURIZED CREAM & SALT), PALM KERNEL OIL {CONTAINS CITRIC ACID AS A PRESERVATIVE}, WATER, BAKING SODA}; MILK CHOCOLATE (SUGAR, COCOA BUTTER, CHOCOLATE LIQUOR, WHOLE MILK POWDER, SOY LECITHIN [AN EMULSIFIER], NATURAL VANILLA EXTRACT)." Date available: 07/14/2017 Date last updated by company: 07/14/2017
