Source: USDA Branded Food Products Database Release December 2017 Software v.3.8.6.4 2017-10-02
Report Run at: December 19, 2017 05:44 EST
"Nutrient data for: 45106107, 72% DARK CHOCOLATE, UPC: 659253120159"
Food Group:  Branded Food Products Database
Common Name:

Nutrient,Unit,Data points,Std. Error,"0.57 PIECES = 40.0g",1Value per 100 g,
Proximates
"Energy",kcal,--,--,230,575
"Protein",g,--,--,3.00,7.50
"Total lipid (fat)",g,--,--,17.00,42.50
"Carbohydrate, by difference",g,--,--,11.00,27.50
"Fiber, total dietary",g,--,--,4.0,10.0
"Sugars, total",g,--,--,11.00,27.50
Minerals
"Calcium, Ca",mg,--,--,30,75
"Iron, Fe",mg,--,--,7.65,19.12
"Sodium, Na",mg,--,--,3,8
Vitamins
"Vitamin C, total ascorbic acid",mg,--,--,0.0,0.0
"Vitamin A, IU",IU,--,--,125,312
Lipids
"Fatty acids, total saturated",g,--,--,11.000,27.500
Amino Acids
Other
Ingredients
"COCOAS, SUGAR, COCOA BUTTER, BOURBON VANILLA POD." Date available: 06/25/2017 Date last updated by company: 06/25/2017
