Source: USDA Branded Food Products Database Release December 2017 Software v.3.8.6.4 2017-10-02
Report Run at: December 17, 2017 09:10 EST
"Nutrient data for: 45261824, 8"""" FLOUR TORTILLAS, UPC: 077815002437"
Food Group:  Branded Food Products Database
Common Name:

Nutrient,Unit,Data points,Std. Error,"1 TORTILLA = 46.0g",1Value per 100 g,
Proximates
"Energy",kcal,--,--,120,261
"Protein",g,--,--,3.00,6.52
"Total lipid (fat)",g,--,--,3.50,7.61
"Carbohydrate, by difference",g,--,--,21.00,45.65
"Fiber, total dietary",g,--,--,1.0,2.2
"Sugars, total",g,--,--,0.00,0.00
Minerals
"Calcium, Ca",mg,--,--,0,0
"Iron, Fe",mg,--,--,1.29,2.81
"Sodium, Na",mg,--,--,340,739
Vitamins
"Vitamin C, total ascorbic acid",mg,--,--,0.0,0.0
"Vitamin A, IU",IU,--,--,0,0
Lipids
"Fatty acids, total saturated",g,--,--,1.500,3.260
"Fatty acids, total trans",g,--,--,0.000,0.000
"Cholesterol",mg,--,--,0,0
Amino Acids
Other
Ingredients
"FLOUR (WHEAT FLOUR, ENRICHMENT (NIACIN, REDUCED IRON, THIAMINE MONONITRATE, RIBOFLAVIN, FOLIC ACID), ENZYME), WATER, SHORTENING (PALM OIL AND ITS FRACTIONS), BAKING BLEND (SALT, SODIUM BICARBONATE, MONO- AND DIGLYCERIDES, SUGAR, SODIUM ALUMINUM SULFATE, CALCIUM PROPIONATE, SODIUM ACID PYROPHOSPHATE, FUMARIC ACID, RICE FLOUR, CORN STARCH, POTASSIUM SORBATE, MONOCALCIUM PHOSPHATE, CARBOXY METHYL CELLULOSE GUM, WHEAT STARCH, ENZYMES (WHEAT STARCH, MICROCRYSTALLINE CELLULOSE), XANTHAN GUM, SODIUM METABISULFITE), NATURAL AND ARTIFICIAL FLAVORS (WATER, PROPYLENE GLYCOL, NATURAL & ARTIFICIAL FLAVORS, XANTHAN GUM, CITRIC ACID, SODIUM BENZOATE, AND FD&C YELLOW #5)." Date available: 07/14/2017 Date last updated by company: 07/14/2017
