Source: USDA Branded Food Products Database Release December 2017 Software v.3.8.6.4 2017-10-02
Report Run at: December 17, 2017 19:57 EST
"Nutrient data for: 45288554, 90 SECOND RICE LONG GRAIN & WILD, UPC: 085239343920"
Food Group:  Branded Food Products Database
Common Name:

Nutrient,Unit,Data points,Std. Error,"1 cup = 150.0g",1Value per 100 g,
Proximates
"Energy",kcal,--,--,270,180
"Protein",g,--,--,5.00,3.33
"Total lipid (fat)",g,--,--,3.50,2.33
"Carbohydrate, by difference",g,--,--,52.99,35.33
"Fiber, total dietary",g,--,--,1.1,0.7
"Sugars, total",g,--,--,1.00,0.67
Minerals
"Calcium, Ca",mg,--,--,20,13
"Iron, Fe",mg,--,--,0.54,0.36
"Sodium, Na",mg,--,--,550,367
Vitamins
"Vitamin C, total ascorbic acid",mg,--,--,0.0,0.0
"Vitamin A, IU",IU,--,--,0,0
Lipids
"Fatty acids, total saturated",g,--,--,0.000,0.000
"Fatty acids, total monounsaturated",g,--,--,0.495,0.330
"Fatty acids, total polyunsaturated",g,--,--,2.505,1.670
"Fatty acids, total trans",g,--,--,0.000,0.000
"Cholesterol",mg,--,--,0,0
Amino Acids
Other
Ingredients
"WATER, PARBOILED LONG GRAIN RICE, WILD RICE, CANOLA AND/OR SUNFLOWER OIL, MALTODEXTRIN, SUGAR, VEGETABLES (ONIONS*, PARSLEY*, CELERY*, TOMATO*, CARROTS*), SALT, GARLIC POWDER, HYDROLYZED VEGETABLE PROTEIN (HYDROLYZED CORN GLUTEN, PARTIALLY HYDROGENATED COTTONSEED AND SOY OIL), CHICKEN BROTH*, ONION POWDER, AUTOLYZED YEAST, YEAST EXTRACT, SMOKE FLAVOR (TORTULA YEAST, MALTODEXTRIN, GRILL FLAVOR, MODIFIED FOOD STARCH, CORN SYRUP SOLIDS, TRICALCIUM PHOSPHATE), SPICES." Date available: 07/14/2017 Date last updated by company: 07/14/2017
