Source: USDA Branded Food Products Database Release December 2017 Software v.3.8.6.4 2017-10-02
Report Run at: December 17, 2017 07:38 EST
"Nutrient data for: 45264084, 98% FAT FREE FLOUR TORTILLAS, UPC: 036035100309"
Food Group:  Branded Food Products Database
Common Name:

Nutrient,Unit,Data points,Std. Error,"1 TORTILLA = 50.0g",1Value per 100 g,
Proximates
"Energy",kcal,--,--,128,256
"Protein",g,--,--,4.00,8.00
"Total lipid (fat)",g,--,--,1.00,2.00
"Carbohydrate, by difference",g,--,--,25.00,50.00
"Fiber, total dietary",g,--,--,1.0,2.0
"Sugars, total",g,--,--,0.00,0.00
Minerals
"Calcium, Ca",mg,--,--,80,160
"Iron, Fe",mg,--,--,1.58,3.17
"Sodium, Na",mg,--,--,351,702
Vitamins
"Vitamin C, total ascorbic acid",mg,--,--,0.0,0.0
"Vitamin A, IU",IU,--,--,0,0
Lipids
"Fatty acids, total saturated",g,--,--,0.000,0.000
"Fatty acids, total monounsaturated",g,--,--,0.000,0.000
"Fatty acids, total polyunsaturated",g,--,--,1.000,2.000
"Fatty acids, total trans",g,--,--,0.000,0.000
"Cholesterol",mg,--,--,0,0
Amino Acids
Other
Ingredients
"ENRICHED FLOUR (BLEACHED WHEAT FLOUR, REDUCED IRON, THIAMINE MONONITRATE, RIBOFLAVIN, FOLIC ACID), WATER, VEGETABLE SHORTENING (PARTIALLY HYDROGENATED SOYBEAN AND COTTONSEED OILS, PALM OIL, VEGETABLE MONO & DIGLYCERIDES), SHORTENING (PARTIALLY HYDROGENATED SOY AND/OR COTTONSEED OIL, WHEAT STARCH, LECITHIN, WHEAT FIBER, MONO & DIGLYCERIDES), LEAVENING (SODIUM BICARBONATE, CORN STARCH, SODIUM ALUMINUM SULFATE, CALCIUM SULFATE, MONOCALCIUM PHOSPHATE), SALT, DEXTROSE, SORBIC ACID, SODIUM PROPIONATE (TO PRESERVE FRESHNESS), FUMARIC ACID, CELLULOSE GUM, GUAR GUM, XANTHAN GUM, FUMARIC ACID, AND DOUGH CONDITIONER (SODIUM METABISULFITE)." Date available: 07/14/2017 Date last updated by company: 07/14/2017
