Source: USDA Branded Food Products Database Release December 2017 Software v.3.8.6.4 2017-10-02
Report Run at: December 15, 2017 22:13 EST
"Nutrient data for: 45331973, A BLEND OF BROCCOLI, CLOVER SPROUTS, UPC: 851042004255"
Food Group:  Branded Food Products Database
Common Name:

Nutrient,Unit,Data points,Std. Error,"0.5 CUP = 28.0g",1Value per 100 g,
Proximates
"Energy",kcal,--,--,5,18
"Protein",g,--,--,1.00,3.57
"Total lipid (fat)",g,--,--,0.00,0.00
"Carbohydrate, by difference",g,--,--,1.00,3.57
"Fiber, total dietary",g,--,--,1.0,3.6
Minerals
"Calcium, Ca",mg,--,--,36,128
"Iron, Fe",mg,--,--,0.36,1.29
"Sodium, Na",mg,--,--,0,0
Vitamins
"Vitamin C, total ascorbic acid",mg,--,--,21.4,76.5
"Vitamin A, IU",IU,--,--,88,316
Lipids
"Fatty acids, total saturated",g,--,--,0.400,1.430
"Cholesterol",mg,--,--,11,38
Amino Acids
Other
Ingredients
"INGREDIENTS: BROCCOLI SPROUTS, CLOVER SPROUTS." Date available: 10/04/2017 Date last updated by company: 10/04/2017
