Source: USDA Branded Food Products Database Release December 2017 Software v.3.8.6.4 2017-10-02
Report Run at: December 15, 2017 22:14 EST
"Nutrient data for: 45290615, A BUBBLY PROBIOTIC SUPER-TEA, UPC: 851861006201"
Food Group:  Branded Food Products Database
Common Name:

Nutrient,Unit,Data points,Std. Error,"8.0 OZA = 237.0g",1Value per 100 g,
Proximates
"Energy",kcal,--,--,40,17
"Protein",g,--,--,0.00,0.00
"Total lipid (fat)",g,--,--,0.00,0.00
"Carbohydrate, by difference",g,--,--,9.01,3.80
"Sugars, total",g,--,--,3.01,1.27
Minerals
"Sodium, Na",mg,--,--,9,4
Vitamins
Lipids
Amino Acids
Other
Ingredients
"FILTERED WATER, KOMBUCHA CULTURE (YEAST AND BACTERIA CULTURES), ORGANIC BLACK TEA, ORGANIC GREEN TEA, ORGANIC EVAPORATED CANE JUICE (SUGAR), ORGANIC CACAO POWDER, ORGANIC VANILLA POWDER, ORGANIC REISHI MUSHROOM POWDER." Date available: 07/14/2017 Date last updated by company: 07/14/2017
