Source: USDA Branded Food Products Database Release December 2017 Software v.3.8.6.4 2017-10-02
Report Run at: December 15, 2017 22:16 EST
"Nutrient data for: 45174798, A CHRISTMAS TRADITION MUG SET, UPC: 041376400094"
Food Group:  Branded Food Products Database
Common Name:

Nutrient,Unit,Data points,Std. Error,"1 PACKAGE = 20.0g",1Value per 100 g,
Proximates
"Energy",kcal,--,--,80,400
"Protein",g,--,--,1.00,5.00
"Total lipid (fat)",g,--,--,2.00,10.00
"Carbohydrate, by difference",g,--,--,16.00,80.00
"Fiber, total dietary",g,--,--,1.0,5.0
"Sugars, total",g,--,--,12.00,60.00
Minerals
"Calcium, Ca",mg,--,--,0,0
"Iron, Fe",mg,--,--,0.00,0.00
"Sodium, Na",mg,--,--,170,850
Vitamins
"Vitamin C, total ascorbic acid",mg,--,--,0.0,0.0
"Vitamin A, IU",IU,--,--,0,0
Lipids
"Fatty acids, total saturated",g,--,--,2.000,10.000
"Fatty acids, total trans",g,--,--,0.000,0.000
"Cholesterol",mg,--,--,0,0
Amino Acids
Other
Ingredients
"COCOA INGREDIENTS: SUGAR, CORN SYRUP SOLIDS, DAIRY PRODUCT SOLIDS (FROM MILK), VEGETABLE OIL (PARTIALLY HYDROGENATED COCONUT OR PALM KERNEL AND HYDROGENATED SOYBEAN), MARSHMALLOWS (SUGAR, CORN SYRUP, DEXTROSE, MODIFIED CORN STARCH, GELATIN, ARTIFICIAL AND NATURAL FLAVOR), COCOA PROCESSED WITH ALKALI, AND LESS THAN 2% OF SALT, CELLULOSE GUM, SODIUM CASEINATE, DIPOTASSIUM PHOSPHATE, SODIUM ALUMINOSILICATE, MONO- AND DIGLYCERIDES, GUAR GUM, ARTIFICIAL FLAVOR, SUCRALOSE., MARSHMALLOW INGREDIENTS: CORN SYRUP, SUGAR, SORBITOL, GELATIN, MODIFIED CORN STARCH, ARTIFICIAL FLAVOR, CITRIC ACID." Date available: 07/14/2017 Date last updated by company: 07/14/2017
