Source: USDA Branded Food Products Database Release December 2017 Software v.3.8.6.4 2017-10-02
Report Run at: December 15, 2017 22:18 EST
"Nutrient data for: 45159017, A COUPLE OF SQUARES, GHOSTLY GOODIES SUGAR COOKIES, UPC: 874465005203"
Food Group:  Branded Food Products Database
Common Name:

Nutrient,Unit,Data points,Std. Error,"3.0 COOKIES = 42.0g",1Value per 100 g,
Proximates
"Energy",kcal,--,--,200,476
"Protein",g,--,--,3.00,7.14
"Total lipid (fat)",g,--,--,7.00,16.67
"Carbohydrate, by difference",g,--,--,30.00,71.43
"Fiber, total dietary",g,--,--,0.0,0.0
"Sugars, total",g,--,--,17.00,40.48
Minerals
"Calcium, Ca",mg,--,--,0,0
"Iron, Fe",mg,--,--,0.86,2.04
"Sodium, Na",mg,--,--,100,238
Vitamins
"Vitamin C, total ascorbic acid",mg,--,--,0.0,0.0
"Vitamin A, IU",IU,--,--,238,567
Lipids
"Fatty acids, total saturated",g,--,--,3.998,9.520
"Fatty acids, total trans",g,--,--,0.000,0.000
"Cholesterol",mg,--,--,30,71
Amino Acids
Other
Ingredients
"COOKIES (WHEAT FLOUR, SUGAR, BUTTER [MILK], LIQUID WHOLE EGGS, SHORTENING [PALM OIL], BAKING POWDER, ARTIFICIAL FLAVOR, SALT), ICING, (ICING SUGAR, GRANULATED SUGAR, WATER, MERINGUE POWDER [SUGAR, CORN SYRUP SOLIDS, DRIED EGG WHITES, GUM ARABIC, CALCIUM LACTIC ACID, SODIUM ALUMINIUM SULPHATE, CREAM OF TARTAR, CITRIC ACID, ARTIFICIAL FLAVOR, XANTHAN GUM], COLOR [WATER, SUGAR, FD&C RED #3, FD&C RED #40, FD&C YELLOW #5, FD&C YELLOW #6, FD&C BLUE #1, FD&C BLUE #2, MODIFIED CORN STARCH, LOCUST BEAN GUM, CITRIC ACID, SODIUM BENZOATE AND POTASSIUM SORBATE AS PRESERVATIVES])." Date available: 07/14/2017 Date last updated by company: 07/14/2017
