Source: USDA Branded Food Products Database Release December 2017 Software v.3.8.6.4 2017-10-02
Report Run at: December 17, 2017 00:13 EST
"Nutrient data for: 45221874, A REAL FOOD BAR, UPC: 852459003008"
Food Group:  Branded Food Products Database
Common Name:

Nutrient,Unit,Data points,Std. Error,"50.0 GRM = 50.0g",1Value per 100 g,
Proximates
"Energy",kcal,--,--,200,400
"Protein",g,--,--,5.00,10.00
"Total lipid (fat)",g,--,--,11.00,22.00
"Carbohydrate, by difference",g,--,--,24.00,48.00
"Fiber, total dietary",g,--,--,4.0,8.0
"Sugars, total",g,--,--,17.00,34.00
Minerals
"Calcium, Ca",mg,--,--,20,40
"Iron, Fe",mg,--,--,0.29,0.58
"Potassium, K",mg,--,--,150,300
"Sodium, Na",mg,--,--,70,140
Vitamins
"Vitamin C, total ascorbic acid",mg,--,--,0.0,0.0
"Vitamin A, IU",IU,--,--,0,0
Lipids
"Fatty acids, total saturated",g,--,--,0.000,0.000
"Fatty acids, total trans",g,--,--,0.000,0.000
"Cholesterol",mg,--,--,0,0
Amino Acids
Other
Ingredients
"DATES, WALNUTS, PECANS, AGAVE NECTAR, HEMP SEED, ROLLED OATS, HEMP PROTEIN, GROUND FLAX SEED, BROWN RICE PROTEIN, VANILLA, CINNAMON, SEA SALT, PEANUTS." Date available: 07/14/2017 Date last updated by company: 07/14/2017
