Source: USDA Branded Food Products Database Release December 2017 Software v.3.8.6.4 2017-10-02
Report Run at: December 17, 2017 01:24 EST
"Nutrient data for: 45034353, A TASTE OF THAI, QUICK MEAL YELLOW CURRY NOODLES, UPC: 070650800794"
Food Group:  Branded Food Products Database
Common Name:

Nutrient,Unit,Data points,Std. Error,"0.5 PACKAGE = 64.0g",1Value per 100 g,
Proximates
"Energy",kcal,--,--,250,391
"Protein",g,--,--,3.50,5.47
"Total lipid (fat)",g,--,--,6.00,9.38
"Carbohydrate, by difference",g,--,--,45.00,70.31
"Fiber, total dietary",g,--,--,0.0,0.0
"Sugars, total",g,--,--,5.00,7.81
Minerals
"Calcium, Ca",mg,--,--,20,31
"Iron, Fe",mg,--,--,0.56,0.88
"Sodium, Na",mg,--,--,366,572
Vitamins
"Vitamin C, total ascorbic acid",mg,--,--,0.0,0.0
"Vitamin A, IU",IU,--,--,0,0
Lipids
"Fatty acids, total saturated",g,--,--,4.000,6.250
"Fatty acids, total trans",g,--,--,0.000,0.000
"Cholesterol",mg,--,--,0,0
Amino Acids
Other
Ingredients
"RICE NOODLES: RICE FLOUR, WATER, MODIFIED TAPIOCA STARCH. COCONUT MILK POWDER: COCONUT, MALTODEXTRIN, MONO AND DIGLYCERIDE (AN EMULSIFIER), DIPOTASSIUM PHOSPHATE (A STABILIZER), SILICON DIOXIDE (TO PREVENT CAKING). DRY SEASONING: BROWN SUGAR, COCONUT MILK POWDER (COCONUT, MALTODEXTRIN, MONO AND DIGLYCERIDE (AN EMULSIFIER), DIPOTASSIUM PHOSPHATE (A STABILIZER), SILICON DIOXIDE (TO PREVENT CAKING), SUGAR, SALT, MALTODEXTRIN, HYDROLYZED VEGETABLE PROTEIN (CORN, YEAST EXTRACT, PALM OIL), RED BELL PEPPER, CURRY POWDER (MUSTARD POWDER, CELERY, FENUGREEK POWDER, CUMIN POWDER, TURMERIC POWDER, PAPRIKA POWDER), SILICON DIOXIDE (ANTI CAKING AGENT), POTASSIUM CHLORIDE, TURMERIC POWER, YEAST EXTRACT, BAY LEAF, CUMIN POWDER, CLOVE POWDER, CARDAMOM POWDER, PARSLEY FLAKES, SAFFRON, TURMERIC OLEORESIN. YELLOW CURRY PASTE: SOYBEAN OIL, FISH SAUCE (ANCHOVIES, SALT), SHALLOT, CHILI, GARLIC, MUSTARD POWDER, SALT, FENUGREEK POWDER, LEMONGRASS, TURMERIC POWDER, WHITE PEPPER POWDER, GINGER POWDER, PAPRIKA POWDER, CUMIN POWDER, CINNAMON POWDER, CARAWAY POWDER, DEXTROSE, CORIANDER." Date available: 07/14/2017 Date last updated by company: 07/14/2017
