Source: USDA Branded Food Products Database Release December 2017 Software v.3.8.6.4 2017-10-02
Report Run at: December 15, 2017 22:12 EST
"Nutrient data for: 45205949, ABBY'S MILLSTONE BAKING COMPANY, RASPBERRY ALMOND MERINGUE, UPC: 853824004682"
Food Group:  Branded Food Products Database
Common Name:

Nutrient,Unit,Data points,Std. Error,"2.0 PIECES = 25.0g",1Value per 100 g,
Proximates
"Energy",kcal,--,--,120,480
"Protein",g,--,--,1.00,4.00
"Total lipid (fat)",g,--,--,6.00,24.00
"Carbohydrate, by difference",g,--,--,14.00,56.00
"Fiber, total dietary",g,--,--,0.0,0.0
"Sugars, total",g,--,--,4.00,16.00
Minerals
"Calcium, Ca",mg,--,--,0,0
"Iron, Fe",mg,--,--,0.72,2.88
"Sodium, Na",mg,--,--,90,360
Vitamins
"Vitamin C, total ascorbic acid",mg,--,--,0.0,0.0
"Vitamin A, IU",IU,--,--,200,800
Lipids
"Fatty acids, total saturated",g,--,--,1.000,4.000
"Fatty acids, total trans",g,--,--,0.000,0.000
"Cholesterol",mg,--,--,0,0
Amino Acids
Other
Ingredients
"TRANS-FAT FREE MARGARINE, UNBLEACHED ENRICHED FLOUR (UNBLEACHED WHEAT FLOUR, NIACIN, REDUCED IRON, THIAMINE MONONITRATE, RIBOFLAVIN, FOLIC ACID), CAKE FLOUR, SUGAR, WHOLE EGGS, WATER, LIQUID SUGAR, EGG WHITES, SLICED ALMONDS, NATURAL RASPBERRY, SEA SALT, NATURAL LEMON FLAVOR" Date available: 09/06/2017 Date last updated by company: 09/06/2017
