Source: USDA Branded Food Products Database Release December 2017 Software v.3.8.6.4 2017-10-02
Report Run at: December 15, 2017 22:12 EST
"Nutrient data for: 45194361, ABBYLAND, BRAT 'N CHEDDAR SMOKED SAUSAGE, UPC: 024557162158"
Food Group:  Branded Food Products Database
Common Name:

Nutrient,Unit,Data points,Std. Error,"1 LINK = 75.0g",1Value per 100 g,
Proximates
"Energy",kcal,--,--,240,320
"Protein",g,--,--,10.00,13.33
"Total lipid (fat)",g,--,--,21.00,28.00
"Carbohydrate, by difference",g,--,--,3.00,4.00
"Sugars, total",g,--,--,3.00,4.00
Minerals
"Calcium, Ca",mg,--,--,20,27
"Iron, Fe",mg,--,--,0.80,1.06
"Sodium, Na",mg,--,--,700,933
Vitamins
"Vitamin C, total ascorbic acid",mg,--,--,11.0,14.7
"Vitamin A, IU",IU,--,--,0,0
Lipids
"Fatty acids, total saturated",g,--,--,6.997,9.330
"Cholesterol",mg,--,--,75,100
Amino Acids
Other
Ingredients
"PORK, WATER, PASTEURIZED PROCESS CHEDDAR CHEESE [AMERICAN CHEESE (MILK, SALT, CHEESE CULTURES, ENZYMES), WATER, CREAM, SODIUM PHOSPHATES, SALT, ANNATTO (COLOR), SORBIC ACID (PRESERVATIVE), CELLULOSE, POTASSIUM SORBATE (PRESERVATIVE), NATAMYCIN (PRESERVATIVE)], AND LESS THAN 2% OF THE FOLLOWING: SALT, CORN SYRUP SOLIDS, DEXTROSE, BEEF, FLAVORINGS, ASCORBIC ACID (VITAMIN C), SODIUM NITRITE, COLLAGEN CASINGS." Date available: 07/14/2017 Date last updated by company: 07/14/2017
