Source: USDA Branded Food Products Database Release December 2017 Software v.3.8.6.4 2017-10-02
Report Run at: December 15, 2017 22:12 EST
"Nutrient data for: 45166992, ABC, PEANUT BUTTER, UPC: 837991219186"
Food Group:  Branded Food Products Database
Common Name:

Nutrient,Unit,Data points,Std. Error,"2.0 Tbsp = 32.0g",1Value per 100 g,
Proximates
"Energy",kcal,--,--,180,562
"Protein",g,--,--,7.00,21.88
"Total lipid (fat)",g,--,--,15.00,46.88
"Carbohydrate, by difference",g,--,--,8.00,25.00
"Fiber, total dietary",g,--,--,2.0,6.2
"Sugars, total",g,--,--,3.00,9.38
Minerals
"Calcium, Ca",mg,--,--,0,0
"Iron, Fe",mg,--,--,1.13,3.52
"Sodium, Na",mg,--,--,135,422
Vitamins
"Vitamin C, total ascorbic acid",mg,--,--,0.0,0.0
"Vitamin A, IU",IU,--,--,0,0
Lipids
"Fatty acids, total saturated",g,--,--,2.499,7.810
"Fatty acids, total trans",g,--,--,0.000,0.000
"Cholesterol",mg,--,--,0,0
Amino Acids
Other
Ingredients
"FRESHLY ROASTED PEANUTS, SUGAR, CONTAINS 2% OR LESS OF: MOLASSES, HYDROGENATED VEGETABLES OILS (RAPESSED, COTTONSEED AND SOYBEAN), DEXTROSE, CORN SYRUP AND SALT." Date available: 07/14/2017 Date last updated by company: 07/14/2017
