Source: USDA Branded Food Products Database Release December 2017 Software v.3.8.6.4 2017-10-02
Report Run at: December 15, 2017 22:12 EST
"Nutrient data for: 45161152, ABDALLAH, MY SWEET REWARD CARAMEL PATTIES, UPC: 766684006003"
Food Group:  Branded Food Products Database
Common Name:

Nutrient,Unit,Data points,Std. Error,"3.0 PIECES = 38.0g",1Value per 100 g,
Proximates
"Energy",kcal,--,--,170,447
"Protein",g,--,--,2.00,5.26
"Total lipid (fat)",g,--,--,7.00,18.42
"Carbohydrate, by difference",g,--,--,26.00,68.42
"Fiber, total dietary",g,--,--,0.0,0.0
"Sugars, total",g,--,--,19.00,50.00
Minerals
"Calcium, Ca",mg,--,--,60,158
"Iron, Fe",mg,--,--,0.47,1.25
"Sodium, Na",mg,--,--,110,289
Vitamins
"Vitamin C, total ascorbic acid",mg,--,--,0.0,0.0
"Vitamin A, IU",IU,--,--,131,346
Lipids
"Fatty acids, total saturated",g,--,--,4.001,10.530
"Fatty acids, total trans",g,--,--,0.000,0.000
"Cholesterol",mg,--,--,10,26
Amino Acids
Other
Ingredients
"PURE MILK CHOCOLATE (SUGAR, CHOCOLATE LIQUOR, COCOA BUTTER, WHOLE MILK, SOY LECITHIN (AN EMULSIFIER), VANILLA), CORN SYRUP, SWEETENED CONDENSED MILK, CREAM, SUGAR, PALM OIL, GUAR GUM, CARRAGEENAN, LOCUST BEAN GUM, SALT, ARTIFICIAL FLAVOR, EGG WHITES." Date available: 07/14/2017 Date last updated by company: 07/14/2017
