Source: USDA Branded Food Products Database Release December 2017 Software v.3.8.6.4 2017-10-02
Report Run at: December 15, 2017 22:13 EST
"Nutrient data for: 45167257, ABRAHAM'S, LEMONY LEMON HUMMOS, UPC: 031285501029"
Food Group:  Branded Food Products Database
Common Name:

Nutrient,Unit,Data points,Std. Error,"2.0 Tbsp = 26.0g",1Value per 100 g,
Proximates
"Energy",kcal,--,--,40,154
"Protein",g,--,--,2.00,7.69
"Total lipid (fat)",g,--,--,2.00,7.69
"Carbohydrate, by difference",g,--,--,4.00,15.38
"Fiber, total dietary",g,--,--,2.0,7.7
"Sugars, total",g,--,--,0.00,0.00
Minerals
"Calcium, Ca",mg,--,--,0,0
"Iron, Fe",mg,--,--,0.69,2.67
"Sodium, Na",mg,--,--,50,192
Vitamins
"Vitamin C, total ascorbic acid",mg,--,--,2.3,8.9
"Vitamin A, IU",IU,--,--,0,0
Lipids
"Fatty acids, total saturated",g,--,--,0.000,0.000
"Fatty acids, total trans",g,--,--,0.000,0.000
"Cholesterol",mg,--,--,0,0
Amino Acids
Other
Ingredients
"CHICKPEAS, DERIED WATER, SESAME LATHINL FRESH GROUND FLAX SEEDS, APPLE OLDER VINEGAR, GARLIC, SEA SALT, CITRIC ACID, OUR OWN SPECIAL BLEND OF SPICES, LEMON OIL." Date available: 07/14/2017 Date last updated by company: 07/14/2017
