Source: USDA Branded Food Products Database Release December 2017 Software v.3.8.6.4 2017-10-02
Report Run at: December 15, 2017 22:15 EST
"Nutrient data for: 45323503, ACAI BOWLS, UPC: 071202007029"
Food Group:  Branded Food Products Database
Common Name:

Nutrient,Unit,Data points,Std. Error,"6.0 ONZ = 170.0g",1Value per 100 g,
Proximates
"Energy",kcal,--,--,211,124
"Protein",g,--,--,2.99,1.76
"Total lipid (fat)",g,--,--,6.00,3.53
"Carbohydrate, by difference",g,--,--,35.00,20.59
"Fiber, total dietary",g,--,--,7.0,4.1
"Sugars, total",g,--,--,19.01,11.18
Minerals
"Calcium, Ca",mg,--,--,0,0
"Iron, Fe",mg,--,--,1.00,0.59
"Sodium, Na",mg,--,--,0,0
Vitamins
"Vitamin D",IU,--,--,0,0
Lipids
"Fatty acids, total saturated",g,--,--,2.006,1.180
"Fatty acids, total trans",g,--,--,0.000,0.000
"Cholesterol",mg,--,--,0,0
Amino Acids
Other
Ingredients
"ACAI PUREE (WATER, ACAI SKIN & PULP, CITRIC ACID), BANANAS (BANANAS, ASCORBIC ACID [TO PROMOTE COLOR RETENTION], CITRIC ACID), STRAWBERRIES, BLUEBERRIES, TOPPING (OATS, COCONUT, HONEY, CANOLA OIL), HONEY, AND CITRIC ACID." Date available: 10/13/2017 Date last updated by company: 10/13/2017
