Source: USDA Branded Food Products Database Release December 2017 Software v.3.8.6.4 2017-10-02
Report Run at: December 15, 2017 22:18 EST
"Nutrient data for: 45239614, ACME MARKETS, COLD-PRESSED FRUIT JUICE, ORANGE, UPC: 639001461215"
Food Group:  Branded Food Products Database
Common Name:

Nutrient,Unit,Data points,Std. Error,"1 CONTAINER = 355.0g",1Value per 100 g,
Proximates
"Energy",kcal,--,--,163,46
"Protein",g,--,--,3.02,0.85
"Total lipid (fat)",g,--,--,0.00,0.00
"Carbohydrate, by difference",g,--,--,42.99,12.11
"Sugars, total",g,--,--,36.99,10.42
Minerals
"Calcium, Ca",mg,--,--,28,8
"Sodium, Na",mg,--,--,0,0
Vitamins
"Vitamin C, total ascorbic acid",mg,--,--,60.7,17.1
Lipids
Amino Acids
Other
Ingredients
"100% FLORIDA ORANGE JUICE NOT FROM CONCENTRATE" Date available: 07/14/2017 Date last updated by company: 07/14/2017
