Source: USDA Branded Food Products Database Release December 2017 Software v.3.8.6.4 2017-10-02
Report Run at: December 15, 2017 22:20 EST
"Nutrient data for: 45130521, ACT II Butter Lovers, UNPREPARED, GTIN: 00076150230178"
Food Group:  Branded Food Products Database
Common Name:

Nutrient,Unit,Data points,Std. Error,"1 bag (40g) unpopped (makes about 6 cups popped) = 40.0g",1Value per 100 g,
Proximates
"Energy",kcal,--,--,170,425
"Protein",g,--,--,3.00,7.50
"Total lipid (fat)",g,--,--,8.00,20.00
"Carbohydrate, by difference",g,--,--,23.00,57.50
"Fiber, total dietary",g,--,--,3.0,7.5
"Sugars, total",g,--,--,0.00,0.00
Minerals
"Calcium, Ca",mg,--,--,0,0
"Iron, Fe",mg,--,--,0.72,1.80
"Potassium, K",mg,--,--,70,175
"Sodium, Na",mg,--,--,460,1150
Vitamins
"Vitamin C, total ascorbic acid",mg,--,--,0.0,0.0
"Vitamin A, IU",IU,--,--,0,0
"Vitamin D",IU,--,--,0,0
Lipids
"Fatty acids, total saturated",g,--,--,3.500,8.750
"Fatty acids, total monounsaturated",g,--,--,2.500,6.250
"Fatty acids, total polyunsaturated",g,--,--,1.000,2.500
"Fatty acids, total trans",g,--,--,0.000,0.000
"Cholesterol",mg,--,--,0,0
Amino Acids
Other
Ingredients
"Popping Corn, Palm Oil, Salt, Less than 2% of: Natural and Artificial Flavor, Color Added, TBHQ and Citric Acid (for freshness)." Date available: 10/23/2017 Date last updated by company: 10/22/2017
