Source: USDA Branded Food Products Database Release December 2017 Software v.3.8.6.4 2017-10-02
Report Run at: December 15, 2017 22:24 EST
"Nutrient data for: 45236793, ADIRONDACK BEVERAGES, SODA, TROPICAL PUNCH, UPC: 071698020458"
Food Group:  Branded Food Products Database
Common Name:

Nutrient,Unit,Data points,Std. Error,"8.0 OZA = 240.0g",1Value per 100 g,
Proximates
"Energy",kcal,--,--,130,54
"Protein",g,--,--,0.00,0.00
"Total lipid (fat)",g,--,--,0.00,0.00
"Carbohydrate, by difference",g,--,--,31.99,13.33
"Sugars, total",g,--,--,31.99,13.33
Minerals
"Sodium, Na",mg,--,--,19,8
Vitamins
Lipids
Amino Acids
Other
Ingredients
"CRYSTAL CLEAR CARBONATED WATER, HIGH FRUCTOSE CORN SYRUP, CITRIC ACID, SODIUM BENZOATE (A PRESERVATIVE), ACACIA GUM, NATURAL AND ARTIFICIAL FLAVOR, GLYCEROL ESTER OF WOOD ROSIN, ARTIFICIAL COLOR (RED #40), AND BROMINATED VEGETABLE OIL." Date available: 06/25/2017 Date last updated by company: 06/25/2017
