Source: USDA Branded Food Products Database Release December 2017 Software v.3.8.6.4 2017-10-02
Report Run at: December 15, 2017 22:25 EST
"Nutrient data for: 45258599, ADOBO AUTHENTIC FILIPINO SIMMER SAUCE, UPC: 859577003040"
Food Group:  Branded Food Products Database
Common Name:

Nutrient,Unit,Data points,Std. Error,"0.12 cup = 32.0g",1Value per 100 g,
Proximates
"Energy",kcal,--,--,35,109
"Protein",g,--,--,1.00,3.12
"Total lipid (fat)",g,--,--,2.50,7.81
"Carbohydrate, by difference",g,--,--,2.00,6.25
"Fiber, total dietary",g,--,--,0.0,0.0
"Sugars, total",g,--,--,0.00,0.00
Minerals
"Calcium, Ca",mg,--,--,0,0
"Iron, Fe",mg,--,--,0.76,2.38
"Sodium, Na",mg,--,--,470,1469
Vitamins
"Vitamin C, total ascorbic acid",mg,--,--,2.5,7.9
"Vitamin A, IU",IU,--,--,0,0
Lipids
"Fatty acids, total saturated",g,--,--,0.000,0.000
"Fatty acids, total trans",g,--,--,0.000,0.000
"Cholesterol",mg,--,--,0,0
Amino Acids
Other
Ingredients
"WATER, PRESERVATIVE FREE SOY SAUCE (WATER, WHEAT, SOYBEANS, SALT), GARLIC, CANOLA OIL, DISTILLED VINEGAR, BRAUNSCHWEIGER (PORK, PORK LIVER, BACON (CURED WITH: WATER, SALT, MAY CONTAIN 2% OR LESS OF SUGAR, DEXTROSE, SMOKE FLAVORINGS, POTASSIUM LACTATE, SODIUM LACTATE, SODIUM PHOSPHATE, DEHYDRATED PORK BROTH, NATURAL FLAVORINGS, AUTOLYZED YEAST EXTRACT, SODIUM ERYTHROBATE, SODIUM NITRITE), SALT, WATER, FLAVORINGS, SUGAR, SODIUM ERYTHORBATE, SODIUM NITRITE), CORN STARCH, SPICES, XANTHAN GUM." Date available: 07/14/2017 Date last updated by company: 07/14/2017
