Source: USDA Branded Food Products Database Release December 2017 Software v.3.8.6.4 2017-10-02
Report Run at: December 15, 2017 22:31 EST
"Nutrient data for: 45085865, AGED POPCORN CHIPS, UPC: 708820337855"
Food Group:  Branded Food Products Database
Common Name:

Nutrient,Unit,Data points,Std. Error,"20.0 CHIPS | ABOUT = 28.0g",1Value per 100 g,
Proximates
"Energy",kcal,--,--,110,393
"Protein",g,--,--,3.00,10.71
"Total lipid (fat)",g,--,--,3.00,10.71
"Carbohydrate, by difference",g,--,--,19.00,67.86
"Fiber, total dietary",g,--,--,1.0,3.6
"Sugars, total",g,--,--,1.00,3.57
Minerals
"Calcium, Ca",mg,--,--,20,71
"Iron, Fe",mg,--,--,2.25,8.04
"Sodium, Na",mg,--,--,150,536
Vitamins
"Vitamin C, total ascorbic acid",mg,--,--,0.0,0.0
"Vitamin A, IU",IU,--,--,90,320
Lipids
"Fatty acids, total saturated",g,--,--,0.501,1.790
"Fatty acids, total trans",g,--,--,0.000,0.000
"Cholesterol",mg,--,--,0,0
Amino Acids
Other
Ingredients
"POPCORN CHIPS (CORN, TOASTED CORN GERM, WHOLE QUINOA GRAINS, FLAX SEEDS, SUNFLOWER SEEDS, CHIA SEEDS), AGED WHITE CHEDDAR SEASONING (DEHYDRATED CHEDDAR CHEESE [MILK, CHEESE CULTURES, SALT, ENZYMES], WHEY, BUTTERMILK, TAPIOCA MALTODEXTRIN, SALT, NATURAL FLAVOR, ONION POWDER, CITRIC ACID, LACTIC ACID, YEAST EXTRACT), SUNFLOWER OIL." Date available: 07/14/2017 Date last updated by company: 07/14/2017
