Source: USDA Branded Food Products Database Release December 2017 Software v.3.8.6.4 2017-10-02
Report Run at: December 15, 2017 22:34 EST
"Nutrient data for: 45096137, AGV, NEO NEO, TRADITIONAL PEARL SAGO IN SYRUP, UPC: 4710626440215"
Food Group:  Branded Food Products Database
Common Name:

Nutrient,Unit,Data points,Std. Error,"260.0 g = 260.0g",1Value per 100 g,
Proximates
"Energy",kcal,--,--,127,49
"Protein",g,--,--,0.00,0.00
"Total lipid (fat)",g,--,--,0.00,0.00
"Carbohydrate, by difference",g,--,--,32.01,12.31
"Fiber, total dietary",g,--,--,0.0,0.0
"Sugars, total",g,--,--,26.99,10.38
Minerals
"Calcium, Ca",mg,--,--,49,19
"Iron, Fe",mg,--,--,0.00,0.00
"Sodium, Na",mg,--,--,18,7
Vitamins
"Vitamin C, total ascorbic acid",mg,--,--,0.0,0.0
"Vitamin A, IU",IU,--,--,900,346
Lipids
"Fatty acids, total saturated",g,--,--,0.000,0.000
"Fatty acids, total trans",g,--,--,0.000,0.000
"Cholesterol",mg,--,--,0,0
Amino Acids
Other
Ingredients
"SAGO(STARCH, NATURAL GUM), HONEY, CANE SYRUP, NATURAL COLOURS." Date available: 09/23/2016 Date last updated by company: 09/23/2016
