Source: USDA Branded Food Products Database Release December 2017 Software v.3.8.6.4 2017-10-02
Report Run at: December 16, 2017 22:23 EST
"Nutrient data for: 45053908, AHOLD, ICE CREAM BARS, TRIPLE CHOCOLATE MOOSE TRACKS, UPC: 688267146169"
Food Group:  Branded Food Products Database
Common Name:

Nutrient,Unit,Data points,Std. Error,"1 BAR = 77.0g",1Value per 100 g,
Proximates
"Energy",kcal,--,--,330,429
"Protein",g,--,--,3.00,3.90
"Total lipid (fat)",g,--,--,23.00,29.87
"Carbohydrate, by difference",g,--,--,28.00,36.36
"Fiber, total dietary",g,--,--,2.0,2.6
"Sugars, total",g,--,--,24.00,31.17
Minerals
"Calcium, Ca",mg,--,--,60,78
"Iron, Fe",mg,--,--,0.36,0.47
"Sodium, Na",mg,--,--,90,117
Vitamins
"Vitamin C, total ascorbic acid",mg,--,--,0.0,0.0
"Vitamin A, IU",IU,--,--,200,260
Lipids
"Fatty acids, total saturated",g,--,--,15.000,19.480
"Fatty acids, total monounsaturated",g,--,--,3.996,5.190
"Fatty acids, total polyunsaturated",g,--,--,2.002,2.600
"Fatty acids, total trans",g,--,--,0.000,0.000
"Cholesterol",mg,--,--,20,26
Amino Acids
Other
Ingredients
"MILK FAT AND NONFAT MILK, SUGAR, FUDGE VARIEGATE (POWDERED SUGAR [SUGAR, CORNSTARCH], VEGETABLE OIL [PEANUT AND/OR COTTONSEED OIL AND/OR PALM OIL], COCOA PROCESSED WITH ALKALI, WHEY, SALT, SOY LECITHIN, NATURAL FLAVOR), CHOCOLATE FLAKES (POWDERED SUGAR, COCONUT OIL, PARTIALLY HYDROGENATED COCONUT OIL, COCOA PROCESSED WITH ALKALI, CHOCOLATE LIQUOR, WHEY, SOY LECITHIN, SALT, NATURAL FLAVOR), CORN SYRUP, COCOA PROCESSED WITH ALKALI, WHEY, MONO- AND DIGLYCERIDES, GUAR GUM, LOCUST BEAN GUM, CALCIUM SULFATE, POLYSORBATE 80, CARRAGEENAN, COATING: COCONUT OIL, SUGAR, CHOCOLATE LIQUOR, COCA PROCESSED WITH ALKALI, SOYBEAN OIL, WHEY, PARTIALLY HYDROGENATED COCONUT OIL, COCOA, SOY LECITHIN, SALT, NATURAL FLAVOR." Date available: 06/24/2017 Date last updated by company: 06/24/2017
