Source: USDA Branded Food Products Database Release December 2017 Software v.3.8.6.4 2017-10-02
Report Run at: December 16, 2017 22:29 EST
"Nutrient data for: 45045858, AHOLD, PEPPERMINT BARK, UPC: 688267161773"
Food Group:  Branded Food Products Database
Common Name:

Nutrient,Unit,Data points,Std. Error,"0.16 BAR = 38.0g",1Value per 100 g,
Proximates
"Energy",kcal,--,--,210,553
"Protein",g,--,--,2.00,5.26
"Total lipid (fat)",g,--,--,13.00,34.21
"Carbohydrate, by difference",g,--,--,24.00,63.16
"Fiber, total dietary",g,--,--,2.0,5.3
"Sugars, total",g,--,--,20.00,52.63
Minerals
"Calcium, Ca",mg,--,--,40,105
"Iron, Fe",mg,--,--,1.90,4.99
"Sodium, Na",mg,--,--,15,39
Vitamins
"Vitamin C, total ascorbic acid",mg,--,--,0.0,0.0
"Vitamin A, IU",IU,--,--,0,0
Lipids
"Fatty acids, total saturated",g,--,--,7.999,21.050
"Fatty acids, total trans",g,--,--,0.000,0.000
"Cholesterol",mg,--,--,5,13
Amino Acids
Other
Ingredients
"SEMISWEET CHOCOLATE (SUGAR, CHOCOLATE LIQUOR [PROCESSED WITH ALKALI], COCOA BUTTER, MILK FAT [MILK], SOY LECITHIN [AN EMULSIFIER], VANILLIN [ARTIFICIAL FLAVOR]), WHITE CHOCOLATE (SUGAR, COCOA BUTTER, WHOLE MILK POWDER, SOY LECITHIN [EMULSIFIER], VANILLA EXTRACT), CRUSHED PEPPERMINT CANDY SUGAR, CORN SYRUP, NATURAL PEPPERMINT CANDY (SUGAR, CORN SYRUP, NATURAL PEPPERMINT OIL, ARTIFICIAL COLOR [RED 40, RED 3, BLUE 1]), NATURAL AND ARTIFICIAL PEPPERMINT FLAVOR" Date available: 06/24/2017 Date last updated by company: 06/24/2017
