Source: USDA Branded Food Products Database Release December 2017 Software v.3.8.6.4 2017-10-02
Report Run at: December 16, 2017 22:24 EST
"Nutrient data for: 45047112, AHOLD, KALAMATA OLIVES PITTED, UPC: 688267160844"
Food Group:  Branded Food Products Database
Common Name:

Nutrient,Unit,Data points,Std. Error,"7.0 OLIVES = 15.0g",1Value per 100 g,
Proximates
"Energy",kcal,--,--,25,167
"Protein",g,--,--,0.00,0.00
"Total lipid (fat)",g,--,--,3.00,20.00
"Carbohydrate, by difference",g,--,--,1.00,6.67
"Fiber, total dietary",g,--,--,0.0,0.0
"Sugars, total",g,--,--,0.00,0.00
Minerals
"Calcium, Ca",mg,--,--,0,0
"Iron, Fe",mg,--,--,0.00,0.00
"Sodium, Na",mg,--,--,360,2400
Vitamins
"Vitamin C, total ascorbic acid",mg,--,--,0.0,0.0
"Vitamin A, IU",IU,--,--,0,0
Lipids
"Fatty acids, total saturated",g,--,--,1.999,13.330
"Fatty acids, total trans",g,--,--,0.000,0.000
"Cholesterol",mg,--,--,0,0
Amino Acids
Other
Ingredients
"KALAMATA OLIVES, WATER, SALT, VINEGAR, OLIVE OIL." Date available: 07/14/2017 Date last updated by company: 07/14/2017
