Source: USDA Branded Food Products Database Release December 2017 Software v.3.8.6.4 2017-10-02
Report Run at: December 16, 2017 22:28 EST
"Nutrient data for: 45044595, AHOLD, ORIGINAL PORK TENDERLOIN, UPC: 248154000006"
Food Group:  Branded Food Products Database
Common Name:

Nutrient,Unit,Data points,Std. Error,"4.0 ONZ = 112.0g",1Value per 100 g,
Proximates
"Energy",kcal,--,--,100,89
"Protein",g,--,--,19.00,16.96
"Total lipid (fat)",g,--,--,2.00,1.79
"Carbohydrate, by difference",g,--,--,2.00,1.79
"Fiber, total dietary",g,--,--,0.0,0.0
"Sugars, total",g,--,--,0.00,0.00
Minerals
"Calcium, Ca",mg,--,--,0,0
"Iron, Fe",mg,--,--,0.82,0.73
"Sodium, Na",mg,--,--,190,170
Vitamins
"Vitamin C, total ascorbic acid",mg,--,--,0.0,0.0
"Vitamin A, IU",IU,--,--,0,0
Lipids
"Fatty acids, total saturated",g,--,--,0.504,0.450
"Fatty acids, total trans",g,--,--,0.000,0.000
"Cholesterol",mg,--,--,60,54
Amino Acids
Other
Ingredients
"PORK BROTH, POTASSIUM LACTATE, SALT, SODIUM PHOSPHATES, NATURAL FLAVORING." Date available: 06/24/2017 Date last updated by company: 06/24/2017
