Source: USDA Branded Food Products Database Release December 2017 Software v.3.8.6.4 2017-10-02
Report Run at: December 16, 2017 21:44 EST
"Nutrient data for: 45044197, AHOLD, CHIPOTLE BBQ CHICKEN LEG & THIGH, UPC: 688267003868"
Food Group:  Branded Food Products Database
Common Name:

Nutrient,Unit,Data points,Std. Error,"8.0 ONZ = 227.0g",1Value per 100 g,
Proximates
"Energy",kcal,--,--,379,167
"Protein",g,--,--,44.99,19.82
"Total lipid (fat)",g,--,--,15.00,6.61
"Carbohydrate, by difference",g,--,--,13.01,5.73
"Fiber, total dietary",g,--,--,0.9,0.4
"Sugars, total",g,--,--,11.01,4.85
Minerals
"Calcium, Ca",mg,--,--,59,26
"Iron, Fe",mg,--,--,1.02,0.45
"Sodium, Na",mg,--,--,461,203
Vitamins
"Vitamin C, total ascorbic acid",mg,--,--,1.8,0.8
"Vitamin A, IU",IU,--,--,114,50
Lipids
"Fatty acids, total saturated",g,--,--,3.995,1.760
"Fatty acids, total trans",g,--,--,0.000,0.000
"Cholesterol",mg,--,--,236,104
Amino Acids
Other
Ingredients
"CHICKEN: CHICKEN (WATER, POTATO STARCH, SEA SALT). BBQ SAUCE: KETCHUP (TOMATO, DISTILLED VINEGAR, HIGH FRUCTOSE CORN SYRUP, CORN SYRUP, SALT, SPICE, ONION POWDER, NATURAL FLAVORING), TOMATOES (SALT, CITRIC ACID), MOLASSES, BROWN SUGAR, APPLE CIDER VINEGAR (REDUCED WITH WATER TO 5% ACIDITY), MODIFIED CORNSTARCH, WORCESTERSHIRE SAUCE (WATER, DISTILLED VINEGAR, HIGH FRUCTOSE CORN SYRUP, SALT, CONTAINS LESS THAN 2% HYDROLYZED SOY PROTEIN), CARAMEL COLOR, TOMATO PASTE (TOMATO, CITRIC ACID [NATURALLY DERIVED]) ONION POWDER, GARLIC POWDER, SALT, HOT SAUCE (DISTILLED VINEGAR [WATER AND VINEGAR], RED PEPPERS, SALT, GUAR GUM, XANTHAN GUM, ASCORBIC ACID [TO PRESERVE FRESHNESS], RED 40), MUSTARD POWDER, BLACK PEPPER, PAPRIKA. RUB: CHIPOTLE PEPPER, CINNAMON, GARLIC POWDER, ONION POWDER, SUGAR, CELERY SALT, BLACK PEPPER, SALT, PARSLEY." Date available: 09/21/2017 Date last updated by company: 09/21/2017
