Source: USDA Branded Food Products Database Release December 2017 Software v.3.8.6.4 2017-10-02
Report Run at: December 16, 2017 22:30 EST
"Nutrient data for: 45044516, AHOLD, PUDDING SNACKS, BUTTERSCOTCH, UPC: 688267078644"
Food Group:  Branded Food Products Database
Common Name:

Nutrient,Unit,Data points,Std. Error,"1 cup = 92.0g",1Value per 100 g,
Proximates
"Energy",kcal,--,--,110,120
"Protein",g,--,--,1.00,1.09
"Total lipid (fat)",g,--,--,2.50,2.72
"Carbohydrate, by difference",g,--,--,21.00,22.83
"Fiber, total dietary",g,--,--,1.0,1.1
"Sugars, total",g,--,--,14.00,15.22
Minerals
"Calcium, Ca",mg,--,--,100,109
"Iron, Fe",mg,--,--,0.00,0.00
"Sodium, Na",mg,--,--,140,152
Vitamins
"Vitamin C, total ascorbic acid",mg,--,--,0.0,0.0
"Vitamin A, IU",IU,--,--,0,0
Lipids
"Fatty acids, total saturated",g,--,--,1.003,1.090
"Fatty acids, total trans",g,--,--,0.000,0.000
"Cholesterol",mg,--,--,0,0
Amino Acids
Other
Ingredients
"WATER, NONFAT MILK, SUGAR, MODIFIED CORNSTARCH, VEGETABLE OIL (CONTAINS ONE OR MORE OF THE FOLLOWING: PALM OIL, PARTIALLY HYDROGENATED PALM OIL, SUNFLOWER OIL, PARTIALLY HYDROGENATED SOYBEAN OIL), LESS THAN 2% OF: SALT, COLOR ADDED (INCLUDING YELLOW 6 AND YELLOW 5), CALCIUM CARBONATE, SODIUM STEAROYL LACTYLATE, ARTIFICIAL AND NATURAL FLAVOR." Date available: 06/24/2017 Date last updated by company: 06/24/2017
