Source: USDA Branded Food Products Database Release December 2017 Software v.3.8.6.4 2017-10-02
Report Run at: December 16, 2017 22:33 EST
"Nutrient data for: 45045731, AHOLD, SPICE POUND CAKE, PUMPKIN, UPC: 688267158674"
Food Group:  Branded Food Products Database
Common Name:

Nutrient,Unit,Data points,Std. Error,"2.0 ONZ = 57.0g",1Value per 100 g,
Proximates
"Energy",kcal,--,--,180,316
"Protein",g,--,--,2.00,3.51
"Total lipid (fat)",g,--,--,7.00,12.28
"Carbohydrate, by difference",g,--,--,27.00,47.37
"Fiber, total dietary",g,--,--,1.0,1.8
"Sugars, total",g,--,--,15.00,26.32
Minerals
"Calcium, Ca",mg,--,--,20,35
"Iron, Fe",mg,--,--,1.52,2.66
"Sodium, Na",mg,--,--,250,439
Vitamins
"Vitamin C, total ascorbic acid",mg,--,--,0.0,0.0
"Vitamin A, IU",IU,--,--,1052,1846
Lipids
"Fatty acids, total saturated",g,--,--,2.502,4.390
"Fatty acids, total trans",g,--,--,0.000,0.000
"Cholesterol",mg,--,--,15,26
Amino Acids
Other
Ingredients
"SUGAR, BLEACHED ENRICHED WHEAT FLOUR (WHEAT FLOUR, NIACIN, REDUCED IRON, THIAMIN MONONITRATE [VITAMIN B1], RIBOFLAVIN [VITAMIN B2], FOLIC ACID), WATER, VEGETABLE SHORTENING (PALM OIL AND SOYBEAN OIL WITH PROPYLENE GLYCOL MONOESTERS. MON- AND DIGLYCERIDES, SOYBEAN LECITHIN), PUMPKIN PUREE, DRY WHOLE EGGS, SOY FLOUR, WHEAT GLUTEN, CORN SYRUP SOLIDS, ALGIN, SWEET WHEY (MILK), SALT, BAKING POWDER (SODIUM ACID PYROPHOSPHATE, SODIUM BICARBONATE, CORNSTARCH, CALCIUM SULFATE, MONOCALCIUM PHOSPHATE), POTASSIUM SORBATE, MONOCALCIUM PHOSPHATE), POTASSIUM SORBATE, CORNSTARCH, NATURAL AND ARTIFICIAL FLAVORS, DRY NONFAT MILK, DRY EGG WHITES, XANTHAN GUM, SPICE (YELLOW CORN FLOUR, MONO- AND DIGLYCERIDES, PAPRIKA, NATURAL AND ARTIFICIAL FLAVORS), CORNSTARCH, BAKING SODA." Date available: 10/09/2017 Date last updated by company: 10/09/2017
