Source: USDA Branded Food Products Database Release December 2017 Software v.3.8.6.4 2017-10-02
Report Run at: December 16, 2017 21:44 EST
"Nutrient data for: 45045486, AHOLD, CHICKEN TORTILLA SOUP, UPC: 688267155994"
Food Group:  Branded Food Products Database
Common Name:

Nutrient,Unit,Data points,Std. Error,"1 cup = 245.0g",1Value per 100 g,
Proximates
"Energy",kcal,--,--,140,57
"Protein",g,--,--,8.99,3.67
"Total lipid (fat)",g,--,--,2.99,1.22
"Carbohydrate, by difference",g,--,--,19.01,7.76
"Fiber, total dietary",g,--,--,3.9,1.6
"Sugars, total",g,--,--,2.01,0.82
Minerals
"Calcium, Ca",mg,--,--,39,16
"Iron, Fe",mg,--,--,1.08,0.44
"Sodium, Na",mg,--,--,480,196
Vitamins
"Vitamin C, total ascorbic acid",mg,--,--,0.0,0.0
"Vitamin A, IU",IU,--,--,500,204
Lipids
"Fatty acids, total saturated",g,--,--,1.004,0.410
"Fatty acids, total trans",g,--,--,0.000,0.000
"Cholesterol",mg,--,--,5,2
Amino Acids
Other
Ingredients
"WATER, CORN, TOMATOES (TOMATOES, TOMATO JUICE, CITRIC ACID, CALCIUM CHLORIDE), COOKED WHITE CHICKEN MEAT (WHITE CHICKEN MEAT, WATER, MODIFIED CORNSTARCH, SALT, SODIUM PHOSPHATE), RED PEPPERS, BLACK BEANS, TOMATO PASTE, POTATO STARCH, CHICKEN BROTH (CHICKEN STOCK, FLAVORING, AUTOLYZED YEAST EXTRACT, SALT, CELERY JUICE CONCENTRATE, CARROT JUICE CONCENTRATE, ONION JUICE CONCENTRATE), POBLANO PEPPERS, CHICKEN FAT, MODIFIED CORNSTARCH, TORTILLA (MASA FLOUR [CORN, LIME], WATER), SPICE, SALT, GARLIC POWDER, CILANTRO." Date available: 06/24/2017 Date last updated by company: 06/24/2017
