Source: USDA Branded Food Products Database Release December 2017 Software v.3.8.6.4 2017-10-02
Report Run at: December 16, 2017 21:50 EST
"Nutrient data for: 45044177, AHOLD, DIXIE COLE SLAW, UPC: 688267141560"
Food Group:  Branded Food Products Database
Common Name:

Nutrient,Unit,Data points,Std. Error,"0.5 cup = 105.0g",1Value per 100 g,
Proximates
"Energy",kcal,--,--,130,124
"Protein",g,--,--,1.00,0.95
"Total lipid (fat)",g,--,--,7.00,6.67
"Carbohydrate, by difference",g,--,--,15.00,14.29
"Fiber, total dietary",g,--,--,2.0,1.9
"Sugars, total",g,--,--,13.00,12.38
Minerals
"Calcium, Ca",mg,--,--,40,38
"Iron, Fe",mg,--,--,0.48,0.46
"Sodium, Na",mg,--,--,230,219
Vitamins
"Vitamin C, total ascorbic acid",mg,--,--,6.4,6.1
"Vitamin A, IU",IU,--,--,1334,1270
Lipids
"Fatty acids, total saturated",g,--,--,0.998,0.950
"Fatty acids, total trans",g,--,--,0.000,0.000
"Cholesterol",mg,--,--,10,10
Amino Acids
Other
Ingredients
"CABBAGE, SALAD DRESSING (SOYBEAN OIL, WATER, HIGH FRUCTOSE CORN SYRUP, VINEGAR, EGG YOLKS, MODIFIED CORN STARCH, SUGAR, SALT, MUSTARD), SUGAR, CARROT, VINEGAR, GREEN BELL PEPPER, ONION, ASCORBIC ACID, SALT, XANTHAN GUM, POTASSIUM SORBATE AND SODIUM BENZOATE TO PROTECT FLAVOR, CITRIC ACID, CELERY SEED." Date available: 07/14/2017 Date last updated by company: 07/14/2017
