Source: USDA Branded Food Products Database Release December 2017 Software v.3.8.6.4 2017-10-02
Report Run at: December 16, 2017 22:28 EST
"Nutrient data for: 45046969, AHOLD, NATURE'S PROMISE, UNCURED TURKEY HOT DOG, UPC: 688267159411"
Food Group:  Branded Food Products Database
Common Name:

Nutrient,Unit,Data points,Std. Error,"1 HOT DOG = 42.0g",1Value per 100 g,
Proximates
"Energy",kcal,--,--,45,107
"Protein",g,--,--,9.00,21.43
"Total lipid (fat)",g,--,--,1.00,2.38
"Carbohydrate, by difference",g,--,--,1.00,2.38
"Fiber, total dietary",g,--,--,0.0,0.0
"Sugars, total",g,--,--,0.00,0.00
Minerals
"Calcium, Ca",mg,--,--,20,48
"Iron, Fe",mg,--,--,0.00,0.00
"Sodium, Na",mg,--,--,280,667
Vitamins
"Vitamin C, total ascorbic acid",mg,--,--,3.1,7.5
"Vitamin A, IU",IU,--,--,131,312
Lipids
"Fatty acids, total saturated",g,--,--,0.000,0.000
"Fatty acids, total trans",g,--,--,0.000,0.000
"Cholesterol",mg,--,--,30,71
Amino Acids
Other
Ingredients
"TURKEY, WATER, SEA SALT, ORGANIC SUGAR, MUSTARD, CELERY JUICE POWDER, CHERRY POWDER (CHERRY POWDER, ORGANIC CANE SUGAR), PAPRIKA, WHITE PEPPER, NUTMEG, GARLIC, CORIANDER, CAYENNE PEPPER." Date available: 07/14/2017 Date last updated by company: 07/14/2017
