Source: USDA Branded Food Products Database Release December 2017 Software v.3.8.6.4 2017-10-02
Report Run at: December 16, 2017 21:44 EST
"Nutrient data for: 45144991, AHOLD, CHOCOLATE SANDWICH COOKIES, PEPPERMINT, UPC: 688267158667"
Food Group:  Branded Food Products Database
Common Name:

Nutrient,Unit,Data points,Std. Error,"2.0 COOKIES = 29.0g",1Value per 100 g,
Proximates
"Energy",kcal,--,--,140,483
"Protein",g,--,--,1.00,3.45
"Total lipid (fat)",g,--,--,6.00,20.69
"Carbohydrate, by difference",g,--,--,21.00,72.41
"Fiber, total dietary",g,--,--,1.0,3.4
"Sugars, total",g,--,--,13.00,44.83
Minerals
"Calcium, Ca",mg,--,--,0,0
"Iron, Fe",mg,--,--,1.24,4.28
"Sodium, Na",mg,--,--,115,397
Vitamins
"Vitamin C, total ascorbic acid",mg,--,--,0.0,0.0
"Vitamin A, IU",IU,--,--,0,0
Lipids
"Fatty acids, total saturated",g,--,--,2.001,6.900
"Fatty acids, total monounsaturated",g,--,--,2.500,8.620
"Fatty acids, total polyunsaturated",g,--,--,1.001,3.450
"Fatty acids, total trans",g,--,--,0.000,0.000
"Cholesterol",mg,--,--,0,0
Amino Acids
Other
Ingredients
"SUGAR, ENRICHED FLOUR (BLEACHED WHEAT FLOUR, NIACIN, REDUCED IRON, THIAMIN MONONITRATE, RIBOFLAVIN, FOLIC ACID), CANOLA AND/OR SOYBEAN (WITH TBHQ FOR FRESHNESS) AND/OR PALM OIL, DEXTROSE, COCOA (PROCESSED WITH ALKALI), PEPPERMINT POWDER (SUGAR, CORN SYRUP, TITANIUM DIOXIDE [ARTIFICIAL COLOR], NATURAL FLAVOR, RED 40), CORNSTARCH, CONTAINS TWO PERCENT OR LESS OF: HIGH FRUCTOSE CORN SYRUP, SALT, LEAVENING (BAKING SODA, CALCIUM PHOSPHATE), SOY LECITHIN (EMULSIFIER), NATURAL AND ARTIFICIAL CHOCOLATE FLAVOR, NATURAL AND ARTIFICIAL VANILLA FLAVOR." Date available: 07/14/2017 Date last updated by company: 07/14/2017
