Source: USDA Branded Food Products Database Release December 2017 Software v.3.8.6.4 2017-10-02
Report Run at: December 16, 2017 22:32 EST
"Nutrient data for: 45045790, AHOLD, SIMPLY ENJOY, HARVEST PUMPKIN BUTTER, GOURMET SPREAD, UPC: 688267041372"
Food Group:  Branded Food Products Database
Common Name:

Nutrient,Unit,Data points,Std. Error,"1 Tbsp = 15.0g",1Value per 100 g,
Proximates
"Energy",kcal,--,--,40,267
"Protein",g,--,--,0.00,0.00
"Total lipid (fat)",g,--,--,0.00,0.00
"Carbohydrate, by difference",g,--,--,10.00,66.67
"Sugars, total",g,--,--,10.00,66.67
Minerals
"Iron, Fe",mg,--,--,1.20,8.00
"Sodium, Na",mg,--,--,10,67
Vitamins
"Vitamin C, total ascorbic acid",mg,--,--,4.0,26.7
"Vitamin A, IU",IU,--,--,6666,44443
Lipids
Amino Acids
Other
Ingredients
"PUMPKIN, CANE SUGAR, LIGHT BROWN SUGAR, LEMON JUICE CONCENTRATE, PECTIN, NATURAL FLAVOR, SALT, SPICES." Date available: 06/24/2017 Date last updated by company: 06/24/2017
