Source: USDA Branded Food Products Database Release December 2017 Software v.3.8.6.4 2017-10-02
Report Run at: December 16, 2017 21:54 EST
"Nutrient data for: 45227256, AIDELLS, SMOKED CHICKEN SAUSAGE, CHICKEN & APPLE, UPC: 764014103484"
Food Group:  Branded Food Products Database
Common Name:

Nutrient,Unit,Data points,Std. Error,"1 LINK = 85.0g",1Value per 100 g,
Proximates
"Energy",kcal,--,--,170,200
"Protein",g,--,--,13.00,15.29
"Total lipid (fat)",g,--,--,11.00,12.94
"Carbohydrate, by difference",g,--,--,4.00,4.71
"Fiber, total dietary",g,--,--,1.0,1.2
"Sugars, total",g,--,--,3.00,3.53
Minerals
"Calcium, Ca",mg,--,--,40,47
"Iron, Fe",mg,--,--,0.47,0.55
"Sodium, Na",mg,--,--,660,776
Vitamins
"Vitamin A, IU",IU,--,--,65,76
Lipids
"Fatty acids, total saturated",g,--,--,3.502,4.120
"Fatty acids, total trans",g,--,--,0.000,0.000
"Cholesterol",mg,--,--,75,88
Amino Acids
Other
Ingredients
"CHICKEN, DRIED APPLE, SALT, FRUIT JUICE CONCENTRATE (APPLE, PINEAPPLE, PEAR & PEACH), SPICES AND CELERY POWDER, IN A PORK CASING." Date available: 10/17/2017 Date last updated by company: 10/17/2017
