Source: USDA Branded Food Products Database Release December 2017 Software v.3.8.6.4 2017-10-02
Report Run at: December 16, 2017 22:04 EST
"Nutrient data for: 45170587, AIDELLS, SMOKED CHICKEN SAUSAGE, SUN-DRIED TOMATO WITH MOZZARELLA CHEESE, UPC: 764014228057"
Food Group:  Branded Food Products Database
Common Name:

Nutrient,Unit,Data points,Std. Error,"1 LINK = 85.0g",1Value per 100 g,
Proximates
"Energy",kcal,--,--,170,200
"Protein",g,--,--,14.00,16.47
"Total lipid (fat)",g,--,--,12.00,14.12
"Carbohydrate, by difference",g,--,--,2.00,2.35
"Fiber, total dietary",g,--,--,1.0,1.2
"Sugars, total",g,--,--,1.00,1.18
Minerals
"Calcium, Ca",mg,--,--,80,94
"Iron, Fe",mg,--,--,0.94,1.10
"Sodium, Na",mg,--,--,670,788
Vitamins
"Vitamin C, total ascorbic acid",mg,--,--,1.5,1.8
"Vitamin A, IU",IU,--,--,194,228
Lipids
"Fatty acids, total saturated",g,--,--,3.502,4.120
"Fatty acids, total trans",g,--,--,0.000,0.000
"Cholesterol",mg,--,--,70,82
Amino Acids
Other
Ingredients
"CHICKEN, MOISTENED SUN-DRIED TOMATO, MOZZARELLA CHEESE (PASTEURIZED MILK, CHEESE CULTURE, VINEGAR, SALT, ENZYME, CELLULOSE POWDER), BASIL, SALT, GARLIC, ROMANO CHEESE (PARTIALLY SKIM SHEEPS' MILK, CULTURE, ENZYMES, SALT), SPICES AND CELERY POWDER, IN A PORK CASING." Date available: 07/14/2017 Date last updated by company: 07/14/2017
