Source: USDA Branded Food Products Database Release December 2017 Software v.3.8.6.4 2017-10-02
Report Run at: December 16, 2017 21:54 EST
"Nutrient data for: 45253680, AIDELLS, CHORIZO SMOKED CHICKEN SAUSAGE, UPC: 764014373528"
Food Group:  Branded Food Products Database
Common Name:

Nutrient,Unit,Data points,Std. Error,"1 LINK = 85.0g",1Value per 100 g,
Proximates
"Energy",kcal,--,--,180,212
"Protein",g,--,--,16.00,18.82
"Total lipid (fat)",g,--,--,12.00,14.12
"Carbohydrate, by difference",g,--,--,2.00,2.35
"Fiber, total dietary",g,--,--,1.0,1.2
"Sugars, total",g,--,--,1.00,1.18
Minerals
"Calcium, Ca",mg,--,--,40,47
"Iron, Fe",mg,--,--,1.16,1.37
"Sodium, Na",mg,--,--,620,729
Vitamins
"Vitamin C, total ascorbic acid",mg,--,--,0.8,0.9
"Vitamin A, IU",IU,--,--,324,381
Lipids
"Fatty acids, total saturated",g,--,--,3.001,3.530
"Fatty acids, total trans",g,--,--,0.000,0.000
"Cholesterol",mg,--,--,90,106
Amino Acids
Other
Ingredients
"CHICKEN SPICES, CILANTRO, SALT, PAPRIKA, VINEGAR, GRANULATED GARLIC, CELERY POWDER AND SUGAR, IN A PORK CASING." Date available: 07/14/2017 Date last updated by company: 07/14/2017
