Source: USDA Branded Food Products Database Release December 2017 Software v.3.8.6.4 2017-10-02
Report Run at: December 16, 2017 22:04 EST
"Nutrient data for: 45333269, AIOLI SANDWICH SPREAD, UPC: 037600197298"
Food Group:  Branded Food Products Database
Common Name:

Nutrient,Unit,Data points,Std. Error,"1 Tbsp = 14.0g",1Value per 100 g,
Proximates
"Energy",kcal,--,--,90,643
"Protein",g,--,--,0.00,0.00
"Total lipid (fat)",g,--,--,10.00,71.43
"Carbohydrate, by difference",g,--,--,1.00,7.14
"Fiber, total dietary",g,--,--,0.0,0.0
"Sugars, total",g,--,--,0.00,0.00
Minerals
"Calcium, Ca",mg,--,--,0,0
"Iron, Fe",mg,--,--,0.00,0.00
"Sodium, Na",mg,--,--,95,679
Vitamins
"Vitamin D",IU,--,--,0,0
Lipids
"Fatty acids, total saturated",g,--,--,1.499,10.710
"Fatty acids, total trans",g,--,--,0.000,0.000
"Cholesterol",mg,--,--,10,71
Amino Acids
Other
Ingredients
"SOYBEAN OIL, WATER, EGG YOLKS AND WHOLE EGGS, DISTILLED VINEGAR, DIJON MUSTARD (WATER, MUSTARD SEED, DISTILLED VINEGAR, SALT, WHITE WINE, SPICES), HORSERADISH, DEHYDRATED GARLIC, SALT, SUGAR, LEMON JUICE CONCENTRATE, NATURAL FLAVOR, VITAMIN E." Date available: 10/13/2017 Date last updated by company: 10/13/2017
