Source: USDA Branded Food Products Database Release December 2017 Software v.3.8.6.4 2017-10-02
Report Run at: December 16, 2017 22:05 EST
"Nutrient data for: 45015516, AIR POPPED POPCORN, UPC: 041262284524"
Food Group:  Branded Food Products Database
Common Name:

Nutrient,Unit,Data points,Std. Error,"2.0 CUPS = 28.0g",1Value per 100 g,
Proximates
"Energy",kcal,--,--,150,536
"Protein",g,--,--,3.00,10.71
"Total lipid (fat)",g,--,--,10.00,35.71
"Carbohydrate, by difference",g,--,--,13.00,46.43
"Fiber, total dietary",g,--,--,2.0,7.1
"Sugars, total",g,--,--,2.00,7.14
Minerals
"Calcium, Ca",mg,--,--,40,143
"Iron, Fe",mg,--,--,0.64,2.29
"Sodium, Na",mg,--,--,310,1107
Vitamins
"Vitamin C, total ascorbic acid",mg,--,--,0.0,0.0
"Vitamin A, IU",IU,--,--,0,0
Lipids
"Fatty acids, total saturated",g,--,--,2.500,8.930
"Fatty acids, total trans",g,--,--,0.000,0.000
"Cholesterol",mg,--,--,5,18
Amino Acids
Other
Ingredients
"POPCORN, VEGETABLE OIL (CONTAINS ONE OR MORE OF THE FOLLOWING: CORN, COTTONSEED, SUNFLOWER, SOYBEAN OR CANOLA OIL), CHEDDAR CHEESE (CULTURED MILK, SALT, ENZYMES), BUTTER, BUTTERMILK, MALTODEXTRIN, SALT, WHEY (MILK DERIVED), REDUCED LACTOSE WHEY, PARTIALLY HYDROGENATED SOYBEAN OIL, SODIUM PHOSPHATE, CHEESE BLEND [CHEDDAR AND BLUE (CULTURED MILK, SALT, ENZYMES)], CITRIC ACID, LACTIC ACID." Date available: 07/14/2017 Date last updated by company: 07/14/2017
