Source: USDA Branded Food Products Database Release December 2017 Software v.3.8.6.4 2017-10-02
Report Run at: December 16, 2017 22:04 EST
"Nutrient data for: 45180788, AIRES DE JAEN, CONDADOS DEL SUR EXTRA VIRGIN OLIVE OIL, UPC: 870010000136"
Food Group:  Branded Food Products Database
Common Name:

Nutrient,Unit,Data points,Std. Error,"1 Tbsp = 15.0g",1Value per 100 g,
Proximates
"Energy",kcal,--,--,120,800
"Protein",g,--,--,0.00,0.00
"Total lipid (fat)",g,--,--,14.00,93.33
"Carbohydrate, by difference",g,--,--,0.00,0.00
Minerals
"Sodium, Na",mg,--,--,0,0
Vitamins
Lipids
"Fatty acids, total saturated",g,--,--,2.200,14.670
"Fatty acids, total monounsaturated",g,--,--,10.900,72.670
"Fatty acids, total polyunsaturated",g,--,--,0.900,6.000
"Fatty acids, total trans",g,--,--,0.000,0.000
"Cholesterol",mg,--,--,0,0
Amino Acids
Other
Ingredients
"EXTRA VIRGIN OLIVE OIL." Date available: 07/14/2017 Date last updated by company: 07/14/2017
