Source: USDA Branded Food Products Database Release December 2017 Software v.3.8.6.4 2017-10-02
Report Run at: December 16, 2017 22:42 EST
"Nutrient data for: 45038607, AL FRESCO, GOURMET CHICKEN GRILLERS CARAMELIZED ONION PATTIES, UPC: 030771096575"
Food Group:  Branded Food Products Database
Common Name:

Nutrient,Unit,Data points,Std. Error,"1 PATTY = 98.0g",1Value per 100 g,
Proximates
"Energy",kcal,--,--,160,163
"Protein",g,--,--,17.00,17.35
"Total lipid (fat)",g,--,--,8.00,8.16
"Carbohydrate, by difference",g,--,--,3.00,3.06
"Sugars, total",g,--,--,2.00,2.04
Minerals
"Calcium, Ca",mg,--,--,20,20
"Iron, Fe",mg,--,--,0.94,0.96
"Sodium, Na",mg,--,--,590,602
Vitamins
"Vitamin C, total ascorbic acid",mg,--,--,1.1,1.1
"Vitamin A, IU",IU,--,--,86,88
Lipids
"Fatty acids, total saturated",g,--,--,1.999,2.040
"Fatty acids, total trans",g,--,--,0.000,0.000
"Cholesterol",mg,--,--,75,77
Amino Acids
Other
Ingredients
"SKINLESS CHICKEN MEAT, CARAMELIZED ONION, CONTAINS 2% OR LESS OF SALT, SUGAR, ONION POWDER, DRY GARLIC, DRY ONION, SPICES, DRY GREEN ONION, DRY PARSLEY, DRY LEMON PEEL, NATURAL SMOKE FLAVOR, NATURAL FLAVORS." Date available: 10/13/2017 Date last updated by company: 10/13/2017
