Source: USDA Branded Food Products Database Release December 2017 Software v.3.8.6.4 2017-10-02
Report Run at: December 16, 2017 22:42 EST
"Nutrient data for: 45010805, AL FRESCO, GOURMET CHICKEN GRILLERS SWEET ITALIAN STYLE PATTIES, UPC: 030771096582"
Food Group:  Branded Food Products Database
Common Name:

Nutrient,Unit,Data points,Std. Error,"1 PATTY = 98.0g",1Value per 100 g,
Proximates
"Energy",kcal,--,--,140,143
"Protein",g,--,--,16.00,16.33
"Total lipid (fat)",g,--,--,8.00,8.16
"Carbohydrate, by difference",g,--,--,1.00,1.02
"Sugars, total",g,--,--,0.00,0.00
Minerals
"Calcium, Ca",mg,--,--,0,0
"Iron, Fe",mg,--,--,0.63,0.64
"Sodium, Na",mg,--,--,500,510
Vitamins
"Vitamin C, total ascorbic acid",mg,--,--,2.1,2.1
"Vitamin A, IU",IU,--,--,173,177
Lipids
"Fatty acids, total saturated",g,--,--,1.999,2.040
"Fatty acids, total trans",g,--,--,0.000,0.000
"Cholesterol",mg,--,--,75,77
Amino Acids
Other
Ingredients
"SKINLESS CHICKEN MEAT, RED AND GREEN BELL PEPPERS, CONTAINS 2% OR LESS OF SALT, SUGAR, SPICES (INCLUDING FENNEL AND BLACK PEPPER), NATURAL FLAVORS." Date available: 07/14/2017 Date last updated by company: 07/14/2017
