Source: USDA Branded Food Products Database Release December 2017 Software v.3.8.6.4 2017-10-02
Report Run at: December 16, 2017 22:08 EST
"Nutrient data for: 45017116, ALACER CORP., EMERGEN-C, ELECTRO MIX DIETARY SUPPLEMENT, LEMON-LIME, UPC: 076314361083"
Food Group:  Branded Food Products Database
Common Name:

Nutrient,Unit,Data points,Std. Error,"4.0 g = 4.0g",1Value per 100 g,
Proximates
"Energy",kcal,--,--,0,0
"Carbohydrate, by difference",g,--,--,0.00,0.00
"Sugars, total",g,--,--,0.00,0.00
Minerals
"Calcium, Ca",mg,--,--,100,2500
"Magnesium, Mg",mg,--,--,1500,37500
"Potassium, K",mg,--,--,408,10200
"Manganese, Mn",mg,--,--,2.000,50.000
Vitamins
Lipids
Amino Acids
Other
Ingredients
"OTHER INGREDIENTS: CITRIC ACID, MALIC ACID, TAPIOCA MALTODEXTRIN, AND NATURAL FLAVOR." Date last updated by company: 04/24/2015
