Source: USDA Branded Food Products Database Release December 2017 Software v.3.8.6.4 2017-10-02
Report Run at: December 16, 2017 22:10 EST
"Nutrient data for: 45272776, ALASKAN SALMON BURGERS, UPC: 078742192161"
Food Group:  Branded Food Products Database
Common Name:

Nutrient,Unit,Data points,Std. Error,"1 BURGER = 113.0g",1Value per 100 g,
Proximates
"Energy",kcal,--,--,130,115
"Protein",g,--,--,21.00,18.58
"Total lipid (fat)",g,--,--,6.00,5.31
"Carbohydrate, by difference",g,--,--,0.00,0.00
"Fiber, total dietary",g,--,--,0.0,0.0
"Sugars, total",g,--,--,0.00,0.00
Minerals
"Calcium, Ca",mg,--,--,0,0
"Iron, Fe",mg,--,--,0.54,0.48
"Sodium, Na",mg,--,--,420,372
Vitamins
"Vitamin C, total ascorbic acid",mg,--,--,0.0,0.0
"Vitamin A, IU",IU,--,--,0,0
Lipids
"Fatty acids, total saturated",g,--,--,0.994,0.880
"Fatty acids, total trans",g,--,--,0.000,0.000
"Cholesterol",mg,--,--,45,40
Amino Acids
Other
Ingredients
"SALMON, WATER, SOYBEAN OIL, CONTAINS 25 OR LESS OF EACH OF THE FOLLOWING: AUTOLYZED YEAST EXTRACT, CANOLA OIL, GARLIC POWDER, GARLIC, LEMON JUICE CONCENTRATE, ONION POWDER, PAPRIKA COLOR, RED BEET JUICE CONCENTRATE (COLOR), SALT, NATURAL SMOKE FLAVOR, NATURAL FLAVOR, SPICES." Date available: 07/14/2017 Date last updated by company: 07/14/2017
