Source: USDA Branded Food Products Database Release December 2017 Software v.3.8.6.4 2017-10-02
Report Run at: December 16, 2017 22:16 EST
"Nutrient data for: 45184545, ALDERWOOD SMOKED SEA SALT GRINDER, UPC: 077636610071"
Food Group:  Branded Food Products Database
Common Name:

Nutrient,Unit,Data points,Std. Error,"1.4 GRM = 1.4g",1Value per 100 g,
Proximates
"Energy",kcal,--,--,0,0
"Protein",g,--,--,0.00,0.00
"Total lipid (fat)",g,--,--,0.00,0.00
"Carbohydrate, by difference",g,--,--,0.00,0.00
Minerals
"Sodium, Na",mg,--,--,560,40000
Vitamins
Lipids
Amino Acids
Other
Ingredients
"NATURAL SEA SALT SMOKED OVER ALDERWOOD" Date available: 07/14/2017 Date last updated by company: 07/14/2017
