Source: USDA Branded Food Products Database Release December 2017 Software v.3.8.6.4 2017-10-02
Report Run at: December 16, 2017 22:15 EST
"Nutrient data for: 45081772, ALDEN'S, ORGANIC ICE CREAM, COOKIES 'N CREAM, UPC: 072609741820"
Food Group:  Branded Food Products Database
Common Name:

Nutrient,Unit,Data points,Std. Error,"0.5 cup = 74.0g",1Value per 100 g,
Proximates
"Energy",kcal,--,--,180,243
"Protein",g,--,--,3.00,4.05
"Total lipid (fat)",g,--,--,10.00,13.51
"Carbohydrate, by difference",g,--,--,20.00,27.03
"Fiber, total dietary",g,--,--,0.0,0.0
"Sugars, total",g,--,--,15.00,20.27
Minerals
"Calcium, Ca",mg,--,--,60,81
"Iron, Fe",mg,--,--,0.00,0.00
"Sodium, Na",mg,--,--,35,47
Vitamins
"Vitamin C, total ascorbic acid",mg,--,--,0.0,0.0
"Vitamin A, IU",IU,--,--,300,405
Lipids
"Fatty acids, total saturated",g,--,--,6.001,8.110
"Fatty acids, total trans",g,--,--,0.000,0.000
"Cholesterol",mg,--,--,35,47
Amino Acids
Other
Ingredients
"ORGANIC MILK AND CREAM, ORGANIC CANE SUGAR, ORGANIC CHOCOLATE CREME COOKIES (ORGANIC WHEAT FLOUR, ORGANIC CANE SUGAR, ORGANIC SUNFLOWER OIL, ORGANIC COCOA (PROCESSED WITH ALKALI), BAKING SODA, SALT, ORGANIC VANILLA), ORGANIC TAPIOCA SYRUP, ORGANIC VANILLA EXTRACT, ORGANIC TAPIOCA STARCH, GUAR GUM, NON-GMO SOY LECITHIN, LOCUST BEAN GUM XANTHAN GUM." Date available: 06/25/2017 Date last updated by company: 06/25/2017
