Source: USDA Branded Food Products Database Release December 2017 Software v.3.8.6.4 2017-10-02
Report Run at: December 16, 2017 22:16 EST
"Nutrient data for: 45095840, ALESSI, BISCOTTI SAVOIARDI LADY FINGERS, UPC: 071072003077"
Food Group:  Branded Food Products Database
Common Name:

Nutrient,Unit,Data points,Std. Error,"4.0 PIECES = 33.0g",1Value per 100 g,
Proximates
"Energy",kcal,--,--,120,364
"Protein",g,--,--,3.00,9.09
"Total lipid (fat)",g,--,--,1.00,3.03
"Carbohydrate, by difference",g,--,--,25.00,75.76
"Fiber, total dietary",g,--,--,1.0,3.0
"Sugars, total",g,--,--,14.00,42.42
Minerals
"Calcium, Ca",mg,--,--,0,0
"Iron, Fe",mg,--,--,0.54,1.65
"Sodium, Na",mg,--,--,35,106
Vitamins
"Vitamin C, total ascorbic acid",mg,--,--,0.0,0.0
"Vitamin A, IU",IU,--,--,0,0
Lipids
"Fatty acids, total saturated",g,--,--,0.000,0.000
"Fatty acids, total trans",g,--,--,0.000,0.000
"Cholesterol",mg,--,--,35,106
Amino Acids
Other
Ingredients
"WHAT FLOUR, SUGAR, PASTEURIZED WHOLE EGGS 26%, RAISING AGENTS (DISODIUM DIPHOSPHATE, SODIUM CARBONATE ACID, AMMONIUM CARBONATE ACID), GLUCOSE SYRUP, ARTIFICIAL FLAVOURINGS, SALT" Date available: 06/25/2017 Date last updated by company: 06/25/2017
