Source: USDA Branded Food Products Database Release December 2017 Software v.3.8.6.4 2017-10-02
Report Run at: December 16, 2017 22:17 EST
"Nutrient data for: 45243110, ALESSI, PEAR INFUSED WHITE BALSAMIC VINEGAR, UPC: 071072011416"
Food Group:  Branded Food Products Database
Common Name:

Nutrient,Unit,Data points,Std. Error,"1 Tbsp = 15.0g",1Value per 100 g,
Proximates
"Energy",kcal,--,--,20,133
"Protein",g,--,--,0.00,0.00
"Total lipid (fat)",g,--,--,0.00,0.00
"Carbohydrate, by difference",g,--,--,5.00,33.33
"Sugars, total",g,--,--,4.00,26.67
Minerals
"Sodium, Na",mg,--,--,0,0
Vitamins
Lipids
Amino Acids
Other
Ingredients
"WHITE WINE VINEGAR, GRAPE MUSTS, NATURAL PEAR FLAVOR WITH OTHER NATURAL FLAVORS" Date available: 06/25/2017 Date last updated by company: 06/25/2017
