Source: USDA Branded Food Products Database Release December 2017 Software v.3.8.6.4 2017-10-02
Report Run at: December 16, 2017 22:20 EST
"Nutrient data for: 45064816, ALFREDO SAUCE, UPC: 011110851000"
Food Group:  Branded Food Products Database
Common Name:

Nutrient,Unit,Data points,Std. Error,"0.25 cup = 62.0g",1Value per 100 g,
Proximates
"Energy",kcal,--,--,80,129
"Protein",g,--,--,1.00,1.61
"Total lipid (fat)",g,--,--,7.00,11.29
"Carbohydrate, by difference",g,--,--,4.00,6.45
"Fiber, total dietary",g,--,--,0.0,0.0
"Sugars, total",g,--,--,2.00,3.23
Minerals
"Calcium, Ca",mg,--,--,20,32
"Iron, Fe",mg,--,--,0.00,0.00
"Sodium, Na",mg,--,--,320,516
Vitamins
"Vitamin C, total ascorbic acid",mg,--,--,0.0,0.0
"Vitamin A, IU",IU,--,--,0,0
Lipids
"Fatty acids, total saturated",g,--,--,1.500,2.420
"Fatty acids, total trans",g,--,--,0.000,0.000
"Cholesterol",mg,--,--,15,24
Amino Acids
Other
Ingredients
"WATER, SOYBEAN OIL, CREAM, MODIFIED CORN STARCH, MODIFIED EGG YOLK (EGG YOLKS, SALT, PHOSPHOLPASE), DAIRY PRODUCT SOLIDS, PARMESAN CHEESE (PART SKIM MILK, CHEESE CULTURES, SALT, ENZYMES), SALT, CONTAINS LESS THAN 1% OF: ROASTED GARLIC PUREE (GARLIC, EVAPORATED CANE SYRUP), ROMANO CHEESE (MILK, CULTURES, SALT, ENZYMES), YEAST EXTRACT (BARLEY), ROASTED GARLIC POWDER, DEXTROSE, XANTHAN GUM, SPICES, LACTIC ACID, CELLULOSE GUM, MONO AND DIGLYCERIDES, CARRAGEENAN, GUAR GUM, NATURAL FLAVOR, LOCUST BEAN GUM, MEDIUM CHAIN TRIGLYCERIDES (COCONUT AND/OR PALM KERNEL OIL), HIGH FRUCTOSE CORN SYRUP." Date available: 07/14/2017 Date last updated by company: 07/14/2017
