Source: USDA Branded Food Products Database Release December 2017 Software v.3.8.6.4 2017-10-02
Report Run at: December 16, 2017 23:04 EST
"Nutrient data for: 45192694, ALL NATURAL PUMPKIN PIE, UPC: 815360012675"
Food Group:  Branded Food Products Database
Common Name:

Nutrient,Unit,Data points,Std. Error,"0.2 PIE = 136.0g",1Value per 100 g,
Proximates
"Energy",kcal,--,--,330,243
"Protein",g,--,--,6.00,4.41
"Total lipid (fat)",g,--,--,13.99,10.29
"Carbohydrate, by difference",g,--,--,49.00,36.03
"Fiber, total dietary",g,--,--,1.0,0.7
"Sugars, total",g,--,--,25.00,18.38
Minerals
"Calcium, Ca",mg,--,--,150,110
"Iron, Fe",mg,--,--,1.66,1.22
"Sodium, Na",mg,--,--,350,257
Vitamins
"Vitamin C, total ascorbic acid",mg,--,--,0.0,0.0
"Vitamin A, IU",IU,--,--,1837,1351
Lipids
"Fatty acids, total saturated",g,--,--,5.998,4.410
"Fatty acids, total trans",g,--,--,0.000,0.000
"Cholesterol",mg,--,--,45,33
Amino Acids
Other
Ingredients
"INGREDIENTS: PUMPKIN, WATER, WHOLE WHEAT FLOUR, ENRICHED FLOUR (UNBLEACHED FLOUR, REDUCED IRON, NIACIN, THIAMINE MONONITRATE, RIBOFLAVIN, FOLIC ACID), SUGAR, PALM OIL, NONFAT MILK, EGGS, CORN SYRUP, FOOD STARCH-MODIFIED, CONTAINS LESS THAN 2% OF: SALT, BROWN SUGAR, SPICES, CAROB BEAN GUM, AGAR, APPLE CIDER VINEGAR." Date available: 07/14/2017 Date last updated by company: 07/14/2017
