Source: USDA Branded Food Products Database Release December 2017 Software v.3.8.6.4 2017-10-02
Report Run at: December 16, 2017 22:52 EST
"Nutrient data for: 45323415, ALL PURPOSE SAUCE, UPC: 029988243872"
Food Group:  Branded Food Products Database
Common Name:

Nutrient,Unit,Data points,Std. Error,"1 Tbsp = 18.0g",1Value per 100 g,
Proximates
"Energy",kcal,--,--,25,139
"Protein",g,--,--,0.00,0.00
"Total lipid (fat)",g,--,--,0.00,0.00
"Carbohydrate, by difference",g,--,--,6.00,33.33
"Fiber, total dietary",g,--,--,0.0,0.0
"Sugars, total",g,--,--,6.00,33.33
Minerals
"Calcium, Ca",mg,--,--,0,0
"Iron, Fe",mg,--,--,0.00,0.00
"Sodium, Na",mg,--,--,170,944
Vitamins
"Vitamin C, total ascorbic acid",mg,--,--,0.0,0.0
"Vitamin A, IU",IU,--,--,0,0
Lipids
"Fatty acids, total saturated",g,--,--,0.000,0.000
"Cholesterol",mg,--,--,0,0
Amino Acids
Other
Ingredients
"TOMATO CONCENTRATE, (TOMATO PASTE AND WATER), VINEGAR, SUGAR, HIGH FRUCTOSE CORN SYRUP, MOLASSES, CORN SYRUP, APPLE JUICE CONCENTRATE, SALT, ONION POWDER, GROUND RED PEPPER, CARAMEL COLOR, GARLIC POWDER, GROUND CHIPOTLE PEPPER, TAMARIND, CORN STARCH, NATURAL FLAVORS AND OTHER SPICES." Date available: 07/14/2017 Date last updated by company: 07/14/2017
