Source: USDA Branded Food Products Database Release December 2017 Software v.3.8.6.4 2017-10-02
Report Run at: December 16, 2017 22:58 EST
"Nutrient data for: 45233302, ALL NATURAL GREEK VINAIGRETTE, UPC: 041498147686"
Food Group:  Branded Food Products Database
Common Name:

Nutrient,Unit,Data points,Std. Error,"2.0 Tbsp = 30.0g",1Value per 100 g,
Proximates
"Energy",kcal,--,--,110,367
"Protein",g,--,--,0.00,0.00
"Total lipid (fat)",g,--,--,10.00,33.33
"Carbohydrate, by difference",g,--,--,4.00,13.33
"Sugars, total",g,--,--,3.00,10.00
Minerals
"Sodium, Na",mg,--,--,20,67
Vitamins
Lipids
"Fatty acids, total saturated",g,--,--,0.501,1.670
Amino Acids
Other
Ingredients
"EXPELLER-PRESSED CANOLA OIL, RED WINE VINEGAR, WATER, EVAPORATED CANE SUGAR, GARLIC CLOVES, MUSTARD POWDER, ONION POWDER, GARLIC POWDER, CELERY, BLACK PEPPER, SEA SALT, OREGANO, BASIL, SODIUM ALGINATE." Date available: 07/14/2017 Date last updated by company: 07/14/2017
