Source: USDA Branded Food Products Database Release December 2017 Software v.3.8.6.4 2017-10-02
Report Run at: December 16, 2017 23:01 EST
"Nutrient data for: 45157844, ALL NATURAL, MILK CHOCOLATE PRETZELS, UPC: 094776128099"
Food Group:  Branded Food Products Database
Common Name:

Nutrient,Unit,Data points,Std. Error,"1.4 ONZ = 40.0g",1Value per 100 g,
Proximates
"Energy",kcal,--,--,190,475
"Protein",g,--,--,2.00,5.00
"Total lipid (fat)",g,--,--,8.00,20.00
"Carbohydrate, by difference",g,--,--,29.00,72.50
"Sugars, total",g,--,--,17.00,42.50
Minerals
"Sodium, Na",mg,--,--,170,425
Vitamins
Lipids
Amino Acids
Other
Ingredients
"NATURAL MILK CHOCOLATE (SUGAR, COCOA BUTTER, CHOCOLATE LIQUOR, SOY LECITHIN (AN EMULSIFIER), VANILLA, SALT), PRETZELS (ENRICHED WHEAT FLOUR (WHEAT FLOUR, NIACIN, REDUCED IRON, THIAMINE, MONONITRATE, RIBOFLAVIN, FOLIC ACID), CORN SYRUP, VEGETABLE OIL (CORN, CANOLA, SOYBEAN), SALT, SODIUM BICARBONATE, YEAST)." Date available: 07/14/2017 Date last updated by company: 07/14/2017
