Source: USDA Branded Food Products Database Release December 2017 Software v.3.8.6.4 2017-10-02
Report Run at: December 16, 2017 23:01 EST
"Nutrient data for: 45210089, ALL-NATURAL MILK CHOCOLATE, UPC: 748689145086"
Food Group:  Branded Food Products Database
Common Name:

Nutrient,Unit,Data points,Std. Error,"5.0 DISKS, 5 HEARTS, 5 MINIS, 6 BALLS, 6 EGGS OR 6 LEAVES | APPROX. = 40.0g",1Value per 100 g,
Proximates
"Energy",kcal,--,--,210,525
"Protein",g,--,--,3.00,7.50
"Total lipid (fat)",g,--,--,13.00,32.50
"Carbohydrate, by difference",g,--,--,24.00,60.00
"Fiber, total dietary",g,--,--,1.0,2.5
"Sugars, total",g,--,--,22.00,55.00
Minerals
"Calcium, Ca",mg,--,--,80,200
"Iron, Fe",mg,--,--,0.90,2.25
"Sodium, Na",mg,--,--,30,75
Vitamins
Lipids
"Fatty acids, total saturated",g,--,--,8.000,20.000
"Cholesterol",mg,--,--,5,12
Amino Acids
Other
Ingredients
"SUGAR, COCOA BUTTER, MILK, CHOCOLATE LIQUOR, SOY LECITHIN (AN EMULSIFIER), VANILLA." Date available: 10/19/2017 Date last updated by company: 10/19/2017
