Source: USDA Branded Food Products Database Release December 2017 Software v.3.8.6.4 2017-10-02
Report Run at: December 16, 2017 22:54 EST
"Nutrient data for: 45204432, ALL NATURAL BOURBON CHOCOLATIER SAUCE, UPC: 894822000306"
Food Group:  Branded Food Products Database
Common Name:

Nutrient,Unit,Data points,Std. Error,"2.0 Tbsp = 33.0g",1Value per 100 g,
Proximates
"Energy",kcal,--,--,80,242
"Protein",g,--,--,1.00,3.03
"Total lipid (fat)",g,--,--,0.50,1.52
"Carbohydrate, by difference",g,--,--,19.00,57.58
"Fiber, total dietary",g,--,--,1.0,3.0
"Sugars, total",g,--,--,16.00,48.48
Minerals
"Calcium, Ca",mg,--,--,0,0
"Iron, Fe",mg,--,--,1.22,3.69
"Sodium, Na",mg,--,--,15,45
Vitamins
"Vitamin C, total ascorbic acid",mg,--,--,0.0,0.0
"Vitamin A, IU",IU,--,--,0,0
Lipids
"Fatty acids, total saturated",g,--,--,0.000,0.000
"Fatty acids, total trans",g,--,--,0.000,0.000
"Cholesterol",mg,--,--,0,0
Amino Acids
Other
Ingredients
"SUGAR, WATER, DUTCH PROCESSED COCOA POWDER, BOURBON, SALT AND NATURAL FLAVOR." Date available: 07/14/2017 Date last updated by company: 07/14/2017
