Source: USDA Branded Food Products Database Release December 2017 Software v.3.8.6.4 2017-10-02
Report Run at: December 16, 2017 23:02 EST
"Nutrient data for: 45207455, ALL NATURAL OATMEAL, UPC: 020601407787"
Food Group:  Branded Food Products Database
Common Name:

Nutrient,Unit,Data points,Std. Error,"1 CONTAINER = 42.0g",1Value per 100 g,
Proximates
"Energy",kcal,--,--,160,381
"Protein",g,--,--,5.00,11.90
"Total lipid (fat)",g,--,--,2.50,5.95
"Carbohydrate, by difference",g,--,--,28.00,66.67
"Fiber, total dietary",g,--,--,3.0,7.1
"Sugars, total",g,--,--,9.00,21.43
Minerals
"Calcium, Ca",mg,--,--,20,48
"Iron, Fe",mg,--,--,1.89,4.49
"Sodium, Na",mg,--,--,11,26
Vitamins
"Vitamin C, total ascorbic acid",mg,--,--,0.0,0.0
"Vitamin A, IU",IU,--,--,0,0
Lipids
"Fatty acids, total saturated",g,--,--,0.000,0.000
"Fatty acids, total trans",g,--,--,0.000,0.000
"Cholesterol",mg,--,--,0,0
Amino Acids
Other
Ingredients
"WHOLE GRAIN ROLLED OATS, TURBINADO SUGAR, ROLLED FLAX SEED, APPLES, CINNAMON." Date available: 07/14/2017 Date last updated by company: 07/14/2017
