Source: USDA Branded Food Products Database Release December 2017 Software v.3.8.6.4 2017-10-02
Report Run at: December 16, 2017 23:01 EST
"Nutrient data for: 45165357, ALL NATURAL, NATURAL YOGURT RAISINS, UPC: 094776128136"
Food Group:  Branded Food Products Database
Common Name:

Nutrient,Unit,Data points,Std. Error,"1.4 ONZ = 40.0g",1Value per 100 g,
Proximates
"Energy",kcal,--,--,190,475
"Protein",g,--,--,1.00,2.50
"Total lipid (fat)",g,--,--,9.00,22.50
"Carbohydrate, by difference",g,--,--,28.00,70.00
"Sugars, total",g,--,--,25.00,62.50
Minerals
"Sodium, Na",mg,--,--,30,75
Vitamins
Lipids
Amino Acids
Other
Ingredients
"NATURAL YOGURT (SUCROSE, FRACTIONATED PALM KERNEL OIL, WHEY POWDER, NONFAT DRY MILK POWDER, YOGURT POWDER (CULTURED WHEY, NONFAT MILK), SOY LECITHIN (AN EMULSIFIER), VANILLA), RAISINS, CONFECTIONERS GLAZE." Date available: 10/13/2017 Date last updated by company: 10/13/2017
