Source: USDA Branded Food Products Database Release December 2017 Software v.3.8.6.4 2017-10-02
Report Run at: December 16, 2017 22:58 EST
"Nutrient data for: 45179090, ALL-NATURAL FRUIT CHIPS, UPC: 804879503163"
Food Group:  Branded Food Products Database
Common Name:

Nutrient,Unit,Data points,Std. Error,"1 BAG = 20.0g",1Value per 100 g,
Proximates
"Energy",kcal,--,--,60,300
"Protein",g,--,--,0.00,0.00
"Total lipid (fat)",g,--,--,0.00,0.00
"Carbohydrate, by difference",g,--,--,16.00,80.00
"Fiber, total dietary",g,--,--,1.0,5.0
"Sugars, total",g,--,--,14.00,70.00
Minerals
"Sodium, Na",mg,--,--,35,175
Vitamins
Lipids
Amino Acids
Other
Ingredients
"PINEAPPLE, APPLE, GROUND CINNAMON." Date available: 10/19/2017 Date last updated by company: 10/19/2017
