Source: USDA Branded Food Products Database Release December 2017 Software v.3.8.6.4 2017-10-02
Report Run at: December 16, 2017 22:58 EST
"Nutrient data for: 45182019, ALL NATURAL GROUND BEEF, UPC: 034779642406"
Food Group:  Branded Food Products Database
Common Name:

Nutrient,Unit,Data points,Std. Error,"4.0 ONZ = 112.0g",1Value per 100 g,
Proximates
"Energy",kcal,--,--,290,259
"Protein",g,--,--,19.00,16.96
"Total lipid (fat)",g,--,--,23.00,20.54
"Carbohydrate, by difference",g,--,--,0.00,0.00
Minerals
"Iron, Fe",mg,--,--,1.80,1.61
"Sodium, Na",mg,--,--,75,67
Vitamins
Lipids
"Fatty acids, total saturated",g,--,--,9.005,8.040
"Fatty acids, total trans",g,--,--,1.501,1.340
"Cholesterol",mg,--,--,80,71
Amino Acids
Other
Ingredients
"GROUND BEEF" Date available: 11/06/2016 Date last updated by company: 11/06/2016
