Source: USDA Branded Food Products Database Release December 2017 Software v.3.8.6.4 2017-10-02
Report Run at: December 16, 2017 22:51 EST
"Nutrient data for: 45329065, ALL-IN-ONE SUPER SYRUP, UPC: 04151206141"
Food Group:  Branded Food Products Database
Common Name:

Nutrient,Unit,Data points,Std. Error,"2.0 Tbsp = 30.0g",1Value per 100 g,
Proximates
"Energy",kcal,--,--,60,200
"Protein",g,--,--,0.00,0.00
"Total lipid (fat)",g,--,--,0.00,0.00
"Carbohydrate, by difference",g,--,--,16.00,53.33
"Sugars, total",g,--,--,15.00,50.00
Minerals
"Sodium, Na",mg,--,--,5,17
Vitamins
Lipids
Amino Acids
Other
Ingredients
"HIGH FRUCTOSE CORN SYRUP, WATER, LESS THAN 2% OF: CITRIC ACID, SODIUM BENZOATE (AS PRESERVATIVE), PROPYLENE GLYCOL, TRAGACANTH GUM, FD&C BLUE #1, NATURAL AND ARTIFICIAL FLAVORS." Date available: 10/13/2017 Date last updated by company: 10/13/2017
