Source: USDA Branded Food Products Database Release December 2017 Software v.3.8.6.4 2017-10-02
Report Run at: December 16, 2017 22:53 EST
"Nutrient data for: 45121779, ALL SPICE CAFE, CARIBBEAN SPICE SAUCE, UPC: 898150001127"
Food Group:  Branded Food Products Database
Common Name:

Nutrient,Unit,Data points,Std. Error,"1 Tbsp = 15.0g",1Value per 100 g,
Proximates
"Energy",kcal,--,--,23,153
"Protein",g,--,--,1.00,6.67
"Total lipid (fat)",g,--,--,2.00,13.33
"Carbohydrate, by difference",g,--,--,2.00,13.33
"Fiber, total dietary",g,--,--,0.3,1.7
"Sugars, total",g,--,--,0.00,0.00
Minerals
"Calcium, Ca",mg,--,--,0,0
"Iron, Fe",mg,--,--,0.73,4.87
"Sodium, Na",mg,--,--,502,3347
Vitamins
"Vitamin C, total ascorbic acid",mg,--,--,9.7,64.9
"Vitamin A, IU",IU,--,--,954,6357
Lipids
"Fatty acids, total saturated",g,--,--,0.200,1.330
"Fatty acids, total trans",g,--,--,0.000,0.000
"Cholesterol",mg,--,--,0,0
Amino Acids
Other
Ingredients
"AGED CAYENNE PEPPER, VINEGAR, EXPELLER PRESSED CANOLA OIL, SALT, WATER, BLACK PEPPER, GARLIC POWDER, ONION POWDER, ALLSPICE, TURBINADO SUGAR, CINNAMON, NUTMEG, THYME, XANTHAN GUM." Date available: 06/25/2017 Date last updated by company: 06/25/2017
