Source: USDA Branded Food Products Database Release December 2017 Software v.3.8.6.4 2017-10-02
Report Run at: December 16, 2017 22:49 EST
"Nutrient data for: 45276039, ALL NATURAL YOUNG COCONUT JUICE WITH PULP, UPC: 643700206497"
Food Group:  Branded Food Products Database
Common Name:

Nutrient,Unit,Data points,Std. Error,"0.5 CAN = 260.0g",1Value per 100 g,
Proximates
"Energy",kcal,--,--,81,31
"Protein",g,--,--,0.00,0.00
"Total lipid (fat)",g,--,--,0.99,0.38
"Carbohydrate, by difference",g,--,--,19.01,7.31
"Fiber, total dietary",g,--,--,0.0,0.0
"Sugars, total",g,--,--,17.99,6.92
Minerals
"Calcium, Ca",mg,--,--,39,15
"Iron, Fe",mg,--,--,0.16,0.06
"Sodium, Na",mg,--,--,91,35
Vitamins
"Vitamin C, total ascorbic acid",mg,--,--,0.0,0.0
"Vitamin A, IU",IU,--,--,0,0
Lipids
"Fatty acids, total saturated",g,--,--,0.988,0.380
"Fatty acids, total trans",g,--,--,0.000,0.000
"Cholesterol",mg,--,--,0,0
Amino Acids
Other
Ingredients
"YOUNG COCONUT JUICE, WATER, YOUNG COCONUT PULP, SUGAR, SODIUM METABISULPHITE (FOR COLOR RETENTION)" Date available: 07/14/2017 Date last updated by company: 07/14/2017
