Source: USDA Branded Food Products Database Release December 2017 Software v.3.8.6.4 2017-10-02
Report Run at: December 16, 2017 22:46 EST
"Nutrient data for: 45223779, ALL NATURAL TRADITIONAL CHUNKY SAUCE, UPC: 076808004106"
Food Group:  Branded Food Products Database
Common Name:

Nutrient,Unit,Data points,Std. Error,"0.5 cup = 125.0g",1Value per 100 g,
Proximates
"Energy",kcal,--,--,70,56
"Protein",g,--,--,2.00,1.60
"Total lipid (fat)",g,--,--,1.00,0.80
"Carbohydrate, by difference",g,--,--,13.00,10.40
"Fiber, total dietary",g,--,--,3.0,2.4
"Sugars, total",g,--,--,7.00,5.60
Minerals
"Calcium, Ca",mg,--,--,40,32
"Iron, Fe",mg,--,--,0.76,0.61
"Sodium, Na",mg,--,--,420,336
Vitamins
"Vitamin C, total ascorbic acid",mg,--,--,9.5,7.6
"Vitamin A, IU",IU,--,--,529,423
Lipids
"Fatty acids, total saturated",g,--,--,0.000,0.000
"Fatty acids, total trans",g,--,--,0.000,0.000
"Cholesterol",mg,--,--,0,0
Amino Acids
Other
Ingredients
"TOMATO PUREE (WATER, TOMATO PASTE), DICED TOMATOES (TOMATOES, CITRIC ACID), SUGAR, DRIED ONIONS, DEHYDRATED GARLIC, SALT, CARROTS, BASIL, EXTRA VIRGIN OLIVE OIL, PARSLEY, OREGANO, MINCED GARLIC, CITRIC ACID." Date available: 07/14/2017 Date last updated by company: 07/14/2017
