Source: USDA Branded Food Products Database Release December 2017 Software v.3.8.6.4 2017-10-02
Report Run at: December 16, 2017 22:52 EST
"Nutrient data for: 45329123, ALL-IN-ONE SUPER SYRUP, UPC: 041512103483"
Food Group:  Branded Food Products Database
Common Name:

Nutrient,Unit,Data points,Std. Error,"2.0 Tbsp = 30.0g",1Value per 100 g,
Proximates
"Energy",kcal,--,--,70,233
"Protein",g,--,--,0.00,0.00
"Total lipid (fat)",g,--,--,0.00,0.00
"Carbohydrate, by difference",g,--,--,17.00,56.67
"Sugars, total",g,--,--,16.00,53.33
Minerals
"Sodium, Na",mg,--,--,5,17
Vitamins
Lipids
Amino Acids
Other
Ingredients
"HIGH FRUCTOSE CORN SYRUP, WATER, LESS THAN 2% OF: CITRIC ACID, PROPYLENE GLYCOL, SODIUM BENZOATE (AS PRESERVATIVE), FD&C RED #40, ARTIFICIAL FLAVOR, TRAGACANTH GUM." Date available: 10/13/2017 Date last updated by company: 10/13/2017
