Source: USDA Branded Food Products Database Release December 2017 Software v.3.8.6.4 2017-10-02
Report Run at: December 16, 2017 22:46 EST
"Nutrient data for: 45030421, ALLENS, GREAT NORTHERN BEANS, UPC: 034700364100"
Food Group:  Branded Food Products Database
Common Name:

Nutrient,Unit,Data points,Std. Error,"0.5 cup = 128.0g",1Value per 100 g,
Proximates
"Energy",kcal,--,--,110,86
"Protein",g,--,--,6.00,4.69
"Total lipid (fat)",g,--,--,0.50,0.39
"Carbohydrate, by difference",g,--,--,19.00,14.84
"Fiber, total dietary",g,--,--,7.0,5.5
"Sugars, total",g,--,--,1.00,0.78
Minerals
"Calcium, Ca",mg,--,--,60,47
"Iron, Fe",mg,--,--,1.10,0.86
"Potassium, K",mg,--,--,330,258
"Sodium, Na",mg,--,--,241,188
Vitamins
"Vitamin C, total ascorbic acid",mg,--,--,0.0,0.0
"Vitamin A, IU",IU,--,--,0,0
Lipids
"Fatty acids, total saturated",g,--,--,0.000,0.000
"Fatty acids, total trans",g,--,--,0.000,0.000
"Cholesterol",mg,--,--,0,0
Amino Acids
Other
Ingredients
"PREPARED GREAT NORTHERN BEANS, WATER, SALT." Date available: 07/14/2017 Date last updated by company: 07/14/2017
