Source: USDA Branded Food Products Database Release December 2017 Software v.3.8.6.4 2017-10-02
Report Run at: December 16, 2017 22:54 EST
"Nutrient data for: 45240507, ALMDUDLER, NATURAL ALPINE HERB SOFT DRINK, UPC: 90151613"
Food Group:  Branded Food Products Database
Common Name:

Nutrient,Unit,Data points,Std. Error,"100.0 MLT = 100.0g",1Value per 100 g,
Proximates
"Energy",kcal,--,--,33,33
"Protein",g,--,--,0.00,0.00
"Total lipid (fat)",g,--,--,0.00,0.00
"Carbohydrate, by difference",g,--,--,8.00,8.00
"Fiber, total dietary",g,--,--,0.0,0.0
"Sugars, total",g,--,--,8.00,8.00
Minerals
"Sodium, Na",mg,--,--,0,0
Vitamins
Lipids
"Fatty acids, total saturated",g,--,--,0.000,0.000
Amino Acids
Other
Ingredients
"WATER, SUGAR, CARBON DIOXIDE, ACIDIFIER CITRIC ACID, COLORING: AMMONIUM SULPHITE, NATURAL HERBAL EXTRACTS." Date available: 06/25/2017 Date last updated by company: 06/25/2017
