Source: USDA Branded Food Products Database Release December 2017 Software v.3.8.6.4 2017-10-02
Report Run at: December 16, 2017 23:07 EST
"Nutrient data for: 45151755, ALMOND ROCA TOFFEE, UPC: 041770077304"
Food Group:  Branded Food Products Database
Common Name:

Nutrient,Unit,Data points,Std. Error,"3.0 PIECES = 36.0g",1Value per 100 g,
Proximates
"Energy",kcal,--,--,200,556
"Protein",g,--,--,2.00,5.56
"Total lipid (fat)",g,--,--,15.00,41.67
"Carbohydrate, by difference",g,--,--,17.00,47.22
"Fiber, total dietary",g,--,--,1.0,2.8
"Sugars, total",g,--,--,15.00,41.67
Minerals
"Calcium, Ca",mg,--,--,20,56
"Iron, Fe",mg,--,--,0.00,0.00
"Sodium, Na",mg,--,--,115,319
Vitamins
"Vitamin C, total ascorbic acid",mg,--,--,0.0,0.0
"Vitamin A, IU",IU,--,--,278,772
Lipids
"Fatty acids, total saturated",g,--,--,7.999,22.220
"Fatty acids, total trans",g,--,--,0.000,0.000
"Cholesterol",mg,--,--,15,42
Amino Acids
Other
Ingredients
"SUGAR, ALMONDS, BUTTER (CREAM, SALT), PALM OIL, PALM KERNEL OIL, COCOA PROCESSED WITH ALKALI, SKIM MILK POWDER, WHEY POWDER, SOY LECITHIN (EMULSIFIER), UNSWEETENED CHOCOLATE (COCOA MASS) AND VANILLA (NATURAL FLAVOR)." Date available: 07/14/2017 Date last updated by company: 07/14/2017
