Source: USDA Branded Food Products Database Release December 2017 Software v.3.8.6.4 2017-10-02
Report Run at: December 16, 2017 23:03 EST
"Nutrient data for: 45271781, ALMOND MILK PUDDING, UPC: 713733317801"
Food Group:  Branded Food Products Database
Common Name:

Nutrient,Unit,Data points,Std. Error,"1 CONTAINER = 106.0g",1Value per 100 g,
Proximates
"Energy",kcal,--,--,120,113
"Protein",g,--,--,1.00,0.94
"Total lipid (fat)",g,--,--,1.51,1.42
"Carbohydrate, by difference",g,--,--,26.00,24.53
"Fiber, total dietary",g,--,--,1.0,0.9
"Sugars, total",g,--,--,20.00,18.87
Minerals
"Calcium, Ca",mg,--,--,13,12
"Iron, Fe",mg,--,--,1.00,0.94
"Potassium, K",mg,--,--,92,87
"Sodium, Na",mg,--,--,140,132
Vitamins
Lipids
"Fatty acids, total saturated",g,--,--,0.000,0.000
"Fatty acids, total trans",g,--,--,0.000,0.000
"Cholesterol",mg,--,--,0,0
Amino Acids
Other
Ingredients
"ALMONDMILK (WATER, ALMONDS), SUGAR, MODIFIED CORN STARCH, COCOA PROCESSED WITH ALKALI, ALMONDS, SALT, NATURAL FLAVOR." Date available: 07/14/2017 Date last updated by company: 07/14/2017
