Source: USDA Branded Food Products Database Release December 2017 Software v.3.8.6.4 2017-10-02
Report Run at: December 16, 2017 23:17 EST
"Nutrient data for: 45174578, ALMONTA, CREAM CHEESE SPREAD, UPC: 046583000143"
Food Group:  Branded Food Products Database
Common Name:

Nutrient,Unit,Data points,Std. Error,"2.0 Tbsp = 27.0g",1Value per 100 g,
Proximates
"Energy",kcal,--,--,80,296
"Protein",g,--,--,2.00,7.41
"Total lipid (fat)",g,--,--,7.00,25.93
"Carbohydrate, by difference",g,--,--,1.00,3.70
"Fiber, total dietary",g,--,--,0.0,0.0
"Sugars, total",g,--,--,1.00,3.70
Minerals
"Calcium, Ca",mg,--,--,20,74
"Iron, Fe",mg,--,--,0.00,0.00
"Sodium, Na",mg,--,--,110,407
Vitamins
"Vitamin C, total ascorbic acid",mg,--,--,0.0,0.0
"Vitamin A, IU",IU,--,--,370,1372
Lipids
"Fatty acids, total saturated",g,--,--,5.000,18.520
"Fatty acids, total trans",g,--,--,0.000,0.000
"Cholesterol",mg,--,--,20,74
Amino Acids
Other
Ingredients
"PASTEURIZED MILK AND CREAM, SALT, ONION, GARLIC, PARSLEY, CHIVES, CITRIC ACID (ACIDIFIER), CHEESE CULTURES, MICROBIAL RENNET." Date available: 07/14/2017 Date last updated by company: 07/14/2017
