Source: USDA Branded Food Products Database Release December 2017 Software v.3.8.6.4 2017-10-02
Report Run at: December 16, 2017 22:56 EST
"Nutrient data for: 45283898, ALMOND BUTTER DARK CHOCOLATE PROTEIN BAR, UPC: 861592000041"
Food Group:  Branded Food Products Database
Common Name:

Nutrient,Unit,Data points,Std. Error,"46.0 GRM = 46.0g",1Value per 100 g,
Proximates
"Energy",kcal,--,--,240,522
"Protein",g,--,--,6.00,13.04
"Total lipid (fat)",g,--,--,15.00,32.61
"Carbohydrate, by difference",g,--,--,23.00,50.00
"Fiber, total dietary",g,--,--,3.0,6.5
"Sugars, total",g,--,--,10.00,21.74
Minerals
"Calcium, Ca",mg,--,--,20,43
"Iron, Fe",mg,--,--,0.94,2.04
"Sodium, Na",mg,--,--,0,0
Vitamins
"Vitamin C, total ascorbic acid",mg,--,--,0.0,0.0
"Vitamin A, IU",IU,--,--,0,0
Lipids
"Fatty acids, total saturated",g,--,--,2.498,5.430
"Fatty acids, total trans",g,--,--,0.000,0.000
"Cholesterol",mg,--,--,0,0
Amino Acids
Other
Ingredients
"ALMOND BUTTER, AGAVE OATS (GLUTEN FREE), FLAX SEEDS, PUMPKIN SEEDS, SUNFLOWER SEEDS, ALMONDS, DARK CHOCOLATE (COCOA LIQUOR, COCOA BUTTER, SUGAR, SOY LECITHIN), COCONUT, SUNFLOWER OIL" Date available: 07/14/2017 Date last updated by company: 07/14/2017
