Source: USDA Branded Food Products Database Release December 2017 Software v.3.8.6.4 2017-10-02
Report Run at: December 16, 2017 23:06 EST
"Nutrient data for: 45200886, ALMOND NUT TOPPING, UPC: 862204000022"
Food Group:  Branded Food Products Database
Common Name:

Nutrient,Unit,Data points,Std. Error,"2.0 tsp = 7.0g",1Value per 100 g,
Proximates
"Energy",kcal,--,--,40,571
"Protein",g,--,--,1.00,14.29
"Total lipid (fat)",g,--,--,2.50,35.71
"Carbohydrate, by difference",g,--,--,3.00,42.86
"Fiber, total dietary",g,--,--,1.0,14.3
"Sugars, total",g,--,--,1.00,14.29
Minerals
"Iron, Fe",mg,--,--,2.57,36.75
"Sodium, Na",mg,--,--,30,429
Vitamins
Lipids
Amino Acids
Other
Ingredients
"DRY ROASTED ALMONDS (SALTED), LIGHT BROWN SUGAR, POWDERED GARLIC, THYME, ROSEMARY, POWDERED DIJON MUSTARD." Date available: 10/19/2017 Date last updated by company: 10/19/2017
