Source: USDA Branded Food Products Database Release December 2017 Software v.3.8.6.4 2017-10-02
Report Run at: December 16, 2017 22:59 EST
"Nutrient data for: 45324504, ALMOND CHO0COLATE HONEY PATTIES, UPC: 897988000081"
Food Group:  Branded Food Products Database
Common Name:

Nutrient,Unit,Data points,Std. Error,"1 PATTIE = 11.0g",1Value per 100 g,
Proximates
"Energy",kcal,--,--,50,455
"Protein",g,--,--,1.00,9.09
"Total lipid (fat)",g,--,--,3.00,27.27
"Carbohydrate, by difference",g,--,--,7.00,63.64
"Fiber, total dietary",g,--,--,1.0,9.1
"Sugars, total",g,--,--,5.00,45.45
Minerals
"Calcium, Ca",mg,--,--,0,0
"Iron, Fe",mg,--,--,1.64,14.87
"Sodium, Na",mg,--,--,0,0
Vitamins
"Vitamin C, total ascorbic acid",mg,--,--,0.0,0.0
"Vitamin A, IU",IU,--,--,0,0
Lipids
"Fatty acids, total saturated",g,--,--,2.000,18.180
"Fatty acids, total trans",g,--,--,0.000,0.000
"Cholesterol",mg,--,--,0,0
Amino Acids
Other
Ingredients
"RAW ORGANIC WHITE HONEY*, UNSWEETENED ORGANIC DARK CHOCOLATE*, NATURAL ALMOND FLAVOR." Date available: 08/10/2017 Date last updated by company: 08/10/2017
