Source: USDA Branded Food Products Database Release December 2017 Software v.3.8.6.4 2017-10-02
Report Run at: December 16, 2017 23:10 EST
"Nutrient data for: 45148683, ALMONDS, UPC: 078742133263"
Food Group:  Branded Food Products Database
Common Name:

Nutrient,Unit,Data points,Std. Error,"0.25 cup = 31.0g",1Value per 100 g,
Proximates
"Energy",kcal,--,--,190,613
"Protein",g,--,--,6.00,19.35
"Total lipid (fat)",g,--,--,17.00,54.84
"Carbohydrate, by difference",g,--,--,5.00,16.13
"Fiber, total dietary",g,--,--,3.0,9.7
"Sugars, total",g,--,--,1.00,3.23
Minerals
"Calcium, Ca",mg,--,--,80,258
"Iron, Fe",mg,--,--,1.74,5.62
"Potassium, K",mg,--,--,210,677
"Sodium, Na",mg,--,--,150,484
Vitamins
"Vitamin C, total ascorbic acid",mg,--,--,0.0,0.0
"Vitamin A, IU",IU,--,--,0,0
Lipids
"Fatty acids, total saturated",g,--,--,1.500,4.840
"Fatty acids, total monounsaturated",g,--,--,10.999,35.480
"Fatty acids, total polyunsaturated",g,--,--,3.999,12.900
"Fatty acids, total trans",g,--,--,0.000,0.000
"Cholesterol",mg,--,--,0,0
Amino Acids
Other
Ingredients
"ALMONDS, VEGETABLE OIL (PEANUT, COTTONSEED, SOYBEAN AND/OR SUNFLOWER SEED), CONTAINS LESS THAN 2% OF THE FOLLOWING: SALT, MALTODEXTRIN, HYDROLYZED SOY PROTEIN, YEAST EXTRACT, BROWN SUGAR, NATURAL HICKORY SMOKE FLAVOR, NATURAL FLAVOR, LIPOLYZED BUTTER OIL (MILK)." Date available: 07/14/2017 Date last updated by company: 07/14/2017
