Source: USDA Branded Food Products Database Release December 2017 Software v.3.8.6.4 2017-10-02
Report Run at: December 16, 2017 23:16 EST
"Nutrient data for: 45311678, ALMOND TOFFEE, UPC: 635104180107"
Food Group:  Branded Food Products Database
Common Name:

Nutrient,Unit,Data points,Std. Error,"2.0 PIECES = 42.0g",1Value per 100 g,
Proximates
"Energy",kcal,--,--,220,524
"Protein",g,--,--,2.00,4.76
"Total lipid (fat)",g,--,--,15.00,35.71
"Carbohydrate, by difference",g,--,--,20.00,47.62
"Fiber, total dietary",g,--,--,1.0,2.4
"Sugars, total",g,--,--,18.00,42.86
Minerals
"Calcium, Ca",mg,--,--,40,95
"Iron, Fe",mg,--,--,0.86,2.04
"Sodium, Na",mg,--,--,80,190
Vitamins
"Vitamin C, total ascorbic acid",mg,--,--,0.0,0.0
"Vitamin A, IU",IU,--,--,357,850
Lipids
"Fatty acids, total saturated",g,--,--,8.001,19.050
"Fatty acids, total trans",g,--,--,0.000,0.000
"Cholesterol",mg,--,--,25,60
Amino Acids
Other
Ingredients
"BUTTER (PASTEURIZED CREAM, SALT), SUGAR, ALMONDS, SUNFLOWER LECITHIN, SALT, MILK CHOCOLATE (SUGAR, MILK, COCOA BUTTER, UNSWEETENED CHOCOLATE, SUNFLOWER AND/OR SOY LECITHIN, VANILLA)." Date available: 07/14/2017 Date last updated by company: 07/14/2017
