Source: USDA Branded Food Products Database Release December 2017 Software v.3.8.6.4 2017-10-02
Report Run at: December 16, 2017 23:10 EST
"Nutrient data for: 45061347, ALMONDS, UPC: 438980076041"
Food Group:  Branded Food Products Database
Common Name:

Nutrient,Unit,Data points,Std. Error,"28.0 NUTS | ABOUT = 28.0g",1Value per 100 g,
Proximates
"Energy",kcal,--,--,170,607
"Protein",g,--,--,6.00,21.43
"Total lipid (fat)",g,--,--,15.00,53.57
"Carbohydrate, by difference",g,--,--,6.00,21.43
"Fiber, total dietary",g,--,--,3.0,10.7
"Sugars, total",g,--,--,2.00,7.14
Minerals
"Calcium, Ca",mg,--,--,80,286
"Iron, Fe",mg,--,--,1.93,6.88
"Magnesium, Mg",mg,--,--,143,510
"Potassium, K",mg,--,--,180,643
"Sodium, Na",mg,--,--,115,411
Vitamins
"Vitamin C, total ascorbic acid",mg,--,--,0.0,0.0
"Vitamin A, IU",IU,--,--,0,0
Lipids
"Fatty acids, total saturated",g,--,--,1.000,3.570
"Fatty acids, total trans",g,--,--,0.000,0.000
"Cholesterol",mg,--,--,0,0
Amino Acids
Other
Ingredients
"ALMONDS, VEGETABLE OIL (CANOLA, SAFFLOWER AND/OR SUNFLOWER), SUGAR, MODIFIED CORN STARCH, SALT, SOY SAUCE (SOYBEAN, WHEAT SALT), HORSERADISH, ONION, SPICE, FRACTIONATED COCONUT OIL, AND/OR PALM KERNEL OIL, GARLIC, MALTODEXTRIN, YEAST EXTRACT, NATURAL FLAVOR, CITRIC ACID, DISODIUM GUANYLATE AND DISODIUM INOSINATE." Date available: 07/14/2017 Date last updated by company: 07/14/2017
