Source: USDA Branded Food Products Database Release December 2017 Software v.3.8.6.4 2017-10-02
Report Run at: December 16, 2017 23:21 EST
"Nutrient data for: 45323648, ALOE VERA JUICE DIETARY SUPPLEMENT, UPC: 026395850167"
Food Group:  Branded Food Products Database
Common Name:

Nutrient,Unit,Data points,Std. Error,"1 OZA = 30.0g",1Value per 100 g,
Proximates
"Energy",kcal,--,--,4,13
"Carbohydrate, by difference",g,--,--,1.00,3.33
Minerals
"Calcium, Ca",mg,--,--,75,250
"Magnesium, Mg",mg,--,--,10,33
"Sodium, Na",mg,--,--,30,100
Vitamins
Lipids
Amino Acids
Other
Ingredients
"CITRIC ACID (PH STABILIZER)" Date available: 07/14/2017 Date last updated by company: 07/14/2017
