Source: USDA Branded Food Products Database Release December 2017 Software v.3.8.6.4 2017-10-02
Report Run at: December 16, 2017 23:20 EST
"Nutrient data for: 45161844, ALOE VERA DRINK WITH PULP, UPC: 852559006008"
Food Group:  Branded Food Products Database
Common Name:

Nutrient,Unit,Data points,Std. Error,"1 cup = 240.0g",1Value per 100 g,
Proximates
"Energy",kcal,--,--,60,25
"Protein",g,--,--,0.00,0.00
"Total lipid (fat)",g,--,--,0.00,0.00
"Carbohydrate, by difference",g,--,--,13.01,5.42
"Fiber, total dietary",g,--,--,0.0,0.0
"Sugars, total",g,--,--,12.00,5.00
Minerals
"Sodium, Na",mg,--,--,0,0
Vitamins
Lipids
"Cholesterol",mg,--,--,0,0
Amino Acids
Other
Ingredients
"WATER, ALOE VERA PULP AND ALOE VERA JUICE, SUGARS, CITRIC ACID, CALCIUM LACTATE, VITAMIN C, ARTIFICIAL GRAPE FLAVOR, GELLAN GUM, SUCRALOSE." Date available: 07/14/2017 Date last updated by company: 07/14/2017
