Source: USDA Branded Food Products Database Release December 2017 Software v.3.8.6.4 2017-10-02
Report Run at: December 16, 2017 23:19 EST
"Nutrient data for: 45216057, ALOE VERA DRINK, UPC: 087703189676"
Food Group:  Branded Food Products Database
Common Name:

Nutrient,Unit,Data points,Std. Error,"1 cup = 236.0g",1Value per 100 g,
Proximates
"Energy",kcal,--,--,71,30
"Protein",g,--,--,0.00,0.00
"Total lipid (fat)",g,--,--,0.00,0.00
"Carbohydrate, by difference",g,--,--,16.99,7.20
"Fiber, total dietary",g,--,--,0.0,0.0
"Sugars, total",g,--,--,16.99,7.20
Minerals
"Calcium, Ca",mg,--,--,71,30
"Iron, Fe",mg,--,--,0.00,0.00
"Sodium, Na",mg,--,--,35,15
Vitamins
"Vitamin C, total ascorbic acid",mg,--,--,0.0,0.0
"Vitamin A, IU",IU,--,--,0,0
Lipids
"Fatty acids, total saturated",g,--,--,0.000,0.000
"Fatty acids, total trans",g,--,--,0.000,0.000
"Cholesterol",mg,--,--,0,0
Amino Acids
Other
Ingredients
"PURE WATER, FRUCTOSE SYRUP, SUGAR, ALOE VERA PULPS(GEL), CITRIC ACID, CALCIUM LACTATE, SODIUM CITRATE, SUCRALOSE, GELLAN GUM, BETA CAROTENE, ACESULFAME-K, MANGO FLAVOR." Date available: 07/14/2017 Date last updated by company: 07/14/2017
