Source: USDA Branded Food Products Database Release December 2017 Software v.3.8.6.4 2017-10-02
Report Run at: December 16, 2017 23:20 EST
"Nutrient data for: 45242861, ALOE VERA DRINK, UPC: 761898654637"
Food Group:  Branded Food Products Database
Common Name:

Nutrient,Unit,Data points,Std. Error,"1 cup = 160.0g",1Value per 100 g,
Proximates
"Energy",kcal,--,--,70,44
"Protein",g,--,--,0.00,0.00
"Total lipid (fat)",g,--,--,0.00,0.00
"Carbohydrate, by difference",g,--,--,16.00,10.00
"Fiber, total dietary",g,--,--,0.0,0.0
"Sugars, total",g,--,--,16.00,10.00
Minerals
"Calcium, Ca",mg,--,--,61,38
"Iron, Fe",mg,--,--,0.00,0.00
"Sodium, Na",mg,--,--,0,0
Vitamins
"Vitamin C, total ascorbic acid",mg,--,--,0.0,0.0
"Vitamin A, IU",IU,--,--,0,0
Lipids
"Fatty acids, total saturated",g,--,--,0.000,0.000
"Fatty acids, total trans",g,--,--,0.000,0.000
"Cholesterol",mg,--,--,0,0
Amino Acids
Other
Ingredients
"ALOE VERA GEL, HONEY, SUGAR, CITRIC ACID, TRISODIUM CITRATE, GELLAN GUM (FOOD GRADE), CALCIUM LACTATE, CALCIUM CARBONATE, FD&C YELLOW NO. 5, ARTIFICIAL PINEAPPLE FLAVOR, PURIFIED WATER." Date available: 07/14/2017 Date last updated by company: 07/14/2017
