Source: USDA Branded Food Products Database Release December 2017 Software v.3.8.6.4 2017-10-02
Report Run at: December 16, 2017 23:08 EST
"Nutrient data for: 45154000, ALPINI, DELICIOUS HAZELNUT & ALMOND PRALINE, UPC: 813715035065"
Food Group:  Branded Food Products Database
Common Name:

Nutrient,Unit,Data points,Std. Error,"100.0 GRM = 100.0g",1Value per 100 g,
Proximates
"Energy",kcal,--,--,540,540
"Protein",g,--,--,6.90,6.90
"Total lipid (fat)",g,--,--,31.00,31.00
"Carbohydrate, by difference",g,--,--,56.00,56.00
Minerals
Vitamins
Lipids
Amino Acids
Other
Ingredients
"SUGAR, HAZELNUTS (14%), PALM KERNEL OIL, DRIED WHOLE MILK, COCOA BUTTER, COCOA MASS, DRIED SKIMMED MILK, FAT REDUCED COCOA POWDER, ALMONDS (1%), MILK FAT, EMULSIFIER (SOYA LECITHIN), FLAVORING." Date available: 10/13/2017 Date last updated by company: 10/13/2017
