Source: USDA Branded Food Products Database Release December 2017 Software v.3.8.6.4 2017-10-02
Report Run at: December 16, 2017 23:09 EST
"Nutrient data for: 45031722, ALTER ECO, ORGANIC CHOCOLATE, DARK COCONUT TOFFEE, UPC: 817670010129"
Food Group:  Branded Food Products Database
Common Name:

Nutrient,Unit,Data points,Std. Error,"40.0 g = 40.0g",1Value per 100 g,
Proximates
"Energy",kcal,--,--,210,525
"Protein",g,--,--,2.00,5.00
"Total lipid (fat)",g,--,--,14.00,35.00
"Carbohydrate, by difference",g,--,--,24.00,60.00
"Fiber, total dietary",g,--,--,2.0,5.0
"Sugars, total",g,--,--,20.00,50.00
Minerals
"Calcium, Ca",mg,--,--,20,50
"Iron, Fe",mg,--,--,3.15,7.88
"Sodium, Na",mg,--,--,29,72
Vitamins
"Vitamin C, total ascorbic acid",mg,--,--,0.0,0.0
"Vitamin A, IU",IU,--,--,62,156
Lipids
"Fatty acids, total saturated",g,--,--,9.000,22.500
"Fatty acids, total trans",g,--,--,0.000,0.000
"Cholesterol",mg,--,--,6,15
Amino Acids
Other
Ingredients
"RAW CANE SUGAR**, CACAO BEANS**, COCONUT TOFFEE (SUGAR**, DESICCATED COCONUT**, BUTTER*, SEA SALT), COCOA BUTTER**, WHOLE MILK POWDER*, BUTTERFAT*." Date available: 06/24/2017 Date last updated by company: 06/24/2017
