Source: USDA Branded Food Products Database Release December 2017 Software v.3.8.6.4 2017-10-02
Report Run at: December 16, 2017 23:10 EST
"Nutrient data for: 45312148, ALWADI, PASTEURIZED PROCESS GOUDA & EDAM CHEESE, UPC: 015883770223"
Food Group:  Branded Food Products Database
Common Name:

Nutrient,Unit,Data points,Std. Error,"1 ONZ = 28.0g",1Value per 100 g,
Proximates
"Energy",kcal,--,--,80,286
"Protein",g,--,--,5.00,17.86
"Total lipid (fat)",g,--,--,6.00,21.43
"Carbohydrate, by difference",g,--,--,1.00,3.57
"Fiber, total dietary",g,--,--,0.0,0.0
"Sugars, total",g,--,--,1.00,3.57
Minerals
"Calcium, Ca",mg,--,--,120,429
"Iron, Fe",mg,--,--,0.00,0.00
"Phosphorus, P",mg,--,--,240,857
"Sodium, Na",mg,--,--,130,464
Vitamins
"Vitamin C, total ascorbic acid",mg,--,--,0.0,0.0
"Vitamin A, IU",IU,--,--,200,714
Lipids
"Fatty acids, total saturated",g,--,--,4.001,14.290
"Fatty acids, total trans",g,--,--,0.501,1.790
"Cholesterol",mg,--,--,40,143
Amino Acids
Other
Ingredients
"EDAM & GOUDA CHEESE (PASTEURIZED COW MILK,SALT, MICROBIAL RENNET), WATER, BUTTER (CREAM OF PASTEURIZED COW MILK), SKIMMED MILK POWDER, EMULSIFIER (SODIUM ACID PYROPHOSPHATE, SODIUM CITRATE, DISODIUM PHOSPHATE, SODIUM METAPHOSPHATE),SALT, CITRIC ACID, PRESERVATIVE: POTASSIUM SORBATE." Date available: 10/08/2016 Date last updated by company: 10/08/2016
