Source: USDA Branded Food Products Database Release December 2017 Software v.3.8.6.4 2017-10-02
Report Run at: December 16, 2017 23:12 EST
"Nutrient data for: 45180033, AMAN, WHOLE WHEAT FATIRA PARATHA, UPC: 814801010607"
Food Group:  Branded Food Products Database
Common Name:

Nutrient,Unit,Data points,Std. Error,"6.0 | PACKAGE = 65.0g",1Value per 100 g,
Proximates
"Energy",kcal,--,--,190,292
"Protein",g,--,--,5.00,7.69
"Total lipid (fat)",g,--,--,7.00,10.77
"Carbohydrate, by difference",g,--,--,29.00,44.62
"Fiber, total dietary",g,--,--,7.0,10.8
"Sugars, total",g,--,--,3.00,4.62
Minerals
"Calcium, Ca",mg,--,--,20,31
"Iron, Fe",mg,--,--,1.38,2.13
"Sodium, Na",mg,--,--,240,369
Vitamins
"Vitamin C, total ascorbic acid",mg,--,--,0.0,0.0
"Vitamin A, IU",IU,--,--,0,0
Lipids
"Fatty acids, total saturated",g,--,--,3.998,6.150
"Fatty acids, total trans",g,--,--,0.000,0.000
"Cholesterol",mg,--,--,0,0
Amino Acids
Other
Ingredients
"55% WHOLE WHEAT FLOUR, WATER, MARGARINE (PALM OIL BASED), SUGAR, SALT, OLIVE OIL AND RAISING AGENT (E500)." Date available: 09/25/2017 Date last updated by company: 09/25/2017
