Source: USDA Branded Food Products Database Release December 2017 Software v.3.8.6.4 2017-10-02
Report Run at: December 16, 2017 23:14 EST
"Nutrient data for: 45312969, AMAZING ON SALMON FILLET, UPC: 5060021923271"
Food Group:  Branded Food Products Database
Common Name:

Nutrient,Unit,Data points,Std. Error,"0.5 PACKAGE = 140.0g",1Value per 100 g,
Proximates
"Energy",kcal,--,--,266,190
"Protein",g,--,--,24.00,17.14
"Total lipid (fat)",g,--,--,16.00,11.43
"Carbohydrate, by difference",g,--,--,7.00,5.00
"Fiber, total dietary",g,--,--,0.0,0.0
"Sugars, total",g,--,--,7.00,5.00
Minerals
"Calcium, Ca",mg,--,--,0,0
"Iron, Fe",mg,--,--,0.00,0.00
"Sodium, Na",mg,--,--,340,243
Vitamins
"Vitamin C, total ascorbic acid",mg,--,--,0.0,0.0
"Vitamin A, IU",IU,--,--,0,0
Lipids
"Fatty acids, total saturated",g,--,--,2.996,2.140
"Fatty acids, total trans",g,--,--,0.000,0.000
"Cholesterol",mg,--,--,64,46
Amino Acids
Other
Ingredients
"FISH: SALMON SAUCE: SOY SAUCE [WATER, SOYBEANS, WHEAT, SALT, ETHANOL,SUGAR, SODIUM ACETATE, LACTIC ACID, ACETIC ACID], BROWN SUGAR, WATER, DISTILLED VINEGAR, RED CHILI PUREE, RICE WINE, [WATER, RICE, KOJI], MIRIN, SUGAR, CORN STARCH, LEMON JUICE, GINGER PUREE, SALT, STAR ANISE." Date available: 07/14/2017 Date last updated by company: 07/14/2017
