Source: USDA Branded Food Products Database Release December 2017 Software v.3.8.6.4 2017-10-02
Report Run at: December 16, 2017 23:14 EST
"Nutrient data for: 45003381, AMAZING TASTE, TURKEY & POULTRY SEASONING, UPC: 075756002141"
Food Group:  Branded Food Products Database
Common Name:

Nutrient,Unit,Data points,Std. Error,"0.5 tsp = 1.2g",1Value per 100 g,
Proximates
"Energy",kcal,--,--,0,0
"Protein",g,--,--,0.00,0.00
"Total lipid (fat)",g,--,--,0.00,0.00
"Carbohydrate, by difference",g,--,--,1.00,83.33
Minerals
"Sodium, Na",mg,--,--,110,9167
Vitamins
Lipids
Amino Acids
Other
Ingredients
"RICE FLOUR, SALT, DEXTROSE, SPICES INCLUDING PAPRIKA AND TURMERIC, NATURAL BUTTER FLAVOR (WHEY SOLIDS, ENZYME-MODIFIED BUTTER, MALTODEXTRIN, DEHYDRATED BUTTER, GUAR GUM, ANNATTO), GARLIC AND ONION." Date available: 06/25/2017 Date last updated by company: 06/25/2017
