Source: USDA Branded Food Products Database Release December 2017 Software v.3.8.6.4 2017-10-02
Report Run at: December 16, 2017 23:13 EST
"Nutrient data for: 45235668, AMAZAKE, CHOCOLATE ALMOND RICE SHAKE, UPC: 030264006104"
Food Group:  Branded Food Products Database
Common Name:

Nutrient,Unit,Data points,Std. Error,"1 cup = 237.0g",1Value per 100 g,
Proximates
"Energy",kcal,--,--,199,84
"Protein",g,--,--,4.01,1.69
"Total lipid (fat)",g,--,--,4.01,1.69
"Carbohydrate, by difference",g,--,--,32.99,13.92
"Fiber, total dietary",g,--,--,5.0,2.1
"Sugars, total",g,--,--,31.00,13.08
Minerals
"Calcium, Ca",mg,--,--,40,17
"Iron, Fe",mg,--,--,1.47,0.62
"Sodium, Na",mg,--,--,19,8
Vitamins
"Vitamin C, total ascorbic acid",mg,--,--,0.0,0.0
"Vitamin A, IU",IU,--,--,0,0
Lipids
"Fatty acids, total saturated",g,--,--,0.498,0.210
"Fatty acids, total trans",g,--,--,0.000,0.000
"Cholesterol",mg,--,--,0,0
Amino Acids
Other
Ingredients
"CULTURED ORGANIC RICE (FILTERED WATER, ORGANIC BROWN RICE, RICE KOJI), ALMONDS, UNSWEETENED DUTCH COCOA (PRECESSED WITH ALKALI), NATURAL VANILLA AND CHOCOLATE FLAVORS, XANTHAN GUM." Date available: 06/24/2017 Date last updated by company: 06/24/2017
