Source: USDA Branded Food Products Database Release December 2017 Software v.3.8.6.4 2017-10-02
Report Run at: December 16, 2017 23:22 EST
"Nutrient data for: 45166727, AMERICAN FARMER, POPPED CORN, CRUNCHY CARAMEL, UPC: 850163004373"
Food Group:  Branded Food Products Database
Common Name:

Nutrient,Unit,Data points,Std. Error,"0.667 cup = 29.0g",1Value per 100 g,
Proximates
"Energy",kcal,--,--,110,379
"Protein",g,--,--,1.00,3.45
"Total lipid (fat)",g,--,--,1.00,3.45
"Carbohydrate, by difference",g,--,--,23.00,79.31
"Fiber, total dietary",g,--,--,1.0,3.4
"Sugars, total",g,--,--,10.00,34.48
Minerals
"Calcium, Ca",mg,--,--,0,0
"Iron, Fe",mg,--,--,0.62,2.14
"Sodium, Na",mg,--,--,80,276
Vitamins
"Vitamin C, total ascorbic acid",mg,--,--,0.0,0.0
"Vitamin A, IU",IU,--,--,0,0
Lipids
"Fatty acids, total saturated",g,--,--,0.400,1.380
"Fatty acids, total trans",g,--,--,0.000,0.000
"Cholesterol",mg,--,--,0,0
Amino Acids
Other
Ingredients
"CORN SYRUP, POPCORN, SUGAR, MOLASSES CANOLA OIL*, BAKING SODA, SALT, SOY LECITHIN, NATURAL FLAVOR." Date available: 07/14/2017 Date last updated by company: 07/14/2017
