Source: USDA Branded Food Products Database Release December 2017 Software v.3.8.6.4 2017-10-02
Report Run at: December 16, 2017 23:26 EST
"Nutrient data for: 45292667, AMERICAN POP FLAVORED GUM STICKS, UPC: 022000001054"
Food Group:  Branded Food Products Database
Common Name:

Nutrient,Unit,Data points,Std. Error,"1 STICK = 2.7g",1Value per 100 g,
Proximates
"Energy",kcal,--,--,10,370
"Protein",g,--,--,0.00,0.00
"Total lipid (fat)",g,--,--,0.00,0.00
"Carbohydrate, by difference",g,--,--,2.00,74.07
"Sugars, total",g,--,--,2.00,74.07
Minerals
"Sodium, Na",mg,--,--,0,0
Vitamins
Lipids
Amino Acids
Other
Ingredients
"SUGAR, GUM BASE, CORN SYRUP, DEXTROSE; LESS THAN 2% OF: NATURAL AND ARTIFICIAL FLAVORS, GLYCEROL, SOY LECITHIN, MALIC ACID, CITRIC ACID, ASPARTAME, ACESULFAME K, HYDROXYLATED SOY LECITHIN, COLOR (BLUE 1 LAKE), BHT (TO MAINTAIN FRESHNESS)." Date available: 07/14/2017 Date last updated by company: 07/14/2017
