Source: USDA Branded Food Products Database Release December 2017 Software v.3.8.6.4 2017-10-02
Report Run at: December 16, 2017 23:21 EST
"Nutrient data for: 45174511, AMERICAN CHEESE SLICES, UPC: 041268117949"
Food Group:  Branded Food Products Database
Common Name:

Nutrient,Unit,Data points,Std. Error,"1 SLICE = 19.0g",1Value per 100 g,
Proximates
"Energy",kcal,--,--,70,368
"Protein",g,--,--,3.00,15.79
"Total lipid (fat)",g,--,--,6.00,31.58
"Carbohydrate, by difference",g,--,--,1.00,5.26
"Fiber, total dietary",g,--,--,0.0,0.0
"Sugars, total",g,--,--,0.00,0.00
Minerals
"Calcium, Ca",mg,--,--,120,632
"Iron, Fe",mg,--,--,0.10,0.53
"Potassium, K",mg,--,--,25,132
"Sodium, Na",mg,--,--,320,1684
Vitamins
"Vitamin C, total ascorbic acid",mg,--,--,0.0,0.0
"Vitamin A, IU",IU,--,--,200,1053
Lipids
"Fatty acids, total saturated",g,--,--,3.500,18.420
"Fatty acids, total trans",g,--,--,0.000,0.000
"Cholesterol",mg,--,--,20,105
Amino Acids
Other
Ingredients
"AMERICAN CHEESE (MILK, CHEESE CULTURE, SALT, ENZYMES), WATER, CREAM, SODIUM CITRATE, SALT, SORBIC ACID AS A PRESERVATIVE, COLOR ADDED (IF COLORED), SUNFLOWER LECITHIN FOR SEPARATION." Date available: 10/13/2017 Date last updated by company: 10/13/2017
