Source: USDA Branded Food Products Database Release December 2017 Software v.3.8.6.4 2017-10-02
Report Run at: December 16, 2017 23:21 EST
"Nutrient data for: 45217196, AMERICAN CHOP SUEY, UPC: 041268194377"
Food Group:  Branded Food Products Database
Common Name:

Nutrient,Unit,Data points,Std. Error,"1 cup = 170.0g",1Value per 100 g,
Proximates
"Energy",kcal,--,--,350,206
"Protein",g,--,--,36.01,21.18
"Total lipid (fat)",g,--,--,21.00,12.35
"Carbohydrate, by difference",g,--,--,6.00,3.53
"Fiber, total dietary",g,--,--,0.0,0.0
"Sugars, total",g,--,--,1.00,0.59
Minerals
"Calcium, Ca",mg,--,--,41,24
"Iron, Fe",mg,--,--,0.83,0.49
"Sodium, Na",mg,--,--,180,106
Vitamins
"Vitamin C, total ascorbic acid",mg,--,--,13.8,8.1
"Vitamin A, IU",IU,--,--,114,67
Lipids
"Fatty acids, total saturated",g,--,--,8.007,4.710
"Fatty acids, total trans",g,--,--,0.000,0.000
"Cholesterol",mg,--,--,121,71
Amino Acids
Other
Ingredients
"TOMATO SAUCE (TOMATOES, TOMATO PUREE, CORN SYRUP, SOYBEAN OIL, SALT, ONION POWDER, GARLIC POWDER, SPICES, NATURAL FLAVOR, MODIFIED FOOD STARCH, CITRIC ACID), COOKED MACARONI (SEMOLINA, NIACIN, IRON [FERROUS SULFATE], THIAMINE MONONITRATE, RIBOFLAVIN, FOLIC ACID), COOKED GROUND BEEF (GROUND BEEF [NOT MORE THAN 20% FAT], SALT, WATER, CARAMEL COLOR), WATER, DICED TOMATOES (TOMATO JUICE, SALT, CALCIUM CHLORIDE, CITRIC ACID), ONIONS, CELERY, TOMATO PASTE (TOMATOES, CITRIC ACID), GREEN PEPPERS, MODIFIED FOOD STARCH, CANOLA OIL, GARLIC, SUGAR, GARLIC POWDER, OREGANO, NISIN, PHOSPHORIC ACID, CELERY SALT, BLACK PEPPER." Date available: 08/07/2017 Date last updated by company: 08/07/2017
