Source: USDA Branded Food Products Database Release December 2017 Software v.3.8.6.4 2017-10-02
Report Run at: December 16, 2017 23:28 EST
"Nutrient data for: 45257208, AMERICAN SUB SNACK, UPC: 049022894693"
Food Group:  Branded Food Products Database
Common Name:

Nutrient,Unit,Data points,Std. Error,"1 SANDWICH = 147.0g",1Value per 100 g,
Proximates
"Energy",kcal,--,--,350,238
"Protein",g,--,--,24.01,16.33
"Total lipid (fat)",g,--,--,12.99,8.84
"Carbohydrate, by difference",g,--,--,36.00,24.49
"Fiber, total dietary",g,--,--,0.0,0.0
"Sugars, total",g,--,--,2.00,1.36
Minerals
"Calcium, Ca",mg,--,--,200,136
"Iron, Fe",mg,--,--,2.57,1.75
"Sodium, Na",mg,--,--,1420,966
Vitamins
"Vitamin C, total ascorbic acid",mg,--,--,4.6,3.1
"Vitamin A, IU",IU,--,--,191,130
Lipids
"Fatty acids, total saturated",g,--,--,4.998,3.400
"Fatty acids, total trans",g,--,--,0.000,0.000
"Cholesterol",mg,--,--,60,41
Amino Acids
Other
Ingredients
"SOFT SUB BREAD (UNBLEACHED ENRICHED FLOUR, [WHEAT FLOUR, MALTED BARLEY FLOUR, NIACIN, REDUCED IRON, THIAMINE MONONITRATE, RIBOFLAVIN, FOLIC ACID], WATER, YEAST, WHEAT GLUTEN, FULLY REFINED SOYBEAN OIL, SALT, GRANULATED SUGAR, CALCIUM PROPIONATE [TO RETAIN FRESHNESS], DOUGH IMPROVER [MALTED WHEAT FLOUR, ENZYMES, ASCORBIC ACID], CALCIUM SULFATE, ENZYMES), HAM (HAM CURED WITH: WATER, CONTAINS 2% OR LESS OF: SUGAR, SALT, POTASSIUM LACTATE, SODIUM DIACETATE, SODIUM ERYTHORBATE, SODIUM NITRITE, SODIUM PHOSPHATE, CARAMEL COLOR), SMOKED WHITE TURKEY (WHITE TURKEY, TURKEY BROTH, CONTAINS 2% OR LESS OF: SALT, MODIFIED FOOD STARCH, DEXTROSE, TAPIOCA STARCH, SODIUM PHOSPHATE, CARRAGEENAN), AMERICAN CHEESE (CULTURED MILK AND SKIM MILK, WATER, CREAM, SODIUM CITRATE, SALT, PHOSPHATE, SORBIC ACID [PRESERVATIVE}, CITRIC ACID, ARTIFICIAL FLAVOR, ACETIC ACID, ENZYMES, SOY LECITHIN). SALAMI (PORK, SALT, CORN SYRUP, DEXTROSE, SUGAR, WINE, SODIUM ERYTHORBATE, FLAVORINGS, SODIUM NITRATE, SPICES, LACTIC ACID, STARTER CULTURE, SODIUM NITRITE." Date available: 08/30/2017 Date last updated by company: 08/30/2017
