Source: USDA Branded Food Products Database Release December 2017 Software v.3.8.6.4 2017-10-02
Report Run at: December 16, 2017 23:31 EST
"Nutrient data for: 45240241, AMERICA'S CHOICE, SPICY RANCH DRESSING, UPC: 754807460733"
Food Group:  Branded Food Products Database
Common Name:

Nutrient,Unit,Data points,Std. Error,"2.0 Tbsp = 30.0g",1Value per 100 g,
Proximates
"Energy",kcal,--,--,150,500
"Protein",g,--,--,0.00,0.00
"Total lipid (fat)",g,--,--,16.00,53.33
"Carbohydrate, by difference",g,--,--,1.00,3.33
"Fiber, total dietary",g,--,--,0.0,0.0
"Sugars, total",g,--,--,1.00,3.33
Minerals
"Calcium, Ca",mg,--,--,0,0
"Iron, Fe",mg,--,--,0.00,0.00
"Sodium, Na",mg,--,--,280,933
Vitamins
"Vitamin C, total ascorbic acid",mg,--,--,0.0,0.0
"Vitamin A, IU",IU,--,--,0,0
Lipids
"Fatty acids, total saturated",g,--,--,2.499,8.330
"Fatty acids, total trans",g,--,--,0.000,0.000
"Cholesterol",mg,--,--,10,33
Amino Acids
Other
Ingredients
"SOYBEAN OIL WATER, SUGAR,EGG YOLK DISTILLE , VINEGAR,CONTAINS 2% OR LESS OF: SALT, CULTURED LOW FAT BUTTERMILK, NATURAL FLAVORS, PHOSPHORIC ACID, MONOSODIUM GLUTAMATE, SPICES XANTHAN GUM, MODIFIED FOOD STARCH, DISODIUM PHOSPHATE, GARLIC, PAPRIKA, DRIED ONION, DRIED DISODIUM GUANYLATE, DISODIUM INOSINATE, WITH POTASSIUM SORBATE AND CALCIUM DISODIUM EDTA AS PRESERVATIVES." Date available: 06/25/2017 Date last updated by company: 06/25/2017
