Source: USDA Branded Food Products Database Release December 2017 Software v.3.8.6.4 2017-10-02
Report Run at: December 16, 2017 23:34 EST
"Nutrient data for: 45053892, AMISH MACARONI SALAD, UPC: 041497059058"
Food Group:  Branded Food Products Database
Common Name:

Nutrient,Unit,Data points,Std. Error,"0.5 cup = 136.0g",1Value per 100 g,
Proximates
"Energy",kcal,--,--,420,309
"Protein",g,--,--,4.00,2.94
"Total lipid (fat)",g,--,--,28.00,20.59
"Carbohydrate, by difference",g,--,--,34.00,25.00
"Fiber, total dietary",g,--,--,1.0,0.7
"Sugars, total",g,--,--,13.99,10.29
Minerals
"Calcium, Ca",mg,--,--,20,15
"Iron, Fe",mg,--,--,1.12,0.82
"Sodium, Na",mg,--,--,310,228
Vitamins
"Vitamin C, total ascorbic acid",mg,--,--,2.4,1.8
"Vitamin A, IU",IU,--,--,0,0
Lipids
"Fatty acids, total saturated",g,--,--,3.006,2.210
"Fatty acids, total trans",g,--,--,0.000,0.000
"Cholesterol",mg,--,--,30,22
Amino Acids
Other
Ingredients
"PASTA (DURUM WHEAT SEMOLINA, NIACIN, FERROUS SULFATE, THIAMINE MONONITRATE, RIBOFLAVIN, FOLIC ACID), MAYONNAISE (SOYBEAN OIL, CORN SYRUP DISTILLED VINEGAR, WATER, WHOLE EGGS, EGG YOLKS, MODIFIED CORN STARCH, SALT, SUGAR, DEXTROSE, MUSTARD FLOUR, LEMON JUICE CONCENTRATE, ONION POWDER, NATURAL FLAVOR, GARLIC POWDER, CALCIUM DISODIUM EDTA [PRESERVATIVE]), SUGAR, MUSTARD (WATER, VINEGAR, MUSTARD SEED, SALT, TURMERIC, SPICES), CARROTS, EGGS, PEPPERS, VINEGAR, ONIONS, SODIUM LACTATE, SODIUM DIACETATE, POTASSIUM SORBATE AND SODIUM BENZOATE (PRESERVATIVES), GARLIC SALT." Date available: 08/11/2017 Date last updated by company: 08/11/2017
