Source: USDA Branded Food Products Database Release December 2017 Software v.3.8.6.4 2017-10-02
Report Run at: December 16, 2017 23:36 EST
"Nutrient data for: 45062697, AMONG FRIENDS, TRISH THE DISH, CRISP MIX, UPC: 851152005227"
Food Group:  Branded Food Products Database
Common Name:

Nutrient,Unit,Data points,Std. Error,"0.083 DRY MIX* = 31.0g",1Value per 100 g,
Proximates
"Energy",kcal,--,--,120,387
"Protein",g,--,--,4.00,12.90
"Total lipid (fat)",g,--,--,2.50,8.06
"Carbohydrate, by difference",g,--,--,22.00,70.97
"Fiber, total dietary",g,--,--,2.0,6.5
"Sugars, total",g,--,--,9.00,29.03
Minerals
"Calcium, Ca",mg,--,--,20,65
"Iron, Fe",mg,--,--,1.74,5.62
"Sodium, Na",mg,--,--,70,226
Vitamins
"Vitamin C, total ascorbic acid",mg,--,--,0.0,0.0
"Vitamin A, IU",IU,--,--,0,0
Lipids
"Fatty acids, total saturated",g,--,--,0.000,0.000
"Fatty acids, total trans",g,--,--,0.000,0.000
"Cholesterol",mg,--,--,0,0
Amino Acids
Other
Ingredients
"GLUTEN-FREE WHOLE GRAIN ROLLED OATS, LIGHT BROWN SUGAR, GLUTEN-FREE WHOLE GRAIN OAT FLOUR, ALMOND MEAL, CONTAINS 2% OR LESS OF: CINNAMON, NUTMEG, ORANGE PEEL AND SEA SALT." Date available: 06/24/2017 Date last updated by company: 06/24/2017
