Source: USDA Branded Food Products Database Release December 2017 Software v.3.8.6.4 2017-10-02
Report Run at: December 16, 2017 23:36 EST
"Nutrient data for: 45180469, AMONG FRIEND, SUZIE Q'S, OATMEAL CHOCOLATE CHIP COOKIE MIX, UPC: 851152005203"
Food Group:  Branded Food Products Database
Common Name:

Nutrient,Unit,Data points,Std. Error,"2.0 COOKIES PREPARED (31G)** | DRY MIX*, = 26.0g",1Value per 100 g,
Proximates
"Energy",kcal,--,--,110,423
"Protein",g,--,--,3.00,11.54
"Total lipid (fat)",g,--,--,2.00,7.69
"Carbohydrate, by difference",g,--,--,19.00,73.08
"Fiber, total dietary",g,--,--,2.0,7.7
"Sugars, total",g,--,--,9.00,34.62
Minerals
"Calcium, Ca",mg,--,--,20,77
"Iron, Fe",mg,--,--,2.22,8.52
"Sodium, Na",mg,--,--,100,385
Vitamins
"Vitamin C, total ascorbic acid",mg,--,--,0.0,0.0
"Vitamin A, IU",IU,--,--,0,0
Lipids
"Fatty acids, total saturated",g,--,--,1.001,3.850
"Fatty acids, total trans",g,--,--,0.000,0.000
"Cholesterol",mg,--,--,0,0
Amino Acids
Other
Ingredients
"GLUTEN-FREE WHOLE GRAIN ROLLED OATS, GLUTEN-FREE WHOLE GRAIN OAT FLOUR, LIGHT BROWN SUGAR, CHOCOLATE CHIPS (SUGAR, UNSWEETENED CHOCOLATE, COCOA BUTTER, SOY LECITHIN, NATURAL FLAVOR), CANE SUGAR, CONTAINS 2% OR LESS OF: SEA SALT AND BAKING SODA." Date available: 07/14/2017 Date last updated by company: 07/14/2017
