Source: USDA Branded Food Products Database Release December 2017 Software v.3.8.6.4 2017-10-02
Report Run at: December 16, 2017 23:39 EST
"Nutrient data for: 45156467, AMPORT FOODS, SANTA FE MIX, UPC: 071725713209"
Food Group:  Branded Food Products Database
Common Name:

Nutrient,Unit,Data points,Std. Error,"0.33 cup = 30.0g",1Value per 100 g,
Proximates
"Energy",kcal,--,--,150,500
"Protein",g,--,--,5.00,16.67
"Total lipid (fat)",g,--,--,9.00,30.00
"Carbohydrate, by difference",g,--,--,14.00,46.67
"Fiber, total dietary",g,--,--,2.0,6.7
"Sugars, total",g,--,--,1.00,3.33
Minerals
"Calcium, Ca",mg,--,--,20,67
"Iron, Fe",mg,--,--,1.20,4.00
"Sodium, Na",mg,--,--,290,967
Vitamins
"Vitamin C, total ascorbic acid",mg,--,--,0.0,0.0
"Vitamin A, IU",IU,--,--,0,0
Lipids
"Fatty acids, total saturated",g,--,--,1.500,5.000
"Fatty acids, total trans",g,--,--,0.000,0.000
"Cholesterol",mg,--,--,0,0
Amino Acids
Other
Ingredients
"PEANUTS (PEANUTS, VEGETABLE OIL [PEANUT, COTTONSEED, CANOLA AND/OR SOYBEAN OIL], SALT), ROASTED CORN (CORN, SUNFLOWER OIL, SALT), CHILI CRACKERS (GLUTINOUS RICE, SOY SAUCE [WATER, SOYBEANS, WHEAT SALT], SUGAR, MODIFIED TAPIOCA STARCH, CHILI POWDER, YELLOW 6, YELLOW 5], SESAME STICKS (WHEAT FLOUR [WHEAT FLOUR, MALTED BARLEY FLOUR], SOYBEAN OIL, SESAME SEEDS, BULGUR WHEAT, SALT, BEET POWDER [COLOR], TURMERIC [COLOR]), CHILI LEMON FLAVORED CORN STICKS (YELLOW CORN MASA FLOUR, SOYBEAN OIL, CHILI LEMON SEASONING (MALTODEXTRIN, SALT, NATURAL FLAVORING, SPICES, CITRIC ACID, GARLIC POWDER, ONION POWDER, TOMATO POWDER, PAPRIKA [COLOR]), PEPITAS (PUMPKIN KERNELS, SUNFLOWER AND/OR PEANUT OIL, SALT), SEASONING (SALT, SPICES, DEXTROSE, YELLOW CORN FLOUR, ONION POWDER, MONOSODIUM GLUTAMATE, HYDROLYZED CORN PROTEIN, GARLIC POWDER, TOMATO POWDER, EXTRACTIVES OF PAPRIKA, NATURAL FLAVOR, CARAMEL COLOR)." Date available: 07/14/2017 Date last updated by company: 07/14/2017
