Source: USDA Branded Food Products Database Release December 2017 Software v.3.8.6.4 2017-10-02
Report Run at: December 16, 2017 23:47 EST
"Nutrient data for: 45016811, ANCIENT HARVEST, QUINOA HOT CEREAL FLAKES, UPC: 980125260001"
Food Group:  Branded Food Products Database
Common Name:

Nutrient,Unit,Data points,Std. Error,"0.33 cup = 34.0g",1Value per 100 g,
Proximates
"Energy",kcal,--,--,131,385
"Protein",g,--,--,4.30,12.65
"Total lipid (fat)",g,--,--,2.00,5.88
"Carbohydrate, by difference",g,--,--,23.00,67.65
"Fiber, total dietary",g,--,--,2.4,7.1
"Sugars, total",g,--,--,2.00,5.88
Minerals
"Calcium, Ca",mg,--,--,0,0
"Iron, Fe",mg,--,--,1.69,4.98
"Phosphorus, P",mg,--,--,212,623
"Sodium, Na",mg,--,--,2,6
Vitamins
"Vitamin C, total ascorbic acid",mg,--,--,0.0,0.0
"Riboflavin",mg,--,--,0.850,2.500
"Vitamin A, IU",IU,--,--,0,0
Lipids
"Fatty acids, total saturated",g,--,--,0.000,0.000
"Fatty acids, total trans",g,--,--,0.000,0.000
"Cholesterol",mg,--,--,0,0
Amino Acids
Other
Ingredients
"ORGANIC WHOLE GRAIN QUINOA FLAKES." Date available: 06/25/2017 Date last updated by company: 06/25/2017
