Source: USDA Branded Food Products Database Release December 2017 Software v.3.8.6.4 2017-10-02
Report Run at: December 16, 2017 23:45 EST
"Nutrient data for: 45257326, ANCIENT GRAIN SALAD, UPC: 046567506586"
Food Group:  Branded Food Products Database
Common Name:

Nutrient,Unit,Data points,Std. Error,"9.5 ONZ = 269.0g",1Value per 100 g,
Proximates
"Energy",kcal,--,--,360,134
"Protein",g,--,--,11.00,4.09
"Total lipid (fat)",g,--,--,12.00,4.46
"Carbohydrate, by difference",g,--,--,52.99,19.70
"Fiber, total dietary",g,--,--,5.1,1.9
"Sugars, total",g,--,--,11.00,4.09
Minerals
"Calcium, Ca",mg,--,--,81,30
"Iron, Fe",mg,--,--,0.94,0.35
"Sodium, Na",mg,--,--,291,108
Vitamins
"Vitamin C, total ascorbic acid",mg,--,--,21.8,8.1
"Vitamin A, IU",IU,--,--,261,97
Lipids
"Fatty acids, total saturated",g,--,--,1.991,0.740
"Fatty acids, total trans",g,--,--,0.000,0.000
"Cholesterol",mg,--,--,0,0
Amino Acids
Other
Ingredients
"WHITE QUINOA (WATER, WHITE QUINOA), FABRO (WATER, PEARLED FARRO), BASIL LEMONETTE DRESSING (WATER, OLIVE OIL, SUGAR, PARMESAN CHEESE [PASTEURIZED SKIM MILK, SALT, ENZYMES], LEMON JUICE CONCENTRATE, SALT, GARLIC, SPICES, CITRIC ACID, XANTHAN GUM), YELLOW BELL PEPPER, ASPARAGUS PEAS, BLUEBERRIES, KALE." Date available: 07/14/2017 Date last updated by company: 07/14/2017
