Source: USDA Branded Food Products Database Release December 2017 Software v.3.8.6.4 2017-10-02
Report Run at: December 16, 2017 23:08 EST
"Nutrient data for: 45161276, ANETTE'S CHOCOLATES, MICRO BREW BRITTLE BEER CHOCOLATE, UPC: 791080998768"
Food Group:  Branded Food Products Database
Common Name:

Nutrient,Unit,Data points,Std. Error,"1.5 ONZ = 43.0g",1Value per 100 g,
Proximates
"Energy",kcal,--,--,180,419
"Protein",g,--,--,3.00,6.98
"Total lipid (fat)",g,--,--,11.00,25.58
"Carbohydrate, by difference",g,--,--,19.00,44.19
"Fiber, total dietary",g,--,--,1.0,2.3
"Sugars, total",g,--,--,14.00,32.56
Minerals
"Calcium, Ca",mg,--,--,20,47
"Iron, Fe",mg,--,--,0.42,0.98
"Sodium, Na",mg,--,--,160,372
Vitamins
"Vitamin C, total ascorbic acid",mg,--,--,0.0,0.0
"Vitamin A, IU",IU,--,--,233,541
Lipids
"Fatty acids, total saturated",g,--,--,3.999,9.300
"Fatty acids, total trans",g,--,--,0.000,0.000
"Cholesterol",mg,--,--,15,35
Amino Acids
Other
Ingredients
"SUGAR, PEANUTS, BUTTER (PASTEURIZED CREAM, SALT), CORN SYRUP, MICROBREW ALE, VANILLA EXTRACT, BAKING SODA, SALT AND SOY LECITHIN." Date available: 07/14/2017 Date last updated by company: 07/14/2017
