Source: USDA Branded Food Products Database Release December 2017 Software v.3.8.6.4 2017-10-02
Report Run at: December 16, 2017 23:12 EST
"Nutrient data for: 45181482, ANGLER'S CATCH, WILD CAUGHT SALMON FILLETS, UPC: 021140026408"
Food Group:  Branded Food Products Database
Common Name:

Nutrient,Unit,Data points,Std. Error,"4.0 ONZ = 113.0g",1Value per 100 g,
Proximates
"Energy",kcal,--,--,130,115
"Protein",g,--,--,22.00,19.47
"Total lipid (fat)",g,--,--,4.99,4.42
"Carbohydrate, by difference",g,--,--,0.00,0.00
"Fiber, total dietary",g,--,--,0.0,0.0
"Sugars, total",g,--,--,0.00,0.00
Minerals
"Calcium, Ca",mg,--,--,40,35
"Iron, Fe",mg,--,--,0.81,0.72
"Sodium, Na",mg,--,--,75,66
Vitamins
"Vitamin C, total ascorbic acid",mg,--,--,0.0,0.0
"Vitamin A, IU",IU,--,--,0,0
Lipids
"Fatty acids, total saturated",g,--,--,0.000,0.000
"Fatty acids, total trans",g,--,--,0.000,0.000
"Cholesterol",mg,--,--,99,88
Amino Acids
Other
Ingredients
"SALMON FILLETS." Date available: 07/14/2017 Date last updated by company: 07/14/2017
