Source: USDA Branded Food Products Database Release December 2017 Software v.3.8.6.4 2017-10-02
Report Run at: December 16, 2017 23:14 EST
"Nutrient data for: 45289542, ANGUS BEEF FAJITAS, UPC: 078742202280"
Food Group:  Branded Food Products Database
Common Name:

Nutrient,Unit,Data points,Std. Error,"3.0 ONZ = 84.0g",1Value per 100 g,
Proximates
"Energy",kcal,--,--,120,143
"Protein",g,--,--,17.00,20.24
"Total lipid (fat)",g,--,--,3.00,3.57
"Carbohydrate, by difference",g,--,--,4.00,4.76
"Fiber, total dietary",g,--,--,0.0,0.0
"Sugars, total",g,--,--,0.00,0.00
Minerals
"Calcium, Ca",mg,--,--,20,24
"Iron, Fe",mg,--,--,1.46,1.74
"Sodium, Na",mg,--,--,400,476
Vitamins
"Vitamin C, total ascorbic acid",mg,--,--,0.0,0.0
"Vitamin A, IU",IU,--,--,0,0
Lipids
"Fatty acids, total saturated",g,--,--,1.000,1.190
"Fatty acids, total trans",g,--,--,0.000,0.000
"Cholesterol",mg,--,--,50,60
Amino Acids
Other
Ingredients
"ANGUS BEEF, WATER, SEASONING (TAPIOCA STARCH, POTATO STARCH, ONION POWDER, GARLIC POWDER, SEA SALT, SPICES, VINEGAR, YEAST EXTRACT, NATURAL FLAVOR, CITRUS EXTRACT)." Date available: 07/14/2017 Date last updated by company: 07/14/2017
