Source: USDA Branded Food Products Database Release December 2017 Software v.3.8.6.4 2017-10-02
Report Run at: December 16, 2017 23:14 EST
"Nutrient data for: 45291108, ANGUS & BEEF PATTIES, UPC: 097814999118"
Food Group:  Branded Food Products Database
Common Name:

Nutrient,Unit,Data points,Std. Error,"1 PATTY = 113.0g",1Value per 100 g,
Proximates
"Energy",kcal,--,--,340,301
"Protein",g,--,--,19.00,16.81
"Total lipid (fat)",g,--,--,29.00,25.66
"Carbohydrate, by difference",g,--,--,0.99,0.88
"Fiber, total dietary",g,--,--,1.5,1.3
"Sugars, total",g,--,--,0.00,0.00
Minerals
"Calcium, Ca",mg,--,--,20,18
"Iron, Fe",mg,--,--,1.36,1.20
"Sodium, Na",mg,--,--,390,345
Vitamins
"Vitamin C, total ascorbic acid",mg,--,--,0.0,0.0
"Vitamin A, IU",IU,--,--,75,66
Lipids
"Fatty acids, total saturated",g,--,--,12.995,11.500
"Fatty acids, total trans",g,--,--,1.503,1.330
"Cholesterol",mg,--,--,70,62
Amino Acids
Other
Ingredients
"ANGUS BEEF, BEEF, SEASONINGS (SALT ENCAPSULATED WITH HYDROGENATED COTTONSEED OIL, MUSTARD, BLACK PEPPER)." Date available: 09/15/2017 Date last updated by company: 09/15/2017
