Source: USDA Branded Food Products Database Release December 2017 Software v.3.8.6.4 2017-10-02
Report Run at: December 16, 2017 23:19 EST
"Nutrient data for: 45042206, ANNIE CHUN'S, ROASTED SEAWEED SNACKS, CRACKED PEPPER & HERBS, UPC: 765667110805"
Food Group:  Branded Food Products Database
Common Name:

Nutrient,Unit,Data points,Std. Error,"10.0 SHEETS = 5.0g",1Value per 100 g,
Proximates
"Energy",kcal,--,--,25,500
"Protein",g,--,--,1.00,20.00
"Total lipid (fat)",g,--,--,2.00,40.00
"Carbohydrate, by difference",g,--,--,1.00,20.00
"Fiber, total dietary",g,--,--,1.0,20.0
Minerals
"Sodium, Na",mg,--,--,70,1400
Vitamins
"Vitamin C, total ascorbic acid",mg,--,--,150.0,3000.0
Lipids
Amino Acids
Other
Ingredients
"SEAWEED, EXPELLER PRESSED CANOLA OIL, SESAME OIL, SALT, BLACK PEPPER, SPICES, ONION POWDER, OLEORESIN ROSEMARY." Date available: 07/14/2017 Date last updated by company: 07/14/2017
