Source: USDA Branded Food Products Database Release December 2017 Software v.3.8.6.4 2017-10-02
Report Run at: December 16, 2017 23:29 EST
"Nutrient data for: 45327808, ANNIES ORG VINAIGRETTE BALSAMIC, PREPARED, GTIN: 00092325333505"
Food Group:  Branded Food Products Database
Common Name:

Nutrient,Unit,Data points,Std. Error,"2.0 Tbsp (29g) = 29.0g",1Value per 100 g,
Proximates
"Protein",g,--,--,0.00,0.00
"Total lipid (fat)",g,--,--,10.00,34.48
"Carbohydrate, by difference",g,--,--,2.00,6.90
"Fiber, total dietary",g,--,--,0.0,0.0
"Sugars, total",g,--,--,1.00,3.45
Minerals
"Sodium, Na",mg,--,--,60,207
Vitamins
Lipids
"Fatty acids, total saturated",g,--,--,1.001,3.450
"Fatty acids, total trans",g,--,--,0.000,0.000
"Cholesterol",mg,--,--,0,0
Amino Acids
Other
Ingredients
"BEST INGREDIENTS: WATER, EXPELLER-PRESSED CANOLA OIL*, BALSAMIC VINEGAR*, HONEY*, STONEGROUND MUSTARD* (APPLE CIDER VINEGAR*, WATER, MUSTARD SEED*, SEA SALT, CLOVES*), SEA SALT, XANTHAN GUM.*ORGANIC" Date available: 10/10/2017 Date last updated by company: 09/21/2017
