Source: USDA Branded Food Products Database Release December 2017 Software v.3.8.6.4 2017-10-02
Report Run at: December 16, 2017 23:19 EST
"Nutrient data for: 45002888, ANNIE CHUN'S, ASIAN SAUCES, UPC: 765667300503"
Food Group:  Branded Food Products Database
Common Name:

Nutrient,Unit,Data points,Std. Error,"1 Tbsp = 17.0g",1Value per 100 g,
Proximates
"Energy",kcal,--,--,30,176
"Protein",g,--,--,1.00,5.88
"Total lipid (fat)",g,--,--,0.50,2.94
"Carbohydrate, by difference",g,--,--,4.00,23.53
"Fiber, total dietary",g,--,--,0.0,0.0
"Sugars, total",g,--,--,3.00,17.65
Minerals
"Calcium, Ca",mg,--,--,0,0
"Iron, Fe",mg,--,--,0.00,0.00
"Sodium, Na",mg,--,--,350,2059
Vitamins
"Vitamin C, total ascorbic acid",mg,--,--,0.0,0.0
"Vitamin A, IU",IU,--,--,0,0
Lipids
"Fatty acids, total saturated",g,--,--,0.000,0.000
"Fatty acids, total trans",g,--,--,0.000,0.000
"Cholesterol",mg,--,--,0,0
Amino Acids
Other
Ingredients
"NATURALLY BREWED SOY SAUCE (WATER, WHEAT, SOYBEANS, SALT, ALCOHOL, VINEGAR, LACTIC ACID), CANE SYRUP*, SHERRY WINE, WATER, CRUSHED GARLIC (GARLIC, CITRIC ACID), RED CHILI GARLIC (RED CHILI PEPPERS, DISTILLED VINEGAR, GARLIC, SALT), SESAME OIL, RICE VINEGAR, CORN STARCH, GINGER, ONION*, GARLIC*, YEAST EXTRACT." Date available: 07/14/2017 Date last updated by company: 07/14/2017
