Source: USDA Branded Food Products Database Release December 2017 Software v.3.8.6.4 2017-10-02
Report Run at: December 16, 2017 23:19 EST
"Nutrient data for: 45311020, ANNIES BKD SNCK CRCKRS CHDR SQUARES, UNPREPARED, GTIN: 00013562000784"
Food Group:  Branded Food Products Database
Common Name:

Nutrient,Unit,Data points,Std. Error,"27.0 Crackers (30g) = 30.0g",1Value per 100 g,
Proximates
"Energy",kcal,--,--,140,467
"Protein",g,--,--,3.00,10.00
"Total lipid (fat)",g,--,--,7.00,23.33
"Carbohydrate, by difference",g,--,--,18.00,60.00
"Fiber, total dietary",g,--,--,1.0,3.3
"Sugars, total",g,--,--,0.00,0.00
Minerals
"Calcium, Ca",mg,--,--,0,0
"Iron, Fe",mg,--,--,0.00,0.00
"Sodium, Na",mg,--,--,250,833
Vitamins
"Vitamin C, total ascorbic acid",mg,--,--,0.0,0.0
"Vitamin A, IU",IU,--,--,0,0
Lipids
"Fatty acids, total saturated",g,--,--,0.999,3.330
"Fatty acids, total trans",g,--,--,0.000,0.000
"Cholesterol",mg,--,--,0,0
Amino Acids
Other
Ingredients
"ORGANIC WHEAT FLOUR, EXPELLER-PRESSED SUNFLOWER OIL, ORGANIC WHOLE GRAIN WHEAT FLOUR, SALT, CHEDDAR CHEESE (PASTEURIZED MILK, CHEESE CULTURES, SALT, ENZYMES), YEAST, ORGANIC PAPRIKA, CULTURED WHOLE MILK, NONFAT DRY MILK, ONION POWDER, CELERY SEED POWDER, ANNATTO EXTRACT (FOR COLOR), ENZYMES, MIXED TOCOPHEROLS (VITAMIN E) TO PROTECT FLAVOR." Date available: 06/21/2017 Date last updated by company: 06/20/2017
