Source: USDA Branded Food Products Database Release December 2017 Software v.3.8.6.4 2017-10-02
Report Run at: December 16, 2017 23:28 EST
"Nutrient data for: 45244423, ANNIES ORG FRT BITES STRWBRY APPLE, UNPREPARED, GTIN: 00013562111152"
Food Group:  Branded Food Products Database
Common Name:

Nutrient,Unit,Data points,Std. Error,"1 pouch (18g) = 18.0g",1Value per 100 g,
Proximates
"Energy",kcal,--,--,70,389
"Protein",g,--,--,0.00,0.00
"Total lipid (fat)",g,--,--,0.00,0.00
"Carbohydrate, by difference",g,--,--,16.00,88.89
"Fiber, total dietary",g,--,--,0.0,0.0
"Sugars, total",g,--,--,10.00,55.56
Minerals
"Calcium, Ca",mg,--,--,0,0
"Iron, Fe",mg,--,--,0.00,0.00
"Sodium, Na",mg,--,--,5,28
Vitamins
"Vitamin C, total ascorbic acid",mg,--,--,12.0,66.7
"Vitamin A, IU",IU,--,--,0,0
Lipids
"Fatty acids, total saturated",g,--,--,0.000,0.000
"Fatty acids, total trans",g,--,--,0.000,0.000
"Cholesterol",mg,--,--,0,0
Amino Acids
Other
Ingredients
"ORGANIC APPLE PUREE CONCENTRATE, ORGANIC APPLE JUICE CONCENTRATE, ORGANIC STRAWBERRY JUICE CONCENTRATE, NATURAL FLAVOR, PECTIN, ORGANIC COLOR (ORGANIC BLACK CARROT, ORGANIC BLACKCURRANT EXTRACTS), ASCORBIC ACID (VITAMIN C), ORGANIC LEMON JUICE CONCENTRATE, ORGANIC SUNFLOWER OIL, ORGANIC CARNAUBA WAX." Date available: 10/10/2017 Date last updated by company: 07/28/2017
