Source: USDA Branded Food Products Database Release December 2017 Software v.3.8.6.4 2017-10-02
Report Run at: December 16, 2017 23:28 EST
"Nutrient data for: 45310911, ANNIES ORG BUNNY FRT SNCKS VALENTINE, UNPREPARED, GTIN: 00013562001033"
Food Group:  Branded Food Products Database
Common Name:

Nutrient,Unit,Data points,Std. Error,"3.0 pouches (33g) = 33.0g",1Value per 100 g,
Proximates
"Energy",kcal,--,--,110,333
"Protein",g,--,--,0.00,0.00
"Total lipid (fat)",g,--,--,0.00,0.00
"Carbohydrate, by difference",g,--,--,27.00,81.82
"Fiber, total dietary",g,--,--,1.0,3.0
"Sugars, total",g,--,--,16.00,48.48
Minerals
"Calcium, Ca",mg,--,--,0,0
"Iron, Fe",mg,--,--,0.00,0.00
"Sodium, Na",mg,--,--,80,242
Vitamins
"Vitamin C, total ascorbic acid",mg,--,--,84.0,254.5
"Vitamin A, IU",IU,--,--,0,0
Lipids
"Fatty acids, total saturated",g,--,--,0.000,0.000
"Fatty acids, total trans",g,--,--,0.000,0.000
"Cholesterol",mg,--,--,0,0
Amino Acids
Other
Ingredients
"ORGANIC TAPIOCA SYRUP, ORGANIC CANE SUGAR, ORGANIC TAPIOCA SYRUP SOLIDS, ORGANIC PEAR JUICE CONCENTRATE, WATER, PECTIN, CITRIC ACID, SODIUM CITRATE, ORGANIC COLOR (ORGANIC BLACK CARROT, ORGANIC BLACKCURRANT EXTRACTS), ASCORBIC ACID (VITAMIN C), ORGANIC SUNFLOWER OIL, NATURAL FLAVOR, ORGANIC CARNAUBA WAX." Date available: 10/12/2017 Date last updated by company: 10/12/2017
