Source: USDA Branded Food Products Database Release December 2017 Software v.3.8.6.4 2017-10-02
Report Run at: December 16, 2017 23:22 EST
"Nutrient data for: 45327960, ANNIES HMGRWN CRMY DLX MAC CHS WHL WHT CHDR SAUCE, UNPREPARED, GTIN: 00013562302130"
Food Group:  Branded Food Products Database
Common Name:

Nutrient,Unit,Data points,Std. Error,"1 Cup Prepared = 98.0g",1Value per 100 g,
Proximates
"Energy",kcal,--,--,300,306
"Protein",g,--,--,12.00,12.24
"Total lipid (fat)",g,--,--,9.00,9.18
"Carbohydrate, by difference",g,--,--,44.00,44.90
"Fiber, total dietary",g,--,--,5.0,5.1
"Sugars, total",g,--,--,3.00,3.06
Minerals
"Calcium, Ca",mg,--,--,60,61
"Iron, Fe",mg,--,--,1.80,1.84
"Potassium, K",mg,--,--,140,143
"Sodium, Na",mg,--,--,690,704
Vitamins
"Vitamin D",IU,--,--,0,0
Lipids
"Fatty acids, total saturated",g,--,--,4.998,5.100
"Fatty acids, total trans",g,--,--,0.000,0.000
"Cholesterol",mg,--,--,25,26
Amino Acids
Other
Ingredients
"ORGANIC PASTA (ORGANIC WHOLE GRAIN WHEAT FLOUR), CHEDDAR CHEESE (PASTEURIZED MILK, CHEESE CULTURES, SALT, NON-ANIMAL ENZYMES), SKIM MILK, CREAM, WHEY, SODIUM PHOSPHATE, SALT, NATURAL BUTTER AND CHEESE FLAVOR, SODIUM ALGINATE, LACTIC ACID, ORGANIC ANNATTO EXTRACT (FOR COLOR), XANTHAN GUM. " Date available: 10/10/2017 Date last updated by company: 08/10/2017
