Source: USDA Branded Food Products Database Release December 2017 Software v.3.8.6.4 2017-10-02
Report Run at: December 16, 2017 23:24 EST
"Nutrient data for: 45332192, ANNIES HMGRWN ORG TOASTER PASTRIES BROWN SGR CINN W FROSTING, UNPREPARED, GTIN: 00013562002337"
Food Group:  Branded Food Products Database
Common Name:

Nutrient,Unit,Data points,Std. Error,"1 Pastry (52g) = 52.0g",1Value per 100 g,
Proximates
"Energy",kcal,--,--,180,346
"Protein",g,--,--,3.00,5.77
"Total lipid (fat)",g,--,--,4.50,8.65
"Carbohydrate, by difference",g,--,--,33.00,63.46
"Fiber, total dietary",g,--,--,2.0,3.8
"Sugars, total",g,--,--,15.00,28.85
Minerals
"Calcium, Ca",mg,--,--,100,192
"Iron, Fe",mg,--,--,1.08,2.08
"Sodium, Na",mg,--,--,120,231
Vitamins
"Vitamin C, total ascorbic acid",mg,--,--,0.0,0.0
"Vitamin A, IU",IU,--,--,0,0
Lipids
"Fatty acids, total saturated",g,--,--,2.002,3.850
"Fatty acids, total trans",g,--,--,0.000,0.000
"Cholesterol",mg,--,--,0,0
Amino Acids
Other
Ingredients
"BEST INGREDIENTS: Whole Wheat Flour*, Water, Tapioca Syrup*, Invert Sugar*, Palm Oil*, Powdered Sugar*, Sugar*, Honey*, Wheat Flour*, Tapioca Starch*, Dried Apples*, Brown Sugar*, Non Fat Dry Milk*, Calcium Carbonate, Cinnamon*, Salt, Pea Protein Concentrate*, Rice Flour*, Baking Soda, Cream of Tartar, Whey Protein Concentrate*, Sodium Alginate (Thickener), Calcium Citrate, Sunflower Oil*, Caramel Color*, Sodium Citrate.   *ORGANIC " Date available: 10/23/2017 Date last updated by company: 10/18/2017
