Source: USDA Branded Food Products Database Release December 2017 Software v.3.8.6.4 2017-10-02
Report Run at: December 16, 2017 23:29 EST
"Nutrient data for: 45139401, ANNIE'S, RICE SHELLS & CREAMY WHITE CHEDDAR, UPC: 013562610068"
Food Group:  Branded Food Products Database
Common Name:

Nutrient,Unit,Data points,Std. Error,"3.0 ONZ = 85.0g",1Value per 100 g,
Proximates
"Energy",kcal,--,--,330,388
"Protein",g,--,--,7.00,8.24
"Total lipid (fat)",g,--,--,4.50,5.29
"Carbohydrate, by difference",g,--,--,62.00,72.94
"Fiber, total dietary",g,--,--,2.0,2.4
"Sugars, total",g,--,--,4.00,4.71
Minerals
"Calcium, Ca",mg,--,--,100,118
"Iron, Fe",mg,--,--,0.36,0.42
"Sodium, Na",mg,--,--,490,576
Vitamins
"Vitamin C, total ascorbic acid",mg,--,--,0.0,0.0
"Vitamin B-6",mg,--,--,0.300,0.353
"Vitamin A, IU",IU,--,--,100,118
Lipids
"Fatty acids, total saturated",g,--,--,2.499,2.940
"Fatty acids, total trans",g,--,--,0.000,0.000
"Cholesterol",mg,--,--,10,12
Amino Acids
Other
Ingredients
"RICE PASTA SHELLS (WHITE AND BROWN RICE FLOUR), CHEDDAR CHEESE (CULTURED PASTEURIZED MILK, SALT, NON-ANIMAL ENZYMES), WHEY, BUTTER, NONFAT MILK, SALT, SODIUM PHOSPHATE." Date available: 11/06/2016 Date last updated by company: 11/06/2016
