Source: USDA Branded Food Products Database Release December 2017 Software v.3.8.6.4 2017-10-02
Report Run at: December 16, 2017 23:23 EST
"Nutrient data for: 45235933, APPLE GRAPE JUICE, UPC: 086301300049"
Food Group:  Branded Food Products Database
Common Name:

Nutrient,Unit,Data points,Std. Error,"8.45 OZA = 250.0g",1Value per 100 g,
Proximates
"Energy",kcal,--,--,130,52
"Protein",g,--,--,0.00,0.00
"Total lipid (fat)",g,--,--,0.00,0.00
"Carbohydrate, by difference",g,--,--,32.00,12.80
"Sugars, total",g,--,--,28.00,11.20
Minerals
"Iron, Fe",mg,--,--,0.70,0.28
"Sodium, Na",mg,--,--,15,6
Vitamins
"Vitamin C, total ascorbic acid",mg,--,--,57.5,23.0
Lipids
Amino Acids
Other
Ingredients
"100% FRUIT JUICE (FILTERED WATER SUFFICIENT TO RECONSTITUTE APPLE AND GRAPE JUICE CONCENTRATES), CITRIC ACID, ASCORBIC ACID (VITAMIN C)." Date available: 06/25/2017 Date last updated by company: 06/25/2017
