Source: USDA Branded Food Products Database Release December 2017 Software v.3.8.6.4 2017-10-02
Report Run at: December 16, 2017 23:42 EST
"Nutrient data for: 45086048, APPLE CINNAMON HOT OATS, UPC: 850563002191"
Food Group:  Branded Food Products Database
Common Name:

Nutrient,Unit,Data points,Std. Error,"1 CONTAINER = 63.0g",1Value per 100 g,
Proximates
"Energy",kcal,--,--,230,365
"Protein",g,--,--,7.00,11.11
"Total lipid (fat)",g,--,--,3.50,5.56
"Carbohydrate, by difference",g,--,--,47.00,74.60
"Fiber, total dietary",g,--,--,5.0,7.9
"Sugars, total",g,--,--,13.00,20.63
Minerals
"Calcium, Ca",mg,--,--,40,63
"Iron, Fe",mg,--,--,2.36,3.74
"Sodium, Na",mg,--,--,0,0
Vitamins
"Vitamin C, total ascorbic acid",mg,--,--,0.0,0.0
"Vitamin A, IU",IU,--,--,0,0
Lipids
"Fatty acids, total saturated",g,--,--,0.498,0.790
"Fatty acids, total monounsaturated",g,--,--,1.002,1.590
"Fatty acids, total polyunsaturated",g,--,--,1.002,1.590
"Fatty acids, total trans",g,--,--,0.000,0.000
"Cholesterol",mg,--,--,0,0
Amino Acids
Other
Ingredients
"CERTIFIED GLUTEN-FREE OATS, BROWN SUGAR, APPLES, CINNAMON." Date available: 07/14/2017 Date last updated by company: 07/14/2017
