Source: USDA Branded Food Products Database Release December 2017 Software v.3.8.6.4 2017-10-02
Report Run at: December 16, 2017 23:47 EST
"Nutrient data for: 45010000, APPLEGATE, HALF-TIME UNCURED BOLOGNA & AMERICAN CHEESE, UPC: 025317422000"
Food Group:  Branded Food Products Database
Common Name:

Nutrient,Unit,Data points,Std. Error,"1 PACKAGE = 149.0g",1Value per 100 g,
Proximates
"Energy",kcal,--,--,340,228
"Protein",g,--,--,12.99,8.72
"Total lipid (fat)",g,--,--,16.00,10.74
"Carbohydrate, by difference",g,--,--,37.99,25.50
"Fiber, total dietary",g,--,--,1.0,0.7
"Sugars, total",g,--,--,20.00,13.42
Minerals
"Calcium, Ca",mg,--,--,250,168
"Iron, Fe",mg,--,--,0.67,0.45
"Sodium, Na",mg,--,--,660,443
Vitamins
"Vitamin C, total ascorbic acid",mg,--,--,56.3,37.8
"Vitamin A, IU",IU,--,--,375,252
Lipids
"Fatty acids, total saturated",g,--,--,8.001,5.370
"Fatty acids, total trans",g,--,--,0.000,0.000
"Cholesterol",mg,--,--,40,27
Amino Acids
Other
Ingredients
"STONYFIELD YOKIDS SQUEEZERS STRAWBERRY ORGANIC LOWFAT YOGURT INGREDIENTS: CULTURED PASTEURIZED ORGANIC REDUCED FAT MILK, ORGANIC SUGAR, ORGANIC TAPIOCA STARCH, ORGANIC STRAWBERRY JUICE FROM CONCENTRATE, ORGANIC CAROB BEAN GUM, NATURAL FLAVOR, PECTIN, CARRAGEENAN, ORGANIC NATURAL VANILLA FLAVOR, ORGANIC BEET JUICE CONCENTRATE (FOR COLOR), VITAMIN D3. LIVE ACTIVE CULTURES: S. THERMOPHILUS, L. BULGARICUS, L. ACIDOPHILUS, BIFIDUS, L. CASEI, AND L. RHAMNOSUS. APPLEGATE BOLOGNA INGREDIENTS: BEEF** AND PORK**, WATER. CONTAINS LESS THAN 2% OF THE FOLLOWING: SEA SALT, PAPRIKA, SPICES, GARLIC, ONION, CELERY POWDER. APPLEGATE AMERICAN CHEESE INGREDIENTS: AMERICAN CHEESE (CULTURED MILK, SALT, ENZYMES [NON-ANIMAL]), CREAM, WATER, SODIUM CITRATE, SALT, LACTIC ACID. MADE WITH VEGETABLE RENNET. ANNIE'S HOMEGROWN ORGANIC SUMMER STRAWBERRY BUNNY FRUIT SNACKS INGREDIENTS: ORGANIC TAPIOCA SYRUP, ORGANIC CANE SUGAR, ORGANIC TAPIOCA SYRUP SOLIDS, ORGANIC WHITE GRAPE JUICE CONCENTRATE, PECTIN, CITRIC ACID, ASCORBIC ACID, COLOR ADDED (ORGANIC BLACK CARROT JUICE CONCENTRATE), NATURAL FLAVORS, SODIUM CITRATE, ORGANIC SUNFLOWER OIL, CARNAUBA WAX. ANNIE'S HOMEGROWN BUTTERY RICH CLASSIC CRACKERS INGREDIENTS: WHOLE GRAIN WHEAT FLOUR, WHEAT FLOUR, EXPELLER-PRESSED SUNFLOWER OIL, SEA SALT, CANE SUGAR, BUTTER, MALT SYRUP, YEAST, BAKING SODA, ANNATTO EXTRACT (FOR COLOR). NATURAL VITAMIN E (TO PROTECT FLAVOR)." Date available: 06/24/2017 Date last updated by company: 06/24/2017
