Source: USDA Branded Food Products Database Release December 2017 Software v.3.8.6.4 2017-10-02
Report Run at: December 16, 2017 23:47 EST
"Nutrient data for: 45098909, APPLEGATE NATURALS, CHICKEN & MAPLE BREAKFAST SAUSAGE, UPC: 025317006965"
Food Group:  Branded Food Products Database
Common Name:

Nutrient,Unit,Data points,Std. Error,"3.0 LINKS = 59.0g",1Value per 100 g,
Proximates
"Energy",kcal,--,--,110,186
"Protein",g,--,--,9.00,15.25
"Total lipid (fat)",g,--,--,7.00,11.86
"Carbohydrate, by difference",g,--,--,2.00,3.39
"Fiber, total dietary",g,--,--,0.0,0.0
"Sugars, total",g,--,--,1.00,1.69
Minerals
"Calcium, Ca",mg,--,--,0,0
"Iron, Fe",mg,--,--,0.34,0.57
"Sodium, Na",mg,--,--,360,610
Vitamins
"Vitamin C, total ascorbic acid",mg,--,--,0.0,0.0
"Vitamin A, IU",IU,--,--,0,0
Lipids
"Fatty acids, total saturated",g,--,--,2.000,3.390
"Fatty acids, total trans",g,--,--,0.000,0.000
"Cholesterol",mg,--,--,45,76
Amino Acids
Other
Ingredients
"CHICKEN**, WATER, SUGAR, MAPLE SYRUP. CONTAINS LESS THAN 2% OF THE FOLLOWING: SALT, SPICES, NATURAL MAPLE FLAVOR (CARAMELIZED SUGAR, NATURAL FLAVOR, NATURAL MAPLE SYRUP, BROWN SUGAR MOLASSES)." Date available: 10/18/2017 Date last updated by company: 10/18/2017
