Source: USDA Branded Food Products Database Release December 2017 Software v.3.8.6.4 2017-10-02
Report Run at: December 16, 2017 23:33 EST
"Nutrient data for: 45267715, APPLE PIE, UPC: 637107402521"
Food Group:  Branded Food Products Database
Common Name:

Nutrient,Unit,Data points,Std. Error,"1 SLICE = 123.0g",1Value per 100 g,
Proximates
"Energy",kcal,--,--,339,276
"Protein",g,--,--,4.00,3.25
"Total lipid (fat)",g,--,--,10.00,8.13
"Carbohydrate, by difference",g,--,--,57.00,46.34
"Fiber, total dietary",g,--,--,1.0,0.8
"Sugars, total",g,--,--,29.00,23.58
Minerals
"Calcium, Ca",mg,--,--,0,0
"Iron, Fe",mg,--,--,1.46,1.19
"Sodium, Na",mg,--,--,160,130
Vitamins
"Vitamin C, total ascorbic acid",mg,--,--,0.0,0.0
"Vitamin A, IU",IU,--,--,0,0
Lipids
"Fatty acids, total saturated",g,--,--,5.006,4.070
"Fatty acids, total trans",g,--,--,0.000,0.000
"Cholesterol",mg,--,--,0,0
Amino Acids
Other
Ingredients
"APPLE PIE FILLING (APPLES [PREPARED WITH SODIUM SULFATE AND CALCIUM CHLORIDE], WATER, SUGAR, CORN SYRUP, MODIFIED CORN STARCH, CONTAINS 2% OR LESS OF THE FOLLOWING: LEMON JUICE, APPLE JUICE CONCENTRATE, CITRIC ACID, POTASSIUM SORBATE [PRESERVATIVE], CINNAMON, SALT), CRUST: BLEACHED ENRICHED FLOUR (WHEAT FLOUR, NIACIN, IRON, THIAMINE MONONITRATE, RIBOFLAVIN, FOLIC ACID, DOUGH CONDITIONERS [ASCORBIC ACID, AZODICARBONAMIDE, ENZYME]), SUGAR, PALM OIL, WATER, BUTTER (PASTEURIZED SWEET CREAM), NATURAL FLAVORS, SALT." Date available: 07/14/2017 Date last updated by company: 07/14/2017
