Source: USDA Branded Food Products Database Release December 2017 Software v.3.8.6.4 2017-10-02
Report Run at: December 16, 2017 23:27 EST
"Nutrient data for: 45255534, APPLE JUICE, UPC: 766114634127"
Food Group:  Branded Food Products Database
Common Name:

Nutrient,Unit,Data points,Std. Error,"1 CAN = 11.5g",1Value per 100 g,
Proximates
"Energy",kcal,--,--,6,49
"Protein",g,--,--,0.00,0.00
"Total lipid (fat)",g,--,--,0.00,0.00
"Carbohydrate, by difference",g,--,--,1.40,12.17
"Sugars, total",g,--,--,1.33,11.59
Minerals
"Sodium, Na",mg,--,--,1,6
Vitamins
Lipids
Amino Acids
Other
Ingredients
"WATER, APPLE JUICE CONCENTRATE." Date available: 07/14/2017 Date last updated by company: 07/14/2017
