Source: USDA Branded Food Products Database Release December 2017 Software v.3.8.6.4 2017-10-02
Report Run at: December 16, 2017 23:36 EST
"Nutrient data for: 45277768, APPLE, BLUE CHEESE & PECAN KIT, UPC: 021130336807"
Food Group:  Branded Food Products Database
Common Name:

Nutrient,Unit,Data points,Std. Error,"3.0 cup = 100.0g",1Value per 100 g,
Proximates
"Energy",kcal,--,--,160,160
"Protein",g,--,--,2.00,2.00
"Total lipid (fat)",g,--,--,13.00,13.00
"Carbohydrate, by difference",g,--,--,15.00,15.00
"Fiber, total dietary",g,--,--,1.0,1.0
"Sugars, total",g,--,--,6.00,6.00
Minerals
"Calcium, Ca",mg,--,--,100,100
"Iron, Fe",mg,--,--,0.72,0.72
"Sodium, Na",mg,--,--,330,330
Vitamins
"Vitamin C, total ascorbic acid",mg,--,--,15.0,15.0
"Vitamin A, IU",IU,--,--,1000,1000
Lipids
"Fatty acids, total saturated",g,--,--,2.500,2.500
"Fatty acids, total trans",g,--,--,0.000,0.000
"Cholesterol",mg,--,--,5,5
Amino Acids
Other
Ingredients
"LETTUCE MIX (BABY ARUGULA, BABY SPINACH, BABY LETTUCES [LOLLO ROSSA, FRISEE, RED LEAF, ROMAINE, RED OAK], BABY GREENS [TATSOI, MIZUNA, KALE]), LETTUCE MIX MAY VARY BY SEASON, CHERRY BALSAMIC VINAIGRETTE (VEGETABLE OIL [SOYBEAN OIL AND/OR CANOLA OIL], WATER, WHITE BALSAMIC VINEGAR, SUGAR, WHITE WINE, SALT, ORANGE JUICE CONCENTRATE, VIDALIA ONION, CORN SUGAR VINEGAR, WHITE WINE VINEGAR, GARLIC, OLIVE OIL, BLACK CHERRY CONCENTRATE, SPICES, DIJON MUSTARD [WATER, VINEGAR, MUSTARD SEED, SALT, SPICES], NATURAL FLAVORS, BASIL, XANTHAN GUM, DEHYDRATED ONION, DEHYDRATED RED BELL PEPPER, LEMON JUICE CONCENTRATE, DEHYDRATED PARSLEY, EXTRACTIVE OF ORANGE), APPLES (CALCIUM ASCORBATE ADDED [TO MAINTAIN FRESHNESS AND COLOR]), BLUE CHEESE (PASTEURIZED MILK, CHEESE CULTURE, SALT, ENZYMES, POWDERED CELLULOSE [TO PREVENT CAKING], NATAMYCIN [A NATURAL MOLD INHIBITOR]), PRALINE PECANS (PECANS, WHITE SUGAR, BROWN SUGAR, BUTTER [MILK], CORN SYRUP, SALT)." Date available: 10/11/2017 Date last updated by company: 10/11/2017
