Source: USDA Branded Food Products Database Release December 2017 Software v.3.8.6.4 2017-10-02
Report Run at: December 16, 2017 23:50 EST
"Nutrient data for: 45266387, APPLE SLICES HONEY CRISP, UPC: 055276203204"
Food Group:  Branded Food Products Database
Common Name:

Nutrient,Unit,Data points,Std. Error,"1 SERVING = 57.0g",1Value per 100 g,
Proximates
"Energy",kcal,--,--,30,53
"Protein",g,--,--,0.00,0.00
"Total lipid (fat)",g,--,--,0.00,0.00
"Carbohydrate, by difference",g,--,--,8.00,14.04
"Fiber, total dietary",g,--,--,2.0,3.5
"Sugars, total",g,--,--,6.00,10.53
Minerals
"Calcium, Ca",mg,--,--,80,140
"Iron, Fe",mg,--,--,0.25,0.44
"Potassium, K",mg,--,--,62,109
"Sodium, Na",mg,--,--,0,0
Vitamins
"Vitamin C, total ascorbic acid",mg,--,--,63.2,110.8
"Vitamin A, IU",IU,--,--,0,0
Lipids
"Fatty acids, total saturated",g,--,--,0.000,0.000
"Fatty acids, total trans",g,--,--,0.000,0.000
"Cholesterol",mg,--,--,0,0
Amino Acids
Other
Ingredients
"APPLES, ASCORBIC ACID (VITAMIN C), CALCIUM CARBONATE." Date available: 07/14/2017 Date last updated by company: 07/14/2017
