Source: USDA Branded Food Products Database Release December 2017 Software v.3.8.6.4 2017-10-02
Report Run at: December 16, 2017 23:54 EST
"Nutrient data for: 45239923, APPLE, UPC: 075355112401"
Food Group:  Branded Food Products Database
Common Name:

Nutrient,Unit,Data points,Std. Error,"8.0 FL OZ (240ML) | RECONC. = 60.0g",1Value per 100 g,
Proximates
"Energy",kcal,--,--,90,150
"Protein",g,--,--,0.00,0.00
"Total lipid (fat)",g,--,--,0.00,0.00
"Carbohydrate, by difference",g,--,--,21.00,35.00
"Sugars, total",g,--,--,21.00,35.00
Minerals
"Calcium, Ca",mg,--,--,0,0
"Iron, Fe",mg,--,--,0.00,0.00
"Sodium, Na",mg,--,--,10,17
Vitamins
"Vitamin C, total ascorbic acid",mg,--,--,60.0,100.0
"Vitamin A, IU",IU,--,--,0,0
Lipids
Amino Acids
Other
Ingredients
"FILTERED WATER, HIGH FRUCTOSE CORN SYRUP, APPLE JUICE CONCENTRATE, MALIC ACID, NATURAL FLAVORS, CARAMEL COLOR, ASCORBIC ACID (VITAMIN C), ACESULFAME POTASSIUM, SUCRALOSE." Date available: 07/14/2017 Date last updated by company: 07/14/2017
