Source: USDA Branded Food Products Database Release December 2017 Software v.3.8.6.4 2017-10-02
Report Run at: December 16, 2017 23:52 EST
"Nutrient data for: 45293221, APPLE, SPINACH & PEAR, UPC: 810387022355"
Food Group:  Branded Food Products Database
Common Name:

Nutrient,Unit,Data points,Std. Error,"3.2 ONZ = 90.0g",1Value per 100 g,
Proximates
"Energy",kcal,--,--,45,50
"Protein",g,--,--,0.00,0.00
"Total lipid (fat)",g,--,--,0.00,0.00
"Carbohydrate, by difference",g,--,--,11.00,12.22
"Fiber, total dietary",g,--,--,0.0,0.0
"Sugars, total",g,--,--,10.00,11.11
Minerals
"Calcium, Ca",mg,--,--,20,22
"Iron, Fe",mg,--,--,0.40,0.44
"Sodium, Na",mg,--,--,5,6
Vitamins
"Vitamin C, total ascorbic acid",mg,--,--,8.4,9.3
"Vitamin A, IU",IU,--,--,222,247
Lipids
"Fatty acids, total saturated",g,--,--,0.000,0.000
"Fatty acids, total trans",g,--,--,0.000,0.000
"Cholesterol",mg,--,--,0,0
Amino Acids
Other
Ingredients
"APPLE PUREE*, PEAR PUREE*, SPINACH PUREE*, APPLE JUICE CONCENTRATE*, APPLE JUICE FROM CONCENTRATE*, LEMON JUICE CONCENTRATE*." Date available: 07/14/2017 Date last updated by company: 07/14/2017
