Source: USDA Branded Food Products Database Release December 2017 Software v.3.8.6.4 2017-10-02
Report Run at: December 16, 2017 23:32 EST
"Nutrient data for: 45189784, APPLE PIE, UPC: 011284023012"
Food Group:  Branded Food Products Database
Common Name:

Nutrient,Unit,Data points,Std. Error,"1 PIE = 102.0g",1Value per 100 g,
Proximates
"Energy",kcal,--,--,370,363
"Protein",g,--,--,3.00,2.94
"Total lipid (fat)",g,--,--,17.00,16.67
"Carbohydrate, by difference",g,--,--,54.00,52.94
"Fiber, total dietary",g,--,--,1.0,1.0
"Sugars, total",g,--,--,24.00,23.53
Minerals
"Calcium, Ca",mg,--,--,0,0
"Iron, Fe",mg,--,--,1.76,1.73
"Sodium, Na",mg,--,--,470,461
Vitamins
"Vitamin C, total ascorbic acid",mg,--,--,0.0,0.0
"Vitamin A, IU",IU,--,--,0,0
Lipids
"Fatty acids, total saturated",g,--,--,8.996,8.820
"Fatty acids, total trans",g,--,--,0.000,0.000
"Cholesterol",mg,--,--,0,0
Amino Acids
Other
Ingredients
"ENRICHED FLOUR (WHEAT FLOUR, NIACIN, REDUCED IRON, THIAMINE MONONITRATE, RIBOFLAVIN, FOLIC ACID), HIGH FRUCTOSE CORN SYRUP, WATER, PALM OIL & FRACTIONATED PALM OIL, SUGAR, CONTAINS LESS THAN 2% OF EACH OF THE FOLLOWING: EVAPORATED APPLES (TREATED WITH SULFUR DIOXIDE TO PRESERVE COLOR), FOOD STARCH-MODIFIED, SALT, PRESERVATIVES (SODIUM PROPIONATE, SODIUM BENZOATE, CITRIC ACID), WHEAT FLOUR, MALTED BARLEY FLOUR, CORN STARCH, XANTHAN GUM, CINNAMON, DEXTROSE, PROPYLENE GLYCOL, CALCIUM CARBONATE, AGAR, NATURAL FLAVORS, MONO- & DIGLYCERIDES, SORBITAN MONOSTEARATE, SOY LECITHIN." Date available: 07/14/2017 Date last updated by company: 07/14/2017
