Source: USDA Branded Food Products Database Release December 2017 Software v.3.8.6.4 2017-10-02
Report Run at: December 16, 2017 23:30 EST
"Nutrient data for: 45230922, APPLE PEAR GINGER OATS, UPC: 892909001550"
Food Group:  Branded Food Products Database
Common Name:

Nutrient,Unit,Data points,Std. Error,"1 POUCH = 128.0g",1Value per 100 g,
Proximates
"Energy",kcal,--,--,100,78
"Protein",g,--,--,1.00,0.78
"Total lipid (fat)",g,--,--,0.50,0.39
"Carbohydrate, by difference",g,--,--,22.00,17.19
"Fiber, total dietary",g,--,--,2.9,2.3
"Sugars, total",g,--,--,16.00,12.50
Minerals
"Calcium, Ca",mg,--,--,20,16
"Iron, Fe",mg,--,--,0.42,0.33
"Potassium, K",mg,--,--,160,125
"Sodium, Na",mg,--,--,40,31
Vitamins
"Vitamin C, total ascorbic acid",mg,--,--,21.1,16.5
"Vitamin A, IU",IU,--,--,38,30
Lipids
"Fatty acids, total saturated",g,--,--,0.000,0.000
"Fatty acids, total trans",g,--,--,0.000,0.000
"Cholesterol",mg,--,--,0,0
Amino Acids
Other
Ingredients
"ORGANIC APPLES, ORGANIC PEAR, COCONUT WATER, RAISINS, STEEL CUT OATS, CINNAMON, VANILLA, GINGER, MONK FRUIT EXTRACT." Date available: 07/14/2017 Date last updated by company: 07/14/2017
