Source: USDA Branded Food Products Database Release December 2017 Software v.3.8.6.4 2017-10-02
Report Run at: December 16, 2017 23:43 EST
"Nutrient data for: 45229784, APPLESAUCE, UPC: 07078411236"
Food Group:  Branded Food Products Database
Common Name:

Nutrient,Unit,Data points,Std. Error,"1 BOWL = 113.0g",1Value per 100 g,
Proximates
"Energy",kcal,--,--,45,40
"Protein",g,--,--,0.00,0.00
"Total lipid (fat)",g,--,--,0.00,0.00
"Carbohydrate, by difference",g,--,--,12.99,11.50
"Fiber, total dietary",g,--,--,1.0,0.9
"Sugars, total",g,--,--,10.99,9.73
Minerals
"Calcium, Ca",mg,--,--,0,0
"Iron, Fe",mg,--,--,0.00,0.00
"Sodium, Na",mg,--,--,0,0
Vitamins
"Vitamin C, total ascorbic acid",mg,--,--,0.0,0.0
"Vitamin A, IU",IU,--,--,0,0
Lipids
"Fatty acids, total saturated",g,--,--,0.000,0.000
"Fatty acids, total trans",g,--,--,0.000,0.000
"Cholesterol",mg,--,--,0,0
Amino Acids
Other
Ingredients
"APPLES, WATER, ASCORBIC ACID (TO MAINTAIN COLOR)." Date available: 07/14/2017 Date last updated by company: 07/14/2017
