Source: USDA Branded Food Products Database Release December 2017 Software v.3.8.6.4 2017-10-02
Report Run at: December 16, 2017 23:44 EST
"Nutrient data for: 45268459, APPLE CRUMB PIE, UPC: 773171329002"
Food Group:  Branded Food Products Database
Common Name:

Nutrient,Unit,Data points,Std. Error,"0.125 OF PIE) | ( = 149.0g",1Value per 100 g,
Proximates
"Energy",kcal,--,--,399,268
"Protein",g,--,--,3.99,2.68
"Total lipid (fat)",g,--,--,18.00,12.08
"Carbohydrate, by difference",g,--,--,55.00,36.91
"Fiber, total dietary",g,--,--,0.0,0.0
"Sugars, total",g,--,--,24.00,16.11
Minerals
"Calcium, Ca",mg,--,--,18,12
"Iron, Fe",mg,--,--,1.00,0.67
"Potassium, K",mg,--,--,51,34
"Sodium, Na",mg,--,--,370,248
Vitamins
"Vitamin D",IU,--,--,0,0
Lipids
"Fatty acids, total saturated",g,--,--,9.998,6.710
"Fatty acids, total trans",g,--,--,0.000,0.000
"Cholesterol",mg,--,--,15,10
Amino Acids
Other
Ingredients
"APPLES, UNBLEACHED WHEAT FLOUR, WATER, SUGAR, PALM OIL, BUTTER, OATS, TAPIOCA STARCH - MODIFIED. DEXTROSE (NON GMO), SALT, VINEGAR. CINNAMON. NATURAL FLAVORS, CITRIC ACID." Date available: 10/19/2017 Date last updated by company: 10/19/2017
