Source: USDA Branded Food Products Database Release December 2017 Software v.3.8.6.4 2017-10-02
Report Run at: December 16, 2017 23:56 EST
"Nutrient data for: 45207199, APPLEWOOD DOUBLE SMOKED BACON, UPC: 010957423524"
Food Group:  Branded Food Products Database
Common Name:

Nutrient,Unit,Data points,Std. Error,"1 COOKED SLICE = 12.0g",1Value per 100 g,
Proximates
"Energy",kcal,--,--,60,500
"Protein",g,--,--,4.00,33.33
"Total lipid (fat)",g,--,--,5.00,41.67
"Carbohydrate, by difference",g,--,--,1.00,8.33
Minerals
"Sodium, Na",mg,--,--,160,1333
Vitamins
Lipids
"Fatty acids, total saturated",g,--,--,2.000,16.670
"Fatty acids, total trans",g,--,--,0.000,0.000
"Cholesterol",mg,--,--,5,42
Amino Acids
Other
Ingredients
"CURED WITH: WATER, SALT, NATURAL APPLEWOOD SMOKE FLAVORING, SUGAR, SODIUM PHOSPHATE, SODIUM ERYTHORBATE, SODIUM NITRITE." Date available: 07/14/2017 Date last updated by company: 07/14/2017
