Source: USDA Branded Food Products Database Release December 2017 Software v.3.8.6.4 2017-10-02
Report Run at: December 16, 2017 23:44 EST
"Nutrient data for: 45189971, APPLE CRUMBLE, UPC: 018053105092"
Food Group:  Branded Food Products Database
Common Name:

Nutrient,Unit,Data points,Std. Error,"0.5 cup = 125.0g",1Value per 100 g,
Proximates
"Energy",kcal,--,--,170,136
"Protein",g,--,--,1.00,0.80
"Total lipid (fat)",g,--,--,4.00,3.20
"Carbohydrate, by difference",g,--,--,33.00,26.40
"Fiber, total dietary",g,--,--,2.0,1.6
"Sugars, total",g,--,--,24.00,19.20
Minerals
"Calcium, Ca",mg,--,--,20,16
"Iron, Fe",mg,--,--,0.35,0.28
"Sodium, Na",mg,--,--,65,52
Vitamins
"Vitamin C, total ascorbic acid",mg,--,--,4.6,3.7
"Vitamin A, IU",IU,--,--,96,77
Lipids
"Fatty acids, total saturated",g,--,--,2.500,2.000
"Fatty acids, total trans",g,--,--,0.000,0.000
"Cholesterol",mg,--,--,10,8
Amino Acids
Other
Ingredients
"SPICED APPLE: APPLE, WATER, BROWN SUGAR, BUTTER (CREAM, SALT), MODIFIED CORNSTARCH, APPLE JUICE CONCENTRATE, SPICES, CULTURED DEXTROSE, VANILLA EXTRACT, LEMON ZEST, CITRIC ACID, SALT. CRUMBLE TOPPING: BROWN SUGAR, WHOLE GRAIN OAT FLOUR, ROLLED OATS, BUTTER (CREAM, SALT), WATER." Date available: 07/14/2017 Date last updated by company: 07/14/2017
