Source: USDA Branded Food Products Database Release December 2017 Software v.3.8.6.4 2017-10-02
Report Run at: December 16, 2017 23:24 EST
"Nutrient data for: 45239932, APPLE JUICE BLEND, UPC: 075355112067"
Food Group:  Branded Food Products Database
Common Name:

Nutrient,Unit,Data points,Std. Error,"8.0 OZA = 240.0g",1Value per 100 g,
Proximates
"Energy",kcal,--,--,130,54
"Protein",g,--,--,0.00,0.00
"Total lipid (fat)",g,--,--,0.00,0.00
"Carbohydrate, by difference",g,--,--,31.01,12.92
"Sugars, total",g,--,--,28.99,12.08
Minerals
"Calcium, Ca",mg,--,--,0,0
"Iron, Fe",mg,--,--,0.36,0.15
"Potassium, K",mg,--,--,281,117
"Sodium, Na",mg,--,--,24,10
Vitamins
"Vitamin C, total ascorbic acid",mg,--,--,72.0,30.0
"Vitamin A, IU",IU,--,--,0,0
Lipids
Amino Acids
Other
Ingredients
"100% FRUIT JUICE FROM APPLE JUICE, PEAR JUICE, ARONIA BERRY JUICE, POMEGRANATE JUICE, GRAPE JUICE, CRANBERRY JUICE, PLUM JUICE (FILTERED WATER, FRUIT JUICE CONCENTRATES), CITRIC ACID, NATURAL FLAVORS, ASCORBIC ACID (VITAMIN C)." Date available: 07/14/2017 Date last updated by company: 07/14/2017
