Source: USDA Branded Food Products Database Release December 2017 Software v.3.8.6.4 2017-10-02
Report Run at: December 16, 2017 23:47 EST
"Nutrient data for: 45291153, APPLE FRUIT PEI, UPC: 021130115129"
Food Group:  Branded Food Products Database
Common Name:

Nutrient,Unit,Data points,Std. Error,"1 PIE = 113.0g",1Value per 100 g,
Proximates
"Energy",kcal,--,--,420,372
"Protein",g,--,--,2.99,2.65
"Total lipid (fat)",g,--,--,20.00,17.70
"Carbohydrate, by difference",g,--,--,57.00,50.44
"Fiber, total dietary",g,--,--,1.0,0.9
"Sugars, total",g,--,--,22.00,19.47
Minerals
"Calcium, Ca",mg,--,--,0,0
"Iron, Fe",mg,--,--,1.59,1.41
"Potassium, K",mg,--,--,29,26
"Sodium, Na",mg,--,--,380,336
Vitamins
"Vitamin C, total ascorbic acid",mg,--,--,0.0,0.0
"Vitamin A, IU",IU,--,--,0,0
Lipids
"Fatty acids, total saturated",g,--,--,4.995,4.420
"Fatty acids, total trans",g,--,--,0.000,0.000
"Cholesterol",mg,--,--,0,0
Amino Acids
Other
Ingredients
"ENRICHED FLOUR (WHEAT FLOUR, NIACIN, REDUCED IRON, THIAMIN MONONITRATE, RIBOFLAVIN, FOLIC ACID), HIGH FRUCTOSE CORN SYRUP, CORN SYRUP, APPLES, PALM OIL, FULLY HYDROGENATED SOYBEAN AND COTTONSEED OIL, WATER, SUGAR, TAPIOCA STARCH-MODIFIED, CONTAINS LESS THAN 2% OF: SALT, GLYCERINE, SODIUM STEAROYL LACTYLATE, MONO AND DIGLYCERIDES, DEXTROSE, CORN SYRUP SOLIDS, CORN STARCH, AGAR AGAR, CALCIUM SULFATE, CARBOXYMETHYLCELLUOSE, CITRIC ACID, SODIUM PROPIONATE AND SODIUM BENZOATE AND POTASSIUM SORBATE (TO PRESERVE FRESHNESS), CINNAMON, MALTODEXTRIN, NATURAL AND ARTIFICIAL FLAVORS." Date available: 08/15/2017 Date last updated by company: 08/15/2017
