Source: USDA Branded Food Products Database Release December 2017 Software v.3.8.6.4 2017-10-02
Report Run at: December 16, 2017 23:37 EST
"Nutrient data for: 45091251, APPLE CARAMEL BITES, UPC: 077745238968"
Food Group:  Branded Food Products Database
Common Name:

Nutrient,Unit,Data points,Std. Error,"1 TRAY = 113.0g",1Value per 100 g,
Proximates
"Energy",kcal,--,--,170,150
"Protein",g,--,--,4.00,3.54
"Total lipid (fat)",g,--,--,4.50,3.98
"Carbohydrate, by difference",g,--,--,29.00,25.66
"Fiber, total dietary",g,--,--,2.0,1.8
"Sugars, total",g,--,--,23.00,20.35
Minerals
"Calcium, Ca",mg,--,--,99,88
"Iron, Fe",mg,--,--,0.00,0.00
"Sodium, Na",mg,--,--,125,111
Vitamins
"Vitamin C, total ascorbic acid",mg,--,--,9.0,8.0
"Vitamin A, IU",IU,--,--,150,133
Lipids
"Fatty acids, total saturated",g,--,--,2.497,2.210
"Fatty acids, total trans",g,--,--,0.000,0.000
"Cholesterol",mg,--,--,15,13
Amino Acids
Other
Ingredients
"APPLES (CALCIUM ASCORBATE [ADDED TO MAINTAIN FRESHNESS AND COLOR]), LOW FAT CARAMEL DIP (HIGH FRUCTOSE CORN SYRUP, CORN SYRUP, WATER, SKIM MILK POWDER, MODIFIED CORN STARCH, DISODIUM PHOSPHATE, NATURAL AND ARTIFICIAL FLAVORS, SALT, ACACIA GUM, POTASSIUM SORBATE [PRESERVATIVE], POLYSORBATE 60, CARRAGEENAN GUM), CHEDDAR CHEESE (CHEDDAR CHEESE [PASTEURIZED MILK, CHEESE CULTURE, SALT, ENZYMES, ANNATTO {VEGETABLE COLOR}], POTATO STARCH AND POWDERED CELLULOSE [TO PREVENT CAKING], NATAMYCIN [A NATURAL MOLD INHIBITOR])." Date available: 10/13/2017 Date last updated by company: 10/13/2017
