Source: USDA Branded Food Products Database Release December 2017 Software v.3.8.6.4 2017-10-02
Report Run at: December 16, 2017 23:36 EST
"Nutrient data for: 45258242, APPLESAUCE ON THE GO, UPC: 848860040053"
Food Group:  Branded Food Products Database
Common Name:

Nutrient,Unit,Data points,Std. Error,"1 POUCH = 90.0g",1Value per 100 g,
Proximates
"Energy",kcal,--,--,60,67
"Protein",g,--,--,0.00,0.00
"Total lipid (fat)",g,--,--,0.00,0.00
"Carbohydrate, by difference",g,--,--,15.00,16.67
"Fiber, total dietary",g,--,--,1.0,1.1
"Sugars, total",g,--,--,12.00,13.33
Minerals
"Sodium, Na",mg,--,--,0,0
Vitamins
Lipids
Amino Acids
Other
Ingredients
"APPLE, STRAWBERRY, KIWI, APPLE JUICE CONCENTRATE, APPLE PUREE CONCENTRATE." Date available: 07/14/2017 Date last updated by company: 07/14/2017
