Source: USDA Branded Food Products Database Release December 2017 Software v.3.8.6.4 2017-10-02
Report Run at: December 16, 2017 23:42 EST
"Nutrient data for: 45324900, APPLE CINNAMON COFFEE CAKE MIX, UPC: 073347366030"
Food Group:  Branded Food Products Database
Common Name:

Nutrient,Unit,Data points,Std. Error,"0.143 OF PACKAGE, MIX = 34.0g",1Value per 100 g,
Proximates
"Energy",kcal,--,--,110,324
"Protein",g,--,--,2.00,5.88
"Total lipid (fat)",g,--,--,1.00,2.94
"Carbohydrate, by difference",g,--,--,27.00,79.41
"Fiber, total dietary",g,--,--,1.0,2.9
"Sugars, total",g,--,--,2.00,5.88
Minerals
"Calcium, Ca",mg,--,--,100,294
"Iron, Fe",mg,--,--,0.85,2.49
"Sodium, Na",mg,--,--,130,382
Vitamins
"Vitamin C, total ascorbic acid",mg,--,--,0.0,0.0
"Vitamin A, IU",IU,--,--,0,0
Lipids
"Fatty acids, total trans",g,--,--,0.000,0.000
"Cholesterol",mg,--,--,0,0
Amino Acids
Other
Ingredients
"ENRICHED WHEAT FLOUR (WHEAT FLOUR, NIACIN, REDUCED IRON, THIAMIN MONONITRATE, RIBOFLAVIN, FOLIC ACID), SORBITOL, MALTODEXTRIN, LOW MOISTURE APPLE, EMULSIFIER (MONO AND DIGLYCERIDES, NONFAT MILK SOLIDS, MODIFIED CORN STARCH), DRIED EGG WHITE, LECITHIN POWDER (SOY LECITHIN, NONFAT MILK, MALTODEXTRIN), POWDERED CELLULOSE, MONOCALCIUM PHOSPHATE, SODIUM BICARBONATE, SPICE, XANTHAN GUM, NATURAL FLAVOR, STEVIA EXTRACT (REBIANA)." Date available: 08/11/2017 Date last updated by company: 08/11/2017
