Source: USDA Branded Food Products Database Release December 2017 Software v.3.8.6.4 2017-10-02
Report Run at: December 16, 2017 23:38 EST
"Nutrient data for: 45293247, APPLE & CHEESE TRAY, UPC: 826766254026"
Food Group:  Branded Food Products Database
Common Name:

Nutrient,Unit,Data points,Std. Error,"1 cup = 140.0g",1Value per 100 g,
Proximates
"Energy",kcal,--,--,251,179
"Protein",g,--,--,6.01,4.29
"Total lipid (fat)",g,--,--,11.00,7.86
"Carbohydrate, by difference",g,--,--,32.00,22.86
"Fiber, total dietary",g,--,--,2.9,2.1
"Sugars, total",g,--,--,24.00,17.14
Minerals
"Calcium, Ca",mg,--,--,200,143
"Iron, Fe",mg,--,--,0.13,0.09
"Sodium, Na",mg,--,--,200,143
Vitamins
"Vitamin C, total ascorbic acid",mg,--,--,1.3,0.9
"Vitamin A, IU",IU,--,--,106,76
Lipids
"Fatty acids, total saturated",g,--,--,7.000,5.000
"Fatty acids, total trans",g,--,--,0.000,0.000
"Cholesterol",mg,--,--,25,18
Amino Acids
Other
Ingredients
"APPLES (APPLES, CALCIUM ASCORBATE [A BLEND OF CALCIUM AND VITAMINS TO MAINTAIN COLOR]), CARAMEL DIP (HIGH FRUCTOSE CORN SYRUP, SKIM MILK, CORN SYRUP, PALM OIL, SUGAR, BUTTER [MILK, CREAM, SALT], MODIFIED CORN STARCH, LESS THAN 2% OF: DISODIUM PHOSPHATE, POTASSIUM SORBATE [PRESERVATIVE], TBHQ [PRESERVATIVE], SALT, MONO AND DIGLYCERIDES, ARTIFICIAL FLAVORS), COLBY JACK CHEESE (PASTEURIZED MILK, CHEESE CULTURES, SALT, ENZYMES, ANNATTO (COLOR) MONTEREY JACK CHEESE (PASTEURIZED MILK, CHEESE CULTURE, SALT, ENZYMES AND POWDERED CELLULOSE [TO PREVENT CAKING])." Date available: 07/14/2017 Date last updated by company: 07/14/2017
