Source: USDA Branded Food Products Database Release December 2017 Software v.3.8.6.4 2017-10-02
Report Run at: December 16, 2017 23:45 EST
"Nutrient data for: 45170851, APPLE & EVE, FRUITABLES, FRUIT & VEGETABLE JUICE BEVERAGE, FRUIT PUNCH, UPC: 076301776159"
Food Group:  Branded Food Products Database
Common Name:

Nutrient,Unit,Data points,Std. Error,"8.0 OZA = 240.0g",1Value per 100 g,
Proximates
"Energy",kcal,--,--,70,29
"Protein",g,--,--,0.00,0.00
"Total lipid (fat)",g,--,--,0.00,0.00
"Carbohydrate, by difference",g,--,--,16.99,7.08
"Sugars, total",g,--,--,16.01,6.67
Minerals
"Sodium, Na",mg,--,--,24,10
Vitamins
"Vitamin C, total ascorbic acid",mg,--,--,60.0,25.0
"Vitamin A, IU",IU,--,--,499,208
Lipids
Amino Acids
Other
Ingredients
"JUICE FROM CONCENTRATE (FILTERED WATER SUFFICIENT TO RECONSTITUTE APPLE, SWEET POTATO, PEAR, PURPLE CARROT BEET, CARROT, PINEAPPLE, CHERRY AND TOMATO JUICE CONCENTRATES), FILTERED WATER, NATURAL FLAVORS, VEGETABLE COLOR, CITRIC ACID, ASCORBIC ACID (VITAMIN C), VITAMIN A PALMITATE, VITAMIN E ACETATE." Date available: 07/14/2017 Date last updated by company: 07/14/2017
