Source: USDA Branded Food Products Database Release December 2017 Software v.3.8.6.4 2017-10-02
Report Run at: December 16, 2017 23:31 EST
"Nutrient data for: 45053836, APPLE PIE, UPC: 041497102273"
Food Group:  Branded Food Products Database
Common Name:

Nutrient,Unit,Data points,Std. Error,"1 SLICE = 156.0g",1Value per 100 g,
Proximates
"Energy",kcal,--,--,320,205
"Protein",g,--,--,2.00,1.28
"Total lipid (fat)",g,--,--,13.99,8.97
"Carbohydrate, by difference",g,--,--,49.00,31.41
"Fiber, total dietary",g,--,--,3.0,1.9
"Sugars, total",g,--,--,28.00,17.95
Minerals
"Calcium, Ca",mg,--,--,20,13
"Iron, Fe",mg,--,--,0.58,0.37
"Sodium, Na",mg,--,--,279,179
Vitamins
"Vitamin C, total ascorbic acid",mg,--,--,0.0,0.0
"Vitamin A, IU",IU,--,--,0,0
Lipids
"Fatty acids, total saturated",g,--,--,2.995,1.920
"Fatty acids, total trans",g,--,--,4.493,2.880
"Cholesterol",mg,--,--,0,0
Amino Acids
Other
Ingredients
"CRUST: UNBLEACHED WHEAT FLOUR, PARTIALLY HYDROGENATED VEGETABLE SHORTENING (SOYBEAN AND/OR COTTONSEED), WATER, DEXTROSE, SALT, PATENT FLOUR (ENRICHED UNBLEACHED WHEAT FLOUR (NIACIN, REDUCED IRON, THIAMINE MONONITRATE, RIBOFLAVIN, FOLIC ACID), MALTED BARLEY FLOUR), EGG. FILLING: FRESH APPLES, SUGAR, MODIFIED CORN STARCH, CINNAMON, NUTMEG." Date available: 07/07/2017 Date last updated by company: 07/07/2017
