Source: USDA Branded Food Products Database Release December 2017 Software v.3.8.6.4 2017-10-02
Report Run at: December 16, 2017 23:38 EST
"Nutrient data for: 45177547, APPLE CHIPS, UPC: 665730000524"
Food Group:  Branded Food Products Database
Common Name:

Nutrient,Unit,Data points,Std. Error,"0.5 PACKAGE = 25.0g",1Value per 100 g,
Proximates
"Energy",kcal,--,--,100,400
"Protein",g,--,--,1.00,4.00
"Total lipid (fat)",g,--,--,0.00,0.00
"Carbohydrate, by difference",g,--,--,23.00,92.00
"Fiber, total dietary",g,--,--,3.0,12.0
"Sugars, total",g,--,--,19.00,76.00
Minerals
"Calcium, Ca",mg,--,--,20,80
"Iron, Fe",mg,--,--,0.72,2.88
"Sodium, Na",mg,--,--,20,80
Vitamins
"Vitamin C, total ascorbic acid",mg,--,--,7.2,28.8
"Vitamin A, IU",IU,--,--,0,0
Lipids
"Fatty acids, total saturated",g,--,--,0.000,0.000
"Fatty acids, total trans",g,--,--,0.000,0.000
"Cholesterol",mg,--,--,0,0
Amino Acids
Other
Ingredients
"FUJI APPLES, NATURAL CINNAMON FLAVOR" Date available: 07/14/2017 Date last updated by company: 07/14/2017
