Source: USDA Branded Food Products Database Release December 2017 Software v.3.8.6.4 2017-10-02
Report Run at: December 16, 2017 23:22 EST
"Nutrient data for: 45012711, APPLEGATE ORGANICS, SUNDAY BACON, UNCURED, HICKORY SMOKED, UPC: 025317102001"
Food Group:  Branded Food Products Database
Common Name:

Nutrient,Unit,Data points,Std. Error,"2.0 PAN FRIED SLICES = 14.0g",1Value per 100 g,
Proximates
"Energy",kcal,--,--,60,429
"Protein",g,--,--,4.00,28.57
"Total lipid (fat)",g,--,--,5.00,35.71
"Carbohydrate, by difference",g,--,--,0.00,0.00
"Fiber, total dietary",g,--,--,0.0,0.0
"Sugars, total",g,--,--,0.00,0.00
Minerals
"Sodium, Na",mg,--,--,290,2071
Vitamins
Lipids
"Fatty acids, total saturated",g,--,--,2.001,14.290
"Fatty acids, total trans",g,--,--,0.000,0.000
"Cholesterol",mg,--,--,10,71
Amino Acids
Other
Ingredients
"ORGANIC PORK*, WATER, SEA SALT. CONTAINS LESS THAN 2% OF THE FOLLOWING: ORGANIC CANE SUGAR, CELERY POWDER." Date available: 06/25/2017 Date last updated by company: 06/25/2017
