Source: USDA Branded Food Products Database Release December 2017 Software v.3.8.6.4 2017-10-02
Report Run at: December 16, 2017 23:47 EST
"Nutrient data for: 45002943, APPLEGATE NATURALS, CHICKEN & APPLE BREAKFAST SAUSAGE, UPC: 025317006958"
Food Group:  Branded Food Products Database
Common Name:

Nutrient,Unit,Data points,Std. Error,"3.0 LINKS = 59.0g",1Value per 100 g,
Proximates
"Energy",kcal,--,--,120,203
"Protein",g,--,--,10.00,16.95
"Total lipid (fat)",g,--,--,7.00,11.86
"Carbohydrate, by difference",g,--,--,3.00,5.08
"Fiber, total dietary",g,--,--,0.0,0.0
"Sugars, total",g,--,--,2.00,3.39
Minerals
"Calcium, Ca",mg,--,--,0,0
"Iron, Fe",mg,--,--,0.34,0.57
"Sodium, Na",mg,--,--,340,576
Vitamins
"Vitamin C, total ascorbic acid",mg,--,--,0.0,0.0
"Vitamin A, IU",IU,--,--,0,0
Lipids
"Fatty acids, total saturated",g,--,--,2.000,3.390
"Fatty acids, total trans",g,--,--,0.000,0.000
"Cholesterol",mg,--,--,40,68
Amino Acids
Other
Ingredients
"CHICKEN****, DRIED APPLES, WATER, CONTAINS LESS THAN 2% OF THE FOLLOWING: HONEY, SALT, SPICES, PARSLEY." Date available: 07/14/2017 Date last updated by company: 07/14/2017
