Source: USDA Branded Food Products Database Release December 2017 Software v.3.8.6.4 2017-10-02
Report Run at: December 16, 2017 23:26 EST
"Nutrient data for: 45142344, APPLE JUICE, UPC: 021130094325"
Food Group:  Branded Food Products Database
Common Name:

Nutrient,Unit,Data points,Std. Error,"8.0 FL OZ (240 ML) O F APPLE JUICE | MAKES = 60.0g",1Value per 100 g,
Proximates
"Energy",kcal,--,--,120,200
"Protein",g,--,--,0.00,0.00
"Total lipid (fat)",g,--,--,0.00,0.00
"Carbohydrate, by difference",g,--,--,29.00,48.33
"Sugars, total",g,--,--,26.00,43.33
Minerals
"Sodium, Na",mg,--,--,10,17
Vitamins
"Vitamin C, total ascorbic acid",mg,--,--,72.0,120.0
Lipids
"Fatty acids, total saturated",g,--,--,0.000,0.000
"Fatty acids, total trans",g,--,--,0.000,0.000
Amino Acids
Other
Ingredients
"APPLE JUICE CONCENTRATE, WATER, ASCORBIC ACID (VITAMIN C)." Date available: 07/14/2017 Date last updated by company: 07/14/2017
