Source: USDA Branded Food Products Database Release December 2017 Software v.3.8.6.4 2017-10-02
Report Run at: December 16, 2017 23:42 EST
"Nutrient data for: 45205333, APPLE & CINNAMON PHYLLO SWIRLS, UPC: 075365067920"
Food Group:  Branded Food Products Database
Common Name:

Nutrient,Unit,Data points,Std. Error,"1 SWIRL = 57.0g",1Value per 100 g,
Proximates
"Energy",kcal,--,--,120,211
"Protein",g,--,--,3.00,5.26
"Total lipid (fat)",g,--,--,1.50,2.63
"Carbohydrate, by difference",g,--,--,24.00,42.11
"Fiber, total dietary",g,--,--,1.0,1.8
"Sugars, total",g,--,--,6.00,10.53
Minerals
"Calcium, Ca",mg,--,--,0,0
"Iron, Fe",mg,--,--,1.61,2.83
"Sodium, Na",mg,--,--,190,333
Vitamins
"Vitamin C, total ascorbic acid",mg,--,--,13.4,23.5
"Vitamin A, IU",IU,--,--,0,0
Lipids
"Fatty acids, total saturated",g,--,--,0.000,0.000
"Fatty acids, total trans",g,--,--,0.000,0.000
"Cholesterol",mg,--,--,0,0
Amino Acids
Other
Ingredients
"PASTRY: UNBLEACHED WHEAT FLOUR, FILTERED WATER, SUNFLOWER OIL, MODIFIED PALM OIL, SUGAR, SEA SALT, YEAST, WHEAT STARCH. FILLING: APPLES (ASCORBIC ACID), SUGAR, WATER, CORN STARCH, SODIUM CITRATE, ASCORBIC ACID, CINNAMON, GELLAN GUM." Date available: 07/14/2017 Date last updated by company: 07/14/2017
