Source: USDA Branded Food Products Database Release December 2017 Software v.3.8.6.4 2017-10-02
Report Run at: December 17, 2017 00:04 EST
"Nutrient data for: 45185242, AQUA STAR, SWORDFISH STEAKS, UPC: 731149816572"
Food Group:  Branded Food Products Database
Common Name:

Nutrient,Unit,Data points,Std. Error,"4.0 ONZ = 113.0g",1Value per 100 g,
Proximates
"Energy",kcal,--,--,140,124
"Protein",g,--,--,22.00,19.47
"Total lipid (fat)",g,--,--,4.50,3.98
"Carbohydrate, by difference",g,--,--,0.00,0.00
"Fiber, total dietary",g,--,--,0.0,0.0
"Sugars, total",g,--,--,0.00,0.00
Minerals
"Calcium, Ca",mg,--,--,0,0
"Iron, Fe",mg,--,--,1.08,0.96
"Sodium, Na",mg,--,--,99,88
Vitamins
"Vitamin C, total ascorbic acid",mg,--,--,1.2,1.1
"Vitamin A, IU",IU,--,--,99,88
Lipids
"Fatty acids, total saturated",g,--,--,0.994,0.880
"Fatty acids, total trans",g,--,--,0.000,0.000
"Cholesterol",mg,--,--,45,40
Amino Acids
Other
Ingredients
"SWORDFISH STEAKS" Date available: 10/12/2016 Date last updated by company: 10/12/2016
