Source: USDA Branded Food Products Database Release December 2017 Software v.3.8.6.4 2017-10-02
Report Run at: December 17, 2017 00:05 EST
"Nutrient data for: 45187623, ARAMOUNI'S, GREEK TZADZIKI DIP, UPC: 825306011655"
Food Group:  Branded Food Products Database
Common Name:

Nutrient,Unit,Data points,Std. Error,"1 ONZ = 28.0g",1Value per 100 g,
Proximates
"Energy",kcal,--,--,30,107
"Protein",g,--,--,2.00,7.14
"Total lipid (fat)",g,--,--,2.00,7.14
"Carbohydrate, by difference",g,--,--,3.00,10.71
"Fiber, total dietary",g,--,--,0.0,0.0
"Sugars, total",g,--,--,1.00,3.57
Minerals
"Calcium, Ca",mg,--,--,20,71
"Iron, Fe",mg,--,--,0.64,2.29
"Sodium, Na",mg,--,--,24,86
Vitamins
"Vitamin C, total ascorbic acid",mg,--,--,2.2,7.7
"Vitamin A, IU",IU,--,--,0,0
Lipids
"Fatty acids, total saturated",g,--,--,1.000,3.570
"Fatty acids, total trans",g,--,--,0.000,0.000
"Cholesterol",mg,--,--,3,11
Amino Acids
Other
Ingredients
"YOGURT (CULTURED PASTEURIZED GRADE A NON-FAT MILK, CREAM, WHEY PROTEIN, (CONTAINS MILK)), GARLIC, SKIM MILK, CUCUMBER, DILL, MINT, SPICES, SALT." Date available: 07/14/2017 Date last updated by company: 07/14/2017
