Source: USDA Branded Food Products Database Release December 2017 Software v.3.8.6.4 2017-10-02
Report Run at: December 17, 2017 00:07 EST
"Nutrient data for: 45144342, ARCHER FARMS, CRISP RICE MARSHMALLOW BITES, DARK CHOCOLATE SEA SALT CARAMEL, UPC: 085239176955"
Food Group:  Branded Food Products Database
Common Name:

Nutrient,Unit,Data points,Std. Error,"5.0 PIECES = 43.0g",1Value per 100 g,
Proximates
"Energy",kcal,--,--,190,442
"Protein",g,--,--,1.00,2.33
"Total lipid (fat)",g,--,--,10.00,23.26
"Carbohydrate, by difference",g,--,--,27.00,62.79
"Fiber, total dietary",g,--,--,1.0,2.3
"Sugars, total",g,--,--,19.00,44.19
Minerals
"Calcium, Ca",mg,--,--,20,47
"Iron, Fe",mg,--,--,0.84,1.95
"Sodium, Na",mg,--,--,70,163
Vitamins
"Vitamin C, total ascorbic acid",mg,--,--,0.0,0.0
"Vitamin A, IU",IU,--,--,117,271
Lipids
"Fatty acids, total saturated",g,--,--,5.998,13.950
"Fatty acids, total trans",g,--,--,0.000,0.000
"Cholesterol",mg,--,--,5,12
Amino Acids
Other
Ingredients
"DARK CHOCOLATE (SUGAR, CHOCOLATE LIQUOR PROCESSED WITH ALKALI, COCOA BUTTER, MILK FAT, SOY LECITHIN, VANILLA), CARAMEL (CORN SYRUP, SUGAR, PALM OIL, SWEETENED CONDENSED MILK [MILK, SUGAR], EVAPORATED MILK [MILK, DIPOTASSIUM PHOSPHATE, CARRAGEENAN, VITAMIN D3], NATURAL FLAVOR, VANILLA, CARAMEL COLOR), MARSHMALLOW CREME (CORN SYRUP, SUGAR, EGG WHITES, VANILLIN, CREAM OF TARTAR, XANTHAN GUM, BLUE 1), MARSHMALLOW (CORN SYRUP, MODIFIED CORNSTARCH, SUGAR, GELATIN, TETRASODIUM PYROPHOSPHATE), CRISP RICE (RICE FLOUR, SUGAR BARLEY MALT EXTRACT, SALT, DISTILLED MONOGLYCERIDES, PARTIALLY HYDROGENATED VEGETABLE OIL [COTTONSEED AND SOYBEAN], RICE EXTRACT), BUTTER (CREAM, SALT) WHITE CHOCOLATE (SUGAR, COCOA BUTTER, MILK, SOY LECITHIN, VANILLA), SEA SALT." Date available: 07/14/2017 Date last updated by company: 07/14/2017
