Source: USDA Branded Food Products Database Release December 2017 Software v.3.8.6.4 2017-10-02
Report Run at: December 17, 2017 00:09 EST
"Nutrient data for: 45050454, ARCHER FARMS, RED VELVET CUPCAKE MIX, UPC: 085239941621"
Food Group:  Branded Food Products Database
Common Name:

Nutrient,Unit,Data points,Std. Error,"0.083 DRY MIX (79G PREPARED) = 42.0g",1Value per 100 g,
Proximates
"Energy",kcal,--,--,160,381
"Protein",g,--,--,2.00,4.76
"Total lipid (fat)",g,--,--,1.00,2.38
"Carbohydrate, by difference",g,--,--,36.00,85.71
"Fiber, total dietary",g,--,--,1.0,2.4
"Sugars, total",g,--,--,27.00,64.29
Minerals
"Calcium, Ca",mg,--,--,20,48
"Iron, Fe",mg,--,--,0.68,1.63
"Sodium, Na",mg,--,--,190,452
Vitamins
"Vitamin C, total ascorbic acid",mg,--,--,0.0,0.0
"Vitamin A, IU",IU,--,--,0,0
Lipids
"Fatty acids, total saturated",g,--,--,1.000,2.380
"Fatty acids, total trans",g,--,--,0.000,0.000
"Cholesterol",mg,--,--,0,0
Amino Acids
Other
Ingredients
"ENRICHED WHEAT FLOUR (BLEACHED WHEAT FLOUR, ENZYME, NIACIN, IRON, THIAMIN MONONIRATE, RIBOFLAVIN, FOLIC ACID), SUGAR, WHITE CHOCOLATE CHIPS (SUGAR, COCOA BUTTER, WHOLE MILK POWDER, NONFAT DRY MILK, MILKFAT, SOY LECITHIN, NATURAL VANILLA EXTRACT), ALKALIZED COCOA POWDER, BUTTERMILK POWDER, BAKING POWDER (SODIUM ACID PYROPHOSPHATE, SODIUM BICARBONATE, CORN STARCH, MONOCALCIUM PHOSPHATE), SALT, NATURAL VANILLA FLAVOR, RED 40. FROSTING MIX: POWDERED SUGAR (SUGAR, CORN STARCH), NATURAL VANILLA FLAVOR, DRIED VANILLA BEAN PIECES." Date available: 06/25/2017 Date last updated by company: 06/25/2017
