Source: USDA Branded Food Products Database Release December 2017 Software v.3.8.6.4 2017-10-02
Report Run at: December 17, 2017 00:07 EST
"Nutrient data for: 45157538, ARCHER FARMS, CHICKEN BREASTS IN A PARMESAN BREADING, UPC: 085239227039"
Food Group:  Branded Food Products Database
Common Name:

Nutrient,Unit,Data points,Std. Error,"1 PIECE = 249.0g",1Value per 100 g,
Proximates
"Energy",kcal,--,--,481,193
"Protein",g,--,--,55.00,22.09
"Total lipid (fat)",g,--,--,20.99,8.43
"Carbohydrate, by difference",g,--,--,13.99,5.62
"Fiber, total dietary",g,--,--,1.0,0.4
"Sugars, total",g,--,--,1.00,0.40
Minerals
"Calcium, Ca",mg,--,--,249,100
"Iron, Fe",mg,--,--,0.92,0.37
"Sodium, Na",mg,--,--,740,297
Vitamins
"Vitamin C, total ascorbic acid",mg,--,--,1.2,0.5
"Vitamin A, IU",IU,--,--,35,14
Lipids
"Fatty acids, total saturated",g,--,--,11.006,4.420
"Fatty acids, total trans",g,--,--,0.000,0.000
"Cholesterol",mg,--,--,129,52
Amino Acids
Other
Ingredients
"CHICKEN, PARMESAN BREADING (PARMESAN CHEESE [PASTEURIZED CULTURED COW'S MILK, SALT, ENZYMES], WHEAT FLOUR, BREAD CRUMBS [WHEAT FLOUR, SUGAR, YEAST, SALT], GARLIC, ONION, SPICES, SALT, PAPRIKA), PALM SHORTENING, FLOUR (BLEACHED WHEAT FLOUR, MALTED BARLEY FLOUR, NIACIN, REDUCED IRON, THIAMINE MONONITRATE, RIBOFLAVIN, FOLIC ACID), SHREDDED PARMESAN CHEESE (PASTEURIZED CULTURED COW'S MILK, SALT, ENZYMES), SEASONING (SALT, GARLIC, SUGAR, SPICES, ONION)." Date available: 08/07/2017 Date last updated by company: 08/07/2017
