Source: USDA Branded Food Products Database Release December 2017 Software v.3.8.6.4 2017-10-02
Report Run at: December 17, 2017 00:07 EST
"Nutrient data for: 45177513, ARCHER FARMS, CHEESECAKE SAMPLER, ORIGINAL, UPC: 085239301241"
Food Group:  Branded Food Products Database
Common Name:

Nutrient,Unit,Data points,Std. Error,"1 PIECE = 125.0g",1Value per 100 g,
Proximates
"Energy",kcal,--,--,380,304
"Protein",g,--,--,6.00,4.80
"Total lipid (fat)",g,--,--,19.00,15.20
"Carbohydrate, by difference",g,--,--,53.00,42.40
"Fiber, total dietary",g,--,--,2.0,1.6
"Sugars, total",g,--,--,35.00,28.00
Minerals
"Calcium, Ca",mg,--,--,40,32
"Iron, Fe",mg,--,--,0.72,0.58
"Sodium, Na",mg,--,--,410,328
Vitamins
"Vitamin C, total ascorbic acid",mg,--,--,0.0,0.0
"Vitamin A, IU",IU,--,--,100,80
Lipids
"Fatty acids, total saturated",g,--,--,11.000,8.800
"Fatty acids, total trans",g,--,--,0.000,0.000
"Cholesterol",mg,--,--,75,60
Amino Acids
Other
Ingredients
"GRARAM CRACKERS (UNBLEACHED UNRICHED WHEAT FLOUR, GRAHAM FLOUR, SUGAR, PALM AND PALM KERNEL OIL, MOLASSES, HONEY, SALT, SODIUM BICARBONATE), SOUR CREAM (CULTURED CREAM, FOOD STARCH-MODIFIED, SODIUM PHOSPHATE, GUAR GUM, CARRAGEENAN, LOCUST BEAN GUM, POTASSIUM SORBATE), CHOCOLATE COOKIE (SUGAR, ENRICHED FLOUR [WHEAT FLOUR, NIACIN, REDUCED IRON, THIAMINE MONONITRATE, RIBOFLAVIN, FOLIC ACID], VEGETABLE OIL SHORTENING (PARTIALLY HYDROGENATED SOYBEAN, AND/OR COTTONSEED OIL), COCOA PROCESSED WITH ALKALI, HIGH FRUCTOSE CORN SYRUP, CORN FLOUR, SALT, DEXTROSE, SODIUM BICARBONATE, SOY LECITHIN NATURAL FLAVOR), MARGARINE (PALM OIL, WATER, SALT, MONO AND DIGLYCERIDES, ARTIFICIAL FLAVOR ANNATTO [COLOR], CALCIUM DISODIUM EDTA, VITAMIN A PALMITATE ADDED), WATER, CORNSTARCH, BROWN SUGAR, VANILLA, STRAWBERRIES, COCOA POWDER, LEMON JUICE, WHITE CHOCOLATE (SUGAR COCOA BUTTER, WHOLE MILK POWDER, NONFAT DRY MILK, BUTTER OIL, SOY LECITHIN, VANILLA EXTRACT), SEMI-SWEET CHOCOLATE (SUGAR, CHOCOLATE LIQUOR, COCOA BUTTER, SOY LECITHIN VANILLA), WATER, CONCENTRATED ORANGE JUICE, STRAWBERRY FLAVOR ( WATER, SUGAR, PROPYLENE GLYCOL, CITRIC ACID, ALCOHOL, MALIC ACID, NATURAL AND ARTIFICIAL STRAWBERRY FLAVOR), SWEET COCOA AND VEGETABLE FAT COATING (SUGAR, PARTIALLY HYDROGENATED PALM KERNEL OIL, COCOA PROCESSED WITH ALKALI, BUTTERMILK, COCOA, MILKFAT, HYDROGENATED PALM OIL, SORBITAN MONOSTEARATE, SOY LECITHIN, POLYSORBATE 60, NATURAL AND ARTIFICIAL FLAVORS), HEAVY CREAM (HEAVY CREAM, CARRGEENAN, MONO AND DIGLYCERIDES), CINNAMON, RED 40, COCOA PROCESSED WITH ALKALI, SALT, GLUCOSE, CORN SYRUP, SOY LECITHIN." Date available: 07/14/2017 Date last updated by company: 07/14/2017
