Source: USDA Branded Food Products Database Release December 2017 Software v.3.8.6.4 2017-10-02
Report Run at: December 17, 2017 00:10 EST
"Nutrient data for: 45223583, ARCHWAY, COOKIE THINS SUGAR COOKIE, UPC: 027500095770"
Food Group:  Branded Food Products Database
Common Name:

Nutrient,Unit,Data points,Std. Error,"8.0 COOKIES = 31.0g",1Value per 100 g,
Proximates
"Energy",kcal,--,--,140,452
"Protein",g,--,--,1.00,3.23
"Total lipid (fat)",g,--,--,5.00,16.13
"Carbohydrate, by difference",g,--,--,23.00,74.19
"Fiber, total dietary",g,--,--,0.0,0.0
"Sugars, total",g,--,--,13.00,41.94
Minerals
"Calcium, Ca",mg,--,--,0,0
"Iron, Fe",mg,--,--,0.00,0.00
"Sodium, Na",mg,--,--,125,403
Vitamins
"Vitamin C, total ascorbic acid",mg,--,--,0.0,0.0
"Vitamin A, IU",IU,--,--,322,1040
Lipids
"Fatty acids, total saturated",g,--,--,3.500,11.290
"Fatty acids, total monounsaturated",g,--,--,1.001,3.230
"Fatty acids, total polyunsaturated",g,--,--,0.000,0.000
"Fatty acids, total trans",g,--,--,0.000,0.000
"Cholesterol",mg,--,--,30,97
Amino Acids
Other
Ingredients
"SUGAR, GLUTEN FREE FLEX FLOUR (RICE FLOUR, RICE STARCH, POTATO STARCH, XANTHAN GUM, LOCUST BEAN GUM), BUTTER (PASTEURIZED SWEET CREAM, SALT), WHOLE EGGS, SALT, BAKING SODA, VANILLA EXTRACT, SOY LECITHIN." Date available: 07/14/2017 Date last updated by company: 07/14/2017
