Source: USDA Branded Food Products Database Release December 2017 Software v.3.8.6.4 2017-10-02
Report Run at: December 17, 2017 00:07 EST
"Nutrient data for: 45067263, ARCHER FARMS, CHOCOLATE PEPPERMINT COOKIE MIX, UPC: 085239124710"
Food Group:  Branded Food Products Database
Common Name:

Nutrient,Unit,Data points,Std. Error,"0.042 DRY MIX, 1 COOKIE PREPARED (24G) = 17.0g",1Value per 100 g,
Proximates
"Energy",kcal,--,--,60,353
"Protein",g,--,--,1.00,5.88
"Total lipid (fat)",g,--,--,0.00,0.00
"Carbohydrate, by difference",g,--,--,15.00,88.24
"Fiber, total dietary",g,--,--,1.0,5.9
"Sugars, total",g,--,--,9.00,52.94
Minerals
"Calcium, Ca",mg,--,--,0,0
"Iron, Fe",mg,--,--,1.69,9.96
"Sodium, Na",mg,--,--,50,294
Vitamins
"Vitamin C, total ascorbic acid",mg,--,--,0.0,0.0
"Vitamin A, IU",IU,--,--,0,0
Lipids
"Fatty acids, total saturated",g,--,--,0.000,0.000
"Fatty acids, total trans",g,--,--,0.000,0.000
"Cholesterol",mg,--,--,0,0
Amino Acids
Other
Ingredients
"INGREDIENTS: COOKIE MIX: ENRICHED WHEAT FLOUR (BLEACHED WHEAT FLOUR,ENZYME, NIACIN,IRON, THIAMINE, MONONITRATE, FOLIC ACID), RIBOFLAVIN, SUGAR, LIGHT BROWN SUGAR, ALKALIZED COCO POWDER, SODIUM BICORBANATE,SALT, NATURAL PEPPERMINT FLAVOR. CRUSHED CANDY: SUGAR, CORN SYRUP, PURE PEPPERMINT OIL FD&C RED NO. 40." Date available: 06/24/2017 Date last updated by company: 06/24/2017
