Source: USDA Branded Food Products Database Release December 2017 Software v.3.8.6.4 2017-10-02
Report Run at: December 17, 2017 00:08 EST
"Nutrient data for: 45207113, ARCHER FARMS, PAD THAI STIR-FRY SAUCE, UPC: 085239300732"
Food Group:  Branded Food Products Database
Common Name:

Nutrient,Unit,Data points,Std. Error,"0.25 cup = 67.0g",1Value per 100 g,
Proximates
"Energy",kcal,--,--,90,134
"Protein",g,--,--,1.00,1.49
"Total lipid (fat)",g,--,--,3.00,4.48
"Carbohydrate, by difference",g,--,--,16.00,23.88
"Sugars, total",g,--,--,12.00,17.91
Minerals
"Calcium, Ca",mg,--,--,100,149
"Iron, Fe",mg,--,--,1.22,1.82
"Sodium, Na",mg,--,--,410,612
Vitamins
Lipids
Amino Acids
Other
Ingredients
"WATER, MOLASSES, SUGAR, SOY SAUCE (WATER, SOYBEANS, WHEAT, SALT), MODIFIED CORN STARCH, CANOLA OIL, DISTILLED VINEGAR, CONTAINS 2% OR LESS OF: ONION, GARLIC, LIME JUICE CONCENTRATE, ROASTED SESAME OIL, RED JALAPENO PEPPER PUREE (RED JALAPENO PEPPERS, SALT, ACETIC ACID, CALCIUM CHLORIDE), SALT, LEMONGRASS, CHILI PEPPER." Date available: 07/14/2017 Date last updated by company: 07/14/2017
