Source: USDA Branded Food Products Database Release December 2017 Software v.3.8.6.4 2017-10-02
Report Run at: December 17, 2017 00:12 EST
"Nutrient data for: 45031437, ARCTIC ZERO, FIT FROZEN DESSERT, BUTTERY PECAN, UPC: 852244003343"
Food Group:  Branded Food Products Database
Common Name:

Nutrient,Unit,Data points,Std. Error,"0.5 cup = 70.0g",1Value per 100 g,
Proximates
"Energy",kcal,--,--,75,107
"Protein",g,--,--,3.00,4.29
"Total lipid (fat)",g,--,--,2.50,3.57
"Carbohydrate, by difference",g,--,--,9.00,12.86
"Fiber, total dietary",g,--,--,3.0,4.3
"Sugars, total",g,--,--,6.00,8.57
Minerals
"Calcium, Ca",mg,--,--,0,0
"Iron, Fe",mg,--,--,0.62,0.88
"Sodium, Na",mg,--,--,105,150
Vitamins
"Vitamin C, total ascorbic acid",mg,--,--,0.0,0.0
"Vitamin A, IU",IU,--,--,0,0
Lipids
"Fatty acids, total saturated",g,--,--,0.000,0.000
"Fatty acids, total trans",g,--,--,0.000,0.000
"Cholesterol",mg,--,--,5,7
Amino Acids
Other
Ingredients
"PURIFIED WATER, WHEY PROTEIN CONCENTRATE (MILK), ORGANIC CANE SUGAR, CHICORY ROOT, SUGARCANE FIBER, CANDIED PECANS [PECANS, CANE SUGAR, SALT], GUAR GUM, XANTHAN GUM, NATURAL FLAVORS, SEA SALT, MONK FRUIT CONCENTRATE." Date available: 07/14/2017 Date last updated by company: 07/14/2017
