Source: USDA Branded Food Products Database Release December 2017 Software v.3.8.6.4 2017-10-02
Report Run at: December 17, 2017 00:23 EST
"Nutrient data for: 45032560, ARNOLD, BAKERY LIGHT, 100% WHOLE WHEAT BREAD, UPC: 073410012604"
Food Group:  Branded Food Products Database
Common Name:

Nutrient,Unit,Data points,Std. Error,"2.0 SLICES = 42.0g",1Value per 100 g,
Proximates
"Energy",kcal,--,--,80,190
"Protein",g,--,--,5.00,11.90
"Total lipid (fat)",g,--,--,1.00,2.38
"Carbohydrate, by difference",g,--,--,17.00,40.48
"Fiber, total dietary",g,--,--,5.0,11.9
"Sugars, total",g,--,--,2.00,4.76
Minerals
"Calcium, Ca",mg,--,--,40,95
"Iron, Fe",mg,--,--,0.86,2.04
"Sodium, Na",mg,--,--,160,381
Vitamins
"Vitamin C, total ascorbic acid",mg,--,--,0.0,0.0
"Vitamin A, IU",IU,--,--,0,0
Lipids
"Fatty acids, total saturated",g,--,--,0.000,0.000
"Fatty acids, total monounsaturated",g,--,--,0.000,0.000
"Fatty acids, total polyunsaturated",g,--,--,0.000,0.000
"Fatty acids, total trans",g,--,--,0.000,0.000
"Cholesterol",mg,--,--,0,0
Amino Acids
Other
Ingredients
"WHOLE WHEAT FLOUR, WATER, CELLULOSE FIBER, WHEAT GLUTEN, SUGAR, YEAST, SALT, WHEAT BRAN, MOLASSES, CALCIUM PROPIONATE (PRESERVATIVE), MONO-AND DIGLYCERIDES, DATEM, GRAIN VINEGAR, SOYBEAN OIL, CALCIUM SULFATE, ETHOXYLATED MONO-AND DIGLYCERIDES, NATURAL FLAVOR, SOY LECITHIN, CITRIC ACID, SUCRALOSE, SOY FLOUR." Date available: 07/14/2017 Date last updated by company: 07/14/2017
