Source: USDA Branded Food Products Database Release December 2017 Software v.3.8.6.4 2017-10-02
Report Run at: December 17, 2017 00:24 EST
"Nutrient data for: 45216444, ARNOLD PALMER HALF & HALF ICED TEA LEMONADE, UPC: 613008736958"
Food Group:  Branded Food Products Database
Common Name:

Nutrient,Unit,Data points,Std. Error,"1 CAN = 340.0g",1Value per 100 g,
Proximates
"Energy",kcal,--,--,82,24
"Protein",g,--,--,0.00,0.00
"Total lipid (fat)",g,--,--,0.00,0.00
"Carbohydrate, by difference",g,--,--,21.01,6.18
"Fiber, total dietary",g,--,--,0.0,0.0
"Sugars, total",g,--,--,19.01,5.59
Minerals
"Calcium, Ca",mg,--,--,0,0
"Iron, Fe",mg,--,--,0.00,0.00
"Sodium, Na",mg,--,--,14,4
Vitamins
"Vitamin C, total ascorbic acid",mg,--,--,16.0,4.7
"Vitamin A, IU",IU,--,--,0,0
Lipids
"Fatty acids, total saturated",g,--,--,0.000,0.000
"Fatty acids, total trans",g,--,--,0.000,0.000
"Cholesterol",mg,--,--,0,0
Amino Acids
Other
Ingredients
"PREMIUM BREWED BLEND OF BLACK TEAS USING FILTERED WATER, HIGH FRUCTOSE CORN SYRUP (GLUCOSE-FRUCTOSE SYRUP), LEMON JUICE FROM CONCENTRATE, PEAR JUICE FROM CONCENTRATE CITRIC ACID, ASCORBIC ACID (VITAMIN C), NATURAL FLAVORS, SUCRALOSE (SPLENDA BRAND), ACESULFAME POTASSIUM, GUM ACACIA." Date available: 07/14/2017 Date last updated by company: 07/14/2017
