Source: USDA Branded Food Products Database Release December 2017 Software v.3.8.6.4 2017-10-02
Report Run at: December 17, 2017 00:24 EST
"Nutrient data for: 45094719, ARNOTT'S, CHEWY CARAMEL, UPC: 9310072024035"
Food Group:  Branded Food Products Database
Common Name:

Nutrient,Unit,Data points,Std. Error,"2.0 BISCUITS = 39.0g",1Value per 100 g,
Proximates
"Energy",kcal,--,--,190,487
"Protein",g,--,--,2.00,5.13
"Total lipid (fat)",g,--,--,8.00,20.51
"Carbohydrate, by difference",g,--,--,27.00,69.23
"Fiber, total dietary",g,--,--,1.0,2.6
"Sugars, total",g,--,--,18.00,46.15
Minerals
"Calcium, Ca",mg,--,--,40,103
"Iron, Fe",mg,--,--,0.46,1.18
"Sodium, Na",mg,--,--,65,167
Vitamins
"Vitamin C, total ascorbic acid",mg,--,--,6.2,15.8
"Vitamin A, IU",IU,--,--,128,328
Lipids
"Fatty acids, total saturated",g,--,--,4.501,11.540
"Fatty acids, total trans",g,--,--,0.000,0.000
"Cholesterol",mg,--,--,5,13
Amino Acids
Other
Ingredients
"SUGAR, WHEAT FLOUR, CARAMEL (15.5%) (SUGAR, CONDENSED MILK (MILK, SUGAR), WATER, BUTTER (FROM MILK), GLUCOSE (FORM WHEAT), GLYCEROL, EMULSIFIERS (MONO-AND DI-GLYCERIDES OF FATTY ACIDS, SOY LECITHIN), ANTIOXIDANT (MIXED TOCOPHEROL), ARTIFICIAL FLAVOR, SALT), VEGETABLE OIL (PALM AND HYDROGENATED PALM OIL), MILK SOLIDS, COCOA BUTTER, CHOCOLATE LIQUOR, GOLDEN SYRUP, COLOURS (CARAMEL (FROM WHEAT), BEET POWDER, COCHINEAL EXTRACT, ANNATTO EXTRACT), EMULSIFIERS (SOY LECITHIN, POLYGLYCEROL POLYRICINOLEATE), COCOA POWDER, SALT, BAKING POWDER, ARTIFICIAL FLAVOUR." Date available: 06/25/2017 Date last updated by company: 06/25/2017
