Source: USDA Branded Food Products Database Release December 2017 Software v.3.8.6.4 2017-10-02
Report Run at: December 17, 2017 00:25 EST
"Nutrient data for: 45057328, AROMATIC SPICE BLENDS, RELISH, CRANBERRY ORANGE GINGER, UPC: 859361005007"
Food Group:  Branded Food Products Database
Common Name:

Nutrient,Unit,Data points,Std. Error,"1 Tbsp = 15.0g",1Value per 100 g,
Proximates
"Energy",kcal,--,--,15,100
"Protein",g,--,--,0.00,0.00
"Total lipid (fat)",g,--,--,0.00,0.00
"Carbohydrate, by difference",g,--,--,4.00,26.67
"Sugars, total",g,--,--,4.00,26.67
Minerals
"Sodium, Na",mg,--,--,15,100
Vitamins
"Vitamin C, total ascorbic acid",mg,--,--,8.0,53.3
Lipids
Amino Acids
Other
Ingredients
"NON-GMO CRANBERRIES, ORGANIC CANE SUGAR, ORGANIC ORANGE JUICE, ORGANIC FRESH GINGER, ORANGE PEEL, SEA SALT & ORGANIC SPICES." Date available: 07/14/2017 Date last updated by company: 07/14/2017
