Source: USDA Branded Food Products Database Release December 2017 Software v.3.8.6.4 2017-10-02
Report Run at: December 17, 2017 00:26 EST
"Nutrient data for: 45257676, ARRABBIATA SAUCE, UPC: 091037866202"
Food Group:  Branded Food Products Database
Common Name:

Nutrient,Unit,Data points,Std. Error,"0.5 cup = 127.0g",1Value per 100 g,
Proximates
"Energy",kcal,--,--,90,71
"Protein",g,--,--,1.99,1.57
"Total lipid (fat)",g,--,--,7.00,5.51
"Carbohydrate, by difference",g,--,--,7.00,5.51
"Fiber, total dietary",g,--,--,2.0,1.6
"Sugars, total",g,--,--,4.00,3.15
Minerals
"Calcium, Ca",mg,--,--,39,31
"Iron, Fe",mg,--,--,1.14,0.90
"Sodium, Na",mg,--,--,250,197
Vitamins
"Vitamin C, total ascorbic acid",mg,--,--,3.8,3.0
"Vitamin A, IU",IU,--,--,423,333
Lipids
"Fatty acids, total saturated",g,--,--,1.003,0.790
"Fatty acids, total trans",g,--,--,0.000,0.000
"Cholesterol",mg,--,--,0,0
Amino Acids
Other
Ingredients
"TOMATO PUREE (WATER, TOMATO PASTE), TOMATOES, EXTRA VIRGIN OLIVE OIL, FRESH HOT PEPPERS, FRESH GARLIC, FRESH BASIL, SALT, SPICES." Date available: 07/14/2017 Date last updated by company: 07/14/2017
