Source: USDA Branded Food Products Database Release December 2017 Software v.3.8.6.4 2017-10-02
Report Run at: December 17, 2017 00:48 EST
"Nutrient data for: 45269504, ARTISIANAL PASTA, SPAGHETTI, UPC: 857920003006"
Food Group:  Branded Food Products Database
Common Name:

Nutrient,Unit,Data points,Std. Error,"0.25 PACKAGE = 71.0g",1Value per 100 g,
Proximates
"Energy",kcal,--,--,193,272
"Protein",g,--,--,7.00,9.86
"Total lipid (fat)",g,--,--,1.00,1.41
"Carbohydrate, by difference",g,--,--,41.00,57.75
"Fiber, total dietary",g,--,--,2.0,2.8
"Sugars, total",g,--,--,1.00,1.41
Minerals
"Calcium, Ca",mg,--,--,100,141
"Iron, Fe",mg,--,--,3.55,5.00
"Sodium, Na",mg,--,--,15,21
Vitamins
"Vitamin C, total ascorbic acid",mg,--,--,0.0,0.0
"Vitamin A, IU",IU,--,--,0,0
Lipids
"Fatty acids, total saturated",g,--,--,0.000,0.000
"Fatty acids, total trans",g,--,--,0.000,0.000
"Cholesterol",mg,--,--,0,0
Amino Acids
Other
Ingredients
"DURUM WHEAT SEMOLINA, WATER." Date available: 07/14/2017 Date last updated by company: 07/14/2017
