Source: USDA Branded Food Products Database Release December 2017 Software v.3.8.6.4 2017-10-02
Report Run at: December 17, 2017 00:33 EST
"Nutrient data for: 45199592, ARTICHOKE MARINARA PIZZA AND COOKING SAUCE, UPC: 616806681635"
Food Group:  Branded Food Products Database
Common Name:

Nutrient,Unit,Data points,Std. Error,"0.5 cup = 123.0g",1Value per 100 g,
Proximates
"Energy",kcal,--,--,90,73
"Protein",g,--,--,2.00,1.63
"Total lipid (fat)",g,--,--,5.01,4.07
"Carbohydrate, by difference",g,--,--,8.00,6.50
"Fiber, total dietary",g,--,--,2.0,1.6
"Sugars, total",g,--,--,5.01,4.07
Minerals
"Calcium, Ca",mg,--,--,20,16
"Iron, Fe",mg,--,--,0.76,0.62
"Sodium, Na",mg,--,--,510,415
Vitamins
"Vitamin C, total ascorbic acid",mg,--,--,25.3,20.6
"Vitamin A, IU",IU,--,--,529,430
Lipids
"Fatty acids, total saturated",g,--,--,0.504,0.410
"Fatty acids, total trans",g,--,--,0.000,0.000
"Cholesterol",mg,--,--,0,0
Amino Acids
Other
Ingredients
"TOMATOES, ARTICHOKE, FILTERED WATER, EXTRA VIRGIN OLIVE OIL, FRESH GARLIC, FRESH BASIL, FRESH PARSLEY, SALT, SUGAR, OREGANO." Date available: 07/14/2017 Date last updated by company: 07/14/2017
