Source: USDA Branded Food Products Database Release December 2017 Software v.3.8.6.4 2017-10-02
Report Run at: December 17, 2017 00:32 EST
"Nutrient data for: 45316034, ARTICHOKE HEARTS, UPC: 070670005377"
Food Group:  Branded Food Products Database
Common Name:

Nutrient,Unit,Data points,Std. Error,"3.0 PIECES WITH LIQUID = 130.0g",1Value per 100 g,
Proximates
"Energy",kcal,--,--,30,23
"Protein",g,--,--,1.00,0.77
"Total lipid (fat)",g,--,--,0.00,0.00
"Carbohydrate, by difference",g,--,--,5.00,3.85
"Fiber, total dietary",g,--,--,1.9,1.5
"Sugars, total",g,--,--,1.00,0.77
Minerals
"Calcium, Ca",mg,--,--,40,31
"Iron, Fe",mg,--,--,0.36,0.28
"Sodium, Na",mg,--,--,480,369
Vitamins
"Vitamin C, total ascorbic acid",mg,--,--,2.3,1.8
"Vitamin A, IU",IU,--,--,0,0
Lipids
"Fatty acids, total saturated",g,--,--,0.000,0.000
"Fatty acids, total trans",g,--,--,0.000,0.000
"Cholesterol",mg,--,--,0,0
Amino Acids
Other
Ingredients
"ARTICHOKE HEARTS, WATER, SALT AND CITRIC ACID." Date available: 07/14/2017 Date last updated by company: 07/14/2017
