Source: USDA Branded Food Products Database Release December 2017 Software v.3.8.6.4 2017-10-02
Report Run at: December 17, 2017 00:40 EST
"Nutrient data for: 45090828, ARTISANA ORGANICS, RAW COCONUT BUTTER, UPC: 870001002583"
Food Group:  Branded Food Products Database
Common Name:

Nutrient,Unit,Data points,Std. Error,"2.0 Tbsp = 32.0g",1Value per 100 g,
Proximates
"Energy",kcal,--,--,210,656
"Protein",g,--,--,2.00,6.25
"Total lipid (fat)",g,--,--,21.00,65.62
"Carbohydrate, by difference",g,--,--,8.00,25.00
"Fiber, total dietary",g,--,--,5.0,15.6
"Sugars, total",g,--,--,2.00,6.25
Minerals
"Calcium, Ca",mg,--,--,0,0
"Iron, Fe",mg,--,--,1.82,5.70
"Sodium, Na",mg,--,--,10,31
Vitamins
"Vitamin C, total ascorbic acid",mg,--,--,0.0,0.0
"Vitamin A, IU",IU,--,--,0,0
Lipids
"Fatty acids, total saturated",g,--,--,18.000,56.250
"Fatty acids, total trans",g,--,--,0.000,0.000
"Cholesterol",mg,--,--,0,0
Amino Acids
Other
Ingredients
"ORGANIC RAW COCONUT." Date available: 09/27/2017 Date last updated by company: 09/27/2017
