Source: USDA Branded Food Products Database Release December 2017 Software v.3.8.6.4 2017-10-02
Report Run at: December 17, 2017 00:48 EST
"Nutrient data for: 45167511, ARTISOLA, CREAMY BUTTERNUT SAUCE, UPC: 073872745010"
Food Group:  Branded Food Products Database
Common Name:

Nutrient,Unit,Data points,Std. Error,"0.25 cup = 61.0g",1Value per 100 g,
Proximates
"Energy",kcal,--,--,60,98
"Protein",g,--,--,2.00,3.28
"Total lipid (fat)",g,--,--,4.00,6.56
"Carbohydrate, by difference",g,--,--,5.00,8.20
"Fiber, total dietary",g,--,--,1.0,1.6
"Sugars, total",g,--,--,1.00,1.64
Minerals
"Calcium, Ca",mg,--,--,20,33
"Iron, Fe",mg,--,--,0.76,1.25
"Sodium, Na",mg,--,--,260,426
Vitamins
"Vitamin C, total ascorbic acid",mg,--,--,5.1,8.3
"Vitamin A, IU",IU,--,--,2641,4330
Lipids
"Fatty acids, total saturated",g,--,--,2.501,4.100
"Fatty acids, total trans",g,--,--,0.000,0.000
"Cholesterol",mg,--,--,15,25
Amino Acids
Other
Ingredients
"ORGANIC BUTTERNUT SQUASH, ORGANIC WHOLE MILK (ORGANIC PASTEURIZED WHOLE MILK, VITAMIN D), ORGANIC HEAVY CREAM (ORGANIC PASTEURIZED HEAVY CREAM), WATER, ORGANIC ONION, ORGANIC PARMESAN CHEESE (PASTEURIZED ORGANIC MILK, CHEESE CULTURES, SEA SALT, ENZYMES) AND/OR ORGANIC ROMANO CHEESE (PASTEURIZED ORGANIC MILK, CHEESE CULTURES, SEA SALT, ENZYMES), AND/OR ORGANIC ASIAGO CHEESE (PASTEURIZED ORGANIC MILK, CHEESE CULTURES, SEA SALT, ENZYMES), ORGANIC SPICES, ORGANIC WHEAT FLOUR, ORGANIC BUTTER, SEA SALT, ORGANIC WHITE PEPPER." Date available: 07/14/2017 Date last updated by company: 07/14/2017
