Source: USDA Branded Food Products Database Release December 2017 Software v.3.8.6.4 2017-10-02
Report Run at: December 17, 2017 00:48 EST
"Nutrient data for: 45180816, ARTISAN THIN PIZZA CRUST, UPC: 876681000529"
Food Group:  Branded Food Products Database
Common Name:

Nutrient,Unit,Data points,Std. Error,"0.25 OF CRUST = 50.0g",1Value per 100 g,
Proximates
"Energy",kcal,--,--,140,280
"Protein",g,--,--,4.00,8.00
"Total lipid (fat)",g,--,--,3.50,7.00
"Carbohydrate, by difference",g,--,--,24.00,48.00
"Fiber, total dietary",g,--,--,1.0,2.0
"Sugars, total",g,--,--,1.00,2.00
Minerals
"Calcium, Ca",mg,--,--,0,0
"Iron, Fe",mg,--,--,1.58,3.17
"Sodium, Na",mg,--,--,270,540
Vitamins
"Vitamin C, total ascorbic acid",mg,--,--,1.3,2.6
"Vitamin A, IU",IU,--,--,0,0
Lipids
"Fatty acids, total saturated",g,--,--,0.500,1.000
"Fatty acids, total trans",g,--,--,0.000,0.000
"Cholesterol",mg,--,--,0,0
Amino Acids
Other
Ingredients
"ENRICHED WHEAT FLOUR (WHEAT FLOUR, ASCORBIC ACID, NIACIN, REDUCED IRON, THIAMINE MONONITRATE, RIBOFLAVIN, FOLIC ACID, ENZYMES), WATER, SOYBEAN AND/OR CANOLA OIL, CULTURED WHEAT FLOUR, SALT, SUGAR, DRIED SOURDOUGH (WHEAT FLOUR, RYE FLOUR, YEAST, BACTERIAL CULTURE), YEAST, INACTIVE YEAST, VEGETABLE MONO- AND DIGLYCERIDES, EXTRA VIRGIN OLIVE OIL, DURUM WHEAT SEMOLINA." Date available: 07/14/2017 Date last updated by company: 07/14/2017
