Source: USDA Branded Food Products Database Release December 2017 Software v.3.8.6.4 2017-10-02
Report Run at: December 17, 2017 00:40 EST
"Nutrient data for: 45317384, ARTISAN, BAKE AT HOME ORGANIC, BAKE IN MINUTES, CIABATTA, UPC: 709275480509"
Food Group:  Branded Food Products Database
Common Name:

Nutrient,Unit,Data points,Std. Error,"0.167 OF A LOAF = 57.0g",1Value per 100 g,
Proximates
"Energy",kcal,--,--,150,263
"Protein",g,--,--,5.00,8.77
"Total lipid (fat)",g,--,--,2.00,3.51
"Carbohydrate, by difference",g,--,--,28.00,49.12
"Fiber, total dietary",g,--,--,1.0,1.8
"Sugars, total",g,--,--,1.00,1.75
Minerals
"Calcium, Ca",mg,--,--,0,0
"Iron, Fe",mg,--,--,0.76,1.33
"Sodium, Na",mg,--,--,270,474
Vitamins
"Vitamin C, total ascorbic acid",mg,--,--,0.0,0.0
"Vitamin A, IU",IU,--,--,0,0
Lipids
"Fatty acids, total saturated",g,--,--,0.000,0.000
"Fatty acids, total trans",g,--,--,0.000,0.000
"Cholesterol",mg,--,--,0,0
Amino Acids
Other
Ingredients
"ORGANIC WHEAT FLOUR, WATER, ORGANIC EXTRA VIRGIN OLIVE OIL, CONTAINS 2% OR LESS OF: SEA SALT, CULTURED ORGANIC UNBLEACHED WHEAT FLOUR, YEAST." Date available: 06/24/2017 Date last updated by company: 06/24/2017
