Source: USDA Branded Food Products Database Release December 2017 Software v.3.8.6.4 2017-10-02
Report Run at: December 17, 2017 00:48 EST
"Nutrient data for: 45167516, ARTISOLA, ORGANIC SPINACH & CHEESE RAVIOLI, UPC: 073872746093"
Food Group:  Branded Food Products Database
Common Name:

Nutrient,Unit,Data points,Std. Error,"1 cup = 100.0g",1Value per 100 g,
Proximates
"Energy",kcal,--,--,230,230
"Protein",g,--,--,9.00,9.00
"Total lipid (fat)",g,--,--,9.00,9.00
"Carbohydrate, by difference",g,--,--,28.00,28.00
"Fiber, total dietary",g,--,--,2.0,2.0
"Sugars, total",g,--,--,2.00,2.00
Minerals
"Calcium, Ca",mg,--,--,100,100
"Iron, Fe",mg,--,--,1.51,1.51
"Sodium, Na",mg,--,--,310,310
Vitamins
"Vitamin C, total ascorbic acid",mg,--,--,1.7,1.7
"Vitamin A, IU",IU,--,--,4200,4200
Lipids
"Fatty acids, total saturated",g,--,--,4.000,4.000
"Fatty acids, total trans",g,--,--,0.000,0.000
"Cholesterol",mg,--,--,45,45
Amino Acids
Other
Ingredients
"ORGANIC SPINACH, ORGANIC CULTURED CREAM CHEESE (ORGANIC SKIM MILK, ORGANIC CREAM, ORGANIC SKIM MILK POWDER, SALT, NON-GMO LACTIC CULTURE, L. ACIDOPHILUS, B. BIFIDUM), WATER, ORGANIC MONTEREY JACK CHEESE (PASTEURIZED ORGANIC MILK, CHEESE CULTURES, SEA SALT, VEGETABLE ENZYMES), ORGANIC PARMESAN CHEESE (PASTEURIZED ORGANIC MILK, CHEESE CULTURES, SEA SALT, ENZYMES) AND/OR ORGANIC ROMANO CHEESE (PASTEURIZED ORGANIC MILK, CHEESE CULTURES, SEA SALT, ENZYMES), AND/OR ORGANIC ASIAGO CHEESE (PASTEURIZED ORGANIC MILK, CHEESE CULTURES, SEA SALT, ENZYMES), ORGANIC CANOLA OIL AND/OR ORGANIC SUNFLOWER OIL, ORGANIC CORN STARCH, ORGANIC GRANULATED GARLIC, SEA SALT, ORGANIC SPICES. DOUGH INGREDIENTS: ORGANIC SEMOLINA FLOUR, ORGANIC WHOLE EGGS, WATER." Date available: 07/14/2017 Date last updated by company: 07/14/2017
