Source: USDA Branded Food Products Database Release December 2017 Software v.3.8.6.4 2017-10-02
Report Run at: December 17, 2017 01:02 EST
"Nutrient data for: 45054211, ASIAN STYLE NOODLES, UPC: 081652297314"
Food Group:  Branded Food Products Database
Common Name:

Nutrient,Unit,Data points,Std. Error,"5.9 ONZ = 170.0g",1Value per 100 g,
Proximates
"Energy",kcal,--,--,483,284
"Protein",g,--,--,12.00,7.06
"Total lipid (fat)",g,--,--,2.01,1.18
"Carbohydrate, by difference",g,--,--,104.01,61.18
"Fiber, total dietary",g,--,--,0.0,0.0
"Sugars, total",g,--,--,5.00,2.94
Minerals
"Calcium, Ca",mg,--,--,10,6
"Iron, Fe",mg,--,--,0.29,0.17
"Sodium, Na",mg,--,--,984,579
Vitamins
"Vitamin C, total ascorbic acid",mg,--,--,0.0,0.0
"Vitamin A, IU",IU,--,--,0,0
Lipids
"Fatty acids, total saturated",g,--,--,1.003,0.590
"Fatty acids, total trans",g,--,--,0.000,0.000
"Cholesterol",mg,--,--,0,0
Amino Acids
Other
Ingredients
"WHEAT FLOUR, WATER, CORN STARCH, SALT, ETHYL ALCOHOL." Date available: 08/29/2017 Date last updated by company: 08/29/2017
