Source: USDA Branded Food Products Database Release December 2017 Software v.3.8.6.4 2017-10-02
Report Run at: December 17, 2017 01:02 EST
"Nutrient data for: 45195694, ASIAN STYLE SALAD WITH CHICKEN, UPC: 030223049067"
Food Group:  Branded Food Products Database
Common Name:

Nutrient,Unit,Data points,Std. Error,"1 SALAD = 291.0g",1Value per 100 g,
Proximates
"Energy",kcal,--,--,471,162
"Protein",g,--,--,16.99,5.84
"Total lipid (fat)",g,--,--,30.99,10.65
"Carbohydrate, by difference",g,--,--,33.00,11.34
"Fiber, total dietary",g,--,--,4.9,1.7
"Sugars, total",g,--,--,16.00,5.50
Minerals
"Calcium, Ca",mg,--,--,99,34
"Iron, Fe",mg,--,--,1.75,0.60
"Sodium, Na",mg,--,--,911,313
Vitamins
"Vitamin C, total ascorbic acid",mg,--,--,13.1,4.5
"Vitamin A, IU",IU,--,--,3608,1240
Lipids
"Fatty acids, total saturated",g,--,--,5.005,1.720
"Fatty acids, total trans",g,--,--,0.000,0.000
"Cholesterol",mg,--,--,29,10
Amino Acids
Other
Ingredients
"ASIAN STYLE SLAW (CABBAGE, NAPA CABBAGE, CARROT, CELERY, RED CABBAGE, GREEN ONION), ROMAINE LETTUCE, WHITE MEAT CHICKEN (CHICKEN BREAST WITH RIB MEAT, WATER, CULTURED SUGAR AND VINEGAR, POTATO STARCH, SEA SALT, NATURAL FLAVORS), ASIAN SESAME DRESSING (SOYBEAN OIL, SUGAR, SOY SAUCE [WATER, WHEAT, SOYBEANS, SALT, SODIUM BENZOATE AS A PRESERVATIVE], WATER, DISTILLED VINEGAR, TOASTED SESAME OIL, RICE VINEGAR, CONTAINS LESS THAN 2% OF TOMATO PASTE, SPICES, SESAME SEED, DEHYDRATED RED BELL PEPPER, XANTHAN GUM, SORBIC ACID, DEHYDRATED GARLIC, MUSTARD SEED, DEHYDRATED ONION, POTASSIUM SORBATE [A PRESERVATIVE], CARRAGEENAN, CALCIUM DISODIUM EDTA ADDED TO PROTECT FLAVOR), MANDARIN ORANGES (MANDARIN ORANGE SEGMENTS, WATER, SUGAR, CITRIC ACID), CRISPY RICE NOODLES (WHEAT FLOUR, VEGETABLE OIL [CONTAINS ONE OR MORE OF THE FOLLOWING: SOYBEAN OIL, HYDROGENATED SOYBEAN OIL, CANOLA OIL], RICE FLOUR, SALT, WATER, CORN STARCH), ALMONDS." Date available: 09/27/2017 Date last updated by company: 09/27/2017
