Source: USDA Branded Food Products Database Release December 2017 Software v.3.8.6.4 2017-10-02
Report Run at: December 17, 2017 00:52 EST
"Nutrient data for: 45265564, ASIAGO ENCRUSTED UNCURED ALL BEEF FRANKS IN A BLANKET, HAND ROLLED UNCURED ALL BEEF HOTDOGS, UPC: 03003410454"
Food Group:  Branded Food Products Database
Common Name:

Nutrient,Unit,Data points,Std. Error,"3.0 PIECES = 85.0g",1Value per 100 g,
Proximates
"Energy",kcal,--,--,300,353
"Protein",g,--,--,11.00,12.94
"Total lipid (fat)",g,--,--,21.00,24.71
"Carbohydrate, by difference",g,--,--,16.00,18.82
"Fiber, total dietary",g,--,--,0.0,0.0
"Sugars, total",g,--,--,1.00,1.18
Minerals
"Calcium, Ca",mg,--,--,0,0
"Iron, Fe",mg,--,--,0.36,0.42
"Sodium, Na",mg,--,--,580,682
Vitamins
"Vitamin C, total ascorbic acid",mg,--,--,0.0,0.0
"Vitamin A, IU",IU,--,--,0,0
Lipids
"Fatty acids, total saturated",g,--,--,10.999,12.940
"Fatty acids, total trans",g,--,--,0.501,0.590
"Cholesterol",mg,--,--,30,35
Amino Acids
Other
Ingredients
"PUFF PASTRY (WHITE WHEAT FLOUR [WHEAT FLOUR ENRICHED {NIACIN, REDUCED IRON, THIAMINE MONONITRATE, RIBOFLAVIN, FOLIC ACID}, MALTED BARLEY FLOUR, ASCORBIC ACID (DOUGH CONDITIONER}], WATER, BUTTER [PASTEURIZED CREAM], SALT), UNCURED BEEF HOT DOG NO NITRATES OR NITRATES ADDED EXCEPT THOSE NATURALLY OCCURRING IN CELERY JUICE POWDER AND SEA SALT (BEEF, WATER, CONTAINS LESS THAN 2% OF THE FOLLOWING: SEA SLAT, HONEY, NATURAL SPICES, CELERY POWDER, EVAPORATED CANE SYRUP, NATURAL FLAVORINGS, PAPRIKA, SALT), ASIAGO CHEESE (PASTEURIZED COW'S MILK, CHEESE CULTURES, SALT, ENZYMES, POWDERED CELLULOSE/STARCH BLEND [ANTICAKING AGENT], NATAMYCIN [MOLD INHIBITOR]), WATER, LIQUID WHOLE EGGS, GARLIC POWDER, PAPRIKA, CHIVES." Date available: 07/14/2017 Date last updated by company: 07/14/2017
