Source: USDA Branded Food Products Database Release December 2017 Software v.3.8.6.4 2017-10-02
Report Run at: December 17, 2017 01:02 EST
"Nutrient data for: 45138292, ASIAN STYLE SAUCE & MARINADE, UPC: 715364400358"
Food Group:  Branded Food Products Database
Common Name:

Nutrient,Unit,Data points,Std. Error,"1 Tbsp = 15.0g",1Value per 100 g,
Proximates
"Energy",kcal,--,--,30,200
"Protein",g,--,--,0.00,0.00
"Total lipid (fat)",g,--,--,0.00,0.00
"Carbohydrate, by difference",g,--,--,8.00,53.33
"Sugars, total",g,--,--,7.00,46.67
Minerals
"Calcium, Ca",mg,--,--,0,0
"Iron, Fe",mg,--,--,0.00,0.00
"Sodium, Na",mg,--,--,120,800
Vitamins
"Vitamin C, total ascorbic acid",mg,--,--,2.4,16.0
"Vitamin A, IU",IU,--,--,100,667
Lipids
"Fatty acids, total trans",g,--,--,0.000,0.000
Amino Acids
Other
Ingredients
"HIGH FRUCTOSE CORN SYRUP, WATER, RED JALAPENO PUREE (JALAPENO PEPPERS, SALT, ACETIC ACID AND NATURAL FLAVOR), DISTILLED VINEGAR, MODIFIED FOOD STARCH, CONTAINS LESS THAN 2% OF DRIED GARLIC, DRIED RED BELL PEPPER, MALIC ACID, SPICE, SALT, POTASSIUM SORBATE AND SODIUM BENZOATE (PRESERVATIVES), XANTHAN GUM." Date available: 10/13/2017 Date last updated by company: 10/13/2017
