Source: USDA Branded Food Products Database Release December 2017 Software v.3.8.6.4 2017-10-02
Report Run at: December 17, 2017 01:04 EST
"Nutrient data for: 45169819, ASPALL, ORGANIC APPLE BALASAMIC VINEGAR, UPC: 857283000544"
Food Group:  Branded Food Products Database
Common Name:

Nutrient,Unit,Data points,Std. Error,"1 Tbsp = 15.0g",1Value per 100 g,
Proximates
"Energy",kcal,--,--,24,160
"Protein",g,--,--,0.00,0.00
"Total lipid (fat)",g,--,--,0.00,0.00
"Carbohydrate, by difference",g,--,--,5.00,33.33
"Sugars, total",g,--,--,4.50,30.00
Minerals
"Sodium, Na",mg,--,--,3,20
Vitamins
Lipids
Amino Acids
Other
Ingredients
"ORGANIC CYDER VINEGAR, CONCENTRATED ORGANIC APPLE JUICE, ORGANIC CARAMEL, WATER." Date available: 07/14/2017 Date last updated by company: 07/14/2017
