Source: USDA Branded Food Products Database Release December 2017 Software v.3.8.6.4 2017-10-02
Report Run at: December 17, 2017 01:17 EST
"Nutrient data for: 45258364, ASSORTED FRUITS JELLY, UPC: 853494000328"
Food Group:  Branded Food Products Database
Common Name:

Nutrient,Unit,Data points,Std. Error,"5.0 CUPS) | (APPROX. = 120.0g",1Value per 100 g,
Proximates
"Energy",kcal,--,--,120,100
"Protein",g,--,--,0.00,0.00
"Total lipid (fat)",g,--,--,0.00,0.00
"Carbohydrate, by difference",g,--,--,31.00,25.83
"Fiber, total dietary",g,--,--,1.0,0.8
"Sugars, total",g,--,--,12.00,10.00
Minerals
"Calcium, Ca",mg,--,--,10,8
"Iron, Fe",mg,--,--,0.00,0.00
"Sodium, Na",mg,--,--,55,46
Vitamins
"Vitamin C, total ascorbic acid",mg,--,--,0.0,0.0
"Vitamin A, IU",IU,--,--,0,0
Lipids
"Fatty acids, total saturated",g,--,--,0.000,0.000
"Fatty acids, total trans",g,--,--,0.000,0.000
"Cholesterol",mg,--,--,0,0
Amino Acids
Other
Ingredients
"WATER, SUGAR, FRUCTOSE SYRUP, COCONUT CHUNK, CARRAGEENAN, SEAWEED EXTRACT, CITRIC ACID, SODIUM CITRATE, ACESULFAME-K, POTASSIUM SORBATE, NATURAL FLAVORS (STRAWBERRY, APPLE, PINEAPPLE), ARTIFICIAL COLORS FD & C RED#40,FD & C YELLOW #5, FD & C YELLOW#6, FD & C BLUE#1." Date available: 07/14/2017 Date last updated by company: 07/14/2017
