Source: USDA Branded Food Products Database Release December 2017 Software v.3.8.6.4 2017-10-02
Report Run at: December 17, 2017 01:20 EST
"Nutrient data for: 45207168, ASSORTED MILK CHOCOLATES, UPC: 009542007959"
Food Group:  Branded Food Products Database
Common Name:

Nutrient,Unit,Data points,Std. Error,"3.0 PIECES = 37.0g",1Value per 100 g,
Proximates
"Energy",kcal,--,--,210,568
"Protein",g,--,--,2.00,5.41
"Total lipid (fat)",g,--,--,15.00,40.54
"Carbohydrate, by difference",g,--,--,19.00,51.35
"Fiber, total dietary",g,--,--,1.0,2.7
"Sugars, total",g,--,--,17.00,45.95
Minerals
"Calcium, Ca",mg,--,--,60,162
"Iron, Fe",mg,--,--,0.48,1.31
"Sodium, Na",mg,--,--,35,95
Vitamins
"Vitamin C, total ascorbic acid",mg,--,--,0.0,0.0
"Vitamin A, IU",IU,--,--,135,365
Lipids
"Fatty acids, total saturated",g,--,--,8.998,24.320
"Fatty acids, total trans",g,--,--,0.000,0.000
"Cholesterol",mg,--,--,5,14
Amino Acids
Other
Ingredients
"SUGAR, COCOA BUTTER, MILK, CHOCOLATE, VEGETABLE OIL (COCONUT, PALM KERNEL), HAZELNUT PASTE, LACTOSE, SKIM MILK, SOYA LECITHIN (EMULSIFIER), BARLEY MALT POWDER, CRISP RICE (WHEAT, RICE, SUGAR,SALT), MILKFAT, BUTTERFAT, ARTIFICIAL FLAVORS." Date available: 07/14/2017 Date last updated by company: 07/14/2017
