Source: USDA Branded Food Products Database Release December 2017 Software v.3.8.6.4 2017-10-02
Report Run at: December 17, 2017 01:18 EST
"Nutrient data for: 45222251, ASSORTED GELATIN DESSERTS, UPC: 890237001051"
Food Group:  Branded Food Products Database
Common Name:

Nutrient,Unit,Data points,Std. Error,"1 UNIT = 99.0g",1Value per 100 g,
Proximates
"Energy",kcal,--,--,25,25
"Protein",g,--,--,1.00,1.01
"Total lipid (fat)",g,--,--,0.00,0.00
"Carbohydrate, by difference",g,--,--,4.00,4.04
"Fiber, total dietary",g,--,--,0.0,0.0
"Sugars, total",g,--,--,2.00,2.02
Minerals
"Calcium, Ca",mg,--,--,20,20
"Iron, Fe",mg,--,--,1.46,1.47
"Sodium, Na",mg,--,--,40,40
Vitamins
"Vitamin C, total ascorbic acid",mg,--,--,2.4,2.4
"Vitamin A, IU",IU,--,--,0,0
Lipids
"Fatty acids, total saturated",g,--,--,0.000,0.000
"Fatty acids, total trans",g,--,--,0.000,0.000
"Cholesterol",mg,--,--,0,0
Amino Acids
Other
Ingredients
"WATER, PEACHES, GELATIN, SUGAR, CITRIC ACID, SODIUM BENZOATE TO PRESERVE FRESHNESS, ASPARTAME*, NATURAL AND ARTIFICIAL FLAVOR, ACESULFAME POTASSIUM, SALT, SODIUM CITRATE, RED 40, YELLOW 6, BLUE 1, YELLOW 5." Date available: 07/14/2017 Date last updated by company: 07/14/2017
