Source: USDA Branded Food Products Database Release December 2017 Software v.3.8.6.4 2017-10-02
Report Run at: December 17, 2017 01:14 EST
"Nutrient data for: 45211476, ASSORTED COOKIES, UPC: 078742052991"
Food Group:  Branded Food Products Database
Common Name:

Nutrient,Unit,Data points,Std. Error,"2.0 COOKIES = 25.0g",1Value per 100 g,
Proximates
"Energy",kcal,--,--,130,520
"Protein",g,--,--,1.00,4.00
"Total lipid (fat)",g,--,--,7.00,28.00
"Carbohydrate, by difference",g,--,--,15.00,60.00
"Fiber, total dietary",g,--,--,0.0,0.0
"Sugars, total",g,--,--,5.00,20.00
Minerals
"Calcium, Ca",mg,--,--,0,0
"Iron, Fe",mg,--,--,1.44,5.76
"Sodium, Na",mg,--,--,95,380
Vitamins
"Vitamin C, total ascorbic acid",mg,--,--,0.0,0.0
"Vitamin A, IU",IU,--,--,0,0
Lipids
"Fatty acids, total saturated",g,--,--,3.000,12.000
"Fatty acids, total trans",g,--,--,0.000,0.000
"Cholesterol",mg,--,--,5,20
Amino Acids
Other
Ingredients
"BLEACHED ENRICHED FLOUR (WHEAT FLOUR, NIACIN, REDUCED IRON, THIAMINE MONONITRATE, RIBOFLAVIN, FOLIC ACID), SHORTENING (BEEF FAT, SOYBEAN AND/OR COTTONSEED OIL), SUGAR, COATING SUGAR (DEXTROSE, CORN STARCH, PARTIALLY HYDROGENATED SOYBEAN AND/OR COTTONSEED OIL, TITANIUM DIOXIDE [COLOR], ARTIFICIAL FLAVOR AND CALCIUM PROPIONATE [PRESERVATIVE]), EGGS, CONTAINS 2% OR LESS OF CORN SYRUP, CONFECTIONARY DROPS (SUGAR, PARTIALLY HYDROGENATED VEGETABLE OIL (PALM KERNEL, COCONUT, PALM), COCOA PROCESSED WITH ALKALI, DEXTROSE, COCOA POWDER, WHEY POWDER, SOYA LECITHIN - AN EMULSIFIER AND VANILLIN [AN ARTIFICIAL FLAVORING]), SALT, CANDY SPRINKLES (SUGAR, CORN STARCH, PARTIALLY HYDROGENATED VEGETABLE OIL, [COTTONSEED AND/OR SOYBEAN], SOY LECITHIN, DEXTRIN, CONFECTIONERS GLAZE, RED 3 & 40, NATURAL AND ARTIFICIAL FLAVOR, CARNAUBA WAX), COCOA PROCESSED WITH ALKALI, NATURAL AND ARTIFICIAL FLAVORS, BAKING SODA, SPICES, YELLOW 5 & 6." Date available: 07/14/2017 Date last updated by company: 07/14/2017
