Source: USDA Branded Food Products Database Release December 2017 Software v.3.8.6.4 2017-10-02
Report Run at: December 17, 2017 01:12 EST
"Nutrient data for: 45266449, ASSORTED CHOCOLATES, UPC: 063783643703"
Food Group:  Branded Food Products Database
Common Name:

Nutrient,Unit,Data points,Std. Error,"0.25 PACKAGE = 50.0g",1Value per 100 g,
Proximates
"Energy",kcal,--,--,260,520
"Protein",g,--,--,3.00,6.00
"Total lipid (fat)",g,--,--,13.00,26.00
"Carbohydrate, by difference",g,--,--,31.00,62.00
"Fiber, total dietary",g,--,--,2.0,4.0
"Sugars, total",g,--,--,21.00,42.00
Minerals
"Calcium, Ca",mg,--,--,60,120
"Iron, Fe",mg,--,--,1.44,2.88
"Sodium, Na",mg,--,--,40,80
Vitamins
"Vitamin C, total ascorbic acid",mg,--,--,0.0,0.0
"Vitamin A, IU",IU,--,--,0,0
Lipids
"Fatty acids, total saturated",g,--,--,8.000,16.000
"Fatty acids, total trans",g,--,--,0.000,0.000
"Cholesterol",mg,--,--,0,0
Amino Acids
Other
Ingredients
"SUGAR, COCOA MASS, UHT PASTEURIZED CREAM (CREAM, MILK, SKIM MILK POWDER, CARRAGEENAN, MONO AND DIGLYCERIDES, CELLULOSE GUM, POLYSORBATE 80, SODIUM CITRATE), COCOA BUTTER, WHOLE MILK POWDER GLUCOSE, BUTTER, ALMONDS, HAZELNUTS, MAPLE SYRUP, COFFEE, CRISPED RICE, CINNAMON, SEA SALT, NATURAL VANILLA, SORBITOL (FROM WHEAT), SOY LECITHIN." Date available: 07/14/2017 Date last updated by company: 07/14/2017
