Source: USDA Branded Food Products Database Release December 2017 Software v.3.8.6.4 2017-10-02
Report Run at: December 17, 2017 01:21 EST
"Nutrient data for: 45150808, ASSORTED TRUFFLES, UPC: 017109342849"
Food Group:  Branded Food Products Database
Common Name:

Nutrient,Unit,Data points,Std. Error,"1 PIECE = 21.0g",1Value per 100 g,
Proximates
"Energy",kcal,--,--,100,476
"Protein",g,--,--,1.00,4.76
"Total lipid (fat)",g,--,--,6.00,28.57
"Carbohydrate, by difference",g,--,--,12.00,57.14
"Fiber, total dietary",g,--,--,1.0,4.8
"Sugars, total",g,--,--,11.00,52.38
Minerals
"Calcium, Ca",mg,--,--,20,95
"Iron, Fe",mg,--,--,1.71,8.16
"Sodium, Na",mg,--,--,35,167
Vitamins
"Vitamin C, total ascorbic acid",mg,--,--,0.0,0.0
"Vitamin A, IU",IU,--,--,0,0
Lipids
"Fatty acids, total saturated",g,--,--,4.000,19.050
"Fatty acids, total trans",g,--,--,0.000,0.000
"Cholesterol",mg,--,--,5,24
Amino Acids
Other
Ingredients
"MILK CHOCOLATE (SUGAR, MILK, COCOA BUTTER, CHOCOLATE LIQUOR, SOY LECITHIN - AN EMULSIFIER, AND VANILLA), SUGAR, DARK CHOCOLATE (SUGAR, CHOCOLATE LIQUOR PROCESSED WITH ALKALI, COCOA BUTTER, MILK FAT, SOY LECITHIN - AN EMULSIFIER, NATURAL FLAVORS), HEAVY CREAM (CREAM, CARRAGEENAN, MONO AND DIGLYCERIDES, CELLULOSE GUM, POLYSORBATE 80, STANDARDIZED WITH DEXTROSE. CONTAINS MILK.), CORN SYRUP, CHOCOLATE LIQUOR, BUTTER (PASTEURIZED CREAM, SALT), VANILLA EXTRACT, SALT, INVERTASE (ENZYME SOLUTION, GLYCEROL)." Date available: 07/14/2017 Date last updated by company: 07/14/2017
