Source: USDA Branded Food Products Database Release December 2017 Software v.3.8.6.4 2017-10-02
Report Run at: December 17, 2017 01:09 EST
"Nutrient data for: 45256241, ASSORTED BAKLAVA, UPC: 038105108567"
Food Group:  Branded Food Products Database
Common Name:

Nutrient,Unit,Data points,Std. Error,"1.4 ONZ = 39.0g",1Value per 100 g,
Proximates
"Energy",kcal,--,--,150,385
"Protein",g,--,--,2.00,5.13
"Total lipid (fat)",g,--,--,7.00,17.95
"Carbohydrate, by difference",g,--,--,20.00,51.28
"Fiber, total dietary",g,--,--,1.0,2.6
"Sugars, total",g,--,--,9.00,23.08
Minerals
"Calcium, Ca",mg,--,--,0,0
"Iron, Fe",mg,--,--,1.01,2.60
"Sodium, Na",mg,--,--,90,231
Vitamins
"Vitamin C, total ascorbic acid",mg,--,--,0.0,0.0
"Vitamin A, IU",IU,--,--,0,0
Lipids
"Fatty acids, total saturated",g,--,--,2.500,6.410
"Fatty acids, total trans",g,--,--,0.000,0.000
"Cholesterol",mg,--,--,0,0
Amino Acids
Other
Ingredients
"SYRUP BLEND (HIGH FRUCTOSE CORN SYRUP, CORN SYRUP, SUGAR), ENRICHED FLOUR (FLOUR, NIACIN, REDUCED IRON, THIAMIN MONONITRATE, RIBOFLAVIN, FOLIC ACID), TREE NUTS (WALNUTS, CASHEWS, PECANS), WATER, PALM SHORTENING, SUGAR, CORN OIL, WHEAT PROTEIN ISOLATE, CONFECTIONER'S COATING (SUGAR, COMPLETELY HYDROGENATED PALM KERNEL OIL, COCOA POWDER, EMULSIFIER [SUNFLOWER LECITHIN, SORBITAN TRISTEARATE], NATURAL VANILLA EXTRACT), PRESERVATIVES (SODIUM PROPIONATE, POTASSIUM SORBATE, SODIUM BENZOATE), SALT, BROWN SUGAR, EGGS, CORN SYRUP, HONEY, CINNAMON, CITRIC ACID, CARAMEL COLOR, VANILLA EXTRACT, NATURAL AND ARTIFICIAL FLAVOR." Date available: 07/14/2017 Date last updated by company: 07/14/2017
