Source: USDA Branded Food Products Database Release December 2017 Software v.3.8.6.4 2017-10-02
Report Run at: December 17, 2017 01:11 EST
"Nutrient data for: 45259669, ASSORTED CHOCOLATES, UPC: 070203905716"
Food Group:  Branded Food Products Database
Common Name:

Nutrient,Unit,Data points,Std. Error,"2.0 PIECES = 38.0g",1Value per 100 g,
Proximates
"Energy",kcal,--,--,150,395
"Protein",g,--,--,1.00,2.63
"Total lipid (fat)",g,--,--,5.00,13.16
"Carbohydrate, by difference",g,--,--,24.00,63.16
"Fiber, total dietary",g,--,--,1.0,2.6
"Sugars, total",g,--,--,19.00,50.00
Minerals
"Calcium, Ca",mg,--,--,40,105
"Iron, Fe",mg,--,--,0.47,1.25
"Sodium, Na",mg,--,--,45,118
Vitamins
"Vitamin C, total ascorbic acid",mg,--,--,0.0,0.0
"Vitamin A, IU",IU,--,--,0,0
Lipids
"Fatty acids, total saturated",g,--,--,2.998,7.890
"Fatty acids, total trans",g,--,--,0.000,0.000
"Cholesterol",mg,--,--,0,0
Amino Acids
Other
Ingredients
"SUGAR, MILK/DARK CHOCOLATE [SUGAR, WHOLE/NON FAT MILK POWDER, COCOA BUTTER, CHOCOLATE LIQUOR, SOY LECITHIN-EMULSIFIER, NATURAL VANILLA FLAVOR], CORN SYRUP, PARTIALLY HYDROGENATED VEGETABLES OILS [SOYBEAN, PALM/PALM KERNEL AND COTTONSEED OILS], EVAPORATED MILK [MILK, DIPOTASSIUM PHOSPHATE, CARRAGEENAN, VITAMIN D3], CONTAINS 2% OR LESS: PECANS, PEANUT BUTTER [PEANUTS, DEXTROSE, HYDROGENATED RAPESEED AND COTTONSEED OILS, SALT], BROWNIE CENTER [WHEAT FLOUR, SUGAR, PARTIALLY HYDROGENATED SOYBEAN/COTTONSEED OILS, DUTCHED COCOA, HIGH FRUCTOSE CORN SYRUP, GLYCERIN, DEXTROSE, SALT, CORN STARCH, SOY LECITHIN], COCONUT, CHOCOLATE COATING [SUGAR, PARTIALLY HYDROGENATED PALM/PALM KERNEL OILS, DUTCHED COCOA, NONFAT DRY MILK, DRIED WHEY, SOY LECITHIN-AN EMULSIFIER, SALT, ARTIFICIAL FLAVOR], INVERT SUGAR, CHOCOLATE LIQUOR, MILK SOLIDS [CREAM, MILKFAT, WHEY SOLIDS, NONFAT DRY MILK], SALT, FREEZE DRIED STRAWBERRIES, NATURAL AND ARTIFICIAL FLAVORS, INVERTASE, CITRIC ACID, FREEZE DRIED RASPBERRIES, DRIED EGG WHITES, SOY LECITHIN, RED 40, GLYCERIN, BLUE 1." Date available: 07/14/2017 Date last updated by company: 07/14/2017
