Source: USDA Branded Food Products Database Release December 2017 Software v.3.8.6.4 2017-10-02
Report Run at: December 17, 2017 01:14 EST
"Nutrient data for: 45230077, ASSORTED COOKIES, UPC: 078742178875"
Food Group:  Branded Food Products Database
Common Name:

Nutrient,Unit,Data points,Std. Error,"3.0 COOKIES = 34.0g",1Value per 100 g,
Proximates
"Energy",kcal,--,--,170,500
"Protein",g,--,--,2.00,5.88
"Total lipid (fat)",g,--,--,9.00,26.47
"Carbohydrate, by difference",g,--,--,20.00,58.82
"Fiber, total dietary",g,--,--,1.0,2.9
"Sugars, total",g,--,--,7.00,20.59
Minerals
"Calcium, Ca",mg,--,--,0,0
"Iron, Fe",mg,--,--,1.59,4.67
"Sodium, Na",mg,--,--,130,382
Vitamins
"Vitamin C, total ascorbic acid",mg,--,--,0.0,0.0
"Vitamin A, IU",IU,--,--,0,0
Lipids
"Fatty acids, total saturated",g,--,--,5.001,14.710
"Fatty acids, total trans",g,--,--,0.000,0.000
"Cholesterol",mg,--,--,0,0
Amino Acids
Other
Ingredients
"BLEACHED ENRICHED FLOUR (WHEAT FLOUR, NIACIN, REDUCED IRON, THIAMINE MONONITRATE, RIBOFLAVIN, FOLIC ACID), PALM OIL SHORTENING, SUGAR, CONTAINS 2% OR LESS OF EGGS, CORN SYRUP, CONFECTIONERY COATING (DEXTROSE, CORNSTARCH, PALM OIL, TITANIUM DIOXIDE [COLOR], ARTIFICIAL FLAVOR, CALCIUM PROPIONATE), COLORED SUGAR (SUGAR, YELLOW 5 LAKE, BLUE 1 LAKE, RED 3, RED 40, RED 40 LAKE, CARNAUBA WAX, LAC-RESIN), COCOA DROPS (SUGAR, PALM KERNEL OIL, COCOA POWDER PROCESSED WITH ALKALI, DEXTROSE, SOY LECITHIN, POLYSORBATE 60, SORBITAN MONOSTEARATE, NATURAL FLAVOR, SALT, VANILLA EXTRACT), SALT, CANDY SPRINKLES (SUGAR, CORNSTARCH, PALM OIL, PALM KERNEL OIL, SOY LECITHIN, RED 40 LAKE, YELLOW 5 LAKE, BLUE 1 LAKE, LAC-RESIN, NATURAL AND ARTIFICIAL FLAVOR, CARNAUBA WAX), COCOA PROCESSED WITH ALKALI, NATURAL AND ARTIFICIAL FLAVORS, BAKING SODA, SPICES, YELLOW 5, YELLOW 6, RED 40." Date available: 07/14/2017 Date last updated by company: 07/14/2017
