Source: USDA Branded Food Products Database Release December 2017 Software v.3.8.6.4 2017-10-02
Report Run at: December 17, 2017 01:21 EST
"Nutrient data for: 45142238, ASSORTED TRUFFLES, UPC: 017109322087"
Food Group:  Branded Food Products Database
Common Name:

Nutrient,Unit,Data points,Std. Error,"1 PIECES = 14.0g",1Value per 100 g,
Proximates
"Energy",kcal,--,--,70,500
"Protein",g,--,--,1.00,7.14
"Total lipid (fat)",g,--,--,4.00,28.57
"Carbohydrate, by difference",g,--,--,8.00,57.14
"Fiber, total dietary",g,--,--,0.0,0.0
"Sugars, total",g,--,--,7.00,50.00
Minerals
"Calcium, Ca",mg,--,--,20,143
"Iron, Fe",mg,--,--,1.29,9.18
"Sodium, Na",mg,--,--,5,36
Vitamins
"Vitamin C, total ascorbic acid",mg,--,--,0.0,0.0
"Vitamin A, IU",IU,--,--,0,0
Lipids
"Fatty acids, total saturated",g,--,--,2.500,17.860
"Fatty acids, total trans",g,--,--,0.000,0.000
"Cholesterol",mg,--,--,5,36
Amino Acids
Other
Ingredients
"DARK CHOCOLATE (SUGAR, CHOCOLATE LIQUOR PROCESSED WITH ALKALI, COCOA BUTTER, MILK FAT, SOY LECITHIN-AN EMULSIFIER, NATURAL FLAVORS), MILK CHOCOLATE (SUGAR, MILK, COCOA BUTTER, CHOCOLATE LIQUOR, SOY LECITHIN-AN EMULSIFIER, VANILLA), SUGAR, WHITE CHOCOLATE (SUGAR, PALM KERNEL AND PALM OIL, NON-FAT DRY MILK, WHOLE MILK, SOY LECITHIN-AN EMULSIFIER, VANILLA), WHEY ACID, CREAM, CHOCOLATE LIQUOR, RASPBERRY PUREE (RED RASPBERRIES, CORN SYRUP, WATER, FOOD GRADE STARCH, CITRIC ACID), CORN SYRUP, WATER, RASBERRY FLAVOR (WATER, PROPYLENE GLYCOL), BUTTER (PASTERIZED CREAM, SALT), NATURAL MEXICAN COFFEE FLAVOR (WATER, ETHYL ALCOHOL), COFFEE SUBSTITUTE, NATURAL COFFEE FLAVOR, VANILLA EXTRACT, INVERTASE (ENZYME SOLUTION, GLYCEROL), AMARETTA FLAVORING (MEDIUM CHAIN TRIGLYCERIDES), SALT, CITRIC ACID." Date available: 07/14/2017 Date last updated by company: 07/14/2017
