Source: USDA Branded Food Products Database Release December 2017 Software v.3.8.6.4 2017-10-02
Report Run at: December 17, 2017 01:23 EST
"Nutrient data for: 45099292, ASTURI, SNACK SIZE ITALIAN BRUSCHETTA TOASTS, ROSEMARY & OLIVE OIL, UPC: 853240003016"
Food Group:  Branded Food Products Database
Common Name:

Nutrient,Unit,Data points,Std. Error,"6.0 PIECES = 16.0g",1Value per 100 g,
Proximates
"Energy",kcal,--,--,70,438
"Protein",g,--,--,2.00,12.50
"Total lipid (fat)",g,--,--,2.50,15.62
"Carbohydrate, by difference",g,--,--,11.00,68.75
"Fiber, total dietary",g,--,--,1.0,6.2
"Sugars, total",g,--,--,1.00,6.25
Minerals
"Sodium, Na",mg,--,--,130,812
Vitamins
Lipids
"Fatty acids, total saturated",g,--,--,0.000,0.000
"Fatty acids, total trans",g,--,--,0.000,0.000
"Cholesterol",mg,--,--,0,0
Amino Acids
Other
Ingredients
"UNBLEACHED WHEAT FLOUR, DURUM WHEAT SEMOLINA, OLIVE OIL, EXTRA VIRGIN OLIVE OIL, SEA SALT, YEAST, ROSEMARY, BARLEY AND CORN MALT EXTRACT, SUGAR, THYME, SAGE." Date available: 10/11/2017 Date last updated by company: 10/11/2017
