Source: USDA Branded Food Products Database Release December 2017 Software v.3.8.6.4 2017-10-02
Report Run at: December 17, 2017 01:26 EST
"Nutrient data for: 45170219, ATKINS RANCH, NEW ZEALAND LAMB PATTIES, UPC: 892071002027"
Food Group:  Branded Food Products Database
Common Name:

Nutrient,Unit,Data points,Std. Error,"1 PATTY = 168.0g",1Value per 100 g,
Proximates
"Energy",kcal,--,--,270,161
"Protein",g,--,--,34.00,20.24
"Total lipid (fat)",g,--,--,12.00,7.14
"Carbohydrate, by difference",g,--,--,6.00,3.57
"Fiber, total dietary",g,--,--,0.0,0.0
"Sugars, total",g,--,--,0.00,0.00
Minerals
"Calcium, Ca",mg,--,--,20,12
"Iron, Fe",mg,--,--,1.81,1.08
"Sodium, Na",mg,--,--,160,95
Vitamins
"Vitamin C, total ascorbic acid",mg,--,--,0.0,0.0
"Vitamin A, IU",IU,--,--,0,0
Lipids
"Fatty acids, total saturated",g,--,--,5.006,2.980
"Fatty acids, total trans",g,--,--,1.495,0.890
"Cholesterol",mg,--,--,109,65
Amino Acids
Other
Ingredients
"100% LAMB" Date available: 07/14/2017 Date last updated by company: 07/14/2017
