Source: USDA Branded Food Products Database Release December 2017 Software v.3.8.6.4 2017-10-02
Report Run at: December 17, 2017 01:29 EST
"Nutrient data for: 45284261, ATLANTIC SALMON WITH LEMON PEPPER RUB ON A CEDAR PLANK, UPC: 073129972603"
Food Group:  Branded Food Products Database
Common Name:

Nutrient,Unit,Data points,Std. Error,"5.0 ONZ = 142.0g",1Value per 100 g,
Proximates
"Energy",kcal,--,--,300,211
"Protein",g,--,--,29.00,20.42
"Total lipid (fat)",g,--,--,19.00,13.38
"Carbohydrate, by difference",g,--,--,0.00,0.00
"Fiber, total dietary",g,--,--,0.0,0.0
"Sugars, total",g,--,--,0.00,0.00
Minerals
"Calcium, Ca",mg,--,--,20,14
"Iron, Fe",mg,--,--,0.21,0.15
"Sodium, Na",mg,--,--,180,127
Vitamins
"Vitamin C, total ascorbic acid",mg,--,--,3.5,2.5
"Vitamin A, IU",IU,--,--,60,42
Lipids
"Fatty acids, total saturated",g,--,--,4.501,3.170
"Fatty acids, total trans",g,--,--,0.000,0.000
"Cholesterol",mg,--,--,80,56
Amino Acids
Other
Ingredients
"ATLANTIC SALMON (COLOR ADDED), LEMON PEPPER RUB [SALT, SPICE, YEAST EXTRACT, GARLIC POWDER, SUGAR, MINCED ONION, DISODIUM INOSINATE & DISODIUM GUANYLATE, MALTODEXTRIN, TURMERIC, PAPRIKA (SPICE & COLOR), NATURAL FLAVOR, CITRIC ACID, GUM ACACIA], CANOLA OIL, NATURAL FLAVOR." Date available: 07/14/2017 Date last updated by company: 07/14/2017
