Source: USDA Branded Food Products Database Release December 2017 Software v.3.8.6.4 2017-10-02
Report Run at: December 17, 2017 01:28 EST
"Nutrient data for: 45327142, ATLANTIC SALMON ON A CEDAR PLANK, UPC: 688267181566"
Food Group:  Branded Food Products Database
Common Name:

Nutrient,Unit,Data points,Std. Error,"5.0 ONZ = 142.0g",1Value per 100 g,
Proximates
"Energy",kcal,--,--,329,232
"Protein",g,--,--,26.99,19.01
"Total lipid (fat)",g,--,--,23.00,16.20
"Carbohydrate, by difference",g,--,--,3.00,2.11
"Fiber, total dietary",g,--,--,0.0,0.0
"Sugars, total",g,--,--,0.00,0.00
Minerals
"Calcium, Ca",mg,--,--,17,12
"Iron, Fe",mg,--,--,0.99,0.70
"Sodium, Na",mg,--,--,490,345
Vitamins
Lipids
"Fatty acids, total saturated",g,--,--,4.501,3.170
"Fatty acids, total trans",g,--,--,0.000,0.000
"Cholesterol",mg,--,--,70,49
Amino Acids
Other
Ingredients
"ATLANTIC SALMON, CANOLA OIL, SEASONING (SEA SALT, ORGANIC SPICES [INCLUDING PAPRIKA {ROASTED}], ORGANIC DEHYDRATED VEGETABLES [ORGANIC GARLIC, ORGANIC ONION], ORGANIC SUGAR, CITRIC ACID, ORGANIC LIME FLAVOR [ORGANIC SOYBEAN OIL, NATURAL FLAVOR WITH OTHER NATURAL FLAVORS], ORGANIC LEMON OIL, ASCORBIC ACID, ORGANIC TEQUILA TYPE FLAVOR [ORGANIC TEQUILA TYPE FLAVOR WITH OTHER NATURAL FLAVORS, ORGANIC MALTODEXTRIN, ORGANIC RICE CONCENTRATE]), FLOUR (UNBLEACHED WHEAT FLOUR, MALTED BARLEY FLOUR, NIACIN, REDUCED IRON, THIAMIN MONONITRATE, RIBOFLAVIN, FOLIC ACID)." Date available: 09/20/2017 Date last updated by company: 09/20/2017
