Source: USDA Branded Food Products Database Release December 2017 Software v.3.8.6.4 2017-10-02
Report Run at: December 17, 2017 01:29 EST
"Nutrient data for: 45169299, ATLANTIC SHORES, JUMBO LUMP CRABMEAT, UPC: 826168618105"
Food Group:  Branded Food Products Database
Common Name:

Nutrient,Unit,Data points,Std. Error,"4.0 ONZ = 113.0g",1Value per 100 g,
Proximates
"Energy",kcal,--,--,99,88
"Protein",g,--,--,20.00,17.70
"Total lipid (fat)",g,--,--,2.00,1.77
"Carbohydrate, by difference",g,--,--,0.00,0.00
"Fiber, total dietary",g,--,--,0.0,0.0
"Sugars, total",g,--,--,0.00,0.00
Minerals
"Calcium, Ca",mg,--,--,99,88
"Iron, Fe",mg,--,--,0.54,0.48
"Sodium, Na",mg,--,--,330,292
Vitamins
"Vitamin C, total ascorbic acid",mg,--,--,1.8,1.6
"Vitamin A, IU",IU,--,--,75,66
Lipids
"Fatty acids, total saturated",g,--,--,0.497,0.440
"Cholesterol",mg,--,--,95,84
Amino Acids
Other
Ingredients
"CRABMEAT PICKED FROM THE BLUE CRAB (CALLINECTES SAPIDUS.)" Date available: 07/14/2017 Date last updated by company: 07/14/2017
