Source: USDA Branded Food Products Database Release December 2017 Software v.3.8.6.4 2017-10-02
Report Run at: December 17, 2017 01:30 EST
"Nutrient data for: 45135818, ATTUNE FOODS, EREWHON, HONEY GRAHAMS, HONEY, UPC: 075940383520"
Food Group:  Branded Food Products Database
Common Name:

Nutrient,Unit,Data points,Std. Error,"2.0 FULL CRACKER SHEETS = 31.0g",1Value per 100 g,
Proximates
"Energy",kcal,--,--,130,419
"Protein",g,--,--,2.00,6.45
"Total lipid (fat)",g,--,--,2.50,8.06
"Carbohydrate, by difference",g,--,--,23.00,74.19
"Fiber, total dietary",g,--,--,1.0,3.2
"Sugars, total",g,--,--,7.00,22.58
Minerals
"Calcium, Ca",mg,--,--,0,0
"Iron, Fe",mg,--,--,0.58,1.88
"Sodium, Na",mg,--,--,125,403
Vitamins
"Vitamin C, total ascorbic acid",mg,--,--,0.0,0.0
"Vitamin A, IU",IU,--,--,0,0
Lipids
"Fatty acids, total saturated",g,--,--,0.000,0.000
"Fatty acids, total trans",g,--,--,0.000,0.000
"Cholesterol",mg,--,--,0,0
Amino Acids
Other
Ingredients
"ORGANIC WHEAT FLOUR, ORGANIC WHOLE WHEAT GRAHAM FLOUR, ORGANIC CANE SUGAR, ORGANIC VEGETABLE OILS (SAFFLOWER OR SUNFLOWER), ORGANIC HONEY, ORGANIC MOLASSES, LEAVENING (BAKING SODA, AMMONIUM BICARBONATE), SEA SALT, CREAM OF TARTAR." Date available: 06/24/2017 Date last updated by company: 06/24/2017
