Source: USDA Branded Food Products Database Release December 2017 Software v.3.8.6.4 2017-10-02
Report Run at: December 17, 2017 01:35 EST
"Nutrient data for: 45102258, AUNT MILLIE'S, HAWAIIAN HOT DOG BUNS, UPC: 071314046527"
Food Group:  Branded Food Products Database
Common Name:

Nutrient,Unit,Data points,Std. Error,"1 BUN = 44.0g",1Value per 100 g,
Proximates
"Energy",kcal,--,--,130,295
"Protein",g,--,--,4.00,9.09
"Total lipid (fat)",g,--,--,2.00,4.55
"Carbohydrate, by difference",g,--,--,24.00,54.55
"Fiber, total dietary",g,--,--,1.0,2.3
"Sugars, total",g,--,--,5.00,11.36
Minerals
"Calcium, Ca",mg,--,--,60,136
"Iron, Fe",mg,--,--,2.05,4.65
"Sodium, Na",mg,--,--,180,409
Vitamins
"Vitamin C, total ascorbic acid",mg,--,--,0.0,0.0
"Thiamin",mg,--,--,0.440,1.000
"Riboflavin",mg,--,--,0.136,0.309
"Niacin",mg,--,--,2.272,5.164
"Vitamin A, IU",IU,--,--,0,0
Lipids
"Fatty acids, total saturated",g,--,--,0.000,0.000
"Fatty acids, total monounsaturated",g,--,--,0.000,0.000
"Fatty acids, total polyunsaturated",g,--,--,0.502,1.140
"Fatty acids, total trans",g,--,--,0.000,0.000
"Cholesterol",mg,--,--,0,0
Amino Acids
Other
Ingredients
"ENRICHED UNBLEACHED FLOUR [WHEAT FLOUR, MALTED BARLEY FLOUR, REDUCED IRON, THIAMINE MONONITRATE (VITAMIN B1), RIBOFLAVIN (VITAMIN B2), NIACIN (VITAMIN B3), FOLIC ACID], WATER, SUGAR, YEAST, SOYBEAN OIL, WHEAT GLUTEN, SALT, YELLOW CORN FLOUR, CALCIUM PROPIONATE (A PRESERVATIVE), NATURAL AND ARTIFICIAL FLAVORS, MONOGLYCERIDES, SODIUM STEAROYL LACTYLATE, ETHOXYLATED MONO- AND DIGLYCERIDES, SPICE OILS (TURMERIC AND ANNATTO), MODIFIED FOOD STARCH, CALCIUM SULFATE, CITRIC ACID, ASCORBIC ACID, SODIUM ALGINATE, POLYSORBATE 60." Date available: 07/14/2017 Date last updated by company: 07/14/2017
