Source: USDA Branded Food Products Database Release December 2017 Software v.3.8.6.4 2017-10-02
Report Run at: December 17, 2017 02:05 EST
"Nutrient data for: 45256245, AUTHENTIC TAVERN STYLE PIZZA, UPC: 038708950365"
Food Group:  Branded Food Products Database
Common Name:

Nutrient,Unit,Data points,Std. Error,"0.16 PIZZA = 138.0g",1Value per 100 g,
Proximates
"Energy",kcal,--,--,360,261
"Protein",g,--,--,17.00,12.32
"Total lipid (fat)",g,--,--,20.00,14.49
"Carbohydrate, by difference",g,--,--,28.99,21.01
"Fiber, total dietary",g,--,--,1.9,1.4
"Sugars, total",g,--,--,4.00,2.90
Minerals
"Calcium, Ca",mg,--,--,200,145
"Iron, Fe",mg,--,--,2.54,1.84
"Sodium, Na",mg,--,--,1010,732
Vitamins
"Vitamin C, total ascorbic acid",mg,--,--,6.8,4.9
"Vitamin A, IU",IU,--,--,707,512
Lipids
"Fatty acids, total saturated",g,--,--,10.005,7.250
"Fatty acids, total trans",g,--,--,0.000,0.000
"Cholesterol",mg,--,--,50,36
Amino Acids
Other
Ingredients
"CRUST: ENRICHED WHEAT FLOUR (FLOUR, NIACIN, IRON, THIAMINE MONONITRATE, RIBOFLAVIN, FOLIC ACID, ENZYME, ASCORBIC ACID), WATER, SOYBEAN OIL, YEAST, BREAD CRUMBS (WHEAT FLOUR, YEAST, SUGAR, SALT), OLIVE OIL, SUGAR, SALT, CULTURED WHEAT STARCH, HONEY, SODIUM BICARBONATE, SODIUM ALUMINUM PHOSPHATE, L-CYSTEINE, CITRIC ACID. LOW MOISTURE MOZZARELLA CHEESE: PASTEURIZED MILK, CHEESE CULTURES, SALT, ENZYMES, POWDERED CELLULOSE (TO PREVENT CAKING). SAUCE: TOMATO SAUCE (WATER, TOMATO PASTE), SALT, SUGAR, SPICES, DEXTROSE, HYDROLYZED SOY PROTEIN, GARLIC EXTRACT, SOYBEAN OIL, REFINED OLIVE PUMACE OIL, EXTRA VIRGIN OLIVE OIL. PEPPERONI: PORK, BEEF, SALT, SPICES, DEXTROSE LACTIC ACID STARTER CULTURE, OLEORESIN OF PAPRIKA, FLAVORING, SODIUM NITRITE, BHA BHT, CITRIC ACID. PEPPERONI: PORK, BEEF, SALT, SPICES, DEXTROSE, LACTIC ACID STARTER CULTURE, OLEORESIN OF PAPRIKA, FLAVORING, SODIUM NITRITE, BHA, BHT, CITRIC ACID, SODIUM ASCORBATE, SPICES." Date available: 07/14/2017 Date last updated by company: 07/14/2017
