Source: USDA Branded Food Products Database Release December 2017 Software v.3.8.6.4 2017-10-02
Report Run at: December 17, 2017 02:03 EST
"Nutrient data for: 45186993, AUTHENTIC JAPANESE BOWLS, SESAME GINGER SALMON WITH WHITE RICE, UPC: 854487006600"
Food Group:  Branded Food Products Database
Common Name:

Nutrient,Unit,Data points,Std. Error,"9.0 ONZ = 255.0g",1Value per 100 g,
Proximates
"Energy",kcal,--,--,280,110
"Protein",g,--,--,17.01,6.67
"Total lipid (fat)",g,--,--,5.99,2.35
"Carbohydrate, by difference",g,--,--,38.99,15.29
"Fiber, total dietary",g,--,--,2.0,0.8
"Sugars, total",g,--,--,7.01,2.75
Minerals
"Calcium, Ca",mg,--,--,41,16
"Iron, Fe",mg,--,--,1.38,0.54
"Sodium, Na",mg,--,--,411,161
Vitamins
"Vitamin C, total ascorbic acid",mg,--,--,16.1,6.3
"Vitamin A, IU",IU,--,--,2678,1050
Lipids
"Fatty acids, total saturated",g,--,--,0.995,0.390
"Fatty acids, total trans",g,--,--,0.000,0.000
"Cholesterol",mg,--,--,36,14
Amino Acids
Other
Ingredients
"WHITE RICE: WHITE RICE, WATER. GINGER VEGETABLE MIX: SNOW PEAS, CARROTS, WATER CHESTNUTS. SALMON FILET: WILD ALASKA SALMON. SESAME GINGER SAUCE: WATER, TAMARI (WATER, SOYBEANS, SALT), CANE SUGAR, GINGER PUREE, NATIVE CORN STARCH, TOASTED SESAME OIL, GARLIC PUREE, EXPELLER PRESSED CANOLA OIL, LEMON JUICE CONCENTRATE, SESAME SEEDS, CAYENNE PEPPER." Date available: 07/14/2017 Date last updated by company: 07/14/2017
