Source: USDA Branded Food Products Database Release December 2017 Software v.3.8.6.4 2017-10-02
Report Run at: December 17, 2017 02:02 EST
"Nutrient data for: 45191285, AUTHENTIC ITALIAN ICES, UPC: 072392949298"
Food Group:  Branded Food Products Database
Common Name:

Nutrient,Unit,Data points,Std. Error,"1 POP = 43.0g",1Value per 100 g,
Proximates
"Energy",kcal,--,--,45,105
"Protein",g,--,--,0.00,0.00
"Total lipid (fat)",g,--,--,0.00,0.00
"Carbohydrate, by difference",g,--,--,11.00,25.58
"Sugars, total",g,--,--,9.00,20.93
Minerals
"Sodium, Na",mg,--,--,10,23
Vitamins
Lipids
Amino Acids
Other
Ingredients
"WATER, HIGH FRUCTOSE CORN SYRUP, MALTODEXTRIN, CONTAINS 2% OR LESS OF THE FOLLOWING: APPLE AND PEAR JUICE FROM CONCENTRATE, NATURAL AND ARTIFICIAL FLAVORS, PECTIN, CITRIC ACID, SODIUM CITRATE, SODIUM BENZOATE AND POTASSIUM SORBATE (PRESERVATIVES), RED 40, BLUE 1, YELLOW 5, YELLOW 6." Date available: 07/14/2017 Date last updated by company: 07/14/2017
