Source: USDA Branded Food Products Database Release December 2017 Software v.3.8.6.4 2017-10-02
Report Run at: December 17, 2017 02:03 EST
"Nutrient data for: 45049778, AUTHENTIC MEXICAN RECIPE SALSA, UPC: 017072003013"
Food Group:  Branded Food Products Database
Common Name:

Nutrient,Unit,Data points,Std. Error,"2.0 Tbsp = 28.0g",1Value per 100 g,
Proximates
"Energy",kcal,--,--,10,36
"Protein",g,--,--,0.00,0.00
"Total lipid (fat)",g,--,--,0.00,0.00
"Carbohydrate, by difference",g,--,--,2.00,7.14
Minerals
"Sodium, Na",mg,--,--,150,536
Vitamins
"Vitamin C, total ascorbic acid",mg,--,--,6.4,22.9
"Vitamin A, IU",IU,--,--,357,1275
Lipids
"Fatty acids, total trans",g,--,--,0.000,0.000
Amino Acids
Other
Ingredients
"TOMATOES, WATER, JALAPENO PEPPERS, GREEN CHILE PEPPERS, RED BELL PEPPERS, GREEN BELL PEPPERS, BLACK BEANS, CORN, ONIONS, SUGAR, SALT, VINEGAR, GARLIC, CILANTRO, NATURAL FLAVOR, BASIL AND OREGANO." Date available: 06/25/2017 Date last updated by company: 06/25/2017
