Source: USDA Branded Food Products Database Release December 2017 Software v.3.8.6.4 2017-10-02
Report Run at: December 17, 2017 01:42 EST
"Nutrient data for: 45227910, AUTHENTIC GREEN CHILE SAUCE, UPC: 826645000027"
Food Group:  Branded Food Products Database
Common Name:

Nutrient,Unit,Data points,Std. Error,"0.25 cup = 59.0g",1Value per 100 g,
Proximates
"Energy",kcal,--,--,45,76
"Protein",g,--,--,2.00,3.39
"Total lipid (fat)",g,--,--,3.00,5.08
"Carbohydrate, by difference",g,--,--,4.00,6.78
"Fiber, total dietary",g,--,--,0.0,0.0
"Sugars, total",g,--,--,1.00,1.69
Minerals
"Sodium, Na",mg,--,--,190,322
Vitamins
"Vitamin C, total ascorbic acid",mg,--,--,22.8,38.7
"Vitamin A, IU",IU,--,--,169,286
Lipids
"Fatty acids, total saturated",g,--,--,0.997,1.690
"Fatty acids, total trans",g,--,--,0.000,0.000
"Cholesterol",mg,--,--,5,8
Amino Acids
Other
Ingredients
"WATER, GREEN CHILES, CRUSHED TOMATOES (TOMATOES, TOMATO PUREE, CITRIC ACID), PORK, LARD (LARD AND HYDROGENATED LARD, BHA, PROPYL GALLATE AND CITRIC ACID ADDED TO PROTECT FLAVOR), ENRICHED WHEAT FLOUR (BLEACHED WHEAT FLOUR, MALTED BARLEY FLOUR, NIACIN, REDUCED IRON, THIAMINE MONONITRATE, RIBOFLAVIN, FOLIC ACID), MODIFIED FOOD STARCH, GARLIC SALT (SALT, DEHYDRATED GARLIC AND NO MORE THAN 2% TRICALCIUM PHOSPHATE ADDED TO PREVENT CAKING), SALT." Date available: 07/14/2017 Date last updated by company: 07/14/2017
