Source: USDA Branded Food Products Database Release December 2017 Software v.3.8.6.4 2017-10-02
Report Run at: December 17, 2017 02:06 EST
"Nutrient data for: 45268409, AUTUMN PUMPKIN BISQUE, UPC: 758940709094"
Food Group:  Branded Food Products Database
Common Name:

Nutrient,Unit,Data points,Std. Error,"8.0 OZA = 222.0g",1Value per 100 g,
Proximates
"Energy",kcal,--,--,209,94
"Protein",g,--,--,2.40,1.08
"Total lipid (fat)",g,--,--,15.30,6.89
"Carbohydrate, by difference",g,--,--,17.69,7.97
"Fiber, total dietary",g,--,--,4.2,1.9
"Sugars, total",g,--,--,10.10,4.55
Minerals
"Calcium, Ca",mg,--,--,71,32
"Iron, Fe",mg,--,--,2.00,0.90
"Sodium, Na",mg,--,--,526,237
Vitamins
"Vitamin C, total ascorbic acid",mg,--,--,8.0,3.6
"Vitamin A, IU",IU,--,--,21521,9694
Lipids
"Fatty acids, total saturated",g,--,--,9.502,4.280
"Fatty acids, total trans",g,--,--,0.000,0.000
"Cholesterol",mg,--,--,53,24
Amino Acids
Other
Ingredients
"WATER, PUMPKIN, HEAVY CREAM, ONIONS, DARK BROWN SUGAR, BUTTER, SALT, TAHITIAN VANILLA EXTRACT CINNAMON, WHITE PEPPER." Date available: 07/14/2017 Date last updated by company: 07/14/2017
