Source: USDA Branded Food Products Database Release December 2017 Software v.3.8.6.4 2017-10-02
Report Run at: December 17, 2017 02:06 EST
"Nutrient data for: 45108629, AUTUMN SQUASH SOUP, UPC: 077958690133"
Food Group:  Branded Food Products Database
Common Name:

Nutrient,Unit,Data points,Std. Error,"1 cup = 245.0g",1Value per 100 g,
Proximates
"Energy",kcal,--,--,240,98
"Protein",g,--,--,2.99,1.22
"Total lipid (fat)",g,--,--,12.01,4.90
"Carbohydrate, by difference",g,--,--,29.99,12.24
"Fiber, total dietary",g,--,--,2.9,1.2
"Sugars, total",g,--,--,19.99,8.16
Minerals
"Calcium, Ca",mg,--,--,81,33
"Iron, Fe",mg,--,--,0.00,0.00
"Sodium, Na",mg,--,--,821,335
Vitamins
"Vitamin C, total ascorbic acid",mg,--,--,0.0,0.0
"Vitamin A, IU",IU,--,--,3501,1429
Lipids
"Fatty acids, total saturated",g,--,--,8.011,3.270
"Fatty acids, total trans",g,--,--,0.000,0.000
"Cholesterol",mg,--,--,34,14
Amino Acids
Other
Ingredients
"PUMPKIN, VEGETABLE STOCK (WATER, VEGETABLE BASE [CARROTS, CELERY, ONIONS, TOMATO PASTE, CORN OIL, YEAST EXTRACT, POTATO FLOUR, SALT, ONION POWDER, GARLIC POWDER, NATURAL FLAVOR]), MILK, CREAM CHEESE (PASTEURIZED MILK AND CREAM, CHEESE CULTURE, SALT, CAROB BEAN GUM), BROWN SUGAR, BUTTERNUT SQUASH, HEAVY CREAM, CONTAINS 2% OR LESS OF: CARROTS, ONIONS, BUTTER (CREAM, SALT), APPLE JUICE CONCENTRATE, SUGAR, CORN STARCH, SALT, GINGER PUREE (GINGER, CITRIC ACID), HONEY, LEMON JUICE CONCENTRATE, CURRY POWDER (SPICES, TURMERIC, ONIONS), SPICES AND NISIN PREPARATION." Date available: 07/14/2017 Date last updated by company: 07/14/2017
