Source: USDA Branded Food Products Database Release December 2017 Software v.3.8.6.4 2017-10-02
Report Run at: December 17, 2017 02:09 EST
"Nutrient data for: 45134892, AWARD CUISINE Stuffed Caggage With Beef In Tomato Sauce, UNPREPARED, GTIN: 00094643485072"
Food Group:  Branded Food Products Database
Common Name:

Nutrient,Unit,Data points,Std. Error,"1 Roll w/sauce (217g) = 217.0g",1Value per 100 g,
Proximates
"Energy",kcal,--,--,219,101
"Protein",g,--,--,9.01,4.15
"Total lipid (fat)",g,--,--,9.01,4.15
"Carbohydrate, by difference",g,--,--,25.00,11.52
"Fiber, total dietary",g,--,--,3.9,1.8
"Sugars, total",g,--,--,8.01,3.69
Minerals
"Calcium, Ca",mg,--,--,80,37
"Iron, Fe",mg,--,--,1.08,0.50
"Sodium, Na",mg,--,--,779,359
Vitamins
"Vitamin C, total ascorbic acid",mg,--,--,6.1,2.8
"Vitamin A, IU",IU,--,--,399,184
Lipids
"Fatty acids, total saturated",g,--,--,3.494,1.610
"Fatty acids, total trans",g,--,--,0.000,0.000
"Cholesterol",mg,--,--,35,16
Amino Acids
Other
Ingredients
"Stuffed Cabbage Rolls (Cabbage Leaves, Cooked Beef, Water, White Rice, Onions, Bread Crumb [Wheat Flour, Sugar, Yeast, Soybean Oil, Salt, Calcium Propionate {to protect freshness}], Eggs, Green Bell Pepper, Textured Soy Protein Concentrate (Soy Protein Concentrate, Caramel Color), Salt, Celery, Nonfat Dry Milk, Isolated Soy Protein, Beef Flavor [Contains Autolyzed Yeast Extract, Mono & Diglycerides, Polysorbate 60, Disodium Inosinate & Disodium Guanylate, Xanthan Gum], Spice, Caramel Color), Water, Diced Tomatoes with Juice, Tomato Paste, Sugar, Modified Corn Starch, Dehydrated Onion, Wheat Flour, Salt, Dehydrated Garlic, Onion Powder, Citric Acid, Diced Onions, Beef Flavor (Contains Autolyzed Yeast Extract, Mono & Diglycerides, Polysorbate 60, Disodium Inosinate & Disodium Guanylate, Xanthan Gum), Calcium Chloride, Spice, Citric Acid. CONTAINS: WHEAT, MILK, SOY, EGGS." Date available: 10/11/2017 Date last updated by company: 09/14/2017
