Source: USDA Branded Food Products Database Release December 2017 Software v.3.8.6.4 2017-10-02
Report Run at: December 17, 2017 02:10 EST
"Nutrient data for: 45269060, AWESOME BANQ. FUDGE DOUBLE, UPC: 837654827390"
Food Group:  Branded Food Products Database
Common Name:

Nutrient,Unit,Data points,Std. Error,"1 CAKE = 99.0g",1Value per 100 g,
Proximates
"Energy",kcal,--,--,340,343
"Protein",g,--,--,4.00,4.04
"Total lipid (fat)",g,--,--,14.00,14.14
"Carbohydrate, by difference",g,--,--,53.00,53.54
"Fiber, total dietary",g,--,--,3.0,3.0
"Sugars, total",g,--,--,31.00,31.31
Minerals
"Calcium, Ca",mg,--,--,40,40
"Iron, Fe",mg,--,--,2.91,2.94
"Sodium, Na",mg,--,--,320,323
Vitamins
"Vitamin C, total ascorbic acid",mg,--,--,0.0,0.0
"Vitamin A, IU",IU,--,--,81,82
Lipids
"Fatty acids, total saturated",g,--,--,3.000,3.030
"Fatty acids, total trans",g,--,--,0.000,0.000
"Cholesterol",mg,--,--,55,56
Amino Acids
Other
Ingredients
"SUGAR, WATER, WHOLE EGGS, WHEAT FLOUR, CORN SYRUP, CORNSTARCH, SOYBEAN OIL, MONO AND DIGLYCERIDES WITH TOCOPHEROLS, DUTCH PROCESS COCOAS, BLEND OF PALM & SOYA OIL, LECITHIN, SALT, DEXTROSE, DRY SKIM MILK, BAKING SODA, BAKING POWDER, NATURAL AND ARTIFICIAL COLORS AND FLAVORS." Date available: 10/11/2017 Date last updated by company: 10/11/2017
