Source: USDA Branded Food Products Database Release December 2017 Software v.3.8.6.4 2017-10-02
Report Run at: December 17, 2017 04:54 EST
"Nutrient data for: 45048587, AXELROD, LOWFAT YOGURT, PEACH, UPC: 071700382321"
Food Group:  Branded Food Products Database
Common Name:

Nutrient,Unit,Data points,Std. Error,"1 CONTAINER = 170.0g",1Value per 100 g,
Proximates
"Energy",kcal,--,--,180,106
"Protein",g,--,--,6.00,3.53
"Total lipid (fat)",g,--,--,1.50,0.88
"Carbohydrate, by difference",g,--,--,36.01,21.18
"Fiber, total dietary",g,--,--,0.0,0.0
"Sugars, total",g,--,--,31.01,18.24
Minerals
"Calcium, Ca",mg,--,--,201,118
"Iron, Fe",mg,--,--,0.00,0.00
"Sodium, Na",mg,--,--,105,62
Vitamins
"Vitamin C, total ascorbic acid",mg,--,--,0.0,0.0
"Vitamin A, IU",IU,--,--,100,59
Lipids
"Fatty acids, total saturated",g,--,--,1.003,0.590
"Fatty acids, total trans",g,--,--,0.000,0.000
"Cholesterol",mg,--,--,10,6
Amino Acids
Other
Ingredients
"CULTURED PASTEURIZED LOWFAT MILK, CORN STARCH, WHEY PROTEIN CONCENTRATE, PEACHES, MODIFIED CORN STARCH, SUGAR, NATURAL FLAVORS, WHEY, CITRIC ACID, CARRAGEENAN, PECTIN, POTASSIUM SORBATE (TO PRESERVE FRESHNESS) AND ANNATTO (FOR COLOR)." Date available: 06/25/2017 Date last updated by company: 06/25/2017
