Source: USDA Branded Food Products Database Release December 2017 Software v.3.8.6.4 2017-10-02
Report Run at: December 17, 2017 04:55 EST
"Nutrient data for: 45099688, AYAM BRAND, SARDINES IN TERIYAKI SAUCE, UPC: 9556041600033"
Food Group:  Branded Food Products Database
Common Name:

Nutrient,Unit,Data points,Std. Error,"2.0 oz = 56.0g",1Value per 100 g,
Proximates
"Energy",kcal,--,--,110,196
"Protein",g,--,--,10.00,17.86
"Total lipid (fat)",g,--,--,5.00,8.93
"Carbohydrate, by difference",g,--,--,5.00,8.93
"Fiber, total dietary",g,--,--,0.0,0.0
"Sugars, total",g,--,--,4.00,7.14
Minerals
"Calcium, Ca",mg,--,--,250,446
"Iron, Fe",mg,--,--,1.80,3.21
"Sodium, Na",mg,--,--,370,661
Vitamins
"Vitamin C, total ascorbic acid",mg,--,--,0.0,0.0
"Vitamin A, IU",IU,--,--,0,0
Lipids
"Fatty acids, total saturated",g,--,--,1.999,3.570
"Fatty acids, total trans",g,--,--,0.000,0.000
"Cholesterol",mg,--,--,10,18
Amino Acids
Other
Ingredients
"FRIED SARDINES FISH (SARDINES FISH, PALM OIL), WATER, SOY SAUCE (SOYBEAN, WHEAT, SUGAR, SALT, WATER), SUGAR, OYSTER SAUCE (WATER, SUGAR, SALT, OYSTER EXTRACT, MODIFIED CORN STARCH, XANTHAN GUM, RICE FLOUR, FOOD ACIDS (ACETIC ACID, LACTIC ACID), CARAMEL, YEAST EXTRACT, OYSTER FLAVOR), GUAR GUM, SALT" Date available: 09/23/2016 Date last updated by company: 09/23/2016
