Source: USDA Branded Food Products Database Release December 2017 Software v.3.8.6.4 2017-10-02
Report Run at: December 17, 2017 04:55 EST
"Nutrient data for: 45104762, AZTECA, FLOUR TORTILLAS, UPC: 041289895505"
Food Group:  Branded Food Products Database
Common Name:

Nutrient,Unit,Data points,Std. Error,"2.0 TORTILLAS = 48.0g",1Value per 100 g,
Proximates
"Energy",kcal,--,--,170,354
"Protein",g,--,--,4.00,8.33
"Total lipid (fat)",g,--,--,3.50,7.29
"Carbohydrate, by difference",g,--,--,30.00,62.50
"Fiber, total dietary",g,--,--,1.0,2.1
"Sugars, total",g,--,--,1.00,2.08
Minerals
"Calcium, Ca",mg,--,--,20,42
"Iron, Fe",mg,--,--,2.06,4.30
"Sodium, Na",mg,--,--,360,750
Vitamins
"Vitamin C, total ascorbic acid",mg,--,--,0.0,0.0
"Vitamin A, IU",IU,--,--,0,0
Lipids
"Fatty acids, total saturated",g,--,--,0.398,0.830
"Fatty acids, total trans",g,--,--,0.000,0.000
"Cholesterol",mg,--,--,0,0
Amino Acids
Other
Ingredients
"ENRICHED FLOUR (WHEAT FLOUR, NIACIN, REDUCED IRON, THIAMINE MONONITRATE, RIBOFLAVIN, FOLIC ACID), WATER, VEGETABLE OIL (CONTAINS ONE OR MORE OF THE FOLLOWING: CORN OIL, CANOLA OIL, SUNFLOWER OIL) GLYCERINE, BAKING POWDER (SODIUM ACID PYROPHOSPHATE, SODIUM BICARBONATE, CORN STARCH, MONOCALCIUM PHOSPHATE, CALCIUM SULFATE), SALT." Date available: 06/25/2017 Date last updated by company: 06/25/2017
