Source: USDA Branded Food Products Database Release December 2017 Software v.3.8.6.4 2017-10-02
Report Run at: December 17, 2017 00:42 EST
"Nutrient data for: 45317828, B . B . Q SAUCE, UPC: 019582000049"
Food Group:  Branded Food Products Database
Common Name:

Nutrient,Unit,Data points,Std. Error,"2.0 Tbsp = 36.0g",1Value per 100 g,
Proximates
"Energy",kcal,--,--,50,139
"Protein",g,--,--,1.00,2.78
"Total lipid (fat)",g,--,--,0.00,0.00
"Carbohydrate, by difference",g,--,--,13.00,36.11
"Fiber, total dietary",g,--,--,1.0,2.8
"Sugars, total",g,--,--,11.00,30.56
Minerals
"Calcium, Ca",mg,--,--,20,56
"Iron, Fe",mg,--,--,0.00,0.00
"Sodium, Na",mg,--,--,310,861
Vitamins
"Vitamin C, total ascorbic acid",mg,--,--,0.0,0.0
"Vitamin A, IU",IU,--,--,0,0
Lipids
"Fatty acids, total saturated",g,--,--,0.000,0.000
"Fatty acids, total trans",g,--,--,0.000,0.000
"Cholesterol",mg,--,--,0,0
Amino Acids
Other
Ingredients
"HIGH FRUCTOSE CORN SYRUP, TOMATO PUREE (WATER, TOMATO PASTE), APPLE CIDER VINEGAR, VINEGAR MOLASSES, SALT, CONTAINS LESS THAN 2% OF MODIFIED FOOD STARCH, MUSTARD FLOUR, DRIED ONIONS, SPICE, NATURAL HICKORY SMOKE FLAVOR, DRIED GARLIC, NATURAL FLAVOR, POTASSIUM SORBATE (TO PRESERVE FRESHNESS)" Date available: 07/14/2017 Date last updated by company: 07/14/2017
