Source: USDA Branded Food Products Database Release December 2017 Software v.3.8.6.4 2017-10-02
Report Run at: December 17, 2017 02:53 EST
"Nutrient data for: 45028355, B&G, SALAD OLIVES, UPC: 031500001938"
Food Group:  Branded Food Products Database
Common Name:

Nutrient,Unit,Data points,Std. Error,"2.0 Tbsp = 15.0g",1Value per 100 g,
Proximates
"Energy",kcal,--,--,25,167
"Protein",g,--,--,0.00,0.00
"Total lipid (fat)",g,--,--,2.50,16.67
"Carbohydrate, by difference",g,--,--,1.00,6.67
Minerals
"Sodium, Na",mg,--,--,300,2000
Vitamins
Lipids
"Fatty acids, total monounsaturated",g,--,--,1.500,10.000
"Fatty acids, total polyunsaturated",g,--,--,0.000,0.000
"Fatty acids, total trans",g,--,--,0.000,0.000
"Cholesterol",mg,--,--,0,0
Amino Acids
Other
Ingredients
"MANZANILLA OLIVES, WATER, MINCED PIMIENTO (SODIUM ALGINATE, GUAR GUM, CALCIUM CHLORIDE), SALT AND LACTIC ACID." Date available: 07/14/2017 Date last updated by company: 07/14/2017
