Source: USDA Branded Food Products Database Release December 2017 Software v.3.8.6.4 2017-10-02
Report Run at: December 17, 2017 02:53 EST
"Nutrient data for: 45020915, B&G, SANDWICH TOPPERS, HOT PEPPERS, UPC: 031500004625"
Food Group:  Branded Food Products Database
Common Name:

Nutrient,Unit,Data points,Std. Error,"7.0 PIECES = 28.0g",1Value per 100 g,
Proximates
"Energy",kcal,--,--,0,0
"Protein",g,--,--,0.00,0.00
"Total lipid (fat)",g,--,--,0.00,0.00
"Carbohydrate, by difference",g,--,--,1.00,3.57
"Sugars, total",g,--,--,0.00,0.00
Minerals
"Sodium, Na",mg,--,--,310,1107
Vitamins
Lipids
"Fatty acids, total trans",g,--,--,0.000,0.000
Amino Acids
Other
Ingredients
"PEPPERS, DISTILLED VINEGAR, WATER, SALT, CALCIUM CHLORIDE, NATURAL FLAVORS, YELLOW #5, SODIUM BENZOATE AND SODIUM METABISULFITE (TO PRESERVE FRESHNESS)." Date available: 06/25/2017 Date last updated by company: 06/25/2017
