Source: USDA Branded Food Products Database Release December 2017 Software v.3.8.6.4 2017-10-02
Report Run at: December 17, 2017 02:52 EST
"Nutrient data for: 45020908, B&G, INDIA RELISH, UPC: 031500005042"
Food Group:  Branded Food Products Database
Common Name:

Nutrient,Unit,Data points,Std. Error,"1 Tbsp = 15.0g",1Value per 100 g,
Proximates
"Energy",kcal,--,--,15,100
"Protein",g,--,--,0.00,0.00
"Total lipid (fat)",g,--,--,0.00,0.00
"Carbohydrate, by difference",g,--,--,4.00,26.67
"Sugars, total",g,--,--,3.00,20.00
Minerals
"Sodium, Na",mg,--,--,120,800
Vitamins
Lipids
"Fatty acids, total trans",g,--,--,0.000,0.000
Amino Acids
Other
Ingredients
"CUCUMBERS, HIGH FRUCTOSE CORN SYRUP, WATER, VINEGAR, SALT, CALCIUM CHLORIDE, SPICES, XANTHAN GUM, SODIUM BENZOATE (PRESERVATIVE), NATURAL FLAVORS, CELERY SEED, PEPPERS, FD&C YELLOW # 5, POLYSORBATE 80, CURRY POWDER." Date available: 06/25/2017 Date last updated by company: 06/25/2017
