Source: USDA Branded Food Products Database Release December 2017 Software v.3.8.6.4 2017-10-02
Report Run at: December 17, 2017 02:53 EST
"Nutrient data for: 45020914, B&G, SANDWICH TOPPERS, HOT CHOPPED PEPPERS, UPC: 031500004984"
Food Group:  Branded Food Products Database
Common Name:

Nutrient,Unit,Data points,Std. Error,"1 Tbsp = 15.0g",1Value per 100 g,
Proximates
"Energy",kcal,--,--,5,33
"Protein",g,--,--,0.00,0.00
"Total lipid (fat)",g,--,--,0.00,0.00
"Carbohydrate, by difference",g,--,--,1.00,6.67
"Sugars, total",g,--,--,0.00,0.00
Minerals
"Sodium, Na",mg,--,--,120,800
Vitamins
Lipids
"Fatty acids, total trans",g,--,--,0.000,0.000
Amino Acids
Other
Ingredients
"PEPPERS, WATER, DISTILLED VINEGAR, SALT, CALCIUM CHLORIDE, NATURAL FLAVORS, XANTHAN GUM, GUAR GUM, SODIUM BENZOATE AND SODIUM METABISULFITE (TO PRESERVE FRESHNESS)" Date available: 06/25/2017 Date last updated by company: 06/25/2017
