Source: USDA Branded Food Products Database Release December 2017 Software v.3.8.6.4 2017-10-02
Report Run at: December 17, 2017 02:54 EST
"Nutrient data for: 45020902, B&G, WHOLE PEPPERONCINI PEPPERS, UPC: 031500004786"
Food Group:  Branded Food Products Database
Common Name:

Nutrient,Unit,Data points,Std. Error,"3.0 PIECES = 28.0g",1Value per 100 g,
Proximates
"Energy",kcal,--,--,10,36
"Protein",g,--,--,0.00,0.00
"Total lipid (fat)",g,--,--,0.00,0.00
"Carbohydrate, by difference",g,--,--,2.00,7.14
"Sugars, total",g,--,--,0.00,0.00
Minerals
"Sodium, Na",mg,--,--,330,1179
Vitamins
Lipids
"Fatty acids, total trans",g,--,--,0.000,0.000
Amino Acids
Other
Ingredients
"PEPPERONCINI, WATER, DISTILLED VINEGAR, SALT, CITRIC ACID, YELLOW 5 *, SODIUM BISULFITE* AND SODIUM BENZOATE (TO PRESERVE FRESHNESS)." Date available: 06/25/2017 Date last updated by company: 06/25/2017
