Source: USDA Branded Food Products Database Release December 2017 Software v.3.8.6.4 2017-10-02
Report Run at: December 17, 2017 04:45 EST
"Nutrient data for: 45175164, B-L, LITE RICOTTA CHEESE, UPC: 070442000586"
Food Group:  Branded Food Products Database
Common Name:

Nutrient,Unit,Data points,Std. Error,"0.25 cup = 62.0g",1Value per 100 g,
Proximates
"Energy",kcal,--,--,60,97
"Protein",g,--,--,5.00,8.06
"Total lipid (fat)",g,--,--,2.50,4.03
"Carbohydrate, by difference",g,--,--,3.00,4.84
"Fiber, total dietary",g,--,--,0.0,0.0
"Sugars, total",g,--,--,3.00,4.84
Minerals
"Calcium, Ca",mg,--,--,100,161
"Iron, Fe",mg,--,--,0.32,0.51
"Sodium, Na",mg,--,--,55,89
Vitamins
"Vitamin C, total ascorbic acid",mg,--,--,0.0,0.0
"Vitamin A, IU",IU,--,--,89,143
Lipids
"Fatty acids, total saturated",g,--,--,1.500,2.420
"Fatty acids, total trans",g,--,--,0.000,0.000
"Cholesterol",mg,--,--,15,24
Amino Acids
Other
Ingredients
"WHEY, MILK, VINEGAR, SALT, CARRAGEENAN." Date available: 07/14/2017 Date last updated by company: 07/14/2017
