Source: USDA Branded Food Products Database Release December 2017 Software v.3.8.6.4 2017-10-02
Report Run at: December 18, 2017 22:07 EST
"Nutrient data for: 45011584, B-V, BROTH AND SAUCE CONCENTRATE, THE BEEFER-UPPER, UPC: 073292168246"
Food Group:  Branded Food Products Database
Common Name:

Nutrient,Unit,Data points,Std. Error,"1 tsp = 5.0g",1Value per 100 g,
Proximates
"Energy",kcal,--,--,0,0
"Protein",g,--,--,1.00,20.00
"Total lipid (fat)",g,--,--,0.00,0.00
"Carbohydrate, by difference",g,--,--,0.00,0.00
Minerals
"Sodium, Na",mg,--,--,350,7000
Vitamins
Lipids
"Fatty acids, total saturated",g,--,--,0.000,0.000
Amino Acids
Other
Ingredients
"WATER, HYDROLYZED PLANT PROTEIN, AUTOLYZED YEAST EXTRACT, SALT, BEEF EXTRACT, FLAVORING, SUGAR, VEGETABLE GUM, CARAMEL COLORING." Date available: 06/24/2017 Date last updated by company: 06/24/2017
