Source: USDA Branded Food Products Database Release December 2017 Software v.3.8.6.4 2017-10-02
Report Run at: December 17, 2017 04:55 EST
"Nutrient data for: 45205467, BABA, HUMMUS, UPC: 617215927659"
Food Group:  Branded Food Products Database
Common Name:

Nutrient,Unit,Data points,Std. Error,"2.0 Tbsp = 36.0g",1Value per 100 g,
Proximates
"Energy",kcal,--,--,64,178
"Protein",g,--,--,2.60,7.22
"Total lipid (fat)",g,--,--,3.00,8.33
"Carbohydrate, by difference",g,--,--,7.20,20.00
"Fiber, total dietary",g,--,--,2.0,5.6
"Sugars, total",g,--,--,1.30,3.61
Minerals
"Calcium, Ca",mg,--,--,20,56
"Iron, Fe",mg,--,--,1.25,3.47
"Sodium, Na",mg,--,--,68,189
Vitamins
"Vitamin C, total ascorbic acid",mg,--,--,1.7,4.6
"Vitamin A, IU",IU,--,--,208,579
Lipids
"Fatty acids, total saturated",g,--,--,0.400,1.110
"Cholesterol",mg,--,--,0,0
Amino Acids
Other
Ingredients
"ORGANIC COOKED GARBANZO BEANS, ORGANIC KALE, ORGANIC CHARD, ORGANIC SPINACH, ORGANIC TAHINI (GROUND SESAME SEEDS), ORGANIC OLIVE OIL, ORGANIC FRESH LEMON JUICE, ORGANIC GRANULATED GARLIC, SEA SALT, ORGANIC SPICES, CITRIC ACID." Date available: 07/14/2017 Date last updated by company: 07/14/2017
