Source: USDA Branded Food Products Database Release December 2017 Software v.3.8.6.4 2017-10-02
Report Run at: December 17, 2017 04:56 EST
"Nutrient data for: 45264231, BABIES DILL PICKLES, UPC: 041660004366"
Food Group:  Branded Food Products Database
Common Name:

Nutrient,Unit,Data points,Std. Error,"1.5 PICKLES | ABOUT = 28.0g",1Value per 100 g,
Proximates
"Energy",kcal,--,--,5,18
"Protein",g,--,--,0.00,0.00
"Total lipid (fat)",g,--,--,0.00,0.00
"Carbohydrate, by difference",g,--,--,1.00,3.57
"Sugars, total",g,--,--,0.00,0.00
Minerals
"Sodium, Na",mg,--,--,290,1036
Vitamins
Lipids
Amino Acids
Other
Ingredients
"CUCUMBERS, WATER, DISTILLED VINEGAR, SALT, CALCIUM CHLORIDE, POLYSORBATE 80, GARLIC, NATURAL SPICE FLAVORS, TURMERIC OLEORESIN." Date available: 07/14/2017 Date last updated by company: 07/14/2017
