Source: USDA Branded Food Products Database Release December 2017 Software v.3.8.6.4 2017-10-02
Report Run at: December 17, 2017 04:56 EST
"Nutrient data for: 45275591, BABY BACK PORK RIBS IN BBQ SAUCE, UPC: 053691530400"
Food Group:  Branded Food Products Database
Common Name:

Nutrient,Unit,Data points,Std. Error,"5.0 ONZ = 140.0g",1Value per 100 g,
Proximates
"Energy",kcal,--,--,350,250
"Protein",g,--,--,18.00,12.86
"Total lipid (fat)",g,--,--,21.99,15.71
"Carbohydrate, by difference",g,--,--,17.00,12.14
"Fiber, total dietary",g,--,--,1.0,0.7
"Sugars, total",g,--,--,14.99,10.71
Minerals
"Calcium, Ca",mg,--,--,41,29
"Iron, Fe",mg,--,--,1.44,1.03
"Sodium, Na",mg,--,--,840,600
Vitamins
"Vitamin C, total ascorbic acid",mg,--,--,4.8,3.4
"Vitamin A, IU",IU,--,--,200,143
Lipids
"Fatty acids, total saturated",g,--,--,7.994,5.710
"Fatty acids, total trans",g,--,--,0.000,0.000
"Cholesterol",mg,--,--,76,54
Amino Acids
Other
Ingredients
"PORK BABY BACK RIBS, WATER, CANE SUGAR, TOMATO PASTE, DISTILLED VINEGAR, CONTAINS LESS THAN 2% OF: MOLASSES, SEA SALT, CONCENTRATED PINEAPPLE JUICE, BROWN SUGAR, SALT, CORN STARCH, NATURAL SMOKE FLAVOR, DEXTROSE, FLAVORINGS, SODIUM PHOSPAHTE, GARLIC POWDER, CARAMEL COLOR, XANTHAN GUM, SPICES, PAPRIKA." Date available: 07/14/2017 Date last updated by company: 07/14/2017
