Source: USDA Branded Food Products Database Release December 2017 Software v.3.8.6.4 2017-10-02
Report Run at: December 17, 2017 05:01 EST
"Nutrient data for: 45210205, BABY LIMA BEANS, UPC: 041318480467"
Food Group:  Branded Food Products Database
Common Name:

Nutrient,Unit,Data points,Std. Error,"0.5 cup = 83.0g",1Value per 100 g,
Proximates
"Energy",kcal,--,--,110,133
"Protein",g,--,--,6.00,7.23
"Total lipid (fat)",g,--,--,0.00,0.00
"Carbohydrate, by difference",g,--,--,20.00,24.10
"Fiber, total dietary",g,--,--,5.0,6.0
"Sugars, total",g,--,--,2.00,2.41
Minerals
"Calcium, Ca",mg,--,--,40,48
"Iron, Fe",mg,--,--,1.44,1.73
"Sodium, Na",mg,--,--,60,72
Vitamins
"Vitamin C, total ascorbic acid",mg,--,--,9.0,10.8
"Vitamin A, IU",IU,--,--,0,0
Lipids
"Fatty acids, total saturated",g,--,--,0.000,0.000
"Fatty acids, total trans",g,--,--,0.000,0.000
"Cholesterol",mg,--,--,0,0
Amino Acids
Other
Ingredients
"LIMA BEANS" Date available: 11/25/2016 Date last updated by company: 11/25/2016
