Source: USDA Branded Food Products Database Release December 2017 Software v.3.8.6.4 2017-10-02
Report Run at: December 17, 2017 05:05 EST
"Nutrient data for: 45157127, BACHMAN, PRETZEL RODS, UPC: 077817104900"
Food Group:  Branded Food Products Database
Common Name:

Nutrient,Unit,Data points,Std. Error,"1 PKG = 53.9g",1Value per 100 g,
Proximates
"Energy",kcal,--,--,210,390
"Protein",g,--,--,6.00,11.13
"Total lipid (fat)",g,--,--,1.50,2.78
"Carbohydrate, by difference",g,--,--,42.00,77.92
"Fiber, total dietary",g,--,--,2.0,3.7
"Sugars, total",g,--,--,1.00,1.86
Minerals
"Calcium, Ca",mg,--,--,0,0
"Iron, Fe",mg,--,--,3.34,6.19
"Sodium, Na",mg,--,--,650,1206
Vitamins
"Vitamin C, total ascorbic acid",mg,--,--,0.0,0.0
"Vitamin A, IU",IU,--,--,0,0
Lipids
"Fatty acids, total saturated",g,--,--,0.000,0.000
"Fatty acids, total trans",g,--,--,0.000,0.000
"Cholesterol",mg,--,--,0,0
Amino Acids
Other
Ingredients
"ENRICHED WHEAT FLOUR (WHEAT FLOUR, NIACIN, REDUCED IRON, THIAMIN MONONITRATE, RIBOFLAVIN, FOLIC ACID), VITAL WHEAT GLUTEN, SALT, CORN SYRUP, VEGETABLE OIL (MAY CONTAIN ONE OR MORE OF THE FOLLOWING: CORN OIL, CANOLA OIL, SOYBEAN OIL), SODIUM BICARBONATE, YEAST" Date available: 08/22/2017 Date last updated by company: 08/22/2017
