Source: USDA Branded Food Products Database Release December 2017 Software v.3.8.6.4 2017-10-02
Report Run at: December 17, 2017 05:06 EST
"Nutrient data for: 45039756, BACK TO NATURE, BEEF & BARLEY SOUP, UPC: 819898010622"
Food Group:  Branded Food Products Database
Common Name:

Nutrient,Unit,Data points,Std. Error,"1 cup = 235.0g",1Value per 100 g,
Proximates
"Energy",kcal,--,--,150,64
"Protein",g,--,--,7.99,3.40
"Total lipid (fat)",g,--,--,2.49,1.06
"Carbohydrate, by difference",g,--,--,23.99,10.21
"Fiber, total dietary",g,--,--,4.0,1.7
"Sugars, total",g,--,--,4.00,1.70
Minerals
"Calcium, Ca",mg,--,--,61,26
"Iron, Fe",mg,--,--,2.82,1.20
"Sodium, Na",mg,--,--,540,230
Vitamins
"Vitamin C, total ascorbic acid",mg,--,--,4.9,2.1
"Vitamin A, IU",IU,--,--,2345,998
Lipids
"Fatty acids, total saturated",g,--,--,1.010,0.430
"Fatty acids, total trans",g,--,--,0.000,0.000
"Cholesterol",mg,--,--,14,6
Amino Acids
Other
Ingredients
"WATER, COOKED DICED BEEF WITH CORN STARCH (BEEF, WATER, ORGANIC CORN STARCH, SEA SALT), PEARL BARLEY, CARROTS, DICED TOMATOES IN JUICE (TOMATOES, TOMATO JUICE, CITRIC ACID, CALCIUM CHLORIDE), PEAS, GREEN BEANS, POTATO STARCH, TOMATO PASTE (TOMATOES), BEEF FLAVOR BROTH CONCENTRATE (BEEF STOCK, NATURAL FLAVOR, SALT, SUGAR, AND BEEF FAT), POTASSIUM CHLORIDE, MIREPOIX VEGETABLE BASE (COOKED VEGETABLES [CARROT, ONION AND CELERY), SALT, SUGAR, CORN OIL, POTATO FLOUR AND CARROT POWDER), SEA SALT, GARLIC POWDER, SUGAR, SPICE." Date available: 07/14/2017 Date last updated by company: 07/14/2017
