Source: USDA Branded Food Products Database Release December 2017 Software v.3.8.6.4 2017-10-02
Report Run at: December 17, 2017 05:07 EST
"Nutrient data for: 45103297, BACK TO NATURE, CLASSIC GRANOLA LIGHTLY SWEETENED WHOLE GRAIN ROLLED OATS, UPC: 819898012008"
Food Group:  Branded Food Products Database
Common Name:

Nutrient,Unit,Data points,Std. Error,"0.5 cup = 51.0g",1Value per 100 g,
Proximates
"Energy",kcal,--,--,200,392
"Protein",g,--,--,6.00,11.76
"Total lipid (fat)",g,--,--,3.00,5.88
"Carbohydrate, by difference",g,--,--,39.00,76.47
"Fiber, total dietary",g,--,--,4.0,7.8
"Sugars, total",g,--,--,11.00,21.57
Minerals
"Calcium, Ca",mg,--,--,20,39
"Iron, Fe",mg,--,--,1.94,3.80
"Magnesium, Mg",mg,--,--,86,169
"Phosphorus, P",mg,--,--,216,423
"Potassium, K",mg,--,--,220,431
"Sodium, Na",mg,--,--,0,0
"Zinc, Zn",mg,--,--,1.50,2.94
"Copper, Cu",mg,--,--,0.300,0.588
Vitamins
"Vitamin C, total ascorbic acid",mg,--,--,5.2,10.2
"Vitamin A, IU",IU,--,--,0,0
Lipids
"Fatty acids, total saturated",g,--,--,0.500,0.980
"Fatty acids, total monounsaturated",g,--,--,1.499,2.940
"Fatty acids, total polyunsaturated",g,--,--,0.000,0.000
"Fatty acids, total trans",g,--,--,0.000,0.000
"Cholesterol",mg,--,--,0,0
Amino Acids
Other
Ingredients
"WHOLE GRAIN ROLLED OATS, CANE SUGAR, PINEAPPPLE JUICE CONCENTRATE, PEAR JUICE CONCENTRATE, PEACH JUICE CONCENTRATE, VITAMIN E (A NATURAL VITAMIN TO HELP PRESERVE FLAVOR), NATURAL FLAVOR." Date available: 06/25/2017 Date last updated by company: 06/25/2017
