Source: USDA Branded Food Products Database Release December 2017 Software v.3.8.6.4 2017-10-02
Report Run at: December 17, 2017 05:11 EST
"Nutrient data for: 45272170, BACON FLAVORED BITS VEGETARIAN MEAT SUBSTITUTE, UPC: 000946701504"
Food Group:  Branded Food Products Database
Common Name:

Nutrient,Unit,Data points,Std. Error,"1 Tbsp = 5.0g",1Value per 100 g,
Proximates
"Energy",kcal,--,--,15,300
"Protein",g,--,--,2.00,40.00
"Total lipid (fat)",g,--,--,0.50,10.00
"Carbohydrate, by difference",g,--,--,1.00,20.00
"Fiber, total dietary",g,--,--,1.0,20.0
"Sugars, total",g,--,--,0.00,0.00
Minerals
"Calcium, Ca",mg,--,--,20,400
"Iron, Fe",mg,--,--,3.60,72.00
"Sodium, Na",mg,--,--,115,2300
Vitamins
"Vitamin C, total ascorbic acid",mg,--,--,0.0,0.0
"Vitamin A, IU",IU,--,--,0,0
Lipids
"Fatty acids, total saturated",g,--,--,0.000,0.000
"Fatty acids, total trans",g,--,--,0.000,0.000
"Cholesterol",mg,--,--,0,0
Amino Acids
Other
Ingredients
"TEXTURED VEGETABLE PROTEIN (SOY FLOUR, CARAMEL COLOR, FD&C RED #3), SOYBEAN OIL, SALT, NATURAL FLAVORING." Date available: 07/14/2017 Date last updated by company: 07/14/2017
