Source: USDA Branded Food Products Database Release December 2017 Software v.3.8.6.4 2017-10-02
Report Run at: December 17, 2017 05:12 EST
"Nutrient data for: 45282047, BACON HICKORY SMOKED, UPC: 092825124146"
Food Group:  Branded Food Products Database
Common Name:

Nutrient,Unit,Data points,Std. Error,"2.0 PAN FRIED SLICES = 16.0g",1Value per 100 g,
Proximates
"Energy",kcal,--,--,80,500
"Protein",g,--,--,6.00,37.50
"Total lipid (fat)",g,--,--,6.00,37.50
"Carbohydrate, by difference",g,--,--,0.00,0.00
Minerals
"Sodium, Na",mg,--,--,290,1812
Vitamins
Lipids
"Fatty acids, total saturated",g,--,--,2.499,15.620
"Cholesterol",mg,--,--,20,125
Amino Acids
Other
Ingredients
"WATER, SALT, SUGAR, SODIUM PHOSPHATES, SODIUM ERYTHORBATE, SODIUM NITRITE." Date available: 07/14/2017 Date last updated by company: 07/14/2017
