Source: USDA Branded Food Products Database Release December 2017 Software v.3.8.6.4 2017-10-02
Report Run at: December 17, 2017 05:13 EST
"Nutrient data for: 45193027, BACON & RANCH REDSKIN POTATO SALAD, UPC: 011110032577"
Food Group:  Branded Food Products Database
Common Name:

Nutrient,Unit,Data points,Std. Error,"0.66 cup = 140.0g",1Value per 100 g,
Proximates
"Energy",kcal,--,--,220,157
"Protein",g,--,--,4.00,2.86
"Total lipid (fat)",g,--,--,14.00,10.00
"Carbohydrate, by difference",g,--,--,20.01,14.29
"Fiber, total dietary",g,--,--,1.0,0.7
"Sugars, total",g,--,--,2.00,1.43
Minerals
"Calcium, Ca",mg,--,--,41,29
"Iron, Fe",mg,--,--,0.71,0.51
"Sodium, Na",mg,--,--,830,593
Vitamins
"Vitamin C, total ascorbic acid",mg,--,--,18.1,12.9
"Vitamin A, IU",IU,--,--,200,143
Lipids
"Fatty acids, total saturated",g,--,--,4.004,2.860
"Fatty acids, total monounsaturated",g,--,--,2.996,2.140
"Fatty acids, total polyunsaturated",g,--,--,6.006,4.290
"Fatty acids, total trans",g,--,--,0.000,0.000
"Cholesterol",mg,--,--,20,14
Amino Acids
Other
Ingredients
"POTATOES, SOUR CREAM (CREAM, SKIM MILK, MODIFIED CORN STARCH, LACTIC AND CITRIC ACID, BEEF GELATIN, MONO- AND DIGLYCERIDES, GUAR GUM, CARRAGEENAN, SODIUM PHOSPHATE, NATURAL AND ARTIFICIAL FLAVOR), MAYONNAISE (SOYBEAN OIL, VINEGAR, EGG YOLK, HIGH FRUCTOSE CORN SYRUP, WATER, SALT, NATURAL FLAVOR, CALCIUM DISODIUM EDTA [TO PROTECT FLAVOR]), BUTTERMILK (CULTURED LOWFAT MILK, NONFAT MILK, SALT, SODIUM CITRATE, VITAMIN A PALMITATE, TAPIOCA STARCH, LOCUST BEAN GUM, CARRAGEENAN). CONTAINS 2% OR LESS OF BACON (CURED WITH WATER, SALT, SUGAR, APPLEWOOD SMOKE FLAVOR, SODIUM PHOSPHATE, SODIUM ERYTHORBATE AND/OR SODIUM ASCORBATE, SODIUM NITRITE), MALTODEXTRIN, SALT, MONOSODIUM GLUTAMATE, DEHYDRATED ONION AND GARLIC, PARSLEY FLAKES, DEXTROSE, SPICES, CARRAGEENAN, CORN CIDER VINEGAR, LACTIC ACID, ACETIC ACID, SODIUM LACTATE, POTASSIUM SORBATE AND SODIUM BENZOATE (PRESERVATIVES)." Date available: 07/14/2017 Date last updated by company: 07/14/2017
