Source: USDA Branded Food Products Database Release December 2017 Software v.3.8.6.4 2017-10-02
Report Run at: December 17, 2017 05:16 EST
"Nutrient data for: 45166871, BADGER MAX, SPORT DRINK, ORANGE, UPC: 853884003328"
Food Group:  Branded Food Products Database
Common Name:

Nutrient,Unit,Data points,Std. Error,"8.0 ONZ = 240.0g",1Value per 100 g,
Proximates
"Energy",kcal,--,--,50,21
"Protein",g,--,--,0.00,0.00
"Total lipid (fat)",g,--,--,0.00,0.00
"Carbohydrate, by difference",g,--,--,13.99,5.83
"Fiber, total dietary",g,--,--,0.0,0.0
"Sugars, total",g,--,--,13.01,5.42
Minerals
"Potassium, K",mg,--,--,29,12
"Sodium, Na",mg,--,--,110,46
Vitamins
Lipids
"Fatty acids, total saturated",g,--,--,0.000,0.000
"Fatty acids, total trans",g,--,--,0.000,0.000
"Cholesterol",mg,--,--,0,0
Amino Acids
Other
Ingredients
"WATER, SUGAR, CRYSTALLINE FRUCTOSE, CITRIC ACID, SALT, POTASSIUM CITRATE, NATURAL FLAVOR, FD & C YELLOW #6 & RED #40." Date available: 07/14/2017 Date last updated by company: 07/14/2017
