Source: USDA Branded Food Products Database Release December 2017 Software v.3.8.6.4 2017-10-02
Report Run at: December 17, 2017 05:21 EST
"Nutrient data for: 45192245, BAG O POPS, UPC: 717544207931"
Food Group:  Branded Food Products Database
Common Name:

Nutrient,Unit,Data points,Std. Error,"1 POP = 69.4g",1Value per 100 g,
Proximates
"Energy",kcal,--,--,50,72
"Protein",g,--,--,0.00,0.00
"Total lipid (fat)",g,--,--,0.00,0.00
"Carbohydrate, by difference",g,--,--,12.00,17.29
"Sugars, total",g,--,--,10.00,14.41
Minerals
"Sodium, Na",mg,--,--,0,0
Vitamins
Lipids
Amino Acids
Other
Ingredients
"WATER, SUGAR, HIGH FRUCTOSE CORN SYRUP, CORN SYRUP, CITRIC ACID, GUAR GUM, CELLULOSE GUM, NATURAL & ARTIFICIAL FLAVORS, XANTHAN GUM, MODIFIED FOOD STARCH, POLYSORBATE 60, YELLOW 5, YELLOW 6, RED 40, BLUE 1." Date available: 07/14/2017 Date last updated by company: 07/14/2017
