Source: USDA Branded Food Products Database Release December 2017 Software v.3.8.6.4 2017-10-02
Report Run at: December 17, 2017 05:20 EST
"Nutrient data for: 45274866, BAGELS SWEET ONION, UPC: 073124018039"
Food Group:  Branded Food Products Database
Common Name:

Nutrient,Unit,Data points,Std. Error,"1 BAGEL = 95.0g",1Value per 100 g,
Proximates
"Energy",kcal,--,--,240,253
"Protein",g,--,--,9.00,9.47
"Total lipid (fat)",g,--,--,1.00,1.05
"Carbohydrate, by difference",g,--,--,52.00,54.74
"Fiber, total dietary",g,--,--,2.0,2.1
"Sugars, total",g,--,--,5.00,5.26
Minerals
"Calcium, Ca",mg,--,--,60,63
"Iron, Fe",mg,--,--,3.33,3.51
"Sodium, Na",mg,--,--,405,426
Vitamins
"Vitamin C, total ascorbic acid",mg,--,--,0.0,0.0
"Vitamin A, IU",IU,--,--,0,0
Lipids
"Fatty acids, total saturated",g,--,--,0.000,0.000
"Fatty acids, total trans",g,--,--,0.000,0.000
"Cholesterol",mg,--,--,0,0
Amino Acids
Other
Ingredients
"ENRICHED WHEAT FLOUR (CONTAINS NIACIN, REDUCED IRON, THIAMINE MONONITRATE [VITAMIN B1], RIBOFLAVIN [VITAMIN B2], FOLIC ACID), WATER, SUGAR, WHEAT GLUTEN, ONION, SALT, MALTED BARLEY FLOUR, CORNMEAL, YEAST., MONO- AND DIGLYCERIDES, PRESERVATIVES (CALCIUM PROPIONATE, POTASSIUM SORBATE), GUAR GUM, MOLASSES, CORN SYRUP SOLIDS, AMMONIUM CHLORIDE, ASCORBIC ACID, SOYBEAN OIL, L-CYSTEINE." Date available: 07/14/2017 Date last updated by company: 07/14/2017
