Source: USDA Branded Food Products Database Release December 2017 Software v.3.8.6.4 2017-10-02
Report Run at: December 17, 2017 05:22 EST
"Nutrient data for: 45025108, BAHLSEN, HAZELNUT WAFERS COVERED WITH MILK CHOCOLATE, MILK, UPC: 070569272408"
Food Group:  Branded Food Products Database
Common Name:

Nutrient,Unit,Data points,Std. Error,"1 PORTION, 3 PIECES = 31.0g",1Value per 100 g,
Proximates
"Energy",kcal,--,--,180,581
"Protein",g,--,--,2.00,6.45
"Total lipid (fat)",g,--,--,12.00,38.71
"Carbohydrate, by difference",g,--,--,16.00,51.61
"Fiber, total dietary",g,--,--,1.0,3.2
"Sugars, total",g,--,--,11.00,35.48
Minerals
"Calcium, Ca",mg,--,--,40,129
"Iron, Fe",mg,--,--,1.16,3.75
"Sodium, Na",mg,--,--,20,65
Vitamins
"Vitamin C, total ascorbic acid",mg,--,--,0.0,0.0
"Vitamin A, IU",IU,--,--,0,0
Lipids
"Fatty acids, total saturated",g,--,--,7.000,22.580
"Fatty acids, total trans",g,--,--,0.000,0.000
"Cholesterol",mg,--,--,5,16
Amino Acids
Other
Ingredients
"SUGAR, WHEAT FLOUR, PALM OIL SHORTENING, COCOA BUTTER, HAZELNUTS, CHOCOLATE LIQUOR, SKIM MILK, SWEET WHEY POWDER, BUTTER OIL, WHEY, LOW FAT COCOA POWDER, LACTOSE, SUNFLOWER LECITHIN, MILK, LIQUID INVERT SUGAR, NATURAL FLAVORING, SALT, SODIUM BICARBONATE, EGG YOLK, SPICE." Date available: 07/14/2017 Date last updated by company: 07/14/2017
