Source: USDA Branded Food Products Database Release December 2017 Software v.3.8.6.4 2017-10-02
Report Run at: December 17, 2017 05:22 EST
"Nutrient data for: 45036909, BAHLSEN, CHOCO LEIBNIZ DARK FINE EUROPEAN BISCUITS, UPC: 070569291409"
Food Group:  Branded Food Products Database
Common Name:

Nutrient,Unit,Data points,Std. Error,"2.0 PIECES = 28.0g",1Value per 100 g,
Proximates
"Energy",kcal,--,--,150,536
"Protein",g,--,--,2.00,7.14
"Total lipid (fat)",g,--,--,8.00,28.57
"Carbohydrate, by difference",g,--,--,18.00,64.29
"Fiber, total dietary",g,--,--,2.0,7.1
"Sugars, total",g,--,--,10.00,35.71
Minerals
"Calcium, Ca",mg,--,--,0,0
"Iron, Fe",mg,--,--,3.21,11.48
"Sodium, Na",mg,--,--,60,214
Vitamins
"Vitamin C, total ascorbic acid",mg,--,--,0.0,0.0
"Vitamin A, IU",IU,--,--,0,0
Lipids
"Fatty acids, total saturated",g,--,--,5.001,17.860
"Fatty acids, total trans",g,--,--,0.000,0.000
"Cholesterol",mg,--,--,5,18
Amino Acids
Other
Ingredients
"SUGAR, WHEAT FLOUR, CHOCOLATE LIQUOR, COCOA BUTTER, BUTTER, CORN SYRUP, WHEY, BUTTER OIL, SWEET WHEY POWDER, SOY LECITHIN, SODIUM BICARBONATE, SODIUM PYROPHOSPHATE, MILK, SALT, CITRIC ACID (ACIDIFIER), NATURAL FLAVORING, EGG YOLK." Date available: 06/24/2017 Date last updated by company: 06/24/2017
