Source: USDA Branded Food Products Database Release December 2017 Software v.3.8.6.4 2017-10-02
Report Run at: December 17, 2017 05:23 EST
"Nutrient data for: 45235541, BAILEYS, THE ORIGINAL IRISH CREAM, COFFEE CREAMER, NON-ALCOHOLIC, BOURBON VANILLA POUND CAKE, UPC: 044100106958"
Food Group:  Branded Food Products Database
Common Name:

Nutrient,Unit,Data points,Std. Error,"1 Tbsp = 15.0g",1Value per 100 g,
Proximates
"Energy",kcal,--,--,25,167
"Protein",g,--,--,0.00,0.00
"Total lipid (fat)",g,--,--,0.50,3.33
"Carbohydrate, by difference",g,--,--,5.00,33.33
"Fiber, total dietary",g,--,--,0.0,0.0
"Sugars, total",g,--,--,5.00,33.33
Minerals
"Calcium, Ca",mg,--,--,0,0
"Iron, Fe",mg,--,--,0.00,0.00
"Sodium, Na",mg,--,--,50,333
Vitamins
"Vitamin C, total ascorbic acid",mg,--,--,0.0,0.0
"Vitamin A, IU",IU,--,--,0,0
Lipids
"Fatty acids, total saturated",g,--,--,0.400,2.670
"Fatty acids, total trans",g,--,--,0.000,0.000
"Cholesterol",mg,--,--,10,67
Amino Acids
Other
Ingredients
"WATER, SUGAR,CREAM*, DISODIUM PHOSPHATE, NATURAL AND ARTIFICIAL FLAVORS, ARTIFICIAL COLOR, ARTIFICIAL COLOR, POLYSORBATE 80, CARRAGEENAN AND SODIUM CASEINATE*." Date available: 06/24/2017 Date last updated by company: 06/24/2017
