Source: USDA Branded Food Products Database Release December 2017 Software v.3.8.6.4 2017-10-02
Report Run at: December 17, 2017 05:25 EST
"Nutrient data for: 45043000, BAKED BEANS, UPC: 719283660725"
Food Group:  Branded Food Products Database
Common Name:

Nutrient,Unit,Data points,Std. Error,"0.5 cup = 130.0g",1Value per 100 g,
Proximates
"Energy",kcal,--,--,150,115
"Protein",g,--,--,6.99,5.38
"Total lipid (fat)",g,--,--,0.00,0.00
"Carbohydrate, by difference",g,--,--,29.00,22.31
"Fiber, total dietary",g,--,--,7.0,5.4
"Sugars, total",g,--,--,10.00,7.69
Minerals
"Calcium, Ca",mg,--,--,40,31
"Iron, Fe",mg,--,--,2.70,2.08
"Sodium, Na",mg,--,--,450,346
Vitamins
"Vitamin C, total ascorbic acid",mg,--,--,1.2,0.9
"Vitamin A, IU",IU,--,--,0,0
Lipids
"Fatty acids, total saturated",g,--,--,0.000,0.000
"Fatty acids, total trans",g,--,--,0.000,0.000
"Cholesterol",mg,--,--,0,0
Amino Acids
Other
Ingredients
"ORGANIC PREPARED WHITE BEANS, WATER, ORGANIC CANE SUGAR, ORGANIC TOMATO PASTE, ORGANIC MOLASSES, SEA SALT, ORGANIC VINEGAR, ORGANIC BROWN RICE FLOUR, ORGANIC ONION POWDER, ORGANIC MUSTARD POWDER." Date available: 07/14/2017 Date last updated by company: 07/14/2017
