Source: USDA Branded Food Products Database Release December 2017 Software v.3.8.6.4 2017-10-02
Report Run at: December 17, 2017 05:27 EST
"Nutrient data for: 45006852, BAKED CHEESE BALLS, UPC: 041497005109"
Food Group:  Branded Food Products Database
Common Name:

Nutrient,Unit,Data points,Std. Error,"32.0 BALLS, PER CONTAINER | ABOUT = 28.0g",1Value per 100 g,
Proximates
"Energy",kcal,--,--,150,536
"Protein",g,--,--,2.00,7.14
"Total lipid (fat)",g,--,--,9.00,32.14
"Carbohydrate, by difference",g,--,--,16.00,57.14
"Fiber, total dietary",g,--,--,1.0,3.6
"Sugars, total",g,--,--,1.00,3.57
Minerals
"Calcium, Ca",mg,--,--,0,0
"Iron, Fe",mg,--,--,0.00,0.00
"Sodium, Na",mg,--,--,260,929
Vitamins
"Vitamin C, total ascorbic acid",mg,--,--,0.0,0.0
"Vitamin A, IU",IU,--,--,893,3189
Lipids
"Fatty acids, total saturated",g,--,--,2.500,8.930
"Fatty acids, total monounsaturated",g,--,--,1.999,7.140
"Fatty acids, total polyunsaturated",g,--,--,4.500,16.070
"Fatty acids, total trans",g,--,--,0.000,0.000
"Cholesterol",mg,--,--,0,0
Amino Acids
Other
Ingredients
"CORN MEAL, VEGETABLE OIL (CONTAINS ONE OR MORE OF THE FOLLOWING: COTTONSEED, CORN, CANOLA, SUNFLOWER, SAFFLOWER), WHEY, MALTODEXTRIN, CHEDDAR CHEESE (PASTEURIZED MILK, CHEESE CULTURES, SALT, ENZYMES), BUTTERMILK, MILKFAT, SALT, MONOSODIUM GLUTAMATE, NATURAL AND ARTIFICIAL FLAVORS, SODIUM CASEINATE, SODIUM PHOSPHATE, ARTIFICIAL COLORS (YELLOW #0 AND YELLOW #5), LACTIC ACID, AUTOLYZED YEAST EXTRACT, CITRIC ACID, VITAMIN A PALMITATE." Date available: 06/25/2017 Date last updated by company: 06/25/2017
