Source: USDA Branded Food Products Database Release December 2017 Software v.3.8.6.4 2017-10-02
Report Run at: December 17, 2017 05:33 EST
"Nutrient data for: 45154685, BAKED RICE AND CORN PUFF, UPC: 015665771356"
Food Group:  Branded Food Products Database
Common Name:

Nutrient,Unit,Data points,Std. Error,"1 ONZ = 28.0g",1Value per 100 g,
Proximates
"Energy",kcal,--,--,160,571
"Protein",g,--,--,1.00,3.57
"Total lipid (fat)",g,--,--,9.00,32.14
"Carbohydrate, by difference",g,--,--,18.00,64.29
"Fiber, total dietary",g,--,--,1.0,3.6
"Sugars, total",g,--,--,5.00,17.86
Minerals
"Calcium, Ca",mg,--,--,0,0
"Iron, Fe",mg,--,--,0.00,0.00
"Sodium, Na",mg,--,--,10,36
Vitamins
"Vitamin C, total ascorbic acid",mg,--,--,0.0,0.0
"Vitamin A, IU",IU,--,--,179,638
Lipids
"Fatty acids, total saturated",g,--,--,1.000,3.570
"Fatty acids, total trans",g,--,--,0.000,0.000
"Cholesterol",mg,--,--,0,0
Amino Acids
Other
Ingredients
"CORNMEAL, VEGETABLE OIL (EXPELLER PRESSED CANOLA OIL AND/OR SUNFLOWER OIL AND/OR CORN OIL), RICE FLOUR, SUGAR, BROWN SUGAR, MALTODEXTRIN, SWEET CREAM SOLIDS, APPLE POWDER (DRIED APPLES, RICE FLOUR, SUNFLOWER LECITHIN), CARAMEL COLOR, CITRIC ACID, SALT, NATURAL FLAVOR, PAPRIKA EXTRACT (FOR COLOR)." Date available: 07/14/2017 Date last updated by company: 07/14/2017
