Source: USDA Branded Food Products Database Release December 2017 Software v.3.8.6.4 2017-10-02
Report Run at: December 17, 2017 05:28 EST
"Nutrient data for: 45289978, BAKED CHIPS, UPC: 083468020360"
Food Group:  Branded Food Products Database
Common Name:

Nutrient,Unit,Data points,Std. Error,"1 BAG = 28.0g",1Value per 100 g,
Proximates
"Energy",kcal,--,--,100,357
"Protein",g,--,--,2.00,7.14
"Total lipid (fat)",g,--,--,2.50,8.93
"Carbohydrate, by difference",g,--,--,20.00,71.43
"Fiber, total dietary",g,--,--,5.0,17.9
"Sugars, total",g,--,--,3.00,10.71
Minerals
"Calcium, Ca",mg,--,--,0,0
"Iron, Fe",mg,--,--,0.00,0.00
"Sodium, Na",mg,--,--,250,893
Vitamins
"Vitamin C, total ascorbic acid",mg,--,--,0.0,0.0
"Vitamin A, IU",IU,--,--,179,638
Lipids
"Fatty acids, total saturated",g,--,--,0.000,0.000
"Fatty acids, total trans",g,--,--,0.000,0.000
"Cholesterol",mg,--,--,0,0
Amino Acids
Other
Ingredients
"CHIPS (DEHYDRATED POTATO, RICE FLOUR, SOLUBLE CORN FIBER, PEA PROTEIN ISOLATE, INULIN, SALT, SEASONING (SUGAR, SEA SALT, ONION POWDER, GARLIC POWDER, TOMATO POWDER, NATURAL FLAVORS, PAPRIKA COLOR, SPICES, CITRIC ACID) AND SUNFLOWER OIL." Date available: 07/14/2017 Date last updated by company: 07/14/2017
