Source: USDA Branded Food Products Database Release December 2017 Software v.3.8.6.4 2017-10-02
Report Run at: December 17, 2017 05:26 EST
"Nutrient data for: 45285508, BAKED BEANS, UPC: 072273497276"
Food Group:  Branded Food Products Database
Common Name:

Nutrient,Unit,Data points,Std. Error,"0.5 cup = 130.0g",1Value per 100 g,
Proximates
"Energy",kcal,--,--,160,123
"Protein",g,--,--,6.99,5.38
"Total lipid (fat)",g,--,--,1.00,0.77
"Carbohydrate, by difference",g,--,--,30.00,23.08
"Fiber, total dietary",g,--,--,4.9,3.8
"Sugars, total",g,--,--,13.00,10.00
Minerals
"Calcium, Ca",mg,--,--,64,49
"Iron, Fe",mg,--,--,2.00,1.54
"Potassium, K",mg,--,--,321,247
"Sodium, Na",mg,--,--,580,446
Vitamins
"Vitamin D",IU,--,--,0,0
Lipids
"Fatty acids, total saturated",g,--,--,0.000,0.000
"Fatty acids, total trans",g,--,--,0.000,0.000
"Cholesterol",mg,--,--,0,0
Amino Acids
Other
Ingredients
"WATER, PREPARED BEANS, SUGAR, CONTAINS LESS THAN 2%: CORNSTARCH MODIFIED, SALT, TEXTURED VEGETABLE PROTEIN ([SOY FLOUR, CARAMEL COLOR], SOYBEAN OIL, SALT, NATURAL FLAVORS), APPLEWOOD SMOKED BACON (CURED WITH WATER, SALT, SUGAR, SODIUM PHOSPHATE, SODIUM ERYTHORBATE, SODIUM NITRITE), MOLASSES, MAPLE SYRUP, CARAMEL COLOR, NATURAL FLAVOR, APPLE CIDER VINEGAR, BLACK PEPPER, ONION POWDER, GARLIC POWDER." Date available: 10/13/2017 Date last updated by company: 10/13/2017
