Source: USDA Branded Food Products Database Release December 2017 Software v.3.8.6.4 2017-10-02
Report Run at: December 17, 2017 05:38 EST
"Nutrient data for: 45296487, BAKEN-ETS, FRIED PORK SKINS CHICHARRONES, UPC: 028400230407"
Food Group:  Branded Food Products Database
Common Name:

Nutrient,Unit,Data points,Std. Error,"9.0 PIECES = 14.0g",1Value per 100 g,
Proximates
"Energy",kcal,--,--,70,500
"Protein",g,--,--,7.00,50.00
"Total lipid (fat)",g,--,--,4.50,32.14
"Carbohydrate, by difference",g,--,--,1.00,7.14
"Fiber, total dietary",g,--,--,0.0,0.0
"Sugars, total",g,--,--,1.00,7.14
Minerals
"Calcium, Ca",mg,--,--,0,0
"Iron, Fe",mg,--,--,0.00,0.00
"Sodium, Na",mg,--,--,360,2571
Vitamins
"Vitamin C, total ascorbic acid",mg,--,--,0.0,0.0
"Vitamin A, IU",IU,--,--,0,0
Lipids
"Fatty acids, total saturated",g,--,--,2.001,14.290
"Fatty acids, total trans",g,--,--,0.000,0.000
"Cholesterol",mg,--,--,15,107
Amino Acids
Other
Ingredients
"FRIED PORK SKINS, SALT, SUGAR, FRUCTOSE, TOMATO POWDER, ONION POWDER, MONOSODIUM GLUTAMATE, MALTODEXTRIN (MADE FROM CORN), SPICES AND COLORING (INCLUDING RED PEPPER), NATURAL FLAVORS (INCLUDING NATURAL SMOKE FLAVOR), SUNFLOWER OIL, GARLIC POWDER AND ARTIFICIAL COLOR (YELLOW 5 LAKE, RED 40 LAKE, BLUE 1 LAKE)." Date available: 12/17/2016 Date last updated by company: 12/17/2016
