Source: USDA Branded Food Products Database Release December 2017 Software v.3.8.6.4 2017-10-02
Report Run at: December 17, 2017 05:45 EST
"Nutrient data for: 45234348, BAKERY STYLE SNICKERDOODLE COOKIE MIX, UPC: 041449108667"
Food Group:  Branded Food Products Database
Common Name:

Nutrient,Unit,Data points,Std. Error,"0.5 TSP CINNAMON-SUGAR TOPPING (2G) (AMOUNT FOR ONE COOKIE) | MIX & = 18.0g",1Value per 100 g,
Proximates
"Energy",kcal,--,--,80,444
"Protein",g,--,--,1.00,5.56
"Total lipid (fat)",g,--,--,0.50,2.78
"Carbohydrate, by difference",g,--,--,18.00,100.00
"Fiber, total dietary",g,--,--,1.0,5.6
"Sugars, total",g,--,--,11.00,61.11
Minerals
"Calcium, Ca",mg,--,--,0,0
"Iron, Fe",mg,--,--,0.80,4.44
"Sodium, Na",mg,--,--,50,278
Vitamins
"Vitamin C, total ascorbic acid",mg,--,--,0.0,0.0
"Vitamin A, IU",IU,--,--,0,0
Lipids
"Fatty acids, total saturated",g,--,--,0.000,0.000
"Fatty acids, total trans",g,--,--,0.000,0.000
"Cholesterol",mg,--,--,0,0
Amino Acids
Other
Ingredients
"COOKIE MIX INGREDIENTS: SUGAR ENRICHED BLEACHED FLOUR (WHEAT FLOUR, NIACIN, REDUCED IRON, THIAMIN MONONITRATE, RIBOFLAVIN, FOLIC ACID, MALTED BARLEY FLOUR), SOYBEAN OIL. LESS THAN 2% OF: NATURAL AND ARTIFICIAL FLAVORS, CREAM OF TARTER, SALT, BAKING SODA. CINNAMON-SUGAR INGREDIENTS: SUGAR, CINNAMON, SOYBEAN OIL." Date available: 07/14/2017 Date last updated by company: 07/14/2017
