Source: USDA Branded Food Products Database Release December 2017 Software v.3.8.6.4 2017-10-02
Report Run at: December 17, 2017 05:42 EST
"Nutrient data for: 45171117, BAKERY FRESH GOODNESS, MINI CINNAMON LOAF CAKE, UPC: 011110400062"
Food Group:  Branded Food Products Database
Common Name:

Nutrient,Unit,Data points,Std. Error,"1 SLICE = 80.0g",1Value per 100 g,
Proximates
"Energy",kcal,--,--,330,412
"Protein",g,--,--,3.00,3.75
"Total lipid (fat)",g,--,--,16.00,20.00
"Carbohydrate, by difference",g,--,--,43.00,53.75
"Fiber, total dietary",g,--,--,1.0,1.2
"Sugars, total",g,--,--,26.00,32.50
Minerals
"Calcium, Ca",mg,--,--,20,25
"Iron, Fe",mg,--,--,1.80,2.25
"Sodium, Na",mg,--,--,200,250
Vitamins
"Vitamin C, total ascorbic acid",mg,--,--,0.0,0.0
"Thiamin",mg,--,--,0.000,0.000
"Riboflavin",mg,--,--,0.136,0.170
"Niacin",mg,--,--,1.200,1.500
"Vitamin A, IU",IU,--,--,100,125
Lipids
"Fatty acids, total saturated",g,--,--,4.000,5.000
"Fatty acids, total monounsaturated",g,--,--,3.000,3.750
"Fatty acids, total polyunsaturated",g,--,--,7.000,8.750
"Fatty acids, total trans",g,--,--,0.000,0.000
"Cholesterol",mg,--,--,45,56
Amino Acids
Other
Ingredients
"SUGAR, ENRICHED BLEACHED WHEAT FLOUR (FLOUR, NIACIN, REDUCED IRON, THIAMINE MONONITRATE, RIBOFLAVIN, FOLIC ACID), SOYBEAN OIL, EGGS, WATER, CINNAMON DROPS (SUGAR, PALM OIL, CINNAMON, NON FAT DRY MILK, SOY LECITHIN), MODIFIED CORN STARCH, WHEY (MILK), CONTAINS 2% OR LESS OF EACH: SALT, CINNAMON, MARGARINE (INTERESTERIFIED SOYBEAN OIL, WATER, MONO AND DIGLYCERIDES, SOY LECITHIN, SODIUM BENZOATE [PRESERVATIVE], ARTIFICIAL FLAVOR, BETA CAROTENE [COLOR], VITAMIN A PALMITATE ADDED), EMULSIFIER (MONO AND DIGLYCERIDES, PROPYLENE GLYCOL ESTER OF FATTY ACIDS, SODIUM STEROYL LACTYLATE), LEAVENING (SODIUM BICARBONATE, SODIUM ALUMINUM PHOSPHATE), VITAL WHEAT GLUTEN, SORBITAN MONOSTEARATE, SODIUM PROPIONATE AND POTASSIUM SORBATE (PRESERVATIVES), CALCIUM ACETATE, NONFAT MILK, XANTHAN GUM, GUAR GUM, NATURAL FLAVORS, COCOA POWDER, POLYSORBATE 60, EGG WHITES, SOY FLOUR." Date available: 10/07/2017 Date last updated by company: 10/07/2017
