Source: USDA Branded Food Products Database Release December 2017 Software v.3.8.6.4 2017-10-02
Report Run at: December 17, 2017 05:44 EST
"Nutrient data for: 45058011, BAKERY ON MAIN, INSTANT OATMEAL, STRAWBERRY SHORTCAKE, UPC: 835228007520"
Food Group:  Branded Food Products Database
Common Name:

Nutrient,Unit,Data points,Std. Error,"50.0 GRM = 50.0g",1Value per 100 g,
Proximates
"Energy",kcal,--,--,190,380
"Protein",g,--,--,6.00,12.00
"Total lipid (fat)",g,--,--,3.00,6.00
"Carbohydrate, by difference",g,--,--,35.00,70.00
"Fiber, total dietary",g,--,--,5.0,10.0
"Sugars, total",g,--,--,10.00,20.00
Minerals
"Calcium, Ca",mg,--,--,40,80
"Iron, Fe",mg,--,--,1.98,3.96
"Sodium, Na",mg,--,--,40,80
Vitamins
"Vitamin C, total ascorbic acid",mg,--,--,0.0,0.0
"Vitamin A, IU",IU,--,--,0,0
Lipids
"Fatty acids, total saturated",g,--,--,0.500,1.000
"Fatty acids, total monounsaturated",g,--,--,1.000,2.000
"Fatty acids, total polyunsaturated",g,--,--,1.500,3.000
"Fatty acids, total trans",g,--,--,0.000,0.000
"Cholesterol",mg,--,--,0,0
Amino Acids
Other
Ingredients
"CERTIFIED GLUTEN FREE OATS, EVAPORATED CANE JUICE, FREEZE DRIED STRAWBERRY, CHIA SEEDS, FLAX MEAL, QUINOA, AMARANTH, NATURAL FLAVORS, SEA SALT." Date available: 07/14/2017 Date last updated by company: 07/14/2017
