Source: USDA Branded Food Products Database Release December 2017 Software v.3.8.6.4 2017-10-02
Report Run at: December 17, 2017 05:33 EST
"Nutrient data for: 45015510, BAKED PRETZELS, UPC: 077817109301"
Food Group:  Branded Food Products Database
Common Name:

Nutrient,Unit,Data points,Std. Error,"9.0 PRETZELS) | (ABOUT = 28.0g",1Value per 100 g,
Proximates
"Energy",kcal,--,--,100,357
"Protein",g,--,--,2.00,7.14
"Total lipid (fat)",g,--,--,1.00,3.57
"Carbohydrate, by difference",g,--,--,20.00,71.43
"Fiber, total dietary",g,--,--,1.0,3.6
"Sugars, total",g,--,--,1.00,3.57
Minerals
"Calcium, Ca",mg,--,--,0,0
"Iron, Fe",mg,--,--,0.64,2.29
"Sodium, Na",mg,--,--,370,1321
Vitamins
"Vitamin C, total ascorbic acid",mg,--,--,0.0,0.0
"Vitamin A, IU",IU,--,--,0,0
Lipids
"Fatty acids, total saturated",g,--,--,0.000,0.000
"Fatty acids, total trans",g,--,--,0.000,0.000
"Cholesterol",mg,--,--,0,0
Amino Acids
Other
Ingredients
"WHEAT FLOUR, SALT, MALT SYRUP (DERIVED FROM CORN AND MALTED BARLEY), VEGETABLE OIL (CORN OIL, SUNFLOWER OIL, OR CANOLA OIL), SUGAR, YEAST, BAKING SODA." Date available: 07/14/2017 Date last updated by company: 07/14/2017
