Source: USDA Branded Food Products Database Release December 2017 Software v.3.8.6.4 2017-10-02
Report Run at: December 17, 2017 05:40 EST
"Nutrient data for: 45172064, BAKERY CRAFTS, HANDCRAFTED ICING DECORATIONS, UPC: 021466054321"
Food Group:  Branded Food Products Database
Common Name:

Nutrient,Unit,Data points,Std. Error,"1 PIECE = 1.9g",1Value per 100 g,
Proximates
"Energy",kcal,--,--,10,526
"Protein",g,--,--,0.00,0.00
"Total lipid (fat)",g,--,--,0.00,0.00
"Carbohydrate, by difference",g,--,--,1.90,100.00
"Sugars, total",g,--,--,1.50,78.95
Minerals
"Sodium, Na",mg,--,--,0,0
Vitamins
Lipids
Amino Acids
Other
Ingredients
"SUGAR, CORN SYRUP, CORN STARCH, XANTHAN GUM, WATER, ARABIC GUM, MALTODEXTRIN, CREAM OF TARTAR, GELATIN, ARTIFICIAL COLORS (RED 40, YELLOW 5, YELLOW 6, BLUE 1, TITANIUM DIOXIDE)." Date available: 07/14/2017 Date last updated by company: 07/14/2017
