Source: USDA Branded Food Products Database Release December 2017 Software v.3.8.6.4 2017-10-02
Report Run at: December 17, 2017 05:34 EST
"Nutrient data for: 45325677, BAKED SHREDDED WHOLE WHEAT CRACKERS, UPC: 038259103609"
Food Group:  Branded Food Products Database
Common Name:

Nutrient,Unit,Data points,Std. Error,"6.0 CRACKERS = 28.0g",1Value per 100 g,
Proximates
"Energy",kcal,--,--,120,429
"Protein",g,--,--,2.00,7.14
"Total lipid (fat)",g,--,--,4.00,14.29
"Carbohydrate, by difference",g,--,--,20.00,71.43
"Fiber, total dietary",g,--,--,3.0,10.7
"Sugars, total",g,--,--,0.00,0.00
Minerals
"Calcium, Ca",mg,--,--,10,36
"Iron, Fe",mg,--,--,0.80,2.86
"Potassium, K",mg,--,--,90,321
"Sodium, Na",mg,--,--,160,571
Vitamins
"Vitamin D",IU,--,--,0,0
Lipids
"Fatty acids, total saturated",g,--,--,0.501,1.790
"Fatty acids, total monounsaturated",g,--,--,1.000,3.570
"Fatty acids, total polyunsaturated",g,--,--,1.999,7.140
"Fatty acids, total trans",g,--,--,0.000,0.000
"Cholesterol",mg,--,--,0,0
Amino Acids
Other
Ingredients
"WHOLE GRAIN WHEAT, HIGH OLEIC CANOLA AND/OR SOYBEAN OIL WITH TBHQ ADDED TO PRESERVE FRESHNESS, SALT." Date available: 09/26/2017 Date last updated by company: 09/26/2017
