Source: USDA Branded Food Products Database Release December 2017 Software v.3.8.6.4 2017-10-02
Report Run at: December 17, 2017 05:26 EST
"Nutrient data for: 45279539, BAKED BEANS, UPC: 07078424548"
Food Group:  Branded Food Products Database
Common Name:

Nutrient,Unit,Data points,Std. Error,"0.5 cup = 130.0g",1Value per 100 g,
Proximates
"Energy",kcal,--,--,150,115
"Protein",g,--,--,6.01,4.62
"Total lipid (fat)",g,--,--,1.50,1.15
"Carbohydrate, by difference",g,--,--,29.00,22.31
"Fiber, total dietary",g,--,--,4.9,3.8
"Sugars, total",g,--,--,11.00,8.46
Minerals
"Calcium, Ca",mg,--,--,60,46
"Iron, Fe",mg,--,--,1.79,1.38
"Sodium, Na",mg,--,--,560,431
Vitamins
"Vitamin C, total ascorbic acid",mg,--,--,1.2,0.9
"Vitamin A, IU",IU,--,--,0,0
Lipids
"Fatty acids, total saturated",g,--,--,0.000,0.000
"Fatty acids, total trans",g,--,--,0.000,0.000
"Cholesterol",mg,--,--,0,0
Amino Acids
Other
Ingredients
"PREPARED BEANS, WATER, BROWN SUGAR, SUGAR, BACON (CURED WITH WATER, SALT, SUGAR, SODIUM PHOSPHATE, SODIUM ERYTHORBATE, SODIUM NITRITE), SALT, MODIFIED CORN STARCH, VINEGAR, ONION POWDER, CARAMEL COLOR, SPICE, MAPLE SYRUP, NATURAL AND ARTIFICIAL FLAVORING." Date available: 07/14/2017 Date last updated by company: 07/14/2017
