Source: USDA Branded Food Products Database Release December 2017 Software v.3.8.6.4 2017-10-02
Report Run at: December 17, 2017 05:37 EST
"Nutrient data for: 45208748, BAKED WHOLE GRAIN CORN SNACK, UPC: 078742057392"
Food Group:  Branded Food Products Database
Common Name:

Nutrient,Unit,Data points,Std. Error,"18.0 PIECES = 7.0g",1Value per 100 g,
Proximates
"Energy",kcal,--,--,30,429
"Protein",g,--,--,0.00,0.00
"Total lipid (fat)",g,--,--,0.00,0.00
"Carbohydrate, by difference",g,--,--,6.00,85.71
"Fiber, total dietary",g,--,--,0.0,0.0
"Sugars, total",g,--,--,1.00,14.29
Minerals
"Calcium, Ca",mg,--,--,60,857
"Iron, Fe",mg,--,--,12.86,183.68
"Potassium, K",mg,--,--,10,143
"Sodium, Na",mg,--,--,0,0
"Zinc, Zn",mg,--,--,2.25,32.14
Vitamins
"Vitamin C, total ascorbic acid",mg,--,--,0.0,0.0
"Vitamin A, IU",IU,--,--,0,0
Lipids
"Fatty acids, total trans",g,--,--,0.000,0.000
Amino Acids
Other
Ingredients
"WHOLE GRAIN YELLOW CORN MEAL, YELLOW CORN MEAL, WHITE GRAPE JUICE CONCENTRATE, NATURAL FLAVORS, BLUEBERRY POWDER, TRICALCIUM PHOSPHATE, CALCIUM CARBONATE, MIXED TOCOPHEROLS (FOR FRESHNESS), DL-ALPHA TOCOPHERYL ACETATE (VITAMIN E), FERROUS FUMARATE, ZINC OXIDE, DICALCIUM PHOSPHATE, SOYBEAN OIL." Date available: 10/19/2017 Date last updated by company: 10/19/2017
