Source: USDA Branded Food Products Database Release December 2017 Software v.3.8.6.4 2017-10-02
Report Run at: December 17, 2017 05:47 EST
"Nutrient data for: 45256459, BAKLAVA, UPC: 679480000161"
Food Group:  Branded Food Products Database
Common Name:

Nutrient,Unit,Data points,Std. Error,"1 PIECE = 25.0g",1Value per 100 g,
Proximates
"Energy",kcal,--,--,110,440
"Protein",g,--,--,1.00,4.00
"Total lipid (fat)",g,--,--,6.00,24.00
"Carbohydrate, by difference",g,--,--,12.00,48.00
"Fiber, total dietary",g,--,--,0.0,0.0
"Sugars, total",g,--,--,5.00,20.00
Minerals
"Calcium, Ca",mg,--,--,0,0
"Iron, Fe",mg,--,--,0.79,3.17
"Sodium, Na",mg,--,--,40,160
Vitamins
"Vitamin C, total ascorbic acid",mg,--,--,0.0,0.0
"Vitamin A, IU",IU,--,--,0,0
Lipids
"Fatty acids, total saturated",g,--,--,2.000,8.000
"Cholesterol",mg,--,--,0,0
Amino Acids
Other
Ingredients
"FILLO DOUGH (ENRICHED WHEAT FLOUR, WATER. CORNSTARCH, CANOLA OIL, SUGAR. SALT), SUGAR. VEGATABLE GHEE (PALM OIL, COLOUR, ARTIFICIAL FLAVOR). CASHEWS, WATER. ALMONDS, WALNUTS. GLUCOSE. PISTACHIOS. ORANGE BLOSSOM WATER." Date available: 07/14/2017 Date last updated by company: 07/14/2017
