Source: USDA Branded Food Products Database Release December 2017 Software v.3.8.6.4 2017-10-02
Report Run at: December 17, 2017 05:47 EST
"Nutrient data for: 45225201, BAKLAVA ASSORTMENT, UPC: 038105118139"
Food Group:  Branded Food Products Database
Common Name:

Nutrient,Unit,Data points,Std. Error,"1.5 ONZ = 43.0g",1Value per 100 g,
Proximates
"Energy",kcal,--,--,170,395
"Protein",g,--,--,2.00,4.65
"Total lipid (fat)",g,--,--,8.00,18.60
"Carbohydrate, by difference",g,--,--,22.00,51.16
"Fiber, total dietary",g,--,--,1.0,2.3
"Sugars, total",g,--,--,10.00,23.26
Minerals
"Calcium, Ca",mg,--,--,0,0
"Iron, Fe",mg,--,--,1.84,4.28
"Sodium, Na",mg,--,--,100,233
Vitamins
"Vitamin C, total ascorbic acid",mg,--,--,0.0,0.0
"Vitamin A, IU",IU,--,--,0,0
Lipids
"Fatty acids, total saturated",g,--,--,2.498,5.810
"Fatty acids, total trans",g,--,--,0.000,0.000
"Cholesterol",mg,--,--,0,0
Amino Acids
Other
Ingredients
"SYRUP BLEND (HIGH FRUCTOSE CORN SYRUP, CORN SYRUP, SUGAR), ENRICHED FLOUR (FLOUR, NIACIN, REDUCED IRON, THIAMIN MONONITRATE, RIBOFLAVIN, FOLIC ACID), WATER, TREE NUTS (WALNUTS, ALMONDS, CASHEWS, PECANS), PALM SHORTENING, SUGAR, CORN OIL, WHEAT PROTEIN ISOLATE, CONFECTIONER'S COATING (SUGAR, PARTIALLY HYDROGENATED PALM KERNEL OIL, COCOA POWDER, SOYA LECITHIN, SORBITAN TRISTEARATE, ARTIFICIAL FLAVOR), COCOA, PRESERVATIVES (SODIUM PROPIONATE, POTASSIUM SORBATE, SODIUM BENZOATE), SALT, EGGS, CORN SYRUP, BROWN SUGAR, HONEY, CINNAMON, CARAMEL COLOR, CITRIC ACID, VANILLA EXTRACT, NATURAL AND ARTIFICIAL FLAVOR." Date available: 07/14/2017 Date last updated by company: 07/14/2017
