Source: USDA Branded Food Products Database Release December 2017 Software v.3.8.6.4 2017-10-02
Report Run at: December 17, 2017 05:47 EST
"Nutrient data for: 45225199, BAKLAVA ASSORTMENT, UPC: 038105202081"
Food Group:  Branded Food Products Database
Common Name:

Nutrient,Unit,Data points,Std. Error,"1.6 ONZ = 46.0g",1Value per 100 g,
Proximates
"Energy",kcal,--,--,190,413
"Protein",g,--,--,3.00,6.52
"Total lipid (fat)",g,--,--,10.00,21.74
"Carbohydrate, by difference",g,--,--,24.00,52.17
"Fiber, total dietary",g,--,--,1.0,2.2
"Sugars, total",g,--,--,10.00,21.74
Minerals
"Calcium, Ca",mg,--,--,20,43
"Iron, Fe",mg,--,--,2.15,4.68
"Sodium, Na",mg,--,--,125,272
Vitamins
"Vitamin C, total ascorbic acid",mg,--,--,0.0,0.0
"Vitamin A, IU",IU,--,--,0,0
Lipids
"Fatty acids, total saturated",g,--,--,4.549,9.890
"Fatty acids, total trans",g,--,--,0.000,0.000
"Cholesterol",mg,--,--,0,0
Amino Acids
Other
Ingredients
"ENRICHED FLOUR (FLOUR, NIACIN, REDUCED IRON, THIAMIN MONONITRATE, RIBOFLAVIN, FOLIC ACID), SYRUP BLEND (HIGH FRUCTOSE CORN SYRUP, CORN SYRUP SUGAR), TREE NUTS (ALMONDS, WALNUTS, CASHEWS, PECANS), WATER, PALM SHORTENING, SUGAR, CONFECTIONER'S COATING (SUGAR, PARTIALLY HYDROGENATED PALM KERNEL OIL, COCOA POWDER, SOYA LECITHIN, SORBITAN TRISTEARATE, ARTIFICIAL FLAVOR), CORN OIL, WHEAT PROTEIN ISOLATE, WHITE CONFECTIONER'S COATING (SUGAR, PARTIALLY HYDROGENATED PALM KERNEL OIL, BUTTERMILK, COCOA BUTTER, SOY LECITHIN, SORBITAN TRISTEARATE, SALT, NATURAL FLAVOR), PRESERVATIVES (SODIUM PROPIONATE, POTASSIUM SORBATE, SODIUM BENZOATE), COCOA, SALT, CARAMEL SAUCE (CORN SYRUP, SWEETENED CONDENSED WHOLE MILK [PASTEURIZED MILK, SUGAR], SUGAR, PECTIN, SALT, SOY LECITHIN, NATURAL FLAVORS, PRESERVATIVE [POTASSIUM SORBATE], DISODIUM PHOSPHATE), CARAMEL DIP (CORN SYRUP, SKIM MILK, VEGETABLE OILS [PARTIALLY HYDROGENATED SOYBEAN, COTTONSEED OR PALM KERNEL], WATER, MODIFIED CORN STARCH, MONO-DIGLYCERIDES, SALT, NATURAL & & ARTIFICIAL FLAVORS, SOY LECITHIN, DISODIUM PHOSPHATE), SEMISWEET CHOCOLATE (SUGAR, CHOCOLATE LIQUOR, COCOA BUTTER, DEXTROSE, SOYA LECITHIN), CINNAMON, HONEY, EGGS, BROWN SUGAR, CORN SYRUP, CITRIC ACID, CARAMEL COLOR, VANILLA EXTRACT, NATURAL AND ARTIFICIAL FLAVOR." Date available: 10/13/2017 Date last updated by company: 10/13/2017
