Source: USDA Branded Food Products Database Release December 2017 Software v.3.8.6.4 2017-10-02
Report Run at: December 17, 2017 05:47 EST
"Nutrient data for: 45090927, BAKOL NATURAL FOODS, JEL DESSERT, ORANGE, UPC: 794504329964"
Food Group:  Branded Food Products Database
Common Name:

Nutrient,Unit,Data points,Std. Error,"0.5 cup = 21.0g",1Value per 100 g,
Proximates
"Energy",kcal,--,--,80,381
"Protein",g,--,--,0.00,0.00
"Total lipid (fat)",g,--,--,0.00,0.00
"Carbohydrate, by difference",g,--,--,20.00,95.24
"Fiber, total dietary",g,--,--,0.0,0.0
"Sugars, total",g,--,--,20.00,95.24
Minerals
"Sodium, Na",mg,--,--,0,0
Vitamins
Lipids
"Fatty acids, total saturated",g,--,--,0.000,0.000
"Fatty acids, total trans",g,--,--,0.000,0.000
"Cholesterol",mg,--,--,0,0
Amino Acids
Other
Ingredients
"EVAPORATED CANE JUICE, VEGETABLE GUM, CITRIC ACID, POTASSIUM CITRATE, NATURAL FLAVOR, ANNATTO, BETA CAROTENE." Date available: 06/25/2017 Date last updated by company: 06/25/2017
