Source: USDA Branded Food Products Database Release December 2017 Software v.3.8.6.4 2017-10-02
Report Run at: December 17, 2017 05:48 EST
"Nutrient data for: 45018047, BALCONI, TIRAMISU, UPC: 897585000293"
Food Group:  Branded Food Products Database
Common Name:

Nutrient,Unit,Data points,Std. Error,"0.125 CAKE = 50.0g",1Value per 100 g,
Proximates
"Energy",kcal,--,--,180,360
"Protein",g,--,--,2.00,4.00
"Total lipid (fat)",g,--,--,8.00,16.00
"Carbohydrate, by difference",g,--,--,25.00,50.00
"Fiber, total dietary",g,--,--,1.0,2.0
"Sugars, total",g,--,--,17.00,34.00
Minerals
"Calcium, Ca",mg,--,--,40,80
"Iron, Fe",mg,--,--,0.40,0.79
"Sodium, Na",mg,--,--,65,130
Vitamins
"Vitamin C, total ascorbic acid",mg,--,--,0.0,0.0
"Vitamin A, IU",IU,--,--,110,220
Lipids
"Fatty acids, total saturated",g,--,--,6.000,12.000
"Fatty acids, total trans",g,--,--,0.000,0.000
"Cholesterol",mg,--,--,30,60
Amino Acids
Other
Ingredients
"GLUCOSE FRUCTOSE SYRUP, SUGAR, COFFEE LIQUEUR (GLUCOSE FRUCTOSE SYRUP, COFFEE (4%), ALCOHOL, WATER, NATURAL AND ARTIFICIAL FLAVORS), VEGETABLE OIL SHORTENING [FROM PALM NUT AND PALM OILS AND HIGHLY REFINED COCONUT OIL], WHEAT FLOUR, EGGS, SKIM MILK, SKIM MILK POWDER, MASCARPONE CHEESE (1%) [CREAM, CITRIC ACID], LESS THAN 1 PERCENT OF: COCOA POWDER PROCESSED WITH ALKALI, WHEY PROTEIN (FROM MILK), MARSALA WINE, MONO & DIGLYCERIDES, SOY LECITHIN, LEAVENING (AMMONIUM BICARBONATE, SODIUM BICARBONATE, DISODIUM DIPHOSPHATE), NATURAL AND ARTIFICIAL FLAVORS, SALT, PECTIN, DEXTROSE, WHEAT STARCH." Date available: 07/14/2017 Date last updated by company: 07/14/2017
