Source: USDA Branded Food Products Database Release December 2017 Software v.3.8.6.4 2017-10-02
Report Run at: December 17, 2017 05:49 EST
"Nutrient data for: 45294064, BALL PARK, LEAN BEEF FRANKS, UPC: 054500101149"
Food Group:  Branded Food Products Database
Common Name:

Nutrient,Unit,Data points,Std. Error,"1 FRANK = 50.0g",1Value per 100 g,
Proximates
"Energy",kcal,--,--,80,160
"Protein",g,--,--,5.00,10.00
"Total lipid (fat)",g,--,--,5.00,10.00
"Carbohydrate, by difference",g,--,--,2.00,4.00
"Fiber, total dietary",g,--,--,0.0,0.0
"Sugars, total",g,--,--,0.00,0.00
Minerals
"Calcium, Ca",mg,--,--,0,0
"Iron, Fe",mg,--,--,0.79,1.58
"Potassium, K",mg,--,--,360,720
"Sodium, Na",mg,--,--,480,960
Vitamins
"Vitamin C, total ascorbic acid",mg,--,--,0.0,0.0
"Vitamin A, IU",IU,--,--,0,0
Lipids
"Fatty acids, total saturated",g,--,--,2.000,4.000
"Fatty acids, total trans",g,--,--,0.000,0.000
"Cholesterol",mg,--,--,20,40
Amino Acids
Other
Ingredients
"BEEF, WATER, MODIFIED CORN STARCH, CONTAINS 2% OR LESS: SALT, POTASSIUM LACTATE, CORN SYRUP, SODIUM PHOSPHATE, FLAVOR, SODIUM DIACETATE, SODIUM ERYTHORBATE, SODIUM NITRATE,PAPRIKA EXTRACT" Date available: 06/24/2017 Date last updated by company: 06/24/2017
