Source: USDA Branded Food Products Database Release December 2017 Software v.3.8.6.4 2017-10-02
Report Run at: December 17, 2017 05:51 EST
"Nutrient data for: 45185811, BALSAMIC GARLIC & ONION JAM, UPC: 725439981453"
Food Group:  Branded Food Products Database
Common Name:

Nutrient,Unit,Data points,Std. Error,"1 Tbsp = 17.0g",1Value per 100 g,
Proximates
"Energy",kcal,--,--,30,176
"Protein",g,--,--,0.00,0.00
"Total lipid (fat)",g,--,--,0.00,0.00
"Carbohydrate, by difference",g,--,--,7.00,41.18
"Fiber, total dietary",g,--,--,0.8,5.0
"Sugars, total",g,--,--,6.00,35.29
Minerals
"Sodium, Na",mg,--,--,50,294
Vitamins
"Vitamin C, total ascorbic acid",mg,--,--,4.1,23.9
Lipids
Amino Acids
Other
Ingredients
"ONIONS, BROWN SUGAR, BALSAMIC VINEGAR, CANE SUGAR, WATER, ROASTED GARLIC, SEA SALT, GARLIC, PECTIN, SPICE, CITRIC ACID." Date available: 07/14/2017 Date last updated by company: 07/14/2017
