Source: USDA Branded Food Products Database Release December 2017 Software v.3.8.6.4 2017-10-02
Report Run at: December 16, 2017 23:28 EST
"Nutrient data for: 45194905, BALSAMIC VINEGAR OF NODENA, UPC: 051933350144"
Food Group:  Branded Food Products Database
Common Name:

Nutrient,Unit,Data points,Std. Error,"1 Tbsp = 15.0g",1Value per 100 g,
Proximates
"Energy",kcal,--,--,10,67
"Protein",g,--,--,0.00,0.00
"Total lipid (fat)",g,--,--,0.00,0.00
"Carbohydrate, by difference",g,--,--,2.00,13.33
"Sugars, total",g,--,--,2.00,13.33
Minerals
"Sodium, Na",mg,--,--,0,0
Vitamins
Lipids
"Fatty acids, total saturated",g,--,--,0.000,0.000
"Fatty acids, total trans",g,--,--,0.000,0.000
Amino Acids
Other
Ingredients
"WINE VINEGAR, CONCENTRATED GRAPE MUST, CARAMEL COLOR" Date available: 07/14/2017 Date last updated by company: 07/14/2017
