Source: USDA Branded Food Products Database Release December 2017 Software v.3.8.6.4 2017-10-02
Report Run at: December 16, 2017 23:32 EST
"Nutrient data for: 45001730, BANANA CHIPS, UPC: 071022318664"
Food Group:  Branded Food Products Database
Common Name:

Nutrient,Unit,Data points,Std. Error,"0.33 cup = 30.0g",1Value per 100 g,
Proximates
"Energy",kcal,--,--,160,533
"Protein",g,--,--,0.00,0.00
"Total lipid (fat)",g,--,--,9.00,30.00
"Carbohydrate, by difference",g,--,--,19.00,63.33
"Fiber, total dietary",g,--,--,4.0,13.3
"Sugars, total",g,--,--,5.00,16.67
Minerals
"Calcium, Ca",mg,--,--,0,0
"Iron, Fe",mg,--,--,0.36,1.20
"Potassium, K",mg,--,--,140,467
"Sodium, Na",mg,--,--,0,0
Vitamins
"Vitamin C, total ascorbic acid",mg,--,--,1.2,4.0
"Vitamin A, IU",IU,--,--,100,333
Lipids
"Fatty acids, total saturated",g,--,--,7.00,23.33
"Fatty acids, total trans",g,--,--,0.00,0.00
"Cholesterol",mg,--,--,0,0
Amino Acids
Other
Ingredients
"BANANAS (PRODUCT OF THE PHILIPPINES), COCONUT OIL, SUGAR, NATURAL BANANA FLAVOR." Date last updated by company: 01/10/2014
