Source: USDA Branded Food Products Database Release December 2017 Software v.3.8.6.4 2017-10-02
Report Run at: December 16, 2017 23:33 EST
"Nutrient data for: 45224764, BANANA CREAM PIE, UPC: 011110265319"
Food Group:  Branded Food Products Database
Common Name:

Nutrient,Unit,Data points,Std. Error,"0.667 PIE = 137.0g",1Value per 100 g,
Proximates
"Energy",kcal,--,--,400,292
"Protein",g,--,--,3.00,2.19
"Total lipid (fat)",g,--,--,18.00,13.14
"Carbohydrate, by difference",g,--,--,60.01,43.80
"Fiber, total dietary",g,--,--,0.0,0.0
"Sugars, total",g,--,--,44.00,32.12
Minerals
"Calcium, Ca",mg,--,--,40,29
"Iron, Fe",mg,--,--,0.00,0.00
"Sodium, Na",mg,--,--,179,131
Vitamins
"Vitamin C, total ascorbic acid",mg,--,--,0.0,0.0
"Vitamin A, IU",IU,--,--,0,0
Lipids
"Fatty acids, total saturated",g,--,--,11.001,8.030
"Fatty acids, total monounsaturated",g,--,--,2.000,1.460
"Fatty acids, total polyunsaturated",g,--,--,5.000,3.650
"Fatty acids, total trans",g,--,--,0.000,0.000
"Cholesterol",mg,--,--,0,0
Amino Acids
Other
Ingredients
"WATER, SUGAR, WHEAT FLOUR, HIGH FRUCTOSE CORN SYRUP, BANANAS, GLYCEROL, MODIFIED TAPIOCA STARCH, PARTIALLY HYDROGENATED SOYBEAN OIL, PALM KERNEL OIL AND COTTONSEED OIL, DEXTROSE. CONTAINS 2% OR LESS OF NONFAT MILK, CITRIC ACID, BETA CAROTENE, ALGIN, SALT, GLUCONO DELTA-LACTONE, YELLOW CORN FLOUR, CALCIUM SULFATE, SODIUM HEXAMETAPHOSPHATE, SOYBEAN OIL, EGG WHITE, WHEY, SOY FLOUR, SODIUM CASEINATE, CARAMEL COLOR, SOY PROTEIN CONCENTRATE, NATURAL AND ARTIFICIAL FLAVOR, CELLULOSE GUM, POLYSORBATE 60, POLYGLYCEROL ESTERS OF FATTY ACIDS, GUAR GUM, XANTHAN GUM, SODIUM BICARBONATE, POTASSIUM SORBATE, SORBIC ACID AND SODIUM BENZOATE (PRESERVATIVES)." Date available: 07/14/2017 Date last updated by company: 07/14/2017
