Source: USDA Branded Food Products Database Release December 2017 Software v.3.8.6.4 2017-10-02
Report Run at: December 16, 2017 23:33 EST
"Nutrient data for: 45192703, BANANA CREAM PIE, UPC: 815360013160"
Food Group:  Branded Food Products Database
Common Name:

Nutrient,Unit,Data points,Std. Error,"0.143 PIE = 118.0g",1Value per 100 g,
Proximates
"Energy",kcal,--,--,300,254
"Protein",g,--,--,1.99,1.69
"Total lipid (fat)",g,--,--,17.00,14.41
"Carbohydrate, by difference",g,--,--,34.00,28.81
"Fiber, total dietary",g,--,--,2.0,1.7
"Sugars, total",g,--,--,18.00,15.25
Minerals
"Calcium, Ca",mg,--,--,20,17
"Iron, Fe",mg,--,--,0.77,0.65
"Sodium, Na",mg,--,--,181,153
Vitamins
"Vitamin C, total ascorbic acid",mg,--,--,0.0,0.0
"Vitamin A, IU",IU,--,--,212,180
Lipids
"Fatty acids, total saturated",g,--,--,10.998,9.320
"Fatty acids, total trans",g,--,--,0.000,0.000
"Cholesterol",mg,--,--,15,13
Amino Acids
Other
Ingredients
"WATER, ENRICHED FLOUR (FLOUR, NIACIN, REDUCED IRON, THIAMINE MONONITRATE, RIBOFLAVIN, FOLIC ACID), SUGAR, PALM OIL, FOOD STARCH-MODIFIED, HIGH FRUCTOSE CORN SYRUP, HALF & HALF, CONTAINS LESS THAN 2% OF: BANANA PUREE (BANANAS, CITRIC ACID, ASCORBIC ACID), MARGARINE (PALM OIL, WATER, SALT, MONO- AND DIGLYCERIDES, SOY LECITHIN, SODIUM BENZOATE, ARTIFICIAL FLAVORS, BETA CAROTENE, VITAMIN A PALMITATE), EGG YOLKS, DEXTROSE, SALT, SODIUM CASEINATE (A MILK DERIVATIVE), GRAHAM FLOUR, TITANIUM DIOXIDE (COLOR), NATURAL AND ARTIFICIAL FLAVORS, HONEY, BAKING SODA, MONOCALCIUM PHOSPHATE, AMMONIUM BICARBONATE, SODIUM ACID PHOSPHATE, SORBIC ACID, POLYSORBATE 60, SORTITAN MONOSTEARATE, BETA CAROTENE AND ANNATTO (COLORS) SOY LECITHIN, XANTHAN GUM, GUAR GUM, ACACIA GUM, ARTIFICIAL COLORS (YELLOW 5, YELLOW 6, RED 40), CITRIC ACID, APPLE CIDER VINEGAR, SODIUM BENZOATE, CALCIUM PROPIONATE." Date available: 07/14/2017 Date last updated by company: 07/14/2017
