Source: USDA Branded Food Products Database Release December 2017 Software v.3.8.6.4 2017-10-02
Report Run at: December 16, 2017 23:43 EST
"Nutrient data for: 45133983, BANQUET Classic Homestyle Patty Meal, UNPREPARED, GTIN: 00031000007164"
Food Group:  Branded Food Products Database
Common Name:

Nutrient,Unit,Data points,Std. Error,"1 Meal (283g) = 283.0g",1Value per 100 g,
Proximates
"Energy",kcal,--,--,340,120
"Protein",g,--,--,15.00,5.30
"Total lipid (fat)",g,--,--,17.01,6.01
"Carbohydrate, by difference",g,--,--,32.01,11.31
"Fiber, total dietary",g,--,--,4.0,1.4
"Sugars, total",g,--,--,2.01,0.71
Minerals
"Calcium, Ca",mg,--,--,59,21
"Iron, Fe",mg,--,--,2.69,0.95
"Potassium, K",mg,--,--,280,99
"Sodium, Na",mg,--,--,1039,367
Vitamins
"Vitamin C, total ascorbic acid",mg,--,--,2.3,0.8
"Vitamin A, IU",IU,--,--,0,0
Lipids
"Fatty acids, total saturated",g,--,--,6.000,2.120
"Fatty acids, total monounsaturated",g,--,--,6.990,2.470
"Fatty acids, total polyunsaturated",g,--,--,3.509,1.240
"Fatty acids, total trans",g,--,--,0.000,0.000
"Cholesterol",mg,--,--,85,30
Amino Acids
Other
Ingredients
"GRAVY: Water, Beef, Modified Corn Starch, Wheat Flour, Tomato Paste, Salt, Onions, Sugar, Soybean Oil, Hydrolyzed Soy Protein, Garlic Juice, Monosodium Glutamate, Flavorings, Caramel Color. EGG NOODLES: Water, Durum Flour (Durum Wheat Semolina, Niacin, Ferrous Sulfate, Thiamine Mononitrate, Riboflavin, Folic Acid), Dried Whole Eggs, Soybean Oil. HOMESTYLE PATTY: Pork, Mechanically Separated Chicken, Water, Textured Vegetable Protein (Soy Flour, Caramel Color), Breader (Enriched Bleached Wheat Flour [Bleached Wheat Flour, Niacin, Reduced Iron, Thiamine Mononitrate, Riboflavin, Folic Acid], Durum Flour, Leavening [Sodium Bicarbonate, Sodium Acid Pyrophosphate], Yeast), Soy Protein Concentrate, Salt, Dehydrated Onion, Sodium Tripolyphosphate, Dextrose, Caramel Color, Soy Lecithin, Natural Flavors, Citric Acid, Flavorings. CONTAINS: EGG, SOY, WHEAT." Date available: 10/11/2017 Date last updated by company: 10/10/2017
