Source: USDA Branded Food Products Database Release December 2017 Software v.3.8.6.4 2017-10-02
Report Run at: December 16, 2017 23:45 EST
"Nutrient data for: 45134424, BANQUET Queso Mac Lunch, UNPREPARED, GTIN: 00031000110727"
Food Group:  Branded Food Products Database
Common Name:

Nutrient,Unit,Data points,Std. Error,"1 Meal (198g) = 198.0g",1Value per 100 g,
Proximates
"Energy",kcal,--,--,240,121
"Protein",g,--,--,9.01,4.55
"Total lipid (fat)",g,--,--,10.00,5.05
"Carbohydrate, by difference",g,--,--,29.01,14.65
"Fiber, total dietary",g,--,--,3.0,1.5
"Sugars, total",g,--,--,3.01,1.52
Minerals
"Calcium, Ca",mg,--,--,150,76
"Iron, Fe",mg,--,--,1.09,0.55
"Potassium, K",mg,--,--,115,58
"Sodium, Na",mg,--,--,750,379
Vitamins
"Vitamin C, total ascorbic acid",mg,--,--,2.4,1.2
"Vitamin A, IU",IU,--,--,400,202
Lipids
"Fatty acids, total saturated",g,--,--,3.505,1.770
"Fatty acids, total monounsaturated",g,--,--,2.495,1.260
"Fatty acids, total polyunsaturated",g,--,--,3.010,1.520
"Fatty acids, total trans",g,--,--,0.000,0.000
"Cholesterol",mg,--,--,16,8
Amino Acids
Other
Ingredients
"QUESO SAUCE BLEND: Water, Pasteurized Processed Cheese Spread (Cheddar And Colby Cheese [Milk, Cheese Culture, Salt, Enzymes], Water, Whey, Sodium Phosphate, Whey Protein Concentrate, Skim Milk, Milkfat, Salt, Carrageenan, Cellulose Gum), Monterey Pepper Jack Cheese (Pasteurized Milk, Cheese Cultures, Green and Red Jalapeno Peppers, Salt, Enzymes), Soybean Oil, Red Bell Peppers, Nonfat Dry Milk, Modified Corn Starch, Jalapeno Pepper, Salt, Xanthan Gum, Guar Gum, Flavoring.  ELBOW PASTA: Water, Elbow Macaroni (Enriched Pasta [Durum Wheat Semolina, Niacin, Ferrous Sulfate, Thiamin Mononitrate, Riboflavin, Folic Acid]), Soybean Oil, Citric Acid. CONTAINS: MILK, WHEAT." Date available: 10/12/2017 Date last updated by company: 10/12/2017
