Source: USDA Branded Food Products Database Release December 2017 Software v.3.8.6.4 2017-10-02
Report Run at: December 16, 2017 23:41 EST
"Nutrient data for: 45134426, BANQUET Cheesy Rice With Chicken And Broccoli Lunch, UNPREPARED, GTIN: 00031000110741"
Food Group:  Branded Food Products Database
Common Name:

Nutrient,Unit,Data points,Std. Error,"1 Meal (198g) = 198.0g",1Value per 100 g,
Proximates
"Energy",kcal,--,--,190,96
"Protein",g,--,--,8.00,4.04
"Total lipid (fat)",g,--,--,4.49,2.27
"Carbohydrate, by difference",g,--,--,28.00,14.14
"Fiber, total dietary",g,--,--,3.0,1.5
"Sugars, total",g,--,--,4.00,2.02
Minerals
"Calcium, Ca",mg,--,--,79,40
"Iron, Fe",mg,--,--,0.00,0.00
"Potassium, K",mg,--,--,210,106
"Sodium, Na",mg,--,--,630,318
Vitamins
"Vitamin C, total ascorbic acid",mg,--,--,3.6,1.8
"Vitamin A, IU",IU,--,--,5500,2778
Lipids
"Fatty acids, total saturated",g,--,--,1.505,0.760
"Fatty acids, total monounsaturated",g,--,--,1.505,0.760
"Fatty acids, total polyunsaturated",g,--,--,1.505,0.760
"Fatty acids, total trans",g,--,--,0.000,0.000
"Cholesterol",mg,--,--,16,8
Amino Acids
Other
Ingredients
"CHEESY SAUCE: Water, Broccoli, Cheddar Club Cheese (Pasteurized Cultured Milk, Salt, Enzymes, Annatto [Color]), Modified Whey, Soybean Oil, Modified Corn Starch, Nonfat Dry Milk, Cheese Flavor (Whey, Cheese [Granular and Blue {Pasteurized Milk, Cheese Culture, Salt, Enzyme}], Sunflower Oil, Maltodextrin, Salt, Sodium Phosphate, Citric Acid, Lactic Acid), Salt, Sugar, DATEM, Sodium Phosphates, Xanthan Gum, Citric Acid, Guar Gum, Maltodextrin, Beta Carotene (Color). COOKED RICE: Water, White Rice, Soybean Oil. COOKED CHICKEN: White Meat Chicken, Water, Modified Rice Starch, Isolated Soy Protein, Salt, Sodium Phosphate. CONTAINS: MILK, SOY." Date available: 10/12/2017 Date last updated by company: 10/12/2017
