Source: USDA Branded Food Products Database Release December 2017 Software v.3.8.6.4 2017-10-02
Report Run at: December 16, 2017 23:44 EST
"Nutrient data for: 45134683, BANQUET Homestyle Bakes Sausage Biscuit Gravy, UNPREPARED, GTIN: 00050100142124"
Food Group:  Branded Food Products Database
Common Name:

Nutrient,Unit,Data points,Std. Error,"0.25 Package (199g), Makes 1 cup prepared = 199.0g",1Value per 100 g,
Proximates
"Energy",kcal,--,--,390,196
"Protein",g,--,--,8.99,4.52
"Total lipid (fat)",g,--,--,20.99,10.55
"Carbohydrate, by difference",g,--,--,40.00,20.10
"Fiber, total dietary",g,--,--,2.0,1.0
"Sugars, total",g,--,--,4.99,2.51
Minerals
"Calcium, Ca",mg,--,--,100,50
"Iron, Fe",mg,--,--,2.71,1.36
"Potassium, K",mg,--,--,360,181
"Sodium, Na",mg,--,--,1041,523
Vitamins
"Vitamin C, total ascorbic acid",mg,--,--,2.4,1.2
"Vitamin A, IU",IU,--,--,0,0
Lipids
"Fatty acids, total saturated",g,--,--,4.995,2.510
"Fatty acids, total monounsaturated",g,--,--,8.000,4.020
"Fatty acids, total polyunsaturated",g,--,--,7.005,3.520
"Fatty acids, total trans",g,--,--,0.000,0.000
"Cholesterol",mg,--,--,16,8
Amino Acids
Other
Ingredients
"Sausage Gravy:  Water, Sausage (Pork, Salt, Caramel Color), Soybean Oil, Modified Corn Starch, Flour Blend (Enriched Wheat Flour [Wheat Flour, Niacin, Reduced Iron, Thiamine Mononitrate, Riboflavin, Folic Acid], Bleached Wheat Flour), Contains 2% Or Less Of: Sodium Caseinate, Salt, Sugar, Potassium Phosphate, Sodium Stearoyl Lactylate, Maltodextrin, Flavoring, Titanium Dioxide, Sodium Carboxymethylcellulose, Natural and Artificial Flavors, Propyl Gallate. Buttermilk Biscuit Mix:   Enriched Wheat Flour (Wheat Flour, Niacin, Reduced Iron, Thiamine Mononitrate, Riboflavin, Folic Acid), Shortening (High Oleic Canola Oil, Hydrogenated Cottonseed Oil, Citric Acid), Contains 2% Or Less Of: Cultured Buttermilk, Sodium Bicarbonate, Dextrose, Salt, Monocalcium Phosphate, Sodium Aluminum Phosphate, Butter Flavor (Maltodextrin, Triglycerides, Modified Corn Starch, Natural Flavors, Natural Butter Flavor). CONTAINS: MILK, WHEAT." Date available: 10/12/2017 Date last updated by company: 10/12/2017
