Source: USDA Branded Food Products Database Release December 2017 Software v.3.8.6.4 2017-10-02
Report Run at: December 16, 2017 23:39 EST
"Nutrient data for: 45134006, BANQUET Basic Mac And Cheese Meal, UNPREPARED, GTIN: 00031000007324"
Food Group:  Branded Food Products Database
Common Name:

Nutrient,Unit,Data points,Std. Error,"1 Meal (227g) = 227.0g",1Value per 100 g,
Proximates
"Energy",kcal,--,--,241,106
"Protein",g,--,--,7.99,3.52
"Total lipid (fat)",g,--,--,8.99,3.96
"Carbohydrate, by difference",g,--,--,32.01,14.10
"Fiber, total dietary",g,--,--,3.0,1.3
"Sugars, total",g,--,--,4.99,2.20
Minerals
"Calcium, Ca",mg,--,--,150,66
"Iron, Fe",mg,--,--,1.09,0.48
"Potassium, K",mg,--,--,179,79
"Sodium, Na",mg,--,--,931,410
Vitamins
"Vitamin C, total ascorbic acid",mg,--,--,2.5,1.1
"Vitamin A, IU",IU,--,--,15500,6828
Lipids
"Fatty acids, total saturated",g,--,--,2.996,1.320
"Fatty acids, total monounsaturated",g,--,--,2.497,1.100
"Fatty acids, total polyunsaturated",g,--,--,2.996,1.320
"Fatty acids, total trans",g,--,--,0.000,0.000
"Cholesterol",mg,--,--,9,4
Amino Acids
Other
Ingredients
"MACARONI AND CHEESE SAUCE: CHEESE SAUCE: Water, Cheddar Club Cheese (Pasteurized Cultured Milk, Salt, Enzymes, Annatto [Color]), Modified Whey, Soybean Oil, Modified Corn Starch, Nonfat Dry Milk, Cheese Flavor (Whey, Cheese [Granular and Blue {Pasteurized Milk, Cheese Culture, Salt, Enzyme}], Sunflower Oil, Maltodextrin, Salt, Sodium Phosphate, Citric Acid, Lactic Acid), Salt, Sugar, Sodium Phosphates, Xanthan Gum, Citric Acid, Guar Gum, Beta Carotene (Color). MACARONI: COOKED PASTA: Water, Elbow Macaroni (Enriched Pasta [Durum Wheat Semolina, Niacin, Ferrous Sulfate, Thiamin Mononitrate, Riboflavin, Folic Acid]), Soybean Oil. CONTAINS: MILK, WHEAT." Date available: 10/12/2017 Date last updated by company: 10/10/2017
