Source: USDA Branded Food Products Database Release December 2017 Software v.3.8.6.4 2017-10-02
Report Run at: December 16, 2017 23:40 EST
"Nutrient data for: 45134011, BANQUET Boneless Honey BBQ Wings, UNPREPARED, GTIN: 00031000200015"
Food Group:  Branded Food Products Database
Common Name:

Nutrient,Unit,Data points,Std. Error,"2.0 Pieces (79g) = 79.0g",1Value per 100 g,
Proximates
"Energy",kcal,--,--,160,203
"Protein",g,--,--,10.00,12.66
"Total lipid (fat)",g,--,--,9.00,11.39
"Carbohydrate, by difference",g,--,--,10.00,12.66
"Fiber, total dietary",g,--,--,1.0,1.3
"Sugars, total",g,--,--,2.00,2.53
Minerals
"Calcium, Ca",mg,--,--,0,0
"Iron, Fe",mg,--,--,0.72,0.91
"Potassium, K",mg,--,--,150,190
"Sodium, Na",mg,--,--,430,544
Vitamins
"Vitamin C, total ascorbic acid",mg,--,--,0.0,0.0
"Vitamin A, IU",IU,--,--,0,0
Lipids
"Fatty acids, total saturated",g,--,--,1.501,1.900
"Fatty acids, total monounsaturated",g,--,--,2.496,3.160
"Fatty acids, total polyunsaturated",g,--,--,3.997,5.060
"Fatty acids, total trans",g,--,--,0.000,0.000
"Cholesterol",mg,--,--,25,32
Amino Acids
Other
Ingredients
"CHICKEN PATTIES (Chicken Breast with Rib Meat, Water, Textured Soy Protein Concentrate, Sugar, Isolated Soy Protein With Less Than 2% Lecithin, Seasoning Blend [Salt, Sodium Tripolyphosphate, Natural Flavoring], Natural Mesquite Smoke Flavor, Honey Granules) BREADER (Enriched Bleached Wheat Flour [Enriched with Niacin, Reduced Iron, Thiamine Mononitrate, Riboflavin, Folic Acid], Salt, Spices, Extractives of Paprika, Leavening [Sodium Acid Pyrophosphate, Sodium Bicarbonate] BATTER (Water, Wheat Flour, Modified Corn Starch, Sugar, Maltodextrin, Salt, Honey Solids, Leavening [Sodium Acid Pyrophosphate, Sodium Bicarbonate], Garlic Powder, Onion Powder, Paprika, Wheat Gluten, Citric Acid, Malic Acid, Spices, Caramel Color, Extractives Of Paprika, Natural Smoke Flavor, Xanthan Gum] PREDUST (Bleached Wheat Flour, Refinery Syrup, Salt, Calcium Stearate, Garlic Powder, Onion Powder, Paprika, Malic Acid, Citric Acid, Honey, Wheat Gluten, Maltodextrin, Spices, Extractives of Paprika, Natural Smoke Flavor). Fried in Vegetable Oil. CONTAINS: SOY, WHEAT." Date available: 10/12/2017 Date last updated by company: 10/11/2017
