Source: USDA Branded Food Products Database Release December 2017 Software v.3.8.6.4 2017-10-02
Report Run at: December 16, 2017 23:45 EST
"Nutrient data for: 45133993, BANQUET Original Patties, UNPREPARED, GTIN: 00031000184636"
Food Group:  Branded Food Products Database
Common Name:

Nutrient,Unit,Data points,Std. Error,"2.0 Patties (50g) = 50.0g",1Value per 100 g,
Proximates
"Energy",kcal,--,--,160,320
"Protein",g,--,--,6.00,12.00
"Total lipid (fat)",g,--,--,15.00,30.00
"Carbohydrate, by difference",g,--,--,1.00,2.00
"Sugars, total",g,--,--,1.00,2.00
Minerals
"Calcium, Ca",mg,--,--,40,80
"Iron, Fe",mg,--,--,0.72,1.44
"Potassium, K",mg,--,--,0,0
"Sodium, Na",mg,--,--,370,740
Vitamins
"Vitamin C, total ascorbic acid",mg,--,--,0.0,0.0
"Vitamin A, IU",IU,--,--,0,0
Lipids
"Fatty acids, total saturated",g,--,--,5.000,10.000
"Fatty acids, total trans",g,--,--,0.000,0.000
"Cholesterol",mg,--,--,25,50
Amino Acids
Other
Ingredients
"PORK, MECHANICALLY SEPARATED TURKEY, WATER, SOY PROTEIN CONCENTRATE, CONTAINS LESS THAN 2% OF: SALT, FLAVORINGS, SUGAR, DEXTROSE, CITRIC ACID, BHA, BHT. CONTAINS: SOY." Date available: 10/12/2017 Date last updated by company: 10/12/2017
