Source: USDA Branded Food Products Database Release December 2017 Software v.3.8.6.4 2017-10-02
Report Run at: December 16, 2017 23:43 EST
"Nutrient data for: 45134419, BANQUET Family Size Zesty Marinara Sauce Over Meatballs, UNPREPARED, GTIN: 00031000113520"
Food Group:  Branded Food Products Database
Common Name:

Nutrient,Unit,Data points,Std. Error,"4.0 Meatballs & Sauce (140g) = 140.0g",1Value per 100 g,
Proximates
"Energy",kcal,--,--,169,121
"Protein",g,--,--,9.00,6.43
"Total lipid (fat)",g,--,--,10.00,7.14
"Carbohydrate, by difference",g,--,--,11.00,7.86
"Fiber, total dietary",g,--,--,2.9,2.1
"Sugars, total",g,--,--,5.00,3.57
Minerals
"Calcium, Ca",mg,--,--,60,43
"Iron, Fe",mg,--,--,1.44,1.03
"Potassium, K",mg,--,--,519,371
"Sodium, Na",mg,--,--,430,307
Vitamins
"Vitamin C, total ascorbic acid",mg,--,--,1.3,0.9
"Vitamin A, IU",IU,--,--,200,143
Lipids
"Fatty acids, total saturated",g,--,--,3.500,2.500
"Fatty acids, total monounsaturated",g,--,--,4.494,3.210
"Fatty acids, total polyunsaturated",g,--,--,1.498,1.070
"Fatty acids, total trans",g,--,--,0.000,0.000
"Cholesterol",mg,--,--,29,21
Amino Acids
Other
Ingredients
"Zesty Marinara Sauce (Water, Tomato Paste, Sugar, Modified Corn Starch, Soybean Oil, Crushed Garlic [Garlic, Citric Acid], Onions, Worcestershire Sauce [Vinegar, Molasses, High Fructose Corn Syrup, Anchovies, Water, Onions, Salt, Garlic, Tamarind Concentrate, Cloves, Natural Flavorings, Chili Pepper Extract], Salt, Whole Basil, Dehydrated Onion, Flavoring [Potassium Chloride, Ground Fennel, Ammonium Chloride, Citric Acid, Yeast Extract, Flavor {Lactic Acid, Citric Acid}]), Meatballs (Mechanically Separated Chicken [Salt, Natural Flavorings, Citric Acid], Pork, Beef, Water, Soy Flour, Caramel Color, Soy Protein Concentrate With Less Than 2% Soy Lecithin, Enriched Bleached Wheat Flour [Niacin, Reduced Iron, Thiamine Mononitrate, Riboflavin, Folic Acid], Durum Flour, Leavening {Sodium Bicarbonate, Sodium Acid Pyrophosphate}, Yeast], Crushed Garlic [Garlic, Citric Acid], Dehydrated Onion, Soy Sauce [Water, Wheat, Soybeans, Salt], Caramel Color, Sodium Tripolyphosphate, Salt, Ground Nutmeg, Flavoring [Spice Extractive with Soybean Oil, Mono and Diglycerides, Sunflower Lecithin]). CONTAINS: FISH (ANCHOVIES), SOY, WHEAT." Date available: 10/12/2017 Date last updated by company: 10/11/2017
