Source: USDA Branded Food Products Database Release December 2017 Software v.3.8.6.4 2017-10-02
Report Run at: December 16, 2017 23:47 EST
"Nutrient data for: 45134026, BANQUET Turkey Sausage Links, UNPREPARED, GTIN: 00031000307417"
Food Group:  Branded Food Products Database
Common Name:

Nutrient,Unit,Data points,Std. Error,"3.0 Links (60g) = 60.0g",1Value per 100 g,
Proximates
"Energy",kcal,--,--,110,183
"Protein",g,--,--,9.00,15.00
"Total lipid (fat)",g,--,--,8.00,13.33
"Carbohydrate, by difference",g,--,--,2.00,3.33
"Fiber, total dietary",g,--,--,0.0,0.0
"Sugars, total",g,--,--,1.00,1.67
Minerals
"Calcium, Ca",mg,--,--,60,100
"Iron, Fe",mg,--,--,1.08,1.80
"Potassium, K",mg,--,--,0,0
"Sodium, Na",mg,--,--,420,700
Vitamins
"Vitamin C, total ascorbic acid",mg,--,--,0.0,0.0
"Vitamin A, IU",IU,--,--,0,0
Lipids
"Fatty acids, total saturated",g,--,--,1.998,3.330
"Fatty acids, total trans",g,--,--,0.000,0.000
"Cholesterol",mg,--,--,40,67
Amino Acids
Other
Ingredients
"POULTRY INGREDIENTS (TURKEY, MECHANICALLY SEPARATED TURKEY), WATER, SOY PROTEIN CONCENTRATE, CONTAINS LESS THAN 2% OF: DEXTROSE, SALT, CORN SYRUP, FLAVORINGS, SUGAR, SPICES, NATURAL FLAVOR, CITRIC ACID, BHA, BHT. CONTAINS: SOY." Date available: 10/12/2017 Date last updated by company: 10/12/2017
