Source: USDA Branded Food Products Database Release December 2017 Software v.3.8.6.4 2017-10-02
Report Run at: December 17, 2017 00:17 EST
"Nutrient data for: 45201006, BAR, UPC: 749826592589"
Food Group:  Branded Food Products Database
Common Name:

Nutrient,Unit,Data points,Std. Error,"1 BAR = 50.0g",1Value per 100 g,
Proximates
"Energy",kcal,--,--,200,400
"Protein",g,--,--,20.00,40.00
"Total lipid (fat)",g,--,--,6.00,12.00
"Carbohydrate, by difference",g,--,--,16.00,32.00
"Fiber, total dietary",g,--,--,1.0,2.0
"Sugars, total",g,--,--,2.00,4.00
Minerals
"Calcium, Ca",mg,--,--,150,300
"Iron, Fe",mg,--,--,1.15,2.30
"Sodium, Na",mg,--,--,200,400
Vitamins
"Vitamin C, total ascorbic acid",mg,--,--,0.0,0.0
"Vitamin A, IU",IU,--,--,0,0
Lipids
"Fatty acids, total saturated",g,--,--,3.000,6.000
"Fatty acids, total trans",g,--,--,0.000,0.000
"Cholesterol",mg,--,--,10,20
Amino Acids
Other
Ingredients
"CHOCOLATE FLAVORED COATING (MALTITOL, FRACTIONATED PALM KERNEL OIL, WHEY PROTEIN CONCENTRATE, COCOA [PROCESSED WITH ALKALI], CALCIUM CARBONATE, NATURAL FLAVORS, SOY LECITHIN, SUCRALOSE), HYDROLYZED COLLAGEN, PEANUT FLOUR, PROTEIN BLEND (MILK PROTEIN ISOLATE, WHEY PROTEIN ISOLATE, WHEY PROTEIN CONCENTRATE), GLYCERIN, MALTITOL SYRUP, SOY CRISPS (SOY PROTEIN ISOLATE, TAPIOCA STARCH, SALT), WATER, PEANUTS, PEANUTS OIL, SUCROSE, SALT, NATURAL FLAVOR, SUCRALOSE, ALMOND BUTTER, SOY LECITHIN." Date available: 07/14/2017 Date last updated by company: 07/14/2017
