Source: USDA Branded Food Products Database Release December 2017 Software v.3.8.6.4 2017-10-02
Report Run at: December 17, 2017 00:18 EST
"Nutrient data for: 45258520, BAR, UPC: 858452002246"
Food Group:  Branded Food Products Database
Common Name:

Nutrient,Unit,Data points,Std. Error,"1 BAR = 67.0g",1Value per 100 g,
Proximates
"Energy",kcal,--,--,150,224
"Protein",g,--,--,3.00,4.48
"Total lipid (fat)",g,--,--,10.00,14.93
"Carbohydrate, by difference",g,--,--,20.00,29.85
"Fiber, total dietary",g,--,--,4.0,6.0
"Sugars, total",g,--,--,3.00,4.48
Minerals
"Calcium, Ca",mg,--,--,80,119
"Iron, Fe",mg,--,--,0.72,1.07
"Sodium, Na",mg,--,--,50,75
Vitamins
"Vitamin C, total ascorbic acid",mg,--,--,0.0,0.0
"Vitamin A, IU",IU,--,--,100,149
Lipids
"Fatty acids, total saturated",g,--,--,7.002,10.450
"Fatty acids, total trans",g,--,--,0.000,0.000
"Cholesterol",mg,--,--,10,15
Amino Acids
Other
Ingredients
"MILK, DARK CHOCOLATY COATING (MALTITOL, COCONUT OIL, CHOCOLATE LIQUOU, INULIN, COCOA PROCESSED WITH ALKALI, SOYBEAN OIL, COCOA BUTTER, SOY LECITHIN), MALTODEXTRIN, CREAM, INULIN, ERYTHRITOL, GLYCERINE, NATURAL FLAVORS, GUAR GUM, LOCUST BEAN GUM, SPINACH EXTRACT (COLOR), STEVIA LEAF EXTRACT." Date available: 07/14/2017 Date last updated by company: 07/14/2017
