Source: USDA Branded Food Products Database Release December 2017 Software v.3.8.6.4 2017-10-02
Report Run at: December 16, 2017 23:57 EST
"Nutrient data for: 45231016, BAR CAKE, UPC: 085239030424"
Food Group:  Branded Food Products Database
Common Name:

Nutrient,Unit,Data points,Std. Error,"2.8 ONZ = 79.0g",1Value per 100 g,
Proximates
"Energy",kcal,--,--,330,418
"Protein",g,--,--,2.00,2.53
"Total lipid (fat)",g,--,--,22.00,27.85
"Carbohydrate, by difference",g,--,--,31.00,39.24
"Fiber, total dietary",g,--,--,1.0,1.3
"Sugars, total",g,--,--,24.00,30.38
Minerals
"Calcium, Ca",mg,--,--,20,25
"Iron, Fe",mg,--,--,0.75,0.95
"Sodium, Na",mg,--,--,160,203
Vitamins
"Vitamin C, total ascorbic acid",mg,--,--,0.0,0.0
"Vitamin A, IU",IU,--,--,70,88
Lipids
"Fatty acids, total saturated",g,--,--,15.002,18.990
"Fatty acids, total trans",g,--,--,0.498,0.630
"Cholesterol",mg,--,--,25,32
Amino Acids
Other
Ingredients
"SUGAR, WATER, PARTIALLY HYDROGENATED PALM KERNEL OIL, SOYBEAN OIL, ENRICHED BLEACHED FLOUR (WHEAT FLOUR, NIACIN, REDUCED IRON, THIAMINE MONONITRATE, RIBOFLAVIN, FOLIC ACID), EGGS, MILK, CORN SYRUP, CREAM, CHOCOLATE LIQUOR, MODIFIED FOOD STARCH, BUTTER, COCOA PROCESSED WITH ALKALI, POLYSORBATE 60, CARBOHYDRATE GUM, DEXTROSE, ARTIFICIAL FLAVOR, COCOA BUTTER, NONFAT MILK, WHEY, SOY LECITHIN, SALT, SODIUM STEAROYL LACTYLATE, COCOA LIQUOR, NATURAL FLAVOR, CORN STARCH, MONO- AND DIGLYCERIDES, BAKING SODA, CARAMEL COLOR, SODIUM ALUMINUM PHOSPHATE, TRICALCIUM PHOSPHATE, SORBITAN MONOSTEARATE, GELATIN, SODIUM CITRATE, SOY FLOUR, PROPYLENE GLYCOL, MONO- AND DIESTERS OF FATTY ACIDS, SULFITES, POTASSIUM SORBATE (PRESERVATIVE), SODIUM PHOSPHATE, CARRAGEENAN, ASCORBIC ACID (DOUGH CONDITIONER), CITRIC ACID, ANNATTO (COLOR), XANTHAN GUM, TITANIUM DIOXIDE (COLOR), YELLOW 5, BLUE 1, LACTOSE, MALTODEXTRIN, MONOCALCIUM PHOSPHATE, PARTIALLY HYDROGENATED SOYBEAN OIL, SODIUM CASEINATE, TETRASODIUM PYROPHOSPHATE, WHEAT STARCH, YELLOW 6, BETA CAROTENE (COLOR), HIGH FRUCTOSE CORN SYRUP." Date available: 07/14/2017 Date last updated by company: 07/14/2017
