Source: USDA Branded Food Products Database Release December 2017 Software v.3.8.6.4 2017-10-02
Report Run at: December 16, 2017 23:54 EST
"Nutrient data for: 45185273, BAR-B-Q DRY RUB & SEASONING, UPC: 617020019976"
Food Group:  Branded Food Products Database
Common Name:

Nutrient,Unit,Data points,Std. Error,"0.25 tsp = 1.0g",1Value per 100 g,
Proximates
"Energy",kcal,--,--,0,0
"Protein",g,--,--,0.00,0.00
"Total lipid (fat)",g,--,--,0.00,0.00
"Carbohydrate, by difference",g,--,--,0.00,0.00
"Sugars, total",g,--,--,0.00,0.00
Minerals
"Sodium, Na",mg,--,--,150,15000
Vitamins
Lipids
Amino Acids
Other
Ingredients
"SPICES, SALT, MSG, GARLIC, CHILI PEPPER, CORN SYRUP SOLIDS, CELERY SALT. LESS THAN 2% CARAMEL COLOR, SUGAR, PARTIALLY HYDROGENATED VEGETABLE OIL (COTTONSEED AND/OR SOYBEAN), NATURALLY FERMENTED WHEAT AND SOYBEANS, TAMARIND, NATURAL FLAVOR, MALTODEXTRIN, AND SILICON DIOXIDE TO PREVENT CAKING." Date available: 07/14/2017 Date last updated by company: 07/14/2017
