Source: USDA Branded Food Products Database Release December 2017 Software v.3.8.6.4 2017-10-02
Report Run at: December 17, 2017 00:00 EST
"Nutrient data for: 45087950, BAR HARBOR, FISH CHOWDER, UPC: 070718000777"
Food Group:  Branded Food Products Database
Common Name:

Nutrient,Unit,Data points,Std. Error,"0.67 cup = 162.0g",1Value per 100 g,
Proximates
"Energy",kcal,--,--,120,74
"Protein",g,--,--,9.01,5.56
"Total lipid (fat)",g,--,--,2.49,1.54
"Carbohydrate, by difference",g,--,--,14.00,8.64
"Fiber, total dietary",g,--,--,1.0,0.6
"Sugars, total",g,--,--,1.99,1.23
Minerals
"Calcium, Ca",mg,--,--,0,0
"Iron, Fe",mg,--,--,1.09,0.67
"Sodium, Na",mg,--,--,870,537
Vitamins
"Vitamin C, total ascorbic acid",mg,--,--,0.0,0.0
"Vitamin A, IU",IU,--,--,0,0
Lipids
"Fatty acids, total saturated",g,--,--,1.507,0.930
"Fatty acids, total trans",g,--,--,0.000,0.000
"Cholesterol",mg,--,--,19,12
Amino Acids
Other
Ingredients
"ALASKAN POLLOCK, POTATOES, WATER, UNBLEACHED, UNBROMATED WHEAT FLOUR, BUTTER (MILK, SALT), NATIVE TAPIOCA STARCH, ONIONS, SALT, PEPPER, AND PROPRIETARY SPICE BELND." Date available: 06/25/2017 Date last updated by company: 06/25/2017
