Source: USDA Branded Food Products Database Release December 2017 Software v.3.8.6.4 2017-10-02
Report Run at: December 17, 2017 00:19 EST
"Nutrient data for: 45326186, BAR, UPC: 093709610052"
Food Group:  Branded Food Products Database
Common Name:

Nutrient,Unit,Data points,Std. Error,"1 BAR = 40.0g",1Value per 100 g,
Proximates
"Energy",kcal,--,--,200,500
"Protein",g,--,--,5.00,12.50
"Total lipid (fat)",g,--,--,10.00,25.00
"Carbohydrate, by difference",g,--,--,22.00,55.00
"Fiber, total dietary",g,--,--,3.0,7.5
"Sugars, total",g,--,--,10.00,25.00
Minerals
"Calcium, Ca",mg,--,--,37,92
"Iron, Fe",mg,--,--,1.02,2.55
"Potassium, K",mg,--,--,210,525
"Sodium, Na",mg,--,--,90,225
Vitamins
Lipids
"Fatty acids, total saturated",g,--,--,2.500,6.250
"Fatty acids, total trans",g,--,--,0.000,0.000
"Cholesterol",mg,--,--,0,0
Amino Acids
Other
Ingredients
"TAPIOCA SYRUP*, ALMOND BUTTER*, ALMONDS*, SUNFLOWER SEEDS*, DATE PASTE*, ALMOND MEAL*, COLD BREW COFFEE*, COCONUT OIL*, GROUND FLAX*, NAVY BEAN FLOUR*, COCONUT FLOUR*, GLUTEN-FREE FLAVORS*, POTATO STARCH*, SEA SALT, GLUTEN-FREE FLAVORS, CREAM OF TARTAR, PEA PROTEIN*, BAKING SODA, GREEN COFFEE*, STEVIA*." Date available: 08/11/2017 Date last updated by company: 08/11/2017
