Source: USDA Branded Food Products Database Release December 2017 Software v.3.8.6.4 2017-10-02
Report Run at: December 16, 2017 23:53 EST
"Nutrient data for: 45037307, BARBEQUE SAUCE, SPECIALTY SERIES TEXAS, UPC: 713733805612"
Food Group:  Branded Food Products Database
Common Name:

Nutrient,Unit,Data points,Std. Error,"2.0 Tbsp = 33.0g",1Value per 100 g,
Proximates
"Energy",kcal,--,--,40,121
"Protein",g,--,--,0.00,0.00
"Total lipid (fat)",g,--,--,0.00,0.00
"Carbohydrate, by difference",g,--,--,10.00,30.30
"Fiber, total dietary",g,--,--,1.0,3.0
"Sugars, total",g,--,--,8.00,24.24
Minerals
"Calcium, Ca",mg,--,--,0,0
"Iron, Fe",mg,--,--,0.61,1.84
"Sodium, Na",mg,--,--,310,939
Vitamins
"Vitamin C, total ascorbic acid",mg,--,--,6.1,18.4
"Vitamin A, IU",IU,--,--,169,512
Lipids
"Fatty acids, total saturated",g,--,--,0.000,0.000
"Fatty acids, total trans",g,--,--,0.000,0.000
"Cholesterol",mg,--,--,0,0
Amino Acids
Other
Ingredients
"WATER,TOMATO PASTE, HIGH FRUCTOSE CORN SYRUP, SUGAR, WORCESTERSHIRE SAUCE (VINEGAR, MOLASSES, CORN SYRUP, WATER, SALT, CARAMEL COLOR, GARLIC POWDER, SUGAR SPICES, TAMARIND,NATURAL FLAVOR,SULFITING AGENT), VINEGAR, SALT MOLASSES, SPICE, MODIFIED CORN STARCH, CITRIC ACID, LEMON JUICE(FROM CONCENTRATE), DRIED GARLIC, SODIUM BENZOATE (TO PRESERVE FRESHNESS), DRIED ONION." Date available: 08/11/2017 Date last updated by company: 08/11/2017
