Source: USDA Branded Food Products Database Release December 2017 Software v.3.8.6.4 2017-10-02
Report Run at: December 16, 2017 23:50 EST
"Nutrient data for: 45193970, BARBECUE SAUCE, UPC: 020662005588"
Food Group:  Branded Food Products Database
Common Name:

Nutrient,Unit,Data points,Std. Error,"2.0 Tbsp = 36.0g",1Value per 100 g,
Proximates
"Energy",kcal,--,--,70,194
"Protein",g,--,--,0.00,0.00
"Total lipid (fat)",g,--,--,0.00,0.00
"Carbohydrate, by difference",g,--,--,17.00,47.22
"Fiber, total dietary",g,--,--,0.0,0.0
"Sugars, total",g,--,--,15.00,41.67
Minerals
"Calcium, Ca",mg,--,--,20,56
"Iron, Fe",mg,--,--,0.61,1.69
"Sodium, Na",mg,--,--,280,778
Vitamins
"Vitamin C, total ascorbic acid",mg,--,--,0.0,0.0
"Vitamin A, IU",IU,--,--,169,469
Lipids
"Fatty acids, total saturated",g,--,--,0.000,0.000
"Fatty acids, total trans",g,--,--,0.000,0.000
"Cholesterol",mg,--,--,0,0
Amino Acids
Other
Ingredients
"CANE SUGAR, WATER, DISTILLED VINEGAR, TOMATO PASTE, HONEY, BLACKSTRAP MOLASSES, CORNSTARCH, CONTAINS 2% OR LESS OF: SALT, PINEAPPLE JUICE CONCENTRATE, NATURAL FLAVOR, GARLIC*, ONION*, SPICES, GUAR GUM, GUM ARABIC." Date available: 07/14/2017 Date last updated by company: 07/14/2017
