Source: USDA Branded Food Products Database Release December 2017 Software v.3.8.6.4 2017-10-02
Report Run at: December 16, 2017 23:52 EST
"Nutrient data for: 45325104, BARBECUE SAUCE, UPC: 011161027690"
Food Group:  Branded Food Products Database
Common Name:

Nutrient,Unit,Data points,Std. Error,"2.0 Tbsp = 37.0g",1Value per 100 g,
Proximates
"Energy",kcal,--,--,70,189
"Protein",g,--,--,0.00,0.00
"Total lipid (fat)",g,--,--,0.00,0.00
"Carbohydrate, by difference",g,--,--,18.00,48.65
"Sugars, total",g,--,--,15.00,40.54
Minerals
"Sodium, Na",mg,--,--,290,784
Vitamins
Lipids
Amino Acids
Other
Ingredients
"HIGH FRUCTOSE CORN SYRUP, DISTILLED VINEGAR, TOMATO PASTE, BROWN SUGAR, WATER, MODIFIED FOOD STARCH, CONTAINS LESS THAN 2% SALT, HICKORY SMOKE FLAVOR, PINEAPPLE JUICE CONCENTRATE, SPICES, CARAMEL COLOR, SODIUM BENZOATE (AS A PRESERVATIVE), MOLASSES, CORN SYRUP, GARLIC*, SUGAR, TAMARIND, NATURAL FLAVOR." Date available: 08/11/2017 Date last updated by company: 08/11/2017
