Source: USDA Branded Food Products Database Release December 2017 Software v.3.8.6.4 2017-10-02
Report Run at: December 16, 2017 23:48 EST
"Nutrient data for: 45098710, BARBECUE BEAN & RICE CHIPS, UPC: 852565003091"
Food Group:  Branded Food Products Database
Common Name:

Nutrient,Unit,Data points,Std. Error,"11.0 CHIPS | ABOUT = 28.0g",1Value per 100 g,
Proximates
"Energy",kcal,--,--,140,500
"Protein",g,--,--,5.00,17.86
"Total lipid (fat)",g,--,--,6.00,21.43
"Carbohydrate, by difference",g,--,--,18.00,64.29
"Fiber, total dietary",g,--,--,6.0,21.4
"Sugars, total",g,--,--,0.00,0.00
Minerals
"Calcium, Ca",mg,--,--,40,143
"Iron, Fe",mg,--,--,1.93,6.88
"Potassium, K",mg,--,--,250,893
"Sodium, Na",mg,--,--,125,446
Vitamins
"Vitamin C, total ascorbic acid",mg,--,--,0.0,0.0
"Vitamin A, IU",IU,--,--,0,0
Lipids
"Fatty acids, total saturated",g,--,--,0.000,0.000
"Fatty acids, total trans",g,--,--,0.000,0.000
"Cholesterol",mg,--,--,0,0
Amino Acids
Other
Ingredients
"BLACK BEANS, NAVY BEANS, BROWN RICE, ORGANIC BROWN RICE, SAFFLOWER OR SUNFLOWER OIL, SEASONING BLEND (TOMATO*, SEA SALT, ONION*, GARLIC*, SPICES, YEAST EXTRACT, CITRIC ACID, TAPIOCA MALTODEXTRIN, TORULA YEAST, TAPIOCA STARCH, NATURAL SMOKE FLAVOR, EXTRACTIVES OF PAPRIKA, STEVIA LEAF EXTRACT, NATURAL FLAVORS (VEGAN), GUM ARABIC)." Date available: 07/14/2017 Date last updated by company: 07/14/2017
