Source: USDA Branded Food Products Database Release December 2017 Software v.3.8.6.4 2017-10-02
Report Run at: December 17, 2017 00:02 EST
"Nutrient data for: 45187942, BARISTA'S CHOICE, RING CAKE, COFFEE, UPC: 856244005086"
Food Group:  Branded Food Products Database
Common Name:

Nutrient,Unit,Data points,Std. Error,"2.0 ONZ = 56.0g",1Value per 100 g,
Proximates
"Energy",kcal,--,--,208,371
"Protein",g,--,--,5.00,8.93
"Total lipid (fat)",g,--,--,10.40,18.57
"Carbohydrate, by difference",g,--,--,21.60,38.57
"Fiber, total dietary",g,--,--,0.0,0.0
"Sugars, total",g,--,--,12.00,21.43
Minerals
"Calcium, Ca",mg,--,--,20,36
"Iron, Fe",mg,--,--,1.54,2.75
"Sodium, Na",mg,--,--,260,464
Vitamins
"Vitamin C, total ascorbic acid",mg,--,--,1.7,3.1
"Vitamin A, IU",IU,--,--,143,255
Lipids
"Fatty acids, total saturated",g,--,--,1.999,3.570
"Fatty acids, total trans",g,--,--,0.000,0.000
"Cholesterol",mg,--,--,32,57
Amino Acids
Other
Ingredients
"ENRICHED WHEAT FLOUR (FERROUS SULFITE, NIACINE, THIAMIN MONONITRATE, RIBOFLAVIN, FOLIC ACID), SUGAR, WHOLE EGGS, MODIFIED CORN STARCH, VEGETABLE OIL (SOYBEAN OR COTTONSEED), NONFAT MILK, BAKING POWDER (LEAVENING), EMULSIFIER (PROPYLENE GLYCOL MONOESTERS), SALT, SOY LECITHIN, MONO AND DIGLYCERIDES, CINNAMON, NATURAL AND ARTIFICIAL FLAVORS, POTASSIUM SORBATE AND CITRIC ACID (PRESERVATIVES)." Date available: 07/14/2017 Date last updated by company: 07/14/2017
