Source: USDA Branded Food Products Database Release December 2017 Software v.3.8.6.4 2017-10-02
Report Run at: December 17, 2017 00:01 EST
"Nutrient data for: 45040305, BARILLA, ITALIAN-STYLE ENTREES TOMATO SAUCE & MACARONI, BACON, UPC: 076808004540"
Food Group:  Branded Food Products Database
Common Name:

Nutrient,Unit,Data points,Std. Error,"1 TRAY = 255.0g",1Value per 100 g,
Proximates
"Energy",kcal,--,--,301,118
"Protein",g,--,--,13.01,5.10
"Total lipid (fat)",g,--,--,5.99,2.35
"Carbohydrate, by difference",g,--,--,52.99,20.78
"Fiber, total dietary",g,--,--,6.9,2.7
"Sugars, total",g,--,--,5.99,2.35
Minerals
"Calcium, Ca",mg,--,--,99,39
"Iron, Fe",mg,--,--,0.79,0.31
"Sodium, Na",mg,--,--,729,286
Vitamins
"Vitamin C, total ascorbic acid",mg,--,--,1.3,0.5
"Vitamin A, IU",IU,--,--,275,108
Lipids
"Fatty acids, total saturated",g,--,--,1.989,0.780
"Fatty acids, total trans",g,--,--,0.000,0.000
"Cholesterol",mg,--,--,5,2
Amino Acids
Other
Ingredients
"COOKED MACARONI PASTA (WATER, MACARONI PASTA [SEMOLINA (WHEAT), DURUM FLOUR], OLIVE OIL, SUNFLOWER OIL, SALT, NATURAL FLAVOR), BACON FLAVORED TOMATO SAUCE (DICED TOMATOES [TOMATOES, CITRIC ACID], TOMATO PUREE [WATER, TOMATO PASTE], ONIONS, ROMANO CHEESE [ROMANO CHEESE (PASTEURIZED COW'S MILK, CHEESE CULTURES, SALT, ENZYMES), POWDERED CELLULOSE], COOKED BACON [CURED WITH: WATER, SALT, SUGAR, SMOKE FLAVORING, SODIUM PHOSPHATE, SODIUM ERYTHORBATE, SODIUM NITRITE], SUGAR, GARLIC PUREE, TAPIOCA STARCH, OLIVE OIL, SUNFLOWER OIL, SALT, SEASONINGS [MEDIUM CHAIN TRIGLYCERIDES, FLAVOR, SUNFLOWER OIL, YEAST EXTRACT, SMOKE FLAVOR], PARSLEY, BLACK PEPPER, CRUSHED RED PEPPER)." Date available: 08/07/2017 Date last updated by company: 08/07/2017
