Source: USDA Branded Food Products Database Release December 2017 Software v.3.8.6.4 2017-10-02
Report Run at: December 17, 2017 00:01 EST
"Nutrient data for: 45017149, BARILLA, GNOCCHETTI, ENRICHED MACARONI PRODUCT, UPC: 076808005196"
Food Group:  Branded Food Products Database
Common Name:

Nutrient,Unit,Data points,Std. Error,"0.12 BOX = 56.0g",1Value per 100 g,
Proximates
"Energy",kcal,--,--,200,357
"Protein",g,--,--,7.00,12.50
"Total lipid (fat)",g,--,--,1.00,1.79
"Carbohydrate, by difference",g,--,--,42.00,75.00
"Fiber, total dietary",g,--,--,2.0,3.6
"Sugars, total",g,--,--,2.00,3.57
Minerals
"Calcium, Ca",mg,--,--,0,0
"Iron, Fe",mg,--,--,4.50,8.04
"Sodium, Na",mg,--,--,0,0
Vitamins
"Vitamin C, total ascorbic acid",mg,--,--,0.0,0.0
"Thiamin",mg,--,--,1.120,2.000
"Riboflavin",mg,--,--,0.255,0.455
"Niacin",mg,--,--,7.500,13.393
"Vitamin A, IU",IU,--,--,0,0
Lipids
"Fatty acids, total saturated",g,--,--,0.000,0.000
"Fatty acids, total trans",g,--,--,0.000,0.000
"Cholesterol",mg,--,--,0,0
Amino Acids
Other
Ingredients
"SEMOLINA (WHEAT), DURUM WHEAT FLOUR, NIACIN, IRON (FERROUS SULFATE), THIAMINE MONONITRATE, RIBOFLAVIN, FOLIC ACID." Date available: 06/25/2017 Date last updated by company: 06/25/2017
