Source: USDA Branded Food Products Database Release December 2017 Software v.3.8.6.4 2017-10-02
Report Run at: December 17, 2017 00:11 EST
"Nutrient data for: 45232373, BARRY'S BAKERY, FRENCH TWISTS, ORIGINAL, UPC: 752482114002"
Food Group:  Branded Food Products Database
Common Name:

Nutrient,Unit,Data points,Std. Error,"2.0 TWISTS = 15.0g",1Value per 100 g,
Proximates
"Energy",kcal,--,--,60,400
"Protein",g,--,--,0.00,0.00
"Total lipid (fat)",g,--,--,2.00,13.33
"Carbohydrate, by difference",g,--,--,9.00,60.00
"Fiber, total dietary",g,--,--,0.0,0.0
"Sugars, total",g,--,--,4.00,26.67
Minerals
"Iron, Fe",mg,--,--,1.32,8.80
"Sodium, Na",mg,--,--,25,167
Vitamins
"Vitamin A, IU",IU,--,--,366,2443
Lipids
"Fatty acids, total saturated",g,--,--,5.000,33.330
"Fatty acids, total trans",g,--,--,0.000,0.000
"Cholesterol",mg,--,--,0,0
Amino Acids
Other
Ingredients
"HIGH PROTEIN WHEAT FLOUR, SOY OIL, PALM OIL, BEET SUGAR, CINNAMON, SALT." Date available: 06/25/2017 Date last updated by company: 06/25/2017
