Source: USDA Branded Food Products Database Release December 2017 Software v.3.8.6.4 2017-10-02
Report Run at: December 17, 2017 00:22 EST
"Nutrient data for: 45290206, BASIL PESTO MUSTARD, UPC: 711381002957"
Food Group:  Branded Food Products Database
Common Name:

Nutrient,Unit,Data points,Std. Error,"1 Tbsp = 5.0g",1Value per 100 g,
Proximates
"Energy",kcal,--,--,10,200
"Protein",g,--,--,0.00,0.00
"Total lipid (fat)",g,--,--,0.00,0.00
"Carbohydrate, by difference",g,--,--,1.00,20.00
"Fiber, total dietary",g,--,--,0.0,0.0
"Sugars, total",g,--,--,1.00,20.00
Minerals
"Calcium, Ca",mg,--,--,0,0
"Iron, Fe",mg,--,--,0.00,0.00
"Sodium, Na",mg,--,--,85,1700
Vitamins
"Vitamin C, total ascorbic acid",mg,--,--,0.0,0.0
"Vitamin A, IU",IU,--,--,0,0
Lipids
"Fatty acids, total saturated",g,--,--,0.000,0.000
"Fatty acids, total trans",g,--,--,0.000,0.000
"Cholesterol",mg,--,--,0,0
Amino Acids
Other
Ingredients
"DIJON MUSTARD (VINEGAR, WATER, MUSTARD SEED, SALT, WHITE WINE, CITRIC ACID, TARTARIC ACID, TURMERIC, CARAMEL COLOR, SPICES), PURE CANE SUGAR, ROASTED GARLIC OIL (PURE OLIVE OIL, FRESH GARLIC), PARMESAN CHEESE (CULTURED PART-SKIM MILK, SALT, ENZYMES), DRIED GARLIC, BASIL, BASIL OIL" Date available: 07/14/2017 Date last updated by company: 07/14/2017
