Source: USDA Branded Food Products Database Release December 2017 Software v.3.8.6.4 2017-10-02
Report Run at: December 17, 2017 00:23 EST
"Nutrient data for: 45270196, BASIL PESTO WITH 100% ITALIAN GENOVESE BASIL, UPC: 877448001902"
Food Group:  Branded Food Products Database
Common Name:

Nutrient,Unit,Data points,Std. Error,"0.25 cup = 60.0g",1Value per 100 g,
Proximates
"Energy",kcal,--,--,300,500
"Protein",g,--,--,5.00,8.33
"Total lipid (fat)",g,--,--,27.00,45.00
"Carbohydrate, by difference",g,--,--,7.00,11.67
"Fiber, total dietary",g,--,--,1.0,1.7
"Sugars, total",g,--,--,1.00,1.67
Minerals
"Calcium, Ca",mg,--,--,250,417
"Iron, Fe",mg,--,--,1.52,2.54
"Sodium, Na",mg,--,--,460,767
Vitamins
"Vitamin C, total ascorbic acid",mg,--,--,101.5,169.1
"Vitamin A, IU",IU,--,--,1585,2642
Lipids
"Fatty acids, total saturated",g,--,--,4.500,7.500
"Fatty acids, total trans",g,--,--,0.000,0.000
"Cholesterol",mg,--,--,5,8
Amino Acids
Other
Ingredients
"BASIL BLEND (GENOVESE BASIL, SUNFLOWER OIL, SALT), SUNFLOWER OIL, EXTRA VIRGIN OLIVE OIL, PARMESAN CHEESE (PASTEURIZED CULTURED MILK, SALT, ENZYMES), ALMONDS, PECORINO ROMANO CHEESE (PASTEURIZED CULTURED SHEEP MILK, RENNET, SALT), PINE NUTS, LACTOSE, GARLIC, 2% OR LESS OF VEGETABLE FIBER, ASCORBIC ACID, BLACK PEPPER, DEHYDRATED POTATOES, LACTIC ACID, NATURAL FLAVOR, NONFAT DRY MILK." Date available: 07/14/2017 Date last updated by company: 07/14/2017
