Source: USDA Branded Food Products Database Release December 2017 Software v.3.8.6.4 2017-10-02
Report Run at: December 17, 2017 00:26 EST
"Nutrient data for: 45010482, BASSHAS' FRESH, IMITATION CRAB MEAT, UPC: 206072102547"
Food Group:  Branded Food Products Database
Common Name:

Nutrient,Unit,Data points,Std. Error,"3.0 ONZ = 85.0g",1Value per 100 g,
Proximates
"Energy",kcal,--,--,110,129
"Protein",g,--,--,7.00,8.24
"Total lipid (fat)",g,--,--,1.50,1.76
"Carbohydrate, by difference",g,--,--,18.00,21.18
"Sugars, total",g,--,--,6.00,7.06
Minerals
"Sodium, Na",mg,--,--,790,929
Vitamins
Lipids
Amino Acids
Other
Ingredients
"FISH PROTEIN (ALASKA POLLOCK AND/OR PACIFIC WHITING), WATER, POTATO STARCH, SUGAR, WHEAT STARCH, SOY PROTEIN CURD (WATER, SOY PROTEIN ISOLATE), MIRIN WINE, SOYBEAN OIL, WHEAT FLOUR, SALT, SORBITOL, SOY LECHITHIN, EGG WHITES, NATURAL FLAVORS (HYDROLYZED SOY PROTEIN, CRAB EXTRACT), ARTIFICIAL FLAVORS, SODIUM TRIPOLYPHOSPHATE, TETRASODIUM PYROPHOSPHATE, COLOR ADDED, CARMINE COLOR" Date available: 10/13/2017 Date last updated by company: 10/13/2017
