Source: USDA Branded Food Products Database Release December 2017 Software v.3.8.6.4 2017-10-02
Report Run at: December 17, 2017 00:28 EST
"Nutrient data for: 45290220, BATTERED FISH TENDERS, UPC: 041130812224"
Food Group:  Branded Food Products Database
Common Name:

Nutrient,Unit,Data points,Std. Error,"3.0 PIECES = 97.0g",1Value per 100 g,
Proximates
"Energy",kcal,--,--,220,227
"Protein",g,--,--,9.00,9.28
"Total lipid (fat)",g,--,--,10.00,10.31
"Carbohydrate, by difference",g,--,--,23.00,23.71
"Fiber, total dietary",g,--,--,1.0,1.0
"Sugars, total",g,--,--,1.00,1.03
Minerals
"Calcium, Ca",mg,--,--,20,21
"Iron, Fe",mg,--,--,0.63,0.65
"Sodium, Na",mg,--,--,580,598
Vitamins
"Vitamin C, total ascorbic acid",mg,--,--,0.0,0.0
"Vitamin A, IU",IU,--,--,0,0
Lipids
"Fatty acids, total saturated",g,--,--,1.998,2.060
"Fatty acids, total monounsaturated",g,--,--,1.503,1.550
"Fatty acids, total polyunsaturated",g,--,--,4.501,4.640
"Fatty acids, total trans",g,--,--,0.000,0.000
"Cholesterol",mg,--,--,25,26
Amino Acids
Other
Ingredients
"ALASKA POLLOCK, BLEACHED AND UNBLEACHED WHEAT FLOUR, WATER, SOYBEAN OIL, MODIFIED FOOD STARCH, ENRICHED FLOUR (WHEAT, NIACIN, REDUCED IRON, THIAMINE MONONITRATE, RIBOFLAVIN, FOLIC ACID), CONTAINS 2% OR LESS OF: RICE FLOUR, SALT, LEAVENING (BAKING SODA, SODIUM ACID PYROPHOSPHATE, SODIUM ALUMINUM PHOSPHATE, MONOCALCIUM PHOSPHATE), SUGAR, CORN STARCH, SEA SALT, PALM OIL, DRIED GARLIC, DRIED ONION, POTASSIUM CHLORIDE, SUNFLOWER OIL, WHEAT STARCH, PEA PROTEIN ISOLATE, TAPIOCA DEXTRIN, WHEY, CANOLA OIL, DEXTROSE, MODIFIED PALM OILS, SODIUM CASEINATE (FROM MILK WITH SOY LECITHIN), MODIFIED CELLULOSE, PAPRIKA (COLOR), DRIED YEAST, MALTED BARLEY FLOUR, SOY LECITHIN, GARLIC POWDER, YELLOW CORN FLOUR, GUAR GUM." Date available: 07/14/2017 Date last updated by company: 07/14/2017
