Source: USDA Branded Food Products Database Release December 2017 Software v.3.8.6.4 2017-10-02
Report Run at: December 17, 2017 00:30 EST
"Nutrient data for: 45015037, BAVARIAN, ORGANIC WHOLE RYE BREAD, UPC: 713278001012"
Food Group:  Branded Food Products Database
Common Name:

Nutrient,Unit,Data points,Std. Error,"1 SLICE = 50.0g",1Value per 100 g,
Proximates
"Energy",kcal,--,--,80,160
"Protein",g,--,--,2.00,4.00
"Total lipid (fat)",g,--,--,0.50,1.00
"Carbohydrate, by difference",g,--,--,19.00,38.00
"Fiber, total dietary",g,--,--,5.0,10.0
"Sugars, total",g,--,--,1.00,2.00
Minerals
"Calcium, Ca",mg,--,--,20,40
"Iron, Fe",mg,--,--,0.72,1.44
"Sodium, Na",mg,--,--,190,380
Vitamins
"Vitamin C, total ascorbic acid",mg,--,--,0.0,0.0
"Vitamin A, IU",IU,--,--,0,0
Lipids
"Fatty acids, total saturated",g,--,--,0.000,0.000
"Fatty acids, total trans",g,--,--,0.000,0.000
"Cholesterol",mg,--,--,0,0
Amino Acids
Other
Ingredients
"ORGANIC WHOLE RYE, KIBBLED 53%, PARTLY AS NATURAL SOURDOUGH WITH ORGANIC YEAST, WATER, SALT. (ORGANIC INGREDIENTS CERTIFIED IN EUROPEAN ORGANIC STANDARD BY BCS OKO-GARANTIE GMBH, CIMBERNSTR. 21, 90402 NURNBERG/GERMANY)  MAY CONTAIN TRACES OF WHEAT. WITHOUT ADDED PRESERVATIVES." Date available: 06/25/2017 Date last updated by company: 06/25/2017
