Source: USDA Branded Food Products Database Release December 2017 Software v.3.8.6.4 2017-10-02
Report Run at: December 17, 2017 00:29 EST
"Nutrient data for: 45181972, BAVARIAN BRAND HEADCHEESE, UPC: 030354523368"
Food Group:  Branded Food Products Database
Common Name:

Nutrient,Unit,Data points,Std. Error,"2.0 ONZ = 56.0g",1Value per 100 g,
Proximates
"Energy",kcal,--,--,60,107
"Protein",g,--,--,8.00,14.29
"Total lipid (fat)",g,--,--,5.00,8.93
"Carbohydrate, by difference",g,--,--,0.00,0.00
"Fiber, total dietary",g,--,--,0.0,0.0
"Sugars, total",g,--,--,0.00,0.00
Minerals
"Calcium, Ca",mg,--,--,0,0
"Iron, Fe",mg,--,--,0.35,0.63
"Sodium, Na",mg,--,--,450,804
Vitamins
"Vitamin C, total ascorbic acid",mg,--,--,0.0,0.0
"Vitamin A, IU",IU,--,--,0,0
Lipids
"Fatty acids, total saturated",g,--,--,1.999,3.570
"Fatty acids, total trans",g,--,--,0.000,0.000
"Cholesterol",mg,--,--,40,71
Amino Acids
Other
Ingredients
"PORK, PORK SNOUTS, BEEF, PORK TONGUES (CURED WITH WATER, SALT, SODIUM PHOSPHATE, DEXTROSE, SODIUM ERYTHORBATE, SODIUM NITRITE), WATER, VINEGAR, GELATIN, 2% OR LESS OF SODIUM LACTATE, SALT, SPICES, DEHYDRATED ONION, NATURAL FLAVORINGS." Date available: 07/14/2017 Date last updated by company: 07/14/2017
