Source: USDA Branded Food Products Database Release December 2017 Software v.3.8.6.4 2017-10-02
Report Run at: December 17, 2017 00:39 EST
"Nutrient data for: 45257626, BBQ SAUCE, UPC: 083799005173"
Food Group:  Branded Food Products Database
Common Name:

Nutrient,Unit,Data points,Std. Error,"2.0 Tbsp = 30.0g",1Value per 100 g,
Proximates
"Energy",kcal,--,--,35,117
"Protein",g,--,--,0.00,0.00
"Total lipid (fat)",g,--,--,0.00,0.00
"Carbohydrate, by difference",g,--,--,8.00,26.67
"Fiber, total dietary",g,--,--,0.0,0.0
"Sugars, total",g,--,--,7.00,23.33
Minerals
"Calcium, Ca",mg,--,--,3000,10000
"Iron, Fe",mg,--,--,0.36,1.20
"Potassium, K",mg,--,--,22,73
"Sodium, Na",mg,--,--,354,1180
Vitamins
"Vitamin C, total ascorbic acid",mg,--,--,1.2,4.0
"Vitamin A, IU",IU,--,--,86,287
Lipids
"Fatty acids, total saturated",g,--,--,0.000,0.000
"Fatty acids, total trans",g,--,--,0.000,0.000
"Cholesterol",mg,--,--,0,0
Amino Acids
Other
Ingredients
"WATER, HIGH FRUCTOSE CORN SYRUP, TOMATO PASTE, DISTILLED VINEGAR, SALT, MODIFIED FOOD STARCH, MOLASSES, WORCESTERSHIRE POWDER (CARAMEL COLOR/POWDER, CITRIC ACID, DEXTROSE, NATURAL FLAVOR), NATURAL SMOKE FLAVORING, XANTHAN GUM (A NATURAL FOOD FIBER), PAPRIKA, MUSTARD POWDER, ONION, GARLIC, SPICES, 0.1% SODIUM BENZOATE & POTASSIUM SORBATE (AS PRESERVATIVES), SPICE EXTRACTIVES." Date available: 07/14/2017 Date last updated by company: 07/14/2017
