Source: USDA Branded Food Products Database Release December 2017 Software v.3.8.6.4 2017-10-02
Report Run at: December 17, 2017 00:34 EST
"Nutrient data for: 45182377, BBQ BEAN SPICE MIX, UPC: 040232006197"
Food Group:  Branded Food Products Database
Common Name:

Nutrient,Unit,Data points,Std. Error,"0.333 PACKET = 23.0g",1Value per 100 g,
Proximates
"Energy",kcal,--,--,80,348
"Protein",g,--,--,0.00,0.00
"Total lipid (fat)",g,--,--,0.00,0.00
"Carbohydrate, by difference",g,--,--,22.00,95.65
"Sugars, total",g,--,--,22.00,95.65
Minerals
"Sodium, Na",mg,--,--,350,1522
Vitamins
"Vitamin A, IU",IU,--,--,400,1739
Lipids
Amino Acids
Other
Ingredients
"BROWN SUGAR, SPICES (INCLUDING PAPRIKA AND TURMERIC), SALT, ONION POWDER, GARLIC POWDER." Date available: 10/19/2016 Date last updated by company: 10/19/2016
