Source: USDA Branded Food Products Database Release December 2017 Software v.3.8.6.4 2017-10-02
Report Run at: December 17, 2017 00:43 EST
"Nutrient data for: 45325732, BBQ SAUCE, UPC: 857004001461"
Food Group:  Branded Food Products Database
Common Name:

Nutrient,Unit,Data points,Std. Error,"2.0 Tbsp = 35.0g",1Value per 100 g,
Proximates
"Energy",kcal,--,--,30,86
"Protein",g,--,--,0.00,0.00
"Total lipid (fat)",g,--,--,0.00,0.00
"Carbohydrate, by difference",g,--,--,8.00,22.86
"Fiber, total dietary",g,--,--,0.0,0.0
"Sugars, total",g,--,--,6.00,17.14
Minerals
"Calcium, Ca",mg,--,--,0,0
"Iron, Fe",mg,--,--,0.61,1.74
"Sodium, Na",mg,--,--,170,486
Vitamins
"Vitamin C, total ascorbic acid",mg,--,--,4.1,11.6
"Vitamin A, IU",IU,--,--,338,966
Lipids
"Fatty acids, total saturated",g,--,--,0.000,0.000
"Fatty acids, total trans",g,--,--,0.000,0.000
"Cholesterol",mg,--,--,0,0
Amino Acids
Other
Ingredients
"WATER, BROWN SUGAR, TOMATO PASTE, CIDER VINEGAR, JALAPENO PUREE (JALAPENO PEPPERS, WATER, DISTILLED VINEGAR, SALT), CORN STARCH, SALT, TAMARIND, MOLASSES, SPICES, DISTILLED VINEGAR, DEHYDRATED GARLIC AND ONION, MUSTARD SEED, LIME JUICE CONCENTRATE, CITRIC ACID." Date available: 08/11/2017 Date last updated by company: 08/11/2017
