Source: USDA Branded Food Products Database Release December 2017 Software v.3.8.6.4 2017-10-02
Report Run at: December 17, 2017 00:38 EST
"Nutrient data for: 45034032, BBQ SAUCE, UPC: 035826090751"
Food Group:  Branded Food Products Database
Common Name:

Nutrient,Unit,Data points,Std. Error,"2.0 Tbsp = 34.0g",1Value per 100 g,
Proximates
"Energy",kcal,--,--,45,132
"Protein",g,--,--,0.00,0.00
"Total lipid (fat)",g,--,--,0.00,0.00
"Carbohydrate, by difference",g,--,--,11.00,32.35
"Fiber, total dietary",g,--,--,0.0,0.0
"Sugars, total",g,--,--,9.00,26.47
Minerals
"Sodium, Na",mg,--,--,180,529
Vitamins
Lipids
"Fatty acids, total trans",g,--,--,0.000,0.000
Amino Acids
Other
Ingredients
"TOMATO PUREE (WATER, TOMATO PASTE), HIGH FRUCTOSE CORN SYRUP, VINEGAR, MOLASSES, FOOD STARCH- MODIFIED, CONTAINS 2% OR LESS OF: SALT, SPICES, ONION POWDER, CARAMEL COLOR, GARLIC POWDER, NATURAL FLAVOR, MUSTARD FLOUR, SODIUM BENZOATE (PRESERVATIVE)." Date available: 08/11/2017 Date last updated by company: 08/11/2017
