Source: USDA Branded Food Products Database Release December 2017 Software v.3.8.6.4 2017-10-02
Report Run at: December 17, 2017 00:40 EST
"Nutrient data for: 45201261, BBQ SAUCE, UPC: 758929000907"
Food Group:  Branded Food Products Database
Common Name:

Nutrient,Unit,Data points,Std. Error,"1 ONZ = 27.0g",1Value per 100 g,
Proximates
"Energy",kcal,--,--,40,148
"Protein",g,--,--,0.00,0.00
"Total lipid (fat)",g,--,--,0.00,0.00
"Carbohydrate, by difference",g,--,--,10.00,37.04
"Fiber, total dietary",g,--,--,0.0,0.0
"Sugars, total",g,--,--,9.00,33.33
Minerals
"Calcium, Ca",mg,--,--,0,0
"Iron, Fe",mg,--,--,0.36,1.33
"Sodium, Na",mg,--,--,190,704
Vitamins
"Vitamin C, total ascorbic acid",mg,--,--,2.4,8.9
"Vitamin A, IU",IU,--,--,100,370
Lipids
"Fatty acids, total saturated",g,--,--,0.000,0.000
"Fatty acids, total trans",g,--,--,0.000,0.000
"Cholesterol",mg,--,--,0,0
Amino Acids
Other
Ingredients
"NATURAL KETCHUP, LIGHT BROWN SUGAR, HONEY, APPLE CIDER VINEGAR, WORCHESTERSHIRE SAUCE, LIQUID SMOKE FLAVORING, SEASONING SALT, BLACK PEPPER AND RED PEPPER FLAKES." Date available: 07/14/2017 Date last updated by company: 07/14/2017
