Source: USDA Branded Food Products Database Release December 2017 Software v.3.8.6.4 2017-10-02
Report Run at: December 17, 2017 00:47 EST
"Nutrient data for: 45121577, BEAN PASTA + VEGGIE KIT, UPC: 888683106116"
Food Group:  Branded Food Products Database
Common Name:

Nutrient,Unit,Data points,Std. Error,"1 CUP PREPARED | DRY, ABOUT = 88.0g",1Value per 100 g,
Proximates
"Energy",kcal,--,--,300,341
"Protein",g,--,--,19.00,21.59
"Total lipid (fat)",g,--,--,1.00,1.14
"Carbohydrate, by difference",g,--,--,56.00,63.64
"Fiber, total dietary",g,--,--,8.0,9.1
"Sugars, total",g,--,--,3.00,3.41
Minerals
"Calcium, Ca",mg,--,--,40,45
"Iron, Fe",mg,--,--,12.79,14.53
"Potassium, K",mg,--,--,730,830
"Sodium, Na",mg,--,--,680,773
Vitamins
"Vitamin C, total ascorbic acid",mg,--,--,102.3,116.2
"Vitamin A, IU",IU,--,--,3551,4035
Lipids
"Fatty acids, total saturated",g,--,--,0.000,0.000
"Fatty acids, total trans",g,--,--,0.000,0.000
"Cholesterol",mg,--,--,0,0
Amino Acids
Other
Ingredients
"GREEN LENTIL FLOUR, DRY SAUCE MIX [CORN MALTODEXTRIN, CORN STARCH, SEA SALT, BUTTERMILK, SPINACH, GARLIC, SPICES, YEAST EXTRACT, SUGAR, SHALLOT CHIVES, NATURAL FLAVORS (BASIL AND BUTTER TYPE), CITRIC ACID], RED BELL PEPPERS, LEEKS, SEASONING (SEA SALT, GARLIC, SPICES, LEMON PEEL, RED BELL PEPPERS, CITRIC ACID, ONION NATURAL LEMON FLAVOR, PARMESAN CHEESE POWDER [PARMESAN CHEESE (CULTURED PART-SKIM MILK, SALT, ENZYMES), SALT, DISODIUM PHOSPHATE], AUTOLYZED YEAST EXTRACT), CARROTS." Date available: 07/14/2017 Date last updated by company: 07/14/2017
