Source: USDA Branded Food Products Database Release December 2017 Software v.3.8.6.4 2017-10-02
Report Run at: December 17, 2017 00:50 EST
"Nutrient data for: 45053393, BEAN WITH BACON CONDENSED SOUP, UPC: 639277356277"
Food Group:  Branded Food Products Database
Common Name:

Nutrient,Unit,Data points,Std. Error,"0.5 cup = 125.0g",1Value per 100 g,
Proximates
"Energy",kcal,--,--,140,112
"Protein",g,--,--,7.00,5.60
"Total lipid (fat)",g,--,--,2.50,2.00
"Carbohydrate, by difference",g,--,--,22.00,17.60
"Fiber, total dietary",g,--,--,6.0,4.8
"Sugars, total",g,--,--,2.00,1.60
Minerals
"Calcium, Ca",mg,--,--,40,32
"Iron, Fe",mg,--,--,3.52,2.82
"Potassium, K",mg,--,--,280,224
"Sodium, Na",mg,--,--,810,648
Vitamins
"Vitamin C, total ascorbic acid",mg,--,--,0.0,0.0
"Vitamin A, IU",IU,--,--,980,784
Lipids
"Fatty acids, total saturated",g,--,--,1.000,0.800
"Fatty acids, total monounsaturated",g,--,--,1.000,0.800
"Fatty acids, total polyunsaturated",g,--,--,0.500,0.400
"Fatty acids, total trans",g,--,--,0.000,0.000
"Cholesterol",mg,--,--,5,4
Amino Acids
Other
Ingredients
"PREPARED WHITE BEANS, WATER, BACON(CURED WITH WATER, SALT, SUGAR, SODIUM PHOSPHATE, SODIUM ERYTHORBATE, SODIUM NITRITE), TOMATO CONCENTRATE (WATER, TOMATO PASTE), CARROTS, CONTAINS LESS THAN 2% OF: MODIFIED CORN STARCH, WHEAT FLOUR, SUGAR, SALT, ONION POWDER, DRIED TORULA YEAST, MONOSODIUM GLUTAMAMTE,NATURAL SMOKE FLAVOR, CITRIC ACID,BETA CAROTENE(FOR COLOR)." Date available: 06/25/2017 Date last updated by company: 06/25/2017
