Source: USDA Branded Food Products Database Release December 2017 Software v.3.8.6.4 2017-10-02
Report Run at: December 17, 2017 00:50 EST
"Nutrient data for: 45218262, BEAN, THREE-CHEESE & JALAPENO BURRITOS, UPC: 071007061592"
Food Group:  Branded Food Products Database
Common Name:

Nutrient,Unit,Data points,Std. Error,"1 BURRITO = 142.0g",1Value per 100 g,
Proximates
"Energy",kcal,--,--,320,225
"Protein",g,--,--,12.99,9.15
"Total lipid (fat)",g,--,--,12.00,8.45
"Carbohydrate, by difference",g,--,--,40.00,28.17
"Fiber, total dietary",g,--,--,3.0,2.1
"Sugars, total",g,--,--,0.99,0.70
Minerals
"Calcium, Ca",mg,--,--,151,106
"Iron, Fe",mg,--,--,2.66,1.87
"Sodium, Na",mg,--,--,410,289
Vitamins
"Vitamin C, total ascorbic acid",mg,--,--,1.1,0.8
"Vitamin A, IU",IU,--,--,295,208
Lipids
"Fatty acids, total saturated",g,--,--,4.998,3.520
"Fatty acids, total trans",g,--,--,0.000,0.000
"Cholesterol",mg,--,--,20,14
Amino Acids
Other
Ingredients
"WHEAT FLOUR (ENRICHED WITH NIACIN, REDUCED IRON, THIAMIN MONONITRATE, RIBOFLAVIN, FOLIC ACID), COOKED WHOLE BEANS (WITH SALT, FLAVOR), WATER, CHEDDAR CHEESE (CULTURED PASTEURIZED MILK, CHEESE CULTURES, SALT, ENZYMES, ANNATTO COLOR), MONTEREY JACK CHEESE (CULTURED PASTEURIZED MILK, CHEESE CULTURES, SALT, ENZYMES), LOW MOISTURE MOZZARELLA CHEESE (CULTURED PASTEURIZED MILK, CHEESE CULTURES, SALT, ENZYMES), VEGETABLE OIL (SOYBEAN, CANOLA, PALM AND/OR CORN), CONTAINS 2% OR LESS JALAPENO PEPPERS (WITH SALT, ACETIC ACID, CALCIUM CHLORIDE), GREEN CHILIES (WITH CITRIC ACID), MODIFIED CORN STARCH, DOUGH CONDITIONERS (YEAST, WHEAT GLUTEN, SUGAR, GUAR GUM, FOOD STARCH, SODIUM METABISULFITE), PAPRIKA, SALT, CAYENNE PEPPER." Date available: 10/13/2017 Date last updated by company: 10/13/2017
