Source: USDA Branded Food Products Database Release December 2017 Software v.3.8.6.4 2017-10-02
Report Run at: December 17, 2017 00:51 EST
"Nutrient data for: 45024133, BEARITOS, ORGANIC LOW FAT REFRIED BLACK BEANS, UPC: 024335160468"
Food Group:  Branded Food Products Database
Common Name:

Nutrient,Unit,Data points,Std. Error,"0.5 cup = 130.0g",1Value per 100 g,
Proximates
"Energy",kcal,--,--,150,115
"Protein",g,--,--,8.00,6.15
"Total lipid (fat)",g,--,--,3.00,2.31
"Carbohydrate, by difference",g,--,--,22.00,16.92
"Fiber, total dietary",g,--,--,4.9,3.8
"Sugars, total",g,--,--,1.00,0.77
Minerals
"Calcium, Ca",mg,--,--,40,31
"Iron, Fe",mg,--,--,1.79,1.38
"Sodium, Na",mg,--,--,360,277
Vitamins
"Vitamin C, total ascorbic acid",mg,--,--,0.0,0.0
"Vitamin A, IU",IU,--,--,0,0
Lipids
"Fatty acids, total saturated",g,--,--,0.000,0.000
"Fatty acids, total trans",g,--,--,0.000,0.000
"Cholesterol",mg,--,--,0,0
Amino Acids
Other
Ingredients
"WATER, ORGANIC BLACK BEANS, ORGANIC EXPELLER PRESSED CANOLA OIL, SEA SALT." Date available: 06/25/2017 Date last updated by company: 06/25/2017
