Source: USDA Branded Food Products Database Release December 2017 Software v.3.8.6.4 2017-10-02
Report Run at: December 17, 2017 00:50 EST
"Nutrient data for: 45275250, BEARCLAW CHERRY & CHEESE DANISH, UPC: 085264770500"
Food Group:  Branded Food Products Database
Common Name:

Nutrient,Unit,Data points,Std. Error,"1 DANISH = 120.0g",1Value per 100 g,
Proximates
"Energy",kcal,--,--,560,467
"Protein",g,--,--,8.00,6.67
"Total lipid (fat)",g,--,--,26.00,21.67
"Carbohydrate, by difference",g,--,--,75.00,62.50
"Fiber, total dietary",g,--,--,2.0,1.7
"Sugars, total",g,--,--,37.00,30.83
Minerals
"Calcium, Ca",mg,--,--,350,292
"Iron, Fe",mg,--,--,1.24,1.03
"Sodium, Na",mg,--,--,570,475
Vitamins
"Vitamin C, total ascorbic acid",mg,--,--,0.0,0.0
"Vitamin A, IU",IU,--,--,458,382
Lipids
"Fatty acids, total saturated",g,--,--,12.996,10.830
"Fatty acids, total trans",g,--,--,0.504,0.420
"Cholesterol",mg,--,--,14,12
Amino Acids
Other
Ingredients
"ENRICHED FLOUR BLEACHED (WHEAT FLOUR, NIACIN, REDUCED IRON, THIAMINE MONONITRATE, RIBOFLAVIN, FOLIC ACID), SUGAR, WATER, MARGARINE (PALM OIL, WATER, SALT, MONOGLYCERIDES, NATURAL FLAVOR, CITRIC ACID, BETA CAROTENE COLOR, VITAMIN A PALMITATE), CHERRIES, CONTAINS LESS THAN 2% OF EACH OF THE FOLLOWING: SOYBEAN OIL, EGGS, YEAST, DEXTROSE, PALM OIL, EGG WHITES PASTEURIZED CULTURED CREAM, WHEY, MONOGLYCERIDES, SALT, FOOD STARCH-MODIFIED, CALCIUM CARBONATE, CORN STARCH, MILK SOLIDS, BLEND (NONFAT MILK, WHEY, MILK, PROTEIN CONCENTRATE), HIGH FRUCTOSE CORN SYRUP, PRESERVATIVES (CALCIUM PROPIONATE, POTASSIUM SORBATE, SODIUM BENZOATE, SORBIC ACID, TOCOPHEROLS), SKIM MILK, ENZYME ACTIVE SOY FLOUR, CORN SYRUP, SODIUM STEAROYL LACTYLATE, GUAR GUM, CITRIC ACID, WHEAT GLUTEN, NATURAL & ARTIFICIAL FLAVORS, WHEAT FLOUR, MILK PROTEIN, SODIUM CASEINATE, CELLULOSE GUM, LACTOSE, AGAR, CALCIUM SULFATE, FUMARIC ACID, LEAVENING (BAKING SODA, SODIUM ACID PYROPHOSPHATE), SODIUM HEXAMETAPHOSPHATE, RED 40, XANTHAN GUM, TITANIUM DIOXIDE, COLOR, LOCUST BEAN GUM, ENZYMES, AMMONIUM SULFATE, PECTIN, CARRAGEENAN, TRIGLYCERIDES, ASCORBIC ADDED AS A DOUGH CONDITIONER, BETA CAROTENE COLOR, AZODICARBONAMIDE, LACTIC ACID." Date available: 07/14/2017 Date last updated by company: 07/14/2017
