Source: USDA Branded Food Products Database Release December 2017 Software v.3.8.6.4 2017-10-02
Report Run at: December 17, 2017 00:55 EST
"Nutrient data for: 45296265, BEDFORD'S, NON ALCOHOLIC GINGER BEER, UPC: 049463604646"
Food Group:  Branded Food Products Database
Common Name:

Nutrient,Unit,Data points,Std. Error,"1 BOTTLE = 355.0g",1Value per 100 g,
Proximates
"Energy",kcal,--,--,160,45
"Protein",g,--,--,0.00,0.00
"Total lipid (fat)",g,--,--,0.00,0.00
"Carbohydrate, by difference",g,--,--,41.00,11.55
"Sugars, total",g,--,--,41.00,11.55
Minerals
"Sodium, Na",mg,--,--,36,10
Vitamins
Lipids
Amino Acids
Other
Ingredients
"CARBONATED WATER, PURE CANE SUGAR, CITRIC ACID, NATURAL GINGER FLAVOR, BREWED GINGER ROOT, SODIUM BENZOATE (A PRESERVATIVE)." Date available: 07/14/2017 Date last updated by company: 07/14/2017
