Source: USDA Branded Food Products Database Release December 2017 Software v.3.8.6.4 2017-10-02
Report Run at: December 17, 2017 00:57 EST
"Nutrient data for: 45016643, BEECH-NUT, JUST BUTTERNUT SQUASH, UPC: 052200071052"
Food Group:  Branded Food Products Database
Common Name:

Nutrient,Unit,Data points,Std. Error,"0.25 cup = 60.0g",1Value per 100 g,
Proximates
"Energy",kcal,--,--,25,42
"Protein",g,--,--,0.00,0.00
"Total lipid (fat)",g,--,--,0.00,0.00
"Carbohydrate, by difference",g,--,--,6.00,10.00
"Fiber, total dietary",g,--,--,2.0,3.3
"Sugars, total",g,--,--,1.00,1.67
Minerals
"Calcium, Ca",mg,--,--,12,20
"Iron, Fe",mg,--,--,0.30,0.50
"Potassium, K",mg,--,--,80,133
"Sodium, Na",mg,--,--,0,0
Vitamins
"Vitamin C, total ascorbic acid",mg,--,--,0.0,0.0
"Vitamin A, IU",IU,--,--,1050,1750
Lipids
"Fatty acids, total trans",g,--,--,0.000,0.000
Amino Acids
Other
Ingredients
"BUTTERNUT SQUASH." Date last updated by company: 04/22/2015
