Source: USDA Branded Food Products Database Release December 2017 Software v.3.8.6.4 2017-10-02
Report Run at: December 17, 2017 01:02 EST
"Nutrient data for: 45267287, BEEF, CHEESE & BACON BURRITO, UPC: 079606020293"
Food Group:  Branded Food Products Database
Common Name:

Nutrient,Unit,Data points,Std. Error,"1 BURRITO = 227.0g",1Value per 100 g,
Proximates
"Energy",kcal,--,--,490,216
"Protein",g,--,--,22.00,9.69
"Total lipid (fat)",g,--,--,20.00,8.81
"Carbohydrate, by difference",g,--,--,55.00,24.23
"Fiber, total dietary",g,--,--,2.0,0.9
"Sugars, total",g,--,--,3.00,1.32
Minerals
"Calcium, Ca",mg,--,--,79,35
"Iron, Fe",mg,--,--,2.22,0.98
"Sodium, Na",mg,--,--,951,419
Vitamins
"Vitamin C, total ascorbic acid",mg,--,--,2.3,1.0
"Vitamin A, IU",IU,--,--,123,54
Lipids
"Fatty acids, total saturated",g,--,--,10.011,4.410
"Fatty acids, total trans",g,--,--,0.000,0.000
"Cholesterol",mg,--,--,54,24
Amino Acids
Other
Ingredients
"FILLING: COOKED GROUND BEEF (BEEF, SALT), WATER, BACON (CURED WITH WATER, SALT, SUGAR, SMOKE FLAVORING, SODIUM PHOSPHATES, SODIUM ERYTHORBATE, SODIUM NITRITE, FLAVORING), DICED TOMATOES (TOMATO, CALCIUM CHLORIDE, CITRIC ACID), GREEN CHILE (GREEN CHILE PEPPERS, WATER, CITRIC ACID), MODIFIED FOOD STARCH, TOMATO PASTE, ONION DEHYDRATED, SALT, GARLIC POWDER, SPICES. SEASONED COOKED RICE (WATER, PARBOILED RICE [LONG GRAIN PARBOILED RICE, IRON PHOSPHATE, NIACIN, THIAMINE MONONITRATE, FOLIC ACID], ONION DEHYDRATED, CHICKEN TYPE FLAVOR [HYDROLYZED SOY AND CORN PROTEIN, SUNFLOWER OIL], SALT, CILANTRO, GARLIC POWDER, SPICE). CHEESE SAUCE (WATER, CHEDDAR CHEESE [PASTEURIZED MILK, CHEESE CULTURES, SALT, ENZYMES, ANNATTO [COLOR], CHEESE SAUCE MIX [WHEY, MODIFIED FOOD STARCH, CHEDDAR CHEESE [{PASTEURIZED MILK, CHEESE CULTURES, SALT, ENZYMES}, SALT, WHEY PROTEIN CONCENTRATE, CONTAINS LESS THAN 2% OF BUTTERMILK SOLIDS, SODIUM PHOSPHATE, CREAM, LACTIC ACID, YELLOW 5, YELLOW 6]). TORTILLA: ENRICHED BLEACHED WHEAT FLOUR (NIACIN, REDUCED IRON, THIAMINE, MONONITRATE, RIBOFLAVIN, FOLIC ACID), WATER, PALM OIL, SALT, MONOGLYCERIDE, DIGLYCERIDE, BAKING POWDER (CORN STARCH, SODIUM ACID PYROPHOSPHATES, SODIUM BICARBONATE, MONOCALCIUM PHOSPHATE), ENZYMES." Date available: 07/14/2017 Date last updated by company: 07/14/2017
