Source: USDA Branded Food Products Database Release December 2017 Software v.3.8.6.4 2017-10-02
Report Run at: December 17, 2017 01:25 EST
"Nutrient data for: 45331123, BEEF SHEPHERD'S PIE, UPC: 078742248578"
Food Group:  Branded Food Products Database
Common Name:

Nutrient,Unit,Data points,Std. Error,"1 cup = 181.0g",1Value per 100 g,
Proximates
"Energy",kcal,--,--,190,105
"Protein",g,--,--,9.99,5.52
"Total lipid (fat)",g,--,--,9.99,5.52
"Carbohydrate, by difference",g,--,--,15.00,8.29
"Fiber, total dietary",g,--,--,2.0,1.1
"Sugars, total",g,--,--,1.99,1.10
Minerals
"Calcium, Ca",mg,--,--,27,15
"Iron, Fe",mg,--,--,1.00,0.55
"Potassium, K",mg,--,--,442,244
"Sodium, Na",mg,--,--,519,287
Vitamins
"Vitamin D",IU,--,--,0,0
Lipids
"Fatty acids, total saturated",g,--,--,4.000,2.210
"Fatty acids, total trans",g,--,--,0.507,0.280
"Cholesterol",mg,--,--,34,19
Amino Acids
Other
Ingredients
"RUSSET POTATOES, WATER, GROUND BEEF, CARROTS, ONIONS, CORN, GREEN PEAS, TOMATO PASTE, WHOLE MILK, MODIFIED CORNSTARCH, SALT, BUTTER (CREAM, SALT), BEEF STOCK (BEEF STOCK, FLAVOR), DRIED ORANGE PULP, GRANULATED GARLIC, PARSLEY, SPICES, CITRIC ACID." Date available: 10/13/2017 Date last updated by company: 10/13/2017
