Source: USDA Branded Food Products Database Release December 2017 Software v.3.8.6.4 2017-10-02
Report Run at: December 17, 2017 01:00 EST
"Nutrient data for: 45257965, BEEF BRISKET, UPC: 688267154775"
Food Group:  Branded Food Products Database
Common Name:

Nutrient,Unit,Data points,Std. Error,"1 PACKAGE = 298.0g",1Value per 100 g,
Proximates
"Energy",kcal,--,--,441,148
"Protein",g,--,--,25.00,8.39
"Total lipid (fat)",g,--,--,23.01,7.72
"Carbohydrate, by difference",g,--,--,36.00,12.08
"Fiber, total dietary",g,--,--,3.0,1.0
"Sugars, total",g,--,--,9.00,3.02
Minerals
"Calcium, Ca",mg,--,--,80,27
"Iron, Fe",mg,--,--,7.06,2.37
"Sodium, Na",mg,--,--,831,279
Vitamins
"Vitamin C, total ascorbic acid",mg,--,--,7.7,2.6
"Vitamin A, IU",IU,--,--,656,220
Lipids
"Fatty acids, total saturated",g,--,--,10.013,3.360
"Fatty acids, total trans",g,--,--,0.000,0.000
"Cholesterol",mg,--,--,104,35
Amino Acids
Other
Ingredients
"BEEF BRISKET (BEEF BRISKET, WATER, SEASONING [SALT, SPICES, EXTRACTIVES OF ONION AND GARLIC], DEXTROSE, SALT, SODIUM PHOSPHATE, SUGAR, SODIUM NITRITE), CORN, WATER, POTATOES, RED PEPPERS, CORN SYRUP, HEAVY CREAM, SKIM MILK (VITAMIN D3 AND VITAMIN A PALMITATE ADDED), SHREDDED CHEDDAR CHEESE (PASTEURIZED MILK, CHEESE CULTURES, SALT, ENZYMES, ANNATTO [COLOR], POWDERED CELLULOSE), TOMATO PASTE, BUTTER (PASTEURIZED CREAM, LACTIC ACID), WHITE DISTILLED VINEGAR, BUTTER FLAVOR (MODIFIED CORNSTARCH, SALT, WHEY SOLIDS, NON-FAT DRY MILK, DEHYDRATED BUTTER, BUTTER FLAVOR [MALTODEXTRIN, ENZYME MODIFIED BUTTER, BUTTERMILK POWDER, FLAVOR], SUGAR, XANTHAN GUM, LACTIC ACID, TURMERIC AND ANNATTO [FOR COLOR]), SUGAR, MOLASSES, MODIFIED FOOD STARCH, WORCESTERSHIRE SAUCE CONCENTRATE (DISTILLED VINEGAR, MOLASSES, CORN SYRUP, WATER, SALT, CARAMEL COLOR, GARLIC POWDER, SUGAR, SPICES, TAMARIND, NATURAL FLAVOR, SULFITING AGENT), SALT, SPICE AND COLORING, SMOKE FLAVOR (WATER, NATURAL HICKORY SMOKE CONCENTRATE), FLAVORINGS, DARK CHILI POWDER (CHILI POWDER, SALT, CUMIN, GARLIC, OREGANO)." Date available: 08/21/2017 Date last updated by company: 08/21/2017
