Source: USDA Branded Food Products Database Release December 2017 Software v.3.8.6.4 2017-10-02
Report Run at: December 17, 2017 01:04 EST
"Nutrient data for: 45201601, BEEF COCKTAIL FRANKS WRAPPED IN PUFF PASTRY, UPC: 735199770006"
Food Group:  Branded Food Products Database
Common Name:

Nutrient,Unit,Data points,Std. Error,"5.0 PIECES = 101.0g",1Value per 100 g,
Proximates
"Energy",kcal,--,--,245,243
"Protein",g,--,--,8.00,7.92
"Total lipid (fat)",g,--,--,18.00,17.82
"Carbohydrate, by difference",g,--,--,13.00,12.87
"Fiber, total dietary",g,--,--,0.0,0.0
"Sugars, total",g,--,--,0.00,0.00
Minerals
"Calcium, Ca",mg,--,--,20,20
"Iron, Fe",mg,--,--,0.61,0.60
"Sodium, Na",mg,--,--,210,208
Vitamins
"Vitamin C, total ascorbic acid",mg,--,--,0.0,0.0
"Vitamin A, IU",IU,--,--,0,0
Lipids
"Fatty acids, total saturated",g,--,--,5.999,5.940
"Fatty acids, total trans",g,--,--,0.000,0.000
"Cholesterol",mg,--,--,25,25
Amino Acids
Other
Ingredients
"PUFF PASTRY: ENRICHED FLOUR (WHEAT FLOUR, MALTED BARLEY FLOUR, NIACIN, IRON, THIAMIN MONONITRATE, RIBOFLAVIN, FOLIC ACID), PALM AND SOYBEAN OIL, WATER, SALT, MONOCALCIUM PHOSPHATE. COCKTAIL FRANK: BEEF, WATER, CONTAINS 2% OR LESS OF SALT, SORBITOL, SODIUM LACTATE, NATURAL FLAVORINGS, SODIUM PHOSPHATE, HYDROLYZED CORN PROTEIN, PAPRIKA, SODIUM DIACETATE, SODIUM ERYTHORBATE, SODIUM NITRITE." Date available: 07/14/2017 Date last updated by company: 07/14/2017
