Source: USDA Branded Food Products Database Release December 2017 Software v.3.8.6.4 2017-10-02
Report Run at: December 17, 2017 01:26 EST
"Nutrient data for: 45288523, BEEF SNACK BITES, BEEF SAUSAGE, UPC: 085239212523"
Food Group:  Branded Food Products Database
Common Name:

Nutrient,Unit,Data points,Std. Error,"6.0 PIECES = 30.0g",1Value per 100 g,
Proximates
"Energy",kcal,--,--,120,400
"Protein",g,--,--,5.00,16.67
"Total lipid (fat)",g,--,--,10.00,33.33
"Carbohydrate, by difference",g,--,--,1.00,3.33
"Fiber, total dietary",g,--,--,0.0,0.0
"Sugars, total",g,--,--,1.00,3.33
Minerals
"Calcium, Ca",mg,--,--,0,0
"Iron, Fe",mg,--,--,0.60,2.00
"Sodium, Na",mg,--,--,380,1267
Vitamins
"Vitamin C, total ascorbic acid",mg,--,--,0.0,0.0
"Vitamin A, IU",IU,--,--,0,0
Lipids
"Fatty acids, total saturated",g,--,--,3.999,13.330
"Fatty acids, total trans",g,--,--,0.000,0.000
"Cholesterol",mg,--,--,25,83
Amino Acids
Other
Ingredients
"BEEF, SALT, CONTAINS 2% OR LESS OF: CORN SYRUP SOLIDS, SPICES, DEXTROSE, LACTIC ACID STARTER CULTURE, NATURAL FLAVORINGS, SODIUM ERYTHORBATE, GARLIC POWDER, SODIUM NITRITE, WATER." Date available: 07/14/2017 Date last updated by company: 07/14/2017
