Source: USDA Branded Food Products Database Release December 2017 Software v.3.8.6.4 2017-10-02
Report Run at: December 17, 2017 01:10 EST
"Nutrient data for: 45201858, BEEF JERKY, TERIYAKI, UPC: 741643022782"
Food Group:  Branded Food Products Database
Common Name:

Nutrient,Unit,Data points,Std. Error,"1 ONZ = 28.0g",1Value per 100 g,
Proximates
"Energy",kcal,--,--,80,286
"Protein",g,--,--,13.00,46.43
"Total lipid (fat)",g,--,--,0.50,1.79
"Carbohydrate, by difference",g,--,--,5.00,17.86
"Fiber, total dietary",g,--,--,0.0,0.0
"Sugars, total",g,--,--,3.00,10.71
Minerals
"Calcium, Ca",mg,--,--,0,0
"Iron, Fe",mg,--,--,3.21,11.48
"Sodium, Na",mg,--,--,790,2821
Vitamins
"Vitamin C, total ascorbic acid",mg,--,--,2.2,7.7
"Vitamin A, IU",IU,--,--,357,1275
Lipids
"Fatty acids, total saturated",g,--,--,0.000,0.000
"Fatty acids, total trans",g,--,--,0.000,0.000
"Cholesterol",mg,--,--,25,89
Amino Acids
Other
Ingredients
"BEEF, WATER, SUGAR, SOY SAUCE (WATER, WHEAT, SOYBEANS, SALT), SALT, MALTODEXTRIN, SEASONINGS (HYDROLYZED CORN GLUTEN PROTEIN, ONION POWDER, GARLIC POWDER), APPLE CIDER VINEGAR, MONOSODIUM GLUTAMATE, PAPRIKA, SODIUM TRIPOLYPHOSPHATE, BLACK PEPPER POWDER, CITRIC ACID, SODIUM ERYTHORBATE, DISODIUM INOSINATE, SODIUM NITRITE." Date available: 07/14/2017 Date last updated by company: 07/14/2017
