Source: USDA Branded Food Products Database Release December 2017 Software v.3.8.6.4 2017-10-02
Report Run at: December 17, 2017 01:29 EST
"Nutrient data for: 45228288, BEEF STEW WITH RICE, UPC: 041331091428"
Food Group:  Branded Food Products Database
Common Name:

Nutrient,Unit,Data points,Std. Error,"1 PACKAGE = 312.0g",1Value per 100 g,
Proximates
"Energy",kcal,--,--,431,138
"Protein",g,--,--,22.00,7.05
"Total lipid (fat)",g,--,--,13.01,4.17
"Carbohydrate, by difference",g,--,--,52.01,16.67
"Fiber, total dietary",g,--,--,1.9,0.6
"Sugars, total",g,--,--,3.00,0.96
Minerals
"Calcium, Ca",mg,--,--,41,13
"Iron, Fe",mg,--,--,2.81,0.90
"Sodium, Na",mg,--,--,839,269
Vitamins
"Vitamin C, total ascorbic acid",mg,--,--,3.7,1.2
"Vitamin A, IU",IU,--,--,62,20
Lipids
"Fatty acids, total saturated",g,--,--,4.992,1.600
"Fatty acids, total trans",g,--,--,0.000,0.000
"Cholesterol",mg,--,--,56,18
Amino Acids
Other
Ingredients
"COOKED ENRICHED PARBOILED LONG GRAIN WHITE RICE (WATER, WHITE RICE [LONG GRAIN PARBOILED RICE, ENRICHED WITH IRONPHOSPHATE, NIACIN, THIAMINE MONONITRATE, FOLIC ACID], AND NATURAL SEA SALT), BEEF (BEEF, SALT, BLACK PEPPER, GARLIC), WATER, TOMATO SAUCE (TOMATO CONCENTRATE [WATER, TOMATO PASTE], SALT, CORN SYRUP, CITRIC ACID, AND NATURAL FLAVORING), POTATOES, ONIONS, GREEN PEPPERS, VEAL GLACE (VEAL STOCK [VEAL BONES, WATER], ROUX [MADE OF WHEAT FLOUR AND VEAL FAT], MODIFIED FOOD STARCH, MIREPOIX STOCK [MADE OF CARROT, CELERY, AND ONION STOCKS], RED WINE, BEEF STOCK, TOMATO PASTE, SALT, CELERY STOCK, CARROT STOCK), OLIVES (MANZANILLA OLIVES, WATER, MINCED PIMIENTO PEPPER, SALT, CITRIC ACID, SODIUM ALGINATE, GUAR GUM, CALCIUM CHLORIDE), BEEF BASE (BEEF STOCK, NATURAL FLAVOR, SALT, YEAST EXTRACT, SUGAR, BEEF FAT AND THIAMINE [VITAMIN B1]), CORN STARCH, GARLIC, CANOLA OIL, SEASONING BLEND (SALT, GARLIC POWDER, ONION POWDER, SPICES, ANNATTO, YEAST EXTRACT, SUGAR, TURMERIC), SUGAR, CILANTRO, NATURAL SEA SALT AND CARAMEL COLOR." Date available: 08/07/2017 Date last updated by company: 08/07/2017
