Source: USDA Branded Food Products Database Release December 2017 Software v.3.8.6.4 2017-10-02
Report Run at: December 17, 2017 01:30 EST
"Nutrient data for: 45203495, BEEF STROGANOFF, UPC: 5051379106874"
Food Group:  Branded Food Products Database
Common Name:

Nutrient,Unit,Data points,Std. Error,"1 CONTAINER = 354.0g",1Value per 100 g,
Proximates
"Energy",kcal,--,--,428,121
"Protein",g,--,--,23.01,6.50
"Total lipid (fat)",g,--,--,16.00,4.52
"Carbohydrate, by difference",g,--,--,44.99,12.71
"Fiber, total dietary",g,--,--,2.8,0.8
"Sugars, total",g,--,--,4.99,1.41
Minerals
"Calcium, Ca",mg,--,--,39,11
"Iron, Fe",mg,--,--,1.77,0.50
"Sodium, Na",mg,--,--,1281,362
Vitamins
"Vitamin C, total ascorbic acid",mg,--,--,1.4,0.4
"Vitamin A, IU",IU,--,--,159,45
Lipids
"Fatty acids, total saturated",g,--,--,7.009,1.980
"Fatty acids, total trans",g,--,--,0.000,0.000
"Cholesterol",mg,--,--,74,21
Amino Acids
Other
Ingredients
"STROGANOFF SAUCE [WATER, SOUR CREAM (CULTURED MILK, CREAM, NONFAT MILK, MICROBIAL RENNET), WHITE WINE (CHABLIS WINE, SALT, SULFITES TO PRESERVE FLAVOR AND COLOR), UNSALTED BUTTER (PASTEURIZED CREAM, NATURAL FLAVOR, LACTIC ACID, STARTER DISTILLATE), BEEF BASE (BEEF STOCK, NATURAL FLAVOR, SALT, YEAST EXTRACT, SUGAR, BEEF FAT) CORN STARCH, DIJON MUSTARD (DISTILLED VINEGAR, WATER, MUSTARD SEED, SALT, WHITE WINE, CITRIC ACID, TURMERIC, SPICES), GARLIC PUREE, SALT, PAPRIKA, SPICES], COOKED PASTA (WATER, ENRICHED DURUM WHEAT SEMOLINA, NIACIN, FERROUS SULFATE, THIAMIN MONONITRATE, RIBOFLAVIN, FOLIC ACID), GRILLED BEEF AND MODIFIED FOOD STARCH STEAK STRIPS (BEEF, WATER, MODIFIED CORN STARCH, SALT), MUSHROOM AND ONION TOPPING (MUSHROOM, ONION, CANOLA OIL, GARLIC PUREE, SALT, THYME), PARSLEY." Date available: 07/14/2017 Date last updated by company: 07/14/2017
