Source: USDA Branded Food Products Database Release December 2017 Software v.3.8.6.4 2017-10-02
Report Run at: December 17, 2017 01:22 EST
"Nutrient data for: 45274766, BEEF POLISH SAUSAGE, UPC: 081211010347"
Food Group:  Branded Food Products Database
Common Name:

Nutrient,Unit,Data points,Std. Error,"2.0 ONZ = 56.0g",1Value per 100 g,
Proximates
"Energy",kcal,--,--,140,250
"Protein",g,--,--,7.00,12.50
"Total lipid (fat)",g,--,--,10.00,17.86
"Carbohydrate, by difference",g,--,--,4.00,7.14
"Fiber, total dietary",g,--,--,0.0,0.0
"Sugars, total",g,--,--,2.00,3.57
Minerals
"Calcium, Ca",mg,--,--,20,36
"Iron, Fe",mg,--,--,1.06,1.89
"Sodium, Na",mg,--,--,620,1107
Vitamins
"Vitamin C, total ascorbic acid",mg,--,--,1.2,2.1
"Vitamin A, IU",IU,--,--,295,526
Lipids
"Fatty acids, total saturated",g,--,--,3.998,7.140
"Fatty acids, total trans",g,--,--,0.000,0.000
"Cholesterol",mg,--,--,45,80
Amino Acids
Other
Ingredients
"BEEF, BEEF HEARTS, WATER, MECHANICALLY SEPARATED CHICKEN, CORN SYRUP, SALT, DEXTROSE, CONTAINS 2% OR LESS OF FLAVORINGS, SPICES, SOY PROTEIN ISOLATE, PAPRIKA, MUSTARD, SODIUM PROPIONATE, SODIUM PHOSPHATE, SODIUM ERYTHORBATE, SODIUM BENZOATE, SODIUM NITRITE." Date available: 07/14/2017 Date last updated by company: 07/14/2017
