Source: USDA Branded Food Products Database Release December 2017 Software v.3.8.6.4 2017-10-02
Report Run at: December 17, 2017 00:58 EST
"Nutrient data for: 45316183, BEEF & BBQ BAKED BEANS, UPC: 071846261016"
Food Group:  Branded Food Products Database
Common Name:

Nutrient,Unit,Data points,Std. Error,"0.5 cup = 126.0g",1Value per 100 g,
Proximates
"Energy",kcal,--,--,170,135
"Protein",g,--,--,8.00,6.35
"Total lipid (fat)",g,--,--,1.50,1.19
"Carbohydrate, by difference",g,--,--,31.00,24.60
"Fiber, total dietary",g,--,--,6.0,4.8
"Sugars, total",g,--,--,16.00,12.70
Minerals
"Calcium, Ca",mg,--,--,60,48
"Iron, Fe",mg,--,--,2.78,2.21
"Sodium, Na",mg,--,--,249,198
Vitamins
"Vitamin C, total ascorbic acid",mg,--,--,2.5,2.0
"Vitamin A, IU",IU,--,--,207,164
Lipids
"Fatty acids, total saturated",g,--,--,0.000,0.000
"Fatty acids, total trans",g,--,--,0.000,0.000
"Cholesterol",mg,--,--,10,8
Amino Acids
Other
Ingredients
"WATER, BEANS, COOKED BEEF (BEEF, WATER, MODIFIED FOOD STARCH, SALT, SODIUM PHOSPHATE, NATURAL FLAVOR), SUGAR, BROWN SUGAR, TOMATO PASTE, MOLASSES, BEEF BASE (ROASTED BEEF, SALT, YEAST EXTRACT, CARAMEL COLOR, NATURAL FLAVOR), CIDER VINEGAR, CHILI POWDER (CHILI PEPPER, SPICES, SALT, FLAVORING), POTATO STARCH, ONION, GARLIC POWDER, SPICES, SMOKED PAPRIKA, MESQUITE FLAVOR." Date available: 07/14/2017 Date last updated by company: 07/14/2017
