Source: USDA Branded Food Products Database Release December 2017 Software v.3.8.6.4 2017-10-02
Report Run at: December 17, 2017 01:04 EST
"Nutrient data for: 45047432, BEEF CUBE STEAK, UPC: 211577407011"
Food Group:  Branded Food Products Database
Common Name:

Nutrient,Unit,Data points,Std. Error,"4.0 ONZ = 112.0g",1Value per 100 g,
Proximates
"Energy",kcal,--,--,200,179
"Protein",g,--,--,21.00,18.75
"Total lipid (fat)",g,--,--,12.00,10.71
"Carbohydrate, by difference",g,--,--,0.00,0.00
Minerals
"Calcium, Ca",mg,--,--,0,0
"Iron, Fe",mg,--,--,1.37,1.22
"Sodium, Na",mg,--,--,330,295
Vitamins
Lipids
"Fatty acids, total saturated",g,--,--,4.995,4.460
"Cholesterol",mg,--,--,60,54
Amino Acids
Other
Ingredients
"BEEF BROTH, POTASSIUM LACTATE, SODIUM PHOSPHATE, SALT, SODIUM DIACETATE, FLAVORING." Date available: 06/24/2017 Date last updated by company: 06/24/2017
