Source: USDA Branded Food Products Database Release December 2017 Software v.3.8.6.4 2017-10-02
Report Run at: December 17, 2017 01:06 EST
"Nutrient data for: 45221020, BEEF FRANKS IN A BLANKET, UPC: 735199552008"
Food Group:  Branded Food Products Database
Common Name:

Nutrient,Unit,Data points,Std. Error,"5.0 PIECES = 100.0g",1Value per 100 g,
Proximates
"Energy",kcal,--,--,245,245
"Protein",g,--,--,8.00,8.00
"Total lipid (fat)",g,--,--,18.00,18.00
"Carbohydrate, by difference",g,--,--,13.00,13.00
"Fiber, total dietary",g,--,--,0.0,0.0
"Sugars, total",g,--,--,0.00,0.00
Minerals
"Calcium, Ca",mg,--,--,20,20
"Iron, Fe",mg,--,--,0.61,0.61
"Sodium, Na",mg,--,--,210,210
Vitamins
"Vitamin C, total ascorbic acid",mg,--,--,0.0,0.0
"Vitamin A, IU",IU,--,--,0,0
Lipids
"Fatty acids, total saturated",g,--,--,6.000,6.000
"Fatty acids, total trans",g,--,--,0.000,0.000
"Cholesterol",mg,--,--,25,25
Amino Acids
Other
Ingredients
"PUFF PASTRY DOUGH: ENRICHED FLOUR (WHEAT FLOUR, MALTED BARLEY FLOUR, NIACIN, IRON, THIAMIN MONONITRATE, RIBOFLAVIN, FOLIC ACID), PARTIALLY HYDROGENATED SOYBEAN AND COTTONSEED OIL, WATER, SOYBEAN OIL, SALT, MONOCALCIUM PHOSPHATE MONOHYDRATE, ARTIFICIAL COLOR. COCKTAIL FRANKS: BEEF, WATER (CONTAINS 2% OR LESS OF: SALT, MONOCALCIUM PHOSPHATE MONOHYDRATE, ARTIFICIAL COLOR. COCKTAIL FRANKS: BEEF, WATER (CONTAINS 2% OR LESS OF: SALT, SORBITOL, SODIUM LACTATE, HYDROLYZED CORN PROTEIN, PAPRIKA, NATURAL FLAVORINGS, SODIUM DIACETATE, SODIUM PHOSPHATE, SODIUM ERYTHORBATE, SODIUM NITRITE)." Date available: 07/14/2017 Date last updated by company: 07/14/2017
