Source: USDA Branded Food Products Database Release December 2017 Software v.3.8.6.4 2017-10-02
Report Run at: December 17, 2017 01:24 EST
"Nutrient data for: 45258333, BEEF RIBEYE STEAK, UPC: 832237003727"
Food Group:  Branded Food Products Database
Common Name:

Nutrient,Unit,Data points,Std. Error,"1 STEAK = 170.0g",1Value per 100 g,
Proximates
"Energy",kcal,--,--,211,124
"Protein",g,--,--,31.99,18.82
"Total lipid (fat)",g,--,--,6.00,3.53
"Carbohydrate, by difference",g,--,--,2.99,1.76
"Fiber, total dietary",g,--,--,0.0,0.0
"Sugars, total",g,--,--,2.01,1.18
Minerals
"Calcium, Ca",mg,--,--,41,24
"Iron, Fe",mg,--,--,1.80,1.06
"Sodium, Na",mg,--,--,1040,612
Vitamins
"Vitamin C, total ascorbic acid",mg,--,--,0.0,0.0
"Vitamin A, IU",IU,--,--,0,0
Lipids
"Fatty acids, total saturated",g,--,--,2.992,1.760
"Fatty acids, total trans",g,--,--,0.000,0.000
"Cholesterol",mg,--,--,90,53
Amino Acids
Other
Ingredients
"WATER, POTASSIUM LACTATE, FRUCTOSE, HYDROLYZED SOY PROTEIN, SALT, SODIUM PHOSPHATES, FLAVOR. RUBBED WITH: PRIME RIB SEASONING RUB: SALT, BROWN SUGAR, SPICE, DEHYDRATED GARLIC AND ONION, WORCESTERSHIRE SAUCE POWDER [(DISTILLED VINEGAR, MOLASSES, CORN SYRUP, SALT, CARAMEL COLOR, GARLIC POWDER, SUGAR, SPICES, TAMARIND, NATURAL FLAVOR), MALTODEXTRIN], AND LESS THAN 2% SILICON DIOXIDE ADDED TO PREVENT CAKING." Date available: 03/30/2017 Date last updated by company: 03/30/2017
