Source: USDA Branded Food Products Database Release December 2017 Software v.3.8.6.4 2017-10-02
Report Run at: December 17, 2017 01:25 EST
"Nutrient data for: 45194369, BEEF SIRLION WITH AU JUS, UPC: 018894904106"
Food Group:  Branded Food Products Database
Common Name:

Nutrient,Unit,Data points,Std. Error,"0.5 PACKAGE = 142.0g",1Value per 100 g,
Proximates
"Energy",kcal,--,--,210,148
"Protein",g,--,--,31.00,21.83
"Total lipid (fat)",g,--,--,9.00,6.34
"Carbohydrate, by difference",g,--,--,0.99,0.70
"Fiber, total dietary",g,--,--,0.0,0.0
"Sugars, total",g,--,--,0.00,0.00
Minerals
"Calcium, Ca",mg,--,--,20,14
"Iron, Fe",mg,--,--,0.70,0.49
"Sodium, Na",mg,--,--,790,556
Vitamins
"Vitamin C, total ascorbic acid",mg,--,--,0.0,0.0
"Vitamin A, IU",IU,--,--,0,0
Lipids
"Fatty acids, total saturated",g,--,--,3.493,2.460
"Fatty acids, total trans",g,--,--,0.000,0.000
"Cholesterol",mg,--,--,85,60
Amino Acids
Other
Ingredients
"GRILLED BEEF SIRLOIN (BEEF, KOSHER SALT, BLACK PEPPER, GARLIC GRANULATED), AU JUS (BEEF STOCK [WATER, SEASONING (WATER, SALT, HYDROLIZED WHEAT PROTEIN, MONOSODIUM GLUTAMATE, SUGAR, ACETIC ACID, DISODIUM INOSINATE, ARTIFICIAL FLAVOR), BEEF BASE (ROASTED BEEF AND CONCENTRATED BEEF STOCK, SALT, HYDROLYZED SOY, CORN AND WHEAT PROTEINS, MALTODEXTRIN, AUTOLYZED YEAST EXTRACT, PALM OIL, SUGAR, CARAMEL COLOR, ONION POWDER, 2% OR LESS OF CORN OIL, POTATO STARCH, DISODIUM INOSINATE/DISODIUM GUANYLATE, MODIFIED CORNSTARCH, NATURAL FLAVORS, LACTIC ACID)], CORNSTARCH, SEASONING SAUCE [CARAMELIZED SUGAR, CARAMEL COLOR, WATER, HYDROLYZED SOY AND CORN PROTEIN, APPLE CIDER VINEGAR, SALT, SPICES (ONION, CELERY, PARSLEY, GARLIC)])." Date available: 07/14/2017 Date last updated by company: 07/14/2017
