Source: USDA Branded Food Products Database Release December 2017 Software v.3.8.6.4 2017-10-02
Report Run at: December 17, 2017 01:25 EST
"Nutrient data for: 45258289, BEEF SAUSAGE, UPC: 853234001011"
Food Group:  Branded Food Products Database
Common Name:

Nutrient,Unit,Data points,Std. Error,"2.0 ONZ = 57.0g",1Value per 100 g,
Proximates
"Energy",kcal,--,--,165,289
"Protein",g,--,--,7.00,12.28
"Total lipid (fat)",g,--,--,15.00,26.32
"Carbohydrate, by difference",g,--,--,1.00,1.75
Minerals
"Calcium, Ca",mg,--,--,10,18
"Iron, Fe",mg,--,--,0.87,1.52
"Sodium, Na",mg,--,--,375,658
Vitamins
Lipids
"Fatty acids, total saturated",g,--,--,6.002,10.530
"Fatty acids, total trans",g,--,--,0.000,0.000
"Cholesterol",mg,--,--,38,67
Amino Acids
Other
Ingredients
"BEEF, WATER, SODIUM LACTATE/VINEGAR, SPICES, SALT, SODIUM PHOSPHATE, NATURAL FLAVORING, SODIUM NITRITE." Date available: 10/19/2017 Date last updated by company: 10/19/2017
