Source: USDA Branded Food Products Database Release December 2017 Software v.3.8.6.4 2017-10-02
Report Run at: December 17, 2017 01:18 EST
"Nutrient data for: 45287550, BEEF JERKY, UPC: 853016002137"
Food Group:  Branded Food Products Database
Common Name:

Nutrient,Unit,Data points,Std. Error,"1 ONZ = 28.0g",1Value per 100 g,
Proximates
"Energy",kcal,--,--,70,250
"Protein",g,--,--,11.00,39.29
"Total lipid (fat)",g,--,--,1.00,3.57
"Carbohydrate, by difference",g,--,--,5.00,17.86
"Fiber, total dietary",g,--,--,0.0,0.0
"Sugars, total",g,--,--,4.00,14.29
Minerals
"Calcium, Ca",mg,--,--,0,0
"Iron, Fe",mg,--,--,1.93,6.88
"Sodium, Na",mg,--,--,330,1179
Vitamins
"Vitamin C, total ascorbic acid",mg,--,--,0.0,0.0
"Vitamin A, IU",IU,--,--,0,0
Lipids
"Fatty acids, total saturated",g,--,--,0.000,0.000
"Fatty acids, total trans",g,--,--,0.000,0.000
"Cholesterol",mg,--,--,25,89
Amino Acids
Other
Ingredients
"GRASS FED BEEF, GLUTEN FREE TAMARI SOY SAUCE (WATER, SOYBEANS, SALT, MAY ALSO CONTAIN ALCOHOL AND SUGAR), ORGANIC BROWN SUGAR (ORGANIC SUGAR, ORGANIC MOLASSES), GARLIC, PINEAPPLE JUICE, LIQUID SMOKE (WATER, NATURAL HICKORY SMOKE FLAVOR), ORGANIC WORCESTERSHIRE (WATER, ORGANIC VINEGAR, ORGANIC GLUTEN FREE TAMARI [WATER, ORGANIC SOYBEANS, SALT], ORGANIC EVAPORATED CANE SYRUP, SALT, ORGANIC SPICES), BLACK PEPPER." Date available: 07/14/2017 Date last updated by company: 07/14/2017
