Source: USDA Branded Food Products Database Release December 2017 Software v.3.8.6.4 2017-10-02
Report Run at: December 17, 2017 01:37 EST
"Nutrient data for: 45286548, BEET AND BALSAMIC VINEGAR FLATBREADS, UPC: 061243717506"
Food Group:  Branded Food Products Database
Common Name:

Nutrient,Unit,Data points,Std. Error,"1 PIECE = 11.0g",1Value per 100 g,
Proximates
"Energy",kcal,--,--,50,455
"Protein",g,--,--,1.00,9.09
"Total lipid (fat)",g,--,--,1.50,13.64
"Carbohydrate, by difference",g,--,--,8.00,72.73
"Fiber, total dietary",g,--,--,1.0,9.1
"Sugars, total",g,--,--,1.00,9.09
Minerals
"Calcium, Ca",mg,--,--,0,0
"Iron, Fe",mg,--,--,1.80,16.36
"Sodium, Na",mg,--,--,125,1136
Vitamins
"Vitamin C, total ascorbic acid",mg,--,--,0.0,0.0
"Vitamin A, IU",IU,--,--,0,0
Lipids
"Fatty acids, total saturated",g,--,--,0.000,0.000
"Fatty acids, total trans",g,--,--,0.000,0.000
"Cholesterol",mg,--,--,0,0
Amino Acids
Other
Ingredients
"UNBLEACHED ENRICHED FLOUR (WHEAT FLOUR, NIACIN, REDUCED IRON, THIAMINE MONONITRATE, RIBOFLAVIN, FOLIC ACID), DRIED BEETS, SUNFLOWER OIL, RAW CANE SUGAR, BALSAMIC VINEGAR, EXTRA VIRGIN OLIVE OIL, SEA SALT, LEAVENING (YEAST), DRIED CHIVES, NATURAL FLAVOR." Date available: 10/04/2017 Date last updated by company: 10/04/2017
