Source: USDA Branded Food Products Database Release December 2017 Software v.3.8.6.4 2017-10-02
Report Run at: December 17, 2017 01:42 EST
"Nutrient data for: 45157224, BELGIAN, CHOCOLATE BISCUITS, UPC: 050428448038"
Food Group:  Branded Food Products Database
Common Name:

Nutrient,Unit,Data points,Std. Error,"3.0 PIECES = 36.0g",1Value per 100 g,
Proximates
"Energy",kcal,--,--,190,528
"Protein",g,--,--,2.00,5.56
"Total lipid (fat)",g,--,--,10.00,27.78
"Carbohydrate, by difference",g,--,--,23.00,63.89
"Fiber, total dietary",g,--,--,2.0,5.6
"Sugars, total",g,--,--,13.00,36.11
Minerals
"Calcium, Ca",mg,--,--,20,56
"Iron, Fe",mg,--,--,2.50,6.95
"Sodium, Na",mg,--,--,45,125
Vitamins
"Vitamin C, total ascorbic acid",mg,--,--,0.0,0.0
"Vitamin A, IU",IU,--,--,0,0
Lipids
"Fatty acids, total saturated",g,--,--,6.001,16.670
"Fatty acids, total trans",g,--,--,0.000,0.000
"Cholesterol",mg,--,--,5,14
Amino Acids
Other
Ingredients
"UNBLEACHED WHEAT FLOUR, SUGAR, VEGETABLE SHORTENINGS (PALM, COCONUT), CHOCOLATE LIQUOR, COCOA BUTTER, NONFAT DRY MILK, WHEY POWDER (FROM MILK), HAZELNUTS, LOW FAT COCOA POWDER (PROCESSED WITH ALKALI), CANDIED ORANGE PEEL (ORANGE PEEL, SUGAR, GLUCOSE SYRUP [FROM WHEAT OR MAIZE]), BUTTERFAT, COCONUT, DRY WHOLE MILK POWDER, DRIED WHOLE EGG, EGG YOLK POWDER, MILK PROTEIN, WHEAT STARCH, LACTOSE, DEXTROSE, INVERT SUGAR SYRUP, GLUCOSE SYRUP (FROM WHEAT OR MAIZE), LEAVENINGS (SODIUM BICARBONATE, AMMONIUM BICARBONATE AND SODIUM ACID PYROPHOSPHATE), EMULSIFIER (MONO- AND DIGLYCERIDES OF FATTY ACIDS, SOY LECITHIN AND RAPESEED LECITHIN), SALT, NATURAL AND ARTIFICIAL FLAVORS, VANILLA FLAVOR (VANILLA, PROPYLENE GLYCOL, WATER, CORN SYRUP, ETHYL ALCOHOL, POLYSORBATE 80, GLYCERINE AND CARAMEL COLOR)." Date available: 07/14/2017 Date last updated by company: 07/14/2017
