Source: USDA Branded Food Products Database Release December 2017 Software v.3.8.6.4 2017-10-02
Report Run at: December 17, 2017 01:44 EST
"Nutrient data for: 45153098, BELGIAN MILK CHOCOLATE TOFFLET, UPC: 625252007166"
Food Group:  Branded Food Products Database
Common Name:

Nutrient,Unit,Data points,Std. Error,"0.7 ONZ = 20.0g",1Value per 100 g,
Proximates
"Energy",kcal,--,--,110,550
"Protein",g,--,--,1.00,5.00
"Total lipid (fat)",g,--,--,7.00,35.00
"Carbohydrate, by difference",g,--,--,11.00,55.00
"Fiber, total dietary",g,--,--,0.0,0.0
"Sugars, total",g,--,--,10.00,50.00
Minerals
"Calcium, Ca",mg,--,--,20,100
"Iron, Fe",mg,--,--,0.90,4.50
"Sodium, Na",mg,--,--,45,225
Vitamins
"Vitamin C, total ascorbic acid",mg,--,--,0.0,0.0
"Vitamin A, IU",IU,--,--,0,0
Lipids
"Fatty acids, total saturated",g,--,--,4.500,22.500
"Fatty acids, total monounsaturated",g,--,--,2.000,10.000
"Fatty acids, total trans",g,--,--,0.000,0.000
"Cholesterol",mg,--,--,10,50
Amino Acids
Other
Ingredients
"MILK CHOCOLATE (SUGAR, WHOLE CREAM MILK POWDER, COCOA BUTTER, COCOA MASS, SOY LECITHIN, NATURAL VANILLA), BUTTER (MILK), WHITE SUGAR, BROWN SUGAR, GLUCOSE, SALT, SOY LECITHIN, BAKING SODA, NATURAL FLAVOUR." Date available: 07/14/2017 Date last updated by company: 07/14/2017
