Source: USDA Branded Food Products Database Release December 2017 Software v.3.8.6.4 2017-10-02
Report Run at: December 17, 2017 01:54 EST
"Nutrient data for: 45091687, BELL-VIEW, HOT CHOPPED HOAGIE SPREAD, UPC: 073405109036"
Food Group:  Branded Food Products Database
Common Name:

Nutrient,Unit,Data points,Std. Error,"1 Tbsp = 15.0g",1Value per 100 g,
Proximates
"Energy",kcal,--,--,0,0
"Protein",g,--,--,0.00,0.00
"Total lipid (fat)",g,--,--,0.00,0.00
"Carbohydrate, by difference",g,--,--,1.00,6.67
"Fiber, total dietary",g,--,--,0.0,0.0
"Sugars, total",g,--,--,1.00,6.67
Minerals
"Sodium, Na",mg,--,--,280,1867
Vitamins
Lipids
"Fatty acids, total trans",g,--,--,0.000,0.000
Amino Acids
Other
Ingredients
"PEPPERS, WATER, VINEGAR, SALT, SUGAR, CALCIUM CHLORIDE, XANTHAN GUM, SODIUM BENZOATE AND SODIUM BISULFITE TO PRESERVE COLOR." Date available: 10/11/2017 Date last updated by company: 10/11/2017
