Source: USDA Branded Food Products Database Release December 2017 Software v.3.8.6.4 2017-10-02
Report Run at: December 17, 2017 01:57 EST
"Nutrient data for: 45217779, BELTS CANDY, UPC: 761584253564"
Food Group:  Branded Food Products Database
Common Name:

Nutrient,Unit,Data points,Std. Error,"1 BAG = 35.0g",1Value per 100 g,
Proximates
"Energy",kcal,--,--,125,357
"Protein",g,--,--,1.00,2.86
"Total lipid (fat)",g,--,--,1.00,2.86
"Carbohydrate, by difference",g,--,--,28.00,80.00
"Fiber, total dietary",g,--,--,0.0,0.0
"Sugars, total",g,--,--,17.00,48.57
Minerals
"Calcium, Ca",mg,--,--,0,0
"Iron, Fe",mg,--,--,0.00,0.00
"Sodium, Na",mg,--,--,50,143
Vitamins
"Vitamin C, total ascorbic acid",mg,--,--,0.0,0.0
"Vitamin A, IU",IU,--,--,0,0
Lipids
"Fatty acids, total saturated",g,--,--,0.000,0.000
"Fatty acids, total trans",g,--,--,0.000,0.000
"Cholesterol",mg,--,--,0,0
Amino Acids
Other
Ingredients
"CORN SYRUP, WHEAT FLOUR, SUGAR, APPLE JUICE CONCENTRATED, HYDROGENATED SOYBEAN OIL, CITRIC ACID, MALIC ACID, ARTIFICIAL FLAVOR, SODIUM CITRATE, SALT, DISTILLED MONOGLYCERIDES, ARTIFICIAL COLOR (FD & C YELLOW NO. 5 & FD&C BLUE NO. 1)." Date available: 07/14/2017 Date last updated by company: 07/14/2017
