Source: USDA Branded Food Products Database Release December 2017 Software v.3.8.6.4 2017-10-02
Report Run at: December 17, 2017 01:59 EST
"Nutrient data for: 45080311, BEN & JERRY'S, CORE, ICE CREAM, COOKIES & CREAM CHEESECAKE, UPC: 076840551941"
Food Group:  Branded Food Products Database
Common Name:

Nutrient,Unit,Data points,Std. Error,"1 cup = 102.0g",1Value per 100 g,
Proximates
"Energy",kcal,--,--,270,265
"Protein",g,--,--,5.00,4.90
"Total lipid (fat)",g,--,--,15.00,14.71
"Carbohydrate, by difference",g,--,--,27.00,26.47
"Fiber, total dietary",g,--,--,1.0,1.0
"Sugars, total",g,--,--,24.00,23.53
Minerals
"Calcium, Ca",mg,--,--,100,98
"Iron, Fe",mg,--,--,1.44,1.41
"Sodium, Na",mg,--,--,90,88
Vitamins
"Vitamin C, total ascorbic acid",mg,--,--,0.0,0.0
"Vitamin A, IU",IU,--,--,500,490
Lipids
"Fatty acids, total saturated",g,--,--,9.996,9.800
"Fatty acids, total trans",g,--,--,0.000,0.000
"Cholesterol",mg,--,--,65,64
Amino Acids
Other
Ingredients
"CREAM, LIQUID SUGAR (SUGAR, WATER), SKIM MILK, WATER, SUGAR, COCOA (PROCESSED WITH ALKALI), BUTTER (CREAM, SALT), WHEAT FLOUR, EGG YOLKS, COCONUT OIL, CREAM CHEESE (PASTEURIZED MILK, CREAM, CULTURES, SALT, LOCUST BEAN GUM), MILK PROTEIN CONCENTRATE, BROWN SUGAR, MODIFIED CORN STARCH, SOY LECITHIN, EGGS, CARRAGEENAN, SALT, NATURAL FLAVOR, GUAR GUM, LOCUST BEAN GUM, BAKING SODA, VANILLA EXTRACT, XANTHAN GUM." Date available: 07/14/2017 Date last updated by company: 07/14/2017
