Source: USDA Branded Food Products Database Release December 2017 Software v.3.8.6.4 2017-10-02
Report Run at: December 17, 2017 02:01 EST
"Nutrient data for: 45273843, BEN & JERRY'S, ICE CREAM, KEEP CARAMEL AND COOKIE ON, UPC: 076840721177"
Food Group:  Branded Food Products Database
Common Name:

Nutrient,Unit,Data points,Std. Error,"1 cup = 101.0g",1Value per 100 g,
Proximates
"Energy",kcal,--,--,270,267
"Protein",g,--,--,4.00,3.96
"Total lipid (fat)",g,--,--,14.00,13.86
"Carbohydrate, by difference",g,--,--,33.00,32.67
"Fiber, total dietary",g,--,--,1.0,1.0
"Sugars, total",g,--,--,25.00,24.75
Minerals
"Calcium, Ca",mg,--,--,100,99
"Iron, Fe",mg,--,--,0.72,0.71
"Sodium, Na",mg,--,--,115,114
Vitamins
"Vitamin C, total ascorbic acid",mg,--,--,0.0,0.0
"Vitamin A, IU",IU,--,--,400,396
Lipids
"Fatty acids, total saturated",g,--,--,8.999,8.910
"Fatty acids, total trans",g,--,--,0.000,0.000
"Cholesterol",mg,--,--,65,64
Amino Acids
Other
Ingredients
"CREAM, SKIM MILK, WATER, LIQUID SUGAR (SUGAR, WATER), CORN SYRUP, SUGAR, WHEAT FLOUR, BUTTER (CREAM, SALT), DRIED CANE SYRUP, EGG YOLKS, COCONUT OIL, BARLEY MALT, COCOA (PROCESSED WITH ALKALI), SOYBEAN OIL, MILK, COCOA POWDER, EGGS, SALT, BAKING SODA, CARRAGEENAN, GUAR GUM, VANILLA EXTRACT, MILK FAT, ENZYMES, SOY LECITHIN, NATURAL FLAVOR." Date available: 07/14/2017 Date last updated by company: 07/14/2017
