Source: USDA Branded Food Products Database Release December 2017 Software v.3.8.6.4 2017-10-02
Report Run at: December 17, 2017 02:04 EST
"Nutrient data for: 45162055, BEQUET, CARAMEL, SALTED BUTTERSCOTCH, UPC: 858372001558"
Food Group:  Branded Food Products Database
Common Name:

Nutrient,Unit,Data points,Std. Error,"4.0 PIECES = 45.0g",1Value per 100 g,
Proximates
"Energy",kcal,--,--,230,511
"Protein",g,--,--,1.00,2.22
"Total lipid (fat)",g,--,--,11.00,24.44
"Carbohydrate, by difference",g,--,--,33.00,73.33
"Fiber, total dietary",g,--,--,0.0,0.0
"Sugars, total",g,--,--,24.00,53.33
Minerals
"Calcium, Ca",mg,--,--,40,89
"Iron, Fe",mg,--,--,0.40,0.89
"Sodium, Na",mg,--,--,300,667
Vitamins
"Vitamin C, total ascorbic acid",mg,--,--,0.0,0.0
"Vitamin A, IU",IU,--,--,445,988
Lipids
"Fatty acids, total saturated",g,--,--,7.002,15.560
"Fatty acids, total trans",g,--,--,0.000,0.000
"Cholesterol",mg,--,--,35,78
Amino Acids
Other
Ingredients
"BROWN SUGAR, TAPIOCA SYRUP, CREAM, BUTTER, SUGAR, MILK, NATURAL BUTTERSCOTCH FLAVOR, SEA SALT, VANILLA, SALT." Date available: 10/13/2017 Date last updated by company: 10/13/2017
