Source: USDA Branded Food Products Database Release December 2017 Software v.3.8.6.4 2017-10-02
Report Run at: December 17, 2017 02:05 EST
"Nutrient data for: 45111885, BERLIN NATURAL BAKERY, WHOLE GRAIN SPROUTED SPELT BREAD, UPC: 749601012028"
Food Group:  Branded Food Products Database
Common Name:

Nutrient,Unit,Data points,Std. Error,"1 SLICE = 32.0g",1Value per 100 g,
Proximates
"Energy",kcal,--,--,80,250
"Protein",g,--,--,3.00,9.38
"Total lipid (fat)",g,--,--,0.50,1.56
"Carbohydrate, by difference",g,--,--,16.00,50.00
"Fiber, total dietary",g,--,--,2.0,6.2
"Sugars, total",g,--,--,1.00,3.12
Minerals
"Calcium, Ca",mg,--,--,0,0
"Iron, Fe",mg,--,--,1.13,3.52
"Sodium, Na",mg,--,--,125,391
Vitamins
"Vitamin C, total ascorbic acid",mg,--,--,0.0,0.0
"Vitamin A, IU",IU,--,--,0,0
Lipids
"Fatty acids, total saturated",g,--,--,0.000,0.000
"Fatty acids, total trans",g,--,--,0.000,0.000
"Cholesterol",mg,--,--,0,0
Amino Acids
Other
Ingredients
"FRESHLY STONE GROUND ANCIENT WHOLE GRAIN SPROUTED SPELT FLOUR (WHEAT), FILTERED WATER, HONEY, YEAST, SEA SALT." Date available: 07/14/2017 Date last updated by company: 07/14/2017
