Source: USDA Branded Food Products Database Release December 2017 Software v.3.8.6.4 2017-10-02
Report Run at: December 17, 2017 02:06 EST
"Nutrient data for: 45272063, BERRIES 'N CHOCOLATE ANTIOXIDANT MIX, UPC: 086700060476"
Food Group:  Branded Food Products Database
Common Name:

Nutrient,Unit,Data points,Std. Error,"0.25 cup = 30.0g",1Value per 100 g,
Proximates
"Energy",kcal,--,--,150,500
"Protein",g,--,--,4.00,13.33
"Total lipid (fat)",g,--,--,10.00,33.33
"Carbohydrate, by difference",g,--,--,14.00,46.67
"Fiber, total dietary",g,--,--,2.0,6.7
"Sugars, total",g,--,--,8.00,26.67
Minerals
"Calcium, Ca",mg,--,--,20,67
"Iron, Fe",mg,--,--,1.20,4.00
"Potassium, K",mg,--,--,110,367
"Sodium, Na",mg,--,--,55,183
Vitamins
"Vitamin C, total ascorbic acid",mg,--,--,0.0,0.0
"Vitamin A, IU",IU,--,--,166,555
"Vitamin D",IU,--,--,0,0
Lipids
"Fatty acids, total saturated",g,--,--,2.001,6.670
"Fatty acids, total trans",g,--,--,0.000,0.000
"Cholesterol",mg,--,--,0,0
Amino Acids
Other
Ingredients
"ROASTED PEANUTS (PEANUTS; PEANUT, SUNFLOWER AND/OR CANOLA OIL, SALT), DARK CHOCOLATE STARS (CANE SUGAR, UNSWEETENED CHOCOLATE, COCOA BUTTER, SOY OR SUNFLOWER LECITHIN, VANILLA), DRY ROASTED ALMONDS (ALMONDS, SEA SALT), DRY ROASTED CASHEWS (CASHEWS, SEA SALT), DRIED CRANBERRIES (CRANBERRIES, CANE SUGAR, SUNFLOWER OIL), DRIED CHERRIES (CHERRIES, SUNFLOWER OIL), WALNUTS, DRIED BLUEBERRIES (BLUEBERRIES, CANE SUGAR, SUNFLOWER OIL)." Date available: 07/14/2017 Date last updated by company: 07/14/2017
