Source: USDA Branded Food Products Database Release December 2017 Software v.3.8.6.4 2017-10-02
Report Run at: December 17, 2017 02:13 EST
"Nutrient data for: 45134588, BERTOLLI Garlic Shrimp Risotto Dinner, UNPREPARED, GTIN: 00031000650346"
Food Group:  Branded Food Products Database
Common Name:

Nutrient,Unit,Data points,Std. Error,"0.25 package (340g) = 340.0g",1Value per 100 g,
Proximates
"Energy",kcal,--,--,320,94
"Protein",g,--,--,11.02,3.24
"Total lipid (fat)",g,--,--,11.02,3.24
"Carbohydrate, by difference",g,--,--,44.00,12.94
"Fiber, total dietary",g,--,--,3.1,0.9
"Sugars, total",g,--,--,4.01,1.18
Minerals
"Calcium, Ca",mg,--,--,150,44
"Iron, Fe",mg,--,--,0.71,0.21
"Potassium, K",mg,--,--,316,93
"Sodium, Na",mg,--,--,921,271
Vitamins
"Vitamin C, total ascorbic acid",mg,--,--,3.7,1.1
"Vitamin A, IU",IU,--,--,500,147
Lipids
"Fatty acids, total saturated",g,--,--,4.998,1.470
"Fatty acids, total monounsaturated",g,--,--,2.006,0.590
"Fatty acids, total polyunsaturated",g,--,--,1.496,0.440
"Fatty acids, total trans",g,--,--,0.000,0.000
"Cholesterol",mg,--,--,51,15
Amino Acids
Other
Ingredients
"ZUCCHINI, COOKED PARBOILED RICE (WATER, RICE, SALT), WATER, RED BELL PEPPERS, YELLOW SQUASH, COOKED GARLIC SHRIMP (SHRIMP, GARLIC POWDER, MALTODEXTRIN, MODIFIED CORN STARCH, CORN SYRUP SOLIDS, SALT, SUGAR, SPICES, LEMON JUICE SOLIDS, AUTOLYZED YEAST EXTRACT, CELLULOSE GUM, LEMON OIL, CITRIC ACID, NATURAL FLAVOR, TRICALCIUM PHOSPHATE [TO PREVENT CAKING], SODIUM TRIPOLYPHOSPHATE [TO RETAIN MOISTURE]), CREAM, PARMESAN CHEESE (PASTEURIZED MILK, CULTURES, SALT, ENZYMES), WHITE WINE, LESS THAN 2% OF: ONIONS, GARLIC, SOYBEAN OIL, RICE STARCH, SPICES, SALT. CONTAINS: MILK, SHELLFISH (SHRIMP)" Date available: 10/12/2017 Date last updated by company: 10/12/2017
