Source: USDA Branded Food Products Database Release December 2017 Software v.3.8.6.4 2017-10-02
Report Run at: December 17, 2017 02:11 EST
"Nutrient data for: 45249755, BERTOLLI, CLASSIC MEAL FOR 2, CHICKEN FLORENTINE & FARFALLE, UPC: 036200057148"
Food Group:  Branded Food Products Database
Common Name:

Nutrient,Unit,Data points,Std. Error,"0.5 PACKAGE, PER CONTAINER = 340.0g",1Value per 100 g,
Proximates
"Energy",kcal,--,--,449,132
"Protein",g,--,--,24.99,7.35
"Total lipid (fat)",g,--,--,19.01,5.59
"Carbohydrate, by difference",g,--,--,39.98,11.76
"Fiber, total dietary",g,--,--,4.1,1.2
"Sugars, total",g,--,--,2.99,0.88
Minerals
"Calcium, Ca",mg,--,--,299,88
"Iron, Fe",mg,--,--,1.56,0.46
"Sodium, Na",mg,--,--,901,265
Vitamins
"Vitamin C, total ascorbic acid",mg,--,--,0.0,0.0
"Vitamin A, IU",IU,--,--,860,253
Lipids
"Fatty acids, total saturated",g,--,--,9.010,2.650
"Fatty acids, total trans",g,--,--,0.000,0.000
"Cholesterol",mg,--,--,129,38
Amino Acids
Other
Ingredients
"BLANCHED EGG FARFALLE PASTA [WATER, ENRICHED SEMOLINA (DURUM WHEAT SEMOLINA, NIACIN, FERROUS SULFATE, THIAMIN MONONITRATE, RIBOFLAVIN, FOLIC ACID), EGG YOLKS, SOYBEAN OIL], WATER, FULLY COOKED SKINLESS BONELESS GRILLED GARLIC CHICKEN BREAST STRIPS WITH RIB MEAT [CHICKEN BREAST MEAT WITH RIB MEAT, WATER, SEASONING (DEXTROSE, DEHYDRATED ONION, DEHYDRATED GARLIC, FLAVORING), ISOLATED SOY PROTEIN PRODUCT (ISOLATED SOY PROTEIN, MODIFIED FOOD STARCH, CORN STARCH, CARRAGEENAN, SOY LECITHIN), SALT SODIUM PHOSPHATES], SPINACH, WHITE WINE, CREAM, GRATED PARMESAN CHEESE (PASTEURIZED COW'S MILK, CULTURE, SALT, ENZYMES), GRATED PECORINO ROMANO CHEESE (SHEEP'S MILK, CULTURE, SALT, ENZYMES), ONIONS, GARLIC, SOYBEAN OIL, RICE STARCH, SALT, SPICE." Date available: 09/01/2017 Date last updated by company: 09/01/2017
