Source: USDA Branded Food Products Database Release December 2017 Software v.3.8.6.4 2017-10-02
Report Run at: December 17, 2017 02:10 EST
"Nutrient data for: 45235218, BERTOLLI, ARRABBIATA SPICY TOMATO & RED PEPPER SAUCE, UPC: 036200067963"
Food Group:  Branded Food Products Database
Common Name:

Nutrient,Unit,Data points,Std. Error,"0.5 cup = 125.0g",1Value per 100 g,
Proximates
"Energy",kcal,--,--,80,64
"Protein",g,--,--,3.00,2.40
"Total lipid (fat)",g,--,--,2.00,1.60
"Carbohydrate, by difference",g,--,--,13.00,10.40
"Fiber, total dietary",g,--,--,2.0,1.6
"Sugars, total",g,--,--,11.00,8.80
Minerals
"Calcium, Ca",mg,--,--,40,32
"Iron, Fe",mg,--,--,1.44,1.15
"Sodium, Na",mg,--,--,340,272
Vitamins
"Vitamin C, total ascorbic acid",mg,--,--,27.0,21.6
"Vitamin A, IU",IU,--,--,1750,1400
Lipids
"Fatty acids, total saturated",g,--,--,0.000,0.000
"Fatty acids, total trans",g,--,--,0.000,0.000
"Cholesterol",mg,--,--,0,0
Amino Acids
Other
Ingredients
"TOMATO PUREE (WATER, TOMATO PASTE), DICED TOMATOES [TOMATOES, JUICE, CALCIUM CHLORIDE (FIRMING AID), CITRIC ACID], SUGAR, DEHYDRATED RED BELL PEPPERS, ONIONS, EXTRA VIRGIN OLIVE OIL, SPICES, SALT, GARLIC, CRUSHED RED CHILI PEPPER, CHIPOTLE CHILI PEPPER, C" Date available: 09/23/2016 Date last updated by company: 09/23/2016
