Source: USDA Branded Food Products Database Release December 2017 Software v.3.8.6.4 2017-10-02
Report Run at: December 17, 2017 02:15 EST
"Nutrient data for: 45139234, BERTOLLI, RISERVA MARINARA SAUCE, UPC: 036200430279"
Food Group:  Branded Food Products Database
Common Name:

Nutrient,Unit,Data points,Std. Error,"0.5 cup = 117.0g",1Value per 100 g,
Proximates
"Energy",kcal,--,--,110,94
"Protein",g,--,--,0.99,0.85
"Total lipid (fat)",g,--,--,8.00,6.84
"Carbohydrate, by difference",g,--,--,8.00,6.84
"Fiber, total dietary",g,--,--,2.0,1.7
"Sugars, total",g,--,--,4.00,3.42
Minerals
"Calcium, Ca",mg,--,--,20,17
"Iron, Fe",mg,--,--,0.73,0.62
"Sodium, Na",mg,--,--,450,385
Vitamins
"Vitamin C, total ascorbic acid",mg,--,--,2.5,2.1
"Vitamin A, IU",IU,--,--,750,641
Lipids
"Fatty acids, total saturated",g,--,--,2.001,1.710
"Fatty acids, total trans",g,--,--,0.000,0.000
"Cholesterol",mg,--,--,5,4
Amino Acids
Other
Ingredients
"TOMATOES, TOMATO PASTE, WATER, TOMATO PUREE, ONIONS, IMPORTED EXTRA VIRGIN OLIVE OIL, FRESH GARLIC, BUTTER (CREAM, SALT), SALT, BASIL. IMPORTED PARMIGIANO REGGIANO CHEESE (COW'S MILK, SALT, ENZYMES), SPICES, CITRIC ACID." Date available: 09/23/2016 Date last updated by company: 09/23/2016
