Source: USDA Branded Food Products Database Release December 2017 Software v.3.8.6.4 2017-10-02
Report Run at: December 17, 2017 02:29 EST
"Nutrient data for: 45137759, BEST CHOICE, APPLE SODA, APPLE, UPC: 070038635598"
Food Group:  Branded Food Products Database
Common Name:

Nutrient,Unit,Data points,Std. Error,"1 CAN = 354.0g",1Value per 100 g,
Proximates
"Energy",kcal,--,--,191,54
"Protein",g,--,--,0.00,0.00
"Total lipid (fat)",g,--,--,0.00,0.00
"Carbohydrate, by difference",g,--,--,48.00,13.56
"Sugars, total",g,--,--,47.01,13.28
Minerals
"Sodium, Na",mg,--,--,28,8
Vitamins
Lipids
Amino Acids
Other
Ingredients
"CARBONATED WATER, HIGH FRUCTOSE CORN SYRUP, CITRIC ACID, SODIUM BENZOATE (PRESERVATIVE), APPLE JUICE CONCENTRATE, CARAMEL COLOR, NATURAL FLAVOR." Date available: 07/14/2017 Date last updated by company: 07/14/2017
