Source: USDA Branded Food Products Database Release December 2017 Software v.3.8.6.4 2017-10-02
Report Run at: December 17, 2017 02:29 EST
"Nutrient data for: 45176193, BEST CHOICE, CHEESY SPREAD, ORIGINAL, UPC: 070038642015"
Food Group:  Branded Food Products Database
Common Name:

Nutrient,Unit,Data points,Std. Error,"1 ONZ = 28.0g",1Value per 100 g,
Proximates
"Energy",kcal,--,--,80,286
"Protein",g,--,--,4.00,14.29
"Total lipid (fat)",g,--,--,6.00,21.43
"Carbohydrate, by difference",g,--,--,3.00,10.71
"Fiber, total dietary",g,--,--,0.0,0.0
"Sugars, total",g,--,--,3.00,10.71
Minerals
"Calcium, Ca",mg,--,--,150,536
"Iron, Fe",mg,--,--,0.00,0.00
"Sodium, Na",mg,--,--,460,1643
Vitamins
"Vitamin C, total ascorbic acid",mg,--,--,0.0,0.0
"Vitamin A, IU",IU,--,--,535,1912
Lipids
"Fatty acids, total saturated",g,--,--,3.500,12.500
"Fatty acids, total trans",g,--,--,0.000,0.000
"Cholesterol",mg,--,--,15,54
Amino Acids
Other
Ingredients
"CULTURED MILK AND SKIM MILK, WATER, WHEY, SODIUM PHOSPHATE, CREAM, SALT, LACTIC ACID, SORBIC ACID (PRESERVATIVE), SODIUM ALGINATE, COLOR (APO CAROTENAL, BETA CAROTENE AND ANNATTO), ENZYMES, SODIUM CITRATE." Date available: 09/07/2017 Date last updated by company: 09/07/2017
