Source: USDA Branded Food Products Database Release December 2017 Software v.3.8.6.4 2017-10-02
Report Run at: December 17, 2017 02:39 EST
"Nutrient data for: 45016615, BEST FOODS, REAL MAYONNAISE, UPC: 048001024953"
Food Group:  Branded Food Products Database
Common Name:

Nutrient,Unit,Data points,Std. Error,"1 Tbsp = 14.0g",1Value per 100 g,
Proximates
"Energy",kcal,--,--,100,714
"Protein",g,--,--,0.00,0.00
"Total lipid (fat)",g,--,--,11.00,78.57
"Carbohydrate, by difference",g,--,--,0.00,0.00
Minerals
"Sodium, Na",mg,--,--,95,679
Vitamins
Lipids
"Fatty acids, total saturated",g,--,--,1.499,10.710
"Fatty acids, total monounsaturated",g,--,--,2.500,17.860
"Fatty acids, total polyunsaturated",g,--,--,6.000,42.860
"Fatty acids, total trans",g,--,--,0.000,0.000
"Cholesterol",mg,--,--,5,36
Amino Acids
Other
Ingredients
"SOYBEAN OIL, WATER, WHOLE EGGS AND EGG YOLKS, VINEGAR, SALT, SUGAR, LEMON JUICE, CALCIUM DISODIUM EDTA (USED TO PROTECT QUALITY), NATURAL FLAVORS." Date available: 07/14/2017 Date last updated by company: 07/14/2017
