Source: USDA Branded Food Products Database Release December 2017 Software v.3.8.6.4 2017-10-02
Report Run at: December 17, 2017 02:43 EST
"Nutrient data for: 45169807, BETSY'S BEST, GOURMET SEED BUTTER, UPC: 857034004029"
Food Group:  Branded Food Products Database
Common Name:

Nutrient,Unit,Data points,Std. Error,"2.0 Tbsp = 32.0g",1Value per 100 g,
Proximates
"Energy",kcal,--,--,180,562
"Protein",g,--,--,5.00,15.62
"Total lipid (fat)",g,--,--,14.00,43.75
"Carbohydrate, by difference",g,--,--,11.00,34.38
"Fiber, total dietary",g,--,--,4.0,12.5
"Sugars, total",g,--,--,4.00,12.50
Minerals
"Calcium, Ca",mg,--,--,40,125
"Iron, Fe",mg,--,--,1.69,5.28
"Sodium, Na",mg,--,--,90,281
Vitamins
"Vitamin C, total ascorbic acid",mg,--,--,1.9,5.8
"Vitamin A, IU",IU,--,--,0,0
Lipids
"Fatty acids, total saturated",g,--,--,1.501,4.690
"Fatty acids, total trans",g,--,--,0.000,0.000
"Cholesterol",mg,--,--,0,0
Amino Acids
Other
Ingredients
"SUNFLOWER SEEDS, DEMERARA SUGAR, CHIA SEEDS, ORGANIC HONEY, SUNFLOWER OIL, CINNAMON, PINK HIMALAYAN SALT, ORGANIC STEVIA LEAF EXTRACT, NATURAL FLAVORS" Date available: 07/14/2017 Date last updated by company: 07/14/2017
