Source: USDA Branded Food Products Database Release December 2017 Software v.3.8.6.4 2017-10-02
Report Run at: December 17, 2017 02:44 EST
"Nutrient data for: 45057514, BETTERBODY FOODS, PB FIT, PEANUT BUTTER POWDER, UPC: 897922002188"
Food Group:  Branded Food Products Database
Common Name:

Nutrient,Unit,Data points,Std. Error,"2.0 Tbsp = 12.0g",1Value per 100 g,
Proximates
"Energy",kcal,--,--,65,542
"Protein",g,--,--,4.00,33.33
"Total lipid (fat)",g,--,--,4.00,33.33
"Carbohydrate, by difference",g,--,--,3.00,25.00
"Fiber, total dietary",g,--,--,2.0,16.7
"Sugars, total",g,--,--,1.00,8.33
Minerals
"Calcium, Ca",mg,--,--,20,167
"Iron, Fe",mg,--,--,15.00,125.00
"Sodium, Na",mg,--,--,124,1033
Vitamins
"Vitamin C, total ascorbic acid",mg,--,--,50.0,416.6
"Vitamin A, IU",IU,--,--,0,0
Lipids
"Fatty acids, total saturated",g,--,--,0.000,0.000
"Fatty acids, total trans",g,--,--,0.000,0.000
"Cholesterol",mg,--,--,0,0
Amino Acids
Other
Ingredients
"PEANUTS, SUGAR AND SALT." Date available: 06/24/2017 Date last updated by company: 06/24/2017
