Source: USDA Branded Food Products Database Release December 2017 Software v.3.8.6.4 2017-10-02
Report Run at: December 17, 2017 02:47 EST
"Nutrient data for: 45237410, BETTER VALU, THOUSAND ISLAND DRESSING, UPC: 079801004067"
Food Group:  Branded Food Products Database
Common Name:

Nutrient,Unit,Data points,Std. Error,"2.0 Tbsp = 30.0g",1Value per 100 g,
Proximates
"Energy",kcal,--,--,80,267
"Protein",g,--,--,0.00,0.00
"Total lipid (fat)",g,--,--,6.00,20.00
"Carbohydrate, by difference",g,--,--,6.00,20.00
"Fiber, total dietary",g,--,--,0.0,0.0
"Sugars, total",g,--,--,5.00,16.67
Minerals
"Calcium, Ca",mg,--,--,0,0
"Iron, Fe",mg,--,--,0.00,0.00
"Sodium, Na",mg,--,--,300,1000
Vitamins
"Vitamin C, total ascorbic acid",mg,--,--,0.0,0.0
"Vitamin A, IU",IU,--,--,0,0
Lipids
"Fatty acids, total saturated",g,--,--,0.999,3.330
"Fatty acids, total trans",g,--,--,0.000,0.000
"Cholesterol",mg,--,--,5,17
Amino Acids
Other
Ingredients
"WATER, HIGH FRUCTOSE CORN SYRUP, VEGETABLE OIL (CANOLA AND /OR SOYBEAN), DISTILLED VINEGAR, CUCUMBERS, TOMATO PASTE, SALT, EGG YOLK, CONTAINS LESS THAN 1% OF MODIFIED FOOD STARCH, MUSTARD FLOUR, XANTHAN GUM, PHOSPHORIC ACID, POLYSORBATE 60, DRIED ONION, SPICES, ARTIFICIAL COLOR, PROPYLENE GLYCOL ALGINATE, POTASSIUM SORBATE AND SODIUM BENZOATE AS PRESERVATIVES, NATURAL FLAVORS, BELL PEPPERS, CALCIUM DISODIUM EDTA TO PROTECT FLAVOR, TURMERIC." Date available: 07/14/2017 Date last updated by company: 07/14/2017
