Source: USDA Branded Food Products Database Release December 2017 Software v.3.8.6.4 2017-10-02
Report Run at: December 17, 2017 02:50 EST
"Nutrient data for: 45045715, BEYOND BEEF FEISTY CRUMBLES, UPC: 852629004132"
Food Group:  Branded Food Products Database
Common Name:

Nutrient,Unit,Data points,Std. Error,"0.5 cup = 55.0g",1Value per 100 g,
Proximates
"Energy",kcal,--,--,80,145
"Protein",g,--,--,13.00,23.64
"Total lipid (fat)",g,--,--,3.00,5.45
"Carbohydrate, by difference",g,--,--,1.00,1.82
"Fiber, total dietary",g,--,--,1.0,1.8
"Sugars, total",g,--,--,0.00,0.00
Minerals
"Calcium, Ca",mg,--,--,20,36
"Iron, Fe",mg,--,--,2.70,4.91
"Sodium, Na",mg,--,--,300,545
Vitamins
"Vitamin C, total ascorbic acid",mg,--,--,0.0,0.0
"Vitamin A, IU",IU,--,--,0,0
Lipids
"Fatty acids, total saturated",g,--,--,0.000,0.000
"Fatty acids, total trans",g,--,--,0.000,0.000
"Cholesterol",mg,--,--,0,0
Amino Acids
Other
Ingredients
"WATER, PEA PROTEIN ISOLATE, CANOLA AND SUNFLOWER OIL, SPICE, YEAST EXTRACT, RICE FLOUR, TOMATO POWDER, MALTODEXTRIN, SUGAR, POTASSIUM CHLORIDE, POTASSIUM BICARBONATE, CARAMEL COLOR, LIME JUICE CONCENTRATE, CITRIC ACID, ONION EXTRACT, CALCIUM SULFATE, SALT, CHILI PEPPER EXTRACT, NATURAL FLAVOR, GARLIC EXTRACT, PAPRIKA EXTRACT (FOR COLOR)." Date available: 07/14/2017 Date last updated by company: 07/14/2017
