Source: USDA Branded Food Products Database Release December 2017 Software v.3.8.6.4 2017-10-02
Report Run at: December 17, 2017 02:51 EST
"Nutrient data for: 45181740, BFL NORMANDE, SPARKLING APPLE CIDER, UPC: 022014251018"
Food Group:  Branded Food Products Database
Common Name:

Nutrient,Unit,Data points,Std. Error,"1 cup = 240.0g",1Value per 100 g,
Proximates
"Energy",kcal,--,--,101,42
"Protein",g,--,--,1.01,0.42
"Total lipid (fat)",g,--,--,0.00,0.00
"Carbohydrate, by difference",g,--,--,25.01,10.42
"Sugars, total",g,--,--,25.01,10.42
Minerals
"Calcium, Ca",mg,--,--,0,0
"Iron, Fe",mg,--,--,1.90,0.79
"Sodium, Na",mg,--,--,7,3
Vitamins
"Vitamin C, total ascorbic acid",mg,--,--,45.1,18.8
"Vitamin A, IU",IU,--,--,0,0
Lipids
Amino Acids
Other
Ingredients
"APPLE JUICE, CARBON DIOXIDE." Date available: 07/14/2017 Date last updated by company: 07/14/2017
