Source: USDA Branded Food Products Database Release December 2017 Software v.3.8.6.4 2017-10-02
Report Run at: December 17, 2017 02:56 EST
"Nutrient data for: 45278069, BIG ALASKA BAR, UPC: 070640336111"
Food Group:  Branded Food Products Database
Common Name:

Nutrient,Unit,Data points,Std. Error,"1 BAR = 92.0g",1Value per 100 g,
Proximates
"Energy",kcal,--,--,250,272
"Protein",g,--,--,3.00,3.26
"Total lipid (fat)",g,--,--,15.00,16.30
"Carbohydrate, by difference",g,--,--,27.00,29.35
"Fiber, total dietary",g,--,--,1.0,1.1
"Sugars, total",g,--,--,21.00,22.83
Minerals
"Calcium, Ca",mg,--,--,100,109
"Iron, Fe",mg,--,--,0.36,0.39
"Potassium, K",mg,--,--,135,147
"Sodium, Na",mg,--,--,70,76
Vitamins
"Vitamin C, total ascorbic acid",mg,--,--,0.0,0.0
"Vitamin A, IU",IU,--,--,400,435
Lipids
"Fatty acids, total saturated",g,--,--,11.003,11.960
"Fatty acids, total trans",g,--,--,0.000,0.000
"Cholesterol",mg,--,--,25,27
Amino Acids
Other
Ingredients
"REDUCED FAT ICE CREAM (MILK, CREAM, SUGAR, CORN SYRUP, SKIM MILK, WHEY, BUTTERMILK, CONTAINS LESS THAN 1% OF VANILLA EXTRACT, ARTIFICIAL FLAVOR, MONO AND DIGLYCERIDES, CAROB BEAN GUM, CELLULOSE GUM, CARRAGEENAN, VITAMIN A PALMITATE). COATING (COCONUT OIL, SUGAR, MILK, CHOCOLATE LIQUOR, COCOA BUTTER, HYDROGENATED COCONUT OIL, SOYBEAN OIL, WHEY, COCOA PROCESSED WITH ALKALI, SOY LECITHIN, SALT, VANILLIN)." Date available: 07/14/2017 Date last updated by company: 07/14/2017
