Source: USDA Branded Food Products Database Release December 2017 Software v.3.8.6.4 2017-10-02
Report Run at: December 17, 2017 03:06 EST
"Nutrient data for: 45181200, BIG WIN, DELUXE CREAMY CHEESE SAUCE & SHELL PASTA, UPC: 011822583572"
Food Group:  Branded Food Products Database
Common Name:

Nutrient,Unit,Data points,Std. Error,"0.33 BOX = 113.0g",1Value per 100 g,
Proximates
"Energy",kcal,--,--,370,327
"Protein",g,--,--,12.00,10.62
"Total lipid (fat)",g,--,--,12.99,11.50
"Carbohydrate, by difference",g,--,--,52.00,46.02
"Fiber, total dietary",g,--,--,2.0,1.8
"Sugars, total",g,--,--,6.00,5.31
Minerals
"Calcium, Ca",mg,--,--,150,133
"Iron, Fe",mg,--,--,1.12,0.99
"Sodium, Na",mg,--,--,860,761
Vitamins
"Vitamin C, total ascorbic acid",mg,--,--,0.0,0.0
"Vitamin A, IU",IU,--,--,62,55
Lipids
"Fatty acids, total saturated",g,--,--,3.503,3.100
"Fatty acids, total trans",g,--,--,0.000,0.000
"Cholesterol",mg,--,--,10,9
Amino Acids
Other
Ingredients
"ENRICHED MACARONI PRODUCT (WHEAT FLOUR, DURUM FLOUR, NIACIN, FERROUS SULFATE, THIAMIN MONONITRATE, RIBOFLAVIN, AND FOLIC ACID), WATER, CHEDDAR CHEESE (PASTEURIZED MILK, CHEESE CULTURE, SALT, ENZYMES), SOY AND/OR CANOLA OIL, WHEY, NON-FAT DRY MILK, MALTODEXTRIN, SODIUM PHOSPHATE, NATURAL FLAVORS, SALT, COLOR ADDED (BETA CAROTENE, PAPRIKA EXTRACT), LACTIC ACID, SODIUM ALGINATE, MONO- AND DIGLYCERIDES, XANTHAN GUM." Date available: 10/18/2017 Date last updated by company: 10/18/2017
