Source: USDA Branded Food Products Database Release December 2017 Software v.3.8.6.4 2017-10-02
Report Run at: December 17, 2017 02:57 EST
"Nutrient data for: 45244245, BIG CITY REDS SKINLESS BEEF HOT DOGS, 4-2.5 POUND PACKAGES PER 10 POUND NET WEIGHT MASTER CASE. 8 HOT DOGS PER 1 POUND, EACH HOT DOG IS 6 INCHES IN LENGTH, UNPREPARED, GTIN: 10078305683393"
Food Group:  Branded Food Products Database
Common Name:

Nutrient,Unit,Data points,Std. Error,"56.0 g = 56.0g",1Value per 100 g,
Proximates
"Energy",kcal,--,--,170,304
"Protein",g,--,--,8.00,14.29
"Total lipid (fat)",g,--,--,15.00,26.79
"Carbohydrate, by difference",g,--,--,1.00,1.79
"Fiber, total dietary",g,--,--,0.0,0.0
"Sugars, total",g,--,--,1.00,1.79
Minerals
"Calcium, Ca",mg,--,--,20,36
"Iron, Fe",mg,--,--,0.72,1.29
"Sodium, Na",mg,--,--,450,804
Vitamins
"Vitamin C, total ascorbic acid",mg,--,--,21.0,37.5
"Vitamin A, IU",IU,--,--,0,0
Lipids
"Fatty acids, total saturated",g,--,--,5.998,10.710
"Fatty acids, total trans",g,--,--,1.002,1.790
"Cholesterol",mg,--,--,35,62
Amino Acids
Other
Ingredients
"BEEF, WATER, SALT, DEXTROSE, FLAVORINGS, EXTRACTIVES OF PAPRIKA, SODIUM ERYTHORATE, SODIUM NITRITE." Date last updated by company: 01/03/2017
