Source: USDA Branded Food Products Database Release December 2017 Software v.3.8.6.4 2017-10-02
Report Run at: December 17, 2017 03:01 EST
"Nutrient data for: 45272867, BIG KATUNA BURRITO, UPC: 670452108342"
Food Group:  Branded Food Products Database
Common Name:

Nutrient,Unit,Data points,Std. Error,"2.0 PIECES = 366.0g",1Value per 100 g,
Proximates
"Energy",kcal,--,--,479,131
Minerals
Vitamins
Lipids
Amino Acids
Other
Ingredients
"SEASONED RICE [WATER, WHITE RICE, SUSHI SEASONING ( SUGAR, WATER, VINEGAR, SALT), TREHALOSE], TUNA (YELLOWFIN TUNA, TASTELESS SMOKE USED AS A PRESERVATIVE TO PROMOTE COLOR RETENTION), CUCUMBER, AVOCADO, LETTUCE, MANGO, CARROT, SEAWEED SALAD [SEAWEED (WAKAME, SUGINORI), AGAR-AGAR, SESAME OIL, SUGAR, SESAME SEEDS, KIKURAGE MUSHROOMS, VINEGAR, SALT, TAPIOCA SYRUP (TAPIOCA STARCH, WATER), SOY SAUCE POWDER, DEXTRIN, TREHALOSE, CHILI OIL (SESAME OIL, CHILI PEPPER), DISODIUM SUCCINATE, GLYCIN, FD&C YELLOW NO.5, FD&C BLUE NO. 1], GREEN ONION, TERIYAKI SAUCE [WATER, SUGAR, SOY SAUCE (WATER, WHEAT, SOYBEANS, SALT), SALTED RICE WINE, MODIFIED FOOD STARCH, DISTILLED VINEGAR, GINGER PUREE, SALT, CARAMEL COLOR, XANTHAN GUM, GARLIC PUREE, SPICE], MAYONNAISE (SOYBEAN OIL, WATER, WHOLE EGGS AND EGG YOLKS, VINEGAR, SALT, SUGAR, LEMON JUICE, CALCIUM DISODIUM EDTA TO PROTECT QUALITY, NATURAL FLAVOR), SOY SAUCE (WATER, WHEAT, SOYBEANS, SALT, SODIUM BENZOATE AS A PRESERVATIVE), SESAME SEED OIL, SEAWEED, SESAME SEEDS, SUSHI SEASONING (SUGAR, WATER, VINEGAR, SALT)." Date available: 03/04/2017 Date last updated by company: 03/04/2017
