Source: USDA Branded Food Products Database Release December 2017 Software v.3.8.6.4 2017-10-02
Report Run at: December 17, 2017 03:15 EST
"Nutrient data for: 45171714, BIG Y, OLD FASHIONED WHOLE WHEAT BREAD, UPC: 018894462347"
Food Group:  Branded Food Products Database
Common Name:

Nutrient,Unit,Data points,Std. Error,"1 SLICE = 43.0g",1Value per 100 g,
Proximates
"Energy",kcal,--,--,100,233
"Protein",g,--,--,4.00,9.30
"Total lipid (fat)",g,--,--,1.50,3.49
"Carbohydrate, by difference",g,--,--,18.00,41.86
"Fiber, total dietary",g,--,--,3.0,7.0
"Sugars, total",g,--,--,1.00,2.33
Minerals
"Calcium, Ca",mg,--,--,40,93
"Iron, Fe",mg,--,--,1.26,2.92
"Sodium, Na",mg,--,--,210,488
Vitamins
"Vitamin C, total ascorbic acid",mg,--,--,0.0,0.0
"Thiamin",mg,--,--,0.000,0.000
"Riboflavin",mg,--,--,0.034,0.079
"Niacin",mg,--,--,1.396,3.247
"Vitamin A, IU",IU,--,--,0,0
Lipids
"Fatty acids, total saturated",g,--,--,0.000,0.000
"Fatty acids, total monounsaturated",g,--,--,0.000,0.000
"Fatty acids, total polyunsaturated",g,--,--,1.002,2.330
"Fatty acids, total trans",g,--,--,0.000,0.000
"Cholesterol",mg,--,--,0,0
Amino Acids
Other
Ingredients
"WHOLE WHEAT FLOUR, WATER, WHEAT GLUTEN, SOYBEAN OIL, MOLASSES, CONTAINS 2% OR LESS OF THE FOLLOWING: YEAST, SALT, WHEAT BRAN, VINEGAR, DOUGH CONDITIONERS (SODIUM STEAROYL LACTYLATE, MONOGLYCERIDES, ASCORBIC ACID), CALCIUM PROPIONATE (PRESERVATIVE), YEAST NUTRIENTS (AMMONIUM CHLORIDE, CALCIUM SULFATE), CULTURED WHEAT FLOUR, SOY LECITHIN." Date available: 07/14/2017 Date last updated by company: 07/14/2017
