Source: USDA Branded Food Products Database Release December 2017 Software v.3.8.6.4 2017-10-02
Report Run at: December 17, 2017 03:15 EST
"Nutrient data for: 45154738, BIG Y, ORANGE JUICE FROM CONCENTRATE, ORIGINAL, UPC: 018894303725"
Food Group:  Branded Food Products Database
Common Name:

Nutrient,Unit,Data points,Std. Error,"8.0 OZA = 240.0g",1Value per 100 g,
Proximates
"Energy",kcal,--,--,110,46
"Protein",g,--,--,1.99,0.83
"Total lipid (fat)",g,--,--,0.00,0.00
"Carbohydrate, by difference",g,--,--,27.00,11.25
"Sugars, total",g,--,--,21.00,8.75
Minerals
"Calcium, Ca",mg,--,--,19,8
"Potassium, K",mg,--,--,470,196
"Sodium, Na",mg,--,--,14,6
Vitamins
"Vitamin C, total ascorbic acid",mg,--,--,72.0,30.0
Lipids
Amino Acids
Other
Ingredients
"WATER, ORANGE JUICE CONCENTRATE." Date available: 07/14/2017 Date last updated by company: 07/14/2017
