Source: USDA Branded Food Products Database Release December 2017 Software v.3.8.6.4 2017-10-02
Report Run at: December 17, 2017 03:06 EST
"Nutrient data for: 45154635, BIG WIN, CRANBERRY NUT MIX, UPC: 011822584012"
Food Group:  Branded Food Products Database
Common Name:

Nutrient,Unit,Data points,Std. Error,"2.0 ONZ = 57.0g",1Value per 100 g,
Proximates
"Energy",kcal,--,--,260,456
"Protein",g,--,--,8.00,14.04
"Total lipid (fat)",g,--,--,15.00,26.32
"Carbohydrate, by difference",g,--,--,26.00,45.61
"Fiber, total dietary",g,--,--,4.0,7.0
"Sugars, total",g,--,--,18.00,31.58
Minerals
"Calcium, Ca",mg,--,--,40,70
"Iron, Fe",mg,--,--,1.58,2.77
"Sodium, Na",mg,--,--,60,105
Vitamins
"Vitamin C, total ascorbic acid",mg,--,--,2.1,3.7
"Vitamin A, IU",IU,--,--,88,154
Lipids
"Fatty acids, total saturated",g,--,--,2.001,3.510
"Fatty acids, total trans",g,--,--,0.000,0.000
"Cholesterol",mg,--,--,0,0
Amino Acids
Other
Ingredients
"PEANUTS, RAISINS, SUNFLOWER SEEDS, GOLDEN RAISINS (RAISINS, SUNFLOWER OIL, SULFUR DIOXIDE ADDED FOR COLOR RETENTION), DRIED CRANBERRIES (CRANBERRIES, SUGAR, SUNFLOWER OIL), PUMPKIN SEEDS, ALMONDS, VEGETABLE OIL (MAY CONTAIN ONE OR MORE OF THE FOLLOWING: PEANUT, CANOLA, SUNFLOWER AND, OR SOYBEAN OIL), SALT." Date available: 07/14/2017 Date last updated by company: 07/14/2017
