Source: USDA Branded Food Products Database Release December 2017 Software v.3.8.6.4 2017-10-02
Report Run at: December 17, 2017 03:04 EST
"Nutrient data for: 45164500, BIG TEX, JUICE FROM CONCENTRATE, ORANGE & PINEAPPLE, UPC: 070570000373"
Food Group:  Branded Food Products Database
Common Name:

Nutrient,Unit,Data points,Std. Error,"1 CAN = 163.0g",1Value per 100 g,
Proximates
"Energy",kcal,--,--,80,49
"Protein",g,--,--,0.00,0.00
"Total lipid (fat)",g,--,--,0.00,0.00
"Carbohydrate, by difference",g,--,--,20.99,12.88
"Sugars, total",g,--,--,20.00,12.27
Minerals
"Potassium, K",mg,--,--,249,153
"Sodium, Na",mg,--,--,10,6
Vitamins
"Vitamin C, total ascorbic acid",mg,--,--,70.7,43.4
Lipids
Amino Acids
Other
Ingredients
"WATER, CONCENTRATED ORANGE JUICE, CONCENTRATED PINEAPPLE JUICE, ASCORBIC ACID (VITAMIN C)." Date available: 07/14/2017 Date last updated by company: 07/14/2017
