Source: USDA Branded Food Products Database Release December 2017 Software v.3.8.6.4 2017-10-02
Report Run at: December 17, 2017 03:09 EST
"Nutrient data for: 45171293, BIG WIN, PEPPERMINT PUFFS, UPC: 011822011204"
Food Group:  Branded Food Products Database
Common Name:

Nutrient,Unit,Data points,Std. Error,"3.0 PIECES = 16.0g",1Value per 100 g,
Proximates
"Energy",kcal,--,--,60,375
"Protein",g,--,--,0.00,0.00
"Total lipid (fat)",g,--,--,0.00,0.00
"Carbohydrate, by difference",g,--,--,15.00,93.75
"Fiber, total dietary",g,--,--,0.0,0.0
"Sugars, total",g,--,--,15.00,93.75
Minerals
"Calcium, Ca",mg,--,--,0,0
"Iron, Fe",mg,--,--,0.00,0.00
"Sodium, Na",mg,--,--,0,0
Vitamins
"Vitamin C, total ascorbic acid",mg,--,--,0.0,0.0
"Vitamin A, IU",IU,--,--,0,0
Lipids
"Fatty acids, total saturated",g,--,--,0.000,0.000
"Fatty acids, total trans",g,--,--,0.000,0.000
"Cholesterol",mg,--,--,0,0
Amino Acids
Other
Ingredients
"PURE CANE SUGAR, INVERT SUGAR, OIL OF PEPPERMINT, RED 40, RED 40 LAKE." Date available: 07/14/2017 Date last updated by company: 07/14/2017
