Source: USDA Branded Food Products Database Release December 2017 Software v.3.8.6.4 2017-10-02
Report Run at: December 17, 2017 03:18 EST
"Nutrient data for: 45159416, BIKAJI, JHALMURI, LITE, UPC: 906005503211"
Food Group:  Branded Food Products Database
Common Name:

Nutrient,Unit,Data points,Std. Error,"1 ONZ = 28.0g",1Value per 100 g,
Proximates
"Energy",kcal,--,--,152,543
"Protein",g,--,--,4.00,14.29
"Total lipid (fat)",g,--,--,8.00,28.57
"Carbohydrate, by difference",g,--,--,17.00,60.71
"Fiber, total dietary",g,--,--,1.3,4.6
"Sugars, total",g,--,--,1.00,3.57
Minerals
"Calcium, Ca",mg,--,--,10,36
"Iron, Fe",mg,--,--,0.36,1.29
"Potassium, K",mg,--,--,89,318
"Sodium, Na",mg,--,--,292,1043
Vitamins
"Vitamin C, total ascorbic acid",mg,--,--,0.0,0.0
"Vitamin A, IU",IU,--,--,0,0
Lipids
"Fatty acids, total saturated",g,--,--,1.999,7.140
"Fatty acids, total trans",g,--,--,0.000,0.000
"Cholesterol",mg,--,--,0,0
Amino Acids
Other
Ingredients
"PUFFED RICE (43%), PEANUTS (35%), DRIED POTATO POWDER, MOTH FLOUR GRAM FLOUR, MUSTARD OIL, EDIBLE VEGETABLE OIL (PEANUT OIL AND/OR PALMOLEIN OIL AND/OR CORN OIL), SALT, CORIANDER SEEDS, CUMIN, RED CHILLI POWDER, CURRY LEAVES, FENNEL SEEDS, RAW MANGO POWDER, BLACK POWDER, BLACK SALT." Date available: 10/06/2016 Date last updated by company: 10/06/2016
