Source: USDA Branded Food Products Database Release December 2017 Software v.3.8.6.4 2017-10-02
Report Run at: December 17, 2017 03:18 EST
"Nutrient data for: 45028668, BILINSKI'S, ORGANIC CHICKEN SAUSAGE, SPINACH & FETA, UPC: 071728071009"
Food Group:  Branded Food Products Database
Common Name:

Nutrient,Unit,Data points,Std. Error,"1 LINK = 68.0g",1Value per 100 g,
Proximates
"Energy",kcal,--,--,80,118
"Protein",g,--,--,12.00,17.65
"Total lipid (fat)",g,--,--,2.50,3.68
"Carbohydrate, by difference",g,--,--,1.00,1.47
"Fiber, total dietary",g,--,--,0.0,0.0
"Sugars, total",g,--,--,0.00,0.00
Minerals
"Calcium, Ca",mg,--,--,20,29
"Iron, Fe",mg,--,--,0.58,0.86
"Sodium, Na",mg,--,--,530,779
Vitamins
"Vitamin C, total ascorbic acid",mg,--,--,2.9,4.3
"Vitamin A, IU",IU,--,--,405,595
Lipids
"Fatty acids, total saturated",g,--,--,0.503,0.740
"Fatty acids, total trans",g,--,--,0.000,0.000
"Cholesterol",mg,--,--,45,66
Amino Acids
Other
Ingredients
"ORGANIC SKINLESS CHICKEN, ORGANIC SPINACH, WATER, ORGANIC FETA CHEESE (ORGANIC PASTEURIZED MILK, ORGANIC NONFAT MILK, SALT, CHEESE CULTURE, ENZYMES, CALCIUM CHLORIDE), ORGANIC GARLIC, SEA SALT, ORGANIC BLACK PEPPER." Date available: 07/14/2017 Date last updated by company: 07/14/2017
