Source: USDA Branded Food Products Database Release December 2017 Software v.3.8.6.4 2017-10-02
Report Run at: December 17, 2017 03:19 EST
"Nutrient data for: 45189949, BILL BARON'S SAVOURY SECRETS, WILD RICE & SHITAKE MUSHROOM HEARTY STUFFING MIX, UPC: 880448000035"
Food Group:  Branded Food Products Database
Common Name:

Nutrient,Unit,Data points,Std. Error,"32.0 GRM = 32.0g",1Value per 100 g,
Proximates
"Energy",kcal,--,--,110,344
"Protein",g,--,--,4.00,12.50
"Total lipid (fat)",g,--,--,0.50,1.56
"Carbohydrate, by difference",g,--,--,23.00,71.88
"Fiber, total dietary",g,--,--,1.0,3.1
"Sugars, total",g,--,--,1.00,3.12
Minerals
"Calcium, Ca",mg,--,--,20,62
"Iron, Fe",mg,--,--,3.38,10.55
"Sodium, Na",mg,--,--,460,1438
Vitamins
"Vitamin C, total ascorbic acid",mg,--,--,3.7,11.7
"Vitamin A, IU",IU,--,--,313,977
Lipids
"Fatty acids, total saturated",g,--,--,0.000,0.000
"Fatty acids, total trans",g,--,--,0.000,0.000
"Cholesterol",mg,--,--,0,0
Amino Acids
Other
Ingredients
"BREAD [ENRICHED WHEAT FLOUR (ENRICHED WITH NIACIN, REDUCED IRON, THIAMINE MONONITRATE [VITAMIN B1], RIBOFLAVIN [VITAMIN B2], FOLIC ACID), SUGAR, SOYBEAN OIL, SALT, YEAST], WILD RICE, ENRICHED WHITE RICE (RICE, IRON, PHOSPHATE, NIACIN, THIAMINE MONONITRATE [VITAMIN B1], FOLIC ACID), SHITAKE MUSHROOMS, SEA SALT, SOY FLOUR, ONION, YEAST EXTRACT, SPICES, CELERY, NATURAL FLAVORS, PARSLEY, ORGANIC CANOLA OIL, TURMERIC EXTRACT." Date available: 07/14/2017 Date last updated by company: 07/14/2017
