Source: USDA Branded Food Products Database Release December 2017 Software v.3.8.6.4 2017-10-02
Report Run at: December 17, 2017 03:20 EST
"Nutrient data for: 45190041, BILLY GOMER'S, BBQ SAUCE, SWEET-N-TANGY, UPC: 893872002018"
Food Group:  Branded Food Products Database
Common Name:

Nutrient,Unit,Data points,Std. Error,"1 ONZ = 28.0g",1Value per 100 g,
Proximates
"Energy",kcal,--,--,27,96
"Protein",g,--,--,0.00,0.00
"Total lipid (fat)",g,--,--,0.00,0.00
"Carbohydrate, by difference",g,--,--,7.00,25.00
"Fiber, total dietary",g,--,--,0.0,0.0
"Sugars, total",g,--,--,6.00,21.43
Minerals
"Calcium, Ca",mg,--,--,0,0
"Iron, Fe",mg,--,--,0.00,0.00
"Sodium, Na",mg,--,--,165,589
Vitamins
"Vitamin C, total ascorbic acid",mg,--,--,0.6,2.1
"Vitamin A, IU",IU,--,--,150,536
Lipids
"Fatty acids, total saturated",g,--,--,0.000,0.000
"Fatty acids, total trans",g,--,--,0.000,0.000
"Cholesterol",mg,--,--,0,0
Amino Acids
Other
Ingredients
"KETCHUP (TOMATO CONCENTRATE, SUGAR, VINEGAR, SALT, ONION POWDER, SPICE, NATURAL FLAVORS), WORCESTERSHIRE SAUCE (DISTILLED VINEGAR, MOLASSES, CORN SYRUP, WATER, SALT, CARAMEL COLOR, SUGAR, SPICES, ANCHOVY PUREE, NATURAL FLAVOR, [CONTAINS SOY] AND TAMARIND), SUGAR, LIQUID SMOKE, VINEGAR, BROWN SUGAR, PREPARED MUSTARD (DISTILLED VINEGAR, WATER, #1 GRADE MUSTARD SEED, SALT, TURMERIC, OLEORESIN OF PAPRIKA, SPICES), HOT SAUCE (PEPPERS, VINEGAR, WATER, SALT, AND GARLIC), APPLE CIDER VINEGAR, AND ONION." Date available: 07/14/2017 Date last updated by company: 07/14/2017
