Source: USDA Branded Food Products Database Release December 2017 Software v.3.8.6.4 2017-10-02
Report Run at: December 17, 2017 03:19 EST
"Nutrient data for: 45018238, BILL JOHNSON'S, BARBEQUE SAUCE, HOT & SPICY, UPC: 077794000097"
Food Group:  Branded Food Products Database
Common Name:

Nutrient,Unit,Data points,Std. Error,"2.0 Tbsp = 32.0g",1Value per 100 g,
Proximates
"Energy",kcal,--,--,40,125
"Protein",g,--,--,0.00,0.00
"Total lipid (fat)",g,--,--,0.00,0.00
"Carbohydrate, by difference",g,--,--,10.00,31.25
"Fiber, total dietary",g,--,--,0.0,0.0
"Sugars, total",g,--,--,9.00,28.12
Minerals
"Calcium, Ca",mg,--,--,0,0
"Iron, Fe",mg,--,--,0.00,0.00
"Sodium, Na",mg,--,--,260,812
Vitamins
"Vitamin C, total ascorbic acid",mg,--,--,4.1,12.7
"Vitamin A, IU",IU,--,--,169,528
Lipids
"Fatty acids, total saturated",g,--,--,0.000,0.000
"Fatty acids, total trans",g,--,--,0.000,0.000
"Cholesterol",mg,--,--,0,0
Amino Acids
Other
Ingredients
"TOMATO PASTE (WATER, SUGAR, AND/OR CORN SWEETENER), WORCESTERSHIRE SAUCE, VINEGAR, LEMON JUICE, SOYBEAN OIL, SPICES, SALT, LIQUID SMOKE, 1/10 OF 1% SODIUM BENZOATE AS A PRESERVATIVE." Date available: 07/14/2017 Date last updated by company: 07/14/2017
