Source: USDA Branded Food Products Database Release December 2017 Software v.3.8.6.4 2017-10-02
Report Run at: December 17, 2017 03:23 EST
"Nutrient data for: 45188772, BIRCHER MUESLI, UPC: 9340224007340"
Food Group:  Branded Food Products Database
Common Name:

Nutrient,Unit,Data points,Std. Error,"1 CONTAINER = 220.0g",1Value per 100 g,
Proximates
"Energy",kcal,--,--,279,127
"Protein",g,--,--,7.00,3.18
"Total lipid (fat)",g,--,--,15.00,6.82
"Carbohydrate, by difference",g,--,--,30.01,13.64
"Fiber, total dietary",g,--,--,7.9,3.6
"Sugars, total",g,--,--,15.99,7.27
Minerals
"Calcium, Ca",mg,--,--,99,45
"Iron, Fe",mg,--,--,0.33,0.15
"Magnesium, Mg",mg,--,--,11,5
"Potassium, K",mg,--,--,209,95
"Sodium, Na",mg,--,--,11,5
Vitamins
"Vitamin C, total ascorbic acid",mg,--,--,20.7,9.4
"Vitamin A, IU",IU,--,--,18,8
Lipids
"Fatty acids, total saturated",g,--,--,2.992,1.360
"Fatty acids, total trans",g,--,--,0.000,0.000
"Cholesterol",mg,--,--,0,0
Amino Acids
Other
Ingredients
"ALMOND MILK, (FILTERED WATER, ALMOND PASTE), APPLE JUICE, SHREDDED APPLE, WHOLE GRAIN OATS, CHIA SEED, WALNUTS, ACAI PUREE, COCONUT SUGAR, VIRGIN COCONUT OIL, DRIED BLUEBERRIES, ASCORBIC ACID (VITAMIN C)." Date available: 08/23/2017 Date last updated by company: 08/23/2017
