Source: USDA Branded Food Products Database Release December 2017 Software v.3.8.6.4 2017-10-02
Report Run at: December 17, 2017 03:26 EST
"Nutrient data for: 45122047, BIRDS EYE, STEAMFRESH, LIGHTLY SAUCED ROASTED RED POTATOES WITH CHIVE BUTTER SAUCE, UPC: 014500013477"
Food Group:  Branded Food Products Database
Common Name:

Nutrient,Unit,Data points,Std. Error,"1 cup = 158.0g",1Value per 100 g,
Proximates
"Energy",kcal,--,--,130,82
"Protein",g,--,--,3.00,1.90
"Total lipid (fat)",g,--,--,2.01,1.27
"Carbohydrate, by difference",g,--,--,26.01,16.46
"Fiber, total dietary",g,--,--,3.0,1.9
"Sugars, total",g,--,--,3.00,1.90
Minerals
"Calcium, Ca",mg,--,--,21,13
"Iron, Fe",mg,--,--,0.58,0.37
"Sodium, Na",mg,--,--,460,291
Vitamins
"Vitamin C, total ascorbic acid",mg,--,--,0.0,0.0
"Vitamin A, IU",IU,--,--,215,136
Lipids
"Fatty acids, total saturated",g,--,--,0.995,0.630
"Fatty acids, total trans",g,--,--,0.000,0.000
"Cholesterol",mg,--,--,5,3
Amino Acids
Other
Ingredients
"ROASTED RED POTATOES, SAUCE (WATER, BUTTER [CREAM, SALT, SUGAR, SALT, MODIFIED FOOD STARCH, NATURAL BUTTER FLAVOR (MALTODEXTRIN, MODIFIED BUTTER OIL, SALT, DEHYDRATED BUTTER, GUAR GUM, SODIUM BICARBONATE, ANNATTO AND TURMERIC (FOR COLOR)], DEHYDRATED CHIVES, XANTHAN GUM, NATURAL FLAVOR, BETA CAROTENE [COLOR]), ONIONS." Date available: 07/19/2017 Date last updated by company: 07/19/2017
