Source: USDA Branded Food Products Database Release December 2017 Software v.3.8.6.4 2017-10-02
Report Run at: December 17, 2017 03:23 EST
"Nutrient data for: 45122465, BIRDS EYE, ASIAN STIR-FRY VEGETABLES, UPC: 014500015693"
Food Group:  Branded Food Products Database
Common Name:

Nutrient,Unit,Data points,Std. Error,"1 cup = 106.0g",1Value per 100 g,
Proximates
"Energy",kcal,--,--,50,47
"Protein",g,--,--,2.00,1.89
"Total lipid (fat)",g,--,--,0.00,0.00
"Carbohydrate, by difference",g,--,--,10.00,9.43
"Fiber, total dietary",g,--,--,2.0,1.9
"Sugars, total",g,--,--,5.00,4.72
Minerals
"Calcium, Ca",mg,--,--,40,38
"Iron, Fe",mg,--,--,0.29,0.27
"Sodium, Na",mg,--,--,260,245
Vitamins
"Vitamin C, total ascorbic acid",mg,--,--,12.0,11.3
"Vitamin A, IU",IU,--,--,1003,946
Lipids
"Fatty acids, total saturated",g,--,--,0.000,0.000
"Cholesterol",mg,--,--,0,0
Amino Acids
Other
Ingredients
"VEGETABLES (BROCCOLI, CARROTS, SUGAR SNAP PEAS, RED BELL PEPPERS, WATER CHESTNUTS, BABY COB CORN, MUSHROOMS), SAUCE (WATER, SOY SAUCE [WATER, SOYBEANS, WHEAT, SALT], SHERRY COOKING WINE [SHERRY WINE, SALT], SUGAR, MODIFIED FOOD STARCH, CIDER VINEGAR, GARLIC POWDER, SALT, SOYBEAN OIL, SPICES, XANTHAN GUM, SAKE [WATER, RICE, SALT], ONION POWDER, NATURAL FLAVORING, NATURAL FLAVORS)." Date available: 06/25/2017 Date last updated by company: 06/25/2017
