Source: USDA Branded Food Products Database Release December 2017 Software v.3.8.6.4 2017-10-02
Report Run at: December 17, 2017 03:27 EST
"Nutrient data for: 45166775, BIRMINGHAM CHOCOLATE, CHOCOLATE, SALTED TOASTED COCONUT, UPC: 852020003116"
Food Group:  Branded Food Products Database
Common Name:

Nutrient,Unit,Data points,Std. Error,"0.333 BAR = 33.0g",1Value per 100 g,
Proximates
"Energy",kcal,--,--,180,545
"Protein",g,--,--,2.00,6.06
"Total lipid (fat)",g,--,--,12.00,36.36
"Carbohydrate, by difference",g,--,--,17.00,51.52
"Fiber, total dietary",g,--,--,3.0,9.1
"Sugars, total",g,--,--,12.00,36.36
Minerals
"Calcium, Ca",mg,--,--,20,61
"Iron, Fe",mg,--,--,2.73,8.26
"Sodium, Na",mg,--,--,180,545
Vitamins
"Vitamin C, total ascorbic acid",mg,--,--,0.0,0.0
"Vitamin A, IU",IU,--,--,0,0
Lipids
"Fatty acids, total saturated",g,--,--,7.999,24.240
"Fatty acids, total trans",g,--,--,0.000,0.000
"Cholesterol",mg,--,--,0,0
Amino Acids
Other
Ingredients
"DARK CHOCOLATE (CACAO BEANS, PURE CANE SUGAR, COCOA BUTTER, SUNFLOWER OR SOY LICITHIN, VANILLA BEANS), TOASTED COCONUT, HIMALAYAN PINK SALT, DEXTROSE." Date available: 10/13/2017 Date last updated by company: 10/13/2017
