Source: USDA Branded Food Products Database Release December 2017 Software v.3.8.6.4 2017-10-02
Report Run at: December 16, 2017 23:54 EST
"Nutrient data for: 45241159, BISCUITS WITH CHOCOLATE CREAM, UPC: 074601168773"
Food Group:  Branded Food Products Database
Common Name:

Nutrient,Unit,Data points,Std. Error,"25.0 GRM = 25.0g",1Value per 100 g,
Proximates
"Energy",kcal,--,--,162,648
"Protein",g,--,--,2.00,8.00
"Total lipid (fat)",g,--,--,8.00,32.00
"Carbohydrate, by difference",g,--,--,20.00,80.00
"Fiber, total dietary",g,--,--,2.0,8.0
"Sugars, total",g,--,--,8.00,32.00
Minerals
"Calcium, Ca",mg,--,--,40,160
"Iron, Fe",mg,--,--,1.44,5.76
"Sodium, Na",mg,--,--,80,320
Vitamins
"Vitamin C, total ascorbic acid",mg,--,--,0.0,0.0
"Vitamin A, IU",IU,--,--,0,0
Lipids
"Fatty acids, total saturated",g,--,--,4.000,16.000
"Fatty acids, total trans",g,--,--,0.280,1.120
"Cholesterol",mg,--,--,0,0
Amino Acids
Other
Ingredients
"WHEAT FLOUR, SUGAR, BUTTER, POWDERED MILK, PARTIALLY HYDROGENATED CANOLA, COCONUT AND PALM OIL, ARTIFICIAL CHOCOLATE FLAVOR, COCOA POWDER, COCOA BUTTER, FLAVOR, EMULSIFIER." Date available: 07/14/2017 Date last updated by company: 07/14/2017
