Source: USDA Branded Food Products Database Release December 2017 Software v.3.8.6.4 2017-10-02
Report Run at: December 16, 2017 23:50 EST
"Nutrient data for: 45172571, BISCOFF, EUROPEAN COOKIE SPREAD, UPC: 021788506966"
Food Group:  Branded Food Products Database
Common Name:

Nutrient,Unit,Data points,Std. Error,"2.0 Tbsp = 30.0g",1Value per 100 g,
Proximates
"Energy",kcal,--,--,180,600
"Protein",g,--,--,1.00,3.33
"Total lipid (fat)",g,--,--,11.00,36.67
"Carbohydrate, by difference",g,--,--,17.00,56.67
"Fiber, total dietary",g,--,--,0.0,0.0
"Sugars, total",g,--,--,11.00,36.67
Minerals
"Calcium, Ca",mg,--,--,0,0
"Iron, Fe",mg,--,--,0.00,0.00
"Sodium, Na",mg,--,--,65,217
Vitamins
"Vitamin C, total ascorbic acid",mg,--,--,0.0,0.0
"Vitamin A, IU",IU,--,--,0,0
Lipids
"Fatty acids, total saturated",g,--,--,2.001,6.670
"Fatty acids, total trans",g,--,--,0.000,0.000
"Cholesterol",mg,--,--,0,0
Amino Acids
Other
Ingredients
"BISCOFF COOKIES (WHEAT FLOUR, SUGAR, VEGETABLE OILS (CONTAINS ONE OR MORE OF SOY BEAN OIL, SUNFLOWER OIL, CANOLA OIL, PALM OIL), SOY FLOUR, BROWN SUGAR, SODIUM BICARBONATE (LEAVENING), SALT, CINNAMON), CANOLA OIL, SUGAR, SOY LECITHIN (EMULSIFIER), CITRIC ACID." Date available: 07/14/2017 Date last updated by company: 07/14/2017
