Source: USDA Branded Food Products Database Release December 2017 Software v.3.8.6.4 2017-10-02
Report Run at: December 16, 2017 23:53 EST
"Nutrient data for: 45260161, BISCUIT STICKS, UPC: 073141551847"
Food Group:  Branded Food Products Database
Common Name:

Nutrient,Unit,Data points,Std. Error,"2.0 PACKS = 26.6g",1Value per 100 g,
Proximates
"Energy",kcal,--,--,140,526
"Protein",g,--,--,2.00,7.52
"Total lipid (fat)",g,--,--,6.00,22.56
"Carbohydrate, by difference",g,--,--,18.00,67.67
"Fiber, total dietary",g,--,--,0.0,0.0
"Sugars, total",g,--,--,8.00,30.08
Minerals
"Calcium, Ca",mg,--,--,20,75
"Iron, Fe",mg,--,--,0.00,0.00
"Sodium, Na",mg,--,--,40,150
Vitamins
"Vitamin C, total ascorbic acid",mg,--,--,2.3,8.5
"Vitamin A, IU",IU,--,--,0,0
Lipids
"Fatty acids, total saturated",g,--,--,3.501,13.160
"Fatty acids, total trans",g,--,--,0.000,0.000
"Cholesterol",mg,--,--,0,0
Amino Acids
Other
Ingredients
"WHEAT FLOUR, SUGAR, VEGETABLE OIL (ILLIPE, SAL AND SHEA BUTTER, INTERESTERIFIED PALM, RAPESEED AND SUNFLOWER OIL), LACTOSE, WHOLE MILK POWDER, SHORTENING (INTERESTERIFIED PALM AND RAPESEED OIL, EMULSIFIER [SOY LECITHIN, MONO- AND DIGLYCERIDES, SUCROSE ESTERS OF FATTY ACIDS, SORBITAN MONOSTEARATE]), STRAWBERRY POWDER, BUTTER, COLORING (RED BEET, ANNATTO), EMULSIFIER (SOY LECITHIN, POLYGLYCEROL POLYRICINOLEATE, SORBITAN MONOSTEARATE), TRISODIUM PHOSPHATE, ARTIFICIAL FLAVOR, SALT, YEAST, LEAVENING (SODIUM BICARBONATE)." Date available: 07/14/2017 Date last updated by company: 07/14/2017
