Source: USDA Branded Food Products Database Release December 2017 Software v.3.8.6.4 2017-10-02
Report Run at: December 16, 2017 23:51 EST
"Nutrient data for: 45315881, BISCUITERIE ALMOND THINS, UPC: 749880110231"
Food Group:  Branded Food Products Database
Common Name:

Nutrient,Unit,Data points,Std. Error,"8.0 PIECES = 29.0g",1Value per 100 g,
Proximates
"Energy",kcal,--,--,130,448
"Protein",g,--,--,2.00,6.90
"Total lipid (fat)",g,--,--,4.50,15.52
"Carbohydrate, by difference",g,--,--,21.00,72.41
"Fiber, total dietary",g,--,--,1.0,3.4
"Sugars, total",g,--,--,10.00,34.48
Minerals
"Calcium, Ca",mg,--,--,0,0
"Iron, Fe",mg,--,--,0.62,2.14
"Sodium, Na",mg,--,--,115,397
Vitamins
"Vitamin C, total ascorbic acid",mg,--,--,0.0,0.0
"Vitamin A, IU",IU,--,--,345,1190
Lipids
"Fatty acids, total saturated",g,--,--,2.001,6.900
"Fatty acids, total trans",g,--,--,0.000,0.000
"Cholesterol",mg,--,--,10,34
Amino Acids
Other
Ingredients
"WHEAT FLOUR, CANDY POWDER, BUTTER (MILK), ALMONDS (10%), SALT, RAISING AGENTS: SODIUMBICARBONATE." Date available: 07/14/2017 Date last updated by company: 07/14/2017
