Source: USDA Branded Food Products Database Release December 2017 Software v.3.8.6.4 2017-10-02
Report Run at: December 16, 2017 23:58 EST
"Nutrient data for: 45126422, BITES CANDY, UPC: 041364087320"
Food Group:  Branded Food Products Database
Common Name:

Nutrient,Unit,Data points,Std. Error,"12.0 PCS. | APPROX. = 40.0g",1Value per 100 g,
Proximates
"Energy",kcal,--,--,140,350
"Protein",g,--,--,1.00,2.50
"Total lipid (fat)",g,--,--,1.00,2.50
"Carbohydrate, by difference",g,--,--,32.00,80.00
"Fiber, total dietary",g,--,--,0.0,0.0
"Sugars, total",g,--,--,19.00,47.50
Minerals
"Sodium, Na",mg,--,--,80,200
Vitamins
Lipids
"Fatty acids, total saturated",g,--,--,0.500,1.250
"Fatty acids, total trans",g,--,--,0.500,1.250
"Cholesterol",mg,--,--,0,0
Amino Acids
Other
Ingredients
"CORN SYRUP, WHEAT FLOUR, SUGAR, MODIFIED FOOD STARCH, PARTIALLY HYDROGENATED SOYBEAN OIL, MALIC ACID, TARTARIC ACID, GLYCERYL MONOSTEARATE, SODIUM CITRATE, ARTIFICIAL FLAVOR, CITRIC ACID, GLYCERIN, ARTIFICIAL COLOR (INCLUDING BLUE 1, BLUE 1 LAKE, BLUE 2, YELLOW 5 (TARTRAZINE), YELLOW 5 LAKE, AND RED 40)" Date available: 07/14/2017 Date last updated by company: 07/14/2017
