Source: USDA Branded Food Products Database Release December 2017 Software v.3.8.6.4 2017-10-02
Report Run at: December 16, 2017 23:59 EST
"Nutrient data for: 45265092, BITE SIZE CANDIES, UPC: 022000019509"
Food Group:  Branded Food Products Database
Common Name:

Nutrient,Unit,Data points,Std. Error,"1 PACKAGE = 25.5g",1Value per 100 g,
Proximates
"Energy",kcal,--,--,100,392
"Protein",g,--,--,0.00,0.00
"Total lipid (fat)",g,--,--,1.00,3.92
"Carbohydrate, by difference",g,--,--,23.00,90.20
"Fiber, total dietary",g,--,--,0.0,0.0
"Sugars, total",g,--,--,19.00,74.51
Minerals
"Calcium, Ca",mg,--,--,0,0
"Iron, Fe",mg,--,--,0.00,0.00
"Sodium, Na",mg,--,--,10,39
Vitamins
"Vitamin C, total ascorbic acid",mg,--,--,0.0,0.0
"Vitamin A, IU",IU,--,--,0,0
Lipids
"Fatty acids, total saturated",g,--,--,1.000,3.920
"Fatty acids, total trans",g,--,--,0.000,0.000
"Cholesterol",mg,--,--,0,0
Amino Acids
Other
Ingredients
"SUGAR, CORN SYRUP, HYDROGENATED PALM KERNEL OIL; LESS THAN 2% OF: CITRIC ACID, TAPIOCA DEXTRIN, MODIFIED CORN STARCH, NATURAL AND ARTIFICIAL FLAVORS, COLORS (RED 40 LAKE, TITANIUM DIOXIDE, RED 40, YELLOW 5 LAKE, YELLOW 5, YELLOW 6 LAKE, YELLOW 6, BLUE 2 LAKE, BLUE 1, BLUE 1 LAKE), SODIUM CITRATE, CARNAUBA WAX." Date available: 07/14/2017 Date last updated by company: 07/14/2017
