Source: USDA Branded Food Products Database Release December 2017 Software v.3.8.6.4 2017-10-02
Report Run at: December 16, 2017 23:58 EST
"Nutrient data for: 45292840, BITES DARK CHOCOLATE COVERED FRUIT TRUFFLES, UPC: 850397004354"
Food Group:  Branded Food Products Database
Common Name:

Nutrient,Unit,Data points,Std. Error,"1.83 ONZ = 52.0g",1Value per 100 g,
Proximates
"Energy",kcal,--,--,150,288
"Protein",g,--,--,2.00,3.85
"Total lipid (fat)",g,--,--,3.50,6.73
"Carbohydrate, by difference",g,--,--,33.00,63.46
"Fiber, total dietary",g,--,--,4.0,7.7
"Sugars, total",g,--,--,27.00,51.92
Minerals
"Calcium, Ca",mg,--,--,20,38
"Iron, Fe",mg,--,--,2.59,4.99
"Sodium, Na",mg,--,--,15,29
Vitamins
"Vitamin C, total ascorbic acid",mg,--,--,1.1,2.2
"Vitamin A, IU",IU,--,--,961,1849
Lipids
"Fatty acids, total saturated",g,--,--,2.501,4.810
"Fatty acids, total trans",g,--,--,0.000,0.000
"Cholesterol",mg,--,--,0,0
Amino Acids
Other
Ingredients
"APPLES, APRICOTS, DARK CHOCOLATE (UNSWEETENED CHOCOLATE, ORGANIC SUGAR, COCOA BUTTER)." Date available: 07/14/2017 Date last updated by company: 07/14/2017
