Source: USDA Branded Food Products Database Release December 2017 Software v.3.8.6.4 2017-10-02
Report Run at: December 17, 2017 00:02 EST
"Nutrient data for: 45276183, BITES MINT CHOCOLATE TRUFFLE, UPC: 021908472997"
Food Group:  Branded Food Products Database
Common Name:

Nutrient,Unit,Data points,Std. Error,"4.0 BITES = 30.0g",1Value per 100 g,
Proximates
"Energy",kcal,--,--,130,433
"Protein",g,--,--,2.00,6.67
"Total lipid (fat)",g,--,--,6.00,20.00
"Carbohydrate, by difference",g,--,--,17.00,56.67
"Fiber, total dietary",g,--,--,3.0,10.0
"Sugars, total",g,--,--,13.00,43.33
Minerals
"Calcium, Ca",mg,--,--,20,67
"Iron, Fe",mg,--,--,2.40,8.00
"Sodium, Na",mg,--,--,0,0
Vitamins
Lipids
"Fatty acids, total saturated",g,--,--,2.001,6.670
"Fatty acids, total trans",g,--,--,0.000,0.000
"Cholesterol",mg,--,--,0,0
Amino Acids
Other
Ingredients
"DATES, ALMONDS, SEMISWEET CHOCOLATE CHIPS* (UNSWEETENED CHOCOLATE, SUGAR, COCOA BUTTER, VANILLA EXTRACT), COCOA POWDER*, COCONUT FLOUR, PEPPERMINT OIL." Date available: 09/21/2017 Date last updated by company: 09/21/2017
