Source: USDA Branded Food Products Database Release December 2017 Software v.3.8.6.4 2017-10-02
Report Run at: December 17, 2017 00:00 EST
"Nutrient data for: 45150268, BITE SIZE COOKIES, PEANUT BUTTER, UPC: 851779005174"
Food Group:  Branded Food Products Database
Common Name:

Nutrient,Unit,Data points,Std. Error,"2.0 COOKIES = 60.0g",1Value per 100 g,
Proximates
"Energy",kcal,--,--,230,383
"Protein",g,--,--,4.00,6.67
"Total lipid (fat)",g,--,--,9.00,15.00
"Carbohydrate, by difference",g,--,--,33.00,55.00
"Fiber, total dietary",g,--,--,2.0,3.3
"Sugars, total",g,--,--,23.00,38.33
Minerals
"Calcium, Ca",mg,--,--,20,33
"Iron, Fe",mg,--,--,0.90,1.50
"Sodium, Na",mg,--,--,35,58
Vitamins
"Vitamin C, total ascorbic acid",mg,--,--,0.0,0.0
"Vitamin A, IU",IU,--,--,167,278
Lipids
"Fatty acids, total saturated",g,--,--,4.002,6.670
"Fatty acids, total trans",g,--,--,0.000,0.000
"Cholesterol",mg,--,--,15,25
Amino Acids
Other
Ingredients
"GLUTEN FREE OATS, SUGAR, FAT FREE MILK (VITAMIN A PALMITATE, VITAMIN D3), NATURAL PEANUT BUTTER, BUTTER (PASTEURIZED CREAM, SALT), PURE VANILLA." Date available: 07/14/2017 Date last updated by company: 07/14/2017
