Source: USDA Branded Food Products Database Release December 2017 Software v.3.8.6.4 2017-10-02
Report Run at: December 17, 2017 00:02 EST
"Nutrient data for: 45228441, BITES JUICY RED APPLE WITH CARAMEL DIP, UPC: 074904201726"
Food Group:  Branded Food Products Database
Common Name:

Nutrient,Unit,Data points,Std. Error,"1 PACK = 70.0g",1Value per 100 g,
Proximates
"Energy",kcal,--,--,70,100
"Protein",g,--,--,1.00,1.43
"Total lipid (fat)",g,--,--,0.00,0.00
"Carbohydrate, by difference",g,--,--,17.00,24.29
"Fiber, total dietary",g,--,--,1.0,1.4
"Sugars, total",g,--,--,13.00,18.57
Minerals
"Calcium, Ca",mg,--,--,20,29
"Iron, Fe",mg,--,--,0.00,0.00
"Potassium, K",mg,--,--,80,114
"Sodium, Na",mg,--,--,55,79
Vitamins
"Vitamin C, total ascorbic acid",mg,--,--,68.6,98.0
"Vitamin A, IU",IU,--,--,0,0
Lipids
"Fatty acids, total saturated",g,--,--,0.000,0.000
"Fatty acids, total trans",g,--,--,0.000,0.000
"Cholesterol",mg,--,--,0,0
Amino Acids
Other
Ingredients
"APPLES, CARAMEL DIP [HIGH FRUCTOSE CORN SYRUP, CORN SYRUP, WATER, SKIM MILK POWDER, MALTODEXTRIN, MODIFIED CORN STARCH, SALT, NATURAL AND ARTIFICIAL FLAVOR, DISODIUM PHOSPHATE, POTASSIUM SORBATE AND SODIUM BENZOATE (PRESERVATIVES)], CALCIUM ASCORBATE (ADDED TO MAINTAIN COLOR)" Date available: 09/16/2017 Date last updated by company: 09/16/2017
