Source: USDA Branded Food Products Database Release December 2017 Software v.3.8.6.4 2017-10-02
Report Run at: December 17, 2017 00:22 EST
"Nutrient data for: 45208841, BLACK FOREST BROWNIE MIX, UPC: 010749111097"
Food Group:  Branded Food Products Database
Common Name:

Nutrient,Unit,Data points,Std. Error,"0.0625 OF PKG = 31.0g",1Value per 100 g,
Proximates
"Energy",kcal,--,--,120,387
"Protein",g,--,--,2.00,6.45
"Total lipid (fat)",g,--,--,0.50,1.61
"Carbohydrate, by difference",g,--,--,25.00,80.65
"Fiber, total dietary",g,--,--,1.0,3.2
"Sugars, total",g,--,--,23.00,74.19
Minerals
"Calcium, Ca",mg,--,--,0,0
"Iron, Fe",mg,--,--,0.23,0.75
"Sodium, Na",mg,--,--,0,0
Vitamins
"Vitamin C, total ascorbic acid",mg,--,--,0.0,0.0
"Vitamin A, IU",IU,--,--,0,0
Lipids
"Fatty acids, total saturated",g,--,--,0.000,0.000
"Fatty acids, total trans",g,--,--,0.000,0.000
"Cholesterol",mg,--,--,0,0
Amino Acids
Other
Ingredients
"SUGAR, UNBLEACHED WHEAT FLOUR (WHEAT FLOUR, MALTED BARLEY FLOUR, NIACIN, IRON, THIAMIN MONONITRATE, RIBOFLAVIN, FOLIC ACID), COCOA, CORNSTARCH, DRIED CHERRIES (RED TART CHERRIES, SUGAR) AND NATURAL AND ARTIFICIAL FLAVORING." Date available: 07/14/2017 Date last updated by company: 07/14/2017
