Source: USDA Branded Food Products Database Release December 2017 Software v.3.8.6.4 2017-10-02
Report Run at: December 17, 2017 00:23 EST
"Nutrient data for: 45193043, BLACK FOREST HAM & PROVOLONE PINWHEELS, UPC: 011110110985"
Food Group:  Branded Food Products Database
Common Name:

Nutrient,Unit,Data points,Std. Error,"3.0 PINWHEELS = 131.0g",1Value per 100 g,
Proximates
"Energy",kcal,--,--,250,191
"Protein",g,--,--,16.00,12.21
"Total lipid (fat)",g,--,--,13.00,9.92
"Carbohydrate, by difference",g,--,--,16.00,12.21
"Fiber, total dietary",g,--,--,0.0,0.0
"Sugars, total",g,--,--,2.00,1.53
Minerals
"Calcium, Ca",mg,--,--,100,76
"Iron, Fe",mg,--,--,0.77,0.59
"Sodium, Na",mg,--,--,831,634
Vitamins
"Vitamin C, total ascorbic acid",mg,--,--,3.8,2.9
"Vitamin A, IU",IU,--,--,1336,1020
Lipids
"Fatty acids, total saturated",g,--,--,6.995,5.340
"Fatty acids, total trans",g,--,--,0.000,0.000
"Cholesterol",mg,--,--,55,42
Amino Acids
Other
Ingredients
"HAM (CURED WITH WATER, SALT, SUGAR, DEXTROSE, SODIUM PHOSPHATE, HONEY, SODIUM ERYTHORBATE, SODIUM NITRITE, COATED WITH CARAMEL COLOR), FLAT BREAD (ENRICHED UNBLEACHED WHEAT AND MALTED BARLEY FLOUR [CONTAINS NIACIN, IRON, THIAMINE MONONITRATE, RIBOFLAVIN, FOLIC ACID], FILTERED WATER, SEA SALT, YEAST, CULTURED WHEAT, CITRIC ACID), GARLIC HERB SPREAD (PASTEURIZED CULTURED MILK AND CREAM, GARLIC, SALT, GUAR GUM AND/OR CAROB BEAN, SPICES, SORBIC ACID TO MAINTAIN FRESHNESS), PROVOLONE CHEESE (PASTEURIZED MILK, CHEESE CULTURE, SALT, ENZYMES), LETTUCE, ROASTED RED PEPPERS (WITH WATER, SALT, CITRIC ACID)." Date available: 07/14/2017 Date last updated by company: 07/14/2017
