Source: USDA Branded Food Products Database Release December 2017 Software v.3.8.6.4 2017-10-02
Report Run at: December 17, 2017 00:05 EST
"Nutrient data for: 45314597, BLACK BEAN CHIPS, UPC: 852834002022"
Food Group:  Branded Food Products Database
Common Name:

Nutrient,Unit,Data points,Std. Error,"1 ONZ = 28.0g",1Value per 100 g,
Proximates
"Energy",kcal,--,--,130,464
"Protein",g,--,--,4.00,14.29
"Total lipid (fat)",g,--,--,7.00,25.00
"Carbohydrate, by difference",g,--,--,15.00,53.57
"Fiber, total dietary",g,--,--,4.0,14.3
"Sugars, total",g,--,--,1.00,3.57
Minerals
"Calcium, Ca",mg,--,--,40,143
"Iron, Fe",mg,--,--,1.93,6.88
"Potassium, K",mg,--,--,160,571
"Sodium, Na",mg,--,--,170,607
Vitamins
"Vitamin C, total ascorbic acid",mg,--,--,0.0,0.0
"Vitamin A, IU",IU,--,--,179,638
Lipids
"Fatty acids, total saturated",g,--,--,0.501,1.790
"Fatty acids, total monounsaturated",g,--,--,4.001,14.290
"Fatty acids, total polyunsaturated",g,--,--,2.500,8.930
"Fatty acids, total trans",g,--,--,0.000,0.000
"Cholesterol",mg,--,--,0,0
Amino Acids
Other
Ingredients
"COOKED BLACK BEANS, SUNFLOWER OIL, LONG GRAIN RICE FLOUR, SEA SALT, TOMATO POWDER, SPICES (CHILI PEPPER, CUMIN, OREGANO, CLOVE, CINNAMON), CANE SUGAR, GARLIC POWDER, ONION POWDER, CITRIC ACID, ONION JUICE, NATURAL EXTRACTIVES OF PAPRIKA (COLOR), NON-GMO NATURAL FLAVOR, NON-GMO NATURAL SMOKE FLAVOR, HONEY." Date available: 07/14/2017 Date last updated by company: 07/14/2017
