Source: USDA Branded Food Products Database Release December 2017 Software v.3.8.6.4 2017-10-02
Report Run at: December 17, 2017 00:23 EST
"Nutrient data for: 45327267, BLACK FOREST HAM PINWHEELS PREMIUM MEATS & CHEESES, UPC: 826766192069"
Food Group:  Branded Food Products Database
Common Name:

Nutrient,Unit,Data points,Std. Error,"1 CONTAINER = 276.0g",1Value per 100 g,
Proximates
"Energy",kcal,--,--,450,163
"Protein",g,--,--,37.01,13.41
"Total lipid (fat)",g,--,--,13.00,4.71
"Carbohydrate, by difference",g,--,--,43.99,15.94
"Fiber, total dietary",g,--,--,1.9,0.7
"Sugars, total",g,--,--,7.01,2.54
Minerals
"Calcium, Ca",mg,--,--,199,72
"Iron, Fe",mg,--,--,2.29,0.83
"Sodium, Na",mg,--,--,1441,522
Vitamins
"Vitamin C, total ascorbic acid",mg,--,--,12.1,4.4
"Vitamin A, IU",IU,--,--,1267,459
Lipids
"Fatty acids, total saturated",g,--,--,7.010,2.540
"Fatty acids, total trans",g,--,--,0.000,0.000
"Cholesterol",mg,--,--,91,33
Amino Acids
Other
Ingredients
"SMOKEMASTER BEECHWOOD SMOKED BLACK FOREST HAM WITH NATURAL JUICES (CURED WITH: WATER, SUGAR, DEXTROSE, SEA SALT, LESS THAN 2% OF SODIUM PHOSPHATE, SALT, SODIUM ERYTHORBATE, SODIUM NITRITE), LAVASH (ENRICHED UNBLEACHED WHEAT FLOUR [MALTED BARLEY FLOUR, IRON, THIAMINE MONONITRATE, NIACIN, RIBOFLAVIN, FOLIC ACID], FILTERED WATER, SEA SALT, YEAST, CULTURED WHEAT, CITRIC ACID), PICANTE PROVOLONE CHEESE (PASTEURIZED WHOLE MILK, CHEESE CULTURES, SALT AND ENZYMES), ROASTED RED PEPPER (RED SWEET PEPPER, WATER, SEA SALT AND CITRIC ACID), LETTUCE, CREAM CHEESE (PASTEURIZED MILK AND CREAM, CHEESE CULTURE, SALT, STABILIZERS [CAROB BEAN AND/OR XANTHAN AND/OR GUAR GUMS])." Date available: 10/13/2017 Date last updated by company: 10/13/2017
