Source: USDA Branded Food Products Database Release December 2017 Software v.3.8.6.4 2017-10-02
Report Run at: December 17, 2017 02:09 EST
"Nutrient data for: 45176510, BLACK ROCK BRANDS, THICK - SLICED BACON, CHIPOTLE GARLIC, UPC: 076829026538"
Food Group:  Branded Food Products Database
Common Name:

Nutrient,Unit,Data points,Std. Error,"1 SKILLET COOKED SLICE = 15.0g",1Value per 100 g,
Proximates
"Energy",kcal,--,--,80,533
"Protein",g,--,--,4.00,26.67
"Total lipid (fat)",g,--,--,7.00,46.67
"Carbohydrate, by difference",g,--,--,0.00,0.00
Minerals
"Sodium, Na",mg,--,--,340,2267
Vitamins
Lipids
"Fatty acids, total saturated",g,--,--,2.501,16.670
"Cholesterol",mg,--,--,10,67
Amino Acids
Other
Ingredients
"CURED WITH WATER, SALT, SUGAR, SODIUM PHOSPHATE, SODIUM ERYTHORBATE, SODIUM NITRITE. RUBBED WITH: GARLIC POWDER, SUGAR, SPICES. MALTODEXTRIN, CHIPOTLE PEPPER POWDER, SALT, ONION POWDER, YEAST EXTRACT, NATURAL FLAVORS." Date available: 07/14/2017 Date last updated by company: 07/14/2017
