Source: USDA Branded Food Products Database Release December 2017 Software v.3.8.6.4 2017-10-02
Report Run at: December 17, 2017 00:07 EST
"Nutrient data for: 45289161, BLACK BEAN SALAD, UPC: 030831000511"
Food Group:  Branded Food Products Database
Common Name:

Nutrient,Unit,Data points,Std. Error,"2.0 ONZ = 57.0g",1Value per 100 g,
Proximates
"Energy",kcal,--,--,90,158
"Protein",g,--,--,3.00,5.26
"Total lipid (fat)",g,--,--,4.00,7.02
"Carbohydrate, by difference",g,--,--,10.00,17.54
"Fiber, total dietary",g,--,--,3.0,5.3
"Sugars, total",g,--,--,1.00,1.75
Minerals
"Calcium, Ca",mg,--,--,20,35
"Iron, Fe",mg,--,--,1.77,3.10
"Sodium, Na",mg,--,--,150,263
Vitamins
"Vitamin C, total ascorbic acid",mg,--,--,14.8,25.9
"Vitamin A, IU",IU,--,--,491,861
Lipids
"Fatty acids, total saturated",g,--,--,0.000,0.000
"Fatty acids, total trans",g,--,--,0.000,0.000
"Cholesterol",mg,--,--,0,0
Amino Acids
Other
Ingredients
"BLACK BEANS, SWEET CORN, RED BELL PEPPERS, RED ONIONS, JICAMA, RICE VINEGAR, NON-GMO CANOLA OIL, RED WINE VINEGAR, WHITE WINE VINEGAR, BALSAMIC VINEGAR, EXTRA VIRGIN OLIVE OIL, SCALLIONS, CILANTRO, GRANULATED GARLIC, SEA SALT, GROUND BLACK PEPPER, OREGANO." Date available: 07/14/2017 Date last updated by company: 07/14/2017
