Source: USDA Branded Food Products Database Release December 2017 Software v.3.8.6.4 2017-10-02
Report Run at: December 17, 2017 02:12 EST
"Nutrient data for: 45239208, BLACK TEA, UPC: 020735094075"
Food Group:  Branded Food Products Database
Common Name:

Nutrient,Unit,Data points,Std. Error,"1 cup = 240.0g",1Value per 100 g,
Proximates
"Energy",kcal,--,--,120,50
"Protein",g,--,--,0.00,0.00
"Total lipid (fat)",g,--,--,0.00,0.00
"Carbohydrate, by difference",g,--,--,28.01,11.67
"Sugars, total",g,--,--,25.99,10.83
Minerals
"Sodium, Na",mg,--,--,10,4
Vitamins
Lipids
Amino Acids
Other
Ingredients
"WATER, CORN SYRUP, SUGAR, CITRIC ACID, BLACK TEA, POMEGRANATE JUICE CONCENTRATE, CHERRY JUICE CONCENTRATE, NATURAL FLAVORS, POTASSIUM SORBATE & SODIUM BENZOATE (PRESERVE FRESHNESS)." Date available: 06/24/2017 Date last updated by company: 06/24/2017
