Source: USDA Branded Food Products Database Release December 2017 Software v.3.8.6.4 2017-10-02
Report Run at: December 17, 2017 00:09 EST
"Nutrient data for: 45114052, BLACK BEANS, UPC: 713733701105"
Food Group:  Branded Food Products Database
Common Name:

Nutrient,Unit,Data points,Std. Error,"0.5 cup = 130.0g",1Value per 100 g,
Proximates
"Energy",kcal,--,--,110,85
"Protein",g,--,--,6.99,5.38
"Total lipid (fat)",g,--,--,0.49,0.38
"Carbohydrate, by difference",g,--,--,19.01,14.62
"Fiber, total dietary",g,--,--,7.0,5.4
"Sugars, total",g,--,--,0.00,0.00
Minerals
"Calcium, Ca",mg,--,--,60,46
"Iron, Fe",mg,--,--,2.70,2.08
"Sodium, Na",mg,--,--,179,138
Vitamins
"Vitamin C, total ascorbic acid",mg,--,--,0.0,0.0
"Vitamin A, IU",IU,--,--,0,0
Lipids
"Fatty acids, total saturated",g,--,--,0.000,0.000
"Fatty acids, total trans",g,--,--,0.000,0.000
"Cholesterol",mg,--,--,0,0
Amino Acids
Other
Ingredients
"PREPARED BLACK BEANS, WATER, SALT." Date available: 10/13/2017 Date last updated by company: 10/13/2017
