Source: USDA Branded Food Products Database Release December 2017 Software v.3.8.6.4 2017-10-02
Report Run at: December 17, 2017 03:52 EST
"Nutrient data for: 45326128, BLENDED WHOLE MILK YOGURT, UPC: 053600001571"
Food Group:  Branded Food Products Database
Common Name:

Nutrient,Unit,Data points,Std. Error,"6.0 ONZ = 170.0g",1Value per 100 g,
Proximates
"Energy",kcal,--,--,160,94
"Protein",g,--,--,6.00,3.53
"Total lipid (fat)",g,--,--,5.00,2.94
"Carbohydrate, by difference",g,--,--,23.00,13.53
"Fiber, total dietary",g,--,--,0.0,0.0
"Sugars, total",g,--,--,19.01,11.18
Minerals
"Calcium, Ca",mg,--,--,185,109
"Iron, Fe",mg,--,--,0.00,0.00
"Potassium, K",mg,--,--,235,138
"Sodium, Na",mg,--,--,80,47
Vitamins
"Vitamin C, total ascorbic acid",mg,--,--,0.0,0.0
Lipids
"Fatty acids, total saturated",g,--,--,2.992,1.760
"Fatty acids, total trans",g,--,--,0.000,0.000
"Cholesterol",mg,--,--,20,12
Amino Acids
Other
Ingredients
"CULTURED PASTEURIZED GRADE A MILK, SUGAR, MODIFIED CORNSTARCH, NONFAT MILK SOLIDS, KOSHER GELATIN, NATURAL FLAVORS, PECTIN, CITRIC ACID, VITAMIN A PALMITATE, VITAMIN D3. CONTAINS ACTIVE YOGURT WITH L. BULGARICUS, S. THERMOPHILUS, BIFIDOBACTERIUM BB-12, L. ACIDOPHILUS AND L. CASEI CULTURES." Date available: 08/11/2017 Date last updated by company: 08/11/2017
