Source: USDA Branded Food Products Database Release December 2017 Software v.3.8.6.4 2017-10-02
Report Run at: December 17, 2017 04:45 EST
"Nutrient data for: 45188019, BLONDIE A SIMPLY SCRUMPTIOUS BROWNIE, UPC: 861185000014"
Food Group:  Branded Food Products Database
Common Name:

Nutrient,Unit,Data points,Std. Error,"0.5 PIECE = 42.0g",1Value per 100 g,
Proximates
"Energy",kcal,--,--,150,357
"Protein",g,--,--,2.00,4.76
"Total lipid (fat)",g,--,--,6.00,14.29
"Carbohydrate, by difference",g,--,--,23.00,54.76
"Fiber, total dietary",g,--,--,1.0,2.4
"Sugars, total",g,--,--,17.00,40.48
Minerals
"Calcium, Ca",mg,--,--,0,0
"Iron, Fe",mg,--,--,2.57,6.12
"Sodium, Na",mg,--,--,25,60
Vitamins
"Vitamin C, total ascorbic acid",mg,--,--,1.1,2.7
"Vitamin A, IU",IU,--,--,95,226
Lipids
"Fatty acids, total saturated",g,--,--,3.998,9.520
"Fatty acids, total trans",g,--,--,0.000,0.000
"Cholesterol",mg,--,--,5,12
Amino Acids
Other
Ingredients
"BROWN SUGAR, BUTTER (SWEET CREAM, SALT), GARBANZO BEAN FLOUR, POTATO STARCH, TAPIOCA FLOUR, EGGS, SEMI-SWEET CHOCOLATE CHIPS (SUGAR, CHOCOLATE, COCOA BUTTER, MILKFAT, SOY LECITHIN, NATURAL FLAVORS), COCONUT, SORGHUM FLOUR, FAVA BEAN FLOUR, VANILLA EXTRACT" Date available: 07/14/2017 Date last updated by company: 07/14/2017
