Source: USDA Branded Food Products Database Release December 2017 Software v.3.8.6.4 2017-10-02
Report Run at: December 17, 2017 04:46 EST
"Nutrient data for: 45333370, BLOODY GUMMY WORM, UPC: 049696400084"
Food Group:  Branded Food Products Database
Common Name:

Nutrient,Unit,Data points,Std. Error,"1 PIECE = 22.0g",1Value per 100 g,
Proximates
"Energy",kcal,--,--,70,318
"Protein",g,--,--,1.00,4.55
"Total lipid (fat)",g,--,--,0.00,0.00
"Carbohydrate, by difference",g,--,--,18.00,81.82
"Fiber, total dietary",g,--,--,0.0,0.0
"Sugars, total",g,--,--,11.00,50.00
Minerals
"Calcium, Ca",mg,--,--,0,0
"Iron, Fe",mg,--,--,0.00,0.00
"Sodium, Na",mg,--,--,10,45
Vitamins
"Vitamin D",IU,--,--,0,0
Lipids
"Fatty acids, total saturated",g,--,--,0.000,0.000
"Fatty acids, total trans",g,--,--,0.000,0.000
"Cholesterol",mg,--,--,0,0
Amino Acids
Other
Ingredients
"CORN SYRUP, SUGAR, WATER, GELATIN, SORBITOL, TITANIUM DIOXIDE COLOR, XANTHAN GUM, MALIC ACID, SODIUM CITRATE, PECTIN, CITRIC ACID, ARTIFICIAL FLAVORS, POTASSIUM SORBATE (PRESERVATIVE), YELLOW 5, BLUE 1, RED 40, RED3." Date available: 10/13/2017 Date last updated by company: 10/13/2017
