Source: USDA Branded Food Products Database Release December 2017 Software v.3.8.6.4 2017-10-02
Report Run at: December 17, 2017 04:47 EST
"Nutrient data for: 45163138, BLOOM'S, MINI FROSTED STRAWBERRY COOKIES, UPC: 032797004800"
Food Group:  Branded Food Products Database
Common Name:

Nutrient,Unit,Data points,Std. Error,"9.0 COOKIES | APPROX. = 28.4g",1Value per 100 g,
Proximates
"Energy",kcal,--,--,120,423
"Protein",g,--,--,2.00,7.04
"Total lipid (fat)",g,--,--,4.00,14.08
"Carbohydrate, by difference",g,--,--,20.00,70.42
"Fiber, total dietary",g,--,--,1.0,3.5
"Sugars, total",g,--,--,7.00,24.65
Minerals
"Calcium, Ca",mg,--,--,0,0
"Iron, Fe",mg,--,--,1.27,4.46
"Sodium, Na",mg,--,--,130,458
Vitamins
"Vitamin C, total ascorbic acid",mg,--,--,0.0,0.0
"Vitamin A, IU",IU,--,--,0,0
Lipids
"Fatty acids, total saturated",g,--,--,1.500,5.280
"Fatty acids, total trans",g,--,--,0.000,0.000
"Cholesterol",mg,--,--,0,0
Amino Acids
Other
Ingredients
"BLEACHED ENRICHED WHEAT FLOUR (CONTAINS NIACIN, REDUCED IRON, THIAMINE MONONITRATE (VITAMIN B1), RIBOFLAVIN (VITAMIN B2), FOLIC ACID), SUGAR, VEGETABLE SHORTENING (CONTAINS PALM OIL, SOYBEAN OIL, CANOLA OIL, TOCOPHEROLS [ADDED AS AN ANTIOXIDANT]), HIGH FRUCTOSE CORN SYRUP, SALT, LECITHIN (AN EMULSIFIER), LEAVENINGS (SODIUM BICARBONATE, AMMONIUM BICARBONATE, MONOCALCIUM PHOSPHATE), NATURAL AND ARTIFICIAL FLAVORS, ARTIFICIAL COLOR (FD&C YELLOW #5 & #6), EGGS, AGAR-AGAR." Date available: 08/25/2017 Date last updated by company: 08/25/2017
