Source: USDA Branded Food Products Database Release December 2017 Software v.3.8.6.4 2017-10-02
Report Run at: December 17, 2017 04:47 EST
"Nutrient data for: 45327191, BLOW POP, UPC: 761706140574"
Food Group:  Branded Food Products Database
Common Name:

Nutrient,Unit,Data points,Std. Error,"1 POP = 18.0g",1Value per 100 g,
Proximates
"Energy",kcal,--,--,60,333
"Protein",g,--,--,0.00,0.00
"Total lipid (fat)",g,--,--,0.00,0.00
"Carbohydrate, by difference",g,--,--,16.00,88.89
"Fiber, total dietary",g,--,--,0.0,0.0
"Sugars, total",g,--,--,12.00,66.67
Minerals
"Calcium, Ca",mg,--,--,150,833
"Iron, Fe",mg,--,--,1.00,5.56
"Sodium, Na",mg,--,--,5,28
Vitamins
"Vitamin C, total ascorbic acid",mg,--,--,0.0,0.0
"Vitamin A, IU",IU,--,--,0,0
Lipids
"Fatty acids, total saturated",g,--,--,0.000,0.000
"Fatty acids, total trans",g,--,--,0.000,0.000
"Cholesterol",mg,--,--,0,0
Amino Acids
Other
Ingredients
"SUGAR, CORN SYRUP, GUM BASE, STARCH, CITRIC ACID, GLYCERIN, ARTIFICIAL FLAVORS, ARTIFICIAL COLORS (INCLUDING FD&C RED 40, FD&C BLUE 1), TURMERIC COLORING, AND BHT ADDED AS A PRESERVATIVE." Date available: 10/13/2017 Date last updated by company: 10/13/2017
