Source: USDA Branded Food Products Database Release December 2017 Software v.3.8.6.4 2017-10-02
Report Run at: December 17, 2017 04:47 EST
"Nutrient data for: 45162735, BLOW POP BUBBLE GUM FILLED LOLLIPOP, UPC: 014200338634"
Food Group:  Branded Food Products Database
Common Name:

Nutrient,Unit,Data points,Std. Error,"1 POP = 18.0g",1Value per 100 g,
Proximates
"Energy",kcal,--,--,60,333
"Protein",g,--,--,0.00,0.00
"Total lipid (fat)",g,--,--,0.00,0.00
"Carbohydrate, by difference",g,--,--,17.00,94.44
"Sugars, total",g,--,--,13.00,72.22
Minerals
"Calcium, Ca",mg,--,--,150,833
"Sodium, Na",mg,--,--,0,0
Vitamins
Lipids
Amino Acids
Other
Ingredients
"SUGAR, CORN SYRUP, GUM BASE, STARCH, CITRIC ACID, GLYCERIN, ARTIFICIAL FLAVORS, ARTIFICIAL COLORS (INCLUDING FD&C RED 40, FD&C BLUE 1). TURMERIC COLORING, AND BHT ADDED AS A PRESERVATIVE." Date available: 07/14/2017 Date last updated by company: 07/14/2017
