Source: USDA Branded Food Products Database Release December 2017 Software v.3.8.6.4 2017-10-02
Report Run at: December 17, 2017 04:58 EST
"Nutrient data for: 45220733, BLUEBERRY NUT HEART HEALTHY TRAIL MIX, UPC: 085239080610"
Food Group:  Branded Food Products Database
Common Name:

Nutrient,Unit,Data points,Std. Error,"0.25 cup = 29.0g",1Value per 100 g,
Proximates
"Energy",kcal,--,--,160,552
"Protein",g,--,--,4.00,13.79
"Total lipid (fat)",g,--,--,12.00,41.38
"Carbohydrate, by difference",g,--,--,10.00,34.48
"Fiber, total dietary",g,--,--,3.0,10.3
"Sugars, total",g,--,--,7.00,24.14
Minerals
"Calcium, Ca",mg,--,--,60,207
"Iron, Fe",mg,--,--,1.24,4.28
"Magnesium, Mg",mg,--,--,69,238
"Potassium, K",mg,--,--,130,448
"Sodium, Na",mg,--,--,0,0
"Copper, Cu",mg,--,--,0.300,1.034
"Manganese, Mn",mg,--,--,0.580,2.000
Vitamins
"Vitamin C, total ascorbic acid",mg,--,--,0.0,0.0
"Vitamin A, IU",IU,--,--,0,0
Lipids
"Fatty acids, total saturated",g,--,--,1.001,3.450
"Fatty acids, total monounsaturated",g,--,--,5.000,17.240
"Fatty acids, total polyunsaturated",g,--,--,5.000,17.240
"Fatty acids, total trans",g,--,--,0.000,0.000
"Cholesterol",mg,--,--,0,0
Amino Acids
Other
Ingredients
"ALMONDS, DRIED SWEETENED BLUEBERRIES (CULTIVATED BLUEBERRIES, SUGAR, SUNFLOWER OIL), WALNUTS, PECANS." Date available: 07/14/2017 Date last updated by company: 07/14/2017
