Source: USDA Branded Food Products Database Release December 2017 Software v.3.8.6.4 2017-10-02
Report Run at: December 17, 2017 05:42 EST
"Nutrient data for: 45279413, BLUE CHEESE ITALIAN VINAIGRETTE, UPC: 03003408734"
Food Group:  Branded Food Products Database
Common Name:

Nutrient,Unit,Data points,Std. Error,"2.0 Tbsp = 30.0g",1Value per 100 g,
Proximates
"Energy",kcal,--,--,80,267
"Protein",g,--,--,1.00,3.33
"Total lipid (fat)",g,--,--,8.00,26.67
"Carbohydrate, by difference",g,--,--,3.00,10.00
"Fiber, total dietary",g,--,--,0.0,0.0
"Sugars, total",g,--,--,2.00,6.67
Minerals
"Calcium, Ca",mg,--,--,0,0
"Iron, Fe",mg,--,--,0.00,0.00
"Sodium, Na",mg,--,--,330,1100
Vitamins
"Vitamin C, total ascorbic acid",mg,--,--,2.0,6.7
"Vitamin A, IU",IU,--,--,0,0
Lipids
"Fatty acids, total saturated",g,--,--,1.500,5.000
"Fatty acids, total trans",g,--,--,0.000,0.000
"Cholesterol",mg,--,--,0,0
Amino Acids
Other
Ingredients
"WATER, VEGETABLE OIL (SOYBEAN, OLIVE), WHITE WINE VINEGAR, SUGAR, BLUE CHEESE (CULTURED PASTEURIZED MILK, SALT, ENZYMES), SALT, DRIED GARLIC, DRIED ONION, CONTAINS LESS THAN 1% OF DRIED RED BELL PEPPERS, SPICE, LACTIC ACID, XANTHAN GUM, LEMON JUICE CONCENTRATE, NATURAL FLAVORS, POTASSIUM SORBATE (PRESERVATIVE), CALCIUM DISODIUM EDTA TO PROTECT FLAVOR, WITH CARAMEL COLOR, BETA CAROTENE AND ANNATTO EXTRACT (FOR COLOR)." Date available: 07/14/2017 Date last updated by company: 07/14/2017
