Source: USDA Branded Food Products Database Release December 2017 Software v.3.8.6.4 2017-10-02
Report Run at: December 17, 2017 05:39 EST
"Nutrient data for: 45008859, BLUE BUNNY, PREMIUM ICE CREAM, DOUBLE STRAWBERRY, UPC: 070640008834"
Food Group:  Branded Food Products Database
Common Name:

Nutrient,Unit,Data points,Std. Error,"0.5 cup = 73.0g",1Value per 100 g,
Proximates
"Energy",kcal,--,--,140,192
"Protein",g,--,--,2.00,2.74
"Total lipid (fat)",g,--,--,6.00,8.22
"Carbohydrate, by difference",g,--,--,20.00,27.40
"Fiber, total dietary",g,--,--,0.0,0.0
"Sugars, total",g,--,--,18.00,24.66
Minerals
"Calcium, Ca",mg,--,--,80,110
"Iron, Fe",mg,--,--,0.00,0.00
"Potassium, K",mg,--,--,115,158
"Sodium, Na",mg,--,--,35,48
Vitamins
"Vitamin C, total ascorbic acid",mg,--,--,4.0,5.5
"Vitamin A, IU",IU,--,--,225,308
Lipids
"Fatty acids, total saturated",g,--,--,3.497,4.790
"Fatty acids, total trans",g,--,--,0.000,0.000
"Cholesterol",mg,--,--,25,34
Amino Acids
Other
Ingredients
"MILK, CREAM, SKIM MILK, SUGAR, STRAWBERRIES, STRAWBERRY REVEL (STRAWBERRIES, SUGAR, WATER, NATURAL FLAVORS, PECTIN, CITRIC ACID, PHOSPHORIC ACID, CALCIUM CHLORIDE, BLUE 1 AND RED 40), CORN SYRUP, CONTAINS 1% OR LESS OF THE FOLLOWING: CAROB BEAN GUM, GUAR GUM, CARRAGENNAN, MONO & DIGLYCERIDES, CELLULOSE GEL, CELLULOSE GUM, NATURAL STRAWBERRY FLAVOR WITH OTHER NATURAL FLAVORS." Date available: 06/24/2017 Date last updated by company: 06/24/2017
