Source: USDA Branded Food Products Database Release December 2017 Software v.3.8.6.4 2017-10-02
Report Run at: December 17, 2017 05:42 EST
"Nutrient data for: 45290772, BLUE CHEESE STUFFED OLIVES, UPC: 072036005182"
Food Group:  Branded Food Products Database
Common Name:

Nutrient,Unit,Data points,Std. Error,"1 OLIVE = 12.0g",1Value per 100 g,
Proximates
"Energy",kcal,--,--,60,500
"Protein",g,--,--,2.00,16.67
"Total lipid (fat)",g,--,--,6.00,50.00
"Carbohydrate, by difference",g,--,--,0.00,0.00
"Fiber, total dietary",g,--,--,0.0,0.0
"Sugars, total",g,--,--,0.00,0.00
Minerals
"Calcium, Ca",mg,--,--,0,0
"Iron, Fe",mg,--,--,0.00,0.00
"Sodium, Na",mg,--,--,250,2083
Vitamins
"Vitamin C, total ascorbic acid",mg,--,--,0.0,0.0
"Vitamin A, IU",IU,--,--,0,0
Lipids
"Fatty acids, total saturated",g,--,--,0.500,4.170
"Fatty acids, total trans",g,--,--,0.000,0.000
"Cholesterol",mg,--,--,4,33
Amino Acids
Other
Ingredients
"OLIVES (OLIVES, WATER, SALT, LACTIC ACID, ACETIC ACID), BLUE CHEESE (PASTEURIZED MILK, SALT, LACTIC ACID, STARTER CULTURE, RENNET, P. ROQUEFORTI), CANOLA OIL." Date available: 07/14/2017 Date last updated by company: 07/14/2017
