Source: USDA Branded Food Products Database Release December 2017 Software v.3.8.6.4 2017-10-02
Report Run at: December 17, 2017 04:59 EST
"Nutrient data for: 45256310, BLUEBERRY PIE, UPC: 049705807576"
Food Group:  Branded Food Products Database
Common Name:

Nutrient,Unit,Data points,Std. Error,"0.333 PIE = 128.0g",1Value per 100 g,
Proximates
"Energy",kcal,--,--,320,250
"Protein",g,--,--,2.00,1.56
"Total lipid (fat)",g,--,--,15.00,11.72
"Carbohydrate, by difference",g,--,--,44.01,34.38
"Fiber, total dietary",g,--,--,2.0,1.6
"Sugars, total",g,--,--,16.00,12.50
Minerals
"Calcium, Ca",mg,--,--,0,0
"Iron, Fe",mg,--,--,0.00,0.00
"Sodium, Na",mg,--,--,180,141
Vitamins
"Vitamin C, total ascorbic acid",mg,--,--,3.5,2.7
"Vitamin A, IU",IU,--,--,0,0
Lipids
"Fatty acids, total saturated",g,--,--,4.506,3.520
"Fatty acids, total trans",g,--,--,0.000,0.000
"Cholesterol",mg,--,--,0,0
Amino Acids
Other
Ingredients
"WILD BLUEBERRIES, UNENRICHED WET FLOUR, SUGAR, PALM AND/OR SOYBEAN OILS, WATER, MODIFIED FOOD STARCH, CORN SYRUP, EGGS, SALT, FERMAND P-DOUGH CONDITIONER (YEAST ENZYMES), LESS THAN 1/20 OF 1% SODIUM BENZOATE AND SODIUMPROPIONATE ADDED AS A PRESERVATIVE." Date available: 10/19/2017 Date last updated by company: 10/19/2017
