Source: USDA Branded Food Products Database Release December 2017 Software v.3.8.6.4 2017-10-02
Report Run at: December 17, 2017 04:59 EST
"Nutrient data for: 45290068, BLUEBERRY PIE BREAD, UPC: 714373001433"
Food Group:  Branded Food Products Database
Common Name:

Nutrient,Unit,Data points,Std. Error,"1 SLICE, 0.5-INCH SLICE = 43.0g",1Value per 100 g,
Proximates
"Energy",kcal,--,--,110,256
"Protein",g,--,--,2.00,4.65
"Total lipid (fat)",g,--,--,2.50,5.81
"Carbohydrate, by difference",g,--,--,22.00,51.16
"Fiber, total dietary",g,--,--,1.0,2.3
"Sugars, total",g,--,--,9.00,20.93
Minerals
"Calcium, Ca",mg,--,--,0,0
"Iron, Fe",mg,--,--,0.46,1.07
"Sodium, Na",mg,--,--,135,314
Vitamins
"Vitamin C, total ascorbic acid",mg,--,--,1.5,3.6
"Vitamin A, IU",IU,--,--,0,0
Lipids
"Fatty acids, total saturated",g,--,--,1.002,2.330
"Fatty acids, total trans",g,--,--,0.000,0.000
"Cholesterol",mg,--,--,5,12
Amino Acids
Other
Ingredients
"UNBLEACHED UNBROMATED WHEAT FLOUR (WHEAT FLOUR, MALTED BARLEY FLOUR), BLUEBERRIES, WATER, SUGAR, MARGARINE (PALM OIL, WATER, SOYBEAN OIL, SALT, SOY LECITHIN, NATURAL FLAVOR, BETA CAROTENE [COLOR], VITAMIN A PALMITATE ADDED), EGGS, SALT, YEAST." Date available: 10/06/2017 Date last updated by company: 10/06/2017
