Source: USDA Branded Food Products Database Release December 2017 Software v.3.8.6.4 2017-10-02
Report Run at: December 17, 2017 05:53 EST
"Nutrient data for: 45179644, BLUE VELVET CUPCAKES, UPC: 770981050782"
Food Group:  Branded Food Products Database
Common Name:

Nutrient,Unit,Data points,Std. Error,"3.0 CUPCAKES = 67.0g",1Value per 100 g,
Proximates
"Energy",kcal,--,--,280,418
"Protein",g,--,--,2.00,2.99
"Total lipid (fat)",g,--,--,15.00,22.39
"Carbohydrate, by difference",g,--,--,34.00,50.75
"Fiber, total dietary",g,--,--,0.0,0.0
"Sugars, total",g,--,--,27.00,40.30
Minerals
"Calcium, Ca",mg,--,--,20,30
"Iron, Fe",mg,--,--,0.43,0.64
"Sodium, Na",mg,--,--,180,269
Vitamins
"Vitamin C, total ascorbic acid",mg,--,--,0.0,0.0
"Vitamin A, IU",IU,--,--,0,0
Lipids
"Fatty acids, total saturated",g,--,--,4.998,7.460
"Fatty acids, total trans",g,--,--,0.000,0.000
"Cholesterol",mg,--,--,35,52
Amino Acids
Other
Ingredients
"ICING SUGAR, SUGAR, CREAM CHEESE (CREAM, SKIM MILK, BACTERIAL CULTURE, SALT, CAROB BEAN GUM), SHORTENING (CANOLA , PALM, MODIFIED PALM AND PALM KERNEL OIL), WATER, ENRICHED WHEAT FLOUR (WHEAT FLOUR, NIACIN, REDUCED IRON, THIAMINE MONONITRATE, RIBOFLAVIN, FOLIC ACID), EGG, SOYBEAN AND CANOLA OIL, MODIFIED CORN STARCH, WHEY POWDER, LEAVENING (SODIUM ACID PYROPHOSPHATE, SODIUM BICARBONATE, CORN STARCH, MONOCALCIUM PHOSPHATE, CALCIUM SULFATE), SOYBEAN LECITHIN, WHEAT GLUTEN, SALT, ARTIFICIAL FLAVOR, COLOR (FD&C BLUE #1, FD&C RED #40 LAKE, FD&C BLUE #2 LAKE, FD&C RED #3, BETA CAROTENE), DIACETYL TARTARIC ACID ESTERS OF MONO AND DIGLYCERIDES, CARNAUBA WAX, POLYSORBATE 60." Date available: 07/14/2017 Date last updated by company: 07/14/2017
