Source: USDA Branded Food Products Database Release December 2017 Software v.3.8.6.4 2017-10-02
Report Run at: December 17, 2017 05:39 EST
"Nutrient data for: 45113789, BLUE BUNNY, ICE CREAM, VANILLA BEAN, UPC: 070640012282"
Food Group:  Branded Food Products Database
Common Name:

Nutrient,Unit,Data points,Std. Error,"0.5 cup = 69.0g",1Value per 100 g,
Proximates
"Energy",kcal,--,--,150,217
"Protein",g,--,--,3.00,4.35
"Total lipid (fat)",g,--,--,9.00,13.04
"Carbohydrate, by difference",g,--,--,15.00,21.74
"Fiber, total dietary",g,--,--,0.0,0.0
"Sugars, total",g,--,--,15.00,21.74
Minerals
"Calcium, Ca",mg,--,--,100,145
"Iron, Fe",mg,--,--,0.00,0.00
"Potassium, K",mg,--,--,140,203
"Sodium, Na",mg,--,--,45,65
Vitamins
"Vitamin C, total ascorbic acid",mg,--,--,0.0,0.0
"Vitamin A, IU",IU,--,--,337,489
Lipids
"Fatty acids, total saturated",g,--,--,5.003,7.250
"Fatty acids, total trans",g,--,--,0.000,0.000
"Cholesterol",mg,--,--,50,72
Amino Acids
Other
Ingredients
"MILK, CREAM, SKIM MILK, SUGAR, EGG YOLKS, NATURAL VANILLA EXTRACT AND VANILLA BEAN SPECKS." Date available: 07/14/2017 Date last updated by company: 07/14/2017
