Source: USDA Branded Food Products Database Release December 2017 Software v.3.8.6.4 2017-10-02
Report Run at: December 17, 2017 05:00 EST
"Nutrient data for: 45285837, BLUEBERRY WAFFLES, UPC: 813430021305"
Food Group:  Branded Food Products Database
Common Name:

Nutrient,Unit,Data points,Std. Error,"2.0 WAFFLES = 105.0g",1Value per 100 g,
Proximates
"Energy",kcal,--,--,200,190
"Protein",g,--,--,15.00,14.29
"Total lipid (fat)",g,--,--,5.00,4.76
"Carbohydrate, by difference",g,--,--,26.00,24.76
"Fiber, total dietary",g,--,--,3.0,2.9
"Sugars, total",g,--,--,7.00,6.67
Minerals
"Calcium, Ca",mg,--,--,60,57
"Iron, Fe",mg,--,--,0.59,0.56
"Potassium, K",mg,--,--,270,257
"Sodium, Na",mg,--,--,450,429
Vitamins
"Vitamin C, total ascorbic acid",mg,--,--,2.9,2.8
"Vitamin A, IU",IU,--,--,810,771
Lipids
"Fatty acids, total saturated",g,--,--,1.995,1.900
"Fatty acids, total trans",g,--,--,0.000,0.000
"Cholesterol",mg,--,--,35,33
Amino Acids
Other
Ingredients
"WATER, EGG, WHITE RICE FLOUR, DEHYDRATED FRUIT POWDER, BUCKWHEAT FLOUR, OAT FLOUR, CANOLA OIL, POTATO STARCH, DEHYDRATED VEGETABLE POWDER, GREEK YOGURT POWDER (CULTURED SKIM MILK, CREAM, MILK), WHEY PROTEIN ISOLATE, TAPIOCA FLOUR, BLUEBERRIES, BAKING SODA (SODIUM BICARBONATE), BAKING POWDER (SODIUM ACID PYROPHOSPHATE, SODIUM BICARBONATE, CORN STARCH, MONOCALCIUM PHOSPHATE) XANTHAN GUM, CITRIC ACID, LOCUST BEAN GUM, NATURAL AND ARTIFICIAL FLAVORS" Date available: 07/14/2017 Date last updated by company: 07/14/2017
