Source: USDA Branded Food Products Database Release December 2017 Software v.3.8.6.4 2017-10-02
Report Run at: December 17, 2017 05:45 EST
"Nutrient data for: 45228550, BLUE DIAMOND, ALMOND BREEZE, ALMONDMILK, ORIGINAL, UPC: 041570068274"
Food Group:  Branded Food Products Database
Common Name:

Nutrient,Unit,Data points,Std. Error,"1 cup = 240.0g",1Value per 100 g,
Proximates
"Energy",kcal,--,--,60,25
"Protein",g,--,--,1.01,0.42
"Total lipid (fat)",g,--,--,2.50,1.04
"Carbohydrate, by difference",g,--,--,7.99,3.33
"Fiber, total dietary",g,--,--,1.0,0.4
"Sugars, total",g,--,--,7.01,2.92
Minerals
"Calcium, Ca",mg,--,--,451,188
"Iron, Fe",mg,--,--,0.72,0.30
"Magnesium, Mg",mg,--,--,17,7
"Phosphorus, P",mg,--,--,19,8
"Potassium, K",mg,--,--,170,71
"Sodium, Na",mg,--,--,149,62
"Zinc, Zn",mg,--,--,0.00,0.00
"Copper, Cu",mg,--,--,0.041,0.017
"Manganese, Mn",mg,--,--,0.000,0.000
Vitamins
"Vitamin C, total ascorbic acid",mg,--,--,0.0,0.0
"Riboflavin",mg,--,--,0.034,0.014
"Vitamin A, IU",IU,--,--,499,208
"Vitamin D",IU,--,--,101,42
Lipids
"Fatty acids, total saturated",g,--,--,0.000,0.000
"Fatty acids, total monounsaturated",g,--,--,1.488,0.620
"Fatty acids, total polyunsaturated",g,--,--,0.504,0.210
"Fatty acids, total trans",g,--,--,0.000,0.000
"Cholesterol",mg,--,--,0,0
Amino Acids
Other
Ingredients
"ALMONDMILK (FILTERED WATER, ALMONDS), CANE SUGAR, CALCIUM CARBONATE, SEA SALT, POTASSIUM CITRATE, SUNFLOWER LECITHIN, GELLAN GUM, VITAMIN A PALMITATE, VITAMIN D2, D-ALPHA-TOCOPHEROL (NATURAL VITAMIN E)." Date available: 07/14/2017 Date last updated by company: 07/14/2017
