Source: USDA Branded Food Products Database Release December 2017 Software v.3.8.6.4 2017-10-02
Report Run at: December 17, 2017 05:46 EST
"Nutrient data for: 45234241, BLUE DIAMOND ALMONDS, ALMOND BREEZE, UNSWEETENED ALMOND MILK, VANILLA, UPC: 041570094532"
Food Group:  Branded Food Products Database
Common Name:

Nutrient,Unit,Data points,Std. Error,"11.0 OZA = 325.0g",1Value per 100 g,
Proximates
"Energy",kcal,--,--,39,12
"Protein",g,--,--,1.01,0.31
"Total lipid (fat)",g,--,--,2.99,0.92
"Carbohydrate, by difference",g,--,--,2.02,0.62
"Fiber, total dietary",g,--,--,1.0,0.3
"Sugars, total",g,--,--,0.00,0.00
Minerals
"Calcium, Ca",mg,--,--,601,185
"Iron, Fe",mg,--,--,0.81,0.25
"Magnesium, Mg",mg,--,--,13,4
"Phosphorus, P",mg,--,--,16,5
"Potassium, K",mg,--,--,221,68
"Sodium, Na",mg,--,--,211,65
Vitamins
"Vitamin C, total ascorbic acid",mg,--,--,0.0,0.0
"Vitamin A, IU",IU,--,--,552,170
"Vitamin D",IU,--,--,140,43
Lipids
"Fatty acids, total saturated",g,--,--,0.000,0.000
"Fatty acids, total monounsaturated",g,--,--,2.015,0.620
"Fatty acids, total polyunsaturated",g,--,--,1.008,0.310
"Fatty acids, total trans",g,--,--,0.000,0.000
"Cholesterol",mg,--,--,0,0
Amino Acids
Other
Ingredients
"ALMONDMILK (FILTERED WATER, ALMONDS), CALCIUM CARBONATE, NATURAL FLAVORS, SEA SALT, POTASSIUM CITRATE, SUNFLOWER LECITHIN, GELLAN GUM, VITAMIN A PALMITATE, VITAMIN D2 AND D-ALPHA-TOCOPHEROL (NATURAL VITAMIN E)" Date available: 06/24/2017 Date last updated by company: 06/24/2017
