Source: USDA Branded Food Products Database Release December 2017 Software v.3.8.6.4 2017-10-02
Report Run at: December 17, 2017 05:50 EST
"Nutrient data for: 45161823, BLUEPRINT, ORGANIC JUICE BEVERAGE, CARROT, APPLE, LEMON, PEACH, MANGO, UPC: 852043003766"
Food Group:  Branded Food Products Database
Common Name:

Nutrient,Unit,Data points,Std. Error,"1 BOTTLE = 10.0g",1Value per 100 g,
Proximates
"Energy",kcal,--,--,4,37
"Protein",g,--,--,0.00,0.00
"Total lipid (fat)",g,--,--,0.00,0.00
"Carbohydrate, by difference",g,--,--,0.87,8.67
"Fiber, total dietary",g,--,--,0.1,0.7
"Sugars, total",g,--,--,0.73,7.33
Minerals
"Calcium, Ca",mg,--,--,1,13
"Iron, Fe",mg,--,--,0.03,0.29
"Sodium, Na",mg,--,--,1,8
Vitamins
"Vitamin C, total ascorbic acid",mg,--,--,0.5,4.9
"Vitamin A, IU",IU,--,--,203,2029
Lipids
"Fatty acids, total saturated",g,--,--,0.000,0.000
"Fatty acids, total trans",g,--,--,0.000,0.000
"Cholesterol",mg,--,--,0,0
Amino Acids
Other
Ingredients
"ORGANIC JUICE FROM: ORGANIC MANGOES, ORGANIC CARROTS, ORGANIC PEACHES, ORGANIC APPLES AND ORGANIC LEMONS; WATER, ASCORBIC ACID." Date available: 07/14/2017 Date last updated by company: 07/14/2017
