Source: USDA Branded Food Products Database Release December 2017 Software v.3.8.6.4 2017-10-02
Report Run at: December 17, 2017 05:52 EST
"Nutrient data for: 45137898, BLUE SKY, ORGANIC SODA, NEW CENTURY COLA, UPC: 042175197277"
Food Group:  Branded Food Products Database
Common Name:

Nutrient,Unit,Data points,Std. Error,"1 CAN = 354.0g",1Value per 100 g,
Proximates
"Energy",kcal,--,--,159,45
"Protein",g,--,--,0.00,0.00
"Total lipid (fat)",g,--,--,0.00,0.00
"Carbohydrate, by difference",g,--,--,40.00,11.30
"Sugars, total",g,--,--,40.00,11.30
Minerals
"Sodium, Na",mg,--,--,11,3
Vitamins
Lipids
Amino Acids
Other
Ingredients
"FILTERED CARBONATED WATER, ORGANIC CANE SUGAR, NATURAL COLA NUT FLAVOR, CARAMEL COLOR AND TARTARIC ACID (FROM GRAPES)." Date available: 07/14/2017 Date last updated by company: 07/14/2017
