Source: USDA Branded Food Products Database Release December 2017 Software v.3.8.6.4 2017-10-02
Report Run at: December 17, 2017 05:39 EST
"Nutrient data for: 45110106, BLUE BUNNY, ICE CREAM, HIPPITY HOP BERRY, UPC: 070640014323"
Food Group:  Branded Food Products Database
Common Name:

Nutrient,Unit,Data points,Std. Error,"0.5 cup = 85.0g",1Value per 100 g,
Proximates
"Energy",kcal,--,--,190,224
"Protein",g,--,--,3.00,3.53
"Total lipid (fat)",g,--,--,9.00,10.59
"Carbohydrate, by difference",g,--,--,24.00,28.24
"Fiber, total dietary",g,--,--,0.0,0.0
"Sugars, total",g,--,--,22.00,25.88
Minerals
"Calcium, Ca",mg,--,--,100,118
"Iron, Fe",mg,--,--,0.00,0.00
"Potassium, K",mg,--,--,150,176
"Sodium, Na",mg,--,--,45,53
Vitamins
"Vitamin C, total ascorbic acid",mg,--,--,1.4,1.6
"Vitamin A, IU",IU,--,--,337,397
Lipids
"Fatty acids, total saturated",g,--,--,6.001,7.060
"Fatty acids, total trans",g,--,--,0.000,0.000
"Cholesterol",mg,--,--,30,35
Amino Acids
Other
Ingredients
"MILK, CREAM, SKIM MILK, SUGAR, BUTTERMILK, WHEY, STRAWBERRY SWIRL (STRAWBERRIES, SUGAR, WATER, NATURAL FLAVORS, PECTIN, CITRIC ACID, PHOSPHORIC ACID, MALIC ACID, CALCIUM CHLORIDE, STRAWBERRY JUICE CONCENTRATE, CHERRY JUICE CONCENTRATE, BLUE 1, RED 40), CHOCOLATE FLAVORED STRAWBERRY BUNNIES (SUGAR, COCONUT OIL, CORN SYRUP, STRAWBERRIES, NONFAT MILK, WHOLE MILK, COCOA PROCESSED WITH ALKALI, COCOA, SOY LECITHIN, NATURAL FLAVORS), CORN SYRUP, CONTAINS 1% OR LESS OF NATURAL STRAWBERRY FLAVOR, STRAWBERRY JUICE CONCENTRATE, CHERRY JUICE CONCENTRATE, CITRIC ACID, CAROB BEAN GUM, GUAR GUM, CARRAGEENAN, MONO & DIGLYCERIDES, CELLULOSE GEL, CELLULOSE GUM, BEET JUICE FOR COLOR." Date available: 07/14/2017 Date last updated by company: 07/14/2017
