Source: USDA Branded Food Products Database Release December 2017 Software v.3.8.6.4 2017-10-02
Report Run at: December 17, 2017 13:25 EST
"Nutrient data for: 45175215, BOAR'S HEAD, GRUYERE CHEESE SNACKS, UPC: 042421151374"
Food Group:  Branded Food Products Database
Common Name:

Nutrient,Unit,Data points,Std. Error,"2.0 PIECES = 36.0g",1Value per 100 g,
Proximates
"Energy",kcal,--,--,150,417
"Protein",g,--,--,10.00,27.78
"Total lipid (fat)",g,--,--,12.00,33.33
"Carbohydrate, by difference",g,--,--,0.00,0.00
"Fiber, total dietary",g,--,--,0.0,0.0
"Sugars, total",g,--,--,0.00,0.00
Minerals
"Calcium, Ca",mg,--,--,300,833
"Iron, Fe",mg,--,--,0.00,0.00
"Sodium, Na",mg,--,--,300,833
Vitamins
"Vitamin C, total ascorbic acid",mg,--,--,0.0,0.0
"Vitamin A, IU",IU,--,--,555,1543
Lipids
"Fatty acids, total saturated",g,--,--,7.999,22.220
"Fatty acids, total monounsaturated",g,--,--,2.498,6.940
"Fatty acids, total polyunsaturated",g,--,--,0.000,0.000
"Fatty acids, total trans",g,--,--,0.000,0.000
"Cholesterol",mg,--,--,45,125
Amino Acids
Other
Ingredients
"PASTEURIZED MILK, CHEESE CULTURES, SALT, ENZYMES." Date available: 07/14/2017 Date last updated by company: 07/14/2017
