Source: USDA Branded Food Products Database Release December 2017 Software v.3.8.6.4 2017-10-02
Report Run at: December 17, 2017 13:27 EST
"Nutrient data for: 45045930, BOAR'S HEAD, SMOKE MASTER, BLACK FOREST HAM WITH NATURAL JUICES, BEECHWOD SMOKED, UPC: 208530500001"
Food Group:  Branded Food Products Database
Common Name:

Nutrient,Unit,Data points,Std. Error,"2.0 ONZ = 56.0g",1Value per 100 g,
Proximates
"Energy",kcal,--,--,60,107
"Protein",g,--,--,10.00,17.86
"Total lipid (fat)",g,--,--,1.00,1.79
"Carbohydrate, by difference",g,--,--,2.00,3.57
"Sugars, total",g,--,--,2.00,3.57
Minerals
"Iron, Fe",mg,--,--,0.71,1.26
"Potassium, K",mg,--,--,160,286
"Sodium, Na",mg,--,--,460,821
Vitamins
Lipids
"Fatty acids, total saturated",g,--,--,0.000,0.000
"Fatty acids, total monounsaturated",g,--,--,0.000,0.000
"Fatty acids, total polyunsaturated",g,--,--,0.000,0.000
"Fatty acids, total trans",g,--,--,0.000,0.000
"Cholesterol",mg,--,--,30,54
Amino Acids
Other
Ingredients
"CURED WITH WATER, SUGAR, DEXTROSE, SEA SALT, LESS THAN 2% OF SODIUM PHOSPHATE, SALT, SODIUM ERYTHORBATE, SODIUM NITRITE." Date available: 06/24/2017 Date last updated by company: 06/24/2017
