Source: USDA Branded Food Products Database Release December 2017 Software v.3.8.6.4 2017-10-02
Report Run at: December 17, 2017 13:27 EST
"Nutrient data for: 45045070, BOAR'S HEAD, SUPERIORE ITALIAN DRY SAUSAGE, UPC: 042421161892"
Food Group:  Branded Food Products Database
Common Name:

Nutrient,Unit,Data points,Std. Error,"1 ONZ = 28.0g",1Value per 100 g,
Proximates
"Energy",kcal,--,--,120,429
"Protein",g,--,--,9.00,32.14
"Total lipid (fat)",g,--,--,9.00,32.14
"Carbohydrate, by difference",g,--,--,0.00,0.00
Minerals
"Iron, Fe",mg,--,--,2.12,7.58
"Potassium, K",mg,--,--,180,643
"Sodium, Na",mg,--,--,610,2179
Vitamins
Lipids
"Fatty acids, total saturated",g,--,--,2.999,10.710
"Fatty acids, total monounsaturated",g,--,--,3.500,12.500
"Fatty acids, total polyunsaturated",g,--,--,1.501,5.360
"Fatty acids, total trans",g,--,--,0.000,0.000
"Cholesterol",mg,--,--,25,89
Amino Acids
Other
Ingredients
"PORK, SALT, DEXTROSE, SPICES, LACTIC ACID STARTER ERYTHORBATE, GARLIC, SODIUM NITRITE." Date available: 10/03/2017 Date last updated by company: 10/03/2017
