Source: USDA Branded Food Products Database Release December 2017 Software v.3.8.6.4 2017-10-02
Report Run at: December 17, 2017 13:33 EST
"Nutrient data for: 45026837, BOB'S RED MILL, BROWN RICE FARINA CREAMY RICE HOT CEREAL, UPC: 039978009739"
Food Group:  Branded Food Products Database
Common Name:

Nutrient,Unit,Data points,Std. Error,"26.0 OZ BAG) | ( = 41.0g",1Value per 100 g,
Proximates
"Energy",kcal,--,--,150,366
"Protein",g,--,--,3.00,7.32
"Total lipid (fat)",g,--,--,1.00,2.44
"Carbohydrate, by difference",g,--,--,32.00,78.05
"Fiber, total dietary",g,--,--,2.0,4.9
"Sugars, total",g,--,--,0.00,0.00
Minerals
"Calcium, Ca",mg,--,--,0,0
"Iron, Fe",mg,--,--,0.88,2.14
"Sodium, Na",mg,--,--,5,12
Vitamins
"Vitamin C, total ascorbic acid",mg,--,--,0.0,0.0
"Vitamin A, IU",IU,--,--,0,0
Lipids
"Fatty acids, total saturated",g,--,--,0.000,0.000
"Fatty acids, total trans",g,--,--,0.000,0.000
"Cholesterol",mg,--,--,0,0
Amino Acids
Other
Ingredients
"WHOLE GRAIN ORGANIC BROWN RICE." Date available: 10/19/2017 Date last updated by company: 10/19/2017
