Source: USDA Branded Food Products Database Release December 2017 Software v.3.8.6.4 2017-10-02
Report Run at: December 17, 2017 13:35 EST
"Nutrient data for: 45093093, BOB'S RED MILL, HERITAGE BEANS LENTILS, UPC: 039978004253"
Food Group:  Branded Food Products Database
Common Name:

Nutrient,Unit,Data points,Std. Error,"0.25 cup = 50.0g",1Value per 100 g,
Proximates
"Energy",kcal,--,--,180,360
"Protein",g,--,--,11.00,22.00
"Total lipid (fat)",g,--,--,0.50,1.00
"Carbohydrate, by difference",g,--,--,32.00,64.00
"Fiber, total dietary",g,--,--,19.0,38.0
"Sugars, total",g,--,--,1.00,2.00
Minerals
"Calcium, Ca",mg,--,--,40,80
"Iron, Fe",mg,--,--,2.52,5.04
"Magnesium, Mg",mg,--,--,42,84
"Phosphorus, P",mg,--,--,105,210
"Potassium, K",mg,--,--,480,960
"Sodium, Na",mg,--,--,0,0
"Zinc, Zn",mg,--,--,1.50,3.00
Vitamins
"Vitamin C, total ascorbic acid",mg,--,--,0.0,0.0
"Vitamin A, IU",IU,--,--,0,0
Lipids
"Fatty acids, total saturated",g,--,--,0.000,0.000
"Fatty acids, total trans",g,--,--,0.000,0.000
"Cholesterol",mg,--,--,0,0
Amino Acids
Other
Ingredients
"LENTILS." Date available: 06/25/2017 Date last updated by company: 06/25/2017
