Source: USDA Branded Food Products Database Release December 2017 Software v.3.8.6.4 2017-10-02
Report Run at: December 17, 2017 13:29 EST
"Nutrient data for: 45120761, BOBAK'S, MAXWELL, SMOKED POLISH SAUSAGE, UPC: 053728031061"
Food Group:  Branded Food Products Database
Common Name:

Nutrient,Unit,Data points,Std. Error,"1 LINK = 79.0g",1Value per 100 g,
Proximates
"Energy",kcal,--,--,240,304
"Protein",g,--,--,9.00,11.39
"Total lipid (fat)",g,--,--,21.00,26.58
"Carbohydrate, by difference",g,--,--,3.00,3.80
"Fiber, total dietary",g,--,--,0.0,0.0
"Sugars, total",g,--,--,1.00,1.27
Minerals
"Calcium, Ca",mg,--,--,0,0
"Iron, Fe",mg,--,--,0.50,0.63
"Sodium, Na",mg,--,--,700,886
Vitamins
"Vitamin C, total ascorbic acid",mg,--,--,0.0,0.0
"Vitamin A, IU",IU,--,--,0,0
Lipids
"Fatty acids, total saturated",g,--,--,8.003,10.130
"Fatty acids, total trans",g,--,--,0.000,0.000
"Cholesterol",mg,--,--,45,57
Amino Acids
Other
Ingredients
"MEAT (PORK, BEEF), WATER, LESS THAN 2% OF: NATURAL FLAVORS, GARLIC, SALT, SUGAR, DEXTROSE, CORN SYRUP, SODIUM PHOSPHATES, POTASSIUM LACTATE, SODIUM DIACETATE, SODIUM ERYTHORBATE, SODIUM NITRITE." Date available: 06/25/2017 Date last updated by company: 06/25/2017
