Source: USDA Branded Food Products Database Release December 2017 Software v.3.8.6.4 2017-10-02
Report Run at: December 17, 2017 13:32 EST
"Nutrient data for: 45205844, BOBO'S OAT BARS, BOBO'S BITES, LEMON POPPYSEED, UPC: 829262000692"
Food Group:  Branded Food Products Database
Common Name:

Nutrient,Unit,Data points,Std. Error,"1 BAR = 37.0g",1Value per 100 g,
Proximates
"Energy",kcal,--,--,160,432
"Protein",g,--,--,3.00,8.11
"Total lipid (fat)",g,--,--,6.00,16.22
"Carbohydrate, by difference",g,--,--,24.00,64.86
"Fiber, total dietary",g,--,--,2.0,5.4
"Sugars, total",g,--,--,8.00,21.62
Minerals
"Calcium, Ca",mg,--,--,20,54
"Iron, Fe",mg,--,--,1.17,3.16
"Sodium, Na",mg,--,--,15,41
Vitamins
"Vitamin C, total ascorbic acid",mg,--,--,0.0,0.0
"Vitamin A, IU",IU,--,--,0,0
Lipids
"Fatty acids, total saturated",g,--,--,1.498,4.050
"Fatty acids, total trans",g,--,--,0.000,0.000
"Cholesterol",mg,--,--,0,0
Amino Acids
Other
Ingredients
"ORGANIC ROLLED OATS, BROWN RICE SYRUP (BROWN RICE, FILTERED WATER), OIL BLEND [PALM, CANOLA AND OLIVE OILS, FILTERED WATER, SALT, NATURAL FLAVOR, SUNFLOWER LECITHIN, LACTIC ACID (DERIVED FROM SUGAR BEETS), ANNATTO EXTRACT (COLOR)], ORGANIC RAW SUGAR, POPPY SEEDS, NATURAL LEMON OIL, XANTHAN GUM" Date available: 07/14/2017 Date last updated by company: 07/14/2017
