Source: USDA Branded Food Products Database Release December 2017 Software v.3.8.6.4 2017-10-02
Report Run at: December 17, 2017 18:55 EST
"Nutrient data for: 45311409, BOCA, VEGAN SOY PROTEIN CHICKEN NUGGETS, ORIGINAL, UPC: 759283601120"
Food Group:  Branded Food Products Database
Common Name:

Nutrient,Unit,Data points,Std. Error,"4.0 NUGGETS = 87.0g",1Value per 100 g,
Proximates
"Energy",kcal,--,--,160,184
"Protein",g,--,--,15.00,17.24
"Total lipid (fat)",g,--,--,5.00,5.75
"Carbohydrate, by difference",g,--,--,15.00,17.24
"Fiber, total dietary",g,--,--,3.0,3.4
"Sugars, total",g,--,--,2.00,2.30
Minerals
"Calcium, Ca",mg,--,--,40,46
"Iron, Fe",mg,--,--,1.76,2.02
"Potassium, K",mg,--,--,260,299
"Sodium, Na",mg,--,--,530,609
Vitamins
"Vitamin C, total ascorbic acid",mg,--,--,0.0,0.0
"Vitamin A, IU",IU,--,--,97,112
Lipids
"Fatty acids, total saturated",g,--,--,1.000,1.150
"Fatty acids, total monounsaturated",g,--,--,2.497,2.870
"Fatty acids, total polyunsaturated",g,--,--,0.000,0.000
"Fatty acids, total trans",g,--,--,0.000,0.000
"Cholesterol",mg,--,--,0,0
Amino Acids
Other
Ingredients
"NUGGET - WATER, SOY PROTEIN CONCENTRATE*, SOY PROTEIN ISOLATE*., TEXTURED WHEAT PROTEIN (WHEAT GLUTEN, WHEAT FLOUR), YEAST EXTRACT, CONTAINS LESS THAN 2% OF WHEAT GLUTEN, METHYLCELLULOSE, SALT, SPICE (CONTAINS BLACK PEPPER), NATURAL FLAVOR (NON-MEAT), ONION POWDER, SUCCINIC ACID. BATTER - WATER, WHEAT FLOUR, YELLOW CORN FLOUR, SALT. BREADING - WHEAT FLOUR, WASHED RAW SUGAR, SALT, DRIED YEAST, CARAMEL COLOR, NATURAL FLAVOR (NON-MEAT). BROWNED IN EXPELLER PRESSED OLEIC SAFFLOWER OIL." Date available: 07/14/2017 Date last updated by company: 07/14/2017
