Source: USDA Branded Food Products Database Release December 2017 Software v.3.8.6.4 2017-10-02
Report Run at: December 17, 2017 18:55 EST
"Nutrient data for: 45311393, BOCA, SAVORY MUSHROOM MOZZARELLA VEGGIE PATTIES, UPC: 759283601076"
Food Group:  Branded Food Products Database
Common Name:

Nutrient,Unit,Data points,Std. Error,"1 PATTY = 71.0g",1Value per 100 g,
Proximates
"Energy",kcal,--,--,110,155
"Protein",g,--,--,14.00,19.72
"Total lipid (fat)",g,--,--,3.00,4.23
"Carbohydrate, by difference",g,--,--,8.00,11.27
"Fiber, total dietary",g,--,--,5.0,7.0
"Sugars, total",g,--,--,0.00,0.00
Minerals
"Calcium, Ca",mg,--,--,80,113
"Iron, Fe",mg,--,--,2.15,3.03
"Potassium, K",mg,--,--,340,479
"Sodium, Na",mg,--,--,280,394
Vitamins
"Vitamin C, total ascorbic acid",mg,--,--,0.0,0.0
"Vitamin A, IU",IU,--,--,0,0
Lipids
"Fatty acids, total saturated",g,--,--,0.497,0.700
"Fatty acids, total monounsaturated",g,--,--,1.001,1.410
"Fatty acids, total polyunsaturated",g,--,--,1.001,1.410
"Fatty acids, total trans",g,--,--,0.000,0.000
"Cholesterol",mg,--,--,0,0
Amino Acids
Other
Ingredients
"WATER, SOY PROTEIN CONCENTRATE, MUSHROOMS, ROLLED OATS, LOW-MOISTURE PART-SKIM MOZZARELLA CHEESE (PASTEURIZED MILK, CHEESE CULTURES, SALT, ENZYMES), ONIONS, WHEAT GLUTEN, CONTAINS LESS THAN 2% OF YEAST EXTRACT, BROWN RICE, METHYLCELLULOSE, CORN OIL, ONION PUREE, GARLIC PUREE, SALT, DRIED SOY SAUCE (SOYBEANS, WHEAT, SALT), NATURAL FLAVOR (NON-MEAT), OREGANO, THYME, DISODIUM GUANYLATE, DISODIUM INOSINATE, ONION POWDER, CARAMEL COLOR." Date available: 07/14/2017 Date last updated by company: 07/14/2017
