Source: USDA Branded Food Products Database Release December 2017 Software v.3.8.6.4 2017-10-02
Report Run at: December 17, 2017 18:59 EST
"Nutrient data for: 45159302, BOLANDS, BOURBON CREAMS SANDWICH BISCUITS, CRUNCHY CHOCLATE, UPC: 391517593391"
Food Group:  Branded Food Products Database
Common Name:

Nutrient,Unit,Data points,Std. Error,"100.0 GRM = 100.0g",1Value per 100 g,
Proximates
"Energy",kcal,--,--,489,489
"Protein",g,--,--,5.50,5.50
"Total lipid (fat)",g,--,--,21.60,21.60
"Carbohydrate, by difference",g,--,--,66.10,66.10
"Fiber, total dietary",g,--,--,3.4,3.4
"Sugars, total",g,--,--,30.30,30.30
Minerals
Vitamins
Lipids
"Fatty acids, total saturated",g,--,--,13.100,13.100
Amino Acids
Other
Ingredients
"FORTIFIED WHEAT FLOUR (WITH CALCIUM, IRON, NIACIN (VITAMIN B3), THIAMIN (VITAMIN B1), SUGAR, PALM OIL, FAT REDUCED COCOA POWDER, GLUCOSE SYRUP, DEXTROSE MONOHYDRATE, WHEAT STARCH, RAISING AGENTS (AMMONIUM BICARBONATE, SODIUM BICARBONATE), SALT, NATURAL FLAVOURING." Date available: 10/13/2017 Date last updated by company: 10/13/2017
