Source: USDA Branded Food Products Database Release December 2017 Software v.3.8.6.4 2017-10-02
Report Run at: December 17, 2017 19:03 EST
"Nutrient data for: 45095444, BOLD ORGANICS, TURN ON THE FLAVOR, VEGGIE LOVERS CRUST PZZA, UPC: 853407003026"
Food Group:  Branded Food Products Database
Common Name:

Nutrient,Unit,Data points,Std. Error,"123.0 g = 123.0g",1Value per 100 g,
Proximates
"Energy",kcal,--,--,210,171
"Protein",g,--,--,3.00,2.44
"Total lipid (fat)",g,--,--,9.00,7.32
"Carbohydrate, by difference",g,--,--,30.00,24.39
"Fiber, total dietary",g,--,--,4.1,3.3
"Sugars, total",g,--,--,2.00,1.63
Minerals
"Calcium, Ca",mg,--,--,41,33
"Iron, Fe",mg,--,--,2.85,2.32
"Sodium, Na",mg,--,--,360,293
Vitamins
"Vitamin C, total ascorbic acid",mg,--,--,23.7,19.3
"Vitamin A, IU",IU,--,--,792,644
Lipids
"Fatty acids, total saturated",g,--,--,0.996,0.810
"Fatty acids, total trans",g,--,--,0.000,0.000
"Cholesterol",mg,--,--,0,0
Amino Acids
Other
Ingredients
"FILTERED WATER, VEGAN GOURMET MOZZARELLA CHEESE ALTERNATIVE (FILTERED WATER, EXPELLER-PRESSED CANOLA OIL, TOFU [SOYBEANS, CALCIUM SULFATE], INULIN [CHICORY ROOT EXTRACT], SOY PROTEIN, AGAR AGAR, SEA SALT, NATURAL FLAVOR [PLANT BASED SOURCES], CARRAGEENAN, LACTIC ACID [VEGETABLE SOURCE]), ORGANIC CRUSHED TOMATOES, ORGANIC POTATO STARCH, ORGANIC BROWN RICE FLOUR, ORGANIC YELLOW CORN MEAL, ORGANIC ROASTED RED BELL PEPPERS, SHIITAKE MUSHROOMS, ORGANIC ROASTED YELLOW ONIONS, FRESH YEAST, ORGANIC TOMATO PASTE, ORGANIC EXTRA VIRGIN OLIVE OIL, XANTHAN GUM, ORGANIC CANE SUGAR, ORGANIC OREGANO, ORGANIC APPLE CIDER VINEGAR, SEA SALT, ORGANIC SPICES (ROSEMARY, BALCK PEPPER, GRANULATED GARLIC, RED CHILI)." Date available: 06/25/2017 Date last updated by company: 06/25/2017
