Source: USDA Branded Food Products Database Release December 2017 Software v.3.8.6.4 2017-10-02
Report Run at: December 17, 2017 19:04 EST
"Nutrient data for: 45287408, BOLD SMART SNACKING ALMONDS, UPC: 041570055786"
Food Group:  Branded Food Products Database
Common Name:

Nutrient,Unit,Data points,Std. Error,"1 PACKAGE = 43.0g",1Value per 100 g,
Proximates
"Energy",kcal,--,--,250,581
"Protein",g,--,--,8.00,18.60
"Total lipid (fat)",g,--,--,23.00,53.49
"Carbohydrate, by difference",g,--,--,8.00,18.60
"Fiber, total dietary",g,--,--,4.0,9.3
"Sugars, total",g,--,--,2.00,4.65
Minerals
"Calcium, Ca",mg,--,--,100,233
"Iron, Fe",mg,--,--,1.67,3.89
"Magnesium, Mg",mg,--,--,116,270
"Potassium, K",mg,--,--,280,651
"Sodium, Na",mg,--,--,210,488
Vitamins
"Vitamin C, total ascorbic acid",mg,--,--,0.0,0.0
"Vitamin A, IU",IU,--,--,0,0
Lipids
"Fatty acids, total saturated",g,--,--,1.501,3.490
"Fatty acids, total trans",g,--,--,0.000,0.000
"Cholesterol",mg,--,--,0,0
Amino Acids
Other
Ingredients
"ALMONDS, VEGETABLE OIL (CANOLA, SAFFLOWER AND/OR SUNFLOWER), SALT, SODIUM DIACETATE, DEXTROSE, LACTOSE (MILK), AND MALIC ACID." Date available: 07/14/2017 Date last updated by company: 07/14/2017
