Source: USDA Branded Food Products Database Release December 2017 Software v.3.8.6.4 2017-10-02
Report Run at: December 17, 2017 19:01 EST
"Nutrient data for: 45312097, BOLD & CREAMY SAUCE, UPC: 021000032761"
Food Group:  Branded Food Products Database
Common Name:

Nutrient,Unit,Data points,Std. Error,"2.0 Tbsp = 29.0g",1Value per 100 g,
Proximates
"Energy",kcal,--,--,110,379
"Protein",g,--,--,1.00,3.45
"Total lipid (fat)",g,--,--,11.00,37.93
"Carbohydrate, by difference",g,--,--,3.00,10.34
"Fiber, total dietary",g,--,--,0.0,0.0
"Sugars, total",g,--,--,1.00,3.45
Minerals
"Calcium, Ca",mg,--,--,0,0
"Iron, Fe",mg,--,--,0.00,0.00
"Sodium, Na",mg,--,--,300,1034
Vitamins
"Vitamin C, total ascorbic acid",mg,--,--,0.0,0.0
"Vitamin A, IU",IU,--,--,406,1400
Lipids
"Fatty acids, total saturated",g,--,--,1.499,5.170
"Fatty acids, total trans",g,--,--,0.000,0.000
"Cholesterol",mg,--,--,10,34
Amino Acids
Other
Ingredients
"SOYBEAN OIL, WATER, WHEY (FROM MILK), VINEGAR, BUTTERMILK*, SALT, EGG YOLKS, SUGAR, CONTAINS LESS THAN 2% OF MALTODEXTRIN, MODIFIED FOOD STARCH, GARLIC*, CHIPOTLE CHILE PEPPER PUREE, SPICE, GARLIC JUICE, ONIONS*, CITRIC ACID, CHIPOTLE CHILI PEPPER, XANTHAN GUM, PHOSPHORIC ACID, RED BELL PEPPER*, NATURAL FLAVOR, DISODIUM INOSINATE AND DISODIUM GUANYLATE, EXTRACTIVES OF PAPRIKA, NATURAL SMOKE FLAVOR, WITH SORBIC ACID AND CALCIUM DISODIUM EDTA AS PRESERVATIVES" Date available: 07/14/2017 Date last updated by company: 07/14/2017
