Source: USDA Branded Food Products Database Release December 2017 Software v.3.8.6.4 2017-10-02
Report Run at: December 18, 2017 02:52 EST
"Nutrient data for: 45265295, BOLOGNA & AMERICAN WEDGE, UPC: 030223015604"
Food Group:  Branded Food Products Database
Common Name:

Nutrient,Unit,Data points,Std. Error,"1 SANDWICH = 136.0g",1Value per 100 g,
Proximates
"Energy",kcal,--,--,379,279
"Protein",g,--,--,13.99,10.29
"Total lipid (fat)",g,--,--,25.00,18.38
"Carbohydrate, by difference",g,--,--,28.00,20.59
"Fiber, total dietary",g,--,--,1.0,0.7
"Sugars, total",g,--,--,3.01,2.21
Minerals
"Calcium, Ca",mg,--,--,39,29
"Iron, Fe",mg,--,--,2.77,2.04
"Sodium, Na",mg,--,--,1280,941
Vitamins
"Vitamin C, total ascorbic acid",mg,--,--,0.0,0.0
"Vitamin A, IU",IU,--,--,0,0
Lipids
"Fatty acids, total saturated",g,--,--,9.996,7.350
"Fatty acids, total trans",g,--,--,1.496,1.100
"Cholesterol",mg,--,--,30,22
Amino Acids
Other
Ingredients
"BEEF BOLOGNA (BEEF, WATER, CORN SYRUP, DEXTROSE, CONTAINS 2% OR LESS OF SALT, AUTOLYZED YEAST, SPICE, POTASSIUM LACTATE, SODIUM LACTATE, SODIUM PHOSPHATE, SODIUM DIACETATE, VITAMIN C [ASCORBIC ACID], FLAVORINGS, GARLIC POWDER, SODIUM NITRITE), WHITE BREAD (ENRICHED WHEAT FLOUR [WHEAT FLOUR, MALTED BARLEY FLOUR, NIACIN, IRON, THIAMIN MONONITRATE, RIBOFLAVIN, FOLIC ACID], WATER, HIGH FRUCTOSE, CORN SYRUP, YEAST, CONTAINS 2% OR LESS OF THE FOLLOWING: WHEAT GLUTEN, SALT, SOYBEAN OIL, DOUGH CONDITIONERS [SODIUM STEAROYL LACTYLATE, MONOGLYCERIDES, ASCORBIC ACID, CALCIUM PEROXIDE, ENZYMES], CALCIUM PROPIONATE AND POTASSIUM SORBATE [PRESERVATIVES], YEAST NUTRIENTS [MONOCALCIUM PHOSPHATE, CALCIUM SULFATE, AMMONIUM SULFATE]), AMERICAN CHEESE (CULTURED MILK AND SKIM MILK, WATER, CREAM, SODIUM CITRATE, SALT, SODIUM PHOSPHATE, SORBIC ACID [PRESERVATIVE], CITRIC ACID, COLOR [ANNATTO, PAPRIKA, APO CAROTENAL AND BETA CAROTENE], ACETIC ACID, ENZYMES, SOY LECITHIN)." Date available: 07/14/2017 Date last updated by company: 07/14/2017
