Source: USDA Branded Food Products Database Release December 2017 Software v.3.8.6.4 2017-10-02
Report Run at: December 18, 2017 02:52 EST
"Nutrient data for: 45202463, BOLOGNA & AMERICAN ON WHITE, UPC: 826766142392"
Food Group:  Branded Food Products Database
Common Name:

Nutrient,Unit,Data points,Std. Error,"1 CONTAINER = 120.0g",1Value per 100 g,
Proximates
"Energy",kcal,--,--,370,308
"Protein",g,--,--,15.00,12.50
"Total lipid (fat)",g,--,--,22.00,18.33
"Carbohydrate, by difference",g,--,--,30.00,25.00
"Fiber, total dietary",g,--,--,1.0,0.8
"Sugars, total",g,--,--,5.00,4.17
Minerals
"Calcium, Ca",mg,--,--,200,167
"Iron, Fe",mg,--,--,2.10,1.75
"Sodium, Na",mg,--,--,1210,1008
Vitamins
"Vitamin C, total ascorbic acid",mg,--,--,0.0,0.0
"Vitamin A, IU",IU,--,--,234,195
Lipids
"Fatty acids, total saturated",g,--,--,9.000,7.500
"Fatty acids, total trans",g,--,--,0.996,0.830
"Cholesterol",mg,--,--,40,33
Amino Acids
Other
Ingredients
"FULLY COOKED BEEF BOLOGNA (BEEF, WATER, CORN SYRUP, DEXTROSE, CONTAINS 2% OR LESS OF SALT, AUTOLYZED YEAST, SPICE, POTASSIUM LACTATE, SODIUM LACTATE, SODIUM PHOSPHATE, SODIUM DIACETATE, VITAMIN C (ASCORBIC ACID), FLAVORINGS, GARLIC POWDER, SODIUM NITRITE), WHITE BREAD (ENRICHED WHEAT FLOUR [FLOUR, MALTED BARLEY FLOUR, NIACIN, REDUCED IRON, THIAMIN MONONITRATE, RIBOFLAVIN, FOLIC ACID], WATER, HIGH FRUCTOSE CORN SYRUP, CONTAINS 2% OR LESS OF EACH OF THE FOLLOWING: YEAST, WHEAT GLUTEN, SOYBEAN OIL, SALT, SODIUM STEAROYL LACTYLATE, MONOGLYCERIDES, CALCIUM SULFATE, CALCIUM PEROXIDE, SOY LECITHIN, ENZYMES, CALCIUM CARBONATE, AMMONIUM SULFATE, CALCIUM PROPIONATE [TO PRESERVE FRESHNESS]), AMERICAN CHEESE (AMERICAN CHEESE [PASTEURIZED MILK, CHEESE CULTURES, SALT, ENZYMES], WATER, CREAM, SODIUM PHOSPHATE, SALT, ANNATTO AND B-APO-8'-CAROTENAL [FOR COLOR])." Date available: 07/14/2017 Date last updated by company: 07/14/2017
