Source: USDA Branded Food Products Database Release December 2017 Software v.3.8.6.4 2017-10-02
Report Run at: December 18, 2017 02:54 EST
"Nutrient data for: 45270173, BOLOGNESE WITH A HEARTY BLEND OF BEEF AND TOMATOES, UPC: 877448001698"
Food Group:  Branded Food Products Database
Common Name:

Nutrient,Unit,Data points,Std. Error,"0.5 cup = 125.0g",1Value per 100 g,
Proximates
"Energy",kcal,--,--,140,112
"Protein",g,--,--,11.00,8.80
"Total lipid (fat)",g,--,--,9.00,7.20
"Carbohydrate, by difference",g,--,--,4.00,3.20
"Fiber, total dietary",g,--,--,1.0,0.8
"Sugars, total",g,--,--,2.00,1.60
Minerals
"Calcium, Ca",mg,--,--,20,16
"Iron, Fe",mg,--,--,1.14,0.91
"Sodium, Na",mg,--,--,630,504
Vitamins
"Vitamin C, total ascorbic acid",mg,--,--,12.6,10.1
"Vitamin A, IU",IU,--,--,1056,845
Lipids
"Fatty acids, total saturated",g,--,--,3.500,2.800
"Fatty acids, total trans",g,--,--,0.000,0.000
"Cholesterol",mg,--,--,40,32
Amino Acids
Other
Ingredients
"TOMATO PUREE (TOMATOES), BEEF, PORK, ONIONS, CARROTS, SUN-DRIED CHERRY TOMATOES (TOMATOES, SALT), UNSALTED BUTTER (CREAM), 2% OR LESS OF BEEF STOCK (CONCENTRATED BEEF STOCK, WATER, SALT, NATURAL FLAVORS, CANOLA OIL, YEAST EXTRACT, YEAST FLAVOR (WHEAT), SUGAR, VEGETABLE STOCK (CARROT JUICE, CELERY JUICE, ONION JUICE), COCOA POWDER, SPICES), GARLIC, PARMESAN CHEESE (PASTEURIZED CULTURED MILK, SALT, ENZYMES), SPICES, SALT, SUNFLOWER OIL." Date available: 07/14/2017 Date last updated by company: 07/14/2017
