Source: USDA Branded Food Products Database Release December 2017 Software v.3.8.6.4 2017-10-02
Report Run at: December 18, 2017 02:55 EST
"Nutrient data for: 45118292, BON APPETIT, CHEESE COFFEE CAKE, UPC: 035751114300"
Food Group:  Branded Food Products Database
Common Name:

Nutrient,Unit,Data points,Std. Error,"0.5 CAKE = 57.0g",1Value per 100 g,
Proximates
"Energy",kcal,--,--,220,386
"Protein",g,--,--,3.00,5.26
"Total lipid (fat)",g,--,--,12.00,21.05
"Carbohydrate, by difference",g,--,--,25.00,43.86
"Fiber, total dietary",g,--,--,0.5,0.9
"Sugars, total",g,--,--,14.00,24.56
Minerals
"Calcium, Ca",mg,--,--,60,105
"Iron, Fe",mg,--,--,0.70,1.22
"Sodium, Na",mg,--,--,160,281
Vitamins
"Vitamin C, total ascorbic acid",mg,--,--,0.0,0.0
"Vitamin A, IU",IU,--,--,0,0
Lipids
"Fatty acids, total saturated",g,--,--,3.500,6.140
"Fatty acids, total monounsaturated",g,--,--,3.500,6.140
"Fatty acids, total polyunsaturated",g,--,--,4.999,8.770
"Fatty acids, total trans",g,--,--,0.000,0.000
"Cholesterol",mg,--,--,35,61
Amino Acids
Other
Ingredients
"BLEACHED WHEAT FLOUR ENRICHED (NIACIN, REDUCED IRON, THIAMINE MONONITRATE, RIBOFLAVIN, MALTED BARLEY FLOUR, ASCORBIC ACID, FOLIC ACID), GRANULATED SUGAR, WATER, EGGS, SOYBEAN OIL. PALM OIL (WITH MONO & DIGLYCERIDES, POLYSORBATE 60, CITRIC ACID ADDED AS A PRESERVATIVE), INVERT SUGAR, MODIFIED FOOD STARCH, BAKING POWDER, POTASSIUM SORBATE & SODIUM PROPIONATE (ADDED TO PRESERVE FRESHNESS), CINNAMON, SODIUM STEAROYL LACTYLATE, GLUCONO-1,5,LACTONE, XANTHAN GUM, GUAR GUM, LIPOLYZED CREAM, MALTO DEXTRIN, CREAM CHEESE (HEAVY CREAM, NATURAL FLAVORS, NONFAT DRY MILK, ENZYMES, DAIRY CULTURES, PROPYLENE GLYCOL, CHEDDAR CHEESE (PASTEURIZED MILK, CULTURES, SALT AND ENZYMES), WATER, ANHYDROUS MILKFAT, SALT, DISODIUM PHOSPHATE, TRISODIUM CITRATE, SOY LECITHIN), NATURAL AND ARTIFICIAL FLAVORS." Date available: 06/25/2017 Date last updated by company: 06/25/2017
