Source: USDA Branded Food Products Database Release December 2017 Software v.3.8.6.4 2017-10-02
Report Run at: December 18, 2017 02:55 EST
"Nutrient data for: 45161232, BON APPE, MINI BROWNIE COOKIES, UPC: 773479072655"
Food Group:  Branded Food Products Database
Common Name:

Nutrient,Unit,Data points,Std. Error,"2.0 COOKIES = 28.0g",1Value per 100 g,
Proximates
"Energy",kcal,--,--,130,464
"Protein",g,--,--,2.00,7.14
"Total lipid (fat)",g,--,--,6.00,21.43
"Carbohydrate, by difference",g,--,--,17.00,60.71
"Fiber, total dietary",g,--,--,1.0,3.6
"Sugars, total",g,--,--,11.00,39.29
Minerals
"Calcium, Ca",mg,--,--,20,71
"Iron, Fe",mg,--,--,1.93,6.88
"Sodium, Na",mg,--,--,65,232
Vitamins
"Vitamin C, total ascorbic acid",mg,--,--,0.0,0.0
"Vitamin A, IU",IU,--,--,0,0
Lipids
"Fatty acids, total saturated",g,--,--,2.500,8.930
"Fatty acids, total trans",g,--,--,0.000,0.000
"Cholesterol",mg,--,--,10,36
Amino Acids
Other
Ingredients
"NUTELLA (SUGAR, PALM OIL, HAZELNUTS, COCOA, SKIM MILK, WHEY, SOY LECITHIN, VANILLIN), ENRICHED FLOUR (WHEAT FLOUR, NIACIN, REDUCED IRON, ASCORBIC ACID ADDED AS A DOUGH CONDITIONER, THIAMINE MONONITRATE, RIBOFLAVIN, ENZYME, FOLIC ACID), MARGARINE (PALM OIL, WATER, CANOLA OIL, SUGAR, MONOGLYCERIDES, SOY LECITHIN, POTASSIUM SORBATE, CITRIC ACID, ARTIFICIAL FLAVOR, BETA CAROTENE, VITAMIN A, VITAMIN D3), EGGS, DEXTROSE, FRUCTOSE, SUGAR, INVERT SUGAR, BROWN SUGAR, COCOA (PROCESSED WITH ALKALI), PALM OIL, SOYBEAN OIL, NATURAL FLAVOR, WATER, LEAVENING (CORN STARCH, SODIUM BICARBONATE, SODIUM ALUMINUM SULFATE, MONOCALCIUM PHOSPHATE), SALT, CITRUS FIBER, GUAR GUM, XANTHAN GUM, MODIFIED CORN STARCH." Date available: 07/14/2017 Date last updated by company: 07/14/2017
