Source: USDA Branded Food Products Database Release December 2017 Software v.3.8.6.4 2017-10-02
Report Run at: December 18, 2017 03:01 EST
"Nutrient data for: 45263296, BONELESS SKINLESS CHICKEN BREAST STRIPS, UPC: 024105771054"
Food Group:  Branded Food Products Database
Common Name:

Nutrient,Unit,Data points,Std. Error,"4.0 ONZ = 112.0g",1Value per 100 g,
Proximates
"Energy",kcal,--,--,120,107
"Protein",g,--,--,26.00,23.21
"Total lipid (fat)",g,--,--,1.50,1.34
"Carbohydrate, by difference",g,--,--,0.00,0.00
Minerals
"Iron, Fe",mg,--,--,0.72,0.64
"Sodium, Na",mg,--,--,55,49
Vitamins
Lipids
"Fatty acids, total saturated",g,--,--,0.000,0.000
"Fatty acids, total trans",g,--,--,0.000,0.000
"Cholesterol",mg,--,--,69,62
Amino Acids
Other
Ingredients
"CHICKEN BREAST STRIPS" Date available: 02/11/2017 Date last updated by company: 02/11/2017
