Source: USDA Branded Food Products Database Release December 2017 Software v.3.8.6.4 2017-10-02
Report Run at: December 18, 2017 03:01 EST
"Nutrient data for: 45229454, BONELESS & SKINLESS CHICKEN BREAST, UPC: 030034004064"
Food Group:  Branded Food Products Database
Common Name:

Nutrient,Unit,Data points,Std. Error,"4.0 ONZ = 112.0g",1Value per 100 g,
Proximates
"Energy",kcal,--,--,110,98
"Protein",g,--,--,23.00,20.54
"Total lipid (fat)",g,--,--,2.50,2.23
"Carbohydrate, by difference",g,--,--,0.00,0.00
"Fiber, total dietary",g,--,--,0.0,0.0
"Sugars, total",g,--,--,0.00,0.00
Minerals
"Calcium, Ca",mg,--,--,0,0
"Iron, Fe",mg,--,--,0.72,0.64
"Sodium, Na",mg,--,--,220,196
Vitamins
"Vitamin C, total ascorbic acid",mg,--,--,0.0,0.0
"Vitamin A, IU",IU,--,--,0,0
Lipids
"Fatty acids, total saturated",g,--,--,0.504,0.450
"Fatty acids, total monounsaturated",g,--,--,0.997,0.890
"Fatty acids, total polyunsaturated",g,--,--,0.000,0.000
"Fatty acids, total trans",g,--,--,0.000,0.000
"Cholesterol",mg,--,--,65,58
Amino Acids
Other
Ingredients
"15% CHICKEN BROTH, SALT, NATURAL FLAVORS" Date available: 12/14/2016 Date last updated by company: 12/14/2016
