Source: USDA Branded Food Products Database Release December 2017 Software v.3.8.6.4 2017-10-02
Report Run at: December 18, 2017 03:00 EST
"Nutrient data for: 45213450, BONELESS PETITE HAM SLICES, UPC: 018894329671"
Food Group:  Branded Food Products Database
Common Name:

Nutrient,Unit,Data points,Std. Error,"1 SLICE = 50.0g",1Value per 100 g,
Proximates
"Energy",kcal,--,--,60,120
"Protein",g,--,--,8.00,16.00
"Total lipid (fat)",g,--,--,1.50,3.00
"Carbohydrate, by difference",g,--,--,2.00,4.00
"Fiber, total dietary",g,--,--,0.0,0.0
"Sugars, total",g,--,--,2.00,4.00
Minerals
"Calcium, Ca",mg,--,--,0,0
"Iron, Fe",mg,--,--,0.40,0.79
"Sodium, Na",mg,--,--,710,1420
Vitamins
"Vitamin C, total ascorbic acid",mg,--,--,0.0,0.0
"Vitamin A, IU",IU,--,--,0,0
Lipids
"Fatty acids, total saturated",g,--,--,0.500,1.000
"Fatty acids, total trans",g,--,--,0.000,0.000
"Cholesterol",mg,--,--,25,50
Amino Acids
Other
Ingredients
"WATER, SALT, DEXTROSE, BROWN SUGAR, CONTAINS 2% OR LESS OF SODIUM PHOSPHATE, SODIUM ERYTHORBATE, FLAVORINGS, SODIUM PROPIONATE, SODIUM BENZOATE, SODIUM NITRITE." Date available: 07/14/2017 Date last updated by company: 07/14/2017
