Source: USDA Branded Food Products Database Release December 2017 Software v.3.8.6.4 2017-10-02
Report Run at: December 18, 2017 03:03 EST
"Nutrient data for: 45169455, BONNIE'S JAMS, STRAWBERRY MANGO A TASTY TROPICAL TREAT, UPC: 852182002576"
Food Group:  Branded Food Products Database
Common Name:

Nutrient,Unit,Data points,Std. Error,"1 Tbsp = 18.0g",1Value per 100 g,
Proximates
"Energy",kcal,--,--,40,222
"Protein",g,--,--,0.00,0.00
"Total lipid (fat)",g,--,--,0.00,0.00
"Carbohydrate, by difference",g,--,--,10.00,55.56
"Fiber, total dietary",g,--,--,1.0,5.6
"Sugars, total",g,--,--,9.00,50.00
Minerals
"Sodium, Na",mg,--,--,0,0
Vitamins
"Vitamin C, total ascorbic acid",mg,--,--,30.4,169.1
"Vitamin A, IU",IU,--,--,338,1878
Lipids
Amino Acids
Other
Ingredients
"STRAWBERRIES, MANGOES, SUGAR, ORANGES, AND LEMON JUICE." Date available: 07/14/2017 Date last updated by company: 07/14/2017
