Source: USDA Branded Food Products Database Release December 2017 Software v.3.8.6.4 2017-10-02
Report Run at: December 18, 2017 03:05 EST
"Nutrient data for: 45016307, BOOKBINDER'S, SEMI-CONDENSED SHRIMP BISQUE, UPC: 071851100089"
Food Group:  Branded Food Products Database
Common Name:

Nutrient,Unit,Data points,Std. Error,"0.5 cup = 149.0g",1Value per 100 g,
Proximates
"Energy",kcal,--,--,100,67
"Protein",g,--,--,3.99,2.68
"Total lipid (fat)",g,--,--,3.99,2.68
"Carbohydrate, by difference",g,--,--,10.00,6.71
"Fiber, total dietary",g,--,--,0.0,0.0
"Sugars, total",g,--,--,2.99,2.01
Minerals
"Calcium, Ca",mg,--,--,80,54
"Iron, Fe",mg,--,--,0.60,0.40
"Sodium, Na",mg,--,--,849,570
Vitamins
"Vitamin C, total ascorbic acid",mg,--,--,3.9,2.6
"Vitamin A, IU",IU,--,--,329,221
Lipids
"Fatty acids, total saturated",g,--,--,2.503,1.680
"Fatty acids, total trans",g,--,--,0.000,0.000
"Cholesterol",mg,--,--,25,17
Amino Acids
Other
Ingredients
"RECONSTITUTED WHOLE MILK, WATER, SHRIMP, WHEAT FLOUR, SHERRY WINE, TOMATO PASTE, MODIFIED CORN STARCH, SHRIMP FLAVOR, SALT, BELL PEPPERS, MONOSODIUM GLUTAMATE, ONION, SPICES." Date available: 06/25/2017 Date last updated by company: 06/25/2017
