Source: USDA Branded Food Products Database Release December 2017 Software v.3.8.6.4 2017-10-02
Report Run at: December 18, 2017 03:08 EST
"Nutrient data for: 45060831, BORDEN, NONE SUCH, MINCEMEAT WITH RAISINS & APPLES, CLASSIC ORIGINAL, UPC: 652729123425"
Food Group:  Branded Food Products Database
Common Name:

Nutrient,Unit,Data points,Std. Error,"0.33 cup = 100.0g",1Value per 100 g,
Proximates
"Energy",kcal,--,--,190,190
"Protein",g,--,--,1.00,1.00
"Total lipid (fat)",g,--,--,0.00,0.00
"Carbohydrate, by difference",g,--,--,48.00,48.00
"Fiber, total dietary",g,--,--,1.0,1.0
"Sugars, total",g,--,--,32.00,32.00
Minerals
"Calcium, Ca",mg,--,--,40,40
"Iron, Fe",mg,--,--,0.18,0.18
"Sodium, Na",mg,--,--,250,250
Vitamins
"Vitamin C, total ascorbic acid",mg,--,--,0.0,0.0
"Vitamin A, IU",IU,--,--,0,0
Lipids
"Fatty acids, total saturated",g,--,--,0.000,0.000
"Fatty acids, total trans",g,--,--,0.000,0.000
"Cholesterol",mg,--,--,0,0
Amino Acids
Other
Ingredients
"WATER, CORN SYRUP, RAISINS, DRIED APPLES, MOLASSES, CORN STARCH MODIFIED, DISTILLED VINEGAR, DRIED CITRUS PEEL, SALT, SPICES, BEEF, BITTERS, FRUIT PECTIN." Date available: 07/14/2017 Date last updated by company: 07/14/2017
