Source: USDA Branded Food Products Database Release December 2017 Software v.3.8.6.4 2017-10-02
Report Run at: December 18, 2017 03:10 EST
"Nutrient data for: 45293841, BOSCO, SYRUP, SEA SALT CARAMEL, UPC: 017252504279"
Food Group:  Branded Food Products Database
Common Name:

Nutrient,Unit,Data points,Std. Error,"2.0 Tbsp = 40.0g",1Value per 100 g,
Proximates
"Energy",kcal,--,--,110,275
"Protein",g,--,--,0.00,0.00
"Total lipid (fat)",g,--,--,0.50,1.25
"Carbohydrate, by difference",g,--,--,27.00,67.50
"Fiber, total dietary",g,--,--,0.0,0.0
"Sugars, total",g,--,--,22.00,55.00
Minerals
"Calcium, Ca",mg,--,--,0,0
"Iron, Fe",mg,--,--,0.00,0.00
"Sodium, Na",mg,--,--,140,350
Vitamins
"Vitamin C, total ascorbic acid",mg,--,--,0.0,0.0
"Riboflavin",mg,--,--,0.340,0.850
"Niacin",mg,--,--,6.762,16.905
"Vitamin B-6",mg,--,--,0.676,1.690
"Vitamin A, IU",IU,--,--,0,0
Lipids
"Fatty acids, total saturated",g,--,--,0.500,1.250
"Fatty acids, total trans",g,--,--,0.000,0.000
"Cholesterol",mg,--,--,0,0
Amino Acids
Other
Ingredients
"HIGH FRUCTOSE CORN SYRUP, CORN SYRUP, WATER, NON-DAIRY CREAMER (PARTIALLY HYDROGENATED COCONUT OIL, CORN SYRUP SOLIDS, FOOD STARCH-MODIFIED, MONO-AND DIGLYCERIDES, NATURAL FLAVOR, CITRIC ACID, CELLULOSE GUM), SEA SALT, NATURAL & ARTIFICIAL FLAVORS, XANTHAN GUM, POTASSIUM SORBATE (PRESERVATIVE), SODIUM BENZOATE (PRESERVATIVE), TITANIUM DIOXIDE, SODIUM ACID SULFATE, FD&C YELLOW #5 AND YELLOW #6, VITAMIN B3 (NIACINAMIDE), VITAMIN B6 (PYRIDOXINE HCL), VITAMIN B2 (RIBOFLAVIN)" Date available: 09/26/2017 Date last updated by company: 09/26/2017
