Source: USDA Branded Food Products Database Release December 2017 Software v.3.8.6.4 2017-10-02
Report Run at: December 18, 2017 03:11 EST
"Nutrient data for: 45143103, BOSTON BAKED BEANS, CANDY COATED PEANUT, ORIGINAL, UPC: 041420123184"
Food Group:  Branded Food Products Database
Common Name:

Nutrient,Unit,Data points,Std. Error,"11.0 PIECES = 15.0g",1Value per 100 g,
Proximates
"Energy",kcal,--,--,70,467
"Protein",g,--,--,1.00,6.67
"Total lipid (fat)",g,--,--,2.00,13.33
"Carbohydrate, by difference",g,--,--,11.00,73.33
"Fiber, total dietary",g,--,--,0.0,0.0
"Sugars, total",g,--,--,10.00,66.67
Minerals
"Calcium, Ca",mg,--,--,0,0
"Iron, Fe",mg,--,--,0.00,0.00
"Sodium, Na",mg,--,--,0,0
Vitamins
"Vitamin C, total ascorbic acid",mg,--,--,0.0,0.0
"Vitamin A, IU",IU,--,--,0,0
Lipids
"Fatty acids, total saturated",g,--,--,0.000,0.000
"Fatty acids, total trans",g,--,--,0.000,0.000
"Cholesterol",mg,--,--,0,0
Amino Acids
Other
Ingredients
"SUGAR, PEANUTS, CORN SYRUP, MODIFIED FOOD STARCH (CORN), ACACIA (GUM ARABIC), CONFECTIONER'S GLAZE, ARTIFICIAL FLAVOR, RED 40, CARNAUBA WAX, YELLOW 5, YELLOW 6, BLUE 2" Date available: 10/13/2017 Date last updated by company: 10/13/2017
