Source: USDA Branded Food Products Database Release December 2017 Software v.3.8.6.4 2017-10-02
Report Run at: December 18, 2017 03:14 EST
"Nutrient data for: 45028737, BOTTICELLI, PREMIUM QUALITY PASTA SAUCE, TOMATO & BASIL, UPC: 855019000325"
Food Group:  Branded Food Products Database
Common Name:

Nutrient,Unit,Data points,Std. Error,"0.5 cup = 120.0g",1Value per 100 g,
Proximates
"Energy",kcal,--,--,110,92
"Protein",g,--,--,1.00,0.83
"Total lipid (fat)",g,--,--,8.00,6.67
"Carbohydrate, by difference",g,--,--,7.00,5.83
"Fiber, total dietary",g,--,--,2.0,1.7
"Sugars, total",g,--,--,4.00,3.33
Minerals
"Calcium, Ca",mg,--,--,20,17
"Iron, Fe",mg,--,--,0.76,0.63
"Sodium, Na",mg,--,--,470,392
Vitamins
"Vitamin C, total ascorbic acid",mg,--,--,9.5,7.9
"Vitamin A, IU",IU,--,--,528,440
Lipids
"Fatty acids, total saturated",g,--,--,0.996,0.830
"Fatty acids, total trans",g,--,--,0.000,0.000
"Cholesterol",mg,--,--,0,0
Amino Acids
Other
Ingredients
"ITALIAN TOMATOES, OLIVE OIL, SUNFLOWER OIL, ONIONS, BASIL, GARLIC, SEA SALT, BLACK PEPPER." Date available: 06/24/2017 Date last updated by company: 06/24/2017
