Source: USDA Branded Food Products Database Release December 2017 Software v.3.8.6.4 2017-10-02
Report Run at: December 18, 2017 03:15 EST
"Nutrient data for: 45065056, BOUILLON, UPC: 048001219892"
Food Group:  Branded Food Products Database
Common Name:

Nutrient,Unit,Data points,Std. Error,"0.5 CUBE = 6.0g",1Value per 100 g,
Proximates
"Energy",kcal,--,--,15,250
"Protein",g,--,--,0.00,0.00
"Total lipid (fat)",g,--,--,1.00,16.67
"Carbohydrate, by difference",g,--,--,1.00,16.67
Minerals
"Iron, Fe",mg,--,--,3.00,50.01
"Sodium, Na",mg,--,--,1160,19333
Vitamins
Lipids
"Fatty acids, total saturated",g,--,--,1.000,16.670
Amino Acids
Other
Ingredients
"SALT, PALM OIL, MONOSODIUM GLUTAMATE, CORN STARCH, HYDROGENATED PALM OIL, SUGAR, COOKED CHICKEN POWDER, HYDROLYZED CORN PROTEIN, AUTOLYZED YEAST EXTRACT (BARLEY), CHICKEN FAT, WATER, MALTODEXTRIN, NATURAL FLAVOR, DEHYDRATED PARSLEY FLAKES, DISODIUM INOSINATE, CITRIC ACID, IODIZED SALT (SALT, POTASSIUM IODIDE), CARAMEL COLOR, YELLOW 5, ANNATTO (COLOR), TBHQ (USED TO PROTECT QUALITY), YELLOW 6." Date available: 07/14/2017 Date last updated by company: 07/14/2017
