Source: USDA Branded Food Products Database Release December 2017 Software v.3.8.6.4 2017-10-02
Report Run at: December 18, 2017 03:15 EST
"Nutrient data for: 45253848, BOUILLON CUBES, UPC: 021130405077"
Food Group:  Branded Food Products Database
Common Name:

Nutrient,Unit,Data points,Std. Error,"1 CUBE = 3.7g",1Value per 100 g,
Proximates
"Energy",kcal,--,--,5,135
"Protein",g,--,--,0.00,0.00
"Total lipid (fat)",g,--,--,0.00,0.00
"Carbohydrate, by difference",g,--,--,0.00,0.00
Minerals
"Sodium, Na",mg,--,--,790,21351
Vitamins
Lipids
Amino Acids
Other
Ingredients
"SALT, MONOSODIUM GLUTAMATE, HYDROLYZED SOY PROTEIN, SUGAR, SODIUM BICARBONATE, ONION POWDER, YEAST EXTRACT, CONTAINS LESS THAN 2% OF: BEEF STOCK*, CARAMEL COLOR, NATURAL AND ARTIFICIAL FLAVORS, SILICON DIOXIDE, PARTIALLY HYDROGENATED SOYBEAN AND COTTONSEED OIL, GARLIC POWDER, MODIFIED CORNSTARCH, DISODIUM INOSINATE AND DISODIUM GUANYLATE, BEEF FAT, WATER, SOYBEAN OIL, CORN SYRUP SOLIDS, RED #40." Date available: 07/14/2017 Date last updated by company: 07/14/2017
