Source: USDA Branded Food Products Database Release December 2017 Software v.3.8.6.4 2017-10-02
Report Run at: December 18, 2017 03:16 EST
"Nutrient data for: 45149285, BOULDER CANYON, KETTLE COOKED POTATO CHIPS, UPC: 708163122583"
Food Group:  Branded Food Products Database
Common Name:

Nutrient,Unit,Data points,Std. Error,"23.0 CHIPS | ABOUT = 46.0g",1Value per 100 g,
Proximates
"Energy",kcal,--,--,230,500
"Protein",g,--,--,3.00,6.52
"Total lipid (fat)",g,--,--,12.00,26.09
"Carbohydrate, by difference",g,--,--,28.00,60.87
"Fiber, total dietary",g,--,--,2.0,4.3
"Sugars, total",g,--,--,0.00,0.00
Minerals
"Calcium, Ca",mg,--,--,0,0
"Iron, Fe",mg,--,--,0.59,1.28
"Sodium, Na",mg,--,--,200,435
Vitamins
"Vitamin C, total ascorbic acid",mg,--,--,11.1,24.1
"Vitamin A, IU",IU,--,--,0,0
Lipids
"Fatty acids, total saturated",g,--,--,0.000,0.000
"Fatty acids, total monounsaturated",g,--,--,10.000,21.740
"Fatty acids, total polyunsaturated",g,--,--,2.001,4.350
"Fatty acids, total trans",g,--,--,0.000,0.000
"Cholesterol",mg,--,--,0,0
Amino Acids
Other
Ingredients
"POTATOES, AVOCADO OIL, SEA SALT." Date available: 07/14/2017 Date last updated by company: 07/14/2017
