Source: USDA Branded Food Products Database Release December 2017 Software v.3.8.6.4 2017-10-02
Report Run at: December 18, 2017 03:19 EST
"Nutrient data for: 45042278, BOURBON CHICKEN SEASONING MIX, UPC: 074880070347"
Food Group:  Branded Food Products Database
Common Name:

Nutrient,Unit,Data points,Std. Error,"1 Tbsp = 9.0g",1Value per 100 g,
Proximates
"Energy",kcal,--,--,30,333
"Protein",g,--,--,0.00,0.00
"Total lipid (fat)",g,--,--,0.00,0.00
"Carbohydrate, by difference",g,--,--,7.00,77.78
"Fiber, total dietary",g,--,--,0.0,0.0
"Sugars, total",g,--,--,0.00,0.00
Minerals
"Calcium, Ca",mg,--,--,0,0
"Iron, Fe",mg,--,--,0.00,0.00
"Sodium, Na",mg,--,--,180,2000
Vitamins
"Vitamin C, total ascorbic acid",mg,--,--,0.0,0.0
"Vitamin A, IU",IU,--,--,555,6172
Lipids
"Fatty acids, total saturated",g,--,--,0.000,0.000
"Fatty acids, total trans",g,--,--,0.000,0.000
"Cholesterol",mg,--,--,0,0
Amino Acids
Other
Ingredients
"MALTODEXTRIN, CORN STARCH, GARLIC, SALT, CONTAINS LESS THAN 2%: BOURBON, WINE SOLIDS, SPICE AND COLORING, HYDROLYZED SOY PROTEIN, NATURAL FLAVORS, BEET POWDER, INVERT SUCROSE, DISODIUM INOSINATE, DISODIUM GUANYLATE, MODIFIED FOOD STARCH, CARAMEL COLOR, SILICON DIOXIDE (ANTI-CAKE)" Date available: 07/14/2017 Date last updated by company: 07/14/2017
