Source: USDA Branded Food Products Database Release December 2017 Software v.3.8.6.4 2017-10-02
Report Run at: December 18, 2017 03:19 EST
"Nutrient data for: 45199587, BOURBON ELITE BBQ SAUCE, UPC: 616453285569"
Food Group:  Branded Food Products Database
Common Name:

Nutrient,Unit,Data points,Std. Error,"2.0 Tbsp = 34.0g",1Value per 100 g,
Proximates
"Energy",kcal,--,--,40,118
"Protein",g,--,--,1.00,2.94
"Total lipid (fat)",g,--,--,0.00,0.00
"Carbohydrate, by difference",g,--,--,10.00,29.41
"Sugars, total",g,--,--,9.00,26.47
Minerals
"Calcium, Ca",mg,--,--,0,0
"Iron, Fe",mg,--,--,0.61,1.79
"Sodium, Na",mg,--,--,220,647
Vitamins
"Vitamin C, total ascorbic acid",mg,--,--,2.0,6.0
"Vitamin A, IU",IU,--,--,169,497
Lipids
Amino Acids
Other
Ingredients
"TOMATO PUREE (WATER, TOMATO PASTE), SUGAR, HONEY, DISTILLED VINEGAR, APPLE CIDER VINEGAR, MOLASSES, WORCESTERSHIRE SAUCE (DISTILLED VINEGAR, MOLASSES, WATER, SUGAR, ONIONS, ANCHOVIES, SALT, GARLIC, CLOVES, TAMARIND EXTRACT, NATURAL FLAVORINGS, CHILI PEPPER EXTRACT), SALT, NATURAL SMOKE FLAVOR, HYDROLYZED SOY PROTEIN, BOURBON WHISKEY, SPICES, DEHYDRATED GARLIC, DEHYDRATED ONION, DRIED HABANERO, NATURAL BOURBON FLAVOR." Date available: 07/14/2017 Date last updated by company: 07/14/2017
