Source: USDA Branded Food Products Database Release December 2017 Software v.3.8.6.4 2017-10-02
Report Run at: December 18, 2017 03:19 EST
"Nutrient data for: 45227333, BOURSIN, BASIL & CHIVE GOURNAY CHEESE, UPC: 079813085481"
Food Group:  Branded Food Products Database
Common Name:

Nutrient,Unit,Data points,Std. Error,"2.0 Tbsp = 29.0g",1Value per 100 g,
Proximates
"Energy",kcal,--,--,120,414
"Protein",g,--,--,2.00,6.90
"Total lipid (fat)",g,--,--,12.00,41.38
"Carbohydrate, by difference",g,--,--,1.00,3.45
"Fiber, total dietary",g,--,--,0.0,0.0
"Sugars, total",g,--,--,1.00,3.45
Minerals
"Calcium, Ca",mg,--,--,40,138
"Iron, Fe",mg,--,--,0.00,0.00
"Sodium, Na",mg,--,--,160,552
Vitamins
"Vitamin C, total ascorbic acid",mg,--,--,0.0,0.0
"Vitamin A, IU",IU,--,--,0,0
Lipids
"Fatty acids, total saturated",g,--,--,8.001,27.590
"Fatty acids, total trans",g,--,--,0.000,0.000
"Cholesterol",mg,--,--,40,138
Amino Acids
Other
Ingredients
"PASTEURIZED CULTURED MILK AND CREAM, SALT, BASIL*, CHIVES** POTASSIUM SORBATE (PRESERVATIVE)." Date available: 07/14/2017 Date last updated by company: 07/14/2017
