Source: USDA Branded Food Products Database Release December 2017 Software v.3.8.6.4 2017-10-02
Report Run at: December 18, 2017 03:21 EST
"Nutrient data for: 45189839, BOW BEAS, MUFFIN, CARROT, APPLE, UPC: 861599000228"
Food Group:  Branded Food Products Database
Common Name:

Nutrient,Unit,Data points,Std. Error,"0.5 MUFFIN = 50.0g",1Value per 100 g,
Proximates
"Energy",kcal,--,--,220,440
"Protein",g,--,--,5.00,10.00
"Total lipid (fat)",g,--,--,7.00,14.00
"Carbohydrate, by difference",g,--,--,33.00,66.00
"Fiber, total dietary",g,--,--,1.0,2.0
"Sugars, total",g,--,--,7.00,14.00
Minerals
"Calcium, Ca",mg,--,--,20,40
"Iron, Fe",mg,--,--,1.58,3.17
"Sodium, Na",mg,--,--,115,230
Vitamins
"Vitamin C, total ascorbic acid",mg,--,--,0.0,0.0
"Vitamin A, IU",IU,--,--,2750,5500
Lipids
"Fatty acids, total saturated",g,--,--,2.000,4.000
"Fatty acids, total trans",g,--,--,0.000,0.000
"Cholesterol",mg,--,--,90,180
Amino Acids
Other
Ingredients
"GLUTEN FREE ALL PURPOSE FLOUR (SWEET WHITE RICE FLOUR, BROWN RICE FLOUR, WHITE RICE FLOUR, TAPIOCA FLOUR, XANTHAN GUM), EGG, RAW CARROTS, BROWN SUGAR, OLIVE OIL, RAW APPLES, WATER, COCONUT, WALNUTS, BAKING SODA, VANILLA, CINNAMON, XANTHAN GUM, GINGER." Date available: 07/14/2017 Date last updated by company: 07/14/2017
