Source: USDA Branded Food Products Database Release December 2017 Software v.3.8.6.4 2017-10-02
Report Run at: December 18, 2017 03:25 EST
"Nutrient data for: 45146669, BRACH'S, JELLY CANDY, CHEWY CHERRY, UPC: 041420113109"
Food Group:  Branded Food Products Database
Common Name:

Nutrient,Unit,Data points,Std. Error,"7.0 PIECES = 42.0g",1Value per 100 g,
Proximates
"Energy",kcal,--,--,140,333
"Protein",g,--,--,0.00,0.00
"Total lipid (fat)",g,--,--,0.00,0.00
"Carbohydrate, by difference",g,--,--,35.00,83.33
"Sugars, total",g,--,--,24.00,57.14
Minerals
"Sodium, Na",mg,--,--,5,12
Vitamins
Lipids
Amino Acids
Other
Ingredients
"SUGAR, CORN SYRUP, MODIFIED FOOD STARCH (CORN), TITANIUM DIOXIDE [COLOR], PEPPERMINT OIL, RED 40." Date available: 07/14/2017 Date last updated by company: 07/14/2017
