Source: USDA Branded Food Products Database Release December 2017 Software v.3.8.6.4 2017-10-02
Report Run at: December 18, 2017 03:24 EST
"Nutrient data for: 45156954, BRACH'S, CLASSIC JELLY BEANS CANDY, UPC: 041420154942"
Food Group:  Branded Food Products Database
Common Name:

Nutrient,Unit,Data points,Std. Error,"14.0 PIECES = 41.0g",1Value per 100 g,
Proximates
"Energy",kcal,--,--,150,366
"Protein",g,--,--,0.00,0.00
"Total lipid (fat)",g,--,--,0.00,0.00
"Carbohydrate, by difference",g,--,--,37.00,90.24
"Sugars, total",g,--,--,30.00,73.17
Minerals
"Sodium, Na",mg,--,--,10,24
Vitamins
Lipids
Amino Acids
Other
Ingredients
"SUGAR, CORN SYRUP, MODIFIED FOOD STARCH (CORN), CORNSTARCH, NATURAL AND ARTIFICIAL FLAVORS, CONFECTIONER'S GLAZE (SHELLAC), CARNAUBA WAX, BEESWAX, RED 40, BLUE 1, YELLOW 5, YELLOW 6, RED 3." Date available: 07/14/2017 Date last updated by company: 07/14/2017
