Source: USDA Branded Food Products Database Release December 2017 Software v.3.8.6.4 2017-10-02
Report Run at: December 18, 2017 03:26 EST
"Nutrient data for: 45155494, BRACH'S, PREMIUM CANES, CHOCOLATE CARAMEL, UPC: 041420324994"
Food Group:  Branded Food Products Database
Common Name:

Nutrient,Unit,Data points,Std. Error,"1 PIECE = 14.0g",1Value per 100 g,
Proximates
"Energy",kcal,--,--,50,357
"Protein",g,--,--,0.00,0.00
"Total lipid (fat)",g,--,--,0.00,0.00
"Carbohydrate, by difference",g,--,--,14.00,100.00
"Sugars, total",g,--,--,9.00,64.29
Minerals
"Sodium, Na",mg,--,--,25,179
Vitamins
Lipids
Amino Acids
Other
Ingredients
"SUGAR, CORN SYRUP, CITRIC ACID, SODIUM CITRATE, ARTIFICIAL FLAVOR, YELLOW 5, RED 40, RED 40 LAKE, BLUE 1." Date available: 07/14/2017 Date last updated by company: 07/14/2017
