Source: USDA Branded Food Products Database Release December 2017 Software v.3.8.6.4 2017-10-02
Report Run at: December 18, 2017 03:24 EST
"Nutrient data for: 45155470, BRACH'S, CONVERSATION HEART - JELLY BEANS, UPC: 041420020056"
Food Group:  Branded Food Products Database
Common Name:

Nutrient,Unit,Data points,Std. Error,"28.0 PIECES = 40.0g",1Value per 100 g,
Proximates
"Energy",kcal,--,--,150,375
"Protein",g,--,--,0.00,0.00
"Total lipid (fat)",g,--,--,0.00,0.00
"Carbohydrate, by difference",g,--,--,37.00,92.50
"Sugars, total",g,--,--,28.00,70.00
Minerals
"Sodium, Na",mg,--,--,10,25
Vitamins
Lipids
Amino Acids
Other
Ingredients
"SUGAR, CORN SYRUP, MODIFIED FOOD STARCH (CORN), CITRIC ACID, CONFECTIONER'S GLAZE (SHELLAC), NATURAL AND ARTIFICIAL FLAVORS, ACACIA (GUM ARABIC), SODIUM CITRATE, TITANIUM DIOXIDE [COLOR], WHITE MINERAL OIL, CARNAUBA WAX, RED 40 LAKE, YELLOW 6, YELLOW 5, RED 40, BLUE 1." Date available: 07/14/2017 Date last updated by company: 07/14/2017
