Source: USDA Branded Food Products Database Release December 2017 Software v.3.8.6.4 2017-10-02
Report Run at: December 18, 2017 03:26 EST
"Nutrient data for: 45043748, BRACH'S, MILK & DARK CHOCOLATE CARAMEL & NUT MIX, UPC: 041420051456"
Food Group:  Branded Food Products Database
Common Name:

Nutrient,Unit,Data points,Std. Error,"0.25 cup = 43.0g",1Value per 100 g,
Proximates
"Energy",kcal,--,--,210,488
"Protein",g,--,--,4.00,9.30
"Total lipid (fat)",g,--,--,12.00,27.91
"Carbohydrate, by difference",g,--,--,25.00,58.14
"Fiber, total dietary",g,--,--,2.0,4.7
"Sugars, total",g,--,--,19.00,44.19
Minerals
"Calcium, Ca",mg,--,--,40,93
"Iron, Fe",mg,--,--,0.84,1.95
"Sodium, Na",mg,--,--,85,198
Vitamins
"Vitamin C, total ascorbic acid",mg,--,--,0.0,0.0
"Vitamin A, IU",IU,--,--,0,0
Lipids
"Fatty acids, total saturated",g,--,--,5.001,11.630
"Fatty acids, total trans",g,--,--,0.000,0.000
"Cholesterol",mg,--,--,0,0
Amino Acids
Other
Ingredients
"MILK CHOCOLATE (SUGAR, COCOA BUTTER, WHOLE MILK POWDER, MILK, CHOCOLATE LIQUOR, LACTOSE, SOY LECITHIN [AN EMULSIFIER], MILK FAT, SALT, VANILLA, ARTIFICIAL FLAVOR), SWEET CHOCOLATE (SUGAR, CHOCOLATE LIQUOR, COCOA BUTTER, SOY LECITHIN [AN EMULSIFIER], VANILLA), ROASTED PEANUTS (PEANUTS, COTTONSEED AND/OR PEANUT OIL, SALT, TBHQ [A PRESERVATIVE]), ALMONDS, SUGAR, CORN SYRUP, SWEETENED CONDENSED MILK (MILK, SKIM MILK, SUGAR), PARTIALLY HYDROGENATED VEGETABLE OILS (CONTAINS ONE OR MORE OF THE FOLLOWING: PALM KERNEL, SOYBEAN, COTTONSEED, COCONUT, OR PALM OIL), MODIFIED FOOD STARCH (CORN), EVAPORATED MILK, SALT, ACACIA (GUM ARABIC), ARTIFICIAL FLAVORS, SODIUM BICARBONATE, CONFECTIONER'S GLAZE (SHELLAC), COCONUT OIL, XANTHAN GUM." Date available: 06/24/2017 Date last updated by company: 06/24/2017
