Source: USDA Branded Food Products Database Release December 2017 Software v.3.8.6.4 2017-10-02
Report Run at: December 18, 2017 03:28 EST
"Nutrient data for: 45037777, BRAD'S RAW, VAMPIRE KILLER CRUNCHY KALE, SUNFLOWER SEED & CASHEW VEGAN CHEEZE, UPC: 854615002146"
Food Group:  Branded Food Products Database
Common Name:

Nutrient,Unit,Data points,Std. Error,"1 ONZ = 28.0g",1Value per 100 g,
Proximates
"Energy",kcal,--,--,121,432
"Protein",g,--,--,5.00,17.86
"Total lipid (fat)",g,--,--,7.00,25.00
"Carbohydrate, by difference",g,--,--,13.00,46.43
"Fiber, total dietary",g,--,--,2.0,7.1
"Sugars, total",g,--,--,1.00,3.57
Minerals
"Calcium, Ca",mg,--,--,100,357
"Iron, Fe",mg,--,--,3.21,11.48
"Sodium, Na",mg,--,--,116,414
Vitamins
"Vitamin C, total ascorbic acid",mg,--,--,110.3,394.1
"Vitamin A, IU",IU,--,--,12947,46238
Lipids
"Fatty acids, total saturated",g,--,--,1.000,3.570
"Fatty acids, total trans",g,--,--,0.000,0.000
"Cholesterol",mg,--,--,0,0
Amino Acids
Other
Ingredients
"**KALE, **RED BELL PEPPERS, **SUNFLOWER SEEDS, **CASHEWS, **LEMON JUICE, **SCALLIONS, **GARLIC, **CHICKPEA MISO (RICE, CHICKPEAS, SEA SALT, WATER, KOJI SPORES (ASPERGILLUS ORYZAE)), HIMALAYAN SALT." Date available: 07/14/2017 Date last updated by company: 07/14/2017
