Source: USDA Branded Food Products Database Release December 2017 Software v.3.8.6.4 2017-10-02
Report Run at: December 18, 2017 03:34 EST
"Nutrient data for: 45195194, BRATWURST SAUSAGE, UPC: 041163498211"
Food Group:  Branded Food Products Database
Common Name:

Nutrient,Unit,Data points,Std. Error,"1 GRILLED LINK = 69.0g",1Value per 100 g,
Proximates
"Energy",kcal,--,--,240,348
"Protein",g,--,--,12.00,17.39
"Total lipid (fat)",g,--,--,20.00,28.99
"Carbohydrate, by difference",g,--,--,2.00,2.90
Minerals
"Iron, Fe",mg,--,--,0.57,0.83
"Sodium, Na",mg,--,--,510,739
Vitamins
Lipids
"Fatty acids, total saturated",g,--,--,6.997,10.140
"Fatty acids, total trans",g,--,--,0.000,0.000
"Cholesterol",mg,--,--,50,72
Amino Acids
Other
Ingredients
"PORK, WATER, CORN SYRUP, LESS THAN 2% OF THE FOLLOWING: SALT, DEXTROSE, FLAVORINGS, BHA, PROPYL GALLATE, CITRIC ACID." Date available: 10/19/2017 Date last updated by company: 10/19/2017
