Source: USDA Branded Food Products Database Release December 2017 Software v.3.8.6.4 2017-10-02
Report Run at: December 18, 2017 03:58 EST
"Nutrient data for: 45327231, BREAKFAST TOPPERS, UPC: 052100039299"
Food Group:  Branded Food Products Database
Common Name:

Nutrient,Unit,Data points,Std. Error,"2.0 Tbsp = 18.0g",1Value per 100 g,
Proximates
"Energy",kcal,--,--,90,500
"Protein",g,--,--,3.00,16.67
"Total lipid (fat)",g,--,--,4.50,25.00
"Carbohydrate, by difference",g,--,--,9.00,50.00
"Fiber, total dietary",g,--,--,2.0,11.1
"Sugars, total",g,--,--,5.00,27.78
Minerals
"Calcium, Ca",mg,--,--,0,0
"Iron, Fe",mg,--,--,1.00,5.56
"Sodium, Na",mg,--,--,70,389
Vitamins
"Vitamin C, total ascorbic acid",mg,--,--,6.7,37.0
"Vitamin A, IU",IU,--,--,0,0
Lipids
"Fatty acids, total saturated",g,--,--,1.499,8.330
"Fatty acids, total trans",g,--,--,0.000,0.000
"Cholesterol",mg,--,--,0,0
Amino Acids
Other
Ingredients
"BROWN SUGAR, SUNFLOWER SEEDS, SOY FLOUR, RICE, COCONUT, PUMPKIN SEED, SUGAR, FLAXSEED, PINEAPPLE, CHIA SEED, SPICES (INCLUDING CINNAMON), SALT, CITRIC ACID, EXTRACTIVES OF MALT BARLEY & NATURAL FLAVOR." Date available: 09/02/2017 Date last updated by company: 09/02/2017
