Source: USDA Branded Food Products Database Release December 2017 Software v.3.8.6.4 2017-10-02
Report Run at: December 18, 2017 03:44 EST
"Nutrient data for: 45290213, BREADED CHICKEN TENDERLOINS, UPC: 075450230659"
Food Group:  Branded Food Products Database
Common Name:

Nutrient,Unit,Data points,Std. Error,"1 PIECE = 77.0g",1Value per 100 g,
Proximates
"Energy",kcal,--,--,130,169
"Protein",g,--,--,12.00,15.58
"Total lipid (fat)",g,--,--,5.00,6.49
"Carbohydrate, by difference",g,--,--,11.00,14.29
"Fiber, total dietary",g,--,--,0.0,0.0
"Sugars, total",g,--,--,0.00,0.00
Minerals
"Calcium, Ca",mg,--,--,0,0
"Iron, Fe",mg,--,--,0.79,1.03
"Sodium, Na",mg,--,--,520,675
Vitamins
"Vitamin C, total ascorbic acid",mg,--,--,0.0,0.0
"Vitamin A, IU",IU,--,--,0,0
Lipids
"Fatty acids, total saturated",g,--,--,0.501,0.650
"Fatty acids, total trans",g,--,--,0.000,0.000
"Cholesterol",mg,--,--,20,26
Amino Acids
Other
Ingredients
"BONELESS, SKINLESS CHICKEN BREAST TENDERLOINS CONTAINING: UP TO 17% OF A SOLUTION OF WATER, SEASONING (MALTODEXTRIN, SALT, HONEY POWDER [MALTODEXTRIN, HONEY, REFINERY SYRUP, NATURAL AND ARTIFICIAL FLAVORS, GUM ARABIC, CITRIC ACID], MODIFIED CORNSTARCH, SOYBEAN OIL, SUCRALOSE, SPICE EXTRACT), SODIUM PHOSPHATES. PREDUSTED WITH: ENRICHED BLEACHED WHEAT FLOUR (WHEAT FLOUR, NIACIN, REDUCED IRON, THIAMINE MONONITRATE, RIBOFLAVIN, FOLIC ACID), SALT, SUGAR, LEAVENING (SODIUM BICARBONATE, SODIUM ALUMINUM PHOSPHATE, MONOCALCIUM PHOSPHATE), HONEY POWDER (MALTODEXTRIN, DRIED HONEY), YEAST EXTRACT, DISODIUM INOSINATE AND DISODIUM GUANYLATE. BATTERED WITH: WATER, ENRICHED BLEACHED WHEAT FLOUR (WHEAT FLOUR, NIACIN, REDUCED IRON, THIAMINE MONONITRATE, RIBOFLAVIN, FOLIC ACID), SALT, SUGAR, LEAVENING (SODIUM BICARBONATE, SODIUM ALUMINUM PHOSPHATE, MONOCALCIUM PHOSPHATE), HONEY POWDER (MALTODEXTRIN, DRIED HONEY), YEAST EXTRACT, DISODIUM INOSINATE AND DISODIUM GUANYLATE. BREADED WITH: ENRICHED BLEACHED WHEAT FLOUR (WHEAT FLOUR, NIACIN, REDUCED IRON, THIAMINE MONONITRATE, RIBOFLAVIN, FOLIC ACID), SALT, SUGAR, LEAVENING (SODIUM BICARBONATE, SODIUM ALUMINUM PHOSPHATE, MONOCALCIUM PHOSPHATE), YEAST EXTRACT, SPICES, DISODIUM INOSINATE AND DISODIUM GUANYLATE BREADING SET IN VEGETABLE OIL." Date available: 07/14/2017 Date last updated by company: 07/14/2017
