Source: USDA Branded Food Products Database Release December 2017 Software v.3.8.6.4 2017-10-02
Report Run at: December 18, 2017 03:53 EST
"Nutrient data for: 45228032, BREAKFAST BARS, UPC: 854098006242"
Food Group:  Branded Food Products Database
Common Name:

Nutrient,Unit,Data points,Std. Error,"1 BAR = 34.0g",1Value per 100 g,
Proximates
"Energy",kcal,--,--,140,412
"Protein",g,--,--,3.00,8.82
"Total lipid (fat)",g,--,--,5.00,14.71
"Carbohydrate, by difference",g,--,--,23.00,67.65
"Fiber, total dietary",g,--,--,1.0,2.9
"Sugars, total",g,--,--,10.00,29.41
Minerals
"Calcium, Ca",mg,--,--,0,0
"Iron, Fe",mg,--,--,0.85,2.49
"Sodium, Na",mg,--,--,120,353
Vitamins
"Vitamin C, total ascorbic acid",mg,--,--,0.0,0.0
"Vitamin A, IU",IU,--,--,0,0
Lipids
"Fatty acids, total saturated",g,--,--,0.500,1.470
"Fatty acids, total trans",g,--,--,0.000,0.000
"Cholesterol",mg,--,--,15,44
Amino Acids
Other
Ingredients
"ORGANIC ROLLED OATS, ORGANIC WHEAT FLOUR, ORGANIC CANE SUGAR, ORGANIC BROWN RICE SYRUP, ORGANIC HIGH OLEIC SUNFLOWER OIL OR ORGANIC HIGH OLEIC SAFFLOWER OIL OR ORGANIC CANOLA OIL, ORGANIC RAISINS, ORGANIC INVERT SUGAR, ORGANIC EGGS, CONTAINS LESS THAN 2% OF EACH OF THE FOLLOWING: ORGANIC MOLASSES, ORGANIC BUTTER (ORGANIC CREAM), BAKING SODA, ORGANIC CINNAMON, SEA SALT, ORGANIC BROWN SUGAR FLAVOR, CITRIC ACID." Date available: 07/14/2017 Date last updated by company: 07/14/2017
