Source: USDA Branded Food Products Database Release December 2017 Software v.3.8.6.4 2017-10-02
Report Run at: December 18, 2017 03:45 EST
"Nutrient data for: 45285071, BREADED MACKEREL, UPC: 011152012094"
Food Group:  Branded Food Products Database
Common Name:

Nutrient,Unit,Data points,Std. Error,"4.0 ONZ = 113.0g",1Value per 100 g,
Proximates
"Energy",kcal,--,--,340,301
"Protein",g,--,--,12.00,10.62
"Total lipid (fat)",g,--,--,23.00,20.35
"Carbohydrate, by difference",g,--,--,23.00,20.35
"Fiber, total dietary",g,--,--,1.0,0.9
"Sugars, total",g,--,--,0.99,0.88
Minerals
"Calcium, Ca",mg,--,--,99,88
"Iron, Fe",mg,--,--,0.54,0.48
"Sodium, Na",mg,--,--,360,319
Vitamins
"Vitamin C, total ascorbic acid",mg,--,--,0.0,0.0
"Vitamin A, IU",IU,--,--,0,0
Lipids
"Fatty acids, total saturated",g,--,--,1.503,1.330
"Fatty acids, total trans",g,--,--,0.000,0.000
"Cholesterol",mg,--,--,40,35
Amino Acids
Other
Ingredients
"STRIPED JACK MACKEREL, BREAD CRUMBS (WHEAT FLOUR, SHORTENING [PALM OIL], SUGAR, YEAST, SALT, ANNATTO COLOR, YEAST FOOD), WATER, BATTER MIX (WHEAT FLOUR, CORN FLOUR, SALT, GUAR GUM, SUGAR), MODIFIED TAPIOCA STARCH AND CALCIUM CARBONATE." Date available: 07/14/2017 Date last updated by company: 07/14/2017
