Source: USDA Branded Food Products Database Release December 2017 Software v.3.8.6.4 2017-10-02
Report Run at: December 18, 2017 03:44 EST
"Nutrient data for: 45225619, BREADED DINOSAUR-SHAPED CHICKEN BREAST PATTIES WITH RIB MEAT, UPC: 064563226512"
Food Group:  Branded Food Products Database
Common Name:

Nutrient,Unit,Data points,Std. Error,"5.0 PIECES = 83.0g",1Value per 100 g,
Proximates
"Energy",kcal,--,--,180,217
"Protein",g,--,--,10.00,12.05
"Total lipid (fat)",g,--,--,10.00,12.05
"Carbohydrate, by difference",g,--,--,13.00,15.66
"Fiber, total dietary",g,--,--,1.0,1.2
"Sugars, total",g,--,--,0.00,0.00
Minerals
"Calcium, Ca",mg,--,--,20,24
"Iron, Fe",mg,--,--,0.74,0.89
"Sodium, Na",mg,--,--,360,434
Vitamins
"Vitamin C, total ascorbic acid",mg,--,--,0.0,0.0
"Vitamin A, IU",IU,--,--,0,0
Lipids
"Fatty acids, total saturated",g,--,--,1.502,1.810
"Fatty acids, total trans",g,--,--,0.000,0.000
"Cholesterol",mg,--,--,25,30
Amino Acids
Other
Ingredients
"BONELESS SKINLESS CHICKEN BREAST WITH RIB MEAT. WATER, WHEAT FLOUR, ISOLATED SOY PROTEIN, YELLOW CORN FLOUR, SEA SALT, CORN STARCH, DISTILLED VINEGAR, MALTED BARLEY FLOUR, SUGAR, YEAST, SPICES, SODIUM BICARBONATE, NATURAL FLAVOR, FLAXMEAL, GUAR GUM, GARLIC POWDER, ONION POWDER, EXTRACTIVES OF PAPRIKA. BREADING SET IN CANOLA OIL." Date available: 07/14/2017 Date last updated by company: 07/14/2017
