Source: USDA Branded Food Products Database Release December 2017 Software v.3.8.6.4 2017-10-02
Report Run at: December 18, 2017 03:45 EST
"Nutrient data for: 45196154, BREADED MOZZARELLA CHEESE STICKS, UPC: 035826099051"
Food Group:  Branded Food Products Database
Common Name:

Nutrient,Unit,Data points,Std. Error,"3.0 STICKS = 68.0g",1Value per 100 g,
Proximates
"Energy",kcal,--,--,220,324
"Protein",g,--,--,9.00,13.24
"Total lipid (fat)",g,--,--,12.00,17.65
"Carbohydrate, by difference",g,--,--,19.00,27.94
"Fiber, total dietary",g,--,--,1.0,1.5
"Sugars, total",g,--,--,1.00,1.47
Minerals
"Calcium, Ca",mg,--,--,200,294
"Iron, Fe",mg,--,--,1.35,1.99
"Sodium, Na",mg,--,--,550,809
Vitamins
"Vitamin C, total ascorbic acid",mg,--,--,0.0,0.0
"Vitamin A, IU",IU,--,--,250,368
Lipids
"Fatty acids, total saturated",g,--,--,4.502,6.620
"Fatty acids, total trans",g,--,--,0.000,0.000
"Cholesterol",mg,--,--,15,22
Amino Acids
Other
Ingredients
"LOW MOISTURE PART SKIM MOZZARELLA CHEESE (PASTEURIZED PART SKIM MILK, CHEESE CULTURES, SALT, ENZYME), ENRICHED WHEAT FLOUR (WHEAT FLOUR, NIACIN, REDUCED IRON, THIAMINE MONONITRATE, RIBOFLAVIN, FOLIC ACID), WATER, SOYBEAN OIL, ENRICHED YELLOW CORN FLOUR (YELLOW CORN FLOUR, NIACIN, IRON AS FERROUS SULFATE, THIAMINE MONONITRATE, RIBOFLAVIN, FOLIC ACID), MODIFIED CORNSTARCH, CONTAINS 2% OR LESS OF EACH OF THE FOLLOWING: BLEACHED WHEAT FLOUR, CARAMEL COLOR, CORNSTARCH, DEXTROSE, DRIED PARSLEY, ENRICHED WHEAT FLOUR (WHEAT FLOUR, NIACIN, IRON AS FERROUS SULFATE, THIAMINE MONONITRATE, RIBOFLAVIN, FOLIC ACID), GARLIC POWDER, GUAR GUM, HYDROXYPROPYL METHYLCELLULOSE, LEAVENING (BAKING SODA, SODIUM ALUMINUM PHOSPHATE), LEAVENING (SODIUM ACID PYROPHOSPHATE, BAKING SODA), MALTODEXTRIN, METHYLCELLULOSE, MONO AND DIGLYCERIDES, NATURAL FLAVOR, NONFAT DRY MILK, ONION POWDER, PAPRIKA EXTRACT (COLOR), PAPRIKA EXTRACTIVES, SALT, SPICE EXTRACTIVES, SPICES, SUGAR, WHEAT STARCH, WHEY POWDER, WHEY, YEAST, YELLOW CORN FLOUR." Date available: 07/14/2017 Date last updated by company: 07/14/2017
