Source: USDA Branded Food Products Database Release December 2017 Software v.3.8.6.4 2017-10-02
Report Run at: December 18, 2017 03:59 EST
"Nutrient data for: 45201253, BREAKFAST TRIO, UPC: 770981099583"
Food Group:  Branded Food Products Database
Common Name:

Nutrient,Unit,Data points,Std. Error,"2.0 ASSORTED PIECES = 47.0g",1Value per 100 g,
Proximates
"Energy",kcal,--,--,190,404
"Protein",g,--,--,3.00,6.38
"Total lipid (fat)",g,--,--,8.00,17.02
"Carbohydrate, by difference",g,--,--,26.00,55.32
"Fiber, total dietary",g,--,--,2.0,4.3
"Sugars, total",g,--,--,12.00,25.53
Minerals
"Calcium, Ca",mg,--,--,20,43
"Iron, Fe",mg,--,--,1.26,2.69
"Sodium, Na",mg,--,--,140,298
Vitamins
"Vitamin C, total ascorbic acid",mg,--,--,0.0,0.0
"Vitamin A, IU",IU,--,--,117,249
Lipids
"Fatty acids, total saturated",g,--,--,4.000,8.510
"Fatty acids, total trans",g,--,--,0.000,0.000
"Cholesterol",mg,--,--,15,32
Amino Acids
Other
Ingredients
"ENRICHED WHEAT FLOUR (WHEAT FLOUR, NIACIN, REDUCED IRON, THIAMINE MONONITRATE, RIBOFLAVIN, FOLIC ACID), SUGAR, MARGARINE [SOYBEAN AND MODIFIED PALM OIL, WATER, SALT, WHEY POWDER, SOYBEAN LECITHIN, MONOGLYCERIDES, NATURAL FLAVOR, VITAMIN A PALMITATE, VITAMIN D3, COLOR (ANNATTO)], WATER, WHOLE GRAIN ROLLED OATS, PARTLY SKIMMED MILK, SHORTENING (PALM, SOYBEAN AND MODIFIED PALM OIL), BUTTER (CREAM, SALT), EGG, WHOLE GRAIN FLOUR, ICING SUGAR, GLUCOSE, RAISINS, BLUEBERRIES, INVERT SUGAR, CRANBERRIES, SUNFLOWER SEEDS, HONEY, FLAX SEEDS, ALMONDS, CORN FIBRE, COCONUT, CINNAMON, MODIFIED PALM AND PALM KERNEL OIL, GREEK YOGURT POWDER (MILK INGREDIENTS, BACTERIAL CULTURES), SKIM MILK POWDER, MILK PROTEIN, SOYBEAN LECITHIN, LEAVENING (SODIUM ACID PYROPHOSPHATE, SODIUM BICARBONATE, CORN STARCH, MONOCALCIUM PHOSPHATE, CALCIUM SULFATE), SALT, POTATO STARCH, MONO AND DIGLYCERIDES, MOLASSES, GLYCERINE, NATURAL AND ARTIFICIAL FLAVOR, SODIUM BICARBONATE, VINEGAR, AGAR, PECTIN, GUAR GUM, MODIFIED POTATO STARCH, XANTHAN GUM, CITRIC ACID, LACTIC ACID POWDER, SUNFLOWER OIL, SODIUM ALGINATE, SODIUM BENZOATE (PRESERVATIVE)." Date available: 07/14/2017 Date last updated by company: 07/14/2017
