Source: USDA Branded Food Products Database Release December 2017 Software v.3.8.6.4 2017-10-02
Report Run at: December 18, 2017 03:49 EST
"Nutrient data for: 45138588, BREAD STICKS, UPC: 076845250061"
Food Group:  Branded Food Products Database
Common Name:

Nutrient,Unit,Data points,Std. Error,"1 SLICE = 50.0g",1Value per 100 g,
Proximates
"Energy",kcal,--,--,150,300
"Protein",g,--,--,4.00,8.00
"Total lipid (fat)",g,--,--,5.00,10.00
"Carbohydrate, by difference",g,--,--,23.00,46.00
"Fiber, total dietary",g,--,--,1.0,2.0
"Sugars, total",g,--,--,2.00,4.00
Minerals
"Calcium, Ca",mg,--,--,0,0
"Iron, Fe",mg,--,--,1.58,3.17
"Sodium, Na",mg,--,--,230,460
Vitamins
"Vitamin C, total ascorbic acid",mg,--,--,0.0,0.0
"Vitamin A, IU",IU,--,--,220,440
Lipids
"Fatty acids, total saturated",g,--,--,1.000,2.000
"Fatty acids, total monounsaturated",g,--,--,1.500,3.000
"Fatty acids, total polyunsaturated",g,--,--,3.000,6.000
"Fatty acids, total trans",g,--,--,0.000,0.000
"Cholesterol",mg,--,--,0,0
Amino Acids
Other
Ingredients
"BREADSTICK: ENRICHED FLOUR (BLEACHED WHEAT FLOUR, NIACIN, REDUCED IRON, THIAMINE MONONITRATE, RIBOFLAVIN, FOLIC ACID), WATER, SOYBEAN OIL, SUGAR, CONTAINS LESS THAN 2%: YEAST, SALT, WHEAT GLUTEN, GUAR GUM, CANOLA OIL, ENZYMES ASCORBIC ACID., SPREAD: VEGETABLE OIL BLEND (SOYBEAN, PALM), WATER, GARLIC, CONTAINS 2% OR LESS: SWEET CREAM BUTTERMILK. SALT, SPICE, ONION POWDER, MONO AND DIGLYCERIDES, NATURAL FLAVOR, POTASSIUM SORBATE (USED TO PROTECT QUALITY), SOY LECITHIN, CITRIC ACID, VITAMIN A PALMITATE, BETA CAROTENE (FOR COLOR)." Date available: 07/14/2017 Date last updated by company: 07/14/2017
