Source: USDA Branded Food Products Database Release December 2017 Software v.3.8.6.4 2017-10-02
Report Run at: December 18, 2017 03:44 EST
"Nutrient data for: 45199045, BREADED FLOUNDER, UPC: 078742046396"
Food Group:  Branded Food Products Database
Common Name:

Nutrient,Unit,Data points,Std. Error,"3.5 ONZ = 100.0g",1Value per 100 g,
Proximates
"Energy",kcal,--,--,240,240
"Protein",g,--,--,11.00,11.00
"Total lipid (fat)",g,--,--,13.00,13.00
"Carbohydrate, by difference",g,--,--,20.00,20.00
"Fiber, total dietary",g,--,--,2.0,2.0
"Sugars, total",g,--,--,1.00,1.00
Minerals
"Calcium, Ca",mg,--,--,0,0
"Iron, Fe",mg,--,--,0.00,0.00
"Sodium, Na",mg,--,--,260,260
Vitamins
"Vitamin C, total ascorbic acid",mg,--,--,0.0,0.0
"Vitamin A, IU",IU,--,--,0,0
Lipids
"Fatty acids, total saturated",g,--,--,1.000,1.000
"Fatty acids, total trans",g,--,--,0.000,0.000
"Cholesterol",mg,--,--,15,15
Amino Acids
Other
Ingredients
"FLOUNDER FILLETS, BLEACHED WHEAT FLOUR, WHEAT FLOUR, MODIFIED CORN STARCH, YELLOW CORN FLOUR, SALT, DEXTROSE, YEAST, GARLIC POWDER, CANOLA OIL, ONION POWDER, SUGAR, LEAVENING (SODIUM BICARBONATE, SODIUM ACID PYROPHOSPHATE, SODIUM ALUMINUM PHOSPHATE), EGGS, SOY FLOUR, PARTIALLY FRIED IN CANOLA OIL." Date available: 07/14/2017 Date last updated by company: 07/14/2017
