Source: USDA Branded Food Products Database Release December 2017 Software v.3.8.6.4 2017-10-02
Report Run at: December 18, 2017 03:46 EST
"Nutrient data for: 45278731, BREADED ONION RINGS, UPC: 041303028605"
Food Group:  Branded Food Products Database
Common Name:

Nutrient,Unit,Data points,Std. Error,"6.0 RINGS = 88.0g",1Value per 100 g,
Proximates
"Energy",kcal,--,--,180,205
"Protein",g,--,--,3.00,3.41
"Total lipid (fat)",g,--,--,10.00,11.36
"Carbohydrate, by difference",g,--,--,24.00,27.27
"Fiber, total dietary",g,--,--,2.0,2.3
"Sugars, total",g,--,--,5.00,5.68
Minerals
"Calcium, Ca",mg,--,--,20,23
"Iron, Fe",mg,--,--,0.70,0.79
"Potassium, K",mg,--,--,95,108
"Sodium, Na",mg,--,--,210,239
Vitamins
"Vitamin C, total ascorbic acid",mg,--,--,3.5,4.0
"Vitamin A, IU",IU,--,--,0,0
Lipids
"Fatty acids, total saturated",g,--,--,1.496,1.700
"Fatty acids, total monounsaturated",g,--,--,1.998,2.270
"Fatty acids, total polyunsaturated",g,--,--,6.002,6.820
"Fatty acids, total trans",g,--,--,0.000,0.000
"Cholesterol",mg,--,--,0,0
Amino Acids
Other
Ingredients
"DICED ONIONS, ENRICHED WHEAT FLOUR (WHEAT FLOUR, NIACIN, FERROUS SULFATE, THIAMINE MONONITRATE, RIBOFLAVIN, FOLIC ACID), VEGETABLE OIL (SOYBEAN AND/OR CANOLA), WATER, BLEACHED WHEAT FLOUR, CORN STARCH, WHEAT FLOUR. CONTAINS 2% OR LESS OF CALCIUM CHLORIDE, CARAMEL COLOR, CELLULOSE GUM, DEXTROSE, MODIFIED CORN STARCH, OLEORESIN PAPRIKA (COLOR), POLYSORBATE 60, SALT, SODIUM ALGINATE, SUGAR, WHEY, YEAST, YELLOW CORN FLOUR." Date available: 07/14/2017 Date last updated by company: 07/14/2017
