Source: USDA Branded Food Products Database Release December 2017 Software v.3.8.6.4 2017-10-02
Report Run at: December 18, 2017 03:52 EST
"Nutrient data for: 45275483, BREAKFASH SAUSAGE, UPC: 641227751018"
Food Group:  Branded Food Products Database
Common Name:

Nutrient,Unit,Data points,Std. Error,"2.0 ONZ = 57.0g",1Value per 100 g,
Proximates
"Energy",kcal,--,--,180,316
"Protein",g,--,--,8.00,14.04
"Total lipid (fat)",g,--,--,16.00,28.07
"Carbohydrate, by difference",g,--,--,2.00,3.51
"Fiber, total dietary",g,--,--,0.0,0.0
"Sugars, total",g,--,--,0.00,0.00
Minerals
"Calcium, Ca",mg,--,--,0,0
"Iron, Fe",mg,--,--,0.35,0.61
"Sodium, Na",mg,--,--,410,719
Vitamins
"Vitamin C, total ascorbic acid",mg,--,--,0.0,0.0
"Vitamin A, IU",IU,--,--,0,0
Lipids
"Fatty acids, total saturated",g,--,--,6.002,10.530
"Cholesterol",mg,--,--,35,61
Amino Acids
Other
Ingredients
"PORK, SEASONING (SALT, SPICES [PEPPERS, GINGER, SAGE, NUTMEG], RAW SUGAR), WATER, LESS THAN 2% OF: VINEGAR." Date available: 07/14/2017 Date last updated by company: 07/14/2017
