Source: USDA Branded Food Products Database Release December 2017 Software v.3.8.6.4 2017-10-02
Report Run at: December 18, 2017 03:41 EST
"Nutrient data for: 45286661, BREAD CRUMBS, UPC: 711535509790"
Food Group:  Branded Food Products Database
Common Name:

Nutrient,Unit,Data points,Std. Error,"0.33 cup = 33.0g",1Value per 100 g,
Proximates
"Energy",kcal,--,--,120,364
"Protein",g,--,--,4.00,12.12
"Total lipid (fat)",g,--,--,0.50,1.52
"Carbohydrate, by difference",g,--,--,25.00,75.76
"Fiber, total dietary",g,--,--,1.0,3.0
"Sugars, total",g,--,--,2.00,6.06
Minerals
"Calcium, Ca",mg,--,--,0,0
"Iron, Fe",mg,--,--,0.54,1.65
"Sodium, Na",mg,--,--,170,515
Vitamins
"Vitamin C, total ascorbic acid",mg,--,--,0.0,0.0
"Vitamin A, IU",IU,--,--,0,0
Lipids
"Fatty acids, total saturated",g,--,--,0.000,0.000
"Fatty acids, total monounsaturated",g,--,--,0.000,0.000
"Fatty acids, total polyunsaturated",g,--,--,0.000,0.000
"Fatty acids, total trans",g,--,--,0.000,0.000
"Cholesterol",mg,--,--,0,0
Amino Acids
Other
Ingredients
"ORGANIC WHEAT FLOUR, SEA SALT, ORGANIC CANE SUGAR, YEAST." Date available: 08/24/2017 Date last updated by company: 08/24/2017
