Source: USDA Branded Food Products Database Release December 2017 Software v.3.8.6.4 2017-10-02
Report Run at: December 18, 2017 03:36 EST
"Nutrient data for: 45291486, BREAD BOWLS, UPC: 859724002490"
Food Group:  Branded Food Products Database
Common Name:

Nutrient,Unit,Data points,Std. Error,"80.0 GRM = 80.0g",1Value per 100 g,
Proximates
"Energy",kcal,--,--,220,275
"Protein",g,--,--,5.00,6.25
"Total lipid (fat)",g,--,--,6.00,7.50
"Carbohydrate, by difference",g,--,--,34.00,42.50
"Fiber, total dietary",g,--,--,2.0,2.5
"Sugars, total",g,--,--,3.00,3.75
Minerals
"Calcium, Ca",mg,--,--,60,75
"Iron, Fe",mg,--,--,1.13,1.41
"Sodium, Na",mg,--,--,380,475
Vitamins
"Vitamin C, total ascorbic acid",mg,--,--,2.2,2.8
"Vitamin A, IU",IU,--,--,0,0
Lipids
"Fatty acids, total saturated",g,--,--,1.504,1.880
"Fatty acids, total trans",g,--,--,0.000,0.000
"Cholesterol",mg,--,--,10,12
Amino Acids
Other
Ingredients
"ENRICHED WHEAT FLOUR (WHEAT FLOUR, NIACIN, IRON, THIAMINE MONONITRATE, RIBOFLAVIN, ALPHA AMYLASE, FOLIC ACID) WATER, MARGARINE (CANOLA OIL, WATER, MODIFIED PALM AND PALM KERNEL OILS, SALT, WHEY POWDER, VEGETABLE MONOGLYCERIDES, SOYA LECITHIN, SODIUM BENZOATE, ARTIFICIAL FLAVOUR, VITAMIN A PALMITATE, VITAMIN D3), PASTRY FLOUR, SUGAR, DEXTROSE, LIQUID WHOLE EGGS, POTATO FLOUR, DOUGH CONDITIONER (DEXTROSE, WHEAT FLOUR, SODIUM STEAROYL-2-LACTYLATE, VEGETABLE OIL [CANOLA AND/OR SOYA], ASCORBIC ACID, AMYLASE, L-CYSTEINE HYDROCHLORIDE), CELLULOSE GUM, CIDER VINEGAR, YEAST, DISTILLED MONO- & DIGLYCERIDES, CITRIC ACID, CALCIUM PROPIONATE." Date available: 07/14/2017 Date last updated by company: 07/14/2017
