Source: USDA Branded Food Products Database Release December 2017 Software v.3.8.6.4 2017-10-02
Report Run at: December 18, 2017 03:57 EST
"Nutrient data for: 45333238, BREAKFAST SAUSAGE PATTIES, UPC: 07203660033"
Food Group:  Branded Food Products Database
Common Name:

Nutrient,Unit,Data points,Std. Error,"2.0 COOKED PATTIES = 65.0g",1Value per 100 g,
Proximates
"Energy",kcal,--,--,140,215
"Protein",g,--,--,15.00,23.08
"Total lipid (fat)",g,--,--,8.00,12.31
"Carbohydrate, by difference",g,--,--,1.00,1.54
"Fiber, total dietary",g,--,--,0.0,0.0
"Sugars, total",g,--,--,0.00,0.00
Minerals
"Calcium, Ca",mg,--,--,20,31
"Iron, Fe",mg,--,--,0.92,1.41
"Sodium, Na",mg,--,--,640,985
Vitamins
"Vitamin C, total ascorbic acid",mg,--,--,1.0,1.6
"Vitamin A, IU",IU,--,--,0,0
Lipids
"Fatty acids, total saturated",g,--,--,3.003,4.620
"Fatty acids, total trans",g,--,--,0.000,0.000
"Cholesterol",mg,--,--,55,85
Amino Acids
Other
Ingredients
"PORK, CONTAINS 2% OR LESS OF SALT, WATER, DEXTROSE, SPICES, POTASSIUM CHLORIDE, MALTODEXTRIN, NATURAL FLAVOR, SPICE EXTRACTIVES, SILICON DIOXIDE, VINEGAR, LEMON JUICE CONCENTRATE." Date available: 10/13/2017 Date last updated by company: 10/13/2017
