Source: USDA Branded Food Products Database Release December 2017 Software v.3.8.6.4 2017-10-02
Report Run at: December 18, 2017 03:39 EST
"Nutrient data for: 45136103, BREAD & CHOCOLATE, UPC: 874492000073"
Food Group:  Branded Food Products Database
Common Name:

Nutrient,Unit,Data points,Std. Error,"1 BAR = 57.0g",1Value per 100 g,
Proximates
"Energy",kcal,--,--,260,456
"Protein",g,--,--,3.00,5.26
"Total lipid (fat)",g,--,--,19.00,33.33
"Carbohydrate, by difference",g,--,--,27.00,47.37
"Fiber, total dietary",g,--,--,4.0,7.0
"Sugars, total",g,--,--,16.00,28.07
Minerals
"Iron, Fe",mg,--,--,0.63,1.11
"Sodium, Na",mg,--,--,250,439
Vitamins
Lipids
"Fatty acids, total saturated",g,--,--,11.999,21.050
"Cholesterol",mg,--,--,0,0
Amino Acids
Other
Ingredients
"COCOA BEANS* +, SUGAR* +, BREAD* (UNBLEACHED WHEAT FLOUR, WATER, SEA SALT) COCOA BUTTER* +, SEA SALT, BUTTER* (MILK), GROUND VANILLA BEAN*." Date available: 10/13/2017 Date last updated by company: 10/13/2017
