Source: USDA Branded Food Products Database Release December 2017 Software v.3.8.6.4 2017-10-02
Report Run at: December 18, 2017 03:44 EST
"Nutrient data for: 45216530, BREADED FISH STICKS, UPC: 036800384705"
Food Group:  Branded Food Products Database
Common Name:

Nutrient,Unit,Data points,Std. Error,"4.0 STICKS = 90.0g",1Value per 100 g,
Proximates
"Energy",kcal,--,--,180,200
"Protein",g,--,--,8.00,8.89
"Total lipid (fat)",g,--,--,6.00,6.67
"Carbohydrate, by difference",g,--,--,22.00,24.44
"Fiber, total dietary",g,--,--,1.0,1.1
"Sugars, total",g,--,--,2.00,2.22
Minerals
"Calcium, Ca",mg,--,--,0,0
"Iron, Fe",mg,--,--,1.02,1.13
"Sodium, Na",mg,--,--,190,211
Vitamins
"Vitamin C, total ascorbic acid",mg,--,--,0.0,0.0
"Vitamin A, IU",IU,--,--,0,0
Lipids
"Fatty acids, total saturated",g,--,--,0.999,1.110
"Fatty acids, total trans",g,--,--,0.000,0.000
"Cholesterol",mg,--,--,25,28
Amino Acids
Other
Ingredients
"POLLOCK, ENRICHED BLEACHED WHEAT FLOUR (FLOUR, NIACIN, REDUCED IRON, THIAMINE MONONITRATE, RIBOFLAVIN, FOLIC ACID), WATER, MODIFIED FOOD STARCH, ENRICHED YELLOW CORN FLOUR (CORN FLOUR, NIACIN, REDUCED IRON, THIAMINE MONONITRATE, RIBOFLAVIN, FOLIC ACID), SALT, DEXTROSE, YEAST, SOYBEAN OIL, OLEORESIN PAPRIKA FOR COLOR, NATURAL FLAVORING, GRANULATED GARLIC, SPICES, SODIUM TRIPOLYPHOSPHATE (TO RETAIN MOISTURE), FRIED IN VEGETABLE OIL (COTTONSEED, CANOLA AND/OR SOYBEAN OIL)." Date available: 07/14/2017 Date last updated by company: 07/14/2017
