Source: USDA Branded Food Products Database Release December 2017 Software v.3.8.6.4 2017-10-02
Report Run at: December 18, 2017 03:37 EST
"Nutrient data for: 45203810, BREAD & BUTTER CHIPS, UPC: 863565000096"
Food Group:  Branded Food Products Database
Common Name:

Nutrient,Unit,Data points,Std. Error,"3.0 -4 CHIPS | ABOUT = 26.0g",1Value per 100 g,
Proximates
"Energy",kcal,--,--,25,96
"Protein",g,--,--,1.00,3.85
"Total lipid (fat)",g,--,--,0.00,0.00
"Carbohydrate, by difference",g,--,--,5.00,19.23
"Fiber, total dietary",g,--,--,0.0,0.0
"Sugars, total",g,--,--,5.00,19.23
Minerals
"Calcium, Ca",mg,--,--,0,0
"Iron, Fe",mg,--,--,0.00,0.00
"Sodium, Na",mg,--,--,180,692
Vitamins
"Vitamin C, total ascorbic acid",mg,--,--,0.0,0.0
"Vitamin A, IU",IU,--,--,0,0
Lipids
"Fatty acids, total saturated",g,--,--,0.000,0.000
"Fatty acids, total trans",g,--,--,0.000,0.000
"Cholesterol",mg,--,--,0,0
Amino Acids
Other
Ingredients
"CONTENTS: FRESH CUCUMBERS, WATER, SALT, GRANULATED SUGAR, VINEGAR, NATURAL FLAVORS, SPICES, TURMERIC, 1/10 OF 1% SODIUM BENZOATE, CALCIUM CHLORIDE, EDTA." Date available: 07/14/2017 Date last updated by company: 07/14/2017
