Source: USDA Branded Food Products Database Release December 2017 Software v.3.8.6.4 2017-10-02
Report Run at: December 18, 2017 04:00 EST
"Nutrient data for: 45003513, BRECKENRIDGE FARMS, BREAD & BUTTER CHIPS, UPC: 639277415073"
Food Group:  Branded Food Products Database
Common Name:

Nutrient,Unit,Data points,Std. Error,"5.0 SLICES = 28.0g",1Value per 100 g,
Proximates
"Energy",kcal,--,--,30,107
"Protein",g,--,--,0.00,0.00
"Total lipid (fat)",g,--,--,0.00,0.00
"Carbohydrate, by difference",g,--,--,7.00,25.00
"Sugars, total",g,--,--,6.00,21.43
Minerals
"Sodium, Na",mg,--,--,170,607
Vitamins
Lipids
Amino Acids
Other
Ingredients
"CUCUMBERS, SUGAR, WATER, VINEGAR, SALT, MUSTARD SEED, CELERY SEED, CALCIUM CHLORIDE, POLYSORBATE 80, NATURAL FLAVORS, YELLOW 5." Date available: 06/25/2017 Date last updated by company: 06/25/2017
