Source: USDA Branded Food Products Database Release December 2017 Software v.3.8.6.4 2017-10-02
Report Run at: December 18, 2017 20:12 EST
"Nutrient data for: 45093401, BREYERS, FROZEN DAIRY DESSERT, EXTRA CREAMY CHOCOLATE, UPC: 077567250056"
Food Group:  Branded Food Products Database
Common Name:

Nutrient,Unit,Data points,Std. Error,"1 cup = 61.0g",1Value per 100 g,
Proximates
"Energy",kcal,--,--,110,180
"Protein",g,--,--,2.00,3.28
"Total lipid (fat)",g,--,--,3.50,5.74
"Carbohydrate, by difference",g,--,--,18.00,29.51
"Fiber, total dietary",g,--,--,1.0,1.6
"Sugars, total",g,--,--,12.00,19.67
Minerals
"Calcium, Ca",mg,--,--,60,98
"Iron, Fe",mg,--,--,0.00,0.00
"Sodium, Na",mg,--,--,40,66
Vitamins
"Vitamin C, total ascorbic acid",mg,--,--,0.0,0.0
"Vitamin A, IU",IU,--,--,300,492
Lipids
"Fatty acids, total saturated",g,--,--,2.501,4.100
"Fatty acids, total trans",g,--,--,0.000,0.000
"Cholesterol",mg,--,--,10,16
Amino Acids
Other
Ingredients
"MILK, SUGAR, CORN SYRUP, CREAM, DUTCHED COCOA (PROCESSED WITH ALKALI), CONTAIN 2% OR LESS OF EACH OF THE FOLLOWING: WHEY, MONO AND DIGLYCERIDES, VEGETABLE GUMS (GUAR, CAROB BEAN, TARA), CARRAGEENAN, VITAMIN A PALMITATE, NATURAL FLAVOR." Date available: 07/14/2017 Date last updated by company: 07/14/2017
