Source: USDA Branded Food Products Database Release December 2017 Software v.3.8.6.4 2017-10-02
Report Run at: December 18, 2017 20:13 EST
"Nutrient data for: 45093415, BREYERS, GELATO INDULGENCES, GELATO, SALTED CARAMEL TRUFFLE, UPC: 077567555496"
Food Group:  Branded Food Products Database
Common Name:

Nutrient,Unit,Data points,Std. Error,"1 cup = 83.0g",1Value per 100 g,
Proximates
"Energy",kcal,--,--,190,229
"Protein",g,--,--,3.00,3.61
"Total lipid (fat)",g,--,--,8.00,9.64
"Carbohydrate, by difference",g,--,--,27.00,32.53
"Fiber, total dietary",g,--,--,0.0,0.0
"Sugars, total",g,--,--,23.00,27.71
Minerals
"Calcium, Ca",mg,--,--,100,120
"Iron, Fe",mg,--,--,0.00,0.00
"Sodium, Na",mg,--,--,210,253
Vitamins
"Vitamin C, total ascorbic acid",mg,--,--,0.0,0.0
"Vitamin A, IU",IU,--,--,400,482
Lipids
"Fatty acids, total saturated",g,--,--,4.997,6.020
"Fatty acids, total trans",g,--,--,0.000,0.000
"Cholesterol",mg,--,--,20,24
Amino Acids
Other
Ingredients
"MILK, SUGAR, CORN SYRUP, CREAM, CONTAINS 2% OR LESS OF EACH OF THE FOLLOWING: WHEY, COCONUT OIL, BUTTER (CREAM, SALT), BUTTERFAT, SEA SALT, HEAVY CREAM, PECTIN, VEGETABLE GUMS (CAROB BEAN, GUAR), CARAMEL (FOR COLOR), MONO AND DIGLYCERIDES, DUTCHED COCOA (PROCESSED WITH ALKALI), SALT, SOY LECITHIN, NATURAL FLAVOR, LACTASE, BAKING SODA, CARRAGEENAN, VITAMIN A PALMITATE, WATER." Date available: 07/14/2017 Date last updated by company: 07/14/2017
