Source: USDA Branded Food Products Database Release December 2017 Software v.3.8.6.4 2017-10-02
Report Run at: December 18, 2017 20:14 EST
"Nutrient data for: 45093417, BREYERS, ICE CREAM, NATURAL STRAWBERRY, UPC: 077567254344"
Food Group:  Branded Food Products Database
Common Name:

Nutrient,Unit,Data points,Std. Error,"1 cup = 83.0g",1Value per 100 g,
Proximates
"Energy",kcal,--,--,140,169
"Protein",g,--,--,2.00,2.41
"Total lipid (fat)",g,--,--,7.00,8.43
"Carbohydrate, by difference",g,--,--,18.00,21.69
"Fiber, total dietary",g,--,--,1.0,1.2
"Sugars, total",g,--,--,18.00,21.69
Minerals
"Calcium, Ca",mg,--,--,80,96
"Iron, Fe",mg,--,--,0.00,0.00
"Sodium, Na",mg,--,--,45,54
Vitamins
"Vitamin C, total ascorbic acid",mg,--,--,1.2,1.4
"Vitamin A, IU",IU,--,--,200,241
Lipids
"Fatty acids, total saturated",g,--,--,4.001,4.820
"Fatty acids, total trans",g,--,--,0.000,0.000
"Cholesterol",mg,--,--,20,24
Amino Acids
Other
Ingredients
"MILK, STRAWBERRIES, CREAM, SUGAR, WHEY, VEGETABLE GUM (TARA)." Date available: 07/14/2017 Date last updated by company: 07/14/2017
