Source: USDA Branded Food Products Database Release December 2017 Software v.3.8.6.4 2017-10-02
Report Run at: December 18, 2017 20:18 EST
"Nutrient data for: 45194406, BRIOCHE SLIDERS MINI BUNS, UPC: 027199006712"
Food Group:  Branded Food Products Database
Common Name:

Nutrient,Unit,Data points,Std. Error,"1 BUN = 28.0g",1Value per 100 g,
Proximates
"Energy",kcal,--,--,80,286
"Protein",g,--,--,2.00,7.14
"Total lipid (fat)",g,--,--,1.50,5.36
"Carbohydrate, by difference",g,--,--,13.00,46.43
"Fiber, total dietary",g,--,--,0.0,0.0
"Sugars, total",g,--,--,2.00,7.14
Minerals
"Calcium, Ca",mg,--,--,80,286
"Iron, Fe",mg,--,--,1.29,4.59
"Sodium, Na",mg,--,--,130,464
Vitamins
"Vitamin C, total ascorbic acid",mg,--,--,0.0,0.0
"Thiamin",mg,--,--,0.280,1.000
"Riboflavin",mg,--,--,0.102,0.364
"Niacin",mg,--,--,2.142,7.650
"Vitamin A, IU",IU,--,--,0,0
Lipids
"Fatty acids, total saturated",g,--,--,0.000,0.000
"Fatty acids, total monounsaturated",g,--,--,0.000,0.000
"Fatty acids, total polyunsaturated",g,--,--,0.000,0.000
"Fatty acids, total trans",g,--,--,0.000,0.000
"Cholesterol",mg,--,--,5,18
Amino Acids
Other
Ingredients
"ENRICHED UNBLEACHED WHEAT FLOUR (WHEAT FLOUR, MALTED BARLEY, FLOUR, NIACIN, REDUCED IRON, THIAMIN MONONITRATE, RIBOFLAVIN AND FOLIC ACID), WATER, YEAST, SUGAR, SALTED BUTTER, CONTAINS 2% OR LESS OF EACH OF THE FOLLOWING: NONFAT DRY MILK, POWDERED WHOLE EGG, VITAL WHEAT GLUTEN, VEGETABLE OIL. (CANOLA AND/OR SOY), SALT, YEAST NUTRIENT (AMMONIUM SULFATE), DOUGH CONDITIONERS (MONO- AND DIGLYCERIDES, SODIUM STEAROYL LACTYLATE, ASCORBIC ACID, MONOCALCIUM PHOSPHATE), XANTHAN GUM, SUCRALOSE, CALCIUM SULFATE, ENZYMES, CALCIUM PROPIONATE (MOLD INHIBITOR), YELLOW CORN FLOUR, TURMERIC & ANNATTO WHICH IMPART COLOR, MODIFIED FOOD STARCH." Date available: 07/14/2017 Date last updated by company: 07/14/2017
