Source: USDA Branded Food Products Database Release December 2017 Software v.3.8.6.4 2017-10-02
Report Run at: December 18, 2017 20:20 EST
"Nutrient data for: 45159687, BRIX CHOCOLATES, CHOCOLATE FOR WINE, UPC: 895832002519"
Food Group:  Branded Food Products Database
Common Name:

Nutrient,Unit,Data points,Std. Error,"6.0 PIECES = 43.0g",1Value per 100 g,
Proximates
"Energy",kcal,--,--,230,535
"Protein",g,--,--,3.00,6.98
"Total lipid (fat)",g,--,--,16.00,37.21
"Carbohydrate, by difference",g,--,--,22.00,51.16
"Fiber, total dietary",g,--,--,3.0,7.0
"Sugars, total",g,--,--,17.00,39.53
Minerals
"Calcium, Ca",mg,--,--,40,93
"Iron, Fe",mg,--,--,3.14,7.30
"Sodium, Na",mg,--,--,30,70
Vitamins
"Vitamin C, total ascorbic acid",mg,--,--,0.0,0.0
"Vitamin A, IU",IU,--,--,0,0
Lipids
"Fatty acids, total saturated",g,--,--,10.002,23.260
"Fatty acids, total trans",g,--,--,0.000,0.000
"Cholesterol",mg,--,--,5,12
Amino Acids
Other
Ingredients
"SEMI-SWEET CHOCOLATE (CHOCOLATE LIQUOR PROCESSED WITH ALKALI, SUGAR, COCOA BUTTER, MILK FAT, SOY LECITHIN [EMULSIFIER], NATURAL FLAVORS), MILK CHOCOLATE (SUGAR, COCOA BUTTER, WHOLE MILK, CHOCOLATE LIQUOR, SOY LECITHIN [EMULSIFIER], VANILLA), BUTTERSWEET CHOCOLATE (CHOCOLATE LIQUOR (PROCESSED WITH ALKALI), SUGAR, COCOA BUTTER, SOY LECITHIN [EMULSIFIER], AND VANILLA), VANILLA." Date available: 07/14/2017 Date last updated by company: 07/14/2017
