Source: USDA Branded Food Products Database Release December 2017 Software v.3.8.6.4 2017-10-02
Report Run at: December 18, 2017 20:24 EST
"Nutrient data for: 45265119, BROCCOLI CUTS, UPC: 033828331438"
Food Group:  Branded Food Products Database
Common Name:

Nutrient,Unit,Data points,Std. Error,"1 cup = 90.0g",1Value per 100 g,
Proximates
"Energy",kcal,--,--,25,28
"Protein",g,--,--,1.00,1.11
"Total lipid (fat)",g,--,--,0.00,0.00
"Carbohydrate, by difference",g,--,--,4.00,4.44
"Fiber, total dietary",g,--,--,2.0,2.2
"Sugars, total",g,--,--,1.00,1.11
Minerals
"Calcium, Ca",mg,--,--,27,30
"Iron, Fe",mg,--,--,0.40,0.44
"Potassium, K",mg,--,--,125,139
"Sodium, Na",mg,--,--,20,22
Vitamins
"Vitamin C, total ascorbic acid",mg,--,--,27.0,30.0
Lipids
"Fatty acids, total saturated",g,--,--,0.000,0.000
"Fatty acids, total trans",g,--,--,0.000,0.000
"Cholesterol",mg,--,--,0,0
Amino Acids
Other
Ingredients
"BROCCOLI CUTS" Date available: 01/01/2017 Date last updated by company: 01/01/2017
