Source: USDA Branded Food Products Database Release December 2017 Software v.3.8.6.4 2017-10-02
Report Run at: December 18, 2017 20:23 EST
"Nutrient data for: 45279144, BROCCOLI & CHEESY CHEDDAR SOUP, UPC: 021130156504"
Food Group:  Branded Food Products Database
Common Name:

Nutrient,Unit,Data points,Std. Error,"1 cup = 245.0g",1Value per 100 g,
Proximates
"Energy",kcal,--,--,250,102
"Protein",g,--,--,8.99,3.67
"Total lipid (fat)",g,--,--,18.01,7.35
"Carbohydrate, by difference",g,--,--,12.01,4.90
"Fiber, total dietary",g,--,--,2.0,0.8
"Sugars, total",g,--,--,5.00,2.04
Minerals
"Calcium, Ca",mg,--,--,201,82
"Iron, Fe",mg,--,--,0.37,0.15
"Sodium, Na",mg,--,--,941,384
Vitamins
"Vitamin C, total ascorbic acid",mg,--,--,2.5,1.0
"Vitamin A, IU",IU,--,--,500,204
Lipids
"Fatty acids, total saturated",g,--,--,11.000,4.490
"Fatty acids, total trans",g,--,--,1.004,0.410
"Cholesterol",mg,--,--,59,24
Amino Acids
Other
Ingredients
"WATER, BROCCOLI, MILK, PASTEURIZED PROCESS CHEDDAR CHEESE (CHEDDAR CHEESE [MILK, CULTURES, SALT, ENZYMES], WATER, SODIUM PHOSPHATE, MILK FAT, SALT, APOCAROTENAL FOR COLOR), CREAM, PASTEURIZED PROCESS AMERICAN CHEESE (CULTURED MILK, WATER, CREAM, SODIUM PHOSPHATE, SALT, ENZYMES), MODIFIED CORNSTARCH, CONTAINS LESS THAN 2% OF: ONIONS, CANOLA OIL, BUTTER (CREAM, SALT), YEAST EXTRACT, CHEESE FLAVOR (NATURAL FLAVORING [INCLUDING DAIRY PRODUCTS], SOYBEAN OIL, SODIUM PHOSPHATE, MALTODEXTRIN, DISODIUM PHOSPHATE, CITRIC ACID, YELLOW 5, YELLOW 6), GARLIC, SEA SALT, DIJON MUSTARD (MUSTARD SEEDS, VINEGAR, SALT, CITRIC ACID, POTASSIUM METABISULFITE AS A PRESERVATIVE), CULTURED DEXTROSE, WHEY PROTEIN CONCENTRATE, DEHYDRATED ONIONS, SPICE, ANNATTO EXTRACT FOR COLOR." Date available: 07/14/2017 Date last updated by company: 07/14/2017
