Source: USDA Branded Food Products Database Release December 2017 Software v.3.8.6.4 2017-10-02
Report Run at: December 18, 2017 20:21 EST
"Nutrient data for: 45212975, BROCCOLI + CARROTS WITH RANCH, UPC: 5051379086282"
Food Group:  Branded Food Products Database
Common Name:

Nutrient,Unit,Data points,Std. Error,"1 PACK = 99.0g",1Value per 100 g,
Proximates
"Energy",kcal,--,--,120,121
"Protein",g,--,--,2.00,2.02
"Total lipid (fat)",g,--,--,9.00,9.09
"Carbohydrate, by difference",g,--,--,7.00,7.07
"Fiber, total dietary",g,--,--,2.0,2.0
"Sugars, total",g,--,--,3.00,3.03
Minerals
"Calcium, Ca",mg,--,--,20,20
"Iron, Fe",mg,--,--,0.00,0.00
"Sodium, Na",mg,--,--,220,222
Vitamins
"Vitamin C, total ascorbic acid",mg,--,--,18.2,18.4
"Vitamin A, IU",IU,--,--,3283,3316
Lipids
"Fatty acids, total saturated",g,--,--,2.000,2.020
"Fatty acids, total trans",g,--,--,0.000,0.000
"Cholesterol",mg,--,--,5,5
Amino Acids
Other
Ingredients
"BROCCOLI, CARROTS, RANCH DRESSING [SOYBEAN OIL, WATER, SOUR CREAM (CULTURED MILK, CREAM, NONFAT MILK, RENNET), DISTILLED VINEGAR, CARROT, SALT, SUGAR, GARLIC POWDER, GREEN ONIONS, XANTHAN GUM, ONION POWDER, PARSLEY]." Date available: 10/13/2017 Date last updated by company: 10/13/2017
