Source: USDA Branded Food Products Database Release December 2017 Software v.3.8.6.4 2017-10-02
Report Run at: December 18, 2017 20:25 EST
"Nutrient data for: 45200524, BROCCOLI FLORETS, UPC: 681131122344"
Food Group:  Branded Food Products Database
Common Name:

Nutrient,Unit,Data points,Std. Error,"1.5 cup = 85.0g",1Value per 100 g,
Proximates
"Energy",kcal,--,--,30,35
"Protein",g,--,--,3.00,3.53
"Total lipid (fat)",g,--,--,0.00,0.00
"Carbohydrate, by difference",g,--,--,4.00,4.71
"Fiber, total dietary",g,--,--,3.0,3.5
"Sugars, total",g,--,--,0.00,0.00
Minerals
"Calcium, Ca",mg,--,--,40,47
"Iron, Fe",mg,--,--,0.72,0.85
"Sodium, Na",mg,--,--,25,29
Vitamins
"Vitamin C, total ascorbic acid",mg,--,--,78.0,91.8
"Vitamin A, IU",IU,--,--,2500,2941
Lipids
"Fatty acids, total saturated",g,--,--,0.000,0.000
"Fatty acids, total trans",g,--,--,0.000,0.000
"Cholesterol",mg,--,--,0,0
Amino Acids
Other
Ingredients
"BROCCOLI FLORETS." Date available: 07/14/2017 Date last updated by company: 07/14/2017
