Source: USDA Branded Food Products Database Release December 2017 Software v.3.8.6.4 2017-10-02
Report Run at: December 18, 2017 20:29 EST
"Nutrient data for: 45181150, BROCCOLI WITH CHEESE SAUCE, UPC: 014500025340"
Food Group:  Branded Food Products Database
Common Name:

Nutrient,Unit,Data points,Std. Error,"1.5 cup = 114.0g",1Value per 100 g,
Proximates
"Energy",kcal,--,--,70,61
"Protein",g,--,--,2.00,1.75
"Total lipid (fat)",g,--,--,2.50,2.19
"Carbohydrate, by difference",g,--,--,7.00,6.14
"Fiber, total dietary",g,--,--,2.1,1.8
"Sugars, total",g,--,--,3.00,2.63
Minerals
"Calcium, Ca",mg,--,--,60,53
"Iron, Fe",mg,--,--,0.34,0.30
"Sodium, Na",mg,--,--,380,333
Vitamins
"Vitamin C, total ascorbic acid",mg,--,--,29.0,25.4
"Vitamin A, IU",IU,--,--,0,0
Lipids
"Fatty acids, total saturated",g,--,--,1.505,1.320
"Fatty acids, total trans",g,--,--,0.000,0.000
"Cholesterol",mg,--,--,5,4
Amino Acids
Other
Ingredients
"BROCCOLI, CHEESE SAUCE (WATER, PASTEURIZED PROCESS CHEESE SAUCE CONCENTRATE (MILK, PALM OIL, WHEY, WATER, MALTODEXTRIN, SODIUM PHOSPHATE, CORN SYRUP SOLIDS, CONTAINS LESS THAN 2% OF: CHEESE CULTURE, CITRIC ACID, ENZYMES, LACTIC ACID, SALT, SODIUM ALGINATE, SUGAR, XANTHAN GUM), THREE CHEESE SEASONING (CHEESE POWDER [CHEDDAR, MONTEREY JACK AND PARMESAN CHEESES {CULTURED MILK, SALT, ENZYMES}, WHEY, SALT, PALM OIL BLEND [PALM OIL, CORN SYRUP SOLIDS, SODIUM CASEINATE, DIPOTASSIUM PHOSPHATE, MONOGLYCERIDES, AND LESS THAN 2% SODIUM SILICOALUMINATE {ANTI-CAKING AGENT}], MODIFIED CORN STARCH, MALTODEXTRIN, NATURAL FLAVORS [BUTTERMILK SOLIDS AND ENZYME MODIFIED CHEESE {PASTEURIZED MILK, CHEESE CULTURES, SALT, ENZYMES}], ENRICHED WHEAT FLOUR, AUTOLYZED YEAST EXTRACT, ONION POWDER, CONTAINS LESS THAN 2% BUTTER, SODIUM CASEINATE, DISODIUM PHOSPHATE, GARLIC POWDER, LACTIC ACID, SPICES, PAPRIKA EXTRACT, TURMERIC EXTRACT, ANNATTO EXTRACT, AND CITRIC ACID), FOOD STARCH-MODIFIED, SALT, ENRICHED WHEAT FLOUR (NIACIN, REDUCED IRON, THIAMIN MONONITRATE, RIBOFLAVIN, FOLIC ACID), NATURAL CHEDDAR CHEESE FLAVOR (CHEDDAR, SEMI-SOFT AND BLUE CHEESE [PASTEURIZED MILK, CHEESE CULTURES, SALT, ENZYMES], WHEY, SALT,CITRIC ACID), DISODIUM PHOSPHATE, ONION POWDER, ANNATTO EXTRACT (COLOR))." Date available: 07/14/2017 Date last updated by company: 07/14/2017
