Source: USDA Branded Food Products Database Release December 2017 Software v.3.8.6.4 2017-10-02
Report Run at: December 18, 2017 20:29 EST
"Nutrient data for: 45028250, BROCCOLI & SPINACH PIZZA, UPC: 042272001293"
Food Group:  Branded Food Products Database
Common Name:

Nutrient,Unit,Data points,Std. Error,"0.333 PIZZA = 113.0g",1Value per 100 g,
Proximates
"Energy",kcal,--,--,290,257
"Protein",g,--,--,10.00,8.85
"Total lipid (fat)",g,--,--,14.00,12.39
"Carbohydrate, by difference",g,--,--,31.00,27.43
"Fiber, total dietary",g,--,--,2.0,1.8
"Sugars, total",g,--,--,2.00,1.77
Minerals
"Calcium, Ca",mg,--,--,150,133
"Iron, Fe",mg,--,--,3.11,2.75
"Sodium, Na",mg,--,--,570,504
Vitamins
"Vitamin C, total ascorbic acid",mg,--,--,8.2,7.3
"Vitamin A, IU",IU,--,--,863,764
Lipids
"Fatty acids, total saturated",g,--,--,6.000,5.310
"Fatty acids, total trans",g,--,--,0.000,0.000
"Cholesterol",mg,--,--,25,22
Amino Acids
Other
Ingredients
"ORGANIC UNBLEACHED WHEAT FLOUR WITH ORGANIC WHEAT GERM AND ORGANIC WHEAT BRAN, FILTERED WATER, MOZZARELLA AND PARMESAN CHEESE (PASTEURIZED PART-SKIM MILK, CULTURE, SALT, ENZYMES [WITHOUT ANIMAL ENZYMES OR RENNET]), ORGANIC CREAM, ORGANIC SPINACH, ORGANIC EXTRA VIRGIN OLIVE OIL, RICOTTA CHEESE (WHEY, VINEGAR, SALT), ORGANIC BROCCOLI, ORGANIC GREEN ONIONS, ORGANIC HONEY, SEA SALT, ORGANIC BASIL, EXPELLER PRESSED HIGH OLEIC SAFFLOWER AND/OR SUNFLOWER OIL, YEAST, SPICES*." Date available: 07/14/2017 Date last updated by company: 07/14/2017
