Source: USDA Branded Food Products Database Release December 2017 Software v.3.8.6.4 2017-10-02
Report Run at: December 18, 2017 20:32 EST
"Nutrient data for: 45148873, BROOKSHIRE'S, FRESH, ARTESIAN WATER, UPC: 092825107637"
Food Group:  Branded Food Products Database
Common Name:

Nutrient,Unit,Data points,Std. Error,"8.0 OZA = 240.0g",1Value per 100 g,
Proximates
"Energy",kcal,--,--,0,0
"Protein",g,--,--,0.00,0.00
"Total lipid (fat)",g,--,--,0.00,0.00
"Carbohydrate, by difference",g,--,--,0.00,0.00
Minerals
"Sodium, Na",mg,--,--,2,1
Vitamins
Lipids
Amino Acids
Other
Ingredients
"ARTESIAN WATER." Date available: 07/14/2017 Date last updated by company: 07/14/2017
