Source: USDA Branded Food Products Database Release December 2017 Software v.3.8.6.4 2017-10-02
Report Run at: December 18, 2017 04:38 EST
"Nutrient data for: 45144458, BROOKSHIRE'S, CANDY GEM CHOCOLATE CHIP COOKIES, UPC: 092825111535"
Food Group:  Branded Food Products Database
Common Name:

Nutrient,Unit,Data points,Std. Error,"2.0 COOKIES = 33.0g",1Value per 100 g,
Proximates
"Energy",kcal,--,--,170,515
"Protein",g,--,--,1.00,3.03
"Total lipid (fat)",g,--,--,9.00,27.27
"Carbohydrate, by difference",g,--,--,21.00,63.64
"Fiber, total dietary",g,--,--,1.0,3.0
"Sugars, total",g,--,--,10.00,30.30
Minerals
"Calcium, Ca",mg,--,--,0,0
"Iron, Fe",mg,--,--,1.09,3.31
"Potassium, K",mg,--,--,30,91
"Sodium, Na",mg,--,--,100,303
Vitamins
"Vitamin C, total ascorbic acid",mg,--,--,0.0,0.0
"Vitamin A, IU",IU,--,--,0,0
Lipids
"Fatty acids, total saturated",g,--,--,4.501,13.640
"Fatty acids, total monounsaturated",g,--,--,3.000,9.090
"Fatty acids, total polyunsaturated",g,--,--,1.000,3.030
"Fatty acids, total trans",g,--,--,0.000,0.000
"Cholesterol",mg,--,--,0,0
Amino Acids
Other
Ingredients
"ENRICHED FLOUR (WHEAT FLOUR, NIACIN, REDUCED IRON, THIAMINE MONONITRATE, RIBOFLAVIN, FOLIC ACID), VEGETABLE OIL (CONTAINS ONE OR MORE OF THE FOLLOWING: CANOLA OIL, CORN OIL, PALM, OIL, SOYBEAN OIL), SUGAR, CANDY DROPS (SUGAR, PALM OIL, COCOA, COCOA [PROCESSED WITH ALKALI], DEXTROSE, SOY LECITHIN, ARTIFICIAL COLORING [YELLOW 5 LAKE, BLUE 1 LAKE, YELLOW 5, BLUE 1, RED 40 LAKE, RED 3, BLUE 2 LAKE] CARNAUBA WAX, CONFECTIONER'S GLAZE), SEMISWEET CHOCOLATE CHIPS (SUGAR, CHOCOLATE, COCOA BUTTER, DEXTROSE, SOY LECITHIN, VANILLIN), HIGH FRUCTOSE CORN SYRUP, LEAVENING (SODIUM BICARBONATE,MONOCALCIUM PHOSPHATE, AMMONIUM BICARBONATE), SALT, ARTIFICIAL FLAVOR, CARAMEL COLOR, SOY LECITHIN (EMULSIFIER)." Date available: 07/14/2017 Date last updated by company: 07/14/2017
