Source: USDA Branded Food Products Database Release December 2017 Software v.3.8.6.4 2017-10-02
Report Run at: December 18, 2017 20:32 EST
"Nutrient data for: 45157862, BROOKSHIRE'S, KETTLE POTATO CHIPS, ORIGINAL, UPC: 092825108535"
Food Group:  Branded Food Products Database
Common Name:

Nutrient,Unit,Data points,Std. Error,"18.0 CHIPS) | (ABOUT = 28.0g",1Value per 100 g,
Proximates
"Energy",kcal,--,--,150,536
"Protein",g,--,--,2.00,7.14
"Total lipid (fat)",g,--,--,9.00,32.14
"Carbohydrate, by difference",g,--,--,17.00,60.71
"Fiber, total dietary",g,--,--,1.0,3.6
"Sugars, total",g,--,--,1.00,3.57
Minerals
"Calcium, Ca",mg,--,--,0,0
"Iron, Fe",mg,--,--,0.36,1.29
"Sodium, Na",mg,--,--,75,268
Vitamins
"Vitamin C, total ascorbic acid",mg,--,--,9.0,32.1
"Vitamin A, IU",IU,--,--,0,0
Lipids
"Fatty acids, total saturated",g,--,--,1.000,3.570
"Fatty acids, total trans",g,--,--,0.000,0.000
"Cholesterol",mg,--,--,0,0
Amino Acids
Other
Ingredients
"POTATOES, VEGETABLE OIL, (CONTAINS ONE OR MORE OF THE FOLLOWING: CORN, SUNFLOWER, OR CANOLA OIL), SALT." Date available: 09/23/2016 Date last updated by company: 09/23/2016
