Source: USDA Branded Food Products Database Release December 2017 Software v.3.8.6.4 2017-10-02
Report Run at: December 18, 2017 20:34 EST
"Nutrient data for: 45178479, BROOKSHIRE'S, SWEETENED HONEY PUFFED WHEAT CEREAL, UPC: 092825098904"
Food Group:  Branded Food Products Database
Common Name:

Nutrient,Unit,Data points,Std. Error,"1 cup = 34.0g",1Value per 100 g,
Proximates
"Energy",kcal,--,--,130,382
"Protein",g,--,--,2.00,5.88
"Total lipid (fat)",g,--,--,1.00,2.94
"Carbohydrate, by difference",g,--,--,30.00,88.24
"Fiber, total dietary",g,--,--,0.0,0.0
"Sugars, total",g,--,--,17.00,50.00
Minerals
"Calcium, Ca",mg,--,--,0,0
"Iron, Fe",mg,--,--,1.59,4.67
"Potassium, K",mg,--,--,75,221
"Sodium, Na",mg,--,--,110,324
Vitamins
"Vitamin C, total ascorbic acid",mg,--,--,5.3,15.6
"Thiamin",mg,--,--,0.680,2.000
"Riboflavin",mg,--,--,0.425,1.250
"Niacin",mg,--,--,7.352,21.624
"Vitamin B-6",mg,--,--,0.735,2.162
"Vitamin A, IU",IU,--,--,1838,5406
"Vitamin D",IU,--,--,40,118
Lipids
"Fatty acids, total saturated",g,--,--,0.000,0.000
"Fatty acids, total trans",g,--,--,0.000,0.000
"Cholesterol",mg,--,--,0,0
Amino Acids
Other
Ingredients
"SUGAR, DURUM WHEAT, CORN SYRUP, HONEY, SALT, COLOR (CARAMEL), VITAMIN C (SODIUM ASCORBATE), VITAMIN A (PALMITATE), IRON (FERRIC ORTHOPHOSPHATE), NIACINAMIDE, VITAMIN B1 (THIAMINE MONONITRATE), VITAMIN B6 (PYRIDOXINE HYDROCHLORIDE), VITAMIN B2 (RIBOFLAVIN), VITAMIN D (CHOLECALCIFEROL), FOLIC ACID." Date available: 07/14/2017 Date last updated by company: 07/14/2017
