Source: USDA Branded Food Products Database Release December 2017 Software v.3.8.6.4 2017-10-02
Report Run at: December 18, 2017 20:35 EST
"Nutrient data for: 45175769, BROTH BASE & SEASONING, UPC: 072058608613"
Food Group:  Branded Food Products Database
Common Name:

Nutrient,Unit,Data points,Std. Error,"2.0 tsp = 6.0g",1Value per 100 g,
Proximates
"Energy",kcal,--,--,15,250
"Protein",g,--,--,0.00,0.00
"Total lipid (fat)",g,--,--,1.00,16.67
"Carbohydrate, by difference",g,--,--,2.00,33.33
"Fiber, total dietary",g,--,--,0.0,0.0
"Sugars, total",g,--,--,1.00,16.67
Minerals
"Calcium, Ca",mg,--,--,0,0
"Iron, Fe",mg,--,--,0.00,0.00
"Sodium, Na",mg,--,--,920,15333
Vitamins
"Vitamin C, total ascorbic acid",mg,--,--,0.0,0.0
"Vitamin A, IU",IU,--,--,0,0
Lipids
"Fatty acids, total saturated",g,--,--,0.000,0.000
"Fatty acids, total trans",g,--,--,0.000,0.000
"Cholesterol",mg,--,--,0,0
Amino Acids
Other
Ingredients
"SALT (INCLUDES SEA SALT), MALTODEXTRIN (MADE FROM CORN), DEXTROSE (MADE FROM CORN), SOYBEAN OIL, YEAST EXTRACT, BROWN SUGAR, TORULA YEAST, DEHYDRATED ONION, PORK STOCK, CARAMEL COLOR, DISODIUM INOSINATE & DISODIUM GUANYLATE (FLAVOR ENHANCER), NATURAL FLAVOR (INCLUDES SMOKE & GRILL FLAVOR), WHITE PEPPER, CLOVE." Date available: 07/14/2017 Date last updated by company: 07/14/2017
