Source: USDA Branded Food Products Database Release December 2017 Software v.3.8.6.4 2017-10-02
Report Run at: December 18, 2017 20:43 EST
"Nutrient data for: 45105353, BROWNIE TRUFFLE BAKING MIX, UPC: 00164399"
Food Group:  Branded Food Products Database
Common Name:

Nutrient,Unit,Data points,Std. Error,"2.0 INCH BROWNIE | ONE, = 28.0g",1Value per 100 g,
Proximates
"Energy",kcal,--,--,120,429
"Protein",g,--,--,1.00,3.57
"Total lipid (fat)",g,--,--,2.50,8.93
"Carbohydrate, by difference",g,--,--,22.00,78.57
"Fiber, total dietary",g,--,--,1.0,3.6
"Sugars, total",g,--,--,16.00,57.14
Minerals
"Calcium, Ca",mg,--,--,0,0
"Iron, Fe",mg,--,--,1.54,5.51
"Sodium, Na",mg,--,--,70,250
Vitamins
"Vitamin C, total ascorbic acid",mg,--,--,0.0,0.0
"Vitamin A, IU",IU,--,--,0,0
Lipids
"Fatty acids, total saturated",g,--,--,1.501,5.360
"Fatty acids, total trans",g,--,--,0.000,0.000
"Cholesterol",mg,--,--,0,0
Amino Acids
Other
Ingredients
"SUGAR, CHOCOLATE CHIPS (SUGAR, CHOCOLATE LIQUOR, COCOA BUTTER, SOY LECITHIN, (EMULSIFIER), VANILLA EXTRACT), UNBLEACHED ENRICHED FLOUR (WHEAT FLOUR, NIACIN, REDUCED IRON, THIAMIN MONONITRATE, RIBOFLAVIN, FOLIC ACID, MAY CONTAIN MALTED BARLEY FLOUR), COCOA (PROCESSED WITH ALKALI), WHEAT STARCH, SOYBEAN OIL, SALT, LEAVENING (SODIUM BICARBONATE, SODIUM ACID PYROPHOSPHATE, MONOCALCIUM PHOSPHATE)." Date available: 06/25/2017 Date last updated by company: 06/25/2017
