Source: USDA Branded Food Products Database Release December 2017 Software v.3.8.6.4 2017-10-02
Report Run at: December 18, 2017 20:39 EST
"Nutrient data for: 45282875, BROWNIE BITES, UPC: 078742242385"
Food Group:  Branded Food Products Database
Common Name:

Nutrient,Unit,Data points,Std. Error,"1 BROWNIE BITE = 28.0g",1Value per 100 g,
Proximates
"Energy",kcal,--,--,110,393
"Protein",g,--,--,1.00,3.57
"Total lipid (fat)",g,--,--,3.50,12.50
"Carbohydrate, by difference",g,--,--,19.00,67.86
"Fiber, total dietary",g,--,--,1.0,3.6
"Sugars, total",g,--,--,13.00,46.43
Minerals
"Calcium, Ca",mg,--,--,0,0
"Iron, Fe",mg,--,--,12.86,45.92
"Sodium, Na",mg,--,--,60,214
Vitamins
"Vitamin C, total ascorbic acid",mg,--,--,0.0,0.0
"Vitamin A, IU",IU,--,--,0,0
Lipids
"Fatty acids, total saturated",g,--,--,0.501,1.790
"Fatty acids, total trans",g,--,--,0.000,0.000
"Cholesterol",mg,--,--,0,0
Amino Acids
Other
Ingredients
"SUGAR, BLEACHED ENRICHED WHEAT FLOUR (WHEAT FLOUR, NIACIN, REDUCED IRON, THIAMINE MONONITRATE, RIBOFLAVIN, FOLIC ACID), SOYBEAN OIL, WATER, COCOA POWDER (PROCESSED WITH ALKALI), CONTAINS 2% OR LESS OF THE FOLLOWING: CORN SYRUP SOLIDS, WHEAT PROTEIN, DRIED EGG WHITES, SALT, NATURAL AND ARTIFICIAL FLAVOR (COCOA, MALTODEXTRIN, NATURAL AND ARTIFICIAL FLAVORS, DEXTROSE, GUM ARABIC, CORN STARCH, SILICON DIOXIDE, PROPYLENE GLYCOL), PALM OIL, GUM ARABIC, POTASSIUM SORBATE (PRESERVATIVE), EMULSIFIER BLEND (PROPYLENE GLYCOL MONOESTERS, MONO- AND DIGLYCERIDES, SOY LECITHIN, CITRIC ACID), ENZYMES (WHEAT FLOUR AND 2% OR LESS OF EACH OF THE FOLLOWING: SALT, ENZYMES), TOCOPHEROL (ANTIOXIDANT), NATURAL VANILLA FLAVOR, NON FAT MILK." Date available: 07/14/2017 Date last updated by company: 07/14/2017
