Source: USDA Branded Food Products Database Release December 2017 Software v.3.8.6.4 2017-10-02
Report Run at: December 18, 2017 20:40 EST
"Nutrient data for: 45206332, BROWNIE FIX, BROWNIE WITH BENEFITS, DARK CHOCOLATE MINT TURMERIC, UPC: 893652002191"
Food Group:  Branded Food Products Database
Common Name:

Nutrient,Unit,Data points,Std. Error,"1 PACKAGE = 78.0g",1Value per 100 g,
Proximates
"Energy",kcal,--,--,335,429
"Protein",g,--,--,4.00,5.13
"Total lipid (fat)",g,--,--,21.00,26.92
"Carbohydrate, by difference",g,--,--,40.00,51.28
"Fiber, total dietary",g,--,--,5.0,6.4
"Sugars, total",g,--,--,31.00,39.74
Minerals
"Calcium, Ca",mg,--,--,20,26
"Iron, Fe",mg,--,--,2.77,3.55
"Sodium, Na",mg,--,--,170,218
Vitamins
"Vitamin C, total ascorbic acid",mg,--,--,0.0,0.0
"Vitamin A, IU",IU,--,--,154,197
Lipids
"Fatty acids, total saturated",g,--,--,14.001,17.950
"Fatty acids, total trans",g,--,--,0.000,0.000
"Cholesterol",mg,--,--,70,90
Amino Acids
Other
Ingredients
"SEMISWEET CHOCOLATE CHIPS (SUGAR, UNSWEETENED CHOCOLATE, COCOA BUTTER, SOY LECITHIN, NATURAL FLAVOR), SUGAR, EGGS, BUTTER, CHOCOLATE LIQUOR, COCONUT FLOUR, COCOA BUTTER, WHITE GRAPE JUICE, COCONUT OIL, TURMERIC, WATER, XANTHAN GUM, BAKING POWDER, SEA SALT, NATURAL FLAVOR." Date available: 07/14/2017 Date last updated by company: 07/14/2017
