Source: USDA Branded Food Products Database Release December 2017 Software v.3.8.6.4 2017-10-02
Report Run at: December 18, 2017 20:37 EST
"Nutrient data for: 45048690, BROWN GRAVY MIX, UPC: 021140128164"
Food Group:  Branded Food Products Database
Common Name:

Nutrient,Unit,Data points,Std. Error,"1 TBSP MIX = 6.0g",1Value per 100 g,
Proximates
"Energy",kcal,--,--,20,333
"Protein",g,--,--,1.00,16.67
"Total lipid (fat)",g,--,--,0.50,8.33
"Carbohydrate, by difference",g,--,--,4.00,66.67
"Fiber, total dietary",g,--,--,0.0,0.0
"Sugars, total",g,--,--,0.00,0.00
Minerals
"Calcium, Ca",mg,--,--,0,0
"Iron, Fe",mg,--,--,0.00,0.00
"Sodium, Na",mg,--,--,330,5500
Vitamins
"Vitamin C, total ascorbic acid",mg,--,--,0.0,0.0
"Vitamin A, IU",IU,--,--,0,0
Lipids
"Fatty acids, total saturated",g,--,--,0.000,0.000
"Fatty acids, total trans",g,--,--,0.000,0.000
"Cholesterol",mg,--,--,0,0
Amino Acids
Other
Ingredients
"ENRICHED WHEAT FLOUR (FLOUR, NIACIN, REDUCED IRON, THIAMINE MONONITRATE, RIBOFLAVIN, AND FOLIC ACID), WHEAT STARCH, SALT, BEEF FAT, HYDROLYZED CORN GLUTEN, SOY PROTEIN, AND WHEAT GLUTEN, CARAMEL COLOR, ONION, CORN SYRUP SOLIDS, MONOSODIUM GLUTAMATE (FLAVOR ENHANCER), SPICES, SODIUM CASEINATE (A MILK DERIVATIVE), MONO- AND DIGLYCERIDES (FOR SMOOTHNESS), GARLIC, DISODIUM INOSINATE AND DISODIUM GUANYLATE (FLAVOR ENHANCERS), AND SULFITING AGENTS." Date available: 06/25/2017 Date last updated by company: 06/25/2017
