Source: USDA Branded Food Products Database Release December 2017 Software v.3.8.6.4 2017-10-02
Report Run at: December 18, 2017 20:45 EST
"Nutrient data for: 45285913, BROWN RICE, CALROSE MEDIUM GRAIN, UPC: 070787553105"
Food Group:  Branded Food Products Database
Common Name:

Nutrient,Unit,Data points,Std. Error,"0.25 cup = 48.0g",1Value per 100 g,
Proximates
"Energy",kcal,--,--,170,354
"Protein",g,--,--,3.00,6.25
"Total lipid (fat)",g,--,--,1.00,2.08
"Carbohydrate, by difference",g,--,--,37.00,77.08
"Fiber, total dietary",g,--,--,2.0,4.2
"Sugars, total",g,--,--,0.00,0.00
Minerals
"Calcium, Ca",mg,--,--,0,0
"Iron, Fe",mg,--,--,0.90,1.88
"Magnesium, Mg",mg,--,--,69,144
"Potassium, K",mg,--,--,129,269
"Sodium, Na",mg,--,--,0,0
Vitamins
"Thiamin",mg,--,--,0.000,0.000
"Riboflavin",mg,--,--,0.020,0.042
"Niacin",mg,--,--,2.000,4.167
"Vitamin D",IU,--,--,0,0
Lipids
"Fatty acids, total saturated",g,--,--,0.000,0.000
"Fatty acids, total trans",g,--,--,0.000,0.000
"Cholesterol",mg,--,--,0,0
Amino Acids
Other
Ingredients
"BROWN RICE." Date available: 07/14/2017 Date last updated by company: 07/14/2017
