Source: USDA Branded Food Products Database Release December 2017 Software v.3.8.6.4 2017-10-02
Report Run at: December 18, 2017 20:38 EST
"Nutrient data for: 45164080, BROWN & HALEY, DARK CHOCOLATE PEPPERMINT ROCA, UPC: 041770596904"
Food Group:  Branded Food Products Database
Common Name:

Nutrient,Unit,Data points,Std. Error,"3.0 PIECES = 34.0g",1Value per 100 g,
Proximates
"Energy",kcal,--,--,180,529
"Protein",g,--,--,0.00,0.00
"Total lipid (fat)",g,--,--,12.00,35.29
"Carbohydrate, by difference",g,--,--,20.00,58.82
"Fiber, total dietary",g,--,--,0.0,0.0
"Sugars, total",g,--,--,18.00,52.94
Minerals
"Calcium, Ca",mg,--,--,0,0
"Iron, Fe",mg,--,--,0.53,1.56
"Sodium, Na",mg,--,--,125,368
Vitamins
"Vitamin C, total ascorbic acid",mg,--,--,0.0,0.0
"Vitamin A, IU",IU,--,--,294,865
Lipids
"Fatty acids, total saturated",g,--,--,7.001,20.590
"Fatty acids, total trans",g,--,--,0.000,0.000
"Cholesterol",mg,--,--,15,44
Amino Acids
Other
Ingredients
"SUGAR, SEMISWEET CHOCOLATE (SUGAR, UNSWEETENED CHOCOLATE PROCESSED WITH ALKALI (COCOA MASS), COCOA BUTTER, MILK FAT, SOY LECITHIN (EMULSIFIER), AND NATURAL FLAVORS), BUTTER (CREAM, SALT), PALM OIL, CORN SYRUP, PALM KERNEL OIL, SKIM MILK POWDER, OIL OF PEPPERMINT (NATURAL FLAVOR), SOY LECITHIN (EMULSIFIER), VANILLA (NATURAL FLAVOR), VEGETABLE JUICE COLOR AND CARAMEL COLOR." Date available: 07/14/2017 Date last updated by company: 07/14/2017
