Source: USDA Branded Food Products Database Release December 2017 Software v.3.8.6.4 2017-10-02
Report Run at: December 18, 2017 20:44 EST
"Nutrient data for: 45198750, BROWN 'N SERVE ENRICHED DINNER ROLLS, UPC: 078742392523"
Food Group:  Branded Food Products Database
Common Name:

Nutrient,Unit,Data points,Std. Error,"1 ROLL = 26.0g",1Value per 100 g,
Proximates
"Energy",kcal,--,--,70,269
"Protein",g,--,--,2.00,7.69
"Total lipid (fat)",g,--,--,2.00,7.69
"Carbohydrate, by difference",g,--,--,13.00,50.00
"Fiber, total dietary",g,--,--,1.0,3.8
"Sugars, total",g,--,--,1.00,3.85
Minerals
"Calcium, Ca",mg,--,--,60,231
"Iron, Fe",mg,--,--,1.38,5.32
"Potassium, K",mg,--,--,25,96
"Sodium, Na",mg,--,--,135,519
Vitamins
"Vitamin C, total ascorbic acid",mg,--,--,0.0,0.0
"Thiamin",mg,--,--,0.260,1.000
"Riboflavin",mg,--,--,0.068,0.262
"Niacin",mg,--,--,2.308,8.877
"Vitamin A, IU",IU,--,--,0,0
Lipids
"Fatty acids, total saturated",g,--,--,0.000,0.000
"Fatty acids, total monounsaturated",g,--,--,0.000,0.000
"Fatty acids, total polyunsaturated",g,--,--,0.499,1.920
"Fatty acids, total trans",g,--,--,0.000,0.000
"Cholesterol",mg,--,--,0,0
Amino Acids
Other
Ingredients
"ENRICHED WHEAT FLOUR (FLOUR, BARLEY MALT, NIACIN, IRON, THIAMIN MONONITRATE, RIBOFLAVIN, FOLIC ACID), WATER, HIGH FRUCTOSE CORN SYRUP, YEAST, SOYBEAN OIL (NON-HYDROGENATED), SALT, CONTAINS 2% OR LESS OF THE FOLLOWING: SOY FLOUR, DOUGH CONDITIONERS (MONOGLYCERIDES, MONO AND DIGLYCERIDES, DATEM, ETHOXYLATED MONO AND DIGLYCERIDES, SUCCINYLATED MONOGLYCERIDES, ASCORBIC ACID, ENZYMES), YEAST NUTRIENTS (AMMONIUM SULFATE, MONOCALCIUM PHOSPHATE), CALCIUM SULFATE, CALCIUM PROPIONATE (A PRESERVATIVE), PHOSPHORIC ACID, PROPIONIC ACID, ACETIC ACID, LACTIC ACID, SOY LECITHIN." Date available: 07/14/2017 Date last updated by company: 07/14/2017
