Source: USDA Branded Food Products Database Release December 2017 Software v.3.8.6.4 2017-10-02
Report Run at: December 18, 2017 20:46 EST
"Nutrient data for: 45096920, BROWN RICE SNAPS, UPC: 039631000462"
Food Group:  Branded Food Products Database
Common Name:

Nutrient,Unit,Data points,Std. Error,"8.0 CRACKERS = 15.0g",1Value per 100 g,
Proximates
"Energy",kcal,--,--,60,400
"Protein",g,--,--,2.00,13.33
"Total lipid (fat)",g,--,--,1.50,10.00
"Carbohydrate, by difference",g,--,--,11.00,73.33
"Fiber, total dietary",g,--,--,1.0,6.7
"Sugars, total",g,--,--,0.00,0.00
Minerals
"Calcium, Ca",mg,--,--,20,133
"Iron, Fe",mg,--,--,2.40,16.00
"Sodium, Na",mg,--,--,70,467
Vitamins
"Vitamin C, total ascorbic acid",mg,--,--,0.0,0.0
"Vitamin A, IU",IU,--,--,0,0
Lipids
"Fatty acids, total saturated",g,--,--,0.000,0.000
"Fatty acids, total trans",g,--,--,0.000,0.000
"Cholesterol",mg,--,--,0,0
Amino Acids
Other
Ingredients
"ORGANIC BROWN RICE FLOUR, ORGANIC WHITE RICE FLOUR, BLACK SESAME SEEDS, ORGANIC TAMARI (WATER, ORGANIC SOYBEANS, SALT, ORGANIC ALCOHOL), SESAME SEEDS, ORGANIC CANE SUGAR." Date available: 07/14/2017 Date last updated by company: 07/14/2017
