Source: USDA Branded Food Products Database Release December 2017 Software v.3.8.6.4 2017-10-02
Report Run at: December 18, 2017 20:46 EST
"Nutrient data for: 45323460, BROWN RICE PASTA, UPC: 856688004928"
Food Group:  Branded Food Products Database
Common Name:

Nutrient,Unit,Data points,Std. Error,"2.0 ONZ = 55.0g",1Value per 100 g,
Proximates
"Energy",kcal,--,--,200,364
"Protein",g,--,--,4.00,7.27
"Total lipid (fat)",g,--,--,2.00,3.64
"Carbohydrate, by difference",g,--,--,42.00,76.36
"Fiber, total dietary",g,--,--,3.0,5.5
"Sugars, total",g,--,--,1.00,1.82
Minerals
"Calcium, Ca",mg,--,--,0,0
"Iron, Fe",mg,--,--,1.00,1.82
"Potassium, K",mg,--,--,150,273
"Sodium, Na",mg,--,--,0,0
Vitamins
Lipids
"Fatty acids, total saturated",g,--,--,0.000,0.000
"Fatty acids, total trans",g,--,--,0.000,0.000
"Cholesterol",mg,--,--,0,0
Amino Acids
Other
Ingredients
"BROWN RICE FLOUR." Date available: 07/14/2017 Date last updated by company: 07/14/2017
