Source: USDA Branded Food Products Database Release December 2017 Software v.3.8.6.4 2017-10-02
Report Run at: December 18, 2017 20:49 EST
"Nutrient data for: 45054577, BROWN SUGAR HAM, UPC: 041497054862"
Food Group:  Branded Food Products Database
Common Name:

Nutrient,Unit,Data points,Std. Error,"6.0 SLICES = 56.0g",1Value per 100 g,
Proximates
"Energy",kcal,--,--,50,89
"Protein",g,--,--,9.00,16.07
"Total lipid (fat)",g,--,--,1.50,2.68
"Carbohydrate, by difference",g,--,--,2.00,3.57
"Fiber, total dietary",g,--,--,0.0,0.0
"Sugars, total",g,--,--,2.00,3.57
Minerals
"Calcium, Ca",mg,--,--,0,0
"Iron, Fe",mg,--,--,0.35,0.63
"Sodium, Na",mg,--,--,450,804
Vitamins
"Vitamin C, total ascorbic acid",mg,--,--,0.0,0.0
"Vitamin A, IU",IU,--,--,0,0
Lipids
"Fatty acids, total saturated",g,--,--,0.498,0.890
"Fatty acids, total trans",g,--,--,0.000,0.000
"Cholesterol",mg,--,--,20,36
Amino Acids
Other
Ingredients
"FOLLOWING: SALT, POTASSIUM LACTATE, SODIUM PHOSPHATE, SODIUM DIACETATE, NATURAL MAPLE TYPE FLAVOR (PROPYLENE GLYCOL AND NATURAL FLAVORS) SODIUM PRYTHORBATE, SODIUM NITRITE, FLAVORING" Date available: 06/25/2017 Date last updated by company: 06/25/2017
