Source: USDA Branded Food Products Database Release December 2017 Software v.3.8.6.4 2017-10-02
Report Run at: December 18, 2017 20:47 EST
"Nutrient data for: 45102344, BROWN & SERVE HAWAIIAN ROLLS, UPC: 071314043588"
Food Group:  Branded Food Products Database
Common Name:

Nutrient,Unit,Data points,Std. Error,"1 ROLL = 33.0g",1Value per 100 g,
Proximates
"Energy",kcal,--,--,80,242
"Protein",g,--,--,2.00,6.06
"Total lipid (fat)",g,--,--,1.00,3.03
"Carbohydrate, by difference",g,--,--,15.00,45.45
"Fiber, total dietary",g,--,--,1.0,3.0
"Sugars, total",g,--,--,2.00,6.06
Minerals
"Calcium, Ca",mg,--,--,20,61
"Iron, Fe",mg,--,--,1.64,4.96
"Sodium, Na",mg,--,--,140,424
Vitamins
"Vitamin C, total ascorbic acid",mg,--,--,0.0,0.0
"Thiamin",mg,--,--,0.330,1.000
"Riboflavin",mg,--,--,0.154,0.468
"Niacin",mg,--,--,1.818,5.509
"Vitamin A, IU",IU,--,--,0,0
Lipids
"Fatty acids, total saturated",g,--,--,0.000,0.000
"Fatty acids, total monounsaturated",g,--,--,0.000,0.000
"Fatty acids, total polyunsaturated",g,--,--,0.000,0.000
"Fatty acids, total trans",g,--,--,0.000,0.000
"Cholesterol",mg,--,--,0,0
Amino Acids
Other
Ingredients
"ENRICHED UNBLEACHED FLOUR [WHEAT FLOUR, MALTED BARLEY FLOUR, REDUCED IRON, THIAMINE MONONITRATE (VITAMIN B1) ,RIBOFLAVIN (VITAMIN B2), NIACIN (VITAMIN B3), FOLIC ACID], WATER, YEAST, HIGH FRUCTOSE CORN SYRUP, WHEAT GLUTEN, OIL BLEND (SOYBEAN, PALM FRUIT, CANOLA OILS), ERYTHRITOL, WHEAT STARCH, WHEAT PROTEIN, SALT, YELLOW CORN FLOUR, SODIUM STEAROYL LACTYLATE, DEXTROSE, NATURAL AND ARTIFICIAL FLAVORS, MONO AND DIGLYCERIDES, CALCIUM PROPIONATE AND POTASSIUM SORBATE (PRESERVATIVES), SPICES (ANNATTO, TURMERIC), DATEM, LACTIC ACID, CALCIUM SULFATE, CITRIC ACID, REBAUDIOSIDE A, ASCORBIC ACID, VITAMIN A PALMITATE AND BETA CAROTENE." Date available: 07/14/2017 Date last updated by company: 07/14/2017
