Source: USDA Branded Food Products Database Release December 2017 Software v.3.8.6.4 2017-10-02
Report Run at: December 18, 2017 20:50 EST
"Nutrient data for: 45054124, BRUNCHORST'S BOAR'S HEAD, CHORIZO PANINO, UPC: 024211614894"
Food Group:  Branded Food Products Database
Common Name:

Nutrient,Unit,Data points,Std. Error,"1 ONZ = 28.0g",1Value per 100 g,
Proximates
"Energy",kcal,--,--,80,286
"Protein",g,--,--,6.00,21.43
"Total lipid (fat)",g,--,--,6.00,21.43
"Carbohydrate, by difference",g,--,--,2.00,7.14
"Fiber, total dietary",g,--,--,1.0,3.6
"Sugars, total",g,--,--,0.00,0.00
Minerals
"Calcium, Ca",mg,--,--,100,357
"Iron, Fe",mg,--,--,0.00,0.00
"Sodium, Na",mg,--,--,290,1036
Vitamins
"Vitamin C, total ascorbic acid",mg,--,--,0.0,0.0
"Vitamin A, IU",IU,--,--,0,0
Lipids
"Fatty acids, total saturated",g,--,--,2.999,10.710
"Fatty acids, total trans",g,--,--,0.000,0.000
"Cholesterol",mg,--,--,20,71
Amino Acids
Other
Ingredients
"MOZZARELLA CHEESE (CULTURED PASTEURIZED MILK, SALT, ENZYMES), CHORIZO (PORK, SALT, CANE SUGAR, PAPRIKA, SPICES, NATURAL FLAVORING, GARLIC, LACTIC ACID STARTER CULTURE), PEPPERONCINI (PEPPERONCINI, VINEGAR, WATER, SALT, SODIUM BISULFITE, 1/10 OF 1% BENZOATE.)" Date available: 06/24/2017 Date last updated by company: 06/24/2017
