Source: USDA Branded Food Products Database Release December 2017 Software v.3.8.6.4 2017-10-02
Report Run at: December 18, 2017 20:51 EST
"Nutrient data for: 45198310, BRUSCHETTA ALLA SICILIANA, UPC: 076808537000"
Food Group:  Branded Food Products Database
Common Name:

Nutrient,Unit,Data points,Std. Error,"1 Tbsp = 15.0g",1Value per 100 g,
Proximates
"Energy",kcal,--,--,60,400
"Protein",g,--,--,0.00,0.00
"Total lipid (fat)",g,--,--,5.00,33.33
"Carbohydrate, by difference",g,--,--,3.00,20.00
"Fiber, total dietary",g,--,--,1.0,6.7
"Sugars, total",g,--,--,2.00,13.33
Minerals
"Sodium, Na",mg,--,--,200,1333
Vitamins
Lipids
"Fatty acids, total saturated",g,--,--,0.500,3.330
Amino Acids
Other
Ingredients
"MINCED SUN-DRIED CHERRY TOMATO, SUNFLOWER SEED OIL, BASIL, SALT, GARLIC, RED PEPPER, CITRIC ACID, ASCORBIC ACID (TO PRESERVE FRESHNESS)." Date available: 10/19/2017 Date last updated by company: 10/19/2017
