Source: USDA Branded Food Products Database Release December 2017 Software v.3.8.6.4 2017-10-02
Report Run at: December 18, 2017 20:53 EST
"Nutrient data for: 45221137, BRUSSELS SPROUTS, UPC: 749110364502"
Food Group:  Branded Food Products Database
Common Name:

Nutrient,Unit,Data points,Std. Error,"1 ONZ = 30.0g",1Value per 100 g,
Proximates
"Energy",kcal,--,--,10,33
"Protein",g,--,--,0.00,0.00
"Total lipid (fat)",g,--,--,0.00,0.00
"Carbohydrate, by difference",g,--,--,1.00,3.33
"Fiber, total dietary",g,--,--,0.0,0.0
"Sugars, total",g,--,--,0.00,0.00
Minerals
"Sodium, Na",mg,--,--,390,1300
Vitamins
Lipids
Amino Acids
Other
Ingredients
"FRESH BRUSSELS SPROUTS, WATER, VINEGAR, SALT, SPICES, SODIUM BISULFITE." Date available: 08/22/2017 Date last updated by company: 08/22/2017
