Source: USDA Branded Food Products Database Release December 2017 Software v.3.8.6.4 2017-10-02
Report Run at: December 18, 2017 21:00 EST
"Nutrient data for: 45310794, BTY CRK FRT ROLLUPS FRT FLVRD SNCKS TROPICAL TIE DYE, UNPREPARED, GTIN: 00016000397002"
Food Group:  Branded Food Products Database
Common Name:

Nutrient,Unit,Data points,Std. Error,"1 roll (14g) = 14.0g",1Value per 100 g,
Proximates
"Energy",kcal,--,--,50,357
"Protein",g,--,--,0.00,0.00
"Total lipid (fat)",g,--,--,1.00,7.14
"Carbohydrate, by difference",g,--,--,11.00,78.57
"Fiber, total dietary",g,--,--,0.0,0.0
"Sugars, total",g,--,--,7.00,50.00
Minerals
"Calcium, Ca",mg,--,--,0,0
"Iron, Fe",mg,--,--,0.00,0.00
"Sodium, Na",mg,--,--,50,357
Vitamins
"Vitamin C, total ascorbic acid",mg,--,--,6.0,42.9
"Vitamin A, IU",IU,--,--,0,0
Lipids
"Fatty acids, total saturated",g,--,--,0.500,3.570
"Fatty acids, total trans",g,--,--,0.000,0.000
"Cholesterol",mg,--,--,0,0
Amino Acids
Other
Ingredients
"CORN SYRUP, DRIED CORN SYRUP, SUGAR, PEAR PUREE CONCENTRATE, PALM OIL. CONTAINS 2% OR LESS OF: CITRIC ACID, SODIUM CITRATE, FRUIT PECTIN, MONOGLYCERIDES, MALIC ACID, DEXTROSE, VITAMIN C (ASCORBIC ACID), ACETYLATED MONOGLYCERIDES, NATURAL FLAVOR, COLOR (RED 40, YELLOWS 5 & 6, BLUE 1)." Date available: 10/12/2017 Date last updated by company: 10/12/2017
