Source: USDA Branded Food Products Database Release December 2017 Software v.3.8.6.4 2017-10-02
Report Run at: December 18, 2017 21:01 EST
"Nutrient data for: 45244452, BTY CRK HMBRGR HLPR MW SINGLES PASTA CHSY SAUCE BEEF CHSBRGR MAC, UNPREPARED, GTIN: 00016000165779"
Food Group:  Branded Food Products Database
Common Name:

Nutrient,Unit,Data points,Std. Error,"1 Container (45g) = 45.0g",1Value per 100 g,
Proximates
"Energy",kcal,--,--,180,400
"Protein",g,--,--,6.00,13.33
"Total lipid (fat)",g,--,--,5.00,11.11
"Carbohydrate, by difference",g,--,--,29.00,64.44
"Fiber, total dietary",g,--,--,1.0,2.2
"Sugars, total",g,--,--,3.00,6.67
Minerals
"Calcium, Ca",mg,--,--,20,44
"Iron, Fe",mg,--,--,1.44,3.20
"Sodium, Na",mg,--,--,560,1244
Vitamins
"Vitamin C, total ascorbic acid",mg,--,--,0.0,0.0
"Vitamin A, IU",IU,--,--,0,0
Lipids
"Fatty acids, total saturated",g,--,--,1.998,4.440
"Fatty acids, total trans",g,--,--,0.000,0.000
"Cholesterol",mg,--,--,5,11
Amino Acids
Other
Ingredients
"ENRICHED ELBOW MACARONI (SEMOLINA WHEAT, WHEAT FLOUR, NIACIN, FERROUS SULFATE, THIAMIN MONONITRATE, RIBOFLAVIN, FOLIC ACID), PALM OIL, FREEZE DRIED COOKED SEASONED GROUND BEEF (BEEF, SALT, NATURAL FLAVOR), MALTODEXTRIN, MODIFIED CORN STARCH, SALT, WHEY, CORN SYRUP*, NONFAT MILK, TEXTURED VEGETABLE PROTEIN (SOY PROTEIN CONCENTRATE, CARAMEL COLOR), WHEY PROTEIN CONCENTRATE, ONION*, CHEDDAR CHEESE* (MILK, CHEESE CULTURES, SALT, ENZYMES), TOMATO*, MONOSODIUM GLUTAMATE, NATURAL FLAVOR, SOYBEAN OIL, SUGAR, MONO AND DIGLYCERIDES, SODIUM CASEINATE, XANTHAN GUM, CITRIC ACID, AUTOLYZED YEAST EXTRACT, GARLIC*, SPICE EXTRACT, COLOR (YELLOW LAKES 5 & 6, YELLOWS 5 & 6), EGG. *DRIED" Date available: 05/26/2017 Date last updated by company: 05/26/2017
