Source: USDA Branded Food Products Database Release December 2017 Software v.3.8.6.4 2017-10-02
Report Run at: December 18, 2017 21:03 EST
"Nutrient data for: 45321414, BTY CRK RICH CRMY FROSTING RAINBOW CHIP, UNPREPARED, GTIN: 00016000460706"
Food Group:  Branded Food Products Database
Common Name:

Nutrient,Unit,Data points,Std. Error,"2.0 tbsp (34g) = 34.0g",1Value per 100 g,
Proximates
"Energy",kcal,--,--,140,412
"Protein",g,--,--,0.00,0.00
"Total lipid (fat)",g,--,--,5.00,14.71
"Carbohydrate, by difference",g,--,--,23.00,67.65
"Fiber, total dietary",g,--,--,0.0,0.0
"Sugars, total",g,--,--,20.00,58.82
Minerals
"Calcium, Ca",mg,--,--,0,0
"Iron, Fe",mg,--,--,0.00,0.00
"Potassium, K",mg,--,--,20,59
"Sodium, Na",mg,--,--,70,206
Vitamins
"Vitamin C, total ascorbic acid",mg,--,--,0.0,0.0
"Vitamin A, IU",IU,--,--,0,0
Lipids
"Fatty acids, total saturated",g,--,--,2.999,8.820
"Fatty acids, total trans",g,--,--,0.000,0.000
"Cholesterol",mg,--,--,0,0
Amino Acids
Other
Ingredients
"SUGAR, HIGH FRUCTOSE CORN SYRUP, PALM OIL, CORN STARCH, WATER, HIGH MALTOSE CORN SYRUP, PALM KERNEL OIL. CONTAINS 2% OR LESS OF: NONFAT MILK, SALT, DISTILLED MONOGLYCERIDES, POLYSORBATE 60, COLOR (YELLOW LAKES 5 & 6, RED LAKE 40, BLUE LAKES 1 & 2, YELLOWS 5 & 6 AND OTHER COLOR ADDED), MODIFIED CELLULOSE, SODIUM STEAROYL LACTYLATE, SODIUM ACID PYROPHOSPHATE, SOY LECITHIN, NATURAL AND ARTIFICIAL FLAVOR, CITRIC ACID. FRESHNESS PRESERVED BY POTASSIUM SORBATE." Date available: 10/19/2017 Date last updated by company: 10/16/2017
