Source: USDA Branded Food Products Database Release December 2017 Software v.3.8.6.4 2017-10-02
Report Run at: December 18, 2017 21:03 EST
"Nutrient data for: 45244457, BTY CRK RICH CRMY FROSTING LEMON, UNPREPARED, GTIN: 00016000458505"
Food Group:  Branded Food Products Database
Common Name:

Nutrient,Unit,Data points,Std. Error,"2.0 tbsp (33g) = 33.0g",1Value per 100 g,
Proximates
"Energy",kcal,--,--,140,424
"Protein",g,--,--,0.00,0.00
"Total lipid (fat)",g,--,--,5.00,15.15
"Carbohydrate, by difference",g,--,--,23.00,69.70
"Fiber, total dietary",g,--,--,0.0,0.0
"Sugars, total",g,--,--,19.00,57.58
Minerals
"Calcium, Ca",mg,--,--,0,0
"Iron, Fe",mg,--,--,0.00,0.00
"Potassium, K",mg,--,--,15,45
"Sodium, Na",mg,--,--,70,212
Vitamins
"Vitamin C, total ascorbic acid",mg,--,--,0.0,0.0
"Vitamin A, IU",IU,--,--,0,0
Lipids
"Fatty acids, total saturated",g,--,--,2.501,7.580
"Fatty acids, total trans",g,--,--,0.000,0.000
"Cholesterol",mg,--,--,0,0
Amino Acids
Other
Ingredients
"SUGAR, PALM OIL, WATER, HIGH MALTOSE CORN SYRUP, CORN STARCH. CONTAINS 2% OR LESS OF: SALT, DISTILLED MONOGLYCERIDES, COLOR (YELLOW 5 LAKE AND OTHER COLOR ADDED), POLYSORBATE 60, NATURAL AND ARTIFICIAL FLAVOR, SODIUM STEAROYL LACTYLATE, SODIUM ACID PYROPHOSPHATE, CITRIC ACID. FRESHNESS PRESERVED BY POTASSIUM SORBATE AND BHA." Date available: 10/19/2017 Date last updated by company: 10/16/2017
