Source: USDA Branded Food Products Database Release December 2017 Software v.3.8.6.4 2017-10-02
Report Run at: December 18, 2017 20:59 EST
"Nutrient data for: 45310899, BTY CRK FAVORITES SUPER MOIST CAKE MIX MILK CHOC, UNPREPARED, GTIN: 00016000409958"
Food Group:  Branded Food Products Database
Common Name:

Nutrient,Unit,Data points,Std. Error,"0.1 pkg (43g mix) = 43.0g",1Value per 100 g,
Proximates
"Energy",kcal,--,--,160,372
"Protein",g,--,--,2.00,4.65
"Total lipid (fat)",g,--,--,1.50,3.49
"Carbohydrate, by difference",g,--,--,35.00,81.40
"Fiber, total dietary",g,--,--,1.0,2.3
"Sugars, total",g,--,--,19.00,44.19
Minerals
"Calcium, Ca",mg,--,--,80,186
"Iron, Fe",mg,--,--,1.44,3.35
"Potassium, K",mg,--,--,105,244
"Sodium, Na",mg,--,--,320,744
Vitamins
"Vitamin C, total ascorbic acid",mg,--,--,0.0,0.0
"Vitamin A, IU",IU,--,--,0,0
Lipids
"Fatty acids, total saturated",g,--,--,1.002,2.330
"Fatty acids, total trans",g,--,--,0.000,0.000
"Cholesterol",mg,--,--,0,0
Amino Acids
Other
Ingredients
"ENRICHED FLOUR BLEACHED (WHEAT FLOUR, NIACIN, IRON, THIAMIN MONONITRATE, RIBOFLAVIN, FOLIC ACID), SUGAR, CORN SYRUP, COCOA PROCESSED WITH ALKALI, LEAVENING (BAKING SODA, SODIUM ALUMINUM PHOSPHATE, MONOCALCIUM PHOSPHATE). CONTAINS 2% OR LESS OF: MODIFIED CORN STARCH, CORN STARCH, PALM OIL, NONFAT MILK, PROPYLENE GLYCOL MONO AND DIESTERS OF FATTY ACIDS, SALT, DISTILLED MONOGLYCERIDES, DICALCIUM PHOSPHATE, SODIUM STEAROYL LACTYLATE, XANTHAN GUM, CELLULOSE GUM, ARTIFICIAL FLAVOR." Date available: 10/20/2017 Date last updated by company: 10/20/2017
