Source: USDA Branded Food Products Database Release December 2017 Software v.3.8.6.4 2017-10-02
Report Run at: December 18, 2017 21:05 EST
"Nutrient data for: 45006757, BUBBA BURGER, BEEF CHUCK BURGERS WITH SWEET ONIONS, UPC: 704639980022"
Food Group:  Branded Food Products Database
Common Name:

Nutrient,Unit,Data points,Std. Error,"1 BURGER = 151.0g",1Value per 100 g,
Proximates
"Energy",kcal,--,--,340,225
"Protein",g,--,--,23.00,15.23
"Total lipid (fat)",g,--,--,26.00,17.22
"Carbohydrate, by difference",g,--,--,1.99,1.32
"Sugars, total",g,--,--,1.00,0.66
Minerals
"Calcium, Ca",mg,--,--,0,0
"Iron, Fe",mg,--,--,1.53,1.01
"Sodium, Na",mg,--,--,80,53
Vitamins
"Vitamin C, total ascorbic acid",mg,--,--,0.0,0.0
"Vitamin A, IU",IU,--,--,0,0
Lipids
"Fatty acids, total saturated",g,--,--,9.996,6.620
"Cholesterol",mg,--,--,91,60
Amino Acids
Other
Ingredients
"USDA BEEF CHUCK AND SWEET ONIONS" Date available: 07/14/2017 Date last updated by company: 07/14/2017
