Source: USDA Branded Food Products Database Release December 2017 Software v.3.8.6.4 2017-10-02
Report Run at: December 18, 2017 21:07 EST
"Nutrient data for: 45212081, BUBBLE GUM DISPENSER, UPC: 686464825108"
Food Group:  Branded Food Products Database
Common Name:

Nutrient,Unit,Data points,Std. Error,"0.71 ONZ = 20.0g",1Value per 100 g,
Proximates
"Energy",kcal,--,--,50,250
"Protein",g,--,--,0.00,0.00
"Total lipid (fat)",g,--,--,0.00,0.00
"Carbohydrate, by difference",g,--,--,13.00,65.00
"Fiber, total dietary",g,--,--,0.0,0.0
"Sugars, total",g,--,--,11.00,55.00
Minerals
"Sodium, Na",mg,--,--,0,0
Vitamins
Lipids
"Fatty acids, total saturated",g,--,--,0.000,0.000
"Fatty acids, total trans",g,--,--,0.000,0.000
"Cholesterol",mg,--,--,0,0
Amino Acids
Other
Ingredients
"SUGAR, DEXTROSE, CHEWING GUM BASE, CORN SYRUP (GLUCOSE), CORN STARCH, ARTIFICIAL FLAVORS, SHELLAC, GUM ARABIC, SOYA LECITHIN, GLYCERINE, CARNAUBA WAX, ARTIFICIAL COLORS (FD&C RED NO.3, BLUE NO.1, YELLOW NO.5, RED NO.40), BHT." Date available: 07/14/2017 Date last updated by company: 07/14/2017
