Source: USDA Branded Food Products Database Release December 2017 Software v.3.8.6.4 2017-10-02
Report Run at: December 18, 2017 21:09 EST
"Nutrient data for: 45192064, BUCATINI-10 TRADITIONAL HOME STYLE PASTA, UPC: 671041137316"
Food Group:  Branded Food Products Database
Common Name:

Nutrient,Unit,Data points,Std. Error,"2.0 ONZ = 56.0g",1Value per 100 g,
Proximates
"Energy",kcal,--,--,210,375
"Protein",g,--,--,6.00,10.71
"Total lipid (fat)",g,--,--,1.00,1.79
"Carbohydrate, by difference",g,--,--,43.00,76.79
"Fiber, total dietary",g,--,--,2.0,3.6
"Sugars, total",g,--,--,3.00,5.36
Minerals
"Calcium, Ca",mg,--,--,20,36
"Iron, Fe",mg,--,--,4.50,8.04
"Sodium, Na",mg,--,--,0,0
Vitamins
"Vitamin C, total ascorbic acid",mg,--,--,0.0,0.0
"Thiamin",mg,--,--,0.560,1.000
"Riboflavin",mg,--,--,0.170,0.304
"Niacin",mg,--,--,2.946,5.261
"Vitamin A, IU",IU,--,--,0,0
Lipids
"Fatty acids, total saturated",g,--,--,0.000,0.000
"Fatty acids, total trans",g,--,--,0.000,0.000
"Cholesterol",mg,--,--,0,0
Amino Acids
Other
Ingredients
"DURUM WHEAT SEMOLINA, NIACIN, FERROUS SULFATE (IRON), THIAMIN MONONITRATE (VITAMIN B1), RIBOFLAVIN (VITAMIN B2), FOLIC ACID." Date available: 07/14/2017 Date last updated by company: 07/14/2017
