Source: USDA Branded Food Products Database Release December 2017 Software v.3.8.6.4 2017-10-02
Report Run at: December 18, 2017 21:14 EST
"Nutrient data for: 45166063, BUDDY SQUIRREL, GOURMET POPCORN, CHEEZZZY CHEDDAR CHEESE, UPC: 748948141095"
Food Group:  Branded Food Products Database
Common Name:

Nutrient,Unit,Data points,Std. Error,"1.5 cup = 30.0g",1Value per 100 g,
Proximates
"Energy",kcal,--,--,210,700
"Protein",g,--,--,2.00,6.67
"Total lipid (fat)",g,--,--,19.00,63.33
"Carbohydrate, by difference",g,--,--,7.00,23.33
"Fiber, total dietary",g,--,--,1.0,3.3
"Sugars, total",g,--,--,0.00,0.00
Minerals
"Calcium, Ca",mg,--,--,40,133
"Iron, Fe",mg,--,--,0.60,2.00
"Sodium, Na",mg,--,--,210,700
Vitamins
"Vitamin C, total ascorbic acid",mg,--,--,0.0,0.0
"Vitamin A, IU",IU,--,--,166,555
Lipids
"Fatty acids, total saturated",g,--,--,5.001,16.670
"Fatty acids, total trans",g,--,--,1.500,5.000
"Cholesterol",mg,--,--,5,17
Amino Acids
Other
Ingredients
"POPCORN, CHEESE FLAVOR (PARTIALLY HYDROGENATED SOYBEAN OIL, DRIED CHEDDAR CHEESE [MILK, CHEESE CULTURE, SALT, ENZYMES, ARTIFICIAL COLOR], CREAM, SALT, SODIUM PHOSPHATE, YELLOW #5, LACTIC ACID, SOY LECITHIN [AN EMULSIFIER], YELLOW #6), PEANUT OIL WITH SILICONES (ANTI FOAMING AGENTS), SALT, PRESERVATIVES (BHA, BHT, CITRIC ACID AND PROPYL GALLATE)." Date available: 07/14/2017 Date last updated by company: 07/14/2017
