Source: USDA Branded Food Products Database Release December 2017 Software v.3.8.6.4 2017-10-02
Report Run at: December 18, 2017 21:14 EST
"Nutrient data for: 45094689, BUENAS, COCONUT GEL IN SYRUP, UPC: 853693001058"
Food Group:  Branded Food Products Database
Common Name:

Nutrient,Unit,Data points,Std. Error,"0.25 cup = 68.0g",1Value per 100 g,
Proximates
"Energy",kcal,--,--,80,118
"Protein",g,--,--,0.00,0.00
"Total lipid (fat)",g,--,--,0.00,0.00
"Carbohydrate, by difference",g,--,--,21.00,30.88
"Fiber, total dietary",g,--,--,1.0,1.5
"Sugars, total",g,--,--,16.00,23.53
Minerals
"Sodium, Na",mg,--,--,0,0
Vitamins
Lipids
"Fatty acids, total saturated",g,--,--,0.000,0.000
"Fatty acids, total trans",g,--,--,0.000,0.000
"Cholesterol",mg,--,--,0,0
Amino Acids
Other
Ingredients
"COCONUT GEL, WATER, REFINED CANE SUGAR, ACIDULANT CITRIC ACID/E330, ARTIFICIAL BANANA FLAVORING AND FOOD COLOR (RE #40 / ALLURA RED / E129 )." Date available: 06/25/2017 Date last updated by company: 06/25/2017
