Source: USDA Branded Food Products Database Release December 2017 Software v.3.8.6.4 2017-10-02
Report Run at: December 18, 2017 21:15 EST
"Nutrient data for: 45017032, BUFALO, JALAPENO MEXICAN HOT SAUCE, UPC: 036374020030"
Food Group:  Branded Food Products Database
Common Name:

Nutrient,Unit,Data points,Std. Error,"1 Tbsp = 4.5g",1Value per 100 g,
Proximates
"Energy",kcal,--,--,0,0
"Protein",g,--,--,0.00,0.00
"Total lipid (fat)",g,--,--,0.00,0.00
"Carbohydrate, by difference",g,--,--,0.00,0.00
Minerals
"Sodium, Na",mg,--,--,115,2556
Vitamins
Lipids
Amino Acids
Other
Ingredients
"WATER, ACETIC ACID, JALAPENO PEPPERS, CARROTS, SUGAR, IODIZED SALT, XANTHAN GUM, SODIUM BENZOATE 0.1% (AS A PRESERVATIVE), CONDIMENTS, F.D & C RED 40 AND DEHYDRATED GARLIC." Date available: 06/25/2017 Date last updated by company: 06/25/2017
