Source: USDA Branded Food Products Database Release December 2017 Software v.3.8.6.4 2017-10-02
Report Run at: December 18, 2017 21:19 EST
"Nutrient data for: 45258329, BUFFALO STYLE CHICKEN WING SECTIONS, UPC: 035107181006"
Food Group:  Branded Food Products Database
Common Name:

Nutrient,Unit,Data points,Std. Error,"3.0 PIECES = 127.0g",1Value per 100 g,
Proximates
"Energy",kcal,--,--,279,220
"Protein",g,--,--,22.00,17.32
"Total lipid (fat)",g,--,--,19.00,14.96
"Carbohydrate, by difference",g,--,--,4.00,3.15
"Fiber, total dietary",g,--,--,0.0,0.0
"Sugars, total",g,--,--,0.00,0.00
Minerals
"Calcium, Ca",mg,--,--,0,0
"Iron, Fe",mg,--,--,0.72,0.57
"Sodium, Na",mg,--,--,751,591
Vitamins
"Vitamin C, total ascorbic acid",mg,--,--,0.0,0.0
"Vitamin A, IU",IU,--,--,135,106
Lipids
"Fatty acids, total saturated",g,--,--,5.004,3.940
"Fatty acids, total trans",g,--,--,0.000,0.000
"Cholesterol",mg,--,--,95,75
Amino Acids
Other
Ingredients
"CHICKEN 1ST AND 2ND WING SECTIONS, WATER, WHEAT FLOUR, MODIFIED FOOD STARCH, SALT, SODIUM PHOSPHATE, COATED WITH AGED CAYENNE RED PEPPERS, VINEGAR, SALT AND GARLIC." Date available: 07/14/2017 Date last updated by company: 07/14/2017
