Source: USDA Branded Food Products Database Release December 2017 Software v.3.8.6.4 2017-10-02
Report Run at: December 18, 2017 21:15 EST
"Nutrient data for: 45318597, BUFFALO BLUE CHEESE* PRETZEL, UPC: 041419420119"
Food Group:  Branded Food Products Database
Common Name:

Nutrient,Unit,Data points,Std. Error,"0.33 CUP | ABOUT = 28.0g",1Value per 100 g,
Proximates
"Energy",kcal,--,--,130,464
"Protein",g,--,--,2.00,7.14
"Total lipid (fat)",g,--,--,4.50,16.07
"Carbohydrate, by difference",g,--,--,19.00,67.86
"Fiber, total dietary",g,--,--,1.0,3.6
"Sugars, total",g,--,--,4.00,14.29
Minerals
"Calcium, Ca",mg,--,--,20,71
"Iron, Fe",mg,--,--,0.64,2.29
"Sodium, Na",mg,--,--,360,1286
Vitamins
"Vitamin A, IU",IU,--,--,100,357
Lipids
"Fatty acids, total saturated",g,--,--,2.999,10.710
"Fatty acids, total trans",g,--,--,0.000,0.000
"Cholesterol",mg,--,--,0,0
Amino Acids
Other
Ingredients
"WHEAT FLOUR, VEGETABLE OIL (PALM KERNAL OIL, PALM OIL AND/OR HYDROGENATED PALM OIL), WHEY, MALTODEXTRIN, FOOD STARCH-MODIFIED, SALT, LESS THAN 1.5% - BUTTERMILK, CORN FLOUR, DEXTROSE, TOMATO, BAKING SODA, SODIUM DIACETATE, SODIUM ACID PYROPHOSPHATE, GARLIC, CAYENNE RED PEPPERS, SOY LECITHIN, YEAST EXTRACT, ONION, SPICE, MODIFIED CORN STARCH, SUGAR, ARTIFICIAL AND NATURAL FLAVORS, VINEGAR, PAPRIKA EXTRACT, ACETIC ACID." Date available: 07/14/2017 Date last updated by company: 07/14/2017
