Source: USDA Branded Food Products Database Release December 2017 Software v.3.8.6.4 2017-10-02
Report Run at: December 18, 2017 21:20 EST
"Nutrient data for: 45253695, BUFFALO STYLE WYNGZ, UPC: 011200000639"
Food Group:  Branded Food Products Database
Common Name:

Nutrient,Unit,Data points,Std. Error,"3.0 PIECES = 80.0g",1Value per 100 g,
Proximates
"Energy",kcal,--,--,210,262
"Protein",g,--,--,10.00,12.50
"Total lipid (fat)",g,--,--,13.00,16.25
"Carbohydrate, by difference",g,--,--,13.00,16.25
"Fiber, total dietary",g,--,--,1.0,1.2
"Sugars, total",g,--,--,1.00,1.25
Minerals
"Calcium, Ca",mg,--,--,0,0
"Iron, Fe",mg,--,--,1.53,1.91
"Sodium, Na",mg,--,--,600,750
Vitamins
"Vitamin C, total ascorbic acid",mg,--,--,0.0,0.0
"Vitamin A, IU",IU,--,--,0,0
Lipids
"Fatty acids, total saturated",g,--,--,3.000,3.750
"Fatty acids, total monounsaturated",g,--,--,4.496,5.620
"Fatty acids, total polyunsaturated",g,--,--,5.000,6.250
"Fatty acids, total trans",g,--,--,0.000,0.000
"Cholesterol",mg,--,--,25,31
Amino Acids
Other
Ingredients
"CHICKEN BREAST WITH RIB MEAT, WATER, ENRICHED WHEAT FLOUR (NIACIN, REDUCED IRON, THIAMINE MONONITRATE, RIBOFLAVIN, FOLIC ACID), WHEAT FLOUR, TEXTURED SOY PROTEIN CONCENTRATE, OILS (SOYBEAN OIL, CANOLA OIL, PALM OIL), CONTAINS 2% OR LESS OF THE FOLLOWING: CAROB BEAN GUM, DEHYDRATED GARLIC, DEHYDRATED ONION, DEXTROSE, DRIED YEAST, EGG SOLIDS, EXTRACTIVES OF PAPRIKA, GUAR GUM, LEAVENING (SODIUM BICARBONATE, SODIUM ALUMINUM PHOSPHATE), MALTED BARLEY FLOUR, MALTODEXTRIN, MODIFIED CORN STARCH, MODIFIED FOOD STARCH, NATURAL FLAVOR, NONFAT MILK, SALT, SODIUM ALGINATE, SODIUM DIACETATE, SODIUM PHOSPHATES, SOY FLOUR, SPICE EXTRACTIVES, SPICES, TBHQ (TO PROTECT FLAVOR), VINEGAR POWDER (MALTODEXTRIN, MODIFIED FOOD STARCH, VINEGAR), WHEY, XANTHAN GUM, YELLOW CORN FLOUR. BREADING SET IN VEGETABLE OIL. COATED WITH: WATER, VINEGAR, AGED CAYENNE PEPPERS, SALT, CARAMEL COLOR, OLEORESIN PAPRIKA, XANTHAN GUM, GUAR GUM, GRANULATED GARLIC." Date available: 07/14/2017 Date last updated by company: 07/14/2017
