Source: USDA Branded Food Products Database Release December 2017 Software v.3.8.6.4 2017-10-02
Report Run at: December 18, 2017 21:19 EST
"Nutrient data for: 45282719, BUFFALO-STYLE CHICKEN WRAP, UPC: 722515250656"
Food Group:  Branded Food Products Database
Common Name:

Nutrient,Unit,Data points,Std. Error,"1 PACKAGE = 383.0g",1Value per 100 g,
Proximates
"Energy",kcal,--,--,651,170
"Protein",g,--,--,42.02,10.97
"Total lipid (fat)",g,--,--,24.01,6.27
"Carbohydrate, by difference",g,--,--,61.01,15.93
"Fiber, total dietary",g,--,--,3.1,0.8
"Sugars, total",g,--,--,2.99,0.78
Minerals
"Calcium, Ca",mg,--,--,349,91
"Iron, Fe",mg,--,--,1.30,0.34
"Sodium, Na",mg,--,--,2279,595
Vitamins
"Vitamin C, total ascorbic acid",mg,--,--,4.2,1.1
"Vitamin A, IU",IU,--,--,1279,334
Lipids
"Fatty acids, total saturated",g,--,--,12.984,3.390
"Fatty acids, total trans",g,--,--,0.000,0.000
"Cholesterol",mg,--,--,134,35
Amino Acids
Other
Ingredients
"WHITE CHICKEN MEAT (WITH WATER, SALT, SPICES, DEHYDRATED ONION, DEHYDRATED GARLIC), JALAPENO TORTILLA (ENRICHED BLEACHED WHEAT FLOUR [WHEAT FLOUR, NIACIN, REDUCED IRON, THIAMINE MONONITRATE, RIBOFLAVIN, FOLIC ACID], WATER, VEGETABLE SHORTENING [INTERESTERIFIED SOYBEAN OIL, HYDROGENATED SOYBEAN OIL AND/OR PALM OIL], SEASONING [SALT, MALTODEXTRIN, JALAPENO PEPPER, ONION, YEAST EXTRACT, GARLIC, CITRIC ACID, MODIFIED CORN STARCH, PARTIALLY HYDROGENATED COTTONSEED AND SOYBEAN OIL, NATURAL AND ARTIFICIAL FLAVOR, DISODIUM INOSINATE, DISODIUM GUANYLATE, ARTIFICIAL COLOR [YELLOW 5, YELLOW 6]]. CONTAINS 2% OR LESS OF: SALT, LEAVENING (SODIUM BICARBONATE, SODIUM ALUMINUM SULFATE, CORN STARCH, MONOCALCIUM PHOSPHATE AND/OR SODIUM ACID PYROPHOSPHATE, CALCIUM SULFATE], DISTILLED MONOGLYCERIDES, ENZYMES, WHEAT STARCH, CALCIUM CARBONATE, ANTIOXIDANTS [TOCOPHEROLS, ASCORBIC ACID], VITAL WHEAT GLUTEN, CELLULOSE GUM, DOUGH CONDITIONERS [FUMARIC ACID, SODIUM METABISULFITE], CALCIUM PROPIONATE AND SORBIC ACID TO PRESERVE FRESHNESS), HOT PEPPER SAUCE (AGED RED PEPPERS, DISTILLED VINEGAR, WATER, CORN SYRUP, SALT, FOOD STARCH MODIFIED, DEHYDRATED GARLIC AND ONION, XANTHAN GUM, NATURAL AND ARTIFICIAL FLAVORINGS, CITRIC ACID, CALCIUM DISODIUM EDTA TO PROTECT FLAVOR), CREAM CHEESE (PASTEURIZED MILK AND CREAM, CHEESE CULTURE, SALT, STABILIZERS [CAROB BEAN GUM, XANTHAN GUM AND/OR GUAR GUM], NATAMYCIN [NATURAL MOLD INHIBITOR]), LETTUCE, CELERY, BLUE CHEESE (PASTEURIZED MILK, CHEESE CULTURES, SALT, ENZYMES, POWDERED CELLULOSE TO PREVENT CAKING, NATAMYCIN TO PROTECT FLAVOR)." Date available: 08/23/2017 Date last updated by company: 08/23/2017
