Source: USDA Branded Food Products Database Release December 2017 Software v.3.8.6.4 2017-10-02
Report Run at: December 18, 2017 21:20 EST
"Nutrient data for: 45197979, BUFFALO STYLE SAUSAGE WITH BLEU CHEESE, UPC: 074920975359"
Food Group:  Branded Food Products Database
Common Name:

Nutrient,Unit,Data points,Std. Error,"1 LINK = 98.0g",1Value per 100 g,
Proximates
"Energy",kcal,--,--,320,327
"Protein",g,--,--,14.00,14.29
"Total lipid (fat)",g,--,--,28.00,28.57
"Carbohydrate, by difference",g,--,--,3.00,3.06
"Fiber, total dietary",g,--,--,0.3,0.3
"Sugars, total",g,--,--,1.00,1.02
Minerals
"Calcium, Ca",mg,--,--,60,61
"Iron, Fe",mg,--,--,0.21,0.21
"Sodium, Na",mg,--,--,660,673
Vitamins
"Vitamin C, total ascorbic acid",mg,--,--,0.0,0.0
"Vitamin A, IU",IU,--,--,280,286
Lipids
"Fatty acids, total saturated",g,--,--,9.996,10.200
"Fatty acids, total trans",g,--,--,0.000,0.000
"Cholesterol",mg,--,--,55,56
Amino Acids
Other
Ingredients
"PORK, WATER, BLEU CHEESE [(PASTEURIZED MILK, CHEESE CULTURES, SALT, ENZYMES, PENICILLIUM ROQUEFORTI), POWDERED CELLULOSE (TO PREVENT CAKING), NATAMYCIN (TO PROTECT FLAVOR)], SEASONING [DRIED RED PEEPER SAUCE (AGED CAYENNE PEPPER, VINEGAR, SALT, GARLIC), MODIFIED CORN STARCH, SALT, DEXTROSE, VINEGAR FLAVOR, (SODIUM DIACETATE, CITRIC ACID, POTASSIUM CITRATE, GLUCONA-DELTA-LACTONE, MALTODEXTRIN, PARTIALLY HYDROGENATED SOYBEAN/PALM/COTTONSEED OIL, DRIED GARLIC, DRIED ONION, HYDROXYPROPYL METHYL CELLULOSE,PAPRIKA EXTRACT, NATURAL FLAVOR)], POTASSIUM LACTATE, SODIUM PHOSPHATE, SODIUM DIACETATE." Date available: 07/14/2017 Date last updated by company: 07/14/2017
