Source: USDA Branded Food Products Database Release December 2017 Software v.3.8.6.4 2017-10-02
Report Run at: December 18, 2017 21:16 EST
"Nutrient data for: 45326642, BUFFALO JERKY, UPC: 817820008952"
Food Group:  Branded Food Products Database
Common Name:

Nutrient,Unit,Data points,Std. Error,"1 ONZ = 28.0g",1Value per 100 g,
Proximates
"Energy",kcal,--,--,60,214
"Protein",g,--,--,11.00,39.29
"Total lipid (fat)",g,--,--,0.50,1.79
"Carbohydrate, by difference",g,--,--,6.00,21.43
"Fiber, total dietary",g,--,--,0.0,0.0
"Sugars, total",g,--,--,5.00,17.86
Minerals
"Iron, Fe",mg,--,--,1.93,6.88
"Sodium, Na",mg,--,--,280,1000
Vitamins
Lipids
"Fatty acids, total saturated",g,--,--,0.000,0.000
"Fatty acids, total trans",g,--,--,0.000,0.000
"Cholesterol",mg,--,--,10,36
Amino Acids
Other
Ingredients
"BUFFALO, SUGAR, SOY SAUCE POWDER (WHEAT, SOYBEANS, SALT), APPLE CIDER VINEGAR, SALT, PAPRIKA, NATURAL SMOKE FLAVORING, BLACK PEPPER, ONION POWDER, GARLIC POWDER." Date available: 10/18/2017 Date last updated by company: 10/18/2017
