Source: USDA Branded Food Products Database Release December 2017 Software v.3.8.6.4 2017-10-02
Report Run at: December 18, 2017 21:22 EST
"Nutrient data for: 45311104, BUGLES SWT SLTY CRSPY CORN SNCKS CARAMEL, UNPREPARED, GTIN: 00016000287914"
Food Group:  Branded Food Products Database
Common Name:

Nutrient,Unit,Data points,Std. Error,"0.667 cup (30g) = 30.0g",1Value per 100 g,
Proximates
"Energy",kcal,--,--,160,533
"Protein",g,--,--,1.00,3.33
"Total lipid (fat)",g,--,--,9.00,30.00
"Carbohydrate, by difference",g,--,--,19.00,63.33
"Fiber, total dietary",g,--,--,0.0,0.0
"Sugars, total",g,--,--,10.00,33.33
Minerals
"Calcium, Ca",mg,--,--,0,0
"Iron, Fe",mg,--,--,0.00,0.00
"Sodium, Na",mg,--,--,190,633
Vitamins
"Vitamin C, total ascorbic acid",mg,--,--,0.0,0.0
"Vitamin A, IU",IU,--,--,0,0
Lipids
"Fatty acids, total saturated",g,--,--,5.001,16.670
"Fatty acids, total trans",g,--,--,0.000,0.000
"Cholesterol",mg,--,--,0,0
Amino Acids
Other
Ingredients
"DEGERMED YELLOW CORN MEAL, VEGETABLE OIL (COCONUT, PALM, CANOLA AND/OR SOYBEAN), SUGAR, HIGH FRUCTOSE CORN SYRUP. CONTAINS 2% OR LESS OF: SOY LECITHIN, SALT, MOLASSES, DISTILLED MONOGLYCERIDES, BAKING SODA, MILK, NATURAL FLAVOR, FRESHNESS PRESERVED BY BHT AND TBHQ." Date available: 10/18/2017 Date last updated by company: 10/17/2017
