Source: USDA Branded Food Products Database Release December 2017 Software v.3.8.6.4 2017-10-02
Report Run at: December 18, 2017 21:22 EST
"Nutrient data for: 45310709, BUGLES CRSPY CORN SNCKS RANCH VALUE SZ, UNPREPARED, GTIN: 00016000470194"
Food Group:  Branded Food Products Database
Common Name:

Nutrient,Unit,Data points,Std. Error,"1.333 cups (30g) = 30.0g",1Value per 100 g,
Proximates
"Energy",kcal,--,--,160,533
"Protein",g,--,--,2.00,6.67
"Total lipid (fat)",g,--,--,9.00,30.00
"Carbohydrate, by difference",g,--,--,18.00,60.00
"Fiber, total dietary",g,--,--,0.0,0.0
"Sugars, total",g,--,--,1.00,3.33
Minerals
"Calcium, Ca",mg,--,--,0,0
"Iron, Fe",mg,--,--,0.00,0.00
"Sodium, Na",mg,--,--,290,967
Vitamins
"Vitamin C, total ascorbic acid",mg,--,--,0.0,0.0
"Vitamin A, IU",IU,--,--,0,0
Lipids
"Fatty acids, total saturated",g,--,--,6.999,23.330
"Fatty acids, total trans",g,--,--,0.000,0.000
"Cholesterol",mg,--,--,0,0
Amino Acids
Other
Ingredients
"DEGERMED YELLOW CORN MEAL, COCONUT OIL, SUGAR, SALT, BUTTERMILK POWDER. CONTAINS 2% OR LESS OF: MALTODEXTRIN, DRIED SOUR CREAM (CREAM, NONFAT MILK, CULTURES), GARLIC POWDER, BAKING SODA, WHEY PROTEIN CONCENTRATE, ONION POWDER, TOMATO POWDER, SPICES, YEAST EXTRACT, CITRIC ACID, MALIC ACID, NATURAL FLAVOR, LACTIC ACID, FRESHNESS PRESERVED BY BHT." Date available: 10/18/2017 Date last updated by company: 10/17/2017
