Source: USDA Branded Food Products Database Release December 2017 Software v.3.8.6.4 2017-10-02
Report Run at: December 18, 2017 21:23 EST
"Nutrient data for: 45269398, BULGUR # 3 TRIGO SECO, UPC: 857070002393"
Food Group:  Branded Food Products Database
Common Name:

Nutrient,Unit,Data points,Std. Error,"0.5 CUP) | (APPROX. [tilde] = 100.0g",1Value per 100 g,
Proximates
"Energy",kcal,--,--,360,360
"Protein",g,--,--,12.00,12.00
"Total lipid (fat)",g,--,--,1.50,1.50
"Carbohydrate, by difference",g,--,--,74.00,74.00
"Fiber, total dietary",g,--,--,13.0,13.0
"Sugars, total",g,--,--,0.00,0.00
Minerals
"Calcium, Ca",mg,--,--,20,20
"Iron, Fe",mg,--,--,1.35,1.35
"Sodium, Na",mg,--,--,0,0
Vitamins
"Vitamin C, total ascorbic acid",mg,--,--,0.0,0.0
"Vitamin A, IU",IU,--,--,0,0
Lipids
"Fatty acids, total saturated",g,--,--,0.000,0.000
"Fatty acids, total trans",g,--,--,0.000,0.000
"Cholesterol",mg,--,--,0,0
Amino Acids
Other
Ingredients
"100% ORGANIC WHEAT AND WATER, NO ADDITIVES OR PRESERVATIVES ADDED." Date available: 08/12/2017 Date last updated by company: 08/12/2017
