Source: USDA Branded Food Products Database Release December 2017 Software v.3.8.6.4 2017-10-02
Report Run at: December 18, 2017 21:24 EST
"Nutrient data for: 45100126, BULL HEAD, BARBECUE SAUCE, UPC: 4711258002505"
Food Group:  Branded Food Products Database
Common Name:

Nutrient,Unit,Data points,Std. Error,"20.0 GRM = 20.0g",1Value per 100 g,
Proximates
"Energy",kcal,--,--,142,710
"Protein",g,--,--,2.00,10.00
"Total lipid (fat)",g,--,--,14.00,70.00
"Carbohydrate, by difference",g,--,--,2.00,10.00
"Fiber, total dietary",g,--,--,1.0,5.0
"Sugars, total",g,--,--,0.00,0.00
Minerals
"Calcium, Ca",mg,--,--,40,200
"Iron, Fe",mg,--,--,1.08,5.40
"Sodium, Na",mg,--,--,64,320
Vitamins
"Vitamin C, total ascorbic acid",mg,--,--,0.0,0.0
"Vitamin A, IU",IU,--,--,50,250
Lipids
"Fatty acids, total saturated",g,--,--,3.000,15.000
"Fatty acids, total trans",g,--,--,0.000,0.000
"Cholesterol",mg,--,--,7,35
Amino Acids
Other
Ingredients
"SOYBEAN OIL, BRILL FISH, GARLIC, GINGER, SHALLOTS, SESAME, COCONUT POWDER, DRIED SHRIMP, CHILI POWDER, SALT, PEPPER." Date available: 07/14/2017 Date last updated by company: 07/14/2017
