Source: USDA Branded Food Products Database Release December 2017 Software v.3.8.6.4 2017-10-02
Report Run at: December 18, 2017 21:26 EST
"Nutrient data for: 45019193, BUMBLE BEE, PRIME FILLET, ALBACORE TUNA WITH SUNDRIED TOMATOES & OLIVE OIL, UPC: 086600240138"
Food Group:  Branded Food Products Database
Common Name:

Nutrient,Unit,Data points,Std. Error,"1 POUCH = 71.0g",1Value per 100 g,
Proximates
"Energy",kcal,--,--,170,239
"Protein",g,--,--,12.00,16.90
"Total lipid (fat)",g,--,--,12.00,16.90
"Carbohydrate, by difference",g,--,--,2.00,2.82
"Fiber, total dietary",g,--,--,0.0,0.0
"Sugars, total",g,--,--,1.00,1.41
Minerals
"Calcium, Ca",mg,--,--,20,28
"Iron, Fe",mg,--,--,0.43,0.61
"Sodium, Na",mg,--,--,440,620
Vitamins
"Vitamin C, total ascorbic acid",mg,--,--,5.8,8.1
"Vitamin A, IU",IU,--,--,239,337
Lipids
"Fatty acids, total saturated",g,--,--,2.002,2.820
"Fatty acids, total monounsaturated",g,--,--,8.002,11.270
"Fatty acids, total polyunsaturated",g,--,--,1.498,2.110
"Fatty acids, total trans",g,--,--,0.000,0.000
"Cholesterol",mg,--,--,20,28
Amino Acids
Other
Ingredients
"WHITE TUNA, OLIVE OIL, WATER, FRESH GARLIC, SUNDRIED TOMATOES (SUNDRIED TOMATOES, SALT), SALT, SEASONING BLEND (OREGANO, BASIL, THYME, GARLIC), SEASONING (CANOLA OIL, EMULSIFIER, NATURAL ROSEMARY EXTRACTIVE), SUNDRIED TOMATO FLAVOR (CORN OIL, VIRGIN OLIVE OIL, DEHYDRATED TOMATO, TOMATO POWDER, NATURAL FLAVOR, SUNDRIED TOMATO), SPICE EXTRACTIVES, GARLIC EXTRACT, ONION EXTRACT, PAPRIKA EXTRACTIVE (COLOR)" Date available: 06/25/2017 Date last updated by company: 06/25/2017
