Source: USDA Branded Food Products Database Release December 2017 Software v.3.8.6.4 2017-10-02
Report Run at: December 18, 2017 21:27 EST
"Nutrient data for: 45045460, BUMBLE BEE, SUPER FRESH, TILAPIA, GARLIC & EXTRA VIRGIN OLIVE OIL, UPC: 086600777047"
Food Group:  Branded Food Products Database
Common Name:

Nutrient,Unit,Data points,Std. Error,"1 FILLET = 117.0g",1Value per 100 g,
Proximates
"Energy",kcal,--,--,121,103
"Protein",g,--,--,23.00,19.66
"Total lipid (fat)",g,--,--,3.50,2.99
"Carbohydrate, by difference",g,--,--,0.99,0.85
"Fiber, total dietary",g,--,--,0.0,0.0
"Sugars, total",g,--,--,0.00,0.00
Minerals
"Calcium, Ca",mg,--,--,20,17
"Iron, Fe",mg,--,--,0.53,0.45
"Sodium, Na",mg,--,--,330,282
Vitamins
"Vitamin C, total ascorbic acid",mg,--,--,0.0,0.0
"Vitamin A, IU",IU,--,--,0,0
Lipids
"Fatty acids, total saturated",g,--,--,0.995,0.850
"Fatty acids, total trans",g,--,--,0.000,0.000
"Cholesterol",mg,--,--,55,47
Amino Acids
Other
Ingredients
"TILAPIA, EXTRA VIRGIN OLIVE OIL, MINCED GARLIC, SEA SALT, SUGAR, GRANULATED GARLIC, BLACK PEPPER." Date available: 07/14/2017 Date last updated by company: 07/14/2017
