Source: USDA Branded Food Products Database Release December 2017 Software v.3.8.6.4 2017-10-02
Report Run at: December 18, 2017 21:29 EST
"Nutrient data for: 45260241, BUNDT CAKE, UPC: 5051379078713"
Food Group:  Branded Food Products Database
Common Name:

Nutrient,Unit,Data points,Std. Error,"2.2 ONZ = 62.0g",1Value per 100 g,
Proximates
"Energy",kcal,--,--,210,339
"Protein",g,--,--,4.00,6.45
"Total lipid (fat)",g,--,--,6.00,9.68
"Carbohydrate, by difference",g,--,--,35.00,56.45
"Fiber, total dietary",g,--,--,1.0,1.6
"Sugars, total",g,--,--,15.00,24.19
Minerals
"Calcium, Ca",mg,--,--,0,0
"Iron, Fe",mg,--,--,1.86,3.00
"Sodium, Na",mg,--,--,190,306
Vitamins
"Vitamin C, total ascorbic acid",mg,--,--,0.0,0.0
"Vitamin A, IU",IU,--,--,258,416
Lipids
"Fatty acids, total saturated",g,--,--,3.001,4.840
"Fatty acids, total trans",g,--,--,0.000,0.000
"Cholesterol",mg,--,--,30,48
Amino Acids
Other
Ingredients
"ENRICHED FLOUR (WHEAT FLOUR, NIACIN, REDUCED IRON, THIAMIN MONONITRATE, RIBOFLAVIN, FOLIC ACID), SUGAR, WATER, EGGS, MARGARINE (PALM OIL, PALM KERNEL OIL, WATER, SALT, SOY LECITHIN, MONOGLYCERIDE, NATURAL FLAVOR, CITRIC ACID, TOCOPHEROL-RICH EXTRACT, VITAMIN A PALMITATE, BETA-CAROTENE), RASPBERRIES, YEAST, BUTTERMILK (LOW FAT MILK, NONFAT MILK, SALT), BUTTER (CREAM), SALT, CINNAMON, ORANGE JUICE, PECTIN, LOCUST BEAN GUM, PHOSPHORIC ACID, ASCORBIC ACID." Date available: 07/14/2017 Date last updated by company: 07/14/2017
