Source: USDA Branded Food Products Database Release December 2017 Software v.3.8.6.4 2017-10-02
Report Run at: December 18, 2017 21:29 EST
"Nutrient data for: 45236865, BUNDABERG, ROOT BEER, UPC: 114930004318"
Food Group:  Branded Food Products Database
Common Name:

Nutrient,Unit,Data points,Std. Error,"1 BOTTLE = 375.0g",1Value per 100 g,
Proximates
"Energy",kcal,--,--,191,51
"Protein",g,--,--,0.00,0.00
"Total lipid (fat)",g,--,--,0.00,0.00
"Carbohydrate, by difference",g,--,--,46.99,12.53
"Sugars, total",g,--,--,43.99,11.73
Minerals
"Sodium, Na",mg,--,--,45,12
Vitamins
Lipids
Amino Acids
Other
Ingredients
"CARBONATED WATER, CANE SUGAR, ROOT BEER BREW (WATER, SUGAR, MOLASSES, GINGER ROOT, SARSAPARILLA ROOT, LICORICE ROOT, VANILLA BEAN, YEAST), CARAMEL COLOR, CITRIC ACID, PRESERVATIVES (POTASSIUM SORBATE, SODIUM BENZOATE), ANTIOXIDANT (ASCORBIC ACID), ROOT BEER FLAVOR." Date available: 09/26/2017 Date last updated by company: 09/26/2017
