Source: USDA Branded Food Products Database Release December 2017 Software v.3.8.6.4 2017-10-02
Report Run at: December 18, 2017 21:29 EST
"Nutrient data for: 45051832, BUNLESS TURKEY BURGER WITH SWEET POTATOES, UPC: 856095003156"
Food Group:  Branded Food Products Database
Common Name:

Nutrient,Unit,Data points,Std. Error,"8.6 oz = 244.0g",1Value per 100 g,
Proximates
"Energy",kcal,--,--,361,148
"Protein",g,--,--,30.01,12.30
"Total lipid (fat)",g,--,--,9.00,3.69
"Carbohydrate, by difference",g,--,--,41.99,17.21
"Fiber, total dietary",g,--,--,6.1,2.5
"Sugars, total",g,--,--,10.00,4.10
Minerals
"Calcium, Ca",mg,--,--,81,33
"Iron, Fe",mg,--,--,1.44,0.59
"Sodium, Na",mg,--,--,420,172
Vitamins
"Vitamin C, total ascorbic acid",mg,--,--,9.0,3.7
"Vitamin A, IU",IU,--,--,16499,6762
Lipids
"Fatty acids, total saturated",g,--,--,4.002,1.640
"Fatty acids, total trans",g,--,--,0.000,0.000
"Cholesterol",mg,--,--,90,37
Amino Acids
Other
Ingredients
"GROUND TURKEY (NATURAL FLAVORING), SWEET POTATO, ONION, MUSHROOM, PANKO BREAD CRUMBS (WHEAT FLOUR, CONTAINS 2% OR LESS OF THE FOLLOWING: SUGAR, YEAST, SOYBEAN OIL, SALT), EGG WHITES, BUTTERMILK POWDER (SWEET DAIRY WHEY, BUTTERMILK PRODUCT, AND DRY CREAM), SOY SAUCE (WATER, SOYBEANS, RICE, SALT), GARLIC POWDER, ONION POWDER, KOSHER SALT, GROUND CHILIES, GARLIC POWDER, BLACK PEPPER, DRIED PARSLEY, CINNAMON, DRIED DILL WEED, ITALIAN STYLE SEASONING (OREGANO, THYME, BASIL, SAGE, ROSEMARY, SAVORY, MARJORAM), PAPRIKA" Date last updated by company: 12/30/2015
