Source: USDA Branded Food Products Database Release December 2017 Software v.3.8.6.4 2017-10-02
Report Run at: December 18, 2017 21:36 EST
"Nutrient data for: 45225685, BURRITOS, UPC: 071007012662"
Food Group:  Branded Food Products Database
Common Name:

Nutrient,Unit,Data points,Std. Error,"1 BURRITO = 113.0g",1Value per 100 g,
Proximates
"Energy",kcal,--,--,290,257
"Protein",g,--,--,8.99,7.96
"Total lipid (fat)",g,--,--,14.00,12.39
"Carbohydrate, by difference",g,--,--,33.00,29.20
"Fiber, total dietary",g,--,--,3.1,2.7
"Sugars, total",g,--,--,0.99,0.88
Minerals
"Calcium, Ca",mg,--,--,20,18
"Iron, Fe",mg,--,--,4.46,3.95
"Sodium, Na",mg,--,--,340,301
Vitamins
"Vitamin C, total ascorbic acid",mg,--,--,1.5,1.3
"Vitamin A, IU",IU,--,--,247,219
Lipids
"Fatty acids, total saturated",g,--,--,4.995,4.420
"Fatty acids, total trans",g,--,--,0.000,0.000
"Cholesterol",mg,--,--,15,13
Amino Acids
Other
Ingredients
"WATER, WHEAT FLOUR (ENRICHED WITH NIACIN, REDUCED IRON, THIAMIN MONONITRATE, RIBOFLAVIN, FOLIC ACID), BEEF, BEANS, VEGETABLE OIL (SOYBEAN, SUNFLOWER, CANOLA AND/OR CORN OIL), CONTAINS 2% OR LESS TEXTURED VEGETABLE PROTEIN (SOY FLOUR, CARAMEL COLOR), ISOLATED PEA PRODUCT, SALT, RICE FLOUR, YEAST, CELLULOSE GUM, GUAR GUM, WHEAT, SODIUM BICARBONATE, WHEAT STARCH, FOOD STARCH, DOUGH CONDITIONERS (SODIUM METABISULFITE, SODIUM STEAROYL LACTYLATE, L-CYSTEINE, MONO AND DIGLYCERIDES, DICALCIUM PHOSPHATE), MICROCRYSTALLINE CELLULOSE, SILICON DIOXIDE (TO PREVENT CAKING), CHILI PEPPER, YEAST EXTRACT, MALTODEXTRIN, FLAVORS, SPICES, SOY SAUCE (SOYBEANS), AUTOLYZED YEAST EXTRACT, LACTIC ACID, NATURAL FLAVOR, CALCIUM LACTATE." Date available: 07/14/2017 Date last updated by company: 07/14/2017
