Source: USDA Branded Food Products Database Release December 2017 Software v.3.8.6.4 2017-10-02
Report Run at: December 18, 2017 21:35 EST
"Nutrient data for: 45226568, BURRITO SIZE FLOUR TORTILLAS, UPC: 789180659160"
Food Group:  Branded Food Products Database
Common Name:

Nutrient,Unit,Data points,Std. Error,"1 TORTILLA = 47.0g",1Value per 100 g,
Proximates
"Energy",kcal,--,--,150,319
"Protein",g,--,--,3.00,6.38
"Total lipid (fat)",g,--,--,6.00,12.77
"Carbohydrate, by difference",g,--,--,23.00,48.94
"Fiber, total dietary",g,--,--,1.0,2.1
"Sugars, total",g,--,--,1.00,2.13
Minerals
"Calcium, Ca",mg,--,--,0,0
"Iron, Fe",mg,--,--,1.68,3.58
"Sodium, Na",mg,--,--,230,489
Vitamins
"Vitamin C, total ascorbic acid",mg,--,--,0.0,0.0
"Vitamin A, IU",IU,--,--,0,0
Lipids
"Fatty acids, total saturated",g,--,--,2.002,4.260
"Fatty acids, total trans",g,--,--,0.000,0.000
"Cholesterol",mg,--,--,5,11
Amino Acids
Other
Ingredients
"ENRICHED BLEACHED FLOUR (WHEAT FLOUR, NIACIN, REDUCED IRON, THIAMINE MONONITRATE,. RIBOFLAVIN, FOLIC ACID), SHORTENING (MEAT FATS, VEGETABLE OILS, BHA, PROPYL GALLATE, CITRIC ACID, DIMETHYLPOLYSILOXANE), WATER, SALT, DOUGH CONDITIONER (WHEY (MILK), L - CYSTEINE), BAKING POWDER (CORN STARCH, BICARBONATE OF SODA, SODIUM ALUMINUM SULFATE, CALCIUM ACID PHOSPHATE)." Date available: 07/14/2017 Date last updated by company: 07/14/2017
