Source: USDA Branded Food Products Database Release December 2017 Software v.3.8.6.4 2017-10-02
Report Run at: December 18, 2017 21:52 EST
"Nutrient data for: 45276886, BUTTER LETTUCE AND LEAF LETTUCE, UPC: 688267011436"
Food Group:  Branded Food Products Database
Common Name:

Nutrient,Unit,Data points,Std. Error,"2.0 CUPS | ABOUT = 85.0g",1Value per 100 g,
Proximates
"Energy",kcal,--,--,10,12
"Protein",g,--,--,1.00,1.18
"Total lipid (fat)",g,--,--,0.00,0.00
"Carbohydrate, by difference",g,--,--,2.00,2.35
"Fiber, total dietary",g,--,--,1.0,1.2
"Sugars, total",g,--,--,1.00,1.18
Minerals
"Calcium, Ca",mg,--,--,20,24
"Iron, Fe",mg,--,--,1.08,1.27
"Sodium, Na",mg,--,--,10,12
Vitamins
"Vitamin C, total ascorbic acid",mg,--,--,3.6,4.2
"Vitamin A, IU",IU,--,--,3500,4118
Lipids
"Fatty acids, total saturated",g,--,--,0.000,0.000
"Fatty acids, total trans",g,--,--,0.000,0.000
"Cholesterol",mg,--,--,0,0
Amino Acids
Other
Ingredients
"BUTTER LETTUCE, LEAF LETTUCE." Date available: 07/14/2017 Date last updated by company: 07/14/2017
