Source: USDA Branded Food Products Database Release December 2017 Software v.3.8.6.4 2017-10-02
Report Run at: December 18, 2017 21:53 EST
"Nutrient data for: 45200838, BUTTERMILK DINNER ROLLS, UPC: 733163001767"
Food Group:  Branded Food Products Database
Common Name:

Nutrient,Unit,Data points,Std. Error,"1 ROLL = 31.0g",1Value per 100 g,
Proximates
"Energy",kcal,--,--,100,323
"Protein",g,--,--,2.00,6.45
"Total lipid (fat)",g,--,--,2.00,6.45
"Carbohydrate, by difference",g,--,--,17.00,54.84
"Fiber, total dietary",g,--,--,1.0,3.2
"Sugars, total",g,--,--,2.00,6.45
Minerals
"Calcium, Ca",mg,--,--,0,0
"Iron, Fe",mg,--,--,1.16,3.75
"Sodium, Na",mg,--,--,160,516
Vitamins
"Vitamin C, total ascorbic acid",mg,--,--,0.0,0.0
"Vitamin A, IU",IU,--,--,0,0
Lipids
"Fatty acids, total saturated",g,--,--,1.500,4.840
"Fatty acids, total trans",g,--,--,0.000,0.000
"Cholesterol",mg,--,--,5,16
Amino Acids
Other
Ingredients
"ENRICHED WHEAT FLOUR (WHEAT FLOUR, MALTED BARLEY FLOUR, NIACIN, REDUCED IRON, THIAMIN MONONITRATE, RIBOFLAVIN AND FOLIC ACID, ASCORBIC ACID), GRADE A PASTEURIZED BUTTERMILK, SOUR STARTER (ENRICHED WHEAT FLOUR, FILTERED WATER), BUTTER (PASTEURIZED SWEET CREAM), SUGAR, POTATO FLOUR, SALT, YEAST." Date available: 07/14/2017 Date last updated by company: 07/14/2017
