Source: USDA Branded Food Products Database Release December 2017 Software v.3.8.6.4 2017-10-02
Report Run at: December 18, 2017 21:56 EST
"Nutrient data for: 45236610, BUTTERMILK TEXAS STYLE BISCUITS, UPC: 078742114361"
Food Group:  Branded Food Products Database
Common Name:

Nutrient,Unit,Data points,Std. Error,"1 BISCUIT = 34.0g",1Value per 100 g,
Proximates
"Energy",kcal,--,--,100,294
"Protein",g,--,--,2.00,5.88
"Total lipid (fat)",g,--,--,3.50,10.29
"Carbohydrate, by difference",g,--,--,16.00,47.06
"Fiber, total dietary",g,--,--,0.0,0.0
"Sugars, total",g,--,--,2.00,5.88
Minerals
"Calcium, Ca",mg,--,--,0,0
"Iron, Fe",mg,--,--,2.33,6.85
"Potassium, K",mg,--,--,55,162
"Sodium, Na",mg,--,--,260,765
Vitamins
"Vitamin C, total ascorbic acid",mg,--,--,0.0,0.0
"Thiamin",mg,--,--,0.340,1.000
"Riboflavin",mg,--,--,0.068,0.200
"Niacin",mg,--,--,1.294,3.806
"Vitamin A, IU",IU,--,--,0,0
Lipids
"Fatty acids, total saturated",g,--,--,1.999,5.880
"Fatty acids, total monounsaturated",g,--,--,1.000,2.940
"Fatty acids, total polyunsaturated",g,--,--,0.000,0.000
"Fatty acids, total trans",g,--,--,0.000,0.000
"Cholesterol",mg,--,--,0,0
Amino Acids
Other
Ingredients
"ENRICHED BLEACHED FLOUR (WHEAT FLOUR, NIACIN, IRON, THIAMIN MONONITRATE [VITAMIN B1], RIBOFLAVIN [VITAMIN B2], FOLIC ACID), WATER, VEGETABLE OIL (PALM, SOYBEAN AND/OR COTTONSEED OILS), SUGAR, LEAVENING (BAKING SODA, SODIUM ACID PYROPHOSPHATE, SODIUM ALUMINUM PHOSPHATE, ALUMINUM SULFATE). CONTAINS 2% OR LESS OF EACH OF THE FOLLOWING: DEXTROSE, WHITE CORN FLOUR, POTASSIUM CHLORIDE, SALT, MODIFIED WHEAT STARCH, ARTIFICIAL FLAVOR, DATEM, SODIUM ALGINATE, POTASSIUM SORBATE AND CITRIC ACID AND TBHQ (PRESERVATIVES), SOY FLOUR." Date available: 06/25/2017 Date last updated by company: 06/25/2017
