Source: USDA Branded Food Products Database Release December 2017 Software v.3.8.6.4 2017-10-02
Report Run at: December 18, 2017 21:50 EST
"Nutrient data for: 45190197, BUTTERED NOODLES, UPC: 021605093501"
Food Group:  Branded Food Products Database
Common Name:

Nutrient,Unit,Data points,Std. Error,"1 cup = 105.0g",1Value per 100 g,
Proximates
"Energy",kcal,--,--,220,210
"Protein",g,--,--,5.00,4.76
"Total lipid (fat)",g,--,--,10.00,9.52
"Carbohydrate, by difference",g,--,--,28.00,26.67
"Fiber, total dietary",g,--,--,1.1,1.0
"Sugars, total",g,--,--,0.00,0.00
Minerals
"Calcium, Ca",mg,--,--,20,19
"Iron, Fe",mg,--,--,2.68,2.55
"Sodium, Na",mg,--,--,135,129
Vitamins
"Vitamin C, total ascorbic acid",mg,--,--,0.0,0.0
"Vitamin A, IU",IU,--,--,556,530
Lipids
"Fatty acids, total saturated",g,--,--,5.995,5.710
"Fatty acids, total trans",g,--,--,0.000,0.000
"Cholesterol",mg,--,--,25,24
Amino Acids
Other
Ingredients
"WATER, SEMOLINA FLOUR (ENRICHED WITH NIACIN, IRON, THIAMINE MONONITRATE, RIBOFLAVIN, FOLIC ACID), SEA SALT BUTTER ([CREAM, SALT], SEA SALT)." Date available: 07/14/2017 Date last updated by company: 07/14/2017
