Source: USDA Branded Food Products Database Release December 2017 Software v.3.8.6.4 2017-10-02
Report Run at: December 18, 2017 21:47 EST
"Nutrient data for: 45141495, BUTTERBALL, TURKEY BREAST, UPC: 022655372530"
Food Group:  Branded Food Products Database
Common Name:

Nutrient,Unit,Data points,Std. Error,"2.0 ONZ = 56.0g",1Value per 100 g,
Proximates
"Energy",kcal,--,--,50,89
"Protein",g,--,--,10.00,17.86
"Total lipid (fat)",g,--,--,1.00,1.79
"Carbohydrate, by difference",g,--,--,1.00,1.79
"Fiber, total dietary",g,--,--,0.0,0.0
"Sugars, total",g,--,--,1.00,1.79
Minerals
"Calcium, Ca",mg,--,--,0,0
"Iron, Fe",mg,--,--,0.35,0.63
"Sodium, Na",mg,--,--,400,714
Vitamins
"Vitamin C, total ascorbic acid",mg,--,--,0.0,0.0
"Vitamin A, IU",IU,--,--,0,0
Lipids
"Fatty acids, total saturated",g,--,--,0.000,0.000
"Fatty acids, total trans",g,--,--,0.000,0.000
"Cholesterol",mg,--,--,25,45
Amino Acids
Other
Ingredients
"TURKEY BREAST, TURKEY BROTH, CONTAINS 2% OR LESS OF DEXTROSE, SEA SALT, SALT, CARRAGEENAN, VINEGAR, SODIUM PHOSPHATE, NATURAL FLAVORS. BROWNED IN VEGETABLE OIL." Date available: 07/14/2017 Date last updated by company: 07/14/2017
