Source: USDA Branded Food Products Database Release December 2017 Software v.3.8.6.4 2017-10-02
Report Run at: December 18, 2017 22:01 EST
"Nutrient data for: 45183557, BUTTER PECAN PREMIUM ICE CREAM, UPC: 070424064056"
Food Group:  Branded Food Products Database
Common Name:

Nutrient,Unit,Data points,Std. Error,"0.5 cup = 67.0g",1Value per 100 g,
Proximates
"Energy",kcal,--,--,160,239
"Protein",g,--,--,3.00,4.48
"Total lipid (fat)",g,--,--,10.00,14.93
"Carbohydrate, by difference",g,--,--,16.00,23.88
"Fiber, total dietary",g,--,--,1.0,1.5
"Sugars, total",g,--,--,13.00,19.40
Minerals
"Calcium, Ca",mg,--,--,100,149
"Iron, Fe",mg,--,--,0.00,0.00
"Sodium, Na",mg,--,--,65,97
Vitamins
"Vitamin C, total ascorbic acid",mg,--,--,1.3,2.0
"Vitamin A, IU",IU,--,--,225,336
Lipids
"Fatty acids, total saturated",g,--,--,4.502,6.720
"Fatty acids, total trans",g,--,--,0.000,0.000
"Cholesterol",mg,--,--,25,37
Amino Acids
Other
Ingredients
"MILK, CREAM, SUGAR, ROASTED PECANS (PECANS, COTTONSEED OIL, BUTTER, SALT), CORN SYRUP, NONFAT MILK, WHEY, LOCUST BEAN GUM, GUAR GUM, CARRAGEENAN, NATURAL FLAVOR, VANILLA, ARTIFICIAL FLAVOR, ANNATTO FOR COLOR." Date available: 07/14/2017 Date last updated by company: 07/14/2017
