Source: USDA Branded Food Products Database Release December 2017 Software v.3.8.6.4 2017-10-02
Report Run at: December 18, 2017 21:54 EST
"Nutrient data for: 45060750, BUTTER MILK PANCAKE MIX, UPC: 011126007156"
Food Group:  Branded Food Products Database
Common Name:

Nutrient,Unit,Data points,Std. Error,"0.5 cup = 59.0g",1Value per 100 g,
Proximates
"Energy",kcal,--,--,220,373
"Protein",g,--,--,5.00,8.47
"Total lipid (fat)",g,--,--,2.50,4.24
"Carbohydrate, by difference",g,--,--,43.00,72.88
"Fiber, total dietary",g,--,--,1.0,1.7
"Sugars, total",g,--,--,7.00,11.86
Minerals
"Calcium, Ca",mg,--,--,250,424
"Iron, Fe",mg,--,--,1.22,2.07
"Potassium, K",mg,--,--,70,119
"Sodium, Na",mg,--,--,470,797
Vitamins
"Vitamin C, total ascorbic acid",mg,--,--,0.0,0.0
"Vitamin A, IU",IU,--,--,0,0
Lipids
"Fatty acids, total saturated",g,--,--,0.997,1.690
"Fatty acids, total trans",g,--,--,0.000,0.000
"Cholesterol",mg,--,--,0,0
Amino Acids
Other
Ingredients
"INGREDIENTS: ENRICHED BLEACHED FLOUR (BLEACHED WHEAT FLOUR, NIACIN, IRON THIAMINE MONONITRATE, RIBOFLAVIN, FOLIC ACID),YELLOW CORN FLOUR, DEXTROSE, SUGAR, LEAVENING (MONOCALCIUM PHOSPHATE, BAKINGSODA), PALM OIL, RELECITHINATED SOY FLOUR. CONTAINS 2% OR LESS OF EACH OF THE FOLLOWING: BUTTERMILK, CORN SYRUP SOLIDS, SALT, CELLULOSE GUM, SODIUM CASEINATE, DIPOTASSIUM PHOSPHATE, EMULSIFIER PHOSPHATE, EMULSIFIER (MONOGLYCERIDES), SODIUM SILICOALUMINATE." Date available: 08/11/2017 Date last updated by company: 08/11/2017
