Source: USDA Branded Food Products Database Release December 2017 Software v.3.8.6.4 2017-10-02
Report Run at: December 18, 2017 21:48 EST
"Nutrient data for: 45018752, BUTTER CHICKEN KIT, UPC: 856660005035"
Food Group:  Branded Food Products Database
Common Name:

Nutrient,Unit,Data points,Std. Error,"0.25 PACKAGE = 64.0g",1Value per 100 g,
Proximates
"Energy",kcal,--,--,90,141
"Protein",g,--,--,2.00,3.12
"Total lipid (fat)",g,--,--,3.50,5.47
"Carbohydrate, by difference",g,--,--,15.00,23.44
"Fiber, total dietary",g,--,--,3.0,4.7
"Sugars, total",g,--,--,9.00,14.06
Minerals
"Calcium, Ca",mg,--,--,52,81
"Iron, Fe",mg,--,--,1.80,2.81
"Potassium, K",mg,--,--,188,294
"Sodium, Na",mg,--,--,1080,1688
Vitamins
"Vitamin D",IU,--,--,0,0
Lipids
"Fatty acids, total saturated",g,--,--,0.499,0.780
"Fatty acids, total trans",g,--,--,0.000,0.000
"Cholesterol",mg,--,--,0,0
Amino Acids
Other
Ingredients
"BUTTER CHICKEN PASTE: TOMATO PASTE (TOMATOES), BROWN SUGAR, WATER, GARLIC, GINGER, CHILI POWDER, OIL (SOY), SALT, CUMIN SEEDS, CORIANDER SEEDS, CARDAMOM, CINNAMON, WHITE PEPPER, TAPIOCA STARCH, TURMERIC, CLOVE. CRUSHED TOMATOES: TOMATOES. DRIED CHILI & SPICES: CINNAMON STICK, DRIED WHOLE RED CHILI, CARDAMOM, BAY." Date available: 07/14/2017 Date last updated by company: 07/14/2017
