Source: USDA Branded Food Products Database Release December 2017 Software v.3.8.6.4 2017-10-02
Report Run at: December 18, 2017 21:48 EST
"Nutrient data for: 45324895, BUTTER COFFEE, UPC: 856241006000"
Food Group:  Branded Food Products Database
Common Name:

Nutrient,Unit,Data points,Std. Error,"1 BOTTLE = 10.0g",1Value per 100 g,
Proximates
"Energy",kcal,--,--,10,103
"Protein",g,--,--,0.33,3.33
"Total lipid (fat)",g,--,--,0.60,6.00
"Carbohydrate, by difference",g,--,--,0.90,9.00
"Fiber, total dietary",g,--,--,0.0,0.3
"Sugars, total",g,--,--,0.70,7.00
Minerals
"Calcium, Ca",mg,--,--,3,33
"Iron, Fe",mg,--,--,0.04,0.44
"Sodium, Na",mg,--,--,1,13
Vitamins
"Vitamin C, total ascorbic acid",mg,--,--,0.0,0.0
"Vitamin A, IU",IU,--,--,16,162
Lipids
"Fatty acids, total saturated",g,--,--,0.433,4.330
"Fatty acids, total trans",g,--,--,0.017,0.170
"Cholesterol",mg,--,--,2,18
Amino Acids
Other
Ingredients
"COFFEE (WATER, COFFEE)*, MAPLE SYRUP*, GRASS-FED BUTTER, GRASS-FED WHEY PROTEIN, MCT OIL (MEDIUM CHAIN TRIGLYCERIDES), ALKALIZED COCOA POWDER*, COCOA BUTTER*, VANILLA EXTRACT, QUILLAJA EXTRACT, GELLAN GUM." Date available: 08/10/2017 Date last updated by company: 08/10/2017
