Source: USDA Branded Food Products Database Release December 2017 Software v.3.8.6.4 2017-10-02
Report Run at: December 18, 2017 22:05 EST
"Nutrient data for: 45018790, BUTTER, UPC: 8008348005598"
Food Group:  Branded Food Products Database
Common Name:

Nutrient,Unit,Data points,Std. Error,"1 Tbsp = 15.0g",1Value per 100 g,
Proximates
"Energy",kcal,--,--,120,800
"Protein",g,--,--,0.00,0.00
"Total lipid (fat)",g,--,--,14.00,93.33
"Carbohydrate, by difference",g,--,--,0.00,0.00
"Fiber, total dietary",g,--,--,0.0,0.0
"Sugars, total",g,--,--,0.00,0.00
Minerals
"Calcium, Ca",mg,--,--,0,0
"Iron, Fe",mg,--,--,0.00,0.00
"Sodium, Na",mg,--,--,25,167
Vitamins
"Vitamin C, total ascorbic acid",mg,--,--,0.0,0.0
"Vitamin A, IU",IU,--,--,1353,9017
Lipids
"Fatty acids, total saturated",g,--,--,7.999,53.330
"Fatty acids, total trans",g,--,--,0.500,3.330
"Cholesterol",mg,--,--,35,233
Amino Acids
Other
Ingredients
"BUTTER (CULTURED CREAM), WHITE SPRING TRUFFLES (TUBER ALBIDUM PICO), SALT AND FLAVORING." Date available: 07/14/2017 Date last updated by company: 07/14/2017
