Source: USDA Branded Food Products Database Release December 2017 Software v.3.8.6.4 2017-10-02
Report Run at: December 18, 2017 21:45 EST
"Nutrient data for: 45141532, BUTTERBALL, FRESH GROUND TURKEY BREAST, UPC: 022655722502"
Food Group:  Branded Food Products Database
Common Name:

Nutrient,Unit,Data points,Std. Error,"4.0 ONZ = 112.0g",1Value per 100 g,
Proximates
"Energy",kcal,--,--,120,107
"Protein",g,--,--,27.00,24.11
"Total lipid (fat)",g,--,--,2.00,1.79
"Carbohydrate, by difference",g,--,--,0.00,0.00
Minerals
"Iron, Fe",mg,--,--,0.55,0.49
"Sodium, Na",mg,--,--,80,71
Vitamins
Lipids
"Fatty acids, total saturated",g,--,--,0.504,0.450
"Fatty acids, total trans",g,--,--,0.000,0.000
"Cholesterol",mg,--,--,55,49
Amino Acids
Other
Ingredients
"TURKEY BREAST, NATURAL FLAVORING." Date available: 07/14/2017 Date last updated by company: 07/14/2017
