Source: USDA Branded Food Products Database Release December 2017 Software v.3.8.6.4 2017-10-02
Report Run at: December 18, 2017 22:05 EST
"Nutrient data for: 45179516, BUTTER, UPC: 759885029094"
Food Group:  Branded Food Products Database
Common Name:

Nutrient,Unit,Data points,Std. Error,"1 Tbsp = 14.0g",1Value per 100 g,
Proximates
"Energy",kcal,--,--,100,714
"Protein",g,--,--,0.00,0.00
"Total lipid (fat)",g,--,--,11.00,78.57
"Carbohydrate, by difference",g,--,--,0.00,0.00
Minerals
"Calcium, Ca",mg,--,--,0,0
"Sodium, Na",mg,--,--,115,821
Vitamins
"Vitamin A, IU",IU,--,--,0,0
Lipids
"Fatty acids, total saturated",g,--,--,7.000,50.000
"Cholesterol",mg,--,--,30,214
Amino Acids
Other
Ingredients
"PASTEURIZED CREAM AND SALT." Date available: 10/13/2017 Date last updated by company: 10/13/2017
