Source: USDA Branded Food Products Database Release December 2017 Software v.3.8.6.4 2017-10-02
Report Run at: December 18, 2017 22:09 EST
"Nutrient data for: 45162959, CABLE CAR, CHERRY SOURS, UPC: 023637463642"
Food Group:  Branded Food Products Database
Common Name:

Nutrient,Unit,Data points,Std. Error,"18.0 PIECES = 41.0g",1Value per 100 g,
Proximates
"Energy",kcal,--,--,140,341
"Protein",g,--,--,0.00,0.00
"Total lipid (fat)",g,--,--,0.00,0.00
"Carbohydrate, by difference",g,--,--,36.00,87.80
"Fiber, total dietary",g,--,--,0.0,0.0
"Sugars, total",g,--,--,27.00,65.85
Minerals
"Calcium, Ca",mg,--,--,0,0
"Iron, Fe",mg,--,--,0.00,0.00
"Sodium, Na",mg,--,--,0,0
Vitamins
"Vitamin C, total ascorbic acid",mg,--,--,0.0,0.0
"Vitamin A, IU",IU,--,--,0,0
Lipids
"Fatty acids, total saturated",g,--,--,0.000,0.000
"Fatty acids, total trans",g,--,--,0.000,0.000
"Cholesterol",mg,--,--,0,0
Amino Acids
Other
Ingredients
"DEXTROSE, CORN SYRUP, SUGAR, MODIFIED FOOD STARCH, CONTAINS 2% OR LESS OF: CITRIC ACID, TAPIOCA DEXTRIN, ARTIFICIAL FLAVOR, CARNAUBA WAX, ARTIFICIAL COLOR (FD&C RED #40), MINERAL OIL." Date available: 07/14/2017 Date last updated by company: 07/14/2017
