Source: USDA Branded Food Products Database Release December 2017 Software v.3.8.6.4 2017-10-02
Report Run at: December 18, 2017 22:18 EST
"Nutrient data for: 45004965, CADIA, WAFERS, VANILLA, UPC: 815369012249"
Food Group:  Branded Food Products Database
Common Name:

Nutrient,Unit,Data points,Std. Error,"5.0 COOKIES = 25.0g",1Value per 100 g,
Proximates
"Energy",kcal,--,--,130,520
"Protein",g,--,--,1.00,4.00
"Total lipid (fat)",g,--,--,6.00,24.00
"Carbohydrate, by difference",g,--,--,17.00,68.00
"Fiber, total dietary",g,--,--,1.0,4.0
"Sugars, total",g,--,--,5.00,20.00
Minerals
"Calcium, Ca",mg,--,--,20,80
"Iron, Fe",mg,--,--,0.00,0.00
"Sodium, Na",mg,--,--,75,300
Vitamins
"Vitamin C, total ascorbic acid",mg,--,--,0.0,0.0
"Vitamin A, IU",IU,--,--,0,0
Lipids
"Fatty acids, total saturated",g,--,--,3.500,14.000
"Fatty acids, total trans",g,--,--,0.000,0.000
"Cholesterol",mg,--,--,5,20
Amino Acids
Other
Ingredients
"ORGANIC WHEAT FLOUR, ORGANIC PALM OIL, ORGANIC EVAPORATED CANE JUICE, ORGANIC WHOLE EGGS, ORGANIC EVAPORATED CANE SYRUP, SEA SALT, ORGANIC PURE VANILLA EXTRACT, BAKING POWDER, BAKING SODA." Date available: 07/14/2017 Date last updated by company: 07/14/2017
