Source: USDA Branded Food Products Database Release December 2017 Software v.3.8.6.4 2017-10-02
Report Run at: December 18, 2017 04:34 EST
"Nutrient data for: 45003015, CAESAR'S, CHEESE LASAGNA IN MARINARA SAUCE, UPC: 078411121089"
Food Group:  Branded Food Products Database
Common Name:

Nutrient,Unit,Data points,Std. Error,"1 CONTAINER = 326.0g",1Value per 100 g,
Proximates
"Energy",kcal,--,--,522,160
"Protein",g,--,--,13.99,4.29
"Total lipid (fat)",g,--,--,13.99,4.29
"Carbohydrate, by difference",g,--,--,84.01,25.77
"Fiber, total dietary",g,--,--,3.9,1.2
"Sugars, total",g,--,--,7.99,2.45
Minerals
"Calcium, Ca",mg,--,--,300,92
"Iron, Fe",mg,--,--,0.85,0.26
"Sodium, Na",mg,--,--,570,175
Vitamins
"Vitamin C, total ascorbic acid",mg,--,--,5.5,1.7
"Vitamin A, IU",IU,--,--,597,183
Lipids
"Fatty acids, total saturated",g,--,--,7.009,2.150
"Fatty acids, total trans",g,--,--,0.000,0.000
"Cholesterol",mg,--,--,49,15
Amino Acids
Other
Ingredients
"WATER, CONCENTRATED CRUSHED TOMATOES, ONIONS, FLOUR (RICE FLOUR, CORN STARCH, TAPIOCA FLOUR, AND XANTHAN GUM), WHOLE MILK RICOTTA CHEESE (PASTEURIZED CHEESE WHEY, WHOLE MILK, DISTILLED VINEGAR, AND SALT), CANOLA OIL, ORGANIC EVAPORATED CANE JUICE, GARLIC, PART SKIM MOZZARELLA CHEESE (PASTEURIZED MILK, CHEESE CULTURES, SALT, AND ENZYMES), PASTEURIZED EGG WHITES, SALT, BASIL, RED PEPPER, BLACK PEPPER, OREGANO, AND PARSLEY." Date available: 07/14/2017 Date last updated by company: 07/14/2017
