Source: USDA Branded Food Products Database Release December 2017 Software v.3.8.6.4 2017-10-02
Report Run at: December 18, 2017 22:24 EST
"Nutrient data for: 45236586, CAFFEINE FREE DIET ROOT BEER, UPC: 078742078397"
Food Group:  Branded Food Products Database
Common Name:

Nutrient,Unit,Data points,Std. Error,"1 CAN = 355.0g",1Value per 100 g,
Proximates
"Energy",kcal,--,--,0,0
"Protein",g,--,--,0.00,0.00
"Total lipid (fat)",g,--,--,0.00,0.00
"Carbohydrate, by difference",g,--,--,0.00,0.00
"Sugars, total",g,--,--,0.00,0.00
Minerals
"Sodium, Na",mg,--,--,46,13
Vitamins
Lipids
Amino Acids
Other
Ingredients
"CARBONATED WATER, CARAMEL COLOR, POTASSIUM BENZOATE (A PRESERVATIVE), NATURAL AND ARTIFICIAL FLAVOR, ASPARTAME, MALIC ACID, ACESULFAME POTASSIUM." Date available: 06/25/2017 Date last updated by company: 06/25/2017
