Source: USDA Branded Food Products Database Release December 2017 Software v.3.8.6.4 2017-10-02
Report Run at: December 18, 2017 22:27 EST
"Nutrient data for: 45155746, CAJILLIONS, THE TINY TASTY CHEWY CANDIES, WATERMELON, UPC: 048014010240"
Food Group:  Branded Food Products Database
Common Name:

Nutrient,Unit,Data points,Std. Error,"1 PACKAGE = 56.0g",1Value per 100 g,
Proximates
"Energy",kcal,--,--,220,393
"Protein",g,--,--,0.00,0.00
"Total lipid (fat)",g,--,--,2.00,3.57
"Carbohydrate, by difference",g,--,--,50.00,89.29
"Sugars, total",g,--,--,43.00,76.79
Minerals
"Sodium, Na",mg,--,--,15,27
Vitamins
Lipids
"Fatty acids, total saturated",g,--,--,1.501,2.680
"Fatty acids, total trans",g,--,--,0.000,0.000
Amino Acids
Other
Ingredients
"SUGAR, GLUCOSE SYRUP, HYDROGENATED PALM OIL, WATER, APPLE JUICE, CITRIC ACID, ARTIFICIAL FLAVOR, GUM ARABIC, MALIC ACID, CARNAUBA WAX, AND ARTIFICIAL COLOR (FD&C YELLOW 5, FD&C BLUE 1)." Date available: 07/14/2017 Date last updated by company: 07/14/2017
