Source: USDA Branded Food Products Database Release December 2017 Software v.3.8.6.4 2017-10-02
Report Run at: December 18, 2017 22:29 EST
"Nutrient data for: 45082964, CAJUN SPICE SEASONING, UPC: 070980191029"
Food Group:  Branded Food Products Database
Common Name:

Nutrient,Unit,Data points,Std. Error,"0.25 tsp = 0.9g",1Value per 100 g,
Proximates
"Energy",kcal,--,--,0,0
"Protein",g,--,--,0.00,0.00
"Total lipid (fat)",g,--,--,0.00,0.00
"Carbohydrate, by difference",g,--,--,0.00,0.00
Minerals
"Sodium, Na",mg,--,--,230,25556
Vitamins
"Vitamin A, IU",IU,--,--,5556,617278
Lipids
Amino Acids
Other
Ingredients
"SALT, PAPRIKA (COLOR), BLACK PEPPER, CAYENNE PEPPER, GARLIC, ONION, OREGANO, THYME, AND SILICON DIOXIDE." Date available: 06/25/2017 Date last updated by company: 06/25/2017
