Source: USDA Branded Food Products Database Release December 2017 Software v.3.8.6.4 2017-10-02
Report Run at: December 18, 2017 22:27 EST
"Nutrient data for: 45186017, CAJUN BLACK SEASONING, UPC: 741643039896"
Food Group:  Branded Food Products Database
Common Name:

Nutrient,Unit,Data points,Std. Error,"0.25 tsp = 6.0g",1Value per 100 g,
Proximates
"Energy",kcal,--,--,0,0
"Protein",g,--,--,0.00,0.00
"Total lipid (fat)",g,--,--,0.00,0.00
"Carbohydrate, by difference",g,--,--,0.00,0.00
"Fiber, total dietary",g,--,--,0.0,0.0
"Sugars, total",g,--,--,0.00,0.00
Minerals
"Sodium, Na",mg,--,--,110,1833
Vitamins
Lipids
"Cholesterol",mg,--,--,0,0
Amino Acids
Other
Ingredients
"SEA SALT, SPICES AND HERBS (PAPRIKA, BLACK PEPPER AND BASIL), DEHYDRATED ONION, DEHYDRATED GARLIC, CANE SUGAR, GROUND MUSTARD, NATURAL SMOKE FLAVOR, SILICON DIOXIDE (ADDED AS A FLOW AGENT)." Date available: 07/14/2017 Date last updated by company: 07/14/2017
