Source: USDA Branded Food Products Database Release December 2017 Software v.3.8.6.4 2017-10-02
Report Run at: December 18, 2017 22:31 EST
"Nutrient data for: 45184165, CAJUN STYLE SUMMER SAUSAGE, UPC: 073608038584"
Food Group:  Branded Food Products Database
Common Name:

Nutrient,Unit,Data points,Std. Error,"2.0 ONZ = 56.0g",1Value per 100 g,
Proximates
"Energy",kcal,--,--,200,357
"Protein",g,--,--,10.00,17.86
"Total lipid (fat)",g,--,--,17.00,30.36
"Carbohydrate, by difference",g,--,--,1.00,1.79
Minerals
"Iron, Fe",mg,--,--,1.64,2.93
"Sodium, Na",mg,--,--,720,1286
Vitamins
Lipids
"Fatty acids, total saturated",g,--,--,7.000,12.500
"Cholesterol",mg,--,--,45,80
Amino Acids
Other
Ingredients
"BEEF AND PORK, SALT, CONTAINS LESS THAN 2% OF FLAVORINGS, CORN SYRUP, DEXTROSE, PAPRIKA, LACTIC ACID STARTER CULTURE, SODIUM ERYTHORBATE, SODIUM NITRITE." Date available: 09/06/2017 Date last updated by company: 09/06/2017
