Source: USDA Branded Food Products Database Release December 2017 Software v.3.8.6.4 2017-10-02
Report Run at: December 18, 2017 22:34 EST
"Nutrient data for: 45228680, CAKE IN A JAR MIX, UPC: 819893024693"
Food Group:  Branded Food Products Database
Common Name:

Nutrient,Unit,Data points,Std. Error,"1 PACKAGE = 42.0g",1Value per 100 g,
Proximates
"Energy",kcal,--,--,170,405
"Protein",g,--,--,6.00,14.29
"Total lipid (fat)",g,--,--,3.00,7.14
"Carbohydrate, by difference",g,--,--,30.00,71.43
"Fiber, total dietary",g,--,--,1.0,2.4
"Sugars, total",g,--,--,19.00,45.24
Minerals
"Calcium, Ca",mg,--,--,150,357
"Iron, Fe",mg,--,--,0.68,1.63
"Sodium, Na",mg,--,--,160,381
Vitamins
"Vitamin C, total ascorbic acid",mg,--,--,2.3,5.4
"Vitamin A, IU",IU,--,--,3334,7937
Lipids
"Fatty acids, total saturated",g,--,--,1.499,3.570
"Fatty acids, total trans",g,--,--,0.000,0.000
"Cholesterol",mg,--,--,5,12
Amino Acids
Other
Ingredients
"MIX SUGAR, BLEACHED WHEAT FLOUR, WHEY PROTEIN CONCENTRATE, OAT FLOUR, FOOD STARCH MODIFIED, MONOCALCIUM PHOSPHATE, BAKING SODA, NATURAL FLAVOR, BETA CAROTENE (FOR COLOR), BEET COLOR (MALTODEXTRIN, BEET JUICE, CITRIC AND ASCORBIC ACID), SALT, GROUND CINNAMON CHOCOLATE CHIPS SEMI SWEET CHOCOLATE (SUGAR, CHOCOLATE, MILKFAT, COCOA BUTTER, SOY LECITHIN, NATURAL FLAVORS)." Date available: 07/14/2017 Date last updated by company: 07/14/2017
