Source: USDA Branded Food Products Database Release December 2017 Software v.3.8.6.4 2017-10-02
Report Run at: December 18, 2017 22:32 EST
"Nutrient data for: 45177464, CAKE BITES, UPC: 085239028056"
Food Group:  Branded Food Products Database
Common Name:

Nutrient,Unit,Data points,Std. Error,"2.0 COOKIES = 28.0g",1Value per 100 g,
Proximates
"Energy",kcal,--,--,120,429
"Protein",g,--,--,1.00,3.57
"Total lipid (fat)",g,--,--,5.00,17.86
"Carbohydrate, by difference",g,--,--,18.00,64.29
"Fiber, total dietary",g,--,--,0.0,0.0
"Sugars, total",g,--,--,11.00,39.29
Minerals
"Calcium, Ca",mg,--,--,0,0
"Iron, Fe",mg,--,--,1.29,4.59
"Sodium, Na",mg,--,--,60,214
Vitamins
"Vitamin C, total ascorbic acid",mg,--,--,6.4,22.9
"Vitamin A, IU",IU,--,--,0,0
Lipids
"Fatty acids, total saturated",g,--,--,2.500,8.930
"Fatty acids, total trans",g,--,--,0.000,0.000
"Cholesterol",mg,--,--,5,18
Amino Acids
Other
Ingredients
"WHITE CHOCOLATE FLAVORED COATING (SUGAR, VEGETABLE FAT [PALM AND/OR PALM KERNEL], NONFAT DRY MILK, WHOLE MILK POWDER, SOY LECITHIN [EMULSIFIER], TITANIUM DIOXIDE [COLOR], VANILLIN [ARTIFICIAL FLAVOR]), ENRICHED BLEACHED WHEAT FLOUR (BLEACHED WHEAT FLOUR, NIACIN, REDUCED IRON, THIAMINE MONONITRATE, RIBOFLAVIN, FOLIC ACID), SUGAR, APPLES, SOYBEAN OIL, EGGS, CONTAINS 2% OR LESS OF: MODIFIED FOOD STARCH, CORN STARCH, RICE FLOUR, PALM KERNEL OIL, PALM OIL, MONO- AND DIGLYCERIDES WITH BHT AND CITRIC ACID (PRESERVATIVES), SALT, LEAVENING (BAKING SODA, SODIUM ALUMINUM SULFATE, MONOCALCIUM PHOSPHATE), COLORS (BLUE 1, RED 40 LAKE, BLUE 2, YELLOW 6, RED 3, YELLOW 5, BLUE 1 LAKE, YELLOW 5 LAKE, YELLOW 6 LAKE, RED 40), NATURAL AND ARTIFICIAL FLAVORS, SODIUM PROPIONATE (PRESERVATIVE), WHEY, SOY LECITHIN, CARRAGEENAN, CELLULOSE GUM, CONFECTIONER'S GLAZE, CARNAUBA WAX." Date available: 07/14/2017 Date last updated by company: 07/14/2017
