Source: USDA Branded Food Products Database Release December 2017 Software v.3.8.6.4 2017-10-02
Report Run at: December 18, 2017 22:36 EST
"Nutrient data for: 45178980, CAKE, UPC: 728795156770"
Food Group:  Branded Food Products Database
Common Name:

Nutrient,Unit,Data points,Std. Error,"0.5 CAKE = 71.0g",1Value per 100 g,
Proximates
"Energy",kcal,--,--,262,369
"Protein",g,--,--,4.00,5.63
"Total lipid (fat)",g,--,--,3.00,4.23
"Carbohydrate, by difference",g,--,--,32.00,45.07
"Fiber, total dietary",g,--,--,0.0,0.0
"Sugars, total",g,--,--,8.00,11.27
Minerals
"Calcium, Ca",mg,--,--,30,42
"Iron, Fe",mg,--,--,0.61,0.86
"Sodium, Na",mg,--,--,237,334
Vitamins
"Vitamin C, total ascorbic acid",mg,--,--,0.0,0.0
"Vitamin A, IU",IU,--,--,169,238
Lipids
"Fatty acids, total saturated",g,--,--,3.003,4.230
"Fatty acids, total trans",g,--,--,0.000,0.000
"Cholesterol",mg,--,--,50000,70423
Amino Acids
Other
Ingredients
"ENRICHED WHEAT FLOUR (FERROUS SULFATE, NIACIN, THIAMINE MONONITRATE, RIBOFLAVIN, FOLIC ACID), SUGAR, WATER, WHOLE EGGS, SOYBEAN OIL, RAISINS, WHEY, CORN STARCH, BAKING POWDER, (LEAVENING), BAKING SODA, WHEAT GLUTEN, SALT, LECITHIN, MONO AND DIGLYCERIDES, NATURAL AND ARTIFICIAL FLAVORS, POTASSIUM SORBATE AND SODIUM PROPIONATE ADDED AS A (PRESERVATIVE) TO RETAIN FRESHNESS)." Date available: 10/13/2017 Date last updated by company: 10/13/2017
