Source: USDA Branded Food Products Database Release December 2017 Software v.3.8.6.4 2017-10-02
Report Run at: December 18, 2017 22:34 EST
"Nutrient data for: 45019801, CAKE MATE, SHIMMERING RED GLITTER ICING, UPC: 071169813473"
Food Group:  Branded Food Products Database
Common Name:

Nutrient,Unit,Data points,Std. Error,"1 tsp = 5.0g",1Value per 100 g,
Proximates
"Energy",kcal,--,--,20,400
"Protein",g,--,--,0.00,0.00
"Total lipid (fat)",g,--,--,1.00,20.00
"Carbohydrate, by difference",g,--,--,3.00,60.00
"Fiber, total dietary",g,--,--,0.0,0.0
"Sugars, total",g,--,--,3.00,60.00
Minerals
"Calcium, Ca",mg,--,--,0,0
"Iron, Fe",mg,--,--,0.00,0.00
"Sodium, Na",mg,--,--,0,0
Vitamins
"Vitamin C, total ascorbic acid",mg,--,--,0.0,0.0
"Vitamin A, IU",IU,--,--,0,0
Lipids
"Fatty acids, total saturated",g,--,--,0.000,0.000
"Fatty acids, total trans",g,--,--,0.000,0.000
"Cholesterol",mg,--,--,0,0
Amino Acids
Other
Ingredients
"SUGAR, CORN SYRUP, PARTIALLY HYDROGENATED VEGETABLE OIL (SOYBEAN, COTTONSEED), WATER, MALTODEXTRIN, MODIFIED POTATO STARCH, CORNSTARCH, ARTIFICIAL COLOR, POLYGLYCEROL ESTERS, NATURAL & ARTIFICIAL FLAVOR, GUM ARABIC, SALT, RED 40 LAKE, POTASSIUM SORBATE (PRESERVATIVE), CITRIC ACID, RED 3." Date available: 07/14/2017 Date last updated by company: 07/14/2017
