Source: USDA Branded Food Products Database Release December 2017 Software v.3.8.6.4 2017-10-02
Report Run at: December 18, 2017 22:37 EST
"Nutrient data for: 45268929, CAKE, UPC: 824153027604"
Food Group:  Branded Food Products Database
Common Name:

Nutrient,Unit,Data points,Std. Error,"3.0 ONZ = 85.0g",1Value per 100 g,
Proximates
"Energy",kcal,--,--,310,365
"Protein",g,--,--,3.00,3.53
"Total lipid (fat)",g,--,--,10.00,11.76
"Carbohydrate, by difference",g,--,--,54.00,63.53
"Fiber, total dietary",g,--,--,2.0,2.4
"Sugars, total",g,--,--,29.00,34.12
Minerals
"Calcium, Ca",mg,--,--,20,24
"Iron, Fe",mg,--,--,0.34,0.40
"Sodium, Na",mg,--,--,180,212
Vitamins
"Vitamin C, total ascorbic acid",mg,--,--,0.0,0.0
"Vitamin A, IU",IU,--,--,0,0
Lipids
"Fatty acids, total saturated",g,--,--,4.003,4.710
"Fatty acids, total trans",g,--,--,0.000,0.000
"Cholesterol",mg,--,--,25,29
Amino Acids
Other
Ingredients
"GLACE PINEAPPLE (PINEAPPLE, CORN SYRUP, HIGH FRUCTOSE CORN SYRUP, WATER, CITRIC ACID, NATURAL & ARTIFICIAL FLAVOR, POTASSIUM SORBATE & SODIUM BENZOATE [PRESERVATIVES], OLEORESIN TURMERIC [COLOR], SULFUR DIOXIDE [PRESERVATIVE]), FLOUR (BLEACHED WHEAT FLOUR, MALTED BARLEY FLOUR, NIACIN, REDUCED IRON, THIAMINE MONONITRATE, RIBOFLAVIN, FOLIC ACID), MACADAMIA NUTS, WHOLE EGG, SUGAR, SWEETENED COCONUT (COCONUT, SUGAR, WATER, PROPYLENE GLYCOL, SODIUM METABISULFITE [TO RETAIN WHITENESS]), BUTTER (CREAM, SALT), WATER, NONFAT DRY MILK, HONEY, SALT, POTASSIUM SORBATE [PRESERVATIVE], YELLOW 5, YELLOW 6." Date available: 07/14/2017 Date last updated by company: 07/14/2017
