Source: USDA Branded Food Products Database Release December 2017 Software v.3.8.6.4 2017-10-02
Report Run at: December 18, 2017 22:39 EST
"Nutrient data for: 45175193, CALAVO, ORGANIC GUACAMOLE SEASONING, MILD, UPC: 070740620189"
Food Group:  Branded Food Products Database
Common Name:

Nutrient,Unit,Data points,Std. Error,"2.0 Tbsp = 30.0g",1Value per 100 g,
Proximates
"Energy",kcal,--,--,50,167
"Protein",g,--,--,1.00,3.33
"Total lipid (fat)",g,--,--,4.50,15.00
"Carbohydrate, by difference",g,--,--,3.00,10.00
"Fiber, total dietary",g,--,--,2.0,6.7
"Sugars, total",g,--,--,0.00,0.00
Minerals
"Calcium, Ca",mg,--,--,0,0
"Iron, Fe",mg,--,--,0.00,0.00
"Potassium, K",mg,--,--,150,500
"Sodium, Na",mg,--,--,110,367
Vitamins
"Vitamin C, total ascorbic acid",mg,--,--,4.0,13.3
"Vitamin A, IU",IU,--,--,0,0
Lipids
"Fatty acids, total saturated",g,--,--,0.501,1.670
"Fatty acids, total trans",g,--,--,0.000,0.000
"Cholesterol",mg,--,--,0,0
Amino Acids
Other
Ingredients
"ORGANIC HASS AVOCADO, SEA SALT, ORGANIC ONION, ORGANIC GARLIC, ORGANIC JALAPENO PEPPER, ORGANIC LIME JUICE." Date available: 07/14/2017 Date last updated by company: 07/14/2017
