Source: USDA Branded Food Products Database Release December 2017 Software v.3.8.6.4 2017-10-02
Report Run at: December 18, 2017 22:39 EST
"Nutrient data for: 45032019, CALAVO, FIESTA GUACAMOLE, UPC: 070740610142"
Food Group:  Branded Food Products Database
Common Name:

Nutrient,Unit,Data points,Std. Error,"2.0 Tbsp = 30.0g",1Value per 100 g,
Proximates
"Energy",kcal,--,--,45,150
"Protein",g,--,--,1.00,3.33
"Total lipid (fat)",g,--,--,4.00,13.33
"Carbohydrate, by difference",g,--,--,3.00,10.00
"Fiber, total dietary",g,--,--,2.0,6.7
"Sugars, total",g,--,--,1.00,3.33
Minerals
"Calcium, Ca",mg,--,--,0,0
"Iron, Fe",mg,--,--,0.00,0.00
"Sodium, Na",mg,--,--,110,367
Vitamins
"Vitamin C, total ascorbic acid",mg,--,--,10.0,33.3
"Vitamin A, IU",IU,--,--,0,0
Lipids
"Fatty acids, total saturated",g,--,--,0.501,1.670
"Fatty acids, total trans",g,--,--,0.000,0.000
"Cholesterol",mg,--,--,0,0
Amino Acids
Other
Ingredients
"HASS AVOCADO, RED BELL PEPPER, JALAPENO PEPPER SUGAR, ONION, SALT, CILANTRO DEHYDRATED, SODIUM ALIGINATE, CITRIC ACID, XANTHAN GUM ASCORBIC ACID (VITAMIN C), GARLIC." Date available: 06/24/2017 Date last updated by company: 06/24/2017
