Source: USDA Branded Food Products Database Release December 2017 Software v.3.8.6.4 2017-10-02
Report Run at: December 18, 2017 22:41 EST
"Nutrient data for: 45166824, CALIFIA FARMS, LIGHT + REFRESHING FRUIT DRINK, WATERMELON,GINGER & LIME, UPC: 852909003763"
Food Group:  Branded Food Products Database
Common Name:

Nutrient,Unit,Data points,Std. Error,"8.0 OZA = 237.0g",1Value per 100 g,
Proximates
"Energy",kcal,--,--,50,21
"Protein",g,--,--,0.00,0.00
"Total lipid (fat)",g,--,--,0.00,0.00
"Carbohydrate, by difference",g,--,--,13.01,5.49
"Fiber, total dietary",g,--,--,0.0,0.0
"Sugars, total",g,--,--,11.99,5.06
Minerals
"Calcium, Ca",mg,--,--,0,0
"Iron, Fe",mg,--,--,0.00,0.00
"Sodium, Na",mg,--,--,9,4
Vitamins
"Vitamin C, total ascorbic acid",mg,--,--,0.0,0.0
"Vitamin A, IU",IU,--,--,0,0
Lipids
"Fatty acids, total saturated",g,--,--,0.000,0.000
"Fatty acids, total trans",g,--,--,0.000,0.000
"Cholesterol",mg,--,--,0,0
Amino Acids
Other
Ingredients
"WATER, PEAR JUICE FROM CONCENTRATE, WATERMELON JUICE FROM CONCENTRATE, PURE CANE SUGAR, LIME JUICE FROM CONCENTRATE, NATURAL FLAVORS, GINGER JUICE, MONK FRUIT EXTRACT, VEGETABLE JUICE FOR COLOR." Date available: 07/14/2017 Date last updated by company: 07/14/2017
