Source: USDA Branded Food Products Database Release December 2017 Software v.3.8.6.4 2017-10-02
Report Run at: December 18, 2017 22:43 EST
"Nutrient data for: 45202621, CALIFORNIA BROCCOLI SALAD, UPC: 782796023271"
Food Group:  Branded Food Products Database
Common Name:

Nutrient,Unit,Data points,Std. Error,"0.66 cup = 100.0g",1Value per 100 g,
Proximates
"Energy",kcal,--,--,200,200
"Protein",g,--,--,4.00,4.00
"Total lipid (fat)",g,--,--,15.00,15.00
"Carbohydrate, by difference",g,--,--,13.00,13.00
"Fiber, total dietary",g,--,--,1.0,1.0
"Sugars, total",g,--,--,8.00,8.00
Minerals
"Calcium, Ca",mg,--,--,40,40
"Iron, Fe",mg,--,--,1.01,1.01
"Sodium, Na",mg,--,--,210,210
Vitamins
"Vitamin C, total ascorbic acid",mg,--,--,67.2,67.2
"Vitamin A, IU",IU,--,--,2100,2100
Lipids
"Fatty acids, total saturated",g,--,--,2.500,2.500
"Fatty acids, total trans",g,--,--,0.000,0.000
"Cholesterol",mg,--,--,15,15
Amino Acids
Other
Ingredients
"BROCCOLI, BROCCOLI SALAD DRESSING (MAYONNAISE (VEGETABLE OIL [SOYBEAN, CANOLA], WATER, DISTILLED VINEGAR, EGG YOLK, SUGAR, SALT, SPICE, CALCIUM DISODIUM (EDTA TO PROTECT FLAVOR)), MAYONNAISE (WATER, VEGETABLE OIL (SOYBEAN AND/OR CANOLA), DISTILLED VINEGAR, EGG YOLK, MODIFIED FOOD STARCH, HIGH FRUCTOSE CORN SYRUP, CONTAINS LESS THAN 2% OF: SALT, POTASSIUM SORBATE AND SODIUM BENZOATE AS PRESERVATIVES, SPICE, XANTHAN GUM, LEMON JUICE CONCENTRATE, LACTIC ACID, DEXTROSE), SOUR CREAM (CULTURED CREAM, MODIFIED CORN STARCH, SODIUM PHOSPHATE, GUAR GUM, CARRAGEENAN, LOCUST BEAN GUM), WHITE VINEGAR (REDUCED WITH WATER TO 5% ACIDITY), SUGAR), MANDARIN ORANGES (MANDARIN ORANGE SEGMENTS, WATER, SUGAR), RED ONION, CASHEWS (CASHEWS, SALT, PEANUT OIL), BACON (BACON (CURED WITH WATER, SALT, SUGAR, SODIUM ERYTHORBATE, SODIUM NITRATE), MAY ALSO CONTAIN POTASSIUM CHLORIDE, DEXTROSE, SMOKE FLAVORING, SODIUM PHOSPHATES, HONEY, SODIUM PHOSPHATES, HONEY, SODIUM DIACETATE)), CRANBERRIES (CRANBERRIES, SUGAR, SUNFLOWER OIL)." Date available: 07/14/2017 Date last updated by company: 07/14/2017
