Source: USDA Branded Food Products Database Release December 2017 Software v.3.8.6.4 2017-10-02
Report Run at: December 18, 2017 22:48 EST
"Nutrient data for: 45053417, CALIFORNIA NAVEL ORANGES, UPC: 041497071074"
Food Group:  Branded Food Products Database
Common Name:

Nutrient,Unit,Data points,Std. Error,"1 MEDIUM ORANGE = 154.0g",1Value per 100 g,
Proximates
"Energy",kcal,--,--,80,52
"Protein",g,--,--,1.00,0.65
"Total lipid (fat)",g,--,--,0.00,0.00
"Carbohydrate, by difference",g,--,--,19.00,12.34
"Fiber, total dietary",g,--,--,2.9,1.9
"Sugars, total",g,--,--,14.00,9.09
Minerals
"Calcium, Ca",mg,--,--,60,39
"Iron, Fe",mg,--,--,0.00,0.00
"Potassium, K",mg,--,--,249,162
"Sodium, Na",mg,--,--,0,0
Vitamins
"Vitamin C, total ascorbic acid",mg,--,--,70.8,46.0
"Vitamin A, IU",IU,--,--,91,59
Lipids
"Fatty acids, total saturated",g,--,--,0.000,0.000
"Fatty acids, total trans",g,--,--,0.000,0.000
"Cholesterol",mg,--,--,0,0
Amino Acids
Other
Ingredients
"ORANGES." Date available: 10/04/2017 Date last updated by company: 10/04/2017
