Source: USDA Branded Food Products Database Release December 2017 Software v.3.8.6.4 2017-10-02
Report Run at: December 18, 2017 22:52 EST
"Nutrient data for: 45221498, CALIFORNIA TURKEY CLUB, UPC: 811155021747"
Food Group:  Branded Food Products Database
Common Name:

Nutrient,Unit,Data points,Std. Error,"1 SANDWICH = 238.0g",1Value per 100 g,
Proximates
"Energy",kcal,--,--,440,185
"Protein",g,--,--,30.01,12.61
"Total lipid (fat)",g,--,--,15.99,6.72
"Carbohydrate, by difference",g,--,--,46.01,19.33
"Fiber, total dietary",g,--,--,1.9,0.8
"Sugars, total",g,--,--,3.00,1.26
Minerals
"Calcium, Ca",mg,--,--,200,84
"Iron, Fe",mg,--,--,2.64,1.11
"Sodium, Na",mg,--,--,1630,685
Vitamins
"Vitamin C, total ascorbic acid",mg,--,--,2.1,0.9
"Vitamin A, IU",IU,--,--,588,247
Lipids
"Fatty acids, total saturated",g,--,--,5.998,2.520
"Fatty acids, total trans",g,--,--,0.000,0.000
"Cholesterol",mg,--,--,67,28
Amino Acids
Other
Ingredients
"CIABATTA (UNBLEACHED UNBROMATED WHEAT FLOUR [MALTED BARLEY FLOUR, NIACIN, IRON {REDUCED}, THIAMINE MONONITRATE, RIBOFLAVIN, AND FOLIC ACID], FILTERED WATER, SEMOLINA FLOUR, LEVAIN, OLIVE OIL, CONTAINS 2% OR LESS OF SALT, YEAST, MALT), TURKEY BREAST (TURKEY BREAST, TURKEY BROTH, CONTAINS 2% OR LESS OF SALT, DEXTROSE, TAPIOCA STARCH, MODIFIED FOOD STARCH, CARRAGEENAN, SODIUM PHOSPHATE, VEGETABLE OIL), MUENSTER CHEESE (CULTURED PASTEURIZED MILK, SALT, ENZYMES, ANNATTO [COLOR]), AVOCADO SPREAD (AVOCADOS, TOMATILLOS, ONIONS, DEHYDRATED RED BELL PEPPER, JALAPENO PUREE [WHITE VINEGAR, JALAPENO PEPPERS, SALT], DEHYDRATED ONION, SALT, GRANULATED GARLIC, JALAPENO PEPPER, CILANTRO, GARLIC, CITRIC ACID, SPICES, SUGAR), SPINACH, BACON (PORK, WATER, SALT, SUGAR, SODIUM PHOSPHATES, SODIUM ERYTHORBATE SODIUM NITRITE)." Date available: 07/14/2017 Date last updated by company: 07/14/2017
