Source: USDA Branded Food Products Database Release December 2017 Software v.3.8.6.4 2017-10-02
Report Run at: December 18, 2017 22:50 EST
"Nutrient data for: 45225803, CALIFORNIA RIPE OLIVES, UPC: 072999483638"
Food Group:  Branded Food Products Database
Common Name:

Nutrient,Unit,Data points,Std. Error,"2.0 Tbsp = 16.0g",1Value per 100 g,
Proximates
"Energy",kcal,--,--,25,156
"Total lipid (fat)",g,--,--,2.00,12.50
"Carbohydrate, by difference",g,--,--,1.00,6.25
Minerals
"Sodium, Na",mg,--,--,95,594
Vitamins
Lipids
"Fatty acids, total saturated",g,--,--,0.000,0.000
"Fatty acids, total monounsaturated",g,--,--,1.501,9.380
"Fatty acids, total polyunsaturated",g,--,--,0.000,0.000
"Fatty acids, total trans",g,--,--,0.000,0.000
"Cholesterol",mg,--,--,0,0
Amino Acids
Other
Ingredients
"OLIVES, WATER, SEA SALT, AND FERROUS GLUCONATE (AN IRON DERIVATIVE)." Date available: 09/25/2017 Date last updated by company: 09/25/2017
