Source: USDA Branded Food Products Database Release December 2017 Software v.3.8.6.4 2017-10-02
Report Run at: December 18, 2017 22:52 EST
"Nutrient data for: 45157090, CALIFORNIA SUNGOLD PISTACHIOS, LEMONCELLO ROASTED ALMONDS COVERED IN WHITE CHOCOLATE AND LEMON CREAM, UPC: 041994066078"
Food Group:  Branded Food Products Database
Common Name:

Nutrient,Unit,Data points,Std. Error,"1.4 ONZ = 40.0g",1Value per 100 g,
Proximates
"Energy",kcal,--,--,220,550
"Protein",g,--,--,4.00,10.00
"Total lipid (fat)",g,--,--,15.00,37.50
"Carbohydrate, by difference",g,--,--,20.00,50.00
"Fiber, total dietary",g,--,--,1.0,2.5
"Sugars, total",g,--,--,18.00,45.00
Minerals
"Calcium, Ca",mg,--,--,80,200
"Iron, Fe",mg,--,--,0.90,2.25
"Sodium, Na",mg,--,--,15,38
Vitamins
"Vitamin C, total ascorbic acid",mg,--,--,0.0,0.0
"Vitamin A, IU",IU,--,--,0,0
Lipids
"Fatty acids, total saturated",g,--,--,6.000,15.000
"Fatty acids, total trans",g,--,--,0.000,0.000
"Cholesterol",mg,--,--,5,12
Amino Acids
Other
Ingredients
"WHITE CHOCOLATE (SUGAR, COCOA BUTTER, WHOLE MILK POWDER, SOY LECITHIN - AN EMULSIFIER, NATURAL VANILLA FLAVOR), ALMONDS, CONFECTIONERS COATING (SUGAR, PALM KERNEL OIL, NONFAT MILK POWDER, ANHYDROUS MILKFAT, NATURAL FLAVOR, SOY LECITHIN - AN EMULSIFIER), CREAM (MILK), TAPIOCA DEXTRIN, NATURAL LEMON FLAVOR, COLOR ADDED (FD&C YELLOW 5 LAKE), CONFECTIONERS GLAZE" Date available: 07/14/2017 Date last updated by company: 07/14/2017
