Source: USDA Branded Food Products Database Release December 2017 Software v.3.8.6.4 2017-10-02
Report Run at: December 18, 2017 22:56 EST
"Nutrient data for: 45328776, CALZONE MEATBALL, UPC: 052083621108"
Food Group:  Branded Food Products Database
Common Name:

Nutrient,Unit,Data points,Std. Error,"0.5 CALZONE = 113.0g",1Value per 100 g,
Proximates
"Energy",kcal,--,--,299,265
"Protein",g,--,--,12.00,10.62
"Total lipid (fat)",g,--,--,14.00,12.39
"Carbohydrate, by difference",g,--,--,30.00,26.55
"Fiber, total dietary",g,--,--,2.0,1.8
"Sugars, total",g,--,--,2.00,1.77
Minerals
"Calcium, Ca",mg,--,--,150,133
"Iron, Fe",mg,--,--,4.66,4.12
"Sodium, Na",mg,--,--,600,531
Vitamins
"Vitamin C, total ascorbic acid",mg,--,--,6.2,5.5
"Vitamin A, IU",IU,--,--,345,305
Lipids
"Fatty acids, total saturated",g,--,--,4.995,4.420
"Fatty acids, total trans",g,--,--,0.000,0.000
"Cholesterol",mg,--,--,25,22
Amino Acids
Other
Ingredients
"DOUGH: ENRICHED UNBLEACHED WHEAT FLOUR (WHEAT FLOUR, NIACIN, IRON, THIAMINE MONONITRATE, RIBOFLAVIN, FOLIC ACID), WATER, SOYBEAN OIL (WITH CITRIC ACID ADDED AS A PRESERVATIVE), DOUGH CONDITIONER (SALT, WHEAT FLOUR, DEXTROSE, MONO AND DIGLYCERIDES, ASCORBIC ACID, L-CYSTEINE), PALM OIL, YEAST (YEAST, SORBITAN MONOSTEARATE, ASCORBIC ACID). FILLING: MEATBALLS (BEEF, PORK, WATER, BREAD CRUMBS [WHEAT FLOUR, WATER, SALT, YEAST, ALSO MAY CONTAIN LESS THAN 2% PARTIALLY HYDROGENATED SOYBEAN AND/OR COTTONSEED OILS, AMMONIUM CHLORIDE, CALCIUM PROPIONATE], TEXTURED SOY PROTEIN [SOY PROTEIN CONCENTRATE, CARAMEL COLOR], ROMANO CHEESE, [COW'S MILK, CULTURE, SALT, ENZYMES], EGG WHITES, RICOTTA CHEESE [WHEY, PART SKIM MILK, CREAM, VINEGAR, XANTHAN GUM, LOCUST BEAN GUM AND GUAR GUM {STABILIZERS}], SALT, GARLIC, PARSLEY, SPICES, CARAMEL COLOR, BROWN SUGAR, DISODIUM INOSINATE AND DISODIUM GUANYLATE, BHA, BHT, CITRIC ACID, SOY LECITHIN AS PROCESSING AID. MAY CONTAIN FLAVORINGS, DRIED WHOLE EGGS, MONOSODIUM GLUTAMATE), PIZZA SAUCE (CRUSHED TOMATOES [WATER, CONCENTRATED CRUSHED TOMATOES], TOMATO PUREE [WATER, TOMATO PASTE], DICED TOMATOES, SUGAR, SALT, SOYBEAN OIL, SPICES, FOOD CORN MODIFIED, PARMESAN CHEESE FLAVOR [PARMESAN CHEESE {MILK, CHEESE CULTURES, SALT, ENZYMES}, WATER, DISODIUM PHOSPHATE, ENZYMES], GARLIC, ONION POWDER, GRANULATED GARLIC, CITRIC ACID), PROVOLONE CHEESE (PASTEURIZED MILK, CULTURES, SALT, ENZYMES), PART SKIM MOZZARELLA CHEESE (PASTEURIZED PART SKIM MILK, CULTURES, SALT, ENZYMES), RICOTTA CHEESE (WHEY, WHOLE MILK, CREAM, VINEGAR, AND XANTHAN GUM, LOCUST BEAN GUM, GUAR GUM [STABILIZERS]), PARMESAN & ROMANO CHEESE BLEND (PARMESAN CHEESE [MADE FROM COW'S MILK, SALT, ENZYMES], ROMANO CHEESE [MADE FROM COW'S MILK, SALT, ENZYMES], POWDERED CELLULOSE/STARCH BLEND ADDED TO PREVENT CAKING), SOYBEAN OIL (WITH CITRIC ACID ADDED AS A PRESERVATIVE), BLACK PEPPER. TOPPING: PARMESAN & ROMANO CHEESE BLEND (PARMESAN CHEESE [MADE FROM COW'S MILK, SALT, ENZYMES], ROMANO CHEESE [MADE FROM COW'S MILK, SALT, ENZYMES], POWDERED CELLULOSE/STARCH BLEND ADDED TO PREVENT CAKING), BREAD CRUMBS (BLEACHED FLOUR, WATER, VEGETABLE SHORTENING [ONE OR MORE OF THE FOLLOWING: PARTIALLY HYDROGENATED SOYBEAN OIL AND/OR COTTON SEED OIL], SALT, YEAST, CONTAINS 2% OR LESS OF THE FOLLOWING: SUGAR, DEXTROSE), PARSLEY, OREGANO" Date available: 10/13/2017 Date last updated by company: 10/13/2017
