Source: USDA Branded Food Products Database Release December 2017 Software v.3.8.6.4 2017-10-02
Report Run at: December 18, 2017 22:57 EST
"Nutrient data for: 45331081, CALZONE, UPC: 799847007876"
Food Group:  Branded Food Products Database
Common Name:

Nutrient,Unit,Data points,Std. Error,"1 CALZONE = 198.0g",1Value per 100 g,
Proximates
"Energy",kcal,--,--,610,308
"Protein",g,--,--,25.01,12.63
"Total lipid (fat)",g,--,--,30.00,15.15
"Carbohydrate, by difference",g,--,--,59.00,29.80
"Fiber, total dietary",g,--,--,2.0,1.0
"Sugars, total",g,--,--,7.01,3.54
Minerals
"Calcium, Ca",mg,--,--,400,202
"Iron, Fe",mg,--,--,1.43,0.72
"Sodium, Na",mg,--,--,1301,657
Vitamins
"Vitamin C, total ascorbic acid",mg,--,--,14.8,7.5
"Vitamin A, IU",IU,--,--,493,249
Lipids
"Fatty acids, total saturated",g,--,--,13.009,6.570
"Fatty acids, total trans",g,--,--,0.495,0.250
"Cholesterol",mg,--,--,50,25
Amino Acids
Other
Ingredients
"DOUGH (ENRICHED FLOUR (WHEAT FLOUR, MALTED BARLEY FLOUR, NIACIN, REDUCED IRON, THIAMINE MONONITRATE, RIBOFLAVIN, FOLIC ACID), WATER, DOUGH CONDITIONER (RICE FLOUR, SUGAR, SWEET DAIRY WHEY (MILK), VITAL WHEAT GLUTEN, SALT, INTERESTERIFIED SOYBEAN OIL, POWDERED CELLULOSE, SOY FLOUR, CALCIUM PROPIONATE, DIACETYL TARTARIC ACID ESTERS OF MONO AND DIGLYCERIDES (DATEM), SODIUM CARBOXYMETHYLCELLULOSE, DEXTROSE, MONOCALCIUM PHOSPHATE, AMMONIUM SULFATE, CALCIUM SULFATE, ASCORBIC ACID, L-CYSTEINE, DOUGH CONDITIONER (WHEAT STARCH, AZODICARBONAMIDE (A.D.A.), TRICALCIUM PHOSPHATE, SILICON DIOXIDE (USED AS A FLOW AGENT)), PARMESAN CHEESE (CULTURED, PASTEURIZED PART-SKIM MILK, SALT, ENZYMES), POWDERED CELLULOSE (ADDED TO PREVENT CAKING), SOYBEAN OIL, PALM OIL, YEAST (YEAST, SORBITAN MONOSTEARATE, ASCORBIC ACID), VITAL WHEAT GLUTEN), FILLING (PEPPERONI (PORK AND BEEF, SALT, CONTAINS 2% OR LESS OF WATER, DEXTROSE, SPICES, LACTIC ACID STARTER CULTURE, OLEORESIN OF PAPRIKA, GARLIC POWDER, SODIUM NITRITE, BHA, BHT, CITRIC ACID), MOZZARELLA CHEESE (PASTEURIZED PART SKIM MILK, CHEESE CULTURES, SALT, ENZYMES, SORBIC ACID (A PRESERVATIVE)), TOMATO PASTE, WATER, SUGAR, MODIFIED FOOD STARCH, SEASONING (SALT, SUGAR, GARLIC, SPICES), MODIFIED FOOD STARCH, METHYLCELLULOSE), TOPPING (BREAD CRUMBS (BLEACHED WHEAT FLOUR, DEXTROSE, YEAST, SALT), PARMESAN CHEESE (CULTURED, PASTEURIZED PART-SKIM MILK, SALT, ENZYMES), POWDERED CELLULOSE (ADDED TO PREVENT CAKING))." Date available: 10/13/2017 Date last updated by company: 10/13/2017
