Source: USDA Branded Food Products Database Release December 2017 Software v.3.8.6.4 2017-10-02
Report Run at: December 18, 2017 23:05 EST
"Nutrient data for: 45135222, CAMPBELL'S SOUP BEEF BARLEY, UNPREPARED, GTIN: 00051000204806"
Food Group:  Branded Food Products Database
Common Name:

Nutrient,Unit,Data points,Std. Error,"1 cup = 245.0g",1Value per 100 g,
Proximates
"Energy",kcal,--,--,130,53
"Protein",g,--,--,7.01,2.86
"Total lipid (fat)",g,--,--,1.00,0.41
"Carbohydrate, by difference",g,--,--,23.01,9.39
"Fiber, total dietary",g,--,--,2.9,1.2
"Sugars, total",g,--,--,2.99,1.22
Minerals
"Calcium, Ca",mg,--,--,37,15
"Iron, Fe",mg,--,--,2.01,0.82
"Sodium, Na",mg,--,--,789,322
Vitamins
"Vitamin C, total ascorbic acid",mg,--,--,1.2,0.5
"Vitamin A, IU",IU,--,--,1499,612
Lipids
"Fatty acids, total saturated",g,--,--,0.00,0.00
"Fatty acids, total trans",g,--,--,0.00,0.00
"Cholesterol",mg,--,--,10,4
Amino Acids
Other
Ingredients
"BEEF STOCK, WATER, CARROTS, POTATOES, SEASONED BEEF (CONTAINS UP TO 10% OF A SOLUTION OF WATER, SALT, SODIUM PHOSPHATE), TOASTED BARLEY, CELERY, CORN, PEAS, CONTAINS LESS THAN 2% OF: TOMATO PUREE (WATER, TOMATO PASTE), MODIFIED FOOD STARCH, DEHYDRATED ONIONS, SALT, YEAST EXTRACT, MONOSODIUM GLUTAMATE, HYDROLYZED SOY PROTEIN, CARAMEL COLOR, HYDROLYZED CORN PROTEIN, FLAVORING, SPICE, BEEF FAT, CITRIC ACID, HYDROLYZED WHEAT GLUTEN, CELERY EXTRACT, BUTTER (CREAM [MILK], LACTIC ACID, CITRIC ACID), GARLIC EXTRACT." Date last updated by company: 10/21/2016
