Source: USDA Branded Food Products Database Release December 2017 Software v.3.8.6.4 2017-10-02
Report Run at: December 18, 2017 23:00 EST
"Nutrient data for: 45135527, CAMPBELL'S CHUNKY SOUP SIR BURG/VEG, UNPREPARED, GTIN: 00051000148797"
Food Group:  Branded Food Products Database
Common Name:

Nutrient,Unit,Data points,Std. Error,"1 cup = 245.0g",1Value per 100 g,
Proximates
"Energy",kcal,--,--,130,53
"Protein",g,--,--,7.01,2.86
"Total lipid (fat)",g,--,--,3.99,1.63
"Carbohydrate, by difference",g,--,--,17.00,6.94
"Fiber, total dietary",g,--,--,2.9,1.2
"Sugars, total",g,--,--,2.99,1.22
Minerals
"Calcium, Ca",mg,--,--,32,13
"Iron, Fe",mg,--,--,1.00,0.41
"Sodium, Na",mg,--,--,789,322
Vitamins
"Vitamin C, total ascorbic acid",mg,--,--,0.0,0.0
"Vitamin A, IU",IU,--,--,1499,612
Lipids
"Fatty acids, total saturated",g,--,--,1.49,0.61
"Fatty acids, total trans",g,--,--,0.00,0.00
"Cholesterol",mg,--,--,20,8
Amino Acids
Other
Ingredients
"WATER, CARROTS, BEEF STOCK, POTATOES, SEASONED BEEF SIRLOIN BURGERS (SIRLOIN BEEF, RECONSTITUTED ONIONS, POTATO EXTRACT, SALT, MONOSODIUM GLUTAMATE, FLAVORING, MUSTARD), TOMATO PUREE (WATER, TOMATO PASTE), GREEN BEANS, PEAS, CONTAINS LESS THAN 2% OF: MODIFIED FOOD STARCH, SALT, WHEAT FLOUR, YEAST EXTRACT, CARAMEL COLOR, FLAVORING, FERMENTED WHEY (MILK), SPICE, ONION OIL" Date last updated by company: 10/21/2016
