Source: USDA Branded Food Products Database Release December 2017 Software v.3.8.6.4 2017-10-02
Report Run at: December 18, 2017 22:58 EST
"Nutrient data for: 45135369, CAMPBELL'S CHUNKY SOUP BBQ CHICKEN, UNPREPARED, GTIN: 00051000230898"
Food Group:  Branded Food Products Database
Common Name:

Nutrient,Unit,Data points,Std. Error,"1 cup = 245.0g",1Value per 100 g,
Proximates
"Energy",kcal,--,--,211,86
"Protein",g,--,--,11.00,4.49
"Total lipid (fat)",g,--,--,2.01,0.82
"Carbohydrate, by difference",g,--,--,36.99,15.10
"Fiber, total dietary",g,--,--,5.9,2.4
"Sugars, total",g,--,--,13.01,5.31
Minerals
"Calcium, Ca",mg,--,--,74,30
"Iron, Fe",mg,--,--,2.01,0.82
"Sodium, Na",mg,--,--,789,322
Vitamins
"Vitamin C, total ascorbic acid",mg,--,--,0.0,0.0
"Vitamin A, IU",IU,--,--,500,204
Lipids
"Fatty acids, total saturated",g,--,--,0.00,0.00
"Fatty acids, total trans",g,--,--,0.00,0.00
"Cholesterol",mg,--,--,15,6
Amino Acids
Other
Ingredients
"WATER, TOMATO PUREE (WATER, TOMATO PASTE), PEA BEANS, CORN, CHICKEN MEAT, DICED TOMATOES IN TOMATO JUICE, BROWN SUGAR (SUGAR, INVERT SUGAR, MOLASSES), JALAPENO PEPPERS, CONTAINS LESS THAN 2% OF: CHIPOTLE ADOBO PUREE (WATER, ONION, DEHYDRATED CHIPOTLE PEPPERS, TOMATO PASTE, CANOLA OIL, SUGAR, VINEGAR, SALT, GARLIC, NATURAL SMOKE FLAVORING, SPICE), MODIFIED FOOD STARCH, DEHYDRATED ONIONS, SALT, DISTILLED VINEGAR, SMOKED PAPRIKA, CARRAGEENAN, POTATO STARCH, CANOLA OIL, FLAVORING.    MAY CONTAIN TRACES OF WHEAT" Date last updated by company: 10/21/2016
