Source: USDA Branded Food Products Database Release December 2017 Software v.3.8.6.4 2017-10-02
Report Run at: December 18, 2017 22:59 EST
"Nutrient data for: 45135431, CAMPBELL'S CHUNKY SOUP CHICKEN RICE BEANS, UNPREPARED, GTIN: 00051000199539"
Food Group:  Branded Food Products Database
Common Name:

Nutrient,Unit,Data points,Std. Error,"1 cup = 245.0g",1Value per 100 g,
Proximates
"Energy",kcal,--,--,140,57
"Protein",g,--,--,7.01,2.86
"Total lipid (fat)",g,--,--,1.49,0.61
"Carbohydrate, by difference",g,--,--,24.01,9.80
"Fiber, total dietary",g,--,--,2.9,1.2
"Sugars, total",g,--,--,5.00,2.04
Minerals
"Calcium, Ca",mg,--,--,49,20
"Iron, Fe",mg,--,--,1.00,0.41
"Sodium, Na",mg,--,--,789,322
Vitamins
"Vitamin C, total ascorbic acid",mg,--,--,0.0,0.0
"Vitamin A, IU",IU,--,--,1499,612
Lipids
"Fatty acids, total saturated",g,--,--,0.49,0.20
"Fatty acids, total trans",g,--,--,0.00,0.00
"Cholesterol",mg,--,--,10,4
Amino Acids
Other
Ingredients
"CHICKEN STOCK, WATER, CHICKEN MEAT, POTATOES, CARROTS, RICE, BLACK BEANS, CONTAINS LESS THAN 2% OF: JALAPENO PEPPERS, RED PEPPERS, MODIFIED FOOD STARCH, DEHYDRATED ONIONS, SALT, SPICES, SUGAR, MONOSODIUM GLUTAMATE, CORN SYRUP SOLIDS, CURRY POWDER (CUMIN, TURMERIC, BLACK PEPPER, RED PEPPER, CARDAMON, FENUGREEK, CORIANDER), MUSTARD FLOUR, DEHYDRATED ONION AND GARLIC, CARRAGEENAN, POTATO STARCH, FLAVORING, CANOLA OIL, CHICKEN FAT, YEAST EXTRACT, PAPRIKA, DEHYDRATED CHICKEN BROTH, BETA CAROTENE FOR COLOR, CELERY EXTRACT, ONION EXTRACT. MAY CONTAIN TRACES OF WHEAT" Date last updated by company: 10/21/2016
