Source: USDA Branded Food Products Database Release December 2017 Software v.3.8.6.4 2017-10-02
Report Run at: December 18, 2017 23:06 EST
"Nutrient data for: 45135486, CAMPBELL'S SOUP CHICKEN BROCCOLI & CHEESE, UNPREPARED, GTIN: 00051000069597"
Food Group:  Branded Food Products Database
Common Name:

Nutrient,Unit,Data points,Std. Error,"1 cup = 245.0g",1Value per 100 g,
Proximates
"Energy",kcal,--,--,191,78
"Protein",g,--,--,7.01,2.86
"Total lipid (fat)",g,--,--,12.01,4.90
"Carbohydrate, by difference",g,--,--,13.99,5.71
"Fiber, total dietary",g,--,--,2.9,1.2
"Sugars, total",g,--,--,1.00,0.41
Minerals
"Calcium, Ca",mg,--,--,54,22
"Iron, Fe",mg,--,--,1.00,0.41
"Sodium, Na",mg,--,--,889,363
Vitamins
"Vitamin C, total ascorbic acid",mg,--,--,0.0,0.0
"Vitamin A, IU",IU,--,--,299,122
Lipids
"Fatty acids, total saturated",g,--,--,2.50,1.02
"Fatty acids, total trans",g,--,--,0.00,0.00
"Cholesterol",mg,--,--,20,8
Amino Acids
Other
Ingredients
"WATER, POTATOES, CHICKEN MEAT, VEGETABLE OIL, BROCCOLI, CONTAINS LESS THAN 2% OF: MODIFIED FOOD STARCH, DEHYDRATED CHEDDAR CHEESE (CHEDDAR CHEESE [MILK, CULTURES, SALT, ENZYMES], CREAM, SALT, SODIUM PHOSPHATE, LACTIC ACID), SALT, CHEDDAR CHEESE (MILK, CULTURES, SALT, ENZYMES), WHEAT FLOUR, SOY PROTEIN CONCENTRATE, MONOSODIUM GLUTAMATE, SUGAR, GRANULAR CHEESE (MILK, CULTURES, SALT, ENZYMES), SODIUM PHOSPHATE, DEHYDRATED BROCCOLI, SEMISOFT CHEESE (MILK, CULTURES, SALT, ENZYMES), BLUE CHEESE (MILK, SALT, CULTURES, ENZYMES), CORN MALTODEXTRIN, SOY PROTEIN ISOLATE, BETA CAROTENE FOR COLOR, SODIUM CITRATE, FLAVORING, VINEGAR, CHICKEN STOCK, DEHYDRATED BUTTER (CREAM [MILK], SALT), DEHYDRATED CHICKEN, LACTIC ACID, BUTTERMILK, ENZYME MODIFIED BUTTER (MILK), CHICKEN FAT, ONION EXTRACT, RECONSTITUTED SKIM MILK, WHEY PROTEIN CONCENTRATE (MILK), GARLIC EXTRACT, ENZYME MODIFIED BUTTER FAT AND OIL, WHEY, SOY LECITHIN, ACETIC ACID, ENZYME MODIFIED CHEDDAR CHEESE (CHEDDAR CHEESE [MILK, CUL TURES, SALT, ENZYMES, CALCIUM CHLORIDE], WATER, DISODIUM PHOSPHATE)." Date last updated by company: 10/21/2016
