Source: USDA Branded Food Products Database Release December 2017 Software v.3.8.6.4 2017-10-02
Report Run at: December 18, 2017 23:00 EST
"Nutrient data for: 45135193, CAMPBELL'S CONDENSED SOUP CHICKEN & PASTA, UNPREPARED, GTIN: 00051000180643"
Food Group:  Branded Food Products Database
Common Name:

Nutrient,Unit,Data points,Std. Error,"1 cup = 245.0g",1Value per 100 g,
Proximates
"Energy",kcal,--,--,71,29
"Protein",g,--,--,2.99,1.22
"Total lipid (fat)",g,--,--,2.01,0.82
"Carbohydrate, by difference",g,--,--,10.00,4.08
"Fiber, total dietary",g,--,--,1.0,0.4
"Sugars, total",g,--,--,1.00,0.41
Minerals
"Calcium, Ca",mg,--,--,22,9
"Iron, Fe",mg,--,--,1.00,0.41
"Sodium, Na",mg,--,--,889,363
Vitamins
"Vitamin C, total ascorbic acid",mg,--,--,0.0,0.0
"Vitamin A, IU",IU,--,--,500,204
Lipids
"Fatty acids, total saturated",g,--,--,0.49,0.20
"Fatty acids, total trans",g,--,--,0.00,0.00
"Cholesterol",mg,--,--,5,2
Amino Acids
Other
Ingredients
"CHICKEN STOCK, ENRICHED EGG NOODLES (WHEAT FLOUR, EGG WHITES, EGGS, NIACIN, FERROUS SULFATE, THIAMINE MONONITRATE, RIBOFLAVIN, FOLIC ACID), CHICKEN MEAT, CONTAINS LESS THAN 2% OF: MODIFIED FOOD STARCH, CARROTS, SALT, CHICKEN FAT, WATER, CELERY, MONOSODIUM GLUTAMATE, YEAST EXTRACT, ONIONS**, VEGETABLE OIL, SPICE, BETA CAROTENE FOR COLOR, SOY PROTEIN ISOLATE, SODIUM PHOSPHATE, GARLIC**, FLAVORING, CHICKEN**.     **DEHYDRATED" Date last updated by company: 10/21/2016
