Source: USDA Branded Food Products Database Release December 2017 Software v.3.8.6.4 2017-10-02
Report Run at: December 18, 2017 23:05 EST
"Nutrient data for: 45135281, CAMPBELL'S SLOW KETTLE SOUP LIME CHICKEN, UNPREPARED, GTIN: 00051000214157"
Food Group:  Branded Food Products Database
Common Name:

Nutrient,Unit,Data points,Std. Error,"1 cup = 245.0g",1Value per 100 g,
Proximates
"Energy",kcal,--,--,110,45
"Protein",g,--,--,8.01,3.27
"Total lipid (fat)",g,--,--,1.49,0.61
"Carbohydrate, by difference",g,--,--,16.00,6.53
"Fiber, total dietary",g,--,--,2.0,0.8
"Sugars, total",g,--,--,3.99,1.63
Minerals
"Calcium, Ca",mg,--,--,29,12
"Iron, Fe",mg,--,--,0.00,0.00
"Sodium, Na",mg,--,--,789,322
Vitamins
"Vitamin C, total ascorbic acid",mg,--,--,0.0,0.0
"Vitamin A, IU",IU,--,--,201,82
Lipids
"Fatty acids, total saturated",g,--,--,0.00,0.00
"Fatty acids, total trans",g,--,--,0.00,0.00
"Cholesterol",mg,--,--,20,8
Amino Acids
Other
Ingredients
"CHICKEN STOCK, TOMATO PUREE (WATER, TOMATO PASTE), WHITE CHICKEN MEAT, DICED TOMATOES IN TOMATO JUICE, CORN, ONIONS, WATER, POBLANO CHILE PEPPERS, GREEN PEPPERS, RED PEPPERS, CONTAINS LESS THAN 2% OF: RICE, WILD RICE, MODIFIED FOOD STARCH, SALT, CHIPOTLE ADOBO PUREE (WATER, ONION, CHIPOTLE PEPPERS*, TOMATO PASTE, CANOLA OIL, SUGAR, VINEGAR, SALT, GARLIC, NATURAL SMOKE FLAVORING, SPICE), TORTILLA CHIPS (CORN, PEANUT OIL, SALT, LIME), POTATO STARCH, CILANTRO, ROASTED GARLIC*, LIME JUICE CONCENTRATE, CARRAGEENAN, CHICKEN BROTH*, FLAVORING, SUGAR, YEAST EXTRACT, ONIONS*, CHICKEN FAT.     *DRIED.    MAY CONTAIN TRACES OF WHEAT." Date last updated by company: 10/21/2016
