Source: USDA Branded Food Products Database Release December 2017 Software v.3.8.6.4 2017-10-02
Report Run at: December 18, 2017 23:00 EST
"Nutrient data for: 45135332, CAMPBELL'S CHUNKY SOUP CLAM CHOWDER, UNPREPARED, GTIN: 00051000005243"
Food Group:  Branded Food Products Database
Common Name:

Nutrient,Unit,Data points,Std. Error,"1 cup = 245.0g",1Value per 100 g,
Proximates
"Energy",kcal,--,--,179,73
"Protein",g,--,--,6.00,2.45
"Total lipid (fat)",g,--,--,10.00,4.08
"Carbohydrate, by difference",g,--,--,17.00,6.94
"Fiber, total dietary",g,--,--,2.0,0.8
"Sugars, total",g,--,--,1.00,0.41
Minerals
"Calcium, Ca",mg,--,--,22,9
"Iron, Fe",mg,--,--,1.00,0.41
"Sodium, Na",mg,--,--,789,322
Vitamins
"Vitamin C, total ascorbic acid",mg,--,--,0.0,0.0
"Vitamin A, IU",IU,--,--,0,0
Lipids
"Fatty acids, total saturated",g,--,--,1.00,0.41
"Fatty acids, total trans",g,--,--,0.00,0.00
"Cholesterol",mg,--,--,5,2
Amino Acids
Other
Ingredients
"CLAM STOCK, POTATOES, CLAMS, VEGETABLE OIL (CORN, CANOLA, AND/OR SOYBEAN), CELERY, CONTAINS LESS THAN 2% OF: MODIFIED FOOD STARCH, WATER, WHEAT FLOUR, SALT, MONOSODIUM GLUTAMATE, SOY PROTEIN CONCENTRATE, SUGAR, DEHYDRATED ONIONS, SPICES, SODIUM PHOSPHATE, DISODIUM INOSINATE, DISODIUM GUANYLATE, FLAVORING (COD), FLAVORING, CELERY EXTRACT, ONION EXTRACT, SUCCINIC ACID, DEHYDRATED BUTTER (CREAM [MILK], SALT), BUTTERMILK, SOY SAUCE (SOYBEANS, WHEAT, SALT), ENZYME MODIFIED BUTTER, WHEY PROTEIN CONCENTRATE, NONFAT DRY MILK, ENZYME MODIFIED BUTTER FAT AND OIL, WHEY, SOY LECITHIN." Date last updated by company: 10/21/2016
