Source: USDA Branded Food Products Database Release December 2017 Software v.3.8.6.4 2017-10-02
Report Run at: December 18, 2017 23:10 EST
"Nutrient data for: 45249296, CANADA DRY, GINGER ALE SODA MIX, GINGER ALE, UPC: 611247311912"
Food Group:  Branded Food Products Database
Common Name:

Nutrient,Unit,Data points,Std. Error,"1 KOLD POD, (8 FL OZ PREPARED) = 50.0g",1Value per 100 g,
Proximates
"Energy",kcal,--,--,90,180
"Protein",g,--,--,0.00,0.00
"Total lipid (fat)",g,--,--,0.00,0.00
"Carbohydrate, by difference",g,--,--,24.00,48.00
"Sugars, total",g,--,--,24.00,48.00
Minerals
"Sodium, Na",mg,--,--,10,20
Vitamins
Lipids
Amino Acids
Other
Ingredients
"HIGH FRUCTOSE CORN SYRUP, WATER, CARBON DIOXIDE (FOR CARBONATION), CITRIC ACID, SODIUM BENZOATE (PRESERVATIVE), NATURAL FLAVORS, CARAMEL COLOR." Date available: 07/14/2017 Date last updated by company: 07/14/2017
