Source: USDA Branded Food Products Database Release December 2017 Software v.3.8.6.4 2017-10-02
Report Run at: December 18, 2017 23:11 EST
"Nutrient data for: 45051971, CANADIAN BACON, UPC: 051900000522"
Food Group:  Branded Food Products Database
Common Name:

Nutrient,Unit,Data points,Std. Error,"3.0 SLICES = 60.0g",1Value per 100 g,
Proximates
"Energy",kcal,--,--,60,100
"Protein",g,--,--,10.00,16.67
"Total lipid (fat)",g,--,--,1.00,1.67
"Carbohydrate, by difference",g,--,--,2.00,3.33
"Sugars, total",g,--,--,1.00,1.67
Minerals
"Iron, Fe",mg,--,--,0.33,0.55
"Sodium, Na",mg,--,--,730,1217
Vitamins
Lipids
"Fatty acids, total saturated",g,--,--,0.000,0.000
"Fatty acids, total trans",g,--,--,0.000,0.000
"Cholesterol",mg,--,--,30,50
Amino Acids
Other
Ingredients
"PORK SIRLOIN HIPS, WATER, SALT. LESS THAN 2% OF MAPLE SYRUP, NATURAL MAPLE FLAVOR (CORN SYRUP, MODIFIED CORN STARCH, MALTODEXTRIN, NATURAL FLAVOR, CARAMEL COLOR, DEXTROSE), SUGAR, CORN SYRUP, SODIUM PHOSPHATES, SODIUM ERYTHORBATE, SODIUM NITRITE." Date available: 07/14/2017 Date last updated by company: 07/14/2017
