Source: USDA Branded Food Products Database Release December 2017 Software v.3.8.6.4 2017-10-02
Report Run at: December 18, 2017 23:10 EST
"Nutrient data for: 45243186, CANAAN, PALESTINIAN THYME CRUSHED OLIVE OIL, UPC: 189588000180"
Food Group:  Branded Food Products Database
Common Name:

Nutrient,Unit,Data points,Std. Error,"1 Tbsp = 15.0g",1Value per 100 g,
Proximates
"Energy",kcal,--,--,120,800
"Protein",g,--,--,0.00,0.00
"Total lipid (fat)",g,--,--,14.00,93.33
"Carbohydrate, by difference",g,--,--,0.00,0.00
Minerals
"Sodium, Na",mg,--,--,0,0
Vitamins
Lipids
"Fatty acids, total saturated",g,--,--,1.999,13.330
"Fatty acids, total trans",g,--,--,0.000,0.000
Amino Acids
Other
Ingredients
"ORGANIC OLIVE OIL, ORGANIC THYME." Date available: 06/25/2017 Date last updated by company: 06/25/2017
