Source: USDA Branded Food Products Database Release December 2017 Software v.3.8.6.4 2017-10-02
Report Run at: December 18, 2017 23:23 EST
"Nutrient data for: 45291273, CANDY FLOWERS DESSERT DECORATIONS, UPC: 071169252760"
Food Group:  Branded Food Products Database
Common Name:

Nutrient,Unit,Data points,Std. Error,"2.0 PIECES = 10.0g",1Value per 100 g,
Proximates
"Energy",kcal,--,--,35,350
"Protein",g,--,--,0.00,0.00
"Total lipid (fat)",g,--,--,0.00,0.00
"Carbohydrate, by difference",g,--,--,9.00,90.00
"Sugars, total",g,--,--,8.00,80.00
Minerals
"Sodium, Na",mg,--,--,0,0
Vitamins
Lipids
Amino Acids
Other
Ingredients
"SUGAR, CORN SYRUP, WATER, PECTIN, CORN STARCH, MALTODEXTRIN, LACTIC ACID, CITRIC ACID, ARTIFICIAL FLAVOR, GUM ACACIA, CREAM OF TARTAR, GELATIN, SODIUM CITRATE, RED 40, BLUE 1, YELLOW 5, RED 3, TITANIUM DIOXIDE (COLOR)." Date available: 07/14/2017 Date last updated by company: 07/14/2017
