Source: USDA Branded Food Products Database Release December 2017 Software v.3.8.6.4 2017-10-02
Report Run at: December 18, 2017 23:31 EST
"Nutrient data for: 45207728, CANDY, UPC: 038252398125"
Food Group:  Branded Food Products Database
Common Name:

Nutrient,Unit,Data points,Std. Error,"1 PACKAGE = 39.0g",1Value per 100 g,
Proximates
"Energy",kcal,--,--,180,462
"Protein",g,--,--,1.00,2.56
"Total lipid (fat)",g,--,--,7.00,17.95
"Carbohydrate, by difference",g,--,--,31.00,79.49
"Fiber, total dietary",g,--,--,1.0,2.6
"Sugars, total",g,--,--,29.00,74.36
Minerals
"Calcium, Ca",mg,--,--,0,0
"Iron, Fe",mg,--,--,0.46,1.18
"Sodium, Na",mg,--,--,40,103
Vitamins
"Vitamin C, total ascorbic acid",mg,--,--,0.0,0.0
"Vitamin A, IU",IU,--,--,128,328
Lipids
"Fatty acids, total saturated",g,--,--,5.000,12.820
"Fatty acids, total trans",g,--,--,0.000,0.000
"Cholesterol",mg,--,--,5,13
Amino Acids
Other
Ingredients
"SUGAR, WHOLE MILK, PALM KERNEL OIL, SEMISWEET CHOCOLATE (SUGAR, CHOCOLATE, COCOA BUTTER, DEXTROSE, SOY LECITHIN (AN EMULSIFIER), VANILLIN (AN ARTIFICIAL FLAVOR), MILK), BUTTER (CREAM, SALT), COCOA PROCESSED WITH ALKALI, CORN SYRUP, HYDROGENATED PALM OIL, COCOA, SALT, NATURAL AND ARTIFICIAL FLAVORS, SOY LECITHIN (AN EMULSIFIER), OIL OF PEPPERMINT, COCONUT OIL, COLOR ADDED (INCLUDING YELLOW 5 LAKE, BLUE 1 LAKE), VANILLIN (AN ARTIFICIAL FLAVOR), TBHQ AND CITRIC ACID ADDED TO PROTECT FRESHNESS." Date available: 07/14/2017 Date last updated by company: 07/14/2017
