Source: USDA Branded Food Products Database Release December 2017 Software v.3.8.6.4 2017-10-02
Report Run at: December 18, 2017 23:19 EST
"Nutrient data for: 45265948, CANDY COATED PEANUTS, UPC: 041420146930"
Food Group:  Branded Food Products Database
Common Name:

Nutrient,Unit,Data points,Std. Error,"13.0 PIECES = 15.0g",1Value per 100 g,
Proximates
"Energy",kcal,--,--,70,467
"Protein",g,--,--,1.00,6.67
"Total lipid (fat)",g,--,--,2.50,16.67
"Carbohydrate, by difference",g,--,--,11.00,73.33
"Sugars, total",g,--,--,10.00,66.67
Minerals
"Sodium, Na",mg,--,--,0,0
Vitamins
Lipids
Amino Acids
Other
Ingredients
"SUGAR, PEANUTS, CORN SYRUP, MODIFIED FOOD STARCH (CORN), ACACIA (GUM ARABIC), CONFECTIONER'S GLAZE (SHELLAC), ARTIFICIAL FLAVOR, CARNAUBA WAX, WHITE MINERAL OIL, RED 40, YELLOW 5, YELLOW 6, BLUE 2." Date available: 07/14/2017 Date last updated by company: 07/14/2017
