Source: USDA Branded Food Products Database Release December 2017 Software v.3.8.6.4 2017-10-02
Report Run at: December 18, 2017 23:32 EST
"Nutrient data for: 45216170, CANDY, UPC: 093534620158"
Food Group:  Branded Food Products Database
Common Name:

Nutrient,Unit,Data points,Std. Error,"1 BAR = 11.0g",1Value per 100 g,
Proximates
"Energy",kcal,--,--,45,409
"Protein",g,--,--,0.00,0.00
"Total lipid (fat)",g,--,--,0.50,4.55
"Carbohydrate, by difference",g,--,--,10.00,90.91
"Fiber, total dietary",g,--,--,0.0,0.0
"Sugars, total",g,--,--,6.00,54.55
Minerals
"Sodium, Na",mg,--,--,5,45
Vitamins
Lipids
"Fatty acids, total saturated",g,--,--,0.000,0.000
"Fatty acids, total trans",g,--,--,0.000,0.000
Amino Acids
Other
Ingredients
"SUGAR, CORN SYRUP, MALTODEXTRIN, DEXTROSE, MODIFIED FOOD STARCH (CORN), PARTIALLY HYDROGENATED SOYBEAN OIL, CONTAINS LESS THAN 2% OF: CITRIC ACID, WATER, ARTIFICIAL FLAVORS, ARTIFICIAL COLORS, RED 40, BLUE 1, YELLOW 1, YELLOW 5." Date available: 07/14/2017 Date last updated by company: 07/14/2017
