Source: USDA Branded Food Products Database Release December 2017 Software v.3.8.6.4 2017-10-02
Report Run at: December 18, 2017 23:32 EST
"Nutrient data for: 45260694, CANDY, UPC: 019061093654"
Food Group:  Branded Food Products Database
Common Name:

Nutrient,Unit,Data points,Std. Error,"0.25 cup = 40.0g",1Value per 100 g,
Proximates
"Energy",kcal,--,--,160,400
"Protein",g,--,--,2.00,5.00
"Total lipid (fat)",g,--,--,4.00,10.00
"Carbohydrate, by difference",g,--,--,29.00,72.50
"Fiber, total dietary",g,--,--,1.0,2.5
"Sugars, total",g,--,--,28.00,70.00
Minerals
"Calcium, Ca",mg,--,--,40,100
"Iron, Fe",mg,--,--,0.90,2.25
"Sodium, Na",mg,--,--,35,88
Vitamins
"Vitamin C, total ascorbic acid",mg,--,--,3.0,7.5
"Vitamin A, IU",IU,--,--,0,0
Lipids
"Fatty acids, total saturated",g,--,--,4.000,10.000
"Fatty acids, total trans",g,--,--,0.000,0.000
"Cholesterol",mg,--,--,0,0
Amino Acids
Other
Ingredients
"YOGURT COATING [SUGAR, PALM KERNEL & PALM OIL, PARTIALLY HYDROGENATED PALM KERNEL OIL, WHOLE & NONFAT DRY MILK, BUTTERFAT SOLIDS, SOY LECITHIN (EMULSIFIER), ARTIFICIAL COLOR, WHEY PROTEIN SOLIDS, REDUCED MINERAL WHEY POWDER, LACTIC ACID, NATURAL & ARTIFICIAL FLAVOR, LACTOSE, SILICON DIOXIDE], RAISINS W/SOYBEAN OIL, MODIFIED CORN STARCH, CORN SYRUP, SUGAR, SALT, GUM ARABIC, CONFECTIONER'S GLAZE." Date available: 07/14/2017 Date last updated by company: 07/14/2017
