Source: USDA Branded Food Products Database Release December 2017 Software v.3.8.6.4 2017-10-02
Report Run at: December 18, 2017 23:30 EST
"Nutrient data for: 45290524, CANDY, UPC: 07904923"
Food Group:  Branded Food Products Database
Common Name:

Nutrient,Unit,Data points,Std. Error,"1 Tbsp = 15.0g",1Value per 100 g,
Proximates
"Energy",kcal,--,--,60,400
"Protein",g,--,--,0.00,0.00
"Total lipid (fat)",g,--,--,0.00,0.00
"Carbohydrate, by difference",g,--,--,14.00,93.33
"Sugars, total",g,--,--,14.00,93.33
Minerals
"Sodium, Na",mg,--,--,0,0
Vitamins
Lipids
Amino Acids
Other
Ingredients
"DEXTROSE, SUGAR, MALIC ACID, AND LESS THAN 2% OF CORN SYRUP, NATURAL FLAVORS, CARNAUBA WAX, COLOR ADDED, RED 40 LAKE, YELLOW 5, YELLOW 5 LAKE, YELLOW 6." Date available: 07/14/2017 Date last updated by company: 07/14/2017
