Source: USDA Branded Food Products Database Release December 2017 Software v.3.8.6.4 2017-10-02
Report Run at: December 18, 2017 23:30 EST
"Nutrient data for: 45157439, CANDY, UPC: 071567997683"
Food Group:  Branded Food Products Database
Common Name:

Nutrient,Unit,Data points,Std. Error,"35.0 PIECES = 40.0g",1Value per 100 g,
Proximates
"Energy",kcal,--,--,140,350
"Protein",g,--,--,0.00,0.00
"Total lipid (fat)",g,--,--,0.00,0.00
"Carbohydrate, by difference",g,--,--,37.00,92.50
"Sugars, total",g,--,--,28.00,70.00
Minerals
"Sodium, Na",mg,--,--,15,38
Vitamins
"Vitamin C, total ascorbic acid",mg,--,--,6.0,15.0
Lipids
Amino Acids
Other
Ingredients
"SUGAR, CORN SYRUP, MODIFIED FOOD STARCH, CONTAINS 2% OR LESS OF THE FOLLOWING: PEACH PUREE CONCENTRATE, BLUEBERRY PUREE, STRAWBERRY PUREE, LEMON PUREE, PEAR JUICE CONCENTRATE, TANGERINE JUICE CONCENTRATE, WATERMELON JUICE CONCENTRATE, APPLE JUICE CONCENTRATE, CHERRY JUICE CONCENTRATE, POMEGRANATE JUICE CONCENTRATE, COCONUT, CITRIC ACID, PHOSPHORIC ACID, ASCORBIC ACID, SODIUM LACTATE, SODIUM CITRATE, NATURAL AND ARTIFICIAL FLAVORS, COLOR ADDED, RED 40 LAKE, BLUE 1 & 2 LAKE, YELLOW 5 & 6 LAKE, YELLOW 5 & 6, RED 40, BLUE 1, VEGETABLE AND FRUIT JUICE (COLOR), TAPIOCA DEXTRIN, BEESWAX, CARNAUBA WAX, CONFECTIONER'S GLAZE, SALT, CAFFEINE." Date available: 10/07/2017 Date last updated by company: 10/07/2017
