Source: USDA Branded Food Products Database Release December 2017 Software v.3.8.6.4 2017-10-02
Report Run at: December 18, 2017 23:21 EST
"Nutrient data for: 45250214, CANDY CRUSH, JELLY BEANS, MIXED BERRY - CHERRY - PEACH - PEAR BUTTERED POPCORN - COTTON CANDY, UPC: 000790320036"
Food Group:  Branded Food Products Database
Common Name:

Nutrient,Unit,Data points,Std. Error,"25.0 PIECES = 40.0g",1Value per 100 g,
Proximates
"Energy",kcal,--,--,140,350
"Protein",g,--,--,0.00,0.00
"Total lipid (fat)",g,--,--,0.00,0.00
"Carbohydrate, by difference",g,--,--,35.00,87.50
"Fiber, total dietary",g,--,--,0.0,0.0
"Sugars, total",g,--,--,28.00,70.00
Minerals
"Iron, Fe",mg,--,--,0.00,0.00
"Sodium, Na",mg,--,--,15,38
Vitamins
"Vitamin C, total ascorbic acid",mg,--,--,0.0,0.0
"Vitamin A, IU",IU,--,--,0,0
Lipids
"Fatty acids, total saturated",g,--,--,0.000,0.000
"Fatty acids, total trans",g,--,--,0.000,0.000
"Cholesterol",mg,--,--,0,0
Amino Acids
Other
Ingredients
"SUGAR, CORN SYRUP, MODIFIED CORN STARCH, MALTODEXTRIN, CITRIC ACID, LACTIC ACID, SODIUM LACTATE, ARTIFICIAL FLAVORS, GLAZING AGENTS: BEESWAX, CARNAUBA WAX, CONFECTIONERS GLAZE, PALM OIL, ARTIFICIAL COLORS: FD&C BLUE 1, YELLOW 5, YELLOW 6, RED 40, TITANIUM DIOXIDE." Date available: 07/14/2017 Date last updated by company: 07/14/2017
