Source: USDA Branded Food Products Database Release December 2017 Software v.3.8.6.4 2017-10-02
Report Run at: December 18, 2017 23:14 EST
"Nutrient data for: 45318406, CANDY BAR TREES, UPC: 040000493853"
Food Group:  Branded Food Products Database
Common Name:

Nutrient,Unit,Data points,Std. Error,"1 TREE = 31.2g",1Value per 100 g,
Proximates
"Energy",kcal,--,--,160,513
"Protein",g,--,--,2.00,6.41
"Total lipid (fat)",g,--,--,9.00,28.85
"Carbohydrate, by difference",g,--,--,18.00,57.69
"Fiber, total dietary",g,--,--,1.0,3.2
"Sugars, total",g,--,--,17.00,54.49
Minerals
"Calcium, Ca",mg,--,--,40,128
"Iron, Fe",mg,--,--,0.58,1.85
"Sodium, Na",mg,--,--,55,176
Vitamins
"Vitamin A, IU",IU,--,--,100,321
Lipids
"Fatty acids, total saturated",g,--,--,5.001,16.030
"Fatty acids, total trans",g,--,--,0.000,0.000
"Cholesterol",mg,--,--,5,16
Amino Acids
Other
Ingredients
"MILK, CHOCOLATE (SUGAR, COCOA BUTTER, CHOCOLATE, SKIM MILK, LACTOSE, MILK FAT, SOY LECITHIN, ARTIFICIAL FLAVOR), PEANUTS, SUGAR, INVERT SUGAR, HYDROGENATED PALM KERNEL OIL AND/OR PALM OIL, CORN SYRUP, SKIM MILK, LESS THAN 2% - PALM OIL, BUTTER, MILKFAT, PARTIALLY HYDROGENATED SOYBEAN OIL, SALT, SOY LECITHIN, POTASSIUM SORBATE TO MAINTAIN FRESHNESS, ARTIFICIAL FLAVOR." Date available: 07/14/2017 Date last updated by company: 07/14/2017
