Source: USDA Branded Food Products Database Release December 2017 Software v.3.8.6.4 2017-10-02
Report Run at: December 18, 2017 23:31 EST
"Nutrient data for: 45207727, CANDY, UPC: 038252398118"
Food Group:  Branded Food Products Database
Common Name:

Nutrient,Unit,Data points,Std. Error,"1 PACKAGE = 39.0g",1Value per 100 g,
Proximates
"Energy",kcal,--,--,180,462
"Protein",g,--,--,1.00,2.56
"Total lipid (fat)",g,--,--,8.00,20.51
"Carbohydrate, by difference",g,--,--,26.00,66.67
"Fiber, total dietary",g,--,--,0.0,0.0
"Sugars, total",g,--,--,20.00,51.28
Minerals
"Calcium, Ca",mg,--,--,20,51
"Iron, Fe",mg,--,--,0.00,0.00
"Sodium, Na",mg,--,--,75,192
Vitamins
"Vitamin C, total ascorbic acid",mg,--,--,0.0,0.0
"Vitamin A, IU",IU,--,--,128,328
Lipids
"Fatty acids, total saturated",g,--,--,5.998,15.380
"Fatty acids, total trans",g,--,--,0.000,0.000
"Cholesterol",mg,--,--,10,26
Amino Acids
Other
Ingredients
"SUGAR, CORN SYRUP, EVAPORATED MILK, PALM KERNEL OIL, WHOLE MILK, HEAVY CREAM, BROWN SUGAR, COCOA PROCESSED WITH ALKALI, BUTTER (CREAM, SALT), LACTOSE (MILK), NONFAT MILK, HYDROGENATED PALM OIL, SALT, SOY LECITHIN (AN EMULSIFIER), COCOA, NATURAL AND ARTIFICIAL FLAVORS, SOYBEAN OIL." Date available: 07/14/2017 Date last updated by company: 07/14/2017
