Source: USDA Branded Food Products Database Release December 2017 Software v.3.8.6.4 2017-10-02
Report Run at: December 18, 2017 23:19 EST
"Nutrient data for: 45142399, CANDY CORN CANDY, UPC: 021130558131"
Food Group:  Branded Food Products Database
Common Name:

Nutrient,Unit,Data points,Std. Error,"19.0 PIECES = 39.0g",1Value per 100 g,
Proximates
"Energy",kcal,--,--,140,359
"Protein",g,--,--,0.00,0.00
"Total lipid (fat)",g,--,--,0.00,0.00
"Carbohydrate, by difference",g,--,--,35.00,89.74
"Fiber, total dietary",g,--,--,0.0,0.0
"Sugars, total",g,--,--,28.00,71.79
Minerals
"Calcium, Ca",mg,--,--,0,0
"Iron, Fe",mg,--,--,0.00,0.00
"Sodium, Na",mg,--,--,70,179
Vitamins
"Vitamin C, total ascorbic acid",mg,--,--,0.0,0.0
"Vitamin A, IU",IU,--,--,0,0
Lipids
"Fatty acids, total saturated",g,--,--,0.000,0.000
"Fatty acids, total trans",g,--,--,0.000,0.000
"Cholesterol",mg,--,--,0,0
Amino Acids
Other
Ingredients
"SUGAR, CORN SYRUP, CONFECTIONER'S GLAZE (SHELLAC), SALT, DEXTROSE, GELATIN, SESAME OIL, ARTIFICIAL FLAVOR, HONEY, YELLOW 6, YELLOW 5, RED 3." Date available: 08/15/2017 Date last updated by company: 08/15/2017
