Source: USDA Branded Food Products Database Release December 2017 Software v.3.8.6.4 2017-10-02
Report Run at: December 18, 2017 23:15 EST
"Nutrient data for: 45318845, CANDY CAKE DECORATIONS, UPC: 071169402042"
Food Group:  Branded Food Products Database
Common Name:

Nutrient,Unit,Data points,Std. Error,"1 PIECE = 4.0g",1Value per 100 g,
Proximates
"Energy",kcal,--,--,15,375
"Protein",g,--,--,0.00,0.00
"Total lipid (fat)",g,--,--,0.00,0.00
"Carbohydrate, by difference",g,--,--,4.00,100.00
"Sugars, total",g,--,--,4.00,100.00
Minerals
"Sodium, Na",mg,--,--,0,0
Vitamins
Lipids
Amino Acids
Other
Ingredients
"SUGAR, EGG WHITE SOLIDS, DISTILLED VINEGAR, SODIUM BENZOATE (PRESERVATIVE), YELLOW 5, BLUE 1, RED 3, YELLOW 6, RED 40." Date available: 07/14/2017 Date last updated by company: 07/14/2017
