Source: USDA Branded Food Products Database Release December 2017 Software v.3.8.6.4 2017-10-02
Report Run at: December 18, 2017 23:25 EST
"Nutrient data for: 45217827, CANDY NECKLACES WITH PENDANTS, UPC: 768395465292"
Food Group:  Branded Food Products Database
Common Name:

Nutrient,Unit,Data points,Std. Error,"2.0 NECKLACES = 50.0g",1Value per 100 g,
Proximates
"Energy",kcal,--,--,190,380
"Protein",g,--,--,0.00,0.00
"Total lipid (fat)",g,--,--,0.00,0.00
"Carbohydrate, by difference",g,--,--,48.00,96.00
"Sugars, total",g,--,--,46.00,92.00
Minerals
"Sodium, Na",mg,--,--,0,0
Vitamins
Lipids
Amino Acids
Other
Ingredients
"DEXTROSE, CORN SYRUP, CORN STARCH, MAGNESIUM STEARATE, CITRIC ACID, MALTODEXTRIN, ARTIFICIAL FLAVOR, GUM ARABIC, GLAZING AGENT (SHELLAC), CARNAUBA WAX, ARTIFICIAL COLORS (TITANIUM DIOXIDE, RED 3, BLUE 2, YELLOW 6)." Date available: 07/14/2017 Date last updated by company: 07/14/2017
