Source: USDA Branded Food Products Database Release December 2017 Software v.3.8.6.4 2017-10-02
Report Run at: December 18, 2017 23:17 EST
"Nutrient data for: 45272789, CANDY CANES, UPC: 079200990268"
Food Group:  Branded Food Products Database
Common Name:

Nutrient,Unit,Data points,Std. Error,"1 CANE = 12.0g",1Value per 100 g,
Proximates
"Energy",kcal,--,--,50,417
"Protein",g,--,--,0.00,0.00
"Total lipid (fat)",g,--,--,0.00,0.00
"Carbohydrate, by difference",g,--,--,12.00,100.00
"Sugars, total",g,--,--,9.00,75.00
Minerals
"Sodium, Na",mg,--,--,50,417
Vitamins
Lipids
Amino Acids
Other
Ingredients
"SUGAR, CORN SYRUP, CITRIC ACID, AND LESS THAN 2% OF SODIUM CITRATE, NATURAL FLAVORS, COLOR ADDED, BLUE 1, RED 40, YELLOW 5, YELLOW 6." Date available: 07/14/2017 Date last updated by company: 07/14/2017
