Source: USDA Branded Food Products Database Release December 2017 Software v.3.8.6.4 2017-10-02
Report Run at: December 18, 2017 23:24 EST
"Nutrient data for: 45217851, CANDY JEWELRY, UPC: 768395468910"
Food Group:  Branded Food Products Database
Common Name:

Nutrient,Unit,Data points,Std. Error,"1 PACKAGE = 60.0g",1Value per 100 g,
Proximates
"Energy",kcal,--,--,230,383
"Protein",g,--,--,0.00,0.00
"Total lipid (fat)",g,--,--,0.00,0.00
"Carbohydrate, by difference",g,--,--,57.00,95.00
"Fiber, total dietary",g,--,--,0.0,0.0
"Sugars, total",g,--,--,55.00,91.67
Minerals
"Calcium, Ca",mg,--,--,0,0
"Iron, Fe",mg,--,--,0.00,0.00
"Sodium, Na",mg,--,--,0,0
Vitamins
"Vitamin C, total ascorbic acid",mg,--,--,0.0,0.0
"Vitamin A, IU",IU,--,--,0,0
Lipids
"Fatty acids, total saturated",g,--,--,0.000,0.000
"Fatty acids, total trans",g,--,--,0.000,0.000
"Cholesterol",mg,--,--,0,0
Amino Acids
Other
Ingredients
"DEXTROSE, CORN SYRUP, CORN STARCH, MAGNESIUM STEARATE, CITRIC ACID, MALTODEXTRIN, ARTIFICIAL FLAVOR, GUM ARABIC, CONFECTIONER'S GLAZE, CARNAUBA WAX, ARTIFICIAL COLOR (TITANIUM DIOXIDE, RED 3, BLUE 2, YELLOW 6, RED 40 LAKE)." Date available: 07/14/2017 Date last updated by company: 07/14/2017
