Source: USDA Branded Food Products Database Release December 2017 Software v.3.8.6.4 2017-10-02
Report Run at: December 18, 2017 23:35 EST
"Nutrient data for: 45241954, CANE SUGAR SODA, UPC: 620221200128"
Food Group:  Branded Food Products Database
Common Name:

Nutrient,Unit,Data points,Std. Error,"1 BOTTLE = 355.0g",1Value per 100 g,
Proximates
"Energy",kcal,--,--,170,48
"Protein",g,--,--,0.00,0.00
"Total lipid (fat)",g,--,--,0.00,0.00
"Carbohydrate, by difference",g,--,--,40.01,11.27
"Sugars, total",g,--,--,39.01,10.99
Minerals
"Sodium, Na",mg,--,--,36,10
Vitamins
Lipids
Amino Acids
Other
Ingredients
"CARBONATED WATER, INVERTED CANE SUGAR, CITRIC ACID, NATURAL FLAVORS, SODIUM BENZOATE AND POTASSIUM SORBATE (AS PRESERVATIVES), CALCIUM DISODIUM EDTA (TO PROTECT FLAVOR), YELLOW 5, BLUE 1." Date available: 07/14/2017 Date last updated by company: 07/14/2017
