Source: USDA Branded Food Products Database Release December 2017 Software v.3.8.6.4 2017-10-02
Report Run at: December 18, 2017 23:37 EST
"Nutrient data for: 45274284, CANNELLINI BEANS, UPC: 833477000149"
Food Group:  Branded Food Products Database
Common Name:

Nutrient,Unit,Data points,Std. Error,"0.5 cup = 90.0g",1Value per 100 g,
Proximates
"Energy",kcal,--,--,60,67
"Protein",g,--,--,4.00,4.44
"Total lipid (fat)",g,--,--,1.00,1.11
"Carbohydrate, by difference",g,--,--,11.00,12.22
"Fiber, total dietary",g,--,--,6.0,6.7
"Sugars, total",g,--,--,0.00,0.00
Minerals
"Calcium, Ca",mg,--,--,60,67
"Iron, Fe",mg,--,--,2.08,2.31
"Sodium, Na",mg,--,--,30,33
Vitamins
"Vitamin C, total ascorbic acid",mg,--,--,1.7,1.9
"Vitamin A, IU",IU,--,--,0,0
Lipids
"Fatty acids, total saturated",g,--,--,0.000,0.000
"Fatty acids, total trans",g,--,--,0.000,0.000
"Cholesterol",mg,--,--,0,0
Amino Acids
Other
Ingredients
"WHITE BEANS, WATER." Date available: 10/11/2017 Date last updated by company: 10/11/2017
