Source: USDA Branded Food Products Database Release December 2017 Software v.3.8.6.4 2017-10-02
Report Run at: December 18, 2017 23:45 EST
"Nutrient data for: 45165294, CAPE CODE TRAIL MIX, UPC: 087076214371"
Food Group:  Branded Food Products Database
Common Name:

Nutrient,Unit,Data points,Std. Error,"0.25 cup = 30.0g",1Value per 100 g,
Proximates
"Energy",kcal,--,--,150,500
"Protein",g,--,--,4.00,13.33
"Total lipid (fat)",g,--,--,10.00,33.33
"Carbohydrate, by difference",g,--,--,12.00,40.00
"Fiber, total dietary",g,--,--,2.0,6.7
"Sugars, total",g,--,--,7.00,23.33
Minerals
"Calcium, Ca",mg,--,--,40,133
"Iron, Fe",mg,--,--,0.90,3.00
"Sodium, Na",mg,--,--,1,3
Vitamins
"Vitamin C, total ascorbic acid",mg,--,--,0.0,0.0
"Vitamin A, IU",IU,--,--,0,0
Lipids
"Fatty acids, total saturated",g,--,--,0.999,3.330
"Fatty acids, total trans",g,--,--,0.000,0.000
"Cholesterol",mg,--,--,0,0
Amino Acids
Other
Ingredients
"PRODUCT CONTAINS: ALMONDS, CRANBERRIES (CRANBERRIES, SUGAR, SUNFLOWER OIL), CASHEWS, VEGETABLE OIL (MAY CONTAIN ONE OR MORE OF THE FOLLOWING: CANOLA, PEANUT, SUNFLOWER, SOYBEAN)." Date available: 07/14/2017 Date last updated by company: 07/14/2017
