Source: USDA Branded Food Products Database Release December 2017 Software v.3.8.6.4 2017-10-02
Report Run at: December 18, 2017 23:45 EST
"Nutrient data for: 45224111, CAPE COD, DUOS POPCORN, HONEY APPLE, CINNAMON, UPC: 020685001451"
Food Group:  Branded Food Products Database
Common Name:

Nutrient,Unit,Data points,Std. Error,"1 ONZ = 28.4g",1Value per 100 g,
Proximates
"Energy",kcal,--,--,130,458
"Protein",g,--,--,1.00,3.52
"Total lipid (fat)",g,--,--,4.50,15.85
"Carbohydrate, by difference",g,--,--,21.00,73.94
"Fiber, total dietary",g,--,--,2.0,7.0
"Sugars, total",g,--,--,11.00,38.73
Minerals
"Calcium, Ca",mg,--,--,0,0
"Iron, Fe",mg,--,--,0.00,0.00
"Sodium, Na",mg,--,--,135,475
Vitamins
"Vitamin C, total ascorbic acid",mg,--,--,0.0,0.0
"Vitamin A, IU",IU,--,--,0,0
Lipids
"Fatty acids, total saturated",g,--,--,1.000,3.520
"Fatty acids, total trans",g,--,--,0.000,0.000
"Cholesterol",mg,--,--,0,0
Amino Acids
Other
Ingredients
"POPCORN, SUGAR, SOYBEAN OIL, CORN SYRUP, SEASONING (SUGAR, WHEY, SPICE, SALT, MALTODEXTRIN, BROWN SUGAR, NATURAL FLAVOR, CANOLA OIL, REBAUDIOSIDE A), DEHYDRATED APPLE PIECES (APPLES, SUGAR, CINNAMON), BUTTER (PASTEURIZED CREAM, SALT), SALT, HONEY, SPICES, SOY LECITHIN, SODIUM BICARBONATE, CITRIC ACID." Date available: 07/14/2017 Date last updated by company: 07/14/2017
