Source: USDA Branded Food Products Database Release December 2017 Software v.3.8.6.4 2017-10-02
Report Run at: December 18, 2017 23:51 EST
"Nutrient data for: 45142252, CAPPUCCINO CAFE STYLE DRINK MIX, UPC: 018400800021"
Food Group:  Branded Food Products Database
Common Name:

Nutrient,Unit,Data points,Std. Error,"20.0 GRM = 20.0g",1Value per 100 g,
Proximates
"Energy",kcal,--,--,90,450
"Protein",g,--,--,0.00,0.00
"Total lipid (fat)",g,--,--,3.50,17.50
"Carbohydrate, by difference",g,--,--,15.00,75.00
"Fiber, total dietary",g,--,--,0.0,0.0
"Sugars, total",g,--,--,11.00,55.00
Minerals
"Calcium, Ca",mg,--,--,0,0
"Iron, Fe",mg,--,--,0.00,0.00
"Sodium, Na",mg,--,--,75,375
Vitamins
"Vitamin C, total ascorbic acid",mg,--,--,0.0,0.0
"Vitamin A, IU",IU,--,--,0,0
Lipids
"Fatty acids, total saturated",g,--,--,3.500,17.500
"Fatty acids, total trans",g,--,--,0.000,0.000
"Cholesterol",mg,--,--,0,0
Amino Acids
Other
Ingredients
"SUGAR, NONDAIRY CREAMER (CORN SYRUP SOLIDS, HYDROGENATED COCONUT OIL, SODIUM CASEINATE [MILK DERIVATIVE], DIPOTASSIUM PHOSPHATE, SODIUM TRIPOLYPHOSPHATE, MONO AND DIGLYCERIDES, DATEM, SODIUM ALUMINOSILICATE,NATURAL FLAVOR), MODIFIED FOOD STARCH, INSTANT COFFEE, NATURAL AND ARTIFICIAL FLAVOR, COCOA (PROCESSED WITH ALKALI), SOY LECITHIN, SALT, SILICON DIOXIDE (ANTICAKING AGENT)." Date available: 07/14/2017 Date last updated by company: 07/14/2017
