Source: USDA Branded Food Products Database Release December 2017 Software v.3.8.6.4 2017-10-02
Report Run at: December 18, 2017 23:55 EST
"Nutrient data for: 45201717, CAPTAIN'S WAFERS CREAM CHEESE & CHIVES CRACKERS, UPC: 076410400228"
Food Group:  Branded Food Products Database
Common Name:

Nutrient,Unit,Data points,Std. Error,"1 PACKAGE = 26.0g",1Value per 100 g,
Proximates
"Energy",kcal,--,--,130,500
"Protein",g,--,--,2.00,7.69
"Total lipid (fat)",g,--,--,6.00,23.08
"Carbohydrate, by difference",g,--,--,16.00,61.54
"Fiber, total dietary",g,--,--,1.0,3.8
"Sugars, total",g,--,--,3.00,11.54
Minerals
"Calcium, Ca",mg,--,--,40,154
"Iron, Fe",mg,--,--,1.38,5.32
"Sodium, Na",mg,--,--,190,731
Vitamins
"Vitamin C, total ascorbic acid",mg,--,--,0.0,0.0
"Vitamin A, IU",IU,--,--,0,0
Lipids
"Fatty acids, total saturated",g,--,--,1.999,7.690
"Fatty acids, total monounsaturated",g,--,--,1.999,7.690
"Fatty acids, total polyunsaturated",g,--,--,1.999,7.690
"Fatty acids, total trans",g,--,--,0.000,0.000
"Cholesterol",mg,--,--,0,0
Amino Acids
Other
Ingredients
"ENRICHED FLOUR (WHEAT FLOUR, NIACIN, REDUCED IRON, THIAMINE MONONITRATE, RIBOFLAVIN, FOLIC ACID), VEGETABLE OIL (CONTAINS ONE OR MORE OF THE FOLLOWING: CANOLA OIL, CORN OIL, PALM OIL, SOYBEAN OIL), SUGAR, DEPROTEINIZED DAIRY WHEY, BUTTERMILK, CORN SYRUP SOLIDS, LEAVENING (SODIUM BICARBONATE, AMMONIUM BICARBONATE, MONOCALCIUM PHOSPHATE), SALT, CORN SYRUP, CREAM CHEESE (PASTEURIZED MILK AND CREAM, CHEESE CULTURES, SALT, CAROB BEAN GUM), SODIUM CASEINATE, NONFAT DRY MILK, CHIVES, PARSLEY, SOY LECITHIN (EMULSIFIER), NATURAL AND ARTIFICIAL FLAVORS." Date available: 07/14/2017 Date last updated by company: 07/14/2017
