Source: USDA Branded Food Products Database Release December 2017 Software v.3.8.6.4 2017-10-02
Report Run at: December 18, 2017 23:57 EST
"Nutrient data for: 45146317, CARAMEL APPLE CRUNCH, UPC: 041130599712"
Food Group:  Branded Food Products Database
Common Name:

Nutrient,Unit,Data points,Std. Error,"0.25 CUP | ABOUT = 30.0g",1Value per 100 g,
Proximates
"Energy",kcal,--,--,130,433
"Protein",g,--,--,2.00,6.67
"Total lipid (fat)",g,--,--,5.00,16.67
"Carbohydrate, by difference",g,--,--,11.00,36.67
"Fiber, total dietary",g,--,--,1.0,3.3
"Sugars, total",g,--,--,8.00,26.67
Minerals
"Calcium, Ca",mg,--,--,0,0
"Iron, Fe",mg,--,--,1.20,4.00
"Sodium, Na",mg,--,--,35,117
Vitamins
"Vitamin C, total ascorbic acid",mg,--,--,0.0,0.0
"Vitamin A, IU",IU,--,--,0,0
Lipids
"Fatty acids, total saturated",g,--,--,3.000,10.000
"Fatty acids, total trans",g,--,--,0.000,0.000
"Cholesterol",mg,--,--,0,0
Amino Acids
Other
Ingredients
"PEANUTS (WITH PEANUT OIL, SALT), TOFFEE CASHEWS (CASHEWS, SUGAR, HONEY, SALT), BUTTERSCOTCH CHIPS (SUGAR, NONFAT MILK POWDER, PARTIALLY HYDROGENATED PALM KERNEL OIL, SOY LECITHIN, MONOGLYCERIDES, COLOR ADDED INCLUDING (BLUE 2 LAKE, YELLOW 5 LAKE, YELLOW 6 LAKE, & TITANIUM DIOXIDE), TOFFEE PEANUTS (PEANUTS, SUGAR, BUTTER, SALT), HONEY ROASTED PEANUTS (PEANUTS, SUCROSE, PEANUT OIL, WHEAT STARCH, MALTODEXTRIN, HONEY, LACTOSE, SALT, XANTHAN GUM), VANILLA CHIPS (SUGAR, PALM KERNEL OIL, NONFAT MILK POWDER, WHOLE MILK POWDER, WHEY POWDER, PALM OIL, SOY LECITHIN, VANILLA), DRIED APPLES (WITH CITRIC ACID, SULFUR DIOXIDE (PRESERVATIVE))." Date available: 08/11/2017 Date last updated by company: 08/11/2017
