Source: USDA Branded Food Products Database Release December 2017 Software v.3.8.6.4 2017-10-02
Report Run at: December 18, 2017 23:58 EST
"Nutrient data for: 45106406, CARAMEL CASHEW, UPC: 085239808122"
Food Group:  Branded Food Products Database
Common Name:

Nutrient,Unit,Data points,Std. Error,"0.25 cup = 40.0g",1Value per 100 g,
Proximates
"Energy",kcal,--,--,200,500
"Protein",g,--,--,4.00,10.00
"Total lipid (fat)",g,--,--,12.00,30.00
"Carbohydrate, by difference",g,--,--,21.00,52.50
"Fiber, total dietary",g,--,--,1.0,2.5
"Sugars, total",g,--,--,15.00,37.50
Minerals
"Calcium, Ca",mg,--,--,40,100
"Iron, Fe",mg,--,--,1.35,3.38
"Sodium, Na",mg,--,--,30,75
Vitamins
"Vitamin C, total ascorbic acid",mg,--,--,0.0,0.0
"Vitamin A, IU",IU,--,--,0,0
Lipids
"Fatty acids, total saturated",g,--,--,4.000,10.000
"Fatty acids, total trans",g,--,--,0.000,0.000
"Cholesterol",mg,--,--,0,0
Amino Acids
Other
Ingredients
"MILK CHOCOLATE CARAMEL BALLS (MILK CHOCOLATE [SUGAR, COCOA BUTTER, MILK, CHOCOLATE LIQUOR, SOY LECITHIN, ARTIFICIAL FLAVOR AND SALT], CORN SYRUP, SWEETENED CONDENSED MILK [MILK, SKIM MILK, SUGAR], SUGAR, PARTIALLY HYDROGENATED VEGETABLE OIL [CONTAINS ONE OR MORE OF THE FOLLOWING: PALM KERNEL, SOYBEAN, COTTONSEED, COCONUT AND/OR PALM OIL], EVAPORATED MILK [MILK, DIPOTASSIUM PHOSPHATE, CARRAGEENAN AND VITAMIN D], SALT, ARTIFICIAL FLAVOR, GUM ARABIC, MODIFIED CORN STARCH, CONFECTIONER'S GLAZE, XANTHAN GUM), CASHEWS, M&M'S MILK CHOCOLATE CANDIES (MILK CHOCOLATE [SUGAR, CHOCOLATE, SKIM MILK, COCOA BUTTER, LACTOSE MILKFAT, SOY LECITHIN, SALT, ARTIFICIAL FLAVORS], SUGAR, CORN STARCH, LESS THAN 1% OF THE FOLLOWING: CORN SYRUP, DEXTRIN, COLORING [INCLUDES BLUE 1 LAKE, RED 40 LAKE, YELLOW 6, YELLOW 5, RED 40, BLUE 1, BLUE 2 LAKE, YELLOW 6 LAKE, YELLOW 5 LAKE, BLUE 2], GUM ACACIA), PEANUTS, VEGETABLE OIL (PEANUT, COTTONSEED, SOYBEAN AND/OR SUNFLOWER SEED)." Date available: 07/14/2017 Date last updated by company: 07/14/2017
