Source: USDA Branded Food Products Database Release December 2017 Software v.3.8.6.4 2017-10-02
Report Run at: December 19, 2017 00:07 EST
"Nutrient data for: 45149819, CARAMELS, UPC: 804879160984"
Food Group:  Branded Food Products Database
Common Name:

Nutrient,Unit,Data points,Std. Error,"3.0 CARAMELS = 43.0g",1Value per 100 g,
Proximates
"Energy",kcal,--,--,190,442
"Protein",g,--,--,1.00,2.33
"Total lipid (fat)",g,--,--,10.00,23.26
"Carbohydrate, by difference",g,--,--,28.00,65.12
"Fiber, total dietary",g,--,--,0.0,0.0
"Sugars, total",g,--,--,18.00,41.86
Minerals
"Calcium, Ca",mg,--,--,20,47
"Iron, Fe",mg,--,--,0.00,0.00
"Sodium, Na",mg,--,--,170,395
Vitamins
"Vitamin C, total ascorbic acid",mg,--,--,0.0,0.0
"Vitamin A, IU",IU,--,--,349,812
Lipids
"Fatty acids, total saturated",g,--,--,5.998,13.950
"Fatty acids, total trans",g,--,--,0.000,0.000
"Cholesterol",mg,--,--,30,70
Amino Acids
Other
Ingredients
"CREAM, SUGAR, CORN SYRUP, HIGH FRUCTOSE CORN SYRUP, BUTTER (CREAM, SALT), BITTER SWEET CHOCOLATE (COCOA BEANS, SUGAR, COCOA BUTTER, SOY LECITHIN [EMULSIFIER], VANILLA), VANILLA EXTRACT, SALT, CARRAGEENAN, MONO-DIGLYCERIDES, CELLULOSE GUM, POLY SORBATE 80." Date available: 08/10/2017 Date last updated by company: 08/10/2017
