Source: USDA Branded Food Products Database Release December 2017 Software v.3.8.6.4 2017-10-02
Report Run at: December 19, 2017 00:03 EST
"Nutrient data for: 45062355, CARAMELIZED ONION BALSAMIC SPREAD, UPC: 011246269588"
Food Group:  Branded Food Products Database
Common Name:

Nutrient,Unit,Data points,Std. Error,"2.0 Tbsp = 39.0g",1Value per 100 g,
Proximates
"Energy",kcal,--,--,40,103
"Protein",g,--,--,0.00,0.00
"Total lipid (fat)",g,--,--,0.00,0.00
"Carbohydrate, by difference",g,--,--,9.00,23.08
"Fiber, total dietary",g,--,--,0.0,0.0
"Sugars, total",g,--,--,8.00,20.51
Minerals
"Calcium, Ca",mg,--,--,0,0
"Iron, Fe",mg,--,--,0.00,0.00
"Sodium, Na",mg,--,--,60,154
Vitamins
"Vitamin C, total ascorbic acid",mg,--,--,1.5,3.9
"Vitamin A, IU",IU,--,--,0,0
Lipids
"Fatty acids, total saturated",g,--,--,0.000,0.000
"Fatty acids, total trans",g,--,--,0.000,0.000
"Cholesterol",mg,--,--,0,0
Amino Acids
Other
Ingredients
"ONIONS, WATER, CIDER VINEGAR, SUGAR, BROWN SUGAR, BALSAMIC VINEGAR, CORNSTARCH, GARLIC, DIJON MUSTARD (DISTILLED VINEGAR, MUSTARD SEEDS, WHITE WINE, TARTARIC ACID, SPICES), SEA SALT, NATURAL FLAVOR, CITRIC ACID, CRUSHED RED CHILI PEPPERS." Date available: 07/14/2017 Date last updated by company: 07/14/2017
