Source: USDA Branded Food Products Database Release December 2017 Software v.3.8.6.4 2017-10-02
Report Run at: December 19, 2017 00:00 EST
"Nutrient data for: 45214473, CARAMEL CREAMS, UPC: 050428490259"
Food Group:  Branded Food Products Database
Common Name:

Nutrient,Unit,Data points,Std. Error,"3.0 PIECES = 34.0g",1Value per 100 g,
Proximates
"Energy",kcal,--,--,130,382
"Protein",g,--,--,2.00,5.88
"Total lipid (fat)",g,--,--,3.00,8.82
"Carbohydrate, by difference",g,--,--,23.00,67.65
"Fiber, total dietary",g,--,--,1.0,2.9
"Sugars, total",g,--,--,13.00,38.24
Minerals
"Calcium, Ca",mg,--,--,20,59
"Iron, Fe",mg,--,--,0.00,0.00
"Sodium, Na",mg,--,--,50,147
Vitamins
"Vitamin C, total ascorbic acid",mg,--,--,0.0,0.0
"Vitamin A, IU",IU,--,--,147,432
Lipids
"Fatty acids, total saturated",g,--,--,1.000,2.940
"Fatty acids, total trans",g,--,--,0.500,1.470
"Cholesterol",mg,--,--,0,0
Amino Acids
Other
Ingredients
"WHEAT FLOUR, CORN SYRUP, DEXTROSE, SUGAR, PARTIALLY HYDROGENATED SOYBEAN OIL, HIGH FRUCTOSE CORN SYRUP, MODIFIED WHEY, SKIM MILK, CREAM, MONO - AND DIGLYCERIDES, SALT SOY LECITHIN, CORN STARCH, ARTIFICIAL FLAVORS." Date available: 07/14/2017 Date last updated by company: 07/14/2017
