Source: USDA Branded Food Products Database Release December 2017 Software v.3.8.6.4 2017-10-02
Report Run at: December 19, 2017 00:06 EST
"Nutrient data for: 45098800, CARAMEL PUFFCORN, UPC: 074690054742"
Food Group:  Branded Food Products Database
Common Name:

Nutrient,Unit,Data points,Std. Error,"1 CUP | ABOUT = 28.0g",1Value per 100 g,
Proximates
"Energy",kcal,--,--,130,464
"Protein",g,--,--,1.00,3.57
"Total lipid (fat)",g,--,--,4.50,16.07
"Carbohydrate, by difference",g,--,--,22.00,78.57
"Fiber, total dietary",g,--,--,1.0,3.6
"Sugars, total",g,--,--,14.00,50.00
Minerals
"Calcium, Ca",mg,--,--,0,0
"Iron, Fe",mg,--,--,0.00,0.00
"Potassium, K",mg,--,--,20,71
"Sodium, Na",mg,--,--,190,679
Vitamins
"Vitamin C, total ascorbic acid",mg,--,--,0.0,0.0
"Vitamin A, IU",IU,--,--,0,0
Lipids
"Fatty acids, total saturated",g,--,--,0.000,0.000
"Fatty acids, total trans",g,--,--,0.000,0.000
"Cholesterol",mg,--,--,0,0
Amino Acids
Other
Ingredients
"SUGAR, CORNMEAL, CORN SYRUP, CANOLA OIL, MOLASSES, CONTAINS TWO PERCENT OR LESS OF THE FOLLOWING: SALT, PARTIALLY HYDROGENATED SOYBEAN OIL, SOY LECITHIN, MONO AND DIGLYCERIDES, NATURAL AND ARTIFICIAL BUTTER FLAVOR, SODIUM BENZOATE, PROPYLENE GLYCOL, NATURAL MAPLE FLAVOR, CARAMEL COLOR, BETA CAROTENE, VITAMIN A PALMITATE." Date available: 07/14/2017 Date last updated by company: 07/14/2017
