Source: USDA Branded Food Products Database Release December 2017 Software v.3.8.6.4 2017-10-02
Report Run at: December 19, 2017 00:01 EST
"Nutrient data for: 45203379, CARAMEL FLAN, UPC: 882990140788"
Food Group:  Branded Food Products Database
Common Name:

Nutrient,Unit,Data points,Std. Error,"1 CONTAINER = 100.0g",1Value per 100 g,
Proximates
"Energy",kcal,--,--,190,190
"Protein",g,--,--,4.00,4.00
"Total lipid (fat)",g,--,--,8.00,8.00
"Carbohydrate, by difference",g,--,--,26.00,26.00
"Fiber, total dietary",g,--,--,0.0,0.0
"Sugars, total",g,--,--,25.00,25.00
Minerals
"Calcium, Ca",mg,--,--,60,60
"Iron, Fe",mg,--,--,1.08,1.08
"Sodium, Na",mg,--,--,65,65
Vitamins
"Vitamin C, total ascorbic acid",mg,--,--,0.0,0.0
"Vitamin A, IU",IU,--,--,300,300
Lipids
"Fatty acids, total saturated",g,--,--,4.000,4.000
"Fatty acids, total trans",g,--,--,0.000,0.000
"Cholesterol",mg,--,--,125,125
Amino Acids
Other
Ingredients
"CREAM (MILK, CREAM, MONO AND DIGLYCERIDES, DISODIUM PHOSPHATE, SODIUM CITRATE, CARRAGEENAN), LIQUID WHOLE EGGS, DARK CARAMEL (SUGAR, GLUCOSE SYRUP, WATER), SUGAR, FROZEN SUGARED YOLK (EGG YOLK, SUGAR), NATURAL VANILLA FLAVOR, NATURAL FLAVOR." Date available: 07/14/2017 Date last updated by company: 07/14/2017
