Source: USDA Branded Food Products Database Release December 2017 Software v.3.8.6.4 2017-10-02
Report Run at: December 19, 2017 00:07 EST
"Nutrient data for: 45216022, CARAMELS, UPC: 085629991908"
Food Group:  Branded Food Products Database
Common Name:

Nutrient,Unit,Data points,Std. Error,"3.0 PIECES = 34.0g",1Value per 100 g,
Proximates
"Energy",kcal,--,--,130,382
"Protein",g,--,--,1.00,2.94
"Total lipid (fat)",g,--,--,4.00,11.76
"Carbohydrate, by difference",g,--,--,24.00,70.59
"Fiber, total dietary",g,--,--,0.0,0.0
"Sugars, total",g,--,--,30.00,88.24
Minerals
"Calcium, Ca",mg,--,--,40,118
"Iron, Fe",mg,--,--,0.00,0.00
"Sodium, Na",mg,--,--,45,132
Vitamins
"Vitamin C, total ascorbic acid",mg,--,--,0.0,0.0
"Vitamin A, IU",IU,--,--,147,432
Lipids
"Fatty acids, total saturated",g,--,--,2.999,8.820
"Fatty acids, total trans",g,--,--,0.000,0.000
"Cholesterol",mg,--,--,10,29
Amino Acids
Other
Ingredients
"CORN SYRUP, HALF AND HALF, SUGAR, EVAPORATED MILK, CREAM, PALM KERNEL OIL, BUTTER, VANILLA, SEA SALT, SOY LECITHIN." Date available: 07/14/2017 Date last updated by company: 07/14/2017
