Source: USDA Branded Food Products Database Release December 2017 Software v.3.8.6.4 2017-10-02
Report Run at: December 19, 2017 00:07 EST
"Nutrient data for: 45318383, CARAMEL SWIRL ICE CREAM WITH MILK CHOCOLATE CASHEW, UPC: 047677391253"
Food Group:  Branded Food Products Database
Common Name:

Nutrient,Unit,Data points,Std. Error,"1 BAR = 72.0g",1Value per 100 g,
Proximates
"Energy",kcal,--,--,250,347
"Protein",g,--,--,3.00,4.17
"Total lipid (fat)",g,--,--,16.00,22.22
"Carbohydrate, by difference",g,--,--,23.00,31.94
"Fiber, total dietary",g,--,--,1.0,1.4
"Sugars, total",g,--,--,20.00,27.78
Minerals
"Calcium, Ca",mg,--,--,80,111
"Iron, Fe",mg,--,--,0.36,0.50
"Sodium, Na",mg,--,--,60,83
Vitamins
"Vitamin A, IU",IU,--,--,200,278
Lipids
"Fatty acids, total saturated",g,--,--,10.001,13.890
"Fatty acids, total trans",g,--,--,0.000,0.000
"Cholesterol",mg,--,--,30,42
Amino Acids
Other
Ingredients
"ICE CREAM: SKIM MILK, CREAM, SUGAR, CORN SYRUP, MONO AND DIGLYCERIDES, CAROB BEAN GUM, GUAR GUM, CARRAGEENAN, NATURAL FLAVOR, BETA CAROTENE. COATING: MILK CHOCOLATE (SUGAR, COCOA BUTTER, SKIM MILK, CHOCOLATE, LACTOSE, MILKFAT, SOY LECITHIN, ARTIFICIAL FLAVOR), CASHEWS, COCONUT OIL, SEMISWEET CHOCOLATE (SUGAR, CHOCOLATE, CHOCOLATE PROCESSED WITH ALKALI, COCOA BUTTER, MILKFAT, SOY LECITHIN, NATURAL AND ARTIFICIAL FLAVORS), PALM OIL, SALT. CARAMEL: CORN SYRUP, SKIM MILK, SUGAR, PALM OIL, MILKFAT, LACTOSE, SALT, CARRAGEENAN, ARTIFICIAL FLAVOR." Date available: 10/04/2017 Date last updated by company: 10/04/2017
