Source: USDA Branded Food Products Database Release December 2017 Software v.3.8.6.4 2017-10-02
Report Run at: December 19, 2017 00:02 EST
"Nutrient data for: 45211326, CARAMELIZED ALMOND CHOCOLATE BARK, UPC: 877708005862"
Food Group:  Branded Food Products Database
Common Name:

Nutrient,Unit,Data points,Std. Error,"40.0 GRM = 40.0g",1Value per 100 g,
Proximates
"Energy",kcal,--,--,207,518
"Protein",g,--,--,4.00,10.00
"Total lipid (fat)",g,--,--,15.00,37.50
"Carbohydrate, by difference",g,--,--,18.00,45.00
"Fiber, total dietary",g,--,--,3.0,7.5
"Sugars, total",g,--,--,4.00,10.00
Minerals
"Calcium, Ca",mg,--,--,45,112
"Iron, Fe",mg,--,--,1.00,2.50
"Sodium, Na",mg,--,--,4,10
Vitamins
"Vitamin A, IU",IU,--,--,51,128
Lipids
"Fatty acids, total saturated",g,--,--,1.000,2.500
"Fatty acids, total trans",g,--,--,0.000,0.000
"Cholesterol",mg,--,--,0,0
Amino Acids
Other
Ingredients
"COCOA MASS, SUGAR, ALMOND, COCOA BUTTER, WATER, NATURAL SOY LECITHIN (E322 EMULSIFIER), NATURAL VANILLA FLAVOR." Date available: 10/19/2017 Date last updated by company: 10/19/2017
