Source: USDA Branded Food Products Database Release December 2017 Software v.3.8.6.4 2017-10-02
Report Run at: December 19, 2017 00:03 EST
"Nutrient data for: 45256413, CARAMELIZED MADAGASCAR VANILLA CREAM CUPS, UPC: 078742109596"
Food Group:  Branded Food Products Database
Common Name:

Nutrient,Unit,Data points,Std. Error,"1 cup = 81.0g",1Value per 100 g,
Proximates
"Energy",kcal,--,--,250,309
"Protein",g,--,--,3.00,3.70
"Total lipid (fat)",g,--,--,16.00,19.75
"Carbohydrate, by difference",g,--,--,24.00,29.63
"Fiber, total dietary",g,--,--,1.0,1.2
"Sugars, total",g,--,--,19.00,23.46
Minerals
"Calcium, Ca",mg,--,--,80,99
"Iron, Fe",mg,--,--,1.01,1.25
"Sodium, Na",mg,--,--,135,167
Vitamins
"Vitamin C, total ascorbic acid",mg,--,--,0.0,0.0
"Vitamin A, IU",IU,--,--,225,278
Lipids
"Fatty acids, total saturated",g,--,--,8.999,11.110
"Fatty acids, total trans",g,--,--,0.000,0.000
"Cholesterol",mg,--,--,75,93
Amino Acids
Other
Ingredients
"WATER, HEAVY CREAM (MILK, CREAM, CARRAGEENAN), VANILLA FILLING (SUGAR, NON FAT MILK, MODIFIED FOOD STARCH, SALT TETRASODIUM PYROPHOSPHATE, MONOCALCIUM PHHSPHATE, POTASSIUM SORBATE PRESERVATIVE, DEXTROSE, WHEAT STARCH, MALTODEXTRIN, ARTIFICIAL FLAVOR, YELLOW 5, YELLOW 6), SEMISWEET CHOCOLATE (UNSWEETENED CHOCOLATE, SUGAR, COCOA BUTTER, SOY LECITHIN, NATURAL FLAVOR), SUGARED EGG YOLKS (EGG YOLKS, SUGAR), VANILLA EXTRACT (WATER, ETHYL ALCOHOL, SUGAR, VANILLA BEAN EXTRACT), POWDERED SUGAR (SUGAR, CORNSTARCH), TITANIUM DIOXIDE COLOR." Date available: 07/14/2017 Date last updated by company: 07/14/2017
