Source: USDA Branded Food Products Database Release December 2017 Software v.3.8.6.4 2017-10-02
Report Run at: December 18, 2017 23:57 EST
"Nutrient data for: 45323316, CARAMEL APPLE WALNUT PIE, UPC: 022469779044"
Food Group:  Branded Food Products Database
Common Name:

Nutrient,Unit,Data points,Std. Error,"0.125 PIE = 141.0g",1Value per 100 g,
Proximates
"Energy",kcal,--,--,391,277
"Protein",g,--,--,4.00,2.84
"Total lipid (fat)",g,--,--,25.00,17.73
"Carbohydrate, by difference",g,--,--,52.00,36.88
"Fiber, total dietary",g,--,--,2.0,1.4
"Sugars, total",g,--,--,19.01,13.48
Minerals
"Calcium, Ca",mg,--,--,20,14
"Iron, Fe",mg,--,--,0.32,0.23
"Sodium, Na",mg,--,--,220,156
Vitamins
"Vitamin C, total ascorbic acid",mg,--,--,1.1,0.8
"Vitamin A, IU",IU,--,--,0,0
Lipids
"Fatty acids, total saturated",g,--,--,8.996,6.380
"Fatty acids, total trans",g,--,--,0.000,0.000
"Cholesterol",mg,--,--,6,4
Amino Acids
Other
Ingredients
"APPLE FILLING & TOPPING INGREDIENTS: APPLES, SUGAR, WATER, BROWN SUGAR, CORN STARCH CONTAINS 2% OR LESS OF CITRIC ACID, BUTTER, MARGARINE (PALM OIL, WATER, SOYBEAN OIL, SALT, CONTAINS LESS THAN 2% OF NATURAL FLAVOR, SOY LECITHIN, BETA CAROTENE AS COLOR, VITAMIN A PALMITATE ADDED), SWEETENED CONDENSED MILK (MILK, SUGAR, SKIM MILK, WHEY, MAGNESIUM HYDROZIDE, SODIUM CITRATE), WALNUTS, CINNAMON, NUTMEG, SALT, NATURAL FLAVOR, MALTODEXTRIN, CULTURED DEXTROSE. CRUST INGREDIENTS: ENRICHED WHEAT FLOUR (FLOUR, NIACIN, REDUCED IRON, THIAMINE MONONITRATE, RIBOFLAVIN, FOLIC ACID), VEGETABLE SHORTENING (PALM OIL, SOYBEAN OIL), WATER, CONTAINS 2% OR LESS OF DEXTROSE, DOUGH CONDITIONER (WHEY, DEACTIVATED YEAST), BAKING SODA, MALTODEXTRIN, CULTURED DEXTROSE." Date available: 07/14/2017 Date last updated by company: 07/14/2017
