Source: USDA Branded Food Products Database Release December 2017 Software v.3.8.6.4 2017-10-02
Report Run at: December 19, 2017 00:00 EST
"Nutrient data for: 45287034, CARAMEL CUP, UPC: 041268168576"
Food Group:  Branded Food Products Database
Common Name:

Nutrient,Unit,Data points,Std. Error,"0.66 cup = 79.0g",1Value per 100 g,
Proximates
"Energy",kcal,--,--,160,203
"Protein",g,--,--,3.00,3.80
"Total lipid (fat)",g,--,--,5.00,6.33
"Carbohydrate, by difference",g,--,--,27.00,34.18
"Fiber, total dietary",g,--,--,0.0,0.0
"Sugars, total",g,--,--,20.00,25.32
Minerals
"Calcium, Ca",mg,--,--,96,122
"Iron, Fe",mg,--,--,0.00,0.00
"Potassium, K",mg,--,--,150,190
"Sodium, Na",mg,--,--,75,95
Vitamins
"Vitamin D",IU,--,--,0,0
Lipids
"Fatty acids, total saturated",g,--,--,3.500,4.430
"Fatty acids, total trans",g,--,--,0.000,0.000
"Cholesterol",mg,--,--,15,19
Amino Acids
Other
Ingredients
"MILKFAT AND NONFAT MILK, CARAMEL FUDGE (CORN SYRUP, BUTTERMILK, HIGH FRUCTOSE CORN SYRUP, NONFAT MILK, BUTTER, PECTIN, MONO & DIGLYCERIDES, SALT, XANTHAN GUM, SODIUM CITRATE), CORN SYRUP, CARAMEL TURTLES (SUGAR, COCONUT OIL, CORN SYRUP, SWEETENED CONDENSED MILK [MILK, SUGAR], NONFAT MILK, MILK, COCOA PROCESSED WITH ALKALI, HEAVY CREAM, BUTTER [CREAM, SALT], PALM KERNEL OIL, SOY LECITHIN, NATURAL & ARTIFICIAL FLAVORS, SALT, VANILLIN [ARTIFICIAL FLAVOR]), SUGAR, WHEY PROTEIN CONCENTRATE, WHEY, MALTODEXTRIN, MONO & DIGLYCERIDES, TAPIOCA STARCH, NATURAL & ARTIFICIAL FLAVOR, GUAR GUM, LOCUST BEAN GUM, POLYSORBATE 80, CARRAGEENAN AND VITAMIN A PALMITATE." Date available: 10/13/2017 Date last updated by company: 10/13/2017
