Source: USDA Branded Food Products Database Release December 2017 Software v.3.8.6.4 2017-10-02
Report Run at: December 19, 2017 00:03 EST
"Nutrient data for: 45236813, CARAMELIZED RED ONION CHUTNEY, UPC: 858723003033"
Food Group:  Branded Food Products Database
Common Name:

Nutrient,Unit,Data points,Std. Error,"1 Tbsp = 30.0g",1Value per 100 g,
Proximates
"Energy",kcal,--,--,70,233
"Protein",g,--,--,0.00,0.00
"Total lipid (fat)",g,--,--,0.00,0.00
"Carbohydrate, by difference",g,--,--,16.00,53.33
"Fiber, total dietary",g,--,--,0.0,0.0
"Sugars, total",g,--,--,17.00,56.67
Minerals
"Calcium, Ca",mg,--,--,0,0
"Iron, Fe",mg,--,--,0.00,0.00
"Sodium, Na",mg,--,--,150,500
Vitamins
"Vitamin C, total ascorbic acid",mg,--,--,0.0,0.0
"Vitamin A, IU",IU,--,--,0,0
Lipids
"Fatty acids, total saturated",g,--,--,0.000,0.000
"Fatty acids, total trans",g,--,--,0.000,0.000
"Cholesterol",mg,--,--,0,0
Amino Acids
Other
Ingredients
"RED ONIONS (29%), SUGAR, BRAMLEY APPLES, WHITE WINE VINEGAR, MUSCOVADO SUGAR, CARAMEL FREE BALSAMIC VINEGAR OF MODENA (WINE VINEGAR, GRAPE MUST), MOLASSES, ORGANIC SEA SALT, DRIED ONION, GARLIC PUREE, GINGER PUREE." Date available: 10/13/2017 Date last updated by company: 10/13/2017
