Source: USDA Branded Food Products Database Release December 2017 Software v.3.8.6.4 2017-10-02
Report Run at: December 19, 2017 00:03 EST
"Nutrient data for: 45178264, CARAMELIZED ONION DIP, UPC: 736798902072"
Food Group:  Branded Food Products Database
Common Name:

Nutrient,Unit,Data points,Std. Error,"2.0 Tbsp = 31.0g",1Value per 100 g,
Proximates
"Energy",kcal,--,--,50,161
"Protein",g,--,--,2.00,6.45
"Total lipid (fat)",g,--,--,4.00,12.90
"Carbohydrate, by difference",g,--,--,3.00,9.68
"Fiber, total dietary",g,--,--,0.0,0.0
"Sugars, total",g,--,--,1.00,3.23
Minerals
"Calcium, Ca",mg,--,--,60,194
"Iron, Fe",mg,--,--,0.00,0.00
"Sodium, Na",mg,--,--,125,403
Vitamins
"Vitamin C, total ascorbic acid",mg,--,--,0.0,0.0
"Vitamin A, IU",IU,--,--,0,0
Lipids
"Fatty acids, total saturated",g,--,--,0.499,1.610
"Fatty acids, total trans",g,--,--,0.000,0.000
"Cholesterol",mg,--,--,5,16
Amino Acids
Other
Ingredients
"RBST-FREE LOW-FAT GREEK YOGURT (PASTEURIZED GRADE A SKIM MILK, MILK PROTEIN CONCENTRATE, CREAM, PECTIN, ENZYMES, LIVE ACTIVE CULTURES), CARAMELIZED ONIONS, MAYONNAISE (CANOLA OIL, EGG YOLKS, LEMON JUICE, WHITE WINE VINEGAR, WATER, MUSTARD POWDER), DEHYDRATED ONIONS, RAW CANE SUGAR, GARLIC, SEA SALT, ONION POWDER, BLACK PEPPER." Date available: 07/14/2017 Date last updated by company: 07/14/2017
