Source: USDA Branded Food Products Database Release December 2017 Software v.3.8.6.4 2017-10-02
Report Run at: December 19, 2017 00:12 EST
"Nutrient data for: 45231247, CARIBBEAN BLACK BEAN SOUP, UPC: 713733951777"
Food Group:  Branded Food Products Database
Common Name:

Nutrient,Unit,Data points,Std. Error,"1 cup = 245.0g",1Value per 100 g,
Proximates
"Energy",kcal,--,--,441,180
"Protein",g,--,--,7.01,2.86
"Total lipid (fat)",g,--,--,1.00,0.41
"Carbohydrate, by difference",g,--,--,35.01,14.29
"Fiber, total dietary",g,--,--,5.9,2.4
"Sugars, total",g,--,--,6.00,2.45
Minerals
"Calcium, Ca",mg,--,--,59,24
"Iron, Fe",mg,--,--,1.79,0.73
"Sodium, Na",mg,--,--,669,273
Vitamins
"Vitamin C, total ascorbic acid",mg,--,--,12.0,4.9
"Vitamin A, IU",IU,--,--,500,204
Lipids
"Fatty acids, total saturated",g,--,--,0.000,0.000
"Fatty acids, total trans",g,--,--,0.000,0.000
"Cholesterol",mg,--,--,0,0
Amino Acids
Other
Ingredients
"FILTERED WATER, ORGANIC BLACK BEANS, ORGANIC TOMATOES (ORGANIC TOMATOES, ORGANIC TOMATO JUICE, CALCIUM CHLORIDE, CITRIC ACID), ORGANIC RED PEPPERS, ORGANIC CORN, ORGANIC TOMATO PASTE, ORGANIC BROWN RICE, ORGANIC ONIONS, CONTAINS LESS THAN 2% OF: ORGANIC POTATO STARCH, ORGANIC PINEAPPLE JUICE CONCENTRATE, SEA SALT, ORGANIC JALAPENO PEPPERS, ORGANIC GINGER PUREE, ORGANIC GARLIC PUREE, ORGANIC CILANTRO, ORGANIC ONION POWDER, ORGANIC LIME JUICE CONCENTRATE, ORGANIC PAPRIKA, ORGANIC THYME, ORGANIC CAYENNE PEPPER, ORGANIC ALLSPICE, ORGANIC BLACK PEEPER." Date available: 07/26/2017 Date last updated by company: 07/26/2017
