Source: USDA Branded Food Products Database Release December 2017 Software v.3.8.6.4 2017-10-02
Report Run at: December 19, 2017 00:15 EST
"Nutrient data for: 45029005, CARMELLA'S MARINARA ALL PURPOSE SAUCE, UPC: 081319819408"
Food Group:  Branded Food Products Database
Common Name:

Nutrient,Unit,Data points,Std. Error,"0.5 cup = 128.0g",1Value per 100 g,
Proximates
"Energy",kcal,--,--,90,70
"Protein",g,--,--,3.00,2.34
"Total lipid (fat)",g,--,--,2.50,1.95
"Carbohydrate, by difference",g,--,--,15.00,11.72
"Fiber, total dietary",g,--,--,2.9,2.3
"Sugars, total",g,--,--,6.00,4.69
Minerals
"Calcium, Ca",mg,--,--,60,47
"Iron, Fe",mg,--,--,1.14,0.89
"Sodium, Na",mg,--,--,340,266
Vitamins
"Vitamin C, total ascorbic acid",mg,--,--,25.3,19.8
"Vitamin A, IU",IU,--,--,1056,825
Lipids
"Fatty acids, total saturated",g,--,--,0.000,0.000
"Fatty acids, total trans",g,--,--,0.000,0.000
"Cholesterol",mg,--,--,0,0
Amino Acids
Other
Ingredients
"TOMATO STRIPS, CRUSHED TOMATOES, WATER, PURE OLIVE OIL, CANOLA OIL, FRESH GARLIC, FRESH ONION, SPICE MIX AND CITRIC ACID (ACIDIFIER)." Date available: 06/24/2017 Date last updated by company: 06/24/2017
