Source: USDA Branded Food Products Database Release December 2017 Software v.3.8.6.4 2017-10-02
Report Run at: December 19, 2017 00:16 EST
"Nutrient data for: 45104525, CARNE GUISADA SEASONING FOR MEAT TACOS, UPC: 071758200363"
Food Group:  Branded Food Products Database
Common Name:

Nutrient,Unit,Data points,Std. Error,"0.25 tsp = 1.0g",1Value per 100 g,
Proximates
"Energy",kcal,--,--,0,0
"Protein",g,--,--,0.00,0.00
"Total lipid (fat)",g,--,--,0.00,0.00
"Carbohydrate, by difference",g,--,--,1.00,100.00
Minerals
"Sodium, Na",mg,--,--,65,6500
Vitamins
Lipids
Amino Acids
Other
Ingredients
"CORN STARCH, SPICES, SALT, MONOSODIUM GLUTAMATE, ONION, GARLIC, SUGAR, BELL PEPPER, BEEF FLAVOR (YEAST EXTRACT, AND NATURAL FLAVOR [DERIVED FROM AMINO ACIDS]), AND CALCIUM STEARATE (FREE FLOW AGENT)." Date available: 06/25/2017 Date last updated by company: 06/25/2017
