Source: USDA Branded Food Products Database Release December 2017 Software v.3.8.6.4 2017-10-02
Report Run at: December 19, 2017 00:16 EST
"Nutrient data for: 45280805, CARNITAS BAKE, UPC: 079893108698"
Food Group:  Branded Food Products Database
Common Name:

Nutrient,Unit,Data points,Std. Error,"1 TRAY = 269.0g",1Value per 100 g,
Proximates
"Energy",kcal,--,--,401,149
"Protein",g,--,--,19.99,7.43
"Total lipid (fat)",g,--,--,16.01,5.95
"Carbohydrate, by difference",g,--,--,44.01,16.36
"Fiber, total dietary",g,--,--,7.0,2.6
"Sugars, total",g,--,--,7.99,2.97
Minerals
"Calcium, Ca",mg,--,--,100,37
"Iron, Fe",mg,--,--,1.32,0.49
"Sodium, Na",mg,--,--,850,316
Vitamins
"Vitamin C, total ascorbic acid",mg,--,--,8.6,3.2
"Vitamin A, IU",IU,--,--,291,108
Lipids
"Fatty acids, total saturated",g,--,--,4.492,1.670
"Fatty acids, total trans",g,--,--,0.000,0.000
"Cholesterol",mg,--,--,40,15
Amino Acids
Other
Ingredients
"CORN TORTILLA (WATER, WHITE CORN MASA FLOUR, TRACE OF LIME), COOKED PORK (PORK, PORK BROTH, SALT, GARLIC POWDER, SODIUM PHOSPHATE, CARAMEL COLOR, ONION POWDER, PAPRIKA, LEMON JUICE CONCENTRATE), ONION, WATER, ROASTED YELLOW CORN, ROASTED RED BELL PEPPER, ROASTED GREEN BELL PEPPER, BLACK BEANS (BLACK BEANS, WATER, SALT), ROASTED RED ONION, CREMA (CULTURED PASTEURIZED CREAM AND MILK, WHEY PROTEIN CONCENTRATE, SEA SALT, CARRAGEENAN, XANTHAN GUM), QUESO QUESADILLA CHEESE (CULTURED PASTEURIZED MILK AND SKIM MILK, SEA SALT, ENZYMES, ANNATTO EXTRACT [COLOR]), CANOLA OIL, ACHIOTE PASTE (VINEGAR, ACHIOTE SEED, SPICES, SALT, GARLIC), ORANGE JUICE (ORANGE JUICE CONCENTRATE, WATER), PINEAPPLE JUICE CONCENTRATE, GARLIC (GARLIC, CITRIC ACID), LIME JUICE CONCENTRATE, SALT, GREEN SERRANO PEPPERS, MODIFIED CORN STARCH, CARAMEL COLOR." Date available: 10/17/2017 Date last updated by company: 10/17/2017
