Source: USDA Branded Food Products Database Release December 2017 Software v.3.8.6.4 2017-10-02
Report Run at: December 19, 2017 00:18 EST
"Nutrient data for: 45141491, CAROLINA TURKEY, DELUXE TURKEY PASTRAMI, UPC: 022655816508"
Food Group:  Branded Food Products Database
Common Name:

Nutrient,Unit,Data points,Std. Error,"2.0 ONZ = 56.0g",1Value per 100 g,
Proximates
"Energy",kcal,--,--,60,107
"Protein",g,--,--,8.00,14.29
"Total lipid (fat)",g,--,--,3.00,5.36
"Carbohydrate, by difference",g,--,--,0.00,0.00
Minerals
"Iron, Fe",mg,--,--,0.71,1.26
"Sodium, Na",mg,--,--,590,1054
Vitamins
Lipids
"Fatty acids, total saturated",g,--,--,1.501,2.680
"Fatty acids, total trans",g,--,--,0.000,0.000
"Cholesterol",mg,--,--,15,27
Amino Acids
Other
Ingredients
"TURKEY, WATER, SEASONING (SALT, SUGAR, SPICES, SODIUM ERYTHORBATE, GARLIC POWDER), POTASSIUM LACTATE, SODIUM PHOSPHATE, SODIUM DIACETATE, SODIUM NITRITE." Date available: 07/14/2017 Date last updated by company: 07/14/2017
