Source: USDA Branded Food Products Database Release December 2017 Software v.3.8.6.4 2017-10-02
Report Run at: December 19, 2017 00:18 EST
"Nutrient data for: 45201987, CAROLINA TREET, COOKING BARBECUE SAUCE, UPC: 07353448"
Food Group:  Branded Food Products Database
Common Name:

Nutrient,Unit,Data points,Std. Error,"2.0 Tbsp = 38.0g",1Value per 100 g,
Proximates
"Energy",kcal,--,--,40,105
"Protein",g,--,--,1.00,2.63
"Total lipid (fat)",g,--,--,2.00,5.26
"Carbohydrate, by difference",g,--,--,5.00,13.16
"Fiber, total dietary",g,--,--,0.0,0.0
"Sugars, total",g,--,--,1.00,2.63
Minerals
"Calcium, Ca",mg,--,--,20,53
"Iron, Fe",mg,--,--,1.22,3.20
"Sodium, Na",mg,--,--,1070,2816
Vitamins
"Vitamin C, total ascorbic acid",mg,--,--,2.0,5.3
"Vitamin A, IU",IU,--,--,1268,3337
Lipids
"Fatty acids, total saturated",g,--,--,0.502,1.320
"Cholesterol",mg,--,--,0,0
Amino Acids
Other
Ingredients
"WATER, VINEGAR, WHEAT FLOUR, SALT, SOYBEAN OIL, PAPRIKA, GARLIC, ONION, XANTHAN GUM, SPICES." Date available: 07/14/2017 Date last updated by company: 07/14/2017
