Source: USDA Branded Food Products Database Release December 2017 Software v.3.8.6.4 2017-10-02
Report Run at: December 19, 2017 00:16 EST
"Nutrient data for: 45324563, CAROLINA BAR-B-Q SAUCE, UPC: 087041918891"
Food Group:  Branded Food Products Database
Common Name:

Nutrient,Unit,Data points,Std. Error,"2.0 Tbsp = 33.0g",1Value per 100 g,
Proximates
"Energy",kcal,--,--,20,61
"Protein",g,--,--,0.00,0.00
"Total lipid (fat)",g,--,--,0.00,0.00
"Carbohydrate, by difference",g,--,--,5.00,15.15
"Sugars, total",g,--,--,4.00,12.12
Minerals
"Sodium, Na",mg,--,--,290,879
Vitamins
"Vitamin A, IU",IU,--,--,338,1024
Lipids
Amino Acids
Other
Ingredients
"WATER, MUSTARD (DISTILLED VINEGAR, WATER, MUSTARD SEED, SALT, TURMERIC PAPRIKA, SPICE, GARLIC POWDER), KETCHUP (TOMATO CONCENTRATE MADE FROM RED RIPE TOMATOES, DISTILLED VINEGAR, HIGH FRUCTOSE CORN SYRUP, CORN SYRUP, SALT, SPICE, ONION POWDER, NATURAL FLAVORING), PEPPER SAUCE (DISTILLED VINEGAR, RED PEPPER, SALT), VINEGAR, SUGAR, CORN STARCH-MODIFIED, SALT, NATURAL SMOKE FLAVOR, SPICE, CARAMEL COLOR, SODIUM BENZOATE (PRESERVATIVES), SULFITING AGENT." Date available: 08/10/2017 Date last updated by company: 08/10/2017
