Source: USDA Branded Food Products Database Release December 2017 Software v.3.8.6.4 2017-10-02
Report Run at: December 19, 2017 00:21 EST
"Nutrient data for: 45328919, CARROT NOODLES, UPC: 605806010026"
Food Group:  Branded Food Products Database
Common Name:

Nutrient,Unit,Data points,Std. Error,"0.75 cup = 85.0g",1Value per 100 g,
Proximates
"Energy",kcal,--,--,35,41
"Protein",g,--,--,1.00,1.18
"Total lipid (fat)",g,--,--,0.00,0.00
"Carbohydrate, by difference",g,--,--,8.00,9.41
"Fiber, total dietary",g,--,--,2.0,2.4
"Sugars, total",g,--,--,6.00,7.06
Minerals
"Calcium, Ca",mg,--,--,20,24
"Iron, Fe",mg,--,--,1.08,1.27
"Sodium, Na",mg,--,--,65,76
Vitamins
"Vitamin D",IU,--,--,0,0
Lipids
"Fatty acids, total saturated",g,--,--,0.000,0.000
"Fatty acids, total trans",g,--,--,0.000,0.000
"Cholesterol",mg,--,--,0,0
Amino Acids
Other
Ingredients
"CARROTS" Date available: 10/13/2017 Date last updated by company: 10/13/2017
