Source: USDA Branded Food Products Database Release December 2017 Software v.3.8.6.4 2017-10-02
Report Run at: December 19, 2017 00:23 EST
"Nutrient data for: 45212967, CARROTS + CUCUMBER WITH SPICY HUMMUS, UPC: 5051379084004"
Food Group:  Branded Food Products Database
Common Name:

Nutrient,Unit,Data points,Std. Error,"1 PACK = 170.0g",1Value per 100 g,
Proximates
"Energy",kcal,--,--,201,118
"Protein",g,--,--,4.00,2.35
"Total lipid (fat)",g,--,--,12.00,7.06
"Carbohydrate, by difference",g,--,--,19.01,11.18
"Fiber, total dietary",g,--,--,4.9,2.9
"Sugars, total",g,--,--,6.00,3.53
Minerals
"Calcium, Ca",mg,--,--,41,24
"Iron, Fe",mg,--,--,0.32,0.19
"Sodium, Na",mg,--,--,371,218
Vitamins
"Vitamin C, total ascorbic acid",mg,--,--,1.7,1.0
"Vitamin A, IU",IU,--,--,4265,2509
Lipids
"Fatty acids, total saturated",g,--,--,1.003,0.590
"Fatty acids, total trans",g,--,--,0.000,0.000
"Cholesterol",mg,--,--,0,0
Amino Acids
Other
Ingredients
"CUCUMBERS, CARROTS, SPICY JALAPENO HUMMUS [CHICKPEAS (CHICKPEAS, WATER, SALT), CANOLA OIL, SESAME SEED PASTE, RED JALAPENO PUREE (RED JALAPENO CHILI, WATER, CITRIC ACID), LEMON JUICE CONCENTRATE, JALAPENO CHILI, CORN STARCH, GARLIC PUREE, SALT, SPICES]." Date available: 10/13/2017 Date last updated by company: 10/13/2017
