Source: USDA Branded Food Products Database Release December 2017 Software v.3.8.6.4 2017-10-02
Report Run at: December 19, 2017 00:27 EST
"Nutrient data for: 45260551, CARVING SQUID, UPC: 823998206045"
Food Group:  Branded Food Products Database
Common Name:

Nutrient,Unit,Data points,Std. Error,"4.0 ONZ = 112.0g",1Value per 100 g,
Proximates
"Energy",kcal,--,--,110,98
"Protein",g,--,--,17.00,15.18
"Total lipid (fat)",g,--,--,2.00,1.79
"Carbohydrate, by difference",g,--,--,3.00,2.68
"Fiber, total dietary",g,--,--,0.0,0.0
"Sugars, total",g,--,--,0.00,0.00
Minerals
"Calcium, Ca",mg,--,--,40,36
"Iron, Fe",mg,--,--,0.72,0.64
"Sodium, Na",mg,--,--,50,45
Vitamins
Lipids
"Fatty acids, total saturated",g,--,--,0.000,0.000
"Fatty acids, total trans",g,--,--,0.000,0.000
"Cholesterol",mg,--,--,260,232
Amino Acids
Other
Ingredients
"CARVING SQUID" Date available: 12/22/2016 Date last updated by company: 12/22/2016
