Source: USDA Branded Food Products Database Release December 2017 Software v.3.8.6.4 2017-10-02
Report Run at: December 19, 2017 00:36 EST
"Nutrient data for: 45321382, CAS FRM MLTGRN SQUARES CEREAL RTE, UNPREPARED, GTIN: 00021908455570"
Food Group:  Branded Food Products Database
Common Name:

Nutrient,Unit,Data points,Std. Error,"1 cup (53g) = 53.0g",1Value per 100 g,
Proximates
"Energy",kcal,--,--,210,396
"Protein",g,--,--,5.00,9.43
"Total lipid (fat)",g,--,--,1.00,1.89
"Carbohydrate, by difference",g,--,--,44.00,83.02
"Fiber, total dietary",g,--,--,4.0,7.5
"Sugars, total",g,--,--,7.00,13.21
Minerals
"Calcium, Ca",mg,--,--,0,0
"Iron, Fe",mg,--,--,1.44,2.72
"Potassium, K",mg,--,--,190,358
"Sodium, Na",mg,--,--,190,358
Vitamins
"Vitamin C, total ascorbic acid",mg,--,--,0.0,0.0
"Vitamin A, IU",IU,--,--,0,0
Lipids
"Fatty acids, total saturated",g,--,--,0.000,0.000
"Fatty acids, total monounsaturated",g,--,--,0.000,0.000
"Fatty acids, total polyunsaturated",g,--,--,0.000,0.000
"Fatty acids, total trans",g,--,--,0.000,0.000
"Cholesterol",mg,--,--,0,0
Amino Acids
Other
Ingredients
"WHEAT*, RICE*, CORN MEAL*, SUGAR*, SEA SALT, BARLEY MALT EXTRACT*. VITAMIN E (MIXED TOCOPHEROLS) ADDED TO PRESERVE FRESHNESS.*ORGANIC" Date available: 10/10/2017 Date last updated by company: 07/11/2017
