Source: USDA Branded Food Products Database Release December 2017 Software v.3.8.6.4 2017-10-02
Report Run at: December 19, 2017 00:30 EST
"Nutrient data for: 45170375, CASAMADAIO, TOZZETTI, UPC: 8022061982226"
Food Group:  Branded Food Products Database
Common Name:

Nutrient,Unit,Data points,Std. Error,"28.0 GRM = 28.0g",1Value per 100 g,
Proximates
"Energy",kcal,--,--,124,442
"Protein",g,--,--,2.45,8.75
"Total lipid (fat)",g,--,--,4.23,15.11
"Carbohydrate, by difference",g,--,--,18.18,64.93
Minerals
Vitamins
Lipids
Amino Acids
Other
Ingredients
"WHEAT FLOUR 00, WINE, BUFFALO BUTTER AND SALT." Date available: 10/13/2017 Date last updated by company: 10/13/2017
