Source: USDA Branded Food Products Database Release December 2017 Software v.3.8.6.4 2017-10-02
Report Run at: December 19, 2017 00:30 EST
"Nutrient data for: 45002559, CASA MAMITA, CHICKEN & CHEESE TAQUITOS ROLLED IN FLOUR TORTILLAS, UPC: 041498184032"
Food Group:  Branded Food Products Database
Common Name:

Nutrient,Unit,Data points,Std. Error,"2.0 TAQUITOS = 85.0g",1Value per 100 g,
Proximates
"Energy",kcal,--,--,200,235
"Protein",g,--,--,8.00,9.41
"Total lipid (fat)",g,--,--,8.00,9.41
"Carbohydrate, by difference",g,--,--,25.00,29.41
"Fiber, total dietary",g,--,--,1.0,1.2
"Sugars, total",g,--,--,0.00,0.00
Minerals
"Calcium, Ca",mg,--,--,20,24
"Iron, Fe",mg,--,--,1.80,2.12
"Sodium, Na",mg,--,--,430,506
Vitamins
"Vitamin C, total ascorbic acid",mg,--,--,1.2,1.4
"Vitamin A, IU",IU,--,--,100,118
Lipids
"Fatty acids, total saturated",g,--,--,1.496,1.760
"Fatty acids, total trans",g,--,--,0.000,0.000
"Cholesterol",mg,--,--,15,18
Amino Acids
Other
Ingredients
"FILLING: CHICKEN LEG MEAT, WATER, CORN FLOUR (WHITE CORN COOKED WITH LIME WATER), CHEDDAR CHEESE (PASTEURIZED MILK, CHEESE CULTURES, SALT, ENZYMES, ANNATTO [COLOR]), DICED GREEN CHILE (GREEN CHILE PEPPERS, WATER, CITRIC ACID), MONTEREY JACK CHEESE (PASTEURIZED MILK, CHEESE CULTURES, SALT, ENZYMES), TOMATO PASTE, MODIFIED FOOD STARCH, SALT, GUM ACACIA, XANTHAN GUM, TEXTURE WHEAT PROTEIN (WHEAT GLUTEN, WHEAT FLOUR, PHOSPHATE, CARAMEL, ANTIOXIDANT), DICED JALAPENO PEPPERS (JALAPENO PEPPERS, WATER, SALT, CITRIC ACID, CALCIUM CHLORIDE), GARLIC, DEHYDRATED ONION, SPICES, CHILI PEPPER, RED PEPPERS, TORTILLA: ENRICHED FLOUR (BLEACHED WHEAT FLOUR, NIACIN, IRON, THIAMIN MONONITRATE, RIBOFLAVIN, FOLIC ACID), WATER, VEGETABLE OIL (SOYBEAN, CANOLA OR CORN OILS), SALT, MODIFIED FOOD STARCH, BAKING POWDER (SODIUM BICARBONATE, CORN STARCH, SODIUM ALUMINUM SULFATE, CALCIUM SULFATE, MONOCALCIUM PHOSPHATE), GUAR GUM, DOUGH CONDITIONER (SODIUM METABISULFITE, CORN STARCH, MICROCRYSTALLINE CELLULOSE, DICALCIUM PHOSPHATE). FRIED IN VEGETABLE OIL (SOYBEAN, CANOLA OR CORN OILS)." Date available: 07/14/2017 Date last updated by company: 07/14/2017
