Source: USDA Branded Food Products Database Release December 2017 Software v.3.8.6.4 2017-10-02
Report Run at: December 19, 2017 00:30 EST
"Nutrient data for: 45089851, CASA MILO, BRUSCHETTE TRADITIONAL OVEN BAKED TOASTS, UPC: 703170720364"
Food Group:  Branded Food Products Database
Common Name:

Nutrient,Unit,Data points,Std. Error,"12.0 CRACKERS = 30.0g",1Value per 100 g,
Proximates
"Energy",kcal,--,--,130,433
"Protein",g,--,--,3.00,10.00
"Total lipid (fat)",g,--,--,4.00,13.33
"Carbohydrate, by difference",g,--,--,19.00,63.33
"Fiber, total dietary",g,--,--,1.0,3.3
"Sugars, total",g,--,--,1.00,3.33
Minerals
"Calcium, Ca",mg,--,--,0,0
"Iron, Fe",mg,--,--,1.20,4.00
"Sodium, Na",mg,--,--,280,933
Vitamins
"Vitamin C, total ascorbic acid",mg,--,--,0.0,0.0
"Vitamin A, IU",IU,--,--,0,0
Lipids
"Fatty acids, total saturated",g,--,--,0.501,1.670
"Fatty acids, total trans",g,--,--,0.000,0.000
"Cholesterol",mg,--,--,0,0
Amino Acids
Other
Ingredients
"WHEAT FOUR, OLIVE OIL, ITALIAN EXTRA VIRGIN OLIVE OIL, SALT, YEAST, MALTED WHEAT FLOUR." Date available: 07/14/2017 Date last updated by company: 07/14/2017
