Source: USDA Branded Food Products Database Release December 2017 Software v.3.8.6.4 2017-10-02
Report Run at: December 19, 2017 00:31 EST
"Nutrient data for: 45066129, CASBAH, COUSCOUS, ROASTED GARLIC & OLIVE OIL, UPC: 072934971121"
Food Group:  Branded Food Products Database
Common Name:

Nutrient,Unit,Data points,Std. Error,"140.0 G PREPARED) DRY | (ABOUT = 45.0g",1Value per 100 g,
Proximates
"Energy",kcal,--,--,160,356
"Protein",g,--,--,6.00,13.33
"Total lipid (fat)",g,--,--,0.50,1.11
"Carbohydrate, by difference",g,--,--,32.00,71.11
"Fiber, total dietary",g,--,--,2.0,4.4
"Sugars, total",g,--,--,1.00,2.22
Minerals
"Calcium, Ca",mg,--,--,0,0
"Iron, Fe",mg,--,--,2.24,4.98
"Sodium, Na",mg,--,--,450,1000
Vitamins
"Vitamin C, total ascorbic acid",mg,--,--,0.0,0.0
"Vitamin A, IU",IU,--,--,0,0
Lipids
"Fatty acids, total saturated",g,--,--,0.000,0.000
"Fatty acids, total trans",g,--,--,0.000,0.000
"Cholesterol",mg,--,--,0,0
Amino Acids
Other
Ingredients
"ORGANIC COUSCOUS (SEMOLINA WHEAT FLOUR), ROASTED GARLIC, SALT, NATURAL FLAVORS WITH YEAST EXTRACT, SPICES, EXTRA VIRGIN OLIVE OIL." Date available: 07/14/2017 Date last updated by company: 07/14/2017
