Source: USDA Branded Food Products Database Release December 2017 Software v.3.8.6.4 2017-10-02
Report Run at: December 19, 2017 00:33 EST
"Nutrient data for: 45139738, CASCADIAN FARM, ORGANIC GRANOLA, DARK CHOCOLATE ALMOND, UPC: 021908407722"
Food Group:  Branded Food Products Database
Common Name:

Nutrient,Unit,Data points,Std. Error,"0.667 cup = 62.0g",1Value per 100 g,
Proximates
"Energy",kcal,--,--,260,419
"Protein",g,--,--,7.00,11.29
"Total lipid (fat)",g,--,--,8.00,12.90
"Carbohydrate, by difference",g,--,--,44.00,70.97
"Fiber, total dietary",g,--,--,5.0,8.1
"Sugars, total",g,--,--,12.00,19.35
Minerals
"Calcium, Ca",mg,--,--,20,32
"Iron, Fe",mg,--,--,1.80,2.90
"Sodium, Na",mg,--,--,70,113
Vitamins
"Vitamin C, total ascorbic acid",mg,--,--,0.0,0.0
"Vitamin A, IU",IU,--,--,0,0
Lipids
"Fatty acids, total saturated",g,--,--,1.500,2.420
"Fatty acids, total trans",g,--,--,0.000,0.000
"Cholesterol",mg,--,--,0,0
Amino Acids
Other
Ingredients
"WHOLE GRAIN OATS*, CANE SUGAR*+, SUNFLOWER OIL*, RICE*, DARK CHOCOLATE CHIPS*+ (CANE SUGAR*, CHOCOLATE LIQUOR*, COCOA BUTTER*, VANILLA*), AMARANTH*, ALMONDS*, COCOA POWDER*+, MOLASSES*, SEA SALT. VITAMIN E (MIXED TOCOPHEROLS) ADDED TO PRESERVE FRESHNESS." Date available: 09/23/2016 Date last updated by company: 09/23/2016
