Source: USDA Branded Food Products Database Release December 2017 Software v.3.8.6.4 2017-10-02
Report Run at: December 19, 2017 00:31 EST
"Nutrient data for: 45304941, CASCADE ICE, DIET TONIC WATER SHINNY COCKTAILS, UPC: 636711601603"
Food Group:  Branded Food Products Database
Common Name:

Nutrient,Unit,Data points,Std. Error,"8.0 OZA = 240.0g",1Value per 100 g,
Proximates
"Energy",kcal,--,--,0,0
"Protein",g,--,--,0.00,0.00
"Total lipid (fat)",g,--,--,0.00,0.00
"Carbohydrate, by difference",g,--,--,0.00,0.00
"Sugars, total",g,--,--,0.00,0.00
Minerals
"Sodium, Na",mg,--,--,14,6
Vitamins
Lipids
Amino Acids
Other
Ingredients
"CARBONATED WATER, CITRIC ACID, NATURAL FLAVOR, SODIUM BENZOATE (PRESERVATIVE), SUCRALOSE, ACESULFAME POTASSIUM, QUININE." Date available: 02/08/2017 Date last updated by company: 02/08/2017
