Source: USDA Branded Food Products Database Release December 2017 Software v.3.8.6.4 2017-10-02
Report Run at: December 19, 2017 00:34 EST
"Nutrient data for: 45136042, CASCADIAN FARM ORGANIC, PREMIUM ORGANIC COUNTRY STYLE POTATOES, UPC: 021908503165"
Food Group:  Branded Food Products Database
Common Name:

Nutrient,Unit,Data points,Std. Error,"0.75 cup = 85.0g",1Value per 100 g,
Proximates
"Energy",kcal,--,--,50,59
"Protein",g,--,--,1.00,1.18
"Total lipid (fat)",g,--,--,0.00,0.00
"Carbohydrate, by difference",g,--,--,12.00,14.12
"Fiber, total dietary",g,--,--,1.0,1.2
"Sugars, total",g,--,--,1.00,1.18
Minerals
"Calcium, Ca",mg,--,--,0,0
"Iron, Fe",mg,--,--,0.36,0.42
"Potassium, K",mg,--,--,250,294
"Sodium, Na",mg,--,--,15,18
Vitamins
"Vitamin C, total ascorbic acid",mg,--,--,3.6,4.2
"Vitamin A, IU",IU,--,--,0,0
Lipids
"Fatty acids, total saturated",g,--,--,0.000,0.000
"Fatty acids, total trans",g,--,--,0.000,0.000
"Cholesterol",mg,--,--,0,0
Amino Acids
Other
Ingredients
"POTATOES*, ONION*, RED PEPPER*, GREEN PEPPER*." Date available: 09/23/2016 Date last updated by company: 09/23/2016
