Source: USDA Branded Food Products Database Release December 2017 Software v.3.8.6.4 2017-10-02
Report Run at: December 19, 2017 00:42 EST
"Nutrient data for: 45278532, CASHEWS, UPC: 041303052686"
Food Group:  Branded Food Products Database
Common Name:

Nutrient,Unit,Data points,Std. Error,"0.25 cup = 30.0g",1Value per 100 g,
Proximates
"Energy",kcal,--,--,170,567
"Protein",g,--,--,5.00,16.67
"Total lipid (fat)",g,--,--,14.00,46.67
"Carbohydrate, by difference",g,--,--,9.00,30.00
"Fiber, total dietary",g,--,--,1.0,3.3
"Sugars, total",g,--,--,2.00,6.67
Minerals
"Calcium, Ca",mg,--,--,20,67
"Iron, Fe",mg,--,--,3.00,10.00
"Sodium, Na",mg,--,--,125,417
Vitamins
"Vitamin C, total ascorbic acid",mg,--,--,0.0,0.0
"Vitamin A, IU",IU,--,--,0,0
Lipids
"Fatty acids, total saturated",g,--,--,2.499,8.330
"Fatty acids, total trans",g,--,--,0.000,0.000
"Cholesterol",mg,--,--,0,0
Amino Acids
Other
Ingredients
"CASHEWS, VEGETABLE OIL (PEANUT, COTTONSEED, SOYBEAN AND/OR SUNFLOWER SEED), SEASONING (SALT, BROWN SUGAR, SUGAR, NATURAL MAPLE FLAVOR [MALTODEXTRIN, SUGAR, MODIFIED CORN STARCH, FLAVOR, PROPYLENE GLYCOL, MAPLE SYRUP, GUM ARABIC], NATURAL FLAVORS INCLUDING SMOKE, TORULA YEAST, NATURAL BROWN SUGAR FLAVOR [DEXTROSE, SUGAR, BROWN SUGAR, MOLASSES, CARAMEL COLOR], CARAMEL COLOR, EXTRACTIVES OF PAPRIKA [COLOR], SILICON DIOXIDE [ANTI-CAKING AGENT]), CONTAINS LESS THAN 1% OF THE FOLLOWING: CANOLA OIL, NATURAL FLAVORS, NATURAL MIXED TOCOPHEROLS (ANTIOXIDANT)." Date available: 09/16/2017 Date last updated by company: 09/16/2017
