Source: USDA Branded Food Products Database Release December 2017 Software v.3.8.6.4 2017-10-02
Report Run at: December 19, 2017 00:50 EST
"Nutrient data for: 45275281, CAVATAPPI BOLOGNESE, UPC: 080618476060"
Food Group:  Branded Food Products Database
Common Name:

Nutrient,Unit,Data points,Std. Error,"1 BOWL = 255.0g",1Value per 100 g,
Proximates
"Energy",kcal,--,--,329,129
"Protein",g,--,--,15.99,6.27
"Total lipid (fat)",g,--,--,9.00,3.53
"Carbohydrate, by difference",g,--,--,43.99,17.25
"Fiber, total dietary",g,--,--,3.1,1.2
"Sugars, total",g,--,--,5.99,2.35
Minerals
"Calcium, Ca",mg,--,--,99,39
"Iron, Fe",mg,--,--,1.38,0.54
"Sodium, Na",mg,--,--,729,286
Vitamins
"Vitamin C, total ascorbic acid",mg,--,--,6.9,2.7
"Vitamin A, IU",IU,--,--,956,375
Lipids
"Fatty acids, total saturated",g,--,--,4.003,1.570
"Fatty acids, total trans",g,--,--,0.000,0.000
"Cholesterol",mg,--,--,36,14
Amino Acids
Other
Ingredients
"BOLOGNESE SAUCE (ORGANIC TOMATOES [ORGANIC TOMATOES, ORGANIC TOMATO PUREE, SEA SALT, NATURALLY DERIVED CITRIC ACID], WATER, BEEF PATTY CRUMBLE [BEEF, WATER, POTATO STARCH, SALT], ORGANIC MILK [ORGANIC MILK, VITAMIN D3], ORGANIC ONION, ORGANIC TOMATO PASTE, ORGANIC CARROTS, ORGANIC HEAVY CREAM, ORGANIC BEEF BASE [ORGANIC ROASTED BEEF WITH BEEF BROTH, SALT, ORGANIC CANE SUGAR, NATURAL FLAVOR, ORGANIC DRIED ONION, ORGANIC POTATO STARCH, ORGANIC DRIED GARLIC, ORGANIC CARAMEL COLOR], ORGANIC PARMESAN CHEESE [{PASTEURIZED ORGANIC MILK, CHEESE CULTURES, SEA SALT, VEGETABLE ENZYMES}, ORGANIC POWDERED CELLULOSE {TO PREVENT CAKING}], SPICES, EXTRA VIRGIN OLIVE OIL, ORGANIC GARLIC, CORNSTARCH, CANE SUGAR), ORGANIC COOKED CAVATAPPI (WATER, ORGANIC CAVATAPPI [ORGANIC DURUM WHEAT SEMOLINA]), ORGANIC MOZZARELLA CHEESE (MOZZARELLA CHEESE [PASTEURIZED ORGANIC MILK, CHEESE CULTURES, SEA SALT, VEGETABLE ENZYMES], ORGANIC POWDERED CELLULOSE [TO PREVENT CAKING])." Date available: 07/14/2017 Date last updated by company: 07/14/2017
