Source: USDA Branded Food Products Database Release December 2017 Software v.3.8.6.4 2017-10-02
Report Run at: December 19, 2017 00:55 EST
"Nutrient data for: 45216581, CEDAR PLANKED SALMON, UPC: 037071109318"
Food Group:  Branded Food Products Database
Common Name:

Nutrient,Unit,Data points,Std. Error,"4.0 ONZ = 113.0g",1Value per 100 g,
Proximates
"Energy",kcal,--,--,220,195
"Protein",g,--,--,19.00,16.81
"Total lipid (fat)",g,--,--,12.99,11.50
"Carbohydrate, by difference",g,--,--,8.00,7.08
"Fiber, total dietary",g,--,--,1.0,0.9
"Sugars, total",g,--,--,6.00,5.31
Minerals
"Calcium, Ca",mg,--,--,20,18
"Iron, Fe",mg,--,--,0.41,0.36
"Sodium, Na",mg,--,--,340,301
Vitamins
"Vitamin C, total ascorbic acid",mg,--,--,2.7,2.4
"Vitamin A, IU",IU,--,--,75,66
Lipids
"Fatty acids, total saturated",g,--,--,2.994,2.650
"Fatty acids, total monounsaturated",g,--,--,6.000,5.310
"Fatty acids, total polyunsaturated",g,--,--,3.503,3.100
"Fatty acids, total trans",g,--,--,0.000,0.000
"Cholesterol",mg,--,--,45,40
Amino Acids
Other
Ingredients
"ATLANTIC SALMON, BROWN SUGAR, CRACKED BLACK PEPPER, SEA SALT, DRIED BASIL, GRANULATED GARLIC, PAPRIKA, DRIED TARRAGON, DRIED LEMON RIND." Date available: 07/14/2017 Date last updated by company: 07/14/2017
