Source: USDA Branded Food Products Database Release December 2017 Software v.3.8.6.4 2017-10-02
Report Run at: December 19, 2017 01:03 EST
"Nutrient data for: 45033263, CELESTIAL SEASONINGS, ANTIOXIDANT MAX, GREEN TEA, BLOOD ORANGE STAR FRUIT, UPC: 070734519482"
Food Group:  Branded Food Products Database
Common Name:

Nutrient,Unit,Data points,Std. Error,"1 TEA BAG, MAKES 8 FL. OZ. = 2.0g",1Value per 100 g,
Proximates
"Energy",kcal,--,--,0,0
"Protein",g,--,--,0.00,0.00
"Total lipid (fat)",g,--,--,0.00,0.00
"Carbohydrate, by difference",g,--,--,0.00,0.00
"Sugars, total",g,--,--,0.00,0.00
Minerals
"Sodium, Na",mg,--,--,0,0
Vitamins
"Vitamin C, total ascorbic acid",mg,--,--,12.0,600.0
Lipids
Amino Acids
Other
Ingredients
"GREEN TEA, NATURAL BLOOD ORANGE AND STAR FRUIT FLAVORS, REBIANA (SWEETENER FROM STEVIA, CONTAINS SOY LECITHIN), GREEN TEA EXTRACT, ASCORBIC ACID (VITAMIN C) AND STAR FRUIT." Date available: 08/11/2017 Date last updated by company: 08/11/2017
