Source: USDA Branded Food Products Database Release December 2017 Software v.3.8.6.4 2017-10-02
Report Run at: December 19, 2017 01:04 EST
"Nutrient data for: 45037380, CELESTIAL SEASONING, TEA LATTE, VANILLA VELVET, UPC: 099555088885"
Food Group:  Branded Food Products Database
Common Name:

Nutrient,Unit,Data points,Std. Error,"1 K-CUP PACK = 16.0g",1Value per 100 g,
Proximates
"Energy",kcal,--,--,50,312
"Protein",g,--,--,2.00,12.50
"Total lipid (fat)",g,--,--,0.00,0.00
"Carbohydrate, by difference",g,--,--,10.00,62.50
"Fiber, total dietary",g,--,--,0.0,0.0
"Sugars, total",g,--,--,10.00,62.50
Minerals
"Calcium, Ca",mg,--,--,60,375
"Iron, Fe",mg,--,--,0.00,0.00
"Sodium, Na",mg,--,--,75,469
Vitamins
"Vitamin C, total ascorbic acid",mg,--,--,0.0,0.0
"Vitamin A, IU",IU,--,--,0,0
Lipids
"Fatty acids, total saturated",g,--,--,0.000,0.000
"Fatty acids, total trans",g,--,--,0.000,0.000
"Cholesterol",mg,--,--,0,0
Amino Acids
Other
Ingredients
"CANE SUGAR, NONFAT MILK, BLACK TEA WITH TEA EXTRACT, NATURAL FRENCH VANILLA FLAVOR WITH OTHER NATURAL FLAVORS, TRICALCIUM PHOSPHATE (A FREE FLOW AGENT), SEA SALT AND STEVIA EXTRACT (SWEETENER)." Date available: 06/24/2017 Date last updated by company: 06/24/2017
