Source: USDA Branded Food Products Database Release December 2017 Software v.3.8.6.4 2017-10-02
Report Run at: December 19, 2017 00:58 EST
"Nutrient data for: 45208117, CELEBRATION CAKE, UPC: 049800137936"
Food Group:  Branded Food Products Database
Common Name:

Nutrient,Unit,Data points,Std. Error,"0.062 CAKE = 80.0g",1Value per 100 g,
Proximates
"Energy",kcal,--,--,310,388
"Protein",g,--,--,2.00,2.50
"Total lipid (fat)",g,--,--,13.00,16.25
"Carbohydrate, by difference",g,--,--,47.00,58.75
"Fiber, total dietary",g,--,--,0.0,0.0
"Sugars, total",g,--,--,37.00,46.25
Minerals
"Calcium, Ca",mg,--,--,0,0
"Iron, Fe",mg,--,--,0.72,0.90
"Sodium, Na",mg,--,--,230,288
Vitamins
"Vitamin C, total ascorbic acid",mg,--,--,0.0,0.0
"Vitamin A, IU",IU,--,--,0,0
Lipids
"Fatty acids, total saturated",g,--,--,5.000,6.250
"Fatty acids, total trans",g,--,--,0.000,0.000
"Cholesterol",mg,--,--,10,12
Amino Acids
Other
Ingredients
"SUGAR, ENRICHED BLEACHED WHEAT FLOUR (WHEAT FLOUR, NIACIN, REDUCED IRON, THIAMINE MONONITRATE, RIBOFLAVIN, FOLIC ACID), VEGETABLE SHORTENING (PALM AND SOYBEAN OILS, MONO AND DIGLYCERIDES, POLYSORBATE 60, TO PRESERVE FRESHNESS (TBHQ)), WATER, EGG WHITES, SOYBEAN OIL, EGGS, HIGH FRUCTOSE CORN SYRUP, CONTAINS LESS THAN 25 OF THE FOLLOWING: LEAVENING (SODIUM ACID PYROPHOSPHATE, BAKING SODA, MONOCALCIUM PHOSPHATE), WHEAT STARCH, NATURAL AND ARTIFICIAL FLAVOR (CONTAINS MILK INGREDIENTS), MODIFIED TAPIOCA STARCH, PROPYLENE GLYCOL MONO AND DIGLYCERIDES, SODIUM CASEINATE (A MILK DERIVATIVE), MODIFIED CORNSTARCH, ARTIFICIAL COLORS (YELLOW 6 LAKE, YELLOW 5 LAKE, YELLOW 6, RED 40, YELLOW 5, BLUE 1, BLUE 2 LAKE), RICE FLOUR, GUAR GUM, SODIUM STEAROYL LACTYLATE, POLYSORBATE 60, XANTHAN GUM, SOY LECITHIN, CORN SYRUP SOLID, PARTIALLY HYDROGENATED COTTONSEED AND SOYBEAN OILS, CORNSTARCH, GUM ARABIC, CELLULOSE GUM, CONFECTIONER'S GLAZE (CARNAUBA WAX, BEESWAX, SHELLAC), CARRAGEENAN." Date available: 07/14/2017 Date last updated by company: 07/14/2017
