Source: USDA Branded Food Products Database Release December 2017 Software v.3.8.6.4 2017-10-02
Report Run at: December 19, 2017 01:05 EST
"Nutrient data for: 45103910, CELLA'S, MILK CHOCOLATE, UPC: 011228000161"
Food Group:  Branded Food Products Database
Common Name:

Nutrient,Unit,Data points,Std. Error,"3.0 PIECES = 43.0g",1Value per 100 g,
Proximates
"Energy",kcal,--,--,160,372
"Protein",g,--,--,1.00,2.33
"Total lipid (fat)",g,--,--,6.00,13.95
"Carbohydrate, by difference",g,--,--,27.00,62.79
"Fiber, total dietary",g,--,--,1.0,2.3
"Sugars, total",g,--,--,23.00,53.49
Minerals
"Calcium, Ca",mg,--,--,40,93
"Iron, Fe",mg,--,--,0.42,0.98
"Sodium, Na",mg,--,--,15,35
Vitamins
"Vitamin C, total ascorbic acid",mg,--,--,0.0,0.0
"Vitamin A, IU",IU,--,--,0,0
Lipids
"Fatty acids, total saturated",g,--,--,3.500,8.140
"Fatty acids, total trans",g,--,--,0.000,0.000
"Cholesterol",mg,--,--,0,0
Amino Acids
Other
Ingredients
"MILK CHOCOLATE SUGAR. COCOA BUTTER, MILK, CHOCOLATE. SOYA LECITHIN AN EMULSIFIER AND VANILLIN AN ARTIFICIAL FLAVORING), CHERRIES TREATED WITH SULFUR DIOXIDE A PRESERVATIVE. SUGAR, CORN SYRUP, CITRIC ACID, SODIUM BENZOATE A PRESERVATIVE. ARTIFICIAL FLAVOR,CALCIUM CHLORIDE AND ARTIFICIAL COLOR (FD&C RED 40)." Date available: 08/16/2017 Date last updated by company: 08/16/2017
