Source: USDA Branded Food Products Database Release December 2017 Software v.3.8.6.4 2017-10-02
Report Run at: December 19, 2017 01:09 EST
"Nutrient data for: 45021443, CENTO, TOMATO PASTE, UPC: 070796100321"
Food Group:  Branded Food Products Database
Common Name:

Nutrient,Unit,Data points,Std. Error,"2.0 Tbsp = 33.0g",1Value per 100 g,
Proximates
"Energy",kcal,--,--,35,106
"Protein",g,--,--,2.00,6.06
"Total lipid (fat)",g,--,--,0.00,0.00
"Carbohydrate, by difference",g,--,--,6.00,18.18
"Fiber, total dietary",g,--,--,1.0,3.0
"Sugars, total",g,--,--,3.00,9.09
Minerals
"Calcium, Ca",mg,--,--,0,0
"Iron, Fe",mg,--,--,1.09,3.31
"Potassium, K",mg,--,--,150,455
"Sodium, Na",mg,--,--,20,61
Vitamins
"Vitamin C, total ascorbic acid",mg,--,--,9.1,27.5
"Vitamin A, IU",IU,--,--,757,2295
Lipids
"Fatty acids, total saturated",g,--,--,0.000,0.000
"Fatty acids, total trans",g,--,--,0.000,0.000
"Cholesterol",mg,--,--,0,0
Amino Acids
Other
Ingredients
"FRESH RED RIPE TOMATO PULP" Date available: 06/25/2017 Date last updated by company: 06/25/2017
