Source: USDA Branded Food Products Database Release December 2017 Software v.3.8.6.4 2017-10-02
Report Run at: December 19, 2017 01:11 EST
"Nutrient data for: 45239610, CENTRELLA, RANCH DRESSING, UPC: 070980110426"
Food Group:  Branded Food Products Database
Common Name:

Nutrient,Unit,Data points,Std. Error,"2.0 Tbsp = 30.0g",1Value per 100 g,
Proximates
"Energy",kcal,--,--,140,467
"Protein",g,--,--,1.00,3.33
"Total lipid (fat)",g,--,--,14.00,46.67
"Carbohydrate, by difference",g,--,--,2.00,6.67
"Fiber, total dietary",g,--,--,0.0,0.0
"Sugars, total",g,--,--,1.00,3.33
Minerals
"Calcium, Ca",mg,--,--,0,0
"Iron, Fe",mg,--,--,0.00,0.00
"Sodium, Na",mg,--,--,260,867
Vitamins
"Vitamin C, total ascorbic acid",mg,--,--,0.0,0.0
"Vitamin A, IU",IU,--,--,0,0
Lipids
"Fatty acids, total saturated",g,--,--,2.499,8.330
"Fatty acids, total trans",g,--,--,0.000,0.000
"Cholesterol",mg,--,--,10,33
Amino Acids
Other
Ingredients
"VEGETABLE OIL (SOYBEAN AND/OR CANOLA), WATER, EGG YOLK, SUGAR, SALT, BUTTERMILK, DISTILLED VINEGAR, CONTAINS LESS THAN 1% OF DRIED GARLIC, DRIED ONION, PHOSPHORIC ACID, MONOSODIUM GLUTAMATE, XANTHAN GUM, MODIFIED FOOD STARCH, NATURAL AND ARTIFICIAL FLAVORS, SPICE, POTASSIUM SORBATE AND CALCIUM DISODIUM EDTA (AS PRESERVATIVES), DISODIUM PHOSPHATE, DISODIUM INOSINATE AND DISODIUM GUANYLATE." Date available: 07/14/2017 Date last updated by company: 07/14/2017
