Source: USDA Branded Food Products Database Release December 2017 Software v.3.8.6.4 2017-10-02
Report Run at: December 19, 2017 01:06 EST
"Nutrient data for: 45023604, CENTO, ARTICHOKE HEARTS, UPC: 070796500022"
Food Group:  Branded Food Products Database
Common Name:

Nutrient,Unit,Data points,Std. Error,"4.0 PIECES | APPROX. = 80.0g",1Value per 100 g,
Proximates
"Energy",kcal,--,--,30,38
"Protein",g,--,--,2.00,2.50
"Total lipid (fat)",g,--,--,0.00,0.00
"Carbohydrate, by difference",g,--,--,6.00,7.50
"Fiber, total dietary",g,--,--,1.0,1.2
"Sugars, total",g,--,--,1.00,1.25
Minerals
"Calcium, Ca",mg,--,--,20,25
"Iron, Fe",mg,--,--,1.75,2.19
"Sodium, Na",mg,--,--,240,300
Vitamins
"Vitamin C, total ascorbic acid",mg,--,--,5.8,7.3
"Vitamin A, IU",IU,--,--,162,203
Lipids
"Fatty acids, total saturated",g,--,--,0.000,0.000
"Fatty acids, total trans",g,--,--,0.000,0.000
"Cholesterol",mg,--,--,0,0
Amino Acids
Other
Ingredients
"ARTICHOKE HEARTS, WATER, SALT AND CITRIC ACID." Date available: 07/26/2017 Date last updated by company: 07/26/2017
