Source: USDA Branded Food Products Database Release December 2017 Software v.3.8.6.4 2017-10-02
Report Run at: December 19, 2017 01:13 EST
"Nutrient data for: 45029776, CEREAL, UPC: 058449771753"
Food Group:  Branded Food Products Database
Common Name:

Nutrient,Unit,Data points,Std. Error,"0.75 cup = 55.0g",1Value per 100 g,
Proximates
"Energy",kcal,--,--,230,418
"Protein",g,--,--,6.00,10.91
"Total lipid (fat)",g,--,--,3.00,5.45
"Carbohydrate, by difference",g,--,--,44.00,80.00
"Fiber, total dietary",g,--,--,6.0,10.9
"Sugars, total",g,--,--,6.00,10.91
Minerals
"Calcium, Ca",mg,--,--,20,36
"Iron, Fe",mg,--,--,2.70,4.91
"Sodium, Na",mg,--,--,210,382
Vitamins
"Vitamin C, total ascorbic acid",mg,--,--,0.0,0.0
"Vitamin A, IU",IU,--,--,0,0
Lipids
"Fatty acids, total saturated",g,--,--,0.501,0.910
"Fatty acids, total monounsaturated",g,--,--,1.001,1.820
"Fatty acids, total polyunsaturated",g,--,--,2.002,3.640
"Fatty acids, total trans",g,--,--,0.000,0.000
"Cholesterol",mg,--,--,0,0
Amino Acids
Other
Ingredients
"KAMUT KHORASAN WHEAT FLOUR*, ROLLED OATS*, WHEAT BRAN*, CANE SUGAR*, WHOLE WHEAT MEAL*, WHOLE OAT FLOUR*, SOY OIL*, SPELT (WHEAT) FLAKES*, SPELT (WHEAT) FLOUR*, BARLEY FLOUR*, WHOLE MILLET*, ROLLED KAMUT KHORASAN WHEAT*, INULIN*, BARLEY MALT EXTRACT*, SEA SALT, QUINOA*, HONEY*, RICE STARCH*, MOLASSES*, CINNAMON*, NATURAL VANILLA FLAVOR, TOCOPHEROLS (VITAMIN E)." Date available: 08/10/2017 Date last updated by company: 08/10/2017
