Source: USDA Branded Food Products Database Release December 2017 Software v.3.8.6.4 2017-10-02
Report Run at: December 19, 2017 01:16 EST
"Nutrient data for: 45330252, CERVEZA XX DOS EQUIS BRATWURST, UPC: 070800999736"
Food Group:  Branded Food Products Database
Common Name:

Nutrient,Unit,Data points,Std. Error,"1 GRILLED LINK = 82.0g",1Value per 100 g,
Proximates
"Energy",kcal,--,--,260,317
"Protein",g,--,--,14.00,17.07
"Total lipid (fat)",g,--,--,21.00,25.61
"Carbohydrate, by difference",g,--,--,3.00,3.66
"Fiber, total dietary",g,--,--,0.0,0.0
"Sugars, total",g,--,--,1.00,1.22
Minerals
"Calcium, Ca",mg,--,--,40,49
"Iron, Fe",mg,--,--,0.48,0.59
"Sodium, Na",mg,--,--,700,854
Vitamins
"Vitamin C, total ascorbic acid",mg,--,--,0.0,0.0
"Vitamin A, IU",IU,--,--,0,0
Lipids
"Fatty acids, total saturated",g,--,--,7.003,8.540
"Fatty acids, total trans",g,--,--,0.000,0.000
"Cholesterol",mg,--,--,60,73
Amino Acids
Other
Ingredients
"PORK, BEER, CONTAINS LESS THAN 2% OF SALT, DEXTROSE, FLAVORINGS, CORN SYRUP SOLIDS, VINEGAR, POTASSIUM LACTATE, BHA, PROPYL GALLATE, CITRIC ACID." Date available: 10/13/2017 Date last updated by company: 10/13/2017
