Source: USDA Branded Food Products Database Release December 2017 Software v.3.8.6.4 2017-10-02
Report Run at: December 19, 2017 01:18 EST
"Nutrient data for: 45269873, CHAGA MUSHROOM ELIXIR MIX, UPC: 4897039310387"
Food Group:  Branded Food Products Database
Common Name:

Nutrient,Unit,Data points,Std. Error,"1 PACKET = 3.0g",1Value per 100 g,
Proximates
"Energy",kcal,--,--,5,167
"Protein",g,--,--,0.00,0.00
"Total lipid (fat)",g,--,--,0.00,0.00
"Carbohydrate, by difference",g,--,--,1.00,33.33
Minerals
"Sodium, Na",mg,--,--,0,0
Vitamins
"Vitamin C, total ascorbic acid",mg,--,--,250.0,8333.4
Lipids
Amino Acids
Other
Ingredients
"ORGANIC CHAGA EXTRACT-, ORGANIC ELEUTHERO EXTRACT, ORGANIC PEPPERMINT EXTRACT, ORGANIC ROSE HIPS EXTRACT." Date available: 10/13/2017 Date last updated by company: 10/13/2017
