Source: USDA Branded Food Products Database Release December 2017 Software v.3.8.6.4 2017-10-02
Report Run at: December 19, 2017 01:18 EST
"Nutrient data for: 45105661, CHAI HOME BREW KIT, UPC: 647049001119"
Food Group:  Branded Food Products Database
Common Name:

Nutrient,Unit,Data points,Std. Error,"4.0 OZA = 113.0g",1Value per 100 g,
Proximates
"Energy",kcal,--,--,0,0
Minerals
Vitamins
Lipids
Amino Acids
Other
Ingredients
"SPICES, BLACK TEA, HOT GYPSY LOVE." Date available: 08/18/2017 Date last updated by company: 08/18/2017
