Source: USDA Branded Food Products Database Release December 2017 Software v.3.8.6.4 2017-10-02
Report Run at: December 19, 2017 01:20 EST
"Nutrient data for: 45252770, CHALLAH ROLLS, UPC: 084617218515"
Food Group:  Branded Food Products Database
Common Name:

Nutrient,Unit,Data points,Std. Error,"1 ROLL) | ( = 35.0g",1Value per 100 g,
Proximates
"Energy",kcal,--,--,130,371
"Protein",g,--,--,3.00,8.57
"Total lipid (fat)",g,--,--,4.00,11.43
"Carbohydrate, by difference",g,--,--,0.02,0.05
"Fiber, total dietary",g,--,--,1.0,2.9
"Sugars, total",g,--,--,2.00,5.71
Minerals
"Calcium, Ca",mg,--,--,0,0
"Iron, Fe",mg,--,--,1.54,4.41
"Sodium, Na",mg,--,--,200,571
Vitamins
"Vitamin C, total ascorbic acid",mg,--,--,0.0,0.0
"Vitamin A, IU",IU,--,--,0,0
Lipids
"Fatty acids, total saturated",g,--,--,0.000,0.000
"Fatty acids, total trans",g,--,--,0.000,0.000
"Cholesterol",mg,--,--,20000,57143
Amino Acids
Other
Ingredients
"ORGANIC WHEAT FLOUR (WITH ORGANIC WHOLE GRAIN MALTED BARLEY FLOUR), WATER, CAGE FREE EGGS (CITRIC ACID ADDED), CANOLA OIL, SUGAR, SEA SALT, YEAST, ORGANIC SUNFLOWER OIL." Date available: 10/13/2017 Date last updated by company: 10/13/2017
