Source: USDA Branded Food Products Database Release December 2017 Software v.3.8.6.4 2017-10-02
Report Run at: December 19, 2017 01:21 EST
"Nutrient data for: 45323475, CHAMPIONS' BLEND, UPC: 665591893136"
Food Group:  Branded Food Products Database
Common Name:

Nutrient,Unit,Data points,Std. Error,"2.0 Tbsp = 36.0g",1Value per 100 g,
Proximates
"Energy",kcal,--,--,80,222
"Protein",g,--,--,0.00,0.00
"Total lipid (fat)",g,--,--,0.00,0.00
"Carbohydrate, by difference",g,--,--,22.00,61.11
"Fiber, total dietary",g,--,--,0.0,0.0
"Sugars, total",g,--,--,21.00,58.33
Minerals
"Iron, Fe",mg,--,--,0.61,1.69
"Sodium, Na",mg,--,--,510,1417
Vitamins
"Vitamin C, total ascorbic acid",mg,--,--,4.1,11.3
"Vitamin A, IU",IU,--,--,676,1879
Lipids
"Fatty acids, total saturated",g,--,--,0.000,0.000
"Fatty acids, total trans",g,--,--,0.000,0.000
"Cholesterol",mg,--,--,0,0
Amino Acids
Other
Ingredients
"KETCHUP (TOMATO CONCENTRATE FROM RED, RIPE TOMATOES, DISTILLED VINEGAR, HIGH FRUCTOSE CORN SYRUP, CORN SYRUP, SALT, SPICE, ONION POWDER, NATURAL FLAVORINGS), BROWN SUGAR, WATER, APPLE CIDER VINEGAR, SALT, SPICE, CHILI POWDER (CHILI PEPPER, SPICES, SALT, GARLIC POWDER), PAPRIKA, WORCESTERSHIRE SAUCE (DISTILLED VINEGAR, MOLASSES, WATER, CORN SYRUP, SALT, CARAMEL COLOR, SUGAR, SPICES, ANCHOVIES, NATURAL FLAVORS (SOY) AND TAMARIND EXTRACT, LIQUID SMOKE, VANILLA EXTRACT, DRIED GARLIC AND SPICES." Date available: 07/14/2017 Date last updated by company: 07/14/2017
