Source: USDA Branded Food Products Database Release December 2017 Software v.3.8.6.4 2017-10-02
Report Run at: December 19, 2017 01:25 EST
"Nutrient data for: 45144636, CHARLOTTE'S, MINI SUGAR COOKIES, UPC: 628834096404"
Food Group:  Branded Food Products Database
Common Name:

Nutrient,Unit,Data points,Std. Error,"4.0 COOKIES = 30.0g",1Value per 100 g,
Proximates
"Energy",kcal,--,--,130,433
"Protein",g,--,--,2.00,6.67
"Total lipid (fat)",g,--,--,4.50,15.00
"Carbohydrate, by difference",g,--,--,21.00,70.00
"Fiber, total dietary",g,--,--,1.0,3.3
"Sugars, total",g,--,--,9.00,30.00
Minerals
"Calcium, Ca",mg,--,--,0,0
"Iron, Fe",mg,--,--,1.80,6.00
"Sodium, Na",mg,--,--,180,600
Vitamins
"Vitamin C, total ascorbic acid",mg,--,--,0.0,0.0
"Vitamin A, IU",IU,--,--,0,0
Lipids
"Fatty acids, total saturated",g,--,--,2.001,6.670
"Fatty acids, total trans",g,--,--,0.000,0.000
"Cholesterol",mg,--,--,5,17
Amino Acids
Other
Ingredients
"UNBLEACHED ENRICHED WHEAT FLOUR (WHEAT FLOUR, NIACIN, REDUCED IRON, ASCORBIC ACID, THIAMINE MONONITRATE, ALPHA AMYLASE, RIBOFLAVIN, FOLIC ACID), SUGAR, VEGETABLE SHORTENING (PALM OIL, SOYBEAN OIL, MODIFIED PALM OIL), EGG WHITES, WHOLE EGGS, ARTIFICIAL FLAVOR, WATER, CORN STARCH, SALT, BUTTER FLAVOR (MEDIUM CHAIN TRIGLYCERIDES, NATURAL AND ARTIFICIAL FLAVORS, BENZYL ALCOHOL, TRIACETIN), BAKING SODA. SANDING SUGAR (SUGAR, FD&C BLUE #1, FD&C RED #3, RED #40, CARNAUBA WAX, SHELLAC)" Date available: 07/14/2017 Date last updated by company: 07/14/2017
