Source: USDA Branded Food Products Database Release December 2017 Software v.3.8.6.4 2017-10-02
Report Run at: December 19, 2017 01:27 EST
"Nutrient data for: 45165064, CHASE CANDY COMPANY, ASSORTED HAYSTACKS, UPC: 078184339360"
Food Group:  Branded Food Products Database
Common Name:

Nutrient,Unit,Data points,Std. Error,"2.0 PCS = 32.0g",1Value per 100 g,
Proximates
"Energy",kcal,--,--,134,419
"Protein",g,--,--,1.00,3.12
"Total lipid (fat)",g,--,--,3.00,9.38
"Carbohydrate, by difference",g,--,--,25.00,78.12
"Fiber, total dietary",g,--,--,2.0,6.2
"Sugars, total",g,--,--,18.00,56.25
Minerals
"Calcium, Ca",mg,--,--,60,188
"Iron, Fe",mg,--,--,1.40,4.39
"Sodium, Na",mg,--,--,33,103
Vitamins
"Vitamin C, total ascorbic acid",mg,--,--,0.9,2.9
"Vitamin A, IU",IU,--,--,156,488
Lipids
"Fatty acids, total saturated",g,--,--,3.002,9.380
"Fatty acids, total trans",g,--,--,0.000,0.000
"Cholesterol",mg,--,--,1,3
Amino Acids
Other
Ingredients
"SUGAR, COCONUT (WITH SODIUM METABISULFITE, A PRESERVATIVE), CORN SYRUP, SWEETENED CONDENSED SKIM MILK, CHOCOLATE LIQUOR, NATURAL AND ARTIFICIAL FLAVOR, SALT, YELLOW #5, RED #40 & BLUE #1." Date available: 07/14/2017 Date last updated by company: 07/14/2017
