Source: USDA Branded Food Products Database Release December 2017 Software v.3.8.6.4 2017-10-02
Report Run at: December 19, 2017 01:28 EST
"Nutrient data for: 45026477, CHATKHAAR, PORTUGUESE PIRI PIRI SAUCE, UPC: 654561018396"
Food Group:  Branded Food Products Database
Common Name:

Nutrient,Unit,Data points,Std. Error,"1 Tbsp = 20.0g",1Value per 100 g,
Proximates
"Energy",kcal,--,--,21,105
"Protein",g,--,--,0.20,1.00
"Total lipid (fat)",g,--,--,1.00,5.00
"Carbohydrate, by difference",g,--,--,3.00,15.00
"Fiber, total dietary",g,--,--,0.1,0.5
"Sugars, total",g,--,--,2.00,10.00
Minerals
"Sodium, Na",mg,--,--,470,2350
Vitamins
Lipids
"Fatty acids, total saturated",g,--,--,0.000,0.000
"Fatty acids, total trans",g,--,--,0.000,0.000
"Cholesterol",mg,--,--,0,0
Amino Acids
Other
Ingredients
"WATER, SUGAR, RED CHILLI, SALT, MODIFIED STARCH, OLIVE OIL, VINEGAR, GARLIC, MUSTARD, CORRIANDER, CITRIC ACID (E-330), PRESERVATIVE (SODIUM BENZOATE (E-211), E.D.T.A (E-385)) AND XANTHAN GUM (E-415)" Date available: 07/14/2017 Date last updated by company: 07/14/2017
