Source: USDA Branded Food Products Database Release December 2017 Software v.3.8.6.4 2017-10-02
Report Run at: December 19, 2017 01:29 EST
"Nutrient data for: 45033849, CHECKERS / RALLY'S, FAMOUS FRIES, CRISPY FRENCH FRIED SEASONED POTATOES, UPC: 043301305818"
Food Group:  Branded Food Products Database
Common Name:

Nutrient,Unit,Data points,Std. Error,"22.0 ,2"""" PIECES = 84.0g",1Value per 100 g,
Proximates
"Energy",kcal,--,--,160,190
"Protein",g,--,--,2.00,2.38
"Total lipid (fat)",g,--,--,7.00,8.33
"Carbohydrate, by difference",g,--,--,21.00,25.00
"Fiber, total dietary",g,--,--,2.0,2.4
"Sugars, total",g,--,--,1.00,1.19
Minerals
"Calcium, Ca",mg,--,--,0,0
"Iron, Fe",mg,--,--,0.73,0.87
"Potassium, K",mg,--,--,310,369
"Sodium, Na",mg,--,--,390,464
Vitamins
"Vitamin C, total ascorbic acid",mg,--,--,1.2,1.4
"Vitamin A, IU",IU,--,--,0,0
Lipids
"Fatty acids, total saturated",g,--,--,1.999,2.380
"Fatty acids, total monounsaturated",g,--,--,2.999,3.570
"Fatty acids, total polyunsaturated",g,--,--,1.999,2.380
"Fatty acids, total trans",g,--,--,0.000,0.000
"Cholesterol",mg,--,--,0,0
Amino Acids
Other
Ingredients
"POTATOES, VEGETABLE OIL (CONTAINS ONE OR MORE OF THE FOLLOWING: CANOLA OIL, CORN OIL, COTTONSEED OIL, PALM OIL, SOYBEAN OIL, SUNFLOWER OIL), ENRICHED BLEACHED WHEAT FLOUR (FLOUR, NIACIN, IRON, THIAMIN MONONITRATE, RIBOFLAVIN, FOLIC ACID), WHEAT FLOUR, ENRICHED WHEAT FLOUR (FLOUR, NIACIN, IRON, THIAMIN MONONITRATE, RIBOFLAVIN, FOLIC ACID), MODIFIED FOOD STARCH, SALT, CORN MEAL, SPICES, MONOSODIUM GLUTAMATE, LEAVENING (DISODIUM DIHYDROGEN PYROPHOSPHATE, SODIUM BICARBONATE), CELERY SEED, SOYBEAN OIL, DEXTROSE, ANNATTO (COLOR), SPICE AND COLORING, WHEY (MILK), NATURAL FLAVOR." Date available: 06/24/2017 Date last updated by company: 06/24/2017
