Source: USDA Branded Food Products Database Release December 2017 Software v.3.8.6.4 2017-10-02
Report Run at: December 19, 2017 01:31 EST
"Nutrient data for: 45216223, CHEDDAR CHEESE & BACON BEEF PATTIES, UPC: 030034083403"
Food Group:  Branded Food Products Database
Common Name:

Nutrient,Unit,Data points,Std. Error,"1 PATTY = 151.0g",1Value per 100 g,
Proximates
"Energy",kcal,--,--,461,305
"Protein",g,--,--,28.00,18.54
"Total lipid (fat)",g,--,--,36.99,24.50
"Carbohydrate, by difference",g,--,--,1.99,1.32
"Fiber, total dietary",g,--,--,0.0,0.0
"Sugars, total",g,--,--,1.00,0.66
Minerals
"Calcium, Ca",mg,--,--,149,99
"Iron, Fe",mg,--,--,1.01,0.67
"Sodium, Na",mg,--,--,660,437
Vitamins
"Vitamin C, total ascorbic acid",mg,--,--,0.0,0.0
"Vitamin A, IU",IU,--,--,113,75
Lipids
"Fatty acids, total saturated",g,--,--,17.003,11.260
"Fatty acids, total trans",g,--,--,1.495,0.990
"Cholesterol",mg,--,--,110,73
Amino Acids
Other
Ingredients
"BEEF, PASTEURIZED PROCESS CHEDDAR CHEESE (CHEDDAR CHEESE [CULTURED MILK, SALT, ENZYMES], WATER, SODIUM PHOSPHATE, CONTAINS LESS THAN 2% OF ENZYME MODIFIED CHEESE [CHEDDAR CHEESE {CULTURED MILK, SALT, ENZYMES}, WATER, ENZYMES], SALT, ARTIFICIAL COLOR, CELLULOSE), BACON (CURED WITH WATER, SALT, SUGAR, SMOKE FLAVORING, SODIUM PHOSPHATE, SODIUM ERYTHORBATE, SODIUM NITRATE, COATED WITH A MIXTURE OF GROUND BLACK PEPPER AND SUGAR), WATER, SEASONING (POTASSIUM CHLORIDE, MALTODEXTRIN, NATURAL FLAVOR), ONION POWDER, NATURAL FLAVOR." Date available: 08/29/2017 Date last updated by company: 08/29/2017
