Source: USDA Branded Food Products Database Release December 2017 Software v.3.8.6.4 2017-10-02
Report Run at: December 19, 2017 01:31 EST
"Nutrient data for: 45047878, CHEDDAR BROCCOLI SOUP MIX, UPC: 852983002072"
Food Group:  Branded Food Products Database
Common Name:

Nutrient,Unit,Data points,Std. Error,"0.0 none = 15.0g",1Value per 100 g,
Proximates
"Energy",kcal,--,--,60,400
"Protein",g,--,--,2.00,13.33
"Total lipid (fat)",g,--,--,1.50,10.00
"Carbohydrate, by difference",g,--,--,11.00,73.33
"Fiber, total dietary",g,--,--,0.0,0.0
"Sugars, total",g,--,--,1.00,6.67
Minerals
"Calcium, Ca",mg,--,--,0,0
"Iron, Fe",mg,--,--,0.00,0.00
"Sodium, Na",mg,--,--,860,5733
Vitamins
"Vitamin C, total ascorbic acid",mg,--,--,12.0,80.0
"Vitamin A, IU",IU,--,--,666,4443
Lipids
"Fatty acids, total saturated",g,--,--,0.500,3.330
"Fatty acids, total trans",g,--,--,0.000,0.000
"Cholesterol",mg,--,--,0,0
Amino Acids
Other
Ingredients
"MODIFIED POTATO STARCH, CHEDDAR CHEESE(MILK, SALT, CULTURES, ENZYMES, BUTTERMILK, WHEY), DEHYDRATED BROCCOLI, SALT, NATURAL FLAVORS(AUTOLYZED YEAST EXTRACT), DEHYDRATED ONION AND GARLIC, SUGAR, SPICE, LACTIC ACID, EXTRACTIVES OF ANNATTO AND TURMERIC" Date available: 06/25/2017 Date last updated by company: 06/25/2017
