Source: USDA Branded Food Products Database Release December 2017 Software v.3.8.6.4 2017-10-02
Report Run at: December 19, 2017 01:38 EST
"Nutrient data for: 45078658, CHEDDAR STYLE SHREDS, UPC: 871459000022"
Food Group:  Branded Food Products Database
Common Name:

Nutrient,Unit,Data points,Std. Error,"0.25 cup = 28.0g",1Value per 100 g,
Proximates
"Energy",kcal,--,--,90,321
"Protein",g,--,--,1.00,3.57
"Total lipid (fat)",g,--,--,6.00,21.43
"Carbohydrate, by difference",g,--,--,7.00,25.00
"Fiber, total dietary",g,--,--,1.0,3.6
"Sugars, total",g,--,--,0.00,0.00
Minerals
"Calcium, Ca",mg,--,--,20,71
"Iron, Fe",mg,--,--,0.64,2.29
"Sodium, Na",mg,--,--,250,893
Vitamins
"Vitamin C, total ascorbic acid",mg,--,--,0.0,0.0
"Vitamin A, IU",IU,--,--,0,0
Lipids
"Fatty acids, total saturated",g,--,--,1.999,7.140
"Fatty acids, total trans",g,--,--,0.000,0.000
"Cholesterol",mg,--,--,0,0
Amino Acids
Other
Ingredients
"FILTERED WATER, TAPIOCA FLOUR, NON-GMO EXPELLER PRESSED CANOLA AND/OR NON-GMO EXPELLER PRESSED SAFFLOWER OIL, COCONUT OIL, PEA PROTEIN, SALT, INACTIVE YEAST, VEGAN NATURAL FLAVORS, VEGETABLE GLYCERIN, XANTHAN GUM, YEAST EXTRACT, CITRIC ACID, ANNATTO (FOR COLOR), TITANIUM DIOXIDE (A NATURALLY OCCURRING MINERAL)." Date available: 09/08/2017 Date last updated by company: 09/08/2017
