Source: USDA Branded Food Products Database Release December 2017 Software v.3.8.6.4 2017-10-02
Report Run at: December 19, 2017 01:31 EST
"Nutrient data for: 45271680, CHEDDAR CHEESE DIP, UPC: 041501373606"
Food Group:  Branded Food Products Database
Common Name:

Nutrient,Unit,Data points,Std. Error,"2.0 Tbsp = 31.0g",1Value per 100 g,
Proximates
"Energy",kcal,--,--,90,290
"Protein",g,--,--,2.00,6.45
"Total lipid (fat)",g,--,--,8.00,25.81
"Carbohydrate, by difference",g,--,--,4.00,12.90
"Fiber, total dietary",g,--,--,0.0,0.0
"Sugars, total",g,--,--,2.00,6.45
Minerals
"Calcium, Ca",mg,--,--,60,194
"Iron, Fe",mg,--,--,0.00,0.00
"Sodium, Na",mg,--,--,470,1516
Vitamins
"Vitamin C, total ascorbic acid",mg,--,--,0.0,0.0
"Vitamin A, IU",IU,--,--,162,521
Lipids
"Fatty acids, total saturated",g,--,--,2.000,6.450
"Fatty acids, total trans",g,--,--,0.000,0.000
"Cholesterol",mg,--,--,5,16
Amino Acids
Other
Ingredients
"CHEDDAR CHEESE (MILK, CHEESE CULTURES, SALT, ENZYMES), WHEY, WATER, SOYBEAN OIL, SODIUM PHOSPHATE, WHEY PROTEIN CONCENTRATE, MALTODEXTRIN, NATURAL FLAVOR, MONO & DI-GLYCERIDES, LACTIC ACID, MUSTARD FLOUR, SODIUM ALGINATE, WORCESTERSHIRE SAUCE (DISTILLED VINEGAR, MOLASSES, CORN SYRUP, WATER, SALT, CARAMEL COLOR, GARLIC POWDER, SUGAR, SPICES, TAMARIND, NATURAL FLAVOR), YELLOW 5, YELLOW 6." Date available: 07/14/2017 Date last updated by company: 07/14/2017
