Source: USDA Branded Food Products Database Release December 2017 Software v.3.8.6.4 2017-10-02
Report Run at: December 19, 2017 01:30 EST
"Nutrient data for: 45264882, CHEDDAR BACON RANCH DIP, UPC: 021739820141"
Food Group:  Branded Food Products Database
Common Name:

Nutrient,Unit,Data points,Std. Error,"2.0 Tbsp = 40.0g",1Value per 100 g,
Proximates
"Energy",kcal,--,--,190,475
"Protein",g,--,--,2.00,5.00
"Total lipid (fat)",g,--,--,19.00,47.50
"Carbohydrate, by difference",g,--,--,1.00,2.50
"Fiber, total dietary",g,--,--,0.0,0.0
"Sugars, total",g,--,--,1.00,2.50
Minerals
"Calcium, Ca",mg,--,--,40,100
"Iron, Fe",mg,--,--,0.00,0.00
"Potassium, K",mg,--,--,0,0
"Sodium, Na",mg,--,--,160,400
Vitamins
"Vitamin D",IU,--,--,0,0
Lipids
"Fatty acids, total saturated",g,--,--,5.000,12.500
"Fatty acids, total trans",g,--,--,0.000,0.000
"Cholesterol",mg,--,--,30,75
Amino Acids
Other
Ingredients
"MAYONNAISE (SOYBEAN OIL, WHOLE EGGS AND EGG YOLKS, VINEGAR, WATER, SALT, SUGAR, LEMON JUICE [FROM CONCENTRATE], NATURAL FLAVORS), ACIDIFIED SOUR CREAM (MILK, CREAM, MODIFIED FOOD STARCH, MALTODEXTRIN, SODIUM PHOSPHATE, GUAR GUM, MONO AND DIGLYCERIDES, LOCUST BEAN GUM, CARRAGEENAN, CONTAINS LESS THAN 2%: NONFAT DRY MILK, LACTIC ACID, WATER, CITRIC ACID, NATURAL AND ARTIFICIAL FLAVOR, POTASSIUM SORBATE AS PRESERVATIVE), SHREDDED CHEDDAR CHEESE (CULTURED PASTEURIZED MILK, SALT, ENZYMES, CALCIUM CHLORIDE, ANNATTO COLOR, POWDERED CELLULOSE, NATAMYCIN.), RANCH SEASONING (SALT, MALTODEXTRIN, ONION POWDER, GARLIC POWDER, DEXTROSE, HYDROLYZED CORN PROTEIN, DRIED PARSLEY, XANTHAN GUM, DISODIUM INOSINATE, DISODIUM GUANYLATE, LESS THAN 2% SILICON DIOXIDE (PREVENT CAKING)), BACON BITS, CHEESE BUDS (MALTODEXTRIN, NATURAL CHEDDAR CHEESE FLAVOR, WHEY SOLIDS, SALT, DISODIUM PHOSPHATE), POTASSIUM SORBATE AS A PRESERVATIVE, SODIUM BENZOATE AS A PRESERVATIVE, SAVORY BACON FLAVOR (MALTODEXTRIN, NATURAL FLAVOR, SALT, GUM ARABIC, SILICON DIOXIDE), XANTHAN GUM, GUAR GUM, BACON FLAVOR (POTATO MALTODEXTRIN, SUNFLOWER OIL, GUM ARABIC, NATURAL FLAVOR), BLACK PEPPER." Date available: 10/13/2017 Date last updated by company: 10/13/2017
