Source: USDA Branded Food Products Database Release December 2017 Software v.3.8.6.4 2017-10-02
Report Run at: December 19, 2017 02:00 EST
"Nutrient data for: 45120835, CHEESE STICKS, UPC: 071052000652"
Food Group:  Branded Food Products Database
Common Name:

Nutrient,Unit,Data points,Std. Error,"1 CHEESE STICK = 65.0g",1Value per 100 g,
Proximates
"Energy",kcal,--,--,190,292
"Protein",g,--,--,9.00,13.85
"Total lipid (fat)",g,--,--,7.00,10.77
"Carbohydrate, by difference",g,--,--,23.00,35.38
"Fiber, total dietary",g,--,--,1.0,1.5
"Sugars, total",g,--,--,2.00,3.08
Minerals
"Calcium, Ca",mg,--,--,150,231
"Iron, Fe",mg,--,--,1.89,2.90
"Sodium, Na",mg,--,--,260,400
Vitamins
"Vitamin C, total ascorbic acid",mg,--,--,0.0,0.0
"Vitamin A, IU",IU,--,--,261,402
Lipids
"Fatty acids, total saturated",g,--,--,3.998,6.150
"Fatty acids, total trans",g,--,--,0.000,0.000
"Cholesterol",mg,--,--,10,15
Amino Acids
Other
Ingredients
"DOUGH INGREDIENTS: ENRICHED FLOUR (WHEAT FLOUR, NIACIN, REDUCED IRON, THIAMINE MONONITRATE, RIBOFLAVIN, ENZYME, FOLIC ACID), WATER, DEXTROSE, CONTAINS LESS THAN 2% OF EACH OF THE FOLLOWING: WHEAT GLUTEN, INTERESTERIFIED SOYBEAN OIL, YEAST, SALT, WHEAT FLOUR, MALTED BARLEY WITH SULFITES, ASCORBIC ACID ADDED AS A DOUGH CONDITIONER, ENZYMES, SOYBEAN OIL, SORBITAN MONOSTEARATE, CELLULOSE GUM, CALCIUM SULFATE. CHEESE FILLING INGREDIENTS: LOW-MOISTURE PART-SKIM MOZZARELLA CHEESE (PASTEURIZED PART-SKIM MILK, CULTURES, SALT, ENZYMES). TOPPING INGREDIENTS: INTERESTERIFIED SOYBEAN OIL, CONTAINS LESS THAN 2% OF EACH OF THE FOLLOWING: WATER, BUTTER (CREAM, SALT), DRIED PARMESAN CHEESE (PASTEURIZED MILK, SALT, CHEESE CULTURE, ENZYMES, POWDERED CELLULOSE, SORBIC ACID PRESERVATIVE), DEHYDRATED GARLIC, SEASONING (DEHYDRATED GARLIC, BLACK PEPPER, SALT, BROWN SUGAR, DEHYDRATED BELL PEPPER, DEHYDRATED ONION, NATURAL FLAVOR, PARSLEY, SILICON DIOXIDE), SALT, DEHYDRATED ONION, MONO- & DIGLYCERIDES WITH CITRIC ACID PRESERVATIVE, NATURAL FLAVOR, SOYBEAN OIL, ANNATTO EXTRACT COLOR." Date available: 07/14/2017 Date last updated by company: 07/14/2017
