Source: USDA Branded Food Products Database Release December 2017 Software v.3.8.6.4 2017-10-02
Report Run at: December 19, 2017 01:55 EST
"Nutrient data for: 45217581, CHEESE PIZZA, UPC: 737094210151"
Food Group:  Branded Food Products Database
Common Name:

Nutrient,Unit,Data points,Std. Error,"0.333 PIZZA = 113.0g",1Value per 100 g,
Proximates
"Energy",kcal,--,--,299,265
"Protein",g,--,--,12.00,10.62
"Total lipid (fat)",g,--,--,12.99,11.50
"Carbohydrate, by difference",g,--,--,33.00,29.20
"Fiber, total dietary",g,--,--,1.0,0.9
"Sugars, total",g,--,--,2.00,1.77
Minerals
"Calcium, Ca",mg,--,--,299,265
"Iron, Fe",mg,--,--,1.86,1.65
"Sodium, Na",mg,--,--,670,593
Vitamins
"Vitamin C, total ascorbic acid",mg,--,--,0.0,0.0
"Vitamin A, IU",IU,--,--,345,305
Lipids
"Fatty acids, total saturated",g,--,--,6.995,6.190
"Fatty acids, total trans",g,--,--,0.000,0.000
"Cholesterol",mg,--,--,15,13
Amino Acids
Other
Ingredients
"CRUST: WATER, TAPIOCA FLOUR, RICE FLOUR, MODIFIED RICH STARCH, FRESH YEAST, WHEY POWDER, BUTTER FLAKES (SOYBEAN OIL, BUTTER FLAVOR, SOY LECITHIN), OLIVE OIL, EVAPORATED CANE SUGAR, SALT, XANTHAN GUM. SAUCE: CRUSHED TOMATOES (WATER, CONCENTRATED CRUSHED TOMATOES), TOMATO PUREE (WATER, TOMATO PASTE), SUGAR, SALT, SPICES, SOYBEAN OIL, CITRIC ACID, DEHYDRATED ONIONS, GARLIC, ROMANO CHEESE FLAVOR (ROMANO CHEESE [MILK, CHEESE CULTURES, SALT, ENZYMES], WATER, DISODIUM PHOSPHATE, ENZYMES), ONION POWDER, SPICE EXTRACTIVE. MOZZARELLA CHEESE: PASTEURIZED PART SKIM MILK, CHEESE CULTURES, SALT, AND ENZYMES. FONTINA CHEESE: PASTEURIZED PART-SKIM MILK, CULTURES, SALT, AND ENZYMES), ASIAGO CHEESE: PASTEURIZED MILK, CHEESE CULTURES, SALT, AND ENZYMES." Date available: 07/14/2017 Date last updated by company: 07/14/2017
