Source: USDA Branded Food Products Database Release December 2017 Software v.3.8.6.4 2017-10-02
Report Run at: December 19, 2017 01:58 EST
"Nutrient data for: 45026906, CHEESE RAVIOLI WITH SAUCE, UPC: 042272001651"
Food Group:  Branded Food Products Database
Common Name:

Nutrient,Unit,Data points,Std. Error,"1 BOWL = 269.0g",1Value per 100 g,
Proximates
"Energy",kcal,--,--,379,141
"Protein",g,--,--,13.99,5.20
"Total lipid (fat)",g,--,--,12.00,4.46
"Carbohydrate, by difference",g,--,--,55.01,20.45
"Fiber, total dietary",g,--,--,4.0,1.5
"Sugars, total",g,--,--,6.99,2.60
Minerals
"Calcium, Ca",mg,--,--,199,74
"Iron, Fe",mg,--,--,1.96,0.73
"Sodium, Na",mg,--,--,681,253
Vitamins
"Vitamin C, total ascorbic acid",mg,--,--,4.3,1.6
"Vitamin A, IU",IU,--,--,291,108
Lipids
"Fatty acids, total saturated",g,--,--,4.492,1.670
"Fatty acids, total trans",g,--,--,0.000,0.000
"Cholesterol",mg,--,--,24,9
Amino Acids
Other
Ingredients
"CHEESE RAVIOLI (RICOTTA CHEESE [PASTEURIZED WHEY, PASTEURIZED PART-SKIM MILK, VINEGAR, SALT], ORGANIC UNBLEACHED WHEAT FLOUR, ORGANIC DURUM WHEAT FLOUR, WATER, ORGANIC SEMOLINA FLOUR, ORGANIC VITAL WHEAT GLUTEN, PARMESAN CHEESE [PASTEURIZED PART-SKIM MILK, CULTURE, SALT, ENZYMES (WITHOUT ANIMAL ENZYMES OR RENNET)], HONEY, SPICES, SEA SALT), ORGANIC TOMATO PUREE, FILTERED WATER, ORGANIC ONIONS, ORGANIC EXTRA VIRGIN OLIVE OIL, SPICES, ORGANIC GRADE AA BUTTER, PARMESAN CHEESE (PASTEURIZED PART-SKIM MILK, CULTURE, SALT, ENZYMES [WITHOUT ANIMAL ENZYMES OR RENNET]), SEA SALT, ORGANIC GARLIC, BLACK PEPPER." Date available: 07/14/2017 Date last updated by company: 07/14/2017
