Source: USDA Branded Food Products Database Release December 2017 Software v.3.8.6.4 2017-10-02
Report Run at: December 19, 2017 01:46 EST
"Nutrient data for: 45292302, CHEESE CAKE, UPC: 044261621031"
Food Group:  Branded Food Products Database
Common Name:

Nutrient,Unit,Data points,Std. Error,"125.0 GRM = 125.0g",1Value per 100 g,
Proximates
"Energy",kcal,--,--,490,392
"Protein",g,--,--,9.00,7.20
"Total lipid (fat)",g,--,--,32.00,25.60
"Carbohydrate, by difference",g,--,--,39.00,31.20
"Fiber, total dietary",g,--,--,2.0,1.6
"Sugars, total",g,--,--,32.00,25.60
Minerals
"Calcium, Ca",mg,--,--,60,48
"Iron, Fe",mg,--,--,1.80,1.44
"Sodium, Na",mg,--,--,260,208
Vitamins
"Vitamin C, total ascorbic acid",mg,--,--,0.0,0.0
"Vitamin A, IU",IU,--,--,750,600
Lipids
"Fatty acids, total saturated",g,--,--,21.000,16.800
"Fatty acids, total trans",g,--,--,0.000,0.000
"Cholesterol",mg,--,--,140,112
Amino Acids
Other
Ingredients
"CREAM CHEESE (PASTEURIZED MILK AND CREAM, WHEY PROTEIN CONCENTRATE, SALT, STABILIZERS (CAROB BEAN GUM AND/OR XANTHAN, LOCUST BEAN, AND GUAR GUMS), CHEESE CULTURES), DARK CHOCOLATE (COCOA MASS, SUGAR, COCOA BUTTER, SOYA LECITHIN-AN EMULSIFIER, VANILLA) SUGAR, EGGS, AND CRUST (UNENRICHED FLOUR, BUTTER, SUGAR, PALM OIL, COCOA POWDER, WATER, EGGS, SALT)." Date available: 07/17/2017 Date last updated by company: 07/17/2017
