Source: USDA Branded Food Products Database Release December 2017 Software v.3.8.6.4 2017-10-02
Report Run at: December 19, 2017 01:49 EST
"Nutrient data for: 45211673, CHEESE DIP, UPC: 085239607060"
Food Group:  Branded Food Products Database
Common Name:

Nutrient,Unit,Data points,Std. Error,"2.0 Tbsp = 28.0g",1Value per 100 g,
Proximates
"Energy",kcal,--,--,70,250
"Protein",g,--,--,2.00,7.14
"Total lipid (fat)",g,--,--,6.00,21.43
"Carbohydrate, by difference",g,--,--,1.00,3.57
"Fiber, total dietary",g,--,--,0.0,0.0
"Sugars, total",g,--,--,0.00,0.00
Minerals
"Calcium, Ca",mg,--,--,20,71
"Iron, Fe",mg,--,--,0.00,0.00
"Sodium, Na",mg,--,--,150,536
Vitamins
"Vitamin C, total ascorbic acid",mg,--,--,0.0,0.0
"Vitamin A, IU",IU,--,--,179,638
Lipids
"Fatty acids, total saturated",g,--,--,2.999,10.710
"Fatty acids, total trans",g,--,--,0.000,0.000
"Cholesterol",mg,--,--,15,54
Amino Acids
Other
Ingredients
"KALE AND ONION SAUCE (CREAM, KALE, ONION, SPINACH, MODIFIED FOOD STARCH, CANOLA OIL, SALT, DRIED GARLIC, DRIED CHILI PEPPER), ARTICHOKE HEARTS (ARTICHOKE HEARTS, WATER, SALT, CITRIC ACID), CREAM CHEESE (PASTEURIZED CULTURED MILK AND CREAM, SALT, STABILIZERS [XANTHAN, CAROB BEAN AND/OR GUAR GUMS]), BACON (CURED WITH WATER, SALT, SUGAR, SODIUM PHOSPHATE, SODIUM ERYTHORABATE SODIUM NITRITE), ASIAGO CHEESE (PASTEURIZED MILK, CHEESE (CULTURES, RENNET, ENZYMES, SALT), PARMESAN CHEESE (PASTEURIZED MILK, CHEESE CULTURE, SALT, ENZYMES, RENNET), MAYONNAISE (SOYBEAN OIL, WATER, EGGS, DISTILLED VINEGAR, CONTAINS LESS THAN 2% OF CORN SYRUP, SALT, SPICE, LEMON JUICE CONCENTRATE, CALCIUM DISODIUM EDTA ADDED TO PROTECT FLAVOR), LEMON JUICE." Date available: 09/25/2017 Date last updated by company: 09/25/2017
