Source: USDA Branded Food Products Database Release December 2017 Software v.3.8.6.4 2017-10-02
Report Run at: December 19, 2017 01:50 EST
"Nutrient data for: 45275722, CHEESE DIP, UPC: 071448406105"
Food Group:  Branded Food Products Database
Common Name:

Nutrient,Unit,Data points,Std. Error,"2.0 Tbsp = 28.0g",1Value per 100 g,
Proximates
"Energy",kcal,--,--,50,179
"Protein",g,--,--,2.00,7.14
"Total lipid (fat)",g,--,--,3.50,12.50
"Carbohydrate, by difference",g,--,--,2.00,7.14
"Fiber, total dietary",g,--,--,0.0,0.0
"Sugars, total",g,--,--,1.00,3.57
Minerals
"Calcium, Ca",mg,--,--,20,71
"Iron, Fe",mg,--,--,0.00,0.00
"Sodium, Na",mg,--,--,200,714
Vitamins
"Vitamin C, total ascorbic acid",mg,--,--,0.0,0.0
"Vitamin A, IU",IU,--,--,357,1275
Lipids
"Fatty acids, total saturated",g,--,--,1.999,7.140
"Fatty acids, total trans",g,--,--,0.000,0.000
"Cholesterol",mg,--,--,10,36
Amino Acids
Other
Ingredients
"PASTEURIZED CULTURED MILK AND CREAM, ONION, LEEKS, CHIVE, SALT, SUGAR, CILANTRO, RICE STARCH, VINEGAR, MOLASSES, TOMATO, HORSERADISH, SPICES, PAPRIKA TURMERIC (FOR COLOR). GUAR GUM, SORBIC ACID (TO MAINTAIN FRESHNESS), CAROB BEAN GUM." Date available: 07/14/2017 Date last updated by company: 07/14/2017
