Source: USDA Branded Food Products Database Release December 2017 Software v.3.8.6.4 2017-10-02
Report Run at: December 19, 2017 01:51 EST
"Nutrient data for: 45182968, CHEESE FRANKS, UPC: 054500193489"
Food Group:  Branded Food Products Database
Common Name:

Nutrient,Unit,Data points,Std. Error,"1 FRANK = 50.0g",1Value per 100 g,
Proximates
"Energy",kcal,--,--,170,340
"Protein",g,--,--,7.00,14.00
"Total lipid (fat)",g,--,--,14.00,28.00
"Carbohydrate, by difference",g,--,--,4.00,8.00
"Fiber, total dietary",g,--,--,0.0,0.0
"Sugars, total",g,--,--,0.00,0.00
Minerals
"Calcium, Ca",mg,--,--,80,160
"Iron, Fe",mg,--,--,0.79,1.58
"Sodium, Na",mg,--,--,480,960
Vitamins
"Vitamin C, total ascorbic acid",mg,--,--,0.0,0.0
"Vitamin A, IU",IU,--,--,220,440
Lipids
"Fatty acids, total saturated",g,--,--,5.000,10.000
"Fatty acids, total trans",g,--,--,0.000,0.000
"Cholesterol",mg,--,--,40,80
Amino Acids
Other
Ingredients
"MECHANICALLY SEPARATED CHICKEN, PORK, PASTEURIZED PROCESS CHEDDAR CHEESE [CHEDDAR CHEESE (PASTEURIZED MILK, CHEESE CULTURE, SALT, ENZYMES), WATER, MILKFAT, SODIUM PHOSPHATE, SODIUM HEXAMETAPHOSPHATE, SALT, ARTIFICIAL COLOR], WATER, CORN SYRUP, POTASSIUM LACTATE, CONTAINS 2% OR LESS: SALT, SODIUM PHOSPHATE, NATURAL FLAVOR, SODIUM DIACETATE, BEEF STOCK, SODIUM ERYTHORBATE, PAPRIKA EXTRACT, SODIUM NITRITE." Date available: 07/14/2017 Date last updated by company: 07/14/2017
