Source: USDA Branded Food Products Database Release December 2017 Software v.3.8.6.4 2017-10-02
Report Run at: December 19, 2017 01:45 EST
"Nutrient data for: 45210083, CHEESECAKE, UPC: 748924608819"
Food Group:  Branded Food Products Database
Common Name:

Nutrient,Unit,Data points,Std. Error,"4.0 ONZ = 113.0g",1Value per 100 g,
Proximates
"Energy",kcal,--,--,410,363
"Protein",g,--,--,4.00,3.54
"Total lipid (fat)",g,--,--,28.00,24.78
"Carbohydrate, by difference",g,--,--,39.00,34.51
"Fiber, total dietary",g,--,--,1.0,0.9
"Sugars, total",g,--,--,24.00,21.24
Minerals
"Calcium, Ca",mg,--,--,40,35
"Iron, Fe",mg,--,--,1.20,1.06
"Sodium, Na",mg,--,--,270,239
Vitamins
"Vitamin C, total ascorbic acid",mg,--,--,4.0,3.5
"Vitamin A, IU",IU,--,--,1660,1469
Lipids
"Fatty acids, total saturated",g,--,--,10.995,9.730
"Fatty acids, total trans",g,--,--,0.000,0.000
"Cholesterol",mg,--,--,45,40
Amino Acids
Other
Ingredients
"CREAM CHEESE (PASTEURIZED MILK AND CREAM, CHEESE CULTURE, SALT, CAROB BEAN GUM), SUGAR, CORN SYRUP, PALM AND HYDROGENATED PALM OIL, CARROTS, SOYBEAN OIL, ENRICHED BLEACHED WHEAT FLOUR (WHEAT FLOUR, MALTED BARLEY FLOUR, NIACIN, REDUCED IRON, THIAMINE MONONITRATE, RIBOFLAVIN, FOLIC ACID), EGGS, APPLESAUCE (APPLES, WATER, SALT), BROWN SUGAR, WATER, PINEAPPLE (PINEAPPLE, PINEAPPLE JUICE), CONTAINS LESS THAN 2% OF THE FOLLOWING: COCONUT (COCONUT, SUGAR, WATER, PROPYLENE GLYCOL [CONTAINS SULFITES]),WALNUTS, CURRANTS (CURRANTS, VEGETABLE OIL), FOOD STARCH-MODIFIED, MOLASSES, MONO AND DIGLYCERIDES, BAKING SODA, LEAVENING (SODIUM ACID PYROPHOSPHATE, SODIUM BICARBONATE, CORN STARCH, MONOCALCIUM PHOSPHATE), CINNAMON, SOYBEAN LECITHIN, SALT, BUTTER EMULSION (ARTIFICIAL BUTTER FLAVOR, PROPYLENE GLYCOL, WATER, VEGETABLE GUM), CARAMEL COLOR, POLYSORBATE60, NUTMEG, POTASSIUM SORBATE (PRESERVATIVE), NATURAL & ARTIFICIAL FLAVORS, SODIUM BENZOATE (PRESERVATIVE), ALLSPICE, DEXTROSE, TITANIUM DIOXIDE, CARRAGEENAN, GLUCONO DELTA LACTONE, SILICON DIOXIDE, FD&C YELLOW 5, YELLOW 6, ANNATTO COLOR, VITAMIN A PALMITATE." Date available: 10/10/2017 Date last updated by company: 10/10/2017
