Source: USDA Branded Food Products Database Release December 2017 Software v.3.8.6.4 2017-10-02
Report Run at: December 19, 2017 01:54 EST
"Nutrient data for: 45093275, CHEESE PIZZA, UPC: 011225122767"
Food Group:  Branded Food Products Database
Common Name:

Nutrient,Unit,Data points,Std. Error,"1 PIZZA = 147.0g",1Value per 100 g,
Proximates
"Energy",kcal,--,--,360,245
"Protein",g,--,--,12.99,8.84
"Total lipid (fat)",g,--,--,12.99,8.84
"Carbohydrate, by difference",g,--,--,49.00,33.33
"Fiber, total dietary",g,--,--,2.1,1.4
"Sugars, total",g,--,--,4.00,2.72
Minerals
"Calcium, Ca",mg,--,--,250,170
"Iron, Fe",mg,--,--,3.59,2.44
"Sodium, Na",mg,--,--,490,333
Vitamins
"Vitamin C, total ascorbic acid",mg,--,--,6.3,4.3
"Vitamin A, IU",IU,--,--,398,271
Lipids
"Fatty acids, total saturated",g,--,--,4.498,3.060
"Fatty acids, total monounsaturated",g,--,--,2.999,2.040
"Fatty acids, total polyunsaturated",g,--,--,4.498,3.060
"Fatty acids, total trans",g,--,--,0.000,0.000
"Cholesterol",mg,--,--,15,10
Amino Acids
Other
Ingredients
"CRUST: ENRICHED FLOUR (WHEAT FLOUR, MALTED BARLEY FLOUR, NIACIN, FERROUS SULFATE, THIAMINE MONONITRATE, RIBOFLAVIN, FOLIC ACID), WATER, SOYBEAN OIL, SUGAR, SUGAR, YEAST, SALT, BAKING POWDER (CORN STARCH, SODIUM BICARBONATE, SODIUM ALUMINUM SULFATE, MONOCALCIUM PHOSPHATE), DEGERMINATED YELLOW CORN MEAL, SOY FLOUR. SAUCE: WATER, TOMATO PASTE (TOMATOES), SEASONING BLEND (MODIFIED CORN STARCH, SALT, DEHYDRATED ONION, DEHYDRATED GARLIC, SUGAR, SPICE, SOYBEAN OIL, CONTAINS LESS THAN 2% GUAR GUM, PARMESAN CHEESE [CULTURES MILK, SALT, ENZYMES], XANTHAN GUM, PAPRIKA, CITRIC ACID, BEEF POWDER [COLOR], SOY FLOUR), SUGAR, MODIFIED FOOD STARCH. MOZZARELLA CHEESE BLEND: LOW MOISTURE PART-SKIM MOZZARELLA CHEESE (PASTEURIZED MILK, CHEESE, SALT, ENZYMES), MOZZARELLA CHEESE SUBSTITUTE (WATER, CORN OIL, NONFAT DRY MILK, MODIFIED FOOD STARCH, POTASSIUM CHLORIDE, SODIUM CITRATE, SODIUM ALUMINUM PHOSPHATE, SODIUM TRIPOLYPHOSPHATE, TRI-CALCIUM PHOSPHATE, MAGNESIUM OXIDE, FERRIC ORTHOPHOSPHATE, VITAMIN A PALMITATE, NIACINAMIDE, ZINC OXIDE, CYANOCOBALAMIN, PYRIDOXINE HYDROCHLORIDE [VITAMIN B6])." Date available: 07/14/2017 Date last updated by company: 07/14/2017
