Source: USDA Branded Food Products Database Release December 2017 Software v.3.8.6.4 2017-10-02
Report Run at: December 19, 2017 01:41 EST
"Nutrient data for: 45195511, CHEESEBURGER SLIDERS, UPC: 03003408978"
Food Group:  Branded Food Products Database
Common Name:

Nutrient,Unit,Data points,Std. Error,"2.0 SLIDERS = 113.0g",1Value per 100 g,
Proximates
"Energy",kcal,--,--,330,292
"Protein",g,--,--,12.99,11.50
"Total lipid (fat)",g,--,--,14.00,12.39
"Carbohydrate, by difference",g,--,--,34.00,30.09
"Fiber, total dietary",g,--,--,2.0,1.8
"Sugars, total",g,--,--,8.00,7.08
Minerals
"Calcium, Ca",mg,--,--,60,53
"Iron, Fe",mg,--,--,2.03,1.80
"Sodium, Na",mg,--,--,710,628
Vitamins
"Vitamin C, total ascorbic acid",mg,--,--,0.0,0.0
"Vitamin A, IU",IU,--,--,0,0
Lipids
"Fatty acids, total saturated",g,--,--,4.995,4.420
"Fatty acids, total trans",g,--,--,0.000,0.000
"Cholesterol",mg,--,--,40,35
Amino Acids
Other
Ingredients
"BUN (ENRICHED BLEACHED FLOUR [WHEAT FLOUR, MALTED BARLEY FLOUR, NIACIN, REDUCED IRON, THIAMINE, MONONITRATE, RIBOFLAVIN, FOLIC ACID], WATER, HIGH FRUCTOSE CORN SYRUP, SOYBEAN OIL, OAT FIBER, CONTAINS LESS THAN 2% OF EACH OF THE FOLLOWING: YEAST, SALT, SUGAR, CALCIUM PROPIONATE [PRESERVATIVE], CALCIUM SULFATE, ENZYMES, ASCORBIC ACID [DOUGH CONDITIONER], MICROCRYSTALLINE CELLULOSE, CORN STARCH), BEEF PATTY (BEEF, WATER, TEXTURED SOY FLOUR, CONTAINS 2% OR LESS OF SALT, BLACK PEPPER, GARLIC POWDER, ONION POWDER), PROCESS AMERICAN YELLOW CHEESE PRODUCT (CULTURED MILK, SKIM MILK, WHEY, SALT, SODIUM CITRATE, MODIFIED FOOD STARCH, ARTIFICIAL COLOR, SODIUM PHOSPHATE, SORBIC ACID [PRESERVATIVE], LACTIC ACID, ENZYMES, SOY LECITHIN)." Date available: 07/14/2017 Date last updated by company: 07/14/2017
