Source: USDA Branded Food Products Database Release December 2017 Software v.3.8.6.4 2017-10-02
Report Run at: December 19, 2017 02:08 EST
"Nutrient data for: 45317402, CHEEZ-IT, BAKED SNACK CRACKERS, MOZZARELLA, UPC: 024100789177"
Food Group:  Branded Food Products Database
Common Name:

Nutrient,Unit,Data points,Std. Error,"25.0 CRACKERS = 30.0g",1Value per 100 g,
Proximates
"Energy",kcal,--,--,150,500
"Protein",g,--,--,3.00,10.00
"Total lipid (fat)",g,--,--,7.00,23.33
"Carbohydrate, by difference",g,--,--,19.00,63.33
"Fiber, total dietary",g,--,--,1.0,3.3
"Sugars, total",g,--,--,0.00,0.00
Minerals
"Calcium, Ca",mg,--,--,0,0
"Iron, Fe",mg,--,--,1.80,6.00
"Sodium, Na",mg,--,--,180,600
Vitamins
"Vitamin C, total ascorbic acid",mg,--,--,0.0,0.0
"Vitamin A, IU",IU,--,--,0,0
Lipids
"Fatty acids, total saturated",g,--,--,1.500,5.000
"Fatty acids, total monounsaturated",g,--,--,1.500,5.000
"Fatty acids, total polyunsaturated",g,--,--,3.501,11.670
"Fatty acids, total trans",g,--,--,0.000,0.000
"Cholesterol",mg,--,--,0,0
Amino Acids
Other
Ingredients
"ENRICHED FLOUR (WHEAT FLOUR, NIACIN, REDUCED IRON, THIAMIN MONONITRATE [VITAMIN B1], RIBO-FLAVIN [VITAMIN B2], FOLIC ACID), VEGETABLE OIL (SOYBEAN AND PALM OIL WITH TBHQ FOR FRESHNESS, PALM AND SUNFLOWER OIL), WHITE CHEDDAR CHEESE (MILK, CHEESE CULTURES, SALT, ENZYMES), CONTAINS TWO PERCENT OR LESS OF SALT, WHEY, MALTODEXTRIN, CHEDDAR CHEESE (MILK, CHEESE CULTURES, SALT, ENZYMES), MOZZARELLA CHEESE (MILK, CHEESE CULTURES, SALT, ENZYMES), LEAVEN-ING (BAKING SODA, YEAST), NONFAT MILK, NATURAL AND ARTIFICIAL FLAVORS, DEXTROSE, MONOSODIUM GLUTAMATE, CREAM, LACTIC ACID, DISODIUM GUANYLATE, DISODIUM INOSINATE, TURMERIC EXTRACT FOR COLOR, ANNATTO EXTRACT FOR COLOR, SOY LECITHIN." Date available: 06/24/2017 Date last updated by company: 06/24/2017
