Source: USDA Branded Food Products Database Release December 2017 Software v.3.8.6.4 2017-10-02
Report Run at: December 19, 2017 02:03 EST
"Nutrient data for: 45268779, CHEESE TRAY, UPC: 815108020368"
Food Group:  Branded Food Products Database
Common Name:

Nutrient,Unit,Data points,Std. Error,"1.5 ONZ = 43.0g",1Value per 100 g,
Proximates
"Energy",kcal,--,--,130,302
"Protein",g,--,--,6.00,13.95
"Total lipid (fat)",g,--,--,10.00,23.26
"Carbohydrate, by difference",g,--,--,2.00,4.65
"Sugars, total",g,--,--,1.00,2.33
Minerals
"Calcium, Ca",mg,--,--,200,465
"Sodium, Na",mg,--,--,230,535
Vitamins
"Vitamin C, total ascorbic acid",mg,--,--,1.4,3.3
"Vitamin A, IU",IU,--,--,465,1081
Lipids
"Fatty acids, total saturated",g,--,--,5.998,13.950
"Cholesterol",mg,--,--,35,81
Amino Acids
Other
Ingredients
"CHEDDAR CHEESE (PASTEURIZED MILK, CHEESE CULTURE, SALT, ENZYMES, ANNATTO [COLOR]), POTATO STARCH, CORN STARCH, AND POWDERED CELLULOSE [ANTI-CAKING AGENTS]), MONTEREY JACK CHEESE (CULTURED PASTEURIZED MILK, SALT, ENZYMES), PEPPER JACK CHEESE (CULTURE PASTEURIZED MILK, JALAPENO PEPPERS, SALT, ENZYMES), COLBY JACK CHEESE (PASTEURIZED MILK, CHEESE CULTURE, ENZYMES, ANNATTO [COLOR]), GRAPES." Date available: 10/19/2017 Date last updated by company: 10/19/2017
