Source: USDA Branded Food Products Database Release December 2017 Software v.3.8.6.4 2017-10-02
Report Run at: December 19, 2017 02:06 EST
"Nutrient data for: 45290501, CHEESY NACHO FLAVORED CRUNCHY CURLS, UPC: 074690065090"
Food Group:  Branded Food Products Database
Common Name:

Nutrient,Unit,Data points,Std. Error,"0.5 cup = 28.0g",1Value per 100 g,
Proximates
"Energy",kcal,--,--,150,536
"Protein",g,--,--,2.00,7.14
"Total lipid (fat)",g,--,--,9.00,32.14
"Carbohydrate, by difference",g,--,--,16.00,57.14
"Fiber, total dietary",g,--,--,0.0,0.0
"Sugars, total",g,--,--,0.00,0.00
Minerals
"Calcium, Ca",mg,--,--,12,43
"Iron, Fe",mg,--,--,0.00,0.00
"Potassium, K",mg,--,--,37,132
"Sodium, Na",mg,--,--,250,893
Vitamins
"Vitamin D",IU,--,--,0,0
Lipids
"Fatty acids, total saturated",g,--,--,1.000,3.570
"Fatty acids, total trans",g,--,--,0.000,0.000
"Cholesterol",mg,--,--,0,0
Amino Acids
Other
Ingredients
"CORNMEAL, CANOLA AND/OR SUNFLOWER OIL, SALT, CONTAINS TWO PERCENT OR LESS OF: CHEDDAR/BLUE/PARMESAN CHEESES (PASTEURIZED MILK, CULTURED MILK, CHEESE CULTURES, SALT, ENZYMES), WHEY, CORN MALTODEXTRIN, BUTTERMILK, MONOSODIUM GLUTAMATE, GARLIC POWDER, ONION POWDER, SODIUM PHOSPHATE, WHEY PROTEIN CONCENTRATE, YELLOW 5 LAKE (COLOR), PAPRIKA (COLOR), TOMATO POWDER, LACTIC ACID, NATURAL FLAVOR, HYDROLYZED SOY PROTEIN, CITRIC ACID, YELLOW 6 LAKE (COLOR), CARAMEL COLOR, HEAVY CREAM (CREAM, MILK), CALCIUM LACTATE, MONO AND DIGLYCERIDES, SPICE, ARTIFICIAL FLAVOR." Date available: 07/14/2017 Date last updated by company: 07/14/2017
