Source: USDA Branded Food Products Database Release December 2017 Software v.3.8.6.4 2017-10-02
Report Run at: December 19, 2017 01:57 EST
"Nutrient data for: 45190370, CHEESE RAVIOLI, UPC: 035826084873"
Food Group:  Branded Food Products Database
Common Name:

Nutrient,Unit,Data points,Std. Error,"1 cup = 110.0g",1Value per 100 g,
Proximates
"Energy",kcal,--,--,240,218
"Protein",g,--,--,12.00,10.91
"Total lipid (fat)",g,--,--,5.00,4.55
"Carbohydrate, by difference",g,--,--,38.00,34.55
"Fiber, total dietary",g,--,--,2.0,1.8
"Sugars, total",g,--,--,2.00,1.82
Minerals
"Calcium, Ca",mg,--,--,100,91
"Iron, Fe",mg,--,--,2.55,2.32
"Sodium, Na",mg,--,--,190,173
Vitamins
"Vitamin C, total ascorbic acid",mg,--,--,0.0,0.0
"Vitamin A, IU",IU,--,--,354,322
Lipids
"Fatty acids, total saturated",g,--,--,2.002,1.820
"Fatty acids, total monounsaturated",g,--,--,0.495,0.450
"Fatty acids, total polyunsaturated",g,--,--,0.000,0.000
"Fatty acids, total trans",g,--,--,0.000,0.000
"Cholesterol",mg,--,--,25,23
Amino Acids
Other
Ingredients
"DOUGH MIXTURE: ENRICHED DURUM FLOUR (DURUM FLOUR, NIACIN, FERROUS SULFATE, THIAMINE MONONITRATE, RIBOFLAVIN, FOLIC ACID), WATER, EGG WHITES. CHEESE MIXTURE: WHOLE MILK RICOTTA CHEESE (PASTEURIZED WHEY, MILK, CREAM, SALT, STABILIZERS {XANTHAN GUM, LOCUST BEAN GUM GUAR GUM}), WATER, EGG WHITES, ROMANO CHEESE (PASTEURIZED COW'S MILK, CHEESE CULTURE), SEA SALT, GROUND WHITE PEPPERCORN." Date available: 07/14/2017 Date last updated by company: 07/14/2017
