Source: USDA Branded Food Products Database Release December 2017 Software v.3.8.6.4 2017-10-02
Report Run at: December 19, 2017 01:45 EST
"Nutrient data for: 45254457, CHEESECAKE, UPC: 078742114101"
Food Group:  Branded Food Products Database
Common Name:

Nutrient,Unit,Data points,Std. Error,"1 SLICE = 128.0g",1Value per 100 g,
Proximates
"Energy",kcal,--,--,490,383
"Protein",g,--,--,6.00,4.69
"Total lipid (fat)",g,--,--,28.01,21.88
"Carbohydrate, by difference",g,--,--,56.00,43.75
"Fiber, total dietary",g,--,--,2.0,1.6
"Sugars, total",g,--,--,45.00,35.16
Minerals
"Calcium, Ca",mg,--,--,100,78
"Iron, Fe",mg,--,--,1.41,1.10
"Sodium, Na",mg,--,--,320,250
Vitamins
"Vitamin C, total ascorbic acid",mg,--,--,0.0,0.0
"Vitamin A, IU",IU,--,--,732,572
Lipids
"Fatty acids, total saturated",g,--,--,17.997,14.060
"Fatty acids, total trans",g,--,--,0.499,0.390
"Cholesterol",mg,--,--,100,78
Amino Acids
Other
Ingredients
"CREAM CHEESE(PASTEURIZED MILK AND CREAM, CHEESE CULTURE, SALT, CAROB BEAN GUM, XANTHAN GUM, GUAR GUM), CARAMEL (REDUCED LACTOSE SWEETENED CONDENSED WHOLE MILK [MILK, SUGAR, SKIM MILK], CORN SYRUP, WATER, SUGAR, BUTTER [CREAM, SALT], MODIFIED FOOD STARCH, GELLAN GUM, XANTHAN GUM, SODIUM BICARBONATE, MONO- AND DIGLYCERIDES, NATURAL FLAVOR, POTASSIUM SORBATE PRESERVATIVE, SALT), SUGAR, GRAHAM CRUMA (WHEAT FLOUR, GRAHAM FLOUR, SUGAR, PALM AND PALM KERNEL OIL, MOLASSES, HONEY, SALT, SODIUM BICARBONATE), EGGS, SEMI-SWEET CHOCOLATE (UNSWEETENED CHOCOLATE, SUGAR, DEXTROSE, SOY LECITHIN, ARTIFICIAL FLAVOR), TOASTED COCONUT (DESSICATED COCONUT, SUGAR, DEXTROSE, SALT, SULFUR DIOXIDE PRESERVATIVE), SWEETENED COCONUT FLAKES(COCONUT, SUGAR, WATER, PROPYLENE GLYCOL, SALT, SODIUM METABISULFITE PRESERVATIVE), BUTTER (PASTEURIZED CREAM, SALT), CHOCOLATE COATING (POWDERED SUGAR [SUGAR, CORN STARCH], CHOCOLATE LIQUOR, COCONUT OIL, SOY LECITHIN, SALT, NATURAL FLAVOR, MILK), NATURAL AND ARTIFICIAL FLAVOR, ENRICHED FLOUR (BLEACHED WHEAT FLOUR, MALTED BARLEY FLOUR, NIACIN, REDUCED IRON, THIAMINE MONONITRATE, RIBOFLAVIN, FOLIC ACID), CARAMEL COLOR, SOY LECITHIN." Date available: 07/14/2017 Date last updated by company: 07/14/2017
