Source: USDA Branded Food Products Database Release December 2017 Software v.3.8.6.4 2017-10-02
Report Run at: December 19, 2017 01:59 EST
"Nutrient data for: 45286138, CHEESE SNACKS, UPC: 075501961280"
Food Group:  Branded Food Products Database
Common Name:

Nutrient,Unit,Data points,Std. Error,"1 PIECE | ABOUT = 21.0g",1Value per 100 g,
Proximates
"Energy",kcal,--,--,70,333
"Protein",g,--,--,5.00,23.81
"Total lipid (fat)",g,--,--,6.00,28.57
"Carbohydrate, by difference",g,--,--,0.00,0.00
"Fiber, total dietary",g,--,--,0.0,0.0
"Sugars, total",g,--,--,0.00,0.00
Minerals
"Calcium, Ca",mg,--,--,200,952
"Iron, Fe",mg,--,--,0.00,0.00
"Sodium, Na",mg,--,--,100,476
Vitamins
"Vitamin C, total ascorbic acid",mg,--,--,0.0,0.0
"Vitamin A, IU",IU,--,--,476,2267
Lipids
"Fatty acids, total saturated",g,--,--,3.501,16.670
"Fatty acids, total trans",g,--,--,0.000,0.000
"Cholesterol",mg,--,--,15,71
Amino Acids
Other
Ingredients
"PASTEURIZED PART-SKIM MILK, CULTURE, SALT, RENNET." Date available: 10/04/2017 Date last updated by company: 10/04/2017
