Source: USDA Branded Food Products Database Release December 2017 Software v.3.8.6.4 2017-10-02
Report Run at: December 19, 2017 01:56 EST
"Nutrient data for: 45228472, CHEESE PIZZA, UPC: 793573161581"
Food Group:  Branded Food Products Database
Common Name:

Nutrient,Unit,Data points,Std. Error,"1 SLICE = 117.0g",1Value per 100 g,
Proximates
"Energy",kcal,--,--,270,231
"Protein",g,--,--,12.00,10.26
"Total lipid (fat)",g,--,--,9.00,7.69
"Carbohydrate, by difference",g,--,--,36.00,30.77
"Fiber, total dietary",g,--,--,3.0,2.6
"Sugars, total",g,--,--,3.00,2.56
Minerals
"Calcium, Ca",mg,--,--,200,171
"Iron, Fe",mg,--,--,4.50,3.85
"Sodium, Na",mg,--,--,360,308
Vitamins
"Vitamin C, total ascorbic acid",mg,--,--,35.0,29.9
"Thiamin",mg,--,--,1.170,1.000
"Riboflavin",mg,--,--,0.425,0.363
"Niacin",mg,--,--,6.665,5.697
"Vitamin A, IU",IU,--,--,3333,2849
Lipids
"Fatty acids, total saturated",g,--,--,4.001,3.420
"Fatty acids, total trans",g,--,--,0.000,0.000
"Cholesterol",mg,--,--,20,17
Amino Acids
Other
Ingredients
"CRUST: WHEAT FLOUR, WATER, QUINOA POWDER, YEAST, CAULIFLOWER POWDER, BUTTERNUT SQUASH POWDER, ARTICHOKE POWDER, CARROT POWDER, GREEN BELL PEPPER POWDER, ORGANIC OLIVE OIL, SALT. SAUCE: WATER, TOMATO PASTE, GREEN BELL PEPPER POWDER, CARROT POWDER, BROCCOLI POWDER, KALE POWDER, BEET POWDER, GUAVA POWDER, PAPAYA POWDER, ONION POWDER, GARLIC POWDER, BASIL POWDER, OREGANO FINE CUT. ORGANIC CHEESE: PASTEURIZED ORGANIC MILK, CHEESE CULTURES, SEA SALT AND VEGETABLE ENZYMES." Date available: 07/14/2017 Date last updated by company: 07/14/2017
