Source: USDA Branded Food Products Database Release December 2017 Software v.3.8.6.4 2017-10-02
Report Run at: December 19, 2017 02:14 EST
"Nutrient data for: 45183349, CHEF MARITO, ADOBO, UPC: 052287001263"
Food Group:  Branded Food Products Database
Common Name:

Nutrient,Unit,Data points,Std. Error,"1 GRM = 1.0g",1Value per 100 g,
Proximates
"Energy",kcal,--,--,0,0
"Protein",g,--,--,0.00,0.00
"Total lipid (fat)",g,--,--,0.00,0.00
"Carbohydrate, by difference",g,--,--,0.00,0.00
"Fiber, total dietary",g,--,--,0.0,0.0
"Sugars, total",g,--,--,0.00,0.00
Minerals
"Calcium, Ca",mg,--,--,0,0
"Iron, Fe",mg,--,--,0.00,0.00
"Sodium, Na",mg,--,--,35,3500
Vitamins
"Vitamin C, total ascorbic acid",mg,--,--,0.0,0.0
"Vitamin A, IU",IU,--,--,0,0
Lipids
"Fatty acids, total saturated",g,--,--,0.000,0.000
"Fatty acids, total trans",g,--,--,0.000,0.000
"Cholesterol",mg,--,--,0,0
Amino Acids
Other
Ingredients
"PAPRIKA, SALT, GARLIC, ONION, CHILIES, SUGAR, DEXTROSE, CITRIC ACID, BLACK PEPPER, OREGANO, CUMIN, SODIUM BENZOATE, POTASSIUM SORBATE, CLOVES, PAPAIN, FD&C YELLOW 6, AND FD&C RED 40" Date available: 07/14/2017 Date last updated by company: 07/14/2017
