Source: USDA Branded Food Products Database Release December 2017 Software v.3.8.6.4 2017-10-02
Report Run at: December 19, 2017 02:13 EST
"Nutrient data for: 45134541, CHEF BOYARDEE Tomato Chicken Pasta, UNPREPARED, GTIN: 00064144753512"
Food Group:  Branded Food Products Database
Common Name:

Nutrient,Unit,Data points,Std. Error,"1 cup (246g) = 246.0g",1Value per 100 g,
Proximates
"Energy",kcal,--,--,150,61
"Protein",g,--,--,7.01,2.85
"Total lipid (fat)",g,--,--,1.50,0.61
"Carbohydrate, by difference",g,--,--,26.00,10.57
"Fiber, total dietary",g,--,--,3.0,1.2
"Sugars, total",g,--,--,8.00,3.25
Minerals
"Calcium, Ca",mg,--,--,20,8
"Iron, Fe",mg,--,--,1.45,0.59
"Potassium, K",mg,--,--,509,207
"Sodium, Na",mg,--,--,910,370
Vitamins
"Vitamin C, total ascorbic acid",mg,--,--,0.0,0.0
"Vitamin A, IU",IU,--,--,199,81
Lipids
"Fatty acids, total saturated",g,--,--,0.000,0.000
"Fatty acids, total monounsaturated",g,--,--,0.000,0.000
"Fatty acids, total polyunsaturated",g,--,--,0.000,0.000
"Fatty acids, total trans",g,--,--,0.000,0.000
"Cholesterol",mg,--,--,10,4
Amino Acids
Other
Ingredients
"Tomatoes (Tomato Puree, Water), Water, Enriched Pasta (Durum Wheat Semolina, Egg White, Niacin, Reduced Iron, Thiamine Mononitrate [Vitamin B1], Riboflavin [Vitamin B2], Folic Acid), Cooked Chicken (White Meat Chicken, Water, Modified Rice Starch, Isolated Soy Protein, Salt, Sodium Phosphates), LESS THAN 2% OF: High Fructose Corn Syrup, Salt, Dehydrated Onion, Cream, Titanium Dioxide, Modified Corn Starch, Garlic Powder, Nonfat Milk, Spices, Citric Acid, Sodium Caseinate. CONTAINS: EGG, MILK, SOY, WHEAT" Date available: 10/12/2017 Date last updated by company: 10/12/2017
