Source: USDA Branded Food Products Database Release December 2017 Software v.3.8.6.4 2017-10-02
Report Run at: December 19, 2017 02:11 EST
"Nutrient data for: 45134715, CHEF BOYARDEE Chicken Marinara Pasta, UNPREPARED, GTIN: 00064144020768"
Food Group:  Branded Food Products Database
Common Name:

Nutrient,Unit,Data points,Std. Error,"1 cup (255g) = 255.0g",1Value per 100 g,
Proximates
"Energy",kcal,--,--,171,67
"Protein",g,--,--,7.01,2.75
"Total lipid (fat)",g,--,--,1.99,0.78
"Carbohydrate, by difference",g,--,--,31.01,12.16
"Fiber, total dietary",g,--,--,3.1,1.2
"Sugars, total",g,--,--,8.01,3.14
Minerals
"Calcium, Ca",mg,--,--,41,16
"Iron, Fe",mg,--,--,1.43,0.56
"Potassium, K",mg,--,--,969,380
"Sodium, Na",mg,--,--,561,220
Vitamins
"Vitamin C, total ascorbic acid",mg,--,--,0.0,0.0
"Vitamin A, IU",IU,--,--,400,157
Lipids
"Fatty acids, total saturated",g,--,--,0.995,0.390
"Fatty acids, total monounsaturated",g,--,--,0.000,0.000
"Fatty acids, total polyunsaturated",g,--,--,0.000,0.000
"Fatty acids, total trans",g,--,--,0.000,0.000
"Cholesterol",mg,--,--,5,2
Amino Acids
Other
Ingredients
"Tomatoes (Tomato Puree, Water), Water, Enriched Pasta (Durum Wheat Semolina, Glycerol Monostearate, Niacin, Reduced Iron, Thiamine Mononitrate [Vitamin B1], Riboflavin [Vitamin B2], Folic Acid), Diced Chicken (Chicken Breast with Rib Meat, Water, Modified Rice Starch, Isolated Soy Protein, Salt, Sodium Phosphates), High Fructose Corn Syrup, LESS THAN 2% OF: Romano Cheese from Cow's Milk (Part-Skim Milk, Cheese Cultures, Salt, Enzymes), Sea Salt, Salt, Modified Corn Starch, Dehydrated Onion, Dehydrated Garlic, Potassium Chloride, Spices, Ammonium Chloride, Citric Acid, Yeast Extract, Flavoring, Lactic Acid.  CONTAINS:  MILK, SOY, WHEAT" Date available: 10/12/2017 Date last updated by company: 10/12/2017
