Source: USDA Branded Food Products Database Release December 2017 Software v.3.8.6.4 2017-10-02
Report Run at: December 19, 2017 02:18 EST
"Nutrient data for: 45003533, CHEF SWAGGER'S KITCHEN, FLAVORED SAUCE WITH FETTUCCINE PASTA, CHICKEN, UPC: 076587103090"
Food Group:  Branded Food Products Database
Common Name:

Nutrient,Unit,Data points,Std. Error,"0.66 cup = 60.0g",1Value per 100 g,
Proximates
"Energy",kcal,--,--,220,367
"Protein",g,--,--,7.00,11.67
"Total lipid (fat)",g,--,--,2.00,3.33
"Carbohydrate, by difference",g,--,--,44.00,73.33
"Fiber, total dietary",g,--,--,1.0,1.7
"Sugars, total",g,--,--,2.00,3.33
Minerals
"Calcium, Ca",mg,--,--,20,33
"Iron, Fe",mg,--,--,0.69,1.15
"Sodium, Na",mg,--,--,710,1183
Vitamins
"Vitamin C, total ascorbic acid",mg,--,--,0.5,0.8
"Thiamin",mg,--,--,0.600,1.000
"Riboflavin",mg,--,--,0.255,0.425
"Niacin",mg,--,--,3.800,6.333
"Vitamin A, IU",IU,--,--,77,128
Lipids
"Fatty acids, total saturated",g,--,--,0.000,0.000
"Fatty acids, total trans",g,--,--,0.000,0.000
"Cholesterol",mg,--,--,0,0
Amino Acids
Other
Ingredients
"ENRICHED MACARONI PRODUCT, [SEMOLINA, DURUM FLOUR, NIACIN, FERROUS SULFATE (IRON), THIAMINE MONONITRATE (VITAMIN B1), RIBOFLAVIN (VITAMIN B2), FOLIC ACID], CORN STARCH, CORN SYRUP SOLIDS, SALT, ONION POWDER, CHICKEN FAT, HYDROLYZED CORN PROTEIN, CHICKEN*, TORULA YEAST, RED BELL PEPPER*, GARLIC POWDER, SILICON DIOXIDE, PARSLEY*, HYDROLYZED SOY PROTEIN, CARROTS*, LACTIC ACID, SODIUM CASEINATE, NATURAL BUTTER FLAVOR, DISODIUM INOSINATE & DISODIUM GUANYLATE, SPICES, EXTRACTIVES OF SPICES." Date available: 07/14/2017 Date last updated by company: 07/14/2017
