Source: USDA Branded Food Products Database Release December 2017 Software v.3.8.6.4 2017-10-02
Report Run at: December 19, 2017 02:17 EST
"Nutrient data for: 45197500, CHEF'S DICED TOMATOES, UPC: 07096300097"
Food Group:  Branded Food Products Database
Common Name:

Nutrient,Unit,Data points,Std. Error,"3.5 ONZ = 100.0g",1Value per 100 g,
Proximates
"Energy",kcal,--,--,25,25
"Protein",g,--,--,2.00,2.00
"Total lipid (fat)",g,--,--,0.00,0.00
"Carbohydrate, by difference",g,--,--,4.00,4.00
"Fiber, total dietary",g,--,--,1.0,1.0
"Sugars, total",g,--,--,4.00,4.00
Minerals
"Calcium, Ca",mg,--,--,200,200
"Iron, Fe",mg,--,--,3.51,3.51
"Sodium, Na",mg,--,--,220,220
Vitamins
"Vitamin C, total ascorbic acid",mg,--,--,15.6,15.6
"Vitamin A, IU",IU,--,--,0,0
Lipids
"Fatty acids, total saturated",g,--,--,0.000,0.000
"Fatty acids, total trans",g,--,--,0.000,0.000
"Cholesterol",mg,--,--,0,0
Amino Acids
Other
Ingredients
"VINE RIPENED TOMATOES, NATURALLY DERIVED CITRIC ACID, SALT." Date available: 07/14/2017 Date last updated by company: 07/14/2017
