Source: USDA Branded Food Products Database Release December 2017 Software v.3.8.6.4 2017-10-02
Report Run at: December 19, 2017 02:25 EST
"Nutrient data for: 45130393, Cherry Fountain & Shake Syrup, 1 gal jugs, UNPREPARED, GTIN: 00027000230404"
Food Group:  Branded Food Products Database
Common Name:

Nutrient,Unit,Data points,Std. Error,"2.0 tbsp. (37g) = 37.0g",1Value per 100 g,
Proximates
"Energy",kcal,--,--,90,243
"Protein",g,--,--,0.00,0.00
"Total lipid (fat)",g,--,--,0.00,0.00
"Carbohydrate, by difference",g,--,--,22.00,59.46
"Fiber, total dietary",g,--,--,0.0,0.0
"Sugars, total",g,--,--,22.00,59.46
Minerals
"Calcium, Ca",mg,--,--,0,0
"Iron, Fe",mg,--,--,0.00,0.00
"Potassium, K",mg,--,--,0,0
"Sodium, Na",mg,--,--,5,14
Vitamins
"Vitamin C, total ascorbic acid",mg,--,--,0.0,0.0
"Vitamin A, IU",IU,--,--,0,0
Lipids
"Fatty acids, total saturated",g,--,--,0.000,0.000
"Fatty acids, total monounsaturated",g,--,--,0.000,0.000
"Fatty acids, total polyunsaturated",g,--,--,0.000,0.000
"Fatty acids, total trans",g,--,--,0.000,0.000
"Cholesterol",mg,--,--,0,0
Amino Acids
Other
Ingredients
"Water, High Fructose Corn Syrup, Corn Syrup, Sugar, less than 2% of: Citric Acid, Sodium Benzoate (As Preservative), Red 40, Artificial Flavors, Natural Flavor, Caramel Color, Blue 1." Date available: 10/12/2017 Date last updated by company: 10/12/2017
