Source: USDA Branded Food Products Database Release December 2017 Software v.3.8.6.4 2017-10-02
Report Run at: December 19, 2017 02:27 EST
"Nutrient data for: 45079515, CHERRY MIXED FRUIT, UPC: 038900020583"
Food Group:  Branded Food Products Database
Common Name:

Nutrient,Unit,Data points,Std. Error,"1 CONTAINER = 113.0g",1Value per 100 g,
Proximates
"Energy",kcal,--,--,35,31
"Protein",g,--,--,0.00,0.00
"Total lipid (fat)",g,--,--,0.00,0.00
"Carbohydrate, by difference",g,--,--,8.99,7.96
"Fiber, total dietary",g,--,--,1.0,0.9
"Sugars, total",g,--,--,6.99,6.19
Minerals
"Calcium, Ca",mg,--,--,0,0
"Iron, Fe",mg,--,--,0.00,0.00
"Potassium, K",mg,--,--,90,80
"Sodium, Na",mg,--,--,0,0
Vitamins
"Vitamin C, total ascorbic acid",mg,--,--,33.4,29.6
"Vitamin A, IU",IU,--,--,124,110
Lipids
"Fatty acids, total saturated",g,--,--,0.000,0.000
"Fatty acids, total trans",g,--,--,0.000,0.000
"Cholesterol",mg,--,--,0,0
Amino Acids
Other
Ingredients
"WATER, PINEAPPLE, PEACHES, PEARS, CHERRIES (RED #3 COLOR), NATURAL FLAVORS, ASCORBIC ACID (TO PROMOTE COLOR RETENTION), STEVIA EXTRACT, MONK FRUIT EXTRACT, AND CITRIC ACID." Date available: 10/13/2017 Date last updated by company: 10/13/2017
