Source: USDA Branded Food Products Database Release December 2017 Software v.3.8.6.4 2017-10-02
Report Run at: December 19, 2017 02:28 EST
"Nutrient data for: 45256497, CHERRY PIE STREUSEL TOPPINGS, UPC: 722515913971"
Food Group:  Branded Food Products Database
Common Name:

Nutrient,Unit,Data points,Std. Error,"0.333 PIE = 124.0g",1Value per 100 g,
Proximates
"Energy",kcal,--,--,350,282
"Protein",g,--,--,3.00,2.42
"Total lipid (fat)",g,--,--,16.00,12.90
"Carbohydrate, by difference",g,--,--,50.00,40.32
"Fiber, total dietary",g,--,--,3.0,2.4
"Sugars, total",g,--,--,31.00,25.00
Minerals
"Calcium, Ca",mg,--,--,20,16
"Iron, Fe",mg,--,--,1.09,0.88
"Sodium, Na",mg,--,--,300,242
Vitamins
"Vitamin C, total ascorbic acid",mg,--,--,2.4,1.9
"Vitamin A, IU",IU,--,--,303,244
Lipids
"Fatty acids, total saturated",g,--,--,7.998,6.450
"Fatty acids, total trans",g,--,--,0.000,0.000
"Cholesterol",mg,--,--,10,8
Amino Acids
Other
Ingredients
"CHERRY FILLING (CHERRIES, SUGAR, WATER, MODIFIED FOOD STARCH, SALT, NATURAL AND ARTIFICIAL FLAVORS, ARTIFICIAL COLORS (MAY CONTAIN BLUE1, BLUE 2, RED 40, YELLOW 5. YELLOW 6, TITAINIUM DIOXIDE), CRUST (WHEAT FLOUR, VEGETABLE SHORTENING (PALM OIL, SOYBEAN OIL, MONO AND DIGLYCERIDES), WATER, DEXTROSE, SALT, NONFAT DRY MILK), STREUSEL (BUTTER, BROWN SUGAR, DESICCATED COCONUT (COCONUT, SODIUM METABISULFITE), MACAROOM TOPPING (SUGAR, YELLOW CORN FLOUR, PARTIALLY HYDROGENATED COTTONSEED AND/OR SOYBEAN OILS, CARAMEL COLOR, ARTIFICIAL FLAVOR), BLEACHED WHEATFIBER, SUGAR, PALM OIL (WITH MONO AND DIGLYCERIDES, POLYSORBATE 60), EGGS, WATER, NATURAL AND ARTIFICIAL FLAVORS, SALT, NONFAT DRY MILK, MODIFIED FOOD STARCH, BAKING POWDER (SODIUM ACID, PYROPHOSPHATE, SODIUM BICARBONATE, CORN STRACH, MONOCALCIUM PHOSPHATE), BETA CAROTENE)." Date available: 07/14/2017 Date last updated by company: 07/14/2017
