Source: USDA Branded Food Products Database Release December 2017 Software v.3.8.6.4 2017-10-02
Report Run at: December 19, 2017 02:25 EST
"Nutrient data for: 45268622, CHERRY DELITE SNACK MIX, UPC: 790429247338"
Food Group:  Branded Food Products Database
Common Name:

Nutrient,Unit,Data points,Std. Error,"0.25 CUP | ABOUT = 28.0g",1Value per 100 g,
Proximates
"Energy",kcal,--,--,140,500
"Protein",g,--,--,2.00,7.14
"Total lipid (fat)",g,--,--,6.00,21.43
"Carbohydrate, by difference",g,--,--,22.00,78.57
"Fiber, total dietary",g,--,--,3.0,10.7
"Sugars, total",g,--,--,15.00,53.57
Minerals
"Calcium, Ca",mg,--,--,20,71
"Iron, Fe",mg,--,--,1.93,6.88
"Sodium, Na",mg,--,--,10,36
Vitamins
"Vitamin C, total ascorbic acid",mg,--,--,0.0,0.0
"Vitamin A, IU",IU,--,--,357,1275
Lipids
"Fatty acids, total saturated",g,--,--,1.999,7.140
"Fatty acids, total trans",g,--,--,0.000,0.000
"Cholesterol",mg,--,--,0,0
Amino Acids
Other
Ingredients
"YOGURT RAISINS [RAISINS, (YOGURT COATING (SUGAR, PARTIALLY HYDROGENATED PALM KERNEL OIL, PALM OIL), NONFAT DRY YOGURT (NONFAT DRY MILK, YOGURT CULTURE), REDUCED MINERAL WHEY POWDER, SWEET WHEY, WHOLE MILK POWDER, NONFAT YOGURT POWDER (CULTURED WHEY, NONFAT MILK)), TITANIUM DIOXIDE (COLOR), SOY LECITHIN, SALT, VANILLA, LACTIC ACID, NATURAL FLAVORS, GUM ARABIC, CORN SYRUP, SUGAR, CONFECTIONERS GLAZE]. SUNFLOWER SEEDS, CASHEWS, PUMPKIN SEEDS, RAISINS (SUNFLOWER OIL), CHERRIES (SUGAR, LEMON ACID, SULFUR DIOXIDE (PRESERVATIVE), AND ARTIFICIAL COLOR ((FD&C RED 40)" Date available: 08/12/2017 Date last updated by company: 08/12/2017
