Source: USDA Branded Food Products Database Release December 2017 Software v.3.8.6.4 2017-10-02
Report Run at: December 19, 2017 02:27 EST
"Nutrient data for: 45079433, CHERRY MIXED FRUIT, UPC: 024000015185"
Food Group:  Branded Food Products Database
Common Name:

Nutrient,Unit,Data points,Std. Error,"1 CAN = 113.0g",1Value per 100 g,
Proximates
"Energy",kcal,--,--,70,62
"Protein",g,--,--,0.00,0.00
"Total lipid (fat)",g,--,--,0.00,0.00
"Carbohydrate, by difference",g,--,--,18.00,15.93
"Fiber, total dietary",g,--,--,1.0,0.9
"Sugars, total",g,--,--,16.00,14.16
Minerals
"Calcium, Ca",mg,--,--,0,0
"Iron, Fe",mg,--,--,0.00,0.00
"Potassium, K",mg,--,--,70,62
"Sodium, Na",mg,--,--,5,4
Vitamins
"Vitamin C, total ascorbic acid",mg,--,--,14.9,13.2
"Vitamin A, IU",IU,--,--,124,110
Lipids
"Fatty acids, total saturated",g,--,--,0.000,0.000
"Fatty acids, total trans",g,--,--,0.000,0.000
"Cholesterol",mg,--,--,0,0
Amino Acids
Other
Ingredients
"FRUIT (PEACHES, PEARS, CHERRIES [CHERRIES, CARMINE]), WATER, SUGAR, NATURAL FLAVOR, ASCORBIC ACID (VITAMIN C)." Date available: 07/14/2017 Date last updated by company: 07/14/2017
