Source: USDA Branded Food Products Database Release December 2017 Software v.3.8.6.4 2017-10-02
Report Run at: December 19, 2017 02:34 EST
"Nutrient data for: 45289033, CHEWS, UPC: 769493200815"
Food Group:  Branded Food Products Database
Common Name:

Nutrient,Unit,Data points,Std. Error,"4.0 PIECES = 30.0g",1Value per 100 g,
Proximates
"Energy",kcal,--,--,90,300
"Protein",g,--,--,0.00,0.00
"Total lipid (fat)",g,--,--,0.00,0.00
"Carbohydrate, by difference",g,--,--,23.00,76.67
"Sugars, total",g,--,--,11.00,36.67
Minerals
"Potassium, K",mg,--,--,40,133
"Sodium, Na",mg,--,--,45,150
Vitamins
Lipids
Amino Acids
Other
Ingredients
"ORGANIC TAPIOCA SYRUP, SUGAR, MALTODEXTRIN, PECTIN, CITRIC ACID, GU VEGAN BLEND (LEUCINE, VALINE, ISOLEUCINE), POTASSIUM CITRATE, NATURAL FLAVOR, COLOR ADDED (BLACK CARROT JUICE CONCENTRATE), FRACTIONATED COCONUT OIL, CARNAUBA WAX." Date available: 09/22/2017 Date last updated by company: 09/22/2017
