Source: USDA Branded Food Products Database Release December 2017 Software v.3.8.6.4 2017-10-02
Report Run at: December 19, 2017 02:38 EST
"Nutrient data for: 45080796, CHEWY DIPPED CHOCOLATEY DIPPED GRANOLA BARS, UPC: 688267133602"
Food Group:  Branded Food Products Database
Common Name:

Nutrient,Unit,Data points,Std. Error,"1 BAR = 31.0g",1Value per 100 g,
Proximates
"Energy",kcal,--,--,140,452
"Protein",g,--,--,2.00,6.45
"Total lipid (fat)",g,--,--,5.00,16.13
"Carbohydrate, by difference",g,--,--,22.00,70.97
"Fiber, total dietary",g,--,--,1.0,3.2
"Sugars, total",g,--,--,12.00,38.71
Minerals
"Calcium, Ca",mg,--,--,20,65
"Iron, Fe",mg,--,--,0.93,3.00
"Sodium, Na",mg,--,--,65,210
Vitamins
"Vitamin C, total ascorbic acid",mg,--,--,0.0,0.0
"Vitamin A, IU",IU,--,--,0,0
Lipids
"Fatty acids, total saturated",g,--,--,3.500,11.290
"Fatty acids, total monounsaturated",g,--,--,1.001,3.230
"Fatty acids, total polyunsaturated",g,--,--,0.000,0.000
"Fatty acids, total trans",g,--,--,0.000,0.000
"Cholesterol",mg,--,--,0,0
Amino Acids
Other
Ingredients
"INGREDIENTS: CHOCOLATEY COATING (SUGAR,PALM KERNEL OIL, COCOA POWDER ,WHOLE MILK SOLIDS, NONFAT DRY MILK SOLIDS ,WHEY POWDER ,SOY LECITHIN,SALT, NATURAL FLAVOR), GRANOLA (WHOLE GRAIN ROLLED OATS, SUGAR, SOYBEAN OIL, HONEY, MOLASSES, BHT [ PRESERVATIVE], WHOLE GRAIN BROWN RICE FLOUR), CORN SYRUP ,SEMISWEET CHOCOLATE CHIPS(SUGAR, CHOCOLATE LIQUOR, COCOA BUTTER, SOY LECITHIN, SALT, VANILLA), HIGH FRUCTOSE CORN SYRUP, BROWN SUGAR, CORN SYRUP SOLIDS, GLYCERIN, PALM OIL,LESS THAN 2 OF; SORBITOL, DRIED COCONUT, SALT,MIXED TOCOPHEROLS(ANTIOXIDANT), CARAMEL COLOR, NATURAL AND ARTIFICIAL FLAVORS, SUGAR, PEANUT FLOUR, ALMOND FLOUR." Date available: 06/25/2017 Date last updated by company: 06/25/2017
