Source: USDA Branded Food Products Database Release December 2017 Software v.3.8.6.4 2017-10-02
Report Run at: December 19, 2017 02:39 EST
"Nutrient data for: 45063649, CHEWY GRANOLA BARS, UPC: 085239207512"
Food Group:  Branded Food Products Database
Common Name:

Nutrient,Unit,Data points,Std. Error,"1 BAR = 24.0g",1Value per 100 g,
Proximates
"Energy",kcal,--,--,100,417
"Protein",g,--,--,2.00,8.33
"Total lipid (fat)",g,--,--,2.50,10.42
"Carbohydrate, by difference",g,--,--,17.00,70.83
"Fiber, total dietary",g,--,--,1.0,4.2
"Sugars, total",g,--,--,7.00,29.17
Minerals
"Calcium, Ca",mg,--,--,100,417
"Iron, Fe",mg,--,--,1.20,5.00
"Sodium, Na",mg,--,--,90,375
Vitamins
"Vitamin C, total ascorbic acid",mg,--,--,0.0,0.0
"Vitamin A, IU",IU,--,--,0,0
Lipids
"Fatty acids, total saturated",g,--,--,0.499,2.080
"Fatty acids, total trans",g,--,--,0.000,0.000
"Cholesterol",mg,--,--,0,0
Amino Acids
Other
Ingredients
"GRANOLA (WHOLE ROLLED OATS, SUGAR, RICE FLOUR, CANOLA AND/OR SOYBEAN OIL, MOLASSES, SODIUM BICARBONATE, SOY LECITHIN, CALCIUM CARBONATE, SALT), CORN SYRUP, CRISP RICE (RICE FLOUR, SUGAR, CALCIUM CARBONATE, DRIED MALT EXTRACT [CONTAINS CORN SYRUP SOLIDS], SALT), CHOCOLATE CHIPS (SUGAR, CHOCOLATE LIQUOR, COCOA BUTTER, WHOLE MILK POWDER, SOY LECITHIN, SALT, NATURAL FLAVOR), PEANUT BUTTER (GROUND PEANUTS), PEANUT FLAVORED CHIPS (SUGAR, PALM KERNEL AND PALM OIL, PARTIALLY DEFATTED PEANUT FLOUR, NONFAT DRY MILK SOLIDS, ANHYDROUS DEXTROSE, SALT, SOY LECITHIN), GLYCERIN, CANOLA AND/OR SOYBEAN OIL, FRUCTOSE, HONEY, CALCIUM CARBONATE, PARTIALLY DEFATTED PEANUT FLOUR, SALT, SOY LECITHIN, WHEAT FLAKES, DRIED UNSWEETENED COCONUT, ASCORBIC ACID, CITRIC ACID, ROSEMARY EXTRACT, NATURAL FLAVOR." Date available: 07/14/2017 Date last updated by company: 07/14/2017
