Source: USDA Branded Food Products Database Release December 2017 Software v.3.8.6.4 2017-10-02
Report Run at: December 19, 2017 02:47 EST
"Nutrient data for: 45311158, CHEX MIX SAVORY SNCK MIX PNT LOVERS, UNPREPARED, GTIN: 00016000158108"
Food Group:  Branded Food Products Database
Common Name:

Nutrient,Unit,Data points,Std. Error,"0.5 cup (32g) = 32.0g",1Value per 100 g,
Proximates
"Energy",kcal,--,--,150,469
"Protein",g,--,--,4.00,12.50
"Total lipid (fat)",g,--,--,6.00,18.75
"Carbohydrate, by difference",g,--,--,21.00,65.62
"Fiber, total dietary",g,--,--,1.0,3.1
"Sugars, total",g,--,--,2.00,6.25
Minerals
"Calcium, Ca",mg,--,--,0,0
"Iron, Fe",mg,--,--,0.36,1.12
"Sodium, Na",mg,--,--,200,625
Vitamins
"Vitamin C, total ascorbic acid",mg,--,--,0.0,0.0
"Vitamin A, IU",IU,--,--,0,0
Lipids
"Fatty acids, total saturated",g,--,--,0.998,3.120
"Fatty acids, total trans",g,--,--,0.000,0.000
"Cholesterol",mg,--,--,0,0
Amino Acids
Other
Ingredients
"ENRICHED WHEAT FLOUR (WHEAT FLOUR, NIACIN, IRON, THIAMIN MONONITRATE, RIBOFLAVIN, FOLIC ACID), PEANUTS, DEGERMED YELLOW CORN MEAL, WHOLE WHEAT, VEGETABLE OIL (SOYBEAN, CANOLA, PEANUT AND/OR RICE BRAN), SUGAR. CONTAINS 2% OR LESS OF: SALT, MONOSODIUM GLUTAMATE, MALTODEXTRIN, YEAST, CORN SYRUP SOLIDS, FRUCTOSE, MODIFIED CORN STARCH, BAKING SODA, DISTILLED MONOGLYCERIDES, VINEGAR POWDER, NATURAL FLAVOR, SPICES, ONION POWDER, TRISODIUM PHOSPHATE, YELLOW CORN FLOUR, CALCIUM CARBONATE, PAPRIKA (SPICE AND COLOR), BARLEY MALT SYRUP, COLOR ADDED, GARLIC POWDER. FRESHNESS PRESERVED BY BHT." Date available: 10/19/2017 Date last updated by company: 10/19/2017
