Source: USDA Branded Food Products Database Release December 2017 Software v.3.8.6.4 2017-10-02
Report Run at: December 19, 2017 02:51 EST
"Nutrient data for: 45231166, CHIA SQUEEZE VITALITY SNACK, UPC: 856516002270"
Food Group:  Branded Food Products Database
Common Name:

Nutrient,Unit,Data points,Std. Error,"1 POUCH, POUCHES = 99.0g",1Value per 100 g,
Proximates
"Energy",kcal,--,--,80,81
"Protein",g,--,--,2.00,2.02
"Total lipid (fat)",g,--,--,3.00,3.03
"Carbohydrate, by difference",g,--,--,10.00,10.10
"Fiber, total dietary",g,--,--,4.0,4.0
"Sugars, total",g,--,--,7.00,7.07
Minerals
"Calcium, Ca",mg,--,--,40,40
"Iron, Fe",mg,--,--,0.18,0.18
"Potassium, K",mg,--,--,80,81
"Sodium, Na",mg,--,--,10,10
Vitamins
Lipids
Amino Acids
Other
Ingredients
"HYDRATED ORGANIC CHIA SEEDS, (WATER, ORGANIC CHIA SEEDS), ORGANIC MANGO PUREE, ORGANIC BANANA PUREE, ORGANIC APPLE JUICE CONCENTRATE, ORGANIC CARROT PUREE, ORGANIC COCONUT CREAM, ORGANIC PINEAPPLE JUICE CONCENTRATE, ORGANIC ORANGE JUICE CONCENTRATE, ORGANIC NATURAL MANGO FLAVOR, CITRIC ACID, ORGANIC NATURAL COCONUT FLAVOR." Date available: 10/17/2017 Date last updated by company: 10/17/2017
