Source: USDA Branded Food Products Database Release December 2017 Software v.3.8.6.4 2017-10-02
Report Run at: December 19, 2017 02:49 EST
"Nutrient data for: 45271125, CHIA PUDDING, UPC: 863758000131"
Food Group:  Branded Food Products Database
Common Name:

Nutrient,Unit,Data points,Std. Error,"5.6 ONZ = 160.0g",1Value per 100 g,
Proximates
"Energy",kcal,--,--,200,125
"Protein",g,--,--,4.00,2.50
"Total lipid (fat)",g,--,--,12.00,7.50
"Carbohydrate, by difference",g,--,--,24.00,15.00
"Fiber, total dietary",g,--,--,6.1,3.8
"Sugars, total",g,--,--,11.01,6.88
Minerals
"Calcium, Ca",mg,--,--,40,25
"Iron, Fe",mg,--,--,0.90,0.56
"Sodium, Na",mg,--,--,150,94
Vitamins
"Vitamin C, total ascorbic acid",mg,--,--,2.2,1.4
"Vitamin A, IU",IU,--,--,62,39
Lipids
"Fatty acids, total saturated",g,--,--,8.000,5.000
"Fatty acids, total trans",g,--,--,0.000,0.000
"Cholesterol",mg,--,--,0,0
Amino Acids
Other
Ingredients
"FILTERED WATER, BANANA PUREE, COCONUT MILK, CHIA SEEDS, ORGANIC CANE SUGAR, ORGANIC COCOA POWDER, ORGANIC LEMON JUICE, SUNFLOWER LECITHIN, SEA SALT." Date available: 07/14/2017 Date last updated by company: 07/14/2017
