Source: USDA Branded Food Products Database Release December 2017 Software v.3.8.6.4 2017-10-02
Report Run at: December 19, 2017 02:49 EST
"Nutrient data for: 45222479, CHIA POD, UPC: 9340224006596"
Food Group:  Branded Food Products Database
Common Name:

Nutrient,Unit,Data points,Std. Error,"6.0 ONZ = 170.0g",1Value per 100 g,
Proximates
"Energy",kcal,--,--,139,82
"Protein",g,--,--,2.99,1.76
"Total lipid (fat)",g,--,--,8.99,5.29
"Carbohydrate, by difference",g,--,--,14.01,8.24
"Fiber, total dietary",g,--,--,6.0,3.5
"Sugars, total",g,--,--,8.01,4.71
Minerals
"Calcium, Ca",mg,--,--,80,47
"Iron, Fe",mg,--,--,1.09,0.64
"Magnesium, Mg",mg,--,--,60,35
"Phosphorus, P",mg,--,--,100,59
"Potassium, K",mg,--,--,160,94
"Sodium, Na",mg,--,--,10,6
Vitamins
"Vitamin C, total ascorbic acid",mg,--,--,29.9,17.6
"Vitamin A, IU",IU,--,--,0,0
Lipids
"Fatty acids, total saturated",g,--,--,4.998,2.940
"Fatty acids, total trans",g,--,--,0.000,0.000
"Cholesterol",mg,--,--,0,0
Amino Acids
Other
Ingredients
"CHIA SEED GEL (FILTERED WATER, CHIA SEED), STRAWBERRY PUREE, COCONUT MILK, COCONUT BUTTER SUGAR, ARONIA BERRY JUICE CONCENTRATE" Date available: 11/25/2016 Date last updated by company: 11/25/2016
