Source: USDA Branded Food Products Database Release December 2017 Software v.3.8.6.4 2017-10-02
Report Run at: December 19, 2017 03:07 EST
"Nutrient data for: 45325798, CHICKEN BROTH CONCENTRATE, UPC: 024000244714"
Food Group:  Branded Food Products Database
Common Name:

Nutrient,Unit,Data points,Std. Error,"0.5 POUCH = 12.0g",1Value per 100 g,
Proximates
"Energy",kcal,--,--,15,125
"Protein",g,--,--,0.00,0.00
"Total lipid (fat)",g,--,--,1.00,8.33
"Carbohydrate, by difference",g,--,--,2.00,16.67
"Fiber, total dietary",g,--,--,0.0,0.0
"Sugars, total",g,--,--,0.00,0.00
Minerals
"Calcium, Ca",mg,--,--,1,8
"Iron, Fe",mg,--,--,0.00,0.00
"Potassium, K",mg,--,--,11,92
"Sodium, Na",mg,--,--,770,6417
Vitamins
"Vitamin D",IU,--,--,0,0
Lipids
"Fatty acids, total saturated",g,--,--,0.000,0.000
"Fatty acids, total trans",g,--,--,0.000,0.000
"Cholesterol",mg,--,--,0,0
Amino Acids
Other
Ingredients
"CHICKEN BONE BROTH, SALT, MALTODEXTRIN, CHICKEN FAT, CORN SUGAR, NATURAL FLAVORS, XANTHAN GUM, CARROT JUICE CONCENTRATE, ONION JUICE CONCENTRATE, SPICE EXTRACTS (THYME, SAGE, ROSEMARY), TURMERIC." Date available: 10/13/2017 Date last updated by company: 10/13/2017
