Source: USDA Branded Food Products Database Release December 2017 Software v.3.8.6.4 2017-10-02
Report Run at: December 19, 2017 03:35 EST
"Nutrient data for: 45200660, CHICKEN PUFF PASTRY BITE, SWEET AND SMOKY CHIPOTLE FLAVORED CHICKEN AND CHEESE IN A BUTTERY PUFF PASTRY, UPC: 688267157684"
Food Group:  Branded Food Products Database
Common Name:

Nutrient,Unit,Data points,Std. Error,"4.0 PIECES = 76.0g",1Value per 100 g,
Proximates
"Energy",kcal,--,--,230,303
"Protein",g,--,--,8.00,10.53
"Total lipid (fat)",g,--,--,13.00,17.11
"Carbohydrate, by difference",g,--,--,20.00,26.32
"Fiber, total dietary",g,--,--,1.0,1.3
"Sugars, total",g,--,--,8.00,10.53
Minerals
"Calcium, Ca",mg,--,--,40,53
"Iron, Fe",mg,--,--,1.21,1.59
"Sodium, Na",mg,--,--,440,579
Vitamins
"Vitamin C, total ascorbic acid",mg,--,--,1.4,1.8
"Vitamin A, IU",IU,--,--,559,736
Lipids
"Fatty acids, total saturated",g,--,--,8.003,10.530
"Fatty acids, total trans",g,--,--,0.000,0.000
"Cholesterol",mg,--,--,50,66
Amino Acids
Other
Ingredients
"PUFF PASTRY (WHITE WHEAT FLOUR, ENRICHED WHEAT FLOUR [WHEAT FLOUR, NIACIN, REDUCED IRON, THIAMIN MONONITRATE, RIBOFLAVIN, FOLIC ACID], MALTED BARLEY FLOUR, ASCORBIC ACID [VITAMIN C AS DOUGH CONDITIONER], WATER, BUTTER [PASTEURIZED CREAM], SALT), CHICKEN (BONELESS SKINLESS CHICKEN BREAST WITH RIB MEAT, WATER, CANOLA OIL, MODIFIED POTATO STARCH, SALT, SUGAR, LEMON JUICE CONCENTRATE, GRANULATED GARLIC, BLACK PEPPER), CREAM CHEESE (PASTEURIZED CULTURED MILK AND CREAM SALT, STABILIZERS [XANTHAN AND/OR CAROB BEAN AND/OR GUAR GUM]), BROWN SUGAR, GORGONZOLA CHEESE (PASTEURIZED MILK, CHEESE CULTURES, SALT, ENZYMES, POWDERED CELLULOSE [TO PREVENT CAKING], NATAMYCIN), SPRING ONIONS, ADOBO SAUCE (CHIPOTLE PEPPER PUREE [(WATER, CHIPOTLE PEPPERS), WATER, VINEGAR, SALT, SUGAR, ONION POWDER], WATER, MODIFIED FOOD STARCH, TOMATO PASTE, SUGAR, SALT, CORN OIL, VINEGAR, SPICES, ONION PUREE, ROASTED GARLIC PUREE, NATURAL HICKORY SMOKE FLAVOR), EGGS, CILANTRO." Date available: 07/14/2017 Date last updated by company: 07/14/2017
