Source: USDA Branded Food Products Database Release December 2017 Software v.3.8.6.4 2017-10-02
Report Run at: December 19, 2017 03:37 EST
"Nutrient data for: 45193270, CHICKEN SALAD, UPC: 011110111692"
Food Group:  Branded Food Products Database
Common Name:

Nutrient,Unit,Data points,Std. Error,"0.5 cup = 113.0g",1Value per 100 g,
Proximates
"Energy",kcal,--,--,231,204
"Protein",g,--,--,18.00,15.93
"Total lipid (fat)",g,--,--,15.00,13.27
"Carbohydrate, by difference",g,--,--,4.00,3.54
"Fiber, total dietary",g,--,--,0.0,0.0
"Sugars, total",g,--,--,2.00,1.77
Minerals
"Calcium, Ca",mg,--,--,20,18
"Iron, Fe",mg,--,--,0.89,0.79
"Sodium, Na",mg,--,--,540,478
Vitamins
"Vitamin C, total ascorbic acid",mg,--,--,1.5,1.3
"Vitamin A, IU",IU,--,--,124,110
Lipids
"Fatty acids, total saturated",g,--,--,2.994,2.650
"Fatty acids, total trans",g,--,--,0.000,0.000
"Cholesterol",mg,--,--,60,53
Amino Acids
Other
Ingredients
"CHICKEN BREAST MEAT (WITH WATER, SEASONING (SALT, MALTODEXTRIN, NATURAL FLAVORS, ONION POWDER, YEAST EXTRACT GARLIC POWDER, CANOLA OIL, CARRAGEENAN. SILICON DIOXIDE], SODIUM TRIPOLYPHOSPHATE, SALT), DRESSING (MAYONNAISE [SOYBEAN OIL, EGGS AND EGG YOLKS, WATER, VINEGAR, SUGAR, SALT," Date available: 07/14/2017 Date last updated by company: 07/14/2017
