Source: USDA Branded Food Products Database Release December 2017 Software v.3.8.6.4 2017-10-02
Report Run at: December 19, 2017 03:01 EST
"Nutrient data for: 45221659, CHICKEN BREAST IN GARLIC PARMESAN CREAM SAUCE, UPC: 828686012335"
Food Group:  Branded Food Products Database
Common Name:

Nutrient,Unit,Data points,Std. Error,"4.0 ONZ = 112.0g",1Value per 100 g,
Proximates
"Energy",kcal,--,--,150,134
"Protein",g,--,--,10.00,8.93
"Total lipid (fat)",g,--,--,8.00,7.14
"Carbohydrate, by difference",g,--,--,3.00,2.68
"Fiber, total dietary",g,--,--,0.0,0.0
"Sugars, total",g,--,--,1.00,0.89
Minerals
"Calcium, Ca",mg,--,--,40,36
"Iron, Fe",mg,--,--,0.27,0.24
"Sodium, Na",mg,--,--,330,295
Vitamins
"Vitamin C, total ascorbic acid",mg,--,--,1.8,1.6
"Vitamin A, IU",IU,--,--,227,203
Lipids
"Fatty acids, total saturated",g,--,--,3.002,2.680
"Fatty acids, total trans",g,--,--,0.000,0.000
"Cholesterol",mg,--,--,45,40
Amino Acids
Other
Ingredients
"CHICKEN: CHICKEN, WATER, SALT, BLACK PEPPER, ONION, GARLIC, WHITE PEPPER, CARRAGEENAN, GARLIC PARMESAN SAUCE (CREAM [CREAM, CARRAGEENAN], MILK, PARMESAN CHEESE (PASTEURIZED PART SKIM MILK, CHEESE CULTURE, SALT, ENZYMES), UNSALTED BUTTER [PASTEURIZED CREAM, NATURAL FLAVORING]. CONTAINS 2% OR LESS OF WATER, CORN STARCH., CULTURED DEXTROSE, PARSLEY, SPICE.." Date available: 08/29/2017 Date last updated by company: 08/29/2017
