Source: USDA Branded Food Products Database Release December 2017 Software v.3.8.6.4 2017-10-02
Report Run at: December 19, 2017 03:14 EST
"Nutrient data for: 45063247, CHICKEN CORN CHOWDER SOUP, UPC: 688267156083"
Food Group:  Branded Food Products Database
Common Name:

Nutrient,Unit,Data points,Std. Error,"1 cup = 245.0g",1Value per 100 g,
Proximates
"Energy",kcal,--,--,149,61
"Protein",g,--,--,6.00,2.45
"Total lipid (fat)",g,--,--,3.99,1.63
"Carbohydrate, by difference",g,--,--,24.01,9.80
"Fiber, total dietary",g,--,--,2.0,0.8
"Sugars, total",g,--,--,2.01,0.82
Minerals
"Calcium, Ca",mg,--,--,20,8
"Iron, Fe",mg,--,--,1.08,0.44
"Sodium, Na",mg,--,--,691,282
Vitamins
"Vitamin C, total ascorbic acid",mg,--,--,0.0,0.0
"Vitamin A, IU",IU,--,--,750,306
Lipids
"Fatty acids, total saturated",g,--,--,2.009,0.820
"Fatty acids, total trans",g,--,--,0.000,0.000
"Cholesterol",mg,--,--,20,8
Amino Acids
Other
Ingredients
"WATER, CORN, COOKED CHICKEN MEAT (CHICKEN MEAT, WATER, MODIFIED CORNSTARCH, SALT, SODIUM PHOSPHATE), CARROTS, POTATOES, CORN PUREE, CREAM, CELERY, MODIFIED CORNSTARCH, ENRICHED WHEAT FLOUR (WHEAT FLOUR, NIACIN, IRON, THIAMIN MONONITRATE, RIBOFLAVIN, FOLIC ACID), POTATO STARCH, POBLANO PEPPER, SALT, CONCENTRATED CHICKEN BROTH, TITANIUM DIOXIDE (COLOR), SUGAR, ONION POWDER, YEAST EXTRACT, GARLIC POWDER, SPICES, PARSLEY FLAKES, BETA CAROTENE (COLOR)." Date available: 07/14/2017 Date last updated by company: 07/14/2017
