Source: USDA Branded Food Products Database Release December 2017 Software v.3.8.6.4 2017-10-02
Report Run at: December 19, 2017 03:37 EST
"Nutrient data for: 45287089, CHICKEN SALAD ON WHITE, UPC: 722515251097"
Food Group:  Branded Food Products Database
Common Name:

Nutrient,Unit,Data points,Std. Error,"2.0 SLIDERS = 155.0g",1Value per 100 g,
Proximates
"Energy",kcal,--,--,470,303
"Protein",g,--,--,21.00,13.55
"Total lipid (fat)",g,--,--,29.00,18.71
"Carbohydrate, by difference",g,--,--,34.01,21.94
"Fiber, total dietary",g,--,--,0.9,0.6
"Sugars, total",g,--,--,7.01,4.52
Minerals
"Calcium, Ca",mg,--,--,40,26
"Iron, Fe",mg,--,--,2.43,1.57
"Sodium, Na",mg,--,--,539,348
Vitamins
"Vitamin C, total ascorbic acid",mg,--,--,1.1,0.7
"Vitamin A, IU",IU,--,--,451,291
Lipids
"Fatty acids, total saturated",g,--,--,5.998,3.870
"Fatty acids, total trans",g,--,--,0.000,0.000
"Cholesterol",mg,--,--,65,42
Amino Acids
Other
Ingredients
"CHICKEN SALAD (WHITE CHICKEN MEAT, MAYONNAISE (SOYBEAN OIL, EGGS, VINEGAR, WATER, EGG YOLKS, SALT, DEXTROSE, SUGAR, LEMON JUICE, CALCIUM DISODIUM EDTA, NATURAL FLAVORS), CELERY, SALT, WHITE PEPPER), ROLL (ENRICHED FLOUR (WHEAT FLOUR, MALTED BARLEY FLOUR, NIACIN, REDUCED IRON, THIAMINE MONONITRATE, RIBOFLAVIN, FOLIC ACID), WATER, SUGAR, PALM OIL, NONFAT DRY MILK, YEAST, EGGS, CONTAINS LESS THAN 2% OF: SALT, NATURAL WHEAT SOUR, CULTURED WHEAT STARCH AND WHEAT FLOUR, CULTURED WHEAT FLOUR, DOUGH CONDITIONER (WHEAT FLOUR, ENZYMES)) LETTUCE." Date available: 07/14/2017 Date last updated by company: 07/14/2017
