Source: USDA Branded Food Products Database Release December 2017 Software v.3.8.6.4 2017-10-02
Report Run at: December 19, 2017 03:29 EST
"Nutrient data for: 45009980, CHICKEN OF THE SEA, BRISLING SARDINES IN OLIVE OIL, UPC: 048000107046"
Food Group:  Branded Food Products Database
Common Name:

Nutrient,Unit,Data points,Std. Error,"1 CAN DRAINED = 79.0g",1Value per 100 g,
Proximates
"Energy",kcal,--,--,200,253
"Protein",g,--,--,15.00,18.99
"Total lipid (fat)",g,--,--,16.00,20.25
"Carbohydrate, by difference",g,--,--,0.00,0.00
"Fiber, total dietary",g,--,--,0.0,0.0
"Sugars, total",g,--,--,0.00,0.00
Minerals
"Calcium, Ca",mg,--,--,200,253
"Iron, Fe",mg,--,--,1.55,1.96
"Sodium, Na",mg,--,--,170,215
Vitamins
"Vitamin C, total ascorbic acid",mg,--,--,0.0,0.0
"Vitamin A, IU",IU,--,--,0,0
Lipids
"Fatty acids, total saturated",g,--,--,3.997,5.060
"Fatty acids, total trans",g,--,--,0.000,0.000
"Cholesterol",mg,--,--,50,63
Amino Acids
Other
Ingredients
"LIGHTLY SMOKED BRISLING SARDINES, OLIVE OIL, SALT." Date available: 06/24/2017 Date last updated by company: 06/24/2017
