Source: USDA Branded Food Products Database Release December 2017 Software v.3.8.6.4 2017-10-02
Report Run at: December 19, 2017 02:54 EST
"Nutrient data for: 45331543, CHICHARRONES PORK CRACKLINS CURLS WITH CHORIZQ SEASONING, UPC: 073497005896"
Food Group:  Branded Food Products Database
Common Name:

Nutrient,Unit,Data points,Std. Error,"0.5 ONZ = 14.0g",1Value per 100 g,
Proximates
"Energy",kcal,--,--,80,571
"Protein",g,--,--,7.00,50.00
"Total lipid (fat)",g,--,--,5.00,35.71
"Carbohydrate, by difference",g,--,--,1.00,7.14
Minerals
"Sodium, Na",mg,--,--,370,2643
Vitamins
Lipids
"Fatty acids, total saturated",g,--,--,2.001,14.290
"Fatty acids, total trans",g,--,--,0.000,0.000
"Cholesterol",mg,--,--,15,107
Amino Acids
Other
Ingredients
"FRIED OUT PORK FAT WITH ATTACHED SKIN, SALT, MALTODEXTRIN, SUGARS, SPICES, DEHYDRATED GARLIC, MONOSODIUM GLUTAMATE, PAPRIKA (COLOR), GARLIC POWDER, CITRIC ACID, LACTIC ACID, PAPRIKA EXTRACT (COLOR), RED 40 LAKE." Date available: 10/13/2017 Date last updated by company: 10/13/2017
