Source: USDA Branded Food Products Database Release December 2017 Software v.3.8.6.4 2017-10-02
Report Run at: December 19, 2017 03:27 EST
"Nutrient data for: 45003656, CHICKEN NOODLE SOUP, UPC: 028800274322"
Food Group:  Branded Food Products Database
Common Name:

Nutrient,Unit,Data points,Std. Error,"1 cup = 240.0g",1Value per 100 g,
Proximates
"Energy",kcal,--,--,130,54
"Protein",g,--,--,9.00,3.75
"Total lipid (fat)",g,--,--,4.51,1.88
"Carbohydrate, by difference",g,--,--,13.99,5.83
"Fiber, total dietary",g,--,--,1.0,0.4
"Sugars, total",g,--,--,1.01,0.42
Minerals
"Calcium, Ca",mg,--,--,19,8
"Iron, Fe",mg,--,--,1.10,0.46
"Sodium, Na",mg,--,--,941,392
Vitamins
"Vitamin C, total ascorbic acid",mg,--,--,0.0,0.0
"Vitamin A, IU",IU,--,--,2551,1063
Lipids
"Fatty acids, total saturated",g,--,--,1.488,0.620
"Fatty acids, total trans",g,--,--,0.000,0.000
"Cholesterol",mg,--,--,36,15
Amino Acids
Other
Ingredients
"CHICKEN BROTH, ENRICHED EGG NOODLES (DURUM FLOUR, EGGS, EGG WHITE, NIACIN, FERROUS SULFATE, THIAMIN MONONITRATE, RIBOFLAVIN AND FOLIC ACID), CHICKEN, POTATO STARCH, CHICKEN FAT, SALT, SUGAR, MONOSODIUM GLUTAMATE, DISODIUM INOSINATE, DISODIUM GUANYLATE." Date available: 06/25/2017 Date last updated by company: 06/25/2017
