Source: USDA Branded Food Products Database Release December 2017 Software v.3.8.6.4 2017-10-02
Report Run at: December 19, 2017 02:58 EST
"Nutrient data for: 45275129, CHICKEN BLACK BEAN, UPC: 080618476084"
Food Group:  Branded Food Products Database
Common Name:

Nutrient,Unit,Data points,Std. Error,"1 BOWL = 269.0g",1Value per 100 g,
Proximates
"Energy",kcal,--,--,371,138
"Protein",g,--,--,18.99,7.06
"Total lipid (fat)",g,--,--,12.00,4.46
"Carbohydrate, by difference",g,--,--,44.01,16.36
"Fiber, total dietary",g,--,--,4.0,1.5
"Sugars, total",g,--,--,1.99,0.74
Minerals
"Calcium, Ca",mg,--,--,199,74
"Iron, Fe",mg,--,--,1.32,0.49
"Sodium, Na",mg,--,--,791,294
Vitamins
"Vitamin C, total ascorbic acid",mg,--,--,6.5,2.4
"Vitamin A, IU",IU,--,--,907,337
Lipids
"Fatty acids, total saturated",g,--,--,5.003,1.860
"Fatty acids, total trans",g,--,--,0.000,0.000
"Cholesterol",mg,--,--,46,17
Amino Acids
Other
Ingredients
"RICE (COOKED RICE [WATER, ORGANIC WHITE BASMATI RICE], ORGANIC CILANTRO, ORGANIC CANOLA OIL, LIME JUICE [WATER, LIME JUICE CONCENTRATE AND LIME OIL], SEA SALT), BEANS (ORGANIC BLACK BEANS [ORGANIC BLACK BEANS, WATER, SEA SALT, KOMBU SEAWEED], GUAJILLO PEPPER PUREE [WATER, GUAJILLO PEPPER, CITRIC ACID], ORGANIC ONION, ORGANIC CELERY, WATER, ORGANIC CHICKEN BASE [ORGANIC CHICKEN MEAT AND JUICES, SALT, ORGANIC CANE SUGAR, ORGANIC MALTODEXTRIN, NATURAL FLAVOR, ORGANIC DRIED ONION, ORGANIC POTATO STARCH, ORGANIC DRIED GARLIC, ORGANIC TURMERIC, ORGANIC SPICE EXTRACTIVES], CORN STARCH, ORGANIC CANOLA OIL, ORGANIC GARLIC, ORGANIC CILANTRO, CHIPOTLE ADOBO PUREE [WATER, ONION, DRIED CHIPOTLE PEPPER, TOMATO PASTE, CANOLA OIL, SUGAR, VINEGAR, SALT, GARLIC PUREE, NATURAL SMOKE FLAVORING, SPICES], ORGANIC SPICES), TOMATO SAUCE (ORGANIC TOMATOES [ORGANIC TOMATOES, ORGANIC TOMATO PUREE, SEA SALT, NATURALLY DERIVED CITRIC ACID], WATER, ORGANIC ONION, ORGANIC GREEN BELL PEPPER, ORGANIC GREEN ONIONS, CORN STARCH, WHITE VINEGAR, SEA SALT, ORGANIC GARLIC, ORGANIC CILANTRO, LEMON JUICE CONCENTRATE, CHIPOTLE ADOBO PUREE [WATER, ONION, DRIED CHIPOTLE PEPPER, TOMATO PASTE, CANOLA OIL, SUGAR, VINEGAR, SALT, GARLIC PUREE, NATURAL SMOKE FLAVORING, SPICES], ORGANIC SPICES, ORGANIC CAYENNE PEPPER), COOKED SEASONED CHICKEN (CHICKEN BREAST MEAT WITH RIB MEAT, WATER, LESS THAN 2% POTATO STARCH, SALT, NATURAL FLAVORS, SPICE, LIME OIL), ORGANIC WHITE CHEDDAR CHEESE (CULTURED PASTEURIZED ORGANIC MILK, SALT, ENZYMES), FRESH CRUMBLING CHEESE (CULTURED MILK, SALT, ENZYMES, CULTURES)." Date available: 07/14/2017 Date last updated by company: 07/14/2017
