Source: USDA Branded Food Products Database Release December 2017 Software v.3.8.6.4 2017-10-02
Report Run at: December 19, 2017 03:24 EST
"Nutrient data for: 45286125, CHICKEN MARGHERITA, UPC: 014500017048"
Food Group:  Branded Food Products Database
Common Name:

Nutrient,Unit,Data points,Std. Error,"1 CUP COOKED | FROZEN, = 238.0g",1Value per 100 g,
Proximates
"Energy",kcal,--,--,290,122
"Protein",g,--,--,20.99,8.82
"Total lipid (fat)",g,--,--,11.00,4.62
"Carbohydrate, by difference",g,--,--,24.99,10.50
"Fiber, total dietary",g,--,--,1.9,0.8
"Sugars, total",g,--,--,5.00,2.10
Minerals
"Calcium, Ca",mg,--,--,250,105
"Iron, Fe",mg,--,--,1.48,0.62
"Sodium, Na",mg,--,--,709,298
Vitamins
"Vitamin C, total ascorbic acid",mg,--,--,12.4,5.2
"Vitamin A, IU",IU,--,--,614,258
Lipids
"Fatty acids, total saturated",g,--,--,4.498,1.890
"Fatty acids, total trans",g,--,--,1.000,0.420
"Cholesterol",mg,--,--,45,19
Amino Acids
Other
Ingredients
"VEGETABLES (ZUCCHINI, DICED TOMATOES), COOKED PENNE PASTA (WATER, ENRICHED DURUM WHEAT SEMOLINA [SEMOLINA, NIACIN, FERROUS SULFATE, THIAMINE MONONITRATE, RIBOFLAVIN, FOLIC ACID]), SAUCE (WATER, TOMATO PASTE, OLIVE OIL, ONIONS, GARLIC PUREE [GARLIC, HIGH FRUCTOSE CORN SYRUP], CHICKEN BASE [CHICKEN MEAT INCLUDING CHICKEN JUICES, MALTODEXTRIN, CHICKEN FAT, HYDROLYZED CORN PROTEIN, SALT, SUGAR, DRIED WHEY, ONION POWDER, TURMERIC, SPICE EXTRACTIVES], SPICES, SALT, SUGAR, CORN STARCH), COOKED CHICKEN BREAST STRIPS WITH GARLIC (CHICKEN BREAST, WATER, SEASONING [SALT, MALTODEXTRIN, GARLIC POWDER, DEXTROSE, HYDROLYZED SOY PROTEIN, NATURAL FLAVOR (MILK), PARSLEY, SPICES, OIL OF GARLIC], SODIUM PHOSPHATE), LOW MOISTURE PART SKIM MOZZARELLA CHEESE (PASTEURIZED MILK, CHEESE CULTURE, SALT, ENZYMES)." Date available: 07/14/2017 Date last updated by company: 07/14/2017
