Source: USDA Branded Food Products Database Release December 2017 Software v.3.8.6.4 2017-10-02
Report Run at: December 19, 2017 03:37 EST
"Nutrient data for: 45277567, CHICKEN SALAD ON WHITE BREAD SANDWICH, UPC: 035826077844"
Food Group:  Branded Food Products Database
Common Name:

Nutrient,Unit,Data points,Std. Error,"1 SANDWICH = 142.0g",1Value per 100 g,
Proximates
"Energy",kcal,--,--,349,246
"Protein",g,--,--,17.00,11.97
"Total lipid (fat)",g,--,--,15.00,10.56
"Carbohydrate, by difference",g,--,--,42.00,29.58
"Fiber, total dietary",g,--,--,2.0,1.4
"Sugars, total",g,--,--,10.00,7.04
Minerals
"Calcium, Ca",mg,--,--,151,106
"Iron, Fe",mg,--,--,2.66,1.87
"Sodium, Na",mg,--,--,720,507
Vitamins
"Vitamin C, total ascorbic acid",mg,--,--,0.0,0.0
"Vitamin A, IU",IU,--,--,98,69
Lipids
"Fatty acids, total saturated",g,--,--,2.002,1.410
"Fatty acids, total trans",g,--,--,0.000,0.000
"Cholesterol",mg,--,--,36,25
Amino Acids
Other
Ingredients
"WHITE BREAD [UNBLEACHED WHEAT FLOUR, WATER, HIGH FRUCTOSE CORN SYRUP, YEAST, LIQUID SOY OIL, SALT, WHEY SOLIDS, YEAST NUTRIENTS (MONOCALCIUM PHOSPHATE, CALCIUM SULFATE, AMMONIUM SULFATE, POTASSIUM IODATE), MONOGLYCERIDES, DOUGH CONDITIONERS (SODIUM STEAROYL LACTYLATE, CALCIUM PEROXIDE), MALTED BARLEY FLOUR, CALCIUM PROPIONATE (TO RETARD SPOILAGE), FERROUS SULFATE (IRON), NIACIN, THIAMINE HYDROCHLORIDE (VITAMIN B1), RIBOFLAVIN (VITAMIN B2), FOLIC ACID], CHICKEN SALAD [COOKED WHITE MEAT CHICKEN, SALAD DRESSING (SOYBEAN OIL, WATER, VINEGAR, SUGAR, EGG YOLKS, MODIFIED FOOD STARCH, SALT, MUSTARD FLOUR, SPICE, PAPRIKA, NATURAL FLAVOR, DRIED GARLIC), CELERY, PICKLE RELISH (PICKLES, HIGH FRUCTOSE CORN SYRUP, WATER, VINEGAR, SALT, RED PEPPERS, CALCIUM CHLORIDE, SODIUM BENZOATE (PRESERVATIVE), XANTHAN GUM, SPICE, NATURAL FLAVORING, ALUM, OLEORESIN TURMERIC, POLYSORBATE 80), BREAD CRUMBS (BLEACHED WHEAT FLOUR, SUGAR, YEAST, SALT), SUGAR, CHICKEN FLAVOR (HYDROLYZED SOY AND CORN PROTEIN, YEAST EXTRACT, SALT, PARTIALLY HYDROGENATED COTTONSEED AND SOY OIL, MALTODEXTRIN, DISODIUM INOSINATE, DISODIUM GUANYLATE), VINEGAR, GLUCONO DELTA LACTONE, GUM ARABIC, WHEY]." Date available: 07/14/2017 Date last updated by company: 07/14/2017
