Source: USDA Branded Food Products Database Release December 2017 Software v.3.8.6.4 2017-10-02
Report Run at: December 19, 2017 03:47 EST
"Nutrient data for: 45193288, CHICKEN TORTILLA SOUP, UPC: 011110658593"
Food Group:  Branded Food Products Database
Common Name:

Nutrient,Unit,Data points,Std. Error,"1 cup = 245.0g",1Value per 100 g,
Proximates
"Energy",kcal,--,--,120,49
"Protein",g,--,--,8.01,3.27
"Total lipid (fat)",g,--,--,1.49,0.61
"Carbohydrate, by difference",g,--,--,18.01,7.35
"Fiber, total dietary",g,--,--,2.9,1.2
"Sugars, total",g,--,--,7.01,2.86
Minerals
"Calcium, Ca",mg,--,--,39,16
"Iron, Fe",mg,--,--,1.08,0.44
"Sodium, Na",mg,--,--,730,298
Vitamins
"Vitamin C, total ascorbic acid",mg,--,--,0.0,0.0
"Vitamin A, IU",IU,--,--,750,306
Lipids
"Fatty acids, total saturated",g,--,--,0.000,0.000
"Fatty acids, total trans",g,--,--,0.000,0.000
"Cholesterol",mg,--,--,10,4
Amino Acids
Other
Ingredients
"CHICKEN STOCK, CHICKEN MEAT, TOMATO PUREE (WATER, TOMATO PASTE), TORTILLA CHIPS (GROUND WHITE CORN TREATED WITH LIME, WATER, CELLULOSE), COOKED BLACK BEANS, CARROTS, ONIONS, PEPPERS, CONTAINS LESS THAN 2% OF:CELERY SUGAR, ROASTED GREEN CHILES, COOKED WITH HOMINY, MODIFIED CONCENTRATE, CILANTRO, SOY PROTEIN CONCENTRATE, DEHYDRATED GARLIC, DEHYDRATED ONIONS, MODIFIED RICE STARCH, SODIUM PHOSPHATE, CHICKEN INCLUDING CHICKEN JUICES, FLAVORING HYDROLYZED SOY PROTEIN, CITRIC ACID, CHICKEN FAT, PAPRIKA, DEHYDRATED CHICKEN, TURMERIC [FOR COLOR], WHEY CARAMEL COLOR, TURMERIC, CANOLA OIL SESAME OIL, NISIN PREPARATION, SODIUM INOSINATE, SUNFLOWER OIL, NATURAL SMOKE FLAVORING." Date available: 07/14/2017 Date last updated by company: 07/14/2017
