Source: USDA Branded Food Products Database Release December 2017 Software v.3.8.6.4 2017-10-02
Report Run at: December 19, 2017 03:09 EST
"Nutrient data for: 45265598, CHICKEN BROTH, UPC: 035826095435"
Food Group:  Branded Food Products Database
Common Name:

Nutrient,Unit,Data points,Std. Error,"1 cup = 240.0g",1Value per 100 g,
Proximates
"Energy",kcal,--,--,10,4
"Protein",g,--,--,1.99,0.83
"Total lipid (fat)",g,--,--,0.00,0.00
"Carbohydrate, by difference",g,--,--,1.01,0.42
"Fiber, total dietary",g,--,--,0.0,0.0
"Sugars, total",g,--,--,1.01,0.42
Minerals
"Calcium, Ca",mg,--,--,0,0
"Iron, Fe",mg,--,--,0.00,0.00
"Sodium, Na",mg,--,--,571,238
Vitamins
"Vitamin C, total ascorbic acid",mg,--,--,0.0,0.0
"Vitamin A, IU",IU,--,--,199,83
Lipids
"Fatty acids, total saturated",g,--,--,0.000,0.000
"Fatty acids, total trans",g,--,--,0.000,0.000
"Cholesterol",mg,--,--,0,0
Amino Acids
Other
Ingredients
"CHICKEN STOCK, CONTAINS 1.0% OR LESS OF SALT, DEXTROSE, YEAST EXTRACT, NATURAL FLAVOR, CARROT JUICE CONCENTRATE, CELERY JUICE CONCENTRATE, ONION JUICE CONCENTRATE." Date available: 07/14/2017 Date last updated by company: 07/14/2017
