Source: USDA Branded Food Products Database Release December 2017 Software v.3.8.6.4 2017-10-02
Report Run at: December 19, 2017 03:18 EST
"Nutrient data for: 45331043, CHICKEN FRANCESE WITH BROCCOLI RABE AND PASTA, UPC: 018894904946"
Food Group:  Branded Food Products Database
Common Name:

Nutrient,Unit,Data points,Std. Error,"12.0 ONZ = 340.0g",1Value per 100 g,
Proximates
"Energy",kcal,--,--,449,132
"Protein",g,--,--,36.99,10.88
"Total lipid (fat)",g,--,--,16.01,4.71
"Carbohydrate, by difference",g,--,--,41.00,12.06
"Fiber, total dietary",g,--,--,4.1,1.2
"Sugars, total",g,--,--,2.01,0.59
Minerals
"Calcium, Ca",mg,--,--,99,29
"Iron, Fe",mg,--,--,1.50,0.44
"Sodium, Na",mg,--,--,1360,400
Vitamins
"Vitamin C, total ascorbic acid",mg,--,--,7.5,2.2
"Vitamin A, IU",IU,--,--,721,212
Lipids
"Fatty acids, total saturated",g,--,--,4.012,1.180
"Fatty acids, total trans",g,--,--,0.000,0.000
"Cholesterol",mg,--,--,88,26
Amino Acids
Other
Ingredients
"BONELESS, SKINLESS CHICKEN BREAST (BONELESS, SKINLESS CHICKEN BREAST), WATER, BROCCOLI RAAB, FUSCILLI PASTA (SEMOLINA [WHEAT], DURUM FLOUR, NIACIN, IRON [FERROUS SULFATE], THIAMINE MONONITRATE, RIBOFLAVIN, FOLIC ACID), CHICKEN STOCK (WATER, CHICKEN, BASE (COOKED CHICKEN MEAT, SALT, CHICKEN FAT, MALTODEXTRIN, EVAPORATED CANE JUICE, YEAST EXTRACT, DRIED WHEY, NATURAL FLAVORS, CORN OIL, SOYBEAN OIL, EXTRACTIVES OF TURMERIC AND ANNATTO, CARROTS JUICE POWDER)), BLENDED OIL (CANOLA OIL, EXTRA VIRGIN OLIVE OIL), FLOUR (UNBLEACHED WHEAT FLOUR, MALTED BARLEY FLOUR, NIACIN, REDUCED IRON, THIAMIN MONONITRATE, RIBOFLAVIN, FOLIC ACID), GARLIC, BUTTER (PASTEURIZED CREAM, SALT), LEMON JUICE, KOSHER SALT, CANOLA OIL, ISOLATED SOY PROTEIN, SODIUM PHOSPHATES, BLACK PEPPER, WHITE PEPPER." Date available: 10/13/2017 Date last updated by company: 10/13/2017
