Source: USDA Branded Food Products Database Release December 2017 Software v.3.8.6.4 2017-10-02
Report Run at: December 19, 2017 03:16 EST
"Nutrient data for: 45203300, CHICKEN EGGROLLS, UPC: 858883001177"
Food Group:  Branded Food Products Database
Common Name:

Nutrient,Unit,Data points,Std. Error,"1 EGG ROLL = 85.0g",1Value per 100 g,
Proximates
"Energy",kcal,--,--,160,188
"Protein",g,--,--,8.00,9.41
"Total lipid (fat)",g,--,--,4.50,5.29
"Carbohydrate, by difference",g,--,--,22.00,25.88
"Fiber, total dietary",g,--,--,3.0,3.5
"Sugars, total",g,--,--,2.00,2.35
Minerals
"Calcium, Ca",mg,--,--,20,24
"Iron, Fe",mg,--,--,0.72,0.85
"Sodium, Na",mg,--,--,290,341
Vitamins
"Vitamin C, total ascorbic acid",mg,--,--,2.4,2.8
"Vitamin A, IU",IU,--,--,300,353
Lipids
"Fatty acids, total saturated",g,--,--,1.003,1.180
"Fatty acids, total trans",g,--,--,0.000,0.000
"Cholesterol",mg,--,--,30,35
Amino Acids
Other
Ingredients
"FILLING: CHICKEN, CABBAGE, CARROT, YELLOW ONION, CELERY, TEXTURED VEGETABLE PROTEIN (SOY FLOUR), SUGAR, SALT, FISH SAUCE (ANCHOVY EXTRACT, SALT, SUGAR, WATER), GARLIC POWDER, BLACK PEPPER. CRUST: WHEAT FLOUR (NIACIN, REDUCED IRON, THIAMINE MONONITRATE, RIBOFLAVIN, FOLIC ACID, MALTED BARLEY FLOUR, POTASSIUM BROMATE), WATER, EGG, SALT, CORN STARCH." Date available: 07/14/2017 Date last updated by company: 07/14/2017
