Source: USDA Branded Food Products Database Release December 2017 Software v.3.8.6.4 2017-10-02
Report Run at: December 19, 2017 03:50 EST
"Nutrient data for: 45197498, CHICKEN WINGS, UPC: 051933052772"
Food Group:  Branded Food Products Database
Common Name:

Nutrient,Unit,Data points,Std. Error,"3.0 ONZ = 84.0g",1Value per 100 g,
Proximates
"Energy",kcal,--,--,150,179
"Protein",g,--,--,12.00,14.29
"Total lipid (fat)",g,--,--,10.00,11.90
"Carbohydrate, by difference",g,--,--,2.00,2.38
"Fiber, total dietary",g,--,--,0.0,0.0
"Sugars, total",g,--,--,0.00,0.00
Minerals
"Calcium, Ca",mg,--,--,0,0
"Iron, Fe",mg,--,--,0.73,0.87
"Sodium, Na",mg,--,--,800,952
Vitamins
"Vitamin C, total ascorbic acid",mg,--,--,2.4,2.9
"Vitamin A, IU",IU,--,--,202,241
Lipids
"Fatty acids, total saturated",g,--,--,2.503,2.980
"Fatty acids, total trans",g,--,--,0.000,0.000
"Cholesterol",mg,--,--,45,54
Amino Acids
Other
Ingredients
"CHICKEN WING SECTIONS, WATER, HOT SAUCE (CAYENNE PEPPERS, DISTILLED VINEGAR, SALT), WHEAT FLOUR. CONTAINS 2% OR LESS OF: SOYBEAN OIL, MODIFIED FOOD STARCH, SALT, CHILI PEPPER, SODIUM PHOSPHATES, DEHYDRATED GARLIC, XANTHAN GUM, GUAR GUM, GARLIC EXTRACT, GARLIC OIL. BLANCHED IN VEGETABLE OIL." Date available: 07/14/2017 Date last updated by company: 07/14/2017
