Source: USDA Branded Food Products Database Release December 2017 Software v.3.8.6.4 2017-10-02
Report Run at: December 19, 2017 03:45 EST
"Nutrient data for: 45325524, CHICKEN TIKKA MASALA SAUCE, UPC: 021130104345"
Food Group:  Branded Food Products Database
Common Name:

Nutrient,Unit,Data points,Std. Error,"1 TRAY = 255.0g",1Value per 100 g,
Proximates
"Energy",kcal,--,--,240,94
"Protein",g,--,--,17.01,6.67
"Total lipid (fat)",g,--,--,5.00,1.96
"Carbohydrate, by difference",g,--,--,33.00,12.94
"Fiber, total dietary",g,--,--,4.1,1.6
"Sugars, total",g,--,--,4.00,1.57
Minerals
"Calcium, Ca",mg,--,--,61,24
"Iron, Fe",mg,--,--,1.38,0.54
"Sodium, Na",mg,--,--,589,231
Vitamins
"Vitamin C, total ascorbic acid",mg,--,--,9.2,3.6
"Vitamin A, IU",IU,--,--,1148,450
Lipids
"Fatty acids, total saturated",g,--,--,1.989,0.780
"Fatty acids, total trans",g,--,--,0.000,0.000
"Cholesterol",mg,--,--,46,18
Amino Acids
Other
Ingredients
"RICE BLEND (COOKED BASMATI RICE, COOKED WHITE RICE), MASALA SAUCE (TOMATOES IN PUREE [TOMATOES, TOMATO PUREE, CITRIC ACID], WATER, PLAIN NONFAT YOGURT [CULTURED PASTEURIZED NONFAT MILK, FOOD STARCH-MODIFIED, GELATIN, CULTURES], CREAM [CREAM, CARRAGEENAN], UNSALTED BUTTER [CREAM, NATURAL FLAVORS], CHICKEN BASE [CHICKEN MEAT INCLUDING CHICKEN JUICES, SALT, CHICKEN FAT, SUGAR, MALTODEXTRIN, HYDROLYZED CORN GLUTEN, DRIED WHEY, NATURAL FLAVORS, YEAST EXTRACT, TURMERIC {COLOR}], SPICES, GARLIC [GARLIC, CITRIC ACID], GARLIC POWDER, ONION POWDER, SOYBEAN OIL, LOW SODIUM SEA SALT [SEA SALT, POTASSIUM CHLORIDE, MAGNESIUM SALTS], MODIFIED CORN STARCH, TURMERIC [COLOR], SALT, PAPRIKA [ETHOXYQUIN TO PRESERVE COLOR]), COOKED CHICKEN (CHICKEN BREAST MEAT WITH RIB MEAT, WATER, FOOD STARCH, ISOLATED SOY PROTEIN, SALT, SODIUM PHOSPHATES), GREEN BEANS, CARROTS, SEASONED BUTTER SAUCE (WATER, BUTTER [PASTEURIZED CREAM, SALT], MODIFIED CORN STARCH, CHICKEN BROTH BASE [SALT, SUGAR, DRIED CHICKEN BROTH, MALTODEXTRIN, CHICKEN FAT, TORULA YEAST EXTRACT, ONION POWDER, NATURAL FLAVORING, CANOLA OIL], SALT, SPICES, XANTHAN GUM)." Date available: 10/13/2017 Date last updated by company: 10/13/2017
