Source: USDA Branded Food Products Database Release December 2017 Software v.3.8.6.4 2017-10-02
Report Run at: December 19, 2017 03:11 EST
"Nutrient data for: 45274594, CHICKEN CAESAR SALAD, UPC: 085239230831"
Food Group:  Branded Food Products Database
Common Name:

Nutrient,Unit,Data points,Std. Error,"1 SALAD = 177.0g",1Value per 100 g,
Proximates
"Energy",kcal,--,--,230,130
"Protein",g,--,--,20.99,11.86
"Total lipid (fat)",g,--,--,14.00,7.91
"Carbohydrate, by difference",g,--,--,6.00,3.39
"Fiber, total dietary",g,--,--,1.9,1.1
"Sugars, total",g,--,--,0.99,0.56
Minerals
"Calcium, Ca",mg,--,--,150,85
"Iron, Fe",mg,--,--,1.13,0.64
"Sodium, Na",mg,--,--,740,418
Vitamins
"Vitamin C, total ascorbic acid",mg,--,--,2.8,1.6
"Vitamin A, IU",IU,--,--,5142,2905
Lipids
"Fatty acids, total saturated",g,--,--,4.496,2.540
"Fatty acids, total trans",g,--,--,0.000,0.000
"Cholesterol",mg,--,--,60,34
Amino Acids
Other
Ingredients
"ROMAINE LETTUCE, SEASONED CHICKEN BREAST WITH RIB MEAT (CHICKEN BREAST WITH RIB MEAT, WATER, LESS THAN 2% SOY PROTEIN CONCENTRATE, SODIUM LACTATE, SALT, MODIFIED FOOD STARCH, CARRAGEENAN, SODIUM PHOSPHATE), CAESAR DRESSING (WATER, CANOLA OIL, GARLIC, DIJON MUSTARD [WATER, MUSTARD SEED, DISTILLED VINEGAR, SALT, WHITE WINE, CITRIC ACID, TURMERIC {COLOR}, TARTARIC ACID, SPICES], PARMESAN CHEESE [MILK, CULTURE, SALT, ENZYMES], EGG YOLK, DISTILLED VINEGAR, DRIED GARLIC, SALT, PEPPER SAUCE [CAYENNE PEPPERS, VINEGAR, SALT, GARLIC], LEMON JUICE CONCENTRATE, SUGAR, MODIFIED CORN STARCH, XANTHAN GUM, CARRAGEENAN GUM, MUSTARD FLOUR, SPICE, ANCHOVIES, NATURAL FLAVOR), PARMESAN CHEESE (PASTEURIZED MILK, CHEESE CULTURE, SALT, ENZYMES)." Date available: 07/14/2017 Date last updated by company: 07/14/2017
