Source: USDA Branded Food Products Database Release December 2017 Software v.3.8.6.4 2017-10-02
Report Run at: December 19, 2017 03:06 EST
"Nutrient data for: 45207856, CHICKEN BREAST WITH RIB MEAT IN WATER, UPC: 041303046562"
Food Group:  Branded Food Products Database
Common Name:

Nutrient,Unit,Data points,Std. Error,"2.0 ONZ = 56.0g",1Value per 100 g,
Proximates
"Energy",kcal,--,--,45,80
"Protein",g,--,--,9.00,16.07
"Total lipid (fat)",g,--,--,1.00,1.79
"Carbohydrate, by difference",g,--,--,0.00,0.00
"Fiber, total dietary",g,--,--,0.0,0.0
"Sugars, total",g,--,--,0.00,0.00
Minerals
"Calcium, Ca",mg,--,--,0,0
"Iron, Fe",mg,--,--,0.00,0.00
"Sodium, Na",mg,--,--,330,589
Vitamins
"Vitamin C, total ascorbic acid",mg,--,--,0.0,0.0
"Vitamin A, IU",IU,--,--,0,0
Lipids
"Fatty acids, total saturated",g,--,--,0.000,0.000
"Fatty acids, total trans",g,--,--,0.000,0.000
"Cholesterol",mg,--,--,30,54
Amino Acids
Other
Ingredients
"CHICKEN BREAST MEAT WITH RIB MEAT, WATER, CONTAINS 2% OR LESS OF SEA SALT, MODIFIED FOOD STARCH, SODIUM PHOSPHATES, NATURAL APPLEWOOD SMOKE FLAVOR (CONTAINS MALTODEXTRIN), CHICKEN FLAVOR (SALT, CHICKEN BROTH, NATURAL FLAVORS), FLAVORING." Date available: 07/14/2017 Date last updated by company: 07/14/2017
