Source: USDA Branded Food Products Database Release December 2017 Software v.3.8.6.4 2017-10-02
Report Run at: December 19, 2017 03:27 EST
"Nutrient data for: 45272864, CHICKEN NOODLE SOUP, UPC: 667978749388"
Food Group:  Branded Food Products Database
Common Name:

Nutrient,Unit,Data points,Std. Error,"1 cup = 245.0g",1Value per 100 g,
Proximates
"Energy",kcal,--,--,100,41
"Protein",g,--,--,10.00,4.08
"Total lipid (fat)",g,--,--,2.01,0.82
"Carbohydrate, by difference",g,--,--,10.00,4.08
"Fiber, total dietary",g,--,--,1.0,0.4
"Sugars, total",g,--,--,2.01,0.82
Minerals
"Calcium, Ca",mg,--,--,20,8
"Iron, Fe",mg,--,--,0.37,0.15
"Sodium, Na",mg,--,--,730,298
Vitamins
"Vitamin C, total ascorbic acid",mg,--,--,0.0,0.0
"Vitamin A, IU",IU,--,--,1000,408
Lipids
"Fatty acids, total saturated",g,--,--,0.000,0.000
"Fatty acids, total trans",g,--,--,0.000,0.000
"Cholesterol",mg,--,--,24,10
Amino Acids
Other
Ingredients
"CHICKEN STOCK, MAFALDA NOODLES (SEMOLINA, DURUM FLOUR, EGGS, EGG WHITES), CHICKEN MEAT, CELERY, CARROTS, ONIONS, SEA SALT, CHICKEN FAT, SPICES." Date available: 07/14/2017 Date last updated by company: 07/14/2017
