Source: USDA Branded Food Products Database Release December 2017 Software v.3.8.6.4 2017-10-02
Report Run at: December 19, 2017 03:31 EST
"Nutrient data for: 45085063, CHICKEN PAD THAI WITH RICE NOODLES, UPC: 857063002065"
Food Group:  Branded Food Products Database
Common Name:

Nutrient,Unit,Data points,Std. Error,"10.0 ONZ = 283.0g",1Value per 100 g,
Proximates
"Energy",kcal,--,--,450,159
"Protein",g,--,--,18.00,6.36
"Total lipid (fat)",g,--,--,9.99,3.53
"Carbohydrate, by difference",g,--,--,69.99,24.73
"Fiber, total dietary",g,--,--,3.1,1.1
"Sugars, total",g,--,--,18.99,6.71
Minerals
"Calcium, Ca",mg,--,--,59,21
"Iron, Fe",mg,--,--,2.49,0.88
"Sodium, Na",mg,--,--,509,180
Vitamins
"Vitamin C, total ascorbic acid",mg,--,--,3.4,1.2
"Vitamin A, IU",IU,--,--,860,304
Lipids
"Fatty acids, total saturated",g,--,--,1.500,0.530
"Fatty acids, total trans",g,--,--,0.000,0.000
"Cholesterol",mg,--,--,25,9
Amino Acids
Other
Ingredients
"RICE NOODLES: WATER, NOODLES (RICE, WATER). SAUCE: WATER, RAW CANE SUGAR, TOMATO PASTE, PEANUT BUTTER (PEANUTS), GLUTEN FREE REDUCED SODIUM TAMARI (WATER, SOYBEANS, SALT), VINEGAR, VEGETABLE MIREPOIX (EXPELLER PRESSED CANOLA OIL, CARROTS, ONIONS, CELERY), CAYENNE PEPPER, XANTHAN GUM. CHICKEN: BONELESS WHITE MEAT CHICKEN, WATER, RICE STARCH, EXPELLER PRESSED CANOLA OIL, LEMON JUICE CONCENTRATE, VINEGAR, GARLIC PUREE (GARLIC, WATER), GINGER. GARNISH: CARROTS, SCALLIONS, PEANUTS." Date available: 07/14/2017 Date last updated by company: 07/14/2017
