Source: USDA Branded Food Products Database Release December 2017 Software v.3.8.6.4 2017-10-02
Report Run at: December 19, 2017 03:15 EST
"Nutrient data for: 45004957, CHICKEN CROQUETTES, UPC: 041331090704"
Food Group:  Branded Food Products Database
Common Name:

Nutrient,Unit,Data points,Std. Error,"3.0 CROQUETTES = 102.0g",1Value per 100 g,
Proximates
"Energy",kcal,--,--,230,225
"Protein",g,--,--,8.00,7.84
"Total lipid (fat)",g,--,--,11.00,10.78
"Carbohydrate, by difference",g,--,--,20.00,19.61
"Fiber, total dietary",g,--,--,1.0,1.0
"Sugars, total",g,--,--,0.00,0.00
Minerals
"Calcium, Ca",mg,--,--,20,20
"Iron, Fe",mg,--,--,0.90,0.88
"Sodium, Na",mg,--,--,750,735
Vitamins
"Vitamin C, total ascorbic acid",mg,--,--,0.0,0.0
"Vitamin A, IU",IU,--,--,0,0
Lipids
"Fatty acids, total saturated",g,--,--,6.997,6.860
"Fatty acids, total trans",g,--,--,0.000,0.000
"Cholesterol",mg,--,--,26,25
Amino Acids
Other
Ingredients
"WATER, BONELESS CHICKEN THIGH, BREAD CRUMBS (ENRICHED WHEAT FLOUR [FLOUR, MALTED BARLEY, NIACIN, FERROUS SULFATE, THIAMIN MONONITRATE, RIBOFLAVIN, AND FOLIC ACID], HIGH FRUCTOSE CORN SYRUP, CORN SYRUP, PARTIALLY HYDROGENATED VEGETABLE OIL [SOYBEAN AND/OR COTTONSEED AND/OR CORN AND/OR CANOLA OILS], WATER, SALT, CONTAINS 2 PERCENT OR LESS OF YEAST, HONEY, MOLASSES, SUGAR, WHEAT GLUTEN, WHEY, SOY FLOUR, WHOLE WHEAT FLOUR, RYE FLOUR, CORN FLOUR, OAT BRAN, CORN MEAL, RICE FLOUR, POTATO FLOUR, BUTTER, DOUGH CONDITIONERS [MONO AND DIGLYCERIDES, SODIUM AND/OR CALCIUM STEAROYL LACTYLATE, SOY LECITHIN, CALCIUM CARBONATE], YEAST NUTRIENTS [AMMONIUM SULFATE, CALCIUM SULFATE, MONOCALCIUM PHOSPHATE], DISTILLED VINEGAR, SKIM MILK, BUTTERMILK, LACTIC ACID, CALCIUM PROPIONATE AS PRESERVATIVE, POTASSIUM SORBATE AS PRESERVATIVE, SESAME SEEDS, SUNFLOWER SEEDS, EGGS), ENRICHED WHEAT FLOUR (NIACIN, REDUCED IRON, THIAMIN MONONITRATE, RIBOFLAVIN, FOLIC ACID, ENZYME), CHICKEN FAT, VEGETABLE OIL (SOYBEAN OIL, PARTIALLY HYDROGENATED SOYBEAN OIL, TBHQ AND CITRIC ACID ADDED AS PRESERVATIVE), ONION, TEXTURIED VEGETABLE PROTEIN (TEXTURED SOY FLOUR, SOYBEAN OIL, SALT, AUTOLYZED YEAST EXTRACT, HYDROLYZED CORN PROTEIN, NATURAL SMOKE FLAVORING, THIAMINE HYDROCHLORIDE, DEXTROSE, DISODIUM INOSINATE AND DISODIUM GUANYLATE), CHICKEN BASE (DEXTROSE, SALT, VEGETABLE SHORTENING AND CHICKEN BROTH), CHICKEN FLAVOR (HYDROLYZED CORN PROTEIN, HYDROLYZED SOY PROTEIN, YEAST EXTRACT, CHICKEN FAT, SALT, CHICKEN MEAT, NATURAL FLAVOR, SILICON DIOXIDE, DISODIUM INOSINATE AND DISODIUM GUANYLATE), MONOSODIUM GLUTAMATE, GARLIC, CORN FLOUR, SALT, MODIFIED CORNSTARCH, AND SPICES." Date available: 10/05/2017 Date last updated by company: 10/05/2017
