Source: USDA Branded Food Products Database Release December 2017 Software v.3.8.6.4 2017-10-02
Report Run at: December 19, 2017 03:28 EST
"Nutrient data for: 45282201, CHICKEN NOODLE, UPC: 070784252360"
Food Group:  Branded Food Products Database
Common Name:

Nutrient,Unit,Data points,Std. Error,"1 cup = 245.0g",1Value per 100 g,
Proximates
"Energy",kcal,--,--,100,41
"Protein",g,--,--,6.00,2.45
"Total lipid (fat)",g,--,--,2.01,0.82
"Carbohydrate, by difference",g,--,--,12.01,4.90
"Fiber, total dietary",g,--,--,1.0,0.4
"Sugars, total",g,--,--,1.00,0.41
Minerals
"Calcium, Ca",mg,--,--,20,8
"Iron, Fe",mg,--,--,0.71,0.29
"Potassium, K",mg,--,--,630,257
"Sodium, Na",mg,--,--,691,282
Vitamins
"Vitamin C, total ascorbic acid",mg,--,--,0.0,0.0
"Vitamin A, IU",IU,--,--,1999,816
Lipids
"Fatty acids, total saturated",g,--,--,0.490,0.200
"Fatty acids, total monounsaturated",g,--,--,1.004,0.410
"Fatty acids, total polyunsaturated",g,--,--,0.000,0.000
"Fatty acids, total trans",g,--,--,0.000,0.000
"Cholesterol",mg,--,--,20,8
Amino Acids
Other
Ingredients
"CHICKEN BROTH, CARROTS, ROASTED WHITE MEAT CHICKEN, ENRICHED EGG NOODLES (ENRICHED WHEAT FLOUR [WHEAT FLOUR, NIACIN, FERROUS SULFATE, THIAMINE MONONITRATE, RIBOFLAVIN, FOLIC ACID], EGG WHITES, WHOLE EGGS), CELERY, CONTAINS LESS THAN 2% OF CORN STARCH, CHICKEN FAT, SALT, HYDROLYZED SOY PROTEIN, POTASSIUM CHLORIDE, ONION POWDER, SUGAR, YEAST EXTRACT, NATURAL FLAVOR, DEXTROSE, SODIUM PHOSPHATE, ISOLATED SOY PROTEIN, CITRIC ACID, AUTOLYZED YEAST EXTRACT, CORN SYRUP SOLIDS, MALTODEXTRIN, CHIVES, GARLIC POWDER, DEHYDRATED PARSLEY, CELERY JUICE CONCENTRATE, XANTHAN GUM, BETA CAROTENE (COLOR)." Date available: 07/14/2017 Date last updated by company: 07/14/2017
