Source: USDA Branded Food Products Database Release December 2017 Software v.3.8.6.4 2017-10-02
Report Run at: December 19, 2017 03:03 EST
"Nutrient data for: 45198834, CHICKEN BREAST STRIPS, UPC: 075901338224"
Food Group:  Branded Food Products Database
Common Name:

Nutrient,Unit,Data points,Std. Error,"3.0 PIECES = 84.0g",1Value per 100 g,
Proximates
"Energy",kcal,--,--,200,238
"Protein",g,--,--,10.00,11.90
"Total lipid (fat)",g,--,--,12.00,14.29
"Carbohydrate, by difference",g,--,--,14.00,16.67
"Fiber, total dietary",g,--,--,1.0,1.2
"Sugars, total",g,--,--,1.00,1.19
Minerals
"Calcium, Ca",mg,--,--,20,24
"Iron, Fe",mg,--,--,0.73,0.87
"Sodium, Na",mg,--,--,570,679
Vitamins
"Vitamin C, total ascorbic acid",mg,--,--,1.2,1.4
"Vitamin A, IU",IU,--,--,101,120
Lipids
"Fatty acids, total saturated",g,--,--,2.999,3.570
"Fatty acids, total trans",g,--,--,0.000,0.000
"Cholesterol",mg,--,--,25,30
Amino Acids
Other
Ingredients
"CHICKEN BREAST WITH RIB MEAT, WATER, SOY PROTEIN CONCENTRATE, CONTAINS LESS THAN 2% OF: SALT, SUGAR, SODIUM PHOSPHATE, FLAVORING, YEAST EXTRACT, CHICKEN FAT, CANOLA OIL, SOYBEAN OIL, COTTONSEED OIL, CORN SYRUP SOLIDS, CITRIC ACID, DEHYDRATED LEMON JUICE, DEHYDRATED CHICKEN BROTH, GELATIN. BATTERED AND BREADED WITH: BLEACHED WHEAT FLOUR, WATER, WHEAT FLOUR, SALT, SALT, CONTAINS LESS THAN 2% OF: MODIFIED FOOD STARCH, YELLOW CORN FLOUR, DEXTROSE, EXTRACTIVES OF PAPRIKA (COLOR), WHEY, YEAST, SPICE, SUGAR, MALTODEXTRIN, CARAMEL COLOR, YEAST EXTRACT, LEAVENING (SODIUM ACID PYROPHOSPHATE, SODIUM BICARBONATE), GUAR GUM, SPICE EXTRACTIVE. BREADING SET IN VEGETABLE OIL." Date available: 07/14/2017 Date last updated by company: 07/14/2017
