Source: USDA Branded Food Products Database Release December 2017 Software v.3.8.6.4 2017-10-02
Report Run at: December 19, 2017 03:40 EST
"Nutrient data for: 45082886, CHICKEN SEASONINGS, UPC: 070980191043"
Food Group:  Branded Food Products Database
Common Name:

Nutrient,Unit,Data points,Std. Error,"0.25 tsp = 1.0g",1Value per 100 g,
Proximates
"Energy",kcal,--,--,0,0
"Protein",g,--,--,0.00,0.00
"Total lipid (fat)",g,--,--,0.00,0.00
"Carbohydrate, by difference",g,--,--,0.00,0.00
Minerals
"Sodium, Na",mg,--,--,340,34000
Vitamins
Lipids
Amino Acids
Other
Ingredients
"SALT, MONOCALCIUM GLUTAMATE, SPICES (INCLUDING PAPRIKA FOR COLOR), HYDROLYZED CORN PROTEIN, GARLIC, TRICALCIUM PHOSPHATE (TO MAKE FREE FLOWING), YELLOW LAKE #5, RED LAKE #40." Date available: 06/25/2017 Date last updated by company: 06/25/2017
