Source: USDA Branded Food Products Database Release December 2017 Software v.3.8.6.4 2017-10-02
Report Run at: December 19, 2017 03:23 EST
"Nutrient data for: 45198638, CHICKEN KIEV, UPC: 073981343664"
Food Group:  Branded Food Products Database
Common Name:

Nutrient,Unit,Data points,Std. Error,"1 PORTION = 142.0g",1Value per 100 g,
Proximates
"Energy",kcal,--,--,349,246
"Protein",g,--,--,19.00,13.38
"Total lipid (fat)",g,--,--,26.99,19.01
"Carbohydrate, by difference",g,--,--,9.00,6.34
"Fiber, total dietary",g,--,--,2.0,1.4
"Sugars, total",g,--,--,0.00,0.00
Minerals
"Calcium, Ca",mg,--,--,0,0
"Iron, Fe",mg,--,--,0.00,0.00
"Sodium, Na",mg,--,--,480,338
Vitamins
"Vitamin C, total ascorbic acid",mg,--,--,0.0,0.0
"Vitamin A, IU",IU,--,--,0,0
Lipids
"Fatty acids, total saturated",g,--,--,12.993,9.150
"Fatty acids, total trans",g,--,--,0.000,0.000
"Cholesterol",mg,--,--,135,95
Amino Acids
Other
Ingredients
"BONELESS BREAST OF CHICKEN WITH RIB MEAT (CONTAINING UP TO 14% OF A SOLUTION OF WATER, RICE STARCH, SEA SALT, GARLIC POWDER, LEMON JUICE CONCENTRATE, EVAPORATED CANE SYRUP, ONION POWDER VINEGAR), SEASONED BUTTER (BUTTER (CREAM), SEASONING (SALT, DEHYDRATED SHALLOTS, SPICES (INCLUDING CELERY SEED), GARLIC POWDER, SUGAR, DEHYDRATED ONION, CORN STARCH, CHILI PEPPER, MUSTARD, FLAVORING), DEHYDRATED CHIVES), WHOLE WHEAT FLOUR, WATER, CONTAINS 2% OR LESS OF CORN FLOUR, SEA SALT, TURBINADO SUGAR, YEAST, LEAVENING (CREAM OF TARTER, BAKING SODA), EXPELLER PRESSED CANOLA OIL, XANTHN GUM. PRE-BROWNED IN SOYBEAN OIL." Date available: 07/14/2017 Date last updated by company: 07/14/2017
