Source: USDA Branded Food Products Database Release December 2017 Software v.3.8.6.4 2017-10-02
Report Run at: December 19, 2017 03:46 EST
"Nutrient data for: 45201304, CHICKEN TORTILLA SOUP MIX, UPC: 783987721303"
Food Group:  Branded Food Products Database
Common Name:

Nutrient,Unit,Data points,Std. Error,"3.0 Tbsp = 30.0g",1Value per 100 g,
Proximates
"Energy",kcal,--,--,110,367
"Protein",g,--,--,2.00,6.67
"Total lipid (fat)",g,--,--,1.50,5.00
"Carbohydrate, by difference",g,--,--,22.00,73.33
"Fiber, total dietary",g,--,--,2.0,6.7
"Sugars, total",g,--,--,3.00,10.00
Minerals
"Calcium, Ca",mg,--,--,40,133
"Iron, Fe",mg,--,--,1.80,6.00
"Sodium, Na",mg,--,--,600,2000
Vitamins
"Vitamin C, total ascorbic acid",mg,--,--,4.0,13.3
"Vitamin A, IU",IU,--,--,1250,4167
Lipids
"Fatty acids, total saturated",g,--,--,0.000,0.000
"Fatty acids, total trans",g,--,--,0.000,0.000
"Cholesterol",mg,--,--,0,0
Amino Acids
Other
Ingredients
"MALTODEXTRIN, GROUND WHITE CORN WITH A TRACE OF LIME, DEHYDRATED ONION, CORN, BELL PEPPER, CARROT, GARLIC, CELERY AND GREEN CHILES, SALT, SPICES INCLUDING CHILI PEPPER, RENDERED CHICKEN FAT, SUGAR, ONION AND GREEN CHILI POWDER, LIME JUICE POWDER (MALTODEXTRIN, LIME JUICE AND LIME OIL), YEAST EXTRACT, HYDROLYZED CORN PROTEIN, NATURAL FLAVORS, CILANTRO, XANTHAN GUM AND TURMERIC (COLOR)." Date available: 07/14/2017 Date last updated by company: 07/14/2017
