Source: USDA Branded Food Products Database Release December 2017 Software v.3.8.6.4 2017-10-02
Report Run at: December 19, 2017 03:37 EST
"Nutrient data for: 45242005, CHICKEN SALAD, UPC: 071100210255"
Food Group:  Branded Food Products Database
Common Name:

Nutrient,Unit,Data points,Std. Error,"2.0 Tbsp = 30.0g",1Value per 100 g,
Proximates
"Energy",kcal,--,--,130,433
"Protein",g,--,--,0.00,0.00
"Total lipid (fat)",g,--,--,14.00,46.67
"Carbohydrate, by difference",g,--,--,1.00,3.33
"Fiber, total dietary",g,--,--,0.0,0.0
"Sugars, total",g,--,--,1.00,3.33
Minerals
"Calcium, Ca",mg,--,--,0,0
"Iron, Fe",mg,--,--,0.00,0.00
"Sodium, Na",mg,--,--,240,800
Vitamins
"Vitamin C, total ascorbic acid",mg,--,--,0.0,0.0
"Vitamin A, IU",IU,--,--,0,0
Lipids
"Fatty acids, total saturated",g,--,--,2.001,6.670
"Fatty acids, total trans",g,--,--,0.000,0.000
"Cholesterol",mg,--,--,10,33
Amino Acids
Other
Ingredients
"VEGETABLE OIL (SOYBEAN AND/OR CANOLA), WATER, SUGAR, EGG YOLK, LESS THAN 2% OF: BUTTERMILK, SALT, LACTIC ACID, VINEGAR, MODIFIED FOOD STARCH, DISODIUM INOSINATE, DISODIUM GUANYLATE, DRIED GARLIC, DRIED ONION, PHOSPHORIC ACID, MONOSODIUM GLUTAMATE, XANTHAN GUM, NATURAL AND ARTIFICIAL FLAVORS (SOY), SPICES, DISODIUM PHOSPHATE, SORBIC ACID AND CALCIUM DISODIUM EDTA AS PRESERVATIVES." Date available: 07/14/2017 Date last updated by company: 07/14/2017
