Source: USDA Branded Food Products Database Release December 2017 Software v.3.8.6.4 2017-10-02
Report Run at: December 19, 2017 03:04 EST
"Nutrient data for: 45322818, CHICKEN BREAST STRIPS WITH RIB MEAT GRILLED, UPC: 034695122631"
Food Group:  Branded Food Products Database
Common Name:

Nutrient,Unit,Data points,Std. Error,"3.0 ONZ = 85.0g",1Value per 100 g,
Proximates
"Energy",kcal,--,--,90,106
"Protein",g,--,--,18.00,21.18
"Total lipid (fat)",g,--,--,1.00,1.18
"Carbohydrate, by difference",g,--,--,2.00,2.35
"Fiber, total dietary",g,--,--,0.0,0.0
"Sugars, total",g,--,--,0.00,0.00
Minerals
"Calcium, Ca",mg,--,--,20,24
"Iron, Fe",mg,--,--,0.72,0.85
"Sodium, Na",mg,--,--,550,647
Vitamins
"Vitamin C, total ascorbic acid",mg,--,--,1.2,1.4
"Vitamin A, IU",IU,--,--,0,0
Lipids
"Fatty acids, total saturated",g,--,--,0.000,0.000
"Fatty acids, total trans",g,--,--,0.000,0.000
"Cholesterol",mg,--,--,45,53
Amino Acids
Other
Ingredients
"BONELESS, SKINLESS CHICKEN BREAST WITH RIB MEAT, WATER, SEASONING (MODIFIED FOOD STARCH, SODIUM CITRATE, SALT, SODIUM PHOSPHATES, SODIUM DIACETATE, WHEY PROTEIN CONCENTRATE, CHICKEN BROTH POWDER, CARRAGEENAN), SOY LECITHIN." Date available: 07/14/2017 Date last updated by company: 07/14/2017
