Source: USDA Branded Food Products Database Release December 2017 Software v.3.8.6.4 2017-10-02
Report Run at: December 19, 2017 02:52 EST
"Nutrient data for: 45098630, CHICAGO FLATS, ARTISAN FLATBREAD, DILL & SEA SALT, UPC: 708107499948"
Food Group:  Branded Food Products Database
Common Name:

Nutrient,Unit,Data points,Std. Error,"2.0 PIECES = 18.0g",1Value per 100 g,
Proximates
"Energy",kcal,--,--,50,278
"Protein",g,--,--,2.00,11.11
"Total lipid (fat)",g,--,--,1.00,5.56
"Carbohydrate, by difference",g,--,--,10.00,55.56
"Fiber, total dietary",g,--,--,0.0,0.0
"Sugars, total",g,--,--,1.00,5.56
Minerals
"Calcium, Ca",mg,--,--,0,0
"Iron, Fe",mg,--,--,2.20,12.22
"Sodium, Na",mg,--,--,85,472
Vitamins
"Vitamin C, total ascorbic acid",mg,--,--,0.0,0.0
"Vitamin A, IU",IU,--,--,0,0
Lipids
"Fatty acids, total saturated",g,--,--,0.000,0.000
"Fatty acids, total trans",g,--,--,0.000,0.000
"Cholesterol",mg,--,--,0,0
Amino Acids
Other
Ingredients
"UNBLEACHED UNBROMATED ENRICHED WHEAT FLOUR (WHEAT FLOUR, MALTED BARLEY FLOUR, NIACIN, IRON, THIAMIN MONONITRATE, RIBOFLAVIN, FOLIC ACID), WATER, SOYBEAN OIL, SUGAR, SEA SALT, YEAST, SALT, DILL WEED." Date available: 07/14/2017 Date last updated by company: 07/14/2017
