Source: USDA Branded Food Products Database Release December 2017 Software v.3.8.6.4 2017-10-02
Report Run at: December 19, 2017 02:59 EST
"Nutrient data for: 45196939, CHICKEN BRATWURST, UPC: 070309023550"
Food Group:  Branded Food Products Database
Common Name:

Nutrient,Unit,Data points,Std. Error,"1 LINK = 85.0g",1Value per 100 g,
Proximates
"Energy",kcal,--,--,100,118
"Protein",g,--,--,15.00,17.65
"Total lipid (fat)",g,--,--,3.00,3.53
"Carbohydrate, by difference",g,--,--,1.00,1.18
"Fiber, total dietary",g,--,--,0.0,0.0
"Sugars, total",g,--,--,0.00,0.00
Minerals
"Calcium, Ca",mg,--,--,20,24
"Iron, Fe",mg,--,--,0.47,0.55
"Sodium, Na",mg,--,--,920,1082
Vitamins
"Vitamin C, total ascorbic acid",mg,--,--,1.5,1.8
"Vitamin A, IU",IU,--,--,65,76
Lipids
"Fatty acids, total saturated",g,--,--,1.003,1.180
"Fatty acids, total trans",g,--,--,0.000,0.000
"Cholesterol",mg,--,--,60,71
Amino Acids
Other
Ingredients
"CHICKEN, WATER, ONIONS, SEA SALT, VINEGAR, SPICES, NATURAL FLAVORS, DEXTROSE, CORN SYRUP." Date available: 07/14/2017 Date last updated by company: 07/14/2017
