Source: USDA Branded Food Products Database Release December 2017 Software v.3.8.6.4 2017-10-02
Report Run at: December 19, 2017 03:33 EST
"Nutrient data for: 45217178, CHICKEN POBLANO, UPC: 041268189823"
Food Group:  Branded Food Products Database
Common Name:

Nutrient,Unit,Data points,Std. Error,"1 MEAL = 340.0g",1Value per 100 g,
Proximates
"Energy",kcal,--,--,500,147
"Protein",g,--,--,27.00,7.94
"Total lipid (fat)",g,--,--,19.01,5.59
"Carbohydrate, by difference",g,--,--,51.99,15.29
"Fiber, total dietary",g,--,--,2.0,0.6
"Sugars, total",g,--,--,7.00,2.06
Minerals
"Calcium, Ca",mg,--,--,252,74
"Iron, Fe",mg,--,--,1.12,0.33
"Sodium, Na",mg,--,--,799,235
Vitamins
"Vitamin C, total ascorbic acid",mg,--,--,3.7,1.1
"Vitamin A, IU",IU,--,--,207,61
Lipids
"Fatty acids, total saturated",g,--,--,9.996,2.940
"Fatty acids, total trans",g,--,--,0.000,0.000
"Cholesterol",mg,--,--,88,26
Amino Acids
Other
Ingredients
"POBLANO SAUCE (WATER, LIGHT CREAM [MILK, CREAM], ONIONS, MILD SHREDDED CHEDDAR CHEESE (CULTURED PASTEURIZED MILK, SALT, ENZYMES, POTATO STARCH AND POWDERED CELLULOSE, NATAMYCIN [A NATURAL MOLD INHIBITOR]), MODIFIED FOOD STARCH, BELL PEPPER, BUTTER [CREAM] POBLANO BASE [POBLANO PEPPERS, FIRE ROASTED POBLANO PEPPERS, CANOLA OIL, WATER, ONIONS, GARLIC PUREE, CORN MASS FLOUR {CORN MASA FLOUR, YEAST, SALT, 2% OR LESS OF CILANTRO, ANAHEIM POWDER, LIME JUICE CONCENTRATE, YEAST EXTRACT, ONION POWDER, DRIED JALAPENO PEPPERS, SPICE GUAR GUM, CHIPOTLE POWDER, POTASSIUM SORBATE {A PRESERVATIVE}, XANTHAN GUM, NATURAL FLAVORING], SALT, GARLIC [DEHYDRATED GARLIC], CAYENNE PEPPER, OREGANO, THYME BAY LEAF), PENNE PASTA (WATER, PENNE PASTA [SEMOLINA, NIACIN, FERROUS SULFATE THIAMINE MONONITRATE, RIBOFLAVIN, FOLIC ACID]), CHICKEN STRIPS (BONELESS, SKINLESS CHICKEN LEG MEAT, WATER, SEASONING [DEXTROSE, SALT, BROWN SUGAR, CHICKEN STOCK, MALTODEXTRIN, FLAVORS, YEAST EXTRACT, MOLASSES, DISODIUM INOSINATE AND DISODIUM GUANYLATE], SOY PROTEIN CONCENTRATE; MODIFIED FOOD STARCH, SODIUM PHOSPHATES) PARMESAN AND ROMANO CHEESE BLEND (PARMESAN COW'S MILK, CHEESE CULTURE, SALT, ENZYMES, MAY CONTAINS POWDERED CELLULOSE [ANTI-CAKING AGENT] AND/OR CALCIUM PROPIONATE [PRESERVATIVE]), PARSLEY" Date available: 07/14/2017 Date last updated by company: 07/14/2017
