Source: USDA Branded Food Products Database Release December 2017 Software v.3.8.6.4 2017-10-02
Report Run at: December 19, 2017 03:36 EST
"Nutrient data for: 45061247, CHICKEN RUB, UPC: 783987882059"
Food Group:  Branded Food Products Database
Common Name:

Nutrient,Unit,Data points,Std. Error,"0.25 tsp = 1.0g",1Value per 100 g,
Proximates
"Energy",kcal,--,--,5,500
"Protein",g,--,--,0.00,0.00
"Total lipid (fat)",g,--,--,0.00,0.00
"Carbohydrate, by difference",g,--,--,1.00,100.00
Minerals
"Sodium, Na",mg,--,--,90,9000
Vitamins
Lipids
Amino Acids
Other
Ingredients
"SUGAR, SALT, BROWN SUGAR, DEHYDRATED GARLIC, ONION AND BELL PEPPER, SPICES INCLUDING CHILI PEPPER, PAPRIKA, MONOSODIUM GLUTAMATE, CITRIC ACID, NATURAL SMOKE FLAVOR." Date available: 07/14/2017 Date last updated by company: 07/14/2017
