Source: USDA Branded Food Products Database Release December 2017 Software v.3.8.6.4 2017-10-02
Report Run at: December 19, 2017 03:46 EST
"Nutrient data for: 45059157, CHICKEN TORTILLA SOUP, UPC: 077958693646"
Food Group:  Branded Food Products Database
Common Name:

Nutrient,Unit,Data points,Std. Error,"1 cup = 245.0g",1Value per 100 g,
Proximates
"Energy",kcal,--,--,149,61
"Protein",g,--,--,10.00,4.08
"Total lipid (fat)",g,--,--,2.50,1.02
"Carbohydrate, by difference",g,--,--,19.99,8.16
"Fiber, total dietary",g,--,--,5.9,2.4
"Sugars, total",g,--,--,2.99,1.22
Minerals
"Calcium, Ca",mg,--,--,39,16
"Iron, Fe",mg,--,--,2.69,1.10
"Sodium, Na",mg,--,--,461,188
Vitamins
"Vitamin C, total ascorbic acid",mg,--,--,0.0,0.0
"Vitamin A, IU",IU,--,--,299,122
Lipids
"Fatty acids, total saturated",g,--,--,0.490,0.200
"Fatty acids, total trans",g,--,--,0.000,0.000
"Cholesterol",mg,--,--,15,6
Amino Acids
Other
Ingredients
"WATER, TOMATOES (TOMATOES, CITRIC ACID), BLACK BEANS (BLACK BEANS, WATER, SALT, FERROUS GLUCONATE, CALCIUM CHLORIDE [TO MAINTAIN FIRMNESS]), CORN, CHICKEN RAISED WITHOUT ANTIBIOTICS (CHICKEN, WATER, RICE STARCH, SALT), ONIONS, POBLANO PEPPERS, TORTILLA CHIPS (STONE-GROUND CORN, SUNFLOWER OIL, SALT), SEASONING (SALT, SUGAR, CHILI PEPPERS, POTATO FLOUR, DEHYDRATED ONION, CHICKEN BROTH, COOKED CHICKEN, YEAST EXTRACT, SPICE, DEHYDRATED GARLIC, EXTRACTIVES OF TURMERIC, NATURAL FLAVOR, EXTRACTIVES OF PAPRIKA, CITRIC ACID), CONTAINS 2% OR LESS OF: LIME JUICE, GARLIC, CILANTRO, CORN STARCH, NISIN PREPARATION AND SPICES." Date available: 07/14/2017 Date last updated by company: 07/14/2017
