Source: USDA Branded Food Products Database Release December 2017 Software v.3.8.6.4 2017-10-02
Report Run at: December 19, 2017 03:04 EST
"Nutrient data for: 45216561, CHICKEN BREAST STRIPS WITH RIB MEAT, UPC: 036800397477"
Food Group:  Branded Food Products Database
Common Name:

Nutrient,Unit,Data points,Std. Error,"3.0 ONZ = 84.0g",1Value per 100 g,
Proximates
"Energy",kcal,--,--,100,119
"Protein",g,--,--,20.00,23.81
"Total lipid (fat)",g,--,--,2.00,2.38
"Carbohydrate, by difference",g,--,--,1.00,1.19
"Sugars, total",g,--,--,1.00,1.19
Minerals
"Iron, Fe",mg,--,--,0.24,0.28
"Sodium, Na",mg,--,--,460,548
Vitamins
Lipids
"Fatty acids, total saturated",g,--,--,1.000,1.190
"Fatty acids, total trans",g,--,--,0.000,0.000
"Cholesterol",mg,--,--,60,71
Amino Acids
Other
Ingredients
"CHICKEN BREAST WITH RIB MEAT, CHICKEN BROTH, LESS THAN 2% OF: SALT, MODIFIED FOOD STARCH, POTASSIUM LACTATE, DEXTROSE, SODIUM PHOSPHATE, NATURAL FLAVORING, YEAST EXTRACT, SODIUM DIACETATE, CITRIC ACID, LAURIC ARGINATE, SODIUM NITRITE." Date available: 07/14/2017 Date last updated by company: 07/14/2017
