Source: USDA Branded Food Products Database Release December 2017 Software v.3.8.6.4 2017-10-02
Report Run at: December 19, 2017 03:39 EST
"Nutrient data for: 45200699, CHICKEN SAUSAGE, UPC: 725439942966"
Food Group:  Branded Food Products Database
Common Name:

Nutrient,Unit,Data points,Std. Error,"1 LINK = 57.0g",1Value per 100 g,
Proximates
"Energy",kcal,--,--,80,140
"Protein",g,--,--,10.00,17.54
"Total lipid (fat)",g,--,--,2.00,3.51
"Carbohydrate, by difference",g,--,--,5.00,8.77
"Fiber, total dietary",g,--,--,0.0,0.0
"Sugars, total",g,--,--,5.00,8.77
Minerals
"Calcium, Ca",mg,--,--,0,0
"Iron, Fe",mg,--,--,0.70,1.22
"Sodium, Na",mg,--,--,240,421
Vitamins
"Vitamin C, total ascorbic acid",mg,--,--,0.0,0.0
"Vitamin A, IU",IU,--,--,0,0
Lipids
"Fatty acids, total saturated",g,--,--,0.502,0.880
"Fatty acids, total trans",g,--,--,0.000,0.000
"Cholesterol",mg,--,--,40,70
Amino Acids
Other
Ingredients
"SKINLESS CHICKEN, MAPLE SYRUP, RAW SUGAR, DRIED APPLES, VINEGAR, APPLE JUICE CONCENTRATE, SEA SALT, CELERY JUICE POWDER, CINNAMON, NUTMEG." Date available: 07/14/2017 Date last updated by company: 07/14/2017
