Source: USDA Branded Food Products Database Release December 2017 Software v.3.8.6.4 2017-10-02
Report Run at: December 19, 2017 03:50 EST
"Nutrient data for: 45193370, CHICKEN WINGS, UPC: 011110843807"
Food Group:  Branded Food Products Database
Common Name:

Nutrient,Unit,Data points,Std. Error,"4.0 PIECES = 93.0g",1Value per 100 g,
Proximates
"Energy",kcal,--,--,200,215
"Protein",g,--,--,12.00,12.90
"Total lipid (fat)",g,--,--,10.00,10.75
"Carbohydrate, by difference",g,--,--,11.00,11.83
"Fiber, total dietary",g,--,--,0.0,0.0
"Sugars, total",g,--,--,8.00,8.60
Minerals
"Calcium, Ca",mg,--,--,0,0
"Iron, Fe",mg,--,--,0.66,0.71
"Sodium, Na",mg,--,--,470,505
Vitamins
"Vitamin C, total ascorbic acid",mg,--,--,0.0,0.0
"Vitamin A, IU",IU,--,--,91,98
Lipids
"Fatty acids, total saturated",g,--,--,3.004,3.230
"Fatty acids, total monounsaturated",g,--,--,3.999,4.300
"Fatty acids, total polyunsaturated",g,--,--,1.999,2.150
"Fatty acids, total trans",g,--,--,0.000,0.000
"Cholesterol",mg,--,--,50,54
Amino Acids
Other
Ingredients
"CHICKEN WING SECTIONS, WATER, CONTAINS 2% OR LESS OF: SUGAR, DEHYDRATED HONEY (REFINERY SYRUP, HONEY), GRANULATED BROWN SUGAR, MODIFIED FOOD STARCH, SODIUM PHOSPHATES, SALT, BROWN SUGAR, WHEY, DEHYDRATED ONION, DEXTROSE, DEHYDRATED GARLIC, VINEGAR (MALTODEXTRIN, DISTILLED VINEGAR, MODIFIED FOOD STARCH), CARRAGEENAN, SMOKE FLAVORING (PARTIALLY HYDROGENATED SOYBEAN OIL, SMOKE FLAVOR), DRY MALT, SOY LECITHIN, SPICE EXTRACTIVES. COATED WITH: RICE FLOUR, MODIFIED FOOD STARCH, CALCIUM CITRATE. SAUCED WITH: WATER, TOMATO PASTE, SUGAR, HONEY POWDER (REFINERY SYRUP, HONEY), DISTILLED VINEGAR, MOLASSES, MUSTARD (DISTILLED VINEGAR, WATER, MUSTARD SEED, SALT, TURMERIC, PAPRIKA, SPICE, GARLIC POWDER), WORCESTERSHIRE SAUCE (WATER, VINEGAR, SALT, SUGAR, CARAMEL COLOR [CONTAINS SULFITES], MALIC ACID, MOLASSES, CITRIC ACID, ONION, GARLIC, FOOD GUMS [ARABIC, XANTHAN, GUAR, CELLULOSE], DEXTROSE, SPICES, CHILI PEPPER, SPICE EXTRACTIVES, SMOKE FLAVOR), SMOKE FLAVOR (MALTODEXTRIN POWDER, NATURAL HICKORY SMOKE FLAVOR, SILICON DIOXIDE), MODIFIED CORN STARCH, CARAMEL COLOR, ONION POWDER, SPICES, SODIUM BENZOATE, XANTHAN GUM, LEMON JUICE POWDER (CORN SYRUP SOLIDS, LEMON JUICE, LEMON OIL)." Date available: 07/14/2017 Date last updated by company: 07/14/2017
