Source: USDA Branded Food Products Database Release December 2017 Software v.3.8.6.4 2017-10-02
Report Run at: December 19, 2017 03:47 EST
"Nutrient data for: 45195422, CHICKEN TORTILLA SOUP, UPC: 037296201453"
Food Group:  Branded Food Products Database
Common Name:

Nutrient,Unit,Data points,Std. Error,"1 cup = 245.0g",1Value per 100 g,
Proximates
"Energy",kcal,--,--,130,53
"Protein",g,--,--,8.01,3.27
"Total lipid (fat)",g,--,--,4.51,1.84
"Carbohydrate, by difference",g,--,--,13.99,5.71
"Fiber, total dietary",g,--,--,1.0,0.4
"Sugars, total",g,--,--,2.01,0.82
Minerals
"Calcium, Ca",mg,--,--,39,16
"Iron, Fe",mg,--,--,1.45,0.59
"Sodium, Na",mg,--,--,840,343
Vitamins
"Vitamin C, total ascorbic acid",mg,--,--,14.9,6.1
"Vitamin A, IU",IU,--,--,2249,918
Lipids
"Fatty acids, total saturated",g,--,--,1.004,0.410
"Fatty acids, total trans",g,--,--,0.000,0.000
"Cholesterol",mg,--,--,20,8
Amino Acids
Other
Ingredients
"CHICKEN STOCK (WATER, CHICKEN BROTH [CHICKEN STOCK, NATURAL FLAVOR, SALT, SUGAR YEAST EXTRACT]), VINE-RIPENED DICED TOMATOES IN JUICE, COOKED CHICKEN MEAT WITH BROTH, RED BELL PEPPERS, CELERY, ONIONS, CARROTS, CORN MASA FLOUR (CORN, LIME), RICE FLOUR, CULTURED DEXTROSE, CILANTRO, GARLIC, SEA SALT, EXPELLER PRESSED CANOLA OIL, SPICES, CITRIC ACID, PAPRIKA, LIME JUICE CONCENTRATE, CHILI PEPPER POWDER, CAYENNE PEPPER, CHIPOTLE PEPPER POWDER." Date available: 07/14/2017 Date last updated by company: 07/14/2017
