Source: USDA Branded Food Products Database Release December 2017 Software v.3.8.6.4 2017-10-02
Report Run at: December 19, 2017 03:56 EST
"Nutrient data for: 45246139, CHIK'N TIKKA MASALA VEGGIE BOWLS, UPC: 028989101815"
Food Group:  Branded Food Products Database
Common Name:

Nutrient,Unit,Data points,Std. Error,"1 ENTREE = 255.0g",1Value per 100 g,
Proximates
"Energy",kcal,--,--,339,133
"Protein",g,--,--,17.01,6.67
"Total lipid (fat)",g,--,--,12.01,4.71
"Carbohydrate, by difference",g,--,--,45.01,17.65
"Fiber, total dietary",g,--,--,8.9,3.5
"Sugars, total",g,--,--,5.99,2.35
Minerals
"Calcium, Ca",mg,--,--,99,39
"Iron, Fe",mg,--,--,3.44,1.35
"Potassium, K",mg,--,--,370,145
"Sodium, Na",mg,--,--,571,224
Vitamins
"Vitamin C, total ascorbic acid",mg,--,--,3.6,1.4
"Vitamin A, IU",IU,--,--,956,375
Lipids
"Fatty acids, total saturated",g,--,--,7.013,2.750
"Fatty acids, total trans",g,--,--,0.000,0.000
"Cholesterol",mg,--,--,31,12
Amino Acids
Other
Ingredients
"WATER, TOMATOES (GROUND TOMATOES, TOMATO PUREE, SALT), CHICKPEAS, ENRICHED FLOUR (WHEAT FLOUR, MALTED BARLEY FLOUR, NIACIN, REDUCED IRON, VITAMIN B1 [THIAMIN MONONITRATE], VITAMIN B2 [RIBOFLAVIN], FOLIC ACID), CREAM, ONION, RED BELL PEPPERS, CARROTS, GREEN PEAS, LENTILS, BUTTER (CREAM, SALT), CONTAINS TWO PERCENT OR LESS OF SOY PROTEIN ISOLATE, WHEAT GLUTEN, SPICES CORNSTARCH, GINGER, YEAST, SOYBEAN OIL, SALT, XANTHAN GUM, SUGAR, CULTURED WHEAT FLOUR, DRIED GARLIC, FERMENTED WHEAT FLOUR, LEMON JUICE CONCENTRATE, MONO- AND DIGLYCERIDES, TAPIOCA STARCH, COLOR ADDED, HYDROLYZED CORN PROTEIN, YEAST EXTRACT, NATURAL FLAVORS, DISODIUM INOSINATE, DISODIUM GUANYLATE." Date available: 07/14/2017 Date last updated by company: 07/14/2017
