Source: USDA Branded Food Products Database Release December 2017 Software v.3.8.6.4 2017-10-02
Report Run at: December 19, 2017 04:01 EST
"Nutrient data for: 45260492, CHILI MANGO, UPC: 690166348223"
Food Group:  Branded Food Products Database
Common Name:

Nutrient,Unit,Data points,Std. Error,"0.333 cup = 40.0g",1Value per 100 g,
Proximates
"Energy",kcal,--,--,140,350
"Protein",g,--,--,0.00,0.00
"Total lipid (fat)",g,--,--,0.00,0.00
"Carbohydrate, by difference",g,--,--,33.00,82.50
"Fiber, total dietary",g,--,--,1.0,2.5
"Sugars, total",g,--,--,18.00,45.00
Minerals
"Calcium, Ca",mg,--,--,60,150
"Iron, Fe",mg,--,--,0.36,0.90
"Sodium, Na",mg,--,--,220,550
Vitamins
"Vitamin C, total ascorbic acid",mg,--,--,1.2,3.0
"Vitamin A, IU",IU,--,--,200,500
Lipids
"Fatty acids, total saturated",g,--,--,0.000,0.000
"Fatty acids, total trans",g,--,--,0.000,0.000
"Cholesterol",mg,--,--,0,0
Amino Acids
Other
Ingredients
"MANGO SLICES (MANGO, SUGAR, SULFUR DIOXIDE ADDED FOR COLOR RETENTION, RED 40), SWEET & SOUR SEASONING (SUGAR, CITRIC ACID), SPICY SEASONING (SALT, GROUND CHILI PEPPERS, GROUND CAYENNE PEPPERS, SPICE EXTRACTIVES, TORULA YEAST, NATURAL FLAVORS, SILICON DIOXIDE [LESS THAN 2% TO PREVENT CAKING])." Date available: 07/14/2017 Date last updated by company: 07/14/2017
