Source: USDA Branded Food Products Database Release December 2017 Software v.3.8.6.4 2017-10-02
Report Run at: December 19, 2017 04:10 EST
"Nutrient data for: 45296107, CHILLED COFFEE DRINK, UPC: 012000813313"
Food Group:  Branded Food Products Database
Common Name:

Nutrient,Unit,Data points,Std. Error,"1 BOTTLE = 13.7g",1Value per 100 g,
Proximates
"Energy",kcal,--,--,10,71
"Protein",g,--,--,0.30,2.19
"Total lipid (fat)",g,--,--,0.15,1.09
"Carbohydrate, by difference",g,--,--,1.77,12.90
"Fiber, total dietary",g,--,--,0.0,0.0
"Sugars, total",g,--,--,1.53,11.19
Minerals
"Calcium, Ca",mg,--,--,12,85
"Iron, Fe",mg,--,--,0.01,0.08
"Sodium, Na",mg,--,--,5,36
Vitamins
"Vitamin C, total ascorbic acid",mg,--,--,0.0,0.0
"Vitamin A, IU",IU,--,--,0,0
Lipids
"Fatty acids, total saturated",g,--,--,0.100,0.730
"Fatty acids, total trans",g,--,--,0.000,0.000
"Cholesterol",mg,--,--,1,5
Amino Acids
Other
Ingredients
"BREWED STARBUCKS COFFEE (WATER, COFFEE), REDUCED-FAT MILK, SUGAR, MALTODEXTRIN, PECTIN, NATURAL FLAVOR." Date available: 08/11/2017 Date last updated by company: 08/11/2017
