Source: USDA Branded Food Products Database Release December 2017 Software v.3.8.6.4 2017-10-02
Report Run at: December 19, 2017 04:10 EST
"Nutrient data for: 45110516, CHILL, DOUBLE LEMON, SMOOTH FRUIT ICE, EXTRA-TANGY LEMON, UPC: 070640014361"
Food Group:  Branded Food Products Database
Common Name:

Nutrient,Unit,Data points,Std. Error,"1 CONTAINER = 243.0g",1Value per 100 g,
Proximates
"Energy",kcal,--,--,260,107
"Protein",g,--,--,0.00,0.00
"Total lipid (fat)",g,--,--,0.00,0.00
"Carbohydrate, by difference",g,--,--,65.00,26.75
"Fiber, total dietary",g,--,--,1.0,0.4
"Sugars, total",g,--,--,53.00,21.81
Minerals
"Calcium, Ca",mg,--,--,0,0
"Iron, Fe",mg,--,--,0.00,0.00
"Sodium, Na",mg,--,--,15,6
Vitamins
"Vitamin C, total ascorbic acid",mg,--,--,53.9,22.2
"Vitamin A, IU",IU,--,--,0,0
Lipids
"Fatty acids, total saturated",g,--,--,0.000,0.000
"Fatty acids, total trans",g,--,--,0.000,0.000
"Cholesterol",mg,--,--,0,0
Amino Acids
Other
Ingredients
"WATER, SUGAR, CORN SYRUP, FLAVOR BASE (PINEAPPLE SYRUP, WATER, CITRIC ACID, LEMON JUICE, LEMON JUICE CONCENTRATE, LEMON PUREE), CONTAINS 2% OR LESS OF CITRIC ACID, HYDROXYPROPYL METHYLCELLULOSE, CAROB BEAN GUM, GUAR GUM, KARAYA GUM, PECTIN, ASCORBIC ACID." Date available: 07/14/2017 Date last updated by company: 07/14/2017
