Source: USDA Branded Food Products Database Release December 2017 Software v.3.8.6.4 2017-10-02
Report Run at: December 19, 2017 04:02 EST
"Nutrient data for: 45325812, CHILI NO BEANS, UPC: 038259102916"
Food Group:  Branded Food Products Database
Common Name:

Nutrient,Unit,Data points,Std. Error,"1 cup = 236.0g",1Value per 100 g,
Proximates
"Energy",kcal,--,--,241,102
"Protein",g,--,--,13.99,5.93
"Total lipid (fat)",g,--,--,11.99,5.08
"Carbohydrate, by difference",g,--,--,18.01,7.63
"Fiber, total dietary",g,--,--,3.1,1.3
"Sugars, total",g,--,--,3.00,1.27
Minerals
"Calcium, Ca",mg,--,--,40,17
"Iron, Fe",mg,--,--,1.51,0.64
"Sodium, Na",mg,--,--,989,419
Vitamins
"Vitamin C, total ascorbic acid",mg,--,--,0.0,0.0
"Vitamin A, IU",IU,--,--,529,224
Lipids
"Fatty acids, total saturated",g,--,--,3.988,1.690
"Fatty acids, total trans",g,--,--,0.000,0.000
"Cholesterol",mg,--,--,31,13
Amino Acids
Other
Ingredients
"WATER, BEEF AND PORK, TEXTURED SOY FLOUR, OATMEAL, CHILI POWDER (CHILI PEPPERS, FLAVORING), MODIFIED CORNSTARCH, CONTAINS 2% OR LESS OF CORN FLOUR, SUGAR, SALT, TOMATO PASTE, HYDROLYZED SOY, CORN, AND WHEAT PROTEIN, FLAVORING, YEAST EXTRACT, SPICES, DISODIUM INOSINATE AND DISODIUM GUANYLATE, SOY LECITHIN." Date available: 08/11/2017 Date last updated by company: 08/11/2017
