Source: USDA Branded Food Products Database Release December 2017 Software v.3.8.6.4 2017-10-02
Report Run at: December 19, 2017 03:58 EST
"Nutrient data for: 45090679, CHILI BEANS, UPC: 070890532004"
Food Group:  Branded Food Products Database
Common Name:

Nutrient,Unit,Data points,Std. Error,"0.5 cup = 127.0g",1Value per 100 g,
Proximates
"Energy",kcal,--,--,119,94
"Protein",g,--,--,7.00,5.51
"Total lipid (fat)",g,--,--,1.00,0.79
"Carbohydrate, by difference",g,--,--,21.01,16.54
"Fiber, total dietary",g,--,--,7.0,5.5
"Sugars, total",g,--,--,1.00,0.79
Minerals
"Calcium, Ca",mg,--,--,39,31
"Iron, Fe",mg,--,--,1.84,1.45
"Sodium, Na",mg,--,--,500,394
Vitamins
"Vitamin C, total ascorbic acid",mg,--,--,1.3,1.0
"Vitamin A, IU",IU,--,--,204,161
Lipids
"Fatty acids, total saturated",g,--,--,0.000,0.000
"Fatty acids, total trans",g,--,--,0.000,0.000
"Cholesterol",mg,--,--,0,0
Amino Acids
Other
Ingredients
"WATER, PINTO BEANS, TOMATO PASTE, CHILI POWDER (CHILI PEPPER, PAPRIKA, SALT, SPICES, ONION POWDER, GARLIC POWDER, NATURAL FLAVOR), SALT, CORNSTARCH MODIFIED, SOYBEAN OIL, CUMIN." Date available: 07/14/2017 Date last updated by company: 07/14/2017
