Source: USDA Branded Food Products Database Release December 2017 Software v.3.8.6.4 2017-10-02
Report Run at: December 19, 2017 04:08 EST
"Nutrient data for: 45113866, CHILI, UPC: 072273002036"
Food Group:  Branded Food Products Database
Common Name:

Nutrient,Unit,Data points,Std. Error,"1 cup = 246.0g",1Value per 100 g,
Proximates
"Energy",kcal,--,--,349,142
"Protein",g,--,--,20.00,8.13
"Total lipid (fat)",g,--,--,23.00,9.35
"Carbohydrate, by difference",g,--,--,17.00,6.91
"Fiber, total dietary",g,--,--,3.9,1.6
"Sugars, total",g,--,--,1.99,0.81
Minerals
"Calcium, Ca",mg,--,--,59,24
"Iron, Fe",mg,--,--,2.85,1.16
"Sodium, Na",mg,--,--,910,370
Vitamins
"Vitamin C, total ascorbic acid",mg,--,--,2.5,1.0
"Vitamin A, IU",IU,--,--,1584,644
Lipids
"Fatty acids, total saturated",g,--,--,4.010,1.630
"Fatty acids, total trans",g,--,--,0.000,0.000
"Cholesterol",mg,--,--,15,6
Amino Acids
Other
Ingredients
"WATER, PORK AND BEEF, TEXTURED VEGETABLE PROTEIN (SOY FLOUR, CARAMEL COLOR), BEEF FAT, OATS, CONTAINS LESS THAN 2%: CORNSTARCH MODIFIED, TOMATO PASTE, CHILI PEPPER, ONION POWDER, SALT, CUMIN, GARLIC POWDER, MONOSODIUM GLUTAMATE, CARAMEL COLOR, CAYENNE PEPPER, SPICE, NATURAL FLAVORING." Date available: 07/14/2017 Date last updated by company: 07/14/2017
