Source: USDA Branded Food Products Database Release December 2017 Software v.3.8.6.4 2017-10-02
Report Run at: December 19, 2017 04:06 EST
"Nutrient data for: 45110024, CHILI'S, CHICKEN TAMALES WITH RICE, UPC: 717854470193"
Food Group:  Branded Food Products Database
Common Name:

Nutrient,Unit,Data points,Std. Error,"1 PACKAGE = 284.0g",1Value per 100 g,
Proximates
"Energy",kcal,--,--,571,201
"Protein",g,--,--,17.01,5.99
"Total lipid (fat)",g,--,--,29.00,10.21
"Carbohydrate, by difference",g,--,--,61.00,21.48
"Fiber, total dietary",g,--,--,4.0,1.4
"Sugars, total",g,--,--,4.00,1.41
Minerals
"Calcium, Ca",mg,--,--,250,88
"Iron, Fe",mg,--,--,0.99,0.35
"Sodium, Na",mg,--,--,1360,479
Vitamins
"Vitamin C, total ascorbic acid",mg,--,--,14.5,5.1
"Vitamin A, IU",IU,--,--,344,121
Lipids
"Fatty acids, total saturated",g,--,--,10.991,3.870
"Fatty acids, total trans",g,--,--,0.511,0.180
"Cholesterol",mg,--,--,45,16
Amino Acids
Other
Ingredients
"COOKED LONG GRAIN RICE, WATER, DOUGH MIX (WHITE CORN FLOUR, BLEACHED WHEAT FLOUR, PALM OIL, YELLOW CORN MEAL, DEXTROSE, SALT, LEAVENING [SODIUM ACID PYROPHOSPHATE, SODIUM BICARBONATE, MONOCALCIUM PHOSPHATE], MODIFIED CORN STARCH, SPICE, TURMERIC EXTRACT [COLOR], NONFAT DRY MILK, DRIED WHOLE EGG), HALF AND HALF (MILK, CREAM), PASTEURIZED PROCESS MONTEREY JACK CHEESE (CULTURED MILK, WATER, MILKFAT, SKIM MILK, SODIUM PHOSPHATES, SALT, ENZYMES), COOKED SHREDDED CHICKEN (CHICKEN, CHICKEN BROTH, MODIFIED FOOD STARCH, SALT, SODIUM PHOSPHATE), CANOLA OIL, BELL PEPPERS, FIRE ROASTED POBLANO PEPPER PUREE (POBLANO PEPPERS, WATER, CITRIC ACID), CORN, BLACK BEANS (WITH WATER), LESS THAN 2% OF MOZZARELLA CHEESE (PASTEURIZED MILK, CHEESE CULTURE, SALT, ENZYMES), CHICKEN BROTH, SEASONING (DRIED ONION, SPICES, YEAST EXTRACT, SALT, DRIED GARLIC, CITRIC ACID, NATURAL FLAVOR), JALAPENO PEPPERS (WITH WATER, VINEGAR AND SALT), GREAT NORTHERN BEANS (WITH WATER), MODIFIED FOOD STARCH, JALAPENO PEPPERS, CILANTRO, SALT, CELLULOSE, UNSALTED BUTTER (CREAM, NATURAL FLAVOR), SPICES, THICKENER (WHEAT FLOUR, METHYLCELLULOSE, SODIUM ALGINATE, SODIUM TRIPOLYPHOSPHATE), GARLIC PUREE (GARLIC, WATER, CITRIC ACID), XANTHAN GUM, VITAL WHEAT GLUTEN, GRANULATED ONION, PARSLEY FLAKES." Date available: 08/28/2017 Date last updated by company: 08/28/2017
