Source: USDA Branded Food Products Database Release December 2017 Software v.3.8.6.4 2017-10-02
Report Run at: December 19, 2017 04:00 EST
"Nutrient data for: 45330183, CHILI CON CARNE WITH BEANS, UPC: 041512100741"
Food Group:  Branded Food Products Database
Common Name:

Nutrient,Unit,Data points,Std. Error,"1 cup = 247.0g",1Value per 100 g,
Proximates
"Energy",kcal,--,--,279,113
"Protein",g,--,--,16.01,6.48
"Total lipid (fat)",g,--,--,10.99,4.45
"Carbohydrate, by difference",g,--,--,30.01,12.15
"Fiber, total dietary",g,--,--,6.9,2.8
"Sugars, total",g,--,--,2.00,0.81
Minerals
"Calcium, Ca",mg,--,--,40,16
"Iron, Fe",mg,--,--,2.87,1.16
"Sodium, Na",mg,--,--,899,364
Vitamins
"Vitamin C, total ascorbic acid",mg,--,--,0.0,0.0
"Vitamin A, IU",IU,--,--,316,128
Lipids
"Fatty acids, total saturated",g,--,--,4.989,2.020
"Fatty acids, total trans",g,--,--,0.000,0.000
"Cholesterol",mg,--,--,30,12
Amino Acids
Other
Ingredients
"WATER, BEEF, BEANS, CONTAINS 2% OR LESS OF MODIFIED CORNSTARCH, CHILI POWDER (CHILI PEPPERS, FLAVORING), CORN FLOUR, TOMATO PASTE, YEAST EXTRACT, SALT, FLAVORING, CHILI FLAVOR (OLEORESIN OF PAPRIKA, NATURAL FLAVORINGS), SPICES." Date available: 10/13/2017 Date last updated by company: 10/13/2017
