Source: USDA Branded Food Products Database Release December 2017 Software v.3.8.6.4 2017-10-02
Report Run at: December 19, 2017 03:59 EST
"Nutrient data for: 45255350, CHILI CHEESE FRIES, UPC: 086688100010"
Food Group:  Branded Food Products Database
Common Name:

Nutrient,Unit,Data points,Std. Error,"85.0 GRM = 85.0g",1Value per 100 g,
Proximates
"Energy",kcal,--,--,140,165
"Protein",g,--,--,3.00,3.53
"Total lipid (fat)",g,--,--,7.00,8.24
"Carbohydrate, by difference",g,--,--,17.00,20.00
"Fiber, total dietary",g,--,--,2.0,2.4
"Sugars, total",g,--,--,1.00,1.18
Minerals
"Calcium, Ca",mg,--,--,40,47
"Iron, Fe",mg,--,--,0.72,0.85
"Sodium, Na",mg,--,--,320,376
Vitamins
"Vitamin C, total ascorbic acid",mg,--,--,4.8,5.6
"Vitamin A, IU",IU,--,--,100,118
Lipids
"Fatty acids, total saturated",g,--,--,1.998,2.350
"Fatty acids, total trans",g,--,--,0.000,0.000
"Cholesterol",mg,--,--,10,12
Amino Acids
Other
Ingredients
"1. FRENCH FRIED POTATOES [POTATOES, VEGETABLE OIL (SOYBEAN, CANOLA, CORN AND/OR SUNFLOWER), MODIFIED FOOD STARCH, RICE FLOUR, DEXTRIN, SALT, LEAVENING (SODIUM ACID PYROPHOSPHATE, SODIUM BICARBONATE), CORN STARCH, XANTHAN GUM, BETA CAROTENE, DEXTROSE, TETRASODIUM PYROPHOSPHATE AND DISODIUM DIHYDROGEN PYROPHOSPHATE (TO MAINTAIN NATURAL COLOR)], 2. FULLY COOKED CHILI [WATER, GROUND BEEF )BEEF, SALT), TOMATOES (CITRIC ACID, CALCIUM CHLORIDE), YELLOW, COOKED PINTO BEANS, COOKED RED BEANS, GREEN CHILE (GREEN CHILES, SALT, CITRIC ACID, AND A TRACE OF CALCIUM CHLORIDE), BUTTER (CREAM MILK, SALT), CANOLA OIL, BEEF BASE (COOKED BEEF, SALT, AUTOLYZED YEAST EXTRACT, SUGAR, DEHYDRATED BEEF EXTRACT, ONION POWDER, CANOLA OIL, LACTIC ACID POWDER WITH MODIFIED CORN STARCH, CARAMEL COLOR, GARLIC POWDER, SOY LECITHIN, MALTODEXTRIN), COOKED KIDNEY BEANS, CHILI POWDER (CHILI PEPPERS, SALT, SPICES, GARLIC, LESS THAN 2% SILICON DIOXIDE ADDED TO PREVENT CAKING), WORCESTERSHIRE SAUCE (WATER, HIGH FRUCTOSE CORN SYRUP, MOLASSES, SALT, VINEGAR, CARAMEL COLOR, HYDROLYZED SOY PROTEIN, WHEAT FLOUR NIACIN, REDUCED IRON, THIAMIN MONONITRATE, RIBOFLAVIN, FOLIC ACID, NATURAL FLAVOR, GUAR GUM, SODIUM BENZOATE), GARLIC (GARLIC, WATER), CAYENNE PEPPER SAUCE (AGED CAYENNE PEPPERS, DISTILLED VINEGAR, WATER, SALT, GARLIC POWDER), SPICES, SALT), 3, CHEDDAR CHEESE SAUCE [WATER, CHEESE BLEND CHEESE [CHEDDAR, GRANULAR AND BLUE (PASTEURIZED MILK, CHEESE CULTURE, SALT ENZYMES], WHEY, SUNFLOWER OIL, SALT, MALTODEXTRIN, BUTTERMILK, SOLIDS, SODIUM PHOSPHATE, CITRIC ACID, LACTIC ACID, YELLOW 5, YELLOW 6, CREAM, WHOLE MILK POWER, SOYBEAN OIL, ROMANO CHEESE (PASTEURIZED PART-SKIM MILK, CHEESE CULTURE, SALT, ENZYMES), MODIFIED CORN STARCH, SALT, SUGAR, BUTTER FLAVOR (WHEY SOLIDS, ENZYME MODIFIED BUTTER, MALTODEXTRIN, SALT, DEHYDRATED BUTTER, GUAR GUM, ANNATTO AND TURMERIC FOR COLOR. CONTAINS MILK), POLYSORBATE 60, XANTHAN GUM, ONION POWDER, GARLIC POWDER, SPICE" Date available: 07/14/2017 Date last updated by company: 07/14/2017
