Source: USDA Branded Food Products Database Release December 2017 Software v.3.8.6.4 2017-10-02
Report Run at: December 19, 2017 04:13 EST
"Nutrient data for: 45241317, CHIN CHIN, JUICE DRINK, GUAVA, UPC: 701243011128"
Food Group:  Branded Food Products Database
Common Name:

Nutrient,Unit,Data points,Std. Error,"8.0 OZA = 240.0g",1Value per 100 g,
Proximates
"Energy",kcal,--,--,101,42
"Protein",g,--,--,0.00,0.00
"Total lipid (fat)",g,--,--,0.00,0.00
"Carbohydrate, by difference",g,--,--,25.01,10.42
"Fiber, total dietary",g,--,--,1.0,0.4
"Sugars, total",g,--,--,24.00,10.00
Minerals
"Calcium, Ca",mg,--,--,10,4
"Iron, Fe",mg,--,--,3.05,1.27
"Sodium, Na",mg,--,--,26,11
Vitamins
"Vitamin C, total ascorbic acid",mg,--,--,22.8,9.5
"Vitamin A, IU",IU,--,--,0,0
Lipids
"Fatty acids, total saturated",g,--,--,0.000,0.000
"Fatty acids, total trans",g,--,--,0.000,0.000
"Cholesterol",mg,--,--,0,0
Amino Acids
Other
Ingredients
"WATER, GUAVA JUICE, CANE SUGAR, CITRIC ACID, FLAVOR." Date available: 06/25/2017 Date last updated by company: 06/25/2017
