Source: USDA Branded Food Products Database Release December 2017 Software v.3.8.6.4 2017-10-02
Report Run at: December 19, 2017 04:13 EST
"Nutrient data for: 45233205, CHINCOTEAGUE, CONDENSED LOBSTER BISQUE, UPC: 043787050509"
Food Group:  Branded Food Products Database
Common Name:

Nutrient,Unit,Data points,Std. Error,"0.5 cup = 120.0g",1Value per 100 g,
Proximates
"Energy",kcal,--,--,90,75
"Protein",g,--,--,4.00,3.33
"Total lipid (fat)",g,--,--,4.00,3.33
"Carbohydrate, by difference",g,--,--,10.00,8.33
"Fiber, total dietary",g,--,--,0.5,0.4
"Sugars, total",g,--,--,2.00,1.67
Minerals
"Calcium, Ca",mg,--,--,0,0
"Iron, Fe",mg,--,--,0.00,0.00
"Sodium, Na",mg,--,--,650,542
Vitamins
"Vitamin C, total ascorbic acid",mg,--,--,0.0,0.0
"Vitamin A, IU",IU,--,--,200,167
Lipids
"Fatty acids, total saturated",g,--,--,2.004,1.670
"Fatty acids, total trans",g,--,--,0.000,0.000
"Cholesterol",mg,--,--,14,12
Amino Acids
Other
Ingredients
"WATER, LOBSTER MEAT, MODIFIED FOOD STARCH, SHERRY WINE (SALT, SULFITES), TOMATO PUREE, RICE FLOUR, UNBLEACHED WHEAT FLOUR, NATURAL LOBSTER FLAVOR, WHEY (MILK), BUTTER (MILK), SUGAR, MALTODEXTRIN, SALT, VEGETABLE SHORTENING (SOYBEAN OIL), XANTHAN GUM, OLEORESIN PAPRIKA, WHITE PEPPER, CELERY POWDER, ONION POWDER, NATURAL FLAVOR, RED PEPPER, THYME, BAY LEAVES, AND NUTMEG." Date available: 06/24/2017 Date last updated by company: 06/24/2017
