Source: USDA Branded Food Products Database Release December 2017 Software v.3.8.6.4 2017-10-02
Report Run at: December 19, 2017 04:14 EST
"Nutrient data for: 45329081, CHINESE CHICKEN DRESSING & MARINADE, UPC: 041512084423"
Food Group:  Branded Food Products Database
Common Name:

Nutrient,Unit,Data points,Std. Error,"2.0 Tbsp = 30.0g",1Value per 100 g,
Proximates
"Energy",kcal,--,--,80,267
"Protein",g,--,--,0.00,0.00
"Total lipid (fat)",g,--,--,5.00,16.67
"Carbohydrate, by difference",g,--,--,7.00,23.33
"Sugars, total",g,--,--,7.00,23.33
Minerals
"Iron, Fe",mg,--,--,0.72,2.40
"Sodium, Na",mg,--,--,190,633
Vitamins
Lipids
"Fatty acids, total saturated",g,--,--,0.999,3.330
Amino Acids
Other
Ingredients
"WATER, SUGAR, VEGETABLE OIL (SOYBEAN OIL AND/OR CANOLA OIL), APPLE CIDER VINEGAR, SOY SAUCE (WATER, WHEAT, SOYBEANS, SALT), DISTILLED VINEGAR, GINGER, LESS THAN 2%: SESAME OIL, SESAME SEEDS, SALT, XANTHAN GUM, GARLIC*, ONION*, GINGER*, CARAMEL COLOR, PHOSPHORIC ACID, POTASSIUM SORBATE AND SODIUM BENZOATE AND CALCIUM DISODIUM EDTA (PRESERVATIVES), SPICES." Date available: 10/13/2017 Date last updated by company: 10/13/2017
