Source: USDA Branded Food Products Database Release December 2017 Software v.3.8.6.4 2017-10-02
Report Run at: December 19, 2017 04:21 EST
"Nutrient data for: 45291205, CHIPOTLE PEPPER IN ADOBO SAUCE, UPC: 811371100127"
Food Group:  Branded Food Products Database
Common Name:

Nutrient,Unit,Data points,Std. Error,"2.0 Tbsp = 34.0g",1Value per 100 g,
Proximates
"Energy",kcal,--,--,25,74
"Protein",g,--,--,1.00,2.94
"Total lipid (fat)",g,--,--,1.00,2.94
"Carbohydrate, by difference",g,--,--,3.00,8.82
"Fiber, total dietary",g,--,--,2.0,5.9
"Sugars, total",g,--,--,2.00,5.88
Minerals
"Calcium, Ca",mg,--,--,0,0
"Iron, Fe",mg,--,--,1.46,4.30
"Sodium, Na",mg,--,--,240,706
Vitamins
Lipids
"Fatty acids, total saturated",g,--,--,0.000,0.000
"Fatty acids, total trans",g,--,--,0.000,0.000
"Cholesterol",mg,--,--,0,0
Amino Acids
Other
Ingredients
"CHIPOTLE PEPPERS, TOMATO PURE, ONION, VINEGAR, HIGH-FRUCTOSE CORN SYRUP OR SUGAR, CORN OIL, SALT, SPICES, GARLIC." Date available: 07/14/2017 Date last updated by company: 07/14/2017
