Source: USDA Branded Food Products Database Release December 2017 Software v.3.8.6.4 2017-10-02
Report Run at: December 19, 2017 04:25 EST
"Nutrient data for: 45077033, CHIPS, UPC: 035826080400"
Food Group:  Branded Food Products Database
Common Name:

Nutrient,Unit,Data points,Std. Error,"1 Tbsp = 7.0g",1Value per 100 g,
Proximates
"Energy",kcal,--,--,25,357
"Protein",g,--,--,3.00,42.86
"Total lipid (fat)",g,--,--,1.00,14.29
"Carbohydrate, by difference",g,--,--,2.00,28.57
"Fiber, total dietary",g,--,--,1.0,14.3
Minerals
"Iron, Fe",mg,--,--,2.83,40.40
"Sodium, Na",mg,--,--,160,2286
Vitamins
Lipids
"Fatty acids, total saturated",g,--,--,0.000,0.000
"Fatty acids, total trans",g,--,--,0.000,0.000
"Cholesterol",mg,--,--,0,0
Amino Acids
Other
Ingredients
"TEXTURED VEGETABLE PROTEIN (SOY FLOUR, CARAMEL COLOR, AND FD&C RED #3), SOYBEAN OIL, SALT, NATURAL FLAVOR." Date available: 07/14/2017 Date last updated by company: 07/14/2017
