Source: USDA Branded Food Products Database Release December 2017 Software v.3.8.6.4 2017-10-02
Report Run at: December 19, 2017 04:18 EST
"Nutrient data for: 45289878, CHIPOTLE CHILI SEASONING, UPC: 041149011274"
Food Group:  Branded Food Products Database
Common Name:

Nutrient,Unit,Data points,Std. Error,"2.0 tsp = 4.0g",1Value per 100 g,
Proximates
"Energy",kcal,--,--,15,375
"Protein",g,--,--,1.00,25.00
"Total lipid (fat)",g,--,--,0.50,12.50
"Carbohydrate, by difference",g,--,--,2.00,50.00
"Fiber, total dietary",g,--,--,1.0,25.0
"Sugars, total",g,--,--,1.00,25.00
Minerals
"Calcium, Ca",mg,--,--,0,0
"Iron, Fe",mg,--,--,3.65,91.31
"Sodium, Na",mg,--,--,0,0
Vitamins
"Vitamin C, total ascorbic acid",mg,--,--,12.2,304.4
"Vitamin A, IU",IU,--,--,7608,190200
Lipids
"Fatty acids, total saturated",g,--,--,0.000,0.000
"Fatty acids, total trans",g,--,--,0.000,0.000
"Cholesterol",mg,--,--,0,0
Amino Acids
Other
Ingredients
"CHILI PEPPERS AND OTHER SPICES, DEHYDRATED GARLIC AND ONION, CHIPOTLE PEPPER, NATURAL MESQUITE SMOKE FLAVOR (MALTODEXTRIN), DISODIUMINOSINATE, DISODIUMGUANYLATE." Date available: 07/14/2017 Date last updated by company: 07/14/2017
