Source: USDA Branded Food Products Database Release December 2017 Software v.3.8.6.4 2017-10-02
Report Run at: December 19, 2017 04:21 EST
"Nutrient data for: 45279712, CHIPOTLE PEPPER STUFFED JALAPENOS, UPC: 075450149883"
Food Group:  Branded Food Products Database
Common Name:

Nutrient,Unit,Data points,Std. Error,"3.0 PIECES = 91.0g",1Value per 100 g,
Proximates
"Energy",kcal,--,--,290,319
"Protein",g,--,--,3.00,3.30
"Total lipid (fat)",g,--,--,18.00,19.78
"Carbohydrate, by difference",g,--,--,25.00,27.47
"Fiber, total dietary",g,--,--,1.0,1.1
"Sugars, total",g,--,--,1.00,1.10
Minerals
"Calcium, Ca",mg,--,--,40,44
"Iron, Fe",mg,--,--,0.34,0.37
"Sodium, Na",mg,--,--,630,692
Vitamins
"Vitamin C, total ascorbic acid",mg,--,--,0.0,0.0
"Vitamin A, IU",IU,--,--,187,205
Lipids
"Fatty acids, total saturated",g,--,--,5.997,6.590
"Fatty acids, total trans",g,--,--,0.000,0.000
"Cholesterol",mg,--,--,20,22
Amino Acids
Other
Ingredients
"CHIPOTLE AND CREAM CHEESE STUFFED JALAPENO (CREAM CHEESE [PASTEURIZED MILK AND CREAM, CHEESE CULTURE, SALT, CAROB BEAN GUM, GUAR GUM], RED JALAPENO PEPPERS [PEPPERS, WATER, SALT, ACETIC ACID, SODIUM BENZOATE {AS A PRESERVATIVE}], CHIPOTLE PEPPERS IN ADOBO SAUCE [CHIPOTLE PEPPERS IN TOMATO SAUCE, VINEGAR, WATER, SALT], MODIFIED CORN STARCH, SPICE AND/OR SPICE EXTRACTIVE), BLEACHED WHEAT FLOUR, VEGETABLE OIL (SOYBEAN AND/OR CANOLA), WATER, WHEAT FLOUR, YELLOW CORN FLOUR, UNBLEACHED ENRICHED FLOUR (WHEAT FLOUR, NIACIN, REDUCED IRON, THIAMINE MONONITRATE, RIBOFLAVIN, FOLIC ACID), MODIFIED FOOD STARCH, SOYBEAN OIL, SALT, YEAST EXTRACT, DRIED WHEY, IODIZED SALT, SUGAR, DEXTROSE, LEAVENING (SODIUM ACID PYROPHOSPHATE, SODIUM BICARBONATE), YEAST, DRIED GARLIC, DRIED ONION, SODIUM ALGINATE, MALTODEXTRIN, VINEGAR, SPICE AND/OR SPICE EXTRACTIVE, OLEORESIN IN PAPRIKA, PAPRIKA EXTRACT (COLOR), CARAMEL COLOR, ANNATTO EXTRACT (COLOR)." Date available: 07/14/2017 Date last updated by company: 07/14/2017
