Source: USDA Branded Food Products Database Release December 2017 Software v.3.8.6.4 2017-10-02
Report Run at: December 19, 2017 04:21 EST
"Nutrient data for: 45288987, CHIPOTLE PEPPER PUREE, UPC: 041224457386"
Food Group:  Branded Food Products Database
Common Name:

Nutrient,Unit,Data points,Std. Error,"0.25 cup = 62.0g",1Value per 100 g,
Proximates
"Energy",kcal,--,--,15,24
"Protein",g,--,--,0.00,0.00
"Total lipid (fat)",g,--,--,0.00,0.00
"Carbohydrate, by difference",g,--,--,3.00,4.84
"Fiber, total dietary",g,--,--,1.0,1.6
"Sugars, total",g,--,--,1.00,1.61
Minerals
"Calcium, Ca",mg,--,--,0,0
"Iron, Fe",mg,--,--,0.76,1.22
"Sodium, Na",mg,--,--,800,1290
Vitamins
"Vitamin C, total ascorbic acid",mg,--,--,88.0,142.0
"Vitamin A, IU",IU,--,--,420,677
Lipids
"Fatty acids, total saturated",g,--,--,0.000,0.000
"Fatty acids, total trans",g,--,--,0.000,0.000
"Cholesterol",mg,--,--,0,0
Amino Acids
Other
Ingredients
"SMOKED RED JALAPENO PEPPERS, SUGAR CANE VINEGAR, SUGAR, SALT, TOMATO PASTE." Date available: 10/04/2017 Date last updated by company: 10/04/2017
