Source: USDA Branded Food Products Database Release December 2017 Software v.3.8.6.4 2017-10-02
Report Run at: December 19, 2017 04:17 EST
"Nutrient data for: 45066545, CHIPOTLE BLACK BEAN DIP, UPC: 033907510013"
Food Group:  Branded Food Products Database
Common Name:

Nutrient,Unit,Data points,Std. Error,"2.0 Tbsp = 30.0g",1Value per 100 g,
Proximates
"Energy",kcal,--,--,32,107
"Protein",g,--,--,1.00,3.33
"Total lipid (fat)",g,--,--,0.00,0.00
"Carbohydrate, by difference",g,--,--,4.00,13.33
Minerals
"Calcium, Ca",mg,--,--,20,67
"Iron, Fe",mg,--,--,2.40,8.00
"Sodium, Na",mg,--,--,120,400
Vitamins
"Vitamin C, total ascorbic acid",mg,--,--,1.0,3.3
Lipids
"Fatty acids, total saturated",g,--,--,0.000,0.000
"Fatty acids, total trans",g,--,--,0.000,0.000
Amino Acids
Other
Ingredients
"WATER, BLACK BEAN, TOMATO, NATURAL FLAVOR (WATER, HYDROLYZED YEAST, NATURAL FLAVOR, LACTIC ACID) ONION, SALT, MORITA PEPPER, LEMON JUICE, AND GARLIC." Date available: 10/18/2017 Date last updated by company: 10/18/2017
