Source: USDA Branded Food Products Database Release December 2017 Software v.3.8.6.4 2017-10-02
Report Run at: December 19, 2017 04:23 EST
"Nutrient data for: 45292828, CHIPOTLE SALSA, UPC: 046567025155"
Food Group:  Branded Food Products Database
Common Name:

Nutrient,Unit,Data points,Std. Error,"2.0 Tbsp = 31.0g",1Value per 100 g,
Proximates
"Energy",kcal,--,--,10,32
"Protein",g,--,--,0.00,0.00
"Total lipid (fat)",g,--,--,0.00,0.00
"Carbohydrate, by difference",g,--,--,3.00,9.68
"Fiber, total dietary",g,--,--,1.0,3.2
"Sugars, total",g,--,--,1.00,3.23
Minerals
"Calcium, Ca",mg,--,--,0,0
"Iron, Fe",mg,--,--,0.00,0.00
"Sodium, Na",mg,--,--,230,742
Vitamins
"Vitamin C, total ascorbic acid",mg,--,--,0.0,0.0
"Vitamin A, IU",IU,--,--,484,1561
Lipids
"Fatty acids, total saturated",g,--,--,0.000,0.000
"Fatty acids, total trans",g,--,--,0.000,0.000
"Cholesterol",mg,--,--,0,0
Amino Acids
Other
Ingredients
"TOMATO PUREE (WATER, TOMATO PASTE, CITRIC ACID), DICED TOMATOES IN TOMATO JUICE, GREEN CHILI PEPPERS, JALAPENO PEPPERS, DRIED ONION, DISTILLED VINEGAR, SALT, DRIED CHIPOTLE CHILI PEPPER, SUGAR, DRIED GARLIC, SPICE." Date available: 07/14/2017 Date last updated by company: 07/14/2017
