Source: USDA Branded Food Products Database Release December 2017 Software v.3.8.6.4 2017-10-02
Report Run at: December 19, 2017 04:23 EST
"Nutrient data for: 45237240, CHIPOTLE SAUCE, UPC: 853326000625"
Food Group:  Branded Food Products Database
Common Name:

Nutrient,Unit,Data points,Std. Error,"1 Tbsp = 15.0g",1Value per 100 g,
Proximates
"Energy",kcal,--,--,70,467
"Protein",g,--,--,0.00,0.00
"Total lipid (fat)",g,--,--,8.00,53.33
"Carbohydrate, by difference",g,--,--,1.00,6.67
"Fiber, total dietary",g,--,--,0.0,0.0
"Sugars, total",g,--,--,0.00,0.00
Minerals
"Sodium, Na",mg,--,--,105,700
Vitamins
"Vitamin A, IU",IU,--,--,333,2223
Lipids
"Fatty acids, total saturated",g,--,--,1.000,6.670
"Fatty acids, total trans",g,--,--,0.000,0.000
"Cholesterol",mg,--,--,5,33
Amino Acids
Other
Ingredients
"SOYBEAN OIL, WATER, DISTILLED VINEGAR, SUGAR, EGG YOLKS, SALT, SPICES, DRIED GARLIC, LEMON JUICE CONCENTRATE, CHIPOTLE PEPPERS, NATURAL FLAVORS, CITRIC ACID, XANTHAN GUM, NATURAL SMOKE FLAVORS, CARAMEL COLOR." Date available: 06/24/2017 Date last updated by company: 06/24/2017
