Source: USDA Branded Food Products Database Release December 2017 Software v.3.8.6.4 2017-10-02
Report Run at: December 19, 2017 04:24 EST
"Nutrient data for: 45275764, CHIPS DELUXE COOKIES, UPC: 030100116868"
Food Group:  Branded Food Products Database
Common Name:

Nutrient,Unit,Data points,Std. Error,"1 POUCH = 30.0g",1Value per 100 g,
Proximates
"Energy",kcal,--,--,160,533
"Protein",g,--,--,2.00,6.67
"Total lipid (fat)",g,--,--,8.00,26.67
"Carbohydrate, by difference",g,--,--,19.00,63.33
"Fiber, total dietary",g,--,--,1.0,3.3
"Sugars, total",g,--,--,9.00,30.00
Minerals
"Calcium, Ca",mg,--,--,0,0
"Iron, Fe",mg,--,--,1.20,4.00
"Sodium, Na",mg,--,--,105,350
Vitamins
"Vitamin C, total ascorbic acid",mg,--,--,0.0,0.0
"Vitamin A, IU",IU,--,--,0,0
Lipids
"Fatty acids, total saturated",g,--,--,3.501,11.670
"Fatty acids, total trans",g,--,--,0.000,0.000
"Cholesterol",mg,--,--,5,17
Amino Acids
Other
Ingredients
"ENRICHED FLOUR (WHEAT FLOUR, NIACIN, REDUCED IRON, VITAMIN B1 [THIAMIN MONONITRATE], VITAMIN B2 [RIBOFLAVIN], FOLIC ACID), SEMISWEET CHOCOLATE (CHOCOLATE, SUGAR, DEXTROSE, SOY LECITHIN, ARTIFICIAL FLAVOR), SOYBEAN AND PALM OIL, SUGAR, CONTAINS 2% OR LESS OF HIGH FRUCTOSE CORN SYRUP, CORN SYRUP, MOLASSES, SALT, EGGS, BAKING SODA, ARTIFICIAL FLAVOR, WHEY PROTEIN CONCENTRATE." Date available: 07/14/2017 Date last updated by company: 07/14/2017
