Source: USDA Branded Food Products Database Release December 2017 Software v.3.8.6.4 2017-10-02
Report Run at: December 19, 2017 04:23 EST
"Nutrient data for: 45200278, CHIPOTLE SAUCE, UPC: 700371301262"
Food Group:  Branded Food Products Database
Common Name:

Nutrient,Unit,Data points,Std. Error,"2.0 Tbsp = 35.0g",1Value per 100 g,
Proximates
"Energy",kcal,--,--,70,200
"Protein",g,--,--,0.00,0.00
"Total lipid (fat)",g,--,--,0.00,0.00
"Carbohydrate, by difference",g,--,--,17.00,48.57
"Fiber, total dietary",g,--,--,1.0,2.9
"Sugars, total",g,--,--,15.00,42.86
Minerals
"Calcium, Ca",mg,--,--,0,0
"Iron, Fe",mg,--,--,0.61,1.74
"Sodium, Na",mg,--,--,80,229
Vitamins
"Vitamin C, total ascorbic acid",mg,--,--,8.1,23.2
"Vitamin A, IU",IU,--,--,169,483
Lipids
"Fatty acids, total saturated",g,--,--,0.000,0.000
"Fatty acids, total trans",g,--,--,0.000,0.000
"Cholesterol",mg,--,--,0,0
Amino Acids
Other
Ingredients
"RASPBERRY PRESERVES (RASPBERRIES, HIGH FRUCTOSE CORN SYRUP, CORN SYRUP, FRUIT PECTIN, CITRIC ACID), FRESH RASPBERRIES, CHIPOTLE SAUCE (TOMATO PUREE, PEPPERS, SPICES), SUGAR, PEPPERS, BROWN SUGAR, APPLE CIDER VINEGAR, SALT, DEHYDRATED GARLIC, ONION POWDER, SPICES, LIQUID SMOKE (WATER, HICKORY SMOKE CONCENTRATE)." Date available: 07/14/2017 Date last updated by company: 07/14/2017
