Source: USDA Branded Food Products Database Release December 2017 Software v.3.8.6.4 2017-10-02
Report Run at: December 19, 2017 04:22 EST
"Nutrient data for: 45066556, CHIPOTLE SALSA, UPC: 854137000026"
Food Group:  Branded Food Products Database
Common Name:

Nutrient,Unit,Data points,Std. Error,"2.0 Tbsp = 31.0g",1Value per 100 g,
Proximates
"Energy",kcal,--,--,10,32
"Protein",g,--,--,0.00,0.00
"Total lipid (fat)",g,--,--,0.50,1.61
"Carbohydrate, by difference",g,--,--,1.00,3.23
"Fiber, total dietary",g,--,--,0.0,0.0
"Sugars, total",g,--,--,1.00,3.23
Minerals
"Calcium, Ca",mg,--,--,0,0
"Iron, Fe",mg,--,--,0.00,0.00
"Sodium, Na",mg,--,--,210,677
Vitamins
"Vitamin C, total ascorbic acid",mg,--,--,4.1,13.1
"Vitamin A, IU",IU,--,--,338,1090
Lipids
"Fatty acids, total saturated",g,--,--,0.000,0.000
"Fatty acids, total trans",g,--,--,0.000,0.000
"Cholesterol",mg,--,--,0,0
Amino Acids
Other
Ingredients
"TOMATOES, WATER, TOMATO PUREE, GARLIC, SEA SALT, LIME JUICE, EXTRA VIRGIN COLD PRESS OLIVE OIL, VEGETABLE FLAVOR, SPICES & HERBS, CHIPOTLE PEPPER, DEHYDRATED GARLIC, DEHYDRATED ONION, AND CANE SUGAR." Date available: 10/06/2017 Date last updated by company: 10/06/2017
