Source: USDA Branded Food Products Database Release December 2017 Software v.3.8.6.4 2017-10-02
Report Run at: December 19, 2017 04:27 EST
"Nutrient data for: 45140151, CHOBANI, MEZE GREEK YOGURT DIP, CHILI LIME, UPC: 818290014603"
Food Group:  Branded Food Products Database
Common Name:

Nutrient,Unit,Data points,Std. Error,"2.0 Tbsp = 28.0g",1Value per 100 g,
Proximates
"Energy",kcal,--,--,25,89
"Protein",g,--,--,3.00,10.71
"Total lipid (fat)",g,--,--,1.00,3.57
"Carbohydrate, by difference",g,--,--,2.00,7.14
"Fiber, total dietary",g,--,--,0.0,0.0
"Sugars, total",g,--,--,1.00,3.57
Minerals
"Calcium, Ca",mg,--,--,20,71
"Iron, Fe",mg,--,--,0.00,0.00
"Potassium, K",mg,--,--,40,143
"Sodium, Na",mg,--,--,110,393
Vitamins
"Vitamin C, total ascorbic acid",mg,--,--,0.0,0.0
"Vitamin A, IU",IU,--,--,0,0
Lipids
"Fatty acids, total saturated",g,--,--,0.501,1.790
"Fatty acids, total trans",g,--,--,0.000,0.000
"Cholesterol",mg,--,--,5,18
Amino Acids
Other
Ingredients
"YOGURT (CULTURED PASTEURIZED NONFAT MILK, CREAM), WATER, RED BELL PEPPERS, ONIONS, CELERY, SEA SALT, EVAPORATED CANE SUGAR, TAPIOCA FLOUR, SPICES, FRUIT PECTIN, NATURAL FLAVOR, GUAR GUM, GARLIC POWDER, LIME JUICE CONCENTRATE SUNFLOWER LECITHIN. CONTAINS LIVE AND ACTIVE CULTURES: S. THERMOPHILUS, L. BULGARICUS, L. ACIDOPHILUS, BIFIDUS AND L. CASEI." Date available: 07/14/2017 Date last updated by company: 07/14/2017
