Source: USDA Branded Food Products Database Release December 2017 Software v.3.8.6.4 2017-10-02
Report Run at: December 19, 2017 04:58 EST
"Nutrient data for: 45326151, CHOCOLATE COVERED RAISINS, UPC: 761706140628"
Food Group:  Branded Food Products Database
Common Name:

Nutrient,Unit,Data points,Std. Error,"24.0 PIECES = 40.0g",1Value per 100 g,
Proximates
"Energy",kcal,--,--,180,450
"Protein",g,--,--,1.00,2.50
"Total lipid (fat)",g,--,--,8.00,20.00
"Carbohydrate, by difference",g,--,--,28.00,70.00
"Fiber, total dietary",g,--,--,1.0,2.5
"Sugars, total",g,--,--,25.00,62.50
Minerals
"Calcium, Ca",mg,--,--,40,100
"Iron, Fe",mg,--,--,0.90,2.25
"Sodium, Na",mg,--,--,15,38
Vitamins
"Vitamin C, total ascorbic acid",mg,--,--,1.5,3.8
"Vitamin A, IU",IU,--,--,0,0
Lipids
"Fatty acids, total saturated",g,--,--,7.000,17.500
"Fatty acids, total trans",g,--,--,0.000,0.000
"Cholesterol",mg,--,--,0,0
Amino Acids
Other
Ingredients
"RAISINS, SUGAR, MILK CHOCOLATE (SUGAR, COCOA BUTTER, CHOCOLATE LIQUOR, WHOLE MILK POWDER, SOY LECITHIN [AN EMULSIFIER], SALT, VANILLIN [AN ARTIFICIAL FLAVORING]), HYDROGENATED PALM KERNEL AND PALM OILS, COCOA POWDER (PROCESSED WITH ALKALI), NONFAT MILK POWDER, TAPIOCA DEXTRIN, WHEY POWDER, CONFECTIONER'S GLAZE, SOY LECITHIN (AN EMULSIFIER), SALT, ARTIFICIAL FLAVOR." Date available: 08/11/2017 Date last updated by company: 08/11/2017
