Source: USDA Branded Food Products Database Release December 2017 Software v.3.8.6.4 2017-10-02
Report Run at: December 19, 2017 05:05 EST
"Nutrient data for: 45291707, CHOCOLATE FLAVORED SYRUP, UPC: 046567011981"
Food Group:  Branded Food Products Database
Common Name:

Nutrient,Unit,Data points,Std. Error,"2.0 Tbsp = 38.0g",1Value per 100 g,
Proximates
"Energy",kcal,--,--,90,237
"Protein",g,--,--,1.00,2.63
"Total lipid (fat)",g,--,--,0.00,0.00
"Carbohydrate, by difference",g,--,--,23.00,60.53
"Fiber, total dietary",g,--,--,1.0,2.6
"Sugars, total",g,--,--,21.00,55.26
Minerals
"Iron, Fe",mg,--,--,0.61,1.60
"Sodium, Na",mg,--,--,25,66
Vitamins
Lipids
Amino Acids
Other
Ingredients
"HIGH FRUCTOSE CORN SYRUP, SUGAR, WATER, CORN SYRUP, COCOA, CONTAINS 2% OR LESS OF: EMULSIFIER (MONO- AND DIGLYCERIDES, POLYSORBATE 60), ARTIFICIAL FLAVOR, PRESERVATIVE (SODIUM BENZOATE, POTASSIUM SORBATE), SALT, XANTHAN GUM, PHOSPHORIC ACID." Date available: 07/14/2017 Date last updated by company: 07/14/2017
