Source: USDA Branded Food Products Database Release December 2017 Software v.3.8.6.4 2017-10-02
Report Run at: December 19, 2017 05:34 EST
"Nutrient data for: 45093780, CHOCOLOVE, BELGIAN DARK CHOCOLATE, UPC: 716270001509"
Food Group:  Branded Food Products Database
Common Name:

Nutrient,Unit,Data points,Std. Error,"0.333 BAR = 30.0g",1Value per 100 g,
Proximates
"Energy",kcal,--,--,160,533
"Protein",g,--,--,2.00,6.67
"Total lipid (fat)",g,--,--,11.00,36.67
"Carbohydrate, by difference",g,--,--,16.00,53.33
"Fiber, total dietary",g,--,--,2.0,6.7
"Sugars, total",g,--,--,13.00,43.33
Minerals
"Calcium, Ca",mg,--,--,0,0
"Iron, Fe",mg,--,--,6.00,20.00
"Sodium, Na",mg,--,--,0,0
Vitamins
"Vitamin C, total ascorbic acid",mg,--,--,0.0,0.0
"Vitamin A, IU",IU,--,--,0,0
Lipids
"Fatty acids, total saturated",g,--,--,6.999,23.330
"Fatty acids, total trans",g,--,--,0.000,0.000
"Cholesterol",mg,--,--,0,0
Amino Acids
Other
Ingredients
"COCOA LIQUOR, SUGAR, COCOA BUTTER, SOY LECITHIN, VANILLA ," Date available: 06/25/2017 Date last updated by company: 06/25/2017
