Source: USDA Branded Food Products Database Release December 2017 Software v.3.8.6.4 2017-10-02
Report Run at: December 19, 2017 05:31 EST
"Nutrient data for: 45327033, CHOCOLATEY CANDIES, UPC: 040000519478"
Food Group:  Branded Food Products Database
Common Name:

Nutrient,Unit,Data points,Std. Error,"3.0 PACKS = 40.0g",1Value per 100 g,
Proximates
"Energy",kcal,--,--,200,500
"Protein",g,--,--,3.00,7.50
"Total lipid (fat)",g,--,--,10.00,25.00
"Carbohydrate, by difference",g,--,--,26.00,65.00
"Fiber, total dietary",g,--,--,1.0,2.5
"Sugars, total",g,--,--,21.00,52.50
Minerals
"Calcium, Ca",mg,--,--,80,200
"Iron, Fe",mg,--,--,0.18,0.45
"Sodium, Na",mg,--,--,40,100
Vitamins
"Vitamin A, IU",IU,--,--,100,250
Lipids
"Fatty acids, total saturated",g,--,--,6.000,15.000
"Fatty acids, total trans",g,--,--,0.000,0.000
"Cholesterol",mg,--,--,5,12
Amino Acids
Other
Ingredients
"SUGAR, SKIM MILK, COCOA BUTTER, GLUCOSE SYRUP SOLIDS, CHOCOLATE, LACTOSE, VEGETABLE OIL (PALM OIL, PALM KERNEL OIL), BARLEY MALT EXTRACT, MILKFAT, LESS THAN 2% - SOY LECITHIN, SORBITAN TRISTEARATE, LEAVENING (MONOCALCIUM PHOSPHATE, POTASSIUM BICARBONATE, BAKING SODA), WHEAT SYRUP, ARTIFICIAL FLAVORS, PECTIN." Date available: 10/13/2017 Date last updated by company: 10/13/2017
