Source: USDA Branded Food Products Database Release December 2017 Software v.3.8.6.4 2017-10-02
Report Run at: December 19, 2017 04:59 EST
"Nutrient data for: 45307777, CHOCOLATE CREME CUPCAKES, UPC: 076515001191"
Food Group:  Branded Food Products Database
Common Name:

Nutrient,Unit,Data points,Std. Error,"1 CUPCAKE = 45.0g",1Value per 100 g,
Proximates
"Energy",kcal,--,--,180,400
"Protein",g,--,--,1.00,2.22
"Total lipid (fat)",g,--,--,7.00,15.56
"Carbohydrate, by difference",g,--,--,29.00,64.44
"Fiber, total dietary",g,--,--,1.0,2.2
"Sugars, total",g,--,--,22.00,48.89
Minerals
"Calcium, Ca",mg,--,--,20,44
"Iron, Fe",mg,--,--,1.92,4.27
"Sodium, Na",mg,--,--,130,289
Vitamins
"Vitamin C, total ascorbic acid",mg,--,--,0.0,0.0
"Vitamin A, IU",IU,--,--,0,0
Lipids
"Fatty acids, total saturated",g,--,--,1.998,4.440
"Fatty acids, total monounsaturated",g,--,--,3.001,6.670
"Fatty acids, total polyunsaturated",g,--,--,1.498,3.330
"Fatty acids, total trans",g,--,--,0.000,0.000
"Cholesterol",mg,--,--,30,67
Amino Acids
Other
Ingredients
"SUGAR, VEGETABLE OILS (CANOLA AND/OR SOYBEAN, PALM AND PALM KERNEL OILS), ENRICHED BLEACHED FLOUR (BLEACHED WHEAT FLOUR, THIAMIN MONONITRATE, RIBOFLAVIN, NIACIN, REDUCED IRON, FOLIC ACID), EGGS, CORN SYRUP, WATER, GLYCERIN, COCOA (PROCESSED WITH ALKALI), INVERT SUGAR, COCOA, CORNSTARCH, LEAVENING (CORNSTARCH, BAKING SODA, SODIUM ALUMINUM PHOSPHATE AND/OR SULFATE, SODIUM AND/OR CALCIUM ACID PYROPHOSPHATE, MONOCALCIUM PHOSPHATE, CALCIUM SULFATE, POTASSIUM BICARBONATE), MODIFIED CORNSTARCH, NONFAT MILK, EMULSIFIERS (SORBITAN MONOSTEARATE, MONOGLYCERIDES, SOY LECITHIN, POLYSORBATE 60), PROPYLENE GLYCOL, WHEY, SALT, NATURAL AND ARTIFICIAL FLAVORS, DEXTROSE, PRESERVATIVES (POTASSIUM SORBATE, SORBIC ACID), GUMS (XANTHAN, AGAR, LOCUST BEAN), CALCIUM CARBONATE, CALCIUM SULFATE, ARTIFICIAL COLOR, SODIUM BISULFATE, SODIUM HEXAMETAPHOSPHATE." Date available: 07/14/2017 Date last updated by company: 07/14/2017
