Source: USDA Branded Food Products Database Release December 2017 Software v.3.8.6.4 2017-10-02
Report Run at: December 19, 2017 05:21 EST
"Nutrient data for: 45207227, CHOCOLATE PULL-A-PART CUPCAKES, UPC: 011110458674"
Food Group:  Branded Food Products Database
Common Name:

Nutrient,Unit,Data points,Std. Error,"0.142 CAKE = 52.0g",1Value per 100 g,
Proximates
"Energy",kcal,--,--,210,404
"Protein",g,--,--,2.00,3.85
"Total lipid (fat)",g,--,--,9.00,17.31
"Carbohydrate, by difference",g,--,--,30.00,57.69
"Fiber, total dietary",g,--,--,0.8,1.5
"Sugars, total",g,--,--,24.00,46.15
Minerals
"Calcium, Ca",mg,--,--,20,38
"Iron, Fe",mg,--,--,0.56,1.07
"Sodium, Na",mg,--,--,190,365
Vitamins
"Vitamin C, total ascorbic acid",mg,--,--,0.0,0.0
"Vitamin A, IU",IU,--,--,0,0
Lipids
"Fatty acids, total saturated",g,--,--,3.000,5.770
"Fatty acids, total trans",g,--,--,0.000,0.000
"Cholesterol",mg,--,--,10,19
Amino Acids
Other
Ingredients
"CAKE SUGAR, ENRICHED BLEACHED WHEAT FLOUR (WHEAT FLOUR, NIACIN, REDUCED IRON, THIAMINE MONONITRATE, RIBOFLAVIN, FOLIC ACID) EGG WHITES, SOYBEAN OIL, EGGS, SKIM MILK, COCOA ALKALI PROCESSED, WATER, CONTAINS LESS THAN 2% OF THE FOLLOWING: LEAVENING (BAKING SODA, SODIUM ACID PYROPHOSPHATE, MONOCALCIUM PHOSPHATE), PROPYLENE GLYCOL MONO AND DIESTERS OF FAT3 AND FATTY ACIDS, WHEY (A MILK DERIVATIVE), SALT, MODIFIED TAPIOCA STARCH, MONO AND DIGLYCERIDES, NATURAL AND ARTIFICIAL FLAVOR, SODIUM CASEINATE (A MILK DERIVATIVE), POLYSORBATE 60, MODIFIED CORN STARCH, WHEAT STARCH, GUAR GUM, CORN SYRUP SOLIDS, XANTHAN GUM, SODIUM STEAROYL LACTYLATE, SOY LECITHIN, WHITE ICING, SUGAR, VEGETABLE SHORTENING INTERESTERIFIED SOYBEAN OIL, SOYBEAN OIL, HYDROGENATED COTTONSEED OIL, MONO AND DIGLYCERIDES, POLYSORBATE 60, CORN SYRUP, WATER, CONTAINS LESS THAN 2% OF SALT, CITRIC ACID, CORN STARCH, NATURAL AND ARTIFICIAL FLAVOR, DEXTROSE, TITANIUM DIOXIDE (FOR COLOR), POTASSIUM SORBATE (PRESERVATIVE) CHOCOLATE ICING ALSO CONTAINS COCOA PROCESSED WITH ALKALI, COLORED ICING ALSO CONTAINS SHORTENING [PALM OIL, CANOLA AND/OR SOYBEAN OIL, MONO AND DIGLYCERIDES, POLYSORBATE 60, TBHQ (PRESERVATIVES), CONTAINS LESS THAN 2% OF GUAR GUM, PHOSPHORICACID, SODIUM BENZOATE (PRESERVATIVE), BLUE 1, YELLOW 5, YELLOW 6, RED 40, RED 40 LAKE, CORN STARCH, ARABIC GUM, XANTHAN GUM, TITANIUM DIOXIDE (FOR COLOR), YELLOW 5, YELLOW 6, BLUE 1, RED 3, RED 40, BLUE 1 LAKE, POLYSORBATE 60." Date available: 07/14/2017 Date last updated by company: 07/14/2017
