Source: USDA Branded Food Products Database Release December 2017 Software v.3.8.6.4 2017-10-02
Report Run at: December 19, 2017 04:47 EST
"Nutrient data for: 45289994, CHOCOLATE CHIP COOKIE THINS, UPC: 817974021029"
Food Group:  Branded Food Products Database
Common Name:

Nutrient,Unit,Data points,Std. Error,"7.0 COOKIES | ABOUT = 28.0g",1Value per 100 g,
Proximates
"Energy",kcal,--,--,140,500
"Protein",g,--,--,0.00,0.00
"Total lipid (fat)",g,--,--,8.00,28.57
"Carbohydrate, by difference",g,--,--,16.00,57.14
"Fiber, total dietary",g,--,--,0.0,0.0
"Sugars, total",g,--,--,10.00,35.71
Minerals
"Calcium, Ca",mg,--,--,0,0
"Iron, Fe",mg,--,--,1.29,4.59
"Potassium, K",mg,--,--,0,0
"Sodium, Na",mg,--,--,110,393
Vitamins
"Vitamin D",IU,--,--,0,0
Lipids
"Fatty acids, total saturated",g,--,--,2.999,10.710
"Fatty acids, total trans",g,--,--,0.000,0.000
"Cholesterol",mg,--,--,20,71
Amino Acids
Other
Ingredients
"ENRICHED UNBLEACHED FLOUR (WHEAT FLOUR, NIACIN, REDUCED IRON, THIAMIN MONONITRATE, RIBOFLAVIN, FOLIC ACID), SEMISWEET CHOCOLATE (CANE SUGAR, UNSWEETENED CHOCOLATE, COCOA BUTTER, DEXTROSE, SOY LECITHIN [AN EMULSIFIER], NATURAL VANILLA EXTRACT), BUTTER (CREAM [MILK] SALT), BROWN SUGAR, CANE SUGAR, WHOLE EGG, NATURAL VANILLA FLAVOR, SALT, BAKING SODA." Date available: 09/22/2017 Date last updated by company: 09/22/2017
