Source: USDA Branded Food Products Database Release December 2017 Software v.3.8.6.4 2017-10-02
Report Run at: December 19, 2017 05:26 EST
"Nutrient data for: 45210541, CHOCOLATES, UPC: 813387015983"
Food Group:  Branded Food Products Database
Common Name:

Nutrient,Unit,Data points,Std. Error,"2.0 PIECES = 38.0g",1Value per 100 g,
Proximates
"Energy",kcal,--,--,150,395
"Protein",g,--,--,1.00,2.63
"Total lipid (fat)",g,--,--,5.00,13.16
"Carbohydrate, by difference",g,--,--,25.00,65.79
"Fiber, total dietary",g,--,--,0.0,0.0
"Sugars, total",g,--,--,17.00,44.74
Minerals
"Calcium, Ca",mg,--,--,20,53
"Iron, Fe",mg,--,--,0.47,1.25
"Sodium, Na",mg,--,--,190,500
Vitamins
"Vitamin C, total ascorbic acid",mg,--,--,0.0,0.0
"Vitamin A, IU",IU,--,--,0,0
Lipids
"Fatty acids, total saturated",g,--,--,4.001,10.530
"Fatty acids, total trans",g,--,--,0.000,0.000
"Cholesterol",mg,--,--,0,0
Amino Acids
Other
Ingredients
"CORN SYRUP, MILK/DARK CHOCOLATE (CHOCOLATE LIQUOR, SUGAR, WHOLE/NONFAT DRY MILK, COCOA BUTTER, SOY LECITHIN-EMULSIFIER, NATURAL VANILLA FLAVOR), SUGAR, EVAPORATED MILK (MILK, DIPOTASSIUM PHOSPHATE, CARRAGEENAN, VITAMIN D3), PALM KERNEL OIL (PARTIALLY HYDROGENATED PALM KERNEL OIL, SOY LECITHIN, CITRIC ACID), CHOCOLATE COATING (SUGAR, PARTIALLY HYDROGENATED PALM/PALM KERNEL OILS, DUTCHED COCOA, NONFAT DRY MILK, DRIED WHEY, SOY LECITHIN-EMULSIFIER, SALT, ARTIFICIAL FLAVOR), CONTAINS LESS THAN 2%: SEA SALT, NATURAL AND ARTIFICIAL FLAVORS, SALT, CARAMEL COLOR." Date available: 07/14/2017 Date last updated by company: 07/14/2017
