Source: USDA Branded Food Products Database Release December 2017 Software v.3.8.6.4 2017-10-02
Report Run at: December 19, 2017 05:05 EST
"Nutrient data for: 45204649, CHOCOLATE FUDGE BARS, UPC: 864547000042"
Food Group:  Branded Food Products Database
Common Name:

Nutrient,Unit,Data points,Std. Error,"1 BAR = 34.0g",1Value per 100 g,
Proximates
"Energy",kcal,--,--,140,412
"Protein",g,--,--,4.00,11.76
"Total lipid (fat)",g,--,--,7.00,20.59
"Carbohydrate, by difference",g,--,--,19.00,55.88
"Fiber, total dietary",g,--,--,2.0,5.9
"Sugars, total",g,--,--,7.00,20.59
Minerals
"Calcium, Ca",mg,--,--,20,59
"Iron, Fe",mg,--,--,2.12,6.23
"Sodium, Na",mg,--,--,35,103
Vitamins
"Vitamin C, total ascorbic acid",mg,--,--,0.0,0.0
"Vitamin A, IU",IU,--,--,0,0
Lipids
"Fatty acids, total saturated",g,--,--,1.999,5.880
"Fatty acids, total trans",g,--,--,0.000,0.000
"Cholesterol",mg,--,--,0,0
Amino Acids
Other
Ingredients
"CASHEWS, ORGANIC TAPIOCA SYRUP, DATES, SEMI-SWEET CHOCOLATE CHIPS (SUGAR, UNSWEETENED CHOCOLATE, COCOA BUTTER, SOY LECITHIN, VANILLA EXTRACT), ALMONDS, ALKALIZED COCOA, UNSWEETENED CHOCOLATE, ORGANIC TOASTED QUINOA, SEA SALT, VANILLA EXTRACT." Date available: 07/14/2017 Date last updated by company: 07/14/2017
