Source: USDA Branded Food Products Database Release December 2017 Software v.3.8.6.4 2017-10-02
Report Run at: December 19, 2017 05:04 EST
"Nutrient data for: 45329217, CHOCOLATE FILLED SHORTBREAD COOKIES, UPC: 231424602994"
Food Group:  Branded Food Products Database
Common Name:

Nutrient,Unit,Data points,Std. Error,"1 COOKIE = 43.0g",1Value per 100 g,
Proximates
"Energy",kcal,--,--,200,465
"Protein",g,--,--,2.00,4.65
"Total lipid (fat)",g,--,--,11.00,25.58
"Carbohydrate, by difference",g,--,--,25.00,58.14
"Fiber, total dietary",g,--,--,0.0,0.0
"Sugars, total",g,--,--,12.00,27.91
Minerals
"Calcium, Ca",mg,--,--,0,0
"Iron, Fe",mg,--,--,0.84,1.95
"Sodium, Na",mg,--,--,105,244
Vitamins
"Vitamin C, total ascorbic acid",mg,--,--,0.0,0.0
"Vitamin A, IU",IU,--,--,349,812
Lipids
"Fatty acids, total saturated",g,--,--,5.998,13.950
"Fatty acids, total trans",g,--,--,0.000,0.000
"Cholesterol",mg,--,--,25,58
Amino Acids
Other
Ingredients
"UNBLEACHED, UNBROMATED FLOUR (WHEAT FLOUR, MALTED BARLEY FLOUR, NIACIN, REDUCED IRON, THIAMINE MONONITRATE, RIBOFLAVIN, FOLIC ACID), BUTTER (CREAM), DARK CHOCOLATE FILLING (SUGAR, SOYBEAN OIL, COCOA POWDER, COCOA POWDER WITH ALKALI, CHOCOLATE LIQUOR, SOY LECITHIN, PALM OIL, VANILLA EXTRACT, MILK), SUGAR, CONFECTIONER""S SUGAR (GRANULATED SUGAR & CORNSTARCH), PURE VANILLA FLAVOR, SEA SALT." Date available: 10/13/2017 Date last updated by company: 10/13/2017
