Source: USDA Branded Food Products Database Release December 2017 Software v.3.8.6.4 2017-10-02
Report Run at: December 19, 2017 05:11 EST
"Nutrient data for: 45230696, CHOCOLATE LOWFAT MILK, UPC: 093966005714"
Food Group:  Branded Food Products Database
Common Name:

Nutrient,Unit,Data points,Std. Error,"6.75 OZA = 200.0g",1Value per 100 g,
Proximates
"Energy",kcal,--,--,130,65
"Protein",g,--,--,7.00,3.50
"Total lipid (fat)",g,--,--,2.00,1.00
"Carbohydrate, by difference",g,--,--,20.00,10.00
"Fiber, total dietary",g,--,--,1.0,0.5
"Sugars, total",g,--,--,19.00,9.50
Minerals
"Calcium, Ca",mg,--,--,250,125
"Iron, Fe",mg,--,--,0.86,0.43
"Sodium, Na",mg,--,--,190,95
Vitamins
"Vitamin C, total ascorbic acid",mg,--,--,0.0,0.0
"Vitamin A, IU",IU,--,--,600,300
"Vitamin D",IU,--,--,80,40
Lipids
"Fatty acids, total saturated",g,--,--,1.500,0.750
"Fatty acids, total trans",g,--,--,0.000,0.000
"Cholesterol",mg,--,--,10,5
Amino Acids
Other
Ingredients
"ORGANIC GRADE A LOWFAT MILK, ORGANIC FAIR TRADE UNREFINED CANE SUGAR, ORGANIC FAIR TRADE DUTCH COCOA, SALT, GELLAN GUM, VITAMIN A PALMITATE, VITAMIN D3." Date available: 07/14/2017 Date last updated by company: 07/14/2017
