Source: USDA Branded Food Products Database Release December 2017 Software v.3.8.6.4 2017-10-02
Report Run at: December 19, 2017 05:01 EST
"Nutrient data for: 45331142, CHOCOLATE DIPPED GREEK YOGURT BAR, UPC: 014353120179"
Food Group:  Branded Food Products Database
Common Name:

Nutrient,Unit,Data points,Std. Error,"1 BAR = 50.0g",1Value per 100 g,
Proximates
"Energy",kcal,--,--,110,220
"Protein",g,--,--,6.00,12.00
"Total lipid (fat)",g,--,--,5.00,10.00
"Carbohydrate, by difference",g,--,--,11.00,22.00
"Fiber, total dietary",g,--,--,0.0,0.0
"Sugars, total",g,--,--,10.00,20.00
Minerals
"Calcium, Ca",mg,--,--,20,40
"Iron, Fe",mg,--,--,2.45,4.90
"Sodium, Na",mg,--,--,20,40
Vitamins
"Vitamin C, total ascorbic acid",mg,--,--,0.0,0.0
"Vitamin A, IU",IU,--,--,1190,2380
Lipids
"Fatty acids, total saturated",g,--,--,4.000,8.000
"Fatty acids, total trans",g,--,--,0.000,0.000
"Cholesterol",mg,--,--,2,4
Amino Acids
Other
Ingredients
"STRAINED YOGURT (PASTEURIZED LOW FATMILK, ACTIVE CULTURES), CHOCOLATE GLAZE (COCOA, GRANULATED SUGAR, PALM KERNEL OIL, SOY LECITHIN, MILK SOLIDS, SALT), GRANULATED SUGAR, BUTTER, INSTANT COFFEE, XANTHAN GUM, POTASSIUM SORBATE." Date available: 10/13/2017 Date last updated by company: 10/13/2017
