Source: USDA Branded Food Products Database Release December 2017 Software v.3.8.6.4 2017-10-02
Report Run at: December 19, 2017 05:13 EST
"Nutrient data for: 45178632, CHOCOLATE MINI BUNDT CAKES, UPC: 698881918868"
Food Group:  Branded Food Products Database
Common Name:

Nutrient,Unit,Data points,Std. Error,"1 CAKE = 43.0g",1Value per 100 g,
Proximates
"Energy",kcal,--,--,190,442
"Protein",g,--,--,2.00,4.65
"Total lipid (fat)",g,--,--,9.00,20.93
"Carbohydrate, by difference",g,--,--,25.00,58.14
"Fiber, total dietary",g,--,--,1.0,2.3
"Sugars, total",g,--,--,16.00,37.21
Minerals
"Calcium, Ca",mg,--,--,0,0
"Iron, Fe",mg,--,--,1.34,3.11
"Sodium, Na",mg,--,--,110,256
Vitamins
"Vitamin C, total ascorbic acid",mg,--,--,0.0,0.0
"Vitamin A, IU",IU,--,--,1395,3245
Lipids
"Fatty acids, total saturated",g,--,--,1.501,3.490
"Fatty acids, total trans",g,--,--,0.000,0.000
"Cholesterol",mg,--,--,35,81
Amino Acids
Other
Ingredients
"WATER, SUGAR, ENRICHED FLOUR BLEACHED (WHEAT FLOUR, MALTED BARLEY FLOUR, NIACIN, REDUCED IRON, THIAMINE MONONITRATE, RIBOFLAVIN, FOLIC ACID), EGGS, SOYBEAN OIL, HIGH FRUCTOSE CORN SYRUP, FOOD STARCH- MODIFIED, COCOA PROCESSED WITH ALKALI. CONTAINS LESS THAN 2 % OF EACH OF THE FOLLOWING: WHEY, LEAVENING (SODIUM ALUMINUM PHOSPHATE, BAKING SODA), SALT, PALM OIL, NATURAL AND ARTIFICIAL FLAVORS, EMULSIFIER BLEND (PROPYLENE GLYCOL MONO-AND DIESTERS OF FATS AND FATTY ACIDS, MONO- AND DIGLYCERIDES, SODIUM STEAROYL LACTYLATE, ASCORBIC ACID PRESERVATIVE), XANTHAN GUM, SODIUM ALGINATE, TITANIUM DIOXIDE COLOR, CORN SYRUP, PROPYLENE GLYCOL, AGAR-AGAR, SORBIC ACID PRESERVATIVE, GUAR GUM, SODIUM BENZOATE PRESERVATIVE, RED COLOR 40, RED COLOR 3, CARAMEL COLOR, GLYCERIN, CITRIC ACID, DEXTROSE, CORN STARCH, POLYSORBATE 80, CORN SYRUP SOLIDS, POTASSIUM SORBATE PRESERVATIVE, SODIUM CITRATE, CARNAUBA WAX." Date available: 10/10/2017 Date last updated by company: 10/10/2017
