Source: USDA Branded Food Products Database Release December 2017 Software v.3.8.6.4 2017-10-02
Report Run at: December 19, 2017 05:10 EST
"Nutrient data for: 45123677, CHOCOLATE ICE CREAM WITH PEANUT BUTTER CUPS AND FAMOUS MOOSE TRACKS FUDGE, UPC: 738248000093"
Food Group:  Branded Food Products Database
Common Name:

Nutrient,Unit,Data points,Std. Error,"0.5 cup = 71.0g",1Value per 100 g,
Proximates
"Energy",kcal,--,--,180,254
"Protein",g,--,--,3.00,4.23
"Total lipid (fat)",g,--,--,11.00,15.49
"Carbohydrate, by difference",g,--,--,21.00,29.58
"Fiber, total dietary",g,--,--,2.0,2.8
"Sugars, total",g,--,--,15.00,21.13
Minerals
"Calcium, Ca",mg,--,--,60,85
"Iron, Fe",mg,--,--,0.81,1.14
"Sodium, Na",mg,--,--,60,85
Vitamins
"Vitamin C, total ascorbic acid",mg,--,--,0.0,0.0
"Vitamin A, IU",IU,--,--,225,317
Lipids
"Fatty acids, total saturated",g,--,--,5.999,8.450
"Fatty acids, total trans",g,--,--,0.000,0.000
"Cholesterol",mg,--,--,25,35
Amino Acids
Other
Ingredients
"MILKFAT AND NONFAT MILK, CHOCOLATE FUDGE [POWDERED SUGAR (SUGAR, CORNSTARCH), PEANUT OIL, COCOA (PROCESSED WITH ALKALI), WHEY, SALT, SOY LECITHIN], SUGAR, CORN SYRUP, PEANUT BUTTER CUPS {COATING [SUGAR, COCONUT OIL, COCOA PROCESSED WITH ALKALI, NONFAT MILK, MILK, SOY LECITHIN (EMULSIFIER), NATURAL FLAVORS], PEANUT BUTTER [PEANUTS, SALT]}, HIGH FRUCTOSE CORN SYRUP, COCOA (PROCESSED WITH ALKALI), SWEETCREAM BUTTERMILK, WHEY, CONTAINS LESS THAN 2% OF GUAR GUM, MONO & DIGLYCERIDES, XANTHAN GUM, POLYSORBATE 80, CELLULOSE GUM, CARRAGEENAN, NATURAL AND ARTIFICIAL FLAVORS, ANNATTO (COLOR)." Date available: 07/14/2017 Date last updated by company: 07/14/2017
