Source: USDA Branded Food Products Database Release December 2017 Software v.3.8.6.4 2017-10-02
Report Run at: December 19, 2017 05:33 EST
"Nutrient data for: 45117778, CHOCOLAT-MENIER, SWEET CHOCOLATE, UPC: 076136103007"
Food Group:  Branded Food Products Database
Common Name:

Nutrient,Unit,Data points,Std. Error,"1 FINGER = 33.1g",1Value per 100 g,
Proximates
"Energy",kcal,--,--,160,483
"Protein",g,--,--,2.00,6.04
"Total lipid (fat)",g,--,--,7.00,21.15
"Carbohydrate, by difference",g,--,--,23.00,69.49
"Fiber, total dietary",g,--,--,1.0,3.0
"Sugars, total",g,--,--,20.00,60.42
Minerals
"Calcium, Ca",mg,--,--,20,60
"Iron, Fe",mg,--,--,0.54,1.64
"Sodium, Na",mg,--,--,30,91
Vitamins
"Vitamin C, total ascorbic acid",mg,--,--,0.0,0.0
"Vitamin A, IU",IU,--,--,0,0
Lipids
"Fatty acids, total saturated",g,--,--,3.499,10.570
"Fatty acids, total trans",g,--,--,0.000,0.000
"Cholesterol",mg,--,--,0,0
Amino Acids
Other
Ingredients
"SUGAR, CHOCOLATE LIQUOR, COCOA BUTTER, VANILLIN (AN ARTIFICIAL FLAVOR), SOY LECITHIN AND SALT." Date available: 06/25/2017 Date last updated by company: 06/25/2017
