Source: USDA Branded Food Products Database Release December 2017 Software v.3.8.6.4 2017-10-02
Report Run at: December 19, 2017 04:33 EST
"Nutrient data for: 45273015, CHOCOLATE BISCOTTI, UPC: 851040006183"
Food Group:  Branded Food Products Database
Common Name:

Nutrient,Unit,Data points,Std. Error,"56.0 GRM = 56.0g",1Value per 100 g,
Proximates
"Energy",kcal,--,--,250,446
"Protein",g,--,--,3.00,5.36
"Total lipid (fat)",g,--,--,14.00,25.00
"Carbohydrate, by difference",g,--,--,30.00,53.57
"Fiber, total dietary",g,--,--,2.0,3.6
"Sugars, total",g,--,--,17.00,30.36
Minerals
"Calcium, Ca",mg,--,--,40,71
"Iron, Fe",mg,--,--,1.28,2.29
"Sodium, Na",mg,--,--,65,116
Vitamins
"Vitamin C, total ascorbic acid",mg,--,--,0.0,0.0
"Vitamin A, IU",IU,--,--,268,479
Lipids
"Fatty acids, total saturated",g,--,--,7.000,12.500
"Fatty acids, total monounsaturated",g,--,--,3.998,7.140
"Fatty acids, total polyunsaturated",g,--,--,0.498,0.890
"Fatty acids, total trans",g,--,--,0.000,0.000
"Cholesterol",mg,--,--,45,80
Amino Acids
Other
Ingredients
"KING ARTHUR ARTISAN WHEAT FLOUR (UNBLEACHED, UNBROMATED HARDSPRING WHEAT FLOUR, MALTED BARLEY FLOUR, NIACIN, REDUCED IRON, THIAMIN MONONITRATE, RIBOFLAVIN, FOLIC ACID) (WHEAT), BUTTER (CREAM, NATURAL FLAVORING) (MILK), SUGAR, SEMI-SWEET CHOCOLATE CHUNKS (SUGAR, UNSWEETENED CHOCOLATE, COCOA BUTTER, UNSWEETENED CHOCOLATE PROCESSED WITH ALKALI, SOY LECITHIN (AN EMULSIFIER), SALT) (SOYBEANS), MILK CHOCOLATE CHIPS (SUGAR, COCOA BUTTER, FULL CREAM MILK POWDER, COCOA LIQUOR, LECITHIN, VANILLA, COCOA) (MILK, SOYBEANS), CAGE FREE EGGS (EGG), DUTCH COCOA POWDER, BAKING POWDER, SALT." Date available: 07/14/2017 Date last updated by company: 07/14/2017
