Source: USDA Branded Food Products Database Release December 2017 Software v.3.8.6.4 2017-10-02
Report Run at: December 19, 2017 05:10 EST
"Nutrient data for: 45273570, CHOCOLATE ICED GLAZED DOUGHNUTS, UPC: 072470002266"
Food Group:  Branded Food Products Database
Common Name:

Nutrient,Unit,Data points,Std. Error,"1 DOUGHNUT = 63.0g",1Value per 100 g,
Proximates
"Energy",kcal,--,--,240,381
"Protein",g,--,--,3.00,4.76
"Total lipid (fat)",g,--,--,11.00,17.46
"Carbohydrate, by difference",g,--,--,33.00,52.38
"Fiber, total dietary",g,--,--,1.0,1.6
"Sugars, total",g,--,--,20.00,31.75
Minerals
"Calcium, Ca",mg,--,--,40,63
"Iron, Fe",mg,--,--,0.94,1.50
"Potassium, K",mg,--,--,35,56
"Sodium, Na",mg,--,--,90,143
Vitamins
"Vitamin C, total ascorbic acid",mg,--,--,4.2,6.6
"Vitamin A, IU",IU,--,--,0,0
Lipids
"Fatty acids, total saturated",g,--,--,5.002,7.940
"Fatty acids, total trans",g,--,--,0.000,0.000
"Cholesterol",mg,--,--,0,0
Amino Acids
Other
Ingredients
"DOUGHNUT (ENRICHED WHEAT FLOUR (WHEAT FLOUR, NIACIN, REDUCED IRON, THIAMINE MONONITRATE, RIBOFLAVIN, FOLIC ACID AND ENZYME), VEGETABLE SHORTENING (PALM OIL, FULLY AND/OR PARTIALLY HYDROGENATED SOYBEAN OIL, AND/OR PARTIALLY HYDROGENATED COTTONSEED OIL, COTTONSEED OIL, AND/OR SOYBEAN OIL, MONO AND DIGLYCERIDES AND POLYGLYCEROL ESTERS AND/OR BHT AND/OR TOCOPHEROL AND/OR CITRIC ACID), WATER, DEXTROSE, YEAST, SOY FLOUR, SALT, WHEAT GLUTEN, MONOGLYCERIDES, MONOCALCIUM PHOSPHATE MONOHYDRATE, LECITHIN, SUGAR, CALCIUM PROPIONATE (TO MAINTAIN FRESHNESS), DRIED MILK POWDER, ETHOXYLATED MONOGLYCERIDES, CELLULOSE GUM, CALCIUM SULFATE, MALTODEXTRIN, ASCORBIC ACID, NATURAL AND ARTIFICIAL FLAVORS, SORBITAN MONOSTEARATE, AMMONIUM SULFATE, DICALCIUM PHOSPHATE, ENZYME, TRICALCIUM PHOSPHATE, DIAMMONIUM PHOSPHATE); ICING (SUGAR, WATER, CORN STARCH, COCOA POWDER (PROCESSED WITH ALKALI), CORN SYRUP SOLIDS, SOYBEAN OIL AND/OR PARTIALLY HYDROGENATED SOYBEAN OIL, PALM OIL, CHOCOLATE LIQUOR, ENZYME MODIFIED SOY PROTEIN, POLYSORBATE 60, SALT, SODIUM CASEINATE (MILK), SODIUM HEXAMETAPHOSPHATE, MONO AND DIGLYCERIDES, SOY LECITHIN); GLAZE (SUGAR, WATER, CORN STARCH, PARTIALLY HYDROGENATED SOYBEAN OIL, CALCIUM SULFATE AND/OR CALCIUM CARBONATE, AGAR, DEXTROSE, NATURAL AND ARTIFICIAL FLAVORS, SALT, DISODIUM PHOSPHATE, LOCUST BEAN GUM AND/OR MONO AND DIGLYCERIDES)." Date available: 07/14/2017 Date last updated by company: 07/14/2017
