Source: USDA Branded Food Products Database Release December 2017 Software v.3.8.6.4 2017-10-02
Report Run at: December 19, 2017 05:01 EST
"Nutrient data for: 45197629, CHOCOLATE DIPPED GRANOLA BARS, UPC: 07203671584"
Food Group:  Branded Food Products Database
Common Name:

Nutrient,Unit,Data points,Std. Error,"1 BAR = 31.0g",1Value per 100 g,
Proximates
"Energy",kcal,--,--,140,452
"Protein",g,--,--,1.00,3.23
"Total lipid (fat)",g,--,--,5.00,16.13
"Carbohydrate, by difference",g,--,--,22.00,70.97
"Fiber, total dietary",g,--,--,1.0,3.2
"Sugars, total",g,--,--,14.00,45.16
Minerals
"Calcium, Ca",mg,--,--,40,129
"Iron, Fe",mg,--,--,0.93,3.00
"Sodium, Na",mg,--,--,60,194
Vitamins
"Vitamin C, total ascorbic acid",mg,--,--,0.0,0.0
"Vitamin A, IU",IU,--,--,0,0
Lipids
"Fatty acids, total saturated",g,--,--,3.999,12.900
"Fatty acids, total trans",g,--,--,0.000,0.000
"Cholesterol",mg,--,--,0,0
Amino Acids
Other
Ingredients
"CHOCOLATE FLAVORED COATING (SUGAR, PALM AND PALM KERNEL OIL, WHEY POWDER, LACTOSE, COCOA POWDER, COCOA POWDER [PROCESSED WITH ALKALI], MILKFAT, SOY LECITHIN - AN EMULSIFIER, NATURAL FLAVOR), CORN SYRUP, GRANOLA (WHOLE ROLLED OATS, WHEAT FLAKES, CORN SYRUP, SUGAR, CANOLA AND/OR SOYBEAN OIL, HONEY, MOLASSES, SALT, SOY LECITHIN - AN EMULSIFIER), CRISP RICE (RICE FLOUR, SUGAR, CALCIUM CARBONATE, SALT), CHOCOLATE CHIPS (SUGAR, CHOCOLATE LIQUOR, COCOA BUTTER, SOY LECITHIN - AN EMULSIFIER, SALT, NATURAL FLAVOR), ANHYDROUS DEXTROSE, GLYCERIN, CANOLA AND/OR SOYBEAN OIL, DRIED UNSWEETENED COCONUT, FRUCTOSE, HONEY, SALT, ASCORBIC ACID, CITRIC ACID, ROSEMARY EXTRACT, PEANUTS, ALMONDS." Date available: 07/14/2017 Date last updated by company: 07/14/2017
