Source: USDA Branded Food Products Database Release December 2017 Software v.3.8.6.4 2017-10-02
Report Run at: December 19, 2017 05:13 EST
"Nutrient data for: 45331045, CHOCOLATE MILK, UPC: 074336863967"
Food Group:  Branded Food Products Database
Common Name:

Nutrient,Unit,Data points,Std. Error,"1.74 cup = 414.0g",1Value per 100 g,
Proximates
"Energy",kcal,--,--,381,92
"Protein",g,--,--,13.99,3.38
"Total lipid (fat)",g,--,--,13.99,3.38
"Carbohydrate, by difference",g,--,--,50.01,12.08
"Fiber, total dietary",g,--,--,2.1,0.5
"Sugars, total",g,--,--,46.99,11.35
Minerals
"Calcium, Ca",mg,--,--,439,106
"Iron, Fe",mg,--,--,0.00,0.00
"Sodium, Na",mg,--,--,282,68
Vitamins
"Vitamin C, total ascorbic acid",mg,--,--,2.5,0.6
"Vitamin A, IU",IU,--,--,290,70
"Vitamin D",IU,--,--,174,42
Lipids
"Fatty acids, total saturated",g,--,--,7.990,1.930
"Fatty acids, total trans",g,--,--,0.000,0.000
"Cholesterol",mg,--,--,41,10
Amino Acids
Other
Ingredients
"MILK, SUGAR, CREAM, COCOA (PROCESSED WITH ALKALI), CORN STARCH, SALT, CARRAGEENAN, GUAR GUM, ARTIFICIAL FLAVOR, VITAMIN D3." Date available: 10/13/2017 Date last updated by company: 10/13/2017
