Source: USDA Branded Food Products Database Release December 2017 Software v.3.8.6.4 2017-10-02
Report Run at: December 19, 2017 04:59 EST
"Nutrient data for: 45190339, CHOCOLATE CREME DA LA CREAM PIE, UPC: 032100092975"
Food Group:  Branded Food Products Database
Common Name:

Nutrient,Unit,Data points,Std. Error,"0.111 PIE = 120.0g",1Value per 100 g,
Proximates
"Energy",kcal,--,--,470,392
"Protein",g,--,--,3.00,2.50
"Total lipid (fat)",g,--,--,33.00,27.50
"Carbohydrate, by difference",g,--,--,41.00,34.17
"Fiber, total dietary",g,--,--,2.0,1.7
"Sugars, total",g,--,--,25.00,20.83
Minerals
"Calcium, Ca",mg,--,--,0,0
"Iron, Fe",mg,--,--,0.76,0.63
"Sodium, Na",mg,--,--,280,233
Vitamins
"Vitamin C, total ascorbic acid",mg,--,--,0.0,0.0
"Vitamin A, IU",IU,--,--,209,174
Lipids
"Fatty acids, total saturated",g,--,--,23.004,19.170
"Fatty acids, total trans",g,--,--,0.000,0.000
"Cholesterol",mg,--,--,5,4
Amino Acids
Other
Ingredients
"WATER, VEGETABLE OIL (PALM KERNEL, SOYBEAN, PALM, COCONUT AND/OR COTTONSEED OILS), SUGAR, ENRICHED FLOUR (WHEAT FLOUR, NIACIN, IRON, THIAMIN MONONITRATE, RIBOFLAVIN, FOLIC ACID), HIGH FRUCTOSE CORN SYRUP, PARTIALLY HYDROGENATED PALM KERNEL OIL, COCOA PROCESSED WITH ALKALI, HEAVY WHIPPED CREAM. CONTAINS 2% OR LESS OF EACH OF THE FOLLOWING: CORN SYRUP, CHOCOLATE FLAKES (SUGAR, CHOCOLATE LIQUOR, COCOA BUTTER, BUTTER OIL, SOY LECITHIN, VANILLA), CHOCOLATE, SALT, GUMS (CELLULOSE, XANTHAN, CAROB BEAN, GUAR), MODIFIED CORN STARCH, NATURAL AND ARTIFICIAL FLAVORS, POLYSORBATE 60, POLYGLYCEROL ESTERS OF FATTY ACIDS, MONO-AND DIGLYCERIDES, CORN STARCH, BETA-CAROTENE (COLOR), SOY LECITHIN, DISODIUM PHOSPHATE, SODIUM CASEINATE, DEXTROSE, SORBITAN MONOSTEARATE, SOY FLOUR." Date available: 10/19/2017 Date last updated by company: 10/19/2017
