Source: USDA Branded Food Products Database Release December 2017 Software v.3.8.6.4 2017-10-02
Report Run at: December 19, 2017 04:44 EST
"Nutrient data for: 45211570, CHOCOLATE CHIP COOKIE DOUGH, UPC: 085239001691"
Food Group:  Branded Food Products Database
Common Name:

Nutrient,Unit,Data points,Std. Error,"2.0 COOKIES = 38.0g",1Value per 100 g,
Proximates
"Energy",kcal,--,--,170,447
"Protein",g,--,--,1.00,2.63
"Total lipid (fat)",g,--,--,8.00,21.05
"Carbohydrate, by difference",g,--,--,24.00,63.16
"Fiber, total dietary",g,--,--,1.0,2.6
"Sugars, total",g,--,--,15.00,39.47
Minerals
"Calcium, Ca",mg,--,--,0,0
"Iron, Fe",mg,--,--,0.95,2.49
"Sodium, Na",mg,--,--,160,421
Vitamins
"Vitamin C, total ascorbic acid",mg,--,--,0.0,0.0
"Vitamin A, IU",IU,--,--,0,0
Lipids
"Fatty acids, total saturated",g,--,--,4.001,10.530
"Fatty acids, total monounsaturated",g,--,--,2.998,7.890
"Fatty acids, total polyunsaturated",g,--,--,0.999,2.630
"Fatty acids, total trans",g,--,--,0.000,0.000
"Cholesterol",mg,--,--,5,13
Amino Acids
Other
Ingredients
"ENRICHED BLEACHED FLOUR, [WHEAT FLOUR, NIACIN, IRON, THIAMIN MONONITRATE (VITAMIN B1), RIBOFLAVIN (VITAMIN B2), FOLIC ACID], SUGAR, CHOCOLATE CHIPS [SUGAR, CHOCOLATE LIQUOR, COCOA BUTTER, MILK FAT, SOY LECITHIN, VANILLIN (ARTIFICIAL FLAVOR)], VEGETABLE OIL [(PALM, SOYBEAN AND/OR COTTON SEED OILS), CITRIC ACID (PRESERVATIVE)], WATER, EGGS, CONTAINS 2% OR LESS OF EACH OF THE FOLLOWING: SKIM MILK, CORN SYRUP SOLIDS, MOLASSES, SALT, BAKING SODA, NATURAL AND ARTIFICIAL FLAVORS, CANOLA OIL, SOY FLOUR." Date available: 07/14/2017 Date last updated by company: 07/14/2017
