Source: USDA Branded Food Products Database Release December 2017 Software v.3.8.6.4 2017-10-02
Report Run at: December 19, 2017 05:24 EST
"Nutrient data for: 45090525, CHOCOLATE SILK PIE FILLING MIX, UPC: 072392029440"
Food Group:  Branded Food Products Database
Common Name:

Nutrient,Unit,Data points,Std. Error,"0.166 PACKAGE | DRY MIX = 18.0g",1Value per 100 g,
Proximates
"Energy",kcal,--,--,70,389
"Protein",g,--,--,1.00,5.56
"Total lipid (fat)",g,--,--,1.50,8.33
"Carbohydrate, by difference",g,--,--,14.00,77.78
"Fiber, total dietary",g,--,--,1.0,5.6
"Sugars, total",g,--,--,9.00,50.00
Minerals
"Calcium, Ca",mg,--,--,60,333
"Iron, Fe",mg,--,--,2.00,11.11
"Sodium, Na",mg,--,--,190,1056
Vitamins
"Vitamin C, total ascorbic acid",mg,--,--,0.0,0.0
"Vitamin A, IU",IU,--,--,0,0
Lipids
"Fatty acids, total saturated",g,--,--,1.001,5.560
"Fatty acids, total trans",g,--,--,0.000,0.000
"Cholesterol",mg,--,--,0,0
Amino Acids
Other
Ingredients
"SUGAR, FOOD STARCH MODIFIED, COCOA (PROCESSED WITH ALKALI), PALM KERNEL OIL, CORN SYRUP SOLIDS, CONTAINS 2% OR LESS OF THE FOLLOWING: PROPYLENE GLYCOL, SODIUM CASEINATE (CONTAINS MILK), ACETYLATED MONOGLYCERIDES, MONO- AND DIGLYCERIDES, MICROCRYSTALLINE CELLULOSE, SODIUM CARBOXYMETHYL CELLULOSE, DISODIUM PHOSPHATE, TETRASODIUM PYROPHOSPHATE, CALCIUM SULFATE, NATURAL AND ARTIFICIAL FLAVORS, SILICON DIOXIDE, RED 40, YELLOW 5, BLUE 1." Date available: 07/14/2017 Date last updated by company: 07/14/2017
