Source: USDA Branded Food Products Database Release December 2017 Software v.3.8.6.4 2017-10-02
Report Run at: December 19, 2017 05:00 EST
"Nutrient data for: 45179634, CHOCOLATE CUPCAKES, UPC: 770981042169"
Food Group:  Branded Food Products Database
Common Name:

Nutrient,Unit,Data points,Std. Error,"3.0 CUPCAKES = 71.0g",1Value per 100 g,
Proximates
"Energy",kcal,--,--,300,423
"Protein",g,--,--,2.00,2.82
"Total lipid (fat)",g,--,--,15.00,21.13
"Carbohydrate, by difference",g,--,--,39.00,54.93
"Fiber, total dietary",g,--,--,1.0,1.4
"Sugars, total",g,--,--,33.00,46.48
Minerals
"Calcium, Ca",mg,--,--,20,28
"Iron, Fe",mg,--,--,0.81,1.14
"Sodium, Na",mg,--,--,170,239
Vitamins
"Vitamin C, total ascorbic acid",mg,--,--,0.0,0.0
"Vitamin A, IU",IU,--,--,0,0
Lipids
"Fatty acids, total saturated",g,--,--,4.501,6.340
"Fatty acids, total trans",g,--,--,0.000,0.000
"Cholesterol",mg,--,--,25,35
Amino Acids
Other
Ingredients
"ICING SUGAR, SUGAR, SHORTENING (CANOLA, PALM, MODIFIED PALM AND PALM KERNEL OIL), WATER, ENRICHED WHEAT FLOUR (WHEAT FLOUR, NIACIN, REDUCED IRON, THIAMINE MONONITRATE, RIBOFLAVIN, FOLIC ACID), EGG, SOYBEAN AND CANOLA OIL, GLUCOSE, COCOA POWDER (PROCESSED WITH ALKALI), SKIM MILK POWDER, MODIFIED CORN STARCH, WHEY POWDER, MONO AND DIGLYCERIDES, LEAVENING (SODIUM ACID PYROPHOSPHATE, SODIUM BICARBONATE, CORN STARCH, MONOCALCIUM PHOSPHATE, CALCIUM SULFATE), SOYBEAN LECITHIN, WHEAT GLUTEN, BUTTER (CREAM, SALT), SALT, ARTIFICIAL FLAVOR, DIACETYL TARTARIC ACID ESTERS OF MONO AND DIGLYCERIDES, COLOR (FD&C RED #40, FD&C RED #3, FD&C YELLOW #6), PALM KERNEL OIL, CORN STARCH, GUM ARABIC, CONFECTIONER'S GLAZE, POLYSORBATE 60." Date available: 07/14/2017 Date last updated by company: 07/14/2017
