Source: USDA Branded Food Products Database Release December 2017 Software v.3.8.6.4 2017-10-02
Report Run at: December 19, 2017 04:42 EST
"Nutrient data for: 45283977, CHOCOLATE CHEWY, CHOCOLATE CANDY, UPC: 077290762000"
Food Group:  Branded Food Products Database
Common Name:

Nutrient,Unit,Data points,Std. Error,"6.0 PIECES = 40.0g",1Value per 100 g,
Proximates
"Energy",kcal,--,--,150,375
"Protein",g,--,--,1.00,2.50
"Total lipid (fat)",g,--,--,2.00,5.00
"Carbohydrate, by difference",g,--,--,32.00,80.00
"Fiber, total dietary",g,--,--,2.0,5.0
"Sugars, total",g,--,--,17.00,42.50
Minerals
"Calcium, Ca",mg,--,--,20,50
"Iron, Fe",mg,--,--,2.25,5.62
"Sodium, Na",mg,--,--,95,238
Vitamins
"Vitamin C, total ascorbic acid",mg,--,--,0.0,0.0
"Vitamin A, IU",IU,--,--,0,0
Lipids
"Fatty acids, total saturated",g,--,--,1.500,3.750
"Fatty acids, total trans",g,--,--,0.000,0.000
"Cholesterol",mg,--,--,0,0
Amino Acids
Other
Ingredients
"CORN SYRUP, SUGAR, COCOA, NONFAT MILK, HYDROGENATED COCONUT OIL, ALMONDS, AND LESS THAN 2% OF HONEY, SALT, EGG WHITES, CANOLA AND/OR SAFFLOWER AND/OR PALM OIL, MODIFIED SOY PROTEIN, NATURAL FLAVOR, TBHQ AND CITRIC ACID (TO PRESERVE FRESHNESS)." Date available: 07/14/2017 Date last updated by company: 07/14/2017
