Source: USDA Branded Food Products Database Release December 2017 Software v.3.8.6.4 2017-10-02
Report Run at: December 19, 2017 04:43 EST
"Nutrient data for: 45106413, CHOCOLATE CHIP COOKIE ALMOND FLOUR MIX, UPC: 856069005049"
Food Group:  Branded Food Products Database
Common Name:

Nutrient,Unit,Data points,Std. Error,"1 COOKIE = 22.0g",1Value per 100 g,
Proximates
"Energy",kcal,--,--,100,455
"Protein",g,--,--,2.00,9.09
"Total lipid (fat)",g,--,--,5.00,22.73
"Carbohydrate, by difference",g,--,--,14.00,63.64
"Fiber, total dietary",g,--,--,1.0,4.5
"Sugars, total",g,--,--,8.00,36.36
Minerals
"Calcium, Ca",mg,--,--,20,91
"Iron, Fe",mg,--,--,1.31,5.95
"Magnesium, Mg",mg,--,--,44,198
"Sodium, Na",mg,--,--,75,341
"Copper, Cu",mg,--,--,0.040,0.182
"Manganese, Mn",mg,--,--,0.220,1.000
Vitamins
"Vitamin C, total ascorbic acid",mg,--,--,0.0,0.0
"Vitamin A, IU",IU,--,--,0,0
Lipids
"Fatty acids, total saturated",g,--,--,1.001,4.550
"Fatty acids, total trans",g,--,--,0.000,0.000
"Cholesterol",mg,--,--,0,0
Amino Acids
Other
Ingredients
"ALMOND FLOUR, CHOCOLATE CHIPS (CANE JUICE, COCOA LIQUOR, COCOA BUTTER), ORGANIC COCONUT SUGAR, TAPIOCA, ORGANIC COCONUT FLOUR, BAKING SODA, SEA SALT" Date available: 07/14/2017 Date last updated by company: 07/14/2017
