Source: USDA Branded Food Products Database Release December 2017 Software v.3.8.6.4 2017-10-02
Report Run at: December 19, 2017 05:15 EST
"Nutrient data for: 45267975, CHOCOLATE MUFFINS, UPC: 704863028118"
Food Group:  Branded Food Products Database
Common Name:

Nutrient,Unit,Data points,Std. Error,"1 MUFFIN = 57.0g",1Value per 100 g,
Proximates
"Energy",kcal,--,--,120,211
"Protein",g,--,--,4.00,7.02
"Total lipid (fat)",g,--,--,4.00,7.02
"Carbohydrate, by difference",g,--,--,21.00,36.84
"Fiber, total dietary",g,--,--,3.0,5.3
"Sugars, total",g,--,--,11.00,19.30
Minerals
"Calcium, Ca",mg,--,--,40,70
"Iron, Fe",mg,--,--,6.95,12.19
"Sodium, Na",mg,--,--,230,404
Vitamins
"Vitamin C, total ascorbic acid",mg,--,--,0.0,0.0
"Vitamin A, IU",IU,--,--,4824,8464
Lipids
"Fatty acids, total saturated",g,--,--,2.001,3.510
"Fatty acids, total trans",g,--,--,0.000,0.000
"Cholesterol",mg,--,--,20,35
Amino Acids
Other
Ingredients
"ZUCCHINI, CARROT, EGG WHITES, SUGAR, GLUTEN FREE FLOUR BLEND (CORN STARCH, BROWN RICE FLOUR, SORGHUM FLOUR, POTATO STARCH, FLAXSEED MEAL), WHOLE EGGS, COCOA POWDER, SEMI-SWEET CHOCOLATE CHIPS (SUGAR, UNSWEETENED CHOCOLATE, COCOA BUTTER, SOY LECITHIN [AN EMULSIFIER], VANILLA EXTRACT), BAKING POWDER (SODIUM ACID PYROPHOSPHATE, SODIUM BICARBONATE, CORN STARCH, MONOCALCIUM PHOSPHATE), CANOLA OIL, SOLUBLE CORN FIBER, SALT." Date available: 07/14/2017 Date last updated by company: 07/14/2017
