Source: USDA Branded Food Products Database Release December 2017 Software v.3.8.6.4 2017-10-02
Report Run at: December 19, 2017 05:03 EST
"Nutrient data for: 45188356, CHOCOLATE EDITION, UPC: 818359011314"
Food Group:  Branded Food Products Database
Common Name:

Nutrient,Unit,Data points,Std. Error,"8.0 PIECES & 0.25 TROPHY | PER = 39.0g",1Value per 100 g,
Proximates
"Energy",kcal,--,--,207,531
"Protein",g,--,--,2.00,5.13
"Total lipid (fat)",g,--,--,12.00,30.77
"Carbohydrate, by difference",g,--,--,22.00,56.41
"Fiber, total dietary",g,--,--,1.0,2.6
"Sugars, total",g,--,--,22.00,56.41
Minerals
"Calcium, Ca",mg,--,--,70,179
"Iron, Fe",mg,--,--,2.54,6.51
"Sodium, Na",mg,--,--,39,100
Vitamins
"Vitamin C, total ascorbic acid",mg,--,--,0.0,0.0
"Vitamin A, IU",IU,--,--,128,328
Lipids
"Fatty acids, total saturated",g,--,--,5.998,15.380
"Fatty acids, total trans",g,--,--,0.000,0.000
"Cholesterol",mg,--,--,5,13
Amino Acids
Other
Ingredients
"SUGAR, COCOA BUTTER, WHOLE MILK POWDER (MILK), EMULSIFIER (SOYA LECITHIN), FLAVOURING (NATURAL VANILLA)." Date available: 07/14/2017 Date last updated by company: 07/14/2017
