Source: USDA Branded Food Products Database Release December 2017 Software v.3.8.6.4 2017-10-02
Report Run at: December 19, 2017 05:18 EST
"Nutrient data for: 45189205, CHOCOLATE PEANUT BUTTER, UPC: 854758001105"
Food Group:  Branded Food Products Database
Common Name:

Nutrient,Unit,Data points,Std. Error,"0.5 cup = 73.0g",1Value per 100 g,
Proximates
"Energy",kcal,--,--,150,205
"Protein",g,--,--,2.00,2.74
"Total lipid (fat)",g,--,--,10.00,13.70
"Carbohydrate, by difference",g,--,--,20.00,27.40
"Fiber, total dietary",g,--,--,6.0,8.2
"Sugars, total",g,--,--,8.00,10.96
Minerals
"Calcium, Ca",mg,--,--,0,0
"Iron, Fe",mg,--,--,0.50,0.68
"Potassium, K",mg,--,--,60,82
"Sodium, Na",mg,--,--,35,48
Vitamins
"Vitamin C, total ascorbic acid",mg,--,--,0.8,1.1
"Vitamin A, IU",IU,--,--,0,0
Lipids
"Fatty acids, total saturated",g,--,--,6.001,8.220
"Fatty acids, total trans",g,--,--,0.000,0.000
"Cholesterol",mg,--,--,0,0
Amino Acids
Other
Ingredients
"ORGANIC COCONUT MILK, WATER, ORGANIC FAIR TRADE CERTIFIED AGAVE NECTAR, ORGANIC PEANUT BUTTER, ORGANIC INULIN, ORGANIC TAPIOCA SYRUP SOLIDS, ORGANIC FAIR TRADE CERTIFIED COCOA POWDER (ALKALIZED), NATURAL FLAVORS, ORGANIC GUAR GUM, SEA SALT, ORGANIC LOCUST BEAN GUM." Date available: 07/14/2017 Date last updated by company: 07/14/2017
