Source: USDA Branded Food Products Database Release December 2017 Software v.3.8.6.4 2017-10-02
Report Run at: December 19, 2017 05:07 EST
"Nutrient data for: 45292961, CHOCOLATE HAZELNUT BAR, UPC: 856769006162"
Food Group:  Branded Food Products Database
Common Name:

Nutrient,Unit,Data points,Std. Error,"1 BAR = 48.0g",1Value per 100 g,
Proximates
"Energy",kcal,--,--,230,479
"Protein",g,--,--,15.00,31.25
"Total lipid (fat)",g,--,--,16.00,33.33
"Carbohydrate, by difference",g,--,--,13.00,27.08
"Fiber, total dietary",g,--,--,6.0,12.5
"Sugars, total",g,--,--,3.00,6.25
Minerals
"Calcium, Ca",mg,--,--,0,0
"Iron, Fe",mg,--,--,1.50,3.12
"Potassium, K",mg,--,--,180,375
"Sodium, Na",mg,--,--,70,146
Vitamins
"Vitamin C, total ascorbic acid",mg,--,--,0.0,0.0
"Vitamin A, IU",IU,--,--,0,0
Lipids
"Fatty acids, total saturated",g,--,--,5.002,10.420
"Fatty acids, total trans",g,--,--,0.000,0.000
"Cholesterol",mg,--,--,0,0
Amino Acids
Other
Ingredients
"PUMPKIN SEEDS, GRASS-FED HYDROLYZED COLLAGEN, HAZELNUTS, PREBIOTIC FIBER (FROM CASSAVA ROOT), ALMONDS, COCONUT FLAKES, HONEY, NATURAL FLAVORS, WATER, UNSWEETENED CHOCOLATE, COCONUT OIL, ORGANIC FAIR-TRADE COCOA POWDER, HIMALAYAN PINK SALT, MONK FRUIT EXTRACT, TOCOPHEROLS, MACADAMIA NUTS, CASHEWS" Date available: 07/14/2017 Date last updated by company: 07/14/2017
