Source: USDA Branded Food Products Database Release December 2017 Software v.3.8.6.4 2017-10-02
Report Run at: December 19, 2017 04:46 EST
"Nutrient data for: 45276913, CHOCOLATE CHIP COOKIES, UPC: 070253493201"
Food Group:  Branded Food Products Database
Common Name:

Nutrient,Unit,Data points,Std. Error,"3.0 COOKIES = 33.0g",1Value per 100 g,
Proximates
"Energy",kcal,--,--,160,485
"Protein",g,--,--,1.00,3.03
"Total lipid (fat)",g,--,--,7.00,21.21
"Carbohydrate, by difference",g,--,--,23.00,69.70
"Fiber, total dietary",g,--,--,1.0,3.0
"Sugars, total",g,--,--,12.00,36.36
Minerals
"Calcium, Ca",mg,--,--,20,61
"Iron, Fe",mg,--,--,1.64,4.96
"Potassium, K",mg,--,--,45,136
"Sodium, Na",mg,--,--,110,333
Vitamins
"Vitamin C, total ascorbic acid",mg,--,--,0.0,0.0
"Vitamin A, IU",IU,--,--,0,0
Lipids
"Fatty acids, total saturated",g,--,--,2.501,7.580
"Fatty acids, total monounsaturated",g,--,--,2.501,7.580
"Fatty acids, total polyunsaturated",g,--,--,2.000,6.060
"Fatty acids, total trans",g,--,--,0.000,0.000
"Cholesterol",mg,--,--,0,0
Amino Acids
Other
Ingredients
"ENRICHED FLOUR (WHEAT FLOUR, NIACIN, REDUCED IRON, THIAMINE MONONITRATE, RIBOFLAVIN, FOLIC ACID), SEMISWEET CHOCOLATE CHIPS (SUGAR, CHOCOLATE, COCOA BUTTER, DEXTROSE, SOY LECITHIN, VANILLIN), SUGAR, VEGETABLE OIL (CONTAINS ONE OR MORE OF THE FOLLOWING: CANOLA OIL, CORN OIL, PALM OIL, SOYBEAN OIL), HIGH FRUCTOSE CORN SYRUP, LEAVENING (SODIUM BICARBONATE, MONOCALCIUM PHOSPHATE, AMMONIUM BICARBONATE), SALT,NATURAL AND ARTIFICIAL FLAVORS, SOY LECITHIN (EMULSIFIER), CARAMEL COLOR." Date available: 07/14/2017 Date last updated by company: 07/14/2017
