Source: USDA Branded Food Products Database Release December 2017 Software v.3.8.6.4 2017-10-02
Report Run at: December 19, 2017 04:48 EST
"Nutrient data for: 45288631, CHOCOLATE CHIP MINI COOKIES, UPC: 492180101286"
Food Group:  Branded Food Products Database
Common Name:

Nutrient,Unit,Data points,Std. Error,"3.0 COOKIES = 32.0g",1Value per 100 g,
Proximates
"Energy",kcal,--,--,140,438
"Protein",g,--,--,1.00,3.12
"Total lipid (fat)",g,--,--,6.00,18.75
"Carbohydrate, by difference",g,--,--,21.00,65.62
"Fiber, total dietary",g,--,--,1.0,3.1
"Sugars, total",g,--,--,11.00,34.38
Minerals
"Calcium, Ca",mg,--,--,0,0
"Iron, Fe",mg,--,--,1.69,5.28
"Sodium, Na",mg,--,--,105,328
Vitamins
"Vitamin C, total ascorbic acid",mg,--,--,0.0,0.0
"Vitamin A, IU",IU,--,--,0,0
Lipids
"Fatty acids, total saturated",g,--,--,2.499,7.810
"Fatty acids, total trans",g,--,--,0.000,0.000
"Cholesterol",mg,--,--,10,31
Amino Acids
Other
Ingredients
"ENRICHED WHEAT FLOUR (WHEAT FLOUR, NIACIN, REDUCED IRON, THIAMINE MONONITRATE, RIBOFLAVIN, FOLIC ACID), CHOCOLATE CHIPS (SUGAR, CHOCOLATE LIQUOR, COCOA BUTTER, SOY LECITHIN, VANILLA EXTRACT), INVERT SUGAR, SUGAR, MARGARINE (PALM, CANOLA AND MODIFIED PALM OIL, WATER, SALT, WHEY POWDER, SOY LECITHIN, MONOGLYCERIDES, NATURAL FLAVOR, VITAMIN A PALMITATE, VITAMIN D3), BUTTER (CREAM, SALT), EGG, MOLASSES, SODIUM BICARBONATE, ARTIFICIAL FLAVOR, SALT." Date available: 07/14/2017 Date last updated by company: 07/14/2017
