Source: USDA Branded Food Products Database Release December 2017 Software v.3.8.6.4 2017-10-02
Report Run at: December 19, 2017 04:29 EST
"Nutrient data for: 45204537, CHOCHOS LUPINI BEANS, UPC: 854219002955"
Food Group:  Branded Food Products Database
Common Name:

Nutrient,Unit,Data points,Std. Error,"0.5 cup = 80.0g",1Value per 100 g,
Proximates
"Energy",kcal,--,--,135,169
"Protein",g,--,--,9.00,11.25
"Total lipid (fat)",g,--,--,7.00,8.75
"Carbohydrate, by difference",g,--,--,9.00,11.25
"Fiber, total dietary",g,--,--,4.0,5.0
"Sugars, total",g,--,--,0.00,0.00
Minerals
"Calcium, Ca",mg,--,--,33,41
"Iron, Fe",mg,--,--,1.75,2.19
"Sodium, Na",mg,--,--,135,169
Vitamins
"Vitamin C, total ascorbic acid",mg,--,--,0.0,0.0
"Vitamin A, IU",IU,--,--,0,0
Lipids
"Fatty acids, total saturated",g,--,--,0.000,0.000
"Fatty acids, total trans",g,--,--,0.000,0.000
"Cholesterol",mg,--,--,0,0
Amino Acids
Other
Ingredients
"LUPINI BEANS, WATER, SALT AND CITRIC ACID." Date available: 10/12/2017 Date last updated by company: 10/12/2017
