Source: USDA Branded Food Products Database Release December 2017 Software v.3.8.6.4 2017-10-02
Report Run at: December 19, 2017 04:51 EST
"Nutrient data for: 45269239, CHOCOLATE CHIP WALNUT COOKIES, UPC: 852965001208"
Food Group:  Branded Food Products Database
Common Name:

Nutrient,Unit,Data points,Std. Error,"1 COOKIE | ABOUT = 32.0g",1Value per 100 g,
Proximates
"Energy",kcal,--,--,140,438
"Protein",g,--,--,1.00,3.12
"Total lipid (fat)",g,--,--,4.50,14.06
"Carbohydrate, by difference",g,--,--,21.00,65.62
"Fiber, total dietary",g,--,--,0.0,0.0
"Sugars, total",g,--,--,12.00,37.50
Minerals
"Calcium, Ca",mg,--,--,0,0
"Iron, Fe",mg,--,--,1.13,3.52
"Sodium, Na",mg,--,--,60,188
Vitamins
"Vitamin C, total ascorbic acid",mg,--,--,0.0,0.0
"Vitamin A, IU",IU,--,--,0,0
Lipids
"Fatty acids, total saturated",g,--,--,2.000,6.250
"Fatty acids, total trans",g,--,--,0.000,0.000
"Cholesterol",mg,--,--,0,0
Amino Acids
Other
Ingredients
"UNBLEACHED WHEAT FLOUR, BROWN SUGAR, NON-HYDROGENATED VEGETABLE OIL (PALM, CANOLA, OLIVE, NATURAL FLAVOR, SUNFLOWER LECITHIN, NON-DAIRY LACTIC ACID, AND ANNATTO EXTRACT), CHOCOLATE CHIPS (SUGAR, CHOCOLATE LIQUOR, COCOA BUTTER, SOY LECITHIN, AND VANILLA), DATES, WALNUTS, COCONUT MILK, UNSULPHURED COCONUT, NATURAL VANILLA, ALUMINUM FREE BAKING POWDER, BAKING SODA, SALT, AND XANTHAN GUM." Date available: 07/14/2017 Date last updated by company: 07/14/2017
