Source: USDA Branded Food Products Database Release December 2017 Software v.3.8.6.4 2017-10-02
Report Run at: December 19, 2017 05:24 EST
"Nutrient data for: 45266310, CHOCOLATE SINGLE BAR, UPC: 047495418033"
Food Group:  Branded Food Products Database
Common Name:

Nutrient,Unit,Data points,Std. Error,"1 ONZ = 28.0g",1Value per 100 g,
Proximates
"Energy",kcal,--,--,90,321
"Protein",g,--,--,2.00,7.14
"Total lipid (fat)",g,--,--,2.50,8.93
"Carbohydrate, by difference",g,--,--,18.00,64.29
"Fiber, total dietary",g,--,--,2.0,7.1
"Sugars, total",g,--,--,9.00,32.14
Minerals
"Calcium, Ca",mg,--,--,0,0
"Iron, Fe",mg,--,--,1.03,3.67
"Sodium, Na",mg,--,--,45,161
Vitamins
"Vitamin C, total ascorbic acid",mg,--,--,0.0,0.0
"Vitamin A, IU",IU,--,--,0,0
Lipids
"Fatty acids, total saturated",g,--,--,0.000,0.000
"Cholesterol",mg,--,--,0,0
Amino Acids
Other
Ingredients
"STONE GROUND WHOLE WHEAT FLOUR, BROWNIE FILLING (DATE PASTE, CANE SUGAR SYRUP, CHOCOLATE (COCOA LIQUOR, CANE SUGAR, NON-DAIRY COCOA BUTTER, VANILLA EXTRACT), CITRUS FIBER), DRIED CANE SYRUP, CANOLA OIL, COCOA POWDER (PROCESSED WITH ALKALI), NATURAL FLAVORS, SEA SALT, BAKING SODA, FLAX SEED." Date available: 07/14/2017 Date last updated by company: 07/14/2017
