Source: USDA Branded Food Products Database Release December 2017 Software v.3.8.6.4 2017-10-02
Report Run at: December 19, 2017 04:47 EST
"Nutrient data for: 45112291, CHOCOLATE CHIP CREME PIES, UPC: 024300042027"
Food Group:  Branded Food Products Database
Common Name:

Nutrient,Unit,Data points,Std. Error,"1 COOKIE = 38.0g",1Value per 100 g,
Proximates
"Energy",kcal,--,--,170,447
"Protein",g,--,--,1.00,2.63
"Total lipid (fat)",g,--,--,7.00,18.42
"Carbohydrate, by difference",g,--,--,26.00,68.42
"Fiber, total dietary",g,--,--,0.0,0.0
"Sugars, total",g,--,--,15.00,39.47
Minerals
"Calcium, Ca",mg,--,--,0,0
"Iron, Fe",mg,--,--,0.47,1.25
"Potassium, K",mg,--,--,40,105
"Sodium, Na",mg,--,--,100,263
Vitamins
"Vitamin C, total ascorbic acid",mg,--,--,0.0,0.0
"Vitamin A, IU",IU,--,--,0,0
Lipids
"Fatty acids, total saturated",g,--,--,2.998,7.890
"Fatty acids, total monounsaturated",g,--,--,1.501,3.950
"Fatty acids, total polyunsaturated",g,--,--,1.999,5.260
"Fatty acids, total trans",g,--,--,0.000,0.000
"Cholesterol",mg,--,--,0,0
Amino Acids
Other
Ingredients
"ENRICHED BLEACHED FLOUR (WHEAT FLOUR, NIACIN, REDUCED IRON, THIAMIN MONONITRATE [VITAMIN B1], RIBOFLAVIN [VITAMIN B2], FOLIC ACID), CORN SYRUP, PALM AND SOYBEAN OILS WITH TBHQ AND CITRIC ACID TO PROTECT FLAVOR, SUGAR, DEXTROSE, CHOCOLATE CHIPS (SUGAR, CHOCOLATE, COCOA BUTTER, DEXTROSE, SOY LECITHIN, VANILLA, MILK), WATER. CONTAINS 2% OR LESS OF EACH OF THE FOLLOWING: SOY FLOUR, LEAVENING (BAKING SODA, SODIUM ALUMINUM PHOSPHATE), NONFAT DRY MILK, SALT, EGGS, SORBITAN MONOSTEARATE, CORN STARCH, NATURAL AND ARTIFICIAL FLAVORS, POLYSORBATE 60, SORBIC ACID (TO PRESERVE FRESHNESS), MONO- AND DIGLYCERIDES, WHEY, EGG WHITES." Date available: 07/14/2017 Date last updated by company: 07/14/2017
