Source: USDA Branded Food Products Database Release December 2017 Software v.3.8.6.4 2017-10-02
Report Run at: December 19, 2017 05:24 EST
"Nutrient data for: 45177096, CHOCOLATE SPREAD, UPC: 607880033724"
Food Group:  Branded Food Products Database
Common Name:

Nutrient,Unit,Data points,Std. Error,"2.0 Tbsp = 37.0g",1Value per 100 g,
Proximates
"Energy",kcal,--,--,200,541
"Protein",g,--,--,2.00,5.41
"Total lipid (fat)",g,--,--,12.00,32.43
"Carbohydrate, by difference",g,--,--,21.00,56.76
"Fiber, total dietary",g,--,--,1.0,2.7
"Sugars, total",g,--,--,20.00,54.05
Minerals
"Calcium, Ca",mg,--,--,60,162
"Iron, Fe",mg,--,--,1.95,5.26
"Sodium, Na",mg,--,--,25,68
Vitamins
"Vitamin C, total ascorbic acid",mg,--,--,0.0,0.0
"Vitamin A, IU",IU,--,--,0,0
Lipids
"Fatty acids, total saturated",g,--,--,2.501,6.760
"Fatty acids, total trans",g,--,--,0.000,0.000
"Cholesterol",mg,--,--,0,0
Amino Acids
Other
Ingredients
"SUGAR, VEGETABLE OIL (RAPESEED, PALM), HAZELNUTS, COCOA, SKIM MILK, WHEY, SUNFLOWER LECITHIN, FLAVORING." Date available: 07/14/2017 Date last updated by company: 07/14/2017
