Source: USDA Branded Food Products Database Release December 2017 Software v.3.8.6.4 2017-10-02
Report Run at: December 19, 2017 04:54 EST
"Nutrient data for: 45209773, CHOCOLATE COCONUT MACAROON GELATO, UPC: 030034083472"
Food Group:  Branded Food Products Database
Common Name:

Nutrient,Unit,Data points,Std. Error,"0.5 cup = 67.0g",1Value per 100 g,
Proximates
"Energy",kcal,--,--,130,194
"Protein",g,--,--,3.00,4.48
"Total lipid (fat)",g,--,--,6.00,8.96
"Carbohydrate, by difference",g,--,--,17.00,25.37
"Fiber, total dietary",g,--,--,1.0,1.5
"Sugars, total",g,--,--,13.00,19.40
Minerals
"Calcium, Ca",mg,--,--,80,119
"Iron, Fe",mg,--,--,1.62,2.42
"Sodium, Na",mg,--,--,45,67
Vitamins
"Vitamin C, total ascorbic acid",mg,--,--,0.0,0.0
"Vitamin A, IU",IU,--,--,0,0
Lipids
"Fatty acids, total saturated",g,--,--,4.502,6.720
"Fatty acids, total trans",g,--,--,0.000,0.000
"Cholesterol",mg,--,--,5,7
Amino Acids
Other
Ingredients
"MILK, PURE CANE SUGAR, COCONUT OIL, CREAM , COCONUT, GLUCOSE, COCOA POWDER, ALMONDS, DEXTROSE, MONO AND DIGLYCERIDES, GUAR GUM, TARA GUM, SODIUM ALGINATE, CARRAGEENAN, NATURAL FLAVORS." Date available: 07/14/2017 Date last updated by company: 07/14/2017
