Source: USDA Branded Food Products Database Release December 2017 Software v.3.8.6.4 2017-10-02
Report Run at: December 19, 2017 04:40 EST
"Nutrient data for: 45266501, CHOCOLATE CANDY BAR, UPC: 070221008390"
Food Group:  Branded Food Products Database
Common Name:

Nutrient,Unit,Data points,Std. Error,"1 BAR = 41.0g",1Value per 100 g,
Proximates
"Energy",kcal,--,--,230,561
"Protein",g,--,--,2.00,4.88
"Total lipid (fat)",g,--,--,14.00,34.15
"Carbohydrate, by difference",g,--,--,24.00,58.54
"Fiber, total dietary",g,--,--,1.0,2.4
"Sugars, total",g,--,--,20.00,48.78
Minerals
"Calcium, Ca",mg,--,--,60,146
"Iron, Fe",mg,--,--,0.44,1.07
"Sodium, Na",mg,--,--,85,207
Vitamins
"Vitamin C, total ascorbic acid",mg,--,--,0.0,0.0
"Vitamin A, IU",IU,--,--,0,0
Lipids
"Fatty acids, total saturated",g,--,--,7.999,19.510
"Fatty acids, total trans",g,--,--,0.000,0.000
"Cholesterol",mg,--,--,5,12
Amino Acids
Other
Ingredients
"SUGAR, FRACTIONATED PALM OIL, COCOA BUTTER, NONFAT MILK, WHEAT FLOUR, WHEY, CHOCOLATE, MILKFAT, CONTAINS LESS THAN 2% OF HAZELNUT PASTE, WHEAT STARCH, SOY LECITHIN, COCOA (PROCESSED WITH ALKALI), GLUCOSE-FRUCTOSE SYRUP (GLUCOSE SYRUP, HIGH FRUCTOSE CORN SYRUP), SALT, PALM KERNEL OIL, POTASSIUM BICARBONATE, BAKING SODA, NATURAL AND ARTIFICIAL FLAVOR, SUNFLOWER LECITHIN." Date available: 07/14/2017 Date last updated by company: 07/14/2017
