Source: USDA Branded Food Products Database Release December 2017 Software v.3.8.6.4 2017-10-02
Report Run at: December 19, 2017 04:55 EST
"Nutrient data for: 45287364, CHOCOLATE COVERED BACON, UPC: 019962657733"
Food Group:  Branded Food Products Database
Common Name:

Nutrient,Unit,Data points,Std. Error,"1 PACKAGE = 31.0g",1Value per 100 g,
Proximates
"Energy",kcal,--,--,150,484
"Protein",g,--,--,3.00,9.68
"Total lipid (fat)",g,--,--,10.00,32.26
"Carbohydrate, by difference",g,--,--,14.00,45.16
"Fiber, total dietary",g,--,--,1.0,3.2
"Sugars, total",g,--,--,13.00,41.94
Minerals
"Calcium, Ca",mg,--,--,60,194
"Sodium, Na",mg,--,--,125,403
Vitamins
Lipids
"Fatty acids, total saturated",g,--,--,7.000,22.580
"Fatty acids, total trans",g,--,--,0.000,0.000
"Cholesterol",mg,--,--,10,32
Amino Acids
Other
Ingredients
"DARK CHOCOLATE (SUGAR, PARTIALLY HYDROGENATED PALM KERNEL AND COTTONSEED OILS, NONFAT DRY MILK, COCOA PROCESSED WITH ALKALI, COCOA, GLYCERYL LACTO ESTERS OF FATTY ACIDS, SOY LECITHIN, SALT), FULLY COOKED BACON (PORK CURED WITH WATER, SALT, SUGAR, SODIUM PHOSPHATE, NATURAL FLAVOR [WATER, NATURAL FLAVORS], SODIUM DIACETATE, SODIUM ERYTHORBATE, SODIUM NITRITE), WHITE CHOCOLATE (SUGAR, PARTIALLY HYDROGENATED PALM KERNEL AND COTTONSEED OILS, NONFAT DRY MILK, GLYCERYL LACTO ESTERS OF FATTY ACIDS, SOY LECITHIN, SALT, ARTIFICIAL FLAVORING ADDED)." Date available: 07/14/2017 Date last updated by company: 07/14/2017
