Source: USDA Branded Food Products Database Release December 2017 Software v.3.8.6.4 2017-10-02
Report Run at: December 19, 2017 05:11 EST
"Nutrient data for: 45226248, CHOCOLATE LOVERS DELIGHT CAKE, UPC: 604700218057"
Food Group:  Branded Food Products Database
Common Name:

Nutrient,Unit,Data points,Std. Error,"2.0 ONZ = 57.0g",1Value per 100 g,
Proximates
"Energy",kcal,--,--,210,368
"Protein",g,--,--,2.00,3.51
"Total lipid (fat)",g,--,--,10.00,17.54
"Carbohydrate, by difference",g,--,--,28.00,49.12
"Fiber, total dietary",g,--,--,1.0,1.8
"Sugars, total",g,--,--,19.00,33.33
Minerals
"Calcium, Ca",mg,--,--,20,35
"Iron, Fe",mg,--,--,1.52,2.66
"Sodium, Na",mg,--,--,180,316
Vitamins
"Vitamin C, total ascorbic acid",mg,--,--,0.0,0.0
"Vitamin A, IU",IU,--,--,0,0
Lipids
"Fatty acids, total saturated",g,--,--,1.499,2.630
"Fatty acids, total trans",g,--,--,0.000,0.000
"Cholesterol",mg,--,--,20,35
Amino Acids
Other
Ingredients
"SUGAR, ENRICHED FLOUR BLEACHED (WHEAT FLOUR, NIACIN, IRON, THIAMIN MONONITRATE, RIBOFLAVIN, FOLIC ACID), WHOLE EGGS, VEGETABLE OIL (CANOLA, PALM AND SOYBEAN), COCOA PROCESSED WITH ALKALI, CORN SYRUP, MODIFIED CORN STARCH, MONO AND DIGLYCERIDES, WHEY, LEAVENING (BAKING SODA, SODIUM ALUMINUM PHOSPHATE), VITAL WHEAT GLUTEN, SALT, SORBITAN MONOSTEARATE, CALCIUM ACETATE, SODIUM STEAROYL LACTYLATE, NONFAT MILK, XANTHAN GUM, GUAR GUM, POLYSORBATE 60, NATURAL AND ARTIFICIAL FLAVOR." Date available: 07/14/2017 Date last updated by company: 07/14/2017
