Source: USDA Branded Food Products Database Release December 2017 Software v.3.8.6.4 2017-10-02
Report Run at: December 19, 2017 04:30 EST
"Nutrient data for: 45024040, CHOCOLATE ALMOND BUTTER TART, UPC: 897053001388"
Food Group:  Branded Food Products Database
Common Name:

Nutrient,Unit,Data points,Std. Error,"1 TART = 85.0g",1Value per 100 g,
Proximates
"Energy",kcal,--,--,400,471
"Protein",g,--,--,11.00,12.94
"Total lipid (fat)",g,--,--,30.00,35.29
"Carbohydrate, by difference",g,--,--,32.00,37.65
"Fiber, total dietary",g,--,--,9.0,10.6
"Sugars, total",g,--,--,17.00,20.00
Minerals
"Calcium, Ca",mg,--,--,150,176
"Iron, Fe",mg,--,--,2.12,2.49
"Sodium, Na",mg,--,--,190,224
Vitamins
"Vitamin C, total ascorbic acid",mg,--,--,0.0,0.0
"Vitamin A, IU",IU,--,--,0,0
Lipids
"Fatty acids, total saturated",g,--,--,9.996,11.760
"Fatty acids, total monounsaturated",g,--,--,12.996,15.290
"Fatty acids, total polyunsaturated",g,--,--,4.998,5.880
"Fatty acids, total trans",g,--,--,0.000,0.000
"Cholesterol",mg,--,--,0,0
Amino Acids
Other
Ingredients
"ORGANIC MAPLE SYRUP, ALMOND BUTTER, ALMOND FLOUR, DARK COCOA, ORGANIC VIRGIN COCONUT OIL, SEA SALT." Date available: 07/15/2017 Date last updated by company: 07/15/2017
