Source: USDA Branded Food Products Database Release December 2017 Software v.3.8.6.4 2017-10-02
Report Run at: December 19, 2017 05:11 EST
"Nutrient data for: 45280133, CHOCOLATE LOW FAT MILK, UPC: 041303025710"
Food Group:  Branded Food Products Database
Common Name:

Nutrient,Unit,Data points,Std. Error,"1 cup = 240.0g",1Value per 100 g,
Proximates
"Energy",kcal,--,--,199,83
"Protein",g,--,--,10.01,4.17
"Total lipid (fat)",g,--,--,2.50,1.04
"Carbohydrate, by difference",g,--,--,34.01,14.17
"Fiber, total dietary",g,--,--,0.0,0.0
"Sugars, total",g,--,--,31.99,13.33
Minerals
"Calcium, Ca",mg,--,--,350,146
"Iron, Fe",mg,--,--,0.00,0.00
"Potassium, K",mg,--,--,461,192
"Sodium, Na",mg,--,--,240,100
Vitamins
"Vitamin C, total ascorbic acid",mg,--,--,0.0,0.0
"Vitamin A, IU",IU,--,--,499,208
"Vitamin D",IU,--,--,101,42
Lipids
"Fatty acids, total saturated",g,--,--,1.488,0.620
"Fatty acids, total trans",g,--,--,0.000,0.000
"Cholesterol",mg,--,--,14,6
Amino Acids
Other
Ingredients
"LOW FAT MILK, SUGAR, NONFAT MILK, CONTAINS LESS THAN 1% OF: COCA (PROCESSED WITH ALKALI), CORNSTARCH, SALT, CARRAGEENAN, GUAR GUM, ARTIFICIAL FLAVOR, VITAMIN A PALMITATE, VITAMIN D3." Date available: 07/14/2017 Date last updated by company: 07/14/2017
