Source: USDA Branded Food Products Database Release December 2017 Software v.3.8.6.4 2017-10-02
Report Run at: December 19, 2017 05:01 EST
"Nutrient data for: 45192402, CHOCOLATE DIPPED FROZEN TREAT, UPC: 743490000401"
Food Group:  Branded Food Products Database
Common Name:

Nutrient,Unit,Data points,Std. Error,"1 PIECE ABOUT = 60.0g",1Value per 100 g,
Proximates
"Energy",kcal,--,--,130,217
"Protein",g,--,--,2.00,3.33
"Total lipid (fat)",g,--,--,6.00,10.00
"Carbohydrate, by difference",g,--,--,18.00,30.00
"Fiber, total dietary",g,--,--,1.0,1.7
"Sugars, total",g,--,--,14.00,23.33
Minerals
"Calcium, Ca",mg,--,--,40,67
"Iron, Fe",mg,--,--,0.36,0.60
"Potassium, K",mg,--,--,310,517
"Sodium, Na",mg,--,--,15,25
Vitamins
"Vitamin C, total ascorbic acid",mg,--,--,6.0,10.0
"Vitamin A, IU",IU,--,--,100,167
Lipids
"Fatty acids, total saturated",g,--,--,3.498,5.830
"Fatty acids, total trans",g,--,--,0.000,0.000
"Cholesterol",mg,--,--,5,8
Amino Acids
Other
Ingredients
"BANANA, CHOCOLATE (SUGAR, COCOA BUTTER, WHOLE MILK, CHOCOLATE LIQUOR, SOY LECITHIN (AN EMULSIFIER), VANILLA), PEANUT OIL." Date available: 07/14/2017 Date last updated by company: 07/14/2017
