Source: USDA Branded Food Products Database Release December 2017 Software v.3.8.6.4 2017-10-02
Report Run at: December 19, 2017 04:53 EST
"Nutrient data for: 45169871, CHOCOLATE COATED ORGANIC PROTEIN BAR, UPC: 858236003032"
Food Group:  Branded Food Products Database
Common Name:

Nutrient,Unit,Data points,Std. Error,"1 BAR = 48.0g",1Value per 100 g,
Proximates
"Energy",kcal,--,--,220,458
"Protein",g,--,--,12.00,25.00
"Total lipid (fat)",g,--,--,10.00,20.83
"Carbohydrate, by difference",g,--,--,22.00,45.83
"Fiber, total dietary",g,--,--,2.0,4.2
"Sugars, total",g,--,--,13.00,27.08
Minerals
"Calcium, Ca",mg,--,--,40,83
"Iron, Fe",mg,--,--,2.25,4.69
"Magnesium, Mg",mg,--,--,33,69
"Phosphorus, P",mg,--,--,84,174
"Potassium, K",mg,--,--,170,354
"Sodium, Na",mg,--,--,30,62
Vitamins
"Vitamin C, total ascorbic acid",mg,--,--,1.0,2.1
"Vitamin A, IU",IU,--,--,0,0
Lipids
"Fatty acids, total saturated",g,--,--,6.998,14.580
"Fatty acids, total trans",g,--,--,0.000,0.000
"Cholesterol",mg,--,--,0,0
Amino Acids
Other
Ingredients
"ORGANIC COCONUT NECTAR, ORGANIC WHOLE GRAIN BROWN RICE PROTEIN, ORGANIC DARK CHOCOLATE (ORGANIC COCOA LIQUOR, ORGANIC DRIED CANE SYRUP, ORGANIC COCOA BUTTER) ORGANIC COCONUT OIL, ORGANIC OATS, ORGANIC ALMONDS, ORGANIC COCOA LIQUOR, ORGANIC CINNAMON, SUNFLOWER LECITHIN, SEA SALT." Date available: 07/14/2017 Date last updated by company: 07/14/2017
