Source: USDA Branded Food Products Database Release December 2017 Software v.3.8.6.4 2017-10-02
Report Run at: December 19, 2017 05:39 EST
"Nutrient data for: 45138021, CHOLULA, HOT SAUCE, ORIGINAL, UPC: 049733123457"
Food Group:  Branded Food Products Database
Common Name:

Nutrient,Unit,Data points,Std. Error,"1 tsp = 5.0g",1Value per 100 g,
Proximates
"Energy",kcal,--,--,0,0
"Protein",g,--,--,0.00,0.00
"Total lipid (fat)",g,--,--,0.00,0.00
"Carbohydrate, by difference",g,--,--,0.00,0.00
"Sugars, total",g,--,--,0.00,0.00
Minerals
"Sodium, Na",mg,--,--,110,2200
Vitamins
Lipids
Amino Acids
Other
Ingredients
"WATER, PEPPERS (ARBOL AND PIQUIN), SALT, VINEGAR, SPICES AND XANTHAN GUM." Date available: 06/25/2017 Date last updated by company: 06/25/2017
