Source: USDA Branded Food Products Database Release December 2017 Software v.3.8.6.4 2017-10-02
Report Run at: December 19, 2017 05:44 EST
"Nutrient data for: 45016963, CHOPPED MACADAMIAS, UPC: 070690086110"
Food Group:  Branded Food Products Database
Common Name:

Nutrient,Unit,Data points,Std. Error,"1 PACKAGE = 56.0g",1Value per 100 g,
Proximates
"Energy",kcal,--,--,400,714
"Protein",g,--,--,4.00,7.14
"Total lipid (fat)",g,--,--,43.00,76.79
"Carbohydrate, by difference",g,--,--,7.00,12.50
"Fiber, total dietary",g,--,--,4.0,7.1
"Sugars, total",g,--,--,2.00,3.57
Minerals
"Calcium, Ca",mg,--,--,40,71
"Iron, Fe",mg,--,--,1.28,2.29
"Sodium, Na",mg,--,--,0,0
Vitamins
"Vitamin C, total ascorbic acid",mg,--,--,0.0,0.0
"Vitamin A, IU",IU,--,--,0,0
Lipids
"Fatty acids, total saturated",g,--,--,7.000,12.500
"Fatty acids, total trans",g,--,--,0.000,0.000
"Cholesterol",mg,--,--,0,0
Amino Acids
Other
Ingredients
"MACADAMIAS, DRY ROASTED." Date available: 07/14/2017 Date last updated by company: 07/14/2017
