Source: USDA Branded Food Products Database Release December 2017 Software v.3.8.6.4 2017-10-02
Report Run at: December 19, 2017 05:51 EST
"Nutrient data for: 45290864, CHORIZO & POTATOES WITH CHESSY CHIPOTLE SAUCE, UPC: 717854160124"
Food Group:  Branded Food Products Database
Common Name:

Nutrient,Unit,Data points,Std. Error,"1 PACKAGE = 241.0g",1Value per 100 g,
Proximates
"Energy",kcal,--,--,330,137
"Protein",g,--,--,12.00,4.98
"Total lipid (fat)",g,--,--,18.99,7.88
"Carbohydrate, by difference",g,--,--,30.99,12.86
"Fiber, total dietary",g,--,--,5.1,2.1
"Sugars, total",g,--,--,4.00,1.66
Minerals
"Calcium, Ca",mg,--,--,149,62
"Iron, Fe",mg,--,--,1.45,0.60
"Sodium, Na",mg,--,--,800,332
Vitamins
"Vitamin C, total ascorbic acid",mg,--,--,12.1,5.0
"Vitamin A, IU",IU,--,--,1215,504
Lipids
"Fatty acids, total saturated",g,--,--,6.989,2.900
"Fatty acids, total trans",g,--,--,0.000,0.000
"Cholesterol",mg,--,--,46,19
Amino Acids
Other
Ingredients
"ROASTED RED POTATOES (RED POTATOES, DEXTROSE), CORN, WATER, COOKED CHORIZO SAUSAGE (PORK, PAPRIKA, SPICES, SALT, WATER, SUGAR, CITRIC ACID, SODIUM PHOSPHATES, TURMERIC, GARLIC POWDER, DISODIUM INOSINATE, DISODIUM GUANYLATE), HALF AND HALF (MILK, CREAM), RED BELL PEPPERS, BLACK BEANS (BLACK BEANS, WATER), PASTEURIZED PROCESS CHEESE SPREAD (AMERICAN CHEESE [PASTEURIZED MILK, CHEESE CULTURE, SALT, ENZYMES], WATER, WHEY, SODIUM PHOSPHATE, CONTAINS LESS THAN 2% OF MILKFAT, SALT, SODIUM-ALGINATE, LACTIC ACID, APOCAROTENAL [COLOR]), CHEDDAR CLUB CHEESE (CHEDDAR CHEESE [PASTEURIZED MILK, CHEESE CULTURE, SALT, ENZYMES], WATER, SALT, ANNATTO [COLOR]), LESS THAN 2% OF CANOLA OIL, MODIFIED FOOD STARCH, SALT, CHEESE FLAVOR (CHEDDAR CHEESE [PASTEURIZED MILK, CULTURES, SALT, ENZYMES], WATER, YEAST EXTRACT, NATURAL FLAVORS, DISODIUM PHOSPHATE, XANTHAN GUM), VINEGAR, XANTHAN GUM, SMOKED PAPRIKA, YEAST EXTRACT, CHIPOTLE PEPPER, BLUE CHEESE FLAVOR (BLUE CHEESE [MILK, CULTURES, SALT, ENZYMES], WATER, SODIUM PHOSPHATE), MUSTARD FLOUR." Date available: 07/14/2017 Date last updated by company: 07/14/2017
