Source: USDA Branded Food Products Database Release December 2017 Software v.3.8.6.4 2017-10-02
Report Run at: December 19, 2017 05:53 EST
"Nutrient data for: 45058794, CHOW NISSIN ORIGINAL MEIN NOODLES, UPC: 070662087220"
Food Group:  Branded Food Products Database
Common Name:

Nutrient,Unit,Data points,Std. Error,"0.5 CONTAINER = 57.0g",1Value per 100 g,
Proximates
"Energy",kcal,--,--,270,474
"Protein",g,--,--,6.00,10.53
"Total lipid (fat)",g,--,--,12.00,21.05
"Carbohydrate, by difference",g,--,--,34.00,59.65
"Fiber, total dietary",g,--,--,1.0,1.8
"Sugars, total",g,--,--,2.00,3.51
Minerals
"Calcium, Ca",mg,--,--,20,35
"Iron, Fe",mg,--,--,2.37,4.16
"Sodium, Na",mg,--,--,630,1105
Vitamins
"Vitamin C, total ascorbic acid",mg,--,--,0.0,0.0
"Vitamin A, IU",IU,--,--,176,308
Lipids
"Fatty acids, total saturated",g,--,--,4.001,7.020
"Fatty acids, total trans",g,--,--,0.000,0.000
"Cholesterol",mg,--,--,5,9
Amino Acids
Other
Ingredients
"ENRICHED FLOUR (WHEAT FLOUR, NIACIN, REDUCED IRON, THIAMINE MONONITRATE, RIBOFLAVIN, FOLIC ACID), VEGETABLE OIL (PALM OIL, CANOLA OIL, SESAME OIL), SALT, CONTAINS LESS THAN 2% OF BETA CAROTENE COLOR, CARAMEL COLOR, CITRIC ACID, DEXTROSE, DISODIUM GUANYLATE, DISODIUM INOSINATE, DRIED MINCED GARLIC, DRIED RED BELL PEPPER, DRIED SHRIMP, GARLIC POWDER, HYDROLYZED CORN PROTEIN, MALTODEXTRIN, MODIFIED FOOD STARCH, MONOSODIUM GLUTAMATE, NATURAL FLAVOR, ONION POWDER, SHRIMP EXTRACT POWDER, SODIUM PHOSPHATE, SODIUM TRIPOLYPHOSPHATE, SOY LECITHIN, SOYBEAN, SPICE, SUGAR, TBHQ (PRESERVATIVE), WHEAT." Date available: 06/24/2017 Date last updated by company: 06/24/2017
