Source: USDA Branded Food Products Database Release December 2017 Software v.3.8.6.4 2017-10-02
Report Run at: December 19, 2017 05:53 EST
"Nutrient data for: 45123932, CHOW MEIN NOODLES, UPC: 070662087237"
Food Group:  Branded Food Products Database
Common Name:

Nutrient,Unit,Data points,Std. Error,"0.5 CONTAINER = 57.0g",1Value per 100 g,
Proximates
"Energy",kcal,--,--,260,456
"Protein",g,--,--,7.00,12.28
"Total lipid (fat)",g,--,--,10.00,17.54
"Carbohydrate, by difference",g,--,--,34.00,59.65
"Fiber, total dietary",g,--,--,2.0,3.5
"Sugars, total",g,--,--,2.00,3.51
Minerals
"Calcium, Ca",mg,--,--,40,70
"Iron, Fe",mg,--,--,2.37,4.16
"Sodium, Na",mg,--,--,650,1140
Vitamins
"Vitamin C, total ascorbic acid",mg,--,--,0.0,0.0
"Vitamin A, IU",IU,--,--,176,308
Lipids
"Fatty acids, total saturated",g,--,--,4.001,7.020
"Fatty acids, total trans",g,--,--,0.000,0.000
"Cholesterol",mg,--,--,0,0
Amino Acids
Other
Ingredients
"ENRICHED FLOUR (WHEAT FLOUR, NIACIN, REDUCED IRON, THIAMINE MONONITRATE, RIBOFLAVIN, FOLIC ACID), VEGETABLE OIL (PALM OIL, CANOLA OIL), WATER, CONTAINS LESS THAN 2% OF AUTOLYZED YEAST EXTRACT, BAKER'S YEAST EXTRACT, BEEF FAT, BETA CAROTENE COLOR, BROWN SUGAR, CARAMEL COLOR, CITRIC ACID, DEXTRIN, DEXTROSE, DISODIUM GUANYLATE, DISODIUM INOSINATE, DRIED CARROT FLAKE, DRIED GREEN ONION, DRIED ONION FLAKE, DRIED SHIITAKE MUSHROOM, GARLIC POWDER, GELATIN, HYDROLYZED CORN PROTEIN, MALTODEXTRIN, MODIFIED FOOD STARCH, MONOSODIUM GLUTAMATE, NATURAL AND ARTIFICIAL FLAVOR, ONION POWDER, POWDERED BEEF, SALT, SODIUM PHOSPHATE, SODIUM TRIPOLYPHOSPHATE, SOY LECITHIN, SOY SAUCE (WATER, WHEAT, SOYBEAN, SALT, SODIUM BENZOATE [PRESERVATIVE]), SUCRALOSE, SUGAR, TBHQ (PRESERVATIVE), TEXTURED SOY PROTEIN, VINEGAR." Date available: 07/14/2017 Date last updated by company: 07/14/2017
