Source: USDA Branded Food Products Database Release December 2017 Software v.3.8.6.4 2017-10-02
Report Run at: December 19, 2017 05:55 EST
"Nutrient data for: 45276720, CHRISTMAS STOLLEN, UPC: 897579001206"
Food Group:  Branded Food Products Database
Common Name:

Nutrient,Unit,Data points,Std. Error,"0.167 CAKE = 80.0g",1Value per 100 g,
Proximates
"Energy",kcal,--,--,320,400
"Protein",g,--,--,4.00,5.00
"Total lipid (fat)",g,--,--,12.00,15.00
"Carbohydrate, by difference",g,--,--,51.00,63.75
"Fiber, total dietary",g,--,--,2.0,2.5
"Sugars, total",g,--,--,28.00,35.00
Minerals
"Sodium, Na",mg,--,--,120,150
Vitamins
Lipids
"Fatty acids, total saturated",g,--,--,6.000,7.500
"Fatty acids, total trans",g,--,--,0.000,0.000
"Cholesterol",mg,--,--,0,0
Amino Acids
Other
Ingredients
"WHEAT FLOUR, 28% RAISINS, PALM FAT, CANDIED ORANGE AND LEMON PEELS (GLUCOSE, ORANGE PEELS, LEMON PEELS, FRUCTOSE, SUGAR), SUGAR, GLUCOSE, CANOLA OIL, SORBITOL (HUMECTANT), WHEAT STARCH, YEAST, FRUCTOSE, EMULSIFIERS (MONO- AND DIGLYCERIDES OF FATTY ACIDS, SODIUM STEAROYL-2-LACTYLATE), NATURAL FLAVOR, SALT, HYDROGENATED VEGETABLE FAT (PALM, CANOLA)." Date available: 10/13/2017 Date last updated by company: 10/13/2017
