Source: USDA Branded Food Products Database Release December 2017 Software v.3.8.6.4 2017-10-02
Report Run at: December 19, 2017 05:54 EST
"Nutrient data for: 45062266, CHRISTIE'S, LITE GREEK DRESSING, UPC: 073557150122"
Food Group:  Branded Food Products Database
Common Name:

Nutrient,Unit,Data points,Std. Error,"2.0 Tbsp = 29.0g",1Value per 100 g,
Proximates
"Energy",kcal,--,--,80,276
"Protein",g,--,--,0.00,0.00
"Total lipid (fat)",g,--,--,7.00,24.14
"Carbohydrate, by difference",g,--,--,4.00,13.79
"Fiber, total dietary",g,--,--,0.0,0.0
"Sugars, total",g,--,--,3.00,10.34
Minerals
"Calcium, Ca",mg,--,--,0,0
"Iron, Fe",mg,--,--,0.00,0.00
"Sodium, Na",mg,--,--,160,552
Vitamins
"Vitamin C, total ascorbic acid",mg,--,--,0.0,0.0
"Vitamin A, IU",IU,--,--,0,0
Lipids
"Fatty acids, total saturated",g,--,--,0.000,0.000
"Fatty acids, total trans",g,--,--,0.000,0.000
"Cholesterol",mg,--,--,0,0
Amino Acids
Other
Ingredients
"WATER, SOYBEAN OIL, CIDER AND RED WINE VINEGAR, ONION, GARLIC, SALT, DEXTROSE, SUGAR, PROPYLENE GLYCOL, HYDROLYZED WHEAT CORN AND SOY PROTEIN, SPICES, CORN SYRUP SOLIDS, CITRIC ACID, POTASSIUM SORBATE (PRESERVATIVE), XANTHAN GUM, ONION POWDER, CALCIUM DISODIUM EDTA TO PROTECT FLAVOR, NATURAL FLAVOR, TURMERIC." Date available: 06/24/2017 Date last updated by company: 06/24/2017
