Source: USDA Branded Food Products Database Release December 2017 Software v.3.8.6.4 2017-10-02
Report Run at: December 19, 2017 05:56 EST
"Nutrient data for: 45137316, CHUBBY, REGGAE RED SODA, UPC: 033613021759"
Food Group:  Branded Food Products Database
Common Name:

Nutrient,Unit,Data points,Std. Error,"250.0 MLT = 250.0g",1Value per 100 g,
Proximates
"Energy",kcal,--,--,130,52
"Protein",g,--,--,0.00,0.00
"Total lipid (fat)",g,--,--,0.00,0.00
"Carbohydrate, by difference",g,--,--,33.00,13.20
"Sugars, total",g,--,--,33.00,13.20
Minerals
"Sodium, Na",mg,--,--,5,2
Vitamins
Lipids
Amino Acids
Other
Ingredients
"CARBONATED WATER, SUGAR, CITRIC ACID, NATURAL & ARTIFICIAL FLAVORS, SODIUM BENZOATE (PRESERVATIVE), FD & C RED # 40 & YELLOW # 6." Date available: 07/14/2017 Date last updated by company: 07/14/2017
