Source: USDA Branded Food Products Database Release December 2017 Software v.3.8.6.4 2017-10-02
Report Run at: December 19, 2017 05:58 EST
"Nutrient data for: 45040738, CHUCK PATTIES WITH CHEDDAR & BACON, UPC: 079821000834"
Food Group:  Branded Food Products Database
Common Name:

Nutrient,Unit,Data points,Std. Error,"1 PATTY = 150.0g",1Value per 100 g,
Proximates
"Energy",kcal,--,--,470,313
"Protein",g,--,--,27.00,18.00
"Total lipid (fat)",g,--,--,40.01,26.67
"Carbohydrate, by difference",g,--,--,1.00,0.67
"Fiber, total dietary",g,--,--,0.0,0.0
"Sugars, total",g,--,--,1.00,0.67
Minerals
"Calcium, Ca",mg,--,--,150,100
"Iron, Fe",mg,--,--,2.52,1.68
"Sodium, Na",mg,--,--,650,433
Vitamins
"Vitamin C, total ascorbic acid",mg,--,--,0.0,0.0
"Vitamin A, IU",IU,--,--,374,249
Lipids
"Fatty acids, total saturated",g,--,--,16.995,11.330
"Fatty acids, total trans",g,--,--,1.995,1.330
"Cholesterol",mg,--,--,110,73
Amino Acids
Other
Ingredients
"CERTIFIED ANGUS BEEF GROUND CHUCK, PROCESSED CHEDDAR CHEESE ([PASTEURIZED MILK, CHEESE CULTURE, SALT, ENZYMES] WATER, MILK FAT, SODIUM PHOSPHATE, CELLULOSE POWDER, SODIUM HEXAMETAPHOSPHATE, SALT, ARTIFICIAL COLOR) HICKORY BACON (CURED WITH WATER, SALT, SUGAR, SODIUM NITRITE. MAY CONTAIN: NATURAL SMOKE FLAVORING, SODIUM PHOSPHATE, SODIUM ERYTHORBATE, SODIUM ASCORBATE)." Date available: 07/14/2017 Date last updated by company: 07/14/2017
