Source: USDA Branded Food Products Database Release December 2017 Software v.3.8.6.4 2017-10-02
Report Run at: December 19, 2017 06:12 EST
"Nutrient data for: 45275868, CHUNKY PEANUT BUTTER, UPC: 853409003895"
Food Group:  Branded Food Products Database
Common Name:

Nutrient,Unit,Data points,Std. Error,"1 BAR = 44.0g",1Value per 100 g,
Proximates
"Energy",kcal,--,--,160,364
"Protein",g,--,--,15.00,34.09
"Total lipid (fat)",g,--,--,3.50,7.95
"Carbohydrate, by difference",g,--,--,19.00,43.18
"Fiber, total dietary",g,--,--,8.0,18.2
"Sugars, total",g,--,--,5.00,11.36
Minerals
"Calcium, Ca",mg,--,--,0,0
"Iron, Fe",mg,--,--,2.46,5.58
"Sodium, Na",mg,--,--,65,148
Vitamins
"Vitamin C, total ascorbic acid",mg,--,--,0.0,0.0
"Vitamin A, IU",IU,--,--,0,0
Lipids
"Fatty acids, total saturated",g,--,--,0.502,1.140
"Fatty acids, total trans",g,--,--,0.000,0.000
"Cholesterol",mg,--,--,0,0
Amino Acids
Other
Ingredients
"ORGANIC BROWN RICE PROTEIN,. ORGANIC TAPIOCA FIBER, ORGANIC PEANUTS, ORGANIC TAPIOCA SYRUP, ORGANIC AGAVE SYRUP, ORGANIC VEGETABLE GLYCERIN, NATURAL FLAVOR, SUNFLOWER LECITHIN, SALT, ORGANIC STEVIA (REBAUDIOSIDE A)." Date available: 07/14/2017 Date last updated by company: 07/14/2017
