Source: USDA Branded Food Products Database Release December 2017 Software v.3.8.6.4 2017-10-02
Report Run at: December 19, 2017 06:07 EST
"Nutrient data for: 45041111, CHUNKY AVOCADO MINIS, UPC: 616112031537"
Food Group:  Branded Food Products Database
Common Name:

Nutrient,Unit,Data points,Std. Error,"1 cup = 57.0g",1Value per 100 g,
Proximates
"Energy",kcal,--,--,100,175
"Protein",g,--,--,1.00,1.75
"Total lipid (fat)",g,--,--,9.00,15.79
"Carbohydrate, by difference",g,--,--,5.00,8.77
"Fiber, total dietary",g,--,--,3.0,5.3
"Sugars, total",g,--,--,0.00,0.00
Minerals
"Calcium, Ca",mg,--,--,0,0
"Iron, Fe",mg,--,--,0.31,0.55
"Sodium, Na",mg,--,--,0,0
Vitamins
"Vitamin C, total ascorbic acid",mg,--,--,2.1,3.7
"Vitamin A, IU",IU,--,--,88,154
Lipids
"Fatty acids, total saturated",g,--,--,1.499,2.630
"Fatty acids, total trans",g,--,--,0.000,0.000
"Cholesterol",mg,--,--,0,0
Amino Acids
Other
Ingredients
"100% HASS AVOCADOS" Date available: 07/14/2017 Date last updated by company: 07/14/2017
