Source: USDA Branded Food Products Database Release December 2017 Software v.3.8.6.4 2017-10-02
Report Run at: December 19, 2017 06:09 EST
"Nutrient data for: 45102394, CHUNKY CHICKEN NOODLE SOUP, UPC: 011225122446"
Food Group:  Branded Food Products Database
Common Name:

Nutrient,Unit,Data points,Std. Error,"1 cup = 245.0g",1Value per 100 g,
Proximates
"Energy",kcal,--,--,91,37
"Protein",g,--,--,5.00,2.04
"Total lipid (fat)",g,--,--,2.01,0.82
"Carbohydrate, by difference",g,--,--,12.01,4.90
"Fiber, total dietary",g,--,--,1.0,0.4
"Sugars, total",g,--,--,2.01,0.82
Minerals
"Calcium, Ca",mg,--,--,20,8
"Iron, Fe",mg,--,--,0.71,0.29
"Potassium, K",mg,--,--,49,20
"Sodium, Na",mg,--,--,821,335
Vitamins
"Vitamin C, total ascorbic acid",mg,--,--,5.9,2.4
"Vitamin A, IU",IU,--,--,1999,816
Lipids
"Fatty acids, total saturated",g,--,--,0.490,0.200
"Fatty acids, total monounsaturated",g,--,--,1.004,0.410
"Fatty acids, total polyunsaturated",g,--,--,0.490,0.200
"Fatty acids, total trans",g,--,--,0.000,0.000
"Cholesterol",mg,--,--,15,6
Amino Acids
Other
Ingredients
"CHICKEN STOCK, CHICKEN MEAT (COOKED CHICKEN MEAT, WATER, MODIFIED FOOD STARCH, SALT, SODIUM PHOSPHATE), CARROTS, ENRICHED PASTA (DURUM WHEAT FLOUR, WATER, EGG WHITE, WHOLE EGG, NIACIN, FERROUS SULFATE [IRON], THIAMIN MONONITRATE, RIBOFLAVIN, FOLIC ACID), MODIFIED FOOD STARCH, CELERY, CONTAINS LESS THAN 1% OF: SALT, CHICKEN FAT, MONOSODIUM GLUTAMATE, WHEAT FLOUR, AUTOLYZED YEAST, PARSLEY FLAKES, SUGAR, YEAST EXTRACT, NATURAL FLAVOR, ASCORBIC ACID, BETA CAROTENE (FOR COLOR), DEHYDRATED CHIVES." Date available: 07/14/2017 Date last updated by company: 07/14/2017
