Source: USDA Branded Food Products Database Release December 2017 Software v.3.8.6.4 2017-10-02
Report Run at: December 19, 2017 06:06 EST
"Nutrient data for: 45019199, CHUNK WHITE ALBACORE TUNA IN WATER, UPC: 011150001298"
Food Group:  Branded Food Products Database
Common Name:

Nutrient,Unit,Data points,Std. Error,"0.25 cup = 56.0g",1Value per 100 g,
Proximates
"Energy",kcal,--,--,70,125
"Protein",g,--,--,14.00,25.00
"Total lipid (fat)",g,--,--,0.50,0.89
"Carbohydrate, by difference",g,--,--,0.00,0.00
"Fiber, total dietary",g,--,--,0.0,0.0
"Sugars, total",g,--,--,0.00,0.00
Minerals
"Calcium, Ca",mg,--,--,20,36
"Iron, Fe",mg,--,--,0.55,0.98
"Sodium, Na",mg,--,--,260,464
Vitamins
"Vitamin C, total ascorbic acid",mg,--,--,0.0,0.0
"Vitamin A, IU",IU,--,--,0,0
Lipids
"Fatty acids, total saturated",g,--,--,0.000,0.000
"Fatty acids, total trans",g,--,--,0.000,0.000
"Cholesterol",mg,--,--,25,45
Amino Acids
Other
Ingredients
"WHITE TUNA, WATER, VEGETABLE BROTH (SOY), SALT, SODIUM PYROPHOSPHATE." Date available: 06/25/2017 Date last updated by company: 06/25/2017
