Source: USDA Branded Food Products Database Release December 2017 Software v.3.8.6.4 2017-10-02
Report Run at: December 19, 2017 06:10 EST
"Nutrient data for: 45081424, CHUNKY CLASSIC SALSA, UPC: 021130494606"
Food Group:  Branded Food Products Database
Common Name:

Nutrient,Unit,Data points,Std. Error,"2.0 Tbsp = 30.0g",1Value per 100 g,
Proximates
"Energy",kcal,--,--,10,33
"Protein",g,--,--,0.00,0.00
"Total lipid (fat)",g,--,--,0.00,0.00
"Carbohydrate, by difference",g,--,--,2.00,6.67
"Fiber, total dietary",g,--,--,1.0,3.3
"Sugars, total",g,--,--,1.00,3.33
Minerals
"Calcium, Ca",mg,--,--,0,0
"Iron, Fe",mg,--,--,0.60,2.00
"Sodium, Na",mg,--,--,250,833
Vitamins
"Vitamin C, total ascorbic acid",mg,--,--,8.0,26.7
"Vitamin A, IU",IU,--,--,166,555
Lipids
"Fatty acids, total trans",g,--,--,0.000,0.000
Amino Acids
Other
Ingredients
"DICED TOMATOES, WATER, JALAPENOS, TOMATO PASTE, FRESH ONIONS, VINEGAR, SALT, DEHYDRATED ONIONS, JALAPENO PUREE, SUGAR, GARLIC PUREE, NATURAL FLAVOR." Date available: 06/25/2017 Date last updated by company: 06/25/2017
