Source: USDA Branded Food Products Database Release December 2017 Software v.3.8.6.4 2017-10-02
Report Run at: December 19, 2017 06:08 EST
"Nutrient data for: 45055993, CHUNKY CHICKEN CORN CHOWDER, UPC: 639277062154"
Food Group:  Branded Food Products Database
Common Name:

Nutrient,Unit,Data points,Std. Error,"1 cup = 245.0g",1Value per 100 g,
Proximates
"Energy",kcal,--,--,149,61
"Protein",g,--,--,3.99,1.63
"Total lipid (fat)",g,--,--,6.00,2.45
"Carbohydrate, by difference",g,--,--,19.01,7.76
"Fiber, total dietary",g,--,--,2.0,0.8
"Sugars, total",g,--,--,2.01,0.82
Minerals
"Calcium, Ca",mg,--,--,20,8
"Iron, Fe",mg,--,--,0.71,0.29
"Potassium, K",mg,--,--,149,61
"Sodium, Na",mg,--,--,701,286
Vitamins
"Vitamin C, total ascorbic acid",mg,--,--,0.0,0.0
"Vitamin A, IU",IU,--,--,1499,612
Lipids
"Fatty acids, total saturated",g,--,--,1.004,0.410
"Fatty acids, total monounsaturated",g,--,--,1.494,0.610
"Fatty acids, total polyunsaturated",g,--,--,2.989,1.220
"Fatty acids, total trans",g,--,--,0.000,0.000
"Cholesterol",mg,--,--,5,2
Amino Acids
Other
Ingredients
"CHICKEN BROTH, CORN, POTATOES, CHICKEN MEAT (COOKED CHICKEN MEAT, WATER, MODIFIED FOOD STARCH, SALT, SODIUM PHOSPHATE), CARROTS, MODIFIED FOOD STARCH, SOYBEAN OIL, CONTAINS LESS THAN 2% OF: WHEAT FLOUR, SALT, SUGAR, SOY PROTEIN CONCENTRATE, FLAVORING, DRIED TORULA YEAST, HYDROLYZED WHEAT GLUTEN, TITANIUM DIOXIDE (COLOR), YEAST EXTRACT, CHICKEN FAT, BETA CAROTENE (FOR COLOR)." Date available: 06/24/2017 Date last updated by company: 06/24/2017
