Source: USDA Branded Food Products Database Release December 2017 Software v.3.8.6.4 2017-10-02
Report Run at: December 19, 2017 06:20 EST
"Nutrient data for: 45032569, CIBAO MEAT PRODUCTS, DON PEDRO, JAMONADA COOKED SALAMI, UPC: 786119001069"
Food Group:  Branded Food Products Database
Common Name:

Nutrient,Unit,Data points,Std. Error,"2.0 ONZ = 56.0g",1Value per 100 g,
Proximates
"Energy",kcal,--,--,60,107
"Protein",g,--,--,9.00,16.07
"Total lipid (fat)",g,--,--,2.00,3.57
"Carbohydrate, by difference",g,--,--,1.00,1.79
"Fiber, total dietary",g,--,--,0.0,0.0
"Sugars, total",g,--,--,0.00,0.00
Minerals
"Calcium, Ca",mg,--,--,0,0
"Iron, Fe",mg,--,--,0.35,0.63
"Sodium, Na",mg,--,--,480,857
Vitamins
"Vitamin C, total ascorbic acid",mg,--,--,0.0,0.0
"Vitamin A, IU",IU,--,--,0,0
Lipids
"Fatty acids, total saturated",g,--,--,1.002,1.790
"Fatty acids, total trans",g,--,--,0.000,0.000
"Cholesterol",mg,--,--,25,45
Amino Acids
Other
Ingredients
"PORK, WATER, SALT, CORN SYRUP SOLIDS, DEXTROSE, SODIUM PHOSPHATES, NATURAL SMOKE FLAVOR, MONOSODIUM GLUTAMATE, HYDROLYZED SOY PROTEIN, SODIUM ERYTHORBATE, SILICON DIOXIDE, SODIUM NITRITE" Date available: 07/14/2017 Date last updated by company: 07/14/2017
