Source: USDA Branded Food Products Database Release December 2017 Software v.3.8.6.4 2017-10-02
Report Run at: December 19, 2017 06:21 EST
"Nutrient data for: 45011706, CIELITO, HABANERO CHILI POWDER WITH LIME, HOT!, UPC: 094332307685"
Food Group:  Branded Food Products Database
Common Name:

Nutrient,Unit,Data points,Std. Error,"1 tsp = 1.0g",1Value per 100 g,
Proximates
"Energy",kcal,--,--,0,0
"Protein",g,--,--,0.00,0.00
"Total lipid (fat)",g,--,--,0.00,0.00
"Carbohydrate, by difference",g,--,--,0.00,0.00
"Fiber, total dietary",g,--,--,0.0,0.0
"Sugars, total",g,--,--,0.00,0.00
Minerals
"Sodium, Na",mg,--,--,230,23000
Vitamins
Lipids
"Fatty acids, total saturated",g,--,--,0.000,0.000
"Fatty acids, total trans",g,--,--,0.000,0.000
"Cholesterol",mg,--,--,0,0
Amino Acids
Other
Ingredients
"HABANERO CHILLI, CHILLI PEPPER, IODIZED SALT, DEHYDRATED LIME JUICE, SILICIUM DIOXIDE, NATURAL COLOR (ANNATTO EXTRACT), LINALOL (ZM4 ANTIOXIDANT)." Date available: 06/24/2017 Date last updated by company: 06/24/2017
