Source: USDA Branded Food Products Database Release December 2017 Software v.3.8.6.4 2017-10-02
Report Run at: December 19, 2017 06:21 EST
"Nutrient data for: 45331049, CILANTRO AVOCADO DRESSING, UPC: 070200500693"
Food Group:  Branded Food Products Database
Common Name:

Nutrient,Unit,Data points,Std. Error,"2.0 Tbsp = 30.0g",1Value per 100 g,
Proximates
"Energy",kcal,--,--,110,367
"Protein",g,--,--,1.00,3.33
"Total lipid (fat)",g,--,--,12.00,40.00
"Carbohydrate, by difference",g,--,--,1.00,3.33
"Fiber, total dietary",g,--,--,0.0,0.0
"Sugars, total",g,--,--,1.00,3.33
Minerals
"Calcium, Ca",mg,--,--,0,0
"Iron, Fe",mg,--,--,0.00,0.00
"Sodium, Na",mg,--,--,220,733
Vitamins
"Vitamin D",IU,--,--,0,0
Lipids
"Fatty acids, total saturated",g,--,--,2.001,6.670
"Fatty acids, total trans",g,--,--,0.000,0.000
"Cholesterol",mg,--,--,5,17
Amino Acids
Other
Ingredients
"SOYBEAN OIL, WATER, BUTTERMILK, DISTILLED VINEGAR, AVOCADO, EGG YOLK, SALT, POBLANO PEPPER, SUGAR, PARMESAN CHEESE (PART-SKIM MILK, CHEESE CULTURE, SALT, ENZYMES), GARLIC*, GREEN ONION, SPICE, XANTHAN GUM, NATURAL FLAVOR, SPINACH EXTRACT, CILANTRO*, CITRIC ACID." Date available: 10/13/2017 Date last updated by company: 10/13/2017
