Source: USDA Branded Food Products Database Release December 2017 Software v.3.8.6.4 2017-10-02
Report Run at: December 19, 2017 06:22 EST
"Nutrient data for: 45276704, CILANTRO LIME TURKEY STICK, UPC: 852675006098"
Food Group:  Branded Food Products Database
Common Name:

Nutrient,Unit,Data points,Std. Error,"1 PIECE = 28.0g",1Value per 100 g,
Proximates
"Energy",kcal,--,--,50,179
"Protein",g,--,--,7.00,25.00
"Total lipid (fat)",g,--,--,1.50,5.36
"Carbohydrate, by difference",g,--,--,2.00,7.14
"Fiber, total dietary",g,--,--,0.0,0.0
"Sugars, total",g,--,--,1.00,3.57
Minerals
"Calcium, Ca",mg,--,--,40,143
"Iron, Fe",mg,--,--,1.29,4.59
"Sodium, Na",mg,--,--,320,1143
Vitamins
"Vitamin C, total ascorbic acid",mg,--,--,6.4,22.9
"Vitamin A, IU",IU,--,--,357,1275
Lipids
"Fatty acids, total saturated",g,--,--,0.501,1.790
"Cholesterol",mg,--,--,25,89
Amino Acids
Other
Ingredients
"TURKEY, HONEY, SEA SALT, ENCAPSULATED LACTIC ACID, DRIED CILANTRO FLAKES, LIME JUICE , TOMATO POWDER, BLACK PEPPER, GROUND CORIANDER, CELERY POWDER, PARSLEY FLAKES, CHILI PEPPER, ONION, GARLIC , IN COLLAGEN CASING" Date available: 07/14/2017 Date last updated by company: 07/14/2017
