Source: USDA Branded Food Products Database Release December 2017 Software v.3.8.6.4 2017-10-02
Report Run at: December 19, 2017 06:23 EST
"Nutrient data for: 45241227, CINDY'S KITCHEN, PEAR VINAIGRETTE DRESSING MARINADE, UPC: 034683349033"
Food Group:  Branded Food Products Database
Common Name:

Nutrient,Unit,Data points,Std. Error,"2.0 TBSP | APPROX. = 30.0g",1Value per 100 g,
Proximates
"Energy",kcal,--,--,90,300
"Protein",g,--,--,0.00,0.00
"Total lipid (fat)",g,--,--,7.00,23.33
"Carbohydrate, by difference",g,--,--,6.00,20.00
"Fiber, total dietary",g,--,--,1.0,3.3
"Sugars, total",g,--,--,5.00,16.67
Minerals
"Calcium, Ca",mg,--,--,0,0
"Iron, Fe",mg,--,--,0.00,0.00
"Sodium, Na",mg,--,--,65,217
Vitamins
"Vitamin C, total ascorbic acid",mg,--,--,4.0,13.3
"Vitamin A, IU",IU,--,--,0,0
Lipids
"Fatty acids, total saturated",g,--,--,0.501,1.670
"Fatty acids, total trans",g,--,--,0.000,0.000
"Cholesterol",mg,--,--,0,0
Amino Acids
Other
Ingredients
"ORGANIC SUNFLOWER OIL, FILTERED WATER, PEAR PUREE, PEAR JUICE CONCENTRATE, WHITE WINE VINEGAR, BROWN SUGAR, SEA SALT, CITRIC ACID, XANTHAN GUM, CINNAMON, BLACK PEPPER." Date available: 07/14/2017 Date last updated by company: 07/14/2017
