Source: USDA Branded Food Products Database Release December 2017 Software v.3.8.6.4 2017-10-02
Report Run at: December 19, 2017 06:27 EST
"Nutrient data for: 45123992, CINNAMON CRUMB MINI LOAF CAKES, UPC: 013087207774"
Food Group:  Branded Food Products Database
Common Name:

Nutrient,Unit,Data points,Std. Error,"1 CAKE = 57.0g",1Value per 100 g,
Proximates
"Energy",kcal,--,--,240,421
"Protein",g,--,--,3.00,5.26
"Total lipid (fat)",g,--,--,11.00,19.30
"Carbohydrate, by difference",g,--,--,32.00,56.14
"Fiber, total dietary",g,--,--,1.0,1.8
"Sugars, total",g,--,--,17.00,29.82
Minerals
"Calcium, Ca",mg,--,--,20,35
"Iron, Fe",mg,--,--,1.52,2.66
"Sodium, Na",mg,--,--,200,351
Vitamins
"Vitamin C, total ascorbic acid",mg,--,--,0.0,0.0
"Vitamin A, IU",IU,--,--,140,246
Lipids
"Fatty acids, total saturated",g,--,--,2.998,5.260
"Fatty acids, total trans",g,--,--,0.000,0.000
"Cholesterol",mg,--,--,20,35
Amino Acids
Other
Ingredients
"ENRICHED FLOUR (WHEAT FLOUR, NIACIN, IRON, THIAMINE MONONITRATE, RIBOFLAVIN, FOLIC ACID), SUGAR, WATER, SOYBEAN OIL, EGGS, INVERT SUGAR, MARGARINE (PALM OIL, WATER, CONTAINS 2% OR LESS OF; SALT, MONO- AND DIGLYCERIDES, NATURAL FLAVOR [CONTAINS MILK], CITRIC ACID, VITAMIN A PALMITATE ADDED, BETA CAROTENE [COLOR]), CONTAINS 2% OR LESS OF: WHEY (MILK_, PALM OIL, GLYCERIN, CINNAMON, MONO- AND DIGLYCERIDES, BUTTER (CREAM [MILK], SALT), MODIFIED CORN STARCH, PRESERVATIVES (SODIUM PROPIONATE, POTASSIUM SORBATE), SALT, LEAVENING (SODIUM ACID PYROPHOSPHATE, BAKING SODA, MONOCALCIUM PHOSPHATE), CORN FLOUR, CORN STARCH, NATURAL FLAVOR (CONTAINS MILK), SOY LECITHIN, XANTHAN GUM, CITRIC ACID." Date available: 07/14/2017 Date last updated by company: 07/14/2017
