Source: USDA Branded Food Products Database Release December 2017 Software v.3.8.6.4 2017-10-02
Report Run at: December 19, 2017 06:24 EST
"Nutrient data for: 45052107, CINNAMON APPLE SAUCE, UPC: 041497216666"
Food Group:  Branded Food Products Database
Common Name:

Nutrient,Unit,Data points,Std. Error,"0.5 cup = 126.0g",1Value per 100 g,
Proximates
"Energy",kcal,--,--,89,71
"Protein",g,--,--,0.00,0.00
"Total lipid (fat)",g,--,--,0.00,0.00
"Carbohydrate, by difference",g,--,--,22.00,17.46
"Fiber, total dietary",g,--,--,2.0,1.6
"Sugars, total",g,--,--,17.00,13.49
Minerals
"Potassium, K",mg,--,--,84,67
"Sodium, Na",mg,--,--,10,8
Vitamins
Lipids
"Fatty acids, total saturated",g,--,--,0.000,0.000
"Fatty acids, total trans",g,--,--,0.000,0.000
"Cholesterol",mg,--,--,0,0
Amino Acids
Other
Ingredients
"APPLES, HIGH FRUCTOSE CORN SYRUP, CORN SYRUP, SUGAR, WATER, SPICES, ASCORBIC ACID (TO MAINTAIN COLOR)." Date available: 06/25/2017 Date last updated by company: 06/25/2017
