Source: USDA Branded Food Products Database Release December 2017 Software v.3.8.6.4 2017-10-02
Report Run at: December 19, 2017 06:32 EST
"Nutrient data for: 45263526, CINNAMON RAISIN MAC NUT SWEETBREAD, UPC: 011643090020"
Food Group:  Branded Food Products Database
Common Name:

Nutrient,Unit,Data points,Std. Error,"1 SLICE = 56.0g",1Value per 100 g,
Proximates
"Energy",kcal,--,--,220,393
"Protein",g,--,--,5.00,8.93
"Total lipid (fat)",g,--,--,7.00,12.50
"Carbohydrate, by difference",g,--,--,37.00,66.07
"Fiber, total dietary",g,--,--,1.0,1.8
"Sugars, total",g,--,--,14.00,25.00
Minerals
"Calcium, Ca",mg,--,--,40,71
"Iron, Fe",mg,--,--,1.42,2.53
"Sodium, Na",mg,--,--,105,188
Vitamins
"Vitamin C, total ascorbic acid",mg,--,--,0.0,0.0
"Vitamin A, IU",IU,--,--,197,351
Lipids
"Fatty acids, total saturated",g,--,--,1.999,3.570
"Fatty acids, total trans",g,--,--,0.000,0.000
"Cholesterol",mg,--,--,20,36
Amino Acids
Other
Ingredients
"ENRICHED FLOUR (BLEACHED FLOUR, NIACIN, IRON, THIAMINE MONONITRATE, RIBOFLAVIN, FOLIC ACID), WATER, SUGAR, EGGS, RAISINS, PALM OIL, MONO AND DIGLYCERIDES, ARTIFICIAL FLAVOR AND BETA CAROTENE (COLOR), MACADAMIA NUTS, NONFAT DRY MILK, YEAST, SALT, CINNAMON, NATURAL FLAVOR." Date available: 07/14/2017 Date last updated by company: 07/14/2017
