Source: USDA Branded Food Products Database Release December 2017 Software v.3.8.6.4 2017-10-02
Report Run at: December 19, 2017 06:36 EST
"Nutrient data for: 45078856, CINNAMON STICKS, UPC: 714444001188"
Food Group:  Branded Food Products Database
Common Name:

Nutrient,Unit,Data points,Std. Error,"1 ONZ = 28.0g",1Value per 100 g,
Proximates
"Energy",kcal,--,--,74,264
"Protein",g,--,--,1.10,3.93
"Total lipid (fat)",g,--,--,0.90,3.21
"Carbohydrate, by difference",g,--,--,23.00,82.14
"Fiber, total dietary",g,--,--,15.4,55.0
"Sugars, total",g,--,--,0.62,2.21
Minerals
"Calcium, Ca",mg,--,--,350,1250
"Iron, Fe",mg,--,--,19.29,68.88
"Sodium, Na",mg,--,--,7,25
Vitamins
"Vitamin C, total ascorbic acid",mg,--,--,4.3,15.3
"Vitamin A, IU",IU,--,--,179,638
Lipids
"Fatty acids, total saturated",g,--,--,0.185,0.660
"Fatty acids, total trans",g,--,--,0.000,0.000
"Cholesterol",mg,--,--,0,0
Amino Acids
Other
Ingredients
"INGREDIENTS: CINNAMON STICKS" Date available: 10/13/2017 Date last updated by company: 10/13/2017
