Source: USDA Branded Food Products Database Release December 2017 Software v.3.8.6.4 2017-10-02
Report Run at: December 19, 2017 06:26 EST
"Nutrient data for: 45221592, CINNAMON BUNS, UPC: 760672620943"
Food Group:  Branded Food Products Database
Common Name:

Nutrient,Unit,Data points,Std. Error,"1.2 ONZ = 34.0g",1Value per 100 g,
Proximates
"Energy",kcal,--,--,100,294
"Protein",g,--,--,1.00,2.94
"Total lipid (fat)",g,--,--,3.50,10.29
"Carbohydrate, by difference",g,--,--,16.00,47.06
"Fiber, total dietary",g,--,--,1.0,2.9
"Sugars, total",g,--,--,8.00,23.53
Minerals
"Calcium, Ca",mg,--,--,20,59
"Iron, Fe",mg,--,--,3.50,10.28
"Sodium, Na",mg,--,--,50,147
Vitamins
"Vitamin C, total ascorbic acid",mg,--,--,0.0,0.0
"Vitamin A, IU",IU,--,--,0,0
Lipids
"Fatty acids, total saturated",g,--,--,0.500,1.470
"Fatty acids, total trans",g,--,--,0.000,0.000
"Cholesterol",mg,--,--,5,15
Amino Acids
Other
Ingredients
"UN-BLEACHED AND UN-BROMATED ENRICHED WHEAT FLOUR (NIACIN, REDUCED IRON, THIAMIN MONONITRATE, RIBOFLAVIN, FOLIC ACID, MALTED BARLEY FLOUR), FILTERED WATER, EGGS, SOYBEAN OIL, PALM OIL SHORTENING, TOFU, PURE CANE SUGAR, GROUND CINNAMON, YEAST, VANILLA EXTRACT, NATURAL FLAVORS, VINEGAR, ORANGE RIND, SALT, GUAR GUM." Date available: 10/10/2017 Date last updated by company: 10/10/2017
