Source: USDA Branded Food Products Database Release December 2017 Software v.3.8.6.4 2017-10-02
Report Run at: December 19, 2017 06:23 EST
"Nutrient data for: 45256457, CINNABON, MINI CHURROS, UPC: 664383029548"
Food Group:  Branded Food Products Database
Common Name:

Nutrient,Unit,Data points,Std. Error,"2.0 PIECES = 57.0g",1Value per 100 g,
Proximates
"Energy",kcal,--,--,140,246
"Protein",g,--,--,3.00,5.26
"Total lipid (fat)",g,--,--,1.00,1.75
"Carbohydrate, by difference",g,--,--,29.00,50.88
"Fiber, total dietary",g,--,--,1.0,1.8
"Sugars, total",g,--,--,12.00,21.05
Minerals
"Calcium, Ca",mg,--,--,20,35
"Iron, Fe",mg,--,--,1.52,2.66
"Sodium, Na",mg,--,--,250,439
Vitamins
"Vitamin C, total ascorbic acid",mg,--,--,0.0,0.0
"Vitamin A, IU",IU,--,--,0,0
Lipids
"Fatty acids, total saturated",g,--,--,0.000,0.000
"Fatty acids, total trans",g,--,--,0.000,0.000
"Cholesterol",mg,--,--,0,0
Amino Acids
Other
Ingredients
"CHURRO MIX (ENRICHED BLEACHED FLOUR (FLOUR, IRON, THIAMINE MONONITRATE, RIBOFLAVIN, FOLIC ACID), SALT, VEGETABLE SHORTENING, WHEAT GLUTEN, SODIUM ALUMINUM PHOSPHATE, SODIUM BICARBONATE, SUGAR, NATURAL AND ARTIFICIAL FLAVORING, EGG WHITES, MODIFIED FOOD STARCH, GUAR GUM, MONO-AND DIGLYCERIDES), WATER, CREAM FILLING (WATER, CORN SYRUP, MODIFIED FOOD STARCH PALM OIL, CARBOXY METHYLCELLULOSE, MICROCRYSTALLINE-CELLULOSE, NATURAL AND ARTIFICIAL FLAVORS, SALT, GLUCONO-DELTA-LACTOSE, CARRAGEENAN, TITANIUM DIOXIDE, POTASSIUM SORBATE, XANTHAN GUM, POLYSORBATE 60., YELLOW 5 AND YELLOW 6), CREAM CHEESE FROSTING {POWDERED SUGAR {SUGAR, CORNSTARCH}, CREAM CHEESE (PASTEURIZED MILK AND CREAM CHEESE CULTURE SALT, CAROB BEAN GUM}, WATER, HIGH FRUCTOSE CORN SYRUP, CORN SYRUP, MARGRAINE {LIQUID AND PARTIALLY HYDROGENATED SOYBEAN OIL, WATER, SALT, WHEY SOLIDS, SOY LECITHIN, VEGETABLE MONO - AND DIGLYCERIDES, SODIUM BENZONATE {PRESERVATIVE}, NATURAL AND ARTIFICIAL FLAVOR, BETA CAROTENE, (COLOR), VITAMIN A PALMITATE ADDED}, WHEY, PARTIALLY HYDROGENATED SOYBEAN OIL, NATURAL, AND ARTIFICIAL FLAVOR, POTASSIUM SORBATE {PRESERVATIVE}, SALT, POLYSORBATE 60, XANTHAN GUM, YELLOW 5, YELLOW 6), SUGAR, DOUGH CONDITIONER (VEGETABLE GUMS, WHEAT FLOUR, MONO-AND DIGLYCERIDES, SALT, SOYBEAN OIL, MODIFIED CELLULOSE, SALT, SOYBEAN OIL, MODIFIED CELLULOSE, ENZYMES), CINNAMON. MODIFIED FOOD STARCH." Date available: 09/25/2017 Date last updated by company: 09/25/2017
