Source: USDA Branded Food Products Database Release December 2017 Software v.3.8.6.4 2017-10-02
Report Run at: December 19, 2017 06:31 EST
"Nutrient data for: 45209936, CINNAMON RAISIN BAGELS, UPC: 733147239322"
Food Group:  Branded Food Products Database
Common Name:

Nutrient,Unit,Data points,Std. Error,"1 BAGEL = 142.0g",1Value per 100 g,
Proximates
"Energy",kcal,--,--,381,268
"Protein",g,--,--,14.00,9.86
"Total lipid (fat)",g,--,--,1.51,1.06
"Carbohydrate, by difference",g,--,--,78.00,54.93
"Fiber, total dietary",g,--,--,4.0,2.8
"Sugars, total",g,--,--,9.00,6.34
Minerals
"Calcium, Ca",mg,--,--,151,106
"Iron, Fe",mg,--,--,3.49,2.46
"Potassium, K",mg,--,--,180,127
"Sodium, Na",mg,--,--,760,535
Vitamins
"Vitamin C, total ascorbic acid",mg,--,--,7.0,4.9
"Thiamin",mg,--,--,0.000,0.000
"Riboflavin",mg,--,--,0.425,0.299
"Niacin",mg,--,--,1.935,1.363
"Vitamin A, IU",IU,--,--,0,0
Lipids
"Fatty acids, total saturated",g,--,--,0.497,0.350
"Fatty acids, total monounsaturated",g,--,--,0.000,0.000
"Fatty acids, total polyunsaturated",g,--,--,0.497,0.350
"Fatty acids, total trans",g,--,--,0.000,0.000
"Cholesterol",mg,--,--,0,0
Amino Acids
Other
Ingredients
"UNBLEACHED UNBROMATED ENRICHED WHEAT FLOUR (MALTED BARLEY FLOUR, NIACIN, REDUCED IRON, THIAMIN MONONITRATE, RIBOFLAVIN, FOLIC ACID), WATER, RAISINS, YEAST, CONTAINS 2% OR LESS: SUGAR, SALT, CORN MEAL, CINNAMON, CARAMEL COLOR (CONTAINS SULFITES), MOLASSES, ASCORBIC ACID, SOYBEAN OIL, ENZYMES, CALCIUM PROPIONATE (USED AS A PRESERVATIVE), PALM OIL, MONOGLYCERIDES, NATURAL AND ARTIFICIAL FLAVOR, DATEM, MOLASSES SOYBEAN OIL, L-CYSTEINE, ASCORBIC ACID, ENZYMES." Date available: 07/14/2017 Date last updated by company: 07/14/2017
