Source: USDA Branded Food Products Database Release December 2017 Software v.3.8.6.4 2017-10-02
Report Run at: December 19, 2017 06:31 EST
"Nutrient data for: 45021248, CINNAMON RAISIN BAGELS, UPC: 011150040761"
Food Group:  Branded Food Products Database
Common Name:

Nutrient,Unit,Data points,Std. Error,"1 BAGEL = 81.0g",1Value per 100 g,
Proximates
"Energy",kcal,--,--,240,296
"Protein",g,--,--,7.00,8.64
"Total lipid (fat)",g,--,--,1.00,1.23
"Carbohydrate, by difference",g,--,--,49.00,60.49
"Fiber, total dietary",g,--,--,2.0,2.5
"Sugars, total",g,--,--,7.00,8.64
Minerals
"Calcium, Ca",mg,--,--,100,123
"Iron, Fe",mg,--,--,3.67,4.53
"Sodium, Na",mg,--,--,350,432
Vitamins
"Vitamin C, total ascorbic acid",mg,--,--,0.0,0.0
"Vitamin A, IU",IU,--,--,0,0
Lipids
"Fatty acids, total saturated",g,--,--,0.000,0.000
"Fatty acids, total trans",g,--,--,0.000,0.000
"Cholesterol",mg,--,--,0,0
Amino Acids
Other
Ingredients
"ENRICHED HIGH GLUTEN FLOUR (WHEAT FLOUR, MALTED BARLEY, NIACIN, REDUCED IRON, THIAMIN MONONITRATE, RIBOFLAVIN, AND FOLIC ACID), WATER, RAISINS, SUGAR, CINNAMON, MALT, YEAST, SALT, MONO AND DIGLYCERIDES, CALCIUM PROPIONATE (PRESERVATIVE), CORNMEAL." Date available: 06/25/2017 Date last updated by company: 06/25/2017
