Source: USDA Branded Food Products Database Release December 2017 Software v.3.8.6.4 2017-10-02
Report Run at: December 19, 2017 06:41 EST
"Nutrient data for: 45146164, CIRCLE K, FAVORITES, PEANUTS BBQ STYLE, UPC: 038445122650"
Food Group:  Branded Food Products Database
Common Name:

Nutrient,Unit,Data points,Std. Error,"0.25 cup = 30.0g",1Value per 100 g,
Proximates
"Energy",kcal,--,--,170,567
"Protein",g,--,--,7.00,23.33
"Total lipid (fat)",g,--,--,14.00,46.67
"Carbohydrate, by difference",g,--,--,6.00,20.00
"Fiber, total dietary",g,--,--,2.0,6.7
"Sugars, total",g,--,--,2.00,6.67
Minerals
"Calcium, Ca",mg,--,--,20,67
"Iron, Fe",mg,--,--,0.60,2.00
"Sodium, Na",mg,--,--,150,500
Vitamins
"Vitamin C, total ascorbic acid",mg,--,--,0.0,0.0
"Vitamin A, IU",IU,--,--,166,555
Lipids
"Fatty acids, total saturated",g,--,--,2.001,6.670
"Fatty acids, total trans",g,--,--,0.000,0.000
"Cholesterol",mg,--,--,0,0
Amino Acids
Other
Ingredients
"PEANUTS, BBQ SEASONING (SUGAR, SALT, TORULA YEAST, ONION, MAPLE SUGAR, TOMATO, SPICES, NATURAL FLAVORS [INCLUDING SMOKE], GARLIC, CITRIC ACID, DISODIUM INOSINATE AND GUANYLATE, EXTRACTIVE OF PAPRIKA, LESS THAN 2% OF TRICALCIUM PHOSPHATE ADDED TO PREVENT CAKING), CANOLA AND/OR PEANUT OIL, SOY LECITHIN" Date available: 07/14/2017 Date last updated by company: 07/14/2017
