Source: USDA Branded Food Products Database Release December 2017 Software v.3.8.6.4 2017-10-02
Report Run at: December 19, 2017 06:42 EST
"Nutrient data for: 45188009, CISSE COCOA CO, DARK CHOCOLATE LAYER CAKE MIX, UPC: 859283003037"
Food Group:  Branded Food Products Database
Common Name:

Nutrient,Unit,Data points,Std. Error,"0.083 PKG = 44.0g",1Value per 100 g,
Proximates
"Energy",kcal,--,--,160,364
"Protein",g,--,--,3.00,6.82
"Total lipid (fat)",g,--,--,1.00,2.27
"Carbohydrate, by difference",g,--,--,37.00,84.09
"Fiber, total dietary",g,--,--,2.0,4.5
"Sugars, total",g,--,--,24.00,54.55
Minerals
"Calcium, Ca",mg,--,--,0,0
"Iron, Fe",mg,--,--,1.31,2.97
"Sodium, Na",mg,--,--,200,455
Vitamins
"Vitamin C, total ascorbic acid",mg,--,--,0.0,0.0
"Vitamin A, IU",IU,--,--,0,0
Lipids
"Fatty acids, total saturated",g,--,--,0.000,0.000
"Fatty acids, total trans",g,--,--,0.000,0.000
Amino Acids
Other
Ingredients
"ORGANIC CANE SUGAR*, UNBLEACHED WHEAT FLOUR (WHEAT FLOUR, MALTED BARLEY FLOUR, NIACIN, IRON, THIAMIN MONONITRATE, RIBOFLAVIN, FOLIC ACID), ORGANIC COCOA POWDER*, BAKING SODA, ESPRESSO POWDER, SEA SALT, GROUND VANILLA BEANS." Date available: 07/14/2017 Date last updated by company: 07/14/2017
