Source: USDA Branded Food Products Database Release December 2017 Software v.3.8.6.4 2017-10-02
Report Run at: December 19, 2017 06:43 EST
"Nutrient data for: 45291882, CITRUS MOUNTAIN SODA, UPC: 075460922339"
Food Group:  Branded Food Products Database
Common Name:

Nutrient,Unit,Data points,Std. Error,"20.0 OZA = 591.0g",1Value per 100 g,
Proximates
"Energy",kcal,--,--,301,51
"Protein",g,--,--,0.00,0.00
"Total lipid (fat)",g,--,--,0.00,0.00
"Carbohydrate, by difference",g,--,--,81.03,13.71
"Sugars, total",g,--,--,81.03,13.71
Minerals
"Potassium, K",mg,--,--,100,17
"Sodium, Na",mg,--,--,59,10
Vitamins
Lipids
Amino Acids
Other
Ingredients
"CARBONATED WATER, HIGH FRUCTOSE CORN SYRUP, CITRIC ACID, ORANGE JUICE CONCENTRATE, NATURAL FLAVOR, POTASSIUM BENZOATE (PRESERVATIVE), GUM ACACIA, POTASSIUM CITRATE, CAFFEINE, CALCIUM DISODIUM EDTA (TO PROTECT FLAVOR), YELLOW 5, BROMINATED VEGETABLE OIL." Date available: 07/14/2017 Date last updated by company: 07/14/2017
