Source: USDA Branded Food Products Database Release December 2017 Software v.3.8.6.4 2017-10-02
Report Run at: December 19, 2017 06:46 EST
"Nutrient data for: 45134710, CLAIM JUMPER Blackberry Pie, UNPREPARED, GTIN: 00769950701046"
Food Group:  Branded Food Products Database
Common Name:

Nutrient,Unit,Data points,Std. Error,"0.1 pie (130g) = 130.0g",1Value per 100 g,
Proximates
"Energy",kcal,--,--,350,269
"Protein",g,--,--,3.00,2.31
"Total lipid (fat)",g,--,--,17.00,13.08
"Carbohydrate, by difference",g,--,--,46.99,36.15
"Fiber, total dietary",g,--,--,4.0,3.1
"Sugars, total",g,--,--,23.00,17.69
Minerals
"Calcium, Ca",mg,--,--,0,0
"Iron, Fe",mg,--,--,1.79,1.38
"Potassium, K",mg,--,--,114,88
"Sodium, Na",mg,--,--,170,131
Vitamins
"Vitamin C, total ascorbic acid",mg,--,--,1.2,0.9
"Vitamin A, IU",IU,--,--,0,0
Lipids
"Fatty acids, total saturated",g,--,--,3.497,2.690
"Fatty acids, total monounsaturated",g,--,--,6.994,5.380
"Fatty acids, total polyunsaturated",g,--,--,2.002,1.540
"Fatty acids, total trans",g,--,--,3.497,2.690
"Cholesterol",mg,--,--,0,0
Amino Acids
Other
Ingredients
"Filling:  Marion Blackberries, Sugar, Water, Apples, Modified Corn Starch, Corn Starch, Salt. Crust:  Enriched Wheat Flour (Flour, Niacin, Iron, Thiamine Mononitrate, Riboflavin, Folic Acid), Vegetable Shortening (Partially Hydrogenated Soybean Oil), Water, Dextrose, Salt. Contains: Wheat." Date available: 10/12/2017 Date last updated by company: 10/12/2017
