Source: USDA Branded Food Products Database Release December 2017 Software v.3.8.6.4 2017-10-02
Report Run at: December 19, 2017 06:48 EST
"Nutrient data for: 45158341, CLAM CLUB, TOMATO CLAM COCKTAIL, UPC: 755230104003"
Food Group:  Branded Food Products Database
Common Name:

Nutrient,Unit,Data points,Std. Error,"8.0 OZA = 240.0g",1Value per 100 g,
Proximates
"Energy",kcal,--,--,70,29
"Protein",g,--,--,0.00,0.00
"Total lipid (fat)",g,--,--,0.00,0.00
"Carbohydrate, by difference",g,--,--,18.00,7.50
"Fiber, total dietary",g,--,--,1.0,0.4
"Sugars, total",g,--,--,10.01,4.17
Minerals
"Calcium, Ca",mg,--,--,0,0
"Iron, Fe",mg,--,--,1.08,0.45
"Sodium, Na",mg,--,--,720,300
Vitamins
"Vitamin C, total ascorbic acid",mg,--,--,1.9,0.8
"Vitamin A, IU",IU,--,--,149,62
Lipids
Amino Acids
Other
Ingredients
"WATER, CONCENTRATED TOMATO JUICE, CORN SYRUP, MONOSODIUM GLUTAMATE, SALT, CITRIC ACID, CELERY POWDER, ONION POWDER, GARLIC POWDER, SPICES, DRIED CLAM BROTH, RED 40, VINEGAR." Date available: 07/14/2017 Date last updated by company: 07/14/2017
