Source: USDA Branded Food Products Database Release December 2017 Software v.3.8.6.4 2017-10-02
Report Run at: December 19, 2017 06:52 EST
"Nutrient data for: 45050183, CLASSIC BARBECUE SAUCE, UPC: 819239010489"
Food Group:  Branded Food Products Database
Common Name:

Nutrient,Unit,Data points,Std. Error,"2.0 Tbsp = 33.0g",1Value per 100 g,
Proximates
"Energy",kcal,--,--,45,136
"Protein",g,--,--,0.00,0.00
"Total lipid (fat)",g,--,--,0.00,0.00
"Carbohydrate, by difference",g,--,--,11.00,33.33
"Fiber, total dietary",g,--,--,1.0,3.0
"Sugars, total",g,--,--,10.00,30.30
Minerals
"Calcium, Ca",mg,--,--,0,0
"Iron, Fe",mg,--,--,0.00,0.00
"Sodium, Na",mg,--,--,260,788
Vitamins
"Vitamin C, total ascorbic acid",mg,--,--,8.1,24.6
"Vitamin A, IU",IU,--,--,0,0
Lipids
"Fatty acids, total saturated",g,--,--,0.000,0.000
"Fatty acids, total trans",g,--,--,0.000,0.000
"Cholesterol",mg,--,--,0,0
Amino Acids
Other
Ingredients
"TOMATO PUREE (WATER, TOMATO PASTE), BROWN SUGAR, SUGAR, WHITE VINEGAR, WORCESTERSHIRE SAUCE (VINEGAR, WATER, MOLASSES, CORN SYRUP, SALT, CARAMEL COLOR, GARLIC, SUGAR, TAMARIND, SPICES), MOLASSES, SALT, CORN STARCH, TAMARI SAUCE (WATER, SOYBEANS, WHEAT, SALT), ONION POWDER, GARLIC POWDER, NATURAL HICKORY SMOKE FLAVOR, BLACK PEPPER, LEMON JUICE CONCENTRATE, CARAMEL COLOR, GARLIC, ONIONS, CAYENNE PEPPERS." Date available: 08/12/2017 Date last updated by company: 08/12/2017
