Source: USDA Branded Food Products Database Release December 2017 Software v.3.8.6.4 2017-10-02
Report Run at: December 19, 2017 07:19 EST
"Nutrient data for: 45280349, CLASSIC STEAK SAUCE, UPC: 075450035773"
Food Group:  Branded Food Products Database
Common Name:

Nutrient,Unit,Data points,Std. Error,"1 Tbsp = 17.0g",1Value per 100 g,
Proximates
"Energy",kcal,--,--,15,88
"Protein",g,--,--,0.00,0.00
"Total lipid (fat)",g,--,--,0.00,0.00
"Carbohydrate, by difference",g,--,--,3.00,17.65
"Sugars, total",g,--,--,2.00,11.76
Minerals
"Sodium, Na",mg,--,--,300,1765
Vitamins
Lipids
Amino Acids
Other
Ingredients
"TOMATO PUREE (WATER, TOMATO PASTE), HIGH FRUCTOSE CORN SYRUP, DISTILLED VINEGAR, SALT, RAISIN PASTE, RAISIN JUICE CONCENTRATE, SPICES AND HERBS, DRIED GARLIC AND ONION, CARAMEL COLOR, XANTHAN GUM, CITRIC ACID, LEMON, GRAPEFRUIT AND LIME CONCENTRATES, NATURAL FLAVORS." Date available: 07/14/2017 Date last updated by company: 07/14/2017
