Source: USDA Branded Food Products Database Release December 2017 Software v.3.8.6.4 2017-10-02
Report Run at: December 19, 2017 07:02 EST
"Nutrient data for: 45289564, CLASSIC FRENCH ONION DIP, UPC: 079088120306"
Food Group:  Branded Food Products Database
Common Name:

Nutrient,Unit,Data points,Std. Error,"2.0 Tbsp = 30.0g",1Value per 100 g,
Proximates
"Energy",kcal,--,--,50,167
"Protein",g,--,--,1.00,3.33
"Total lipid (fat)",g,--,--,4.50,15.00
"Carbohydrate, by difference",g,--,--,2.00,6.67
"Fiber, total dietary",g,--,--,0.0,0.0
"Sugars, total",g,--,--,1.00,3.33
Minerals
"Calcium, Ca",mg,--,--,31,103
"Iron, Fe",mg,--,--,0.00,0.00
"Potassium, K",mg,--,--,44,147
"Sodium, Na",mg,--,--,260,867
Vitamins
"Vitamin D",IU,--,--,0,0
Lipids
"Fatty acids, total saturated",g,--,--,3.000,10.000
"Fatty acids, total trans",g,--,--,0.000,0.000
"Cholesterol",mg,--,--,15,50
Amino Acids
Other
Ingredients
"CULTURED SKIM MILK AND CREAM, MODIFIED FOOD STARCH, CONTAINS 2% OR LESS OF: SALT, DEHYDRATED ONION, HYDROLYZED CORN PROTEIN, HYDROLYZED CORN GLUTEN AND WHEAT GLUTEN, AUTOLYZED YEAST EXTRACT, SODIUM CITRATE, DEHYDRATED PARSLEY, NATURAL FLAVORS, DISODIUM INOSINATE AND DISODIUM GUANYLATE, LACTIC ACID, SPICES, CITRIC ACID, SORBIC ACID, MONO- AND DIGLYCERIDES, ACETIC ACID." Date available: 09/22/2017 Date last updated by company: 09/22/2017
