Source: USDA Branded Food Products Database Release December 2017 Software v.3.8.6.4 2017-10-02
Report Run at: December 19, 2017 06:55 EST
"Nutrient data for: 45208596, CLASSIC CHEDDAR CHEESE, UPC: 075925307152"
Food Group:  Branded Food Products Database
Common Name:

Nutrient,Unit,Data points,Std. Error,"1 PKG = 42.0g",1Value per 100 g,
Proximates
"Energy",kcal,--,--,170,405
"Protein",g,--,--,10.00,23.81
"Total lipid (fat)",g,--,--,14.00,33.33
"Carbohydrate, by difference",g,--,--,1.00,2.38
"Fiber, total dietary",g,--,--,0.0,0.0
"Sugars, total",g,--,--,0.00,0.00
Minerals
"Calcium, Ca",mg,--,--,300,714
"Iron, Fe",mg,--,--,0.00,0.00
"Sodium, Na",mg,--,--,270,643
Vitamins
"Vitamin C, total ascorbic acid",mg,--,--,0.0,0.0
"Vitamin A, IU",IU,--,--,595,1417
Lipids
"Fatty acids, total saturated",g,--,--,8.001,19.050
"Fatty acids, total trans",g,--,--,0.000,0.000
"Cholesterol",mg,--,--,40,95
Amino Acids
Other
Ingredients
"CHEDDAR CHEESE (PASTEURIZED MILK, CHEESE CULTURE, SALT, ENZYMES, ANNATTO COLOR), POTATO STARCH AND CELLULOSE POWDER TO PREVENT CAKING, NATAMYCIN (MOLD INHIBITOR)." Date available: 07/14/2017 Date last updated by company: 07/14/2017
