Source: USDA Branded Food Products Database Release December 2017 Software v.3.8.6.4 2017-10-02
Report Run at: December 19, 2017 07:11 EST
"Nutrient data for: 45197998, CLASSIC ORANGE SIMMERING SAUCE, UPC: 075050201363"
Food Group:  Branded Food Products Database
Common Name:

Nutrient,Unit,Data points,Std. Error,"0.25 cup = 70.0g",1Value per 100 g,
Proximates
"Energy",kcal,--,--,110,157
"Protein",g,--,--,0.00,0.00
"Total lipid (fat)",g,--,--,0.50,0.71
"Carbohydrate, by difference",g,--,--,26.00,37.14
"Sugars, total",g,--,--,24.00,34.29
Minerals
"Sodium, Na",mg,--,--,160,229
Vitamins
Lipids
"Fatty acids, total saturated",g,--,--,0.000,0.000
"Cholesterol",mg,--,--,0,0
Amino Acids
Other
Ingredients
"WATER, SEASONING BLEND ( SUGAR, VINEGAR POWDER, CORN STARCH, SOY SAUCE [FERMENTED SOYBEANS, SALT, MALTODEXTRIN], DEHYDRATED ONION, SPICE, DEHYDRATED GARLIC), ORANGE JUICE CONCENTRATE." Date available: 07/14/2017 Date last updated by company: 07/14/2017
