Source: USDA Branded Food Products Database Release December 2017 Software v.3.8.6.4 2017-10-02
Report Run at: December 19, 2017 07:14 EST
"Nutrient data for: 45039963, CLASSIC PIZZA, UPC: 713733322171"
Food Group:  Branded Food Products Database
Common Name:

Nutrient,Unit,Data points,Std. Error,"0.2 PIZZA = 130.0g",1Value per 100 g,
Proximates
"Energy",kcal,--,--,290,223
"Protein",g,--,--,12.00,9.23
"Total lipid (fat)",g,--,--,14.00,10.77
"Carbohydrate, by difference",g,--,--,29.00,22.31
"Fiber, total dietary",g,--,--,1.9,1.5
"Sugars, total",g,--,--,3.00,2.31
Minerals
"Calcium, Ca",mg,--,--,250,192
"Iron, Fe",mg,--,--,2.16,1.66
"Sodium, Na",mg,--,--,780,600
Vitamins
"Vitamin C, total ascorbic acid",mg,--,--,13.5,10.4
"Vitamin A, IU",IU,--,--,601,462
Lipids
"Fatty acids, total saturated",g,--,--,6.006,4.620
"Fatty acids, total trans",g,--,--,0.000,0.000
"Cholesterol",mg,--,--,35,27
Amino Acids
Other
Ingredients
"CRUST (WHEAT FLOUR [FLOUR ENZYME], WATER, CONTAINS 2% OR LESS OF THE FOLLOWING: SOYBEAN OIL, YEAST, SUGAR, BAKING POWDER [SODIUM ACID PYROPHOSPHATE, SODIUM BICARBONATE, CORN STARCH, MONOCALCIUM PHOSPHATE, CALCIUM SULFATE], SALT, ENRICHMENT [FERROUS SULFATE, NIACIN, WHEAT FLOUR, THIAMINE MONONITRATE, RIBOFLAVIN, FOLIC ACID], CULTURED WHEY, WHEY, VINEGAR, DOUGH CONDITIONER [WHEAT FLOUR, ASCORBIC ACID, ENZYMES], SOY LECITHIN [PROCESSING AID]), SAUCE (WATER, TOMATO PASTE, SPICE [SALT, SUGAR, DEXTROSE, SPICES, NATURAL FLAVORS, DEHYDRATED GARLIC, CITRIC ACID]), CHEESE (LOW MOISTURE PART-SKIM MOZZARELLA CHEESE [PART-SKIM MILK, CHEESE CULTURE, SALT, ENZYMES]), COOKED SEASONED PIZZA TOPPING (PORK, MECHANICALLY SEPARATED CHICKEN, WATER, TEXTURED VEGETABLE PROTEIN [SOY PROTEIN CONCENTRATE, CARAMEL COLOR], SPICE, SALT, SODIUM PHOSPHATE, PAPRIKA, MODIFIED CORN STARCH, NATURAL FLAVOR, AUTOLYZED YEAST EXTRACT, BHA, BHT, CITRIC ACID, YEAST EXTRACT, DISODIUM INOSINATE, SOY LECITHIN), PEPPERONI MADE WITH PORK, CHICKEN, AND BEEF (PORK , MECHANICALLY SEPARATED CHICKEN, BEEF, SALT, SPICES, DEXTROSE, LACTIC ACID STARTER CULTURE, OLEORESIN OF PAPRIKA, SODIUM ASCORBATE, FLAVORING, SODIUM NITRITE, BHA, BHT, CITRIC ACID), RED PEPPERS, GREEN PEPPERS, BLACK OLIVES (OLIVES, WATER, SALT, FERROUS GLUCONATE), ONIONS." Date available: 06/24/2017 Date last updated by company: 06/24/2017
