Source: USDA Branded Food Products Database Release December 2017 Software v.3.8.6.4 2017-10-02
Report Run at: December 19, 2017 06:58 EST
"Nutrient data for: 45051911, CLASSIC COOKING, PASTA PRIMAVERA CASSEROLE, UPC: 704863312149"
Food Group:  Branded Food Products Database
Common Name:

Nutrient,Unit,Data points,Std. Error,"3.0 ONZ = 85.0g",1Value per 100 g,
Proximates
"Energy",kcal,--,--,200,235
"Protein",g,--,--,5.00,5.88
"Total lipid (fat)",g,--,--,14.00,16.47
"Carbohydrate, by difference",g,--,--,15.00,17.65
"Fiber, total dietary",g,--,--,1.0,1.2
"Sugars, total",g,--,--,3.00,3.53
Minerals
"Calcium, Ca",mg,--,--,20,24
"Iron, Fe",mg,--,--,0.85,1.00
"Sodium, Na",mg,--,--,490,576
Vitamins
"Vitamin C, total ascorbic acid",mg,--,--,10.6,12.5
"Vitamin A, IU",IU,--,--,1176,1384
Lipids
"Fatty acids, total saturated",g,--,--,1.998,2.350
"Fatty acids, total trans",g,--,--,0.000,0.000
"Cholesterol",mg,--,--,45,53
Amino Acids
Other
Ingredients
"COOKED PASTA (WATER, SEMOLINA, NIACIN, IRON (FERROUS SULFATE), THIAMIN MONONITRATE, RIBOFLAVIN, FOLIC ACID), PASTEURIZED EGG WHITES, PASTEURIZED WHOLE EGGS, CANOLA OIL, RED PEPPER, BROCCOLI, GREEN PEAS, ZUCCHINI, CARROT, MAYONNAISE (SOYBEAN OIL, WATER, EGG, VINEGAR, SUGAR, SALT, GUM, MUSTARD FLOUR, POTASSIUM SORBATE, EDTA), SPICE MIX (DEHYDRATED ONION, CORN STARCH, SALT, NATURAL FLAVORS, TOMATO POWDER, SPICES, CITRIC ACID, AND CARAMEL COLOR), GARLIC PUREE, MODIFIED CORN STARCH, SUGAR, POTASSIUM SORBATE (ADDED FOR FRESHNESS)." Date available: 09/06/2017 Date last updated by company: 09/06/2017
