Source: USDA Branded Food Products Database Release December 2017 Software v.3.8.6.4 2017-10-02
Report Run at: December 19, 2017 06:50 EST
"Nutrient data for: 45331144, CLASICO SEASONING WITH LIME, UPC: 633148599305"
Food Group:  Branded Food Products Database
Common Name:

Nutrient,Unit,Data points,Std. Error,"0.25 tsp = 1.0g",1Value per 100 g,
Proximates
"Energy",kcal,--,--,2,200
"Protein",g,--,--,0.00,0.00
"Total lipid (fat)",g,--,--,0.00,0.00
"Carbohydrate, by difference",g,--,--,0.00,0.00
Minerals
"Sodium, Na",mg,--,--,185,18500
Vitamins
"Vitamin C, total ascorbic acid",mg,--,--,5.0,500.0
Lipids
Amino Acids
Other
Ingredients
"CHILI PEPPERS, SEA SALT, DEHYDRATED LIME JUICE, SILICON DIOXIDE (TO PREVENT CAKING)." Date available: 10/13/2017 Date last updated by company: 10/13/2017
