Source: USDA Branded Food Products Database Release December 2017 Software v.3.8.6.4 2017-10-02
Report Run at: December 19, 2017 07:19 EST
"Nutrient data for: 45213547, CLASSIC SKILLET DINNER, UPC: 02114002416"
Food Group:  Branded Food Products Database
Common Name:

Nutrient,Unit,Data points,Std. Error,"1 CUP PREPARED | MAKES = 28.0g",1Value per 100 g,
Proximates
"Energy",kcal,--,--,100,357
"Protein",g,--,--,3.00,10.71
"Total lipid (fat)",g,--,--,1.00,3.57
"Carbohydrate, by difference",g,--,--,20.00,71.43
"Fiber, total dietary",g,--,--,1.0,3.6
"Sugars, total",g,--,--,0.00,0.00
Minerals
"Calcium, Ca",mg,--,--,20,71
"Iron, Fe",mg,--,--,6.43,22.96
"Sodium, Na",mg,--,--,540,1929
Vitamins
"Vitamin C, total ascorbic acid",mg,--,--,0.0,0.0
"Vitamin A, IU",IU,--,--,0,0
Lipids
"Fatty acids, total saturated",g,--,--,0.000,0.000
"Fatty acids, total trans",g,--,--,0.000,0.000
"Cholesterol",mg,--,--,0,0
Amino Acids
Other
Ingredients
"ENRICHED PASTA (WHEAT FLOUR, NIACIN, IRON, THIAMINE MONONITRATE, RIBOFLAVIN, FOLIC ACID), CORNSTARCH, ENRICHED BLEACHED WHEAT FLOUR (WHEAT FLOUR, NIACIN, REDUCED IRON, THIAMINE MONONITRATE, RIBOFLAVIN, FOLIC ACID), SALT, MALTODEXTRIN (FROM CORN), WHEY (FROM MILK), NATURAL FLAVORS (CONTAINS SOY), PALM OIL, CHEDDAR CHEESE (PASTEURIZED MILK, CHEESE CULTURES, SALT, ENZYMES), YEAST EXTRACT, ONION*, GARLIC*, CARAMEL (COLOR), DISODIUM INOSINATE, DISODIUM GUANYLATE, SPICE, SOYBEAN OIL, SODIUM CASEINATE, YELLOW 5 LAKE, YELLOW 5, YELLOW 6, MONOGLYCERIDES." Date available: 07/14/2017 Date last updated by company: 07/14/2017
