Source: USDA Branded Food Products Database Release December 2017 Software v.3.8.6.4 2017-10-02
Report Run at: December 19, 2017 06:52 EST
"Nutrient data for: 45199769, CLASSIC BAKED POTATO SALAD, UPC: 092825145301"
Food Group:  Branded Food Products Database
Common Name:

Nutrient,Unit,Data points,Std. Error,"4.0 ONZ = 113.0g",1Value per 100 g,
Proximates
"Energy",kcal,--,--,210,186
"Protein",g,--,--,2.99,2.65
"Total lipid (fat)",g,--,--,16.00,14.16
"Carbohydrate, by difference",g,--,--,12.99,11.50
"Fiber, total dietary",g,--,--,1.0,0.9
"Sugars, total",g,--,--,0.00,0.00
Minerals
"Calcium, Ca",mg,--,--,20,18
"Iron, Fe",mg,--,--,0.89,0.79
"Sodium, Na",mg,--,--,499,442
Vitamins
"Vitamin C, total ascorbic acid",mg,--,--,18.5,16.4
"Vitamin A, IU",IU,--,--,247,219
Lipids
"Fatty acids, total saturated",g,--,--,4.000,3.540
"Fatty acids, total trans",g,--,--,0.000,0.000
"Cholesterol",mg,--,--,15,13
Amino Acids
Other
Ingredients
"POTATOES, SOUR CREAM GRADE A CULTURED CREAM), MAYONNAISE (SOYBEAN OIL, WATER, EGG YOLKS, VINEGAR, SUGAR, SALT, MUSTARD FLOUR), IMITATION CHEDDAR CHEESE (WATER, PARTIALLY HYDROGENATED SOYBEAN OIL, CASEIN, MODIFIED FOOD STARCH, SALT, SODIUM CITRATE, SODIUM ALUMINUM PHOSPHATE, POWDERED CELLULOSE ADDED TO PREVENT CAKING, LACTIC ACID, SORBIC ACID (PRESERVATIVE), ARTIFICIAL COLOR, VITAMIN A PALMITATE, MAGNESIUM OXIDE, ZINC OXIDE, VITAMIN B12, RIBOFLAVIN (VITAMIN B2), FERRIC ORTHOPHOSPHATE, FOLIC ACID, PYRIDOXINE HCL (VITAMIN B6), NIACINAMIDE, THIAMIN MONONITRATE), WATER, GREEN ONIONS, BACON BITS (BACON (CURED WITH WATER, SALT, SUGAR, SODIUM ERYTHORBATE, SODIUM NITRITE. MAY ALSO CONTAIN DEXTROSE, HONEY, POTASSIUM CHLORIDE, SMOKE FLAVORING, SODIUM DIACETATE, SODIUM PHOSPHATE), VINEGAR, SALT, BLACK PEPPER, SODIUM BENZOATE AND POTASSIUM SORBATE (PRESERVATIVES)." Date available: 07/14/2017 Date last updated by company: 07/14/2017
