Source: USDA Branded Food Products Database Release December 2017 Software v.3.8.6.4 2017-10-02
Report Run at: December 19, 2017 06:59 EST
"Nutrient data for: 45191676, CLASSIC CRUST GARDEN VEGETABLE PIZZA, UPC: 079893311142"
Food Group:  Branded Food Products Database
Common Name:

Nutrient,Unit,Data points,Std. Error,"0.25 PIZZA = 145.0g",1Value per 100 g,
Proximates
"Energy",kcal,--,--,339,234
"Protein",g,--,--,11.01,7.59
"Total lipid (fat)",g,--,--,15.99,11.03
"Carbohydrate, by difference",g,--,--,37.00,25.52
"Fiber, total dietary",g,--,--,2.0,1.4
"Sugars, total",g,--,--,2.00,1.38
Minerals
"Calcium, Ca",mg,--,--,149,103
"Iron, Fe",mg,--,--,0.97,0.67
"Sodium, Na",mg,--,--,360,248
Vitamins
"Vitamin C, total ascorbic acid",mg,--,--,16.1,11.1
"Vitamin A, IU",IU,--,--,1009,696
Lipids
"Fatty acids, total saturated",g,--,--,9.005,6.210
"Fatty acids, total trans",g,--,--,0.000,0.000
"Cholesterol",mg,--,--,49,34
Amino Acids
Other
Ingredients
"CRUST (WHEAT FLOUR, WATER, ORGANIC SOYBEAN OIL, YEAST, ORGANIC EVAPORATED CANE SUGAR, SALT, HONEY, ASCORBIC ACID), CREME FRAICHE (CREAM, CULTURES), LOW MOISTURE WHOLE MILK MOZZARELLA CHEESE (PASTEURIZED MILK, CHEESE CULTURES, SALT, ENZYMES, AND NATAMYCIN [A NATURAL MOLD INHIBITOR]), SPINACH, WHITE CHEDDAR CHEESE (CULTURED PASTEURIZED MILK, SALT, AND ENZYMES), ZUCCHINI, TOMATOES, MUSHROOMS, RED BELL PEPPERS, RED ONION, CONTAINS 2% OR LESS OF: PARMESAN AND ROMANO CHEESE BLEND (PARMESAN CHEESE [PASTEURIZED PART-SKIM COW'S MILK, CHEESE CULTURES, SALT, ENZYMES], ROMANO CHEESE [PASTEURIZED SHEEP'S MILK, CHEESE CULTURES, SALT, ENZYMES]), GRANULATED GARLIC, OREGANO." Date available: 07/14/2017 Date last updated by company: 07/14/2017
