Source: USDA Branded Food Products Database Release December 2017 Software v.3.8.6.4 2017-10-02
Report Run at: December 19, 2017 07:17 EST
"Nutrient data for: 45252178, CLASSIC ROOT BEER, UPC: 012000153167"
Food Group:  Branded Food Products Database
Common Name:

Nutrient,Unit,Data points,Std. Error,"1 BOTTLE = 355.0g",1Value per 100 g,
Proximates
"Energy",kcal,--,--,99,28
"Protein",g,--,--,0.00,0.00
"Total lipid (fat)",g,--,--,0.00,0.00
"Carbohydrate, by difference",g,--,--,27.02,7.61
"Sugars, total",g,--,--,24.99,7.04
Minerals
"Sodium, Na",mg,--,--,85,24
Vitamins
Lipids
Amino Acids
Other
Ingredients
"CARBONATED WATER, SUGAR, CARAMEL COLOR, NATURAL FLAVOR, SODIUM BENZOATE (PRESERVES FRESHNESS), PHOSPHORIC ACID, PURIFIED STEVIA LEAF EXTRACT, CITRIC ACID, CALCIUM DISODIUM EDTA (TO PROTECT FLAVOR)." Date available: 07/14/2017 Date last updated by company: 07/14/2017
