Source: USDA Branded Food Products Database Release December 2017 Software v.3.8.6.4 2017-10-02
Report Run at: December 19, 2017 06:56 EST
"Nutrient data for: 45197540, CLASSIC CHILI WITH BEANS, UPC: 071106720406"
Food Group:  Branded Food Products Database
Common Name:

Nutrient,Unit,Data points,Std. Error,"1 cup = 247.0g",1Value per 100 g,
Proximates
"Energy",kcal,--,--,299,121
"Protein",g,--,--,14.00,5.67
"Total lipid (fat)",g,--,--,14.00,5.67
"Carbohydrate, by difference",g,--,--,30.01,12.15
"Fiber, total dietary",g,--,--,5.9,2.4
"Sugars, total",g,--,--,6.99,2.83
Minerals
"Calcium, Ca",mg,--,--,59,24
"Iron, Fe",mg,--,--,1.90,0.77
"Sodium, Na",mg,--,--,810,328
Vitamins
"Vitamin C, total ascorbic acid",mg,--,--,0.0,0.0
"Vitamin A, IU",IU,--,--,529,214
Lipids
"Fatty acids, total saturated",g,--,--,4.989,2.020
"Fatty acids, total trans",g,--,--,0.000,0.000
"Cholesterol",mg,--,--,35,14
Amino Acids
Other
Ingredients
"WATER, BEEF, TOMATOES IN JUICE (CONTAINS CALCIUM CHLORIDE, CITRIC ACID), KIDNEY BEANS, PINK BEANS, PORK, TOMATO PASTE, DEHYDRATED ONIONS, CONTAINS 2% OR LESS OF CHILI SEASONING (SPICES, SUGAR, SALT, FLAVORING, PAPRIKA), TEXTURED VEGETABLE PROTEIN (SOY FLOUR, CARAMEL COLOR), MODIFIED CORNSTARCH, JALAPENO PEPPERS (CONTAINS VINEGAR, SALT, ACETIC ACID), FLAVORING, SALT, DEHYDRATED BELL PEPPERS, SPICES, ERYTHORBIC ACID." Date available: 07/14/2017 Date last updated by company: 07/14/2017
