Source: USDA Branded Food Products Database Release December 2017 Software v.3.8.6.4 2017-10-02
Report Run at: December 19, 2017 07:12 EST
"Nutrient data for: 45051448, CLASSIC PASTA BEEF RAVOLI, STUFFED WITH A ZESTY BEEF FILLING, UPC: 041497029389"
Food Group:  Branded Food Products Database
Common Name:

Nutrient,Unit,Data points,Std. Error,"8.0 RAVIOLI = 114.0g",1Value per 100 g,
Proximates
"Energy",kcal,--,--,241,211
"Protein",g,--,--,8.99,7.89
"Total lipid (fat)",g,--,--,6.00,5.26
"Carbohydrate, by difference",g,--,--,37.00,32.46
"Fiber, total dietary",g,--,--,2.1,1.8
"Sugars, total",g,--,--,1.00,0.88
Minerals
"Calcium, Ca",mg,--,--,21,18
"Iron, Fe",mg,--,--,4.62,4.05
"Potassium, K",mg,--,--,140,123
"Sodium, Na",mg,--,--,230,202
Vitamins
"Vitamin C, total ascorbic acid",mg,--,--,2.1,1.8
"Vitamin A, IU",IU,--,--,0,0
Lipids
"Fatty acids, total saturated",g,--,--,2.497,2.190
"Fatty acids, total monounsaturated",g,--,--,2.497,2.190
"Fatty acids, total polyunsaturated",g,--,--,0.502,0.440
"Fatty acids, total trans",g,--,--,0.000,0.000
"Cholesterol",mg,--,--,35,31
Amino Acids
Other
Ingredients
"ENRICHED WHEAT FLOUR (DURUM FLOUR, NIACIN, REDUCED IRON, THIAMINE MONONITRATE, RIBOFLAVIN, FOLIC ACID), WATER, BEEF, EGGS, CONTAINS 2% OR LESS OF THE FOLLOWING: PARMESAN CHEESE (PASTEURIZED PART SKIM MILK, SALT, CHEESE CULTURES, ENZYMES), RICOTTA CHEESE (WHEY, WHOLE MILK, CREAM, VINEGAR, SALT, CARRAGEENAN, XANTHAN GUM, LOCUST BEAN GUM, GUAR GUM), NATURAL FLAVOR, EGG WHITES, DEHYDRATED ONION, DRIED WHOLE EGGS, BEEF BASE (ROASTED BEEF AND BEEF STOCK, SALT, HYDROLYZED PROTEIN [SOY, CORN, WHEAT GLUTEN], SUGAR, CORN OIL, AUTOLYZED YEAST EXTRACT, POTASSIUM CHLORIDE, CARAMEL COLOR, MALTODEXTRIN, NATURAL FLAVORS, CORN SYRUP SOLIDS, DISODIUM INOSINATE, DISODIUM GUANYLATE, PARTIALLY HYDROGENATED SOYBEAN AND COTTONSEED OILS), SOY PROTEIN CONCENTRATE, MODIFIED CORN STARCH, NON-FAT DRY MILK, ISOLATED OAT PRODUCT, TEXTURED SOY FLOUR, BREAD CRUMBS (WHEAT FLOUR, SALT, YEAST), CORN SYRUP SOLIDS, SALT, SODIUM PHOSPHATE, SUGAR, SOYBEAN OIL, CARAMEL COLOR, DISODIUM INOSINATE, DISODIUM GUANYLATE." Date available: 06/25/2017 Date last updated by company: 06/25/2017
