Source: USDA Branded Food Products Database Release December 2017 Software v.3.8.6.4 2017-10-02
Report Run at: December 19, 2017 07:02 EST
"Nutrient data for: 45315228, CLASSIC FRIED CHICKEN, UPC: 658276202859"
Food Group:  Branded Food Products Database
Common Name:

Nutrient,Unit,Data points,Std. Error,"1 PACKAGE, EDIBLE PORTION = 406.0g",1Value per 100 g,
Proximates
"Energy",kcal,--,--,901,222
"Protein",g,--,--,36.01,8.87
"Total lipid (fat)",g,--,--,60.98,15.02
"Carbohydrate, by difference",g,--,--,50.99,12.56
"Fiber, total dietary",g,--,--,4.1,1.0
"Sugars, total",g,--,--,12.99,3.20
Minerals
"Calcium, Ca",mg,--,--,199,49
"Iron, Fe",mg,--,--,1.30,0.32
"Sodium, Na",mg,--,--,1592,392
Vitamins
"Vitamin C, total ascorbic acid",mg,--,--,4.5,1.1
"Vitamin A, IU",IU,--,--,601,148
Lipids
"Fatty acids, total saturated",g,--,--,12.992,3.200
"Cholesterol",mg,--,--,158,39
Amino Acids
Other
Ingredients
"FRIED CHICKEN (DARK MEAT CHICKEN PORTIONS, CHICKEN STOCK, SOYBEAN OIL, ENRICHED WHEAT FLOUR [WHEAT FLOUR, NIACIN, REDUCED IRON, THIAMINE MONONITRATE, RIBOFLAVIN, FOLIC ACID], SPICY SEASONING (SPICES, ONION POWDER, GARLIC POWDER, DEXTROSE, SUGAR, NATURAL FLAVORS, EXTRACTIVE OF PAPRIKA (COLOR), CARAMEL COLOR, MALTODEXTRIN, CAYENNE PEPPER SAUCE POWDER (AGED RED PEPPERS, VINEGAR, SALT, GARLIC), VINEGAR SOLIDS, YEAST EXTRACT, DEXTRIN, SALT), SALT, SOY PROTEIN ISOLATE, SODIUM PHOSPHATES, MONOSODIUM GLUTAMATE, SPICE), MASHED POTATOES (WATER, DEHYDRATED POTATO FLAKES (POTATOES, MONO AND DIGLYCERIDES, SODIUM ACID PYROPHOSPHATE, CITRIC ACID), SEASONING SAUCE (SOYBEAN OIL, WATER, MONO AND DIGLYCERIDES WITH BHT AND CITRIC ACID TO PROTECT FLAVOR, BETA-CAROTENE FOR COLOR (CORN OIL, DL-ALPHA-TOCOPHEROL)), CONTAINS LESS THAN 2% OF: SALT, DRIED DAIRY BLEND (WHEY, CALCIUM CASEINATE)), MIXED VEGETABLES (CARROTS, CORN, CUT GREEN BEANS), APPLE DESSERT (WATER, SUGAR, REHYDRATED APPLES, MODIFIED FOOD STARCH, DEHYDRATED APPLE FLAKES (CALCIUM STEARATE), NATURAL AND ARTIFICIAL FLAVOR [NATURAL AND ARTIFICIAL FLAVOR, CARAMEL COLOR, VANILLA EXTRACTIVES], SPICES, CITRIC ACID, SALT, DRIED EGG YOLKS), SEASONING SAUCE (WATER, SUGAR, SEASONING SAUCE (SOYBEAN OIL, WATER, MONO AND DIGLYCERIDES WITH BHT AND CITRIC ACID TO PROTECT FLAVOR, BETA-CAROTENE FOR COLOR (CORN OIL, DL-ALPHA-TOCOPHEROL)), SALT, SOYBEAN OIL). CONTAINS 2% OR LESS OF: SEASONING SAUCE (SOYBEAN OIL, WATER, MONO AND DIGLYCERIDES WITH BHT AND CITRIC ACID TO PROTECT FLAVOR, BETA-CAROTENE FOR COLOR (CORN OIL, DL-ALPHA-TOCOPHEROL))." Date available: 07/14/2017 Date last updated by company: 07/14/2017
