Source: USDA Branded Food Products Database Release December 2017 Software v.3.8.6.4 2017-10-02
Report Run at: December 19, 2017 07:21 EST
"Nutrient data for: 45328615, CLASSIC THIN CRUST PIZZA, UPC: 075706191031"
Food Group:  Branded Food Products Database
Common Name:

Nutrient,Unit,Data points,Std. Error,"0.2 PIZZA = 145.0g",1Value per 100 g,
Proximates
"Energy",kcal,--,--,320,221
"Protein",g,--,--,14.01,9.66
"Total lipid (fat)",g,--,--,17.99,12.41
"Carbohydrate, by difference",g,--,--,26.00,17.93
"Fiber, total dietary",g,--,--,2.0,1.4
"Sugars, total",g,--,--,3.00,2.07
Minerals
"Calcium, Ca",mg,--,--,249,172
"Iron, Fe",mg,--,--,1.94,1.34
"Sodium, Na",mg,--,--,811,559
Vitamins
"Vitamin C, total ascorbic acid",mg,--,--,16.1,11.1
"Vitamin A, IU",IU,--,--,673,464
Lipids
"Fatty acids, total saturated",g,--,--,8.004,5.520
"Fatty acids, total trans",g,--,--,0.000,0.000
"Cholesterol",mg,--,--,45,31
Amino Acids
Other
Ingredients
"CRUST (WHEAT FLOUR, MALTED BARLEY FLOUR, WATER, SOYBEAN OIL AND/OR CANOLA OIL, CORN MEAL [DEGERMED YELLOW CORN MEAL], CONTAINS 2% OR LESS OF: SUGAR, YEAST, SALT, NONFAT DRY MILK, GRANULATED GARLIC), SAUCE (TOMATOES, WATER, SOYBEAN OIL, SPICE [SALT, OREGANO, GARLIC POWDER, BASIL, BLACK PEPPER]), WHOLE MILK MOZZARELLA CHEESE (PASTEURIZED MILK, CHEESE CULTURES, SALT, ENZYMES), ITALIAN SAUSAGE (PORK, SPICES, WATER, SALT, SUGAR, DEHYDRATED GARLIC, NATURAL FLAVORINGS, PAPRIKA, DRIED VINEGAR), UNCURED PEPPERONI CONTAINS NO ADDED NITRATES OR NITRITES EXCEPT THOSE NATURALLY OCCURING IN SEA SALT AND CELERY JUICE POWDER (PORK, BEEF, SALT, CONTAINS 2% OR LESS OF: SPICES, LACTIC ACID STARTER CULTURE, NATURAL FLAVOR, OLEORESIN OF PAPRIKA, MAY CONTAIN: DEXTROSE, GARLIC POWDER, CELERY POWDER, CANE SUGAR, NATURAL SPICE EXTRACTIVES), GREEN PEPPER, ONIONS, BLACK OLIVES (OLIVES, WATER, SALT, FERROUS GLUCONATE), PARMESAN AND ROMANO CHEESE BLEND (PARMESAN CHEESE [PASTEURIZED COW'S MILK, CHEESE CULTURES, SALT, ENZYMES], ROMANO CHEESE [PASTEURIZED COWS MILK, CHEESE CULTURES, SALT, ENZYMES]), OREGANO, GARLIC, BASIL." Date available: 10/13/2017 Date last updated by company: 10/13/2017
