Source: USDA Branded Food Products Database Release December 2017 Software v.3.8.6.4 2017-10-02
Report Run at: December 19, 2017 06:59 EST
"Nutrient data for: 45287276, CLASSIC CRUST HAWAIIAN STYLE PIZZA, UPC: 038259101629"
Food Group:  Branded Food Products Database
Common Name:

Nutrient,Unit,Data points,Std. Error,"0.25 PIZZA = 132.0g",1Value per 100 g,
Proximates
"Energy",kcal,--,--,271,205
"Protein",g,--,--,11.00,8.33
"Total lipid (fat)",g,--,--,11.00,8.33
"Carbohydrate, by difference",g,--,--,32.00,24.24
"Fiber, total dietary",g,--,--,1.1,0.8
"Sugars, total",g,--,--,5.00,3.79
Minerals
"Calcium, Ca",mg,--,--,150,114
"Iron, Fe",mg,--,--,1.07,0.81
"Sodium, Na",mg,--,--,550,417
Vitamins
"Vitamin C, total ascorbic acid",mg,--,--,17.7,13.4
"Vitamin A, IU",IU,--,--,591,448
Lipids
"Fatty acids, total saturated",g,--,--,5.003,3.790
"Fatty acids, total trans",g,--,--,0.000,0.000
"Cholesterol",mg,--,--,25,19
Amino Acids
Other
Ingredients
"CRUST (WHEAT FLOUR, WATER, PALM OIL, CULTURED WHEAT STARCH, YEAST, SALT, SUGAR, L-CYSTEINE, CITRIC ACID), SAUCE (TOMATO PUREE [TOMATOES, SALT, CITRIC ACID], WATER, SEASONING [MODIFIED FOOD STARCH, MALTODEXTRIN, SUGAR, SALT, DEXTROSE, SPICES, DEHYDRATED GARLIC, HYDROLYZED CORN PROTEIN, PAPRIKA, CITRIC ACID, XANTHAN GUM, SODIUM BENZOATE {TO PROTECT FRESHNESS}, CORN OIL, EXTRACTIVES OF PAPRIKA], TOMATO PASTE, SOYBEAN OIL, SALT, SEASONING [SPICES, GARLIC POWDER, SOYBEAN OIL], ROMANO CHEESE [PASTEURIZED COW'S MILK, CHEESE CULTURE, SALT, ENZYME]), MOZZARELLA CHEESE (CULTURED PASTEURIZED MILK, SALT, ENZYMES), PINEAPPLE, COOKED HAM, WATER AND SMOKE FLAVOR ADDED (PORK, WATER, POTASSIUM LACTATE, DEXTROSE, SALT, CORN SYRUP SOLIDS, MODIFIED CORN STARCH, SODIUM PHOSPHATES, NATURAL FLAVORS, SMOKE FLAVORING, SODIUM ERYTHORBATE, SODIUM NITRITE)." Date available: 07/14/2017 Date last updated by company: 07/14/2017
