Source: USDA Branded Food Products Database Release December 2017 Software v.3.8.6.4 2017-10-02
Report Run at: December 19, 2017 07:09 EST
"Nutrient data for: 45138318, CLASSIC MEAL FOR 2, CHICKEN PARMIGIANA & PENNE, UPC: 031000650117"
Food Group:  Branded Food Products Database
Common Name:

Nutrient,Unit,Data points,Std. Error,"0.5 PACKAGE = 340.0g",1Value per 100 g,
Proximates
"Energy",kcal,--,--,510,150
"Protein",g,--,--,26.01,7.65
"Total lipid (fat)",g,--,--,21.01,6.18
"Carbohydrate, by difference",g,--,--,53.01,15.59
"Fiber, total dietary",g,--,--,6.1,1.8
"Sugars, total",g,--,--,5.00,1.47
Minerals
"Calcium, Ca",mg,--,--,201,59
"Iron, Fe",mg,--,--,2.69,0.79
"Potassium, K",mg,--,--,598,176
"Sodium, Na",mg,--,--,1108,326
Vitamins
"Vitamin C, total ascorbic acid",mg,--,--,4.8,1.4
"Vitamin A, IU",IU,--,--,1000,294
Lipids
"Fatty acids, total saturated",g,--,--,5.984,1.760
"Fatty acids, total trans",g,--,--,0.000,0.000
"Cholesterol",mg,--,--,44,13
Amino Acids
Other
Ingredients
"COOKED PASTA (WATER, ENRICHED PASTA [DURUM WHEAT SEMOLINA, NIACIN, FERROUS SULFATE, THIAMINE MONONITRATE, RIBOFLAVIN, FOLIC ACID], SOYBEAN OIL), CRUSHED TOMATOES IN PUREE (DICED TOMATOES, TOMATO PUREE, CITRIC ACID), ITALIAN STYLE BREADED CHICKEN BREAST WI" Date available: 11/08/2016 Date last updated by company: 11/08/2016
