Source: USDA Branded Food Products Database Release December 2017 Software v.3.8.6.4 2017-10-02
Report Run at: December 19, 2017 06:54 EST
"Nutrient data for: 45279311, CLASSIC CAESAR DRESSING, UPC: 041268149254"
Food Group:  Branded Food Products Database
Common Name:

Nutrient,Unit,Data points,Std. Error,"2.0 Tbsp = 30.0g",1Value per 100 g,
Proximates
"Energy",kcal,--,--,80,267
"Protein",g,--,--,1.00,3.33
"Total lipid (fat)",g,--,--,8.00,26.67
"Carbohydrate, by difference",g,--,--,2.00,6.67
"Fiber, total dietary",g,--,--,0.0,0.0
"Sugars, total",g,--,--,1.00,3.33
Minerals
"Calcium, Ca",mg,--,--,20,67
"Iron, Fe",mg,--,--,0.00,0.00
"Potassium, K",mg,--,--,25,83
"Sodium, Na",mg,--,--,270,900
Vitamins
"Vitamin C, total ascorbic acid",mg,--,--,0.0,0.0
"Vitamin A, IU",IU,--,--,0,0
Lipids
"Fatty acids, total saturated",g,--,--,1.500,5.000
"Fatty acids, total monounsaturated",g,--,--,2.001,6.670
"Fatty acids, total polyunsaturated",g,--,--,3.999,13.330
"Fatty acids, total trans",g,--,--,0.000,0.000
"Cholesterol",mg,--,--,10,33
Amino Acids
Other
Ingredients
"WATER, SOYBEAN OIL, VINEGAR, ROMANO CHEESE (CULTURED PASTEURIZED PART SKIM MILK, SALT, ENZYMES), SUGAR, EGG YOLKS, CONTAINS LESS THAN 2% SALT, PARMESAN CHEESE (CULTURED PASTEURIZED PART SKIM MILK, SALT, ENZYMES), MODIFIED FOOD STARCH, GARLIC*, GARLIC JUICE, SPICES, PHOSPHORIC ACID, XANTHAN GUM, MOLASSES, ONION*, CORN SYRUP, CARAMEL COLOR, TAMARIND, NATURAL FLAVOR, POTASSIUM SORBATE AND CALCIUM DISODIUM EDTA (TO PROTECT FLAVOR)." Date available: 07/14/2017 Date last updated by company: 07/14/2017
