Source: USDA Branded Food Products Database Release December 2017 Software v.3.8.6.4 2017-10-02
Report Run at: December 19, 2017 07:25 EST
"Nutrient data for: 45248669, CLEANS & PROTECTS TEETH TRIDENT, UPC: 070221600738"
Food Group:  Branded Food Products Database
Common Name:

Nutrient,Unit,Data points,Std. Error,"1 STICK = 1.6g",1Value per 100 g,
Proximates
"Energy",kcal,--,--,5,312
"Protein",g,--,--,0.00,0.00
"Total lipid (fat)",g,--,--,0.00,0.00
"Carbohydrate, by difference",g,--,--,1.00,62.50
"Sugars, total",g,--,--,0.00,0.00
Minerals
"Sodium, Na",mg,--,--,0,0
Vitamins
Lipids
Amino Acids
Other
Ingredients
"SORBITOL, GUM BASE, XYLITOL, GLYCERIN, NATURAL AND ARTIFICIAL FLAVORING; LESS THAN 2% OF: ACESULFAME POTASSIUM, ASPARTAME, BHT (TO MAINTAIN FRESHNESS), BLUE 1, MANNITOL, RED 40, SOY LECITHIN, YELLOW 5, YELLOW 5 LAKE, YELLOW 6, YELLOW 6 LAKE." Date available: 07/14/2017 Date last updated by company: 07/14/2017
