Source: USDA Branded Food Products Database Release December 2017 Software v.3.8.6.4 2017-10-02
Report Run at: December 19, 2017 07:29 EST
"Nutrient data for: 45162087, CLEARLY Z, COCONUT WATER, CHOCOLATE, UPC: 859808004273"
Food Group:  Branded Food Products Database
Common Name:

Nutrient,Unit,Data points,Std. Error,"240.0 MLT = 240.0g",1Value per 100 g,
Proximates
"Energy",kcal,--,--,60,25
"Protein",g,--,--,1.01,0.42
"Total lipid (fat)",g,--,--,0.00,0.00
"Carbohydrate, by difference",g,--,--,12.00,5.00
"Fiber, total dietary",g,--,--,0.0,0.0
"Sugars, total",g,--,--,12.00,5.00
Minerals
"Calcium, Ca",mg,--,--,79,33
"Iron, Fe",mg,--,--,0.00,0.00
"Magnesium, Mg",mg,--,--,60,25
"Phosphorus, P",mg,--,--,29,12
"Potassium, K",mg,--,--,1130,471
"Sodium, Na",mg,--,--,74,31
Vitamins
"Vitamin C, total ascorbic acid",mg,--,--,0.0,0.0
"Vitamin A, IU",IU,--,--,0,0
Lipids
"Fatty acids, total saturated",g,--,--,0.000,0.000
"Fatty acids, total trans",g,--,--,0.000,0.000
"Cholesterol",mg,--,--,0,0
Amino Acids
Other
Ingredients
"ORGANIC COCONUT WATER, WATER, ORGANIC COCONUT MILK, ORGANIC CANE SUGAR, ORGANIC COCOA POWDER ORGANIC GUAR GUM, CARRAGEENAN, SALT, AND SODIUM ALGINATE." Date available: 07/14/2017 Date last updated by company: 07/14/2017
