Source: USDA Branded Food Products Database Release December 2017 Software v.3.8.6.4 2017-10-02
Report Run at: December 19, 2017 07:36 EST
"Nutrient data for: 45157987, CLIF, KIT'S ORGANIC, FRUIT + SEED BAR, CHERRY PUMPKIN SEEDS, UPC: 722252343222"
Food Group:  Branded Food Products Database
Common Name:

Nutrient,Unit,Data points,Std. Error,"1 BAR = 49.0g",1Value per 100 g,
Proximates
"Energy",kcal,--,--,170,347
"Protein",g,--,--,4.00,8.16
"Total lipid (fat)",g,--,--,4.00,8.16
"Carbohydrate, by difference",g,--,--,32.00,65.31
"Fiber, total dietary",g,--,--,4.0,8.2
"Sugars, total",g,--,--,26.00,53.06
Minerals
"Calcium, Ca",mg,--,--,40,82
"Iron, Fe",mg,--,--,2.21,4.50
"Potassium, K",mg,--,--,420,857
"Sodium, Na",mg,--,--,70,143
Vitamins
"Vitamin C, total ascorbic acid",mg,--,--,0.0,0.0
"Vitamin A, IU",IU,--,--,245,500
Lipids
"Fatty acids, total saturated",g,--,--,0.500,1.020
"Fatty acids, total monounsaturated",g,--,--,1.000,2.040
"Fatty acids, total polyunsaturated",g,--,--,1.999,4.080
"Fatty acids, total trans",g,--,--,0.000,0.000
"Cholesterol",mg,--,--,0,0
Amino Acids
Other
Ingredients
"ORGANIC DATES, ORGANIC PUMPKIN SEEDS, ORGANIC CHERRIES, ORGANIC APPLES, SEA SALT, ORGANIC ROSEMARY EXTRACT." Date available: 07/14/2017 Date last updated by company: 07/14/2017
