Source: USDA Branded Food Products Database Release December 2017 Software v.3.8.6.4 2017-10-02
Report Run at: December 19, 2017 07:36 EST
"Nutrient data for: 45167096, CLIF, ORGANIC ENERGY FOOD, BANANA BEET WITH GINGER, UPC: 722252151216"
Food Group:  Branded Food Products Database
Common Name:

Nutrient,Unit,Data points,Std. Error,"1 POUCH = 90.0g",1Value per 100 g,
Proximates
"Energy",kcal,--,--,110,122
"Protein",g,--,--,2.00,2.22
"Total lipid (fat)",g,--,--,0.50,0.56
"Carbohydrate, by difference",g,--,--,23.00,25.56
"Fiber, total dietary",g,--,--,2.0,2.2
"Sugars, total",g,--,--,20.00,22.22
Minerals
"Calcium, Ca",mg,--,--,20,22
"Iron, Fe",mg,--,--,0.20,0.22
"Potassium, K",mg,--,--,230,256
"Sodium, Na",mg,--,--,90,100
Vitamins
"Vitamin C, total ascorbic acid",mg,--,--,0.0,0.0
"Vitamin A, IU",IU,--,--,56,62
Lipids
"Fatty acids, total saturated",g,--,--,0.000,0.000
"Fatty acids, total trans",g,--,--,0.000,0.000
"Cholesterol",mg,--,--,0,0
Amino Acids
Other
Ingredients
"ORGANIC BANANA PUREE, ORGANIC BEET JUICE CONCENTRATE, CITRIC ACID, SEA SALT, ORGANIC GINGER." Date available: 07/14/2017 Date last updated by company: 07/14/2017
