Source: USDA Branded Food Products Database Release December 2017 Software v.3.8.6.4 2017-10-02
Report Run at: December 19, 2017 07:37 EST
"Nutrient data for: 45011865, CLOCK SHADOW CREAMERY, QUARK FRESH CHEESE, WISCONSIN CHEESE, UPC: 026402000462"
Food Group:  Branded Food Products Database
Common Name:

Nutrient,Unit,Data points,Std. Error,"2.0 Tbsp = 28.0g",1Value per 100 g,
Proximates
"Energy",kcal,--,--,45,161
"Protein",g,--,--,3.00,10.71
"Total lipid (fat)",g,--,--,3.50,12.50
"Carbohydrate, by difference",g,--,--,1.00,3.57
"Fiber, total dietary",g,--,--,0.0,0.0
"Sugars, total",g,--,--,1.00,3.57
Minerals
"Calcium, Ca",mg,--,--,150,536
"Iron, Fe",mg,--,--,0.00,0.00
"Sodium, Na",mg,--,--,105,375
Vitamins
"Vitamin C, total ascorbic acid",mg,--,--,0.0,0.0
"Vitamin A, IU",IU,--,--,268,957
Lipids
"Fatty acids, total saturated",g,--,--,1.999,7.140
"Fatty acids, total trans",g,--,--,0.000,0.000
"Cholesterol",mg,--,--,50,179
Amino Acids
Other
Ingredients
"PASTEURIZED MILK, SALT, CHEESE CULTURE, (NON-ANIMAL) RENNET, (OTHER FLAVORS AS ADDED GARLIC AND DILL, TOMATO AND BASIL." Date available: 06/25/2017 Date last updated by company: 06/25/2017
