Source: USDA Branded Food Products Database Release December 2017 Software v.3.8.6.4 2017-10-02
Report Run at: December 19, 2017 07:48 EST
"Nutrient data for: 45143220, CLOVER VALLEY, POTATO STICKS, UPC: 041633110032"
Food Group:  Branded Food Products Database
Common Name:

Nutrient,Unit,Data points,Std. Error,"0.667 CUP | ABOUT = 28.0g",1Value per 100 g,
Proximates
"Energy",kcal,--,--,150,536
"Protein",g,--,--,2.00,7.14
"Total lipid (fat)",g,--,--,8.00,28.57
"Carbohydrate, by difference",g,--,--,16.00,57.14
"Fiber, total dietary",g,--,--,1.0,3.6
"Sugars, total",g,--,--,1.00,3.57
Minerals
"Calcium, Ca",mg,--,--,20,71
"Iron, Fe",mg,--,--,1.29,4.59
"Sodium, Na",mg,--,--,260,929
Vitamins
"Vitamin C, total ascorbic acid",mg,--,--,6.4,22.9
"Vitamin A, IU",IU,--,--,0,0
Lipids
"Fatty acids, total saturated",g,--,--,2.500,8.930
"Fatty acids, total monounsaturated",g,--,--,1.501,5.360
"Fatty acids, total polyunsaturated",g,--,--,4.001,14.290
"Fatty acids, total trans",g,--,--,0.000,0.000
"Cholesterol",mg,--,--,0,0
Amino Acids
Other
Ingredients
"POTATOES, VEGETABLE OIL (CONTAINS ONE OR MORE OF THE FOLLOWING: COTTONSEED OR PALM OIL), SALT, SEASONING (DEXTROSE, SOY FLOUR, SALT, ONION POWDER, MONOSODIUM GLUTAMATE, NATURAL AND ARTIFICIAL FLAVORS, DRIED PARSLEY, SPICE EXTRACTS, CANOLA OIL, CALCIUM PHOSPHATE)." Date available: 07/14/2017 Date last updated by company: 07/14/2017
