Source: USDA Branded Food Products Database Release December 2017 Software v.3.8.6.4 2017-10-02
Report Run at: December 19, 2017 07:40 EST
"Nutrient data for: 45236278, CLOVERLAND FARMS DAIRY, REDUCED FAT CHOCOLATE MILK, UPC: 049387400126"
Food Group:  Branded Food Products Database
Common Name:

Nutrient,Unit,Data points,Std. Error,"1 cup = 240.0g",1Value per 100 g,
Proximates
"Energy",kcal,--,--,221,92
"Protein",g,--,--,9.00,3.75
"Total lipid (fat)",g,--,--,4.99,2.08
"Carbohydrate, by difference",g,--,--,34.01,14.17
"Fiber, total dietary",g,--,--,1.0,0.4
"Sugars, total",g,--,--,31.99,13.33
Minerals
"Calcium, Ca",mg,--,--,300,125
"Iron, Fe",mg,--,--,0.72,0.30
"Sodium, Na",mg,--,--,199,83
Vitamins
"Vitamin C, total ascorbic acid",mg,--,--,1.2,0.5
"Vitamin A, IU",IU,--,--,499,208
"Vitamin D",IU,--,--,101,42
Lipids
"Fatty acids, total saturated",g,--,--,3.504,1.460
"Fatty acids, total trans",g,--,--,0.000,0.000
"Cholesterol",mg,--,--,24,10
Amino Acids
Other
Ingredients
"GRADE A REDUCED FAT MILK, FAT FREE MILK, HIGH FRUCTOSE CORN SYRUP, COCOA, (PROCESSED WITH ALKALI), CORN STARCH, SALT, CARRAGEENAN ARTIFICIAL FLAVOR, VITAMIN A PALMITATE AND VITAMIN D3." Date available: 06/25/2017 Date last updated by company: 06/25/2017
