Source: USDA Branded Food Products Database Release December 2017 Software v.3.8.6.4 2017-10-02
Report Run at: December 19, 2017 07:41 EST
"Nutrient data for: 45185711, CLOVER VALLEY, BROCCOLI FLORETS, UPC: 793396430123"
Food Group:  Branded Food Products Database
Common Name:

Nutrient,Unit,Data points,Std. Error,"1 cup = 81.0g",1Value per 100 g,
Proximates
"Energy",kcal,--,--,25,31
"Protein",g,--,--,2.00,2.47
"Total lipid (fat)",g,--,--,0.00,0.00
"Carbohydrate, by difference",g,--,--,4.00,4.94
"Fiber, total dietary",g,--,--,3.0,3.7
"Sugars, total",g,--,--,2.00,2.47
Minerals
"Calcium, Ca",mg,--,--,0,0
"Iron, Fe",mg,--,--,0.38,0.47
"Sodium, Na",mg,--,--,25,31
Vitamins
"Vitamin C, total ascorbic acid",mg,--,--,31.5,38.9
"Vitamin A, IU",IU,--,--,420,519
Lipids
"Fatty acids, total saturated",g,--,--,0.000,0.000
"Fatty acids, total trans",g,--,--,0.000,0.000
"Cholesterol",mg,--,--,0,0
Amino Acids
Other
Ingredients
"BROCCOLI." Date available: 07/14/2017 Date last updated by company: 07/14/2017
