Source: USDA Branded Food Products Database Release December 2017 Software v.3.8.6.4 2017-10-02
Report Run at: December 18, 2017 23:10 EST
"Nutrient data for: 45164642, CLOVER VALLEY, TRAIL MIX, CHOCOLATEY & PEANUT BUTTER, UPC: 071725750167"
Food Group:  Branded Food Products Database
Common Name:

Nutrient,Unit,Data points,Std. Error,"0.25 cup = 35.0g",1Value per 100 g,
Proximates
"Energy",kcal,--,--,180,514
"Protein",g,--,--,5.00,14.29
"Total lipid (fat)",g,--,--,11.00,31.43
"Carbohydrate, by difference",g,--,--,17.00,48.57
"Fiber, total dietary",g,--,--,2.0,5.7
"Sugars, total",g,--,--,7.00,20.00
Minerals
"Calcium, Ca",mg,--,--,0,0
"Iron, Fe",mg,--,--,1.03,2.94
"Sodium, Na",mg,--,--,170,486
Vitamins
"Vitamin C, total ascorbic acid",mg,--,--,0.0,0.0
"Vitamin A, IU",IU,--,--,0,0
Lipids
"Fatty acids, total saturated",g,--,--,2.999,8.570
"Fatty acids, total trans",g,--,--,0.000,0.000
"Cholesterol",mg,--,--,0,0
Amino Acids
Other
Ingredients
"PEANUTS (PEANUTS, VEGETABLE OIL (PEANUT, COTTONSEED, CANOLA AND/OR SOYBEAN OIL], SALT), NESTLE BUTTERFINGER CANDY PIECES (CORN SYRUP, SUGAR, GROUND ROASTED PEANUTS, HYDROGENATED PALM KERNEL OIL, COCOA, MOLASSES, AND LESS THAN 1% OF DAIRY PRODUCT SOLIDS, CONFECTIONER'S CORN FLAKES, NONFAT MILK, SALT, SOY LECITHIN, SOYBEAN OIL, CORNSTARCH, NATURAL FLAVORS, MONOGLYCERIDES, TBHQ AND CITRIC ACID [TO PRESERVE FRESHNESS], ANNATTO COLOR), PRETZEL BALLS (ENRICHED WHEAT FLOUR [WHEAT FLOUR, NIACIN, REDUCED IRON, THIAMINE MONONITRATE, RIBOFLAVIN, FOLIC ACID], VEGETABLE OIL [CORN, CANOLA, AND/OR SOYBEAN OIL], SALT, CORN SYRUP, SODIUM BICARBONATE, YEAST), PEANUT BUTTER FLAVORED CANDIES (PEANUT BUTTER FLAVORED CENTER [SUGAR, PARTIALLY DEFATTED PEANUT FLOUR, HYDROGENATED PALM KERNEL OIL, NONFAT DRY MILK, DEXTROSE, SOY LECITHIN, SALT], SUGAR, HYDROGENATED PALM KERNEL OIL, COLOR [INCLUDES YELLOW 6 LAKE, YELLOW 5 LAKE, BLUE 2 LAKE, RED 40 LAKE], GUM ARABIC, CORN SYRUP, CONFECTIONER'S GLAZE), CASHEWS (CASHEWS, VEGETABLE OIL [PEANUT, COTTONSEED, CANOLA AND/OR SOYBEAN OIL], SALT)" Date available: 07/14/2017 Date last updated by company: 07/14/2017
