Source: USDA Branded Food Products Database Release December 2017 Software v.3.8.6.4 2017-10-02
Report Run at: December 19, 2017 07:45 EST
"Nutrient data for: 45172209, CLOVER VALLEY, FUDGE COOKIES, SALTED CARAMEL, UPC: 020200130031"
Food Group:  Branded Food Products Database
Common Name:

Nutrient,Unit,Data points,Std. Error,"2.0 COOKIES = 32.0g",1Value per 100 g,
Proximates
"Energy",kcal,--,--,160,500
"Protein",g,--,--,1.00,3.12
"Total lipid (fat)",g,--,--,7.00,21.88
"Carbohydrate, by difference",g,--,--,22.00,68.75
"Fiber, total dietary",g,--,--,1.0,3.1
"Sugars, total",g,--,--,13.00,40.62
Minerals
"Calcium, Ca",mg,--,--,0,0
"Iron, Fe",mg,--,--,1.13,3.52
"Potassium, K",mg,--,--,30,94
"Sodium, Na",mg,--,--,190,594
Vitamins
"Vitamin C, total ascorbic acid",mg,--,--,0.0,0.0
"Vitamin A, IU",IU,--,--,0,0
Lipids
"Fatty acids, total saturated",g,--,--,6.000,18.750
"Fatty acids, total trans",g,--,--,0.000,0.000
"Cholesterol",mg,--,--,0,0
Amino Acids
Other
Ingredients
"SUGAR, ENRICHED FLOUR (WHEAT FLOUR, NIACIN, REDUCED IRON, THIAMINE MONONITRATE, RIBOFLAVIN, FOLIC ACID), VEGETABLE SHORTENING (PARTIALLY HYDROGENATED PALM KERNEL OIL PALM OIL), CARAMEL COLOR, COCOA (PROCESSED WITH ALKALI), CORNSTARCH, SEA SALT, CORN FLOUR, HIGH FRUCTOSE CORN SYRUP, MOLASSES, BAKING SODA, SOY LECITHIN, AMMONIUM BICARBONATE, NATURAL AND ARTIFICIAL FLAVOR, SALT, ARTIFICIAL COLOR (YELLOW #6 LAKE, YELLOW #5 LAKE, BLUE #2 LAKE)." Date available: 07/14/2017 Date last updated by company: 07/14/2017
