Source: USDA Branded Food Products Database Release December 2017 Software v.3.8.6.4 2017-10-02
Report Run at: December 19, 2017 07:38 EST
"Nutrient data for: 45017915, CLOVER CLUB, GREEN ONION GARDEN FRESH DIP MIX, GREEN ONION, UPC: 039700078408"
Food Group:  Branded Food Products Database
Common Name:

Nutrient,Unit,Data points,Std. Error,"0.75 tsp = 1.8g",1Value per 100 g,
Proximates
"Energy",kcal,--,--,5,278
"Protein",g,--,--,0.00,0.00
"Total lipid (fat)",g,--,--,0.00,0.00
"Carbohydrate, by difference",g,--,--,1.00,55.56
"Sugars, total",g,--,--,0.00,0.00
Minerals
"Sodium, Na",mg,--,--,105,5833
Vitamins
Lipids
"Fatty acids, total trans",g,--,--,0.000,0.000
Amino Acids
Other
Ingredients
"DEHYDRATED ONION (INCLUDING GREEN ONION), WHEY (MILK DERIVATIVE), SALT,PARSLEY, MONOSODIUM GLUTAMATE, HYDROLYZED CORN GLUTEN, PARTIALLY HYRDROGENATED SOYBEAN AND COTTON SEED OIL, SPICE, NATURAL FLAVORS, EXTRACTIVES OF TURMERIC, AND SILICON DIOXIDE." Date available: 06/25/2017 Date last updated by company: 06/25/2017
