Source: USDA Branded Food Products Database Release December 2017 Software v.3.8.6.4 2017-10-02
Report Run at: December 19, 2017 07:41 EST
"Nutrient data for: 45034677, CLOVER VALLEY, APPLESAUCE, STRAWBERRY, UPC: 055369902724"
Food Group:  Branded Food Products Database
Common Name:

Nutrient,Unit,Data points,Std. Error,"1 cup = 113.0g",1Value per 100 g,
Proximates
"Energy",kcal,--,--,80,71
"Protein",g,--,--,0.00,0.00
"Total lipid (fat)",g,--,--,0.00,0.00
"Carbohydrate, by difference",g,--,--,21.00,18.58
"Fiber, total dietary",g,--,--,2.0,1.8
"Sugars, total",g,--,--,18.00,15.93
Minerals
"Calcium, Ca",mg,--,--,0,0
"Iron, Fe",mg,--,--,0.00,0.00
"Potassium, K",mg,--,--,90,80
"Sodium, Na",mg,--,--,0,0
Vitamins
"Vitamin C, total ascorbic acid",mg,--,--,11.2,9.9
"Vitamin A, IU",IU,--,--,0,0
Lipids
"Fatty acids, total saturated",g,--,--,0.000,0.000
"Fatty acids, total trans",g,--,--,0.000,0.000
"Cholesterol",mg,--,--,0,0
Amino Acids
Other
Ingredients
"APPLES, HIGH FRUCTOSE CORN SYRUP, WATER, STRAWBERRY PUREE CONCENTRATE, NATURAL FLAVOR, ASCORBIC ACID (VITAMIN C), FD&C RED #40." Date available: 06/24/2017 Date last updated by company: 06/24/2017
