Source: USDA Branded Food Products Database Release December 2017 Software v.3.8.6.4 2017-10-02
Report Run at: December 18, 2017 23:11 EST
"Nutrient data for: 45285459, CLUB SODA, UPC: 011110893611"
Food Group:  Branded Food Products Database
Common Name:

Nutrient,Unit,Data points,Std. Error,"1 CAN = 354.0g",1Value per 100 g,
Proximates
"Energy",kcal,--,--,0,0
"Protein",g,--,--,0.00,0.00
"Total lipid (fat)",g,--,--,0.00,0.00
"Carbohydrate, by difference",g,--,--,0.00,0.00
Minerals
"Sodium, Na",mg,--,--,96,27
Vitamins
Lipids
Amino Acids
Other
Ingredients
"CARBONATED WATER, SODIUM BICARBONATE, SALT, POTASSIUM SULFATE." Date available: 07/14/2017 Date last updated by company: 07/14/2017
