Source: USDA Branded Food Products Database Release December 2017 Software v.3.8.6.4 2017-10-02
Report Run at: December 18, 2017 23:11 EST
"Nutrient data for: 45200126, CLUB SODA, UPC: 688267000744"
Food Group:  Branded Food Products Database
Common Name:

Nutrient,Unit,Data points,Std. Error,"1 BOTTLE = 591.0g",1Value per 100 g,
Proximates
"Energy",kcal,--,--,0,0
"Protein",g,--,--,0.00,0.00
"Total lipid (fat)",g,--,--,0.00,0.00
"Carbohydrate, by difference",g,--,--,0.00,0.00
Minerals
"Sodium, Na",mg,--,--,12,2
Vitamins
Lipids
Amino Acids
Other
Ingredients
"CARBONATED WATER, POTASSIUM BICARBONATE, POTASSIUM CITRATE." Date available: 08/21/2017 Date last updated by company: 08/21/2017
