Source: USDA Branded Food Products Database Release December 2017 Software v.3.8.6.4 2017-10-02
Report Run at: December 19, 2017 01:52 EST
"Nutrient data for: 45187567, CO YO, COCONUT MILK YOGURT ALTERNATIVE, COCONUT MILK, UPC: 797945810008"
Food Group:  Branded Food Products Database
Common Name:

Nutrient,Unit,Data points,Std. Error,"0.75 cup = 170.0g",1Value per 100 g,
Proximates
"Energy",kcal,--,--,450,265
"Protein",g,--,--,4.00,2.35
"Total lipid (fat)",g,--,--,44.00,25.88
"Carbohydrate, by difference",g,--,--,12.00,7.06
"Fiber, total dietary",g,--,--,6.0,3.5
"Sugars, total",g,--,--,6.00,3.53
Minerals
"Calcium, Ca",mg,--,--,0,0
"Iron, Fe",mg,--,--,1.80,1.06
"Sodium, Na",mg,--,--,36,21
Vitamins
"Vitamin C, total ascorbic acid",mg,--,--,0.0,0.0
"Vitamin A, IU",IU,--,--,0,0
Lipids
"Fatty acids, total saturated",g,--,--,41.004,24.120
"Fatty acids, total trans",g,--,--,0.000,0.000
"Cholesterol",mg,--,--,0,0
Amino Acids
Other
Ingredients
"COCONUT CREAM, TAPIOCA, PECTIN AND PROBIOTIC CULTURES." Date available: 07/14/2017 Date last updated by company: 07/14/2017
