Source: USDA Branded Food Products Database Release December 2017 Software v.3.8.6.4 2017-10-02
Report Run at: December 18, 2017 23:13 EST
"Nutrient data for: 45035568, COARSE GRIND CORNMEAL, UPC: 039978003065"
Food Group:  Branded Food Products Database
Common Name:

Nutrient,Unit,Data points,Std. Error,"0.25 cup = 33.0g",1Value per 100 g,
Proximates
"Energy",kcal,--,--,110,333
"Protein",g,--,--,2.00,6.06
"Total lipid (fat)",g,--,--,1.00,3.03
"Carbohydrate, by difference",g,--,--,23.00,69.70
"Fiber, total dietary",g,--,--,5.0,15.2
"Sugars, total",g,--,--,0.00,0.00
Minerals
"Calcium, Ca",mg,--,--,10,30
"Iron, Fe",mg,--,--,1.64,4.96
"Sodium, Na",mg,--,--,10,30
Vitamins
"Vitamin C, total ascorbic acid",mg,--,--,0.0,0.0
"Vitamin A, IU",IU,--,--,0,0
Lipids
"Fatty acids, total saturated",g,--,--,0.000,0.000
"Fatty acids, total trans",g,--,--,0.000,0.000
"Cholesterol",mg,--,--,0,0
Amino Acids
Other
Ingredients
"WHOLE GRAIN CORN." Date available: 07/14/2017 Date last updated by company: 07/14/2017
