Source: USDA Branded Food Products Database Release December 2017 Software v.3.8.6.4 2017-10-02
Report Run at: December 18, 2017 23:17 EST
"Nutrient data for: 45274567, COBB SALAD, UPC: 492860300053"
Food Group:  Branded Food Products Database
Common Name:

Nutrient,Unit,Data points,Std. Error,"1 SALAD = 206.0g",1Value per 100 g,
Proximates
"Energy",kcal,--,--,290,141
"Protein",g,--,--,16.01,7.77
"Total lipid (fat)",g,--,--,23.01,11.17
"Carbohydrate, by difference",g,--,--,5.01,2.43
"Fiber, total dietary",g,--,--,2.1,1.0
"Sugars, total",g,--,--,3.01,1.46
Minerals
"Calcium, Ca",mg,--,--,60,29
"Iron, Fe",mg,--,--,0.99,0.48
"Sodium, Na",mg,--,--,750,364
Vitamins
"Vitamin C, total ascorbic acid",mg,--,--,2.5,1.2
"Vitamin A, IU",IU,--,--,2379,1155
Lipids
"Fatty acids, total saturated",g,--,--,3.996,1.940
"Fatty acids, total trans",g,--,--,0.000,0.000
"Cholesterol",mg,--,--,130,63
Amino Acids
Other
Ingredients
"ICEBERG LETTUCE, ROMAINE LETTUCE, BLUE CHEESE DRESSING (CANOLA OIL, CULTURED BUTTERMILK, BLUE CHEESE [MILK, SALT, CULTURE, ENZYMES], WATER, EGG YOLK, SALT, DISTILLED VINEGAR, SUGAR, MALTODEXTRIN, CULTURED DEXTROSE, DRIED GARLIC, XANTHAN GUM, CARRAGEENAN GUM, MUSTARD FLOUR, SPICE), HARD-COOKED EGGS (EGG, WATER, CITRIC ACID, SODIUM BENZOATE [AS A PRESERVATIVE]), TURKEY BREAST (TURKEY BREAST, WATER, CONTAINS 2% OR LESS OF SUGAR, SALT, PRESERVATIVES [SODIUM PHOSPHATE, SODIUM DIACETATE, SODIUM NITRITE, POTASSIUM LACTATE, SODIUM ERYTHORBATE]), BACON BITS (BACON CURED WITH WATER, SALT, SUGAR, SODIUM NITRITE [PRESERVATIVE], MAY CONTAIN SMOKE FLAVORING, DEXTROSE, BROWN SUGAR, SODIUM PHOSPHATES [TO ENHANCE FLAVOR], PRESERVATIVES [SODIUM ERYTHORBATE, SODIUM ASCORBATE, POTASSIUM CHLORIDE], FLAVORING)." Date available: 07/14/2017 Date last updated by company: 07/14/2017
