Source: USDA Branded Food Products Database Release December 2017 Software v.3.8.6.4 2017-10-02
Report Run at: December 18, 2017 23:16 EST
"Nutrient data for: 45045083, COBBLESTONE BREAD CO, 100% WHOLE WHEAT ROUNDS FLATBREAD, UPC: 072250013291"
Food Group:  Branded Food Products Database
Common Name:

Nutrient,Unit,Data points,Std. Error,"1 ROLL = 43.0g",1Value per 100 g,
Proximates
"Energy",kcal,--,--,100,233
"Protein",g,--,--,5.00,11.63
"Total lipid (fat)",g,--,--,1.50,3.49
"Carbohydrate, by difference",g,--,--,20.00,46.51
"Fiber, total dietary",g,--,--,5.0,11.6
"Sugars, total",g,--,--,3.00,6.98
Minerals
"Calcium, Ca",mg,--,--,80,186
"Iron, Fe",mg,--,--,0.92,2.14
"Sodium, Na",mg,--,--,200,465
Vitamins
"Vitamin C, total ascorbic acid",mg,--,--,0.0,0.0
"Vitamin A, IU",IU,--,--,0,0
Lipids
"Fatty acids, total saturated",g,--,--,0.000,0.000
"Fatty acids, total monounsaturated",g,--,--,0.000,0.000
"Fatty acids, total polyunsaturated",g,--,--,0.499,1.160
"Fatty acids, total trans",g,--,--,0.000,0.000
"Cholesterol",mg,--,--,0,0
Amino Acids
Other
Ingredients
"WHOLE WHEAT FLOUR, WATER, YEAST, SUGAR, WHEAT GLUTEN, OAT FIBER, CONTAINS 2% OR LESS OF EACH OF THE FOLLOWING: MODIFIED WHEAT STARCH, WHEAT BRAN, SOYBEAN OIL, SALT, CULTURED WHEAT STARCH, CULTURED WHEAT FLOUR, VINEGAR, DOUGH CONDITIONERS (CONTAINS ONE OR MORE OF THE FOLLOWING: SODIUM STEAROYL LACTYLATE, CALCIUM STEAROYL LACTYLATE, CALCIUM STEROYL LACTYLATE, MONOGLYCERIDES, MONO-AND DIGLYCERIDES, DISTILLED MONOGLYCERIDES, CALCIUM PEROXIDE, CALCIUM IODATE, DATEM, ETHOXYLATED MONO- AND DIGLYCERIDES, ENZYMES, ASCORBIC ACID), MONOCALCIUM PHOSPHATE, CALCIUM SULFATE, GUAR GUM, CITRIC ACID, SODIUM CITRATE, NATAMYCIN (TO RETARD SPOILAGE)" Date available: 07/14/2017 Date last updated by company: 07/14/2017
