Source: USDA Branded Food Products Database Release December 2017 Software v.3.8.6.4 2017-10-02
Report Run at: December 18, 2017 23:17 EST
"Nutrient data for: 45328142, COBORN'S, SQUARE CAKE, STRAWBERRY, UPC: 733147204764"
Food Group:  Branded Food Products Database
Common Name:

Nutrient,Unit,Data points,Std. Error,"1 CAKE = 135.0g",1Value per 100 g,
Proximates
"Energy",kcal,--,--,510,378
"Protein",g,--,--,4.00,2.96
"Total lipid (fat)",g,--,--,23.00,17.04
"Carbohydrate, by difference",g,--,--,72.00,53.33
"Fiber, total dietary",g,--,--,0.9,0.7
"Sugars, total",g,--,--,55.00,40.74
Minerals
"Calcium, Ca",mg,--,--,59,44
"Iron, Fe",mg,--,--,0.85,0.63
"Sodium, Na",mg,--,--,450,333
Vitamins
"Vitamin C, total ascorbic acid",mg,--,--,0.0,0.0
"Vitamin A, IU",IU,--,--,0,0
Lipids
"Fatty acids, total saturated",g,--,--,5.994,4.440
"Fatty acids, total trans",g,--,--,4.995,3.700
"Cholesterol",mg,--,--,30,22
Amino Acids
Other
Ingredients
"WHITE CAKE MIX (SUGAR, ENRICHED FLOUR BLEACHED[WHEAT FLOUR, NIACIN, IRON, THIAMINE MONONITRATE,RIBOFLAVIN, FOLIC ACID], PARTIALLY HYDROGENATED SOYBEANOILS, EGG WHITE, NONFAT MILK, EGG YOLK, LEAVENING [BAKINGSODA, SODIUM ALUMINUM PHOSPHATE, MONOCALCIUM PHOSPHATE], PROPYLENE GLYCOL MONO AND DIESTERS OF FATTY ACIDS, DEXTROSE,MODIFIED TAPIOCA STARCH, MONO AND DIGLYCERIDES, SALT, SORBITAN MONOSTEARATE, SODIUM PYROPHOSPHATE, XANTHAN GUM, SODIUM STEAROYL LACTYLATE, POLYSORBATE 60, CALCIUM ACETATE,CELLULOSE GUM, GUAR GUM, ARTIFICIAL FLAVOR, SOY FLOUR) , WATER, POWDERED SUGAR WITH CORN STARCH (ANTICAKING AGENT),ICING BASE (VEGETABLE OIL [PARTIALLY HYDROGENATED SOY ANDCOTTONSEED], SUGAR, CORN SYRUP SOLIDS, MONO ANDDIGLYCERIDES, SALT, ARTIFICIAL FLAVOR, POLYSORBATE 60) , SOYBEAN OIL, STRAWBERRY FRUITCENTRATE (CORN SYRUP, CRUSHEDPINEAPPLE IN NATURAL JUICE, SUGAR, STRAWBERRIES, MODIFIEDCORN STARCH, WATER, NATURAL AND ARTIFICIAL FLAVOR, CITRICACID, SODIUM BENZOATE AND POTASSIUM SORBATE [PRESERVATIVES],ARTIFICIAL COLOR [RED 40, RED 3], SODIUM ALGINATE)." Date available: 09/08/2017 Date last updated by company: 09/08/2017
