Source: USDA Branded Food Products Database Release December 2017 Software v.3.8.6.4 2017-10-02
Report Run at: December 18, 2017 23:21 EST
"Nutrient data for: 45322505, COCKTAIL SHRIMP, UPC: 041172810417"
Food Group:  Branded Food Products Database
Common Name:

Nutrient,Unit,Data points,Std. Error,"9.0 SHRIMP & 1 TBSP SAUCE | ABOUT = 106.0g",1Value per 100 g,
Proximates
"Energy",kcal,--,--,80,75
"Protein",g,--,--,12.00,11.32
"Total lipid (fat)",g,--,--,0.50,0.47
"Carbohydrate, by difference",g,--,--,6.00,5.66
"Fiber, total dietary",g,--,--,1.0,0.9
"Sugars, total",g,--,--,4.00,3.77
Minerals
"Calcium, Ca",mg,--,--,22,21
"Iron, Fe",mg,--,--,0.00,0.00
"Sodium, Na",mg,--,--,660,623
Vitamins
"Vitamin C, total ascorbic acid",mg,--,--,0.0,0.0
"Vitamin A, IU",IU,--,--,0,0
Lipids
"Fatty acids, total saturated",g,--,--,0.000,0.000
"Fatty acids, total trans",g,--,--,0.000,0.000
"Cholesterol",mg,--,--,114,108
Amino Acids
Other
Ingredients
"SHRIMP, SALT, SODIUM TRIPOLYPHOSPHATE. COCKTAIL SAUCE- WATER, TOMATO PASTE, SUGAR, HORSERADISH, SALT, CITRIC ACID, ACETIC ACID, MODIFIED TAPIOCA STARCH, XANTHAN GUM, CARRAGEENAN, ONION, GARLIC, SPICES." Date available: 08/11/2017 Date last updated by company: 08/11/2017
