Source: USDA Branded Food Products Database Release December 2017 Software v.3.8.6.4 2017-10-02
Report Run at: December 18, 2017 23:28 EST
"Nutrient data for: 45210905, COCONUT COFFEE, UPC: 852429005230"
Food Group:  Branded Food Products Database
Common Name:

Nutrient,Unit,Data points,Std. Error,"2.0 Tbsp = 25.0g",1Value per 100 g,
Proximates
"Energy",kcal,--,--,120,480
"Protein",g,--,--,1.00,4.00
"Total lipid (fat)",g,--,--,6.00,24.00
"Carbohydrate, by difference",g,--,--,15.00,60.00
"Sugars, total",g,--,--,14.00,56.00
Minerals
"Sodium, Na",mg,--,--,21,84
Vitamins
Lipids
"Fatty acids, total saturated",g,--,--,5.000,20.000
Amino Acids
Other
Ingredients
"SUGAR, COCONUT, COLOMBIAN COFFEE, MALTODEXTRIN, STARCH" Date available: 07/14/2017 Date last updated by company: 07/14/2017
