Source: USDA Branded Food Products Database Release December 2017 Software v.3.8.6.4 2017-10-02
Report Run at: December 18, 2017 23:34 EST
"Nutrient data for: 45285520, COCONUT MILK, UPC: 011150026161"
Food Group:  Branded Food Products Database
Common Name:

Nutrient,Unit,Data points,Std. Error,"0.25 cup = 60.0g",1Value per 100 g,
Proximates
"Energy",kcal,--,--,35,58
"Protein",g,--,--,0.00,0.00
"Total lipid (fat)",g,--,--,3.50,5.83
"Carbohydrate, by difference",g,--,--,1.00,1.67
"Fiber, total dietary",g,--,--,0.0,0.0
"Sugars, total",g,--,--,0.00,0.00
Minerals
"Calcium, Ca",mg,--,--,0,0
"Iron, Fe",mg,--,--,0.00,0.00
"Sodium, Na",mg,--,--,30,50
Vitamins
"Vitamin C, total ascorbic acid",mg,--,--,0.0,0.0
"Vitamin A, IU",IU,--,--,0,0
Lipids
"Fatty acids, total saturated",g,--,--,3.000,5.000
"Fatty acids, total trans",g,--,--,0.000,0.000
"Cholesterol",mg,--,--,0,0
Amino Acids
Other
Ingredients
"COCONUT MILK, WATER, LESS THAN 2% OF SODIUM CARBOXYMETHYL CELLULOSE, GUAR GUM, POLYOXYETHYLENE SORBITAN MONOSTEARATE, SODIUM METABISULPHITE (PRESERVATIVE)." Date available: 07/14/2017 Date last updated by company: 07/14/2017
