Source: USDA Branded Food Products Database Release December 2017 Software v.3.8.6.4 2017-10-02
Report Run at: December 18, 2017 23:30 EST
"Nutrient data for: 45166948, COCONUT DRINK, UPC: 856472002321"
Food Group:  Branded Food Products Database
Common Name:

Nutrient,Unit,Data points,Std. Error,"8.0 OZA = 240.0g",1Value per 100 g,
Proximates
"Energy",kcal,--,--,79,33
"Protein",g,--,--,0.00,0.00
"Total lipid (fat)",g,--,--,0.00,0.00
"Carbohydrate, by difference",g,--,--,19.01,7.92
"Fiber, total dietary",g,--,--,0.0,0.0
"Sugars, total",g,--,--,18.00,7.50
Minerals
"Calcium, Ca",mg,--,--,79,33
"Iron, Fe",mg,--,--,0.36,0.15
"Sodium, Na",mg,--,--,36,15
Vitamins
"Vitamin C, total ascorbic acid",mg,--,--,30.0,12.5
"Vitamin A, IU",IU,--,--,0,0
Lipids
"Fatty acids, total saturated",g,--,--,0.000,0.000
"Fatty acids, total trans",g,--,--,0.000,0.000
"Cholesterol",mg,--,--,0,0
Amino Acids
Other
Ingredients
"WATER, FRUCTOSE, NATA DE COCO, CITRIC ACID(ACIDITY REGULATOR E330), ARTIFICIAL PINEAPPLE FLAVOR, CALCIUM LACTATE, COCONUT JUICE, VITAMIN C, SODIUM CITRATE, GELLAN GUM, BETA CAROTENE, SUCRALOSE" Date available: 07/14/2017 Date last updated by company: 07/14/2017
