Source: USDA Branded Food Products Database Release December 2017 Software v.3.8.6.4 2017-10-02
Report Run at: December 18, 2017 23:35 EST
"Nutrient data for: 45332739, COCONUT OIL MCT SUPERDRINK WITH COLD BREWED MOCHA, UPC: 859965003058"
Food Group:  Branded Food Products Database
Common Name:

Nutrient,Unit,Data points,Std. Error,"10.0 OZA = 296.0g",1Value per 100 g,
Proximates
"Energy",kcal,--,--,139,47
"Protein",g,--,--,1.01,0.34
"Total lipid (fat)",g,--,--,9.00,3.04
"Carbohydrate, by difference",g,--,--,16.99,5.74
"Fiber, total dietary",g,--,--,5.9,2.0
"Sugars, total",g,--,--,6.99,2.36
Minerals
"Calcium, Ca",mg,--,--,101,34
"Iron, Fe",mg,--,--,0.44,0.15
"Sodium, Na",mg,--,--,36,12
Vitamins
"Vitamin C, total ascorbic acid",mg,--,--,1.5,0.5
"Vitamin A, IU",IU,--,--,0,0
Lipids
"Fatty acids, total saturated",g,--,--,8.998,3.040
"Fatty acids, total trans",g,--,--,0.000,0.000
"Cholesterol",mg,--,--,0,0
Amino Acids
Other
Ingredients
"FILTERED WATER, ORGANIC COCONUT WATER CONCENTRATE, ORGANIC COCONUT CREAM (ORGANIC COCONUT MILK, WATER), FAIR TRADE ORGANIC COFFEE EXTRACT, ORGANIC ACACIA (DIETARY FIBER), MCT (ORGANIC COCONUT OIL, COCONUT GLYCERINE), ORGANIC DUTCH COCOA POWDER, ORGANIC VANILLA EXTRACT, ORGANIC QUILLAJA EXTRACT, ORGANIC CINNAMON EXTRACT." Date available: 07/21/2017 Date last updated by company: 07/21/2017
