Source: USDA Branded Food Products Database Release December 2017 Software v.3.8.6.4 2017-10-02
Report Run at: December 18, 2017 23:37 EST
"Nutrient data for: 45286694, COCONUT PIE, UPC: 072470000484"
Food Group:  Branded Food Products Database
Common Name:

Nutrient,Unit,Data points,Std. Error,"1 PIE = 85.0g",1Value per 100 g,
Proximates
"Energy",kcal,--,--,330,388
"Protein",g,--,--,4.00,4.71
"Total lipid (fat)",g,--,--,13.00,15.29
"Carbohydrate, by difference",g,--,--,48.00,56.47
"Fiber, total dietary",g,--,--,1.0,1.2
"Sugars, total",g,--,--,29.00,34.12
Minerals
"Calcium, Ca",mg,--,--,20,24
"Iron, Fe",mg,--,--,1.59,1.87
"Sodium, Na",mg,--,--,240,282
Vitamins
"Vitamin C, total ascorbic acid",mg,--,--,0.0,0.0
"Vitamin A, IU",IU,--,--,294,346
Lipids
"Fatty acids, total saturated",g,--,--,7.004,8.240
"Fatty acids, total trans",g,--,--,0.000,0.000
"Cholesterol",mg,--,--,45,53
Amino Acids
Other
Ingredients
"ENRICHED BLEACHED WHEAT FLOUR (BLEACHED FLOUR, NIACIN, REDUCED IRON, THIAMIN MONONITRATE, RIBOFLAVIN, FOLIC ACID), SUGAR, CORN SYRUP, EGGS, VEGETABLE OIL (CONTAINS OR MORE OF THE FOLLOWING OILS: COTTONSEED OIL, PALM OIL, SOYBEAN OIL), COCONUT, WATER, MARGARINE (PALM OIL, WATER, SALT, MONO- AND DIGLYCERIDES, ARTIFICIAL FLAVOR, COLORED WITH ANNATTO EXTRACT, CALCIUM DISODIUM EDTA ADDED AS A PRESERVATIVE, VITAMIN A PALMITATE ADDED), WHEY, NONFAT MILK, PRESERVATIVES (POTASSIUM SORBATE, SODIUM PROPIONATE, SODIUM BENZOATE), SALT, NATURAL AND ARTIFICIAL FLAVOR, COLORED WITH ANNATTO EXTRACT, SOY FLOUR, PECANS." Date available: 07/14/2017 Date last updated by company: 07/14/2017
