Source: USDA Branded Food Products Database Release December 2017 Software v.3.8.6.4 2017-10-02
Report Run at: December 18, 2017 23:35 EST
"Nutrient data for: 45198889, COCONUT MILK YOGURT ALTERNATIVE, UPC: 797945810152"
Food Group:  Branded Food Products Database
Common Name:

Nutrient,Unit,Data points,Std. Error,"1 CONTAINER = 150.0g",1Value per 100 g,
Proximates
"Energy",kcal,--,--,320,213
"Protein",g,--,--,3.00,2.00
"Total lipid (fat)",g,--,--,30.00,20.00
"Carbohydrate, by difference",g,--,--,9.00,6.00
"Fiber, total dietary",g,--,--,1.1,0.7
"Sugars, total",g,--,--,7.00,4.67
Minerals
"Calcium, Ca",mg,--,--,0,0
"Iron, Fe",mg,--,--,1.23,0.82
"Sodium, Na",mg,--,--,150,100
Vitamins
"Vitamin C, total ascorbic acid",mg,--,--,2.7,1.8
"Vitamin A, IU",IU,--,--,0,0
Lipids
"Fatty acids, total saturated",g,--,--,27.000,18.000
"Fatty acids, total trans",g,--,--,0.000,0.000
"Cholesterol",mg,--,--,0,0
Amino Acids
Other
Ingredients
"COCONUT CREAM, MIXED BERRY (APPLE PUREE CONCENTRATE, PUREE OF BLACKBERRY AND RASPBERRY, WATER, PUREE CONCENTRATE OF RASPBERRY AND STRAWBERRY, NATURAL FLAVOR, PECTIN, SODIUM CITRATE, FRUIT AND VEGETABLE JUICE (FOR COLOR), CALCIUM CHLORIDE), STEVIA, TAPIOCA, PECTIN AND PROBIOTIC CULTURES." Date available: 07/14/2017 Date last updated by company: 07/14/2017
