Source: USDA Branded Food Products Database Release December 2017 Software v.3.8.6.4 2017-10-02
Report Run at: December 18, 2017 23:23 EST
"Nutrient data for: 45166742, COCOAPLANET, PREMIUM DARK CHOCOLATE, UPC: 850918004092"
Food Group:  Branded Food Products Database
Common Name:

Nutrient,Unit,Data points,Std. Error,"20.0 GRM = 20.0g",1Value per 100 g,
Proximates
"Energy",kcal,--,--,96,480
"Protein",g,--,--,1.00,5.00
"Total lipid (fat)",g,--,--,7.00,35.00
"Carbohydrate, by difference",g,--,--,11.00,55.00
"Fiber, total dietary",g,--,--,2.0,10.0
"Sugars, total",g,--,--,8.00,40.00
Minerals
"Calcium, Ca",mg,--,--,10,50
"Iron, Fe",mg,--,--,4.05,20.25
"Sodium, Na",mg,--,--,15,75
Vitamins
"Vitamin C, total ascorbic acid",mg,--,--,0.0,0.0
"Vitamin A, IU",IU,--,--,0,0
Lipids
"Fatty acids, total saturated",g,--,--,4.000,20.000
"Fatty acids, total trans",g,--,--,0.000,0.000
"Cholesterol",mg,--,--,0,0
Amino Acids
Other
Ingredients
"CHOCOLATE* (CACAO BEANS, PURE CANE SUGAR, COCOA BUTTER, SOY LECITHIN, VANILLA BEANS), PURE CANE SUGAR CONTAINING INVERT, WATER, ORGANIC ORANGE ZEST, ORGANIC MANDARIN ORANGE OIL, NATURAL CITRUS BLOSSOM OIL, NATURAL TANGERINE OIL, OTHER NATURAL FLAVORS." Date available: 07/14/2017 Date last updated by company: 07/14/2017
