Source: USDA Branded Food Products Database Release December 2017 Software v.3.8.6.4 2017-10-02
Report Run at: December 18, 2017 23:23 EST
"Nutrient data for: 45204572, COCOA PUMPKIN SEED MUESLI SQUARE, UPC: 856088003255"
Food Group:  Branded Food Products Database
Common Name:

Nutrient,Unit,Data points,Std. Error,"1 SQUARE = 57.0g",1Value per 100 g,
Proximates
"Energy",kcal,--,--,260,456
"Protein",g,--,--,6.00,10.53
"Total lipid (fat)",g,--,--,13.00,22.81
"Carbohydrate, by difference",g,--,--,30.00,52.63
"Fiber, total dietary",g,--,--,6.0,10.5
"Sugars, total",g,--,--,12.00,21.05
Minerals
"Calcium, Ca",mg,--,--,40,70
"Iron, Fe",mg,--,--,1.27,2.22
"Sodium, Na",mg,--,--,140,246
Vitamins
"Vitamin C, total ascorbic acid",mg,--,--,0.0,0.0
"Vitamin A, IU",IU,--,--,0,0
Lipids
"Fatty acids, total saturated",g,--,--,6.002,10.530
"Fatty acids, total trans",g,--,--,0.000,0.000
"Cholesterol",mg,--,--,0,0
Amino Acids
Other
Ingredients
"GLUTEN-FREE OATS, ORGANIC HONEY, SUNFLOWER SEED BUTTER, DATE PASTE, UNSWEETENED COCOA POWDER, COCONUT OIL, PUMPKIN SEEDS, CHIA SEEDS, COCONUT, DATE DATES, RICE FLOUR), VANILLA EXTRACT, CINNAMON, SEA SALT." Date available: 07/14/2017 Date last updated by company: 07/14/2017
