Source: USDA Branded Food Products Database Release December 2017 Software v.3.8.6.4 2017-10-02
Report Run at: December 18, 2017 23:52 EST
"Nutrient data for: 45094676, COFFEE THINS, EDIBLE COFFEE TREAT, ESPRESSO, UPC: 812881020103"
Food Group:  Branded Food Products Database
Common Name:

Nutrient,Unit,Data points,Std. Error,"1.05 ONZ = 30.0g",1Value per 100 g,
Proximates
"Energy",kcal,--,--,160,533
"Protein",g,--,--,1.00,3.33
"Total lipid (fat)",g,--,--,9.00,30.00
"Carbohydrate, by difference",g,--,--,18.00,60.00
"Fiber, total dietary",g,--,--,0.0,0.0
"Sugars, total",g,--,--,17.00,56.67
Minerals
"Calcium, Ca",mg,--,--,20,67
"Iron, Fe",mg,--,--,0.00,0.00
"Sodium, Na",mg,--,--,35,117
Vitamins
"Vitamin C, total ascorbic acid",mg,--,--,0.0,0.0
"Vitamin A, IU",IU,--,--,0,0
Lipids
"Fatty acids, total saturated",g,--,--,6.000,20.000
"Fatty acids, total trans",g,--,--,0.000,0.000
"Cholesterol",mg,--,--,0,0
Amino Acids
Other
Ingredients
"COFFEE MASS: (COCOA BUTTER, COFFEE), SUGAR, DAIRY SOLIDS: (WHEY POWDER, LACTOSE), MALTODEXTRINS, SOYBEAN LECITHIN (NATURAL EMULSIFIER), NATURAL VANILLA FLAVORING, SALT." Date available: 06/25/2017 Date last updated by company: 06/25/2017
