Source: USDA Branded Food Products Database Release December 2017 Software v.3.8.6.4 2017-10-02
Report Run at: December 18, 2017 23:50 EST
"Nutrient data for: 45226662, COFFEEE CAKES, UPC: 888109010041"
Food Group:  Branded Food Products Database
Common Name:

Nutrient,Unit,Data points,Std. Error,"2.0 CAKES = 82.0g",1Value per 100 g,
Proximates
"Energy",kcal,--,--,310,378
"Protein",g,--,--,2.00,2.44
"Total lipid (fat)",g,--,--,10.00,12.20
"Carbohydrate, by difference",g,--,--,51.00,62.20
"Fiber, total dietary",g,--,--,1.0,1.2
"Sugars, total",g,--,--,35.00,42.68
Minerals
"Calcium, Ca",mg,--,--,20,24
"Iron, Fe",mg,--,--,0.48,0.59
"Sodium, Na",mg,--,--,270,329
Vitamins
"Vitamin C, total ascorbic acid",mg,--,--,0.0,0.0
"Vitamin A, IU",IU,--,--,67,82
Lipids
"Fatty acids, total saturated",g,--,--,3.001,3.660
"Fatty acids, total trans",g,--,--,0.000,0.000
"Cholesterol",mg,--,--,20,24
Amino Acids
Other
Ingredients
"SUGAR, ENRICHED BLEACHED WHEAT FLOUR [FLOUR, REDUCED IRON, ""B"" VITAMINS (NIACIN, THIAMINE MONONITRATE (B1), RIBOFLAVIN (B2), FOLIC ACID)], WATER, SOYBEAN OIL, BROWN SUGAR, EGG WHITES, CORN SYRUP, BUTTER (CREAM, SALT), EGG YOLKS. CONTAINS 2% OR LESS OF: MARGARINE [BEEF FAT, SOYBEAN OIL, PARTIALLY HYDROGENATED BEEF FAT, WATER, SALT, MONO AND DIGLYCERIDES, BETA CAROTENE (COLOR), ARTIFICIAL FLAVOR, VITAMIN A PALMITATE), MODIFIED CORN STARCH, GLYCERIN, CINNAMON, LEAVENINGS (SODIUM ACID PYROPHOSPHATE, BAKING SODA, MONOCALCIUM PHOSPHATE), WHEY, SOY PROTEIN ISOLATE, CALCIUM AND SODIUM CASEINATE, POLYSORBATE 60, MONO AND DIGLYCERIDES, PROPYLENE GLYCOL, SALT, SOY FLOUR, PARTIALLY HYDROGENATED VEGETABLE AND/OR ANIMAL SHORTENING (SOYBEAN, COTTONSEED AND/OR CANOLA OIL, BEEF FAT), CORNSTARCH, CALCIUM SULFATE, FUMARIC ACID, MODIFIED WHEAT STARCH, NATURAL AND ARTIFICIAL FLAVORS (CARAMEL COLOR), SORBIC ACID (TO RETAIN FRESHNESS), SOY LECITHIN." Date available: 10/10/2017 Date last updated by company: 10/10/2017
