Source: USDA Branded Food Products Database Release December 2017 Software v.3.8.6.4 2017-10-02
Report Run at: December 18, 2017 23:48 EST
"Nutrient data for: 45264738, COFFEE CREAMER, UPC: 021130083480"
Food Group:  Branded Food Products Database
Common Name:

Nutrient,Unit,Data points,Std. Error,"1 Tbsp = 15.0g",1Value per 100 g,
Proximates
"Energy",kcal,--,--,35,233
"Protein",g,--,--,0.00,0.00
"Total lipid (fat)",g,--,--,1.50,10.00
"Carbohydrate, by difference",g,--,--,6.00,40.00
"Fiber, total dietary",g,--,--,0.0,0.0
"Sugars, total",g,--,--,6.00,40.00
Minerals
"Calcium, Ca",mg,--,--,0,0
"Iron, Fe",mg,--,--,0.00,0.00
"Potassium, K",mg,--,--,15,100
"Sodium, Na",mg,--,--,25,167
Vitamins
"Vitamin C, total ascorbic acid",mg,--,--,0.0,0.0
"Vitamin A, IU",IU,--,--,0,0
Lipids
"Fatty acids, total saturated",g,--,--,0.000,0.000
"Fatty acids, total monounsaturated",g,--,--,1.000,6.670
"Fatty acids, total polyunsaturated",g,--,--,0.000,0.000
"Fatty acids, total trans",g,--,--,0.000,0.000
"Cholesterol",mg,--,--,0,0
Amino Acids
Other
Ingredients
"WATER, SUGAR, VEGETABLE OIL (HIGH OLEIC CANOLA OIL AND/OR HIGH OLEIC SOYBEAN OIL), LESS THAN 2% OF: SODIUM CASEINATE* (A MILK DERIVATIVE), MONO- AND DIGLYCERIDES, CORN SYRUP SOLIDS, DIPOTASSIUM PHOSPHATE, SODIUM STEAROYL LACTYLATE, CARRAGEENAN, NATURAL AND ARTIFICIAL FLAVOR, POLYSORBATE 60." Date available: 07/14/2017 Date last updated by company: 07/14/2017
