Source: USDA Branded Food Products Database Release December 2017 Software v.3.8.6.4 2017-10-02
Report Run at: December 18, 2017 23:48 EST
"Nutrient data for: 45267000, COFFEE CREAMER, UPC: 092825097983"
Food Group:  Branded Food Products Database
Common Name:

Nutrient,Unit,Data points,Std. Error,"1 Tbsp = 5.0g",1Value per 100 g,
Proximates
"Energy",kcal,--,--,30,600
"Protein",g,--,--,0.00,0.00
"Total lipid (fat)",g,--,--,2.50,50.00
"Carbohydrate, by difference",g,--,--,2.00,40.00
"Fiber, total dietary",g,--,--,0.0,0.0
"Sugars, total",g,--,--,0.00,0.00
Minerals
"Calcium, Ca",mg,--,--,0,0
"Iron, Fe",mg,--,--,0.00,0.00
"Potassium, K",mg,--,--,52,1040
"Sodium, Na",mg,--,--,15,300
Vitamins
Lipids
"Fatty acids, total saturated",g,--,--,1.500,30.000
"Fatty acids, total trans",g,--,--,0.000,0.000
"Cholesterol",mg,--,--,0,0
Amino Acids
Other
Ingredients
"VEGETABLE OIL (CONTAINS ONE OR MORE OF THE FOLLOWING: PALM, PALM KERNEL, COCONUT, SOYBEAN), CORN SYRUP SOLIDS*, SODIUM CASEINATE (A MILK DERIVATIVE)**, DIPOTASSIUM PHOSPHATE, CONTAINS LESS THAN 2% OF MONO- AND DIGLYCERIDES, SILICON DIOXIDE, SALT, NATURAL AND ARTIFICIAL FLAVORS, SUCRALOSE, ACESULFAME POTASSIUM, SOY LECITHIN." Date available: 07/14/2017 Date last updated by company: 07/14/2017
