Source: USDA Branded Food Products Database Release December 2017 Software v.3.8.6.4 2017-10-02
Report Run at: December 18, 2017 23:48 EST
"Nutrient data for: 45267162, COFFEE CREAMER, UPC: 078742147871"
Food Group:  Branded Food Products Database
Common Name:

Nutrient,Unit,Data points,Std. Error,"1 Tbsp = 15.0g",1Value per 100 g,
Proximates
"Energy",kcal,--,--,30,200
"Protein",g,--,--,0.00,0.00
"Total lipid (fat)",g,--,--,1.00,6.67
"Carbohydrate, by difference",g,--,--,5.00,33.33
"Fiber, total dietary",g,--,--,0.0,0.0
"Sugars, total",g,--,--,5.00,33.33
Minerals
"Calcium, Ca",mg,--,--,0,0
"Iron, Fe",mg,--,--,0.00,0.00
"Potassium, K",mg,--,--,35,233
"Sodium, Na",mg,--,--,0,0
Vitamins
"Vitamin C, total ascorbic acid",mg,--,--,0.0,0.0
"Vitamin A, IU",IU,--,--,0,0
Lipids
"Fatty acids, total saturated",g,--,--,0.200,1.330
"Fatty acids, total monounsaturated",g,--,--,0.500,3.330
"Fatty acids, total polyunsaturated",g,--,--,0.000,0.000
"Fatty acids, total trans",g,--,--,0.000,0.000
"Cholesterol",mg,--,--,0,0
Amino Acids
Other
Ingredients
"WATER, SUGAR, SUNFLOWER OIL, LESS THAN 2% OF NATURAL AND ARTIFICIAL FLAVORS, SODIUM CASEINATE (A MILK DERIVATIVE*), DIPOTASSIUM PHOSPHATE, POLYSORBATE 60, MONO AND DIGLYCERIDES, COLOR ADDED, SODIUM STEAROYL LACTYLATE, CARRAGEENAN." Date available: 08/11/2017 Date last updated by company: 08/11/2017
