Source: USDA Branded Food Products Database Release December 2017 Software v.3.8.6.4 2017-10-02
Report Run at: December 18, 2017 23:51 EST
"Nutrient data for: 45274534, COFFEE SYRUP, UPC: 085239711361"
Food Group:  Branded Food Products Database
Common Name:

Nutrient,Unit,Data points,Std. Error,"2.0 Tbsp = 30.0g",1Value per 100 g,
Proximates
"Energy",kcal,--,--,0,0
"Protein",g,--,--,0.00,0.00
"Total lipid (fat)",g,--,--,0.00,0.00
"Carbohydrate, by difference",g,--,--,0.00,0.00
"Sugars, total",g,--,--,0.00,0.00
Minerals
"Sodium, Na",mg,--,--,10,33
Vitamins
Lipids
Amino Acids
Other
Ingredients
"WATER, NATURAL FLAVOR (HAZELNUT), CELLULOSE GUM, CITRIC ACID, SUCRALOSE, POTASSIUM SORBATE AND SODIUM BENZOATE (PRESERVATIVES), CARAMEL COLOR, SALT." Date available: 07/14/2017 Date last updated by company: 07/14/2017
