Source: USDA Branded Food Products Database Release December 2017 Software v.3.8.6.4 2017-10-02
Report Run at: December 19, 2017 00:06 EST
"Nutrient data for: 45169635, COLD PRESSED JUICE, UPC: 854649005915"
Food Group:  Branded Food Products Database
Common Name:

Nutrient,Unit,Data points,Std. Error,"8.0 OZA = 237.0g",1Value per 100 g,
Proximates
"Energy",kcal,--,--,109,46
"Protein",g,--,--,1.99,0.84
"Total lipid (fat)",g,--,--,0.00,0.00
"Carbohydrate, by difference",g,--,--,26.99,11.39
"Fiber, total dietary",g,--,--,5.0,2.1
"Sugars, total",g,--,--,21.00,8.86
Minerals
"Calcium, Ca",mg,--,--,100,42
"Iron, Fe",mg,--,--,0.36,0.15
"Sodium, Na",mg,--,--,0,0
Vitamins
"Vitamin C, total ascorbic acid",mg,--,--,121.6,51.3
"Vitamin A, IU",IU,--,--,507,214
Lipids
"Fatty acids, total saturated",g,--,--,0.000,0.000
"Fatty acids, total trans",g,--,--,0.000,0.000
"Cholesterol",mg,--,--,0,0
Amino Acids
Other
Ingredients
"ORANGES" Date available: 07/14/2017 Date last updated by company: 07/14/2017
