Source: USDA Branded Food Products Database Release December 2017 Software v.3.8.6.4 2017-10-02
Report Run at: December 19, 2017 00:05 EST
"Nutrient data for: 45325181, COLD PACK CHEESE FOOD, UPC: 045431807088"
Food Group:  Branded Food Products Database
Common Name:

Nutrient,Unit,Data points,Std. Error,"2.0 Tbsp = 28.0g",1Value per 100 g,
Proximates
"Energy",kcal,--,--,90,321
"Protein",g,--,--,4.00,14.29
"Total lipid (fat)",g,--,--,7.00,25.00
"Carbohydrate, by difference",g,--,--,3.00,10.71
"Sugars, total",g,--,--,2.00,7.14
Minerals
"Calcium, Ca",mg,--,--,150,536
"Iron, Fe",mg,--,--,0.00,0.00
"Sodium, Na",mg,--,--,220,786
Vitamins
"Vitamin C, total ascorbic acid",mg,--,--,0.0,0.0
"Vitamin A, IU",IU,--,--,357,1275
Lipids
"Fatty acids, total saturated",g,--,--,4.500,16.070
"Fatty acids, total trans",g,--,--,0.000,0.000
"Cholesterol",mg,--,--,25,89
Amino Acids
Other
Ingredients
"SHARP CHEDDAR CHEESE (MADE FROM PASTEURIZED CULTURED MILK, SALT, AND ENZYMES), WATER, REDUCED LACTOSE WHEY, CREAM, WHEY, SORBIC ACID (A PRESERVATIVE), SEA SALT, GARLIC, LACTIC ACID, GUAR GUM, PARSLEY, CHIVES, OREGANO." Date available: 08/11/2017 Date last updated by company: 08/11/2017
