Source: USDA Branded Food Products Database Release December 2017 Software v.3.8.6.4 2017-10-02
Report Run at: December 19, 2017 00:09 EST
"Nutrient data for: 45226493, COLD WATER LOBSTER CLAWS, UPC: 731149331105"
Food Group:  Branded Food Products Database
Common Name:

Nutrient,Unit,Data points,Std. Error,"6.0 ONZ = 170.0g",1Value per 100 g,
Proximates
"Energy",kcal,--,--,80,47
"Protein",g,--,--,17.00,10.00
"Total lipid (fat)",g,--,--,0.49,0.29
"Carbohydrate, by difference",g,--,--,1.00,0.59
"Fiber, total dietary",g,--,--,0.0,0.0
"Sugars, total",g,--,--,0.00,0.00
Minerals
"Calcium, Ca",mg,--,--,60,35
"Iron, Fe",mg,--,--,0.19,0.11
"Sodium, Na",mg,--,--,320,188
Vitamins
"Vitamin C, total ascorbic acid",mg,--,--,0.0,0.0
"Vitamin A, IU",IU,--,--,49,29
Lipids
"Fatty acids, total saturated",g,--,--,0.000,0.000
"Fatty acids, total trans",g,--,--,0.000,0.000
"Cholesterol",mg,--,--,60,35
Amino Acids
Other
Ingredients
"LOBSTER (HOMARUS AMERICANUS), SALT." Date available: 07/14/2017 Date last updated by company: 07/14/2017
