Source: USDA Branded Food Products Database Release December 2017 Software v.3.8.6.4 2017-10-02
Report Run at: December 19, 2017 00:05 EST
"Nutrient data for: 45277675, COLD PACK CHEESE SPREAD, UPC: 027164322991"
Food Group:  Branded Food Products Database
Common Name:

Nutrient,Unit,Data points,Std. Error,"2.0 Tbsp = 31.0g",1Value per 100 g,
Proximates
"Energy",kcal,--,--,100,323
"Total lipid (fat)",g,--,--,7.00,22.58
"Carbohydrate, by difference",g,--,--,5.00,16.13
"Fiber, total dietary",g,--,--,0.0,0.0
"Sugars, total",g,--,--,4.00,12.90
Minerals
"Calcium, Ca",mg,--,--,150,484
"Iron, Fe",mg,--,--,0.58,1.88
"Sodium, Na",mg,--,--,150,484
Vitamins
"Vitamin C, total ascorbic acid",mg,--,--,0.0,0.0
"Vitamin A, IU",IU,--,--,162,521
Lipids
"Fatty acids, total saturated",g,--,--,3.999,12.900
"Fatty acids, total trans",g,--,--,0.000,0.000
"Cholesterol",mg,--,--,25,81
Amino Acids
Other
Ingredients
"SWISS CHEESE (CULTURED PASTEURIZED MILK, SALT, ENZYMES), CHEDDAR CHEESE (CULTURED PASTEURIZED MILK, SALT, ENZYMES, CALCIUM CHLORIDE), WATER, CREAM, WHEY, REDUCED LACTOSE WHEY, ALMONDS, DEXTROSE, SORBIC ACID (TO PROTECT FLAVOR), SALT, GUAR GUM." Date available: 10/13/2017 Date last updated by company: 10/13/2017
