Source: USDA Branded Food Products Database Release December 2017 Software v.3.8.6.4 2017-10-02
Report Run at: December 19, 2017 00:07 EST
"Nutrient data for: 45228827, COLD PRESSED JUICE, UPC: 852921005004"
Food Group:  Branded Food Products Database
Common Name:

Nutrient,Unit,Data points,Std. Error,"8.0 OZA = 237.0g",1Value per 100 g,
Proximates
"Energy",kcal,--,--,59,25
"Protein",g,--,--,1.00,0.42
"Total lipid (fat)",g,--,--,0.00,0.00
"Carbohydrate, by difference",g,--,--,15.00,6.33
"Fiber, total dietary",g,--,--,0.9,0.4
"Sugars, total",g,--,--,11.99,5.06
Minerals
"Calcium, Ca",mg,--,--,19,8
"Iron, Fe",mg,--,--,0.73,0.31
"Magnesium, Mg",mg,--,--,33,14
"Potassium, K",mg,--,--,739,312
"Sodium, Na",mg,--,--,0,0
Vitamins
"Vitamin C, total ascorbic acid",mg,--,--,36.5,15.4
"Vitamin A, IU",IU,--,--,201,85
Lipids
"Fatty acids, total saturated",g,--,--,0.000,0.000
"Fatty acids, total trans",g,--,--,0.000,0.000
"Cholesterol",mg,--,--,0,0
Amino Acids
Other
Ingredients
"WATERMELON FLESH, WATERMELON RIND & ORGANIC LEMON." Date available: 07/14/2017 Date last updated by company: 07/14/2017
