Source: USDA Branded Food Products Database Release December 2017 Software v.3.8.6.4 2017-10-02
Report Run at: December 19, 2017 00:07 EST
"Nutrient data for: 45269347, COLD PRESSED JUICE, UPC: 854649005762"
Food Group:  Branded Food Products Database
Common Name:

Nutrient,Unit,Data points,Std. Error,"8.0 OZA = 237.0g",1Value per 100 g,
Proximates
"Energy",kcal,--,--,109,46
"Protein",g,--,--,1.00,0.42
"Total lipid (fat)",g,--,--,0.00,0.00
"Carbohydrate, by difference",g,--,--,29.01,12.24
"Fiber, total dietary",g,--,--,5.9,2.5
"Sugars, total",g,--,--,17.99,7.59
Minerals
"Calcium, Ca",mg,--,--,40,17
"Iron, Fe",mg,--,--,0.73,0.31
"Sodium, Na",mg,--,--,50,21
Vitamins
"Vitamin C, total ascorbic acid",mg,--,--,42.4,17.9
"Vitamin A, IU",IU,--,--,2026,855
Lipids
"Fatty acids, total saturated",g,--,--,0.000,0.000
"Fatty acids, total trans",g,--,--,0.000,0.000
"Cholesterol",mg,--,--,0,0
Amino Acids
Other
Ingredients
"PEARS, PINEAPPLE, CELERY, KALE, SPINACH." Date available: 07/14/2017 Date last updated by company: 07/14/2017
