Source: USDA Branded Food Products Database Release December 2017 Software v.3.8.6.4 2017-10-02
Report Run at: December 19, 2017 00:06 EST
"Nutrient data for: 45266282, COLD PRESSED APPLE CIDER, UPC: 051725000127"
Food Group:  Branded Food Products Database
Common Name:

Nutrient,Unit,Data points,Std. Error,"0.062 OZ: 16 = 227.0g",1Value per 100 g,
Proximates
"Energy",kcal,--,--,120,53
"Protein",g,--,--,0.00,0.00
"Total lipid (fat)",g,--,--,0.00,0.00
"Carbohydrate, by difference",g,--,--,29.01,12.78
"Fiber, total dietary",g,--,--,0.0,0.0
"Sugars, total",g,--,--,29.01,12.78
Minerals
"Calcium, Ca",mg,--,--,20,9
"Iron, Fe",mg,--,--,0.73,0.32
"Sodium, Na",mg,--,--,5,2
Vitamins
"Vitamin C, total ascorbic acid",mg,--,--,2.5,1.1
"Vitamin A, IU",IU,--,--,0,0
Lipids
"Fatty acids, total saturated",g,--,--,0.000,0.000
"Fatty acids, total trans",g,--,--,0.000,0.000
"Cholesterol",mg,--,--,0,0
Amino Acids
Other
Ingredients
"SWEET & TART APPLES" Date available: 07/14/2017 Date last updated by company: 07/14/2017
