Source: USDA Branded Food Products Database Release December 2017 Software v.3.8.6.4 2017-10-02
Report Run at: December 19, 2017 00:07 EST
"Nutrient data for: 45269462, COLD PRESSED JUICE, UPC: 857134006398"
Food Group:  Branded Food Products Database
Common Name:

Nutrient,Unit,Data points,Std. Error,"8.0 ONZ = 227.0g",1Value per 100 g,
Proximates
"Energy",kcal,--,--,120,53
"Protein",g,--,--,1.00,0.44
"Total lipid (fat)",g,--,--,0.50,0.22
"Carbohydrate, by difference",g,--,--,32.01,14.10
"Fiber, total dietary",g,--,--,5.9,2.6
"Sugars, total",g,--,--,23.99,10.57
Minerals
"Sodium, Na",mg,--,--,0,0
Vitamins
Lipids
"Fatty acids, total saturated",g,--,--,0.000,0.000
"Fatty acids, total trans",g,--,--,0.000,0.000
"Cholesterol",mg,--,--,0,0
Amino Acids
Other
Ingredients
"APPLE, PUMPKIN PIE SPICE." Date available: 10/19/2017 Date last updated by company: 10/19/2017
