Source: USDA Branded Food Products Database Release December 2017 Software v.3.8.6.4 2017-10-02
Report Run at: December 19, 2017 00:10 EST
"Nutrient data for: 45193285, COLESLAW, UPC: 011110111678"
Food Group:  Branded Food Products Database
Common Name:

Nutrient,Unit,Data points,Std. Error,"0.5 cup = 114.0g",1Value per 100 g,
Proximates
"Energy",kcal,--,--,130,114
"Protein",g,--,--,2.00,1.75
"Total lipid (fat)",g,--,--,8.00,7.02
"Carbohydrate, by difference",g,--,--,15.00,13.16
"Fiber, total dietary",g,--,--,2.1,1.8
"Sugars, total",g,--,--,12.00,10.53
Minerals
"Calcium, Ca",mg,--,--,40,35
"Iron, Fe",mg,--,--,0.44,0.39
"Sodium, Na",mg,--,--,160,140
Vitamins
"Vitamin C, total ascorbic acid",mg,--,--,36.8,32.3
"Vitamin A, IU",IU,--,--,921,808
Lipids
"Fatty acids, total saturated",g,--,--,1.505,1.320
"Fatty acids, total trans",g,--,--,0.000,0.000
"Cholesterol",mg,--,--,10,9
Amino Acids
Other
Ingredients
"CABBAGE, COLE SLAW DRESSING (DRESSING [SOYBEAN OIL, EGG YOLK, WATER, DISTILLED VINEGAR, SALT, SUGAR, LEMON JUICE CONCENTRATE, NATURAL FLAVOR,CALCIUM DISODIUM EDTA {PRESERVATIVE}], SUGAR, WATER, BUTTERMILK [CULTURED LOWFAT MILK, NONFAT MILK, SALT, SODIUM CITRATE, VITAMIN A PALMITATE], DEHYDRATED ONION, CONTAINS 2% OR LESS OF: SALT, PEPPER, CELERY SEED, DRIED WHOLE MILK, VINEGAR, LEMON JUICE CONCENTRATE, XANTHAN GUM), CARROTS." Date available: 07/14/2017 Date last updated by company: 07/14/2017
