Source: USDA Branded Food Products Database Release December 2017 Software v.3.8.6.4 2017-10-02
Report Run at: December 19, 2017 00:12 EST
"Nutrient data for: 45047846, COLLARD GREENS, UPC: 736393206315"
Food Group:  Branded Food Products Database
Common Name:

Nutrient,Unit,Data points,Std. Error,"2.0 cup = 80.0g",1Value per 100 g,
Proximates
"Energy",kcal,--,--,25,31
"Protein",g,--,--,2.00,2.50
"Total lipid (fat)",g,--,--,0.00,0.00
"Carbohydrate, by difference",g,--,--,5.00,6.25
"Fiber, total dietary",g,--,--,3.0,3.8
"Sugars, total",g,--,--,0.00,0.00
Minerals
"Calcium, Ca",mg,--,--,100,125
"Iron, Fe",mg,--,--,0.00,0.00
"Sodium, Na",mg,--,--,15,19
Vitamins
"Vitamin C, total ascorbic acid",mg,--,--,27.0,33.8
"Vitamin A, IU",IU,--,--,5500,6875
Lipids
"Fatty acids, total saturated",g,--,--,0.000,0.000
"Fatty acids, total trans",g,--,--,0.000,0.000
"Cholesterol",mg,--,--,0,0
Amino Acids
Other
Ingredients
"COLLARD GREENS" Date available: 02/08/2017 Date last updated by company: 02/08/2017
