Source: USDA Branded Food Products Database Release December 2017 Software v.3.8.6.4 2017-10-02
Report Run at: December 19, 2017 00:16 EST
"Nutrient data for: 45323683, COLOR PARTY POPS, UPC: 030800287004"
Food Group:  Branded Food Products Database
Common Name:

Nutrient,Unit,Data points,Std. Error,"3.0 PIECES = 15.0g",1Value per 100 g,
Proximates
"Energy",kcal,--,--,60,400
"Protein",g,--,--,0.00,0.00
"Total lipid (fat)",g,--,--,0.00,0.00
"Carbohydrate, by difference",g,--,--,15.00,100.00
"Sugars, total",g,--,--,10.00,66.67
Minerals
"Sodium, Na",mg,--,--,10,67
Vitamins
Lipids
Amino Acids
Other
Ingredients
"STRAWBERRY - SUGAR, CORN SYRUP, CITRIC ACID, ARTIFICIAL FLAVOR, COLOR ADDED (RED 40, BLUE 1). WATERMELON - SUGAR, CORN SYRUP, MALIC ACID, ARTIFICIAL FLAVOR, COLOR ADDED (RED 40). BUBBLEGUM - SUGAR, CORN SYRUP, CITRIC ACID, ARTIFICIAL FLAVOR, COLOR ADDED (RED 40). ORANGE - SUGAR, CORN SYRUP, CITRIC ACID, ARTIFICIAL FLAVOR, COLOR ADDED (YELLOW 6, RED 40). CREAM SODA - SUGAR, CORN SYRUP, CITRIC ACID, ARTIFICIAL FLAVOR. SOUR APPLE - SUGAR, CORN SYRUP, MALIC ACID, ARTIFICIAL FLAVOR, COLOR ADDED (YELLOW 5, BLUE 1). BLU RASPBERRY - SUGAR, CORN SYRUP, CITRIC ACID, ARTIFICIAL FLAVOR, COLOR ADDED (BLUE 1). COTTON CANDY - SUGAR, CORN SYRUP, MALIC ACID, ARTIFICIAL FLAVOR, COLOR ADDED (BLUE 1). BLUEBERRY - SUGAR, CORN SYRUP, CITRIC ACID, ARTIFICIAL FLAVOR, COLOR ADDED (BLUE 1). GRAPE - SUGAR, CORN SYRUP, MALIC ACID, ARTIFICIAL FLAVOR, COLOR ADDED (RED 40, BLUE 1). BLACK CHERRY - SUGAR, CORN SYRUP, CITRIC ACID, ARTIFICIAL FLAVOR, COLOR ADDED (RED 40). BIRTHDAY CAKE - SUGAR, CORN SYRUP, CITRIC ACID, ARTIFICIAL FLAVOR. TROPI-BERRY - SUGAR, CORN SYRUP, CITRIC ACID, ARTIFICIAL FLAVOR, COLOR ADDED (RED 40, BLUE 1). BUTTERSCOTCH - SUGAR, CORN SYRUP, SALT, ARTIFICIAL FLAVOR, COLOR ADDED (RED 40, YELLOW 5, BLUE 1). FRUIT PUNCH - SUGAR, CORN SYRUP, CITRIC ACID, ARTIFICIAL FLAVOR, COLOR ADDED (RED 40)." Date available: 07/14/2017 Date last updated by company: 07/14/2017
