Source: USDA Branded Food Products Database Release December 2017 Software v.3.8.6.4 2017-10-02
Report Run at: December 19, 2017 00:14 EST
"Nutrient data for: 45248164, COLOMBINA, BON BON BOOM, LOLLI POPS, INTENSE FLAVOR BERRY, UPC: 014272118851"
Food Group:  Branded Food Products Database
Common Name:

Nutrient,Unit,Data points,Std. Error,"1 POP = 17.0g",1Value per 100 g,
Proximates
"Energy",kcal,--,--,60,353
"Protein",g,--,--,0.00,0.00
"Total lipid (fat)",g,--,--,0.00,0.00
"Carbohydrate, by difference",g,--,--,16.00,94.12
"Fiber, total dietary",g,--,--,0.0,0.0
"Sugars, total",g,--,--,13.00,76.47
Minerals
"Calcium, Ca",mg,--,--,0,0
"Iron, Fe",mg,--,--,0.00,0.00
"Sodium, Na",mg,--,--,0,0
Vitamins
"Vitamin C, total ascorbic acid",mg,--,--,0.0,0.0
"Vitamin A, IU",IU,--,--,0,0
Lipids
"Fatty acids, total saturated",g,--,--,0.000,0.000
"Fatty acids, total trans",g,--,--,0.000,0.000
"Cholesterol",mg,--,--,0,0
Amino Acids
Other
Ingredients
"SUGAR, CORN SYRUP, GUM BASE, WATER, CITRIC ACID, INVERT SUGAR, ARTIFICIAL FLAVOR, SOY LECITHIN, TITANIUM DIOXIDE, ARTIFICIAL COLORS, FD&C RED #40, FD&C BLUE #1." Date available: 07/14/2017 Date last updated by company: 07/14/2017
