Source: USDA Branded Food Products Database Release December 2017 Software v.3.8.6.4 2017-10-02
Report Run at: December 19, 2017 00:16 EST
"Nutrient data for: 45259762, COLOSSAL CHOC CHIP COOKIE, UPC: 011110198662"
Food Group:  Branded Food Products Database
Common Name:

Nutrient,Unit,Data points,Std. Error,"0.125 COOKIE = 78.0g",1Value per 100 g,
Proximates
"Energy",kcal,--,--,420,538
"Protein",g,--,--,2.00,2.56
"Total lipid (fat)",g,--,--,17.00,21.79
"Carbohydrate, by difference",g,--,--,61.00,78.21
"Fiber, total dietary",g,--,--,0.0,0.0
"Sugars, total",g,--,--,44.00,56.41
Minerals
"Calcium, Ca",mg,--,--,0,0
"Iron, Fe",mg,--,--,0.92,1.18
"Sodium, Na",mg,--,--,240,308
Vitamins
"Vitamin C, total ascorbic acid",mg,--,--,0.0,0.0
"Vitamin A, IU",IU,--,--,0,0
Lipids
"Fatty acids, total saturated",g,--,--,5.998,7.690
"Fatty acids, total trans",g,--,--,0.000,0.000
"Cholesterol",mg,--,--,10,13
Amino Acids
Other
Ingredients
"COOKIE-ENRICHED FLOUR (WHEAT, FLOUR, NIACIN, REDUCED IRON, THIAMINE, MONONITRATE, RIBOFLAVIN, FOLIC ACID), SUGAR, CHOCOLATE CHIPS (SUGAR, CHOCOLATE LIQUOR, COCOA BUTTER, DEXTROSE, SOY LECITHIN, NATURAL FLAVOR), EGGS, FRUCTOSE, MOLASSES, WATER CONTAINS 2% OR LESS OF LEAVENING (SODIUM BICARBONATE, SODIUM ALUMINUM PHOSPHATE, MONOCALCIUM PHOSPHATE), SALT, NATURAL AND ARTIFICIAL FLAVORS, CORN STARCH, SOY LECITHIN, NONFAT MILK, WHITE ICING-SUGAR, VEGETABLE SHORTENING (INTERESTERFIED SOYBEAN OIL, SOYBEAN OIL, HYDROGENATED COTTONSEED OIL, MONO- AND DIGLYCERIDES, POLYSORBATE 60), CORN SYRUP, WATER, CONTAINS LESS THAN 2% OR SALT, CITRIC ACID, CORNSTARCH, NATURAL AND ARTIFICIAL FLAVOR, DEXTROSE, TITANIUM DIOXIDE (FOR COLOR), POTASSIUM SORBATE (PRESERVATIVE) PEEPS CHICK-SUGAR, CORN SYRUP, GELATIN, CONTAINS LESS THAN 0.5% OF THE FOLLOWING YELLOW 5 (TARTRAZINE), RED 3, BLUE 1, POTASSIUM SORBATE (A PRESERVATIVE), NATURAL FLAVORS, CARNAUBA WAX SEQUINS-SUGAR, RICE FLOUR, CORN STARCH, GUM ARABIC, XANTHAN GUM, TITANIUM DIOXIDE (FOR COLOR), YELLOW 5, YELLOW 6, BLUE 1, RED 3, RED 40, BLUE 1 LAKE, POLYSORBATE 60." Date available: 07/14/2017 Date last updated by company: 07/14/2017
