Source: USDA Branded Food Products Database Release December 2017 Software v.3.8.6.4 2017-10-02
Report Run at: December 19, 2017 00:17 EST
"Nutrient data for: 45216699, COLUMBIA GORGE ORGANIC, FRUIT PUREE & JUICE BLEND, STRAWBERRY SUPER C, UPC: 748753137719"
Food Group:  Branded Food Products Database
Common Name:

Nutrient,Unit,Data points,Std. Error,"8.0 OZA = 236.0g",1Value per 100 g,
Proximates
"Energy",kcal,--,--,111,47
"Protein",g,--,--,0.99,0.42
"Total lipid (fat)",g,--,--,0.00,0.00
"Carbohydrate, by difference",g,--,--,24.99,10.59
"Fiber, total dietary",g,--,--,1.9,0.8
"Sugars, total",g,--,--,19.99,8.47
Minerals
"Calcium, Ca",mg,--,--,59,25
"Iron, Fe",mg,--,--,1.11,0.47
"Potassium, K",mg,--,--,321,136
"Sodium, Na",mg,--,--,31,13
Vitamins
"Vitamin C, total ascorbic acid",mg,--,--,323.3,137.0
"Vitamin A, IU",IU,--,--,101,43
Lipids
"Fatty acids, total saturated",g,--,--,0.000,0.000
"Fatty acids, total trans",g,--,--,0.000,0.000
"Cholesterol",mg,--,--,0,0
Amino Acids
Other
Ingredients
"STRAWBERRY PUREE, APPLE-PEAR JUICE, ORANGE JUICE, CHERRY PUREE, ACEROLA PUREE, AGAVE SYRUP, ACEROLA POWDER, VITAMIN C (AMLA EXTRACT), ROSE HIPS, LEMON PEEL." Date available: 06/25/2017 Date last updated by company: 06/25/2017
