Source: USDA Branded Food Products Database Release December 2017 Software v.3.8.6.4 2017-10-02
Report Run at: December 19, 2017 00:19 EST
"Nutrient data for: 45159486, COM KOM COMPANION KOMBUCHA, LOCAL PREMIUM KOMBUCHA, ORANGE SPICE, UPC: 862219000192"
Food Group:  Branded Food Products Database
Common Name:

Nutrient,Unit,Data points,Std. Error,"8.0 ONZ = 237.0g",1Value per 100 g,
Proximates
"Energy",kcal,--,--,40,17
"Protein",g,--,--,0.00,0.00
"Total lipid (fat)",g,--,--,0.00,0.00
"Carbohydrate, by difference",g,--,--,11.00,4.64
"Sugars, total",g,--,--,11.00,4.64
Minerals
"Sodium, Na",mg,--,--,0,0
Vitamins
Lipids
Amino Acids
Other
Ingredients
"FILTERED WATER, ORGANIC EVAPORATED CANE JUICE, ORGANIC FAIR TRADE CERTIFIED BLACK ASSAM TEA, ORGANIC KOMBUCHA CULTURE, ORGANIC ORANGE JUICE, ORGANIC SPICES." Date available: 07/14/2017 Date last updated by company: 07/14/2017
