Source: USDA Branded Food Products Database Release December 2017 Software v.3.8.6.4 2017-10-02
Report Run at: December 19, 2017 00:19 EST
"Nutrient data for: 45250750, COMBOS, BAKED PRETZEL SNACKS, CHEDDAR CHEESE, UPC: 041419780954"
Food Group:  Branded Food Products Database
Common Name:

Nutrient,Unit,Data points,Std. Error,"0.333 CUP) | (ABOUT = 28.0g",1Value per 100 g,
Proximates
"Energy",kcal,--,--,130,464
"Protein",g,--,--,2.00,7.14
"Total lipid (fat)",g,--,--,5.00,17.86
"Carbohydrate, by difference",g,--,--,19.00,67.86
"Fiber, total dietary",g,--,--,1.0,3.6
"Sugars, total",g,--,--,4.00,14.29
Minerals
"Calcium, Ca",mg,--,--,40,143
"Iron, Fe",mg,--,--,0.64,2.29
"Sodium, Na",mg,--,--,300,1071
Vitamins
"Riboflavin",mg,--,--,0.102,0.364
"Vitamin A, IU",IU,--,--,100,357
Lipids
"Fatty acids, total saturated",g,--,--,2.999,10.710
"Fatty acids, total trans",g,--,--,0.000,0.000
"Cholesterol",mg,--,--,0,0
Amino Acids
Other
Ingredients
"WHEAT FLOUR, VEGETABLE OIL (PALM KERNEL OIL, PALM OIL AND/OR HYDROGENATED PALM OIL), WHEY, MALTODEXTRIN, FOOD STARCH-MODIFIED, SALT, LESS THAN 1.5% - CHEESE BLEND (BAKERS & CHEDDAR, PARMESAN, ROMANO [MILK, CULTURES, SALT, ENZYMES, ANNATTO COLOR]), CORN FLOUR, LEAVENING (BAKING SODA, SODIUM ACID PYROPHOSPHATE), DEXTROSE, SOY LECITHIN, YEAST EXTRACT, NATURAL FLAVOR, SKIM MILK, HYDROLYZED WHEAT GLUTEN, COLORING (YELLOW 5 LAKE, YELLOW 6 LAKE, BLUE 1 LAKE), LACTIC ACID, CITRIC ACID, LACTOSE, SODIUM CASEINATE." Date available: 07/14/2017 Date last updated by company: 07/14/2017
