Source: USDA Branded Food Products Database Release December 2017 Software v.3.8.6.4 2017-10-02
Report Run at: December 19, 2017 00:19 EST
"Nutrient data for: 45193971, COMMON GOOD ORGANIC PASTA SAUCE, UPC: 020662005779"
Food Group:  Branded Food Products Database
Common Name:

Nutrient,Unit,Data points,Std. Error,"0.5 cup = 123.0g",1Value per 100 g,
Proximates
"Energy",kcal,--,--,100,81
"Protein",g,--,--,1.00,0.81
"Total lipid (fat)",g,--,--,8.00,6.50
"Carbohydrate, by difference",g,--,--,7.00,5.69
"Fiber, total dietary",g,--,--,1.0,0.8
"Sugars, total",g,--,--,3.00,2.44
Minerals
"Calcium, Ca",mg,--,--,60,49
"Iron, Fe",mg,--,--,0.76,0.62
"Sodium, Na",mg,--,--,390,317
Vitamins
"Vitamin C, total ascorbic acid",mg,--,--,0.0,0.0
"Vitamin A, IU",IU,--,--,1057,859
Lipids
"Fatty acids, total saturated",g,--,--,0.996,0.810
"Fatty acids, total trans",g,--,--,0.000,0.000
"Cholesterol",mg,--,--,0,0
Amino Acids
Other
Ingredients
"DICED ORGANIC TOMATOES IN ORGANIC TOMATO PUREE, WATER, ORGANIC EXTRA VIRGIN OLIVE OIL, ORGANIC ONION, ORGANIC BASIL, ORGANIC CARROT PUREE, SEA SALT, ORGANIC GARLIC, CRUSHED ORGANIC RED PEPPER, GROUND ORGANIC FENNEL SEED, ORGANIC OREGANO, ORGANIC BLACK PEPPER." Date available: 07/14/2017 Date last updated by company: 07/14/2017
