Source: USDA Branded Food Products Database Release December 2017 Software v.3.8.6.4 2017-10-02
Report Run at: December 19, 2017 00:20 EST
"Nutrient data for: 45171883, COMO ITALIAN BREAD, UPC: 021130117864"
Food Group:  Branded Food Products Database
Common Name:

Nutrient,Unit,Data points,Std. Error,"1 SLICE = 50.0g",1Value per 100 g,
Proximates
"Energy",kcal,--,--,130,260
"Protein",g,--,--,4.00,8.00
"Total lipid (fat)",g,--,--,1.00,2.00
"Carbohydrate, by difference",g,--,--,26.00,52.00
"Fiber, total dietary",g,--,--,1.0,2.0
"Sugars, total",g,--,--,0.00,0.00
Minerals
"Calcium, Ca",mg,--,--,0,0
"Iron, Fe",mg,--,--,1.44,2.88
"Sodium, Na",mg,--,--,250,500
Vitamins
"Vitamin C, total ascorbic acid",mg,--,--,0.0,0.0
"Vitamin A, IU",IU,--,--,0,0
Lipids
"Fatty acids, total saturated",g,--,--,0.000,0.000
"Fatty acids, total trans",g,--,--,0.000,0.000
"Cholesterol",mg,--,--,0,0
Amino Acids
Other
Ingredients
"ENRICHED FLOUR (WHEAT FLOUR, MALTED BARLEY FLOUR, NIACIN, REDUCED IRON, THIAMIN MONONITRATE, RIBOFLAVIN, FOLIC ACID), WATER, CONTAINS 2% OR LESS: OF SEA SALT, YEAST." Date available: 07/14/2017 Date last updated by company: 07/14/2017
