Source: USDA Branded Food Products Database Release December 2017 Software v.3.8.6.4 2017-10-02
Report Run at: December 19, 2017 00:22 EST
"Nutrient data for: 45176968, COMPOST COOKIE MIX, UPC: 094522076247"
Food Group:  Branded Food Products Database
Common Name:

Nutrient,Unit,Data points,Std. Error,"0.08 DRY MIX = 42.0g",1Value per 100 g,
Proximates
"Energy",kcal,--,--,170,405
"Protein",g,--,--,2.00,4.76
"Total lipid (fat)",g,--,--,3.50,8.33
"Carbohydrate, by difference",g,--,--,33.00,78.57
"Fiber, total dietary",g,--,--,1.0,2.4
"Sugars, total",g,--,--,24.00,57.14
Minerals
"Calcium, Ca",mg,--,--,20,48
"Iron, Fe",mg,--,--,0.68,1.63
"Sodium, Na",mg,--,--,125,298
Vitamins
"Vitamin C, total ascorbic acid",mg,--,--,0.0,0.0
"Vitamin A, IU",IU,--,--,0,0
Lipids
"Fatty acids, total saturated",g,--,--,2.499,5.950
"Fatty acids, total trans",g,--,--,0.000,0.000
"Cholesterol",mg,--,--,0,0
Amino Acids
Other
Ingredients
"COOKIE MIX: ENRICHED MALTED WHEAT FLOUR (WHEAT FLOUR, MALTED BARLEY FLOUR, NIACIN, IRON, THIAMIN MONONITRATE, RIBOFLAVIN, FOLIC ACID), SUGAR, LIGHT BROWN SUGAR, DEXTROSE, SALT, BAKING POWDER (SODIUM ACID PYROPHOSPHATE, SODIUM BICARBONATE, CORNSTARCH, MONOCALCIUM PHOSPHATE), NATURAL VANILLA FLAVOR, SODIUM BICARBONATE. COMPOST PACKET: SEMI-SWEET CHOCOLATE CHIPS (SUGAR, CHOCOLATE LIQUOR, ANHYDROUS DEXTROSE, COCOA BUTTER, SOY LECITHIN (EMULSIFIER)), BUTTERSCOTCH CHIPS (SUGAR, PARTIALLY HYDROGENATED PALM KERNEL OIL AND COCONUT OIL, WHEY, SOY LECITHIN (EMULSIFIER), NATURAL AND ARTIFICIAL FLAVOR, ARTIFICIAL COLOR (YELLOW 6 LAKE, YELLOW 5 LAKE, BLUE 2 LAKE), SALT), GRAHAM CRACKER (ENRICHED WHEAT FLOUR (NIACIN, THIAMIN MONONITRATE, RIBOFLAVIN, FOLIC ACID) GRAHAM FLOUR, SUGAR, PALM OIL, BROWN SUGAR, HONEY, SALT, BAKING SODA, NATURAL FLAVOR), ROLLED OATS, SUGAR, NONFAT DRY MILK, COFFEE, SALT." Date available: 07/14/2017 Date last updated by company: 07/14/2017
