Source: USDA Branded Food Products Database Release December 2017 Software v.3.8.6.4 2017-10-02
Report Run at: December 19, 2017 00:25 EST
"Nutrient data for: 45095831, CONCORD FOODS, SMOOTHIE, TROPICAL PINEAPPLE, UPC: 041409002172"
Food Group:  Branded Food Products Database
Common Name:

Nutrient,Unit,Data points,Std. Error,"1.5 Tbsp = 19.0g",1Value per 100 g,
Proximates
"Energy",kcal,--,--,70,368
"Protein",g,--,--,0.00,0.00
"Total lipid (fat)",g,--,--,0.00,0.00
"Carbohydrate, by difference",g,--,--,18.00,94.74
"Fiber, total dietary",g,--,--,0.0,0.0
"Sugars, total",g,--,--,15.00,78.95
Minerals
"Calcium, Ca",mg,--,--,20,105
"Iron, Fe",mg,--,--,0.00,0.00
"Sodium, Na",mg,--,--,70,368
Vitamins
"Vitamin C, total ascorbic acid",mg,--,--,0.0,0.0
"Vitamin A, IU",IU,--,--,0,0
Lipids
"Fatty acids, total saturated",g,--,--,0.000,0.000
"Fatty acids, total trans",g,--,--,0.000,0.000
"Cholesterol",mg,--,--,0,0
Amino Acids
Other
Ingredients
"SUGAR, CORN SYRUP SOLIDS, NONFAT DRY MILK, SODIUM CITRATE, XANTHAN GUM, NATURAL FLAVOR" Date available: 09/13/2017 Date last updated by company: 09/13/2017
