Source: USDA Branded Food Products Database Release December 2017 Software v.3.8.6.4 2017-10-02
Report Run at: December 19, 2017 00:28 EST
"Nutrient data for: 45080552, CONDENSED SOUP, UPC: 011213105420"
Food Group:  Branded Food Products Database
Common Name:

Nutrient,Unit,Data points,Std. Error,"0.5 cup = 125.0g",1Value per 100 g,
Proximates
"Energy",kcal,--,--,50,40
"Protein",g,--,--,2.00,1.60
"Total lipid (fat)",g,--,--,1.50,1.20
"Carbohydrate, by difference",g,--,--,8.00,6.40
"Fiber, total dietary",g,--,--,0.0,0.0
"Sugars, total",g,--,--,0.00,0.00
Minerals
"Calcium, Ca",mg,--,--,0,0
"Iron, Fe",mg,--,--,0.70,0.56
"Sodium, Na",mg,--,--,890,712
Vitamins
"Vitamin C, total ascorbic acid",mg,--,--,0.0,0.0
"Vitamin A, IU",IU,--,--,588,470
Lipids
"Fatty acids, total saturated",g,--,--,0.000,0.000
"Fatty acids, total trans",g,--,--,0.000,0.000
"Cholesterol",mg,--,--,5,4
Amino Acids
Other
Ingredients
"INGREDIENTS: CHICKEN BROTH, RICE, CHICKEN MEAT (COOKED CHICKEN MEAT, WATER, MODIFIED FOOD STARCH, SALT, SODIUM PHOSPHATE), CONTAINS LESS THAN 2% OF : CARROTS,SALT, MODIFIED FOOD STARCH, CHICKEN FAT, CELERY, MONOSODIUM GULTAMATE, SEASONING (ONION POWDER, AUTOLYZED YEAST, SALT, CHICKEN BROTH, MODIFIED CORN STARCH, NATURAL FLAVOR), DISODIUM GUANYLATE, DISODIUM INOSINATE, NATURAL FLAVOR, SPICE, SPICE EXTRACT, GARLIC POWDER, CITRIC ACID." Date available: 06/24/2017 Date last updated by company: 06/24/2017
