Source: USDA Branded Food Products Database Release December 2017 Software v.3.8.6.4 2017-10-02
Report Run at: December 19, 2017 00:29 EST
"Nutrient data for: 45272718, CONDENSED SOUP, UPC: 07203672242"
Food Group:  Branded Food Products Database
Common Name:

Nutrient,Unit,Data points,Std. Error,"0.5 cup = 123.0g",1Value per 100 g,
Proximates
"Energy",kcal,--,--,100,81
"Protein",g,--,--,2.00,1.63
"Total lipid (fat)",g,--,--,6.00,4.88
"Carbohydrate, by difference",g,--,--,9.00,7.32
"Fiber, total dietary",g,--,--,0.0,0.0
"Sugars, total",g,--,--,1.00,0.81
Minerals
"Calcium, Ca",mg,--,--,0,0
"Iron, Fe",mg,--,--,0.00,0.00
"Potassium, K",mg,--,--,300,244
"Sodium, Na",mg,--,--,640,520
Vitamins
"Vitamin C, total ascorbic acid",mg,--,--,0.0,0.0
"Vitamin A, IU",IU,--,--,1494,1215
Lipids
"Fatty acids, total saturated",g,--,--,0.996,0.810
"Fatty acids, total monounsaturated",g,--,--,1.501,1.220
"Fatty acids, total polyunsaturated",g,--,--,3.001,2.440
"Fatty acids, total trans",g,--,--,0.000,0.000
"Cholesterol",mg,--,--,5,4
Amino Acids
Other
Ingredients
"CHICKEN BROTH, MODIFIED FOOD STARCH, SOYBEAN OIL, WHEAT FLOUR, CONTAINS LESS THAN 2% OF: COOKED DARK MEAT CHICKEN, COOKED WHITE MEAT CHICKEN, SALT, WHEY POWDER (MILK), COOKED MECHANICALLY SEPARATED CHICKEN, CHICKEN FAT, SOY PROTEIN CONCENTRATE, POTASSIUM CHLORIDE, YEAST EXTRACT, SUGAR, DISODIUM INOSINATE AND DISODIUM GUANYLATE, CULTURED CREAM, ONION POWDER, CREAM, DISODIUM PHOSPHATE, NATURAL FLAVORS (CONTAINS MILK), ISOLATED SOY PROTEIN, CORNSTARCH, MILK SOLIDS, SOY LECITHIN, BETA CAROTENE (COLOR)." Date available: 07/14/2017 Date last updated by company: 07/14/2017
