Source: USDA Branded Food Products Database Release December 2017 Software v.3.8.6.4 2017-10-02
Report Run at: December 19, 2017 00:29 EST
"Nutrient data for: 45040409, CONDENSED SOUP, UPC: 041250663928"
Food Group:  Branded Food Products Database
Common Name:

Nutrient,Unit,Data points,Std. Error,"0.5 cup = 125.0g",1Value per 100 g,
Proximates
"Energy",kcal,--,--,90,72
"Protein",g,--,--,2.00,1.60
"Total lipid (fat)",g,--,--,0.00,0.00
"Carbohydrate, by difference",g,--,--,21.00,16.80
"Fiber, total dietary",g,--,--,1.0,0.8
"Sugars, total",g,--,--,12.00,9.60
Minerals
"Calcium, Ca",mg,--,--,0,0
"Iron, Fe",mg,--,--,0.70,0.56
"Potassium, K",mg,--,--,590,472
"Sodium, Na",mg,--,--,480,384
Vitamins
"Vitamin C, total ascorbic acid",mg,--,--,29.2,23.4
"Vitamin A, IU",IU,--,--,390,312
Lipids
"Fatty acids, total saturated",g,--,--,0.000,0.000
"Fatty acids, total monounsaturated",g,--,--,0.000,0.000
"Fatty acids, total polyunsaturated",g,--,--,0.000,0.000
"Fatty acids, total trans",g,--,--,0.000,0.000
"Cholesterol",mg,--,--,0,0
Amino Acids
Other
Ingredients
"TOMATO CONCENTRATE (WATER, TOMATO PASTE), HIGH FRUCTOSE CORN SYRUP, WATER, WHEAT FLOUR, CONTAINS LESS THAN 2% OF: SALT, MODIFIED CORN STARCH, POTASSIUM CHLORIDE, SEA SALT, CITRIC ACID, ASCORBIC ACID, NATURAL FLAVORING." Date available: 10/13/2017 Date last updated by company: 10/13/2017
