Source: USDA Branded Food Products Database Release December 2017 Software v.3.8.6.4 2017-10-02
Report Run at: December 19, 2017 00:30 EST
"Nutrient data for: 45003367, CONDENSED TOMATO SOUP, UPC: 023933101385"
Food Group:  Branded Food Products Database
Common Name:

Nutrient,Unit,Data points,Std. Error,"0.5 cup = 123.0g",1Value per 100 g,
Proximates
"Energy",kcal,--,--,90,73
"Protein",g,--,--,2.00,1.63
"Total lipid (fat)",g,--,--,0.00,0.00
"Carbohydrate, by difference",g,--,--,20.00,16.26
"Fiber, total dietary",g,--,--,1.0,0.8
"Sugars, total",g,--,--,12.00,9.76
Minerals
"Calcium, Ca",mg,--,--,0,0
"Iron, Fe",mg,--,--,1.44,1.17
"Sodium, Na",mg,--,--,710,577
Vitamins
"Vitamin C, total ascorbic acid",mg,--,--,29.9,24.3
"Vitamin A, IU",IU,--,--,399,324
Lipids
"Fatty acids, total saturated",g,--,--,0.000,0.000
"Fatty acids, total trans",g,--,--,0.000,0.000
"Cholesterol",mg,--,--,0,0
Amino Acids
Other
Ingredients
"TOMATO PUREE (WATER, TOMATO PASTE), HIGH FRUCTOSE CORN SYRUP, WATER, WHEAT FLOUR, CONTAINS 2% OR LESS OF THE FOLLOWING: SALT, ASCORBIC ACID, CITRIC ACID, NATURAL FLAVOR." Date available: 06/25/2017 Date last updated by company: 06/25/2017
