Source: USDA Branded Food Products Database Release December 2017 Software v.3.8.6.4 2017-10-02
Report Run at: December 19, 2017 00:29 EST
"Nutrient data for: 45330523, CONDENSED SOUP, UPC: 03003491210"
Food Group:  Branded Food Products Database
Common Name:

Nutrient,Unit,Data points,Std. Error,"0.5 CUP CONDENSED SOUP = 123.0g",1Value per 100 g,
Proximates
"Energy",kcal,--,--,70,57
"Protein",g,--,--,3.00,2.44
"Total lipid (fat)",g,--,--,2.00,1.63
"Carbohydrate, by difference",g,--,--,10.00,8.13
"Fiber, total dietary",g,--,--,0.0,0.0
"Sugars, total",g,--,--,0.00,0.00
Minerals
"Calcium, Ca",mg,--,--,0,0
"Iron, Fe",mg,--,--,0.71,0.58
"Sodium, Na",mg,--,--,649,528
Vitamins
"Vitamin C, total ascorbic acid",mg,--,--,0.0,0.0
"Vitamin A, IU",IU,--,--,399,324
Lipids
"Fatty acids, total saturated",g,--,--,0.504,0.410
"Fatty acids, total trans",g,--,--,0.000,0.000
"Cholesterol",mg,--,--,15,12
Amino Acids
Other
Ingredients
"CHICKEN BROTH, ENRICHED EGG NOODLES (SEMOLINA [WHEAT], WHOLE EGG, NIACIN, FERROUS SULFATE [IRON], THIAMINE MONONITRATE, RIBOFLAVIN, FOLIC ACID), COOKED WHITE CHICKEN MEAT, CONTAINS LESS THAN 2% OF CORNSTARCH, SALT, CHICKEN FAT, COOKED MECHANICALLY SEPARATED CHICKEN, POTASSIUM CHLORIDE, YEAST EXTRACT, NATURAL FLAVOR, GARLIC POWDER, ONION POWDER, INACTIVE DRIED YEAST, BETA CAROTENE (COLOR)." Date available: 10/13/2017 Date last updated by company: 10/13/2017
