Source: USDA Branded Food Products Database Release December 2017 Software v.3.8.6.4 2017-10-02
Report Run at: December 19, 2017 00:28 EST
"Nutrient data for: 45258551, CONDENSED MILK, UPC: 4820103340027"
Food Group:  Branded Food Products Database
Common Name:

Nutrient,Unit,Data points,Std. Error,"100.0 GRM = 100.0g",1Value per 100 g,
Proximates
"Energy",kcal,--,--,328,328
"Protein",g,--,--,8.20,8.20
"Total lipid (fat)",g,--,--,7.50,7.50
"Carbohydrate, by difference",g,--,--,56.80,56.80
Minerals
Vitamins
Lipids
Amino Acids
Other
Ingredients
"MADE FROM COCOA POWDER, WHOLE COW'S MILK AND SUGAR BY THICKENING." Date available: 10/19/2017 Date last updated by company: 10/19/2017
