Source: USDA Branded Food Products Database Release December 2017 Software v.3.8.6.4 2017-10-02
Report Run at: December 19, 2017 00:32 EST
"Nutrient data for: 45093094, CONIFER FOODS, CANTERBURY NATURALS, HAND-CRAFTED BAKING MIX, APPLE CAKE, UPC: 054467000103"
Food Group:  Branded Food Products Database
Common Name:

Nutrient,Unit,Data points,Std. Error,"0.33 cup = 52.0g",1Value per 100 g,
Proximates
"Energy",kcal,--,--,200,385
"Protein",g,--,--,2.00,3.85
"Total lipid (fat)",g,--,--,1.00,1.92
"Carbohydrate, by difference",g,--,--,46.00,88.46
"Fiber, total dietary",g,--,--,1.0,1.9
"Sugars, total",g,--,--,34.00,65.38
Minerals
"Calcium, Ca",mg,--,--,0,0
"Iron, Fe",mg,--,--,0.00,0.00
"Sodium, Na",mg,--,--,160,308
Vitamins
"Vitamin C, total ascorbic acid",mg,--,--,0.0,0.0
"Vitamin A, IU",IU,--,--,0,0
Lipids
"Fatty acids, total saturated",g,--,--,0.000,0.000
"Fatty acids, total trans",g,--,--,0.000,0.000
"Cholesterol",mg,--,--,0,0
Amino Acids
Other
Ingredients
"SUGAR, WHEAT FLOUR, SALT, SPICE, SODIUM BICARBONATE, CREAM OF TARTAR." Date available: 06/25/2017 Date last updated by company: 06/25/2017
