Source: USDA Branded Food Products Database Release December 2017 Software v.3.8.6.4 2017-10-02
Report Run at: December 19, 2017 00:33 EST
"Nutrient data for: 45173550, CONSULATE, EMMENTHALER CHEESE, UPC: 030684711435"
Food Group:  Branded Food Products Database
Common Name:

Nutrient,Unit,Data points,Std. Error,"1 IN. CUBE | ABOUT = 28.0g",1Value per 100 g,
Proximates
"Energy",kcal,--,--,111,396
"Protein",g,--,--,8.00,28.57
"Total lipid (fat)",g,--,--,9.00,32.14
"Carbohydrate, by difference",g,--,--,0.00,0.00
"Fiber, total dietary",g,--,--,0.0,0.0
"Sugars, total",g,--,--,0.00,0.00
Minerals
"Calcium, Ca",mg,--,--,380,1357
"Iron, Fe",mg,--,--,0.00,0.00
"Sodium, Na",mg,--,--,50,179
Vitamins
"Vitamin C, total ascorbic acid",mg,--,--,0.0,0.0
"Vitamin A, IU",IU,--,--,893,3189
Lipids
"Fatty acids, total saturated",g,--,--,6.000,21.430
"Fatty acids, total trans",g,--,--,0.000,0.000
"Cholesterol",mg,--,--,252,900
Amino Acids
Other
Ingredients
"PARTLY SKIMMED RAW COW'S MILK, ANIMAL RENNET, BACTERIAL CULTURE, SALT." Date available: 07/14/2017 Date last updated by company: 07/14/2017
