Source: USDA Branded Food Products Database Release December 2017 Software v.3.8.6.4 2017-10-02
Report Run at: December 19, 2017 00:42 EST
"Nutrient data for: 45185555, COOKED SMALL SHRIMP, UPC: 780526239305"
Food Group:  Branded Food Products Database
Common Name:

Nutrient,Unit,Data points,Std. Error,"3.0 ONZ = 85.0g",1Value per 100 g,
Proximates
"Energy",kcal,--,--,45,53
"Protein",g,--,--,10.00,11.76
"Total lipid (fat)",g,--,--,0.50,0.59
"Carbohydrate, by difference",g,--,--,0.00,0.00
"Fiber, total dietary",g,--,--,0.0,0.0
"Sugars, total",g,--,--,0.00,0.00
Minerals
"Calcium, Ca",mg,--,--,20,24
"Iron, Fe",mg,--,--,0.00,0.00
"Sodium, Na",mg,--,--,570,671
Vitamins
"Vitamin C, total ascorbic acid",mg,--,--,0.0,0.0
"Vitamin A, IU",IU,--,--,0,0
Lipids
"Fatty acids, total saturated",g,--,--,0.000,0.000
"Fatty acids, total trans",g,--,--,0.000,0.000
"Cholesterol",mg,--,--,105,124
Amino Acids
Other
Ingredients
"FARM RAISED SHRIMP (LITOPENAEUS VANNAMEI), SODIUM TRIPOLYPHOSPHATE, SALT." Date available: 07/14/2017 Date last updated by company: 07/14/2017
