Source: USDA Branded Food Products Database Release December 2017 Software v.3.8.6.4 2017-10-02
Report Run at: December 19, 2017 01:00 EST
"Nutrient data for: 45199535, COOKING SAUCE, UPC: 608866923886"
Food Group:  Branded Food Products Database
Common Name:

Nutrient,Unit,Data points,Std. Error,"1 Tbsp = 15.0g",1Value per 100 g,
Proximates
"Energy",kcal,--,--,25,167
"Protein",g,--,--,0.00,0.00
"Total lipid (fat)",g,--,--,1.50,10.00
"Carbohydrate, by difference",g,--,--,3.00,20.00
"Fiber, total dietary",g,--,--,0.0,0.0
"Sugars, total",g,--,--,2.00,13.33
Minerals
"Calcium, Ca",mg,--,--,0,0
"Iron, Fe",mg,--,--,1.46,9.74
"Sodium, Na",mg,--,--,140,933
Vitamins
"Vitamin C, total ascorbic acid",mg,--,--,0.0,0.0
"Vitamin A, IU",IU,--,--,0,0
Lipids
"Fatty acids, total saturated",g,--,--,0.000,0.000
"Fatty acids, total trans",g,--,--,0.000,0.000
"Cholesterol",mg,--,--,0,0
Amino Acids
Other
Ingredients
"KETCHUP (TOMATO CONCENTRATE, SUGAR, VINEGAR, SALT, ONION POWDER, SPICE NATURAL FLAVORS), WORCHESTERSHIRE (DEXTROSE SALT, SUGAR, SILICON DIOXIDE (TO PREVENT CAKING), GARLIC, SPICES, CITRIC ACID, NATURAL SPICE EXTRACTIVES, ANNATTO COLOR, VINEGAR WHITE, CAYENNE PEPPER), MUSTARD (DISTILLED VINEGAR, WATER, #1 GRADE MUSTARD SEED, SALT, TURMERIC, PAPRIKA, SPICE, NATURAL FLAVORS, AND GARLIC POWDER), CANOLA OIL, HOT PEPPER SAUCE, LEMON JUICE, SUGAR, LIQUID SMOKE FLAVOR (WATER, NATURAL HICKORY SMOKE CONCENTRATE), SPICES, GARLIC." Date available: 07/14/2017 Date last updated by company: 07/14/2017
