Source: USDA Branded Food Products Database Release December 2017 Software v.3.8.6.4 2017-10-02
Report Run at: December 19, 2017 00:59 EST
"Nutrient data for: 45326227, COOKIE, UPC: 852233007000"
Food Group:  Branded Food Products Database
Common Name:

Nutrient,Unit,Data points,Std. Error,"1.6 ONZ = 46.0g",1Value per 100 g,
Proximates
"Energy",kcal,--,--,170,370
"Protein",g,--,--,10.00,21.74
"Total lipid (fat)",g,--,--,8.00,17.39
"Carbohydrate, by difference",g,--,--,23.00,50.00
"Fiber, total dietary",g,--,--,1.0,2.2
"Sugars, total",g,--,--,9.00,19.57
Minerals
"Calcium, Ca",mg,--,--,60,130
"Iron, Fe",mg,--,--,0.78,1.70
"Sodium, Na",mg,--,--,220,478
Vitamins
"Vitamin C, total ascorbic acid",mg,--,--,0.0,0.0
"Vitamin D",IU,--,--,0,0
Lipids
"Fatty acids, total saturated",g,--,--,4.002,8.700
"Fatty acids, total trans",g,--,--,0.000,0.000
Amino Acids
Other
Ingredients
"WHEY PROTEIN CONCENTRATE, ERYTHRITOL, UNBLEACHED ENRICHED WHEAT FLOUR(WHEAT FLOUR, NIACIN, REDUCED IRON, THIAMIN MONONITRATE(VITAMIN B1), RIBOFLAVIN(VITAMIN B2), FOLIC ACID), PALM OIL(PALM OIL, CITRIC ACID), BUTTER, CANE SUGAR, CHOCOLATE CHIPS(SUGAR, UNSWEETENED CHOCOLATE, COCOA BUTTER, SOY LECITHIN(AN EMULSIFIER), NATURAL VANILLA EXTRACT), EGG POWDER(WHOLE EGGS, SALT), TAPIOCA SYRUP, MOLASSES, NONFAT MILK POWDER(MILK PROTEIN CONCENTRATE, NONFAT DRY MILK, LACTOSE), RAISIN, NATURAL VANILLA EXTRACT, BAKING POWDER, GLYCERIN, SUNFLOWER LECITHIN, SEA SALT, BAKING SODA, ROSEMARY EXTRACT." Date available: 09/18/2017 Date last updated by company: 09/18/2017
