Source: USDA Branded Food Products Database Release December 2017 Software v.3.8.6.4 2017-10-02
Report Run at: December 19, 2017 00:35 EST
"Nutrient data for: 45275203, COOKED BEETS, UPC: 850996004946"
Food Group:  Branded Food Products Database
Common Name:

Nutrient,Unit,Data points,Std. Error,"0.75 CUP | ABOUT = 95.0g",1Value per 100 g,
Proximates
"Energy",kcal,--,--,30,32
"Protein",g,--,--,1.00,1.05
"Total lipid (fat)",g,--,--,0.00,0.00
"Carbohydrate, by difference",g,--,--,10.00,10.53
"Fiber, total dietary",g,--,--,2.0,2.1
"Sugars, total",g,--,--,6.00,6.32
Minerals
"Calcium, Ca",mg,--,--,0,0
"Iron, Fe",mg,--,--,0.00,0.00
"Sodium, Na",mg,--,--,84,88
Vitamins
"Vitamin C, total ascorbic acid",mg,--,--,0.0,0.0
"Vitamin A, IU",IU,--,--,0,0
Lipids
"Fatty acids, total saturated",g,--,--,0.000,0.000
"Fatty acids, total trans",g,--,--,0.000,0.000
"Cholesterol",mg,--,--,0,0
Amino Acids
Other
Ingredients
"BEETS" Date available: 07/17/2017 Date last updated by company: 07/17/2017
