Source: USDA Branded Food Products Database Release December 2017 Software v.3.8.6.4 2017-10-02
Report Run at: December 19, 2017 00:57 EST
"Nutrient data for: 45260616, COOKIES, UPC: 892662002122"
Food Group:  Branded Food Products Database
Common Name:

Nutrient,Unit,Data points,Std. Error,"1 COOKIE = 20.0g",1Value per 100 g,
Proximates
"Energy",kcal,--,--,70,350
"Protein",g,--,--,2.00,10.00
"Total lipid (fat)",g,--,--,3.50,17.50
"Carbohydrate, by difference",g,--,--,11.00,55.00
"Fiber, total dietary",g,--,--,2.5,12.5
"Sugars, total",g,--,--,0.00,0.00
Minerals
"Calcium, Ca",mg,--,--,20,100
"Iron, Fe",mg,--,--,0.90,4.50
"Sodium, Na",mg,--,--,15,75
Vitamins
"Vitamin C, total ascorbic acid",mg,--,--,0.0,0.0
"Vitamin A, IU",IU,--,--,0,0
Lipids
"Fatty acids, total saturated",g,--,--,0.500,2.500
"Fatty acids, total trans",g,--,--,0.000,0.000
"Cholesterol",mg,--,--,10,50
Amino Acids
Other
Ingredients
"UNBLEACHED, UN-BROMATED, WHEAT FLOUR (MALTED BARLEY, NIACIN, REDUCED IRON, THIAMINE MONONITRATE, RIBOFLAVIN, FOLIC ACID), MALTITOL*, ALMONDS, CHOCOLATE CHIPS (MALTITOL, CHOCOLATE LIQUOR, COCOA BUTTER, SORBITAN TRISTEARATE, SOY LECITHIN (AN EMULSIFIER), EGGS, WATER, GMO FREE EXPELLER-PRESSED CANOLA OIL, CINNAMON, NUTMEG. ALUMINUM FREE BAKING POWDER (MONOCALCIUM, PHOSPHATE, SODIUM BICARBONATE, GMO FREE CORNSTARCH)." Date available: 07/14/2017 Date last updated by company: 07/14/2017
