Source: USDA Branded Food Products Database Release December 2017 Software v.3.8.6.4 2017-10-02
Report Run at: December 19, 2017 00:44 EST
"Nutrient data for: 45283524, COOKIE CRUNCH BROWNIE, UPC: 042704045314"
Food Group:  Branded Food Products Database
Common Name:

Nutrient,Unit,Data points,Std. Error,"5.0 ONZ = 142.0g",1Value per 100 g,
Proximates
"Energy",kcal,--,--,520,366
"Protein",g,--,--,7.00,4.93
"Total lipid (fat)",g,--,--,18.01,12.68
"Carbohydrate, by difference",g,--,--,86.00,60.56
"Fiber, total dietary",g,--,--,5.0,3.5
"Sugars, total",g,--,--,59.00,41.55
Minerals
"Calcium, Ca",mg,--,--,40,28
"Iron, Fe",mg,--,--,1.26,0.89
"Sodium, Na",mg,--,--,240,169
Vitamins
"Vitamin C, total ascorbic acid",mg,--,--,0.0,0.0
"Vitamin A, IU",IU,--,--,28,20
Lipids
"Fatty acids, total saturated",g,--,--,9.003,6.340
"Fatty acids, total trans",g,--,--,2.499,1.760
"Cholesterol",mg,--,--,65,46
Amino Acids
Other
Ingredients
"SUGAR, ENRICHED FLOUR BLEACHED (WHEAT FLOUR, MALTED BARLEY FLOUR, NIACIN, REDUCED IRON, THAIMINE MONONITRATE, RIBOFLAVIN, FOLIC ACID), WATER, COCOA PROCESSED WITH ALKALI, EGGS, PARTIALLY HYDROGENATED VEGETABLE OIL (SOYBEAN AND PALM OILS), PARTIALLY HYDROGENATED VEGETABLE SHORTENING (SOYBEAN & COTTONSEED OIL), SOYBEAN OIL, PALM KERNEL, AND PALM OILS, LIGHT BROWN SUGAR, CORN SYRUP SOLIDS, CORN SYRUP, CONTAINS LESS THAN 2% OF ARABIC GUM, ARTIFICIAL FLAVOR, BAKING SODA, CHOCOLATE LIQUOR, CITRIC ACID, COCOA BUTTER, EGG WHITES, EGG YOLKS, FD&C YELLOW 5, FD&C YELLOW 6, METHYL & PROPYL PARABENS, NONFAT MILK POWDER, POTASSIUM SORBATE (PRESERVATIVE), SALT, SODIUM BEOZOATE (A PRESERVATIVE), SODIUM BICARBONATE, SOY FLOUR, SOY LECITHIN, VANILLA, XANTHAN GUM." Date available: 08/22/2017 Date last updated by company: 08/22/2017
