Source: USDA Branded Food Products Database Release December 2017 Software v.3.8.6.4 2017-10-02
Report Run at: December 19, 2017 00:38 EST
"Nutrient data for: 45258535, COOKED SCRAMBLED EGGS WITH SAUSAGE, UPC: 869955000004"
Food Group:  Branded Food Products Database
Common Name:

Nutrient,Unit,Data points,Std. Error,"110.0 G PREPARED) | DRY (MAKES = 37.0g",1Value per 100 g,
Proximates
"Energy",kcal,--,--,225,608
"Protein",g,--,--,15.00,40.54
"Total lipid (fat)",g,--,--,17.00,45.95
"Carbohydrate, by difference",g,--,--,4.00,10.81
"Fiber, total dietary",g,--,--,0.0,0.0
"Sugars, total",g,--,--,3.00,8.11
Minerals
"Calcium, Ca",mg,--,--,70,189
"Iron, Fe",mg,--,--,3.42,9.25
"Sodium, Na",mg,--,--,616,1665
Vitamins
"Vitamin C, total ascorbic acid",mg,--,--,0.0,0.0
"Vitamin A, IU",IU,--,--,845,2285
Lipids
"Fatty acids, total saturated",g,--,--,6.001,16.220
"Fatty acids, total trans",g,--,--,0.000,0.000
"Cholesterol",mg,--,--,346,935
Amino Acids
Other
Ingredients
"FREEZE-DRIED COOKED SCRAMBLED EGGS (LIQUID WHOLE EGGS, NON-FAT MILK, SOYBEAN OIL, MODIFIED FOOD STARCH, SALT, XANTHAN GUM, CITRIC ACID, BUTTER FLAVOR (MALTODEXTRIN, NATURAL BUTTER FLAVOR, ANNATTO, AND TURMERIC [FOR COLOR]), PEPPER), FREEZE-DRIED COOKED PORK SAUSAGE (PORK, SALT, SPICES, SUGAR, SODIUM PHOSPHATE)" Date available: 07/14/2017 Date last updated by company: 07/14/2017
