Source: USDA Branded Food Products Database Release December 2017 Software v.3.8.6.4 2017-10-02
Report Run at: December 19, 2017 00:45 EST
"Nutrient data for: 45248417, COOKIE DOUGH MINIS, UPC: 030100109020"
Food Group:  Branded Food Products Database
Common Name:

Nutrient,Unit,Data points,Std. Error,"1 PACKAGE = 70.0g",1Value per 100 g,
Proximates
"Energy",kcal,--,--,320,457
"Protein",g,--,--,3.00,4.29
"Total lipid (fat)",g,--,--,14.00,20.00
"Carbohydrate, by difference",g,--,--,46.00,65.71
"Fiber, total dietary",g,--,--,1.0,1.4
"Sugars, total",g,--,--,22.00,31.43
Minerals
"Calcium, Ca",mg,--,--,20,29
"Iron, Fe",mg,--,--,1.03,1.47
"Sodium, Na",mg,--,--,210,300
Vitamins
"Vitamin C, total ascorbic acid",mg,--,--,0.0,0.0
"Vitamin A, IU",IU,--,--,0,0
Lipids
"Fatty acids, total saturated",g,--,--,4.998,7.140
"Fatty acids, total trans",g,--,--,0.000,0.000
"Cholesterol",mg,--,--,0,0
Amino Acids
Other
Ingredients
"ENRICHED FLOUR (WHEAT FLOUR, NIACIN, REDUCED IRON, VITAMIN B1 [THIAMIN MONONITRATE], VITAMIN B2, [RIBOFLAVIN], FOLIC ACID), ENRICHED BLEACHED WHEAT FLOUR (WHEAT FLOUR, NIACIN, REDUCED, IRON, VITAMIN B1 [THIAMIN MONONITRATE], VITAMIN B2 [RIBOFLAVIN], FOLIC ACID), SOYBEAN AND PALM OIL, FRUCTOSE, HIGH FRUCTOSE CORN SYRUP, WHITE CHOCOLATE (SUGAR, COCOA BUTTER, MILK NONFAT MILK, MILKFAT, SOY LECITHIN, VANILLA EXTRACT), CORN SYRUP, SEMISWEET CHOCOLATE (SUGAR, CHOCOLATE, COCOA BUTTER, SOY LECITHIN, NATURAL FLAVOR), SUGAR, CONTAINS 2% OR LESS OF MODIFIED CORN STARCH, MOLASSES, WHEY, SALT, NATURAL AND ARTIFICIAL FLAVORS, BAKING SODA, SOY LECITHIN, SODIUM ALGINATE, COLOR ADDED." Date available: 07/14/2017 Date last updated by company: 07/14/2017
