Source: USDA Branded Food Products Database Release December 2017 Software v.3.8.6.4 2017-10-02
Report Run at: December 19, 2017 00:46 EST
"Nutrient data for: 45325654, COOKIE DOUGH, UPC: 858397005012"
Food Group:  Branded Food Products Database
Common Name:

Nutrient,Unit,Data points,Std. Error,"0.5 JAR = 94.0g",1Value per 100 g,
Proximates
"Energy",kcal,--,--,390,415
"Protein",g,--,--,4.00,4.26
"Total lipid (fat)",g,--,--,25.00,26.60
"Carbohydrate, by difference",g,--,--,42.00,44.68
"Fiber, total dietary",g,--,--,2.0,2.1
"Sugars, total",g,--,--,30.00,31.91
Minerals
"Calcium, Ca",mg,--,--,20,21
"Iron, Fe",mg,--,--,2.30,2.45
"Sodium, Na",mg,--,--,180,191
Vitamins
"Vitamin C, total ascorbic acid",mg,--,--,0.0,0.0
"Vitamin A, IU",IU,--,--,426,453
Lipids
"Fatty acids, total saturated",g,--,--,12.004,12.770
"Fatty acids, total trans",g,--,--,0.498,0.530
"Cholesterol",mg,--,--,100,106
Amino Acids
Other
Ingredients
"MOUSSE (EGGS, BITTERSWEET CHOCOLATE (CACAO BEANS, PURE CANE SUGAR, COCOA BUTTER, SUNFLOWER LECITHIN, VANILLA BEANS), SEMISWEET CHOCOLATE (SUGAR, UNSWEETENED CHOCOLATE, DEXTROSE, COCOA BUTTER, SOY LECITHIN (AN EMULSIFIER)), EGG WHITE, BUTTER (CREAM, NATURAL FLAVOR), VANILLA EXTRACT, INSTANT ESPRESSO COFFEE), WHIPPED CREAM (CREAM, GUAR GUM, MONO AND DIGLYCERIDES, CELLULOSE GUM, POLYSORBATE 80, SODIUM CITRATE, CARRAGEENAN, SALT, DIPOTASSIUM PHOSPHATE, SUGAR, VANILLA EXTRACT), BROWNIE (SUGAR, WHEAT FLOUR, VEGETABLE OIL SHORTENING, COCOA POWDER, WHEAT STARCH, DEXTROSE, SALT, CARRAGEENAN, LEAVENING), COOKIE DOUGH (WHEAT FLOUR, SUGAR, MARGARINE (PALM OIL, SOYBEAN OIL, SALT, MONO AND DIGLYCERIDES, ARTIFICIAL FLAVOR, COLORED WITH ANNATO, CALCIUM DISODIUM EDTA), CHOCOLATE CHIPS (SUGAR, CHOCOLATE LIQUOR, COCOA BUTTER, SOY LECITHIN, VANILLA EXTRACT), BROWN SUGAR, SALT, SEMISWEET CHOCOLATE (SUGAR, UNSWEETENED CHOCOLATE, DEXTROSE, COCOA BUTTER, SOY LECITHIN (AN EMULSIFIER))" Date available: 10/11/2017 Date last updated by company: 10/11/2017
