Source: USDA Branded Food Products Database Release December 2017 Software v.3.8.6.4 2017-10-02
Report Run at: December 19, 2017 01:02 EST
"Nutrient data for: 45312482, COOK & SERVE PUDDING & PIE FILLING, UPC: 043000206942"
Food Group:  Branded Food Products Database
Common Name:

Nutrient,Unit,Data points,Std. Error,"0.16 PACKAGE = 22.0g",1Value per 100 g,
Proximates
"Energy",kcal,--,--,80,364
"Protein",g,--,--,0.00,0.00
"Total lipid (fat)",g,--,--,0.00,0.00
"Carbohydrate, by difference",g,--,--,20.00,90.91
"Fiber, total dietary",g,--,--,0.0,0.0
"Sugars, total",g,--,--,15.00,68.18
Minerals
"Calcium, Ca",mg,--,--,0,0
"Iron, Fe",mg,--,--,0.00,0.00
"Sodium, Na",mg,--,--,180,818
Vitamins
"Vitamin C, total ascorbic acid",mg,--,--,0.0,0.0
"Vitamin A, IU",IU,--,--,0,0
Lipids
"Fatty acids, total saturated",g,--,--,0.000,0.000
"Fatty acids, total trans",g,--,--,0.000,0.000
"Cholesterol",mg,--,--,0,0
Amino Acids
Other
Ingredients
"SUGAR, DEXTROSE, CORNSTARCH, MODIFIED CORNSTARCH, SALT, CONTAINS LESS THAN 2% OF NATURAL AND ARTIFICIAL FLAVOR, CALCIUM CARRAGEENAN (THICKENER), POLYSORBATE 60 (PREVENTS SCORCHING), YELLOW 5, YELLOW 6" Date available: 07/14/2017 Date last updated by company: 07/14/2017
