Source: USDA Branded Food Products Database Release December 2017 Software v.3.8.6.4 2017-10-02
Report Run at: December 19, 2017 01:03 EST
"Nutrient data for: 45275279, COOLING CLEANSE COLD PRESSED JUICE, UPC: 857134006718"
Food Group:  Branded Food Products Database
Common Name:

Nutrient,Unit,Data points,Std. Error,"8.0 OZA = 237.0g",1Value per 100 g,
Proximates
"Energy",kcal,--,--,121,51
"Protein",g,--,--,1.99,0.84
"Total lipid (fat)",g,--,--,0.00,0.00
"Carbohydrate, by difference",g,--,--,31.00,13.08
"Fiber, total dietary",g,--,--,5.9,2.5
"Sugars, total",g,--,--,17.99,7.59
Minerals
"Calcium, Ca",mg,--,--,59,25
"Iron, Fe",mg,--,--,1.09,0.46
"Sodium, Na",mg,--,--,19,8
Vitamins
"Vitamin C, total ascorbic acid",mg,--,--,66.8,28.2
"Vitamin A, IU",IU,--,--,4558,1923
Lipids
"Fatty acids, total saturated",g,--,--,0.000,0.000
"Fatty acids, total trans",g,--,--,0.000,0.000
"Cholesterol",mg,--,--,0,0
Amino Acids
Other
Ingredients
"PEARS, PINEAPPLE, KALE, CUCUMBER, SPINACH, LEMON" Date available: 08/22/2017 Date last updated by company: 08/22/2017
