Source: USDA Branded Food Products Database Release December 2017 Software v.3.8.6.4 2017-10-02
Report Run at: December 19, 2017 01:03 EST
"Nutrient data for: 45169497, COOL CUPS, PEACH MANGO GELS, UPC: 853022004231"
Food Group:  Branded Food Products Database
Common Name:

Nutrient,Unit,Data points,Std. Error,"1 cup = 113.0g",1Value per 100 g,
Proximates
"Energy",kcal,--,--,92,81
"Protein",g,--,--,0.00,0.00
"Total lipid (fat)",g,--,--,0.00,0.00
"Carbohydrate, by difference",g,--,--,22.00,19.47
"Fiber, total dietary",g,--,--,0.0,0.0
"Sugars, total",g,--,--,20.00,17.70
Minerals
"Calcium, Ca",mg,--,--,0,0
"Iron, Fe",mg,--,--,0.00,0.00
"Potassium, K",mg,--,--,66,58
"Sodium, Na",mg,--,--,44,39
Vitamins
"Vitamin C, total ascorbic acid",mg,--,--,0.0,0.0
"Vitamin A, IU",IU,--,--,0,0
Lipids
"Fatty acids, total saturated",g,--,--,0.000,0.000
"Fatty acids, total trans",g,--,--,0.000,0.000
"Cholesterol",mg,--,--,0,0
Amino Acids
Other
Ingredients
"FILTERED WATER, CANE SUGAR, CARRAGEENAN, NATURAL FLAVORS, NATURAL COLORS (TURMERIC AND ANNATTO), SODIUM CITRATE, MALIC ACID, CITRIC ACID, ASCORBIC ACID (AS VITAMIN C)." Date available: 07/14/2017 Date last updated by company: 07/14/2017
