Source: USDA Branded Food Products Database Release December 2017 Software v.3.8.6.4 2017-10-02
Report Run at: December 19, 2017 01:03 EST
"Nutrient data for: 45285473, COOL SALSA VERDE TORTILLA CHIPS, UPC: 891760002430"
Food Group:  Branded Food Products Database
Common Name:

Nutrient,Unit,Data points,Std. Error,"10.0 CHIPS | ABOUT = 28.0g",1Value per 100 g,
Proximates
"Energy",kcal,--,--,140,500
"Protein",g,--,--,2.00,7.14
"Total lipid (fat)",g,--,--,7.00,25.00
"Carbohydrate, by difference",g,--,--,18.00,64.29
"Fiber, total dietary",g,--,--,2.0,7.1
"Sugars, total",g,--,--,0.00,0.00
Minerals
"Calcium, Ca",mg,--,--,20,71
"Iron, Fe",mg,--,--,1.29,4.59
"Sodium, Na",mg,--,--,190,679
Vitamins
"Vitamin C, total ascorbic acid",mg,--,--,2.2,7.7
"Vitamin A, IU",IU,--,--,179,638
Lipids
"Fatty acids, total saturated",g,--,--,1.000,3.570
"Fatty acids, total trans",g,--,--,0.000,0.000
"Cholesterol",mg,--,--,0,0
Amino Acids
Other
Ingredients
"GROUND CORN, EXPELLER-PRESSED CANOLA OIL, SALT, SPICES, NATURAL FLAVOR, SOUR CREAM POWDER [(CREAM, CULTURES, LACTIC ACID) ORGANIC NONFAT MILK SOLIDS AND CITRIC ACID], GREEN BELL PEPPER POWDER, ORGANIC WHEY, CANE SUGAR, TOMATO POWDER, ONION POWDER, GARLIC POWDER, JALAPENO PEPPER, YEAST EXTRACT, GREEN CHILE PEPPER POWDER, TOMATILLO POWDER, ORGANIC WHITE DISTILLED VINEGAR, CITRIC ACID, LACTIC ACID, LIME JUICE" Date available: 07/14/2017 Date last updated by company: 07/14/2017
