Source: USDA Branded Food Products Database Release December 2017 Software v.3.8.6.4 2017-10-02
Report Run at: December 19, 2017 01:05 EST
"Nutrient data for: 45126315, CORDIAL CHERRIES, UPC: 043268800029"
Food Group:  Branded Food Products Database
Common Name:

Nutrient,Unit,Data points,Std. Error,"2.0 PIECES = 38.0g",1Value per 100 g,
Proximates
"Energy",kcal,--,--,150,395
"Protein",g,--,--,0.00,0.00
"Total lipid (fat)",g,--,--,3.00,7.89
"Carbohydrate, by difference",g,--,--,30.00,78.95
"Fiber, total dietary",g,--,--,0.0,0.0
"Sugars, total",g,--,--,27.00,71.05
Minerals
"Calcium, Ca",mg,--,--,20,53
"Iron, Fe",mg,--,--,0.00,0.00
"Sodium, Na",mg,--,--,10,26
Vitamins
"Vitamin C, total ascorbic acid",mg,--,--,0.0,0.0
"Vitamin A, IU",IU,--,--,0,0
Lipids
"Fatty acids, total saturated",g,--,--,1.999,5.260
"Fatty acids, total trans",g,--,--,0.000,0.000
"Cholesterol",mg,--,--,0,0
Amino Acids
Other
Ingredients
"SUGAR, MILK CHOCOLATE (SUGAR, COCOA BUTTER, MILK, CHOCOLATE, SOY LECITHIN [EMULSIFIER], PGPR [EMULSIFIER], VANILLIN [ARTIFICIAL FLAVOR]), CHERRIES (CHERRIES, HIGH FRUCTOSE CORN SYRUP, CORN SYRUP, CITRIC ACID, NATURAL & ARTIFICIAL FLAVOR, FD&C RED 40, POTASSIUM SORBATE [PRESERVATIVE], SODIUM BENZOATE [PRESERVATIVE], SULFUR DIOXIDE [PRESERVATIVE]), CORN SYRUP, DARK COATING (SUGAR, PARTIALLY HYDROGENATED SOYBEAN AND COTTONSEED OILS, COCOA, CHOCOLATE, SOY LECITHIN [EMULSIFIER]), INVERTASE, ARTIFICIAL FLAVOR." Date available: 07/14/2017 Date last updated by company: 07/14/2017
