Source: USDA Branded Food Products Database Release December 2017 Software v.3.8.6.4 2017-10-02
Report Run at: December 19, 2017 01:18 EST
"Nutrient data for: 45330397, CORN ON THE COB, UPC: 048800145095"
Food Group:  Branded Food Products Database
Common Name:

Nutrient,Unit,Data points,Std. Error,"1 EAR = 85.0g",1Value per 100 g,
Proximates
"Energy",kcal,--,--,90,106
"Protein",g,--,--,3.00,3.53
"Total lipid (fat)",g,--,--,0.50,0.59
"Carbohydrate, by difference",g,--,--,19.00,22.35
"Fiber, total dietary",g,--,--,2.0,2.4
"Sugars, total",g,--,--,3.00,3.53
Minerals
"Calcium, Ca",mg,--,--,2,2
"Iron, Fe",mg,--,--,0.00,0.00
"Potassium, K",mg,--,--,180,212
"Sodium, Na",mg,--,--,0,0
Vitamins
"Vitamin D",IU,--,--,0,0
Lipids
"Fatty acids, total saturated",g,--,--,0.000,0.000
"Fatty acids, total trans",g,--,--,0.000,0.000
"Cholesterol",mg,--,--,0,0
Amino Acids
Other
Ingredients
"CORN ON THE COB" Date available: 10/18/2017 Date last updated by company: 10/18/2017
