Source: USDA Branded Food Products Database Release December 2017 Software v.3.8.6.4 2017-10-02
Report Run at: December 19, 2017 01:21 EST
"Nutrient data for: 45105451, CORN THINS, POPPED CORN CAKES, UPC: 671959000160"
Food Group:  Branded Food Products Database
Common Name:

Nutrient,Unit,Data points,Std. Error,"1 SLICE = 6.6g",1Value per 100 g,
Proximates
"Energy",kcal,--,--,28,424
"Protein",g,--,--,0.70,10.61
"Total lipid (fat)",g,--,--,0.40,6.06
"Carbohydrate, by difference",g,--,--,5.20,78.79
"Fiber, total dietary",g,--,--,0.5,7.6
"Sugars, total",g,--,--,0.20,3.03
Minerals
"Sodium, Na",mg,--,--,55,833
Vitamins
Lipids
"Fatty acids, total saturated",g,--,--,0.100,1.520
"Fatty acids, total trans",g,--,--,0.000,0.000
"Cholesterol",mg,--,--,0,0
Amino Acids
Other
Ingredients
"CORN (54%), RICE (35%), SEASONING [MILK SOLIDS (WHEY, MILK POWDERS), ONION POWDER, SALT, SUGAR, DEXTROSE, YEAST EXTRACT, LACTIC ACID, CITRIC ACID, SOUR CREAM POWDER (MILK). FLAVOR (NATURAL), PARSLEY FLAKES, CHIVES FLAKES, MALTODEXTRIN, SILICONE DIOXIDE (ANTI-CAKING AGENT)], SUNFLOWER OIL, SALT, HERB EXTRACT." Date available: 10/11/2017 Date last updated by company: 10/11/2017
