Source: USDA Branded Food Products Database Release December 2017 Software v.3.8.6.4 2017-10-02
Report Run at: December 19, 2017 01:08 EST
"Nutrient data for: 45147893, CORN CHIPS, UPC: 072080400025"
Food Group:  Branded Food Products Database
Common Name:

Nutrient,Unit,Data points,Std. Error,"34.0 CHIPS) | (ABOUT = 28.0g",1Value per 100 g,
Proximates
"Energy",kcal,--,--,150,536
"Protein",g,--,--,2.00,7.14
"Total lipid (fat)",g,--,--,10.00,35.71
"Carbohydrate, by difference",g,--,--,16.00,57.14
"Fiber, total dietary",g,--,--,1.0,3.6
"Sugars, total",g,--,--,0.00,0.00
Minerals
"Calcium, Ca",mg,--,--,40,143
"Iron, Fe",mg,--,--,0.64,2.29
"Sodium, Na",mg,--,--,320,1143
Vitamins
"Vitamin C, total ascorbic acid",mg,--,--,0.0,0.0
"Vitamin A, IU",IU,--,--,0,0
Lipids
"Fatty acids, total saturated",g,--,--,2.999,10.710
"Fatty acids, total trans",g,--,--,0.000,0.000
"Cholesterol",mg,--,--,0,0
Amino Acids
Other
Ingredients
"SELECT CORN COOKED IN ONE OR MORE OF THE FOLLOWING PURE VEGETABLE OILS: CORN, COTTONSEED, CANOLA, PALM OR SOYBEAN, SALT. INGREDIENTS OF SEASONING: MALTODEXTRIN, SALT, CHILI POWDER, CITRIC ACID, MONOSODIUM GLUTAMATE, RED 40 LAKE, CARAMEL COLOR, NATURAL FLAVOR, YELLOW 6 LAKE, SUNFLOWER OIL." Date available: 07/14/2017 Date last updated by company: 07/14/2017
