Source: USDA Branded Food Products Database Release December 2017 Software v.3.8.6.4 2017-10-02
Report Run at: December 19, 2017 01:19 EST
"Nutrient data for: 45329590, CORN SNACKS, UPC: 021900981831"
Food Group:  Branded Food Products Database
Common Name:

Nutrient,Unit,Data points,Std. Error,"9.0 PIECES | ABOUT = 28.0g",1Value per 100 g,
Proximates
"Energy",kcal,--,--,150,536
"Protein",g,--,--,2.00,7.14
"Total lipid (fat)",g,--,--,9.00,32.14
"Carbohydrate, by difference",g,--,--,17.00,60.71
"Fiber, total dietary",g,--,--,0.0,0.0
"Sugars, total",g,--,--,2.00,7.14
Minerals
"Calcium, Ca",mg,--,--,20,71
"Iron, Fe",mg,--,--,0.00,0.00
"Sodium, Na",mg,--,--,230,821
Vitamins
"Vitamin C, total ascorbic acid",mg,--,--,0.0,0.0
"Vitamin A, IU",IU,--,--,0,0
Lipids
"Fatty acids, total saturated",g,--,--,1.000,3.570
"Fatty acids, total trans",g,--,--,0.000,0.000
"Cholesterol",mg,--,--,5,18
Amino Acids
Other
Ingredients
"DEGERMED YELLOW CORNMEAL, VEGETABLE OIL (CONTAINS ONE OR MORE OF THE FOLLOWING: CANOLA OIL, CORN OIL, COTTONSEED OIL), DAIRY WHEY, SALT, CORNSTARCH, CHEESE [CHEDDAR AND BLUE (CULTURED MILK, SALT, ENZYMES)], MALTODEXTRIN, BUTTER (CREAM, SALT, ANNATTO EXTRACT), NATURAL AND ARTIFICIAL FLAVORS, BUTTERMILK, SODIUM PHOSPHATE, ARTIFICIAL COLOR (YELLOW 5, YELLOW 6), DISODIUM GUANYLATE AND DISODIUM INOSINATE, THIAMINE HYDROCHLORIDE, FRUCTOSE." Date available: 10/13/2017 Date last updated by company: 10/13/2017
