Source: USDA Branded Food Products Database Release December 2017 Software v.3.8.6.4 2017-10-02
Report Run at: December 19, 2017 01:07 EST
"Nutrient data for: 45191655, CORN BREAD MUFFINS, UPC: 079879409115"
Food Group:  Branded Food Products Database
Common Name:

Nutrient,Unit,Data points,Std. Error,"0.5 MUFFIN = 57.0g",1Value per 100 g,
Proximates
"Energy",kcal,--,--,190,333
"Protein",g,--,--,3.00,5.26
"Total lipid (fat)",g,--,--,8.00,14.04
"Carbohydrate, by difference",g,--,--,26.00,45.61
"Fiber, total dietary",g,--,--,1.0,1.8
"Sugars, total",g,--,--,11.00,19.30
Minerals
"Calcium, Ca",mg,--,--,60,105
"Iron, Fe",mg,--,--,1.39,2.44
"Sodium, Na",mg,--,--,250,439
Vitamins
"Vitamin C, total ascorbic acid",mg,--,--,0.0,0.0
"Vitamin A, IU",IU,--,--,0,0
Lipids
"Fatty acids, total saturated",g,--,--,1.499,2.630
"Fatty acids, total trans",g,--,--,0.000,0.000
"Cholesterol",mg,--,--,20,35
Amino Acids
Other
Ingredients
"SUGAR, ENRICHED WHEAT FLOUR (FLOUR, NIACIN, REDUCED IRON, THIAMIN MONONITRATE, RIBOFLAVIN AND FOLIC ACID), CORN MEAL, WATER, WHOLE EGGS, SOYBEAN OIL, WHOLE CORN, MODIFIED FOOD STARCH, LEAVENING (SODIUM ALUMINUM PHOSPHATE, ALUMINUM SULFATE, SODIUM BICARBONATE), WHEAT GLUTEN, SALT, PROPYLENE GLYCOL, MONOESTERS, MONO AND DIGLYCERIDES, SODIUM STEAROYL LACTYLATE, TRICALCIUM PHOSPHATE, ASCORBIC ACID (DOUGH CONDITIONER), CITRIC ACID, POTASSIUM SORBATE, SODIUM PROPIONATE (PRESERVATIVE), XANTHUM GUM, MILK POWDER, SOY FLOUR." Date available: 07/14/2017 Date last updated by company: 07/14/2017
