Source: USDA Branded Food Products Database Release December 2017 Software v.3.8.6.4 2017-10-02
Report Run at: December 19, 2017 01:11 EST
"Nutrient data for: 45057622, CORNED BEEF HASH, UPC: 017000031064"
Food Group:  Branded Food Products Database
Common Name:

Nutrient,Unit,Data points,Std. Error,"1 cup = 236.0g",1Value per 100 g,
Proximates
"Energy",kcal,--,--,439,186
"Protein",g,--,--,19.00,8.05
"Total lipid (fat)",g,--,--,30.00,12.71
"Carbohydrate, by difference",g,--,--,23.01,9.75
"Fiber, total dietary",g,--,--,1.9,0.8
"Sugars, total",g,--,--,0.99,0.42
Minerals
"Calcium, Ca",mg,--,--,19,8
"Iron, Fe",mg,--,--,1.91,0.81
"Sodium, Na",mg,--,--,840,356
Vitamins
"Vitamin C, total ascorbic acid",mg,--,--,0.0,0.0
"Vitamin A, IU",IU,--,--,106,45
Lipids
"Fatty acids, total saturated",g,--,--,13.995,5.930
"Cholesterol",mg,--,--,99,42
Amino Acids
Other
Ingredients
"BEEF AND COOKED CORNED BEEF (CURED WITH SALT, SUGAR, SODIUM NITRITE), REHYDRATED POTATOES, WATER. LESS THAN 2 PERCENT: NATURAL FLAVORINGS, SUGAR, SPICE, SALT, SODIUM NITRITE." Date available: 07/14/2017 Date last updated by company: 07/14/2017
