Source: USDA Branded Food Products Database Release December 2017 Software v.3.8.6.4 2017-10-02
Report Run at: December 19, 2017 01:20 EST
"Nutrient data for: 45293053, CORN STARCH, UPC: 041617002360"
Food Group:  Branded Food Products Database
Common Name:

Nutrient,Unit,Data points,Std. Error,"1 Tbsp = 10.0g",1Value per 100 g,
Proximates
"Energy",kcal,--,--,35,350
"Protein",g,--,--,0.00,0.00
"Total lipid (fat)",g,--,--,0.00,0.00
"Carbohydrate, by difference",g,--,--,9.00,90.00
Minerals
"Sodium, Na",mg,--,--,0,0
Vitamins
Lipids
Amino Acids
Other
Ingredients
"CORN STARCH." Date available: 07/17/2017 Date last updated by company: 07/17/2017
