Source: USDA Branded Food Products Database Release December 2017 Software v.3.8.6.4 2017-10-02
Report Run at: December 19, 2017 01:17 EST
"Nutrient data for: 45210443, CORN ON THE COB, UPC: 048200114714"
Food Group:  Branded Food Products Database
Common Name:

Nutrient,Unit,Data points,Std. Error,"1 EAR = 157.0g",1Value per 100 g,
Proximates
"Energy",kcal,--,--,140,89
"Protein",g,--,--,4.99,3.18
"Total lipid (fat)",g,--,--,1.51,0.96
"Carbohydrate, by difference",g,--,--,34.01,21.66
"Fiber, total dietary",g,--,--,2.0,1.3
"Sugars, total",g,--,--,8.01,5.10
Minerals
"Calcium, Ca",mg,--,--,0,0
"Iron, Fe",mg,--,--,0.00,0.00
"Sodium, Na",mg,--,--,20,13
Vitamins
"Vitamin C, total ascorbic acid",mg,--,--,1.9,1.2
"Vitamin A, IU",IU,--,--,53,34
Lipids
"Fatty acids, total saturated",g,--,--,0.000,0.000
"Fatty acids, total trans",g,--,--,0.000,0.000
"Cholesterol",mg,--,--,0,0
Amino Acids
Other
Ingredients
"CORN ON THE COB." Date available: 08/10/2017 Date last updated by company: 08/10/2017
