Source: USDA Branded Food Products Database Release December 2017 Software v.3.8.6.4 2017-10-02
Report Run at: December 19, 2017 01:23 EST
"Nutrient data for: 45285477, CORN TORTILLAS, UPC: 729630600335"
Food Group:  Branded Food Products Database
Common Name:

Nutrient,Unit,Data points,Std. Error,"2.0 TORTILLAS = 47.0g",1Value per 100 g,
Proximates
"Energy",kcal,--,--,90,191
"Protein",g,--,--,2.00,4.26
"Total lipid (fat)",g,--,--,1.00,2.13
"Carbohydrate, by difference",g,--,--,18.00,38.30
"Fiber, total dietary",g,--,--,1.0,2.1
"Sugars, total",g,--,--,0.00,0.00
Minerals
"Calcium, Ca",mg,--,--,40,85
"Iron, Fe",mg,--,--,0.42,0.90
"Sodium, Na",mg,--,--,5,11
Vitamins
"Vitamin C, total ascorbic acid",mg,--,--,0.0,0.0
"Vitamin A, IU",IU,--,--,117,249
Lipids
"Fatty acids, total saturated",g,--,--,0.000,0.000
"Fatty acids, total trans",g,--,--,0.000,0.000
"Cholesterol",mg,--,--,0,0
Amino Acids
Other
Ingredients
"WHITE CORN FLOUR, WATER, CONTAINS 2% OR LESS OF THE FOLLOWING, DOUGH CONDITIONER (DEXTROSE, CELLULOSE GUM, GUAR GUM, CALCIUM SULFATE, ENZYMES), LIME." Date available: 10/13/2017 Date last updated by company: 10/13/2017
