Source: USDA Branded Food Products Database Release December 2017 Software v.3.8.6.4 2017-10-02
Report Run at: December 19, 2017 01:07 EST
"Nutrient data for: 45207252, CORNBREAD & MUFFIN MIX, UPC: 011161026921"
Food Group:  Branded Food Products Database
Common Name:

Nutrient,Unit,Data points,Std. Error,"1 SERVING OF CORNBREAD | MAKES ABOUT = 33.0g",1Value per 100 g,
Proximates
"Energy",kcal,--,--,130,394
"Protein",g,--,--,2.00,6.06
"Total lipid (fat)",g,--,--,3.00,9.09
"Carbohydrate, by difference",g,--,--,23.00,69.70
"Fiber, total dietary",g,--,--,1.0,3.0
"Sugars, total",g,--,--,7.00,21.21
Minerals
"Calcium, Ca",mg,--,--,40,121
"Iron, Fe",mg,--,--,1.31,3.97
"Sodium, Na",mg,--,--,300,909
Vitamins
"Vitamin C, total ascorbic acid",mg,--,--,0.0,0.0
"Vitamin A, IU",IU,--,--,0,0
Lipids
"Fatty acids, total saturated",g,--,--,1.000,3.030
"Fatty acids, total trans",g,--,--,0.000,0.000
"Cholesterol",mg,--,--,0,0
Amino Acids
Other
Ingredients
"ENRICHED BLEACHED FLOUR (BLEACHED WHEAT FLOUR, MALTED BARLEY FLOUR, NIACIN, IRON, THIAMINE MONONITRATE, RIBOFLAVIN, FOLIC ACID), ENRICHED DEGERMED YELLOW CORN MEAL (DEGERMED YELLOW CORN MEAL, NIACIN, IRON [FERROUS SULFATE, THIAMINE MONONITRATE, RIBOFLAVIN, FOLIC ACID), SUGAR, ANIMAL SHORTENING AND VEGETABLE OIL (CONTAINS ONE OR MORE OF THE FOLLOWING: TALLOW, SOYBEAN OIL) WITH PRESERVATIVE (BHT, CITRIC ACID), LEAVENING (BAKING SODA, SODIUM ALUMINUM PHOSPHATE, MONOCALCIUM PHOSPHATE), CONTAINS 2% OR LESS OF THE FOLLOWING: SALT, HONEY, WHEAT STARCH, CALCIUM STEARATE, SUNFLOWER LECITHIN." Date available: 07/14/2017 Date last updated by company: 07/14/2017
