Source: USDA Branded Food Products Database Release December 2017 Software v.3.8.6.4 2017-10-02
Report Run at: December 19, 2017 01:24 EST
"Nutrient data for: 45031482, CORONA, TRADITIONAL CACAO PREPARED BEVERAGE WITH ADDED SUGAR, UPC: 051817505110"
Food Group:  Branded Food Products Database
Common Name:

Nutrient,Unit,Data points,Std. Error,"1 TABLET = 25.0g",1Value per 100 g,
Proximates
"Energy",kcal,--,--,120,480
"Protein",g,--,--,1.00,4.00
"Total lipid (fat)",g,--,--,4.00,16.00
"Carbohydrate, by difference",g,--,--,19.00,76.00
"Fiber, total dietary",g,--,--,1.0,4.0
"Sugars, total",g,--,--,17.00,68.00
Minerals
"Calcium, Ca",mg,--,--,0,0
"Iron, Fe",mg,--,--,0.00,0.00
"Sodium, Na",mg,--,--,0,0
Vitamins
"Vitamin C, total ascorbic acid",mg,--,--,0.0,0.0
"Vitamin A, IU",IU,--,--,0,0
Lipids
"Fatty acids, total saturated",g,--,--,2.500,10.000
"Fatty acids, total trans",g,--,--,0.000,0.000
"Cholesterol",mg,--,--,0,0
Amino Acids
Other
Ingredients
"SUGAR, COCOA MASS, EMULSIFIER (SOY LECITHIN) AND NATURAL FLAVOR (CINNAMON), COCOA SOLIDS 30% MINIMUM" Date available: 06/24/2017 Date last updated by company: 06/24/2017
