Source: USDA Branded Food Products Database Release December 2017 Software v.3.8.6.4 2017-10-02
Report Run at: December 19, 2017 01:24 EST
"Nutrient data for: 45017020, COSECHA P'URHEPECHA, HOT SAUCE OF HABANERO CHILE, UPC: 7503004938131"
Food Group:  Branded Food Products Database
Common Name:

Nutrient,Unit,Data points,Std. Error,"10.0 GRM = 10.0g",1Value per 100 g,
Proximates
"Energy",kcal,--,--,0,0
"Protein",g,--,--,0.00,0.00
"Total lipid (fat)",g,--,--,0.00,0.00
"Carbohydrate, by difference",g,--,--,0.00,0.00
"Fiber, total dietary",g,--,--,0.0,0.0
"Sugars, total",g,--,--,0.00,0.00
Minerals
"Calcium, Ca",mg,--,--,0,0
"Iron, Fe",mg,--,--,0.00,0.00
"Sodium, Na",mg,--,--,110,1100
Vitamins
"Vitamin C, total ascorbic acid",mg,--,--,2.4,24.0
"Vitamin A, IU",IU,--,--,0,0
Lipids
"Fatty acids, total saturated",g,--,--,0.000,0.000
"Fatty acids, total trans",g,--,--,0.000,0.000
"Cholesterol",mg,--,--,0,0
Amino Acids
Other
Ingredients
"PURIFIED SPRING WATER, GREEN HABANERO CHILE, CARROT, IODIZED SEA SALT, ACETIC ACID, CITRIC ACID (AS ANTIOXIDANT), XANTHAN GUM (THICKENER), ONION POWDER, GARLIC POWDER, TURMERIC AND ANNATTO (NATURAL COLOURING), BLUE #1, POTASSIUM SORBATE AND SODIUM BENZOATE (TO CONSERVATIVE)." Date available: 10/04/2017 Date last updated by company: 10/04/2017
