Source: USDA Branded Food Products Database Release December 2017 Software v.3.8.6.4 2017-10-02
Report Run at: December 19, 2017 01:25 EST
"Nutrient data for: 45100332, COST PLUS, MILK CHOCOLATE WITH SPECULOOS FILLING, UPC: 25200003"
Food Group:  Branded Food Products Database
Common Name:

Nutrient,Unit,Data points,Std. Error,"0.5 BAR = 50.0g",1Value per 100 g,
Proximates
"Energy",kcal,--,--,280,560
"Protein",g,--,--,2.00,4.00
"Total lipid (fat)",g,--,--,17.00,34.00
"Carbohydrate, by difference",g,--,--,28.00,56.00
"Fiber, total dietary",g,--,--,1.0,2.0
"Sugars, total",g,--,--,24.00,48.00
Minerals
"Calcium, Ca",mg,--,--,60,120
"Iron, Fe",mg,--,--,0.36,0.72
"Sodium, Na",mg,--,--,65,130
Vitamins
"Vitamin C, total ascorbic acid",mg,--,--,0.0,0.0
"Vitamin A, IU",IU,--,--,0,0
Lipids
"Fatty acids, total saturated",g,--,--,9.000,18.000
"Fatty acids, total trans",g,--,--,0.000,0.000
"Cholesterol",mg,--,--,5,10
Amino Acids
Other
Ingredients
"MILK CHOCOLATE (SUGAR, COCOA BUTTER, COCOA MASS, WHOLE MILK POWDER, SOY LECITHIN [EMULSIFIER], AND NATURAL VANILLA EXTRACT), NATURAL SPECULOOS COOKIE SPREAD (ENRICHED WHEAT FLOUR [WHEAT FLOUR, NIACIN, REDUCED IRON, THIAMINE MONONITRATE, RIBOFLAVIN, FOLIC ACID], SUGAR, NON-HYDROGENATED PALM OIL, MOLASSES, INVERT SYRUP, BAKING SODA, SALT, CANOLA OIL, NATURAL FLAVOR, CINNAMON SUNFLOWER LECITHIN), WHITE CONFECTION (SUGAR, PALM KERNEL OIL, NONFAT MILK, WHOLE MILK, WHEY, HYDROGENATED PALM OIL, SOY LECITHIN [EMULSIFIER], AND VANILLA), PALM KERNEL OIL, WITH CITRIC ACID (PRESERVATIVE), AND HYDROGENATED RAPESEED OIL." Date available: 07/14/2017 Date last updated by company: 07/14/2017
