Source: USDA Branded Food Products Database Release December 2017 Software v.3.8.6.4 2017-10-02
Report Run at: December 19, 2017 01:25 EST
"Nutrient data for: 45169344, COSTA PERUANA, ORGANIC CHILI PASTE, UPC: 832924008806"
Food Group:  Branded Food Products Database
Common Name:

Nutrient,Unit,Data points,Std. Error,"1 Tbsp = 14.0g",1Value per 100 g,
Proximates
"Energy",kcal,--,--,10,71
"Total lipid (fat)",g,--,--,0.00,0.00
"Carbohydrate, by difference",g,--,--,2.00,14.29
Minerals
"Iron, Fe",mg,--,--,1.29,9.18
Vitamins
"Vitamin C, total ascorbic acid",mg,--,--,8.6,61.2
Lipids
"Fatty acids, total saturated",g,--,--,0.000,0.000
"Fatty acids, total trans",g,--,--,0.000,0.000
Amino Acids
Other
Ingredients
"100% ORGANIC AMARILLO CHILI, CITRIC ACID." Date available: 10/13/2017 Date last updated by company: 10/13/2017
