Source: USDA Branded Food Products Database Release December 2017 Software v.3.8.6.4 2017-10-02
Report Run at: December 19, 2017 01:30 EST
"Nutrient data for: 45180012, COTTAGE KITCHEN, CRACKER, UPC: 834202001073"
Food Group:  Branded Food Products Database
Common Name:

Nutrient,Unit,Data points,Std. Error,"4.0 CRACKERS = 21.0g",1Value per 100 g,
Proximates
"Energy",kcal,--,--,60,286
"Protein",g,--,--,2.00,9.52
"Total lipid (fat)",g,--,--,1.50,7.14
"Carbohydrate, by difference",g,--,--,10.00,47.62
"Fiber, total dietary",g,--,--,0.0,0.0
"Sugars, total",g,--,--,0.00,0.00
Minerals
"Calcium, Ca",mg,--,--,0,0
"Iron, Fe",mg,--,--,1.71,8.16
"Sodium, Na",mg,--,--,35,167
Vitamins
"Vitamin C, total ascorbic acid",mg,--,--,0.0,0.0
"Vitamin A, IU",IU,--,--,0,0
Lipids
"Fatty acids, total saturated",g,--,--,0.000,0.000
"Fatty acids, total trans",g,--,--,0.000,0.000
"Cholesterol",mg,--,--,0,0
Amino Acids
Other
Ingredients
"WHEAT FLOUR, WATER, EXTRA VIRGIN OLIVE OIL, SEA SALT." Date available: 07/14/2017 Date last updated by company: 07/14/2017
