Source: USDA Branded Food Products Database Release December 2017 Software v.3.8.6.4 2017-10-02
Report Run at: December 19, 2017 01:33 EST
"Nutrient data for: 45217386, COTTON CANDY, UPC: 720464410084"
Food Group:  Branded Food Products Database
Common Name:

Nutrient,Unit,Data points,Std. Error,"1 ONZ = 28.0g",1Value per 100 g,
Proximates
"Energy",kcal,--,--,110,393
"Protein",g,--,--,0.00,0.00
"Total lipid (fat)",g,--,--,0.00,0.00
"Carbohydrate, by difference",g,--,--,28.00,100.00
"Sugars, total",g,--,--,28.00,100.00
Minerals
"Sodium, Na",mg,--,--,0,0
Vitamins
Lipids
Amino Acids
Other
Ingredients
"PURE CANE SUGAR, COCOA POWDER, ARTIFICIAL FLAVORS & COLORS (YELLOW #5, RED #40, BLUE #1)." Date available: 07/14/2017 Date last updated by company: 07/14/2017
