Source: USDA Branded Food Products Database Release December 2017 Software v.3.8.6.4 2017-10-02
Report Run at: December 19, 2017 01:33 EST
"Nutrient data for: 45157229, COTTONDALE, ASSORTED JELLY BEANS, UPC: 050428504857"
Food Group:  Branded Food Products Database
Common Name:

Nutrient,Unit,Data points,Std. Error,"14.0 PIECES = 41.0g",1Value per 100 g,
Proximates
"Energy",kcal,--,--,150,366
"Protein",g,--,--,0.00,0.00
"Total lipid (fat)",g,--,--,0.00,0.00
"Carbohydrate, by difference",g,--,--,37.00,90.24
"Fiber, total dietary",g,--,--,0.0,0.0
"Sugars, total",g,--,--,30.00,73.17
Minerals
"Sodium, Na",mg,--,--,10,24
Vitamins
Lipids
"Fatty acids, total saturated",g,--,--,0.000,0.000
"Fatty acids, total trans",g,--,--,0.000,0.000
"Cholesterol",mg,--,--,0,0
Amino Acids
Other
Ingredients
"SUGAR, CORN SYRUP, MODIFIED CORNSTARCH, CORNSTARCH, NATURAL AND ARTIFICIAL FLAVORS, CONFECTIONER'S GLAZE (SHELLAC), CARNAUBA WAX, BEESWAX, ARTIFICIAL COLORS RED 40, BLUE 1, YELLOW 5, YELLOW 6, RED 3." Date available: 07/14/2017 Date last updated by company: 07/14/2017
