Source: USDA Branded Food Products Database Release December 2017 Software v.3.8.6.4 2017-10-02
Report Run at: December 19, 2017 01:40 EST
"Nutrient data for: 45202907, COUNTRY FRIES CHICKEN, CHICKEN FRITTER WITH GRAVY, UPC: 811663024100"
Food Group:  Branded Food Products Database
Common Name:

Nutrient,Unit,Data points,Std. Error,"1 BREAST = 170.0g",1Value per 100 g,
Proximates
"Energy",kcal,--,--,340,200
"Protein",g,--,--,21.00,12.35
"Total lipid (fat)",g,--,--,18.00,10.59
"Carbohydrate, by difference",g,--,--,24.00,14.12
"Fiber, total dietary",g,--,--,1.0,0.6
"Sugars, total",g,--,--,1.00,0.59
Minerals
"Calcium, Ca",mg,--,--,20,12
"Iron, Fe",mg,--,--,0.36,0.21
"Sodium, Na",mg,--,--,960,565
Vitamins
"Vitamin C, total ascorbic acid",mg,--,--,0.0,0.0
"Vitamin A, IU",IU,--,--,100,59
Lipids
"Fatty acids, total saturated",g,--,--,7.004,4.120
"Fatty acids, total trans",g,--,--,0.000,0.000
"Cholesterol",mg,--,--,170,100
Amino Acids
Other
Ingredients
"COUNTRY FRIED CHICKEN (COOKED CHICKEN [CHICKEN BREAST WITH RIB MEAT, WATER, SOYBEAN OIL, POTATO STARCH, KOSHER SALT, BLACK PEPPER, GARLIC POWDER, ONION POWDER], LIQUID EGG [WHOLE EGG, LESS THAN 2% CITRIC ACID], BREADING [WHEAT FLOUR, SALT, SPICES, ONION POWDER, NATURAL FLAVORS], SOYBEAN OIL), COUNTRY GRAVY (WATER, MANUFACTURING CREAM [PASTEURIZED GRADE A HEAVY CREAM, CARRAGEENAN], UNSALTED BUTTER [CREAM {MILK}, NATURAL FLAVOR], ENRICHED WHEAT FLOUR [NIACIN, REDUCED IRON, THIAMINE MONONITRATE, RIBOFLAVIN, FOLIC ACID], MODIFIED FOOD STARCH [CORN], KOSHER SALT, CHICKEN BASE [CHICKEN MEAT INCLUDING NATURAL CHICKEN JUICE, CORN OIL, AUTOLYZED YEAST EXTRACT, SUGAR, SALT, MALTODEXTRIN {FROM CORN}, NATURAL FLAVORINGS, POTATO STARCH AND TURMERIC], BLACK PEPPER, DRIED SAGE, XANTHAN GUM)." Date available: 07/14/2017 Date last updated by company: 07/14/2017
