Source: USDA Branded Food Products Database Release December 2017 Software v.3.8.6.4 2017-10-02
Report Run at: December 19, 2017 01:45 EST
"Nutrient data for: 45200494, COUNTRY SMOKED SAUSAGE, UPC: 713985634336"
Food Group:  Branded Food Products Database
Common Name:

Nutrient,Unit,Data points,Std. Error,"2.0 ONZ = 56.0g",1Value per 100 g,
Proximates
"Energy",kcal,--,--,120,214
"Protein",g,--,--,9.00,16.07
"Total lipid (fat)",g,--,--,9.00,16.07
"Carbohydrate, by difference",g,--,--,0.00,0.00
"Fiber, total dietary",g,--,--,0.0,0.0
"Sugars, total",g,--,--,0.00,0.00
Minerals
"Calcium, Ca",mg,--,--,0,0
"Iron, Fe",mg,--,--,0.71,1.26
"Sodium, Na",mg,--,--,390,696
Vitamins
"Vitamin C, total ascorbic acid",mg,--,--,0.0,0.0
"Vitamin A, IU",IU,--,--,0,0
Lipids
"Fatty acids, total saturated",g,--,--,3.002,5.360
"Fatty acids, total trans",g,--,--,0.000,0.000
"Cholesterol",mg,--,--,40,71
Amino Acids
Other
Ingredients
"PORK, WATER, SALT, SUGAR, SPICES, DEXTROSE, MONOSODIUM GLUTAMATE, SODIUM ERYTHORBATE, SODIUM NITRITE, SPICE EXTRACTIVES, EXTRACTIVE OF PAPRIKA." Date available: 07/14/2017 Date last updated by company: 07/14/2017
