Source: USDA Branded Food Products Database Release December 2017 Software v.3.8.6.4 2017-10-02
Report Run at: December 19, 2017 01:38 EST
"Nutrient data for: 45080562, COUNTRY CROCK, ORIGINAL, 60% VEGETABLE OIL SPREAD, UPC: 027400103209"
Food Group:  Branded Food Products Database
Common Name:

Nutrient,Unit,Data points,Std. Error,"1 Tbsp = 14.0g",1Value per 100 g,
Proximates
"Energy",kcal,--,--,80,571
"Protein",g,--,--,0.00,0.00
"Total lipid (fat)",g,--,--,8.00,57.14
"Carbohydrate, by difference",g,--,--,0.00,0.00
Minerals
"Sodium, Na",mg,--,--,95,679
Vitamins
"Vitamin A, IU",IU,--,--,1690,12075
Lipids
"Fatty acids, total saturated",g,--,--,2.500,17.860
"Fatty acids, total monounsaturated",g,--,--,3.000,21.430
"Fatty acids, total polyunsaturated",g,--,--,2.500,17.860
"Fatty acids, total trans",g,--,--,0.000,0.000
Amino Acids
Other
Ingredients
"VEGETABLE OIL BLEND (SOYBEAN OIL, PALM OIL, CANOLA OIL, PALM KERNEL OIL), WATER, WHEY (MILK), SALT, SOY LECITHIN, POTASSIUM SORBATE (USED TO PROTECT QUALITY), MONO AND DIGLYCERIDES, CITRIC ACID, ARTIFICIAL FLAVOR, VITAMIN A (PALMITATE), BETA CAROTENE (COLOR)." Date available: 07/14/2017 Date last updated by company: 07/14/2017
