Source: USDA Branded Food Products Database Release December 2017 Software v.3.8.6.4 2017-10-02
Report Run at: December 19, 2017 01:43 EST
"Nutrient data for: 45051904, COUNTRY MAID, EGG SALAD, UPC: 021739548137"
Food Group:  Branded Food Products Database
Common Name:

Nutrient,Unit,Data points,Std. Error,"0.5 cup = 100.0g",1Value per 100 g,
Proximates
"Energy",kcal,--,--,220,220
"Protein",g,--,--,9.00,9.00
"Total lipid (fat)",g,--,--,16.00,16.00
"Carbohydrate, by difference",g,--,--,7.00,7.00
"Fiber, total dietary",g,--,--,0.0,0.0
"Sugars, total",g,--,--,3.00,3.00
Minerals
"Calcium, Ca",mg,--,--,40,40
"Iron, Fe",mg,--,--,0.00,0.00
"Sodium, Na",mg,--,--,520,520
Vitamins
"Vitamin C, total ascorbic acid",mg,--,--,0.0,0.0
"Vitamin A, IU",IU,--,--,400,400
Lipids
"Fatty acids, total saturated",g,--,--,3.500,3.500
"Fatty acids, total trans",g,--,--,0.000,0.000
"Cholesterol",mg,--,--,275,275
Amino Acids
Other
Ingredients
"EGGS, SALAD DRESSING (SOYBEAN OIL,WATER, HIGH FRUCTOSE CAN SYRUP, DISTILLED VINEGAR EGG YOLKS, MODIFIED CORN STARCH, SALT, MUSTARD FLOUR, NON POWDER, CALCIUM DISODIUM EDTA , NATURAL FLAVOR), CELERY BREAD CRUMBS (BLEACHED WHEAT FLOUR, YEAST, SUGAR, SALT), SALT, SWEET PICKLE RELISH (CUCUMBERS, HIGH FRUCTOSE CAN SYRUP, WATER, VINEGAR SALT, CALCIUM CHLORIDE, XANTHAN GUM, SODIUM BENZOATE AS A PRESERVATIVE, NATURAL FLAVORING, OLEORESIN TURMERIC, ALUM, POLYSORBATE 80), MUSTARD (WATER, VINEGAR MUSTARD SEED, SALT TURMERIC, SPICES), POTASSIUM SORBATE AS A PRESERVATIVE, WHITE PEPPER." Date available: 06/24/2017 Date last updated by company: 06/24/2017
