Source: USDA Branded Food Products Database Release December 2017 Software v.3.8.6.4 2017-10-02
Report Run at: December 19, 2017 01:35 EST
"Nutrient data for: 45096410, COUNTRY ARCHER, BEEF JERKY, MANGO HABANERO, UPC: 853016002960"
Food Group:  Branded Food Products Database
Common Name:

Nutrient,Unit,Data points,Std. Error,"1 ONZ = 28.0g",1Value per 100 g,
Proximates
"Energy",kcal,--,--,80,286
"Protein",g,--,--,10.00,35.71
"Total lipid (fat)",g,--,--,1.00,3.57
"Carbohydrate, by difference",g,--,--,7.00,25.00
"Fiber, total dietary",g,--,--,0.0,0.0
"Sugars, total",g,--,--,6.00,21.43
Minerals
"Calcium, Ca",mg,--,--,0,0
"Iron, Fe",mg,--,--,1.93,6.88
"Sodium, Na",mg,--,--,170,607
Vitamins
"Vitamin C, total ascorbic acid",mg,--,--,0.0,0.0
"Vitamin A, IU",IU,--,--,179,638
Lipids
"Fatty acids, total saturated",g,--,--,0.000,0.000
"Fatty acids, total trans",g,--,--,0.000,0.000
"Cholesterol",mg,--,--,20,71
Amino Acids
Other
Ingredients
"GRASS FED BEEF, SUGAR (ORGANIC SUGAR, ORGANIC MOLASSES), MANGO PUREE, GLUTEN FREE TAMARI SOY SAUCE SOY BEANS, SALT, ALCOHOL), ORGANIC SEASONED RICE VINEGAR DRESSING (ORGANIC RICE VINEGAR, ORGANIC SUGAR, WATER, SALT), GARLIC, RED CHILI PEPPER, HABANERO CHILI PEPPER." Date available: 06/25/2017 Date last updated by company: 06/25/2017
