Source: USDA Branded Food Products Database Release December 2017 Software v.3.8.6.4 2017-10-02
Report Run at: December 19, 2017 01:39 EST
"Nutrient data for: 45165437, COUNTRY FRESH, GRANNY SMITH APPLE PIE FUDGE, UPC: 602756512341"
Food Group:  Branded Food Products Database
Common Name:

Nutrient,Unit,Data points,Std. Error,"1 ONZ = 28.0g",1Value per 100 g,
Proximates
"Energy",kcal,--,--,120,429
"Protein",g,--,--,0.00,0.00
"Total lipid (fat)",g,--,--,3.00,10.71
"Carbohydrate, by difference",g,--,--,24.00,85.71
"Fiber, total dietary",g,--,--,0.0,0.0
"Sugars, total",g,--,--,22.00,78.57
Minerals
"Calcium, Ca",mg,--,--,0,0
"Iron, Fe",mg,--,--,0.00,0.00
"Sodium, Na",mg,--,--,20,71
Vitamins
"Vitamin C, total ascorbic acid",mg,--,--,0.0,0.0
"Vitamin A, IU",IU,--,--,357,1275
Lipids
"Fatty acids, total saturated",g,--,--,1.501,5.360
"Fatty acids, total trans",g,--,--,0.000,0.000
"Cholesterol",mg,--,--,5,18
Amino Acids
Other
Ingredients
"SUGAR, BUTTER, WALNUTS, APPLES, PALM KERNEL OIL, CORN SYRUP SOLIDS, CREAM , BROWN SUGAR, POTASSIUM SORBATE (PRESERVATIVE), SALT, CARAMEL COLOR, SPICES, NATURAL AND ARTIFICIAL FLAVORS." Date available: 08/18/2017 Date last updated by company: 08/18/2017
