Source: USDA Branded Food Products Database Release December 2017 Software v.3.8.6.4 2017-10-02
Report Run at: December 19, 2017 01:43 EST
"Nutrient data for: 45222989, COUNTRY KITCHEN, WHOLE GRAIN WHEAT HAMBURG ROLLS, UPC: 073402220406"
Food Group:  Branded Food Products Database
Common Name:

Nutrient,Unit,Data points,Std. Error,"1 ROLL = 46.0g",1Value per 100 g,
Proximates
"Energy",kcal,--,--,130,283
"Protein",g,--,--,5.00,10.87
"Total lipid (fat)",g,--,--,1.50,3.26
"Carbohydrate, by difference",g,--,--,25.00,54.35
"Fiber, total dietary",g,--,--,3.0,6.5
"Sugars, total",g,--,--,4.00,8.70
Minerals
"Calcium, Ca",mg,--,--,60,130
"Iron, Fe",mg,--,--,1.56,3.40
"Sodium, Na",mg,--,--,230,500
Vitamins
"Vitamin C, total ascorbic acid",mg,--,--,0.0,0.0
"Thiamin",mg,--,--,0.460,1.000
"Riboflavin",mg,--,--,0.068,0.148
"Niacin",mg,--,--,1.740,3.783
"Vitamin A, IU",IU,--,--,0,0
Lipids
"Fatty acids, total saturated",g,--,--,0.000,0.000
"Fatty acids, total trans",g,--,--,0.000,0.000
"Cholesterol",mg,--,--,0,0
Amino Acids
Other
Ingredients
"100% WHOLE WHEAT FLOUR, WHEAT FLOUR [ENRICHED WITH BARLEY MALT, NIACIN, IRON, THIAMINE MONONITRATE, RIBOFLAVIN, FOLIC ACID], WATER, HIGH FRUCTOSE CORN SYRUP, YEAST, WHEAT GLUTEN. CONTAINS 2% OR LESS OF EACH OF THE FOLLOWING: SOYBEAN OIL, CORN STARCH, SALT, DOUGH CONDITIONER (DATEM), CALCIUM SULFATE, CALCIUM PROPIONATE (TO RETARD SPOILAGE), CALCIUM, PEROXIDE, GUAR GUM, SOY LECITHIN, WHEAT BRAN." Date available: 07/14/2017 Date last updated by company: 07/14/2017
