Source: USDA Branded Food Products Database Release December 2017 Software v.3.8.6.4 2017-10-02
Report Run at: December 19, 2017 01:48 EST
"Nutrient data for: 45270176, COUNTRY WHITE ARTISAN BREAD MIX, UPC: 041449700069"
Food Group:  Branded Food Products Database
Common Name:

Nutrient,Unit,Data points,Std. Error,"0.1 LOAF) | CUP MIX (AMOUNT FOR ONE SLICE, = 40.0g",1Value per 100 g,
Proximates
"Energy",kcal,--,--,150,375
"Protein",g,--,--,4.00,10.00
"Total lipid (fat)",g,--,--,2.00,5.00
"Carbohydrate, by difference",g,--,--,28.00,70.00
"Fiber, total dietary",g,--,--,1.0,2.5
"Sugars, total",g,--,--,3.00,7.50
Minerals
"Calcium, Ca",mg,--,--,0,0
"Iron, Fe",mg,--,--,1.44,3.60
"Sodium, Na",mg,--,--,250,625
Vitamins
"Vitamin C, total ascorbic acid",mg,--,--,0.0,0.0
"Vitamin A, IU",IU,--,--,0,0
Lipids
"Fatty acids, total saturated",g,--,--,0.000,0.000
"Fatty acids, total trans",g,--,--,0.000,0.000
"Cholesterol",mg,--,--,0,0
Amino Acids
Other
Ingredients
"ENRICHED BLEACHED FLOUR (WHEAT FLOUR, NIACIN, REDUCED IRON, THIAMIN MONONITRATE, RIBOFLAVIN, FOLIC ACID, MALTED BARLEY FLOUR, ASCORBIC ACID), SUGAR, SOYBEAN OIL, NONFAT MILK, SALT, SOY LECITHIN (EMULSIFIER), ENZYMES. YEAST PACKET INGREDIENTS: ACTIVE YEAST, ASCORBIC ACID, SORBITAN MONOSTEARATE." Date available: 07/14/2017 Date last updated by company: 07/14/2017
