Source: USDA Branded Food Products Database Release December 2017 Software v.3.8.6.4 2017-10-02
Report Run at: December 19, 2017 01:37 EST
"Nutrient data for: 45029798, COUNTRY CHOICE, ORGANIC YELLOW CORN, UPC: 729906119981"
Food Group:  Branded Food Products Database
Common Name:

Nutrient,Unit,Data points,Std. Error,"0.25 cup = 37.0g",1Value per 100 g,
Proximates
"Energy",kcal,--,--,130,351
"Protein",g,--,--,3.00,8.11
"Total lipid (fat)",g,--,--,0.50,1.35
"Carbohydrate, by difference",g,--,--,29.00,78.38
"Fiber, total dietary",g,--,--,2.0,5.4
"Sugars, total",g,--,--,0.00,0.00
Minerals
"Calcium, Ca",mg,--,--,0,0
"Iron, Fe",mg,--,--,1.95,5.26
"Sodium, Na",mg,--,--,0,0
Vitamins
"Vitamin C, total ascorbic acid",mg,--,--,0.0,0.0
"Thiamin",mg,--,--,0.370,1.000
"Riboflavin",mg,--,--,0.102,0.276
"Niacin",mg,--,--,2.162,5.843
"Vitamin A, IU",IU,--,--,0,0
Lipids
"Fatty acids, total saturated",g,--,--,0.000,0.000
"Fatty acids, total monounsaturated",g,--,--,0.000,0.000
"Fatty acids, total polyunsaturated",g,--,--,0.000,0.000
"Fatty acids, total trans",g,--,--,0.000,0.000
"Cholesterol",mg,--,--,0,0
Amino Acids
Other
Ingredients
"ORGANIC YELLOW CORN GRITS." Date available: 06/24/2017 Date last updated by company: 06/24/2017
