Source: USDA Branded Food Products Database Release December 2017 Software v.3.8.6.4 2017-10-02
Report Run at: December 19, 2017 01:45 EST
"Nutrient data for: 45167057, COUNTRY SAUSAGE, UPC: 070505152009"
Food Group:  Branded Food Products Database
Common Name:

Nutrient,Unit,Data points,Std. Error,"3.0 UNCOOKED LINKS = 72.0g",1Value per 100 g,
Proximates
"Energy",kcal,--,--,280,389
"Protein",g,--,--,8.00,11.11
"Total lipid (fat)",g,--,--,24.00,33.33
"Carbohydrate, by difference",g,--,--,0.00,0.00
"Fiber, total dietary",g,--,--,0.0,0.0
"Sugars, total",g,--,--,0.00,0.00
Minerals
"Calcium, Ca",mg,--,--,0,0
"Iron, Fe",mg,--,--,0.55,0.77
"Sodium, Na",mg,--,--,390,542
Vitamins
"Vitamin C, total ascorbic acid",mg,--,--,0.0,0.0
"Vitamin A, IU",IU,--,--,0,0
Lipids
"Fatty acids, total saturated",g,--,--,6.998,9.720
"Fatty acids, total trans",g,--,--,0.000,0.000
"Cholesterol",mg,--,--,60,83
Amino Acids
Other
Ingredients
"PORK (INCLUDING THE HAM, LOIN, AND TENDERLOIN), WATER, SALT, SEASONING (SPICES), SUGAR, AND MONOSODIUM GLUTAMATE. ENCLOSED IN A REGENERATED COLLAGEN CASING." Date available: 07/14/2017 Date last updated by company: 07/14/2017
