Source: USDA Branded Food Products Database Release December 2017 Software v.3.8.6.4 2017-10-02
Report Run at: December 19, 2017 01:49 EST
"Nutrient data for: 45325484, COUSCOUS MIX, UPC: 072251001556"
Food Group:  Branded Food Products Database
Common Name:

Nutrient,Unit,Data points,Std. Error,"0.333 CUP DRY COUSCOUS & 1 TBSP SEASONING MIX | ABOUT = 56.0g",1Value per 100 g,
Proximates
"Energy",kcal,--,--,190,339
"Protein",g,--,--,7.00,12.50
"Total lipid (fat)",g,--,--,1.50,2.68
"Carbohydrate, by difference",g,--,--,40.00,71.43
"Fiber, total dietary",g,--,--,2.0,3.6
"Sugars, total",g,--,--,0.00,0.00
Minerals
"Calcium, Ca",mg,--,--,0,0
"Iron, Fe",mg,--,--,4.50,8.04
"Sodium, Na",mg,--,--,500,893
Vitamins
"Vitamin C, total ascorbic acid",mg,--,--,0.0,0.0
"Vitamin A, IU",IU,--,--,0,0
Lipids
"Fatty acids, total saturated",g,--,--,0.000,0.000
"Fatty acids, total trans",g,--,--,0.000,0.000
"Cholesterol",mg,--,--,0,0
Amino Acids
Other
Ingredients
"COUSCOUS (WHEAT), AUTOLYZED YEAST EXTRACT, OLIVE OIL, SALT, GARLIC, ONIONS, SOY PROTEIN ISOLATE, PARSLEY, YEAST EXTRACT, NATURAL FLAVOR, WHITE PEPPER, TOCOPHEROLS (PRESERVATIVE), SOY SAUCE (SOYBEAN, WHEAT, SALT)." Date available: 08/11/2017 Date last updated by company: 08/11/2017
