Source: USDA Branded Food Products Database Release December 2017 Software v.3.8.6.4 2017-10-02
Report Run at: December 19, 2017 01:49 EST
"Nutrient data for: 45282805, COUSCOUS PEARL PASTA VEGETABLES, UPC: 813568003235"
Food Group:  Branded Food Products Database
Common Name:

Nutrient,Unit,Data points,Std. Error,"0.5 cup = 70.0g",1Value per 100 g,
Proximates
"Energy",kcal,--,--,160,229
"Protein",g,--,--,6.00,8.57
"Total lipid (fat)",g,--,--,1.00,1.43
"Carbohydrate, by difference",g,--,--,40.00,57.14
"Fiber, total dietary",g,--,--,6.0,8.6
"Sugars, total",g,--,--,1.00,1.43
Minerals
"Calcium, Ca",mg,--,--,40,57
"Iron, Fe",mg,--,--,7.20,10.29
"Sodium, Na",mg,--,--,10,14
Vitamins
"Vitamin C, total ascorbic acid",mg,--,--,12.0,17.1
"Vitamin A, IU",IU,--,--,2500,3571
Lipids
"Fatty acids, total saturated",g,--,--,0.000,0.000
"Fatty acids, total trans",g,--,--,0.000,0.000
"Cholesterol",mg,--,--,0,0
Amino Acids
Other
Ingredients
"PEARL PASTA COUSCOUS (WHEAT FLOUR), DRIED VEGETABLES (CARROTS, POTATOES, RED BELL PEPPERS), TOASTED ONIONS, CURRANTS, DILL, SPICES, SALT, MUSTARD SEEDS" Date available: 07/14/2017 Date last updated by company: 07/14/2017
