Source: USDA Branded Food Products Database Release December 2017 Software v.3.8.6.4 2017-10-02
Report Run at: December 19, 2017 01:50 EST
"Nutrient data for: 45078019, COUSCOUS, UPC: 077544276062"
Food Group:  Branded Food Products Database
Common Name:

Nutrient,Unit,Data points,Std. Error,"1.75 ONZ = 50.0g",1Value per 100 g,
Proximates
"Energy",kcal,--,--,180,360
"Protein",g,--,--,6.00,12.00
"Total lipid (fat)",g,--,--,0.50,1.00
"Carbohydrate, by difference",g,--,--,39.00,78.00
"Fiber, total dietary",g,--,--,2.0,4.0
Minerals
"Iron, Fe",mg,--,--,2.02,4.03
Vitamins
Lipids
"Fatty acids, total saturated",g,--,--,0.000,0.000
"Fatty acids, total trans",g,--,--,0.000,0.000
Amino Acids
Other
Ingredients
"WHEAT FLOUR, ROSEMARY EXTRACT" Date available: 06/25/2017 Date last updated by company: 06/25/2017
