Source: USDA Branded Food Products Database Release December 2017 Software v.3.8.6.4 2017-10-02
Report Run at: December 19, 2017 01:50 EST
"Nutrient data for: 45144820, COVERED CRANBERRY, UPC: 655852001899"
Food Group:  Branded Food Products Database
Common Name:

Nutrient,Unit,Data points,Std. Error,"0.25 cup = 40.0g",1Value per 100 g,
Proximates
"Energy",kcal,--,--,185,462
"Protein",g,--,--,1.00,2.50
"Total lipid (fat)",g,--,--,10.00,25.00
"Carbohydrate, by difference",g,--,--,27.00,67.50
"Fiber, total dietary",g,--,--,2.0,5.0
"Sugars, total",g,--,--,25.00,62.50
Minerals
"Calcium, Ca",mg,--,--,20,50
"Iron, Fe",mg,--,--,0.68,1.69
"Sodium, Na",mg,--,--,25,62
Vitamins
"Vitamin C, total ascorbic acid",mg,--,--,0.0,0.0
"Vitamin A, IU",IU,--,--,0,0
Lipids
"Fatty acids, total saturated",g,--,--,7.000,17.500
"Fatty acids, total trans",g,--,--,0.000,0.000
"Cholesterol",mg,--,--,0,0
Amino Acids
Other
Ingredients
"NATURAL YOGURT CRANBERRIES [NATURAL YOGURT (SUCROSE, FRACTIONATED PALM KERNEL OIL, WHEY POWDER, NONFAT DRY MILK POWDER, YOGURT POWDER (CULTURED WHEY, NONFAT MILK), SOY LECITHIN (EMULSIFIER), VANILLA)], CRANBERRIES [SUGAR, SUNFLOWER OIL) AND CONFECTIONERS GLAZE, DARK CHOCOLATE CRANBERRIES [SUGAR, CHOCOLATE LIQUOR, COCOA BUTTER, CHOCOLATE LIQUOR PROCESSES WITH ALKALI, SOY LECITHIN (EMULSIFIER), SALT, VANILLA], CRANBERRIES (SUGAR, SUNFLOWER OIL) AND CONFECTIONERS GLAZE." Date available: 07/14/2017 Date last updated by company: 07/14/2017
