Source: USDA Branded Food Products Database Release December 2017 Software v.3.8.6.4 2017-10-02
Report Run at: December 19, 2017 01:53 EST
"Nutrient data for: 45287897, CRAB FLAVORED SURIMI SEAFOOD FLAKE, UPC: 605453320202"
Food Group:  Branded Food Products Database
Common Name:

Nutrient,Unit,Data points,Std. Error,"0.5 cup = 85.0g",1Value per 100 g,
Proximates
"Energy",kcal,--,--,90,106
"Protein",g,--,--,7.00,8.24
"Total lipid (fat)",g,--,--,0.00,0.00
"Carbohydrate, by difference",g,--,--,15.00,17.65
"Fiber, total dietary",g,--,--,0.0,0.0
"Sugars, total",g,--,--,3.00,3.53
Minerals
"Calcium, Ca",mg,--,--,0,0
"Iron, Fe",mg,--,--,0.47,0.55
"Sodium, Na",mg,--,--,350,412
Vitamins
"Vitamin C, total ascorbic acid",mg,--,--,0.0,0.0
"Vitamin A, IU",IU,--,--,129,152
Lipids
"Fatty acids, total saturated",g,--,--,0.000,0.000
"Fatty acids, total trans",g,--,--,0.000,0.000
"Cholesterol",mg,--,--,10,12
Amino Acids
Other
Ingredients
"POLLOCK AND/OR WHITING, WATER, POTATO STARCH, CORN STARCH, SUGAR, SORBITOL, SALT, EGG WHITES, KOSHER CRAB FLAVOR, CALCIUM CARBONATE, TRIPOLYPHOSPHATE, TETRASODIUM PYROPHOSPHATE, PAPRIKA COLOR." Date available: 09/22/2017 Date last updated by company: 09/22/2017
