Source: USDA Branded Food Products Database Release December 2017 Software v.3.8.6.4 2017-10-02
Report Run at: December 19, 2017 01:55 EST
"Nutrient data for: 45051984, CRAB & SHRIMP CAKES, UPC: 073994005962"
Food Group:  Branded Food Products Database
Common Name:

Nutrient,Unit,Data points,Std. Error,"1 CAKE = 85.0g",1Value per 100 g,
Proximates
"Energy",kcal,--,--,180,212
"Protein",g,--,--,10.00,11.76
"Total lipid (fat)",g,--,--,13.00,15.29
"Carbohydrate, by difference",g,--,--,6.00,7.06
"Fiber, total dietary",g,--,--,0.0,0.0
"Sugars, total",g,--,--,0.00,0.00
Minerals
"Calcium, Ca",mg,--,--,80,94
"Iron, Fe",mg,--,--,0.36,0.42
"Sodium, Na",mg,--,--,350,412
Vitamins
"Vitamin C, total ascorbic acid",mg,--,--,0.0,0.0
"Vitamin A, IU",IU,--,--,0,0
Lipids
"Fatty acids, total saturated",g,--,--,1.998,2.350
"Fatty acids, total trans",g,--,--,0.000,0.000
"Cholesterol",mg,--,--,110,129
Amino Acids
Other
Ingredients
"CRAB MEAT, SHRIMP, MAYONNAISE (SOYBEAN OIL, EGG AND EGG YOLK, WATER, SUGAR, VINEGAR, SALT, MUSTARD POWDER, ACETIC ACID, XANTHAN GUM). GLUTEN FREE BREAD CRUMBS (RICE FLOUR, WATER, EGGS, TAPICO STARCH, POTATO STARCH, SUGAR, REFINED SOYBEAN OIL, SALT, YEAST, GUAR GUM), EGGS, SCALLIONS, CORNSTARCH, DIJON MUSTARD (DISTILLED VINEGAR, WATER, NO. 1 GRADE MUSTARD SEED, SALT, WHITE WINE, CITRIC ACID, TARTARIC ACID, SPICES AND TURMERIC), SEASONING (CELERY SALT [SALT, CELERY SEED], SPICES AND TURMERIC), SEASONING (CELERY SALT [SALT, CELERY SEED], SPICES [INCLUDING MUSTARD, RED PEPPERS, BLACK PEPPERS, BAY (LAUREL) LEAVES, CLOVES, ALLSPICE (PIMENTO), GINGER MACE, CARDAMOM, CINNAMON], PAPRIKA), WORCESTERSHIRE SAUCE (DISTILLED VINEGAR, MOLASSES, CORN SYRUP, WATER, SALT, CARAMEL COLOR, SUGAR, SPICES, ANCHOVIES, TAMARIND, NATURAL FLAVOR [CONTAINS SOY]), HOT SAUCE (DISTILLED VINEGAR, RED PEPPER, SALT), GARLIC." Date available: 06/25/2017 Date last updated by company: 06/25/2017
