Source: USDA Branded Food Products Database Release December 2017 Software v.3.8.6.4 2017-10-02
Report Run at: December 19, 2017 01:53 EST
"Nutrient data for: 45226419, CRAB CLASSIC, UPC: 715166138114"
Food Group:  Branded Food Products Database
Common Name:

Nutrient,Unit,Data points,Std. Error,"1 PACKAGE = 64.0g",1Value per 100 g,
Proximates
"Energy",kcal,--,--,60,94
"Protein",g,--,--,5.00,7.81
"Total lipid (fat)",g,--,--,0.00,0.00
"Carbohydrate, by difference",g,--,--,11.00,17.19
"Fiber, total dietary",g,--,--,0.0,0.0
"Sugars, total",g,--,--,3.00,4.69
Minerals
"Calcium, Ca",mg,--,--,0,0
"Iron, Fe",mg,--,--,0.00,0.00
"Sodium, Na",mg,--,--,340,531
Vitamins
"Vitamin C, total ascorbic acid",mg,--,--,0.0,0.0
"Vitamin A, IU",IU,--,--,0,0
Lipids
"Fatty acids, total saturated",g,--,--,0.000,0.000
"Fatty acids, total monounsaturated",g,--,--,0.000,0.000
"Fatty acids, total polyunsaturated",g,--,--,0.000,0.000
"Fatty acids, total trans",g,--,--,0.000,0.000
"Cholesterol",mg,--,--,5,8
Amino Acids
Other
Ingredients
"ALASKA POLLOCK, WATER, EGG WHITES, WHEAT STARCH, SUGAR, CORN STARCH, SORBITOL, CONTAINS 2% OR LESS OF THE FOLLOWING: KING CRAB MEAT, NATURAL AND ARTIFICIAL FLAVOR, EXTRACTS OF CRAB, OYSTER, SCALLOP, LOBSTER AND FISH (SALMON, ANCHOVY, BONITO, CUTLASSFISH), REFINED FISH OIL* (ANCHOVY, SARDINE), RICE WINE (RICE, WATER, KOJI, YEAST, SALT), SEA SALT, MODIFIED TAPIOCA STARCH, CARRAGEENAN, YAM FLOUR, HYDROLYZED SOY, CORN, AND WHEAT PROTEINS, POTASSIUM CHLORIDE, DISODIUM INOSINATE AND GUANYLATE, SODIUM PYROPHOSPHATE, CARMINE, PAPRIKA, COLOR ADDED." Date available: 07/14/2017 Date last updated by company: 07/14/2017
