Source: USDA Branded Food Products Database Release December 2017 Software v.3.8.6.4 2017-10-02
Report Run at: December 19, 2017 01:54 EST
"Nutrient data for: 45255591, CRABMEAT, UPC: 851270005222"
Food Group:  Branded Food Products Database
Common Name:

Nutrient,Unit,Data points,Std. Error,"0.333 CUP) (FOR 16OZ TIN) | ( = 56.0g",1Value per 100 g,
Proximates
"Energy",kcal,--,--,45,80
"Protein",g,--,--,11.00,19.64
"Total lipid (fat)",g,--,--,0.00,0.00
"Carbohydrate, by difference",g,--,--,0.00,0.00
Minerals
"Calcium, Ca",mg,--,--,60,107
"Iron, Fe",mg,--,--,4.10,7.32
"Sodium, Na",mg,--,--,220,393
Vitamins
"Vitamin C, total ascorbic acid",mg,--,--,0.0,0.0
"Vitamin A, IU",IU,--,--,0,0
Lipids
"Cholesterol",mg,--,--,65,116
Amino Acids
Other
Ingredients
"RED SWIMMING CRAB MEAT (PORTUNUS HAANII) SODIUM ACID PYROPHOSPHATE (TO PREVENT THE FORMATION OF STRUVITE CRYSTALS)." Date available: 10/19/2017 Date last updated by company: 10/19/2017
