Source: USDA Branded Food Products Database Release December 2017 Software v.3.8.6.4 2017-10-02
Report Run at: December 19, 2017 01:54 EST
"Nutrient data for: 45199171, CRAB RANGOON, UPC: 079300851896"
Food Group:  Branded Food Products Database
Common Name:

Nutrient,Unit,Data points,Std. Error,"3.0 PIECES = 84.0g",1Value per 100 g,
Proximates
"Energy",kcal,--,--,210,250
"Protein",g,--,--,9.00,10.71
"Total lipid (fat)",g,--,--,8.00,9.52
"Carbohydrate, by difference",g,--,--,26.00,30.95
"Fiber, total dietary",g,--,--,1.0,1.2
"Sugars, total",g,--,--,1.00,1.19
Minerals
"Calcium, Ca",mg,--,--,60,71
"Iron, Fe",mg,--,--,6.38,7.59
"Sodium, Na",mg,--,--,390,464
Vitamins
"Vitamin C, total ascorbic acid",mg,--,--,0.0,0.0
"Vitamin A, IU",IU,--,--,202,241
Lipids
"Fatty acids, total saturated",g,--,--,2.999,3.570
"Fatty acids, total trans",g,--,--,0.000,0.000
"Cholesterol",mg,--,--,20,24
Amino Acids
Other
Ingredients
"WONTON WRAPPER [BLEACHED WHEAT FLOUR, WATER, PASTEURIZED LIQUID EGGS, CORN STARCH, SALT, ASCORBIC ACID AND CITRIC ACID (ANTIOXIDANTS), POTASSIUM SORBATE (PRESERVATIVE)], CREAM CHEESE [PASTEURIZED, CULTURED MILK AND CREAM, SALT, STABILIZERS (XANTHAN, CAROB BEAN AND/OR GUAR GUMS)], ROCK CRAB MEAT (MINCED CRAB MEAT, SALT), SCALLION, SOY SAUCE [WATER, WHEAT, SOYBEANS, SALT, SODIUM BENZOATE (LESS THAN 1/10 OF 1% AS A PRESERVATIVE)], SUGAR, GARLIC POWDER, WHITE PEPPER, PARFRIED IN SOYBEAN OIL." Date available: 07/14/2017 Date last updated by company: 07/14/2017
