Source: USDA Branded Food Products Database Release December 2017 Software v.3.8.6.4 2017-10-02
Report Run at: December 19, 2017 02:01 EST
"Nutrient data for: 45136453, CRACKER, UPC: 8801019300974"
Food Group:  Branded Food Products Database
Common Name:

Nutrient,Unit,Data points,Std. Error,"1 PACK, PER CONTAINER = 22.0g",1Value per 100 g,
Proximates
"Energy",kcal,--,--,120,545
"Protein",g,--,--,2.00,9.09
"Total lipid (fat)",g,--,--,6.00,27.27
"Carbohydrate, by difference",g,--,--,14.00,63.64
"Fiber, total dietary",g,--,--,0.0,0.0
"Sugars, total",g,--,--,4.00,18.18
Minerals
"Calcium, Ca",mg,--,--,1,5
"Iron, Fe",mg,--,--,0.00,0.00
"Sodium, Na",mg,--,--,70,318
Vitamins
"Vitamin C, total ascorbic acid",mg,--,--,0.0,0.0
"Vitamin A, IU",IU,--,--,0,0
Lipids
"Fatty acids, total saturated",g,--,--,3.001,13.640
"Fatty acids, total trans",g,--,--,0.000,0.000
"Cholesterol",mg,--,--,0,0
Amino Acids
Other
Ingredients
"WHEAT FLOUR, SUGAR, ALMOND, PALM OIL, SHORTENING, WHOLE EGG, CORN SYRUP, SALT, NATURAL CALCIUM" Date available: 06/25/2017 Date last updated by company: 06/25/2017
