Source: USDA Branded Food Products Database Release December 2017 Software v.3.8.6.4 2017-10-02
Report Run at: December 19, 2017 02:02 EST
"Nutrient data for: 45037066, CRACOVIA, CUCUMBER IN BRINE, UPC: 074854351311"
Food Group:  Branded Food Products Database
Common Name:

Nutrient,Unit,Data points,Std. Error,"100.0 GRM = 100.0g",1Value per 100 g,
Proximates
"Energy",kcal,--,--,10,10
"Protein",g,--,--,0.50,0.50
"Total lipid (fat)",g,--,--,0.00,0.00
"Carbohydrate, by difference",g,--,--,2.00,2.00
"Fiber, total dietary",g,--,--,0.5,0.5
"Sugars, total",g,--,--,0.50,0.50
Minerals
"Calcium, Ca",mg,--,--,18,18
"Iron, Fe",mg,--,--,0.50,0.50
"Potassium, K",mg,--,--,100,100
"Sodium, Na",mg,--,--,600,600
Vitamins
"Vitamin C, total ascorbic acid",mg,--,--,4.0,4.0
Lipids
"Fatty acids, total saturated",g,--,--,0.000,0.000
"Fatty acids, total trans",g,--,--,0.000,0.000
"Cholesterol",mg,--,--,0,0
Amino Acids
Other
Ingredients
"CUCUMBERS, WATER, SALT, SPICES." Date available: 06/24/2017 Date last updated by company: 06/24/2017
