Source: USDA Branded Food Products Database Release December 2017 Software v.3.8.6.4 2017-10-02
Report Run at: December 19, 2017 02:02 EST
"Nutrient data for: 45289178, CRAFT COLA REDUX, UPC: 817992020103"
Food Group:  Branded Food Products Database
Common Name:

Nutrient,Unit,Data points,Std. Error,"1 CUP = 236.6g",1Value per 100 g,
Proximates
"Energy",kcal,--,--,40,17
"Protein",g,--,--,0.00,0.00
"Total lipid (fat)",g,--,--,0.00,0.00
"Carbohydrate, by difference",g,--,--,10.01,4.23
"Sugars, total",g,--,--,8.00,3.38
Minerals
"Sodium, Na",mg,--,--,0,0
Vitamins
Lipids
Amino Acids
Other
Ingredients
"BLACK TEA KOMBUCHA CULTURE+* (REVIVE KOMBUCHA CULTURE IS FERMENTED IN A PURIFIED BREW OF: BLACK TEA+[tilde] AND CANE SUGAR+[tilde]), RAW LEMON JUICE+#, VANILLA EXTRACT+[tilde], ALMOND EXTRACT (ALMOND)+" Date available: 07/14/2017 Date last updated by company: 07/14/2017
