Source: USDA Branded Food Products Database Release December 2017 Software v.3.8.6.4 2017-10-02
Report Run at: December 19, 2017 02:05 EST
"Nutrient data for: 45268331, CRANBERRY BLISS BAR, UPC: 762111190123"
Food Group:  Branded Food Products Database
Common Name:

Nutrient,Unit,Data points,Std. Error,"1 BAR = 69.0g",1Value per 100 g,
Proximates
"Energy",kcal,--,--,300,435
"Protein",g,--,--,3.00,4.35
"Total lipid (fat)",g,--,--,15.00,21.74
"Carbohydrate, by difference",g,--,--,37.00,53.62
"Fiber, total dietary",g,--,--,1.0,1.4
"Sugars, total",g,--,--,26.00,37.68
Minerals
"Calcium, Ca",mg,--,--,40,58
"Iron, Fe",mg,--,--,0.86,1.25
"Sodium, Na",mg,--,--,230,333
Vitamins
"Vitamin C, total ascorbic acid",mg,--,--,0.0,0.0
"Vitamin A, IU",IU,--,--,319,462
Lipids
"Fatty acids, total saturated",g,--,--,8.998,13.040
"Fatty acids, total trans",g,--,--,0.000,0.000
"Cholesterol",mg,--,--,45,65
Amino Acids
Other
Ingredients
"ENRICHED FLOUR (WHEAT FLOUR, MALTED BARLEY FLOUR, NIACIN, REDUCED IRON, THIAMIN MONONITRATE, RIBOFLAVIN, FOLIC ACID), BROWN SUGAR, WHITE CONFECTIONARY COATING (SUGAR, PALM KERNEL AND PALM OIL, WHEY, NONFAT MILK, SOY LECITHIN, NATURAL FLAVORS, VANILLA EXTRACT), CREAM CHEESE (PASTEURIZED MILK AND CREAM, CHEESE CULTURES, SALT, STABILIZERS [CAROB BEAN, XANTHAN AND GUAR GUMS]), SWEETENED DRIED CRANBERRIES (CRANBERRIES, SUGAR, SUNFLOWER OIL), EGGS, BUTTER (CREAM, NATURAL FLAVORING), MARGARINE (VEGETABLE OIL BLEND [SOYBEAN OIL, PALM OIL], WATER, CONTAINS 2% OR LESS OF: SALT, MONO- AND DIGLYCERIDES, NONFAT DRY MILK, SOY LECITHIN, NATURAL FLAVOR, VITAMIN A PALMITATE, BETA CAROTENE [COLOR]), ICING SUGAR (SUCROSE, MALTODEXTRIN), CRYSTALLIZED GINGER (GINGER, CANE SUGAR), CONTAINS 2% OR LESS OF: PALM OIL, ORANGE FLAVEDO (ORANGE PEEL, SUGAR, ORANGE OIL), SALT, COCONUT OIL, CANOLA OIL, MALTITOL, NATURAL VANILLA FLAVOR, WATER, CORN STARCH, LEAVENING (SODIUM BICARBONATE, SODIUM ACID PYROPHOSPAHTE, MONOCALCIUM PHOSPHATE)." Date available: 07/14/2017 Date last updated by company: 07/14/2017
