Source: USDA Branded Food Products Database Release December 2017 Software v.3.8.6.4 2017-10-02
Report Run at: December 19, 2017 02:09 EST
"Nutrient data for: 45214212, CRANBERRY NECTAR WITH GINGER, UPC: 041755098157"
Food Group:  Branded Food Products Database
Common Name:

Nutrient,Unit,Data points,Std. Error,"8.0 OZA = 237.0g",1Value per 100 g,
Proximates
"Energy",kcal,--,--,140,59
"Protein",g,--,--,0.00,0.00
"Total lipid (fat)",g,--,--,0.00,0.00
"Carbohydrate, by difference",g,--,--,34.01,14.35
"Sugars, total",g,--,--,31.00,13.08
Minerals
"Sodium, Na",mg,--,--,14,6
Vitamins
"Vitamin C, total ascorbic acid",mg,--,--,3.6,1.5
Lipids
"Fatty acids, total saturated",g,--,--,0.000,0.000
"Fatty acids, total trans",g,--,--,0.000,0.000
"Cholesterol",mg,--,--,0,0
Amino Acids
Other
Ingredients
"FILTERED WATER, APPLE, CRANBERRY AND GINGER JUICE FROM CONCENTRATE (FILTERED WATER AND JUICE CONCENTRATES) AND NATURAL FLAVOR." Date available: 07/14/2017 Date last updated by company: 07/14/2017
