Source: USDA Branded Food Products Database Release December 2017 Software v.3.8.6.4 2017-10-02
Report Run at: December 19, 2017 02:05 EST
"Nutrient data for: 45156882, CRANBERRY APPLE, UPC: 075450002560"
Food Group:  Branded Food Products Database
Common Name:

Nutrient,Unit,Data points,Std. Error,"8.0 OZA = 240.0g",1Value per 100 g,
Proximates
"Energy",kcal,--,--,120,50
"Protein",g,--,--,0.00,0.00
"Total lipid (fat)",g,--,--,0.00,0.00
"Carbohydrate, by difference",g,--,--,30.00,12.50
"Sugars, total",g,--,--,28.99,12.08
Minerals
"Calcium, Ca",mg,--,--,0,0
"Iron, Fe",mg,--,--,0.00,0.00
"Sodium, Na",mg,--,--,36,15
Vitamins
"Vitamin C, total ascorbic acid",mg,--,--,60.0,25.0
"Vitamin A, IU",IU,--,--,0,0
Lipids
Amino Acids
Other
Ingredients
"WATER, SUGAR, APPLE JUICE CONCENTRATE, CRANBERRY JUICE CONCENTRATE, FUMARIC ACID, ASCORBIC ACID (VITAMIN C), NATURAL FLAVOR, SODIUM CITRATE, MALIC ACID, CITRIC ACID, VEGETABLE JUICE (FOR COLOR)." Date available: 07/14/2017 Date last updated by company: 07/14/2017
