Source: USDA Branded Food Products Database Release December 2017 Software v.3.8.6.4 2017-10-02
Report Run at: December 19, 2017 02:06 EST
"Nutrient data for: 45262080, CRANBERRY CRUNCH MIX, UPC: 788709276543"
Food Group:  Branded Food Products Database
Common Name:

Nutrient,Unit,Data points,Std. Error,"1 ONZ = 28.0g",1Value per 100 g,
Proximates
"Energy",kcal,--,--,130,464
"Protein",g,--,--,3.00,10.71
"Total lipid (fat)",g,--,--,7.00,25.00
"Carbohydrate, by difference",g,--,--,16.00,57.14
"Fiber, total dietary",g,--,--,2.0,7.1
"Sugars, total",g,--,--,10.00,35.71
Minerals
"Calcium, Ca",mg,--,--,20,71
"Iron, Fe",mg,--,--,0.64,2.29
"Sodium, Na",mg,--,--,45,161
Vitamins
"Vitamin C, total ascorbic acid",mg,--,--,0.0,0.0
"Vitamin A, IU",IU,--,--,0,0
Lipids
"Fatty acids, total saturated",g,--,--,1.000,3.570
"Fatty acids, total trans",g,--,--,0.000,0.000
"Cholesterol",mg,--,--,0,0
Amino Acids
Other
Ingredients
"CRANERIES (SUGAR, SUNFLOWER OIL) BLANCHED PEANUTS AND ALMONDS (ROASTED IN PEANUT OIL, SALT ADDED), SEEDLESS RAISINS (VEGETABLE OIL ADDED), YOGURT RAISNS (YOGURT COATING (PARTIALLY HYDROGENA TED PALM KERNEL OIL, NON FAT DRY YOGURT (NON FAT DRY MIX AND YOGURT CULTURED), SOY LECITHIN (AN EMULSIFIER), SALT, PURE VANILLA, RASINS, GUM ARABIC, CORN SYRUP, CERTIFIED CONFECTIONERS GLAZE (FOOD GRADE LAC RESIN) ALLERGEN INFORMATION MANUFACTURED ON EQUIPMENT THAT PROCESSES PRODUCTS CONTAINING PEANUTS, TREE NUTS, SOY, WHEAT, EGGS AND MILK 'KD' KOSHER" Date available: 07/14/2017 Date last updated by company: 07/14/2017
