Source: USDA Branded Food Products Database Release December 2017 Software v.3.8.6.4 2017-10-02
Report Run at: December 19, 2017 02:06 EST
"Nutrient data for: 45279977, CRANBERRY GRAPE JUICE, UPC: 092825098553"
Food Group:  Branded Food Products Database
Common Name:

Nutrient,Unit,Data points,Std. Error,"8.0 OZA = 240.0g",1Value per 100 g,
Proximates
"Energy",kcal,--,--,149,62
"Protein",g,--,--,0.00,0.00
"Total lipid (fat)",g,--,--,0.00,0.00
"Carbohydrate, by difference",g,--,--,37.01,15.42
"Sugars, total",g,--,--,37.01,15.42
Minerals
"Calcium, Ca",mg,--,--,19,8
"Iron, Fe",mg,--,--,0.36,0.15
"Magnesium, Mg",mg,--,--,7,3
"Phosphorus, P",mg,--,--,19,8
"Sodium, Na",mg,--,--,36,15
Vitamins
"Vitamin C, total ascorbic acid",mg,--,--,60.0,25.0
"Vitamin A, IU",IU,--,--,0,0
Lipids
Amino Acids
Other
Ingredients
"FILTERED WATER, GRAPE JUICE CONCENTRATE, CONCORD GRAPE JUICE CONCENTRATE, APPLE JUICE CONCENTRATE, CRANBERRY JUICE FROM CONCENTRATE (FILTERED WATER, CRANBERRY JUICE CONCENTRATE), PEAR JUICE CONCENTRATE, NATURAL FLAVORS, FUMARIC ACID, ASCORBIC ACID (VITAMIN C)." Date available: 07/14/2017 Date last updated by company: 07/14/2017
