Source: USDA Branded Food Products Database Release December 2017 Software v.3.8.6.4 2017-10-02
Report Run at: December 19, 2017 02:04 EST
"Nutrient data for: 45053079, CRANBERRY & ALMOND WHOLE FRUIT & NUT BAR, UPC: 027393007423"
Food Group:  Branded Food Products Database
Common Name:

Nutrient,Unit,Data points,Std. Error,"1 BAR = 32.0g",1Value per 100 g,
Proximates
"Energy",kcal,--,--,150,469
"Protein",g,--,--,4.00,12.50
"Total lipid (fat)",g,--,--,7.00,21.88
"Carbohydrate, by difference",g,--,--,17.00,53.12
"Fiber, total dietary",g,--,--,2.0,6.2
"Sugars, total",g,--,--,11.00,34.38
Minerals
"Calcium, Ca",mg,--,--,20,62
"Iron, Fe",mg,--,--,1.35,4.22
"Potassium, K",mg,--,--,135,422
"Sodium, Na",mg,--,--,10,31
Vitamins
"Vitamin C, total ascorbic acid",mg,--,--,0.0,0.0
"Vitamin A, IU",IU,--,--,0,0
Lipids
"Fatty acids, total saturated",g,--,--,0.998,3.120
"Fatty acids, total trans",g,--,--,0.000,0.000
"Cholesterol",mg,--,--,0,0
Amino Acids
Other
Ingredients
"PEANUTS, CRANBERRIES, (APPLE JUICE INFUSED) HONEY, ALMONDS, RAISINS, PUMPKIN SEEDS, BROWN RICE SYRUP, SUNFLOWER OIL, ROSEMARY EXTRACT, TOCOPHEROL, NATURAL CRANBERRY FLAVOR." Date available: 06/25/2017 Date last updated by company: 06/25/2017
