Source: USDA Branded Food Products Database Release December 2017 Software v.3.8.6.4 2017-10-02
Report Run at: December 19, 2017 02:04 EST
"Nutrient data for: 45058884, CRANBERRY ALMOND CHICKEN SALAD WITH WHITE-MEAT CHICKEN, UPC: 085239004678"
Food Group:  Branded Food Products Database
Common Name:

Nutrient,Unit,Data points,Std. Error,"0.5 cup = 113.0g",1Value per 100 g,
Proximates
"Energy",kcal,--,--,140,124
"Protein",g,--,--,14.00,12.39
"Total lipid (fat)",g,--,--,4.00,3.54
"Carbohydrate, by difference",g,--,--,12.00,10.62
"Fiber, total dietary",g,--,--,2.0,1.8
"Sugars, total",g,--,--,8.00,7.08
Minerals
"Calcium, Ca",mg,--,--,80,71
"Iron, Fe",mg,--,--,0.45,0.40
"Sodium, Na",mg,--,--,380,336
Vitamins
"Vitamin C, total ascorbic acid",mg,--,--,1.5,1.3
"Vitamin A, IU",IU,--,--,247,219
Lipids
"Fatty acids, total saturated",g,--,--,0.994,0.880
"Fatty acids, total trans",g,--,--,0.000,0.000
"Cholesterol",mg,--,--,31,27
Amino Acids
Other
Ingredients
"GRILLED CHICKEN BREAST WITH RIB MEAT (CHICKEN BREAST WITH RIB MEAT, CHICKEN BROTH, SEA SALT), LOW-FAT GREEK YOGURT (GRADE A PASTEURIZED SKIM MILK, MILK PROTEIN CONCENTRATE, CREAM, PECTIN, ENZYMES, LIVE ACTIVE CULTURES), CELERY, ONIONS, DRIED CRANBERRIES (CRANBERRIES, SUGAR, SUNFLOWER OIL), APPLE CIDER VINEGAR, RAW CANE SUGAR, ROASTED ALMONDS, SEA SALT, POPPY SEEDS, XANTHAN GUM, BLACK PEPPER." Date available: 06/24/2017 Date last updated by company: 06/24/2017
