Source: USDA Branded Food Products Database Release December 2017 Software v.3.8.6.4 2017-10-02
Report Run at: December 19, 2017 02:14 EST
"Nutrient data for: 45258994, CRAZY CHIC SEASONING, UPC: 783987710451"
Food Group:  Branded Food Products Database
Common Name:

Nutrient,Unit,Data points,Std. Error,"0.25 tsp = 1.0g",1Value per 100 g,
Proximates
"Energy",kcal,--,--,0,0
"Protein",g,--,--,0.00,0.00
"Total lipid (fat)",g,--,--,0.00,0.00
"Carbohydrate, by difference",g,--,--,0.00,0.00
Minerals
"Sodium, Na",mg,--,--,230,23000
Vitamins
Lipids
Amino Acids
Other
Ingredients
"SEA SALT SPICES (BLACK PEPPER, OREGANO, BASIL, THYME), GARLIC, LEMON JUICE POWDER (CORN SYRUP SOLIDS, LEMON JUICE, LEMON OIL), DISODIUM INOSINATE AND DISODIUM GUANYLATE." Date available: 07/14/2017 Date last updated by company: 07/14/2017
