Source: USDA Branded Food Products Database Release December 2017 Software v.3.8.6.4 2017-10-02
Report Run at: December 19, 2017 02:56 EST
"Nutrient data for: 45176432, CREAMY CHOCOLATE FROSTING, UPC: 075450174069"
Food Group:  Branded Food Products Database
Common Name:

Nutrient,Unit,Data points,Std. Error,"2.0 Tbsp = 31.0g",1Value per 100 g,
Proximates
"Energy",kcal,--,--,130,419
"Protein",g,--,--,0.00,0.00
"Total lipid (fat)",g,--,--,5.00,16.13
"Carbohydrate, by difference",g,--,--,20.00,64.52
"Fiber, total dietary",g,--,--,0.0,0.0
"Sugars, total",g,--,--,19.00,61.29
Minerals
"Calcium, Ca",mg,--,--,0,0
"Iron, Fe",mg,--,--,0.00,0.00
"Sodium, Na",mg,--,--,45,145
Vitamins
"Vitamin C, total ascorbic acid",mg,--,--,0.0,0.0
"Vitamin A, IU",IU,--,--,0,0
Lipids
"Fatty acids, total saturated",g,--,--,1.500,4.840
"Fatty acids, total trans",g,--,--,1.500,4.840
"Cholesterol",mg,--,--,0,0
Amino Acids
Other
Ingredients
"SUGAR, PARTIALLY HYDROGENATED VEGETABLE SHORTENING (CONTAINS ONE OR MORE OF THE FOLLOWING: PARTIALLY HYDROGENATED SOYBEAN OIL, COTTONSEED OIL), WATER, HIGH FRUCTOSE CORN SYRUP, COCOA (PROCESSED WITH ALKALI), CONTAINS 2% OR LESS OF: NONFAT MILK, EMULSIFIER (MONO- AND DIGLYCERIDES WITH PRESERVATIVES [MIXED TOCOPHEROLS, ASCORBIC ACID, CITRIC ACID], POLYSORBATE 60, SOY LECITHIN), CORN STARCH, MODIFIED WHEAT STARCH, SALT, PRESERVATIVE (POTASSIUM SORBATE), CITRIC ACID, NATURAL AND ARTIFICIAL FLAVOR, DEXTROSE, AGAR, COLOR (TITANIUM DIOXIDE, RED 40 LAKE)." Date available: 07/14/2017 Date last updated by company: 07/14/2017
