Source: USDA Branded Food Products Database Release December 2017 Software v.3.8.6.4 2017-10-02
Report Run at: December 19, 2017 03:15 EST
"Nutrient data for: 45149956, CREATIVE SNACKS CO, SESAME STICKS, HONEY ROASTED, UPC: 816512011072"
Food Group:  Branded Food Products Database
Common Name:

Nutrient,Unit,Data points,Std. Error,"0.25 cup = 30.0g",1Value per 100 g,
Proximates
"Energy",kcal,--,--,160,533
"Protein",g,--,--,3.00,10.00
"Total lipid (fat)",g,--,--,10.00,33.33
"Carbohydrate, by difference",g,--,--,16.00,53.33
"Fiber, total dietary",g,--,--,1.0,3.3
"Sugars, total",g,--,--,3.00,10.00
Minerals
"Calcium, Ca",mg,--,--,60,200
"Iron, Fe",mg,--,--,2.40,8.00
"Sodium, Na",mg,--,--,380,1267
Vitamins
"Vitamin C, total ascorbic acid",mg,--,--,0.0,0.0
"Vitamin A, IU",IU,--,--,0,0
Lipids
"Fatty acids, total saturated",g,--,--,1.500,5.000
"Fatty acids, total trans",g,--,--,0.000,0.000
"Cholesterol",mg,--,--,0,0
Amino Acids
Other
Ingredients
"UNBLEACHED WHEAT FLOUR (CONTAINS MALTED BARLEY FLOUR AS A NATURAL ENZYME ADDITIVE), SOYBEAN OIL, SESAME SEEDS, HONEY COATING (SUCROSE, WHEAT STARCH, HONEY), BULGUR WHEAT, TACK BLEND (MALTODEXTRIN, XANTHAN GUM), SALT, TURMERIC (COLOR), BEET POWDER (COLOR)." Date available: 07/14/2017 Date last updated by company: 07/14/2017
