Source: USDA Branded Food Products Database Release December 2017 Software v.3.8.6.4 2017-10-02
Report Run at: December 19, 2017 02:16 EST
"Nutrient data for: 45055456, CREAM CHEESE FROSTING, UPC: 820103480604"
Food Group:  Branded Food Products Database
Common Name:

Nutrient,Unit,Data points,Std. Error,"3.0 Tbsp = 34.0g",1Value per 100 g,
Proximates
"Energy",kcal,--,--,140,412
"Total lipid (fat)",g,--,--,8.00,23.53
"Carbohydrate, by difference",g,--,--,18.00,52.94
"Fiber, total dietary",g,--,--,0.0,0.0
"Sugars, total",g,--,--,17.00,50.00
Minerals
"Calcium, Ca",mg,--,--,20,59
"Iron, Fe",mg,--,--,0.00,0.00
"Sodium, Na",mg,--,--,75,221
Vitamins
"Vitamin C, total ascorbic acid",mg,--,--,0.0,0.0
"Vitamin A, IU",IU,--,--,309,909
Lipids
"Fatty acids, total saturated",g,--,--,5.001,14.710
"Fatty acids, total trans",g,--,--,0.000,0.000
"Cholesterol",mg,--,--,25,74
Amino Acids
Other
Ingredients
"POWDERED SUGAR (CANE SUGAR, CORNSTARCH), CREAM CHEESE (PASTEURIZED MILK AND CREAM, CHEESE CULTURE, SALT, AND CAROB BEAN AND/OR XANTHAN AND/OR GUAR GUMS USED AS STABILIZERS), BUTTER )PASTEURIZED CREAM, NATURAL FLAVORINGS, MILK), PURE VANILLA EXTRACT (WATER, ALCOHOL, SUGAR & VANILLA BEAN EXTRACTIVES)." Date available: 10/04/2017 Date last updated by company: 10/04/2017
