Source: USDA Branded Food Products Database Release December 2017 Software v.3.8.6.4 2017-10-02
Report Run at: December 19, 2017 02:59 EST
"Nutrient data for: 45276527, CREAMY GARLIC DRESSING, UPC: 070200849938"
Food Group:  Branded Food Products Database
Common Name:

Nutrient,Unit,Data points,Std. Error,"2.0 Tbsp = 30.0g",1Value per 100 g,
Proximates
"Energy",kcal,--,--,170,567
"Protein",g,--,--,0.00,0.00
"Total lipid (fat)",g,--,--,18.00,60.00
"Carbohydrate, by difference",g,--,--,2.00,6.67
"Fiber, total dietary",g,--,--,0.0,0.0
"Sugars, total",g,--,--,1.00,3.33
Minerals
"Calcium, Ca",mg,--,--,0,0
"Iron, Fe",mg,--,--,0.00,0.00
"Sodium, Na",mg,--,--,300,1000
Vitamins
"Vitamin C, total ascorbic acid",mg,--,--,0.0,0.0
"Vitamin A, IU",IU,--,--,0,0
Lipids
"Fatty acids, total saturated",g,--,--,3.000,10.000
"Fatty acids, total trans",g,--,--,0.000,0.000
"Cholesterol",mg,--,--,0,0
Amino Acids
Other
Ingredients
"SOYBEAN OIL, WATER, BUTTERMILK, DISTILLED VINEGAR, SUGAR, ROMANO CHEESE (PASTEURIZED MILK, CHEESE CULTURE, SALT, ENZYMES), SALT, RED WINE VINEGAR, GARLIC JUICE, ROASTED GARLIC, EGG YOLK, NATURAL FLAVOR, EXTRA VIRGIN OLIVE OIL, GARLIC*, SPICE, ONION*, CORNSTARCH, MALTODEXTRIN, XANTHAN GUM, SODIUM BENZOATE ADDED AS A PRESERVATIVE, YEAST EXTRACT, LACTIC ACID, CANOLA OIL, SESAME SEED OIL, CALCIUM DISODIUM EDTA ADDED TO PROTECT FLAVOR." Date available: 07/14/2017 Date last updated by company: 07/14/2017
