Source: USDA Branded Food Products Database Release December 2017 Software v.3.8.6.4 2017-10-02
Report Run at: December 19, 2017 02:46 EST
"Nutrient data for: 45259732, CREAM HEART COVERED IN MILK CHOCOLATE, UPC: 077260082169"
Food Group:  Branded Food Products Database
Common Name:

Nutrient,Unit,Data points,Std. Error,"1 BAR = 28.0g",1Value per 100 g,
Proximates
"Energy",kcal,--,--,120,429
"Protein",g,--,--,1.00,3.57
"Total lipid (fat)",g,--,--,3.50,12.50
"Carbohydrate, by difference",g,--,--,21.00,75.00
"Fiber, total dietary",g,--,--,1.0,3.6
"Sugars, total",g,--,--,20.00,71.43
Minerals
"Calcium, Ca",mg,--,--,20,71
"Iron, Fe",mg,--,--,0.64,2.29
"Sodium, Na",mg,--,--,25,89
Vitamins
"Vitamin C, total ascorbic acid",mg,--,--,2.2,7.7
"Vitamin A, IU",IU,--,--,0,0
Lipids
"Fatty acids, total saturated",g,--,--,1.999,7.140
"Fatty acids, total trans",g,--,--,0.000,0.000
"Cholesterol",mg,--,--,0,0
Amino Acids
Other
Ingredients
"MILK (SUGAR, WHOLE MILK, COCOA BUTTER, CHOCOLATE, SOY (AN EMULSIFIER), VANILLIN (AN ARTIFICAL FLAVOR)], SUGAR, CORN SYRUP, STRAWBERRIES, EGG SALT, NATURAL FLAVOR, FD&C #40, SODIUM HYDROXIDE, SODIUM BENZOATE (PRESERVATIVE), INVERTASE (AN ENZYME). 8216-101" Date available: 07/14/2017 Date last updated by company: 07/14/2017
