Source: USDA Branded Food Products Database Release December 2017 Software v.3.8.6.4 2017-10-02
Report Run at: December 19, 2017 03:12 EST
"Nutrient data for: 45028178, CREAMY TOMATO SOUP, UPC: 077958694537"
Food Group:  Branded Food Products Database
Common Name:

Nutrient,Unit,Data points,Std. Error,"284.0 g = 284.0g",1Value per 100 g,
Proximates
"Energy",kcal,--,--,241,85
"Protein",g,--,--,3.01,1.06
"Total lipid (fat)",g,--,--,17.01,5.99
"Carbohydrate, by difference",g,--,--,19.99,7.04
"Fiber, total dietary",g,--,--,7.1,2.5
"Sugars, total",g,--,--,10.99,3.87
Minerals
"Calcium, Ca",mg,--,--,40,14
"Iron, Fe",mg,--,--,1.08,0.38
"Sodium, Na",mg,--,--,741,261
Vitamins
"Vitamin C, total ascorbic acid",mg,--,--,6.0,2.1
"Vitamin A, IU",IU,--,--,500,176
Lipids
"Fatty acids, total saturated",g,--,--,9.003,3.170
"Fatty acids, total trans",g,--,--,0.511,0.180
"Cholesterol",mg,--,--,34,12
Amino Acids
Other
Ingredients
"TOMATOES (TOMATO PUREE, SALT, CITRIC ACID), WATER, CREAM ONIONS, SEASONING (SUGAR, MODIFIED CORN STARCH, SALT, SPICES, MONO AND DILGYCERIDES), CONTAINS 2% OR LESS OF: BUTTER (CREAM, NATURAL FLAVORING), EXTRA VIRGIN OLIVE OIL, GARLIC, SUGAR, MODIFIED FOOD STARCH AND NISIN PREPARATION." Date available: 05/31/2017 Date last updated by company: 05/31/2017
