Source: USDA Branded Food Products Database Release December 2017 Software v.3.8.6.4 2017-10-02
Report Run at: December 19, 2017 02:58 EST
"Nutrient data for: 45061619, CREAMY FROSTING, UPC: 644209004140"
Food Group:  Branded Food Products Database
Common Name:

Nutrient,Unit,Data points,Std. Error,"2.0 Tbsp = 35.0g",1Value per 100 g,
Proximates
"Energy",kcal,--,--,150,429
"Protein",g,--,--,0.00,0.00
"Total lipid (fat)",g,--,--,6.00,17.14
"Carbohydrate, by difference",g,--,--,24.00,68.57
"Sugars, total",g,--,--,22.00,62.86
Minerals
"Sodium, Na",mg,--,--,110,314
Vitamins
Lipids
"Fatty acids, total saturated",g,--,--,1.502,4.290
"Fatty acids, total trans",g,--,--,1.502,4.290
Amino Acids
Other
Ingredients
"SUGAR, VEGETABLE OIL SHORTENING (PARTIALLY HYDROGENATED SOYBEAN AND COTTONSEED OILS, MONO- AND DIGLYCERIDES, POLYSORBATE 60), WATER, CORN SYRUP. CONTAINS 2% OR LESS OF: CORN STARCH, SALT, ARTIFICIAL COLORS, NATURAL AND ARTIFICIAL FLAVOR, PRESERVATIVE (POTASSIUM SORBATE), SODIUM ACID PYROPHOSPHATE, CITRIC ACID, SODIUM CITRATE, YELLOW 5, RED 40." Date available: 07/14/2017 Date last updated by company: 07/14/2017
