Source: USDA Branded Food Products Database Release December 2017 Software v.3.8.6.4 2017-10-02
Report Run at: December 19, 2017 03:02 EST
"Nutrient data for: 45113164, CREAMY MOZZARELLA SPREADABLE CHEESE WEDGES, UPC: 041757054137"
Food Group:  Branded Food Products Database
Common Name:

Nutrient,Unit,Data points,Std. Error,"1 WEDGE = 21.0g",1Value per 100 g,
Proximates
"Energy",kcal,--,--,35,167
"Protein",g,--,--,2.00,9.52
"Total lipid (fat)",g,--,--,1.50,7.14
"Carbohydrate, by difference",g,--,--,1.00,4.76
"Fiber, total dietary",g,--,--,0.0,0.0
"Sugars, total",g,--,--,1.00,4.76
Minerals
"Calcium, Ca",mg,--,--,60,286
"Iron, Fe",mg,--,--,0.00,0.00
"Sodium, Na",mg,--,--,190,905
Vitamins
"Vitamin C, total ascorbic acid",mg,--,--,0.0,0.0
"Vitamin A, IU",IU,--,--,0,0
Lipids
"Fatty acids, total saturated",g,--,--,1.000,4.760
"Fatty acids, total trans",g,--,--,0.000,0.000
"Cholesterol",mg,--,--,5,24
Amino Acids
Other
Ingredients
"[CHEDDAR, MOZZARELLA, AND SEMISOFT CHEESE (PASTEURIZED CULTURED MILK AND PART-SKIM MILK, SALT, ENZYMES)], NONFAT MILK, WHEY, ULTRAFILTERED NONFAT MILK, WATER, SODIUM POLYPHOSPHATE, SUN-DRIED TOMATOES, CITRIC ACID, SALT, BASIL, NATURAL TOMATO FLAVOR." Date available: 07/14/2017 Date last updated by company: 07/14/2017
