Source: USDA Branded Food Products Database Release December 2017 Software v.3.8.6.4 2017-10-02
Report Run at: December 19, 2017 03:13 EST
"Nutrient data for: 45144639, CREATE A TREAT, GINGERBREAD TRAIN COOKIE KIT, UPC: 629014011279"
Food Group:  Branded Food Products Database
Common Name:

Nutrient,Unit,Data points,Std. Error,"0.05 KIT = 33.0g",1Value per 100 g,
Proximates
"Energy",kcal,--,--,130,394
"Protein",g,--,--,1.00,3.03
"Total lipid (fat)",g,--,--,2.50,7.58
"Carbohydrate, by difference",g,--,--,26.00,78.79
"Fiber, total dietary",g,--,--,0.0,0.0
"Sugars, total",g,--,--,18.00,54.55
Minerals
"Calcium, Ca",mg,--,--,0,0
"Iron, Fe",mg,--,--,0.54,1.65
"Sodium, Na",mg,--,--,70,212
Vitamins
"Vitamin C, total ascorbic acid",mg,--,--,0.0,0.0
"Vitamin A, IU",IU,--,--,0,0
Lipids
"Fatty acids, total saturated",g,--,--,1.000,3.030
"Fatty acids, total trans",g,--,--,0.000,0.000
"Cholesterol",mg,--,--,0,0
Amino Acids
Other
Ingredients
"PRE-BAKED GINGERBREAD: ENRICHED WHEAT FLOUR (FLOUR, NIACIN, IRON, ASCORBIC ACID, THIAMINE MONONITRATE, RIBOFLAVIN, FOLIC ACID), SUGAR, VEGETABLE OIL SHORTENING (PALM), MOLASSES, WATER, CINNAMON, LEAVENING (SODIUM BICARBONATE), GINGER, SALT, CARAMEL COLOR. PRE-MADE ICING: POWDERED SUGAR, WATER, VEGETABLE OILS (PALM, CANOLA), CORN SYRUP AND HIGH FRUCTOSE CORN SYRUP, MODIFIED CORNSTARCH, SALT, SOY MONO-AND DIGLYCERIDES, ARTIFICIAL FLAVOR, CITRIC ACID, POLYSORBATE 60, PRESERVATIVE - POTASSIUM SORBATE, COLOR (TITANIUM DIOXIDE). RED & WHITE PINWHEELS: SUGAR, CORN SYRUP, COLORS (TITANIUM DIOXIDE, FD&C RED 40 LAKE), NATURAL PEPPERMINT FLAVOR. MINI JELLIES: GLUCOSE SYRUP, SUGAR, MODIFIED CORNSTARCH, NATURAL AND ARTIFICIAL FLAVORS, CITRIC ACID, COLORS (FD&C RED 40, FD&C YELLOW 5, FD&C YELLOW 6, FD&C BLUE 1). PUCKER UPS: DEXTROSE, MALTODEXTRIN, CALCIUM STEARATE, MALIC ACID, NATURAL AND ARTIFICIAL FLAVORS, CONFECTIONER'S GLAZE, TAPIOCA DEXTRIN, CARNAUBA WAX, COLORS (FD&C YELLOW 5, FD&C YELLOW 6, FD&C YELLOW 5 LAKE, FD&C YELLOW 6 LAKE, FD&C RED 40, FD&C RED 40 LAKE, FD&C BLUE 1, FD&C BLUE 1 LAKE, TITANIUM DIOXIDE). MINI BEADS: DEXTROSE, GLUCOSE, MALTODEXTRIN, CALCIUM STEARATE, CITRIC ACID, MALIC ACID, TAPIOCA DEXTRIN, CONFECTIONER'S GLAZE, CARNAUBA WAX, NATURAL AND ARTIFICIAL FLAVOR, COLOR (FD&C RED 3, FD&C RED 40, FD&C YELLOW 5, FD&C BLUE 1 LAKE, TITANIUM DIOXIDE). CANDY CANES: SUGARS, CORN SYRUP, PEPPERMINT OIL, COLORS (FD&C RED 40, FD&C RED 40 LAKE)." Date available: 07/14/2017 Date last updated by company: 07/14/2017
