Source: USDA Branded Food Products Database Release December 2017 Software v.3.8.6.4 2017-10-02
Report Run at: December 19, 2017 02:48 EST
"Nutrient data for: 45277194, CREAM OF MUSHROOM, CONDENSED SOUP, UPC: 070784252520"
Food Group:  Branded Food Products Database
Common Name:

Nutrient,Unit,Data points,Std. Error,"0.5 cup = 123.0g",1Value per 100 g,
Proximates
"Energy",kcal,--,--,100,81
"Protein",g,--,--,1.00,0.81
"Total lipid (fat)",g,--,--,6.00,4.88
"Carbohydrate, by difference",g,--,--,10.00,8.13
"Fiber, total dietary",g,--,--,0.0,0.0
"Sugars, total",g,--,--,1.00,0.81
Minerals
"Calcium, Ca",mg,--,--,20,16
"Iron, Fe",mg,--,--,0.71,0.58
"Potassium, K",mg,--,--,65,53
"Sodium, Na",mg,--,--,870,707
Vitamins
"Vitamin C, total ascorbic acid",mg,--,--,0.0,0.0
"Vitamin A, IU",IU,--,--,0,0
Lipids
"Fatty acids, total saturated",g,--,--,0.996,0.810
"Fatty acids, total monounsaturated",g,--,--,1.501,1.220
"Fatty acids, total polyunsaturated",g,--,--,3.506,2.850
"Fatty acids, total trans",g,--,--,0.000,0.000
"Cholesterol",mg,--,--,0,0
Amino Acids
Other
Ingredients
"WATER, MUSHROOMS, MODIFIED FOOD STARCH, SOYBEAN OIL, WHEAT FLOUR, CONTAINS 2% OR LESS OF SALT, CREAM, DRIED WHEY, MONOSODIUM GLUTAMATE, SOY PROTEIN CONCENTRATE, NATURAL FLAVORS, YEAST EXTRACT, AUTOLYZED YEAST EXTRACT, DISODIUM PHOSPHATE, WHEY PROTEIN CONCENTRATE." Date available: 07/14/2017 Date last updated by company: 07/14/2017
