Source: USDA Branded Food Products Database Release December 2017 Software v.3.8.6.4 2017-10-02
Report Run at: December 19, 2017 03:06 EST
"Nutrient data for: 45191898, CREAMY PEANUT BUTTER, UPC: 600350115005"
Food Group:  Branded Food Products Database
Common Name:

Nutrient,Unit,Data points,Std. Error,"2.0 Tbsp = 32.0g",1Value per 100 g,
Proximates
"Energy",kcal,--,--,200,625
"Protein",g,--,--,7.00,21.88
"Total lipid (fat)",g,--,--,16.00,50.00
"Carbohydrate, by difference",g,--,--,8.00,25.00
"Fiber, total dietary",g,--,--,2.0,6.2
"Sugars, total",g,--,--,4.00,12.50
Minerals
"Calcium, Ca",mg,--,--,0,0
"Iron, Fe",mg,--,--,1.13,3.52
"Sodium, Na",mg,--,--,150,469
Vitamins
"Vitamin C, total ascorbic acid",mg,--,--,3.7,11.7
"Vitamin A, IU",IU,--,--,0,0
Lipids
"Fatty acids, total saturated",g,--,--,3.002,9.380
"Fatty acids, total monounsaturated",g,--,--,7.002,21.880
"Fatty acids, total polyunsaturated",g,--,--,4.499,14.060
"Fatty acids, total trans",g,--,--,0.000,0.000
"Cholesterol",mg,--,--,0,0
Amino Acids
Other
Ingredients
"PEANUTS, SUGAR, HYDROGENATED VEGETABLE OIL (RAPESEED, COTTONSEED), SALT." Date available: 07/14/2017 Date last updated by company: 07/14/2017
