Source: USDA Branded Food Products Database Release December 2017 Software v.3.8.6.4 2017-10-02
Report Run at: December 19, 2017 03:10 EST
"Nutrient data for: 45207544, CREAMY SHARP COLD PACK CHEESE FOOD, UPC: 027164321635"
Food Group:  Branded Food Products Database
Common Name:

Nutrient,Unit,Data points,Std. Error,"2.0 Tbsp = 31.0g",1Value per 100 g,
Proximates
"Energy",kcal,--,--,100,323
"Protein",g,--,--,6.00,19.35
"Total lipid (fat)",g,--,--,8.00,25.81
"Carbohydrate, by difference",g,--,--,4.00,12.90
"Fiber, total dietary",g,--,--,0.0,0.0
"Sugars, total",g,--,--,4.00,12.90
Minerals
"Calcium, Ca",mg,--,--,150,484
"Iron, Fe",mg,--,--,0.00,0.00
"Sodium, Na",mg,--,--,160,516
Vitamins
"Vitamin C, total ascorbic acid",mg,--,--,0.0,0.0
"Vitamin A, IU",IU,--,--,322,1040
Lipids
"Fatty acids, total saturated",g,--,--,4.501,14.520
"Fatty acids, total trans",g,--,--,0.000,0.000
"Cholesterol",mg,--,--,25,81
Amino Acids
Other
Ingredients
"CHEDDAR CHEESE (CULTURED PASTEURIZED MILK, SALT, ENZYMES, VEGETABLE OR ANNATTO COLOR, CALCIUM CHLORIDE), WATER, WHEY PROTEIN CONCENTRATE, CREAM, REDUCED LACTOSE WHEY, SORBIC ACID (TO PROTECT FLAVOR), LACTIC ACID, ANNATTO COLOR, CITRIC ACID." Date available: 07/14/2017 Date last updated by company: 07/14/2017
