Source: USDA Branded Food Products Database Release December 2017 Software v.3.8.6.4 2017-10-02
Report Run at: December 19, 2017 02:41 EST
"Nutrient data for: 45277917, CREAM CORN, UPC: 02114026401"
Food Group:  Branded Food Products Database
Common Name:

Nutrient,Unit,Data points,Std. Error,"0.5 cup = 108.0g",1Value per 100 g,
Proximates
"Energy",kcal,--,--,110,102
"Protein",g,--,--,2.00,1.85
"Total lipid (fat)",g,--,--,0.50,0.46
"Carbohydrate, by difference",g,--,--,24.00,22.22
"Fiber, total dietary",g,--,--,1.0,0.9
"Sugars, total",g,--,--,10.00,9.26
Minerals
"Calcium, Ca",mg,--,--,0,0
"Iron, Fe",mg,--,--,0.00,0.00
"Sodium, Na",mg,--,--,280,259
Vitamins
"Vitamin C, total ascorbic acid",mg,--,--,2.9,2.7
"Vitamin A, IU",IU,--,--,0,0
Lipids
"Fatty acids, total saturated",g,--,--,0.000,0.000
"Fatty acids, total trans",g,--,--,0.000,0.000
"Cholesterol",mg,--,--,0,0
Amino Acids
Other
Ingredients
"CORN, WATER, SUGAR, CORNSTARCH MODIFIED, SALT." Date available: 07/14/2017 Date last updated by company: 07/14/2017
