Source: USDA Branded Food Products Database Release December 2017 Software v.3.8.6.4 2017-10-02
Report Run at: December 19, 2017 02:57 EST
"Nutrient data for: 45053883, CREAMY COLE SLAW, UPC: 041497193578"
Food Group:  Branded Food Products Database
Common Name:

Nutrient,Unit,Data points,Std. Error,"0.33 cup = 93.0g",1Value per 100 g,
Proximates
"Energy",kcal,--,--,170,183
"Protein",g,--,--,1.00,1.08
"Total lipid (fat)",g,--,--,11.00,11.83
"Carbohydrate, by difference",g,--,--,16.00,17.20
"Fiber, total dietary",g,--,--,1.0,1.1
"Sugars, total",g,--,--,13.00,13.98
Minerals
"Calcium, Ca",mg,--,--,40,43
"Iron, Fe",mg,--,--,0.54,0.58
"Sodium, Na",mg,--,--,330,355
Vitamins
"Vitamin C, total ascorbic acid",mg,--,--,433.6,466.2
"Vitamin A, IU",IU,--,--,752,809
Lipids
"Fatty acids, total saturated",g,--,--,1.497,1.610
"Fatty acids, total trans",g,--,--,0.000,0.000
"Cholesterol",mg,--,--,10,11
Amino Acids
Other
Ingredients
"CABBAGE, DRESSING (SOYBEAN OIL, CORN SYRUP, VINEGAR, WATER, EGG YOLKS, MODIFIED CORN STARCH, SALT, MUSTARD FLOUR, ONION POWDER, NATURAL FLAVOR, CALCIUM DISODIUM EDTA [PRESERVATIVE]), SUGAR, CARROT, ONION, SALT, ASCORBIC ACID, CITRIC ACID, VINEGAR, POTASSIUM SORBATE AND SODIUM BENZOATE (PRESERVATIVES), XANTHAN GUM (AS A THICKENER), GARLIC POWDER." Date available: 06/25/2017 Date last updated by company: 06/25/2017
