Source: USDA Branded Food Products Database Release December 2017 Software v.3.8.6.4 2017-10-02
Report Run at: December 19, 2017 02:46 EST
"Nutrient data for: 45281627, CREAM OF BROCCOLI WITH CHEESE SOUP, UPC: 075450501391"
Food Group:  Branded Food Products Database
Common Name:

Nutrient,Unit,Data points,Std. Error,"1 cup = 245.0g",1Value per 100 g,
Proximates
"Energy",kcal,--,--,169,69
"Protein",g,--,--,7.01,2.86
"Total lipid (fat)",g,--,--,7.01,2.86
"Carbohydrate, by difference",g,--,--,19.99,8.16
"Fiber, total dietary",g,--,--,1.0,0.4
"Sugars, total",g,--,--,6.00,2.45
Minerals
"Calcium, Ca",mg,--,--,250,102
"Iron, Fe",mg,--,--,0.37,0.15
"Sodium, Na",mg,--,--,941,384
Vitamins
"Vitamin C, total ascorbic acid",mg,--,--,14.9,6.1
"Vitamin A, IU",IU,--,--,750,306
Lipids
"Fatty acids, total saturated",g,--,--,4.508,1.840
"Fatty acids, total trans",g,--,--,0.000,0.000
"Cholesterol",mg,--,--,24,10
Amino Acids
Other
Ingredients
"WATER, BROCCOLI, MILK (MILK, CREAM, VITAMIN D3), PASTEURIZED PROCESS CHEESE SPREAD (AMERICAN CHEESE [PASTEURIZED MILK, CHEESE CULTURE, SALT, ENZYMES], WATER, WHEY, SODIUM PHOSPHATE, WHEY PROTEIN CONCENTRATE, SKIM MILK, SALT, MILKFAT, ARTIFICIAL COLOR), CHEESE POWDER BLEND (WHEY SOLIDS, MILK FAT, WHEY PROTEIN CONCENTRATE, SALT, CORN SYRUP SOLIDS, NONFAT MILK, CHEESE [PASTEURIZED MILK, CULTURES, SALT, ENZYMES], DISODIUM PHOSPHATE, LACTIC ACID, CITRIC ACID), FOOD STARCH-MODIFIED, ONION, NONFAT DRY MILK, VEGETABLE FLAVOR (MALTODEXTRIN, ONION EXTRACT, SAUTEED ONION, SUGAR, SALT, YEAST EXTRACT, CORN OIL, CARROT EXTRACT, CELERY EXTRACT, SPICES, GARLIC POWDER, RED WINE), SALT, BLACK PEPPER, BETA CAROTENE (COLOR)." Date available: 07/14/2017 Date last updated by company: 07/14/2017
