Source: USDA Branded Food Products Database Release December 2017 Software v.3.8.6.4 2017-10-02
Report Run at: December 19, 2017 03:00 EST
"Nutrient data for: 45047284, CREAMY HORSERADISH SAUCE, UPC: 20035273"
Food Group:  Branded Food Products Database
Common Name:

Nutrient,Unit,Data points,Std. Error,"1 tsp = 5.0g",1Value per 100 g,
Proximates
"Energy",kcal,--,--,10,200
"Protein",g,--,--,0.00,0.00
"Total lipid (fat)",g,--,--,0.50,10.00
"Carbohydrate, by difference",g,--,--,0.00,0.00
"Fiber, total dietary",g,--,--,0.0,0.0
"Sugars, total",g,--,--,0.00,0.00
Minerals
"Calcium, Ca",mg,--,--,0,0
"Iron, Fe",mg,--,--,0.00,0.00
"Sodium, Na",mg,--,--,20,400
Vitamins
"Vitamin C, total ascorbic acid",mg,--,--,36.5,730.4
"Vitamin A, IU",IU,--,--,0,0
Lipids
"Fatty acids, total saturated",g,--,--,0.000,0.000
"Fatty acids, total trans",g,--,--,0.000,0.000
"Cholesterol",mg,--,--,0,0
Amino Acids
Other
Ingredients
"HORSERADISH (HORSERADISH, DISTILLED VINEGAR, WATER, SALT, SOYBEAN OIL), WATER, SOYBEAN OIL, DISTILLED VINEGAR, EGG YOLKS, MUSTARD OIL, NATURAL HORSERADISH FLAVOR, SALT, XANTHAN GUM, GROUND MUSTARD SEED, CAYENNE PEPPERS." Date available: 06/24/2017 Date last updated by company: 06/24/2017
