Source: USDA Branded Food Products Database Release December 2017 Software v.3.8.6.4 2017-10-02
Report Run at: December 19, 2017 02:16 EST
"Nutrient data for: 45325908, CREAM CHEESECAKE, UPC: 750310161068"
Food Group:  Branded Food Products Database
Common Name:

Nutrient,Unit,Data points,Std. Error,"3.8 ONZ = 108.0g",1Value per 100 g,
Proximates
"Energy",kcal,--,--,370,343
"Protein",g,--,--,8.00,7.41
"Total lipid (fat)",g,--,--,28.00,25.93
"Carbohydrate, by difference",g,--,--,23.00,21.30
"Fiber, total dietary",g,--,--,0.0,0.0
"Sugars, total",g,--,--,18.00,16.67
Minerals
"Calcium, Ca",mg,--,--,60,56
"Iron, Fe",mg,--,--,1.25,1.16
"Sodium, Na",mg,--,--,240,222
Vitamins
"Vitamin C, total ascorbic acid",mg,--,--,0.0,0.0
"Vitamin A, IU",IU,--,--,2025,1875
Lipids
"Fatty acids, total saturated",g,--,--,15.995,14.810
"Fatty acids, total monounsaturated",g,--,--,6.998,6.480
"Fatty acids, total polyunsaturated",g,--,--,1.501,1.390
"Fatty acids, total trans",g,--,--,0.000,0.000
"Cholesterol",mg,--,--,145,134
Amino Acids
Other
Ingredients
"CREAM CHEESE (PASTEURIZED MILK AND CREAM, CHEESE CULTURE, SALT, CAROB BEAN GUM, GUAR GUM, AND/OR XANTHAN GUM), GRANULATED SUGAR, EGGS, SOUR CREAM (CULTURED PASTEURIZED GRADE A NONFAT MILK, CREAM, MODIFIED CORN STARCH, SODIUM PHOSPHATE, CAROB BEAN GUM, CARRAGEENAN, ENZYME), GRAHAM GRANULAR CRUMB(WHEAT FLOUR, WHOLE WHEAT FLOUR, SUGAR, SOYBEAN OIL, HIGH FRUCTOSE CORN SYRUP, SALT, SODIUM BICARBONATE), ZERO TRANS FAT MARGARINE (LIQUID SOYBEAN OIL, PALM OIL, WATER, SALT, MONO AND DIGLYCERIDES, SOYBEAN LECITHIN, NATURAL FLAVOR, ANNATTO COLOR, VITAMIN A PALMITATE ADDED), NATURAL AND ARTIFICIAL VANILLA (WATER, SUGAR, ALCOHOL, PURE VANILLA EXTRACT, CARAMEL COLOR, ETHYL VANILLIN), POTASSIUM SORBATE AS A PRESERVATIVE." Date available: 08/14/2017 Date last updated by company: 08/14/2017
