Source: USDA Branded Food Products Database Release December 2017 Software v.3.8.6.4 2017-10-02
Report Run at: December 19, 2017 03:08 EST
"Nutrient data for: 45026806, CREAMY POTATO FLAKES INSTANT MASHED POTATOES, UPC: 039978033314"
Food Group:  Branded Food Products Database
Common Name:

Nutrient,Unit,Data points,Std. Error,"0.333 cup = 17.0g",1Value per 100 g,
Proximates
"Energy",kcal,--,--,60,353
"Protein",g,--,--,1.00,5.88
"Total lipid (fat)",g,--,--,0.00,0.00
"Carbohydrate, by difference",g,--,--,14.00,82.35
"Fiber, total dietary",g,--,--,1.0,5.9
"Sugars, total",g,--,--,1.00,5.88
Minerals
"Calcium, Ca",mg,--,--,20,118
"Iron, Fe",mg,--,--,2.96,17.44
"Sodium, Na",mg,--,--,10,59
Vitamins
"Vitamin C, total ascorbic acid",mg,--,--,9.9,58.1
"Vitamin A, IU",IU,--,--,0,0
Lipids
"Fatty acids, total saturated",g,--,--,0.000,0.000
"Fatty acids, total trans",g,--,--,0.000,0.000
"Cholesterol",mg,--,--,0,0
Amino Acids
Other
Ingredients
"DEHYDRATED POTATOES" Date available: 07/14/2017 Date last updated by company: 07/14/2017
