Source: USDA Branded Food Products Database Release December 2017 Software v.3.8.6.4 2017-10-02
Report Run at: December 19, 2017 02:47 EST
"Nutrient data for: 45272710, CREAM OF CHICKEN CONDENSED SOUP, UPC: 07203672219"
Food Group:  Branded Food Products Database
Common Name:

Nutrient,Unit,Data points,Std. Error,"0.5 cup = 123.0g",1Value per 100 g,
Proximates
"Energy",kcal,--,--,70,57
"Protein",g,--,--,2.00,1.63
"Total lipid (fat)",g,--,--,2.50,2.03
"Carbohydrate, by difference",g,--,--,10.00,8.13
"Fiber, total dietary",g,--,--,1.0,0.8
"Sugars, total",g,--,--,1.00,0.81
Minerals
"Calcium, Ca",mg,--,--,0,0
"Iron, Fe",mg,--,--,0.00,0.00
"Potassium, K",mg,--,--,470,382
"Sodium, Na",mg,--,--,460,374
Vitamins
"Vitamin C, total ascorbic acid",mg,--,--,0.0,0.0
"Vitamin A, IU",IU,--,--,996,810
Lipids
"Fatty acids, total saturated",g,--,--,0.996,0.810
"Fatty acids, total monounsaturated",g,--,--,0.504,0.410
"Fatty acids, total polyunsaturated",g,--,--,0.996,0.810
"Fatty acids, total trans",g,--,--,0.000,0.000
"Cholesterol",mg,--,--,5,4
Amino Acids
Other
Ingredients
"CHICKEN STOCK, MODIFIED CORNSTARCH, COOKED CHICKEN MEAT, WHEAT FLOUR, CONTAINS 2% OR LESS OF: DRIED WHEY, SOYBEAN OIL, COOKED MECHANICALLY SEPARATED CHICKEN, SALT, POTASSIUM CHLORIDE, CHICKEN FAT, SOY PROTEIN CONCENTRATE, YEAST EXTRACT, INULIN, SUGAR, NATURAL FLAVOR, DISODIUM INOSINATE, DISODIUM GUANYLATE, ISOLATED SOY PROTEIN, SODIUM PHOSPHATES, ONION POWDER, CREAM, MALTODEXTRIN, CORN SYRUP SOLIDS, CITRIC ACID, FLAVOR, MILK SOLIDS, LACTIC ACID, BETA CAROTENE (COLOR), SOY LECITHIN." Date available: 07/14/2017 Date last updated by company: 07/14/2017
