Source: USDA Branded Food Products Database Release December 2017 Software v.3.8.6.4 2017-10-02
Report Run at: December 19, 2017 03:19 EST
"Nutrient data for: 45190495, CREME PIE, UPC: 038817002047"
Food Group:  Branded Food Products Database
Common Name:

Nutrient,Unit,Data points,Std. Error,"1 PIE = 120.0g",1Value per 100 g,
Proximates
"Energy",kcal,--,--,440,367
"Protein",g,--,--,4.00,3.33
"Total lipid (fat)",g,--,--,22.00,18.33
"Carbohydrate, by difference",g,--,--,56.00,46.67
"Fiber, total dietary",g,--,--,1.0,0.8
"Sugars, total",g,--,--,24.00,20.00
Minerals
"Calcium, Ca",mg,--,--,0,0
"Iron, Fe",mg,--,--,1.87,1.56
"Sodium, Na",mg,--,--,350,292
Vitamins
"Vitamin C, total ascorbic acid",mg,--,--,0.0,0.0
"Vitamin A, IU",IU,--,--,104,87
Lipids
"Fatty acids, total saturated",g,--,--,12.000,10.000
"Fatty acids, total trans",g,--,--,0.000,0.000
"Cholesterol",mg,--,--,25,21
Amino Acids
Other
Ingredients
"ENRICHED FLOUR (WHEAT FLOUR, NIACIN, REDUCED IRON, THIAMIN MONONITRATE, RIBOFLAVIN, FOLIC ACID), HIGH FRUCTOSE CORN SYRUP, CORN SYRUP, WATER, FULLY HYDROGENATED VEGETABLE, PALM, AND/OR ANIMAL SHORTENING (MAY CONTAIN SOYBEAN OIL, PALM, COTTONSEED OIL OR BEEF FAT), SUGAR, TAPIOCA STARCH-MODIFIED, COCOA POWDER (PROCESSED WITH ALKALI), CONTAINS 2% OR LESS OF THE FOLLOWING: SALT, GLYCERINE, MONO AND DIGLYCERIDES, SODIUM STEAROYL LACTYLATE, CORN SYRUP SOLIDS, CORN STARCH, AGAR, CALCIUM CARBONATE, CALCIUM SULFATE, CARBOXYMETHYL CELLULOSE, SODIUM PROPIONATE, POTASSIUM SORBATE, SODIUM BENZOATE (TO RETARD SPOILAGE), CITRIC ACID, MALTODEXTRIN, SOYBEAN LECITHIN, NATURAL AND ARTIFICIAL FLAVORS." Date available: 07/14/2017 Date last updated by company: 07/14/2017
