Source: USDA Branded Food Products Database Release December 2017 Software v.3.8.6.4 2017-10-02
Report Run at: December 19, 2017 03:16 EST
"Nutrient data for: 45207338, CREME CAKE, UPC: 011225122620"
Food Group:  Branded Food Products Database
Common Name:

Nutrient,Unit,Data points,Std. Error,"1 SLICE = 45.0g",1Value per 100 g,
Proximates
"Energy",kcal,--,--,120,267
"Protein",g,--,--,2.00,4.44
"Total lipid (fat)",g,--,--,3.50,7.78
"Carbohydrate, by difference",g,--,--,21.00,46.67
"Fiber, total dietary",g,--,--,1.0,2.2
"Sugars, total",g,--,--,11.00,24.44
Minerals
"Calcium, Ca",mg,--,--,0,0
"Iron, Fe",mg,--,--,1.92,4.27
"Sodium, Na",mg,--,--,120,267
Vitamins
"Vitamin C, total ascorbic acid",mg,--,--,0.0,0.0
"Vitamin A, IU",IU,--,--,0,0
Lipids
"Fatty acids, total saturated",g,--,--,0.999,2.220
"Fatty acids, total trans",g,--,--,0.000,0.000
"Cholesterol",mg,--,--,10,22
Amino Acids
Other
Ingredients
"SUGAR, BLEACHED WHEAT FLOUR (ENRICHED WITH NIACIN, REDUCED IRON, THIAMIN MONONITRATE, RIBOFLAVIN, FOLIC ACID), BANANAS, WHOLE EGGS, SOYBEAN OIL, WATER, CORN STARCH MODIFIED, WHEY (MILK), LEAVENING (SODIUM ALUMINUM PHOSPHATE, ALUMINUM SULFATE, SODIUM BICARBONATE, MONOCALCIUM PHOSPHATE), WHEAT GLUTEN, SALT, SOY LECITHIN, PROPYLENE GLYCOL, MONO & DIESTERS, NATURAL AND ARTIFICIAL FLAVOR, CARAMEL COLOR, MONO AND DIGLYCERIDES, SODIUM STEAROYL LACTYLATE, CELLULOSE GUM, TRICALCIUM PHOSPHATE, ASCORBIC ACID (DOUGH CONDITIONER), CITRIC ACID, SODIUM PROPIONATE, POTASSIUM SORBATE (PRESERVATIVE), XANTHAN GUM." Date available: 10/10/2017 Date last updated by company: 10/10/2017
