Source: USDA Branded Food Products Database Release December 2017 Software v.3.8.6.4 2017-10-02
Report Run at: December 19, 2017 03:24 EST
"Nutrient data for: 45219902, CRESCENT ROLLS, UPC: 085239000830"
Food Group:  Branded Food Products Database
Common Name:

Nutrient,Unit,Data points,Std. Error,"1 ROLL = 28.0g",1Value per 100 g,
Proximates
"Energy",kcal,--,--,100,357
"Protein",g,--,--,1.00,3.57
"Total lipid (fat)",g,--,--,6.00,21.43
"Carbohydrate, by difference",g,--,--,11.00,39.29
"Fiber, total dietary",g,--,--,0.0,0.0
"Sugars, total",g,--,--,2.00,7.14
Minerals
"Calcium, Ca",mg,--,--,0,0
"Iron, Fe",mg,--,--,1.41,5.05
"Sodium, Na",mg,--,--,220,786
Vitamins
"Vitamin C, total ascorbic acid",mg,--,--,0.0,0.0
"Thiamin",mg,--,--,0.280,1.000
"Riboflavin",mg,--,--,0.034,0.121
"Niacin",mg,--,--,1.572,5.614
"Vitamin A, IU",IU,--,--,0,0
Lipids
"Fatty acids, total saturated",g,--,--,2.500,8.930
"Fatty acids, total monounsaturated",g,--,--,1.999,7.140
"Fatty acids, total polyunsaturated",g,--,--,1.000,3.570
"Fatty acids, total trans",g,--,--,0.000,0.000
"Cholesterol",mg,--,--,0,0
Amino Acids
Other
Ingredients
"ENRICHED BLEACHED FLOUR [WHEAT FLOUR, NIACIN, IRON, THIAMIN MONONITRATE (VITAMIN B1), RIBOFLAVIN (VITAMIN B2), FOLIC ACID], WATER, VEGETABLE OIL (PALM, SOYBEAN AND/OR COTTONSEED OILS), SUGAR, LEAVENING (BAKING SODA, SODIUM ACID PYROPHOSPHATE, SODIUM ALUMINUM PHOSPHATE, ALUMINUM SULFATE), DEXTROSE, CONTAINS 2% OR LESS OF EACH OF THE FOLLOWING: POTASSIUM CHLORIDE, SALT, WHEAT GLUTEN, SODIUM STEAROYL LACTYLATE, XANTHAN GUM, PROPYLENE GLYCOL ALGINATE, ARTIFICIAL FLAVOR, SODIUM ALGINATE, POTASSIUM SORBATE AND TBHQ (PRESERVATIVES), COLORED WITH (YELLOW 5, CARAMEL COLOR, YELLOW 6), SOY FLOUR." Date available: 07/14/2017 Date last updated by company: 07/14/2017
