Source: USDA Branded Food Products Database Release December 2017 Software v.3.8.6.4 2017-10-02
Report Run at: December 19, 2017 03:23 EST
"Nutrient data for: 45103606, CRESCENT, ROASTED & SALTED ALMONDS, UPC: 895296002988"
Food Group:  Branded Food Products Database
Common Name:

Nutrient,Unit,Data points,Std. Error,"22.0 WHOLE KERNELS) | ( = 28.3g",1Value per 100 g,
Proximates
"Energy",kcal,--,--,169,597
"Protein",g,--,--,6.30,22.26
"Total lipid (fat)",g,--,--,15.00,53.00
"Carbohydrate, by difference",g,--,--,5.50,19.43
"Fiber, total dietary",g,--,--,3.3,11.7
"Sugars, total",g,--,--,1.40,4.95
Minerals
"Calcium, Ca",mg,--,--,80,283
"Iron, Fe",mg,--,--,2.23,7.87
"Sodium, Na",mg,--,--,96,339
Vitamins
"Vitamin C, total ascorbic acid",mg,--,--,0.0,0.0
"Vitamin A, IU",IU,--,--,0,0
Lipids
"Fatty acids, total saturated",g,--,--,1.101,3.890
"Fatty acids, total trans",g,--,--,0.000,0.000
"Cholesterol",mg,--,--,0,0
Amino Acids
Other
Ingredients
"ALMONDS, SALT" Date available: 06/25/2017 Date last updated by company: 06/25/2017
