Source: USDA Branded Food Products Database Release December 2017 Software v.3.8.6.4 2017-10-02
Report Run at: December 19, 2017 03:32 EST
"Nutrient data for: 45314856, CRISPY CHICKEN STRIPS, UPC: 045421850063"
Food Group:  Branded Food Products Database
Common Name:

Nutrient,Unit,Data points,Std. Error,"2.0 STRIPS = 112.0g",1Value per 100 g,
Proximates
"Energy",kcal,--,--,230,205
"Protein",g,--,--,18.00,16.07
"Total lipid (fat)",g,--,--,9.00,8.04
"Carbohydrate, by difference",g,--,--,17.00,15.18
"Fiber, total dietary",g,--,--,0.3,0.3
"Sugars, total",g,--,--,0.00,0.00
Minerals
"Calcium, Ca",mg,--,--,0,0
"Iron, Fe",mg,--,--,0.55,0.49
"Sodium, Na",mg,--,--,530,473
Vitamins
"Vitamin C, total ascorbic acid",mg,--,--,0.0,0.0
"Vitamin A, IU",IU,--,--,0,0
Lipids
"Fatty acids, total saturated",g,--,--,1.501,1.340
"Fatty acids, total trans",g,--,--,0.000,0.000
"Cholesterol",mg,--,--,55,49
Amino Acids
Other
Ingredients
"CHICKEN BREAST MEAT WITH RIB MEAT, WHEAT FLOUR, CHICKEN BROTH, WATER, CONTAINS 2% OR LESS OF CORN STARCH, RICE STARCH, SALT, YELLOW CORN FLOUR, LEAVENING (CREAM OF TARTAR, SODIUM BICARBONATE), SEA SALT, SUGAR, YEAST EXTRACT, YEAST, GRANULATED GARLIC, WHEAT GLUTEN, GRANULATED ONION, EGG WHITES, DEHYDRATED GARLIC, SPICE, EXPELLER PRESSED CANOLA OIL." Date available: 07/14/2017 Date last updated by company: 07/14/2017
