Source: USDA Branded Food Products Database Release December 2017 Software v.3.8.6.4 2017-10-02
Report Run at: December 19, 2017 03:29 EST
"Nutrient data for: 45250698, CRISP WAFERS, UPC: 03475300"
Food Group:  Branded Food Products Database
Common Name:

Nutrient,Unit,Data points,Std. Error,"1 PACKAGE = 42.0g",1Value per 100 g,
Proximates
"Energy",kcal,--,--,210,500
"Protein",g,--,--,3.00,7.14
"Total lipid (fat)",g,--,--,11.00,26.19
"Carbohydrate, by difference",g,--,--,27.00,64.29
"Fiber, total dietary",g,--,--,1.0,2.4
"Sugars, total",g,--,--,21.00,50.00
Minerals
"Calcium, Ca",mg,--,--,60,143
"Iron, Fe",mg,--,--,0.43,1.02
"Sodium, Na",mg,--,--,30,71
Vitamins
"Vitamin C, total ascorbic acid",mg,--,--,0.0,0.0
"Vitamin A, IU",IU,--,--,0,0
Lipids
"Fatty acids, total saturated",g,--,--,7.001,16.670
"Fatty acids, total trans",g,--,--,0.000,0.000
"Cholesterol",mg,--,--,5,12
Amino Acids
Other
Ingredients
"SUGAR; WHEAT FLOUR; NONFAT MILK; COCOA BUTTER; CHOCOLATE; PALM KERNEL OIL; LACTOSE (MILK); MILK FAT; CONTAINS 2% OR LESS OF: SOY LECITHIN; PGPR, EMULSIFIER; YEAST; VANILLIN, ARTIFICIAL FLAVOR; SALT; SODIUM BICARBONATE." Date available: 07/14/2017 Date last updated by company: 07/14/2017
