Source: USDA Branded Food Products Database Release December 2017 Software v.3.8.6.4 2017-10-02
Report Run at: December 19, 2017 03:39 EST
"Nutrient data for: 45317794, CRISPY SAUERKRAUT, UPC: 037100046157"
Food Group:  Branded Food Products Database
Common Name:

Nutrient,Unit,Data points,Std. Error,"2.0 Tbsp = 30.0g",1Value per 100 g,
Proximates
"Energy",kcal,--,--,5,17
"Protein",g,--,--,0.00,0.00
"Total lipid (fat)",g,--,--,0.00,0.00
"Carbohydrate, by difference",g,--,--,1.00,3.33
"Fiber, total dietary",g,--,--,1.0,3.3
"Sugars, total",g,--,--,1.00,3.33
Minerals
"Calcium, Ca",mg,--,--,0,0
"Iron, Fe",mg,--,--,3.12,10.40
"Potassium, K",mg,--,--,55,183
"Sodium, Na",mg,--,--,200,667
Vitamins
"Vitamin C, total ascorbic acid",mg,--,--,20.8,69.3
"Vitamin A, IU",IU,--,--,0,0
Lipids
"Fatty acids, total saturated",g,--,--,0.000,0.000
"Fatty acids, total trans",g,--,--,0.000,0.000
"Cholesterol",mg,--,--,0,0
Amino Acids
Other
Ingredients
"CABBAGE, WATER, SALT AND SODIUM SULFITE (TO PROMOTE COLOR RETENTION)." Date available: 10/13/2017 Date last updated by company: 10/13/2017
