Source: USDA Branded Food Products Database Release December 2017 Software v.3.8.6.4 2017-10-02
Report Run at: December 19, 2017 03:28 EST
"Nutrient data for: 45032346, CRISP'N LIGHT WHOLESOME WHEAT CRISPBREAD, UPC: 033617000187"
Food Group:  Branded Food Products Database
Common Name:

Nutrient,Unit,Data points,Std. Error,"3.0 SLICES = 18.0g",1Value per 100 g,
Proximates
"Energy",kcal,--,--,70,389
"Protein",g,--,--,2.00,11.11
"Total lipid (fat)",g,--,--,0.00,0.00
"Carbohydrate, by difference",g,--,--,14.00,77.78
"Fiber, total dietary",g,--,--,1.0,5.6
"Sugars, total",g,--,--,1.00,5.56
Minerals
"Calcium, Ca",mg,--,--,20,111
"Iron, Fe",mg,--,--,1.00,5.56
"Sodium, Na",mg,--,--,90,500
Vitamins
"Vitamin C, total ascorbic acid",mg,--,--,0.0,0.0
"Vitamin A, IU",IU,--,--,0,0
Lipids
"Fatty acids, total saturated",g,--,--,0.000,0.000
"Fatty acids, total trans",g,--,--,0.000,0.000
"Cholesterol",mg,--,--,0,0
Amino Acids
Other
Ingredients
"WHEAT FLOUR, RYE FLOUR, WHOLE GRAIN WHEAT FLOUR, SKIM MILK POWDER, SUGAR, SALT, PALM OIL, CANOLA OIL." Date available: 07/14/2017 Date last updated by company: 07/14/2017
