Source: USDA Branded Food Products Database Release December 2017 Software v.3.8.6.4 2017-10-02
Report Run at: December 19, 2017 03:30 EST
"Nutrient data for: 45219922, CRISPY BARS, UPC: 085239021026"
Food Group:  Branded Food Products Database
Common Name:

Nutrient,Unit,Data points,Std. Error,"1 BAR = 38.0g",1Value per 100 g,
Proximates
"Energy",kcal,--,--,140,368
"Protein",g,--,--,1.00,2.63
"Total lipid (fat)",g,--,--,4.00,10.53
"Carbohydrate, by difference",g,--,--,25.00,65.79
"Fiber, total dietary",g,--,--,0.0,0.0
"Sugars, total",g,--,--,14.00,36.84
Minerals
"Calcium, Ca",mg,--,--,0,0
"Iron, Fe",mg,--,--,0.00,0.00
"Sodium, Na",mg,--,--,110,289
Vitamins
"Vitamin C, total ascorbic acid",mg,--,--,0.0,0.0
"Vitamin A, IU",IU,--,--,0,0
Lipids
"Fatty acids, total saturated",g,--,--,1.501,3.950
"Fatty acids, total trans",g,--,--,0.000,0.000
"Cholesterol",mg,--,--,0,0
Amino Acids
Other
Ingredients
"MARSHMALLOW (CORN SYRUP, INVERT SUGAR, SUGAR, WATER, NATURAL AND ARTIFICIAL VANILLA FLAVOR, DEXTROSE, MODIFIED CORN STARCH, TETRASODIUM PYROPHOSPHATE), CRISP RICE (RICE, SUGAR, SALT, MALT [CORN FLOUR, MALTED BARLEY], REDUCED IRON, NIACINAMIDE, THIAMIN HYDROCHLORIDE, FOLIC ACID, AND BHT [PRESERVATIVE]), GRAHAM CRUNCH (WHEAT FLOUR [WHEAT FLOUR, NIACIN, WHOLE WHEAT FLOUR, SUGAR, SOYBEAN OIL, HONEY, SODIUM BICARBONATE, SALT]), CHOCOLATE (SUGAR, PALM KERNEL OIL, COCOA POWDER, WHEY POWDER, NONFAT MILK POWDER, SOY LECITHIN, VANILLA), MARGARINE (PALM OIL, WATER, SALT, VEGETABLE MONOGLYCERIDES, WHEY SOLIDS, SODIUM BENZOATE (PRESERVATIVE), NATURAL AND ARTIFICIAL FLAVOR, CITRIC ACID, BETA CAROTENE [COLOR], VITAMIN A PALMITATE ADDED), VANILLA GLYCERIN, TBHQ (PRESERVATIVES)." Date available: 07/14/2017 Date last updated by company: 07/14/2017
