Source: USDA Branded Food Products Database Release December 2017 Software v.3.8.6.4 2017-10-02
Report Run at: December 19, 2017 03:32 EST
"Nutrient data for: 45203128, CRISPY CHICK'N POCKET MEAL, UPC: 842234002005"
Food Group:  Branded Food Products Database
Common Name:

Nutrient,Unit,Data points,Std. Error,"1 PIECE = 150.0g",1Value per 100 g,
Proximates
"Energy",kcal,--,--,290,193
"Protein",g,--,--,22.00,14.67
"Total lipid (fat)",g,--,--,13.01,8.67
"Carbohydrate, by difference",g,--,--,23.00,15.33
"Fiber, total dietary",g,--,--,3.0,2.0
"Sugars, total",g,--,--,2.00,1.33
Minerals
"Calcium, Ca",mg,--,--,60,40
"Iron, Fe",mg,--,--,1.53,1.02
"Sodium, Na",mg,--,--,550,367
Vitamins
"Vitamin C, total ascorbic acid",mg,--,--,2.1,1.4
"Vitamin A, IU",IU,--,--,567,378
Lipids
"Fatty acids, total saturated",g,--,--,1.005,0.670
"Fatty acids, total trans",g,--,--,0.000,0.000
"Cholesterol",mg,--,--,0,0
Amino Acids
Other
Ingredients
"WATER, SOY PROTEIN ISOLATE*, EXPELLER PRESSED CANOLA OIL*, VITAL WHEAT GLUTEN*, SPINACH, KALE, ONION, TOMATO PUREE, TOMATO FLAKES, MODIFIED VEGETABLE GUM, YEAST EXTRACT, GARLIC PUREE, NATURAL FLAVORS (FROM PLANT SOURCES, CONTAINS ORGANIC SOY SAUCE), COOKED BROWN AND WILD RICE, ORGANIC CANE SUGAR, SEA SALT, PEARL BARLEY, SUNDRIED TOMATO, ORGANIC ANCIENT GRAIN FLOUR (KAMUT KHORASAN WHEAT, AMARANTH, MILLET, QUINOA), TOMATO POWDER, CORN STARCH, VINEGAR, CARRAGEENAN, SPICES, ONION POWDER, GARLIC POWDER, LEMON PEEL, SOY LECITHIN*, PEA PROTEIN, CARROT FIBRE, BEETROOT FIBRE, COLOR ADDED, PAPRIKA AND TURMERIC EXTRACTS. BREADING: RICE FLOUR, WHEAT FLOUR*, WATER, MODIFIED CORN STARCH, SUGAR, SALT, WHEAT GLUTEN*, PEPPER, YEAST, ONION POWDER, GARLIC POWDER, BAKING POWDER, MALTED BARLEY FLOUR, ASCORBIC ACID." Date available: 10/18/2017 Date last updated by company: 10/18/2017
