Source: USDA Branded Food Products Database Release December 2017 Software v.3.8.6.4 2017-10-02
Report Run at: December 19, 2017 03:31 EST
"Nutrient data for: 45274870, CRISPY BREADSTICKS, UPC: 070704000897"
Food Group:  Branded Food Products Database
Common Name:

Nutrient,Unit,Data points,Std. Error,"3.0 BREADSTICKS = 15.0g",1Value per 100 g,
Proximates
"Energy",kcal,--,--,60,400
"Protein",g,--,--,2.00,13.33
"Total lipid (fat)",g,--,--,1.50,10.00
"Carbohydrate, by difference",g,--,--,11.00,73.33
"Fiber, total dietary",g,--,--,1.0,6.7
"Sugars, total",g,--,--,0.00,0.00
Minerals
"Calcium, Ca",mg,--,--,20,133
"Iron, Fe",mg,--,--,3.96,26.40
"Sodium, Na",mg,--,--,90,600
Vitamins
"Vitamin C, total ascorbic acid",mg,--,--,0.0,0.0
"Vitamin A, IU",IU,--,--,0,0
Lipids
"Fatty acids, total saturated",g,--,--,0.000,0.000
"Fatty acids, total trans",g,--,--,0.000,0.000
"Cholesterol",mg,--,--,0,0
Amino Acids
Other
Ingredients
"ENRICHED WHEAT FLOUR (WHEAT FLOUR, BARLEY MALT, NIACIN, IRON, THIAMIN MONONITRATE, RIBOFLAVIN, FOLIC ACID), WATER, YEAST, SOYBEAN OIL, CONTAINS 2% OR LESS OF THE FOLLOWING: SPICES, SUMAC, CORN SYRUP SOLIDS, LEMON JUICE SOLIDS, NATURAL FLAVOR, CITRIC ACID, SESAME OIL, LEMON OIL, SUGAR, OAT FIBER, SALT." Date available: 07/14/2017 Date last updated by company: 07/14/2017
