Source: USDA Branded Food Products Database Release December 2017 Software v.3.8.6.4 2017-10-02
Report Run at: December 19, 2017 03:42 EST
"Nutrient data for: 45196948, CROCK POT SAUCE BEEF SEASONING MIX, UPC: 070381100422"
Food Group:  Branded Food Products Database
Common Name:

Nutrient,Unit,Data points,Std. Error,"1.5 Tbsp = 21.0g",1Value per 100 g,
Proximates
"Energy",kcal,--,--,10,48
"Protein",g,--,--,0.00,0.00
"Total lipid (fat)",g,--,--,0.00,0.00
"Carbohydrate, by difference",g,--,--,2.00,9.52
"Fiber, total dietary",g,--,--,0.0,0.0
"Sugars, total",g,--,--,0.00,0.00
Minerals
"Calcium, Ca",mg,--,--,0,0
"Iron, Fe",mg,--,--,0.00,0.00
"Sodium, Na",mg,--,--,190,905
Vitamins
"Vitamin C, total ascorbic acid",mg,--,--,0.0,0.0
"Vitamin A, IU",IU,--,--,0,0
Lipids
"Fatty acids, total saturated",g,--,--,0.000,0.000
"Fatty acids, total trans",g,--,--,0.000,0.000
"Cholesterol",mg,--,--,0,0
Amino Acids
Other
Ingredients
"WATER, VINEGAR, CORN STARCH, HYDROLYZED VEGETABLE PROTEIN (HYDROLYZED CORN GLUTEN, SOY PROTEIN & WHEAT GLUTEN) WITH PARTIALLY HYDROGENATED SOYBEAN & COTTONSEED OILS, LACTIC ACID, MALTODEXTRIN & CULTURED DEXTROSE, SUGAR, SALT, ONION, SOY SAUCE POWDER (SOY SAUCE[SOYBEANS, WHEAT, SALT] MALTODEXTRIN & SALT), DEXTROSE, GARLIC, TOMATO, MOLASSES POWDER(REFINERY SYRUP & MOLASSES), YEAST EXTRACT & SOY SAUCE (SOY, WHEAT GLUTEN), RED BELL PEPPER, SPICE, YEAST EXTRACT, XANTHAN GUM." Date available: 07/14/2017 Date last updated by company: 07/14/2017
