Source: USDA Branded Food Products Database Release December 2017 Software v.3.8.6.4 2017-10-02
Report Run at: December 19, 2017 04:03 EST
"Nutrient data for: 45102196, CRUNCHY PEANUT BUTTER REAL DARK CHOCOLATE REAL DELICIOUS, UPC: 691535207011"
Food Group:  Branded Food Products Database
Common Name:

Nutrient,Unit,Data points,Std. Error,"1 BAR = 45.0g",1Value per 100 g,
Proximates
"Energy",kcal,--,--,180,400
"Protein",g,--,--,17.00,37.78
"Total lipid (fat)",g,--,--,7.00,15.56
"Carbohydrate, by difference",g,--,--,18.00,40.00
"Fiber, total dietary",g,--,--,7.0,15.6
"Sugars, total",g,--,--,3.00,6.67
Minerals
"Calcium, Ca",mg,--,--,60,133
"Iron, Fe",mg,--,--,2.40,5.33
"Sodium, Na",mg,--,--,150,333
Vitamins
"Vitamin C, total ascorbic acid",mg,--,--,0.0,0.0
"Vitamin A, IU",IU,--,--,0,0
Lipids
"Fatty acids, total saturated",g,--,--,3.001,6.670
"Fatty acids, total trans",g,--,--,0.000,0.000
"Cholesterol",mg,--,--,0,0
Amino Acids
Other
Ingredients
"PROTEIN BLEND [SOY CRISP (SOY PROTEIN, TAPIOCA STARCH, SALT), RICE PROTEIN, SOY PROTEIN], DARK CHOCOLATE (CHOCOLATE LIQUOR, CANE SUGAR, COCOA BUTTER), CHICORY ROOT, VEGETABLE GLYCERINE, PEANUTS, PEANUT FLOUR, ALMONDS, CHOCOLATE LIQUOR, RICE BRAN, NATURAL FLAVORS, MICROCRYSTALLINE CELLULOSE, PEANUT EXTRACT, SALT." Date available: 07/14/2017 Date last updated by company: 07/14/2017
