Source: USDA Branded Food Products Database Release December 2017 Software v.3.8.6.4 2017-10-02
Report Run at: December 19, 2017 03:48 EST
"Nutrient data for: 45258762, CRUNCH BAR, UPC: 9314419026829"
Food Group:  Branded Food Products Database
Common Name:

Nutrient,Unit,Data points,Std. Error,"1 BAR = 40.0g",1Value per 100 g,
Proximates
"Energy",kcal,--,--,212,530
"Protein",g,--,--,1.40,3.50
"Total lipid (fat)",g,--,--,14.60,36.50
"Carbohydrate, by difference",g,--,--,18.60,46.50
"Fiber, total dietary",g,--,--,2.0,5.0
"Sugars, total",g,--,--,1.00,2.50
Minerals
"Calcium, Ca",mg,--,--,20,50
"Iron, Fe",mg,--,--,0.36,0.90
"Sodium, Na",mg,--,--,177,442
Vitamins
"Vitamin C, total ascorbic acid",mg,--,--,0.0,0.0
"Vitamin A, IU",IU,--,--,100,250
Lipids
"Fatty acids, total saturated",g,--,--,2.600,6.500
"Fatty acids, total trans",g,--,--,1.000,2.500
"Cholesterol",mg,--,--,11,28
Amino Acids
Other
Ingredients
"MACADAMIA NUTS, SUGAR, GLUCOSE SYRUP (WHEAT), COCONUT, BUTTER (MILK), SALT, BAKING SODA, LECITHIN (SOY)." Date available: 02/26/2017 Date last updated by company: 02/26/2017
