Source: USDA Branded Food Products Database Release December 2017 Software v.3.8.6.4 2017-10-02
Report Run at: December 19, 2017 04:06 EST
"Nutrient data for: 45151084, CRUNCHY PROTEIN PEANUTS, UPC: 028400586566"
Food Group:  Branded Food Products Database
Common Name:

Nutrient,Unit,Data points,Std. Error,"1 ONZ = 28.0g",1Value per 100 g,
Proximates
"Energy",kcal,--,--,150,536
"Protein",g,--,--,7.00,25.00
"Total lipid (fat)",g,--,--,9.00,32.14
"Carbohydrate, by difference",g,--,--,10.00,35.71
"Fiber, total dietary",g,--,--,1.0,3.6
"Sugars, total",g,--,--,4.00,14.29
Minerals
"Calcium, Ca",mg,--,--,20,71
"Iron, Fe",mg,--,--,0.72,2.57
"Sodium, Na",mg,--,--,200,714
Vitamins
"Vitamin C, total ascorbic acid",mg,--,--,0.0,0.0
"Vitamin A, IU",IU,--,--,100,357
Lipids
"Fatty acids, total saturated",g,--,--,1.501,5.360
"Fatty acids, total trans",g,--,--,0.000,0.000
"Cholesterol",mg,--,--,0,0
Amino Acids
Other
Ingredients
"PEANUTS, SOY PROTEIN ISOLATE, SUGAR, MODIFIED CORN STARCH, RICE FLOUR, VEGETABLE OIL (PEANUT, SUNFLOWER AND/OR COTTONSEED), SALT, BROWN SUGAR, WHEY PROTEIN CONCENTRATE, BAKING POWDER (SODIUM ACID PYROPHOSPHATE, BAKING SODA, CORN STARCH, MONOCALCIUM PHOSPHATE), PAPRIKA, SPICES, MALTODEXTRIN (MADE FROM CORN), ONION POWDER, NATURAL FLAVOR (INCLUDING NATURAL SMOKE FLAVOR), YEAST EXTRACT, MOLASSES, CITRIC ACID, TOMATO POWDER, HONEY, GARLIC POWDER, PAPRIKA EXTRACTS, WHEAT FLOUR AND MALTED BARLEY FLOUR." Date available: 09/23/2016 Date last updated by company: 09/23/2016
