Source: USDA Branded Food Products Database Release December 2017 Software v.3.8.6.4 2017-10-02
Report Run at: December 19, 2017 03:57 EST
"Nutrient data for: 45293226, CRUNCHY APPLE CHIPS, UPC: 818164020006"
Food Group:  Branded Food Products Database
Common Name:

Nutrient,Unit,Data points,Std. Error,"20.0 GRM = 20.0g",1Value per 100 g,
Proximates
"Energy",kcal,--,--,80,400
"Protein",g,--,--,0.00,0.00
"Total lipid (fat)",g,--,--,1.00,5.00
"Carbohydrate, by difference",g,--,--,16.00,80.00
"Fiber, total dietary",g,--,--,2.0,10.0
"Sugars, total",g,--,--,14.00,70.00
Minerals
"Calcium, Ca",mg,--,--,0,0
"Iron, Fe",mg,--,--,0.00,0.00
"Sodium, Na",mg,--,--,0,0
Vitamins
"Vitamin C, total ascorbic acid",mg,--,--,0.0,0.0
"Vitamin A, IU",IU,--,--,0,0
Lipids
"Fatty acids, total saturated",g,--,--,0.000,0.000
"Fatty acids, total trans",g,--,--,0.000,0.000
"Cholesterol",mg,--,--,0,0
Amino Acids
Other
Ingredients
"APPLES, APPLE JUICE, ORGANIC APPLE JUICE, FILTERED WATER, PINEAPPLE JUICE (WATER, PINEAPPLE JUICE CONCONTRATE, ASCORBIC ACID (VITAMIN C), VITAMIN E, VITAMIN A), ORANGE JUICE, ORGANIC LEMON JUICE, GROUND CINNAMON." Date available: 07/14/2017 Date last updated by company: 07/14/2017
