Source: USDA Branded Food Products Database Release December 2017 Software v.3.8.6.4 2017-10-02
Report Run at: December 19, 2017 03:57 EST
"Nutrient data for: 45274139, CRUNCHY BUTTERFLY SHRIMP, UPC: 078742158334"
Food Group:  Branded Food Products Database
Common Name:

Nutrient,Unit,Data points,Std. Error,"6.0 SHRIMP | ABOUT = 85.0g",1Value per 100 g,
Proximates
"Energy",kcal,--,--,210,247
"Protein",g,--,--,7.00,8.24
"Total lipid (fat)",g,--,--,12.00,14.12
"Carbohydrate, by difference",g,--,--,19.00,22.35
"Fiber, total dietary",g,--,--,1.0,1.2
"Sugars, total",g,--,--,1.00,1.18
Minerals
"Calcium, Ca",mg,--,--,20,24
"Iron, Fe",mg,--,--,0.36,0.42
"Sodium, Na",mg,--,--,400,471
Vitamins
"Vitamin C, total ascorbic acid",mg,--,--,0.0,0.0
"Vitamin A, IU",IU,--,--,0,0
Lipids
"Fatty acids, total saturated",g,--,--,1.003,1.180
"Fatty acids, total trans",g,--,--,0.000,0.000
"Cholesterol",mg,--,--,40,47
Amino Acids
Other
Ingredients
"SHRIMP, WHEAT FLOUR, WATER, SOYBEAN OIL, FOOD STARCH, MODIFIED FOOD STARCH, DEXTROSE, VEGETABLE SHORTENING, CORN FLOUR, SALT, SUGAR, SODIUM ACID PYROPHOSPHATE, SODIUM BICARBONATE, XANTHAN GUM, SODIUM CARBOXYMETHYL CELLULOSE, YEAST, SPICES, RED PAPRIKA, VEGETABLE OIL, SODIUM TRIPOLYPHOSPHATE." Date available: 08/22/2017 Date last updated by company: 08/22/2017
