Source: USDA Branded Food Products Database Release December 2017 Software v.3.8.6.4 2017-10-02
Report Run at: December 19, 2017 03:59 EST
"Nutrient data for: 45231206, CRUNCHY DRIZZLE BITES, UPC: 857900005167"
Food Group:  Branded Food Products Database
Common Name:

Nutrient,Unit,Data points,Std. Error,"21.0 PIECES) | (ABOUT = 21.0g",1Value per 100 g,
Proximates
"Energy",kcal,--,--,90,429
"Protein",g,--,--,1.00,4.76
"Total lipid (fat)",g,--,--,3.50,16.67
"Carbohydrate, by difference",g,--,--,15.00,71.43
"Fiber, total dietary",g,--,--,0.0,0.0
"Sugars, total",g,--,--,6.00,28.57
Minerals
"Calcium, Ca",mg,--,--,0,0
"Iron, Fe",mg,--,--,0.00,0.00
"Potassium, K",mg,--,--,0,0
"Sodium, Na",mg,--,--,85,405
Vitamins
"Vitamin D",IU,--,--,0,0
Lipids
"Fatty acids, total saturated",g,--,--,1.999,9.520
"Fatty acids, total monounsaturated",g,--,--,1.000,4.760
"Fatty acids, total polyunsaturated",g,--,--,0.000,0.000
"Fatty acids, total trans",g,--,--,0.000,0.000
"Cholesterol",mg,--,--,0,0
Amino Acids
Other
Ingredients
"CRISP (WHITE RICE FLOUR, TAPIOCA STARCH, WHOLE GRAIN YELLOW CORN FLOUR, CORN STARCH, CANE SUGAR, FLAX, QUINOA, CINNAMON, CHIA), FLAVORED COATING (SUGAR, PALM KERNEL OIL, NATURAL FLAVORS), SUGAR, CINNAMON, SUNFLOWER OIL, SEA SALT" Date available: 10/17/2017 Date last updated by company: 10/17/2017
