Source: USDA Branded Food Products Database Release December 2017 Software v.3.8.6.4 2017-10-02
Report Run at: December 19, 2017 04:11 EST
"Nutrient data for: 45079004, CRUSHED TOMATOES, UPC: 787176000019"
Food Group:  Branded Food Products Database
Common Name:

Nutrient,Unit,Data points,Std. Error,"0.5 cup = 130.0g",1Value per 100 g,
Proximates
"Energy",kcal,--,--,40,31
"Protein",g,--,--,1.79,1.38
"Total lipid (fat)",g,--,--,0.30,0.23
"Carbohydrate, by difference",g,--,--,7.50,5.77
"Fiber, total dietary",g,--,--,2.5,1.9
"Sugars, total",g,--,--,5.00,3.85
Minerals
"Sodium, Na",mg,--,--,416,320
Vitamins
Lipids
"Fatty acids, total saturated",g,--,--,0.000,0.000
"Fatty acids, total trans",g,--,--,0.000,0.000
"Cholesterol",mg,--,--,0,0
Amino Acids
Other
Ingredients
"TOMATOES, TOMATO PASTE, SALT, SUGAR, FOOD ACID (CITRIC ACID)." Date available: 06/24/2017 Date last updated by company: 06/24/2017
