Source: USDA Branded Food Products Database Release December 2017 Software v.3.8.6.4 2017-10-02
Report Run at: December 19, 2017 04:13 EST
"Nutrient data for: 45153976, CRUZ, COOKIES & CREAM BAR, UPC: 812881020431"
Food Group:  Branded Food Products Database
Common Name:

Nutrient,Unit,Data points,Std. Error,"1.5 ONZ = 43.0g",1Value per 100 g,
Proximates
"Energy",kcal,--,--,230,535
"Protein",g,--,--,2.00,4.65
"Total lipid (fat)",g,--,--,13.00,30.23
"Carbohydrate, by difference",g,--,--,26.00,60.47
"Fiber, total dietary",g,--,--,0.0,0.0
"Sugars, total",g,--,--,25.00,58.14
Minerals
"Calcium, Ca",mg,--,--,80,186
"Iron, Fe",mg,--,--,0.00,0.00
"Sodium, Na",mg,--,--,70,163
Vitamins
"Vitamin C, total ascorbic acid",mg,--,--,1.4,3.3
"Vitamin A, IU",IU,--,--,117,271
Lipids
"Fatty acids, total saturated",g,--,--,7.000,16.280
"Fatty acids, total trans",g,--,--,0.000,0.000
"Cholesterol",mg,--,--,5,12
Amino Acids
Other
Ingredients
"SUGAR, MIXED OILS & FATS [COCOA BUTTER, PALM, SHEA BUTTER MANGO & OR SUNFLOWER/SAFFLOWER OIL) WHOLE MILK POWDER CHOCOLATE COOKIE CRUMBS, WHEY POWDER, LACTOSE, EMULSIFIERS SOY LECITHIN & PGPR, NATURAL VANILLA FLAVOR, SALT." Date available: 07/14/2017 Date last updated by company: 07/14/2017
