Source: USDA Branded Food Products Database Release December 2017 Software v.3.8.6.4 2017-10-02
Report Run at: December 19, 2017 04:20 EST
"Nutrient data for: 45260230, CRYSTALLIZED GINGER, UPC: 085239025482"
Food Group:  Branded Food Products Database
Common Name:

Nutrient,Unit,Data points,Std. Error,"1 tsp = 3.5g",1Value per 100 g,
Proximates
"Energy",kcal,--,--,15,429
"Protein",g,--,--,0.00,0.00
"Total lipid (fat)",g,--,--,0.00,0.00
"Carbohydrate, by difference",g,--,--,3.00,85.71
"Sugars, total",g,--,--,3.00,85.71
Minerals
"Sodium, Na",mg,--,--,5,143
Vitamins
Lipids
Amino Acids
Other
Ingredients
"GINGER, CANE SUGAR, SULPHUR DIOXIDE (USED TO PROTECT COLOR)." Date available: 07/14/2017 Date last updated by company: 07/14/2017
