Source: USDA Branded Food Products Database Release December 2017 Software v.3.8.6.4 2017-10-02
Report Run at: December 19, 2017 04:20 EST
"Nutrient data for: 45311150, CSCDN FARM ORG CEREAL VANILLA CHIA CRNCH, UNPREPARED, GTIN: 00021908493114"
Food Group:  Branded Food Products Database
Common Name:

Nutrient,Unit,Data points,Std. Error,"1 cup (53g) = 53.0g",1Value per 100 g,
Proximates
"Energy",kcal,--,--,220,415
"Protein",g,--,--,5.00,9.43
"Total lipid (fat)",g,--,--,3.50,6.60
"Carbohydrate, by difference",g,--,--,42.00,79.25
"Fiber, total dietary",g,--,--,4.0,7.5
"Sugars, total",g,--,--,8.00,15.09
Minerals
"Calcium, Ca",mg,--,--,20,38
"Iron, Fe",mg,--,--,1.08,2.04
"Potassium, K",mg,--,--,115,217
"Sodium, Na",mg,--,--,100,189
Vitamins
"Vitamin C, total ascorbic acid",mg,--,--,0.0,0.0
"Vitamin A, IU",IU,--,--,0,0
Lipids
"Fatty acids, total saturated",g,--,--,0.498,0.940
"Fatty acids, total monounsaturated",g,--,--,1.002,1.890
"Fatty acids, total polyunsaturated",g,--,--,1.002,1.890
"Fatty acids, total trans",g,--,--,0.000,0.000
"Cholesterol",mg,--,--,0,0
Amino Acids
Other
Ingredients
"WHOLE GRAIN OATS*, RICE*, CANE SUGAR*, BLACK CHIA SEEDS*, MALTED BARLEY EXTRACT*, SUNFLOWER OIL*, SALT, HONEY*, MOLASSES*, NATURAL FLAVOR*. VITAMIN E (MIXED TOCOPHEROLS) ADDED TO PRESERVE FRESHNESS.*ORGANIC" Date available: 10/10/2017 Date last updated by company: 06/12/2017
