Source: USDA Branded Food Products Database Release December 2017 Software v.3.8.6.4 2017-10-02
Report Run at: December 19, 2017 04:21 EST
"Nutrient data for: 45332120, CSCDN FARM ORG GRAN OATS HONEY, UNPREPARED, GTIN: 00021908456065"
Food Group:  Branded Food Products Database
Common Name:

Nutrient,Unit,Data points,Std. Error,"0.667 cup (58g) = 58.0g",1Value per 100 g,
Proximates
"Energy",kcal,--,--,250,431
"Protein",g,--,--,5.00,8.62
"Total lipid (fat)",g,--,--,7.00,12.07
"Carbohydrate, by difference",g,--,--,43.00,74.14
"Fiber, total dietary",g,--,--,3.0,5.2
"Sugars, total",g,--,--,13.00,22.41
Minerals
"Calcium, Ca",mg,--,--,20,34
"Iron, Fe",mg,--,--,1.44,2.48
"Sodium, Na",mg,--,--,50,86
Vitamins
"Vitamin C, total ascorbic acid",mg,--,--,0.0,0.0
"Vitamin A, IU",IU,--,--,0,0
Lipids
"Fatty acids, total saturated",g,--,--,0.998,1.720
"Fatty acids, total monounsaturated",g,--,--,4.501,7.760
"Fatty acids, total polyunsaturated",g,--,--,1.502,2.590
"Fatty acids, total trans",g,--,--,0.000,0.000
"Cholesterol",mg,--,--,0,0
Amino Acids
Other
Ingredients
"WHOLE GRAIN OATS*, CANE SUGAR*, RICE*, SUNFLOWER OIL*, HONEY*, MOLASSES*, SALT, VANILLA FLAVOR*. VITAMIN E (MIXED TOCOPHEROLS) ADDED TO PRESERVE FRESHNESS.*ORGANIC" Date available: 10/10/2017 Date last updated by company: 07/14/2017
