Source: USDA Branded Food Products Database Release December 2017 Software v.3.8.6.4 2017-10-02
Report Run at: December 19, 2017 04:22 EST
"Nutrient data for: 45286868, CUBAN MOJO SAUCE, UPC: 711381328538"
Food Group:  Branded Food Products Database
Common Name:

Nutrient,Unit,Data points,Std. Error,"2.0 Tbsp = 30.0g",1Value per 100 g,
Proximates
"Energy",kcal,--,--,120,400
"Protein",g,--,--,0.00,0.00
"Total lipid (fat)",g,--,--,12.00,40.00
"Carbohydrate, by difference",g,--,--,4.00,13.33
"Fiber, total dietary",g,--,--,0.0,0.0
"Sugars, total",g,--,--,2.00,6.67
Minerals
"Calcium, Ca",mg,--,--,0,0
"Iron, Fe",mg,--,--,0.00,0.00
"Sodium, Na",mg,--,--,90,300
Vitamins
"Vitamin C, total ascorbic acid",mg,--,--,10.0,33.3
"Vitamin A, IU",IU,--,--,334,1112
Lipids
"Fatty acids, total saturated",g,--,--,1.500,5.000
"Fatty acids, total trans",g,--,--,0.000,0.000
"Cholesterol",mg,--,--,0,0
Amino Acids
Other
Ingredients
"ORGANIC HIGH OLEIC SUNFLOWER OIL, OLIVE OIL, WATER, AJI PEPPER PUREE (AJI PEPPERS, CITRIC ACID), LIME JUICE, LIME JUICE CONCENTRATE, BROWN SUGAR, GARLIC, ORANGE JUICE CONCENTRATE, ORANGE PEEL (ORANGE PEEL, WATER, CITRIC ACID), ROASTED GARLIC, SALT, SPICES, GARLIC POWDER, SMOKED PAPRIKA, XANTHAN GUM" Date available: 07/14/2017 Date last updated by company: 07/14/2017
