Source: USDA Branded Food Products Database Release December 2017 Software v.3.8.6.4 2017-10-02
Report Run at: December 19, 2017 04:24 EST
"Nutrient data for: 45313224, CUCINA FRESCA, FRESH EGG LINGUINE, UPC: 884337002018"
Food Group:  Branded Food Products Database
Common Name:

Nutrient,Unit,Data points,Std. Error,"4.0 ONZ = 113.0g",1Value per 100 g,
Proximates
"Energy",kcal,--,--,390,345
"Protein",g,--,--,16.00,14.16
"Total lipid (fat)",g,--,--,4.00,3.54
"Carbohydrate, by difference",g,--,--,69.00,61.06
"Fiber, total dietary",g,--,--,4.0,3.5
"Sugars, total",g,--,--,0.00,0.00
Minerals
"Calcium, Ca",mg,--,--,40,35
"Iron, Fe",mg,--,--,5.57,4.93
"Sodium, Na",mg,--,--,40,35
Vitamins
"Vitamin C, total ascorbic acid",mg,--,--,0.0,0.0
"Vitamin A, IU",IU,--,--,247,219
Lipids
"Fatty acids, total saturated",g,--,--,0.994,0.880
"Fatty acids, total trans",g,--,--,0.000,0.000
"Cholesterol",mg,--,--,134,119
Amino Acids
Other
Ingredients
"SEMOLINA NO. 1 FLOUR (WHEAT) AND FRESH PASTEURIZED EGGS." Date available: 08/29/2017 Date last updated by company: 08/29/2017
