Source: USDA Branded Food Products Database Release December 2017 Software v.3.8.6.4 2017-10-02
Report Run at: December 19, 2017 04:24 EST
"Nutrient data for: 45198971, CUCUMBER CHICKEN, UPC: 085239023242"
Food Group:  Branded Food Products Database
Common Name:

Nutrient,Unit,Data points,Std. Error,"1 WRAP = 238.0g",1Value per 100 g,
Proximates
"Energy",kcal,--,--,369,155
"Protein",g,--,--,34.01,14.29
"Total lipid (fat)",g,--,--,25.99,10.92
"Carbohydrate, by difference",g,--,--,46.01,19.33
"Fiber, total dietary",g,--,--,1.9,0.8
"Sugars, total",g,--,--,2.00,0.84
Minerals
"Calcium, Ca",mg,--,--,350,147
"Iron, Fe",mg,--,--,2.12,0.89
"Sodium, Na",mg,--,--,1390,584
Vitamins
"Vitamin C, total ascorbic acid",mg,--,--,1.4,0.6
"Vitamin A, IU",IU,--,--,60,25
Lipids
"Fatty acids, total saturated",g,--,--,11.995,5.040
"Fatty acids, total trans",g,--,--,0.000,0.000
"Cholesterol",mg,--,--,95,40
Amino Acids
Other
Ingredients
"COOKED SEASONED SHREDDED CHICKEN BREAST WITH RIB MEAT (CHICKEN BREAST WITH RIB MEAT, WATER, LESS THAN 2% POTATO STARCH, SALT, NATURAL FLAVORINGS, VINEGAR, SPICE) SPINACH TORTILLA (ENRICHED BLEACHED WHEAT FLOUR [FLOUR, NIACIN, REDUCED IRON, THIAMIN MONONITRATE RIBOFLAVIN FOLIC ACID], WATER, VEGETABLE SHORTENING [INTERESTERIFIED SOYBEAN OIL, FULLY HYDROGENATED SOYBEAN OIL], CONTAINS 2% OR LESS OF THE FOLLOWING: SPINACH FLAVORING [MALTODEXTRIN, SPINACH POWDER GARLIC POWDER, ONION POWDER, SPICES, SALT, MODIFIED FOOD STARCH, DEHYDRATED SPINACH, NATURAL FLAVORS, YEAST EXTRACT, CITRIC ACID, SUGAR, YELLOW 5, YELLOW 6, BLUE 1, RED 40], SALT, MONO AND DIGLYCERIDES, DEXTROSE, LEAVENING [SODIUM BICARBONATE, SODIUM ALUMINUM PHOSPHATE, SODIUM ALUMINUM SULFATE], FUMARIC ACID, YEAST, PRESERVATIVES [CALCIUM PROPIONATE, POTASSIUM SORBATE], CORN STARCH, CARBOXYMETHYL GUM, WHEAT STARCH, XANTHAN GUM, ENZYMES [WHEAT STARCH, MICROCRYSTALLINE CELLULOSE] DOUGH CONDITIONER [SODIUM METABISULFITE]) COLBY JACK CHEESE [PASTEURIZED MILK, CHEESE CULTURE, SALT, ENZYMES, ANNATTO {VEGETABLE COLOR}], MONTEREY JACK CHEESE (PASTEURIZED MILK, CHEESE CULTURE, SALT, ENZYMES], NATAMYCIN [A NATURAL MOLD INHIBITOR], CUCUMBER SPREAD (SOUR CREAM [MILK, CREAM, MODIFIED CORN STARCH, GELATIN, GUAR GUM, MONO AND DIGLYCERIDES, SODIUM PHOSPHATE, LACTIC ACID, CITRIC ACID, NATURAL AND ARTIFICIAL FLAVOR, POTASSIUM SORBATE [PRESERVATIVE}], CREAM CHEESE [PASTEURIZED MILK AND CREAM, CHEESE CULTURE, SALT, CAROB BEAN GUM, XANTHAN GUM, GUAR GUM], MAYONNAISE [SOYBEAN OIL, EGG YOLKS, HIGH FRUCTOSE CORN SYRUP, WATER, DISTILLED VINEGAR, CORN SYRUP SALT, MUSTARD FLOUR, CITRIC ACID, CALCIUM DISODIUM EDTA {PRESERVATIVE}, SPICE EXTRACTIVE, NATURAL FLAVOR], CUCUMBER, SALT, DISTILLED VINEGAR, SUGAR, WHITE PEPPER, POTASSIUM SORBATE AND SODIUM BENZOATE [PRESERVATIVES])." Date available: 07/14/2017 Date last updated by company: 07/14/2017
