Source: USDA Branded Food Products Database Release December 2017 Software v.3.8.6.4 2017-10-02
Report Run at: December 19, 2017 04:27 EST
"Nutrient data for: 45163805, CULINARIA, JUICE, ORANGE, UPC: 041318590081"
Food Group:  Branded Food Products Database
Common Name:

Nutrient,Unit,Data points,Std. Error,"8.0 OZA = 240.0g",1Value per 100 g,
Proximates
"Energy",kcal,--,--,110,46
"Protein",g,--,--,1.99,0.83
"Total lipid (fat)",g,--,--,0.00,0.00
"Carbohydrate, by difference",g,--,--,25.99,10.83
"Fiber, total dietary",g,--,--,0.0,0.0
"Sugars, total",g,--,--,22.01,9.17
Minerals
"Calcium, Ca",mg,--,--,350,146
"Iron, Fe",mg,--,--,0.00,0.00
"Potassium, K",mg,--,--,451,188
"Sodium, Na",mg,--,--,0,0
Vitamins
"Vitamin C, total ascorbic acid",mg,--,--,72.0,30.0
"Thiamin",mg,--,--,0.000,0.000
"Vitamin A, IU",IU,--,--,0,0
"Vitamin D",IU,--,--,101,42
Lipids
"Fatty acids, total saturated",g,--,--,0.000,0.000
"Fatty acids, total trans",g,--,--,0.000,0.000
"Cholesterol",mg,--,--,0,0
Amino Acids
Other
Ingredients
"ORANGE JUICE, TRICALCIUM PHOSPHATE, CALCIUM LACTATE, VITAMIN D3." Date available: 07/14/2017 Date last updated by company: 07/14/2017
