Source: USDA Branded Food Products Database Release December 2017 Software v.3.8.6.4 2017-10-02
Report Run at: December 19, 2017 04:27 EST
"Nutrient data for: 45001908, CULINARIA, KAMUT BLEND RICE MIX, UPC: 041318300277"
Food Group:  Branded Food Products Database
Common Name:

Nutrient,Unit,Data points,Std. Error,"0.25 cup = 45.0g",1Value per 100 g,
Proximates
"Energy",kcal,--,--,170,378
"Protein",g,--,--,5.00,11.11
"Total lipid (fat)",g,--,--,1.00,2.22
"Carbohydrate, by difference",g,--,--,34.00,75.56
"Fiber, total dietary",g,--,--,6.0,13.3
"Sugars, total",g,--,--,0.00,0.00
Minerals
"Calcium, Ca",mg,--,--,20,44
"Iron, Fe",mg,--,--,1.44,3.20
"Sodium, Na",mg,--,--,0,0
Vitamins
"Vitamin C, total ascorbic acid",mg,--,--,0.0,0.0
"Vitamin A, IU",IU,--,--,0,0
Lipids
"Fatty acids, total saturated",g,--,--,0.000,0.000
"Fatty acids, total trans",g,--,--,0.000,0.000
"Cholesterol",mg,--,--,0,0
Amino Acids
Other
Ingredients
"KAMUT BRAND KHORASAN WHEAT, COLUSARI RED RICE, WILD RICE." Date available: 06/24/2017 Date last updated by company: 06/24/2017
