Source: USDA Branded Food Products Database Release December 2017 Software v.3.8.6.4 2017-10-02
Report Run at: December 19, 2017 04:33 EST
"Nutrient data for: 45164127, CUMBERLAND FARMS, FARMHOUSE, PREMIUM POTATO CHIPS, UPC: 042704057270"
Food Group:  Branded Food Products Database
Common Name:

Nutrient,Unit,Data points,Std. Error,"1 BAG = 42.5g",1Value per 100 g,
Proximates
"Energy",kcal,--,--,200,471
"Protein",g,--,--,3.00,7.06
"Total lipid (fat)",g,--,--,12.00,28.24
"Carbohydrate, by difference",g,--,--,24.00,56.47
"Fiber, total dietary",g,--,--,1.0,2.4
"Sugars, total",g,--,--,1.00,2.35
Minerals
"Calcium, Ca",mg,--,--,0,0
"Iron, Fe",mg,--,--,0.85,1.99
"Potassium, K",mg,--,--,480,1129
"Sodium, Na",mg,--,--,410,965
Vitamins
"Vitamin C, total ascorbic acid",mg,--,--,10.6,24.9
"Vitamin A, IU",IU,--,--,0,0
Lipids
"Fatty acids, total saturated",g,--,--,2.499,5.880
"Fatty acids, total trans",g,--,--,0.000,0.000
"Cholesterol",mg,--,--,0,0
Amino Acids
Other
Ingredients
"CHOICE POTATOES COOKED IN VEGETABLE OIL (CONTAINS ONE OR MORE OF THE FOLLOWING: CORN, COTTONSEED, SOYBEAN, SUNFLOWER), SALT, DEXTROSE, SUGAR, TOMATO POWDER, CORN MALTODEXTRIN, ONION POWDER, GARLIC POWDER, AUTOLYZED YEAST EXTRACT, VINEGAR SOLIDS, CITRIC ACID, TORULA YEAST EXTRACT, SPICES, EXTRACTIVES OF PAPRIKA, MOLASSES, CARAMEL COLOR, AND NATURAL FLAVOR (INCLUDING SMOKE)." Date available: 07/14/2017 Date last updated by company: 07/14/2017
