Source: USDA Branded Food Products Database Release December 2017 Software v.3.8.6.4 2017-10-02
Report Run at: December 19, 2017 04:36 EST
"Nutrient data for: 45179628, CUPCAKES, UPC: 770981042084"
Food Group:  Branded Food Products Database
Common Name:

Nutrient,Unit,Data points,Std. Error,"3.0 CUPCAKES = 71.0g",1Value per 100 g,
Proximates
"Energy",kcal,--,--,300,423
"Protein",g,--,--,2.00,2.82
"Total lipid (fat)",g,--,--,15.00,21.13
"Carbohydrate, by difference",g,--,--,38.00,53.52
"Fiber, total dietary",g,--,--,0.0,0.0
"Sugars, total",g,--,--,31.00,43.66
Minerals
"Calcium, Ca",mg,--,--,20,28
"Iron, Fe",mg,--,--,0.40,0.57
"Sodium, Na",mg,--,--,170,239
Vitamins
"Vitamin C, total ascorbic acid",mg,--,--,0.0,0.0
"Vitamin A, IU",IU,--,--,0,0
Lipids
"Fatty acids, total saturated",g,--,--,4.998,7.040
"Fatty acids, total trans",g,--,--,0.000,0.000
"Cholesterol",mg,--,--,25,35
Amino Acids
Other
Ingredients
"ICING SUGAR, SHORTENING (CANOLA, PALM, MODIFIED PALM AND PALM KERNEL OIL), SUGAR, WATER, ENRICHED WHEAT FLOUR (WHEAT FLOUR, NIACIN, REDUCED IRON, THIAMINE MONONITRATE, RIBOFLAVIN, FOLIC ACID), EGG, SOYBEAN AND CANOLA OIL, GLUCOSE, SKIM MILK POWDER, MODIFIED CORN STARCH, WHEY POWDER, LEAVENING (SODIUM ACID PYROPHOSPHATE, SODIUM BICARBONATE, CORN STARCH, MONOCALCIUM PHOSPHATE, CALCIUM SULFATE), SOYBEAN LECITHIN, WHEAT GLUTEN, NATURAL AND ARTIFICIAL FLAVOR, MONO AND DIGLYCERIDES, BUTTER (CREAM, SALT), SALT, COLOR (BEET ROOT POWDER, FD&C RED #40, FD&C BLUE #1), DIACETYL TARTARIC ACID ESTERS OF MONO AND DIGLYCERIDES, POLYSORBATE 60." Date available: 07/14/2017 Date last updated by company: 07/14/2017
