Source: USDA Branded Food Products Database Release December 2017 Software v.3.8.6.4 2017-10-02
Report Run at: December 19, 2017 04:39 EST
"Nutrient data for: 45141466, CURATE, KIDS SNACK BAR, APPLES, CINNAMON, UPC: 638102647115"
Food Group:  Branded Food Products Database
Common Name:

Nutrient,Unit,Data points,Std. Error,"1 BAR = 35.0g",1Value per 100 g,
Proximates
"Energy",kcal,--,--,160,457
"Protein",g,--,--,4.00,11.43
"Total lipid (fat)",g,--,--,7.00,20.00
"Carbohydrate, by difference",g,--,--,20.00,57.14
"Fiber, total dietary",g,--,--,2.0,5.7
"Sugars, total",g,--,--,9.00,25.71
Minerals
"Potassium, K",mg,--,--,150,429
"Sodium, Na",mg,--,--,65,186
Vitamins
Lipids
"Fatty acids, total saturated",g,--,--,1.001,2.860
"Fatty acids, total trans",g,--,--,0.000,0.000
"Cholesterol",mg,--,--,0,0
Amino Acids
Other
Ingredients
"CASHEWS, TAPIOCA SYRUP, APPLE PUREE, GLUTEN FREE OATS, APPLE JUICE, ALMOND BUTTER, GRAPESEED OIL, ORGANIC QUINOA, PEA PROTEIN, SORGHUM, AGAVE NECTAR; LESS THAN 2% OF THE FOLLOWING: COCONUT OIL, CHICORY ROOT FIBER, CITRUS FIBER, SOY LECITHIN, SAFFLOWER OIL, SUGAR, NATURAL FLAVOR, PECTIN, TAPIOCA STARCH, WATER, LEMON JUICE, CINNAMON AND SALT." Date available: 10/06/2017 Date last updated by company: 10/06/2017
