Source: USDA Branded Food Products Database Release December 2017 Software v.3.8.6.4 2017-10-02
Report Run at: December 19, 2017 04:44 EST
"Nutrient data for: 45282509, CUT CANDIED YAMS, UPC: 036800188099"
Food Group:  Branded Food Products Database
Common Name:

Nutrient,Unit,Data points,Std. Error,"0.5 cup = 140.0g",1Value per 100 g,
Proximates
"Energy",kcal,--,--,150,107
"Protein",g,--,--,0.00,0.00
"Total lipid (fat)",g,--,--,0.00,0.00
"Carbohydrate, by difference",g,--,--,38.00,27.14
"Fiber, total dietary",g,--,--,2.0,1.4
"Sugars, total",g,--,--,27.01,19.29
Minerals
"Calcium, Ca",mg,--,--,20,14
"Iron, Fe",mg,--,--,1.23,0.88
"Sodium, Na",mg,--,--,340,243
Vitamins
"Vitamin C, total ascorbic acid",mg,--,--,0.0,0.0
"Vitamin A, IU",IU,--,--,10286,7347
Lipids
"Fatty acids, total saturated",g,--,--,0.000,0.000
"Fatty acids, total trans",g,--,--,0.000,0.000
"Cholesterol",mg,--,--,0,0
Amino Acids
Other
Ingredients
"SWEET POTATOES, SUGAR, WATER, SALT, SPICES, DRY BUTTER POWDER (CREAM, SALT, ANNATTO EXTRACT), NONFAT DRY MILK, BUTTERMILK, SODIUM CITRATE, CITRIC ACID, TOCOPHERAL (ANTI-OXIDANT), BETA CAROTENE (FOR COLOR), CITRIC ACID AND DISODIUM-EDTA (PRESERVATIVE)." Date available: 09/28/2017 Date last updated by company: 09/28/2017
