Source: USDA Branded Food Products Database Release December 2017 Software v.3.8.6.4 2017-10-02
Report Run at: December 19, 2017 04:55 EST
"Nutrient data for: 45287903, CUT YAMS SWEET POTATOES, UPC: 043427006187"
Food Group:  Branded Food Products Database
Common Name:

Nutrient,Unit,Data points,Std. Error,"0.67 cup = 162.0g",1Value per 100 g,
Proximates
"Energy",kcal,--,--,160,99
"Protein",g,--,--,3.00,1.85
"Total lipid (fat)",g,--,--,0.00,0.00
"Carbohydrate, by difference",g,--,--,37.00,22.84
"Fiber, total dietary",g,--,--,1.9,1.2
"Sugars, total",g,--,--,16.99,10.49
Minerals
"Calcium, Ca",mg,--,--,19,12
"Iron, Fe",mg,--,--,1.43,0.88
"Sodium, Na",mg,--,--,36,22
Vitamins
"Vitamin C, total ascorbic acid",mg,--,--,17.8,11.0
"Vitamin A, IU",IU,--,--,9383,5792
Lipids
"Fatty acids, total saturated",g,--,--,0.000,0.000
"Fatty acids, total trans",g,--,--,0.000,0.000
"Cholesterol",mg,--,--,0,0
Amino Acids
Other
Ingredients
"SWEET POTATOES, WATER AND SUGAR." Date available: 07/14/2017 Date last updated by company: 07/14/2017
