Source: USDA Branded Food Products Database Release December 2017 Software v.3.8.6.4 2017-10-02
Report Run at: December 19, 2017 04:45 EST
"Nutrient data for: 45108208, CUT GREEN BEANS, UPC: 070560979160"
Food Group:  Branded Food Products Database
Common Name:

Nutrient,Unit,Data points,Std. Error,"0.666 cup = 81.0g",1Value per 100 g,
Proximates
"Energy",kcal,--,--,30,37
"Protein",g,--,--,1.00,1.23
"Total lipid (fat)",g,--,--,0.00,0.00
"Carbohydrate, by difference",g,--,--,5.00,6.17
"Fiber, total dietary",g,--,--,2.0,2.5
"Sugars, total",g,--,--,2.00,2.47
Minerals
"Calcium, Ca",mg,--,--,40,49
"Iron, Fe",mg,--,--,0.38,0.47
"Sodium, Na",mg,--,--,0,0
Vitamins
"Vitamin C, total ascorbic acid",mg,--,--,3.8,4.7
"Vitamin A, IU",IU,--,--,105,130
Lipids
"Fatty acids, total saturated",g,--,--,0.000,0.000
"Fatty acids, total trans",g,--,--,0.000,0.000
"Cholesterol",mg,--,--,0,0
Amino Acids
Other
Ingredients
"GREEN BEANS." Date available: 07/14/2017 Date last updated by company: 07/14/2017
