Source: USDA Branded Food Products Database Release December 2017 Software v.3.8.6.4 2017-10-02
Report Run at: December 19, 2017 04:53 EST
"Nutrient data for: 45009852, CUT SWEET POTATOES, CUT YAMS IN SYRUP, UPC: 034700093208"
Food Group:  Branded Food Products Database
Common Name:

Nutrient,Unit,Data points,Std. Error,"0.667 cup = 162.0g",1Value per 100 g,
Proximates
"Energy",kcal,--,--,110,68
"Protein",g,--,--,1.00,0.62
"Total lipid (fat)",g,--,--,0.00,0.00
"Carbohydrate, by difference",g,--,--,27.01,16.67
"Fiber, total dietary",g,--,--,1.9,1.2
"Sugars, total",g,--,--,14.00,8.64
Minerals
"Calcium, Ca",mg,--,--,19,12
"Iron, Fe",mg,--,--,0.71,0.44
"Potassium, K",mg,--,--,240,148
"Sodium, Na",mg,--,--,31,19
Vitamins
"Vitamin C, total ascorbic acid",mg,--,--,4.7,2.9
"Vitamin A, IU",IU,--,--,6914,4268
Lipids
"Fatty acids, total saturated",g,--,--,0.000,0.000
"Fatty acids, total trans",g,--,--,0.000,0.000
"Cholesterol",mg,--,--,0,0
Amino Acids
Other
Ingredients
"SWEET POTATOES, WATER, SUGAR." Date available: 07/14/2017 Date last updated by company: 07/14/2017
