Source: USDA Branded Food Products Database Release December 2017 Software v.3.8.6.4 2017-10-02
Report Run at: December 19, 2017 04:57 EST
"Nutrient data for: 45155909, DAD'S, OLD FASHIONED ROOT BEER, UPC: 072410047722"
Food Group:  Branded Food Products Database
Common Name:

Nutrient,Unit,Data points,Std. Error,"8.0 OZA = 240.0g",1Value per 100 g,
Proximates
"Energy",kcal,--,--,120,50
"Protein",g,--,--,0.00,0.00
"Total lipid (fat)",g,--,--,0.00,0.00
"Carbohydrate, by difference",g,--,--,30.00,12.50
"Sugars, total",g,--,--,28.99,12.08
Minerals
"Sodium, Na",mg,--,--,19,8
Vitamins
Lipids
"Fatty acids, total trans",g,--,--,0.000,0.000
Amino Acids
Other
Ingredients
"CARBONATED WATER, HIGH FRUCTOSE CORN SYRUP. CARAMEL COLOR. NATURAL AND ARTIFICIAL FLAVOR. SODIUM BENZOATE (AS A PRESERVATIVE)." Date available: 07/14/2017 Date last updated by company: 07/14/2017
