Source: USDA Branded Food Products Database Release December 2017 Software v.3.8.6.4 2017-10-02
Report Run at: December 19, 2017 05:00 EST
"Nutrient data for: 45184730, DAILY CHEF FOOD SERVICE, ICE CREAM, VANILLA, UPC: 078742114002"
Food Group:  Branded Food Products Database
Common Name:

Nutrient,Unit,Data points,Std. Error,"0.5 cup = 65.0g",1Value per 100 g,
Proximates
"Energy",kcal,--,--,130,200
"Protein",g,--,--,2.00,3.08
"Total lipid (fat)",g,--,--,7.00,10.77
"Carbohydrate, by difference",g,--,--,15.00,23.08
"Fiber, total dietary",g,--,--,0.0,0.0
"Sugars, total",g,--,--,11.00,16.92
Minerals
"Calcium, Ca",mg,--,--,80,123
"Iron, Fe",mg,--,--,0.00,0.00
"Sodium, Na",mg,--,--,35,54
Vitamins
"Vitamin C, total ascorbic acid",mg,--,--,0.0,0.0
"Vitamin A, IU",IU,--,--,337,519
Lipids
"Fatty acids, total saturated",g,--,--,4.498,6.920
"Fatty acids, total trans",g,--,--,0.000,0.000
"Cholesterol",mg,--,--,30,46
Amino Acids
Other
Ingredients
"MILKFAT AND NONFAT MILK, SUGAR, CORN SYRUP, HIGH FRUCTOSE CORN SYRUP, SWEETCREAM BUTTERMILK, WHEY, CONTAINS LESS THAN 2% OF NATURAL AND ARTIFICIAL FLAVORS, GUAR GUM, MONO- AND DIGLYCERIDES, XANTHAN GUM, POLYSORBATE 80, CELLULOSE GUM, CARRAGEENAN, ANNATTO EXTRACT COLOR." Date available: 07/14/2017 Date last updated by company: 07/14/2017
