Source: USDA Branded Food Products Database Release December 2017 Software v.3.8.6.4 2017-10-02
Report Run at: December 19, 2017 05:04 EST
"Nutrient data for: 45255890, DAIRY-FREE FROZEN DESSERT, UPC: 857756004024"
Food Group:  Branded Food Products Database
Common Name:

Nutrient,Unit,Data points,Std. Error,"0.5 cup = 75.0g",1Value per 100 g,
Proximates
"Energy",kcal,--,--,120,160
"Protein",g,--,--,1.00,1.33
"Total lipid (fat)",g,--,--,6.00,8.00
"Carbohydrate, by difference",g,--,--,16.00,21.33
"Fiber, total dietary",g,--,--,0.2,0.3
"Sugars, total",g,--,--,10.00,13.33
Minerals
"Calcium, Ca",mg,--,--,0,0
"Iron, Fe",mg,--,--,0.58,0.77
"Sodium, Na",mg,--,--,30,40
Vitamins
"Vitamin C, total ascorbic acid",mg,--,--,3.8,5.1
"Vitamin A, IU",IU,--,--,320,427
Lipids
"Fatty acids, total saturated",g,--,--,5.003,6.670
"Fatty acids, total trans",g,--,--,0.000,0.000
"Cholesterol",mg,--,--,0,0
Amino Acids
Other
Ingredients
"COCONUT EXTRACT, MANGO, WATER, EVAPORATED CANE JUICE, MALTODEXTRIN, TAPIOCA SYRUP, LIME JUICE, VANILLA, LOCUST BEAN GUM, GUAR GUM, CARRAGEENAN." Date available: 07/14/2017 Date last updated by company: 07/14/2017
