Source: USDA Branded Food Products Database Release December 2017 Software v.3.8.6.4 2017-10-02
Report Run at: December 19, 2017 05:07 EST
"Nutrient data for: 45057659, DAK, PREMIUM HAM, UPC: 070892188124"
Food Group:  Branded Food Products Database
Common Name:

Nutrient,Unit,Data points,Std. Error,"2.0 ONZ = 56.0g",1Value per 100 g,
Proximates
"Energy",kcal,--,--,100,179
"Protein",g,--,--,9.00,16.07
"Total lipid (fat)",g,--,--,7.00,12.50
"Carbohydrate, by difference",g,--,--,1.00,1.79
"Sugars, total",g,--,--,1.00,1.79
Minerals
"Sodium, Na",mg,--,--,620,1107
Vitamins
Lipids
"Fatty acids, total saturated",g,--,--,1.999,3.570
"Fatty acids, total trans",g,--,--,0.000,0.000
"Cholesterol",mg,--,--,40,71
Amino Acids
Other
Ingredients
"HAM CURED WITH WATER, SALT, SUGAR, SODIUM PHOSPHATES, CARAGEENAN, SODIUM ASCORBATE, SODIUM NITRITE." Date available: 07/14/2017 Date last updated by company: 07/14/2017
