Source: USDA Branded Food Products Database Release December 2017 Software v.3.8.6.4 2017-10-02
Report Run at: December 19, 2017 05:07 EST
"Nutrient data for: 45170523, DAKOTA STYLE, SUNFLOWER KERNELS, SAVORY BACON, UPC: 084872201772"
Food Group:  Branded Food Products Database
Common Name:

Nutrient,Unit,Data points,Std. Error,"0.25 cup = 33.0g",1Value per 100 g,
Proximates
"Energy",kcal,--,--,193,585
"Protein",g,--,--,6.00,18.18
"Total lipid (fat)",g,--,--,16.50,50.00
"Carbohydrate, by difference",g,--,--,7.50,22.73
"Fiber, total dietary",g,--,--,3.0,9.1
"Sugars, total",g,--,--,1.00,3.03
Minerals
"Calcium, Ca",mg,--,--,18,55
"Iron, Fe",mg,--,--,2.00,6.06
"Sodium, Na",mg,--,--,273,827
Vitamins
"Vitamin C, total ascorbic acid",mg,--,--,0.0,0.0
"Vitamin A, IU",IU,--,--,6,18
Lipids
"Fatty acids, total saturated",g,--,--,2.000,6.060
"Fatty acids, total monounsaturated",g,--,--,3.000,9.090
"Fatty acids, total polyunsaturated",g,--,--,10.501,31.820
"Fatty acids, total trans",g,--,--,0.000,0.000
"Cholesterol",mg,--,--,0,0
Amino Acids
Other
Ingredients
"SUNFLOWER KERNELS, VEGETABLE OIL (SUNFLOWER OIL &/OR COTTONSEED OIL), BACON SEASONING BLEND (MALTODEXTRIN, SALT, HYDROLYZED SOY PROTEIN, ONION & GARLIC, NATURAL FLAVORS, CARAMEL COLOR, LESS THAN 2% SILICON DIOXIDE), SALT." Date available: 09/11/2017 Date last updated by company: 09/11/2017
