Source: USDA Branded Food Products Database Release December 2017 Software v.3.8.6.4 2017-10-02
Report Run at: December 19, 2017 05:08 EST
"Nutrient data for: 45175690, DAMASCUS BAKERIES, MINI PITAS, PLAIN, UPC: 071628121040"
Food Group:  Branded Food Products Database
Common Name:

Nutrient,Unit,Data points,Std. Error,"1 PITA APPROX. = 32.0g",1Value per 100 g,
Proximates
"Energy",kcal,--,--,80,250
"Protein",g,--,--,3.00,9.38
"Total lipid (fat)",g,--,--,0.50,1.56
"Carbohydrate, by difference",g,--,--,17.00,53.12
"Fiber, total dietary",g,--,--,1.0,3.1
"Sugars, total",g,--,--,0.00,0.00
Minerals
"Calcium, Ca",mg,--,--,80,250
"Iron, Fe",mg,--,--,1.69,5.28
"Sodium, Na",mg,--,--,150,469
Vitamins
"Vitamin C, total ascorbic acid",mg,--,--,0.0,0.0
"Vitamin A, IU",IU,--,--,0,0
Lipids
"Fatty acids, total saturated",g,--,--,0.000,0.000
"Fatty acids, total trans",g,--,--,0.000,0.000
"Cholesterol",mg,--,--,0,0
Amino Acids
Other
Ingredients
"ENRICHED WHEAT FLOUR, (WHEAT FLOUR, MALTED BARLEY FLOUR, NIACIN , REDUCED IRON, THIAMINE MONONITRATE, RIBOFLAVIN, FOLIC ACID), WATER, CULTURED WHEAT STARCH, YEAST, SEA SALT, RAW SUGAR, CULTURED CORN SYRUP, FUMARIC ACID." Date available: 07/14/2017 Date last updated by company: 07/14/2017
