Source: USDA Branded Food Products Database Release December 2017 Software v.3.8.6.4 2017-10-02
Report Run at: December 19, 2017 05:11 EST
"Nutrient data for: 45032318, DANISH CHOICE, PIE FILLING, CHERRY, UPC: 840923002145"
Food Group:  Branded Food Products Database
Common Name:

Nutrient,Unit,Data points,Std. Error,"1 cup = 92.0g",1Value per 100 g,
Proximates
"Energy",kcal,--,--,100,109
"Protein",g,--,--,1.00,1.09
"Total lipid (fat)",g,--,--,0.00,0.00
"Carbohydrate, by difference",g,--,--,26.00,28.26
"Sugars, total",g,--,--,23.00,25.00
Minerals
"Sodium, Na",mg,--,--,0,0
Vitamins
Lipids
Amino Acids
Other
Ingredients
"CHERRIES (50%) (98% STONEFREE), SUGAR, WATER, GELLING AGENT: MODIFIED MAIZE STARCH AND PECTIN, ACIDITY REGULATOR: CITRIC ACID AND CALCIUM CITRATE, PRESERVATIVE: POTASSIUM SORBATE. COLOUR ADDITIVE: CARMINE" Date available: 10/04/2017 Date last updated by company: 10/04/2017
