Source: USDA Branded Food Products Database Release December 2017 Software v.3.8.6.4 2017-10-02
Report Run at: December 19, 2017 05:13 EST
"Nutrient data for: 45261385, DANISH, UPC: 20044633"
Food Group:  Branded Food Products Database
Common Name:

Nutrient,Unit,Data points,Std. Error,"1 PIECE = 92.0g",1Value per 100 g,
Proximates
"Energy",kcal,--,--,380,413
"Protein",g,--,--,6.00,6.52
"Total lipid (fat)",g,--,--,25.00,27.17
"Carbohydrate, by difference",g,--,--,33.00,35.87
"Fiber, total dietary",g,--,--,1.0,1.1
"Sugars, total",g,--,--,5.00,5.43
Minerals
"Calcium, Ca",mg,--,--,0,0
"Iron, Fe",mg,--,--,1.19,1.29
"Sodium, Na",mg,--,--,240,261
Vitamins
"Vitamin C, total ascorbic acid",mg,--,--,0.0,0.0
"Vitamin A, IU",IU,--,--,0,0
Lipids
"Fatty acids, total saturated",g,--,--,14.996,16.300
"Fatty acids, total trans",g,--,--,1.003,1.090
"Cholesterol",mg,--,--,65,71
Amino Acids
Other
Ingredients
"ENRICHED UNBLEACHED FLOUR (UNBLEACHED WHEAT FLOUR, NIACIN, REDUCED IRON, THIAMIN MONONITRATE, RIBOFLAVIN, FOLIC ACID), WATER, EGG, SUGAR, MARGARINE (PALM OIL, PALM KERNEL OIL, WATER, SALT, SOY LECITHIN, MONOGLYCERIDE, NATURAL FLAVOR, CITRIC ACID, TOCOPHEROL-RICH EXTRACT, VITAMIN A PALMITATE, BETA-CAROTENE), YEAST, BUTTERMILK, SALT, CHEESE FILLING (WATER, SUGAR, CREAM, CHEESE CULTURE, SALT, MODIFIED WHEAT STARCH, XANTHAN GUM, CITRIC ACID, BETA-CAROTENE, GUAR GUM)." Date available: 07/14/2017 Date last updated by company: 07/14/2017
