Source: USDA Branded Food Products Database Release December 2017 Software v.3.8.6.4 2017-10-02
Report Run at: December 19, 2017 05:19 EST
"Nutrient data for: 45016392, DANNON, OIKOS, GREEK NONFAT YOGURT, PEACH, UPC: 036632018328"
Food Group:  Branded Food Products Database
Common Name:

Nutrient,Unit,Data points,Std. Error,"1 CONTAINER = 150.0g",1Value per 100 g,
Proximates
"Energy",kcal,--,--,130,87
"Protein",g,--,--,12.00,8.00
"Total lipid (fat)",g,--,--,0.00,0.00
"Carbohydrate, by difference",g,--,--,20.00,13.33
"Fiber, total dietary",g,--,--,0.0,0.0
"Sugars, total",g,--,--,19.00,12.67
Minerals
"Calcium, Ca",mg,--,--,150,100
"Iron, Fe",mg,--,--,0.00,0.00
"Potassium, K",mg,--,--,170,113
"Sodium, Na",mg,--,--,50,33
Vitamins
"Vitamin C, total ascorbic acid",mg,--,--,0.0,0.0
"Vitamin A, IU",IU,--,--,0,0
"Vitamin D",IU,--,--,60,40
Lipids
"Fatty acids, total saturated",g,--,--,0.000,0.000
"Fatty acids, total trans",g,--,--,0.000,0.000
"Cholesterol",mg,--,--,10,7
Amino Acids
Other
Ingredients
"CULTURED GRADE A NON FAT MILK, PEACHES, FRUCTOSE, SUGAR, WATER, CONTAINS LESS THAN 1% OF MODIFIED CORN STARCH, NATURAL FLAVOR, CARRAGEENAN, POTASSIUM SORBATE (TO MAINTAIN FRESHNESS), MALIC ACID, SODIUM CITRATE, ANNATTO EXTRACT (FOR COLOR), VITAMIN D3. CONTAINS ACTIVE YOGURT CULTURES." Date available: 07/14/2017 Date last updated by company: 07/14/2017
