Source: USDA Branded Food Products Database Release December 2017 Software v.3.8.6.4 2017-10-02
Report Run at: December 19, 2017 05:16 EST
"Nutrient data for: 45112836, DANNON, LIGHT & FIT, GREEK NONFAT YOGURT, TOASTED COCONUT VANILLA, UPC: 036632037374"
Food Group:  Branded Food Products Database
Common Name:

Nutrient,Unit,Data points,Std. Error,"1 CONTAINER = 150.0g",1Value per 100 g,
Proximates
"Energy",kcal,--,--,80,53
"Protein",g,--,--,12.00,8.00
"Total lipid (fat)",g,--,--,0.00,0.00
"Carbohydrate, by difference",g,--,--,9.00,6.00
"Fiber, total dietary",g,--,--,0.0,0.0
"Sugars, total",g,--,--,7.00,4.67
Minerals
"Calcium, Ca",mg,--,--,150,100
"Iron, Fe",mg,--,--,0.00,0.00
"Potassium, K",mg,--,--,140,93
"Sodium, Na",mg,--,--,45,30
Vitamins
"Vitamin C, total ascorbic acid",mg,--,--,0.0,0.0
"Vitamin A, IU",IU,--,--,0,0
Lipids
"Fatty acids, total saturated",g,--,--,0.000,0.000
"Fatty acids, total trans",g,--,--,0.000,0.000
"Cholesterol",mg,--,--,10,7
Amino Acids
Other
Ingredients
"CULTURED GRADE A NON FAT MILK, WATER, FRUCTOSE, MODIFIED CORN STARCH, CONTAINS LESS THAN 1% OF NATURAL AND ARTIFICIAL FLAVORS, MALIC ACID, SUCRALOSE, POTASSIUM SORBATE (TO MAINTAIN FRESHNESS), ACESULFAME POTASSIUM, SODIUM CITRATE." Date available: 07/14/2017 Date last updated by company: 07/14/2017
