Source: USDA Branded Food Products Database Release December 2017 Software v.3.8.6.4 2017-10-02
Report Run at: December 19, 2017 05:13 EST
"Nutrient data for: 45206474, DANNON, ACTIVIA, PROBIOTIC DAIRY DRINK WITH BIFIDUS, PRUNE, UPC: 036632035745"
Food Group:  Branded Food Products Database
Common Name:

Nutrient,Unit,Data points,Std. Error,"1 BOTTLE = 207.0g",1Value per 100 g,
Proximates
"Energy",kcal,--,--,159,77
"Protein",g,--,--,6.00,2.90
"Total lipid (fat)",g,--,--,3.00,1.45
"Carbohydrate, by difference",g,--,--,28.01,13.53
"Fiber, total dietary",g,--,--,0.0,0.0
"Sugars, total",g,--,--,25.01,12.08
Minerals
"Calcium, Ca",mg,--,--,201,97
"Iron, Fe",mg,--,--,0.00,0.00
"Potassium, K",mg,--,--,219,106
"Sodium, Na",mg,--,--,75,36
Vitamins
"Vitamin C, total ascorbic acid",mg,--,--,0.0,0.0
"Vitamin A, IU",IU,--,--,0,0
Lipids
"Fatty acids, total saturated",g,--,--,2.008,0.970
"Fatty acids, total trans",g,--,--,0.000,0.000
"Cholesterol",mg,--,--,10,5
Amino Acids
Other
Ingredients
"CULTURED REDUCED FAT MILK, WATER, SUGAR, MILK PROTEIN CONCENTRATE, FRUCTOSE, CONTAINS LESS THAN 1% OF PRUNE PUREE, NATURAL FLAVOR, MODIFIED CORN STARCH, AGAR AGAR, CITRIC ACID, SODIUM CITRATE, POTASSIUM SORBATE (TO MAINTAIN FRESHNESS), CARAMEL COLOR, XANTHAN GUM, BLACK CARROT JUICE CONCENTRATE (FOR COLOR), CAROB BEAN GUM.CONTAINS THE ACTIVE CULTURES L.BULGARICUS, S.THERMOPHILUS AND BIFIDOBACTERIUM LACTIS DN 173-010" Date available: 07/14/2017 Date last updated by company: 07/14/2017
