Source: USDA Branded Food Products Database Release December 2017 Software v.3.8.6.4 2017-10-02
Report Run at: December 19, 2017 05:21 EST
"Nutrient data for: 45027958, DANNON, PLAIN LOWFAT YOGURT, UPC: 036632001009"
Food Group:  Branded Food Products Database
Common Name:

Nutrient,Unit,Data points,Std. Error,"1 CONTAINER = 170.0g",1Value per 100 g,
Proximates
"Energy",kcal,--,--,100,59
"Protein",g,--,--,8.01,4.71
"Total lipid (fat)",g,--,--,2.50,1.47
"Carbohydrate, by difference",g,--,--,12.00,7.06
"Fiber, total dietary",g,--,--,0.0,0.0
"Sugars, total",g,--,--,12.00,7.06
Minerals
"Calcium, Ca",mg,--,--,299,176
"Iron, Fe",mg,--,--,0.00,0.00
"Potassium, K",mg,--,--,381,224
"Sodium, Na",mg,--,--,110,65
Vitamins
"Vitamin C, total ascorbic acid",mg,--,--,2.4,1.4
"Vitamin A, IU",IU,--,--,0,0
Lipids
"Fatty acids, total saturated",g,--,--,1.496,0.880
"Fatty acids, total trans",g,--,--,0.000,0.000
"Cholesterol",mg,--,--,10,6
Amino Acids
Other
Ingredients
"CULTURED GRADE A REDUCED FAT MILK, PECTIN." Date available: 07/14/2017 Date last updated by company: 07/14/2017
