Source: USDA Branded Food Products Database Release December 2017 Software v.3.8.6.4 2017-10-02
Report Run at: December 19, 2017 05:20 EST
"Nutrient data for: 45223621, DANNON, OIKOS, TRADITIONAL GREEK YOGURT, PUMPKIN PIE, UPC: 036632019226"
Food Group:  Branded Food Products Database
Common Name:

Nutrient,Unit,Data points,Std. Error,"1 CONTAINER = 150.0g",1Value per 100 g,
Proximates
"Energy",kcal,--,--,170,113
"Protein",g,--,--,10.99,7.33
"Total lipid (fat)",g,--,--,4.50,3.00
"Carbohydrate, by difference",g,--,--,20.00,13.33
"Fiber, total dietary",g,--,--,0.0,0.0
"Sugars, total",g,--,--,19.00,12.67
Minerals
"Calcium, Ca",mg,--,--,150,100
"Iron, Fe",mg,--,--,0.00,0.00
"Potassium, K",mg,--,--,160,107
"Sodium, Na",mg,--,--,45,30
Vitamins
"Vitamin C, total ascorbic acid",mg,--,--,0.0,0.0
"Vitamin A, IU",IU,--,--,114,76
Lipids
"Fatty acids, total saturated",g,--,--,3.000,2.000
"Fatty acids, total trans",g,--,--,0.000,0.000
"Cholesterol",mg,--,--,15,10
Amino Acids
Other
Ingredients
"CULTURED GRADE A MILK, FRUCTOSE, SUGAR, PUMPKIN PUREE, WATER, CONTAINS LESS THAN 1% OF MODIFIED CORN STARCH, SODIUM CITRATE, MALIC ACID, CINNAMON, ANNATTO EXTRACT (FOR COLOR), FRUIT JUICE AND BETA CAROTENE (FOR COLOR), POTASSIUM SORBATE (TO MAINTAIN FRESHNESS), NATURAL FLAVORS." Date available: 07/14/2017 Date last updated by company: 07/14/2017
