Source: USDA Branded Food Products Database Release December 2017 Software v.3.8.6.4 2017-10-02
Report Run at: December 19, 2017 05:17 EST
"Nutrient data for: 45206523, DANNON, LIGHT & FIT, NONFAT YOGURT, CHERRY, UPC: 036632013194"
Food Group:  Branded Food Products Database
Common Name:

Nutrient,Unit,Data points,Std. Error,"1 CONTAINER = 150.0g",1Value per 100 g,
Proximates
"Energy",kcal,--,--,70,47
"Protein",g,--,--,5.00,3.33
"Total lipid (fat)",g,--,--,0.00,0.00
"Carbohydrate, by difference",g,--,--,13.01,8.67
"Sugars, total",g,--,--,9.00,6.00
Minerals
"Calcium, Ca",mg,--,--,150,100
"Iron, Fe",mg,--,--,0.00,0.00
"Potassium, K",mg,--,--,220,147
"Sodium, Na",mg,--,--,75,50
Vitamins
"Vitamin C, total ascorbic acid",mg,--,--,0.0,0.0
"Vitamin A, IU",IU,--,--,567,378
"Vitamin D",IU,--,--,60,40
Lipids
"Fatty acids, total saturated",g,--,--,0.000,0.000
"Fatty acids, total trans",g,--,--,0.000,0.000
"Cholesterol",mg,--,--,4,3
Amino Acids
Other
Ingredients
"CULTURED GRADE A NON FAT MILK, WATER, MODIFIED FOOD STARCH, BLACK CHERRIES, CANE SUGAR, CONTAINS LESS THAN 1% OF KOSHER GELATIN, VEGETABLE JUICE (FOR COLOR), NATURAL AND ARTIFICIAL FLAVORS, SUCRALOSE, MALIC ACID, ACESULFAME POTASSIUM, VITAMIN A PALMITATE, VITAMIN D3, SODIUM CITRATE. CONTAINS ACTIVE YOGURT CULTURES INCLUDING L. ACIDOPHILUS." Date available: 07/14/2017 Date last updated by company: 07/14/2017
