Source: USDA Branded Food Products Database Release December 2017 Software v.3.8.6.4 2017-10-02
Report Run at: December 19, 2017 05:14 EST
"Nutrient data for: 45206488, DANNON, ACTIVIA, PROBIOTIC LOWFAT YOGURT WITH BIFIDUS, PINEAPPLE, COCONUT, UPC: 036632029393"
Food Group:  Branded Food Products Database
Common Name:

Nutrient,Unit,Data points,Std. Error,"1 CONTAINER = 113.0g",1Value per 100 g,
Proximates
"Energy",kcal,--,--,90,80
"Protein",g,--,--,4.00,3.54
"Total lipid (fat)",g,--,--,2.00,1.77
"Carbohydrate, by difference",g,--,--,15.00,13.27
"Sugars, total",g,--,--,12.00,10.62
Minerals
"Calcium, Ca",mg,--,--,150,133
"Sodium, Na",mg,--,--,55,49
Vitamins
"Vitamin D",IU,--,--,60,53
Lipids
"Fatty acids, total saturated",g,--,--,0.994,0.880
"Fatty acids, total trans",g,--,--,0.000,0.000
"Cholesterol",mg,--,--,5,4
Amino Acids
Other
Ingredients
"CULTURED GRADE A REDUCED FAT MILK, WATER, CANE SUGAR, PINEAPPLE PUREE, MODIFIED FOOD STARCH, CONTAINS LESS THAN 1% OF MILK PROTEIN CONCENTRATE, KOSHER GELATIN, NATURAL FLAVORS, AGAR AGAR, CARRAGEENAN, XANTHAN GUM, MALIC ACID, STEVIA LEAF EXTRACT, VITAMIN D3, ANNATTO EXTRACT (FOR COLOR), SODIUM CITRATE." Date available: 07/14/2017 Date last updated by company: 07/14/2017
