Source: USDA Branded Food Products Database Release December 2017 Software v.3.8.6.4 2017-10-02
Report Run at: December 19, 2017 05:19 EST
"Nutrient data for: 45206456, DANNON, OIKOS, GREEK NONFAT YOGURT & TOPPINGS, LEMON SHORTBREAD, UPC: 036632011107"
Food Group:  Branded Food Products Database
Common Name:

Nutrient,Unit,Data points,Std. Error,"1 CONTAINER = 141.0g",1Value per 100 g,
Proximates
"Energy",kcal,--,--,180,128
"Protein",g,--,--,11.00,7.80
"Total lipid (fat)",g,--,--,3.50,2.48
"Carbohydrate, by difference",g,--,--,27.00,19.15
"Fiber, total dietary",g,--,--,0.0,0.0
"Sugars, total",g,--,--,22.00,15.60
Minerals
"Calcium, Ca",mg,--,--,100,71
"Iron, Fe",mg,--,--,0.44,0.31
"Potassium, K",mg,--,--,140,99
"Sodium, Na",mg,--,--,55,39
Vitamins
"Vitamin C, total ascorbic acid",mg,--,--,0.0,0.0
"Vitamin A, IU",IU,--,--,904,641
Lipids
"Fatty acids, total saturated",g,--,--,2.496,1.770
"Fatty acids, total trans",g,--,--,0.000,0.000
"Cholesterol",mg,--,--,10,7
Amino Acids
Other
Ingredients
"NONFAT YOGURT: CULTURED GRADE A NON FAT MILK, SUGAR, WATER, FOOD STARCH - MODIFIED, LEMON JUICE, NATURAL FLAVORS, SODIUM CITRATE, BETA CAROTENE (FOR COLOR), POTASSIUM SORBATE (TO PRESERVE FRESHNESS), TURMERIC (FOR COLOR), MALIC ACID. TOPPINGS: SHORTBREAD PIECES (ENRICHED WHEAT FLOUR (WHEAT FLOUR, NIACIN, REDUCED IRON, THIAMINE MONONITRATE, RIBOFLAVIN, FOLIC ACID), SUGAR, COCONUT OIL, EGGS, POWDERED SUGAR (SUGAR, CORN STARCH), NATURAL FLAVORS, SOY LECITHIN, SALT), WHITE CHOCOLATE (SUGAR, COCOA BUTTER, WHOLE MILK POWDER, SOY LECITHIN, NATURAL VANILLA EXTRACT)." Date available: 07/14/2017 Date last updated by company: 07/14/2017
