Source: USDA Branded Food Products Database Release December 2017 Software v.3.8.6.4 2017-10-02
Report Run at: December 19, 2017 05:22 EST
"Nutrient data for: 45153230, DANSKE, MILK CHOCOLATE, ALMONDS, UPC: 685141740024"
Food Group:  Branded Food Products Database
Common Name:

Nutrient,Unit,Data points,Std. Error,"1.6 ONZ = 44.0g",1Value per 100 g,
Proximates
"Energy",kcal,--,--,240,545
"Protein",g,--,--,3.00,6.82
"Total lipid (fat)",g,--,--,15.00,34.09
"Carbohydrate, by difference",g,--,--,25.00,56.82
"Fiber, total dietary",g,--,--,1.0,2.3
"Sugars, total",g,--,--,23.00,52.27
Minerals
"Calcium, Ca",mg,--,--,60,136
"Iron, Fe",mg,--,--,0.41,0.93
"Sodium, Na",mg,--,--,35,80
Vitamins
"Vitamin C, total ascorbic acid",mg,--,--,0.0,0.0
"Vitamin A, IU",IU,--,--,114,258
Lipids
"Fatty acids, total saturated",g,--,--,7.999,18.180
"Fatty acids, total trans",g,--,--,0.000,0.000
"Cholesterol",mg,--,--,5,11
Amino Acids
Other
Ingredients
"MILK CHOCOLATE (SUGAR, COCOA BUTTER, WHOLE MILK POWDER, COCOA LIQUOR, SWEET WHEY POWDER, LACTOSE, EMULSIFIERS: SOY LECITHIN & PGPR, NATURAL VANILLA FLAVOR) DRY ROASTED ALMONDS." Date available: 07/14/2017 Date last updated by company: 07/14/2017
