Source: USDA Branded Food Products Database Release December 2017 Software v.3.8.6.4 2017-10-02
Report Run at: December 19, 2017 05:23 EST
"Nutrient data for: 45093707, DARE, MAPLE LEAF CREME COOKIES, UPC: 055653120605"
Food Group:  Branded Food Products Database
Common Name:

Nutrient,Unit,Data points,Std. Error,"2.0 COOKIES = 34.0g",1Value per 100 g,
Proximates
"Energy",kcal,--,--,170,500
"Protein",g,--,--,1.00,2.94
"Total lipid (fat)",g,--,--,7.00,20.59
"Carbohydrate, by difference",g,--,--,25.00,73.53
"Fiber, total dietary",g,--,--,0.0,0.0
"Sugars, total",g,--,--,13.00,38.24
Minerals
"Calcium, Ca",mg,--,--,0,0
"Iron, Fe",mg,--,--,1.06,3.11
"Sodium, Na",mg,--,--,105,309
Vitamins
"Vitamin C, total ascorbic acid",mg,--,--,0.0,0.0
"Vitamin A, IU",IU,--,--,0,0
Lipids
"Fatty acids, total saturated",g,--,--,3.998,11.760
"Fatty acids, total trans",g,--,--,0.000,0.000
"Cholesterol",mg,--,--,0,0
Amino Acids
Other
Ingredients
"ENRICHED FLOUR (WHEAT FLOUR, NIACIN, REDUCED IRON, THIAMINE MONONITRATE, RIBOFLAVIN, FOLIC ACID), SUGAR, VEGETABLE OIL SHORTENING (HYDROGENATED COCONUT AND SOY OIL, PALM OIL AND CANOLA OIL WITH TBHO AND CITRIC ACID TO PROTECT FLAVOR), CONTAINS 20/O OR LESS OF: MAPLE SYRUP, HIGH FRUCTOSE CORN SYRUP, CORN STARCH, SALT, WHEY (A MILK INGREDIENT), LEAVENING (BAKING SODA, SODIUM ACID PYROPHOSPHATE, MONOCALCIUM PHOSPHATE, CALCIUM SULFATE, AMMONIUM BICARBONATE), SOY LECITHIN, NATURAL AND ARTIFICIAL FLAVOR, COLOR (CONTAINING ANNATTO, CARAMEL)." Date available: 06/25/2017 Date last updated by company: 06/25/2017
