Source: USDA Branded Food Products Database Release December 2017 Software v.3.8.6.4 2017-10-02
Report Run at: December 19, 2017 05:41 EST
"Nutrient data for: 45249957, DARK CHOCOLATE PUMPKINS, UPC: 040000503613"
Food Group:  Branded Food Products Database
Common Name:

Nutrient,Unit,Data points,Std. Error,"6.0 PUMPKINS = 43.0g",1Value per 100 g,
Proximates
"Energy",kcal,--,--,230,535
"Protein",g,--,--,2.00,4.65
"Total lipid (fat)",g,--,--,14.00,32.56
"Carbohydrate, by difference",g,--,--,26.00,60.47
"Fiber, total dietary",g,--,--,3.0,7.0
"Sugars, total",g,--,--,20.00,46.51
Minerals
"Calcium, Ca",mg,--,--,23,54
"Iron, Fe",mg,--,--,1.26,2.92
"Sodium, Na",mg,--,--,0,0
Vitamins
"Vitamin A, IU",IU,--,--,100,233
Lipids
"Fatty acids, total saturated",g,--,--,7.998,18.600
"Fatty acids, total trans",g,--,--,0.000,0.000
"Cholesterol",mg,--,--,5,12
Amino Acids
Other
Ingredients
"SEMISWEET CHOCOLATE (SUGAR, CHOCOLATE, CHOCOLATE PROCESSED WITH ALKALI, COCOA BUTTER, MILKFAT, SOY LECITHIN, NATURAL AND ARTIFICIAL FLAVORS)." Date available: 10/13/2017 Date last updated by company: 10/13/2017
