Source: USDA Branded Food Products Database Release December 2017 Software v.3.8.6.4 2017-10-02
Report Run at: December 19, 2017 05:42 EST
"Nutrient data for: 45150547, DARK CHOCOLATE SEA SALT CARAMELS, UPC: 008725070025"
Food Group:  Branded Food Products Database
Common Name:

Nutrient,Unit,Data points,Std. Error,"2.0 PC. = 42.0g",1Value per 100 g,
Proximates
"Energy",kcal,--,--,170,405
"Protein",g,--,--,1.00,2.38
"Total lipid (fat)",g,--,--,9.00,21.43
"Carbohydrate, by difference",g,--,--,25.00,59.52
"Fiber, total dietary",g,--,--,1.0,2.4
"Sugars, total",g,--,--,18.00,42.86
Minerals
"Calcium, Ca",mg,--,--,20,48
"Iron, Fe",mg,--,--,0.43,1.02
"Sodium, Na",mg,--,--,200,476
Vitamins
"Vitamin C, total ascorbic acid",mg,--,--,0.0,0.0
"Vitamin A, IU",IU,--,--,119,283
Lipids
"Fatty acids, total saturated",g,--,--,6.002,14.290
"Fatty acids, total trans",g,--,--,0.000,0.000
"Cholesterol",mg,--,--,10,24
Amino Acids
Other
Ingredients
"CARAMEL (CORN SYRUP, SUGAR, EVAPORATED MILK [MILK, DIPOTASSIUM PHOSPHATE & CARRAGEENAN [STABILIZERS], VITAMIN D3], WHIPPING CREAM, BUTTER, WATER, SALT, EGG ALBUMEN, SOY LECITHIN [EMULSIFIER], VANILLA), DARK CHOCOLATE (SUGAR, CHOCOLATE LIQUOR, COCOA BUTTER, ANHYDROUS MILK FAT, SOY LECITHIN, VANILLA), CONFECTIONERY COATING (SUGAR, PALM KERNEL OIL, COCOA POWDER, WHEY POWDER, NONFAT MILK POWDER, SOY LECITHIN, VANILLA), SEA SALT." Date available: 07/14/2017 Date last updated by company: 07/14/2017
