Source: USDA Branded Food Products Database Release December 2017 Software v.3.8.6.4 2017-10-02
Report Run at: December 19, 2017 05:52 EST
"Nutrient data for: 45254483, DARK RYE BREAD, UPC: 079893050928"
Food Group:  Branded Food Products Database
Common Name:

Nutrient,Unit,Data points,Std. Error,"1 SLICE = 40.0g",1Value per 100 g,
Proximates
"Energy",kcal,--,--,90,225
"Protein",g,--,--,3.00,7.50
"Total lipid (fat)",g,--,--,1.00,2.50
"Carbohydrate, by difference",g,--,--,16.00,40.00
"Fiber, total dietary",g,--,--,1.0,2.5
"Sugars, total",g,--,--,1.00,2.50
Minerals
"Calcium, Ca",mg,--,--,40,100
"Iron, Fe",mg,--,--,1.35,3.38
"Sodium, Na",mg,--,--,230,575
Vitamins
"Vitamin C, total ascorbic acid",mg,--,--,0.0,0.0
"Thiamin",mg,--,--,0.000,0.000
"Riboflavin",mg,--,--,0.068,0.170
"Niacin",mg,--,--,1.500,3.750
"Vitamin A, IU",IU,--,--,0,0
Lipids
"Fatty acids, total saturated",g,--,--,0.000,0.000
"Fatty acids, total trans",g,--,--,0.000,0.000
"Cholesterol",mg,--,--,0,0
Amino Acids
Other
Ingredients
"UNBLEACHED ENRICHED WHEAT FLOUR (WHEAT FLOUR, MALTED BARLEY FLOUR, NIACIN, REDUCED IRON, THIAMINE MONONITRATE, RIBOFLAVIN, FOLIC ACID), WATER, RYE FLOUR, YEAST, LIQUID SUGAR, CONTAINS 2 PERCENT OR LES OF: WHEAT GLUTEN, SOYBEAN OIL AND/OR CANOLA OIL, SEA SALT, CARAMEL COLOR, CARAWAY SEEDS, DOUGH CONDITIONERS (MAY CONTAIN ONE OR MORE OF THE FOLLOWING: SODIUM STEAROYL LACTYLATE, ETHOXYLATED MONO- AND DIGLYCERIDES, MONOCALCIUM PHOSPHATE, CALCIUM SULFATE, ASCORBIC ACID), CALCIUM PROPIONATE (TO RETARD SPOILAGE), MONO- AND DIGLYCERIDES, FUMARIC ACID, LACTIC ACID, MALIC ACID, ACETIC ACID, CULTURED WHEAT, VINEGAR, ENZYMES." Date available: 07/14/2017 Date last updated by company: 07/14/2017
