Source: USDA Branded Food Products Database Release December 2017 Software v.3.8.6.4 2017-10-02
Report Run at: December 19, 2017 05:49 EST
"Nutrient data for: 45318566, DARK CHOCOLATE WITH ROASTED ALMONDS, UPC: 031290113026"
Food Group:  Branded Food Products Database
Common Name:

Nutrient,Unit,Data points,Std. Error,"6.0 BLOCKS = 45.0g",1Value per 100 g,
Proximates
"Energy",kcal,--,--,230,511
"Protein",g,--,--,5.00,11.11
"Total lipid (fat)",g,--,--,19.00,42.22
"Carbohydrate, by difference",g,--,--,20.00,44.44
"Fiber, total dietary",g,--,--,6.0,13.3
"Sugars, total",g,--,--,11.00,24.44
Minerals
"Calcium, Ca",mg,--,--,40,89
"Iron, Fe",mg,--,--,9.00,20.00
"Sodium, Na",mg,--,--,0,0
Vitamins
"Vitamin C, total ascorbic acid",mg,--,--,0.0,0.0
"Vitamin A, IU",IU,--,--,0,0
Lipids
"Fatty acids, total saturated",g,--,--,9.999,22.220
"Fatty acids, total trans",g,--,--,0.000,0.000
"Cholesterol",mg,--,--,0,0
Amino Acids
Other
Ingredients
"UNSWEETENED CHOCOLATE PROCESSED WITH ALKALI, SUGAR, ALMONDS, BUTTER OIL (MILK), EMULSIFIER (SOY LECITHIN)." Date available: 07/14/2017 Date last updated by company: 07/14/2017
