Source: USDA Branded Food Products Database Release December 2017 Software v.3.8.6.4 2017-10-02
Report Run at: December 19, 2017 05:32 EST
"Nutrient data for: 45286869, DARK CHOCOLATE CHERRY TART, UPC: 841652100225"
Food Group:  Branded Food Products Database
Common Name:

Nutrient,Unit,Data points,Std. Error,"1.6 ONZ = 44.0g",1Value per 100 g,
Proximates
"Energy",kcal,--,--,230,523
"Protein",g,--,--,5.00,11.36
"Total lipid (fat)",g,--,--,13.00,29.55
"Carbohydrate, by difference",g,--,--,21.00,47.73
"Fiber, total dietary",g,--,--,4.0,9.1
"Sugars, total",g,--,--,15.00,34.09
Minerals
"Calcium, Ca",mg,--,--,60,136
"Iron, Fe",mg,--,--,1.35,3.07
"Sodium, Na",mg,--,--,0,0
Vitamins
"Vitamin C, total ascorbic acid",mg,--,--,11.3,25.6
"Vitamin A, IU",IU,--,--,0,0
Lipids
"Fatty acids, total saturated",g,--,--,3.498,7.950
"Fatty acids, total trans",g,--,--,0.000,0.000
"Cholesterol",mg,--,--,0,0
Amino Acids
Other
Ingredients
"ALMONDS, CHERRIES (DRIED CHERRIES, APPLE JUICE CONCENTRATE, SUNFLOWER OIL), BELGIAN DARK CHOCOLATE BUTTONS (COCOA MASS, SUGAR, COCOA BUTTER, SOY LECITHIN, NATURAL VANILLA FLAVORING)" Date available: 07/14/2017 Date last updated by company: 07/14/2017
