Source: USDA Branded Food Products Database Release December 2017 Software v.3.8.6.4 2017-10-02
Report Run at: December 19, 2017 05:40 EST
"Nutrient data for: 45255244, DARK CHOCOLATE PECAN WITH SEA SALT, UPC: 021908510651"
Food Group:  Branded Food Products Database
Common Name:

Nutrient,Unit,Data points,Std. Error,"1 BAR = 40.0g",1Value per 100 g,
Proximates
"Energy",kcal,--,--,220,550
"Protein",g,--,--,5.00,12.50
"Total lipid (fat)",g,--,--,16.00,40.00
"Carbohydrate, by difference",g,--,--,16.00,40.00
"Fiber, total dietary",g,--,--,3.0,7.5
"Sugars, total",g,--,--,9.00,22.50
Minerals
"Calcium, Ca",mg,--,--,40,100
"Iron, Fe",mg,--,--,1.80,4.50
"Potassium, K",mg,--,--,200,500
"Sodium, Na",mg,--,--,125,312
Vitamins
"Vitamin C, total ascorbic acid",mg,--,--,0.0,0.0
"Vitamin A, IU",IU,--,--,0,0
Lipids
"Fatty acids, total saturated",g,--,--,2.500,6.250
"Fatty acids, total monounsaturated",g,--,--,9.000,22.500
"Fatty acids, total polyunsaturated",g,--,--,3.500,8.750
"Fatty acids, total trans",g,--,--,0.000,0.000
"Cholesterol",mg,--,--,0,0
Amino Acids
Other
Ingredients
"ALMONDS, PECANS, BROWN RICE SYRUP, DARK CHOCOLATE+ (UNSWEETENED CHOCOLATE, SUGAR, COCOA BUTTER, VANILLA EXTRACT), CASHEWS, DATES, DRIED MOLASSES, SEA SALT, VANILLA EXTRACT." Date available: 07/14/2017 Date last updated by company: 07/14/2017
