Source: USDA Branded Food Products Database Release December 2017 Software v.3.8.6.4 2017-10-02
Report Run at: December 19, 2017 05:47 EST
"Nutrient data for: 45268171, DARK CHOCOLATE, UPC: 731427527909"
Food Group:  Branded Food Products Database
Common Name:

Nutrient,Unit,Data points,Std. Error,"2.0 PIECES = 38.0g",1Value per 100 g,
Proximates
"Energy",kcal,--,--,150,395
"Protein",g,--,--,1.00,2.63
"Total lipid (fat)",g,--,--,7.00,18.42
"Carbohydrate, by difference",g,--,--,21.00,55.26
"Fiber, total dietary",g,--,--,1.0,2.6
"Sugars, total",g,--,--,15.00,39.47
Minerals
"Calcium, Ca",mg,--,--,20,53
"Iron, Fe",mg,--,--,2.37,6.23
"Sodium, Na",mg,--,--,105,276
Vitamins
"Vitamin C, total ascorbic acid",mg,--,--,0.0,0.0
"Vitamin A, IU",IU,--,--,0,0
Lipids
"Fatty acids, total saturated",g,--,--,4.499,11.840
"Fatty acids, total trans",g,--,--,0.000,0.000
"Cholesterol",mg,--,--,5,13
Amino Acids
Other
Ingredients
"CARAMEL (EVAPORATED MILK [MILK, DIPOTASSIUM PHOSPHATE, CARRAGEENAN, VITAMIN D3], CORN SYRUP, SUGAR, INVERT SUGAR, HEAVY CREAM, NON-HYDROGENATED PALM KERNEL OIL [WITH CITRIC ACID ADDED FOR FRESHNESS], SWEET BUTTER [CREAM, NATURAL FLAVOR], VANILLA EXTRACT), DARK CHOCOLATE (SUGAR, UNSWEETENED CHOCOLATE, COCOA BUTTER, UNSWEETENED CHOCOLATE PROCESSED WITH ALKALI, SOY LECITHIN, VANILLA EXTRACT), HIMALAYAN PINK SEA SALT." Date available: 07/14/2017 Date last updated by company: 07/14/2017
