Source: USDA Branded Food Products Database Release December 2017 Software v.3.8.6.4 2017-10-02
Report Run at: December 19, 2017 05:39 EST
"Nutrient data for: 45259741, DARK CHOCOLATE JAVA JOLT CLUSTER, UPC: 077890363775"
Food Group:  Branded Food Products Database
Common Name:

Nutrient,Unit,Data points,Std. Error,"1.5 ONZ = 42.0g",1Value per 100 g,
Proximates
"Energy",kcal,--,--,198,471
"Protein",g,--,--,2.00,4.76
"Total lipid (fat)",g,--,--,12.00,28.57
"Carbohydrate, by difference",g,--,--,22.00,52.38
"Fiber, total dietary",g,--,--,2.0,4.8
"Sugars, total",g,--,--,19.00,45.24
Minerals
"Calcium, Ca",mg,--,--,20,48
"Iron, Fe",mg,--,--,3.43,8.16
"Sodium, Na",mg,--,--,7,17
Vitamins
"Vitamin C, total ascorbic acid",mg,--,--,0.0,0.0
"Vitamin A, IU",IU,--,--,0,0
Lipids
"Fatty acids, total saturated",g,--,--,8.001,19.050
"Fatty acids, total trans",g,--,--,0.000,0.000
"Cholesterol",mg,--,--,3,7
Amino Acids
Other
Ingredients
"DARK CHOCOLATE (SUGAR, CHOCOLATE LIQUOR PROCESSED WITH ALKALI, COCOA BUTTER, MILK FAT, SOY LECITHIN (AN EMULSIFIER), VANILLIN (AN ARTIFICIAL FLAVOR), 100% ARABICA COFFEE, KONA FLAVORING (ARTIFICIAL FLAVOR, SWEET ALMOND OIL, CANOLA OIL, CAPRIC TRIGLYCERIDES)." Date available: 07/14/2017 Date last updated by company: 07/14/2017
