Source: USDA Branded Food Products Database Release December 2017 Software v.3.8.6.4 2017-10-02
Report Run at: December 19, 2017 05:42 EST
"Nutrient data for: 45164371, DARK CHOCOLATE SEA SALT CARAMELS, UPC: 052745728657"
Food Group:  Branded Food Products Database
Common Name:

Nutrient,Unit,Data points,Std. Error,"2.0 PIECES = 36.0g",1Value per 100 g,
Proximates
"Energy",kcal,--,--,150,417
"Protein",g,--,--,1.00,2.78
"Total lipid (fat)",g,--,--,8.00,22.22
"Carbohydrate, by difference",g,--,--,19.00,52.78
"Fiber, total dietary",g,--,--,1.0,2.8
"Sugars, total",g,--,--,15.00,41.67
Minerals
"Calcium, Ca",mg,--,--,20,56
"Iron, Fe",mg,--,--,0.50,1.39
"Sodium, Na",mg,--,--,90,250
Vitamins
"Vitamin C, total ascorbic acid",mg,--,--,0.0,0.0
"Vitamin A, IU",IU,--,--,278,772
Lipids
"Fatty acids, total saturated",g,--,--,5.000,13.890
"Fatty acids, total trans",g,--,--,0.000,0.000
"Cholesterol",mg,--,--,15,42
Amino Acids
Other
Ingredients
"DARK CHOCOLATE (SUGAR, CHOCOLATE LIQUOR {PROCESSED WITH ALKALI}, COCOA BUTTER, MILK, BUTTERFAT, SOY LECITHIN (AN EMULSIFIER), VANILLA), CREAM, CORN SYRUP, SUGAR, SWEETENED CONDENSED MILK (MILK, SUGAR, SKIM MILK), DEXTROSE, SALTED BUTTER (CREAM, SALT), SEA SALT (SODIUM CHLORIDE), SALT, WATER, NATURAL AND ARTIFICIAL VANILLA FLAVOR (GLYCERINE, PROPYLENE GLYCOL, WATER, SUGAR, CARAMEL COLOR (SULFITES), ALCOHOL, SODIUM BENZOATE AND POTASSIUM SORBATE)." Date available: 07/14/2017 Date last updated by company: 07/14/2017
