Source: USDA Branded Food Products Database Release December 2017 Software v.3.8.6.4 2017-10-02
Report Run at: December 19, 2017 05:33 EST
"Nutrient data for: 45207181, DARK CHOCOLATE COOKIE, UPC: 009542011376"
Food Group:  Branded Food Products Database
Common Name:

Nutrient,Unit,Data points,Std. Error,"1 STICK = 39.0g",1Value per 100 g,
Proximates
"Energy",kcal,--,--,200,513
"Protein",g,--,--,1.00,2.56
"Total lipid (fat)",g,--,--,11.00,28.21
"Carbohydrate, by difference",g,--,--,26.00,66.67
"Fiber, total dietary",g,--,--,1.0,2.6
"Sugars, total",g,--,--,23.00,58.97
Minerals
"Calcium, Ca",mg,--,--,20,51
"Iron, Fe",mg,--,--,0.46,1.18
"Sodium, Na",mg,--,--,5,13
Vitamins
"Vitamin C, total ascorbic acid",mg,--,--,0.0,0.0
"Vitamin A, IU",IU,--,--,257,658
Lipids
"Fatty acids, total saturated",g,--,--,7.000,17.950
"Fatty acids, total trans",g,--,--,0.000,0.000
"Cholesterol",mg,--,--,15,38
Amino Acids
Other
Ingredients
"SUGAR, CHOCOLATE, MILKFAT, COCOA BUTTER, LOW FAT COCOA POWDER PROCESSED WITH ALKALI, LACTOSE, WHEAT FLOUR, SKIM MILK, PALM OIL, SOYA LECITHIN (EMULSIFIER), COCOA POWDER PROCESSED WITH ALKALI, ARTIFICIAL FLAVOR, LEAVENING (SODIUM BICARBONATE, AMMONIUM HYDROGEN CARBONATE, POTASSIUM CARBONATE), SALT." Date available: 07/14/2017 Date last updated by company: 07/14/2017
