Source: USDA Branded Food Products Database Release December 2017 Software v.3.8.6.4 2017-10-02
Report Run at: December 19, 2017 05:50 EST
"Nutrient data for: 45209154, DARK PREMIUM BELGIAN DARK CHOCOLATE WITH EXOTIC SEA SALT, UPC: 607926002356"
Food Group:  Branded Food Products Database
Common Name:

Nutrient,Unit,Data points,Std. Error,"0.5 BAR = 43.0g",1Value per 100 g,
Proximates
"Energy",kcal,--,--,210,488
"Protein",g,--,--,2.00,4.65
"Total lipid (fat)",g,--,--,14.00,32.56
"Carbohydrate, by difference",g,--,--,25.00,58.14
"Fiber, total dietary",g,--,--,3.0,7.0
"Sugars, total",g,--,--,19.00,44.19
Minerals
"Calcium, Ca",mg,--,--,20,47
"Iron, Fe",mg,--,--,3.14,7.30
"Sodium, Na",mg,--,--,270,628
Vitamins
"Vitamin C, total ascorbic acid",mg,--,--,0.0,0.0
"Vitamin A, IU",IU,--,--,0,0
Lipids
"Fatty acids, total saturated",g,--,--,9.000,20.930
"Fatty acids, total trans",g,--,--,0.000,0.000
"Cholesterol",mg,--,--,5,12
Amino Acids
Other
Ingredients
"BELGIAN DARK CHOCOLATE (SUGAR, BELGIAN CHOCOLATE LIQUOR, COCOA BUTTER, BUTTEROIL (MILK), SOY LECITHIN (AN EMULSIFIER), VANILLA EXTRACT) SEA SALT." Date available: 07/14/2017 Date last updated by company: 07/14/2017
