Source: USDA Branded Food Products Database Release December 2017 Software v.3.8.6.4 2017-10-02
Report Run at: December 19, 2017 05:43 EST
"Nutrient data for: 45252306, DARK CHOCOLATES, UPC: 031290108008"
Food Group:  Branded Food Products Database
Common Name:

Nutrient,Unit,Data points,Std. Error,"8.0 PIECES = 41.0g",1Value per 100 g,
Proximates
"Energy",kcal,--,--,230,561
"Protein",g,--,--,3.00,7.32
"Total lipid (fat)",g,--,--,15.00,36.59
"Carbohydrate, by difference",g,--,--,20.00,48.78
"Fiber, total dietary",g,--,--,3.0,7.3
"Sugars, total",g,--,--,16.00,39.02
Minerals
"Calcium, Ca",mg,--,--,60,146
"Iron, Fe",mg,--,--,5.49,13.39
"Sodium, Na",mg,--,--,20,49
Vitamins
"Vitamin C, total ascorbic acid",mg,--,--,0.0,0.0
"Vitamin A, IU",IU,--,--,0,0
Lipids
"Fatty acids, total saturated",g,--,--,10.000,24.390
"Fatty acids, total trans",g,--,--,0.000,0.000
"Cholesterol",mg,--,--,5,12
Amino Acids
Other
Ingredients
"UNSWEETENED CHOCOLATE, SUGAR, COCOA BUTTER, MILK POWDER, SKIM MILK POWDER, BUTTER OIL (MILK), EMULSIFIER (SOY LECITHIN), NATURAL FLAVOR." Date available: 08/11/2017 Date last updated by company: 08/11/2017
