Source: USDA Branded Food Products Database Release December 2017 Software v.3.8.6.4 2017-10-02
Report Run at: December 19, 2017 05:41 EST
"Nutrient data for: 45272189, DARK CHOCOLATE PROBIOTIC, UPC: 074312672989"
Food Group:  Branded Food Products Database
Common Name:

Nutrient,Unit,Data points,Std. Error,"1 PIECE = 6.0g",1Value per 100 g,
Proximates
"Energy",kcal,--,--,30,500
"Total lipid (fat)",g,--,--,2.00,33.33
"Carbohydrate, by difference",g,--,--,4.00,66.67
"Fiber, total dietary",g,--,--,0.0,0.0
"Sugars, total",g,--,--,3.00,50.00
Minerals
"Calcium, Ca",mg,--,--,2,33
"Iron, Fe",mg,--,--,0.30,5.00
"Potassium, K",mg,--,--,20,333
"Sodium, Na",mg,--,--,0,0
Vitamins
Lipids
"Fatty acids, total saturated",g,--,--,1.000,16.670
"Fatty acids, total trans",g,--,--,0.000,0.000
"Cholesterol",mg,--,--,0,0
Amino Acids
Other
Ingredients
"DARK CHOCOLATE (SUGAR, CHOCOLATE LIQUOR, COCOA BUTTER, SOY LECITHIN, VANILLA), PROBIOTIC BLEND (INULIN, PALM OIL, GANEDENBC30* BACILLUS COAGULANS GBI-30 6086), D-ALPHA TOCOPHEROL, CANOLA OIL." Date available: 07/14/2017 Date last updated by company: 07/14/2017
