Source: USDA Branded Food Products Database Release December 2017 Software v.3.8.6.4 2017-10-02
Report Run at: December 19, 2017 05:31 EST
"Nutrient data for: 45150130, DARK CHOCOLATE BUTTONS, UPC: 841652100034"
Food Group:  Branded Food Products Database
Common Name:

Nutrient,Unit,Data points,Std. Error,"1.8 ONZ = 50.0g",1Value per 100 g,
Proximates
"Energy",kcal,--,--,190,380
"Protein",g,--,--,1.00,2.00
"Total lipid (fat)",g,--,--,5.00,10.00
"Carbohydrate, by difference",g,--,--,35.00,70.00
"Fiber, total dietary",g,--,--,3.0,6.0
"Sugars, total",g,--,--,31.00,62.00
Minerals
"Calcium, Ca",mg,--,--,20,40
"Iron, Fe",mg,--,--,0.72,1.44
"Sodium, Na",mg,--,--,10,20
Vitamins
"Vitamin C, total ascorbic acid",mg,--,--,6.0,12.0
"Vitamin A, IU",IU,--,--,0,0
Lipids
"Fatty acids, total saturated",g,--,--,2.500,5.000
"Fatty acids, total trans",g,--,--,0.000,0.000
"Cholesterol",mg,--,--,0,0
Amino Acids
Other
Ingredients
"BELGIUM DARK CHOCOLATE BUTTONS: COCOA MASS, SUGAR, COCOA BUTTER, SOY LECITHIN, NATURAL VANILLA FLAVORING, CRANBERRIES; DRIED CRANBERRIES, PINEAPPLE JUICE CONCENTRATE, SUNFLOWER OIL, CHILEAN FLAME RAISINS; JUMBO RAISINS, SUNFLOWER OIL, CHERRIES; DRIED CHERRIES, APPLE JUICE CONCENTRATE, SUNFLOWER OIL" Date available: 07/14/2017 Date last updated by company: 07/14/2017
