Source: USDA Branded Food Products Database Release December 2017 Software v.3.8.6.4 2017-10-02
Report Run at: December 19, 2017 05:31 EST
"Nutrient data for: 45205418, DARK CHOCOLATE CARAMEL SEA SALT, UPC: 099482461836"
Food Group:  Branded Food Products Database
Common Name:

Nutrient,Unit,Data points,Std. Error,"1 COOKIE = 27.0g",1Value per 100 g,
Proximates
"Energy",kcal,--,--,120,444
"Protein",g,--,--,1.00,3.70
"Total lipid (fat)",g,--,--,6.00,22.22
"Carbohydrate, by difference",g,--,--,18.00,66.67
"Fiber, total dietary",g,--,--,1.0,3.7
"Sugars, total",g,--,--,13.00,48.15
Minerals
"Calcium, Ca",mg,--,--,0,0
"Iron, Fe",mg,--,--,2.00,7.41
"Sodium, Na",mg,--,--,50,185
Vitamins
"Vitamin C, total ascorbic acid",mg,--,--,0.0,0.0
"Vitamin A, IU",IU,--,--,0,0
Lipids
"Fatty acids, total saturated",g,--,--,3.499,12.960
"Fatty acids, total trans",g,--,--,0.000,0.000
"Cholesterol",mg,--,--,0,0
Amino Acids
Other
Ingredients
"DARK CHOCOLATE (CANE SUGAR, CHOCOLATE LIQUOR, COCOA BUTTER, SOY LECITHIN [EMULSIFIER], VANILLA), UNBLEACHED WHEAT FLOUR, POWDERED SUGAR, EXPELLER PRESSED PALM OIL, CANE SUGAR, COCOA POWDER (PROCESSED WITH ALKALI), LOWFAT MILK POWDER, ORGANIC CANE SUGAR, NATURAL VANILLA FLAVOR, CARAMEL COLOR, NATURAL CARAMEL FLAVOR, SALT, SOY LECITHIN (EMULSIFIER), BAKING SODA (SODIUM BICARBONATE), SEA SALT." Date available: 07/14/2017 Date last updated by company: 07/14/2017
