Source: USDA Branded Food Products Database Release December 2017 Software v.3.8.6.4 2017-10-02
Report Run at: December 19, 2017 05:47 EST
"Nutrient data for: 45323218, DARK CHOCOLATE, UPC: 635104607536"
Food Group:  Branded Food Products Database
Common Name:

Nutrient,Unit,Data points,Std. Error,"10.0 PIECES = 43.0g",1Value per 100 g,
Proximates
"Energy",kcal,--,--,230,535
"Protein",g,--,--,2.00,4.65
"Total lipid (fat)",g,--,--,16.00,37.21
"Carbohydrate, by difference",g,--,--,23.00,53.49
"Fiber, total dietary",g,--,--,2.0,4.7
"Sugars, total",g,--,--,20.00,46.51
Minerals
"Calcium, Ca",mg,--,--,60,140
"Iron, Fe",mg,--,--,2.09,4.87
"Sodium, Na",mg,--,--,25,58
Vitamins
"Vitamin C, total ascorbic acid",mg,--,--,0.0,0.0
"Vitamin A, IU",IU,--,--,0,0
Lipids
"Fatty acids, total saturated",g,--,--,10.002,23.260
"Fatty acids, total trans",g,--,--,0.000,0.000
"Cholesterol",mg,--,--,5,12
Amino Acids
Other
Ingredients
"SEMISWEET CHOCOLATE (UNSWEETENED CHOCOLATE PROCESSED WITH POTASSIUM CARBONATE, SUGAR, COCOA BUTTER, SUNFLOWER AND/OR SOY LECITHIN, VANILLA) PROCESSED ON EQUIPMENT PREVIOUSLY USED TO PROCESS MILK CHOCOLATE. WHITE CHOCOLATE (SUGAR, COCOA BUTTER, MILK, SOY LECITHIN AND VANILLA), COCONUT OIL, PEPPERMINT OIL, COLOR: ALFALFA EXTRACT (NATURAL FLAVOR, POLYSORBATE 60)." Date available: 07/14/2017 Date last updated by company: 07/14/2017
