Source: USDA Branded Food Products Database Release December 2017 Software v.3.8.6.4 2017-10-02
Report Run at: December 19, 2017 05:39 EST
"Nutrient data for: 45208826, DARK CHOCOLATE NUT CLUSTERS, UPC: 085239086513"
Food Group:  Branded Food Products Database
Common Name:

Nutrient,Unit,Data points,Std. Error,"5.0 PIECES = 32.0g",1Value per 100 g,
Proximates
"Energy",kcal,--,--,200,625
"Protein",g,--,--,6.00,18.75
"Total lipid (fat)",g,--,--,15.00,46.88
"Carbohydrate, by difference",g,--,--,9.00,28.12
"Fiber, total dietary",g,--,--,2.0,6.2
"Sugars, total",g,--,--,3.00,9.38
Minerals
"Calcium, Ca",mg,--,--,40,125
"Iron, Fe",mg,--,--,2.25,7.03
"Sodium, Na",mg,--,--,55,172
Vitamins
"Vitamin C, total ascorbic acid",mg,--,--,0.0,0.0
"Vitamin A, IU",IU,--,--,0,0
Lipids
"Fatty acids, total saturated",g,--,--,3.002,9.380
"Fatty acids, total trans",g,--,--,0.000,0.000
"Cholesterol",mg,--,--,0,0
Amino Acids
Other
Ingredients
"ALMONDS, PEANUTS, CASHEWS, DARK CHOCOLATE (CHOCOLATE LIQUOR, SUGAR, COCOA BUTTER, SOY LECITHIN, VANILLA), TAPIOCA SYRUP, BROWN RICE SYRUP, CONTAINS LESS THAN 2% OF EACH OF THE FOLLOWING: BROWN SUGAR, EXPELLER PRESSED SUNFLOWER OIL, SEA SALT, SUNFLOWER LECITHIN." Date available: 07/14/2017 Date last updated by company: 07/14/2017
