Source: USDA Branded Food Products Database Release December 2017 Software v.3.8.6.4 2017-10-02
Report Run at: December 19, 2017 05:30 EST
"Nutrient data for: 45009749, DARK CHOCOLATE BAR, UPC: 052745980086"
Food Group:  Branded Food Products Database
Common Name:

Nutrient,Unit,Data points,Std. Error,"1 BAR = 51.0g",1Value per 100 g,
Proximates
"Energy",kcal,--,--,260,510
"Protein",g,--,--,3.00,5.88
"Total lipid (fat)",g,--,--,15.00,29.41
"Carbohydrate, by difference",g,--,--,32.00,62.75
"Fiber, total dietary",g,--,--,2.0,3.9
"Sugars, total",g,--,--,24.00,47.06
Minerals
"Calcium, Ca",mg,--,--,40,78
"Iron, Fe",mg,--,--,1.76,3.46
"Sodium, Na",mg,--,--,70,137
Vitamins
"Vitamin C, total ascorbic acid",mg,--,--,0.0,0.0
"Vitamin A, IU",IU,--,--,0,0
Lipids
"Fatty acids, total saturated",g,--,--,9.002,17.650
"Fatty acids, total trans",g,--,--,0.000,0.000
"Cholesterol",mg,--,--,5,10
Amino Acids
Other
Ingredients
"DARK CHOCOLATE (SUGAR, CHOCOLATE LIQUOR {ROCESSED WITH ALKALI}, COCOA BUTTER, WHOLE MILK POWDER, MILKFAT, SOY LECITHIN {AN EMULSIFIER}, VANILLA EXTRACT), MILK CHOCOLATE (SUGAR, COCOA BUTTER, CHOCOLATE LIQUOR, SKIM MILK POWDER, MILKFAT, WHOLE MILK POWDER, SOY LECITHIN, VANILLA EXTRACT), CHOCOLATE MICRO COOKIE GEMS (ENRICHED FLOUR {WHEAT FLOUR, NIACIN, REDUCED IRON, THIAMINE MONONITRATE, RIBOFLAVIN, FOLIC ACID}, SUGAR, COCOA PROCESSED WITH ALKALI, VEGETABLE OIL SHORTENING {PARTIALLY HYDROGENATED SOYBEAN AND/OR COTTONSEED OILS}, HIGH FRUCTOSE CORN SYRUP, CORN FLOUR, CHOCOLATE LIQUIOR, SALT, DEXTROSE, SODIUM BICARBONATE, SOY LECITHIN), PURE PEPPERMINT OIL." Date available: 06/24/2017 Date last updated by company: 06/24/2017
