Source: USDA Branded Food Products Database Release December 2017 Software v.3.8.6.4 2017-10-02
Report Run at: December 19, 2017 05:43 EST
"Nutrient data for: 45207654, DARK CHOCOLATES, UPC: 034325044470"
Food Group:  Branded Food Products Database
Common Name:

Nutrient,Unit,Data points,Std. Error,"1.4 ONZ = 40.0g",1Value per 100 g,
Proximates
"Energy",kcal,--,--,200,500
"Protein",g,--,--,2.00,5.00
"Total lipid (fat)",g,--,--,9.00,22.50
"Carbohydrate, by difference",g,--,--,30.00,75.00
"Fiber, total dietary",g,--,--,0.0,0.0
"Sugars, total",g,--,--,26.00,65.00
Minerals
"Calcium, Ca",mg,--,--,40,100
"Iron, Fe",mg,--,--,2.25,5.62
"Sodium, Na",mg,--,--,10,25
Vitamins
"Vitamin C, total ascorbic acid",mg,--,--,0.0,0.0
"Vitamin A, IU",IU,--,--,0,0
Lipids
"Fatty acids, total saturated",g,--,--,4.000,10.000
"Fatty acids, total trans",g,--,--,0.000,0.000
"Cholesterol",mg,--,--,0,0
Amino Acids
Other
Ingredients
"APRICOTS (SULFUR DIOXIDE (ADDED AS A PRESERVATIVE), DARK CHOCOLATE (PASSOVER SUGAR, PASSOVER CHOCOLATE LIQUOR, PASSOVER COCOA BUTTER, VANILLIN)" Date available: 07/14/2017 Date last updated by company: 07/14/2017
