Source: USDA Branded Food Products Database Release December 2017 Software v.3.8.6.4 2017-10-02
Report Run at: December 19, 2017 05:31 EST
"Nutrient data for: 45208135, DARK CHOCOLATE BITES, UPC: 050428492642"
Food Group:  Branded Food Products Database
Common Name:

Nutrient,Unit,Data points,Std. Error,"0.333 cup = 40.0g",1Value per 100 g,
Proximates
"Energy",kcal,--,--,180,450
"Protein",g,--,--,1.00,2.50
"Total lipid (fat)",g,--,--,10.00,25.00
"Carbohydrate, by difference",g,--,--,27.00,67.50
"Fiber, total dietary",g,--,--,2.0,5.0
"Sugars, total",g,--,--,22.00,55.00
Minerals
"Calcium, Ca",mg,--,--,0,0
"Iron, Fe",mg,--,--,1.35,3.38
"Sodium, Na",mg,--,--,0,0
Vitamins
"Vitamin C, total ascorbic acid",mg,--,--,0.0,0.0
"Vitamin A, IU",IU,--,--,0,0
Lipids
"Fatty acids, total saturated",g,--,--,6.000,15.000
"Fatty acids, total trans",g,--,--,0.000,0.000
"Cholesterol",mg,--,--,0,0
Amino Acids
Other
Ingredients
"SUGAR, CHOCOLATE PROCESSED WITH ALKALI, CRANBERRIES, COCOA BUTTER, CHOCOLATE, CONTAINS 1% OR LESS OF THE FOLLOWING: NATURAL FLAVOR, SUNFLOWER OIL, SOY LECITHIN (AN EMULSIFIER), CONFECTIONARY GLAZE, CORN SYRUP, CITRIC ACID, MODIFIED STARCH (TAPIOCA), COCONUT OIL, MILK." Date available: 07/14/2017 Date last updated by company: 07/14/2017
