Source: USDA Branded Food Products Database Release December 2017 Software v.3.8.6.4 2017-10-02
Report Run at: December 19, 2017 05:53 EST
"Nutrient data for: 45170200, DAROSARIO, OLIVE OIL, PORCINI MUSHROOM, UPC: 891508002050"
Food Group:  Branded Food Products Database
Common Name:

Nutrient,Unit,Data points,Std. Error,"1 Tbsp = 15.0g",1Value per 100 g,
Proximates
"Energy",kcal,--,--,120,800
"Total lipid (fat)",g,--,--,14.00,93.33
Minerals
Vitamins
Lipids
"Fatty acids, total saturated",g,--,--,1.999,13.330
Amino Acids
Other
Ingredients
"ORGANIC EXTRA VIRGIN OLIVE OIL, ORGANIC PORCINI MUSHROOMS (B. EDULIS) AND 100% ORGANIC PORCINI MUSHROOM FLAVORED EXTRA VIRGIN OLIVE OIL." Date available: 10/18/2017 Date last updated by company: 10/18/2017
