Source: USDA Branded Food Products Database Release December 2017 Software v.3.8.6.4 2017-10-02
Report Run at: December 19, 2017 05:59 EST
"Nutrient data for: 45020392, DAVIS, BAKING POWDER, UPC: 019900338021"
Food Group:  Branded Food Products Database
Common Name:

Nutrient,Unit,Data points,Std. Error,"0.125 tsp = 0.6g",1Value per 100 g,
Proximates
"Energy",kcal,--,--,0,0
"Protein",g,--,--,0.00,0.00
"Total lipid (fat)",g,--,--,0.00,0.00
"Carbohydrate, by difference",g,--,--,0.00,0.00
Minerals
"Calcium, Ca",mg,--,--,20,3333
"Sodium, Na",mg,--,--,65,10833
Vitamins
Lipids
Amino Acids
Other
Ingredients
"CORNSTARCH, SODIUM BICARBONATE, SODIUM ALUMINUM SULFATE, MONOCALCIUM PHOSPHATE." Date available: 07/14/2017 Date last updated by company: 07/14/2017
