Source: USDA Branded Food Products Database Release December 2017 Software v.3.8.6.4 2017-10-02
Report Run at: December 19, 2017 05:59 EST
"Nutrient data for: 45241389, DAVINCI, SUN DRIED TOMATO PESTO, UPC: 070670008231"
Food Group:  Branded Food Products Database
Common Name:

Nutrient,Unit,Data points,Std. Error,"2.0 Tbsp = 30.0g",1Value per 100 g,
Proximates
"Energy",kcal,--,--,150,500
"Protein",g,--,--,1.00,3.33
"Total lipid (fat)",g,--,--,15.00,50.00
"Carbohydrate, by difference",g,--,--,1.00,3.33
"Fiber, total dietary",g,--,--,1.0,3.3
Minerals
"Calcium, Ca",mg,--,--,0,0
"Iron, Fe",mg,--,--,0.00,0.00
"Sodium, Na",mg,--,--,190,633
Vitamins
"Vitamin C, total ascorbic acid",mg,--,--,6.0,20.0
Lipids
"Fatty acids, total saturated",g,--,--,2.001,6.670
"Fatty acids, total trans",g,--,--,0.000,0.000
Amino Acids
Other
Ingredients
"SUNDRIED TOMATOES, SUNFLOWER OIL, BASIL, DICED TOMATOES, EXTRA VIRGIN OLIVE OIL, SALT, CASHEW NUTS, GRANA PADANO CHEESE (COWS MILK, SALT, RENNET, ENZYMES, LYSOZYME FROM EGG), VINEGAR, BEETROOT, CITRIC ACID." Date available: 09/23/2016 Date last updated by company: 09/23/2016
