Source: USDA Branded Food Products Database Release December 2017 Software v.3.8.6.4 2017-10-02
Report Run at: December 19, 2017 05:56 EST
"Nutrient data for: 45163599, DAVIDIAN, GOURMET CRUNCH, SESAME, UPC: 040232067389"
Food Group:  Branded Food Products Database
Common Name:

Nutrient,Unit,Data points,Std. Error,"17.0 GRM = 17.0g",1Value per 100 g,
Proximates
"Energy",kcal,--,--,60,353
"Protein",g,--,--,7.00,41.18
"Total lipid (fat)",g,--,--,4.00,23.53
"Carbohydrate, by difference",g,--,--,12.00,70.59
"Fiber, total dietary",g,--,--,2.0,11.8
"Sugars, total",g,--,--,4.00,23.53
Minerals
"Calcium, Ca",mg,--,--,40,235
"Iron, Fe",mg,--,--,1.62,9.53
"Sodium, Na",mg,--,--,14,82
Vitamins
"Vitamin C, total ascorbic acid",mg,--,--,1.8,10.6
"Vitamin A, IU",IU,--,--,200,1176
Lipids
"Fatty acids, total saturated",g,--,--,1.000,5.880
"Fatty acids, total trans",g,--,--,0.000,0.000
"Cholesterol",mg,--,--,5,29
Amino Acids
Other
Ingredients
"SESAME, CANE SUGAR, SUNFLOWER SEEDS, RICE SYRUP BLACK SESAME, ALMONDS, SUNFLOWER SEEDS." Date available: 09/28/2016 Date last updated by company: 09/28/2016
