Source: USDA Branded Food Products Database Release December 2017 Software v.3.8.6.4 2017-10-02
Report Run at: December 19, 2017 06:01 EST
"Nutrient data for: 45144712, DAY'S, FLAVORED SODA, BLACK CHERRY, UPC: 636511004147"
Food Group:  Branded Food Products Database
Common Name:

Nutrient,Unit,Data points,Std. Error,"1 CAN = 355.0g",1Value per 100 g,
Proximates
"Energy",kcal,--,--,181,51
"Protein",g,--,--,0.00,0.00
"Total lipid (fat)",g,--,--,0.00,0.00
"Carbohydrate, by difference",g,--,--,45.01,12.68
"Sugars, total",g,--,--,45.01,12.68
Minerals
"Sodium, Na",mg,--,--,14,4
Vitamins
Lipids
Amino Acids
Other
Ingredients
"CONTAINS: CARBONATED WATER, HIGH FRUCTOSE CORN SYRUP, MALIC ACID, NATURAL AND ARTIFICIAL FLAVORS, POTASSIUM BENZOATE (A PRESERVATIVE) CARAMEL COLOR, RED 40, BLUE 1." Date available: 07/14/2017 Date last updated by company: 07/14/2017
