Source: USDA Branded Food Products Database Release December 2017 Software v.3.8.6.4 2017-10-02
Report Run at: December 19, 2017 06:04 EST
"Nutrient data for: 45086473, DEAN'S COUNTRY FRESH, 100% REAL ICE CREAM, BIRTHDAY CAKE, UPC: 041900074883"
Food Group:  Branded Food Products Database
Common Name:

Nutrient,Unit,Data points,Std. Error,"0.5 cup = 65.0g",1Value per 100 g,
Proximates
"Energy",kcal,--,--,150,231
"Protein",g,--,--,2.00,3.08
"Total lipid (fat)",g,--,--,7.00,10.77
"Carbohydrate, by difference",g,--,--,21.00,32.31
"Fiber, total dietary",g,--,--,0.0,0.0
"Sugars, total",g,--,--,17.00,26.15
Minerals
"Calcium, Ca",mg,--,--,60,92
"Iron, Fe",mg,--,--,0.00,0.00
"Sodium, Na",mg,--,--,50,77
Vitamins
"Vitamin C, total ascorbic acid",mg,--,--,0.0,0.0
"Vitamin A, IU",IU,--,--,225,346
Lipids
"Fatty acids, total saturated",g,--,--,4.498,6.920
"Fatty acids, total trans",g,--,--,0.000,0.000
"Cholesterol",mg,--,--,25,38
Amino Acids
Other
Ingredients
"MILKFAT AND NONFAT MILK, SUGAR, CORN SYRUP, FROSTING RIBBON [SUGAR, WATER, HIGH FRUCTOSE CORN SYRUP, CORN STARCH-MODIFIED, TITANIUM DIOXIDE, NATURAL AND ARTIFICIAL FLAVORS, SALT, POTASSIUM SORBATE (PRESERVATIVE), BLUE 1], COOKIE FRECKLES (SUGAR, COCONUT OIL, BUTTERMILK POWDER, NATURAL FLAVOR, TITANIUM DIOXIDE, YELLOW #6 LAKE, YELLOW #5 LAKE, BLUE #1 LAKE, SOY LECITHIN), HIGH FRUCTOSE CORN SYRUP, SWEETCREAM BUTTERMILK, WHEY, CONTAINS LESS THAN 2% OF CREAM CHEESE (CULTURED PASTEURIZED MILK AND CREAM, SALT, ENZYMES), NATURAL FLAVOR, CORN STARCH-MODIFIED, GUAR GUM, MONO & DIGLYCERIDES, XANTHAN GUM, POLYSORBATE 80, CELLULOSE GUM, CARRAGEENAN, TITANIUM DIOXIDE AND ANNATTO (COLOR), SALT." Date available: 06/25/2017 Date last updated by company: 06/25/2017
