Source: USDA Branded Food Products Database Release December 2017 Software v.3.8.6.4 2017-10-02
Report Run at: December 19, 2017 06:04 EST
"Nutrient data for: 45235507, DEAN'S, DAIRY PURE, MILK, FAT FREE, UPC: 041900077099"
Food Group:  Branded Food Products Database
Common Name:

Nutrient,Unit,Data points,Std. Error,"1 CONTAINER = 14.0g",1Value per 100 g,
Proximates
"Energy",kcal,--,--,5,36
"Protein",g,--,--,0.50,3.57
"Total lipid (fat)",g,--,--,0.00,0.00
"Carbohydrate, by difference",g,--,--,0.73,5.24
"Fiber, total dietary",g,--,--,0.0,0.0
"Sugars, total",g,--,--,0.70,5.00
Minerals
"Calcium, Ca",mg,--,--,17,119
"Iron, Fe",mg,--,--,0.00,0.00
"Sodium, Na",mg,--,--,7,52
Vitamins
"Vitamin C, total ascorbic acid",mg,--,--,0.0,0.3
"Vitamin A, IU",IU,--,--,15,104
"Vitamin D",IU,--,--,5,38
Lipids
"Fatty acids, total saturated",g,--,--,0.000,0.000
"Fatty acids, total trans",g,--,--,0.000,0.000
"Cholesterol",mg,--,--,0,2
Amino Acids
Other
Ingredients
"NONFAT MILK, VITAMIN A PALMITATE, VITAMIN D3." Date available: 06/24/2017 Date last updated by company: 06/24/2017
