Source: USDA Branded Food Products Database Release December 2017 Software v.3.8.6.4 2017-10-02
Report Run at: December 19, 2017 06:07 EST
"Nutrient data for: 45191888, DECADENT CHOCOLATE MILK, UPC: 180411001145"
Food Group:  Branded Food Products Database
Common Name:

Nutrient,Unit,Data points,Std. Error,"1 cup = 240.0g",1Value per 100 g,
Proximates
"Energy",kcal,--,--,211,88
"Protein",g,--,--,7.01,2.92
"Total lipid (fat)",g,--,--,7.01,2.92
"Carbohydrate, by difference",g,--,--,28.99,12.08
"Fiber, total dietary",g,--,--,0.0,0.0
"Sugars, total",g,--,--,27.00,11.25
Minerals
"Calcium, Ca",mg,--,--,300,125
"Iron, Fe",mg,--,--,0.00,0.00
"Sodium, Na",mg,--,--,170,71
Vitamins
"Vitamin C, total ascorbic acid",mg,--,--,0.0,0.0
"Vitamin A, IU",IU,--,--,199,83
"Vitamin D",IU,--,--,101,42
Lipids
"Fatty acids, total saturated",g,--,--,4.008,1.670
"Fatty acids, total trans",g,--,--,0.000,0.000
"Cholesterol",mg,--,--,19,8
Amino Acids
Other
Ingredients
"GRADE A MILK, SUGAR, CORN STARCH, COCOA POWDER, SALT, CARRAGEENAN, NATURAL AND ARTIFICIAL FLAVOR, GUAR GUM, VITAMIN D3." Date available: 07/14/2017 Date last updated by company: 07/14/2017
