Source: USDA Branded Food Products Database Release December 2017 Software v.3.8.6.4 2017-10-02
Report Run at: December 19, 2017 06:10 EST
"Nutrient data for: 45269303, DECORATED COOKIE WITH CAGE FREE EGGS & VEGGIE BASED COLORS!, UPC: 854060001183"
Food Group:  Branded Food Products Database
Common Name:

Nutrient,Unit,Data points,Std. Error,"2.0 ONZ = 57.0g",1Value per 100 g,
Proximates
"Energy",kcal,--,--,280,491
"Protein",g,--,--,3.00,5.26
"Total lipid (fat)",g,--,--,13.00,22.81
"Carbohydrate, by difference",g,--,--,40.00,70.18
"Fiber, total dietary",g,--,--,1.0,1.8
"Sugars, total",g,--,--,22.00,38.60
Minerals
"Calcium, Ca",mg,--,--,0,0
"Iron, Fe",mg,--,--,0.95,1.66
"Sodium, Na",mg,--,--,200,351
Vitamins
"Vitamin C, total ascorbic acid",mg,--,--,0.0,0.0
"Vitamin A, IU",IU,--,--,0,0
Lipids
"Fatty acids, total saturated",g,--,--,6.002,10.530
"Fatty acids, total trans",g,--,--,0.000,0.000
"Cholesterol",mg,--,--,0,0
Amino Acids
Other
Ingredients
"UNBLEACHED UNBROMATED WHEAT FLOUR (WHEAT FLOUR, MALTED BARLEY FLOUR, NIACIN, IRON, THIAMIN MONONITRATE, RIBOFLAVIN, FOLIC ACID), CANE SUGAR, PALM FRUIT OIL, CAGE FREE EGGS, VANILLA, WATER, CREAM OF TARTAR, BAKING SODA, CORN STARCH, SALT, TAPIOCA STARCH, FRUIT AND VEGETABLE BASED COLORINGS." Date available: 07/14/2017 Date last updated by company: 07/14/2017
