Source: USDA Branded Food Products Database Release December 2017 Software v.3.8.6.4 2017-10-02
Report Run at: December 19, 2017 06:11 EST
"Nutrient data for: 45211304, DECORATED PREMIUM MILK CHOCOLATE, UPC: 876247003025"
Food Group:  Branded Food Products Database
Common Name:

Nutrient,Unit,Data points,Std. Error,"0.5 LOLLIPOP = 40.0g",1Value per 100 g,
Proximates
"Energy",kcal,--,--,210,525
"Protein",g,--,--,2.00,5.00
"Total lipid (fat)",g,--,--,11.00,27.50
"Carbohydrate, by difference",g,--,--,25.00,62.50
"Fiber, total dietary",g,--,--,1.0,2.5
"Sugars, total",g,--,--,24.00,60.00
Minerals
"Calcium, Ca",mg,--,--,60,150
"Iron, Fe",mg,--,--,0.90,2.25
"Sodium, Na",mg,--,--,20,50
Vitamins
"Vitamin C, total ascorbic acid",mg,--,--,0.0,0.0
"Vitamin A, IU",IU,--,--,0,0
Lipids
"Fatty acids, total saturated",g,--,--,7.000,17.500
"Fatty acids, total trans",g,--,--,0.000,0.000
"Cholesterol",mg,--,--,5,12
Amino Acids
Other
Ingredients
"SUGAR, COCOA BUTTER, WHOLE MILK POWDER, COCOA MASS, LACTOSE, EMULSIFIERS (SOY LECITHIN & POLYGLYCEROL, POLYRICINOLEIC ACID), VANILLA EXTRACT, VANILLIN, ARTIFICIAL COLOR (FD&C RED 40 LAKE)." Date available: 07/14/2017 Date last updated by company: 07/14/2017
