Source: USDA Branded Food Products Database Release December 2017 Software v.3.8.6.4 2017-10-02
Report Run at: December 19, 2017 06:17 EST
"Nutrient data for: 45184428, DEEP SEA TREASURE PREMIUM ICE CREAM, UPC: 075767450269"
Food Group:  Branded Food Products Database
Common Name:

Nutrient,Unit,Data points,Std. Error,"0.5 cup = 71.0g",1Value per 100 g,
Proximates
"Energy",kcal,--,--,180,254
"Protein",g,--,--,2.00,2.82
"Total lipid (fat)",g,--,--,8.00,11.27
"Carbohydrate, by difference",g,--,--,24.00,33.80
"Fiber, total dietary",g,--,--,0.0,0.0
"Sugars, total",g,--,--,19.00,26.76
Minerals
"Calcium, Ca",mg,--,--,80,113
"Iron, Fe",mg,--,--,0.00,0.00
"Sodium, Na",mg,--,--,100,141
Vitamins
"Vitamin C, total ascorbic acid",mg,--,--,0.0,0.0
"Vitamin A, IU",IU,--,--,225,317
Lipids
"Fatty acids, total saturated",g,--,--,4.998,7.040
"Fatty acids, total trans",g,--,--,0.000,0.000
"Cholesterol",mg,--,--,20,28
Amino Acids
Other
Ingredients
"MILK, CREAM, SALTY CARAMEL SWIRLS [CORN SYRUP, WATER, SWEETENED CONDENSED SKIM MILK (SUGAR, WATER, NONFAT MILK SOLIDS), BUTTER (CREAM, SALT), SEA SALT, CARRAGEENAN, SODIUM BICARBONATE], CORN SYRUP, LIQUID SUGAR, SKIM MILK, BUTTERMILK, CARAMEL SEA SALT TRUFFLES [SUGAR, COCONUT OIL, CORN SYRUP, SWEETENED CONDENSED MILK (MILK, SUGAR), HEAVY CREAM, NONFAT MILK, MILK, WATER, COCOA (PROCESSED WITH ALKALI), BUTTER (CREAM, SALT). SEA SALT, SOY LECITHIN, NATURAL FLAVORS], CARAMEL BASE [CORN SYRUP, SUGAR, WATER, NONFAT DRY MILK, BUTTER (CREAM, SALT), SALT], MILKFAT, WHEY, EGG YOLKS, MONO- AND DIGLYCERIDES, CELLULOSE GUM, GUAR GUM, CARRAGEENAN, DEXTROSE." Date available: 07/14/2017 Date last updated by company: 07/14/2017
