Source: USDA Branded Food Products Database Release December 2017 Software v.3.8.6.4 2017-10-02
Report Run at: December 19, 2017 06:17 EST
"Nutrient data for: 45098035, DEEP RIVER SNACKS, KETTLE COOKED POTATO CHIPS, SPICY DILL PICKLE, UPC: 850668000801"
Food Group:  Branded Food Products Database
Common Name:

Nutrient,Unit,Data points,Std. Error,"12.0 CHIPS = 28.0g",1Value per 100 g,
Proximates
"Energy",kcal,--,--,140,500
"Protein",g,--,--,2.00,7.14
"Total lipid (fat)",g,--,--,7.00,25.00
"Carbohydrate, by difference",g,--,--,17.00,60.71
"Fiber, total dietary",g,--,--,1.0,3.6
"Sugars, total",g,--,--,1.00,3.57
Minerals
"Calcium, Ca",mg,--,--,20,71
"Iron, Fe",mg,--,--,0.64,2.29
"Potassium, K",mg,--,--,365,1304
"Sodium, Na",mg,--,--,210,750
Vitamins
"Vitamin C, total ascorbic acid",mg,--,--,10.7,38.3
"Vitamin A, IU",IU,--,--,0,0
Lipids
"Fatty acids, total saturated",g,--,--,0.501,1.790
"Fatty acids, total trans",g,--,--,0.000,0.000
"Cholesterol",mg,--,--,0,0
Amino Acids
Other
Ingredients
"POTATOES, SUNFLOWER OIL, SALT, DEXTROSE, WHEY, MALTODEXTRIN (MADE FROM CORN), SPICES, MODIFIED FOOD STARCH, DEHYDRATED ONION, DEHYDRATED GARLIC, CITRIC ACID, VINEGAR, EXTRACTIVES OF DILL WEED, LACTIC ACID, CALCIUM LACTATE, NATURAL FLAVOR." Date available: 07/14/2017 Date last updated by company: 07/14/2017
