Source: USDA Branded Food Products Database Release December 2017 Software v.3.8.6.4 2017-10-02
Report Run at: December 19, 2017 06:15 EST
"Nutrient data for: 45123086, DEEP, BIRYANI PASTE, UPC: 011433117104"
Food Group:  Branded Food Products Database
Common Name:

Nutrient,Unit,Data points,Std. Error,"1 Tbsp = 16.0g",1Value per 100 g,
Proximates
"Energy",kcal,--,--,100,625
"Protein",g,--,--,2.00,12.50
"Total lipid (fat)",g,--,--,7.00,43.75
"Carbohydrate, by difference",g,--,--,7.00,43.75
"Fiber, total dietary",g,--,--,2.0,12.5
"Sugars, total",g,--,--,0.00,0.00
Minerals
"Calcium, Ca",mg,--,--,0,0
"Iron, Fe",mg,--,--,2.92,18.26
"Sodium, Na",mg,--,--,480,3000
Vitamins
"Vitamin C, total ascorbic acid",mg,--,--,0.0,0.0
"Vitamin A, IU",IU,--,--,0,0
Lipids
"Fatty acids, total saturated",g,--,--,1.000,6.250
"Cholesterol",mg,--,--,0,0
Amino Acids
Other
Ingredients
"CORN OIL, TAMARIND (11%), CORIANDER (10%), SALT (7%), RED CHILLI POWDER (5%), CUMIN, GINGER, GARLIC, TURMERIC, CONDIMENTS, ACETIC ACID, CITRIC ACID." Date available: 06/25/2017 Date last updated by company: 06/25/2017
