Source: USDA Branded Food Products Database Release December 2017 Software v.3.8.6.4 2017-10-02
Report Run at: December 19, 2017 06:19 EST
"Nutrient data for: 45272111, DEHYDRATED POTATO DICES, UPC: 078716111167"
Food Group:  Branded Food Products Database
Common Name:

Nutrient,Unit,Data points,Std. Error,"0.5 cup = 43.0g",1Value per 100 g,
Proximates
"Energy",kcal,--,--,160,372
"Protein",g,--,--,3.00,6.98
"Total lipid (fat)",g,--,--,0.00,0.00
"Carbohydrate, by difference",g,--,--,36.00,83.72
"Fiber, total dietary",g,--,--,3.0,7.0
"Sugars, total",g,--,--,2.00,4.65
Minerals
"Calcium, Ca",mg,--,--,20,47
"Iron, Fe",mg,--,--,0.42,0.98
"Sodium, Na",mg,--,--,30,70
Vitamins
"Vitamin C, total ascorbic acid",mg,--,--,17.5,40.6
"Vitamin A, IU",IU,--,--,0,0
Lipids
"Fatty acids, total saturated",g,--,--,0.000,0.000
"Fatty acids, total trans",g,--,--,0.000,0.000
"Cholesterol",mg,--,--,0,0
Amino Acids
Other
Ingredients
"DEHYDRATED POTATOES" Date available: 07/14/2017 Date last updated by company: 07/14/2017
