Source: USDA Branded Food Products Database Release December 2017 Software v.3.8.6.4 2017-10-02
Report Run at: December 19, 2017 06:42 EST
"Nutrient data for: 45227616, DEL MONTE, LITE FRUIT COCKTAIL IN EXTRA LIGHT SYRUP, UPC: 024000017356"
Food Group:  Branded Food Products Database
Common Name:

Nutrient,Unit,Data points,Std. Error,"0.5 cup = 124.0g",1Value per 100 g,
Proximates
"Energy",kcal,--,--,60,48
"Protein",g,--,--,0.00,0.00
"Total lipid (fat)",g,--,--,0.00,0.00
"Carbohydrate, by difference",g,--,--,15.00,12.10
"Fiber, total dietary",g,--,--,1.0,0.8
"Sugars, total",g,--,--,13.00,10.48
Minerals
"Calcium, Ca",mg,--,--,0,0
"Iron, Fe",mg,--,--,0.41,0.33
"Potassium, K",mg,--,--,100,81
"Sodium, Na",mg,--,--,5,4
Vitamins
"Vitamin C, total ascorbic acid",mg,--,--,5.5,4.4
"Vitamin A, IU",IU,--,--,113,91
Lipids
"Fatty acids, total saturated",g,--,--,0.000,0.000
"Fatty acids, total trans",g,--,--,0.000,0.000
"Cholesterol",mg,--,--,0,0
Amino Acids
Other
Ingredients
"FRUIT (PEACHES, PEARS, GRAPES, PINEAPPLE, CHERRIES [CHERRIES, CARMINE]), WATER, SUGAR." Date available: 07/14/2017 Date last updated by company: 07/14/2017
