Source: USDA Branded Food Products Database Release December 2017 Software v.3.8.6.4 2017-10-02
Report Run at: December 19, 2017 06:43 EST
"Nutrient data for: 45058153, DEL MONTE, PEACH CHUNKS, UPC: 024000132158"
Food Group:  Branded Food Products Database
Common Name:

Nutrient,Unit,Data points,Std. Error,"0.5 cup = 121.0g",1Value per 100 g,
Proximates
"Energy",kcal,--,--,35,29
"Protein",g,--,--,0.00,0.00
"Total lipid (fat)",g,--,--,0.00,0.00
"Carbohydrate, by difference",g,--,--,8.00,6.61
"Fiber, total dietary",g,--,--,1.0,0.8
"Sugars, total",g,--,--,7.01,5.79
Minerals
"Calcium, Ca",mg,--,--,0,0
"Iron, Fe",mg,--,--,0.00,0.00
"Potassium, K",mg,--,--,100,83
"Sodium, Na",mg,--,--,5,4
Vitamins
"Vitamin C, total ascorbic acid",mg,--,--,34.7,28.7
"Vitamin A, IU",IU,--,--,347,287
Lipids
"Fatty acids, total saturated",g,--,--,0.000,0.000
"Fatty acids, total trans",g,--,--,0.000,0.000
"Cholesterol",mg,--,--,0,0
Amino Acids
Other
Ingredients
"PEACHES, WATER, ASCORBIC ACID (VITAMIN C), ACESULFAME POTASSIUM, SUCRALOSE." Date available: 07/14/2017 Date last updated by company: 07/14/2017
