Source: USDA Branded Food Products Database Release December 2017 Software v.3.8.6.4 2017-10-02
Report Run at: December 19, 2017 06:38 EST
"Nutrient data for: 45035645, DEL MONTE, DICED MANGOS, UPC: 024000550556"
Food Group:  Branded Food Products Database
Common Name:

Nutrient,Unit,Data points,Std. Error,"1 cup = 106.0g",1Value per 100 g,
Proximates
"Energy",kcal,--,--,40,38
"Protein",g,--,--,0.00,0.00
"Total lipid (fat)",g,--,--,0.00,0.00
"Carbohydrate, by difference",g,--,--,11.00,10.38
"Fiber, total dietary",g,--,--,1.0,0.9
"Sugars, total",g,--,--,9.00,8.49
Minerals
"Calcium, Ca",mg,--,--,0,0
"Iron, Fe",mg,--,--,0.00,0.00
"Potassium, K",mg,--,--,100,94
"Sodium, Na",mg,--,--,0,0
Vitamins
"Vitamin C, total ascorbic acid",mg,--,--,79.3,74.8
"Vitamin A, IU",IU,--,--,264,249
Lipids
"Fatty acids, total saturated",g,--,--,0.000,0.000
"Fatty acids, total trans",g,--,--,0.000,0.000
"Cholesterol",mg,--,--,0,0
Amino Acids
Other
Ingredients
"MANGO, WATER, NATURAL FLAVOR, ASCORBIC ACID (TO PRESERVE COLOR), CITRIC ACID, ACESULFAME POTASSIUM, SUCRALOSE, CALCIUM CHLORIDE." Date available: 07/14/2017 Date last updated by company: 07/14/2017
