Source: USDA Branded Food Products Database Release December 2017 Software v.3.8.6.4 2017-10-02
Report Run at: December 19, 2017 06:39 EST
"Nutrient data for: 45227750, DEL MONTE, FREESTONE PEACHES HALVES, UPC: 024000167211"
Food Group:  Branded Food Products Database
Common Name:

Nutrient,Unit,Data points,Std. Error,"0.5 cup = 128.0g",1Value per 100 g,
Proximates
"Energy",kcal,--,--,110,86
"Protein",g,--,--,0.00,0.00
"Total lipid (fat)",g,--,--,0.00,0.00
"Carbohydrate, by difference",g,--,--,27.00,21.09
"Fiber, total dietary",g,--,--,1.0,0.8
"Sugars, total",g,--,--,22.00,17.19
Minerals
"Calcium, Ca",mg,--,--,0,0
"Iron, Fe",mg,--,--,0.00,0.00
"Potassium, K",mg,--,--,95,74
"Sodium, Na",mg,--,--,5,4
Vitamins
"Vitamin C, total ascorbic acid",mg,--,--,4.0,3.1
"Vitamin A, IU",IU,--,--,219,171
Lipids
"Fatty acids, total saturated",g,--,--,0.000,0.000
"Fatty acids, total trans",g,--,--,0.000,0.000
"Cholesterol",mg,--,--,0,0
Amino Acids
Other
Ingredients
"PEACHES, WATER, HIGH FRUCTOSE CORN SYRUP, CORN SYRUP, SUGAR." Date available: 07/14/2017 Date last updated by company: 07/14/2017
