Source: USDA Branded Food Products Database Release December 2017 Software v.3.8.6.4 2017-10-02
Report Run at: December 19, 2017 06:42 EST
"Nutrient data for: 45058166, DEL MONTE, LITE APRICOT HALVES, UPC: 024000167013"
Food Group:  Branded Food Products Database
Common Name:

Nutrient,Unit,Data points,Std. Error,"0.5 cup = 124.0g",1Value per 100 g,
Proximates
"Energy",kcal,--,--,69,56
"Protein",g,--,--,1.00,0.81
"Total lipid (fat)",g,--,--,0.00,0.00
"Carbohydrate, by difference",g,--,--,17.00,13.71
"Fiber, total dietary",g,--,--,1.0,0.8
"Sugars, total",g,--,--,15.00,12.10
Minerals
"Calcium, Ca",mg,--,--,0,0
"Iron, Fe",mg,--,--,0.41,0.33
"Potassium, K",mg,--,--,105,85
"Sodium, Na",mg,--,--,10,8
Vitamins
"Vitamin C, total ascorbic acid",mg,--,--,5.5,4.4
"Vitamin A, IU",IU,--,--,1411,1138
Lipids
"Fatty acids, total saturated",g,--,--,0.000,0.000
"Fatty acids, total trans",g,--,--,0.000,0.000
"Cholesterol",mg,--,--,0,0
Amino Acids
Other
Ingredients
"APRICOTS, WATER, SUGAR." Date available: 07/14/2017 Date last updated by company: 07/14/2017
