Source: USDA Branded Food Products Database Release December 2017 Software v.3.8.6.4 2017-10-02
Report Run at: December 19, 2017 06:45 EST
"Nutrient data for: 45011138, DEL MONTE, RED GRAPEFRUIT SECTIONS IN LIGHT SYRUP, UPC: 733803102571"
Food Group:  Branded Food Products Database
Common Name:

Nutrient,Unit,Data points,Std. Error,"0.5 cup = 126.0g",1Value per 100 g,
Proximates
"Energy",kcal,--,--,89,71
"Protein",g,--,--,1.00,0.79
"Total lipid (fat)",g,--,--,0.00,0.00
"Carbohydrate, by difference",g,--,--,21.00,16.67
"Fiber, total dietary",g,--,--,1.0,0.8
"Sugars, total",g,--,--,17.00,13.49
Minerals
"Calcium, Ca",mg,--,--,20,16
"Iron, Fe",mg,--,--,3.00,2.38
"Sodium, Na",mg,--,--,0,0
Vitamins
"Vitamin C, total ascorbic acid",mg,--,--,66.7,52.9
"Vitamin A, IU",IU,--,--,0,0
Lipids
"Fatty acids, total saturated",g,--,--,0.000,0.000
"Fatty acids, total trans",g,--,--,0.000,0.000
"Cholesterol",mg,--,--,0,0
Amino Acids
Other
Ingredients
"GRAPEFRUIT, WATER, HIGH FRUCTOSE CORN SYRUP, ASCORBIC ACID (VITAMIN C), CITRIC ACID." Date available: 07/14/2017 Date last updated by company: 07/14/2017
