Source: USDA Branded Food Products Database Release December 2017 Software v.3.8.6.4 2017-10-02
Report Run at: December 19, 2017 06:20 EST
"Nutrient data for: 45065215, DELALLO, HANDCRAFTED ITALIAN PLUM TOMATO SAUCE, CREAMY VODKA, UPC: 072368124377"
Food Group:  Branded Food Products Database
Common Name:

Nutrient,Unit,Data points,Std. Error,"0.5 cup = 125.0g",1Value per 100 g,
Proximates
"Energy",kcal,--,--,140,112
"Protein",g,--,--,3.00,2.40
"Total lipid (fat)",g,--,--,11.00,8.80
"Carbohydrate, by difference",g,--,--,7.00,5.60
"Fiber, total dietary",g,--,--,2.0,1.6
"Sugars, total",g,--,--,5.00,4.00
Minerals
"Calcium, Ca",mg,--,--,80,64
"Iron, Fe",mg,--,--,0.51,0.41
"Sodium, Na",mg,--,--,370,296
Vitamins
"Vitamin C, total ascorbic acid",mg,--,--,2.2,1.8
"Vitamin A, IU",IU,--,--,240,192
Lipids
"Fatty acids, total saturated",g,--,--,6.000,4.800
"Fatty acids, total monounsaturated",g,--,--,2.500,2.000
"Fatty acids, total polyunsaturated",g,--,--,0.000,0.000
"Fatty acids, total trans",g,--,--,0.000,0.000
"Cholesterol",mg,--,--,30,24
Amino Acids
Other
Ingredients
"ITALIAN PLUM TOMATOES, HEAVY CREAM, ONIONS,. CRUSHED TOMATOES, PARMESAN CHEESE (COW'S MILK, CHEESE CULTURES, SALT, ENZYMES), EXTRA VIRGIN OLIVE OIL, PECORINO ROMANO CHEESE (PASTEURIZED SHEEP'S MILK, CHEESE CULTURES, RENNET, SALT), VODKA, GARLIC, ORGANIC SUGAR, SALT, BASIL, WHITE PEPPER, CITRIC ACID, OREGANO" Date available: 07/14/2017 Date last updated by company: 07/14/2017
