Source: USDA Branded Food Products Database Release December 2017 Software v.3.8.6.4 2017-10-02
Report Run at: December 19, 2017 06:21 EST
"Nutrient data for: 45150084, DELAND, GLUTEN FREE OATMEAL RAISIN COOKIES, UPC: 831011103004"
Food Group:  Branded Food Products Database
Common Name:

Nutrient,Unit,Data points,Std. Error,"1 COOKIE = 19.0g",1Value per 100 g,
Proximates
"Energy",kcal,--,--,80,421
"Protein",g,--,--,1.00,5.26
"Total lipid (fat)",g,--,--,3.50,18.42
"Carbohydrate, by difference",g,--,--,11.00,57.89
"Fiber, total dietary",g,--,--,0.0,0.0
"Sugars, total",g,--,--,5.00,26.32
Minerals
"Calcium, Ca",mg,--,--,0,0
"Iron, Fe",mg,--,--,0.95,4.98
"Sodium, Na",mg,--,--,50,263
Vitamins
"Vitamin C, total ascorbic acid",mg,--,--,0.0,0.0
"Vitamin A, IU",IU,--,--,0,0
Lipids
"Fatty acids, total saturated",g,--,--,1.499,7.890
"Fatty acids, total trans",g,--,--,0.000,0.000
"Cholesterol",mg,--,--,5,26
Amino Acids
Other
Ingredients
"RICE FLOUR, CANE SUGAR, TAPIOCA STARCH, CORN STARCH, FROZEN EGGS, MOLASSES, ORGANIC PALM OIL, FILTERED WATER, RAISINS, ROLLED OATS, CINNAMON POWDER, 2% OR LESS OF EACH OF THE FOLLOWING: SEA SALT, NATURAL FLAVOR, BAKING SODA (SODIUM BICARBONATE), SUNFLOWER OIL, XANTHAN, ENZYMES." Date available: 07/14/2017 Date last updated by company: 07/14/2017
