Source: USDA Branded Food Products Database Release December 2017 Software v.3.8.6.4 2017-10-02
Report Run at: December 19, 2017 06:22 EST
"Nutrient data for: 45020996, DELGROSSO, DELUXE PIZZA SAUCE, UPC: 074908324292"
Food Group:  Branded Food Products Database
Common Name:

Nutrient,Unit,Data points,Std. Error,"0.25 cup = 64.0g",1Value per 100 g,
Proximates
"Energy",kcal,--,--,40,62
"Protein",g,--,--,2.00,3.12
"Total lipid (fat)",g,--,--,1.00,1.56
"Carbohydrate, by difference",g,--,--,6.00,9.38
"Fiber, total dietary",g,--,--,1.0,1.6
"Sugars, total",g,--,--,4.00,6.25
Minerals
"Calcium, Ca",mg,--,--,0,0
"Iron, Fe",mg,--,--,1.52,2.38
"Sodium, Na",mg,--,--,270,422
Vitamins
"Vitamin C, total ascorbic acid",mg,--,--,19.0,29.7
"Vitamin A, IU",IU,--,--,1585,2477
Lipids
"Fatty acids, total saturated",g,--,--,0.000,0.000
"Fatty acids, total trans",g,--,--,0.000,0.000
"Cholesterol",mg,--,--,0,0
Amino Acids
Other
Ingredients
"TOMATO PUREE (WATER, TOMATO PASTE), GROUND PORK, FRESH ONIONS, SALT, GREEN BELL PEPPERS, SUGAR, MUSHROOMS, FRESH CELERY, IMPORTED OLIVE OIL, SPICES, LEMON JUICE, GARLIC." Date available: 06/25/2017 Date last updated by company: 06/25/2017
