Source: USDA Branded Food Products Database Release December 2017 Software v.3.8.6.4 2017-10-02
Report Run at: December 19, 2017 06:32 EST
"Nutrient data for: 45118610, DELI-SLICED MILD PEPPER RINGS, UPC: 073214004638"
Food Group:  Branded Food Products Database
Common Name:

Nutrient,Unit,Data points,Std. Error,"0.25 cup = 30.0g",1Value per 100 g,
Proximates
"Energy",kcal,--,--,10,33
"Protein",g,--,--,0.00,0.00
"Total lipid (fat)",g,--,--,0.00,0.00
"Carbohydrate, by difference",g,--,--,2.00,6.67
"Fiber, total dietary",g,--,--,0.0,0.0
"Sugars, total",g,--,--,0.00,0.00
Minerals
"Calcium, Ca",mg,--,--,0,0
"Iron, Fe",mg,--,--,0.60,2.00
"Sodium, Na",mg,--,--,310,1033
Vitamins
"Vitamin C, total ascorbic acid",mg,--,--,20.0,66.7
"Vitamin A, IU",IU,--,--,0,0
Lipids
"Fatty acids, total saturated",g,--,--,0.000,0.000
"Fatty acids, total trans",g,--,--,0.000,0.000
"Cholesterol",mg,--,--,0,0
Amino Acids
Other
Ingredients
"BANANA PEPPERS, WATER, DISTILLED VINEGAR, SEA SALT, CALCIUM CHLORIDE, SODIUM BISULFITE (ADDED AS A COLOR STABILIZER), NATURAL FLAVORS, FD&C YELLOW #5." Date available: 07/14/2017 Date last updated by company: 07/14/2017
