Source: USDA Branded Food Products Database Release December 2017 Software v.3.8.6.4 2017-10-02
Report Run at: December 19, 2017 06:23 EST
"Nutrient data for: 45231391, DELICATESSEN STYLE CORNED BEEF, UPC: 051900807145"
Food Group:  Branded Food Products Database
Common Name:

Nutrient,Unit,Data points,Std. Error,"6.0 SLICES = 53.0g",1Value per 100 g,
Proximates
"Energy",kcal,--,--,60,113
"Protein",g,--,--,11.00,20.75
"Total lipid (fat)",g,--,--,2.00,3.77
"Carbohydrate, by difference",g,--,--,0.00,0.00
"Fiber, total dietary",g,--,--,0.0,0.0
"Sugars, total",g,--,--,0.00,0.00
Minerals
"Calcium, Ca",mg,--,--,20,38
"Iron, Fe",mg,--,--,1.73,3.27
"Sodium, Na",mg,--,--,580,1094
Vitamins
"Vitamin C, total ascorbic acid",mg,--,--,0.0,0.0
"Vitamin A, IU",IU,--,--,0,0
Lipids
"Fatty acids, total saturated",g,--,--,0.498,0.940
"Fatty acids, total trans",g,--,--,0.000,0.000
"Cholesterol",mg,--,--,30,57
Amino Acids
Other
Ingredients
"BEEF, WATER, SALT. LESS THAN 2% OF GARLIC, SPICES, SUGAR, FLAVORINGS, SODIUM PHOSPHATES, SODIUM ERYTHORBATE, SODIUM NITRITE." Date available: 07/14/2017 Date last updated by company: 07/14/2017
