Source: USDA Branded Food Products Database Release December 2017 Software v.3.8.6.4 2017-10-02
Report Run at: December 19, 2017 06:34 EST
"Nutrient data for: 45287024, DELI STYLE PROVOLONE CHEESE SLICES, UPC: 074175445997"
Food Group:  Branded Food Products Database
Common Name:

Nutrient,Unit,Data points,Std. Error,"1 SLICE = 19.0g",1Value per 100 g,
Proximates
"Energy",kcal,--,--,70,368
"Protein",g,--,--,5.00,26.32
"Total lipid (fat)",g,--,--,5.00,26.32
"Carbohydrate, by difference",g,--,--,1.00,5.26
"Fiber, total dietary",g,--,--,0.0,0.0
"Sugars, total",g,--,--,0.00,0.00
Minerals
"Calcium, Ca",mg,--,--,150,789
"Iron, Fe",mg,--,--,0.00,0.00
"Sodium, Na",mg,--,--,160,842
Vitamins
"Vitamin C, total ascorbic acid",mg,--,--,0.0,0.0
"Vitamin A, IU",IU,--,--,263,1384
Lipids
"Fatty acids, total saturated",g,--,--,2.500,13.160
"Fatty acids, total monounsaturated",g,--,--,1.499,7.890
"Fatty acids, total polyunsaturated",g,--,--,0.000,0.000
"Fatty acids, total trans",g,--,--,0.000,0.000
"Cholesterol",mg,--,--,15,79
Amino Acids
Other
Ingredients
"PASTEURIZED MILK, CHEESE CULTURE, SALT, ENZYMES AND SMOKE FLAVORING." Date available: 07/14/2017 Date last updated by company: 07/14/2017
