Source: USDA Branded Food Products Database Release December 2017 Software v.3.8.6.4 2017-10-02
Report Run at: December 19, 2017 06:24 EST
"Nutrient data for: 45045272, DELICIOUS CAKES, 7"""" DOUBLE CHOCOLATE TWO-LAYER CAKE, UPC: 029519212803"
Food Group:  Branded Food Products Database
Common Name:

Nutrient,Unit,Data points,Std. Error,"0.0833 OF CAKE = 76.0g",1Value per 100 g,
Proximates
"Energy",kcal,--,--,270,355
"Protein",g,--,--,2.00,2.63
"Total lipid (fat)",g,--,--,12.00,15.79
"Carbohydrate, by difference",g,--,--,41.00,53.95
"Fiber, total dietary",g,--,--,1.0,1.3
"Sugars, total",g,--,--,30.00,39.47
Minerals
"Calcium, Ca",mg,--,--,20,26
"Iron, Fe",mg,--,--,2.37,3.12
"Sodium, Na",mg,--,--,270,355
Vitamins
"Vitamin C, total ascorbic acid",mg,--,--,0.0,0.0
"Vitamin A, IU",IU,--,--,0,0
Lipids
"Fatty acids, total saturated",g,--,--,3.998,5.260
"Fatty acids, total trans",g,--,--,0.000,0.000
"Cholesterol",mg,--,--,25,33
Amino Acids
Other
Ingredients
"POWDERED SUGAR, SUGAR, ENRICHED WHEAT FLOUR BLEACHED (FLOUR, NIACIN, IRON, THIAMINE MONONITRATE, RIBOFLAVIN, FOLIC ACID), WATER, EGGS, PALM OIL, COCOA PROCESSED WITH ALKALI, SOYBEAN OIL, CANOLA OIL, INVERT SUGAR, CONTAINS 2% OR LESS OF: CELLULOSE GUM, CHOCOLATE LIQUOR, CITRIC ACID, CORN SYRUP, DARK CHOCOLATE FLAVORED BITS (SUGAR, HYDROGENATED PALM KERNEL OIL, COCOA PROCESSED WITH ALKALI, BUTTERMILK, COCOA POWDER, MILKFAT, HYDROGENATED PALM OIL, SORBITAN MONOSTEARATE, SOY LECITHIN, POLYSORBATE 60, NATURAL AND ARTIFICIAL FLAVOR), DEXTROSE, EGG WHITES, FOOD STARCH-MODIFIED, GLYCERIN, GUAR GUM, LEAVENING (BAKING SODA, MONOCALCIUM PHOSPHATE, SODIUM ACID PYROPHOSPHATE), MONO- AND DIGLYCERIDES, NATURAL AND ARTIFICIAL FLAVOR, NONFAT MILK, POLYSORBATE 60, POLYSORBATE 80, PRESERVATIVES (POTASSIUM SORBATE, SODIUM PROPIONATE, SORBIC ACID), PROPYLENE GLYCOL MONO- AND DIESTERS OF FATTY ACIDS, SALT, SOY FLOUR, SOY LECITHIN, WHEY, XANTHAN GUM, YELLOW CORN FLOUR." Date available: 09/02/2017 Date last updated by company: 09/02/2017
