Source: USDA Branded Food Products Database Release December 2017 Software v.3.8.6.4 2017-10-02
Report Run at: December 19, 2017 06:55 EST
"Nutrient data for: 45147437, DELUXE SNACK MIX, UPC: 051712263436"
Food Group:  Branded Food Products Database
Common Name:

Nutrient,Unit,Data points,Std. Error,"0.333 cup = 30.0g",1Value per 100 g,
Proximates
"Energy",kcal,--,--,140,467
"Protein",g,--,--,3.00,10.00
"Total lipid (fat)",g,--,--,5.00,16.67
"Carbohydrate, by difference",g,--,--,20.00,66.67
"Fiber, total dietary",g,--,--,1.0,3.3
"Sugars, total",g,--,--,1.00,3.33
Minerals
"Calcium, Ca",mg,--,--,0,0
"Iron, Fe",mg,--,--,1.20,4.00
"Sodium, Na",mg,--,--,300,1000
Vitamins
"Vitamin C, total ascorbic acid",mg,--,--,0.0,0.0
"Vitamin A, IU",IU,--,--,0,0
Lipids
"Fatty acids, total saturated",g,--,--,0.501,1.670
"Fatty acids, total trans",g,--,--,0.000,0.000
"Cholesterol",mg,--,--,0,0
Amino Acids
Other
Ingredients
"WHEAT FLOUR, ENRICHED WHEAT FLOUR (NIACIN, REDUCED IRON, THIAMINE MONONITRATE, RIBOFLAVIN, FOLIC ACID), PARTIALLY HYDROGENATED SOYBEAN OIL (BHT), SALT, RYE FLOUR, SUGAR, CORN SYRUP, YEAST, WORCESTERSHIRE SAUCE POWDER (MALTODEXTRIN, MOLASSES, VINEGAR, CORN SYRUP, SALT, CARAMEL COLOR, GARLIC, SUGAR, SPICES, TAMARIND, NATURAL FLAVOR), AUTOLYZED YEAST EXTRACT, DEXTROSE, SPICE, GARLIC POWDER, ONION POWDER, CARAMEL COLOR, SODIUM BICARBONATE, DISODIUM INOSINATE, DISODIUM GUANYLATE, GARLIC OIL, MALT SYRUP, CARAWAY, FUMARIC ACID, SODIUM DIACETATE." Date available: 07/14/2017 Date last updated by company: 07/14/2017
