Source: USDA Branded Food Products Database Release December 2017 Software v.3.8.6.4 2017-10-02
Report Run at: December 19, 2017 06:54 EST
"Nutrient data for: 45278059, DELUXE SHELLS & CHEESE DINNER, UPC: 041268182763"
Food Group:  Branded Food Products Database
Common Name:

Nutrient,Unit,Data points,Std. Error,"0.33 BOX, (MAKES ABOUT 1 CUP PREPARED) = 113.0g",1Value per 100 g,
Proximates
"Energy",kcal,--,--,350,310
"Protein",g,--,--,12.99,11.50
"Total lipid (fat)",g,--,--,6.99,6.19
"Carbohydrate, by difference",g,--,--,59.00,52.21
"Fiber, total dietary",g,--,--,2.0,1.8
"Sugars, total",g,--,--,6.99,6.19
Minerals
"Calcium, Ca",mg,--,--,150,133
"Iron, Fe",mg,--,--,3.98,3.52
"Sodium, Na",mg,--,--,910,805
Vitamins
"Vitamin C, total ascorbic acid",mg,--,--,0.0,0.0
"Vitamin A, IU",IU,--,--,0,0
Lipids
"Fatty acids, total saturated",g,--,--,2.994,2.650
"Fatty acids, total monounsaturated",g,--,--,2.000,1.770
"Fatty acids, total polyunsaturated",g,--,--,0.994,0.880
"Fatty acids, total trans",g,--,--,0.000,0.000
"Cholesterol",mg,--,--,15,13
Amino Acids
Other
Ingredients
"ENRICHED MACARONI PRODUCT (WHEAT FLOUR, DURUM FLOUR, NIACIN, FERROUS SULFATE, THIAMIN MONONITRATE, RIBOFLAVIN, FOLIC ACID), CHEESE SAUCE (WATER, CHEDDAR CHEESE [PASTEURIZED MILK, CHEESE CULTURE, SALT, ENZYMES], WHEY, CORN SYRUP SOLIDS, MALTODEXTRIN, NON-FAT DRY MILK, SALT, SODIUM PHOSPHATE, NATURAL FLAVORS, CANOLA OIL, WHOLE MILK POWDER, COLORS ADDED [PAPRIKA EXTRACT, BETA CAROTENE], SODIUM ALGINATE, MONO AND DIGLYCERIDES, XANTHAN GUM, SORBIC ACID, LACTIC ACID)." Date available: 07/14/2017 Date last updated by company: 07/14/2017
