Source: USDA Branded Food Products Database Release December 2017 Software v.3.8.6.4 2017-10-02
Report Run at: December 19, 2017 06:51 EST
"Nutrient data for: 45104806, DELUXE MIXED NUTS, UPC: 021130294367"
Food Group:  Branded Food Products Database
Common Name:

Nutrient,Unit,Data points,Std. Error,"0.25 cup = 31.0g",1Value per 100 g,
Proximates
"Energy",kcal,--,--,190,613
"Protein",g,--,--,5.00,16.13
"Total lipid (fat)",g,--,--,17.00,54.84
"Carbohydrate, by difference",g,--,--,7.00,22.58
"Fiber, total dietary",g,--,--,2.0,6.5
"Sugars, total",g,--,--,1.00,3.23
Minerals
"Calcium, Ca",mg,--,--,40,129
"Iron, Fe",mg,--,--,2.32,7.49
"Sodium, Na",mg,--,--,100,323
Vitamins
"Vitamin C, total ascorbic acid",mg,--,--,0.0,0.0
"Vitamin A, IU",IU,--,--,0,0
Lipids
"Fatty acids, total saturated",g,--,--,2.499,8.060
"Fatty acids, total trans",g,--,--,0.000,0.000
"Cholesterol",mg,--,--,0,0
Amino Acids
Other
Ingredients
"CASHEWS (CASHEWS, PEANUT OIL, SALT)., ALMONDS (ALMONDS, PEANUT OIL, SALT), HAZELNUTS (HAZELNUTS, PEANUT OIL), PECANS (PECANS, PEANUT OIL, SALT), BRAZIL NUTS." Date available: 06/25/2017 Date last updated by company: 06/25/2017
