Source: USDA Branded Food Products Database Release December 2017 Software v.3.8.6.4 2017-10-02
Report Run at: December 19, 2017 06:50 EST
"Nutrient data for: 45208392, DELUXE FRENCH CHEESE CAKE, UPC: 072030001142"
Food Group:  Branded Food Products Database
Common Name:

Nutrient,Unit,Data points,Std. Error,"0.166 CAKE = 106.0g",1Value per 100 g,
Proximates
"Energy",kcal,--,--,370,349
"Protein",g,--,--,5.00,4.72
"Total lipid (fat)",g,--,--,22.00,20.75
"Carbohydrate, by difference",g,--,--,38.00,35.85
"Fiber, total dietary",g,--,--,1.0,0.9
"Sugars, total",g,--,--,23.00,21.70
Minerals
"Calcium, Ca",mg,--,--,0,0
"Iron, Fe",mg,--,--,0.00,0.00
"Sodium, Na",mg,--,--,390,368
Vitamins
"Vitamin C, total ascorbic acid",mg,--,--,0.0,0.0
"Vitamin A, IU",IU,--,--,0,0
Lipids
"Fatty acids, total saturated",g,--,--,11.999,11.320
"Fatty acids, total trans",g,--,--,0.000,0.000
"Cholesterol",mg,--,--,15,14
Amino Acids
Other
Ingredients
"NEUFCHATEL CHEESE (PASTEURIZED NONFAT MILK AND MILKFAT, CHEESE CULTURE, SALT, CAROB BEAN GUM), SUGAR, WATER, WHEAT FLOUR, PALM & PALM KERNEL OIL, MILK, EGGS, WHOLE WHEAT FLOUR, MILK PROTEIN CONCENTRATE, COCONUT, ARTIFICIAL FLAVOR, PHOSPHORIC ACID, MODIFIED CORNSTARCH, SALT, DEXTROSE, LACTIC ACID, LEMON JUICE CONCENTRATE, MONO- AND DIGLYCERIDES, CITRIC ACID, TAPIOCA DEXTRIN, ARTIFICIAL COLOR, PRESERVATIVES (POTASSIUM SORBATE, SORBIC ACID, SODIUM PROPIONATE, SULFITING AGENTS), MALTODEXTRIN, BAKING SODA, HONEY, MOLASSES, GUAR GUM, SORBITAN MONOSTEARATE, XANTHAN GUM, CORN SYRUP, CAROB BEAN GUM, POLYSORBATE 60, GLYCERIN, SODIUM PHOSPHATE, ANNATTO COLOR, CARAMEL COLOR, TURMERIC COLOR, CALCIUM SULFATE, CALCIUM PHOSPHATE, SOY PROTEIN." Date available: 10/10/2017 Date last updated by company: 10/10/2017
