Source: USDA Branded Food Products Database Release December 2017 Software v.3.8.6.4 2017-10-02
Report Run at: December 19, 2017 06:56 EST
"Nutrient data for: 45159526, DEMET'S, TURTLES, NUT CLUSTER, SWEETHEART MIX CANDY, ORIGINAL CARAMEL, PECAN, WHITE RASPBERRY, UPC: 872181004777"
Food Group:  Branded Food Products Database
Common Name:

Nutrient,Unit,Data points,Std. Error,"2.0 PIECES = 33.0g",1Value per 100 g,
Proximates
"Energy",kcal,--,--,170,515
"Protein",g,--,--,2.00,6.06
"Total lipid (fat)",g,--,--,10.00,30.30
"Carbohydrate, by difference",g,--,--,19.00,57.58
"Fiber, total dietary",g,--,--,0.0,0.0
"Sugars, total",g,--,--,11.00,33.33
Minerals
"Calcium, Ca",mg,--,--,40,121
"Iron, Fe",mg,--,--,0.54,1.65
"Sodium, Na",mg,--,--,50,152
Vitamins
"Vitamin C, total ascorbic acid",mg,--,--,0.0,0.0
"Vitamin A, IU",IU,--,--,0,0
Lipids
"Fatty acids, total saturated",g,--,--,4.000,12.120
"Fatty acids, total trans",g,--,--,0.000,0.000
"Cholesterol",mg,--,--,5,15
Amino Acids
Other
Ingredients
"MILK, CHOCOLATE (SUGAR, COCOA BUTTER, CHOCOLATE, NONFAT MILK, BUTTEROIL, LACTOSE SOY, LECITHIN, VANILLIN, SALT), WHITE CHOCOLATE (SUGAR, COCOA BUTTER, WHOLE MILK POWDER, BUTTEROIL, SOY LECITHIN [AN EMULSIFIER], SALT, AND NATURAL VANILLA FLAVOR), CORN CYRUP, SUGAR, CASHEWS (CASHEWS, VEGETABLE OIL [CANOLA, SAFFLOWER AND/OR SUNFLOWER), SALT), PECANS, PALM OIL, NONFAT MILK, AND LESS THAN 2% OF BUTTEROIL, BEETROOT JUICE CONCENTRATE (NATURAL COLOR, CITRIC ACID), RASPBERRY FLAVOR (PROPYLENE GLYCOL AND NATURAL FLAVORS), SODIUM CASEINATE, SALT, VANILLA (CARAMEL COLOR, NATURAL AND ARTIFICIAL FLAVORS)." Date available: 07/14/2017 Date last updated by company: 07/14/2017
