Source: USDA Branded Food Products Database Release December 2017 Software v.3.8.6.4 2017-10-02
Report Run at: December 19, 2017 06:58 EST
"Nutrient data for: 45315595, DENTAL GUM, UPC: 000360055009"
Food Group:  Branded Food Products Database
Common Name:

Nutrient,Unit,Data points,Std. Error,"2.0 PIECES = 2.5g",1Value per 100 g,
Proximates
"Energy",kcal,--,--,5,200
"Total lipid (fat)",g,--,--,0.00,0.00
"Carbohydrate, by difference",g,--,--,2.00,80.00
"Sugars, total",g,--,--,0.00,0.00
Minerals
"Sodium, Na",mg,--,--,15,600
Vitamins
"Vitamin C, total ascorbic acid",mg,--,--,300.0,12000.0
"Vitamin A, IU",IU,--,--,25000,1000000
Lipids
Amino Acids
Other
Ingredients
"SORBITOL, GUM BASE, MALTITOL SYRUP, NATURAL WINTERGREEN FLAVOR, XYLITOL, DICALCIUM PHOSPHATE, GLYCERINE, SODIUM BICARBONATE, VITAMIN C (AS CALCIUM ASCORBATE), VITAMIN E (AS D-ALPHA-TOCOPHERYL ACETATE), MALTODEXTRIN, VITAMIN A (AS PALMITATE), CARNAUBA WAX, SOY LECITHIN, CITRUS EXTRACT" Date available: 07/14/2017 Date last updated by company: 07/14/2017
