Source: USDA Branded Food Products Database Release December 2017 Software v.3.8.6.4 2017-10-02
Report Run at: December 19, 2017 07:00 EST
"Nutrient data for: 45180063, DESSERT DECORATIONS AND TOPPING, UPC: 817987106966"
Food Group:  Branded Food Products Database
Common Name:

Nutrient,Unit,Data points,Std. Error,"0.5 BAG = 50.0g",1Value per 100 g,
Proximates
"Energy",kcal,--,--,270,540
"Protein",g,--,--,3.00,6.00
"Total lipid (fat)",g,--,--,17.00,34.00
"Carbohydrate, by difference",g,--,--,28.00,56.00
"Fiber, total dietary",g,--,--,4.0,8.0
"Sugars, total",g,--,--,25.00,50.00
Minerals
"Calcium, Ca",mg,--,--,0,0
"Iron, Fe",mg,--,--,6.30,12.60
"Sodium, Na",mg,--,--,0,0
Vitamins
"Vitamin C, total ascorbic acid",mg,--,--,0.0,0.0
"Vitamin A, IU",IU,--,--,0,0
Lipids
"Fatty acids, total saturated",g,--,--,10.000,20.000
"Fatty acids, total trans",g,--,--,0.000,0.000
"Cholesterol",mg,--,--,5,10
Amino Acids
Other
Ingredients
"CHOCOLATE LIQUOR, SUGAR, COCOA BUTTER, BUTTER OIL, SOY LECITHIN, NATURAL VANILLA FLAVOR." Date available: 07/14/2017 Date last updated by company: 07/14/2017
