Source: USDA Branded Food Products Database Release December 2017 Software v.3.8.6.4 2017-10-02
Report Run at: December 19, 2017 07:01 EST
"Nutrient data for: 45078604, DESSERT TOPPING, UPC: 011110742902"
Food Group:  Branded Food Products Database
Common Name:

Nutrient,Unit,Data points,Std. Error,"2.0 Tbsp = 41.0g",1Value per 100 g,
Proximates
"Energy",kcal,--,--,110,268
"Protein",g,--,--,1.00,2.44
"Total lipid (fat)",g,--,--,0.00,0.00
"Carbohydrate, by difference",g,--,--,28.00,68.29
"Fiber, total dietary",g,--,--,0.0,0.0
"Sugars, total",g,--,--,14.00,34.15
Minerals
"Calcium, Ca",mg,--,--,20,49
"Iron, Fe",mg,--,--,0.00,0.00
"Sodium, Na",mg,--,--,115,280
Vitamins
"Vitamin C, total ascorbic acid",mg,--,--,0.0,0.0
"Vitamin A, IU",IU,--,--,0,0
Lipids
"Fatty acids, total saturated",g,--,--,0.000,0.000
"Fatty acids, total trans",g,--,--,0.000,0.000
"Cholesterol",mg,--,--,0,0
Amino Acids
Other
Ingredients
"CORN SYRUP, SWEETENED CONDENSED MILK (SUGAR, WATER, NONFAT MILK SOLIDS), HIGH FRUCTOSE CORN SYRUP, WATER, DISODIUM PHOSPHATE, SALT, NATURAL AND ARTIFICIAL FLAVOR, CARAMEL COLOR." Date available: 07/14/2017 Date last updated by company: 07/14/2017
