Source: USDA Branded Food Products Database Release December 2017 Software v.3.8.6.4 2017-10-02
Report Run at: December 19, 2017 07:02 EST
"Nutrient data for: 45172520, DETROIT CITY NUT CO, ULTIMATE PARTY MIX, UPC: 019962016950"
Food Group:  Branded Food Products Database
Common Name:

Nutrient,Unit,Data points,Std. Error,"1.4 ONZ = 40.0g",1Value per 100 g,
Proximates
"Energy",kcal,--,--,230,575
"Protein",g,--,--,8.00,20.00
"Total lipid (fat)",g,--,--,19.00,47.50
"Carbohydrate, by difference",g,--,--,10.00,25.00
"Fiber, total dietary",g,--,--,3.0,7.5
"Sugars, total",g,--,--,3.00,7.50
Minerals
"Calcium, Ca",mg,--,--,20,50
"Iron, Fe",mg,--,--,1.35,3.38
"Sodium, Na",mg,--,--,130,325
Vitamins
"Vitamin C, total ascorbic acid",mg,--,--,0.0,0.0
"Vitamin A, IU",IU,--,--,0,0
Lipids
"Fatty acids, total saturated",g,--,--,2.500,6.250
"Fatty acids, total trans",g,--,--,0.000,0.000
"Cholesterol",mg,--,--,0,0
Amino Acids
Other
Ingredients
"CAJUN PARTY - SESAME STICKS (UNBLEACHED), WHEAT FLOUR, SOYBEAN OIL, SESAME SEEDS, BULUR WHEAT, SALT, SPICES (PAPRIKA), DEHYDRATED ONION, TORULA YEAST, GREEN BELL PEPPERS, GARLIC, COCOA POWDER (PROCESSED WITH ALKALI), OLEORESIN PAPRIKA, BEET POWDER. GRAND SLAM - SEEDLESS RAISINS, CONFECTIONARY COATING (SUGAR, PARTIALLY HYDROGENATED PALM KERNAL OIL, COCOA POWDER, WHEY POWDER, NONFAT MILK POWDER, SOY, LECITHIN AND VANILLIN, SUGAR COLORING (INCLUDES BLUE 1&2 LAKE, RED 40 LAKE, YELLOW 5&6 LAKE, BLUE 1, GUM ARABIC, CORN SYRUP AND CONFECTIONERS GLAZE (CARNAUBA WAX, BEESWAX, SHELLAC), OIL, ROASTED PEANUTS, OIL, ROASTED ALMONDS, SALT, SUGAR, CHOCOLATE LIQUOR, COCOA BUTTER, DEXTROSSE, SOY LECITHIN, AND VANILLIN. ROASTED TRAIL MIX - MAY CONTAIN ONE OR MORE OF THE FOLLOWING: ((RAISINS, PEANUTS, SUNFLOWER MEATS, CASHEWS, PEPITAS, ALMONDS), LOW LINOLENIC SOYBEAN OIL AND/OR SUNFLOWER OIL, CITRIC ACID, SALT." Date available: 09/27/2017 Date last updated by company: 09/27/2017
