Source: USDA Branded Food Products Database Release December 2017 Software v.3.8.6.4 2017-10-02
Report Run at: December 19, 2017 07:02 EST
"Nutrient data for: 45266232, DETROIT STYLE PIZZA, UPC: 071921942038"
Food Group:  Branded Food Products Database
Common Name:

Nutrient,Unit,Data points,Std. Error,"0.2 PIZZA = 151.0g",1Value per 100 g,
Proximates
"Energy",kcal,--,--,470,311
"Protein",g,--,--,19.00,12.58
"Total lipid (fat)",g,--,--,27.00,17.88
"Carbohydrate, by difference",g,--,--,38.01,25.17
"Fiber, total dietary",g,--,--,2.0,1.3
"Sugars, total",g,--,--,3.00,1.99
Minerals
"Calcium, Ca",mg,--,--,350,232
"Iron, Fe",mg,--,--,3.49,2.31
"Sodium, Na",mg,--,--,599,397
Vitamins
"Vitamin C, total ascorbic acid",mg,--,--,4.7,3.1
"Vitamin A, IU",IU,--,--,968,641
Lipids
"Fatty acids, total saturated",g,--,--,9.996,6.620
"Fatty acids, total trans",g,--,--,0.498,0.330
"Cholesterol",mg,--,--,45,30
Amino Acids
Other
Ingredients
"CRUST (ENRICHED FLOUR [WHEAT FLOUR, NIACIN, REDUCED IRON, THIAMINE MONONITRATE, RIBOFLAVIN, FOLIC ACID], WATER, CORN OIL, VITAL WHEAT GLUTEN, YEAST, NATURAL FLAVOR,SUGAR, SALT, NON-FAT DRY MILK, ENZYMES, ASCORBIC ACID), SAUCE (WATER, TOMATO PASTE, BASIL SUGAR, SEA SALT, GARLIC BLACK PEPPER, CAYENNE PEPPER), BRICK CHEESE (CULTURED PASTEURIZED MILK, SALT, ENZYMES), WHITE CHEDDAR CHEESE (PASTEURIZED MILK CHEESE CULTURES, SALT, ENZYMES), SMOKED FONTINA CHEESE (PASTEURIZED MILK, CHEESE. CULTURES, SALT, NATURAL SMOKE FLAVOR, ENZYMES), DRIED GARLIC, BASIL." Date available: 07/14/2017 Date last updated by company: 07/14/2017
