Source: USDA Branded Food Products Database Release December 2017 Software v.3.8.6.4 2017-10-02
Report Run at: December 19, 2017 07:04 EST
"Nutrient data for: 45118889, DEW FRESH, NH MARGARINE, UPC: 078684737758"
Food Group:  Branded Food Products Database
Common Name:

Nutrient,Unit,Data points,Std. Error,"1 Tbsp = 14.0g",1Value per 100 g,
Proximates
"Energy",kcal,--,--,100,714
"Protein",g,--,--,0.00,0.00
"Total lipid (fat)",g,--,--,11.00,78.57
"Carbohydrate, by difference",g,--,--,0.00,0.00
"Fiber, total dietary",g,--,--,0.0,0.0
"Sugars, total",g,--,--,0.00,0.00
Minerals
"Sodium, Na",mg,--,--,110,786
Vitamins
"Vitamin A, IU",IU,--,--,466,3329
Lipids
"Fatty acids, total saturated",g,--,--,4.000,28.570
"Fatty acids, total trans",g,--,--,0.000,0.000
"Cholesterol",mg,--,--,0,0
Amino Acids
Other
Ingredients
"VEGETABLE OIL BLEND (SOYBEAN OIL, PALM OIL, PALM KERNEL OIL), WATER SALT, SOYBEAN LECITHIN (SOY) AND VEGETABLE MONO & DIGLYCERIDES, POTASSIUM SORBATE AND CITRIC ACID ADDED AS PRESERVATIVES, COLORED WITH BETA CAROTENE, ARTIFICIAL BUTTER FLAVOR, VITAMIN A PALMITATE ADDED." Date available: 06/25/2017 Date last updated by company: 06/25/2017
