Source: USDA Branded Food Products Database Release December 2017 Software v.3.8.6.4 2017-10-02
Report Run at: December 19, 2017 07:06 EST
"Nutrient data for: 45187500, DIABLO POPS, CAYENNE ICE POPS, PASSION FRUIT, UPC: 748252270580"
Food Group:  Branded Food Products Database
Common Name:

Nutrient,Unit,Data points,Std. Error,"1 BAR = 78.0g",1Value per 100 g,
Proximates
"Energy",kcal,--,--,15,19
"Protein",g,--,--,0.00,0.00
"Total lipid (fat)",g,--,--,0.00,0.00
"Carbohydrate, by difference",g,--,--,3.00,3.85
"Fiber, total dietary",g,--,--,0.0,0.0
"Sugars, total",g,--,--,3.00,3.85
Minerals
"Calcium, Ca",mg,--,--,0,0
"Iron, Fe",mg,--,--,0.00,0.00
"Sodium, Na",mg,--,--,480,615
Vitamins
"Vitamin C, total ascorbic acid",mg,--,--,0.0,0.0
"Vitamin A, IU",IU,--,--,0,0
Lipids
"Fatty acids, total saturated",g,--,--,0.000,0.000
"Fatty acids, total trans",g,--,--,0.000,0.000
"Cholesterol",mg,--,--,0,0
Amino Acids
Other
Ingredients
"FILTERED WATER, ORGANIC LIME JUICE, CANE SUGAR, PASSION FRUIT PUREE, SALT, VINEGAR, RED PEPPER, GUAR & XANTHAM GUM (NATURAL STABILIZERS)." Date available: 09/05/2017 Date last updated by company: 09/05/2017
