Source: USDA Branded Food Products Database Release December 2017 Software v.3.8.6.4 2017-10-02
Report Run at: December 17, 2017 00:07 EST
"Nutrient data for: 45058828, DICED TOMATOES WITH CHILI SEASONINGS IN SAUCE, UPC: 023000931358"
Food Group:  Branded Food Products Database
Common Name:

Nutrient,Unit,Data points,Std. Error,"0.5 cup = 121.0g",1Value per 100 g,
Proximates
"Energy",kcal,--,--,35,29
"Protein",g,--,--,1.00,0.83
"Total lipid (fat)",g,--,--,0.00,0.00
"Carbohydrate, by difference",g,--,--,7.01,5.79
"Fiber, total dietary",g,--,--,1.0,0.8
"Sugars, total",g,--,--,4.01,3.31
Minerals
"Calcium, Ca",mg,--,--,40,33
"Iron, Fe",mg,--,--,0.77,0.64
"Sodium, Na",mg,--,--,460,380
Vitamins
"Vitamin C, total ascorbic acid",mg,--,--,0.0,0.0
"Vitamin A, IU",IU,--,--,806,666
Lipids
"Fatty acids, total saturated",g,--,--,0.000,0.000
"Fatty acids, total trans",g,--,--,0.000,0.000
"Cholesterol",mg,--,--,0,0
Amino Acids
Other
Ingredients
"TOMATOES, TOMATO JUICE, SUGAR, DICED ONIONS, SALT, NATURAL FLAVOR, SPICES, CALCIUM CHLORIDE AS A FIRMING AGENT AND CITRIC ACID." Date available: 06/24/2017 Date last updated by company: 06/24/2017
