Source: USDA Branded Food Products Database Release December 2017 Software v.3.8.6.4 2017-10-02
Report Run at: December 17, 2017 00:06 EST
"Nutrient data for: 45280480, DICED TOMATOES, UPC: 04131802119"
Food Group:  Branded Food Products Database
Common Name:

Nutrient,Unit,Data points,Std. Error,"0.5 cup = 212.0g",1Value per 100 g,
Proximates
"Energy",kcal,--,--,25,12
"Protein",g,--,--,1.00,0.47
"Total lipid (fat)",g,--,--,0.00,0.00
"Carbohydrate, by difference",g,--,--,5.00,2.36
"Fiber, total dietary",g,--,--,1.1,0.5
"Sugars, total",g,--,--,3.01,1.42
Minerals
"Calcium, Ca",mg,--,--,40,19
"Iron, Fe",mg,--,--,0.21,0.10
"Potassium, K",mg,--,--,229,108
"Sodium, Na",mg,--,--,15,7
Vitamins
"Vitamin C, total ascorbic acid",mg,--,--,5.5,2.6
"Vitamin A, IU",IU,--,--,307,145
Lipids
"Fatty acids, total saturated",g,--,--,0.000,0.000
"Fatty acids, total trans",g,--,--,0.000,0.000
"Cholesterol",mg,--,--,0,0
Amino Acids
Other
Ingredients
"TOMATOES, TOMATO JUICE, LESS THAN 2% OF: CALCIUM CHLORIDE, CITRIC ACID." Date available: 07/14/2017 Date last updated by company: 07/14/2017
