Source: USDA Branded Food Products Database Release December 2017 Software v.3.8.6.4 2017-10-02
Report Run at: December 17, 2017 00:12 EST
"Nutrient data for: 45172644, DIERBERGS KITCHEN, GUACAMOLE, UPC: 023933930831"
Food Group:  Branded Food Products Database
Common Name:

Nutrient,Unit,Data points,Std. Error,"1 ONZ = 28.0g",1Value per 100 g,
Proximates
"Energy",kcal,--,--,28,100
"Protein",g,--,--,4.00,14.29
"Total lipid (fat)",g,--,--,2.10,7.50
"Carbohydrate, by difference",g,--,--,2.40,8.57
"Fiber, total dietary",g,--,--,1.1,3.9
"Sugars, total",g,--,--,9.00,32.14
Minerals
"Calcium, Ca",mg,--,--,0,0
"Iron, Fe",mg,--,--,0.18,0.64
"Sodium, Na",mg,--,--,67,238
Vitamins
"Vitamin C, total ascorbic acid",mg,--,--,10.8,38.6
"Vitamin A, IU",IU,--,--,150,536
Lipids
"Fatty acids, total saturated",g,--,--,2.999,10.710
"Cholesterol",mg,--,--,0,0
Amino Acids
Other
Ingredients
"GUACAMOLE (AVOCADO, LIME JUICE, WATER, TACO SEASONING (INCLUDES CHILI POWDER, SALT, GARLIC, AND PAPRIKA), VINEGAR), SALSA (FIRE RSTD TOMATO, RED BELL PEPPER, YELLOW BELL PEPPER, ONION, JALAPENO, POBLANO, RED WINE VINEGAR, SUGAR, LIME JUICE CONC., CHIPOTLE PEPPERS, VINEGAR, SPICE, SALT)." Date available: 11/02/2016 Date last updated by company: 11/02/2016
