Source: USDA Branded Food Products Database Release December 2017 Software v.3.8.6.4 2017-10-02
Report Run at: December 17, 2017 00:14 EST
"Nutrient data for: 45150051, DIERBERGS, ORGANIC SUNFLOWER SEEDS, UPC: 829364001665"
Food Group:  Branded Food Products Database
Common Name:

Nutrient,Unit,Data points,Std. Error,"4.0 cup = 38.0g",1Value per 100 g,
Proximates
"Energy",kcal,--,--,210,553
"Protein",g,--,--,8.00,21.05
"Total lipid (fat)",g,--,--,18.00,47.37
"Carbohydrate, by difference",g,--,--,7.00,18.42
"Sugars, total",g,--,--,1.00,2.63
Minerals
"Calcium, Ca",mg,--,--,40,105
"Iron, Fe",mg,--,--,3.55,9.35
"Sodium, Na",mg,--,--,0,0
Vitamins
"Vitamin C, total ascorbic acid",mg,--,--,0.0,0.0
"Vitamin A, IU",IU,--,--,0,0
Lipids
"Fatty acids, total saturated",g,--,--,1.999,5.260
"Fatty acids, total trans",g,--,--,0.000,0.000
"Cholesterol",mg,--,--,0,0
Amino Acids
Other
Ingredients
"ORGANICALLY GROWN SUNFLOWER SEEDS." Date available: 07/14/2017 Date last updated by company: 07/14/2017
