Source: USDA Branded Food Products Database Release December 2017 Software v.3.8.6.4 2017-10-02
Report Run at: December 17, 2017 00:12 EST
"Nutrient data for: 45172622, DIERBERGS KITCHEN, GARLIC LOVER'S HUMMUS, UPC: 023933930626"
Food Group:  Branded Food Products Database
Common Name:

Nutrient,Unit,Data points,Std. Error,"1 ONZ = 28.0g",1Value per 100 g,
Proximates
"Energy",kcal,--,--,144,514
"Protein",g,--,--,1.10,3.93
"Total lipid (fat)",g,--,--,6.50,23.21
"Carbohydrate, by difference",g,--,--,10.90,38.93
"Fiber, total dietary",g,--,--,0.9,3.2
"Sugars, total",g,--,--,1.10,3.93
Minerals
"Calcium, Ca",mg,--,--,10,36
"Iron, Fe",mg,--,--,0.36,1.29
"Sodium, Na",mg,--,--,149,532
Vitamins
"Vitamin C, total ascorbic acid",mg,--,--,1.2,4.3
"Vitamin A, IU",IU,--,--,0,0
Lipids
"Fatty acids, total saturated",g,--,--,0.300,1.070
"Cholesterol",mg,--,--,0,0
Amino Acids
Other
Ingredients
"GARBANZO BEANS, OLIVE OIL, GARLIC, SEASONING, SPICE, POTASSIUM SORBATE." Date available: 07/14/2017 Date last updated by company: 07/14/2017
