Source: USDA Branded Food Products Database Release December 2017 Software v.3.8.6.4 2017-10-02
Report Run at: December 17, 2017 00:14 EST
"Nutrient data for: 45328069, DIERBERGS, PARTY MIX, UPC: 829364012296"
Food Group:  Branded Food Products Database
Common Name:

Nutrient,Unit,Data points,Std. Error,"0.33 cup = 30.0g",1Value per 100 g,
Proximates
"Energy",kcal,--,--,150,500
"Protein",g,--,--,4.00,13.33
"Total lipid (fat)",g,--,--,8.00,26.67
"Carbohydrate, by difference",g,--,--,17.00,56.67
"Fiber, total dietary",g,--,--,1.0,3.3
"Sugars, total",g,--,--,0.00,0.00
Minerals
"Calcium, Ca",mg,--,--,20,67
"Iron, Fe",mg,--,--,1.20,4.00
"Sodium, Na",mg,--,--,270,900
Vitamins
"Vitamin C, total ascorbic acid",mg,--,--,1.0,3.3
"Vitamin A, IU",IU,--,--,83,278
Lipids
"Fatty acids, total saturated",g,--,--,0.999,3.330
"Fatty acids, total trans",g,--,--,0.000,0.000
"Cholesterol",mg,--,--,0,0
Amino Acids
Other
Ingredients
"TACO SESAME STICKS ( UNBLEACHED WHEAT FLOWER [ CONTAINS MALTED BARLEY FLOWER AS A NATURAL ENZYME ADDITIVE ] , WATER , CANOLA OIL SESAME SEEDS BULGER WHEAT , TACO SEASONING [ SPICES , SALT , ONION POWDER , GARLIC POWDER , MALTODEXTRIN , CORN FLOUR , SPICE EXTRACTIVES INCLUDING PAPRIKA , SOYBEAN OIL , LESS THAN 2% OF SILICON DIOXIDE ADDED AS AN ANTI-CAKING AGENT ] , BEET POWDER , TUMERIC ) , PRETZEL STICKLETS ( SOFT RED WINTER WHEAT FLOUR , SALT , SUNFLOWER OR CANOLA OR RICE OIL , CORN SYRUP , MALT SYRUP , YEAST ) , CAJUN CORN STICKS ( YELLOW CORN MASA , SOYBEAN OIL , CAJUN SEASONING [ SPICES , CORN FLOUR , SALT ONION POWDER , POTATO FLOUR , TOMATO POWDER , NATURAL FLAVORINGS , GARLIC POWDER , GREEN BELL PEPPER POWDER , EXRACTIVES OF PAPRIKA AND OTHER SPICES , CITRIC ACID ] , SALT ) , PEANUTS ( CANOLA OIL , SALT ) ." Date available: 10/13/2017 Date last updated by company: 10/13/2017
