Source: USDA Branded Food Products Database Release December 2017 Software v.3.8.6.4 2017-10-02
Report Run at: December 17, 2017 00:10 EST
"Nutrient data for: 45150060, DIERBERGS, CHOCOLATE BLUEBERRIES, UPC: 829364002846"
Food Group:  Branded Food Products Database
Common Name:

Nutrient,Unit,Data points,Std. Error,"1.4 ONZ = 40.0g",1Value per 100 g,
Proximates
"Energy",kcal,--,--,200,500
"Protein",g,--,--,2.00,5.00
"Total lipid (fat)",g,--,--,11.00,27.50
"Carbohydrate, by difference",g,--,--,26.00,65.00
"Sugars, total",g,--,--,18.00,45.00
Minerals
"Calcium, Ca",mg,--,--,40,100
"Iron, Fe",mg,--,--,0.90,2.25
"Sodium, Na",mg,--,--,25,62
Vitamins
"Vitamin C, total ascorbic acid",mg,--,--,7.5,18.8
"Vitamin A, IU",IU,--,--,125,312
Lipids
"Fatty acids, total saturated",g,--,--,7.000,17.500
"Fatty acids, total trans",g,--,--,0.000,0.000
"Cholesterol",mg,--,--,5,12
Amino Acids
Other
Ingredients
"MILK CHOCOLATE (SUGAR, COCOA BUTTER, CHOCOLATE LIQUOR, WHOLE MILK POWDER, SOY LECITHIN- AN EMULSIFIER, NATURAL VANILLA FLAVOR), WHITE CHOCOLATE (SUGAR, COCOA BUTTER, WHOLE MILK POWDER, SOY LECITHIN -AN EMULSIFIER, NATURAL VANILLA FLAVOR), DRIED BLUEBERRIES (BLUEBERRIES, SUGAR, SUNFLOWER OIL), TAPIOCA DEXTRIN, ARTIFICIAL COLOR (RED 3, BLUE 2 LAKE, RED 40 LAKE, YELLOW 6 LAKE), CONFECTIONER'S GLAZE, NATURAL & ARTIFICIAL FLAVOR." Date available: 07/14/2017 Date last updated by company: 07/14/2017
