Source: USDA Branded Food Products Database Release December 2017 Software v.3.8.6.4 2017-10-02
Report Run at: December 17, 2017 00:10 EST
"Nutrient data for: 45154105, DIERBERGS, BIG EASY MIX, UPC: 829364012203"
Food Group:  Branded Food Products Database
Common Name:

Nutrient,Unit,Data points,Std. Error,"0.33 cup = 30.0g",1Value per 100 g,
Proximates
"Energy",kcal,--,--,160,533
"Protein",g,--,--,3.00,10.00
"Total lipid (fat)",g,--,--,8.00,26.67
"Carbohydrate, by difference",g,--,--,18.00,60.00
"Fiber, total dietary",g,--,--,1.0,3.3
"Sugars, total",g,--,--,0.00,0.00
Minerals
"Calcium, Ca",mg,--,--,20,67
"Iron, Fe",mg,--,--,0.60,2.00
"Sodium, Na",mg,--,--,240,800
Vitamins
"Vitamin C, total ascorbic acid",mg,--,--,0.0,0.0
"Vitamin A, IU",IU,--,--,0,0
Lipids
"Fatty acids, total saturated",g,--,--,0.999,3.330
"Fatty acids, total trans",g,--,--,0.000,0.000
"Cholesterol",mg,--,--,0,0
Amino Acids
Other
Ingredients
"SESAME STICKS (UNBLEACHED WHEAT FLOUR [CONTAINS MALTED BARLEY FLOUR AS A NATURAL ENZYME ADDITIVE], WATER, CANOLA OIL, SESAME SEEDS, BULGAR WHEAT, SALT, BEET POWDER, TURMERIC), HOT CAJUN CORN STICKS (YELLOW CORN MASA, SOYBEAN OIL, CAJUN SEASONING [SPICES, CORN FLOUR, SALT, ONION POWDER, POTATO FLOUR, TOMATO POWDER, NATURAL FLAVORINGS, GARLIC POWDER, GREEN BELL PEPER POWDER, EXTRACTIVES OF PAPRIKA COLOR, AND OTHER SPICES, CITRIC ACID], SALT), PRETZEL (SOFT RED WINTER WHEAT FLOUR, SALT, SUNFLOWER OR CANOLA OR RICE OIL, CORN SYRUP, MALT SYRUP, YEAST), PEANUTS (PEANUTS, CANOLA OIL, SALT)." Date available: 07/14/2017 Date last updated by company: 07/14/2017
