Source: USDA Branded Food Products Database Release December 2017 Software v.3.8.6.4 2017-10-02
Report Run at: December 17, 2017 00:20 EST
"Nutrient data for: 45137309, DIET DOC 360, SODA, UPC: 028435388111"
Food Group:  Branded Food Products Database
Common Name:

Nutrient,Unit,Data points,Std. Error,"1 CAN = 355.0g",1Value per 100 g,
Proximates
"Energy",kcal,--,--,0,0
"Protein",g,--,--,0.00,0.00
"Total lipid (fat)",g,--,--,0.00,0.00
"Carbohydrate, by difference",g,--,--,0.00,0.00
"Sugars, total",g,--,--,0.00,0.00
Minerals
"Sodium, Na",mg,--,--,53,15
Vitamins
Lipids
Amino Acids
Other
Ingredients
"CARBONATED WATER, CARAMEL COLOR, NATURAL & ARTIFICIAL FLAVORS, PHOSPHORIC ACID, ASPARTAME, SODIUM BENZOATE (AS A PRESERVATIVE), CAFFEINE AND ACESULFAME POTASSIUM." Date available: 07/14/2017 Date last updated by company: 07/14/2017
