Source: USDA Branded Food Products Database Release December 2017 Software v.3.8.6.4 2017-10-02
Report Run at: December 17, 2017 00:26 EST
"Nutrient data for: 45234057, DIETZ & WATSON, HOAGIE DRESSING, UPC: 031506938122"
Food Group:  Branded Food Products Database
Common Name:

Nutrient,Unit,Data points,Std. Error,"1 Tbsp = 15.0g",1Value per 100 g,
Proximates
"Energy",kcal,--,--,90,600
"Protein",g,--,--,0.00,0.00
"Total lipid (fat)",g,--,--,9.00,60.00
"Carbohydrate, by difference",g,--,--,1.00,6.67
Minerals
"Sodium, Na",mg,--,--,80,533
Vitamins
Lipids
"Fatty acids, total saturated",g,--,--,1.000,6.670
"Fatty acids, total trans",g,--,--,0.000,0.000
"Cholesterol",mg,--,--,0,0
Amino Acids
Other
Ingredients
"CANOLA OIL, RED WINE VINEGAR, EXTRA VIRGIN OLIVE OIL, SALT, SUGAR, OREGANO, BASIL, MUSTARD POWDER, BLACK PEPPER" Date available: 07/14/2017 Date last updated by company: 07/14/2017
