Source: USDA Branded Food Products Database Release December 2017 Software v.3.8.6.4 2017-10-02
Report Run at: December 17, 2017 00:24 EST
"Nutrient data for: 45325453, DIET SPARKLING FLAVORED SODA, UPC: 012000151873"
Food Group:  Branded Food Products Database
Common Name:

Nutrient,Unit,Data points,Std. Error,"12.0 OZA = 355.0g",1Value per 100 g,
Proximates
"Energy",kcal,--,--,0,0
"Protein",g,--,--,0.00,0.00
"Total lipid (fat)",g,--,--,0.00,0.00
"Carbohydrate, by difference",g,--,--,0.00,0.00
"Sugars, total",g,--,--,0.00,0.00
Minerals
"Sodium, Na",mg,--,--,85,24
Vitamins
Lipids
Amino Acids
Other
Ingredients
"CARBONATED WATER, NATURAL FLAVOR, CITRIC ACID, TARTARIC ACID, MALIC ACID, SODIUM CITRATE, ASPARTAME, SODIUM BENZOATE (PRESERVES FRESHNESS), ACESULFAME POTASSIUM, RED 40, CALCIUM DISODIUM EDTA (TO PROTECT FLAVOR), BLUE 1." Date available: 08/11/2017 Date last updated by company: 08/11/2017
