Source: USDA Branded Food Products Database Release December 2017 Software v.3.8.6.4 2017-10-02
Report Run at: December 17, 2017 00:23 EST
"Nutrient data for: 45137227, DIET SODA, UPC: 02114061492"
Food Group:  Branded Food Products Database
Common Name:

Nutrient,Unit,Data points,Std. Error,"1 CAN = 355.0g",1Value per 100 g,
Proximates
"Energy",kcal,--,--,0,0
"Protein",g,--,--,0.00,0.00
"Total lipid (fat)",g,--,--,0.00,0.00
"Carbohydrate, by difference",g,--,--,0.00,0.00
"Sugars, total",g,--,--,0.00,0.00
Minerals
"Sodium, Na",mg,--,--,14,4
Vitamins
Lipids
Amino Acids
Other
Ingredients
"CARBONATED WATER, CITRIC ACID, NATURAL FLAVORS, AS ASPARTAME* POTASSIUM BENZOATE (PRESERVATIVE), CARAMEL COLOR, ACESULFAME POTASSIUM." Date available: 07/14/2017 Date last updated by company: 07/14/2017
