Source: USDA Branded Food Products Database Release December 2017 Software v.3.8.6.4 2017-10-02
Report Run at: December 17, 2017 00:23 EST
"Nutrient data for: 45228192, DIET SODA, UPC: 041331042222"
Food Group:  Branded Food Products Database
Common Name:

Nutrient,Unit,Data points,Std. Error,"8.0 OZA = 240.0g",1Value per 100 g,
Proximates
"Energy",kcal,--,--,0,0
"Protein",g,--,--,0.00,0.00
"Total lipid (fat)",g,--,--,0.00,0.00
"Carbohydrate, by difference",g,--,--,0.00,0.00
"Sugars, total",g,--,--,0.00,0.00
Minerals
"Potassium, K",mg,--,--,106,44
"Sodium, Na",mg,--,--,41,17
Vitamins
Lipids
Amino Acids
Other
Ingredients
"CARBONATED WATER, ARTIFICIAL FLAVOR, POTASSIUM CHLORIDE, ASPARTAME, POTASSIUM BENZOATE (PRESERVATIVE), SODIUM CHLORIDE, CITRIC ACID, ACESULFAME POTASSIUM, SODIUM CITRATE." Date available: 07/14/2017 Date last updated by company: 07/14/2017
