Source: USDA Branded Food Products Database Release December 2017 Software v.3.8.6.4 2017-10-02
Report Run at: December 17, 2017 00:37 EST
"Nutrient data for: 45260263, DINNER ROLLS & FOCACCIA PIZZA CRUST MIX, UPC: 093709301509"
Food Group:  Branded Food Products Database
Common Name:

Nutrient,Unit,Data points,Std. Error,"0.25 TH PIZZA CRUST PREPARED*** = 40.0g",1Value per 100 g,
Proximates
"Energy",kcal,--,--,140,350
"Protein",g,--,--,1.00,2.50
"Total lipid (fat)",g,--,--,1.00,2.50
"Carbohydrate, by difference",g,--,--,32.00,80.00
"Fiber, total dietary",g,--,--,2.0,5.0
"Sugars, total",g,--,--,2.00,5.00
Minerals
"Calcium, Ca",mg,--,--,0,0
"Iron, Fe",mg,--,--,1.26,3.15
"Sodium, Na",mg,--,--,360,900
Vitamins
"Vitamin C, total ascorbic acid",mg,--,--,0.0,0.0
"Vitamin A, IU",IU,--,--,0,0
Lipids
"Fatty acids, total saturated",g,--,--,0.000,0.000
"Fatty acids, total trans",g,--,--,0.000,0.000
"Cholesterol",mg,--,--,0,0
Amino Acids
Other
Ingredients
"BROWN RICE FLOUR, TAPIOCA STARCH, WHITE RICE FLOUR, POTATO STARCH, SORGHUM FLOUR, EVAPORATED CANE SUGAR, ARROWROOT STARCH, SEA SALT, GUAR GUM, YEAST PACKET (7G) INCLUDED." Date available: 07/14/2017 Date last updated by company: 07/14/2017
