Source: USDA Branded Food Products Database Release December 2017 Software v.3.8.6.4 2017-10-02
Report Run at: December 17, 2017 00:38 EST
"Nutrient data for: 45009180, DINOSAUR BAR-B-QUE, BAR-B-QUE SAUCE, ROASTED GARLIC HONEY, UPC: 856504003043"
Food Group:  Branded Food Products Database
Common Name:

Nutrient,Unit,Data points,Std. Error,"2.0 Tbsp = 30.0g",1Value per 100 g,
Proximates
"Energy",kcal,--,--,30,100
"Protein",g,--,--,0.00,0.00
"Total lipid (fat)",g,--,--,0.00,0.00
"Carbohydrate, by difference",g,--,--,8.00,26.67
"Fiber, total dietary",g,--,--,0.0,0.0
"Sugars, total",g,--,--,7.00,23.33
Minerals
"Calcium, Ca",mg,--,--,0,0
"Iron, Fe",mg,--,--,0.00,0.00
"Sodium, Na",mg,--,--,160,533
Vitamins
"Vitamin C, total ascorbic acid",mg,--,--,2.0,6.8
"Vitamin A, IU",IU,--,--,0,0
Lipids
"Fatty acids, total saturated",g,--,--,0.000,0.000
"Fatty acids, total trans",g,--,--,0.000,0.000
"Cholesterol",mg,--,--,0,0
Amino Acids
Other
Ingredients
"CRUSHED TOMATOES (WATER, CONCENTRATED CRUSHED TOMATOES), BROWN SUGAR, VINEGAR, BROWN MUSTARD, SALT, MOLASSES, ROASTED GARLIC, HONEY, ONIONS, LEMON PEPPER SEASONING, XANTHAN GUM, GREEN BELL PEPPER, DARK CHILI POWDER, LIQUID SMOKE, GROUND CLOVES, PEPPER, CAYENNE PEPPER, CRUSHED RED PEPPER, GINGER." Date available: 06/24/2017 Date last updated by company: 06/24/2017
