Source: USDA Branded Food Products Database Release December 2017 Software v.3.8.6.4 2017-10-02
Report Run at: December 17, 2017 00:46 EST
"Nutrient data for: 45107199, DIRTY RICE WITH BEEF & PORK, UPC: 071429002050"
Food Group:  Branded Food Products Database
Common Name:

Nutrient,Unit,Data points,Std. Error,"1 BOWL = 283.0g",1Value per 100 g,
Proximates
"Energy",kcal,--,--,430,152
"Protein",g,--,--,12.99,4.59
"Total lipid (fat)",g,--,--,12.99,4.59
"Carbohydrate, by difference",g,--,--,63.99,22.61
"Fiber, total dietary",g,--,--,2.0,0.7
"Sugars, total",g,--,--,2.01,0.71
Minerals
"Calcium, Ca",mg,--,--,79,28
"Iron, Fe",mg,--,--,1.25,0.44
"Sodium, Na",mg,--,--,730,258
Vitamins
"Vitamin C, total ascorbic acid",mg,--,--,18.7,6.6
"Vitamin A, IU",IU,--,--,518,183
Lipids
"Fatty acids, total saturated",g,--,--,3.990,1.410
"Fatty acids, total trans",g,--,--,0.000,0.000
"Cholesterol",mg,--,--,25,9
Amino Acids
Other
Ingredients
"COOKED LONG GRAIN RICE, WATER, BEEF, PORK, GREEN BELL PEPPERS, DEHYDRATED MINCED ONIONS, MARGARINE (LIQUID AND HYDROGENATED SOYBEAN OIL, WATER, SALT, VEGETABLE MONO AND DIGLYCERIDES, SOY LECITHIN, NATURAL AND ARTIFICIAL FLAVOR, BHA & BHT ADDED TO PROTECT FLAVOR, VITAMIN A PALMITATE AND VITAMIN D3 ADDED), GREEN ONIONS, MODIFIED CORN STARCH, DEHYDRATED BELL PEPPERS, YEAST EXTRACT, SALT, GRANULATED GARLIC, SPICES, DISODIUM INOSINATE AND DISODIUM GUANYLATE (FLAVOR ENHANCERS), WHEAT GLUTEN, SUGAR, CARAMEL COLOR, PAPRIKA, CHILI POWDER (CHILI PEPPER, SPICES, SALT, GARLIC POWDER), MALTODEXTRIN (FROM CORN) AND NATURAL FLAVOR, SOYBEAN OIL, DEXTROSE." Date available: 09/21/2017 Date last updated by company: 09/21/2017
