Source: USDA Branded Food Products Database Release December 2017 Software v.3.8.6.4 2017-10-02
Report Run at: December 17, 2017 00:47 EST
"Nutrient data for: 45151564, DISNEY FROZEN MILK CHOCOLATE, UPC: 041376505225"
Food Group:  Branded Food Products Database
Common Name:

Nutrient,Unit,Data points,Std. Error,"0.33 PACKAGE = 31.0g",1Value per 100 g,
Proximates
"Energy",kcal,--,--,170,548
"Protein",g,--,--,1.00,3.23
"Total lipid (fat)",g,--,--,9.00,29.03
"Carbohydrate, by difference",g,--,--,22.00,70.97
"Fiber, total dietary",g,--,--,1.0,3.2
"Sugars, total",g,--,--,21.00,67.74
Minerals
"Calcium, Ca",mg,--,--,40,129
"Iron, Fe",mg,--,--,0.58,1.88
"Sodium, Na",mg,--,--,15,48
Vitamins
"Vitamin C, total ascorbic acid",mg,--,--,0.0,0.0
"Vitamin A, IU",IU,--,--,0,0
Lipids
"Fatty acids, total saturated",g,--,--,5.000,16.130
"Fatty acids, total trans",g,--,--,0.000,0.000
"Cholesterol",mg,--,--,5,16
Amino Acids
Other
Ingredients
"SUGAR, COCOA BUTTER, CHOCOLATE LIQUOR, MILK, SOY LECITHIN AND PGPR (EMULSIFIERS), VANILLA, SALT." Date available: 07/14/2017 Date last updated by company: 07/14/2017
