Source: USDA Branded Food Products Database Release December 2017 Software v.3.8.6.4 2017-10-02
Report Run at: December 17, 2017 00:53 EST
"Nutrient data for: 45192877, DITZ ICE CREAM, UPC: 851390005522"
Food Group:  Branded Food Products Database
Common Name:

Nutrient,Unit,Data points,Std. Error,"1 CONTAINER = 83.0g",1Value per 100 g,
Proximates
"Energy",kcal,--,--,150,181
"Protein",g,--,--,2.00,2.41
"Total lipid (fat)",g,--,--,11.00,13.25
"Carbohydrate, by difference",g,--,--,12.00,14.46
"Fiber, total dietary",g,--,--,0.0,0.0
"Sugars, total",g,--,--,9.00,10.84
Minerals
"Calcium, Ca",mg,--,--,80,96
"Iron, Fe",mg,--,--,0.00,0.00
"Sodium, Na",mg,--,--,50,60
Vitamins
"Vitamin C, total ascorbic acid",mg,--,--,0.0,0.0
"Vitamin A, IU",IU,--,--,400,482
Lipids
"Fatty acids, total saturated",g,--,--,6.997,8.430
"Fatty acids, total trans",g,--,--,0.000,0.000
"Cholesterol",mg,--,--,40,48
Amino Acids
Other
Ingredients
"MILKFAT & NONFAT MILK, CORN SYRUP, SUGAR, CONTAINS 2% OR LESS OF CITRIC ACID, NATURAL AND ARTIFICIAL FLAVOR, RED 40, BLUE 1, WATER, TRAGACANTH GUM, MONO & DIGLYCERIDES, CAROB BEAN GUM, CELLULOSE GUM, CARRAGEENAN, SUCRALOSE." Date available: 09/12/2017 Date last updated by company: 09/12/2017
