Source: USDA Branded Food Products Database Release December 2017 Software v.3.8.6.4 2017-10-02
Report Run at: December 17, 2017 00:53 EST
"Nutrient data for: 45040886, DIVINA, DOLMAS, STUFFED GRAPE LEAVES, UPC: 631723006002"
Food Group:  Branded Food Products Database
Common Name:

Nutrient,Unit,Data points,Std. Error,"2.0 PIECES = 60.0g",1Value per 100 g,
Proximates
"Energy",kcal,--,--,80,133
"Protein",g,--,--,1.00,1.67
"Total lipid (fat)",g,--,--,4.00,6.67
"Carbohydrate, by difference",g,--,--,10.00,16.67
"Fiber, total dietary",g,--,--,1.0,1.7
"Sugars, total",g,--,--,1.00,1.67
Minerals
"Calcium, Ca",mg,--,--,20,33
"Iron, Fe",mg,--,--,0.72,1.20
"Sodium, Na",mg,--,--,350,583
Vitamins
"Vitamin C, total ascorbic acid",mg,--,--,3.6,6.0
"Vitamin A, IU",IU,--,--,0,0
Lipids
"Fatty acids, total saturated",g,--,--,0.498,0.830
"Fatty acids, total trans",g,--,--,0.000,0.000
"Cholesterol",mg,--,--,0,0
Amino Acids
Other
Ingredients
"RICE, WATER, VINE LEAVES, SOYBEAN OIL, ONIONS, DILL, SALT, CITRIC ACID (ACIDITY REGULATOR), MINT, BLACK PEPPER." Date available: 09/07/2017 Date last updated by company: 09/07/2017
