Source: USDA Branded Food Products Database Release December 2017 Software v.3.8.6.4 2017-10-02
Report Run at: December 17, 2017 00:56 EST
"Nutrient data for: 45141203, DOBROVA, CHOCOLATE HAZELNUT SPREAD, UPC: 783963004987"
Food Group:  Branded Food Products Database
Common Name:

Nutrient,Unit,Data points,Std. Error,"2.0 Tbsp = 31.0g",1Value per 100 g,
Proximates
"Energy",kcal,--,--,180,581
"Protein",g,--,--,1.00,3.23
"Total lipid (fat)",g,--,--,11.00,35.48
"Carbohydrate, by difference",g,--,--,18.00,58.06
"Fiber, total dietary",g,--,--,1.0,3.2
"Sugars, total",g,--,--,18.00,58.06
Minerals
"Calcium, Ca",mg,--,--,0,0
"Iron, Fe",mg,--,--,0.61,1.96
"Sodium, Na",mg,--,--,20,65
Vitamins
"Vitamin C, total ascorbic acid",mg,--,--,0.0,0.0
"Vitamin A, IU",IU,--,--,0,0
Lipids
"Fatty acids, total saturated",g,--,--,2.499,8.060
"Fatty acids, total trans",g,--,--,0.000,0.000
"Cholesterol",mg,--,--,0,0
Amino Acids
Other
Ingredients
"SUGAR, VEGETABLE OIL (RAPESEED, PALM), HAZELNUTS 6%, FAT REDUCED COCOA, EMULSIFIER: SUNFLOWER LECITHIN, SALT, ARTIFICIAL FLAVOURING." Date available: 07/14/2017 Date last updated by company: 07/14/2017
