Source: USDA Branded Food Products Database Release December 2017 Software v.3.8.6.4 2017-10-02
Report Run at: December 17, 2017 01:29 EST
"Nutrient data for: 45153339, DOCTOR DREAD'S, JERK PEANUTS, UPC: 696859037191"
Food Group:  Branded Food Products Database
Common Name:

Nutrient,Unit,Data points,Std. Error,"1 ONZ = 28.35g",1Value per 100 g,
Proximates
"Energy",kcal,--,--,160,564
"Protein",g,--,--,7.00,24.69
"Total lipid (fat)",g,--,--,11.00,38.80
"Carbohydrate, by difference",g,--,--,8.00,28.22
"Fiber, total dietary",g,--,--,4.0,14.1
"Sugars, total",g,--,--,0.00,0.00
Minerals
"Calcium, Ca",mg,--,--,0,0
"Iron, Fe",mg,--,--,0.00,0.00
"Sodium, Na",mg,--,--,250,882
Vitamins
"Vitamin C, total ascorbic acid",mg,--,--,0.0,0.0
"Vitamin A, IU",IU,--,--,0,0
Lipids
"Fatty acids, total saturated",g,--,--,1.999,7.050
"Fatty acids, total trans",g,--,--,0.000,0.000
"Cholesterol",mg,--,--,0,0
Amino Acids
Other
Ingredients
"UNSALTED VIRGINIA EXTRA LARGE PEANUTS, PEANUT OIL, SALT, ALLSPICE, BROWN SUGAR, PEPPER, GARLIC, ONION, AND SPICE." Date available: 07/14/2017 Date last updated by company: 07/14/2017
