Source: USDA Branded Food Products Database Release December 2017 Software v.3.8.6.4 2017-10-02
Report Run at: December 17, 2017 01:33 EST
"Nutrient data for: 45141402, DOLE, WILDLY NUTRITIOUS, SIGNATURE BLENDS MIXED FRUIT BLEND, UPC: 071202065708"
Food Group:  Branded Food Products Database
Common Name:

Nutrient,Unit,Data points,Std. Error,"1 cup = 140.0g",1Value per 100 g,
Proximates
"Energy",kcal,--,--,70,50
"Protein",g,--,--,0.99,0.71
"Total lipid (fat)",g,--,--,0.00,0.00
"Carbohydrate, by difference",g,--,--,16.00,11.43
"Fiber, total dietary",g,--,--,2.0,1.4
"Sugars, total",g,--,--,11.00,7.86
Minerals
"Calcium, Ca",mg,--,--,0,0
"Iron, Fe",mg,--,--,0.71,0.51
"Potassium, K",mg,--,--,200,143
"Sodium, Na",mg,--,--,0,0
Vitamins
"Vitamin C, total ascorbic acid",mg,--,--,84.0,60.0
"Vitamin A, IU",IU,--,--,400,286
Lipids
"Fatty acids, total saturated",g,--,--,0.000,0.000
"Fatty acids, total trans",g,--,--,0.000,0.000
"Cholesterol",mg,--,--,0,0
Amino Acids
Other
Ingredients
"PINEAPPLE, STRAWBERRIES, PEACHES, MANGO, ASCORBIC AND CITRIC ACIDS (TO PROMOTE COLOR RETENTION), MALIC ACID, AND NATURAL FLAVORS." Date available: 07/14/2017 Date last updated by company: 07/14/2017
