Source: USDA Branded Food Products Database Release December 2017 Software v.3.8.6.4 2017-10-02
Report Run at: December 17, 2017 01:32 EST
"Nutrient data for: 45100482, DOLE, MIXED FRUIT IN CHERRY GEL, UPC: 038900035358"
Food Group:  Branded Food Products Database
Common Name:

Nutrient,Unit,Data points,Std. Error,"1 CONTAINER = 123.0g",1Value per 100 g,
Proximates
"Energy",kcal,--,--,41,33
"Protein",g,--,--,0.00,0.00
"Total lipid (fat)",g,--,--,0.00,0.00
"Carbohydrate, by difference",g,--,--,14.00,11.38
"Fiber, total dietary",g,--,--,1.0,0.8
"Sugars, total",g,--,--,5.01,4.07
Minerals
"Calcium, Ca",mg,--,--,0,0
"Iron, Fe",mg,--,--,0.00,0.00
"Potassium, K",mg,--,--,90,73
"Sodium, Na",mg,--,--,46,37
Vitamins
"Vitamin C, total ascorbic acid",mg,--,--,12.2,9.9
"Vitamin A, IU",IU,--,--,0,0
Lipids
"Fatty acids, total saturated",g,--,--,0.000,0.000
"Fatty acids, total trans",g,--,--,0.000,0.000
"Cholesterol",mg,--,--,0,0
Amino Acids
Other
Ingredients
"WATER, FRUIT (PEACHES, PEARS, PINEAPPLE), MALTITOL, CARRAGEENAN, COCHINEAL EXTRACT (COLOR), LOCUST BEAN GUM, NATURAL AND ARTIFICIAL FLAVORS, FUMARIC ACID, MALTODEXTRIN, SODIUM CITRATE, POTASSIUM CITRATE, ASCORBIC ACID (TO PROMOTE COLOR RETENTION), CARAMEL COLOR, SUCRALOSE, AND MALIC ACID." Date available: 07/14/2017 Date last updated by company: 07/14/2017
