Source: USDA Branded Food Products Database Release December 2017 Software v.3.8.6.4 2017-10-02
Report Run at: December 17, 2017 01:37 EST
"Nutrient data for: 45097816, DON PANCHO, YELLOW CORN TURTILLAS, UPC: 079341016759"
Food Group:  Branded Food Products Database
Common Name:

Nutrient,Unit,Data points,Std. Error,"2.0 TORTILLAS = 52.0g",1Value per 100 g,
Proximates
"Energy",kcal,--,--,110,212
"Protein",g,--,--,2.00,3.85
"Total lipid (fat)",g,--,--,1.50,2.88
"Carbohydrate, by difference",g,--,--,23.00,44.23
"Fiber, total dietary",g,--,--,2.0,3.8
"Sugars, total",g,--,--,1.00,1.92
Minerals
"Calcium, Ca",mg,--,--,20,38
"Sodium, Na",mg,--,--,70,135
Vitamins
"Vitamin C, total ascorbic acid",mg,--,--,0.0,0.0
"Vitamin A, IU",IU,--,--,0,0
Lipids
"Fatty acids, total saturated",g,--,--,0.000,0.000
"Fatty acids, total trans",g,--,--,0.000,0.000
"Cholesterol",mg,--,--,0,0
Amino Acids
Other
Ingredients
"CORN MASA FLOUR GROUND YELLOW CORN MASA FLOUR , GUAR GUM TRACE OF LIME, WATER, DEXTROSE, TO MAINTAIN FRESHNESS (SORBIC ACID, CALCIUM PROPIONATE, ACID, SODIUM PROPIONATE, ENZYMES." Date available: 06/25/2017 Date last updated by company: 06/25/2017
