Source: USDA Branded Food Products Database Release December 2017 Software v.3.8.6.4 2017-10-02
Report Run at: December 17, 2017 01:35 EST
"Nutrient data for: 45004442, DONA LISA, BLACK BEANS, UPC: 823088050046"
Food Group:  Branded Food Products Database
Common Name:

Nutrient,Unit,Data points,Std. Error,"0.25 cup = 36.0g",1Value per 100 g,
Proximates
"Energy",kcal,--,--,50,139
"Protein",g,--,--,8.00,22.22
"Total lipid (fat)",g,--,--,0.00,0.00
"Carbohydrate, by difference",g,--,--,23.00,63.89
"Fiber, total dietary",g,--,--,16.0,44.4
"Sugars, total",g,--,--,1.00,2.78
Minerals
"Calcium, Ca",mg,--,--,60,167
"Iron, Fe",mg,--,--,2.70,7.50
"Sodium, Na",mg,--,--,25,69
Vitamins
"Vitamin C, total ascorbic acid",mg,--,--,0.0,0.0
"Vitamin A, IU",IU,--,--,0,0
Lipids
"Fatty acids, total saturated",g,--,--,0.000,0.000
"Fatty acids, total trans",g,--,--,0.000,0.000
"Cholesterol",mg,--,--,0,0
Amino Acids
Other
Ingredients
"BLACK BEANS" Date available: 09/23/2016 Date last updated by company: 09/23/2016
