Source: USDA Branded Food Products Database Release December 2017 Software v.3.8.6.4 2017-10-02
Report Run at: December 17, 2017 01:36 EST
"Nutrient data for: 45231539, DONAS, SUGARED DONUTS, UPC: 074323091137"
Food Group:  Branded Food Products Database
Common Name:

Nutrient,Unit,Data points,Std. Error,"2.0 PIECES = 55.0g",1Value per 100 g,
Proximates
"Energy",kcal,--,--,240,436
"Protein",g,--,--,3.00,5.45
"Total lipid (fat)",g,--,--,12.00,21.82
"Carbohydrate, by difference",g,--,--,30.00,54.55
"Fiber, total dietary",g,--,--,0.0,0.0
"Sugars, total",g,--,--,14.00,25.45
Minerals
"Calcium, Ca",mg,--,--,100,182
"Iron, Fe",mg,--,--,1.80,3.27
"Sodium, Na",mg,--,--,280,509
Vitamins
"Vitamin C, total ascorbic acid",mg,--,--,0.0,0.0
"Thiamin",mg,--,--,0.000,0.000
"Riboflavin",mg,--,--,0.136,0.247
"Niacin",mg,--,--,1.600,2.909
"Vitamin A, IU",IU,--,--,0,0
Lipids
"Fatty acids, total saturated",g,--,--,6.000,10.910
"Fatty acids, total monounsaturated",g,--,--,3.998,7.270
"Fatty acids, total polyunsaturated",g,--,--,1.502,2.730
"Fatty acids, total trans",g,--,--,0.000,0.000
"Cholesterol",mg,--,--,15,27
Amino Acids
Other
Ingredients
"WHEAT FLOUR, WATER, SUGAR, VEGETABLE SHORTENING (PALM OIL AND PARTIALLY HYDROGENATED SOYBEAN OIL), DEXTROSE, EGG YOLKS, SOY FLOUR, NONFAT MILK, WHEAT STARCH, SODIUM ACID PYROPHOSPHATE, BAKING SODA, SOY PROTEIN ISOLATE, WHEY, SOYBEAN AND/OR COTTONSEED OILS, SOY LECITHIN, SODIUM ALUMINUM PHOSPHATE, SORBIC ACID (PRESERVATIVE), GUAR GUM, NATURAL AND ARTIFICIAL FLAVORS, ARTIFICIAL COLOR (YELLOW 5, YELLOW 6), CRYSTALLINE FRUCTOSE, SODIUM ALUMINUM SULFATE, CALCIUM SULFATE, MONOCALCIUM PHOSPHATE, CALCIUM CARBONATE, MONO & DIGLYCERIDES, CELLULOSE GUM, MALTODEXTRIN, THIAMIN MONONITRATE, RIBOFLAVIN, NIACIN, REDUCED IRON, TBHQ (ANTIOXIDANT), FOLIC ACID, FERROUS SULFATE, ZINC OXIDE." Date available: 06/25/2017 Date last updated by company: 06/25/2017
