Source: USDA Branded Food Products Database Release December 2017 Software v.3.8.6.4 2017-10-02
Report Run at: December 17, 2017 01:39 EST
"Nutrient data for: 45252275, DORITOS, JACKED 3D, TORTILLA SNACKS, BACON CHEDDAR RANCH, UPC: 028400465571"
Food Group:  Branded Food Products Database
Common Name:

Nutrient,Unit,Data points,Std. Error,"13.0 PIECES | ABOUT = 28.0g",1Value per 100 g,
Proximates
"Energy",kcal,--,--,150,536
"Protein",g,--,--,2.00,7.14
"Total lipid (fat)",g,--,--,9.00,32.14
"Carbohydrate, by difference",g,--,--,17.00,60.71
"Fiber, total dietary",g,--,--,1.0,3.6
"Sugars, total",g,--,--,1.00,3.57
Minerals
"Calcium, Ca",mg,--,--,20,71
"Iron, Fe",mg,--,--,0.00,0.00
"Sodium, Na",mg,--,--,200,714
Vitamins
"Vitamin C, total ascorbic acid",mg,--,--,0.0,0.0
"Vitamin A, IU",IU,--,--,0,0
Lipids
"Fatty acids, total saturated",g,--,--,1.501,5.360
"Fatty acids, total trans",g,--,--,0.000,0.000
"Cholesterol",mg,--,--,0,0
Amino Acids
Other
Ingredients
"CORN VEGETABLE OIL (SUNFLOWER, CORN, AND/OR CANOLA OIL), SALT, MALTODEXTRIN (MADE FROM CORN), WHEY, NATURAL AND ARTIFICIAL FLAVOR (INCLUDING NATURAL BACON FLAVOR, NATURAL SESAME FLAVOR AND NATURAL SMOKE FLAVOR), MONOSODIUM GLUTAMATE, ONION POWDER, BUTTERMILK, ROMANO CHEESE (COW'S MILK, CHEESE CULTURES, SALT, ENZYMES), CHEDDAR CHEESE (MILK, CHEESE CULTURES, SALT, ENZYMES), CORN STARCH, SOUR CREAM (CULTURED CREAM, SKIM MILK), TOMATO POWDER, LACTOSE, SKIM MILK, TORULA YEAST, GARLIC POWDER, SODIUM CASEINATE, DEXTROSE, CITRIC ACID, LACTIC ACID, SPICES, ARTIFICIAL COLOR (YELLOW 5 LAKE, YELLOW 6, YELLOW 6 LAKE, BLUE 1 LAKE, RED 40 LAKE), YEAST EXTRACT, MALIC ACID, MILK PROTEIN CONCENTRATE, BACON FAT, DISODIUM INOSINATE, AND DISODIUM GUANYLATE." Date available: 09/28/2016 Date last updated by company: 09/28/2016
