Source: USDA Branded Food Products Database Release December 2017 Software v.3.8.6.4 2017-10-02
Report Run at: December 17, 2017 01:39 EST
"Nutrient data for: 45250343, DORITOS, JACKED, TORTILLA CHIPS, SPICY STREET TACO, UPC: 028400421164"
Food Group:  Branded Food Products Database
Common Name:

Nutrient,Unit,Data points,Std. Error,"6.0 CHIPS = 28.0g",1Value per 100 g,
Proximates
"Energy",kcal,--,--,140,500
"Protein",g,--,--,2.00,7.14
"Total lipid (fat)",g,--,--,8.00,28.57
"Carbohydrate, by difference",g,--,--,16.00,57.14
"Fiber, total dietary",g,--,--,1.0,3.6
"Sugars, total",g,--,--,0.00,0.00
Minerals
"Calcium, Ca",mg,--,--,0,0
"Iron, Fe",mg,--,--,0.00,0.00
"Sodium, Na",mg,--,--,240,857
Vitamins
"Vitamin C, total ascorbic acid",mg,--,--,0.0,0.0
"Vitamin A, IU",IU,--,--,200,714
Lipids
"Fatty acids, total saturated",g,--,--,1.000,3.570
"Fatty acids, total trans",g,--,--,0.000,0.000
"Cholesterol",mg,--,--,0,0
Amino Acids
Other
Ingredients
"CORN, VEGETABLE OIL (SUNFLOWER, CORN, AND/OR CANOLA OIL), PAPRIKA, SPICES, SALT, MALTODEXTRIN (MADE FROM CORN), MONOSODIUM GLUTAMATE, SOUR CREAM (CULTURED CREAM, SKIM MILK), CAYENNE PEPPER SAUCE (SALT, AGED CAYENNE RED PEPPERS, VINEGAR, DRIED GARLIC), SUGAR, WHEY PROTEIN CONCENTRATE, SKIM MILK, ONION POWDER, WHEY, GARLIC POWDER, CHEDDAR CHEESE (MILK, CHEESE CULTURES, SALT, ENZYMES), CITRIC ACID, NATURAL AND ARTIFICIAL FLAVOR, HYDROLYZED CORN PROTEIN, ARTIFICIAL COLOR (RED 40 LAKE, RED 40, BLUE 1, YELLOW 6 LAKE, BLUE 2 LAKE, YELLOW 6, YELLOW 5), MALIC ACID, BUTTERMILK, LACTOSE, MILK PROTEIN CONCENTRATE, BUTTER (CREAM, SALT), LACTIC ACID, DISODIUM INOSINATE, DISODIUM GUANYLATE, BLUE CHEESE (MILK, CHEESE CULTURES, SALT, ENZYMES), SODIUM BENZOATE (PRESERVATIVE)." Date available: 09/23/2016 Date last updated by company: 09/23/2016
