Source: USDA Branded Food Products Database Release December 2017 Software v.3.8.6.4 2017-10-02
Report Run at: December 17, 2017 01:40 EST
"Nutrient data for: 45256769, DORTMUNDER GOLD BEER LAGER MUSTARD, UPC: 022605555556"
Food Group:  Branded Food Products Database
Common Name:

Nutrient,Unit,Data points,Std. Error,"1 tsp = 5.0g",1Value per 100 g,
Proximates
"Energy",kcal,--,--,5,100
"Protein",g,--,--,0.00,0.00
"Total lipid (fat)",g,--,--,0.00,0.00
"Carbohydrate, by difference",g,--,--,1.00,20.00
"Sugars, total",g,--,--,1.00,20.00
Minerals
"Sodium, Na",mg,--,--,110,2200
Vitamins
Lipids
"Fatty acids, total saturated",g,--,--,0.000,0.000
Amino Acids
Other
Ingredients
"DISTILLED WHITE VINEGAR, #1 MUSTARD SEED, SUGAR, SALT, HORSERADISH, GREAT LAKES DORTMUNDER GOLD BEER, AND SPICES." Date available: 07/14/2017 Date last updated by company: 07/14/2017
