Source: USDA Branded Food Products Database Release December 2017 Software v.3.8.6.4 2017-10-02
Report Run at: December 17, 2017 01:47 EST
"Nutrient data for: 45229546, DOUBLE-FILLED HALLOWEEN CHOCOLATE SANDWICH COOKIES, UPC: 041303066669"
Food Group:  Branded Food Products Database
Common Name:

Nutrient,Unit,Data points,Std. Error,"2.0 COOKIES = 29.0g",1Value per 100 g,
Proximates
"Energy",kcal,--,--,140,483
"Protein",g,--,--,1.00,3.45
"Total lipid (fat)",g,--,--,6.00,20.69
"Carbohydrate, by difference",g,--,--,21.00,72.41
"Fiber, total dietary",g,--,--,1.0,3.4
"Sugars, total",g,--,--,14.00,48.28
Minerals
"Calcium, Ca",mg,--,--,0,0
"Iron, Fe",mg,--,--,1.24,4.28
"Sodium, Na",mg,--,--,100,345
Vitamins
"Vitamin C, total ascorbic acid",mg,--,--,0.0,0.0
"Vitamin A, IU",IU,--,--,0,0
Lipids
"Fatty acids, total saturated",g,--,--,2.001,6.900
"Fatty acids, total monounsaturated",g,--,--,2.500,8.620
"Fatty acids, total polyunsaturated",g,--,--,1.001,3.450
"Fatty acids, total trans",g,--,--,0.000,0.000
"Cholesterol",mg,--,--,0,0
Amino Acids
Other
Ingredients
"SUGAR, ENRICHED FLOUR (BLEACHED WHEAT FLOUR, NIACIN, REDUCED IRON, THIAMIN MONONITRATE, RIBOFLAVIN, FOLIC ACID), CANOLA AND/OR SOYBEAN (WITH TBHQ FOR FRESHNESS) AND/OR PALM OIL, DEXTROSE, COCOA PROCESSED WITH ALKALI, CONTAINS 2% OR LESS OF: HIGH FRUCTOSE CORN SYRUP, CORNSTARCH, SALT, LEAVENING (BAKING SODA, CALCIUM PHOSPHATE), YELLOW 6, SOY LECITHIN (EMULSIFIER), NATURAL AND ARTIFICIAL CHOCOLATE FLAVOR, NATURAL AND ARTIFICIAL VANILLA FLAVOR." Date available: 07/14/2017 Date last updated by company: 07/14/2017
