Source: USDA Branded Food Products Database Release December 2017 Software v.3.8.6.4 2017-10-02
Report Run at: December 17, 2017 01:44 EST
"Nutrient data for: 45274704, DOUBLE CHOCOLATE, UPC: 850977005122"
Food Group:  Branded Food Products Database
Common Name:

Nutrient,Unit,Data points,Std. Error,"0.5 cup = 90.0g",1Value per 100 g,
Proximates
"Energy",kcal,--,--,190,211
"Protein",g,--,--,2.00,2.22
"Total lipid (fat)",g,--,--,9.00,10.00
"Carbohydrate, by difference",g,--,--,27.00,30.00
"Fiber, total dietary",g,--,--,2.0,2.2
"Sugars, total",g,--,--,19.00,21.11
Minerals
"Calcium, Ca",mg,--,--,0,0
"Iron, Fe",mg,--,--,2.02,2.25
"Potassium, K",mg,--,--,55,61
"Sodium, Na",mg,--,--,110,122
Vitamins
"Vitamin C, total ascorbic acid",mg,--,--,0.0,0.0
"Vitamin A, IU",IU,--,--,0,0
Lipids
"Fatty acids, total saturated",g,--,--,1.998,2.220
"Fatty acids, total trans",g,--,--,0.000,0.000
"Cholesterol",mg,--,--,0,0
Amino Acids
Other
Ingredients
"WATER, CANE SUGAR, HAZELNUT (NUT BUTTER, PIECES), TAPIOCA MALTODEXTRIN, COCOA, TAPIOCA SYRUP, HIGH OLEIC SAFFLOWER OIL, UNSWEETENED CHOCOLATE COCONUT OIL, ALKALIZED COCOA, NATURAL FLAVORS, SEA SALT, GUAR GUM, SUNFLOWER LECITHIN, XANTHAN GUM, SAFFLOWER OIL, VANILLA EXTRACT, SALT." Date available: 07/14/2017 Date last updated by company: 07/14/2017
