Source: USDA Branded Food Products Database Release December 2017 Software v.3.8.6.4 2017-10-02
Report Run at: December 17, 2017 01:49 EST
"Nutrient data for: 45003416, DOUBLE RAINBOW, SOY CREAM, VERY CHERRY CHIP, UPC: 022852416082"
Food Group:  Branded Food Products Database
Common Name:

Nutrient,Unit,Data points,Std. Error,"0.5 cup = 100.0g",1Value per 100 g,
Proximates
"Energy",kcal,--,--,200,200
"Protein",g,--,--,2.00,2.00
"Total lipid (fat)",g,--,--,8.00,8.00
"Carbohydrate, by difference",g,--,--,32.00,32.00
"Fiber, total dietary",g,--,--,1.0,1.0
"Sugars, total",g,--,--,27.00,27.00
Minerals
"Calcium, Ca",mg,--,--,0,0
"Iron, Fe",mg,--,--,0.81,0.81
"Sodium, Na",mg,--,--,90,90
Vitamins
"Vitamin C, total ascorbic acid",mg,--,--,0.0,0.0
"Vitamin A, IU",IU,--,--,0,0
Lipids
"Fatty acids, total saturated",g,--,--,1.500,1.500
"Fatty acids, total trans",g,--,--,0.000,0.000
"Cholesterol",mg,--,--,0,0
Amino Acids
Other
Ingredients
"ORGANIC SOYMILK (FILTERED WATER, ORGANIC SOYBEANS), ORGANIC CANE SUGAR, CHERRIES (CHERRIES, SUGAR, COLOR (CHERRY JUICE, PLUM JUICE, BLACK CARROT JUICE, BEET JUICE CONCENTRATE), CITRIC ACID, NATURAL FLAVORS), CHOCOLATE CHIPS (SUGAR, BITTER CHOCOLATE, COCOA BUTTER, SOY LECITHIN, VANILLA EXTRACT), ORGANIC OLEIC SAFFLOWER OIL, NON-GM BROWN RICE SYRUP SOLIDS, NATURAL FLAVORS, SEA SALT, CAROB BEAN GUM, GUAR GUM, CARRAGEENAN." Date available: 07/14/2017 Date last updated by company: 07/14/2017
