Source: USDA Branded Food Products Database Release December 2017 Software v.3.8.6.4 2017-10-02
Report Run at: December 17, 2017 01:50 EST
"Nutrient data for: 45294734, DOVE, DARK CHOCOLATE EGGS, UPC: 040000416524"
Food Group:  Branded Food Products Database
Common Name:

Nutrient,Unit,Data points,Std. Error,"6.0 EGGS = 43.0g",1Value per 100 g,
Proximates
"Energy",kcal,--,--,220,512
"Protein",g,--,--,12.00,27.91
"Total lipid (fat)",g,--,--,14.00,32.56
"Carbohydrate, by difference",g,--,--,26.00,60.47
"Fiber, total dietary",g,--,--,3.0,7.0
"Sugars, total",g,--,--,20.00,46.51
Minerals
"Calcium, Ca",mg,--,--,20,47
"Iron, Fe",mg,--,--,1.08,2.51
"Sodium, Na",mg,--,--,0,0
Vitamins
"Vitamin C, total ascorbic acid",mg,--,--,1.2,2.8
"Vitamin A, IU",IU,--,--,100,233
Lipids
"Fatty acids, total saturated",g,--,--,7.998,18.600
"Fatty acids, total trans",g,--,--,0.000,0.000
"Cholesterol",mg,--,--,5,12
Amino Acids
Other
Ingredients
"SEMISWEET CHOCOLATE (SUGAR, CHOCOLATE, CHOCOLATE PROCESSED WITH ALKALI, COCOA BUTTER, MILKFAT, SOY LECITHIN, NATURAL AND ARTIFICIAL FLAVORS)." Date available: 12/17/2016 Date last updated by company: 12/17/2016
