Source: USDA Branded Food Products Database Release December 2017 Software v.3.8.6.4 2017-10-02
Report Run at: December 17, 2017 02:21 EST
"Nutrient data for: 45021491, DR. OETKER, INSTANT MOUSSE MIX, STRAWBERRY, UPC: 058336022302"
Food Group:  Branded Food Products Database
Common Name:

Nutrient,Unit,Data points,Std. Error,"0.25 PACKAGE = 17.0g",1Value per 100 g,
Proximates
"Energy",kcal,--,--,80,471
"Protein",g,--,--,1.00,5.88
"Total lipid (fat)",g,--,--,2.00,11.76
"Carbohydrate, by difference",g,--,--,13.00,76.47
"Fiber, total dietary",g,--,--,0.0,0.0
"Sugars, total",g,--,--,11.00,64.71
Minerals
"Calcium, Ca",mg,--,--,0,0
"Iron, Fe",mg,--,--,0.00,0.00
"Sodium, Na",mg,--,--,45,265
Vitamins
"Vitamin C, total ascorbic acid",mg,--,--,0.0,0.0
"Vitamin A, IU",IU,--,--,0,0
Lipids
"Fatty acids, total saturated",g,--,--,1.499,8.820
"Fatty acids, total trans",g,--,--,0.000,0.000
"Cholesterol",mg,--,--,0,0
Amino Acids
Other
Ingredients
"SUGAR, DEXTROSE, CORN SYRUP SOLIDS, PALM KERNEL OIL, GELATIN, MODIFIED CORN STARCH, MODIFIED PALM OIL, NATURAL FLAVOR, ADIPIC ACID, STRAWBERRY POWDER, SODIUM CASEINATE (MILK), GUAR GUM, TOCOPHEROL, TETRA SODIUM PYROPHOSPHATE, CARRAGEENAN, DATEM, DIPOTASSIUM PHOSPHATE, LACTYLIC ESTERS OF FATTY ACIDS, MONO AND DIGLYCERIDES, DISODIUM PHOSPHATE, RED 40, YELLOW 6, BLUE 1" Date available: 06/25/2017 Date last updated by company: 06/25/2017
