Source: USDA Branded Food Products Database Release December 2017 Software v.3.8.6.4 2017-10-02
Report Run at: December 17, 2017 02:23 EST
"Nutrient data for: 45118848, DR. SNACK, YOGURT COVERED PRETZEL, UPC: 805554931387"
Food Group:  Branded Food Products Database
Common Name:

Nutrient,Unit,Data points,Std. Error,"6.0 PRETZELS = 28.0g",1Value per 100 g,
Proximates
"Energy",kcal,--,--,130,464
"Total lipid (fat)",g,--,--,5.00,17.86
"Carbohydrate, by difference",g,--,--,21.00,75.00
"Fiber, total dietary",g,--,--,0.9,3.2
Minerals
"Calcium, Ca",mg,--,--,0,0
"Iron, Fe",mg,--,--,1.29,4.59
"Sodium, Na",mg,--,--,180,643
Vitamins
"Vitamin C, total ascorbic acid",mg,--,--,0.0,0.0
"Vitamin A, IU",IU,--,--,0,0
Lipids
"Fatty acids, total saturated",g,--,--,4.001,14.290
"Fatty acids, total trans",g,--,--,0.000,0.000
"Cholesterol",mg,--,--,1,4
Amino Acids
Other
Ingredients
"YOGURT PRETZELS: SUGAR, PALM KERNEL OIL, REDUCED MINERAL WHEY POWDER, TITANIUM DIOXIDE (AN ARTIFICIAL COLORING), YOGURT POWDER (CULTURED WHEY AND NONFAT MILK), SOY LECITHIN (AN EMULSIFIER), SALT, AND VANILLA, UNBLEACHED ENRICHED WHEAT FLOUR (FLOUR, NIACI." Date available: 10/11/2017 Date last updated by company: 10/11/2017
