Source: USDA Branded Food Products Database Release December 2017 Software v.3.8.6.4 2017-10-02
Report Run at: December 17, 2017 01:53 EST
"Nutrient data for: 45243771, DRAGONFLY, BLACK PEPPER POWDER, UPC: 721557533437"
Food Group:  Branded Food Products Database
Common Name:

Nutrient,Unit,Data points,Std. Error,"1 tsp = 2.0g",1Value per 100 g,
Proximates
"Energy",kcal,--,--,4,200
"Protein",g,--,--,0.00,0.00
"Total lipid (fat)",g,--,--,1.50,75.00
"Carbohydrate, by difference",g,--,--,1.00,50.00
"Fiber, total dietary",g,--,--,0.0,0.0
"Sugars, total",g,--,--,0.00,0.00
Minerals
"Calcium, Ca",mg,--,--,10,500
"Iron, Fe",mg,--,--,0.00,0.00
"Sodium, Na",mg,--,--,0,0
Vitamins
"Vitamin C, total ascorbic acid",mg,--,--,0.0,0.0
"Vitamin A, IU",IU,--,--,0,0
Lipids
"Fatty acids, total saturated",g,--,--,0.000,0.000
"Fatty acids, total trans",g,--,--,0.000,0.000
Amino Acids
Other
Ingredients
"PEPPER." Date available: 06/25/2017 Date last updated by company: 06/25/2017
