Source: USDA Branded Food Products Database Release December 2017 Software v.3.8.6.4 2017-10-02
Report Run at: December 17, 2017 01:53 EST
"Nutrient data for: 45099365, DRAGONFLY, ARTIFICIAL BEEF FLAVOR BROTH MIX, UPC: 721557542552"
Food Group:  Branded Food Products Database
Common Name:

Nutrient,Unit,Data points,Std. Error,"1 tsp = 5.0g",1Value per 100 g,
Proximates
"Energy",kcal,--,--,0,0
"Total lipid (fat)",g,--,--,0.00,0.00
"Carbohydrate, by difference",g,--,--,1.00,20.00
"Fiber, total dietary",g,--,--,0.0,0.0
"Sugars, total",g,--,--,1.00,20.00
Minerals
"Calcium, Ca",mg,--,--,0,0
"Iron, Fe",mg,--,--,0.00,0.00
"Sodium, Na",mg,--,--,800,16000
Vitamins
"Vitamin C, total ascorbic acid",mg,--,--,0.0,0.0
"Vitamin A, IU",IU,--,--,0,0
Lipids
"Fatty acids, total saturated",g,--,--,0.000,0.000
"Fatty acids, total trans",g,--,--,0.000,0.000
"Cholesterol",mg,--,--,0,0
Amino Acids
Other
Ingredients
"SALT, SUGAR, MONOSODIUM GLUTAMATE, ARTIFICIAL BEEF FLAVOR POWDER, SOY SAUCE POWDER (SOY BEAN, SALT, WHEAT), PALM OIL, ONION POWDER, SPICES (CINNAMON, PEPPER, CLOVE, STAR ANISE), CITRIC ACID, PAPRIKA COLOR." Date available: 07/14/2017 Date last updated by company: 07/14/2017
