Source: USDA Branded Food Products Database Release December 2017 Software v.3.8.6.4 2017-10-02
Report Run at: December 17, 2017 01:54 EST
"Nutrient data for: 45031481, DRAKE'S, FROSTED DONUTDELITES, UPC: 024300012167"
Food Group:  Branded Food Products Database
Common Name:

Nutrient,Unit,Data points,Std. Error,"4.0 DONUTS = 60.0g",1Value per 100 g,
Proximates
"Energy",kcal,--,--,280,467
"Protein",g,--,--,3.00,5.00
"Total lipid (fat)",g,--,--,16.00,26.67
"Carbohydrate, by difference",g,--,--,32.00,53.33
"Fiber, total dietary",g,--,--,1.0,1.7
"Sugars, total",g,--,--,18.00,30.00
Minerals
"Calcium, Ca",mg,--,--,0,0
"Iron, Fe",mg,--,--,1.32,2.20
"Potassium, K",mg,--,--,80,133
"Sodium, Na",mg,--,--,210,350
Vitamins
"Vitamin C, total ascorbic acid",mg,--,--,0.0,0.0
"Vitamin A, IU",IU,--,--,0,0
Lipids
"Fatty acids, total saturated",g,--,--,9.000,15.000
"Fatty acids, total monounsaturated",g,--,--,4.002,6.670
"Fatty acids, total polyunsaturated",g,--,--,1.500,2.500
"Fatty acids, total trans",g,--,--,0.000,0.000
"Cholesterol",mg,--,--,15,25
Amino Acids
Other
Ingredients
"ENRICHED WHEAT FLOUR (WHEAT FLOUR, BARLEY MALT, NIACIN, REDUCED IRON, THIAMIN MONONITRATE [VITAMIN B1], RIBOFLAVIN [VITAMIN B2], FOLIC ACID), SUGAR, WATER, PALM OIL, PALM AND PALM KERNEL OIL.CONTAINS 2% OR LESS OF EACH OF THE FOLLOWING: COCOA, NONFAT DRY MILK, EGG YOLKS, SOY FLOUR, CORN SYRUP SOLIDS, SOYBEAN OIL, LEAVENING (BAKING SODA, SODIUM ACID PYROPHOSPHATE, SODIUM ALUMINUM PHOSPHATE), MONO- AND DIGLYCERIDES, SOY LECITHIN, GLYCERIN, DEXTROSE, SALT, WHEAT AND TAPIOCA STARCHES, WHEAT GERM, CORN STARCH, NATURAL AND ARTIFICIAL FLAVORS (CONTAINS LEMON), SORBIC ACID AND POTASSIUM SORBATE (TO PRESERVE FRESHNESS), CELLULOSE AND GUAR AND KARAYA GUMS, DEXTRIN, CITRIC ACID, NUTMEG, MALTODEXTRIN, ARTIFICIAL COLORS (INCLUDES YELLOW 6 LAKE, BLUE 2 LAKE, RED 40 LAKE, YELLOW 5 LAKE), POTATO STARCH." Date available: 07/14/2017 Date last updated by company: 07/14/2017
