Source: USDA Branded Food Products Database Release December 2017 Software v.3.8.6.4 2017-10-02
Report Run at: December 17, 2017 01:56 EST
"Nutrient data for: 45154632, DREAMHOUSE, MILK CHOCOLATE, TOFFEE PRETZEL WITH SEA SALT, UPC: 011822583749"
Food Group:  Branded Food Products Database
Common Name:

Nutrient,Unit,Data points,Std. Error,"0.5 BAR = 43.0g",1Value per 100 g,
Proximates
"Energy",kcal,--,--,220,512
"Protein",g,--,--,3.00,6.98
"Total lipid (fat)",g,--,--,11.00,25.58
"Carbohydrate, by difference",g,--,--,27.00,62.79
"Fiber, total dietary",g,--,--,1.0,2.3
"Sugars, total",g,--,--,22.00,51.16
Minerals
"Calcium, Ca",mg,--,--,60,140
"Iron, Fe",mg,--,--,0.00,0.00
"Sodium, Na",mg,--,--,150,349
Vitamins
"Vitamin C, total ascorbic acid",mg,--,--,0.0,0.0
"Vitamin A, IU",IU,--,--,0,0
Lipids
"Fatty acids, total saturated",g,--,--,7.000,16.280
"Fatty acids, total trans",g,--,--,0.000,0.000
"Cholesterol",mg,--,--,5,12
Amino Acids
Other
Ingredients
"MILK CHOCOLATE (SUGAR, COCOA BUTTER, COCOA MASS, WHOLE MILK POWDER, SOY LECITHIN [EMULSIFIER], AND NATURAL VANILLA EXTRACT), PRETZELS (WHEAT FLOUR, MALT, SALT, PURE SOYBEAN OIL, VEGETABLE FIBER, YEAST AND SODA), TOFFEE BITS (SUGAR, CORN SYRUP, PALM OIL, EVAPORATED MILK, SALT, NATURAL AND ARTIFICIAL FLAVORS, AND SOY LECITHIN), AND SEA SALT." Date available: 07/14/2017 Date last updated by company: 07/14/2017
