Source: USDA Branded Food Products Database Release December 2017 Software v.3.8.6.4 2017-10-02
Report Run at: December 17, 2017 01:56 EST
"Nutrient data for: 45142162, DREAMHOUSE FINE FOODS, GOURMET COOKIE DOUGH TRAIL MIX, CHOCOLATE CHIP, UPC: 011822584005"
Food Group:  Branded Food Products Database
Common Name:

Nutrient,Unit,Data points,Std. Error,"0.25 cup = 30.0g",1Value per 100 g,
Proximates
"Energy",kcal,--,--,140,467
"Protein",g,--,--,3.00,10.00
"Total lipid (fat)",g,--,--,8.00,26.67
"Carbohydrate, by difference",g,--,--,17.00,56.67
"Fiber, total dietary",g,--,--,1.0,3.3
"Sugars, total",g,--,--,11.00,36.67
Minerals
"Calcium, Ca",mg,--,--,20,67
"Iron, Fe",mg,--,--,1.80,6.00
"Sodium, Na",mg,--,--,55,183
Vitamins
"Vitamin C, total ascorbic acid",mg,--,--,0.0,0.0
"Vitamin A, IU",IU,--,--,0,0
Lipids
"Fatty acids, total saturated",g,--,--,3.000,10.000
"Fatty acids, total trans",g,--,--,0.000,0.000
"Cholesterol",mg,--,--,0,0
Amino Acids
Other
Ingredients
"TAN CHOCOLATEY ERNIES (SUGAR, COCOA, HYDROGENATED PALM KERNEL OIL, WHEY, ARTIFICIAL COLOR (FD&C BLUE #2 LAKE, YELLOW #5 LAKE, YELLOW #6 LAKE, SORBITOL, TITANIUM DIOXIDE, PHOSPHORIC ACID, METHYL AND PROPYL PARABEANS), MONIFAT MILK POWDER CORN SYRUP, SOY LECITHIN ADDED AS AN EMULSIFIER, WAX, DEXTRIN, AND VANILLIN [AN ARTIFICIAL FLAVOR), MINI CHOCOLATE CHIP COOKIES (ENRICHED BLEACHED FLOUR (WHEAT FLOUR, MALTED BARLEY FLOUR, NIACIN, REDUCED IRON, THIAMINE MONONITRATE [VITAMIN B1], RIBOFLAVIN [VITAMIN B2], FOLIC ACID), INTERESTERIFIED SOYBEAN OIL, SEMI-SWEET CHOCOLATE (SUGAR, UNSWEETENED CHOCOLATE, COCOA BUTTER, SOY LECITHIN [AN EMULSIFIER], VANILLA), HIGH FRUCTOSE CORN SYRUP, BROWN SUGAR, DRIED EGGS, NATURAL AND ARTIFICIAL FLAVOR, BAKING SODA, AND SALT), PEANUTS, MILK CHOCOLATE (SUGAR, COCOA BUTTER, CHOCOLATE LIQUOR, WHOLE MILK POWDER, SOY LECITHIN [ADDED AS AN EMULSIFIER], VANILLA), CHOCOLATE CHIP COOKIE DOUGH (WHEAT FLOUR, BROWN SUGAR, PARTIALLY HYDROGENATED PALM KERNEL OIL, SUGAR, CHOCOLATE MORSELS (SUGAR, CHOCOLATE LIQUOR, COCOA BUTTER, SOY LECITHIN), GLYCERIN, HIGH FRUCTOSE CORN SYRUP, PALM OIL, NATURAL FLAVORS (CONTAINS MILK), SALT, SOY LECITHIN, XANTHAN GUM, SODIUM BICARBONATE), VEGETABLE OIL OIL (MAY CONTAIN ONE OR MORE OF THE FOLLOWING: PEANUT CANOLA, SUNFLOWER AND, OR SOYBEAN OIL), SALT." Date available: 07/14/2017 Date last updated by company: 07/14/2017
