Source: USDA Branded Food Products Database Release December 2017 Software v.3.8.6.4 2017-10-02
Report Run at: December 17, 2017 02:02 EST
"Nutrient data for: 45141904, DREW'S, DRESSING & QUICK MARINADE, RASPBERRY, UPC: 790874374177"
Food Group:  Branded Food Products Database
Common Name:

Nutrient,Unit,Data points,Std. Error,"2.0 Tbsp = 30.0g",1Value per 100 g,
Proximates
"Energy",kcal,--,--,60,200
"Protein",g,--,--,0.00,0.00
"Total lipid (fat)",g,--,--,4.50,15.00
"Carbohydrate, by difference",g,--,--,5.00,16.67
"Fiber, total dietary",g,--,--,0.0,0.0
"Sugars, total",g,--,--,4.00,13.33
Minerals
"Calcium, Ca",mg,--,--,0,0
"Iron, Fe",mg,--,--,0.00,0.00
"Sodium, Na",mg,--,--,80,267
Vitamins
"Vitamin C, total ascorbic acid",mg,--,--,4.0,13.3
"Vitamin A, IU",IU,--,--,0,0
Lipids
"Fatty acids, total saturated",g,--,--,0.000,0.000
"Fatty acids, total trans",g,--,--,0.000,0.000
"Cholesterol",mg,--,--,0,0
Amino Acids
Other
Ingredients
"ALL NATURAL INGREDIENTS: WATER, CIDER VINEGAR, EXPELLER PRESSED CANOLA OIL, EVAPORATED CANE SUGAR, RASPBERRY JUICE CONCENTRATE, DIJON MUSTARD (ORGANIC GRAIN VINEGAR, WATER, MUSTARD SEED, SALT, SPICES, TURMERIC), SEA SALT, XANTHAN GUM, GRAPE JUICE CONCENTRATE (COLOR)." Date available: 07/14/2017 Date last updated by company: 07/14/2017
