Source: USDA Branded Food Products Database Release December 2017 Software v.3.8.6.4 2017-10-02
Report Run at: December 17, 2017 02:02 EST
"Nutrient data for: 45148380, DREW'S, CHIPOTLE RANCH DRESSING & QUICK MARINADE, UPC: 790874374214"
Food Group:  Branded Food Products Database
Common Name:

Nutrient,Unit,Data points,Std. Error,"2.0 Tbsp = 30.0g",1Value per 100 g,
Proximates
"Energy",kcal,--,--,130,433
"Protein",g,--,--,1.00,3.33
"Total lipid (fat)",g,--,--,14.00,46.67
"Carbohydrate, by difference",g,--,--,2.00,6.67
"Fiber, total dietary",g,--,--,0.0,0.0
"Sugars, total",g,--,--,2.00,6.67
Minerals
"Calcium, Ca",mg,--,--,0,0
"Iron, Fe",mg,--,--,0.00,0.00
"Sodium, Na",mg,--,--,290,967
Vitamins
"Vitamin C, total ascorbic acid",mg,--,--,0.0,0.0
"Vitamin A, IU",IU,--,--,0,0
Lipids
"Fatty acids, total saturated",g,--,--,0.999,3.330
"Fatty acids, total trans",g,--,--,0.000,0.000
"Cholesterol",mg,--,--,5,17
Amino Acids
Other
Ingredients
"EXPELLER PRESSED CANOLA OIL, WATER, ORGANIC DISTILLED VINEGAR, EVAPORATED CANE SUGAR, ORGANIC BUTTERMILK POWDER, SEA SALT, EGG POWDER, BLACK PEPPER, ONION POWDER, GARLIC POWDER, LEMON JUICE CONCENTRATE, CHIPOTLE POWDER, XANTHAN GUM, JALAPENOS, LIQUID SMOKE, LACTIC ACID, PARSLEY." Date available: 06/25/2017 Date last updated by company: 06/25/2017
