Source: USDA Branded Food Products Database Release December 2017 Software v.3.8.6.4 2017-10-02
Report Run at: December 17, 2017 02:03 EST
"Nutrient data for: 45141866, DREW'S, POPPY SEED, UPC: 790874374191"
Food Group:  Branded Food Products Database
Common Name:

Nutrient,Unit,Data points,Std. Error,"2.0 Tbsp = 30.0g",1Value per 100 g,
Proximates
"Energy",kcal,--,--,150,500
"Protein",g,--,--,0.00,0.00
"Total lipid (fat)",g,--,--,14.00,46.67
"Carbohydrate, by difference",g,--,--,4.00,13.33
"Fiber, total dietary",g,--,--,0.0,0.0
"Sugars, total",g,--,--,4.00,13.33
Minerals
"Calcium, Ca",mg,--,--,0,0
"Iron, Fe",mg,--,--,0.00,0.00
"Sodium, Na",mg,--,--,200,667
Vitamins
"Vitamin C, total ascorbic acid",mg,--,--,0.0,0.0
"Vitamin A, IU",IU,--,--,0,0
Lipids
"Fatty acids, total saturated",g,--,--,0.999,3.330
"Fatty acids, total trans",g,--,--,0.000,0.000
"Cholesterol",mg,--,--,0,0
Amino Acids
Other
Ingredients
"EXPELLER PRESSED CANOLA OIL, WATER, EVAPORATED CANE SUGAR, ONION, ORGANIC DISTILLED VINEGAR, CIDER VINEGAR, DIJON MUSTARD (ORGANIC GRAIN VINEGAR, WATER, MUSTARD SEED, SALT, SPICES, TURMERIC), SEA SALT, POPPY SEEDS, CITRIC ACID, XANTHAN GUM." Date available: 07/14/2017 Date last updated by company: 07/14/2017
