Source: USDA Branded Food Products Database Release December 2017 Software v.3.8.6.4 2017-10-02
Report Run at: December 17, 2017 02:07 EST
"Nutrient data for: 45260504, DRIED FIGS, UPC: 722648711338"
Food Group:  Branded Food Products Database
Common Name:

Nutrient,Unit,Data points,Std. Error,"3.0 PCS = 34.0g",1Value per 100 g,
Proximates
"Energy",kcal,--,--,100,294
"Protein",g,--,--,1.00,2.94
"Total lipid (fat)",g,--,--,0.00,0.00
"Carbohydrate, by difference",g,--,--,22.00,64.71
"Fiber, total dietary",g,--,--,4.0,11.8
"Sugars, total",g,--,--,17.00,50.00
Minerals
"Calcium, Ca",mg,--,--,50,147
"Iron, Fe",mg,--,--,1.06,3.11
"Sodium, Na",mg,--,--,4,12
Vitamins
"Vitamin C, total ascorbic acid",mg,--,--,0.7,2.1
"Vitamin A, IU",IU,--,--,59,174
Lipids
"Fatty acids, total saturated",g,--,--,0.000,0.000
"Fatty acids, total trans",g,--,--,0.000,0.000
"Cholesterol",mg,--,--,0,0
Amino Acids
Other
Ingredients
"CALYMARNA FIGS (POTASSIUM SORBATE, SULFUR DIOXIDE [PRESERVATIVE])." Date available: 07/14/2017 Date last updated by company: 07/14/2017
