Source: USDA Branded Food Products Database Release December 2017 Software v.3.8.6.4 2017-10-02
Report Run at: December 17, 2017 02:04 EST
"Nutrient data for: 45276995, DRIED BERRIES & CHERRIES, UPC: 021130522286"
Food Group:  Branded Food Products Database
Common Name:

Nutrient,Unit,Data points,Std. Error,"0.33 cup = 40.0g",1Value per 100 g,
Proximates
"Energy",kcal,--,--,140,350
"Protein",g,--,--,1.00,2.50
"Total lipid (fat)",g,--,--,0.00,0.00
"Carbohydrate, by difference",g,--,--,33.00,82.50
"Fiber, total dietary",g,--,--,2.0,5.0
"Sugars, total",g,--,--,28.00,70.00
Minerals
"Calcium, Ca",mg,--,--,20,50
"Iron, Fe",mg,--,--,0.36,0.90
"Potassium, K",mg,--,--,110,275
"Sodium, Na",mg,--,--,10,25
Vitamins
"Vitamin C, total ascorbic acid",mg,--,--,2.4,6.0
"Vitamin A, IU",IU,--,--,750,1875
Lipids
"Fatty acids, total saturated",g,--,--,0.000,0.000
"Fatty acids, total trans",g,--,--,0.000,0.000
"Cholesterol",mg,--,--,0,0
Amino Acids
Other
Ingredients
"DRIED CHERRIES (CHERRIES, SUGAR, SUNFLOWER OIL*), DRIED CRANBERRIES (CRANBERRIES, SUGAR, SUNFLOWER OIL*), DRIED STRAWBERRIES (STRAWBERRIES [PRODUCT OF MEXICO], CANE SUGAR, CITRIC ACID, SUNFLOWER OIL*, POTASSIUM SORBATE [PRESERVATIVE]), DRIED BLUEBERRIES (WILD BLUEBERRIES, CORN SYRUP, SUGAR, NATURAL FLAVOR, CITRIC ACID, SUNFLOWER OIL*, POTASSIUM SORBATE [PRESERVATIVE])." Date available: 09/16/2017 Date last updated by company: 09/16/2017
