Source: USDA Branded Food Products Database Release December 2017 Software v.3.8.6.4 2017-10-02
Report Run at: December 17, 2017 02:17 EST
"Nutrient data for: 45215373, DRINK MIX, UPC: 011161115700"
Food Group:  Branded Food Products Database
Common Name:

Nutrient,Unit,Data points,Std. Error,"8.0 FL OZ (240ML) PREPARED | MAKES = 18.0g",1Value per 100 g,
Proximates
"Energy",kcal,--,--,70,389
"Protein",g,--,--,0.00,0.00
"Total lipid (fat)",g,--,--,0.00,0.00
"Carbohydrate, by difference",g,--,--,17.00,94.44
"Sugars, total",g,--,--,17.00,94.44
Minerals
"Sodium, Na",mg,--,--,0,0
Vitamins
"Vitamin C, total ascorbic acid",mg,--,--,16.7,92.6
Lipids
Amino Acids
Other
Ingredients
"SUGAR, FRUCTOSE, CITRIC ACID, NATURAL FLAVOR, MAGNESIUM OXIDE, SODIUM CITRATE, POTASSIUM CITRATE, VITAMIN C (ASCORBIC ACID), COLOR (TITANIUM DIOXIDE, YELLOW 5 LAKE)." Date available: 07/14/2017 Date last updated by company: 07/14/2017
