Source: USDA Branded Food Products Database Release December 2017 Software v.3.8.6.4 2017-10-02
Report Run at: December 17, 2017 02:13 EST
"Nutrient data for: 45237832, DRINKABLE YOGURT SABORICO, UPC: 042743125534"
Food Group:  Branded Food Products Database
Common Name:

Nutrient,Unit,Data points,Std. Error,"7.0 OZA = 207.0g",1Value per 100 g,
Proximates
"Energy",kcal,--,--,240,116
"Protein",g,--,--,7.00,3.38
"Total lipid (fat)",g,--,--,7.99,3.86
"Carbohydrate, by difference",g,--,--,36.00,17.39
"Fiber, total dietary",g,--,--,0.0,0.0
"Sugars, total",g,--,--,35.00,16.91
Minerals
"Calcium, Ca",mg,--,--,201,97
"Iron, Fe",mg,--,--,0.00,0.00
"Sodium, Na",mg,--,--,99,48
Vitamins
"Vitamin C, total ascorbic acid",mg,--,--,0.0,0.0
"Vitamin A, IU",IU,--,--,205,99
Lipids
"Fatty acids, total saturated",g,--,--,5.009,2.420
"Fatty acids, total trans",g,--,--,0.000,0.000
"Cholesterol",mg,--,--,29,14
Amino Acids
Other
Ingredients
"INGREDIENTS: CULTURED PASTEURIZED GRADE A MILK AND CREAM. NON FAT DRY MILK,SUGAR, TAPIOCA STARCH, CARAGEENAN, LOCUST BEAN GUM, HIGH FRUCTOSE CORN SYRUP, MANGO PUREE, WATER, MODIFIED CORN FOOD STARCH, ARTIFICIAL FLAVOR, CITRIC ACID, SODIUM BENZOATE, POTASSIUM SORBATE, YELLOW 5 AND YELLOW 6 FOOD COLORS." Date available: 07/14/2017 Date last updated by company: 07/14/2017
