Source: USDA Branded Food Products Database Release December 2017 Software v.3.8.6.4 2017-10-02
Report Run at: December 17, 2017 02:16 EST
"Nutrient data for: 45152477, DRINK MIX, UPC: 075450062106"
Food Group:  Branded Food Products Database
Common Name:

Nutrient,Unit,Data points,Std. Error,"0.125 PACKET = 1.9g",1Value per 100 g,
Proximates
"Energy",kcal,--,--,5,263
"Protein",g,--,--,0.00,0.00
"Total lipid (fat)",g,--,--,0.00,0.00
"Carbohydrate, by difference",g,--,--,0.00,0.00
Minerals
"Sodium, Na",mg,--,--,35,1842
Vitamins
Lipids
Amino Acids
Other
Ingredients
"CITRIC ACID, POTASSIUM AND SODIUM CITRATE, NATURAL FLAVOR, ASPARTAME**, MAGNESIUM OXIDE, CONTAINS LESS THAN 2% OF: LEMON JUICE SOLIDS, ACESULFAME POTASSIUM, MALTODEXTRIN, CALCIUM SILICATE, GUM ARABIC, SOY LECITHIN, ARTIFICIAL COLOR, YELLOW 5." Date available: 07/14/2017 Date last updated by company: 07/14/2017
