Source: USDA Branded Food Products Database Release December 2017 Software v.3.8.6.4 2017-10-02
Report Run at: December 17, 2017 02:21 EST
"Nutrient data for: 45167243, DRKEFIR'S, SPARKLING PROBIOTIC BEVERAGE, ELDERBERRY PASSION, UPC: 029882512012"
Food Group:  Branded Food Products Database
Common Name:

Nutrient,Unit,Data points,Std. Error,"7.0 ONZ = 207.0g",1Value per 100 g,
Proximates
"Energy",kcal,--,--,43,21
"Protein",g,--,--,0.00,0.00
"Total lipid (fat)",g,--,--,0.00,0.00
"Carbohydrate, by difference",g,--,--,10.00,4.83
"Fiber, total dietary",g,--,--,1.0,0.5
"Sugars, total",g,--,--,8.76,4.23
Minerals
"Potassium, K",mg,--,--,31,15
"Sodium, Na",mg,--,--,12,6
Vitamins
Lipids
Amino Acids
Other
Ingredients
"DR. KEFIR'S MICRO-BREWED, NON-DAIRY CULTURE (PURIFIED WATER, ORGANIC CANE, ORGANIC NON-DAIRY DE. KEFIR CRYSTALS, ORGANIC CALIFORNIA MISSION FIGS), ELDERBERRY, RASPBERRY AND PASSION FRUIT CONCENTRATE." Date available: 07/14/2017 Date last updated by company: 07/14/2017
