Source: USDA Branded Food Products Database Release December 2017 Software v.3.8.6.4 2017-10-02
Report Run at: December 17, 2017 02:30 EST
"Nutrient data for: 45058941, DRY-RUB SEASONING, UPC: 076915000459"
Food Group:  Branded Food Products Database
Common Name:

Nutrient,Unit,Data points,Std. Error,"1 tsp = 3.0g",1Value per 100 g,
Proximates
"Energy",kcal,--,--,10,333
"Protein",g,--,--,0.00,0.00
"Total lipid (fat)",g,--,--,0.00,0.00
"Carbohydrate, by difference",g,--,--,1.00,33.33
"Sugars, total",g,--,--,1.00,33.33
Minerals
"Sodium, Na",mg,--,--,330,11000
Vitamins
Lipids
Amino Acids
Other
Ingredients
"WHEAT, SALT, SUGAR, SOY SAUCE POWDER, SPICES, CARAMEL COLOR, PAPRIKA, MUSTARD, NATURAL HICKORY SMOKE FLAVOR." Date available: 07/14/2017 Date last updated by company: 07/14/2017
