Source: USDA Branded Food Products Database Release December 2017 Software v.3.8.6.4 2017-10-02
Report Run at: December 17, 2017 02:28 EST
"Nutrient data for: 45213592, DRY ROASTED PUMPKIN SEEDS, UPC: 024182001822"
Food Group:  Branded Food Products Database
Common Name:

Nutrient,Unit,Data points,Std. Error,"1 PACKAGE = 28.3g",1Value per 100 g,
Proximates
"Energy",kcal,--,--,200,707
"Protein",g,--,--,11.00,38.87
"Total lipid (fat)",g,--,--,16.00,56.54
"Carbohydrate, by difference",g,--,--,5.00,17.67
"Sugars, total",g,--,--,0.00,0.00
Minerals
"Iron, Fe",mg,--,--,3.18,11.24
"Magnesium, Mg",mg,--,--,353,1249
"Phosphorus, P",mg,--,--,353,1249
"Potassium, K",mg,--,--,270,954
"Sodium, Na",mg,--,--,75,265
"Zinc, Zn",mg,--,--,2.25,7.95
Vitamins
Lipids
"Fatty acids, total saturated",g,--,--,3.000,10.600
"Fatty acids, total trans",g,--,--,0.000,0.000
"Cholesterol",mg,--,--,0,0
Amino Acids
Other
Ingredients
"ORGANIC DRY ROASTED PUMPKIN SEEDS, ORGANIC TAMARI SOY SAUCE (WATER, ORGANIC SOYBEANS, SEA SALT), ORGANIC GARLIC, ORGANIC CAYENNE PEPPER" Date available: 07/14/2017 Date last updated by company: 07/14/2017
