Source: USDA Branded Food Products Database Release December 2017 Software v.3.8.6.4 2017-10-02
Report Run at: December 17, 2017 02:28 EST
"Nutrient data for: 45264138, DRY ROASTED PEANUTS, UPC: 708820070042"
Food Group:  Branded Food Products Database
Common Name:

Nutrient,Unit,Data points,Std. Error,"0.25 cup = 28.0g",1Value per 100 g,
Proximates
"Energy",kcal,--,--,160,571
"Protein",g,--,--,7.00,25.00
"Total lipid (fat)",g,--,--,13.00,46.43
"Carbohydrate, by difference",g,--,--,6.00,21.43
"Fiber, total dietary",g,--,--,2.0,7.1
"Sugars, total",g,--,--,2.00,7.14
Minerals
"Calcium, Ca",mg,--,--,20,71
"Iron, Fe",mg,--,--,0.64,2.29
"Sodium, Na",mg,--,--,150,536
Vitamins
"Vitamin C, total ascorbic acid",mg,--,--,0.0,0.0
"Vitamin A, IU",IU,--,--,0,0
Lipids
"Fatty acids, total saturated",g,--,--,1.999,7.140
"Fatty acids, total trans",g,--,--,0.000,0.000
"Cholesterol",mg,--,--,0,0
Amino Acids
Other
Ingredients
"PEANUTS, CONTAINS LESS THAN 2% OF SEA SALT, SUGAR, CORN STARCH, CORN SYRUP SOLIDS, TORULA YEAST, SPICES (CONTAINS CELERY), PAPRIKA, DRIED ONION, DRIED GARLIC, NATURAL FLAVOR, MALTODEXTRIN." Date available: 07/14/2017 Date last updated by company: 07/14/2017
