Source: USDA Branded Food Products Database Release December 2017 Software v.3.8.6.4 2017-10-02
Report Run at: December 17, 2017 02:31 EST
"Nutrient data for: 45177440, DSD MERCHANDISERS, DRIED KIWI, UPC: 651433701783"
Food Group:  Branded Food Products Database
Common Name:

Nutrient,Unit,Data points,Std. Error,"100.0 GRM = 100.0g",1Value per 100 g,
Proximates
"Energy",kcal,--,--,370,370
"Protein",g,--,--,1.00,1.00
"Total lipid (fat)",g,--,--,0.00,0.00
"Carbohydrate, by difference",g,--,--,92.00,92.00
"Fiber, total dietary",g,--,--,1.0,1.0
"Sugars, total",g,--,--,67.00,67.00
Minerals
"Calcium, Ca",mg,--,--,80,80
"Iron, Fe",mg,--,--,0.43,0.43
"Sodium, Na",mg,--,--,240,240
Vitamins
"Vitamin C, total ascorbic acid",mg,--,--,0.0,0.0
"Vitamin A, IU",IU,--,--,0,0
Lipids
"Fatty acids, total saturated",g,--,--,0.000,0.000
"Fatty acids, total trans",g,--,--,0.000,0.000
"Cholesterol",mg,--,--,0,0
Amino Acids
Other
Ingredients
"KIWI, SUGAR, CITRIC ACID, SULFUR." Date available: 07/14/2017 Date last updated by company: 07/14/2017
