Source: USDA Branded Food Products Database Release December 2017 Software v.3.8.6.4 2017-10-02
Report Run at: December 17, 2017 02:32 EST
"Nutrient data for: 45165588, DSD MERCHANDISERS, ORGANIC RAW CASHEWS, UPC: 651433692074"
Food Group:  Branded Food Products Database
Common Name:

Nutrient,Unit,Data points,Std. Error,"100.0 GRM = 100.0g",1Value per 100 g,
Proximates
"Energy",kcal,--,--,553,553
"Protein",g,--,--,18.00,18.00
"Total lipid (fat)",g,--,--,44.00,44.00
"Carbohydrate, by difference",g,--,--,30.00,30.00
"Fiber, total dietary",g,--,--,3.0,3.0
"Sugars, total",g,--,--,6.00,6.00
Minerals
"Calcium, Ca",mg,--,--,40,40
"Iron, Fe",mg,--,--,3.33,3.33
"Sodium, Na",mg,--,--,12,12
Vitamins
"Vitamin C, total ascorbic acid",mg,--,--,0.3,0.3
"Vitamin A, IU",IU,--,--,0,0
Lipids
"Fatty acids, total saturated",g,--,--,8.000,8.000
"Fatty acids, total trans",g,--,--,0.000,0.000
"Cholesterol",mg,--,--,0,0
Amino Acids
Other
Ingredients
"ORGANIC CASHEWS." Date available: 07/14/2017 Date last updated by company: 07/14/2017
