Source: USDA Branded Food Products Database Release December 2017 Software v.3.8.6.4 2017-10-02
Report Run at: December 17, 2017 02:32 EST
"Nutrient data for: 45160538, DSD MERCHANDISERS, FRENCH BURNT PEANUTS, UPC: 651433630113"
Food Group:  Branded Food Products Database
Common Name:

Nutrient,Unit,Data points,Std. Error,"3.0 PCS = 46.0g",1Value per 100 g,
Proximates
"Energy",kcal,--,--,150,326
"Protein",g,--,--,2.00,4.35
"Total lipid (fat)",g,--,--,0.00,0.00
"Carbohydrate, by difference",g,--,--,39.00,84.78
"Fiber, total dietary",g,--,--,0.0,0.0
"Sugars, total",g,--,--,24.00,52.17
Minerals
"Calcium, Ca",mg,--,--,4,9
"Iron, Fe",mg,--,--,0.00,0.00
"Sodium, Na",mg,--,--,0,0
Vitamins
"Vitamin C, total ascorbic acid",mg,--,--,0.0,0.0
"Vitamin A, IU",IU,--,--,0,0
Lipids
"Fatty acids, total saturated",g,--,--,0.000,0.000
"Fatty acids, total trans",g,--,--,0.000,0.000
"Cholesterol",mg,--,--,0,0
Amino Acids
Other
Ingredients
"SUGAR, PEANUTS, CORN SYRUP, TAPIOCA DEXTRIN NATURAL AND ARTIFICIAL FLAVORS, ARTIFICIAL COLORS RED #3. RED #40, YELLOW #5, BLUE 2), SALT, CONFECTIONERS GLAZE" Date available: 08/20/2017 Date last updated by company: 08/20/2017
