Source: USDA Branded Food Products Database Release December 2017 Software v.3.8.6.4 2017-10-02
Report Run at: December 17, 2017 02:33 EST
"Nutrient data for: 45143520, DUBBLE BUBBLE, BUBBLE GUM BALLS, ASSORTED FRUIT, UPC: 059642133461"
Food Group:  Branded Food Products Database
Common Name:

Nutrient,Unit,Data points,Std. Error,"1 PIECE = 2.0g",1Value per 100 g,
Proximates
"Energy",kcal,--,--,10,500
"Protein",g,--,--,0.00,0.00
"Total lipid (fat)",g,--,--,0.00,0.00
"Carbohydrate, by difference",g,--,--,2.00,100.00
"Sugars, total",g,--,--,2.00,100.00
Minerals
"Sodium, Na",mg,--,--,0,0
Vitamins
Lipids
Amino Acids
Other
Ingredients
"SUGAR, DEXTROSE, CORN SYRUP (GLUCOSE), GUM BASE, GUM ARABIC, TAPIOCA DEXTRIN, TITANIUM DIOXIDE, CONFECTIONERS GLAZE, CARNAUBA WAX, ARTIFICIAL FLAVORS, ARTIFICIAL COLORS (FD&C RED 40, BLUE 1, YELLOW 5, YELLOW 6, RED 3), CORN STARCH, BHT (TO MAINTAIN FRESHNESS)." Date available: 07/14/2017 Date last updated by company: 07/14/2017
