Source: USDA Branded Food Products Database Release December 2017 Software v.3.8.6.4 2017-10-02
Report Run at: December 17, 2017 02:36 EST
"Nutrient data for: 45328078, DUFFLET, SAMLL INDULGENCES PETITES, AMIGOS WINTER WONDERLAND CHOCOLATES, UPC: 625252007043"
Food Group:  Branded Food Products Database
Common Name:

Nutrient,Unit,Data points,Std. Error,"1.1 ONZ = 30.0g",1Value per 100 g,
Proximates
"Energy",kcal,--,--,160,533
"Protein",g,--,--,2.00,6.67
"Total lipid (fat)",g,--,--,10.00,33.33
"Carbohydrate, by difference",g,--,--,16.00,53.33
"Fiber, total dietary",g,--,--,1.0,3.3
"Sugars, total",g,--,--,15.00,50.00
Minerals
"Calcium, Ca",mg,--,--,40,133
"Iron, Fe",mg,--,--,1.80,6.00
"Sodium, Na",mg,--,--,20,67
Vitamins
"Vitamin C, total ascorbic acid",mg,--,--,0.0,0.0
"Vitamin A, IU",IU,--,--,0,0
Lipids
"Fatty acids, total saturated",g,--,--,6.999,23.330
"Cholesterol",mg,--,--,5,17
Amino Acids
Other
Ingredients
"WHITE CHOCOLATE (SUGAR COCOA BUTTER, WHOLE MILK POWDER, SOY LECITHIN NATURAL VANILLA), MILK CHOCOLATE (SUGAR, WHOLE CREAM MILK POWDER, COCOA BUTTER, COCOA MASS, SOY LECITHIN, NATURAL VANILLA), DARK CHOCOLATE (COCOA MASS, SUGAR, COCOA BUTTER, SOY LECITHIN, NATURAL VANILLA)" Date available: 10/04/2017 Date last updated by company: 10/04/2017
