Source: USDA Branded Food Products Database Release December 2017 Software v.3.8.6.4 2017-10-02
Report Run at: December 17, 2017 02:38 EST
"Nutrient data for: 45158418, DULCHE PRADERA, COOKIE, UPC: 797884259180"
Food Group:  Branded Food Products Database
Common Name:

Nutrient,Unit,Data points,Std. Error,"1 PIECE = 113.0g",1Value per 100 g,
Proximates
"Energy",kcal,--,--,530,469
"Protein",g,--,--,6.99,6.19
"Total lipid (fat)",g,--,--,29.00,25.66
"Carbohydrate, by difference",g,--,--,61.00,53.98
"Fiber, total dietary",g,--,--,1.0,0.9
"Sugars, total",g,--,--,25.00,22.12
Minerals
"Calcium, Ca",mg,--,--,40,35
"Iron, Fe",mg,--,--,0.32,0.28
"Sodium, Na",mg,--,--,280,248
Vitamins
"Vitamin C, total ascorbic acid",mg,--,--,0.0,0.0
"Vitamin A, IU",IU,--,--,0,0
Lipids
"Fatty acids, total saturated",g,--,--,14.001,12.390
"Fatty acids, total trans",g,--,--,0.000,0.000
"Cholesterol",mg,--,--,31,27
Amino Acids
Other
Ingredients
"FLOUR (WHEAT FLOUR, MALTED BARLEY FLOUR), EGGS, PALM SHORTENING (REFINED BLEACH & DEODORIZED PALM OIL), SUGAR, EGGS, NONFAT DRY MILK POWDER, BAKING POWDER (SODIUM ACID PYROPHOSPHATE, SODIUM BICARBONATE, CORNSTARCH, MONOCALCIUM PHOSPHATE), VANILLA POWDER, STRAWBERRY FILLING (CORN SYRUP, WATER, STRAWBERRIES, MODIFIED FOOD STARCH, NATURAL & ARTIFICIAL FLAVOR, CITRIC ACID, PHOSPHORIC ACID, SALT, SODIUM BENZOATE, POTASSIUM SORBATE, RED #40, BLUE #1), CALCIUM PROPIONATE (PRESERVATIVE)." Date available: 07/14/2017 Date last updated by company: 07/14/2017
