Source: USDA Branded Food Products Database Release December 2017 Software v.3.8.6.4 2017-10-02
Report Run at: December 17, 2017 02:40 EST
"Nutrient data for: 45122338, DUNCAN HINES, COMSTOCK, BERRY PATCH STRAWBERRY PIE FILLING & TOPPING, ORIGINAL, UPC: 041255430945"
Food Group:  Branded Food Products Database
Common Name:

Nutrient,Unit,Data points,Std. Error,"0.33 cup = 89.0g",1Value per 100 g,
Proximates
"Energy",kcal,--,--,100,112
"Protein",g,--,--,0.00,0.00
"Total lipid (fat)",g,--,--,0.00,0.00
"Carbohydrate, by difference",g,--,--,25.00,28.09
"Fiber, total dietary",g,--,--,0.0,0.0
"Sugars, total",g,--,--,10.00,11.24
Minerals
"Calcium, Ca",mg,--,--,0,0
"Iron, Fe",mg,--,--,0.00,0.00
"Sodium, Na",mg,--,--,20,22
Vitamins
"Vitamin C, total ascorbic acid",mg,--,--,0.0,0.0
"Vitamin A, IU",IU,--,--,0,0
Lipids
"Fatty acids, total saturated",g,--,--,0.000,0.000
"Fatty acids, total trans",g,--,--,0.000,0.000
"Cholesterol",mg,--,--,0,0
Amino Acids
Other
Ingredients
"STRAWBERRIES, WATER, LIQUID SUGAR (NATURAL SUGAR, WATER), FOOD STARCH-MODIFIED, CITRIC ACID, ARTIFICIAL COLOR (RED 40)." Date available: 07/14/2017 Date last updated by company: 07/14/2017
