Source: USDA Branded Food Products Database Release December 2017 Software v.3.8.6.4 2017-10-02
Report Run at: December 17, 2017 02:43 EST
"Nutrient data for: 45122476, DUNCAN HINES, SIGNATURE CAKE MIX, GERMAN CHOCOLATE, UPC: 644209411603"
Food Group:  Branded Food Products Database
Common Name:

Nutrient,Unit,Data points,Std. Error,"0.083 PACKAGE = 39.0g",1Value per 100 g,
Proximates
"Energy",kcal,--,--,160,410
"Protein",g,--,--,1.00,2.56
"Total lipid (fat)",g,--,--,4.00,10.26
"Carbohydrate, by difference",g,--,--,30.00,76.92
"Sugars, total",g,--,--,18.00,46.15
Minerals
"Calcium, Ca",mg,--,--,60,154
"Iron, Fe",mg,--,--,1.85,4.74
"Sodium, Na",mg,--,--,380,974
Vitamins
"Vitamin C, total ascorbic acid",mg,--,--,0.0,0.0
"Vitamin A, IU",IU,--,--,0,0
Lipids
"Fatty acids, total saturated",g,--,--,1.502,3.850
"Fatty acids, total monounsaturated",g,--,--,0.998,2.560
"Fatty acids, total polyunsaturated",g,--,--,0.998,2.560
"Fatty acids, total trans",g,--,--,0.000,0.000
"Cholesterol",mg,--,--,0,0
Amino Acids
Other
Ingredients
"SUGAR, ENRICHED BLEACHED WHEAT FLOUR (FLOUR, NIACIN, BLENDED IRON, THIAMINE MONONITRATE, RIBOFLAVIN, FOLIC ACID), VEGETABLE OIL SHORTENING (PARTIALLY HYDROGENATED SOYBEAN OIL, PROPYLENE GLYCOL MONO- AND DIESTERS OF FATS, MONO- AND DIGLYCERIDES), DEXTROSE, LEAVENING (SODIUM BICARBONATE, DICALCIUM PHOSPHATE, SODIUM ALUMINIUM PHOSPHATE, MONOCALCIUM PHOSPHATE), COCOA PROCESSED WITH ALKALI. CONTAINS 2% OR LESS OF: WHEAT STARCH, SALT, CELLULOSE GUM, XANTHAN GUM." Date available: 06/25/2017 Date last updated by company: 06/25/2017
