Source: USDA Branded Food Products Database Release December 2017 Software v.3.8.6.4 2017-10-02
Report Run at: December 17, 2017 02:43 EST
"Nutrient data for: 45122108, DUNCAN HINES, SIGNATURE CAKE MIX, BANANA SUPREME, UPC: 644209410804"
Food Group:  Branded Food Products Database
Common Name:

Nutrient,Unit,Data points,Std. Error,"0.833 PACKAGE = 39.0g",1Value per 100 g,
Proximates
"Energy",kcal,--,--,160,410
"Protein",g,--,--,1.00,2.56
"Total lipid (fat)",g,--,--,3.50,8.97
"Carbohydrate, by difference",g,--,--,31.00,79.49
"Fiber, total dietary",g,--,--,0.0,0.0
"Sugars, total",g,--,--,17.00,43.59
Minerals
"Calcium, Ca",mg,--,--,80,205
"Iron, Fe",mg,--,--,1.48,3.79
"Sodium, Na",mg,--,--,250,641
Vitamins
"Vitamin C, total ascorbic acid",mg,--,--,0.0,0.0
"Vitamin A, IU",IU,--,--,0,0
Lipids
"Fatty acids, total saturated",g,--,--,0.998,2.560
"Fatty acids, total monounsaturated",g,--,--,0.998,2.560
"Fatty acids, total polyunsaturated",g,--,--,0.000,0.000
"Fatty acids, total trans",g,--,--,0.499,1.280
"Cholesterol",mg,--,--,0,0
Amino Acids
Other
Ingredients
"SUGAR, ENRICHED BLEACHED WHEAT FLOUR (FLOUR, NIACIN, REDUCED IRON, THIAMINE MONONITRATE, RIBOFLAVIN, FOLIC ACID), VEGETABLE OIL SHORTENING (PARTIALLY HYDROGENATED COTTONSEED OIL, SOY LECITHIN), LEAVENING (SODIUM BICARBONATE, DICALCIUM PHOSPHATE). CONTAINS 2% OR LESS OF: WHEAT STARCH, EMULSIFIER (PROPYLENE GLYCOL MONO- AND DIGLYCERIDES, SOY LECITHIN, CITRIC ACID TO PROTECT FLAVOR), DEHYDRATED BANANA FLAKES, SALT, DEXTROSE, PECAN MEAL, CELLULOSE GUM, ARTIFICIAL FLAVOR, XANTHAN GUM, COLORED WITH (CARAMEL COLOR, YELLOW 5 LAKE, RED 40 LAKE)." Date available: 07/14/2017 Date last updated by company: 07/14/2017
