Source: USDA Branded Food Products Database Release December 2017 Software v.3.8.6.4 2017-10-02
Report Run at: December 17, 2017 02:44 EST
"Nutrient data for: 45236259, DUNKIN' DONUTS, COFFEE CREAMER, UNSWEETENED, UPC: 041271017595"
Food Group:  Branded Food Products Database
Common Name:

Nutrient,Unit,Data points,Std. Error,"1 Tbsp = 15.0g",1Value per 100 g,
Proximates
"Energy",kcal,--,--,15,100
"Protein",g,--,--,1.00,6.67
"Total lipid (fat)",g,--,--,1.00,6.67
"Carbohydrate, by difference",g,--,--,1.00,6.67
"Fiber, total dietary",g,--,--,0.0,0.0
"Sugars, total",g,--,--,1.00,6.67
Minerals
"Calcium, Ca",mg,--,--,0,0
"Iron, Fe",mg,--,--,0.00,0.00
"Sodium, Na",mg,--,--,10,67
Vitamins
"Vitamin C, total ascorbic acid",mg,--,--,0.0,0.0
"Vitamin A, IU",IU,--,--,0,0
Lipids
"Fatty acids, total saturated",g,--,--,0.500,3.330
"Fatty acids, total monounsaturated",g,--,--,0.000,0.000
"Fatty acids, total polyunsaturated",g,--,--,0.000,0.000
"Fatty acids, total trans",g,--,--,0.000,0.000
"Cholesterol",mg,--,--,1,7
Amino Acids
Other
Ingredients
"SKIM MILK, CREAM, CONTAINS 2% OR LESS OF EACH OF THE FOLLOWING: WHEY PROTEIN, NATURAL AND ARTIFICIAL FLAVORS, COLOR ADDED, PALM OIL, DIPOTASSIUM PHOSPHATE, POTASSIUM CITRATE, CARRAGEENAN." Date available: 06/25/2017 Date last updated by company: 06/25/2017
