Source: USDA Branded Food Products Database Release December 2017 Software v.3.8.6.4 2017-10-02
Report Run at: December 17, 2017 02:45 EST
"Nutrient data for: 45164776, DURHAM'S, RAW WHOLE BRAZIL NUTS, UPC: 073042560955"
Food Group:  Branded Food Products Database
Common Name:

Nutrient,Unit,Data points,Std. Error,"1 ONZ = 28.0g",1Value per 100 g,
Proximates
"Energy",kcal,--,--,210,750
"Protein",g,--,--,4.00,14.29
"Total lipid (fat)",g,--,--,21.00,75.00
"Carbohydrate, by difference",g,--,--,3.00,10.71
"Fiber, total dietary",g,--,--,2.0,7.1
"Sugars, total",g,--,--,1.00,3.57
Minerals
"Calcium, Ca",mg,--,--,60,214
"Iron, Fe",mg,--,--,3.21,11.48
"Sodium, Na",mg,--,--,0,0
Vitamins
"Vitamin C, total ascorbic acid",mg,--,--,0.0,0.0
"Vitamin A, IU",IU,--,--,0,0
Lipids
"Fatty acids, total saturated",g,--,--,2.500,8.930
"Fatty acids, total trans",g,--,--,0.000,0.000
"Cholesterol",mg,--,--,0,0
Amino Acids
Other
Ingredients
"RAW BRAZIL NUTS." Date available: 07/14/2017 Date last updated by company: 07/14/2017
