Source: USDA Branded Food Products Database Release December 2017 Software v.3.8.6.4 2017-10-02
Report Run at: December 17, 2017 02:49 EST
"Nutrient data for: 45162221, DUTCH VALLEY FOOD, SNOWFLAKE PRETZELS, UPC: 877245517910"
Food Group:  Branded Food Products Database
Common Name:

Nutrient,Unit,Data points,Std. Error,"40.0 GRM = 40.0g",1Value per 100 g,
Proximates
"Energy",kcal,--,--,200,500
"Protein",g,--,--,2.00,5.00
"Total lipid (fat)",g,--,--,10.00,25.00
"Carbohydrate, by difference",g,--,--,27.00,67.50
"Sugars, total",g,--,--,17.00,42.50
Minerals
"Sodium, Na",mg,--,--,160,400
Vitamins
Lipids
"Fatty acids, total trans",g,--,--,0.000,0.000
Amino Acids
Other
Ingredients
"YOGURT COATING (SUGAR, PARTIALLY HYDROGENATED PALM KERNEL OIL, NONFAT MILK POWDER, WHOLE MILK POWDER, YOGURT POWDER (CULTURED WHEY AND NONFAT MILK), LACTIC ACID, SOY LECITHIN (AN EMULSIFIER), VANILLIN (ARTIFICIAL FLAVOR), AND SOUR CREAM FLAVOR), PRETZELS (WHEAT, FLOUR, CORN SYRUP, SALT, VEGETABLE OIL (MAY CONTAIN ONE OR MORE OF THE FOLLOWING: CORN, CANOLA, COTTONSEED, SOYBEAN), VITAL WHEAT GLUTEN, SODIUM BICARBONATE, AND YEAST), SPRINKLES (SUGAR, ARTIFICIAL COLOR, CONFECTIONER'S GLAZE, CORN SYRUP, GUM ARABIC, CARNAUBA WAX, FD&C YELLOW 6 LAKE, FD&C BLUE 2 LAKE, HYDROXYLATED SOY LECITHIN, FD&C RED 40 LAKE" Date available: 10/13/2017 Date last updated by company: 10/13/2017
