Source: USDA Branded Food Products Database Release December 2017 Software v.3.8.6.4 2017-10-02
Report Run at: December 17, 2017 02:50 EST
"Nutrient data for: 45331179, DYNAMITE WHITE ORGANIC BREAD, UPC: 079893413822"
Food Group:  Branded Food Products Database
Common Name:

Nutrient,Unit,Data points,Std. Error,"1 SLICE = 43.0g",1Value per 100 g,
Proximates
"Energy",kcal,--,--,110,256
"Protein",g,--,--,5.00,11.63
"Total lipid (fat)",g,--,--,1.00,2.33
"Carbohydrate, by difference",g,--,--,21.00,48.84
"Fiber, total dietary",g,--,--,3.0,7.0
"Sugars, total",g,--,--,3.00,6.98
Minerals
"Calcium, Ca",mg,--,--,11,26
"Iron, Fe",mg,--,--,1.00,2.33
"Potassium, K",mg,--,--,112,260
"Sodium, Na",mg,--,--,160,372
Vitamins
"Vitamin D",IU,--,--,0,0
Lipids
"Fatty acids, total saturated",g,--,--,0.000,0.000
"Fatty acids, total trans",g,--,--,0.000,0.000
"Cholesterol",mg,--,--,0,0
Amino Acids
Other
Ingredients
"ORGANIC WHEAT FLOUR, ORGANIC WHOLE WHEAT FLOUR, ORGANIC CRACKED WHEAT, WATER, ORGANIC GRAINS BLEND (ORGANIC SPELT FLOUR, ORGANIC BARLEY FLOUR, ORGANIC RYE FLOUR, ORGANIC MILLET FLOUR, ORGANIC QUINOA FLOUR), ORGANIC SUGAR, ORGANIC WHEAT GLUTEN, YEAST, CONTAINS 2% OR LESS OF: SEA SALT, ORGANIC SUNFLOWER OIL, ORGANIC VINEGAR, CULTURES, CULTURED ORGANIC WHEAT FLOUR, ASCORBIC ACID, ENZYMES." Date available: 10/13/2017 Date last updated by company: 10/13/2017
