Source: USDA Branded Food Products Database Release December 2017 Software v.3.8.6.4 2017-10-02
Report Run at: December 17, 2017 02:50 EST
"Nutrient data for: 45063004, DYNAMITE HOT CHILI WITH BEANS, UPC: 071106720147"
Food Group:  Branded Food Products Database
Common Name:

Nutrient,Unit,Data points,Std. Error,"1 cup = 247.0g",1Value per 100 g,
Proximates
"Energy",kcal,--,--,321,130
"Protein",g,--,--,16.01,6.48
"Total lipid (fat)",g,--,--,14.99,6.07
"Carbohydrate, by difference",g,--,--,30.01,12.15
"Fiber, total dietary",g,--,--,5.9,2.4
"Sugars, total",g,--,--,8.00,3.24
Minerals
"Calcium, Ca",mg,--,--,59,24
"Iron, Fe",mg,--,--,1.90,0.77
"Sodium, Na",mg,--,--,919,372
Vitamins
"Vitamin C, total ascorbic acid",mg,--,--,0.0,0.0
"Vitamin A, IU",IU,--,--,529,214
Lipids
"Fatty acids, total saturated",g,--,--,6.002,2.430
"Fatty acids, total trans",g,--,--,0.494,0.200
"Cholesterol",mg,--,--,35,14
Amino Acids
Other
Ingredients
"WATER, BEEF, TOMATOES IN JUICE (CONTAINS CALCIUM CHLORIDE, CITRIC ACID), PORK, KIDNEY BEANS, PINK BEANS, TOMATO PASTE, DEHYDRATED ONIONS, CHILI SEASONING (SPICES, SUGAR, SALT, FLAVORING, PAPRIKA), CONTAINS 2% OR LESS OF JALAPENO PEPPERS (CONTAINS VINEGAR, SALT, ACETIC ACID), TEXTURED VEGETABLE PROTEIN (SOY FLOUR, CARAMEL COLOR), MODIFIED CORNSTARCH, FLAVORING, SALT, DEHYDRATED BELL PEPPERS, SPICES, CHILE DE ARBOL FLAVOR (SOYBEAN OIL, PAPRIKA, NATURAL FLAVOR), ERYTHORBIC ACID, DEHYDRATED HABANERO PEPPERS." Date available: 07/14/2017 Date last updated by company: 07/14/2017
