Source: USDA Branded Food Products Database Release December 2017 Software v.3.8.6.4 2017-10-02
Report Run at: December 17, 2017 02:52 EST
"Nutrient data for: 45037522, EARNEST EATS, HOT & FIT CEREAL, BLUEBERRY CHIA, UPC: 891048002145"
Food Group:  Branded Food Products Database
Common Name:

Nutrient,Unit,Data points,Std. Error,"1 cup = 67.0g",1Value per 100 g,
Proximates
"Energy",kcal,--,--,260,388
"Protein",g,--,--,7.00,10.45
"Total lipid (fat)",g,--,--,5.00,7.46
"Carbohydrate, by difference",g,--,--,47.00,70.15
"Fiber, total dietary",g,--,--,6.0,9.0
"Sugars, total",g,--,--,16.00,23.88
Minerals
"Calcium, Ca",mg,--,--,60,90
"Iron, Fe",mg,--,--,1.61,2.41
"Sodium, Na",mg,--,--,140,209
Vitamins
"Vitamin C, total ascorbic acid",mg,--,--,0.7,1.1
"Vitamin A, IU",IU,--,--,0,0
Lipids
"Fatty acids, total saturated",g,--,--,0.502,0.750
"Fatty acids, total trans",g,--,--,0.000,0.000
"Cholesterol",mg,--,--,0,0
Amino Acids
Other
Ingredients
"SUPERFOOD GRAINS (WHOLE GRAIN OATS, QUINOA, PUFFED AMARANTH), CANE SUGAR, DRIED BLUEBERRIES (BLUEBERRIES, CANE SUGAR, SUNFLOWER OIL), SUNFLOWER SEEDS, CHIA SEEDS, KORINTJE CINNAMON, SEA SALT." Date available: 06/24/2017 Date last updated by company: 06/24/2017
