Source: USDA Branded Food Products Database Release December 2017 Software v.3.8.6.4 2017-10-02
Report Run at: December 17, 2017 02:52 EST
"Nutrient data for: 45029288, EARNEST EATS, ASIA BLEND SUPERFOOD HOT CEREAL, UPC: 891048001810"
Food Group:  Branded Food Products Database
Common Name:

Nutrient,Unit,Data points,Std. Error,"0.5 cup = 42.0g",1Value per 100 g,
Proximates
"Energy",kcal,--,--,180,429
"Protein",g,--,--,6.00,14.29
"Total lipid (fat)",g,--,--,6.00,14.29
"Carbohydrate, by difference",g,--,--,26.00,61.90
"Fiber, total dietary",g,--,--,5.0,11.9
"Sugars, total",g,--,--,2.00,4.76
Minerals
"Calcium, Ca",mg,--,--,60,143
"Iron, Fe",mg,--,--,2.57,6.12
"Sodium, Na",mg,--,--,55,131
Vitamins
"Vitamin C, total ascorbic acid",mg,--,--,1.1,2.7
"Vitamin A, IU",IU,--,--,0,0
Lipids
"Fatty acids, total saturated",g,--,--,1.000,2.380
"Fatty acids, total trans",g,--,--,0.000,0.000
"Cholesterol",mg,--,--,0,0
Amino Acids
Other
Ingredients
"SUPERFOOD GRAINS (WHOLE ROLLED OATS, QUINOA, PUFFED AMARANTH), RAW CHOPPED ALMONDS, CHOPPED DRIED MANGO (MANGO, CANE SUGAR), RAW SESAME SEEDS, RAW SUNFLOWER SEEDS, RAW FLAX SEEDS, MATCHA GREEN TEA, KORINTJE CINNAMON, SEA SALT." Date available: 06/24/2017 Date last updated by company: 06/24/2017
