Source: USDA Branded Food Products Database Release December 2017 Software v.3.8.6.4 2017-10-02
Report Run at: December 17, 2017 02:54 EST
"Nutrient data for: 45109984, EARTHBOUND FARM, ORGANIC BLACKBERRIES, UPC: 032601025366"
Food Group:  Branded Food Products Database
Common Name:

Nutrient,Unit,Data points,Std. Error,"1 cup = 140.0g",1Value per 100 g,
Proximates
"Energy",kcal,--,--,90,64
"Protein",g,--,--,2.00,1.43
"Total lipid (fat)",g,--,--,0.50,0.36
"Carbohydrate, by difference",g,--,--,21.99,15.71
"Fiber, total dietary",g,--,--,7.0,5.0
"Sugars, total",g,--,--,14.99,10.71
Minerals
"Calcium, Ca",mg,--,--,41,29
"Iron, Fe",mg,--,--,1.08,0.77
"Sodium, Na",mg,--,--,0,0
Vitamins
"Vitamin C, total ascorbic acid",mg,--,--,4.8,3.4
"Vitamin A, IU",IU,--,--,200,143
Lipids
"Fatty acids, total saturated",g,--,--,0.000,0.000
"Fatty acids, total trans",g,--,--,0.000,0.000
"Cholesterol",mg,--,--,0,0
Amino Acids
Other
Ingredients
"ORGANIC BLACKBERRIES" Date available: 07/14/2017 Date last updated by company: 07/14/2017
