Source: USDA Branded Food Products Database Release December 2017 Software v.3.8.6.4 2017-10-02
Report Run at: December 17, 2017 02:54 EST
"Nutrient data for: 45327441, EARTHBOUND FARM, ORGANIC JUICE, CARROT, UPC: 032601070106"
Food Group:  Branded Food Products Database
Common Name:

Nutrient,Unit,Data points,Std. Error,"8.0 OZA = 240.0g",1Value per 100 g,
Proximates
"Energy",kcal,--,--,70,29
"Protein",g,--,--,1.99,0.83
"Total lipid (fat)",g,--,--,0.00,0.00
"Carbohydrate, by difference",g,--,--,13.99,5.83
"Fiber, total dietary",g,--,--,1.0,0.4
"Sugars, total",g,--,--,13.99,5.83
Minerals
"Calcium, Ca",mg,--,--,41,17
"Iron, Fe",mg,--,--,0.36,0.15
"Potassium, K",mg,--,--,310,129
"Sodium, Na",mg,--,--,149,62
Vitamins
"Vitamin C, total ascorbic acid",mg,--,--,14.9,6.2
"Vitamin A, IU",IU,--,--,34999,14583
Lipids
"Fatty acids, total saturated",g,--,--,0.000,0.000
"Fatty acids, total trans",g,--,--,0.000,0.000
"Cholesterol",mg,--,--,0,0
Amino Acids
Other
Ingredients
"ORGANIC CARROT JUICE." Date available: 07/06/2017 Date last updated by company: 07/06/2017
