Source: USDA Branded Food Products Database Release December 2017 Software v.3.8.6.4 2017-10-02
Report Run at: December 17, 2017 02:53 EST
"Nutrient data for: 45141291, EARTHBOUND FARM, ORGANIC BABY SPINACH, BABY BUTTER LETTUCE, UPC: 032601951030"
Food Group:  Branded Food Products Database
Common Name:

Nutrient,Unit,Data points,Std. Error,"2.0 CUPS = 85.0g",1Value per 100 g,
Proximates
"Energy",kcal,--,--,20,24
"Protein",g,--,--,2.00,2.35
"Total lipid (fat)",g,--,--,0.00,0.00
"Carbohydrate, by difference",g,--,--,3.00,3.53
"Fiber, total dietary",g,--,--,2.0,2.4
"Sugars, total",g,--,--,0.00,0.00
Minerals
"Calcium, Ca",mg,--,--,80,94
"Iron, Fe",mg,--,--,4.50,5.29
"Potassium, K",mg,--,--,400,471
"Sodium, Na",mg,--,--,55,65
Vitamins
"Vitamin C, total ascorbic acid",mg,--,--,24.0,28.2
"Vitamin A, IU",IU,--,--,5500,6471
Lipids
"Fatty acids, total saturated",g,--,--,0.000,0.000
"Fatty acids, total trans",g,--,--,0.000,0.000
"Cholesterol",mg,--,--,0,0
Amino Acids
Other
Ingredients
"ORGANIC BABY SPINACH, ORGANIC BABY BUTTER LETTUCE." Date available: 07/14/2017 Date last updated by company: 07/14/2017
