Source: USDA Branded Food Products Database Release December 2017 Software v.3.8.6.4 2017-10-02
Report Run at: December 17, 2017 03:55 EST
"Nutrient data for: 45325556, EAT-IT-RAW COOKIE DOUGH, UPC: 815844020073"
Food Group:  Branded Food Products Database
Common Name:

Nutrient,Unit,Data points,Std. Error,"1 COOKIE = 34.0g",1Value per 100 g,
Proximates
"Energy",kcal,--,--,140,412
"Protein",g,--,--,1.00,2.94
"Total lipid (fat)",g,--,--,6.00,17.65
"Carbohydrate, by difference",g,--,--,21.00,61.76
"Fiber, total dietary",g,--,--,0.0,0.0
"Sugars, total",g,--,--,10.00,29.41
Minerals
"Calcium, Ca",mg,--,--,0,0
"Iron, Fe",mg,--,--,0.42,1.24
"Sodium, Na",mg,--,--,160,471
Vitamins
"Vitamin C, total ascorbic acid",mg,--,--,0.0,0.0
"Vitamin A, IU",IU,--,--,0,0
Lipids
"Fatty acids, total saturated",g,--,--,2.499,7.350
"Fatty acids, total trans",g,--,--,0.000,0.000
"Cholesterol",mg,--,--,0,0
Amino Acids
Other
Ingredients
"WHEAT FLOUR, SUGAR, WATER, PALM SHORTENING (PALM OIL, PALM OLEIN OIL), SPRINKLES [SUGAR, WHEAT FLOUR, WHEAT STARCH, SUNFLOWER OIL, DEXTROSE, FRUIT AND VEGETABLE JUICE (COLOR)], PALM OIL, INVERT SUGAR, EXPELLER-PRESSED CANOLA OIL, CONTAINS LESS THAN 2% OF BAKING POWDER (SODIUM ACID PYROPHOSPHATE, SODIUM BICARBONATE, CORN STARCH, MONOCALCIUM PHOSPHATE), BAKING SODA, NATURAL FLAVORS, OAT BRAN, OAT HULL FIBER, SALT, SODIUM ALGINATE, SORGHUM FLOUR, SOY LECITHIN (EMULSIFIER), WHEAT STARCH, XANTHAN GUM." Date available: 10/13/2017 Date last updated by company: 10/13/2017
