Source: USDA Branded Food Products Database Release December 2017 Software v.3.8.6.4 2017-10-02
Report Run at: December 17, 2017 03:56 EST
"Nutrient data for: 45180062, EAT SMART, HELPER TRAY, UPC: 709351301179"
Food Group:  Branded Food Products Database
Common Name:

Nutrient,Unit,Data points,Std. Error,"3.0 ONZ = 85.0g",1Value per 100 g,
Proximates
"Energy",kcal,--,--,160,188
"Protein",g,--,--,4.00,4.71
"Total lipid (fat)",g,--,--,10.00,11.76
"Carbohydrate, by difference",g,--,--,12.00,14.12
"Fiber, total dietary",g,--,--,1.0,1.2
"Sugars, total",g,--,--,6.00,7.06
Minerals
"Calcium, Ca",mg,--,--,100,118
"Iron, Fe",mg,--,--,0.42,0.50
"Sodium, Na",mg,--,--,310,365
Vitamins
"Vitamin C, total ascorbic acid",mg,--,--,14.1,16.6
"Vitamin A, IU",IU,--,--,1765,2076
Lipids
"Fatty acids, total saturated",g,--,--,3.502,4.120
"Fatty acids, total trans",g,--,--,0.000,0.000
"Cholesterol",mg,--,--,15,18
Amino Acids
Other
Ingredients
"VEGETABLES: CARROTS, GRAPE TOMATOES, BROCCOLI. APPLE SLICES: APPLES AND CALCIUM ASCORBATE (A BLEND OF CALCIUM AND VITAMIN C TO MAINTAIN FRESHNESS AND COLOR.) CHEESE BLEND: LOW MOISTURE PART-SKIM MOZZARELLA CHEESE (PASTEURIZED MILK, CHEESE CULTURE, SALT, ENZYMES), CHEDDAR CHEESE [PASTEURIZED MILK, CHEESE CULTURE, SALT, ENZYMES, ANNATTO (VEGETABLE COLOR)], POWDERED CELLULOSE (TO PREVENT CAKING), NATAMYCIN (A NATURAL MOLD INHIBITOR). YOGURT FLAVORED PRETZELS: SUGAR, ENRICHED WHEAT FLOUR (WHEAT FLOUR, NIACIN, REDUCED IRON, THIAMIN MONONITRATE, RIBOFLAVIN, FOLIC ACID), VEGETABLE OIL (PALM KERNEL, PARTIALLY HYDROGENATED PALM KERNEL AND COCONUT, HYDROGENATED PALM), SKIM MILK, YOGURT POWDER (CULTURED WHEY SOLIDS, NONFAT MILK SOLIDS, YOGURT CULTURES), LACTOSE, SALT, LACTIC ACID, CORN SYRUP, TITANIUM DIOXIDE (FOR COLOR), SODIUM BICARBONATE, YEAST, DISTILLED MONOGLYCERIDE, SOY LECITHIN (AN EMULSIFIER), VANILLIN (ARTIFICIAL FLAVOR). RANCH DIP: CULTURED BUTTERMILK, CANOLA OIL, WATER, SOUR CREAM PRODUCT (CULTURED MILK, CREAM, WHEY, SKIM MILK POWDER, MODIFIED CORN STARCH, MALTODEXTRIN, SODIUM PHOSPHATE, SODIUM CITRATE, GUAR GUM, CARRAGEENAN, CALCIUM SULPHATE LOCUST BEAN GUM, ENZYMES), SUGAR, EGG YOLK, VINEGAR, MALTODEXTRIN, SALT, MODIFIED CORN STARCH, DRIED CARROTS, DRIED ONION, CIDER VINEGAR, NATURAL FLAVORS, GARLIC, DRIED GARLIC, XANTHAN GUM, SPICE, DRIED GREEN ONION, ARTIFICIAL COLOR." Date available: 07/14/2017 Date last updated by company: 07/14/2017
