Source: USDA Branded Food Products Database Release December 2017 Software v.3.8.6.4 2017-10-02
Report Run at: December 17, 2017 03:55 EST
"Nutrient data for: 45141985, EAT!, LA VIDA TOMATILLO CHICKEN, UPC: 717854128001"
Food Group:  Branded Food Products Database
Common Name:

Nutrient,Unit,Data points,Std. Error,"1 PACKAGE = 269.0g",1Value per 100 g,
Proximates
"Energy",kcal,--,--,239,89
"Protein",g,--,--,13.99,5.20
"Total lipid (fat)",g,--,--,4.49,1.67
"Carbohydrate, by difference",g,--,--,36.99,13.75
"Fiber, total dietary",g,--,--,4.0,1.5
"Sugars, total",g,--,--,4.01,1.49
Minerals
"Calcium, Ca",mg,--,--,59,22
"Iron, Fe",mg,--,--,1.05,0.39
"Sodium, Na",mg,--,--,449,167
Vitamins
"Vitamin C, total ascorbic acid",mg,--,--,10.8,4.0
"Vitamin A, IU",IU,--,--,363,135
Lipids
"Fatty acids, total saturated",g,--,--,1.506,0.560
"Fatty acids, total trans",g,--,--,0.000,0.000
"Cholesterol",mg,--,--,30,11
Amino Acids
Other
Ingredients
"COOKED BROWN RICE, COOKED SEASONED NATURAL* CHICKEN BREAST STRIPS WITH RIB MEAT (CHICKEN BREAST WITH RIB MEAT, WATER, SUGAR, RICE STARCH, SALT, LEMON JUICE CONCENTRATE, VINEGAR, SPICES, NATURAL FLAVORS), CRUSHED TOMATILLOS (TOMATILLOS, CITRIC ACID), RED AND GREEN BELL PEPPERS, WATER, CORN, BLACK BEANS (BLACK BEANS, WATER), ONIONS, HALF AND HALF (MILK, CREAM), LESS THAN 2% OF CILANTRO, JALAPENO PEPPERS (JALAPENO PEPPERS, WATER, VINEGAR, SALT), MODIFIED FOOD STARCH, SEA SALT, CANOLA OIL, SUGAR, LIME JUICE CONCENTRATE, WHEAT GLUTEN." Date available: 07/14/2017 Date last updated by company: 07/14/2017
