Source: USDA Branded Food Products Database Release December 2017 Software v.3.8.6.4 2017-10-02
Report Run at: December 17, 2017 04:01 EST
"Nutrient data for: 45181896, ECKRICH, BOLOGNA, UPC: 027815220300"
Food Group:  Branded Food Products Database
Common Name:

Nutrient,Unit,Data points,Std. Error,"1 SLICE = 28.0g",1Value per 100 g,
Proximates
"Energy",kcal,--,--,70,250
"Protein",g,--,--,3.00,10.71
"Total lipid (fat)",g,--,--,6.00,21.43
"Carbohydrate, by difference",g,--,--,2.00,7.14
"Fiber, total dietary",g,--,--,0.0,0.0
"Sugars, total",g,--,--,1.00,3.57
Minerals
"Calcium, Ca",mg,--,--,20,71
"Iron, Fe",mg,--,--,0.71,2.53
"Sodium, Na",mg,--,--,300,1071
Vitamins
"Vitamin C, total ascorbic acid",mg,--,--,11.8,42.1
"Vitamin A, IU",IU,--,--,0,0
Lipids
"Fatty acids, total saturated",g,--,--,1.999,7.140
"Fatty acids, total trans",g,--,--,0.000,0.000
"Cholesterol",mg,--,--,25,89
Amino Acids
Other
Ingredients
"MECHANICALLY SEPARATED CHICKEN, PORK, WATER, CORN SYRUP, MODIFIED FOOD STARCH, DEXTROSE, SALT, CONTAINS 2% OR LESS OF BEEF, EXTRACT OF PAPRIKA, FLAVORINGS, POTASSIUM LACTATE, SODIUM DIACETATE, SODIUM LACTATE, SODIUM NITRITE, SODIUM PHOSPHATE, VITAMIN C (ASCORBIC ACID)." Date available: 07/14/2017 Date last updated by company: 07/14/2017
