Source: USDA Branded Food Products Database Release December 2017 Software v.3.8.6.4 2017-10-02
Report Run at: December 17, 2017 04:05 EST
"Nutrient data for: 45169259, ECO MEAL, WHOLE MILK RICOTTA CHEESE, UPC: 817242010496"
Food Group:  Branded Food Products Database
Common Name:

Nutrient,Unit,Data points,Std. Error,"1 PIECE = 30.0g",1Value per 100 g,
Proximates
"Energy",kcal,--,--,90,300
"Protein",g,--,--,6.00,20.00
"Total lipid (fat)",g,--,--,7.00,23.33
"Carbohydrate, by difference",g,--,--,0.00,0.00
"Fiber, total dietary",g,--,--,0.0,0.0
"Sugars, total",g,--,--,0.00,0.00
Minerals
"Calcium, Ca",mg,--,--,100,333
"Iron, Fe",mg,--,--,0.00,0.00
"Sodium, Na",mg,--,--,310,1033
Vitamins
"Vitamin C, total ascorbic acid",mg,--,--,0.0,0.0
"Vitamin A, IU",IU,--,--,367,1222
Lipids
"Fatty acids, total saturated",g,--,--,4.500,15.000
"Cholesterol",mg,--,--,15,50
Amino Acids
Other
Ingredients
"WHOLE PASTEURIZED GRADE A MILK, SALT, ENZYMES." Date available: 08/29/2017 Date last updated by company: 08/29/2017
