Source: USDA Branded Food Products Database Release December 2017 Software v.3.8.6.4 2017-10-02
Report Run at: December 17, 2017 04:24 EST
"Nutrient data for: 45084257, EDEN, ORGANIC BROWN MUSTARD, UPC: 024182002126"
Food Group:  Branded Food Products Database
Common Name:

Nutrient,Unit,Data points,Std. Error,"1 tsp = 5.2g",1Value per 100 g,
Proximates
"Energy",kcal,--,--,0,0
"Protein",g,--,--,0.00,0.00
"Total lipid (fat)",g,--,--,0.00,0.00
"Carbohydrate, by difference",g,--,--,1.00,19.23
"Sugars, total",g,--,--,0.00,0.00
Minerals
"Sodium, Na",mg,--,--,80,1538
Vitamins
Lipids
"Cholesterol",mg,--,--,0,0
Amino Acids
Other
Ingredients
"ORGANIC WHOLE MUSTARD SEED, EDEN ORGANIC APPLE CIDER VINEGAR, WATER, EDEN SEA SALT" Date available: 06/25/2017 Date last updated by company: 06/25/2017
