Source: USDA Branded Food Products Database Release December 2017 Software v.3.8.6.4 2017-10-02
Report Run at: December 17, 2017 04:20 EST
"Nutrient data for: 45167169, EDEN, ORGANIC SPROUTED BROWN RICE - MOCHI, UPC: 024182021301"
Food Group:  Branded Food Products Database
Common Name:

Nutrient,Unit,Data points,Std. Error,"1 SQUARE = 50.0g",1Value per 100 g,
Proximates
"Energy",kcal,--,--,110,220
"Protein",g,--,--,2.00,4.00
"Total lipid (fat)",g,--,--,1.00,2.00
"Carbohydrate, by difference",g,--,--,25.00,50.00
"Fiber, total dietary",g,--,--,1.0,2.0
"Sugars, total",g,--,--,0.00,0.00
Minerals
"Calcium, Ca",mg,--,--,0,0
"Iron, Fe",mg,--,--,0.36,0.72
"Magnesium, Mg",mg,--,--,40,80
"Phosphorus, P",mg,--,--,80,160
"Potassium, K",mg,--,--,65,130
"Sodium, Na",mg,--,--,0,0
"Zinc, Zn",mg,--,--,0.60,1.20
"Manganese, Mn",mg,--,--,1.000,2.000
Vitamins
"Vitamin C, total ascorbic acid",mg,--,--,0.0,0.0
"Thiamin",mg,--,--,0.000,0.000
"Niacin",mg,--,--,1.600,3.200
"Vitamin A, IU",IU,--,--,0,0
Lipids
"Fatty acids, total saturated",g,--,--,0.000,0.000
"Fatty acids, total trans",g,--,--,0.000,0.000
"Cholesterol",mg,--,--,0,0
Amino Acids
Other
Ingredients
"ORGANIC SWEET BROWN RICE ORYZA GLUTINOSA" Date available: 07/14/2017 Date last updated by company: 07/14/2017
