Source: USDA Branded Food Products Database Release December 2017 Software v.3.8.6.4 2017-10-02
Report Run at: December 17, 2017 04:26 EST
"Nutrient data for: 45144944, EDIBLE CHUNKS OF CHOCOLATE IN A CANDY SHELL, UPC: 679224424208"
Food Group:  Branded Food Products Database
Common Name:

Nutrient,Unit,Data points,Std. Error,"1.41 ONZ = 40.0g",1Value per 100 g,
Proximates
"Energy",kcal,--,--,200,500
"Protein",g,--,--,1.00,2.50
"Total lipid (fat)",g,--,--,11.00,27.50
"Carbohydrate, by difference",g,--,--,26.00,65.00
"Fiber, total dietary",g,--,--,1.0,2.5
"Sugars, total",g,--,--,25.00,62.50
Minerals
"Calcium, Ca",mg,--,--,40,100
"Iron, Fe",mg,--,--,0.00,0.00
"Sodium, Na",mg,--,--,15,38
Vitamins
"Vitamin C, total ascorbic acid",mg,--,--,0.0,0.0
"Vitamin A, IU",IU,--,--,0,0
Lipids
"Fatty acids, total saturated",g,--,--,7.000,17.500
"Fatty acids, total trans",g,--,--,0.000,0.000
"Cholesterol",mg,--,--,5,12
Amino Acids
Other
Ingredients
"COMPOUND CHOCOLATE (SUGAR, HYDROGENATED PALM KERNEL OIL, LACTOSE, COCOA POWDER, REDUCED MINERAL WHEY POWDER, NONFAT MILK POWDER, SOY LECITHIN (AN EMULSIFIER), VANILLIN (AN ARTIFICIAL FLAVOR) AND ARTIFICIAL FLAVORS, SUGAR, TITANIUM DIOXIDE (FOOD GRADE), GUM ARABIC, TAPIOCA DEXTRIN, CARNAUBA WAX, FD&C YELLOW #5, FD&C YELLOW #6, FD&C RED #40, FD&C BLUE #1" Date available: 07/14/2017 Date last updated by company: 07/14/2017
