Source: USDA Branded Food Products Database Release December 2017 Software v.3.8.6.4 2017-10-02
Report Run at: December 17, 2017 04:37 EST
"Nutrient data for: 45177319, EGG WHITE PATTIES, UPC: 080618412044"
Food Group:  Branded Food Products Database
Common Name:

Nutrient,Unit,Data points,Std. Error,"1 PATTY = 57.0g",1Value per 100 g,
Proximates
"Energy",kcal,--,--,35,61
"Protein",g,--,--,6.00,10.53
"Total lipid (fat)",g,--,--,0.00,0.00
"Carbohydrate, by difference",g,--,--,2.00,3.51
"Fiber, total dietary",g,--,--,0.0,0.0
"Sugars, total",g,--,--,1.00,1.75
Minerals
"Calcium, Ca",mg,--,--,20,35
"Iron, Fe",mg,--,--,0.00,0.00
"Sodium, Na",mg,--,--,140,246
Vitamins
"Vitamin C, total ascorbic acid",mg,--,--,0.0,0.0
"Vitamin A, IU",IU,--,--,0,0
Lipids
"Fatty acids, total saturated",g,--,--,0.000,0.000
"Fatty acids, total trans",g,--,--,0.000,0.000
"Cholesterol",mg,--,--,0,0
Amino Acids
Other
Ingredients
"CAGE FREE EGG WHITES, WHOLE MILK, NON-GMO CORN STARCH, SEA SALT, PEPPER." Date available: 07/14/2017 Date last updated by company: 07/14/2017
