Source: USDA Branded Food Products Database Release December 2017 Software v.3.8.6.4 2017-10-02
Report Run at: December 17, 2017 04:33 EST
"Nutrient data for: 45192642, EGG PAPPARDELLE, MACARONI PRODUCT, UPC: 813120020038"
Food Group:  Branded Food Products Database
Common Name:

Nutrient,Unit,Data points,Std. Error,"2.0 ONZ = 56.0g",1Value per 100 g,
Proximates
"Energy",kcal,--,--,220,393
"Protein",g,--,--,8.00,14.29
"Total lipid (fat)",g,--,--,3.00,5.36
"Carbohydrate, by difference",g,--,--,40.00,71.43
"Fiber, total dietary",g,--,--,2.0,3.6
"Sugars, total",g,--,--,2.00,3.57
Minerals
"Calcium, Ca",mg,--,--,0,0
"Iron, Fe",mg,--,--,0.23,0.41
"Sodium, Na",mg,--,--,15,27
Vitamins
"Vitamin C, total ascorbic acid",mg,--,--,0.0,0.0
"Vitamin A, IU",IU,--,--,0,0
Lipids
"Fatty acids, total saturated",g,--,--,1.002,1.790
"Fatty acids, total trans",g,--,--,0.000,0.000
"Cholesterol",mg,--,--,55,98
Amino Acids
Other
Ingredients
"DURUM WHEAT SEMOLINA, WATER AND PASTEURIZED FRESH EGGS 20%." Date available: 07/14/2017 Date last updated by company: 07/14/2017
