Source: USDA Branded Food Products Database Release December 2017 Software v.3.8.6.4 2017-10-02
Report Run at: December 17, 2017 04:35 EST
"Nutrient data for: 45287652, EGG SALAD, UPC: 046567682877"
Food Group:  Branded Food Products Database
Common Name:

Nutrient,Unit,Data points,Std. Error,"3.5 ONZ = 100.0g",1Value per 100 g,
Proximates
"Energy",kcal,--,--,200,200
"Protein",g,--,--,9.00,9.00
"Total lipid (fat)",g,--,--,20.00,20.00
"Carbohydrate, by difference",g,--,--,3.00,3.00
"Fiber, total dietary",g,--,--,0.0,0.0
"Sugars, total",g,--,--,0.00,0.00
Minerals
"Calcium, Ca",mg,--,--,60,60
"Iron, Fe",mg,--,--,1.08,1.08
"Sodium, Na",mg,--,--,390,390
Vitamins
"Vitamin C, total ascorbic acid",mg,--,--,1.2,1.2
"Vitamin A, IU",IU,--,--,500,500
Lipids
"Fatty acids, total saturated",g,--,--,3.500,3.500
"Fatty acids, total trans",g,--,--,0.000,0.000
"Cholesterol",mg,--,--,245,245
Amino Acids
Other
Ingredients
"EGGS, MAYONNAISE (SOYBEAN OIL, WATER, EGG YOLK, DISTILLED VINEGAR, SALT, SUGAR, CALCIUM DISODIUM EDTA [TO PROTECT FLAVOR], DRIED GARLIC, DRIED ONION), RELISH (PICKLES [CUCUMBERS, WATER, SALT, VINEGAR, CALCIUM CHLORIDE], WATER, LACTIC ACID, NATURAL FLAVORING, SALT, POTASSIUM SORBATE [PRESERVATIVE], POLYSORBATE 80), CELERY, GREEN ONION, DIJON MUSTARD (WATER, VINEGAR, MUSTARD SEED, SALT, WHITE WINE, FRUIT PECTIN, CITRIC ACID, TARTARIC ACID, SUGAR, SPICE), MODIFIED FOOD STARCH, BLACK PEPPER." Date available: 07/14/2017 Date last updated by company: 07/14/2017
