Source: USDA Branded Food Products Database Release December 2017 Software v.3.8.6.4 2017-10-02
Report Run at: December 17, 2017 04:32 EST
"Nutrient data for: 45026972, EGG NOODLES, ENRICHED NOODLE PRODUCT, UPC: 070227500201"
Food Group:  Branded Food Products Database
Common Name:

Nutrient,Unit,Data points,Std. Error,"1.75 cup = 55.0g",1Value per 100 g,
Proximates
"Energy",kcal,--,--,210,382
"Protein",g,--,--,8.00,14.55
"Total lipid (fat)",g,--,--,2.50,4.55
"Carbohydrate, by difference",g,--,--,39.00,70.91
"Fiber, total dietary",g,--,--,2.0,3.6
"Sugars, total",g,--,--,2.00,3.64
Minerals
"Calcium, Ca",mg,--,--,20,36
"Iron, Fe",mg,--,--,1.80,3.27
"Sodium, Na",mg,--,--,20,36
Vitamins
"Vitamin C, total ascorbic acid",mg,--,--,0.0,0.0
"Thiamin",mg,--,--,0.550,1.000
"Riboflavin",mg,--,--,0.170,0.309
"Niacin",mg,--,--,3.000,5.455
"Vitamin A, IU",IU,--,--,0,0
Lipids
"Fatty acids, total saturated",g,--,--,0.501,0.910
"Fatty acids, total trans",g,--,--,0.000,0.000
"Cholesterol",mg,--,--,60,109
Amino Acids
Other
Ingredients
"DURUM FLOUR (WHEAT), EGG YOLKS OR EGGS, NIACIN, IRON (FERROUS SULFATE), THIAMINE MONONITRATE (VITAMIN B1), RIBOFLAVIN (VITAMIN B2) AND FOLIC ACID." Date available: 06/25/2017 Date last updated by company: 06/25/2017
