Source: USDA Branded Food Products Database Release December 2017 Software v.3.8.6.4 2017-10-02
Report Run at: December 17, 2017 04:35 EST
"Nutrient data for: 45201436, EGG SALAD CROISSANT, UPC: 782796021871"
Food Group:  Branded Food Products Database
Common Name:

Nutrient,Unit,Data points,Std. Error,"1 SANDWICH = 184.0g",1Value per 100 g,
Proximates
"Energy",kcal,--,--,350,190
"Protein",g,--,--,12.00,6.52
"Total lipid (fat)",g,--,--,20.00,10.87
"Carbohydrate, by difference",g,--,--,29.00,15.76
"Fiber, total dietary",g,--,--,0.9,0.5
"Sugars, total",g,--,--,3.99,2.17
Minerals
"Calcium, Ca",mg,--,--,151,82
"Iron, Fe",mg,--,--,2.06,1.12
"Sodium, Na",mg,--,--,650,353
Vitamins
"Vitamin C, total ascorbic acid",mg,--,--,3.7,2.0
"Vitamin A, IU",IU,--,--,1903,1034
Lipids
"Fatty acids, total saturated",g,--,--,2.999,1.630
"Fatty acids, total trans",g,--,--,0.000,0.000
"Cholesterol",mg,--,--,224,122
Amino Acids
Other
Ingredients
"EGG SALAD (HARD COOKED EGGS (WHOLE EGGS, WATER, CITRIC ACID, SODIUM BENZOATE), MAYONNAISE (VEGETABLE OIL [SOYBEAN, CANOLA], WATER, DISTILLED VINEGAR, EGG YOLK, SUGAR, SALT, SPICE, CALCIUM DISODIUM EDTA TO PROTECT FLAVOR), CELERY, SWEET PICKLE RELISH (CUCUMBERS, HIGH FRUCTOSE CORN SYRUP, CORN SYRUP, CAULIFLOWER, VINEGAR WATER, SALT, XANTHAN GUM, SPICES, RED PEPPER, CALCIUM CHLORIDE, POTASSIUM SORBATE (PRESERVATIVE), ALUM, TURMERIC, NATURAL FLAVORS, POLYSORBATE 80), RED PEPPER (BELL PEPPERS, WATER, CITRIC ACID), SALT, PREPARED YELLOW MUSTARD (WATER, DISTILLED VINEGAR, NO. 1 MUSTARD SEED, SALT, TURMERIC, OLEORESIN PAPRIKA & SPICES), BLACK PEPPER), CROISSANT (ENRICHED WHEAT FLOUR (UNBLEACHED WHEAT FLOUR, MALTED BARLEY FLOUR, NIACIN, REDUCED IRON, THIAMINE MONONITRATE, RIBOFLAVIN, FOLIC ACID), WATER, MARGARINE (PARTIALLY HYDROGENATED SOYBEAN AND COTTONSEED OILS, WATER, SUGAR, SOYBEAN LECITHIN (SOY), MONO AND DIGLYCERIDES, ARTIFICIAL FLAVOR, BETA CAROTENE [COLOR], VITAMIN A PALMITATE ADDED), SUGAR, CONTAINS 2% OR LESS OF: SALT, NON FAT DRY MILK POWDER (NON FAT DRY MILK, WHEY), YEAST AND BAKING POWDER (SODIUM ACID PYROPHOSPHATE, SODIUM BICARBONATE, CORN STARCH, MONOCALCIUM PHOSPHATE), FOR LEAVENING, DOUGH CONDITIONER (DATEM, CALCIUM SULFATE, SOYBEAN OIL, ENZYME, ASCORBIC ACID, L-CYSTEINE), VITAL WHEAT GLUTEN, NATURAL BUTTER POWDER (NATURAL FLAVOR, DEXTROSE, MALTODEXTRIN, PROPYLENE GLYCOL), EGGS, CALCIUM PROPIONATE, POTASSIUM SORBATE AND CITRIC ACID (PRESERVATIVES)), GREEN LEAF LETTUCE." Date available: 10/11/2017 Date last updated by company: 10/11/2017
