Source: USDA Branded Food Products Database Release December 2017 Software v.3.8.6.4 2017-10-02
Report Run at: December 17, 2017 04:32 EST
"Nutrient data for: 45017349, EGG NOODLES, UPC: 072098003003"
Food Group:  Branded Food Products Database
Common Name:

Nutrient,Unit,Data points,Std. Error,"1.25 cup = 56.0g",1Value per 100 g,
Proximates
"Energy",kcal,--,--,210,375
"Protein",g,--,--,8.00,14.29
"Total lipid (fat)",g,--,--,2.50,4.46
"Carbohydrate, by difference",g,--,--,39.00,69.64
"Fiber, total dietary",g,--,--,1.0,1.8
"Sugars, total",g,--,--,2.00,3.57
Minerals
"Iron, Fe",mg,--,--,1.77,3.16
"Sodium, Na",mg,--,--,20,36
Vitamins
Lipids
"Fatty acids, total saturated",g,--,--,0.498,0.890
"Fatty acids, total trans",g,--,--,0.000,0.000
"Cholesterol",mg,--,--,60,107
Amino Acids
Other
Ingredients
"FLOUR (WHEAT)L EGG YOLKS, OR EGGS; NIACIN; IRON (FERROUS SULFATE); THIAMIN MONONITRATE; AND FOLIC ACID." Date available: 06/25/2017 Date last updated by company: 06/25/2017
