Source: USDA Branded Food Products Database Release December 2017 Software v.3.8.6.4 2017-10-02
Report Run at: December 17, 2017 04:34 EST
"Nutrient data for: 45191878, EGGPLANT RAVIOLI, UPC: 097137305870"
Food Group:  Branded Food Products Database
Common Name:

Nutrient,Unit,Data points,Std. Error,"5.0 RAVIOLI = 113.0g",1Value per 100 g,
Proximates
"Energy",kcal,--,--,180,159
"Protein",g,--,--,8.99,7.96
"Total lipid (fat)",g,--,--,4.99,4.42
"Carbohydrate, by difference",g,--,--,29.00,25.66
"Fiber, total dietary",g,--,--,2.0,1.8
"Sugars, total",g,--,--,0.00,0.00
Minerals
"Calcium, Ca",mg,--,--,80,71
"Iron, Fe",mg,--,--,0.77,0.68
"Sodium, Na",mg,--,--,280,248
Vitamins
"Vitamin C, total ascorbic acid",mg,--,--,1.2,1.1
"Vitamin A, IU",IU,--,--,212,188
Lipids
"Fatty acids, total saturated",g,--,--,2.497,2.210
"Fatty acids, total trans",g,--,--,0.000,0.000
"Cholesterol",mg,--,--,45,40
Amino Acids
Other
Ingredients
"DURUM WHEAT FLOUR (ENRICHED WITH IRON (FERROUS SULFATE) AND B VITAMINS (NIACIN, THIAMIN, RIBOFLAVIN, FOLIC ACID)), WHOLE MILK RICOTTA CHEESE (SWEET WHEY, WHOLE MILK, SWEET CREAM, CULTURE, VINEGAR AND SALT), EGGPLANT (PULP OF GRILLED EGGPLANT, SALT, CITRIC ACID), WATER, WHOLE EGG, FLOUR BLEND (YELLOW CORN FLOUR, WHEAT FLOUR, SOYBEAN OIL, EXTRACTIVES OF TURMERIC AND PAPRIKA), ROMANO CHEESE (PASTEURIZED SHEEP'S MILK, CHEESE CULTURE, SALT, ENZYMES, MODIFIED FOOD STARCH. POWDERED CELLULOSE (ANTI-CAKING AGENT), BREAD CRUMBS (WHEAT FLOUR, SUGAR, CANOLA OIL, SALT, YEAST), IMPORTED PARMESAN CHEESE (PASTEURIZED PART-SKIM COW'S MILK, CHEESE CULTURES, SALT, ENZYMES, FOOD STARCH, POWDERED CELLULOSE ADDED TO PREVENT CAKING), SALT, PARSLEY, BLACK PEPPER." Date available: 07/14/2017 Date last updated by company: 07/14/2017
