Source: USDA Branded Food Products Database Release December 2017 Software v.3.8.6.4 2017-10-02
Report Run at: December 17, 2017 04:42 EST
"Nutrient data for: 45143524, EL BUBBLE, ORIGINAL BUBBLE GUM, BANANA, APPLE, FRUIT, UPC: 059642303703"
Food Group:  Branded Food Products Database
Common Name:

Nutrient,Unit,Data points,Std. Error,"1 PIECE = 20.0g",1Value per 100 g,
Proximates
"Energy",kcal,--,--,70,350
"Protein",g,--,--,0.00,0.00
"Total lipid (fat)",g,--,--,0.00,0.00
"Carbohydrate, by difference",g,--,--,18.00,90.00
"Sugars, total",g,--,--,15.00,75.00
Minerals
"Sodium, Na",mg,--,--,0,0
Vitamins
Lipids
Amino Acids
Other
Ingredients
"SUGAR, GUM BASE, CORN SYRUP (GLUCOSE), ARTIFICIAL FLAVORS, GLYCERINE, SOY LECITHIN, ARTIFICIAL COLORS (FD&C RED 40, RED 40 LAKE, BLUE 1, YELLOW 5, YELLOW 6), BHT (TO MAINTAIN FRESHNESS)." Date available: 07/14/2017 Date last updated by company: 07/14/2017
