Source: USDA Branded Food Products Database Release December 2017 Software v.3.8.6.4 2017-10-02
Report Run at: December 17, 2017 04:42 EST
"Nutrient data for: 45145539, EL CAMINO REAL BAKERY, CHOCOLATE CHIP + OATMEAL BITES, UPC: 731216104465"
Food Group:  Branded Food Products Database
Common Name:

Nutrient,Unit,Data points,Std. Error,"1 COOKIE = 20.0g",1Value per 100 g,
Proximates
"Energy",kcal,--,--,110,550
"Protein",g,--,--,1.00,5.00
"Total lipid (fat)",g,--,--,6.00,30.00
"Carbohydrate, by difference",g,--,--,13.00,65.00
"Fiber, total dietary",g,--,--,1.0,5.0
"Sugars, total",g,--,--,7.00,35.00
Minerals
"Calcium, Ca",mg,--,--,0,0
"Iron, Fe",mg,--,--,0.90,4.50
"Sodium, Na",mg,--,--,30,150
Vitamins
"Vitamin C, total ascorbic acid",mg,--,--,0.0,0.0
"Vitamin A, IU",IU,--,--,250,1250
Lipids
"Fatty acids, total saturated",g,--,--,3.500,17.500
"Fatty acids, total monounsaturated",g,--,--,1.500,7.500
"Fatty acids, total polyunsaturated",g,--,--,0.000,0.000
"Fatty acids, total trans",g,--,--,0.000,0.000
"Cholesterol",mg,--,--,10,50
Amino Acids
Other
Ingredients
"ENRICHED WHEAT FLOUR (FOLIC ACID, RIBOFLAVIN, NIACIN, AND THIAMINE), BROWN SUGAR, ROLLED OATS, SEMI SWEET CHOCOLATE CHIPS (SUGAR, CHOCOLATE, COCOA BUTTER, MILK FAT, SOY LECITHIN, NATURAL FLAVORS), PECANS, SOYBEAN OIL, SHREDDED COCONUT, MILK, CINNAMON, SALT, BAKING SODA." Date available: 07/14/2017 Date last updated by company: 07/14/2017
