Source: USDA Branded Food Products Database Release December 2017 Software v.3.8.6.4 2017-10-02
Report Run at: December 17, 2017 04:43 EST
"Nutrient data for: 45017043, EL CONQUISTADOR, TELOLOAPAN RED MOLE, UPC: 044774108005"
Food Group:  Branded Food Products Database
Common Name:

Nutrient,Unit,Data points,Std. Error,"2.0 Tbsp = 28.0g",1Value per 100 g,
Proximates
"Energy",kcal,--,--,150,536
"Protein",g,--,--,2.00,7.14
"Total lipid (fat)",g,--,--,10.00,35.71
"Carbohydrate, by difference",g,--,--,13.00,46.43
"Fiber, total dietary",g,--,--,3.0,10.7
"Sugars, total",g,--,--,4.00,14.29
Minerals
"Calcium, Ca",mg,--,--,0,0
"Iron, Fe",mg,--,--,2.92,10.43
"Sodium, Na",mg,--,--,25,89
Vitamins
"Vitamin C, total ascorbic acid",mg,--,--,0.0,0.0
"Vitamin A, IU",IU,--,--,2536,9057
Lipids
"Fatty acids, total saturated",g,--,--,1.999,7.140
"Fatty acids, total trans",g,--,--,0.000,0.000
"Cholesterol",mg,--,--,0,0
Amino Acids
Other
Ingredients
"DRIED RED PEPPERS, VEGETABLE OIL (COTTONSEED AND/OR SUNFLOWER AND/OR SOYBEAN OIL), BREAD (WHEAT FLOUR, SUGAR, VEGETABLE SHORTENING [SOYBEAN, COTTONSEED AND/OR SAFFLOWER OIL], HIGH FRUCTOSE CORN SYRUP, IODIZED SALT, LEAVENING AGENTS [SODIUM BICARBONATE, AMMONIUM BICARBONATE] AND ARTIFICIAL FLAVORING), SUGAR, COCOA, VEGETABLE SHORTENING (PARTIALLY HYDROGENATED SOYBEAN AND/OR COTTONSEED AND/OR SAFFLOWER OIL), PUMPKIN SEED, RAISINS, CINNAMON POWDER AND CARAMEL COLOR." Date available: 06/25/2017 Date last updated by company: 06/25/2017
