Source: USDA Branded Food Products Database Release December 2017 Software v.3.8.6.4 2017-10-02
Report Run at: December 17, 2017 04:47 EST
"Nutrient data for: 45175291, EL GUAPO, GRANOLA, UPC: 044989202680"
Food Group:  Branded Food Products Database
Common Name:

Nutrient,Unit,Data points,Std. Error,"0.5 cup = 48.0g",1Value per 100 g,
Proximates
"Energy",kcal,--,--,190,396
"Protein",g,--,--,5.00,10.42
"Total lipid (fat)",g,--,--,5.00,10.42
"Carbohydrate, by difference",g,--,--,31.00,64.58
"Fiber, total dietary",g,--,--,3.0,6.2
"Sugars, total",g,--,--,11.00,22.92
Minerals
"Calcium, Ca",mg,--,--,0,0
"Iron, Fe",mg,--,--,0.83,1.72
"Sodium, Na",mg,--,--,110,229
Vitamins
"Vitamin C, total ascorbic acid",mg,--,--,0.0,0.0
"Vitamin A, IU",IU,--,--,0,0
Lipids
"Fatty acids, total saturated",g,--,--,0.499,1.040
"Fatty acids, total trans",g,--,--,0.000,0.000
"Cholesterol",mg,--,--,0,0
Amino Acids
Other
Ingredients
"WHOLE ROLLED OATS, DRIED CANE SYRUP, HIGH OLEIC SUNFLOWER OIL, MOLASSES, WHOLE OAT FLOUR, RICE FLOUR, HONEY, MALTODEXTRIN, SALT, NATURAL FLAVOR, MIXED TOCOPHEROLS, SOY LECITHIN." Date available: 07/14/2017 Date last updated by company: 07/14/2017
