Source: USDA Branded Food Products Database Release December 2017 Software v.3.8.6.4 2017-10-02
Report Run at: December 17, 2017 04:54 EST
"Nutrient data for: 45049340, EL SABROSO, CHURRITOS, CORN STICKS, CHILE Y LIMON, UPC: 078907451010"
Food Group:  Branded Food Products Database
Common Name:

Nutrient,Unit,Data points,Std. Error,"1 ONZ = 28.0g",1Value per 100 g,
Proximates
"Energy",kcal,--,--,150,536
"Protein",g,--,--,2.00,7.14
"Total lipid (fat)",g,--,--,9.00,32.14
"Carbohydrate, by difference",g,--,--,14.00,50.00
"Fiber, total dietary",g,--,--,2.0,7.1
"Sugars, total",g,--,--,0.00,0.00
Minerals
"Calcium, Ca",mg,--,--,0,0
"Iron, Fe",mg,--,--,0.64,2.29
"Sodium, Na",mg,--,--,350,1250
Vitamins
"Vitamin C, total ascorbic acid",mg,--,--,0.0,0.0
"Vitamin A, IU",IU,--,--,357,1275
Lipids
"Fatty acids, total saturated",g,--,--,1.999,7.140
"Fatty acids, total trans",g,--,--,0.000,0.000
"Cholesterol",mg,--,--,0,0
Amino Acids
Other
Ingredients
"CORN MEAL, VEGETABLE OIL (MAY CONTAIN ONE OR MORE OF THE FOLLOWING: CORN, CANOLA, RICE, SUNFLOWER AND/OR SAFFLOWER OIL), SALT, SPICES, CITRIC ACID, MALTODEXTRIN, ARTIFICIAL COLOR (RED 40 LAKE)." Date available: 06/25/2017 Date last updated by company: 06/25/2017
