Source: USDA Branded Food Products Database Release December 2017 Software v.3.8.6.4 2017-10-02
Report Run at: December 17, 2017 04:43 EST
"Nutrient data for: 45240528, ELDER FLOWER & ROSE LEMONADE, UPC: 838724000408"
Food Group:  Branded Food Products Database
Common Name:

Nutrient,Unit,Data points,Std. Error,"8.4 OZA = 250.0g",1Value per 100 g,
Proximates
"Energy",kcal,--,--,110,44
"Protein",g,--,--,0.00,0.00
"Total lipid (fat)",g,--,--,0.00,0.00
"Carbohydrate, by difference",g,--,--,26.80,10.72
"Sugars, total",g,--,--,26.80,10.72
Minerals
"Magnesium, Mg",mg,--,--,0,0
"Sodium, Na",mg,--,--,0,0
Vitamins
Lipids
Amino Acids
Other
Ingredients
"CARBONATED BELVOIR SPRING WATER, BEET SUGAR, ELDERFLOWERS, LEMON JUICE (NOT FROM CONCENTRATE), CITRIC ACID, ELDERBERRY JUICE (FROM CONCENTRATE), ROSE PETAL EXTRACT." Date available: 07/14/2017 Date last updated by company: 07/14/2017
