Source: USDA Branded Food Products Database Release December 2017 Software v.3.8.6.4 2017-10-02
Report Run at: December 17, 2017 04:45 EST
"Nutrient data for: 45172078, ELEGANT DESSERTS, ASSORTED HOLIDAY BITES, UPC: 022332798158"
Food Group:  Branded Food Products Database
Common Name:

Nutrient,Unit,Data points,Std. Error,"1 BITE = 29.0g",1Value per 100 g,
Proximates
"Energy",kcal,--,--,92,317
"Protein",g,--,--,1.40,4.83
"Total lipid (fat)",g,--,--,5.00,17.24
"Carbohydrate, by difference",g,--,--,10.00,34.48
"Fiber, total dietary",g,--,--,0.0,0.0
"Sugars, total",g,--,--,5.00,17.24
Minerals
"Calcium, Ca",mg,--,--,20,69
"Iron, Fe",mg,--,--,0.99,3.43
"Sodium, Na",mg,--,--,20,69
Vitamins
"Vitamin C, total ascorbic acid",mg,--,--,0.0,0.0
"Vitamin A, IU",IU,--,--,276,952
Lipids
"Fatty acids, total saturated",g,--,--,2.500,8.620
"Fatty acids, total trans",g,--,--,0.000,0.000
"Cholesterol",mg,--,--,26,90
Amino Acids
Other
Ingredients
"EGGS, CREAM CHEESE (PASTEURIZED MILK AND CREAM, CHEESE CULTURE, SALT, CAROB BEAN GUM) WHEAT FLOUR, FONDANT CANE SUGAR, CORN SYRUP, WATER, SODIUM METABISULFATE) MILK UNSTALTED SWEET BUTTER, EGG NOG, ALMOND PASTE, WHITE CHOCOLATE, VEGETABLE SHORTENING, GRANULATED SUGAR DARK CHOCOLATE, WATER, BITTERSWEET CHOCOLATE (COCOA MASS SUGAR COCOA BUTTER, SOY LECITHIN), WHEAT FLOUR, HAZELNUT FLAVOR, RASPBERRY FLAVOR, RUM FLAVOR WHIPPED TOPPING CORN STARCH, HAZELNUTS SWEET CONDENSED MILK, INSTANT COFFEE CREAM OF TARTAR, NUTMEG, BAKING SODA, VANILLA COLORING: BLUE (E133), RED 3 (E127) YELLOW 5 (E102)" Date available: 10/13/2017 Date last updated by company: 10/13/2017
