Source: USDA Branded Food Products Database Release December 2017 Software v.3.8.6.4 2017-10-02
Report Run at: December 17, 2017 04:48 EST
"Nutrient data for: 45040507, ELITE, MUST SUGAR FREE CHEWING GUM, SPEARMINT, UPC: 815871010122"
Food Group:  Branded Food Products Database
Common Name:

Nutrient,Unit,Data points,Std. Error,"2.0 PIECES = 2.8g",1Value per 100 g,
Proximates
"Energy",kcal,--,--,4,143
"Protein",g,--,--,0.00,0.00
"Total lipid (fat)",g,--,--,0.00,0.00
"Carbohydrate, by difference",g,--,--,2.00,71.43
Minerals
"Calcium, Ca",mg,--,--,0,0
"Iron, Fe",mg,--,--,0.00,0.00
"Sodium, Na",mg,--,--,0,0
Vitamins
"Vitamin C, total ascorbic acid",mg,--,--,0.0,0.0
"Vitamin A, IU",IU,--,--,0,0
Lipids
Amino Acids
Other
Ingredients
"SWEETENERS (SORBITOL, ISOMALT, MALTITOL SYRUP, XYLITOL, MANNITOL), GUM BASE (CONTAINS ANTIOXIDANT: BHT), ARTIFICIAL FLAVORS, STABILIZER: GUM ACACIA, HUMECTANT: GLYCEROL, FOOD COLOR: TITANIUM DIOXIDE, ARTIFICIAL SWEETENERS: ASPARTAME (4MG/SERV.SIZE), ACESULFAME-K (4MG/SERV.SIZE), GLAZING AGENT CARNAUBA WAX." Date available: 06/24/2017 Date last updated by company: 06/24/2017
