Source: USDA Branded Food Products Database Release December 2017 Software v.3.8.6.4 2017-10-02
Report Run at: December 17, 2017 04:49 EST
"Nutrient data for: 45159711, ELLA'S OVEN, STRAWBERRY FILLED COOKIES, UPC: 899978002662"
Food Group:  Branded Food Products Database
Common Name:

Nutrient,Unit,Data points,Std. Error,"1 COOKIE = 26.0g",1Value per 100 g,
Proximates
"Energy",kcal,--,--,100,385
"Protein",g,--,--,1.00,3.85
"Total lipid (fat)",g,--,--,3.50,13.46
"Carbohydrate, by difference",g,--,--,16.00,61.54
"Fiber, total dietary",g,--,--,0.0,0.0
"Sugars, total",g,--,--,7.00,26.92
Minerals
"Calcium, Ca",mg,--,--,0,0
"Iron, Fe",mg,--,--,0.69,2.67
"Sodium, Na",mg,--,--,75,288
Vitamins
"Vitamin C, total ascorbic acid",mg,--,--,0.0,0.0
"Vitamin A, IU",IU,--,--,0,0
Lipids
"Fatty acids, total saturated",g,--,--,1.500,5.770
"Fatty acids, total trans",g,--,--,0.000,0.000
"Cholesterol",mg,--,--,0,0
Amino Acids
Other
Ingredients
"ENRICHED BLEACHED FLOUR (BLEACHED WHEAT FLOUR, NIACIN, REDUCED IRON, THIAMINE MONONITRATE, RIBOFLAVIN, FOLIC ACID), SUGAR, STRAWBERRY FILLING (WATER, CORN SYRUP, STRAWBERRY PUREE, HIGH FRUCTOSE CORN SYRUP, DEXTROSE MODIFIED FOOD STARCH, SODIUM ALGINATE, SUGAR, SODIUM HEXAMETAPHOSPHATE, CALCIUM PHOSPHATE, CITRIC ACID, GELLAN GUM, SODIUM CITRATE, SALT, PRESERVATIVES [POTASSIUM SORBATE, SODIUM PROPIONATE, SODIUM BENZOATE], ARTIFICIAL FLAVOR, RED 40), PALM OIL, HIGH FRUCTOSE CORN SYRUP, OATMEAL, CORN SYRUP, CONTAINS 2% OR LESS OF EGGS, MONO AND DIGLYCERIDES, BAKING SODA, MODIFIED CORN STARCH, NATURAL AND ARTIFICIAL FLAVORS, SALT, BAKING POWDER (SODIUM ACID PYROPHOSPHATE, SODIUM BICARBONATE, CORN STARCH, MONOCALCIUM PHOSPHATE), POTASSIUM SORBATE (PRESERVATIVE), NONFAT DRY MILK, SOY LECITHIN." Date available: 07/14/2017 Date last updated by company: 07/14/2017
