Source: USDA Branded Food Products Database Release December 2017 Software v.3.8.6.4 2017-10-02
Report Run at: December 17, 2017 04:49 EST
"Nutrient data for: 45139335, ELLA'S KITCHEN, JUICE BLEND DRINK, AMAAAZING BLUEBERRY APPLE, UPC: 845901031360"
Food Group:  Branded Food Products Database
Common Name:

Nutrient,Unit,Data points,Std. Error,"1 CONTAINER = 200.0g",1Value per 100 g,
Proximates
"Energy",kcal,--,--,24,12
"Protein",g,--,--,0.00,0.00
"Total lipid (fat)",g,--,--,0.00,0.00
"Carbohydrate, by difference",g,--,--,6.00,3.00
"Sugars, total",g,--,--,5.00,2.50
Minerals
"Iron, Fe",mg,--,--,0.44,0.22
"Sodium, Na",mg,--,--,10,5
Vitamins
"Vitamin C, total ascorbic acid",mg,--,--,1.4,0.7
Lipids
Amino Acids
Other
Ingredients
"WATER, ORGANIC APPLE JUICE, ORGANIC BLUEBERRY JUICE, ORGANIC LEMON JUICE, ORGANIC ALOE VERA JUICE." Date available: 07/14/2017 Date last updated by company: 07/14/2017
