Source: USDA Branded Food Products Database Release December 2017 Software v.3.8.6.4 2017-10-02
Report Run at: December 17, 2017 04:51 EST
"Nutrient data for: 45174983, ELMER, HAPPY VALENTINE'S DAY CHOCOLATE, UPC: 041761100493"
Food Group:  Branded Food Products Database
Common Name:

Nutrient,Unit,Data points,Std. Error,"3.0 PIECES = 34.0g",1Value per 100 g,
Proximates
"Energy",kcal,--,--,150,441
"Protein",g,--,--,1.00,2.94
"Total lipid (fat)",g,--,--,6.00,17.65
"Carbohydrate, by difference",g,--,--,25.00,73.53
"Fiber, total dietary",g,--,--,1.0,2.9
"Sugars, total",g,--,--,21.00,61.76
Minerals
"Calcium, Ca",mg,--,--,0,0
"Iron, Fe",mg,--,--,0.00,0.00
"Sodium, Na",mg,--,--,20,59
Vitamins
"Vitamin C, total ascorbic acid",mg,--,--,0.0,0.0
"Vitamin A, IU",IU,--,--,0,0
Lipids
"Fatty acids, total saturated",g,--,--,3.499,10.290
"Fatty acids, total trans",g,--,--,0.000,0.000
"Cholesterol",mg,--,--,0,0
Amino Acids
Other
Ingredients
"SUGAR, MILK CHOCOLATE (SUGAR; COCOA BUTTER; MILK; CHOCOLATE; SOY LECITHIN, AN EMULSIFIER; SALT; ARTIFICIAL FLAVOR), DARK SWEET CHOCOLATE (SUGAR; CHOCOLATE; COCOA BUTTER; NATURAL & ARTIFICIAL FLAVORS; SOY LECITHIN, AN EMULSIFIER), CORN SYRUP, PALM OIL, HIGH FRUCTOSE CORN SYRUP. CONTAINS 2% OR LESS OF: MILK, SKIM MILK, WHEY, COCOA, NATURAL & ARTIFICIAL FLAVORS, FOOD STARCH - MODIFIED, INVERTASE, CITRIC ACID, SALT, EGG WHITES, GELATIN, PARTIALLY HYDROGENATED PALM KERNEL & COTTONSEED OILS, SOY LECITHIN (AN EMULSIFIER), RED 40, YELLOW 6, POTASSIUM SORBATE (A PRESERVATIVE), HYDROLYZED SOY PROTEIN, SODIUM HEXAMETAPHOSPHATE." Date available: 07/14/2017 Date last updated by company: 07/14/2017
