Source: USDA Branded Food Products Database Release December 2017 Software v.3.8.6.4 2017-10-02
Report Run at: December 17, 2017 04:57 EST
"Nutrient data for: 45162554, EMERALD, CASHEWS, JALAPENO, UPC: 010300942191"
Food Group:  Branded Food Products Database
Common Name:

Nutrient,Unit,Data points,Std. Error,"1 PACKAGE = 35.4g",1Value per 100 g,
Proximates
"Energy",kcal,--,--,200,565
"Protein",g,--,--,6.00,16.95
"Total lipid (fat)",g,--,--,16.00,45.20
"Carbohydrate, by difference",g,--,--,11.00,31.07
"Fiber, total dietary",g,--,--,1.0,2.8
"Sugars, total",g,--,--,3.00,8.47
Minerals
"Calcium, Ca",mg,--,--,20,56
"Iron, Fe",mg,--,--,2.54,7.18
"Sodium, Na",mg,--,--,190,537
Vitamins
"Vitamin C, total ascorbic acid",mg,--,--,0.0,0.0
"Vitamin A, IU",IU,--,--,0,0
Lipids
"Fatty acids, total saturated",g,--,--,2.499,7.060
"Fatty acids, total trans",g,--,--,0.000,0.000
"Cholesterol",mg,--,--,0,0
Amino Acids
Other
Ingredients
"CASHEWS, SEASONING (DEXTROSE, SALT, SUGAR, MALTODEXTRIN, ONION POWDER, NATURAL FLAVOR, TORULA YEAST, YEST EXTRACT, GARLIC POWDER, JALAPENO POWDER, PARSLEY), VEGETABLE OIL (SAFFLOWER, SUNFLOWER, AND/OR CANOLA OIL)." Date available: 07/14/2017 Date last updated by company: 07/14/2017
