Source: USDA Branded Food Products Database Release December 2017 Software v.3.8.6.4 2017-10-02
Report Run at: December 17, 2017 05:02 EST
"Nutrient data for: 45258451, EMPANADAS, UPC: 897806001313"
Food Group:  Branded Food Products Database
Common Name:

Nutrient,Unit,Data points,Std. Error,"1 EMPANADA = 71.0g",1Value per 100 g,
Proximates
"Energy",kcal,--,--,180,254
"Protein",g,--,--,11.00,15.49
"Total lipid (fat)",g,--,--,1.00,1.41
"Carbohydrate, by difference",g,--,--,23.00,32.39
"Fiber, total dietary",g,--,--,2.0,2.8
"Sugars, total",g,--,--,1.00,1.41
Minerals
"Calcium, Ca",mg,--,--,20,28
"Iron, Fe",mg,--,--,0.84,1.18
"Potassium, K",mg,--,--,135,190
"Sodium, Na",mg,--,--,190,268
Vitamins
"Vitamin C, total ascorbic acid",mg,--,--,0.9,1.3
"Vitamin A, IU",IU,--,--,0,0
Lipids
"Fatty acids, total saturated",g,--,--,0.000,0.000
"Fatty acids, total trans",g,--,--,0.000,0.000
"Cholesterol",mg,--,--,20,28
Amino Acids
Other
Ingredients
"CHICKEN BREAST; ONIONS; BLACK BEANS (BEANS, WATER, SALT, CALCIUM CHLORIDE, FERROUS GLUCONATE); BBQ SAUCE(HIGH FRUCTOSE CORN SYRUP, VINEGAR, TOMATO PASTE, WATER, MOLASSES, APPLE CIDER VINEGAR, MODIFIED CORNSTARCH, SALT, LESS 2% OF HICKORY SMOKE FLAVOR, MUSTARD FLOUR, DRIED GARLIC, POTASSIUM SORBATE, DRIED ONIONS, PAPRIKA, CARAMEL COLOR);CHICKEN BROTH, LOW SODIUM; FRESH GARLIC; PAPRIKA (LESS THAN 2% SILICON DIOXIDE); CUMIN; SALT; BLACK PEPPER. DOUGH: UNBLEACHED, UNBROMATED WHEAT FLOUR (MALTED BARLEY FLOUR, NIACIN, IRON, THIAMIN MONONITRATE, RIBOFLAVIN, FOLIC ACID); FILTERED WATER; VEGETABLE SHORTENING; SALT. PAINTED WITH EGG WASH." Date available: 07/14/2017 Date last updated by company: 07/14/2017
