Source: USDA Branded Food Products Database Release December 2017 Software v.3.8.6.4 2017-10-02
Report Run at: December 17, 2017 05:02 EST
"Nutrient data for: 45189097, EMPEROR'S RICE, UPC: 5013790774339"
Food Group:  Branded Food Products Database
Common Name:

Nutrient,Unit,Data points,Std. Error,"0.25 cup = 45.0g",1Value per 100 g,
Proximates
"Energy",kcal,--,--,160,356
"Protein",g,--,--,4.00,8.89
"Total lipid (fat)",g,--,--,1.50,3.33
"Carbohydrate, by difference",g,--,--,34.00,75.56
"Fiber, total dietary",g,--,--,1.0,2.2
"Sugars, total",g,--,--,0.00,0.00
Minerals
"Calcium, Ca",mg,--,--,0,0
"Iron, Fe",mg,--,--,1.08,2.40
"Sodium, Na",mg,--,--,0,0
Vitamins
"Vitamin C, total ascorbic acid",mg,--,--,0.0,0.0
"Vitamin A, IU",IU,--,--,0,0
Lipids
"Fatty acids, total saturated",g,--,--,0.000,0.000
"Fatty acids, total trans",g,--,--,0.000,0.000
"Cholesterol",mg,--,--,0,0
Amino Acids
Other
Ingredients
"MEDIUM GRAIN BLACK RICE." Date available: 07/14/2017 Date last updated by company: 07/14/2017
