Source: USDA Branded Food Products Database Release December 2017 Software v.3.8.6.4 2017-10-02
Report Run at: December 17, 2017 05:04 EST
"Nutrient data for: 45267798, ENCHILADA WRAP, UPC: 614294201090"
Food Group:  Branded Food Products Database
Common Name:

Nutrient,Unit,Data points,Std. Error,"5.25 ONZ = 149.0g",1Value per 100 g,
Proximates
"Energy",kcal,--,--,250,168
"Protein",g,--,--,10.00,6.71
"Total lipid (fat)",g,--,--,9.00,6.04
"Carbohydrate, by difference",g,--,--,36.00,24.16
"Fiber, total dietary",g,--,--,5.1,3.4
"Sugars, total",g,--,--,3.99,2.68
Minerals
"Calcium, Ca",mg,--,--,150,101
"Iron, Fe",mg,--,--,2.53,1.70
"Sodium, Na",mg,--,--,450,302
Vitamins
"Vitamin C, total ascorbic acid",mg,--,--,5.7,3.8
"Vitamin A, IU",IU,--,--,282,189
Lipids
"Fatty acids, total saturated",g,--,--,2.995,2.010
"Fatty acids, total trans",g,--,--,0.000,0.000
"Cholesterol",mg,--,--,15,10
Amino Acids
Other
Ingredients
"TORTILLA (ORGANIC UNBLEACHED FLOUR, WATER, NON-GMO EXPELLER PRESSED SAFFLOWER OIL, ORGANIC WHOLE WHEAT, SALT, MONOGLYCERIDES, LEAVENING [SODIUM ACID PYROPHOSPHATE, SODIUM BICARBONATE, NON-GMO CORN STARCH, MONOCALCIUM PHOSPHATE], CULTURED WHEAT FLOUR, GUAR GUM, CITRIC ACID), ORGANIC BROWN RICE, ORGANIC PINTO BEANS, MONTEREY JACK CHEESE (PASTEURIZED MILK-FREE OF ARTIFICIAL HORMONES (RBGH), CULTURE, SALT, ENZYMES), CHEDDAR CHEESE (PASTEURIZED MILK-FREE OF ARTIFICIAL HORMONES (RBGH), CULTURE, SALT, ENZYMES, ANNATTO), VINE RIPE TOMATO, BELL PEPPER, ONION, GARLIC, ORGANIC CANOLA OIL, ORGANIC SHOYU (WATER, ORGANIC SOYBEAN, ORGANIC WHEAT, SALT, ORGANIC ALCOHOL), NEW MEXICO RED CHILIS, ORGANIC UNBLEACHED FLOUR, KOSHER SALT, VINEGAR AND SPICES." Date available: 07/14/2017 Date last updated by company: 07/14/2017
