Source: USDA Branded Food Products Database Release December 2017 Software v.3.8.6.4 2017-10-02
Report Run at: December 17, 2017 05:04 EST
"Nutrient data for: 45277091, ENCHILADA SAUCE, UPC: 04656701822"
Food Group:  Branded Food Products Database
Common Name:

Nutrient,Unit,Data points,Std. Error,"0.25 cup = 60.0g",1Value per 100 g,
Proximates
"Energy",kcal,--,--,20,33
"Protein",g,--,--,1.00,1.67
"Total lipid (fat)",g,--,--,1.00,1.67
"Carbohydrate, by difference",g,--,--,3.00,5.00
"Fiber, total dietary",g,--,--,2.0,3.3
"Sugars, total",g,--,--,1.00,1.67
Minerals
"Calcium, Ca",mg,--,--,20,33
"Iron, Fe",mg,--,--,0.73,1.22
"Sodium, Na",mg,--,--,380,633
Vitamins
"Vitamin C, total ascorbic acid",mg,--,--,2.5,4.1
"Vitamin A, IU",IU,--,--,1268,2113
Lipids
"Fatty acids, total saturated",g,--,--,0.000,0.000
"Fatty acids, total trans",g,--,--,0.000,0.000
"Cholesterol",mg,--,--,0,0
Amino Acids
Other
Ingredients
"WATER, DRIED RED CHILE, SALT, SOYBEAN OIL, APPLE CIDER VINEGAR, SUGAR, FUMARIC ACID, GARLIC POWDER, SPICES." Date available: 07/14/2017 Date last updated by company: 07/14/2017
