Source: USDA Branded Food Products Database Release December 2017 Software v.3.8.6.4 2017-10-02
Report Run at: December 17, 2017 05:05 EST
"Nutrient data for: 45004655, ENDANGERED SPECIES, DARK CHOCOLATE, NATURAL RASPBERRY ORANGE CREME FILLED, UPC: 037014000269"
Food Group:  Branded Food Products Database
Common Name:

Nutrient,Unit,Data points,Std. Error,"0.5 BAR = 43.0g",1Value per 100 g,
Proximates
"Energy",kcal,--,--,250,581
"Protein",g,--,--,2.00,4.65
"Total lipid (fat)",g,--,--,16.00,37.21
"Carbohydrate, by difference",g,--,--,24.00,55.81
"Fiber, total dietary",g,--,--,3.0,7.0
"Sugars, total",g,--,--,17.00,39.53
Minerals
"Calcium, Ca",mg,--,--,0,0
"Iron, Fe",mg,--,--,1.26,2.92
"Sodium, Na",mg,--,--,0,0
Vitamins
"Vitamin C, total ascorbic acid",mg,--,--,0.0,0.0
"Vitamin A, IU",IU,--,--,0,0
Lipids
"Fatty acids, total saturated",g,--,--,9.000,20.930
"Fatty acids, total trans",g,--,--,0.000,0.000
"Cholesterol",mg,--,--,0,0
Amino Acids
Other
Ingredients
"DARK CHOCOLATE (*CHOCOLATE LIQUOR, CANE SUGAR, *COCOA BUTTER, SOY LECITHIN, VANILLA), POWDERED CANE SUGAR (CANE SUGAR, CORNSTARCH), **ORGANIC PALM OIL, NATURAL FLAVOR, SUNFLOWER LECITHIN." Date available: 06/25/2017 Date last updated by company: 06/25/2017
