Source: USDA Branded Food Products Database Release December 2017 Software v.3.8.6.4 2017-10-02
Report Run at: December 17, 2017 05:11 EST
"Nutrient data for: 45271072, ENERGY DRINK, UPC: 853004004624"
Food Group:  Branded Food Products Database
Common Name:

Nutrient,Unit,Data points,Std. Error,"12.0 OZA = 355.0g",1Value per 100 g,
Proximates
"Energy",kcal,--,--,36,10
"Protein",g,--,--,0.00,0.00
"Total lipid (fat)",g,--,--,0.00,0.00
"Carbohydrate, by difference",g,--,--,18.00,5.07
"Sugars, total",g,--,--,6.00,1.69
Minerals
"Sodium, Na",mg,--,--,14,4
Vitamins
Lipids
Amino Acids
Other
Ingredients
"CARBONATED FILTERED WATER, ORGANIC ERYTHRITOL, ORGANIC CANE SUGAR, ORGANIC COCONUT WATER CONCENTRATE, ORGANIC LEMON JUICE CONCENTRATE, ORGANIC NATURAL FLAVOR, ORGANIC ENZYME MODIFIED STEVIA EXTRACT, CITRIC ACID, ORGANIC GREEN TEA SOLIDS, ORGANIC YERBA MATE LEAF EXTRACT, ORGANIC CAFFEINE, ORGANIC GUARANA SEED EXTRACT, ORGANIC CARAMEL COLOR, NATURAL FLAVOR, ORGANIC MAQUI (ARISTOTELIA CHILENSIS) BERRY JUICE POWDER." Date available: 07/14/2017 Date last updated by company: 07/14/2017
