Source: USDA Branded Food Products Database Release December 2017 Software v.3.8.6.4 2017-10-02
Report Run at: December 17, 2017 05:15 EST
"Nutrient data for: 45168051, ENGINE 2, PLANT-STRONG, RIP'S BIG BOWL TRIPLE BERRY WALNUT CEREAL, UPC: 099482443849"
Food Group:  Branded Food Products Database
Common Name:

Nutrient,Unit,Data points,Std. Error,"0.5 cup = 55.0g",1Value per 100 g,
Proximates
"Energy",kcal,--,--,210,382
"Protein",g,--,--,7.00,12.73
"Total lipid (fat)",g,--,--,3.50,6.36
"Carbohydrate, by difference",g,--,--,39.00,70.91
"Fiber, total dietary",g,--,--,6.0,10.9
"Sugars, total",g,--,--,1.00,1.82
Minerals
"Calcium, Ca",mg,--,--,20,36
"Iron, Fe",mg,--,--,1.80,3.27
"Potassium, K",mg,--,--,220,400
"Sodium, Na",mg,--,--,60,109
Vitamins
"Vitamin C, total ascorbic acid",mg,--,--,6.0,10.9
"Vitamin A, IU",IU,--,--,0,0
Lipids
"Fatty acids, total saturated",g,--,--,0.000,0.000
"Fatty acids, total trans",g,--,--,0.000,0.000
"Cholesterol",mg,--,--,0,0
Amino Acids
Other
Ingredients
"WHOLE ROLLED OATS, WHOLE WHEAT FLAKES (WHEAT, SALT, BARLEY MALT), SHREDDED WHOLE WHEAT, ORGANIC SPROUTED CEREAL (ORGANIC SPROUTED WHOLE WHEAT, ORGANIC BARLEY MALT, ORGANIC SPROUTED WHOLE BARLEY, ORGANIC SPROUTED WHOLE MILLET, ORGANIC SPROUTED LENTILS, ORGANIC SPROUTED SOYBEANS, ORGANIC SPROUTED WHOLE SPELT, SEA SALT), WALNUTS, FREEZE DRIED BLACKBERRIES, FREEZE DRIED RASPBERRIES, FREEZE DRIED STRAWBERRIES." Date available: 07/19/2017 Date last updated by company: 07/19/2017
