Source: USDA Branded Food Products Database Release December 2017 Software v.3.8.6.4 2017-10-02
Report Run at: December 17, 2017 05:15 EST
"Nutrient data for: 45082847, ENGLISH MUFFINS, CINNAMON RAISIN, UPC: 011213390857"
Food Group:  Branded Food Products Database
Common Name:

Nutrient,Unit,Data points,Std. Error,"1 MUFFIN = 57.0g",1Value per 100 g,
Proximates
"Energy",kcal,--,--,140,246
"Protein",g,--,--,5.00,8.77
"Total lipid (fat)",g,--,--,1.00,1.75
"Carbohydrate, by difference",g,--,--,29.00,50.88
"Fiber, total dietary",g,--,--,1.0,1.8
"Sugars, total",g,--,--,5.00,8.77
Minerals
"Calcium, Ca",mg,--,--,80,140
"Iron, Fe",mg,--,--,1.74,3.05
"Sodium, Na",mg,--,--,240,421
Vitamins
"Vitamin C, total ascorbic acid",mg,--,--,1.1,2.0
"Vitamin A, IU",IU,--,--,0,0
Lipids
"Fatty acids, total saturated",g,--,--,0.000,0.000
"Fatty acids, total trans",g,--,--,0.000,0.000
"Cholesterol",mg,--,--,0,0
Amino Acids
Other
Ingredients
"ENRICHED WHEAT FLOUR (WHEAT FLOUR, MALTED BARLEY FLOUR, NIACIN, REDUCED IRON, THIAMINE MONONITRATE, RIBOFLAVIN, FOLIC ACID), WATER, RAISINS, YEAST, CONTAINS 2% OR LESS OF: SUGAR, WHEAT GLUTEN, CALCIUM PROPIONATE AND POTASSIUM SORBATE (PRESERVATIVES), DATEM, CITRIC ACID, ASCORBIC ACID, DEGERMED YELLOW CORNMEAL, FUMARIC ACID, GROUND CINNAMON, SALT, SOYBEAN OIL, DEGERMED YELLOW CORN FLOUR, DISTILLED MONOGLYCERIDES, ACACIA GUM, ENZYMES, CALCIUM SULFATE, CALCIUM PHOSPHATE." Date available: 06/25/2017 Date last updated by company: 06/25/2017
