Source: USDA Branded Food Products Database Release December 2017 Software v.3.8.6.4 2017-10-02
Report Run at: December 17, 2017 05:18 EST
"Nutrient data for: 45151261, ENGLISH TOFFEE, UPC: 034952584943"
Food Group:  Branded Food Products Database
Common Name:

Nutrient,Unit,Data points,Std. Error,"2.0 PIECES = 38.0g",1Value per 100 g,
Proximates
"Energy",kcal,--,--,200,526
"Protein",g,--,--,1.00,2.63
"Total lipid (fat)",g,--,--,13.00,34.21
"Carbohydrate, by difference",g,--,--,22.00,57.89
"Fiber, total dietary",g,--,--,1.0,2.6
"Sugars, total",g,--,--,21.00,55.26
Minerals
"Calcium, Ca",mg,--,--,20,53
"Iron, Fe",mg,--,--,0.00,0.00
"Sodium, Na",mg,--,--,130,342
Vitamins
"Vitamin C, total ascorbic acid",mg,--,--,0.0,0.0
"Vitamin A, IU",IU,--,--,263,692
Lipids
"Fatty acids, total saturated",g,--,--,7.999,21.050
"Fatty acids, total trans",g,--,--,0.000,0.000
"Cholesterol",mg,--,--,20,53
Amino Acids
Other
Ingredients
"MILK CHOCOLATE (SUGAR, COCOA BUTTER., MILK, CHOCOLATE LIQUOR, SOY LECITHIN [AN EMULSIFIER] AND VANILLA), TOFFEE SQUARES (SUGAR, BUTTER, ALMONDS, CORN SYRUP, PALM OIL, SALT, LECITHIN)." Date available: 07/14/2017 Date last updated by company: 07/14/2017
