Source: USDA Branded Food Products Database Release December 2017 Software v.3.8.6.4 2017-10-02
Report Run at: December 17, 2017 05:17 EST
"Nutrient data for: 45210549, ENGLISH MUFFIN TOASTING BREAD, UPC: 814305011506"
Food Group:  Branded Food Products Database
Common Name:

Nutrient,Unit,Data points,Std. Error,"1 SLICE = 27.0g",1Value per 100 g,
Proximates
"Energy",kcal,--,--,80,296
"Protein",g,--,--,2.00,7.41
"Total lipid (fat)",g,--,--,1.00,3.70
"Carbohydrate, by difference",g,--,--,15.00,55.56
"Fiber, total dietary",g,--,--,1.0,3.7
"Sugars, total",g,--,--,4.00,14.81
Minerals
"Calcium, Ca",mg,--,--,20,74
"Iron, Fe",mg,--,--,2.66,9.87
"Sodium, Na",mg,--,--,110,407
Vitamins
"Vitamin C, total ascorbic acid",mg,--,--,0.0,0.0
"Thiamin",mg,--,--,0.540,2.000
"Riboflavin",mg,--,--,0.136,0.504
"Niacin",mg,--,--,3.704,13.719
"Vitamin A, IU",IU,--,--,0,0
Lipids
"Fatty acids, total saturated",g,--,--,0.000,0.000
"Fatty acids, total trans",g,--,--,0.000,0.000
"Cholesterol",mg,--,--,0,0
Amino Acids
Other
Ingredients
"UNBLEACHED WHEAT FLOUR, WATER, BLUEBERRY BITS [SUGAR, WHEAT FLOUR, CANOLA OIL, WHEAT STARCH, DEXTROSE, FRUIT JUICE CONCENTRATES (ELDERBERRY, WATERMELON, HUITO), NATURAL FLAVORS, DRIED BLUEBERRIES, BAKING SODA], YEAST, SUGAR, CORNMEAL, SOYBEAN OIL, SALT, PALM AND PALM KERNEL OILS, CINNAMON, NATURAL FLAVORS, CULTURED WHEAT FLOUR, CALCIUM SULFATE, VINEGAR, CITRIC ACID, MALTED BARLEY FLOUR, ENRICHMENT [FERROUS SULFATE (IRON), THIAMINE HYDROCHLORIDE (VITAMIN B1), RIBOFLAVIN (VITAMIN B2), NIACIN (VITAMIN B3), FOLIC ACID], ASCORBIC ACID, SOY LECITHIN; TOPPED WITH CORNMEAL AND CINNAMON TOPPING." Date available: 07/28/2017 Date last updated by company: 07/28/2017
