Source: USDA Branded Food Products Database Release December 2017 Software v.3.8.6.4 2017-10-02
Report Run at: December 17, 2017 05:17 EST
"Nutrient data for: 45196744, ENGLISH MUFFIN, UPC: 052548561505"
Food Group:  Branded Food Products Database
Common Name:

Nutrient,Unit,Data points,Std. Error,"1 SANDWICH = 129.0g",1Value per 100 g,
Proximates
"Energy",kcal,--,--,301,233
"Protein",g,--,--,15.00,11.63
"Total lipid (fat)",g,--,--,14.00,10.85
"Carbohydrate, by difference",g,--,--,29.00,22.48
"Fiber, total dietary",g,--,--,2.1,1.6
"Sugars, total",g,--,--,2.00,1.55
Minerals
"Calcium, Ca",mg,--,--,301,233
"Iron, Fe",mg,--,--,2.93,2.27
"Sodium, Na",mg,--,--,780,605
Vitamins
"Vitamin C, total ascorbic acid",mg,--,--,1.3,1.0
"Vitamin A, IU",IU,--,--,433,336
Lipids
"Fatty acids, total saturated",g,--,--,5.005,3.880
"Fatty acids, total trans",g,--,--,0.000,0.000
"Cholesterol",mg,--,--,135,105
Amino Acids
Other
Ingredients
"ENGLISH MUFFIN (ENRICHED WHEAT FLOUR (WHEAT FLOUR ENRICHED WITH NIACIN, FERROUS SULFATE, THIAMINE, RIBOFLAVIN, FOLIC ACID), WATER, YEAST, CONTAINS 2% OR LESS OF: SALT, VINEGAR, PARTIALLY HYDROGENATED SOYBEAN AND COTTONSEED OIL, WHITE CORN FLOUR, WHITE CORN MEAL, DEXTROSE, CALCIUM PROPIONATE AND POTASSIUM SORBATE (PRESERVATIVES), MONO & DIGLYCERIDES, SUGAR, WHEAT GLUTEN, POTATO STARCH, YEAST FOOD (MONOCALCIUM PHOSPHATE, CALCIUM SULFATE, AMMONIUM SULFATE), MALTED BARLEY FLOUR), SCRAMBLED EGG PATTY (WHOLE EGGS WHEY, SKIM MILK, SOYBEAN OIL, CONTAINS 2% OR LESS OF THE FOLLOWING: DICALCIUM PHOSPHATE, SALT, SODIUM BICARBONATE, XANTHAN GUM, NATURAL BUTTER FLAVOR, CITRIC ACID, LIQUID PEPPER EXTRACT), BACON (BACON CURED WITH WATER, SALT, SUGAR, SODIUM PHOSPHATE, NATURAL FLAVOR (WATER, NATURAL FLAVORS), SODIUM DIACETATE, SODIUM ERYTHORBATE, SODIUM NITRATE), PASTEURIZED PROCESS CHEDDAR CHEESE (PASTEURIZED MILK, WATER, CREAM, SODIUM PHOSPHATE, CHEESE CULTURE, CONTAINS LESS THAN 2% OF ANNATTO (VEGETABLE COLOR), APO-CAROTENAL (COLOR), ENZYMES, SALT, SORBIC ACID (PRESERVATIVE))" Date available: 08/29/2017 Date last updated by company: 08/29/2017
