Source: USDA Branded Food Products Database Release December 2017 Software v.3.8.6.4 2017-10-02
Report Run at: December 17, 2017 05:16 EST
"Nutrient data for: 45329661, ENGLISH MUFFINS SOURDOUGH, UPC: 046567006796"
Food Group:  Branded Food Products Database
Common Name:

Nutrient,Unit,Data points,Std. Error,"1 MUFFIN = 61.0g",1Value per 100 g,
Proximates
"Energy",kcal,--,--,130,213
"Protein",g,--,--,4.00,6.56
"Total lipid (fat)",g,--,--,0.50,0.82
"Carbohydrate, by difference",g,--,--,26.00,42.62
"Fiber, total dietary",g,--,--,1.0,1.6
"Sugars, total",g,--,--,1.00,1.64
Minerals
"Calcium, Ca",mg,--,--,100,164
"Iron, Fe",mg,--,--,1.18,1.94
"Sodium, Na",mg,--,--,350,574
Vitamins
"Vitamin C, total ascorbic acid",mg,--,--,0.0,0.0
"Thiamin",mg,--,--,0.000,0.000
"Riboflavin",mg,--,--,0.112,0.183
"Niacin",mg,--,--,1.312,2.151
"Vitamin A, IU",IU,--,--,0,0
Lipids
"Fatty acids, total saturated",g,--,--,0.000,0.000
"Fatty acids, total monounsaturated",g,--,--,0.000,0.000
"Fatty acids, total polyunsaturated",g,--,--,0.000,0.000
"Fatty acids, total trans",g,--,--,0.000,0.000
"Cholesterol",mg,--,--,0,0
Amino Acids
Other
Ingredients
"ENRICHED WHEAT FLOUR [FLOUR, MALTED BARLEY FLOUR, REDUCED IRON, NIACIN, THIAMIN MONONITRATE (VITAMIN B1), RIBOFLAVIN (VITAMIN B2), FOLIC ACID], WATER, RICE FLOUR, YEAST, HIGH FRUCTOSE CORN SYRUP, CORNMEAL, SALT, GRAIN VINEGAR, CALCIUM PROPIONATE (PRESERVATIVE), LEAVENING (SODIUM ACID PYROPHOSPHATE, BAKING SODA, MONOCALCIUM PHOSPHATE), SOYBEAN OIL, CORNSTARCH, FUMARIC ACID, CORN SYRUP, CALCIUM SULFATE, NATURAL FLAVOR, SOY LECITHIN." Date available: 10/13/2017 Date last updated by company: 10/13/2017
