Source: USDA Branded Food Products Database Release December 2017 Software v.3.8.6.4 2017-10-02
Report Run at: December 17, 2017 05:19 EST
"Nutrient data for: 45138690, ENJOY LIFE, MUFFIN MIX WITH ANCIENT GRAINS, UPC: 819597010466"
Food Group:  Branded Food Products Database
Common Name:

Nutrient,Unit,Data points,Std. Error,"3.5 Tbsp = 40.0g",1Value per 100 g,
Proximates
"Energy",kcal,--,--,140,350
"Protein",g,--,--,5.00,12.50
"Total lipid (fat)",g,--,--,0.50,1.25
"Carbohydrate, by difference",g,--,--,31.00,77.50
"Fiber, total dietary",g,--,--,2.0,5.0
"Sugars, total",g,--,--,13.00,32.50
Minerals
"Calcium, Ca",mg,--,--,20,50
"Iron, Fe",mg,--,--,1.08,2.70
"Sodium, Na",mg,--,--,310,775
Vitamins
"Vitamin C, total ascorbic acid",mg,--,--,0.0,0.0
"Vitamin A, IU",IU,--,--,0,0
Lipids
"Fatty acids, total saturated",g,--,--,0.000,0.000
"Fatty acids, total trans",g,--,--,0.000,0.000
"Cholesterol",mg,--,--,0,0
Amino Acids
Other
Ingredients
"FLOUR BLEND (TEFF, WHITE RICE, BUCKWHEAT, MILLET, QUINOA), DRIED CANE SUGAR, RICE STARCH, TAPIOCA STARCH, ALGAL PROTEIN, BROWN RICE PROTEIN, SPROUTED BROWN RICE PROTEIN, NATURAL VANILLA FLAVOR, KONJAC, LEAVENING (BAKING SODA, CREAM OF TARTAR, MONOCALCIUM" Date available: 09/23/2016 Date last updated by company: 09/23/2016
