Source: USDA Branded Food Products Database Release December 2017 Software v.3.8.6.4 2017-10-02
Report Run at: December 17, 2017 05:19 EST
"Nutrient data for: 45138717, ENJOY LIFE, BAKED CHEWY BARS, MIXED BERRY, UPC: 853522000429"
Food Group:  Branded Food Products Database
Common Name:

Nutrient,Unit,Data points,Std. Error,"1 BAR = 28.0g",1Value per 100 g,
Proximates
"Energy",kcal,--,--,110,393
"Protein",g,--,--,1.00,3.57
"Total lipid (fat)",g,--,--,2.50,8.93
"Carbohydrate, by difference",g,--,--,21.00,75.00
"Fiber, total dietary",g,--,--,1.0,3.6
"Sugars, total",g,--,--,8.00,28.57
Minerals
"Calcium, Ca",mg,--,--,20,71
"Iron, Fe",mg,--,--,0.72,2.57
"Magnesium, Mg",mg,--,--,8,29
"Sodium, Na",mg,--,--,80,286
Vitamins
"Vitamin C, total ascorbic acid",mg,--,--,3.6,12.9
"Thiamin",mg,--,--,0.450,1.607
"Riboflavin",mg,--,--,0.510,1.821
"Niacin",mg,--,--,6.000,21.429
"Vitamin B-6",mg,--,--,0.500,1.786
"Vitamin A, IU",IU,--,--,0,0
Lipids
"Fatty acids, total saturated",g,--,--,0.000,0.000
"Fatty acids, total trans",g,--,--,0.000,0.000
"Cholesterol",mg,--,--,0,0
Amino Acids
Other
Ingredients
"TAPIOCA SYRUP, VEGETABLE GLYCERIN, RICE CRISPS (RICE FLOUR, RICE BRAN, RASIN JUICE CONCENTRATE, HONEY, SALT), FLOUR MIX (RICE, BUCKWHEAT, MILLET), BROWN CANE SUGAR, DRIED CANE SYRUP, EXPELLER PRESSED VEGETABLE OIL (SAFFLOWER OIL AND/OR SUNFLOWER OIL), DAT" Date available: 09/23/2016 Date last updated by company: 09/23/2016
