Source: USDA Branded Food Products Database Release December 2017 Software v.3.8.6.4 2017-10-02
Report Run at: December 17, 2017 05:23 EST
"Nutrient data for: 45280401, ENRICHED HAMBURGER BUNS, UPC: 036800145801"
Food Group:  Branded Food Products Database
Common Name:

Nutrient,Unit,Data points,Std. Error,"1 BUN = 38.0g",1Value per 100 g,
Proximates
"Energy",kcal,--,--,110,289
"Protein",g,--,--,4.00,10.53
"Total lipid (fat)",g,--,--,1.50,3.95
"Carbohydrate, by difference",g,--,--,21.00,55.26
"Fiber, total dietary",g,--,--,1.0,2.6
"Sugars, total",g,--,--,3.00,7.89
Minerals
"Calcium, Ca",mg,--,--,60,158
"Iron, Fe",mg,--,--,1.90,4.99
"Sodium, Na",mg,--,--,240,632
Vitamins
"Vitamin C, total ascorbic acid",mg,--,--,0.0,0.0
"Thiamin",mg,--,--,0.380,1.000
"Riboflavin",mg,--,--,0.134,0.353
"Niacin",mg,--,--,2.106,5.542
"Vitamin A, IU",IU,--,--,0,0
Lipids
"Fatty acids, total saturated",g,--,--,0.000,0.000
"Fatty acids, total trans",g,--,--,0.000,0.000
"Cholesterol",mg,--,--,0,0
Amino Acids
Other
Ingredients
"ENRICHED UNBLEACHED FLOUR (WHEAT FLOUR, MALTED BARLEY FLOUR, NIACIN, REDUCED IRON, THIAMINE MONONITRATE, RIBOFLAVIN, FOLIC ACID), WATER, HIGH FRUCTOSE CORN SYRUP, YEAST, SOYBEAN OIL. CONTAINS LESS THAN 2% OF THE FOLLOWING: SALT, WHEAT GLUTEN, DOUGH CONDITIONERS (MONOGLYCERIDES, SODIUM STEAROYL LACTYLATE, ASCORBIC ACID, AZODICARBONAMIDE, CALCIUM SULFATE, CALCIUM PEROXIDE, ENZYMES), MONOCALCIUM PHOSPHATE, CALCIUM PROPIONATE (PRESERVATIVE)." Date available: 07/14/2017 Date last updated by company: 07/14/2017
