Source: USDA Branded Food Products Database Release December 2017 Software v.3.8.6.4 2017-10-02
Report Run at: December 17, 2017 05:25 EST
"Nutrient data for: 45254981, ENRICHED LONG GRAIN INSTANT WHITE RICE, UPC: 035826095565"
Food Group:  Branded Food Products Database
Common Name:

Nutrient,Unit,Data points,Std. Error,"0.5 cup = 46.0g",1Value per 100 g,
Proximates
"Energy",kcal,--,--,170,370
"Protein",g,--,--,4.00,8.70
"Total lipid (fat)",g,--,--,0.00,0.00
"Carbohydrate, by difference",g,--,--,38.00,82.61
"Fiber, total dietary",g,--,--,0.0,0.0
"Sugars, total",g,--,--,0.00,0.00
Minerals
"Calcium, Ca",mg,--,--,0,0
"Iron, Fe",mg,--,--,1.06,2.30
"Sodium, Na",mg,--,--,0,0
Vitamins
"Vitamin C, total ascorbic acid",mg,--,--,0.0,0.0
"Thiamin",mg,--,--,0.000,0.000
"Niacin",mg,--,--,1.566,3.404
"Vitamin A, IU",IU,--,--,0,0
Lipids
"Fatty acids, total saturated",g,--,--,0.000,0.000
"Fatty acids, total trans",g,--,--,0.000,0.000
"Cholesterol",mg,--,--,0,0
Amino Acids
Other
Ingredients
"ENRICHED PRECOOKED LONG GRAIN RICE (RICE, NIACIN, IRON [FERRIC ORTHOPHOSPHATE], THIAMIN [THIAMIN MONONITRATE], FOLIC ACID)." Date available: 07/14/2017 Date last updated by company: 07/14/2017
