Source: USDA Branded Food Products Database Release December 2017 Software v.3.8.6.4 2017-10-02
Report Run at: December 17, 2017 05:34 EST
"Nutrient data for: 45160500, ENSTROM, BUTTER TOFFEE PETITES, UPC: 635104177176"
Food Group:  Branded Food Products Database
Common Name:

Nutrient,Unit,Data points,Std. Error,"2.0 PIECES = 31.0g",1Value per 100 g,
Proximates
"Energy",kcal,--,--,160,516
"Protein",g,--,--,1.00,3.23
"Total lipid (fat)",g,--,--,12.00,38.71
"Carbohydrate, by difference",g,--,--,15.00,48.39
"Fiber, total dietary",g,--,--,1.0,3.2
"Sugars, total",g,--,--,13.00,41.94
Minerals
"Calcium, Ca",mg,--,--,0,0
"Iron, Fe",mg,--,--,1.74,5.62
"Sodium, Na",mg,--,--,65,210
Vitamins
"Vitamin C, total ascorbic acid",mg,--,--,0.0,0.0
"Vitamin A, IU",IU,--,--,322,1040
Lipids
"Fatty acids, total saturated",g,--,--,7.000,22.580
"Fatty acids, total trans",g,--,--,0.000,0.000
"Cholesterol",mg,--,--,20,65
Amino Acids
Other
Ingredients
"BUTTER (PASTEURIZED CREAM, SALT), SUGAR, SEMISWEET CHOCOLATE (CHOCOLATE LIQUOR PROCESSED WITH POTASSIUM CARBONATE, SUGAR, COCOA BUTTER), SOY LECITHIN, PURE VANILLA), SALT." Date available: 07/14/2017 Date last updated by company: 07/14/2017
