Source: USDA Branded Food Products Database Release December 2017 Software v.3.8.6.4 2017-10-02
Report Run at: December 17, 2017 05:35 EST
"Nutrient data for: 45043125, ENTENMANN'S, POP'EMS, HOLIDAY SPRINKLED, UPC: 072030001258"
Food Group:  Branded Food Products Database
Common Name:

Nutrient,Unit,Data points,Std. Error,"4.0 pieces = 52.0g",1Value per 100 g,
Proximates
"Energy",kcal,--,--,230,442
"Protein",g,--,--,1.00,1.92
"Total lipid (fat)",g,--,--,12.00,23.08
"Carbohydrate, by difference",g,--,--,31.00,59.62
"Fiber, total dietary",g,--,--,0.0,0.0
"Sugars, total",g,--,--,22.00,42.31
Minerals
"Calcium, Ca",mg,--,--,150,288
"Iron, Fe",mg,--,--,0.38,0.73
"Sodium, Na",mg,--,--,80,154
Vitamins
"Vitamin C, total ascorbic acid",mg,--,--,0.0,0.0
"Vitamin A, IU",IU,--,--,0,0
Lipids
"Fatty acids, total saturated",g,--,--,6.001,11.540
"Fatty acids, total trans",g,--,--,0.000,0.000
"Cholesterol",mg,--,--,10,19
Amino Acids
Other
Ingredients
"SUGAR, PALM OIL, SPRINKLES [SUGAR, DEXTROSE, TAPIOCA STARCH, PALM KERNEL FAT, SALT, GLYCERIN, SOY LECITHIN, CONFECTIONER'S GLAZE, GUM ARABIC, FD&C COLORS (RED 40, RED 3, YELLOW 5, BLUE 1), ARTIFICIAL FLAVOR], WATER, ENRICHED FLOUR [WHEAT FLOUR, MALTED BARLEY FLOUR, NIACIN, REDUCED IRON, THIAMIN MONONITRATE (VITAMIN B1), RIBOFLAVIN (VITAMIN B2), FOLIC ACID], COCOA (PROCESSED WITH ALKALI), SOYBEAN OIL, MALTODEXTRIN, NATURAL & ARTIFICIAL FLAVORS, GLYCERIN, HIGH FRUCTOSE CORN SYRUP, EGG YOLK, LEAVENING (BAKING SODA, SODIUM ALUMINIUM PHOSPHATE, SODIUM ALUMINIUM PHOSPHATE, SODIUM PHOSPHATE), MODIFIED CORNSTARCH, CALCIUM CARBONATE, SOY FLOUR, DEXTROSE, CORN SYRUP SOLIDS, WHEAT STARCH, SALT, NONFAT MILK, CALCIUM SULFATE, WHEY, SOY LECITHIN, BUTTERMILK, MONO- AND DIGLYCERIDES, POLYSORBATE 60, AGAR, CAROB BEAN GUM, XANTHAN GUM, FOOD STARCH-MODIFIED, POTASSIUM SORBATE (PRESERVATIVE), ARTIFICIAL COLOR, CELLULOSE GUM, GUAR GUM, CARAMEL COLOR." Date available: 07/14/2017 Date last updated by company: 07/14/2017
