Source: USDA Branded Food Products Database Release December 2017 Software v.3.8.6.4 2017-10-02
Report Run at: December 17, 2017 05:34 EST
"Nutrient data for: 45012014, ENTENMANN'S, DANISH TWIST, CINNAMON, UPC: 072030013367"
Food Group:  Branded Food Products Database
Common Name:

Nutrient,Unit,Data points,Std. Error,"0.125 DANISH = 50.0g",1Value per 100 g,
Proximates
"Energy",kcal,--,--,200,400
"Protein",g,--,--,2.00,4.00
"Total lipid (fat)",g,--,--,9.00,18.00
"Carbohydrate, by difference",g,--,--,27.00,54.00
"Fiber, total dietary",g,--,--,1.0,2.0
"Sugars, total",g,--,--,13.00,26.00
Minerals
"Calcium, Ca",mg,--,--,20,40
"Iron, Fe",mg,--,--,0.40,0.79
"Sodium, Na",mg,--,--,190,380
Vitamins
"Vitamin C, total ascorbic acid",mg,--,--,0.0,0.0
"Vitamin A, IU",IU,--,--,330,660
Lipids
"Fatty acids, total saturated",g,--,--,4.000,8.000
"Fatty acids, total trans",g,--,--,0.000,0.000
"Cholesterol",mg,--,--,15,30
Amino Acids
Other
Ingredients
"WHEAT FLOUR, WATER, PALM OIL, SUGAR, HIGH FRUCTOSE CORN SYRUP, EGGS, DEXTROSE, SOYBEAN OIL, INVERT SUGAR, WHEAT STARCH, YEAST, WHEY (MILK), CINNAMON, MONO- AND DIGLYCERIDES, SOY FLOUR, MODIFIED CORNSTARCH, SALT, MOLASSES, CORN SYRUP, NATURAL & ARTIFICIAL FLAVORS, OAT FIBER, TAPIOCA DEXTRIN, SOY LECITHIN, CELLULOSE GUM, SODIUM STEAROYL LACTYLATE, MALTODEXTRIN, CORN FLOUR, PRESERVATIVES (POTASSIUM SORBATE, SULFITING AGENTS), LEAVENING (SODIUM ACID PYROPHOSPHATE, BAKING SODA, MONOCALCIUM PHOSPHATE), CALCIUM CARBONATE, CARAMEL COLOR, SPICE, XANTHAN GUM, AGAR, LEMON OIL, ARTIFICIAL COLOR, SPICE & COLORING, CALCIUM SULFATE, CITRIC ACID, SORBITAN MONOSTEARATE, NUT PASTE [CASHEWS, COCONUT, HAZELNUTS (FILBERTS) PECANS, WALNUTS], VITAMIN A PALMITATE, ANNATTO COLOR, BETA CAROTENE (COLOR)." Date available: 06/25/2017 Date last updated by company: 06/25/2017
