Source: USDA Branded Food Products Database Release December 2017 Software v.3.8.6.4 2017-10-02
Report Run at: December 17, 2017 05:35 EST
"Nutrient data for: 45043118, ENTENMANN'S, PARTY CAKE, UPC: 072030021270"
Food Group:  Branded Food Products Database
Common Name:

Nutrient,Unit,Data points,Std. Error,"0.16 cake = 85.0g",1Value per 100 g,
Proximates
"Energy",kcal,--,--,370,435
"Protein",g,--,--,2.00,2.35
"Total lipid (fat)",g,--,--,19.00,22.35
"Carbohydrate, by difference",g,--,--,48.00,56.47
"Fiber, total dietary",g,--,--,0.0,0.0
"Sugars, total",g,--,--,37.00,43.53
Minerals
"Calcium, Ca",mg,--,--,60,71
"Iron, Fe",mg,--,--,0.00,0.00
"Sodium, Na",mg,--,--,220,259
Vitamins
"Vitamin C, total ascorbic acid",mg,--,--,0.0,0.0
"Vitamin A, IU",IU,--,--,0,0
Lipids
"Fatty acids, total saturated",g,--,--,7.004,8.240
"Fatty acids, total monounsaturated",g,--,--,6.001,7.060
"Fatty acids, total polyunsaturated",g,--,--,6.001,7.060
"Fatty acids, total trans",g,--,--,0.000,0.000
"Cholesterol",mg,--,--,35,41
Amino Acids
Other
Ingredients
"SUGAR, WATER. WHEAT FLOUR, EGGS, PALM OIL, SOYBEAN OIL, CORN SYRUP, WHEY (MILK), HIGH FRUCTOSE CORN SYRUP, MODIFIED CORNSTARCH, MONO- AND DIGLYCERIDES, GLYCERYL LACTOESTERSOF FATTY ACIDS, LEAVENING SODIUM ACID PYROPHOSPHATE, BAKING SODA, MONOCALCIUM PHOSPHATE), HYDROGENATED PALM KERNEL OIL, SALT, CORNSTARCH, NATURAL & ARTIFICIAL FLAVORS, POTASSIUM SORBATE (PRESERVATIVE), POLYSORBATE 60, SODIUM STEAROYL LACTYLATE, SOY LECITHIN, CALCIUM CARBONATE, CALCIUM CHLORIDE, RED 40, YELLOW 5&6, XANTHAN GUM, ARTIFICIAL COLOR, CALCIUM SULFATE, CARNAUBA WAX, DEXTROSE, AGAR, CAROB BEAN GUM, RED 3, BLUE 1, CARAMEL COLOR, SOY FLOUR." Date available: 10/09/2017 Date last updated by company: 10/09/2017
