Source: USDA Branded Food Products Database Release December 2017 Software v.3.8.6.4 2017-10-02
Report Run at: December 17, 2017 05:38 EST
"Nutrient data for: 45047182, ERU, SPREADABLE GOAT CHEESE, UPC: 857766002041"
Food Group:  Branded Food Products Database
Common Name:

Nutrient,Unit,Data points,Std. Error,"1 ONZ = 28.0g",1Value per 100 g,
Proximates
"Energy",kcal,--,--,74,264
"Protein",g,--,--,5.00,17.86
"Total lipid (fat)",g,--,--,6.00,21.43
"Carbohydrate, by difference",g,--,--,0.00,0.00
Minerals
"Calcium, Ca",mg,--,--,149,532
"Sodium, Na",mg,--,--,281,1004
Vitamins
Lipids
"Fatty acids, total saturated",g,--,--,4.001,14.290
"Cholesterol",mg,--,--,18,64
Amino Acids
Other
Ingredients
"GOAT CHEESE (GOAT'S MILK, SALT, CHEESE CULTURE, RENNET), WATER, BUTTER, EMULSIFYING SALT (POLYPHOSPHATES, SODIUM PHOSPHATES), COW'S MILK PROTEINS." Date available: 10/03/2017 Date last updated by company: 10/03/2017
