Source: USDA Branded Food Products Database Release December 2017 Software v.3.8.6.4 2017-10-02
Report Run at: December 17, 2017 05:50 EST
"Nutrient data for: 45091261, ESSENTIAL EVERYDAY, MUSHROOMS, PIECES & STEMS, UPC: 041303010532"
Food Group:  Branded Food Products Database
Common Name:

Nutrient,Unit,Data points,Std. Error,"0.5 cup = 130.0g",1Value per 100 g,
Proximates
"Energy",kcal,--,--,20,15
"Protein",g,--,--,2.00,1.54
"Total lipid (fat)",g,--,--,0.00,0.00
"Carbohydrate, by difference",g,--,--,3.00,2.31
"Fiber, total dietary",g,--,--,3.0,2.3
Minerals
"Iron, Fe",mg,--,--,0.71,0.55
"Sodium, Na",mg,--,--,280,215
Vitamins
"Vitamin C, total ascorbic acid",mg,--,--,1.2,0.9
Lipids
Amino Acids
Other
Ingredients
"MUSHROOMS, WATER, SALT, CITRIC ACID AND ASCORBIC ACID (PRESERVATIVES)." Date available: 10/13/2017 Date last updated by company: 10/13/2017
