Source: USDA Branded Food Products Database Release December 2017 Software v.3.8.6.4 2017-10-02
Report Run at: December 17, 2017 05:57 EST
"Nutrient data for: 45100523, ESSENTIAL LIVING FOODS, COCO GOGO ENERGY ELIXIR CHOCOLATE DRINK MIX, UPC: 812986016452"
Food Group:  Branded Food Products Database
Common Name:

Nutrient,Unit,Data points,Std. Error,"2.0 Tbsp = 18.0g",1Value per 100 g,
Proximates
"Energy",kcal,--,--,70,389
"Protein",g,--,--,1.00,5.56
"Total lipid (fat)",g,--,--,1.50,8.33
"Carbohydrate, by difference",g,--,--,15.00,83.33
"Fiber, total dietary",g,--,--,3.0,16.7
"Sugars, total",g,--,--,8.00,44.44
Minerals
"Calcium, Ca",mg,--,--,20,111
"Iron, Fe",mg,--,--,3.00,16.67
"Sodium, Na",mg,--,--,25,139
Vitamins
"Vitamin C, total ascorbic acid",mg,--,--,0.0,0.0
"Vitamin A, IU",IU,--,--,0,0
Lipids
"Fatty acids, total saturated",g,--,--,0.000,0.000
"Fatty acids, total trans",g,--,--,0.000,0.000
"Cholesterol",mg,--,--,0,0
Amino Acids
Other
Ingredients
"COCONUT SUGAR*, CACAO POWDER*, LUCUMA**, MESQUITE*, GUARANA*, VANILLA*, HIMALAYAN SEA SALT." Date available: 07/14/2017 Date last updated by company: 07/14/2017
