Source: USDA Branded Food Products Database Release December 2017 Software v.3.8.6.4 2017-10-02
Report Run at: December 17, 2017 05:49 EST
"Nutrient data for: 45002547, ESSENTIAL EVERYDAY, LONG GRAIN & WILD RICE, UPC: 041303016534"
Food Group:  Branded Food Products Database
Common Name:

Nutrient,Unit,Data points,Std. Error,"1 cup = 151.0g",1Value per 100 g,
Proximates
"Energy",kcal,--,--,160,106
"Protein",g,--,--,4.00,2.65
"Total lipid (fat)",g,--,--,1.99,1.32
"Carbohydrate, by difference",g,--,--,30.00,19.87
"Fiber, total dietary",g,--,--,1.1,0.7
"Sugars, total",g,--,--,0.00,0.00
Minerals
"Calcium, Ca",mg,--,--,20,13
"Iron, Fe",mg,--,--,0.54,0.36
"Sodium, Na",mg,--,--,439,291
Vitamins
"Vitamin C, total ascorbic acid",mg,--,--,1.4,0.9
"Thiamin",mg,--,--,0.000,0.000
"Niacin",mg,--,--,0.894,0.592
"Vitamin A, IU",IU,--,--,0,0
Lipids
"Fatty acids, total saturated",g,--,--,0.000,0.000
"Fatty acids, total monounsaturated",g,--,--,0.997,0.660
"Fatty acids, total polyunsaturated",g,--,--,0.498,0.330
"Fatty acids, total trans",g,--,--,0.000,0.000
"Cholesterol",mg,--,--,0,0
Amino Acids
Other
Ingredients
"ENRICHED PARBOILED LONG GRAIN RICE (IRON, NIACIN, THIAMINE MONONITRATE, FOLIC ACID), WILD RICE, WATER, CANOLA OIL, MALTODEXTRIN (FROM CORN), SALT, YEAST EXTRACT, SUGAR, VEGETABLES* (ONION, CARROTS, TOMATO, SPINACH, PARSLEY), SPICES, MONOSODIUM GLUTAMATE, GARLIC*, NATURAL SMOKE FLAVOR, DISODIUM INOSINATE AND DISODIUM GUANYLATE, ASCORBIC ACID." Date available: 06/25/2017 Date last updated by company: 06/25/2017
