Source: USDA Branded Food Products Database Release December 2017 Software v.3.8.6.4 2017-10-02
Report Run at: December 17, 2017 05:42 EST
"Nutrient data for: 45142991, ESSENTIAL EVERYDAY, CHEESE PARTY MIX, SNACK MIX, UPC: 041303056592"
Food Group:  Branded Food Products Database
Common Name:

Nutrient,Unit,Data points,Std. Error,"0.66 cup = 28.0g",1Value per 100 g,
Proximates
"Energy",kcal,--,--,140,500
"Protein",g,--,--,2.00,7.14
"Total lipid (fat)",g,--,--,7.00,25.00
"Carbohydrate, by difference",g,--,--,17.00,60.71
"Fiber, total dietary",g,--,--,1.0,3.6
"Sugars, total",g,--,--,1.00,3.57
Minerals
"Calcium, Ca",mg,--,--,20,71
"Iron, Fe",mg,--,--,0.64,2.29
"Potassium, K",mg,--,--,60,214
"Sodium, Na",mg,--,--,270,964
Vitamins
"Vitamin C, total ascorbic acid",mg,--,--,0.0,0.0
"Vitamin A, IU",IU,--,--,179,638
Lipids
"Fatty acids, total saturated",g,--,--,1.000,3.570
"Fatty acids, total monounsaturated",g,--,--,1.999,7.140
"Fatty acids, total polyunsaturated",g,--,--,4.001,14.290
"Fatty acids, total trans",g,--,--,0.000,0.000
"Cholesterol",mg,--,--,0,0
Amino Acids
Other
Ingredients
"NACHO TORTILLA CHIPS [WHOLE CORN, VEGETABLE OIL (CORN, AND/OR SUNFLOWER, AND/OR CANOLA), WHEY, SALT, MALTODEXTRIN, CHEDDAR, ROMANO, PARMESAN CHEESE (CULTURED COW'S MILK, SALT, ENZYMES), TOMATO POWDER, WHEY PROTEIN CONCENTRATE, MONOSODIUM GLUTAMATE, ONION POWDER, BUTTERMILK, GARLIC POWDER, NONFAT DRY MILK, NATURAL AND ARTIFICIAL FLAVORS, DEXTROSE, DISODIUM PHOSPHATE, ARTIFICIAL COLORS (INCLUDING EXTRACTIVES OF ANNATTO, RED 40 LAKE, YELLOW 6, YELLOW 5, YELLOW 5 LAKE, YELLOW 6 LAKE), SUGAR, CITRIC ACID, SPICE, YEAST EXTRACT, LACTIC ACID], CHILI CHEESE CHIPS [CORN, VEGETABLE OIL (CORN, AND/OR SUNFLOWER, AND/OR CANOLA), WHEY, SALT, CHILI PEPPER, CHEDDAR AND ROMANO CHEESE (COW'S MILK, CHEESE CULTURES, SALT, ENZYMES), DEXTROSE, TOMATO POWDER, BUTTER - MILK, YEAST EXTRACT, ONION POWDER, SUGAR, CREAM POWDER, NATURAL FLAVOR, CITRIC ACID, MALTODEXTRIN, GARLIC POWDER, SPICES, LACTIC ACID], CHEESE CURLS [ENRICHED CORNMEAL (CORNEAL, NIACIN,FERROUS SULFATE, CORN-STARCH, TRICALCIUM PHOSPHATE, THIAMINE MONONITRATE, RIBOFLAVIN, AND FOLIC ACID), VEGETABLE OIL (CORN, AND/OR SUNFLOWER, AND/OR CANOLA), WHEY, MALTODEXTRIN, REDUCED LACTOSE WHEY, SALT,CHEDDAR AND BLUE CHEESE (CULTURED MILK, SALT, ENZYMES), ARTIFICIAL FLAVOR, DISODIUM PHOSPHATE, CREAM, WHEY PROTEIN CONCENTRATE, ARTIFICIAL COLOR (YELLOW 6, EXTRACTIVES, OF TURMERIC, YELLOW 5), LACTIC ACID, CITRIC ACID], MINI PRETZEL TWISTS [ENRICHED FLOUR (WHEAT FLOUR, NIACIN, REDUCED IRON, THIAMINE MONONITRATE, RIBOFLAVIN, FOLIC ACID), CORN SYRUP, SALT, YEAST]." Date available: 07/14/2017 Date last updated by company: 07/14/2017
