Source: USDA Branded Food Products Database Release December 2017 Software v.3.8.6.4 2017-10-02
Report Run at: December 17, 2017 05:44 EST
"Nutrient data for: 45108450, ESSENTIAL EVERYDAY, DRINK MIX, ORANGE, UPC: 041303011010"
Food Group:  Branded Food Products Database
Common Name:

Nutrient,Unit,Data points,Std. Error,"0.125 CAP, (MAKES 8 FL OZ) = 17.0g",1Value per 100 g,
Proximates
"Energy",kcal,--,--,60,353
"Protein",g,--,--,0.00,0.00
"Total lipid (fat)",g,--,--,0.00,0.00
"Carbohydrate, by difference",g,--,--,16.00,94.12
"Sugars, total",g,--,--,16.00,94.12
Minerals
"Calcium, Ca",mg,--,--,20,118
"Sodium, Na",mg,--,--,15,88
Vitamins
"Vitamin C, total ascorbic acid",mg,--,--,17.6,103.8
Lipids
Amino Acids
Other
Ingredients
"SUGAR, FRUCTOSE, CONTAINS LESS THAN 2% OF: CITRIC ACID (PROVIDES TARTNESS), ASCORBIC ACID (VITAMIN C), NATURAL AND ARTIFICIAL FLAVOR, CALCIUM PHOSPHATE (PREVENTS CAKING), SODIUM CITRATE (CONTROLS ACIDITY), ARTIFICIAL COLOR, YELLOW 6, YELLOW 6 LAKE, RED 40 LAKE." Date available: 08/11/2017 Date last updated by company: 08/11/2017
