Source: USDA Branded Food Products Database Release December 2017 Software v.3.8.6.4 2017-10-02
Report Run at: December 17, 2017 05:51 EST
"Nutrient data for: 45242387, ESSENTIAL EVERYDAY, ORIGINAL SYRUP, UPC: 041303019924"
Food Group:  Branded Food Products Database
Common Name:

Nutrient,Unit,Data points,Std. Error,"0.25 cup = 60.0g",1Value per 100 g,
Proximates
"Energy",kcal,--,--,210,350
"Protein",g,--,--,0.00,0.00
"Total lipid (fat)",g,--,--,0.00,0.00
"Carbohydrate, by difference",g,--,--,53.00,88.33
"Sugars, total",g,--,--,33.00,55.00
Minerals
"Sodium, Na",mg,--,--,80,133
Vitamins
Lipids
Amino Acids
Other
Ingredients
"CORN SYRUP, HIGH FRUCTOSE CORN SYRUP, WATER, CONTAINS LESS THAN 2% IF NATURAL AND ARTIFICIAL FLAVORS, CELLULOSE GUM, SALT, CARMEL COLOR SODIUM BENZOATE AND SORBIC ACID (PERSERVATIVES), AND SODIUM HEXAMETAPHOSPHATE." Date available: 06/25/2017 Date last updated by company: 06/25/2017
