Source: USDA Branded Food Products Database Release December 2017 Software v.3.8.6.4 2017-10-02
Report Run at: December 17, 2017 05:51 EST
"Nutrient data for: 45108492, ESSENTIAL EVERYDAY, PANCAKE & WAFFLE MIX, COMPLETE BUTTERMILK, UPC: 041303019481"
Food Group:  Branded Food Products Database
Common Name:

Nutrient,Unit,Data points,Std. Error,"4.0 -INCH PANCAKES | MAKES ABOUT FOUR = 61.0g",1Value per 100 g,
Proximates
"Energy",kcal,--,--,220,361
"Protein",g,--,--,6.00,9.84
"Total lipid (fat)",g,--,--,2.00,3.28
"Carbohydrate, by difference",g,--,--,43.00,70.49
"Fiber, total dietary",g,--,--,1.0,1.6
"Sugars, total",g,--,--,9.00,14.75
Minerals
"Calcium, Ca",mg,--,--,100,164
"Iron, Fe",mg,--,--,1.18,1.94
"Phosphorus, P",mg,--,--,229,376
"Sodium, Na",mg,--,--,610,1000
Vitamins
"Vitamin C, total ascorbic acid",mg,--,--,0.0,0.0
"Thiamin",mg,--,--,0.000,0.000
"Riboflavin",mg,--,--,0.112,0.183
"Niacin",mg,--,--,2.000,3.279
"Vitamin A, IU",IU,--,--,0,0
Lipids
"Fatty acids, total saturated",g,--,--,0.000,0.000
"Fatty acids, total trans",g,--,--,0.000,0.000
"Cholesterol",mg,--,--,15,25
Amino Acids
Other
Ingredients
"ENRICHED BLEACHED FLOUR (BLEACHED WHEAT FLOUR, MALTED BARLEY FLOUR, NIACIN, IRON, THIAMINE MONONITRATE, RIBOFLAVIN, FOLIC ACID), SUGAR, LEAVENING (BAKING SODA, SODIUM ALUMINUM PHOSPHATE, MONOCALCIUM PHOSPHATE), CONTAINS 2% OR LESS OF: SOYBEAN OIL, DEXTROSE, BUTTERMILK, EGG YOLK, SALT, CORN STARCH, EGG WHITE." Date available: 06/25/2017 Date last updated by company: 06/25/2017
