Source: USDA Branded Food Products Database Release December 2017 Software v.3.8.6.4 2017-10-02
Report Run at: December 17, 2017 05:41 EST
"Nutrient data for: 45173709, ESSENTIAL EVERYDAY, BREAD, HONEY WHOLE WHEAT, UPC: 041303780831"
Food Group:  Branded Food Products Database
Common Name:

Nutrient,Unit,Data points,Std. Error,"1 SLICE = 43.0g",1Value per 100 g,
Proximates
"Energy",kcal,--,--,110,256
"Protein",g,--,--,4.00,9.30
"Total lipid (fat)",g,--,--,2.00,4.65
"Carbohydrate, by difference",g,--,--,19.00,44.19
"Fiber, total dietary",g,--,--,3.0,7.0
"Sugars, total",g,--,--,4.00,9.30
Minerals
"Calcium, Ca",mg,--,--,100,233
"Iron, Fe",mg,--,--,1.26,2.92
"Sodium, Na",mg,--,--,150,349
Vitamins
"Vitamin C, total ascorbic acid",mg,--,--,0.0,0.0
"Thiamin",mg,--,--,0.000,0.000
"Riboflavin",mg,--,--,0.034,0.079
"Niacin",mg,--,--,1.396,3.247
"Vitamin A, IU",IU,--,--,0,0
Lipids
"Fatty acids, total saturated",g,--,--,0.000,0.000
"Fatty acids, total monounsaturated",g,--,--,0.000,0.000
"Fatty acids, total polyunsaturated",g,--,--,1.002,2.330
"Fatty acids, total trans",g,--,--,0.000,0.000
"Cholesterol",mg,--,--,0,0
Amino Acids
Other
Ingredients
"WHOLE WHEAT FLOUR, WATER, YEAST, WHEAT GLUTEN, HONEY, SUGAR, SOYBEAN OIL. CONTAINS 2% OR LESS OF: MOLASSES, OAT FLAKES, SALT, VINEGAR, CALCIUM PROPIONATE (TO RETAIN FRESHNESS), SODIUM STEAROYL LACTYLATE, CALCIUM CARBONATE, CALCIUM SULFATE, MONOCALCIUM PHOSPHATE, YEAST EXTRACT, SOY LECITHIN, AZODICARBONAMIDE, CALCIUM DIOXIDE, SOY FLOUR, WHEY." Date available: 07/14/2017 Date last updated by company: 07/14/2017
