Source: USDA Branded Food Products Database Release December 2017 Software v.3.8.6.4 2017-10-02
Report Run at: December 17, 2017 05:59 EST
"Nutrient data for: 45162060, ETHEL'S EDIBLES, JUKEBOX JUMBLE COOKIES, UPC: 858494004215"
Food Group:  Branded Food Products Database
Common Name:

Nutrient,Unit,Data points,Std. Error,"1 COOKIE = 33.1g",1Value per 100 g,
Proximates
"Energy",kcal,--,--,150,453
"Protein",g,--,--,2.00,6.04
"Total lipid (fat)",g,--,--,7.00,21.15
"Carbohydrate, by difference",g,--,--,20.00,60.42
"Fiber, total dietary",g,--,--,2.0,6.0
"Sugars, total",g,--,--,13.00,39.27
Minerals
"Calcium, Ca",mg,--,--,0,0
"Iron, Fe",mg,--,--,1.09,3.28
"Sodium, Na",mg,--,--,15,45
Vitamins
Lipids
"Fatty acids, total saturated",g,--,--,3.499,10.570
"Fatty acids, total trans",g,--,--,0.000,0.000
"Cholesterol",mg,--,--,10,30
Amino Acids
Other
Ingredients
"GLUTEN FREE OAT FLOUR, RAISINS, SEMI-SWEET CHOCOLATE CHIPS (SUGAR, UNSWEETENED CHOCOLATE, COCOA BUTTER, SOY LECITHIN, NATURAL VANILLA EXTRACT), PALM OIL, BROWN CANE SUGAR, WHITE CANE SUGAR, CAGE FREE EGGS, WHITE CHOCOLATE CHIPS (SUGAR, COCOA BUTTER, WHOLE MILK POWDER, NONFAT DRY MILK, MILKFAT, SOY LECITHIN, NATURAL VANILLA EXTRACT), GLUTEN FREE OATS, COCONUT, HONEY, PURE VANILLA EXTRACT (WATER, ALCOHOL, SUGAR, VANILLA BEAN EXTRATIVES), SALT." Date available: 10/13/2017 Date last updated by company: 10/13/2017
