Source: USDA Branded Food Products Database Release December 2017 Software v.3.8.6.4 2017-10-02
Report Run at: December 17, 2017 06:01 EST
"Nutrient data for: 45030883, EUROPEAN GOURMET BAKERY, ORGANIC MUFFIN MIX, APPLE CINNAMON, UPC: 058336175220"
Food Group:  Branded Food Products Database
Common Name:

Nutrient,Unit,Data points,Std. Error,"3.0 Tbsp = 38.0g",1Value per 100 g,
Proximates
"Energy",kcal,--,--,140,368
"Protein",g,--,--,2.00,5.26
"Total lipid (fat)",g,--,--,0.00,0.00
"Carbohydrate, by difference",g,--,--,32.00,84.21
"Fiber, total dietary",g,--,--,1.0,2.6
"Sugars, total",g,--,--,17.00,44.74
Minerals
"Calcium, Ca",mg,--,--,0,0
"Iron, Fe",mg,--,--,0.76,1.99
"Sodium, Na",mg,--,--,210,553
Vitamins
"Vitamin C, total ascorbic acid",mg,--,--,1.3,3.3
"Vitamin A, IU",IU,--,--,0,0
Lipids
"Fatty acids, total saturated",g,--,--,0.000,0.000
"Fatty acids, total trans",g,--,--,0.000,0.000
"Cholesterol",mg,--,--,0,0
Amino Acids
Other
Ingredients
"ORGANIC WHEAT FLOUR, ORGANIC SUGAR, ORGANIC APPLE, BAKING SODA, SALT, CREAM OF TARTAR, ORGANIC APPLE FLAVOR, ORGANIC GUM BLEND (ORGANIC GUAR AND LOCUST BEAN GUMS), ORGANIC CINNAMON, MALIC ACID." Date available: 06/24/2017 Date last updated by company: 06/24/2017
