Source: USDA Branded Food Products Database Release December 2017 Software v.3.8.6.4 2017-10-02
Report Run at: December 17, 2017 06:31 EST
"Nutrient data for: 45157975, EVOL, FIRE GRILLED CHICKEN POBLANO, UPC: 891627009190"
Food Group:  Branded Food Products Database
Common Name:

Nutrient,Unit,Data points,Std. Error,"1 BOWL = 255.0g",1Value per 100 g,
Proximates
"Energy",kcal,--,--,270,106
"Protein",g,--,--,18.00,7.06
"Total lipid (fat)",g,--,--,5.99,2.35
"Carbohydrate, by difference",g,--,--,38.99,15.29
"Fiber, total dietary",g,--,--,7.9,3.1
"Sugars, total",g,--,--,3.01,1.18
Minerals
"Calcium, Ca",mg,--,--,99,39
"Iron, Fe",mg,--,--,2.75,1.08
"Sodium, Na",mg,--,--,349,137
Vitamins
"Vitamin C, total ascorbic acid",mg,--,--,13.8,5.4
"Vitamin A, IU",IU,--,--,1339,525
Lipids
"Fatty acids, total saturated",g,--,--,1.989,0.780
"Fatty acids, total trans",g,--,--,0.000,0.000
"Cholesterol",mg,--,--,31,12
Amino Acids
Other
Ingredients
"COOKED BROWN RICE, COOKED BLACK BEANS, GRILLED SEASONED CHICKEN (CHICKEN WHITE MEAT, WATER, POTATO STARCH, SEA SALT), BELL PEPPERS, POBLANOS, TOMATOES, CORN, WATER, CHEDDAR CHEESE (MILK, SALT, ENZYMES), GUAJILLO PUREE (WATER, GUAJILLO PEPPERS, CITRIC ACID), LIME JUICE FROM CONCENTRATE (WATER, LIME JUICE CONCENTRATE, LIME OIL), TOMATO PASTE, CANOLA OIL, ONIONS, CILANTRO, CORN STARCH, APPLE CIDER VINEGAR (DILUTED WITH WATER TO 8% ACIDITY), SEA SALT, SPICE." Date available: 07/14/2017 Date last updated by company: 07/14/2017
