Source: USDA Branded Food Products Database Release December 2017 Software v.3.8.6.4 2017-10-02
Report Run at: December 17, 2017 06:32 EST
"Nutrient data for: 45158017, EVOL, SRIRACHA CHICKEN, UPC: 891627009176"
Food Group:  Branded Food Products Database
Common Name:

Nutrient,Unit,Data points,Std. Error,"1 BOWL = 255.0g",1Value per 100 g,
Proximates
"Energy",kcal,--,--,280,110
"Protein",g,--,--,15.99,6.27
"Total lipid (fat)",g,--,--,4.49,1.76
"Carbohydrate, by difference",g,--,--,42.00,16.47
"Fiber, total dietary",g,--,--,2.0,0.8
"Sugars, total",g,--,--,8.01,3.14
Minerals
"Calcium, Ca",mg,--,--,41,16
"Iron, Fe",mg,--,--,2.07,0.81
"Sodium, Na",mg,--,--,750,294
Vitamins
"Vitamin C, total ascorbic acid",mg,--,--,22.9,9.0
"Vitamin A, IU",IU,--,--,574,225
Lipids
"Fatty acids, total saturated",g,--,--,0.510,0.200
"Fatty acids, total trans",g,--,--,0.000,0.000
"Cholesterol",mg,--,--,31,12
Amino Acids
Other
Ingredients
"BROWN RICE*, GRILLED SEASONED WHITE MEAT CHICKEN (CHICKEN WHITE MEAT, WATER, POTATO STARCH, SEA SALT), BABY CORN, CARROTS, SNAP PEAS, BROCCOLI, SRIRACHA SAUCE (CAYENNE PEPPER PUREE, WATER, CANE SUGAR, RED JALAPENO PEPPERS, DISTILLED VINEGAR, DRIED GARLIC, CAYENNE POWDER, XANTHAN GUM, CITRIC ACID), CARAMELIZED ONION, WATER, GLUTEN-FREE TAMARI SOY SAUCE (WATER, SOYBEANS*, SALT, VINEGAR*), BROWN SUGAR, GREEN ONIONS, CANOLA OIL, CORN STARCH, THAI BASIL, HONEY, LIME JUICE, OLIVE OIL, GINGER, GARLIC." Date available: 08/07/2017 Date last updated by company: 08/07/2017
