Source: USDA Branded Food Products Database Release December 2017 Software v.3.8.6.4 2017-10-02
Report Run at: December 17, 2017 06:31 EST
"Nutrient data for: 45167025, EVOL, BALSAMIC BRUSSELS SPROUTS VEGGIE CUPS, UPC: 891627007486"
Food Group:  Branded Food Products Database
Common Name:

Nutrient,Unit,Data points,Std. Error,"1 PACKAGE = 127.0g",1Value per 100 g,
Proximates
"Energy",kcal,--,--,119,94
"Protein",g,--,--,7.00,5.51
"Total lipid (fat)",g,--,--,5.00,3.94
"Carbohydrate, by difference",g,--,--,14.00,11.02
"Fiber, total dietary",g,--,--,3.9,3.1
"Sugars, total",g,--,--,3.00,2.36
Minerals
"Calcium, Ca",mg,--,--,100,79
"Iron, Fe",mg,--,--,1.66,1.31
"Sodium, Na",mg,--,--,250,197
Vitamins
"Vitamin C, total ascorbic acid",mg,--,--,110.5,87.0
"Vitamin A, IU",IU,--,--,1152,907
Lipids
"Fatty acids, total saturated",g,--,--,1.994,1.570
"Fatty acids, total trans",g,--,--,0.000,0.000
"Cholesterol",mg,--,--,5,4
Amino Acids
Other
Ingredients
"BRUSSELS SPROUTS, BALSAMIC VINEGAR, PARMESAN CHEESE (MILK, CHEESE CULTURES, SALT, ENZYMES), UNCURED BACON - NO NITRITES OR NITRATES ADDED EXCEPT FOR THOSE NATURALLY OCCURRING IN CELERY POWDER AND SEA SALT (PORK, WATER, BROWN SUGAR, LESS THAN 2% OF SALT, VINEGAR, CELERY POWDER), GARLIC, HONEY, OIL BLEND (CANOLA OIL, EXTRA VIRGIN OLIVE OIL), MUSTARD(DISTILLED VINEGAR, WATER, MUSTARD SEED, SALT, WHITE WINE, CITRIC ACID, TURMERIC, SPICES), CORN STARCH." Date available: 07/14/2017 Date last updated by company: 07/14/2017
