Source: USDA Branded Food Products Database Release December 2017 Software v.3.8.6.4 2017-10-02
Report Run at: December 17, 2017 06:32 EST
"Nutrient data for: 45167733, EVOL, PORK & POBLANO PESTO WITH RICE, BELL PEPPERS & CHEESE, UPC: 891627007455"
Food Group:  Branded Food Products Database
Common Name:

Nutrient,Unit,Data points,Std. Error,"1 PACKAGE = 142.0g",1Value per 100 g,
Proximates
"Energy",kcal,--,--,190,134
"Protein",g,--,--,10.00,7.04
"Total lipid (fat)",g,--,--,9.00,6.34
"Carbohydrate, by difference",g,--,--,19.00,13.38
"Fiber, total dietary",g,--,--,3.0,2.1
"Sugars, total",g,--,--,2.00,1.41
Minerals
"Calcium, Ca",mg,--,--,80,56
"Iron, Fe",mg,--,--,2.47,1.74
"Sodium, Na",mg,--,--,310,218
Vitamins
"Vitamin C, total ascorbic acid",mg,--,--,12.4,8.7
"Vitamin A, IU",IU,--,--,1030,725
Lipids
"Fatty acids, total saturated",g,--,--,2.499,1.760
"Fatty acids, total trans",g,--,--,0.000,0.000
"Cholesterol",mg,--,--,26,18
Amino Acids
Other
Ingredients
"COOKED BROWN RICE*, BELL PEPPERS, COOKED SEASONED DICED PORK AND BINDER PRODUCT (PORK, WATER, ORANGE JUICE CONCENTRATE, POTATO STARCH, SEA SALT, NATURAL FLAVORING, PAPRIKA), COOKED BLACK BEANS*, POBLANO PEPPERS, ONIONS, CHEDDAR CHEESE (MILK, SALT, ENZYMES), CILANTRO, OIL BLEND (CANOLA OIL, EXTRA VIRGIN OLIVE OIL), LIME JUICE FROM CONCENTRATE (WATER, LIME JUICE CONCENTRATE, LIME OIL), GARLIC, CORN STARCH, JALAPENOS, SEA SALT, PARMESAN CHEESE (MILK, CHEESE CULTURES, SALT, ENZYMES), DEHYDRATED GARLIC, SPICES." Date available: 10/18/2017 Date last updated by company: 10/18/2017
