Source: USDA Branded Food Products Database Release December 2017 Software v.3.8.6.4 2017-10-02
Report Run at: December 17, 2017 06:31 EST
"Nutrient data for: 45167041, EVOL, BEAN, RICE & CHEDDAR BURRITO, UPC: 891627002559"
Food Group:  Branded Food Products Database
Common Name:

Nutrient,Unit,Data points,Std. Error,"1 BURRITO = 170.0g",1Value per 100 g,
Proximates
"Energy",kcal,--,--,340,200
"Protein",g,--,--,12.00,7.06
"Total lipid (fat)",g,--,--,10.00,5.88
"Carbohydrate, by difference",g,--,--,51.00,30.00
"Fiber, total dietary",g,--,--,6.0,3.5
"Sugars, total",g,--,--,1.00,0.59
Minerals
"Calcium, Ca",mg,--,--,100,59
"Iron, Fe",mg,--,--,1.19,0.70
"Sodium, Na",mg,--,--,250,147
Vitamins
"Vitamin C, total ascorbic acid",mg,--,--,2.9,1.7
"Vitamin A, IU",IU,--,--,411,242
Lipids
"Fatty acids, total saturated",g,--,--,4.998,2.940
"Fatty acids, total trans",g,--,--,0.000,0.000
"Cholesterol",mg,--,--,10,6
Amino Acids
Other
Ingredients
"FILLING: COOKED PINTO BEANS*, COOKED BROWN RICE*, CHEESE SAUCE (WHOLE MILK, CHEDDAR CHEESE [MILK, CHEESE CULTURES, SALT, ENZYMES], HEAVY CREAM, BUTTER [CREAM, SALT], WATER, POTATO FLOUR, ONIONS, RICE STARCH, PARMESAN CHEESE [PART-SKIM MILK, CHEESE CULTURES, SALT, ENZYMES], SEA SALT, SPICES), TOMATOES IN JUICE* (TOMATOES*, TOMATO JUICE*, CALCIUM CHLORIDE, CITRIC ACID), CHEDDAR CHEESE (MILK, CHEESE CULTURES, SALT, ENZYMES), ONIONS, TOMATOES, CILANTRO, SPICE MIX (SALT, ONION, SPICES, GARLIC, PAPRIKA), LIME JUICE FROM CONCENTRATE (WATER, LIME JUICE CONCENTRATE, LIME OIL), CORN STARCH, GARLIC, JALAPENOS, SALT, SPICES. TORTILLA: WHITE FLOUR*, WATER, PALM OIL*, BAKING POWDER (SODIUM ACID PYROPHOSPHATE, SODIUM BICARBONATE, CORN STARCH, MONOCALCIUM PHOSPHATE), SALT." Date available: 07/14/2017 Date last updated by company: 07/14/2017
