Source: USDA Branded Food Products Database Release December 2017 Software v.3.8.6.4 2017-10-02
Report Run at: December 17, 2017 06:33 EST
"Nutrient data for: 45243863, EVOLUTION FRESH, GREEN LEMONADE, UPC: 762357118936"
Food Group:  Branded Food Products Database
Common Name:

Nutrient,Unit,Data points,Std. Error,"1 BOTTLE = 325.0g",1Value per 100 g,
Proximates
"Energy",kcal,--,--,58,18
"Protein",g,--,--,0.00,0.00
"Total lipid (fat)",g,--,--,0.00,0.00
"Carbohydrate, by difference",g,--,--,15.99,4.92
"Fiber, total dietary",g,--,--,0.0,0.0
"Sugars, total",g,--,--,14.01,4.31
Minerals
"Calcium, Ca",mg,--,--,20,6
"Iron, Fe",mg,--,--,0.52,0.16
"Potassium, K",mg,--,--,221,68
"Sodium, Na",mg,--,--,55,17
Vitamins
"Vitamin C, total ascorbic acid",mg,--,--,0.0,0.0
"Vitamin A, IU",IU,--,--,0,0
Lipids
"Fatty acids, total saturated",g,--,--,0.000,0.000
"Fatty acids, total trans",g,--,--,0.000,0.000
"Cholesterol",mg,--,--,0,0
Amino Acids
Other
Ingredients
"FILTERED WATER, ORGANIC CELERY JUICE, ORGANIC LEMON JUICE, ORGANIC AGAVE SYRUP, ORGANIC CUCUMBER JUICE, ORGANIC SPINACH JUICE, ORGANIC ROMAINE LETTUCE JUICE, ORGANIC KALE JUICE, ORGANIC PARSLEY JUICE." Date available: 07/14/2017 Date last updated by company: 07/14/2017
