Source: USDA Branded Food Products Database Release December 2017 Software v.3.8.6.4 2017-10-02
Report Run at: December 17, 2017 06:37 EST
"Nutrient data for: 45234623, EXTEND NUTRITION, ANYTIME BARS, CHOCOLATE PEANUT BUTTER, UPC: 693413100629"
Food Group:  Branded Food Products Database
Common Name:

Nutrient,Unit,Data points,Std. Error,"1 BAR = 40.0g",1Value per 100 g,
Proximates
"Energy",kcal,--,--,150,375
"Protein",g,--,--,11.00,27.50
"Total lipid (fat)",g,--,--,3.00,7.50
"Carbohydrate, by difference",g,--,--,21.00,52.50
"Fiber, total dietary",g,--,--,5.0,12.5
"Sugars, total",g,--,--,0.00,0.00
Minerals
"Calcium, Ca",mg,--,--,40,100
"Iron, Fe",mg,--,--,1.80,4.50
"Phosphorus, P",mg,--,--,100,250
"Potassium, K",mg,--,--,55,138
"Sodium, Na",mg,--,--,180,450
Vitamins
"Vitamin C, total ascorbic acid",mg,--,--,0.0,0.0
"Vitamin A, IU",IU,--,--,0,0
Lipids
"Fatty acids, total saturated",g,--,--,1.000,2.500
"Fatty acids, total trans",g,--,--,0.000,0.000
"Cholesterol",mg,--,--,0,0
Amino Acids
Other
Ingredients
"SOY PROTEIN ISOLATE, MALTITOL SYRUP, UNCOOKED CORNSTARCH, VEGETABLE GLYCERIN, PEANUT BUTTER, ARABINOGALACTAN (FIBER), MALTITOL, RESISTANT MALTOXTRIN (FIBER), MILK PROTEIN ISOLATE, OLIGOFRUCTOSE (FIBER), PEANUTS, UNSWEETENED CHOCOLATE, PEANUT FLOUR, RICE STARCH, COCOA BUTTER, NATURAL AND ARTIFICIAL FLAVORS, SODIUM CASEINATE, MILK FAT, SOY LECITHIN, CARAMEL COLOR, SALT, SUCRALOSE, VANILLIN." Date available: 07/14/2017 Date last updated by company: 07/14/2017
