Source: USDA Branded Food Products Database Release December 2017 Software v.3.8.6.4 2017-10-02
Report Run at: December 17, 2017 06:52 EST
"Nutrient data for: 45085574, EXTRA VIRGIN OLIVE OIL, UPC: 078858620657"
Food Group:  Branded Food Products Database
Common Name:

Nutrient,Unit,Data points,Std. Error,"1 WRAP = 62.0g",1Value per 100 g,
Proximates
"Energy",kcal,--,--,100,161
"Protein",g,--,--,8.00,12.90
"Total lipid (fat)",g,--,--,3.00,4.84
"Carbohydrate, by difference",g,--,--,22.00,35.48
"Fiber, total dietary",g,--,--,12.0,19.4
"Sugars, total",g,--,--,2.00,3.23
Minerals
"Calcium, Ca",mg,--,--,60,97
"Iron, Fe",mg,--,--,1.28,2.06
"Sodium, Na",mg,--,--,360,581
Vitamins
"Vitamin C, total ascorbic acid",mg,--,--,0.0,0.0
"Vitamin A, IU",IU,--,--,0,0
Lipids
"Fatty acids, total saturated",g,--,--,0.000,0.000
"Fatty acids, total monounsaturated",g,--,--,2.003,3.230
"Fatty acids, total polyunsaturated",g,--,--,0.000,0.000
"Fatty acids, total trans",g,--,--,0.000,0.000
"Cholesterol",mg,--,--,0,0
Amino Acids
Other
Ingredients
"WATER, OAT FIBER, ENRICHED WHEAT FLOUR (BLEACHED WHEAT FLOUR, NIACIN, IRON, THIAMINE MONONITRATE, RIBOFLAVIN, FOLIC ACID), WHEAT GLUTEN, DEFATTED SOY FLOUR, EXTRA VIRGIN OLIVE OIL, TOMATO, CONTAINS 2% OR LESS OF EACH OF: BASIL, RED BELL PEPPER, GARLIC, ONION, YEAST CELL WALL EXTRACT, NON-ALUMINUM BAKING POWDER (SODIUM ACID PYROPHOSPHATE, SODIUM BICARBONATE, CORN STARCH, MONOCALCIUM PHOSPHATE), SEA SALT, GUAR GUM, CITRIC ACID, XANTHAN GUM, L-CYSTEINE, ENZYME, WHEAT STARCH, TO MAINTAIN FRESHNESS (SORBIC ACID AND CALCIUM PROPIONATE)." Date available: 07/14/2017 Date last updated by company: 07/14/2017
