Source: USDA Branded Food Products Database Release December 2017 Software v.3.8.6.4 2017-10-02
Report Run at: December 17, 2017 06:37 EST
"Nutrient data for: 45252681, EXTRA BOLD LATTE, UPC: 857755004681"
Food Group:  Branded Food Products Database
Common Name:

Nutrient,Unit,Data points,Std. Error,"11.0 OZA = 325.0g",1Value per 100 g,
Proximates
"Energy",kcal,--,--,169,52
"Protein",g,--,--,4.00,1.23
"Total lipid (fat)",g,--,--,4.00,1.23
"Carbohydrate, by difference",g,--,--,28.99,8.92
"Fiber, total dietary",g,--,--,1.9,0.6
"Sugars, total",g,--,--,26.00,8.00
Minerals
"Calcium, Ca",mg,--,--,150,46
"Iron, Fe",mg,--,--,0.39,0.12
"Potassium, K",mg,--,--,351,108
"Sodium, Na",mg,--,--,140,43
Vitamins
"Vitamin C, total ascorbic acid",mg,--,--,0.0,0.0
"Vitamin A, IU",IU,--,--,110,34
Lipids
"Fatty acids, total saturated",g,--,--,2.990,0.920
"Fatty acids, total trans",g,--,--,0.000,0.000
"Cholesterol",mg,--,--,20,6
Amino Acids
Other
Ingredients
"BREWED COFFEE (FILTERED WATER, COFFEE), MILK, SUGAR (SUCROSE), CELLULOSE GEL, NATURAL FLAVOR, CELLULOSE GUM, DISODIUM PHOSPHATE, POTASSIUM HYDROXIDE, CARRAGEENAN, AND CAFFEINE (140G)." Date available: 07/14/2017 Date last updated by company: 07/14/2017
