Source: USDA Branded Food Products Database Release December 2017 Software v.3.8.6.4 2017-10-02
Report Run at: December 17, 2017 06:43 EST
"Nutrient data for: 45239590, EXTRA LIGHT TASTING OLIVE OIL, UPC: 041253000454"
Food Group:  Branded Food Products Database
Common Name:

Nutrient,Unit,Data points,Std. Error,"1 Tbsp = 15.0g",1Value per 100 g,
Proximates
"Energy",kcal,--,--,120,800
"Protein",g,--,--,0.00,0.00
"Total lipid (fat)",g,--,--,14.00,93.33
"Carbohydrate, by difference",g,--,--,0.00,0.00
Minerals
"Sodium, Na",mg,--,--,0,0
Vitamins
Lipids
"Fatty acids, total saturated",g,--,--,1.999,13.330
"Fatty acids, total monounsaturated",g,--,--,10.001,66.670
"Fatty acids, total polyunsaturated",g,--,--,1.500,10.000
"Fatty acids, total trans",g,--,--,0.000,0.000
Amino Acids
Other
Ingredients
"OLIVE OIL" Date available: 06/24/2017 Date last updated by company: 06/24/2017
