Source: USDA Branded Food Products Database Release December 2017 Software v.3.8.6.4 2017-10-02
Report Run at: December 17, 2017 07:04 EST
"Nutrient data for: 45154174, FAIRWAY, ENERGY MIX, UPC: 846548042597"
Food Group:  Branded Food Products Database
Common Name:

Nutrient,Unit,Data points,Std. Error,"1 ONZ = 28.0g",1Value per 100 g,
Proximates
"Energy",kcal,--,--,140,500
"Protein",g,--,--,4.00,14.29
"Total lipid (fat)",g,--,--,10.00,35.71
"Carbohydrate, by difference",g,--,--,12.00,42.86
"Fiber, total dietary",g,--,--,2.0,7.1
"Sugars, total",g,--,--,8.00,28.57
Minerals
"Calcium, Ca",mg,--,--,20,71
"Iron, Fe",mg,--,--,1.93,6.88
"Sodium, Na",mg,--,--,0,0
Vitamins
"Vitamin C, total ascorbic acid",mg,--,--,0.0,0.0
"Vitamin A, IU",IU,--,--,0,0
Lipids
"Fatty acids, total saturated",g,--,--,1.000,3.570
"Fatty acids, total trans",g,--,--,0.000,0.000
"Cholesterol",mg,--,--,0,0
Amino Acids
Other
Ingredients
"RAW ALMONDS, BLACK RAISIN (VEGETABLE OIL), UNSALTED CASHEWS (ROASTED IN PEANUT, SUNFLOWER AND/OR CANOLA OIL), SOY BEANS VEGETABLE, COTTON SEED AND/OR SUNFLOWER OIL, CRANBERRIES (SUGAR, SUNFLOWER OIL, SUGAR), WALNUTS, RAW PEPITAS" Date available: 07/14/2017 Date last updated by company: 07/14/2017
