Source: USDA Branded Food Products Database Release December 2017 Software v.3.8.6.4 2017-10-02
Report Run at: December 17, 2017 07:08 EST
"Nutrient data for: 45080095, FALAFEL MIX, UPC: 052851954506"
Food Group:  Branded Food Products Database
Common Name:

Nutrient,Unit,Data points,Std. Error,"0.25 cup = 41.0g",1Value per 100 g,
Proximates
"Energy",kcal,--,--,140,341
"Protein",g,--,--,7.00,17.07
"Total lipid (fat)",g,--,--,2.00,4.88
"Carbohydrate, by difference",g,--,--,25.00,60.98
"Fiber, total dietary",g,--,--,2.0,4.9
"Sugars, total",g,--,--,5.00,12.20
Minerals
"Calcium, Ca",mg,--,--,150,366
"Iron, Fe",mg,--,--,3.95,9.64
"Sodium, Na",mg,--,--,190,463
Vitamins
"Vitamin C, total ascorbic acid",mg,--,--,2.6,6.4
"Vitamin A, IU",IU,--,--,110,268
Lipids
"Fatty acids, total saturated",g,--,--,0.000,0.000
"Fatty acids, total trans",g,--,--,0.000,0.000
"Cholesterol",mg,--,--,0,0
Amino Acids
Other
Ingredients
"GARBANZO BEANS, WHEAT FLOUR, YELLOW SPLIT PEAS, TURMERIC, GRANULATED ONIONS, GRANULATED GARLIC, LEAVENING AGENT (SODIUM BICARBONATE AND SODIUM PYROPHOSPHATE), PARSLEY, SALT, BLACK PEPPER AND SPICES." Date available: 07/14/2017 Date last updated by company: 07/14/2017
