Source: USDA Branded Food Products Database Release December 2017 Software v.3.8.6.4 2017-10-02
Report Run at: December 17, 2017 07:09 EST
"Nutrient data for: 45199447, FALL HARVEST SOUP, UPC: 096906202075"
Food Group:  Branded Food Products Database
Common Name:

Nutrient,Unit,Data points,Std. Error,"0.5 cup = 120.0g",1Value per 100 g,
Proximates
"Energy",kcal,--,--,80,67
"Protein",g,--,--,1.00,0.83
"Total lipid (fat)",g,--,--,4.00,3.33
"Carbohydrate, by difference",g,--,--,11.00,9.17
"Fiber, total dietary",g,--,--,1.0,0.8
"Sugars, total",g,--,--,1.00,0.83
Minerals
"Calcium, Ca",mg,--,--,20,17
"Iron, Fe",mg,--,--,0.73,0.61
"Sodium, Na",mg,--,--,380,317
Vitamins
"Vitamin C, total ascorbic acid",mg,--,--,9.8,8.2
"Vitamin A, IU",IU,--,--,8166,6805
Lipids
"Fatty acids, total saturated",g,--,--,2.496,2.080
"Cholesterol",mg,--,--,10,8
Amino Acids
Other
Ingredients
"CHICKEN STOCK (WATER, DRIED CHICKEN STOCK, SALT, VEGETABLE STOCKS [ONION, GARLIC, CELERY], GELATIN, CHICKEN [WITH FAT AND SKIN], TAPIOCA STARCH [NATIVE], NATURAL FLAVOR), BUTTERNUT SQUASH, SWEET POTATOES, CREAM, ONION, CARROTS, BUTTER, CELERY, MODIFIED TAPIOCA STARCH, GARLIC, SALT, BLACK PEPPER, SAGE, CITRIC ACID." Date available: 07/14/2017 Date last updated by company: 07/14/2017
