Source: USDA Branded Food Products Database Release December 2017 Software v.3.8.6.4 2017-10-02
Report Run at: December 17, 2017 07:10 EST
"Nutrient data for: 45147242, FAMILY, CHEESE PEAS, UPC: 046872091531"
Food Group:  Branded Food Products Database
Common Name:

Nutrient,Unit,Data points,Std. Error,"0.333 cup = 30.0g",1Value per 100 g,
Proximates
"Energy",kcal,--,--,130,433
"Protein",g,--,--,4.00,13.33
"Total lipid (fat)",g,--,--,4.00,13.33
"Carbohydrate, by difference",g,--,--,20.00,66.67
"Fiber, total dietary",g,--,--,1.0,3.3
"Sugars, total",g,--,--,6.00,20.00
Minerals
"Calcium, Ca",mg,--,--,10,33
"Iron, Fe",mg,--,--,0.30,1.00
"Sodium, Na",mg,--,--,288,960
Vitamins
"Vitamin C, total ascorbic acid",mg,--,--,0.0,0.0
"Vitamin A, IU",IU,--,--,0,0
Lipids
"Fatty acids, total saturated",g,--,--,2.001,6.670
"Fatty acids, total trans",g,--,--,0.000,0.000
"Cholesterol",mg,--,--,0,0
Amino Acids
Other
Ingredients
"PEA, CORN STARCH, WHEAT FLOUR, PALM OIL, SUGAR, CHEESE POWDER, MILK POWDER,S ALT, GLUCOSE, SODIUM BICARBONATE, ONION POWDER, ARTIFICIAL MILK FLAVOR, CITRIC ACID, GARLIC POWDER, FD&C YELLOW #6, FD&C YELLOW #5, MONOSODIUM GLUTAMATE, ALANINE, GLYCINE." Date available: 07/14/2017 Date last updated by company: 07/14/2017
