Source: USDA Branded Food Products Database Release December 2017 Software v.3.8.6.4 2017-10-02
Report Run at: December 17, 2017 07:10 EST
"Nutrient data for: 45212984, FAMILIJNE MLECZNE MILKY WAFERS, UPC: 5900352012469"
Food Group:  Branded Food Products Database
Common Name:

Nutrient,Unit,Data points,Std. Error,"6.0 WAFERS (ABOUT) = 25.0g",1Value per 100 g,
Proximates
"Energy",kcal,--,--,140,560
"Protein",g,--,--,2.00,8.00
"Total lipid (fat)",g,--,--,8.00,32.00
"Carbohydrate, by difference",g,--,--,16.00,64.00
"Fiber, total dietary",g,--,--,0.0,0.0
"Sugars, total",g,--,--,8.00,32.00
Minerals
"Calcium, Ca",mg,--,--,40,160
"Iron, Fe",mg,--,--,0.00,0.00
"Potassium, K",mg,--,--,40,160
"Sodium, Na",mg,--,--,40,160
Vitamins
"Vitamin C, total ascorbic acid",mg,--,--,0.0,0.0
"Vitamin A, IU",IU,--,--,0,0
Lipids
"Fatty acids, total saturated",g,--,--,3.000,12.000
"Fatty acids, total trans",g,--,--,1.500,6.000
"Cholesterol",mg,--,--,0,0
Amino Acids
Other
Ingredients
"WHEAT FLOUR, HYDROGENATED VEGETABLE FAT, SUGAR, SKIM MILK POWDER (12%), WHITE CHOCOLATE (SUGAR, WHOLE MILK POWDER, COCOA BUTTER, WHEY POWDER - FROM MILK), GLUCOSE, MALTODEXTRIN, WHEY POWDER (FROM MILK), STARCH, EMULSIFIER (SOYA LECITHIN), SALT, FLAVOUR, RAISING AGENTS (E 500 - SODIUM CARBONATES, E 503 - AMMONIUM CARBONATES)." Date available: 07/14/2017 Date last updated by company: 07/14/2017
