Source: USDA Branded Food Products Database Release December 2017 Software v.3.8.6.4 2017-10-02
Report Run at: December 17, 2017 07:10 EST
"Nutrient data for: 45028210, FAMILIA, SWISS MUESLI, UPC: 813730010047"
Food Group:  Branded Food Products Database
Common Name:

Nutrient,Unit,Data points,Std. Error,"0.5 CUP VITAMIN A AND D FORTIFIED SKIM MILK | CEREAL WITH = 57.0g",1Value per 100 g,
Proximates
"Energy",kcal,--,--,210,368
"Protein",g,--,--,6.00,10.53
"Total lipid (fat)",g,--,--,3.00,5.26
"Carbohydrate, by difference",g,--,--,41.00,71.93
"Fiber, total dietary",g,--,--,4.0,7.0
"Sugars, total",g,--,--,7.00,12.28
Minerals
"Calcium, Ca",mg,--,--,20,35
"Iron, Fe",mg,--,--,2.60,4.57
"Sodium, Na",mg,--,--,0,0
Vitamins
"Vitamin C, total ascorbic acid",mg,--,--,0.0,0.0
"Vitamin A, IU",IU,--,--,0,0
Lipids
"Fatty acids, total saturated",g,--,--,0.502,0.880
"Fatty acids, total trans",g,--,--,0.000,0.000
"Cholesterol",mg,--,--,0,0
Amino Acids
Other
Ingredients
"WHOLE-GRAIN OAT FLAKES, WHEAT FLAKES, FRUIT FLAKE (ORGANIC WHOLE-GRAIN FLOUR (WHEAT, RYE, BARLEY), DATE PULP, APPLES BANANA PUREE), RAISINS (VEGETABLE OIL), MILLET FLAKES, HAZELNUTS ROASTED, WHEAT GERMS, ALMOND ROASTED." Date available: 06/24/2017 Date last updated by company: 06/24/2017
