Source: USDA Branded Food Products Database Release December 2017 Software v.3.8.6.4 2017-10-02
Report Run at: December 17, 2017 07:12 EST
"Nutrient data for: 45155043, FAMILY GOURMET, GOLDEN SANDWICH COOKIES, UPC: 032251169168"
Food Group:  Branded Food Products Database
Common Name:

Nutrient,Unit,Data points,Std. Error,"3.0 COOKIES = 37.0g",1Value per 100 g,
Proximates
"Energy",kcal,--,--,170,459
"Protein",g,--,--,2.00,5.41
"Total lipid (fat)",g,--,--,6.00,16.22
"Carbohydrate, by difference",g,--,--,27.00,72.97
"Fiber, total dietary",g,--,--,0.0,0.0
"Sugars, total",g,--,--,14.00,37.84
Minerals
"Calcium, Ca",mg,--,--,0,0
"Iron, Fe",mg,--,--,0.00,0.00
"Sodium, Na",mg,--,--,85,230
Vitamins
"Vitamin C, total ascorbic acid",mg,--,--,0.0,0.0
"Vitamin A, IU",IU,--,--,0,0
Lipids
"Fatty acids, total saturated",g,--,--,1.498,4.050
"Fatty acids, total trans",g,--,--,0.000,0.000
"Cholesterol",mg,--,--,0,0
Amino Acids
Other
Ingredients
"WHEAT FLOUR, SUGAR, VEGETABLE SHORTENING, (SOYBEAN OIL, MONO-& DIGLYCERIDES, TBHQ PRESERVATIVE, CITRIC ACID PRESERVATIVE), DEXTROSE, WATER, NONFAT MILK, VEGETABLE SHORTENING (CANOLA AND PALM & PALM KERNEL OILS), CONTAINS LESS THAN 2% OF EACH OF THE FOLLOWING: HIGH FRUCTOSE CORN SYRUP, CORN STARCH, SALT, BAKING SODA, SOY LECITHIN, PROPYLENE GLYCOL, AMMONIUM BICARBONATE, MONOCALCIUM PHOSPHATE, ETHYL ALCOHOL, NATURAL AND ARTIFICIAL FLAVORS, CORN SYRUP, CARAMEL COLOR WITH SULFITES." Date available: 07/14/2017 Date last updated by company: 07/14/2017
