Source: USDA Branded Food Products Database Release December 2017 Software v.3.8.6.4 2017-10-02
Report Run at: December 17, 2017 07:15 EST
"Nutrient data for: 45062234, FAMOUS DRESSING & MARINADE, UPC: 041423012324"
Food Group:  Branded Food Products Database
Common Name:

Nutrient,Unit,Data points,Std. Error,"2.0 Tbsp = 39.0g",1Value per 100 g,
Proximates
"Energy",kcal,--,--,120,308
"Protein",g,--,--,0.00,0.00
"Total lipid (fat)",g,--,--,9.00,23.08
"Carbohydrate, by difference",g,--,--,10.00,25.64
"Fiber, total dietary",g,--,--,0.0,0.0
"Sugars, total",g,--,--,9.00,23.08
Minerals
"Calcium, Ca",mg,--,--,0,0
"Iron, Fe",mg,--,--,0.00,0.00
"Sodium, Na",mg,--,--,260,667
Vitamins
"Vitamin C, total ascorbic acid",mg,--,--,4.1,10.4
"Vitamin A, IU",IU,--,--,0,0
Lipids
"Fatty acids, total saturated",g,--,--,1.502,3.850
"Fatty acids, total trans",g,--,--,0.000,0.000
"Cholesterol",mg,--,--,0,0
Amino Acids
Other
Ingredients
"WATER, GRANULATED SUGAR, SOYBEAN OIL, TOMATO PASTE, DISTILLED VINEGAR, CORN SUGAR VINEGAR, CONTAINS LESS THAN 2% OF THE FOLLOWING: HORSERADISH GRANULES*, GARLIC POWDER, ONION POWDER, SPICES, PECTIN, SALT, XANTHAN GUM, POTASSIUM SORBATE (PRESERVATIVE), DISODIUM EDTA TO PROTECT FLAVOR." Date available: 08/10/2017 Date last updated by company: 08/10/2017
