Source: USDA Branded Food Products Database Release December 2017 Software v.3.8.6.4 2017-10-02
Report Run at: December 17, 2017 07:17 EST
"Nutrient data for: 45023421, FANCY HONEY ROASTED CASHEWS HALVES & PIECES, UPC: 753519468952"
Food Group:  Branded Food Products Database
Common Name:

Nutrient,Unit,Data points,Std. Error,"0.25 CUP | ABOUT = 28.0g",1Value per 100 g,
Proximates
"Energy",kcal,--,--,140,500
"Protein",g,--,--,3.00,10.71
"Total lipid (fat)",g,--,--,9.00,32.14
"Carbohydrate, by difference",g,--,--,15.00,53.57
"Fiber, total dietary",g,--,--,1.0,3.6
"Sugars, total",g,--,--,10.00,35.71
Minerals
"Calcium, Ca",mg,--,--,0,0
"Iron, Fe",mg,--,--,1.93,6.88
"Sodium, Na",mg,--,--,60,214
Vitamins
"Vitamin C, total ascorbic acid",mg,--,--,0.0,0.0
"Vitamin A, IU",IU,--,--,0,0
Lipids
"Fatty acids, total saturated",g,--,--,1.501,5.360
"Fatty acids, total trans",g,--,--,0.000,0.000
"Cholesterol",mg,--,--,0,0
Amino Acids
Other
Ingredients
"CASHEWS, ROASTED IN VEGETABLE OIL (PEANUT, COTTONSEED, SUNFLOWER SEED, AND/OR CANOLA), SUGAR, HONEY, MALTODEXTRIN, CORN STARCH, WHEAT STARCH, SOY LECITHIN, CALCIUM STEARATE, SALT, XANTHAN GUM, NATURAL HONEY FLAVOR." Date available: 06/25/2017 Date last updated by company: 06/25/2017
