Source: USDA Branded Food Products Database Release December 2017 Software v.3.8.6.4 2017-10-02
Report Run at: December 17, 2017 07:24 EST
"Nutrient data for: 45160113, FAR EAST FOODS, JAPANESE CRUNCH SNACK MIX, UPC: 895812001839"
Food Group:  Branded Food Products Database
Common Name:

Nutrient,Unit,Data points,Std. Error,"0.33 cup = 30.0g",1Value per 100 g,
Proximates
"Energy",kcal,--,--,130,433
"Protein",g,--,--,3.00,10.00
"Total lipid (fat)",g,--,--,3.00,10.00
"Carbohydrate, by difference",g,--,--,22.00,73.33
"Fiber, total dietary",g,--,--,1.0,3.3
"Sugars, total",g,--,--,5.00,16.67
Minerals
"Calcium, Ca",mg,--,--,20,67
"Iron, Fe",mg,--,--,0.60,2.00
"Sodium, Na",mg,--,--,180,600
Vitamins
"Vitamin C, total ascorbic acid",mg,--,--,0.0,0.0
"Vitamin A, IU",IU,--,--,0,0
Lipids
"Fatty acids, total saturated",g,--,--,0.999,3.330
"Fatty acids, total trans",g,--,--,0.000,0.000
"Cholesterol",mg,--,--,0,0
Amino Acids
Other
Ingredients
"PEANUTS, GLUTINOUS RICE FLOUR, WHEAT FLOUR, SUGAR, MODIFIED TAPIOCA STARCH, CORN STARCH, SOY SAUCE (WATER, DEFATTED SOYBEAN, WHEAT, SALT), BROWN ALGAE, SALT, MALTODEXTRIN, SESAME, CARAMEL COLOR, MONOSODIUM GLUTAMATE, PAPRIKA, FD&C YELLOW NO.5, FD&C RED NO.40, FD&C BLUE NO.1." Date available: 07/14/2017 Date last updated by company: 07/14/2017
