Source: USDA Branded Food Products Database Release December 2017 Software v.3.8.6.4 2017-10-02
Report Run at: December 17, 2017 07:24 EST
"Nutrient data for: 45154836, FAREWAY, COOKIES, PEANUT BUTTER, UPC: 021333980333"
Food Group:  Branded Food Products Database
Common Name:

Nutrient,Unit,Data points,Std. Error,"1 COOKIE = 33.0g",1Value per 100 g,
Proximates
"Energy",kcal,--,--,150,455
"Protein",g,--,--,2.00,6.06
"Total lipid (fat)",g,--,--,8.00,24.24
"Carbohydrate, by difference",g,--,--,17.00,51.52
"Fiber, total dietary",g,--,--,1.0,3.0
"Sugars, total",g,--,--,10.00,30.30
Minerals
"Calcium, Ca",mg,--,--,0,0
"Iron, Fe",mg,--,--,1.09,3.31
"Sodium, Na",mg,--,--,180,545
Vitamins
"Vitamin C, total ascorbic acid",mg,--,--,0.0,0.0
"Vitamin A, IU",IU,--,--,151,459
Lipids
"Fatty acids, total saturated",g,--,--,3.000,9.090
"Fatty acids, total trans",g,--,--,0.000,0.000
"Cholesterol",mg,--,--,5,15
Amino Acids
Other
Ingredients
"ENRICHED WHEAT FLOUR (WHEAT FLOUR, MALTED BARLEY FLOUR, NIACIN, IRON, THIAMINE MONONITRATE, RIBOFLAVIN, FOLIC ACID), SUGAR, PEANUT BUTTER (PEANUTS, DEXTROSE, HYDROGENATED VEGETABLE OIL [RAPESEED, COTTONSEED, AND SOYBEAN], AND SALT), SHORTENING (PALM OIL), BROWN SUGAR, WATER, MARGARINE (PALM OIL, WATER, SALT, MONO AND DIGLYCERIDES, SOY LECITHIN. SODIUM BENZOATE ADDED AS A PRESERVATIVE, ARTIFICIALLY FLAVORED, ARTIFICIALLY COLORED WITH BETA-CAROTENE, VITAMIN A PALMITATE ADDED), FRUCTOSE, CONTAINS 2% OR LESS OF: EGGS, MOLASSES, BAKING SODA, CORN STARCH, SALT, NATURAL FLAVORS, SOY LECITHIN." Date available: 07/14/2017 Date last updated by company: 07/14/2017
