Source: USDA Branded Food Products Database Release December 2017 Software v.3.8.6.4 2017-10-02
Report Run at: December 17, 2017 07:31 EST
"Nutrient data for: 45092816, FARMLAND, HICKORY SMOKED HAM STEAKS, UPC: 070247127778"
Food Group:  Branded Food Products Database
Common Name:

Nutrient,Unit,Data points,Std. Error,"1 SLICE = 65.0g",1Value per 100 g,
Proximates
"Energy",kcal,--,--,70,108
"Protein",g,--,--,11.00,16.92
"Total lipid (fat)",g,--,--,2.00,3.08
"Carbohydrate, by difference",g,--,--,2.00,3.08
"Fiber, total dietary",g,--,--,0.0,0.0
"Sugars, total",g,--,--,2.00,3.08
Minerals
"Calcium, Ca",mg,--,--,0,0
"Iron, Fe",mg,--,--,0.31,0.47
"Sodium, Na",mg,--,--,840,1292
Vitamins
"Vitamin C, total ascorbic acid",mg,--,--,0.0,0.0
"Vitamin A, IU",IU,--,--,0,0
Lipids
"Fatty acids, total saturated",g,--,--,0.501,0.770
"Fatty acids, total trans",g,--,--,0.000,0.000
"Cholesterol",mg,--,--,35,54
Amino Acids
Other
Ingredients
"CURED WITH: WATER, DEXTROSE, SALT, POTASSIUM LACTATE, SODIUM PHOSPHATES, SODIUM DIACETATE, SODIUM ERYTHORBATE, SODIUM NITRITE" Date available: 06/25/2017 Date last updated by company: 06/25/2017
