Source: USDA Branded Food Products Database Release December 2017 Software v.3.8.6.4 2017-10-02
Report Run at: December 17, 2017 07:26 EST
"Nutrient data for: 45169725, FARMED HERE, GINGER & LIME BASIL VINAIGRETTE, UPC: 855905003249"
Food Group:  Branded Food Products Database
Common Name:

Nutrient,Unit,Data points,Std. Error,"2.0 Tbsp = 30.0g",1Value per 100 g,
Proximates
"Energy",kcal,--,--,130,433
"Protein",g,--,--,0.00,0.00
"Total lipid (fat)",g,--,--,12.00,40.00
"Carbohydrate, by difference",g,--,--,5.00,16.67
"Fiber, total dietary",g,--,--,0.0,0.0
"Sugars, total",g,--,--,5.00,16.67
Minerals
"Calcium, Ca",mg,--,--,0,0
"Iron, Fe",mg,--,--,0.00,0.00
"Sodium, Na",mg,--,--,220,733
Vitamins
"Vitamin C, total ascorbic acid",mg,--,--,2.0,6.7
"Vitamin A, IU",IU,--,--,334,1112
Lipids
"Fatty acids, total saturated",g,--,--,0.999,3.330
"Fatty acids, total trans",g,--,--,0.000,0.000
"Cholesterol",mg,--,--,0,0
Amino Acids
Other
Ingredients
"NON-GMO CANOLA OIL, NON-GMO RICE VINEGAR, ORGANIC BASIL, AGAVE NECTAR, LIME JUICE, GREEN ONION, SALT, GARLIC, GROUND GINGER" Date available: 10/11/2017 Date last updated by company: 10/11/2017
