Source: USDA Branded Food Products Database Release December 2017 Software v.3.8.6.4 2017-10-02
Report Run at: December 17, 2017 07:32 EST
"Nutrient data for: 45183015, FARM RAISED SHRIMP, UPC: 070041620468"
Food Group:  Branded Food Products Database
Common Name:

Nutrient,Unit,Data points,Std. Error,"1 CUP) | COOKED MEAT (ABOUT = 85.0g",1Value per 100 g,
Proximates
"Energy",kcal,--,--,90,106
"Protein",g,--,--,22.00,25.88
"Total lipid (fat)",g,--,--,0.50,0.59
"Carbohydrate, by difference",g,--,--,0.00,0.00
"Fiber, total dietary",g,--,--,0.0,0.0
"Sugars, total",g,--,--,0.00,0.00
Minerals
"Calcium, Ca",mg,--,--,40,47
"Iron, Fe",mg,--,--,0.36,0.42
"Sodium, Na",mg,--,--,480,565
Vitamins
"Vitamin C, total ascorbic acid",mg,--,--,0.0,0.0
"Vitamin A, IU",IU,--,--,0,0
Lipids
"Fatty acids, total saturated",g,--,--,0.000,0.000
"Fatty acids, total trans",g,--,--,0.000,0.000
"Cholesterol",mg,--,--,130,153
Amino Acids
Other
Ingredients
"SHRIMP, SALT, SODIUM PHOSPHATES (TO RETAIN MOISTURE)." Date available: 07/14/2017 Date last updated by company: 07/14/2017
