Source: USDA Branded Food Products Database Release December 2017 Software v.3.8.6.4 2017-10-02
Report Run at: December 17, 2017 07:30 EST
"Nutrient data for: 45174408, FARMINGTON, CLASSIC BACON, UPC: 051933054714"
Food Group:  Branded Food Products Database
Common Name:

Nutrient,Unit,Data points,Std. Error,"2.0 COOKED SLICES = 16.0g",1Value per 100 g,
Proximates
"Energy",kcal,--,--,80,500
"Protein",g,--,--,6.00,37.50
"Total lipid (fat)",g,--,--,6.00,37.50
"Carbohydrate, by difference",g,--,--,0.00,0.00
"Fiber, total dietary",g,--,--,0.0,0.0
"Sugars, total",g,--,--,0.00,0.00
Minerals
"Calcium, Ca",mg,--,--,0,0
"Iron, Fe",mg,--,--,0.00,0.00
"Sodium, Na",mg,--,--,290,1812
Vitamins
"Vitamin C, total ascorbic acid",mg,--,--,0.0,0.0
"Vitamin A, IU",IU,--,--,0,0
Lipids
"Fatty acids, total saturated",g,--,--,2.499,15.620
"Fatty acids, total trans",g,--,--,0.000,0.000
"Cholesterol",mg,--,--,20,125
Amino Acids
Other
Ingredients
"CURED WITH: WATER, SALT, SUGAR, SODIUM PHOSPHATES, SODIUM ERYTHORBATE, SODIUM NITRITE." Date available: 07/14/2017 Date last updated by company: 07/14/2017
