Source: USDA Branded Food Products Database Release December 2017 Software v.3.8.6.4 2017-10-02
Report Run at: December 17, 2017 07:28 EST
"Nutrient data for: 45178305, FARMERS MARKET BOULE, UPC: 657082026376"
Food Group:  Branded Food Products Database
Common Name:

Nutrient,Unit,Data points,Std. Error,"2.0 ONZ = 56.0g",1Value per 100 g,
Proximates
"Energy",kcal,--,--,120,214
"Protein",g,--,--,4.00,7.14
"Total lipid (fat)",g,--,--,1.50,2.68
"Carbohydrate, by difference",g,--,--,24.00,42.86
"Fiber, total dietary",g,--,--,2.0,3.6
"Sugars, total",g,--,--,0.00,0.00
Minerals
"Calcium, Ca",mg,--,--,20,36
"Iron, Fe",mg,--,--,1.28,2.29
"Sodium, Na",mg,--,--,270,482
Vitamins
"Vitamin C, total ascorbic acid",mg,--,--,0.0,0.0
"Vitamin A, IU",IU,--,--,0,0
Lipids
"Fatty acids, total saturated",g,--,--,0.000,0.000
"Fatty acids, total trans",g,--,--,0.000,0.000
"Cholesterol",mg,--,--,0,0
Amino Acids
Other
Ingredients
"UNBLEACHED ENRICHED FLOUR (WHEAT FLOUR, MALTED BARLEY FLOUR, NIACIN, REDUCED IRON, THIAMINE MONONITRATE, RIBOFLAVIN FOLIC ACID), WATER, WHOLE SPELT FLOUR, WHOLE BROWN FLAX SEED, SEA SALT, WHOLE WHEAT FLOUR." Date available: 07/14/2017 Date last updated by company: 07/14/2017
