Source: USDA Branded Food Products Database Release December 2017 Software v.3.8.6.4 2017-10-02
Report Run at: December 17, 2017 07:36 EST
"Nutrient data for: 45241544, FAT FREE BALSAMIC VINAIGRETTE, UPC: 074683004266"
Food Group:  Branded Food Products Database
Common Name:

Nutrient,Unit,Data points,Std. Error,"2.0 Tbsp = 30.0g",1Value per 100 g,
Proximates
"Energy",kcal,--,--,15,50
"Protein",g,--,--,0.00,0.00
"Total lipid (fat)",g,--,--,0.00,0.00
"Carbohydrate, by difference",g,--,--,3.00,10.00
"Sugars, total",g,--,--,2.00,6.67
Minerals
"Sodium, Na",mg,--,--,120,400
Vitamins
"Vitamin C, total ascorbic acid",mg,--,--,4.0,13.3
Lipids
Amino Acids
Other
Ingredients
"WATER, BALSAMIC VINEGAR (SULFITES), CIDER VINEGAR, DRIED ONION, DRIED GARLIC, DRIED RED AND GREEN BELL PEPPERS, GUAR GUM, XANTHAN GUM, NATURAL FLAVOR, SALT, SUGAR." Date available: 10/04/2017 Date last updated by company: 10/04/2017
