Source: USDA Branded Food Products Database Release December 2017 Software v.3.8.6.4 2017-10-02
Report Run at: December 17, 2017 07:37 EST
"Nutrient data for: 45002203, FAT FREE COTTAGE CHEESE, UPC: 00717175"
Food Group:  Branded Food Products Database
Common Name:

Nutrient,Unit,Data points,Std. Error,"0.5 cup = 113.0g",1Value per 100 g,
Proximates
"Energy",kcal,--,--,70,62
"Protein",g,--,--,12.99,11.50
"Total lipid (fat)",g,--,--,0.00,0.00
"Carbohydrate, by difference",g,--,--,4.99,4.42
"Fiber, total dietary",g,--,--,0.0,0.0
"Sugars, total",g,--,--,4.00,3.54
Minerals
"Calcium, Ca",mg,--,--,99,88
"Iron, Fe",mg,--,--,0.00,0.00
"Sodium, Na",mg,--,--,410,363
Vitamins
"Vitamin C, total ascorbic acid",mg,--,--,0.0,0.0
"Vitamin A, IU",IU,--,--,292,258
"Vitamin D",IU,--,--,80,71
Lipids
"Fatty acids, total saturated",g,--,--,0.000,0.000
"Fatty acids, total trans",g,--,--,0.000,0.000
"Cholesterol",mg,--,--,5,4
Amino Acids
Other
Ingredients
"PASTEURIZED SKIM MILK*, NONFAT DRY MILK*, SALT, GRADE A WHEY, GRADE A LACTOSE, TITANIUM DIOXIDE (COLOR), GUAR GUM, CARRAGEENAN, CITRIC ACID, LOCUST BEAN GUM, LACTIC ACID, PHOSPHORIC ACID, NATURAL FLAVORS, CULTURED GRADE A SKIM MILK*, VITAMIN D3, VITAMIN A PALMITATE, ENZYMES." Date available: 06/24/2017 Date last updated by company: 06/24/2017
