Source: USDA Branded Food Products Database Release December 2017 Software v.3.8.6.4 2017-10-02
Report Run at: December 17, 2017 07:38 EST
"Nutrient data for: 45182580, FAT FREE FROZEN YOGURT, UPC: 041268161157"
Food Group:  Branded Food Products Database
Common Name:

Nutrient,Unit,Data points,Std. Error,"0.66 cup = 87.0g",1Value per 100 g,
Proximates
"Energy",kcal,--,--,130,149
"Protein",g,--,--,4.00,4.60
"Total lipid (fat)",g,--,--,0.00,0.00
"Carbohydrate, by difference",g,--,--,29.00,33.33
"Fiber, total dietary",g,--,--,0.0,0.0
"Sugars, total",g,--,--,22.00,25.29
Minerals
"Calcium, Ca",mg,--,--,134,154
"Iron, Fe",mg,--,--,0.00,0.00
"Potassium, K",mg,--,--,181,208
"Sodium, Na",mg,--,--,75,86
Vitamins
"Vitamin D",IU,--,--,0,0
Lipids
"Fatty acids, total saturated",g,--,--,0.000,0.000
"Fatty acids, total trans",g,--,--,0.000,0.000
"Cholesterol",mg,--,--,0,0
Amino Acids
Other
Ingredients
"NONFAT MILK, SUGAR, RASPBERRY SWIRL (CORN SYRUP, WATER, HIGH FRUCTOSE CORN SYRUP, SUGAR, RED RASPBERRY PUREE, TAPIOCA STARCH, NATURAL FLAVOR, FRUIT & VEGETABLE JUICE [COLOR], CITRIC ACID, SALT, XANTHAN GUM, LOCUST BEAN GUM, GUAR GUM), CULTURED NONFAT MILK, CORN SYRUP, MALTODEXTRIN, NATURAL & ARTIFICIAL FLAVORS, MONO & DIGLYCERIDES, LOCUST BEAN GUM, CELLULOSE GUM, GUAR GUM, CARRAGEENAN AND ANNATTO (COLOR)." Date available: 10/13/2017 Date last updated by company: 10/13/2017
