Source: USDA Branded Food Products Database Release December 2017 Software v.3.8.6.4 2017-10-02
Report Run at: December 17, 2017 07:38 EST
"Nutrient data for: 45333302, FAT FREE FUDGE BARS, UPC: 015400223959"
Food Group:  Branded Food Products Database
Common Name:

Nutrient,Unit,Data points,Std. Error,"1 BAR = 71.0g",1Value per 100 g,
Proximates
"Energy",kcal,--,--,100,141
"Protein",g,--,--,4.00,5.63
"Total lipid (fat)",g,--,--,0.00,0.00
"Carbohydrate, by difference",g,--,--,20.00,28.17
"Fiber, total dietary",g,--,--,1.0,1.4
"Sugars, total",g,--,--,16.00,22.54
Minerals
"Calcium, Ca",mg,--,--,100,141
"Iron, Fe",mg,--,--,0.36,0.51
"Sodium, Na",mg,--,--,65,92
Vitamins
"Vitamin C, total ascorbic acid",mg,--,--,0.0,0.0
"Vitamin A, IU",IU,--,--,0,0
Lipids
"Fatty acids, total saturated",g,--,--,0.000,0.000
"Fatty acids, total trans",g,--,--,0.000,0.000
"Cholesterol",mg,--,--,5,7
Amino Acids
Other
Ingredients
"SUGAR, NONFAT MILK, CORN SYRUP, COCOA (PROCESSED WITH ALKALI), WHEY, GELATIN, SUGAR, MALT EXTRACT, COCOA, GUAR GUM, DEXTROSE, MONO AND DIGLYCERIDES, POLYSORBATE 80, CARRAGEENAN, VANILLIN." Date available: 10/13/2017 Date last updated by company: 10/13/2017
