Source: USDA Branded Food Products Database Release December 2017 Software v.3.8.6.4 2017-10-02
Report Run at: December 17, 2017 07:39 EST
"Nutrient data for: 45329135, FAT FREE ITALIAN DRESSING & MARINADE, UPC: 078728503141"
Food Group:  Branded Food Products Database
Common Name:

Nutrient,Unit,Data points,Std. Error,"2.0 Tbsp = 30.0g",1Value per 100 g,
Proximates
"Energy",kcal,--,--,20,67
"Protein",g,--,--,0.00,0.00
"Total lipid (fat)",g,--,--,0.00,0.00
"Carbohydrate, by difference",g,--,--,4.00,13.33
"Fiber, total dietary",g,--,--,0.0,0.0
"Sugars, total",g,--,--,3.00,10.00
Minerals
"Calcium, Ca",mg,--,--,0,0
"Iron, Fe",mg,--,--,0.00,0.00
"Sodium, Na",mg,--,--,350,1167
Vitamins
"Vitamin C, total ascorbic acid",mg,--,--,0.0,0.0
"Vitamin A, IU",IU,--,--,0,0
Lipids
"Fatty acids, total saturated",g,--,--,0.000,0.000
"Fatty acids, total trans",g,--,--,0.000,0.000
"Cholesterol",mg,--,--,0,0
Amino Acids
Other
Ingredients
"WATER, HIGH FRUCTOSE CORN SYRUP, DISTILLED VINEGAR, SALT, LESS THAN 2% OF: GARLIC*, VEGETABLE OIL (SOYBEAN OIL AND/OR CANOLA OIL)**, ONION*, RED BELL PEPPER*, XANTHAN GUM, SPICES, SORBIC ACID AND SODIUM BENZOATE (PRESERVATIVES), CALCIUM DISODIUM EDTA (TO PROTECT FLAVOR), CARAMEL COLOR, TOCOPHERYL ACETATE (VITAMIN E), LEMON JUICE CONCENTRATE." Date available: 10/13/2017 Date last updated by company: 10/13/2017
