Source: USDA Branded Food Products Database Release December 2017 Software v.3.8.6.4 2017-10-02
Report Run at: December 17, 2017 07:39 EST
"Nutrient data for: 45175597, FAT FREE HALF & HALF CREAMER, UPC: 072730273122"
Food Group:  Branded Food Products Database
Common Name:

Nutrient,Unit,Data points,Std. Error,"2.0 Tbsp = 30.0g",1Value per 100 g,
Proximates
"Energy",kcal,--,--,20,67
"Protein",g,--,--,1.00,3.33
"Total lipid (fat)",g,--,--,0.00,0.00
"Carbohydrate, by difference",g,--,--,3.00,10.00
"Fiber, total dietary",g,--,--,0.0,0.0
"Sugars, total",g,--,--,2.00,6.67
Minerals
"Calcium, Ca",mg,--,--,40,133
"Iron, Fe",mg,--,--,0.00,0.00
"Potassium, K",mg,--,--,60,200
"Sodium, Na",mg,--,--,25,83
Vitamins
"Vitamin C, total ascorbic acid",mg,--,--,0.0,0.0
"Vitamin A, IU",IU,--,--,334,1112
"Vitamin D",IU,--,--,0,0
Lipids
"Fatty acids, total saturated",g,--,--,0.000,0.000
"Fatty acids, total trans",g,--,--,0.000,0.000
"Cholesterol",mg,--,--,0,0
Amino Acids
Other
Ingredients
"NONFAT MILK, MILK1, CORN SYRUP SOLIDS, ARTIFICIAL COLOR2, SUGAR, DIPOTASSIUM PHOSPHATE, SODIUM CITRATE, MONO AND DIGLYCERIDES1, CARRAGEENAN, NATURAL AND ARTIFICIAL FLAVORS, VITAMIN A PALMITATE." Date available: 07/14/2017 Date last updated by company: 07/14/2017
