Source: USDA Branded Food Products Database Release December 2017 Software v.3.8.6.4 2017-10-02
Report Run at: December 17, 2017 07:46 EST
"Nutrient data for: 45288145, FAT FREE YOGURT MOUSSE, UPC: 070470411040"
Food Group:  Branded Food Products Database
Common Name:

Nutrient,Unit,Data points,Std. Error,"1 CONTAINER = 113.0g",1Value per 100 g,
Proximates
"Energy",kcal,--,--,99,88
"Protein",g,--,--,8.99,7.96
"Total lipid (fat)",g,--,--,0.00,0.00
"Carbohydrate, by difference",g,--,--,15.00,13.27
"Sugars, total",g,--,--,12.00,10.62
Minerals
"Calcium, Ca",mg,--,--,80,71
"Sodium, Na",mg,--,--,50,44
Vitamins
"Vitamin A, IU",IU,--,--,200,177
"Vitamin D",IU,--,--,80,71
Lipids
"Fatty acids, total saturated",g,--,--,0.000,0.000
"Fatty acids, total trans",g,--,--,0.000,0.000
"Cholesterol",mg,--,--,0,0
Amino Acids
Other
Ingredients
"FAT FREE YOGURT (CULTURED PASTEURIZED GRADE A NONFAT MILK, FRUCTOSE, KOSHER GELATIN, LACTIC ACID ESTERS OF MONO AND DIGLYCERIDES, MODIFIED CORN STARCH, SODIUM STEAROYL LACTYLATE, POTASSIUM SORBATE ADDED TO MAINTAIN FRESHNESS, YOGURT CULTURES [L. BULGARICUS, S. THERMOPHILUS], NATURAL FLAVOR [COCONUT], ACESULFAME POTASSIUM, CITRIC ACID, SUCRALOSE, VITAMIN A ACETATE, VITAMIN D3), NITROGEN." Date available: 05/06/2017 Date last updated by company: 05/06/2017
