Source: USDA Branded Food Products Database Release December 2017 Software v.3.8.6.4 2017-10-02
Report Run at: December 17, 2017 07:51 EST
"Nutrient data for: 45321324, FD SHD TST GD TORTILLA CHIPS SWT POT, UNPREPARED, GTIN: 00021908482491"
Food Group:  Branded Food Products Database
Common Name:

Nutrient,Unit,Data points,Std. Error,"1 oz (28g/about 12 chips) = 28.0g",1Value per 100 g,
Proximates
"Energy",kcal,--,--,140,500
"Protein",g,--,--,2.00,7.14
"Total lipid (fat)",g,--,--,7.00,25.00
"Carbohydrate, by difference",g,--,--,18.00,64.29
"Fiber, total dietary",g,--,--,1.0,3.6
"Sugars, total",g,--,--,3.00,10.71
Minerals
"Calcium, Ca",mg,--,--,20,71
"Iron, Fe",mg,--,--,0.00,0.00
"Potassium, K",mg,--,--,70,250
"Sodium, Na",mg,--,--,80,286
Vitamins
"Vitamin C, total ascorbic acid",mg,--,--,0.0,0.0
"Vitamin A, IU",IU,--,--,400,1429
Lipids
"Fatty acids, total saturated",g,--,--,0.501,1.790
"Fatty acids, total monounsaturated",g,--,--,5.001,17.860
"Fatty acids, total polyunsaturated",g,--,--,1.000,3.570
"Fatty acids, total trans",g,--,--,0.000,0.000
"Cholesterol",mg,--,--,0,0
Amino Acids
Other
Ingredients
"STONE GROUND CORN, HIGH OLEIC SUNFLOWER OIL AND/OR SAFFLOWER OIL AND/OR CANOLA OIL, DRIED SWEET POTATOES, CANE SUGAR, SWEET POTATOES, SEA SALT." Date available: 10/10/2017 Date last updated by company: 07/19/2017
