Source: USDA Branded Food Products Database Release December 2017 Software v.3.8.6.4 2017-10-02
Report Run at: December 17, 2017 07:52 EST
"Nutrient data for: 45238500, FENTIMANS, TRADITIONAL, CURIOSITY COLA, UPC: 967450000069"
Food Group:  Branded Food Products Database
Common Name:

Nutrient,Unit,Data points,Std. Error,"1 BOTTLE = 275.0g",1Value per 100 g,
Proximates
"Energy",kcal,--,--,129,47
"Protein",g,--,--,0.00,0.00
"Total lipid (fat)",g,--,--,0.00,0.00
"Carbohydrate, by difference",g,--,--,32.01,11.64
"Sugars, total",g,--,--,32.01,11.64
Minerals
"Iron, Fe",mg,--,--,0.47,0.17
"Sodium, Na",mg,--,--,25,9
Vitamins
Lipids
Amino Acids
Other
Ingredients
"CARBONATED WATER, FERMENTED GINGER ROOT EXTRACTS (GINGER ROOT, WATER, YEAST), CANE SUGAR, COLA FLAVOR, CARAMEL COLOR, PHOSPHORIC ACID, CAFFEINE." Date available: 07/14/2017 Date last updated by company: 07/14/2017
