Source: USDA Branded Food Products Database Release December 2017 Software v.3.8.6.4 2017-10-02
Report Run at: December 17, 2017 07:52 EST
"Nutrient data for: 45157702, FEODORA, GOLDBARREN CHOCOLATE, UPC: 088468573045"
Food Group:  Branded Food Products Database
Common Name:

Nutrient,Unit,Data points,Std. Error,"5.0 PIECES = 42.0g",1Value per 100 g,
Proximates
"Energy",kcal,--,--,240,571
"Protein",g,--,--,3.00,7.14
"Total lipid (fat)",g,--,--,16.00,38.10
"Carbohydrate, by difference",g,--,--,20.00,47.62
"Fiber, total dietary",g,--,--,1.0,2.4
"Sugars, total",g,--,--,20.00,47.62
Minerals
"Calcium, Ca",mg,--,--,80,190
"Iron, Fe",mg,--,--,0.00,0.00
"Sodium, Na",mg,--,--,25,60
Vitamins
"Vitamin C, total ascorbic acid",mg,--,--,0.0,0.0
"Vitamin A, IU",IU,--,--,0,0
Lipids
"Fatty acids, total saturated",g,--,--,10.000,23.810
"Fatty acids, total trans",g,--,--,0.000,0.000
"Cholesterol",mg,--,--,10,24
Amino Acids
Other
Ingredients
"SUGAR, COCOA BUTTER, COCOA BEANS, WHOLE MILK POWDER (18%), EMULSIFIER: SOYA LECITHINS, BOURBON VANILLA. COCOA: 35% MINIMUM." Date available: 07/14/2017 Date last updated by company: 07/14/2017
