Source: USDA Branded Food Products Database Release December 2017 Software v.3.8.6.4 2017-10-02
Report Run at: December 17, 2017 07:52 EST
"Nutrient data for: 45152899, FEODORA, DARK CHOCOLATE MINIATURE BARS, UPC: 088468573021"
Food Group:  Branded Food Products Database
Common Name:

Nutrient,Unit,Data points,Std. Error,"5.0 PIECES = 38.0g",1Value per 100 g,
Proximates
"Energy",kcal,--,--,210,553
"Protein",g,--,--,3.00,7.89
"Total lipid (fat)",g,--,--,15.00,39.47
"Carbohydrate, by difference",g,--,--,15.00,39.47
"Fiber, total dietary",g,--,--,2.0,5.3
"Sugars, total",g,--,--,15.00,39.47
Minerals
"Calcium, Ca",mg,--,--,20,53
"Iron, Fe",mg,--,--,0.00,0.00
"Sodium, Na",mg,--,--,10,26
Vitamins
"Vitamin C, total ascorbic acid",mg,--,--,0.0,0.0
"Vitamin A, IU",IU,--,--,0,0
Lipids
"Fatty acids, total saturated",g,--,--,8.998,23.680
"Fatty acids, total trans",g,--,--,0.000,0.000
"Cholesterol",mg,--,--,0,0
Amino Acids
Other
Ingredients
"COCOA BEANS, SUGAR, COCOA BUTTER, EMULSIFIER: RAPE LECITHINS, BOURBON VANILLA (VANILLA-EXTRACT AND PODS)." Date available: 07/14/2017 Date last updated by company: 07/14/2017
