Source: USDA Branded Food Products Database Release December 2017 Software v.3.8.6.4 2017-10-02
Report Run at: December 17, 2017 07:59 EST
"Nutrient data for: 45174588, FESTY, CREME SANDWICH COOKIES, VANILLA, UPC: 047416029768"
Food Group:  Branded Food Products Database
Common Name:

Nutrient,Unit,Data points,Std. Error,"1 PACKAGE = 34.6g",1Value per 100 g,
Proximates
"Energy",kcal,--,--,150,434
"Protein",g,--,--,1.00,2.89
"Total lipid (fat)",g,--,--,5.00,14.45
"Carbohydrate, by difference",g,--,--,23.00,66.47
"Fiber, total dietary",g,--,--,0.0,0.0
"Sugars, total",g,--,--,12.00,34.68
Minerals
"Calcium, Ca",mg,--,--,20,58
"Iron, Fe",mg,--,--,1.04,3.01
"Sodium, Na",mg,--,--,55,159
Vitamins
"Vitamin C, total ascorbic acid",mg,--,--,0.0,0.0
"Vitamin A, IU",IU,--,--,0,0
Lipids
"Fatty acids, total saturated",g,--,--,3.000,8.670
"Fatty acids, total monounsaturated",g,--,--,2.000,5.780
"Fatty acids, total polyunsaturated",g,--,--,0.502,1.450
"Fatty acids, total trans",g,--,--,0.000,0.000
"Cholesterol",mg,--,--,0,0
Amino Acids
Other
Ingredients
"ENRICHED FLOUR (WHEAT FLOUR, NIACIN, REDUCED IRON, THIAMINE MONONITRATE, RIBOFLAVIN, FOLIC ACID), SUGAR, PALM OIL AND/OR INTERESTERIFIED SOYBEAN OIL, DEXTROSE, HIGH FRUCTOSE CORN SYRUP, CONTAINS 2% OR LESS OF THE FOLLOWING: SALT, SOY LECITHIN, BAKING SODA, NATURAL AND ARTIFICIAL FLAVORS, MONOCALCIUM PHOSPHATE, SODIUM ACID PYROPHOSPHATE." Date available: 07/14/2017 Date last updated by company: 07/14/2017
