Source: USDA Branded Food Products Database Release December 2017 Software v.3.8.6.4 2017-10-02
Report Run at: December 17, 2017 07:58 EST
"Nutrient data for: 45180244, FESTIVAL, FLOWER GARDEN TREAT TOPPERS, UPC: 844527030139"
Food Group:  Branded Food Products Database
Common Name:

Nutrient,Unit,Data points,Std. Error,"1 tsp = 4.0g",1Value per 100 g,
Proximates
"Energy",kcal,--,--,15,375
"Protein",g,--,--,0.00,0.00
"Total lipid (fat)",g,--,--,0.00,0.00
"Carbohydrate, by difference",g,--,--,4.00,100.00
"Sugars, total",g,--,--,3.00,75.00
Minerals
"Calcium, Ca",mg,--,--,0,0
"Iron, Fe",mg,--,--,4.50,112.50
"Sodium, Na",mg,--,--,0,0
Vitamins
"Vitamin C, total ascorbic acid",mg,--,--,0.0,0.0
"Vitamin A, IU",IU,--,--,0,0
Lipids
Amino Acids
Other
Ingredients
"DEXTROSE, CORN STARCH, DEXTRIN, MAGNESIUM STEARATE, GUM ARABIC, ARTIFICIAL FLAVOR, SHELLAC, CARNAUBA WAX, YELLOW 5, RED 3, BLUE 1, YELLOW 6, RED 40, TITANIUM DIOXIDE COLOR." Date available: 07/14/2017 Date last updated by company: 07/14/2017
