Source: USDA Branded Food Products Database Release December 2017 Software v.3.8.6.4 2017-10-02
Report Run at: December 17, 2017 07:59 EST
"Nutrient data for: 45209139, FETA CHEESE CUBES, UPC: 607959700779"
Food Group:  Branded Food Products Database
Common Name:

Nutrient,Unit,Data points,Std. Error,"7.0 CUBES = 28.0g",1Value per 100 g,
Proximates
"Energy",kcal,--,--,110,393
"Protein",g,--,--,4.00,14.29
"Total lipid (fat)",g,--,--,10.00,35.71
"Carbohydrate, by difference",g,--,--,0.00,0.00
"Fiber, total dietary",g,--,--,0.0,0.0
"Sugars, total",g,--,--,0.00,0.00
Minerals
"Calcium, Ca",mg,--,--,80,286
"Iron, Fe",mg,--,--,0.64,2.29
"Sodium, Na",mg,--,--,300,1071
Vitamins
"Vitamin C, total ascorbic acid",mg,--,--,0.0,0.0
"Vitamin A, IU",IU,--,--,179,638
Lipids
"Fatty acids, total saturated",g,--,--,4.500,16.070
"Fatty acids, total trans",g,--,--,0.000,0.000
"Cholesterol",mg,--,--,25,89
Amino Acids
Other
Ingredients
"FETA P.D.O 83% (PASTEURIZED SHEEP AND GOAT'S MILK, SEA SALT, CULTURE, MICROBIAL RENNET), EXTRA VIRGIN OLIVE OIL 16%, HERBS 1% (OREGANO, CORIANDER, ROSEMARY, THYME, PAPRIKA, CLOVE)" Date available: 07/14/2017 Date last updated by company: 07/14/2017
