Source: USDA Branded Food Products Database Release December 2017 Software v.3.8.6.4 2017-10-02
Report Run at: December 17, 2017 08:03 EST
"Nutrient data for: 45294899, FEVER-TREE, PREMIUM GINGER BEER, UPC: 898195001700"
Food Group:  Branded Food Products Database
Common Name:

Nutrient,Unit,Data points,Std. Error,"1 BOTTLE = 275.0g",1Value per 100 g,
Proximates
"Energy",kcal,--,--,121,44
"Protein",g,--,--,0.00,0.00
"Total lipid (fat)",g,--,--,0.00,0.00
"Carbohydrate, by difference",g,--,--,28.00,10.18
"Fiber, total dietary",g,--,--,0.0,0.0
"Sugars, total",g,--,--,28.00,10.18
Minerals
"Sodium, Na",mg,--,--,0,0
Vitamins
Lipids
"Fatty acids, total saturated",g,--,--,0.000,0.000
"Cholesterol",mg,--,--,0,0
Amino Acids
Other
Ingredients
"CARBONATED SPRING WATER, CANE SUGAR, GINGER ROOT, NATURAL FLAVOUR, ASCORBIC ACID" Date available: 06/24/2017 Date last updated by company: 06/24/2017
