Source: USDA Branded Food Products Database Release December 2017 Software v.3.8.6.4 2017-10-02
Report Run at: December 17, 2017 08:07 EST
"Nutrient data for: 45209786, FIESTA BEAN DIP, UPC: 030034084585"
Food Group:  Branded Food Products Database
Common Name:

Nutrient,Unit,Data points,Std. Error,"2.0 Tbsp = 42.0g",1Value per 100 g,
Proximates
"Energy",kcal,--,--,30,71
"Protein",g,--,--,1.00,2.38
"Total lipid (fat)",g,--,--,1.00,2.38
"Carbohydrate, by difference",g,--,--,4.00,9.52
"Fiber, total dietary",g,--,--,1.0,2.4
"Sugars, total",g,--,--,0.00,0.00
Minerals
"Calcium, Ca",mg,--,--,0,0
"Iron, Fe",mg,--,--,0.43,1.02
"Sodium, Na",mg,--,--,10,24
Vitamins
"Vitamin C, total ascorbic acid",mg,--,--,1.4,3.4
"Vitamin A, IU",IU,--,--,119,283
Lipids
"Fatty acids, total saturated",g,--,--,0.500,1.190
"Fatty acids, total trans",g,--,--,0.000,0.000
"Cholesterol",mg,--,--,5,12
Amino Acids
Other
Ingredients
"REFRIED BEANS (COOKED BEANS, WATER, LESS THAN 2% OF: CANOLA OIL, SALT, DISTILLED VINEGAR, CHILE PEPPER, ONION POWDER, SPICES, GARLIC POWDER, NATURAL FLAVOR), MILD CHEDDAR CHEESE (PASTEURIZED MILK, CHEESE CULTURE, SALT, ENZYMES, ANNATTO [VEGETABLE COLOR]), POTATO STARCH AND POWDERED CELLULOSE ADDED TO PREVENT CAKING. SOUR CREAM (CULTURED MILK, CREAM, WHEY, FOOD STARCH-MODIFIED, SODIUM PHOSPHATE, GUAR GUM, CARRAGEENAN, CALCIUM SULFATE, LOCUST BEAN GUM, POTASSIUM SORBATE (A PRESERVATIVE)), TOMATOES, ONION, SLICED BLACK OLIVES (OLIVES, WATER, SALT, FERROUS GLUCONATE [COLOR STABILIZER]), JALAPENO PEPPER, GREEN ONION, CILANTRO." Date available: 07/14/2017 Date last updated by company: 07/14/2017
