Source: USDA Branded Food Products Database Release December 2017 Software v.3.8.6.4 2017-10-02
Report Run at: December 17, 2017 08:10 EST
"Nutrient data for: 45275484, FIESTA WRAP, UPC: 703546244135"
Food Group:  Branded Food Products Database
Common Name:

Nutrient,Unit,Data points,Std. Error,"1 WRAP = 255.0g",1Value per 100 g,
Proximates
"Energy",kcal,--,--,449,176
"Protein",g,--,--,22.01,8.63
"Total lipid (fat)",g,--,--,12.01,4.71
"Carbohydrate, by difference",g,--,--,65.99,25.88
"Fiber, total dietary",g,--,--,6.9,2.7
"Sugars, total",g,--,--,4.00,1.57
Minerals
"Sodium, Na",mg,--,--,750,294
Vitamins
Lipids
"Fatty acids, total saturated",g,--,--,1.989,0.780
"Fatty acids, total trans",g,--,--,0.000,0.000
Amino Acids
Other
Ingredients
"SPINACH WRAP: ORGANIC WHEAT FLOUR, WATER, SUNFLOWER OIL, CULTURED WHEAT FLOUR ADDED WITH VINEGAR, CONTAINS 2% OR LESS OF THE FOLLOWING: SALT, SOY, LECITHIN, DRIED SPINACH POWDER, ORGANIC GUAR GUM, CITRIC ACID, BAKING POWDER (SODIUM ACID PYROPHOSPHATE, SODIUM BICARBONATE, CORN STARCH, MONOCALCIUM PHOSPHATE), SODIUM BICARBONATE. MOON MEALS' VEGAN TACO MEAT (SEITAN): ORGANIC VITAL WHEAT GLUTEN, CUMIN, PAPRIKA, CHILI POWDER, GARLIC POWDER, ORGANIC COOKED KIDNEY BEANS, APPLE CIDER VINEGAR AND MOLASSES. MOON MEALS' VEGAN NACHO CHEESE SAUCE: ORGANIC RICE MILK: [FILTERED WATER, ORGANIC BROWN RICE (PARTIALLY MILLED), ORGANIC EXPELLER PRESSED SAFFLOWER OIL AND/OR SUNFLOWER OIL AND/OR CANOLA OIL, TRICALCIUM PHOSPHATE, SEA SALT, VITAMIN A PALMITATE, VITAMIN D2, VITAMIN B12]; NUTRITIONAL YEAST, ONION POWDER, GARLIC POWDER, TURMERIC, SEA SALT, APPLE CIDER, VINEGAR, ORGANIC SESAME OIL AND MOLASSES. ORGANIC COOKED BLACK BEANS, ORGANIC COOKED SHORT GRAIN BROWN RICE, ORGANIC COOKED SWEET CORN KERNELS, ORGANIC CHOPPED ROMAINE LETTUCE, CHOPPED JALAPENO PEPPERS" Date available: 10/13/2017 Date last updated by company: 10/13/2017
