Source: USDA Branded Food Products Database Release December 2017 Software v.3.8.6.4 2017-10-02
Report Run at: December 17, 2017 08:10 EST
"Nutrient data for: 45102362, FIG BARS, UPC: 011225025334"
Food Group:  Branded Food Products Database
Common Name:

Nutrient,Unit,Data points,Std. Error,"2.0 COOKIES = 30.0g",1Value per 100 g,
Proximates
"Energy",kcal,--,--,110,367
"Protein",g,--,--,1.00,3.33
"Total lipid (fat)",g,--,--,1.50,5.00
"Carbohydrate, by difference",g,--,--,23.00,76.67
"Fiber, total dietary",g,--,--,0.0,0.0
"Sugars, total",g,--,--,15.00,50.00
Minerals
"Calcium, Ca",mg,--,--,0,0
"Iron, Fe",mg,--,--,1.20,4.00
"Sodium, Na",mg,--,--,105,350
Vitamins
"Vitamin C, total ascorbic acid",mg,--,--,0.0,0.0
"Vitamin A, IU",IU,--,--,0,0
Lipids
"Fatty acids, total saturated",g,--,--,0.000,0.000
"Fatty acids, total trans",g,--,--,0.000,0.000
"Cholesterol",mg,--,--,0,0
Amino Acids
Other
Ingredients
"ENRICHED BLEACHED WHEAT FLOUR** (BLEACHED WHEAT FLOUR, NIACIN, REDUCED IRON, THIAMIN MONONITRATE, RIBOFLAVIN, FOLIC ACID), FIGS (PRESERVED WITH SULPHUR DIOXIDE), CORN SYRUP, HIGH FRUCTOSE CORN SYRUP, DEXTROSE, SUGAR, CORN FLOUR, PARTIALLY HYDROGENATED VEGETABLE OIL SHORTENING*+ (CONTAINS ONE OR MORE OF THE FOLLOWING: SOYBEAN AND/OR COTTONSEED OIL), FLAKED CORN, CORN BINDER, SALT, GLYCERIN, AMMONIUM BICARBONATE, SODIUM BICARBONATE, SOY LECITHIN* (AN EMULSIFIER), CITRIC ACID, SODIUM BENZOATE (A PRESERVATIVE), POTASSIUM SORBATE (A PRESERVATIVE), ARTIFICIAL VANILLA FLAVOR, ANNATTO (FOR COLOR) AND CARAMEL COLOR." Date available: 07/14/2017 Date last updated by company: 07/14/2017
