Source: USDA Branded Food Products Database Release December 2017 Software v.3.8.6.4 2017-10-02
Report Run at: December 17, 2017 08:14 EST
"Nutrient data for: 45287948, FILLED SANDWICHES, UPC: 078742181400"
Food Group:  Branded Food Products Database
Common Name:

Nutrient,Unit,Data points,Std. Error,"1 SANDWICH = 127.0g",1Value per 100 g,
Proximates
"Energy",kcal,--,--,340,268
"Protein",g,--,--,11.00,8.66
"Total lipid (fat)",g,--,--,15.00,11.81
"Carbohydrate, by difference",g,--,--,39.00,30.71
"Fiber, total dietary",g,--,--,2.0,1.6
"Sugars, total",g,--,--,4.00,3.15
Minerals
"Calcium, Ca",mg,--,--,150,118
"Iron, Fe",mg,--,--,4.14,3.26
"Potassium, K",mg,--,--,180,142
"Sodium, Na",mg,--,--,570,449
Vitamins
"Vitamin C, total ascorbic acid",mg,--,--,13.8,10.9
"Vitamin A, IU",IU,--,--,767,604
Lipids
"Fatty acids, total saturated",g,--,--,9.004,7.090
"Fatty acids, total monounsaturated",g,--,--,4.000,3.150
"Fatty acids, total polyunsaturated",g,--,--,1.003,0.790
"Fatty acids, total trans",g,--,--,0.000,0.000
"Cholesterol",mg,--,--,15,12
Amino Acids
Other
Ingredients
"ENRICHED FLOUR (WHEAT FLOUR, MALTED BARLEY FLOUR, NIACIN, REDUCED IRON, THIAMINE MONONITRATE, RIBOFLAVIN, FOLIC ACID), WATER, TOMATO PASTE, REDUCED FAT MOZZARELLA CHEESE (PASTEURIZED PART-SKIM MILK, NON-FAT MILK, MODIFIED FOOD STARCH*, CHEESE CULTURES, SALT, VITAMIN A PALMITATE*, ENZYMES), PEPPERONI (PORK AND BEEF, SALT, SPICES, DEXTROSE, LACTIC ACID STARTER CULTURE, PAPRIKA OLEORESIN COLOR, FLAVORING, SODIUM NITRITE, BHA ANTIOXIDANTS, BHT ANTIOXIDANTS, CITRIC ACID ANTIOXIDANTS), HYDROGENATED SOYBEAN OIL, PALM OIL (WITH LECITHIN, NATURAL AND ARTIFICIAL FLAVORS, BETA-CAROTENE COLOR), CONTAINS 2% OR LESS OF: VEGETABLE SHORTENING (PALM OIL AND SOYBEAN OIL), SEASONED BREAD CRUMBS (ENRICHED FLOUR [WHEAT FLOUR, NIACIN, REDUCED IRON, THIAMINE MONONITRATE, RIBOFLAVIN, FOLIC ACID], DEHYDRATED GARLIC, TOMATO POWDER, SALT, DEXTROSE, ONION POWDER, MALTODEXTRIN, DEHYDRATED PARSLEY, CORN SYRUP, SUGAR, CITRIC ACID, YEAST, SODIUM STEAROYL LACTYLATE, CALCIUM PROPIONATE [PRESERVATIVE]), WHEY, SUGAR, MODIFIED FOOD STARCH, SALT, GARLIC POWDER, DOUGH CONDITIONER BLEND (CALCIUM SULFATE, SALT, L-CYSTEINE MONOHYDROCHLORIDE, GARLIC POWDER, TRICALCIUM PHOSPHATE, ENZYMES), YEAST, NATURAL PEPPERONI FLAVOR, ONION POWDER, OREGANO, DRIED EGG WHITE, BASIL, SOY FLOUR, CITRIC ACID." Date available: 07/14/2017 Date last updated by company: 07/14/2017
