Source: USDA Branded Food Products Database Release December 2017 Software v.3.8.6.4 2017-10-02
Report Run at: December 17, 2017 08:18 EST
"Nutrient data for: 45291633, FINE ICE CREAMS, UPC: 075209824641"
Food Group:  Branded Food Products Database
Common Name:

Nutrient,Unit,Data points,Std. Error,"0.5 cup = 113.0g",1Value per 100 g,
Proximates
"Energy",kcal,--,--,250,221
"Protein",g,--,--,2.99,2.65
"Total lipid (fat)",g,--,--,18.00,15.93
"Carbohydrate, by difference",g,--,--,18.00,15.93
"Fiber, total dietary",g,--,--,0.0,0.0
"Sugars, total",g,--,--,17.00,15.04
Minerals
"Calcium, Ca",mg,--,--,99,88
"Iron, Fe",mg,--,--,0.41,0.36
"Sodium, Na",mg,--,--,45,40
Vitamins
"Vitamin C, total ascorbic acid",mg,--,--,1.4,1.2
"Vitamin A, IU",IU,--,--,843,746
Lipids
"Fatty acids, total saturated",g,--,--,10.995,9.730
"Fatty acids, total trans",g,--,--,0.000,0.000
"Cholesterol",mg,--,--,85,75
Amino Acids
Other
Ingredients
"CREAM, MILK, CANE SUGAR, NON FAT MILK SOLIDS, ORGANIC EGG YOLKS" Date available: 07/14/2017 Date last updated by company: 07/14/2017
