Source: USDA Branded Food Products Database Release December 2017 Software v.3.8.6.4 2017-10-02
Report Run at: December 17, 2017 08:22 EST
"Nutrient data for: 45126624, FINEST YOGHURT, UPC: 853923002169"
Food Group:  Branded Food Products Database
Common Name:

Nutrient,Unit,Data points,Std. Error,"8.0 ONZ = 227.0g",1Value per 100 g,
Proximates
"Energy",kcal,--,--,279,123
"Protein",g,--,--,12.01,5.29
"Total lipid (fat)",g,--,--,11.01,4.85
"Carbohydrate, by difference",g,--,--,33.01,14.54
"Fiber, total dietary",g,--,--,0.9,0.4
"Sugars, total",g,--,--,30.01,13.22
Minerals
"Calcium, Ca",mg,--,--,400,176
"Iron, Fe",mg,--,--,0.00,0.00
"Sodium, Na",mg,--,--,109,48
Vitamins
"Vitamin C, total ascorbic acid",mg,--,--,1.8,0.8
"Vitamin A, IU",IU,--,--,300,132
Lipids
"Fatty acids, total saturated",g,--,--,5.993,2.640
"Fatty acids, total trans",g,--,--,0.000,0.000
"Cholesterol",mg,--,--,30,13
Amino Acids
Other
Ingredients
"GRADE A PASTEURIZED MILK, FRUIT PUREE (PINEAPPLE, WATER, CANE SUGAR, PINEAPPLE JUICE CONCENTRATE, LEMON JUICE CONCENTRATE, NATURAL FLAVORS, LOCUST BEAN GUM, PECTIN, FRUIT JUICE), CANE SUGAR, HONEY, KOSHER GELATIN, PECTIN, LIVE ACTIVE CULTURES (S. THERMOPHILUS, L. BULGARICUS, L. ACIDOPHILUS, BIFIDUS, AND L. CASEI.)" Date available: 07/14/2017 Date last updated by company: 07/14/2017
