Source: USDA Branded Food Products Database Release December 2017 Software v.3.8.6.4 2017-10-02
Report Run at: December 17, 2017 08:23 EST
"Nutrient data for: 45180470, FINGER LAKES FRESH, EMPIRE APPLE CHIPS, UPC: 851472001602"
Food Group:  Branded Food Products Database
Common Name:

Nutrient,Unit,Data points,Std. Error,"1 PACKAGE = 28.0g",1Value per 100 g,
Proximates
"Energy",kcal,--,--,100,357
"Protein",g,--,--,1.00,3.57
"Total lipid (fat)",g,--,--,0.00,0.00
"Carbohydrate, by difference",g,--,--,27.00,96.43
"Fiber, total dietary",g,--,--,5.0,17.9
"Sugars, total",g,--,--,20.00,71.43
Minerals
"Sodium, Na",mg,--,--,0,0
Vitamins
Lipids
Amino Acids
Other
Ingredients
"DEHYDRATED APPLES." Date available: 10/19/2017 Date last updated by company: 10/19/2017
