Source: USDA Branded Food Products Database Release December 2017 Software v.3.8.6.4 2017-10-02
Report Run at: December 17, 2017 08:24 EST
"Nutrient data for: 45186456, FIORELLO'S, ARTISAN GELATO, CHOCOLATE CHOCOLATE CHIP, UPC: 804879460237"
Food Group:  Branded Food Products Database
Common Name:

Nutrient,Unit,Data points,Std. Error,"0.5 cup = 129.0g",1Value per 100 g,
Proximates
"Energy",kcal,--,--,290,225
"Protein",g,--,--,4.00,3.10
"Total lipid (fat)",g,--,--,16.00,12.40
"Carbohydrate, by difference",g,--,--,39.00,30.23
"Fiber, total dietary",g,--,--,2.1,1.6
"Sugars, total",g,--,--,25.00,19.38
Minerals
"Calcium, Ca",mg,--,--,101,78
"Iron, Fe",mg,--,--,2.03,1.57
"Sodium, Na",mg,--,--,61,47
Vitamins
"Vitamin C, total ascorbic acid",mg,--,--,0.0,0.0
"Vitamin A, IU",IU,--,--,562,436
Lipids
"Fatty acids, total saturated",g,--,--,11.997,9.300
"Fatty acids, total trans",g,--,--,0.000,0.000
"Cholesterol",mg,--,--,30,23
Amino Acids
Other
Ingredients
"CREAM BASE (CREAM, MILK, SUGAR, NON-FAT MILK POWDER, PASTEURIZED EGG YOLKS, GUAR GUM, LOCUST BEAN GUM), WATER, SUGAR, SEMISWEET CHOCOLATE." Date available: 07/14/2017 Date last updated by company: 07/14/2017
