Source: USDA Branded Food Products Database Release December 2017 Software v.3.8.6.4 2017-10-02
Report Run at: December 17, 2017 08:24 EST
"Nutrient data for: 45268612, FIOR DI PISTACCHIO, UPC: 800063700059"
Food Group:  Branded Food Products Database
Common Name:

Nutrient,Unit,Data points,Std. Error,"28.0 GRM = 28.0g",1Value per 100 g,
Proximates
"Energy",kcal,--,--,64,229
"Protein",g,--,--,1.00,3.57
"Total lipid (fat)",g,--,--,4.00,14.29
"Carbohydrate, by difference",g,--,--,6.00,21.43
"Fiber, total dietary",g,--,--,0.0,0.0
"Sugars, total",g,--,--,6.00,21.43
Minerals
"Calcium, Ca",mg,--,--,40,143
"Iron, Fe",mg,--,--,0.00,0.00
"Sodium, Na",mg,--,--,16,57
Vitamins
"Vitamin C, total ascorbic acid",mg,--,--,0.0,0.0
"Vitamin A, IU",IU,--,--,150,536
Lipids
"Fatty acids, total saturated",g,--,--,1.999,7.140
"Fatty acids, total trans",g,--,--,0.000,0.000
"Cholesterol",mg,--,--,16,57
Amino Acids
Other
Ingredients
"PISTACHIOS, SUGAR, VEGETABLE FATS, MILK POWDER, EMULSIFYING AGENT SOY LECITHIN, AROMAS." Date available: 07/14/2017 Date last updated by company: 07/14/2017
