Source: USDA Branded Food Products Database Release December 2017 Software v.3.8.6.4 2017-10-02
Report Run at: December 17, 2017 08:28 EST
"Nutrient data for: 45199060, FIRE ROASTED MEDIUM SALSA, UPC: 086854062777"
Food Group:  Branded Food Products Database
Common Name:

Nutrient,Unit,Data points,Std. Error,"0.25 cup = 61.0g",1Value per 100 g,
Proximates
"Energy",kcal,--,--,20,33
"Protein",g,--,--,1.00,1.64
"Total lipid (fat)",g,--,--,0.00,0.00
"Carbohydrate, by difference",g,--,--,4.00,6.56
"Fiber, total dietary",g,--,--,1.0,1.6
"Sugars, total",g,--,--,2.00,3.28
Minerals
"Calcium, Ca",mg,--,--,20,33
"Iron, Fe",mg,--,--,0.29,0.48
"Sodium, Na",mg,--,--,360,590
Vitamins
"Vitamin C, total ascorbic acid",mg,--,--,2.9,4.8
"Vitamin A, IU",IU,--,--,246,403
Lipids
"Fatty acids, total saturated",g,--,--,0.000,0.000
"Fatty acids, total trans",g,--,--,0.000,0.000
"Cholesterol",mg,--,--,0,0
Amino Acids
Other
Ingredients
"FIRE ROASTED DICED TOMATOES, TOMATO PUREE, DICED JALAPENO PEPPER, DICED ANAHEIM PEPPERS, SALT, SPICES, DICED DEHYDRATED ONIONS, DEHYDRATED GARLIC, ACETIC ACID, CITRIC ACID AND CALCIUM CHLORIDE." Date available: 07/14/2017 Date last updated by company: 07/14/2017
