Source: USDA Branded Food Products Database Release December 2017 Software v.3.8.6.4 2017-10-02
Report Run at: December 17, 2017 08:28 EST
"Nutrient data for: 45268528, FIRE ROASTED NUT MIX WITH SEA SALT, UPC: 790429248014"
Food Group:  Branded Food Products Database
Common Name:

Nutrient,Unit,Data points,Std. Error,"0.25 cup = 34.0g",1Value per 100 g,
Proximates
"Energy",kcal,--,--,200,588
"Protein",g,--,--,3.00,8.82
"Total lipid (fat)",g,--,--,17.00,50.00
"Carbohydrate, by difference",g,--,--,9.00,26.47
"Fiber, total dietary",g,--,--,3.0,8.8
"Sugars, total",g,--,--,1.00,2.94
Minerals
"Calcium, Ca",mg,--,--,20,59
"Iron, Fe",mg,--,--,0.00,0.00
"Sodium, Na",mg,--,--,230,676
Vitamins
"Vitamin C, total ascorbic acid",mg,--,--,0.0,0.0
"Vitamin A, IU",IU,--,--,0,0
Lipids
"Fatty acids, total saturated",g,--,--,1.999,5.880
"Fatty acids, total trans",g,--,--,0.000,0.000
"Cholesterol",mg,--,--,0,0
Amino Acids
Other
Ingredients
"ALMONDS, PEANUTS, HAZELNUTS, PECANS, CASHEWS, SALT." Date available: 07/14/2017 Date last updated by company: 07/14/2017
