Source: USDA Branded Food Products Database Release December 2017 Software v.3.8.6.4 2017-10-02
Report Run at: December 17, 2017 08:33 EST
"Nutrient data for: 45167151, FISCHER WIESER, ORGANIC CHIPOTLE SAUCE, POMEGRANATE & MANGO, UPC: 020138651134"
Food Group:  Branded Food Products Database
Common Name:

Nutrient,Unit,Data points,Std. Error,"1 Tbsp = 20.0g",1Value per 100 g,
Proximates
"Energy",kcal,--,--,45,225
"Protein",g,--,--,0.00,0.00
"Total lipid (fat)",g,--,--,0.00,0.00
"Carbohydrate, by difference",g,--,--,12.00,60.00
"Fiber, total dietary",g,--,--,0.0,0.0
"Sugars, total",g,--,--,11.00,55.00
Minerals
"Calcium, Ca",mg,--,--,0,0
"Iron, Fe",mg,--,--,0.00,0.00
"Sodium, Na",mg,--,--,55,275
Vitamins
"Vitamin C, total ascorbic acid",mg,--,--,4.9,24.4
"Vitamin A, IU",IU,--,--,812,4058
Lipids
Amino Acids
Other
Ingredients
"ORGANIC SUGAR, ORGANIC MANGO, ORGANIC POMEGRANATE, ORGANIC JALAPENO PEPPERS, WATER, ORGANIC APPLE CIDER VINEGAR, NON-GMO PECTIN (SUCROSE, PECTIN, CITRIC ACID), ORGANIC GRANULATED GARLIC, ORGANIC CHIPOTLE POWDER, SALT." Date available: 07/14/2017 Date last updated by company: 07/14/2017
