Source: USDA Branded Food Products Database Release December 2017 Software v.3.8.6.4 2017-10-02
Report Run at: December 17, 2017 08:39 EST
"Nutrient data for: 45160312, FISHO, BAKED FISH SNACK, SUPER SPICY, UPC: 850468200449"
Food Group:  Branded Food Products Database
Common Name:

Nutrient,Unit,Data points,Std. Error,"1 BAG = 30.0g",1Value per 100 g,
Proximates
"Energy",kcal,--,--,100,333
"Protein",g,--,--,7.00,23.33
"Total lipid (fat)",g,--,--,0.00,0.00
"Carbohydrate, by difference",g,--,--,16.00,53.33
"Fiber, total dietary",g,--,--,1.0,3.3
"Sugars, total",g,--,--,7.00,23.33
Minerals
"Calcium, Ca",mg,--,--,20,67
"Iron, Fe",mg,--,--,0.60,2.00
"Sodium, Na",mg,--,--,740,2467
Vitamins
"Vitamin C, total ascorbic acid",mg,--,--,0.0,0.0
"Vitamin A, IU",IU,--,--,0,0
Lipids
"Fatty acids, total saturated",g,--,--,0.000,0.000
"Fatty acids, total trans",g,--,--,0.000,0.000
"Cholesterol",mg,--,--,5,17
Amino Acids
Other
Ingredients
"SURIMI [FISH (GOATFISH, LIZARDFISH, THREADFIN BREAM), SUGAR, EGG WHITE, SODIUM TRIPOLYPHOSPHATE, TETRA SODIUM PYROPHOSPHATE], WHEAT FLOUR, TAPIOCA STARCH, SUGAR, SALT, SOY SAUCE (WATER, SOYBEAN EXTRACT, WHEAT, SALT), SEASONING [SUGAR, CHILLI POWDER, SALT, MONOSODIUM GLUTAMATE, DISODIUM INOSINATE, DISODIUM GUANYLATE, VEGETABLE OIL (PALM OIL AND COCONUT OIL), PAPRIKA POWDER, ONION POWDER]." Date available: 07/14/2017 Date last updated by company: 07/14/2017
