Source: USDA Branded Food Products Database Release December 2017 Software v.3.8.6.4 2017-10-02
Report Run at: December 17, 2017 08:42 EST
"Nutrient data for: 45218645, FITNESS MIX, UPC: 033314662060"
Food Group:  Branded Food Products Database
Common Name:

Nutrient,Unit,Data points,Std. Error,"28.0 GRM = 28.0g",1Value per 100 g,
Proximates
"Energy",kcal,--,--,145,518
"Protein",g,--,--,3.00,10.71
"Total lipid (fat)",g,--,--,7.00,25.00
"Carbohydrate, by difference",g,--,--,16.00,57.14
"Fiber, total dietary",g,--,--,2.0,7.1
"Sugars, total",g,--,--,13.00,46.43
Minerals
"Calcium, Ca",mg,--,--,30,107
"Iron, Fe",mg,--,--,1.93,6.88
"Sodium, Na",mg,--,--,45,161
Vitamins
"Vitamin C, total ascorbic acid",mg,--,--,1.1,3.8
"Vitamin A, IU",IU,--,--,0,0
Lipids
"Fatty acids, total saturated",g,--,--,1.000,3.570
"Fatty acids, total trans",g,--,--,0.000,0.000
"Cholesterol",mg,--,--,0,0
Amino Acids
Other
Ingredients
"PEANUTS (COTTONSEED OIL & SEA SALT), RAISINS (VEGETABLE OIL), PEPITAS, CRANBERRIES (SUGAR, CITRIC ACID, SUNFLOWER OIL, ELDERBERRY JUICE CONCENTRATE (COLOR) AND ALMONDS (COTTONSEED OIL.)" Date available: 07/14/2017 Date last updated by company: 07/14/2017
