Source: USDA Branded Food Products Database Release December 2017 Software v.3.8.6.4 2017-10-02
Report Run at: December 17, 2017 08:48 EST
"Nutrient data for: 45090521, FLAN WITH CARAMEL SAUCE, UPC: 072392003068"
Food Group:  Branded Food Products Database
Common Name:

Nutrient,Unit,Data points,Std. Error,"0.5 cup = 19.0g",1Value per 100 g,
Proximates
"Energy",kcal,--,--,70,368
"Protein",g,--,--,0.00,0.00
"Total lipid (fat)",g,--,--,0.00,0.00
"Carbohydrate, by difference",g,--,--,18.00,94.74
"Fiber, total dietary",g,--,--,0.0,0.0
"Sugars, total",g,--,--,18.00,94.74
Minerals
"Calcium, Ca",mg,--,--,0,0
"Iron, Fe",mg,--,--,0.00,0.00
"Sodium, Na",mg,--,--,30,158
Vitamins
"Vitamin C, total ascorbic acid",mg,--,--,0.0,0.0
"Vitamin A, IU",IU,--,--,0,0
Lipids
"Fatty acids, total saturated",g,--,--,0.000,0.000
"Fatty acids, total trans",g,--,--,0.000,0.000
"Cholesterol",mg,--,--,0,0
Amino Acids
Other
Ingredients
"SUGAR, CARRAGEENAN AND LOCUST BEAN GUM (THICKENERS), LESS THAN 2% OF: NATURAL AND ARTIFICIAL FLAVOR, SALT, YELLOW 5, RED 40. SAUCE INGREDIENTS: HIGH FRUCTOSE CORN SYRUP, SUGAR, CARAMEL SYRUP, CARAMEL COLOR." Date available: 07/14/2017 Date last updated by company: 07/14/2017
