Source: USDA Branded Food Products Database Release December 2017 Software v.3.8.6.4 2017-10-02
Report Run at: December 17, 2017 08:48 EST
"Nutrient data for: 45037617, FLAPJACK MIX, UPC: 635519118412"
Food Group:  Branded Food Products Database
Common Name:

Nutrient,Unit,Data points,Std. Error,"0.333 CUP DRY MIX, MAKES 2 FLAPJACKS (137G) = 55.0g",1Value per 100 g,
Proximates
"Energy",kcal,--,--,190,345
"Protein",g,--,--,5.00,9.09
"Total lipid (fat)",g,--,--,0.50,0.91
"Carbohydrate, by difference",g,--,--,42.00,76.36
"Fiber, total dietary",g,--,--,2.0,3.6
"Sugars, total",g,--,--,9.00,16.36
Minerals
"Calcium, Ca",mg,--,--,100,182
"Iron, Fe",mg,--,--,0.26,0.47
"Sodium, Na",mg,--,--,400,727
Vitamins
"Vitamin C, total ascorbic acid",mg,--,--,0.0,0.0
"Vitamin A, IU",IU,--,--,0,0
Lipids
"Fatty acids, total saturated",g,--,--,0.000,0.000
"Fatty acids, total trans",g,--,--,0.000,0.000
"Cholesterol",mg,--,--,0,0
Amino Acids
Other
Ingredients
"WHEAT FLOUR (MILLED WHEAT, MALTED BARLEY FLOUR), DRIED WILD BLUEBERRIES (WILD BLUEBERRIES, SUGAR, SUNFLOWER OIL), SUGAR, BUTTERMILK POWDER (CULTURED BUTTERMILK), BAKING POWDER (SODIUM ACID PYROPHOSPHATE, SODIUM BICARBONATE, CORNSTARCH, MONOCALCIUM PHOSPHATE), BAKING SODA, SALT, NATURAL LAVENDER FLAVOR, NATURAL BLUEBERRY FLAVOR, NATURAL LEMON FLAVOR." Date available: 07/14/2017 Date last updated by company: 07/14/2017
