Source: USDA Branded Food Products Database Release December 2017 Software v.3.8.6.4 2017-10-02
Report Run at: December 17, 2017 08:50 EST
"Nutrient data for: 45261081, FLATBREAD, UPC: 021130117826"
Food Group:  Branded Food Products Database
Common Name:

Nutrient,Unit,Data points,Std. Error,"1 FLATBREAD = 190.0g",1Value per 100 g,
Proximates
"Energy",kcal,--,--,460,242
"Protein",g,--,--,21.00,11.05
"Total lipid (fat)",g,--,--,20.01,10.53
"Carbohydrate, by difference",g,--,--,46.00,24.21
"Fiber, total dietary",g,--,--,2.1,1.1
"Sugars, total",g,--,--,3.00,1.58
Minerals
"Calcium, Ca",mg,--,--,251,132
"Iron, Fe",mg,--,--,9.29,4.89
"Sodium, Na",mg,--,--,1309,689
Vitamins
"Vitamin C, total ascorbic acid",mg,--,--,0.0,0.0
"Vitamin A, IU",IU,--,--,148,78
Lipids
"Fatty acids, total saturated",g,--,--,6.004,3.160
"Fatty acids, total trans",g,--,--,0.000,0.000
"Cholesterol",mg,--,--,70,37
Amino Acids
Other
Ingredients
"ENRICHED WHEAT FLOUR (WHEAT FLOUR, MALTED BARLEY FLOUR, NIACIN, REDUCED IRON, THIAMINE MONONITRATE [VITAMIN B1], RIBOFLAVIN [VITAMIN B2], FOLIC ACID), WATER, CHICKEN (CHICKEN THIGH MEAT, WATER, SALT, SPICES, SODIUM PHOSPHATE, DEHYDRATED GARLIC AND ONION), RANCH DRESSING (SOYBEAN OIL, WATER, BUTTERMILK, EGG YOLK, DISTILLED VINEGAR, CONTAINS LESS THAN 2% OF: SALT, MONOSODIUM GLUTAMATE, MODIFIED FOOD STARCH, BUTTERMILK SOLIDS, SUGAR, GARLIC, SPICES, XANTHAN GUM, EGG WHITES, ONION, CITRIC ACID, SORBIC ACID, CALCIUM DISODIUM EDTA TO PROTECT FLAVOR, DAIRY FLAVOR [MALTODEXTRIN, WHEY, MILK POWDER, LACTOSE, VINEGAR, MODIFIED FOOD STARCH {WITH CORN SYRUP ADDED}, SALT, GUM ARABIC]), SHREDDED MOZZARELLA CHEESE (PASTEURIZED PART-SKIM MILK, CHEESE CULTURES, SALT, ENZYMES), BACON PIECES (PORK CURED WITH WATER, SALT, SUGAR, SODIUM PHOSPHATE, SODIUM ERYTHORBATE, SODIUM NITRITE), SHREDDED PARMESAN CHEESE (PASTEURIZED COW'S MILK, CHEESE CULTURE, SALT, ENZYMES), GREEN ONION, SUGAR, SALT, YEAST, OREGANO, CANOLA OIL." Date available: 07/14/2017 Date last updated by company: 07/14/2017
