Source: USDA Branded Food Products Database Release December 2017 Software v.3.8.6.4 2017-10-02
Report Run at: December 17, 2017 08:51 EST
"Nutrient data for: 45237507, FLAT FILLETS OF ANCHOVIES IN PURE OLIVE OIL, UPC: 070670006664"
Food Group:  Branded Food Products Database
Common Name:

Nutrient,Unit,Data points,Std. Error,"6.0 PIECES,USUALLY | ABOUT = 15.0g",1Value per 100 g,
Proximates
"Energy",kcal,--,--,25,167
"Protein",g,--,--,4.00,26.67
"Total lipid (fat)",g,--,--,1.50,10.00
"Carbohydrate, by difference",g,--,--,0.00,0.00
Minerals
"Calcium, Ca",mg,--,--,40,267
"Iron, Fe",mg,--,--,0.36,2.40
"Sodium, Na",mg,--,--,750,5000
Vitamins
Lipids
"Fatty acids, total saturated",g,--,--,0.000,0.000
"Fatty acids, total trans",g,--,--,0.000,0.000
"Cholesterol",mg,--,--,15,100
Amino Acids
Other
Ingredients
"ANCHOVIES, OLIVE OIL, SALT." Date available: 09/23/2016 Date last updated by company: 09/23/2016
