Source: USDA Branded Food Products Database Release December 2017 Software v.3.8.6.4 2017-10-02
Report Run at: December 17, 2017 08:54 EST
"Nutrient data for: 45328624, FLAVORED DRINK, UPC: 041483001917"
Food Group:  Branded Food Products Database
Common Name:

Nutrient,Unit,Data points,Std. Error,"1 cup = 236.0g",1Value per 100 g,
Proximates
"Energy",kcal,--,--,120,51
"Protein",g,--,--,0.00,0.00
"Total lipid (fat)",g,--,--,0.00,0.00
"Carbohydrate, by difference",g,--,--,30.00,12.71
"Fiber, total dietary",g,--,--,0.0,0.0
"Sugars, total",g,--,--,30.00,12.71
Minerals
"Calcium, Ca",mg,--,--,0,0
"Iron, Fe",mg,--,--,0.00,0.00
"Sodium, Na",mg,--,--,14,6
Vitamins
"Vitamin C, total ascorbic acid",mg,--,--,0.0,0.0
"Vitamin A, IU",IU,--,--,0,0
"Vitamin D",IU,--,--,0,0
Lipids
"Fatty acids, total saturated",g,--,--,0.000,0.000
"Fatty acids, total trans",g,--,--,0.000,0.000
"Cholesterol",mg,--,--,0,0
Amino Acids
Other
Ingredients
"WATER, HIGH FRUCTOSE CORN SYRUP, ORANGE FLAVOR [WATER, CITRIC ACID, GUM ARABIC, SODIUM CITRATE, GLYCEROL ESTER OF WOOD ROSIN, NATURAL AND ARTIFICIAL FLAVORS, YELLOW #6, BROMINATED VEGETABLE OIL]. POTASSIUM SORBATE (PRESERVATIVE)." Date available: 10/13/2017 Date last updated by company: 10/13/2017
