Source: USDA Branded Food Products Database Release December 2017 Software v.3.8.6.4 2017-10-02
Report Run at: December 17, 2017 08:52 EST
"Nutrient data for: 45289543, FLAVOR CHEESECAKE SAMPLER, UPC: 078742094786"
Food Group:  Branded Food Products Database
Common Name:

Nutrient,Unit,Data points,Std. Error,"1 SLICE = 109.0g",1Value per 100 g,
Proximates
"Energy",kcal,--,--,400,367
"Protein",g,--,--,6.00,5.50
"Total lipid (fat)",g,--,--,24.00,22.02
"Carbohydrate, by difference",g,--,--,40.00,36.70
"Fiber, total dietary",g,--,--,1.0,0.9
"Sugars, total",g,--,--,32.00,29.36
Minerals
"Calcium, Ca",mg,--,--,60,55
"Iron, Fe",mg,--,--,1.24,1.14
"Sodium, Na",mg,--,--,320,294
Vitamins
"Vitamin C, total ascorbic acid",mg,--,--,0.0,0.0
"Vitamin A, IU",IU,--,--,860,789
Lipids
"Fatty acids, total saturated",g,--,--,14.998,13.760
"Fatty acids, total trans",g,--,--,0.000,0.000
"Cholesterol",mg,--,--,100,92
Amino Acids
Other
Ingredients
"CREAM CHEESE (PASTEURIZED MILK AND CREAM, CHEESE CULTURE, SALT, CAROB BEAN GUM, XANTHAN GUM, GUAR GUM), SUGAR, EGGS, GRAHAM CRUMB (WHEAT FLOUR, GRAHAM FLOUR, SUGAR, PALM AND PALM KERNEL OIL, MOLASSES, HONEY, SALT, SODIUM BICARBONATE), CHOCOLATE COOKIE CRUMB (ENRICHED FLOUR [WHEAT FLOUR, NIACIN, REDUCED IRON, THIAMINE MONONITRATE, RIBOFLAVIN, FOLIC ACID], SUGAR, PALM AND PALM KERNEL OIL, COCOA PROCESSED WITH ALKALI, HIGH FRUCTOSE CORN SYRUP, YELLOW CORN FLOUR, SALT, DEXTROSE, SODIUM BICARBONATE, SOY LECITHIN), SEMI-SWEET CHOCOLATE (SUGAR, CHOCOLATE LIQUOR, COCOA BUTTER, SOY LECITHIN, SALT, ARTIFICIAL FLAVOR), BUTTER (PASTEURIZED CREAM, SALT), CHOCOLATE PEANUT BUTTER CUPS (MILK CHOCOLATE [SUGAR, COCOA BUTTER, CHOCOLATE, NONFAT MILK, MILK FAT, LACTOSE, SOY LECITHIN, PGPR], PEANUTS, SUGAR, DEXTROSE, SALT, TBHQ PRESERVATIVE), CARAMEL (REDUCED LACTOSE SWEETENED CONDENSED MILK [MILK, SUGAR, SKIM MILK], CORN SYRUP, WATER, SUGAR, BUTTER [CREAM, SALT], MODIFIED FOOD STARCH, GELLAN GUM, XANTHAN GUM, SODIUM BICARBONATE, MONO- AND DIGLYCERIDES, NATURAL FLAVOR, POTASSIUM SORBATE PRESERVATIVE, SALT), WHITE CHOCOLATE (SUGAR, COCOA BUTTER, MILK, NONFAT MILK, MILKFAT, SOY LECITHIN, NATURAL FLAVOR), LEMON JUICE FROM CONCENTRATE (WATER, LEMON JUICE CONCENTRATE), RASPBERRIES, NATURAL AND ARTIFICIAL VANILLA FLAVOR, ENRICHED FLOUR (BLEACHED WHEAT FLOUR, MALTED BARLEY FLOUR, NIACIN, REDUCED IRON, THIAMINE MONONITRATE, RIBOFLAVIN, FOLIC ACID), STRAWBERRY PASTRY FILLING (STRAWBERRIES, WATER, CORN SYRUP, HIGH FRUCTOSE CORN SYRUP, ORANGE PULP, MODIFIED FOOD STARCH, SUGAR, CITRIC ACID, RED 40, SODIUM BENZOATE PRESERVATIVE, POTASSIUM SORBATE PRESERVATIVE, CARAMEL COLOR, SALT, ARTIFICIAL FLAVOR), HEAVY CREAM (CREAM, CARRAGEENAN), ROASTED PECANS (PECANS, COTTONSEED OIL, SALT), RASPBERRY PASTRY FILLING (HIGH FRUCTOSE CORN SYRUP, CORN SYRUP, WATER, RASPBERRY PUREE, ORANGE PULP, MODIFIED FOOD STARCH, RED 40, CITRIC ACID, SODIUM BENZOATE PRESERVATIVE, POTASSIUM SORBATE PRESERVATIVE, CARAMEL COLOR, ARTIFICIAL FLAVOR), SEMISWEET CHOCOLATE CURLS (SUGAR, CHOCOLATE LIQUOR, COCOA BUTTER, BUTTER OIL, SOY LECITHIN, NATURAL FLAVOR), CHOCOLATE COATING (POWDERED SUGAR [SUGAR, CORN STARCH], CHOCOLATE LIQUOR, COCONUT OIL, SOY LECITHIN, SALT, NATURAL FLAVOR, MILK), PEANUT BUTTER (PEANUTS, DEXTROSE, HYDROGENATED VEGETABLE OIL [CONTAINS ONE OR MORE OF THE FOLLOWING: RAPESEED OIL, COTTONSEED OIL, SOYBEAN OIL], SALT), NATURAL FLAVOR, SOY LECITHIN." Date available: 07/14/2017 Date last updated by company: 07/14/2017
