Source: USDA Branded Food Products Database Release December 2017 Software v.3.8.6.4 2017-10-02
Report Run at: December 17, 2017 09:00 EST
"Nutrient data for: 45170315, FLAVORS OF FLORIDA, CHILLI CITRUS HOT SAUCE, UPC: 899812001035"
Food Group:  Branded Food Products Database
Common Name:

Nutrient,Unit,Data points,Std. Error,"11.0 GRM = 11.0g",1Value per 100 g,
Proximates
"Energy",kcal,--,--,5,45
"Protein",g,--,--,0.00,0.00
"Total lipid (fat)",g,--,--,0.00,0.00
"Carbohydrate, by difference",g,--,--,1.00,9.09
"Fiber, total dietary",g,--,--,0.0,0.0
"Sugars, total",g,--,--,0.00,0.00
Minerals
"Sodium, Na",mg,--,--,20,182
Vitamins
Lipids
"Fatty acids, total saturated",g,--,--,0.000,0.000
"Fatty acids, total trans",g,--,--,0.000,0.000
"Cholesterol",mg,--,--,0,0
Amino Acids
Other
Ingredients
"CAYENNE PEPPERS, WATER, DISTILLED VINEGAR, LEMON JUICE, GARLIC, CILANTRO, XANTHAN GUM" Date available: 07/14/2017 Date last updated by company: 07/14/2017
