Source: USDA Branded Food Products Database Release December 2017 Software v.3.8.6.4 2017-10-02
Report Run at: December 17, 2017 08:58 EST
"Nutrient data for: 45221904, FLAVORED SYRUP FOR COFFEE, UPC: 824863000744"
Food Group:  Branded Food Products Database
Common Name:

Nutrient,Unit,Data points,Std. Error,"1 FL. OZ. = 30.0g",1Value per 100 g,
Proximates
"Energy",kcal,--,--,0,0
"Protein",g,--,--,0.00,0.00
"Total lipid (fat)",g,--,--,0.00,0.00
"Carbohydrate, by difference",g,--,--,0.00,0.00
Minerals
"Sodium, Na",mg,--,--,10,33
Vitamins
Lipids
Amino Acids
Other
Ingredients
"WATER, NATURAL & ARTIFICIAL FLAVOR, CELLULOSE GUM, SUCRALOSE, CITRIC ACID ACESULFAME POTASSIUM, POTASSIUM SORBATE, SODIUM BENZOATE, CARAMEL COLOR." Date available: 08/11/2017 Date last updated by company: 08/11/2017
