Source: USDA Branded Food Products Database Release December 2017 Software v.3.8.6.4 2017-10-02
Report Run at: December 17, 2017 08:53 EST
"Nutrient data for: 45216764, FLAVORED BEVERAGE, UPC: 072521052240"
Food Group:  Branded Food Products Database
Common Name:

Nutrient,Unit,Data points,Std. Error,"8.0 OZA = 240.0g",1Value per 100 g,
Proximates
"Energy",kcal,--,--,0,0
"Protein",g,--,--,0.00,0.00
"Total lipid (fat)",g,--,--,0.00,0.00
"Carbohydrate, by difference",g,--,--,0.00,0.00
"Sugars, total",g,--,--,0.00,0.00
Minerals
"Sodium, Na",mg,--,--,36,15
Vitamins
Lipids
Amino Acids
Other
Ingredients
"FILTERED WATER, CITRIC ACID, NATURAL FLAVOR, POTASSIUM CITRATE, SODIUM HEXAMETAPHOSPHATE, POTASSIUM BENZOATE AND POTASSIUM SORBATE (PRESERVATIVES), SUCRALOSE, ACESULFAME POTASSIUM, CALCIUM DISODIUM EDTA (TO PROTECT FLAVOR), RED 40." Date available: 07/14/2017 Date last updated by company: 07/14/2017
