Source: USDA Branded Food Products Database Release December 2017 Software v.3.8.6.4 2017-10-02
Report Run at: December 17, 2017 09:00 EST
"Nutrient data for: 45054660, FLAVOR SHOCKED PRETZEL SHELLS, UPC: 079927093013"
Food Group:  Branded Food Products Database
Common Name:

Nutrient,Unit,Data points,Std. Error,"13.0 PRETZELS | ABOUT = 28.0g",1Value per 100 g,
Proximates
"Energy",kcal,--,--,130,464
"Protein",g,--,--,2.00,7.14
"Total lipid (fat)",g,--,--,5.00,17.86
"Carbohydrate, by difference",g,--,--,19.00,67.86
"Fiber, total dietary",g,--,--,1.0,3.6
"Sugars, total",g,--,--,1.00,3.57
Minerals
"Calcium, Ca",mg,--,--,20,71
"Iron, Fe",mg,--,--,0.64,2.29
"Sodium, Na",mg,--,--,280,1000
Vitamins
"Vitamin C, total ascorbic acid",mg,--,--,0.0,0.0
"Vitamin A, IU",IU,--,--,0,0
Lipids
"Fatty acids, total saturated",g,--,--,0.000,0.000
"Fatty acids, total trans",g,--,--,0.000,0.000
"Cholesterol",mg,--,--,0,0
Amino Acids
Other
Ingredients
"PRETZEL INGREDIENTS: UNBLEACHED WHEAT FLOUR, CANOLA OIL, SALT, YEAST AND SODA. SEASONING INGREDIENTS: WHEY, SALT, CHEDDAR CHEESE BLEND (WHEY, CHEESE [MILK, CHEESE CULTURES, SALT, ENZYMES], NATURAL FLAVORS, SUGAR, TORULA YEAST, NATURAL FLAVOR [CALCIUM PHOSPHATE, SODIUM PHOSPHATE, LACTIC ACID AS PROCESSING AIDS]), CITRIC ACID, PAPRIKA EXTRACT (COLOR), NATURAL SMOKE FLAVOR, (MAY CONTAIN SUNFLOWER OIL AND SILICON DIOXIDE AS PROCESSING AIDS)." Date available: 06/25/2017 Date last updated by company: 06/25/2017
