Source: USDA Branded Food Products Database Release December 2017 Software v.3.8.6.4 2017-10-02
Report Run at: December 17, 2017 08:55 EST
"Nutrient data for: 45330194, FLAVORED LIQUID SMOKE, UPC: 041512092213"
Food Group:  Branded Food Products Database
Common Name:

Nutrient,Unit,Data points,Std. Error,"1 tsp = 5.0g",1Value per 100 g,
Proximates
"Energy",kcal,--,--,0,0
"Protein",g,--,--,0.00,0.00
"Total lipid (fat)",g,--,--,0.00,0.00
"Carbohydrate, by difference",g,--,--,0.00,0.00
Minerals
"Sodium, Na",mg,--,--,5,100
Vitamins
Lipids
Amino Acids
Other
Ingredients
"WATER, NATURAL SMOKE FLAVOR, SALT, CARAMEL COLOR." Date available: 10/13/2017 Date last updated by company: 10/13/2017
