Source: USDA Branded Food Products Database Release December 2017 Software v.3.8.6.4 2017-10-02
Report Run at: December 17, 2017 08:53 EST
"Nutrient data for: 45273894, FLAVOR DUETS GREEK YOGURT, UPC: 085239672013"
Food Group:  Branded Food Products Database
Common Name:

Nutrient,Unit,Data points,Std. Error,"1 CONTAINER = 100.0g",1Value per 100 g,
Proximates
"Energy",kcal,--,--,90,90
"Protein",g,--,--,8.00,8.00
"Total lipid (fat)",g,--,--,2.00,2.00
"Carbohydrate, by difference",g,--,--,11.00,11.00
"Fiber, total dietary",g,--,--,0.0,0.0
"Sugars, total",g,--,--,9.00,9.00
Minerals
"Calcium, Ca",mg,--,--,100,100
"Iron, Fe",mg,--,--,0.00,0.00
"Potassium, K",mg,--,--,120,120
"Sodium, Na",mg,--,--,30,30
Vitamins
"Vitamin C, total ascorbic acid",mg,--,--,0.0,0.0
"Vitamin A, IU",IU,--,--,0,0
Lipids
"Fatty acids, total saturated",g,--,--,1.000,1.000
"Fatty acids, total trans",g,--,--,0.000,0.000
"Cholesterol",mg,--,--,10,10
Amino Acids
Other
Ingredients
"CULTURED PASTEURIZED NONFAT GRADE A MILK, SUGAR, GRADE A CREAM, WATER, CHERRIES, CORN STARCH, NATURAL FLAVOR, NATURAL FLAVOR TYPER CREAM CHEESE ICING, LEMON JUICE CONCENTRATE, PECTIN. CONTAINS THE FOLLOWING LIVE AND ACTIVE CULTURES: LACTOBACILLUS BULGARICUS, STREPTOCOCCUS THERMOPHILUS, LACTOBACILLUS ACIDOPHILUS, BIFIDUS, LACTOBACILLUS CASEI." Date available: 07/14/2017 Date last updated by company: 07/14/2017
