Source: USDA Branded Food Products Database Release December 2017 Software v.3.8.6.4 2017-10-02
Report Run at: December 17, 2017 08:55 EST
"Nutrient data for: 45240108, FLAVORED LEMONADE JUICE DRINK FROM CONCENTRATE, UPC: 075355115228"
Food Group:  Branded Food Products Database
Common Name:

Nutrient,Unit,Data points,Std. Error,"8.0 FL OZ (240ML) | RECON. = 60.0g",1Value per 100 g,
Proximates
"Energy",kcal,--,--,90,150
"Protein",g,--,--,0.00,0.00
"Total lipid (fat)",g,--,--,0.00,0.00
"Carbohydrate, by difference",g,--,--,20.00,33.33
"Sugars, total",g,--,--,19.00,31.67
Minerals
"Calcium, Ca",mg,--,--,0,0
"Iron, Fe",mg,--,--,0.00,0.00
"Sodium, Na",mg,--,--,15,25
Vitamins
"Vitamin C, total ascorbic acid",mg,--,--,0.0,0.0
"Vitamin A, IU",IU,--,--,0,0
Lipids
Amino Acids
Other
Ingredients
"FILTERED WATER, SUGAR, LEMON JUICE CONCENTRATE, CITRIC ACID, NATURAL FLAVORS, CUCUMBER ESSENCE, VEGETABLE JUICE EXTRACT (FOR COLOR), LEMON PULP, WATERMELON JUICE, STEVIA LEAF EXTRACT." Date available: 10/04/2017 Date last updated by company: 10/04/2017
