Source: USDA Branded Food Products Database Release December 2017 Software v.3.8.6.4 2017-10-02
Report Run at: December 17, 2017 08:56 EST
"Nutrient data for: 45287809, FLAVORED POTATO CHIPS, UPC: 071104601837"
Food Group:  Branded Food Products Database
Common Name:

Nutrient,Unit,Data points,Std. Error,"18.0 CHIPS) | (ABOUT = 28.0g",1Value per 100 g,
Proximates
"Energy",kcal,--,--,150,536
"Protein",g,--,--,2.00,7.14
"Total lipid (fat)",g,--,--,9.00,32.14
"Carbohydrate, by difference",g,--,--,15.00,53.57
"Fiber, total dietary",g,--,--,1.0,3.6
"Sugars, total",g,--,--,1.00,3.57
Minerals
"Calcium, Ca",mg,--,--,18,64
"Iron, Fe",mg,--,--,0.40,1.43
"Potassium, K",mg,--,--,340,1214
"Sodium, Na",mg,--,--,260,929
Vitamins
"Vitamin D",IU,--,--,8,29
Lipids
"Fatty acids, total saturated",g,--,--,1.501,5.360
"Fatty acids, total trans",g,--,--,0.000,0.000
"Cholesterol",mg,--,--,0,0
Amino Acids
Other
Ingredients
"POTATOES, VEGETABLE OIL (CONTAINS ONE OR MORE OF THE FOLLOWING: PEANUT, CORN, SUNFLOWER AND/OR CANOLA OIL), SALT, WHEY, MALTODEXTREN, CHEESE (CHEDDAR AND BLUE [MILK, CHEESE CULTURES, ENZYMES]), MONOSODIUM GLUTAMATE, ONION POWDER, BUTTERMILK, CANOLA OIL, SOUR CREAM SOLIDS (CULTURED CREAM, NONFAT MILK), NONFAT DRY MILK, CITRIC ACID, WHEY PROTEIN CONCENTRATE, GARLIC POWDER, FOOD STARCH-MODIFIED, NATURAL AND ARTIFICIAL FLAVORS, ARTIFICIAL COLORS (INCLUDING FD&C YELLOW #6, EXTRACTS OF TURMERIC, EXTRACTS OF ANNATTO), DISODIUM PHOSPHATE, DISODIUM INOSINATE, DISODIUM GUANYLATE, LACTIC ACID." Date available: 09/22/2017 Date last updated by company: 09/22/2017
