Source: USDA Branded Food Products Database Release December 2017 Software v.3.8.6.4 2017-10-02
Report Run at: December 17, 2017 09:00 EST
"Nutrient data for: 45197649, FLAX & FIBER THINS ROLL, UPC: 073410134405"
Food Group:  Branded Food Products Database
Common Name:

Nutrient,Unit,Data points,Std. Error,"1 ROLL = 43.0g",1Value per 100 g,
Proximates
"Energy",kcal,--,--,100,233
"Protein",g,--,--,4.00,9.30
"Total lipid (fat)",g,--,--,1.00,2.33
"Carbohydrate, by difference",g,--,--,20.00,46.51
"Fiber, total dietary",g,--,--,5.0,11.6
"Sugars, total",g,--,--,1.00,2.33
Minerals
"Calcium, Ca",mg,--,--,40,93
"Iron, Fe",mg,--,--,1.26,2.92
"Sodium, Na",mg,--,--,190,442
Vitamins
"Vitamin C, total ascorbic acid",mg,--,--,0.0,0.0
"Thiamin",mg,--,--,0.000,0.000
"Riboflavin",mg,--,--,0.068,0.158
"Niacin",mg,--,--,1.396,3.247
"Vitamin A, IU",IU,--,--,0,0
Lipids
"Fatty acids, total saturated",g,--,--,0.000,0.000
"Fatty acids, total monounsaturated",g,--,--,0.000,0.000
"Fatty acids, total polyunsaturated",g,--,--,0.000,0.000
"Fatty acids, total trans",g,--,--,0.000,0.000
"Cholesterol",mg,--,--,0,0
Amino Acids
Other
Ingredients
"WHOLE WHEAT FLOUR, WATER, ENRICHED WHEAT FLOUR [FLOUR, MALTED BARLEY FLOUR, REDUCED IRON, NIACIN, THIAMIN MONONITRATE (VITAMIN B1), RIBOFLAVIN (VITAMIN B2), FOLIC ACID], CELLULOSE FIBER, YEAST, WHOLE GRAINS (WHEAT, RYE, GROUND CORN, OATS, TRITICALE, BROWN RICE, BARLEY FLAKES, MILLET), WHEAT GLUTEN, SUGAR, SALT, FLAXSEED, CULTURED WHEAT STARCH, GRAIN VINEGAR, SOYBEAN AND/OR CANOLA OIL, SOY LECITHIN, CITRIC ACID, CELLULOSE GUM, XANTHAN GUM, REB A (STEVIA LEAF SWEETENER), CULTURED DEXTROSE AND MALTODEXTRIN (A NATURAL PRESERVATIVE), SUNFLOWER LECITHIN, WHEAT STARCH." Date available: 07/14/2017 Date last updated by company: 07/14/2017
