Source: USDA Branded Food Products Database Release December 2017 Software v.3.8.6.4 2017-10-02
Report Run at: December 17, 2017 09:00 EST
"Nutrient data for: 45200547, FLAX BARS, UPC: 717887121499"
Food Group:  Branded Food Products Database
Common Name:

Nutrient,Unit,Data points,Std. Error,"1 BAR = 43.0g",1Value per 100 g,
Proximates
"Energy",kcal,--,--,180,419
"Protein",g,--,--,2.00,4.65
"Total lipid (fat)",g,--,--,8.00,18.60
"Carbohydrate, by difference",g,--,--,26.00,60.47
"Fiber, total dietary",g,--,--,2.0,4.7
"Sugars, total",g,--,--,15.00,34.88
Minerals
"Calcium, Ca",mg,--,--,20,47
"Iron, Fe",mg,--,--,0.67,1.56
"Sodium, Na",mg,--,--,35,81
Vitamins
"Vitamin C, total ascorbic acid",mg,--,--,0.0,0.0
"Vitamin A, IU",IU,--,--,0,0
Lipids
"Fatty acids, total saturated",g,--,--,3.001,6.980
"Fatty acids, total trans",g,--,--,0.000,0.000
"Cholesterol",mg,--,--,5,12
Amino Acids
Other
Ingredients
"RASPBERRY FILLING (CANE SUGAR, RASPBERRIES, CULTURED DEXTROSE, CITRIC ACID, PECTIN), BROWN SUGAR, ROLLED OATS, WHEAT FLOUR, ORGANIC WHOLE WHEAT FLOUR, PALM OIL, CANOLA OIL, ORGANIC BROWN FLAX SEEDS, ORGANIC COCONUT, ORGANIC WHOLE EGGS, SEA SALT, ORGANIC CINNAMON." Date available: 07/14/2017 Date last updated by company: 07/14/2017
