Source: USDA Branded Food Products Database Release December 2017 Software v.3.8.6.4 2017-10-02
Report Run at: December 17, 2017 09:02 EST
"Nutrient data for: 45316875, FLEISCHMANN'S, MULTIGRAIN BAKING MIX, UPC: 040100751372"
Food Group:  Branded Food Products Database
Common Name:

Nutrient,Unit,Data points,Std. Error,"0.5 cup = 68.0g",1Value per 100 g,
Proximates
"Energy",kcal,--,--,250,368
"Protein",g,--,--,7.00,10.29
"Total lipid (fat)",g,--,--,2.00,2.94
"Carbohydrate, by difference",g,--,--,51.00,75.00
"Fiber, total dietary",g,--,--,3.0,4.4
"Sugars, total",g,--,--,6.00,8.82
Minerals
"Calcium, Ca",mg,--,--,20,29
"Iron, Fe",mg,--,--,1.58,2.33
"Sodium, Na",mg,--,--,460,676
Vitamins
"Vitamin C, total ascorbic acid",mg,--,--,1.4,2.1
"Vitamin A, IU",IU,--,--,0,0
Lipids
"Fatty acids, total saturated",g,--,--,0.000,0.000
"Fatty acids, total trans",g,--,--,0.000,0.000
"Cholesterol",mg,--,--,0,0
Amino Acids
Other
Ingredients
"BREAD MIX: ENRICHED FLOUR (BLEACHED WHEAT FLOUR, MALTED BARLEY FLOUR, NIACIN, REDUCED IRON, THIAMINE MONONITRATE, RIBOFLAVIN, FOLIC ACID), WHOLE WHEAT FLOUR, SUGAR, WHOLE GRAIN BLEND (WHEAT, BROWN RICE, OATS, BARLEY, RYE), MULTIGRAIN BLEND (SOFT RED WHEAT, RYE, TRITICALE, PEARLED BARLEY), VEGETABLE OILS (CANOLA, CORN AND/OR SOYBEAN OILS), SALT. YEAST PACKET: ACTIVE DRY YEAST, SORBITAN MONOSTEARATE, ASCORBIC ACID." Date available: 06/24/2017 Date last updated by company: 06/24/2017
