Source: USDA Branded Food Products Database Release December 2017 Software v.3.8.6.4 2017-10-02
Report Run at: December 17, 2017 09:05 EST
"Nutrient data for: 45018853, FLORA ITALIAN FOODS, WHITE WINE VINEGAR, UPC: 020038003064"
Food Group:  Branded Food Products Database
Common Name:

Nutrient,Unit,Data points,Std. Error,"1 Tbsp = 15.0g",1Value per 100 g,
Proximates
"Energy",kcal,--,--,0,0
"Protein",g,--,--,0.00,0.00
"Total lipid (fat)",g,--,--,0.00,0.00
"Carbohydrate, by difference",g,--,--,0.00,0.00
Minerals
"Sodium, Na",mg,--,--,0,0
Vitamins
Lipids
"Fatty acids, total trans",g,--,--,0.000,0.000
Amino Acids
Other
Ingredients
"WHITE WINE VINEGAR REDUCED WITH WATER TO 7.1% ACIDITY." Date available: 06/25/2017 Date last updated by company: 06/25/2017
