Source: USDA Branded Food Products Database Release December 2017 Software v.3.8.6.4 2017-10-02
Report Run at: December 17, 2017 09:10 EST
"Nutrient data for: 45230881, FLOUR TORTILLAS, UPC: 077948007002"
Food Group:  Branded Food Products Database
Common Name:

Nutrient,Unit,Data points,Std. Error,"1 TORTILLA = 41.0g",1Value per 100 g,
Proximates
"Energy",kcal,--,--,120,293
"Protein",g,--,--,3.00,7.32
"Total lipid (fat)",g,--,--,3.00,7.32
"Carbohydrate, by difference",g,--,--,20.00,48.78
"Fiber, total dietary",g,--,--,2.0,4.9
"Sugars, total",g,--,--,2.00,4.88
Minerals
"Calcium, Ca",mg,--,--,60,146
"Iron, Fe",mg,--,--,0.97,2.36
"Sodium, Na",mg,--,--,340,829
Vitamins
"Vitamin C, total ascorbic acid",mg,--,--,0.0,0.0
"Vitamin A, IU",IU,--,--,0,0
Lipids
"Fatty acids, total saturated",g,--,--,1.000,2.440
"Fatty acids, total monounsaturated",g,--,--,1.000,2.440
"Fatty acids, total polyunsaturated",g,--,--,1.000,2.440
"Fatty acids, total trans",g,--,--,0.000,0.000
"Cholesterol",mg,--,--,0,0
Amino Acids
Other
Ingredients
"ENRICHED BLEACHED WHEAT FLOUR (WHEAT FLOUR, NIACIN, REDUCED IRON, THIAMINE MONONITRATE, RIBOFLAVIN, FOLIC ACID), WATER, VEGETABLE SHORTENING (INTERESTERIFIED SOYBEAN OIL, HYDROGENATED SOYBEAN OIL AND/OR PALM OIL), AND CONTAINS 2% OR LESS OF: SALT, LEAVENING (SODIUM BICARBONATE, SODIUM ALUMINUM SULFATE, CORN STARCH, MONOCALCIUM PHOSPHATE AND/OR SODIUM ACID PYROPHOSPHATE, CALCIUM SULFATE), PRESERVATIVES (CALCIUM PROPIONATE, SORBIC ACID AND/OR CITRIC ACID), DISTILLED MONOGLYCERIDES, ENZYMES, WHEAT STARCH, CALCIUM CARBONATE, ANTIOXIDANTS (TOCOPHEROLS, ASCORBIC ACID), CELLULOSE GUM, DOUGH CONDITIONERS (FUMARIC ACID, SODIUM METABISULFITE AND/OR MONO- AND DIGLYCERIDES)." Date available: 07/14/2017 Date last updated by company: 07/14/2017
