Source: USDA Branded Food Products Database Release December 2017 Software v.3.8.6.4 2017-10-02
Report Run at: December 17, 2017 09:10 EST
"Nutrient data for: 45220029, FLOUR TORTILLAS, UPC: 073731071243"
Food Group:  Branded Food Products Database
Common Name:

Nutrient,Unit,Data points,Std. Error,"1 TORTILLA = 49.0g",1Value per 100 g,
Proximates
"Energy",kcal,--,--,140,286
"Protein",g,--,--,4.00,8.16
"Total lipid (fat)",g,--,--,3.50,7.14
"Carbohydrate, by difference",g,--,--,24.00,48.98
"Fiber, total dietary",g,--,--,1.0,2.0
"Sugars, total",g,--,--,1.00,2.04
Minerals
"Calcium, Ca",mg,--,--,80,163
"Iron, Fe",mg,--,--,1.62,3.30
"Sodium, Na",mg,--,--,420,857
Vitamins
"Vitamin C, total ascorbic acid",mg,--,--,0.0,0.0
"Vitamin A, IU",IU,--,--,0,0
Lipids
"Fatty acids, total saturated",g,--,--,1.499,3.060
"Fatty acids, total monounsaturated",g,--,--,1.000,2.040
"Fatty acids, total polyunsaturated",g,--,--,0.000,0.000
"Fatty acids, total trans",g,--,--,0.000,0.000
"Cholesterol",mg,--,--,0,0
Amino Acids
Other
Ingredients
"ENRICHED BLEACHED WHEAT FLOUR (WHEAT FLOUR, NIACIN, REDUCED IRON, THIAMINE MONONITRATE, RIBOFLAVIN, FOLIC ACID), WATER, VEGETABLE SHORTENING (INTERESTERIFIED SOYBEAN OIL, HYDROGENATED SOYBEAN OIL AND/OR PALM OIL), CONTAINS 2% OR LESS OF: SALT, SUGAR, LEAVENING (SODIUM BICARBONATE, SODIUM ALUMINUM SULFATE, CORN STARCH, MONOCALCIUM PHOSPHATE AND/OR SODIUM ACID PYROPHOSPHATE, CALCIUM SULFATE), DISTILLED MONOGLYCERIDES, ENZYMES, WHEAT STARCH, CALCIUM CARBONATE, ANTIOXIDANTS (TOCOPHEROLS, ASCORBIC ACID, CITRIC ACID), CELLULOSE GUM, GUAR GUM, DOUGH CONDITIONERS (FUMARIC ACID, SODIUM METABISULFITE AND/OR MONO- AND DIGLYCERIDES), CALCIUM PROPIONATE AND SORBIC ACID (TO PRESERVE FRESHNESS)." Date available: 07/14/2017 Date last updated by company: 07/14/2017
