Source: USDA Branded Food Products Database Release December 2017 Software v.3.8.6.4 2017-10-02
Report Run at: December 17, 2017 09:10 EST
"Nutrient data for: 45232467, FLOUR TORTILLAS, UPC: 00146739"
Food Group:  Branded Food Products Database
Common Name:

Nutrient,Unit,Data points,Std. Error,"1 TORTILLA, PER CONTAINER = 48.0g",1Value per 100 g,
Proximates
"Energy",kcal,--,--,150,312
"Protein",g,--,--,4.00,8.33
"Total lipid (fat)",g,--,--,3.50,7.29
"Carbohydrate, by difference",g,--,--,24.00,50.00
"Fiber, total dietary",g,--,--,1.0,2.1
"Sugars, total",g,--,--,0.00,0.00
Minerals
"Calcium, Ca",mg,--,--,0,0
"Iron, Fe",mg,--,--,1.65,3.44
"Sodium, Na",mg,--,--,150,312
Vitamins
"Vitamin C, total ascorbic acid",mg,--,--,0.0,0.0
"Vitamin A, IU",IU,--,--,0,0
Lipids
"Fatty acids, total saturated",g,--,--,0.000,0.000
"Fatty acids, total trans",g,--,--,0.000,0.000
"Cholesterol",mg,--,--,0,0
Amino Acids
Other
Ingredients
"UNBLEACHED ENRICHED FLOUR (WHEAT FLOUR, NIACIN, REDUCED IRON, THIAMINE MONONITRATE, RIBOFLAVIN, FOLIC ACID, MALTED BARLEY FLOUR), WATER, HIGH OLEIC SUNFLOWER OIL, CONTAINS 2% OR LESS OF THE FOLLOWING: FOR ADDED FRESHNESS (CULTURED WHEAT FLOUR WITH VINEGAR ADDED), SALT, SOY LECITHIN (AN EMULSIFIER), LEAVENING (SODIUM ACID PYROPHOSPHATE, SODIUM BICARBONATE, CORN STARCH, MONOCALCIUM PHOSPHATE), CITRIC ACID." Date available: 06/25/2017 Date last updated by company: 06/25/2017
