Source: USDA Branded Food Products Database Release December 2017 Software v.3.8.6.4 2017-10-02
Report Run at: December 17, 2017 09:12 EST
"Nutrient data for: 45077541, FLOWERS IN SYRUP, UPC: 9338520006006"
Food Group:  Branded Food Products Database
Common Name:

Nutrient,Unit,Data points,Std. Error,"1 FLOWER + 1 TBSP SYRUP = 22.0g",1Value per 100 g,
Proximates
"Energy",kcal,--,--,45,205
"Protein",g,--,--,0.00,0.00
"Total lipid (fat)",g,--,--,0.00,0.00
"Carbohydrate, by difference",g,--,--,11.00,50.00
"Sugars, total",g,--,--,10.00,45.45
Minerals
"Sodium, Na",mg,--,--,0,0
Vitamins
Lipids
Amino Acids
Other
Ingredients
"WILD HIBISCUS FLOWERS HIBISCUS SABDARIFFA (38%), SUGAR, WATER," Date available: 07/14/2017 Date last updated by company: 07/14/2017
