Source: USDA Branded Food Products Database Release December 2017 Software v.3.8.6.4 2017-10-02
Report Run at: December 17, 2017 09:31 EST
"Nutrient data for: 45010926, FOOD CLUB, NO BEANS CHILI, UPC: 036800099029"
Food Group:  Branded Food Products Database
Common Name:

Nutrient,Unit,Data points,Std. Error,"1 cup = 236.0g",1Value per 100 g,
Proximates
"Energy",kcal,--,--,281,119
"Protein",g,--,--,16.00,6.78
"Total lipid (fat)",g,--,--,16.00,6.78
"Carbohydrate, by difference",g,--,--,16.99,7.20
"Fiber, total dietary",g,--,--,3.1,1.3
"Sugars, total",g,--,--,3.00,1.27
Minerals
"Calcium, Ca",mg,--,--,40,17
"Iron, Fe",mg,--,--,2.86,1.21
"Sodium, Na",mg,--,--,1230,521
Vitamins
"Vitamin C, total ascorbic acid",mg,--,--,0.0,0.0
"Vitamin A, IU",IU,--,--,529,224
Lipids
"Fatty acids, total saturated",g,--,--,7.009,2.970
"Fatty acids, total trans",g,--,--,0.991,0.420
"Cholesterol",mg,--,--,50,21
Amino Acids
Other
Ingredients
"WATER, BEEF, MODIFIED CORNSTARCH, TOMATOES (WATER, TOMATO PASTE), CHILI POWDER (CHILI PEPPERS, FLAVORING), TEXTURED VEGETABLE PROTEIN (SOY FLOUR, CARAMEL COLOR), OATMEAL, SALT, SUGAR, HYDROLYZED CORN, SOY, AND WHEAT PROTEIN, FLAVORING, AUTOLYZED YEAST, SPICES, MONOSODIUM GLUTAMATE, SOY LECITHIN." Date available: 07/14/2017 Date last updated by company: 07/14/2017
