Source: USDA Branded Food Products Database Release December 2017 Software v.3.8.6.4 2017-10-02
Report Run at: December 17, 2017 09:28 EST
"Nutrient data for: 45010527, FOOD CLUB, ITALIAN STYLE DICED TOMATOTOES, UPC: 036800420564"
Food Group:  Branded Food Products Database
Common Name:

Nutrient,Unit,Data points,Std. Error,"0.5 cup = 123.0g",1Value per 100 g,
Proximates
"Energy",kcal,--,--,41,33
"Protein",g,--,--,1.00,0.81
"Total lipid (fat)",g,--,--,0.50,0.41
"Carbohydrate, by difference",g,--,--,7.00,5.69
"Fiber, total dietary",g,--,--,1.0,0.8
"Sugars, total",g,--,--,5.01,4.07
Minerals
"Calcium, Ca",mg,--,--,41,33
"Iron, Fe",mg,--,--,0.76,0.62
"Sodium, Na",mg,--,--,271,220
Vitamins
"Vitamin C, total ascorbic acid",mg,--,--,9.5,7.7
"Vitamin A, IU",IU,--,--,792,644
Lipids
"Fatty acids, total saturated",g,--,--,0.000,0.000
"Fatty acids, total trans",g,--,--,0.000,0.000
"Cholesterol",mg,--,--,0,0
Amino Acids
Other
Ingredients
"TOMATOES, TOMATO JUICE, SOYBEAN OIL, SUGAR, SALT, DRIED ONION, DRIED GARLIC, SPICES, CALCIUM CHLORIDE, CITRIC ACID, OLIVE OIL, NATURAL FLAVORS" Date available: 06/24/2017 Date last updated by company: 06/24/2017
