Source: USDA Branded Food Products Database Release December 2017 Software v.3.8.6.4 2017-10-02
Report Run at: December 17, 2017 09:19 EST
"Nutrient data for: 45172709, FOOD CLUB, CHEESECAKE WITH GRAHAM CRUST, UPC: 036800017931"
Food Group:  Branded Food Products Database
Common Name:

Nutrient,Unit,Data points,Std. Error,"1 SLICE = 113.0g",1Value per 100 g,
Proximates
"Energy",kcal,--,--,440,389
"Protein",g,--,--,4.99,4.42
"Total lipid (fat)",g,--,--,27.00,23.89
"Carbohydrate, by difference",g,--,--,45.00,39.82
"Fiber, total dietary",g,--,--,1.0,0.9
"Sugars, total",g,--,--,27.00,23.89
Minerals
"Calcium, Ca",mg,--,--,60,53
"Iron, Fe",mg,--,--,0.79,0.70
"Sodium, Na",mg,--,--,320,283
Vitamins
"Vitamin C, total ascorbic acid",mg,--,--,0.0,0.0
"Vitamin A, IU",IU,--,--,829,734
Lipids
"Fatty acids, total saturated",g,--,--,12.001,10.620
"Fatty acids, total trans",g,--,--,0.000,0.000
"Cholesterol",mg,--,--,60,53
Amino Acids
Other
Ingredients
"CREAM CHEESE [CULTURED CREAM AND MILK, SALT, XANTHAN GUM, CAROB BEAN AND GUAR GUMS], SUGAR, WHOLE WHEAT FLOUR, MARGARINE [PALM OIL, WATER, SOYBEAN OIL, SALT, NATURAL FLAVOR (MILK), SOY LECITHIN. BETA CAROTENE (COLOR), VITAMIN A PALMITATE], MILK, CANOLA AND/OR PALM OIL, ENRICHED WHEAT FLOUR [WHEAT FLOUR, NIACIN, REDUCED IRON, THIAMIN MONONITRATE, RIBOFLAVIN, FOLIC ACID], SOUR CREAM [CULTURED MILK AND CREAM, ENZYMES], SOYBEAN OIL, GLUCOSE, BROWN SUGAR, EGGS (DRIED), NATURAL FLAVOR, SALT, XANTHAN GUM, LOCUST BEAN GUM, GUAR GUM, INVERT SUGAR, MOLASSES AND CARAMEL COLOR, BAKING SODA, CINNAMON, APOCAROTENAL (COLOR)." Date available: 07/14/2017 Date last updated by company: 07/14/2017
