Source: USDA Branded Food Products Database Release December 2017 Software v.3.8.6.4 2017-10-02
Report Run at: December 17, 2017 09:32 EST
"Nutrient data for: 45022897, FOOD CLUB, PASTA & SAUCE, FETTUCCINI IN A BUTTER SAUCE, UPC: 036800183094"
Food Group:  Branded Food Products Database
Common Name:

Nutrient,Unit,Data points,Std. Error,"0.5 PACKAGE, ABOUT 1 CUP PREPARED = 63.0g",1Value per 100 g,
Proximates
"Energy",kcal,--,--,250,397
"Protein",g,--,--,8.00,12.70
"Total lipid (fat)",g,--,--,4.00,6.35
"Carbohydrate, by difference",g,--,--,46.00,73.02
"Fiber, total dietary",g,--,--,1.0,1.6
"Sugars, total",g,--,--,3.00,4.76
Minerals
"Calcium, Ca",mg,--,--,159,252
"Iron, Fe",mg,--,--,7.14,11.34
"Sodium, Na",mg,--,--,770,1222
Vitamins
"Vitamin C, total ascorbic acid",mg,--,--,1.2,1.9
"Thiamin",mg,--,--,1.890,3.000
"Riboflavin",mg,--,--,0.255,0.405
"Niacin",mg,--,--,15.874,25.197
"Vitamin A, IU",IU,--,--,222,352
Lipids
"Fatty acids, total saturated",g,--,--,1.997,3.170
"Fatty acids, total trans",g,--,--,0.000,0.000
"Cholesterol",mg,--,--,10,16
Amino Acids
Other
Ingredients
"ENRICHED MACARONI PRODUCT (WHEAT FLOUR, NIACIN, FERROUS SULFATE, THIAMIN MONONITRATE, RIBOFLAVIN, FOLIC ACID), BUTTER (SWEET CREAM, SALT), MALTODEXTRIN, SALT, CONTAINS LESS THAN 2% OF THE FOLLOWING: CORN SYRUP SOLIDS. NONFAT MILK SOLIDS, CORNSTARCH, SUGAR, HYDROLYZED SOY PROTEIN, ONION POWDER, PARSLEY*, SWEET WHEY (A MILK DERIVATIVE), NATURAL FLAVORS" Date available: 08/11/2017 Date last updated by company: 08/11/2017
