Source: USDA Branded Food Products Database Release December 2017 Software v.3.8.6.4 2017-10-02
Report Run at: December 17, 2017 09:30 EST
"Nutrient data for: 45011093, FOOD CLUB, MANDARIN ORANGES, UPC: 036800433144"
Food Group:  Branded Food Products Database
Common Name:

Nutrient,Unit,Data points,Std. Error,"0.5 cup = 150.0g",1Value per 100 g,
Proximates
"Energy",kcal,--,--,90,60
"Protein",g,--,--,1.00,0.67
"Total lipid (fat)",g,--,--,0.00,0.00
"Carbohydrate, by difference",g,--,--,21.00,14.00
"Fiber, total dietary",g,--,--,1.1,0.7
"Sugars, total",g,--,--,20.00,13.33
Minerals
"Calcium, Ca",mg,--,--,0,0
"Iron, Fe",mg,--,--,0.33,0.22
"Sodium, Na",mg,--,--,15,10
Vitamins
"Vitamin C, total ascorbic acid",mg,--,--,16.8,11.2
"Vitamin A, IU",IU,--,--,280,187
Lipids
"Fatty acids, total saturated",g,--,--,0.000,0.000
"Fatty acids, total trans",g,--,--,0.000,0.000
"Cholesterol",mg,--,--,0,0
Amino Acids
Other
Ingredients
"MANDARIN ORANGE SEGMENTS, WATER, SUGAR." Date available: 07/14/2017 Date last updated by company: 07/14/2017
