Source: USDA Branded Food Products Database Release December 2017 Software v.3.8.6.4 2017-10-02
Report Run at: December 17, 2017 09:32 EST
"Nutrient data for: 45010729, FOOD CLUB, PASTA WITH A SEASONED TACO SAUCE MIX & CHEESE TOPPING MIX, UPC: 036800100657"
Food Group:  Branded Food Products Database
Common Name:

Nutrient,Unit,Data points,Std. Error,"1 CUP PREPARED | MAKES = 40.0g",1Value per 100 g,
Proximates
"Energy",kcal,--,--,140,350
"Protein",g,--,--,4.00,10.00
"Total lipid (fat)",g,--,--,1.50,3.75
"Carbohydrate, by difference",g,--,--,30.00,75.00
"Fiber, total dietary",g,--,--,2.0,5.0
"Sugars, total",g,--,--,2.00,5.00
Minerals
"Calcium, Ca",mg,--,--,40,100
"Iron, Fe",mg,--,--,3.78,9.45
"Sodium, Na",mg,--,--,840,2100
Vitamins
"Vitamin C, total ascorbic acid",mg,--,--,16.8,42.0
"Vitamin A, IU",IU,--,--,1750,4375
Lipids
"Fatty acids, total saturated",g,--,--,0.500,1.250
"Fatty acids, total trans",g,--,--,0.000,0.000
"Cholesterol",mg,--,--,5,12
Amino Acids
Other
Ingredients
"ENRICHED MACARONI PRODUCT (SEMOLINA FLOUR WITH NIACIN, IRON [FERROUS SULFATE], THIAMINE MONONITRATE, RIBOFLAVIN, FOLIC ACID), CORN STARCH, MALTODEXTRIN, SALT, FOOD-STARCH MODIFIED, CHILI SEASONING (DEHYDRATED CHILI PEPPER, SPICE, SALT, DEHYDRATED GARLIC), DEHYDRATED ONION, DEHYDRATED TOMATO, WHEY, YELLOW CORN FLOUR (WITH TRACES OF LIME), SUGAR, ENZYME-MODIFIED CHEDDAR CHEESE AND BUTTER (CHEDDAR CHEESE [MILK, CHEESE CULTURE, SALT, ENZYMES] BUTTER [CREAM, SALT] CHEESE CULTURE, ENZYMES), CHEESE CHEDDAR (MILK, CHEESE CULTURE, SALT, ENZYMES), SPICE, MODIFIED TAPIOCA STARCH, COLOR (PAPRIKA, YELLOW 5, YELLOW 6, OLEORESIN PAPRIKA), BUTTERMILK, MONOSODIUM GLUTAMATE, DEHYDRATED GARLIC, DEHYDRATED RED & GREEN BELL PEPPERS, LACTIC ACID, SODIUM PHOSPHATE, BLUE CHEESE (CULTURED MILK, SALT, ENZYMES), CITRIC ACID, REDUCED LACTOSE WHEY, DISODIUM PHOSPHATE, NATURAL AND ARTIFICIAL FLAVOR" Date available: 06/24/2017 Date last updated by company: 06/24/2017
