Source: USDA Branded Food Products Database Release December 2017 Software v.3.8.6.4 2017-10-02
Report Run at: December 17, 2017 10:22 EST
"Nutrient data for: 45021934, FOOD LION, MUSTARD, SWEET & HOT, UPC: 035826074676"
Food Group:  Branded Food Products Database
Common Name:

Nutrient,Unit,Data points,Std. Error,"1 tsp = 5.0g",1Value per 100 g,
Proximates
"Energy",kcal,--,--,10,200
"Protein",g,--,--,0.00,0.00
"Total lipid (fat)",g,--,--,0.00,0.00
"Carbohydrate, by difference",g,--,--,1.00,20.00
"Sugars, total",g,--,--,1.00,20.00
Minerals
"Sodium, Na",mg,--,--,50,1000
Vitamins
Lipids
"Fatty acids, total trans",g,--,--,0.000,0.000
Amino Acids
Other
Ingredients
"WATER, SUGAR, VINEGAR, MUSTARD SEED, SALT, DEHYDRATED VEGETABLES, NATURAL FLAVOR, PAPRIKA, TURMERIC." Date available: 07/14/2017 Date last updated by company: 07/14/2017
