Source: USDA Branded Food Products Database Release December 2017 Software v.3.8.6.4 2017-10-02
Report Run at: December 17, 2017 09:22 EST
"Nutrient data for: 45010531, FOOD CLUB, DICED GREEN CHILES, UPC: 036800161627"
Food Group:  Branded Food Products Database
Common Name:

Nutrient,Unit,Data points,Std. Error,"2.0 Tbsp = 30.0g",1Value per 100 g,
Proximates
"Energy",kcal,--,--,5,17
"Protein",g,--,--,0.00,0.00
"Total lipid (fat)",g,--,--,0.00,0.00
"Carbohydrate, by difference",g,--,--,1.00,3.33
"Fiber, total dietary",g,--,--,0.0,0.0
"Sugars, total",g,--,--,0.00,0.00
Minerals
"Calcium, Ca",mg,--,--,0,0
"Iron, Fe",mg,--,--,1.56,5.20
"Sodium, Na",mg,--,--,95,317
Vitamins
"Vitamin C, total ascorbic acid",mg,--,--,20.8,69.3
"Vitamin A, IU",IU,--,--,434,1445
Lipids
"Fatty acids, total saturated",g,--,--,0.000,0.000
"Fatty acids, total trans",g,--,--,0.000,0.000
"Cholesterol",mg,--,--,0,0
Amino Acids
Other
Ingredients
"GREEN CHILE PEPPERS, WATER, CONTAINS LESS THAN 2% OF CALCIUM CHLORIDE, CITRIC ACID AND SALT" Date available: 06/24/2017 Date last updated by company: 06/24/2017
