Source: USDA Branded Food Products Database Release December 2017 Software v.3.8.6.4 2017-10-02
Report Run at: December 17, 2017 10:20 EST
"Nutrient data for: 45163484, FOOD LION, MICROWAVE POPCORN, BUTTER, UPC: 035826097699"
Food Group:  Branded Food Products Database
Common Name:

Nutrient,Unit,Data points,Std. Error,"2.0 Tbsp = 35.0g",1Value per 100 g,
Proximates
"Energy",kcal,--,--,160,457
"Protein",g,--,--,2.00,5.71
"Total lipid (fat)",g,--,--,10.00,28.57
"Carbohydrate, by difference",g,--,--,18.00,51.43
"Fiber, total dietary",g,--,--,3.0,8.6
"Sugars, total",g,--,--,0.00,0.00
Minerals
"Calcium, Ca",mg,--,--,0,0
"Iron, Fe",mg,--,--,1.03,2.94
"Sodium, Na",mg,--,--,270,771
Vitamins
"Vitamin C, total ascorbic acid",mg,--,--,0.0,0.0
"Vitamin A, IU",IU,--,--,0,0
Lipids
"Fatty acids, total saturated",g,--,--,5.002,14.290
"Fatty acids, total monounsaturated",g,--,--,3.500,10.000
"Fatty acids, total polyunsaturated",g,--,--,1.502,4.290
"Fatty acids, total trans",g,--,--,0.000,0.000
"Cholesterol",mg,--,--,0,0
Amino Acids
Other
Ingredients
"POPPING CORN, PALM OIL, SALT, LESS THAN 2% OF: NATURAL FLAVOR, BUTTER, COLOR ADDED, TBHQ AND CITRIC ACID (FOR FRESHNESS)." Date available: 07/14/2017 Date last updated by company: 07/14/2017
