Source: USDA Branded Food Products Database Release December 2017 Software v.3.8.6.4 2017-10-02
Report Run at: December 17, 2017 10:44 EST
"Nutrient data for: 45021936, FOOD LION, SWEET JALAPENO RELISH, UPC: 035826082169"
Food Group:  Branded Food Products Database
Common Name:

Nutrient,Unit,Data points,Std. Error,"1 Tbsp = 15.0g",1Value per 100 g,
Proximates
"Energy",kcal,--,--,20,133
"Protein",g,--,--,0.00,0.00
"Total lipid (fat)",g,--,--,0.00,0.00
"Carbohydrate, by difference",g,--,--,5.00,33.33
"Sugars, total",g,--,--,4.00,26.67
Minerals
"Sodium, Na",mg,--,--,85,567
Vitamins
Lipids
Amino Acids
Other
Ingredients
"FRESH JALAPENOS, HIGH FRUCTOSE CORN SYRUP, VINEGAR, SALT, WATER, SPICES, XANTHAN GUM, LACTIC ACID, CALCIUM CHLORIDE, SODIUM BENZOATE AND POTASSIUM SORBATE (PRESERVATIVES), DEHYDRATED RED BELL PEPPERS, NATURAL FLAVORS, POLYSORBATE 80, YELLOW 5, BLUE 1." Date available: 07/14/2017 Date last updated by company: 07/14/2017
