Source: USDA Branded Food Products Database Release December 2017 Software v.3.8.6.4 2017-10-02
Report Run at: December 17, 2017 10:13 EST
"Nutrient data for: 45032889, FOOD LION, HOMESTYLE CHICKEN GRAVY, UPC: 035826082633"
Food Group:  Branded Food Products Database
Common Name:

Nutrient,Unit,Data points,Std. Error,"0.25 cup = 60.0g",1Value per 100 g,
Proximates
"Energy",kcal,--,--,15,25
"Protein",g,--,--,1.00,1.67
"Total lipid (fat)",g,--,--,0.50,0.83
"Carbohydrate, by difference",g,--,--,7.00,11.67
"Fiber, total dietary",g,--,--,0.0,0.0
"Sugars, total",g,--,--,1.00,1.67
Minerals
"Calcium, Ca",mg,--,--,0,0
"Iron, Fe",mg,--,--,0.00,0.00
"Sodium, Na",mg,--,--,250,417
Vitamins
"Vitamin C, total ascorbic acid",mg,--,--,0.0,0.0
"Vitamin A, IU",IU,--,--,0,0
Lipids
"Fatty acids, total saturated",g,--,--,0.000,0.000
"Fatty acids, total trans",g,--,--,0.000,0.000
"Cholesterol",mg,--,--,0,0
Amino Acids
Other
Ingredients
"CHICKEN STOCK (FILTERED WATER, CONCENTRATED CHICKEN STOCK, CHICKEN BROTH CONCENTRATE [CHICKEN BROTH, SALT, FLAVOURING, CARROTS, CELERY, ONION, SUGAR, YEAST EXTRACT, MODIFIED POTATO STARCH, DISODIUM INOSINATE, DISODIUM GUANYLATE]), MODIFIED CORN STARCH, WHEAT FLOUR (WHEAT FLOUR, NIACIN, FERROUS SULFATE, THIAMIN MONONITRATE, RIBOFLAVIN, FOLIC ACID), CHICKEN FAT, SALT, SUGAR, DRY WHOLE MILK, ONION POWDER, DISODIUM INOSINATE, DISODIUM GUANYLATE, BLACK PEPPER, CARAMEL COLOR, SPICE, PAPRIKA OLEORESIN." Date available: 07/14/2017 Date last updated by company: 07/14/2017
