Source: USDA Branded Food Products Database Release December 2017 Software v.3.8.6.4 2017-10-02
Report Run at: December 17, 2017 09:54 EST
"Nutrient data for: 45023367, FOOD LION, CHICKEN GRAVY MIX, UPC: 035826078506"
Food Group:  Branded Food Products Database
Common Name:

Nutrient,Unit,Data points,Std. Error,"0.25 CUP) | (MAKES = 6.0g",1Value per 100 g,
Proximates
"Energy",kcal,--,--,20,333
"Protein",g,--,--,0.00,0.00
"Total lipid (fat)",g,--,--,0.50,8.33
"Carbohydrate, by difference",g,--,--,4.00,66.67
"Fiber, total dietary",g,--,--,0.0,0.0
"Sugars, total",g,--,--,1.00,16.67
Minerals
"Calcium, Ca",mg,--,--,0,0
"Iron, Fe",mg,--,--,0.00,0.00
"Sodium, Na",mg,--,--,340,5667
Vitamins
"Vitamin C, total ascorbic acid",mg,--,--,0.0,0.0
"Vitamin A, IU",IU,--,--,0,0
Lipids
"Fatty acids, total saturated",g,--,--,0.000,0.000
"Fatty acids, total trans",g,--,--,0.000,0.000
"Cholesterol",mg,--,--,0,0
Amino Acids
Other
Ingredients
"ENRICHED WHEAT FLOUR (FLOUR, NIACIN, IRON, THIAMIN MONONITRATE, RIBOFLAVIN, FOLIC ACID, WHEAT STARCH, DEXTROSE, SALT, WHEY (MILK), CHICKEN FAT, CHICKEN, SILICON DIOXIDE, ONION, HYDROLYZED CORN GLUTEN, YEAST EXTRACT, MALTODEXTRIN, CHICKEN BROTH, MODIFIED CORNSTARCH, PAPRIKA, XANTHAN GUM, DISODIUM INOSINATE AND DISODIUM GUANYLATE SPICE, CHICKEN SKIN, NATURAL FLAVOR, TURMERIC, SOY SAUCE (SOYBEAN, WHEAT, SALT), SUGAR." Date available: 07/14/2017 Date last updated by company: 07/14/2017
