Source: USDA Branded Food Products Database Release December 2017 Software v.3.8.6.4 2017-10-02
Report Run at: December 17, 2017 09:37 EST
"Nutrient data for: 45244778, FOOD CLUB, SKILLET CLASSICS, LASAGNA, PASTA AND TOMATO SAUCE MIX, UPC: 036800444690"
Food Group:  Branded Food Products Database
Common Name:

Nutrient,Unit,Data points,Std. Error,"1 CUP PREPARED) | (MAKES ABOUT = 34.0g",1Value per 100 g,
Proximates
Minerals
Vitamins
Lipids
Amino Acids
Other
Ingredients
"ENRICHED MACARONI PRODUCT (SEMOLINA WHEAT FLOUR, NIACIN, IRON [FERROUS SULFATE], THIAMINE MONONITRATE, RIBOFLAVIN, FOLIC ACID), THIAMINE MONONITRATE, RIBOFLAVIN, FOLIC ACID), DEHYDRATED TOMATO, SUGAR, SALT, MODIFIED CORN STARCH, CORN STARCH, CONTAINS 2% OR LESS OF: MONOSODIUM GLUTAMATE, DEHYDRATED GARLIC, SPICE, WHEY, ENZYME-MODIFIED CHEDDAR CHEESE AND BUTTER (CHEDDAR CHEESE [MILK, CHEESE CULTURE, SALT, ENZYMES], BUTTER [CREAM, SALT], CHEESE CULTURE, ENZYMES), DEHYDRATED ONION, BUTTERMILK, CITRIC ACID COLOR (YELLOW 5 LAKE, YELLOW 6 LAKE, YELLOW 5, YELLOW 6, RED 40 LAKE), SODIUM PHOSPHATE, LACTIC ACID." Date available: 09/23/2016 Date last updated by company: 09/23/2016
