Source: USDA Branded Food Products Database Release December 2017 Software v.3.8.6.4 2017-10-02
Report Run at: December 17, 2017 10:07 EST
"Nutrient data for: 45193997, FOOD LION, FLOUR TORTILLAS, UPC: 035826098559"
Food Group:  Branded Food Products Database
Common Name:

Nutrient,Unit,Data points,Std. Error,"1 TORTILLA = 57.0g",1Value per 100 g,
Proximates
"Energy",kcal,--,--,180,316
"Protein",g,--,--,5.00,8.77
"Total lipid (fat)",g,--,--,5.00,8.77
"Carbohydrate, by difference",g,--,--,28.00,49.12
"Fiber, total dietary",g,--,--,2.0,3.5
"Sugars, total",g,--,--,0.00,0.00
Minerals
"Calcium, Ca",mg,--,--,20,35
"Iron, Fe",mg,--,--,0.70,1.22
"Potassium, K",mg,--,--,120,211
"Sodium, Na",mg,--,--,310,544
Vitamins
"Vitamin C, total ascorbic acid",mg,--,--,0.0,0.0
"Vitamin A, IU",IU,--,--,0,0
Lipids
"Fatty acids, total saturated",g,--,--,2.001,3.510
"Fatty acids, total monounsaturated",g,--,--,0.998,1.750
"Fatty acids, total polyunsaturated",g,--,--,2.001,3.510
"Fatty acids, total trans",g,--,--,0.000,0.000
"Cholesterol",mg,--,--,0,0
Amino Acids
Other
Ingredients
"ENRICHED FLOUR (BLEACHED WHEAT FLOUR, NIACIN, REDUCED IRON, THIAMINE MONONITRATE, RIBOFLAVIN, FOLIC ACID), WATER, SHORTENING (SOYBEAN OIL AND HYDROGENATED SOYBEAN OIL), CONTAINS 2% OR LESS OF LEAVENING (SODIUM BICARBONATE, SODIUM ALUMINUM SULFATE, SODIUM ALUMINUM PHOSPHATE), DOUGH CONDITIONERS (MONO-AND DIGLYCERIDES, CALCIUM SULFATE, ENZYMES, L-CYSTEINE MONOHYDROCHLORIDE), VITAL WHEAT GLUTEN, SODIUM PROPIONATE (PRESERVATIVE), FUMARIC ACID, SALT, POTASSIUM SORBATE (PRESERVATIVE), CORNSTARCH, SOY FLOUR, CELLULOSE GUM, WHEAT STARCH, CANOLA OIL, XANTHAN GUM, MICROCRYSTALLINE CELLULOSE." Date available: 07/14/2017 Date last updated by company: 07/14/2017
