Source: USDA Branded Food Products Database Release December 2017 Software v.3.8.6.4 2017-10-02
Report Run at: December 17, 2017 09:41 EST
"Nutrient data for: 45011096, FOOD CLUB, UNPEELED APRICOT HALVES IN HEAVY SYRUP, UPC: 036800159945"
Food Group:  Branded Food Products Database
Common Name:

Nutrient,Unit,Data points,Std. Error,"0.5 cup = 128.0g",1Value per 100 g,
Proximates
"Energy",kcal,--,--,120,94
"Protein",g,--,--,1.00,0.78
"Total lipid (fat)",g,--,--,0.00,0.00
"Carbohydrate, by difference",g,--,--,28.01,21.88
"Fiber, total dietary",g,--,--,1.0,0.8
"Sugars, total",g,--,--,21.00,16.41
Minerals
"Calcium, Ca",mg,--,--,20,16
"Iron, Fe",mg,--,--,0.00,0.00
"Potassium, K",mg,--,--,150,117
"Sodium, Na",mg,--,--,20,16
Vitamins
"Vitamin C, total ascorbic acid",mg,--,--,1.3,1.0
"Vitamin A, IU",IU,--,--,1914,1495
Lipids
"Fatty acids, total saturated",g,--,--,0.000,0.000
"Fatty acids, total trans",g,--,--,0.000,0.000
"Cholesterol",mg,--,--,0,0
Amino Acids
Other
Ingredients
"APRICOTS, WATER, CORN SYRUP, SUGAR." Date available: 07/14/2017 Date last updated by company: 07/14/2017
