Source: USDA Branded Food Products Database Release December 2017 Software v.3.8.6.4 2017-10-02
Report Run at: December 17, 2017 10:05 EST
"Nutrient data for: 45172678, FOOD LION, EVERYTHING BAGELS, UPC: 035826096586"
Food Group:  Branded Food Products Database
Common Name:

Nutrient,Unit,Data points,Std. Error,"1 BAGEL = 113.0g",1Value per 100 g,
Proximates
"Energy",kcal,--,--,330,292
"Protein",g,--,--,10.99,9.73
"Total lipid (fat)",g,--,--,4.99,4.42
"Carbohydrate, by difference",g,--,--,62.00,54.87
"Fiber, total dietary",g,--,--,3.1,2.7
"Sugars, total",g,--,--,6.00,5.31
Minerals
"Calcium, Ca",mg,--,--,99,88
"Iron, Fe",mg,--,--,4.38,3.88
"Sodium, Na",mg,--,--,730,646
Vitamins
"Vitamin C, total ascorbic acid",mg,--,--,1.1,1.0
"Vitamin A, IU",IU,--,--,0,0
Lipids
"Fatty acids, total saturated",g,--,--,0.000,0.000
"Fatty acids, total trans",g,--,--,0.000,0.000
"Cholesterol",mg,--,--,0,0
Amino Acids
Other
Ingredients
"ENRICHED FLOUR (WHEAT FLOUR, NIACIN, REDUCED IRON, THIAMINE MONONITRATE, RIBOFLAVIN, ASCORBIC ACID, FOLIC ACID, ENZYME), WATER, SESAME SEEDS, SUGAR, SALT, DEHYDRATED ONION, WHEAT GLUTEN, SOYBEAN AND/OR CANOLA OIL, MALT EXTRACT, GARLIC, YEAST, MALTED BARLEY FLOUR, PRESERVATIVES, CORN SYRUP SOLIDS, MONO AND DI-GLYCERIDES." Date available: 07/14/2017 Date last updated by company: 07/14/2017
