Source: USDA Branded Food Products Database Release December 2017 Software v.3.8.6.4 2017-10-02
Report Run at: December 17, 2017 09:25 EST
"Nutrient data for: 45016632, FOOD CLUB, FUDGE FACTORY, FUDGE STRIPED SHORTBREAD COOKIES, UPC: 036800102507"
Food Group:  Branded Food Products Database
Common Name:

Nutrient,Unit,Data points,Std. Error,"3.0 COOKIES = 31.0g",1Value per 100 g,
Proximates
"Energy",kcal,--,--,150,484
"Protein",g,--,--,1.00,3.23
"Total lipid (fat)",g,--,--,7.00,22.58
"Carbohydrate, by difference",g,--,--,21.00,67.74
"Fiber, total dietary",g,--,--,0.0,0.0
"Sugars, total",g,--,--,9.00,29.03
Minerals
"Calcium, Ca",mg,--,--,0,0
"Iron, Fe",mg,--,--,1.16,3.75
"Sodium, Na",mg,--,--,110,355
Vitamins
"Vitamin C, total ascorbic acid",mg,--,--,0.0,0.0
"Vitamin A, IU",IU,--,--,0,0
Lipids
"Fatty acids, total saturated",g,--,--,5.000,16.130
"Fatty acids, total monounsaturated",g,--,--,1.500,4.840
"Fatty acids, total polyunsaturated",g,--,--,0.000,0.000
"Fatty acids, total trans",g,--,--,0.000,0.000
"Cholesterol",mg,--,--,0,0
Amino Acids
Other
Ingredients
"ENRICHED FLOUR (BLEACHED WHEAT FLOUR, NIACIN, REDUCED IRON, THIAMIN MONONITRATE {VITAMIN B1}, RIBOFLAVIN {VITAMIN B2}, FOLIC ACID), SUGAR, PALM AND/OR PALM KERNEL AND/OR PARTIALLY HYDROGENATED PALM KERNEL OIL+, COCOA, HIGH FRUCTOSE CORN SYRUP, CONTAINS TWO PERCENT OR LESS OF: CORNSTARCH, CORN FLOUR, SALT, BAKING SODA, SOY LECITHIN (EMULSIFIER), COCOA (PROCESSED WITH ALKALI), ARTIFICIAL COLOR (FD&C YELLOW #5, RED #40), NATURAL AND ARTIFICIAL FLAVORS." Date available: 07/14/2017 Date last updated by company: 07/14/2017
