Source: USDA Branded Food Products Database Release December 2017 Software v.3.8.6.4 2017-10-02
Report Run at: December 17, 2017 10:42 EST
"Nutrient data for: 45043242, FOOD LION, SPAGHETTI RINGS & MINI MEATBALLS, UPC: 035826046123"
Food Group:  Branded Food Products Database
Common Name:

Nutrient,Unit,Data points,Std. Error,"1 cup = 245.0g",1Value per 100 g,
Proximates
"Energy",kcal,--,--,250,102
"Protein",g,--,--,8.99,3.67
"Total lipid (fat)",g,--,--,11.00,4.49
"Carbohydrate, by difference",g,--,--,29.01,11.84
"Fiber, total dietary",g,--,--,2.9,1.2
"Sugars, total",g,--,--,8.99,3.67
Minerals
"Calcium, Ca",mg,--,--,20,8
"Iron, Fe",mg,--,--,1.79,0.73
"Potassium, K",mg,--,--,779,318
"Sodium, Na",mg,--,--,600,245
Vitamins
"Vitamin C, total ascorbic acid",mg,--,--,0.0,0.0
"Vitamin A, IU",IU,--,--,399,163
Lipids
"Fatty acids, total saturated",g,--,--,3.503,1.430
"Fatty acids, total monounsaturated",g,--,--,0.000,0.000
"Fatty acids, total polyunsaturated",g,--,--,0.000,0.000
"Fatty acids, total trans",g,--,--,0.000,0.000
"Cholesterol",mg,--,--,20,8
Amino Acids
Other
Ingredients
"WATER, TOMATOES (TOMATO PUREE, WATER), MEATBALLS (PORK, DARK CHICKEN, MECHANICALLY SEPARATED CHICKEN, BEEF, WATER, CRACKERMEAL [ENRICHED WHEAT FLOUR {BLEACHED WHEAT FLOUR, NIACIN, REDUCED IRON, THIAMINE MONONITRATE, RIBOFLAVIN, FOLIC ACID}, MAY ALSO CONTAIN GUAR GUM], SOY PROTEIN CONCENTRATE, SALT, CARAMEL COLOR, FLAVORINGS, SOYBEAN OIL, CITRIC ACID*), ENRICHED PASTA (DURUM WHEAT SEMOLINA, EGG WHITE SOLIDS, NIACIN, REDUCED IRON, THIAMINE MONONITRATE [VITAMIN B1], RIBOFLAVIN [VITAMIN B2], FOLIC ACID), HIGH FRUCTOSE CORN SYRUP, LESS THAN 2% OF: SEA SALT, MODIFIED CORN STARCH, ENZYME MODIFIED CHEESE (CHEDDAR CHEESE [PASTEURIZED MILK, CULTURES, SALT, ENZYMES], CREAM, WATER, SALT, SODIUM PHOSPHATE, XANTHAN GUM, CAROTENAL [COLOR]), FLAVORINGS, ONION POWDER, CITRIC ACID, OLEORESIN PAPRIKA." Date available: 06/24/2017 Date last updated by company: 06/24/2017
