Source: USDA Branded Food Products Database Release December 2017 Software v.3.8.6.4 2017-10-02
Report Run at: December 17, 2017 09:33 EST
"Nutrient data for: 45155189, FOOD CLUB, POPPER CHIP SNACK MADE WITH POTATO, BARBECUE, UPC: 036800417199"
Food Group:  Branded Food Products Database
Common Name:

Nutrient,Unit,Data points,Std. Error,"20.0 CHIPS = 28.0g",1Value per 100 g,
Proximates
"Energy",kcal,--,--,120,429
"Protein",g,--,--,2.00,7.14
"Total lipid (fat)",g,--,--,4.00,14.29
"Carbohydrate, by difference",g,--,--,20.00,71.43
"Fiber, total dietary",g,--,--,1.0,3.6
"Sugars, total",g,--,--,3.00,10.71
Minerals
"Calcium, Ca",mg,--,--,0,0
"Iron, Fe",mg,--,--,0.00,0.00
"Sodium, Na",mg,--,--,200,714
Vitamins
"Vitamin C, total ascorbic acid",mg,--,--,0.0,0.0
"Vitamin A, IU",IU,--,--,0,0
Lipids
"Fatty acids, total saturated",g,--,--,0.000,0.000
"Fatty acids, total monounsaturated",g,--,--,1.999,7.140
"Fatty acids, total polyunsaturated",g,--,--,1.000,3.570
"Fatty acids, total trans",g,--,--,0.000,0.000
"Cholesterol",mg,--,--,0,0
Amino Acids
Other
Ingredients
"POTATO FLAKES, SUNFLOWER OIL, POTATO STARCH, RICE FLOUR, WHEY, SUGAR, SALT, BROWN SUGAR, MALTODEXTRIN, YEAST EXTRACT, ONION POWDER, TOMATO POWDER, SPICE, GARLIC POWDER, CITRIC ACID, EXTRACTIVES OF PAPRIKA, NATURAL SMOKE FLAVOR AND NATURAL FLAVOR." Date available: 07/14/2017 Date last updated by company: 07/14/2017
