Source: USDA Branded Food Products Database Release December 2017 Software v.3.8.6.4 2017-10-02
Report Run at: December 17, 2017 09:34 EST
"Nutrient data for: 45011405, FOOD CLUB, PREMIUM ICE CREAM, MINT CHOCOLATE CHIP, UPC: 036800305359"
Food Group:  Branded Food Products Database
Common Name:

Nutrient,Unit,Data points,Std. Error,"0.5 cup = 68.0g",1Value per 100 g,
Proximates
"Energy",kcal,--,--,150,221
"Protein",g,--,--,2.00,2.94
"Total lipid (fat)",g,--,--,8.00,11.76
"Carbohydrate, by difference",g,--,--,17.00,25.00
"Fiber, total dietary",g,--,--,0.0,0.0
"Sugars, total",g,--,--,13.00,19.12
Minerals
"Calcium, Ca",mg,--,--,80,118
"Iron, Fe",mg,--,--,0.41,0.60
"Sodium, Na",mg,--,--,45,66
Vitamins
"Vitamin C, total ascorbic acid",mg,--,--,0.0,0.0
"Vitamin A, IU",IU,--,--,337,496
Lipids
"Fatty acids, total saturated",g,--,--,5.998,8.820
"Fatty acids, total trans",g,--,--,0.000,0.000
"Cholesterol",mg,--,--,30,44
Amino Acids
Other
Ingredients
"MILKFAT AND NONFAT MILK, SUGAR, CORN SYRUP, CHOCOLATE FLAVORED CHIPS (POWDERED SUGAR [SUGAR, CORNSTARCH], COCONUT OIL, COCOA PROCESSED WITH ALKALI, MILKFAT, SOY LECITHIN [EMULSIFIER], NATURAL FLAVOR), HIGH FRUCTOSE CORN SYRUP, SWEETCREAM BUTTERMILK, WHEY, CONTAINS LESS THAN 2% GUAR GUM, MONO AND DIGLYCERIDES, XANTHAN GUM, POLYSORBATE 80, CELLULOSE GUM, CARRAGEENAN, NATURAL FLAVOR, YELLOW 5, BLUE 1." Date available: 07/14/2017 Date last updated by company: 07/14/2017
