Source: USDA Branded Food Products Database Release December 2017 Software v.3.8.6.4 2017-10-02
Report Run at: December 17, 2017 10:19 EST
"Nutrient data for: 45035186, FOOD LION, MAYONNAISE, UPC: 035826087904"
Food Group:  Branded Food Products Database
Common Name:

Nutrient,Unit,Data points,Std. Error,"1 Tbsp = 14.0g",1Value per 100 g,
Proximates
"Energy",kcal,--,--,110,786
"Protein",g,--,--,0.00,0.00
"Total lipid (fat)",g,--,--,11.00,78.57
"Carbohydrate, by difference",g,--,--,0.00,0.00
"Fiber, total dietary",g,--,--,0.0,0.0
"Sugars, total",g,--,--,0.00,0.00
Minerals
"Calcium, Ca",mg,--,--,0,0
"Iron, Fe",mg,--,--,0.00,0.00
"Sodium, Na",mg,--,--,50,357
Vitamins
"Vitamin C, total ascorbic acid",mg,--,--,0.0,0.0
"Vitamin A, IU",IU,--,--,0,0
Lipids
"Fatty acids, total saturated",g,--,--,2.001,14.290
"Fatty acids, total monounsaturated",g,--,--,2.500,17.860
"Fatty acids, total polyunsaturated",g,--,--,6.000,42.860
"Fatty acids, total trans",g,--,--,0.000,0.000
"Cholesterol",mg,--,--,10,71
Amino Acids
Other
Ingredients
"SOYBEAN OIL, VINEGAR, EGG YOLKS, WATER, SUGAR, SALT, LEMON JUICE, CALCIUM DISODIUM EDTA (AS A PRESERVATIVE) AND NATURAL FLAVORS." Date available: 07/14/2017 Date last updated by company: 07/14/2017
