Source: USDA Branded Food Products Database Release December 2017 Software v.3.8.6.4 2017-10-02
Report Run at: December 17, 2017 10:53 EST
"Nutrient data for: 45173287, FOOD LION, WOVEN WHEATS, BAKED WHOLE WHEAT CRACKERS, UPC: 035826096968"
Food Group:  Branded Food Products Database
Common Name:

Nutrient,Unit,Data points,Std. Error,"7.0 CRACKERS | ABOUT = 31.0g",1Value per 100 g,
Proximates
"Energy",kcal,--,--,120,387
"Protein",g,--,--,3.00,9.68
"Total lipid (fat)",g,--,--,2.50,8.06
"Carbohydrate, by difference",g,--,--,24.00,77.42
"Fiber, total dietary",g,--,--,3.0,9.7
"Sugars, total",g,--,--,0.00,0.00
Minerals
"Iron, Fe",mg,--,--,2.32,7.49
"Potassium, K",mg,--,--,130,419
"Sodium, Na",mg,--,--,170,548
Vitamins
Lipids
"Fatty acids, total saturated",g,--,--,0.000,0.000
"Fatty acids, total monounsaturated",g,--,--,1.001,3.230
"Fatty acids, total polyunsaturated",g,--,--,1.500,4.840
"Fatty acids, total trans",g,--,--,0.000,0.000
"Cholesterol",mg,--,--,0,0
Amino Acids
Other
Ingredients
"WHOLE GRAIN WHEAT, CANOLA AND/OR SOYBEAN AND/OR PALM OIL WITH TBHQ ADDED AS A PRESERVATIVE, SALT." Date available: 10/18/2017 Date last updated by company: 10/18/2017
