Source: USDA Branded Food Products Database Release December 2017 Software v.3.8.6.4 2017-10-02
Report Run at: December 17, 2017 09:36 EST
"Nutrient data for: 45209355, FOOD CLUB, REDUCED SODIUM SOY SAUCE, UPC: 036800362291"
Food Group:  Branded Food Products Database
Common Name:

Nutrient,Unit,Data points,Std. Error,"1 Tbsp = 15.0g",1Value per 100 g,
Proximates
"Energy",kcal,--,--,10,67
"Protein",g,--,--,0.00,0.00
"Total lipid (fat)",g,--,--,0.00,0.00
"Carbohydrate, by difference",g,--,--,2.00,13.33
"Sugars, total",g,--,--,1.00,6.67
Minerals
"Sodium, Na",mg,--,--,530,3533
Vitamins
Lipids
Amino Acids
Other
Ingredients
"WATER, HYDROLYZED CORN AND SOY PROTEIN, CORN SYRUP, SALT, CARAMEL COLOR, LACTIC ACID, POTASSIUM SORBATE AS A PRESERVATIVE." Date available: 06/25/2017 Date last updated by company: 06/25/2017
