Source: USDA Branded Food Products Database Release December 2017 Software v.3.8.6.4 2017-10-02
Report Run at: December 17, 2017 10:29 EST
"Nutrient data for: 45173245, FOOD LION, PIZZA CRUST MIX, UPC: 035826072757"
Food Group:  Branded Food Products Database
Common Name:

Nutrient,Unit,Data points,Std. Error,"0.25 PACKAGE (ABOUT 1/3 CUP DRY MIX) 1/4 CRUST IN 12"""" PAN = 46.0g",1Value per 100 g,
Proximates
"Energy",kcal,--,--,170,370
"Protein",g,--,--,5.00,10.87
"Total lipid (fat)",g,--,--,1.50,3.26
"Carbohydrate, by difference",g,--,--,32.00,69.57
"Fiber, total dietary",g,--,--,1.0,2.2
"Sugars, total",g,--,--,2.00,4.35
Minerals
"Calcium, Ca",mg,--,--,0,0
"Iron, Fe",mg,--,--,1.96,4.25
"Sodium, Na",mg,--,--,190,413
Vitamins
"Vitamin C, total ascorbic acid",mg,--,--,0.0,0.0
"Vitamin A, IU",IU,--,--,0,0
Lipids
"Fatty acids, total saturated",g,--,--,0.000,0.000
"Fatty acids, total trans",g,--,--,0.000,0.000
"Cholesterol",mg,--,--,0,0
Amino Acids
Other
Ingredients
"ENRICHED BLEACHED FLOUR (BLEACHED WHEAT FLOUR, MALTED BARLEY FLOUR, NIACIN, IRON, THIAMINE MONONITRATE, RIBOFLAVIN, FOLIC ACID), DEXTROSE, CONTAINS 2% OR LESS OF: LEAVENING (BAKING SODA, SODIUM ALUMINUM PHOSPHATE), PARTIALLY HYDROGENATED VEGETABLE SHORTENING (CONTAINS SOYBEAN OIL), ACTIVE DRY YEAST WITH SORBITAN MONOSTEARATE, EMULSIFIER (SOY LECITHIN), SALT, NONFAT MILK, MALTODEXTRIN." Date available: 08/11/2017 Date last updated by company: 08/11/2017
