Source: USDA Branded Food Products Database Release December 2017 Software v.3.8.6.4 2017-10-02
Report Run at: December 17, 2017 10:30 EST
"Nutrient data for: 45155152, FOOD LION, POPCORN, LIGHT BUTTER, UPC: 035826097750"
Food Group:  Branded Food Products Database
Common Name:

Nutrient,Unit,Data points,Std. Error,"2.0 , PER CARTON ABOUT 12 | PER BAG ABOUT = 42.0g",1Value per 100 g,
Proximates
"Energy",kcal,--,--,140,333
"Protein",g,--,--,4.00,9.52
"Total lipid (fat)",g,--,--,3.50,8.33
"Carbohydrate, by difference",g,--,--,28.00,66.67
"Fiber, total dietary",g,--,--,4.0,9.5
"Sugars, total",g,--,--,0.00,0.00
Minerals
"Calcium, Ca",mg,--,--,0,0
"Iron, Fe",mg,--,--,1.29,3.06
"Sodium, Na",mg,--,--,420,1000
Vitamins
"Vitamin C, total ascorbic acid",mg,--,--,0.0,0.0
"Vitamin A, IU",IU,--,--,0,0
Lipids
"Fatty acids, total saturated",g,--,--,1.000,2.380
"Fatty acids, total monounsaturated",g,--,--,1.000,2.380
"Fatty acids, total polyunsaturated",g,--,--,1.000,2.380
"Fatty acids, total trans",g,--,--,0.000,0.000
"Cholesterol",mg,--,--,0,0
Amino Acids
Other
Ingredients
"POPPING CORN, PALM OIL, SALT, LESS THAN 2% OF: BUTTER, NATURAL FLAVOR, COLOR ADDED, TBHQ AND CITRIC ACID (FOR FRESHNESS)." Date available: 07/14/2017 Date last updated by company: 07/14/2017
