Source: USDA Branded Food Products Database Release December 2017 Software v.3.8.6.4 2017-10-02
Report Run at: December 17, 2017 09:54 EST
"Nutrient data for: 45057498, FOOD LION, CHILI WITH BEANS, UPC: 035826079466"
Food Group:  Branded Food Products Database
Common Name:

Nutrient,Unit,Data points,Std. Error,"1 cup = 247.0g",1Value per 100 g,
Proximates
"Energy",kcal,--,--,249,101
"Protein",g,--,--,12.99,5.26
"Total lipid (fat)",g,--,--,8.99,3.64
"Carbohydrate, by difference",g,--,--,30.01,12.15
"Fiber, total dietary",g,--,--,6.9,2.8
"Sugars, total",g,--,--,2.99,1.21
Minerals
"Calcium, Ca",mg,--,--,40,16
"Iron, Fe",mg,--,--,1.90,0.77
"Sodium, Na",mg,--,--,840,340
Vitamins
"Vitamin C, total ascorbic acid",mg,--,--,0.0,0.0
"Vitamin A, IU",IU,--,--,316,128
Lipids
"Fatty acids, total saturated",g,--,--,4.001,1.620
"Fatty acids, total trans",g,--,--,0.000,0.000
"Cholesterol",mg,--,--,30,12
Amino Acids
Other
Ingredients
"WATER, BEEF, BEANS, CONTAINS 2% OR LESS OF MODIFIED CORNSTARCH, GREEN CHILI PUREE (CONTAINS CITRIC ACID), CORN FLOUR, CHILI POWDER (CHILI PEPPERS, FLAVORING), TOMATO PASTE, SALT, SUGAR, YEAST EXTRACT, FLAVORING, SPICES, CHILI FLAVOR (OLEORESIN OF PAPRIKA, NATURAL FLAVORINGS)." Date available: 07/14/2017 Date last updated by company: 07/14/2017
