Source: USDA Branded Food Products Database Release December 2017 Software v.3.8.6.4 2017-10-02
Report Run at: December 17, 2017 11:00 EST
"Nutrient data for: 45169241, FORAGER, ORGANIC UNSWEETENED CREAMY CASHEWMILK, UPC: 814558020232"
Food Group:  Branded Food Products Database
Common Name:

Nutrient,Unit,Data points,Std. Error,"8.0 OZA = 237.0g",1Value per 100 g,
Proximates
"Energy",kcal,--,--,71,30
"Protein",g,--,--,1.99,0.84
"Total lipid (fat)",g,--,--,1.00,0.42
"Carbohydrate, by difference",g,--,--,4.01,1.69
"Fiber, total dietary",g,--,--,0.0,0.0
"Sugars, total",g,--,--,1.00,0.42
Minerals
"Calcium, Ca",mg,--,--,19,8
"Iron, Fe",mg,--,--,0.73,0.31
"Sodium, Na",mg,--,--,14,6
Vitamins
"Vitamin C, total ascorbic acid",mg,--,--,0.0,0.0
"Vitamin A, IU",IU,--,--,0,0
Lipids
"Fatty acids, total saturated",g,--,--,0.498,0.210
"Fatty acids, total trans",g,--,--,0.000,0.000
"Cholesterol",mg,--,--,0,0
Amino Acids
Other
Ingredients
"CASHEW MILK (FILTERED WATER CASHEWS*), CASSAVA ROOT*, VANILLA EXTRACT*, FERMENTED CORN SUGAR*, SEA SALT." Date available: 08/10/2017 Date last updated by company: 08/10/2017
