Source: USDA Branded Food Products Database Release December 2017 Software v.3.8.6.4 2017-10-02
Report Run at: December 17, 2017 11:00 EST
"Nutrient data for: 45169243, FORAGER, ORGANIC CREAMY CASHEWMILK CHOCOLATE, UPC: 814558020256"
Food Group:  Branded Food Products Database
Common Name:

Nutrient,Unit,Data points,Std. Error,"8.0 OZA = 237.0g",1Value per 100 g,
Proximates
"Energy",kcal,--,--,81,34
"Protein",g,--,--,1.99,0.84
"Total lipid (fat)",g,--,--,5.00,2.11
"Carbohydrate, by difference",g,--,--,10.00,4.22
"Fiber, total dietary",g,--,--,0.9,0.4
"Sugars, total",g,--,--,6.00,2.53
Minerals
"Calcium, Ca",mg,--,--,19,8
"Iron, Fe",mg,--,--,0.73,0.31
"Sodium, Na",mg,--,--,14,6
Vitamins
"Vitamin C, total ascorbic acid",mg,--,--,0.0,0.0
"Vitamin A, IU",IU,--,--,0,0
Lipids
"Fatty acids, total saturated",g,--,--,0.498,0.210
"Fatty acids, total trans",g,--,--,0.000,0.000
"Cholesterol",mg,--,--,0,0
Amino Acids
Other
Ingredients
"CASHEWMILK (FILTERED WATER, CASHEWS*), DATES*, CACAO*, CASSAVA ROOT*, FERMENTED CORN SUGAR*, VANILLA EXTRACT*, SEA SALT." Date available: 07/14/2017 Date last updated by company: 07/14/2017
