Source: USDA Branded Food Products Database Release December 2017 Software v.3.8.6.4 2017-10-02
Report Run at: December 17, 2017 11:00 EST
"Nutrient data for: 45205811, FORAGER PROJECT, CREAMY DAIRY-FREE YOGURT, LEMON, UPC: 814558020300"
Food Group:  Branded Food Products Database
Common Name:

Nutrient,Unit,Data points,Std. Error,"1 CONTAINER = 150.0g",1Value per 100 g,
Proximates
"Energy",kcal,--,--,140,93
"Protein",g,--,--,3.00,2.00
"Total lipid (fat)",g,--,--,6.00,4.00
"Carbohydrate, by difference",g,--,--,21.00,14.00
"Fiber, total dietary",g,--,--,1.1,0.7
"Sugars, total",g,--,--,12.00,8.00
Minerals
"Calcium, Ca",mg,--,--,0,0
"Iron, Fe",mg,--,--,1.08,0.72
"Sodium, Na",mg,--,--,10,7
Vitamins
"Vitamin C, total ascorbic acid",mg,--,--,0.0,0.0
"Vitamin A, IU",IU,--,--,0,0
Lipids
"Fatty acids, total saturated",g,--,--,1.005,0.670
"Fatty acids, total trans",g,--,--,0.000,0.000
"Cholesterol",mg,--,--,0,0
Amino Acids
Other
Ingredients
"CASHEWMILK (FILTERED WATER, GROUND CASHEWS*), CANE SUGAR*, CORN STARCH*, CASSAVA ROOT*, LEMON JUICE CONCENTRATE*, RICE STARCH*, NATURAL FLAVOR, TURMERIC (FOR COLOR), LOCUST BEAN GUM*, NATURAL FLAVOR*, LIVE ACTIVE VEGAN CULTURES (L. PLANTARUM LM, L. ACIDOPHILUS, B. BIFIDUM, L. BULGARICUS, S. THERMOPHILUS, L. DELBRUEKII LE)" Date available: 12/20/2016 Date last updated by company: 12/20/2016
