Source: USDA Branded Food Products Database Release December 2017 Software v.3.8.6.4 2017-10-02
Report Run at: December 17, 2017 11:03 EST
"Nutrient data for: 45278249, FORK SPLIT ENGLISH MUFFINS, UPC: 041268193318"
Food Group:  Branded Food Products Database
Common Name:

Nutrient,Unit,Data points,Std. Error,"1 MUFFIN = 57.0g",1Value per 100 g,
Proximates
"Energy",kcal,--,--,120,211
"Protein",g,--,--,5.00,8.77
"Total lipid (fat)",g,--,--,1.00,1.75
"Carbohydrate, by difference",g,--,--,24.00,42.11
"Fiber, total dietary",g,--,--,1.0,1.8
"Sugars, total",g,--,--,1.00,1.75
Minerals
"Calcium, Ca",mg,--,--,100,175
"Iron, Fe",mg,--,--,1.39,2.44
"Potassium, K",mg,--,--,110,193
"Sodium, Na",mg,--,--,190,333
Vitamins
"Vitamin C, total ascorbic acid",mg,--,--,0.0,0.0
"Thiamin",mg,--,--,0.570,1.000
"Riboflavin",mg,--,--,0.164,0.288
"Niacin",mg,--,--,1.544,2.709
"Vitamin A, IU",IU,--,--,0,0
Lipids
"Fatty acids, total saturated",g,--,--,0.000,0.000
"Fatty acids, total monounsaturated",g,--,--,0.000,0.000
"Fatty acids, total polyunsaturated",g,--,--,0.000,0.000
"Fatty acids, total trans",g,--,--,0.000,0.000
"Cholesterol",mg,--,--,0,0
Amino Acids
Other
Ingredients
"UNBLEACHED ENRICHED FLOUR (WHEAT FLOUR, MALTED BARLEY FLOUR, NIACIN, REDUCED IRON, THIAMIN MONONITRATE, RIBOFLAVIN, FOLIC ACID), WATER, WHEY (MILK), BUTTERMILK, YEAST, CONTAINS 2% OR LESS OF EACH OF THE FOLLOWING: WHEAT GLUTEN, HIGH FRUCTOSE CORN SYRUP, SALT, CORN MEAL, SOYBEAN OIL, DEXTROSE, CORN FLOUR, CALCIUM SULFATE, MONOGLYCERIDES, MONO- AND DIGLYCERIDES, ENZYMES, CORN OIL, ASCORBIC ACID, FUMARIC ACID, CALCIUM PROPIONATE AND POTASSIUM SORBATE (TO RETARD SPOILAGE)." Date available: 07/14/2017 Date last updated by company: 07/14/2017
