Source: USDA Branded Food Products Database Release December 2017 Software v.3.8.6.4 2017-10-02
Report Run at: December 17, 2017 11:14 EST
"Nutrient data for: 45328348, FOUR CHEESE PENNE AND WHITE MEAT CHICKEN, UPC: 018053192962"
Food Group:  Branded Food Products Database
Common Name:

Nutrient,Unit,Data points,Std. Error,"1 CONTAINER = 284.0g",1Value per 100 g,
Proximates
"Energy",kcal,--,--,369,130
"Protein",g,--,--,22.01,7.75
"Total lipid (fat)",g,--,--,17.01,5.99
"Carbohydrate, by difference",g,--,--,32.01,11.27
"Fiber, total dietary",g,--,--,2.0,0.7
"Sugars, total",g,--,--,5.00,1.76
Minerals
"Calcium, Ca",mg,--,--,349,123
"Iron, Fe",mg,--,--,0.88,0.31
"Sodium, Na",mg,--,--,980,345
Vitamins
"Vitamin C, total ascorbic acid",mg,--,--,0.6,0.2
"Vitamin A, IU",IU,--,--,247,87
Lipids
"Fatty acids, total saturated",g,--,--,9.003,3.170
"Fatty acids, total trans",g,--,--,0.000,0.000
"Cholesterol",mg,--,--,65,23
Amino Acids
Other
Ingredients
"COOKED ENRICHED PENNE (WATER, ENRICHED PENNE [FINE GROUND DURUM SEMOLINA, DRIED EGG WHITES, NIACIN, IRON {FERROUS SULFATE}, THIAMINE MONONITRATE, RIBOFLAVIN, FOLIC ACID]), MILK, WATER, SEASONED WHITE MEAT CHICKEN (COOKED WHITE MEAT CHICKEN, WATER, CANOLA OIL, SALT), MONTEREY JACK AND CHEDDAR CHEESE BLEND (MONTEREY JACK CHEESE [PASTEURIZED MILK, CHEESE CULTURE, SALT AND ENZYMES], CHEDDAR CHEESE [PASTEURIZED MILK, CHEESE CULTURES, SALT, ENZYMES AND ANNATTO COLOR], POTATO STARCH, CORN STARCH, AND CELLULOSE [ANTI-CAKING AGENTS]), PASTEURIZED PROCESS SWISS CHEESE (CULTURED MILK AND SKIM MILK, WATER, CREAM, SALT, SODIUM PHOSPHATE, LACTIC ACID, ENZYMES), CHEDDAR CHEESE (CULTURED MILK, SALT, ENZYMES, ANNATTO [COLOR], POTATO STARCH & CELLULOSE POWDER [TO PREVENT CAKING], NATAMYCIN [NATURAL MOLD INHIBITOR]), MODIFIED CORNSTARCH, PASTEURIZED PROCESS AMERICAN CHEESE (CULTURED MILK, WATER, CREAM, SODIUM CITRATE, SALT, POWDERED CELLULOSE [TO PREVENT CAKING], SODIUM PHOSPHATE, CITRIC ACID, SORBIC ACID [PRESERVATIVE], ARTIFICIAL COLOR, ENZYMES), ENRICHED FLOUR (WHEAT FLOUR, NIACIN, REDUCED IRON, THIAMINE MONONITRATE, RIBOFLAVIN, FOLIC ACID), CHEESE FLAVOR (CHEDDAR, BLUE AND SEMI-SOFT CHEESE [PASTEURIZED MILK, CHEESE CULTURES, SALT, ENZYMES], WATER, WHEY, SALT, CITRIC ACID), GARLIC, BUTTER (CREAM, SALT), CANOLA OIL, CULTURED DEXTROSE, SALT, SPICES, CITRIC ACID." Date available: 10/18/2017 Date last updated by company: 10/18/2017
