Source: USDA Branded Food Products Database Release December 2017 Software v.3.8.6.4 2017-10-02
Report Run at: December 17, 2017 11:12 EST
"Nutrient data for: 45215767, FOUR CHEESE BLEND FLATBREAD, UPC: 021130117819"
Food Group:  Branded Food Products Database
Common Name:

Nutrient,Unit,Data points,Std. Error,"1 FLATBREAD = 175.0g",1Value per 100 g,
Proximates
"Energy",kcal,--,--,420,240
"Protein",g,--,--,20.00,11.43
"Total lipid (fat)",g,--,--,14.00,8.00
"Carbohydrate, by difference",g,--,--,50.99,29.14
"Fiber, total dietary",g,--,--,1.9,1.1
"Sugars, total",g,--,--,4.01,2.29
Minerals
"Calcium, Ca",mg,--,--,350,200
"Iron, Fe",mg,--,--,10.08,5.76
"Sodium, Na",mg,--,--,1090,623
Vitamins
"Vitamin C, total ascorbic acid",mg,--,--,0.9,0.5
"Vitamin A, IU",IU,--,--,401,229
Lipids
"Fatty acids, total saturated",g,--,--,7.000,4.000
"Fatty acids, total trans",g,--,--,0.000,0.000
"Cholesterol",mg,--,--,46,26
Amino Acids
Other
Ingredients
"ENRICHED WHEAT FLOUR (WHEAT FLOUR, MALTED BARLEY FLOUR, NIACIN, REDUCED IRON, THIAMINE MONONITRATE (VITAMIN B1), RIBOFLAVIN (VITAMIN B2),, FOLIC ACID), WATER, PIZZA SAUCE (TOMATO PUREE [WATER, TOMATO PASTE], DICED TOMATOES [TOMATOES, TOMATO JUICE, CALCIUM CHLORIDE, CITRIC ACID], SUGAR, SOYBEAN OIL, SALT, SPICES), PARMESAN CHEESE (PASTEURIZED PART-SKIM COW'S MILK, CHEESE CULTURES, SALT, ENZYMES), GARLIC, CITRIC ACID, NATURAL EXTRACTIVES OF PAPRIKA, CANOLA OIL), SHREDDED CHEDDAR CHEESE (PASTEURIZED PART-SKIM COW'S MILK, CHEESE CULTURES, SALT, ENZYMES, ANNATTO COLOR), SHREDDED MOZZARELLA CHEESE (PASTEURIZED PART-SKIM COW'S MILK, CHEESE CULTURES, SALT, ENZYMES), SHREDDED ASIAGO CHEESE (PASTEURIZED PART-SKIM COW'S MILK, CHEESE CULTURES SALT, ENZYMES, FLOW AGENT LESS THAN 2% MICROCELLULOSE CRYSTALLINE ADDED TO PREVENT CAKING), SHREDDED PARMESAN CHEESE (PASTEURIZED PART-SKIM COW'S MILK, CHEESE CULTURES, SALT, ENZYMES), SUGAR, SALT, YEAST, OREGANO, CANOLA OIL." Date available: 07/14/2017 Date last updated by company: 07/14/2017
