Source: USDA Branded Food Products Database Release December 2017 Software v.3.8.6.4 2017-10-02
Report Run at: December 17, 2017 11:17 EST
"Nutrient data for: 45191788, FOUR SEASONS LATTICE PIE, UPC: 092825109013"
Food Group:  Branded Food Products Database
Common Name:

Nutrient,Unit,Data points,Std. Error,"0.11 PIE = 123.0g",1Value per 100 g,
Proximates
"Energy",kcal,--,--,330,268
"Protein",g,--,--,4.00,3.25
"Total lipid (fat)",g,--,--,17.00,13.82
"Carbohydrate, by difference",g,--,--,43.00,34.96
"Fiber, total dietary",g,--,--,3.0,2.4
"Sugars, total",g,--,--,17.99,14.63
Minerals
"Calcium, Ca",mg,--,--,41,33
"Iron, Fe",mg,--,--,1.09,0.89
"Sodium, Na",mg,--,--,220,179
Vitamins
"Vitamin C, total ascorbic acid",mg,--,--,9.1,7.4
"Vitamin A, IU",IU,--,--,102,83
Lipids
"Fatty acids, total saturated",g,--,--,9.004,7.320
"Fatty acids, total trans",g,--,--,0.000,0.000
"Cholesterol",mg,--,--,0,0
Amino Acids
Other
Ingredients
"ENRICHED FLOUR (FLOUR, NIACIN, REDUCED IRON, THIAMINE MONONITRATE, RIBOFLAVIN, FOLIC ACID), WATER, PALM OIL, APPLES, CHERRIES, SUGAR, PEACHES, BLACKBERRIES, HIGH FRUCTOSE CORN SYRUP, CORN SYRUP, FOOD STARCH-MODIFIED CONTAINS LESS THAN 2% OF: SALT, DEXTROSE, NATURAL AND ARTIFICIAL FLAVORS, CAROB BEAN GUM, CELLULOSE GUM, AGAR, SORBIC ACID, SPICES, APPLE CIDER VINEGAR, CALCIUM PROPIONATE." Date available: 07/14/2017 Date last updated by company: 07/14/2017
