Source: USDA Branded Food Products Database Release December 2017 Software v.3.8.6.4 2017-10-02
Report Run at: December 17, 2017 11:12 EST
"Nutrient data for: 45262208, FOUR-CHEESE FUSILLI PASTA, UPC: 5051379081096"
Food Group:  Branded Food Products Database
Common Name:

Nutrient,Unit,Data points,Std. Error,"1 CONTAINER = 340.0g",1Value per 100 g,
Proximates
"Energy",kcal,--,--,592,174
"Protein",g,--,--,28.02,8.24
"Total lipid (fat)",g,--,--,28.02,8.24
"Carbohydrate, by difference",g,--,--,63.00,18.53
"Fiber, total dietary",g,--,--,7.1,2.1
"Sugars, total",g,--,--,7.00,2.06
Minerals
"Calcium, Ca",mg,--,--,350,103
"Iron, Fe",mg,--,--,1.97,0.58
"Sodium, Na",mg,--,--,721,212
Vitamins
"Vitamin C, total ascorbic acid",mg,--,--,0.0,0.0
"Vitamin A, IU",IU,--,--,367,108
Lipids
"Fatty acids, total saturated",g,--,--,14.008,4.120
"Fatty acids, total trans",g,--,--,0.000,0.000
"Cholesterol",mg,--,--,75,22
Amino Acids
Other
Ingredients
"COOKED ROTELLI PASTA (SEMOLINA, DURUM FLOUR, NIACIN, FERROUS SULFATE, THIAMIN MONONITRATE, RIBOFLAVIN, FOLIC ACID), REDUCED FAT MILK, MILD CHEDDAR CHEESE (CULTURED PASTEURIZED MILK, SALT, ENZYMES, ANNATTO), WATER, SHARP CHEDDAR CHEESE (PASTEURIZED MILK, CHEESE CULTURES, SALT, ENZYMES, ANNATTO), PARMESAN CHEESE (PASTEURIZED PART SKIM COW'S MILK, CHEESE CULTURES,M SALT, ENZYMES), WHEAT FLOUR, UNSALTED BUTTER (CREAM), CANOLA OIL, HAVARTI CHEESE (MILK, CHEESE CULTURES, SALT, MICROBIAL RENNET), SWISS CHEESE (PASTEURIZED CULTURED PART SKIM MILK, SALT, ENZYMES), SALT, SPICE, MUSTARD SEED." Date available: 07/14/2017 Date last updated by company: 07/14/2017
