Source: USDA Branded Food Products Database Release December 2017 Software v.3.8.6.4 2017-10-02
Report Run at: December 17, 2017 11:14 EST
"Nutrient data for: 45191669, FOUR CHEESE PIZZA THIN CRUST, UPC: 079893311081"
Food Group:  Branded Food Products Database
Common Name:

Nutrient,Unit,Data points,Std. Error,"0.33 PIZZA = 137.0g",1Value per 100 g,
Proximates
"Energy",kcal,--,--,349,255
"Protein",g,--,--,17.00,12.41
"Total lipid (fat)",g,--,--,15.00,10.95
"Carbohydrate, by difference",g,--,--,36.00,26.28
"Fiber, total dietary",g,--,--,3.0,2.2
"Sugars, total",g,--,--,3.00,2.19
Minerals
"Calcium, Ca",mg,--,--,300,219
"Iron, Fe",mg,--,--,2.56,1.87
"Sodium, Na",mg,--,--,610,445
Vitamins
"Vitamin C, total ascorbic acid",mg,--,--,8.5,6.2
"Vitamin A, IU",IU,--,--,1067,779
Lipids
"Fatty acids, total saturated",g,--,--,9.001,6.570
"Fatty acids, total trans",g,--,--,0.000,0.000
"Cholesterol",mg,--,--,45,33
Amino Acids
Other
Ingredients
"CRUST (WHEAT FLOUR, WATER, STONE GROUND WHEAT FLOUR, EXPELLER PRESSED SOYBEAN OIL, BREAD CRUMBS [WHEAT FLOUR, CANE SUGAR, YEAST, SALT], HULLED MILLET SEED, GROUND FLAX SEED, STEEL CUT OATS, SALT, CANE SUGAR, WHEAT GLUTEN, YEAST), LOW MOISTURE WHOLE MILK MOZZARELLA CHEESE (PASTEURIZED MILK, CHEESE CULTURES, SALT, ENZYMES, AND NATAMYCIN [A NATURAL MOLD INHIBITOR]), TOMATO PUREE (TOMATOES, SALT, CITRIC ACID), WHITE CHEDDAR CHEESE (CULTURED PASTEURIZED MILK, SALT, AND ENZYMES), WATER, CONTAINS 2% OR LESS OF: TOMATO PASTE, PARMESAN AND ROMANO CHEESE BLEND) PARMESAN CHEESE [PASTEURIZED PART-SKIM COW'S MILK, CHEESE CULTURES, SALT, ENZYMES], ROMANO CHEESE [PASTEURIZED SHEEP'S MILK, CHEESE CULTURES, SALT, ENZYMES]), SPICES, GRANULATED GARLIC, SALT." Date available: 07/14/2017 Date last updated by company: 07/14/2017
