Source: USDA Branded Food Products Database Release December 2017 Software v.3.8.6.4 2017-10-02
Report Run at: December 17, 2017 11:15 EST
"Nutrient data for: 45292114, FOUR CHEESE RISOTTO, UPC: 046567032825"
Food Group:  Branded Food Products Database
Common Name:

Nutrient,Unit,Data points,Std. Error,"0.667 CUP (160G) | PREPARED ABOUT = 57.0g",1Value per 100 g,
Proximates
"Energy",kcal,--,--,230,404
"Protein",g,--,--,7.00,12.28
"Total lipid (fat)",g,--,--,6.00,10.53
"Carbohydrate, by difference",g,--,--,36.00,63.16
"Fiber, total dietary",g,--,--,0.0,0.0
"Sugars, total",g,--,--,2.00,3.51
Minerals
"Calcium, Ca",mg,--,--,150,263
"Iron, Fe",mg,--,--,0.28,0.50
"Sodium, Na",mg,--,--,440,772
Vitamins
"Vitamin C, total ascorbic acid",mg,--,--,0.0,0.0
"Vitamin A, IU",IU,--,--,0,0
Lipids
"Fatty acids, total saturated",g,--,--,1.499,2.630
"Fatty acids, total trans",g,--,--,0.000,0.000
"Cholesterol",mg,--,--,5,9
Amino Acids
Other
Ingredients
"ARBORIO RICE, PROCESS CHEESE FOOD IN POWDER [CHEDDAR CHEESE, GOUDA CHEESE AND BLUE CHEESE BLEND (PASTEURIZED MILK, SALT, CHEESE CULTURES, ENZYMES), WHEY POWDER, SALT, SODIUM CITRATE, DISODIUM PHOSPHATE], POWDERED SUNFLOWER OIL PREPARATION (SUNFLOWER OIL, GLUCOSE SYRUP, SODIUM CASEINATE, SILICON DIOXIDE), NATURAL FLAVOR, ONION POWDER, GRATED PARMIGIANO REGGIANO CHEESE (MILK, SALT, RENNET), YEAST EXTRACT, DEHYDRATED PARSLEY." Date available: 09/13/2017 Date last updated by company: 09/13/2017
