Source: USDA Branded Food Products Database Release December 2017 Software v.3.8.6.4 2017-10-02
Report Run at: December 17, 2017 11:20 EST
"Nutrient data for: 45234955, FRAGILE PLANET, 100% APPLE JUICE, APPLE, UPC: 041755310082"
Food Group:  Branded Food Products Database
Common Name:

Nutrient,Unit,Data points,Std. Error,"8.0 OZA = 237.0g",1Value per 100 g,
Proximates
"Energy",kcal,--,--,121,51
"Protein",g,--,--,0.00,0.00
"Total lipid (fat)",g,--,--,0.00,0.00
"Carbohydrate, by difference",g,--,--,27.99,11.81
"Sugars, total",g,--,--,26.00,10.97
Minerals
"Potassium, K",mg,--,--,190,80
"Sodium, Na",mg,--,--,14,6
Vitamins
Lipids
"Fatty acids, total saturated",g,--,--,0.000,0.000
"Fatty acids, total trans",g,--,--,0.000,0.000
"Cholesterol",mg,--,--,0,0
Amino Acids
Other
Ingredients
"100% ORGANIC APPLE JUICE PRESSED FROM WHOLE FRESH ORGANIC APPLES." Date available: 07/14/2017 Date last updated by company: 07/14/2017
