Source: USDA Branded Food Products Database Release December 2017 Software v.3.8.6.4 2017-10-02
Report Run at: December 17, 2017 11:23 EST
"Nutrient data for: 45028703, FRANCESCO RINALDI, VODKA SAUCE, UPC: 077644900683"
Food Group:  Branded Food Products Database
Common Name:

Nutrient,Unit,Data points,Std. Error,"0.25 cup = 62.0g",1Value per 100 g,
Proximates
"Energy",kcal,--,--,50,81
"Protein",g,--,--,2.00,3.23
"Total lipid (fat)",g,--,--,2.50,4.03
"Carbohydrate, by difference",g,--,--,6.00,9.68
"Fiber, total dietary",g,--,--,1.0,1.6
"Sugars, total",g,--,--,3.00,4.84
Minerals
"Calcium, Ca",mg,--,--,20,32
"Iron, Fe",mg,--,--,0.76,1.23
"Sodium, Na",mg,--,--,290,468
Vitamins
"Vitamin C, total ascorbic acid",mg,--,--,0.0,0.0
"Vitamin A, IU",IU,--,--,846,1364
Lipids
"Fatty acids, total saturated",g,--,--,1.500,2.420
"Fatty acids, total trans",g,--,--,0.000,0.000
"Cholesterol",mg,--,--,10,16
Amino Acids
Other
Ingredients
"TOMATO PUREE (WATER, TOMATO PASTE, CITRIC ACID), CREAM CHEESE (MILK AND CREAM, CHEESE CULTURE, SALT, CAROB BEAN GUM), VODKA PARMESAN CHEESE (SKIM MILK, CHEESE CULTURE, SALT, ENZYMES), SUGAR, SALT, SPICES, DRIED GARLIC, ONION POWDER." Date available: 07/14/2017 Date last updated by company: 07/14/2017
