Source: USDA Branded Food Products Database Release December 2017 Software v.3.8.6.4 2017-10-02
Report Run at: December 17, 2017 11:52 EST
"Nutrient data for: 45281131, FREEZE POPS, UPC: 041268195572"
Food Group:  Branded Food Products Database
Common Name:

Nutrient,Unit,Data points,Std. Error,"1 POP = 28.0g",1Value per 100 g,
Proximates
"Energy",kcal,--,--,20,71
"Protein",g,--,--,0.00,0.00
"Total lipid (fat)",g,--,--,0.00,0.00
"Carbohydrate, by difference",g,--,--,5.00,17.86
"Fiber, total dietary",g,--,--,0.0,0.0
"Sugars, total",g,--,--,5.00,17.86
Minerals
"Calcium, Ca",mg,--,--,0,0
"Iron, Fe",mg,--,--,0.00,0.00
"Sodium, Na",mg,--,--,0,0
Vitamins
"Vitamin C, total ascorbic acid",mg,--,--,0.0,0.0
"Vitamin A, IU",IU,--,--,0,0
Lipids
"Fatty acids, total saturated",g,--,--,0.000,0.000
"Fatty acids, total trans",g,--,--,0.000,0.000
"Cholesterol",mg,--,--,0,0
Amino Acids
Other
Ingredients
"WATER, HIGH FRUCTOSE CORN SYRUP, CITRIC ACID, NATURAL AND ARTIFICIAL FLAVORING, ARTIFICIAL COLORING, (CONTAINS BLUE 1, GREEN 3, RED 40, YELLOW 5 AND YELLOW 6), VEGETABLE GUMS, LESS THAN 1/10TH OF 1% OF POTASSIUM SORBATE & BENZOATE OF SODA AS PRESERVATIVES." Date available: 10/13/2017 Date last updated by company: 10/13/2017
