Source: USDA Branded Food Products Database Release December 2017 Software v.3.8.6.4 2017-10-02
Report Run at: December 17, 2017 12:14 EST
"Nutrient data for: 45325584, FRENCH ONION DIP, UPC: 094776177882"
Food Group:  Branded Food Products Database
Common Name:

Nutrient,Unit,Data points,Std. Error,"2.0 Tbsp = 28.0g",1Value per 100 g,
Proximates
"Energy",kcal,--,--,20,71
"Protein",g,--,--,0.00,0.00
"Total lipid (fat)",g,--,--,1.50,5.36
"Carbohydrate, by difference",g,--,--,2.00,7.14
"Fiber, total dietary",g,--,--,0.0,0.0
"Sugars, total",g,--,--,1.00,3.57
Minerals
"Calcium, Ca",mg,--,--,17,61
"Iron, Fe",mg,--,--,0.00,0.00
"Potassium, K",mg,--,--,36,129
"Sodium, Na",mg,--,--,130,464
Vitamins
"Vitamin D",IU,--,--,0,0
Lipids
"Fatty acids, total saturated",g,--,--,1.000,3.570
"Fatty acids, total trans",g,--,--,0.000,0.000
"Cholesterol",mg,--,--,0,0
Amino Acids
Other
Ingredients
"SKIM MILK, COCONUT OIL, MODIFIED CORN STARCH, SALT, DEHYDRATED ONION & GARLIC, LACTIC ACID, MONO & DIGLYCERIDES, DEXTROSE, CITRUS FIBER, MODIFIED POTATO STARCH, MONOSODIUM GLUTAMATE, CITRIC ACID, LOCUST BEAN GUM, POTASSIUM SORBATE (PRESERVATIVE), SUNFLOWER LECITHIN, PARSLEY, GUAR GUM, NATURAL & ARTIFICIAL FLAVORS, XANTHAN GUM, CARRAGEENAN." Date available: 09/26/2017 Date last updated by company: 09/26/2017
