Source: USDA Branded Food Products Database Release December 2017 Software v.3.8.6.4 2017-10-02
Report Run at: December 17, 2017 12:05 EST
"Nutrient data for: 45296242, FRENCH DRESSING, UPC: 041318200362"
Food Group:  Branded Food Products Database
Common Name:

Nutrient,Unit,Data points,Std. Error,"2.0 Tbsp = 30.0g",1Value per 100 g,
Proximates
"Energy",kcal,--,--,140,467
"Protein",g,--,--,1.00,3.33
"Total lipid (fat)",g,--,--,13.00,43.33
"Carbohydrate, by difference",g,--,--,6.00,20.00
"Fiber, total dietary",g,--,--,0.0,0.0
"Sugars, total",g,--,--,6.00,20.00
Minerals
"Calcium, Ca",mg,--,--,0,0
"Iron, Fe",mg,--,--,0.00,0.00
"Sodium, Na",mg,--,--,230,767
Vitamins
"Vitamin C, total ascorbic acid",mg,--,--,0.0,0.0
"Vitamin A, IU",IU,--,--,166,555
Lipids
"Fatty acids, total saturated",g,--,--,2.001,6.670
"Fatty acids, total trans",g,--,--,0.000,0.000
"Cholesterol",mg,--,--,0,0
Amino Acids
Other
Ingredients
"SOYBEAN OIL, HIGH FRUCTOSE CORN SYRUP, DISTILLED VINEGAR, TOMATO PUREE (WATER, TOMATO PASTE), SKIM MILK, CONTAINS LESS THAN 2% OF: SALT, PAPRIKA, DRIED GARLIC, CITRIC ACID, XANTHAN GUM, PROPYLENE GLYCOL ALGINATE, YELLOW 6, YELLOW 5, POTASSIUM SORBATE AND CALCIUM DISODIUM EDTA (AS PRESERVATIVES)." Date available: 07/14/2017 Date last updated by company: 07/14/2017
