Source: USDA Branded Food Products Database Release December 2017 Software v.3.8.6.4 2017-10-02
Report Run at: December 17, 2017 12:04 EST
"Nutrient data for: 45234156, FRENCH DRESSING, UPC: 041250828365"
Food Group:  Branded Food Products Database
Common Name:

Nutrient,Unit,Data points,Std. Error,"2.0 Tbsp = 30.0g",1Value per 100 g,
Proximates
"Energy",kcal,--,--,150,500
"Protein",g,--,--,0.00,0.00
"Total lipid (fat)",g,--,--,14.00,46.67
"Carbohydrate, by difference",g,--,--,6.00,20.00
"Fiber, total dietary",g,--,--,0.0,0.0
"Sugars, total",g,--,--,5.00,16.67
Minerals
"Calcium, Ca",mg,--,--,0,0
"Iron, Fe",mg,--,--,0.00,0.00
"Sodium, Na",mg,--,--,270,900
Vitamins
"Vitamin C, total ascorbic acid",mg,--,--,0.0,0.0
"Vitamin A, IU",IU,--,--,0,0
Lipids
"Fatty acids, total saturated",g,--,--,2.001,6.670
"Fatty acids, total trans",g,--,--,0.000,0.000
"Cholesterol",mg,--,--,0,0
Amino Acids
Other
Ingredients
"SOYBEAN OIL, DISTILLED VINEGAR, SUGAR, WATER, SALT, CONTAINS LESS THAN 2% PAPRIKA, XANTHAN GUM, WHEY PROTEIN CONCENTRATE, DRIED GARLIC, OLEORESIN PAPRIKA (COLOR), PROPYLENE GLYCOL ALGINATE, POLYSORBATE 60, YELLOW 5, WITH POTASSIUM SORBATE, SODIUM BENZOATE AND CALCIUM DISODIUM EDTA (TO PROTECT FLAVOR)." Date available: 07/14/2017 Date last updated by company: 07/14/2017
