Source: USDA Branded Food Products Database Release December 2017 Software v.3.8.6.4 2017-10-02
Report Run at: December 17, 2017 12:08 EST
"Nutrient data for: 45287814, FRENCH FRIED POTATOES, UPC: 079893407562"
Food Group:  Branded Food Products Database
Common Name:

Nutrient,Unit,Data points,Std. Error,"7.0 -8 PIECES) | ( = 84.0g",1Value per 100 g,
Proximates
"Energy",kcal,--,--,120,143
"Protein",g,--,--,2.00,2.38
"Total lipid (fat)",g,--,--,2.50,2.98
"Carbohydrate, by difference",g,--,--,22.00,26.19
"Fiber, total dietary",g,--,--,3.0,3.6
"Sugars, total",g,--,--,1.00,1.19
Minerals
"Calcium, Ca",mg,--,--,17,20
"Iron, Fe",mg,--,--,0.70,0.83
"Potassium, K",mg,--,--,430,512
"Sodium, Na",mg,--,--,25,30
Vitamins
"Vitamin D",IU,--,--,0,0
Lipids
"Fatty acids, total saturated",g,--,--,0.000,0.000
"Fatty acids, total trans",g,--,--,0.000,0.000
"Cholesterol",mg,--,--,0,0
Amino Acids
Other
Ingredients
"ORGANIC POTATOES, ORGANIC EXPELLER PRESSED CANOLA OIL, ORGANIC APPLE JUICE CONCENTRATE (TO PROMOTE BROWNING), CITRIC ACID (TO PROMOTE COLOR RETENTION)." Date available: 09/22/2017 Date last updated by company: 09/22/2017
