Source: USDA Branded Food Products Database Release December 2017 Software v.3.8.6.4 2017-10-02
Report Run at: December 17, 2017 12:15 EST
"Nutrient data for: 45118948, FRENCH ONION SOUP CREAM DIP, UPC: 708820688728"
Food Group:  Branded Food Products Database
Common Name:

Nutrient,Unit,Data points,Std. Error,"2.0 Tbsp = 30.0g",1Value per 100 g,
Proximates
"Energy",kcal,--,--,60,200
"Protein",g,--,--,1.00,3.33
"Total lipid (fat)",g,--,--,5.00,16.67
"Carbohydrate, by difference",g,--,--,2.00,6.67
"Fiber, total dietary",g,--,--,0.0,0.0
"Sugars, total",g,--,--,1.00,3.33
Minerals
"Calcium, Ca",mg,--,--,20,67
"Iron, Fe",mg,--,--,0.00,0.00
"Potassium, K",mg,--,--,45,150
"Sodium, Na",mg,--,--,250,833
Vitamins
"Vitamin C, total ascorbic acid",mg,--,--,0.0,0.0
"Vitamin A, IU",IU,--,--,334,1112
Lipids
"Fatty acids, total saturated",g,--,--,3.000,10.000
"Fatty acids, total trans",g,--,--,0.000,0.000
"Cholesterol",mg,--,--,20,67
Amino Acids
Other
Ingredients
"CULTURED MILK AND CREAM, CONTAINS LESS THAN 2% OF THE FOLLOWING: SALT, MONOSODIUM GLUTAMATE, YEAST EXTRACT, DEHYDRATED ONION, SUGAR, XANTHAN GUM, ONION POWDER, LOCUST BEAN GUM, SPICE, POTASSIUM SORBATE (PRESERVATIVE), HYDROLYZED YEAST PROTEIN, GUAR GUM, NATURAL FLAVORS, CANOLA OIL." Date available: 07/14/2017 Date last updated by company: 07/14/2017
