Source: USDA Branded Food Products Database Release December 2017 Software v.3.8.6.4 2017-10-02
Report Run at: December 17, 2017 12:29 EST
"Nutrient data for: 45330498, FRENCH TOAST BAGELS, UPC: 086854066294"
Food Group:  Branded Food Products Database
Common Name:

Nutrient,Unit,Data points,Std. Error,"1 BAGEL = 81.0g",1Value per 100 g,
Proximates
"Energy",kcal,--,--,210,259
"Protein",g,--,--,7.00,8.64
"Total lipid (fat)",g,--,--,1.00,1.23
"Carbohydrate, by difference",g,--,--,44.00,54.32
"Fiber, total dietary",g,--,--,3.0,3.7
"Sugars, total",g,--,--,6.00,7.41
Minerals
"Calcium, Ca",mg,--,--,100,123
"Iron, Fe",mg,--,--,3.67,4.53
"Sodium, Na",mg,--,--,380,469
Vitamins
"Vitamin C, total ascorbic acid",mg,--,--,0.0,0.0
"Vitamin A, IU",IU,--,--,0,0
Lipids
"Fatty acids, total saturated",g,--,--,0.000,0.000
"Fatty acids, total monounsaturated",g,--,--,0.000,0.000
"Fatty acids, total polyunsaturated",g,--,--,0.000,0.000
"Fatty acids, total trans",g,--,--,0.000,0.000
"Cholesterol",mg,--,--,0,0
Amino Acids
Other
Ingredients
"UNBLEACHED ENRICHED FLOUR (WHEAT FLOUR, MALTED BARLEY FLOUR, NIACIN, REDUCED IRON, THIAMINE MONONITRATE, RIBOFLAVIN, FOLIC ACID), WATER, WHOLE WHEAT FLOUR, SUGAR, YEAST, CONTAINS LESS THAN 2% OF EACH OF THE FOLLOWING: SALT, CARAMEL COLOR, WHEAT GLUTEN, PROPYLENE GLYCOL, WHEAT FLOUR, MOLASSES, GUAR GUM, CALCIUM PROPIONATE PRESERVATIVE, MONOGLYCERIDES, CINNAMON, DEGERMINATED YELLOW CORN FLOUR, NATURAL AND ARTIFICIAL FLAVORS, ENZYMES, DEXTROSE, CARAMEL COLOR WITH SULFITES, DEGERMINATED YELLOW CORN MEAL, SUCRALOSE, ANNATTO EXTRACT COLOR, TURMERIC OLEORESIN COLOR, XANTHAN GUM, SODIUM BISULFITE PRESERVATIVE, ASCORBIC ACID PRESERVATIVE. ASCORBIC ACID ADDED AS A DOUGH CONDITIONER, CITRIC ACID PRESERVATIVE, MICROCRYSTALLINE CELLULOSE, CORN STARCH." Date available: 10/13/2017 Date last updated by company: 10/13/2017
