Source: USDA Branded Food Products Database Release December 2017 Software v.3.8.6.4 2017-10-02
Report Run at: December 17, 2017 12:14 EST
"Nutrient data for: 45211118, FRENCH ONION GREEK YOGURT DIP, UPC: 075365060525"
Food Group:  Branded Food Products Database
Common Name:

Nutrient,Unit,Data points,Std. Error,"2.0 Tbsp = 28.0g",1Value per 100 g,
Proximates
"Energy",kcal,--,--,35,125
"Protein",g,--,--,2.00,7.14
"Total lipid (fat)",g,--,--,1.50,5.36
"Carbohydrate, by difference",g,--,--,2.00,7.14
"Fiber, total dietary",g,--,--,0.0,0.0
"Sugars, total",g,--,--,1.00,3.57
Minerals
"Calcium, Ca",mg,--,--,60,214
"Iron, Fe",mg,--,--,0.00,0.00
"Sodium, Na",mg,--,--,160,571
Vitamins
"Vitamin C, total ascorbic acid",mg,--,--,0.0,0.0
"Vitamin A, IU",IU,--,--,0,0
Lipids
"Fatty acids, total saturated",g,--,--,0.000,0.000
"Fatty acids, total trans",g,--,--,0.000,0.000
"Cholesterol",mg,--,--,5,18
Amino Acids
Other
Ingredients
"GREEK YOGURT [PASTEURIZED GRADE A SKIM MILK, MILK PROTEIN CONCENTRATE, CREAM, PECTIN, ENZYMES, ACTIVE YOGURT CULTURES], ONIONS, OLIVE OIL, CONTAINS 2% OR LESS OF: GARLIC PUREE (GARLIC, CITRIC ACID), CULTURED SUGAR, NATURAL FLAVOR, SALT, DEHYDRATED ONIONS, CORN STARCH, SUGAR, SPICES, CARAMEL COLOR, XANTHAN GUM." Date available: 07/14/2017 Date last updated by company: 07/14/2017
