Source: USDA Branded Food Products Database Release December 2017 Software v.3.8.6.4 2017-10-02
Report Run at: December 17, 2017 12:20 EST
"Nutrient data for: 45141178, FRENCH'S, CRISPY FRIED ONIONS, ORIGINAL, UPC: 041500220062"
Food Group:  Branded Food Products Database
Common Name:

Nutrient,Unit,Data points,Std. Error,"2.0 Tbsp = 7.0g",1Value per 100 g,
Proximates
"Energy",kcal,--,--,45,643
"Protein",g,--,--,0.00,0.00
"Total lipid (fat)",g,--,--,3.50,50.00
"Carbohydrate, by difference",g,--,--,3.00,42.86
"Fiber, total dietary",g,--,--,0.0,0.0
"Sugars, total",g,--,--,0.00,0.00
Minerals
"Sodium, Na",mg,--,--,60,857
Vitamins
Lipids
"Fatty acids, total saturated",g,--,--,2.000,28.570
"Fatty acids, total trans",g,--,--,0.000,0.000
"Cholesterol",mg,--,--,0,0
Amino Acids
Other
Ingredients
"ONIONS, PALM OIL, WHEAT FLOUR, SALT AND DEXTROSE." Date available: 07/14/2017 Date last updated by company: 07/14/2017
