Source: USDA Branded Food Products Database Release December 2017 Software v.3.8.6.4 2017-10-02
Report Run at: December 17, 2017 12:01 EST
"Nutrient data for: 45192821, FRENCH CREPES, UPC: 850357004431"
Food Group:  Branded Food Products Database
Common Name:

Nutrient,Unit,Data points,Std. Error,"1 CREPE = 32.0g",1Value per 100 g,
Proximates
"Energy",kcal,--,--,100,312
"Protein",g,--,--,2.00,6.25
"Total lipid (fat)",g,--,--,1.50,4.69
"Carbohydrate, by difference",g,--,--,20.00,62.50
"Fiber, total dietary",g,--,--,1.0,3.1
"Sugars, total",g,--,--,13.00,40.62
Minerals
"Calcium, Ca",mg,--,--,20,62
"Iron, Fe",mg,--,--,0.00,0.00
"Sodium, Na",mg,--,--,130,406
Vitamins
"Vitamin C, total ascorbic acid",mg,--,--,0.0,0.0
"Vitamin A, IU",IU,--,--,0,0
Lipids
"Fatty acids, total saturated",g,--,--,0.499,1.560
"Fatty acids, total trans",g,--,--,0.000,0.000
"Cholesterol",mg,--,--,10,31
Amino Acids
Other
Ingredients
"CREPE: WHEAT FLOUR, SUGAR, EGGS, WATER, DEXTROSE, CONCENTRATED BUTTER, NONFAT MILK, WHEAT GLUTEN, SALT. FILLING: SUGAR, STRAWBERRY PUREE CONCENTRATE, WHEAT SYRUP, GLYCERIN, PECTIN, NATURAL FLAVOR, CITRIC ACID, SODIUM CITRATE, SALT." Date available: 07/14/2017 Date last updated by company: 07/14/2017
