Source: USDA Branded Food Products Database Release December 2017 Software v.3.8.6.4 2017-10-02
Report Run at: December 17, 2017 12:16 EST
"Nutrient data for: 45211913, FRENCH QUARTER CREOLE SEASONING, UPC: 604485507841"
Food Group:  Branded Food Products Database
Common Name:

Nutrient,Unit,Data points,Std. Error,"10.0 GRM = 10.0g",1Value per 100 g,
Proximates
"Energy",kcal,--,--,7,73
"Protein",g,--,--,0.20,2.00
"Total lipid (fat)",g,--,--,0.20,2.00
"Carbohydrate, by difference",g,--,--,1.30,13.00
"Fiber, total dietary",g,--,--,0.5,5.0
Minerals
"Calcium, Ca",mg,--,--,9,87
"Iron, Fe",mg,--,--,0.20,2.00
"Sodium, Na",mg,--,--,3047,30466
Vitamins
"Vitamin C, total ascorbic acid",mg,--,--,0.6,6.0
"Vitamin A, IU",IU,--,--,448,4476
Lipids
Amino Acids
Other
Ingredients
"SALT, SPICES, DEHYDRATED GARLIC & SILICON DIOXIDE ADDED TO PREVENT CAKING." Date available: 07/14/2017 Date last updated by company: 07/14/2017
