Source: USDA Branded Food Products Database Release December 2017 Software v.3.8.6.4 2017-10-02
Report Run at: December 17, 2017 12:29 EST
"Nutrient data for: 45054254, FRENCH TOAST BITES, UPC: 041497034611"
Food Group:  Branded Food Products Database
Common Name:

Nutrient,Unit,Data points,Std. Error,"15.0 BITES, PER CONTAINER = 110.0g",1Value per 100 g,
Proximates
"Energy",kcal,--,--,330,300
"Protein",g,--,--,5.00,4.55
"Total lipid (fat)",g,--,--,16.00,14.55
"Carbohydrate, by difference",g,--,--,46.00,41.82
"Fiber, total dietary",g,--,--,2.0,1.8
"Sugars, total",g,--,--,16.00,14.55
Minerals
"Calcium, Ca",mg,--,--,40,36
"Iron, Fe",mg,--,--,1.80,1.64
"Sodium, Na",mg,--,--,320,291
Vitamins
"Vitamin C, total ascorbic acid",mg,--,--,0.0,0.0
"Vitamin A, IU",IU,--,--,0,0
Lipids
"Fatty acids, total saturated",g,--,--,2.497,2.270
"Fatty acids, total trans",g,--,--,0.000,0.000
"Cholesterol",mg,--,--,15,14
Amino Acids
Other
Ingredients
"ENRICHED FLOUR (FLOUR, MALTED BARLEY FLOUR, NIACIN, REDUCED IRON, THIAMIN MONONITRATE, RIBOFLAVIN, FOLIC ACID), WATER, BLEACHED WHEAT FLOUR, SOYBEAN OIL, SUGAR, DEXTROSE. CONTAINS 2% OR LESS OF EACH OF THE FOLLOWING: CINNAMON, EGG, HIGH FRUCTOSE CORN SYRUP, YEAST, YELLOW CORN FLOUR, CORN SYRUP SOLIDS, FLAVORINGS, SALT, MODIFIED FOOD STARCH, LEAVENING (SODIUM BICARBONATE, SODIUM ALUMINUM PHOSPHATE), NONFAT MILK, ARTIFICIAL FLAVOR. SPICE, COTTONSEED OIL, VITAL WHEAT GLUTEN, DATEM, SOY FLOUR, NATURAL FLAVOR, MONO AND DIGLYCERIDES, SODIUM STEROYL LACTILATE, ASCORBIC ACID, POTASSIUM IODATE, AZODICARBONAMIDE, POTASSIUM BROMATE, PHOSPHORIC ACID, PROPIONIC ACID, POLYSORBATE 60, MONOCALCIUM PHOSPHATE, SOY LECITHIN, CALCIUM SULFATE, AMMONIUM SULFATE, PAPRIKA, GUAR GUM, TURMERIC, CALCIUM PEROXIDE, CALCIUM PROPIONATE (A PRESERVATIVE)." Date available: 08/15/2017 Date last updated by company: 08/15/2017
