Source: USDA Branded Food Products Database Release December 2017 Software v.3.8.6.4 2017-10-02
Report Run at: December 17, 2017 12:35 EST
"Nutrient data for: 45051927, FRESCHETTA, BRICK OVEN, CRUST ZESTY ITALIAN STYLE PIZZA, SUPREME, UPC: 072180630551"
Food Group:  Branded Food Products Database
Common Name:

Nutrient,Unit,Data points,Std. Error,"0.2 PIZZA = 132.0g",1Value per 100 g,
Proximates
"Energy",kcal,--,--,310,235
"Protein",g,--,--,12.00,9.09
"Total lipid (fat)",g,--,--,15.00,11.36
"Carbohydrate, by difference",g,--,--,33.00,25.00
"Fiber, total dietary",g,--,--,2.0,1.5
"Sugars, total",g,--,--,9.00,6.82
Minerals
"Calcium, Ca",mg,--,--,150,114
"Iron, Fe",mg,--,--,2.65,2.01
"Potassium, K",mg,--,--,210,159
"Sodium, Na",mg,--,--,780,591
Vitamins
"Vitamin C, total ascorbic acid",mg,--,--,5.3,4.0
"Vitamin A, IU",IU,--,--,444,336
Lipids
"Fatty acids, total saturated",g,--,--,5.003,3.790
"Fatty acids, total trans",g,--,--,0.000,0.000
"Cholesterol",mg,--,--,25,19
Amino Acids
Other
Ingredients
"ENRICHED FLOUR (WHEAT FLOUR, MALTED BARLEY FLOUR, NIACIN, REDUCED IRON, THIAMINE MONONITRATE, RIBOFLAVIN, FOLIC ACID), TOMATOES (WATER, TOMATO PASTE), LOW MOISTURE PART SKIM MOZZARELLA CHEESE (CULTURED PASTEURIZED PART SKIM MILK, SALT, ENZYMES), WATER, COOKED ITALIAN SAUSAGE (PORK, SPICES, SALT, FLAVORINGS, SUGAR), BELL PEPPERS, SOYBEAN OIL, PEPPERONI (PORK, BEEF, SALT, WATER, PAPRIKA, DEXTROSE, NATURAL SPICES, SMOKE FLAVORING, LACTIC ACID STARTER CULTURE, SODIUM ASCORBATE (VITAMIN C), FLAVORING, GARLIC POWDER, SODIUM NITRITE, BHA, BHT, CITRIC ACID), YELLOW PEPPERS, CONTAINS 2% OR LESS OF: YEAST, BLEACHED WHEAT FLOUR, GARLIC, RED ONIONS, SUGAR, SALT, MODIFIED FOOD STARCH, GUAR GUM, DEXTROSE, OAT FIBER, SEA SALT, WHEAT GLUTEN, BAKING POWDER (SODIUM ACID PYROPHOSPHATE, SODIUM BICARBONATE, MONOCALCIUM PHOSPHATE), ONION, SPICE, MONO- AND DIGLYCERIDES, DEHYDRATED ROMANO CHEESE (CULTURED PASTEURIZED SHEEP'S AND COW'S MILK, SALT, ENZYMES), GARLIC POWDER, PAPRIKA, DEFATTED SOY FLOUR, CANOLA OIL, OLIVE OIL, NATURAL FLAVOR, ENZYMES (CONTAINS WHEAT), SODIUM STEAROYL LACTYLATE, L-CYSTEINE." Date available: 07/14/2017 Date last updated by company: 07/14/2017
