Source: USDA Branded Food Products Database Release December 2017 Software v.3.8.6.4 2017-10-02
Report Run at: December 17, 2017 12:47 EST
"Nutrient data for: 45264310, FRESH CULTURED LOWFAT BUTTERMILK, UPC: 071043101153"
Food Group:  Branded Food Products Database
Common Name:

Nutrient,Unit,Data points,Std. Error,"1 cup = 240.0g",1Value per 100 g,
Proximates
"Energy",kcal,--,--,110,46
"Protein",g,--,--,9.00,3.75
"Total lipid (fat)",g,--,--,2.50,1.04
"Carbohydrate, by difference",g,--,--,13.01,5.42
"Fiber, total dietary",g,--,--,0.0,0.0
"Sugars, total",g,--,--,12.00,5.00
Minerals
"Calcium, Ca",mg,--,--,300,125
"Iron, Fe",mg,--,--,0.00,0.00
"Sodium, Na",mg,--,--,250,104
Vitamins
"Vitamin C, total ascorbic acid",mg,--,--,1.2,0.5
"Vitamin A, IU",IU,--,--,499,208
"Vitamin D",IU,--,--,101,42
Lipids
"Fatty acids, total saturated",g,--,--,1.488,0.620
"Fatty acids, total trans",g,--,--,0.000,0.000
"Cholesterol",mg,--,--,10,4
Amino Acids
Other
Ingredients
"GRADE A CULTURED LOWFAT MILK, LOCUST BEAN GUM, MODIFIED CORN STARCH, CARRAGEENAN, SALT, SODIUM CITRATE, MONO AND DIGLYCERIDES, VITAMIN A PALMITATE AND VITAMIN D3 ADDED." Date available: 07/14/2017 Date last updated by company: 07/14/2017
