Source: USDA Branded Food Products Database Release December 2017 Software v.3.8.6.4 2017-10-02
Report Run at: December 17, 2017 13:16 EST
"Nutrient data for: 45269565, FRESH JUICE, UPC: 859168006214"
Food Group:  Branded Food Products Database
Common Name:

Nutrient,Unit,Data points,Std. Error,"8.0 OZA = 240.0g",1Value per 100 g,
Proximates
"Energy",kcal,--,--,110,46
"Protein",g,--,--,1.01,0.42
"Total lipid (fat)",g,--,--,0.65,0.27
"Carbohydrate, by difference",g,--,--,28.01,11.67
"Fiber, total dietary",g,--,--,1.9,0.8
"Sugars, total",g,--,--,21.00,8.75
Minerals
"Calcium, Ca",mg,--,--,41,17
"Iron, Fe",mg,--,--,1.44,0.60
"Potassium, K",mg,--,--,149,62
"Sodium, Na",mg,--,--,10,4
Vitamins
"Vitamin C, total ascorbic acid",mg,--,--,4.8,2.0
"Vitamin A, IU",IU,--,--,11501,4792
Lipids
"Fatty acids, total saturated",g,--,--,0.192,0.080
"Fatty acids, total trans",g,--,--,0.000,0.000
"Cholesterol",mg,--,--,0,0
Amino Acids
Other
Ingredients
"APPLE JUICE, PUMPKIN PUREE, FILTERED WATER, ORGANIC MAPLE SYRUP, GINGER JUICE, PUMPKIN PIE SPICE AND LEMON JUICE" Date available: 07/14/2017 Date last updated by company: 07/14/2017
