Source: USDA Branded Food Products Database Release December 2017 Software v.3.8.6.4 2017-10-02
Report Run at: December 17, 2017 13:40 EST
"Nutrient data for: 45179782, FRESH SPINACH & FETA CHEESE FOCACCIA BREAD, UPC: 786832614218"
Food Group:  Branded Food Products Database
Common Name:

Nutrient,Unit,Data points,Std. Error,"1 PIECE = 113.0g",1Value per 100 g,
Proximates
"Energy",kcal,--,--,350,310
"Protein",g,--,--,12.00,10.62
"Total lipid (fat)",g,--,--,4.50,3.98
"Carbohydrate, by difference",g,--,--,63.00,55.75
"Fiber, total dietary",g,--,--,4.0,3.5
"Sugars, total",g,--,--,4.00,3.54
Minerals
"Calcium, Ca",mg,--,--,150,133
"Iron, Fe",mg,--,--,2.38,2.11
"Sodium, Na",mg,--,--,580,513
Vitamins
"Vitamin C, total ascorbic acid",mg,--,--,1.0,0.9
"Vitamin A, IU",IU,--,--,88,78
Lipids
"Fatty acids, total saturated",g,--,--,1.503,1.330
"Fatty acids, total trans",g,--,--,0.000,0.000
"Cholesterol",mg,--,--,5,4
Amino Acids
Other
Ingredients
"ENRICHED BROMATED WHEAT FLOUR BLEACHED (WHEAT FLOUR, MALTED BARLEY FLOUR, NIACIN, IRON, POTASSIUM BROMATE, THIAMIN MONONITRATE, RIBOFLAVIN, FOLIC ACID), WATER, OLIVE OIL, SUGAR, SALT, YEAST, GARLIC POWDER, FETA CHEESE, SPINACH, HERBS." Date available: 07/14/2017 Date last updated by company: 07/14/2017
