Source: USDA Branded Food Products Database Release December 2017 Software v.3.8.6.4 2017-10-02
Report Run at: December 17, 2017 13:31 EST
"Nutrient data for: 45162807, FRESH PACK ALMONDS, UPC: 019646001241"
Food Group:  Branded Food Products Database
Common Name:

Nutrient,Unit,Data points,Std. Error,"30.0 GRM = 30.0g",1Value per 100 g,
Proximates
"Energy",kcal,--,--,206,687
"Protein",g,--,--,4.00,13.33
"Total lipid (fat)",g,--,--,10.00,33.33
"Carbohydrate, by difference",g,--,--,25.00,83.33
"Fiber, total dietary",g,--,--,2.0,6.7
"Sugars, total",g,--,--,22.00,73.33
Minerals
"Calcium, Ca",mg,--,--,60,200
"Iron, Fe",mg,--,--,1.80,6.00
"Sodium, Na",mg,--,--,70,233
Vitamins
Lipids
"Fatty acids, total saturated",g,--,--,0.999,3.330
"Fatty acids, total trans",g,--,--,0.000,0.000
"Cholesterol",mg,--,--,0,0
Amino Acids
Other
Ingredients
"SUGAR, ALMONDS, CINNAMON, BUTTER (CREAM {MILK}, SALT) SALT." Date available: 10/13/2017 Date last updated by company: 10/13/2017
