Source: USDA Branded Food Products Database Release December 2017 Software v.3.8.6.4 2017-10-02
Report Run at: December 17, 2017 13:39 EST
"Nutrient data for: 45220488, FRESH SICILIAN SAUSAGE, UPC: 606995001239"
Food Group:  Branded Food Products Database
Common Name:

Nutrient,Unit,Data points,Std. Error,"1 COOKED LINK = 81.0g",1Value per 100 g,
Proximates
"Energy",kcal,--,--,200,247
"Protein",g,--,--,11.00,13.58
"Total lipid (fat)",g,--,--,17.00,20.99
"Carbohydrate, by difference",g,--,--,2.00,2.47
"Fiber, total dietary",g,--,--,0.0,0.0
"Sugars, total",g,--,--,1.00,1.23
Minerals
"Calcium, Ca",mg,--,--,40,49
"Iron, Fe",mg,--,--,8.55,10.56
"Sodium, Na",mg,--,--,480,593
Vitamins
"Vitamin C, total ascorbic acid",mg,--,--,10.2,12.6
"Vitamin A, IU",IU,--,--,0,0
Lipids
"Fatty acids, total saturated",g,--,--,6.002,7.410
"Fatty acids, total trans",g,--,--,0.000,0.000
"Cholesterol",mg,--,--,210,259
Amino Acids
Other
Ingredients
"PORK, WATER, SALT, SODIUM LACTATE, ROMANO CHEESE (MILK, CHEESE CULTURES, SALT, ENZYMES), PARMESAN CHEESE (MILK, CHEESE CULTURES, SALT, ENZYMES), ONIONS, BELL PEPPERS, DEHYDRATED GARLIC, PAPRIKA." Date available: 07/14/2017 Date last updated by company: 07/14/2017
