Source: USDA Branded Food Products Database Release December 2017 Software v.3.8.6.4 2017-10-02
Report Run at: December 17, 2017 13:54 EST
"Nutrient data for: 45043771, FRIENDLY'S, ICE CREAM CONE, VANILLA KRUNCH, UPC: 029839100194"
Food Group:  Branded Food Products Database
Common Name:

Nutrient,Unit,Data points,Std. Error,"1 CONE = 92.0g",1Value per 100 g,
Proximates
"Energy",kcal,--,--,270,293
"Protein",g,--,--,3.00,3.26
"Total lipid (fat)",g,--,--,14.00,15.22
"Carbohydrate, by difference",g,--,--,36.00,39.13
"Fiber, total dietary",g,--,--,1.0,1.1
"Sugars, total",g,--,--,24.00,26.09
Minerals
"Calcium, Ca",mg,--,--,80,87
"Iron, Fe",mg,--,--,0.19,0.21
"Sodium, Na",mg,--,--,115,125
Vitamins
"Vitamin C, total ascorbic acid",mg,--,--,0.0,0.0
"Vitamin A, IU",IU,--,--,109,118
Lipids
"Fatty acids, total saturated",g,--,--,8.998,9.780
"Fatty acids, total trans",g,--,--,0.000,0.000
"Cholesterol",mg,--,--,25,27
Amino Acids
Other
Ingredients
"VANILLA ICE CREAM INGREDIENTS: MILK, CREAM, SUGAR, SKIM MILK SOLIDS, CORN SYRUP, WHEY, MONO AND DIGLYCERIDES, GUAR GUM, CELLULOSE GUM, CARRAGEENAN, VANILLA EXTRACT., CHOCOLATE FLAVORED COATING INGREDIENTS: SUGAR, COCONUT OIL, COCOA, WHEY, MILK, SKIM MILK, COCOA (PROCESSED WITH ALKALI), SOYBEAN OIL, HYDROGENATED PALM OIL, PALM OIL, SOY LECITHIN, NATURAL AND ARTIFICIAL FLAVOR., CHOCOLATE FLAVORED CRUNCH INGREDIENTS: BLEACHED WHEAT FLOUR, SUGAR, COCOA (PROCESSED WITH ALKALI), PALM OIL, CORN SYRUP, CORN FLOUR, SOY LECITHIN, BAKING SODA, SALT, NATURAL AND ARTIFICIAL FLAVORS., SUGAR CONE INGREDIENTS: BLEACHED WHEAT FLOUR, SUGAR, SOYBEAN OIL, PALM OIL, SOY LECITHIN, SALT, CARAMEL (COLOR), ARTIFICIAL FLAVOR." Date available: 06/24/2017 Date last updated by company: 06/24/2017
