Source: USDA Branded Food Products Database Release December 2017 Software v.3.8.6.4 2017-10-02
Report Run at: December 17, 2017 13:56 EST
"Nutrient data for: 45030140, FRIENDLY'S, PREMIUM ICE CREAM, RICH & CREAMY COFFEE, UPC: 029839005222"
Food Group:  Branded Food Products Database
Common Name:

Nutrient,Unit,Data points,Std. Error,"0.5 cup = 66.0g",1Value per 100 g,
Proximates
"Energy",kcal,--,--,130,197
"Protein",g,--,--,3.00,4.55
"Total lipid (fat)",g,--,--,7.00,10.61
"Carbohydrate, by difference",g,--,--,15.00,22.73
"Fiber, total dietary",g,--,--,0.0,0.0
"Sugars, total",g,--,--,13.00,19.70
Minerals
"Calcium, Ca",mg,--,--,60,91
"Iron, Fe",mg,--,--,0.00,0.00
"Sodium, Na",mg,--,--,40,61
Vitamins
"Vitamin C, total ascorbic acid",mg,--,--,0.0,0.0
"Vitamin A, IU",IU,--,--,337,511
Lipids
"Fatty acids, total saturated",g,--,--,4.000,6.060
"Fatty acids, total trans",g,--,--,0.000,0.000
"Cholesterol",mg,--,--,25,38
Amino Acids
Other
Ingredients
"MILK, CREAM, SKIM MILK, SUGAR, CORN SYRUP, COFFEE EXTRACT, WHEY PROTEIN CONCENTRATE, WHEY, BUTTERMILK, GUAR GUM, MONO AND DIGLYCERIDES, XANTHAN GUM, CARRAGEENAN." Date available: 07/14/2017 Date last updated by company: 07/14/2017
