Source: USDA Branded Food Products Database Release December 2017 Software v.3.8.6.4 2017-10-02
Report Run at: December 17, 2017 13:53 EST
"Nutrient data for: 45274250, FRIED RICE, UPC: 782796019458"
Food Group:  Branded Food Products Database
Common Name:

Nutrient,Unit,Data points,Std. Error,"0.5 CONTAINER = 255.0g",1Value per 100 g,
Proximates
"Energy",kcal,--,--,360,141
"Protein",g,--,--,14.00,5.49
"Total lipid (fat)",g,--,--,5.00,1.96
"Carbohydrate, by difference",g,--,--,64.00,25.10
"Fiber, total dietary",g,--,--,3.1,1.2
"Sugars, total",g,--,--,5.99,2.35
Minerals
"Calcium, Ca",mg,--,--,61,24
"Iron, Fe",mg,--,--,0.99,0.39
"Sodium, Na",mg,--,--,1201,471
Vitamins
"Vitamin C, total ascorbic acid",mg,--,--,2.5,1.0
"Vitamin A, IU",IU,--,--,166,65
Lipids
"Fatty acids, total saturated",g,--,--,1.504,0.590
"Fatty acids, total trans",g,--,--,0.000,0.000
"Cholesterol",mg,--,--,56,22
Amino Acids
Other
Ingredients
"FRIED RICE (SEASONED RICE [COOKED WHITE RICE (WATER, RICE), SOY SAUCE (WATER, WHEAT, SOYBEANS, SALT), SUGAR, CANOLA AND/OR CORN OIL, SALT, SOY LECITHIN, CARAMEL COLOR, SESAME SEED OIL, DISODIUM INOSINATE, DISODIUM GUANYLATE], CARROTS, ONIONS, COOKED SCRAMBLED EGGS [WHOLE EGGS, NON FAT MILK, SOYBEAN OIL, MODIFIED FOOD STARCH, SALT, XANTHAN GUM, CITRIC ACID, NATURAL BUTTER FLAVOR [MALTODEXTRIN, NATURAL BUTTER FLAVOR, ANNATTO AND TURMERIC (ADDED FOR COLOR)], PEPPER], RED PEPPERS, GREEN PEAS, GREEN ONION." Date available: 07/14/2017 Date last updated by company: 07/14/2017
