Source: USDA Branded Food Products Database Release December 2017 Software v.3.8.6.4 2017-10-02
Report Run at: December 17, 2017 14:02 EST
"Nutrient data for: 45203649, FRIGO, CHEESE HEADS, SUPERSTRING SWIRLS CHEESE, UPC: 041716815908"
Food Group:  Branded Food Products Database
Common Name:

Nutrient,Unit,Data points,Std. Error,"1 PIECE = 24.0g",1Value per 100 g,
Proximates
"Energy",kcal,--,--,70,292
"Protein",g,--,--,5.00,20.83
"Total lipid (fat)",g,--,--,5.00,20.83
"Carbohydrate, by difference",g,--,--,1.00,4.17
"Fiber, total dietary",g,--,--,0.0,0.0
"Sugars, total",g,--,--,0.00,0.00
Minerals
"Calcium, Ca",mg,--,--,200,833
"Iron, Fe",mg,--,--,0.00,0.00
"Sodium, Na",mg,--,--,170,708
Vitamins
"Vitamin C, total ascorbic acid",mg,--,--,0.0,0.0
"Vitamin A, IU",IU,--,--,1562,6510
"Vitamin D",IU,--,--,60,250
Lipids
"Fatty acids, total saturated",g,--,--,3.000,12.500
"Fatty acids, total trans",g,--,--,0.000,0.000
"Cholesterol",mg,--,--,10,42
Amino Acids
Other
Ingredients
"PASTEURIZED PART SKIM MILK, CREAM AND SKIM MILK, CHEESE CULTURES, SALT, CALCIUM PHOSPHATE, ENZYMES, ANNATTO COLOR, VITAMIN A PALMITATE, VITAMIN D." Date available: 07/14/2017 Date last updated by company: 07/14/2017
