Source: USDA Branded Food Products Database Release December 2017 Software v.3.8.6.4 2017-10-02
Report Run at: December 17, 2017 14:04 EST
"Nutrient data for: 45162988, FRITO LAY, SUNFLOWER SEEDS, ORIGINAL, UPC: 028400320405"
Food Group:  Branded Food Products Database
Common Name:

Nutrient,Unit,Data points,Std. Error,"28.0 G KERNEL WITH SALT ON SHELL/ABOUT 3 TBSP) | ( = 28.0g",1Value per 100 g,
Proximates
"Energy",kcal,--,--,190,679
"Protein",g,--,--,6.00,21.43
"Total lipid (fat)",g,--,--,16.00,57.14
"Carbohydrate, by difference",g,--,--,5.00,17.86
"Fiber, total dietary",g,--,--,3.0,10.7
"Sugars, total",g,--,--,1.00,3.57
Minerals
"Calcium, Ca",mg,--,--,20,71
"Iron, Fe",mg,--,--,1.08,3.86
"Sodium, Na",mg,--,--,90,321
Vitamins
"Vitamin C, total ascorbic acid",mg,--,--,0.0,0.0
"Vitamin A, IU",IU,--,--,0,0
Lipids
"Fatty acids, total saturated",g,--,--,1.999,7.140
"Fatty acids, total monounsaturated",g,--,--,6.000,21.430
"Fatty acids, total polyunsaturated",g,--,--,8.999,32.140
"Fatty acids, total trans",g,--,--,0.000,0.000
"Cholesterol",mg,--,--,0,0
Amino Acids
Other
Ingredients
"SUNFLOWER SEEDS AND SALT." Date available: 09/30/2016 Date last updated by company: 09/30/2016
