Source: USDA Branded Food Products Database Release December 2017 Software v.3.8.6.4 2017-10-02
Report Run at: December 17, 2017 14:09 EST
"Nutrient data for: 45085046, FRONTIER FLAPJACK AND WAFFLE MIX, UPC: 705599011122"
Food Group:  Branded Food Products Database
Common Name:

Nutrient,Unit,Data points,Std. Error,"4.0 """" FLAPJACKS | MAKES ABOUT THREE = 53.0g",1Value per 100 g,
Proximates
"Energy",kcal,--,--,190,358
"Protein",g,--,--,8.00,15.09
"Total lipid (fat)",g,--,--,1.50,2.83
"Carbohydrate, by difference",g,--,--,35.00,66.04
"Fiber, total dietary",g,--,--,5.0,9.4
"Sugars, total",g,--,--,2.00,3.77
Minerals
"Calcium, Ca",mg,--,--,60,113
"Iron, Fe",mg,--,--,1.09,2.05
"Sodium, Na",mg,--,--,390,736
Vitamins
"Vitamin C, total ascorbic acid",mg,--,--,0.0,0.0
"Vitamin A, IU",IU,--,--,0,0
Lipids
"Fatty acids, total saturated",g,--,--,0.000,0.000
"Cholesterol",mg,--,--,0,0
Amino Acids
Other
Ingredients
"100% WHOLE GRAIN WHEAT FLOUR, 100% WHOLE GRAIN OAT FLOUR, NON-FAT DRIED MILK, DRIED HONEY (HONEY, WHEAT STARCH), BAKING POWDER (MONOCALCIUM PHOSPHATE, SODIUM BICARBONATE), WHEAT PROTEIN ISOLATE, WHEY PROTEIN CONCENTRATE, SEA SALT." Date available: 07/14/2017 Date last updated by company: 07/14/2017
