Source: USDA Branded Food Products Database Release December 2017 Software v.3.8.6.4 2017-10-02
Report Run at: December 17, 2017 14:14 EST
"Nutrient data for: 45266897, FROSTED ANIMAL COOKIES, UPC: 070952009512"
Food Group:  Branded Food Products Database
Common Name:

Nutrient,Unit,Data points,Std. Error,"10.0 COOKIES = 30.0g",1Value per 100 g,
Proximates
"Energy",kcal,--,--,110,367
"Protein",g,--,--,1.00,3.33
"Total lipid (fat)",g,--,--,1.00,3.33
"Carbohydrate, by difference",g,--,--,25.00,83.33
"Fiber, total dietary",g,--,--,0.0,0.0
"Sugars, total",g,--,--,14.00,46.67
Minerals
"Calcium, Ca",mg,--,--,0,0
"Iron, Fe",mg,--,--,1.50,5.00
"Sodium, Na",mg,--,--,60,200
Vitamins
"Vitamin C, total ascorbic acid",mg,--,--,0.0,0.0
"Vitamin A, IU",IU,--,--,0,0
Lipids
"Fatty acids, total saturated",g,--,--,0.000,0.000
"Fatty acids, total monounsaturated",g,--,--,0.000,0.000
"Fatty acids, total polyunsaturated",g,--,--,0.000,0.000
"Fatty acids, total trans",g,--,--,0.000,0.000
"Cholesterol",mg,--,--,0,0
Amino Acids
Other
Ingredients
"ENRICHED WHEAT FLOUR (IRON, NIACIN, THIAMIN, RIBOFLAVINAND FOLIC ACID), SUGAR, INVERTED SYRUP, PARTIALLY HYDROGENATED VEGETABLE SHORTENING (CONTAINS ONE OR MORE OF THE FOLLOWING: SOYBEAN OIL, COTTONSEED OIL, PALM OIL, SUNFLOWER OIL), LEAVENING (CONTAINS ONE OR MORE OF THE FOLLOWING: AMMONIUM BICARBONATE AND SODIUM BICARBONATE), SALT, ARTIFICIAL COLORS (FD&C YELLOW #5 AND ABACOMEL ), LIQUID LECITHIN (SOY), ARTIFICIAL FLAVORING VANILLA AND CHOCOLATE), GELATIN, GLYCERIN AND SODIUM METABISULFITE LESS THAN 0.03%)." Date available: 07/14/2017 Date last updated by company: 07/14/2017
