Source: USDA Branded Food Products Database Release December 2017 Software v.3.8.6.4 2017-10-02
Report Run at: December 17, 2017 14:30 EST
"Nutrient data for: 45288781, FROSTED SUGAR COOKIES, UPC: 011225110962"
Food Group:  Branded Food Products Database
Common Name:

Nutrient,Unit,Data points,Std. Error,"1 COOKIE = 43.0g",1Value per 100 g,
Proximates
"Energy",kcal,--,--,180,419
"Protein",g,--,--,1.00,2.33
"Total lipid (fat)",g,--,--,6.00,13.95
"Carbohydrate, by difference",g,--,--,30.00,69.77
"Fiber, total dietary",g,--,--,0.0,0.0
"Sugars, total",g,--,--,19.00,44.19
Minerals
"Calcium, Ca",mg,--,--,20,47
"Iron, Fe",mg,--,--,0.84,1.95
"Sodium, Na",mg,--,--,75,174
Vitamins
"Vitamin C, total ascorbic acid",mg,--,--,0.0,0.0
"Vitamin A, IU",IU,--,--,349,812
Lipids
"Fatty acids, total saturated",g,--,--,1.501,3.490
"Fatty acids, total trans",g,--,--,0.000,0.000
"Cholesterol",mg,--,--,10,23
Amino Acids
Other
Ingredients
"ENRICHED WHEAT FLOUR (FLOUR, THIAMINE MONONITRATE, RIBOFLAVIN, NIACIN, FOLIC ACID, REDUCED IRON), POWDERED SUGAR, VEGETABLE OIL MARGARINE [VEGETABLE OILS (SOYBEAN, MODIFIED PALM), WATER, SALT, WHEY POWDER, SOY LECITHIN, SOY MONO-AND DIGLYCERIDES, NATURAL FLAVOR, VITAMIN A PALMITATE, VITAMIN D3], SUGAR, WATER, SPRINKLES [POWDERED SUGAR, VEGETABLE OIL (FRACTIONATED PALM KERNEL), CORNSTARCH, GLUCOSE, SOY LECITHIN, GUM ARABIC, CARNAUBA WAX, CONFECTIONER'S GLAZE, MODIFIED CORNSTARCH, CELLULOSE GUM, POLYSORBATE 60, ARTIFICIAL FLAVOR, COLOR (FD&C RED 40 LAKE, FD&C RED 40, FD&C YELLOW 6 LAKE, FD&C RED 3)], LIQUID WHOLE EGG, NATURAL AND ARTIFICIAL FLAVOR, SKIM MILK POWDER, LEAVENING (SODIUM ACID PYROPHOSPHATE, SODIUM BICARBONATE, MONOCALCIUM PHOSPHATE), MODIFIED CORNSTARCH, POLYSORBATE 60, COLOR (CARMINE)." Date available: 10/04/2017 Date last updated by company: 10/04/2017
