Source: USDA Branded Food Products Database Release December 2017 Software v.3.8.6.4 2017-10-02
Report Run at: December 17, 2017 14:23 EST
"Nutrient data for: 45145297, FROSTED SUGAR COOKIES, UPC: 021130118953"
Food Group:  Branded Food Products Database
Common Name:

Nutrient,Unit,Data points,Std. Error,"1 COOKIE = 38.0g",1Value per 100 g,
Proximates
"Energy",kcal,--,--,160,421
"Protein",g,--,--,1.00,2.63
"Total lipid (fat)",g,--,--,6.00,15.79
"Carbohydrate, by difference",g,--,--,25.00,65.79
"Fiber, total dietary",g,--,--,0.0,0.0
"Sugars, total",g,--,--,16.00,42.11
Minerals
"Calcium, Ca",mg,--,--,0,0
"Iron, Fe",mg,--,--,0.95,2.49
"Sodium, Na",mg,--,--,105,276
Vitamins
"Vitamin C, total ascorbic acid",mg,--,--,0.0,0.0
"Vitamin A, IU",IU,--,--,263,692
Lipids
"Fatty acids, total saturated",g,--,--,2.500,6.580
"Fatty acids, total trans",g,--,--,0.000,0.000
"Cholesterol",mg,--,--,10,26
Amino Acids
Other
Ingredients
"SUGAR, ENRICHED BLEACHED WHEAT FLOUR (FLOUR, NIACIN, REDUCED IRON, THIAMINE MONONITRATE, RIBOFLAVIN, FOLIC ACID), MARGARINE (PALM OIL, WATER, SOYBEAN OIL, SALT, CONTAINS 2% OR LESS OF: MONO- & DIGLYCERIDES, CALCIUM DISODIUM EDTA [PRESERVATIVE], ARTIFICIAL FLAVOR, ANNATTO [COLOR], VITAMIN A PALMITATE), EGGS, CONTAINS 2% OR LESS OF: WATER, RICE FLOUR, CORN STARCH, SKIM MILK, LEAVENING (BAKING SODA, SODIUM ALUMINIUM SULFATE, MONOCALCIUM PHOSPHATE), ARTIFICIAL FLAVORS, VEGETABLE OIL (PALM KERNEL OIL AND/OR PALM OIL AND/OR PARTIALLY HYDROGENATED VEGETABLE OIL [COTTONSEED AND/OR SOYBEAN OIL]), FOOD STARCH-MODIFIED, POLYSORBATE 60, COLORS (YELLOW 5 LAKE, BLUE 1 LAKE, CARMINE [COLOR], BLUE 1, BLUE 2, BLUE 2 LAKE, RED 3, RED 40, RED 40 LAKE, TITANIUM DIOXIDE [COLOR], YELLOW 5, YELLOW 6, YELLOW 6 LAKE), CONFECTIONER'S GLAZE (LAC RESIN), GUM ARABIC CELLULOSE GUM, CARRAGEENAN, SOY LECITHIN (EMULSIFIER), CARNAUBA WAX, SODIUM PROPIONATE (PRESERVATIVE), GUM TRAGACANTH." Date available: 07/14/2017 Date last updated by company: 07/14/2017
