Source: USDA Branded Food Products Database Release December 2017 Software v.3.8.6.4 2017-10-02
Report Run at: December 17, 2017 14:33 EST
"Nutrient data for: 45274102, FROSTED WHOOPIE PIES, UPC: 072030022604"
Food Group:  Branded Food Products Database
Common Name:

Nutrient,Unit,Data points,Std. Error,"1 COOKIE = 38.0g",1Value per 100 g,
Proximates
"Energy",kcal,--,--,190,500
"Protein",g,--,--,1.00,2.63
"Total lipid (fat)",g,--,--,11.00,28.95
"Carbohydrate, by difference",g,--,--,21.00,55.26
"Fiber, total dietary",g,--,--,1.0,2.6
"Sugars, total",g,--,--,16.00,42.11
Minerals
"Calcium, Ca",mg,--,--,0,0
"Iron, Fe",mg,--,--,1.52,3.99
"Sodium, Na",mg,--,--,75,197
Vitamins
"Vitamin C, total ascorbic acid",mg,--,--,0.0,0.0
"Vitamin A, IU",IU,--,--,0,0
Lipids
"Fatty acids, total saturated",g,--,--,5.001,13.160
"Fatty acids, total trans",g,--,--,0.000,0.000
"Cholesterol",mg,--,--,10,26
Amino Acids
Other
Ingredients
"SUGAR, ENRICHED FLOUR BLEACHED (WHEAT FLOUR, NIACIN, REDUCED IRON, THIAMIN MONONITRATE, RIBOFLAVIN, FOLIC ACID), SOYEAN OIL, PALM AND PALM KERNEL OIL, WATER, EGGS, COCOA (PROCESSED WITH ALKALI), CONTAINS LESS THAN 2% OF EACH OF THE FOLLOWING: CORN SYRUP, FOOD STARCH-MODIFIED, HIGH FAT COCOA (PROCESSED WITH ALKALI), MONO-AND DIGLYCERIDES, NONFAT MILK, LEAVENING (BAKING SODA, SODIUM ALUMINUM PHOSPHATE) SALT, CORNSTARCH, MODIFIED WHEY, WHITE GRAPE JUICE, SODIUM STEAROYL LACTYLATE, SOY FLOUR, NONFAT YOGURT (CULTURED SKIM MILK), SORBITAN MONOSTEARATE, SORBITAN TRISTEARATE, CALCIUM ACETATE, WHEAT GLUTEN, NATURAL AND ARTIFICIAL FLAVOR, GLYCERIN, XANTHAN GUM, SOY LECITHIN, POTASSIUM SORBATE (PRESERVATIVE), GUAR GUM, PROPYLENE GLYCOL, WHEY, CORN SYRUP SOLIDS, SODIUM ALGINATE, DEXTRIN, EGG WHITES, FRUCTOSE, POLYSORBATE 60, LACTIC ACID, CARAMEL COLOR (CONTAINS SULFITES), SODIUM BENZOATE (PRESERVATIVE), CITRIC ACID, CITRIC ACID, ETHYL ALCOHOL." Date available: 07/14/2017 Date last updated by company: 07/14/2017
