Source: USDA Branded Food Products Database Release December 2017 Software v.3.8.6.4 2017-10-02
Report Run at: December 17, 2017 14:19 EST
"Nutrient data for: 45208824, FROSTED MINI CUPCAKES, UPC: 085239018507"
Food Group:  Branded Food Products Database
Common Name:

Nutrient,Unit,Data points,Std. Error,"3.0 CUPCAKES = 75.0g",1Value per 100 g,
Proximates
"Energy",kcal,--,--,320,427
"Protein",g,--,--,2.00,2.67
"Total lipid (fat)",g,--,--,16.00,21.33
"Carbohydrate, by difference",g,--,--,42.00,56.00
"Fiber, total dietary",g,--,--,0.0,0.0
"Sugars, total",g,--,--,33.00,44.00
Minerals
"Calcium, Ca",mg,--,--,20,27
"Iron, Fe",mg,--,--,0.77,1.02
"Sodium, Na",mg,--,--,210,280
Vitamins
"Vitamin C, total ascorbic acid",mg,--,--,0.0,0.0
"Vitamin A, IU",IU,--,--,0,0
Lipids
"Fatty acids, total saturated",g,--,--,5.003,6.670
"Fatty acids, total trans",g,--,--,0.000,0.000
"Cholesterol",mg,--,--,30,40
Amino Acids
Other
Ingredients
"CAKE: SUGAR, BLEACHED ENRICHED WHEAT FLOUR (WHEAT FLOUR, NIACIN, REDUCED IRON, THIAMINE MONONITRATE, RIBOFLAVIN, FOLIC ACID), WATER, EGG, VEGETABLE OIL (CANOLA AND SOYBEAN), MODIFIED CORNSTARCH, WHEY, LEAVENING (SODIUM ACID PYROPHOSPHATE, SODIUM BICARBONATE, CORN STARCH, MONOCALCIUM PHOSPHATE, CALCIUM SULFATE), SOY LECITHIN, WHEAT GLUTEN, SALT, DIACETYL TARTARIC ACID ESTERS OF MONO AND DIGLYCERIDES, ARTIFICIAL FLAVOR. ICING: ICING SUGAR, NON-HYDROGENATED VEGETABLE OIL SHORTENING (CANOLA, PALM, MODIFIED PALM AND PALM KERNEL OILS), GLUCOSE, STRAWBERRY COMPOUND (SUGAR, WATER, STRAWBERRIES, PINEAPPLE, DEXTROSE, MODIFIED CORN STARCH, CITRIC ACID, RED 40, BLUE 1, CARAMEL COLOR, NATURAL AND ARTIFICIAL FLAVOR, SODIUM BENZOATE [PRESERVATIVE]), WATER, COCOA POWDER PROCESSED WITH ALKALI, SKIM MILK POWDER, BUTTER (CREAM, SALT), ARTIFICIAL FLAVOR, SALT, RED 40, POLYSORBATE 60." Date available: 07/14/2017 Date last updated by company: 07/14/2017
