Source: USDA Branded Food Products Database Release December 2017 Software v.3.8.6.4 2017-10-02
Report Run at: December 17, 2017 14:43 EST
"Nutrient data for: 45026898, FROZEN DESSERTS BARS, UPC: 896767001608"
Food Group:  Branded Food Products Database
Common Name:

Nutrient,Unit,Data points,Std. Error,"1 BAR = 73.0g",1Value per 100 g,
Proximates
"Energy",kcal,--,--,150,205
"Protein",g,--,--,1.00,1.37
"Total lipid (fat)",g,--,--,10.00,13.70
"Carbohydrate, by difference",g,--,--,15.00,20.55
"Fiber, total dietary",g,--,--,1.0,1.4
"Sugars, total",g,--,--,12.00,16.44
Minerals
"Calcium, Ca",mg,--,--,0,0
"Iron, Fe",mg,--,--,1.18,1.62
"Sodium, Na",mg,--,--,20,27
Vitamins
"Vitamin C, total ascorbic acid",mg,--,--,3.9,5.4
"Vitamin A, IU",IU,--,--,0,0
Lipids
"Fatty acids, total saturated",g,--,--,9.001,12.330
"Fatty acids, total trans",g,--,--,0.000,0.000
"Cholesterol",mg,--,--,0,0
Amino Acids
Other
Ingredients
"ORGANIC COCONUT MILK (ORGANIC COCONUT, WATER, ORGANIC GUAR GUM*), ORGANIC AGAVE SYRUP, ORGANIC STRAWBERRY CONCENTRATE, ORGANIC STRAWBERRY PUREE (ORGANIC STRAWBERRIES, ORGANIC AGAVE SYRUP), ORGANIC COCONUT CREAM, ORGANIC STRAWBERRY POWDER, ORGANIC VANILLA EXTRACT." Date available: 07/14/2017 Date last updated by company: 07/14/2017
