Source: USDA Branded Food Products Database Release December 2017 Software v.3.8.6.4 2017-10-02
Report Run at: December 17, 2017 14:47 EST
"Nutrient data for: 45214930, FROZEN GREEK YOGURT BARS, UPC: 072730620681"
Food Group:  Branded Food Products Database
Common Name:

Nutrient,Unit,Data points,Std. Error,"1 BAR = 60.0g",1Value per 100 g,
Proximates
"Energy",kcal,--,--,90,150
"Protein",g,--,--,3.00,5.00
"Total lipid (fat)",g,--,--,1.50,2.50
"Carbohydrate, by difference",g,--,--,16.00,26.67
"Fiber, total dietary",g,--,--,0.0,0.0
"Sugars, total",g,--,--,12.00,20.00
Minerals
"Calcium, Ca",mg,--,--,100,167
"Iron, Fe",mg,--,--,0.00,0.00
"Sodium, Na",mg,--,--,70,117
Vitamins
"Vitamin C, total ascorbic acid",mg,--,--,2.4,4.0
"Vitamin A, IU",IU,--,--,100,167
Lipids
"Fatty acids, total saturated",g,--,--,1.002,1.670
"Fatty acids, total trans",g,--,--,0.000,0.000
"Cholesterol",mg,--,--,10,17
Amino Acids
Other
Ingredients
"MILK, SUGAR, CHERRY FLAVOR (CHERRIES, SUGAR, WATER, CONCENTRATED CHERRY JUICE, CITRIC ACID, NATURAL FLAVOR, GUAR GUM, CAROB BEAN GUM, MALIC ACID), CORN SYRUP, CULTURED BASE (SKIM MILK, WHEY PROTEIN CONCENTRATE, MILK PROTEIN CONCENTRATE, SODIUM CITRATE, NATURAL FLAVOR), NONFAT DRY MILK, CREAM, STABILIZER (CAROB BEAN GUM, PECTIN, CARRAGEENAN), NATURAL RED COLOR (BEET JUICE AND TURMERIC), ACETIC ACID, PROBIOTIC YOGURT CULTURES (STREPTOCOCCUS THERMOPHILUS, BIFIDOBACTERIUM LACTIS, LACTOBACILLUS ACIDOPHILUS, LACTOBACILLUS CASEI, LACTOBACILLUS RHAMNOSUS, LACTOBACILLUS DELBRUECKII)." Date available: 07/14/2017 Date last updated by company: 07/14/2017
