Source: USDA Branded Food Products Database Release December 2017 Software v.3.8.6.4 2017-10-02
Report Run at: December 17, 2017 14:50 EST
"Nutrient data for: 45268925, FROZEN PINK SHRIMP, UPC: 825905000494"
Food Group:  Branded Food Products Database
Common Name:

Nutrient,Unit,Data points,Std. Error,"4.0 ONZ = 110.0g",1Value per 100 g,
Proximates
"Protein",g,--,--,20.00,18.18
"Total lipid (fat)",g,--,--,1.00,0.91
"Carbohydrate, by difference",g,--,--,0.00,0.00
"Fiber, total dietary",g,--,--,0.0,0.0
"Sugars, total",g,--,--,0.00,0.00
Minerals
"Calcium, Ca",mg,--,--,80,73
"Iron, Fe",mg,--,--,1.80,1.64
"Sodium, Na",mg,--,--,160,145
Vitamins
"Vitamin C, total ascorbic acid",mg,--,--,0.0,0.0
"Vitamin A, IU",IU,--,--,0,0
Lipids
"Fatty acids, total saturated",g,--,--,1.001,0.910
"Fatty acids, total trans",g,--,--,1.001,0.910
"Cholesterol",mg,--,--,175,159
Amino Acids
Other
Ingredients
"SHRIMP, ANTIOXIDANT, SODIUM METABISULPHITE." Date available: 10/13/2017 Date last updated by company: 10/13/2017
