Source: USDA Branded Food Products Database Release December 2017 Software v.3.8.6.4 2017-10-02
Report Run at: December 17, 2017 14:40 EST
"Nutrient data for: 45192989, FROZEN CREAM DESSERT POPS, UPC: 855538004156"
Food Group:  Branded Food Products Database
Common Name:

Nutrient,Unit,Data points,Std. Error,"1 POP = 81.0g",1Value per 100 g,
Proximates
"Energy",kcal,--,--,215,265
"Protein",g,--,--,3.00,3.70
"Total lipid (fat)",g,--,--,12.00,14.81
"Carbohydrate, by difference",g,--,--,23.00,28.40
"Fiber, total dietary",g,--,--,1.0,1.2
"Sugars, total",g,--,--,17.00,20.99
Minerals
"Calcium, Ca",mg,--,--,70,86
"Iron, Fe",mg,--,--,0.27,0.33
"Sodium, Na",mg,--,--,69,85
Vitamins
"Vitamin C, total ascorbic acid",mg,--,--,0.0,0.0
"Vitamin A, IU",IU,--,--,74,91
Lipids
"Fatty acids, total saturated",g,--,--,6.002,7.410
"Fatty acids, total trans",g,--,--,0.000,0.000
"Cholesterol",mg,--,--,18,22
Amino Acids
Other
Ingredients
"CREAMY INSIDE: SKIM MILK, CREAM, CANE SUGAR, ORGANIC CORN SYRUP, COCONUT OIL, BEET JUICE CONCENTRATE (FOR COLOR), NATURAL FLAVORS, GUAR GUM, CELLULOSE GEL, CELLULOSE GUM, CARRAGEENAN. CRUNCHY OUTSIDE: UNBLEACHED ENRICHED WHEAT FLOUR (WHEAT FLOUR, NIACIN, REDUCED IRON, THIAMINE MONONITRATE, RIBOFLAVIN, FOLIC ACID), CANE SUGAR, EXPELLER PRESSED CANOLA OIL, MOLASSES, HONEY, PAL KERNEL OIL, PALM OIL (SUSTAINABLY SOURCED), WHEY, WHOLE MILK, ORGANIC SOY LECITHIN, BAKING POWDER (SODIUM ACID PYROPHOSPHATE, BAKING SODA, CORN STARCH, MONOCALCIUM PHOSPHATE),SALT, NATURAL FLAVOR, BEET JUICE CONCENTRATE (FOR COLOR), CITRIC ACID." Date available: 07/14/2017 Date last updated by company: 07/14/2017
