Source: USDA Branded Food Products Database Release December 2017 Software v.3.8.6.4 2017-10-02
Report Run at: December 17, 2017 15:52 EST
"Nutrient data for: 45315538, FRUIT N' NUT, UPC: 857340006274"
Food Group:  Branded Food Products Database
Common Name:

Nutrient,Unit,Data points,Std. Error,"9.0 CRISPS | ABOUT = 28.0g",1Value per 100 g,
Proximates
"Energy",kcal,--,--,130,464
"Protein",g,--,--,3.00,10.71
"Total lipid (fat)",g,--,--,4.50,16.07
"Carbohydrate, by difference",g,--,--,19.00,67.86
"Fiber, total dietary",g,--,--,2.0,7.1
"Sugars, total",g,--,--,6.00,21.43
Minerals
"Calcium, Ca",mg,--,--,20,71
"Iron, Fe",mg,--,--,1.93,6.88
"Sodium, Na",mg,--,--,240,857
Vitamins
Lipids
"Fatty acids, total saturated",g,--,--,2.500,8.930
"Fatty acids, total trans",g,--,--,0.000,0.000
"Cholesterol",mg,--,--,0,0
Amino Acids
Other
Ingredients
"BUTTERMILK (CULTURED LOW FAT MILK, CONDENSED SKIM MILK, SALT, VITAMIN A AND VITAMIN D), UNBLEACHED FLOUR (WHEAT FLOUR, MALTED BARLEY FLOUR, NIACIN, IRON, THIAMIN, RIBOFLAVIN, AND FOLIC ACID), RAISINS (RAISINS, SUNFLOWER OIL), DRIED CRANBERRIES (CRANBERRIES, SUGAR, SUNFLOWER OIL), PUMPKIN SEEDS, PISTACHIOS, HONEY, BROWN SUGAR, PARMESAN CHEESE (PASTEURIZED PART SKIN MILK, CHEESE CULTURE, SALT AND ENZYME), GRAPE SEED FLOUR, SEA SALT, BAKING SODA AND ROSEMARY." Date available: 09/25/2017 Date last updated by company: 09/25/2017
