Source: USDA Branded Food Products Database Release December 2017 Software v.3.8.6.4 2017-10-02
Report Run at: December 17, 2017 16:43 EST
"Nutrient data for: 45222903, FRUIT & YOGURT BARS, UPC: 025600003305"
Food Group:  Branded Food Products Database
Common Name:

Nutrient,Unit,Data points,Std. Error,"1 BAR = 50.0g",1Value per 100 g,
Proximates
"Energy",kcal,--,--,200,400
"Protein",g,--,--,1.00,2.00
"Total lipid (fat)",g,--,--,6.00,12.00
"Carbohydrate, by difference",g,--,--,35.00,70.00
"Fiber, total dietary",g,--,--,2.0,4.0
"Sugars, total",g,--,--,21.00,42.00
Minerals
"Calcium, Ca",mg,--,--,0,0
"Iron, Fe",mg,--,--,0.57,1.15
"Sodium, Na",mg,--,--,95,190
Vitamins
"Vitamin C, total ascorbic acid",mg,--,--,0.0,0.0
"Vitamin A, IU",IU,--,--,0,0
Lipids
"Fatty acids, total saturated",g,--,--,1.500,3.000
"Fatty acids, total trans",g,--,--,0.000,0.000
"Cholesterol",mg,--,--,5,10
Amino Acids
Other
Ingredients
"SUGAR, ENRICHED BLEACHED FLOUR (WHEAT FLOUR, NIACIN, REDUCED IRON, THIAMINE MONONITRATE, RIBOFLAVIN, FOLIC ACID), HIGH FRUCTOSE CORN SYRUP, BLUEBERRY FILLING (SUGAR, WATER, CORN SYRUP, APPLE POWDER, BLUEBERRIES, MODIFIED CORN STARCH, CITRIC ACID, ARTIFICIAL FLAVOR, POTASSIUM SORBATE AND SODIUM BENZOATE [PRESERVATIVES], RED 40, BLUE 1), VEGETABLE SHORTENING (SOYBEAN OIL, PALM OIL, AND HYDROGENATED COTTONSEED OIL), WATER, ROLLED OATS, WHOLE WHEAT FLOUR, CONTAINS 2% OR LESS OF EACH OF THE FOLLOWING: EGGS, MOLASSES, GLYCERINE, CORN SYRUP, DEXTROSE, NONFAT MILK SOLIDS, MODIFIED CORN STARCH, CORN STARCH, NATURAL AND ARTIFICIAL FLAVORS, PARTIALLY HYDROGENATED SOYBEAN OIL, SALT, LEAVENING (SODIUM BICARBONATE), PROPYLENE GLYCOL MONO- AND DIESTERS OF FATS AND FATTY ACIDS, TITANIUM DIOXIDE (COLOR), MONO- AND DIGLYCERIDES, XANTHAN GUM, LACTIC ACID, LACTYLIC ESTERS OF FATTY ACIDS, CARAMEL COLOR, LOCUST BEAN GUM, BLUE #2 LAKE, YOGURT CULTURES, POTASSIUM SORBATE (TO RETARD SPOILAGE)." Date available: 07/14/2017 Date last updated by company: 07/14/2017
