Source: USDA Branded Food Products Database Release December 2017 Software v.3.8.6.4 2017-10-02
Report Run at: December 17, 2017 16:34 EST
"Nutrient data for: 45287538, FRUIT TWISTS, UPC: 079893116488"
Food Group:  Branded Food Products Database
Common Name:

Nutrient,Unit,Data points,Std. Error,"1 POUCH = 18.0g",1Value per 100 g,
Proximates
"Energy",kcal,--,--,60,333
"Protein",g,--,--,0.00,0.00
"Total lipid (fat)",g,--,--,0.00,0.00
"Carbohydrate, by difference",g,--,--,15.00,83.33
"Fiber, total dietary",g,--,--,1.0,5.6
"Sugars, total",g,--,--,13.00,72.22
Minerals
"Calcium, Ca",mg,--,--,0,0
"Iron, Fe",mg,--,--,0.00,0.00
"Potassium, K",mg,--,--,80,444
"Sodium, Na",mg,--,--,0,0
Vitamins
"Vitamin C, total ascorbic acid",mg,--,--,0.0,0.0
"Vitamin A, IU",IU,--,--,0,0
Lipids
"Fatty acids, total saturated",g,--,--,0.000,0.000
"Fatty acids, total trans",g,--,--,0.000,0.000
"Cholesterol",mg,--,--,0,0
Amino Acids
Other
Ingredients
"ORGANIC APPLE PUREE CONCENTRATE, ORGANIC APPLE JUICE CONCENTRATE, ORGANIC BANANA PUREE, ORGANIC STRAWBERRY JUICE CONCENTRATE, NATURAL FLAVORS, PECTIN, VEGETABLE JUICE (CARROT, CABBAGE) FOR COLOR." Date available: 07/14/2017 Date last updated by company: 07/14/2017
