Source: USDA Branded Food Products Database Release December 2017 Software v.3.8.6.4 2017-10-02
Report Run at: December 17, 2017 16:17 EST
"Nutrient data for: 45262933, FRUITS + GREENS FRUIT & NIT FOOD BAR, UPC: 021908490670"
Food Group:  Branded Food Products Database
Common Name:

Nutrient,Unit,Data points,Std. Error,"1 BAR = 35.0g",1Value per 100 g,
Proximates
"Energy",kcal,--,--,130,371
"Protein",g,--,--,2.00,5.71
"Total lipid (fat)",g,--,--,2.50,7.14
"Carbohydrate, by difference",g,--,--,24.00,68.57
"Fiber, total dietary",g,--,--,3.0,8.6
"Sugars, total",g,--,--,14.00,40.00
Minerals
"Calcium, Ca",mg,--,--,20,57
"Iron, Fe",mg,--,--,1.24,3.53
"Sodium, Na",mg,--,--,15,43
Vitamins
"Vitamin C, total ascorbic acid",mg,--,--,0.0,0.0
"Vitamin A, IU",IU,--,--,572,1633
Lipids
"Fatty acids, total saturated",g,--,--,0.500,1.430
"Fatty acids, total trans",g,--,--,0.000,0.000
"Cholesterol",mg,--,--,0,0
Amino Acids
Other
Ingredients
"APPLES, APRICOTS, CASHEWS, MANGO, SPINACH." Date available: 07/14/2017 Date last updated by company: 07/14/2017
