Source: USDA Branded Food Products Database Release December 2017 Software v.3.8.6.4 2017-10-02
Report Run at: December 17, 2017 15:25 EST
"Nutrient data for: 45163889, FRUIT CREMES CANDY, UPC: 041420214998"
Food Group:  Branded Food Products Database
Common Name:

Nutrient,Unit,Data points,Std. Error,"28.0 PIECES = 40.0g",1Value per 100 g,
Proximates
"Energy",kcal,--,--,140,350
"Protein",g,--,--,0.00,0.00
"Total lipid (fat)",g,--,--,0.00,0.00
"Carbohydrate, by difference",g,--,--,36.00,90.00
"Sugars, total",g,--,--,27.00,67.50
Minerals
"Sodium, Na",mg,--,--,5,12
Vitamins
Lipids
Amino Acids
Other
Ingredients
"SUGAR, CORN SYRUP, MODIFIED FOOD STARCH (CORN), CONFECTIONER'S GLAZE (SHELLAC), CITRIC ACID, NATURAL AND ARTIFICIAL FLAVORS, ACACIA (GUM ARABIC), WHITE MINERAL OIL, SODIUM CITRATE, CARNAUBA WAX, TITANIUM DIOXIDE [COLOR], YELLOW 5, RED 40." Date available: 07/14/2017 Date last updated by company: 07/14/2017
