Source: USDA Branded Food Products Database Release December 2017 Software v.3.8.6.4 2017-10-02
Report Run at: December 17, 2017 16:18 EST
"Nutrient data for: 45147161, FRUITS IN CHOCOLATE, PRUNE IN DARK CHOCOLATE, UPC: 837907300014"
Food Group:  Branded Food Products Database
Common Name:

Nutrient,Unit,Data points,Std. Error,"1 PIECE = 18.0g",1Value per 100 g,
Proximates
"Energy",kcal,--,--,70,389
"Protein",g,--,--,1.00,5.56
"Total lipid (fat)",g,--,--,2.00,11.11
"Carbohydrate, by difference",g,--,--,12.00,66.67
"Fiber, total dietary",g,--,--,1.0,5.6
"Sugars, total",g,--,--,8.00,44.44
Minerals
"Calcium, Ca",mg,--,--,10,56
"Iron, Fe",mg,--,--,1.50,8.33
"Sodium, Na",mg,--,--,14,78
Vitamins
"Vitamin C, total ascorbic acid",mg,--,--,1.7,9.3
"Vitamin A, IU",IU,--,--,139,772
Lipids
"Fatty acids, total saturated",g,--,--,2.000,11.110
"Fatty acids, total trans",g,--,--,0.000,0.000
"Cholesterol",mg,--,--,0,0
Amino Acids
Other
Ingredients
"PRUNE* (POTASSIUM SORBATE AS A PRESERVATIVE) DARK CHOCOLATE COCOA (PROCESSED WITH ALKALI), COCOA POWDER, SUGAR, VEGETABLE OIL, SKIM MILK, VANILLA, NATURAL AND ARTIFICIAL FLAVORS, SORBITAN TRISTEARATE AND SOY LECITHIN (AN EMULSIFIER), AND SALT." Date available: 07/14/2017 Date last updated by company: 07/14/2017
