Source: USDA Branded Food Products Database Release December 2017 Software v.3.8.6.4 2017-10-02
Report Run at: December 17, 2017 15:17 EST
"Nutrient data for: 45196944, FRUIT COCKTAIL IN HEAVY SYRUP, UPC: 051022604608"
Food Group:  Branded Food Products Database
Common Name:

Nutrient,Unit,Data points,Std. Error,"0.5 cup = 140.0g",1Value per 100 g,
Proximates
"Energy",kcal,--,--,99,71
"Protein",g,--,--,0.00,0.00
"Total lipid (fat)",g,--,--,0.00,0.00
"Carbohydrate, by difference",g,--,--,21.99,15.71
"Fiber, total dietary",g,--,--,1.0,0.7
"Sugars, total",g,--,--,20.01,14.29
Minerals
"Calcium, Ca",mg,--,--,20,14
"Iron, Fe",mg,--,--,0.71,0.51
"Sodium, Na",mg,--,--,0,0
Vitamins
"Vitamin C, total ascorbic acid",mg,--,--,1.3,0.9
"Vitamin A, IU",IU,--,--,0,0
Lipids
"Fatty acids, total saturated",g,--,--,0.000,0.000
"Fatty acids, total trans",g,--,--,0.000,0.000
"Cholesterol",mg,--,--,0,0
Amino Acids
Other
Ingredients
"DICED PEACHES, DICED PEARS, GRAPES, PINEAPPLE SEGMENTS, CHERRIES (RED 3), WATER, SUGAR, CITRIC ACID." Date available: 07/14/2017 Date last updated by company: 07/14/2017
