Source: USDA Branded Food Products Database Release December 2017 Software v.3.8.6.4 2017-10-02
Report Run at: December 17, 2017 15:57 EST
"Nutrient data for: 45222318, FRUIT, NUT & SEED SUPER FOOD BAR, UPC: 899587000073"
Food Group:  Branded Food Products Database
Common Name:

Nutrient,Unit,Data points,Std. Error,"1.6 ONZ = 46.0g",1Value per 100 g,
Proximates
"Energy",kcal,--,--,200,435
"Protein",g,--,--,6.00,13.04
"Total lipid (fat)",g,--,--,12.00,26.09
"Carbohydrate, by difference",g,--,--,22.00,47.83
"Fiber, total dietary",g,--,--,3.0,6.5
"Sugars, total",g,--,--,15.00,32.61
Minerals
"Calcium, Ca",mg,--,--,80,174
"Iron, Fe",mg,--,--,1.25,2.72
"Sodium, Na",mg,--,--,60,130
Vitamins
"Vitamin C, total ascorbic acid",mg,--,--,2.1,4.5
"Vitamin A, IU",IU,--,--,0,0
Lipids
"Fatty acids, total saturated",g,--,--,0.998,2.170
"Fatty acids, total trans",g,--,--,0.000,0.000
"Cholesterol",mg,--,--,0,0
Amino Acids
Other
Ingredients
"PEANUTS*, DATES*, AGAVE NECTAR*, CHOCOLATE CHUNKS*+ (CANE SUGAR*, CHOCOLATE LIQUOR*, COCOA BUTTER*, SOY LECITHIN*, VANILLA EXTRACT*), CHIA SEEDS*, SPROUTED FLAX SEED POWDER*, SEA SALT." Date available: 07/14/2017 Date last updated by company: 07/14/2017
