Source: USDA Branded Food Products Database Release December 2017 Software v.3.8.6.4 2017-10-02
Report Run at: December 17, 2017 16:35 EST
"Nutrient data for: 45138190, FRUIT & VEGETABLE JUICE SMOOTHIE, UPC: 854208005011"
Food Group:  Branded Food Products Database
Common Name:

Nutrient,Unit,Data points,Std. Error,"1 BOTTLE = 354.0g",1Value per 100 g,
Proximates
"Energy",kcal,--,--,209,59
"Protein",g,--,--,1.98,0.56
"Total lipid (fat)",g,--,--,0.00,0.00
"Carbohydrate, by difference",g,--,--,48.99,13.84
"Fiber, total dietary",g,--,--,1.1,0.3
"Sugars, total",g,--,--,40.00,11.30
Minerals
"Calcium, Ca",mg,--,--,39,11
"Iron, Fe",mg,--,--,0.00,0.00
"Sodium, Na",mg,--,--,64,18
Vitamins
"Vitamin C, total ascorbic acid",mg,--,--,24.4,6.9
"Vitamin A, IU",IU,--,--,3051,862
Lipids
"Fatty acids, total saturated",g,--,--,0.000,0.000
"Fatty acids, total trans",g,--,--,0.000,0.000
"Cholesterol",mg,--,--,0,0
Amino Acids
Other
Ingredients
"ORGANIC APPLE JUICE, ORGANIC ORANGE JUICE, ORGANIC CARROT JUICE, ORGANIC RED BEET JUICE, ORGANIC BANANA PUREE, ORGANIC PINEAPPLE JUICE, ORGANIC GROUND TURMERIC" Date available: 07/14/2017 Date last updated by company: 07/14/2017
