Source: USDA Branded Food Products Database Release December 2017 Software v.3.8.6.4 2017-10-02
Report Run at: December 17, 2017 15:42 EST
"Nutrient data for: 45135535, FRUIT ICE POPS, UPC: 5051379058623"
Food Group:  Branded Food Products Database
Common Name:

Nutrient,Unit,Data points,Std. Error,"1 POP = 52.0g",1Value per 100 g,
Proximates
"Energy",kcal,--,--,30,58
"Protein",g,--,--,0.00,0.00
"Total lipid (fat)",g,--,--,0.00,0.00
"Carbohydrate, by difference",g,--,--,7.00,13.46
"Fiber, total dietary",g,--,--,0.0,0.0
"Sugars, total",g,--,--,5.00,9.62
Minerals
"Calcium, Ca",mg,--,--,0,0
"Iron, Fe",mg,--,--,0.59,1.13
"Potassium, K",mg,--,--,65,125
"Sodium, Na",mg,--,--,10,19
Vitamins
"Vitamin C, total ascorbic acid",mg,--,--,14.7,28.3
"Vitamin A, IU",IU,--,--,0,0
Lipids
"Fatty acids, total saturated",g,--,--,0.000,0.000
"Fatty acids, total trans",g,--,--,0.000,0.000
"Cholesterol",mg,--,--,0,0
Amino Acids
Other
Ingredients
"WATER, PEAR JUICE CONCENTRATE, CONCORD GRAPE JUICE CONCENTRATE, CONTAINS LESS THAN 1% OF: MALIC ACID, CITRIC ACID, NATURAL FLAVORS, GUAR GUM, CAROB BEAN GUM, VEGETABLE JUICE (FOR COLOR), ASCORBIC ACID." Date available: 07/14/2017 Date last updated by company: 07/14/2017
