Source: USDA Branded Food Products Database Release December 2017 Software v.3.8.6.4 2017-10-02
Report Run at: December 17, 2017 16:06 EST
"Nutrient data for: 45332619, FRUIT & PROTEIN PACK, UPC: 854834005096"
Food Group:  Branded Food Products Database
Common Name:

Nutrient,Unit,Data points,Std. Error,"1 PACK = 142.0g",1Value per 100 g,
Proximates
"Energy",kcal,--,--,180,127
"Protein",g,--,--,14.00,9.86
"Total lipid (fat)",g,--,--,5.00,3.52
"Carbohydrate, by difference",g,--,--,19.00,13.38
"Fiber, total dietary",g,--,--,1.0,0.7
"Sugars, total",g,--,--,16.00,11.27
Minerals
"Calcium, Ca",mg,--,--,80,56
"Iron, Fe",mg,--,--,0.35,0.25
"Potassium, K",mg,--,--,280,197
"Sodium, Na",mg,--,--,36,25
Vitamins
"Vitamin C, total ascorbic acid",mg,--,--,4.8,3.4
Lipids
"Fatty acids, total saturated",g,--,--,0.497,0.350
"Fatty acids, total monounsaturated",g,--,--,4.004,2.820
"Fatty acids, total polyunsaturated",g,--,--,0.497,0.350
"Cholesterol",mg,--,--,0,0
Amino Acids
Other
Ingredients
"WATER, BANANA, WHEY PROTEIN ISOLATE, APPLE PUREE CONCENTRATE, APPLE JUICE CONCENTRATE, ORANGE JUICE CONCENTRATE, HIGH OLEIC SUNFLOWER OIL, PEACH PUREE CONCENTRATE, PEAR JUICE CONCENTRATE, NATURAL FLAVOR, CITRIC ACID, PECTIN, ASCORBIC ACID" Date available: 07/14/2017 Date last updated by company: 07/14/2017
