Source: USDA Branded Food Products Database Release December 2017 Software v.3.8.6.4 2017-10-02
Report Run at: December 17, 2017 15:24 EST
"Nutrient data for: 45162947, FRUIT CONFUSION JUICY TWISTS, UPC: 022224507325"
Food Group:  Branded Food Products Database
Common Name:

Nutrient,Unit,Data points,Std. Error,"3.0 TWISTS = 44.0g",1Value per 100 g,
Proximates
"Energy",kcal,--,--,130,295
"Protein",g,--,--,1.00,2.27
"Total lipid (fat)",g,--,--,0.00,0.00
"Carbohydrate, by difference",g,--,--,32.00,72.73
"Fiber, total dietary",g,--,--,0.0,0.0
"Sugars, total",g,--,--,18.00,40.91
Minerals
"Calcium, Ca",mg,--,--,0,0
"Iron, Fe",mg,--,--,0.41,0.93
"Sodium, Na",mg,--,--,55,125
Vitamins
"Vitamin C, total ascorbic acid",mg,--,--,47.7,108.5
"Vitamin A, IU",IU,--,--,0,0
Lipids
"Fatty acids, total saturated",g,--,--,0.000,0.000
"Fatty acids, total trans",g,--,--,0.000,0.000
"Cholesterol",mg,--,--,0,0
Amino Acids
Other
Ingredients
"ENRICHED WHEAT FLOUR (WHEAT, IRON, NIACIN, THIAMIN, RIBOFLAVIN & FOLIC ACID), HIGH FRUCTOSE CORN SYRUP, SUGAR, CORN SYRUP, APPLE JUICE CONCENTRATE, WATER, MODIFIED FOOD STARCH (CORN), ARTIFICIAL FLAVOR, CITRIC ACID, SALT, PALM OIL, SOY LECITHIN, GLYCERINE, MALIC ACID, SOY MONO & DIGLYCERIDE, ASCORBIC ACID, TITANIUM DIOXIDE, ARTIFICIAL COLOR (FD&C RED NO. 40, YELLOW NO.5)." Date available: 07/14/2017 Date last updated by company: 07/14/2017
