Source: USDA Branded Food Products Database Release December 2017 Software v.3.8.6.4 2017-10-02
Report Run at: December 17, 2017 16:23 EST
"Nutrient data for: 45212510, FRUIT SNACKS, UPC: 810165016545"
Food Group:  Branded Food Products Database
Common Name:

Nutrient,Unit,Data points,Std. Error,"1 SNACK PACK = 20.0g",1Value per 100 g,
Proximates
"Energy",kcal,--,--,70,350
"Protein",g,--,--,0.00,0.00
"Total lipid (fat)",g,--,--,0.00,0.00
"Carbohydrate, by difference",g,--,--,16.00,80.00
"Fiber, total dietary",g,--,--,0.0,0.0
"Sugars, total",g,--,--,11.00,55.00
Minerals
"Calcium, Ca",mg,--,--,0,0
"Iron, Fe",mg,--,--,0.00,0.00
"Sodium, Na",mg,--,--,0,0
Vitamins
"Vitamin C, total ascorbic acid",mg,--,--,120.0,600.0
"Vitamin A, IU",IU,--,--,0,0
Lipids
"Fatty acids, total saturated",g,--,--,0.000,0.000
"Fatty acids, total trans",g,--,--,0.000,0.000
"Cholesterol",mg,--,--,0,0
Amino Acids
Other
Ingredients
"ORGANIC BROWN RICE SYRUP, ORGANIC SUGAR, PECTIN, CITRIC ACID, NATURAL FLAVORS, ORGANIC JUICE CONCENTRATES (CARROT, APPLE, PUMPKIN, RADISH, BLACK CURRANT), JUICE CONCENTRATE (CARROT, HIBISCUS), ASCORBIC ACID." Date available: 07/14/2017 Date last updated by company: 07/14/2017
