Source: USDA Branded Food Products Database Release December 2017 Software v.3.8.6.4 2017-10-02
Report Run at: December 17, 2017 16:28 EST
"Nutrient data for: 45326794, FRUIT SPREAD, UPC: 011225186264"
Food Group:  Branded Food Products Database
Common Name:

Nutrient,Unit,Data points,Std. Error,"1 Tbsp = 19.0g",1Value per 100 g,
Proximates
"Energy",kcal,--,--,50,263
"Protein",g,--,--,0.00,0.00
"Total lipid (fat)",g,--,--,0.00,0.00
"Carbohydrate, by difference",g,--,--,12.00,63.16
"Sugars, total",g,--,--,12.00,63.16
Minerals
"Sodium, Na",mg,--,--,10,53
Vitamins
Lipids
Amino Acids
Other
Ingredients
"RASPBERRIES, SUGAR, CHIPOTLE PEPPERS, FRUIT PECTIN, CITRIC ACID." Date available: 10/13/2017 Date last updated by company: 10/13/2017
