Source: USDA Branded Food Products Database Release December 2017 Software v.3.8.6.4 2017-10-02
Report Run at: December 17, 2017 16:06 EST
"Nutrient data for: 45311347, FRUIT PUNCH DRINK MIX, UPC: 043000064931"
Food Group:  Branded Food Products Database
Common Name:

Nutrient,Unit,Data points,Std. Error,"0.125 CAP, (MAKES 8 FL OZ) = 21.0g",1Value per 100 g,
Proximates
"Energy",kcal,--,--,80,381
"Protein",g,--,--,0.00,0.00
"Total lipid (fat)",g,--,--,0.00,0.00
"Carbohydrate, by difference",g,--,--,19.00,90.48
"Sugars, total",g,--,--,19.00,90.48
Minerals
"Calcium, Ca",mg,--,--,100,476
"Sodium, Na",mg,--,--,5,24
Vitamins
"Vitamin C, total ascorbic acid",mg,--,--,142.9,680.3
"Riboflavin",mg,--,--,0.405,1.927
"Niacin",mg,--,--,4.762,22.676
"Vitamin B-6",mg,--,--,0.476,2.268
"Vitamin A, IU",IU,--,--,1190,5669
Lipids
Amino Acids
Other
Ingredients
"SUGAR; CITRIC ACID; CONTAINS LESS THAN 2% OF NATURAL AND ARTIFICIAL FLAVOR; ASCORBIC ACID (VITAMIN C); VITAMIN A PALMITATE; BETA-CAROTENE; VITAMIN E ACETATE; NIACINAMIDE; RIBOFLAVIN (VITAMIN B2); VITAMIN B6; CALCIUM PHOSPHATE; ACESULFAME POTASSIUM, NEOTAME, AND SUCRALOSE (SWEETENERS); XANTHAN AND CELLULOSE GUMS (PROVIDE BODY); POTASSIUM CITRATE; SOY LECITHIN; RED 40; ARTIFICIAL COLOR." Date available: 07/14/2017 Date last updated by company: 07/14/2017
