Source: USDA Branded Food Products Database Release December 2017 Software v.3.8.6.4 2017-10-02
Report Run at: December 17, 2017 16:00 EST
"Nutrient data for: 45038404, FRUIT ON THE BOTTOM LOWFAT YOGURT, UPC: 708820427907"
Food Group:  Branded Food Products Database
Common Name:

Nutrient,Unit,Data points,Std. Error,"1 CONTAINER = 170.0g",1Value per 100 g,
Proximates
"Energy",kcal,--,--,139,82
"Protein",g,--,--,6.00,3.53
"Total lipid (fat)",g,--,--,1.50,0.88
"Carbohydrate, by difference",g,--,--,25.99,15.29
"Fiber, total dietary",g,--,--,0.0,0.0
"Sugars, total",g,--,--,24.00,14.12
Minerals
"Calcium, Ca",mg,--,--,250,147
"Iron, Fe",mg,--,--,0.00,0.00
"Phosphorus, P",mg,--,--,150,88
"Potassium, K",mg,--,--,309,182
"Sodium, Na",mg,--,--,95,56
Vitamins
"Vitamin C, total ascorbic acid",mg,--,--,0.0,0.0
"Riboflavin",mg,--,--,0.255,0.150
"Pantothenic acid",mg,--,--,0.600,0.353
"Vitamin A, IU",IU,--,--,1000,588
"Vitamin D",IU,--,--,80,47
Lipids
"Fatty acids, total saturated",g,--,--,1.003,0.590
"Fatty acids, total trans",g,--,--,0.000,0.000
"Cholesterol",mg,--,--,5,3
Amino Acids
Other
Ingredients
"CULTURED PASTEURIZED GRADE A LOW FAT MILK, WATER, SUGAR, STRAWBERRIES, FRUCTOSE, MODIFIED FOOD STARCH, BLUEBERRIES, BLACKBERRIES, RASPBERRIES, NATURAL FLAVOR, PECTIN, CALCIUM PHOSPHATE, FRUIT AND VEGETABLE JUICE (COLOR), MALIC ACID, VITAMIN A PALMITATE, VITAMIN D3." Date available: 06/24/2017 Date last updated by company: 06/24/2017
