Source: USDA Branded Food Products Database Release December 2017 Software v.3.8.6.4 2017-10-02
Report Run at: December 17, 2017 15:33 EST
"Nutrient data for: 45330838, FRUIT-FLAVORED SNACKS, UPC: 085239010921"
Food Group:  Branded Food Products Database
Common Name:

Nutrient,Unit,Data points,Std. Error,"1 POUCH = 23.0g",1Value per 100 g,
Proximates
"Energy",kcal,--,--,70,304
"Protein",g,--,--,1.00,4.35
"Total lipid (fat)",g,--,--,0.00,0.00
"Carbohydrate, by difference",g,--,--,17.00,73.91
"Fiber, total dietary",g,--,--,0.0,0.0
"Sugars, total",g,--,--,12.00,52.17
Minerals
"Calcium, Ca",mg,--,--,0,0
"Iron, Fe",mg,--,--,0.00,0.00
"Sodium, Na",mg,--,--,30,130
Vitamins
"Vitamin C, total ascorbic acid",mg,--,--,130.4,567.1
"Vitamin A, IU",IU,--,--,0,0
Lipids
"Fatty acids, total saturated",g,--,--,0.000,0.000
"Fatty acids, total trans",g,--,--,0.000,0.000
"Cholesterol",mg,--,--,0,0
Amino Acids
Other
Ingredients
"CORN SYRUP, SUGAR, APPLE JUICE CONCENTRATE, MODIFIED CORN STARCH, GELATIN (PORK), SORBITOL, CITRIC ACID, NATURAL AND ARTIFICIAL FLAVORS, SODIUM ASCORBATE (VITAMIN C), SODIUM CITRATE, ASCORBIC ACID (VITAMIN C), WHITE MINERAL OIL, CARNAUBA WAX, YELLOW 6, RED 40, BLUE 1, YELLOW 5." Date available: 09/23/2017 Date last updated by company: 09/23/2017
