Source: USDA Branded Food Products Database Release December 2017 Software v.3.8.6.4 2017-10-02
Report Run at: December 17, 2017 16:22 EST
"Nutrient data for: 45050974, FRUIT SNACKS, UPC: 041420746321"
Food Group:  Branded Food Products Database
Common Name:

Nutrient,Unit,Data points,Std. Error,"1 POUCH = 23.0g",1Value per 100 g,
Proximates
"Energy",kcal,--,--,70,304
"Protein",g,--,--,1.00,4.35
"Total lipid (fat)",g,--,--,0.00,0.00
"Carbohydrate, by difference",g,--,--,18.00,78.26
"Fiber, total dietary",g,--,--,0.0,0.0
"Sugars, total",g,--,--,11.00,47.83
Minerals
"Calcium, Ca",mg,--,--,0,0
"Iron, Fe",mg,--,--,0.00,0.00
"Sodium, Na",mg,--,--,15,65
Vitamins
"Vitamin C, total ascorbic acid",mg,--,--,130.4,567.1
"Vitamin A, IU",IU,--,--,0,0
Lipids
"Fatty acids, total saturated",g,--,--,0.000,0.000
"Fatty acids, total trans",g,--,--,0.000,0.000
"Cholesterol",mg,--,--,0,0
Amino Acids
Other
Ingredients
"APPLE JUICE FROM CONCENTRATE, CORN SYRUP, SUGAR, MODIFIED FOOD STARCH (CORN), GELATIN, CITRIC ACID, LACTIC ACID, ASCORBIC ACID (VITAMIN C), NATURAL AND ARTIFICIAL FLAVORS, COCONUT OIL*, FRUIT AND VEGETABLE JUICE FOR COLOR, SODIUM LACTATE, SODIUM CITRATE, CARNAUBA WAX*, TURMERIC COLOR. *ADDS A TRIVIAL AMOUNT OF FAT." Date available: 06/25/2017 Date last updated by company: 06/25/2017
