Source: USDA Branded Food Products Database Release December 2017 Software v.3.8.6.4 2017-10-02
Report Run at: December 17, 2017 16:23 EST
"Nutrient data for: 45265149, FRUIT SNACKS, UPC: 034856204992"
Food Group:  Branded Food Products Database
Common Name:

Nutrient,Unit,Data points,Std. Error,"1 POUCH = 25.5g",1Value per 100 g,
Proximates
"Energy",kcal,--,--,80,314
"Protein",g,--,--,0.00,0.00
"Total lipid (fat)",g,--,--,0.00,0.00
"Carbohydrate, by difference",g,--,--,20.00,78.43
"Sugars, total",g,--,--,11.00,43.14
Minerals
"Sodium, Na",mg,--,--,10,39
Vitamins
"Vitamin C, total ascorbic acid",mg,--,--,94.1,369.1
"Vitamin A, IU",IU,--,--,1961,7690
Lipids
"Fatty acids, total saturated",g,--,--,0.000,0.000
"Fatty acids, total trans",g,--,--,0.000,0.000
Amino Acids
Other
Ingredients
"FRUIT PUREE (GRAPE, PEACH, ORANGE, STRAWBERRY, AND RASPBERRY), CORN SYRUP, SUGAR, MODIFIED CORN STARCH, GELATIN, CONCORD GRAPE JUICE FROM CONCENTRATE, CITRIC ACID, LACTIC ACID, NATURAL AND ARTIFICIAL FLAVORS, ASCORBIC ACID (VITAMIN C), ALPHA TOCOPHEROL ACETATE (VITAMIN E), VITAMIN A PALMITATE, SODIUM CITRATE, COCONUT OIL, CARNAUBA WAX, ANNATTO (COLOR), TURMERIC (COLOR), RED 40, AND BLUE 1." Date available: 07/14/2017 Date last updated by company: 07/14/2017
