Source: USDA Branded Food Products Database Release December 2017 Software v.3.8.6.4 2017-10-02
Report Run at: December 17, 2017 15:07 EST
"Nutrient data for: 45236138, FRUIT BITES, UPC: 085239206157"
Food Group:  Branded Food Products Database
Common Name:

Nutrient,Unit,Data points,Std. Error,"1 PACKAGE = 20.0g",1Value per 100 g,
Proximates
"Energy",kcal,--,--,90,450
"Protein",g,--,--,1.00,5.00
"Total lipid (fat)",g,--,--,3.50,17.50
"Carbohydrate, by difference",g,--,--,14.00,70.00
"Fiber, total dietary",g,--,--,0.0,0.0
"Sugars, total",g,--,--,12.00,60.00
Minerals
"Calcium, Ca",mg,--,--,20,100
"Iron, Fe",mg,--,--,0.90,4.50
"Sodium, Na",mg,--,--,15,75
Vitamins
"Vitamin C, total ascorbic acid",mg,--,--,52.5,262.5
"Vitamin A, IU",IU,--,--,0,0
Lipids
"Fatty acids, total saturated",g,--,--,3.000,15.000
"Fatty acids, total trans",g,--,--,0.000,0.000
"Cholesterol",mg,--,--,0,0
Amino Acids
Other
Ingredients
"GREEK YOGURT FLAVORED COATING (SUGAR, PALM KERNEL AND PALM OILS, NONFAT MILK, GREEK YOGURT [CULTURED NONFAT MILK], SOY LECITHIN, NATURAL FLAVOR, VANILLA), STRAWBERRY FLAVORED FRUIT BITES (APPLE PUREE, APPLE JUICE CONCENTRATE, NATURAL FLAVOR, STRAWBERRY CONCENTRATE, PECTIN, LEMON JUICE CONCENTRATE, CITRIC ACID, ASCORBIC ACID, VEGETABLE JUICE [CARROT, CABBAGE] FOR COLOR), ORGANIC CONFECTIONER'S GLAZE." Date available: 06/25/2017 Date last updated by company: 06/25/2017
