Source: USDA Branded Food Products Database Release December 2017 Software v.3.8.6.4 2017-10-02
Report Run at: December 17, 2017 15:19 EST
"Nutrient data for: 45277837, FRUIT COCKTAIL IN 100% JUICE, UPC: 092825102434"
Food Group:  Branded Food Products Database
Common Name:

Nutrient,Unit,Data points,Std. Error,"0.5 cup = 122.0g",1Value per 100 g,
Proximates
"Energy",kcal,--,--,60,49
"Protein",g,--,--,1.00,0.82
"Total lipid (fat)",g,--,--,0.00,0.00
"Carbohydrate, by difference",g,--,--,15.01,12.30
"Fiber, total dietary",g,--,--,2.0,1.6
"Sugars, total",g,--,--,11.00,9.02
Minerals
"Calcium, Ca",mg,--,--,20,16
"Iron, Fe",mg,--,--,0.00,0.00
"Potassium, K",mg,--,--,120,98
"Sodium, Na",mg,--,--,15,12
Vitamins
"Vitamin C, total ascorbic acid",mg,--,--,13.8,11.3
"Vitamin A, IU",IU,--,--,459,376
Lipids
"Fatty acids, total saturated",g,--,--,0.000,0.000
"Fatty acids, total trans",g,--,--,0.000,0.000
"Cholesterol",mg,--,--,0,0
Amino Acids
Other
Ingredients
"DICED PEACHES, DICED PEARS, WATER, GRAPES, PEACH PULP AND JUICE, PINEAPPLE SECTORS, PEAR JUICE CONCENTRATE, HALVED CHERRIES ARTIFICIALLY COLORED RED WITH CARMINE, ASCORBIC ACID (VITAMIN C) TO PROTECT COLOR, CITRIC ACID." Date available: 07/14/2017 Date last updated by company: 07/14/2017
