Source: USDA Branded Food Products Database Release December 2017 Software v.3.8.6.4 2017-10-02
Report Run at: December 17, 2017 16:34 EST
"Nutrient data for: 45209986, FRUIT TWISTS, UPC: 036800390928"
Food Group:  Branded Food Products Database
Common Name:

Nutrient,Unit,Data points,Std. Error,"1 POUCH = 20.0g",1Value per 100 g,
Proximates
"Energy",kcal,--,--,70,350
"Protein",g,--,--,0.00,0.00
"Total lipid (fat)",g,--,--,0.00,0.00
"Carbohydrate, by difference",g,--,--,16.00,80.00
"Fiber, total dietary",g,--,--,1.0,5.0
"Sugars, total",g,--,--,13.00,65.00
Minerals
"Calcium, Ca",mg,--,--,0,0
"Iron, Fe",mg,--,--,0.00,0.00
"Sodium, Na",mg,--,--,15,75
Vitamins
"Vitamin C, total ascorbic acid",mg,--,--,0.0,0.0
"Vitamin A, IU",IU,--,--,0,0
Lipids
"Fatty acids, total saturated",g,--,--,0.000,0.000
"Fatty acids, total trans",g,--,--,0.000,0.000
"Cholesterol",mg,--,--,0,0
Amino Acids
Other
Ingredients
"CONCENTRATED APPLE PUREE AND JUICE (CONTAINS ASCORBIC ACID), CONCENTRATED STRAWBERRY JUICE, CONCENTRATED RASPBERRY JUICE, CONCENTRATED BLUEBERRY JUICE, NATURAL FLAVOR, CONCENTRATED PURPLE CARROT JUICE FOR COLOR, PECTIN, GLAZING AGENT (COCONUT OIL, SHELLAC, BEESWAX)." Date available: 07/14/2017 Date last updated by company: 07/14/2017
