Source: USDA Branded Food Products Database Release December 2017 Software v.3.8.6.4 2017-10-02
Report Run at: December 17, 2017 15:00 EST
"Nutrient data for: 45190204, FRUIT BAR ICE CREAM, UPC: 023911150121"
Food Group:  Branded Food Products Database
Common Name:

Nutrient,Unit,Data points,Std. Error,"1 BAR = 118.0g",1Value per 100 g,
Proximates
"Energy",kcal,--,--,110,93
"Protein",g,--,--,0.00,0.00
"Total lipid (fat)",g,--,--,0.00,0.00
"Carbohydrate, by difference",g,--,--,27.00,22.88
"Fiber, total dietary",g,--,--,0.0,0.0
"Sugars, total",g,--,--,22.00,18.64
Minerals
"Calcium, Ca",mg,--,--,0,0
"Iron, Fe",mg,--,--,0.00,0.00
"Sodium, Na",mg,--,--,9,8
Vitamins
"Vitamin C, total ascorbic acid",mg,--,--,6.7,5.7
"Vitamin A, IU",IU,--,--,0,0
Lipids
"Fatty acids, total saturated",g,--,--,0.000,0.000
"Fatty acids, total trans",g,--,--,0.000,0.000
"Cholesterol",mg,--,--,0,0
Amino Acids
Other
Ingredients
"WATER, SUGAR, LIME JUICE AND PULP, LOCUST BEAN GUM, GUAR GUM, NATURAL FLAVOR, CERTIFIED COLOR ADDED." Date available: 07/14/2017 Date last updated by company: 07/14/2017
