Source: USDA Branded Food Products Database Release December 2017 Software v.3.8.6.4 2017-10-02
Report Run at: December 17, 2017 16:47 EST
"Nutrient data for: 45228271, FRUTA WHOLE BLACKBERRY, UPC: 041331090766"
Food Group:  Branded Food Products Database
Common Name:

Nutrient,Unit,Data points,Std. Error,"0.5 cup = 97.0g",1Value per 100 g,
Proximates
"Energy",kcal,--,--,349,360
"Protein",g,--,--,6.00,6.19
"Total lipid (fat)",g,--,--,0.00,0.00
"Carbohydrate, by difference",g,--,--,78.00,80.41
"Fiber, total dietary",g,--,--,26.0,26.8
"Sugars, total",g,--,--,26.00,26.80
Minerals
"Calcium, Ca",mg,--,--,0,0
"Iron, Fe",mg,--,--,0.00,0.00
"Sodium, Na",mg,--,--,14,14
Vitamins
"Vitamin C, total ascorbic acid",mg,--,--,43.3,44.6
"Vitamin A, IU",IU,--,--,0,0
Lipids
"Fatty acids, total saturated",g,--,--,0.000,0.000
"Fatty acids, total trans",g,--,--,0.000,0.000
"Cholesterol",mg,--,--,0,0
Amino Acids
Other
Ingredients
"BLACKBERRIES" Date available: 07/14/2017 Date last updated by company: 07/14/2017
