Source: USDA Branded Food Products Database Release December 2017 Software v.3.8.6.4 2017-10-02
Report Run at: December 17, 2017 16:56 EST
"Nutrient data for: 45286432, FUDGE-DIPPED STRAWBERRY CAKES, UPC: 024300044915"
Food Group:  Branded Food Products Database
Common Name:

Nutrient,Unit,Data points,Std. Error,"1 CAKE = 43.0g",1Value per 100 g,
Proximates
"Energy",kcal,--,--,190,442
"Protein",g,--,--,1.00,2.33
"Total lipid (fat)",g,--,--,9.00,20.93
"Carbohydrate, by difference",g,--,--,26.00,60.47
"Fiber, total dietary",g,--,--,0.0,0.0
"Sugars, total",g,--,--,19.00,44.19
Minerals
"Calcium, Ca",mg,--,--,0,0
"Iron, Fe",mg,--,--,1.34,3.11
"Potassium, K",mg,--,--,40,93
"Sodium, Na",mg,--,--,80,186
Vitamins
"Vitamin C, total ascorbic acid",mg,--,--,0.0,0.0
"Vitamin A, IU",IU,--,--,0,0
Lipids
"Fatty acids, total saturated",g,--,--,5.001,11.630
"Fatty acids, total monounsaturated",g,--,--,2.000,4.650
"Fatty acids, total polyunsaturated",g,--,--,1.501,3.490
"Fatty acids, total trans",g,--,--,0.000,0.000
"Cholesterol",mg,--,--,0,0
Amino Acids
Other
Ingredients
"SUGAR, CORN SYRUP, WATER, ENRICHED BLEACHED FLOUR (WHEAT FLOUR, NIACIN, REDUCED IRON, THIAMIN MONONITRATE [VITAMIN B1], RIBOFLAVIN [VITAMIN B2], FOLIC ACID), PALM AND SOYBEAN OILS WITH TBHQ AND CITRIC ACID TO PROTECT FLAVOR, PALM AND PALM KERNEL OIL, DEXTROSE, COCOA. CONTAINS 2% OR LESS OF EACH OF THE FOLLOWING: SOY FLOUR, EGG WHITES, CORN STARCH, SOYBEAN OIL, WHEY (MILK), LEAVENING (BAKING SODA, SODIUM ALUMINUM PHOSPHATE), SALT, SORBIC ACID (TO PRESERVE FRESHNESS), SORBITAN MONOSTEARATE, SOY LECITHIN, NATURAL AND ARTIFICIAL FLAVORS, MONO- AND DIGLYCERIDES, POLYSORBATE 60, ARTIFICIAL COLORS (INCLUDES RED 40, RED 40 LAKE), POLYSORBATE 80, CITRIC ACID." Date available: 10/04/2017 Date last updated by company: 10/04/2017
