Source: USDA Branded Food Products Database Release December 2017 Software v.3.8.6.4 2017-10-02
Report Run at: December 17, 2017 17:02 EST
"Nutrient data for: 45271231, FUDGE, UPC: 029405037169"
Food Group:  Branded Food Products Database
Common Name:

Nutrient,Unit,Data points,Std. Error,"2.0 -1/4"""" X 3/4"""" X 1"""" SQ.) | ABOUT = 42.0g",1Value per 100 g,
Proximates
"Energy",kcal,--,--,170,405
"Protein",g,--,--,0.00,0.00
"Total lipid (fat)",g,--,--,6.00,14.29
"Carbohydrate, by difference",g,--,--,27.00,64.29
"Fiber, total dietary",g,--,--,0.0,0.0
"Sugars, total",g,--,--,23.00,54.76
Minerals
"Calcium, Ca",mg,--,--,40,95
"Iron, Fe",mg,--,--,0.00,0.00
"Sodium, Na",mg,--,--,65,155
Vitamins
"Vitamin C, total ascorbic acid",mg,--,--,0.0,0.0
"Vitamin A, IU",IU,--,--,119,283
Lipids
"Fatty acids, total saturated",g,--,--,6.002,14.290
"Fatty acids, total trans",g,--,--,0.000,0.000
"Cholesterol",mg,--,--,5,12
Amino Acids
Other
Ingredients
"SUGAR, WATER, HYDROGENATED PALM KERNEL OIL WITH SOY LECITHIN, BUTTER (CREAM [MILK], SALT), CORN SYRUP SOLIDS, BROWN SUGAR, STRAWBERRY MASH (STRAWBERRY PUREE, SUGAR, WATER, DEXTROSE, CITRIC ACID, ARTIFICIAL FLAVOR, PECTIN, ALGIN, SODIUM BENZOATE [PRESERVATIVE], RED 40)., NONFAT DRY MILK SOLIDS, CREAM (MILK) POWDER, SORBITOL, SALT, NATURAL & ARTIFICIAL FLAVOR, POTASSIUM SORBATE (PRESERVATIVE)." Date available: 07/14/2017 Date last updated by company: 07/14/2017
