Source: USDA Branded Food Products Database Release December 2017 Software v.3.8.6.4 2017-10-02
Report Run at: December 17, 2017 16:59 EST
"Nutrient data for: 45190599, FUDGE STICKS, FROZEN CHOCOLATE DAIRY DESSERT, UPC: 041268195831"
Food Group:  Branded Food Products Database
Common Name:

Nutrient,Unit,Data points,Std. Error,"1 STICK = 45.0g",1Value per 100 g,
Proximates
"Energy",kcal,--,--,60,133
"Protein",g,--,--,2.00,4.44
"Total lipid (fat)",g,--,--,0.00,0.00
"Carbohydrate, by difference",g,--,--,12.00,26.67
"Fiber, total dietary",g,--,--,0.0,0.0
"Sugars, total",g,--,--,8.00,17.78
Minerals
"Calcium, Ca",mg,--,--,60,133
"Iron, Fe",mg,--,--,0.96,2.13
"Sodium, Na",mg,--,--,40,89
Vitamins
"Vitamin C, total ascorbic acid",mg,--,--,0.0,0.0
"Vitamin A, IU",IU,--,--,0,0
Lipids
"Fatty acids, total saturated",g,--,--,0.000,0.000
"Fatty acids, total trans",g,--,--,0.000,0.000
"Cholesterol",mg,--,--,0,0
Amino Acids
Other
Ingredients
"WATER, CORN SYRUP, SKIM MILK*, WHEY, HIGH FRUCTOSE CORN SYRUP, SUGAR, COCOA (PROCESSED WITH ALKALI)*, CONTAINS LESS THAN 2% OF GUAR GUM, MONO AND DIGLYCERIDES, LOCUST BEAN GUM ,CALCIUM SULFATE, POLYSORBATE 80." Date available: 07/14/2017 Date last updated by company: 07/14/2017
