Source: USDA Branded Food Products Database Release December 2017 Software v.3.8.6.4 2017-10-02
Report Run at: December 17, 2017 17:00 EST
"Nutrient data for: 45293122, FUDGE STRIPES COOKIES CHEESECAKE, UPC: 030100114406"
Food Group:  Branded Food Products Database
Common Name:

Nutrient,Unit,Data points,Std. Error,"2.0 COOKIES = 28.0g",1Value per 100 g,
Proximates
"Energy",kcal,--,--,140,500
"Protein",g,--,--,1.00,3.57
"Total lipid (fat)",g,--,--,7.00,25.00
"Carbohydrate, by difference",g,--,--,20.00,71.43
"Fiber, total dietary",g,--,--,0.0,0.0
"Sugars, total",g,--,--,10.00,35.71
Minerals
"Calcium, Ca",mg,--,--,5,18
"Iron, Fe",mg,--,--,0.60,2.14
"Potassium, K",mg,--,--,30,107
"Sodium, Na",mg,--,--,75,268
Vitamins
"Vitamin D",IU,--,--,0,0
Lipids
"Fatty acids, total saturated",g,--,--,4.001,14.290
"Fatty acids, total trans",g,--,--,0.000,0.000
"Cholesterol",mg,--,--,0,0
Amino Acids
Other
Ingredients
"ENRICHED FLOUR (WHEAT FLOUR, NIACIN, REDUCED IRON, VITAMIN B1 [THIAMIN MONONITRATE], VITAMIN B2 [RIBOFLAVIN], FOLIC ACID), SUGAR, VEGETABLE OIL (PALM KERNEL, SOYBEAN AND PALM OIL), HIGH FRUCTOSE CORN SYRUP, WHEY. CONTAINS 2% OR LESS OF LEAVENING (BAKING SODA, SODIUM ACID PYROPHOSPHATE, MONOCALCIUM PHOSPHATE), SALT, SOY LECITHIN, COLOR ADDED, POLYSORBATE 60, SORBITAN MONOSTEARATE, NATURAL AND ARTIFICIAL FLAVORS, MOLASSES, LACTIC ACID, RED 40." Date available: 09/23/2017 Date last updated by company: 09/23/2017
