Source: USDA Branded Food Products Database Release December 2017 Software v.3.8.6.4 2017-10-02
Report Run at: December 17, 2017 16:55 EST
"Nutrient data for: 45210120, FUDGE COOKIES, UPC: 041220996858"
Food Group:  Branded Food Products Database
Common Name:

Nutrient,Unit,Data points,Std. Error,"1 COOKIE = 19.0g",1Value per 100 g,
Proximates
"Energy",kcal,--,--,80,421
"Protein",g,--,--,1.00,5.26
"Total lipid (fat)",g,--,--,3.50,18.42
"Carbohydrate, by difference",g,--,--,11.00,57.89
"Fiber, total dietary",g,--,--,0.0,0.0
"Sugars, total",g,--,--,6.00,31.58
Minerals
"Calcium, Ca",mg,--,--,0,0
"Iron, Fe",mg,--,--,1.90,9.98
"Sodium, Na",mg,--,--,90,474
Vitamins
"Vitamin C, total ascorbic acid",mg,--,--,0.0,0.0
"Vitamin A, IU",IU,--,--,0,0
Lipids
"Fatty acids, total saturated",g,--,--,1.499,7.890
"Fatty acids, total monounsaturated",g,--,--,0.999,5.260
"Fatty acids, total polyunsaturated",g,--,--,0.000,0.000
"Fatty acids, total trans",g,--,--,0.000,0.000
"Cholesterol",mg,--,--,5,26
Amino Acids
Other
Ingredients
"ENRICHED WHEAT FLOUR (FLOUR, NIACIN, REDUCED IRON, THIAMINE MONONITRATE, RIBOFLAVIN, FOLIC ACID), SUGAR, MARGARINE (PALM OIL, WATER, SALT, MONO- AND DIGLYCERIDES, ARTIFICIAL BUTTER FLAVOR, ANNATTO [COLOR] OR BETA- CAROTENE [COLOR], CALCIUM DISODIUM EDTA [PRESERVATIVE], VITAMIN A PALMITATE AND/OR CITRIC ACID), EGGS, CHOCOLATE CHIPS (SUGAR, CHOCOLATE LIQUOR, COCOA BUTTER, BUTTERFAT, SOY LECITHIN AND VANILLA), COCOA POWDER (PROCESSED WITH ALKALI), WHITE CONFECTIONARY CHIPS (SUGAR, PALM KERNEL OIL, MILK, NONFAT DRY MILK, BUTTERFAT, SOY LECITHIN AND VANILLA), SOY FLOUR, MOLASSES, INVERT SUGAR, SALT, SODIUM BICARBONATE, SOY LECITHIN, NATURAL VANILLA EXTRACT (CONTAINS ETHYL ALCOHOL)." Date available: 07/14/2017 Date last updated by company: 07/14/2017
