Source: USDA Branded Food Products Database Release December 2017 Software v.3.8.6.4 2017-10-02
Report Run at: December 17, 2017 17:45 EST
"Nutrient data for: 45287792, FULLY COOKED UNCURED CANADIAN BACON, UPC: 046567506685"
Food Group:  Branded Food Products Database
Common Name:

Nutrient,Unit,Data points,Std. Error,"3.0 SLICES = 51.0g",1Value per 100 g,
Proximates
"Energy",kcal,--,--,60,118
"Protein",g,--,--,11.00,21.57
"Total lipid (fat)",g,--,--,1.50,2.94
"Carbohydrate, by difference",g,--,--,1.00,1.96
Minerals
"Iron, Fe",mg,--,--,0.78,1.52
"Sodium, Na",mg,--,--,460,902
Vitamins
"Vitamin C, total ascorbic acid",mg,--,--,1.3,2.5
Lipids
"Fatty acids, total saturated",g,--,--,0.500,0.980
"Fatty acids, total trans",g,--,--,0.000,0.000
"Cholesterol",mg,--,--,30,59
Amino Acids
Other
Ingredients
"PORK, WATER, SALT, TURBINADO SUGAR, NATURAL FLAVORINGS." Date available: 07/14/2017 Date last updated by company: 07/14/2017
