Source: USDA Branded Food Products Database Release December 2017 Software v.3.8.6.4 2017-10-02
Report Run at: December 17, 2017 17:23 EST
"Nutrient data for: 45170405, FULL CIRCLE MARKET, SWEET POTATO CHIPS WITH SEA SALT, UPC: 036800012097"
Food Group:  Branded Food Products Database
Common Name:

Nutrient,Unit,Data points,Std. Error,"14.0 CHIPS | ABOUT = 28.0g",1Value per 100 g,
Proximates
"Energy",kcal,--,--,150,536
"Protein",g,--,--,1.00,3.57
"Total lipid (fat)",g,--,--,9.00,32.14
"Carbohydrate, by difference",g,--,--,17.00,60.71
"Fiber, total dietary",g,--,--,2.0,7.1
"Sugars, total",g,--,--,5.00,17.86
Minerals
"Calcium, Ca",mg,--,--,40,143
"Iron, Fe",mg,--,--,0.36,1.29
"Potassium, K",mg,--,--,340,1214
"Sodium, Na",mg,--,--,70,250
Vitamins
"Vitamin C, total ascorbic acid",mg,--,--,9.0,32.1
"Vitamin A, IU",IU,--,--,4500,16071
Lipids
"Fatty acids, total saturated",g,--,--,1.000,3.570
"Fatty acids, total trans",g,--,--,0.000,0.000
"Cholesterol",mg,--,--,0,0
Amino Acids
Other
Ingredients
"SWEET POTATOES, CANOLA OIL AND/OR SAFFLOWER OIL AND/OR SUNFLOWER OIL, SEA SALT." Date available: 12/02/2016 Date last updated by company: 12/02/2016
