Source: USDA Branded Food Products Database Release December 2017 Software v.3.8.6.4 2017-10-02
Report Run at: December 17, 2017 17:13 EST
"Nutrient data for: 45123080, FULL CIRCLE, HONEY NUT TOASTED OATS, UPC: 036800062580"
Food Group:  Branded Food Products Database
Common Name:

Nutrient,Unit,Data points,Std. Error,"1 cup = 30.0g",1Value per 100 g,
Proximates
"Energy",kcal,--,--,120,400
"Protein",g,--,--,3.00,10.00
"Total lipid (fat)",g,--,--,1.00,3.33
"Carbohydrate, by difference",g,--,--,24.00,80.00
"Fiber, total dietary",g,--,--,2.0,6.7
"Sugars, total",g,--,--,10.00,33.33
Minerals
"Calcium, Ca",mg,--,--,40,133
"Iron, Fe",mg,--,--,6.00,20.00
"Potassium, K",mg,--,--,60,200
"Sodium, Na",mg,--,--,170,567
"Zinc, Zn",mg,--,--,3.75,12.50
Vitamins
"Vitamin C, total ascorbic acid",mg,--,--,8.0,26.7
"Thiamin",mg,--,--,0.600,2.000
"Niacin",mg,--,--,8.334,27.780
"Vitamin B-6",mg,--,--,0.833,2.778
"Vitamin A, IU",IU,--,--,667,2222
"Vitamin D",IU,--,--,40,133
Lipids
"Fatty acids, total saturated",g,--,--,0.000,0.000
"Fatty acids, total trans",g,--,--,0.000,0.000
"Cholesterol",mg,--,--,0,0
Amino Acids
Other
Ingredients
"ORGANIC WHOLE GRAIN OATS (INCLUDES THE OAT BRAN), ORGANIC SUGAR, ORGANIC RICE FLOUR, ORGANIC HONEY, SALT, ORGANIC GROUND ALMONDS, CALCIUM CARBONATE, MIXED TOCOPHEROLS (VITAMIN E) ADDED TO PRESERVE FRESHNESS., VITAMINS AND MINERALS: FERRIC ORTHOPHOSPHATE (IRON SOURCE), SODIUM ASCORBATE (VITAMIN C), NIACINAMIDE (A B VITAMIN), ZINC OXIDE (ZINC SOURCE), VITAMIN A ACETATE, FOLIC ACID (A B VITAMIN), PYRIDOXINE HYDROCHLORIDE (VITAMIN B6), THIAMIN MONONITRATE (VITAMIN B1), VITAMIN D." Date available: 06/25/2017 Date last updated by company: 06/25/2017
