Source: USDA Branded Food Products Database Release December 2017 Software v.3.8.6.4 2017-10-02
Report Run at: December 17, 2017 17:13 EST
"Nutrient data for: 45224726, FULL CIRCLE MARKET, BONELESS PORK SHOULDER ROAST, UPC: 036800238039"
Food Group:  Branded Food Products Database
Common Name:

Nutrient,Unit,Data points,Std. Error,"4.0 ONZ = 112.0g",1Value per 100 g,
Proximates
"Energy",kcal,--,--,211,188
"Protein",g,--,--,20.00,17.86
"Total lipid (fat)",g,--,--,14.00,12.50
"Carbohydrate, by difference",g,--,--,0.00,0.00
Minerals
"Calcium, Ca",mg,--,--,20,18
"Iron, Fe",mg,--,--,1.10,0.98
"Sodium, Na",mg,--,--,69,62
Vitamins
Lipids
"Fatty acids, total saturated",g,--,--,4.995,4.460
"Fatty acids, total trans",g,--,--,0.000,0.000
"Cholesterol",mg,--,--,69,62
Amino Acids
Other
Ingredients
"BONELESS PORK SHOULDER ROAST" Date available: 07/14/2017 Date last updated by company: 07/14/2017
