Source: USDA Branded Food Products Database Release December 2017 Software v.3.8.6.4 2017-10-02
Report Run at: December 17, 2017 17:41 EST
"Nutrient data for: 45282237, FULLY COOKED PORK RIBS WITH BARBECUE SAUCE, UPC: 021130214709"
Food Group:  Branded Food Products Database
Common Name:

Nutrient,Unit,Data points,Std. Error,"5.0 ONZ = 140.0g",1Value per 100 g,
Proximates
"Energy",kcal,--,--,321,229
"Protein",g,--,--,20.01,14.29
"Total lipid (fat)",g,--,--,18.00,12.86
"Carbohydrate, by difference",g,--,--,17.00,12.14
"Fiber, total dietary",g,--,--,0.0,0.0
"Sugars, total",g,--,--,14.99,10.71
Minerals
"Calcium, Ca",mg,--,--,41,29
"Iron, Fe",mg,--,--,1.08,0.77
"Sodium, Na",mg,--,--,540,386
Vitamins
"Vitamin C, total ascorbic acid",mg,--,--,1.3,0.9
"Vitamin A, IU",IU,--,--,200,143
Lipids
"Fatty acids, total saturated",g,--,--,7.000,5.000
"Fatty acids, total trans",g,--,--,0.000,0.000
"Cholesterol",mg,--,--,70,50
Amino Acids
Other
Ingredients
"PORK BACK RIBS, BARBECUE SAUCE (WATER, CORN SYRUP, TOMATO PASTE, VINEGAR, TAPIOCA STARCH, SUGAR, SALT, SMOKE FLAVOR, CARAMEL COLOR, SOYBEAN OIL, HYDROLYZED SOY PROTEIN, ONION POWDER, GARLIC POWDER, XANTHAN GUM, POTASSIUM SORBATE, SODIUM BENZOATE, GROUND WHITE PEPPER, GROUND RED PEPPER, SOLUBLE CLOVES, GROUND CINNAMON." Date available: 07/14/2017 Date last updated by company: 07/14/2017
