Source: USDA Branded Food Products Database Release December 2017 Software v.3.8.6.4 2017-10-02
Report Run at: December 17, 2017 17:39 EST
"Nutrient data for: 45281625, FULLY COOKED HOT DOGS, UPC: 078742068367"
Food Group:  Branded Food Products Database
Common Name:

Nutrient,Unit,Data points,Std. Error,"1 FRANK = 56.0g",1Value per 100 g,
Proximates
"Energy",kcal,--,--,160,286
"Protein",g,--,--,8.00,14.29
"Total lipid (fat)",g,--,--,14.00,25.00
"Carbohydrate, by difference",g,--,--,1.00,1.79
"Fiber, total dietary",g,--,--,0.0,0.0
"Sugars, total",g,--,--,0.00,0.00
Minerals
"Calcium, Ca",mg,--,--,20,36
"Iron, Fe",mg,--,--,0.35,0.63
"Sodium, Na",mg,--,--,570,1018
Vitamins
"Vitamin C, total ascorbic acid",mg,--,--,1.2,2.1
"Vitamin A, IU",IU,--,--,98,175
Lipids
"Fatty acids, total saturated",g,--,--,4.502,8.040
"Fatty acids, total trans",g,--,--,0.000,0.000
"Cholesterol",mg,--,--,35,62
Amino Acids
Other
Ingredients
"MECHANICALLY SEPARATED CHICKEN, PORK, WATER, BEEF, CONTAINS LESS THAN 2% OF SALT, SORBITOL, MUSTARD, DEXTROSE, SODIUM PHOSPHATE, GARLIC POWDER, SPICE EXTRACTIVES, SODIUM ERYTHORBATE, SODIUM NITRITE." Date available: 07/14/2017 Date last updated by company: 07/14/2017
