Source: USDA Branded Food Products Database Release December 2017 Software v.3.8.6.4 2017-10-02
Report Run at: December 17, 2017 17:26 EST
"Nutrient data for: 45011265, FULL CIRCLE, ORGANIC LENTIL SOUP, UPC: 036800352902"
Food Group:  Branded Food Products Database
Common Name:

Nutrient,Unit,Data points,Std. Error,"1 cup = 245.0g",1Value per 100 g,
Proximates
"Energy",kcal,--,--,71,29
"Protein",g,--,--,2.99,1.22
"Total lipid (fat)",g,--,--,0.00,0.00
"Carbohydrate, by difference",g,--,--,14.99,6.12
"Fiber, total dietary",g,--,--,2.0,0.8
"Sugars, total",g,--,--,2.99,1.22
Minerals
"Calcium, Ca",mg,--,--,20,8
"Iron, Fe",mg,--,--,0.37,0.15
"Sodium, Na",mg,--,--,750,306
Vitamins
"Vitamin C, total ascorbic acid",mg,--,--,0.0,0.0
"Vitamin A, IU",IU,--,--,1000,408
Lipids
"Fatty acids, total saturated",g,--,--,0.000,0.000
"Fatty acids, total trans",g,--,--,0.000,0.000
"Cholesterol",mg,--,--,0,0
Amino Acids
Other
Ingredients
"FILTERED WATER, ORGANIC LENTILS, ORGANIC CARROTS, ORGANIC CELERY, ORGANIC VEGETABLE BASE (ORGANIC VEGETABLES [ORGANIC CARROT, ORGANIC ONION, ORGANIC CELERY], SEA SALT, ORGANIC CANE SUGAR, ORGANIC CANOLA OIL, ORGANIC CARROT POWDER, ORGANIC POTATO FLOUR, ORGANIC ONION POWDER, ORGANIC BLACK PEPPER), CONTAINS LESS THAN 2% OF THE FOLLOWING INGREDIENTS: ORGANIC CORN STARCH, ORGANIC TOMATO PASTE (ORGANIC TOMATOES, CITRIC ACID), ORGANIC SPINACH, ORGANIC CANE SUGAR, SEA SALT, ORGANIC ONION POWDER, ORGANIC GARLIC POWDER, CITRIC ACID." Date available: 07/14/2017 Date last updated by company: 07/14/2017
