Source: USDA Branded Food Products Database Release December 2017 Software v.3.8.6.4 2017-10-02
Report Run at: December 17, 2017 17:33 EST
"Nutrient data for: 45086818, FULL FAT SOFT-RIPENED CHEESE FAT IN DRY MATTER 50%, UPC: 3360410000715"
Food Group:  Branded Food Products Database
Common Name:

Nutrient,Unit,Data points,Std. Error,"1 ONZ = 28.0g",1Value per 100 g,
Proximates
"Energy",kcal,--,--,87,311
"Protein",g,--,--,5.00,17.86
"Total lipid (fat)",g,--,--,7.00,25.00
"Carbohydrate, by difference",g,--,--,1.00,3.57
Minerals
"Calcium, Ca",mg,--,--,64,229
"Sodium, Na",mg,--,--,235,839
Vitamins
Lipids
"Fatty acids, total saturated",g,--,--,5.001,17.860
"Cholesterol",mg,--,--,6,21
Amino Acids
Other
Ingredients
"INGREDIENTS: 100% PASTEURIZED COW'S MILK, SALT, LACTIC FERMENTS AND OF REFINING, RENNET, BURGUNDY MARC" Date available: 07/14/2017 Date last updated by company: 07/14/2017
