Source: USDA Branded Food Products Database Release December 2017 Software v.3.8.6.4 2017-10-02
Report Run at: December 17, 2017 17:16 EST
"Nutrient data for: 45042484, FULL CIRCLE MARKET, ORGANIC BRAN FLAKES CEREAL, UPC: 036800382763"
Food Group:  Branded Food Products Database
Common Name:

Nutrient,Unit,Data points,Std. Error,"3.0 cup = 30.0g",1Value per 100 g,
Proximates
"Energy",kcal,--,--,100,333
"Protein",g,--,--,4.00,13.33
"Total lipid (fat)",g,--,--,0.50,1.67
"Carbohydrate, by difference",g,--,--,24.00,80.00
"Fiber, total dietary",g,--,--,5.0,16.7
"Sugars, total",g,--,--,2.00,6.67
Minerals
"Calcium, Ca",mg,--,--,20,67
"Iron, Fe",mg,--,--,3.30,11.00
"Potassium, K",mg,--,--,160,533
"Sodium, Na",mg,--,--,95,317
Vitamins
"Vitamin C, total ascorbic acid",mg,--,--,0.0,0.0
"Vitamin A, IU",IU,--,--,0,0
Lipids
"Fatty acids, total saturated",g,--,--,0.000,0.000
"Fatty acids, total trans",g,--,--,0.000,0.000
"Cholesterol",mg,--,--,0,0
Amino Acids
Other
Ingredients
"ORGANIC WHOLE GRAIN WHEAT, ORGANIC WHEAT BRAN, ORGANIC CANE SUGAR, ORGANIC BARLEY MALT EXTRACT, SEA SALT." Date available: 07/14/2017 Date last updated by company: 07/14/2017
