Source: USDA Branded Food Products Database Release December 2017 Software v.3.8.6.4 2017-10-02
Report Run at: December 17, 2017 17:38 EST
"Nutrient data for: 45268561, FULLY COOKED CONTINENTAL BRAND LIVERWURST, UPC: 794890230158"
Food Group:  Branded Food Products Database
Common Name:

Nutrient,Unit,Data points,Std. Error,"2.0 ONZ = 55.0g",1Value per 100 g,
Proximates
"Energy",kcal,--,--,230,418
"Protein",g,--,--,7.00,12.73
"Total lipid (fat)",g,--,--,22.00,40.00
"Carbohydrate, by difference",g,--,--,1.00,1.82
"Fiber, total dietary",g,--,--,0.0,0.0
"Sugars, total",g,--,--,0.00,0.00
Minerals
"Calcium, Ca",mg,--,--,10,18
"Iron, Fe",mg,--,--,3.60,6.55
"Sodium, Na",mg,--,--,332,604
Vitamins
"Vitamin C, total ascorbic acid",mg,--,--,3.0,5.5
"Vitamin A, IU",IU,--,--,3000,5455
Lipids
"Fatty acids, total saturated",g,--,--,8.002,14.550
"Fatty acids, total trans",g,--,--,0.000,0.000
"Cholesterol",mg,--,--,73,133
Amino Acids
Other
Ingredients
"PORK, PORK LIVER, WATER, ONIONS, SEA SALT, SPICES." Date available: 07/14/2017 Date last updated by company: 07/14/2017
