Source: USDA Branded Food Products Database Release December 2017 Software v.3.8.6.4 2017-10-02
Report Run at: December 17, 2017 17:46 EST
"Nutrient data for: 45189158, FULTON SEA FOOD, FROZEN SHRIMPS-PD TAIL OFF - COOKED IQF, UPC: 8908000640931"
Food Group:  Branded Food Products Database
Common Name:

Nutrient,Unit,Data points,Std. Error,"3.0 ONZ = 84.0g",1Value per 100 g,
Proximates
"Energy",kcal,--,--,80,95
"Protein",g,--,--,18.00,21.43
"Total lipid (fat)",g,--,--,1.00,1.19
"Carbohydrate, by difference",g,--,--,0.00,0.00
"Fiber, total dietary",g,--,--,0.0,0.0
"Sugars, total",g,--,--,0.00,0.00
Minerals
"Calcium, Ca",mg,--,--,20,24
"Iron, Fe",mg,--,--,0.36,0.43
"Sodium, Na",mg,--,--,190,226
Vitamins
"Vitamin A, IU",IU,--,--,0,0
Lipids
"Fatty acids, total saturated",g,--,--,0.000,0.000
"Fatty acids, total trans",g,--,--,0.000,0.000
"Cholesterol",mg,--,--,165,196
Amino Acids
Other
Ingredients
"SHRIMPS, WATER, SALT, SODIUM TRIPOLY PHOSPHATE (TO RETAIN MOISTURE) AND PAPRICA" Date available: 07/14/2017 Date last updated by company: 07/14/2017
