Source: USDA Branded Food Products Database Release December 2017 Software v.3.8.6.4 2017-10-02
Report Run at: December 17, 2017 17:47 EST
"Nutrient data for: 45124695, FUN DIP, CANDY, CHERRY YUM DIDDLY DIP, RAZZ APPLE MAGIC DIP, UPC: 079200622411"
Food Group:  Branded Food Products Database
Common Name:

Nutrient,Unit,Data points,Std. Error,"1 POUCH = 12.0g",1Value per 100 g,
Proximates
"Energy",kcal,--,--,45,375
"Protein",g,--,--,0.00,0.00
"Total lipid (fat)",g,--,--,0.00,0.00
"Carbohydrate, by difference",g,--,--,11.00,91.67
"Sugars, total",g,--,--,11.00,91.67
Minerals
"Sodium, Na",mg,--,--,0,0
Vitamins
Lipids
Amino Acids
Other
Ingredients
"CHERRY INGREDIENTS: DEXTROSE, MALTODEXTRIN, AND LESS THAN 2% OF CITRIC ACID, CALCIUM STEARATE, NATURAL FLAVORS, RED 40 LAKE. RAZZAPPLE INGREDIENTS: DEXTROSE, MALTODEXTRIN, AND LESS THAN 2% OF CITRIC ACID, CALCIUM STEARATE, NATURAL FLAVORS, BLUE 1, BLUE 1 LAKE, YELLOW 5." Date available: 10/06/2017 Date last updated by company: 10/06/2017
