Source: USDA Branded Food Products Database Release December 2017 Software v.3.8.6.4 2017-10-02
Report Run at: December 17, 2017 17:46 EST
"Nutrient data for: 45314894, FUN BUGS GUMMY CANDY WITH JUICY CENTERS, UPC: 052548603144"
Food Group:  Branded Food Products Database
Common Name:

Nutrient,Unit,Data points,Std. Error,"8.0 PIECES = 30.0g",1Value per 100 g,
Proximates
"Energy",kcal,--,--,100,333
"Protein",g,--,--,1.00,3.33
"Total lipid (fat)",g,--,--,0.00,0.00
"Carbohydrate, by difference",g,--,--,23.00,76.67
"Sugars, total",g,--,--,16.00,53.33
Minerals
"Potassium, K",mg,--,--,2,7
"Sodium, Na",mg,--,--,25,83
Vitamins
Lipids
Amino Acids
Other
Ingredients
"CORN SYRUP, SUGAR, GELATIN, MODIFIED FOOD STARCH (POTATO), APPLE JUICE CONCENTRATE, CITRIC ACID, MALIC ACID, PECTIN, MODIFIED FOOD STARCH (CORN), NATURAL AND ARTIFICIAL FLAVORS, COCONUT OIL, SODIUM CITRATE, CARNAUBA WAX, RED 40, YELLOW 5, BLUE 1." Date available: 07/14/2017 Date last updated by company: 07/14/2017
