Source: USDA Branded Food Products Database Release December 2017 Software v.3.8.6.4 2017-10-02
Report Run at: December 17, 2017 17:48 EST
"Nutrient data for: 45243131, FUN DRINKS, UPC: 011225093173"
Food Group:  Branded Food Products Database
Common Name:

Nutrient,Unit,Data points,Std. Error,"1 BOTTLE = 237.0g",1Value per 100 g,
Proximates
"Energy",kcal,--,--,100,42
"Protein",g,--,--,0.00,0.00
"Total lipid (fat)",g,--,--,0.00,0.00
"Carbohydrate, by difference",g,--,--,25.00,10.55
"Sugars, total",g,--,--,24.01,10.13
Minerals
"Sodium, Na",mg,--,--,19,8
Vitamins
Lipids
Amino Acids
Other
Ingredients
"WATER, HIGH FRUCTOSE CORN SYRUP, CITRIC ACID, NATURAL AND ARTIFICIAL FLAVORING, ARTIFICIAL COLORING (MAY OR MAY NOT CONTAIN: BLUE 1, GREEN 3, RED 40, YELLOW 5 OR YELLOW 6), LESS THAN 0.1 OF 1% OF SODIUM BENZOATE AND POTASSIUM SORBATE AS PRESERVATIVE." Date available: 07/14/2017 Date last updated by company: 07/14/2017
