Source: USDA Branded Food Products Database Release December 2017 Software v.3.8.6.4 2017-10-02
Report Run at: December 17, 2017 17:52 EST
"Nutrient data for: 45318452, FUN SIZE BARS, UPC: 040000464082"
Food Group:  Branded Food Products Database
Common Name:

Nutrient,Unit,Data points,Std. Error,"2.0 BARS = 34.0g",1Value per 100 g,
Proximates
"Energy",kcal,--,--,160,471
"Protein",g,--,--,3.00,8.82
"Total lipid (fat)",g,--,--,8.00,23.53
"Carbohydrate, by difference",g,--,--,21.00,61.76
"Fiber, total dietary",g,--,--,1.0,2.9
"Sugars, total",g,--,--,18.00,52.94
Minerals
"Calcium, Ca",mg,--,--,20,59
"Iron, Fe",mg,--,--,0.53,1.56
"Sodium, Na",mg,--,--,80,235
Vitamins
"Vitamin A, IU",IU,--,--,100,294
Lipids
"Fatty acids, total saturated",g,--,--,2.999,8.820
"Fatty acids, total trans",g,--,--,0.000,0.000
"Cholesterol",mg,--,--,0,0
Amino Acids
Other
Ingredients
"MILK CHOCOLATE (SUGAR, COCOA BUTTER, CHOCOLATE, SKIM MILK, LACTOSE, MILKFAT, SOY LECITHIN, ARTIFICIAL FLAVOR), PEANUTS, CORN SYRUP, SUGAR, PALM OIL, SKIM MILK, LACTOSE, SALT, EGG WHITES, ARTIFICIAL FLAVOR." Date available: 07/14/2017 Date last updated by company: 07/14/2017
