Source: USDA Branded Food Products Database Release December 2017 Software v.3.8.6.4 2017-10-02
Report Run at: December 17, 2017 17:46 EST
"Nutrient data for: 45030642, FUN BUNCH ICE POPS, UPC: 077567280688"
Food Group:  Branded Food Products Database
Common Name:

Nutrient,Unit,Data points,Std. Error,"2.0 POPS = 71.0g",1Value per 100 g,
Proximates
"Energy",kcal,--,--,60,85
"Protein",g,--,--,0.00,0.00
"Total lipid (fat)",g,--,--,0.00,0.00
"Carbohydrate, by difference",g,--,--,14.00,19.72
"Sugars, total",g,--,--,10.00,14.08
Minerals
"Sodium, Na",mg,--,--,0,0
Vitamins
"Vitamin C, total ascorbic acid",mg,--,--,18.0,25.3
Lipids
Amino Acids
Other
Ingredients
"GRAPE POP [(WATER, HIGH FRUCTOSE CORN SYRUP, CORN SYRUP, SUGAR, CONTAINS 1 PERCENT OR LESS OF EACH OF THE FOLLOWING: MALIC ACID, CITRIC ACID, GUAR GUM, GRAPE JUICE CONCENTRATE, NATURAL FLAVOR, ASCORBIC ACID (VITAMIN C), LOCUST BEAN GUM, RED 3, BLUE 1, YELLOW 6)], WATERMELON POP [(WATER, HIGH FRUCTOSE CORN SYRUP, CORN SYRUP, SUGAR, CONTAINS 1 PERCENT OR LESS OF EACH OF THE FOLLOWING: MALIC ACID, CITRIC ACID, GUAR GUM, ASCORBIC ACID (VITAMIN C), LOCUST BEAN GUM, NATURAL FLAVOR)], BERRY POP [(WATER, HIGH FRUCTOSE CORN SYRUP, CORN SYRUP, SUGAR, CONTAINS 1 PERCENT OR LESS OF EACH OF THE FOLLOWING: MALIC ACID, CITRIC ACID, GUAR GUM, BEET JUICE CONCENTRATE, NATURAL AND ARTIFICIAL FLAVOR, ASCORBIC ACID (VITAMIN C), LOCUST BEAN GUM)], CHERRY POP [(WATER, HIGH FRUCTOSE CORN SYRUP, CORN SYRUP, SUGAR, CONTAINS 1 PERCENT OR LESS OF EACH OF THE FOLLOWING: MALIC ACID, CITRIC ACID, GUAR GUM, NATURAL AND ARTIFICIAL FLAVOR, RED 40, ASCORBIC ACID (VITAMIN C), LOCUST BEAN GUM)]." Date available: 09/13/2017 Date last updated by company: 09/13/2017
