Source: USDA Branded Food Products Database Release December 2017 Software v.3.8.6.4 2017-10-02
Report Run at: December 17, 2017 17:50 EST
"Nutrient data for: 45162319, FUNLEY'S, CLUSTERS, DOUBLE CHOCOLATE CHIP, UPC: 896181001482"
Food Group:  Branded Food Products Database
Common Name:

Nutrient,Unit,Data points,Std. Error,"1 ONZ = 28.0g",1Value per 100 g,
Proximates
"Energy",kcal,--,--,110,393
"Protein",g,--,--,2.00,7.14
"Total lipid (fat)",g,--,--,3.00,10.71
"Carbohydrate, by difference",g,--,--,21.00,75.00
"Fiber, total dietary",g,--,--,2.0,7.1
"Sugars, total",g,--,--,8.00,28.57
Minerals
"Calcium, Ca",mg,--,--,100,357
"Iron, Fe",mg,--,--,6.43,22.96
"Sodium, Na",mg,--,--,75,268
"Zinc, Zn",mg,--,--,2.25,8.04
"Manganese, Mn",mg,--,--,0.280,1.000
Vitamins
"Vitamin C, total ascorbic acid",mg,--,--,21.4,76.5
"Vitamin A, IU",IU,--,--,0,0
"Vitamin D",IU,--,--,40,143
Lipids
"Fatty acids, total saturated",g,--,--,1.000,3.570
"Fatty acids, total trans",g,--,--,0.000,0.000
"Cholesterol",mg,--,--,0,0
Amino Acids
Other
Ingredients
"BROWN RICE FLOUR, TOASTED OATS (WHOLE OATS, DRIED CANE SYRUP), SEMI SWEET CHOCOLATE (DRIED CANE SYRUP, CHOCOLATE, COCOA BUTTER, SOY LECITHIN [AN EMULSIFIER], GROUND VANILLA BEANS), DRIED CANE SYRUP, BROWN RICE SYRUP, WHOLE OATS, MILK COCOA PROCESSED WITH ALKALI, ORGANIC WHOLE OATS, MILK, COCOA PROCESSED WITH ALKALI, ORGANIC MALTODEXTRIN, SAFFLOWER OIL, HONEY, CALCIUM CARBONATE, SALT, SOY LECITHIN (AN EMULSIFIER), NATURAL FLAVORS, ZINC OXIDE, REDUCED IRON, NATURAL VITAMIN C, NATURAL VITAMIN D2." Date available: 07/14/2017 Date last updated by company: 07/14/2017
