Source: USDA Branded Food Products Database Release December 2017 Software v.3.8.6.4 2017-10-02
Report Run at: December 17, 2017 17:56 EST
"Nutrient data for: 45021403, FURMANO'S, CHILI STYLE DICED TOMATOES, ANCHO CHILI & CUMIN, UPC: 041188048125"
Food Group:  Branded Food Products Database
Common Name:

Nutrient,Unit,Data points,Std. Error,"0.5 cup = 116.0g",1Value per 100 g,
Proximates
"Energy",kcal,--,--,26,22
"Protein",g,--,--,1.00,0.86
"Total lipid (fat)",g,--,--,0.00,0.00
"Carbohydrate, by difference",g,--,--,6.00,5.17
"Fiber, total dietary",g,--,--,1.0,0.9
"Sugars, total",g,--,--,3.00,2.59
Minerals
"Calcium, Ca",mg,--,--,0,0
"Iron, Fe",mg,--,--,0.81,0.70
"Sodium, Na",mg,--,--,329,284
Vitamins
"Vitamin C, total ascorbic acid",mg,--,--,33.6,29.0
"Vitamin A, IU",IU,--,--,841,725
Lipids
"Fatty acids, total saturated",g,--,--,0.000,0.000
"Fatty acids, total trans",g,--,--,0.000,0.000
"Cholesterol",mg,--,--,0,0
Amino Acids
Other
Ingredients
"DICED TOMATOES, TOMATO JUICE, SEA SALT, GREEN CHILI PEPPERS, SALT, ANCHO CHILI PEPPER, SPICES, DEHYDRATED GARLIC, LIQUID SMOKE, AQUARESIN GARLIC, DEHYDRATED RED AND GREEN PEPPERS, CITRIC ACID, CALCIUM CHLORIDE." Date available: 06/25/2017 Date last updated by company: 06/25/2017
