Source: USDA Branded Food Products Database Release December 2017 Software v.3.8.6.4 2017-10-02
Report Run at: December 17, 2017 18:05 EST
"Nutrient data for: 45226350, GALA APPLES, UPC: 68826706040"
Food Group:  Branded Food Products Database
Common Name:

Nutrient,Unit,Data points,Std. Error,"1 MEDIUM APPLE = 154.0g",1Value per 100 g,
Proximates
"Energy",kcal,--,--,80,52
"Protein",g,--,--,0.00,0.00
"Total lipid (fat)",g,--,--,0.00,0.00
"Carbohydrate, by difference",g,--,--,22.01,14.29
"Fiber, total dietary",g,--,--,4.9,3.2
"Sugars, total",g,--,--,16.00,10.39
Minerals
"Calcium, Ca",mg,--,--,0,0
"Iron, Fe",mg,--,--,0.35,0.23
"Potassium, K",mg,--,--,169,110
"Sodium, Na",mg,--,--,0,0
Vitamins
"Vitamin C, total ascorbic acid",mg,--,--,4.8,3.1
"Vitamin A, IU",IU,--,--,100,65
Lipids
"Fatty acids, total saturated",g,--,--,0.000,0.000
"Fatty acids, total trans",g,--,--,0.000,0.000
"Cholesterol",mg,--,--,0,0
Amino Acids
Other
Ingredients
"GALA APPLES" Date available: 12/31/2016 Date last updated by company: 12/31/2016
