Source: USDA Branded Food Products Database Release December 2017 Software v.3.8.6.4 2017-10-02
Report Run at: December 17, 2017 18:14 EST
"Nutrient data for: 45153784, GALERIE, CANDY JEWELRY KIT, UPC: 768395490140"
Food Group:  Branded Food Products Database
Common Name:

Nutrient,Unit,Data points,Std. Error,"1 PACKAGE = 60.0g",1Value per 100 g,
Proximates
"Energy",kcal,--,--,230,383
"Protein",g,--,--,0.00,0.00
"Total lipid (fat)",g,--,--,0.00,0.00
"Carbohydrate, by difference",g,--,--,57.00,95.00
"Sugars, total",g,--,--,55.00,91.67
Minerals
"Sodium, Na",mg,--,--,0,0
Vitamins
Lipids
Amino Acids
Other
Ingredients
"DEXTROSE, CORN SYRUP, CORNSTARCH, MAGNESIUM STEARATE, CITRIC ACID, MALTODEXTRIN, ARTIFICIAL FLAVOR, GUM ARABIC, SHELLAC, CARNAUBA WAX, TITANIUM DIOXIDE (FOR COLOR), YELLOW 5 LAKE, BLUE 2, RED 3, BLUE 1 LAKE." Date available: 07/14/2017 Date last updated by company: 07/14/2017
