Source: USDA Branded Food Products Database Release December 2017 Software v.3.8.6.4 2017-10-02
Report Run at: December 17, 2017 18:17 EST
"Nutrient data for: 45161158, GALERIE, DISNEY FROZEN, STRAWBERRY CANDY CANE, UPC: 768395479503"
Food Group:  Branded Food Products Database
Common Name:

Nutrient,Unit,Data points,Std. Error,"1 PACKAGE = 60.0g",1Value per 100 g,
Proximates
"Energy",kcal,--,--,220,367
"Protein",g,--,--,0.00,0.00
"Total lipid (fat)",g,--,--,0.00,0.00
"Carbohydrate, by difference",g,--,--,56.00,93.33
"Sugars, total",g,--,--,45.00,75.00
Minerals
"Sodium, Na",mg,--,--,0,0
Vitamins
Lipids
Amino Acids
Other
Ingredients
"SUGAR, CORN SYRUP, ARTIFICIAL FLAVOR, TITANIUM DIOXIDE (FOR COLOR), BLUE 1, RED 40, RED 3." Date available: 07/14/2017 Date last updated by company: 07/14/2017
