Source: USDA Branded Food Products Database Release December 2017 Software v.3.8.6.4 2017-10-02
Report Run at: December 17, 2017 18:20 EST
"Nutrient data for: 45166222, GALERIE, FINDING DORY LOLLIPOPS, BLUE RASPBERRY & ORANGE, UPC: 768395499921"
Food Group:  Branded Food Products Database
Common Name:

Nutrient,Unit,Data points,Std. Error,"1 LOLLIPOP = 7.0g",1Value per 100 g,
Proximates
"Energy",kcal,--,--,30,429
"Protein",g,--,--,0.00,0.00
"Total lipid (fat)",g,--,--,0.00,0.00
"Carbohydrate, by difference",g,--,--,7.00,100.00
"Sugars, total",g,--,--,5.00,71.43
Minerals
"Sodium, Na",mg,--,--,0,0
Vitamins
Lipids
Amino Acids
Other
Ingredients
"SUGAR, CORN SYRUP, WATER, LACTIC ACID, SODIUM LACTATE, TITANIUM DIOXIDE (FOR COLOR), ARTIFICIAL FLAVOR, RED 3, RED 40, BLUE 1, YELLOW 5, YELLOW 6." Date available: 07/14/2017 Date last updated by company: 07/14/2017
