Source: USDA Branded Food Products Database Release December 2017 Software v.3.8.6.4 2017-10-02
Report Run at: December 17, 2017 18:32 EST
"Nutrient data for: 45176514, GALIL, GALIL DRIED FIGS, UPC: 079471154062"
Food Group:  Branded Food Products Database
Common Name:

Nutrient,Unit,Data points,Std. Error,"5.0 PIECES | ABOUT = 40.0g",1Value per 100 g,
Proximates
"Energy",kcal,--,--,90,225
"Protein",g,--,--,1.00,2.50
"Total lipid (fat)",g,--,--,0.00,0.00
"Carbohydrate, by difference",g,--,--,22.00,55.00
"Fiber, total dietary",g,--,--,3.0,7.5
"Sugars, total",g,--,--,19.00,47.50
Minerals
"Calcium, Ca",mg,--,--,40,100
"Iron, Fe",mg,--,--,1.44,3.60
"Sodium, Na",mg,--,--,10,25
Vitamins
"Vitamin C, total ascorbic acid",mg,--,--,0.0,0.0
"Vitamin A, IU",IU,--,--,2500,6250
Lipids
"Fatty acids, total saturated",g,--,--,0.000,0.000
"Fatty acids, total trans",g,--,--,0.000,0.000
"Cholesterol",mg,--,--,0,0
Amino Acids
Other
Ingredients
"DRIED FIGS." Date available: 07/14/2017 Date last updated by company: 07/14/2017
