Source: USDA Branded Food Products Database Release December 2017 Software v.3.8.6.4 2017-10-02
Report Run at: December 17, 2017 18:37 EST
"Nutrient data for: 45312898, GAMESA, DELUX, COOKIES, MILK, UPC: 686700045659"
Food Group:  Branded Food Products Database
Common Name:

Nutrient,Unit,Data points,Std. Error,"3.0 COOKIES = 31.0g",1Value per 100 g,
Proximates
"Energy",kcal,--,--,140,452
"Protein",g,--,--,2.00,6.45
"Total lipid (fat)",g,--,--,4.00,12.90
"Carbohydrate, by difference",g,--,--,23.00,74.19
"Fiber, total dietary",g,--,--,1.0,3.2
"Sugars, total",g,--,--,8.00,25.81
Minerals
"Calcium, Ca",mg,--,--,0,0
"Iron, Fe",mg,--,--,1.16,3.75
"Sodium, Na",mg,--,--,140,452
"Zinc, Zn",mg,--,--,0.90,2.90
Vitamins
"Vitamin C, total ascorbic acid",mg,--,--,0.0,0.0
"Vitamin A, IU",IU,--,--,0,0
Lipids
"Fatty acids, total saturated",g,--,--,2.000,6.450
"Fatty acids, total monounsaturated",g,--,--,1.500,4.840
"Fatty acids, total polyunsaturated",g,--,--,0.499,1.610
"Fatty acids, total trans",g,--,--,0.000,0.000
"Cholesterol",mg,--,--,0,0
Amino Acids
Other
Ingredients
"ENRICHED FLOUR (WHEAT FLOUR, NIACINAMIDE, FERROUS FUMARATE, THIAMIN MONONITRATE, RIBOFLAVIN, FOLIC ACID), SUGAR, VEGETABLE OIL BLEND (PALM OIL AND/OR SUNFLOWER OIL AND/OR CANOLA OIL AND/OR SOYBEAN OIL, [CONTAINS ASCORBYL PALMITATE, TOCOPHEROLS AND TBHQ AS PRESERVATIVES]), HIGH FRUCTOSE CORN SYRUP, CONTAINS 2% OR LESS OF: NONFAT DRY MILK, LEAVENING AGENTS (SODIUM BICARBONATE, AMMONIUM BICARBONATE, ALUMINUM SODIUM SULFATE), LODIZED SALT, EGGS, SOY LECITHIN, CORN STARCH, NATURAL AND ARTIFICIAL FLAVOR, CARAMEL COLOR, PROPYLENE GLYCOL MONOSTEARATE, SODIUM STEAROYL LACTYLATE, ZINC OXIDE, CALCIUM SULFATE." Date available: 07/14/2017 Date last updated by company: 07/14/2017
