Source: USDA Branded Food Products Database Release December 2017 Software v.3.8.6.4 2017-10-02
Report Run at: December 17, 2017 18:38 EST
"Nutrient data for: 45320406, GAMESA, RICANELAS, CINNAMON COOKIES, UPC: 686700101393"
Food Group:  Branded Food Products Database
Common Name:

Nutrient,Unit,Data points,Std. Error,"2.0 COOKIES = 32.0g",1Value per 100 g,
Proximates
"Energy",kcal,--,--,140,438
"Protein",g,--,--,2.00,6.25
"Total lipid (fat)",g,--,--,4.50,14.06
"Carbohydrate, by difference",g,--,--,23.00,71.88
"Fiber, total dietary",g,--,--,1.0,3.1
"Sugars, total",g,--,--,8.00,25.00
Minerals
"Calcium, Ca",mg,--,--,0,0
"Iron, Fe",mg,--,--,1.13,3.52
"Sodium, Na",mg,--,--,170,531
Vitamins
"Vitamin C, total ascorbic acid",mg,--,--,0.0,0.0
"Vitamin A, IU",IU,--,--,0,0
Lipids
"Fatty acids, total saturated",g,--,--,2.000,6.250
"Fatty acids, total trans",g,--,--,0.000,0.000
"Cholesterol",mg,--,--,0,0
Amino Acids
Other
Ingredients
"ENRICHED FLOUR (WHEAT FLOUR, NIACINAMIDE, FERROUS FUMARATE, THIAMIN MONONITRATE, RIBOFLAVIN, FOLIC ACID), HIGH FRUCTOSE CORN SYRUP, SUGAR, PALM AND PALM KERNEL OIL (WITH TBHQ [PRESERVATIVE]), CINNAMON TOPPING (SUGAR, CINNAMON, MALTODEXTRIN, XANTHAN GUM, LOCUST BEAN GUM, MODIFIED CORN STARCH, NATURAL AND ARTIFICIAL FLAVOR, CINNAMALDEHYDE, GLYCERIN, WHEAT FLOUR, FD&C YELLOW 6, FD&C RED 40, FD&C BLUE 1, FD&C YELLOW 5, TRIACETIN, CITRIC ACID, MONOSODIUM GLUTAMATE, CARAMEL COLOR, SODIUM BENZOATE [PRESERVATIVE], BHA [PRESERVATIVE]), VEGETABLE OIL BLEND (PALM OIL, SUNFLOWER OIL AND/OR CANOLA OIL AND /OR SOYBEAN OIL, [CONTAINS ASCORBYL PALMITATE, TOCOPHEROLS AND TBHQ AS PRESERVATIVES]), WHEAT BRAN, CONTAINS 2% OR LESS OF: LEAVENING AGENTS (AMMONIUM BICARBONATE, SODIUM BICARBONATE, ALUMINUM SODIUM SULFATE), SALT, NATURAL AND ARTIFICIAL FLAVOR, SOY LECITHIN, PROPYLENE GLYCOL MONOSTEARATE, SODIUM METABISULFITE, GLYCERYL MONOSTEARATE, SODIUM STEAROYL LACTYLATE, CALCIUM SULFATE, ZINC OXIDE, FD&C YELLOW 5, FD&C BLUE 2." Date available: 07/14/2017 Date last updated by company: 07/14/2017
