Source: USDA Branded Food Products Database Release December 2017 Software v.3.8.6.4 2017-10-02
Report Run at: December 17, 2017 19:06 EST
"Nutrient data for: 45002968, GARDEN LITES, SOUTHWESTERN SOUFFLE, UPC: 704863017204"
Food Group:  Branded Food Products Database
Common Name:

Nutrient,Unit,Data points,Std. Error,"1 SOUFFLE = 198.0g",1Value per 100 g,
Proximates
"Energy",kcal,--,--,180,91
"Protein",g,--,--,9.01,4.55
"Total lipid (fat)",g,--,--,2.49,1.26
"Carbohydrate, by difference",g,--,--,30.00,15.15
"Fiber, total dietary",g,--,--,4.0,2.0
"Sugars, total",g,--,--,4.00,2.02
Minerals
"Calcium, Ca",mg,--,--,40,20
"Iron, Fe",mg,--,--,1.43,0.72
"Sodium, Na",mg,--,--,649,328
Vitamins
"Vitamin C, total ascorbic acid",mg,--,--,26.5,13.4
"Vitamin A, IU",IU,--,--,1477,746
Lipids
"Fatty acids, total saturated",g,--,--,0.000,0.000
"Fatty acids, total trans",g,--,--,0.000,0.000
"Cholesterol",mg,--,--,0,0
Amino Acids
Other
Ingredients
"VEGETABLE BLEND (ONION, BROCCOLI, ZUCCHINI, CORN, RED PEPPER, GREEN PEPPER), PASTEURIZED EGG WHITES, CRUSHED TOMATOES (TOMATOES, SALT, CITRIC ACID), BLACK BEANS (BLACK BEANS, WATER, SALT), BROWN RICE (WATER, BROWN RICE), CORN STARCH, EVAPORATED CANE JUICE, CANOLA OIL, LEMON JUICE, SEA SALT, GARLIC CHIPOTLE PEPPER, CHILI POWDER, ANCHO PEPPER, CUMIN." Date available: 08/07/2017 Date last updated by company: 08/07/2017
