Source: USDA Branded Food Products Database Release December 2017 Software v.3.8.6.4 2017-10-02
Report Run at: December 17, 2017 19:14 EST
"Nutrient data for: 45237587, GARDEN VEGETABLE BROTH, UPC: 024000550457"
Food Group:  Branded Food Products Database
Common Name:

Nutrient,Unit,Data points,Std. Error,"1 cup = 240.0g",1Value per 100 g,
Proximates
"Energy",kcal,--,--,19,8
"Protein",g,--,--,0.00,0.00
"Total lipid (fat)",g,--,--,0.00,0.00
"Carbohydrate, by difference",g,--,--,4.01,1.67
"Fiber, total dietary",g,--,--,0.0,0.0
"Sugars, total",g,--,--,3.00,1.25
Minerals
"Calcium, Ca",mg,--,--,19,8
"Iron, Fe",mg,--,--,0.00,0.00
"Potassium, K",mg,--,--,0,0
"Sodium, Na",mg,--,--,679,283
Vitamins
"Vitamin C, total ascorbic acid",mg,--,--,0.0,0.0
"Vitamin A, IU",IU,--,--,0,0
Lipids
"Fatty acids, total saturated",g,--,--,0.000,0.000
"Fatty acids, total trans",g,--,--,0.000,0.000
"Cholesterol",mg,--,--,0,0
Amino Acids
Other
Ingredients
"VEGETABLE BROTH (WATER, CARROT JUICE, CELERY JUICE, ZUCCHINI JUICE, ONION JUICE, GARLIC JUICE, RED BELL PEPPER JUICE, GREEN BELL PEPPER JUICE, LEEK JUICE, PARSLEY JUICE), CONTAINS LESS THAN 2% OF THE FOLLOWING: SALT, WHITE DISTILLED VINEGAR, LACTIC ACID, SUGAR, NATURAL FLAVORS (MILK), YEAST EXTRACT, ONION POWDER, MOLASSES, GARLIC POWDER, SPICE, XANTHAN GUM, BEET JUICE CONCENTRATE (FOR COLOR), DISODIUM INOSINATE AND DISODIUM GUANYLATE, BETA CAROTENE (FOR COLOR)." Date available: 07/14/2017 Date last updated by company: 07/14/2017
