Source: USDA Branded Food Products Database Release December 2017 Software v.3.8.6.4 2017-10-02
Report Run at: December 17, 2017 19:10 EST
"Nutrient data for: 45186143, GARDEN OF LIFE, LIVING FOODS, EXTRA VIRGIN COCONUT OIL, UPC: 658010111416"
Food Group:  Branded Food Products Database
Common Name:

Nutrient,Unit,Data points,Std. Error,"1 Tbsp = 15.0g",1Value per 100 g,
Proximates
"Energy",kcal,--,--,125,833
"Protein",g,--,--,0.00,0.00
"Total lipid (fat)",g,--,--,14.00,93.33
"Carbohydrate, by difference",g,--,--,0.00,0.00
Minerals
Vitamins
Lipids
"Fatty acids, total saturated",g,--,--,13.500,90.000
"8:0",g,--,--,1.075,7.167
"10:0",g,--,--,0.894,5.960
"12:0",g,--,--,7.003,46.687
"Fatty acids, total monounsaturated",g,--,--,0.500,3.330
"Fatty acids, total polyunsaturated",g,--,--,0.000,0.000
"Fatty acids, total trans",g,--,--,0.000,0.000
"Cholesterol",mg,--,--,0,0
Amino Acids
Other
Ingredients
"ORGANIC EXPELLER COLD-PRESSED COCONUT OIL." Date available: 10/04/2017 Date last updated by company: 10/04/2017
