Source: USDA Branded Food Products Database Release December 2017 Software v.3.8.6.4 2017-10-02
Report Run at: December 17, 2017 19:42 EST
"Nutrient data for: 45270686, GARLIC TERIYAKI SAUCE, UPC: 073848500216"
Food Group:  Branded Food Products Database
Common Name:

Nutrient,Unit,Data points,Std. Error,"2.0 Tbsp = 37.0g",1Value per 100 g,
Proximates
"Energy",kcal,--,--,60,162
"Protein",g,--,--,1.00,2.70
"Total lipid (fat)",g,--,--,0.00,0.00
"Carbohydrate, by difference",g,--,--,13.00,35.14
"Fiber, total dietary",g,--,--,0.0,0.0
"Sugars, total",g,--,--,12.00,32.43
Minerals
"Calcium, Ca",mg,--,--,0,0
"Iron, Fe",mg,--,--,0.00,0.00
"Sodium, Na",mg,--,--,600,1622
Vitamins
"Vitamin C, total ascorbic acid",mg,--,--,2.0,5.5
"Vitamin A, IU",IU,--,--,0,0
Lipids
"Fatty acids, total saturated",g,--,--,0.000,0.000
"Fatty acids, total trans",g,--,--,0.000,0.000
"Cholesterol",mg,--,--,0,0
Amino Acids
Other
Ingredients
"SOY SAUCE (WATER, WHEAT, SOYBEANS, SALT), CANE SUGAR, WATER, FRESH GARLIC, GINGER, CORN STARCH, TAPIOCA STARCH, LEMON JUICE CONCENTRATE, XANTHAN GUM." Date available: 07/14/2017 Date last updated by company: 07/14/2017
