Source: USDA Branded Food Products Database Release December 2017 Software v.3.8.6.4 2017-10-02
Report Run at: December 17, 2017 19:26 EST
"Nutrient data for: 45272378, GARLIC HERB CREAM CHEESE, UPC: 023933300139"
Food Group:  Branded Food Products Database
Common Name:

Nutrient,Unit,Data points,Std. Error,"1 ONZ = 28.0g",1Value per 100 g,
Proximates
"Energy",kcal,--,--,68,243
"Protein",g,--,--,2.00,7.14
"Total lipid (fat)",g,--,--,6.00,21.43
"Carbohydrate, by difference",g,--,--,2.00,7.14
"Fiber, total dietary",g,--,--,0.0,0.0
"Sugars, total",g,--,--,1.00,3.57
Minerals
"Calcium, Ca",mg,--,--,20,71
"Iron, Fe",mg,--,--,0.32,1.15
"Sodium, Na",mg,--,--,135,482
Vitamins
"Vitamin C, total ascorbic acid",mg,--,--,0.0,0.0
"Vitamin A, IU",IU,--,--,179,638
Lipids
"Fatty acids, total saturated",g,--,--,4.001,14.290
"Fatty acids, total trans",g,--,--,0.000,0.000
"Cholesterol",mg,--,--,18,64
Amino Acids
Other
Ingredients
"LIGHT CREAM CHEESE (MILK, CREAM, CHEESE CULTURES, SALT, STABILIZERS), CREAM (MILK, GELATIN), VINEGAR, SALT, GARLIC, ONION, PEPPER, PARSLEY." Date available: 07/14/2017 Date last updated by company: 07/14/2017
