Source: USDA Branded Food Products Database Release December 2017 Software v.3.8.6.4 2017-10-02
Report Run at: December 17, 2017 19:41 EST
"Nutrient data for: 45238418, GARLIC SESAME SAUCE, UPC: 011225088162"
Food Group:  Branded Food Products Database
Common Name:

Nutrient,Unit,Data points,Std. Error,"1 Tbsp = 15.0g",1Value per 100 g,
Proximates
"Energy",kcal,--,--,25,167
"Protein",g,--,--,0.00,0.00
"Total lipid (fat)",g,--,--,0.00,0.00
"Carbohydrate, by difference",g,--,--,5.00,33.33
"Fiber, total dietary",g,--,--,0.0,0.0
"Sugars, total",g,--,--,4.00,26.67
Minerals
"Calcium, Ca",mg,--,--,0,0
"Iron, Fe",mg,--,--,0.00,0.00
"Sodium, Na",mg,--,--,135,900
Vitamins
"Vitamin C, total ascorbic acid",mg,--,--,0.0,0.0
"Vitamin A, IU",IU,--,--,0,0
Lipids
"Fatty acids, total saturated",g,--,--,0.000,0.000
"Fatty acids, total trans",g,--,--,0.000,0.000
"Cholesterol",mg,--,--,0,0
Amino Acids
Other
Ingredients
"WATER, SUGAR, SOY SAUCE (WATER, WHEAT, SOYBEANS, SALT, SODIUM BENZOATE [PRESERVATIVE]), MODIFIED CORN STARCH, RICE VINEGAR, RED JALAPENO PEPPERS, CONTAINS 2% OR LESS OF: GARLIC, SESAME OIL, SALT, SESAME SEEDS, LIME JUICE CONCENTRATE, DRIED GARLIC, CARAMEL COLOR, ACETIC ACID, NATURAL FLAVOR, WITH POTASSIUM SORBATE TO PRESERVE FLAVOR." Date available: 10/04/2017 Date last updated by company: 10/04/2017
