Source: USDA Branded Food Products Database Release December 2017 Software v.3.8.6.4 2017-10-02
Report Run at: December 17, 2017 19:41 EST
"Nutrient data for: 45275183, GARLIC STIR-IN PASTE, UPC: 750448908573"
Food Group:  Branded Food Products Database
Common Name:

Nutrient,Unit,Data points,Std. Error,"1 tsp = 10.0g",1Value per 100 g,
Proximates
"Energy",kcal,--,--,30,300
"Protein",g,--,--,0.00,0.00
"Total lipid (fat)",g,--,--,3.00,30.00
"Carbohydrate, by difference",g,--,--,1.00,10.00
"Sugars, total",g,--,--,1.00,10.00
Minerals
"Sodium, Na",mg,--,--,105,1050
Vitamins
Lipids
Amino Acids
Other
Ingredients
"GARLIC 67%, SUNFLOWER OIL 25%, SALT, EXTRA VIRGIN OLIVE OIL 3%, LEMON JUICE CONCENTRATE, XANTHAN AND GUAR GUMS." Date available: 07/14/2017 Date last updated by company: 07/14/2017
