Source: USDA Branded Food Products Database Release December 2017 Software v.3.8.6.4 2017-10-02
Report Run at: December 17, 2017 19:20 EST
"Nutrient data for: 45230489, GARLIC BALSAMIC BROCCOLI, UPC: 814351020309"
Food Group:  Branded Food Products Database
Common Name:

Nutrient,Unit,Data points,Std. Error,"0.333 PACKAGE = 124.0g",1Value per 100 g,
Proximates
"Energy",kcal,--,--,170,137
"Protein",g,--,--,3.00,2.42
"Total lipid (fat)",g,--,--,9.99,8.06
"Carbohydrate, by difference",g,--,--,17.00,13.71
"Fiber, total dietary",g,--,--,1.0,0.8
"Sugars, total",g,--,--,9.00,7.26
Minerals
"Calcium, Ca",mg,--,--,40,32
"Iron, Fe",mg,--,--,0.87,0.70
"Sodium, Na",mg,--,--,180,145
Vitamins
"Vitamin C, total ascorbic acid",mg,--,--,43.5,35.1
"Vitamin A, IU",IU,--,--,161,130
Lipids
"Fatty acids, total saturated",g,--,--,1.004,0.810
"Fatty acids, total trans",g,--,--,0.000,0.000
"Cholesterol",mg,--,--,0,0
Amino Acids
Other
Ingredients
"BROCCOLI, RED ONIONS, GARLIC BALSAMIC OIL (CANOLA OIL, WATER, BALSAMIC VINEGAR, OLIVE OIL, DRIED GARLIC, SALT, SUGAR, XANTHAN GUM, NATURAL FLAVOR [CONTAINS MUSTARD SEED]), GOLDEN RAISINS (RAISINS, SULPHUR DIOXIDE, SUNFLOWER OIL), TOASTED PINENUTS." Date available: 10/11/2017 Date last updated by company: 10/11/2017
