Source: USDA Branded Food Products Database Release December 2017 Software v.3.8.6.4 2017-10-02
Report Run at: December 17, 2017 19:37 EST
"Nutrient data for: 45081152, GARLIC SALT SEASONING, UPC: 011110003041"
Food Group:  Branded Food Products Database
Common Name:

Nutrient,Unit,Data points,Std. Error,"0.25 tsp = 1.3g",1Value per 100 g,
Proximates
"Energy",kcal,--,--,0,0
"Protein",g,--,--,0.00,0.00
"Total lipid (fat)",g,--,--,0.00,0.00
"Carbohydrate, by difference",g,--,--,0.00,0.00
Minerals
"Sodium, Na",mg,--,--,450,34615
Vitamins
Lipids
Amino Acids
Other
Ingredients
"SALT, DEHYDRATED GARLIC, CALCIUM STEARATE (ANTICAKING AGENT), NATURAL FLAVOR." Date available: 06/25/2017 Date last updated by company: 06/25/2017
