Source: USDA Branded Food Products Database Release December 2017 Software v.3.8.6.4 2017-10-02
Report Run at: December 17, 2017 19:45 EST
"Nutrient data for: 45100440, GARRETT VALLEY, SLICED UNCURED BACON, UPC: 616973711159"
Food Group:  Branded Food Products Database
Common Name:

Nutrient,Unit,Data points,Std. Error,"1 PAN FRIED SLICE = 11.0g",1Value per 100 g,
Proximates
"Energy",kcal,--,--,60,545
"Protein",g,--,--,4.00,36.36
"Total lipid (fat)",g,--,--,5.00,45.45
"Carbohydrate, by difference",g,--,--,0.00,0.00
"Fiber, total dietary",g,--,--,0.0,0.0
"Sugars, total",g,--,--,0.00,0.00
Minerals
"Calcium, Ca",mg,--,--,0,0
"Iron, Fe",mg,--,--,0.00,0.00
"Sodium, Na",mg,--,--,150,1364
Vitamins
"Vitamin C, total ascorbic acid",mg,--,--,0.0,0.0
"Vitamin A, IU",IU,--,--,0,0
Lipids
"Fatty acids, total saturated",g,--,--,2.000,18.180
"Fatty acids, total trans",g,--,--,0.000,0.000
"Cholesterol",mg,--,--,10,91
Amino Acids
Other
Ingredients
"PORK, SEA SALT, SPICES (BLACK PEPPER, FENUGREEK, NUTMEG, WHITE PEPPER, MACE, ALLSPICE)." Date available: 09/28/2017 Date last updated by company: 09/28/2017
