Source: USDA Branded Food Products Database Release December 2017 Software v.3.8.6.4 2017-10-02
Report Run at: December 17, 2017 19:49 EST
"Nutrient data for: 45044544, GEFEN, CHOCOLATE CAKE MIX & FROSTING, UPC: 710069205000"
Food Group:  Branded Food Products Database
Common Name:

Nutrient,Unit,Data points,Std. Error,"0.1 MIX = 48.0g",1Value per 100 g,
Proximates
"Energy",kcal,--,--,170,354
"Protein",g,--,--,1.00,2.08
"Total lipid (fat)",g,--,--,0.00,0.00
"Carbohydrate, by difference",g,--,--,42.00,87.50
"Fiber, total dietary",g,--,--,2.0,4.2
"Sugars, total",g,--,--,30.00,62.50
Minerals
"Calcium, Ca",mg,--,--,0,0
"Iron, Fe",mg,--,--,0.00,0.00
"Sodium, Na",mg,--,--,165,344
Vitamins
"Vitamin C, total ascorbic acid",mg,--,--,0.0,0.0
"Vitamin A, IU",IU,--,--,0,0
Lipids
"Fatty acids, total saturated",g,--,--,0.000,0.000
"Fatty acids, total trans",g,--,--,0.000,0.000
"Cholesterol",mg,--,--,0,0
Amino Acids
Other
Ingredients
"SUGAR, POTATO STARCH, COCOA POWDER, SODIUM ACID PYROPHOSPHATE, BAKING SODA, SALT, CELLULOSE GUM, VANILLA." Date available: 06/24/2017 Date last updated by company: 06/24/2017
