Source: USDA Branded Food Products Database Release December 2017 Software v.3.8.6.4 2017-10-02
Report Run at: December 17, 2017 20:16 EST
"Nutrient data for: 45264486, GEL CUPS, UPC: 011110889096"
Food Group:  Branded Food Products Database
Common Name:

Nutrient,Unit,Data points,Std. Error,"1 cup = 92.0g",1Value per 100 g,
Proximates
"Energy",kcal,--,--,5,5
"Protein",g,--,--,1.00,1.09
"Total lipid (fat)",g,--,--,0.00,0.00
"Carbohydrate, by difference",g,--,--,0.00,0.00
"Fiber, total dietary",g,--,--,0.0,0.0
"Sugars, total",g,--,--,0.00,0.00
Minerals
"Calcium, Ca",mg,--,--,0,0
"Iron, Fe",mg,--,--,0.00,0.00
"Sodium, Na",mg,--,--,15,16
Vitamins
"Vitamin C, total ascorbic acid",mg,--,--,0.0,0.0
"Vitamin A, IU",IU,--,--,0,0
Lipids
"Fatty acids, total saturated",g,--,--,0.000,0.000
"Fatty acids, total trans",g,--,--,0.000,0.000
"Cholesterol",mg,--,--,0,0
Amino Acids
Other
Ingredients
"WATER, GELATIN, ADIPIC ACID, CITRIC ACID, NATURAL & ARTIFICIAL FLAVOR, POTASSIUM SORBATE (PRESERVATIVE), ASPARTAME*, ACESULFAME POTASSIUM, SALT, SODIUM CITRATE, RED 40, BLUE 1." Date available: 07/14/2017 Date last updated by company: 07/14/2017
