Source: USDA Branded Food Products Database Release December 2017 Software v.3.8.6.4 2017-10-02
Report Run at: December 17, 2017 20:05 EST
"Nutrient data for: 45118157, GELATIN, UPC: 072392010455"
Food Group:  Branded Food Products Database
Common Name:

Nutrient,Unit,Data points,Std. Error,"0.5 CUP PREPARED = 10.0g",1Value per 100 g,
Proximates
"Energy",kcal,--,--,35,350
"Protein",g,--,--,1.00,10.00
"Total lipid (fat)",g,--,--,0.00,0.00
"Carbohydrate, by difference",g,--,--,8.00,80.00
"Sugars, total",g,--,--,8.00,80.00
Minerals
"Sodium, Na",mg,--,--,110,1100
Vitamins
Lipids
Amino Acids
Other
Ingredients
"SUGAR, GELATIN, FUMARIC ACID (FOR TARTNESS), SODIUM CITRATE (CONTROLS ACIDITY), CONTAINS LESS THAN 2% OF THE FOLLOWING: NATURAL AND ARTIFICIAL FLAVOR, SALT, DISODIUM PHOSPHATE (STABILIZER), ASPARTAME* AND ACESULFAME POTASSIUM (SWEETENERS), RED 40, BLUE 1." Date available: 10/13/2017 Date last updated by company: 10/13/2017
