Source: USDA Branded Food Products Database Release December 2017 Software v.3.8.6.4 2017-10-02
Report Run at: December 17, 2017 19:59 EST
"Nutrient data for: 45197884, GELATIN DESSERT, UPC: 074265019428"
Food Group:  Branded Food Products Database
Common Name:

Nutrient,Unit,Data points,Std. Error,"0.25 PACKAGE = 22.0g",1Value per 100 g,
Proximates
"Energy",kcal,--,--,80,364
"Protein",g,--,--,2.00,9.09
"Total lipid (fat)",g,--,--,0.00,0.00
"Carbohydrate, by difference",g,--,--,19.00,86.36
"Fiber, total dietary",g,--,--,0.0,0.0
"Sugars, total",g,--,--,19.00,86.36
Minerals
"Sodium, Na",mg,--,--,116,527
Vitamins
Lipids
"Fatty acids, total saturated",g,--,--,0.000,0.000
"Fatty acids, total trans",g,--,--,0.000,0.000
"Cholesterol",mg,--,--,0,0
Amino Acids
Other
Ingredients
"SUGAR, BEEF GELATIN (HALAL), FUMARIC ACID (FOR TARTNESS), SODIUM CITRATE (CONTROLS ACIDITY), ARTIFICIAL FLAVOR. COLORED WITH BEET POWDER, CARMINE AND BETA-CAROTENE." Date available: 07/14/2017 Date last updated by company: 07/14/2017
