Source: USDA Branded Food Products Database Release December 2017 Software v.3.8.6.4 2017-10-02
Report Run at: December 17, 2017 20:11 EST
"Nutrient data for: 45184900, GELATO, UPC: 085239723166"
Food Group:  Branded Food Products Database
Common Name:

Nutrient,Unit,Data points,Std. Error,"0.5 cup = 65.0g",1Value per 100 g,
Proximates
"Energy",kcal,--,--,150,231
"Protein",g,--,--,3.00,4.62
"Total lipid (fat)",g,--,--,7.00,10.77
"Carbohydrate, by difference",g,--,--,19.00,29.23
"Fiber, total dietary",g,--,--,1.0,1.5
"Sugars, total",g,--,--,15.00,23.08
Minerals
"Calcium, Ca",mg,--,--,80,123
"Iron, Fe",mg,--,--,0.00,0.00
"Sodium, Na",mg,--,--,50,77
Vitamins
"Vitamin C, total ascorbic acid",mg,--,--,0.0,0.0
"Vitamin A, IU",IU,--,--,225,346
Lipids
"Fatty acids, total saturated",g,--,--,3.497,5.380
"Fatty acids, total trans",g,--,--,0.000,0.000
"Cholesterol",mg,--,--,20,31
Amino Acids
Other
Ingredients
"MILK, SUGAR, CREAM, NONFAT MILK, CORN SYRUP, PISTACHIOS, HIGH FRUCTOSE CORN SYRUP, CONTAINS LESS THAN 2% OF PISTACHIO PASTE, LOCUST BEAN GUM, GUAR GUM, MONO AND DIGLYCERIDES, CARRAGEENAN, NATURAL FLAVOR, SOY LECITHIN, SALT, YELLOW 5, BLUE 1." Date available: 07/14/2017 Date last updated by company: 07/14/2017
