Source: USDA Branded Food Products Database Release December 2017 Software v.3.8.6.4 2017-10-02
Report Run at: December 17, 2017 20:11 EST
"Nutrient data for: 45185984, GELATO, UPC: 737094216436"
Food Group:  Branded Food Products Database
Common Name:

Nutrient,Unit,Data points,Std. Error,"0.5 cup = 70.0g",1Value per 100 g,
Proximates
"Energy",kcal,--,--,130,186
"Protein",g,--,--,2.00,2.86
"Total lipid (fat)",g,--,--,4.50,6.43
"Carbohydrate, by difference",g,--,--,21.00,30.00
"Fiber, total dietary",g,--,--,0.0,0.0
"Sugars, total",g,--,--,19.00,27.14
Minerals
"Calcium, Ca",mg,--,--,80,114
"Iron, Fe",mg,--,--,0.00,0.00
"Sodium, Na",mg,--,--,60,86
Vitamins
"Vitamin C, total ascorbic acid",mg,--,--,0.0,0.0
"Vitamin A, IU",IU,--,--,0,0
Lipids
"Fatty acids, total saturated",g,--,--,3.997,5.710
"Fatty acids, total trans",g,--,--,0.000,0.000
"Cholesterol",mg,--,--,10,14
Amino Acids
Other
Ingredients
"PASTEURIZED MILK, CANE SUGAR, COCONUT OIL, INULIN, RICE FLOUR, CITRUS FIBER, CARAMEL, SEA SALT, NATURAL FLAVORS, WHEAT STARCH." Date available: 07/14/2017 Date last updated by company: 07/14/2017
