Source: USDA Branded Food Products Database Release December 2017 Software v.3.8.6.4 2017-10-02
Report Run at: December 17, 2017 19:58 EST
"Nutrient data for: 45066060, GELATIN DESSERT, UPC: 688267072208"
Food Group:  Branded Food Products Database
Common Name:

Nutrient,Unit,Data points,Std. Error,"0.25 PACKAGE MAKES 1/2 CUP = 21.0g",1Value per 100 g,
Proximates
"Energy",kcal,--,--,80,381
"Protein",g,--,--,1.00,4.76
"Total lipid (fat)",g,--,--,0.00,0.00
"Carbohydrate, by difference",g,--,--,19.00,90.48
"Sugars, total",g,--,--,19.00,90.48
Minerals
"Sodium, Na",mg,--,--,80,381
Vitamins
Lipids
Amino Acids
Other
Ingredients
"SUGAR, GELATIN, CONTAINS 2% OR LESS OF ADIPIC ACID (FOR TARTNESS), SODIUM CITRATE (CONTROLS ACIDITY), FUMARIC ACID (FOR TARTNESS), NATURAL AND ARTIFICIAL FLAVORING, SALT, YELLOW 6, DIMETHYLPOLYSILOXANE (PREVENTS FOAM)." Date available: 07/14/2017 Date last updated by company: 07/14/2017
