Source: USDA Branded Food Products Database Release December 2017 Software v.3.8.6.4 2017-10-02
Report Run at: December 17, 2017 20:23 EST
"Nutrient data for: 45312350, GENUINE CHOCOLATE FLAVOR SYRUP, UPC: 03404700"
Food Group:  Branded Food Products Database
Common Name:

Nutrient,Unit,Data points,Std. Error,"1 Tbsp = 19.0g",1Value per 100 g,
Proximates
"Energy",kcal,--,--,45,237
"Protein",g,--,--,0.00,0.00
"Total lipid (fat)",g,--,--,0.00,0.00
"Carbohydrate, by difference",g,--,--,12.00,63.16
"Fiber, total dietary",g,--,--,1.0,5.3
"Sugars, total",g,--,--,10.00,52.63
Minerals
"Calcium, Ca",mg,--,--,0,0
"Iron, Fe",mg,--,--,1.46,7.69
"Sodium, Na",mg,--,--,5,26
Vitamins
"Vitamin C, total ascorbic acid",mg,--,--,0.0,0.0
"Vitamin A, IU",IU,--,--,0,0
Lipids
"Fatty acids, total saturated",g,--,--,0.000,0.000
"Fatty acids, total trans",g,--,--,0.000,0.000
"Cholesterol",mg,--,--,0,0
Amino Acids
Other
Ingredients
"HIGH FRUCTOSE CORN SYRUP; CORN SYRUP; WATER; COCOA*; SUGAR; CONTAINS 2% OR LESS OF: POTASSIUM SORBATE (PRESERVATIVE); SALT; MONO- AND DIGLYCERIDES*; XANTHAN GUM; POLYSORBATE 60; VANILLIN, ARTIFICIAL FLAVOR." Date available: 10/13/2017 Date last updated by company: 10/13/2017
