Source: USDA Branded Food Products Database Release December 2017 Software v.3.8.6.4 2017-10-02
Report Run at: December 17, 2017 20:28 EST
"Nutrient data for: 45179018, GERMAN SQUARE CAKE, UPC: 733147204832"
Food Group:  Branded Food Products Database
Common Name:

Nutrient,Unit,Data points,Std. Error,"1 CAKE = 135.0g",1Value per 100 g,
Proximates
"Energy",kcal,--,--,490,363
"Protein",g,--,--,5.00,3.70
"Total lipid (fat)",g,--,--,24.00,17.78
"Carbohydrate, by difference",g,--,--,63.00,46.67
"Fiber, total dietary",g,--,--,3.0,2.2
"Sugars, total",g,--,--,44.00,32.59
Minerals
"Calcium, Ca",mg,--,--,59,44
"Iron, Fe",mg,--,--,1.07,0.79
"Sodium, Na",mg,--,--,470,348
Vitamins
"Vitamin C, total ascorbic acid",mg,--,--,0.0,0.0
"Vitamin A, IU",IU,--,--,0,0
Lipids
"Fatty acids, total saturated",g,--,--,8.005,5.930
"Fatty acids, total trans",g,--,--,3.496,2.590
"Cholesterol",mg,--,--,0,0
Amino Acids
Other
Ingredients
"CAKE MIX (SUGAR, ENRICHED WHEAT FLOUR (WHEAT FLOUR, NIACIN, REDUCED IRON, THIAMINE MONONITRATE, RIBOFLAVIN, FOLIC ACID), VEGETABLE SHORTENING (PARTIALLY HYDROGENATED SOYBEAN AND COTTONSEED OIL), WITH ADDED MONOGLYCERIDES, MONO- AND DIESTERS OF FAT AND POLYSORBATE 60), COCOA (ALKALI TREATED), NON FAT MILK POWDER, EGG WHITES, SODIUM BICARBONATE, SALT, SODIUM ALUMINUM PHOSPHATE, SOY LECITHIN, NATURAL AND ARTIFICIAL FLAVOR, XANTHAN GUM, MONOCALCIUM PHOSPHATE); ICING (SUGAR, WATER, COCONUT (PRESERVED WITH SODIUM METABISULFITE), PARTIALLY HYDROGENATED VEGETABLE OIL (SOYBEAN AND/OR COTTONSEED AND/OR PALM OIL), HIGH FRUCTOSE CORN SYRUP, CORN SYRUP, NONFAT MILK, PECANS, PROPYLENE GLYCOL, SALT, CITRIC ACID, POTASSIUM SORBATE (PRESERVATIVE), SOYLECITHIN, POLYSORBATE 60, XANTHAN GUM, AGAR, CARAMEL COLOR, MONO & DIGLYCERIDES, NATURAL AND ARTIFICIAL FLAVOR, SULFITES, ALPHA TOCOPHEROLS (PRESERVATIVE), BETA CAROTENE (COLOR), CORN OIL); WATER; SOYBEAN OIL." Date available: 10/10/2017 Date last updated by company: 10/10/2017
