Source: USDA Branded Food Products Database Release December 2017 Software v.3.8.6.4 2017-10-02
Report Run at: December 17, 2017 20:29 EST
"Nutrient data for: 45044758, GESHER, SNACK PACK, BARBEQUE, UPC: 689423002718"
Food Group:  Branded Food Products Database
Common Name:

Nutrient,Unit,Data points,Std. Error,"1 ONZ = 28.0g",1Value per 100 g,
Proximates
"Energy",kcal,--,--,139,496
"Protein",g,--,--,2.60,9.29
"Total lipid (fat)",g,--,--,7.00,25.00
"Carbohydrate, by difference",g,--,--,16.50,58.93
"Fiber, total dietary",g,--,--,0.0,0.0
"Sugars, total",g,--,--,1.00,3.57
Minerals
"Calcium, Ca",mg,--,--,0,0
"Iron, Fe",mg,--,--,0.00,0.00
"Sodium, Na",mg,--,--,174,621
Vitamins
"Vitamin C, total ascorbic acid",mg,--,--,0.0,0.0
"Vitamin A, IU",IU,--,--,0,0
Lipids
"Fatty acids, total saturated",g,--,--,3.301,11.790
"Fatty acids, total trans",g,--,--,0.501,1.790
"Cholesterol",mg,--,--,0,0
Amino Acids
Other
Ingredients
"WHEAT FLOUR (CONTAINS GLUTEN), VEGETABLE OIL, STARCHES, FLAVORINGS, MALTODEXTRIN, SALT, SUGAR, OLEORESIN (PAPRIKA), SILICON DIOXIDE, NATURAL FOOD COLORING, SPICES, FLAVOR ENHANCERS (MONOSODIUM GLUTAMATE), VEGETABLE STABILIZER." Date available: 07/07/2017 Date last updated by company: 07/07/2017
