Source: USDA Branded Food Products Database Release December 2017 Software v.3.8.6.4 2017-10-02
Report Run at: December 17, 2017 20:40 EST
"Nutrient data for: 45153654, GHIRARDELLI CHOCOLATE, SQUARES LIMITED EDITION HOLIDAY ASSORTMENT CHOCOLATE, EGGNOG, PEPPERMINT BARK, PUMPKIN SPICE CARAMEL, UPC: 747599322280"
Food Group:  Branded Food Products Database
Common Name:

Nutrient,Unit,Data points,Std. Error,"3.0 SQUARES = 40.0g",1Value per 100 g,
Proximates
"Energy",kcal,--,--,210,525
"Protein",g,--,--,2.00,5.00
"Total lipid (fat)",g,--,--,13.00,32.50
"Carbohydrate, by difference",g,--,--,23.00,57.50
"Fiber, total dietary",g,--,--,0.0,0.0
"Sugars, total",g,--,--,21.00,52.50
Minerals
"Calcium, Ca",mg,--,--,60,150
"Iron, Fe",mg,--,--,0.45,1.12
"Sodium, Na",mg,--,--,45,112
Vitamins
"Vitamin C, total ascorbic acid",mg,--,--,0.0,0.0
"Vitamin A, IU",IU,--,--,125,312
Lipids
"Fatty acids, total saturated",g,--,--,8.000,20.000
"Fatty acids, total trans",g,--,--,0.000,0.000
"Cholesterol",mg,--,--,10,25
Amino Acids
Other
Ingredients
"SUGAR, COCOA BUTTER, WHOLE MILK POWDER, UNSWEETENED CHOCOLATE, CORN SYRUP, SWEETENED CONDENSED MILK (PASTEURIZED MILK, SUGAR), NONFAT DRY MILK, PALM OIL, WATER, NATURAL AND ARTIFICIAL FLAVORS, BUTTER (CREAM, SALT), SOY LECITHIN - AN EMULSIFIER, SPICES, DISODIUM PHOSPHATE, SALT, FLAKED CORN, YELLOW CORN FLOUR, SORBITOL, VANILLA, CORN SYRUP SOLIDS, CORNSTARCH, RED #40 LAKE, POTASSIUM SORBATE, CARAMEL COLOR, CITRIC ACID AND TBHQ-AS PRESERVATIVES." Date available: 07/14/2017 Date last updated by company: 07/14/2017
