Source: USDA Branded Food Products Database Release December 2017 Software v.3.8.6.4 2017-10-02
Report Run at: December 17, 2017 20:38 EST
"Nutrient data for: 45067435, GHIRARDELLI CHOCOLATE, PREMIUM BAKING BAR, UNSWEETENED CHOCOLATE, UPC: 747599618284"
Food Group:  Branded Food Products Database
Common Name:

Nutrient,Unit,Data points,Std. Error,"1 SECTION = 15.0g",1Value per 100 g,
Proximates
"Energy",kcal,--,--,80,533
"Protein",g,--,--,2.00,13.33
"Total lipid (fat)",g,--,--,8.00,53.33
"Carbohydrate, by difference",g,--,--,5.00,33.33
"Fiber, total dietary",g,--,--,2.0,13.3
"Sugars, total",g,--,--,0.00,0.00
Minerals
"Calcium, Ca",mg,--,--,20,133
"Iron, Fe",mg,--,--,6.00,40.00
"Sodium, Na",mg,--,--,0,0
Vitamins
"Vitamin C, total ascorbic acid",mg,--,--,0.0,0.0
"Vitamin A, IU",IU,--,--,0,0
Lipids
"Fatty acids, total saturated",g,--,--,5.000,33.330
"Fatty acids, total trans",g,--,--,0.000,0.000
"Cholesterol",mg,--,--,0,0
Amino Acids
Other
Ingredients
"UNSWEETENED CHOCOLATE." Date available: 07/14/2017 Date last updated by company: 07/14/2017
