Source: USDA Branded Food Products Database Release December 2017 Software v.3.8.6.4 2017-10-02
Report Run at: December 17, 2017 20:43 EST
"Nutrient data for: 45254883, GHOST PEPPER JAM, UPC: 013964365825"
Food Group:  Branded Food Products Database
Common Name:

Nutrient,Unit,Data points,Std. Error,"1 Tbsp = 19.0g",1Value per 100 g,
Proximates
"Energy",kcal,--,--,44,232
"Protein",g,--,--,0.00,0.00
"Total lipid (fat)",g,--,--,0.00,0.00
"Carbohydrate, by difference",g,--,--,10.00,52.63
"Sugars, total",g,--,--,10.00,52.63
Minerals
"Sodium, Na",mg,--,--,0,0
Vitamins
Lipids
Amino Acids
Other
Ingredients
"CANE SUGAR, APPLE CIDER VINEGAR, WATER, JALAPENOS, RED BELL PEPPER, ONION, PECTIN, GHOST PEPPER." Date available: 07/14/2017 Date last updated by company: 07/14/2017
