Source: USDA Branded Food Products Database Release December 2017 Software v.3.8.6.4 2017-10-02
Report Run at: December 17, 2017 20:43 EST
"Nutrient data for: 45223943, GHOST PEPPER SALSA, UPC: 805426700066"
Food Group:  Branded Food Products Database
Common Name:

Nutrient,Unit,Data points,Std. Error,"1 ONZ = 28.0g",1Value per 100 g,
Proximates
"Energy",kcal,--,--,10,36
"Protein",g,--,--,0.00,0.00
"Total lipid (fat)",g,--,--,0.00,0.00
"Carbohydrate, by difference",g,--,--,2.00,7.14
"Fiber, total dietary",g,--,--,0.0,0.0
"Sugars, total",g,--,--,1.00,3.57
Minerals
"Calcium, Ca",mg,--,--,0,0
"Iron, Fe",mg,--,--,0.64,2.29
"Sodium, Na",mg,--,--,160,571
Vitamins
"Vitamin C, total ascorbic acid",mg,--,--,6.4,22.9
"Vitamin A, IU",IU,--,--,179,638
Lipids
"Fatty acids, total saturated",g,--,--,0.000,0.000
"Fatty acids, total trans",g,--,--,0.000,0.000
"Cholesterol",mg,--,--,0,0
Amino Acids
Other
Ingredients
"TOMATOES, CRUSHED TOMATOES, FRESH ONIONS, DICED GREEN CHILIES, JALAPENOS, FRESH GREEN BELL PEPPER, FRESH GARLIC, ORGANIC VINEGAR, ORGANIC SUGAR, SEA SALT, FRESH CILANTRO, CUMIN, AND GHOST PEPPERS." Date available: 07/14/2017 Date last updated by company: 07/14/2017
