Source: USDA Branded Food Products Database Release December 2017 Software v.3.8.6.4 2017-10-02
Report Run at: December 17, 2017 21:29 EST
"Nutrient data for: 45163083, GIANT EAGLE, TORTILLA CHIP, DIPPERS, UPC: 030034094539"
Food Group:  Branded Food Products Database
Common Name:

Nutrient,Unit,Data points,Std. Error,"7.0 CHIPS | ABOUT = 28.0g",1Value per 100 g,
Proximates
"Energy",kcal,--,--,140,500
"Protein",g,--,--,2.00,7.14
"Total lipid (fat)",g,--,--,7.00,25.00
"Carbohydrate, by difference",g,--,--,18.00,64.29
"Fiber, total dietary",g,--,--,1.0,3.6
"Sugars, total",g,--,--,0.00,0.00
Minerals
"Calcium, Ca",mg,--,--,20,71
"Iron, Fe",mg,--,--,0.64,2.29
"Sodium, Na",mg,--,--,110,393
Vitamins
"Vitamin C, total ascorbic acid",mg,--,--,0.0,0.0
"Vitamin A, IU",IU,--,--,0,0
Lipids
"Fatty acids, total saturated",g,--,--,1.000,3.570
"Fatty acids, total trans",g,--,--,0.000,0.000
"Cholesterol",mg,--,--,0,0
Amino Acids
Other
Ingredients
"STONE-GROUND WHITE CORN, VEGETABLE OIL (CONTAINS ONE OR MORE OF THE FOLLOWING: CORN, SUNFLOWER, SAFFLOWER OR CANOLA OIL), SALT." Date available: 07/14/2017 Date last updated by company: 07/14/2017
