Source: USDA Branded Food Products Database Release December 2017 Software v.3.8.6.4 2017-10-02
Report Run at: December 17, 2017 20:57 EST
"Nutrient data for: 45163040, GIANT EAGLE, CLASSIC POTATO CHIPS, UPC: 030034005306"
Food Group:  Branded Food Products Database
Common Name:

Nutrient,Unit,Data points,Std. Error,"1 PACKAGE = 24.8g",1Value per 100 g,
Proximates
"Energy",kcal,--,--,140,565
"Protein",g,--,--,2.00,8.06
"Total lipid (fat)",g,--,--,9.00,36.29
"Carbohydrate, by difference",g,--,--,13.00,52.42
"Fiber, total dietary",g,--,--,1.0,4.0
"Sugars, total",g,--,--,1.00,4.03
Minerals
"Calcium, Ca",mg,--,--,0,0
"Iron, Fe",mg,--,--,1.45,5.85
"Potassium, K",mg,--,--,260,1048
"Sodium, Na",mg,--,--,150,605
Vitamins
"Vitamin C, total ascorbic acid",mg,--,--,2.4,9.8
"Vitamin A, IU",IU,--,--,0,0
Lipids
"Fatty acids, total saturated",g,--,--,0.999,4.030
"Fatty acids, total monounsaturated",g,--,--,5.000,20.160
"Fatty acids, total polyunsaturated",g,--,--,2.500,10.080
"Fatty acids, total trans",g,--,--,0.000,0.000
"Cholesterol",mg,--,--,0,0
Amino Acids
Other
Ingredients
"POTATOES, VEGETABLE OIL (CONTAINS ONE OR MORE OF THE FOLLOWING: SUNFLOWER, CORN, OR CANOLA), AND SALT." Date available: 07/14/2017 Date last updated by company: 07/14/2017
