Source: USDA Branded Food Products Database Release December 2017 Software v.3.8.6.4 2017-10-02
Report Run at: December 17, 2017 21:41 EST
"Nutrient data for: 45045362, GIANT, SIMPLY ENJOY, PUMPKIN CHEESE CAKE, UPC: 688267157769"
Food Group:  Branded Food Products Database
Common Name:

Nutrient,Unit,Data points,Std. Error,"1 SLICE = 113.0g",1Value per 100 g,
Proximates
"Energy",kcal,--,--,350,310
"Protein",g,--,--,4.99,4.42
"Total lipid (fat)",g,--,--,19.00,16.81
"Carbohydrate, by difference",g,--,--,39.00,34.51
"Fiber, total dietary",g,--,--,1.0,0.9
"Sugars, total",g,--,--,28.00,24.78
Minerals
"Calcium, Ca",mg,--,--,80,71
"Iron, Fe",mg,--,--,0.79,0.70
"Sodium, Na",mg,--,--,140,124
Vitamins
"Vitamin C, total ascorbic acid",mg,--,--,0.0,0.0
"Vitamin A, IU",IU,--,--,1660,1469
Lipids
"Fatty acids, total saturated",g,--,--,6.995,6.190
"Fatty acids, total trans",g,--,--,0.000,0.000
"Cholesterol",mg,--,--,75,66
Amino Acids
Other
Ingredients
"PASTEURIZED MILK AND CREAM, SUGAR, WHEAT FLOUR, EGG, PUMPKIN, PALM OIL, WHOLE WHEAT FLOUR, BROWN SUGAR, SOYBEAN OIL, NONFAT DRY MILK, MOLASSES, CORNSTARCH, SALT, MODIFIED TAPIOCA STARCH, MODIFIED FOOD STARCH, SODIUM PHOSPHATE, GUAR GUM, CARRAGEENAN, CAROB BEAN GUM, CINNAMON, CHEESE CULTURE, SODIUM BICARBONATE, NATURAL FLAVOR, MACE, GINGER, ALLSPICE, HONEY, CARAMEL COLOR, XANTHAN GUM, PAPRIKA (COLOR), MALTED BARLEY FLOUR, SOY LECITHIN (EMULSIFIER), NIACIN, IRON, MIXED TOCOPHEROLS (VITAMIN E), THIAMIN MONONITARTE, RIBOFLAVIN, FOLIC ACID, ENZYME, BETA CAROTENE, VITAMIN A PALMITATE." Date available: 07/14/2017 Date last updated by company: 07/14/2017
