Source: USDA Branded Food Products Database Release December 2017 Software v.3.8.6.4 2017-10-02
Report Run at: December 17, 2017 20:48 EST
"Nutrient data for: 45160680, GIANT, CANDY CANES, PEPPERMINT, UPC: 688267175886"
Food Group:  Branded Food Products Database
Common Name:

Nutrient,Unit,Data points,Std. Error,"1 CANDY CANE = 14.0g",1Value per 100 g,
Proximates
"Energy",kcal,--,--,50,357
"Protein",g,--,--,0.00,0.00
"Total lipid (fat)",g,--,--,0.00,0.00
"Carbohydrate, by difference",g,--,--,14.00,100.00
"Sugars, total",g,--,--,10.00,71.43
Minerals
"Sodium, Na",mg,--,--,0,0
Vitamins
Lipids
"Fatty acids, total saturated",g,--,--,0.000,0.000
Amino Acids
Other
Ingredients
"SUGAR, CORN SYRUP, NATURAL FLAVOR (PEPPERMINT), FD&C RED 40, FD&C YELLOW 5, FD&C BLUE 1, GLYCERIN, PALM OIL, CANOLA OIL, SUNFLOWER LECITHIN." Date available: 07/14/2017 Date last updated by company: 07/14/2017
