Source: USDA Branded Food Products Database Release December 2017 Software v.3.8.6.4 2017-10-02
Report Run at: December 17, 2017 20:58 EST
"Nutrient data for: 45154988, GIANT EAGLE, CRISPY POTATO CHIPS, ORIGINAL, UPC: 030034094232"
Food Group:  Branded Food Products Database
Common Name:

Nutrient,Unit,Data points,Std. Error,"1 BAG = 53.0g",1Value per 100 g,
Proximates
"Energy",kcal,--,--,290,547
"Protein",g,--,--,3.00,5.66
"Total lipid (fat)",g,--,--,19.00,35.85
"Carbohydrate, by difference",g,--,--,29.00,54.72
"Fiber, total dietary",g,--,--,2.0,3.8
"Sugars, total",g,--,--,2.00,3.77
Minerals
"Calcium, Ca",mg,--,--,0,0
"Iron, Fe",mg,--,--,0.34,0.64
"Sodium, Na",mg,--,--,250,472
Vitamins
"Vitamin C, total ascorbic acid",mg,--,--,17.0,32.0
"Vitamin A, IU",IU,--,--,0,0
Lipids
"Fatty acids, total saturated",g,--,--,2.502,4.720
"Fatty acids, total monounsaturated",g,--,--,4.500,8.490
"Fatty acids, total polyunsaturated",g,--,--,11.999,22.640
"Fatty acids, total trans",g,--,--,0.000,0.000
"Cholesterol",mg,--,--,0,0
Amino Acids
Other
Ingredients
"POTATOES, VEGETABLE OIL (CONTAINS ONE OR MORE OF THE FOLLOWING: CORN, SUNFLOWER OR CANOLA OIL), SALT." Date available: 07/14/2017 Date last updated by company: 07/14/2017
