Source: USDA Branded Food Products Database Release December 2017 Software v.3.8.6.4 2017-10-02
Report Run at: December 17, 2017 20:45 EST
"Nutrient data for: 45144961, GIANNA'S, SHARK FISH FROSTED SUGAR COOKIES, UPC: 683639923249"
Food Group:  Branded Food Products Database
Common Name:

Nutrient,Unit,Data points,Std. Error,"1 ONZ = 28.0g",1Value per 100 g,
Proximates
"Energy",kcal,--,--,130,464
"Protein",g,--,--,1.00,3.57
"Total lipid (fat)",g,--,--,8.00,28.57
"Carbohydrate, by difference",g,--,--,18.00,64.29
"Fiber, total dietary",g,--,--,0.0,0.0
"Sugars, total",g,--,--,8.00,28.57
Minerals
"Calcium, Ca",mg,--,--,0,0
"Iron, Fe",mg,--,--,1.29,4.59
"Sodium, Na",mg,--,--,45,161
Vitamins
"Vitamin C, total ascorbic acid",mg,--,--,0.0,0.0
"Vitamin A, IU",IU,--,--,357,1275
Lipids
"Fatty acids, total saturated",g,--,--,4.001,14.290
"Cholesterol",mg,--,--,20,71
Amino Acids
Other
Ingredients
"UNBLEACHED HIGH GLUTEN FLOUR (WHEAT FLOUR, MALTED BARLEY FLOUR, NIACIN, IRON, THIAMINE MONONITRATE, RIBOFLAVIN, FOLIC ACID), UNSALTED BUTTER, SUGAR, NATURAL FLAVOR, FRESH WHOLE EGGS, SALT, WATERFROSTING: SUGAR, WATER, NATURAL VANILLA, NATURAL FOOD COLORING, CHOCOLATE (SUGAR, PALM KERNEL AND PALM OILS, COCOA (PROCESSED WITH POTASSIUM CARBONATE), NONFAT MILK, SORBITAN MONOSTEARATE AND SOYA LECITHIN AN EMULSIFIERS, PURE VANILLA, MADE WITH NON-HYDROGENATED OILS)." Date available: 07/14/2017 Date last updated by company: 07/14/2017
