Source: USDA Branded Food Products Database Release December 2017 Software v.3.8.6.4 2017-10-02
Report Run at: December 17, 2017 21:06 EST
"Nutrient data for: 45145706, GIANT EAGLE, NATURE'S BASKET, DRINK MIX STICKS, MANGO, PINEAPPLE, UPC: 030034092788"
Food Group:  Branded Food Products Database
Common Name:

Nutrient,Unit,Data points,Std. Error,"0.5 PACKET = 4.5g",1Value per 100 g,
Proximates
"Energy",kcal,--,--,15,333
"Protein",g,--,--,0.00,0.00
"Total lipid (fat)",g,--,--,0.00,0.00
"Carbohydrate, by difference",g,--,--,4.00,88.89
"Sugars, total",g,--,--,3.00,66.67
Minerals
"Sodium, Na",mg,--,--,20,444
Vitamins
Lipids
Amino Acids
Other
Ingredients
"SUGAR, MALTODEXTRIN, MALIC ACID, NATURAL FLAVOR, CITRIC ACID, STEVIA EXTRACT, SALT, MAGNESIUM OXIDE." Date available: 07/14/2017 Date last updated by company: 07/14/2017
