Source: USDA Branded Food Products Database Release December 2017 Software v.3.8.6.4 2017-10-02
Report Run at: December 17, 2017 21:31 EST
"Nutrient data for: 45160687, GIANT, FLAVORED SELTZER WATER, CRANBERRY & LIME, UPC: 688267671913"
Food Group:  Branded Food Products Database
Common Name:

Nutrient,Unit,Data points,Std. Error,"1 CAN = 355.0g",1Value per 100 g,
Proximates
"Energy",kcal,--,--,0,0
"Protein",g,--,--,0.00,0.00
"Total lipid (fat)",g,--,--,0.00,0.00
"Carbohydrate, by difference",g,--,--,0.00,0.00
"Sugars, total",g,--,--,0.00,0.00
Minerals
"Sodium, Na",mg,--,--,4,1
Vitamins
Lipids
"Fatty acids, total saturated",g,--,--,0.000,0.000
Amino Acids
Other
Ingredients
"CARBONATED WATER, NATURAL FLAVORS." Date available: 07/14/2017 Date last updated by company: 07/14/2017
