Source: USDA Branded Food Products Database Release December 2017 Software v.3.8.6.4 2017-10-02
Report Run at: December 17, 2017 20:48 EST
"Nutrient data for: 45141141, GIANT, CHICKEN GRAVY MIX, UPC: 688267062933"
Food Group:  Branded Food Products Database
Common Name:

Nutrient,Unit,Data points,Std. Error,"2.0 tsp = 6.0g",1Value per 100 g,
Proximates
"Energy",kcal,--,--,20,333
"Protein",g,--,--,0.00,0.00
"Total lipid (fat)",g,--,--,0.50,8.33
"Carbohydrate, by difference",g,--,--,4.00,66.67
"Sugars, total",g,--,--,1.00,16.67
Minerals
"Sodium, Na",mg,--,--,310,5167
Vitamins
Lipids
Amino Acids
Other
Ingredients
"ENRICHED WHEAT FLOUR (FLOUR, NIACIN, IRON, THIAMIN MONONITRATE, RIBOFLAVIN, FOLIC ACID), WHEAT STARCH, DEXTROSE, SALT, WHEY (MILK), CHICKEN FAT, CHICKEN, SILICON DIOXIDE (ADDED TO MAKE FREE FLOWING), ONION, HYDROLYZED CORN GLUTEN, YEAST EXTRACT, CHICKEN BROTH, PAPRIKA, XANTHAN GUM, DISODIUM INOSINATE AND GUANYLATE (FLAVOR ENHANCERS), SPICES, NATURAL FLAVOR (INCLUDING SOY), TURMERIC" Date available: 07/14/2017 Date last updated by company: 07/14/2017
