Source: USDA Branded Food Products Database Release December 2017 Software v.3.8.6.4 2017-10-02
Report Run at: December 17, 2017 21:32 EST
"Nutrient data for: 45237978, GIANT, HEALTHY CHICKEN NOODLE CONDENSED SOUP, UPC: 688267012570"
Food Group:  Branded Food Products Database
Common Name:

Nutrient,Unit,Data points,Std. Error,"0.5 cup = 125.0g",1Value per 100 g,
Proximates
"Energy",kcal,--,--,60,48
"Protein",g,--,--,3.00,2.40
"Total lipid (fat)",g,--,--,2.00,1.60
"Carbohydrate, by difference",g,--,--,8.00,6.40
"Fiber, total dietary",g,--,--,0.0,0.0
"Sugars, total",g,--,--,0.00,0.00
Minerals
"Calcium, Ca",mg,--,--,0,0
"Iron, Fe",mg,--,--,0.70,0.56
"Sodium, Na",mg,--,--,400,320
Vitamins
"Vitamin C, total ascorbic acid",mg,--,--,17.6,14.1
"Vitamin A, IU",IU,--,--,980,784
Lipids
"Fatty acids, total saturated",g,--,--,0.500,0.400
"Fatty acids, total monounsaturated",g,--,--,1.000,0.800
"Fatty acids, total polyunsaturated",g,--,--,0.500,0.400
"Fatty acids, total trans",g,--,--,0.000,0.000
"Cholesterol",mg,--,--,10,8
Amino Acids
Other
Ingredients
"CHICKEN BROTH, ENRICHED EGG NOODLES (WHEAT FLOUR, EGGS, EGG WHITES, NIACIN, FERROUS SULFATE [IRON], THIAMIN MONONITRATE, RIBOFLAVIN, FOLIC ACID), CHICKEN MEAT (COOKED CHICKEN MEAT, WATER, MODIFIED FOOD STARCH, SALT, SODIUM PHOSPHATE), CARROTS, CONTAINS LESS THAN 2% OF: CHICKEN FLAVOR (CHICKEN FAT, MALTODEXTRIN, SESAME OIL, NATURAL FLAVOR AND BHA [ANTIOXIDANT]), MODIFIED FOOD STARCH, SALT, COOKED MECHANICALLY SEPARATED CHICKEN MEAT, POTASSIUM CHLORIDE, YEAST EXTRACT, HIGH FRUCTOSE CORN SYRUP, ONION POWDER, DISODIUM INOSINATE, DISODIUM GUANYLATE, GARLIC POWDER, SPICE EXTRACT, ASCORBIC ACID, BETA CAROTENE (FOR COLOR)." Date available: 06/24/2017 Date last updated by company: 06/24/2017
