Source: USDA Branded Food Products Database Release December 2017 Software v.3.8.6.4 2017-10-02
Report Run at: December 17, 2017 21:37 EST
"Nutrient data for: 45160653, GIANT, OLD FASHIONED ICED GINGER COOKIES, UPC: 688267153358"
Food Group:  Branded Food Products Database
Common Name:

Nutrient,Unit,Data points,Std. Error,"1 COOKIE = 25.0g",1Value per 100 g,
Proximates
"Energy",kcal,--,--,110,440
"Protein",g,--,--,1.00,4.00
"Total lipid (fat)",g,--,--,3.00,12.00
"Carbohydrate, by difference",g,--,--,19.00,76.00
"Fiber, total dietary",g,--,--,0.0,0.0
"Sugars, total",g,--,--,10.00,40.00
Minerals
"Calcium, Ca",mg,--,--,0,0
"Iron, Fe",mg,--,--,1.44,5.76
"Potassium, K",mg,--,--,25,100
"Sodium, Na",mg,--,--,75,300
Vitamins
"Vitamin C, total ascorbic acid",mg,--,--,0.0,0.0
"Vitamin A, IU",IU,--,--,0,0
Lipids
"Fatty acids, total saturated",g,--,--,1.500,6.000
"Fatty acids, total monounsaturated",g,--,--,1.000,4.000
"Fatty acids, total polyunsaturated",g,--,--,0.500,2.000
"Fatty acids, total trans",g,--,--,0.000,0.000
"Cholesterol",mg,--,--,5,20
Amino Acids
Other
Ingredients
"ENRICHED BLEACHED WHEAT FLOUR (WHEAT FLOUR, NIACIN, IRON, THIAMIN MONONITRATE, RIBOFLAVIN, FOLIC ACID), SUGAR, HIGH FRUCTOSE CORN SYRUP, CANOLA AND/OR SOYBEAN AND/OR PALM OIL, MOLASSES, CORN SYRUP, RAISIN PASTE, CONTAINS 2% OR LESS OF: GINGER, EGGS, SALT, BAKING SODA, SPICE, CORNSTARCH, WHEY, TITANIUM DIOXIDE (COLOR), ENZYME MODIFIED SOY PROTEIN." Date available: 08/25/2017 Date last updated by company: 08/25/2017
