Source: USDA Branded Food Products Database Release December 2017 Software v.3.8.6.4 2017-10-02
Report Run at: December 17, 2017 21:35 EST
"Nutrient data for: 45049292, GIANT, MARINADE AND BASTING SAUCE, CARIBBEAN MANGO, UPC: 688267160134"
Food Group:  Branded Food Products Database
Common Name:

Nutrient,Unit,Data points,Std. Error,"1 Tbsp = 17.0g",1Value per 100 g,
Proximates
"Energy",kcal,--,--,20,118
"Protein",g,--,--,0.00,0.00
"Total lipid (fat)",g,--,--,0.00,0.00
"Carbohydrate, by difference",g,--,--,4.00,23.53
"Fiber, total dietary",g,--,--,0.0,0.0
"Sugars, total",g,--,--,4.00,23.53
Minerals
"Calcium, Ca",mg,--,--,0,0
"Iron, Fe",mg,--,--,0.00,0.00
"Sodium, Na",mg,--,--,40,235
Vitamins
"Vitamin C, total ascorbic acid",mg,--,--,146.1,859.3
"Vitamin A, IU",IU,--,--,1218,7162
Lipids
"Fatty acids, total saturated",g,--,--,0.000,0.000
"Fatty acids, total trans",g,--,--,0.000,0.000
"Cholesterol",mg,--,--,0,0
Amino Acids
Other
Ingredients
"MANGO, WATER, CANE SUGAR, SWEET RED PEPPERS, APPLE CIDER VINEGAR, ONIONS, DIJON MUSTARD (DISTILLED VINEGAR, WATER, MUSTARD SEED, SALT, WHITE WINE, GUAR GUM, CITRIC AND TARTARIC ACIDS, SUGAR, TURMERIC, SPICES),PEPPER SAUCE (CAYENNE PEPPERS, VINEGAR, SALT, GARLIC), CANOLA OR SOYBEAN OIL, XANTHAN GUM, SPICE, ASCORBIC ACID (VITAMIN C), NATURAL VITAMIN E ADDED TO PROTECT FLAVOR." Date available: 10/03/2017 Date last updated by company: 10/03/2017
