Source: USDA Branded Food Products Database Release December 2017 Software v.3.8.6.4 2017-10-02
Report Run at: December 17, 2017 21:08 EST
"Nutrient data for: 45181747, GIANT EAGLE, NATURE'S BASKET, ORGANIC MIXED VEGETABLES, UPC: 030034085636"
Food Group:  Branded Food Products Database
Common Name:

Nutrient,Unit,Data points,Std. Error,"0.67 cup = 90.0g",1Value per 100 g,
Proximates
"Energy",kcal,--,--,60,67
"Protein",g,--,--,2.00,2.22
"Total lipid (fat)",g,--,--,0.00,0.00
"Carbohydrate, by difference",g,--,--,10.00,11.11
"Fiber, total dietary",g,--,--,2.0,2.2
"Sugars, total",g,--,--,4.00,4.44
Minerals
"Calcium, Ca",mg,--,--,20,22
"Iron, Fe",mg,--,--,0.34,0.38
"Sodium, Na",mg,--,--,15,17
Vitamins
"Vitamin C, total ascorbic acid",mg,--,--,4.5,5.0
"Vitamin A, IU",IU,--,--,944,1049
Lipids
"Fatty acids, total saturated",g,--,--,0.000,0.000
"Fatty acids, total trans",g,--,--,0.000,0.000
"Cholesterol",mg,--,--,0,0
Amino Acids
Other
Ingredients
"ORGANIC CARROTS, ORGANIC PEAS, ORGANIC CORN, ORGANIC GREEN BEANS." Date available: 07/14/2017 Date last updated by company: 07/14/2017
