Source: USDA Branded Food Products Database Release December 2017 Software v.3.8.6.4 2017-10-02
Report Run at: December 17, 2017 21:05 EST
"Nutrient data for: 45145699, GIANT EAGLE, MINI COOKIES ON-THE-GO, CHOCOLATE CHIP, UPC: 030034093808"
Food Group:  Branded Food Products Database
Common Name:

Nutrient,Unit,Data points,Std. Error,"1 ONZ = 28.0g",1Value per 100 g,
Proximates
"Energy",kcal,--,--,130,464
"Protein",g,--,--,1.00,3.57
"Total lipid (fat)",g,--,--,7.00,25.00
"Carbohydrate, by difference",g,--,--,18.00,64.29
"Fiber, total dietary",g,--,--,1.0,3.6
"Sugars, total",g,--,--,8.00,28.57
Minerals
"Calcium, Ca",mg,--,--,0,0
"Iron, Fe",mg,--,--,0.64,2.29
"Sodium, Na",mg,--,--,85,304
Vitamins
"Vitamin C, total ascorbic acid",mg,--,--,0.0,0.0
"Vitamin A, IU",IU,--,--,0,0
Lipids
"Fatty acids, total saturated",g,--,--,2.999,10.710
"Fatty acids, total trans",g,--,--,0.000,0.000
"Cholesterol",mg,--,--,0,0
Amino Acids
Other
Ingredients
"BLEACHED ENRICHED FLOUR (BLEACHED WHEAT FLOUR, NIACIN, REDUCED IRON, THIAMINE MONONITRATE [VITAMIN B1], RIBOFLAVIN [VITAMIN B2], FOLIC ACID), WHEAT FLOUR, VEGETABLE SHORTENING (PALM OIL, SOYBEAN OIL, CANOLA OIL, TOCOPHEROLS (ADDED AS AN ANTIOXIDANT]), CHOCOLATE CHIPS (SUGAR, CHOCOLATE LIQUOR, COCOA BUTTER, SOY LECITHIN, VANILLA), SUGAR, BROWN SUGAR, CORN SYRUP, MILK REPLACER (SOYA PROTEIN, MALTODEXTRIN, CERELOSE, GUAR GUM, BETA CAROTENE AND SOY LECITHIN), SALT, LEAVENING (SODIUM BICARBONATE, AMMONIUM BICARBONATE, MONOCALCIUM PHOSPHATE), NATURAL AND ARTIFICIAL FLAVOR, CARAMEL COLOR, WHOLE EGG SOLIDS, CORN SYRUP SOLIDS." Date available: 07/14/2017 Date last updated by company: 07/14/2017
