Source: USDA Branded Food Products Database Release December 2017 Software v.3.8.6.4 2017-10-02
Report Run at: December 17, 2017 21:48 EST
"Nutrient data for: 45168980, GIL'S GOURMET, DOUBLE GARLIC OIL, UPC: 736385443803"
Food Group:  Branded Food Products Database
Common Name:

Nutrient,Unit,Data points,Std. Error,"1 Tbsp = 15.0g",1Value per 100 g,
Proximates
"Energy",kcal,--,--,120,800
"Protein",g,--,--,0.00,0.00
"Total lipid (fat)",g,--,--,14.00,93.33
"Carbohydrate, by difference",g,--,--,0.00,0.00
"Fiber, total dietary",g,--,--,0.0,0.0
"Sugars, total",g,--,--,0.00,0.00
Minerals
"Calcium, Ca",mg,--,--,0,0
"Iron, Fe",mg,--,--,0.00,0.00
"Sodium, Na",mg,--,--,2,13
Vitamins
"Vitamin C, total ascorbic acid",mg,--,--,12.0,80.0
"Vitamin A, IU",IU,--,--,0,0
Lipids
"Fatty acids, total saturated",g,--,--,1.000,6.670
"Fatty acids, total trans",g,--,--,0.000,0.000
"Cholesterol",mg,--,--,0,0
Amino Acids
Other
Ingredients
"PURE OLIVE OIL, CANOLA OIL AND NATURAL GARLIC EXTRACT." Date available: 10/13/2017 Date last updated by company: 10/13/2017
