Source: USDA Branded Food Products Database Release December 2017 Software v.3.8.6.4 2017-10-02
Report Run at: December 17, 2017 21:48 EST
"Nutrient data for: 45039144, GILWAY, FRESH GARDEN SAUCE, MINT, UPC: 015469000607"
Food Group:  Branded Food Products Database
Common Name:

Nutrient,Unit,Data points,Std. Error,"2.0 Tbsp = 30.0g",1Value per 100 g,
Proximates
"Energy",kcal,--,--,16,53
"Protein",g,--,--,1.00,3.33
"Total lipid (fat)",g,--,--,0.00,0.00
"Carbohydrate, by difference",g,--,--,2.00,6.67
"Fiber, total dietary",g,--,--,1.5,5.0
"Sugars, total",g,--,--,0.00,0.00
Minerals
"Sodium, Na",mg,--,--,334,1113
Vitamins
Lipids
"Fatty acids, total saturated",g,--,--,0.000,0.000
"Cholesterol",mg,--,--,0,0
Amino Acids
Other
Ingredients
"FRESH GARDEN MINT (47%), SPIRIT VINEGAR, WATER, DRIED MINT (6%), ACETIC ACID, SALT, MAIZE STARCH, COLOUR: COPPER CHLOROPHYLLIN, ANTIOXIDANT: ASCORBIC ACID." Date available: 06/24/2017 Date last updated by company: 06/24/2017
