Source: USDA Branded Food Products Database Release December 2017 Software v.3.8.6.4 2017-10-02
Report Run at: December 17, 2017 21:48 EST
"Nutrient data for: 45290097, GIMLET BASIL & LIME COCKTAIL MIX, UPC: 867216000077"
Food Group:  Branded Food Products Database
Common Name:

Nutrient,Unit,Data points,Std. Error,"4.0 OZA = 118.0g",1Value per 100 g,
Proximates
"Energy",kcal,--,--,60,51
"Protein",g,--,--,0.00,0.00
"Total lipid (fat)",g,--,--,0.00,0.00
"Carbohydrate, by difference",g,--,--,15.00,12.71
"Fiber, total dietary",g,--,--,0.0,0.0
"Sugars, total",g,--,--,15.00,12.71
Minerals
"Sodium, Na",mg,--,--,0,0
Vitamins
Lipids
"Fatty acids, total saturated",g,--,--,0.000,0.000
"Fatty acids, total trans",g,--,--,0.000,0.000
Amino Acids
Other
Ingredients
"WATER, AGAVE SYRUP, LEMON JUICE CONCENTRATE, LIME JUICE CONCENTRATE, NATURAL FLAVOR (BASIL), XANTHAN/LOCUST BEAN GUM" Date available: 05/10/2017 Date last updated by company: 05/10/2017
