Source: USDA Branded Food Products Database Release December 2017 Software v.3.8.6.4 2017-10-02
Report Run at: December 17, 2017 21:48 EST
"Nutrient data for: 45142101, GINBIS, CORN PUFF SNACK, UPC: 011152287966"
Food Group:  Branded Food Products Database
Common Name:

Nutrient,Unit,Data points,Std. Error,"1.1 ONZ = 30.0g",1Value per 100 g,
Proximates
"Energy",kcal,--,--,170,567
"Protein",g,--,--,1.00,3.33
"Total lipid (fat)",g,--,--,11.00,36.67
"Carbohydrate, by difference",g,--,--,16.00,53.33
"Fiber, total dietary",g,--,--,1.0,3.3
"Sugars, total",g,--,--,15.00,50.00
Minerals
"Calcium, Ca",mg,--,--,40,133
"Iron, Fe",mg,--,--,0.00,0.00
"Sodium, Na",mg,--,--,15,50
Vitamins
"Vitamin C, total ascorbic acid",mg,--,--,0.0,0.0
"Vitamin A, IU",IU,--,--,0,0
Lipids
"Fatty acids, total saturated",g,--,--,0.000,0.000
"Fatty acids, total trans",g,--,--,0.000,0.000
"Cholesterol",mg,--,--,0,0
Amino Acids
Other
Ingredients
"VEGETABLE OIL (PALM, SOYBEANS, RAPESEED, CORN), SUGAR, CORN GRITS, UNSWEETENED CHOCOLATE, WHOLE MILK POWDER, COCOA POWDER, SALT, SOY LECITHIN, GLYCEROL ESTERS OF FATTY ACIDS, CALCIUM CARBONATE, ARTIFICIAL FLAVOR." Date available: 07/14/2017 Date last updated by company: 07/14/2017
