Source: USDA Branded Food Products Database Release December 2017 Software v.3.8.6.4 2017-10-02
Report Run at: December 17, 2017 21:51 EST
"Nutrient data for: 45175290, GINGERBREAD HOUSE KIT, UPC: 070896352187"
Food Group:  Branded Food Products Database
Common Name:

Nutrient,Unit,Data points,Std. Error,"0.024 KIT = 30.0g",1Value per 100 g,
Proximates
"Energy",kcal,--,--,120,400
"Protein",g,--,--,1.00,3.33
"Total lipid (fat)",g,--,--,2.50,8.33
"Carbohydrate, by difference",g,--,--,24.00,80.00
"Fiber, total dietary",g,--,--,0.0,0.0
"Sugars, total",g,--,--,15.00,50.00
Minerals
"Calcium, Ca",mg,--,--,0,0
"Iron, Fe",mg,--,--,0.60,2.00
"Sodium, Na",mg,--,--,75,250
Vitamins
"Vitamin C, total ascorbic acid",mg,--,--,0.0,0.0
"Vitamin A, IU",IU,--,--,0,0
Lipids
"Fatty acids, total saturated",g,--,--,0.501,1.670
"Fatty acids, total trans",g,--,--,0.999,3.330
"Cholesterol",mg,--,--,0,0
Amino Acids
Other
Ingredients
"GINGERBREAD: ENRICHED WHEAT FLOUR ( WHEAT FLOUR, NIACIN, IRON, FUNGAL-AMYLASE, ASCORBIC ACID, THIAMINE MONONITRATE, RIBOFLAVIN, FOLIC ACID), SUGAR, VEGETABLE SHORTENING (HYDROGENATED SOYBEAN AND COTTONSEED OIL), MOLASSES, WATER, SPICES (CINNAMON, GINGER, ALLSPICE, CLOVES), LEAVENING (BAKING SODA), SALT. WHITE READY-TO-USE ICING: SUGAR, WATER, VEGETABLE SHORTENING (HYDROGENATED SOYBEAN OIL, MODIFIED PALM OIL, HYDROGENATED MODIFIED PALM OIL, MONO AND DIGLYCERIDES), CORN SYRUP, CORN STARCH, FOOD STARCH-MODIFIED (CORN), SALT, MONO AND DIGLYCERIDES, ARTIFICIAL FLAVOR, TITANIUM DIOXIDE (COLOR), POLYSORBATE 60, POTASSIUM SORBATE (PRESERVATIVE), CITRIC ACID. MINI MULTI-COLORED CANDIES: DEXTROSE, CORN SYRUP, CITRIC ACID, CALCIUM STEARATE, TAPIOCA DEXTRIN, TITANIUM DIOXIDE (COLOR), CONFECTIONERS' GLAZE, CARNAUBA WAX, ARTIFICIAL FLAVORS, FD&C YELLOW #5, FD&C YELLOW #6, FD&C RED #3, FD&C #40, FD&C BLUE #1. GREEN CANDY STICKS: SUGAR, MALTOSE SYRUP, WATER. ARTIFICIAL FLAVOR, FD&C YELLOW #5, FD&C BLUE #1, TITANIUM DIOXIDE (COLOR). MINI SUGARED GUM DROPS: CORN SYRUP, SUGAR, FOOD STARCH-MODIFIED (CORN), CITRIC ACID , NATURAL AND ARTIFICIAL FLAVORS, FD&C YELLOW #5, FD&C YELLOW #6, FD&C RED #3, FD&C RED #40, FD&C BLUE #1." Date available: 08/11/2017 Date last updated by company: 08/11/2017
