Source: USDA Branded Food Products Database Release December 2017 Software v.3.8.6.4 2017-10-02
Report Run at: December 17, 2017 21:55 EST
"Nutrient data for: 45260641, GINGER PEPPER JAM, UPC: 50190737"
Food Group:  Branded Food Products Database
Common Name:

Nutrient,Unit,Data points,Std. Error,"1 ONZ = 28.0g",1Value per 100 g,
Proximates
"Energy",kcal,--,--,50,179
"Protein",g,--,--,0.00,0.00
"Total lipid (fat)",g,--,--,0.00,0.00
"Carbohydrate, by difference",g,--,--,14.00,50.00
"Sugars, total",g,--,--,13.00,46.43
Minerals
"Sodium, Na",mg,--,--,0,0
Vitamins
"Vitamin C, total ascorbic acid",mg,--,--,108.0,385.7
"Vitamin A, IU",IU,--,--,750,2679
Lipids
Amino Acids
Other
Ingredients
"CANE SUGAR, SWEET BELL PEPPER, APPLE CIDER VINEGAR, LONG HOT PEPPER, BERMUDA HONEY, WATER, 100% PURE CITRUS PECTIN, GINGER JUICE, VITAMIN C (ASCORBIC ACID), CITRIC ACID, AND CALCIUM MONOPHOSPHATE (CALCIUM MINERAL SUPPLEMENT)." Date available: 07/14/2017 Date last updated by company: 07/14/2017
