Source: USDA Branded Food Products Database Release December 2017 Software v.3.8.6.4 2017-10-02
Report Run at: December 17, 2017 21:50 EST
"Nutrient data for: 45289187, GINGER ALE, UPC: 074175531799"
Food Group:  Branded Food Products Database
Common Name:

Nutrient,Unit,Data points,Std. Error,"12.0 OZA = 360.0g",1Value per 100 g,
Proximates
"Energy",kcal,--,--,140,39
"Protein",g,--,--,0.00,0.00
"Total lipid (fat)",g,--,--,0.00,0.00
"Carbohydrate, by difference",g,--,--,37.01,10.28
"Sugars, total",g,--,--,37.01,10.28
Minerals
"Sodium, Na",mg,--,--,36,10
Vitamins
Lipids
Amino Acids
Other
Ingredients
"CARBONATED WATER, HIGH FRUCTOSE CORN SYRUP, NATURAL FLAVOR, CITRIC ACID, POTASSIUM BENZOATE (PRESERVATIVE), CARAMEL COLOR." Date available: 10/04/2017 Date last updated by company: 10/04/2017
