Source: USDA Branded Food Products Database Release December 2017 Software v.3.8.6.4 2017-10-02
Report Run at: December 17, 2017 21:51 EST
"Nutrient data for: 45267503, GINGERBREAD HOUSE, UPC: 654954202296"
Food Group:  Branded Food Products Database
Common Name:

Nutrient,Unit,Data points,Std. Error,"1 HOUSE = 50.0g",1Value per 100 g,
Proximates
"Energy",kcal,--,--,220,440
"Protein",g,--,--,2.00,4.00
"Total lipid (fat)",g,--,--,5.00,10.00
"Carbohydrate, by difference",g,--,--,41.00,82.00
"Fiber, total dietary",g,--,--,0.0,0.0
"Sugars, total",g,--,--,22.00,44.00
Minerals
"Calcium, Ca",mg,--,--,0,0
"Iron, Fe",mg,--,--,0.00,0.00
"Sodium, Na",mg,--,--,22,44
Vitamins
"Vitamin C, total ascorbic acid",mg,--,--,0.0,0.0
"Vitamin A, IU",IU,--,--,0,0
Lipids
"Fatty acids, total saturated",g,--,--,3.000,6.000
"Fatty acids, total trans",g,--,--,0.000,0.000
"Cholesterol",mg,--,--,0,0
Amino Acids
Other
Ingredients
"WHEAT FLOUR, SUGAR, MARGARINE (PALM OIL, BHT), HIGH MALTOSE SYRUP, BROWN SUGAR, WATER, FLAVORINGS, AMMONIUM HYDROGEN CARBONATE, SODIUM BICARBONATE, SALT, GELATIN, TITANIUM DIOXIDE, FD&C COLORS (RED #40, YELLOW #5, YELLOW #6, BLUE #1, RED #3)." Date available: 07/14/2017 Date last updated by company: 07/14/2017
