Source: USDA Branded Food Products Database Release December 2017 Software v.3.8.6.4 2017-10-02
Report Run at: December 17, 2017 21:54 EST
"Nutrient data for: 45174421, GINGER EVANS, ULTRA MOIST CAKE MIX, BUTTER YELLOW, UPC: 051933348240"
Food Group:  Branded Food Products Database
Common Name:

Nutrient,Unit,Data points,Std. Error,"0.083 PACKAGE = 39.0g",1Value per 100 g,
Proximates
"Energy",kcal,--,--,170,436
"Protein",g,--,--,1.00,2.56
"Total lipid (fat)",g,--,--,4.00,10.26
"Carbohydrate, by difference",g,--,--,31.00,79.49
"Fiber, total dietary",g,--,--,1.0,2.6
"Sugars, total",g,--,--,13.00,33.33
Minerals
"Calcium, Ca",mg,--,--,0,0
"Iron, Fe",mg,--,--,0.74,1.89
"Potassium, K",mg,--,--,18,46
"Sodium, Na",mg,--,--,150,385
Vitamins
"Vitamin C, total ascorbic acid",mg,--,--,0.0,0.0
"Vitamin A, IU",IU,--,--,0,0
Lipids
"Fatty acids, total saturated",g,--,--,1.502,3.850
"Fatty acids, total monounsaturated",g,--,--,0.998,2.560
"Fatty acids, total polyunsaturated",g,--,--,0.998,2.560
"Fatty acids, total trans",g,--,--,0.000,0.000
"Cholesterol",mg,--,--,0,0
Amino Acids
Other
Ingredients
"SUGAR, ENRICHED BLEACHED FLOUR (BLEACHED WHEAT FLOUR, NIACIN, IRON, THIAMINE MONONITRATE, RIBOFLAVIN, FOLIC ACID), VEGETABLE SHORTENING (CONTAINS ONE OR MORE OF THE FOLLOWING: [PALM AND/OR SOYBEAN OIL] WITH EMULSIFIER [PROPYLENE GLYCOL MONOESTERS, MONO- AND DIGLYCERIDES, SOY LECITHIN] AND PRESERVATIVE [BHT, CITRIC ACID]), DEXTROSE, CONTAINS 2% OR LESS OF: MODIFIED CORN STARCH, LEAVENING (BAKING SODA, MONOCALCIUM PHOSPHATE), SALT, NATURAL AND ARTIFICIAL FLAVOR, COLOR (YELLOW 5 AND 6)." Date available: 07/14/2017 Date last updated by company: 07/14/2017
