Source: USDA Branded Food Products Database Release December 2017 Software v.3.8.6.4 2017-10-02
Report Run at: December 17, 2017 21:52 EST
"Nutrient data for: 45264643, GINGERBREAD MEN, UPC: 018894251101"
Food Group:  Branded Food Products Database
Common Name:

Nutrient,Unit,Data points,Std. Error,"6.0 GRM = 6.0g",1Value per 100 g,
Proximates
"Energy",kcal,--,--,20,333
"Protein",g,--,--,0.00,0.00
"Total lipid (fat)",g,--,--,0.00,0.00
"Carbohydrate, by difference",g,--,--,6.00,100.00
"Fiber, total dietary",g,--,--,0.0,0.0
"Sugars, total",g,--,--,6.00,100.00
Minerals
"Calcium, Ca",mg,--,--,0,0
"Iron, Fe",mg,--,--,0.00,0.00
"Sodium, Na",mg,--,--,0,0
Vitamins
"Vitamin C, total ascorbic acid",mg,--,--,0.0,0.0
"Vitamin A, IU",IU,--,--,0,0
Lipids
"Fatty acids, total trans",g,--,--,0.000,0.000
"Cholesterol",mg,--,--,0,0
Amino Acids
Other
Ingredients
"SUGAR, RICE, FLOUR, PARTIALLY HYDROGENATED VEGETABLE OIL (COTTONSEED AND/OR SOYBEAN) CORN STARCH, GUM ARABIC, CELLULOSE GUM YELLOW 5 CONFECTIONER'S GLAZE, CARRAGEENAN, SOY LECITHIN, YELLOW 6, RED 40, ARTIFICIAL FLAVOR, BLUE #1." Date available: 10/13/2017 Date last updated by company: 10/13/2017
