Source: USDA Branded Food Products Database Release December 2017 Software v.3.8.6.4 2017-10-02
Report Run at: December 17, 2017 21:53 EST
"Nutrient data for: 45174886, GINGER EVANS, FUDGE BROWNIE MIX, DARK CHOCOLATE, UPC: 051933547049"
Food Group:  Branded Food Products Database
Common Name:

Nutrient,Unit,Data points,Std. Error,"0.056 PACKAGE (ABOUT 3 TBSP. DRY MIX) = 29.0g",1Value per 100 g,
Proximates
"Energy",kcal,--,--,120,414
"Protein",g,--,--,1.00,3.45
"Total lipid (fat)",g,--,--,2.50,8.62
"Carbohydrate, by difference",g,--,--,24.00,82.76
"Fiber, total dietary",g,--,--,1.0,3.4
"Sugars, total",g,--,--,16.00,55.17
Minerals
"Calcium, Ca",mg,--,--,0,0
"Iron, Fe",mg,--,--,1.24,4.28
"Sodium, Na",mg,--,--,110,379
Vitamins
"Vitamin C, total ascorbic acid",mg,--,--,0.0,0.0
"Vitamin A, IU",IU,--,--,0,0
Lipids
"Fatty acids, total saturated",g,--,--,0.499,1.720
"Fatty acids, total trans",g,--,--,0.000,0.000
"Cholesterol",mg,--,--,0,0
Amino Acids
Other
Ingredients
"SUGAR, ENRICHED BLEACHED FLOUR (BLEACHED WHEAT FLOUR, NIACIN, IRON, THIAMINE MONONITRATE, RIBOFLAVIN, FOLIC ACID), COCOA (PROCESSED WITH ALKALI), PARTIALLY HYDROGENATED VEGETABLE SHORTENING (CONTAINS SOYBEAN OIL), CONTAINS 2% OR LESS OF: SALT, CORN STARCH, ARTIFICIAL FLAVOR. LEAVENING (BAKING SODA)." Date available: 10/13/2017 Date last updated by company: 10/13/2017
