Source: USDA Branded Food Products Database Release December 2017 Software v.3.8.6.4 2017-10-02
Report Run at: December 17, 2017 21:54 EST
"Nutrient data for: 45032234, GINGER EVANS, RICH & CREAMY FROSTING, VANILLA, UPC: 051933027404"
Food Group:  Branded Food Products Database
Common Name:

Nutrient,Unit,Data points,Std. Error,"2.0 Tbsp = 33.0g",1Value per 100 g,
Proximates
"Energy",kcal,--,--,140,424
"Protein",g,--,--,0.00,0.00
"Total lipid (fat)",g,--,--,6.00,18.18
"Carbohydrate, by difference",g,--,--,22.00,66.67
"Fiber, total dietary",g,--,--,0.0,0.0
"Sugars, total",g,--,--,21.00,63.64
Minerals
"Calcium, Ca",mg,--,--,0,0
"Iron, Fe",mg,--,--,0.00,0.00
"Sodium, Na",mg,--,--,25,76
Vitamins
"Vitamin C, total ascorbic acid",mg,--,--,0.0,0.0
"Vitamin A, IU",IU,--,--,0,0
Lipids
"Fatty acids, total saturated",g,--,--,1.502,4.550
"Fatty acids, total trans",g,--,--,1.502,4.550
"Cholesterol",mg,--,--,0,0
Amino Acids
Other
Ingredients
"SUGAR, PARTIALLY HYDROGENATED VEGETABLE SHORTENING (CONTAINS ONE OR MORE OF THE FOLLOWING: PARTIALLY HYDROGENATED SOYBEAN OIL, COTTONSEED OIL), WATER, HIGH FRUCTOSE CORN SYRUP, CONTAINS 2% OR LESS OF: CORN STARCH, MODIFIED WHEAT STARCH, EMULSIFIERS (MONO AND DIGLYCERIDES WITH PRESERVATIVES [MIXED TOCOPHEROLS, ASCORBIC ACID, CITRIC ACID], POLYSORBATE 60, SOY LECITHIN), NATURAL AND ARTIFICIAL FLAVOR, SALT, PRESERVATIVE (POTASSIUM SORBATE), COLOR (TITANIUM DIOXIDE, YELLOW 5 AND 6), DEXTROSE, AGAR, CITRIC ACID." Date available: 07/14/2017 Date last updated by company: 07/14/2017
