Source: USDA Branded Food Products Database Release December 2017 Software v.3.8.6.4 2017-10-02
Report Run at: December 17, 2017 21:54 EST
"Nutrient data for: 45032626, GINGER EVANS, SUGAR FREE INSTANT PUDDING, VANILLA, UPC: 051933023208"
Food Group:  Branded Food Products Database
Common Name:

Nutrient,Unit,Data points,Std. Error,"0.25 PACKAGE = 10.0g",1Value per 100 g,
Proximates
"Energy",kcal,--,--,30,300
"Protein",g,--,--,0.00,0.00
"Total lipid (fat)",g,--,--,0.00,0.00
"Carbohydrate, by difference",g,--,--,8.00,80.00
"Fiber, total dietary",g,--,--,0.0,0.0
"Sugars, total",g,--,--,0.00,0.00
Minerals
"Calcium, Ca",mg,--,--,0,0
"Iron, Fe",mg,--,--,0.00,0.00
"Sodium, Na",mg,--,--,440,4400
Vitamins
"Vitamin C, total ascorbic acid",mg,--,--,0.0,0.0
"Vitamin A, IU",IU,--,--,0,0
Lipids
"Fatty acids, total saturated",g,--,--,0.000,0.000
"Fatty acids, total trans",g,--,--,0.000,0.000
"Cholesterol",mg,--,--,0,0
Amino Acids
Other
Ingredients
"MODIFIED TAPIOCA STARCH, MALTODEXTRIN, TETRASODIUM PYROPHOSPHATE, DISODIUM PHOSPHATE, CONTAINS 2% OR LESS OF SALT, MICROCRYSTALLINE CELLULOSE, TITANIUM DIOXIDE (FOR COLOR), XANTHAN GUM, MONO-AND DIGLYCERIDES, ASPARTAME* (SWEETENER), ACESULFAME POTASSIUM (SWEETENER), ARTIFICIAL FLAVORING, NONFAT MILK, YELLOW 5, YELLOW 6." Date available: 07/14/2017 Date last updated by company: 07/14/2017
