Source: USDA Branded Food Products Database Release December 2017 Software v.3.8.6.4 2017-10-02
Report Run at: December 17, 2017 21:49 EST
"Nutrient data for: 45252069, GINGER ALE, UPC: 855235002813"
Food Group:  Branded Food Products Database
Common Name:

Nutrient,Unit,Data points,Std. Error,"12.0 OZA = 355.0g",1Value per 100 g,
Proximates
"Energy",kcal,--,--,67,19
"Protein",g,--,--,0.99,0.28
"Total lipid (fat)",g,--,--,0.00,0.00
"Carbohydrate, by difference",g,--,--,17.00,4.79
"Fiber, total dietary",g,--,--,0.0,0.0
"Sugars, total",g,--,--,13.99,3.94
Minerals
"Calcium, Ca",mg,--,--,0,0
"Iron, Fe",mg,--,--,1.06,0.30
"Sodium, Na",mg,--,--,4,1
Vitamins
"Vitamin C, total ascorbic acid",mg,--,--,0.0,0.0
"Vitamin A, IU",IU,--,--,0,0
Lipids
"Fatty acids, total saturated",g,--,--,0.000,0.000
"Fatty acids, total trans",g,--,--,0.000,0.000
"Cholesterol",mg,--,--,0,0
Amino Acids
Other
Ingredients
"CARBONATED WATER, PURE CANE SUGAR, 100% FRESH GINGER, MONK FRUIT EXTRACT, AND CITRIC ACID." Date available: 02/18/2017 Date last updated by company: 02/18/2017
