Source: USDA Branded Food Products Database Release December 2017 Software v.3.8.6.4 2017-10-02
Report Run at: December 17, 2017 21:50 EST
"Nutrient data for: 45228009, GINGER BEER, UPC: 00945442"
Food Group:  Branded Food Products Database
Common Name:

Nutrient,Unit,Data points,Std. Error,"1 BOTTLE = 355.0g",1Value per 100 g,
Proximates
"Energy",kcal,--,--,160,45
"Protein",g,--,--,0.00,0.00
"Total lipid (fat)",g,--,--,0.00,0.00
"Carbohydrate, by difference",g,--,--,42.00,11.83
"Sugars, total",g,--,--,42.00,11.83
Minerals
"Sodium, Na",mg,--,--,53,15
Vitamins
Lipids
Amino Acids
Other
Ingredients
"FILTERED WATER, HIGH FRUCTOSE CORN SYRUP, CITRIC ACID, NATURAL & ARTIFICIAL FLAVORS, SODIUM BENZOATE, (PRESERVES FRESHNESS) AND CARAMEL COLOR." Date available: 07/14/2017 Date last updated by company: 07/14/2017
