Source: USDA Branded Food Products Database Release December 2017 Software v.3.8.6.4 2017-10-02
Report Run at: December 17, 2017 21:49 EST
"Nutrient data for: 45295440, GINGER ALE, SPARKLING BEVERAGE, UPC: 036192114232"
Food Group:  Branded Food Products Database
Common Name:

Nutrient,Unit,Data points,Std. Error,"1 CAN = 311.0g",1Value per 100 g,
Proximates
"Energy",kcal,--,--,131,42
"Protein",g,--,--,0.00,0.00
"Total lipid (fat)",g,--,--,0.00,0.00
"Carbohydrate, by difference",g,--,--,32.00,10.29
"Sugars, total",g,--,--,32.00,10.29
Minerals
"Sodium, Na",mg,--,--,9,3
Vitamins
"Vitamin C, total ascorbic acid",mg,--,--,4.0,1.3
Lipids
Amino Acids
Other
Ingredients
"SPARKLING FILTERED WATER, ORGANIC BREWED GINGER ROOT (WATER, ORGANIC GINGER ROOT), ORGANIC EVAPORATED CANE JUICE, ORGANIC LEMON JUICE, ORGANIC NATURAL FLAVOR." Date available: 06/24/2017 Date last updated by company: 06/24/2017
