Source: USDA Branded Food Products Database Release December 2017 Software v.3.8.6.4 2017-10-02
Report Run at: December 17, 2017 21:59 EST
"Nutrient data for: 45035942, GIRARD'S, GREEK FETA VINAIGRETTE, UPC: 070200581302"
Food Group:  Branded Food Products Database
Common Name:

Nutrient,Unit,Data points,Std. Error,"2.0 Tbsp = 30.0g",1Value per 100 g,
Proximates
"Energy",kcal,--,--,100,333
"Protein",g,--,--,0.00,0.00
"Total lipid (fat)",g,--,--,11.00,36.67
"Carbohydrate, by difference",g,--,--,1.00,3.33
"Fiber, total dietary",g,--,--,0.0,0.0
"Sugars, total",g,--,--,1.00,3.33
Minerals
"Calcium, Ca",mg,--,--,0,0
"Iron, Fe",mg,--,--,0.00,0.00
"Sodium, Na",mg,--,--,260,867
Vitamins
"Vitamin C, total ascorbic acid",mg,--,--,0.0,0.0
"Vitamin A, IU",IU,--,--,0,0
Lipids
"Fatty acids, total saturated",g,--,--,1.500,5.000
"Fatty acids, total trans",g,--,--,0.000,0.000
"Cholesterol",mg,--,--,0,0
Amino Acids
Other
Ingredients
"WATER, SOYBEAN OIL, RED WINE VINEGAR, PEPPERONCINI PEPPERS, DISTILLED VINEGAR, FETA CHEESE (PART SKIM MILK, CHEESE CULTURES, SALT, ENZYMES), SUGAR, SALT, EXTRA VIRGIN OLIVE OIL, SPICES, DEHYDRATED GARLIC, MUSTARD SEED, POTASSIUM SORBATE AND SODIUM BENZOATE ADDED AS PRESERVATIVES, XANTHAN GUM, CALCIUM DISODIUM EDTA ADDED TO PROTECT FLAVOR." Date available: 07/14/2017 Date last updated by company: 07/14/2017
