Source: USDA Branded Food Products Database Release December 2017 Software v.3.8.6.4 2017-10-02
Report Run at: December 17, 2017 21:59 EST
"Nutrient data for: 45079546, GIRL SCOUTS, COOKIES, CARAMEL DELITES, UPC: 020200070023"
Food Group:  Branded Food Products Database
Common Name:

Nutrient,Unit,Data points,Std. Error,"2.0 COOKIES = 28.0g",1Value per 100 g,
Proximates
"Energy",kcal,--,--,130,464
"Protein",g,--,--,1.00,3.57
"Total lipid (fat)",g,--,--,6.00,21.43
"Carbohydrate, by difference",g,--,--,19.00,67.86
"Fiber, total dietary",g,--,--,1.0,3.6
"Sugars, total",g,--,--,12.00,42.86
Minerals
"Calcium, Ca",mg,--,--,0,0
"Iron, Fe",mg,--,--,0.64,2.29
"Sodium, Na",mg,--,--,55,196
Vitamins
"Vitamin C, total ascorbic acid",mg,--,--,0.0,0.0
"Vitamin A, IU",IU,--,--,0,0
Lipids
"Fatty acids, total saturated",g,--,--,4.500,16.070
"Fatty acids, total trans",g,--,--,0.000,0.000
"Cholesterol",mg,--,--,0,0
Amino Acids
Other
Ingredients
"SUGAR, ENRICHED FLOUR (WHEAT FLOUR, NIACIN, REDUCED IRON, THIAMINE MONONITRATE, RIBOFLAVIN, FOLIC ACID), VEGETABLE OIL (PALM KERNEL PALM, HYDROGENATED COCONUT AND SOYBEAN OILS), COCONUT, CORN SYRUP, HIGH FRUCTOSE CORN SYRUP, SWEETENED CONDENSED MILK (MILK, SUGAR), SORBITOL, COCOA (PROCESSED WITH ALKALI), CORN SUGAR, WHEY, GLYCERINE, SALT, SOY LECITHIN, BAKING SODA, NATURAL AND ARTIFICIAL FLAVOR, MONOCALCIUM PHOSPHATE." Date available: 07/14/2017 Date last updated by company: 07/14/2017
