Source: USDA Branded Food Products Database Release December 2017 Software v.3.8.6.4 2017-10-02
Report Run at: December 17, 2017 22:00 EST
"Nutrient data for: 45152518, GLACIER, MAVERIK, THIRST QUENCHER, FRUIT PUNCH, UPC: 420000779094"
Food Group:  Branded Food Products Database
Common Name:

Nutrient,Unit,Data points,Std. Error,"8.0 OZA = 240.0g",1Value per 100 g,
Proximates
"Energy",kcal,--,--,60,25
"Protein",g,--,--,0.00,0.00
"Total lipid (fat)",g,--,--,0.00,0.00
"Carbohydrate, by difference",g,--,--,15.00,6.25
"Sugars, total",g,--,--,13.99,5.83
Minerals
"Potassium, K",mg,--,--,29,12
"Sodium, Na",mg,--,--,110,46
Vitamins
Lipids
Amino Acids
Other
Ingredients
"FILTERED WATER, SUGAR, HIGH FRUCTOSE CORN SYRUP, NATURAL FLAVOR, CITRIC ACID, SALT, SODIUM CITRATE, MONOPOTASSIUM PHOSPHATE, GUM ACACIA, ESTER GUM, RED 40, CARAMEL COLOR, SUNFLOWER OIL." Date available: 07/14/2017 Date last updated by company: 07/14/2017
