Source: USDA Branded Food Products Database Release December 2017 Software v.3.8.6.4 2017-10-02
Report Run at: December 17, 2017 22:01 EST
"Nutrient data for: 45096272, GLACIER RIDGE FARMS, SMOKED PEPPER JACK CHEESE, PEPPER JACK, UPC: 044529154622"
Food Group:  Branded Food Products Database
Common Name:

Nutrient,Unit,Data points,Std. Error,"1 ONZ = 28.0g",1Value per 100 g,
Proximates
"Energy",kcal,--,--,100,357
"Protein",g,--,--,6.00,21.43
"Total lipid (fat)",g,--,--,8.00,28.57
"Carbohydrate, by difference",g,--,--,1.00,3.57
"Fiber, total dietary",g,--,--,0.0,0.0
"Sugars, total",g,--,--,0.00,0.00
Minerals
"Calcium, Ca",mg,--,--,200,714
"Iron, Fe",mg,--,--,0.00,0.00
"Sodium, Na",mg,--,--,380,1357
Vitamins
"Vitamin C, total ascorbic acid",mg,--,--,0.0,0.0
"Vitamin A, IU",IU,--,--,357,1275
Lipids
"Fatty acids, total saturated",g,--,--,5.001,17.860
"Fatty acids, total trans",g,--,--,0.000,0.000
"Cholesterol",mg,--,--,15,54
Amino Acids
Other
Ingredients
"CHEDDAR CHEESE (CULTURED PASTEURIZED MILK,SALT,ENZYMES),WATER,WHEY,JALAPENO PEPPERS, SODIUM PHOSPHATE,CALCIUM PROPIONATE (TO PROTECT FLAVOR),VINEGAR,SALT,CALCIUM CHLORIDE." Date available: 09/05/2017 Date last updated by company: 09/05/2017
