Source: USDA Branded Food Products Database Release December 2017 Software v.3.8.6.4 2017-10-02
Report Run at: December 17, 2017 22:01 EST
"Nutrient data for: 45210247, GLAM GIRLS MILK CHOCOLATE, UPC: 768395471040"
Food Group:  Branded Food Products Database
Common Name:

Nutrient,Unit,Data points,Std. Error,"0.5 PACKAGE = 40.0g",1Value per 100 g,
Proximates
"Energy",kcal,--,--,210,525
"Protein",g,--,--,2.00,5.00
"Total lipid (fat)",g,--,--,11.00,27.50
"Carbohydrate, by difference",g,--,--,26.00,65.00
"Fiber, total dietary",g,--,--,1.0,2.5
"Sugars, total",g,--,--,23.00,57.50
Minerals
"Calcium, Ca",mg,--,--,40,100
"Iron, Fe",mg,--,--,1.35,3.38
"Sodium, Na",mg,--,--,20,50
Vitamins
"Vitamin C, total ascorbic acid",mg,--,--,0.0,0.0
"Vitamin A, IU",IU,--,--,0,0
Lipids
"Fatty acids, total saturated",g,--,--,7.000,17.500
"Fatty acids, total trans",g,--,--,0.000,0.000
"Cholesterol",mg,--,--,0,0
Amino Acids
Other
Ingredients
"SUGAR, COCOA BUTTER, CHOCOLATE LIQUOR, MILK, SOY LECITHIN, SALT, VANILLA" Date available: 07/14/2017 Date last updated by company: 07/14/2017
