Source: USDA Branded Food Products Database Release December 2017 Software v.3.8.6.4 2017-10-02
Report Run at: December 17, 2017 22:03 EST
"Nutrient data for: 45126543, GLAZE! FOR STRAWBERRIES, UPC: 070200570108"
Food Group:  Branded Food Products Database
Common Name:

Nutrient,Unit,Data points,Std. Error,"3.0 Tbsp = 50.0g",1Value per 100 g,
Proximates
"Energy",kcal,--,--,60,120
"Protein",g,--,--,0.00,0.00
"Total lipid (fat)",g,--,--,0.00,0.00
"Carbohydrate, by difference",g,--,--,16.00,32.00
"Fiber, total dietary",g,--,--,0.0,0.0
"Sugars, total",g,--,--,13.00,26.00
Minerals
"Calcium, Ca",mg,--,--,0,0
"Iron, Fe",mg,--,--,0.00,0.00
"Sodium, Na",mg,--,--,65,130
Vitamins
"Vitamin C, total ascorbic acid",mg,--,--,0.0,0.0
"Vitamin A, IU",IU,--,--,0,0
Lipids
"Fatty acids, total saturated",g,--,--,0.000,0.000
"Fatty acids, total trans",g,--,--,0.000,0.000
"Cholesterol",mg,--,--,0,0
Amino Acids
Other
Ingredients
"WATER, HIGH FRUCTOSE CORN SYRUP, MODIFIED CORN STARCH, SUGAR, SALT, NATURAL FLAVORS, POTASSIUM SORBATE AND SODIUM BENZOATE ADDED AS PRESERVATIVES, LEMON JUICE CONCENTRATE, CITRIC ACID, RED #40." Date available: 07/14/2017 Date last updated by company: 07/14/2017
