Source: USDA Branded Food Products Database Release December 2017 Software v.3.8.6.4 2017-10-02
Report Run at: December 17, 2017 22:03 EST
"Nutrient data for: 45191289, GLAZED MINI PIES, UPC: 072470000262"
Food Group:  Branded Food Products Database
Common Name:

Nutrient,Unit,Data points,Std. Error,"1 PIE = 57.0g",1Value per 100 g,
Proximates
"Energy",kcal,--,--,220,386
"Protein",g,--,--,2.00,3.51
"Total lipid (fat)",g,--,--,11.00,19.30
"Carbohydrate, by difference",g,--,--,30.00,52.63
"Fiber, total dietary",g,--,--,1.0,1.8
"Sugars, total",g,--,--,15.00,26.32
Minerals
"Calcium, Ca",mg,--,--,20,35
"Iron, Fe",mg,--,--,1.58,2.77
"Sodium, Na",mg,--,--,180,316
Vitamins
"Vitamin C, total ascorbic acid",mg,--,--,0.0,0.0
"Vitamin A, IU",IU,--,--,0,0
Lipids
"Fatty acids, total saturated",g,--,--,6.002,10.530
"Fatty acids, total trans",g,--,--,0.000,0.000
"Cholesterol",mg,--,--,0,0
Amino Acids
Other
Ingredients
"ENRICHED FLOUR (WHEAT FLOUR, NIACIN, REDUCED IRON, THIAMINE MONONITRATE, RIBOFLAVIN, FOLIC ACID), HI-FRUCTOSE CORN SYRUP, WATER, PALM OIL & FRACTIONATED PALM OIL, SUGAR, CONTAINS LESS THAN 2% OF EACH OF THE FOLLOWING: VEGETABLE SHORTENING (PALM OIL, FRACTIONATED PALM OIL, MONO- & DIGLYCERIDES, POLYSORBATE 60) FOOD STARCH-MODIFIED, COCOA, VEGETABLE SHORTENING (INTERESTERIFIED SOYBEAN OIL, FULLY HYDROGENATED COTTONSEED OIL), CORN STARCH, SALT, COCOA PROCESSED WITH ALKALI, SODIUM PROPIONATE TO PROTECT FRESHNESS, CORN SYRUP, SOYBEAN OIL, DEXTROSE, WHEAT FLOUR, MALTED BARLEY, VEGETABLE SHORTENING (PALM OIL, FRACTIONATED PALM OIL, SOY LECITHIN), TITANIUM DIOXIDE COLOR, CHOCOLATE LIQUOR, POTASSIUM SORBATE (TO PROTECT FRESHNESS), XANTHAN GUM, GLUCONO DELTA LACTONE, SODIUM STEAROYL LACTYLATE, ARTIFICIAL FLAVOR, SODIUM BENZOATE (TO PROTECT FRESHNESS), SODIUM ALGINATE, CALCIUM CARBONATE, CORN SYRUP SOLIDS, CITRIC ACID, YELLOW 5, YELLOW 6, AGAR-AGAR, MALTODEXTRIN, WHEAT STARCH, PROPYLENE GLYCOL, POLYSORBATE 80, ETHYL ALCOHOL, GLYCERINE, SORBITAN MONOSTEARATE, CARAMEL COLOR, BAKING SODA." Date available: 07/14/2017 Date last updated by company: 07/14/2017
