Source: USDA Branded Food Products Database Release December 2017 Software v.3.8.6.4 2017-10-02
Report Run at: December 17, 2017 22:07 EST
"Nutrient data for: 45139320, GLORIA, PASSION FRUIT JUICE, PASSION FRUIT, UPC: 7751271016209"
Food Group:  Branded Food Products Database
Common Name:

Nutrient,Unit,Data points,Std. Error,"8.0 OZA = 240.0g",1Value per 100 g,
Proximates
"Energy",kcal,--,--,120,50
"Protein",g,--,--,0.00,0.00
"Total lipid (fat)",g,--,--,0.00,0.00
"Carbohydrate, by difference",g,--,--,31.01,12.92
"Fiber, total dietary",g,--,--,0.0,0.0
"Sugars, total",g,--,--,31.01,12.92
Minerals
"Sodium, Na",mg,--,--,19,8
Vitamins
"Vitamin C, total ascorbic acid",mg,--,--,60.0,25.0
"Vitamin A, IU",IU,--,--,1500,625
"Vitamin D",IU,--,--,120,50
Lipids
"Cholesterol",mg,--,--,0,0
Amino Acids
Other
Ingredients
"WATER, SUGAR, PASSION FRUIT JUICE, ACIDITY REGULATOR: CITRIC ACID, STABILIZER: SODIUM CARBOXYMETHYL CELLULOSE, AND VITAMINS: A, C AND D." Date available: 10/13/2017 Date last updated by company: 10/13/2017
