Source: USDA Branded Food Products Database Release December 2017 Software v.3.8.6.4 2017-10-02
Report Run at: December 17, 2017 22:08 EST
"Nutrient data for: 45332714, GLUCOSE SHOT, UPC: 713733405270"
Food Group:  Branded Food Products Database
Common Name:

Nutrient,Unit,Data points,Std. Error,"2.0 OZA = 60.0g",1Value per 100 g,
Proximates
"Energy",kcal,--,--,70,117
"Protein",g,--,--,0.00,0.00
"Total lipid (fat)",g,--,--,0.00,0.00
"Carbohydrate, by difference",g,--,--,16.00,26.67
"Fiber, total dietary",g,--,--,0.0,0.0
"Sugars, total",g,--,--,15.00,25.00
Minerals
"Sodium, Na",mg,--,--,10,17
Vitamins
Lipids
Amino Acids
Other
Ingredients
"WATER, DEXTROSE (D-GLUCOSE), MALTODEXTRIN, CITRIC ACID, NATURAL & ARTIFICIAL MIXED BERRY FLAVOR, SODIUM BENZOATE, FD&C RED#40, FD&C BLUE #1." Date available: 07/14/2017 Date last updated by company: 07/14/2017
