Source: USDA Branded Food Products Database Release December 2017 Software v.3.8.6.4 2017-10-02
Report Run at: December 17, 2017 22:09 EST
"Nutrient data for: 45088014, GLUTEN FREE BAR, UPC: 853056004085"
Food Group:  Branded Food Products Database
Common Name:

Nutrient,Unit,Data points,Std. Error,"2.05 ONZ = 58.0g",1Value per 100 g,
Proximates
"Energy",kcal,--,--,240,414
"Protein",g,--,--,12.00,20.69
"Total lipid (fat)",g,--,--,10.00,17.24
"Carbohydrate, by difference",g,--,--,29.00,50.00
"Fiber, total dietary",g,--,--,4.0,6.9
"Sugars, total",g,--,--,14.00,24.14
Minerals
"Calcium, Ca",mg,--,--,60,103
"Iron, Fe",mg,--,--,1.24,2.14
"Sodium, Na",mg,--,--,95,164
Vitamins
"Vitamin C, total ascorbic acid",mg,--,--,0.8,1.4
"Vitamin A, IU",IU,--,--,0,0
Lipids
"Fatty acids, total saturated",g,--,--,0.998,1.720
"Fatty acids, total trans",g,--,--,0.000,0.000
"Cholesterol",mg,--,--,0,0
Amino Acids
Other
Ingredients
"CALIFORNIA ALMONDS, ORGANIC BROWN RICE SYRUP, COMPLETE PROTEIN BLEND (BROWN RICE PROTEIN, PEA PROTEIN), DRIED CRANBERRIES (CRANBERRIES, SUGAR, SUNFLOWER OIL), ORGANIC AGAVE NECTAR, ORGANIC CRISPED BROWN RICE, ORGANIC DATES, GOLDEN FLAXSEED, ALMOND EXTRACT, VANILLA EXTRACT, SEA SALT." Date available: 09/06/2017 Date last updated by company: 09/06/2017
