Source: USDA Branded Food Products Database Release December 2017 Software v.3.8.6.4 2017-10-02
Report Run at: December 17, 2017 22:09 EST
"Nutrient data for: 45209819, GLUTEN FREE ANIMAL COOKIES, UPC: 030684017957"
Food Group:  Branded Food Products Database
Common Name:

Nutrient,Unit,Data points,Std. Error,"10.0 COOKIES = 30.0g",1Value per 100 g,
Proximates
"Energy",kcal,--,--,130,433
"Protein",g,--,--,2.00,6.67
"Total lipid (fat)",g,--,--,4.00,13.33
"Carbohydrate, by difference",g,--,--,21.00,70.00
"Fiber, total dietary",g,--,--,1.0,3.3
"Sugars, total",g,--,--,9.00,30.00
Minerals
"Calcium, Ca",mg,--,--,20,67
"Iron, Fe",mg,--,--,1.20,4.00
"Sodium, Na",mg,--,--,70,233
Vitamins
"Vitamin C, total ascorbic acid",mg,--,--,0.0,0.0
"Vitamin A, IU",IU,--,--,166,555
Lipids
"Fatty acids, total saturated",g,--,--,0.999,3.330
"Fatty acids, total trans",g,--,--,0.000,0.000
"Cholesterol",mg,--,--,10,33
Amino Acids
Other
Ingredients
"GLUTEN FREE FLOUR BLEND (CORN FLOUR, SOY FLOUR, POTATO FLOUR, RICE FLOUR, CORN STARCH, POTATO STARCH, XANTHAN GUM), CANE SUGAR, CANOLA OIL, ARROWROOT FLOUR, BUTTER (MAY CONTAIN ANNATTO AS ADDED COLOR), CORN STARCH, HONEY, NATURAL FLAVOR, EGG POWDER, SOY LECITHIN (AN EMULSIFIER), BAKING SODA, SEA SALT." Date available: 07/14/2017 Date last updated by company: 07/14/2017
