Source: USDA Branded Food Products Database Release December 2017 Software v.3.8.6.4 2017-10-02
Report Run at: December 17, 2017 22:14 EST
"Nutrient data for: 45208508, GLUTEN FREE MUFFIN MIX, UPC: 074703530119"
Food Group:  Branded Food Products Database
Common Name:

Nutrient,Unit,Data points,Std. Error,"0.0833 TH DRY MIX = 38.0g",1Value per 100 g,
Proximates
"Energy",kcal,--,--,110,289
"Protein",g,--,--,1.00,2.63
"Total lipid (fat)",g,--,--,0.50,1.32
"Carbohydrate, by difference",g,--,--,26.00,68.42
"Fiber, total dietary",g,--,--,1.0,2.6
"Sugars, total",g,--,--,11.00,28.95
Minerals
"Calcium, Ca",mg,--,--,60,158
"Iron, Fe",mg,--,--,0.38,1.00
"Sodium, Na",mg,--,--,200,526
Vitamins
"Vitamin C, total ascorbic acid",mg,--,--,2.5,6.6
"Vitamin A, IU",IU,--,--,0,0
Lipids
"Fatty acids, total saturated",g,--,--,0.000,0.000
"Fatty acids, total trans",g,--,--,0.000,0.000
"Cholesterol",mg,--,--,0,0
Amino Acids
Other
Ingredients
"SUGAR, POTATO STARCH, RICE FLOUR, CORNSTARCH, TAPIOCA STARCH, CORN FLOUR, CHIA SEED, BAKING POWDER (SODIUM ACID PYROPHOSPHATE, BAKING SODA, CORNSTARCH, MONOCALCIUM PHOSPHATE), SEA SALT, NATURAL FLAVOR, LEMON PEEL, LEMON JUICE AND XANTHAN GUM" Date available: 07/14/2017 Date last updated by company: 07/14/2017
