Source: USDA Branded Food Products Database Release December 2017 Software v.3.8.6.4 2017-10-02
Report Run at: December 17, 2017 22:12 EST
"Nutrient data for: 45022714, GLUTENFREEDA, INSTANT OATMEAL, BANANA MAPLE WITH FLAX, UPC: 858246001257"
Food Group:  Branded Food Products Database
Common Name:

Nutrient,Unit,Data points,Std. Error,"47.6 g = 47.6g",1Value per 100 g,
Proximates
"Energy",kcal,--,--,180,378
"Protein",g,--,--,6.00,12.61
"Total lipid (fat)",g,--,--,2.50,5.25
"Carbohydrate, by difference",g,--,--,35.00,73.53
"Fiber, total dietary",g,--,--,4.0,8.4
"Sugars, total",g,--,--,9.00,18.91
Minerals
"Calcium, Ca",mg,--,--,20,42
"Iron, Fe",mg,--,--,2.08,4.37
"Sodium, Na",mg,--,--,110,231
Vitamins
"Vitamin C, total ascorbic acid",mg,--,--,0.0,0.0
"Vitamin A, IU",IU,--,--,0,0
Lipids
"Fatty acids, total saturated",g,--,--,0.500,1.050
"Fatty acids, total trans",g,--,--,0.000,0.000
"Cholesterol",mg,--,--,0,0
Amino Acids
Other
Ingredients
"CERTIFIED GLUTEN-FREE OATS, BROWN SUGAR, FREEZE DRIED BANANAS, MAPLE SUGAR, FLAX MEAL, SALT." Date available: 06/25/2017 Date last updated by company: 06/25/2017
