Source: USDA Branded Food Products Database Release December 2017 Software v.3.8.6.4 2017-10-02
Report Run at: December 17, 2017 22:10 EST
"Nutrient data for: 45058597, GLUTEN FREE CAKE MIX, UPC: 071518021351"
Food Group:  Branded Food Products Database
Common Name:

Nutrient,Unit,Data points,Std. Error,"0.1 PKG = 43.0g",1Value per 100 g,
Proximates
"Energy",kcal,--,--,153,356
"Protein",g,--,--,3.00,6.98
"Total lipid (fat)",g,--,--,1.00,2.33
"Carbohydrate, by difference",g,--,--,35.00,81.40
"Fiber, total dietary",g,--,--,2.5,5.8
"Sugars, total",g,--,--,16.00,37.21
Minerals
"Calcium, Ca",mg,--,--,10,23
"Iron, Fe",mg,--,--,0.67,1.56
"Sodium, Na",mg,--,--,197,458
Vitamins
"Vitamin C, total ascorbic acid",mg,--,--,0.0,0.0
"Vitamin A, IU",IU,--,--,0,0
Lipids
"Fatty acids, total saturated",g,--,--,1.002,2.330
"Fatty acids, total trans",g,--,--,0.000,0.000
"Cholesterol",mg,--,--,0,0
Amino Acids
Other
Ingredients
"SUGAR, BROWN RICE FLOUR, COCOA, TAPIOCA STARCH, CORNSTARCH, BAKING SODA, XANTHAN GUM FLAKE SALT, BAKING POWDER." Date available: 07/14/2017 Date last updated by company: 07/14/2017
