Source: USDA Branded Food Products Database Release December 2017 Software v.3.8.6.4 2017-10-02
Report Run at: December 17, 2017 22:11 EST
"Nutrient data for: 45038895, GLUTEN-FREE COOKIES, UPC: 897519001013"
Food Group:  Branded Food Products Database
Common Name:

Nutrient,Unit,Data points,Std. Error,"3.0 COOKIES = 32.0g",1Value per 100 g,
Proximates
"Energy",kcal,--,--,130,406
"Protein",g,--,--,2.00,6.25
"Total lipid (fat)",g,--,--,4.50,14.06
"Carbohydrate, by difference",g,--,--,21.00,65.62
"Fiber, total dietary",g,--,--,2.0,6.2
"Sugars, total",g,--,--,13.00,40.62
Minerals
"Sodium, Na",mg,--,--,180,562
Vitamins
Lipids
"Fatty acids, total saturated",g,--,--,1.501,4.690
"Fatty acids, total trans",g,--,--,0.000,0.000
"Cholesterol",mg,--,--,0,0
Amino Acids
Other
Ingredients
"ALL INGREDIENTS ARE FROM NATURAL SOURCES: ORGANIC CANE SUGAR*, LUCY'S BLEND (GLUTEN-FREE OAT, GARBANZO/CHICKPEA, POTATO STARCH, TAPIOCA, SORGHUM AND FAVA FLOURS), SOY MILK* (CONTAINS CARRAGEENAN), SUSTAINABLE PALM FRUIT OIL, EXPELLER PRESSED CANOLA OIL, OLIVE OIL, FILTERED WATER, SUNFLOWER LECITIN, NON-DAIRY LACTIC ACID, BAKING SODA, POTASSIUM BITARTRATE, CINNAMON, BAKING POWDER, XANTAN GUM, SALT, CALCIUM CARBONATE, ANNATTO EXTRACT COLOR, VANILLA EXTRACT*, CELLULOSE GUM." Date available: 10/17/2017 Date last updated by company: 10/17/2017
