Source: USDA Branded Food Products Database Release December 2017 Software v.3.8.6.4 2017-10-02
Report Run at: December 17, 2017 22:09 EST
"Nutrient data for: 45080952, GLUTEN FREE BAKED TOFU, UPC: 030871004401"
Food Group:  Branded Food Products Database
Common Name:

Nutrient,Unit,Data points,Std. Error,"3.0 oz = 85.0g",1Value per 100 g,
Proximates
"Energy",kcal,--,--,150,176
"Protein",g,--,--,15.00,17.65
"Total lipid (fat)",g,--,--,5.00,5.88
"Carbohydrate, by difference",g,--,--,15.00,17.65
"Fiber, total dietary",g,--,--,3.0,3.5
"Sugars, total",g,--,--,3.00,3.53
Minerals
"Calcium, Ca",mg,--,--,80,94
"Iron, Fe",mg,--,--,2.70,3.18
"Sodium, Na",mg,--,--,290,341
Vitamins
"Vitamin C, total ascorbic acid",mg,--,--,3.6,4.2
"Vitamin A, IU",IU,--,--,0,0
Lipids
"Fatty acids, total saturated",g,--,--,1.003,1.180
"Fatty acids, total trans",g,--,--,0.000,0.000
"Cholesterol",mg,--,--,0,0
Amino Acids
Other
Ingredients
"ORGANIC SPROUTED TOFU (FILTERED WATER, SPROUTED ORGANIC SOYBEANS, NIGARI [MAGNESIUM CHLORIDE, A NATURAL FIRMING AGENCY], CALCIUM SULFATE), WATER, ORGANIC TAMARI SOY SAUCE (WATER, ORGANIC SOYBEANS, SALT, ORGANIC ALCOHOL, [TO PRESERVE FRESHNESS]), ORGANIC BROWN RICE SYRUP, ORGANIC LEMON JUICE, ORGANIC GARLIC, SUNFLOWER OIL, ORGANIC SESAME OIL, ORGANIC JALAPENO, ORGANIC CAYENNE POWDER, ORGANIC LEMONGRASS DRIED, ORGANIC CHILI POWDER, ORGANIC ONION POWDER, SEA SALT." Date available: 06/25/2017 Date last updated by company: 06/25/2017
