Source: USDA Branded Food Products Database Release December 2017 Software v.3.8.6.4 2017-10-02
Report Run at: December 17, 2017 22:13 EST
"Nutrient data for: 45314608, GLUTEN FREE HIMALAYAN SALT BAKED CHIPS, UPC: 606541823001"
Food Group:  Branded Food Products Database
Common Name:

Nutrient,Unit,Data points,Std. Error,"1 ONZ = 28.0g",1Value per 100 g,
Proximates
"Energy",kcal,--,--,120,429
"Protein",g,--,--,3.00,10.71
"Total lipid (fat)",g,--,--,3.50,12.50
"Carbohydrate, by difference",g,--,--,21.00,75.00
"Fiber, total dietary",g,--,--,1.0,3.6
"Sugars, total",g,--,--,0.00,0.00
Minerals
"Calcium, Ca",mg,--,--,0,0
"Iron, Fe",mg,--,--,4.82,17.22
"Sodium, Na",mg,--,--,210,750
Vitamins
"Vitamin C, total ascorbic acid",mg,--,--,2.2,7.7
"Vitamin A, IU",IU,--,--,0,0
Lipids
"Fatty acids, total saturated",g,--,--,0.000,0.000
"Fatty acids, total monounsaturated",g,--,--,2.500,8.930
"Fatty acids, total polyunsaturated",g,--,--,0.000,0.000
"Fatty acids, total trans",g,--,--,0.000,0.000
"Cholesterol",mg,--,--,0,0
Amino Acids
Other
Ingredients
"CORN FLOUR, BROWN RICE FLOUR, LONG GRAIN WHITE RICE FLOUR, POTATO STARCH, HIGH OLEIC SUNFLOWER OIL (TOCOPHEROLS, ROSEMARY EXTRACT AND ASCORBYL PALMITATE ADDED AS AN ANTIOXIDANT), PARBOILED BROWN RICE FLOUR, LENTILS, COOKED CHICKPEAS, CONTAINS LESS THAN 2% OF: AUTOLYZED YEAST, BAKING SODA, CANE SUGAR, CORIANDER, CUMIN, GARLIC POWDER, HIMALAYAN PINK SALT, MONOCALCIUM PHOSPHATE, ONION POWDER, SALT, SODIUM ACID PYROPHOSPHATE, SUNFLOWER LECITHIN." Date available: 07/14/2017 Date last updated by company: 07/14/2017
