Source: USDA Branded Food Products Database Release December 2017 Software v.3.8.6.4 2017-10-02
Report Run at: December 17, 2017 22:26 EST
"Nutrient data for: 45326902, GNOCCHI (POTATO DUMPLING), UPC: 658249850001"
Food Group:  Branded Food Products Database
Common Name:

Nutrient,Unit,Data points,Std. Error,"3.8 OZ. = 108.0g",1Value per 100 g,
Proximates
"Energy",kcal,--,--,249,231
"Protein",g,--,--,8.00,7.41
"Total lipid (fat)",g,--,--,3.50,3.24
"Carbohydrate, by difference",g,--,--,47.00,43.52
"Fiber, total dietary",g,--,--,2.1,1.9
"Sugars, total",g,--,--,1.00,0.93
Minerals
"Calcium, Ca",mg,--,--,100,93
"Iron, Fe",mg,--,--,0.93,0.86
"Sodium, Na",mg,--,--,45,42
Vitamins
"Vitamin C, total ascorbic acid",mg,--,--,1.5,1.4
"Vitamin A, IU",IU,--,--,130,120
Lipids
"Fatty acids, total saturated",g,--,--,1.998,1.850
"Fatty acids, total trans",g,--,--,0.000,0.000
"Cholesterol",mg,--,--,20001,18519
Amino Acids
Other
Ingredients
"POTATO FLAKES (POTATOES, MONO DIGLYCERIDES WITH SODIUM ACID PYROPHOSPHATE, CITRIC ACID ADDED AS PRESERVATIVE), WATER, DURUM EXTRA FANCY (DURUM FLOUR, NIACIN, FERROUS SULFATE, THIAMINE MONONITRATE, RIBOFLAVIN, FOLIC ACID), RICOTTA CHEESE (MILK, VINEGAR, SALT, AND XANTHAN GUM, LOCUST BEAN GUM, GUAR GUM [STABILIZERS] ), RICOTTA CHEESE (WHEY, MILK, CREAM, VINEGAR, SALT, AND XANTHAN GUM, LOCUST BEAN GUM, GUAR GUM [STABILIZERS] ), EGGS." Date available: 09/16/2017 Date last updated by company: 09/16/2017
