Source: USDA Branded Food Products Database Release December 2017 Software v.3.8.6.4 2017-10-02
Report Run at: December 17, 2017 23:21 EST
"Nutrient data for: 45111281, GO ORGANICALLY, FRUIT SNACKS, FRUIT MEDLEY, UPC: 034856881216"
Food Group:  Branded Food Products Database
Common Name:

Nutrient,Unit,Data points,Std. Error,"22.7 g = 22.7g",1Value per 100 g,
Proximates
"Energy",kcal,--,--,70,308
"Protein",g,--,--,0.00,0.00
"Total lipid (fat)",g,--,--,0.00,0.00
"Carbohydrate, by difference",g,--,--,18.00,79.30
"Sugars, total",g,--,--,12.00,52.86
Minerals
"Sodium, Na",mg,--,--,10,44
Vitamins
"Vitamin C, total ascorbic acid",mg,--,--,105.7,465.8
"Vitamin A, IU",IU,--,--,2203,9703
Lipids
"Fatty acids, total saturated",g,--,--,0.000,0.000
"Fatty acids, total trans",g,--,--,0.000,0.000
Amino Acids
Other
Ingredients
"ORGANIC CANE SUGAR, ORGANIC TAPIOCA SYRUP, ORGANIC JUICES AND PUREES BLEND (GRAPE, PEAR, PINEAPPLE, APPLE, ORANGE, STRAWBERRY AND RASPBERRY), WATER, GELATIN, ORGANIC TAPIOCA STARCH, ORGANIC CORN STARCH, ORGANIC AGAR, CITRIC ACID, ASCORBIC ACID, LACTIC ACID, ALPHA TOCOPHEROL ACETATE (VITAMIN E), VITAMIN A PALMITATE, NATURAL FLAVORS, COLORS (TURMERIC, VEGETABLE JUICE), ORGANIC CARNAUBA WAX, AND ORGANIC SUNFLOWER OIL." Date available: 06/25/2017 Date last updated by company: 06/25/2017
