Source: USDA Branded Food Products Database Release December 2017 Software v.3.8.6.4 2017-10-02
Report Run at: December 17, 2017 22:33 EST
"Nutrient data for: 45252304, GODIVA, WRAPPED TRUFFLES & CARAMELS, ASSORTED, UPC: 031290101153"
Food Group:  Branded Food Products Database
Common Name:

Nutrient,Unit,Data points,Std. Error,"4.0 PIECES = 39.0g",1Value per 100 g,
Proximates
"Energy",kcal,--,--,180,462
"Protein",g,--,--,2.00,5.13
"Total lipid (fat)",g,--,--,10.00,25.64
"Carbohydrate, by difference",g,--,--,20.00,51.28
"Fiber, total dietary",g,--,--,1.0,2.6
"Sugars, total",g,--,--,16.00,41.03
Minerals
"Calcium, Ca",mg,--,--,40,103
"Iron, Fe",mg,--,--,1.38,3.55
"Sodium, Na",mg,--,--,50,128
Vitamins
"Vitamin C, total ascorbic acid",mg,--,--,0.0,0.0
"Vitamin A, IU",IU,--,--,128,328
Lipids
"Fatty acids, total saturated",g,--,--,5.998,15.380
"Fatty acids, total trans",g,--,--,0.000,0.000
"Cholesterol",mg,--,--,5,13
Amino Acids
Other
Ingredients
"HEAVY CREAM, SUGAR, SWEETENED CONDENSED MILK, MILK, BROWN SUGAR, UNSWEETENED CHOCOLATE PROCESSED WITH ALKALI, CORN SYRUP, COCOA BUTTER, UNSWEETENED CHOCOLATE, SKIM MILK POWDER, MILK POWDER, INVERT SUGAR, PARTIALLY HYDROGENATED PALM KERNEL OIL, SALT, BUTTER OIL, NATURAL FLAVOR, SOY LECITHIN, WATER, SKIM MILK, TOCOPHEROLS (ANTIOXIDANTS)." Date available: 10/13/2017 Date last updated by company: 10/13/2017
