Source: USDA Branded Food Products Database Release December 2017 Software v.3.8.6.4 2017-10-02
Report Run at: December 17, 2017 22:32 EST
"Nutrient data for: 45248985, GODIVA, ASSORTED DESSERT TRUFFLES, UPC: 031290107285"
Food Group:  Branded Food Products Database
Common Name:

Nutrient,Unit,Data points,Std. Error,"4.0 PIECES = 41.0g",1Value per 100 g,
Proximates
"Energy",kcal,--,--,200,488
"Protein",g,--,--,2.00,4.88
"Total lipid (fat)",g,--,--,12.00,29.27
"Carbohydrate, by difference",g,--,--,23.00,56.10
"Fiber, total dietary",g,--,--,1.0,2.4
"Sugars, total",g,--,--,19.00,46.34
Minerals
"Calcium, Ca",mg,--,--,40,98
"Iron, Fe",mg,--,--,1.75,4.28
"Sodium, Na",mg,--,--,30,73
Vitamins
"Vitamin C, total ascorbic acid",mg,--,--,0.0,0.0
"Vitamin A, IU",IU,--,--,0,0
Lipids
"Fatty acids, total saturated",g,--,--,6.999,17.070
"Fatty acids, total trans",g,--,--,0.000,0.000
"Cholesterol",mg,--,--,5,12
Amino Acids
Other
Ingredients
"SUGAR, COCOA BUTTER, UNSWEETENED CHOCOLATE PROCESSED WITH ALKALI, UNSWEETENED CHOCOLATE, MILK POWDER, CORN SYRUP, SKIM MILK POWDER, PALM OIL, BUTTER OIL (MILK), HEAVY CREAM, SORBITOL, WATER, SKIM MILK, BREAKFAST COCOA, BUTTER (UNSALTED), EMULSIFIER (SOY LECITHIN), RICE STARCH, STRAWBERRY POWDER, BUTTER (SALTED), NATURAL FLAVOR, INVERT SUGAR, CORN STARCH, HIGH FRUCTOSE CORN SYRUP, CARAMEL, BAKING SODA, CHERRY JUICE CONCENTRATE, ALMONDS, MOLASSES, INVERTASE, ARTIFICIAL FLAVOR, CARAMEL COLOR, CITRIC ACID, SALT." Date available: 07/14/2017 Date last updated by company: 07/14/2017
