Source: USDA Branded Food Products Database Release December 2017 Software v.3.8.6.4 2017-10-02
Report Run at: December 17, 2017 22:34 EST
"Nutrient data for: 45164503, GOETZE'S, COW TALES, CHEWY CARAMEL, CARAMEL APPLE, UPC: 070622931174"
Food Group:  Branded Food Products Database
Common Name:

Nutrient,Unit,Data points,Std. Error,"1 PIECE = 28.0g",1Value per 100 g,
Proximates
"Energy",kcal,--,--,110,393
"Protein",g,--,--,1.00,3.57
"Total lipid (fat)",g,--,--,2.00,7.14
"Carbohydrate, by difference",g,--,--,21.00,75.00
"Fiber, total dietary",g,--,--,0.0,0.0
"Sugars, total",g,--,--,9.00,32.14
Minerals
"Calcium, Ca",mg,--,--,20,71
"Iron, Fe",mg,--,--,0.00,0.00
"Sodium, Na",mg,--,--,40,143
Vitamins
"Vitamin C, total ascorbic acid",mg,--,--,0.0,0.0
"Vitamin A, IU",IU,--,--,0,0
Lipids
"Fatty acids, total saturated",g,--,--,0.000,0.000
"Fatty acids, total trans",g,--,--,0.000,0.000
"Cholesterol",mg,--,--,0,0
Amino Acids
Other
Ingredients
"WHEAT FLOUR, CORN SYRUP, SUGAR, DEXTROSE, PARTIALLY HYDROGENATED SOYBEAN OIL, MODIFIED WHEY, SKIM MILK, HIGH FRUCTOSE CORN SYRUP, CREAM, MONO AND DIGLYCERIDES, CITRIC ACID, SALT, SOY LECITHIN, CORN STARCH, ARTIFICIAL FLAVORS, AND RED 40 LAKE." Date available: 07/14/2017 Date last updated by company: 07/14/2017
