Source: USDA Branded Food Products Database Release December 2017 Software v.3.8.6.4 2017-10-02
Report Run at: December 17, 2017 22:34 EST
"Nutrient data for: 45256698, GOJI BERRY 5-GRAIN GRAND-OLA BAR, UPC: 014757180007"
Food Group:  Branded Food Products Database
Common Name:

Nutrient,Unit,Data points,Std. Error,"1 BAR = 80.0g",1Value per 100 g,
Proximates
"Energy",kcal,--,--,290,362
"Protein",g,--,--,7.00,8.75
"Total lipid (fat)",g,--,--,4.00,5.00
"Carbohydrate, by difference",g,--,--,54.00,67.50
"Fiber, total dietary",g,--,--,6.0,7.5
"Sugars, total",g,--,--,27.00,33.75
Minerals
"Calcium, Ca",mg,--,--,30,38
"Iron, Fe",mg,--,--,0.90,1.12
"Sodium, Na",mg,--,--,286,358
Vitamins
"Vitamin C, total ascorbic acid",mg,--,--,0.0,0.0
"Vitamin A, IU",IU,--,--,0,0
Lipids
"Fatty acids, total saturated",g,--,--,2.000,2.500
"Fatty acids, total trans",g,--,--,0.000,0.000
"Cholesterol",mg,--,--,0,0
Amino Acids
Other
Ingredients
"ROLLED OATS, BROWN SUGAR, ROLLED WHEAT, WHOLE WHEAT FLOUR, UNSWEETENED COCONUT, WALNUT, SALT, SODA, NATURAL VANILLA, CORN SYRUP, HONEY, WATER, CINNAMON, WALNUT FLAVORING, GOGI BERRIES, GOGI BERRY JUICE, APPLE SAUCE" Date available: 07/14/2017 Date last updated by company: 07/14/2017
