Source: USDA Branded Food Products Database Release December 2017 Software v.3.8.6.4 2017-10-02
Report Run at: December 17, 2017 22:41 EST
"Nutrient data for: 45155981, GOLD EMBLEM, MINI GUMMY BEARS, UPC: 050428512715"
Food Group:  Branded Food Products Database
Common Name:

Nutrient,Unit,Data points,Std. Error,"1 PACKAGE = 71.0g",1Value per 100 g,
Proximates
"Energy",kcal,--,--,230,324
"Protein",g,--,--,3.00,4.23
"Total lipid (fat)",g,--,--,0.00,0.00
"Carbohydrate, by difference",g,--,--,54.00,76.06
"Sugars, total",g,--,--,30.00,42.25
Minerals
"Sodium, Na",mg,--,--,40,56
Vitamins
Lipids
Amino Acids
Other
Ingredients
"CORN SYRUP, SUGAR, MODIFIED FOOD STARCH (CORN), GELATIN, CITRIC ACID, APPLE JUICE FROM CONCENTRATE, SODIUM CITRATE, NATURAL AND ARTIFICIAL FLAVORS, COCONUT OIL, CARNAUBA WAX, RED 40, YELLOW 5, BLUE 1." Date available: 07/14/2017 Date last updated by company: 07/14/2017
