Source: USDA Branded Food Products Database Release December 2017 Software v.3.8.6.4 2017-10-02
Report Run at: December 17, 2017 22:57 EST
"Nutrient data for: 45290992, GOLDEN TATER TREATS, UPC: 092825096221"
Food Group:  Branded Food Products Database
Common Name:

Nutrient,Unit,Data points,Std. Error,"10.0 PIECES = 84.0g",1Value per 100 g,
Proximates
"Energy",kcal,--,--,170,202
"Protein",g,--,--,2.00,2.38
"Total lipid (fat)",g,--,--,9.00,10.71
"Carbohydrate, by difference",g,--,--,20.00,23.81
"Fiber, total dietary",g,--,--,2.0,2.4
"Sugars, total",g,--,--,1.00,1.19
Minerals
"Calcium, Ca",mg,--,--,11,13
"Iron, Fe",mg,--,--,0.72,0.86
"Potassium, K",mg,--,--,390,464
"Sodium, Na",mg,--,--,330,393
Vitamins
"Vitamin D",IU,--,--,0,0
Lipids
"Fatty acids, total saturated",g,--,--,2.503,2.980
"Fatty acids, total monounsaturated",g,--,--,3.998,4.760
"Fatty acids, total polyunsaturated",g,--,--,2.999,3.570
"Fatty acids, total trans",g,--,--,0.000,0.000
"Cholesterol",mg,--,--,0,0
Amino Acids
Other
Ingredients
"POTATOES, VEGETABLE OIL (CONTAINS ONE OR MORE OF THE FOLLOWING: CANOLA, PALM, SOYBEAN, SUNFLOWER), SALT, CORN FLOUR, DEHYDRATED POTATO, ONION POWDER, SPICE, DISODIUM DIHYDROGEN PYROPHOSPHATE (TO PROMOTE COLOR RETENTION), DEXTROSE." Date available: 09/23/2017 Date last updated by company: 09/23/2017
