Source: USDA Branded Food Products Database Release December 2017 Software v.3.8.6.4 2017-10-02
Report Run at: December 17, 2017 22:50 EST
"Nutrient data for: 45167413, GOLDEN GATE KITCHENS, MEDITERRANEAN TUNA WRAP, UPC: 046319972072"
Food Group:  Branded Food Products Database
Common Name:

Nutrient,Unit,Data points,Std. Error,"0.5 WRAP = 142.0g",1Value per 100 g,
Proximates
"Energy",kcal,--,--,260,183
"Protein",g,--,--,12.00,8.45
"Total lipid (fat)",g,--,--,11.01,7.75
"Carbohydrate, by difference",g,--,--,30.00,21.13
"Fiber, total dietary",g,--,--,3.0,2.1
"Sugars, total",g,--,--,0.99,0.70
Minerals
"Calcium, Ca",mg,--,--,40,28
"Iron, Fe",mg,--,--,1.77,1.25
"Sodium, Na",mg,--,--,500,352
Vitamins
"Vitamin C, total ascorbic acid",mg,--,--,2.4,1.7
"Vitamin A, IU",IU,--,--,197,139
Lipids
"Fatty acids, total saturated",g,--,--,0.994,0.700
"Fatty acids, total trans",g,--,--,0.000,0.000
"Cholesterol",mg,--,--,60,42
Amino Acids
Other
Ingredients
"TUNA SALAD (TUNA, WATER, SALT, MAY CONTAIN SODIUM PYROPHOSPHATE], DRESSING [MAYONNAISE [EXPELLER PRESSED CANOLA OIL, PASTEURIZED WHOLE EGGS, FILTERED WATER, HONEY, DISTILLED WHITE VINEGAR, SEED SALT], LEMON JUICE CONCENTRATE), WATER, SUGAR, KALAMATA OLIVES* (OLIVES, WATER, SALT, OLIVE OIL), CAPERS* (CAPERS, WATER, VINEGAR, SALT], LEMON JUICE CONCENTRATE, SALT, GARLIC POWDER, ONION POWDER, EMULSIFIERS [MODIFIED STARCH, CELLULOSE GEL AND GUM, XANTHAN GUM], CULTURED DEXTROSE AND MALTODEXTRIN, OREGANO, PEPPER, CITRIC ACID], EGGS, ONIONS BELL PEPPERS, KALAMATA OLIVES*, CAPERS*, PARSLEY), WHEAT TORTILLA (WATER, WHOLE WHEAT FLOUR ENRICHED WHEAT FLOUR [WHEAT FLOUR NIACIN, REDUCED IRON, THIAMINE MONONITRATE, RIBOFLAVIN, FOLIC ACID, MALTED BARLEY FLOUR], CANOLA OIL, CONTAINS LESS THAN 2% OF EACH OF THE FOLLOWING: SEA SALT, WHEAT GLUTEN, ALUMINUM FREE LEAVENING [SODIUM ACID PYROPHOSPHATE, SODIUM BICARBONATE, CORN STARCH, MONOCALCIUM PHOSPHATE], ASCORBIC ACID), ROMAINE LETTUCE." Date available: 07/14/2017 Date last updated by company: 07/14/2017
