Source: USDA Branded Food Products Database Release December 2017 Software v.3.8.6.4 2017-10-02
Report Run at: December 17, 2017 22:52 EST
"Nutrient data for: 45254447, GOLDEN MINI CUPCAKES, UPC: 078742078069"
Food Group:  Branded Food Products Database
Common Name:

Nutrient,Unit,Data points,Std. Error,"3.0 CUPCAKES = 71.0g",1Value per 100 g,
Proximates
"Energy",kcal,--,--,260,366
"Protein",g,--,--,2.00,2.82
"Total lipid (fat)",g,--,--,10.00,14.08
"Carbohydrate, by difference",g,--,--,41.00,57.75
"Fiber, total dietary",g,--,--,1.0,1.4
"Sugars, total",g,--,--,29.00,40.85
Minerals
"Calcium, Ca",mg,--,--,20,28
"Iron, Fe",mg,--,--,1.21,1.71
"Sodium, Na",mg,--,--,240,338
Vitamins
"Vitamin C, total ascorbic acid",mg,--,--,0.0,0.0
"Vitamin A, IU",IU,--,--,0,0
Lipids
"Fatty acids, total saturated",g,--,--,3.997,5.630
"Fatty acids, total trans",g,--,--,0.000,0.000
"Cholesterol",mg,--,--,25,35
Amino Acids
Other
Ingredients
"SUGAR, WATER, BLEACHED ENRICHED WHEAT FLOUR (FLOUR, NIACIN, REDUCED IRON, THIAMINE MONONITRATE, RIBOFLAVIN, FOLIC ACID), VEGETABLE OIL (PALM, SOYBEAN, PALM KERNEL, CANOLA), CORNSTARCH, EGGS, COCOA (PROCESSED WITH ALKALI), FOOD STARCH-MODIFIED, NONFAT MILK, CORN SYRUP, LEAVENING (BAKING SODA, SODIUM ACID PYROPHOSPHATE, MONOCALCIUM PHOSPHATE, SODIUM ALUMINUM PHOSPHATE, ALUMINUM SULFATE), MONO-AND DIGLYCERIDES, SALT, WHEY, EGG WHITES, DEXTROSE, SOY LECITHIN, WHEAT STARCH, GUAR GUM, POTASSIUM SORBATE (PRESERVATIVE), POLYGLYCEROL ESTERS OF FATTY ACIDS, POLYSORBATE 60, NATURAL & ARTIFICIAL FLAVORS, GLYCERIN, SODIUM CARBOXYMETHYLCELLULOSE, CALCIUM SULFATE, SODIUM STEAROYL LACTYLATE, YELLOW 5, WHEAT PROTEIN, CALCIUM STEAROYL-2-LACTYLATE, YELLOW 6, DEXTRIN, DATEM, METHTYLCELLULOSE, GUM ARABIC, XANTHAN GUM, CONFECTIONER'S GLAZE, CARNAUBA WAX, YELLOW 5 LAKE, YELLOW 6 LAKE, RED 40 LAKE, BLUE 1 LAKE." Date available: 07/14/2017 Date last updated by company: 07/14/2017
