Source: USDA Branded Food Products Database Release December 2017 Software v.3.8.6.4 2017-10-02
Report Run at: December 17, 2017 22:46 EST
"Nutrient data for: 45143060, GOLDEN CREME, MANGO PEACH PUNCH, UPC: 041380850540"
Food Group:  Branded Food Products Database
Common Name:

Nutrient,Unit,Data points,Std. Error,"8.0 OZA = 240.0g",1Value per 100 g,
Proximates
"Energy",kcal,--,--,91,38
"Protein",g,--,--,0.00,0.00
"Total lipid (fat)",g,--,--,0.00,0.00
"Carbohydrate, by difference",g,--,--,22.01,9.17
"Sugars, total",g,--,--,21.00,8.75
Minerals
"Sodium, Na",mg,--,--,91,38
Vitamins
"Vitamin C, total ascorbic acid",mg,--,--,90.0,37.5
Lipids
Amino Acids
Other
Ingredients
"WATER, HIGH FRUCTOSE CORN SYRUP, CITRIC ACID, MODIFIED FOOD STARCH, XANTHAN GUM, CORN OIL, SODIUM CITRATE, NATURAL & ARTIFICIAL FLAVORS, ASCORBIC ACID (VITAMIN C), SODIUM BENZOATE (PRESERVATIVE), YELLOW #5 & YELLOW #6, ACESULFAME POTASSIUM, SUCRALOSE, EDTA (TO PRESERVE FRESHNESS)" Date available: 07/14/2017 Date last updated by company: 07/14/2017
