Source: USDA Branded Food Products Database Release December 2017 Software v.3.8.6.4 2017-10-02
Report Run at: December 17, 2017 22:55 EST
"Nutrient data for: 45231331, GOLDEN SPONGE CAKE CRUMBLES AND CREAM CONES, UPC: 072554613609"
Food Group:  Branded Food Products Database
Common Name:

Nutrient,Unit,Data points,Std. Error,"1 CONE = 77.0g",1Value per 100 g,
Proximates
"Energy",kcal,--,--,220,286
"Protein",g,--,--,2.00,2.60
"Total lipid (fat)",g,--,--,9.00,11.69
"Carbohydrate, by difference",g,--,--,33.00,42.86
"Fiber, total dietary",g,--,--,1.0,1.3
"Sugars, total",g,--,--,21.00,27.27
Minerals
"Calcium, Ca",mg,--,--,20,26
"Iron, Fe",mg,--,--,0.23,0.30
"Sodium, Na",mg,--,--,75,97
Vitamins
"Vitamin C, total ascorbic acid",mg,--,--,0.0,0.0
"Vitamin A, IU",IU,--,--,0,0
Lipids
"Fatty acids, total saturated",g,--,--,4.997,6.490
"Fatty acids, total trans",g,--,--,0.000,0.000
"Cholesterol",mg,--,--,10,13
Amino Acids
Other
Ingredients
"DAIRY PRODUCT SOLIDS, CONE (WHEAT FLOUR, SUGAR, PALM OIL, SOY LECITHIN, SALT, CARAMEL COLOR), SKIM MILK, CONE COATING (SUGAR, COCONUT OIL, PALM OLEIN, COCOA POWDER, SOY LECITHIN, PALM OIL, NATURAL FLAVOR), SUGAR, CREAM, CORN SYRUP, TOPPING (SUGAR, SOYBEAN OIL, COCONUT OIL, NATURAL FLAVOR, SOY LECITHIN, SALT), SPONGE CAKE CRUMBLES (WHEAT FLOUR, SUGAR, PALM OIL, EGGS, WATER, SOYBEAN OIL, SALT, TURMERIC OLEORESIN COLOR, NATURAL FLAVOR [CONTAINS MILK], SOY LECITHIN, ANNATTO COLOR), MALTODEXTRIN, PROPYLENE GLYCOL MONOSTEARATE, GUAR GUM, CELLULOSE GEL, MONOGLYCERIDES, CAROB BEAN GUM, CELLULOSE GUM, NATURAL FLAVOR, ANNATTO COLOR, MOLASSES, TURMERIC OLEORESIN COLOR, SALT." Date available: 07/14/2017 Date last updated by company: 07/14/2017
