Source: USDA Branded Food Products Database Release December 2017 Software v.3.8.6.4 2017-10-02
Report Run at: December 17, 2017 22:57 EST
"Nutrient data for: 45181279, GOLDEN, THAI JASMINE RICE, UPC: 019175051724"
Food Group:  Branded Food Products Database
Common Name:

Nutrient,Unit,Data points,Std. Error,"0.25 cup = 50.0g",1Value per 100 g,
Proximates
"Energy",kcal,--,--,170,340
"Protein",g,--,--,3.00,6.00
"Total lipid (fat)",g,--,--,0.00,0.00
"Carbohydrate, by difference",g,--,--,39.00,78.00
"Fiber, total dietary",g,--,--,0.0,0.0
"Sugars, total",g,--,--,0.00,0.00
Minerals
"Iron, Fe",mg,--,--,1.44,2.88
"Sodium, Na",mg,--,--,10,20
Vitamins
"Thiamin",mg,--,--,0.000,0.000
"Niacin",mg,--,--,1.440,2.880
Lipids
"Fatty acids, total saturated",g,--,--,0.000,0.000
"Fatty acids, total trans",g,--,--,0.000,0.000
"Cholesterol",mg,--,--,0,0
Amino Acids
Other
Ingredients
"JASMINE RICE" Date available: 10/12/2016 Date last updated by company: 10/12/2016
