Source: USDA Branded Food Products Database Release December 2017 Software v.3.8.6.4 2017-10-02
Report Run at: December 17, 2017 23:01 EST
"Nutrient data for: 45098113, GOLD SHIELD, PECAN BITS, UPC: 017300907854"
Food Group:  Branded Food Products Database
Common Name:

Nutrient,Unit,Data points,Std. Error,"1 BAG = 57.0g",1Value per 100 g,
Proximates
"Energy",kcal,--,--,370,649
"Protein",g,--,--,4.00,7.02
"Total lipid (fat)",g,--,--,38.00,66.67
"Carbohydrate, by difference",g,--,--,10.00,17.54
"Fiber, total dietary",g,--,--,4.0,7.0
"Sugars, total",g,--,--,2.00,3.51
Minerals
"Calcium, Ca",mg,--,--,20,35
"Iron, Fe",mg,--,--,0.95,1.66
"Sodium, Na",mg,--,--,0,0
Vitamins
"Vitamin C, total ascorbic acid",mg,--,--,0.0,0.0
"Vitamin A, IU",IU,--,--,0,0
Lipids
"Fatty acids, total saturated",g,--,--,2.998,5.260
"Fatty acids, total trans",g,--,--,0.000,0.000
"Cholesterol",mg,--,--,0,0
Amino Acids
Other
Ingredients
"PECANS" Date available: 07/14/2017 Date last updated by company: 07/14/2017
