Source: USDA Branded Food Products Database Release December 2017 Software v.3.8.6.4 2017-10-02
Report Run at: December 17, 2017 22:46 EST
"Nutrient data for: 45232455, GOLDEN CRISPY THIN CRUST PIZZA, UPC: 643130308013"
Food Group:  Branded Food Products Database
Common Name:

Nutrient,Unit,Data points,Std. Error,"0.25 PIZZA = 128.0g",1Value per 100 g,
Proximates
"Energy",kcal,--,--,330,258
"Protein",g,--,--,15.00,11.72
"Total lipid (fat)",g,--,--,18.00,14.06
"Carbohydrate, by difference",g,--,--,26.00,20.31
"Fiber, total dietary",g,--,--,2.0,1.6
"Sugars, total",g,--,--,3.00,2.34
Minerals
"Calcium, Ca",mg,--,--,300,234
"Iron, Fe",mg,--,--,1.65,1.29
"Sodium, Na",mg,--,--,611,477
Vitamins
"Vitamin C, total ascorbic acid",mg,--,--,9.1,7.1
"Vitamin A, IU",IU,--,--,609,476
Lipids
"Fatty acids, total saturated",g,--,--,7.002,5.470
"Fatty acids, total trans",g,--,--,0.000,0.000
"Cholesterol",mg,--,--,35,27
Amino Acids
Other
Ingredients
"CRUST: FLOUR [WHEAT, MALTED BARLEY], WATER, SOYBEAN OIL, YEAST, SALT, DEXTROSE, CALCIUM PROPIONATE [PRESERVATIVE], SOY LECITHIN, AND CORN MEAL. SAUCE: TOMATOES, WATER, SALT, BLACK PEPPER, OREGANO, BASIL, GRANULATED GARLIC. CHEESE: LOW MOISTURE MOZZARELLA CHEESE [PASTEURIZED PART-SKIM MILK, CHEESE CULTURES, SALT, ENZYMES], MAY CONTAINS MOZZARELLA CHEESE SUBSTITUTE [WATER, VEGETABLE OIL, CHEESE SOLIDS, MODIFIED FOOD STARCH, NONFAT DRY MILK, SWEET WHEY, SALT, MAGNESIUM OXIDE, FERRIC ORTHOPHOSPHATE, VITAMIN A PALMITATE, NIACINAMIDE, ZINC OXIDE, PYRIDOXINE HYDROCHLORIDE, CYANOCOBALAMIN]. PEPPERONI: PORK, BEEF, SALT, SPICES, SUGAR, LACTIC ACID STARTER CULTURE, EXTRACTIVE OF PAPRIKA, GARLIC POWDER, SPICE EXTRACTIVES, SODIUM NITRITE, BHA, BHT, CITRIC ACID. SAUSAGE: PORK, SEASONING [SPICES, SALT, GARLIC POWDER, SOYBEAN OIL], WATER, SALT, PAPRIKA. SPICE TOPPING: ROMANO CHEESE [PASTEURIZED MILK, CHEESE CULTURES, SALT, AND ENZYMES], OREGANO." Date available: 06/25/2017 Date last updated by company: 06/25/2017
