Source: USDA Branded Food Products Database Release December 2017 Software v.3.8.6.4 2017-10-02
Report Run at: December 17, 2017 22:59 EST
"Nutrient data for: 45310679, GOLD MEDAL SWT SLTY SNCK MX HNY NUT, UNPREPARED, GTIN: 00016000158092"
Food Group:  Branded Food Products Database
Common Name:

Nutrient,Unit,Data points,Std. Error,"1 pouch (49g) = 49.0g",1Value per 100 g,
Proximates
"Energy",kcal,--,--,210,429
"Protein",g,--,--,3.00,6.12
"Total lipid (fat)",g,--,--,6.00,12.24
"Carbohydrate, by difference",g,--,--,37.00,75.51
"Fiber, total dietary",g,--,--,1.0,2.0
"Sugars, total",g,--,--,7.00,14.29
Minerals
"Calcium, Ca",mg,--,--,0,0
"Iron, Fe",mg,--,--,0.72,1.47
"Sodium, Na",mg,--,--,230,469
Vitamins
"Vitamin C, total ascorbic acid",mg,--,--,0.0,0.0
"Vitamin A, IU",IU,--,--,0,0
Lipids
"Fatty acids, total saturated",g,--,--,1.000,2.040
"Fatty acids, total trans",g,--,--,0.000,0.000
"Cholesterol",mg,--,--,0,0
Amino Acids
Other
Ingredients
"ENRICHED FLOUR (WHEAT FLOUR, NIACIN, IRON, THIAMIN MONONITRATE, RIBOFLAVIN, FOLIC ACID), DEGERMED YELLOW CORN MEAL, WHOLE WHEAT, SUGAR, VEGETABLE OIL (SOYBEAN, CANOLA, RICE BRAN). CONTAINS 2% OR LESS OF: BROWN SUGAR, SALT, DEXTROSE, MOLASSES, NATURAL AND ARTIFICIAL FLAVOR, YEAST, BAKING SODA, DISTILLED MONOGLYCERIDES, MALTODEXTRIN, DRIED MOLASSES, TRISODIUM PHOSPHATE, YELLOW CORN FLOUR, CALCIUM CARBONATE, CORN STARCH, DRIED HONEY, FRESHNESS PRESERVED BY BHT, BARLEY MALT SYRUP, NONFAT MILK, SOY LECITHIN." Date available: 10/18/2017 Date last updated by company: 10/16/2017
