Source: USDA Branded Food Products Database Release December 2017 Software v.3.8.6.4 2017-10-02
Report Run at: December 17, 2017 22:35 EST
"Nutrient data for: 45094220, GOLDBAUMS, MULTIGRAIN KALE CHIPS, UPC: 718122912506"
Food Group:  Branded Food Products Database
Common Name:

Nutrient,Unit,Data points,Std. Error,"21.0 CRISPS | ABOUT = 28.0g",1Value per 100 g,
Proximates
"Energy",kcal,--,--,100,357
"Protein",g,--,--,1.00,3.57
"Total lipid (fat)",g,--,--,2.00,7.14
"Carbohydrate, by difference",g,--,--,19.00,67.86
"Fiber, total dietary",g,--,--,1.0,3.6
"Sugars, total",g,--,--,1.00,3.57
Minerals
"Calcium, Ca",mg,--,--,0,0
"Iron, Fe",mg,--,--,1.93,6.88
"Sodium, Na",mg,--,--,110,393
Vitamins
"Vitamin C, total ascorbic acid",mg,--,--,5.3,19.1
"Vitamin A, IU",IU,--,--,982,3507
Lipids
"Fatty acids, total saturated",g,--,--,0.000,0.000
"Fatty acids, total trans",g,--,--,0.000,0.000
"Cholesterol",mg,--,--,0,0
Amino Acids
Other
Ingredients
"WHOLE GRAIN YELLOW CORN FLOUR, BROWN RICE, POTATO STARCH, RICE MEAL, VEGETABLE OIL (MAY CONTAIN ONE OR MORE OF THE FOLLOWING: CANOLA, CORN, SUNFLOWER, AND/OR SAFFLOWER OIL), EVAPORATED CANE SUGAR, KALE POWDER, SALT, SEA SALT." Date available: 06/25/2017 Date last updated by company: 06/25/2017
