Source: USDA Branded Food Products Database Release December 2017 Software v.3.8.6.4 2017-10-02
Report Run at: December 17, 2017 22:40 EST
"Nutrient data for: 45164289, GOLD EMBLEM, GUMMY BEARS, UPC: 050428511244"
Food Group:  Branded Food Products Database
Common Name:

Nutrient,Unit,Data points,Std. Error,"18.0 PIECES = 40.0g",1Value per 100 g,
Proximates
"Energy",kcal,--,--,130,325
"Protein",g,--,--,0.00,0.00
"Total lipid (fat)",g,--,--,0.00,0.00
"Carbohydrate, by difference",g,--,--,32.00,80.00
"Fiber, total dietary",g,--,--,0.0,0.0
"Sugars, total",g,--,--,27.00,67.50
Minerals
"Sodium, Na",mg,--,--,55,138
Vitamins
Lipids
"Fatty acids, total saturated",g,--,--,0.000,0.000
"Fatty acids, total trans",g,--,--,0.000,0.000
"Cholesterol",mg,--,--,0,0
Amino Acids
Other
Ingredients
"CORN SYRUP, WATER, CARRAGEENAN, GELLAN GUM, CITRIC ACID, SODIUM CITRATE, ORANGE NATURAL FLAVOR, LEMON NATURAL, FLAVOR WITH OTHER NATURAL FLAVORS, TURMERIC EXTRACT, PAPRIKA EXTRACT, BLACK CARROT EXTRACT, SPINACH EXTRACT, VEGETABLE OIL, (COCONUT), CARNAUBA WAX." Date available: 07/14/2017 Date last updated by company: 07/14/2017
