Source: USDA Branded Food Products Database Release December 2017 Software v.3.8.6.4 2017-10-02
Report Run at: December 17, 2017 22:48 EST
"Nutrient data for: 45156526, GOLDEN FLAKE, CHICHARRONES FRIED PORK SKINS, BARBECUE, UPC: 072080204548"
Food Group:  Branded Food Products Database
Common Name:

Nutrient,Unit,Data points,Std. Error,"0.5 ONZ = 14.0g",1Value per 100 g,
Proximates
"Energy",kcal,--,--,80,571
"Protein",g,--,--,8.00,57.14
"Total lipid (fat)",g,--,--,4.50,32.14
"Carbohydrate, by difference",g,--,--,1.00,7.14
"Fiber, total dietary",g,--,--,0.0,0.0
"Sugars, total",g,--,--,1.00,7.14
Minerals
"Calcium, Ca",mg,--,--,0,0
"Iron, Fe",mg,--,--,0.00,0.00
"Sodium, Na",mg,--,--,340,2429
Vitamins
"Vitamin C, total ascorbic acid",mg,--,--,0.0,0.0
"Vitamin A, IU",IU,--,--,0,0
Lipids
"Fatty acids, total saturated",g,--,--,2.001,14.290
"Fatty acids, total trans",g,--,--,0.000,0.000
"Cholesterol",mg,--,--,20,143
Amino Acids
Other
Ingredients
"FRIED PORK SKINS, MALTODEXTRIN, CORN FLOUR, SALT, BROWN SUGAR, HYDROLYZED CORN PROTEIN, MONOSODIUM GLUTAMATE, TOMATO POWDER, ONION POWDER, TORULA YEAST, EXTRACTIVES OF PAPRIKA, SPICES, GARLIC POWDER." Date available: 07/14/2017 Date last updated by company: 07/14/2017
