Source: USDA Branded Food Products Database Release December 2017 Software v.3.8.6.4 2017-10-02
Report Run at: December 17, 2017 22:48 EST
"Nutrient data for: 45111906, GOLDEN, FILLED CREPES, BLUEBERRY BLINTZES, UPC: 041641101039"
Food Group:  Branded Food Products Database
Common Name:

Nutrient,Unit,Data points,Std. Error,"1 BLINTZ = 61.0g",1Value per 100 g,
Proximates
"Energy",kcal,--,--,90,148
"Protein",g,--,--,2.00,3.28
"Total lipid (fat)",g,--,--,1.00,1.64
"Carbohydrate, by difference",g,--,--,18.00,29.51
"Fiber, total dietary",g,--,--,1.0,1.6
"Sugars, total",g,--,--,6.00,9.84
Minerals
"Calcium, Ca",mg,--,--,0,0
"Iron, Fe",mg,--,--,1.30,2.13
"Sodium, Na",mg,--,--,150,246
Vitamins
"Vitamin C, total ascorbic acid",mg,--,--,0.0,0.0
"Vitamin A, IU",IU,--,--,0,0
Lipids
"Fatty acids, total saturated",g,--,--,0.000,0.000
"Fatty acids, total trans",g,--,--,0.000,0.000
"Cholesterol",mg,--,--,10,16
Amino Acids
Other
Ingredients
"CREPE: WATER, ENRICHED WHEAT FLOUR (NIACIN, REDUCED IRON, THIAMINE, MONONITRATE, RIBOFLAVIN, FOLIC ACID), CORN STARCH, EGG WHITES, WHOLE EGGS, CANOLA OIL, DEXTROSE, UNBLEACHED LECITHIN, SALT. FILLING: BLUEBERRIES, WATER, SUGAR, MODIFIED CORN STARCH, LEMON JUICE, SALT." Date available: 07/14/2017 Date last updated by company: 07/14/2017
