Source: USDA Branded Food Products Database Release December 2017 Software v.3.8.6.4 2017-10-02
Report Run at: December 17, 2017 22:45 EST
"Nutrient data for: 45024832, GOLDEN COUSCOUS QUICK COOKING MOROCCAN PASTA, UPC: 039978005847"
Food Group:  Branded Food Products Database
Common Name:

Nutrient,Unit,Data points,Std. Error,"0.333 cup = 62.0g",1Value per 100 g,
Proximates
"Energy",kcal,--,--,230,371
"Protein",g,--,--,9.00,14.52
"Total lipid (fat)",g,--,--,1.00,1.61
"Carbohydrate, by difference",g,--,--,45.00,72.58
"Fiber, total dietary",g,--,--,2.0,3.2
"Sugars, total",g,--,--,1.00,1.61
Minerals
"Calcium, Ca",mg,--,--,8,13
"Iron, Fe",mg,--,--,2.00,3.23
"Sodium, Na",mg,--,--,0,0
Vitamins
"Vitamin D",IU,--,--,0,0
Lipids
"Fatty acids, total saturated",g,--,--,0.000,0.000
"Fatty acids, total trans",g,--,--,0.000,0.000
"Cholesterol",mg,--,--,0,0
Amino Acids
Other
Ingredients
"DURUM WHEAT SEMOLINA." Date available: 07/14/2017 Date last updated by company: 07/14/2017
