Source: USDA Branded Food Products Database Release December 2017 Software v.3.8.6.4 2017-10-02
Report Run at: December 17, 2017 22:43 EST
"Nutrient data for: 45164290, GOLD EMBLEM, SUGAR FREE LEMON DROPS TART AND HARD CANDY, UPC: 050428511534"
Food Group:  Branded Food Products Database
Common Name:

Nutrient,Unit,Data points,Std. Error,"4.0 PIECES = 15.0g",1Value per 100 g,
Proximates
"Energy",kcal,--,--,30,200
"Protein",g,--,--,0.00,0.00
"Total lipid (fat)",g,--,--,0.00,0.00
"Carbohydrate, by difference",g,--,--,15.00,100.00
"Fiber, total dietary",g,--,--,0.0,0.0
Minerals
"Calcium, Ca",mg,--,--,0,0
"Iron, Fe",mg,--,--,0.00,0.00
"Sodium, Na",mg,--,--,0,0
Vitamins
"Vitamin C, total ascorbic acid",mg,--,--,0.0,0.0
"Vitamin A, IU",IU,--,--,0,0
Lipids
"Fatty acids, total saturated",g,--,--,0.000,0.000
"Fatty acids, total trans",g,--,--,0.000,0.000
"Cholesterol",mg,--,--,0,0
Amino Acids
Other
Ingredients
"ISOMALT, CITRIC ACID, NATURAL AND ARTIFICIAL FLAVORS, ARTIFICIAL COLOR YELLOW 5. SUCRALOSE." Date available: 07/14/2017 Date last updated by company: 07/14/2017
