Source: USDA Branded Food Products Database Release December 2017 Software v.3.8.6.4 2017-10-02
Report Run at: December 17, 2017 22:43 EST
"Nutrient data for: 45279772, GOLDEN BBQ SAUCE, UPC: 035826083722"
Food Group:  Branded Food Products Database
Common Name:

Nutrient,Unit,Data points,Std. Error,"2.0 Tbsp = 33.0g",1Value per 100 g,
Proximates
"Energy",kcal,--,--,45,136
"Protein",g,--,--,1.00,3.03
"Total lipid (fat)",g,--,--,0.50,1.52
"Carbohydrate, by difference",g,--,--,9.00,27.27
"Fiber, total dietary",g,--,--,1.0,3.0
"Sugars, total",g,--,--,8.00,24.24
Minerals
"Calcium, Ca",mg,--,--,20,61
"Iron, Fe",mg,--,--,0.61,1.84
"Sodium, Na",mg,--,--,210,636
Vitamins
"Vitamin C, total ascorbic acid",mg,--,--,0.0,0.0
"Vitamin A, IU",IU,--,--,0,0
Lipids
"Fatty acids, total saturated",g,--,--,0.000,0.000
"Fatty acids, total trans",g,--,--,0.000,0.000
"Cholesterol",mg,--,--,0,0
Amino Acids
Other
Ingredients
"DISTILLED VINEGAR, SUGAR, WATER, APPLE CIDER VINEGAR, KETCHUP (TOMATO CONCENTRATE (WATER, TOMATO PASTE) HIGH FRUCTOSE CORN SYRUP, CORN SYRUP, DISTILLED VINEGAR, SALT, SPICE, ONION POWDER, NATURAL FLAVOR), MUSTARD SEED, CONTAINS LESS THAN 2% OF SALT, SOY SAUCE (WATER, SOYBEANS, WHEAT, SALT, SODIUM BENZOATE LESS THAN 0.10% AS PRESERVATIVE), TURMERIC, PAPRIKA, BLACK PEPPER, NATURAL SMOKE FLAVOR, SPICE, ASCORBIC ACID." Date available: 07/14/2017 Date last updated by company: 07/14/2017
