Source: USDA Branded Food Products Database Release December 2017 Software v.3.8.6.4 2017-10-02
Report Run at: December 17, 2017 22:46 EST
"Nutrient data for: 45208395, GOLDEN CUPCAKES, UPC: 072030021683"
Food Group:  Branded Food Products Database
Common Name:

Nutrient,Unit,Data points,Std. Error,"1 POUCH = 30.0g",1Value per 100 g,
Proximates
"Energy",kcal,--,--,120,400
"Protein",g,--,--,1.00,3.33
"Total lipid (fat)",g,--,--,5.00,16.67
"Carbohydrate, by difference",g,--,--,19.00,63.33
"Fiber, total dietary",g,--,--,0.0,0.0
"Sugars, total",g,--,--,14.00,46.67
Minerals
"Calcium, Ca",mg,--,--,0,0
"Iron, Fe",mg,--,--,0.00,0.00
"Sodium, Na",mg,--,--,85,283
Vitamins
"Vitamin C, total ascorbic acid",mg,--,--,0.0,0.0
"Vitamin A, IU",IU,--,--,0,0
Lipids
"Fatty acids, total saturated",g,--,--,1.500,5.000
"Fatty acids, total monounsaturated",g,--,--,1.500,5.000
"Fatty acids, total polyunsaturated",g,--,--,2.001,6.670
"Fatty acids, total trans",g,--,--,0.000,0.000
"Cholesterol",mg,--,--,10,33
Amino Acids
Other
Ingredients
"SUGAR, WATER, BLEACHED WHEAT FLOUR, HIGH FRUCTOSE CORN SYRUP, SOYBEAN OIL, EGGS, PALM OIL, MODIFIED CORNSTARCH, DEXTROSE, COCOA (PROCESSED WITH ALKALI), WHEY (MILK), NATURAL & ARTIFICIAL FLAVORS, FRUCTOSE, GLYCERIN, NONFAT MILK, CORN SYRUP, MONO- AND DIGLYCERIDES, SALT, BAKING SODA, SODIUM PHOSPHATE, CORN FLOUR, PRESERVATIVES (SORBIC ACID, POTASSIUM SORBATE, SODIUM PROPIONATE), POLYSORBATE 60, SOY LECITHIN, XANTHAN GUM, SODIUM STEAROYL LACTYLATE, SORBITAN MONOSTEARATE, GUAR GUM, AGAR, CALCIUM SULFATE, CAROB BEAN GUM, CALCIUM PHOSPHATE, CARAMEL COLOR." Date available: 07/14/2017 Date last updated by company: 07/14/2017
