Source: USDA Branded Food Products Database Release December 2017 Software v.3.8.6.4 2017-10-02
Report Run at: December 17, 2017 22:52 EST
"Nutrient data for: 45028335, GOLDEN LENTIL SOUPS, UPC: 042272005932"
Food Group:  Branded Food Products Database
Common Name:

Nutrient,Unit,Data points,Std. Error,"1 cup = 245.0g",1Value per 100 g,
Proximates
"Energy",kcal,--,--,220,90
"Protein",g,--,--,8.99,3.67
"Total lipid (fat)",g,--,--,8.99,3.67
"Carbohydrate, by difference",g,--,--,24.99,10.20
"Fiber, total dietary",g,--,--,4.9,2.0
"Sugars, total",g,--,--,2.99,1.22
Minerals
"Calcium, Ca",mg,--,--,39,16
"Iron, Fe",mg,--,--,2.69,1.10
"Sodium, Na",mg,--,--,681,278
Vitamins
"Vitamin C, total ascorbic acid",mg,--,--,1.2,0.5
"Vitamin A, IU",IU,--,--,399,163
Lipids
"Fatty acids, total saturated",g,--,--,1.004,0.410
"Fatty acids, total trans",g,--,--,0.000,0.000
"Cholesterol",mg,--,--,0,0
Amino Acids
Other
Ingredients
"INGREDIENTS (VEGAN): FILTERED WATER, ORGANIC YELLOW SPLIT PEAS, ORGANIC RED LENTILS, ORGANIC CARROTS, ORGANIC TOMATO PUREE, ORGANIC EXTRA VIRGIN OLIVE OIL, SHALLOTS, ORGANIC GARLIC, ORGANIC GINGER, SEA SALT, ORGANIC SPICES, ORGANIC TURMERIC, ORGANIC BLACK PEPPER." Date available: 07/14/2017 Date last updated by company: 07/14/2017
