Source: USDA Branded Food Products Database Release December 2017 Software v.3.8.6.4 2017-10-02
Report Run at: December 17, 2017 22:49 EST
"Nutrient data for: 45044764, GOLDEN FLUFF, POPCORN, BARBECUE, UPC: 030047101200"
Food Group:  Branded Food Products Database
Common Name:

Nutrient,Unit,Data points,Std. Error,"3.0 CUPS = 28.0g",1Value per 100 g,
Proximates
"Energy",kcal,--,--,130,464
"Protein",g,--,--,3.00,10.71
"Total lipid (fat)",g,--,--,5.00,17.86
"Carbohydrate, by difference",g,--,--,19.00,67.86
"Fiber, total dietary",g,--,--,3.0,10.7
"Sugars, total",g,--,--,1.00,3.57
Minerals
"Calcium, Ca",mg,--,--,0,0
"Iron, Fe",mg,--,--,1.93,6.88
"Sodium, Na",mg,--,--,250,893
Vitamins
"Vitamin C, total ascorbic acid",mg,--,--,0.0,0.0
"Vitamin A, IU",IU,--,--,535,1912
Lipids
"Fatty acids, total saturated",g,--,--,1.501,5.360
"Fatty acids, total trans",g,--,--,0.000,0.000
"Cholesterol",mg,--,--,0,0
Amino Acids
Other
Ingredients
"SELECT POPCORN, VEGETABLE OIL (CONTAINS ONE OR MORE OF THE FOLLOWING: RICE BRAN, CANOLA, CORN AND/OR SOYBEAN OIL), SALT, BETA CAROTENE FOR COLOR. SEASONING: SUGAR, SALT, SPICES, PAPRIKA, AUTOLYZED YEAST, ONION POWDER, NATURAL SMOKE FLAVOR, CARAMEL COLOR, GARLIC POWDER, FLAVORINGS." Date available: 06/24/2017 Date last updated by company: 06/24/2017
