Source: USDA Branded Food Products Database Release December 2017 Software v.3.8.6.4 2017-10-02
Report Run at: December 17, 2017 23:09 EST
"Nutrient data for: 45160965, GOOD FOODS JUICE, 100% FRUIT & VEGETABLE JUICE, UPC: 736798902027"
Food Group:  Branded Food Products Database
Common Name:

Nutrient,Unit,Data points,Std. Error,"1 BOTTLE = 450.0g",1Value per 100 g,
Proximates
"Energy",kcal,--,--,212,47
"Protein",g,--,--,5.00,1.11
"Total lipid (fat)",g,--,--,0.00,0.00
"Carbohydrate, by difference",g,--,--,45.00,10.00
"Fiber, total dietary",g,--,--,0.0,0.0
"Sugars, total",g,--,--,36.00,8.00
Minerals
"Calcium, Ca",mg,--,--,40,9
"Iron, Fe",mg,--,--,0.94,0.21
"Sodium, Na",mg,--,--,63,14
Vitamins
"Vitamin C, total ascorbic acid",mg,--,--,5.0,1.1
"Vitamin A, IU",IU,--,--,13068,2904
Lipids
"Fatty acids, total saturated",g,--,--,0.000,0.000
"Fatty acids, total trans",g,--,--,0.000,0.000
"Cholesterol",mg,--,--,0,0
Amino Acids
Other
Ingredients
"APPLE JUICE, CARROT JUICE, SWEET POTATO JUICE, GINGER JUICE, LEMON JUICE." Date available: 07/14/2017 Date last updated by company: 07/14/2017
