Source: USDA Branded Food Products Database Release December 2017 Software v.3.8.6.4 2017-10-02
Report Run at: December 17, 2017 23:10 EST
"Nutrient data for: 45159099, GOOD 2 GROW, JUICE, FRUIT PUNCH, UPC: 883990254000"
Food Group:  Branded Food Products Database
Common Name:

Nutrient,Unit,Data points,Std. Error,"1 BOTTLE = 237.0g",1Value per 100 g,
Proximates
"Energy",kcal,--,--,109,46
"Protein",g,--,--,0.00,0.00
"Total lipid (fat)",g,--,--,0.00,0.00
"Carbohydrate, by difference",g,--,--,26.99,11.39
"Sugars, total",g,--,--,25.00,10.55
Minerals
"Sodium, Na",mg,--,--,14,6
Vitamins
"Vitamin C, total ascorbic acid",mg,--,--,60.7,25.6
Lipids
Amino Acids
Other
Ingredients
"CONCENTRATED APPLE, PEAR, AND GRAPE JUICES AND WATER,CITRIC ACID, ASCORBIC ACID (VITAMIN C), NATURAL FRUIT PUNCH FLAVOR." Date available: 07/14/2017 Date last updated by company: 07/14/2017
