Source: USDA Branded Food Products Database Release December 2017 Software v.3.8.6.4 2017-10-02
Report Run at: December 17, 2017 23:25 EST
"Nutrient data for: 45139785, GORTON'S, FISH FILLETS, POTATO CRUSTED, UPC: 044400193801"
Food Group:  Branded Food Products Database
Common Name:

Nutrient,Unit,Data points,Std. Error,"1 FILLET = 140.0g",1Value per 100 g,
Proximates
"Energy",kcal,--,--,290,207
"Protein",g,--,--,14.00,10.00
"Total lipid (fat)",g,--,--,11.00,7.86
"Carbohydrate, by difference",g,--,--,33.00,23.57
"Fiber, total dietary",g,--,--,2.9,2.1
"Sugars, total",g,--,--,5.00,3.57
Minerals
"Calcium, Ca",mg,--,--,41,29
"Iron, Fe",mg,--,--,1.81,1.29
"Potassium, K",mg,--,--,370,264
"Sodium, Na",mg,--,--,960,686
Vitamins
Lipids
"Fatty acids, total saturated",g,--,--,2.506,1.790
"Fatty acids, total monounsaturated",g,--,--,2.506,1.790
"Fatty acids, total polyunsaturated",g,--,--,5.502,3.930
"Fatty acids, total trans",g,--,--,0.000,0.000
"Cholesterol",mg,--,--,29,21
Amino Acids
Other
Ingredients
"ALASKA POLLOCK, ENRICHED BLEACHED WHEAT FLOUR (FLOUR, NIACIN, IRON, THIAMIN MONONITRATE, RIBOFLAVIN, FOLIC ACID), COTTONSEED OIL, WATER, POTATO CHIPS (POTATOES, CANOLA AND/OR SUNFLOWER OIL), LESS THAN 2% OF: MODIFIED CORN STARCH, SALT, YELLOW CORN FLOUR, SUGAR, MALTODEXTRIN, BAKING POWDER (BAKING SODA, DISODIUM PYROPHOSPHATE, SODIUM ALUMINIUM PHOSPHATE), GARLIC POWDER, WHEAT FLOUR, WHEY, ONION POWDER, BUTTERMILK POWDER, NATURAL FLAVOR, DEHYDRATED CHIVES, VINEGAR, CHEDDAR CHEESE (MILK, CHEESE CULTURES, SALT, ENZYMES), SPICES, YEAST, COLORED WITH PAPRIKA, ANNATTO, AND TURMERIC EXTRACTS, DEXTROSE, CITRIC ACID, LACTIC ACID, MILK, MALIC ACID." Date available: 09/23/2016 Date last updated by company: 09/23/2016
