Source: USDA Branded Food Products Database Release December 2017 Software v.3.8.6.4 2017-10-02
Report Run at: December 17, 2017 23:27 EST
"Nutrient data for: 45236976, GOSSNER FOODS, 1% LOWFAT MILK, UPC: 076850099082"
Food Group:  Branded Food Products Database
Common Name:

Nutrient,Unit,Data points,Std. Error,"8.0 ONZ = 236.0g",1Value per 100 g,
Proximates
"Energy",kcal,--,--,99,42
"Protein",g,--,--,8.00,3.39
"Total lipid (fat)",g,--,--,2.50,1.06
"Carbohydrate, by difference",g,--,--,11.99,5.08
"Fiber, total dietary",g,--,--,0.0,0.0
"Sugars, total",g,--,--,11.99,5.08
Minerals
"Calcium, Ca",mg,--,--,300,127
"Iron, Fe",mg,--,--,0.00,0.00
"Potassium, K",mg,--,--,371,157
"Sodium, Na",mg,--,--,104,44
Vitamins
"Vitamin C, total ascorbic acid",mg,--,--,0.0,0.0
"Vitamin A, IU",IU,--,--,507,215
"Vitamin D",IU,--,--,99,42
Lipids
"Fatty acids, total saturated",g,--,--,1.510,0.640
"Fatty acids, total trans",g,--,--,0.000,0.000
"Cholesterol",mg,--,--,9,4
Amino Acids
Other
Ingredients
"LOWFAT MILK, VITAMIN A PALMITATE, VITAMIN D3." Date available: 06/25/2017 Date last updated by company: 06/25/2017
