Source: USDA Branded Food Products Database Release December 2017 Software v.3.8.6.4 2017-10-02
Report Run at: December 17, 2017 23:35 EST
"Nutrient data for: 45165431, GOURMET COOKIES, UPC: 600559011818"
Food Group:  Branded Food Products Database
Common Name:

Nutrient,Unit,Data points,Std. Error,"1 COOKIE = 15.0g",1Value per 100 g,
Proximates
"Energy",kcal,--,--,40,267
"Protein",g,--,--,1.00,6.67
"Total lipid (fat)",g,--,--,3.00,20.00
"Carbohydrate, by difference",g,--,--,9.00,60.00
"Fiber, total dietary",g,--,--,0.0,0.0
"Sugars, total",g,--,--,4.00,26.67
Minerals
"Calcium, Ca",mg,--,--,0,0
"Iron, Fe",mg,--,--,1.20,8.00
"Sodium, Na",mg,--,--,30,200
Vitamins
"Vitamin C, total ascorbic acid",mg,--,--,0.0,0.0
"Vitamin A, IU",IU,--,--,0,0
Lipids
"Fatty acids, total saturated",g,--,--,1.500,10.000
"Fatty acids, total trans",g,--,--,0.000,0.000
"Cholesterol",mg,--,--,5,33
Amino Acids
Other
Ingredients
"HI CAKE FLOUR, UNBLEACHED UNBROMATED BREAD FLOUR, SUGAR, MARGARINE, BBS ALL PURPOSE TRANS FAT FREE VEGETABLE SHORTENING (PALM OIL), WATER, WHOLE EGGS, SALT, VANILLA FLAVOR, ORANGE COLOR, SANDING SUGAR, SPRINKLES" Date available: 07/14/2017 Date last updated by company: 07/14/2017
