Source: USDA Branded Food Products Database Release December 2017 Software v.3.8.6.4 2017-10-02
Report Run at: December 17, 2017 23:30 EST
"Nutrient data for: 45258581, GOURMET BBQ SAUCE, UPC: 856394005028"
Food Group:  Branded Food Products Database
Common Name:

Nutrient,Unit,Data points,Std. Error,"2.0 Tbsp = 30.0g",1Value per 100 g,
Proximates
"Energy",kcal,--,--,70,233
"Protein",g,--,--,0.00,0.00
"Total lipid (fat)",g,--,--,0.00,0.00
"Carbohydrate, by difference",g,--,--,19.00,63.33
"Sugars, total",g,--,--,18.00,60.00
Minerals
"Sodium, Na",mg,--,--,170,567
Vitamins
"Vitamin C, total ascorbic acid",mg,--,--,2.0,6.8
"Vitamin A, IU",IU,--,--,169,563
Lipids
Amino Acids
Other
Ingredients
"LIGHT BROWN SUGAR, KETCHUP (TOMATO CONCENTRATE, DISTILLED VINEGAR, HIGH FRUCTOSE CORN SYRUP, SALT, SPICE, ONION POWDER, NATURAL FLAVORINGS), PANOLA MUSTARD (DISTILLED VINEGAR, WATER, MUSTARD SEED, SALT, TURMERIC, PAPRIKA AND SPICES), PANOLA WORCESTERSHIRE SAUCE (WATER, VINEGAR, SUGAR, SALT, MOLASSES, DEXTROSE, CITRIC ACID, CARAMEL COLOR, SPICES, GARLIC SPICE EXTRACTIVES, CHILL PEPPER, MALIC ACID, ONION)." Date available: 07/14/2017 Date last updated by company: 07/14/2017
