Source: USDA Branded Food Products Database Release December 2017 Software v.3.8.6.4 2017-10-02
Report Run at: December 17, 2017 23:38 EST
"Nutrient data for: 45277159, GOURMET FROZEN FRUIT BAR, UPC: 070640013845"
Food Group:  Branded Food Products Database
Common Name:

Nutrient,Unit,Data points,Std. Error,"1 BAR = 121.0g",1Value per 100 g,
Proximates
"Energy",kcal,--,--,129,107
"Protein",g,--,--,0.00,0.00
"Total lipid (fat)",g,--,--,0.00,0.00
"Carbohydrate, by difference",g,--,--,32.00,26.45
"Fiber, total dietary",g,--,--,2.1,1.7
"Sugars, total",g,--,--,23.00,19.01
Minerals
"Calcium, Ca",mg,--,--,0,0
"Iron, Fe",mg,--,--,0.00,0.00
"Sodium, Na",mg,--,--,30,25
Vitamins
"Vitamin C, total ascorbic acid",mg,--,--,7.4,6.1
"Vitamin A, IU",IU,--,--,0,0
Lipids
"Fatty acids, total saturated",g,--,--,0.000,0.000
"Fatty acids, total trans",g,--,--,0.000,0.000
"Cholesterol",mg,--,--,0,0
Amino Acids
Other
Ingredients
"WATER, STRAWBERRIES, SUGAR, HIGH FRUCTOSE CORN SYRUP, CORN SYRUP, CONTAINS 1% OR LESS OF NATURAL FLAVORS, STRAWBERRY ESSENCE, CITRIC ACID, GUAR GUM, CELLULOSE GUM, XANTHAN GUM, ASCORBIC ACID, FOOD STARCH-MODIFIED, ANNATTO AND BEET JUICE FOR COLOR." Date available: 07/14/2017 Date last updated by company: 07/14/2017
