Source: USDA Branded Food Products Database Release December 2017 Software v.3.8.6.4 2017-10-02
Report Run at: December 17, 2017 23:43 EST
"Nutrient data for: 45186604, GOURMET MARSHMALLOWS, UPC: 819893023221"
Food Group:  Branded Food Products Database
Common Name:

Nutrient,Unit,Data points,Std. Error,"9.0 PIECES = 40.0g",1Value per 100 g,
Proximates
"Energy",kcal,--,--,132,330
"Protein",g,--,--,2.00,5.00
"Total lipid (fat)",g,--,--,0.00,0.00
"Carbohydrate, by difference",g,--,--,32.00,80.00
"Sugars, total",g,--,--,32.00,80.00
Minerals
"Sodium, Na",mg,--,--,14,35
Vitamins
Lipids
Amino Acids
Other
Ingredients
"GLUCOSE SYRUP, SUGAR, WATER, DEXTROSE, GELATIN, ARTIFICIAL FLAVOR, ARTIFICIAL COLORS FD&C YELLOW 5. YELLOW 6, BLUE 1, RED 40." Date available: 07/14/2017 Date last updated by company: 07/14/2017
