Source: USDA Branded Food Products Database Release December 2017 Software v.3.8.6.4 2017-10-02
Report Run at: December 17, 2017 23:52 EST
"Nutrient data for: 45191370, GOURMET SIDE ANGEL HAIR PASTA WITH HERBS, UPC: 074026505511"
Food Group:  Branded Food Products Database
Common Name:

Nutrient,Unit,Data points,Std. Error,"0.25 PACKAGE = 34.0g",1Value per 100 g,
Proximates
"Energy",kcal,--,--,120,353
"Protein",g,--,--,4.00,11.76
"Total lipid (fat)",g,--,--,1.50,4.41
"Carbohydrate, by difference",g,--,--,24.00,70.59
"Fiber, total dietary",g,--,--,1.0,2.9
"Sugars, total",g,--,--,2.00,5.88
Minerals
"Calcium, Ca",mg,--,--,0,0
"Iron, Fe",mg,--,--,4.45,13.08
"Sodium, Na",mg,--,--,460,1353
Vitamins
"Vitamin C, total ascorbic acid",mg,--,--,0.0,0.0
"Vitamin A, IU",IU,--,--,0,0
Lipids
"Fatty acids, total saturated",g,--,--,0.000,0.000
"Fatty acids, total monounsaturated",g,--,--,0.000,0.000
"Fatty acids, total polyunsaturated",g,--,--,0.000,0.000
"Fatty acids, total trans",g,--,--,0.000,0.000
"Cholesterol",mg,--,--,0,0
Amino Acids
Other
Ingredients
"ENRICHED VERMICELLI PRODUCT (DURUM FLOUR, NIACIN, FERROUS SULFATE, THIAMINE MONONITRATE, RIBOFLAVIN, FOLIC ACID), SEASONING BLEND (WHEY, SALT, MALTODEXTRIN, PALM OIL AND/OR SOYBEAN OIL, ENRICHED FLOUR [WHEAT FLOUR, NIACIN, REDUCED IRON, THIAMINE MONONITRATE, RIBOFLAVIN, FOLIC ACID], LACTOSE, FOOD STARCH - MODIFIED, SPICES, ONION POWDER, GARLIC POWDER, SODIUM PHOSPHATE, SODIUM CASEINATE, DISODIUM INOSINATE, DISODIUM GUANYLATE, COLORS ADDED [TITANIUM DIOXIDE YELLOW 5, YELLOW 5 LAKE, YELLOW 6], SODIUM SILICOALUMINATE, ANNATTO EXTRACT COLOR, NATURAL FLAVORS)." Date available: 07/14/2017 Date last updated by company: 07/14/2017
