Source: USDA Branded Food Products Database Release December 2017 Software v.3.8.6.4 2017-10-02
Report Run at: December 17, 2017 23:33 EST
"Nutrient data for: 45316338, GOURMET CHEESE SPREAD, UPC: 075446030072"
Food Group:  Branded Food Products Database
Common Name:

Nutrient,Unit,Data points,Std. Error,"2.0 Tbsp = 30.0g",1Value per 100 g,
Proximates
"Energy",kcal,--,--,110,367
"Protein",g,--,--,3.00,10.00
"Total lipid (fat)",g,--,--,9.00,30.00
"Carbohydrate, by difference",g,--,--,0.00,0.00
"Fiber, total dietary",g,--,--,0.0,0.0
"Sugars, total",g,--,--,0.00,0.00
Minerals
"Calcium, Ca",mg,--,--,110,367
"Iron, Fe",mg,--,--,0.00,0.00
"Sodium, Na",mg,--,--,150,500
Vitamins
"Vitamin C, total ascorbic acid",mg,--,--,0.0,0.0
"Vitamin A, IU",IU,--,--,334,1112
Lipids
"Fatty acids, total saturated",g,--,--,3.000,10.000
"Fatty acids, total trans",g,--,--,0.000,0.000
"Cholesterol",mg,--,--,40,133
Amino Acids
Other
Ingredients
"JARLSBERG (PASTEURIZED MILK, CHEESE CULTURES, SALT, ENZYMES, ANNATTO [VEGETABLE COLOR], POTATO STARCH AND POWDERED CELLULOSE [TO PREVENT CAKING], NATAMYCIN [A PRESERVATIVE]), MAYONNAISE (SOYBEAN OIL, EGG YOLKS, WATER, DISTILLED VINEGAR, SALT, CIDER VINEGAR, EGG WHITE SOLIDS, OLEORESIN PAPRIKA, NATURAL FLAVOR), POTASSIUM SORBATE." Date available: 07/14/2017 Date last updated by company: 07/14/2017
