Source: USDA Branded Food Products Database Release December 2017 Software v.3.8.6.4 2017-10-02
Report Run at: December 17, 2017 23:51 EST
"Nutrient data for: 45161415, GOURMET SELECT, PUFFCORN, WHITE CHEDDAR, UPC: 811627021039"
Food Group:  Branded Food Products Database
Common Name:

Nutrient,Unit,Data points,Std. Error,"1 ONZ = 28.0g",1Value per 100 g,
Proximates
"Energy",kcal,--,--,160,571
"Protein",g,--,--,1.00,3.57
"Total lipid (fat)",g,--,--,12.00,42.86
"Carbohydrate, by difference",g,--,--,12.00,42.86
"Fiber, total dietary",g,--,--,0.0,0.0
"Sugars, total",g,--,--,2.00,7.14
Minerals
"Calcium, Ca",mg,--,--,20,71
"Iron, Fe",mg,--,--,0.64,2.29
"Sodium, Na",mg,--,--,240,857
Vitamins
"Vitamin C, total ascorbic acid",mg,--,--,0.0,0.0
"Vitamin A, IU",IU,--,--,0,0
Lipids
"Fatty acids, total saturated",g,--,--,1.999,7.140
"Fatty acids, total trans",g,--,--,0.000,0.000
"Cholesterol",mg,--,--,0,0
Amino Acids
Other
Ingredients
"CORN MEAL, SOYBEAN OIL, WHEY, CORN STARCH, CHEDDAR AND BLUE CHEESE (PASTEURIZED MILK, SALT, CHEESE CULTURE, ENZYMES), MALTODEXTRIN, PARTIALLY HYDROGENATED SOYBEAN OIL, SALT, BUTTER (CREAM, WATER, SALT), NATURAL & ARTIFICIAL FLAVOR, NON-FAT DRY MILK, BUTTERMILK (CREAM, WATER, SALT), MONOSODIUM GLUTAMATE, SODIUM CASEINATE, TOCOPHEROLS, ASCORBYL PALMITATE, BHT, FD&C YELLOW #6." Date available: 07/14/2017 Date last updated by company: 07/14/2017
