Source: USDA Branded Food Products Database Release December 2017 Software v.3.8.6.4 2017-10-02
Report Run at: December 17, 2017 23:29 EST
"Nutrient data for: 45079692, GOURMET ALBACORE TUNA, UPC: 882511501036"
Food Group:  Branded Food Products Database
Common Name:

Nutrient,Unit,Data points,Std. Error,"2.2 ONZ = 61.0g",1Value per 100 g,
Proximates
"Energy",kcal,--,--,104,170
"Protein",g,--,--,16.00,26.23
"Total lipid (fat)",g,--,--,4.00,6.56
"Carbohydrate, by difference",g,--,--,0.00,0.00
"Fiber, total dietary",g,--,--,0.0,0.0
Minerals
"Sodium, Na",mg,--,--,173,284
Vitamins
Lipids
"Cholesterol",mg,--,--,21,34
Amino Acids
Other
Ingredients
"ALBACORE TUNA, SEA SALT." Date available: 06/24/2017 Date last updated by company: 06/24/2017
