Source: USDA Branded Food Products Database Release December 2017 Software v.3.8.6.4 2017-10-02
Report Run at: December 17, 2017 23:45 EST
"Nutrient data for: 45219540, GOURMET PANCAKE AND WAFFLE MIX, UPC: 856928004046"
Food Group:  Branded Food Products Database
Common Name:

Nutrient,Unit,Data points,Std. Error,"0.25 cup = 38.0g",1Value per 100 g,
Proximates
"Energy",kcal,--,--,140,368
"Protein",g,--,--,1.00,2.63
"Total lipid (fat)",g,--,--,0.00,0.00
"Carbohydrate, by difference",g,--,--,33.00,86.84
"Fiber, total dietary",g,--,--,2.0,5.3
"Sugars, total",g,--,--,7.00,18.42
Minerals
"Calcium, Ca",mg,--,--,40,105
"Iron, Fe",mg,--,--,0.38,1.00
"Sodium, Na",mg,--,--,460,1211
Vitamins
"Vitamin C, total ascorbic acid",mg,--,--,1.3,3.3
"Vitamin A, IU",IU,--,--,0,0
Lipids
"Fatty acids, total saturated",g,--,--,0.000,0.000
"Fatty acids, total trans",g,--,--,0.000,0.000
"Cholesterol",mg,--,--,0,0
Amino Acids
Other
Ingredients
"GLUTEN FREE FLOUR (PREMIUM CASSAVA FLOUR, UNMODIFIED POTATO STARCH, ORGANIC COCONUT FLOUR, XANTHAN GUM (EMULSIFIER), PURE CANE SUGAR, BAKING POWDER (RAISING AGENTS: SODIUM ACID PYROPHOSPHATE, SODIUM BICARBONATE, CORN STARCH AND MONOCALCIUM PHOSPHATE), SEA SALT, ORGANIC VANILLA FLAVOR" Date available: 07/14/2017 Date last updated by company: 07/14/2017
