Source: USDA Branded Food Products Database Release December 2017 Software v.3.8.6.4 2017-10-02
Report Run at: December 17, 2017 23:53 EST
"Nutrient data for: 45124068, GOURMET SWEET ROLLS, UPC: 708820829077"
Food Group:  Branded Food Products Database
Common Name:

Nutrient,Unit,Data points,Std. Error,"1 ROLL WITH ICING = 116.0g",1Value per 100 g,
Proximates
"Energy",kcal,--,--,329,284
"Protein",g,--,--,4.00,3.45
"Total lipid (fat)",g,--,--,10.00,8.62
"Carbohydrate, by difference",g,--,--,58.00,50.00
"Fiber, total dietary",g,--,--,1.0,0.9
"Sugars, total",g,--,--,29.00,25.00
Minerals
"Calcium, Ca",mg,--,--,0,0
"Iron, Fe",mg,--,--,1.94,1.67
"Sodium, Na",mg,--,--,670,578
Vitamins
"Vitamin C, total ascorbic acid",mg,--,--,9.7,8.4
"Vitamin A, IU",IU,--,--,0,0
Lipids
"Fatty acids, total saturated",g,--,--,4.002,3.450
"Fatty acids, total monounsaturated",g,--,--,3.004,2.590
"Fatty acids, total polyunsaturated",g,--,--,1.995,1.720
"Fatty acids, total trans",g,--,--,0.000,0.000
"Cholesterol",mg,--,--,0,0
Amino Acids
Other
Ingredients
"ENRICHED BLEACHED FLOUR [WHEAT FLOUR, NIACIN, IRON, THIAMIN MONONITRATE (VITAMIN B1), RIBOFLAVIN VITAMIN B2), FOLIC ACID], APPLE FILLING [HIGH FRUCTOSE CORN SYRUP, WATER, APPLES, MODIFIED CORN STARCH, DEXTROSE, CITRIC ACID, SALT, LEMON JUICE, PRESERVATIVES (POTASSIUM SORBATE, SODIUM PROPIONATE, ASCORBIC ACID], WATER, CINNAMON FLAVORED ICING [SUGAR, WATER, CORN SYRUP, CORN STARCH, VEGETABLE OIL PALM, SOYBEAN AND/OR COTTONSEED OILS, SALT, CINNAMON, POLYSORBATE 60, NATURAL AND ARTIFICIAL FLAVORS, SORBIC ACID (PRESERVATIVE), GUMS (XANTHAN, CAROB BEAN, GUAR)], VEGETABLE OIL (PALM, SOYBEAN AND/OR COTTONSEED OILS), SUGAR, CONTAINS 2% OR LESS OF: LEAVENING (SODIUM ACID PYROPHOSPHATE, BAKING SODA, SODIUM ALUMINUM PHOSPHATE, DEXTROSE, CINNAMON, SALT, CORN STARCH, POTASSIUM CHLORIDE, WHEAT GLUTEN, SODIUM STEAROYL LACTYLATE, XANTHAN GUM, NATURAL AND ARTIFICIAL FLAVORS, POTASSIUM SORBATE (PRESERVATIVE), MONO- AND DIGLYCERIDES, POLYSORBATE 60, COLORED WITH (YELLOW S, CARAMEL COLOR, YELLOW 6), MALTODEXTRIN, AUTOLYZED YEAST EXTRACT," Date available: 07/14/2017 Date last updated by company: 07/14/2017
