Source: USDA Branded Food Products Database Release December 2017 Software v.3.8.6.4 2017-10-02
Report Run at: December 17, 2017 23:44 EST
"Nutrient data for: 45188109, GOURMET MOIST POUND CAKE, UPC: 882414000032"
Food Group:  Branded Food Products Database
Common Name:

Nutrient,Unit,Data points,Std. Error,"2.0 ONZ = 57.0g",1Value per 100 g,
Proximates
"Energy",kcal,--,--,220,386
"Protein",g,--,--,3.00,5.26
"Total lipid (fat)",g,--,--,9.00,15.79
"Carbohydrate, by difference",g,--,--,31.00,54.39
"Fiber, total dietary",g,--,--,0.0,0.0
"Sugars, total",g,--,--,18.00,31.58
Minerals
"Calcium, Ca",mg,--,--,40,70
"Iron, Fe",mg,--,--,2.02,3.55
"Potassium, K",mg,--,--,30,53
"Sodium, Na",mg,--,--,135,237
Vitamins
"Vitamin C, total ascorbic acid",mg,--,--,0.0,0.0
"Vitamin A, IU",IU,--,--,280,492
Lipids
"Fatty acids, total saturated",g,--,--,4.001,7.020
"Fatty acids, total monounsaturated",g,--,--,2.998,5.260
"Fatty acids, total polyunsaturated",g,--,--,0.502,0.880
"Fatty acids, total trans",g,--,--,0.998,1.750
"Cholesterol",mg,--,--,30,53
Amino Acids
Other
Ingredients
"SUGAR, ENRICHED WHEAT FLOUR (NIACIN, IRON, THIAMIN MONONITRATE, RIBOFLAVIN, FOLIC ACID), PARTIALLY HYDROGENATED VEGETABLE SHORTENING, CREAM CHEESE POWDER (PASTEURIZED MILK, CHEESE CULTURE, SALT, CAROB BEAN GUM, SODIUM CASEINATE, DISODIUM PHOSPHATE, NATURAL FLAVORS & BHA), MONO DIGLYCERIDES, NATURAL BUTTER, LEMON AND ARTIFICIAL FLAVORS, SALT, FD&C YELLOW #5 AND #6." Date available: 10/13/2017 Date last updated by company: 10/13/2017
