Source: USDA Branded Food Products Database Release December 2017 Software v.3.8.6.4 2017-10-02
Report Run at: December 17, 2017 23:51 EST
"Nutrient data for: 45166421, GOURMET SELECT, HOLIDAY POPCORN, CARAMEL, CHEESE & BUTTER, UPC: 811627020117"
Food Group:  Branded Food Products Database
Common Name:

Nutrient,Unit,Data points,Std. Error,"1.25 cup = 28.0g",1Value per 100 g,
Proximates
"Energy",kcal,--,--,130,464
"Protein",g,--,--,1.00,3.57
"Total lipid (fat)",g,--,--,5.00,17.86
"Carbohydrate, by difference",g,--,--,19.00,67.86
"Fiber, total dietary",g,--,--,1.0,3.6
"Sugars, total",g,--,--,11.00,39.29
Minerals
"Calcium, Ca",mg,--,--,0,0
"Iron, Fe",mg,--,--,0.64,2.29
"Potassium, K",mg,--,--,0,0
"Sodium, Na",mg,--,--,180,643
Vitamins
"Vitamin C, total ascorbic acid",mg,--,--,0.0,0.0
"Vitamin A, IU",IU,--,--,0,0
Lipids
"Fatty acids, total saturated",g,--,--,1.000,3.570
"Fatty acids, total trans",g,--,--,0.000,0.000
"Cholesterol",mg,--,--,0,0
Amino Acids
Other
Ingredients
"(CHEESE POPCORN) POPCORN, SOYBEAN OIL. MALTODEXTRIN, WHEY, REDUCED LACTOSE WHEY, CANOLA OIL. CORN STARCH, CHEDDAR AND BLUE CHEESE (PASTEURIZED MILK, SALT, ANNATTO EXTRACT, CHEESE CULTURE, ENZYMES), SALT, COLOR ADDED, DISODIUM PHOSPHATE, LACTIC ACID, TBHO, BUTTER (CREAM, WATER, SALT), BETA CAROTENE, NATURAL AND ARTIFICIAL FLAVOR, BUTTERMILK, MONOSODIUM GLUTAMATE, YELLOW 6, YELLOW 5, YELLOW 5 LAKE AND CITRIC ACID TO PRESERVE FRESHNESS. (CARAMEL CORN) CORN SYRUP, POPCORN, MOLASSES, BUTTER, SOYBEAN OIL. SALT, SOY LECITHIN (AN EMULSIFIER), SODIUM BICARBONATE. (BUTTER POPCORN) POPCORN. SOYBEAN OIL. SALT, NATURAL AND ARTIFICIAL FLAVORS, BETA CAROTENE (COLOR), TBHQ, BHA AND CITRIC ACID ADDED TO PRESERVE FRESHNESS" Date available: 07/14/2017 Date last updated by company: 07/14/2017
