Source: USDA Branded Food Products Database Release December 2017 Software v.3.8.6.4 2017-10-02
Report Run at: December 17, 2017 23:36 EST
"Nutrient data for: 45179662, GOURMET CUPCAKES, UPC: 770981051963"
Food Group:  Branded Food Products Database
Common Name:

Nutrient,Unit,Data points,Std. Error,"3.0 CUPCAKES = 78.0g",1Value per 100 g,
Proximates
"Energy",kcal,--,--,320,410
"Protein",g,--,--,2.00,2.56
"Total lipid (fat)",g,--,--,17.00,21.79
"Carbohydrate, by difference",g,--,--,38.00,48.72
"Fiber, total dietary",g,--,--,0.0,0.0
"Sugars, total",g,--,--,31.00,39.74
Minerals
"Calcium, Ca",mg,--,--,20,26
"Iron, Fe",mg,--,--,0.37,0.47
"Sodium, Na",mg,--,--,250,321
Vitamins
"Vitamin C, total ascorbic acid",mg,--,--,0.0,0.0
"Vitamin A, IU",IU,--,--,513,658
Lipids
"Fatty acids, total saturated",g,--,--,5.998,7.690
"Fatty acids, total trans",g,--,--,0.000,0.000
"Cholesterol",mg,--,--,40,51
Amino Acids
Other
Ingredients
"ICING SUGAR, SUGAR, CREAM CHEESE (CREAM, SKIM MILK, BACTERIAL CULTURE, SALT, CAROB BEAN GUM), SHORTENING (CANOLA, PALM, MODIFIED PALM AND PALM KERNEL OIL), ENRICHED WHEAT FLOUR (WHEAT FLOUR, NIACIN, REDUCED IRON, THIAMINE MONONITRATE, RIBOFLAVIN, FOLIC ACID), EGG, SOYBEAN AND CANOLA OIL, WATER, PUMPKIN, TOASTED WHEAT CRUMB [ENRICHED WHEAT FLOUR (WHEAT FLOUR, NIACIN, REDUCED IRON, THIAMINE MONONITRATE, RIBOFLAVIN, FOLIC ACID), CANOLA OIL, SUGAR, YEAST, CORN FLOUR, SALT, CARAMEL COLOR, SPICE], MODIFIED CORN STARCH, WHEY POWDER, LEAVENING (SODIUM ACID PYROPHOSPHATE, SODIUM BICARBONATE, CORN STARCH, MONOCALCIUM PHOSPHATE, CALCIUM SULFATE), SOYBEAN LECITHIN, WHEAT GLUTEN, SPICES, SALT, SODIUM BICARBONATE, COLOR (BETA CAROTENE, CARAMEL), ARTIFICIAL FLAVOR, BROWN SUGAR, DIACETYL TARTARIC ACID ESTERS OF MONO AND DIGLYCERIDES, POTASSIUM SORBATE (PRESERVATIVE), POLYSORBATE 60." Date available: 07/14/2017 Date last updated by company: 07/14/2017
