Source: USDA Branded Food Products Database Release December 2017 Software v.3.8.6.4 2017-10-02
Report Run at: December 17, 2017 23:44 EST
"Nutrient data for: 45054930, GOURMET MIXED OLIVES, UPC: 037272089013"
Food Group:  Branded Food Products Database
Common Name:

Nutrient,Unit,Data points,Std. Error,"4.0 OLIVES WITHOUT PITS, PER CONTAINER ABOUT = 14.0g",1Value per 100 g,
Proximates
"Energy",kcal,--,--,30,214
"Protein",g,--,--,0.00,0.00
"Total lipid (fat)",g,--,--,3.00,21.43
"Carbohydrate, by difference",g,--,--,1.00,7.14
Minerals
"Sodium, Na",mg,--,--,250,1786
Vitamins
Lipids
"Cholesterol",mg,--,--,0,0
Amino Acids
Other
Ingredients
"GREEN OLIVES, BLACK OLIVES, WATER, RED WINE VINEGAR, CONCENTRATED GRAPE JUICE, SEA SALT, EXTRA-VIRGIN OIL, SPICE." Date available: 10/11/2017 Date last updated by company: 10/11/2017
