Source: USDA Branded Food Products Database Release December 2017 Software v.3.8.6.4 2017-10-02
Report Run at: December 17, 2017 23:38 EST
"Nutrient data for: 45270739, GOURMET ENGLISH STYLE LICORICE ALLSORTS, UPC: 086232517028"
Food Group:  Branded Food Products Database
Common Name:

Nutrient,Unit,Data points,Std. Error,"8.0 PIECES = 40.0g",1Value per 100 g,
Proximates
"Energy",kcal,--,--,149,372
"Protein",g,--,--,1.00,2.50
"Total lipid (fat)",g,--,--,1.80,4.50
"Carbohydrate, by difference",g,--,--,32.00,80.00
"Fiber, total dietary",g,--,--,0.5,1.2
"Sugars, total",g,--,--,25.20,63.00
Minerals
"Calcium, Ca",mg,--,--,0,0
"Iron, Fe",mg,--,--,0.00,0.00
"Sodium, Na",mg,--,--,8,20
Vitamins
"Vitamin C, total ascorbic acid",mg,--,--,0.0,0.0
"Vitamin A, IU",IU,--,--,0,0
Lipids
"Fatty acids, total saturated",g,--,--,1.500,3.750
"Fatty acids, total trans",g,--,--,0.000,0.000
"Cholesterol",mg,--,--,0,0
Amino Acids
Other
Ingredients
"SUGAR, GLUCOSE SYRUP, WHEAT FLOUR, CANE SUGAR MOLASSES, COCONUT, GELATINE, LIQUORICE EXTRACT, WHEAT STARCH, COCOA POWDER, NATURAL FLAVOURINGS (ANISE/LICORICE, COCONUT, STRAWBERRY, LEMON AND ORANGE), GLYCERIN AND GLYCERIDES, COCONUT OIL, COLOURING FOOD (CONCENTRATE OF SAFFLOWER), PAPRIKA COLOR, BEET POWDER, BEESWAX." Date available: 07/14/2017 Date last updated by company: 07/14/2017
