Source: USDA Branded Food Products Database Release December 2017 Software v.3.8.6.4 2017-10-02
Report Run at: December 18, 2017 00:06 EST
"Nutrient data for: 45028373, GOYA, SPANISH OLIVES STUFFED WITH MINCED PIMIENTOS, UPC: 041331013413"
Food Group:  Branded Food Products Database
Common Name:

Nutrient,Unit,Data points,Std. Error,"4.0 OLIVES = 14.0g",1Value per 100 g,
Proximates
"Energy",kcal,--,--,25,179
"Protein",g,--,--,0.00,0.00
"Total lipid (fat)",g,--,--,2.50,17.86
"Carbohydrate, by difference",g,--,--,0.00,0.00
Minerals
"Sodium, Na",mg,--,--,210,1500
Vitamins
Lipids
"Fatty acids, total saturated",g,--,--,0.500,3.570
"Fatty acids, total trans",g,--,--,0.000,0.000
"Cholesterol",mg,--,--,0,0
Amino Acids
Other
Ingredients
"MANZANILLA OLIVES, WATER, PUREED PIMIENTO, SALT, LACTIC ACID, SODIUM ALGINATE AND GUAR GUM." Date available: 07/14/2017 Date last updated by company: 07/14/2017
