Source: USDA Branded Food Products Database Release December 2017 Software v.3.8.6.4 2017-10-02
Report Run at: December 18, 2017 00:03 EST
"Nutrient data for: 45028358, GOYA, PITTED ALCAPARRADO MANZANILLA OLIVES PIMIENTOS & CAPERS, UPC: 041331015127"
Food Group:  Branded Food Products Database
Common Name:

Nutrient,Unit,Data points,Std. Error,"2.0 Tbsp = 15.0g",1Value per 100 g,
Proximates
"Energy",kcal,--,--,20,133
"Protein",g,--,--,0.00,0.00
"Total lipid (fat)",g,--,--,2.00,13.33
"Carbohydrate, by difference",g,--,--,1.00,6.67
Minerals
"Sodium, Na",mg,--,--,245,1633
Vitamins
Lipids
"Fatty acids, total saturated",g,--,--,0.000,0.000
"Fatty acids, total trans",g,--,--,0.000,0.000
"Cholesterol",mg,--,--,0,0
Amino Acids
Other
Ingredients
"PITTED MANZANILLA OLIVES, PIMIENTOS, CAPERS, WATER, SALT AND ACETIC ACID." Date available: 10/13/2017 Date last updated by company: 10/13/2017
