Source: USDA Branded Food Products Database Release December 2017 Software v.3.8.6.4 2017-10-02
Report Run at: December 18, 2017 00:02 EST
"Nutrient data for: 45232921, GOYA, NECTAR, PEAR, UPC: 041331027311"
Food Group:  Branded Food Products Database
Common Name:

Nutrient,Unit,Data points,Std. Error,"8.0 ONZ = 237.0g",1Value per 100 g,
Proximates
"Energy",kcal,--,--,161,68
"Protein",g,--,--,0.00,0.00
"Total lipid (fat)",g,--,--,0.00,0.00
"Carbohydrate, by difference",g,--,--,39.01,16.46
"Fiber, total dietary",g,--,--,0.9,0.4
"Sugars, total",g,--,--,32.00,13.50
Minerals
"Calcium, Ca",mg,--,--,19,8
"Iron, Fe",mg,--,--,0.73,0.31
"Sodium, Na",mg,--,--,14,6
Vitamins
"Vitamin C, total ascorbic acid",mg,--,--,60.7,25.6
"Vitamin A, IU",IU,--,--,102,43
Lipids
"Fatty acids, total saturated",g,--,--,0.000,0.000
"Fatty acids, total trans",g,--,--,0.000,0.000
"Cholesterol",mg,--,--,0,0
Amino Acids
Other
Ingredients
"WATER, PEAR PULP, HIGH FRUCTOSE CORN SYRUP, CORN SYRUP FOOD STARCH-MODIFIED, CITRIC ACID, ASCORBIC ACID (VITAMIN C)." Date available: 07/14/2017 Date last updated by company: 07/14/2017
