Source: USDA Branded Food Products Database Release December 2017 Software v.3.8.6.4 2017-10-02
Report Run at: December 18, 2017 00:00 EST
"Nutrient data for: 45050428, GOYA, FRUTA, CHIRIMOYA PULP, UPC: 041331091237"
Food Group:  Branded Food Products Database
Common Name:

Nutrient,Unit,Data points,Std. Error,"0.5 cup = 88.0g",1Value per 100 g,
Proximates
"Energy",kcal,--,--,80,91
"Protein",g,--,--,1.00,1.14
"Total lipid (fat)",g,--,--,0.00,0.00
"Carbohydrate, by difference",g,--,--,22.00,25.00
"Fiber, total dietary",g,--,--,1.0,1.1
"Sugars, total",g,--,--,0.00,0.00
Minerals
"Calcium, Ca",mg,--,--,20,23
"Iron, Fe",mg,--,--,0.36,0.41
"Sodium, Na",mg,--,--,0,0
Vitamins
"Vitamin C, total ascorbic acid",mg,--,--,3.0,3.4
"Vitamin A, IU",IU,--,--,0,0
Lipids
"Fatty acids, total saturated",g,--,--,0.000,0.000
"Fatty acids, total trans",g,--,--,0.000,0.000
"Cholesterol",mg,--,--,0,0
Amino Acids
Other
Ingredients
"CHIRIMOYA PULP" Date available: 09/23/2016 Date last updated by company: 09/23/2016
