Source: USDA Branded Food Products Database Release December 2017 Software v.3.8.6.4 2017-10-02
Report Run at: December 18, 2017 00:01 EST
"Nutrient data for: 45227787, GOYA, GANDULES PIGEON PEAS, UPC: 041331090247"
Food Group:  Branded Food Products Database
Common Name:

Nutrient,Unit,Data points,Std. Error,"0.66 cup = 77.0g",1Value per 100 g,
Proximates
"Energy",kcal,--,--,100,130
"Protein",g,--,--,5.00,6.49
"Total lipid (fat)",g,--,--,0.00,0.00
"Carbohydrate, by difference",g,--,--,0.02,0.02
"Fiber, total dietary",g,--,--,6.0,7.8
"Sugars, total",g,--,--,0.00,0.00
Minerals
"Calcium, Ca",mg,--,--,40,52
"Iron, Fe",mg,--,--,1.08,1.40
"Sodium, Na",mg,--,--,30,39
Vitamins
"Vitamin C, total ascorbic acid",mg,--,--,18.0,23.4
"Vitamin A, IU",IU,--,--,400,519
Lipids
"Fatty acids, total saturated",g,--,--,0.000,0.000
"Fatty acids, total trans",g,--,--,0.000,0.000
"Cholesterol",mg,--,--,0,0
Amino Acids
Other
Ingredients
"PIGEON PEAS" Date available: 03/03/2017 Date last updated by company: 03/03/2017
