Source: USDA Branded Food Products Database Release December 2017 Software v.3.8.6.4 2017-10-02
Report Run at: December 18, 2017 00:10 EST
"Nutrient data for: 45236925, GRACE, JERK MARINADE, UPC: 055270839720"
Food Group:  Branded Food Products Database
Common Name:

Nutrient,Unit,Data points,Std. Error,"2.0 Tbsp = 30.0g",1Value per 100 g,
Proximates
"Energy",kcal,--,--,35,117
"Protein",g,--,--,1.00,3.33
"Total lipid (fat)",g,--,--,1.00,3.33
"Carbohydrate, by difference",g,--,--,5.00,16.67
"Fiber, total dietary",g,--,--,1.0,3.3
"Sugars, total",g,--,--,3.00,10.00
Minerals
"Calcium, Ca",mg,--,--,0,0
"Iron, Fe",mg,--,--,1.20,4.00
"Sodium, Na",mg,--,--,920,3067
Vitamins
"Vitamin C, total ascorbic acid",mg,--,--,6.0,20.0
"Vitamin A, IU",IU,--,--,500,1667
Lipids
"Fatty acids, total saturated",g,--,--,0.201,0.670
"Fatty acids, total trans",g,--,--,0.000,0.000
"Cholesterol",mg,--,--,5,17
Amino Acids
Other
Ingredients
"WATER, SEASONING (SCALLION, HOT PEPPERS, SALT, SPICES AND HERBS, CITRIC ACID, SUGAR, SPICE EXTRACTS, SUNFLOWER OIL), SOY SAUCE (WATER, WHEAT, SOYBEANS, SALT, SODIUM BENZOATE (PRESERVATIVE)), ORANGE JUICE, SUGAR, ONIONS, VINEGAR, CANOLA OIL, HERBS AND SPICES, SALT, GARLIC, GLUCOSE SYRUP, CONCENTRATED LIME JUICE (CONTAINS SULFITES), TOMATO, DIJON MUSTARD (WATER, VINEGAR, MUSTARD SEEDS, SALT, WHITE WINE, FRUIT PECTIN, CITRIC ACID, TARTARIC ACID, SUGAR, SPICE), GARLIC POWDER, SPICE BLEND (SUGAR, SALT, RED PEPPER, CHILI PEPPER, DRIED GARLIC, DRIED ONION, SPICES, SUNFLOWER OIL, GARLIC EXTRACT), GINGER, COCOA POWDER, XANTHAN GUM, CARAMEL AND PAPRIKA EXTRACT USED AS COLORINGS, ONION POWDER, HABANERO HOT PEPPERS, POTASSIUM SORBATE (PRESERVATIVE)." Date available: 07/14/2017 Date last updated by company: 07/14/2017
