Source: USDA Branded Food Products Database Release December 2017 Software v.3.8.6.4 2017-10-02
Report Run at: December 18, 2017 00:10 EST
"Nutrient data for: 45231557, GRACE, FLAVORED SYRUP, CHERRY, UPC: 055270842492"
Food Group:  Branded Food Products Database
Common Name:

Nutrient,Unit,Data points,Std. Error,"0.25 cup = 60.0g",1Value per 100 g,
Proximates
"Energy",kcal,--,--,140,233
"Protein",g,--,--,0.00,0.00
"Total lipid (fat)",g,--,--,0.00,0.00
"Carbohydrate, by difference",g,--,--,36.00,60.00
"Sugars, total",g,--,--,36.00,60.00
Minerals
Vitamins
Lipids
Amino Acids
Other
Ingredients
"SUGAR, WATER, APPROVED NATURAL AND ARTIFICIAL FLAVORS, CITRIC ACID (ACIDULANT), APPROVED FOOD COLOR FD & C RED #40, 0.1% SODIUM BENZOATE (AS PRESERVATIVE)." Date available: 07/14/2017 Date last updated by company: 07/14/2017
