Source: USDA Branded Food Products Database Release December 2017 Software v.3.8.6.4 2017-10-02
Report Run at: December 18, 2017 00:16 EST
"Nutrient data for: 45277728, GRAHAM CRACKERS, UPC: 07078400317"
Food Group:  Branded Food Products Database
Common Name:

Nutrient,Unit,Data points,Std. Error,"2.0 WHOLE CRACKERS = 35.0g",1Value per 100 g,
Proximates
"Energy",kcal,--,--,140,400
"Protein",g,--,--,2.00,5.71
"Total lipid (fat)",g,--,--,2.00,5.71
"Carbohydrate, by difference",g,--,--,28.00,80.00
"Fiber, total dietary",g,--,--,2.0,5.7
"Sugars, total",g,--,--,8.00,22.86
Minerals
"Calcium, Ca",mg,--,--,150,429
"Iron, Fe",mg,--,--,1.54,4.41
"Potassium, K",mg,--,--,60,171
"Sodium, Na",mg,--,--,180,514
Vitamins
"Vitamin C, total ascorbic acid",mg,--,--,0.0,0.0
"Vitamin A, IU",IU,--,--,0,0
Lipids
"Fatty acids, total saturated",g,--,--,0.000,0.000
"Fatty acids, total monounsaturated",g,--,--,0.000,0.000
"Fatty acids, total polyunsaturated",g,--,--,1.001,2.860
"Fatty acids, total trans",g,--,--,0.000,0.000
"Cholesterol",mg,--,--,0,0
Amino Acids
Other
Ingredients
"ENRICHED FLOUR (WHEAT FLOUR, NIACIN, REDUCED IRON, THIAMIN MONONITRATE [VITAMIN B1], RIBOFLAVIN [VITAMIN B2], FOLIC ACID), GRAHAM FLOUR (WHOLE GRAIN WHEAT FLOUR), SUGAR, CANOLA AND/OR SOYBEAN AND/OR PALM OIL, HONEY, CONTAINS 2% OR LESS OF: CALCIUM CARBONATE (SOURCE OF CALCIUM), BAKING SODA, SALT, DATEM, SOY LECITHIN, ARTIFICIAL FLAVOR, SODIUM SULFITE." Date available: 07/14/2017 Date last updated by company: 07/14/2017
