Source: USDA Branded Food Products Database Release December 2017 Software v.3.8.6.4 2017-10-02
Report Run at: December 18, 2017 00:19 EST
"Nutrient data for: 45275214, GRAIN FREE GRANOLA, SOFT & CHEWY COCONUT CASHEW, UPC: 858660005183"
Food Group:  Branded Food Products Database
Common Name:

Nutrient,Unit,Data points,Std. Error,"0.25 cup = 28.0g",1Value per 100 g,
Proximates
"Energy",kcal,--,--,150,536
"Protein",g,--,--,4.00,14.29
"Total lipid (fat)",g,--,--,13.00,46.43
"Carbohydrate, by difference",g,--,--,9.00,32.14
"Fiber, total dietary",g,--,--,3.0,10.7
"Sugars, total",g,--,--,5.00,17.86
Minerals
"Calcium, Ca",mg,--,--,20,71
"Iron, Fe",mg,--,--,2.48,8.84
"Magnesium, Mg",mg,--,--,118,421
"Sodium, Na",mg,--,--,13,46
Vitamins
Lipids
"Fatty acids, total saturated",g,--,--,2.999,10.710
"Fatty acids, total monounsaturated",g,--,--,4.001,14.290
"Fatty acids, total polyunsaturated",g,--,--,5.001,17.860
"Fatty acids, total trans",g,--,--,0.000,0.000
"Cholesterol",mg,--,--,0,0
Amino Acids
Other
Ingredients
"MADE WITH 100% REAL FOOD INGREDIENTS: ORGANIC DATES, WALNUTS, ORGANIC COCONUT, SUNFLOWER SEEDS, PUMPKIN SEEDS, DRY ROASTED CASHEWS (CASHEWS, SEA SALT), PECANS, VANILLA BEAN." Date available: 10/13/2017 Date last updated by company: 10/13/2017
