Source: USDA Branded Food Products Database Release December 2017 Software v.3.8.6.4 2017-10-02
Report Run at: December 18, 2017 00:29 EST
"Nutrient data for: 45212851, GRANOLA COOKIE CRUNCH, UPC: 859621003118"
Food Group:  Branded Food Products Database
Common Name:

Nutrient,Unit,Data points,Std. Error,"1 ONZ = 28.0g",1Value per 100 g,
Proximates
"Energy",kcal,--,--,140,500
"Protein",g,--,--,2.00,7.14
"Total lipid (fat)",g,--,--,6.00,21.43
"Carbohydrate, by difference",g,--,--,18.00,64.29
"Fiber, total dietary",g,--,--,2.0,7.1
"Sugars, total",g,--,--,8.00,28.57
Minerals
"Calcium, Ca",mg,--,--,20,71
"Iron, Fe",mg,--,--,2.12,7.58
"Sodium, Na",mg,--,--,74,264
Vitamins
"Vitamin C, total ascorbic acid",mg,--,--,0.0,0.0
"Vitamin A, IU",IU,--,--,0,0
Lipids
"Fatty acids, total saturated",g,--,--,1.000,3.570
"Fatty acids, total trans",g,--,--,0.000,0.000
"Cholesterol",mg,--,--,8,29
Amino Acids
Other
Ingredients
"ROLLED OATS, ORGANIC CORN MEAL, DEMERARA SUGAR, CANOLA OIL, MOLASSES, EGG, COCONUT, FLAX SEED, SESAME SEED, HONEY, LEMON OIL, SALT, BAKING POWDER." Date available: 07/14/2017 Date last updated by company: 07/14/2017
