Source: USDA Branded Food Products Database Release December 2017 Software v.3.8.6.4 2017-10-02
Report Run at: December 18, 2017 00:33 EST
"Nutrient data for: 45205379, GRANOLA, UPC: 094922356802"
Food Group:  Branded Food Products Database
Common Name:

Nutrient,Unit,Data points,Std. Error,"2.0 ONZ = 57.0g",1Value per 100 g,
Proximates
"Energy",kcal,--,--,280,491
"Protein",g,--,--,9.00,15.79
"Total lipid (fat)",g,--,--,14.00,24.56
"Carbohydrate, by difference",g,--,--,32.00,56.14
"Fiber, total dietary",g,--,--,5.0,8.8
"Sugars, total",g,--,--,9.00,15.79
Minerals
"Calcium, Ca",mg,--,--,60,105
"Iron, Fe",mg,--,--,2.60,4.57
"Sodium, Na",mg,--,--,130,228
Vitamins
"Vitamin C, total ascorbic acid",mg,--,--,0.0,0.0
"Vitamin A, IU",IU,--,--,0,0
Lipids
"Fatty acids, total saturated",g,--,--,1.499,2.630
"Fatty acids, total trans",g,--,--,0.000,0.000
"Cholesterol",mg,--,--,0,0
Amino Acids
Other
Ingredients
"CERTIFIED GLUTEN-FREE OATS, CALIFORNIA ALMONDS, BROWN SUGAR, ORGANIC PUMPKIN SEEDS, CERTIFIED NON-GMO EXPELLER PRESSED CANOLA OIL, ORGANIC OAT BRAN, ORGANIC QUINOA FLAKES, PURE VANILLA EXTRACT, KOSHER SALT." Date available: 07/14/2017 Date last updated by company: 07/14/2017
