Source: USDA Branded Food Products Database Release December 2017 Software v.3.8.6.4 2017-10-02
Report Run at: December 18, 2017 00:33 EST
"Nutrient data for: 45188474, GRANOLA, UPC: 851141006785"
Food Group:  Branded Food Products Database
Common Name:

Nutrient,Unit,Data points,Std. Error,"0.25 cup = 26.0g",1Value per 100 g,
Proximates
"Energy",kcal,--,--,130,500
"Protein",g,--,--,2.00,7.69
"Total lipid (fat)",g,--,--,6.00,23.08
"Carbohydrate, by difference",g,--,--,16.00,61.54
"Fiber, total dietary",g,--,--,2.0,7.7
"Sugars, total",g,--,--,4.00,15.38
Minerals
"Calcium, Ca",mg,--,--,0,0
"Iron, Fe",mg,--,--,2.29,8.79
"Sodium, Na",mg,--,--,25,96
Vitamins
"Vitamin C, total ascorbic acid",mg,--,--,0.0,0.0
"Vitamin A, IU",IU,--,--,0,0
Lipids
"Fatty acids, total saturated",g,--,--,2.501,9.620
"Fatty acids, total trans",g,--,--,0.000,0.000
"Cholesterol",mg,--,--,0,0
Amino Acids
Other
Ingredients
"ROLLED OATS, SHREDDED COCONUT, EXPELLER PRESSED CANOLA OIL, DARK CHOCOLATE (CANE SUGAR, CHOCOLATE LIQUOR, COCOA BUTTER, SOY LECITHIN, PURE VANILLA), WILDFLOWER HONEY, BROWN RICE SYRUP, QUINOA, SEA SALT." Date available: 07/14/2017 Date last updated by company: 07/14/2017
