Source: USDA Branded Food Products Database Release December 2017 Software v.3.8.6.4 2017-10-02
Report Run at: December 18, 2017 00:23 EST
"Nutrient data for: 45154866, GRANDPA JOHN'S, PORK CRACKLIN DIPPERS, ORIGINAL, UPC: 024622511768"
Food Group:  Branded Food Products Database
Common Name:

Nutrient,Unit,Data points,Std. Error,"0.5 ONZ = 14.0g",1Value per 100 g,
Proximates
"Energy",kcal,--,--,80,571
"Protein",g,--,--,7.00,50.00
"Total lipid (fat)",g,--,--,6.00,42.86
"Carbohydrate, by difference",g,--,--,0.00,0.00
Minerals
"Sodium, Na",mg,--,--,370,2643
Vitamins
Lipids
"Fatty acids, total saturated",g,--,--,2.001,14.290
"Fatty acids, total monounsaturated",g,--,--,2.001,14.290
"Fatty acids, total polyunsaturated",g,--,--,1.000,7.140
"Fatty acids, total trans",g,--,--,0.000,0.000
"Cholesterol",mg,--,--,20,143
Amino Acids
Other
Ingredients
"PORK FAT WITH ATTACHED SKIN, SALT." Date available: 07/14/2017 Date last updated by company: 07/14/2017
