Source: USDA Branded Food Products Database Release December 2017 Software v.3.8.6.4 2017-10-02
Report Run at: December 18, 2017 00:22 EST
"Nutrient data for: 45030698, GRANDMA'S POMODORO SAUCE, UPC: 077890236987"
Food Group:  Branded Food Products Database
Common Name:

Nutrient,Unit,Data points,Std. Error,"0.5 cup = 124.0g",1Value per 100 g,
Proximates
"Energy",kcal,--,--,81,65
"Protein",g,--,--,2.00,1.61
"Total lipid (fat)",g,--,--,3.50,2.82
"Carbohydrate, by difference",g,--,--,11.00,8.87
"Fiber, total dietary",g,--,--,2.0,1.6
"Sugars, total",g,--,--,6.00,4.84
Minerals
"Calcium, Ca",mg,--,--,20,16
"Iron, Fe",mg,--,--,0.76,0.61
"Sodium, Na",mg,--,--,500,403
Vitamins
"Vitamin C, total ascorbic acid",mg,--,--,0.0,0.0
"Vitamin A, IU",IU,--,--,792,639
Lipids
"Fatty acids, total saturated",g,--,--,0.496,0.400
"Fatty acids, total trans",g,--,--,0.000,0.000
"Cholesterol",mg,--,--,0,0
Amino Acids
Other
Ingredients
"TOMATOES (CRUSHED TOMATOES, DICED TOMATOES, CITRIC ACID), WATER, ONION PUREE, EXTRA VIRGIN OLIVE OIL, SALT, ROASTED GARLIC (GARLIC, SOYBEAN OIL), BASIL." Date available: 06/24/2017 Date last updated by company: 06/24/2017
