Source: USDA Branded Food Products Database Release December 2017 Software v.3.8.6.4 2017-10-02
Report Run at: December 18, 2017 00:34 EST
"Nutrient data for: 45208846, GRANOLA, UPC: 085239132296"
Food Group:  Branded Food Products Database
Common Name:

Nutrient,Unit,Data points,Std. Error,"0.5 cup = 55.0g",1Value per 100 g,
Proximates
"Energy",kcal,--,--,250,455
"Protein",g,--,--,4.00,7.27
"Total lipid (fat)",g,--,--,8.00,14.55
"Carbohydrate, by difference",g,--,--,40.00,72.73
"Fiber, total dietary",g,--,--,4.0,7.3
"Sugars, total",g,--,--,14.00,25.45
Minerals
"Calcium, Ca",mg,--,--,20,36
"Iron, Fe",mg,--,--,1.44,2.62
"Potassium, K",mg,--,--,115,209
"Sodium, Na",mg,--,--,60,109
Vitamins
"Vitamin C, total ascorbic acid",mg,--,--,0.0,0.0
"Vitamin A, IU",IU,--,--,0,0
Lipids
"Fatty acids, total saturated",g,--,--,2.002,3.640
"Fatty acids, total monounsaturated",g,--,--,3.998,7.270
"Fatty acids, total polyunsaturated",g,--,--,2.002,3.640
"Fatty acids, total trans",g,--,--,0.000,0.000
"Cholesterol",mg,--,--,0,0
Amino Acids
Other
Ingredients
"WHOLE ROLLED OATS, MILLED CANE SUGAR, VEGETABLE OIL (CANOLA AND/OR SAFFLOWER AND/OR SUNFLOWER OIL), RICE FLOUR, CORNSTARCH, COCONUT, HONEY, NATURAL FLAVOR, SALT, BARLEY MALT SYRUP." Date available: 07/14/2017 Date last updated by company: 07/14/2017
