Source: USDA Branded Food Products Database Release December 2017 Software v.3.8.6.4 2017-10-02
Report Run at: December 18, 2017 00:41 EST
"Nutrient data for: 45213380, GRAPE JUICE COCKTAIL FROM CONCENTRATE, UPC: 015400560436"
Food Group:  Branded Food Products Database
Common Name:

Nutrient,Unit,Data points,Std. Error,"8.0 OZA = 240.0g",1Value per 100 g,
Proximates
"Energy",kcal,--,--,161,67
"Protein",g,--,--,0.00,0.00
"Total lipid (fat)",g,--,--,0.00,0.00
"Carbohydrate, by difference",g,--,--,40.01,16.67
"Sugars, total",g,--,--,39.00,16.25
Minerals
"Sodium, Na",mg,--,--,36,15
Vitamins
Lipids
Amino Acids
Other
Ingredients
"WATER, GRAPE JUICE CONCENTRATE, HIGH FRUCTOSE CORN SYRUP, CITRIC ACID, NATURAL FLAVOR." Date available: 08/20/2017 Date last updated by company: 08/20/2017
