Source: USDA Branded Food Products Database Release December 2017 Software v.3.8.6.4 2017-10-02
Report Run at: December 18, 2017 00:39 EST
"Nutrient data for: 45288896, GRAPE, APPLE & CHEESE BOUNTY TRAY, UPC: 826766145355"
Food Group:  Branded Food Products Database
Common Name:

Nutrient,Unit,Data points,Std. Error,"1 CONTAINER = 192.0g",1Value per 100 g,
Proximates
"Energy",kcal,--,--,280,146
"Protein",g,--,--,13.00,6.77
"Total lipid (fat)",g,--,--,15.99,8.33
"Carbohydrate, by difference",g,--,--,23.00,11.98
"Fiber, total dietary",g,--,--,3.1,1.6
"Sugars, total",g,--,--,18.01,9.38
Minerals
"Calcium, Ca",mg,--,--,349,182
"Iron, Fe",mg,--,--,0.19,0.10
"Sodium, Na",mg,--,--,309,161
Vitamins
"Vitamin C, total ascorbic acid",mg,--,--,1.5,0.8
"Vitamin A, IU",IU,--,--,131,68
Lipids
"Fatty acids, total saturated",g,--,--,10.003,5.210
"Fatty acids, total trans",g,--,--,0.000,0.000
"Cholesterol",mg,--,--,50,26
Amino Acids
Other
Ingredients
"APPLES (APPLES, CALCIUM ASCORBATE [A BLEND OF CALCIUM AND VITAMINS TO MAINTAIN COLOR]), GRAPES, MONTERREY JACK CHEESE (PASTEURIZED MILK, CHEESE CULTURES, SALT, ENZYMES, ANNATTO [COLOR]),POWDERED CELLULOSE (TO PREVENT CAKING),[MOLD INHIBITOR]" Date available: 07/14/2017 Date last updated by company: 07/14/2017
