Source: USDA Branded Food Products Database Release December 2017 Software v.3.8.6.4 2017-10-02
Report Run at: December 18, 2017 00:48 EST
"Nutrient data for: 45267836, GRASS FED GROUND BEEF, UPC: 708820647848"
Food Group:  Branded Food Products Database
Common Name:

Nutrient,Unit,Data points,Std. Error,"4.0 ONZ = 112.0g",1Value per 100 g,
Proximates
"Energy",kcal,--,--,240,214
"Protein",g,--,--,21.00,18.75
"Total lipid (fat)",g,--,--,17.00,15.18
"Carbohydrate, by difference",g,--,--,0.00,0.00
Minerals
"Iron, Fe",mg,--,--,2.05,1.83
"Sodium, Na",mg,--,--,75,67
Vitamins
Lipids
"Fatty acids, total saturated",g,--,--,7.000,6.250
"Cholesterol",mg,--,--,75,67
Amino Acids
Other
Ingredients
"GRASS FED GROUND BEEF." Date available: 07/14/2017 Date last updated by company: 07/14/2017
