Source: USDA Branded Food Products Database Release December 2017 Software v.3.8.6.4 2017-10-02
Report Run at: December 18, 2017 00:47 EST
"Nutrient data for: 45289387, GRASS FED GROUND BEEF SLIDERS, UPC: 040232532764"
Food Group:  Branded Food Products Database
Common Name:

Nutrient,Unit,Data points,Std. Error,"1 SLIDER = 70.0g",1Value per 100 g,
Proximates
"Energy",kcal,--,--,150,214
"Protein",g,--,--,11.00,15.71
"Total lipid (fat)",g,--,--,11.00,15.71
"Carbohydrate, by difference",g,--,--,0.00,0.00
"Fiber, total dietary",g,--,--,0.0,0.0
"Sugars, total",g,--,--,0.00,0.00
Minerals
"Calcium, Ca",mg,--,--,10,14
"Iron, Fe",mg,--,--,1.97,2.81
"Sodium, Na",mg,--,--,45,64
Vitamins
"Vitamin C, total ascorbic acid",mg,--,--,0.0,0.0
"Vitamin A, IU",IU,--,--,0,0
Lipids
"Fatty acids, total saturated",g,--,--,7.000,10.000
"Fatty acids, total trans",g,--,--,0.000,0.000
"Cholesterol",mg,--,--,30,43
Amino Acids
Other
Ingredients
"GRASS-FED BEEF." Date available: 09/09/2017 Date last updated by company: 09/09/2017
