Source: USDA Branded Food Products Database Release December 2017 Software v.3.8.6.4 2017-10-02
Report Run at: December 18, 2017 00:50 EST
"Nutrient data for: 45178041, GRATED PARMESAN CHEESE, UPC: 079834111572"
Food Group:  Branded Food Products Database
Common Name:

Nutrient,Unit,Data points,Std. Error,"1 Tbsp = 5.0g",1Value per 100 g,
Proximates
"Energy",kcal,--,--,25,500
"Protein",g,--,--,2.00,40.00
"Total lipid (fat)",g,--,--,2.00,40.00
"Carbohydrate, by difference",g,--,--,0.00,0.00
Minerals
"Calcium, Ca",mg,--,--,40,800
"Sodium, Na",mg,--,--,70,1400
Vitamins
"Vitamin A, IU",IU,--,--,0,0
Lipids
"Fatty acids, total saturated",g,--,--,1.000,20.000
"Fatty acids, total trans",g,--,--,0.000,0.000
"Cholesterol",mg,--,--,5,100
Amino Acids
Other
Ingredients
"PARMESAN CHEESE (PASTEURIZED COW'S MILK, SALT, ENZYMES), POWDERED CELLULOSE, STARCH BLEND TO PREVENT CAKING." Date available: 10/19/2017 Date last updated by company: 10/19/2017
