Source: USDA Branded Food Products Database Release December 2017 Software v.3.8.6.4 2017-10-02
Report Run at: December 18, 2017 00:53 EST
"Nutrient data for: 45027087, GRATIFY, GLUTEN FREE COOKIES, VANILLA, UPC: 819021011137"
Food Group:  Branded Food Products Database
Common Name:

Nutrient,Unit,Data points,Std. Error,"4.0 COOKIES = 30.0g",1Value per 100 g,
Proximates
"Energy",kcal,--,--,150,500
"Protein",g,--,--,0.00,0.00
"Total lipid (fat)",g,--,--,6.00,20.00
"Carbohydrate, by difference",g,--,--,23.00,76.67
"Fiber, total dietary",g,--,--,0.0,0.0
"Sugars, total",g,--,--,7.00,23.33
Minerals
"Sodium, Na",mg,--,--,95,317
Vitamins
Lipids
"Fatty acids, total saturated",g,--,--,3.000,10.000
"Fatty acids, total trans",g,--,--,0.000,0.000
"Cholesterol",mg,--,--,10,33
Amino Acids
Other
Ingredients
"CORN STARCH, SUGAR, PALM OIL, COM GLUCOSE SYRUP, WHOLE EGG POWDER, CELLULOSE GUM, POTATO STARCH, CARAMELIZED SUGAR, SALT, LEAVENING (SODIUM BICARBONATE, SODIUM PYROPHOSPHATE, AMMONIUM BICARBONATE), NATURAL FLAVORING VANILLA TYPE." Date available: 10/13/2017 Date last updated by company: 10/13/2017
