Source: USDA Branded Food Products Database Release December 2017 Software v.3.8.6.4 2017-10-02
Report Run at: December 18, 2017 01:07 EST
"Nutrient data for: 45332013, GREAT VALUE, CINNAMON ROLLS WITH ICING, UPC: 078742433981"
Food Group:  Branded Food Products Database
Common Name:

Nutrient,Unit,Data points,Std. Error,"1 ROLL WITH ICING = 44.0g",1Value per 100 g,
Proximates
"Energy",kcal,--,--,150,341
"Protein",g,--,--,2.00,4.55
"Total lipid (fat)",g,--,--,5.00,11.36
"Carbohydrate, by difference",g,--,--,23.00,52.27
"Fiber, total dietary",g,--,--,1.0,2.3
"Sugars, total",g,--,--,11.00,25.00
Minerals
"Calcium, Ca",mg,--,--,0,0
"Iron, Fe",mg,--,--,1.23,2.79
"Potassium, K",mg,--,--,15,34
"Sodium, Na",mg,--,--,300,682
Vitamins
"Vitamin C, total ascorbic acid",mg,--,--,0.0,0.0
"Vitamin A, IU",IU,--,--,0,0
Lipids
"Fatty acids, total saturated",g,--,--,2.499,5.680
"Fatty acids, total monounsaturated",g,--,--,1.500,3.410
"Fatty acids, total polyunsaturated",g,--,--,0.999,2.270
"Fatty acids, total trans",g,--,--,0.000,0.000
"Cholesterol",mg,--,--,0,0
Amino Acids
Other
Ingredients
"ENRICHED BLEACHED FLOUR [ WHEAT FLOUR, NIACIN, IRON, THIAMINE MONONITRATE [ VITAMIN B1], RIBOFLAVIN [ VITAMIN B2], FOLIC ACID), SUGAR, WATER, VEGETABLE OIL (PALM, SOYBEAN AND/OR COTTONSEED OILS). CONTAINS 2% OR LESS OF EACH OF THE FOLLOWING: LEAVENING (SODIUM ACID PYROPHOSPHATE, BAKING SODA, SODIUM ACID PYROPHOSPHATE, SODIUM ALUMINUM PHOSPHATE), CORN SYRUP, CINNAMON, EGGS, SALT, CORNSTARCH, MODIFIED WHEAT STARCH, MONO- AND DIGLYCERIDES, NATURAL AND ARTIFICIAL FLAVORS, MALTODEXTRIN, GUMS (XANTHAN, GUAR, CAROB BEAN), POLYSORBATE 60, SORBIC AND CITRIC ACID (PRESERVATIVE), COLORED WITH (YELLOW 5, YELLOW 6), SOY FLOUR." Date available: 09/08/2017 Date last updated by company: 09/08/2017
