Source: USDA Branded Food Products Database Release December 2017 Software v.3.8.6.4 2017-10-02
Report Run at: December 18, 2017 00:56 EST
"Nutrient data for: 45244174, GREAT AMERICAN BACON WRAPPED BEEF TENDERLOIN FILETS,  24-6 OUNCE INDIVIDUALLY WRAPPED STEAKS PER 9 POUND CATCH WEIGHT MASTER CASE., UNPREPARED, GTIN: 90079041195191"
Food Group:  Branded Food Products Database
Common Name:

Nutrient,Unit,Data points,Std. Error,"170.0 g = 170.0g",1Value per 100 g,
Proximates
"Energy",kcal,--,--,309,182
"Protein",g,--,--,25.99,15.29
"Total lipid (fat)",g,--,--,18.00,10.59
"Carbohydrate, by difference",g,--,--,0.00,0.00
"Fiber, total dietary",g,--,--,0.0,0.0
"Sugars, total",g,--,--,0.00,0.00
Minerals
"Calcium, Ca",mg,--,--,0,0
"Iron, Fe",mg,--,--,3.60,2.12
"Sodium, Na",mg,--,--,580,341
Vitamins
"Vitamin C, total ascorbic acid",mg,--,--,0.0,0.0
"Vitamin A, IU",IU,--,--,0,0
Lipids
"Fatty acids, total saturated",g,--,--,7.004,4.120
"Fatty acids, total trans",g,--,--,0.000,0.000
"Cholesterol",mg,--,--,95,56
Amino Acids
Other
Ingredients
"MECHANICALLY TENDERIZED. CONTAINS UP TO 5% WATER, SALT, SODIUM PHOSPHATE. BACON IS CURED WITH: WATER, SALT, SUGAR, SODIUM PHOSPHATE, SODIUM ERYTHORBATE, SODIUM NITRITE." Date last updated by company: 12/28/2016
