Source: USDA Branded Food Products Database Release December 2017 Software v.3.8.6.4 2017-10-02
Report Run at: December 18, 2017 01:05 EST
"Nutrient data for: 45165138, GREAT VALUE, CASHEWS, SRIRACHA, UPC: 078742133355"
Food Group:  Branded Food Products Database
Common Name:

Nutrient,Unit,Data points,Std. Error,"0.25 cup = 33.0g",1Value per 100 g,
Proximates
"Energy",kcal,--,--,190,576
"Protein",g,--,--,5.00,15.15
"Total lipid (fat)",g,--,--,16.00,48.48
"Carbohydrate, by difference",g,--,--,10.00,30.30
"Fiber, total dietary",g,--,--,1.0,3.0
"Sugars, total",g,--,--,2.00,6.06
Minerals
"Calcium, Ca",mg,--,--,20,61
"Iron, Fe",mg,--,--,2.73,8.26
"Potassium, K",mg,--,--,200,606
"Sodium, Na",mg,--,--,70,212
Vitamins
"Vitamin C, total ascorbic acid",mg,--,--,0.0,0.0
"Vitamin A, IU",IU,--,--,0,0
Lipids
"Fatty acids, total saturated",g,--,--,3.000,9.090
"Fatty acids, total monounsaturated",g,--,--,7.999,24.240
"Fatty acids, total polyunsaturated",g,--,--,3.000,9.090
"Fatty acids, total trans",g,--,--,0.000,0.000
"Cholesterol",mg,--,--,0,0
Amino Acids
Other
Ingredients
"CASHEWS, VEGETABLE OIL (PEANUT, COTTONSEED, SOYBEAN, CANOLA AND/OR SUNFLOWER SEED), CONTAINS LESS THAN 2% OF THE FOLLOWING: SUGAR, SALT, HOT SAUCE POWDER (RED PEPPER, DISTILLED VINEGAR, SALT), VINEGAR POWDER (MALTODEXTRIN, WHITE DISTILLED VINEGAR, MODIFIED CORNSTARCH), LIME JUICE POWDER (MALTODEXTRIN, LIME SOLIDS WITH LIME OIL), SPICES, GARLIC POWDER, CITRIC ACID, NATURAL EXTRACTIVE OF PAPRIKA, NATURALFLAVOR (INCLUDING NATURAL SPICE EXTRACTIVES)." Date available: 07/14/2017 Date last updated by company: 07/14/2017
