Source: USDA Branded Food Products Database Release December 2017 Software v.3.8.6.4 2017-10-02
Report Run at: December 18, 2017 00:57 EST
"Nutrient data for: 45228651, GREAT CATCH GUMMY FISH, UPC: 819893025430"
Food Group:  Branded Food Products Database
Common Name:

Nutrient,Unit,Data points,Std. Error,"9.0 PIECES = 40.0g",1Value per 100 g,
Proximates
"Energy",kcal,--,--,130,325
"Protein",g,--,--,2.00,5.00
"Total lipid (fat)",g,--,--,0.00,0.00
"Carbohydrate, by difference",g,--,--,29.00,72.50
"Sugars, total",g,--,--,18.00,45.00
Minerals
"Sodium, Na",mg,--,--,25,62
Vitamins
Lipids
Amino Acids
Other
Ingredients
"CORN SYRUP, SUGAR, WATER, GELATIN, CITRIC ACID, PECTIN (DERIVED FROM FRUIT), NATURAL AND ARTIFICIAL FLAVORS, VEGETABLE OIL (PALM) AND CARNAUBA LEAF WAX (TO PREVENT STICKING), FD&C YELLOW 5, RED 40, YELLOW 6, BLUE 1." Date available: 07/14/2017 Date last updated by company: 07/14/2017
