Source: USDA Branded Food Products Database Release December 2017 Software v.3.8.6.4 2017-10-02
Report Run at: December 18, 2017 01:06 EST
"Nutrient data for: 45080186, GREAT VALUE, CHICKEN NOODLE CONDENSED SOUP, UPC: 078742371627"
Food Group:  Branded Food Products Database
Common Name:

Nutrient,Unit,Data points,Std. Error,"0.5 cup = 123.0g",1Value per 100 g,
Proximates
"Energy",kcal,--,--,70,57
"Protein",g,--,--,3.00,2.44
"Total lipid (fat)",g,--,--,2.00,1.63
"Carbohydrate, by difference",g,--,--,9.00,7.32
"Fiber, total dietary",g,--,--,0.0,0.0
"Sugars, total",g,--,--,0.00,0.00
Minerals
"Calcium, Ca",mg,--,--,0,0
"Iron, Fe",mg,--,--,0.71,0.58
"Potassium, K",mg,--,--,41,33
"Sodium, Na",mg,--,--,891,724
Vitamins
"Vitamin C, total ascorbic acid",mg,--,--,0.0,0.0
"Vitamin A, IU",IU,--,--,598,486
Lipids
"Fatty acids, total saturated",g,--,--,0.504,0.410
"Fatty acids, total monounsaturated",g,--,--,0.504,0.410
"Fatty acids, total polyunsaturated",g,--,--,0.000,0.000
"Fatty acids, total trans",g,--,--,0.000,0.000
"Cholesterol",mg,--,--,15,12
Amino Acids
Other
Ingredients
"CHICKEN BROTH, ENRICHED NOODLES (ENRICHED FLOUR [WHEAT FLOUR, NIACIN, FERROUS SULFATE, THIAMINE MONONITRATE, RIBOFLAVIN, FOLIC ACID], WHOLE EGGS, EGG WHITES), COOKED DARK CHICKEN MEAT, CONTAINS 2% OR LESS OF SALT, MODIFIED CORNSTARCH, CHICKEN FAT, COOKED MECHANICALLY SEPARATED CHICKEN MEAT, MONOSODIUM GLUTAMATE, DRIED YEAST, GARLIC POWDER, SOY PROTEIN ISOLATE, ONION POWDER, YEAST EXTRACT,SODIUM PHOSPHATE, MALTODEXTRIN, GUM ACACIA, SUGAR, NATURAL FLAVOR, ARTIFICIAL FLAVOR, SODIUM ASCORBATE (PRESERVATIVE), BETA-CAROTENE (COLOR)." Date available: 07/14/2017 Date last updated by company: 07/14/2017
