Source: USDA Branded Food Products Database Release December 2017 Software v.3.8.6.4 2017-10-02
Report Run at: December 18, 2017 01:00 EST
"Nutrient data for: 45019271, GREAT NORTHERN BEANS, UPC: 011150031004"
Food Group:  Branded Food Products Database
Common Name:

Nutrient,Unit,Data points,Std. Error,"0.5 cup = 130.0g",1Value per 100 g,
Proximates
"Energy",kcal,--,--,120,92
"Protein",g,--,--,6.01,4.62
"Total lipid (fat)",g,--,--,0.49,0.38
"Carbohydrate, by difference",g,--,--,19.01,14.62
"Fiber, total dietary",g,--,--,4.9,3.8
"Sugars, total",g,--,--,1.00,0.77
Minerals
"Calcium, Ca",mg,--,--,40,31
"Iron, Fe",mg,--,--,1.44,1.11
"Sodium, Na",mg,--,--,350,269
Vitamins
"Vitamin C, total ascorbic acid",mg,--,--,1.2,0.9
"Vitamin A, IU",IU,--,--,0,0
Lipids
"Fatty acids, total saturated",g,--,--,0.000,0.000
"Fatty acids, total trans",g,--,--,0.000,0.000
"Cholesterol",mg,--,--,0,0
Amino Acids
Other
Ingredients
"PREPARED GREAT NORTHERN BEANS, WATER, SALT, CALCIUM CHLORIDE." Date available: 06/25/2017 Date last updated by company: 06/25/2017
