Source: USDA Branded Food Products Database Release December 2017 Software v.3.8.6.4 2017-10-02
Report Run at: December 18, 2017 00:56 EST
"Nutrient data for: 45244159, GREAT AMERICAN BEEF RIBEYE STEAK 16-10 OUNCE STEAKS PER 10 POUND CATCH WEIGHT MASTER CASE., UNPREPARED, GTIN: 90079041745020"
Food Group:  Branded Food Products Database
Common Name:

Nutrient,Unit,Data points,Std. Error,"283.0 g = 283.0g",1Value per 100 g,
Proximates
"Energy",kcal,--,--,399,141
"Protein",g,--,--,54.99,19.43
"Total lipid (fat)",g,--,--,20.01,7.07
"Carbohydrate, by difference",g,--,--,0.00,0.00
"Fiber, total dietary",g,--,--,0.0,0.0
"Sugars, total",g,--,--,0.00,0.00
Minerals
"Calcium, Ca",mg,--,--,0,0
"Iron, Fe",mg,--,--,4.50,1.59
"Sodium, Na",mg,--,--,181,64
Vitamins
"Vitamin C, total ascorbic acid",mg,--,--,0.0,0.0
"Vitamin A, IU",IU,--,--,0,0
Lipids
"Fatty acids, total saturated",g,--,--,8.009,2.830
"Fatty acids, total trans",g,--,--,0.000,0.000
"Cholesterol",mg,--,--,150,53
Amino Acids
Other
Ingredients
"ENHANCED WITH UP TO A 12% SOLUTION OF: WATER, RICE STARCH, SALT, LESS THAN 2% SOYBEAN OIL" Date last updated by company: 12/27/2016
