Source: USDA Branded Food Products Database Release December 2017 Software v.3.8.6.4 2017-10-02
Report Run at: December 18, 2017 01:01 EST
"Nutrient data for: 45225185, GREAT NORTHERN BEANS, UPC: 036800622128"
Food Group:  Branded Food Products Database
Common Name:

Nutrient,Unit,Data points,Std. Error,"0.25 cup = 36.0g",1Value per 100 g,
Proximates
"Energy",kcal,--,--,70,194
"Protein",g,--,--,8.00,22.22
"Total lipid (fat)",g,--,--,0.00,0.00
"Carbohydrate, by difference",g,--,--,22.00,61.11
"Fiber, total dietary",g,--,--,13.0,36.1
"Sugars, total",g,--,--,1.00,2.78
Minerals
"Calcium, Ca",mg,--,--,58,162
"Iron, Fe",mg,--,--,1.40,3.89
"Sodium, Na",mg,--,--,20,56
Vitamins
"Vitamin C, total ascorbic acid",mg,--,--,0.0,0.0
"Vitamin A, IU",IU,--,--,0,0
Lipids
"Fatty acids, total saturated",g,--,--,0.000,0.000
"Fatty acids, total trans",g,--,--,0.000,0.000
"Cholesterol",mg,--,--,0,0
Amino Acids
Other
Ingredients
"GREAT NORTHERN BEANS." Date available: 10/13/2017 Date last updated by company: 10/13/2017
