Source: USDA Branded Food Products Database Release December 2017 Software v.3.8.6.4 2017-10-02
Report Run at: December 18, 2017 00:57 EST
"Nutrient data for: 45008803, GREAT AMERICAN HAMBURGERS, QUARTER POUND BURGERS, UPC: 096423827409"
Food Group:  Branded Food Products Database
Common Name:

Nutrient,Unit,Data points,Std. Error,"113.0 g = 113.0g",1Value per 100 g,
Proximates
"Energy",kcal,--,--,330,292
"Protein",g,--,--,18.00,15.93
"Total lipid (fat)",g,--,--,28.00,24.78
"Carbohydrate, by difference",g,--,--,0.00,0.00
"Fiber, total dietary",g,--,--,0.0,0.0
"Sugars, total",g,--,--,0.00,0.00
Minerals
"Calcium, Ca",mg,--,--,20,18
"Iron, Fe",mg,--,--,1.80,1.59
"Sodium, Na",mg,--,--,75,66
Vitamins
"Vitamin C, total ascorbic acid",mg,--,--,0.0,0.0
"Vitamin A, IU",IU,--,--,0,0
Lipids
"Fatty acids, total saturated",g,--,--,10.99,9.73
"Fatty acids, total trans",g,--,--,1.50,1.33
"Cholesterol",mg,--,--,85,75
Amino Acids
Other
Ingredients
"BEEF." Date last updated by company: 11/04/2014
