Source: USDA Branded Food Products Database Release December 2017 Software v.3.8.6.4 2017-10-02
Report Run at: December 18, 2017 01:05 EST
"Nutrient data for: 45242791, GREAT VALUE, BLACK TEA DRINK ENHANCER, RASPBERRY, UPC: 078742047089"
Food Group:  Branded Food Products Database
Common Name:

Nutrient,Unit,Data points,Std. Error,"0.042 BOTTLE (ABOUT) = 2.0g",1Value per 100 g,
Proximates
"Energy",kcal,--,--,0,0
"Protein",g,--,--,0.00,0.00
"Total lipid (fat)",g,--,--,0.00,0.00
"Carbohydrate, by difference",g,--,--,1.00,50.00
"Sugars, total",g,--,--,1.00,50.00
Minerals
"Sodium, Na",mg,--,--,10,500
Vitamins
Lipids
Amino Acids
Other
Ingredients
"WATER, CARAMEL COLOR, MALIC ACID, NATURAL FLAVOR, BLACK TEA, SUCRALOSE (SWEETENER), CONTAINS LESS THAN 2% OF: CITRIC ACID, ACESULFAME POTASSIUM (SWEETENER), POTASSIUM SORBATE AND SODIUM BENZOATE (PRESERVATIVE)" Date available: 08/11/2017 Date last updated by company: 08/11/2017
