Source: USDA Branded Food Products Database Release December 2017 Software v.3.8.6.4 2017-10-02
Report Run at: December 18, 2017 01:18 EST
"Nutrient data for: 45005942, GREAT VALUE, LOWFAT YOGURT, BLUEBERRY, UPC: 078742143330"
Food Group:  Branded Food Products Database
Common Name:

Nutrient,Unit,Data points,Std. Error,"6.0 ONZ = 170.0g",1Value per 100 g,
Proximates
"Energy",kcal,--,--,150,88
"Protein",g,--,--,5.00,2.94
"Total lipid (fat)",g,--,--,1.50,0.88
"Carbohydrate, by difference",g,--,--,29.00,17.06
"Sugars, total",g,--,--,24.00,14.12
Minerals
"Calcium, Ca",mg,--,--,150,88
"Phosphorus, P",mg,--,--,150,88
"Potassium, K",mg,--,--,230,135
"Sodium, Na",mg,--,--,75,44
Vitamins
"Riboflavin",mg,--,--,0.340,0.200
"Vitamin A, IU",IU,--,--,750,441
"Vitamin D",IU,--,--,60,35
Lipids
"Fatty acids, total saturated",g,--,--,1.003,0.590
"Cholesterol",mg,--,--,5,3
Amino Acids
Other
Ingredients
"CULTURED GRADE A LOW FAT MILK, WATER, SUGAR, FRUCTOSE, MODIFIED FOOD STARCH, BLUEBERRY PUREE, CONTAINS LESS THAN 1% OF MODIFIED CORNSTARCH, KOSHER GELATIN, NATURAL FLAVOR, RED 40, BLUE 1, MALIC ACID, POTASSIUM SORBATE (TO MAINTAIN FRESHNESS), SODIUM CITRATE, VITAMIN A PALMITATE, VITAMIN D3." Date available: 06/25/2017 Date last updated by company: 06/25/2017
