Source: USDA Branded Food Products Database Release December 2017 Software v.3.8.6.4 2017-10-02
Report Run at: December 18, 2017 01:12 EST
"Nutrient data for: 45032700, GREAT VALUE, DRINK MIX, STRAWBERRY, UPC: 078742138756"
Food Group:  Branded Food Products Database
Common Name:

Nutrient,Unit,Data points,Std. Error,"0.125 PACKET = 1.1g",1Value per 100 g,
Proximates
"Energy",kcal,--,--,5,455
"Protein",g,--,--,0.00,0.00
"Total lipid (fat)",g,--,--,0.00,0.00
"Carbohydrate, by difference",g,--,--,0.00,0.00
"Sugars, total",g,--,--,0.00,0.00
Minerals
"Sodium, Na",mg,--,--,0,0
Vitamins
Lipids
Amino Acids
Other
Ingredients
"CITRIC ACID, MALTODEXTRIN, ASPARTAME**, RED 40, CALCIUM CITRATE, ACESULFAME POTASSIUM, ARTIFICIAL FLAVOR, CALCIUM SILICATE, MAGNESIUM OXIDE." Date available: 07/14/2017 Date last updated by company: 07/14/2017
