Source: USDA Branded Food Products Database Release December 2017 Software v.3.8.6.4 2017-10-02
Report Run at: December 18, 2017 01:33 EST
"Nutrient data for: 45184812, GREEK FROZEN YOGURT, UPC: 079893093239"
Food Group:  Branded Food Products Database
Common Name:

Nutrient,Unit,Data points,Std. Error,"0.5 cup = 102.0g",1Value per 100 g,
Proximates
"Energy",kcal,--,--,170,167
"Protein",g,--,--,7.00,6.86
"Total lipid (fat)",g,--,--,4.50,4.41
"Carbohydrate, by difference",g,--,--,26.00,25.49
"Fiber, total dietary",g,--,--,0.0,0.0
"Sugars, total",g,--,--,25.00,24.51
Minerals
"Calcium, Ca",mg,--,--,200,196
"Iron, Fe",mg,--,--,0.00,0.00
"Sodium, Na",mg,--,--,95,93
Vitamins
"Vitamin C, total ascorbic acid",mg,--,--,10.1,9.9
"Vitamin A, IU",IU,--,--,225,221
Lipids
"Fatty acids, total saturated",g,--,--,2.499,2.450
"Fatty acids, total trans",g,--,--,0.000,0.000
"Cholesterol",mg,--,--,20,20
Amino Acids
Other
Ingredients
"SKIM MILK, SUGAR, WATER, CREAM, SLICED PEACHES, PEACH PUREE, CULTURED DAIRY SOLIDS (WHEY PROTEIN, MILK PROTEIN, NON FAT DRY MILK, DRY CULTURED YOGURT, SODIUM CITRATE, NATURAL FLAVOR), CITRIC ACID, CONCENTRATED LEMON JUICE, VANILLA EXTRACT, NATURAL FLAVORS, LOCUST BEAN GUM, PECTIN, CARRAGEENAN, XANTHAN GUM, DEXTROSE, CONTAINS ACTIVE YOGURT CULTURES: LACTOBACILLUS ACIDOPHILUS, STREPTOCOCCUS THERMOPHILUS, AND LACTOBACILLUS BULGARICUS" Date available: 07/14/2017 Date last updated by company: 07/14/2017
