Source: USDA Branded Food Products Database Release December 2017 Software v.3.8.6.4 2017-10-02
Report Run at: December 18, 2017 01:47 EST
"Nutrient data for: 45114527, GREEK STYLE YOGURT DIP, UPC: 073570114804"
Food Group:  Branded Food Products Database
Common Name:

Nutrient,Unit,Data points,Std. Error,"2.0 Tbsp = 31.0g",1Value per 100 g,
Proximates
"Energy",kcal,--,--,40,129
"Protein",g,--,--,2.00,6.45
"Total lipid (fat)",g,--,--,2.50,8.06
"Carbohydrate, by difference",g,--,--,3.00,9.68
"Fiber, total dietary",g,--,--,0.4,1.3
"Sugars, total",g,--,--,2.00,6.45
Minerals
"Calcium, Ca",mg,--,--,60,194
"Iron, Fe",mg,--,--,0.00,0.00
"Sodium, Na",mg,--,--,180,581
Vitamins
"Vitamin C, total ascorbic acid",mg,--,--,0.0,0.0
"Vitamin A, IU",IU,--,--,0,0
Lipids
"Fatty acids, total saturated",g,--,--,1.500,4.840
"Fatty acids, total trans",g,--,--,0.000,0.000
"Cholesterol",mg,--,--,10,32
Amino Acids
Other
Ingredients
"GREEK STYLE YOGURT(PASTEURIZED MILK, ULTRA FILTERED SKIM MILK AND CREAM CULTURES), SALT, DEHYDRATED ONION, SUGAR, MODIFIED CORN STARCH, MONOSODIUM GLUTAMATE, MALTODEXTRIN, PARSLEY, SPICES, GELATIN, NATURAL FLAVORS, POTASSIUM SORBATE (TO PRESERVE FRESHNESS)." Date available: 06/25/2017 Date last updated by company: 06/25/2017
