Source: USDA Branded Food Products Database Release December 2017 Software v.3.8.6.4 2017-10-02
Report Run at: December 18, 2017 02:14 EST
"Nutrient data for: 45274749, GREEN PEPPER SAUCE, UPC: 011210005808"
Food Group:  Branded Food Products Database
Common Name:

Nutrient,Unit,Data points,Std. Error,"1 tsp = 5.0g",1Value per 100 g,
Proximates
"Energy",kcal,--,--,0,0
"Protein",g,--,--,0.00,0.00
"Total lipid (fat)",g,--,--,0.00,0.00
"Carbohydrate, by difference",g,--,--,0.00,0.00
Minerals
"Sodium, Na",mg,--,--,150,3000
Vitamins
"Vitamin C, total ascorbic acid",mg,--,--,43.2,864.0
Lipids
"Fatty acids, total trans",g,--,--,0.000,0.000
Amino Acids
Other
Ingredients
"DISTILLED VINEGAR, JALAPENO PEPPER, WATER, SALT, CORNSTARCH, XANTHAN GUM, ASCORBIC ACID ""TO PRESERVE FRESHNESS""." Date available: 07/14/2017 Date last updated by company: 07/14/2017
