Source: USDA Branded Food Products Database Release December 2017 Software v.3.8.6.4 2017-10-02
Report Run at: December 18, 2017 02:25 EST
"Nutrient data for: 45164507, GREEN WAY, ORGANIC SMOOTHIE, MANGO, UPC: 070625780175"
Food Group:  Branded Food Products Database
Common Name:

Nutrient,Unit,Data points,Std. Error,"1 BOTTLE = 325.0g",1Value per 100 g,
Proximates
"Energy",kcal,--,--,202,62
"Protein",g,--,--,1.01,0.31
"Total lipid (fat)",g,--,--,0.00,0.00
"Carbohydrate, by difference",g,--,--,49.01,15.08
"Fiber, total dietary",g,--,--,1.0,0.3
"Sugars, total",g,--,--,44.01,13.54
Minerals
"Calcium, Ca",mg,--,--,20,6
"Iron, Fe",mg,--,--,0.26,0.08
"Potassium, K",mg,--,--,520,160
"Sodium, Na",mg,--,--,36,11
Vitamins
"Vitamin C, total ascorbic acid",mg,--,--,22.1,6.8
"Vitamin A, IU",IU,--,--,3692,1136
Lipids
"Fatty acids, total saturated",g,--,--,0.000,0.000
"Fatty acids, total trans",g,--,--,0.000,0.000
"Cholesterol",mg,--,--,0,0
Amino Acids
Other
Ingredients
"ORGANIC MANGO JUICE FROM CONCENTRATE (WATER, ORGANIC MANGO PUREE CONCENTRATE), ORGANIC APPLE JUICE FROM CONCENTRATES (WATER, ORGANIC APPLE JUICE AND PUREE CONCENTRATES), ORGANIC BANANA PUREE, ORGANIC ORANGE JUICE CONCENTRATE, ORGANIC CARROT JUICE CONCENTRATE ORGANIC LEMON JUICE CONCENTRATE, NATURAL FLAVORS." Date available: 07/14/2017 Date last updated by company: 07/14/2017
