Source: USDA Branded Food Products Database Release December 2017 Software v.3.8.6.4 2017-10-02
Report Run at: December 18, 2017 01:50 EST
"Nutrient data for: 45211751, GREEK YOGURT DIP, UPC: 087709082452"
Food Group:  Branded Food Products Database
Common Name:

Nutrient,Unit,Data points,Std. Error,"2.0 Tbsp = 30.0g",1Value per 100 g,
Proximates
"Energy",kcal,--,--,80,267
"Protein",g,--,--,3.00,10.00
"Total lipid (fat)",g,--,--,5.00,16.67
"Carbohydrate, by difference",g,--,--,3.00,10.00
"Fiber, total dietary",g,--,--,0.0,0.0
"Sugars, total",g,--,--,1.00,3.33
Minerals
"Calcium, Ca",mg,--,--,60,200
"Iron, Fe",mg,--,--,0.00,0.00
"Sodium, Na",mg,--,--,115,383
Vitamins
"Vitamin C, total ascorbic acid",mg,--,--,15.0,50.0
"Vitamin A, IU",IU,--,--,2084,6945
Lipids
"Fatty acids, total saturated",g,--,--,3.501,11.670
"Fatty acids, total trans",g,--,--,0.000,0.000
"Cholesterol",mg,--,--,20,67
Amino Acids
Other
Ingredients
"GREEK STYLE YOGURT (CULTURED PASTEURIZED GRADE A NON FAT MILK, CREAM, WHEY PROTEIN CONCENTRATE, PECTIN, SALT), FETA CHEESE (PASTEURIZED MILK CHEESE CULTURES, SALT, ENZYMES, NATAMYCIN TO PROTECT FLAVOR), KALE, GARLIC PUREE (ROASTED GARLIC, WATER), CULTURED SKIM MILK, OLIVE, OIL, ONION POWDER, BLACK PEPPER. CONTAINS: LIVE ACTIVE YOGURT AND PROBIOTIC CULTURES (S. THERMOPHILUS, L. BULGARICUS, L. ACIDOPHILUS AND L. CAUCASICUS)." Date available: 07/14/2017 Date last updated by company: 07/14/2017
