Source: USDA Branded Food Products Database Release December 2017 Software v.3.8.6.4 2017-10-02
Report Run at: December 18, 2017 02:12 EST
"Nutrient data for: 45285153, GREEN OLIVES WITH GARLIC, UPC: 8010503038181"
Food Group:  Branded Food Products Database
Common Name:

Nutrient,Unit,Data points,Std. Error,"3.0 OLIVES = 15.0g",1Value per 100 g,
Proximates
"Energy",kcal,--,--,26,173
"Protein",g,--,--,0.00,0.00
"Total lipid (fat)",g,--,--,3.00,20.00
"Carbohydrate, by difference",g,--,--,1.00,6.67
"Fiber, total dietary",g,--,--,0.5,3.3
"Sugars, total",g,--,--,0.00,0.00
Minerals
"Calcium, Ca",mg,--,--,10,67
"Iron, Fe",mg,--,--,0.00,0.00
"Sodium, Na",mg,--,--,217,1447
Vitamins
"Vitamin C, total ascorbic acid",mg,--,--,0.0,0.0
"Vitamin A, IU",IU,--,--,166,1110
Lipids
"Fatty acids, total saturated",g,--,--,0.400,2.670
"Fatty acids, total trans",g,--,--,0.000,0.000
"Cholesterol",mg,--,--,0,0
Amino Acids
Other
Ingredients
"PITTED GREEN OLIVES 65%, SUNFLOWER SEED OIL, SLICED GARLIC 5%, SALT, SPICES, ACIDITY REGULATOR: LACTIC ACID AND CITRIC ACID, ANTIOXIDANT: ASCORBIC ACID." Date available: 07/14/2017 Date last updated by company: 07/14/2017
