Source: USDA Branded Food Products Database Release December 2017 Software v.3.8.6.4 2017-10-02
Report Run at: December 18, 2017 01:41 EST
"Nutrient data for: 45220838, GREEK NONFAT YOGURT, UPC: 086854060193"
Food Group:  Branded Food Products Database
Common Name:

Nutrient,Unit,Data points,Std. Error,"1 CONTAINER = 150.0g",1Value per 100 g,
Proximates
"Energy",kcal,--,--,120,80
"Protein",g,--,--,12.00,8.00
"Total lipid (fat)",g,--,--,0.00,0.00
"Carbohydrate, by difference",g,--,--,19.00,12.67
"Fiber, total dietary",g,--,--,1.1,0.7
"Sugars, total",g,--,--,18.00,12.00
Minerals
"Calcium, Ca",mg,--,--,150,100
"Iron, Fe",mg,--,--,0.00,0.00
"Potassium, K",mg,--,--,230,153
"Sodium, Na",mg,--,--,70,47
Vitamins
"Vitamin C, total ascorbic acid",mg,--,--,0.0,0.0
"Vitamin A, IU",IU,--,--,0,0
Lipids
"Fatty acids, total saturated",g,--,--,0.000,0.000
"Fatty acids, total trans",g,--,--,0.000,0.000
"Cholesterol",mg,--,--,10,7
Amino Acids
Other
Ingredients
"CULTURED PASTEURIZED SKIM MILK, SUGAR, BLUEBERRIES, NATURAL FLAVORS, LOCUST BEAN GUM, PECTIN, SODIUM CITRATE, CITRIC ACID, FRUIT AND VEGETABLE JUICE CONCENTRATES FOR COLOR, CALCIUM CHLORIDE. CONTAINS FIVE LIVE ACTIVE CULTURES INCLUDING: S. THERMOPHILUS, L. BULGARICUS, L. ACIDOPHILUS, BIFIDUS AND L. CASEI." Date available: 07/14/2017 Date last updated by company: 07/14/2017
