Source: USDA Branded Food Products Database Release December 2017 Software v.3.8.6.4 2017-10-02
Report Run at: December 18, 2017 02:07 EST
"Nutrient data for: 45170300, GREEN CURRY PASTE, UPC: 899121001399"
Food Group:  Branded Food Products Database
Common Name:

Nutrient,Unit,Data points,Std. Error,"1 PACK = 43.0g",1Value per 100 g,
Proximates
"Energy",kcal,--,--,60,140
"Protein",g,--,--,1.00,2.33
"Total lipid (fat)",g,--,--,2.50,5.81
"Carbohydrate, by difference",g,--,--,9.00,20.93
"Fiber, total dietary",g,--,--,1.0,2.3
"Sugars, total",g,--,--,1.00,2.33
Minerals
"Calcium, Ca",mg,--,--,20,47
"Iron, Fe",mg,--,--,1.26,2.92
"Sodium, Na",mg,--,--,1720,4000
Vitamins
"Vitamin C, total ascorbic acid",mg,--,--,14.0,32.5
"Vitamin A, IU",IU,--,--,0,0
Lipids
"Fatty acids, total saturated",g,--,--,0.499,1.160
"Fatty acids, total trans",g,--,--,0.000,0.000
"Cholesterol",mg,--,--,0,0
Amino Acids
Other
Ingredients
"GARLIC, GREEN CHILI PEPPER, LEMON GRASS, ONION, RICE BRAN OIL, SALT, BLACK GINGER, GALANGAL (THAI GINGER), SPICES, KAFFIR LIME PEEL, CILANTRO, COCONUT PALM SUGAR." Date available: 07/14/2017 Date last updated by company: 07/14/2017
