Source: USDA Branded Food Products Database Release December 2017 Software v.3.8.6.4 2017-10-02
Report Run at: December 18, 2017 01:47 EST
"Nutrient data for: 45214450, GREEK STYLE YOGURT COATED CRANBERRIES, UPC: 050428479650"
Food Group:  Branded Food Products Database
Common Name:

Nutrient,Unit,Data points,Std. Error,"0.25 cup = 40.0g",1Value per 100 g,
Proximates
"Energy",kcal,--,--,180,450
"Protein",g,--,--,2.00,5.00
"Total lipid (fat)",g,--,--,8.00,20.00
"Carbohydrate, by difference",g,--,--,27.00,67.50
"Fiber, total dietary",g,--,--,1.0,2.5
"Sugars, total",g,--,--,24.00,60.00
Minerals
"Calcium, Ca",mg,--,--,60,150
"Iron, Fe",mg,--,--,0.00,0.00
"Sodium, Na",mg,--,--,30,75
Vitamins
"Vitamin C, total ascorbic acid",mg,--,--,0.0,0.0
"Vitamin A, IU",IU,--,--,0,0
Lipids
"Fatty acids, total saturated",g,--,--,7.000,17.500
"Fatty acids, total trans",g,--,--,0.000,0.000
"Cholesterol",mg,--,--,0,0
Amino Acids
Other
Ingredients
"GREEK-STYLE YOGURT COATING (SUGAR, PALM KERNEL OIL, LACTOSE, NONFAT DRY MILK SOLIDS, YOGURT POWDER, LACTIC ACID, SOY LECITHIN [AN EMULSIFIER], NATURAL FLAVOR), CRANBERRIES, TAPIOCA DEXTRIN, CONFECTIONER'S GLAZE." Date available: 07/14/2017 Date last updated by company: 07/14/2017
