Source: USDA Branded Food Products Database Release December 2017 Software v.3.8.6.4 2017-10-02
Report Run at: December 18, 2017 02:13 EST
"Nutrient data for: 45209440, GREEN PEAS, UPC: 018894317432"
Food Group:  Branded Food Products Database
Common Name:

Nutrient,Unit,Data points,Std. Error,"0.66 cup = 93.0g",1Value per 100 g,
Proximates
"Energy",kcal,--,--,80,86
"Protein",g,--,--,5.00,5.38
"Total lipid (fat)",g,--,--,0.00,0.00
"Carbohydrate, by difference",g,--,--,14.00,15.05
"Fiber, total dietary",g,--,--,6.0,6.5
"Sugars, total",g,--,--,4.00,4.30
Minerals
"Calcium, Ca",mg,--,--,40,43
"Iron, Fe",mg,--,--,0.99,1.06
"Potassium, K",mg,--,--,170,183
"Sodium, Na",mg,--,--,30,32
Vitamins
"Vitamin C, total ascorbic acid",mg,--,--,16.5,17.7
"Vitamin A, IU",IU,--,--,365,393
Lipids
"Fatty acids, total saturated",g,--,--,0.000,0.000
"Fatty acids, total trans",g,--,--,0.000,0.000
"Cholesterol",mg,--,--,0,0
Amino Acids
Other
Ingredients
"SWEET PEAS." Date available: 07/14/2017 Date last updated by company: 07/14/2017
