Source: USDA Branded Food Products Database Release December 2017 Software v.3.8.6.4 2017-10-02
Report Run at: December 18, 2017 01:41 EST
"Nutrient data for: 45221038, GREEK NON FAT YOGURT, UPC: 607880032116"
Food Group:  Branded Food Products Database
Common Name:

Nutrient,Unit,Data points,Std. Error,"1 CONTAINER = 170.0g",1Value per 100 g,
Proximates
"Energy",kcal,--,--,150,88
"Protein",g,--,--,14.01,8.24
"Total lipid (fat)",g,--,--,0.00,0.00
"Carbohydrate, by difference",g,--,--,24.00,14.12
"Fiber, total dietary",g,--,--,1.0,0.6
"Sugars, total",g,--,--,23.00,13.53
Minerals
"Calcium, Ca",mg,--,--,150,88
"Potassium, K",mg,--,--,291,171
"Sodium, Na",mg,--,--,75,44
Vitamins
"Vitamin C, total ascorbic acid",mg,--,--,2.4,1.4
Lipids
"Cholesterol",mg,--,--,10,6
Amino Acids
Other
Ingredients
"CULTURED PASTEURIZED SKIM MILK, SUGAR, PINEAPPLE JUICE, PECTIN, NATURAL FLAVOR, LOCUST BEAN GUM, TURMERIC (FOR COLOR). CONTAINS FIVE LIVE ACTIVE CULTURES INCLUDING S. THERMOPHILUS, L. BULGARICUS, L. ACIDOPHILUS, BIFIDUS, AND L. CASEI." Date available: 10/19/2017 Date last updated by company: 10/19/2017
