Source: USDA Branded Food Products Database Release December 2017 Software v.3.8.6.4 2017-10-02
Report Run at: December 18, 2017 01:43 EST
"Nutrient data for: 45195612, GREEK ORGANIC NONFAT STRAINED YOGURT, UPC: 079893406282"
Food Group:  Branded Food Products Database
Common Name:

Nutrient,Unit,Data points,Std. Error,"1 cup = 227.0g",1Value per 100 g,
Proximates
"Energy",kcal,--,--,191,84
"Protein",g,--,--,17.00,7.49
"Total lipid (fat)",g,--,--,0.00,0.00
"Carbohydrate, by difference",g,--,--,31.01,13.66
"Fiber, total dietary",g,--,--,0.9,0.4
"Sugars, total",g,--,--,25.99,11.45
Minerals
"Calcium, Ca",mg,--,--,200,88
"Iron, Fe",mg,--,--,0.54,0.24
"Sodium, Na",mg,--,--,91,40
Vitamins
"Vitamin C, total ascorbic acid",mg,--,--,1.8,0.8
"Vitamin A, IU",IU,--,--,75,33
Lipids
"Fatty acids, total saturated",g,--,--,0.000,0.000
"Fatty acids, total trans",g,--,--,0.000,0.000
"Cholesterol",mg,--,--,16,7
Amino Acids
Other
Ingredients
"ORGANIC PASTEURIZED NONFAT GRADE A MILK, VANILLA BASE (ORGANIC CANE SUGAR, WATER, NATURAL FLAVOR, ORGANIC LOCUST BEAN GUM, ORGANIC VANILLA EXTRACT, PECTIN, ORGANIC LEMON JUICE CONCENTRATE, CALCIUM CITRATE), LIVE AND ACTIVE CULTURES (L. BULGARICUS, S. THERMOPHILUS, L. ACIDOPHILUS, BIFIDUS, L CASEI)." Date available: 07/14/2017 Date last updated by company: 07/14/2017
