Source: USDA Branded Food Products Database Release December 2017 Software v.3.8.6.4 2017-10-02
Report Run at: December 18, 2017 01:44 EST
"Nutrient data for: 45187423, GREEK PIZZA, UPC: 723055863887"
Food Group:  Branded Food Products Database
Common Name:

Nutrient,Unit,Data points,Std. Error,"0.5 PIZZA = 131.0g",1Value per 100 g,
Proximates
"Energy",kcal,--,--,290,221
"Protein",g,--,--,13.00,9.92
"Total lipid (fat)",g,--,--,9.00,6.87
"Carbohydrate, by difference",g,--,--,38.00,29.01
"Fiber, total dietary",g,--,--,1.0,0.8
"Sugars, total",g,--,--,2.00,1.53
Minerals
"Calcium, Ca",mg,--,--,200,153
"Iron, Fe",mg,--,--,4.02,3.07
"Sodium, Na",mg,--,--,740,565
Vitamins
"Vitamin C, total ascorbic acid",mg,--,--,8.9,6.8
"Vitamin A, IU",IU,--,--,1116,852
Lipids
"Fatty acids, total saturated",g,--,--,4.506,3.440
"Fatty acids, total trans",g,--,--,0.000,0.000
"Cholesterol",mg,--,--,20,15
Amino Acids
Other
Ingredients
"PIZZA CRUST (WHEAT FLOUR, RBST FREE UNSALTED BUTTER, SALT, SUGAR, OLIVE OIL, YEAST), MOZZARELLA CHEESE (PASTEURIZED MILK, CULTURES, SALT, ENZYMES, CALCIUM CHLORIDE), TOMATOES, RED PEPPERS (PEPPERS, SALT, SUGAR, CITRIC ACID, CALCIUM CHLORIDE), ARTICHOKE HEARTS, FRTA CHEESE (CULTURED PASTEURIZED MILK, ENZYMES, CALCIUM CHLORIDE), KALAMATA OLIVES (SALT, RED WINE VINEGAR, EXTRA VIRGIN OLIVE OIL *MAY CONTAIN PITS*), GARLIC CLOVES, ONIONS, SPINACH, PARSLEY, EXTRA VIRGIN OLIVE OIL, APPLE CIDER VINEGAR (DISTILLED VINEGAR, CARAMEL COLOR), BASIL, PARMESAN CHEESE (PASTEURIZED COW'S MILK, STARTERS, RENNET, ENZYMES), WALNUTS (TREE NUTS), OREGANO, CRUSHED RED PEPPER, CANOLA OIL, BLACK PEPPER SUNFLOWER OIL, SUNFLOWER LECITHIN, NATURAL FLAVOR." Date available: 07/14/2017 Date last updated by company: 07/14/2017
