Source: USDA Branded Food Products Database Release December 2017 Software v.3.8.6.4 2017-10-02
Report Run at: December 18, 2017 01:59 EST
"Nutrient data for: 45054021, GREEK YOGURT WITH STEEL CUT OATS, UPC: 818290013941"
Food Group:  Branded Food Products Database
Common Name:

Nutrient,Unit,Data points,Std. Error,"1 CONTAINER = 150.0g",1Value per 100 g,
Proximates
"Energy",kcal,--,--,160,107
"Protein",g,--,--,10.01,6.67
"Total lipid (fat)",g,--,--,2.00,1.33
"Carbohydrate, by difference",g,--,--,27.00,18.00
"Fiber, total dietary",g,--,--,3.0,2.0
"Sugars, total",g,--,--,17.00,11.33
Minerals
"Calcium, Ca",mg,--,--,100,67
"Iron, Fe",mg,--,--,0.41,0.27
"Sodium, Na",mg,--,--,50,33
Vitamins
"Vitamin C, total ascorbic acid",mg,--,--,2.7,1.8
"Vitamin A, IU",IU,--,--,0,0
Lipids
"Fatty acids, total saturated",g,--,--,1.005,0.670
"Fatty acids, total trans",g,--,--,0.000,0.000
"Cholesterol",mg,--,--,10,7
Amino Acids
Other
Ingredients
"LOWFAT YOGURT (CULTURED PASTEURIZED NONFAT MILK, CREAM, LIVE AND ACTIVE CULTURES: S. THERMOPHILUS, L. BULGARICUS, L. ACIDOPHILUS, BIFIDUS AND L. CASEI), WATER, EVAPORATED CANE JUICE, CRANBERRIES, STEEL-CUT OATS, OAT FIBER, PECTIN, NATURAL FLAVORS, LEMON JUICE CONCENTRATE, LOCUST BEAN GUM, FRUIT AND VEGETABLE JUICE CONCENTRATE (FOR COLOR)." Date available: 10/13/2017 Date last updated by company: 10/13/2017
