Source: USDA Branded Food Products Database Release December 2017 Software v.3.8.6.4 2017-10-02
Report Run at: December 18, 2017 01:57 EST
"Nutrient data for: 45278743, GREEK YOGURT, UPC: 894700010205"
Food Group:  Branded Food Products Database
Common Name:

Nutrient,Unit,Data points,Std. Error,"1 CONTAINER = 150.0g",1Value per 100 g,
Proximates
"Energy",kcal,--,--,160,107
"Protein",g,--,--,10.01,6.67
"Total lipid (fat)",g,--,--,3.50,2.33
"Carbohydrate, by difference",g,--,--,21.00,14.00
"Fiber, total dietary",g,--,--,1.1,0.7
"Sugars, total",g,--,--,17.00,11.33
Minerals
"Calcium, Ca",mg,--,--,150,100
"Iron, Fe",mg,--,--,1.23,0.82
"Sodium, Na",mg,--,--,64,43
Vitamins
"Vitamin C, total ascorbic acid",mg,--,--,5.4,3.6
"Vitamin A, IU",IU,--,--,0,0
Lipids
"Fatty acids, total saturated",g,--,--,2.505,1.670
"Fatty acids, total trans",g,--,--,0.000,0.000
"Cholesterol",mg,--,--,10,7
Amino Acids
Other
Ingredients
"LOWFAT YOGURT (CULTURED PASTEURIZED NONFAT MILK, CREAM, LIVE AND ACTIVE CULTURES S. THERMOPHILUS, BULGARICUS, L. ACIDOPHILUS, BIFIDUS AND L. CASEI), RASPBERRIES, EVAPORATED CANE JUICE, CHOCOLATE SPLITS CHOCOLATE, COCOA BUTTER, SUGAR), NATURAL FLAVORS, PECTIN, LOCUST BEAN GUM, GUAR GUM, FRUIT AND VEGETABLE JUICE CONCENTRATE (FOR COLOR)." Date available: 07/14/2017 Date last updated by company: 07/14/2017
