Source: USDA Branded Food Products Database Release December 2017 Software v.3.8.6.4 2017-10-02
Report Run at: December 18, 2017 02:02 EST
"Nutrient data for: 45119632, GREEN & BLACK'S, ORGANIC DARK CHOCOLATE, SPICED CHILI, UPC: 708656000091"
Food Group:  Branded Food Products Database
Common Name:

Nutrient,Unit,Data points,Std. Error,"12.0 PIECES = 40.0g",1Value per 100 g,
Proximates
"Energy",kcal,--,--,230,575
"Protein",g,--,--,3.00,7.50
"Total lipid (fat)",g,--,--,15.00,37.50
"Carbohydrate, by difference",g,--,--,21.00,52.50
"Fiber, total dietary",g,--,--,4.0,10.0
"Sugars, total",g,--,--,15.00,37.50
Minerals
"Calcium, Ca",mg,--,--,0,0
"Iron, Fe",mg,--,--,0.00,0.00
"Sodium, Na",mg,--,--,20,50
Vitamins
"Vitamin C, total ascorbic acid",mg,--,--,0.0,0.0
"Vitamin A, IU",IU,--,--,0,0
Lipids
"Fatty acids, total saturated",g,--,--,9.000,22.500
"Fatty acids, total trans",g,--,--,0.000,0.000
"Cholesterol",mg,--,--,0,0
Amino Acids
Other
Ingredients
"ORGANIC BITTERSWEET CHOCOLATE (ORGANIC CHOCOLATE, ORGANIC RAW CANE SUGAR, ORGANIC COCOA BUTTER, SOY LECITHIN [EMULSIFIER]. ORGANIC VANILLA EXTRACT), ORGANIC CHILI EXTRACT, ORGANIC NATURAL FLAVORS." Date available: 06/25/2017 Date last updated by company: 06/25/2017
