Source: USDA Branded Food Products Database Release December 2017 Software v.3.8.6.4 2017-10-02
Report Run at: December 18, 2017 01:47 EST
"Nutrient data for: 45277192, GREEK STYLE YOGURT DIP, UPC: 044115711031"
Food Group:  Branded Food Products Database
Common Name:

Nutrient,Unit,Data points,Std. Error,"2.0 Tbsp = 28.0g",1Value per 100 g,
Proximates
"Energy",kcal,--,--,60,214
"Protein",g,--,--,2.00,7.14
"Total lipid (fat)",g,--,--,5.00,17.86
"Carbohydrate, by difference",g,--,--,1.00,3.57
"Fiber, total dietary",g,--,--,0.0,0.0
"Sugars, total",g,--,--,1.00,3.57
Minerals
"Calcium, Ca",mg,--,--,20,71
"Iron, Fe",mg,--,--,0.00,0.00
"Sodium, Na",mg,--,--,200,714
Vitamins
"Vitamin C, total ascorbic acid",mg,--,--,0.0,0.0
"Vitamin A, IU",IU,--,--,357,1275
Lipids
"Fatty acids, total saturated",g,--,--,2.999,10.710
"Fatty acids, total trans",g,--,--,0.000,0.000
"Cholesterol",mg,--,--,15,54
Amino Acids
Other
Ingredients
"YOGURT (GRADE A PASTEURIZED SKIM MILK, CREAM, MILK PROTEIN CONCENTRATE, FOOD STARCH, GELATIN, PECTIN, CULTURES {STREPTOCOCCUS THERMOPHILUS, LACTOBACILLUS DELBRUECKII SUB SP. BULGARIOUS, LACTOBACILLUS PARACASEI, PROPIONIBACTERIUM FREUDENREICHII SHERMANII}), CREAM CHEESE (PASTEURIZED NON-FAT MILK AND MILK FAT, CHEESE CULTURE, WHEY PROTEIN CONCENTRATE, SALT, STABILIZERS {XANTHAN AND/OR CAROB BEAN AND/OR GUAR GUM}), JALAPENO PEPPERS, MARINATED ARTICHOKES (ARTICHOKES, WATER, SALT, VINEGAR, CITRIC ACID), CHEDDAR CHEESE ({PASTEURIZED MILK, SALT, CHEESE CULTURE, ENZYMES}, SALT, LACTIC ACID, NATURAL FLAVORS), SUGAR, SALT, GARLIC, CAPSICUM, NATAMYCIN." Date available: 07/28/2017 Date last updated by company: 07/28/2017
