Source: USDA Branded Food Products Database Release December 2017 Software v.3.8.6.4 2017-10-02
Report Run at: December 18, 2017 02:03 EST
"Nutrient data for: 45165567, GREENBRIER INTERNATIONAL, SUGAR FREE WAFERS, VANILLA, UPC: 639277067142"
Food Group:  Branded Food Products Database
Common Name:

Nutrient,Unit,Data points,Std. Error,"3.0 WAFERS = 35.0g",1Value per 100 g,
Proximates
"Energy",kcal,--,--,180,514
"Protein",g,--,--,1.00,2.86
"Total lipid (fat)",g,--,--,11.00,31.43
"Carbohydrate, by difference",g,--,--,21.00,60.00
"Fiber, total dietary",g,--,--,0.0,0.0
"Sugars, total",g,--,--,0.00,0.00
Minerals
"Calcium, Ca",mg,--,--,0,0
"Iron, Fe",mg,--,--,1.03,2.94
"Sodium, Na",mg,--,--,30,86
Vitamins
"Vitamin C, total ascorbic acid",mg,--,--,0.0,0.0
"Vitamin A, IU",IU,--,--,0,0
Lipids
"Fatty acids, total saturated",g,--,--,5.002,14.290
"Fatty acids, total trans",g,--,--,0.000,0.000
"Cholesterol",mg,--,--,0,0
Amino Acids
Other
Ingredients
"PALM OIL, ENRICHED FLOUR [WHEAT FLOUR, MALTED BARLEY FLOUR, NIACIN, REDUCED IRON, THIAMINE MONONITRATE (VITAMIN B1), RIBOFLAVIN (VITAMIN B2) AND FOLIC ACID], SORBITOL, MALTODEXTRIN, CORNSTARCH, CONTAINS TWO PERCENT OR LESS OF: SALT, SOY LECITHIN, SODIUM BICARBONATE, ARTIFICIAL FLAVOR, ASPARTAME*, YELLOW 5 YELLOW 6, RED 3." Date available: 07/14/2017 Date last updated by company: 07/14/2017
