Source: USDA Branded Food Products Database Release December 2017 Software v.3.8.6.4 2017-10-02
Report Run at: December 18, 2017 01:31 EST
"Nutrient data for: 45212437, GREEK ALL PURPOSE SEASONING, UPC: 776455940092"
Food Group:  Branded Food Products Database
Common Name:

Nutrient,Unit,Data points,Std. Error,"0.25 tsp = 1.2g",1Value per 100 g,
Proximates
"Energy",kcal,--,--,0,0
"Protein",g,--,--,0.00,0.00
"Total lipid (fat)",g,--,--,0.00,0.00
"Carbohydrate, by difference",g,--,--,0.00,0.00
Minerals
"Sodium, Na",mg,--,--,270,22500
Vitamins
Lipids
Amino Acids
Other
Ingredients
"SALT, HERBS AND SPICES, DEHYDRATED VEGETABLES (GARLIC, ONION), CORN STARCH, SUGAR, DISODIUM INOSINATE, DISODIUM GUANYLATE, NATURAL FLAVOR (SOYBEAN OIL)." Date available: 07/14/2017 Date last updated by company: 07/14/2017
