Source: USDA Branded Food Products Database Release December 2017 Software v.3.8.6.4 2017-10-02
Report Run at: December 18, 2017 01:51 EST
"Nutrient data for: 45213610, GREEK YOGURT PIE, UPC: 025600086780"
Food Group:  Branded Food Products Database
Common Name:

Nutrient,Unit,Data points,Std. Error,"1 PIE = 113.0g",1Value per 100 g,
Proximates
"Energy",kcal,--,--,400,354
"Protein",g,--,--,4.00,3.54
"Total lipid (fat)",g,--,--,24.00,21.24
"Carbohydrate, by difference",g,--,--,43.00,38.05
"Fiber, total dietary",g,--,--,3.1,2.7
"Sugars, total",g,--,--,15.00,13.27
Minerals
"Calcium, Ca",mg,--,--,60,53
"Iron, Fe",mg,--,--,1.99,1.76
"Sodium, Na",mg,--,--,510,451
Vitamins
"Vitamin C, total ascorbic acid",mg,--,--,0.0,0.0
"Vitamin A, IU",IU,--,--,0,0
Lipids
"Fatty acids, total saturated",g,--,--,8.995,7.960
"Fatty acids, total trans",g,--,--,0.000,0.000
"Cholesterol",mg,--,--,5,4
Amino Acids
Other
Ingredients
"ENRICHED FLOUR (WHEAT FLOUR, NIACIN, IRON, THIAMIN MONONITRATE, RIBOFLAVIN, FOLIC ACID), VEGETABLE SHORTENING (SOYBEAN OIL, PALM OIL, AND HYDROGENATED COTTONSEED OIL), WATER, HIGH FRUCTOSE CORN SYRUP, NONFAT MILK, SUGAR, CREAM CHEESE (PASTEURIZED MILK AND CREAM, CHEESE CULTURE, SALT, STABILIZERS [XANTHAN AND/OR CAROB BEAN GUM AND/OR GUAR GUM]), STRAWBERRIES, MODIFIED CORN STARCH, CONTAINS 2% OR LESS OF EACH OF THE FOLLOWING: GREEK YOGURT (CULTURED SKIM MILK), SALT, CELLULOSE GUM, AGAR, SODIUM STEAROYL LACTYLATE, BUTTER (MADE FROM MILK), XANTHAN GUM, NATURAL AND ARTIFICIAL FLAVORS (CONTAINS MILK), CITRIC ACID, TITANIUM DIOXIDE (COLOR), SODIUM BICARBONATE, LOCUST BEAN GUM, LACTIC ACID, CORN SYRUP, POLYSORBATE 80, FD&C RED #40 LAKE, CARAMEL COLOR, FD&C BLUE #2 LAKE, SOY LECITHIN, SORBIC ACID AND POTASSIUM SORBATE (TO RETARD SPOILAGE)." Date available: 07/14/2017 Date last updated by company: 07/14/2017
