Source: USDA Branded Food Products Database Release December 2017 Software v.3.8.6.4 2017-10-02
Report Run at: December 18, 2017 01:46 EST
"Nutrient data for: 45197864, GREEK STRAINED YOGURT WITH FRUIT, UPC: 689544081104"
Food Group:  Branded Food Products Database
Common Name:

Nutrient,Unit,Data points,Std. Error,"1 CONTAINER = 150.0g",1Value per 100 g,
Proximates
"Energy",kcal,--,--,170,113
"Protein",g,--,--,10.99,7.33
"Total lipid (fat)",g,--,--,6.00,4.00
"Carbohydrate, by difference",g,--,--,18.00,12.00
"Fiber, total dietary",g,--,--,0.0,0.0
"Sugars, total",g,--,--,16.00,10.67
Minerals
"Calcium, Ca",mg,--,--,100,67
"Iron, Fe",mg,--,--,0.00,0.00
"Sodium, Na",mg,--,--,45,30
Vitamins
"Vitamin C, total ascorbic acid",mg,--,--,0.0,0.0
"Vitamin A, IU",IU,--,--,226,151
Lipids
"Fatty acids, total saturated",g,--,--,4.500,3.000
"Fatty acids, total trans",g,--,--,0.000,0.000
"Cholesterol",mg,--,--,20,13
Amino Acids
Other
Ingredients
"STRAINED YOGURT: GRADE A PASTEURIZED MILK AND CREAM, LIVE ACTIVE YOGURT CULTURES (L. BULGARICUS, S. THERMOPHILUS, L. ACIDOPHILUS, BIFIDUS, L. CASEI). MANGO FRUIT PREPARATION (20%): MANGOS, CANE SUGAR, WATER, MANGO JUICE CONCENTRATE, CORN STARCH, CONTAINS 2% OR LESS OF: LEMON JUICE CONCENTRATE, NATURAL FLAVOR." Date available: 07/14/2017 Date last updated by company: 07/14/2017
