Source: USDA Branded Food Products Database Release December 2017 Software v.3.8.6.4 2017-10-02
Report Run at: December 18, 2017 01:47 EST
"Nutrient data for: 45047886, GREEK STYLE COTTAGE CHEESE, LOW FAT WITH PEACHES, UPC: 041483039644"
Food Group:  Branded Food Products Database
Common Name:

Nutrient,Unit,Data points,Std. Error,"0.0 none = 162.0g",1Value per 100 g,
Proximates
"Energy",kcal,--,--,180,111
"Protein",g,--,--,19.00,11.73
"Total lipid (fat)",g,--,--,1.99,1.23
"Carbohydrate, by difference",g,--,--,20.01,12.35
"Fiber, total dietary",g,--,--,0.0,0.0
"Sugars, total",g,--,--,16.99,10.49
Minerals
"Calcium, Ca",mg,--,--,79,49
"Iron, Fe",mg,--,--,0.00,0.00
"Sodium, Na",mg,--,--,259,160
Vitamins
"Vitamin C, total ascorbic acid",mg,--,--,10.2,6.3
"Vitamin A, IU",IU,--,--,136,84
Lipids
"Fatty acids, total saturated",g,--,--,1.507,0.930
"Fatty acids, total trans",g,--,--,0.000,0.000
"Cholesterol",mg,--,--,15,9
Amino Acids
Other
Ingredients
"CULTURED SKIM MILK, CREAM, WHEY PROTEIN CONCENTRATE, SEA SALT, GUAR GUM, MONO AND DIGLYCERIDES, XANTHAN GUM, CARRAGEENAN, LOCUST BEAN GUM, POTASSIUM SORBATE & CARBON DIOXIDE (PRESERVATIVE), NATURAL FLAVORS, VITAMIN A PALMITATE, ENZYMES" Date available: 09/14/2017 Date last updated by company: 09/14/2017
