Source: USDA Branded Food Products Database Release December 2017 Software v.3.8.6.4 2017-10-02
Report Run at: December 18, 2017 01:50 EST
"Nutrient data for: 45211122, GREEK YOGURT DIP, UPC: 075365063281"
Food Group:  Branded Food Products Database
Common Name:

Nutrient,Unit,Data points,Std. Error,"2.0 Tbsp = 28.0g",1Value per 100 g,
Proximates
"Energy",kcal,--,--,20,71
"Protein",g,--,--,2.00,7.14
"Total lipid (fat)",g,--,--,0.50,1.79
"Carbohydrate, by difference",g,--,--,1.00,3.57
"Fiber, total dietary",g,--,--,0.0,0.0
"Sugars, total",g,--,--,0.00,0.00
Minerals
"Calcium, Ca",mg,--,--,40,143
"Iron, Fe",mg,--,--,0.00,0.00
"Sodium, Na",mg,--,--,170,607
Vitamins
"Vitamin C, total ascorbic acid",mg,--,--,2.2,7.7
"Vitamin A, IU",IU,--,--,0,0
Lipids
"Fatty acids, total saturated",g,--,--,0.000,0.000
"Fatty acids, total trans",g,--,--,0.000,0.000
"Cholesterol",mg,--,--,5,18
Amino Acids
Other
Ingredients
"GREEK YOGURT ( PASTEURIZED GRADE A SKIM MILK, MILK PROTEIN CONCENTRATE, CREAM,PECTIN,ENZYMES, ACTIVE YOGURT CULTURES), CUCUMBER, LEMON JUICE, GARLIC PUREE ( GARLIC, CITRIC ACID), CONTAINS 2% OR LESS OF: CULTURED SUGAR, SALT, OLIVE OIL, XANTHAN GUM,CORN STARCH, SPICES." Date available: 07/14/2017 Date last updated by company: 07/14/2017
