Source: USDA Branded Food Products Database Release December 2017 Software v.3.8.6.4 2017-10-02
Report Run at: December 18, 2017 01:41 EST
"Nutrient data for: 45266195, GREEK NONFAT YOGURT, UPC: 042187100296"
Food Group:  Branded Food Products Database
Common Name:

Nutrient,Unit,Data points,Std. Error,"1 cup = 227.0g",1Value per 100 g,
Proximates
"Energy",kcal,--,--,191,84
"Protein",g,--,--,19.00,8.37
"Total lipid (fat)",g,--,--,0.00,0.00
"Carbohydrate, by difference",g,--,--,29.01,12.78
"Fiber, total dietary",g,--,--,0.0,0.0
"Sugars, total",g,--,--,27.99,12.33
Minerals
"Calcium, Ca",mg,--,--,250,110
"Iron, Fe",mg,--,--,0.00,0.00
"Potassium, K",mg,--,--,270,119
"Sodium, Na",mg,--,--,79,35
Vitamins
"Vitamin C, total ascorbic acid",mg,--,--,0.9,0.4
"Vitamin A, IU",IU,--,--,0,0
"Vitamin D",IU,--,--,79,35
Lipids
"Fatty acids, total saturated",g,--,--,0.000,0.000
"Fatty acids, total trans",g,--,--,0.000,0.000
"Cholesterol",mg,--,--,5,2
Amino Acids
Other
Ingredients
"CULTURED PASTEURIZED GRADE A NONFAT MILK, WATER, SUGAR, FRUCTOSE, MODIFIED FOOD STARCH, NATURAL FLAVOR, VANILLA EXTRACT, CITRIC ACID, VITAMIN D3. CONTAINS LIVE AND ACTIVE CULTURES (S. THERMOPHILUS, L. BULGARICUS, BIFIDOBACTERIUM, L. ACIDOPHILUS, L. PARACASED." Date available: 07/14/2017 Date last updated by company: 07/14/2017
