Source: USDA Branded Food Products Database Release December 2017 Software v.3.8.6.4 2017-10-02
Report Run at: December 18, 2017 01:53 EST
"Nutrient data for: 45135822, GREEK YOGURT, UPC: 818290012265"
Food Group:  Branded Food Products Database
Common Name:

Nutrient,Unit,Data points,Std. Error,"1 CONTAINER = 150.0g",1Value per 100 g,
Proximates
"Energy",kcal,--,--,160,107
"Protein",g,--,--,10.99,7.33
"Total lipid (fat)",g,--,--,2.50,1.67
"Carbohydrate, by difference",g,--,--,25.01,16.67
"Fiber, total dietary",g,--,--,1.9,1.3
"Sugars, total",g,--,--,15.00,10.00
Minerals
"Calcium, Ca",mg,--,--,150,100
"Iron, Fe",mg,--,--,0.00,0.00
"Sodium, Na",mg,--,--,60,40
Vitamins
"Vitamin C, total ascorbic acid",mg,--,--,5.4,3.6
"Vitamin A, IU",IU,--,--,0,0
Lipids
"Fatty acids, total saturated",g,--,--,0.000,0.000
"Fatty acids, total trans",g,--,--,0.000,0.000
"Cholesterol",mg,--,--,0,0
Amino Acids
Other
Ingredients
"NONFAT YOGURT (CULTURED PASTEURIZED NONFAT MILK, LIVE AND ACTIVE CULTURES: S.THERMOPHILUS, L.BULGARICUS, L. ACIDPHILUS, BIFIDUS AND L. CASEI), OATS, STRAWBERRIES, EVAPORATED CANE JUICE, WILDFLOWER HONEY, CANOLA OIL, PECTIN, LOCUST BEAN GUM, NATURAL FLAVORS, FRUIT AND VEGETABLES JUICE CONCENTRATE (FOR COLOR)." Date available: 09/20/2017 Date last updated by company: 09/20/2017
