Source: USDA Branded Food Products Database Release December 2017 Software v.3.8.6.4 2017-10-02
Report Run at: December 18, 2017 01:44 EST
"Nutrient data for: 45312087, GREEK PASTURES, LAZY MEADOWS GREEK YOGURT, LEMON CUSTARD ROYALE, UPC: 856290002756"
Food Group:  Branded Food Products Database
Common Name:

Nutrient,Unit,Data points,Std. Error,"6.0 ONZ = 168.0g",1Value per 100 g,
Proximates
"Energy",kcal,--,--,150,89
"Protein",g,--,--,13.99,8.33
"Total lipid (fat)",g,--,--,3.01,1.79
"Carbohydrate, by difference",g,--,--,17.99,10.71
"Fiber, total dietary",g,--,--,0.0,0.0
"Sugars, total",g,--,--,5.01,2.98
Minerals
"Calcium, Ca",mg,--,--,150,89
"Sodium, Na",mg,--,--,76,45
Vitamins
Lipids
"Fatty acids, total saturated",g,--,--,1.495,0.890
"Fatty acids, total trans",g,--,--,0.000,0.000
"Cholesterol",mg,--,--,15,9
Amino Acids
Other
Ingredients
"2% LOW-FAT GREEK YOGURT, CULTURED PASTEURIZED NONFAT NON-GMO GRASSFED MILK, PASTEURIZED NON-GMO GRASSFED CREAM, PURE CANE SUGAR, LEMON JUICE, LEMON, ALMOND AND PURE VANILLA EXTRACTS, LIVE AND ACTIVE CULTURES; S.THERMOPHILUS, L.BULGARICUS, L.ACIDOPHILUS, BIFIDUS, L.CASEI, CULTURED AFTER PASTEURIZATION" Date available: 07/14/2017 Date last updated by company: 07/14/2017
