Source: USDA Branded Food Products Database Release December 2017 Software v.3.8.6.4 2017-10-02
Report Run at: December 18, 2017 02:20 EST
"Nutrient data for: 45060972, GREEN TEA, UPC: 492031305979"
Food Group:  Branded Food Products Database
Common Name:

Nutrient,Unit,Data points,Std. Error,"0.5 PACKET = 1.4g",1Value per 100 g,
Proximates
"Energy",kcal,--,--,5,357
"Protein",g,--,--,0.00,0.00
"Total lipid (fat)",g,--,--,0.00,0.00
"Carbohydrate, by difference",g,--,--,1.00,71.43
"Sugars, total",g,--,--,0.00,0.00
Minerals
"Sodium, Na",mg,--,--,0,0
Vitamins
"Vitamin C, total ascorbic acid",mg,--,--,214.3,15306.0
Lipids
Amino Acids
Other
Ingredients
"MALTODEXTRIN, CITRIC ACID, INSTANT GREEN TEA, MALIC ACID, ASPARTAME*, ACESULFAME POTASSIUM, CONTAINS LESS THAN 2% OF NATURAL FLAVOR, ASCORBIC ACID (VITAMIN A), MAGNESIUM OXIDE, RED 40, BLUE 1, YELLOW 5." Date available: 07/14/2017 Date last updated by company: 07/14/2017
