Source: USDA Branded Food Products Database Release December 2017 Software v.3.8.6.4 2017-10-02
Report Run at: December 18, 2017 02:32 EST
"Nutrient data for: 45185017, GRILLING SEAFOOD SEASONING, UPC: 089836157201"
Food Group:  Branded Food Products Database
Common Name:

Nutrient,Unit,Data points,Std. Error,"2.0 Tbsp = 5.0g",1Value per 100 g,
Proximates
"Energy",kcal,--,--,25,500
"Protein",g,--,--,1.00,20.00
"Total lipid (fat)",g,--,--,1.50,30.00
"Carbohydrate, by difference",g,--,--,2.00,40.00
"Fiber, total dietary",g,--,--,1.0,20.0
"Sugars, total",g,--,--,1.00,20.00
Minerals
"Calcium, Ca",mg,--,--,0,0
"Iron, Fe",mg,--,--,3.60,72.00
"Sodium, Na",mg,--,--,220,4400
Vitamins
"Vitamin C, total ascorbic acid",mg,--,--,12.0,240.0
"Vitamin A, IU",IU,--,--,0,0
Lipids
"Fatty acids, total saturated",g,--,--,0.000,0.000
"Fatty acids, total trans",g,--,--,0.000,0.000
"Cholesterol",mg,--,--,0,0
Amino Acids
Other
Ingredients
"ORGANIC SESAME SEEDS, ORGANIC CANE SUGAR, SEA SALT, ORGANIC GINGER, ORGANIC ONION, ORGANIC ORANGE PEEL, ORGANIC TAMARI POWDER (ORGANIC SOYBEANS, ORGANIC MALTODEXTRIN, SALT), ORGANIC GARLIC, ORGANIC RICE CONCENTRATE, ORGANIC CHILI PEPPER, ORGANIC BLACK PEPPER" Date available: 07/14/2017 Date last updated by company: 07/14/2017
