Source: USDA Branded Food Products Database Release December 2017 Software v.3.8.6.4 2017-10-02
Report Run at: December 18, 2017 02:31 EST
"Nutrient data for: 45098725, GRILLERS STEAKHOUSE ONION SEASONED, UPC: 077782000894"
Food Group:  Branded Food Products Database
Common Name:

Nutrient,Unit,Data points,Std. Error,"1 PATTY = 113.0g",1Value per 100 g,
Proximates
"Energy",kcal,--,--,350,310
"Protein",g,--,--,17.00,15.04
"Total lipid (fat)",g,--,--,29.00,25.66
"Carbohydrate, by difference",g,--,--,4.99,4.42
"Fiber, total dietary",g,--,--,0.0,0.0
"Sugars, total",g,--,--,2.00,1.77
Minerals
"Calcium, Ca",mg,--,--,40,35
"Iron, Fe",mg,--,--,0.54,0.48
"Sodium, Na",mg,--,--,860,761
Vitamins
"Vitamin C, total ascorbic acid",mg,--,--,0.0,0.0
"Vitamin A, IU",IU,--,--,0,0
Lipids
"Fatty acids, total saturated",g,--,--,10.000,8.850
"Fatty acids, total trans",g,--,--,0.000,0.000
"Cholesterol",mg,--,--,75,66
Amino Acids
Other
Ingredients
"PORK, WATER, CORN SYRUP AND LESS THAN 2% OF THE FOLLOWING: SALT, DRIED ONION, DEXTROSE, NATURAL FLAVOR, SPICES, MALTODEXTRIN, YEAST EXTRACT, DRIED WORCESTERSHIRE SAUCE (DISTILLED VINEGAR, MOLASSES, CORN SYRUP, SALT, CARAMEL COLOR, GARLIC POWDER, SUGAR, SPICES, TAMARIND, NATURAL FLAVOR), DRIED MOLASSES, DRIED GARLIC, DISODIUM INOSINATE, GRILL FLAVOR (FROM PARTIALLY HYDROGENATED SOYBEAN AND COTTONSEED OIL), BHA, PROPYL GALLATE, CITRIC ACID." Date available: 10/05/2017 Date last updated by company: 10/05/2017
