Source: USDA Branded Food Products Database Release December 2017 Software v.3.8.6.4 2017-10-02
Report Run at: December 18, 2017 02:30 EST
"Nutrient data for: 45331462, GRILLED ITALIAN STYLE CHICKEN BREAST STRIPS, UPC: 072745804946"
Food Group:  Branded Food Products Database
Common Name:

Nutrient,Unit,Data points,Std. Error,"3.0 ONZ = 84.0g",1Value per 100 g,
Proximates
"Energy",kcal,--,--,100,119
"Protein",g,--,--,18.00,21.43
"Total lipid (fat)",g,--,--,2.00,2.38
"Carbohydrate, by difference",g,--,--,1.00,1.19
"Fiber, total dietary",g,--,--,0.0,0.0
"Sugars, total",g,--,--,0.00,0.00
Minerals
"Calcium, Ca",mg,--,--,0,0
"Iron, Fe",mg,--,--,0.36,0.43
"Sodium, Na",mg,--,--,430,512
Vitamins
"Vitamin C, total ascorbic acid",mg,--,--,2.4,2.9
"Vitamin A, IU",IU,--,--,101,120
Lipids
"Fatty acids, total saturated",g,--,--,0.000,0.000
"Fatty acids, total trans",g,--,--,0.000,0.000
"Cholesterol",mg,--,--,60,71
Amino Acids
Other
Ingredients
"BONELESS SKINLESS CHICKEN BREAST WITH RIB MEAT, WATER, SALT, RICE STARCH, DRIED GARLIC, SUGAR, MALTODEXTRIN, SPICES, DRIED ONION, DRIED RED BELL PEPPER, PAPRIKA, CITRIC ACID, SPICE EXTRACTS, DRIED PARSLEY." Date available: 10/13/2017 Date last updated by company: 10/13/2017
