Source: USDA Branded Food Products Database Release December 2017 Software v.3.8.6.4 2017-10-02
Report Run at: December 18, 2017 02:30 EST
"Nutrient data for: 45204678, GRILLED RED & YELLOW PEPPERS, UPC: 877464000101"
Food Group:  Branded Food Products Database
Common Name:

Nutrient,Unit,Data points,Std. Error,"1 -2 PIECES = 40.0g",1Value per 100 g,
Proximates
"Energy",kcal,--,--,43,108
"Protein",g,--,--,0.00,0.00
"Total lipid (fat)",g,--,--,4.00,10.00
"Carbohydrate, by difference",g,--,--,2.00,5.00
"Fiber, total dietary",g,--,--,0.6,1.6
"Sugars, total",g,--,--,2.00,5.00
Minerals
"Calcium, Ca",mg,--,--,0,0
"Iron, Fe",mg,--,--,0.22,0.56
"Sodium, Na",mg,--,--,91,228
Vitamins
"Vitamin C, total ascorbic acid",mg,--,--,60.8,151.9
"Vitamin A, IU",IU,--,--,625,1562
Lipids
"Fatty acids, total saturated",g,--,--,0.400,1.000
"Fatty acids, total trans",g,--,--,0.000,0.000
"Cholesterol",mg,--,--,0,0
Amino Acids
Other
Ingredients
"GRILLED RED AND YELLOW PEPPERS, SUNFLOWER SEED OIL, SUGAR, WHITE WINE VINEGAR, SALT, SPICES, CITRIC ACID, ASCORBIC ACID (VITAMIN C)." Date available: 07/14/2017 Date last updated by company: 07/14/2017
