Source: USDA Branded Food Products Database Release December 2017 Software v.3.8.6.4 2017-10-02
Report Run at: December 18, 2017 02:32 EST
"Nutrient data for: 45199864, GRILLING SAUCE, UPC: 650658000763"
Food Group:  Branded Food Products Database
Common Name:

Nutrient,Unit,Data points,Std. Error,"2.0 Tbsp = 30.0g",1Value per 100 g,
Proximates
"Energy",kcal,--,--,90,300
"Protein",g,--,--,0.00,0.00
"Total lipid (fat)",g,--,--,4.50,15.00
"Carbohydrate, by difference",g,--,--,15.00,50.00
"Sugars, total",g,--,--,13.00,43.33
Minerals
"Iron, Fe",mg,--,--,0.61,2.03
"Sodium, Na",mg,--,--,290,967
Vitamins
"Vitamin C, total ascorbic acid",mg,--,--,2.0,6.8
Lipids
"Fatty acids, total saturated",g,--,--,0.000,0.000
"Fatty acids, total trans",g,--,--,0.000,0.000
"Cholesterol",mg,--,--,0,0
Amino Acids
Other
Ingredients
"HONEY, EXPELLER PRESSED CANOLA OIL, WHITE WINE (CONTAINS SULFITES), ONIONS, CHAMPAGNE VINEGAR, SEA SALT, PARSLEY, GARLIC, CRACKED BLACK PEPPER, ROSEMARY, LAVENDER." Date available: 07/14/2017 Date last updated by company: 07/14/2017
