Source: USDA Branded Food Products Database Release December 2017 Software v.3.8.6.4 2017-10-02
Report Run at: December 18, 2017 02:29 EST
"Nutrient data for: 45203244, GRILLED GARLIC HERB SALMON WITH VEGETABLE MEDLEY, UPC: 855883612051"
Food Group:  Branded Food Products Database
Common Name:

Nutrient,Unit,Data points,Std. Error,"1 CONTAINER = 280.0g",1Value per 100 g,
Proximates
"Energy",kcal,--,--,339,121
"Protein",g,--,--,22.01,7.86
"Total lipid (fat)",g,--,--,22.01,7.86
"Carbohydrate, by difference",g,--,--,14.00,5.00
"Fiber, total dietary",g,--,--,5.0,1.8
"Sugars, total",g,--,--,4.00,1.43
Minerals
"Calcium, Ca",mg,--,--,81,29
"Iron, Fe",mg,--,--,1.01,0.36
"Sodium, Na",mg,--,--,370,132
Vitamins
"Vitamin C, total ascorbic acid",mg,--,--,41.7,14.9
"Vitamin A, IU",IU,--,--,697,249
Lipids
"Fatty acids, total saturated",g,--,--,8.988,3.210
"Fatty acids, total trans",g,--,--,0.000,0.000
"Cholesterol",mg,--,--,76,27
Amino Acids
Other
Ingredients
"VEGETABLE MEDLEY [GREEN BEANS, CARROTS, RED PEPPERS, YELLOW PEPPERS], GRILLED LEMON PEPPER SALMON FILET [SALMON, SEASONED LEMON PEPPER [SALT, LEMON AND ORANGE PEEL, BLACK PEPPER AND 12 OTHER SPICES, MODIFIED CORN STARCH, ONION, LEMON JUICE POWDER (CORN SYRUP, NATURAL FLAVORS), SOYBEAN OIL (PROCESSING AID), CITRIC ACID, DEHYDRATED CARROTS, GARLIC, OIL OF LEMON, WITH NO MORE THAN 2% SILICON DIOXIDE AS ANTICAKING AGENT]], GARLIC HERB BUTTER [BUTTER (CREAM, SALT), MINCED GARLIC, PARSLEY, SEA SALT]." Date available: 09/07/2017 Date last updated by company: 09/07/2017
