Source: USDA Branded Food Products Database Release December 2017 Software v.3.8.6.4 2017-10-02
Report Run at: December 18, 2017 02:34 EST
"Nutrient data for: 45085199, GRILL SPRAY FOR NO-STICK GRILLING, UPC: 047600952445"
Food Group:  Branded Food Products Database
Common Name:

Nutrient,Unit,Data points,Std. Error,"0.25 SEC. SPRAY) | ( = 0.35g",1Value per 100 g,
Proximates
"Energy",kcal,--,--,0,0
"Protein",g,--,--,0.00,0.00
"Total lipid (fat)",g,--,--,0.00,0.00
"Carbohydrate, by difference",g,--,--,0.00,0.00
Minerals
"Sodium, Na",mg,--,--,2,571
Vitamins
Lipids
Amino Acids
Other
Ingredients
"WATER, LECITHIN (SOY), SALT, NATURAL HICKORY FLAVOR, PHOSPHORIC ACID, POTASSIUM SORBATE ADDED AS A PRESERVATIVE, PROPELLANT." Date available: 10/04/2017 Date last updated by company: 10/04/2017
