Source: USDA Branded Food Products Database Release December 2017 Software v.3.8.6.4 2017-10-02
Report Run at: December 18, 2017 02:31 EST
"Nutrient data for: 45267708, GRILLED VEGETABLE & QUINOA BURRITO, UPC: 693436006632"
Food Group:  Branded Food Products Database
Common Name:

Nutrient,Unit,Data points,Std. Error,"1 BURRITO = 198.0g",1Value per 100 g,
Proximates
"Energy",kcal,--,--,289,146
"Protein",g,--,--,9.01,4.55
"Total lipid (fat)",g,--,--,3.01,1.52
"Carbohydrate, by difference",g,--,--,55.00,27.78
"Fiber, total dietary",g,--,--,4.0,2.0
"Sugars, total",g,--,--,2.00,1.01
Minerals
"Calcium, Ca",mg,--,--,0,0
"Iron, Fe",mg,--,--,1.90,0.96
"Sodium, Na",mg,--,--,590,298
Vitamins
"Vitamin C, total ascorbic acid",mg,--,--,17.0,8.6
"Vitamin A, IU",IU,--,--,0,0
Lipids
"Fatty acids, total saturated",g,--,--,0.000,0.000
"Fatty acids, total trans",g,--,--,0.000,0.000
"Cholesterol",mg,--,--,0,0
Amino Acids
Other
Ingredients
"ENRICHED WHEAT FLOUR, (MALTED BARLEY, VITAMINS B2, B3, B9 & IRON), CONTAINS 2% OR LESS OF: POTATO & CORN STARCH, BAKING POWDER, CELLULOSE AND GUAR GUMS, ORGANIC QUINOA, STRING BEANS, ZUCCHINI, CARROTS, ONIONS, CABBAGE, WHEAT PROTEIN, GINGER, SOY SAUCE, SOYBEAN OIL, SEA SALT & SPICES." Date available: 07/14/2017 Date last updated by company: 07/14/2017
