Source: USDA Branded Food Products Database Release December 2017 Software v.3.8.6.4 2017-10-02
Report Run at: December 18, 2017 02:28 EST
"Nutrient data for: 45267416, GRILLED CHICKEN BREAST ON A STICK,GRILLED CHICKEN SKEWERS, UPC: 621588315159"
Food Group:  Branded Food Products Database
Common Name:

Nutrient,Unit,Data points,Std. Error,"2.0 SKEWERS = 100.0g",1Value per 100 g,
Proximates
"Energy",kcal,--,--,150,150
"Protein",g,--,--,23.00,23.00
"Total lipid (fat)",g,--,--,4.00,4.00
"Carbohydrate, by difference",g,--,--,3.00,3.00
"Fiber, total dietary",g,--,--,0.0,0.0
"Sugars, total",g,--,--,1.00,1.00
Minerals
"Calcium, Ca",mg,--,--,20,20
"Iron, Fe",mg,--,--,0.50,0.50
"Sodium, Na",mg,--,--,630,630
Vitamins
"Vitamin C, total ascorbic acid",mg,--,--,3.4,3.4
"Vitamin A, IU",IU,--,--,0,0
Lipids
"Fatty acids, total saturated",g,--,--,1.000,1.000
"Fatty acids, total trans",g,--,--,0.000,0.000
"Cholesterol",mg,--,--,60,60
Amino Acids
Other
Ingredients
"CHICKEN BREAST, WATER, POTATO STARCH, OLIVE OIL,VINEGAR, SALT, LEMON JUICE, DEXTROSE, DEHYDRATED GARLIC, SPICE, DEHYDRATED ONION, FLAVOR." Date available: 07/14/2017 Date last updated by company: 07/14/2017
