Source: USDA Branded Food Products Database Release December 2017 Software v.3.8.6.4 2017-10-02
Report Run at: December 18, 2017 02:30 EST
"Nutrient data for: 45307892, GRILLED & READY CHICKEN BREAST FILLETS, UPC: 023700021885"
Food Group:  Branded Food Products Database
Common Name:

Nutrient,Unit,Data points,Std. Error,"1 PIECE = 98.0g",1Value per 100 g,
Proximates
"Energy",kcal,--,--,110,112
"Protein",g,--,--,21.00,21.43
"Total lipid (fat)",g,--,--,2.00,2.04
"Carbohydrate, by difference",g,--,--,2.00,2.04
"Fiber, total dietary",g,--,--,0.0,0.0
"Sugars, total",g,--,--,0.00,0.00
Minerals
"Calcium, Ca",mg,--,--,0,0
"Iron, Fe",mg,--,--,0.63,0.64
"Sodium, Na",mg,--,--,340,347
Vitamins
"Vitamin C, total ascorbic acid",mg,--,--,0.0,0.0
"Vitamin A, IU",IU,--,--,0,0
Lipids
"Fatty acids, total saturated",g,--,--,0.500,0.510
"Fatty acids, total monounsaturated",g,--,--,1.000,1.020
"Fatty acids, total polyunsaturated",g,--,--,0.000,0.000
"Fatty acids, total trans",g,--,--,0.000,0.000
"Cholesterol",mg,--,--,70,71
Amino Acids
Other
Ingredients
"BONELESS, SKINLESS CHICKEN BREAST WITH RIB MEAT, WATER, CONTAINS 2% OR LESS OF THE FOLLOWING:DEXTROSE, DRIED GARLIC, DRIED ONION, GRILL FLAVOR (FROM SUNFLOWER OIL), LACTIC ACID, MALTODEXTRIN, MESQUITE SMOKE FLAVOR, NATURAL FLAVOR, RICE STARCH, SALT, SOY SAUCE SOLIDS (WHEAT, SOYBEANS, SALT), YEAST EXTRACT." Date available: 07/14/2017 Date last updated by company: 07/14/2017
