Source: USDA Branded Food Products Database Release December 2017 Software v.3.8.6.4 2017-10-02
Report Run at: December 18, 2017 02:27 EST
"Nutrient data for: 45261709, GRILLED CHEESE SANDWICH, UPC: 078742052199"
Food Group:  Branded Food Products Database
Common Name:

Nutrient,Unit,Data points,Std. Error,"1 SANDWICH = 84.0g",1Value per 100 g,
Proximates
"Energy",kcal,--,--,290,345
"Protein",g,--,--,9.00,10.71
"Total lipid (fat)",g,--,--,16.00,19.05
"Carbohydrate, by difference",g,--,--,26.00,30.95
"Fiber, total dietary",g,--,--,1.0,1.2
"Sugars, total",g,--,--,3.00,3.57
Minerals
"Calcium, Ca",mg,--,--,200,238
"Iron, Fe",mg,--,--,1.46,1.74
"Potassium, K",mg,--,--,65,77
"Sodium, Na",mg,--,--,720,857
Vitamins
"Vitamin C, total ascorbic acid",mg,--,--,0.0,0.0
"Vitamin A, IU",IU,--,--,303,361
Lipids
"Fatty acids, total saturated",g,--,--,6.997,8.330
"Fatty acids, total monounsaturated",g,--,--,3.503,4.170
"Fatty acids, total polyunsaturated",g,--,--,4.502,5.360
"Fatty acids, total trans",g,--,--,0.504,0.600
"Cholesterol",mg,--,--,30,36
Amino Acids
Other
Ingredients
"WHITE BREAD: ENRICHED WHEAT FLOUR (WHEAT FLOUR, MALTED BARLEY FLOUR, NIACIN, FERROUS SULFATE, THIAMINE MONONITRATE, RIBOFLAVIN, FOLIC ACID), WATER, SUGAR, YEAST, SOYBEAN OIL, CONTAINS 2% OR LESS OF: SALT, CALCIUM SULFATE, CALCIUM PROPIONATE (PRESERVATIVE), DOUGH CONDITIONERS (MONO- AND DIGLYCERIDES, DATEM, CALCIUM PEROXIDE), DIAMMONIUM PHOSPHATE, TRICALCIUM PHOSPHATE, SOY LECITHIN. PASTEURIZED PROCESS AMERICAN CHEESE: CHEDDAR CHEESE (PASTEURIZED MILK, CHEESE CULTURE, SALT, ENZYMES), MILKFAT, WATER, SODIUM CITRATE, SALT, SODIUM PHOSPHATE, SORBIC ACID (PRESERVATIVE), PAPRIKA OLEORESIN (COLOR), ANNATTO EXTRACT (COLOR), LIQUID BUTTER ALTERNATIVE: LIQUID AND HYDROGENATED SOYBEAN OIL, SALT, SOY LECITHIN, NATURAL & ARTIFICIAL FLAVOR, BETA CAROTENE (COLOR), TBHQ (PRESERVATIVE), CITRIC ACID (PRESERVATIVE), DIMETHYLPOLYSILOXANE (ANTI-FOAMING)." Date available: 07/14/2017 Date last updated by company: 07/14/2017
