Source: USDA Branded Food Products Database Release December 2017 Software v.3.8.6.4 2017-10-02
Report Run at: December 18, 2017 02:35 EST
"Nutrient data for: 45118101, GRISSINBON, TASTEFUL AND CRISPY CLASSIC TOAST, UPC: 088789015736"
Food Group:  Branded Food Products Database
Common Name:

Nutrient,Unit,Data points,Std. Error,"4.0 PIECES = 31.0g",1Value per 100 g,
Proximates
"Energy",kcal,--,--,130,419
"Protein",g,--,--,3.00,9.68
"Total lipid (fat)",g,--,--,2.00,6.45
"Carbohydrate, by difference",g,--,--,25.00,80.65
"Fiber, total dietary",g,--,--,1.0,3.2
"Sugars, total",g,--,--,2.00,6.45
Minerals
"Calcium, Ca",mg,--,--,0,0
"Iron, Fe",mg,--,--,0.00,0.00
"Sodium, Na",mg,--,--,190,613
Vitamins
"Vitamin C, total ascorbic acid",mg,--,--,0.0,0.0
"Vitamin A, IU",IU,--,--,0,0
Lipids
"Fatty acids, total saturated",g,--,--,1.001,3.230
"Fatty acids, total trans",g,--,--,0.000,0.000
"Cholesterol",mg,--,--,0,0
Amino Acids
Other
Ingredients
"WHEAT FLOUR, PALM OIL, SUGAR, YEAST, MALT EXTRACT, SALT." Date available: 06/25/2017 Date last updated by company: 06/25/2017
