Source: USDA Branded Food Products Database Release December 2017 Software v.3.8.6.4 2017-10-02
Report Run at: December 18, 2017 02:45 EST
"Nutrient data for: 45275888, GROUND TURKEY BREAST, UPC: 041415144804"
Food Group:  Branded Food Products Database
Common Name:

Nutrient,Unit,Data points,Std. Error,"4.0 ONZ = 112.0g",1Value per 100 g,
Proximates
"Energy",kcal,--,--,130,116
"Protein",g,--,--,27.00,24.11
"Total lipid (fat)",g,--,--,1.50,1.34
"Carbohydrate, by difference",g,--,--,0.00,0.00
"Fiber, total dietary",g,--,--,0.0,0.0
"Sugars, total",g,--,--,0.00,0.00
Minerals
"Calcium, Ca",mg,--,--,20,18
"Iron, Fe",mg,--,--,0.82,0.73
"Sodium, Na",mg,--,--,65,58
Vitamins
"Vitamin C, total ascorbic acid",mg,--,--,0.0,0.0
"Vitamin A, IU",IU,--,--,0,0
Lipids
"Fatty acids, total saturated",g,--,--,0.000,0.000
"Fatty acids, total trans",g,--,--,0.000,0.000
"Cholesterol",mg,--,--,69,62
Amino Acids
Other
Ingredients
"TURKEY BREAST, NATURAL FLAVORINGS (ROSEMARY EXTRACT)." Date available: 07/14/2017 Date last updated by company: 07/14/2017
