Source: USDA Branded Food Products Database Release December 2017 Software v.3.8.6.4 2017-10-02
Report Run at: December 18, 2017 02:41 EST
"Nutrient data for: 45287726, GROUND BEEF, UPC: 011110636508"
Food Group:  Branded Food Products Database
Common Name:

Nutrient,Unit,Data points,Std. Error,"4.0 ONZ = 113.0g",1Value per 100 g,
Proximates
"Energy",kcal,--,--,240,212
"Protein",g,--,--,21.00,18.58
"Total lipid (fat)",g,--,--,17.00,15.04
"Carbohydrate, by difference",g,--,--,0.00,0.00
"Fiber, total dietary",g,--,--,0.0,0.0
"Sugars, total",g,--,--,0.00,0.00
Minerals
"Calcium, Ca",mg,--,--,20,18
"Iron, Fe",mg,--,--,2.03,1.80
"Sodium, Na",mg,--,--,75,66
Vitamins
"Vitamin C, total ascorbic acid",mg,--,--,0.0,0.0
"Vitamin A, IU",IU,--,--,0,0
Lipids
"Fatty acids, total saturated",g,--,--,6.995,6.190
"Cholesterol",mg,--,--,75,66
Amino Acids
Other
Ingredients
"BEEF." Date available: 07/14/2017 Date last updated by company: 07/14/2017
