Source: USDA Branded Food Products Database Release December 2017 Software v.3.8.6.4 2017-10-02
Report Run at: December 18, 2017 02:54 EST
"Nutrient data for: 45035241, GU, HYDRATION DRINK TABS, LEMON LIME, UPC: 769493501585"
Food Group:  Branded Food Products Database
Common Name:

Nutrient,Unit,Data points,Std. Error,"1 TABLET = 4.5g",1Value per 100 g,
Proximates
"Energy",kcal,--,--,10,222
"Protein",g,--,--,0.00,0.00
"Total lipid (fat)",g,--,--,0.00,0.00
"Carbohydrate, by difference",g,--,--,3.00,66.67
Minerals
"Potassium, K",mg,--,--,55,1222
"Sodium, Na",mg,--,--,320,7111
Vitamins
Lipids
Amino Acids
Other
Ingredients
"CITRIC ACID, SODIUM BICARBONATE, XYLITOL, CORN STARCH, NATURAL FLAVOR, POTASSIUM BICARBONATE, L-LEUCINE, STEVIA LEAF EXTRACT, SAFFLOWER OIL, CANE SUGAR, RIBOFLAVIN (AS COLOR)." Date available: 09/01/2017 Date last updated by company: 09/01/2017
