Source: USDA Branded Food Products Database Release December 2017 Software v.3.8.6.4 2017-10-02
Report Run at: December 18, 2017 02:50 EST
"Nutrient data for: 45325923, GUACAMOLE, UPC: 736798902874"
Food Group:  Branded Food Products Database
Common Name:

Nutrient,Unit,Data points,Std. Error,"2.0 Tbsp = 33.0g",1Value per 100 g,
Proximates
"Energy",kcal,--,--,45,136
"Protein",g,--,--,1.00,3.03
"Total lipid (fat)",g,--,--,4.00,12.12
"Carbohydrate, by difference",g,--,--,3.00,9.09
"Fiber, total dietary",g,--,--,1.0,3.0
"Sugars, total",g,--,--,0.00,0.00
Minerals
"Calcium, Ca",mg,--,--,5,15
"Iron, Fe",mg,--,--,0.30,0.91
"Potassium, K",mg,--,--,12,36
"Sodium, Na",mg,--,--,100,303
Vitamins
"Vitamin D",IU,--,--,0,0
Lipids
"Fatty acids, total saturated",g,--,--,0.502,1.520
"Fatty acids, total trans",g,--,--,0.000,0.000
"Cholesterol",mg,--,--,0,0
Amino Acids
Other
Ingredients
"HASS AVOCADOS, RED ONIONS, JALAPENO PEPPERS, LIME JUICE, CILANTRO, LEMON JUICE, SERRANO PEPPERS, GARLIC, SEA SALT, BLACK PEPPER." Date available: 10/18/2017 Date last updated by company: 10/18/2017
