Source: USDA Branded Food Products Database Release December 2017 Software v.3.8.6.4 2017-10-02
Report Run at: December 18, 2017 02:49 EST
"Nutrient data for: 45179478, GUACAMOLE, UPC: 811892027583"
Food Group:  Branded Food Products Database
Common Name:

Nutrient,Unit,Data points,Std. Error,"2.0 ONZ = 57.0g",1Value per 100 g,
Proximates
"Energy",kcal,--,--,100,175
"Protein",g,--,--,1.00,1.75
"Total lipid (fat)",g,--,--,9.00,15.79
"Carbohydrate, by difference",g,--,--,5.00,8.77
"Fiber, total dietary",g,--,--,4.0,7.0
"Sugars, total",g,--,--,1.00,1.75
Minerals
"Calcium, Ca",mg,--,--,0,0
"Iron, Fe",mg,--,--,0.63,1.11
"Potassium, K",mg,--,--,300,526
"Sodium, Na",mg,--,--,240,421
Vitamins
"Vitamin C, total ascorbic acid",mg,--,--,10.5,18.5
"Vitamin A, IU",IU,--,--,44,77
Lipids
"Fatty acids, total saturated",g,--,--,0.998,1.750
"Fatty acids, total trans",g,--,--,0.000,0.000
"Cholesterol",mg,--,--,0,0
Amino Acids
Other
Ingredients
"ORGANIC HASS AVOCADOS (95%), CONTAINS 1% OR LESS OF ORGANIC ONION, ORGANIC GARLIC POWDER, SEA SALT, ORGANIC SUGAR, CITRIC ACID, ASCORBIC ACID (VITAMIN C), XANTHAN GUM, ORGANIC JALAPENO PEPPERS." Date available: 10/13/2017 Date last updated by company: 10/13/2017
