Source: USDA Branded Food Products Database Release December 2017 Software v.3.8.6.4 2017-10-02
Report Run at: December 18, 2017 02:52 EST
"Nutrient data for: 45288710, GUAVA NECTAR, UPC: 854134004218"
Food Group:  Branded Food Products Database
Common Name:

Nutrient,Unit,Data points,Std. Error,"6.7 OZA = 200.0g",1Value per 100 g,
Proximates
"Energy",kcal,--,--,130,65
"Protein",g,--,--,0.00,0.00
"Total lipid (fat)",g,--,--,0.00,0.00
"Carbohydrate, by difference",g,--,--,36.00,18.00
"Fiber, total dietary",g,--,--,1.0,0.5
"Sugars, total",g,--,--,25.00,12.50
Minerals
"Calcium, Ca",mg,--,--,0,0
"Iron, Fe",mg,--,--,0.00,0.00
"Sodium, Na",mg,--,--,12,6
Vitamins
"Vitamin C, total ascorbic acid",mg,--,--,72.0,36.0
"Vitamin A, IU",IU,--,--,0,0
Lipids
"Fatty acids, total saturated",g,--,--,0.000,0.000
"Fatty acids, total trans",g,--,--,0.000,0.000
"Cholesterol",mg,--,--,0,0
Amino Acids
Other
Ingredients
"WATER, HIGH FRUCTOSE CORN SYRUP, GUAVA PULP, CMC, CITRIC ACID, ASCORBIC ACID (VITAMIN C)" Date available: 07/14/2017 Date last updated by company: 07/14/2017
