Source: USDA Branded Food Products Database Release December 2017 Software v.3.8.6.4 2017-10-02
Report Run at: December 18, 2017 02:53 EST
"Nutrient data for: 45041160, GUAYAKI, ORGANIC CHAI SPICE MATE TEA BAGS, UPC: 632432967011"
Food Group:  Branded Food Products Database
Common Name:

Nutrient,Unit,Data points,Std. Error,"2.5 GRM = 2.5g",1Value per 100 g,
Proximates
"Energy",kcal,--,--,4,160
"Carbohydrate, by difference",g,--,--,1.00,40.00
Minerals
Vitamins
Lipids
Amino Acids
Other
Ingredients
"ORGANIC VANILLA CHAI FLAVOR" Date available: 07/14/2017 Date last updated by company: 07/14/2017
