Source: USDA Branded Food Products Database Release December 2017 Software v.3.8.6.4 2017-10-02
Report Run at: December 18, 2017 02:53 EST
"Nutrient data for: 45022210, GUAYAKI, NATURALLY CAFFEINATED PURE EMPOWER MINT DIETARY SUPPLEMENT, YERBA MATE, UPC: 632432968018"
Food Group:  Branded Food Products Database
Common Name:

Nutrient,Unit,Data points,Std. Error,"2.5 g = 2.5g",1Value per 100 g,
Proximates
"Energy",kcal,--,--,5,200
"Carbohydrate, by difference",g,--,--,3.00,120.00
Minerals
Vitamins
Lipids
Amino Acids
Other
Ingredients
"PROPRIETARY BLEND: ORGANIC YERBA MATE (LEAF)**, ORGANIC PEPPERMINT (LEAF)**, ORGANIC SPEARMINT (LEAF)**, ORGANIC STEVIA (LEAF). OTHER INGREDIENTS: NONE." Date last updated by company: 05/28/2015
