Source: USDA Branded Food Products Database Release December 2017 Software v.3.8.6.4 2017-10-02
Report Run at: December 18, 2017 02:53 EST
"Nutrient data for: 45238508, GUAYAKI BRAND, YERBA MATE, PASSION TERERE, UPC: 632432911809"
Food Group:  Branded Food Products Database
Common Name:

Nutrient,Unit,Data points,Std. Error,"8.0 OZA = 240.0g",1Value per 100 g,
Proximates
"Energy",kcal,--,--,60,25
"Carbohydrate, by difference",g,--,--,13.99,5.83
"Sugars, total",g,--,--,13.99,5.83
Minerals
Vitamins
Lipids
Amino Acids
Other
Ingredients
"PURIFIED WATER, ORGANIC CANE SUGAR**, ORGANIC PASSION FRUIT JUICE CONCENTRATE AND ORGANIC NATURAL PEACH FLAVOR." Date available: 08/16/2017 Date last updated by company: 08/16/2017
