Source: USDA Branded Food Products Database Release December 2017 Software v.3.8.6.4 2017-10-02
Report Run at: December 18, 2017 03:11 EST
"Nutrient data for: 45086966, GUMMY PANDAS, UPC: 846107014836"
Food Group:  Branded Food Products Database
Common Name:

Nutrient,Unit,Data points,Std. Error,"17.0 PIECES = 40.0g",1Value per 100 g,
Proximates
"Energy",kcal,--,--,130,325
"Protein",g,--,--,3.00,7.50
"Total lipid (fat)",g,--,--,0.00,0.00
"Carbohydrate, by difference",g,--,--,29.00,72.50
"Fiber, total dietary",g,--,--,0.0,0.0
"Sugars, total",g,--,--,19.00,47.50
Minerals
"Calcium, Ca",mg,--,--,0,0
"Iron, Fe",mg,--,--,0.00,0.00
"Sodium, Na",mg,--,--,15,38
Vitamins
"Vitamin C, total ascorbic acid",mg,--,--,75.0,187.5
"Vitamin A, IU",IU,--,--,0,0
Lipids
"Fatty acids, total saturated",g,--,--,0.000,0.000
"Fatty acids, total trans",g,--,--,0.000,0.000
"Cholesterol",mg,--,--,0,0
Amino Acids
Other
Ingredients
"ORGANIC TAPIOCA SYRUP, ORGANIC CANE SUGAR, GELATIN, APRICOT POWDER, CITRIC ACID, LACTIC ACID, NATURAL FLAVOR, ASCORBIC ACID, GREEN TEA POWDER, COLOR (ORANGE ANNATTO), ORGANIC SUNFLOWER OIL, CARNAUBA WAX." Date available: 06/25/2017 Date last updated by company: 06/25/2017
