Source: USDA Branded Food Products Database Release December 2017 Software v.3.8.6.4 2017-10-02
Report Run at: December 18, 2017 03:03 EST
"Nutrient data for: 45049343, GUMMI PIZZA, UPC: 813805005060"
Food Group:  Branded Food Products Database
Common Name:

Nutrient,Unit,Data points,Std. Error,"1 PIECE, PER CONTAINER = 15.5g",1Value per 100 g,
Proximates
"Energy",kcal,--,--,50,323
"Protein",g,--,--,1.00,6.45
"Total lipid (fat)",g,--,--,0.00,0.00
"Carbohydrate, by difference",g,--,--,12.00,77.42
"Fiber, total dietary",g,--,--,0.0,0.0
"Sugars, total",g,--,--,9.00,58.06
Minerals
"Calcium, Ca",mg,--,--,0,0
"Iron, Fe",mg,--,--,0.00,0.00
"Sodium, Na",mg,--,--,10,65
Vitamins
"Vitamin C, total ascorbic acid",mg,--,--,0.0,0.0
"Vitamin A, IU",IU,--,--,0,0
Lipids
"Fatty acids, total saturated",g,--,--,0.000,0.000
"Fatty acids, total trans",g,--,--,0.000,0.000
"Cholesterol",mg,--,--,0,0
Amino Acids
Other
Ingredients
"GLUCOSE SYRUP, SUGAR, GELATIN, CITRIC ACID, PECTIN, ARTIFICIAL AND NATURAL IDENTICAL FLAVORS, VEGETABLE OIL (COCONUT OIL/PALM OIL), COLOURS ADDED: RED 40 (E129), YELLOW 5 (E102), YELLOW 6 (E110), BLUE 1 (E133), TITANIUM DIOXIDE (E171), CARAMEL (E150C), BEES WAX/ CARNAUBA WAX." Date available: 06/25/2017 Date last updated by company: 06/25/2017
