Source: USDA Branded Food Products Database Release December 2017 Software v.3.8.6.4 2017-10-02
Report Run at: December 18, 2017 03:12 EST
"Nutrient data for: 45261206, GUMMY WORM CANDY, UPC: 610585871706"
Food Group:  Branded Food Products Database
Common Name:

Nutrient,Unit,Data points,Std. Error,"5.0 PCS = 48.0g",1Value per 100 g,
Proximates
"Energy",kcal,--,--,160,333
"Protein",g,--,--,2.00,4.17
"Total lipid (fat)",g,--,--,0.00,0.00
"Carbohydrate, by difference",g,--,--,28.00,58.33
"Fiber, total dietary",g,--,--,0.0,0.0
"Sugars, total",g,--,--,22.00,45.83
Minerals
"Calcium, Ca",mg,--,--,0,0
"Iron, Fe",mg,--,--,0.00,0.00
"Sodium, Na",mg,--,--,10,21
Vitamins
"Vitamin C, total ascorbic acid",mg,--,--,0.0,0.0
"Vitamin A, IU",IU,--,--,0,0
Lipids
"Fatty acids, total saturated",g,--,--,0.000,0.000
"Fatty acids, total trans",g,--,--,0.000,0.000
"Cholesterol",mg,--,--,0,0
Amino Acids
Other
Ingredients
"CORN SYRUP, BEET SUGAR, GELATIN, SORBITOL FROM FRUITS AND VEG, CITRIC ACID, FD&C (YELLOW #5, YELLOW #6, RED #40, BLUE #2 AND BLUE #1) NAT AND ARTIFICIAL FLAVORS, VEGETABLE OIL AND CARNAUBA PLANT WAX. ANTI - STICKING." Date available: 10/13/2017 Date last updated by company: 10/13/2017
