Source: USDA Branded Food Products Database Release December 2017 Software v.3.8.6.4 2017-10-02
Report Run at: December 18, 2017 03:03 EST
"Nutrient data for: 45326237, GUMMI MIX, UPC: 052548604769"
Food Group:  Branded Food Products Database
Common Name:

Nutrient,Unit,Data points,Std. Error,"5.0 PIECES = 25.0g",1Value per 100 g,
Proximates
"Energy",kcal,--,--,90,360
"Protein",g,--,--,1.00,4.00
"Total lipid (fat)",g,--,--,0.00,0.00
"Carbohydrate, by difference",g,--,--,21.00,84.00
"Fiber, total dietary",g,--,--,0.0,0.0
"Sugars, total",g,--,--,15.00,60.00
Minerals
"Calcium, Ca",mg,--,--,0,0
"Iron, Fe",mg,--,--,0.00,0.00
"Sodium, Na",mg,--,--,10,40
Vitamins
"Vitamin C, total ascorbic acid",mg,--,--,0.0,0.0
"Vitamin A, IU",IU,--,--,0,0
Lipids
"Fatty acids, total saturated",g,--,--,0.000,0.000
"Fatty acids, total trans",g,--,--,0.000,0.000
"Cholesterol",mg,--,--,0,0
Amino Acids
Other
Ingredients
"CORN SYRUP, SUGAR, GELATIN, MALIC ACID, CITRIC ACID, MODIFIED CORN STARCH, GLYCEROL, MODIFIED POTATO STARCH, CORN STARCH, PECTINS, NATURAL AND ARTIFICIAL FLAVORS, FRUIT AND VEGETABLE JUICE FOR COLOR: RADISH, CARROT, BLACKCURRANT, TOMATO, APPLE, PUMPKIN, TURMERIC, YELLOW 5, COCHINEAL EXTRACT, RED 40, BLUE 1, CARAMEL, BETA-CAROTENE, PAPRIKA OLEORESIN, TITANIUM DIOXIDE." Date available: 08/11/2017 Date last updated by company: 08/11/2017
