Source: USDA Branded Food Products Database Release December 2017 Software v.3.8.6.4 2017-10-02
Report Run at: December 18, 2017 03:06 EST
"Nutrient data for: 45048034, GUMMY BEARS, UPC: 028348001947"
Food Group:  Branded Food Products Database
Common Name:

Nutrient,Unit,Data points,Std. Error,"15.0 PCS. = 40.0g",1Value per 100 g,
Proximates
"Energy",kcal,--,--,130,325
"Protein",g,--,--,3.00,7.50
"Total lipid (fat)",g,--,--,0.00,0.00
"Carbohydrate, by difference",g,--,--,29.00,72.50
"Sugars, total",g,--,--,26.00,65.00
Minerals
"Sodium, Na",mg,--,--,15,38
Vitamins
Lipids
Amino Acids
Other
Ingredients
"SUGAR CORN SYRUP, WHITE, GRAPE JUICE FROM CONCENTRATE, GELATIN, CITRIC ACID, SORBITAL, NATURAL AND ARTIFICIAL FLAVORS, RED 40, YELLOW 6, YELLOW5. BLUE 1, CARNAUBA WAX" Date available: 06/25/2017 Date last updated by company: 06/25/2017
