Source: USDA Branded Food Products Database Release December 2017 Software v.3.8.6.4 2017-10-02
Report Run at: December 18, 2017 02:59 EST
"Nutrient data for: 45328862, GUMMI BEARS, UPC: 071567984669"
Food Group:  Branded Food Products Database
Common Name:

Nutrient,Unit,Data points,Std. Error,"21.0 PIECES = 40.0g",1Value per 100 g,
Proximates
"Energy",kcal,--,--,130,325
"Protein",g,--,--,2.00,5.00
"Total lipid (fat)",g,--,--,0.00,0.00
"Carbohydrate, by difference",g,--,--,30.00,75.00
"Sugars, total",g,--,--,26.00,65.00
Minerals
"Sodium, Na",mg,--,--,15,38
Vitamins
Lipids
Amino Acids
Other
Ingredients
"CORN SYRUP, SUGAR, KOSHER GELATIN, SORBITOL, CONTAINS 2% OR LESS OF THE FOLLOWING: CITRIC ACID, MALIC ACID, NATURAL AND ARTIFICIAL FLAVORS, RED 40, YELLOW 5 & 6, BLUE 1, *COCONUT OIL, CARNAUBA WAX." Date available: 10/13/2017 Date last updated by company: 10/13/2017
