Source: USDA Branded Food Products Database Release December 2017 Software v.3.8.6.4 2017-10-02
Report Run at: December 18, 2017 03:15 EST
"Nutrient data for: 45141508, GUSTO, COOKED HAM, UPC: 712926020115"
Food Group:  Branded Food Products Database
Common Name:

Nutrient,Unit,Data points,Std. Error,"2.0 ONZ = 56.0g",1Value per 100 g,
Proximates
"Energy",kcal,--,--,40,71
"Protein",g,--,--,9.00,16.07
"Total lipid (fat)",g,--,--,1.50,2.68
"Carbohydrate, by difference",g,--,--,1.00,1.79
"Sugars, total",g,--,--,0.00,0.00
Minerals
"Iron, Fe",mg,--,--,1.06,1.89
"Sodium, Na",mg,--,--,670,1196
Vitamins
Lipids
"Fatty acids, total saturated",g,--,--,0.498,0.890
"Fatty acids, total trans",g,--,--,0.000,0.000
"Cholesterol",mg,--,--,35,62
Amino Acids
Other
Ingredients
"CURED WITH: WATER, SALT, POTASSIUM LACTATE, SUGAR, DEXTROSE, SODIUM PHOSPHATE, SODIUM DIACETATE, SODIUM ERYTHORBATE, SODIUM NITRATE." Date available: 07/14/2017 Date last updated by company: 07/14/2017
