Source: USDA Branded Food Products Database Release December 2017 Software v.3.8.6.4 2017-10-02
Report Run at: December 18, 2017 03:16 EST
"Nutrient data for: 45165316, GUYLIAN, ASSORTED BELGIAN CHOCOLATES, UPC: 089519565019"
Food Group:  Branded Food Products Database
Common Name:

Nutrient,Unit,Data points,Std. Error,"4.0 PIECES = 43.0g",1Value per 100 g,
Proximates
"Energy",kcal,--,--,240,558
"Protein",g,--,--,3.00,6.98
"Total lipid (fat)",g,--,--,17.00,39.53
"Carbohydrate, by difference",g,--,--,21.00,48.84
"Fiber, total dietary",g,--,--,2.0,4.7
"Sugars, total",g,--,--,18.00,41.86
Minerals
"Calcium, Ca",mg,--,--,60,140
"Iron, Fe",mg,--,--,3.14,7.30
"Sodium, Na",mg,--,--,20,47
Vitamins
"Vitamin C, total ascorbic acid",mg,--,--,0.0,0.0
"Vitamin A, IU",IU,--,--,0,0
Lipids
"Fatty acids, total saturated",g,--,--,9.000,20.930
"Fatty acids, total trans",g,--,--,0.000,0.000
"Cholesterol",mg,--,--,5,12
Amino Acids
Other
Ingredients
"SUGAR, CHOCOLATE LIQUOR, COCOA BUTTER, HAZELNUTS, WHOLE MILK POWDER, PALM OIL, SKIMMED MILK POWDER, BUTTER OIL OIL, EMULSIFIER: SOYA LECITHIN, NATURAL VANILLA FLAVORING, COCOA SOLIDS CHOCOLATE 72% MIN., MILK CHOCOLATE 31% MIN., WHITE CHOCOLATE 25% MIN. MILK SOLIDS: MILK CHOCOLATE 23% MIN, WHITE CHOCOLATE 29% MIN." Date available: 07/14/2017 Date last updated by company: 07/14/2017
