Source: USDA Branded Food Products Database Release December 2017 Software v.3.8.6.4 2017-10-02
Report Run at: December 18, 2017 06:02 EST
"Nutrient data for: 45173338, H-E-B, SPREADABLE BUTTER, UPC: 041220920044"
Food Group:  Branded Food Products Database
Common Name:

Nutrient,Unit,Data points,Std. Error,"1 Tbsp = 14.0g",1Value per 100 g,
Proximates
"Energy",kcal,--,--,100,714
"Protein",g,--,--,0.00,0.00
"Total lipid (fat)",g,--,--,11.00,78.57
"Carbohydrate, by difference",g,--,--,0.00,0.00
Minerals
"Sodium, Na",mg,--,--,85,607
Vitamins
"Vitamin A, IU",IU,--,--,676,4832
Lipids
"Fatty acids, total saturated",g,--,--,4.000,28.570
"Fatty acids, total monounsaturated",g,--,--,4.999,35.710
"Fatty acids, total polyunsaturated",g,--,--,1.499,10.710
"Fatty acids, total trans",g,--,--,0.000,0.000
"Cholesterol",mg,--,--,15,107
Amino Acids
Other
Ingredients
"SWEET CREAM, CANOLA OIL, SALT." Date available: 07/14/2017 Date last updated by company: 07/14/2017
