Source: USDA Branded Food Products Database Release December 2017 Software v.3.8.6.4 2017-10-02
Report Run at: December 18, 2017 06:03 EST
"Nutrient data for: 45155324, H-E-B, TWIST, CAFFEINE FREE SODA, LEMON LIME, UPC: 041220576289"
Food Group:  Branded Food Products Database
Common Name:

Nutrient,Unit,Data points,Std. Error,"1 CAN = 355.0g",1Value per 100 g,
Proximates
"Energy",kcal,--,--,138,39
"Protein",g,--,--,0.00,0.00
"Total lipid (fat)",g,--,--,0.00,0.00
"Carbohydrate, by difference",g,--,--,37.98,10.70
"Sugars, total",g,--,--,37.98,10.70
Minerals
"Sodium, Na",mg,--,--,46,13
Vitamins
Lipids
Amino Acids
Other
Ingredients
"CARBONATED WATER, HIGH FRUCTOSE CORN SYRUP, NATURAL FLAVOR, CITRIC ACID, SODIUM CITRATE, POTASSIUM BENZOATE (PRESERVATIVE)." Date available: 07/14/2017 Date last updated by company: 07/14/2017
