Source: USDA Branded Food Products Database Release December 2017 Software v.3.8.6.4 2017-10-02
Report Run at: December 18, 2017 03:23 EST
"Nutrient data for: 45101720, HAGGEN, CHOCOLATE CHUNK WALNUT BROWNIE MIX, UPC: 726984010018"
Food Group:  Branded Food Products Database
Common Name:

Nutrient,Unit,Data points,Std. Error,"0.083 PACKAGE = 34.0g",1Value per 100 g,
Proximates
"Energy",kcal,--,--,150,441
"Protein",g,--,--,2.00,5.88
"Total lipid (fat)",g,--,--,6.00,17.65
"Carbohydrate, by difference",g,--,--,25.00,73.53
"Fiber, total dietary",g,--,--,1.0,2.9
"Sugars, total",g,--,--,17.00,50.00
Minerals
"Calcium, Ca",mg,--,--,0,0
"Iron, Fe",mg,--,--,1.27,3.74
"Sodium, Na",mg,--,--,105,309
Vitamins
"Vitamin C, total ascorbic acid",mg,--,--,0.0,0.0
"Vitamin A, IU",IU,--,--,0,0
Lipids
"Fatty acids, total saturated",g,--,--,1.999,5.880
"Fatty acids, total trans",g,--,--,0.000,0.000
"Cholesterol",mg,--,--,0,0
Amino Acids
Other
Ingredients
"SUGAR, ENRICHED BLEACHED FLOUR (BLEACHED FLOUR, MALTED BARLEY FLOUR, NIACIN, IRON, THIAMINE MONONITRATE, RIBOFLAVIN, FOLIC ACID), WALNUTS WITH PRESERVATIVE (BHT), SEMI-SWEET CHOCOLATE CHUNKS (SUGAR, CHOCOLATE LIQUOR, COCOA BUTTER, EMULSIFIER [LECITHIN], ARTIFICIAL FLAVOR), MILK CHOCOLATE CHUNKS (SUGAR, COCOA BUTTER, WHOLE MILK POWDER, CHOCOLATE LIQUOR, ANHYDROUS DEXTROSE, EMULSIFIER [LECITHIN], ARTIFICIAL FLAVOR), PARTIALLY HYDROGENATED VEGETABLE SHORTENING (CONTAINS SOYBEAN OIL) WITH EMULSIFIER (MONO- AND DIGLYCERIDES, LECITHIN), COCOA (PROCESSED WITH ALKALI), CORN STARCH, DEXTROSE, SALT, LEAVENING (BAKING SODA), NONFAT MLK, MALTODEXTRIN." Date available: 06/25/2017 Date last updated by company: 06/25/2017
