Source: USDA Branded Food Products Database Release December 2017 Software v.3.8.6.4 2017-10-02
Report Run at: December 18, 2017 03:25 EST
"Nutrient data for: 45097495, HAGGEN, MIXED FRUIT WITH CHERRIES LIGHT SYRUP, CHERRIES, UPC: 726984141118"
Food Group:  Branded Food Products Database
Common Name:

Nutrient,Unit,Data points,Std. Error,"0.5 cup = 124.0g",1Value per 100 g,
Proximates
"Energy",kcal,--,--,91,73
"Protein",g,--,--,0.00,0.00
"Total lipid (fat)",g,--,--,0.00,0.00
"Carbohydrate, by difference",g,--,--,22.00,17.74
"Fiber, total dietary",g,--,--,0.0,0.0
"Sugars, total",g,--,--,19.00,15.32
Minerals
"Calcium, Ca",mg,--,--,0,0
"Iron, Fe",mg,--,--,0.00,0.00
"Sodium, Na",mg,--,--,10,8
Vitamins
"Vitamin C, total ascorbic acid",mg,--,--,5.5,4.4
"Vitamin A, IU",IU,--,--,226,182
Lipids
"Fatty acids, total saturated",g,--,--,0.000,0.000
"Fatty acids, total trans",g,--,--,0.000,0.000
"Cholesterol",mg,--,--,0,0
Amino Acids
Other
Ingredients
"PEACHES, PEARS, WATER,ES GRAPES, CORN SYRUP, HALVED CHERRIES ARTIFICIALLY COLORED ED WITH CARMINE, NATURAL FLAVOR, SUGAR." Date available: 09/15/2017 Date last updated by company: 09/15/2017
