Source: USDA Branded Food Products Database Release December 2017 Software v.3.8.6.4 2017-10-02
Report Run at: December 18, 2017 03:28 EST
"Nutrient data for: 45024034, HAIL MERRY, MIRACLE TART, COCONUT VANILLA CREAM, UPC: 816247010142"
Food Group:  Branded Food Products Database
Common Name:

Nutrient,Unit,Data points,Std. Error,"0.5 TART = 42.0g",1Value per 100 g,
Proximates
"Energy",kcal,--,--,210,500
"Protein",g,--,--,2.00,4.76
"Total lipid (fat)",g,--,--,17.00,40.48
"Carbohydrate, by difference",g,--,--,14.00,33.33
"Fiber, total dietary",g,--,--,4.0,9.5
"Sugars, total",g,--,--,9.00,21.43
Minerals
"Calcium, Ca",mg,--,--,20,48
"Iron, Fe",mg,--,--,0.86,2.04
"Sodium, Na",mg,--,--,60,143
Vitamins
"Vitamin C, total ascorbic acid",mg,--,--,0.0,0.0
"Vitamin A, IU",IU,--,--,0,0
Lipids
"Fatty acids, total saturated",g,--,--,12.999,30.950
"Fatty acids, total monounsaturated",g,--,--,2.999,7.140
"Fatty acids, total polyunsaturated",g,--,--,1.000,2.380
"Fatty acids, total trans",g,--,--,0.000,0.000
"Cholesterol",mg,--,--,0,0
Amino Acids
Other
Ingredients
"ORGANIC SHREDDED COCONUT, ORGANIC EXTRA VIRGIN COCONUT OIL, ORGANIC MAPLE SYRUP, ALMOND FOUR, ORGANIC PALM SUGAR, ORGANIC COCONUT WATER, CASHEWS, ORGANIC MADAGASCAR VANILLA, SEA SALT." Date available: 06/25/2017 Date last updated by company: 06/25/2017
