Source: USDA Branded Food Products Database Release December 2017 Software v.3.8.6.4 2017-10-02
Report Run at: December 18, 2017 03:28 EST
"Nutrient data for: 45169157, HAITOGLOU BROS S.A., GREEK MACEDONIAN TAHINI, UPC: 807036508001"
Food Group:  Branded Food Products Database
Common Name:

Nutrient,Unit,Data points,Std. Error,"2.0 Tbsp = 32.0g",1Value per 100 g,
Proximates
"Energy",kcal,--,--,220,688
"Protein",g,--,--,8.00,25.00
"Total lipid (fat)",g,--,--,19.00,59.38
"Carbohydrate, by difference",g,--,--,4.00,12.50
"Fiber, total dietary",g,--,--,3.0,9.4
"Sugars, total",g,--,--,1.00,3.12
Minerals
"Calcium, Ca",mg,--,--,60,188
"Iron, Fe",mg,--,--,3.04,9.51
"Sodium, Na",mg,--,--,5,16
Vitamins
"Vitamin C, total ascorbic acid",mg,--,--,0.0,0.0
"Vitamin A, IU",IU,--,--,0,0
Lipids
"Fatty acids, total saturated",g,--,--,3.002,9.380
"Fatty acids, total trans",g,--,--,0.000,0.000
"Cholesterol",mg,--,--,0,0
Amino Acids
Other
Ingredients
"100% TAHINI (CRUSHED SESAME SEEDS)." Date available: 07/14/2017 Date last updated by company: 07/14/2017
