Source: USDA Branded Food Products Database Release December 2017 Software v.3.8.6.4 2017-10-02
Report Run at: December 18, 2017 03:34 EST
"Nutrient data for: 45241136, HAL & HALF ICED TEA LEMONADE, UPC: 613008735302"
Food Group:  Branded Food Products Database
Common Name:

Nutrient,Unit,Data points,Std. Error,"8.0 OZA = 240.0g",1Value per 100 g,
Proximates
"Energy",kcal,--,--,50,21
"Protein",g,--,--,0.00,0.00
"Total lipid (fat)",g,--,--,0.00,0.00
"Carbohydrate, by difference",g,--,--,13.99,5.83
"Fiber, total dietary",g,--,--,0.0,0.0
"Sugars, total",g,--,--,13.99,5.83
Minerals
"Calcium, Ca",mg,--,--,0,0
"Iron, Fe",mg,--,--,0.00,0.00
"Sodium, Na",mg,--,--,10,4
Vitamins
"Vitamin C, total ascorbic acid",mg,--,--,22.6,9.4
"Vitamin A, IU",IU,--,--,0,0
Lipids
"Fatty acids, total saturated",g,--,--,0.000,0.000
"Fatty acids, total trans",g,--,--,0.000,0.000
"Cholesterol",mg,--,--,0,0
Amino Acids
Other
Ingredients
"PREMIUM BLACK TEA USING FILTERED WATER, HIGH FRUCTOSE CORN SYRUP (GLUCOSE-FRUCTOSE SYRUP), LEMON JUICE FROM CONCENTRATE, PEAR JUICE FROM CONCENTRATE, STRAWBERRY PUREE, NATURAL FLAVORS, MALIC ACID, CITRIC ACID, ASCORBIC ACID (VITAMIN C), SUCRALOSE (SPLENDA BRAND), ACESULFAME POTASSIUM." Date available: 07/14/2017 Date last updated by company: 07/14/2017
