Source: USDA Branded Food Products Database Release December 2017 Software v.3.8.6.4 2017-10-02
Report Run at: December 18, 2017 03:34 EST
"Nutrient data for: 45203296, HALF SAUSAGE HALF PEPPERONI PIZZA, UPC: 858566003092"
Food Group:  Branded Food Products Database
Common Name:

Nutrient,Unit,Data points,Std. Error,"0.25 PIZZA = 125.0g",1Value per 100 g,
Proximates
"Energy",kcal,--,--,310,248
"Protein",g,--,--,17.00,13.60
"Total lipid (fat)",g,--,--,19.00,15.20
"Carbohydrate, by difference",g,--,--,24.00,19.20
"Fiber, total dietary",g,--,--,2.0,1.6
"Sugars, total",g,--,--,2.00,1.60
Minerals
"Calcium, Ca",mg,--,--,300,240
"Iron, Fe",mg,--,--,5.61,4.49
"Sodium, Na",mg,--,--,670,536
Vitamins
"Vitamin C, total ascorbic acid",mg,--,--,7.5,6.0
"Vitamin A, IU",IU,--,--,624,499
Lipids
"Fatty acids, total saturated",g,--,--,8.000,6.400
"Fatty acids, total trans",g,--,--,0.000,0.000
"Cholesterol",mg,--,--,35,28
Amino Acids
Other
Ingredients
"MOZZARELLA CHEESE (PASTEURIZED PART SKIM MILK, CHEESE CULTURES, SALT, ENZYMES), CRUST [ENRICHED FLOUR (WHEAT FLOUR, NIACIN, REDUCED IRON, THIAMINE MONONITRATE, RIBOFLAVIN, ENZYME, FOLIC ACID), WATER, SOYBEAN OIL, YEAST, DEXTROSE, CALCIUM PROPIONATE (PRESERVATIVE), SALT, DOUGH CONDITIONER (SODIUM METABISULFITE) AND SOY LECITHIN], SAUCE (VINE RIPENED FRESH TOMATOES, SALT, GARLIC POWDER, ONIONS, OREGANO, BASIL, FENNEL, BLACK PEPPER, RED PEPPER, NATURALLY DERIVED CITRIC ACID), SAUSAGE (PORK, WATER, SALT, SPICES, SAGE, FLAVORINGS, PAPRIKA), PEPPERONI (PORK, BEEF, SALT, CONTAINS 2% OR LESS OF DEXTROSE, FLAVORINGS, LACTIC ACID STARTER CULTURE, OLEORESIN OF PAPRIKA, SODIUM NITRITE, SPICES, WATER, BHA, BHT, CITRIC ACID), SEASONED ROMANO CHEESE (PASTEURIZED COW'S MILK, CHEESE CULTURES, SALTY, ENZYMES, OREGANO, AND ANTI-CAKING AGENT (POWDERED CELLULOSE)." Date available: 07/14/2017 Date last updated by company: 07/14/2017
