Source: USDA Branded Food Products Database Release December 2017 Software v.3.8.6.4 2017-10-02
Report Run at: December 18, 2017 03:35 EST
"Nutrient data for: 45333436, HALLOWEEN GUMMI WORMS, UPC: 034952585810"
Food Group:  Branded Food Products Database
Common Name:

Nutrient,Unit,Data points,Std. Error,"6.0 PIECES = 29.0g",1Value per 100 g,
Proximates
"Energy",kcal,--,--,90,310
"Protein",g,--,--,1.00,3.45
"Total lipid (fat)",g,--,--,0.00,0.00
"Carbohydrate, by difference",g,--,--,20.00,68.97
"Fiber, total dietary",g,--,--,0.0,0.0
"Sugars, total",g,--,--,12.00,41.38
Minerals
"Calcium, Ca",mg,--,--,0,0
"Iron, Fe",mg,--,--,0.00,0.00
"Sodium, Na",mg,--,--,10,34
Vitamins
"Vitamin D",IU,--,--,0,0
Lipids
"Fatty acids, total saturated",g,--,--,0.000,0.000
"Fatty acids, total trans",g,--,--,0.000,0.000
"Cholesterol",mg,--,--,0,0
Amino Acids
Other
Ingredients
"CORN SYRUP, SUGAR, WATER, GELATIN, CITRIC ACID, NATURAL AND ARTIFICIAL FLAVORS, PECTIN, VEGETABLE OIL (COCONUT, CANOLA) AND CARNAUBA WAX (TO PREVENT STICKING), RED 40, YELLOW 5, YELLOW 6, BLUE 1." Date available: 10/13/2017 Date last updated by company: 10/13/2017
