Source: USDA Branded Food Products Database Release December 2017 Software v.3.8.6.4 2017-10-02
Report Run at: December 18, 2017 03:55 EST
"Nutrient data for: 45174205, HAM, UPC: 048001533592"
Food Group:  Branded Food Products Database
Common Name:

Nutrient,Unit,Data points,Std. Error,"0.5 CUBE = 6.0g",1Value per 100 g,
Proximates
"Energy",kcal,--,--,15,250
"Protein",g,--,--,0.00,0.00
"Total lipid (fat)",g,--,--,1.00,16.67
"Carbohydrate, by difference",g,--,--,1.00,16.67
Minerals
"Sodium, Na",mg,--,--,1130,18833
Vitamins
Lipids
"Fatty acids, total saturated",g,--,--,0.500,8.330
Amino Acids
Other
Ingredients
"SALT, MONOSODIUM GLUTAMATE, PALM OIL, SMOKED BACON FAT, POTATO STARCH, HYDROLYZED CORN PROTEIN, IODIZED SALT (SALT, POTASSIUM IODIDE), HYDROGENATED PALM OIL, GUAR GUM, AUTOLYZED YEAST EXTRACT (BARLEY), MALTODEXTRIN, WATER, CORN STARCH, CARAMEL COLOR (CONTAINS SULFITES), POWDERED COOKED HAM (CURED WITH WATER, SALT, SUGAR, SODIUM PHOSPHATE, SODIUM ERYTHORBATE, SODIUM NITRATE), DISODIUM INOSINATE, DEHYDRATED PARSLEY, ARTIFICIAL AND NATURAL SMOKE FLAVOR, NATURAL FLAVOR, TBHQ (USED TO PROTECT QUALITY), DISODIUM GUANYLATE." Date available: 08/18/2017 Date last updated by company: 08/18/2017
