Source: USDA Branded Food Products Database Release December 2017 Software v.3.8.6.4 2017-10-02
Report Run at: December 18, 2017 03:54 EST
"Nutrient data for: 45217635, HAM SALAD, UPC: 047426308648"
Food Group:  Branded Food Products Database
Common Name:

Nutrient,Unit,Data points,Std. Error,"0.5 cup = 100.0g",1Value per 100 g,
Proximates
"Energy",kcal,--,--,330,330
"Protein",g,--,--,10.00,10.00
"Total lipid (fat)",g,--,--,31.00,31.00
"Carbohydrate, by difference",g,--,--,3.00,3.00
"Fiber, total dietary",g,--,--,0.0,0.0
"Sugars, total",g,--,--,2.00,2.00
Minerals
"Calcium, Ca",mg,--,--,0,0
"Iron, Fe",mg,--,--,0.50,0.50
"Sodium, Na",mg,--,--,570,570
Vitamins
"Vitamin C, total ascorbic acid",mg,--,--,0.0,0.0
"Vitamin A, IU",IU,--,--,0,0
Lipids
"Fatty acids, total saturated",g,--,--,6.000,6.000
"Fatty acids, total trans",g,--,--,0.000,0.000
"Cholesterol",mg,--,--,55,55
Amino Acids
Other
Ingredients
"HAM (CURED WITH: WATER, SALT, POTASSIUM CHLORIDE, SODIUM PHOSPHATE, SUGAR, BROWN SUGAR, DEXTROSE, SODIUM ERYTHORBATE, SODIUM NITRITE), MAYONNAISE (SOYBEAN OIL, EGG YOLKS, DISTILLED VINEGAR, WATER, SUGAR, SALT, SPICE, LEMON JUICE CONCENTRATE, NATURAL FLAVOR, OLEORESIN PAPRIKA, CALCIUM DISODIUM EDTA ADDED TO PROTECT FLAVOR), RELISH (CUCUMBERS, HIGH FRUCTOSE CORN SYRUP, DISTILLED VINEGAR, WATER, SALT, SPICES, XANTHAN GUM, PEPPERS, NATURAL FLAVORS, GUAR GUM, YELLOW #5, SODIUM BENZOATE [TO PRESERVE FRESHNESS], AND POLYSORBATE 80)." Date available: 07/14/2017 Date last updated by company: 07/14/2017
