Source: USDA Branded Food Products Database Release December 2017 Software v.3.8.6.4 2017-10-02
Report Run at: December 18, 2017 03:47 EST
"Nutrient data for: 45263350, HAM CROQUETTES, UPC: 099336003298"
Food Group:  Branded Food Products Database
Common Name:

Nutrient,Unit,Data points,Std. Error,"2.0 CROQUETTES = 78.0g",1Value per 100 g,
Proximates
"Energy",kcal,--,--,150,192
"Protein",g,--,--,8.00,10.26
"Total lipid (fat)",g,--,--,7.00,8.97
"Carbohydrate, by difference",g,--,--,15.00,19.23
"Fiber, total dietary",g,--,--,3.0,3.8
"Sugars, total",g,--,--,0.00,0.00
Minerals
"Calcium, Ca",mg,--,--,40,51
"Iron, Fe",mg,--,--,1.18,1.51
"Sodium, Na",mg,--,--,380,487
Vitamins
"Vitamin C, total ascorbic acid",mg,--,--,1.3,1.7
"Vitamin A, IU",IU,--,--,0,0
Lipids
"Fatty acids, total saturated",g,--,--,1.997,2.560
"Fatty acids, total trans",g,--,--,0.000,0.000
"Cholesterol",mg,--,--,10,13
Amino Acids
Other
Ingredients
"COOKED HAM AND WATER PRODUCT - 25% OF WEIGHT IS ADDED INGREDIENTS (CURED WITH WATER, SALT, SUGAR, SODIUM PHOSPHATES, NATURAL LIQUID SMOKE, MONOSODIUM GLUTAMATE, SODIUM NITRITE), BATTER MIX (ALL PURPOSE FLOUR (BLEACHED ENRICHED WHEAT FLOUR, (FUNGAL ENZYME, NIACIN, REDUCED IRON, THIAMINE MONONITRATE, RIBOFLAVIN, FOLIC ACID)), SUGAR, CORN FLOUR, NONFAT DRY MILK, GRANULATED GARLIC, BAKING POWDER (SODIUM ACID PYROPHOSPHATE, SODIUM BICARBONATE, CORN STARCH, MONOCALCIUM PHOSPHATE), WHITE PEPPER, XANTHAN GUM, MONOSODIUM GLUTAMATE), WATER, BREAD CRUMBS (ENRICHED FLOUR (CONTAINING WHEAT FLOUR, NIACIN, REDUCED IRON, THIAMINE MONONITRATE, RIBOFLAVIN AND FOLIC ACID), CORN SYRUP, SUGAR, VEGETABLE SHORTENING (ONE OR MORE OF THE FOLLOWING: PARTIALLY HYDROGENATED SOYBEAN OIL, AND/OR COTTONSEED OIL), YEAST, CONTAINS 2% OR LESS OF THE FOLLOWING: SALT, SOY FLOUR, WHEY, SODIUM STEAROYL, 2 LACTYLATE (DOUGH CONDITIONER), CALCIUM PROPIONATE (PRESERVATIVE), SESAME SEED) AND/OR BREEDER (WHEAT FLOUR, SALT, WHEY, SOYBEAN OIL), SOY PROTEIN CONCENTRATE AND/OR SOY FLOUR, ALL PURPOSE FLOUR (BLEACHED ENRICHED WHEAT FLOUR (FUNGAL ENZYME, NIACIN, REDUCED IRON, THIAMINE MONONITRATE, RIBOFLAVIN, FOLIC ACID)), WHOLE WHEAT FLOUR, RENDERED PORK FAT (CURED WITH WATER, SALT, SUGAR, SODIUM PHOSPHATES, SODIUM ERYTHORBATE, SODIUM NITRITE) AND/OR VEGETABLE OIL (SOYBEAN AND/OR COTTONSEED OIL), DEHYDRATED POTATO FLAKES (POTATOES, MONO & DIGLYCERIDES, SODIUM ACID PYROPHOSPHATE, CITRIC ACID), HAM SEASONING BASE (HYDROLYZED SOY PROTEIN, SALT, SUGAR, FLAVORINGS (INCLUDING AUTOLYZED YEAST EXTRACT, NATURAL SMOKE FLAVOR), LESS THAN 2% TRICALCIUM PHOSPHATE TO PREVENT CAKING), PEPPER STRIPS (PEPPERS, WATER, CITRIC ACID AND/OR CALCIUM CHLORIDE), GRANULATED GARLIC, DEHYDRATED ONIONS, SPICES, RED GEL BASED COLORS (WATER, HIGH FRUCTOSE CORN SYRUP, CORN SYRUP, GLYCERIN, SORBITOL, FD&C RED 40 (129), SUGAR, MODIFIED FOOD STARCH, FD&C RED 3 (E127), SALT, CARRAGEENAN, AGARGUM, POTASSIUM SORBATE, SODIUM BENZOATE (AS PRESERVATIVES), CITRIC ACID)." Date available: 09/26/2017 Date last updated by company: 09/26/2017
