Source: USDA Branded Food Products Database Release December 2017 Software v.3.8.6.4 2017-10-02
Report Run at: December 18, 2017 03:44 EST
"Nutrient data for: 45027169, HAMBURGER ROLLS, UPC: 072250065801"
Food Group:  Branded Food Products Database
Common Name:

Nutrient,Unit,Data points,Std. Error,"3.0 oz = 85.0g",1Value per 100 g,
Proximates
"Energy",kcal,--,--,270,318
"Protein",g,--,--,10.00,11.76
"Total lipid (fat)",g,--,--,5.00,5.88
"Carbohydrate, by difference",g,--,--,45.00,52.94
"Fiber, total dietary",g,--,--,2.0,2.4
"Sugars, total",g,--,--,8.00,9.41
Minerals
"Calcium, Ca",mg,--,--,80,94
"Iron, Fe",mg,--,--,1.59,1.87
"Sodium, Na",mg,--,--,460,541
Vitamins
"Vitamin C, total ascorbic acid",mg,--,--,0.0,0.0
"Vitamin A, IU",IU,--,--,0,0
Lipids
"Fatty acids, total saturated",g,--,--,1.003,1.180
"Fatty acids, total monounsaturated",g,--,--,1.496,1.760
"Fatty acids, total polyunsaturated",g,--,--,1.998,2.350
"Fatty acids, total trans",g,--,--,0.000,0.000
"Cholesterol",mg,--,--,0,0
Amino Acids
Other
Ingredients
"ENRICHED FLOUR (WHEAT FLOUR, NIACIN, REDUCED IRON, THIAMIN MONONITRATE, RIBOFLAVIN, FOLIC ACID), WATER, HIGH FRUCTOSE CORN SYRUP, YEAST, MARGARINE [LIQUID AND PARTIALLY HYDROGENATED SOYBEAN OIL, WATER, SALT, SOY LECITHIN, VEGETABLE MONO- AND DIGLYCERIDES, SODIUM BENZOATE (A PRESERVATIVE), NATURAL AND ARTIFICIAL FLAVOR, BETA CAROTENE (COLOR), VITAMIN A PALMITATE ADDED. ], WHEAT GLUTEN, CONTAINS 2% OR LESS OF EACH OF THE FOLLOWING: SALT, SOYBEAN OIL, CORN SYRUP SOLIDS, ETHOXYLATED MONO- AND DIGLYCERIDES, SODIUM STEAROYL LACTYLATE, MONOGLYCERIDES, NATURAL FLAVORS, CALCIUM SULFATE, CALCIUM PEROXIDE, WHEAT STARCH, ENZYMES, SOY LECITHIN, CALCIUM STEAROYL LACTYLATE, CALCIUM PROPIONATE (TO RETARD SPOILAGE). TOPPED WITH SESAME SEEDS." Date available: 06/25/2017 Date last updated by company: 06/25/2017
