Source: USDA Branded Food Products Database Release December 2017 Software v.3.8.6.4 2017-10-02
Report Run at: December 18, 2017 03:43 EST
"Nutrient data for: 45195109, HAMBURGER ENRICHED BUNS, UPC: 041130286629"
Food Group:  Branded Food Products Database
Common Name:

Nutrient,Unit,Data points,Std. Error,"1 BUN = 39.0g",1Value per 100 g,
Proximates
"Energy",kcal,--,--,110,282
"Protein",g,--,--,4.00,10.26
"Total lipid (fat)",g,--,--,1.00,2.56
"Carbohydrate, by difference",g,--,--,23.00,58.97
"Fiber, total dietary",g,--,--,1.0,2.6
"Sugars, total",g,--,--,3.00,7.69
Minerals
"Calcium, Ca",mg,--,--,80,205
"Iron, Fe",mg,--,--,1.38,3.55
"Sodium, Na",mg,--,--,230,590
Vitamins
"Vitamin C, total ascorbic acid",mg,--,--,0.0,0.0
"Thiamin",mg,--,--,0.000,0.000
"Riboflavin",mg,--,--,0.136,0.349
"Niacin",mg,--,--,2.052,5.262
"Vitamin A, IU",IU,--,--,0,0
Lipids
"Fatty acids, total saturated",g,--,--,0.000,0.000
"Fatty acids, total monounsaturated",g,--,--,0.000,0.000
"Fatty acids, total polyunsaturated",g,--,--,0.499,1.280
"Fatty acids, total trans",g,--,--,0.000,0.000
"Cholesterol",mg,--,--,0,0
Amino Acids
Other
Ingredients
"UNBLEACHED ENRICHED FLOUR (WHEAT FLOUR, MALTED BARLEY FLOUR, NIACIN, REDUCED IRON, THIAMIN MONONITRATE, RIBOFLAVIN, FOLIC ACID), WATER, HIGH FRUCTOSE CORN SYRUP, YEAST, CONTAINS 2% OR LESS OF EACH OF THE FOLLOWING: WHEAT GLUTEN, SALT, VEGETABLE OIL (SOYBEAN OIL OR CANOLA OIL), DOUGH CONDITIONERS (CONTAINS ONE OR MORE OF THE FOLLOWING: SODIUM STEAROYL LACTYLATE, CALCIUM STEAROYL LACTYLATE, MONOGLYCERIDES AND/OR DIGLYCERIDES, CALCIUM PEROXIDE, CALCIUM IODATE, DATEM, ETHOXYLATED MONO-AND DIGLYCERIDES, ENZYMES), SOY FLOUR, CALCIUM SULFATE, AMMONIUM SULFATE, CALCIUM CARBONATE, SORBIC ACID, SOY LECITHIN, CALCIUM PROPIONATE (TO RETARD SPOILAGE)." Date available: 07/14/2017 Date last updated by company: 07/14/2017
