Source: USDA Branded Food Products Database Release December 2017 Software v.3.8.6.4 2017-10-02
Report Run at: December 18, 2017 03:40 EST
"Nutrient data for: 45274413, HAMBURGER BUNS, UPC: 085239132494"
Food Group:  Branded Food Products Database
Common Name:

Nutrient,Unit,Data points,Std. Error,"1 BUN = 57.0g",1Value per 100 g,
Proximates
"Energy",kcal,--,--,150,263
"Protein",g,--,--,5.00,8.77
"Total lipid (fat)",g,--,--,2.50,4.39
"Carbohydrate, by difference",g,--,--,27.00,47.37
"Fiber, total dietary",g,--,--,1.0,1.8
"Sugars, total",g,--,--,4.00,7.02
Minerals
"Calcium, Ca",mg,--,--,0,0
"Iron, Fe",mg,--,--,1.58,2.77
"Sodium, Na",mg,--,--,230,404
Vitamins
"Vitamin C, total ascorbic acid",mg,--,--,0.0,0.0
"Vitamin A, IU",IU,--,--,0,0
Lipids
"Fatty acids, total saturated",g,--,--,0.998,1.750
"Fatty acids, total trans",g,--,--,0.000,0.000
"Cholesterol",mg,--,--,30,53
Amino Acids
Other
Ingredients
"UNBLEACHED BREAD FLOUR (WHEAT FLOUR, MALTED BARLEY FLOUR, NIACIN, IRON, THIAMINE MONONITRATE, RIBOFLAVIN, FOLIC ACID), WATER, SUGAR, YEAST, PALM OIL, CONTAINS 2% OR LESS OF: EGG YOLKS, HONEY, SALT, NONFAT MILK, WATER, MONOGLYCERIDES, PROPIONIC ACID, PHOSPHORIC ACID, EGGS, MALT (MALTED BARLEY, WHEAT FLOUR, DEXTROSE), VINEGAR, CULTURED WHEAT STARCH, WHEAT FLOUR, CITRIC ACID, ASCORBIC ACID ADDED AS DOUGH CONDITIONER, ENZYMES." Date available: 07/14/2017 Date last updated by company: 07/14/2017
