Source: USDA Branded Food Products Database Release December 2017 Software v.3.8.6.4 2017-10-02
Report Run at: December 18, 2017 03:51 EST
"Nutrient data for: 45165719, HAMMOND'S, HARD RIBBON CANDY CONFECTIONS, UPC: 691355040065"
Food Group:  Branded Food Products Database
Common Name:

Nutrient,Unit,Data points,Std. Error,"18.0 GRM = 18.0g",1Value per 100 g,
Proximates
"Energy",kcal,--,--,60,333
"Protein",g,--,--,0.00,0.00
"Total lipid (fat)",g,--,--,0.00,0.00
"Carbohydrate, by difference",g,--,--,15.00,83.33
"Fiber, total dietary",g,--,--,0.0,0.0
"Sugars, total",g,--,--,12.00,66.67
Minerals
"Sodium, Na",mg,--,--,5,28
Vitamins
Lipids
"Fatty acids, total saturated",g,--,--,0.000,0.000
"Fatty acids, total trans",g,--,--,0.000,0.000
"Cholesterol",mg,--,--,0,0
Amino Acids
Other
Ingredients
"SUGAR, CORN SYRUP, CITRIC ACID, NATURAL & ARTIFICIAL FLAVORS, ARTIFICIAL COLORS (INCL. BLUE 1, RED 3 & 40, YELLOW 5)." Date available: 07/14/2017 Date last updated by company: 07/14/2017
