Source: USDA Branded Food Products Database Release December 2017 Software v.3.8.6.4 2017-10-02
Report Run at: December 18, 2017 03:51 EST
"Nutrient data for: 45158212, HAMMOND'S, OLD FASHIONED PEACH DROPS, UPC: 691355894552"
Food Group:  Branded Food Products Database
Common Name:

Nutrient,Unit,Data points,Std. Error,"4.0 PIECES = 19.0g",1Value per 100 g,
Proximates
"Energy",kcal,--,--,70,368
"Protein",g,--,--,0.00,0.00
"Total lipid (fat)",g,--,--,0.00,0.00
"Carbohydrate, by difference",g,--,--,17.00,89.47
"Fiber, total dietary",g,--,--,0.0,0.0
"Sugars, total",g,--,--,13.00,68.42
Minerals
"Sodium, Na",mg,--,--,0,0
Vitamins
Lipids
"Fatty acids, total saturated",g,--,--,0.000,0.000
"Fatty acids, total trans",g,--,--,0.000,0.000
"Cholesterol",mg,--,--,0,0
Amino Acids
Other
Ingredients
"CANE SUGAR, CORN SYRUP, NATURAL & ARTIFICIAL FLAVORS, CITRIC ACID, FUMERIC ACID, MALIC ACID, ARTIFICIAL COLORS (RED 3, YELLOW 6)." Date available: 07/14/2017 Date last updated by company: 07/14/2017
