Source: USDA Branded Food Products Database Release December 2017 Software v.3.8.6.4 2017-10-02
Report Run at: December 18, 2017 03:57 EST
"Nutrient data for: 45137995, HANAN PERUVIAN SECRETS, HIGASAN LIVER CLEANSER BLEND TEA, UPC: 729955575547"
Food Group:  Branded Food Products Database
Common Name:

Nutrient,Unit,Data points,Std. Error,"1 BOLSITA = 240.0g",1Value per 100 g,
Proximates
"Energy",kcal,--,--,0,0
"Protein",g,--,--,0.00,0.00
"Total lipid (fat)",g,--,--,0.00,0.00
"Carbohydrate, by difference",g,--,--,0.00,0.00
"Sugars, total",g,--,--,0.00,0.00
Minerals
"Sodium, Na",mg,--,--,0,0
Vitamins
Lipids
Amino Acids
Other
Ingredients
"BOLDUS LEAVES / BOLDO (PEUMUS BOLDUS); HERCAMPURI (GENTIANELLA NITIDA); CARQUEJA (BACHARIS GENISCELIOIDES); HORSE TAIL / COLA DE CABALLO (EQUISETUM BOGOTENSE)." Date available: 06/25/2017 Date last updated by company: 06/25/2017
