Source: USDA Branded Food Products Database Release December 2017 Software v.3.8.6.4 2017-10-02
Report Run at: December 18, 2017 04:05 EST
"Nutrient data for: 45203370, HAND ROLLED EGG ROLL, UPC: 880124018989"
Food Group:  Branded Food Products Database
Common Name:

Nutrient,Unit,Data points,Std. Error,"1 EGG ROLL = 141.0g",1Value per 100 g,
Proximates
"Energy",kcal,--,--,238,169
"Protein",g,--,--,9.50,6.74
"Total lipid (fat)",g,--,--,7.30,5.18
"Carbohydrate, by difference",g,--,--,35.09,24.89
"Fiber, total dietary",g,--,--,3.5,2.5
"Sugars, total",g,--,--,2.81,1.99
Minerals
"Calcium, Ca",mg,--,--,47,33
"Iron, Fe",mg,--,--,1.37,0.97
"Sodium, Na",mg,--,--,451,320
Vitamins
"Vitamin C, total ascorbic acid",mg,--,--,10.2,7.2
"Vitamin A, IU",IU,--,--,663,470
Lipids
"Fatty acids, total saturated",g,--,--,1.001,0.710
"Fatty acids, total trans",g,--,--,0.000,0.000
"Cholesterol",mg,--,--,18,13
Amino Acids
Other
Ingredients
"FILLING: CABBAGE, CRAB, CRAB FLAKES [SURIMI (FISH PASTE OF POLLOCK, AND/OR GOLDEN THREADFIN BREAM), WATER, WHEAT STARCH, KONJAC FLOUR, SOYBEAN OIL, (SOYBEAN), SALT, ISOLATED SOY PROTEIN, NATURAL CRAB FLAVOR, MIRIN (RICE WINE), NATURAL CRAB EXTRACT, SUGAR, CALCIUM CARBONATE, CARMINE COLOR], CARROT, ONION, VEGETABLE OIL, CELERY, TEXTURED SOY FLOUR, SESAME FLAVORED OIL (SOY BEAN OIL, SESAME OIL), AND NO MORE THAN 2% EACH OF SEASONING [SUGAR, SALT, SPICES, MONOAMMONIUM GLUTAMATE, DEHYDRATED GARLIC, FLAVORINGS (CONTAINS MALTODEXTRIN), DISODIUM INOSINATE AND DISODIUM GUANYLATE, YEAST EXTRACT, CITRIC ACID], SUGAR, SALT, BROWN RICE, FOOD STARCH-MODIFIED, CRAB POWDER. CRUST: BLEACHED WHEAT FLOUR ENRICHED (NIACIN, REDUCED IRON, THIAMINE MONONITRATE, RIBOFLAVIN, FOLIC ACID, MALTED BARLEY FLOUR, POTASSIUM BROMATE), WATER, CORN STARCH, EGG, SALT, ASCORBIC ACID & CITRIC ACID AS ANTI-OXIDANT, FD & C YELLOW #5 & #6." Date available: 07/14/2017 Date last updated by company: 07/14/2017
