Source: USDA Branded Food Products Database Release December 2017 Software v.3.8.6.4 2017-10-02
Report Run at: December 18, 2017 03:59 EST
"Nutrient data for: 45077465, HANDCRAFTED FRENCH POT ICE CREAM, UPC: 731493030907"
Food Group:  Branded Food Products Database
Common Name:

Nutrient,Unit,Data points,Std. Error,"0.5 cup = 113.0g",1Value per 100 g,
Proximates
"Energy",kcal,--,--,299,265
"Protein",g,--,--,4.99,4.42
"Total lipid (fat)",g,--,--,19.00,16.81
"Carbohydrate, by difference",g,--,--,30.00,26.55
"Fiber, total dietary",g,--,--,0.0,0.0
"Sugars, total",g,--,--,30.00,26.55
Minerals
"Calcium, Ca",mg,--,--,99,88
"Iron, Fe",mg,--,--,0.00,0.00
"Sodium, Na",mg,--,--,80,71
Vitamins
"Vitamin C, total ascorbic acid",mg,--,--,0.0,0.0
"Vitamin A, IU",IU,--,--,562,497
Lipids
"Fatty acids, total saturated",g,--,--,10.000,8.850
"Fatty acids, total trans",g,--,--,0.000,0.000
"Cholesterol",mg,--,--,0,0
Amino Acids
Other
Ingredients
"CREAM, MILK, CANE SUGAR, PEANUT BUTTER (DRY ROASTED PEANUTS, SUGAR, PALM OIL, SEA SALT), MILK CHOCOLATE CHIPS (SUGAR, MILK, COCOA BUTTER, CHOCOLATE LIQUOR, EXPELLER- PRESSED NON-GMO SOY OIL, SOY LECITHIN, VANILLA), SKIM MILK, EGGS, CAROB BEAN GUM, GUAR GUM." Date available: 07/14/2017 Date last updated by company: 07/14/2017
