Source: USDA Branded Food Products Database Release December 2017 Software v.3.8.6.4 2017-10-02
Report Run at: December 18, 2017 03:59 EST
"Nutrient data for: 45082913, HAND CRAFTED GELATO FILLED FRUIT, UPC: 813258020023"
Food Group:  Branded Food Products Database
Common Name:

Nutrient,Unit,Data points,Std. Error,"1 FRUIT = 100.0g",1Value per 100 g,
Proximates
"Energy",kcal,--,--,130,130
"Protein",g,--,--,0.00,0.00
"Total lipid (fat)",g,--,--,0.00,0.00
"Carbohydrate, by difference",g,--,--,31.00,31.00
"Fiber, total dietary",g,--,--,1.0,1.0
"Sugars, total",g,--,--,24.00,24.00
Minerals
"Calcium, Ca",mg,--,--,20,20
"Iron, Fe",mg,--,--,0.00,0.00
"Sodium, Na",mg,--,--,0,0
Vitamins
"Vitamin C, total ascorbic acid",mg,--,--,30.0,30.0
"Vitamin A, IU",IU,--,--,500,500
Lipids
"Fatty acids, total saturated",g,--,--,0.000,0.000
"Fatty acids, total trans",g,--,--,0.000,0.000
"Cholesterol",mg,--,--,0,0
Amino Acids
Other
Ingredients
"CIACULLI TANGERINE: TANGERINE PULP (72%), CANE SUGAR, INVERT CANE SUGAR, WATER, LEMON JUICE." Date available: 06/25/2017 Date last updated by company: 06/25/2017
