Source: USDA Branded Food Products Database Release December 2017 Software v.3.8.6.4 2017-10-02
Report Run at: December 18, 2017 04:06 EST
"Nutrient data for: 45235305, HANK'S, WISHNIAK SODA, BLACK CHERRY, UPC: 710760100031"
Food Group:  Branded Food Products Database
Common Name:

Nutrient,Unit,Data points,Std. Error,"12.0 OZA = 355.0g",1Value per 100 g,
Proximates
"Energy",kcal,--,--,181,51
"Protein",g,--,--,0.00,0.00
"Total lipid (fat)",g,--,--,0.00,0.00
"Carbohydrate, by difference",g,--,--,45.01,12.68
"Sugars, total",g,--,--,45.01,12.68
Minerals
"Sodium, Na",mg,--,--,39,11
Vitamins
Lipids
Amino Acids
Other
Ingredients
"FILTERED CARBONATED WATER, CANE SUGAR, NATURAL AND ARTIFICIAL FLAVOR, CITRIC ACID, CARAMEL COLOR, SODIUM BENZOATE (TO PROTECT FLAVOR), RED #40, YUCCA EXTRACT AND BLUE #1." Date available: 06/24/2017 Date last updated by company: 06/24/2017
