Source: USDA Branded Food Products Database Release December 2017 Software v.3.8.6.4 2017-10-02
Report Run at: December 18, 2017 04:13 EST
"Nutrient data for: 45155336, HANNAFORD, HOT COCOA MIX, MILK CHOCOLATE, UPC: 041268131365"
Food Group:  Branded Food Products Database
Common Name:

Nutrient,Unit,Data points,Std. Error,"1 POUCH, 6 FL OZ (180ML) PREPARED = 28.0g",1Value per 100 g,
Proximates
"Energy",kcal,--,--,110,393
"Protein",g,--,--,1.00,3.57
"Total lipid (fat)",g,--,--,1.00,3.57
"Carbohydrate, by difference",g,--,--,24.00,85.71
"Fiber, total dietary",g,--,--,1.0,3.6
"Sugars, total",g,--,--,22.00,78.57
Minerals
"Calcium, Ca",mg,--,--,40,143
"Iron, Fe",mg,--,--,0.64,2.29
"Sodium, Na",mg,--,--,150,536
Vitamins
"Vitamin C, total ascorbic acid",mg,--,--,0.0,0.0
"Vitamin A, IU",IU,--,--,0,0
Lipids
"Fatty acids, total saturated",g,--,--,0.000,0.000
"Fatty acids, total trans",g,--,--,0.000,0.000
"Cholesterol",mg,--,--,0,0
Amino Acids
Other
Ingredients
"SUGAR, WHEY, CORN SYRUP SOLIDS, COCOA (PROCESSED WITH ALKALI), NONFAT MILK, PARTIALLY HYDROGENATED SOYBEAN OIL, CONTAINS 2% OR LESS OF: WHEY PROTEIN CONCENTRATE, SALT, SODIUM CASEINATE, DIPOTASSIUM PHOSPHATE, EMULSIFIER (MONO-AND DIGLYCERIDES), ARTIFICIAL FLAVOR." Date available: 08/11/2017 Date last updated by company: 08/11/2017
