Source: USDA Branded Food Products Database Release December 2017 Software v.3.8.6.4 2017-10-02
Report Run at: December 18, 2017 04:26 EST
"Nutrient data for: 45173470, HANNAFORD, WORKS BAGELS, UPC: 041268171453"
Food Group:  Branded Food Products Database
Common Name:

Nutrient,Unit,Data points,Std. Error,"1 BANGEL = 104.0g",1Value per 100 g,
Proximates
"Energy",kcal,--,--,250,240
"Protein",g,--,--,9.00,8.65
"Total lipid (fat)",g,--,--,2.50,2.40
"Carbohydrate, by difference",g,--,--,47.00,45.19
"Fiber, total dietary",g,--,--,2.0,1.9
"Sugars, total",g,--,--,4.00,3.85
Minerals
"Calcium, Ca",mg,--,--,150,144
"Iron, Fe",mg,--,--,2.86,2.75
"Sodium, Na",mg,--,--,370,356
Vitamins
"Vitamin C, total ascorbic acid",mg,--,--,9.6,9.2
"Vitamin A, IU",IU,--,--,0,0
Lipids
"Fatty acids, total saturated",g,--,--,0.499,0.480
"Fatty acids, total trans",g,--,--,0.000,0.000
"Cholesterol",mg,--,--,0,0
Amino Acids
Other
Ingredients
"UMBROMATED, UNBLEACHED, ENRICHED WHEAT FLOUR [FLOUR, MALTED BARLEY FLOUR, NIACIN (VITAMIN B3), REDUCED IRON, THIAMINE MONONITRATE (VITAMIN B1), RIBOFLAVIN (VITAMIN B2), FOLIC ACID)], WATER, ONION, SUGAR, SESAME SEEDS, SALT, YEAST, POPPY SEED, GARLIC, CALCIUM PROPIONATE, WHEAT GLUTEN, ENZYMES, MONOGLYCERIDES, ASCORBIC ACID, AND CITRIC ACID (ANTIOXIDANTS), XANTHAN GUM, GUAR GUM, MALTODEXTRIN, SODIUM ALGINATE, YELLOW CORN MEAL, HIGH OLEIC CANOLA OIL." Date available: 07/14/2017 Date last updated by company: 07/14/2017
