Source: USDA Branded Food Products Database Release December 2017 Software v.3.8.6.4 2017-10-02
Report Run at: December 18, 2017 04:23 EST
"Nutrient data for: 45146417, HANNAFORD, SODA, STRAWBERRY, UPC: 041268192250"
Food Group:  Branded Food Products Database
Common Name:

Nutrient,Unit,Data points,Std. Error,"12.0 OZA = 355.0g",1Value per 100 g,
Proximates
"Energy",kcal,--,--,181,51
"Protein",g,--,--,0.00,0.00
"Total lipid (fat)",g,--,--,0.00,0.00
"Carbohydrate, by difference",g,--,--,48.00,13.52
"Sugars, total",g,--,--,48.00,13.52
Minerals
"Sodium, Na",mg,--,--,36,10
Vitamins
Lipids
Amino Acids
Other
Ingredients
"CARBONATED WATER, HIGH FRUCTOSE CORN SYRUP, ARTIFICIAL FLAVORS, CITRIC ACID, SODIUM BENZOATE (A PRESERVATIVE), CARAMEL COLOR, RED 40." Date available: 07/14/2017 Date last updated by company: 07/14/2017
