Source: USDA Branded Food Products Database Release December 2017 Software v.3.8.6.4 2017-10-02
Report Run at: December 18, 2017 04:12 EST
"Nutrient data for: 45146411, HANNAFORD, FLAVORED PUNCH, KIWI STRAWBERRY PUNCH, UPC: 041268198290"
Food Group:  Branded Food Products Database
Common Name:

Nutrient,Unit,Data points,Std. Error,"8.0 OZA = 240.0g",1Value per 100 g,
Proximates
"Energy",kcal,--,--,79,33
"Protein",g,--,--,0.00,0.00
"Total lipid (fat)",g,--,--,0.00,0.00
"Carbohydrate, by difference",g,--,--,21.00,8.75
"Sugars, total",g,--,--,19.99,8.33
Minerals
"Potassium, K",mg,--,--,24,10
"Sodium, Na",mg,--,--,106,44
Vitamins
"Vitamin C, total ascorbic acid",mg,--,--,60.0,25.0
Lipids
Amino Acids
Other
Ingredients
"FILTERED WATER, HIGH FRUCTOSE CORN SYRUP AND 2% OR LESS OF EACH OF THE FOLLOWING: CONCENTRATED JUICES (PINEAPPLE, ORANGE, PASSIONFRUIT, APPLE), PUREES (APRICOT, PAPAYA, GUAVA), CITRIC ACID, NATURAL AND ARTIFICIAL FLAVORS, PECTIN, GUM ACACIA, SUCRALOSE, ACESULFAME POTASSIUM, GLYCEROL ESTER OF WOOD ROSIN, SODIUM HEXAMETAPHOSPHATE, YELLOW 5, BLUE 1, POTASSIUM SORBATE (PRESERVATIVE), ASCORBIC ACID (VITAMIN C)." Date available: 08/18/2017 Date last updated by company: 08/18/2017
