Source: USDA Branded Food Products Database Release December 2017 Software v.3.8.6.4 2017-10-02
Report Run at: December 18, 2017 04:12 EST
"Nutrient data for: 45173516, HANNAFORD, FRENCH TOAST BITES, CINNAMON, UPC: 041268190713"
Food Group:  Branded Food Products Database
Common Name:

Nutrient,Unit,Data points,Std. Error,"15.0 BITES = 110.0g",1Value per 100 g,
Proximates
"Energy",kcal,--,--,320,291
"Protein",g,--,--,5.00,4.55
"Total lipid (fat)",g,--,--,16.00,14.55
"Carbohydrate, by difference",g,--,--,42.00,38.18
"Fiber, total dietary",g,--,--,2.0,1.8
"Sugars, total",g,--,--,11.00,10.00
Minerals
"Calcium, Ca",mg,--,--,40,36
"Iron, Fe",mg,--,--,1.80,1.64
"Sodium, Na",mg,--,--,340,309
Vitamins
"Vitamin C, total ascorbic acid",mg,--,--,0.0,0.0
"Vitamin A, IU",IU,--,--,0,0
Lipids
"Fatty acids, total saturated",g,--,--,2.497,2.270
"Fatty acids, total trans",g,--,--,0.000,0.000
"Cholesterol",mg,--,--,20,18
Amino Acids
Other
Ingredients
"BREAD (ENRICHED WHEAT FLOUR [WHEAT FLOUR, MALTED BARLEY FLOUR, REDUCED IRON, NIACIN, THIAMINE MONONITRATE, RIBOFLAVIN, FOLIC ACID], WATER, HIGH FRUCTOSE CORN SYRUP, YEAST, SOYBEAN OIL, SALT, CORN FLOUR, MONO-AND DIGLYCERIDES, CALCIUM PROPIONATE (PRESERVATIVE), DATEM, CALCIUM SULFATE, SPICE, COLORING, SOY LECITHIN, NATURAL AND ARTIFICIAL FLAVOR), WATER, BATTER (BLEACHED WHEAT FLOUR, SUGAR DEXTROSE, WHOLE EGG SOLIDS, YELLOW CORN FLOUR, CORN SYRUP SOLIDS, NATURAL FLAVOR, MODIFIED CORN STARCH, SALT, LEAVENING [SODIUM ALUMINIUM PHOSPHATE, SODIUM BICARBONATE], NONFAT DRY MILK SPICE, ARTIFICIAL FLAVOR, CARBOHYDRATE GUM, SILICON DIOXIDE [ADDED TO PREVENT CAKING]), SOYBEAN OIL, CINNAMON SUGAR (SUGAR, CINNAMON, SILICON DIOXIDE [ADDED TO PREVENT CAKING])." Date available: 07/14/2017 Date last updated by company: 07/14/2017
