Source: USDA Branded Food Products Database Release December 2017 Software v.3.8.6.4 2017-10-02
Report Run at: December 18, 2017 04:27 EST
"Nutrient data for: 45166607, HANNAHMAX BAKING, CRUNCHY COOKIE CHIPS, HARVEST PUMPKIN AND ROASTED PEPITAS, UPC: 833657007388"
Food Group:  Branded Food Products Database
Common Name:

Nutrient,Unit,Data points,Std. Error,"5.0 COOKIES = 28.0g",1Value per 100 g,
Proximates
"Energy",kcal,--,--,130,464
"Protein",g,--,--,2.00,7.14
"Total lipid (fat)",g,--,--,7.00,25.00
"Carbohydrate, by difference",g,--,--,15.00,53.57
"Fiber, total dietary",g,--,--,1.0,3.6
"Sugars, total",g,--,--,9.00,32.14
Minerals
"Calcium, Ca",mg,--,--,0,0
"Iron, Fe",mg,--,--,1.29,4.59
"Sodium, Na",mg,--,--,70,250
Vitamins
"Vitamin C, total ascorbic acid",mg,--,--,0.0,0.0
"Vitamin A, IU",IU,--,--,179,638
Lipids
"Fatty acids, total saturated",g,--,--,2.999,10.710
"Fatty acids, total trans",g,--,--,0.000,0.000
"Cholesterol",mg,--,--,20,71
Amino Acids
Other
Ingredients
"ROASTED PEPITAS (PEPITAS, NON-GMO CANOLA OIL), CANE BROWN SUGAR, ENRICHED UNBLEACHED WHEAT FLOUR (WHEAT FLOUR, MALTED BARLEY FLOUR, NIACIN, REDUCED IRON, THIAMIN, RIBOFLAVIN, FOLIC ACID), UNSALTED BUTTER, CAGE FREE EGGS, CANE SUGAR, NATURAL PUMPKIN EXTRACT, BAKING SODA, SALT, COCOA POWDER (PROCESSED WITH ALKALI), CINNAMON, NUTMEG, ALL SPICE, CLOVES, AND GINGER." Date available: 07/14/2017 Date last updated by company: 07/14/2017
