Source: USDA Branded Food Products Database Release December 2017 Software v.3.8.6.4 2017-10-02
Report Run at: December 18, 2017 04:08 EST
"Nutrient data for: 45173491, HANNAFORD, BREAD CRUMBS, UPC: 041268180509"
Food Group:  Branded Food Products Database
Common Name:

Nutrient,Unit,Data points,Std. Error,"0.25 cup = 28.0g",1Value per 100 g,
Proximates
"Energy",kcal,--,--,110,393
"Protein",g,--,--,4.00,14.29
"Total lipid (fat)",g,--,--,1.50,5.36
"Carbohydrate, by difference",g,--,--,20.00,71.43
"Fiber, total dietary",g,--,--,1.0,3.6
"Sugars, total",g,--,--,1.00,3.57
Minerals
"Calcium, Ca",mg,--,--,40,143
"Iron, Fe",mg,--,--,2.57,9.19
"Sodium, Na",mg,--,--,430,1536
Vitamins
"Vitamin C, total ascorbic acid",mg,--,--,0.0,0.0
"Vitamin A, IU",IU,--,--,0,0
Lipids
"Fatty acids, total saturated",g,--,--,0.000,0.000
"Fatty acids, total trans",g,--,--,0.000,0.000
"Cholesterol",mg,--,--,0,0
Amino Acids
Other
Ingredients
"BREAD CRUMBS (ENRICHED FLOUR [FLOUR, MALTED BARLEY FLOUR, NIACIN, FERROUS SULFATE, THIAMINE MONONITRATE, RIBOFLAVIN, FOLIC ACID], HIGH FRUCTOSE CORN SYRUP, HYDROGENATED VEGETABLE OIL, [SOYBEAN, COTTONSEED, CORN, CANOLA], WATER, CONTAINS 2% OR LESS OF THE FOLLOWING: YEAST, SALT, BROWN SUGAR, HONEY, MOLASSES, SUGAR, WHEAT GLUTEN, WHEY, SOY FLOUR, WHOLE WHEAT FLOUR, RYE FLOUR, CORN FLOUR, OAT BRAN, CORN MEAL, RICE FLOUR, POTATO FLOUR, BUTTER, DOUGH CONDITIONERS [MONO AND DYGLYCERIDES, SODIUM AND/OR CALCIUM STEAROYL LACTYLATE, SOY LECITHIN, CALCIUM CARBONATE], YEAST NUTRIENTS [AMMONIUM SULFATE, CALCIUM SULFATE, MONOCALCIUM PHOSPHATE], VINEGAR, NONFAT MILK, BUTTERMILK, LACTIC ACID, CALCIUM PROPIONATE AND POTASSIUM SORBATE [PRESERVATIVES], SESAME SEEDS AND/OR POPPY SEEDS), SALT, PARSLEY FLAKES, SPICE AND COLOR, ONION POWDER, NATURAL FLAVOR, GARLIC, SUGAR." Date available: 07/14/2017 Date last updated by company: 07/14/2017
