Source: USDA Branded Food Products Database Release December 2017 Software v.3.8.6.4 2017-10-02
Report Run at: December 18, 2017 04:22 EST
"Nutrient data for: 45155362, HANNAFORD, SODA, DR. PERKY, UPC: 041268192151"
Food Group:  Branded Food Products Database
Common Name:

Nutrient,Unit,Data points,Std. Error,"12.0 OZA = 355.0g",1Value per 100 g,
Proximates
"Energy",kcal,--,--,149,42
"Protein",g,--,--,0.00,0.00
"Total lipid (fat)",g,--,--,0.00,0.00
"Carbohydrate, by difference",g,--,--,42.00,11.83
"Sugars, total",g,--,--,42.00,11.83
Minerals
"Sodium, Na",mg,--,--,0,0
Vitamins
Lipids
Amino Acids
Other
Ingredients
"CARBONATED WATER, HIGH FRUCTOSE CORN SYRUP, CARAMEL COLOR, NATURAL AND ARTIFICIAL FLAVORS, PHOSPHORIC ACID, POTASSIUM BENZOATE (A PRESERVATIVE), CAFFEINE, LACTIC ACID, MONOPOTASSIUM PHOSPHATE." Date available: 07/14/2017 Date last updated by company: 07/14/2017
