Source: USDA Branded Food Products Database Release December 2017 Software v.3.8.6.4 2017-10-02
Report Run at: December 18, 2017 04:17 EST
"Nutrient data for: 45174580, HANNAFORD, PEANUT BUTTER GRANOLA CLUSTERS, UPC: 041268194261"
Food Group:  Branded Food Products Database
Common Name:

Nutrient,Unit,Data points,Std. Error,"0.5 cup = 57.0g",1Value per 100 g,
Proximates
"Energy",kcal,--,--,240,421
"Protein",g,--,--,5.00,8.77
"Total lipid (fat)",g,--,--,9.00,15.79
"Carbohydrate, by difference",g,--,--,38.00,66.67
"Fiber, total dietary",g,--,--,3.0,5.3
"Sugars, total",g,--,--,16.00,28.07
Minerals
"Calcium, Ca",mg,--,--,40,70
"Iron, Fe",mg,--,--,0.95,1.66
"Sodium, Na",mg,--,--,160,281
Vitamins
"Vitamin C, total ascorbic acid",mg,--,--,0.0,0.0
"Vitamin A, IU",IU,--,--,0,0
Lipids
"Fatty acids, total saturated",g,--,--,0.998,1.750
"Fatty acids, total trans",g,--,--,0.000,0.000
"Cholesterol",mg,--,--,0,0
Amino Acids
Other
Ingredients
"WHOLE ROLLED OATS, NATURALLY MILLED SUGAR, ROASTED PEANUT MEAL, WHOLE WHEAT FLOUR, RICE SYRUP, RAISINS, ESPELLER PRESSED CANOLA OIL, ORGANIC CORNMEAL, CRISP RICE WITH SUGAR, SALT AND BARLEY MALT, ORGANIC CORN STARCH, SALT, BAKING POWDER." Date available: 07/14/2017 Date last updated by company: 07/14/2017
