Source: USDA Branded Food Products Database Release December 2017 Software v.3.8.6.4 2017-10-02
Report Run at: December 18, 2017 04:19 EST
"Nutrient data for: 45182436, HANNAFORD, PRINCE EDWARD VEGETABLE MIX, UPC: 041268156153"
Food Group:  Branded Food Products Database
Common Name:

Nutrient,Unit,Data points,Std. Error,"0.5 cup = 85.0g",1Value per 100 g,
Proximates
"Energy",kcal,--,--,25,29
"Protein",g,--,--,1.00,1.18
"Total lipid (fat)",g,--,--,0.00,0.00
"Carbohydrate, by difference",g,--,--,6.00,7.06
"Fiber, total dietary",g,--,--,3.0,3.5
"Sugars, total",g,--,--,2.00,2.35
Minerals
"Calcium, Ca",mg,--,--,40,47
"Iron, Fe",mg,--,--,0.72,0.85
"Sodium, Na",mg,--,--,20,24
Vitamins
"Vitamin C, total ascorbic acid",mg,--,--,2.4,2.8
"Vitamin A, IU",IU,--,--,5000,5882
Lipids
"Fatty acids, total saturated",g,--,--,0.000,0.000
"Fatty acids, total trans",g,--,--,0.000,0.000
"Cholesterol",mg,--,--,0,0
Amino Acids
Other
Ingredients
"GREEN BEANS, YELLOW WAX BEANS, BABY CARROTS." Date available: 07/14/2017 Date last updated by company: 07/14/2017
