Source: USDA Branded Food Products Database Release December 2017 Software v.3.8.6.4 2017-10-02
Report Run at: December 18, 2017 04:08 EST
"Nutrient data for: 45173539, HANNAFORD, CAPRESE QUICHE, UPC: 041268194353"
Food Group:  Branded Food Products Database
Common Name:

Nutrient,Unit,Data points,Std. Error,"0.25 PIE = 141.0g",1Value per 100 g,
Proximates
"Energy",kcal,--,--,265,188
"Protein",g,--,--,6.99,4.96
"Total lipid (fat)",g,--,--,18.01,12.77
"Carbohydrate, by difference",g,--,--,16.00,11.35
"Fiber, total dietary",g,--,--,1.0,0.7
"Sugars, total",g,--,--,1.00,0.71
Minerals
"Calcium, Ca",mg,--,--,100,71
"Iron, Fe",mg,--,--,0.14,0.10
"Sodium, Na",mg,--,--,479,340
Vitamins
"Vitamin C, total ascorbic acid",mg,--,--,1.0,0.7
"Vitamin A, IU",IU,--,--,195,138
Lipids
"Fatty acids, total saturated",g,--,--,6.994,4.960
"Fatty acids, total trans",g,--,--,0.000,0.000
"Cholesterol",mg,--,--,110,78
Amino Acids
Other
Ingredients
"FILLING (TOMATOES, WHOLE EGGS, WATER, HEAVY CREAM [CREAM, CONTAINS MILK], MAYONNAISE [SOYBEAN OIL, DISTILLED VINEGAR, EGG YOLKS, SUGAR, SALT, SPICES, OLEORESIN PAPRIKA, CALCIUM DISODIUM EDTA], RICOTTA CHEESE [MILK, WHEY, CREAM, SALT, CITRIC ACID, LOCUST BEAN GUM, GUAR GUM, ACETIC ACID], PARMESAN CHEESE [MADE FROM PASTEURIZED COW'S MILK, CHEESE CULTURE, SALT, ENZYMES, POWDERED CELLULOSE {ANTICAKING AGENT}, CALCIUM PROPIONATE], MODIFIED FOOD STARCH, ONIONS, SALT, POTASSIUM SORBATE, NISIN, BLACK PEPPER, BASIL THYME), CRUST (ENRICHED WHEAT FLOUR, [WITH NIACIN, IRON, THIAMINE, RIBOFLAVIN, FOLIC ACID], PALM OIL WATER, WHOLE EGGS, SALT)." Date available: 07/14/2017 Date last updated by company: 07/14/2017
