Source: USDA Branded Food Products Database Release December 2017 Software v.3.8.6.4 2017-10-02
Report Run at: December 18, 2017 04:13 EST
"Nutrient data for: 45155343, HANNAFORD, GRAHAM COOKIES, FUDGE COVERED, UPC: 041268133055"
Food Group:  Branded Food Products Database
Common Name:

Nutrient,Unit,Data points,Std. Error,"3.0 COOKIES = 27.0g",1Value per 100 g,
Proximates
"Energy",kcal,--,--,140,519
"Protein",g,--,--,1.00,3.70
"Total lipid (fat)",g,--,--,6.00,22.22
"Carbohydrate, by difference",g,--,--,19.00,70.37
"Fiber, total dietary",g,--,--,1.0,3.7
"Sugars, total",g,--,--,9.00,33.33
Minerals
"Calcium, Ca",mg,--,--,0,0
"Iron, Fe",mg,--,--,1.33,4.94
"Sodium, Na",mg,--,--,80,296
Vitamins
"Vitamin C, total ascorbic acid",mg,--,--,0.0,0.0
"Vitamin A, IU",IU,--,--,0,0
Lipids
"Fatty acids, total saturated",g,--,--,4.501,16.670
"Fatty acids, total trans",g,--,--,0.000,0.000
"Cholesterol",mg,--,--,0,0
Amino Acids
Other
Ingredients
"ENRICHED FLOUR (WHEAT FLOUR, NIACIN, REDUCED IRON, THIAMINE MONONITRATE, RIBOFLAVIN, FOLIC ACID), SUGAR, VEGETABLE SHORTENING (PALM, PARTIALLY HYDROGENATED PALM OIL, SOYBEAN AND/OR COTTONSEED OILS), GRAHAM FLOUR, CONTAINS LESS THAN 2% OF: COCOA (PROCESSED WITH ALKALI), MOLASSES, HIGH FRUCTOSE CORN SYRUP, LEAVENING (SODIUM BICARBONATE, AMMONIUM BICARBONATE, SODIUM ACID PYROPHOSPHATE), SALT, SOY FLOUR, SOY LECITHIN, ARTIFICIAL FLAVOR." Date available: 07/14/2017 Date last updated by company: 07/14/2017
