Source: USDA Branded Food Products Database Release December 2017 Software v.3.8.6.4 2017-10-02
Report Run at: December 18, 2017 04:30 EST
"Nutrient data for: 45170792, HANSEN'S, JUNIOR WATER, ORGANIC BEVERAGE, FRUIT PUNCH, UPC: 070859323087"
Food Group:  Branded Food Products Database
Common Name:

Nutrient,Unit,Data points,Std. Error,"1 PACKAGE = 125.0g",1Value per 100 g,
Proximates
"Energy",kcal,--,--,30,24
"Total lipid (fat)",g,--,--,0.00,0.00
"Carbohydrate, by difference",g,--,--,8.00,6.40
"Sugars, total",g,--,--,8.00,6.40
Minerals
"Sodium, Na",mg,--,--,10,8
Vitamins
"Vitamin C, total ascorbic acid",mg,--,--,172.8,138.2
Lipids
Amino Acids
Other
Ingredients
"FILTERED WATER, ORGANIC SANE SUGAR, ORGANIC APPLE JUICE CONCENTRATE CITRIC ACID, NATURAL FLAVORS WITH FRUIT EXTRACTS FROM ORANGE, CHERRY, GRAPE, PINEAPPLE, APPLE, STRAWBERRY, BLUEBERRY AND ASCORBIC ACID (VITAMIN C)." Date available: 06/25/2017 Date last updated by company: 06/25/2017
