Source: USDA Branded Food Products Database Release December 2017 Software v.3.8.6.4 2017-10-02
Report Run at: December 18, 2017 04:31 EST
"Nutrient data for: 45044911, HANS KISSLE, POTATO & EGG SALAD, UPC: 036217783207"
Food Group:  Branded Food Products Database
Common Name:

Nutrient,Unit,Data points,Std. Error,"0.6 cup = 157.0g",1Value per 100 g,
Proximates
"Energy",kcal,--,--,261,166
"Protein",g,--,--,4.99,3.18
"Total lipid (fat)",g,--,--,16.00,10.19
"Carbohydrate, by difference",g,--,--,23.00,14.65
"Fiber, total dietary",g,--,--,2.0,1.3
"Sugars, total",g,--,--,4.00,2.55
Minerals
"Calcium, Ca",mg,--,--,20,13
"Iron, Fe",mg,--,--,0.96,0.61
"Sodium, Na",mg,--,--,490,312
Vitamins
"Vitamin C, total ascorbic acid",mg,--,--,8.0,5.1
"Vitamin A, IU",IU,--,--,179,114
Lipids
"Fatty acids, total saturated",g,--,--,2.496,1.590
"Fatty acids, total trans",g,--,--,0.000,0.000
"Cholesterol",mg,--,--,105,67
Amino Acids
Other
Ingredients
"POTATOES; EGGS; MAYONNAISE [SOYBEAN OIL, WATER, WHOLE EGGS AND EGG YOLKS, VINEGAR, SALT, SUGAR, LEMON JUICE (FROM CONCENTRATE), OLEORESIN PAPRIKA, NATURAL FLAVORS, CALCIUM DISODIUM EDTA (USED TO PROTECT QUALITY)]; WATER; ONIONS; SUGAR; CELERY; RED PEPPERS (RED PEPPERS, WATER, CITRIC ACID); CIDER VINEGAR (CIDER AND WHITE); SALT; SOYBEAN OIL; ONION*; SODIUM BENZOATE AND POTASSIUM SORBATE (PRESERVATIVES); CELERY SALT (CELERY SEED, SALT); GARLIC*; NISIN PREPARATION, NATURAL FLAVORS; SPICE; XANTHAN AND GUAR GUM." Date available: 07/14/2017 Date last updated by company: 07/14/2017
