Source: USDA Branded Food Products Database Release December 2017 Software v.3.8.6.4 2017-10-02
Report Run at: December 18, 2017 04:34 EST
"Nutrient data for: 45152950, HAPPY HOLIDAYS CHOCOLATE CREAM DROPS, UPC: 094776096800"
Food Group:  Branded Food Products Database
Common Name:

Nutrient,Unit,Data points,Std. Error,"3.0 PIECES = 43.0g",1Value per 100 g,
Proximates
"Energy",kcal,--,--,180,419
"Protein",g,--,--,1.00,2.33
"Total lipid (fat)",g,--,--,4.00,9.30
"Carbohydrate, by difference",g,--,--,36.00,83.72
"Fiber, total dietary",g,--,--,0.0,0.0
"Sugars, total",g,--,--,26.00,60.47
Minerals
"Calcium, Ca",mg,--,--,0,0
"Iron, Fe",mg,--,--,1.26,2.92
"Sodium, Na",mg,--,--,30,70
Vitamins
"Vitamin C, total ascorbic acid",mg,--,--,0.0,0.0
"Vitamin A, IU",IU,--,--,0,0
Lipids
"Fatty acids, total saturated",g,--,--,3.999,9.300
"Fatty acids, total trans",g,--,--,0.000,0.000
"Cholesterol",mg,--,--,0,0
Amino Acids
Other
Ingredients
"SUGAR, CORN SYRUP, PARTIALLY HYDROGENATED PALM KERNEL OIL, COCOA PROCESSED WITH ALKALI, WHEY (MILK), SALT, SOY LECITHIN (AN EMULSIFIER). EGG WHITES, INVERTASE, CITRIC ACID, NATURAL AND ARTIFICIAL FLAVORS." Date available: 07/14/2017 Date last updated by company: 07/14/2017
