Source: USDA Branded Food Products Database Release December 2017 Software v.3.8.6.4 2017-10-02
Report Run at: December 18, 2017 04:32 EST
"Nutrient data for: 45325170, HAPPY CAMPER CAKES, UPC: 024300045073"
Food Group:  Branded Food Products Database
Common Name:

Nutrient,Unit,Data points,Std. Error,"1 CAKE = 44.0g",1Value per 100 g,
Proximates
"Energy",kcal,--,--,190,432
"Protein",g,--,--,1.00,2.27
"Total lipid (fat)",g,--,--,8.00,18.18
"Carbohydrate, by difference",g,--,--,28.00,63.64
"Fiber, total dietary",g,--,--,0.0,0.0
"Sugars, total",g,--,--,20.00,45.45
Minerals
"Calcium, Ca",mg,--,--,0,0
"Iron, Fe",mg,--,--,0.45,1.02
"Potassium, K",mg,--,--,20,45
"Sodium, Na",mg,--,--,80,182
Vitamins
"Vitamin C, total ascorbic acid",mg,--,--,0.0,0.0
"Vitamin A, IU",IU,--,--,0,0
Lipids
"Fatty acids, total saturated",g,--,--,4.998,11.360
"Fatty acids, total monounsaturated",g,--,--,2.002,4.550
"Fatty acids, total polyunsaturated",g,--,--,0.999,2.270
"Fatty acids, total trans",g,--,--,0.000,0.000
"Cholesterol",mg,--,--,0,0
Amino Acids
Other
Ingredients
"SUGAR, CORN SYRUP, ENRICHED BLEACHED FLOUR (WHEAT FLOUR, NIACIN, REDUCED IRON, THIAMIN MONONITRATE [VITAMIN B1], RIBOFLAVIN [VITAMIN B2], FOLIC ACID), WATER, PALM AND PALM KERNEL OIL, PALM AND SOYBEAN OILS WITH TBHQ AND CITRIC ACID TO PROTECT FLAVOR, DEXTROSE, SOYBEAN OIL. CONTAINS 2% OR LESS OF EACH OF THE FOLLOWING: GREEN SUGAR CRYSTALS (SUGAR, CONFECTIONER'S GLAZE, YELLOW 5 LAKE, BLUE 1 LAKE, CARNAUBA WAX), EGG WHITES, CORN STARCH, WHEY (MILK), LEAVENING (BAKING SODA, SODIUM ALUMINUM PHOSPHATE), SALT, MONO- AND DIGLYCERIDES, SORBITAN MONOSTEARATE, SORBIC ACID (TO PRESERVE FRESHNESS), SOY LECITHIN, POLYSORBATE 60, NATURAL AND ARTIFICIAL FLAVORS, POLYSORBATE 80, ARTIFICIAL COLORS (INCLUDES YELLOW 5 LAKE, BLUE 1 LAKE), SOY FLOUR." Date available: 08/11/2017 Date last updated by company: 08/11/2017
