Source: USDA Branded Food Products Database Release December 2017 Software v.3.8.6.4 2017-10-02
Report Run at: December 18, 2017 04:35 EST
"Nutrient data for: 45187267, HAPPY MOUNTAIN FOODS, ALL NATURAL WHOLE FOOD ENERGY BAR, COCONUT, ALMOND, UPC: 632963756658"
Food Group:  Branded Food Products Database
Common Name:

Nutrient,Unit,Data points,Std. Error,"1 BAR = 64.0g",1Value per 100 g,
Proximates
"Energy",kcal,--,--,321,501
"Protein",g,--,--,8.00,12.50
"Total lipid (fat)",g,--,--,18.80,29.38
"Carbohydrate, by difference",g,--,--,30.30,47.34
"Fiber, total dietary",g,--,--,4.8,7.5
"Sugars, total",g,--,--,10.30,16.09
Minerals
"Calcium, Ca",mg,--,--,40,62
"Iron, Fe",mg,--,--,1.80,2.81
"Sodium, Na",mg,--,--,3,4
Vitamins
"Vitamin C, total ascorbic acid",mg,--,--,1.2,1.9
Lipids
"Fatty acids, total saturated",g,--,--,5.402,8.440
"Fatty acids, total trans",g,--,--,0.000,0.000
"Cholesterol",mg,--,--,0,0
Amino Acids
Other
Ingredients
"ORGANIC ROLLED OATS, ORGANIC WHEAT FLOUR, PEANUT BUTTER, WILDFLOWER HONEY, ORGANIC BANANAS, ALMONDS, ORGANIC COCONUT MILK, ORGANIC COCONUT FLAKES, SUNFLOWER OIL, CULTURED DEXTROSE (AN ALL-NATURAL MOLD INHIBITOR)." Date available: 05/31/2017 Date last updated by company: 05/31/2017
