Source: USDA Branded Food Products Database Release December 2017 Software v.3.8.6.4 2017-10-02
Report Run at: December 18, 2017 04:37 EST
"Nutrient data for: 45291384, HARD-BOILED EGG WITH PISTACHIOS & CHEDDAR CHEESE, UPC: 075925300528"
Food Group:  Branded Food Products Database
Common Name:

Nutrient,Unit,Data points,Std. Error,"106.0 GRM = 106.0g",1Value per 100 g,
Proximates
"Energy",kcal,--,--,350,330
"Protein",g,--,--,19.00,17.92
"Total lipid (fat)",g,--,--,28.01,26.42
"Carbohydrate, by difference",g,--,--,9.00,8.49
"Fiber, total dietary",g,--,--,3.0,2.8
"Sugars, total",g,--,--,1.00,0.94
Minerals
"Calcium, Ca",mg,--,--,250,236
"Iron, Fe",mg,--,--,1.87,1.76
"Sodium, Na",mg,--,--,360,340
Vitamins
"Vitamin C, total ascorbic acid",mg,--,--,0.0,0.0
"Vitamin A, IU",IU,--,--,519,490
Lipids
"Fatty acids, total saturated",g,--,--,8.999,8.490
"Fatty acids, total trans",g,--,--,0.000,0.000
"Cholesterol",mg,--,--,215,203
Amino Acids
Other
Ingredients
"EGG, ROASTED SHELLED PISTACHIOS (PISTACHIOS, SEA SALT), CHEDDAR CHEESE (PASTEURIZED MILK, CHEESE CULTURE, SALT, ENZYMES, COLOR ADDED, POTATO STARCH AND POWDERED CELLULOSE ADDED TO PREVENT CAKING, NATAMYCIN (A NATURAL MOLD INHIBITOR))." Date available: 07/14/2017 Date last updated by company: 07/14/2017
