Source: USDA Branded Food Products Database Release December 2017 Software v.3.8.6.4 2017-10-02
Report Run at: December 18, 2017 04:42 EST
"Nutrient data for: 45001733, HARDWOOD SMOKED HAM STEAK, UPC: 085239770504"
Food Group:  Branded Food Products Database
Common Name:

Nutrient,Unit,Data points,Std. Error,"3.0 ONZ = 84.0g",1Value per 100 g,
Proximates
"Energy",kcal,--,--,100,119
"Protein",g,--,--,15.00,17.86
"Total lipid (fat)",g,--,--,4.50,5.36
"Carbohydrate, by difference",g,--,--,1.00,1.19
"Sugars, total",g,--,--,1.00,1.19
Minerals
"Iron, Fe",mg,--,--,0.73,0.87
"Sodium, Na",mg,--,--,890,1060
Vitamins
Lipids
"Fatty acids, total saturated",g,--,--,1.504,1.790
"Fatty acids, total trans",g,--,--,0.000,0.000
"Cholesterol",mg,--,--,45,54
Amino Acids
Other
Ingredients
"CURED WITH WATER, SALT, POTASSIUM LACTATE, DEXTROSE, MODIFIED POTATO STARCH, SODIUM PHOSPHATES, SODIUM DIACETATE, SODIUM ERYTHOBATE, SODIUM NITRITE." Date available: 06/24/2017 Date last updated by company: 06/24/2017
