Source: USDA Branded Food Products Database Release December 2017 Software v.3.8.6.4 2017-10-02
Report Run at: December 18, 2017 04:42 EST
"Nutrient data for: 45135954, HARD WHEAT BAGELS WITH POPPY SEEDS, UPC: 4770049062166"
Food Group:  Branded Food Products Database
Common Name:

Nutrient,Unit,Data points,Std. Error,"6.0 UNITS = 40.0g",1Value per 100 g,
Proximates
"Energy",kcal,--,--,141,352
"Protein",g,--,--,4.00,10.00
"Total lipid (fat)",g,--,--,2.00,5.00
"Carbohydrate, by difference",g,--,--,27.00,67.50
"Fiber, total dietary",g,--,--,1.0,2.5
"Sugars, total",g,--,--,3.00,7.50
Minerals
"Calcium, Ca",mg,--,--,25,62
"Iron, Fe",mg,--,--,0.50,1.25
"Sodium, Na",mg,--,--,136,340
Vitamins
"Vitamin C, total ascorbic acid",mg,--,--,0.0,0.0
"Vitamin A, IU",IU,--,--,0,0
Lipids
"Fatty acids, total saturated",g,--,--,0.100,0.250
"Fatty acids, total trans",g,--,--,0.000,0.000
"Cholesterol",mg,--,--,0,0
Amino Acids
Other
Ingredients
"WHEAT FLOUR, SUGAR, VEGETABLE OIL, YEAST, POPPY SEEDS, SALT, VANILLA FLAVOR." Date available: 06/25/2017 Date last updated by company: 06/25/2017
