Source: USDA Branded Food Products Database Release December 2017 Software v.3.8.6.4 2017-10-02
Report Run at: December 18, 2017 04:43 EST
"Nutrient data for: 45015518, HARDY HORSERADISH SAUCE, UPC: 031215923471"
Food Group:  Branded Food Products Database
Common Name:

Nutrient,Unit,Data points,Std. Error,"1 Tbsp = 14.0g",1Value per 100 g,
Proximates
"Energy",kcal,--,--,80,571
"Protein",g,--,--,0.00,0.00
"Total lipid (fat)",g,--,--,9.00,64.29
"Carbohydrate, by difference",g,--,--,1.00,7.14
"Fiber, total dietary",g,--,--,0.0,0.0
"Sugars, total",g,--,--,0.00,0.00
Minerals
"Calcium, Ca",mg,--,--,0,0
"Iron, Fe",mg,--,--,0.00,0.00
"Sodium, Na",mg,--,--,120,857
Vitamins
"Vitamin C, total ascorbic acid",mg,--,--,0.0,0.0
"Vitamin A, IU",IU,--,--,0,0
Lipids
"Fatty acids, total saturated",g,--,--,0.500,3.570
"Fatty acids, total trans",g,--,--,0.000,0.000
"Cholesterol",mg,--,--,5,36
Amino Acids
Other
Ingredients
"CANOLA OIL, WATER, WHITE WINE AND WHITE DISTILLED VINEGARS, EGGS, GRATED AND DEHYDRATED HORSERADISH ROOTS, MILK COMPONENTS (CULTURED SKIM MILK, CULTURED WHEY, SKIM MILK SOLIDS, CREAM), SUGAR, SALT, FRUIT CONCENTRATES (PEAR, APPLE, PEACH), PINEAPPLE SYRUP, LEMON JUICE, SPICES, NATURAL FLAVORS, CITRIC ACID, NATURAL VITAMIN E (PROTECTS FLAVOR), XANTHAN GUM, GARLIC, PEACH PUREE, ONIONS, TURMERIC, ANNATTO." Date available: 07/14/2017 Date last updated by company: 07/14/2017
