Source: USDA Branded Food Products Database Release December 2017 Software v.3.8.6.4 2017-10-02
Report Run at: December 18, 2017 04:45 EST
"Nutrient data for: 45165154, HARIBO, SPOOKY MIX GUMMY CANDY, UPC: 079114221113"
Food Group:  Branded Food Products Database
Common Name:

Nutrient,Unit,Data points,Std. Error,"4.0 MINI BAGS = 40.0g",1Value per 100 g,
Proximates
"Energy",kcal,--,--,130,325
"Protein",g,--,--,3.00,7.50
"Total lipid (fat)",g,--,--,0.00,0.00
"Carbohydrate, by difference",g,--,--,31.00,77.50
"Sugars, total",g,--,--,20.00,50.00
Minerals
"Sodium, Na",mg,--,--,10,25
Vitamins
Lipids
Amino Acids
Other
Ingredients
"CORN SYRUP, SUGAR, GELATIN, DEXTROSE, CITRIC ACID, CORN STARCH, ARTIFICIAL AND NATURAL FLAVORS, FRACTIONATED COCONUT OIL, CARNAUBA WAX, BEESWAX COATING, ARTIFICIAL COLORS: YELLOW 5, RED 40, BLUE 1." Date available: 07/14/2017 Date last updated by company: 07/14/2017
