Source: USDA Branded Food Products Database Release December 2017 Software v.3.8.6.4 2017-10-02
Report Run at: December 18, 2017 04:49 EST
"Nutrient data for: 45145159, HARMONS NEIGHBORHOOD GROCER, RAW WHOLE CASHEWS, UPC: 019646001296"
Food Group:  Branded Food Products Database
Common Name:

Nutrient,Unit,Data points,Std. Error,"40.0 GRM = 40.0g",1Value per 100 g,
Proximates
"Energy",kcal,--,--,173,432
"Protein",g,--,--,5.00,12.50
"Total lipid (fat)",g,--,--,13.00,32.50
"Carbohydrate, by difference",g,--,--,9.00,22.50
"Fiber, total dietary",g,--,--,1.0,2.5
"Sugars, total",g,--,--,2.00,5.00
Minerals
"Calcium, Ca",mg,--,--,20,50
"Iron, Fe",mg,--,--,1.35,3.38
"Sodium, Na",mg,--,--,5,12
Vitamins
Lipids
"Fatty acids, total saturated",g,--,--,3.000,7.500
"Fatty acids, total trans",g,--,--,0.000,0.000
"Cholesterol",mg,--,--,0,0
Amino Acids
Other
Ingredients
"CASHEWS." Date available: 10/13/2017 Date last updated by company: 10/13/2017
