Source: USDA Branded Food Products Database Release December 2017 Software v.3.8.6.4 2017-10-02
Report Run at: December 18, 2017 04:50 EST
"Nutrient data for: 45194139, HARMONS, ORGANIC DICED TOMATOES, UPC: 019646001173"
Food Group:  Branded Food Products Database
Common Name:

Nutrient,Unit,Data points,Std. Error,"0.5 cup = 121.0g",1Value per 100 g,
Proximates
"Energy",kcal,--,--,30,25
"Protein",g,--,--,1.00,0.83
"Total lipid (fat)",g,--,--,0.00,0.00
"Carbohydrate, by difference",g,--,--,6.00,4.96
"Fiber, total dietary",g,--,--,2.1,1.7
"Sugars, total",g,--,--,3.00,2.48
Minerals
"Calcium, Ca",mg,--,--,60,50
"Iron, Fe",mg,--,--,0.39,0.32
"Sodium, Na",mg,--,--,200,165
Vitamins
"Vitamin C, total ascorbic acid",mg,--,--,6.4,5.3
"Vitamin A, IU",IU,--,--,537,444
Lipids
"Fatty acids, total saturated",g,--,--,0.000,0.000
"Fatty acids, total trans",g,--,--,0.000,0.000
"Cholesterol",mg,--,--,0,0
Amino Acids
Other
Ingredients
"ORGANIC FIRE ROASTED DICED TOMATOES, ORGANIC TOMATO JUICE (ORGANIC TOMATO PASTE AND WATER), SEA SALT, CALCIUM CHLORIDE, NATURALLY DERIVED CITRIC ACID." Date available: 07/14/2017 Date last updated by company: 07/14/2017
