Source: USDA Branded Food Products Database Release December 2017 Software v.3.8.6.4 2017-10-02
Report Run at: December 18, 2017 05:03 EST
"Nutrient data for: 45003936, HARRIS TEETER, LIGHT RED KIDNEY BEANS, UPC: 072036411150"
Food Group:  Branded Food Products Database
Common Name:

Nutrient,Unit,Data points,Std. Error,"0.5 cup = 130.0g",1Value per 100 g,
Proximates
"Energy",kcal,--,--,100,77
"Protein",g,--,--,6.99,5.38
"Total lipid (fat)",g,--,--,0.49,0.38
"Carbohydrate, by difference",g,--,--,21.00,16.15
"Fiber, total dietary",g,--,--,7.0,5.4
"Sugars, total",g,--,--,2.00,1.54
Minerals
"Calcium, Ca",mg,--,--,20,15
"Iron, Fe",mg,--,--,1.79,1.38
"Potassium, K",mg,--,--,430,331
"Sodium, Na",mg,--,--,260,200
Vitamins
"Vitamin C, total ascorbic acid",mg,--,--,0.0,0.0
"Vitamin A, IU",IU,--,--,0,0
Lipids
"Fatty acids, total saturated",g,--,--,0.000,0.000
"Fatty acids, total trans",g,--,--,0.000,0.000
"Cholesterol",mg,--,--,0,0
Amino Acids
Other
Ingredients
"PREPARED KIDNEY BEANS, WATER, SUGAR, SALT, CALCIUM CHLORIDE (FIRMING AGENT), DISODIUM EDTA (TO PROMOTE COLOR RETENTION)." Date available: 06/25/2017 Date last updated by company: 06/25/2017
