Source: USDA Branded Food Products Database Release December 2017 Software v.3.8.6.4 2017-10-02
Report Run at: December 18, 2017 05:10 EST
"Nutrient data for: 45183325, HARRIS TEETER, SOUP MIX VEGGIES, UPC: 07203671683"
Food Group:  Branded Food Products Database
Common Name:

Nutrient,Unit,Data points,Std. Error,"0.67 cup = 84.0g",1Value per 100 g,
Proximates
"Energy",kcal,--,--,50,60
"Protein",g,--,--,2.00,2.38
"Total lipid (fat)",g,--,--,0.00,0.00
"Carbohydrate, by difference",g,--,--,11.00,13.10
"Fiber, total dietary",g,--,--,2.0,2.4
"Sugars, total",g,--,--,3.00,3.57
Minerals
"Calcium, Ca",mg,--,--,20,24
"Iron, Fe",mg,--,--,0.36,0.43
"Sodium, Na",mg,--,--,20,24
Vitamins
"Vitamin C, total ascorbic acid",mg,--,--,4.9,5.8
"Vitamin A, IU",IU,--,--,759,904
Lipids
"Fatty acids, total saturated",g,--,--,0.000,0.000
"Fatty acids, total trans",g,--,--,0.000,0.000
"Cholesterol",mg,--,--,0,0
Amino Acids
Other
Ingredients
"CARROTS, POTATOES, CORN, GREEN BEANS, LIMA BEANS, OKRA, GREEN PEAS, CELERY, ONIONS." Date available: 07/14/2017 Date last updated by company: 07/14/2017
