Source: USDA Branded Food Products Database Release December 2017 Software v.3.8.6.4 2017-10-02
Report Run at: December 18, 2017 05:12 EST
"Nutrient data for: 45164683, HARRIS TEETER, UNSWEETENED TEA, UPC: 072036982742"
Food Group:  Branded Food Products Database
Common Name:

Nutrient,Unit,Data points,Std. Error,"8.0 OZA = 240.0g",1Value per 100 g,
Proximates
"Energy",kcal,--,--,0,0
"Protein",g,--,--,0.00,0.00
"Total lipid (fat)",g,--,--,0.00,0.00
"Carbohydrate, by difference",g,--,--,1.01,0.42
"Sugars, total",g,--,--,0.00,0.00
Minerals
"Sodium, Na",mg,--,--,10,4
Vitamins
Lipids
Amino Acids
Other
Ingredients
"FILTERED WATER, NATURAL TEA FLAVORS, BLACK TEA, CITRIC ACID, SODIUM BENZOATE, POTASSIUM SORBATE." Date available: 07/14/2017 Date last updated by company: 07/14/2017
