Source: USDA Branded Food Products Database Release December 2017 Software v.3.8.6.4 2017-10-02
Report Run at: December 18, 2017 05:11 EST
"Nutrient data for: 45054780, HARRIS TEETER, TOMATO KETCHUP, UPC: 072036080196"
Food Group:  Branded Food Products Database
Common Name:

Nutrient,Unit,Data points,Std. Error,"1 Tbsp = 17.0g",1Value per 100 g,
Proximates
"Energy",kcal,--,--,20,118
"Protein",g,--,--,0.00,0.00
"Total lipid (fat)",g,--,--,0.00,0.00
"Carbohydrate, by difference",g,--,--,4.00,23.53
"Sugars, total",g,--,--,4.00,23.53
Minerals
"Sodium, Na",mg,--,--,160,941
Vitamins
"Vitamin A, IU",IU,--,--,0,0
Lipids
"Fatty acids, total saturated",g,--,--,0.000,0.000
"Fatty acids, total trans",g,--,--,0.000,0.000
Amino Acids
Other
Ingredients
"TOMATO CONCENTRATE, SUGAR, DISTILLED VINEGAR, SALT, ONION POWDER, SPICE, NATURAL FLAVOR." Date available: 08/08/2017 Date last updated by company: 08/08/2017
