Source: USDA Branded Food Products Database Release December 2017 Software v.3.8.6.4 2017-10-02
Report Run at: December 18, 2017 05:09 EST
"Nutrient data for: 45033271, HARRIS TEETER, SODIUM STYLE CHEDDAR DIP, UPC: 072036985644"
Food Group:  Branded Food Products Database
Common Name:

Nutrient,Unit,Data points,Std. Error,"2.0 Tbsp = 31.0g",1Value per 100 g,
Proximates
"Energy",kcal,--,--,45,145
"Protein",g,--,--,1.00,3.23
"Total lipid (fat)",g,--,--,3.00,9.68
"Carbohydrate, by difference",g,--,--,4.00,12.90
"Fiber, total dietary",g,--,--,0.0,0.0
"Sugars, total",g,--,--,1.00,3.23
Minerals
"Calcium, Ca",mg,--,--,20,65
"Iron, Fe",mg,--,--,0.00,0.00
"Sodium, Na",mg,--,--,240,774
Vitamins
"Vitamin C, total ascorbic acid",mg,--,--,0.0,0.0
"Vitamin A, IU",IU,--,--,0,0
Lipids
"Fatty acids, total saturated",g,--,--,1.001,3.230
"Fatty acids, total trans",g,--,--,0.000,0.000
"Cholesterol",mg,--,--,5,16
Amino Acids
Other
Ingredients
"WATER, MILK, SOYBEAN OIL, MODIFIED CORN STARCH, MALTODEXTRIN, CONTAINS LESS THAN 2% OF: BUTTERMILK POWDER, SALT, SODIUM PHOSPHATE, WHEY PROTEIN CONCENTRATE, MONOSODIUM GLUTAMATE, SUGAR, NATURAL FLAVOR, DATEM, YEAST EXTRACT, LACTIC ACID, SORBIC ACID (PRESERVATIVE), CHEESE CULTURES, ENZYMES, ARTIFICIAL COLOR (YELLOW #5 AND YELLOW #6)." Date available: 06/24/2017 Date last updated by company: 06/24/2017
