Source: USDA Branded Food Products Database Release December 2017 Software v.3.8.6.4 2017-10-02
Report Run at: December 18, 2017 05:10 EST
"Nutrient data for: 45022237, HARRIS TEETER, SPANISH MANZANILLA OLIVES, UPC: 072036280657"
Food Group:  Branded Food Products Database
Common Name:

Nutrient,Unit,Data points,Std. Error,"5.0 OLIVES = 15.0g",1Value per 100 g,
Proximates
"Energy",kcal,--,--,25,167
"Protein",g,--,--,0.00,0.00
"Total lipid (fat)",g,--,--,2.50,16.67
"Carbohydrate, by difference",g,--,--,0.00,0.00
Minerals
"Calcium, Ca",mg,--,--,20,133
"Iron, Fe",mg,--,--,0.00,0.00
"Sodium, Na",mg,--,--,210,1400
Vitamins
"Vitamin C, total ascorbic acid",mg,--,--,0.0,0.0
"Vitamin A, IU",IU,--,--,333,2223
Lipids
"Fatty acids, total saturated",g,--,--,1.000,6.670
"Fatty acids, total trans",g,--,--,0.000,0.000
Amino Acids
Other
Ingredients
"OLIVES, WATER, MINCED PIMENTO, (PIMIENTO, SODIUM ALGINATE, GUAR GUM, CALCIUM CHLORIDE), SALT, LACTIC ACID, CITRIC ACID, ASCORBIC ACID." Date available: 07/14/2017 Date last updated by company: 07/14/2017
