Source: USDA Branded Food Products Database Release December 2017 Software v.3.8.6.4 2017-10-02
Report Run at: December 18, 2017 05:01 EST
"Nutrient data for: 45051275, HARRIS TEETER, INC., INDIAN STYLE BASMATI RICE, UPC: 072036761415"
Food Group:  Branded Food Products Database
Common Name:

Nutrient,Unit,Data points,Std. Error,"0.25 cup = 45.0g",1Value per 100 g,
Proximates
"Energy",kcal,--,--,150,333
"Protein",g,--,--,3.00,6.67
"Total lipid (fat)",g,--,--,0.50,1.11
"Carbohydrate, by difference",g,--,--,34.00,75.56
"Fiber, total dietary",g,--,--,0.0,0.0
"Sugars, total",g,--,--,0.00,0.00
Minerals
"Iron, Fe",mg,--,--,0.00,0.00
"Sodium, Na",mg,--,--,0,0
Vitamins
Lipids
Amino Acids
Other
Ingredients
"INGREDIENTS: INDIAN STYLE BASMATI RICE." Date available: 08/11/2017 Date last updated by company: 08/11/2017
