Source: USDA Branded Food Products Database Release December 2017 Software v.3.8.6.4 2017-10-02
Report Run at: December 18, 2017 04:53 EST
"Nutrient data for: 45033253, HARRIS TEETER, BREAD & BUTTER CHIPS, UPC: 072036280145"
Food Group:  Branded Food Products Database
Common Name:

Nutrient,Unit,Data points,Std. Error,"6.0 CHIPS = 28.0g",1Value per 100 g,
Proximates
"Energy",kcal,--,--,25,89
"Protein",g,--,--,0.00,0.00
"Total lipid (fat)",g,--,--,0.00,0.00
"Carbohydrate, by difference",g,--,--,6.00,21.43
"Sugars, total",g,--,--,5.00,17.86
Minerals
"Sodium, Na",mg,--,--,180,643
Vitamins
Lipids
Amino Acids
Other
Ingredients
"CUCUMBERS, HIGH FRUCTOSE CORN SYRUP, WATER, VINEGAR, SALT, MUSTARD SEEDS, ONION FLACKS, CALCIUM CHLORIDE, 0.1% SODIUM BENZOATE (PRESERVATIVES), CELERY SEEDS, AND YELLOW 5." Date available: 06/24/2017 Date last updated by company: 06/24/2017
