Source: USDA Branded Food Products Database Release December 2017 Software v.3.8.6.4 2017-10-02
Report Run at: December 18, 2017 04:58 EST
"Nutrient data for: 45003585, HARRIS TEETER, FRESH FOODS MARKET, PORTOBELLO MUSHROOM & CHEESE TORTELLONI, UPC: 072036952134"
Food Group:  Branded Food Products Database
Common Name:

Nutrient,Unit,Data points,Std. Error,"1 cup = 110.0g",1Value per 100 g,
Proximates
"Energy",kcal,--,--,310,282
"Protein",g,--,--,11.00,10.00
"Total lipid (fat)",g,--,--,5.00,4.55
"Carbohydrate, by difference",g,--,--,57.00,51.82
"Fiber, total dietary",g,--,--,3.0,2.7
"Sugars, total",g,--,--,1.00,0.91
Minerals
"Calcium, Ca",mg,--,--,40,36
"Iron, Fe",mg,--,--,5.73,5.21
"Sodium, Na",mg,--,--,460,418
Vitamins
"Vitamin C, total ascorbic acid",mg,--,--,0.0,0.0
"Vitamin A, IU",IU,--,--,128,116
Lipids
"Fatty acids, total saturated",g,--,--,1.001,0.910
"Fatty acids, total trans",g,--,--,0.000,0.000
"Cholesterol",mg,--,--,50,45
Amino Acids
Other
Ingredients
"ENRICHED DURUM WHEAT SEMOLINA (ENRICHED WITH NIACIN, FERROUS, SULFATE, THIAMIN MONONITRATE, RIBOFLAVIN, FOLIC ACID), WHOLE PASTEURIZED EGGS, WATER. FILLING: TOASTED WHEAT CRUMBS (WHEAT FLOUR, YEAST), PORTOBELLO MUSHROOM, CHEESE (RICOTTA, PARMESAN (WHEY, PASTEURIZED COW'S MILK, SALT, CITRIC ACID, POWDERED CELLULOSE, LIPASE, MICROBIAL ENZYME, BACTERIAL CULTURE, NATAMYCIN)), CANOLA OIL, ONIONS, MUSHROOM FLAVOR, GARLIC IN OIL (CHOPPED GARLIC, WATER, CANOLA OIL, CITRIC ACID, SODIUM BENZOATE, POTASSIUM SORBATE), SPICES, SALT." Date available: 07/14/2017 Date last updated by company: 07/14/2017
