Source: USDA Branded Food Products Database Release December 2017 Software v.3.8.6.4 2017-10-02
Report Run at: December 18, 2017 05:08 EST
"Nutrient data for: 45004406, HARRIS TEETER, REFRIED BLACK BEANS WITH LIME JUICE, UPC: 072036419958"
Food Group:  Branded Food Products Database
Common Name:

Nutrient,Unit,Data points,Std. Error,"0.5 cup = 134.0g",1Value per 100 g,
Proximates
"Energy",kcal,--,--,100,75
"Protein",g,--,--,6.00,4.48
"Total lipid (fat)",g,--,--,1.00,0.75
"Carbohydrate, by difference",g,--,--,17.00,12.69
"Fiber, total dietary",g,--,--,5.0,3.7
"Sugars, total",g,--,--,0.00,0.00
Minerals
"Calcium, Ca",mg,--,--,40,30
"Iron, Fe",mg,--,--,1.74,1.30
"Sodium, Na",mg,--,--,511,381
Vitamins
"Vitamin C, total ascorbic acid",mg,--,--,0.0,0.0
"Vitamin A, IU",IU,--,--,0,0
Lipids
"Fatty acids, total saturated",g,--,--,0.000,0.000
"Fatty acids, total trans",g,--,--,0.000,0.000
"Cholesterol",mg,--,--,0,0
Amino Acids
Other
Ingredients
"PREPARED BLACK BEANS, WATER, CONTAINS LESS THAN 2% OF: DICED ONIONS, SALT, SOYBEAN OIL, JALAPENO PEPPERS (JALAPENO PEPPERS, SALT, VINEGAR, NATURAL FLAVORS), LIME JUICE CONCENTRATE, SUGAR, CHILI POWDER (CHILI PEPPER, SPICES, SALT, NATURAL FLAVOR, GARLIC POWDER), GARLIC POWDER." Date available: 06/25/2017 Date last updated by company: 06/25/2017
