Source: USDA Branded Food Products Database Release December 2017 Software v.3.8.6.4 2017-10-02
Report Run at: December 18, 2017 05:15 EST
"Nutrient data for: 45216721, HARVEST BAY, ALL NATURAL COCONUT WATER, PINEAPPLE, UPC: 075239001258"
Food Group:  Branded Food Products Database
Common Name:

Nutrient,Unit,Data points,Std. Error,"1 CONTAINER = 250.0g",1Value per 100 g,
Proximates
"Energy",kcal,--,--,45,18
"Protein",g,--,--,1.00,0.40
"Total lipid (fat)",g,--,--,0.00,0.00
"Carbohydrate, by difference",g,--,--,11.00,4.40
"Fiber, total dietary",g,--,--,0.0,0.0
"Sugars, total",g,--,--,7.00,2.80
Minerals
"Calcium, Ca",mg,--,--,20,8
"Iron, Fe",mg,--,--,0.00,0.00
"Magnesium, Mg",mg,--,--,22,9
"Phosphorus, P",mg,--,--,30,12
"Potassium, K",mg,--,--,420,168
"Sodium, Na",mg,--,--,55,22
Vitamins
"Vitamin C, total ascorbic acid",mg,--,--,881.2,352.5
"Vitamin A, IU",IU,--,--,0,0
Lipids
"Fatty acids, total saturated",g,--,--,0.000,0.000
"Fatty acids, total trans",g,--,--,0.000,0.000
"Cholesterol",mg,--,--,0,0
Amino Acids
Other
Ingredients
"COCONUT WATER, PINEAPPLE JUICE FROM CONCENTRATE (WATER, PINEAPPLE JUICE CONCENTRATE), PALM SUGAR, NATURAL PINEAPPLE FLAVOR, ASCORBIC ACID (VITAMIN C)" Date available: 06/25/2017 Date last updated by company: 06/25/2017
