Source: USDA Branded Food Products Database Release December 2017 Software v.3.8.6.4 2017-10-02
Report Run at: December 18, 2017 05:23 EST
"Nutrient data for: 45230339, HATCH PEPPER HUMMUS, UPC: 688267178108"
Food Group:  Branded Food Products Database
Common Name:

Nutrient,Unit,Data points,Std. Error,"2.0 Tbsp = 28.0g",1Value per 100 g,
Proximates
"Energy",kcal,--,--,50,179
"Protein",g,--,--,1.00,3.57
"Total lipid (fat)",g,--,--,3.00,10.71
"Carbohydrate, by difference",g,--,--,4.00,14.29
"Fiber, total dietary",g,--,--,1.0,3.6
"Sugars, total",g,--,--,1.00,3.57
Minerals
"Calcium, Ca",mg,--,--,0,0
"Iron, Fe",mg,--,--,0.64,2.29
"Sodium, Na",mg,--,--,135,482
Vitamins
"Vitamin C, total ascorbic acid",mg,--,--,21.4,76.5
"Vitamin A, IU",IU,--,--,0,0
Lipids
"Fatty acids, total saturated",g,--,--,0.000,0.000
"Fatty acids, total trans",g,--,--,0.000,0.000
"Cholesterol",mg,--,--,0,0
Amino Acids
Other
Ingredients
"CHICKPEAS, HATCH GREEN CHILI PEPPER, WATER, SESAME TAHINI, SUNFLOWER OIL, OLIVE OIL, SEA SALT, CITRIC ACID, GARLIC, GUAR GUM, CUMIN. TOPPING: ROASTED RED PEPPER, ANCHO CHILI PEPPER, GARLIC, WHITE VINEGAR, CITRIC ACID, BASIL, SUGAR, SALT, GUAR GUM." Date available: 07/14/2017 Date last updated by company: 07/14/2017
