Source: USDA Branded Food Products Database Release December 2017 Software v.3.8.6.4 2017-10-02
Report Run at: December 18, 2017 05:29 EST
"Nutrient data for: 45266931, HAWAIIAN SHORTBREAD, UPC: 073218340886"
Food Group:  Branded Food Products Database
Common Name:

Nutrient,Unit,Data points,Std. Error,"3.0 COOKIES = 31.0g",1Value per 100 g,
Proximates
"Energy",kcal,--,--,170,548
"Protein",g,--,--,2.00,6.45
"Total lipid (fat)",g,--,--,10.00,32.26
"Carbohydrate, by difference",g,--,--,19.00,61.29
"Fiber, total dietary",g,--,--,0.0,0.0
"Sugars, total",g,--,--,6.00,19.35
Minerals
"Calcium, Ca",mg,--,--,0,0
"Iron, Fe",mg,--,--,1.16,3.75
"Sodium, Na",mg,--,--,90,290
Vitamins
"Vitamin C, total ascorbic acid",mg,--,--,0.0,0.0
"Vitamin A, IU",IU,--,--,645,2081
Lipids
"Fatty acids, total saturated",g,--,--,5.998,19.350
"Fatty acids, total trans",g,--,--,0.000,0.000
"Cholesterol",mg,--,--,25,81
Amino Acids
Other
Ingredients
"ENRICHED FLOUR BLEACHED (WHEAT FLOUR, MALTED BARLEY FLOUR, NIACIN, REDUCED IRON, THIAMINE MONONITRATE, RIBOFLAVIN, FOLIC ACID), BUTTER (CREAM, SALT), SUGAR, CONTAINS LESS THAN 2% OF EACH OF THE FOLLOWING: PINEAPPLE, HIGH FRUCTOSE CORN SYRUP, DEXTROSE, FRUCTOSE, NATURAL AND ARTIFICIAL FLAVORS, GLUCOSE SYRUP, BAKING SODA, SOYBEAN OIL, MALIC ACID, WATER, WHEAT STARCH, SOY LECITHIN, CITRIC ACID, SODIUM BENZOATE PRESERVATIVE, SODIUM PROPIONATE PRESERVATIVE, POTASSIUM SORBATE PRESERVATIVE, YELLOW 6, YELLOW 5." Date available: 07/14/2017 Date last updated by company: 07/14/2017
