Source: USDA Branded Food Products Database Release December 2017 Software v.3.8.6.4 2017-10-02
Report Run at: December 18, 2017 05:27 EST
"Nutrient data for: 45143738, HAWAIIAN HOST, MACADAMIA MEDLEY, UPC: 071873583013"
Food Group:  Branded Food Products Database
Common Name:

Nutrient,Unit,Data points,Std. Error,"3.0 PIECES = 40.0g",1Value per 100 g,
Proximates
"Energy",kcal,--,--,220,550
"Protein",g,--,--,2.00,5.00
"Total lipid (fat)",g,--,--,13.00,32.50
"Carbohydrate, by difference",g,--,--,23.00,57.50
"Fiber, total dietary",g,--,--,1.0,2.5
"Sugars, total",g,--,--,19.00,47.50
Minerals
"Calcium, Ca",mg,--,--,40,100
"Iron, Fe",mg,--,--,1.80,4.50
"Sodium, Na",mg,--,--,25,62
Vitamins
"Vitamin C, total ascorbic acid",mg,--,--,0.0,0.0
"Vitamin A, IU",IU,--,--,125,312
Lipids
"Fatty acids, total saturated",g,--,--,7.000,17.500
"Fatty acids, total trans",g,--,--,0.000,0.000
"Cholesterol",mg,--,--,5,12
Amino Acids
Other
Ingredients
"MILK CHOCOLATE [SUGAR, MILK, CHOCOLATE, COCOA BUTTER, SOY LECITHIN (EMULSIFIER), VANILLIN (ARTIFICIAL FLAVOR)], DARK CHOCOLATE [SUGAR, CHOCOLATE PROCESSED WITH ALKALI, COCOA BUTTER, MILKFAT, SOY LECITHIN (EMULSIFIER), VANILLIN (ARTIFICIAL FLAVOR), NATURAL FLAVOR], DRY ROASTED MACADAMIA NUTS, CARAMEL [CORN SYRUP, CONDENSED MILK, INVERT SUGAR, PARTIALLY HYDROGENATED COCONUT OIL, BUTTER, SALT, DISODIUM PHOSPHATE, SOY LECITHIN (EMULSIFIER), ARTIFICIAL FLAVOR], CRISP RICE [RICE FLOUR, SUGAR, BARLEY MALT EXTRACT, SALT]." Date available: 07/14/2017 Date last updated by company: 07/14/2017
