Source: USDA Branded Food Products Database Release December 2017 Software v.3.8.6.4 2017-10-02
Report Run at: December 18, 2017 05:35 EST
"Nutrient data for: 45280483, HAZELNUT SPREAD WITH COCOA, UPC: 688267135743"
Food Group:  Branded Food Products Database
Common Name:

Nutrient,Unit,Data points,Std. Error,"2.0 Tbsp = 37.0g",1Value per 100 g,
Proximates
"Energy",kcal,--,--,210,568
"Protein",g,--,--,2.00,5.41
"Total lipid (fat)",g,--,--,14.00,37.84
"Carbohydrate, by difference",g,--,--,19.00,51.35
"Fiber, total dietary",g,--,--,1.0,2.7
"Sugars, total",g,--,--,18.00,48.65
Minerals
"Calcium, Ca",mg,--,--,40,108
"Iron, Fe",mg,--,--,1.82,4.93
"Sodium, Na",mg,--,--,20,54
Vitamins
"Vitamin C, total ascorbic acid",mg,--,--,0.0,0.0
"Vitamin A, IU",IU,--,--,0,0
Lipids
"Fatty acids, total saturated",g,--,--,3.001,8.110
"Fatty acids, total trans",g,--,--,0.000,0.000
"Cholesterol",mg,--,--,0,0
Amino Acids
Other
Ingredients
"SUGAR, VEGETABLE OIL (CANOLA, PALM), HAZELNUTS, COCOA, SKIM MILK POWDER, SUNFLOWER LECITHIN (EMULSIFIER), ARTIFICIAL FLAVOR." Date available: 07/14/2017 Date last updated by company: 07/14/2017
