Source: USDA Branded Food Products Database Release December 2017 Software v.3.8.6.4 2017-10-02
Report Run at: December 18, 2017 05:40 EST
"Nutrient data for: 45134723, HEALTHY CHOICE Chicken Noodle Soup, UNPREPARED, GTIN: 00050100402600"
Food Group:  Branded Food Products Database
Common Name:

Nutrient,Unit,Data points,Std. Error,"1 cup (243g) = 243.0g",1Value per 100 g,
Proximates
"Energy",kcal,--,--,90,37
"Protein",g,--,--,7.00,2.88
"Total lipid (fat)",g,--,--,1.99,0.82
"Carbohydrate, by difference",g,--,--,12.00,4.94
"Fiber, total dietary",g,--,--,1.0,0.4
"Sugars, total",g,--,--,1.99,0.82
Minerals
"Calcium, Ca",mg,--,--,19,8
"Iron, Fe",mg,--,--,0.73,0.30
"Potassium, K",mg,--,--,549,226
"Sodium, Na",mg,--,--,389,160
Vitamins
"Vitamin C, total ascorbic acid",mg,--,--,0.0,0.0
"Vitamin A, IU",IU,--,--,1750,720
Lipids
"Fatty acids, total saturated",g,--,--,0.510,0.210
"Fatty acids, total monounsaturated",g,--,--,0.510,0.210
"Fatty acids, total polyunsaturated",g,--,--,0.000,0.000
"Fatty acids, total trans",g,--,--,0.000,0.000
"Cholesterol",mg,--,--,19,8
Amino Acids
Other
Ingredients
"Chicken Broth, Cooked Chicken (White Meat Chicken, Water, Modified Rice Starch, Isolated Soy Protein, Salt, Sodium Phosphates), Carrots, Enriched Egg Noodles (Durum Wheat Semolina, Whole Egg, Egg White, Niacin, Iron [Ferrous Sulfate], Thiamine Mononitrate, Riboflavin, Folic Acid), Celery, Less Than 2% Of: Modified Corn Starch, Flavorings, Potassium Chloride, Yeast Extract, Salt, Sugar, Rendered Chicken Fat, Chicken Fat, Chicken Powder, Lactic Acid, Malic Acid, Beta Carotene. CONTAINS: WHEAT, SOY, EGG." Date available: 10/12/2017 Date last updated by company: 10/12/2017
