Source: USDA Branded Food Products Database Release December 2017 Software v.3.8.6.4 2017-10-02
Report Run at: December 18, 2017 05:38 EST
"Nutrient data for: 45078331, HEALTH VALLEY ORGANIC, SOUP, TOMATO, UPC: 035742221062"
Food Group:  Branded Food Products Database
Common Name:

Nutrient,Unit,Data points,Std. Error,"1 cup = 240.0g",1Value per 100 g,
Proximates
"Energy",kcal,--,--,101,42
"Protein",g,--,--,1.01,0.42
"Total lipid (fat)",g,--,--,2.50,1.04
"Carbohydrate, by difference",g,--,--,19.01,7.92
"Fiber, total dietary",g,--,--,2.9,1.2
"Sugars, total",g,--,--,13.01,5.42
Minerals
"Calcium, Ca",mg,--,--,60,25
"Iron, Fe",mg,--,--,0.36,0.15
"Sodium, Na",mg,--,--,60,25
Vitamins
"Vitamin C, total ascorbic acid",mg,--,--,15.4,6.4
"Vitamin A, IU",IU,--,--,408,170
Lipids
"Fatty acids, total saturated",g,--,--,1.008,0.420
"Fatty acids, total trans",g,--,--,0.000,0.000
"Cholesterol",mg,--,--,5,2
Amino Acids
Other
Ingredients
"FILTERED WATER, ORGANIC TOMATO PUREE, ORGANIC TOMATOES, ORGANIC TOMATO PASTE, ORGANIC EVAPORATED CANE JUICE, ORGANIC UNSALTED BUTTER (ORGANIC CREAM [FROM MILK]), ORGANIC BROWN RICE FLOUR, ORGANIC ONION POWDER, ORGANIC ACACIA GUM, CITRIC ACID, ORGANIC GARLIC POWDER, ORGANIC BLACK PEPPER, ASCORBIC ACID." Date available: 06/24/2017 Date last updated by company: 06/24/2017
