Source: USDA Branded Food Products Database Release December 2017 Software v.3.8.6.4 2017-10-02
Report Run at: December 18, 2017 05:44 EST
"Nutrient data for: 45085684, HEALTHY GRAINS RASPBERRY CLUSTERS WITH CHIA SEEDS, UPC: 602652171611"
Food Group:  Branded Food Products Database
Common Name:

Nutrient,Unit,Data points,Std. Error,"0.333 cup = 29.0g",1Value per 100 g,
Proximates
"Energy",kcal,--,--,110,379
"Protein",g,--,--,2.00,6.90
"Total lipid (fat)",g,--,--,1.50,5.17
"Carbohydrate, by difference",g,--,--,21.00,72.41
"Fiber, total dietary",g,--,--,2.0,6.9
"Sugars, total",g,--,--,3.00,10.34
Minerals
"Calcium, Ca",mg,--,--,28,95
"Iron, Fe",mg,--,--,0.99,3.43
"Sodium, Na",mg,--,--,35,121
Vitamins
"Vitamin C, total ascorbic acid",mg,--,--,0.0,0.0
"Vitamin A, IU",IU,--,--,0,0
Lipids
"Fatty acids, total saturated",g,--,--,0.000,0.000
"Fatty acids, total trans",g,--,--,0.000,0.000
"Cholesterol",mg,--,--,0,0
Amino Acids
Other
Ingredients
"WHOLE GRAIN BLEND (OATS, BROWN RICE, BUCKWHEAT, MILLET, AMARANTH, QUINOA), TAPIOCA SYRUP, DRIED CANE SYRUP, CRANBERRIES, RASPBERRIES, CHIA SEEDS, CANOLA OIL, SUGAR, MOLASSES, VANILLA EXTRACT, BROWN RICE SYRUP, RICE FLOUR, VITAMIN E (TO MAINTAIN FRESHNESS)." Date available: 09/06/2017 Date last updated by company: 09/06/2017
