Source: USDA Branded Food Products Database Release December 2017 Software v.3.8.6.4 2017-10-02
Report Run at: December 18, 2017 05:38 EST
"Nutrient data for: 45014988, HEALTHY CHEF, BUTTER COOKING SPRAY, UPC: 849607090522"
Food Group:  Branded Food Products Database
Common Name:

Nutrient,Unit,Data points,Std. Error,"0.333 SECOND SPRAY = 0.27g",1Value per 100 g,
Proximates
"Energy",kcal,--,--,0,0
"Protein",g,--,--,0.00,0.00
"Total lipid (fat)",g,--,--,0.00,0.00
"Carbohydrate, by difference",g,--,--,0.00,0.00
Minerals
"Sodium, Na",mg,--,--,0,0
Vitamins
Lipids
"Fatty acids, total saturated",g,--,--,0.000,0.000
"Fatty acids, total trans",g,--,--,0.000,0.000
"Cholesterol",mg,--,--,0,0
Amino Acids
Other
Ingredients
"WATER (AQUA), SOYBEAN OIL*, ARTIFICIAL BUTTER FLAVOR, ISOBUTANE, PROPANE, LECITHIN, POTASSIUM SORBATE (PRESERVATIVE), GLYCERYL STEARATE, BETA-CAROTENE(COLOR)." Date available: 06/25/2017 Date last updated by company: 06/25/2017
