Source: USDA Branded Food Products Database Release December 2017 Software v.3.8.6.4 2017-10-02
Report Run at: December 18, 2017 05:51 EST
"Nutrient data for: 45316037, HEARTS OF PALM, UPC: 070670005247"
Food Group:  Branded Food Products Database
Common Name:

Nutrient,Unit,Data points,Std. Error,"0.333 JAR = 140.0g",1Value per 100 g,
Proximates
"Energy",kcal,--,--,20,14
"Protein",g,--,--,3.00,2.14
"Total lipid (fat)",g,--,--,0.00,0.00
"Carbohydrate, by difference",g,--,--,5.00,3.57
"Fiber, total dietary",g,--,--,4.1,2.9
"Sugars, total",g,--,--,0.00,0.00
Minerals
"Calcium, Ca",mg,--,--,41,29
"Iron, Fe",mg,--,--,1.01,0.72
"Sodium, Na",mg,--,--,251,179
Vitamins
"Vitamin C, total ascorbic acid",mg,--,--,8.4,6.0
"Vitamin A, IU",IU,--,--,0,0
Lipids
"Fatty acids, total saturated",g,--,--,0.000,0.000
"Fatty acids, total trans",g,--,--,0.000,0.000
"Cholesterol",mg,--,--,0,0
Amino Acids
Other
Ingredients
"HEARTS OF PALM, WATER, SALT, CITRIC ACID." Date available: 07/14/2017 Date last updated by company: 07/14/2017
