Source: USDA Branded Food Products Database Release December 2017 Software v.3.8.6.4 2017-10-02
Report Run at: December 18, 2017 05:50 EST
"Nutrient data for: 45233748, HEART OF TEA, NATURAL BLACK TEA, PEACH, UPC: 850288004012"
Food Group:  Branded Food Products Database
Common Name:

Nutrient,Unit,Data points,Std. Error,"8.0 OZA = 237.0g",1Value per 100 g,
Proximates
"Energy",kcal,--,--,50,21
"Protein",g,--,--,0.00,0.00
"Total lipid (fat)",g,--,--,0.00,0.00
"Carbohydrate, by difference",g,--,--,13.01,5.49
"Sugars, total",g,--,--,11.99,5.06
Minerals
"Sodium, Na",mg,--,--,0,0
Vitamins
Lipids
Amino Acids
Other
Ingredients
"TRIPLE FILTERED WATER, REAL CANE SUGAR, PREMIUM BREWED BLACK TEAS, NATURAL FLAVORS, CITRIC ACID." Date available: 07/14/2017 Date last updated by company: 07/14/2017
