Source: USDA Branded Food Products Database Release December 2017 Software v.3.8.6.4 2017-10-02
Report Run at: December 18, 2017 05:52 EST
"Nutrient data for: 45279266, HEARTY CHICKEN, BACON & WILD RICE SOUP, UPC: 075450501308"
Food Group:  Branded Food Products Database
Common Name:

Nutrient,Unit,Data points,Std. Error,"1 cup = 245.0g",1Value per 100 g,
Proximates
"Energy",kcal,--,--,159,65
"Protein",g,--,--,8.99,3.67
"Total lipid (fat)",g,--,--,4.51,1.84
"Carbohydrate, by difference",g,--,--,21.00,8.57
"Fiber, total dietary",g,--,--,1.0,0.4
"Sugars, total",g,--,--,7.01,2.86
Minerals
"Calcium, Ca",mg,--,--,149,61
"Iron, Fe",mg,--,--,0.37,0.15
"Sodium, Na",mg,--,--,1279,522
Vitamins
"Vitamin C, total ascorbic acid",mg,--,--,1.2,0.5
"Vitamin A, IU",IU,--,--,750,306
Lipids
"Fatty acids, total saturated",g,--,--,1.494,0.610
"Fatty acids, total trans",g,--,--,0.000,0.000
"Cholesterol",mg,--,--,20,8
Amino Acids
Other
Ingredients
"WATER, CHICKEN, NONFAT DRY MILK, CELERY, ONION, CARROTS, FOOD STARCH-MODIFIED, WILD RICE, BACON (CURED WITH WATER, SALT, SUGAR, SODIUM ERYTHORBATE, SODIUM NITRITE. MAY ALSO CONTAIN DEXTROSE, FLAVORING, HONEY, POTASSIUM CHLORIDE, POTASSIUM LACTATE, SMOKE FLAVORING, SODIUM DIACETATE, SODIUM PHOSPHATE), CHICKEN FAT, SALT, FOOD STARCH-MODIFIED (WITH ERYTHORBIC ACID ADDED), SUGAR, HYDROLYZED CORN PROTEIN (HYDROLYZED CORN PROTEIN, PARTIALLY HYDROGENATED VEGETABLE OIL [COTTONSEED, SOYBEAN]), TURMERIC POWDER (SALT, OLEORESIN TURMERIC [COLOR]), CHICKEN FLAVOR (HYDROLYZED CORN GLUTEN, SALT, MALTODEXTRIN, CHICKEN FAT, SODIUM PHOSPHATE, SPICES, SUGAR, NATURAL FLAVORS, DISODIUM INOSINATE, DISODIUM GUANYLATE), CARROT POWDER (SALT, OLEORESIN CARROT [COLOR]), SOY LECITHIN, ONION POWDER, YEAST EXTRACT, BLACK PEPPER, GROUND MUSTARD, CURRY POWDER (SPICES, TURMERIC [COLOR], SALT, RED PEPPER, SPICE EXTRACTIVE), PARSLEY." Date available: 07/14/2017 Date last updated by company: 07/14/2017
