Source: USDA Branded Food Products Database Release December 2017 Software v.3.8.6.4 2017-10-02
Report Run at: December 18, 2017 05:52 EST
"Nutrient data for: 45199314, HEARTY CHICKEN POT PIE STARTER, UPC: 096906002422"
Food Group:  Branded Food Products Database
Common Name:

Nutrient,Unit,Data points,Std. Error,"0.25 cup = 66.0g",1Value per 100 g,
Proximates
"Energy",kcal,--,--,35,53
"Protein",g,--,--,0.00,0.00
"Total lipid (fat)",g,--,--,1.00,1.52
"Carbohydrate, by difference",g,--,--,6.00,9.09
"Fiber, total dietary",g,--,--,0.0,0.0
"Sugars, total",g,--,--,1.00,1.52
Minerals
"Calcium, Ca",mg,--,--,0,0
"Iron, Fe",mg,--,--,0.36,0.55
"Sodium, Na",mg,--,--,350,530
Vitamins
"Vitamin C, total ascorbic acid",mg,--,--,2.4,3.7
"Vitamin A, IU",IU,--,--,507,768
Lipids
"Fatty acids, total saturated",g,--,--,0.000,0.000
"Fatty acids, total trans",g,--,--,0.000,0.000
"Cholesterol",mg,--,--,0,0
Amino Acids
Other
Ingredients
"CHICKEN STOCK (WATER, DRIED CHICKEN STOCK, SALT, VEGETABLE STOCKS [CARROTS, CELERY, ONION], GELATIN, CHICKEN [WITH FAT AND SKIN], TAPIOCA STARCH [NATIVE], NATURAL FLAVOR), CHABLIS COOKING WINE (WITH SALT), ONION, LEMON JUICE, MODIFIED TAPIOCA STARCH, CARROTS, PEAS, CORN, CELERY, HEAVY CREAM, AGAVE, SALT, GARLIC, BUTTER, EXTRA VIRGIN OLIVE OIL, BLACK PEPPER, PARSLEY, TARRAGON, BAY LEAVES, THYME, CITRIC ACID." Date available: 07/14/2017 Date last updated by company: 07/14/2017
