Source: USDA Branded Food Products Database Release December 2017 Software v.3.8.6.4 2017-10-02
Report Run at: December 18, 2017 05:58 EST
"Nutrient data for: 45145456, HEBERT CANDIES, PEANUT BUTTER CUP MILK CHOCOLATE BAR, UPC: 721605267680"
Food Group:  Branded Food Products Database
Common Name:

Nutrient,Unit,Data points,Std. Error,"31.0 GRM = 31.0g",1Value per 100 g,
Proximates
"Energy",kcal,--,--,160,516
"Protein",g,--,--,3.00,9.68
"Total lipid (fat)",g,--,--,11.00,35.48
"Carbohydrate, by difference",g,--,--,16.00,51.61
"Fiber, total dietary",g,--,--,1.0,3.2
"Sugars, total",g,--,--,14.00,45.16
Minerals
"Calcium, Ca",mg,--,--,20,65
"Iron, Fe",mg,--,--,0.58,1.88
"Sodium, Na",mg,--,--,50,161
Vitamins
"Vitamin C, total ascorbic acid",mg,--,--,0.0,0.0
"Vitamin A, IU",IU,--,--,0,0
Lipids
"Fatty acids, total saturated",g,--,--,5.000,16.130
"Fatty acids, total trans",g,--,--,0.000,0.000
"Cholesterol",mg,--,--,0,0
Amino Acids
Other
Ingredients
"MILK CHOCOLATE (SUGAR, COCOA BUTTER, CHOCOLATE LIQUOR, MILK, SOY LECITHIN, SALT, AND VANILLA), PEANUT BUTTER (DRY ROASTED PEANUTS, DEXTROSE, HYDROGENATED COTTONSEED AND RAPESEED OIL, AND SALT), WHITE CHOCOLATE COATING (SUGAR, PARTIALLY HYDROGENATED PALM KERNEL AND COTTONSEED OILS, NONFAT DRY MILK, MILK, GLYCERYL LACTO ESTERS OF FATTY ACIDS, SOY LECITHIN, SALT, AND ARTIFICIAL FLAVOR)." Date available: 07/14/2017 Date last updated by company: 07/14/2017
