Source: USDA Branded Food Products Database Release December 2017 Software v.3.8.6.4 2017-10-02
Report Run at: December 18, 2017 06:01 EST
"Nutrient data for: 45134167, HEBREW NATIONAL Beef Salami, UNPREPARED, GTIN: 00074956350038"
Food Group:  Branded Food Products Database
Common Name:

Nutrient,Unit,Data points,Std. Error,"2.0 slices (56g) = 56.0g",1Value per 100 g,
Proximates
"Energy",kcal,--,--,150,268
"Protein",g,--,--,8.00,14.29
"Total lipid (fat)",g,--,--,13.00,23.21
"Carbohydrate, by difference",g,--,--,1.00,1.79
"Fiber, total dietary",g,--,--,0.0,0.0
"Sugars, total",g,--,--,0.00,0.00
Minerals
"Calcium, Ca",mg,--,--,0,0
"Iron, Fe",mg,--,--,1.08,1.93
"Potassium, K",mg,--,--,100,179
"Sodium, Na",mg,--,--,570,1018
Vitamins
"Vitamin C, total ascorbic acid",mg,--,--,0.0,0.0
"Vitamin A, IU",IU,--,--,0,0
Lipids
"Fatty acids, total saturated",g,--,--,5.001,8.930
"Fatty acids, total monounsaturated",g,--,--,5.998,10.710
"Fatty acids, total polyunsaturated",g,--,--,0.498,0.890
"Fatty acids, total trans",g,--,--,0.498,0.890
"Cholesterol",mg,--,--,30,54
Amino Acids
Other
Ingredients
"Beef, Water, Contains 2% or less of: Salt, Sodium Lactate, Hydrolyzed Soy Protein, Spices, Sodium Diacetate, Natural Flavorings, Sodium Erythorbate, Paprika, Sodium Nitrite. CONTAINS: SOY." Date available: 10/11/2017 Date last updated by company: 10/10/2017
