Source: USDA Branded Food Products Database Release December 2017 Software v.3.8.6.4 2017-10-02
Report Run at: December 18, 2017 06:05 EST
"Nutrient data for: 45172228, HEINEN'S, VEGETABLE CREAM CHEESE, UPC: 020601409224"
Food Group:  Branded Food Products Database
Common Name:

Nutrient,Unit,Data points,Std. Error,"2.0 Tbsp = 28.0g",1Value per 100 g,
Proximates
"Energy",kcal,--,--,90,321
"Protein",g,--,--,8.00,28.57
"Total lipid (fat)",g,--,--,8.00,28.57
"Carbohydrate, by difference",g,--,--,2.00,7.14
"Fiber, total dietary",g,--,--,0.0,0.0
"Sugars, total",g,--,--,0.00,0.00
Minerals
"Calcium, Ca",mg,--,--,40,143
"Iron, Fe",mg,--,--,0.00,0.00
"Sodium, Na",mg,--,--,125,446
Vitamins
"Vitamin C, total ascorbic acid",mg,--,--,0.0,0.0
"Vitamin A, IU",IU,--,--,1340,4784
Lipids
"Fatty acids, total saturated",g,--,--,5.001,17.860
"Fatty acids, total trans",g,--,--,0.000,0.000
"Cholesterol",mg,--,--,20,71
Amino Acids
Other
Ingredients
"CREAM CHEESE (PASTEURIZED CREAM MILK, LACTIC ACID, SALT, STABILIZERS [XANTHAN, LOCUST BEAN AND GUAR GUMS]), CARROTS, CONTAINS LESS THAN 2% OF: RED BELL PEPPERS, GREEN ONIONS, CULTURED SUGAR, DEHYDRATED ONION, SALT, DEHYDRATED GARLIC, LEMON PEEL, SPICE." Date available: 07/14/2017 Date last updated by company: 07/14/2017
