Source: USDA Branded Food Products Database Release December 2017 Software v.3.8.6.4 2017-10-02
Report Run at: December 18, 2017 06:05 EST
"Nutrient data for: 45310148, HEINZ, CLASSIC CREAM OF TOMATO SOUP, ORIGINAL, UPC: 792851354936"
Food Group:  Branded Food Products Database
Common Name:

Nutrient,Unit,Data points,Std. Error,"0.5 CAN = 188.0g",1Value per 100 g,
Proximates
"Energy",kcal,--,--,100,53
"Protein",g,--,--,1.99,1.06
"Total lipid (fat)",g,--,--,4.00,2.13
"Carbohydrate, by difference",g,--,--,14.01,7.45
"Fiber, total dietary",g,--,--,0.9,0.5
"Sugars, total",g,--,--,10.00,5.32
Minerals
"Calcium, Ca",mg,--,--,21,11
"Iron, Fe",mg,--,--,0.47,0.25
"Sodium, Na",mg,--,--,410,218
Vitamins
"Vitamin C, total ascorbic acid",mg,--,--,1.5,0.8
"Vitamin A, IU",IU,--,--,261,139
Lipids
"Fatty acids, total saturated",g,--,--,0.000,0.000
"Fatty acids, total trans",g,--,--,0.000,0.000
"Cholesterol",mg,--,--,0,0
Amino Acids
Other
Ingredients
"TOMATOES, WATER, MODIFIED CORNSTARCH, SUGAR, CANOLA OIL, NONFAT MILK, SALT, CREAM, WHEY PROTEIN, CITRIC ACID, SPICE EXTRACTS, ONION EXTRACT." Date available: 06/25/2017 Date last updated by company: 06/25/2017
