Source: USDA Branded Food Products Database Release December 2017 Software v.3.8.6.4 2017-10-02
Report Run at: December 18, 2017 06:10 EST
"Nutrient data for: 45141341, HELLO KITTY, TAFFY CANDY, UPC: 013253080255"
Food Group:  Branded Food Products Database
Common Name:

Nutrient,Unit,Data points,Std. Error,"1 PIECE = 9.0g",1Value per 100 g,
Proximates
"Energy",kcal,--,--,35,389
"Protein",g,--,--,0.00,0.00
"Total lipid (fat)",g,--,--,0.65,7.22
"Carbohydrate, by difference",g,--,--,8.00,88.89
"Fiber, total dietary",g,--,--,0.0,0.0
"Sugars, total",g,--,--,4.00,44.44
Minerals
"Calcium, Ca",mg,--,--,0,0
"Iron, Fe",mg,--,--,0.00,0.00
"Sodium, Na",mg,--,--,5,56
Vitamins
"Vitamin C, total ascorbic acid",mg,--,--,0.0,0.0
"Vitamin A, IU",IU,--,--,0,0
Lipids
"Fatty acids, total saturated",g,--,--,0.400,4.440
"Fatty acids, total trans",g,--,--,0.000,0.000
"Cholesterol",mg,--,--,0,0
Amino Acids
Other
Ingredients
"SUGAR, CORN SYRUP, PALM OIL AND/OR PALM KERNAL OIL, CHOCOLATE LIQUOR, MONO & DIGLYCERIDES, LECITHIN, CITRIC ACID, NATURAL & ARTIFICIAL FLAVORS, SALT AND COLOR ADDED, RED 40, BLUE 1, YELLOW 5 & YELLOW 6." Date available: 07/14/2017 Date last updated by company: 07/14/2017
