Source: USDA Branded Food Products Database Release December 2017 Software v.3.8.6.4 2017-10-02
Report Run at: December 18, 2017 06:11 EST
"Nutrient data for: 45046065, HELUVA GOOD!, HUMMUS, ROASTED RED PEPPER, UPC: 073570151380"
Food Group:  Branded Food Products Database
Common Name:

Nutrient,Unit,Data points,Std. Error,"2.0 Tbsp = 28.0g",1Value per 100 g,
Proximates
"Energy",kcal,--,--,50,179
"Protein",g,--,--,1.00,3.57
"Total lipid (fat)",g,--,--,4.00,14.29
"Carbohydrate, by difference",g,--,--,4.00,14.29
"Fiber, total dietary",g,--,--,1.0,3.6
"Sugars, total",g,--,--,1.00,3.57
Minerals
"Calcium, Ca",mg,--,--,0,0
"Iron, Fe",mg,--,--,0.64,2.29
"Sodium, Na",mg,--,--,160,571
Vitamins
"Vitamin C, total ascorbic acid",mg,--,--,6.4,22.9
"Vitamin A, IU",IU,--,--,357,1275
Lipids
"Fatty acids, total saturated",g,--,--,0.000,0.000
"Fatty acids, total trans",g,--,--,0.000,0.000
"Cholesterol",mg,--,--,0,0
Amino Acids
Other
Ingredients
"CHICKPEAS, SUNFLOWER OIL, OLIVE OIL, SESAME TAHINI, WATER, ROASTED RED PEPPERS, SEA SALT, CITRIC ACID, GARLIC, PAPRIKA, GUAR GUM, SODIUM BENZOATE & POTASSIUM SORBATE (TO PRESERVE FRESHNESS)." Date available: 09/18/2017 Date last updated by company: 09/18/2017
