Source: USDA Branded Food Products Database Release December 2017 Software v.3.8.6.4 2017-10-02
Report Run at: December 18, 2017 06:12 EST
"Nutrient data for: 45092902, HEMPLER'S, MILD ITALIAN SAUSAGE, UPC: 021834000509"
Food Group:  Branded Food Products Database
Common Name:

Nutrient,Unit,Data points,Std. Error,"1 GRILLED LINK = 67.0g",1Value per 100 g,
Proximates
"Energy",kcal,--,--,220,328
"Protein",g,--,--,13.00,19.40
"Total lipid (fat)",g,--,--,17.00,25.37
"Carbohydrate, by difference",g,--,--,2.00,2.99
"Fiber, total dietary",g,--,--,0.0,0.0
"Sugars, total",g,--,--,1.00,1.49
Minerals
"Calcium, Ca",mg,--,--,20,30
"Iron, Fe",mg,--,--,0.59,0.88
"Sodium, Na",mg,--,--,650,970
Vitamins
"Vitamin C, total ascorbic acid",mg,--,--,0.0,0.0
"Vitamin A, IU",IU,--,--,0,0
Lipids
"Fatty acids, total saturated",g,--,--,6.003,8.960
"Fatty acids, total trans",g,--,--,0.000,0.000
"Cholesterol",mg,--,--,45,67
Amino Acids
Other
Ingredients
"PORK, WATER, CORN SYRUP,CONTAINS LESS THAN 2% OF SALT, DEXTROSE, FLAVORINGS, BHA, PROPYL GALLATE, CITRIC ACID." Date available: 06/25/2017 Date last updated by company: 06/25/2017
