Source: USDA Branded Food Products Database Release December 2017 Software v.3.8.6.4 2017-10-02
Report Run at: December 18, 2017 06:14 EST
"Nutrient data for: 45066809, HENGSTENBERG, MILDLY SPICED CORNICHONS, UPC: 038274425281"
Food Group:  Branded Food Products Database
Common Name:

Nutrient,Unit,Data points,Std. Error,"3.0 PIECES = 30.0g",1Value per 100 g,
Proximates
"Energy",kcal,--,--,10,33
"Protein",g,--,--,0.00,0.00
"Total lipid (fat)",g,--,--,0.00,0.00
"Carbohydrate, by difference",g,--,--,2.00,6.67
"Sugars, total",g,--,--,1.00,3.33
Minerals
"Sodium, Na",mg,--,--,150,500
Vitamins
Lipids
Amino Acids
Other
Ingredients
"GHERKINS, SPIRIT VINEGAR, SUGAR, DILL, SALT, MUSTARD SEEDS, NATURAL FLAVORS." Date available: 07/14/2017 Date last updated by company: 07/14/2017
