Source: USDA Branded Food Products Database Release December 2017 Software v.3.8.6.4 2017-10-02
Report Run at: December 18, 2017 06:18 EST
"Nutrient data for: 45281324, HERB & GARLIC MARINADE, UPC: 07078426928"
Food Group:  Branded Food Products Database
Common Name:

Nutrient,Unit,Data points,Std. Error,"1 Tbsp = 15.0g",1Value per 100 g,
Proximates
"Energy",kcal,--,--,10,67
"Protein",g,--,--,0.00,0.00
"Total lipid (fat)",g,--,--,0.00,0.00
"Carbohydrate, by difference",g,--,--,2.00,13.33
"Sugars, total",g,--,--,1.00,6.67
Minerals
"Sodium, Na",mg,--,--,340,2267
Vitamins
"Vitamin C, total ascorbic acid",mg,--,--,4.0,26.7
Lipids
Amino Acids
Other
Ingredients
"WATER, DISTILLED VINEGAR, HIGH FRUCTOSE CORN SYRUP, LEMON JUICE FROM CONCENTRATE, SALT, DRIED GARLIC, CONTAINS LESS THAN 2% OF MODIFIED FOOD STARCH, SPICE, DRIED RED BELL PEPPER, XANTHAN GUM, SODIUM BENZOATE AND POTASSIUM SORBATE (AS PRESERVATIVES), NATURAL FLAVOR, PAPRIKA EXTRACT AND BETA-CAROTENE (FOR COLOR)." Date available: 07/14/2017 Date last updated by company: 07/14/2017
