Source: USDA Branded Food Products Database Release December 2017 Software v.3.8.6.4 2017-10-02
Report Run at: December 18, 2017 06:16 EST
"Nutrient data for: 45157934, HERBAL TEA, UPC: 070734053191"
Food Group:  Branded Food Products Database
Common Name:

Nutrient,Unit,Data points,Std. Error,"1 TEA BAG, MAKES 8 FL. OZ. = 2.0g",1Value per 100 g,
Proximates
"Energy",kcal,--,--,0,0
"Protein",g,--,--,0.00,0.00
"Total lipid (fat)",g,--,--,0.00,0.00
"Carbohydrate, by difference",g,--,--,0.00,0.00
"Sugars, total",g,--,--,0.00,0.00
Minerals
"Sodium, Na",mg,--,--,0,0
Vitamins
Lipids
Amino Acids
Other
Ingredients
"HIBISCUS, ROSEHIPS, ROASTED CHICORY, BLACKBERRY LEAVES, HAWTHORN, NATURAL BLACK CHERRY FLAVOR WITH OTHER NATURAL FLAVORS, CHAMOMILE AND SWEET CHERRIES" Date available: 08/11/2017 Date last updated by company: 08/11/2017
