Source: USDA Branded Food Products Database Release December 2017 Software v.3.8.6.4 2017-10-02
Report Run at: December 18, 2017 06:15 EST
"Nutrient data for: 45264755, HERBAL ENERGY DRINK, UPC: 019962303647"
Food Group:  Branded Food Products Database
Common Name:

Nutrient,Unit,Data points,Std. Error,"8.0 OZA = 240.0g",1Value per 100 g,
Proximates
"Energy",kcal,--,--,79,33
"Protein",g,--,--,0.00,0.00
"Total lipid (fat)",g,--,--,0.00,0.00
"Carbohydrate, by difference",g,--,--,19.01,7.92
"Sugars, total",g,--,--,18.00,7.50
Minerals
"Sodium, Na",mg,--,--,0,0
Vitamins
Lipids
Amino Acids
Other
Ingredients
"PURIFIED WATER, ORGANIC GRAPE JUICE CONCENTRATE, ORGANIC YERBA MATE (LEAF AND STEM), ORGANIC MORINGA (LEAF), ORGANIC YERBA MATE (LEAF EXTRACT), NATURAL FLAVORS, CITRIC ACID." Date available: 07/14/2017 Date last updated by company: 07/14/2017
