Source: USDA Branded Food Products Database Release December 2017 Software v.3.8.6.4 2017-10-02
Report Run at: December 18, 2017 06:28 EST
"Nutrient data for: 45022649, HERR'S, ONION DIP, CREAMY, UPC: 072600005969"
Food Group:  Branded Food Products Database
Common Name:

Nutrient,Unit,Data points,Std. Error,"2.0 Tbsp = 30.0g",1Value per 100 g,
Proximates
"Energy",kcal,--,--,60,200
"Protein",g,--,--,1.00,3.33
"Total lipid (fat)",g,--,--,5.00,16.67
"Carbohydrate, by difference",g,--,--,2.00,6.67
"Fiber, total dietary",g,--,--,0.0,0.0
"Sugars, total",g,--,--,1.00,3.33
Minerals
"Calcium, Ca",mg,--,--,40,133
"Sodium, Na",mg,--,--,260,867
Vitamins
Lipids
"Fatty acids, total saturated",g,--,--,3.501,11.670
"Fatty acids, total trans",g,--,--,0.000,0.000
"Cholesterol",mg,--,--,20,67
Amino Acids
Other
Ingredients
"CULTURED SKIM MILK AND CREAM, WATER, MODIFIED FOOD STARCH, SALT, DEHYDRATED ONION, CONTAINS 2 PERCENT OR LESS OF THE FOLLOWING: HYDROLYZED CORN AND WHEAT PROTEIN, AUTOLYZED YEAST EXTRACT, SODIUM CITRATE, DEHYDRATED PARSLEY, DISODIUM INOSINATE AND GUANYLATE, LACTIC ACID, SPICES, CITRIC ACID, ACETIC ACID, SORBIC ACID." Date available: 10/13/2017 Date last updated by company: 10/13/2017
