Source: USDA Branded Food Products Database Release December 2017 Software v.3.8.6.4 2017-10-02
Report Run at: December 18, 2017 06:25 EST
"Nutrient data for: 45080889, HERRING IN WINE SAUCE, UPC: 023384124117"
Food Group:  Branded Food Products Database
Common Name:

Nutrient,Unit,Data points,Std. Error,"5.0 PIECES = 55.0g",1Value per 100 g,
Proximates
"Energy",kcal,--,--,105,191
"Protein",g,--,--,8.00,14.55
"Total lipid (fat)",g,--,--,5.00,9.09
"Carbohydrate, by difference",g,--,--,7.00,12.73
"Fiber, total dietary",g,--,--,1.0,1.8
"Sugars, total",g,--,--,5.00,9.09
Minerals
"Calcium, Ca",mg,--,--,40,73
"Iron, Fe",mg,--,--,0.84,1.52
"Sodium, Na",mg,--,--,470,855
Vitamins
"Vitamin C, total ascorbic acid",mg,--,--,0.0,0.0
"Vitamin A, IU",IU,--,--,696,1265
Lipids
"Fatty acids, total saturated",g,--,--,1.001,1.820
"Fatty acids, total trans",g,--,--,0.000,0.000
"Cholesterol",mg,--,--,7,13
Amino Acids
Other
Ingredients
"HERRING, ONIONS, WATER, WHITE VINEGAR, SUGAR, SALT, SPICES, AND WINE." Date available: 06/25/2017 Date last updated by company: 06/25/2017
