Source: USDA Branded Food Products Database Release December 2017 Software v.3.8.6.4 2017-10-02
Report Run at: December 18, 2017 06:31 EST
"Nutrient data for: 45147986, HERR'S, WINGS AND WEBS, CRUNCHY CHEESE SNACKS, UPC: 072600073302"
Food Group:  Branded Food Products Database
Common Name:

Nutrient,Unit,Data points,Std. Error,"1 BAG = 14.0g",1Value per 100 g,
Proximates
"Energy",kcal,--,--,70,500
"Protein",g,--,--,1.00,7.14
"Total lipid (fat)",g,--,--,4.00,28.57
"Carbohydrate, by difference",g,--,--,8.00,57.14
"Fiber, total dietary",g,--,--,0.0,0.0
"Sugars, total",g,--,--,0.00,0.00
Minerals
"Calcium, Ca",mg,--,--,0,0
"Iron, Fe",mg,--,--,0.00,0.00
"Sodium, Na",mg,--,--,45,321
Vitamins
"Vitamin C, total ascorbic acid",mg,--,--,0.0,0.0
"Vitamin A, IU",IU,--,--,0,0
Lipids
"Fatty acids, total saturated",g,--,--,0.500,3.570
"Fatty acids, total monounsaturated",g,--,--,1.000,7.140
"Fatty acids, total polyunsaturated",g,--,--,2.001,14.290
"Fatty acids, total trans",g,--,--,0.000,0.000
"Cholesterol",mg,--,--,0,0
Amino Acids
Other
Ingredients
"POTATO STARCH, VEGETABLE OIL (CONTAINS ONE MORE OF THE FOLLOWING: CORN, COTTONSEED, SUNFLOWER), CORN FLOUR, POTATO GRANULES, RICE, MALTODEXTRIN, WHEY, SALT, SUNFLOWER OIL, CHEDDAR CHEESE (PASTEURIZED MILK, CHEESE CULTURE, SALT, ENZYMES), NONFAT MILK, MONOSODIUM GLUTAMATE, SODIUM PHOSPHATE, BUTTER, NATURAL FLAVOR, CITRIC ACID, LACTIC ACID, YELLOW 6, AND YELLOW 5." Date available: 07/14/2017 Date last updated by company: 07/14/2017
