Source: USDA Branded Food Products Database Release December 2017 Software v.3.8.6.4 2017-10-02
Report Run at: December 18, 2017 06:28 EST
"Nutrient data for: 45147976, HERR'S, KETTLE COOKED POTATO CHIPS, SOUR CREAM & ONION, UPC: 072600033498"
Food Group:  Branded Food Products Database
Common Name:

Nutrient,Unit,Data points,Std. Error,"13.0 CHIPS | ABOUT = 28.0g",1Value per 100 g,
Proximates
"Energy",kcal,--,--,140,500
"Protein",g,--,--,2.00,7.14
"Total lipid (fat)",g,--,--,7.00,25.00
"Carbohydrate, by difference",g,--,--,17.00,60.71
"Fiber, total dietary",g,--,--,1.0,3.6
"Sugars, total",g,--,--,1.00,3.57
Minerals
"Calcium, Ca",mg,--,--,0,0
"Iron, Fe",mg,--,--,0.64,2.29
"Potassium, K",mg,--,--,330,1179
"Sodium, Na",mg,--,--,250,893
Vitamins
"Vitamin C, total ascorbic acid",mg,--,--,8.6,30.6
"Vitamin A, IU",IU,--,--,0,0
Lipids
"Fatty acids, total saturated",g,--,--,1.000,3.570
"Fatty acids, total trans",g,--,--,0.000,0.000
"Cholesterol",mg,--,--,0,0
Amino Acids
Other
Ingredients
"POTATOES, VEGETABLE OIL (CONTAINS ONE OR MORE OF THE FOLLOWING: CORN, COTTONSEED, SUNFLOWER), WHEY, SALT, DEXTROSE. WHEAT FLOUR, NONFAT DRY MILK, BUTTERMILK SOLIDS, CORN SYRUP SOLIDS, BUTTER SOLIDS (CREAM, SALT), DEHYDRATED ONION, SUGAR, SOUR CREAM SOLIDS (CREAM, NONFAT MILK, CULTURES), MONOSODIUM GLUTAMATE, PARSLEY, CITRIC ACID, ARTIFICIAL FLAVOR, MALIC ACID, SODIUM DIACETATE, AND LACTOSE." Date available: 07/14/2017 Date last updated by company: 07/14/2017
