Source: USDA Branded Food Products Database Release December 2017 Software v.3.8.6.4 2017-10-02
Report Run at: December 18, 2017 06:27 EST
"Nutrient data for: 45156651, HERR'S, CRUNCHY CHEESTIX, JALAPENO, UPC: 072600054080"
Food Group:  Branded Food Products Database
Common Name:

Nutrient,Unit,Data points,Std. Error,"20.0 PIECES | ABOUT = 28.0g",1Value per 100 g,
Proximates
"Energy",kcal,--,--,150,536
"Protein",g,--,--,1.00,3.57
"Total lipid (fat)",g,--,--,9.00,32.14
"Carbohydrate, by difference",g,--,--,14.00,50.00
"Fiber, total dietary",g,--,--,1.0,3.6
"Sugars, total",g,--,--,1.00,3.57
Minerals
"Calcium, Ca",mg,--,--,0,0
"Iron, Fe",mg,--,--,0.00,0.00
"Potassium, K",mg,--,--,35,125
"Sodium, Na",mg,--,--,190,679
Vitamins
"Vitamin C, total ascorbic acid",mg,--,--,4.3,15.3
"Vitamin A, IU",IU,--,--,0,0
Lipids
"Fatty acids, total saturated",g,--,--,1.501,5.360
"Fatty acids, total monounsaturated",g,--,--,2.999,10.710
"Fatty acids, total polyunsaturated",g,--,--,5.001,17.860
"Fatty acids, total trans",g,--,--,0.000,0.000
"Cholesterol",mg,--,--,0,0
Amino Acids
Other
Ingredients
"CORN MEAL, CORN OIL, MALTODEXTRIN, WHEY, SALT, MONOSODIUM GLUTAMATE, CHEDDAR CHEESE (PASTEURIZED MILK, CHEESE CULTURE, SALT, ENZYMES), SUNFLOWER OIL, NONFAT MILK, SUGAR, DEXTROSE, SPICES, ONION POWDER, GARLIC POWDER, GREEN BELL PEPPER POWDER, TORULA YEAST, MODIFIED TAPIOCA STARCH, SODIUM DIACETATE, CITRIC ACID, CHIPOTLE PEPPER, DRIED PARSLEY, PARTIALLY HYDROGENATED SOYBEAN OIL, MODIFIED CORN STARCH, DISODIUM INOSINATE AND DISOCIUM GUANYLATE, SPICE EXTRACTS, PAPRIKA EXTRACT, NATURAL AND ARTIFICIAL FLAVORS, BUTTER, NATURAL FLAVOR, LACTIC ACID, FD&C YELLOW NO. 6 AND FD&C YELLOW NO. 5." Date available: 07/14/2017 Date last updated by company: 07/14/2017
