Source: USDA Branded Food Products Database Release December 2017 Software v.3.8.6.4 2017-10-02
Report Run at: December 18, 2017 06:40 EST
"Nutrient data for: 45191081, HICKORY STICKS, SUMMER SAUSAGE, UPC: 070309042346"
Food Group:  Branded Food Products Database
Common Name:

Nutrient,Unit,Data points,Std. Error,"1 LINK = 28.0g",1Value per 100 g,
Proximates
"Energy",kcal,--,--,100,357
"Protein",g,--,--,5.00,17.86
"Total lipid (fat)",g,--,--,9.00,32.14
"Carbohydrate, by difference",g,--,--,1.00,3.57
Minerals
"Calcium, Ca",mg,--,--,20,71
"Iron, Fe",mg,--,--,0.71,2.53
"Sodium, Na",mg,--,--,410,1464
Vitamins
"Vitamin C, total ascorbic acid",mg,--,--,0.0,0.0
"Vitamin A, IU",IU,--,--,0,0
Lipids
"Fatty acids, total saturated",g,--,--,2.999,10.710
"Cholesterol",mg,--,--,25,89
Amino Acids
Other
Ingredients
"PORK, BEEF, SALT, SPICES, DEXTROSE, PAPRIKA, LACTIC ACID STARTER CULTURE, SODIUM ASCORBATE, SODIUM NITRITE, COLLAGEN CASING." Date available: 07/14/2017 Date last updated by company: 07/14/2017
