Source: USDA Branded Food Products Database Release December 2017 Software v.3.8.6.4 2017-10-02
Report Run at: December 18, 2017 06:37 EST
"Nutrient data for: 45270588, HICKORY SMOKED BACON, UPC: 041497190003"
Food Group:  Branded Food Products Database
Common Name:

Nutrient,Unit,Data points,Std. Error,"2.0 SLICES FRIED = 18.0g",1Value per 100 g,
Proximates
"Energy",kcal,--,--,80,444
"Protein",g,--,--,4.00,22.22
"Total lipid (fat)",g,--,--,7.00,38.89
"Carbohydrate, by difference",g,--,--,0.00,0.00
"Fiber, total dietary",g,--,--,0.0,0.0
"Sugars, total",g,--,--,1.00,5.56
Minerals
"Calcium, Ca",mg,--,--,0,0
"Iron, Fe",mg,--,--,1.00,5.56
"Sodium, Na",mg,--,--,260,1444
Vitamins
"Vitamin C, total ascorbic acid",mg,--,--,0.0,0.0
"Vitamin A, IU",IU,--,--,0,0
Lipids
"Fatty acids, total saturated",g,--,--,2.500,13.890
"Fatty acids, total trans",g,--,--,0.000,0.000
"Cholesterol",mg,--,--,10,56
Amino Acids
Other
Ingredients
"CURED WITH: WATER, SALT, CONTAINS LESS THAN 2% OF BROWN SUGAR, SUGAR, SODIUM PHOSPHATE, SODIUM ERYTHORBATE, SODIUM NITRITE." Date available: 07/14/2017 Date last updated by company: 07/14/2017
