Source: USDA Branded Food Products Database Release December 2017 Software v.3.8.6.4 2017-10-02
Report Run at: December 18, 2017 06:37 EST
"Nutrient data for: 45289910, HICKORY SMOKED BONELESS HICKORY HILLS HAM WATER ADDDED, UPC: 201596011955"
Food Group:  Branded Food Products Database
Common Name:

Nutrient,Unit,Data points,Std. Error,"3.0 ONZ = 84.0g",1Value per 100 g,
Proximates
"Energy",kcal,--,--,90,107
"Protein",g,--,--,14.00,16.67
"Total lipid (fat)",g,--,--,2.00,2.38
"Carbohydrate, by difference",g,--,--,5.00,5.95
"Fiber, total dietary",g,--,--,0.0,0.0
"Sugars, total",g,--,--,3.00,3.57
Minerals
"Calcium, Ca",mg,--,--,0,0
"Iron, Fe",mg,--,--,0.47,0.56
"Sodium, Na",mg,--,--,780,929
Vitamins
"Vitamin C, total ascorbic acid",mg,--,--,0.8,0.9
"Vitamin A, IU",IU,--,--,0,0
Lipids
"Fatty acids, total saturated",g,--,--,1.000,1.190
"Fatty acids, total trans",g,--,--,0.000,0.000
"Cholesterol",mg,--,--,30,36
Amino Acids
Other
Ingredients
"CURED WITH WATER, DEXTROSE, CONTAINS 2% OR LESS OF: SALT, POTASSIUM LACTATE, SODIUM PHOSPHATE, SODIUM DIACETATE, SODIUM ERYTHORBATE, SODIUM NITRITE." Date available: 07/14/2017 Date last updated by company: 07/14/2017
