Source: USDA Branded Food Products Database Release December 2017 Software v.3.8.6.4 2017-10-02
Report Run at: December 18, 2017 06:46 EST
"Nutrient data for: 45201102, HIGH PROTEIN BARS, UPC: 753656711973"
Food Group:  Branded Food Products Database
Common Name:

Nutrient,Unit,Data points,Std. Error,"1 BAR = 60.0g",1Value per 100 g,
Proximates
"Energy",kcal,--,--,230,383
"Protein",g,--,--,20.00,33.33
"Total lipid (fat)",g,--,--,9.00,15.00
"Carbohydrate, by difference",g,--,--,23.00,38.33
"Fiber, total dietary",g,--,--,1.0,1.7
"Sugars, total",g,--,--,0.00,0.00
Minerals
"Calcium, Ca",mg,--,--,100,167
"Iron, Fe",mg,--,--,0.96,1.60
"Sodium, Na",mg,--,--,230,383
Vitamins
"Vitamin C, total ascorbic acid",mg,--,--,0.0,0.0
"Vitamin A, IU",IU,--,--,0,0
Lipids
"Fatty acids, total saturated",g,--,--,2.502,4.170
"Fatty acids, total trans",g,--,--,0.000,0.000
"Cholesterol",mg,--,--,5,8
Amino Acids
Other
Ingredients
"PROTEIN BLEND (SOY PROTEIN ISOLATE, WHEY PROTEIN ISOLATE, CALCIUM CASEINATE), COATING (MALTITIOL, COCOA BUTTER, MILK FAT, SODIUM CASEINATE, SOY LECITHIN, NATURAL FLAVORS, TOCOPHEROLS), MALTITOL, GLYCERIN, ALMONDS, WATER, SOY CRISPS (SOY PROTEIN ISOLATE, TAPIOCA STARCH, SALT), CANOLA OIL, NATURAL FLAVORS, SOY LECITHIN, CHOCOLATE, SEA SALT." Date available: 07/14/2017 Date last updated by company: 07/14/2017
