Source: USDA Branded Food Products Database Release December 2017 Software v.3.8.6.4 2017-10-02
Report Run at: December 18, 2017 06:49 EST
"Nutrient data for: 45136075, HIGH PROTEIN MACROBAR, UPC: 181945000062"
Food Group:  Branded Food Products Database
Common Name:

Nutrient,Unit,Data points,Std. Error,"1 BAR = 71.0g",1Value per 100 g,
Proximates
"Energy",kcal,--,--,290,408
"Protein",g,--,--,12.00,16.90
"Total lipid (fat)",g,--,--,11.00,15.49
"Carbohydrate, by difference",g,--,--,38.00,53.52
"Fiber, total dietary",g,--,--,3.0,4.2
"Sugars, total",g,--,--,15.00,21.13
Minerals
"Calcium, Ca",mg,--,--,20,28
"Iron, Fe",mg,--,--,2.03,2.86
"Sodium, Na",mg,--,--,10,14
Vitamins
"Vitamin C, total ascorbic acid",mg,--,--,0.0,0.0
"Vitamin A, IU",IU,--,--,0,0
Lipids
"Fatty acids, total saturated",g,--,--,2.499,3.520
"Fatty acids, total trans",g,--,--,0.000,0.000
"Cholesterol",mg,--,--,0,0
Amino Acids
Other
Ingredients
"ORGANIC BROWN RICE SYRUP, ORGANIC PEANUT BUTTER, ORGANIC PROTEIN BLEND (ORGANIC BROWN RICE PROTEIN, ORGANIC PEA PROTEIN), ORGANIC PUFFED BROWN RICE, ORGANIC FAIR TRADE CHOCOLATE CHIPS (ORGANIC CANE SUGAR, ORGANIC COCOA LIQUOR, ORGANIC COCOA BUTTER), ORGANIC PEANUTS." Date available: 07/14/2017 Date last updated by company: 07/14/2017
