Source: USDA Branded Food Products Database Release December 2017 Software v.3.8.6.4 2017-10-02
Report Run at: December 18, 2017 06:43 EST
"Nutrient data for: 45279974, HIGH FIBER BROWNIES, UPC: 075450126365"
Food Group:  Branded Food Products Database
Common Name:

Nutrient,Unit,Data points,Std. Error,"1 BROWNIE = 25.0g",1Value per 100 g,
Proximates
"Energy",kcal,--,--,90,360
"Protein",g,--,--,1.00,4.00
"Total lipid (fat)",g,--,--,3.00,12.00
"Carbohydrate, by difference",g,--,--,18.00,72.00
"Fiber, total dietary",g,--,--,5.0,20.0
"Sugars, total",g,--,--,8.00,32.00
Minerals
"Calcium, Ca",mg,--,--,0,0
"Iron, Fe",mg,--,--,1.73,6.91
"Potassium, K",mg,--,--,95,380
"Sodium, Na",mg,--,--,80,320
Vitamins
"Vitamin C, total ascorbic acid",mg,--,--,0.0,0.0
"Vitamin A, IU",IU,--,--,0,0
Lipids
"Fatty acids, total saturated",g,--,--,1.500,6.000
"Fatty acids, total monounsaturated",g,--,--,1.000,4.000
"Fatty acids, total polyunsaturated",g,--,--,0.000,0.000
"Fatty acids, total trans",g,--,--,0.000,0.000
"Cholesterol",mg,--,--,0,0
Amino Acids
Other
Ingredients
"ENRICHED WHEAT FLOUR (BLEACHED WHEAT FLOUR, NIACIN, REDUCED IRON, THIAMIN MONONITRATE, RIBOFLAVIN, FOLIC ACID), CHICORY ROOT EXTRACT (INULIN), SUGAR, GLYCERIN, CHOCOLATE FLAVORED CHIPS (SUGAR, PALM KERNEL AND PALM OIL, COCOA [PROCESSED WITH ALKALI], DEXTROSE, WHEY POWDER, SOY LECITHIN, VANILLA), COCOA (PROCESSED WITH ALKALI), VEGETABLE OIL (HIGH OLEIC CANOLA, PALM, PALM KERNEL), FRUCTOSE, SUGARCANE FIBER, CONTAINS LESS THAN 2% OF: LEAVENING (BAKING SODA, SODIUM ACID PYROPHOSPHATE, MONOCALCIUM PHOSPHATE), DRIED EGG WHITES, SKIM MILK, CORNSTARCH, SALT, COCOA POWDER, NATURAL FLAVOR, XANTHAN GUM, SOY LECITHIN." Date available: 08/11/2017 Date last updated by company: 08/11/2017
