Source: USDA Branded Food Products Database Release December 2017 Software v.3.8.6.4 2017-10-02
Report Run at: December 18, 2017 06:50 EST
"Nutrient data for: 45269697, HIGH PROTEIN SNACK CHOCOLATE POPPERS, UPC: 882178600110"
Food Group:  Branded Food Products Database
Common Name:

Nutrient,Unit,Data points,Std. Error,"1 PACKET = 35.0g",1Value per 100 g,
Proximates
"Energy",kcal,--,--,150,429
"Protein",g,--,--,15.00,42.86
"Total lipid (fat)",g,--,--,6.00,17.14
"Carbohydrate, by difference",g,--,--,11.00,31.43
"Fiber, total dietary",g,--,--,1.0,2.9
"Sugars, total",g,--,--,5.00,14.29
Minerals
"Calcium, Ca",mg,--,--,250,714
"Iron, Fe",mg,--,--,2.57,7.35
"Potassium, K",mg,--,--,190,543
"Sodium, Na",mg,--,--,200,571
Vitamins
"Vitamin C, total ascorbic acid",mg,--,--,0.0,0.0
"Vitamin A, IU",IU,--,--,0,0
Lipids
"Fatty acids, total saturated",g,--,--,4.501,12.860
"Fatty acids, total trans",g,--,--,0.000,0.000
"Cholesterol",mg,--,--,0,0
Amino Acids
Other
Ingredients
"PROTEIN BLEND (SOY PROTEIN ISOLATE, MILK PROTEIN CONCENTRATE), MODIFIED PALM KERNEL OIL, SUGAR, COCOA (PROCESSED WITH ALKALI), TAPIOCA STARCH, RICE FLOUR, CALCIUM CARBONATE, NATURAL AND ARTIFICIAL FLAVORS, SOY LECITHIN, SOY LECITHIN, PEANUT FLOUR, SUCRALOSE (NON-NUTRITIVE SWEETENER)." Date available: 07/14/2017 Date last updated by company: 07/14/2017
