Source: USDA Branded Food Products Database Release December 2017 Software v.3.8.6.4 2017-10-02
Report Run at: December 18, 2017 06:44 EST
"Nutrient data for: 45051357, HIGHLAND CREST, MILD CHEDDAR SLICED CHEESE, UPC: 074336102042"
Food Group:  Branded Food Products Database
Common Name:

Nutrient,Unit,Data points,Std. Error,"1 SLICE = 22.0g",1Value per 100 g,
Proximates
"Energy",kcal,--,--,90,409
"Protein",g,--,--,5.00,22.73
"Total lipid (fat)",g,--,--,7.00,31.82
"Carbohydrate, by difference",g,--,--,0.00,0.00
"Fiber, total dietary",g,--,--,0.0,0.0
"Sugars, total",g,--,--,0.00,0.00
Minerals
"Calcium, Ca",mg,--,--,150,682
"Iron, Fe",mg,--,--,0.00,0.00
"Sodium, Na",mg,--,--,140,636
Vitamins
"Vitamin C, total ascorbic acid",mg,--,--,0.0,0.0
"Vitamin A, IU",IU,--,--,455,2066
Lipids
"Fatty acids, total saturated",g,--,--,5.001,22.730
"Fatty acids, total trans",g,--,--,0.000,0.000
"Cholesterol",mg,--,--,20,91
Amino Acids
Other
Ingredients
"CULTURED PASTEURIZED MILK, SALT, ENZYMES, ANNATTO COLOR." Date available: 06/25/2017 Date last updated by company: 06/25/2017
