Source: USDA Branded Food Products Database Release December 2017 Software v.3.8.6.4 2017-10-02
Report Run at: December 18, 2017 06:51 EST
"Nutrient data for: 45225496, HIKERS TRAIL MIX, UPC: 049022681163"
Food Group:  Branded Food Products Database
Common Name:

Nutrient,Unit,Data points,Std. Error,"3.0 Tbsp = 28.0g",1Value per 100 g,
Proximates
"Energy",kcal,--,--,150,536
"Protein",g,--,--,5.00,17.86
"Total lipid (fat)",g,--,--,10.00,35.71
"Carbohydrate, by difference",g,--,--,10.00,35.71
"Fiber, total dietary",g,--,--,2.0,7.1
"Sugars, total",g,--,--,7.00,25.00
Minerals
"Calcium, Ca",mg,--,--,0,0
"Iron, Fe",mg,--,--,0.90,3.21
"Potassium, K",mg,--,--,190,679
"Sodium, Na",mg,--,--,95,339
Vitamins
"Vitamin D",IU,--,--,0,0
Lipids
"Fatty acids, total saturated",g,--,--,1.501,5.360
"Fatty acids, total trans",g,--,--,0.000,0.000
"Cholesterol",mg,--,--,0,0
Amino Acids
Other
Ingredients
"RAISINS, SUNFLOWER KERNELS (SUNFLOWER KERNELS, SUNFLOWER OIL AND/OR PEANUT OIL, SALT), PEANUTS (PEANUTS, PEANUT OIL, SALT), CASHEWS (CASHEWS, PEANUT OIL, SALT), PEPITAS (PUMPKIN KERNELS, PEANUT OIL, SALT), ALMONDS (ALMONDS, PEANUT OIL AND/OR CANOLA OIL, SALT)." Date available: 09/22/2017 Date last updated by company: 09/22/2017
