Source: USDA Branded Food Products Database Release December 2017 Software v.3.8.6.4 2017-10-02
Report Run at: December 18, 2017 06:52 EST
"Nutrient data for: 45175453, HILAND, LOWFAT COTTAGE CHEESE SNACK CUPS, UPC: 072060002416"
Food Group:  Branded Food Products Database
Common Name:

Nutrient,Unit,Data points,Std. Error,"0.5 cup = 114.0g",1Value per 100 g,
Proximates
"Energy",kcal,--,--,90,79
"Protein",g,--,--,12.00,10.53
"Total lipid (fat)",g,--,--,2.50,2.19
"Carbohydrate, by difference",g,--,--,5.00,4.39
"Fiber, total dietary",g,--,--,0.0,0.0
"Sugars, total",g,--,--,5.00,4.39
Minerals
"Calcium, Ca",mg,--,--,100,88
"Iron, Fe",mg,--,--,0.00,0.00
"Sodium, Na",mg,--,--,480,421
Vitamins
"Vitamin C, total ascorbic acid",mg,--,--,2.3,2.0
"Vitamin A, IU",IU,--,--,193,169
Lipids
"Fatty acids, total saturated",g,--,--,1.505,1.320
"Fatty acids, total trans",g,--,--,0.000,0.000
"Cholesterol",mg,--,--,15,13
Amino Acids
Other
Ingredients
"SKIM MILK, MILK, NONFAT DRY MILK, LACTOSE, SALT, CREAM, STABILIZER (MALTODEXTRIN, GUAR GUM, MONO AND DIGLYCERIDES, XANTHAN GUM, CARRAGEENAN, CAROB BEAN GUM), CITRIC ACID, CAROB BEAN GUM), CITRIC ACID, CARBON DIOXIDE AND POTASSIUM SORBATE (MAINTAIN FRESHNESS), CHEESE CULTURES, VITAMIN A PALMITATE." Date available: 07/14/2017 Date last updated by company: 07/14/2017
