Source: USDA Branded Food Products Database Release December 2017 Software v.3.8.6.4 2017-10-02
Report Run at: December 18, 2017 06:53 EST
"Nutrient data for: 45050399, HILL COUNTRY FARE, MINI BEEF RAVIOLI IN TOMATO AND MEAT SAUCE, UPC: 041220859160"
Food Group:  Branded Food Products Database
Common Name:

Nutrient,Unit,Data points,Std. Error,"1 cup = 240.0g",1Value per 100 g,
Proximates
"Energy",kcal,--,--,230,96
"Protein",g,--,--,7.99,3.33
"Total lipid (fat)",g,--,--,7.01,2.92
"Carbohydrate, by difference",g,--,--,33.00,13.75
"Fiber, total dietary",g,--,--,7.0,2.9
"Sugars, total",g,--,--,4.99,2.08
Minerals
"Calcium, Ca",mg,--,--,41,17
"Iron, Fe",mg,--,--,2.86,1.19
"Sodium, Na",mg,--,--,701,292
Vitamins
"Vitamin C, total ascorbic acid",mg,--,--,2.6,1.1
"Vitamin A, IU",IU,--,--,211,88
Lipids
"Fatty acids, total saturated",g,--,--,2.496,1.040
"Fatty acids, total trans",g,--,--,0.000,0.000
"Cholesterol",mg,--,--,10,4
Amino Acids
Other
Ingredients
"TOMATO PUREE (WATER, TOMATO PASTE), WATER, ENRICHED WHEAT FLOUR (WHEAT FLOUR, MALTED BARLEY FLOUR, NIACIN, FERROUS SULFATE, THIAMINE MONONITRATE, RIBOFLAVIN, FOLIC ACID), BEEF, BREADCRUMBS (ENRICHED WHEAT FLOUR [WHEAT FLOUR, NIACIN, FERROUS SULFATE, THIAMINE MONONITRATE, RIBOFLAVIN, FOLIC ACID], DEXTROSE, SALT, YEAST, SOYBEAN OIL), CONTAINS LESS THAN 2%: HIGH FRUCTOSE CORN SYRUP, SALT, TEXTURED SOY PROTEIN (CARAMEL COLOR ADDED), MODIFIED CORN STARCH, DEHYDRATED ONION, POTASSIUM CHLORIDE, NATURAL FLAVOR, CARAMEL COLOR, GARLIC POWDER, CARROTS, ENZYME MODIFIED ROMANO CHEESE (ROMANO CHEESE [PASTEURIZED COW'S MILK, CHEESE CULTURES, SALT, ENZYMES], WATER, SALT, DISODIUM PHOSPHATE), CITRIC ACID, SUGAR, SPICE EXTRACTS." Date available: 06/25/2017 Date last updated by company: 06/25/2017
