Source: USDA Branded Food Products Database Release December 2017 Software v.3.8.6.4 2017-10-02
Report Run at: December 18, 2017 06:54 EST
"Nutrient data for: 45020428, HILLS BROS., CAPPUCCINO DRINK MIX, FRENCH VANILLA, UPC: 018400312524"
Food Group:  Branded Food Products Database
Common Name:

Nutrient,Unit,Data points,Std. Error,"2.0 Tbsp = 20.0g",1Value per 100 g,
Proximates
"Energy",kcal,--,--,70,350
"Protein",g,--,--,2.00,10.00
"Total lipid (fat)",g,--,--,0.00,0.00
"Carbohydrate, by difference",g,--,--,17.00,85.00
"Fiber, total dietary",g,--,--,0.0,0.0
"Sugars, total",g,--,--,11.00,55.00
Minerals
"Calcium, Ca",mg,--,--,40,200
"Iron, Fe",mg,--,--,0.90,4.50
"Sodium, Na",mg,--,--,85,425
Vitamins
"Vitamin C, total ascorbic acid",mg,--,--,0.0,0.0
"Vitamin A, IU",IU,--,--,250,1250
Lipids
"Fatty acids, total saturated",g,--,--,0.000,0.000
"Fatty acids, total trans",g,--,--,0.000,0.000
"Cholesterol",mg,--,--,0,0
Amino Acids
Other
Ingredients
"SUGAR, CREAMER [MALTODEXTRIN, PARTIALLY HYDROGENATED COCONUT OIL, SODIUM CASEINATE (A MILK DERIVATIVE), DIPOTASSIUM PHOSPHATE, ARTIFICIAL COLORS, CARRAGEENAN, MONO- AND DIGLYCERIDES, SALT, NATURAL AND ARTIFICIAL FLAVORS]. NONFAT DRY MILK, INSTANT COFFEE, NATURAL AND ARTIFICIAL FLAVORS, COCOA (PROCESSED WITH ALKALI), SODIUM ALUMINOSILICATE (TO PREVENT CAKING), CELLULOSE GUM, SALT." Date available: 07/14/2017 Date last updated by company: 07/14/2017
