Source: USDA Branded Food Products Database Release December 2017 Software v.3.8.6.4 2017-10-02
Report Run at: December 18, 2017 06:56 EST
"Nutrient data for: 45170967, HILLSHIRE, ITALIAN DRY SALAME WITH NATURAL GOUDA CHEESE & TOASTED ROUNDS, UPC: 044500201826"
Food Group:  Branded Food Products Database
Common Name:

Nutrient,Unit,Data points,Std. Error,"1 PACKAGE = 78.0g",1Value per 100 g,
Proximates
"Energy",kcal,--,--,300,385
"Protein",g,--,--,16.00,20.51
"Total lipid (fat)",g,--,--,20.00,25.64
"Carbohydrate, by difference",g,--,--,14.00,17.95
"Fiber, total dietary",g,--,--,1.0,1.3
"Sugars, total",g,--,--,2.00,2.56
Minerals
"Calcium, Ca",mg,--,--,250,321
"Iron, Fe",mg,--,--,0.65,0.83
"Sodium, Na",mg,--,--,850,1090
Vitamins
"Vitamin C, total ascorbic acid",mg,--,--,0.0,0.0
"Vitamin A, IU",IU,--,--,718,921
Lipids
"Fatty acids, total saturated",g,--,--,9.001,11.540
"Fatty acids, total trans",g,--,--,0.000,0.000
"Cholesterol",mg,--,--,60,77
Amino Acids
Other
Ingredients
"ITALIAN DRY SALAME INGREDIENTS: PORK, NONFAT DRY MILK, DEXTROSE, SALT, CONTAINS 2% OR LESS OF: SPICES, WINE, ROSEMARY EXTRACT, LACTIC ACID STARTER CULTURE, SODIUM ASCORBATE, GRANULATED GARLIC, SODIUM NITRITE. NATURAL GOUDA CHEESE INGREDIENTS: CULTURED PASTEURIZED MILK, SALT, ENZYMES AND ANNATTO COLOR. TOASTED ROUNDS INGREDIENTS: WHEAT FLOUR, SUNFLOWER OIL, SEA SALT, ISOLATED OAT PRODUCT, SALT, YEAST, DEXTROSE, DISTILLED VINEGAR, ROSEMARY EXTRACT (TO PRESERVE FRESHNESS), ASCORBIC ACID (ANTIOXIDANT)." Date available: 09/29/2017 Date last updated by company: 09/29/2017
