Source: USDA Branded Food Products Database Release December 2017 Software v.3.8.6.4 2017-10-02
Report Run at: December 18, 2017 06:55 EST
"Nutrient data for: 45319540, HILLSHIRE FARM, NATURALS, ROTISSERIE SEASONED CHICKEN BREAST, UPC: 044500201468"
Food Group:  Branded Food Products Database
Common Name:

Nutrient,Unit,Data points,Std. Error,"3.0 SLICES = 49.0g",1Value per 100 g,
Proximates
"Energy",kcal,--,--,45,92
"Protein",g,--,--,9.00,18.37
"Total lipid (fat)",g,--,--,0.50,1.02
"Carbohydrate, by difference",g,--,--,1.00,2.04
"Fiber, total dietary",g,--,--,1.0,2.0
"Sugars, total",g,--,--,0.00,0.00
Minerals
"Calcium, Ca",mg,--,--,40,82
"Iron, Fe",mg,--,--,0.40,0.82
"Potassium, K",mg,--,--,150,306
"Sodium, Na",mg,--,--,470,959
Vitamins
"Vitamin C, total ascorbic acid",mg,--,--,0.0,0.0
"Vitamin A, IU",IU,--,--,0,0
Lipids
"Fatty acids, total saturated",g,--,--,0.000,0.000
"Fatty acids, total trans",g,--,--,0.000,0.000
"Cholesterol",mg,--,--,20,41
Amino Acids
Other
Ingredients
"CHICKEN BREAST, CHICKEN BROTH, CONTAINS 2% OR LESS: SALT, CARRAGEENAN, DRIED VINEGAR, SUGAR, CULTURED CELERY JUICE POWDER, BROWN SUGAR, YEAST EXTRACT, NATURAL FLAVORS." Date available: 07/14/2017 Date last updated by company: 07/14/2017
