Source: USDA Branded Food Products Database Release December 2017 Software v.3.8.6.4 2017-10-02
Report Run at: December 18, 2017 07:02 EST
"Nutrient data for: 45286613, HIPPIE GRANOLA, UPC: 625691103016"
Food Group:  Branded Food Products Database
Common Name:

Nutrient,Unit,Data points,Std. Error,"0.5 cup = 45.0g",1Value per 100 g,
Proximates
"Energy",kcal,--,--,230,511
"Protein",g,--,--,6.00,13.33
"Total lipid (fat)",g,--,--,15.00,33.33
"Carbohydrate, by difference",g,--,--,21.00,46.67
"Fiber, total dietary",g,--,--,5.0,11.1
"Sugars, total",g,--,--,10.00,22.22
Minerals
"Calcium, Ca",mg,--,--,60,133
"Iron, Fe",mg,--,--,4.40,9.78
"Sodium, Na",mg,--,--,80,178
Vitamins
"Vitamin C, total ascorbic acid",mg,--,--,1.5,3.3
"Vitamin A, IU",IU,--,--,0,0
Lipids
"Fatty acids, total saturated",g,--,--,4.000,8.890
"Fatty acids, total trans",g,--,--,0.000,0.000
"Cholesterol",mg,--,--,0,0
Amino Acids
Other
Ingredients
"SUNFLOWER SEEDS*, COCONUT*, TAPIOCA SYRUP*, HEMP SEEDS*, SESAME SEEDS*, COCONUT SUGAR*, PUMPKIN SEEDS*, DRIED CRANBERRIES* (CRANBERRIES*, SUGAR*, SUNFLOWER OIL*), THOMPSON RAISINS*, FLAX SEEDS*, CHIA SEEDS*, TAPIOCA STARCH*, AGAVE SYRUP*, WATER, VANILLA* AND SEA SALT." Date available: 07/14/2017 Date last updated by company: 07/14/2017
