Source: USDA Branded Food Products Database Release December 2017 Software v.3.8.6.4 2017-10-02
Report Run at: December 18, 2017 07:03 EST
"Nutrient data for: 45259920, HIWA-KAI HAWAIIAN BLACK SEA SALT CARAMELS, UPC: 711175119106"
Food Group:  Branded Food Products Database
Common Name:

Nutrient,Unit,Data points,Std. Error,"2.0 PIECES = 33.0g",1Value per 100 g,
Proximates
"Energy",kcal,--,--,180,545
"Protein",g,--,--,1.00,3.03
"Total lipid (fat)",g,--,--,10.00,30.30
"Carbohydrate, by difference",g,--,--,22.00,66.67
"Fiber, total dietary",g,--,--,1.0,3.0
"Sugars, total",g,--,--,17.00,51.52
Minerals
"Calcium, Ca",mg,--,--,0,0
"Iron, Fe",mg,--,--,0.00,0.00
"Sodium, Na",mg,--,--,130,394
Vitamins
"Vitamin C, total ascorbic acid",mg,--,--,0.0,0.0
"Vitamin A, IU",IU,--,--,0,0
Lipids
"Fatty acids, total saturated",g,--,--,6.999,21.210
"Fatty acids, total trans",g,--,--,0.000,0.000
"Cholesterol",mg,--,--,20,61
Amino Acids
Other
Ingredients
"DARK CHOCOLATE (UNSWEETENED CHOCOLATE, SUGAR, COCOA BUTTER, SOY LECITHIN [AN EMULSIFIER], VANILLA), MILK CHOCOLATE (SUGAR, COCOA BUTTER, DRY WHOLE MILK, UNSWEETENED CHOCOLATE, SOY LECITHIN [AN EMULSIFIER], VANILLA), SEA SALT CARAMEL (CREAM [MILK], SUGAR, CORN SYRUP, EVAPORATED MILK, STABILIZER [PALM OIL GRANULAR SOYA LECITHIN], BUTTER [MILK], MALDON SEA SALT, SOY LECITHIN, VANILLA EXTRACT, HONEY, VITAMIN E [SOYBEAN OIL]), HIWA KAI HAWAIIAN BLACK SEA SALT." Date available: 07/14/2017 Date last updated by company: 07/14/2017
