Source: USDA Branded Food Products Database Release December 2017 Software v.3.8.6.4 2017-10-02
Report Run at: December 18, 2017 07:04 EST
"Nutrient data for: 45310895, HMBRGR HLPR PASTA CHSY SAUCE MIX CHSY RNCH BURGER, UNPREPARED, GTIN: 00016000277182"
Food Group:  Branded Food Products Database
Common Name:

Nutrient,Unit,Data points,Std. Error,"0.25 cup as pkgd (33g) = 33.0g",1Value per 100 g,
Proximates
"Energy",kcal,--,--,110,333
"Protein",g,--,--,4.00,12.12
"Total lipid (fat)",g,--,--,1.00,3.03
"Carbohydrate, by difference",g,--,--,23.00,69.70
"Fiber, total dietary",g,--,--,1.0,3.0
"Sugars, total",g,--,--,2.00,6.06
Minerals
"Calcium, Ca",mg,--,--,0,0
"Iron, Fe",mg,--,--,0.36,1.09
"Sodium, Na",mg,--,--,600,1818
Vitamins
"Vitamin C, total ascorbic acid",mg,--,--,0.0,0.0
"Vitamin A, IU",IU,--,--,0,0
Lipids
"Fatty acids, total saturated",g,--,--,0.000,0.000
"Fatty acids, total trans",g,--,--,0.000,0.000
"Cholesterol",mg,--,--,0,0
Amino Acids
Other
Ingredients
"ENRICHED PASTA (WHEAT FLOUR, NIACIN, FERROUS SULFATE, THIAMIN MONONITRATE, RIBOFLAVIN, FOLIC ACID), CORN STARCH, MALTODEXTRIN, SALT, WHEAT FLOUR, BUTTERMILK*, SUGAR, MODIFIED WHEY, SEA SALT, MONOSODIUM GLUTAMATE, MONOGLYCERIDES, MODIFIED CORN STARCH, CITRIC ACID, RICOTTA CHEESE* (WHEY, MILKFAT, LACTIC ACID, SALT), VEGETABLE OIL (CANOLA, SOYBEAN AND/OR SUNFLOWER OIL), PARMESAN CHEESE* (MILK, CHEESE CULTURES, SALT, ENZYMES), CREAM*, BLUE CHEESE* (MILK, CHEESE CULTURES, SALT, ENZYMES), LACTIC ACID, COLOR (ARTIFICIAL COLOR, YELLOW LAKES 5 & 6, YELLOWS 5 & 6, RED LAKE 40), PARSLEY*, NATURAL FLAVOR, CALCIUM LACTATE, VINEGAR*, YEAST EXTRACT, CULTURED NONFAT MILK, SPICE, CHEDDAR CHEESE* (MILK, CHEESE CULTURES, SALT, ENZYMES), WHEY, BLUE CHEESE* (MILK, SALT, CHEESE CULTURES, ENZYMES), SODIUM CITRATE, SILICON DIOXIDE (ANTICAKING AGENT), ENZYME MODIFIED BLUE CHEESE (MILK, CHEESE CULTURES, SALT, ENZYMES), SODIUM PHOSPHATE, SOY LECITHIN, ENZYME MODIFIED CHEDDAR CHEESE (MILK, CHEESE CULTURES, SALT, ENZYMES).*DRIED" Date available: 10/20/2017 Date last updated by company: 10/19/2017
