Source: USDA Branded Food Products Database Release December 2017 Software v.3.8.6.4 2017-10-02
Report Run at: December 18, 2017 07:04 EST
"Nutrient data for: 45310891, HMBRGR HLPR PASTA CHSY SAUCE MIX CHSY BF PASTA, UNPREPARED, GTIN: 00016000260276"
Food Group:  Branded Food Products Database
Common Name:

Nutrient,Unit,Data points,Std. Error,"0.333 cup as pkgd (28g) = 28.0g",1Value per 100 g,
Proximates
"Energy",kcal,--,--,100,357
"Protein",g,--,--,3.00,10.71
"Total lipid (fat)",g,--,--,1.00,3.57
"Carbohydrate, by difference",g,--,--,19.00,67.86
"Fiber, total dietary",g,--,--,1.0,3.6
"Sugars, total",g,--,--,1.00,3.57
Minerals
"Calcium, Ca",mg,--,--,0,0
"Iron, Fe",mg,--,--,0.36,1.29
"Sodium, Na",mg,--,--,650,2321
Vitamins
"Vitamin C, total ascorbic acid",mg,--,--,0.0,0.0
"Vitamin A, IU",IU,--,--,0,0
Lipids
"Fatty acids, total saturated",g,--,--,0.000,0.000
"Fatty acids, total trans",g,--,--,0.000,0.000
"Cholesterol",mg,--,--,0,0
Amino Acids
Other
Ingredients
"ENRICHED PASTA (WHEAT FLOUR, NIACIN, FERROUS SULFATE, THIAMIN MONONITRATE, RIBOFLAVIN, FOLIC ACID), CORN STARCH, SALT, WHEAT FLOUR, RICOTTA CHEESE* (WHEY, MILKFAT, LACTIC ACID, SALT), VEGETABLE OIL (CANOLA, SOYBEAN AND/OR SUNFLOWER OIL), NATURAL FLAVOR, SUGAR, YEAST EXTRACT, MONOSODIUM GLUTAMATE, CHEDDAR CHEESE* (MILK, CHEESE CULTURES, SALT, ENZYMES), HYDROLYZED CORN PROTEIN, COLOR (CARAMEL COLOR, YELLOW LAKES 5 & 6, YELLOWS 5 & 6), MONOGLYCERIDES, SUNFLOWER OIL, CITRIC ACID, BEEF STOCK, SPICE, WHEY, ONION*, BUTTERMILK, SODIUM PHOSPHATE, BEEF FAT, SILICON DIOXIDE (ANTICAKING AGENT), BLUE CHEESE* (MILK, SALT, CHEESE CULTURES, ENZYMES), ENZYME MODIFIED BLUE CHEESE (MILK, CHEESE CULTURES, SALT, ENZYMES), ENZYME MODIFIED CHEDDAR CHEESE (MILK, CHEESE CULTURES, SALT, ENZYMES).*DRIED" Date available: 10/20/2017 Date last updated by company: 10/18/2017
