Source: USDA Branded Food Products Database Release December 2017 Software v.3.8.6.4 2017-10-02
Report Run at: December 18, 2017 07:07 EST
"Nutrient data for: 45164160, HODGSON MILL, PANCAKE MIX, BUTTERMILK, UPC: 071518020286"
Food Group:  Branded Food Products Database
Common Name:

Nutrient,Unit,Data points,Std. Error,"0.25 cup = 40.0g",1Value per 100 g,
Proximates
"Energy",kcal,--,--,130,325
"Protein",g,--,--,4.00,10.00
"Total lipid (fat)",g,--,--,1.50,3.75
"Carbohydrate, by difference",g,--,--,29.00,72.50
"Fiber, total dietary",g,--,--,5.0,12.5
"Sugars, total",g,--,--,3.00,7.50
Minerals
"Calcium, Ca",mg,--,--,200,500
"Iron, Fe",mg,--,--,1.44,3.60
"Sodium, Na",mg,--,--,330,825
Vitamins
"Vitamin C, total ascorbic acid",mg,--,--,0.0,0.0
"Vitamin A, IU",IU,--,--,0,0
Lipids
"Fatty acids, total saturated",g,--,--,0.000,0.000
"Fatty acids, total trans",g,--,--,0.000,0.000
"Cholesterol",mg,--,--,0,0
Amino Acids
Other
Ingredients
"STONE GROUND WHOLE WHEAT FLOUR, OAT BRAN, YELLOW CORN MEAL, BROWN MILLED FLAX SEED, BUTTERMILK, SUGAR, LEAVENING (MONOCALCIUM PHOSPHATE, BAKING SODA), SALT." Date available: 07/14/2017 Date last updated by company: 07/14/2017
