Source: USDA Branded Food Products Database Release December 2017 Software v.3.8.6.4 2017-10-02
Report Run at: December 18, 2017 07:07 EST
"Nutrient data for: 45036382, HODGSON MILL, ORGANIC SPIRALS WITH MILLED FLAX SEED, UPC: 071518000530"
Food Group:  Branded Food Products Database
Common Name:

Nutrient,Unit,Data points,Std. Error,"2.0 OZ DRY = 57.0g",1Value per 100 g,
Proximates
"Energy",kcal,--,--,215,377
"Protein",g,--,--,8.00,14.04
"Total lipid (fat)",g,--,--,2.50,4.39
"Carbohydrate, by difference",g,--,--,40.00,70.18
"Fiber, total dietary",g,--,--,6.0,10.5
"Sugars, total",g,--,--,1.00,1.75
Minerals
"Calcium, Ca",mg,--,--,20,35
"Iron, Fe",mg,--,--,6.63,11.63
"Sodium, Na",mg,--,--,0,0
Vitamins
"Vitamin C, total ascorbic acid",mg,--,--,0.0,0.0
"Thiamin",mg,--,--,0.570,1.000
"Riboflavin",mg,--,--,0.068,0.119
"Niacin",mg,--,--,2.894,5.077
"Vitamin A, IU",IU,--,--,0,0
Lipids
"Fatty acids, total saturated",g,--,--,0.000,0.000
"Fatty acids, total trans",g,--,--,0.000,0.000
"Cholesterol",mg,--,--,0,0
Amino Acids
Other
Ingredients
"ORGANIC DURUM WHOLE WHEAT FLOUR, ORGANIC MILLED FLAX SEED." Date available: 06/24/2017 Date last updated by company: 06/24/2017
