Source: USDA Branded Food Products Database Release December 2017 Software v.3.8.6.4 2017-10-02
Report Run at: December 18, 2017 07:12 EST
"Nutrient data for: 45229291, HOLIDAY EGGNOG, UPC: 021130071241"
Food Group:  Branded Food Products Database
Common Name:

Nutrient,Unit,Data points,Std. Error,"0.5 cup = 120.0g",1Value per 100 g,
Proximates
"Energy",kcal,--,--,180,150
"Protein",g,--,--,5.00,4.17
"Total lipid (fat)",g,--,--,9.00,7.50
"Carbohydrate, by difference",g,--,--,21.00,17.50
"Fiber, total dietary",g,--,--,0.0,0.0
"Sugars, total",g,--,--,20.00,16.67
Minerals
"Calcium, Ca",mg,--,--,150,125
"Iron, Fe",mg,--,--,0.00,0.00
"Sodium, Na",mg,--,--,70,58
Vitamins
"Vitamin C, total ascorbic acid",mg,--,--,1.2,1.0
"Vitamin A, IU",IU,--,--,300,250
Lipids
"Fatty acids, total saturated",g,--,--,5.004,4.170
"Fatty acids, total trans",g,--,--,0.000,0.000
"Cholesterol",mg,--,--,60,50
Amino Acids
Other
Ingredients
"GRADE A MILK AND CREAM, HIGH FRUCTOSE CORN SYRUP, EGG YOLKS, SUGAR, NONFAT MILK, NATURAL AND ARTIFICIAL FLAVORS, SPICES, CARRAGEENAN, ANNATTO (COLOR), TURMERIC (COLOR)." Date available: 07/14/2017 Date last updated by company: 07/14/2017
