Source: USDA Branded Food Products Database Release December 2017 Software v.3.8.6.4 2017-10-02
Report Run at: December 18, 2017 07:14 EST
"Nutrient data for: 45210263, HOLIDAY MILK CHOCOLATE, UPC: 768395481193"
Food Group:  Branded Food Products Database
Common Name:

Nutrient,Unit,Data points,Std. Error,"1 PACKAGE = 70.0g",1Value per 100 g,
Proximates
"Energy",kcal,--,--,380,543
"Protein",g,--,--,3.00,4.29
"Total lipid (fat)",g,--,--,21.00,30.00
"Carbohydrate, by difference",g,--,--,45.00,64.29
"Fiber, total dietary",g,--,--,2.0,2.9
"Sugars, total",g,--,--,43.00,61.43
Minerals
"Calcium, Ca",mg,--,--,100,143
"Iron, Fe",mg,--,--,3.21,4.59
"Sodium, Na",mg,--,--,25,36
Vitamins
"Vitamin C, total ascorbic acid",mg,--,--,0.0,0.0
"Vitamin A, IU",IU,--,--,71,102
Lipids
"Fatty acids, total saturated",g,--,--,11.998,17.140
"Fatty acids, total trans",g,--,--,0.000,0.000
"Cholesterol",mg,--,--,10,14
Amino Acids
Other
Ingredients
"SUGAR, COCOA BUTTER, DRY WHOLE MILK, CHOCOLATE LIQUOR, SOY LECITHIN, PGPR, NATURAL FLAVOR." Date available: 07/14/2017 Date last updated by company: 07/14/2017
