Source: USDA Branded Food Products Database Release December 2017 Software v.3.8.6.4 2017-10-02
Report Run at: December 18, 2017 07:14 EST
"Nutrient data for: 45208143, HOLIDAY NONPAREILS, UPC: 050428500781"
Food Group:  Branded Food Products Database
Common Name:

Nutrient,Unit,Data points,Std. Error,"30.0 -36 PIECES = 15.0g",1Value per 100 g,
Proximates
"Energy",kcal,--,--,70,467
"Protein",g,--,--,0.00,0.00
"Total lipid (fat)",g,--,--,2.50,16.67
"Carbohydrate, by difference",g,--,--,12.00,80.00
"Fiber, total dietary",g,--,--,1.0,6.7
"Sugars, total",g,--,--,11.00,73.33
Minerals
"Sodium, Na",mg,--,--,0,0
Vitamins
Lipids
"Fatty acids, total saturated",g,--,--,2.501,16.670
"Fatty acids, total trans",g,--,--,0.000,0.000
"Cholesterol",mg,--,--,0,0
Amino Acids
Other
Ingredients
"SUGAR, ASSORTED NONPAREILS (SUGAR, COR STARCH, CONFECTIONER'S GLAZE, ARTIFICIAL COLORS INCLUDING YELLOW 5 LAKE, YELLOW 6 LAKE, RED 40 LAKE, RED 3 LAKE, BLUE 1 LAKE, CARNAUBA WAX), HYDROGENATED PALM KERNEL OIL, COCOA POWDER, SOYA LECITHIN, WHOLE MILK POWDER." Date available: 10/19/2017 Date last updated by company: 10/19/2017
