Source: USDA Branded Food Products Database Release December 2017 Software v.3.8.6.4 2017-10-02
Report Run at: December 18, 2017 07:16 EST
"Nutrient data for: 45286498, HOLIDAY SUGAR COOKIES, UPC: 021130120581"
Food Group:  Branded Food Products Database
Common Name:

Nutrient,Unit,Data points,Std. Error,"1 COOKIE = 25.0g",1Value per 100 g,
Proximates
"Energy",kcal,--,--,110,440
"Protein",g,--,--,1.00,4.00
"Total lipid (fat)",g,--,--,4.00,16.00
"Carbohydrate, by difference",g,--,--,18.00,72.00
"Fiber, total dietary",g,--,--,0.0,0.0
"Sugars, total",g,--,--,8.00,32.00
Minerals
"Calcium, Ca",mg,--,--,0,0
"Iron, Fe",mg,--,--,1.44,5.76
"Sodium, Na",mg,--,--,120,480
Vitamins
"Vitamin C, total ascorbic acid",mg,--,--,0.0,0.0
"Vitamin A, IU",IU,--,--,0,0
Lipids
"Fatty acids, total saturated",g,--,--,2.000,8.000
"Fatty acids, total trans",g,--,--,0.000,0.000
"Cholesterol",mg,--,--,0,0
Amino Acids
Other
Ingredients
"ENRICHED BLEACHED WHEAT FLOUR (WHEAT FLOUR, NIACIN, IRON, THIAMIN MONONITRATE, RIBOFLAVIN, FOLIC ACID), SUGAR, CANOLA AND/OR SOYBEAN AND/OR PALM OIL, HIGH FRUCTOSE CORN SYRUP, CORN SYRUP, CONTAINS 2% OR LESS OF: GREEN TOPPING SUGAR (SUGAR, YELLOW 5 LAKE, CONFECTIONER'S GLAZE, BLUE 1 LAKE, CARNAUBA WAX), RED TOPPING SUGAR (SUGAR, CONFECTIONER'S GLAZE, RED 3, CARNAUBA WAX, YELLOW 6, RED 40, BLUE 2), BAKING SODA, SKIM MILK, SALT, EGGS, NATURAL AND ARTIFICIAL FLAVORS, CARAMEL COLOR, BAKING POWDER (SODIUM ACID PYROPHOSPHATE, BAKING SODA, CORN STARCH, CALCIUM PHOSPHATE), SOY LECITHIN." Date available: 07/14/2017 Date last updated by company: 07/14/2017
