Source: USDA Branded Food Products Database Release December 2017 Software v.3.8.6.4 2017-10-02
Report Run at: December 18, 2017 07:15 EST
"Nutrient data for: 45230924, HOLIDAY PARTY TRAY, UPC: 739148260839"
Food Group:  Branded Food Products Database
Common Name:

Nutrient,Unit,Data points,Std. Error,"28.0 GRM = 28.0g",1Value per 100 g,
Proximates
"Energy",kcal,--,--,150,536
"Protein",g,--,--,1.00,3.57
"Total lipid (fat)",g,--,--,9.00,32.14
"Carbohydrate, by difference",g,--,--,16.00,57.14
"Fiber, total dietary",g,--,--,0.0,0.0
"Sugars, total",g,--,--,7.00,25.00
Minerals
"Calcium, Ca",mg,--,--,0,0
"Iron, Fe",mg,--,--,1.29,4.59
"Sodium, Na",mg,--,--,5,18
Vitamins
"Vitamin C, total ascorbic acid",mg,--,--,0.0,0.0
"Vitamin A, IU",IU,--,--,0,0
Lipids
"Fatty acids, total saturated",g,--,--,4.500,16.070
"Fatty acids, total trans",g,--,--,0.000,0.000
"Cholesterol",mg,--,--,0,0
Amino Acids
Other
Ingredients
"FLOUR, SUGAR, VEGETABLE SHORTENING PALM OIL, SOYBEAN OIL, EGG WHITE, HONEY, GLAZED CHERRIES, COCOA, PROCESSES W ALKALI ARTIFICIAL FLAVOR, FD&C YELLOW #5. COCOA DROPS: SUGAR PARTIALLY HYDROGENATED PALM KERNEL OIL, COCOA, COCOA POWDER (PROCESSED WITH ALKALI), SALT, SOY LECITHIN (AN EMULSIFIER), VANILLIN (AN ARTIFICIAL FLAVOR. CHOCOLATE DIP: SUGAR, SOYBEAN OIL, COCOA, DUTCH PROCESSED, LECITHIN, ARTIFICIAL FLAVOR, FILLING: FRUCTOSE, APPLE PUREE, GLUCOSE, SUGAR, WATER, PECTIN, MONO GLYCOSIDE, FD&C RED 40 YELLOWY #6 BLUE 1 ARTIFICIAL FLAVOR. COLORED SPRINKLES: SUGAR, VEGETABLE OILS, CORN STARCH, CORN SYRUP, SOY LECITHIN, SALT, VANILLIN, CONFECTIONER GLAZE, CARNAUBA WAX, FD&C YELLOW #5 & #6, RED #3 & #40, BLUE #1." Date available: 07/14/2017 Date last updated by company: 07/14/2017
