Source: USDA Branded Food Products Database Release December 2017 Software v.3.8.6.4 2017-10-02
Report Run at: December 18, 2017 07:12 EST
"Nutrient data for: 45178790, HOLIDAY COOKIES, UPC: 768395493523"
Food Group:  Branded Food Products Database
Common Name:

Nutrient,Unit,Data points,Std. Error,"1 POUNCH = 28.0g",1Value per 100 g,
Proximates
"Energy",kcal,--,--,120,429
"Protein",g,--,--,1.00,3.57
"Total lipid (fat)",g,--,--,4.50,16.07
"Carbohydrate, by difference",g,--,--,20.00,71.43
"Fiber, total dietary",g,--,--,1.0,3.6
"Sugars, total",g,--,--,6.00,21.43
Minerals
"Calcium, Ca",mg,--,--,0,0
"Iron, Fe",mg,--,--,1.29,4.59
"Sodium, Na",mg,--,--,95,339
Vitamins
"Vitamin C, total ascorbic acid",mg,--,--,0.0,0.0
"Vitamin A, IU",IU,--,--,0,0
Lipids
"Fatty acids, total saturated",g,--,--,1.000,3.570
"Fatty acids, total trans",g,--,--,0.000,0.000
"Cholesterol",mg,--,--,0,0
Amino Acids
Other
Ingredients
"ENRICHED BLEACHED FLOUR (WHEAT FLOUR BLEACHED, NIACIN. REDUCED IRON, THIAMINE MONONITRATE RIBOFLAVIN FOLIC ACID), SUGAR, VEGETABLE OIL SHORTENING (CANOLA OIL AND HYDROGENATED COTTONSEED OIL). WATER SALT MALT SYRUP. LEAVENING (BAKING SODA, AMMONIUM BICARBONATE SODIUM ACID PYROPHOSPHATE, CORNSTARCH MONOCALCIUM PHOSPHATE CALCIUM SULPHATE) NATURAL AND ARTIFICIAL FLAVOR" Date available: 07/14/2017 Date last updated by company: 07/14/2017
