Source: USDA Branded Food Products Database Release December 2017 Software v.3.8.6.4 2017-10-02
Report Run at: December 18, 2017 07:19 EST
"Nutrient data for: 45126872, HOLY PEPPERONI STROMBOLI, UPC: 075706152001"
Food Group:  Branded Food Products Database
Common Name:

Nutrient,Unit,Data points,Std. Error,"0.5 STROMBOLI = 130.0g",1Value per 100 g,
Proximates
"Energy",kcal,--,--,410,315
"Protein",g,--,--,19.01,14.62
"Total lipid (fat)",g,--,--,23.00,17.69
"Carbohydrate, by difference",g,--,--,31.00,23.85
"Fiber, total dietary",g,--,--,1.9,1.5
"Sugars, total",g,--,--,2.00,1.54
Minerals
"Calcium, Ca",mg,--,--,250,192
"Iron, Fe",mg,--,--,4.06,3.12
"Sodium, Na",mg,--,--,1100,846
Vitamins
"Vitamin C, total ascorbic acid",mg,--,--,22.5,17.3
"Vitamin A, IU",IU,--,--,1124,865
Lipids
"Fatty acids, total saturated",g,--,--,10.998,8.460
"Fatty acids, total trans",g,--,--,0.000,0.000
"Cholesterol",mg,--,--,49,38
Amino Acids
Other
Ingredients
"CRUST: ENRICHED UNBLEACHED WHEAT FLOUR (WHEAT FLOUR, NIACIN, IRON, THIAMINE MONONITRATE, RIBOFLAVIN, FOLIC ACID), WATER, CONTAINS 2% OR LESS OF SOYBEAN OIL (WITH CITRIC ACID ADDED AS A PRESERVATIVE), PALM OIL, YEAST (YEAST, SORBITAN MONOSTEARATE, ASCORBIC ACID), BAKING POWDER (CORN STARCH, SODIUM ALUMINUM PHOSPHATE, SODIUM BICARBONATE), SALT, SUGAR, DEGERMED WHITE CORN MEAL, GARLIC POWDER, YEAST, DOUGH CONDITIONER (WHEAT FLOUR, ASCORBIC ACID, ENZYMES). FILLING: PEPPERONI (PORK AND BEEF, SALT, FLAVORINGS, LACTIC ACID STARTER CULTURE, OLEORESIN OF PAPRIKA, SODIUM NITRITE, BHA, BHT, CITRIC ACID [TO PROTECT FLAVOR]. MAY CONTAIN DEXTROSE, NATURAL FLAVORING, NATURAL SMOKE FLAVORING, SODIUM ASCORBATE [VITAMIN C], SPICES, GARLIC POWDER, SUGAR), PART SKIM MOZZARELLA CHEESE (PASTEURIZED PART SKIM MILK, CULTURES, SALT, ENZYMES), PROVOLONE CHEESE (PASTEURIZED MILK, CULTURES, SALT, ENZYMES), MARINARA SAUCE (CRUSHED TOMATOES [WATER, CONCENTRATED CRUSHED TOMATOES], TOMATO PUREE [WATER, TOMATO PASTE], DICED TOMATOES, SUGAR, SALT, SOYBEAN OIL, SPICES, FOOD CORN MODIFIED, PARMESAN CHEESE FLAVOR [PARMESAN CHEESE {MILK, CHEESE CULTURES, SALT, ENZYMES}, WATER, DISODIUM PHOSPHATE, ENZYMES], GARLIC, ONION POWDER, GRANULATED GARLIC, CITRIC ACID), GUAR GUM. TOPPING: PARMESAN & ROMANO CHEESE BLEND (PARMESAN CHEESE [MADE FROM COW'S MILK, SALT, ENZYMES], ROMANO CHEESE [MADE FROM COW'S MILK, SALT, ENZYMES], POWDERED CELLULOSE/STARCH BLEND ADDED TO PREVENT CAKING), PARSLEY." Date available: 07/14/2017 Date last updated by company: 07/14/2017
