Source: USDA Branded Food Products Database Release December 2017 Software v.3.8.6.4 2017-10-02
Report Run at: December 18, 2017 07:31 EST
"Nutrient data for: 45200370, HOMESTYLE HOAGIE MEATLOAF, UPC: 708820828971"
Food Group:  Branded Food Products Database
Common Name:

Nutrient,Unit,Data points,Std. Error,"1 SANDWICH = 196.0g",1Value per 100 g,
Proximates
"Energy",kcal,--,--,510,260
"Protein",g,--,--,19.99,10.20
"Total lipid (fat)",g,--,--,25.01,12.76
"Carbohydrate, by difference",g,--,--,55.00,28.06
"Fiber, total dietary",g,--,--,2.9,1.5
"Sugars, total",g,--,--,13.99,7.14
Minerals
"Calcium, Ca",mg,--,--,80,41
"Iron, Fe",mg,--,--,4.47,2.28
"Sodium, Na",mg,--,--,860,439
Vitamins
"Vitamin C, total ascorbic acid",mg,--,--,5.9,3.0
"Vitamin A, IU",IU,--,--,200,102
Lipids
"Fatty acids, total saturated",g,--,--,7.997,4.080
"Fatty acids, total trans",g,--,--,1.000,0.510
"Cholesterol",mg,--,--,61,31
Amino Acids
Other
Ingredients
"FULLY COOKED MEATLOAF PATTIES GLAZED WITH KETCHUP: BEEF, WATER, KETCHUP (TOMATO CONCENTRATE [WATER, TOMATO PASTE], HIGH FRUCTOSE CORN SYRUP, CORN SYRUP, DISTILLED VINEGAR, SALT, ONION POWDER, SPICE, NATURAL FLAVORS), SEASONING (CRACKERMEAL [BLEACHED WHEAT FLOUR], WHOLE EGG POWDER, DRIED ONION, NONFAT DRY MILK, SALT, SPICE, DRIED GREEN BELL PEPPER, TOMATO POWDER, DRIED GARLIC, DRIED MOLASSES, DRIED CHOPPED CELERY, LEMON JUICE POWDER, SPICE EXTRACTIVES), TEXTURED VEGETABLE PROTEIN (SOY PROTEIN CONCENTRATE, CARAMEL COLOR), DEXTROSE. SESAME SEED BUN: ENRICHED BLEACHED WHEAT FLOUR (WHEAT FLOUR, NIACIN, REDUCED IRON, THIAMINE MONONITRATE, RIBOFLAVIN, FOLIC ACID, ENZYME), WATER, SUGAR, SOYBEAN OIL, SESAME SEEDS, CONTAINS 2% OR LESS OF: YEAST (YEAST, SORBITAN MONOSTEARATE, ASCORBIC ACID), SALT, CALCIUM PROPIONATE (PRESERVATIVE), MONOGLYCERIDES WITH ASCORBIC ACID AND CITRIC ACID (ANTIOXIDANTS), CALCIUM SULFATE, ENZYMES, WHEAT STARCH, ASCORBIC ACID." Date available: 07/14/2017 Date last updated by company: 07/14/2017
