Source: USDA Branded Food Products Database Release December 2017 Software v.3.8.6.4 2017-10-02
Report Run at: December 18, 2017 07:24 EST
"Nutrient data for: 45290289, HOMESTYLE BAKED BEANS, UPC: 075450228663"
Food Group:  Branded Food Products Database
Common Name:

Nutrient,Unit,Data points,Std. Error,"3.5 ONZ = 100.0g",1Value per 100 g,
Proximates
"Energy",kcal,--,--,120,120
"Protein",g,--,--,4.00,4.00
"Total lipid (fat)",g,--,--,1.00,1.00
"Carbohydrate, by difference",g,--,--,25.00,25.00
"Fiber, total dietary",g,--,--,4.0,4.0
"Sugars, total",g,--,--,15.00,15.00
Minerals
"Calcium, Ca",mg,--,--,40,40
"Iron, Fe",mg,--,--,1.87,1.87
"Phosphorus, P",mg,--,--,78,78
"Potassium, K",mg,--,--,240,240
"Sodium, Na",mg,--,--,240,240
Vitamins
"Vitamin C, total ascorbic acid",mg,--,--,1.6,1.6
"Vitamin A, IU",IU,--,--,260,260
Lipids
"Fatty acids, total saturated",g,--,--,0.000,0.000
"Fatty acids, total monounsaturated",g,--,--,0.000,0.000
"Fatty acids, total polyunsaturated",g,--,--,0.000,0.000
"Fatty acids, total trans",g,--,--,0.000,0.000
"Cholesterol",mg,--,--,5,5
Amino Acids
Other
Ingredients
"PREPARED WHITE BEANS (NAVY BEANS, WATER, SUGAR, TOMATO PASTE, SALT, CORN SYRUP, PAPRIKA, VINEGAR, CALCIUM CHLORIDE, NATURAL FLAVOR, ONION POWDER, GARLIC POWDER), SAUCE (SEASONING [DEXTROSE, SPICES, CHILI PEPPER, GARLIC, CELERY SEED, WORCESTERSHIRE POWDER, TAMARIND, SULFITING AGENTS, MALTODEXTRIN], BROWN SUGAR, MODIFIED FOOD STARCH, MOLASSES, NATURAL SMOKE FLAVOR, CITRIC ACID, POTASSIUM SORBATE, SODIUM BENZOATE), ONIONS, SMOKED COOKED BEEF, CARAMEL COLOR." Date available: 07/14/2017 Date last updated by company: 07/14/2017
