Source: USDA Branded Food Products Database Release December 2017 Software v.3.8.6.4 2017-10-02
Report Run at: December 18, 2017 07:32 EST
"Nutrient data for: 45200605, HOMESTYLE MACARONI & CHEESE, UPC: 688267150975"
Food Group:  Branded Food Products Database
Common Name:

Nutrient,Unit,Data points,Std. Error,"1 cup = 220.0g",1Value per 100 g,
Proximates
"Energy",kcal,--,--,341,155
"Protein",g,--,--,13.99,6.36
"Total lipid (fat)",g,--,--,18.00,8.18
"Carbohydrate, by difference",g,--,--,31.00,14.09
"Fiber, total dietary",g,--,--,1.1,0.5
"Sugars, total",g,--,--,4.99,2.27
Minerals
"Calcium, Ca",mg,--,--,400,182
"Iron, Fe",mg,--,--,1.28,0.58
"Sodium, Na",mg,--,--,590,268
Vitamins
"Vitamin C, total ascorbic acid",mg,--,--,2.2,1.0
"Vitamin A, IU",IU,--,--,442,201
Lipids
"Fatty acids, total saturated",g,--,--,8.998,4.090
"Fatty acids, total trans",g,--,--,0.000,0.000
"Cholesterol",mg,--,--,51,23
Amino Acids
Other
Ingredients
"COOKED ENRICHED FUSILLI PASTA (WATER, SEMOLINA [WHEAT], NIACIN, IRON [FERROUS SULFATE], THIAMIN MONONITRATE, RIBOFLAVIN, FOLIC ACID), MILK, MONTEREY JACK CHEESE (CULTURE MILK, SALT, ENZYMES), CARAMELIZED ONIONS, CHEDDAR CHEESE (CULTURE MILK, SALT, ENZYMES, ANNATTO), WATER, RICE STARCH, NATURAL FLAVOR (MILK), SUGAR, NATURAL FLAVOR (MALTODEXTRIN), SALT, PARSLEY, CHIVES, SPICE." Date available: 07/14/2017 Date last updated by company: 07/14/2017
