Source: USDA Branded Food Products Database Release December 2017 Software v.3.8.6.4 2017-10-02
Report Run at: December 18, 2017 07:26 EST
"Nutrient data for: 45063564, HOMESTYLE CHICKEN GRAVY, UPC: 011110867643"
Food Group:  Branded Food Products Database
Common Name:

Nutrient,Unit,Data points,Std. Error,"0.25 cup = 60.0g",1Value per 100 g,
Proximates
"Energy",kcal,--,--,30,50
"Protein",g,--,--,0.00,0.00
"Total lipid (fat)",g,--,--,1.50,2.50
"Carbohydrate, by difference",g,--,--,3.00,5.00
"Fiber, total dietary",g,--,--,0.0,0.0
"Sugars, total",g,--,--,0.00,0.00
Minerals
"Calcium, Ca",mg,--,--,0,0
"Iron, Fe",mg,--,--,0.00,0.00
"Sodium, Na",mg,--,--,220,367
Vitamins
"Vitamin C, total ascorbic acid",mg,--,--,0.0,0.0
"Vitamin A, IU",IU,--,--,0,0
Lipids
"Fatty acids, total saturated",g,--,--,0.498,0.830
"Fatty acids, total trans",g,--,--,0.000,0.000
"Cholesterol",mg,--,--,5,8
Amino Acids
Other
Ingredients
"CHICKEN STOCK, MODIFIED CORN STARCH, CHICKEN FAT, CONTAINS 2% OR LESS OF: WHEAT FLOUR, SALT, DRIED WHEY, MALTODEXTRIN, ONION POWDER, YEAST EXTRACT, HYDROLYZED SOY PROTEIN, DISODIUM INOSINATE, DISODIUM GUANYLATE, SPICE, BLACK PEPPER, PAPRIKA EXTRACTIVES (COLOR), NATURAL EXTRACTIVES OF TURMERIC (COLOR), NATURAL FLAVOR, LACTIC ACID, DRIED EGG YOLK, CARAMEL COLOR, CITRIC ACID, CALCIUM LACTATE, SODIUM PHOSPHATE." Date available: 07/14/2017 Date last updated by company: 07/14/2017
