Source: USDA Branded Food Products Database Release December 2017 Software v.3.8.6.4 2017-10-02
Report Run at: December 18, 2017 07:25 EST
"Nutrient data for: 45202839, HOME-STYLE BARBECUE SAUCE, UPC: 853555002001"
Food Group:  Branded Food Products Database
Common Name:

Nutrient,Unit,Data points,Std. Error,"2.0 Tbsp = 34.0g",1Value per 100 g,
Proximates
"Energy",kcal,--,--,60,176
"Protein",g,--,--,0.00,0.00
"Total lipid (fat)",g,--,--,0.00,0.00
"Carbohydrate, by difference",g,--,--,15.00,44.12
"Fiber, total dietary",g,--,--,0.0,0.0
"Sugars, total",g,--,--,13.00,38.24
Minerals
"Calcium, Ca",mg,--,--,0,0
"Iron, Fe",mg,--,--,0.00,0.00
"Sodium, Na",mg,--,--,330,971
Vitamins
"Vitamin C, total ascorbic acid",mg,--,--,0.0,0.0
"Vitamin A, IU",IU,--,--,0,0
Lipids
"Fatty acids, total saturated",g,--,--,0.000,0.000
"Fatty acids, total trans",g,--,--,0.000,0.000
"Cholesterol",mg,--,--,0,0
Amino Acids
Other
Ingredients
"KETCHUP (TOMATO PUREE, WATER, VINEGAR, SALT, GARLIC, SPICES), SUGAR, PREPARED MUSTARD (DISTILLED VINEGAR, WATER, MUSTARD SEED, SALT, TURMERIC, SPICE, GARLIC POWDER), HOT PEPPER SAUCE (AGED CAYENNE PEPPERS, DISTILLED VINEGAR, SALT, NATURAL FLAVORINGS, XANTHAN GUM), GARLIC POWDER, SEASONED SALT (SALT, SUGAR, SPICES), (INCLUDING PAPRIKA AND TURMERIC), ONION, CORNSTARCH, GARLIC, TRICALCIUM PHOSPHATE (PREVENT CAKING), NATURAL FLAVOR, SOY LECITHIN, EXTRACTIVES OF PAPRIKA (COLOR), NATURAL SPICES." Date available: 07/14/2017 Date last updated by company: 07/14/2017
