Source: USDA Branded Food Products Database Release December 2017 Software v.3.8.6.4 2017-10-02
Report Run at: December 18, 2017 07:27 EST
"Nutrient data for: 45253605, HOMESTYLE CHICKEN THIGH FILLETS, UPC: 023700040060"
Food Group:  Branded Food Products Database
Common Name:

Nutrient,Unit,Data points,Std. Error,"4.0 ONZ = 112.0g",1Value per 100 g,
Proximates
"Energy",kcal,--,--,250,223
"Protein",g,--,--,13.00,11.61
"Total lipid (fat)",g,--,--,15.00,13.39
"Carbohydrate, by difference",g,--,--,16.00,14.29
"Fiber, total dietary",g,--,--,1.0,0.9
"Sugars, total",g,--,--,4.00,3.57
Minerals
"Calcium, Ca",mg,--,--,0,0
"Iron, Fe",mg,--,--,0.27,0.24
"Sodium, Na",mg,--,--,450,402
Vitamins
"Vitamin C, total ascorbic acid",mg,--,--,0.0,0.0
"Vitamin A, IU",IU,--,--,0,0
Lipids
"Fatty acids, total saturated",g,--,--,2.498,2.230
"Fatty acids, total monounsaturated",g,--,--,3.998,3.570
"Fatty acids, total polyunsaturated",g,--,--,7.000,6.250
"Fatty acids, total trans",g,--,--,0.000,0.000
"Cholesterol",mg,--,--,45,40
Amino Acids
Other
Ingredients
"BONELESS, SKINLESS CHICKEN THIGHS, WHEAT FLOUR, WATER, CHICKEN BROTH, CONTAINS 2% OR LESS OF THE FOLLOWING: CELERY SEED, DEXTROSE, EXTRACTIVES OF PAPRIKA AND ANNATTO, FLAVORINGS, GARLIC POWDER, MALTODEXTRIN, MODIFIED FOOD STARCH, NATURAL FLAVORS, SALT, SODIUM PHOSPHATES, SPICE, WHEAT GLUTEN, XANTHAN GUM. BREADING SET IN VEGETABLE OIL." Date available: 07/21/2017 Date last updated by company: 07/21/2017
