Source: USDA Branded Food Products Database Release December 2017 Software v.3.8.6.4 2017-10-02
Report Run at: December 18, 2017 07:27 EST
"Nutrient data for: 45203161, HOME-STYLE CHICKEN SALAD, UPC: 850867002002"
Food Group:  Branded Food Products Database
Common Name:

Nutrient,Unit,Data points,Std. Error,"4.0 ONZ = 113.0g",1Value per 100 g,
Proximates
"Energy",kcal,--,--,250,221
"Protein",g,--,--,17.00,15.04
"Total lipid (fat)",g,--,--,16.00,14.16
"Carbohydrate, by difference",g,--,--,8.00,7.08
"Fiber, total dietary",g,--,--,1.0,0.9
"Sugars, total",g,--,--,4.00,3.54
Minerals
"Calcium, Ca",mg,--,--,20,18
"Iron, Fe",mg,--,--,0.89,0.79
"Sodium, Na",mg,--,--,420,372
Vitamins
"Vitamin C, total ascorbic acid",mg,--,--,1.5,1.3
"Vitamin A, IU",IU,--,--,247,219
Lipids
"Fatty acids, total saturated",g,--,--,2.497,2.210
"Fatty acids, total trans",g,--,--,0.000,0.000
"Cholesterol",mg,--,--,50,44
Amino Acids
Other
Ingredients
"SKINLESS CHICKEN BREAST, SWEET PICKLE RELISH (CUCUMBERS, CORN SYRUP, WATER, HIGH FRUCTOSE CORN SYRUP, VINEGAR, SALT, XANTHAN GUM, 0.1% SODIUM BENZOATE [PRESERVATIVE]. CALCIUM CHLORIDE, ALUM, NATURAL FLAVORS, POLYSORBATE 80, YELLOW 5 AND MALTOL), REAL MAYONNAISE (SOYBEAN OIL, CORN SYRUP, WATER, EGG YOLKS, DISTILLED AND CIDER VINEGAR, SALT, SPICE, CALCIUM DISODIUM EDTA ADDED TO PROTECT FLAVOR), ONION, CELERY, SALT, PEPPER." Date available: 07/14/2017 Date last updated by company: 07/14/2017
