Source: USDA Branded Food Products Database Release December 2017 Software v.3.8.6.4 2017-10-02
Report Run at: December 18, 2017 07:25 EST
"Nutrient data for: 45264886, HOMESTYLE BAR-B-Q SAUCE, UPC: 028239000189"
Food Group:  Branded Food Products Database
Common Name:

Nutrient,Unit,Data points,Std. Error,"2.0 Tbsp = 36.0g",1Value per 100 g,
Proximates
"Energy",kcal,--,--,60,167
"Protein",g,--,--,0.00,0.00
"Total lipid (fat)",g,--,--,0.00,0.00
"Carbohydrate, by difference",g,--,--,14.00,38.89
"Fiber, total dietary",g,--,--,0.0,0.0
"Sugars, total",g,--,--,13.00,36.11
Minerals
"Calcium, Ca",mg,--,--,0,0
"Iron, Fe",mg,--,--,0.61,1.69
"Sodium, Na",mg,--,--,288,800
Vitamins
"Vitamin C, total ascorbic acid",mg,--,--,2.0,5.6
"Vitamin A, IU",IU,--,--,169,469
Lipids
"Fatty acids, total saturated",g,--,--,0.000,0.000
"Fatty acids, total trans",g,--,--,0.000,0.000
"Cholesterol",mg,--,--,0,0
Amino Acids
Other
Ingredients
"TOMATO KETCHUP (RED RIPE TOMATOES, DISTILLED VINEGAR, SUGAR, SALT, ONION POWDER, SPICE, NATURAL FLAVORING), SUGAR, WATER, DISTILLED VINEGAR, SPICES (CONTAINS MUSTARD FLOUR), LIQUID HICKORY SMOKE, SALT, MOLASSES, GARLIC POWDER." Date available: 07/14/2017 Date last updated by company: 07/14/2017
