Source: USDA Branded Food Products Database Release December 2017 Software v.3.8.6.4 2017-10-02
Report Run at: December 18, 2017 07:37 EST
"Nutrient data for: 45267330, HOME STYLE QUALITY, UPC: 080602026325"
Food Group:  Branded Food Products Database
Common Name:

Nutrient,Unit,Data points,Std. Error,"0.5 cup = 113.0g",1Value per 100 g,
Proximates
"Energy",kcal,--,--,60,53
"Protein",g,--,--,0.99,0.88
"Total lipid (fat)",g,--,--,3.50,3.10
"Carbohydrate, by difference",g,--,--,4.99,4.42
"Fiber, total dietary",g,--,--,2.0,1.8
"Sugars, total",g,--,--,4.00,3.54
Minerals
"Calcium, Ca",mg,--,--,20,18
"Iron, Fe",mg,--,--,0.00,0.00
"Sodium, Na",mg,--,--,150,133
Vitamins
"Vitamin C, total ascorbic acid",mg,--,--,2.5,2.2
"Vitamin A, IU",IU,--,--,211,187
Lipids
"Fatty acids, total saturated",g,--,--,0.000,0.000
"Fatty acids, total trans",g,--,--,0.000,0.000
"Cholesterol",mg,--,--,0,0
Amino Acids
Other
Ingredients
"SCLAFANI WHOLE TOMATOES, SCLAFANI EXTRA VIRGIN OLIVE OIL, FRESH BASIL, FRESH GARLIC, SALT." Date available: 07/14/2017 Date last updated by company: 07/14/2017
