Source: USDA Branded Food Products Database Release December 2017 Software v.3.8.6.4 2017-10-02
Report Run at: December 18, 2017 07:23 EST
"Nutrient data for: 45250159, HOME MAKER PREMIUM, BLEND OF JUICES FROM CONCENTRATE, PASSION FRUIT, UPC: 732463470495"
Food Group:  Branded Food Products Database
Common Name:

Nutrient,Unit,Data points,Std. Error,"8.0 OZA = 240.0g",1Value per 100 g,
Proximates
"Energy",kcal,--,--,139,58
"Protein",g,--,--,0.00,0.00
"Total lipid (fat)",g,--,--,0.00,0.00
"Carbohydrate, by difference",g,--,--,36.00,15.00
"Fiber, total dietary",g,--,--,0.0,0.0
"Sugars, total",g,--,--,34.99,14.58
Minerals
"Calcium, Ca",mg,--,--,0,0
"Iron, Fe",mg,--,--,0.00,0.00
"Sodium, Na",mg,--,--,19,8
Vitamins
"Vitamin C, total ascorbic acid",mg,--,--,60.0,25.0
"Vitamin A, IU",IU,--,--,499,208
Lipids
"Fatty acids, total saturated",g,--,--,0.000,0.000
"Fatty acids, total trans",g,--,--,0.000,0.000
"Cholesterol",mg,--,--,0,0
Amino Acids
Other
Ingredients
"FILTERED WATER, WHITE GRAPE JUICE FROM CONCENTRATE (FILTERED WATER, WHITE GRAPE JUICE CONCENTRATE), HIGH FRUCTOSE CORN SYRUP, APPLE JUICE FROM CONCENTRATE (FILTERED WATER, APPLE JUICE CONCENTRATE), PASSION FRUIT JUICE FROM CONCENTRATE (FILTERED WATER, PASSION FRUIT JUICE), SUGAR, CITRIC ACID, ASCORBIC ACID (VITAMIN C), FRUIT PECTIN, NATURAL FLAVORS, BETA CAROTENE." Date available: 08/18/2017 Date last updated by company: 08/18/2017
