Source: USDA Branded Food Products Database Release December 2017 Software v.3.8.6.4 2017-10-02
Report Run at: December 18, 2017 07:31 EST
"Nutrient data for: 45239732, HOME STYLE GRAVY, UPC: 855019004118"
Food Group:  Branded Food Products Database
Common Name:

Nutrient,Unit,Data points,Std. Error,"0.5 cup = 120.0g",1Value per 100 g,
Proximates
"Energy",kcal,--,--,46,38
"Protein",g,--,--,1.00,0.83
"Total lipid (fat)",g,--,--,2.00,1.67
"Carbohydrate, by difference",g,--,--,6.00,5.00
"Fiber, total dietary",g,--,--,2.0,1.7
"Sugars, total",g,--,--,4.00,3.33
Minerals
"Calcium, Ca",mg,--,--,20,17
"Iron, Fe",mg,--,--,0.73,0.61
"Sodium, Na",mg,--,--,320,267
Vitamins
"Vitamin C, total ascorbic acid",mg,--,--,3.0,2.5
"Vitamin A, IU",IU,--,--,253,211
Lipids
"Fatty acids, total saturated",g,--,--,0.000,0.000
"Fatty acids, total trans",g,--,--,0.000,0.000
"Cholesterol",mg,--,--,0,0
Amino Acids
Other
Ingredients
"IMPORTED ITALIAN TOMATOES, ONIONS, CARROTS, ITALIAN OLIVE OIL, CELERY, SALT, PEPPER, FRESH BASIL, FRESH PARSLEY AND BAY LEAF." Date available: 07/14/2017 Date last updated by company: 07/14/2017
