Source: USDA Branded Food Products Database Release December 2017 Software v.3.8.6.4 2017-10-02
Report Run at: December 18, 2017 07:31 EST
"Nutrient data for: 45199566, HOMESTYLE HOT DOG BUNS, UPC: 611625102286"
Food Group:  Branded Food Products Database
Common Name:

Nutrient,Unit,Data points,Std. Error,"1 BUN = 37.8g",1Value per 100 g,
Proximates
"Energy",kcal,--,--,120,317
"Protein",g,--,--,4.00,10.58
"Total lipid (fat)",g,--,--,2.00,5.29
"Carbohydrate, by difference",g,--,--,22.00,58.20
"Fiber, total dietary",g,--,--,1.0,2.6
"Sugars, total",g,--,--,3.00,7.94
Minerals
"Potassium, K",mg,--,--,0,0
"Sodium, Na",mg,--,--,180,476
Vitamins
Lipids
"Fatty acids, total saturated",g,--,--,0.000,0.000
"Fatty acids, total trans",g,--,--,0.000,0.000
"Cholesterol",mg,--,--,0,0
Amino Acids
Other
Ingredients
"WHEAT FLOUR, NIACIN, RIBOFLAVIN, WATER, CORN SYRUP, SOYBEAN OIL, YEAST, SALT, DOUGH CONDITIONERS, CALCIUM PROPIONATE (PRESERVATIVE), BARLEY MALT, ASCORBIC ACID, AZODICARBONAMIDE, CALCIUM IODATE, CALCIUM PEROXIDE, ENZYMES." Date available: 10/19/2017 Date last updated by company: 10/19/2017
