Source: USDA Branded Food Products Database Release December 2017 Software v.3.8.6.4 2017-10-02
Report Run at: December 18, 2017 07:31 EST
"Nutrient data for: 45290424, HOMESTYLE ICE CREAM, UPC: 021140029348"
Food Group:  Branded Food Products Database
Common Name:

Nutrient,Unit,Data points,Std. Error,"0.5 cup = 70.0g",1Value per 100 g,
Proximates
"Energy",kcal,--,--,170,243
"Protein",g,--,--,3.00,4.29
"Total lipid (fat)",g,--,--,11.00,15.71
"Carbohydrate, by difference",g,--,--,16.00,22.86
"Fiber, total dietary",g,--,--,0.0,0.0
"Sugars, total",g,--,--,15.00,21.43
Minerals
"Calcium, Ca",mg,--,--,80,114
"Iron, Fe",mg,--,--,0.00,0.00
"Sodium, Na",mg,--,--,80,114
Vitamins
"Vitamin C, total ascorbic acid",mg,--,--,0.0,0.0
"Vitamin A, IU",IU,--,--,337,482
Lipids
"Fatty acids, total saturated",g,--,--,4.998,7.140
"Fatty acids, total trans",g,--,--,0.000,0.000
"Cholesterol",mg,--,--,25,36
Amino Acids
Other
Ingredients
"MILK, CREAM, LIQUID SUGAR, SKIM MILK, CORN SYRUP, PECANS [PECANS, COTTONSEED OIL, BUTTER (CREAM, SALT), SALT], BUTTER PECAN FLAVOR (NATURAL FLAVOR, WATER, SALT, SOY SAUCE), EGG YOLKS, MONO- AND DIGLYCERIDES, GUAR GUM, CELLULOSE GUM, CARRAGEENAN, DEXTROSE, ANNATTO (COLOR)." Date available: 07/14/2017 Date last updated by company: 07/14/2017
