Source: USDA Branded Food Products Database Release December 2017 Software v.3.8.6.4 2017-10-02
Report Run at: December 18, 2017 07:35 EST
"Nutrient data for: 45193361, HOMESTYLE PASTA SAUCE, UPC: 011110858061"
Food Group:  Branded Food Products Database
Common Name:

Nutrient,Unit,Data points,Std. Error,"0.5 cup = 128.0g",1Value per 100 g,
Proximates
"Energy",kcal,--,--,100,78
"Protein",g,--,--,3.00,2.34
"Total lipid (fat)",g,--,--,2.50,1.95
"Carbohydrate, by difference",g,--,--,15.00,11.72
"Fiber, total dietary",g,--,--,2.9,2.3
"Sugars, total",g,--,--,10.00,7.81
Minerals
"Calcium, Ca",mg,--,--,40,31
"Iron, Fe",mg,--,--,1.14,0.89
"Sodium, Na",mg,--,--,550,430
Vitamins
"Vitamin C, total ascorbic acid",mg,--,--,2.6,2.0
"Vitamin A, IU",IU,--,--,792,619
Lipids
"Fatty acids, total saturated",g,--,--,0.499,0.390
"Fatty acids, total trans",g,--,--,0.000,0.000
"Cholesterol",mg,--,--,0,0
Amino Acids
Other
Ingredients
"TOMATO PUREE (WATER, TOMATO PASTE), TOMATOES, COOKED BEEF, SUGAR, SOYBEAN OIL, SALT, DRIED ONIONS, DRIED GARLIC, SPICES, LEMON JUICE CONCENTRATE, ROMANO CHEESE (CULTURED PART-SKIM MILK, SALT AND ENZYMES) AND BASIL." Date available: 07/14/2017 Date last updated by company: 07/14/2017
