Source: USDA Branded Food Products Database Release December 2017 Software v.3.8.6.4 2017-10-02
Report Run at: December 18, 2017 08:19 EST
"Nutrient data for: 45100385, HONEY WHEAT BREAD, UPC: 024126014352"
Food Group:  Branded Food Products Database
Common Name:

Nutrient,Unit,Data points,Std. Error,"1 SLICE = 26.0g",1Value per 100 g,
Proximates
"Energy",kcal,--,--,70,269
"Protein",g,--,--,2.00,7.69
"Total lipid (fat)",g,--,--,1.00,3.85
"Carbohydrate, by difference",g,--,--,13.00,50.00
"Fiber, total dietary",g,--,--,1.0,3.8
"Sugars, total",g,--,--,2.00,7.69
Minerals
"Calcium, Ca",mg,--,--,20,77
"Iron, Fe",mg,--,--,1.38,5.32
"Sodium, Na",mg,--,--,120,462
Vitamins
"Vitamin C, total ascorbic acid",mg,--,--,0.0,0.0
"Thiamin",mg,--,--,0.260,1.000
"Riboflavin",mg,--,--,0.196,0.755
"Niacin",mg,--,--,2.308,8.877
"Vitamin A, IU",IU,--,--,0,0
Lipids
"Fatty acids, total saturated",g,--,--,0.000,0.000
"Fatty acids, total monounsaturated",g,--,--,0.000,0.000
"Fatty acids, total polyunsaturated",g,--,--,0.000,0.000
"Fatty acids, total trans",g,--,--,0.000,0.000
"Cholesterol",mg,--,--,0,0
Amino Acids
Other
Ingredients
"UNBLEACHED ENRICHED WHEAT FLOUR [FLOUR, BARLEY MALT, NIACIN (VITAMIN B3), IRON, THIAMIN MONONITRATE (VITAMIN B1), RIBOFLAVIN (VITAMIN B2), FOLIC ACID (VITAMIN B9)], WATER, YEAST, SUGAR, WHOLE WHEAT FLOUR, HONEY, WHEAT GLUTEN, WHEAT BRAN, CONTAINS 2% OR LESS OF THE FOLLOWING: SOYBEAN OIL, CULTURED WHEAT FLOUR, VINEGAR, SALT, DOUGH CONDITIONERS (ETHOXYLATED MONO- AND DIGLYCERIDES, MONOGLYCERIDES, SODIUM STEAROYL LACTYLATE, ASCORBIC ACID), YEAST NUTRIENTS (MONOCALCIUM PHOSPHATE, AMMONIUM SULFATE, CALCIUM SULFATE), WHEAT STARCH, SOY LECITHIN." Date available: 07/14/2017 Date last updated by company: 07/14/2017
