Source: USDA Branded Food Products Database Release December 2017 Software v.3.8.6.4 2017-10-02
Report Run at: December 18, 2017 08:00 EST
"Nutrient data for: 45104500, HONEY MUSTARD DRESSING & MARINADE MADE WITH AVOCADO OIL, UPC: 863699000139"
Food Group:  Branded Food Products Database
Common Name:

Nutrient,Unit,Data points,Std. Error,"2.0 Tbsp = 30.0g",1Value per 100 g,
Proximates
"Energy",kcal,--,--,110,367
"Total lipid (fat)",g,--,--,11.00,36.67
"Carbohydrate, by difference",g,--,--,3.00,10.00
"Sugars, total",g,--,--,2.00,6.67
Minerals
"Sodium, Na",mg,--,--,180,600
Vitamins
Lipids
"Fatty acids, total saturated",g,--,--,0.999,3.330
"Cholesterol",mg,--,--,0,0
Amino Acids
Other
Ingredients
"AVOCADO OIL, WATER, ORGANIC APPLE CIDER VINEGAR, ORGANIC STONE GROUND MUSTARD (WATER, ORGANIC MUSTARD SEEDS, ORGANIC VINEGAR, SEA SALT, ORGANIC SPICES), ORGANIC HONEY, ORGANIC LEMON JUICE CONCENTRATE, SEA SALT" Date available: 09/23/2017 Date last updated by company: 09/23/2017
