Source: USDA Branded Food Products Database Release December 2017 Software v.3.8.6.4 2017-10-02
Report Run at: December 18, 2017 07:50 EST
"Nutrient data for: 45102266, HONEY & CRUNCHY OAT, UPC: 071314056175"
Food Group:  Branded Food Products Database
Common Name:

Nutrient,Unit,Data points,Std. Error,"1 SLICE = 45.0g",1Value per 100 g,
Proximates
"Energy",kcal,--,--,110,244
"Protein",g,--,--,5.00,11.11
"Total lipid (fat)",g,--,--,2.00,4.44
"Carbohydrate, by difference",g,--,--,21.00,46.67
"Fiber, total dietary",g,--,--,6.0,13.3
"Sugars, total",g,--,--,2.00,4.44
Minerals
"Calcium, Ca",mg,--,--,20,44
"Iron, Fe",mg,--,--,1.20,2.67
"Potassium, K",mg,--,--,90,200
"Sodium, Na",mg,--,--,125,278
Vitamins
"Vitamin C, total ascorbic acid",mg,--,--,0.0,0.0
"Thiamin",mg,--,--,0.000,0.000
"Riboflavin",mg,--,--,0.189,0.420
"Niacin",mg,--,--,4.444,9.876
"Vitamin A, IU",IU,--,--,0,0
Lipids
"Fatty acids, total saturated",g,--,--,0.000,0.000
"Fatty acids, total monounsaturated",g,--,--,0.000,0.000
"Fatty acids, total polyunsaturated",g,--,--,0.999,2.220
"Fatty acids, total trans",g,--,--,0.000,0.000
"Cholesterol",mg,--,--,0,0
Amino Acids
Other
Ingredients
"WATER, WHOLE GRAIN WHEAT FLOUR, ENRICHED UNBLEACHED FLOUR [WHEAT FLOUR, MALTED BARLEY FLOUR, REDUCED IRON, THIAMINE MONONITRATE (VITAMIN B1), RIBOFLAVIN (VITAMIN B2), NIACIN (VITAMIN B3) FOLIC ACID], ROLLED OATS, WHEAT GLUTEN, OAT FIBER, YEAST, SUNFLOWER SEEDS, NON-GMO YELLOW CORN FLAKES, RESISTANT CORN STARCH, BROWN SUGAR, HONEY, WHEAT DEXTRIN, NON-GMO SOYBEAN OIL, CANE SUGAR, CULTURED WHEAT FLOUR, MOLASSES, SEA SALT, RAISIN JUICE, NATURAL FLAVOR, SODIUM GLUCONATE, POTASSIUM CHLORIDE, CALCIUM SULFATE, VINEGAR, CITRIC ACID, ASCORBIC ACID, SOY LECITHIN; TOPPED WITH ROLLED OATS." Date available: 07/14/2017 Date last updated by company: 07/14/2017
