Source: USDA Branded Food Products Database Release December 2017 Software v.3.8.6.4 2017-10-02
Report Run at: December 18, 2017 07:56 EST
"Nutrient data for: 45112059, HONEY 7 GRAIN, UPC: 078700802811"
Food Group:  Branded Food Products Database
Common Name:

Nutrient,Unit,Data points,Std. Error,"2.0 SLICES = 57.0g",1Value per 100 g,
Proximates
"Energy",kcal,--,--,160,281
"Protein",g,--,--,6.00,10.53
"Total lipid (fat)",g,--,--,2.50,4.39
"Carbohydrate, by difference",g,--,--,28.00,49.12
"Fiber, total dietary",g,--,--,2.0,3.5
"Sugars, total",g,--,--,5.00,8.77
Minerals
"Calcium, Ca",mg,--,--,40,70
"Iron, Fe",mg,--,--,1.58,2.77
"Sodium, Na",mg,--,--,260,456
Vitamins
"Vitamin C, total ascorbic acid",mg,--,--,0.0,0.0
"Thiamin",mg,--,--,0.000,0.000
"Riboflavin",mg,--,--,0.119,0.209
"Niacin",mg,--,--,1.404,2.463
"Vitamin A, IU",IU,--,--,0,0
Lipids
"Fatty acids, total saturated",g,--,--,0.000,0.000
"Fatty acids, total monounsaturated",g,--,--,0.502,0.880
"Fatty acids, total polyunsaturated",g,--,--,1.499,2.630
"Fatty acids, total trans",g,--,--,0.000,0.000
"Cholesterol",mg,--,--,0,0
Amino Acids
Other
Ingredients
"ENRICHED WHEAT FLOUR [FLOUR, MALTED BARLEY FLOUR, REDUCED IRON, NIACIN, THIAMIN MONONITRATE (VITAMIN B1), RIBOFLAVIN (VITAMIN B2), FOLIC ACID], WATER, WHOLE WHEAT FLOUR, WHEAT GLUTEN, HONEY, SUNFLOWER SEEDS, SUGAR, YEAST, BULGUR WHEAT, SOYBEAN OIL, WHEAT BRAN, SALT, CRUSHED WHEAT, MOLASSES, RYE FLAKES, BARLEY, OAT FLAKES, TRITICALE, MILLET, CORN GRITS, CALCIUM PROPIONATE (PRESERVATIVE), FLAXSEED, DATEM, MONOGLYCERIDES, BUCKWHEAT, RICE FLOUR, CALCIUM SULFATE, GRAIN VINEGAR, SOY LECITHIN, CITRIC ACID, POTASSIUM IODATE." Date available: 07/14/2017 Date last updated by company: 07/14/2017
