Source: USDA Branded Food Products Database Release December 2017 Software v.3.8.6.4 2017-10-02
Report Run at: December 18, 2017 07:46 EST
"Nutrient data for: 45324136, HONEY BUNS, UPC: 078742147420"
Food Group:  Branded Food Products Database
Common Name:

Nutrient,Unit,Data points,Std. Error,"1 BUN = 50.0g",1Value per 100 g,
Proximates
"Energy",kcal,--,--,210,420
"Protein",g,--,--,3.00,6.00
"Total lipid (fat)",g,--,--,11.00,22.00
"Carbohydrate, by difference",g,--,--,25.00,50.00
"Fiber, total dietary",g,--,--,1.0,2.0
"Sugars, total",g,--,--,10.00,20.00
Minerals
"Calcium, Ca",mg,--,--,60,120
"Iron, Fe",mg,--,--,3.60,7.20
"Potassium, K",mg,--,--,45,90
"Sodium, Na",mg,--,--,160,320
Vitamins
"Vitamin C, total ascorbic acid",mg,--,--,0.0,0.0
"Vitamin A, IU",IU,--,--,0,0
Lipids
"Fatty acids, total saturated",g,--,--,6.000,12.000
"Fatty acids, total monounsaturated",g,--,--,3.500,7.000
"Fatty acids, total polyunsaturated",g,--,--,1.000,2.000
"Fatty acids, total trans",g,--,--,0.000,0.000
"Cholesterol",mg,--,--,0,0
Amino Acids
Other
Ingredients
"ENRICHED FLOUR (WHEAT FLOUR, MALTED BARLEY FLOUR, NIACIN, REDUCED IRON, THIAMINE MONONITRATE, RIBOFLAVIN, FOLIC ACID), SUGAR, WATER, VEGETABLE OIL (SOYBEAN AND/OR PALM), CORN SYRUP, YEAST, CONTAINS 2% OR LESS OF EACH OF THE FOLLOWING: CINNAMON, DEXTROSE, CORNSTARCH, SALT, DISTILLED MONOGLYCERIDES, SOY FLOUR, MONOCALCIUM PHOSPHATE, CALCIUM CARBONATE, LEAVENING (SODIUM ACID PYROPHOSPHATE AND SODIUM BICARBONATE), AGAR, SOY LECITHIN, DATEM, NATURAL AND ARTIFICIAL FLAVOR, TITANIUM DIOXIDE (COLOR), MONOGLYCERIDES, ENZYMES, WHEAT STARCH, COLORED WITH TURMERIC AND ANNATTO, ASCORBIC ACID, DRY HONEY, CALCIUM STEARATE, HYDROXYLATED SOY LECITHIN, PRESERVED WITH CALCIUM PROPIONATE, SODIUM PROPIONATE, POTASSIUM SORBATE, NATAMYCIN." Date available: 08/11/2017 Date last updated by company: 08/11/2017
