Source: USDA Branded Food Products Database Release December 2017 Software v.3.8.6.4 2017-10-02
Report Run at: December 18, 2017 08:02 EST
"Nutrient data for: 45284139, HONEY MUSTARD WHITE CHICKEN, UPC: 705432015034"
Food Group:  Branded Food Products Database
Common Name:

Nutrient,Unit,Data points,Std. Error,"1 WRAP = 284.0g",1Value per 100 g,
Proximates
"Energy",kcal,--,--,929,327
"Protein",g,--,--,89.01,31.34
"Total lipid (fat)",g,--,--,36.01,12.68
"Carbohydrate, by difference",g,--,--,61.00,21.48
"Fiber, total dietary",g,--,--,3.1,1.1
"Sugars, total",g,--,--,4.00,1.41
Minerals
"Calcium, Ca",mg,--,--,449,158
"Iron, Fe",mg,--,--,4.00,1.41
"Sodium, Na",mg,--,--,2959,1042
Vitamins
"Vitamin C, total ascorbic acid",mg,--,--,8.8,3.1
"Vitamin A, IU",IU,--,--,1480,521
Lipids
"Fatty acids, total saturated",g,--,--,9.997,3.520
"Fatty acids, total trans",g,--,--,0.000,0.000
"Cholesterol",mg,--,--,230,81
Amino Acids
Other
Ingredients
"HONEY MUSTARD CHICKEN BREAST: CHICKEN BREAST STRIPS WITH RIB MEAT, WATER, ISOLATED SOY PROTEIN, RICE STARCH, SOYBEAN OIL, SALT, SODIUM PHOSPHATE, FLAVORINGS (CONTAINS TORULA YEAST), LEMON JUICE CONCENTRATE, CARAMEL COLOR, HONEY MUSTARD DRESSING (SOYBEAN OIL, STONE MILLED PREPARED MUSTARD (WATER, VINEGAR, MUSTARD SEED, SALT, TURMERIC), VINEGAR, SUGAR, WATER, EGG YOLK, HONEY, CONTAINS LESS THAN 2% OF: SALT, XANTHAN GUM, SPICES, EXTRACTIVES OF PAPRIKA AND TURMERIC (FOR COLOR)), SPINACH WRAP ENRICHED WHEAT FLOUR (WHEAT FLOUR, MALTED BARLEY FLOUR, NIACIN, IRON, THIAMIN MONONITRATE, RIBOFLAVIN, FOLIC ACID), WATER, CANOLA OIL, CONTAINS 2% OR LESS OF FOLLOWING: SALT, DOUGH CONDITIONERS (MONO & DIGLYCERIDES, SODIUM METABISULFITE), LEAVENING (SODIUM BICARBONATE, SODIUM ALUMINUM PHOSPHATE, SODIUM ALUMINUM SULFATE, MONOCALCIUM PHOSPHATE, FUMARIC ACID), CALCIUM PROPIONATE AND POTASSIUM SORBATE (PRESERVATIVES), CALCIUM SULFATE, CORN STARCH, SOYBEAN OIL, DEHYDRATED SPINACH, GUAR GUM, CARBOXYMETHYLCELLULOSE, ACACIA GUM, CORN SUGAR, ARTIFICIAL COLOR (FD&C YELLOW #5, BLUE #1), SWISS CHEESE (CULTURED MILK, SALT, ENZYMES), WATER, CREAM, SODIUM PHOSPHATE, SALT, LACTIC ACID, SORBIC ACID (PRESERVATIVE), COLESLAW FRESH CABBAGE-SHREDDED, MAYONNAISE (SOYBEAN OIL, WATER, CORN SYRUP, EGG YOLKS, DISTILLED VINEGAR, SALT, MUSTARD SEED, CALCIUM DISODIUM EDTA (TO PROTECT FLAVOR), SUGAR, FRESH CARROT STRIPS, WHITE DISTILLED VINEGAR, CELERY SEED, SALT (SALT, DEXTROSE POTASSIUM IODIDE, SODIUM BICARBONATE AND YELLOW PRUSSIATE OF SODA), BLACK PEPPER, LETTUCE." Date available: 07/14/2017 Date last updated by company: 07/14/2017
