Source: USDA Branded Food Products Database Release December 2017 Software v.3.8.6.4 2017-10-02
Report Run at: December 18, 2017 08:15 EST
"Nutrient data for: 45322718, HONEY TERIYAKI MARINADE., UPC: 041497118168"
Food Group:  Branded Food Products Database
Common Name:

Nutrient,Unit,Data points,Std. Error,"1 Tbsp = 15.0g",1Value per 100 g,
Proximates
"Energy",kcal,--,--,40,267
"Protein",g,--,--,0.00,0.00
"Total lipid (fat)",g,--,--,0.00,0.00
"Carbohydrate, by difference",g,--,--,9.00,60.00
"Fiber, total dietary",g,--,--,0.0,0.0
"Sugars, total",g,--,--,8.00,53.33
Minerals
"Calcium, Ca",mg,--,--,0,0
"Iron, Fe",mg,--,--,0.00,0.00
"Potassium, K",mg,--,--,15,100
"Sodium, Na",mg,--,--,370,2467
Vitamins
"Vitamin C, total ascorbic acid",mg,--,--,0.0,0.0
"Vitamin A, IU",IU,--,--,0,0
Lipids
"Fatty acids, total saturated",g,--,--,0.000,0.000
"Fatty acids, total trans",g,--,--,0.000,0.000
"Cholesterol",mg,--,--,0,0
Amino Acids
Other
Ingredients
"HIGH FRUCTOSE CORN SYRUP, WATER, SOY SAUCE (WATER, SOYBEANS, WHEAT, SALT, SODIUM BENZOATE AS A PRESERVATIVE), DISTILLED VINEGAR, MOLASSES, SALT, RICE WINE (CONTAINS SULFITES), HONEY, CONTAINS LESS THAN 2% OF SPICES, NATURAL FLAVOR, DRIED GARLIC, SESAME SEEDS, SESAME OIL, SODIUM BENZOATE (A PRESERVATIVE), XANTHAN GUM, HYDROLYZED SOY PROTEIN, MODIFIED FOOD STARCH, CARAMEL COLOR." Date available: 08/08/2017 Date last updated by company: 08/08/2017
