Source: USDA Branded Food Products Database Release December 2017 Software v.3.8.6.4 2017-10-02
Report Run at: December 18, 2017 08:21 EST
"Nutrient data for: 45212002, HONEY WITH COMB, UPC: 648114220039"
Food Group:  Branded Food Products Database
Common Name:

Nutrient,Unit,Data points,Std. Error,"1 Tbsp = 21.0g",1Value per 100 g,
Proximates
"Energy",kcal,--,--,63,300
"Protein",g,--,--,0.00,0.00
"Total lipid (fat)",g,--,--,0.00,0.00
"Carbohydrate, by difference",g,--,--,17.00,80.95
"Fiber, total dietary",g,--,--,0.0,0.0
"Sugars, total",g,--,--,17.00,80.95
Minerals
"Calcium, Ca",mg,--,--,68,322
"Iron, Fe",mg,--,--,1.82,8.69
"Sodium, Na",mg,--,--,1,5
Vitamins
"Vitamin C, total ascorbic acid",mg,--,--,1.2,5.7
"Vitamin A, IU",IU,--,--,845,4026
Lipids
"Fatty acids, total saturated",g,--,--,0.000,0.000
"Fatty acids, total trans",g,--,--,0.000,0.000
"Cholesterol",mg,--,--,0,0
Amino Acids
Other
Ingredients
"100% PURE HONEY WITH COMB, NO ADDITIVES." Date available: 10/13/2017 Date last updated by company: 10/13/2017
