Source: USDA Branded Food Products Database Release December 2017 Software v.3.8.6.4 2017-10-02
Report Run at: December 18, 2017 07:55 EST
"Nutrient data for: 45319343, HONEY GRAHAMS, UPC: 093709640011"
Food Group:  Branded Food Products Database
Common Name:

Nutrient,Unit,Data points,Std. Error,"10.0 PIECES = 29.0g",1Value per 100 g,
Proximates
"Energy",kcal,--,--,140,483
"Protein",g,--,--,1.00,3.45
"Total lipid (fat)",g,--,--,6.00,20.69
"Carbohydrate, by difference",g,--,--,21.00,72.41
"Fiber, total dietary",g,--,--,1.0,3.4
"Sugars, total",g,--,--,7.00,24.14
Minerals
"Calcium, Ca",mg,--,--,20,69
"Iron, Fe",mg,--,--,0.62,2.14
"Sodium, Na",mg,--,--,100,345
Vitamins
"Vitamin C, total ascorbic acid",mg,--,--,0.0,0.0
"Vitamin A, IU",IU,--,--,173,595
Lipids
"Fatty acids, total saturated",g,--,--,3.500,12.070
"Fatty acids, total trans",g,--,--,0.000,0.000
"Cholesterol",mg,--,--,15,52
Amino Acids
Other
Ingredients
"RICE FLOUR BASE (BROWN RICE FLOUR, WHITE RICE FLOUR, TAPIOCA STARCH, SWEET RICE FLOUR, XANTHAN GUM), ORGANIC NON-GMO BUTTER, BROWN SUGAR, SORGHUM FLOUR, GLUTEN-FREE OAT BRAN, MOLASSES, ORGANIC NON-GMO HONEY, GLUTEN-FREE NATURAL FLAVORS, GRAINLESS & ALUMINUM-FREE BAKING POWDER (SODIUM ACID PYROPHOSPHATE, POTATO STARCH, SODIUM BICARBONATE), BAKING SODA, CINNAMON, SEA SALT." Date available: 07/14/2017 Date last updated by company: 07/14/2017
