Source: USDA Branded Food Products Database Release December 2017 Software v.3.8.6.4 2017-10-02
Report Run at: December 18, 2017 08:13 EST
"Nutrient data for: 45129209, Honeysuckle White Fresh Ground Turkey 93%, UNPREPARED, GTIN: 00642205559428"
Food Group:  Branded Food Products Database
Common Name:

Nutrient,Unit,Data points,Std. Error,"4.0   = 112.0g",1Value per 100 g,
Proximates
"Protein",g,--,--,22.00,19.64
"Total lipid (fat)",g,--,--,8.00,7.14
"Carbohydrate, by difference",g,--,--,0.00,0.00
"Fiber, total dietary",g,--,--,0.0,0.0
"Sugars, total",g,--,--,0.00,0.00
Minerals
"Calcium, Ca",mg,--,--,20,18
"Iron, Fe",mg,--,--,1.80,1.61
"Sodium, Na",mg,--,--,85,76
Vitamins
"Vitamin C, total ascorbic acid",mg,--,--,0.0,0.0
Lipids
"Fatty acids, total saturated",g,--,--,2.498,2.230
"Fatty acids, total trans",g,--,--,0.000,0.000
"Cholesterol",mg,--,--,80,71
Amino Acids
Other
Ingredients
"Ground turkey, natural flavoring" Date available: 10/19/2014 Date last updated by company: 08/11/2016
