Source: USDA Branded Food Products Database Release December 2017 Software v.3.8.6.4 2017-10-02
Report Run at: December 18, 2017 07:47 EST
"Nutrient data for: 45231003, HONEY BUTTER, UPC: 641548139038"
Food Group:  Branded Food Products Database
Common Name:

Nutrient,Unit,Data points,Std. Error,"1 Tbsp = 16.0g",1Value per 100 g,
Proximates
"Energy",kcal,--,--,81,506
"Protein",g,--,--,0.10,0.62
"Total lipid (fat)",g,--,--,5.80,36.25
"Carbohydrate, by difference",g,--,--,7.90,49.38
"Fiber, total dietary",g,--,--,0.0,0.0
"Sugars, total",g,--,--,7.60,47.50
Minerals
"Sodium, Na",mg,--,--,49,306
Vitamins
Lipids
"Fatty acids, total saturated",g,--,--,3.600,22.500
"Fatty acids, total trans",g,--,--,0.000,0.000
"Cholesterol",mg,--,--,15,94
Amino Acids
Other
Ingredients
"BUTTER (CREAM, SALT), HONEY, POWDERED SUGAR (SUGAR, CORN STARCH), MOLASSES, CINNAMON, SALT (CONTAINS MILK)" Date available: 07/14/2017 Date last updated by company: 07/14/2017
