Source: USDA Branded Food Products Database Release December 2017 Software v.3.8.6.4 2017-10-02
Report Run at: December 18, 2017 07:59 EST
"Nutrient data for: 45231227, HONEY LIQUEUR SEASONED & FULLY COOKED PULLED PORK, UPC: 811663029037"
Food Group:  Branded Food Products Database
Common Name:

Nutrient,Unit,Data points,Std. Error,"0.5 cup = 120.0g",1Value per 100 g,
Proximates
"Energy",kcal,--,--,260,217
"Protein",g,--,--,16.00,13.33
"Total lipid (fat)",g,--,--,11.00,9.17
"Carbohydrate, by difference",g,--,--,23.00,19.17
"Fiber, total dietary",g,--,--,0.0,0.0
"Sugars, total",g,--,--,21.00,17.50
Minerals
"Calcium, Ca",mg,--,--,20,17
"Iron, Fe",mg,--,--,0.50,0.42
"Sodium, Na",mg,--,--,760,633
Vitamins
"Vitamin C, total ascorbic acid",mg,--,--,0.8,0.7
"Vitamin A, IU",IU,--,--,71,59
Lipids
"Fatty acids, total saturated",g,--,--,3.996,3.330
"Fatty acids, total trans",g,--,--,0.000,0.000
"Cholesterol",mg,--,--,55,46
Amino Acids
Other
Ingredients
"BONELESS PORK, WATER, CONTAINS 2% OR LESS OF SALT, BLACK PEPPER, SODIUM PHOSPHATE, BROWN SUGAR, CARRAGEENAN (CARRAGEENAN, XANTHAN GUM), GRANULATED GARLIC, GRANULATED ONION; BARBEQUE SAUCE: BROWN SUGAR, TOMATO KETCHUP (TOMATO CONCENTRATE (TOMATOES), DISTILLED VINEGAR, SUGAR, SALT, ONION POWDER, SPICES, NATURAL FLAVORING), HONEY, APPLE CIDER VINEGAR, TOMATO PASTE, PINEAPPLE JUICE, CONTAINS 2% OR LESS OF TAMARIND PASTE (TAMARIND, WATER), SMOKE FLAVOR (WATER, NATURAL HICKORY SMOKE CONCENTRATE), YELLOW MUSTARD (DISTILLED VINEGAR, WATER, MUSTARD SEED, SALT, TURMERIC, PAPRIKA, SPICES), KOSHER SALT, JACK DANIEL'S TENNESSEE HONEY LIQUEUR, SPICES, GARLIC POWDER, MOLASSES, MODIFIED FOOD STARCH (CORN), CARAMEL COLOR, ONION POWDER." Date available: 09/29/2017 Date last updated by company: 09/29/2017
