Source: USDA Branded Food Products Database Release December 2017 Software v.3.8.6.4 2017-10-02
Report Run at: December 18, 2017 07:43 EST
"Nutrient data for: 45062132, HONEY AND BUTTER FLAVORED TOPPING, UPC: 030949002100"
Food Group:  Branded Food Products Database
Common Name:

Nutrient,Unit,Data points,Std. Error,"1 Tbsp = 14.0g",1Value per 100 g,
Proximates
"Energy",kcal,--,--,45,321
"Protein",g,--,--,0.00,0.00
"Total lipid (fat)",g,--,--,2.00,14.29
"Carbohydrate, by difference",g,--,--,6.00,42.86
"Fiber, total dietary",g,--,--,0.0,0.0
"Sugars, total",g,--,--,5.00,35.71
Minerals
"Calcium, Ca",mg,--,--,0,0
"Iron, Fe",mg,--,--,0.00,0.00
"Sodium, Na",mg,--,--,35,250
Vitamins
"Vitamin C, total ascorbic acid",mg,--,--,0.0,0.0
"Vitamin A, IU",IU,--,--,338,2414
Lipids
"Fatty acids, total saturated",g,--,--,0.000,0.000
"Fatty acids, total trans",g,--,--,0.000,0.000
"Cholesterol",mg,--,--,0,0
Amino Acids
Other
Ingredients
"CORN SYRUP, WATER, LIQUID AND PARTIALLY HYDROGENATED SOYBEAN OIL, SUGAR, FOOD STARCH-MODIFIED, HONEY, EGG WHITES, BUTTER, CONTAINS LESS THAN 0.5% OF THE FOLLOWING, FD&C YELLOW NO. 5 & 6, SALT, SODIUM BENZOATE (A PRESERVATIVE), XANTHAN GUM." Date available: 07/14/2017 Date last updated by company: 07/14/2017
