Source: USDA Branded Food Products Database Release December 2017 Software v.3.8.6.4 2017-10-02
Report Run at: December 18, 2017 08:06 EST
"Nutrient data for: 45221409, HONEY ROASTED MINI CHIPS, UPC: 725439201704"
Food Group:  Branded Food Products Database
Common Name:

Nutrient,Unit,Data points,Std. Error,"0.25 cup = 28.0g",1Value per 100 g,
Proximates
"Energy",kcal,--,--,150,536
"Protein",g,--,--,2.00,7.14
"Total lipid (fat)",g,--,--,10.00,35.71
"Carbohydrate, by difference",g,--,--,14.00,50.00
"Fiber, total dietary",g,--,--,1.0,3.6
"Sugars, total",g,--,--,3.00,10.71
Minerals
"Calcium, Ca",mg,--,--,40,143
"Iron, Fe",mg,--,--,2.57,9.19
"Sodium, Na",mg,--,--,340,1214
Vitamins
"Vitamin C, total ascorbic acid",mg,--,--,0.0,0.0
"Vitamin A, IU",IU,--,--,0,0
Lipids
"Fatty acids, total saturated",g,--,--,1.501,5.360
"Fatty acids, total trans",g,--,--,0.000,0.000
"Cholesterol",mg,--,--,0,0
Amino Acids
Other
Ingredients
"UNBLEACHED WHET FLOUR (CONTAINS MALTED BARLEY FLOUR AS A NATURAL ENZYME ADDITIVE), SOYBEAN OIL, SESAME SEEDS, HONEY COATING (SUCROSE, WHEAT STARCH, HONEY), BULGUR WHEAT, SALT, MALTODEXTRIN, XANTHAN GUM, TURMERIC, BEET POWDER." Date available: 07/14/2017 Date last updated by company: 07/14/2017
