Source: USDA Branded Food Products Database Release December 2017 Software v.3.8.6.4 2017-10-02
Report Run at: December 18, 2017 08:22 EST
"Nutrient data for: 45044024, HOOD, COOKIES 'N CREAM ICE CREAM SANDWICHES, UPC: 044100602276"
Food Group:  Branded Food Products Database
Common Name:

Nutrient,Unit,Data points,Std. Error,"1 SANDWICH = 62.0g",1Value per 100 g,
Proximates
"Energy",kcal,--,--,180,290
"Protein",g,--,--,3.00,4.84
"Total lipid (fat)",g,--,--,6.00,9.68
"Carbohydrate, by difference",g,--,--,30.00,48.39
"Fiber, total dietary",g,--,--,1.0,1.6
"Sugars, total",g,--,--,14.00,22.58
Minerals
"Calcium, Ca",mg,--,--,40,65
"Iron, Fe",mg,--,--,0.36,0.58
"Sodium, Na",mg,--,--,160,258
Vitamins
"Vitamin C, total ascorbic acid",mg,--,--,0.0,0.0
"Vitamin A, IU",IU,--,--,200,323
Lipids
"Fatty acids, total saturated",g,--,--,3.503,5.650
"Fatty acids, total trans",g,--,--,0.000,0.000
"Cholesterol",mg,--,--,15,24
Amino Acids
Other
Ingredients
"ICE CREAM: MILKFAT AND NONFAT MILK, SUGAR, CORN SYRUP, COOKIE PIECES (BLEACHED WHEAT FLOUR, SUGAR, CARAMEL COLOR, PALM OIL, CONTAINS 2% OR LESS OF COCOA, BAKING SODA, SALT, SOY LECITHIN), WHEY, NATURAL AND ARTIFICIAL FLAVOR, MONO AND DIGLYCERIDES, GUAR GUM, LOCUST BEAN GUM, POLYSORBATE 80, CARRAGEENAN. DARK CHOCOLATE WAFERS: BLEACHED WHEAT FLOUR, SUGAR, PALM OIL, CARAMEL COLOR, DEXTROSE, COCOA PROCESSED WITH ALKALI, CONTAINS 2% OR LESS OF BAKING SODA, MONOCALCIUM PHOSPHATE, MODIFIED CORN STARCH, SALT, RED 40, BLUE 1, SOY LECITHIN, ARTIFICIAL FLAVOR." Date available: 07/14/2017 Date last updated by company: 07/14/2017
