Source: USDA Branded Food Products Database Release December 2017 Software v.3.8.6.4 2017-10-02
Report Run at: December 18, 2017 08:26 EST
"Nutrient data for: 45051656, HOPE, KALE PESTO, UPC: 856500004266"
Food Group:  Branded Food Products Database
Common Name:

Nutrient,Unit,Data points,Std. Error,"2.0 Tbsp = 28.0g",1Value per 100 g,
Proximates
"Energy",kcal,--,--,50,179
"Protein",g,--,--,1.00,3.57
"Total lipid (fat)",g,--,--,4.00,14.29
"Carbohydrate, by difference",g,--,--,3.00,10.71
"Fiber, total dietary",g,--,--,0.0,0.0
"Sugars, total",g,--,--,0.00,0.00
Minerals
"Calcium, Ca",mg,--,--,20,71
"Iron, Fe",mg,--,--,3.04,10.87
"Sodium, Na",mg,--,--,90,321
Vitamins
"Vitamin C, total ascorbic acid",mg,--,--,15.2,54.3
"Vitamin A, IU",IU,--,--,2113,7548
Lipids
"Fatty acids, total saturated",g,--,--,0.501,1.790
"Fatty acids, total trans",g,--,--,0.000,0.000
"Cholesterol",mg,--,--,0,0
Amino Acids
Other
Ingredients
"ORGANIC GARBANZO BEANS, WATER, ORGANIC KALE, ORGANIC EXTRA VIRGIN OLIVE OIL, ORGANIC BASIL, ORGANIC TAHINI (SESAME SEEDS), ORGANIC HEMP SEEDS, ORGANIC ONION, ORGANIC GARLIC, SEA SALT, CITRIC ACID, ORGANIC LEMON JUICE, ORGANIC SPICES." Date available: 07/14/2017 Date last updated by company: 07/14/2017
