Source: USDA Branded Food Products Database Release December 2017 Software v.3.8.6.4 2017-10-02
Report Run at: December 18, 2017 08:25 EST
"Nutrient data for: 45159295, HOPE AND GREENWOOD, CANDY FLOSS FIZZ SWEETS, UPC: 060112966540"
Food Group:  Branded Food Products Database
Common Name:

Nutrient,Unit,Data points,Std. Error,"100.0 GRM = 100.0g",1Value per 100 g,
Proximates
"Energy",kcal,--,--,395,395
"Protein",g,--,--,0.30,0.30
"Total lipid (fat)",g,--,--,0.10,0.10
"Carbohydrate, by difference",g,--,--,97.80,97.80
"Fiber, total dietary",g,--,--,0.1,0.1
"Sugars, total",g,--,--,67.40,67.40
Minerals
"Sodium, Na",mg,--,--,0,0
Vitamins
Lipids
"Fatty acids, total saturated",g,--,--,0.100,0.100
Amino Acids
Other
Ingredients
"SUGAR, GLUCOSE SYRUP, CITRIC ACID, MALIC ACID, BICARBONATE OF SODA, FLAVOURINGS, COLOUR ANTHOCYANINS." Date available: 07/14/2017 Date last updated by company: 07/14/2017
