Source: USDA Branded Food Products Database Release December 2017 Software v.3.8.6.4 2017-10-02
Report Run at: December 18, 2017 08:37 EST
"Nutrient data for: 45038642, HORMEL, NATURAL CHOICE, FULLY COOKED UNCURED BACON, UPC: 037600487603"
Food Group:  Branded Food Products Database
Common Name:

Nutrient,Unit,Data points,Std. Error,"2.0 SLICES = 14.0g",1Value per 100 g,
Proximates
"Energy",kcal,--,--,70,500
"Protein",g,--,--,6.00,42.86
"Total lipid (fat)",g,--,--,5.00,35.71
"Carbohydrate, by difference",g,--,--,0.00,0.00
Minerals
"Sodium, Na",mg,--,--,270,1929
Vitamins
Lipids
"Fatty acids, total saturated",g,--,--,2.001,14.290
"Cholesterol",mg,--,--,20,143
Amino Acids
Other
Ingredients
"PORK, WATER, SALT, TURBINADO SUGAR, SEASONING (CULTURED CELERY JUICE POWDER, SEA SALT)." Date available: 07/14/2017 Date last updated by company: 07/14/2017
