Source: USDA Branded Food Products Database Release December 2017 Software v.3.8.6.4 2017-10-02
Report Run at: December 18, 2017 08:39 EST
"Nutrient data for: 45101852, HORMEL, PORK LOIN FILET, MESQUITE BARBECUE, UPC: 037600497671"
Food Group:  Branded Food Products Database
Common Name:

Nutrient,Unit,Data points,Std. Error,"4.0 ONZ = 112.0g",1Value per 100 g,
Proximates
"Energy",kcal,--,--,120,107
"Protein",g,--,--,21.00,18.75
"Total lipid (fat)",g,--,--,4.00,3.57
"Carbohydrate, by difference",g,--,--,0.00,0.00
"Fiber, total dietary",g,--,--,0.0,0.0
"Sugars, total",g,--,--,0.00,0.00
Minerals
"Calcium, Ca",mg,--,--,0,0
"Iron, Fe",mg,--,--,0.36,0.32
"Sodium, Na",mg,--,--,570,509
Vitamins
"Vitamin C, total ascorbic acid",mg,--,--,0.0,0.0
"Vitamin A, IU",IU,--,--,0,0
Lipids
"Fatty acids, total saturated",g,--,--,1.501,1.340
"Fatty acids, total trans",g,--,--,0.000,0.000
"Cholesterol",mg,--,--,45,40
Amino Acids
Other
Ingredients
"PORK BROTH, SEASONING (CHILI PEPPER, SPICES, DEHYDRATED GREEN BELL PEPPER, ONION POWDER, MALTODEXTRIN, GARLIC POWDER, NATURAL SMOKE FLAVOR), CULTURED DEXTROSE (CONTAINS MALTODEXTRIN), DRIED VINEGAR, SOYBEAN OIL, FLAVOR (YEAST EXTRACT, NATURAL FLAVOR), SALT, FLAVORING." Date available: 07/14/2017 Date last updated by company: 07/14/2017
