Source: USDA Branded Food Products Database Release December 2017 Software v.3.8.6.4 2017-10-02
Report Run at: December 18, 2017 08:32 EST
"Nutrient data for: 45038633, HORMEL, BLACK LABEL THICK CUT BACON, UPC: 037600153041"
Food Group:  Branded Food Products Database
Common Name:

Nutrient,Unit,Data points,Std. Error,"2.0 PAN-FRIED SLICES = 24.0g",1Value per 100 g,
Proximates
"Energy",kcal,--,--,110,458
"Protein",g,--,--,8.00,33.33
"Total lipid (fat)",g,--,--,9.00,37.50
"Carbohydrate, by difference",g,--,--,0.00,0.00
"Fiber, total dietary",g,--,--,0.0,0.0
"Sugars, total",g,--,--,0.00,0.00
Minerals
"Calcium, Ca",mg,--,--,0,0
"Iron, Fe",mg,--,--,0.00,0.00
"Sodium, Na",mg,--,--,530,2208
Vitamins
"Vitamin C, total ascorbic acid",mg,--,--,0.0,0.0
"Vitamin A, IU",IU,--,--,0,0
Lipids
"Fatty acids, total saturated",g,--,--,3.499,14.580
"Fatty acids, total trans",g,--,--,0.000,0.000
"Cholesterol",mg,--,--,25,104
Amino Acids
Other
Ingredients
"CURED WITH WATER, SALT, SUGAR, DEXTROSE, SODIUM ERYTHORBATE, SODIUM NITRITE." Date available: 07/14/2017 Date last updated by company: 07/14/2017
