Source: USDA Branded Food Products Database Release December 2017 Software v.3.8.6.4 2017-10-02
Report Run at: December 18, 2017 08:34 EST
"Nutrient data for: 45058639, HORMEL, COMPLEATS, HAM BREAKFAST SCRAMBLE, UPC: 037600251372"
Food Group:  Branded Food Products Database
Common Name:

Nutrient,Unit,Data points,Std. Error,"1 TRAY = 213.0g",1Value per 100 g,
Proximates
"Energy",kcal,--,--,290,136
"Protein",g,--,--,21.00,9.86
"Total lipid (fat)",g,--,--,19.00,8.92
"Carbohydrate, by difference",g,--,--,8.01,3.76
"Fiber, total dietary",g,--,--,1.1,0.5
"Sugars, total",g,--,--,2.00,0.94
Minerals
"Calcium, Ca",mg,--,--,100,47
"Iron, Fe",mg,--,--,1.43,0.67
"Sodium, Na",mg,--,--,990,465
Vitamins
"Vitamin C, total ascorbic acid",mg,--,--,0.0,0.0
"Vitamin A, IU",IU,--,--,398,187
Lipids
"Fatty acids, total saturated",g,--,--,7.008,3.290
"Fatty acids, total trans",g,--,--,0.000,0.000
"Cholesterol",mg,--,--,501,235
Amino Acids
Other
Ingredients
"SCRAMBLED EGGS (PASTEURIZED WHOLE EGGS, NON FAT MILK,SOYBEAN OIL, MODIFIED FOOD STARCH, SALT, XANTHAN GUM, CITRIC ACID, BUTTER FLAVOR [MALTODEXTRIN, NATURAL BUTTER FLAVOR, ANNATTO AND TURMERIC {ADDED FOR COLOR}] PEPPER), EGGS, HAM (AFTER COOKING, CONTAINS UP TO 17% OF A SOLUTION OF WATER, SALT, SUGAR, SODIUM PHOSPHATES, CELERY JUICE POWDER, LACTIC ACID STARTER CULTURE), WATER, POTATOES, PASTEURIZED PROCESS AMERICAN CHEESE (AMERICAN CHEESE [MILK, SALT, CHEESE CULTURES, ENZYMES] WATER, SODIUM PHOSPHATE, CREAM, SALT, LACTIC ACID), CONTAINS 2% OR LESS OF BUTTER, CREAM ( CONTAINS CARRAGEENAN), SUGAR, MODIFIED POTATO STARCH, MODIFIED CORNSTARCH, POTATO STARCH, YEAST EXTRACT, SOY LECITHIN, SODIUM BISULFITE, CITRIC ACID, XANTHAN GUM, SPICES, CAROTENE (COLOR), FLAVORING, ANNATTO COLOR, YEAST AUTOLYZATE." Date available: 07/14/2017 Date last updated by company: 07/14/2017
