Source: USDA Branded Food Products Database Release December 2017 Software v.3.8.6.4 2017-10-02
Report Run at: December 18, 2017 08:30 EST
"Nutrient data for: 45010017, HORMEL, ALWAYS TENDER, EXTRA LEAN PORK CENTER CUT LOIN FILET, ORIGINAL, UPC: 208285410877"
Food Group:  Branded Food Products Database
Common Name:

Nutrient,Unit,Data points,Std. Error,"4.0 ONZ = 112.0g",1Value per 100 g,
Proximates
"Energy",kcal,--,--,130,116
"Protein",g,--,--,19.00,16.96
"Total lipid (fat)",g,--,--,5.00,4.46
"Carbohydrate, by difference",g,--,--,1.00,0.89
"Fiber, total dietary",g,--,--,0.0,0.0
"Sugars, total",g,--,--,0.00,0.00
Minerals
"Calcium, Ca",mg,--,--,0,0
"Iron, Fe",mg,--,--,0.27,0.24
"Sodium, Na",mg,--,--,370,330
Vitamins
"Vitamin C, total ascorbic acid",mg,--,--,0.0,0.0
"Vitamin A, IU",IU,--,--,0,0
Lipids
"Fatty acids, total saturated",g,--,--,2.005,1.790
"Fatty acids, total trans",g,--,--,0.000,0.000
"Cholesterol",mg,--,--,45,40
Amino Acids
Other
Ingredients
"PORK BROTH, POTASSIUM LACTATE, PARTIALLY HYDROGENATED SOYBEAN OIL, CORNSTARCH, SODIUM PHOSPHATES, SODIUM BICARBONATE, SALT, YEAST EXTRACT, SODIUM DIACETATE, XANTHAN GUM." Date available: 06/24/2017 Date last updated by company: 06/24/2017
