Source: USDA Branded Food Products Database Release December 2017 Software v.3.8.6.4 2017-10-02
Report Run at: December 18, 2017 08:36 EST
"Nutrient data for: 45206584, HORMEL, HOMESTYLE STUFFING WITH SELECT VEGETABLE & FINE HERBS, UPC: 037600166492"
Food Group:  Branded Food Products Database
Common Name:

Nutrient,Unit,Data points,Std. Error,"0.5 cup = 100.0g",1Value per 100 g,
Proximates
"Energy",kcal,--,--,140,140
"Protein",g,--,--,3.00,3.00
"Total lipid (fat)",g,--,--,6.00,6.00
"Carbohydrate, by difference",g,--,--,19.00,19.00
"Fiber, total dietary",g,--,--,1.0,1.0
"Sugars, total",g,--,--,2.00,2.00
Minerals
"Calcium, Ca",mg,--,--,20,20
"Iron, Fe",mg,--,--,0.72,0.72
"Sodium, Na",mg,--,--,640,640
Vitamins
"Vitamin C, total ascorbic acid",mg,--,--,0.0,0.0
"Vitamin A, IU",IU,--,--,0,0
Lipids
"Fatty acids, total saturated",g,--,--,1.500,1.500
"Fatty acids, total trans",g,--,--,0.000,0.000
"Cholesterol",mg,--,--,5,5
Amino Acids
Other
Ingredients
"WATER, BREAD CRUMBS (ENRICHED WHEAT FLOUR [ENRICHED WITH NIACIN, REDUCED IRON, THIAMINE MONONITRATE, RIBOFLAVIN, FOLIC ACID], SUGAR, PARTIALLY HYDROGENATED SOYBEAN AND/OR COTTONSEED OIL, YEAST, SALT, PRESERVATIVES [CALCIUM PROPIONATE, BHT], NATURAL FLAVOR), CROUTONS (ENRICHED FLOUR [WHEAT FLOUR, MALTED BARLEY FLOUR, NIACIN, REDUCED IRON, THIAMINE MONONITRATE, RIBOFLAVIN, FOLIC ACID], CANOLA AND/OR SUNFLOWER OIL, YEAST, HIGH FRUCTOSE CORN SYRUP, CONTAINS 2% OR LESS OF SALT, WHEAT GLUTEN, CALCIUM PROPIONATE [PRESERVATIVE], CALCIUM PEROXIDE, CALCIUM SULFATE, ASCORBIC ACID, AZODICARBONAMIDE, SODIUM STEAROYL LACTYLATE, CITRIC ACID, ROSEMARY EXTRACT [TO PRESERVE FRESHNESS]), CELERY, ONIONS, LIQUID MARGARINE (LIQUID AND HYDROGENATED SOYBEAN OIL, WATER, SALT, VEGETABLE MONO- AND DIGLYCERIDES, SOY LECITHIN, CITRIC ACID, NATURAL AND ARTIFICIAL FLAVOR, VITAMIN A PALMITATE ADDED), CONTAINS 2% OR LESS OF CHICKEN BASE (CHICKEN INCLUDING NATURAL CHICKEN JUICES, SALT, CHICKEN FAT, SUGAR, AUTOLYZED YEAST EXTRACT, MALTODEXTRIN [FROM CORN], DRIED WHEY [MILK], NATURAL FLAVORING, TURMERIC), CHICKEN FAT (CONTAINS NATURAL FLAVOR), MODIFIED CORNSTARCH, ARTIFICIAL FLAVOR (HYDROLYZED SOY AND CORN PROTEIN, NATURAL FLAVOR [SUGAR, SALT, AUTOLYZED YEAST EXTRACT], PARTIALLY HYDROGENATED COTTONSEED AND SOYBEAN OIL, MALTODEXTRIN, DISODIUM INOSINATE, DISODIUM GUANYLATE, AUTOLYZED YEAST EXTRACT, THIAMINE HYDROCHLORIDE, TRICALCIUM PHOSPHATE, ARTIFICIAL FLAVOR), CHICKEN FLAVOR CONCENTRATE (CHICKEN, YEAST EXTRACT, SALT AND FLAVORING), TURKEY BASE (ROASTED TURKEY MEAT INCLUDING NATURAL TURKEY JUICES, SALT, MALTODEXTRIN [FROM CORN], SUGAR, CHICKEN FAT, MODIFIED FOOD STARCH, NATURAL FLAVORING, DRIED WHEY [MILK], CARAMEL COLOR), ANTIMICROBIAL BLEND (MALTODEXTRIN, CULTURED DEXTROSE, SODIUM DIACETATE, SALT, EGG WHITE LYSOZYME, NISIN PREPARATION [SALT, NISIN]), SEASONING BLEND (SPICES, SALT, DEXTROSE, DEHYDRATED ONION, NATURAL FLAVOR [DEXTROSE, SALT, AUTOLYZED YEAST EXTRACT], CULTURED WHEY [MILK], SOYBEAN OIL]), POTASSIUM SORBATE (PRESERVATIVE), DEHYDRATED PARSLEY, SODIUM BENZOATE (PRESERVATIVE), SALT, SPICE, TURMERIC." Date available: 09/29/2017 Date last updated by company: 09/29/2017
