Source: USDA Branded Food Products Database Release December 2017 Software v.3.8.6.4 2017-10-02
Report Run at: December 18, 2017 08:36 EST
"Nutrient data for: 45094801, HORMEL, MACARONI AND CHEESE PASTA, UPC: 037600166300"
Food Group:  Branded Food Products Database
Common Name:

Nutrient,Unit,Data points,Std. Error,"1 cup = 230.0g",1Value per 100 g,
Proximates
"Energy",kcal,--,--,329,143
"Protein",g,--,--,14.01,6.09
"Total lipid (fat)",g,--,--,14.01,6.09
"Carbohydrate, by difference",g,--,--,38.00,16.52
"Fiber, total dietary",g,--,--,2.1,0.9
"Sugars, total",g,--,--,6.99,3.04
Minerals
"Calcium, Ca",mg,--,--,251,109
"Iron, Fe",mg,--,--,1.56,0.68
"Sodium, Na",mg,--,--,950,413
Vitamins
"Vitamin C, total ascorbic acid",mg,--,--,0.0,0.0
"Vitamin A, IU",IU,--,--,218,95
Lipids
"Fatty acids, total saturated",g,--,--,6.003,2.610
"Fatty acids, total trans",g,--,--,0.000,0.000
"Cholesterol",mg,--,--,30,13
Amino Acids
Other
Ingredients
"ENRICHED MACARONI (WATER, DURUM SEMOLINA [WHEAT], FERROUS SULFATE, NIACIN, THIAMINE MONONITRATE, RIBOFLAVIN, FOLIC ACID), MILK, WATER, PASTEURIZED PROCESS CHEESE SPREAD (AMERICAN CHEESE [PASTEURIZED MILK, CHEESE CULTURE, SALT, ENZYMES], WATER, WHEY, SODIUM PHOSPHATE, WHEY PROTEIN CONCENTRATE, SKIM MILK, SALT, ARTIFICIAL COLOR), CHEDDAR CHEESE (CHEDDAR CHEESE [PASTEURIZED MILK, CHEESE CULTURES, SALT, ENZYMES], NONFAT MILK, WHEY, SALT, ANNATTO EXTRACT, NATURAL FLAVORS), LIQUID MARGARINE (LIQUID AND HYDROGENATED SOYBEAN OIL, WATER, SALT, VEGETABLE MONO- AND DIGLYCERIDES, SOY LECITHIN, CITRIC ACID, NATURAL AND ARTIFICIAL FLAVOR, VITAMIN A PALMITATE ADDED), MODIFIED CORNSTARCH, SALT, SODIUM BENZOATE (PRESERVATIVE), POTASSIUM SORBATE (PRESERVATIVE), ANNATTO COLOR." Date available: 07/14/2017 Date last updated by company: 07/14/2017
