Source: USDA Branded Food Products Database Release December 2017 Software v.3.8.6.4 2017-10-02
Report Run at: December 18, 2017 08:35 EST
"Nutrient data for: 45038130, HORMEL, DINTY MOORE, BIG BOWLS CHICKEN & DUMPLINGS, UPC: 037600512596"
Food Group:  Branded Food Products Database
Common Name:

Nutrient,Unit,Data points,Std. Error,"1 cup = 241.0g",1Value per 100 g,
Proximates
"Energy",kcal,--,--,219,91
"Protein",g,--,--,10.99,4.56
"Total lipid (fat)",g,--,--,6.99,2.90
"Carbohydrate, by difference",g,--,--,28.99,12.03
"Fiber, total dietary",g,--,--,1.0,0.4
"Sugars, total",g,--,--,0.99,0.41
Minerals
"Calcium, Ca",mg,--,--,19,8
"Iron, Fe",mg,--,--,1.13,0.47
"Sodium, Na",mg,--,--,950,394
Vitamins
"Vitamin C, total ascorbic acid",mg,--,--,0.0,0.0
"Vitamin A, IU",IU,--,--,0,0
Lipids
"Fatty acids, total saturated",g,--,--,2.000,0.830
"Fatty acids, total trans",g,--,--,0.000,0.000
"Cholesterol",mg,--,--,36,15
Amino Acids
Other
Ingredients
"CHICKEN BROTH (CONTAINS FLAVOR), WHITE CHICKEN (WHITE CHICKEN MEAT, WATER, MODIFIED FOOD STARCH, SALT, SODIUM PHOSPHATE), DUMPLINGS (ENRICHED WHEAT FLOUR [WHEAT FLOUR, NIACIN, REDUCED IRON, THIAMINE MONONITRATE, RIBOFLAVIN, FOLIC ACID], WATER, SHORTENING [PARTIALLY HYDROGENATED SOYBEAN AND/OR COTTONSEED OIL], SALT), CHICKEN FAT, MODIFIED CORNSTARCH, POTATO STARCH, SALT, HYDROLYZED CORN PROTEIN, FLAVORING, CHICKEN FLAVORING, (AUTOLYZED YEAST EXTRACT, CHICKEN FLAVORS, SALT, CHICKEN FAT), AUTOLYZED YEAST, CHICKEN TYPE FLAVOR (AUTOLYZED YEAST EXTRACT, FLAVORS, SALT, CHICKEN FAT), SPICE, PAPRIKA, TURMERIC" Date available: 06/24/2017 Date last updated by company: 06/24/2017
