Source: USDA Branded Food Products Database Release December 2017 Software v.3.8.6.4 2017-10-02
Report Run at: December 18, 2017 08:41 EST
"Nutrient data for: 45020187, HORMEL, SLOW SIMMERED PORK ROAST AU JUS, UPC: 037600355018"
Food Group:  Branded Food Products Database
Common Name:

Nutrient,Unit,Data points,Std. Error,"5.0 ONZ = 140.0g",1Value per 100 g,
Proximates
"Energy",kcal,--,--,169,121
"Protein",g,--,--,26.00,18.57
"Total lipid (fat)",g,--,--,7.00,5.00
"Carbohydrate, by difference",g,--,--,0.99,0.71
"Fiber, total dietary",g,--,--,0.0,0.0
"Sugars, total",g,--,--,0.99,0.71
Minerals
"Calcium, Ca",mg,--,--,0,0
"Iron, Fe",mg,--,--,0.87,0.62
"Sodium, Na",mg,--,--,449,321
Vitamins
"Vitamin C, total ascorbic acid",mg,--,--,0.0,0.0
"Vitamin A, IU",IU,--,--,0,0
Lipids
"Fatty acids, total saturated",g,--,--,2.996,2.140
"Fatty acids, total trans",g,--,--,0.000,0.000
"Cholesterol",mg,--,--,76,54
Amino Acids
Other
Ingredients
"**SEASONING INGREDIENTS: WATER, SEASONING (MODIFIED CORN STARCH, SALT, DEXTROSE, MUSTARD, ONION POWDER, GARLIC POWDER, CARAMEL COLOR, FLAVORING)." Date available: 07/14/2017 Date last updated by company: 07/14/2017
