Source: USDA Branded Food Products Database Release December 2017 Software v.3.8.6.4 2017-10-02
Report Run at: December 18, 2017 08:39 EST
"Nutrient data for: 45206934, HORMEL, PORK ROAST, UPC: 037600169288"
Food Group:  Branded Food Products Database
Common Name:

Nutrient,Unit,Data points,Std. Error,"4.0 ONZ = 112.0g",1Value per 100 g,
Proximates
"Energy",kcal,--,--,160,143
"Protein",g,--,--,18.00,16.07
"Total lipid (fat)",g,--,--,9.00,8.04
"Carbohydrate, by difference",g,--,--,1.00,0.89
"Fiber, total dietary",g,--,--,0.0,0.0
"Sugars, total",g,--,--,0.00,0.00
Minerals
"Calcium, Ca",mg,--,--,0,0
"Iron, Fe",mg,--,--,0.27,0.24
"Sodium, Na",mg,--,--,470,420
Vitamins
"Vitamin C, total ascorbic acid",mg,--,--,0.0,0.0
"Vitamin A, IU",IU,--,--,0,0
Lipids
"Fatty acids, total saturated",g,--,--,3.002,2.680
"Fatty acids, total trans",g,--,--,0.000,0.000
"Cholesterol",mg,--,--,55,49
Amino Acids
Other
Ingredients
"**SOLUTION INGREDIENTS: PORK BROTH, SOYBEAN OIL, CULTURED DEXTROSE (CONTAINS MALTODEXTRIN), DRIED VINEGAR, FLAVOR (YEAST EXTRACT, NATURAL FLAVOR), SALT, SEASONING (POTATO MALTODEXTRIN, NATURAL FLAVOR, SALT), DEHYDRATED PARSLEY, FLAVORING." Date available: 07/14/2017 Date last updated by company: 07/14/2017
