Source: USDA Branded Food Products Database Release December 2017 Software v.3.8.6.4 2017-10-02
Report Run at: December 18, 2017 08:44 EST
"Nutrient data for: 45292331, HORSERADISH SAUCE, UPC: 078742232225"
Food Group:  Branded Food Products Database
Common Name:

Nutrient,Unit,Data points,Std. Error,"1 tsp = 5.0g",1Value per 100 g,
Proximates
"Energy",kcal,--,--,20,400
"Protein",g,--,--,0.00,0.00
"Total lipid (fat)",g,--,--,1.50,30.00
"Carbohydrate, by difference",g,--,--,1.00,20.00
"Fiber, total dietary",g,--,--,0.0,0.0
"Sugars, total",g,--,--,1.00,20.00
Minerals
"Calcium, Ca",mg,--,--,0,0
"Iron, Fe",mg,--,--,0.00,0.00
"Potassium, K",mg,--,--,0,0
"Sodium, Na",mg,--,--,30,600
Vitamins
"Vitamin D",IU,--,--,0,0
Lipids
"Fatty acids, total saturated",g,--,--,0.500,10.000
"Fatty acids, total trans",g,--,--,0.000,0.000
"Cholesterol",mg,--,--,5,100
Amino Acids
Other
Ingredients
"SOYBEAN OIL, WATER, CORN SYRUP, DISTILLED VINEGAR, EGG YOLKS, MODIFIED CORNSTARCH, HORSERADISH, SALT, ARTIFICIAL FLAVORING, POTASSIUM SORBATE (AS PRESERVATIVE), XANTHAN GUM, CALCIUM DISODIUM EDTA ADDED TO PROTECT FLAVOR." Date available: 07/14/2017 Date last updated by company: 07/14/2017
