Source: USDA Branded Food Products Database Release December 2017 Software v.3.8.6.4 2017-10-02
Report Run at: December 18, 2017 08:43 EST
"Nutrient data for: 45202407, HORSERADISH MUSTARD, UPC: 819388011900"
Food Group:  Branded Food Products Database
Common Name:

Nutrient,Unit,Data points,Std. Error,"1 tsp = 5.0g",1Value per 100 g,
Proximates
"Energy",kcal,--,--,5,100
"Protein",g,--,--,0.00,0.00
"Total lipid (fat)",g,--,--,0.00,0.00
"Carbohydrate, by difference",g,--,--,1.00,20.00
"Fiber, total dietary",g,--,--,0.0,0.0
"Sugars, total",g,--,--,0.00,0.00
Minerals
"Sodium, Na",mg,--,--,45,900
Vitamins
Lipids
"Fatty acids, total saturated",g,--,--,0.000,0.000
"Fatty acids, total trans",g,--,--,0.000,0.000
"Cholesterol",mg,--,--,0,0
Amino Acids
Other
Ingredients
"DISTILLED WHITE VINEGAR, WATER, PREPARED HORSERADISH (GRATED HORSERADISH ROOT, SOYBEAN OIL, HIGH FRUCTOSE CORN SYRUP, LEMON JUICE, EGG YOLKS, MODIFIED CORN STARCH, PROPYLENE GLYCOL, SODIUM METABISULFITE, CITRIC ACID, ARTIFICIAL FLAVORING, SODIUM BENZOATE, XANTHAN GUM), MUSTARD SEED, MUSTARD FLOUR, BEER, SALT, SUGAR, GARLIC, SPICES, TURMERIC (COLOR), XANTHAN GUM, CALCIUM DISODIUM EDTA." Date available: 10/13/2017 Date last updated by company: 10/13/2017
