Source: USDA Branded Food Products Database Release December 2017 Software v.3.8.6.4 2017-10-02
Report Run at: December 18, 2017 08:44 EST
"Nutrient data for: 45196860, HORSERADISH SAUCE, UPC: 070080126143"
Food Group:  Branded Food Products Database
Common Name:

Nutrient,Unit,Data points,Std. Error,"1 tsp = 5.0g",1Value per 100 g,
Proximates
"Energy",kcal,--,--,0,0
"Protein",g,--,--,0.00,0.00
"Total lipid (fat)",g,--,--,0.00,0.00
"Carbohydrate, by difference",g,--,--,0.00,0.00
"Fiber, total dietary",g,--,--,0.0,0.0
"Sugars, total",g,--,--,0.00,0.00
Minerals
"Sodium, Na",mg,--,--,55,1100
Vitamins
Lipids
"Fatty acids, total saturated",g,--,--,0.000,0.000
"Fatty acids, total trans",g,--,--,0.000,0.000
Amino Acids
Other
Ingredients
"WHITE DISTILLED VINEGAR AND WATER, #1 GRADE MUSTARD SEED, HORSERADISH, (GRATED HORSERADISH ROOTS, DISTILLED VINEGAR, WATER, SALT, SOYBEAN OIL, MODIFIED FOOD STARCH, CITRIC ACID, POTASSIUM SORBATE [AS A PRESERVATIVE], SODIUM METABISULFITE [RETAINS PRODUCT COLOR], FLAVORING, TITANIUM DIOXIDE CALCIUM DISODIUM EDTA [TO PROTECT FLAVOR]), SALT, SPICES." Date available: 07/14/2017 Date last updated by company: 07/14/2017
