Source: USDA Branded Food Products Database Release December 2017 Software v.3.8.6.4 2017-10-02
Report Run at: December 18, 2017 09:05 EST
"Nutrient data for: 45215960, HOT ITALIAN SAUSAGE, UPC: 026956011457"
Food Group:  Branded Food Products Database
Common Name:

Nutrient,Unit,Data points,Std. Error,"1 LINK = 91.0g",1Value per 100 g,
Proximates
"Energy",kcal,--,--,230,253
"Protein",g,--,--,15.00,16.48
"Total lipid (fat)",g,--,--,17.00,18.68
"Carbohydrate, by difference",g,--,--,2.00,2.20
"Fiber, total dietary",g,--,--,1.0,1.1
"Sugars, total",g,--,--,1.00,1.10
Minerals
"Calcium, Ca",mg,--,--,20,22
"Iron, Fe",mg,--,--,0.66,0.72
"Sodium, Na",mg,--,--,720,791
Vitamins
"Vitamin C, total ascorbic acid",mg,--,--,0.0,0.0
"Vitamin A, IU",IU,--,--,181,199
Lipids
"Fatty acids, total saturated",g,--,--,5.997,6.590
"Fatty acids, total trans",g,--,--,0.000,0.000
"Cholesterol",mg,--,--,55,60
Amino Acids
Other
Ingredients
"PORK, WATER, SALT, SPICES, CORN SYRUP SOLIDS, VINEGAR, PAPRIKA, DEXTROSE, OLEORESIN PAPRIKA, NATURAL FLAVORS, BHA, BHT, PROPYL GALLATE, CITRIC ACID." Date available: 07/14/2017 Date last updated by company: 07/14/2017
