Source: USDA Branded Food Products Database Release December 2017 Software v.3.8.6.4 2017-10-02
Report Run at: December 18, 2017 08:59 EST
"Nutrient data for: 45282491, HOT DOG BUNS, UPC: 021130185016"
Food Group:  Branded Food Products Database
Common Name:

Nutrient,Unit,Data points,Std. Error,"1 BUN = 43.0g",1Value per 100 g,
Proximates
"Energy",kcal,--,--,110,256
"Protein",g,--,--,3.00,6.98
"Total lipid (fat)",g,--,--,1.50,3.49
"Carbohydrate, by difference",g,--,--,21.00,48.84
"Fiber, total dietary",g,--,--,1.0,2.3
"Sugars, total",g,--,--,2.00,4.65
Minerals
"Calcium, Ca",mg,--,--,40,93
"Iron, Fe",mg,--,--,1.26,2.92
"Sodium, Na",mg,--,--,220,512
Vitamins
"Vitamin C, total ascorbic acid",mg,--,--,0.0,0.0
"Thiamin",mg,--,--,0.430,1.000
"Riboflavin",mg,--,--,0.198,0.460
"Niacin",mg,--,--,2.326,5.409
"Vitamin A, IU",IU,--,--,0,0
Lipids
"Fatty acids, total saturated",g,--,--,0.000,0.000
"Fatty acids, total trans",g,--,--,0.000,0.000
"Cholesterol",mg,--,--,0,0
Amino Acids
Other
Ingredients
"UNBLEACHED ENRICHED WHEAT FLOUR (WHEAT FLOUR, BARLEY MALT, NIACIN, IRON, THIAMIN MONONITRATE [VITAMIN B1], RIBOFLAVIN [VITAMIN B2], FOLIC ACID), WATER, CORN SYRUP, YEAST, CONTAINS 2% OR LESS OF: SOYBEAN OIL, SALT, WHEAT GLUTEN, DOUGH CONDITIONERS (CONTAINS ONE OR MORE OF: MONO & DIGLYCERIDES, ETHOXYLATED MONO AND DIGLYCERIDES, SODIUM STEAROYL LACTYLATE, CALCIUM PEROXIDE, DATEM, ASCORBIC ACID, ENZYMES), CALCIUM PROPIONATE (TO RETAIN FRESHNESS), YEAST NUTRIENTS (CALCIUM SULFATE, MONOCALCIUM PHOSPHATE, AMMONIUM SULFATE), SORBIC ACID, SUGAR, WHEAT STARCH, SOY LECITHIN." Date available: 07/14/2017 Date last updated by company: 07/14/2017
