Source: USDA Branded Food Products Database Release December 2017 Software v.3.8.6.4 2017-10-02
Report Run at: December 18, 2017 09:17 EST
"Nutrient data for: 45235071, HOT & SPICY UDON, UPC: 081652080923"
Food Group:  Branded Food Products Database
Common Name:

Nutrient,Unit,Data points,Std. Error,"1 cup = 218.0g",1Value per 100 g,
Proximates
"Energy",kcal,--,--,340,156
"Protein",g,--,--,10.01,4.59
"Total lipid (fat)",g,--,--,4.99,2.29
"Carbohydrate, by difference",g,--,--,69.00,31.65
"Fiber, total dietary",g,--,--,0.0,0.0
"Sugars, total",g,--,--,0.00,0.00
Minerals
"Calcium, Ca",mg,--,--,20,9
"Iron, Fe",mg,--,--,0.24,0.11
"Sodium, Na",mg,--,--,1672,767
Vitamins
"Vitamin C, total ascorbic acid",mg,--,--,0.0,0.0
"Vitamin A, IU",IU,--,--,0,0
Lipids
"Fatty acids, total saturated",g,--,--,0.000,0.000
"Fatty acids, total trans",g,--,--,0.000,0.000
"Cholesterol",mg,--,--,0,0
Amino Acids
Other
Ingredients
"NOODLE : WHEAT FLOUR, TAPIOCA STARCH, SALT, ALGINIC ACID, WATER. POWDER SOUP : SALT, SOY SAUCE POWDER(SOYBEAN, SALT, WHEAT), MONOSODIUM GLUTAMATE, RED PEPPER POWDER, SPICE(RED PEPPER POWDER, BLACK PEPPER POWDER, GARLIC POWDER), ONION POWDER, GARLIC POWDER. FLAKE SOUP : DRIED ONION, DRIED GREEN ONION, DRIED MUSHROOM, DRIED CARROT, DRIED RED PEPPER POWDER." Date available: 07/14/2017 Date last updated by company: 07/14/2017
