Source: USDA Branded Food Products Database Release December 2017 Software v.3.8.6.4 2017-10-02
Report Run at: December 18, 2017 09:12 EST
"Nutrient data for: 45201814, HOT SAUCE, UPC: 017600021373"
Food Group:  Branded Food Products Database
Common Name:

Nutrient,Unit,Data points,Std. Error,"1 tsp = 5.0g",1Value per 100 g,
Proximates
"Energy",kcal,--,--,0,0
"Protein",g,--,--,0.00,0.00
"Total lipid (fat)",g,--,--,0.00,0.00
"Carbohydrate, by difference",g,--,--,0.00,0.00
Minerals
"Sodium, Na",mg,--,--,240,4800
Vitamins
"Vitamin C, total ascorbic acid",mg,--,--,24.0,480.0
"Vitamin A, IU",IU,--,--,1000,20000
Lipids
Amino Acids
Other
Ingredients
"PEPPERS, VINEGAR AND SALT." Date available: 06/25/2017 Date last updated by company: 06/25/2017
