Source: USDA Branded Food Products Database Release December 2017 Software v.3.8.6.4 2017-10-02
Report Run at: December 18, 2017 09:15 EST
"Nutrient data for: 45054583, HOT SLICED JALAPENO PEPPER, UPC: 078911124856"
Food Group:  Branded Food Products Database
Common Name:

Nutrient,Unit,Data points,Std. Error,"7.0 PIECES = 28.0g",1Value per 100 g,
Proximates
"Energy",kcal,--,--,0,0
"Protein",g,--,--,0.00,0.00
"Total lipid (fat)",g,--,--,0.00,0.00
"Carbohydrate, by difference",g,--,--,1.00,3.57
"Sugars, total",g,--,--,0.00,0.00
Minerals
"Sodium, Na",mg,--,--,310,1107
Vitamins
Lipids
"Fatty acids, total trans",g,--,--,0.000,0.000
Amino Acids
Other
Ingredients
"INGREDIENTS: JALAPENO PEPPERS, WATER, DISTILLED VINEGAR, SALT, CALCIUM CHLORIDE, SODIUM BENZOATE AND SODIUM METABISULFITE (TO PRESERVE FRESHNESS), TURMERIC" Date available: 06/25/2017 Date last updated by company: 06/25/2017
