Source: USDA Branded Food Products Database Release December 2017 Software v.3.8.6.4 2017-10-02
Report Run at: December 18, 2017 08:50 EST
"Nutrient data for: 45055478, HOT CHOCOLATE SOUFFLE, UPC: 072036709943"
Food Group:  Branded Food Products Database
Common Name:

Nutrient,Unit,Data points,Std. Error,"1 SOUFFLE = 90.0g",1Value per 100 g,
Proximates
"Energy",kcal,--,--,400,444
"Protein",g,--,--,5.00,5.56
"Total lipid (fat)",g,--,--,25.00,27.78
"Carbohydrate, by difference",g,--,--,40.00,44.44
"Fiber, total dietary",g,--,--,2.0,2.2
"Sugars, total",g,--,--,29.00,32.22
Minerals
"Calcium, Ca",mg,--,--,40,44
"Iron, Fe",mg,--,--,2.40,2.67
"Sodium, Na",mg,--,--,260,289
Vitamins
"Vitamin C, total ascorbic acid",mg,--,--,0.0,0.0
"Vitamin A, IU",IU,--,--,667,741
Lipids
"Fatty acids, total saturated",g,--,--,15.003,16.670
"Fatty acids, total trans",g,--,--,0.504,0.560
"Cholesterol",mg,--,--,105,117
Amino Acids
Other
Ingredients
"BUTTER,LIQUID WHOLE EGGS, WHITE CHOCOLATE(SUGAR, COCOA BUTTER, DRY WHOLE MILK, DRY WHEY, SOY LECITHIN,NATURAL VANILLA EXTRACT), CHOCOLATE COOKIE CRUMB(ENRICHED FLOUR, SUGAR, CANOLA OIL, COCOA , SALT, SODIUM BICARBONATE), SEMI-SWEET CHOCOLATE(UNSWEETENED CHOCOLATE, SUGAR, ANHYDROUS DEXTROSE,SOY LECITHIN,NATURAL VANILLA EXTRACT), SUGAR, CREAM BLEND(CREAM, MILK, MICROCRYSTALLINE CELLULOSE, CARRAGEENAN, CELLULOSE GUM), ENRICHED FLOUR, LIQUID EGG WHITES, NATURAL VANILLA EXTRACT." Date available: 06/24/2017 Date last updated by company: 06/24/2017
