Source: USDA Branded Food Products Database Release December 2017 Software v.3.8.6.4 2017-10-02
Report Run at: December 18, 2017 09:09 EST
"Nutrient data for: 45283960, HOT PUB MIX, UPC: 725439202312"
Food Group:  Branded Food Products Database
Common Name:

Nutrient,Unit,Data points,Std. Error,"0.25 cup = 36.0g",1Value per 100 g,
Proximates
"Energy",kcal,--,--,140,389
"Protein",g,--,--,2.00,5.56
"Total lipid (fat)",g,--,--,9.00,25.00
"Carbohydrate, by difference",g,--,--,11.00,30.56
"Fiber, total dietary",g,--,--,1.0,2.8
"Sugars, total",g,--,--,5.00,13.89
Minerals
"Calcium, Ca",mg,--,--,20,56
"Iron, Fe",mg,--,--,0.50,1.39
"Sodium, Na",mg,--,--,160,444
Vitamins
"Vitamin C, total ascorbic acid",mg,--,--,0.0,0.0
"Vitamin A, IU",IU,--,--,0,0
Lipids
"Fatty acids, total saturated",g,--,--,2.002,5.560
"Fatty acids, total trans",g,--,--,0.000,0.000
"Cholesterol",mg,--,--,0,0
Amino Acids
Other
Ingredients
"PEANUTS, CORN STICKS (YELLOW CORN MASA, SOYBEAN OIL, SEASONING [MALTODEXTRIN, SALT, SPICES AND HERBS, ONION POWDER, TOMATO POWDER, GARLIC POWDER, NATURAL FLAVOR, GREEN PEPPER POWDER, MODIFIED CORN STARCH]), SUNFLOWER KERNELS, SESAME STICKS (ENRICHED WHEAT FLOUR [UNBLEACHED WHEAT FLOUR, MALTED BARLEY FLOUR, NIACIN, REDUCED IRON, THIAMINE MONONITRATE, RIBOFLAVIN, FOLIC ACID), SOYBEAN OIL, SESAME SEEDS, BULGUR WHEAT, SALT, BEET POWDER AND TURMERIC [FOR COLOR]), PUMPKIN KERNELS, ALMONDS, COTTONSEED AND PEANUT OILS, SALT, CAYENNE PEPPER, ANNATTO POWDER." Date available: 07/14/2017 Date last updated by company: 07/14/2017
