Source: USDA Branded Food Products Database Release December 2017 Software v.3.8.6.4 2017-10-02
Report Run at: December 18, 2017 08:59 EST
"Nutrient data for: 45329218, HOT DOG BUNS, UPC: 233550902696"
Food Group:  Branded Food Products Database
Common Name:

Nutrient,Unit,Data points,Std. Error,"1 ROLL = 45.0g",1Value per 100 g,
Proximates
"Energy",kcal,--,--,150,333
"Protein",g,--,--,5.00,11.11
"Total lipid (fat)",g,--,--,3.00,6.67
"Carbohydrate, by difference",g,--,--,26.00,57.78
"Fiber, total dietary",g,--,--,1.0,2.2
"Sugars, total",g,--,--,4.00,8.89
Minerals
"Calcium, Ca",mg,--,--,20,44
"Iron, Fe",mg,--,--,1.60,3.56
"Sodium, Na",mg,--,--,220,489
Vitamins
"Vitamin C, total ascorbic acid",mg,--,--,0.0,0.0
"Vitamin A, IU",IU,--,--,0,0
Lipids
"Fatty acids, total saturated",g,--,--,0.500,1.110
"Fatty acids, total trans",g,--,--,0.000,0.000
"Cholesterol",mg,--,--,5,11
Amino Acids
Other
Ingredients
"ENRICHED BLEACHED FLOUR (WHEAT FLOUR, MALTED BARLEY FLOUR, NIACIN, REDUCED IRON, THIAMIN MONONITRATE, RIBOFLAVIN, FOLIC ACID) WATER, SUGAR, YEAST, SOYBEAN OIL, EGGS, DOUGH IMPROVER (SOY FLOUR, MALTODEXTRIN, DEXTROSE, PROPYLENE GLYCOL, ALGINATE, SOY LECITHIN, BETA-CAROTENE) SALT, MONO-DIGLYCERIDES, TBHQ AND CITRIC ACID, SODIUM STEAROYL LACTYLATE, DOUGH IMPROVER (CORN FLOUR, SPICE, AND COLORING, MONO-DIGLYCERIDES, CONTAINS 2% OR LESS OF: SOY LECITHIN, NATURAL AND ARTIFICIAL FLAVORS), CALCIUM PROPIONATE (PRESERVATIVE), DOUGH CONDITIONER (FLOUR, ASCORBIC ACID, WHEAT GLUTEN, ENZYMES)." Date available: 10/13/2017 Date last updated by company: 10/13/2017
