Source: USDA Branded Food Products Database Release December 2017 Software v.3.8.6.4 2017-10-02
Report Run at: December 18, 2017 09:00 EST
"Nutrient data for: 45086129, HOT DOG RELISH, UPC: 713733796422"
Food Group:  Branded Food Products Database
Common Name:

Nutrient,Unit,Data points,Std. Error,"1 Tbsp = 15.0g",1Value per 100 g,
Proximates
"Energy",kcal,--,--,20,133
"Protein",g,--,--,0.00,0.00
"Total lipid (fat)",g,--,--,0.00,0.00
"Carbohydrate, by difference",g,--,--,4.00,26.67
"Sugars, total",g,--,--,3.00,20.00
Minerals
"Sodium, Na",mg,--,--,150,1000
Vitamins
Lipids
Amino Acids
Other
Ingredients
"CUCUMBERS, PREPARED MUSTARD (WATER, VINEGAR, MUSTARD SEED, SALT, TURMERIC), HIGH FRUCTOSE CORN SYRUP, CORN SYRUP, VINEGAR, SALT, NATURAL FLAVORS, ONION, CALCIUM CHLORIDE, 0.1% SODIUM BENZOATE (PRESERVATIVE), ALUM, RED BELL PEPPER, XANTHAN GUM, YELLOW 5, AND POLYSORBATE 80." Date available: 07/14/2017 Date last updated by company: 07/14/2017
