Source: USDA Branded Food Products Database Release December 2017 Software v.3.8.6.4 2017-10-02
Report Run at: December 18, 2017 08:53 EST
"Nutrient data for: 45282399, HOT COCOA MIX, UPC: 011225041716"
Food Group:  Branded Food Products Database
Common Name:

Nutrient,Unit,Data points,Std. Error,"1 POUCH, 6 FL OZ (180ML) PREPARED = 15.0g",1Value per 100 g,
Proximates
"Energy",kcal,--,--,50,333
"Protein",g,--,--,3.00,20.00
"Total lipid (fat)",g,--,--,0.00,0.00
"Carbohydrate, by difference",g,--,--,10.00,66.67
"Fiber, total dietary",g,--,--,1.0,6.7
"Sugars, total",g,--,--,7.00,46.67
Minerals
"Calcium, Ca",mg,--,--,150,1000
"Iron, Fe",mg,--,--,2.40,16.00
"Sodium, Na",mg,--,--,150,1000
Vitamins
"Vitamin C, total ascorbic acid",mg,--,--,0.0,0.0
"Vitamin A, IU",IU,--,--,0,0
Lipids
"Fatty acids, total saturated",g,--,--,0.000,0.000
"Fatty acids, total trans",g,--,--,0.000,0.000
"Cholesterol",mg,--,--,0,0
Amino Acids
Other
Ingredients
"NONFAT MILK, *DAIRY PRODUCT SOLIDS, COCOA (PROCESSED WITH ALKALI), *MALTODEXTRIN, CONTAINS 2% OR LESS OF: SALT, TRICALCIUM PHOSPHATE, ASPARTAME, CARRAGEENAN, *DEXTRIN, ARTIFICIAL FLAVOR." Date available: 08/11/2017 Date last updated by company: 08/11/2017
