Source: USDA Branded Food Products Database Release December 2017 Software v.3.8.6.4 2017-10-02
Report Run at: December 18, 2017 09:10 EST
"Nutrient data for: 45199603, HOT SALSA, UPC: 617135525645"
Food Group:  Branded Food Products Database
Common Name:

Nutrient,Unit,Data points,Std. Error,"1 Tbsp = 15.0g",1Value per 100 g,
Proximates
"Energy",kcal,--,--,5,33
"Protein",g,--,--,0.00,0.00
"Total lipid (fat)",g,--,--,0.00,0.00
"Carbohydrate, by difference",g,--,--,2.00,13.33
"Sugars, total",g,--,--,1.00,6.67
Minerals
"Sodium, Na",mg,--,--,20,133
Vitamins
"Vitamin C, total ascorbic acid",mg,--,--,8.1,54.1
Lipids
"Fatty acids, total trans",g,--,--,0.000,0.000
Amino Acids
Other
Ingredients
"TOMATOES, HOT PEPPERS, ONIONS, WATER, VINEGAR, SUGAR, SALT, SPICES." Date available: 10/19/2017 Date last updated by company: 10/19/2017
