Source: USDA Branded Food Products Database Release December 2017 Software v.3.8.6.4 2017-10-02
Report Run at: December 18, 2017 09:16 EST
"Nutrient data for: 45324164, HOT & SOUR CLEAR SOUP CONCENTRATED, UPC: 840965001397"
Food Group:  Branded Food Products Database
Common Name:

Nutrient,Unit,Data points,Std. Error,"0.2 PACK = 50.0g",1Value per 100 g,
Proximates
"Energy",kcal,--,--,33,66
"Protein",g,--,--,1.00,2.00
"Total lipid (fat)",g,--,--,1.00,2.00
"Carbohydrate, by difference",g,--,--,5.00,10.00
"Fiber, total dietary",g,--,--,1.0,2.0
"Sugars, total",g,--,--,1.00,2.00
Minerals
"Calcium, Ca",mg,--,--,130,260
"Iron, Fe",mg,--,--,0.88,1.76
"Sodium, Na",mg,--,--,585,1170
Vitamins
"Vitamin C, total ascorbic acid",mg,--,--,8.8,17.6
"Vitamin A, IU",IU,--,--,490,980
Lipids
"Fatty acids, total saturated",g,--,--,0.000,0.000
"Fatty acids, total trans",g,--,--,0.000,0.000
"Cholesterol",mg,--,--,0,0
Amino Acids
Other
Ingredients
"WATER, TOMATO PUREE (10%), ONION, CARROT, CABBAGE, CAPSICUM, KNOL-KHOL, SALT, CORN FLOUR, SPRING ONION, SUGAR, GARLIC PASTE, REFINED SUNFLOWER OIL, SOYA SAUCE, GREEN CHILLI, ALL SPICE POWDER, RED CHILLI POWDER, BLACK PEPPER, STAR ANISE." Date available: 08/10/2017 Date last updated by company: 08/10/2017
