Source: USDA Branded Food Products Database Release December 2017 Software v.3.8.6.4 2017-10-02
Report Run at: December 18, 2017 09:16 EST
"Nutrient data for: 45272549, HOT SMOKED SALMON, UPC: 041498234898"
Food Group:  Branded Food Products Database
Common Name:

Nutrient,Unit,Data points,Std. Error,"56.0 GRM = 56.0g",1Value per 100 g,
Proximates
"Energy",kcal,--,--,100,179
"Protein",g,--,--,13.00,23.21
"Total lipid (fat)",g,--,--,4.50,8.04
"Carbohydrate, by difference",g,--,--,1.00,1.79
"Fiber, total dietary",g,--,--,0.0,0.0
"Sugars, total",g,--,--,1.00,1.79
Minerals
"Calcium, Ca",mg,--,--,0,0
"Iron, Fe",mg,--,--,0.00,0.00
"Sodium, Na",mg,--,--,570,1018
Vitamins
"Vitamin C, total ascorbic acid",mg,--,--,0.0,0.0
"Vitamin A, IU",IU,--,--,98,175
Lipids
"Fatty acids, total saturated",g,--,--,1.002,1.790
"Fatty acids, total trans",g,--,--,0.000,0.000
"Cholesterol",mg,--,--,35,62
Amino Acids
Other
Ingredients
"COHO SALMON (COLOR ADDED), SALT, BROWN SUGAR, BLACK PEPPER, NATURAL HARDWOOD SMOKE." Date available: 07/14/2017 Date last updated by company: 07/14/2017
