Source: USDA Branded Food Products Database Release December 2017 Software v.3.8.6.4 2017-10-02
Report Run at: December 18, 2017 09:17 EST
"Nutrient data for: 45153770, HOT STUFF, LOLLIPOPS, CHERRY ARTIFICIALLY FLAVORED, UPC: 768395482930"
Food Group:  Branded Food Products Database
Common Name:

Nutrient,Unit,Data points,Std. Error,"2.0 LOLLIPOPS = 16.0g",1Value per 100 g,
Proximates
"Energy",kcal,--,--,60,375
"Protein",g,--,--,0.00,0.00
"Total lipid (fat)",g,--,--,0.00,0.00
"Carbohydrate, by difference",g,--,--,15.00,93.75
"Sugars, total",g,--,--,12.00,75.00
Minerals
"Sodium, Na",mg,--,--,0,0
Vitamins
Lipids
Amino Acids
Other
Ingredients
"SUGAR, CORN SYRUP, WATER, ISOMALT, LACTIC ACID, SODIUM LACTATE, CITRIC ACID, ARTIFICIAL FLAVORS, RED 3, RED 40, BLUE 1, YELLOW 5." Date available: 07/14/2017 Date last updated by company: 07/14/2017
