Source: USDA Branded Food Products Database Release December 2017 Software v.3.8.6.4 2017-10-02
Report Run at: December 18, 2017 08:51 EST
"Nutrient data for: 45093261, HOT COCOA MIX, UPC: 011225116957"
Food Group:  Branded Food Products Database
Common Name:

Nutrient,Unit,Data points,Std. Error,"1 POUCH 6 FL OZ (180ML) PREPARED = 28.0g",1Value per 100 g,
Proximates
"Energy",kcal,--,--,110,393
"Protein",g,--,--,2.00,7.14
"Total lipid (fat)",g,--,--,0.50,1.79
"Carbohydrate, by difference",g,--,--,23.00,82.14
"Fiber, total dietary",g,--,--,1.0,3.6
"Sugars, total",g,--,--,22.00,78.57
Minerals
"Calcium, Ca",mg,--,--,150,536
"Iron, Fe",mg,--,--,0.97,3.45
"Potassium, K",mg,--,--,300,1071
"Sodium, Na",mg,--,--,150,536
Vitamins
"Vitamin C, total ascorbic acid",mg,--,--,0.0,0.0
"Vitamin A, IU",IU,--,--,0,0
Lipids
"Fatty acids, total saturated",g,--,--,0.501,1.790
"Fatty acids, total trans",g,--,--,0.000,0.000
"Cholesterol",mg,--,--,0,0
Amino Acids
Other
Ingredients
"SUGAR, WHEY, COCOA (PROCESSED WITH ALKALI), CORN SYRUP SOLIDS. CONTAINS 2% OR LESS OF EACH OF THE FOLLOWING: COCONUT OIL, WHEY PROTEIN CONCENTRATE, NONFAT MILK, TRICALCIUM PHOSPHATE, SODIUM CASEINATE, ANTI-CAKING AGENT (SILICON DIOXIDE), DIPOTASSIUM PHOSPHATE, MONO AND DIGLYCERIDES, ANNATTO EXTRACT, TURMERIC EXTRACT, ARTIFICIAL FLAVOR." Date available: 08/24/2017 Date last updated by company: 08/24/2017
