Source: USDA Branded Food Products Database Release December 2017 Software v.3.8.6.4 2017-10-02
Report Run at: December 18, 2017 08:49 EST
"Nutrient data for: 45134121, Hot Chocolate, Liquid - #2.5 Can, UNPREPARED, GTIN: 00027000219102"
Food Group:  Branded Food Products Database
Common Name:

Nutrient,Unit,Data points,Std. Error,"1.33 fluid ounces (38g) = 38.0g",1Value per 100 g,
Proximates
"Energy",kcal,--,--,120,316
"Protein",g,--,--,1.00,2.63
"Total lipid (fat)",g,--,--,1.50,3.95
"Carbohydrate, by difference",g,--,--,26.00,68.42
"Fiber, total dietary",g,--,--,1.0,2.6
"Sugars, total",g,--,--,25.00,65.79
Minerals
"Calcium, Ca",mg,--,--,40,105
"Iron, Fe",mg,--,--,0.72,1.89
"Potassium, K",mg,--,--,240,632
"Sodium, Na",mg,--,--,200,526
Vitamins
"Vitamin C, total ascorbic acid",mg,--,--,0.0,0.0
"Vitamin A, IU",IU,--,--,0,0
Lipids
"Fatty acids, total saturated",g,--,--,0.502,1.320
"Fatty acids, total monounsaturated",g,--,--,0.502,1.320
"Fatty acids, total polyunsaturated",g,--,--,0.000,0.000
"Fatty acids, total trans",g,--,--,0.000,0.000
"Cholesterol",mg,--,--,0,0
Amino Acids
Other
Ingredients
"High Fructose Corn Syrup, Sugar, Nonfat Milk, Cocoa (Processed with Alkali), Palm Oil, less than 2% of: Salt, Potassium Sorbate (Preservative), Disodium Phosphate, Hydroxylated Soy Lecithin, Chocolate Liquor, Artificial Flavors, Invert Sugar, Natural Flavors, Caramel Color. CONTAINS: MILK, SOY." Date available: 10/12/2017 Date last updated by company: 10/12/2017
