Source: USDA Branded Food Products Database Release December 2017 Software v.3.8.6.4 2017-10-02
Report Run at: December 18, 2017 09:23 EST
"Nutrient data for: 45233303, HOUSE VINAIGRETTE, WITH WHOLE GARLIC CLOVES, CIDER VINEGAR & SPECIAL SPICES, UPC: 041498114657"
Food Group:  Branded Food Products Database
Common Name:

Nutrient,Unit,Data points,Std. Error,"2.0 Tbsp = 30.0g",1Value per 100 g,
Proximates
"Energy",kcal,--,--,110,367
"Protein",g,--,--,0.00,0.00
"Total lipid (fat)",g,--,--,9.00,30.00
"Carbohydrate, by difference",g,--,--,7.00,23.33
"Sugars, total",g,--,--,6.00,20.00
Minerals
"Sodium, Na",mg,--,--,130,433
Vitamins
Lipids
"Fatty acids, total saturated",g,--,--,0.501,1.670
Amino Acids
Other
Ingredients
"CIDER VINEGAR, EXPELLER-PRESSED CANOLA OIL, EVAPORATED CANE SUGAR, WATER, GARLIC CLOVES, DIJON MUSTARD (DISTILLED VINEGAR, WATER, MUSTARD SEED, SALT, WHITE WINE, CITRIC ACID, TURMERIC, TARTARIC ACID, SPICES), SEA SALT, BLACK PEPPER, GARLIC POWDER, BASIL, OREGANO, SODIUM ALGINATE." Date available: 07/14/2017 Date last updated by company: 07/14/2017
