Source: USDA Branded Food Products Database Release December 2017 Software v.3.8.6.4 2017-10-02
Report Run at: December 18, 2017 09:21 EST
"Nutrient data for: 45160230, HOUSE OF DORCHESTER, DARK CHOCOLATE CARAMEL SQUARES, UPC: 029806018293"
Food Group:  Branded Food Products Database
Common Name:

Nutrient,Unit,Data points,Std. Error,"1 PIECE = 13.0g",1Value per 100 g,
Proximates
"Energy",kcal,--,--,70,538
"Protein",g,--,--,1.00,7.69
"Total lipid (fat)",g,--,--,4.50,34.62
"Carbohydrate, by difference",g,--,--,6.00,46.15
"Fiber, total dietary",g,--,--,1.0,7.7
"Sugars, total",g,--,--,5.00,38.46
Minerals
"Calcium, Ca",mg,--,--,0,0
"Iron, Fe",mg,--,--,1.08,8.31
"Sodium, Na",mg,--,--,10,77
Vitamins
"Vitamin C, total ascorbic acid",mg,--,--,0.0,0.0
"Vitamin A, IU",IU,--,--,0,0
Lipids
"Fatty acids, total saturated",g,--,--,2.500,19.230
"Fatty acids, total trans",g,--,--,0.000,0.000
"Cholesterol",mg,--,--,0,0
Amino Acids
Other
Ingredients
"UNSWEETENED CHOCOLATE, SUGAR, GLUCOSE SYRUP (WHEAT & SULFITES), SWEETENED CONDENSED NON-FAT MILK (NON-FAT MILK, SUGAR), PALM OIL, BUTTER (MILK FAT, WATER, SALT), SOY LECITHIN & MONO- AND DI-GLYCERIDES OF FAT-FORMING ACIDS AS EMULSIFIER, INVERT SUGAR SYRUP, SALT, PECTIN ADDED AS STABILIZER." Date available: 09/23/2016 Date last updated by company: 09/23/2016
