Source: USDA Branded Food Products Database Release December 2017 Software v.3.8.6.4 2017-10-02
Report Run at: December 18, 2017 09:25 EST
"Nutrient data for: 45129287, HSW Turkey Neck Pieces Family Pack, UNPREPARED, GTIN: 90642205509952"
Food Group:  Branded Food Products Database
Common Name:

Nutrient,Unit,Data points,Std. Error,"4.0 oz = 112.0g",1Value per 100 g,
Proximates
"Energy",kcal,--,--,150,134
"Protein",g,--,--,23.00,20.54
"Total lipid (fat)",g,--,--,6.00,5.36
"Carbohydrate, by difference",g,--,--,0.00,0.00
"Fiber, total dietary",g,--,--,0.0,0.0
"Sugars, total",g,--,--,0.00,0.00
Minerals
"Calcium, Ca",mg,--,--,40,36
"Iron, Fe",mg,--,--,1.80,1.61
"Sodium, Na",mg,--,--,105,94
Vitamins
"Vitamin C, total ascorbic acid",mg,--,--,0.0,0.0
"Vitamin A, IU",IU,--,--,0,0
Lipids
"Fatty acids, total saturated",g,--,--,2.005,1.790
"Fatty acids, total trans",g,--,--,0.000,0.000
"Cholesterol",mg,--,--,90,80
Amino Acids
Other
Ingredients
"Turkey Necks" Date available: 06/05/2016 Date last updated by company: 08/12/2016
