Source: USDA Branded Food Products Database Release December 2017 Software v.3.8.6.4 2017-10-02
Report Run at: December 18, 2017 09:25 EST
"Nutrient data for: 45129292, HSW Frozen Young Turkey 9.5% Sln 14-16 Timer/Netted, UNPREPARED, GTIN: 90642205512235"
Food Group:  Branded Food Products Database
Common Name:

Nutrient,Unit,Data points,Std. Error,"4.0 oz. = 112.0g",1Value per 100 g,
Proximates
"Protein",g,--,--,22.00,19.64
"Total lipid (fat)",g,--,--,6.00,5.36
"Carbohydrate, by difference",g,--,--,0.00,0.00
"Fiber, total dietary",g,--,--,0.0,0.0
"Sugars, total",g,--,--,0.00,0.00
Minerals
"Calcium, Ca",mg,--,--,20,18
"Iron, Fe",mg,--,--,0.72,0.64
"Sodium, Na",mg,--,--,200,179
Vitamins
"Vitamin C, total ascorbic acid",mg,--,--,0.0,0.0
"Vitamin A, IU",IU,--,--,100,89
Lipids
"Fatty acids, total saturated",g,--,--,1.501,1.340
"Fatty acids, total trans",g,--,--,0.000,0.000
"Cholesterol",mg,--,--,75,67
Amino Acids
Other
Ingredients
"Contains 9.5% Turkey Broth, Salt, Sugar, Natural Flavoring." Date available: 06/06/2016 Date last updated by company: 06/20/2016
