Source: USDA Branded Food Products Database Release December 2017 Software v.3.8.6.4 2017-10-02
Report Run at: December 18, 2017 09:27 EST
"Nutrient data for: 45233403, HT TRADERS, LIGHT COCONUT MILK, UPC: 072036761231"
Food Group:  Branded Food Products Database
Common Name:

Nutrient,Unit,Data points,Std. Error,"0.5 cup = 100.0g",1Value per 100 g,
Proximates
"Energy",kcal,--,--,60,60
"Protein",g,--,--,1.00,1.00
"Total lipid (fat)",g,--,--,6.00,6.00
"Carbohydrate, by difference",g,--,--,1.00,1.00
"Fiber, total dietary",g,--,--,0.0,0.0
"Sugars, total",g,--,--,1.00,1.00
Minerals
"Calcium, Ca",mg,--,--,0,0
"Iron, Fe",mg,--,--,0.86,0.86
"Sodium, Na",mg,--,--,20,20
Vitamins
"Vitamin C, total ascorbic acid",mg,--,--,0.0,0.0
"Vitamin A, IU",IU,--,--,0,0
Lipids
"Fatty acids, total saturated",g,--,--,5.000,5.000
"Fatty acids, total trans",g,--,--,0.000,0.000
"Cholesterol",mg,--,--,0,0
Amino Acids
Other
Ingredients
"COCONUT MILK, WATER, MICROCRYSTALLINE CELLULOSE, POTASSIUM METABISULFITE (AS A PRESERVATIVE)." Date available: 07/14/2017 Date last updated by company: 07/14/2017
