Source: USDA Branded Food Products Database Release December 2017 Software v.3.8.6.4 2017-10-02
Report Run at: December 18, 2017 09:26 EST
"Nutrient data for: 45004913, HT TRADERS, COOKIES, CARAMEL COOKIES, UPC: 072036705273"
Food Group:  Branded Food Products Database
Common Name:

Nutrient,Unit,Data points,Std. Error,"3.0 COOKIES = 30.0g",1Value per 100 g,
Proximates
"Energy",kcal,--,--,140,467
"Protein",g,--,--,2.00,6.67
"Total lipid (fat)",g,--,--,7.00,23.33
"Carbohydrate, by difference",g,--,--,16.00,53.33
"Fiber, total dietary",g,--,--,1.0,3.3
"Sugars, total",g,--,--,9.00,30.00
Minerals
"Calcium, Ca",mg,--,--,20,67
"Iron, Fe",mg,--,--,1.80,6.00
"Sodium, Na",mg,--,--,90,300
Vitamins
"Vitamin C, total ascorbic acid",mg,--,--,4.0,13.3
"Vitamin A, IU",IU,--,--,334,1112
Lipids
"Fatty acids, total saturated",g,--,--,2.499,8.330
"Fatty acids, total trans",g,--,--,0.000,0.000
"Cholesterol",mg,--,--,15,50
Amino Acids
Other
Ingredients
"UNBLEACHED ENRICHED FLOUR (WHEAT FLOUR, NIACIN, REDUCED IRON, THIAMINE MONONITRATE, RIBOFLAVIN, FOLIC ACID), CASHEWS, CARAMEL CHIPS (SUGAR, PALM KERNEL AND PALM FRUIT OIL, NONFAT DRY MILK SOLIDS, WHOLE MILK SOLIDS, CARAMEL COLOR, BETA CAROTENE AND ANNATTO [FOR COLOR], SOY LECITHIN, SALT, NATURAL FLAVORS), BUTTER (CREAM [MILK], SALT), GRANULATED SUGAR, WHOLE EGGS, NATURAL FLAVOR, BAKING SODA, SALT, BAKING POWDER." Date available: 07/14/2017 Date last updated by company: 07/14/2017
