Source: USDA Branded Food Products Database Release December 2017 Software v.3.8.6.4 2017-10-02
Report Run at: December 18, 2017 09:46 EST
"Nutrient data for: 45091113, HU, SALTY CHOCOLATE BAR, UPC: 010001210551"
Food Group:  Branded Food Products Database
Common Name:

Nutrient,Unit,Data points,Std. Error,"30.0 GRM = 30.0g",1Value per 100 g,
Proximates
"Energy",kcal,--,--,160,533
"Protein",g,--,--,2.00,6.67
"Total lipid (fat)",g,--,--,13.00,43.33
"Carbohydrate, by difference",g,--,--,14.00,46.67
"Fiber, total dietary",g,--,--,3.0,10.0
"Sugars, total",g,--,--,9.00,30.00
Minerals
"Calcium, Ca",mg,--,--,20,67
"Iron, Fe",mg,--,--,4.50,15.00
"Sodium, Na",mg,--,--,120,400
Vitamins
"Vitamin C, total ascorbic acid",mg,--,--,0.0,0.0
"Vitamin A, IU",IU,--,--,0,0
Lipids
"Fatty acids, total saturated",g,--,--,8.001,26.670
"Fatty acids, total trans",g,--,--,0.000,0.000
"Cholesterol",mg,--,--,0,0
Amino Acids
Other
Ingredients
"CACAO, ORGANIC COCONUT SUGAR, SEA SALT" Date available: 06/25/2017 Date last updated by company: 06/25/2017
