Source: USDA Branded Food Products Database Release December 2017 Software v.3.8.6.4 2017-10-02
Report Run at: December 18, 2017 09:30 EST
"Nutrient data for: 45137875, HUBERT'S, LEMONADE, BLACKBERRY, UPC: 070847016304"
Food Group:  Branded Food Products Database
Common Name:

Nutrient,Unit,Data points,Std. Error,"8.0 OZA = 237.0g",1Value per 100 g,
Proximates
"Energy",kcal,--,--,59,25
"Protein",g,--,--,0.00,0.00
"Total lipid (fat)",g,--,--,0.00,0.00
"Carbohydrate, by difference",g,--,--,16.00,6.75
"Sugars, total",g,--,--,14.01,5.91
Minerals
"Calcium, Ca",mg,--,--,0,0
"Iron, Fe",mg,--,--,0.00,0.00
"Sodium, Na",mg,--,--,0,0
Vitamins
"Vitamin C, total ascorbic acid",mg,--,--,9.0,3.8
"Vitamin A, IU",IU,--,--,0,0
Lipids
Amino Acids
Other
Ingredients
"PURE FILTERED WATER, CANE SUGAR, NATURAL LEMON JUICE CONCENTRATE, CITRIC ACID, FRUIT & VEGETABLE JUICE (FOR COLOR). STEVIA LEAF EXTRACT, NATURAL FLAVOR (EXTRACTS OF BLACKBERRIES)." Date available: 07/14/2017 Date last updated by company: 07/14/2017
