Source: USDA Branded Food Products Database Release December 2017 Software v.3.8.6.4 2017-10-02
Report Run at: December 18, 2017 09:30 EST
"Nutrient data for: 45137868, HUBERT'S LEMONADE, DIET LEMONADE, ORIGINAL, UPC: 070847016144"
Food Group:  Branded Food Products Database
Common Name:

Nutrient,Unit,Data points,Std. Error,"8.0 OZA = 237.0g",1Value per 100 g,
Proximates
"Energy",kcal,--,--,9,4
"Protein",g,--,--,0.00,0.00
"Total lipid (fat)",g,--,--,0.00,0.00
"Carbohydrate, by difference",g,--,--,6.99,2.95
"Sugars, total",g,--,--,1.99,0.84
Minerals
"Sodium, Na",mg,--,--,0,0
Vitamins
"Vitamin C, total ascorbic acid",mg,--,--,6.2,2.6
Lipids
Amino Acids
Other
Ingredients
"PURE FILTERED WATER, ERYTHRITOL, NATURAL LEMON JUICE CONCENTRATE, CANE SUGAR, CITRIC ACID, NATURAL FLAVORS (EXTRACTS OF LEMONS), STEVIA LEAF EXTRACT, MONK FRUIT EXTRACT." Date available: 07/14/2017 Date last updated by company: 07/14/2017
