Source: USDA Branded Food Products Database Release December 2017 Software v.3.8.6.4 2017-10-02
Report Run at: December 18, 2017 09:35 EST
"Nutrient data for: 45331275, HUMMUS SNACK BREAK, UPC: 046828210276"
Food Group:  Branded Food Products Database
Common Name:

Nutrient,Unit,Data points,Std. Error,"198.0 GRM = 198.0g",1Value per 100 g,
Proximates
"Energy",kcal,--,--,341,172
"Protein",g,--,--,11.01,5.56
"Total lipid (fat)",g,--,--,19.01,9.60
"Carbohydrate, by difference",g,--,--,33.01,16.67
"Fiber, total dietary",g,--,--,2.0,1.0
"Sugars, total",g,--,--,3.01,1.52
Minerals
"Calcium, Ca",mg,--,--,73,37
"Iron, Fe",mg,--,--,2.00,1.01
"Potassium, K",mg,--,--,224,113
"Sodium, Na",mg,--,--,620,313
Vitamins
"Vitamin D",IU,--,--,0,0
Lipids
"Fatty acids, total saturated",g,--,--,2.000,1.010
"Fatty acids, total trans",g,--,--,0.000,0.000
"Cholesterol",mg,--,--,0,0
Amino Acids
Other
Ingredients
"HUMMUS [FRESH STEAMED CHICKPEAS, SUNFLOWER OIL, OLIVE OIL, SESAME TAHINI, WATER, SEA SALT, CITRIC ACID, ROASTED GARLIC, GUAR GUM, CUMIN], FRESH CELERY, FRESH CARROTS, PITA BREAD [WHOLE GRAIN WHEAT FLOUR INCLUDING GERM, FILTERED WATER, MULTIGRAIN MIX (CRACKED WHEAT, CRACKED RYE, CRUSHED FLAX SEEDS, MILLET MEAL, CRACKED TRITICALE, BARLEY GRITS, SUNFLOWER SEEDS, ROLLED OATS, DURUM SEMOLINA), SOUR DOUGH (ORGANIC UNBLEACHED FLOUR [WHEAT FLOUR, NIACIN, VITAMIN B-3], THIAMIN MONONITRATE [VITAMIN B-1], RIBOFLAVIN [VITAMIN B-2], FOLIC ACID, FILTERED WATER, YEAST, SEA SALT, SUNFLOWER OIL), ORGANIC CANE SUGAR, CRUSHED FLAX SEEDS, YEAST, ROLLED OATS, MILLET, SEA SALT, SUNFLOWER OIL, CULTURED WHEAT STARCH, CITRIC ACID, AMYLASE (ENZYME), ASCORBIC ACID (NATURAL DOUGH CONDITIONER)], FRESH PARSLEY." Date available: 10/13/2017 Date last updated by company: 10/13/2017
