Source: USDA Branded Food Products Database Release December 2017 Software v.3.8.6.4 2017-10-02
Report Run at: December 18, 2017 09:39 EST
"Nutrient data for: 45187850, HUMPHRY SLOCOMBE, ICE CREAM, TAHITIAN V*N!LL @, UPC: 855544006205"
Food Group:  Branded Food Products Database
Common Name:

Nutrient,Unit,Data points,Std. Error,"0.5 cup = 100.0g",1Value per 100 g,
Proximates
"Energy",kcal,--,--,190,190
"Protein",g,--,--,3.00,3.00
"Total lipid (fat)",g,--,--,12.00,12.00
"Carbohydrate, by difference",g,--,--,17.00,17.00
"Fiber, total dietary",g,--,--,0.0,0.0
"Sugars, total",g,--,--,16.00,16.00
Minerals
"Calcium, Ca",mg,--,--,100,100
"Iron, Fe",mg,--,--,0.00,0.00
"Sodium, Na",mg,--,--,130,130
Vitamins
"Vitamin C, total ascorbic acid",mg,--,--,0.0,0.0
"Vitamin A, IU",IU,--,--,562,562
Lipids
"Fatty acids, total saturated",g,--,--,8.000,8.000
"Fatty acids, total trans",g,--,--,0.000,0.000
"Cholesterol",mg,--,--,60,60
Amino Acids
Other
Ingredients
"ICE CREAM BASE (CREAM, NONFAT MILK, SUGAR, EGG YOLK, BUTTERMILK), CREAM, SUGAR, MALT POWDER (WHEAT FLOUR, MALTED BARLEY EXTRACTS, DRY WHOLE MILK, SALT, SODIUM BICARBONATE), VANILLA EXTRACT (WATER, ALCOHOL, SUGAR, VANILLA BEAN EXTRACTIVES), SALT, TAHITIAN VANILLA BEAN" Date available: 07/14/2017 Date last updated by company: 07/14/2017
