Source: USDA Branded Food Products Database Release December 2017 Software v.3.8.6.4 2017-10-02
Report Run at: December 18, 2017 09:39 EST
"Nutrient data for: 45272918, HUNGARIAN HOT & SWEET PEPPERS, UPC: 748252074782"
Food Group:  Branded Food Products Database
Common Name:

Nutrient,Unit,Data points,Std. Error,"2.0 Tbsp = 30.0g",1Value per 100 g,
Proximates
"Energy",kcal,--,--,230,767
"Protein",g,--,--,0.83,2.78
"Total lipid (fat)",g,--,--,24.00,80.00
"Carbohydrate, by difference",g,--,--,3.00,10.00
"Fiber, total dietary",g,--,--,0.8,2.8
Minerals
"Calcium, Ca",mg,--,--,10,33
"Iron, Fe",mg,--,--,0.30,1.00
"Sodium, Na",mg,--,--,100,333
Vitamins
"Vitamin C, total ascorbic acid",mg,--,--,11.0,36.7
"Vitamin A, IU",IU,--,--,166,555
Lipids
"Fatty acids, total saturated",g,--,--,1.800,6.000
"Fatty acids, total trans",g,--,--,0.000,0.000
"Cholesterol",mg,--,--,0,0
Amino Acids
Other
Ingredients
"HUNGARIAN HOT AND SWEET PEPPERS, GARLIC, CANOLA OIL, VINEGAR, SALT, OREGANO." Date available: 07/14/2017 Date last updated by company: 07/14/2017
