Source: USDA Branded Food Products Database Release December 2017 Software v.3.8.6.4 2017-10-02
Report Run at: December 18, 2017 09:40 EST
"Nutrient data for: 45262347, HUNGRY-MAN, POPCORN CHICKEN WITH SPICED RUB BBQ SAUCE, UPC: 658276202286"
Food Group:  Branded Food Products Database
Common Name:

Nutrient,Unit,Data points,Std. Error,"1 PACKAGE = 401.0g",1Value per 100 g,
Proximates
"Energy",kcal,--,--,730,182
"Protein",g,--,--,22.01,5.49
"Total lipid (fat)",g,--,--,31.00,7.73
"Carbohydrate, by difference",g,--,--,76.99,19.20
"Fiber, total dietary",g,--,--,6.8,1.7
"Sugars, total",g,--,--,29.99,7.48
Minerals
"Calcium, Ca",mg,--,--,148,37
"Iron, Fe",mg,--,--,2.21,0.55
"Sodium, Na",mg,--,--,1540,384
Vitamins
"Vitamin C, total ascorbic acid",mg,--,--,11.6,2.9
"Vitamin A, IU",IU,--,--,365,91
Lipids
"Fatty acids, total saturated",g,--,--,6.015,1.500
"Cholesterol",mg,--,--,80,20
Amino Acids
Other
Ingredients
"COOKED POPCORN SHAPED BREADED WHITE MEAT CHICKEN PATTIES (COOKED WHITE MEAT CHICKEN, WATER, ENRICHED BLEACHED WHEAT FLOUR (NIACIN, REDUCED IRON, THIAMINE MONONITRATE, RIBOFLAVIN, FOLIC ACID), LEAVENING (SODIUM ACID PYROPHOSPHATE, SODIUM BICARBONATE), CONTAINS 2% OR LESS OF DEXTROSE, SALT, MONOGLYCERIDES, YEAST, DOUGH CONDITIONERS (ASCORBIC ACID, L-CYSTEINE MONOHYDROCHLORIDE), SPICE EXTRACTIVE, ENRICHED FLOUR (WHEAT FLOUR [NIACIN, REDUCED IRON, THIAMINE MONONITRATE, RIBOFLAVIN, FOLIC ACID]), VEGETABLE OIL (PARTIALLY HYDROGENATED SOYBEAN OIL [TBHQ AND CITRIC ACID TO PRESERVE FRESHNESS]), CHICKEN SKINS, SOY PROTEIN CONCENTRATE, SEASONING BLEND (GRANULATED ONION, GARLIC, SALT, SPICES, PAPRIKA), ISOLATED OAT PRODUCT, SODIUM PHOSPHATE, SALT, SPICE EXTRACT), MASHED POTATOES (WATER, DEHYDRATED POTATO FLAKES (POTATOES, MONO AND DIGLYCERIDES, SODIUM ACID PYROPHOSPHATE, CITRIC ACID), SEASONING SAUCE (VEGETABLE OIL (PARTIALLY HYDROGENATED SOYBEAN OIL [TBHQ AND CITRIC ACID TO PRESERVE FRESHNESS]), WATER, MONO AND DIGLYCERIDES WITH BHT AND CITRIC ACID TO PROTECT FLAVOR, BETA CAROTENE FOR COLOR (CORN OIL, DL-ALPHA-TOCOPHEROL)), CONTAINS 2% OR LESS OF: SALT, DRIED DAIRY BLEND (WHEY, CALCIUM CASEINATE)), SPICED RUM BBQ SAUCE (HIGH FRUCTOSE CORN SYRUP, TOMATO PUREE (WATER, TOMATO PASTE), MOLASSES, DISTILLED VINEGAR, SPICED RUM, SEASONING (SALT, NATURAL FLAVORS, SPICES, DEHYDRATED GARLIC, DEHYDRATED ONION, CITRIC ACID, CARAMEL COLOR, MALTODEXTRIN, SUGAR), MODIFIED CORN STARCH, METHYLCELLULOSE, XANTHAN GUM, DRIED EGG YOLKS), GREEN BEANS, SEASONING SAUCE (WATER, SUGAR, SEASONING SAUCE (VEGETABLE OIL (PARTIALLY HYDROGENATED SOYBEAN OIL [TBHQ AND CITRIC ACID TO PRESERVE FRESHNESS]), WATER, MONO AND DIGLYCERIDES WITH BHT AND CITRIC ACID TO PROTECT FLAVOR, BETA CAROTENE FOR COLOR (CORN OIL, DL-ALPHA-TOCOPHEROL)), SALT, VEGETABLE OIL (PARTIALLY HYDROGENATED SOYBEAN OIL [TBHQ AND CITRIC ACID TO PRESERVE FRESHNESS])). CONTAINS 2% OR LESS OF: SEASONING SAUCE (VEGETABLE OIL (PARTIALLY HYDROGENATED SOYBEAN OIL [TBHQ AND CITRIC ACID TO PRESERVE FRESHNESS]), WATER, MONO AND DIGLYCERIDES WITH BHT AND CITRIC ACID TO PROTECT FLAVOR, BETA CAROTENE FOR COLOR (CORN OIL, DL-ALPHA-TOCOPHEROL))." Date available: 09/15/2017 Date last updated by company: 09/15/2017
