Source: USDA Branded Food Products Database Release December 2017 Software v.3.8.6.4 2017-10-02
Report Run at: December 18, 2017 09:43 EST
"Nutrient data for: 45130661, HUNTS No Salt Crushed Tomatoes, UNPREPARED, GTIN: 00027000001028"
Food Group:  Branded Food Products Database
Common Name:

Nutrient,Unit,Data points,Std. Error,"0.5 cup (121g) = 121.0g",1Value per 100 g,
Proximates
"Energy",kcal,--,--,45,37
"Protein",g,--,--,2.00,1.65
"Total lipid (fat)",g,--,--,0.00,0.00
"Carbohydrate, by difference",g,--,--,9.00,7.44
"Fiber, total dietary",g,--,--,3.0,2.5
"Sugars, total",g,--,--,4.01,3.31
Minerals
"Calcium, Ca",mg,--,--,0,0
"Iron, Fe",mg,--,--,1.44,1.19
"Potassium, K",mg,--,--,370,306
"Sodium, Na",mg,--,--,15,12
Vitamins
"Vitamin C, total ascorbic acid",mg,--,--,6.0,5.0
"Vitamin A, IU",IU,--,--,500,413
Lipids
"Fatty acids, total saturated",g,--,--,0.000,0.000
"Fatty acids, total monounsaturated",g,--,--,0.000,0.000
"Fatty acids, total polyunsaturated",g,--,--,0.000,0.000
"Fatty acids, total trans",g,--,--,0.000,0.000
"Cholesterol",mg,--,--,0,0
Amino Acids
Other
Ingredients
"Unpeeled Tomatoes, Tomato Puree, Less than 2% of: Citric Acid." Date available: 10/12/2017 Date last updated by company: 10/12/2017
