Source: USDA Branded Food Products Database Release December 2017 Software v.3.8.6.4 2017-10-02
Report Run at: December 18, 2017 09:46 EST
"Nutrient data for: 45325853, HUSHPUPPY MIX, UPC: 073484144706"
Food Group:  Branded Food Products Database
Common Name:

Nutrient,Unit,Data points,Std. Error,"3.0 Tbsp = 31.0g",1Value per 100 g,
Proximates
"Energy",kcal,--,--,110,355
"Protein",g,--,--,2.00,6.45
"Total lipid (fat)",g,--,--,0.50,1.61
"Carbohydrate, by difference",g,--,--,24.00,77.42
"Fiber, total dietary",g,--,--,2.0,6.5
"Sugars, total",g,--,--,5.00,16.13
Minerals
"Calcium, Ca",mg,--,--,41,132
"Iron, Fe",mg,--,--,1.00,3.23
"Potassium, K",mg,--,--,93,300
"Sodium, Na",mg,--,--,330,1065
Vitamins
Lipids
"Fatty acids, total saturated",g,--,--,0.000,0.000
"Fatty acids, total trans",g,--,--,0.000,0.000
"Cholesterol",mg,--,--,0,0
Amino Acids
Other
Ingredients
"ENRICHED WHOLE GRAIN CORN MEAL (CORN, NIACIN, IRON, THIAMINE MONONITRATE, RIBOFLAVIN, FOLIC ACID), ENRICHED BLEACHED WHEAT FLOUR (FLOUR, NIACIN, IRON, THIAMINE MONONITRATE, RIBOFLAVIN, FOLIC ACID), SUGAR, ONION, SALT, SODIUM BICARBONATE, SODIUM ALUMINUM PHOSPHATE, MONOCALCIUM PHOSPHATE, WHEY (MILK), EGG, SOY FLOUR." Date available: 08/11/2017 Date last updated by company: 08/11/2017
