Source: USDA Branded Food Products Database Release December 2017 Software v.3.8.6.4 2017-10-02
Report Run at: December 18, 2017 09:46 EST
"Nutrient data for: 45045089, HUSK, GREEN BEANS FROM LOCAL INDIANA FARMS, UPC: 850738005026"
Food Group:  Branded Food Products Database
Common Name:

Nutrient,Unit,Data points,Std. Error,"1 cup = 121.0g",1Value per 100 g,
Proximates
"Energy",kcal,--,--,47,39
"Protein",g,--,--,2.00,1.65
"Total lipid (fat)",g,--,--,0.00,0.00
"Carbohydrate, by difference",g,--,--,9.00,7.44
"Fiber, total dietary",g,--,--,3.0,2.5
"Sugars, total",g,--,--,3.00,2.48
Minerals
"Calcium, Ca",mg,--,--,50,41
"Iron, Fe",mg,--,--,0.76,0.63
"Sodium, Na",mg,--,--,4,3
Vitamins
"Vitamin C, total ascorbic acid",mg,--,--,11.0,9.1
"Vitamin A, IU",IU,--,--,456,377
Lipids
"Fatty acids, total saturated",g,--,--,0.000,0.000
"Cholesterol",mg,--,--,0,0
Amino Acids
Other
Ingredients
"GREEN BEANS." Date available: 07/14/2017 Date last updated by company: 07/14/2017
