Source: USDA Branded Food Products Database Release December 2017 Software v.3.8.6.4 2017-10-02
Report Run at: December 18, 2017 09:47 EST
"Nutrient data for: 45129946, Huy Fong 10oz. Sriracha Diced Tomatoes & Red Chilies, UNPREPARED, GTIN: 00072940111184"
Food Group:  Branded Food Products Database
Common Name:

Nutrient,Unit,Data points,Std. Error,"0.5 Cup = 121.0g",1Value per 100 g,
Proximates
"Energy",kcal,--,--,40,33
"Protein",g,--,--,1.00,0.83
"Total lipid (fat)",g,--,--,0.00,0.00
"Carbohydrate, by difference",g,--,--,8.00,6.61
"Fiber, total dietary",g,--,--,2.1,1.7
"Sugars, total",g,--,--,7.01,5.79
Minerals
"Calcium, Ca",mg,--,--,21,17
"Iron, Fe",mg,--,--,0.36,0.30
"Potassium, K",mg,--,--,200,165
"Sodium, Na",mg,--,--,480,397
Vitamins
"Vitamin C, total ascorbic acid",mg,--,--,9.0,7.4
"Vitamin A, IU",IU,--,--,750,620
Lipids
"Fatty acids, total saturated",g,--,--,0.000,0.000
"Fatty acids, total trans",g,--,--,0.000,0.000
"Cholesterol",mg,--,--,0,0
Amino Acids
Other
Ingredients
"Tomatoes With Juice, Water, Chiles, Sugar, Salt, Dried Garlic, Vinegar, Natural Flavor, Spice, Huy Fong Foods Sriracha Hot Chili Sauce (Chili, Sugar, Salt, Garlic, Distilled Vinegar, Potassium Sorbate, Sodium Bisulfite as Preservatives, and Xanthan Gum), Citric Acid, Calcium Chloride." Date available: 10/19/2017 Date last updated by company: 10/19/2017
