Source: USDA Branded Food Products Database Release December 2017 Software v.3.8.6.4 2017-10-02
Report Run at: December 18, 2017 09:55 EST
"Nutrient data for: 45152481, HY-VEE, LEMONADE FRESH JUICE, UPC: 075450067774"
Food Group:  Branded Food Products Database
Common Name:

Nutrient,Unit,Data points,Std. Error,"8.0 OZA = 240.0g",1Value per 100 g,
Proximates
"Energy",kcal,--,--,91,38
"Protein",g,--,--,0.00,0.00
"Carbohydrate, by difference",g,--,--,22.01,9.17
"Fiber, total dietary",g,--,--,0.0,0.0
"Sugars, total",g,--,--,22.01,9.17
Minerals
"Calcium, Ca",mg,--,--,0,0
"Iron, Fe",mg,--,--,0.00,0.00
Vitamins
"Vitamin C, total ascorbic acid",mg,--,--,13.4,5.6
"Vitamin A, IU",IU,--,--,0,0
Lipids
Amino Acids
Other
Ingredients
"WATER, SUGAR, LEMON JUICE" Date available: 08/16/2017 Date last updated by company: 08/16/2017
