Source: USDA Branded Food Products Database Release December 2017 Software v.3.8.6.4 2017-10-02
Report Run at: December 18, 2017 09:54 EST
"Nutrient data for: 45144005, HY-VEE, KETTLE COOKED POTATO CHIPS, PUB MUSTARD, UPC: 075450228588"
Food Group:  Branded Food Products Database
Common Name:

Nutrient,Unit,Data points,Std. Error,"14.0 CHIPS | ABOUT = 28.0g",1Value per 100 g,
Proximates
"Energy",kcal,--,--,140,500
"Protein",g,--,--,2.00,7.14
"Total lipid (fat)",g,--,--,7.00,25.00
"Carbohydrate, by difference",g,--,--,17.00,60.71
"Fiber, total dietary",g,--,--,1.0,3.6
"Sugars, total",g,--,--,0.00,0.00
Minerals
"Calcium, Ca",mg,--,--,20,71
"Iron, Fe",mg,--,--,0.00,0.00
"Sodium, Na",mg,--,--,240,857
Vitamins
"Vitamin C, total ascorbic acid",mg,--,--,10.7,38.3
"Vitamin A, IU",IU,--,--,0,0
Lipids
"Fatty acids, total saturated",g,--,--,0.501,1.790
"Fatty acids, total trans",g,--,--,0.000,0.000
"Cholesterol",mg,--,--,0,0
Amino Acids
Other
Ingredients
"POTATOES, SUNFLOWER AND/OR CANOLA OIL, SUGAR, SALT, CONTAINS 2% OR LESS OF: NONFAT MILK, DEHYDRATED ONION, TOMATO, CORN MALTODEXTRIN, YEAST EXTRACT, DEHYDRATED GARLIC, SPICES, DIJON MUSTARD (DISTILLED VINEGAR, MUSTARD SEED, SALT, WHITE WINE, CITRIC ACID, TARTARIC ACID, SPICES), WORCESTERSHIRE SAUCE (MOLASSES, VINEGAR, CORN SYRUP, SALT, CARAMEL COLOR, GARLIC, SUGAR, SPICES, TAMARIND, NATURAL FLAVOR), NATURAL FLAVOR, CARAMEL COLOR, WHITE DISTILLED VINEGAR, EXTRACTIVES OF TURMERIC, GRILLED FLAVOR, MODIFIED CORN STARCH." Date available: 07/14/2017 Date last updated by company: 07/14/2017
