Source: USDA Branded Food Products Database Release December 2017 Software v.3.8.6.4 2017-10-02
Report Run at: December 18, 2017 10:01 EST
"Nutrient data for: 45195371, HY-VEE, WHIPPED TOPPING, PUMPKIN, UPC: 075450169263"
Food Group:  Branded Food Products Database
Common Name:

Nutrient,Unit,Data points,Std. Error,"2.0 Tbsp = 5.0g",1Value per 100 g,
Proximates
"Energy",kcal,--,--,15,300
"Protein",g,--,--,0.00,0.00
"Total lipid (fat)",g,--,--,1.00,20.00
"Carbohydrate, by difference",g,--,--,1.00,20.00
"Fiber, total dietary",g,--,--,0.0,0.0
"Sugars, total",g,--,--,1.00,20.00
Minerals
"Calcium, Ca",mg,--,--,0,0
"Iron, Fe",mg,--,--,0.00,0.00
"Sodium, Na",mg,--,--,0,0
Vitamins
"Vitamin C, total ascorbic acid",mg,--,--,0.0,0.0
"Vitamin A, IU",IU,--,--,0,0
Lipids
"Fatty acids, total saturated",g,--,--,0.500,10.000
"Fatty acids, total trans",g,--,--,0.000,0.000
"Cholesterol",mg,--,--,5,100
Amino Acids
Other
Ingredients
"CREAM, MILK, SUGAR, WATER, CORN SYRUP, CONTAINS LESS THAN 1% OF: MONO AND DIGLYCERIDES, CARRAGEENAN, NATURAL AND ARTIFICIAL FLAVOR, RED 40, YELLOW 5 & 6, BLUE 1, ANNATTO (COLOR). PROPELLANT: NITROUS OXIDE." Date available: 07/14/2017 Date last updated by company: 07/14/2017
