Source: USDA Branded Food Products Database Release December 2017 Software v.3.8.6.4 2017-10-02
Report Run at: December 18, 2017 09:53 EST
"Nutrient data for: 45224529, HY-VEE, HOT COCOA, SALTED CARAMEL, UPC: 075450125184"
Food Group:  Branded Food Products Database
Common Name:

Nutrient,Unit,Data points,Std. Error,"1 SINGLE SERVE CUP = 15.0g",1Value per 100 g,
Proximates
"Energy",kcal,--,--,60,400
"Protein",g,--,--,1.00,6.67
"Total lipid (fat)",g,--,--,2.00,13.33
"Carbohydrate, by difference",g,--,--,11.00,73.33
"Fiber, total dietary",g,--,--,1.0,6.7
"Sugars, total",g,--,--,6.00,40.00
Minerals
"Calcium, Ca",mg,--,--,0,0
"Iron, Fe",mg,--,--,1.20,8.00
"Sodium, Na",mg,--,--,200,1333
Vitamins
"Vitamin C, total ascorbic acid",mg,--,--,0.0,0.0
"Vitamin A, IU",IU,--,--,0,0
Lipids
"Fatty acids, total saturated",g,--,--,1.999,13.330
"Fatty acids, total trans",g,--,--,0.000,0.000
"Cholesterol",mg,--,--,0,0
Amino Acids
Other
Ingredients
"SUGAR, GLUCOSE SYRUP SOLIDS, COCOA (PROCESSED WITH ALKALI), PARTIALLY HYDROGENATED VEGETABLE OIL (MAY CONTAIN COCONUT, SOYBEAN, SUNFLOWER, PALM AND/OR CANOLA), NONFAT DRY MILK, NATURAL AND ARTIFICIAL FLAVORS, MODIFIED WHEY, MALTODEXTRIN, SALT, CELLULOSE GUM, SODIUM CASEINATE, CORN STARCH, LACTOSE, DIPOTASSIUM PHOSPHATE, SUCRALOSE, MONO- AND DIGLYCERIDES, SILICON DIOXIDE, SOY LECITHIN, ARTIFICIAL COLOR." Date available: 07/14/2017 Date last updated by company: 07/14/2017
