Source: USDA Branded Food Products Database Release December 2017 Software v.3.8.6.4 2017-10-02
Report Run at: December 18, 2017 09:52 EST
"Nutrient data for: 45157073, HYVEE, FROSTED CHRISTMAS TREE PRETZELS, UPC: 077232164459"
Food Group:  Branded Food Products Database
Common Name:

Nutrient,Unit,Data points,Std. Error,"5.0 PIECES = 30.0g",1Value per 100 g,
Proximates
"Energy",kcal,--,--,140,467
"Protein",g,--,--,2.00,6.67
"Total lipid (fat)",g,--,--,6.00,20.00
"Carbohydrate, by difference",g,--,--,21.00,70.00
"Fiber, total dietary",g,--,--,0.0,0.0
"Sugars, total",g,--,--,13.00,43.33
Minerals
"Calcium, Ca",mg,--,--,20,67
"Iron, Fe",mg,--,--,0.60,2.00
"Sodium, Na",mg,--,--,125,417
Vitamins
"Vitamin C, total ascorbic acid",mg,--,--,0.0,0.0
"Vitamin A, IU",IU,--,--,0,0
Lipids
"Fatty acids, total saturated",g,--,--,5.001,16.670
"Fatty acids, total trans",g,--,--,0.000,0.000
"Cholesterol",mg,--,--,0,0
Amino Acids
Other
Ingredients
"SUGAR, ENRICHED WHEAT FLOUR (WHEAT FLOUR, NIACIN, REDUCED IRON, THIAMINE MONONITRATE, RIBOFLAVIN, FOLIC ACID), VEGETABLE OILS (HYDROGENATED PALM KERNEL, MAY CONTAIN ONE OR MORE OF THE FOLLOWING: CORN, CANOLA, COTTONSEED, SOYBEAN), SKIM MILK, LACTOSE, CORN SYRUP, VITAL WHEAT GLUTEN, SALT, TITANIUM DIOXIDE (ARTIFICIAL COLORING), SODIUM BICARBONATE, DISTILLED MONOGLYCERIDE, YEAST, SOY LECITHIN (AN EMULSIFIER), VANILLIN (AN ARTIFICIAL FLAVORING), CORNSTARCH, CONFECTIONER'S GLAZE, CARNAUBA WAX, ARTIFICIAL COLORING INCLUDING: YELLOW 5, RED 3, BLUE 1, RED 40, YELLOW 6 AND BLUE 2" Date available: 07/14/2017 Date last updated by company: 07/14/2017
