Source: USDA Branded Food Products Database Release December 2017 Software v.3.8.6.4 2017-10-02
Report Run at: December 18, 2017 10:04 EST
"Nutrient data for: 45241634, I CAN'T BELIEVE IT'S NOT BUTTER!, COOKING SPRAY, OLIVE OIL, UPC: 040600152174"
Food Group:  Branded Food Products Database
Common Name:

Nutrient,Unit,Data points,Std. Error,"1 SPRAY (0.20G) COOKING SPRAY 5 SPRAYS (1G) TOPPING, SERVINGS PER CONTAINER 1700 COOKING SPRAY, 340 TOPPING = 0.2g",1Value per 100 g,
Proximates
"Energy",kcal,--,--,0,0
"Protein",g,--,--,0.00,0.00
"Total lipid (fat)",g,--,--,0.00,0.00
"Carbohydrate, by difference",g,--,--,0.00,0.00
Minerals
"Sodium, Na",mg,--,--,0,0
Vitamins
Lipids
Amino Acids
Other
Ingredients
"WATER, SOYBEAN OIL*, EXTRA VIRGIN OLIVE OIL*, SALT, SWEET CREAM BUTTERMILK**, XANTHAN GUM, SOY LECITHIN, POLYSORBATE 60, LACTIC ACID, (POTASSIUM SORBATE, CALCIUM DISODIUM EDTA) USED TO PROTECT QUALITY, NATURAL FLAVOR, VITAMIN A PALMITATE, BETA CAROTENE (F" Date available: 12/03/2016 Date last updated by company: 12/03/2016
