Source: USDA Branded Food Products Database Release December 2017 Software v.3.8.6.4 2017-10-02
Report Run at: December 18, 2017 11:32 EST
"Nutrient data for: 45057462, I HEART KEENWAH, QUINOA CLUSTER, PEANUT BUTTER CACAO, UPC: 736211884442"
Food Group:  Branded Food Products Database
Common Name:

Nutrient,Unit,Data points,Std. Error,"1 ONZ = 28.0g",1Value per 100 g,
Proximates
"Energy",kcal,--,--,130,464
"Protein",g,--,--,4.00,14.29
"Total lipid (fat)",g,--,--,6.00,21.43
"Carbohydrate, by difference",g,--,--,16.00,57.14
"Fiber, total dietary",g,--,--,2.0,7.1
"Sugars, total",g,--,--,6.00,21.43
Minerals
"Calcium, Ca",mg,--,--,0,0
"Iron, Fe",mg,--,--,1.29,4.59
"Sodium, Na",mg,--,--,70,250
Vitamins
"Vitamin C, total ascorbic acid",mg,--,--,0.0,0.0
"Vitamin A, IU",IU,--,--,0,0
Lipids
"Fatty acids, total saturated",g,--,--,1.501,5.360
"Fatty acids, total trans",g,--,--,0.000,0.000
"Cholesterol",mg,--,--,0,0
Amino Acids
Other
Ingredients
"ORGANIC QUINOA (WHOLE GRAIN QUINOA, QUINOA CRISPS. QUINOA FLAKES), PEANUTS (PEANUTS, PEANUT BUTTER), ORGANIC TAPIOCA SYRUP, ORGANIC BROWN RICE SYRUP, ORGANIC CANE SUGAR, ORGANIC DARK CHOCOLATE (CHOCOLATE LIQUOR, SUGAR, COCOA BUTTER, COCOA POWDER, NATURAL VANILLA), ORGANIC BROWN RICE CRISPS, ORGANIC CACAO NIBS, BAKING SODA, SALT, ALMOND OIL." Date available: 07/14/2017 Date last updated by company: 07/14/2017
