Source: USDA Branded Food Products Database Release December 2017 Software v.3.8.6.4 2017-10-02
Report Run at: December 18, 2017 10:46 EST
"Nutrient data for: 45210624, ICE CREAM, UPC: 051933339934"
Food Group:  Branded Food Products Database
Common Name:

Nutrient,Unit,Data points,Std. Error,"0.5 cup = 64.0g",1Value per 100 g,
Proximates
"Energy",kcal,--,--,140,219
"Protein",g,--,--,2.00,3.12
"Total lipid (fat)",g,--,--,7.00,10.94
"Carbohydrate, by difference",g,--,--,16.00,25.00
"Fiber, total dietary",g,--,--,0.0,0.0
"Sugars, total",g,--,--,15.00,23.44
Minerals
"Calcium, Ca",mg,--,--,80,125
"Iron, Fe",mg,--,--,0.00,0.00
"Sodium, Na",mg,--,--,70,109
Vitamins
"Vitamin C, total ascorbic acid",mg,--,--,0.0,0.0
"Vitamin A, IU",IU,--,--,225,352
Lipids
"Fatty acids, total saturated",g,--,--,4.000,6.250
"Fatty acids, total trans",g,--,--,0.000,0.000
"Cholesterol",mg,--,--,25,39
Amino Acids
Other
Ingredients
"MILKFAT AND NONFAT MILK, HIGH FRUCTOSE CORN SYRUP, COOKIES (SUGAR, WHEAT FLOUR, VEGETABLE OIL (SOYBEAN, PALM, PALM KERNEL), COCOA PROCESSED WITH ALKALI, HIGH FRUCTOSE CORN SYRUP, CHOCOLATE LIQUOR, DEXTROSE, CORN STARCH, SALT, BAKING SODA, NATURAL AND ARTIFICIAL FLAVOR, SOY LECITHIN), CORN SYRUP, BUTTERMILK, SUGAR, WHEY, ARTIFICIAL FLAVOR, MONO- AND DIGLYCERIDES, GUAR GUM, XANTHAN GUM, POLYSORBATE 80, LOCUST BEAN GUM, CARRAGEENAN." Date available: 07/14/2017 Date last updated by company: 07/14/2017
