Source: USDA Branded Food Products Database Release December 2017 Software v.3.8.6.4 2017-10-02
Report Run at: December 18, 2017 10:12 EST
"Nutrient data for: 45235167, ICE CREAM BARS, UPC: 041497011087"
Food Group:  Branded Food Products Database
Common Name:

Nutrient,Unit,Data points,Std. Error,"1 BAR, PER CONTAINER = 49.0g",1Value per 100 g,
Proximates
"Energy",kcal,--,--,80,163
"Protein",g,--,--,1.00,2.04
"Total lipid (fat)",g,--,--,3.00,6.12
"Carbohydrate, by difference",g,--,--,13.00,26.53
"Fiber, total dietary",g,--,--,0.0,0.0
"Sugars, total",g,--,--,13.00,26.53
Minerals
"Calcium, Ca",mg,--,--,40,82
"Iron, Fe",mg,--,--,0.00,0.00
"Sodium, Na",mg,--,--,30,61
Vitamins
"Vitamin C, total ascorbic acid",mg,--,--,0.0,0.0
"Vitamin A, IU",IU,--,--,100,204
Lipids
"Fatty acids, total saturated",g,--,--,1.499,3.060
"Fatty acids, total trans",g,--,--,0.000,0.000
"Cholesterol",mg,--,--,10,20
Amino Acids
Other
Ingredients
"ICE CREAM INGREDIENTS: MILKFAT AND NONFAT MILK, HIGH FRUCTOSE CORN SYRUP, BUTTERMILK, SUGAR, WHEY, MONO-AND DIGLYCERIDES, GUAR GUM, XANTHAN GUM, POLYSORBATE 80, ARTIFICIAL FLAVOR, LOCUST BEAN GUM, CARRAGEENAN. SHERBET INGREDIENTS: WATER, CORN, HIGH FRUCTOSE CORN SYRUP, SUGAR, WHEY, MILK FAT, ORANGE PUREE (CONCENTRATED ORANGE JUICE, ORANGE PULP, ORANGE OIL, NATURAL FLAVORS), CITRIC ACID, GUAR GUM, MONO- AND DIGLYCERIDES, XANTHAN GUM, POLYSORBATE 80, LOCUST BEAN GUM, CARRAGEENAN, ANNATTO, ARTIFICIAL COLOR (RED #40, YELLOW #5, YELLOW #6)." Date available: 06/25/2017 Date last updated by company: 06/25/2017
