Source: USDA Branded Food Products Database Release December 2017 Software v.3.8.6.4 2017-10-02
Report Run at: December 18, 2017 10:10 EST
"Nutrient data for: 45009837, ICE CREAM BARS, UPC: 011150590020"
Food Group:  Branded Food Products Database
Common Name:

Nutrient,Unit,Data points,Std. Error,"1 BAR = 73.0g",1Value per 100 g,
Proximates
"Energy",kcal,--,--,230,315
"Protein",g,--,--,3.00,4.11
"Total lipid (fat)",g,--,--,14.00,19.18
"Carbohydrate, by difference",g,--,--,22.00,30.14
"Fiber, total dietary",g,--,--,1.0,1.4
"Sugars, total",g,--,--,20.00,27.40
Minerals
"Calcium, Ca",mg,--,--,80,110
"Iron, Fe",mg,--,--,0.00,0.00
"Sodium, Na",mg,--,--,40,55
Vitamins
"Vitamin C, total ascorbic acid",mg,--,--,0.0,0.0
"Vitamin A, IU",IU,--,--,300,411
Lipids
"Fatty acids, total saturated",g,--,--,10.001,13.700
"Fatty acids, total trans",g,--,--,0.000,0.000
"Cholesterol",mg,--,--,25,34
Amino Acids
Other
Ingredients
"ICE CREAM: MILKFAT AND NONFAT MILK, SUGAR, CORN SYRUP, WHEY, VANILLA, MONO AND DIGLYCERIDES, GUAR GUM, LOCUST BEAN GUM, CALCIUM SULFATE, POLYSORBATE 80, CARRAGEENAN. DARK CHOCOLATE COATING: SUGAR, COCONUT OIL, UNSWEETENED CHOCOLATE, COCOA PROCESSED WITH ALKALI, SOYBEAN OIL, NATURAL AND ARTIFICIAL FLAVORS" Date available: 06/24/2017 Date last updated by company: 06/24/2017
