Source: USDA Branded Food Products Database Release December 2017 Software v.3.8.6.4 2017-10-02
Report Run at: December 18, 2017 10:23 EST
"Nutrient data for: 45213067, ICE CREAM SANDWICHES, UPC: 011110017734"
Food Group:  Branded Food Products Database
Common Name:

Nutrient,Unit,Data points,Std. Error,"1 SANDWICH = 74.0g",1Value per 100 g,
Proximates
"Energy",kcal,--,--,210,284
"Protein",g,--,--,3.00,4.05
"Total lipid (fat)",g,--,--,8.00,10.81
"Carbohydrate, by difference",g,--,--,31.00,41.89
"Fiber, total dietary",g,--,--,1.0,1.4
"Sugars, total",g,--,--,16.00,21.62
Minerals
"Calcium, Ca",mg,--,--,60,81
"Iron, Fe",mg,--,--,1.08,1.46
"Sodium, Na",mg,--,--,150,203
Vitamins
"Vitamin C, total ascorbic acid",mg,--,--,0.0,0.0
"Vitamin A, IU",IU,--,--,200,270
Lipids
"Fatty acids, total saturated",g,--,--,5.002,6.760
"Fatty acids, total trans",g,--,--,0.000,0.000
"Cholesterol",mg,--,--,20,27
Amino Acids
Other
Ingredients
"ICE CREAM - MILK, CREAM, CORN SYRUP, SUGAR, WHEY, BUTTERMILK, MALTODEXTRIN, CELLULOSE GEL, MONO AND DIGLYCERIDES, GUAR GUM, NATURAL AND ARTIFICIAL FLAVORS, LOCUST BEAN GUM, CELLULOSE GUM, POLYSORBATE 80, CARRAGEENAN, SUCRALOSE. WAFERS - BLEACHED WHEAT FLOUR, SUGAR, WHOLE WHEAT FLOUR, PALM OIL, DEXTROSE, MOLASSES, HIGH FRUCTOSE CORN STARCH, SALT, BAKING SODA, NATURAL FLAVOR, MONO & DIGLYCERIDES, CARAMEL COLOR, SOY LECITHIN. CHOCO CHIPS - SUGAR, COCONUT OIL, COCOA PROCESSES WITH ALKALI, PARTIALLY HYDROGENATED COCONUT OIL, COCOA, SALT, LECITHIN, NATURAL FLAVOR." Date available: 07/14/2017 Date last updated by company: 07/14/2017
