Source: USDA Branded Food Products Database Release December 2017 Software v.3.8.6.4 2017-10-02
Report Run at: December 18, 2017 10:58 EST
"Nutrient data for: 45278426, ICE CREAM, UPC: 078742082400"
Food Group:  Branded Food Products Database
Common Name:

Nutrient,Unit,Data points,Std. Error,"0.5 cup = 65.0g",1Value per 100 g,
Proximates
"Energy",kcal,--,--,130,200
"Protein",g,--,--,2.00,3.08
"Total lipid (fat)",g,--,--,7.00,10.77
"Carbohydrate, by difference",g,--,--,16.00,24.62
"Fiber, total dietary",g,--,--,0.0,0.0
"Sugars, total",g,--,--,14.00,21.54
Minerals
"Calcium, Ca",mg,--,--,80,123
"Iron, Fe",mg,--,--,0.00,0.00
"Sodium, Na",mg,--,--,45,69
Vitamins
"Vitamin C, total ascorbic acid",mg,--,--,0.0,0.0
"Vitamin A, IU",IU,--,--,225,346
Lipids
"Fatty acids, total saturated",g,--,--,4.498,6.920
"Fatty acids, total trans",g,--,--,0.000,0.000
"Cholesterol",mg,--,--,40,62
Amino Acids
Other
Ingredients
"MILK, CREAM, SKIM MILK SOLIDS, SUGAR, CORN SYRUP, HIGH FRUCTOSE CORN SYRUP, EGG CUSTARD BASE (PASTEURIZED EGGS, SUGAR, CORN SYRUP, WATER, SALT, ANNATTO AND TURMERIC COLORS), WHEY, STABILIZER (PROPYLENE GLYCOL MONOESTER, MONO AND DIGLYCERIDES, GUAR GUM, CELLULOSE GUM AND CARRAGEENAN), NATURAL AND ARTIFICIAL FLAVOR, VEGETABLE ANNATTO COLOR." Date available: 07/14/2017 Date last updated by company: 07/14/2017
