Source: USDA Branded Food Products Database Release December 2017 Software v.3.8.6.4 2017-10-02
Report Run at: December 18, 2017 10:41 EST
"Nutrient data for: 45009778, ICE CREAM, UPC: 852049004057"
Food Group:  Branded Food Products Database
Common Name:

Nutrient,Unit,Data points,Std. Error,"0.5 cup = 90.0g",1Value per 100 g,
Proximates
"Energy",kcal,--,--,220,244
"Protein",g,--,--,5.00,5.56
"Total lipid (fat)",g,--,--,12.00,13.33
"Carbohydrate, by difference",g,--,--,23.00,25.56
"Fiber, total dietary",g,--,--,1.0,1.1
"Sugars, total",g,--,--,20.00,22.22
Minerals
"Calcium, Ca",mg,--,--,100,111
"Iron, Fe",mg,--,--,0.00,0.00
"Sodium, Na",mg,--,--,70,78
Vitamins
"Vitamin C, total ascorbic acid",mg,--,--,0.0,0.0
"Vitamin A, IU",IU,--,--,562,624
Lipids
"Fatty acids, total saturated",g,--,--,7.002,7.780
"Fatty acids, total trans",g,--,--,0.000,0.000
"Cholesterol",mg,--,--,75,83
Amino Acids
Other
Ingredients
"CREAM, WATER, ORGANIC EVAPORATED CANE JUICE, EGGS, NON-FAT DRY MILK, BLACK TEA, LAVENDER INFUSION, BLUEBERRY PUREE, LEMON JUICE, SEA SALT." Date available: 06/24/2017 Date last updated by company: 06/24/2017
