Source: USDA Branded Food Products Database Release December 2017 Software v.3.8.6.4 2017-10-02
Report Run at: December 18, 2017 10:19 EST
"Nutrient data for: 45318480, ICE CREAM, FUDGE TRACKS, UPC: 041542084868"
Food Group:  Branded Food Products Database
Common Name:

Nutrient,Unit,Data points,Std. Error,"0.5 cup = 63.0g",1Value per 100 g,
Proximates
"Energy",kcal,--,--,120,190
"Protein",g,--,--,3.00,4.76
"Total lipid (fat)",g,--,--,3.50,5.56
"Carbohydrate, by difference",g,--,--,19.00,30.16
"Fiber, total dietary",g,--,--,0.0,0.0
"Sugars, total",g,--,--,13.00,20.63
Minerals
"Calcium, Ca",mg,--,--,60,95
"Iron, Fe",mg,--,--,0.00,0.00
"Sodium, Na",mg,--,--,40,63
Vitamins
"Vitamin C, total ascorbic acid",mg,--,--,0.0,0.0
"Vitamin A, IU",IU,--,--,225,357
Lipids
"Fatty acids, total saturated",g,--,--,1.997,3.170
"Fatty acids, total trans",g,--,--,0.000,0.000
"Cholesterol",mg,--,--,5,8
Amino Acids
Other
Ingredients
"NON-FAT MILK, SUGAR, CORN SYRUP, PEANUT BUTTER CUPS (SUGAR, PEANUT BUTTER [PEANUTS, SALT], COCONUT OIL, NON-FAT MILK, WHOLE MILK, COCOA PROCESSED WITH ALKALI, SOY LECITHIN, NATURAL FLAVORS), CREAM, FUDGE SWIRL (SUGAR, NON-FAT MILK, CORN SYRUP, WATER, CREAM, COCOA PROCESSED WITH ALKALI, PALM OIL, BITTER CHOCOLATE, MODIFIED TAPIOCA STARCH, POTASSIUM SORBATE, SODIUM ALGINATE, CITRIC ACID), MALTODEXTRIN, WHEY PROTEIN, PROPYLENE GLYCOL MONOSTEARATE, GUAR GUM, MONOGLYCERIDES, XANTHAN GUM, ANNATTO COLOR, CARRAGEENAN, NATURAL FLAVORS (WITH VANILLA EXTRACT), VITAMIN A PALMITATE." Date available: 06/25/2017 Date last updated by company: 06/25/2017
