Source: USDA Branded Food Products Database Release December 2017 Software v.3.8.6.4 2017-10-02
Report Run at: December 18, 2017 11:00 EST
"Nutrient data for: 45284856, ICE CREAM, UPC: 072609045614"
Food Group:  Branded Food Products Database
Common Name:

Nutrient,Unit,Data points,Std. Error,"0.5 cup = 86.0g",1Value per 100 g,
Proximates
"Energy",kcal,--,--,180,209
"Protein",g,--,--,2.00,2.33
"Total lipid (fat)",g,--,--,10.00,11.63
"Carbohydrate, by difference",g,--,--,21.00,24.42
"Fiber, total dietary",g,--,--,0.0,0.0
"Sugars, total",g,--,--,20.00,23.26
Minerals
"Calcium, Ca",mg,--,--,63,73
"Iron, Fe",mg,--,--,0.00,0.00
"Potassium, K",mg,--,--,95,110
"Sodium, Na",mg,--,--,25,29
Vitamins
"Vitamin D",IU,--,--,0,0
Lipids
"Fatty acids, total saturated",g,--,--,6.003,6.980
"Fatty acids, total trans",g,--,--,0.000,0.000
"Cholesterol",mg,--,--,50,58
Amino Acids
Other
Ingredients
"MILK*, CREAM*, STRAWBERRIES*, CANE SUGAR*, EGG YOLKS*, VANILLA EXTRACT*, GUAR GUM*, LOCUST BEAN GUM*, PECTIN, CITRIC ACID." Date available: 10/13/2017 Date last updated by company: 10/13/2017
