Source: USDA Branded Food Products Database Release December 2017 Software v.3.8.6.4 2017-10-02
Report Run at: December 18, 2017 10:36 EST
"Nutrient data for: 45181961, ICE CREAM, UPC: 03003409224"
Food Group:  Branded Food Products Database
Common Name:

Nutrient,Unit,Data points,Std. Error,"0.5 cup = 85.0g",1Value per 100 g,
Proximates
"Energy",kcal,--,--,230,271
"Protein",g,--,--,4.00,4.71
"Total lipid (fat)",g,--,--,16.00,18.82
"Carbohydrate, by difference",g,--,--,19.00,22.35
"Fiber, total dietary",g,--,--,1.0,1.2
"Sugars, total",g,--,--,17.00,20.00
Minerals
"Calcium, Ca",mg,--,--,100,118
"Iron, Fe",mg,--,--,0.00,0.00
"Sodium, Na",mg,--,--,105,124
Vitamins
"Vitamin C, total ascorbic acid",mg,--,--,1.4,1.6
"Vitamin A, IU",IU,--,--,562,661
Lipids
"Fatty acids, total saturated",g,--,--,7.998,9.410
"Fatty acids, total trans",g,--,--,0.000,0.000
"Cholesterol",mg,--,--,45,53
Amino Acids
Other
Ingredients
"CREAM, LIQUID SUGAR (SUGAR, WATER), SKIM MILK, ROASTED PECANS (PECANS, SOYBEAN AND/OR COTTONSEED OIL, BUTTER, SALT), GUAR GUM, LOCUST BEAN GUM, CARRAGEENAN, NATURAL FLAVOR, SEA SALT, ANNATTO (COLOR)." Date available: 07/14/2017 Date last updated by company: 07/14/2017
