Source: USDA Branded Food Products Database Release December 2017 Software v.3.8.6.4 2017-10-02
Report Run at: December 18, 2017 11:03 EST
"Nutrient data for: 45330324, ICE CREAM, UPC: 072730713499"
Food Group:  Branded Food Products Database
Common Name:

Nutrient,Unit,Data points,Std. Error,"0.667 cup = 85.0g",1Value per 100 g,
Proximates
"Energy",kcal,--,--,190,224
"Protein",g,--,--,3.00,3.53
"Total lipid (fat)",g,--,--,10.00,11.76
"Carbohydrate, by difference",g,--,--,22.00,25.88
"Fiber, total dietary",g,--,--,0.0,0.0
"Sugars, total",g,--,--,14.00,16.47
Minerals
"Calcium, Ca",mg,--,--,80,94
"Iron, Fe",mg,--,--,0.00,0.00
"Potassium, K",mg,--,--,140,165
"Sodium, Na",mg,--,--,60000,70588
Vitamins
"Vitamin D",IU,--,--,0,0
Lipids
"Fatty acids, total saturated",g,--,--,6.001,7.060
"Fatty acids, total trans",g,--,--,0.000,0.000
"Cholesterol",mg,--,--,30000,35294
Amino Acids
Other
Ingredients
"MILK, CREAM, SUGAR, COOKIES (SUGAR, PALM, SOYBEAN AND CANOLA OILS, BLEACHED ENRICHED WHEAT FLOUR [FLOUR, NIACIN, REDUCED IRON, THIAMIN MONONITRATE, RIBOFLAVIN AND FOLIC ACID], CARAMEL COLOR, ALKALIZED COCOA, COCOA, VANILLA, BAKING SODA AND SALT), SKIM MILK SOLIDS, CORN SYRUP, WHEY, STABILIZED AND EMULSIFIED BY MONO AND DIGLYCERIDES, GUAR GUM, CELLULOSE GUM AND CARRAGEENAN, NATURAL AND ARTIFICIAL FLAVOR, VEGETABLE ANNATTO COLOR." Date available: 10/13/2017 Date last updated by company: 10/13/2017
