Source: USDA Branded Food Products Database Release December 2017 Software v.3.8.6.4 2017-10-02
Report Run at: December 18, 2017 10:38 EST
"Nutrient data for: 45182583, ICE CREAM, UPC: 041268161225"
Food Group:  Branded Food Products Database
Common Name:

Nutrient,Unit,Data points,Std. Error,"0.66 cup = 88.0g",1Value per 100 g,
Proximates
"Energy",kcal,--,--,210,239
"Protein",g,--,--,2.00,2.27
"Total lipid (fat)",g,--,--,10.00,11.36
"Carbohydrate, by difference",g,--,--,26.00,29.55
"Fiber, total dietary",g,--,--,0.0,0.0
"Sugars, total",g,--,--,20.00,22.73
Minerals
"Calcium, Ca",mg,--,--,93,106
"Iron, Fe",mg,--,--,0.00,0.00
"Potassium, K",mg,--,--,155,176
"Sodium, Na",mg,--,--,90,102
Vitamins
"Vitamin D",IU,--,--,0,0
Lipids
"Fatty acids, total saturated",g,--,--,6.002,6.820
"Fatty acids, total trans",g,--,--,0.000,0.000
"Cholesterol",mg,--,--,35,40
Amino Acids
Other
Ingredients
"MILKFAT AND NONFAT MILK, SUGAR, COOKIES (SUGAR, ENRICHED FLOUR [WHEAT FLOUR, NIACIN, REDUCED IRON, THIAMINE MONONITRATE (VITAMIN B1), RIBOFLAVIN (VITAMIN B2), FOLIC ACID], SOYBEAN AND PALM OIL, COCOA PROCESSED WITH ALKALI, INVERT SUGAR, CONTAINS 2% OR LESS OF YELLOW CORN FLOUR, CORNSTARCH, CHOCOLATE, SALT, LEAVENING [BAKING SODA, MONOCALCIUM PHOSPHATE], ARTIFICIAL FLAVOR, SOY LECITHIN, WHEY), CORN SYRUP, HIGH FRUCTOSE CORN SYRUP, WHEY, MONO & DIGLYCERIDES, GUAR GUM, LOCUST BEAN GUM, POLYSORBATE 80, CARRAGEENAN AND NATURAL & ARTIFICIAL FLAVORS." Date available: 10/13/2017 Date last updated by company: 10/13/2017
