Source: USDA Branded Food Products Database Release December 2017 Software v.3.8.6.4 2017-10-02
Report Run at: December 18, 2017 10:23 EST
"Nutrient data for: 45190793, ICE CREAM SANDWICHES, UPC: 044100604003"
Food Group:  Branded Food Products Database
Common Name:

Nutrient,Unit,Data points,Std. Error,"1 SANDWICH = 62.0g",1Value per 100 g,
Proximates
"Energy",kcal,--,--,170,274
"Protein",g,--,--,2.00,3.23
"Total lipid (fat)",g,--,--,6.00,9.68
"Carbohydrate, by difference",g,--,--,28.00,45.16
"Fiber, total dietary",g,--,--,1.0,1.6
"Sugars, total",g,--,--,15.00,24.19
Minerals
"Calcium, Ca",mg,--,--,40,65
"Iron, Fe",mg,--,--,0.36,0.58
"Sodium, Na",mg,--,--,135,218
Vitamins
"Vitamin C, total ascorbic acid",mg,--,--,0.0,0.0
"Vitamin A, IU",IU,--,--,200,323
Lipids
"Fatty acids, total saturated",g,--,--,3.999,6.450
"Fatty acids, total trans",g,--,--,0.000,0.000
"Cholesterol",mg,--,--,15,24
Amino Acids
Other
Ingredients
"ICE CREAM INGREDIENTS: MILKFAT AND NONFAT MILK, SUGAR, CORN SYRUP, CHOCOLATE CHIPS (SUGAR, CHOCOLATE, COCOA BUTTER, ANHYDROUS DEXTROSE, SOY LECITHIN, MILKFAT), HIGH FRUCTOSE CORN SYRUP, WHEY, MONO AND DIGLYCERIDES, GUAR GUM, LOCUST BEAN GUM, POLYSORBATE 80, NATURAL FLAVOR, CARRAGEENAN, YELLOW 5, BLUE 1. WAFER INGREDIENTS: BLEACHED WHEAT FLOUR, SUGAR, CARAMEL COLOR, DEXTROSE, PALM OIL, CORN FLOUR, CONTAINS 2% OR LESS OF: COCOA, HIGH FRUCTOSE CORN SYRUP, BAKING SODA, MODIFIED CORN STARCH, SALT, MONO AND DIGLYCERIDES, SOY LECITHIN." Date available: 07/14/2017 Date last updated by company: 07/14/2017
