Source: USDA Branded Food Products Database Release December 2017 Software v.3.8.6.4 2017-10-02
Report Run at: December 18, 2017 10:55 EST
"Nutrient data for: 45270010, ICE CREAM, UPC: 041483030825"
Food Group:  Branded Food Products Database
Common Name:

Nutrient,Unit,Data points,Std. Error,"0.5 cup = 65.0g",1Value per 100 g,
Proximates
"Energy",kcal,--,--,80,123
"Protein",g,--,--,3.00,4.62
"Total lipid (fat)",g,--,--,5.00,7.69
"Carbohydrate, by difference",g,--,--,11.00,16.92
"Fiber, total dietary",g,--,--,3.0,4.6
"Sugars, total",g,--,--,3.00,4.62
Minerals
"Calcium, Ca",mg,--,--,100,154
"Iron, Fe",mg,--,--,0.00,0.00
"Sodium, Na",mg,--,--,60,92
Vitamins
"Vitamin C, total ascorbic acid",mg,--,--,0.0,0.0
"Vitamin A, IU",IU,--,--,337,519
Lipids
"Fatty acids, total saturated",g,--,--,3.003,4.620
"Fatty acids, total trans",g,--,--,0.000,0.000
"Cholesterol",mg,--,--,20,31
Amino Acids
Other
Ingredients
"MILKFAT AND NONFAT MILK, SORBITOL, POLYDEXTROSE, WHEY PROTEIN CONCENTRATE, MONO AND DIGLYCERIDES, GUAR GUM, NATURAL AND ARTIFICIAL FLAVORS, CALCIUM SULFATE, LOCUST BEAN GUM, ASPARTAME*, CARRAGEENAN, ACESULFAME POTASSIUM (A SWEETENER), VITAMIN A PALMITATE, ANNATTO (COLOR)." Date available: 07/14/2017 Date last updated by company: 07/14/2017
