Source: USDA Branded Food Products Database Release December 2017 Software v.3.8.6.4 2017-10-02
Report Run at: December 18, 2017 10:43 EST
"Nutrient data for: 45014613, ICE CREAM, UPC: 852455005006"
Food Group:  Branded Food Products Database
Common Name:

Nutrient,Unit,Data points,Std. Error,"0.5 cup = 88.0g",1Value per 100 g,
Proximates
"Energy",kcal,--,--,210,239
"Protein",g,--,--,3.00,3.41
"Total lipid (fat)",g,--,--,12.00,13.64
"Carbohydrate, by difference",g,--,--,21.00,23.86
"Fiber, total dietary",g,--,--,0.0,0.0
"Sugars, total",g,--,--,17.00,19.32
Minerals
"Calcium, Ca",mg,--,--,100,114
"Iron, Fe",mg,--,--,0.00,0.00
"Sodium, Na",mg,--,--,50,57
Vitamins
"Vitamin C, total ascorbic acid",mg,--,--,0.0,0.0
"Vitamin A, IU",IU,--,--,500,568
Lipids
"Fatty acids, total saturated",g,--,--,7.999,9.090
"Fatty acids, total trans",g,--,--,0.000,0.000
"Cholesterol",mg,--,--,50,57
Amino Acids
Other
Ingredients
"CREAM, NONFAT MILK, SUGAR, CORN SYRUP, VANILLA EXTRACT, MONO AND DIGLYCERIDES, LOCUST BEAN GUM, GUAR GUM, CARRAGEENAN, ANNATTO (COLOR)." Date available: 10/13/2017 Date last updated by company: 10/13/2017
