Source: USDA Branded Food Products Database Release December 2017 Software v.3.8.6.4 2017-10-02
Report Run at: December 18, 2017 11:05 EST
"Nutrient data for: 45225133, ICE CUBES, UPC: 03462005"
Food Group:  Branded Food Products Database
Common Name:

Nutrient,Unit,Data points,Std. Error,"1 PIECE = 2.3g",1Value per 100 g,
Proximates
"Energy",kcal,--,--,5,217
"Protein",g,--,--,0.00,0.00
"Total lipid (fat)",g,--,--,0.00,0.00
"Carbohydrate, by difference",g,--,--,2.00,86.96
"Sugars, total",g,--,--,0.00,0.00
Minerals
"Sodium, Na",mg,--,--,0,0
Vitamins
Lipids
Amino Acids
Other
Ingredients
"XYLITOL; GUM BASE; MALTITOL SYRUP; MANNITOL; CONTAINS 2% OR LESS OF: NATURAL FLAVOR AND ARTIFICIAL FLAVOR; MALTODEXTRIN; CITRIC ACID; MALIC ACID; ASPARTAME*; LECITHIN (SOY); MALTITOL; ARTIFICIAL COLOR [YELLOW 5 LAKE; YELLOW 5]; GUM ACACIA; GELATIN; NEOTAME; BHT, TO MAINTAIN FRESHNESS; SUCRALOSE." Date available: 07/14/2017 Date last updated by company: 07/14/2017
