Source: USDA Branded Food Products Database Release December 2017 Software v.3.8.6.4 2017-10-02
Report Run at: December 18, 2017 10:13 EST
"Nutrient data for: 45329101, ICE CREAM BARS, UPC: 041512119330"
Food Group:  Branded Food Products Database
Common Name:

Nutrient,Unit,Data points,Std. Error,"1 BAR = 47.0g",1Value per 100 g,
Proximates
"Energy",kcal,--,--,150,319
"Protein",g,--,--,1.00,2.13
"Total lipid (fat)",g,--,--,11.00,23.40
"Carbohydrate, by difference",g,--,--,12.00,25.53
"Fiber, total dietary",g,--,--,0.0,0.0
"Sugars, total",g,--,--,11.00,23.40
Minerals
"Calcium, Ca",mg,--,--,40,85
"Iron, Fe",mg,--,--,0.00,0.00
"Sodium, Na",mg,--,--,30,64
Vitamins
"Vitamin C, total ascorbic acid",mg,--,--,0.0,0.0
"Vitamin A, IU",IU,--,--,100,213
Lipids
"Fatty acids, total saturated",g,--,--,7.999,17.020
"Fatty acids, total trans",g,--,--,0.000,0.000
"Cholesterol",mg,--,--,15,32
Amino Acids
Other
Ingredients
"ICE CREAM INGREDIENTS: MILKFAT AND NONFAT MILK, HIGH FRUCTOSE CORN SYRUP, CORN SYRUP, BUTTERMILK, SUGAR, WHEY, MONO- AND DIGLYCERIDES, GUAR GUM, XANTHAN GUM, POLYSORBATE 80, ARTIFICIAL FLAVOR, LOCUST BEAN GUM, CARRAGEENAN. COATING INGREDIENTS: COCONUT OIL, SUGAR, COCOA AND COCOA PROCESSED WITH ALKALI, CHOCOLATE LIQUOR, PARTIALLY HYDROGENATED SOYBEAN OIL, SOY LECITHIN, SALT, VANILLA." Date available: 10/13/2017 Date last updated by company: 10/13/2017
