Source: USDA Branded Food Products Database Release December 2017 Software v.3.8.6.4 2017-10-02
Report Run at: December 18, 2017 10:34 EST
"Nutrient data for: 45028930, ICE CREAM, UPC: 020735420102"
Food Group:  Branded Food Products Database
Common Name:

Nutrient,Unit,Data points,Std. Error,"0.5 cup = 66.0g",1Value per 100 g,
Proximates
"Energy",kcal,--,--,150,227
"Protein",g,--,--,2.00,3.03
"Total lipid (fat)",g,--,--,8.00,12.12
"Carbohydrate, by difference",g,--,--,17.00,25.76
"Fiber, total dietary",g,--,--,0.0,0.0
"Sugars, total",g,--,--,13.00,19.70
Minerals
"Calcium, Ca",mg,--,--,80,121
"Iron, Fe",mg,--,--,0.00,0.00
"Sodium, Na",mg,--,--,50,76
Vitamins
"Vitamin C, total ascorbic acid",mg,--,--,0.0,0.0
"Vitamin A, IU",IU,--,--,337,511
Lipids
"Fatty acids, total saturated",g,--,--,5.003,7.580
"Fatty acids, total trans",g,--,--,0.000,0.000
"Cholesterol",mg,--,--,25,38
Amino Acids
Other
Ingredients
"MILK, CREAM, CORN SYRUP, SUGAR, CHOCOLATE CHIPS (SUGAR, CHOCOLATE LIQUOR, COCOA BUTTER, SOY LECITHIN, VANILLA), WHEY, NONFAT MILK, OIL OF PEPPERMINT, CELLULOSE GEL, CELLULOSE GUM, MONO & DIGLYCERIDES, CARRAGEENAN, YELLOW 5, BLUE 1." Date available: 07/14/2017 Date last updated by company: 07/14/2017
