Source: USDA Branded Food Products Database Release December 2017 Software v.3.8.6.4 2017-10-02
Report Run at: December 18, 2017 10:07 EST
"Nutrient data for: 45166392, ICE CHIPS, CANDY, LEMON, UPC: 810906020916"
Food Group:  Branded Food Products Database
Common Name:

Nutrient,Unit,Data points,Std. Error,"2.0 PIECES = 2.0g",1Value per 100 g,
Proximates
"Energy",kcal,--,--,5,250
"Protein",g,--,--,0.00,0.00
"Total lipid (fat)",g,--,--,0.00,0.00
"Carbohydrate, by difference",g,--,--,2.00,100.00
"Sugars, total",g,--,--,0.00,0.00
Minerals
"Sodium, Na",mg,--,--,0,0
Vitamins
Lipids
Amino Acids
Other
Ingredients
"XYLITOL, CERTIFIED ORGANIC NATURAL FLAVORS, LEMON OIL, CITRIC ACID, CREAM OF TARTAR, CALCIUM STEARATE." Date available: 07/14/2017 Date last updated by company: 07/14/2017
