Source: USDA Branded Food Products Database Release December 2017 Software v.3.8.6.4 2017-10-02
Report Run at: December 18, 2017 10:05 EST
"Nutrient data for: 45203968, ICE BARS, UPC: 4545732208998"
Food Group:  Branded Food Products Database
Common Name:

Nutrient,Unit,Data points,Std. Error,"1 BAR = 80.0g",1Value per 100 g,
Proximates
"Energy",kcal,--,--,130,162
"Protein",g,--,--,0.00,0.00
"Total lipid (fat)",g,--,--,4.00,5.00
"Carbohydrate, by difference",g,--,--,23.00,28.75
"Fiber, total dietary",g,--,--,0.0,0.0
"Sugars, total",g,--,--,23.00,28.75
Minerals
"Calcium, Ca",mg,--,--,60,75
"Iron, Fe",mg,--,--,0.30,0.37
"Sodium, Na",mg,--,--,28,35
Vitamins
"Vitamin C, total ascorbic acid",mg,--,--,5.0,6.2
"Vitamin A, IU",IU,--,--,0,0
Lipids
"Fatty acids, total saturated",g,--,--,2.000,2.500
"Fatty acids, total trans",g,--,--,0.000,0.000
"Cholesterol",mg,--,--,2,2
Amino Acids
Other
Ingredients
"CORN SYRUP, SUGAR, STRAWBERRY, DAIRY SPREAD, SKIM MILK POWDER, STABILIZER & EMULSIFIER, STRAWBERRY FLAVOR, SALT, COCHINEAL EXTRACT, WATER" Date available: 07/14/2017 Date last updated by company: 07/14/2017
