Source: USDA Branded Food Products Database Release December 2017 Software v.3.8.6.4 2017-10-02
Report Run at: December 18, 2017 10:23 EST
"Nutrient data for: 45191506, ICE CREAM SANDWICHES, UPC: 077189059280"
Food Group:  Branded Food Products Database
Common Name:

Nutrient,Unit,Data points,Std. Error,"1 SANDWICH = 90.0g",1Value per 100 g,
Proximates
"Energy",kcal,--,--,340,378
"Protein",g,--,--,4.00,4.44
"Total lipid (fat)",g,--,--,18.00,20.00
"Carbohydrate, by difference",g,--,--,39.00,43.33
"Fiber, total dietary",g,--,--,1.0,1.1
"Sugars, total",g,--,--,17.00,18.89
Minerals
"Calcium, Ca",mg,--,--,80,89
"Iron, Fe",mg,--,--,1.80,2.00
"Sodium, Na",mg,--,--,90,100
Vitamins
"Vitamin C, total ascorbic acid",mg,--,--,0.0,0.0
"Vitamin A, IU",IU,--,--,100,111
Lipids
"Fatty acids, total saturated",g,--,--,9.999,11.110
"Fatty acids, total trans",g,--,--,0.000,0.000
"Cholesterol",mg,--,--,15,17
Amino Acids
Other
Ingredients
"ICE CREAM INGREDIENTS: CREAM, MILK, SKIM MILK, SUGAR, CORN SYRUP, GUAR GUM, MONO AND DIGLYCERIDES, POLYSORBATE 80, CARRAGEENAN, NATURAL FLAVOR. COOKIE INGREDIENTS: ENRICHED FLOUR [WHEAT FLOUR, NIACIN (A ""B"" VITAMIN), IRON, THIAMINE MONONITRATE (B1), RIBOFLAVIN (B2), FOLIC ACID], BROWN SUGAR, PALM OIL, OATS, RAISINS, WHEY, AMMONIUM BICARBONATE, BAKING POWDER, SALT, CINNAMON. COATING INGREDIENTS: COCONUT OIL, SUGAR, COCOA, WHEY, SOY LECITHIN, VANILLA." Date available: 07/14/2017 Date last updated by company: 07/14/2017
