Source: USDA Branded Food Products Database Release December 2017 Software v.3.8.6.4 2017-10-02
Report Run at: December 18, 2017 10:24 EST
"Nutrient data for: 45265236, ICE CREAM SANDWICHES, UPC: 030034095024"
Food Group:  Branded Food Products Database
Common Name:

Nutrient,Unit,Data points,Std. Error,"1 SANDWICH = 59.0g",1Value per 100 g,
Proximates
"Energy",kcal,--,--,160,271
"Protein",g,--,--,2.00,3.39
"Total lipid (fat)",g,--,--,5.00,8.47
"Carbohydrate, by difference",g,--,--,26.00,44.07
"Fiber, total dietary",g,--,--,0.0,0.0
"Sugars, total",g,--,--,16.00,27.12
Minerals
"Calcium, Ca",mg,--,--,60,102
"Iron, Fe",mg,--,--,0.36,0.61
"Sodium, Na",mg,--,--,150,254
Vitamins
"Vitamin C, total ascorbic acid",mg,--,--,0.0,0.0
"Vitamin A, IU",IU,--,--,200,339
Lipids
"Fatty acids, total saturated",g,--,--,2.997,5.080
"Fatty acids, total trans",g,--,--,0.000,0.000
"Cholesterol",mg,--,--,15,25
Amino Acids
Other
Ingredients
"ICE CREAM: MILKFAT AND NONFAT MILK, HIGH FRUCTOSE CORN SYRUP, CORN SYRUP, COOKIE CRUNCH (BLEACHED WHEAT FLOUR, SUGAR, CARAMEL COLOR, PALM OIL, COCOA, BAKING SODA, SALT, SOY LECITHIN), BUTTERMILK, SUGAR, WHEY, MONO- AND DIGLYCERIDES, GUAR GUM, XANTHAN GUM, POLYSORBATE 80, ARTIFICIAL FLAVOR, LOCUST BEAN GUM, CARRAGEENAN. WAFER: BLEACHED WHEAT FLOUR, SUGAR, CARAMEL COLOR, DEXTROSE, PALM OIL, CORN FLOUR, COCOA, HIGH FRUCTOSE CORN SYRUP, CORN SYRUP, MODIFIED CORNSTARCH, BAKING SODA, SALT, MONO- AND DIGLYCERIDES, SOY LECITHIN." Date available: 07/14/2017 Date last updated by company: 07/14/2017
