Source: USDA Branded Food Products Database Release December 2017 Software v.3.8.6.4 2017-10-02
Report Run at: December 18, 2017 10:21 EST
"Nutrient data for: 45210969, ICE CREAM MIX, UPC: 072058613426"
Food Group:  Branded Food Products Database
Common Name:

Nutrient,Unit,Data points,Std. Error,"0.5 CUP ICE CREAM] | DRY, [MAKES = 23.0g",1Value per 100 g,
Proximates
"Energy",kcal,--,--,100,435
"Protein",g,--,--,1.00,4.35
"Total lipid (fat)",g,--,--,2.00,8.70
"Carbohydrate, by difference",g,--,--,19.00,82.61
"Fiber, total dietary",g,--,--,0.0,0.0
"Sugars, total",g,--,--,14.00,60.87
Minerals
"Calcium, Ca",mg,--,--,40,174
"Iron, Fe",mg,--,--,0.00,0.00
"Sodium, Na",mg,--,--,25,109
Vitamins
"Vitamin C, total ascorbic acid",mg,--,--,0.0,0.0
"Vitamin A, IU",IU,--,--,0,0
Lipids
"Fatty acids, total saturated",g,--,--,0.499,2.170
"Fatty acids, total trans",g,--,--,1.000,4.350
"Cholesterol",mg,--,--,0,0
Amino Acids
Other
Ingredients
"SUGAR, MALTODEXTRIN, NONFAT DRY MILK, PARTIALLY HYDROGENATED SOYBEAN OIL, CORN SYRUP SOLIDS, NATURAL FLAVOR, STABILIZER BLEND (CARRAGEENAN, SODIUM ALGINATE, XANTHAN GUM), SODIUM CASEINATE, MONO & DIGLYCERIDES, POTASSIUM PHOSPHATE, TURMERIC (COLOR)." Date available: 07/14/2017 Date last updated by company: 07/14/2017
