Source: USDA Branded Food Products Database Release December 2017 Software v.3.8.6.4 2017-10-02
Report Run at: December 18, 2017 11:13 EST
"Nutrient data for: 45065596, ICED TEA, UPC: 072392352296"
Food Group:  Branded Food Products Database
Common Name:

Nutrient,Unit,Data points,Std. Error,"0.5 PACKET, PER CONTAINER = 1.7g",1Value per 100 g,
Proximates
"Energy",kcal,--,--,5,294
"Protein",g,--,--,0.00,0.00
"Total lipid (fat)",g,--,--,0.00,0.00
"Carbohydrate, by difference",g,--,--,0.00,0.00
Minerals
"Sodium, Na",mg,--,--,15,882
Vitamins
"Vitamin C, total ascorbic acid",mg,--,--,176.5,10380.7
Lipids
Amino Acids
Other
Ingredients
"CITRIC ACID, MALTODEXTRIN, INSTANT TEA, NATURAL FLAVORS, ASPARTAME**, SALT, CONTAINS 2% OR LESS OF THE FOLLOWING: ACESULFAME POTASSIUM, ASCORBIC ACID (VITAMIN C), MAGNESIUM OXIDE, RED 40, YELLOW 5, BLUE 1." Date available: 09/01/2017 Date last updated by company: 09/01/2017
