Source: USDA Branded Food Products Database Release December 2017 Software v.3.8.6.4 2017-10-02
Report Run at: December 18, 2017 11:11 EST
"Nutrient data for: 45330356, ICED SUGAR COOKIES, UPC: 724105000405"
Food Group:  Branded Food Products Database
Common Name:

Nutrient,Unit,Data points,Std. Error,"1 COOKIE = 61.0g",1Value per 100 g,
Proximates
"Energy",kcal,--,--,245,402
"Protein",g,--,--,4.00,6.56
"Total lipid (fat)",g,--,--,4.75,7.79
"Carbohydrate, by difference",g,--,--,48.00,78.69
"Fiber, total dietary",g,--,--,1.0,1.6
"Sugars, total",g,--,--,27.00,44.26
Minerals
"Calcium, Ca",mg,--,--,20,33
"Iron, Fe",mg,--,--,1.18,1.94
"Sodium, Na",mg,--,--,240,393
Vitamins
"Vitamin C, total ascorbic acid",mg,--,--,0.0,0.0
"Vitamin A, IU",IU,--,--,246,403
Lipids
"Fatty acids, total saturated",g,--,--,0.500,0.820
"Cholesterol",mg,--,--,10,16
Amino Acids
Other
Ingredients
"FLOUR, SUGAR, BUTTERMILK, OLEO, EGGS, BAKING SODA, VANILLA, SODIUM PROPIONATE" Date available: 10/13/2017 Date last updated by company: 10/13/2017
