Source: USDA Branded Food Products Database Release December 2017 Software v.3.8.6.4 2017-10-02
Report Run at: December 18, 2017 11:07 EST
"Nutrient data for: 45143760, ICED COFFEE, UPC: 07203671802"
Food Group:  Branded Food Products Database
Common Name:

Nutrient,Unit,Data points,Std. Error,"1 BOTTLE = 8.0g",1Value per 100 g,
Proximates
"Energy",kcal,--,--,6,71
"Protein",g,--,--,0.17,2.08
"Total lipid (fat)",g,--,--,0.08,1.04
"Carbohydrate, by difference",g,--,--,1.07,13.33
"Fiber, total dietary",g,--,--,0.0,0.0
"Sugars, total",g,--,--,0.90,11.25
Minerals
"Calcium, Ca",mg,--,--,7,83
"Iron, Fe",mg,--,--,0.00,0.00
"Sodium, Na",mg,--,--,3,38
Vitamins
"Vitamin C, total ascorbic acid",mg,--,--,0.0,0.0
"Vitamin A, IU",IU,--,--,0,0
Lipids
"Fatty acids, total saturated",g,--,--,0.066,0.830
"Fatty acids, total trans",g,--,--,0.000,0.000
"Cholesterol",mg,--,--,0,4
Amino Acids
Other
Ingredients
"BREWED COFFEE (WATER, COFFEE), REDUCED FAT MILK, SUGAR, MALTODEXTRIN, PECTIN, NATURAL FLAVOR." Date available: 07/14/2017 Date last updated by company: 07/14/2017
