Source: USDA Branded Food Products Database Release December 2017 Software v.3.8.6.4 2017-10-02
Report Run at: December 18, 2017 11:08 EST
"Nutrient data for: 45317590, ICED COFFEE, UPC: 048500022399"
Food Group:  Branded Food Products Database
Common Name:

Nutrient,Unit,Data points,Std. Error,"8.0 OZA = 240.0g",1Value per 100 g,
Proximates
"Energy",kcal,--,--,60,25
"Protein",g,--,--,0.00,0.00
"Total lipid (fat)",g,--,--,0.00,0.00
"Carbohydrate, by difference",g,--,--,10.99,4.58
"Sugars, total",g,--,--,10.99,4.58
Minerals
"Sodium, Na",mg,--,--,0,0
Vitamins
Lipids
Amino Acids
Other
Ingredients
"BREWED STARBUCKS COFFEE (WATER, COFFEE), SUGAR, NATURAL FLAVORS, ASCORBIC ACID (TO PROTECT FLAVOR)." Date available: 06/25/2017 Date last updated by company: 06/25/2017
