Source: USDA Branded Food Products Database Release December 2017 Software v.3.8.6.4 2017-10-02
Report Run at: December 18, 2017 11:12 EST
"Nutrient data for: 45023107, ICED TEA MIX, UPC: 041387102406"
Food Group:  Branded Food Products Database
Common Name:

Nutrient,Unit,Data points,Std. Error,"1.33 Tbsp = 18.0g",1Value per 100 g,
Proximates
"Energy",kcal,--,--,70,389
"Protein",g,--,--,0.00,0.00
"Total lipid (fat)",g,--,--,0.00,0.00
"Carbohydrate, by difference",g,--,--,17.00,94.44
"Sugars, total",g,--,--,17.00,94.44
Minerals
"Sodium, Na",mg,--,--,0,0
Vitamins
Lipids
"Fatty acids, total trans",g,--,--,0.000,0.000
Amino Acids
Other
Ingredients
"SUGAR, CITRIC ACID, INSTANT TEA, CARAMEL COLOR, NATURAL AND ARTIFICIAL FLAVORS, ARTIFICIAL COLOR (F.D. & C RED #40)." Date available: 07/14/2017 Date last updated by company: 07/14/2017
