Source: USDA Branded Food Products Database Release December 2017 Software v.3.8.6.4 2017-10-02
Report Run at: December 18, 2017 11:09 EST
"Nutrient data for: 45136122, ICED GREEN TEA POWDER, UPC: 077652333152"
Food Group:  Branded Food Products Database
Common Name:

Nutrient,Unit,Data points,Std. Error,"1 STICK, (500 ML) PREPARED = 2.0g",1Value per 100 g,
Proximates
"Energy",kcal,--,--,10,500
"Protein",g,--,--,0.00,0.00
"Total lipid (fat)",g,--,--,0.50,25.00
"Carbohydrate, by difference",g,--,--,2.00,100.00
"Sugars, total",g,--,--,0.00,0.00
Minerals
"Sodium, Na",mg,--,--,0,0
Vitamins
Lipids
Amino Acids
Other
Ingredients
"MALTODESTRIN, BLENDED GREEN TEA POWDERS, PEPPERMINT FLAVOR." Date available: 09/20/2017 Date last updated by company: 09/20/2017
