Source: USDA Branded Food Products Database Release December 2017 Software v.3.8.6.4 2017-10-02
Report Run at: December 18, 2017 11:10 EST
"Nutrient data for: 45296130, ICED GREEN TEA, UPC: 856820160017"
Food Group:  Branded Food Products Database
Common Name:

Nutrient,Unit,Data points,Std. Error,"16.0 OZA = 473.0g",1Value per 100 g,
Proximates
"Energy",kcal,--,--,0,0
"Protein",g,--,--,0.00,0.00
"Total lipid (fat)",g,--,--,0.00,0.00
"Carbohydrate, by difference",g,--,--,4.02,0.85
"Fiber, total dietary",g,--,--,3.8,0.8
Minerals
"Sodium, Na",mg,--,--,19,4
Vitamins
Lipids
"Fatty acids, total trans",g,--,--,0.000,0.000
Amino Acids
Other
Ingredients
"FILTERED WATER, INULIN+ (VEGETABLE FIBER+), GREEN TEA+*, LEMON JUICE+, NATURAL FLAVORS (LEMON & OTHER)." Date available: 07/14/2017 Date last updated by company: 07/14/2017
