Source: USDA Branded Food Products Database Release December 2017 Software v.3.8.6.4 2017-10-02
Report Run at: December 18, 2017 11:11 EST
"Nutrient data for: 45091704, ICED TEA MIX, UPC: 041387227406"
Food Group:  Branded Food Products Database
Common Name:

Nutrient,Unit,Data points,Std. Error,"1 g = 1.0g",1Value per 100 g,
Proximates
"Energy",kcal,--,--,0,0
"Protein",g,--,--,0.00,0.00
"Total lipid (fat)",g,--,--,0.00,0.00
"Carbohydrate, by difference",g,--,--,0.00,0.00
"Fiber, total dietary",g,--,--,0.0,0.0
"Sugars, total",g,--,--,0.00,0.00
Minerals
"Sodium, Na",mg,--,--,0,0
Vitamins
"Vitamin C, total ascorbic acid",mg,--,--,3000.0,300000.0
Lipids
"Fatty acids, total trans",g,--,--,0.000,0.000
Amino Acids
Other
Ingredients
"NATURALLY DECAFFEINATED INSTANT TEA, CITRIC ACID, MALTODEXTRIN, ASCORBIC ACID VITAMIN C), GUM ARABIC, CARAMEL COLOR, ACESULFAME POTASSIUM, NATURAL LEMON FLAVOR WITH OTHER NATURAL FLAVORS, SUCRALOSE, ARTIFICIAL COLOR (F.D. & C. RED #40)." Date available: 06/19/2017 Date last updated by company: 06/19/2017
