Source: USDA Branded Food Products Database Release December 2017 Software v.3.8.6.4 2017-10-02
Report Run at: December 18, 2017 11:18 EST
"Nutrient data for: 45116978, ICELANDIC STYLE CREAM-SKYR STRAINED LOW-FAT YOGURT, UPC: 898248001503"
Food Group:  Branded Food Products Database
Common Name:

Nutrient,Unit,Data points,Std. Error,"5.3 ONZ = 150.0g",1Value per 100 g,
Proximates
"Energy",kcal,--,--,140,93
"Protein",g,--,--,15.00,10.00
"Total lipid (fat)",g,--,--,2.50,1.67
"Carbohydrate, by difference",g,--,--,15.00,10.00
"Fiber, total dietary",g,--,--,0.0,0.0
"Sugars, total",g,--,--,10.99,7.33
Minerals
"Calcium, Ca",mg,--,--,150,100
"Iron, Fe",mg,--,--,0.00,0.00
"Sodium, Na",mg,--,--,60,40
Vitamins
"Vitamin C, total ascorbic acid",mg,--,--,0.0,0.0
"Vitamin A, IU",IU,--,--,114,76
Lipids
"Fatty acids, total saturated",g,--,--,1.500,1.000
"Fatty acids, total trans",g,--,--,0.000,0.000
"Cholesterol",mg,--,--,15,10
Amino Acids
Other
Ingredients
"PASTEURIZED SKIM MILK, PASTEURIZED CREAM, BLACK CHERRIES, CANE SUGAR, FRUIT PECTIN, LEMON JUICE, LIVE ACTIVE CULTURES" Date available: 07/14/2017 Date last updated by company: 07/14/2017
