Source: USDA Branded Food Products Database Release December 2017 Software v.3.8.6.4 2017-10-02
Report Run at: December 18, 2017 11:18 EST
"Nutrient data for: 45081706, ICELANDIC STYLE CREAM-SKYRR, UPC: 898248001480"
Food Group:  Branded Food Products Database
Common Name:

Nutrient,Unit,Data points,Std. Error,"1 CONTAINER = 150.0g",1Value per 100 g,
Proximates
"Energy",kcal,--,--,140,93
"Protein",g,--,--,13.99,9.33
"Total lipid (fat)",g,--,--,3.00,2.00
"Carbohydrate, by difference",g,--,--,15.00,10.00
"Fiber, total dietary",g,--,--,0.0,0.0
"Sugars, total",g,--,--,10.99,7.33
Minerals
"Calcium, Ca",mg,--,--,130,87
"Iron, Fe",mg,--,--,0.00,0.00
"Sodium, Na",mg,--,--,60,40
Vitamins
"Vitamin C, total ascorbic acid",mg,--,--,0.0,0.0
"Vitamin A, IU",IU,--,--,0,0
Lipids
"Fatty acids, total saturated",g,--,--,1.995,1.330
"Fatty acids, total trans",g,--,--,0.000,0.000
"Cholesterol",mg,--,--,16,11
Amino Acids
Other
Ingredients
"PASTEURIZED SKIM MILK, PASTEURIZED CREAM, CANE SUGAR, MADAGASCAR BOURBON VANILLA, FRUIT PECTIN, CARDAMOM, LIVE ACTIVE CULTURES. LIVE ACTIVE CULTURES: B. LACTIS, L. ACIDOPHILUS, L. DELBRUECKII SUBSP. BULGARICUS, L. DELBRUECKII SUBSP. LACTIS, S. THERMOPHILUS" Date available: 07/14/2017 Date last updated by company: 07/14/2017
