Source: USDA Branded Food Products Database Release December 2017 Software v.3.8.6.4 2017-10-02
Report Run at: December 18, 2017 11:20 EST
"Nutrient data for: 45269857, ICHI-BAN TAKO-SENBEI, UPC: 4571126631455"
Food Group:  Branded Food Products Database
Common Name:

Nutrient,Unit,Data points,Std. Error,"1.05 ONZ = 30.0g",1Value per 100 g,
Proximates
"Energy",kcal,--,--,128,427
"Protein",g,--,--,1.00,3.33
"Total lipid (fat)",g,--,--,3.00,10.00
"Carbohydrate, by difference",g,--,--,23.00,76.67
"Fiber, total dietary",g,--,--,0.0,0.0
"Sugars, total",g,--,--,23.00,76.67
Minerals
"Calcium, Ca",mg,--,--,0,0
"Iron, Fe",mg,--,--,0.00,0.00
"Sodium, Na",mg,--,--,283,943
Vitamins
"Vitamin C, total ascorbic acid",mg,--,--,0.0,0.0
"Vitamin A, IU",IU,--,--,0,0
Lipids
"Fatty acids, total saturated",g,--,--,0.999,3.330
"Fatty acids, total trans",g,--,--,0.000,0.000
"Cholesterol",mg,--,--,7,23
Amino Acids
Other
Ingredients
"POTATO STARCH, SQUID, OCTOPUS, SUGAR, SALT, VEGETABLE OIL, SOY SAUCE, SWEET SAKE, FERMENTED SEASONING, RED PEPPER, DEXTRIN, BONITO EXTRACT, HYDROLYZED PROTEIN (FROM SOY BEAN), CRAB EXTRACT POWDER, TAPIOKA STARCH, MONOSODIUM GLUTAMATE, ACESULFAME POTASSIUM," Date available: 07/14/2017 Date last updated by company: 07/14/2017
