Source: USDA Branded Food Products Database Release December 2017 Software v.3.8.6.4 2017-10-02
Report Run at: December 18, 2017 11:22 EST
"Nutrient data for: 45208312, ICING DECORATIONS, UPC: 070896721228"
Food Group:  Branded Food Products Database
Common Name:

Nutrient,Unit,Data points,Std. Error,"1 PIECE = 2.0g",1Value per 100 g,
Proximates
"Energy",kcal,--,--,10,500
"Protein",g,--,--,0.00,0.00
"Total lipid (fat)",g,--,--,0.00,0.00
"Carbohydrate, by difference",g,--,--,2.00,100.00
"Sugars, total",g,--,--,1.00,50.00
Minerals
"Sodium, Na",mg,--,--,0,0
Vitamins
Lipids
Amino Acids
Other
Ingredients
"CONFECTIONER'S SUGAR (SUGAR, CORN STARCH), TAPIOCA FLOUR, WATER, VEGETABLE SHORTENING (HYDROGENATED PALM OIL), TITANIUM DIOXIDE (COLOR), FD&C YELLOW #5, FD&C YELLOW #6, FD&C RED #40, FD&C BLUE #1, CARAMEL COLOR, CARMINE, POTASSIUM SORBATE (PRESERVATIVE), GUM ARABIC, CELLULOSE GUM, TARTARIC ACID, ARTIFICIAL FLAVOR." Date available: 07/14/2017 Date last updated by company: 07/14/2017
