Source: USDA Branded Food Products Database Release December 2017 Software v.3.8.6.4 2017-10-02
Report Run at: December 18, 2017 11:24 EST
"Nutrient data for: 45117027, IDAHOAN, FULLY LOADED MASHED POTATOES, BACON & CHEDDAR, UPC: 029700021214"
Food Group:  Branded Food Products Database
Common Name:

Nutrient,Unit,Data points,Std. Error,"0.25 cup = 28.0g",1Value per 100 g,
Proximates
"Energy",kcal,--,--,100,357
"Protein",g,--,--,2.00,7.14
"Total lipid (fat)",g,--,--,1.50,5.36
"Carbohydrate, by difference",g,--,--,20.00,71.43
"Fiber, total dietary",g,--,--,2.0,7.1
"Sugars, total",g,--,--,1.00,3.57
Minerals
"Calcium, Ca",mg,--,--,20,71
"Iron, Fe",mg,--,--,1.80,6.43
"Sodium, Na",mg,--,--,710,2536
Vitamins
"Vitamin C, total ascorbic acid",mg,--,--,18.0,64.3
"Vitamin A, IU",IU,--,--,0,0
Lipids
"Fatty acids, total saturated",g,--,--,0.501,1.790
"Fatty acids, total trans",g,--,--,0.000,0.000
"Cholesterol",mg,--,--,0,0
Amino Acids
Other
Ingredients
"IDAHO POTATOES, SALT, MALTODEXTRIN, NATURAL FLAVORS (INCLUDING SMOKE), VEGETABLE OIL (CONTAINS ONE OR MORE OF THE FOLLOWING: COCONUT, SOYBEAN, SUNFLOWER, COTTONSEED, CANOLA), CHEDDAR CHEESE (PASTEURIZED MILK, CHEESE CULTURES, SALT, ENZYMES), SUGAR, SOY FLOUR, NONFAT DRY MILK, BLACK PEPPER AND BLACK PEPPER EXTRACT, MONO AND DIGLYCERIDES, CALCIUM STEAROYL LACTYLATE, BUTTERMILK, ANNATTO EXTRACT, ARTIFICIAL COLOR, SPICE, ARTIFICIAL FLAVOR, SODIUM ACID PYROPHOSPHATE (PRESERVE FRESHNESS), YEAST EXTRACT, PAPRIKA EXTRACT, SODIUM BISULFITE (PRESERVE FRESHNESS), CARAMEL COLOR, CITRIC ACID (PRESERVE FRESHNESS), MIXED TOCOPHEROLS (PRESERVE FRESHNESS), AND LESS THAN 2% SILICON DIOXIDE ADDED AS AN ANTICAKING AGENT." Date available: 07/14/2017 Date last updated by company: 07/14/2017
