Source: USDA Branded Food Products Database Release December 2017 Software v.3.8.6.4 2017-10-02
Report Run at: December 18, 2017 11:25 EST
"Nutrient data for: 45019156, IDAHOAN, MASHED POTATOES, APPLEWOOD SMOKED BACON, UPC: 029700021504"
Food Group:  Branded Food Products Database
Common Name:

Nutrient,Unit,Data points,Std. Error,"0.5 CUP PREPARED = 28.0g",1Value per 100 g,
Proximates
"Energy",kcal,--,--,100,357
"Protein",g,--,--,2.00,7.14
"Total lipid (fat)",g,--,--,2.00,7.14
"Carbohydrate, by difference",g,--,--,20.00,71.43
"Fiber, total dietary",g,--,--,1.0,3.6
"Sugars, total",g,--,--,2.00,7.14
Minerals
"Calcium, Ca",mg,--,--,40,143
"Iron, Fe",mg,--,--,1.80,6.43
"Sodium, Na",mg,--,--,540,1929
Vitamins
"Vitamin C, total ascorbic acid",mg,--,--,18.0,64.3
"Vitamin A, IU",IU,--,--,0,0
Lipids
"Fatty acids, total saturated",g,--,--,1.000,3.570
"Fatty acids, total trans",g,--,--,0.000,0.000
"Cholesterol",mg,--,--,0,0
Amino Acids
Other
Ingredients
"IDAHO POTATOES, MALTODEXTRIN, CHEDDAR CHEESE BLEND (CHEDDAR CHEESE [CULTURED MILK, SALT, ENZYMES], WHEY, BUTTERMILK, MALTODEXTRIN, SALT, DISODIUM PHOSPHATE, BUTTER, MODIFIED FOOD STARCH, YEAST EXTRACT, NATURAL AND ARTIFICIAL FLAVOR, CORN SYRUP SOLIDS, AUTOLYZED YEAST, TORULA YEAST), SALT, CORN SYRUP SOLIDS, VEGETABLE OIL (CONTAINS ONE OR MORE OF THE FOLLOWING: COCONUT, PALM, SOYBEAN, COTTONSEED, SUNFLOWER, CANOLA), SUGAR, BACON FLAVORED CRUMBLES (TEXTURED VEGETABLE PROTEIN [SOY FLOUR, CARAMEL COLOR, RED #3[, SOYBEAN OIL, WATER, SALT, NATURAL FLAVORINGS, AUTOLYZED YEAST EXTRACT, DEXTROSE), NONFAT MILK SPICE, MODIFIED FOOD STARCH, DEXTROSE, NATURAL AND ARTIFICIAL FLAVORS (INCLUDING SMOKE FLAVOR), MONO AND DIGLYCERIDES, CALCIUM STEAROYL LACTYLATE, SODIUM CASEINATE, ARTIFICIAL COLOR (INCLUDING YELLOW #5 AND YELLOW #6). RICE STARCH, SODIUM ACID PYROPHOSPHATE (PRESERVE FRESHNESS), ANHYDROUS BUTTERFAT, SODIUM BISULFITE (PRESERVE FRESHNESS), DIPOTASSIUM PHOSPHATE, DISODIUM INOSINATE, DISODIUM GUANYLATE, CITRIC ACID (PRESERVE FRESHNESS), MIXED TOCOPHEROLS (PRESERVE FRESHNESS) AND LESS THAN 2% SILICON DIOXIDE ADDED AS AN ANTI-CAKING AGENT." Date available: 07/14/2017 Date last updated by company: 07/14/2017
