Source: USDA Branded Food Products Database Release December 2017 Software v.3.8.6.4 2017-10-02
Report Run at: December 18, 2017 11:30 EST
"Nutrient data for: 45106625, IGA, REGULAR INSTANT OATMEAL, UPC: 041270016650"
Food Group:  Branded Food Products Database
Common Name:

Nutrient,Unit,Data points,Std. Error,"1 PACKET = 28.0g",1Value per 100 g,
Proximates
"Energy",kcal,--,--,100,357
"Protein",g,--,--,4.00,14.29
"Total lipid (fat)",g,--,--,1.50,5.36
"Carbohydrate, by difference",g,--,--,18.00,64.29
"Fiber, total dietary",g,--,--,3.0,10.7
"Sugars, total",g,--,--,1.00,3.57
Minerals
"Calcium, Ca",mg,--,--,100,357
"Iron, Fe",mg,--,--,11.57,41.33
"Magnesium, Mg",mg,--,--,57,204
"Phosphorus, P",mg,--,--,143,510
"Sodium, Na",mg,--,--,80,286
Vitamins
"Vitamin C, total ascorbic acid",mg,--,--,0.0,0.0
"Thiamin",mg,--,--,0.560,2.000
"Riboflavin",mg,--,--,0.340,1.214
"Niacin",mg,--,--,5.714,20.407
"Vitamin B-6",mg,--,--,0.571,2.041
"Vitamin A, IU",IU,--,--,1429,5102
Lipids
"Fatty acids, total saturated",g,--,--,0.000,0.000
"Fatty acids, total monounsaturated",g,--,--,0.501,1.790
"Fatty acids, total polyunsaturated",g,--,--,0.501,1.790
"Fatty acids, total trans",g,--,--,0.000,0.000
"Cholesterol",mg,--,--,0,0
Amino Acids
Other
Ingredients
"WHOLE GRAIN ROLLED OATS, OAT FLOUR (WHOLE), CALCIUM CARBONATE (A SOURCE OF CALCIUM), SUGAR, SALT, DEXTROSE, GUAR GUM, CARAMEL COLOR, FERRIC PHOSPHATE (A SOURCE OF IRON), NIACINAMIDE*, PYRIDOXINE HYDROCHLORIDE (VITAMIN B6)*, RIBOFLAVIN*; VITAMIN A PALMITATE, THIAMIN MONONITRATE*, FOLIC ACID*" Date available: 06/25/2017 Date last updated by company: 06/25/2017
