Source: USDA Branded Food Products Database Release December 2017 Software v.3.8.6.4 2017-10-02
Report Run at: December 18, 2017 11:34 EST
"Nutrient data for: 45047652, IMAGINE NATURAL* CREATIONS, ORGANIC CHICKEN POT PIE SOUP, UPC: 790555011841"
Food Group:  Branded Food Products Database
Common Name:

Nutrient,Unit,Data points,Std. Error,"1 cup = 250.0g",1Value per 100 g,
Proximates
"Energy",kcal,--,--,170,68
"Protein",g,--,--,7.00,2.80
"Total lipid (fat)",g,--,--,6.00,2.40
"Carbohydrate, by difference",g,--,--,22.00,8.80
"Fiber, total dietary",g,--,--,2.0,0.8
"Sugars, total",g,--,--,2.00,0.80
Minerals
"Calcium, Ca",mg,--,--,20,8
"Iron, Fe",mg,--,--,1.40,0.56
"Sodium, Na",mg,--,--,670,268
Vitamins
"Vitamin C, total ascorbic acid",mg,--,--,2.2,0.9
"Vitamin A, IU",IU,--,--,980,392
Lipids
"Fatty acids, total saturated",g,--,--,2.500,1.000
"Fatty acids, total trans",g,--,--,0.000,0.000
"Cholesterol",mg,--,--,20,8
Amino Acids
Other
Ingredients
"FILTERED WATER, ORGANIC CARROTS, ORGANIC PASTA (ORGANIC WHEAT SEMOLINA, ORGANIC EGG WHITES), ORGANIC DARK MEAT CHICKEN, ORGANIC PEAS, ORGANIC CREAM (MILK), ORGANIC RICE STARCH, ORGANIC POTATO FLAKES, FLAVORS, ORGANIC CHICKEN BROTH CONCENTRATE (ORGANIC CHICKEN BROTH, ORGANIC CHICKEN FLAVOR, ORGANIC CHICKEN FAT, ORGANIC SOY SAUCE POWDER [ORGANIC SOY SAUCE {WATER, ORGANIC SOYBEANS, SALT}, ORGANIC CORN MALTODEXTRIN, SALT], SEA SALT, YEAST EXTRACT, ORGANIC CANOLA OIL, ORGANIC COOKED VEGETABLES [ORGANIC CARROTS, ORGANIC CELERY, ORGANIC ONIONS], ORGANIC ONION POWDER, ORGANIC TURMERIC, FLAVORING, ORGANIC FLAVOR), SEA SALT, ORGANIC GARLIC, ORGANIC ONION POWDER, ORGANIC SPICE, ORGANIC PARSLEY, ORGANIC SEASONING (ORGANIC SPICES, ORGANIC CELERY), ORGANIC TURMERIC." Date available: 06/24/2017 Date last updated by company: 06/24/2017
