Source: USDA Branded Food Products Database Release December 2017 Software v.3.8.6.4 2017-10-02
Report Run at: December 18, 2017 11:36 EST
"Nutrient data for: 45268734, IMITATION MONTEREY JACK CHEESE, UPC: 791945307001"
Food Group:  Branded Food Products Database
Common Name:

Nutrient,Unit,Data points,Std. Error,"0.33 cup = 30.0g",1Value per 100 g,
Proximates
"Energy",kcal,--,--,80,267
"Protein",g,--,--,1.00,3.33
"Total lipid (fat)",g,--,--,6.00,20.00
"Carbohydrate, by difference",g,--,--,6.00,20.00
"Fiber, total dietary",g,--,--,0.0,0.0
"Sugars, total",g,--,--,0.00,0.00
Minerals
"Calcium, Ca",mg,--,--,0,0
"Iron, Fe",mg,--,--,0.00,0.00
"Sodium, Na",mg,--,--,310,1033
Vitamins
"Vitamin C, total ascorbic acid",mg,--,--,0.0,0.0
"Vitamin A, IU",IU,--,--,0,0
Lipids
"Fatty acids, total saturated",g,--,--,1.500,5.000
"Fatty acids, total trans",g,--,--,2.001,6.670
"Cholesterol",mg,--,--,0,0
Amino Acids
Other
Ingredients
"WATER, FOOD STARCH, PARTIALLY HYDROGENATED SOYBEAN OIL, NATURAL FLAVOR, SODIUM CASEINATE, SALT, SODIUM PHOSPHATE, LACTIC ACID, SORBIC ACID (AS A PRESERVATIVE), CARRAGEENAN GUM, ARTIFICIAL COLOR, (FOOD STARCH, POWDERED CELLULOSE, DEXTROSE, GLUCOSE OXIDASE, ADDED TO PREVENT CAKING AND TO MAINTAIN FRESHNESS)." Date available: 07/14/2017 Date last updated by company: 07/14/2017
