Source: USDA Branded Food Products Database Release December 2017 Software v.3.8.6.4 2017-10-02
Report Run at: December 18, 2017 12:19 EST
"Nutrient data for: 45180270, IN THE MIX, NINJA BREAD COOKIE KIT, GINGERBREAD COOKIE MIX,, UPC: 844527031211"
Food Group:  Branded Food Products Database
Common Name:

Nutrient,Unit,Data points,Std. Error,"0.125 PACKAGE = 25.0g",1Value per 100 g,
Proximates
"Energy",kcal,--,--,90,360
"Protein",g,--,--,2.00,8.00
"Total lipid (fat)",g,--,--,0.00,0.00
"Carbohydrate, by difference",g,--,--,21.00,84.00
"Fiber, total dietary",g,--,--,1.0,4.0
"Sugars, total",g,--,--,9.00,36.00
Minerals
"Calcium, Ca",mg,--,--,0,0
"Iron, Fe",mg,--,--,2.16,8.64
"Sodium, Na",mg,--,--,80,320
Vitamins
"Vitamin C, total ascorbic acid",mg,--,--,0.0,0.0
"Vitamin A, IU",IU,--,--,0,0
Lipids
"Fatty acids, total saturated",g,--,--,0.000,0.000
"Fatty acids, total trans",g,--,--,0.000,0.000
"Cholesterol",mg,--,--,0,0
Amino Acids
Other
Ingredients
"GINGERBREAD COOKIE MIX: ENRICHED WHEAT FLOUR (WHEAT FLOUR, MALTED BARLEY FLOUR, NIACIN, REDUCED IRON, THIAMINE MONONITRATE, RIBOFLAVIN, FOLIC ACID), BROWN SUGAR (SUGAR, CANE SYRUPS), BAKING SODA (LEAVENING AGENT), SALT, CINNAMON, SPICES. VANILLA FROSTING MIX: CONFECTIONER'S SUGAR (SUGAR, CORN STARCH), NATURAL AND ARTIFICIAL FLAVORS, CANDY BEADS: DEXTROSE, MALTODEXTRIN, CALCIUM STEARATE, MALIC ACID, NATURAL AND ARTIFICIAL FLAVORS, CORN SYRUP, RESINOUS GLAZE, TAPIOCA DEXTRIN, CARNAUBA WAX, RED 40, YELLOW 5, YELLOW 6) BLUE 1." Date available: 07/14/2017 Date last updated by company: 07/14/2017
