Source: USDA Branded Food Products Database Release December 2017 Software v.3.8.6.4 2017-10-02
Report Run at: December 18, 2017 11:47 EST
"Nutrient data for: 45255596, INDIVIDUALLY FROZEN BONELESS SKINLESS CHICKEN BREAST, UPC: 852945001525"
Food Group:  Branded Food Products Database
Common Name:

Nutrient,Unit,Data points,Std. Error,"4.0 ONZ = 114.0g",1Value per 100 g,
Proximates
"Energy",kcal,--,--,130,114
"Protein",g,--,--,24.00,21.05
"Total lipid (fat)",g,--,--,3.00,2.63
"Carbohydrate, by difference",g,--,--,0.00,0.00
"Fiber, total dietary",g,--,--,0.0,0.0
"Sugars, total",g,--,--,0.00,0.00
Minerals
"Calcium, Ca",mg,--,--,0,0
"Iron, Fe",mg,--,--,0.36,0.32
"Sodium, Na",mg,--,--,130,114
Vitamins
"Vitamin C, total ascorbic acid",mg,--,--,1.3,1.1
"Vitamin A, IU",IU,--,--,0,0
Lipids
"Fatty acids, total saturated",g,--,--,0.502,0.440
"Fatty acids, total trans",g,--,--,0.000,0.000
"Cholesterol",mg,--,--,75,66
Amino Acids
Other
Ingredients
"INDIVIDUALLY FROZEN BONELESS SKINLESS CHICKEN BREAST" Date available: 01/01/2017 Date last updated by company: 01/01/2017
