Source: USDA Branded Food Products Database Release December 2017 Software v.3.8.6.4 2017-10-02
Report Run at: December 18, 2017 11:45 EST
"Nutrient data for: 45292138, INDIAN INSPIRED TANDOORI MARINADE, UPC: 011110787675"
Food Group:  Branded Food Products Database
Common Name:

Nutrient,Unit,Data points,Std. Error,"1 Tbsp = 15.0g",1Value per 100 g,
Proximates
"Energy",kcal,--,--,20,133
"Protein",g,--,--,0.00,0.00
"Total lipid (fat)",g,--,--,1.50,10.00
"Carbohydrate, by difference",g,--,--,1.00,6.67
"Fiber, total dietary",g,--,--,0.0,0.0
"Sugars, total",g,--,--,0.00,0.00
Minerals
"Sodium, Na",mg,--,--,190,1267
Vitamins
Lipids
Amino Acids
Other
Ingredients
"WATER, CANOLA OIL, SEASONING (SPICES, DEHYDRATED GARLIC, SALT, DEHYDRATED ONION, DEHYDRATED BEET, PAPAIN), DISTILLED VINEGAR, SALT, SPICE, DEHYDRATED GARLIC, MODIFIED CORN STARCH, LEMON JUICE CONCENTRATE, SUGAR, COCHINEAL COLOR, SPICE EXTRACT, XANTHAN GUM, POTASSIUM SORBATE (PRESERVATIVE)." Date available: 07/14/2017 Date last updated by company: 07/14/2017
