Source: USDA Branded Food Products Database Release December 2017 Software v.3.8.6.4 2017-10-02
Report Run at: December 18, 2017 11:54 EST
"Nutrient data for: 45216747, INNER-ECO, PROBIOTIC FRESH COCONUT WATER, ORIGINAL PLAIN, UPC: 897630002005"
Food Group:  Branded Food Products Database
Common Name:

Nutrient,Unit,Data points,Std. Error,"1 Tbsp = 14.8g",1Value per 100 g,
Proximates
"Energy",kcal,--,--,3,20
"Protein",g,--,--,0.00,0.00
"Total lipid (fat)",g,--,--,0.00,0.00
"Carbohydrate, by difference",g,--,--,1.00,6.76
"Sugars, total",g,--,--,0.00,0.00
Minerals
"Calcium, Ca",mg,--,--,0,0
"Iron, Fe",mg,--,--,0.00,0.00
"Sodium, Na",mg,--,--,3,20
Vitamins
"Vitamin C, total ascorbic acid",mg,--,--,0.0,0.0
"Vitamin A, IU",IU,--,--,0,0
Lipids
"Cholesterol",mg,--,--,0,0
Amino Acids
Other
Ingredients
"FRESH YOUNG COCONUT WATER, KEFIR CULTURES." Date available: 10/04/2017 Date last updated by company: 10/04/2017
