Source: USDA Branded Food Products Database Release December 2017 Software v.3.8.6.4 2017-10-02
Report Run at: December 18, 2017 11:55 EST
"Nutrient data for: 45145459, INSPIRATIONS, CARAMEL CHOCOLATE CHIP MINI COOKIES, UPC: 725439986304"
Food Group:  Branded Food Products Database
Common Name:

Nutrient,Unit,Data points,Std. Error,"5.0 COOKIES = 28.0g",1Value per 100 g,
Proximates
"Energy",kcal,--,--,140,500
"Protein",g,--,--,1.00,3.57
"Total lipid (fat)",g,--,--,7.00,25.00
"Carbohydrate, by difference",g,--,--,19.00,67.86
"Fiber, total dietary",g,--,--,1.0,3.6
"Sugars, total",g,--,--,11.00,39.29
Minerals
"Calcium, Ca",mg,--,--,0,0
"Iron, Fe",mg,--,--,1.29,4.59
"Sodium, Na",mg,--,--,190,679
Vitamins
"Vitamin C, total ascorbic acid",mg,--,--,0.0,0.0
"Vitamin A, IU",IU,--,--,357,1275
Lipids
"Fatty acids, total saturated",g,--,--,4.001,14.290
"Fatty acids, total trans",g,--,--,0.000,0.000
"Cholesterol",mg,--,--,20,71
Amino Acids
Other
Ingredients
"ENRICHED FLOUR [WHEAT FLOUR, NIACIN, REDUCED IRON, THIAMIN MONONITRATE, RIBOFLAVIN, FOLIC ACID], SEMISWEET CHOCOLATE CHIPS [SUGAR, CHOCOLATE LIQUOR, COCOA BUTTER, SOY LECITHIN], SALTED BUTTER (CREAM [MILK], WATER, SALT, CANE SUGAR, BROWN SUGAR, WHOLE EGGS, CARAMEL ORGANIC TAPIOCA SYRUP, ORGANIC BUTTER [ORGANIC CREAM [MILK], SALT) ORGANIC VANILLA, SEA SALT), SALT, BAKING SODA." Date available: 07/14/2017 Date last updated by company: 07/14/2017
