Source: USDA Branded Food Products Database Release December 2017 Software v.3.8.6.4 2017-10-02
Report Run at: December 18, 2017 12:09 EST
"Nutrient data for: 45195764, INSTANT PUDDING & PIE FILLING, UPC: 041497578917"
Food Group:  Branded Food Products Database
Common Name:

Nutrient,Unit,Data points,Std. Error,"0.25 PACKAGE (MAKES 1/2 CUP) = 24.0g",1Value per 100 g,
Proximates
"Energy",kcal,--,--,90,375
"Protein",g,--,--,0.00,0.00
"Total lipid (fat)",g,--,--,0.00,0.00
"Carbohydrate, by difference",g,--,--,22.00,91.67
"Fiber, total dietary",g,--,--,0.0,0.0
"Sugars, total",g,--,--,18.00,75.00
Minerals
"Calcium, Ca",mg,--,--,0,0
"Iron, Fe",mg,--,--,0.00,0.00
"Sodium, Na",mg,--,--,390,1625
Vitamins
"Vitamin C, total ascorbic acid",mg,--,--,0.0,0.0
"Vitamin A, IU",IU,--,--,0,0
Lipids
"Fatty acids, total saturated",g,--,--,0.000,0.000
"Fatty acids, total trans",g,--,--,0.000,0.000
"Cholesterol",mg,--,--,0,0
Amino Acids
Other
Ingredients
"SUGAR, MODIFIED FOOD STARCH, DEXTROSE, DISODIUM PHOSPHATE, TETRASODIUM PYROPHOSPHATE, CONTAINS 2% OR LESS OF NONFAT DRY MILK, SALT, MONO- AND DIGLYCERIDES (PREVENT FOAMING), PARTIALLY HYDROGENATED SOYBEAN OIL WITH BHA (PRESERVATIVE), TITANIUM DIOXIDE (FOR COLOR), NATURAL AND ARTIFICIAL FLAVOR, YELLOW 5, YELLOW 6." Date available: 10/13/2017 Date last updated by company: 10/13/2017
