Source: USDA Branded Food Products Database Release December 2017 Software v.3.8.6.4 2017-10-02
Report Run at: December 18, 2017 12:04 EST
"Nutrient data for: 45083120, INSTANT OATMEAL, UPC: 042400225218"
Food Group:  Branded Food Products Database
Common Name:

Nutrient,Unit,Data points,Std. Error,"1 CONTAINER = 42.0g",1Value per 100 g,
Proximates
"Energy",kcal,--,--,160,381
"Protein",g,--,--,4.00,9.52
"Total lipid (fat)",g,--,--,3.00,7.14
"Carbohydrate, by difference",g,--,--,31.00,73.81
"Fiber, total dietary",g,--,--,3.0,7.1
"Sugars, total",g,--,--,10.00,23.81
Minerals
"Calcium, Ca",mg,--,--,20,48
"Iron, Fe",mg,--,--,1.89,4.49
"Magnesium, Mg",mg,--,--,52,125
"Phosphorus, P",mg,--,--,131,312
"Potassium, K",mg,--,--,105,250
"Sodium, Na",mg,--,--,220,524
Vitamins
"Vitamin C, total ascorbic acid",mg,--,--,0.0,0.0
"Vitamin A, IU",IU,--,--,0,0
Lipids
"Fatty acids, total saturated",g,--,--,1.000,2.380
"Fatty acids, total trans",g,--,--,0.000,0.000
"Cholesterol",mg,--,--,0,0
Amino Acids
Other
Ingredients
"WHOLE GRAIN ROLLED OATS, SUGAR, CHOCOLATE CHIPS (SUGAR, CHOCOLATE LIQUOR, COCOA BUTTER, SOY LECITHIN, VANILLA), SALT, NATURAL FLAVOR." Date available: 07/14/2017 Date last updated by company: 07/14/2017
