Source: USDA Branded Food Products Database Release December 2017 Software v.3.8.6.4 2017-10-02
Report Run at: December 18, 2017 12:06 EST
"Nutrient data for: 45280676, INSTANT OATMEAL, UPC: 074175484033"
Food Group:  Branded Food Products Database
Common Name:

Nutrient,Unit,Data points,Std. Error,"1 PACKET = 43.0g",1Value per 100 g,
Proximates
"Energy",kcal,--,--,160,372
"Protein",g,--,--,4.00,9.30
"Total lipid (fat)",g,--,--,2.00,4.65
"Carbohydrate, by difference",g,--,--,32.00,74.42
"Fiber, total dietary",g,--,--,3.0,7.0
"Sugars, total",g,--,--,9.00,20.93
Minerals
"Calcium, Ca",mg,--,--,100,233
"Iron, Fe",mg,--,--,4.61,10.71
"Magnesium, Mg",mg,--,--,77,179
"Phosphorus, P",mg,--,--,192,446
"Potassium, K",mg,--,--,120,279
"Sodium, Na",mg,--,--,210,488
Vitamins
"Vitamin C, total ascorbic acid",mg,--,--,0.0,0.0
"Thiamin",mg,--,--,0.430,1.000
"Riboflavin",mg,--,--,0.340,0.791
"Niacin",mg,--,--,5.116,11.898
"Vitamin B-6",mg,--,--,0.512,1.190
"Vitamin A, IU",IU,--,--,1279,2974
"Vitamin D",IU,--,--,80,186
Lipids
"Fatty acids, total saturated",g,--,--,0.000,0.000
"Fatty acids, total monounsaturated",g,--,--,0.499,1.160
"Fatty acids, total polyunsaturated",g,--,--,1.002,2.330
"Fatty acids, total trans",g,--,--,0.000,0.000
"Cholesterol",mg,--,--,0,0
Amino Acids
Other
Ingredients
"WHOLE GRAIN ROLLED OATS, SUGAR, NATURAL AND ARTIFICIAL FLAVORS, SALT, CINNAMON, GUAR GUM, CARAMEL COLOR, VITAMINS AND MINERALS: CALCIUM CARBONATE (A SOURCE OF CALCIUM), NIACINAMIDE*, REDUCED IRON, VITAMIN A PALMITATE, PYRIDOXINE HYDROCHLORIDE*, RIBOFLAVIN*, THIAMIN MONONITRATE*, FOLIC ACID*, VITAMIN D." Date available: 07/14/2017 Date last updated by company: 07/14/2017
