Source: USDA Branded Food Products Database Release December 2017 Software v.3.8.6.4 2017-10-02
Report Run at: December 18, 2017 12:04 EST
"Nutrient data for: 45175157, INSTANT OATMEAL, UPC: 042400235781"
Food Group:  Branded Food Products Database
Common Name:

Nutrient,Unit,Data points,Std. Error,"1 POUCH = 35.0g",1Value per 100 g,
Proximates
"Energy",kcal,--,--,130,371
"Protein",g,--,--,3.00,8.57
"Total lipid (fat)",g,--,--,1.50,4.29
"Carbohydrate, by difference",g,--,--,27.00,77.14
"Fiber, total dietary",g,--,--,2.0,5.7
"Sugars, total",g,--,--,12.00,34.29
Minerals
"Calcium, Ca",mg,--,--,100,286
"Iron, Fe",mg,--,--,5.66,16.16
"Sodium, Na",mg,--,--,180,514
Vitamins
"Vitamin C, total ascorbic acid",mg,--,--,1.9,5.4
"Thiamin",mg,--,--,0.700,2.000
"Riboflavin",mg,--,--,0.340,0.971
"Niacin",mg,--,--,6.286,17.960
"Vitamin B-6",mg,--,--,0.629,1.796
"Vitamin A, IU",IU,--,--,1572,4490
Lipids
"Fatty acids, total saturated",g,--,--,0.000,0.000
"Fatty acids, total monounsaturated",g,--,--,0.000,0.000
"Fatty acids, total polyunsaturated",g,--,--,0.000,0.000
"Fatty acids, total trans",g,--,--,0.000,0.000
"Cholesterol",mg,--,--,0,0
Amino Acids
Other
Ingredients
"WHOLE GRAIN ROLLED OATS, SUGAR, NATURAL AND ARTIFICIAL FLAVOR, DEHYDRATED STRAWBERRIES, SALT, CITRIC ACID. VITAMINS & MINERALS: CALCIUM CARBONATE, FERRIC ORTHOPHOSPHATE (SOURCE OF IRON), VITAMIN E ACETATE, NIACINAMIDE*, VITAMIN A PALMITATE, PYRIDOXINE HYDROCHLORIDE*M RIBOFLAVIN*, THIAMIN MONONITRATE*, FOLIC ACID*." Date available: 07/14/2017 Date last updated by company: 07/14/2017
