Source: USDA Branded Food Products Database Release December 2017 Software v.3.8.6.4 2017-10-02
Report Run at: December 18, 2017 12:18 EST
"Nutrient data for: 45205653, INTERNATIONAL HARVEST, GO SPROUTED PUMPKIN SEEDS!, UPC: 739446402382"
Food Group:  Branded Food Products Database
Common Name:

Nutrient,Unit,Data points,Std. Error,"0.25 cup = 30.0g",1Value per 100 g,
Proximates
"Energy",kcal,--,--,161,537
"Protein",g,--,--,8.00,26.67
"Total lipid (fat)",g,--,--,14.00,46.67
"Carbohydrate, by difference",g,--,--,5.00,16.67
"Fiber, total dietary",g,--,--,1.0,3.3
"Sugars, total",g,--,--,0.00,0.00
Minerals
"Calcium, Ca",mg,--,--,10,33
"Iron, Fe",mg,--,--,7.50,25.00
"Sodium, Na",mg,--,--,150,500
"Zinc, Zn",mg,--,--,3.00,10.00
Vitamins
"Vitamin C, total ascorbic acid",mg,--,--,1.0,3.3
"Vitamin A, IU",IU,--,--,166,555
Lipids
"Fatty acids, total saturated",g,--,--,2.001,6.670
"Fatty acids, total trans",g,--,--,0.000,0.000
"Cholesterol",mg,--,--,0,0
Amino Acids
Other
Ingredients
"ORGANIC PUMPKIN SEEDS, SEA SALT" Date available: 07/14/2017 Date last updated by company: 07/14/2017
