Source: USDA Branded Food Products Database Release December 2017 Software v.3.8.6.4 2017-10-02
Report Run at: December 18, 2017 12:18 EST
"Nutrient data for: 45243901, INTERNATIONAL DELIGHT, SIMPLY PURE, COFFEE CREAMER, VANILLA, UPC: 041271027464"
Food Group:  Branded Food Products Database
Common Name:

Nutrient,Unit,Data points,Std. Error,"1 Tbsp = 15.0g",1Value per 100 g,
Proximates
"Energy",kcal,--,--,30,200
"Protein",g,--,--,0.00,0.00
"Total lipid (fat)",g,--,--,1.00,6.67
"Carbohydrate, by difference",g,--,--,5.00,33.33
"Fiber, total dietary",g,--,--,0.0,0.0
"Sugars, total",g,--,--,5.00,33.33
Minerals
"Calcium, Ca",mg,--,--,0,0
"Iron, Fe",mg,--,--,0.00,0.00
"Sodium, Na",mg,--,--,0,0
Vitamins
"Vitamin C, total ascorbic acid",mg,--,--,0.0,0.0
"Vitamin A, IU",IU,--,--,0,0
Lipids
"Fatty acids, total saturated",g,--,--,0.500,3.330
"Fatty acids, total trans",g,--,--,0.000,0.000
"Cholesterol",mg,--,--,5,33
Amino Acids
Other
Ingredients
"SKIM MILK, CANE SUGAR, CREAM, CONTAINS 2% OR LESS OF: NATURAL FLAVOR, GUAR GUM." Date available: 07/14/2017 Date last updated by company: 07/14/2017
