Source: USDA Branded Food Products Database Release December 2017 Software v.3.8.6.4 2017-10-02
Report Run at: December 18, 2017 12:21 EST
"Nutrient data for: 45188072, IQ ACCESSORIES, SPRINKLES PASTEL FLOWERS, UPC: 872197641454"
Food Group:  Branded Food Products Database
Common Name:

Nutrient,Unit,Data points,Std. Error,"1 tsp = 4.0g",1Value per 100 g,
Proximates
"Energy",kcal,--,--,16,400
"Protein",g,--,--,0.10,2.50
"Total lipid (fat)",g,--,--,0.20,5.00
"Carbohydrate, by difference",g,--,--,3.60,90.00
"Sugars, total",g,--,--,3.00,75.00
Minerals
"Sodium, Na",mg,--,--,5,135
Vitamins
Lipids
"Fatty acids, total trans",g,--,--,0.100,2.500
"Cholesterol",mg,--,--,0,0
Amino Acids
Other
Ingredients
"SUGAR, RICE FLOUR,PALM OIL, PALM KERNEL OIL, CORN STARCH, CELLULOSE GUM, CARRAGEENAN, FD&C YELLOW 5, FD&C YELLOW 6, FD&C RED 3, FD&C BLUE 1 AND FD&C BLUE 1 LAKE." Date available: 08/11/2017 Date last updated by company: 08/11/2017
