Source: USDA Branded Food Products Database Release December 2017 Software v.3.8.6.4 2017-10-02
Report Run at: December 18, 2017 12:25 EST
"Nutrient data for: 45006728, ISABEL, OCTOPUS IN VEGETABLE OIL, UPC: 8410111852207"
Food Group:  Branded Food Products Database
Common Name:

Nutrient,Unit,Data points,Std. Error,"2.0 ONZ = 56.0g",1Value per 100 g,
Proximates
"Energy",kcal,--,--,160,286
"Protein",g,--,--,7.00,12.50
"Total lipid (fat)",g,--,--,14.00,25.00
"Carbohydrate, by difference",g,--,--,1.00,1.79
"Fiber, total dietary",g,--,--,0.0,0.0
"Sugars, total",g,--,--,0.00,0.00
Minerals
"Calcium, Ca",mg,--,--,60,107
"Iron, Fe",mg,--,--,10.93,19.51
"Sodium, Na",mg,--,--,280,500
Vitamins
"Vitamin C, total ascorbic acid",mg,--,--,0.0,0.0
"Vitamin A, IU",IU,--,--,304,542
Lipids
"Fatty acids, total saturated",g,--,--,1.002,1.790
"Fatty acids, total trans",g,--,--,0.000,0.000
"Cholesterol",mg,--,--,120,214
Amino Acids
Other
Ingredients
"CEPHALOPODS, VEGETABLE OIL (SOY OR SUNFLOWER OIL) AND SALT." Date available: 07/14/2017 Date last updated by company: 07/14/2017
