Source: USDA Branded Food Products Database Release December 2017 Software v.3.8.6.4 2017-10-02
Report Run at: December 18, 2017 12:26 EST
"Nutrient data for: 45092862, ISERNIO'S, PREMIUM BREAKFAST SAUSAGE, UPC: 084632120107"
Food Group:  Branded Food Products Database
Common Name:

Nutrient,Unit,Data points,Std. Error,"2.0 LINKS = 88.0g",1Value per 100 g,
Proximates
"Energy",kcal,--,--,140,159
"Protein",g,--,--,12.00,13.64
"Total lipid (fat)",g,--,--,9.00,10.23
"Carbohydrate, by difference",g,--,--,1.00,1.14
"Sugars, total",g,--,--,1.00,1.14
Minerals
"Iron, Fe",mg,--,--,0.23,0.26
"Sodium, Na",mg,--,--,390,443
Vitamins
Lipids
"Fatty acids, total saturated",g,--,--,3.001,3.410
"Cholesterol",mg,--,--,45,51
Amino Acids
Other
Ingredients
"PORK, WATER, SALT, HONEY GRANULES (REFINERY SYRUP, HONEY), TORULA YEAST, LEMON JUICE CONCENTRATE, NATURAL FLAVORS, SPICES, NATURAL SHEEP CASINGS." Date available: 06/25/2017 Date last updated by company: 06/25/2017
