Source: USDA Branded Food Products Database Release December 2017 Software v.3.8.6.4 2017-10-02
Report Run at: December 18, 2017 12:26 EST
"Nutrient data for: 45092799, ISERNIO'S, ITALIAN SAUSAGE, MILD, UPC: 084632661419"
Food Group:  Branded Food Products Database
Common Name:

Nutrient,Unit,Data points,Std. Error,"2.0 ONZ = 56.0g",1Value per 100 g,
Proximates
"Energy",kcal,--,--,140,250
"Protein",g,--,--,12.00,21.43
"Total lipid (fat)",g,--,--,10.00,17.86
"Carbohydrate, by difference",g,--,--,0.00,0.00
"Fiber, total dietary",g,--,--,0.0,0.0
"Sugars, total",g,--,--,0.00,0.00
Minerals
"Calcium, Ca",mg,--,--,0,0
"Iron, Fe",mg,--,--,0.71,1.26
"Sodium, Na",mg,--,--,480,857
Vitamins
"Vitamin C, total ascorbic acid",mg,--,--,2.4,4.2
"Vitamin A, IU",IU,--,--,0,0
Lipids
"Fatty acids, total saturated",g,--,--,3.500,6.250
"Fatty acids, total trans",g,--,--,0.000,0.000
"Cholesterol",mg,--,--,45,80
Amino Acids
Other
Ingredients
"PORK, WATER, SALT, VINEGAR, SPICES (INCLUDING FENNEL AND PEPPER), DEHYDRATED GARLIC, SPICE EXTRACTIVE, LEMON JUICE CONCENTRATE" Date available: 06/25/2017 Date last updated by company: 06/25/2017
