Source: USDA Branded Food Products Database Release December 2017 Software v.3.8.6.4 2017-10-02
Report Run at: December 18, 2017 12:35 EST
"Nutrient data for: 45053968, ITALIAN DESSERT, UPC: 049800173002"
Food Group:  Branded Food Products Database
Common Name:

Nutrient,Unit,Data points,Std. Error,"0.125 CAKE = 78.0g",1Value per 100 g,
Proximates
"Energy",kcal,--,--,210,269
"Protein",g,--,--,3.00,3.85
"Total lipid (fat)",g,--,--,13.00,16.67
"Carbohydrate, by difference",g,--,--,22.00,28.21
"Fiber, total dietary",g,--,--,0.0,0.0
"Sugars, total",g,--,--,16.00,20.51
Minerals
"Calcium, Ca",mg,--,--,40,51
"Iron, Fe",mg,--,--,0.55,0.71
"Sodium, Na",mg,--,--,170,218
Vitamins
"Vitamin C, total ascorbic acid",mg,--,--,0.0,0.0
"Vitamin A, IU",IU,--,--,615,789
Lipids
"Fatty acids, total saturated",g,--,--,8.003,10.260
"Fatty acids, total trans",g,--,--,0.000,0.000
"Cholesterol",mg,--,--,65,83
Amino Acids
Other
Ingredients
"HEAVY CREAM (CREAM, MILK, MILK, MONO AND DIGLYCERIDES, POLYSORBATE 80, CARRAGEENAN), WATER, CREAM CHEESE (MILK, CREAM, CHEESE CULTURE, SALT, CAROB BEAN GUM), SUGAR, TIRAMISU SYRUP (WATER, HIGH FRUCTOSE CORN SYRUP, NATURAL AND ARTIFICIAL COFFEE FLAVOR, COLORED WITH (CARAMEL COLOR), TO PRESERVE FRESHNESS (POTASSIUM SORBATE, SULFITING AGENTS)), ENRICHED BLEACHED WHEAT FLOUR (FLOUR, NIACIN, REDUCED IRON, THIAMINE MONONITRATE, RIBOFLAVIN, FOLIC ACID), EGGS, CONTAINS LESS THAN 2% OF THE FOLLOWING: MASCARPONE CHEESE (PASTEURIZED MILK, PASTEURIZED CREAM, CITRIC ACID), MODIFIED CORNSTARCH, LEAVENING (BAKING SODA, SODIUM ALUMINUM PHOSPHATE, ALUMINUM SULFATE, MONOCALCIUM PHOSPHATE), COCOA ALKALI PROCESSED, SOY LECITHIN, GELATIN, SALT, SOYBEAN DIESTERS OF FATS AND FATTY ACIDS, SODIUM STEARYL LACTYLATE, XANTHAN GUM, DATEM." Date available: 06/25/2017 Date last updated by company: 06/25/2017
