Source: USDA Branded Food Products Database Release December 2017 Software v.3.8.6.4 2017-10-02
Report Run at: December 18, 2017 12:45 EST
"Nutrient data for: 45284461, ITALIAN PLUM PEELED TOMATOES, UPC: 813120020878"
Food Group:  Branded Food Products Database
Common Name:

Nutrient,Unit,Data points,Std. Error,"0.5 cup = 130.0g",1Value per 100 g,
Proximates
"Energy",kcal,--,--,30,23
"Protein",g,--,--,2.00,1.54
"Total lipid (fat)",g,--,--,0.00,0.00
"Carbohydrate, by difference",g,--,--,6.01,4.62
"Fiber, total dietary",g,--,--,1.0,0.8
"Sugars, total",g,--,--,5.00,3.85
Minerals
"Calcium, Ca",mg,--,--,40,31
"Iron, Fe",mg,--,--,1.79,1.38
"Sodium, Na",mg,--,--,114,88
Vitamins
"Vitamin C, total ascorbic acid",mg,--,--,12.0,9.2
"Vitamin A, IU",IU,--,--,500,385
Lipids
"Fatty acids, total saturated",g,--,--,0.000,0.000
"Fatty acids, total trans",g,--,--,0.000,0.000
"Cholesterol",mg,--,--,0,0
Amino Acids
Other
Ingredients
"PEELED TOMATOES, TOMATOES PUREE, SALT, CITRIC ACID AND BASIL." Date available: 07/14/2017 Date last updated by company: 07/14/2017
