Source: USDA Branded Food Products Database Release December 2017 Software v.3.8.6.4 2017-10-02
Report Run at: December 18, 2017 12:33 EST
"Nutrient data for: 45198444, ITALIAN CLASSICS VODKA BLUSH SAUCE, UPC: 077890341506"
Food Group:  Branded Food Products Database
Common Name:

Nutrient,Unit,Data points,Std. Error,"0.5 cup = 125.0g",1Value per 100 g,
Proximates
"Energy",kcal,--,--,120,96
"Protein",g,--,--,3.00,2.40
"Total lipid (fat)",g,--,--,8.00,6.40
"Carbohydrate, by difference",g,--,--,8.00,6.40
"Fiber, total dietary",g,--,--,1.0,0.8
"Sugars, total",g,--,--,3.00,2.40
Minerals
"Calcium, Ca",mg,--,--,60,48
"Iron, Fe",mg,--,--,0.76,0.61
"Sodium, Na",mg,--,--,480,384
Vitamins
"Vitamin C, total ascorbic acid",mg,--,--,12.6,10.1
"Vitamin A, IU",IU,--,--,792,634
Lipids
"Fatty acids, total saturated",g,--,--,3.500,2.800
"Fatty acids, total trans",g,--,--,0.000,0.000
"Cholesterol",mg,--,--,20,16
Amino Acids
Other
Ingredients
"DICED TOMATOES (TOMATOES, TOMATO JUICE, TOMATO PUREE [TOMATO PASTE, WATER], SALT, CITRIC ACID, CALCIUM CHLORIDE, ASCORBIC ACID), LIGHT CREAM (MILK, CREAM), SOFRITA (RED ONIONS, OLIVE OIL, GARLIC, RED PEPPER FLAKES), RED ONION, SALTED VODKA (VODKA 80 PROOF, SALT), TOMATO PASTE (CONCENTRATED TOMATOES), PANCETTA (PORK SALT. CONTAINS LESS THAN 2% OF: DEXTROSE, NATURAL FLAVORING, WINE, GARLIC, LACTIC ACID STARTER CULTURE, SODIUM ASCORBATE, ASCORBIC ACID, SODIUM NITRITE), SALTED BUTTER (CREAM, SALT), GARLIC PUREE (GARLIC, CITRIC ACID ASCORBIC ACID), CHICKEN BASE (CHICKEN MEAT INCLUDING CHICKEN JUICES, SALT, FLAVORINGS, ONION POWDER, POTATO FLOUR, SPICES, TURMERIC), BASIL, PARSLEY, KOSHER SALT, BLACK PEPPER, RED PEPPER FLAKES." Date available: 07/14/2017 Date last updated by company: 07/14/2017
