Source: USDA Branded Food Products Database Release December 2017 Software v.3.8.6.4 2017-10-02
Report Run at: December 18, 2017 13:04 EST
"Nutrient data for: 45315308, ITALIAN STYLE SPAGHETTI SAUCE MIX, UPC: 04656701107"
Food Group:  Branded Food Products Database
Common Name:

Nutrient,Unit,Data points,Std. Error,"1 Tbsp = 8.0g",1Value per 100 g,
Proximates
"Energy",kcal,--,--,30,375
"Protein",g,--,--,0.00,0.00
"Total lipid (fat)",g,--,--,0.00,0.00
"Carbohydrate, by difference",g,--,--,6.00,75.00
"Fiber, total dietary",g,--,--,0.0,0.0
"Sugars, total",g,--,--,2.00,25.00
Minerals
"Calcium, Ca",mg,--,--,0,0
"Iron, Fe",mg,--,--,0.00,0.00
"Sodium, Na",mg,--,--,340,4250
Vitamins
"Vitamin C, total ascorbic acid",mg,--,--,0.0,0.0
"Vitamin A, IU",IU,--,--,625,7812
Lipids
"Fatty acids, total saturated",g,--,--,0.000,0.000
"Fatty acids, total trans",g,--,--,0.000,0.000
"Cholesterol",mg,--,--,0,0
Amino Acids
Other
Ingredients
"POTATO STARCH, SUGAR, SALT, ONION, CORN MALTODEXTRIN, WHEY (MILK), PAPRIKA, GARLIC, SPICES, MUSHROOM, NONFAT MILK SOLIDS, BUTTERMILK POWDER, BEET POWDER, CULTURED WHEY, GRANULAR AND BLUE CHEESES (MILK, CHEESE CULTURES, SALT, ENZYMES), NATURAL FLAVOR." Date available: 07/14/2017 Date last updated by company: 07/14/2017
