Source: USDA Branded Food Products Database Release December 2017 Software v.3.8.6.4 2017-10-02
Report Run at: December 18, 2017 12:54 EST
"Nutrient data for: 45210088, ITALIAN STYLE ARTISAN-CUT CROUTONS, UPC: 749512771007"
Food Group:  Branded Food Products Database
Common Name:

Nutrient,Unit,Data points,Std. Error,"0.5 cup = 15.0g",1Value per 100 g,
Proximates
"Energy",kcal,--,--,45,300
"Protein",g,--,--,1.00,6.67
"Total lipid (fat)",g,--,--,1.50,10.00
"Carbohydrate, by difference",g,--,--,7.00,46.67
"Fiber, total dietary",g,--,--,0.0,0.0
"Sugars, total",g,--,--,0.00,0.00
Minerals
"Calcium, Ca",mg,--,--,20,133
"Iron, Fe",mg,--,--,1.20,8.00
"Sodium, Na",mg,--,--,65,433
Vitamins
"Vitamin C, total ascorbic acid",mg,--,--,0.0,0.0
"Vitamin A, IU",IU,--,--,0,0
Lipids
"Fatty acids, total saturated",g,--,--,0.000,0.000
"Fatty acids, total trans",g,--,--,0.000,0.000
"Cholesterol",mg,--,--,0,0
Amino Acids
Other
Ingredients
"FLOUR BLEND (BROWN RICE FLOUR, TAPIOCA STARCH, POTATO STARCH MODIFIED TAPIOCA STARCH), RICE MILK (WATER, BROWN RICE, SAFFLOWER AND/OR SUNFLOWER AND/OR CANOLA OIL, TRICALCIUM PHOSPHATE, SEA SALT, VITAMIN A PALMITATE, VITAMIN D2, VITAMIN B12), WATER, CANOLA OIL, EGG WHITES, CANE SUGAR, XANTHAN GUM, SALT, YEAST, LEAVENING (SODIUM ACID PYROPHOSPHATE, BAKING SODA, MONOCALCIUM PHOSPHATE), ITALIAN SEASONING, GARLIC, SALT, PEPPER, ASCORBIC ACID." Date available: 07/14/2017 Date last updated by company: 07/14/2017
