Source: USDA Branded Food Products Database Release December 2017 Software v.3.8.6.4 2017-10-02
Report Run at: December 18, 2017 12:47 EST
"Nutrient data for: 45331128, ITALIAN SAUSAGE MEAT SAUCE, UPC: 857199006050"
Food Group:  Branded Food Products Database
Common Name:

Nutrient,Unit,Data points,Std. Error,"0.5 cup = 127.0g",1Value per 100 g,
Proximates
"Energy",kcal,--,--,130,102
"Protein",g,--,--,5.99,4.72
"Total lipid (fat)",g,--,--,7.00,5.51
"Carbohydrate, by difference",g,--,--,8.00,6.30
"Fiber, total dietary",g,--,--,2.0,1.6
"Sugars, total",g,--,--,4.00,3.15
Minerals
"Calcium, Ca",mg,--,--,39,31
"Iron, Fe",mg,--,--,1.52,1.20
"Sodium, Na",mg,--,--,610,480
Vitamins
"Vitamin C, total ascorbic acid",mg,--,--,9.5,7.5
"Vitamin A, IU",IU,--,--,423,333
Lipids
"Fatty acids, total saturated",g,--,--,2.502,1.970
"Fatty acids, total trans",g,--,--,0.000,0.000
"Cholesterol",mg,--,--,20,16
Amino Acids
Other
Ingredients
"CRUSHED TOMATOES (CUT TOMATOES, TOMATO PUREE, SALT, CITRIC ACID), COOKED ITALIAN SAUSAGE (PORK, SPICES, WATER, SALT, SUGAR, NATURAL FLAVORINGS, PAPRIKA), TOMATO SAUCE (TOMATO PASTE, WATER), ONIONS, GARLIC POWDER, MINCED ONION, OLIVE OIL, SALT, SUGAR, PEPPER, BASIL, PARSLEY." Date available: 10/13/2017 Date last updated by company: 10/13/2017
