Source: USDA Branded Food Products Database Release December 2017 Software v.3.8.6.4 2017-10-02
Report Run at: December 18, 2017 12:44 EST
"Nutrient data for: 45267411, ITALIAN PASTA WITH TRUFFLE AND CHEESE SAUCE, UPC: 619309001429"
Food Group:  Branded Food Products Database
Common Name:

Nutrient,Unit,Data points,Std. Error,"0.75 cup = 74.0g",1Value per 100 g,
Proximates
"Energy",kcal,--,--,280,378
"Protein",g,--,--,10.00,13.51
"Total lipid (fat)",g,--,--,6.00,8.11
"Carbohydrate, by difference",g,--,--,45.00,60.81
"Fiber, total dietary",g,--,--,2.0,2.7
"Sugars, total",g,--,--,7.00,9.46
Minerals
"Calcium, Ca",mg,--,--,100,135
"Iron, Fe",mg,--,--,2.43,3.29
"Sodium, Na",mg,--,--,750,1014
Vitamins
"Vitamin C, total ascorbic acid",mg,--,--,0.0,0.0
"Vitamin A, IU",IU,--,--,0,0
Lipids
"Fatty acids, total saturated",g,--,--,1.998,2.700
"Fatty acids, total trans",g,--,--,0.000,0.000
"Cholesterol",mg,--,--,10,14
Amino Acids
Other
Ingredients
"MACARONI (DURUM WHEAT SEMOLINA), PROCESS CHEESE FOOD IN POWDER [CHEDDAR CHEESE AND GOUDA CHEESE BLEND (PASTEURIZED MILK, SALT CHEESE CULTURES, ENZYMES), BLUE CHEESE (COW AND EWE'S MILK, SALT, RENNET, CHEESE CULTURES), WHEY POWDER, SALT, SODIUM CITRATE, DISODIUM PHOSPHATE], WHEY POWDER, POWDERED SUNFLOWER OIL PREPARATION (SUNFLOWER OIL, GLUCOSE SYRUP, SODIUM CASEINATE, SILICON DIOXIDE), DEHYDRATED MUSHROOMS, NATURAL FLAVOR, POTATO STARCH, SALT, YEAST EXTRACT, ARTIFICIAL TRUFFLE FLAVOR, DEHYDRATED TRUFFLE GRANULES, GARLIC POWDER, TURMERIC POWDER, ONION POWDER, PEPPER POWDER." Date available: 07/14/2017 Date last updated by company: 07/14/2017
