Source: USDA Branded Food Products Database Release December 2017 Software v.3.8.6.4 2017-10-02
Report Run at: December 18, 2017 13:04 EST
"Nutrient data for: 45029000, ITALIAN STYLE SPAGHETTI SAUCE, UPC: 081319819316"
Food Group:  Branded Food Products Database
Common Name:

Nutrient,Unit,Data points,Std. Error,"0.5 cup = 128.0g",1Value per 100 g,
Proximates
"Energy",kcal,--,--,110,86
"Protein",g,--,--,3.99,3.12
"Total lipid (fat)",g,--,--,2.50,1.95
"Carbohydrate, by difference",g,--,--,17.00,13.28
"Fiber, total dietary",g,--,--,5.0,3.9
"Sugars, total",g,--,--,10.00,7.81
Minerals
"Calcium, Ca",mg,--,--,40,31
"Iron, Fe",mg,--,--,1.14,0.89
"Sodium, Na",mg,--,--,340,266
Vitamins
"Vitamin C, total ascorbic acid",mg,--,--,28.5,22.3
"Vitamin A, IU",IU,--,--,1321,1032
Lipids
"Fatty acids, total saturated",g,--,--,0.000,0.000
"Fatty acids, total trans",g,--,--,0.000,0.000
"Cholesterol",mg,--,--,0,0
Amino Acids
Other
Ingredients
"CRUSHED TOMATOES, TOMATO PASTE, WATER, FRESH ONIONS, CANOLA OIL, SPICE MIX AND CITRIC ACID (ACIDIFIER)." Date available: 06/24/2017 Date last updated by company: 06/24/2017
