Source: USDA Branded Food Products Database Release December 2017 Software v.3.8.6.4 2017-10-02
Report Run at: December 18, 2017 12:52 EST
"Nutrient data for: 45220192, ITALIAN SODA, UPC: 075450131444"
Food Group:  Branded Food Products Database
Common Name:

Nutrient,Unit,Data points,Std. Error,"8.0 OZA = 240.0g",1Value per 100 g,
Proximates
"Energy",kcal,--,--,91,38
"Protein",g,--,--,0.00,0.00
"Total lipid (fat)",g,--,--,0.00,0.00
"Carbohydrate, by difference",g,--,--,22.01,9.17
"Sugars, total",g,--,--,22.01,9.17
Minerals
"Sodium, Na",mg,--,--,24,10
Vitamins
Lipids
Amino Acids
Other
Ingredients
"CARBONATED WATER, SUGAR, CITRIC ACID, NATURAL FLAVORS, BLACK CARROT JUICE (FOR COLOR)." Date available: 07/14/2017 Date last updated by company: 07/14/2017
