Source: USDA Branded Food Products Database Release December 2017 Software v.3.8.6.4 2017-10-02
Report Run at: December 18, 2017 12:28 EST
"Nutrient data for: 45193756, ITALIA CHILI PESTO, UPC: 015229411070"
Food Group:  Branded Food Products Database
Common Name:

Nutrient,Unit,Data points,Std. Error,"0.25 cup = 60.0g",1Value per 100 g,
Proximates
"Energy",kcal,--,--,200,333
"Protein",g,--,--,1.00,1.67
"Total lipid (fat)",g,--,--,18.00,30.00
"Carbohydrate, by difference",g,--,--,7.00,11.67
"Fiber, total dietary",g,--,--,2.0,3.3
"Sugars, total",g,--,--,4.00,6.67
Minerals
"Calcium, Ca",mg,--,--,20,33
"Iron, Fe",mg,--,--,1.52,2.54
"Sodium, Na",mg,--,--,300,500
Vitamins
"Vitamin C, total ascorbic acid",mg,--,--,5.0,8.4
"Vitamin A, IU",IU,--,--,3170,5283
Lipids
"Fatty acids, total saturated",g,--,--,1.998,3.330
"Fatty acids, total trans",g,--,--,0.000,0.000
"Cholesterol",mg,--,--,0,0
Amino Acids
Other
Ingredients
"RED PEPPERS (30%), TOMATO PASTE, SUNFLOWER SEED OIL, PARSLEY (3%), ALMONDS, SUGAR, PECORINO ROMANO ITALIAN CHEESE (EWE'S MILK, SALT, RENNET), DRIED CHILI PEPPER PIECES (1%), GARLIC (1%), SLICED CHILI PEPPER (0.5%), LACTIC ACID, GROUND BLACK PEPPER, THYME, ANISEED." Date available: 07/14/2017 Date last updated by company: 07/14/2017
