Source: USDA Branded Food Products Database Release December 2017 Software v.3.8.6.4 2017-10-02
Report Run at: December 18, 2017 13:04 EST
"Nutrient data for: 45031304, ITALIAN STYLE SEASONED CRUMBS, UPC: 041387532050"
Food Group:  Branded Food Products Database
Common Name:

Nutrient,Unit,Data points,Std. Error,"0.33 cup = 30.0g",1Value per 100 g,
Proximates
"Energy",kcal,--,--,110,367
"Protein",g,--,--,3.00,10.00
"Total lipid (fat)",g,--,--,0.50,1.67
"Carbohydrate, by difference",g,--,--,24.00,80.00
"Fiber, total dietary",g,--,--,1.0,3.3
"Sugars, total",g,--,--,0.00,0.00
Minerals
"Calcium, Ca",mg,--,--,60,200
"Iron, Fe",mg,--,--,0.60,2.00
"Sodium, Na",mg,--,--,450,1500
Vitamins
"Vitamin C, total ascorbic acid",mg,--,--,0.0,0.0
"Vitamin A, IU",IU,--,--,0,0
Lipids
"Fatty acids, total saturated",g,--,--,0.000,0.000
"Fatty acids, total trans",g,--,--,0.000,0.000
"Cholesterol",mg,--,--,0,0
Amino Acids
Other
Ingredients
"GLUTEN FREE CRUMBS (RICE FLOUR, RAISIN JUICE CONCENTRATE, HONEY, SALT), GRATED PECORINO ROMANO CHEESE [PASTEURIZED SHEEP'S MILK, CHEESE CULTURE, SALT, ENZYMES (RENNET)], SALT, DEHYDRATED PARSLEY FLAKES, SPICES, ONION POWDER, GARLIC POWDER." Date available: 07/14/2017 Date last updated by company: 07/14/2017
