Source: USDA Branded Food Products Database Release December 2017 Software v.3.8.6.4 2017-10-02
Report Run at: December 18, 2017 12:34 EST
"Nutrient data for: 45059133, ITALIAN CRUSHED TOMATOES WITH ONION AND GARLIC, UPC: 822356000509"
Food Group:  Branded Food Products Database
Common Name:

Nutrient,Unit,Data points,Std. Error,"0.33 cup = 76.0g",1Value per 100 g,
Proximates
"Energy",kcal,--,--,30,39
"Protein",g,--,--,1.00,1.32
"Total lipid (fat)",g,--,--,0.00,0.00
"Carbohydrate, by difference",g,--,--,6.00,7.89
"Fiber, total dietary",g,--,--,1.0,1.3
"Sugars, total",g,--,--,4.00,5.26
Minerals
"Sodium, Na",mg,--,--,300,395
Vitamins
"Vitamin C, total ascorbic acid",mg,--,--,6.2,8.1
"Vitamin A, IU",IU,--,--,12829,16880
Lipids
Amino Acids
Other
Ingredients
"CRUSHED TOMATOES, TOMATO PUREE, ONION, GARLIC, SALT, SUGAR, CITRIC ACID (ACIDITY REGULATOR)." Date available: 10/13/2017 Date last updated by company: 10/13/2017
