Source: USDA Branded Food Products Database Release December 2017 Software v.3.8.6.4 2017-10-02
Report Run at: December 18, 2017 13:00 EST
"Nutrient data for: 45215699, ITALIAN STYLE MEATBALLS, UPC: 018894329626"
Food Group:  Branded Food Products Database
Common Name:

Nutrient,Unit,Data points,Std. Error,"6.0 MEATBALLS = 85.0g",1Value per 100 g,
Proximates
"Energy",kcal,--,--,240,282
"Protein",g,--,--,14.00,16.47
"Total lipid (fat)",g,--,--,19.00,22.35
"Carbohydrate, by difference",g,--,--,5.00,5.88
"Fiber, total dietary",g,--,--,1.0,1.2
"Sugars, total",g,--,--,1.00,1.18
Minerals
"Calcium, Ca",mg,--,--,60,71
"Iron, Fe",mg,--,--,2.03,2.39
"Sodium, Na",mg,--,--,580,682
Vitamins
"Vitamin C, total ascorbic acid",mg,--,--,0.0,0.0
"Vitamin A, IU",IU,--,--,141,166
Lipids
"Fatty acids, total saturated",g,--,--,6.001,7.060
"Fatty acids, total trans",g,--,--,0.000,0.000
"Cholesterol",mg,--,--,60,71
Amino Acids
Other
Ingredients
"BEEF AND PORK, WATER, TEXTURED SOY FLOUR, BREAD CRUMBS (WHEAT FLOUR, SALT, AND YEAST), SOY PROTEIN CONCENTRATE, SEASONING (PARMESAN CHEESE (PART SKIM COW'S MILK, CHEESE CULTURES, SALT, ENZYMES), SPICES, SPICE EXTRACTIVES ON A DEXTROSE CARRIER, DEHYDRATED GARLIC, PARSLEY, ONION POWDER), SALT, SODIUM TRIPOLYPHOSPHATE, NATURAL FLAVOR." Date available: 07/14/2017 Date last updated by company: 07/14/2017
