Source: USDA Branded Food Products Database Release December 2017 Software v.3.8.6.4 2017-10-02
Report Run at: December 18, 2017 12:54 EST
"Nutrient data for: 45207849, ITALIAN STYLE BREAD CRUMBS, UPC: 041303015766"
Food Group:  Branded Food Products Database
Common Name:

Nutrient,Unit,Data points,Std. Error,"0.33 cup = 30.0g",1Value per 100 g,
Proximates
"Energy",kcal,--,--,110,367
"Protein",g,--,--,4.00,13.33
"Total lipid (fat)",g,--,--,1.00,3.33
"Carbohydrate, by difference",g,--,--,21.00,70.00
"Fiber, total dietary",g,--,--,2.0,6.7
"Sugars, total",g,--,--,2.00,6.67
Minerals
"Calcium, Ca",mg,--,--,60,200
"Iron, Fe",mg,--,--,1.80,6.00
"Sodium, Na",mg,--,--,370,1233
Vitamins
"Vitamin C, total ascorbic acid",mg,--,--,0.0,0.0
"Vitamin A, IU",IU,--,--,0,0
Lipids
"Fatty acids, total saturated",g,--,--,0.000,0.000
"Fatty acids, total trans",g,--,--,0.000,0.000
"Cholesterol",mg,--,--,0,0
Amino Acids
Other
Ingredients
"TOASTED BREAD CRUMBS MADE FROM ENRICHED BREAD [ENRICHED FLOUR (CONTAINS WHEAT FLOUR, NIACIN, REDUCED IRON, THIAMIN MONONITRATE, RIBOFLAVIN, FOLIC ACID), CORN SYRUP, PARTIALLY HYDROGENATED VEGETABLE OIL SHORTENING (SOYBEAN AND/OR COTTONSEED OIL), SALT, YEAST, WHEY, SOY FLOUR, MALTED BARLEY FLOUR, WHEAT GLUTEN, WHOLE WHEAT FLOUR, RYE FLOUR, CORN FLOUR, OAT BRAN, CORN MEAL, RICE FLOUR, POTATO FLOUR, NONFAT DRY MILK, SOY LECITHIN, CALCIUM PROPIONATE (PRESERVATIVE), SESAME SEEDS AND CARAWAY SEEDS], SALT, GRATED PARMESAN CHEESE [PART SKIM MILK, CHEESE CULTURE, SALT, ENZYMES (RENNET)], MONOSODIUM GLUTAMATE (FLAVOR ENHANCER), SPICES, DEHYDRATED PARSLEY FLAKES, ONION POWDER, GARLIC POWDER." Date available: 07/14/2017 Date last updated by company: 07/14/2017
