Source: USDA Branded Food Products Database Release December 2017 Software v.3.8.6.4 2017-10-02
Report Run at: December 18, 2017 13:08 EST
"Nutrient data for: 45240650, ITO EN, UNSWEETENED GOLDEN OOLONG TEA, UPC: 835143001818"
Food Group:  Branded Food Products Database
Common Name:

Nutrient,Unit,Data points,Std. Error,"8.0 OZA = 240.0g",1Value per 100 g,
Proximates
"Energy",kcal,--,--,0,0
"Protein",g,--,--,0.00,0.00
"Total lipid (fat)",g,--,--,0.00,0.00
"Carbohydrate, by difference",g,--,--,0.00,0.00
"Sugars, total",g,--,--,0.00,0.00
Minerals
"Sodium, Na",mg,--,--,29,12
Vitamins
"Vitamin C, total ascorbic acid",mg,--,--,198.0,82.5
Lipids
Amino Acids
Other
Ingredients
"PURIFIED WATER, OOLONG TEA, ASCORBIC ACID (VITAMIN C)" Date available: 07/14/2017 Date last updated by company: 07/14/2017
