Source: USDA Branded Food Products Database Release December 2017 Software v.3.8.6.4 2017-10-02
Report Run at: December 18, 2017 14:38 EST
"Nutrient data for: 45033794, J.J. CASSONE, HAMBURGER BUNS, UPC: 072201216078"
Food Group:  Branded Food Products Database
Common Name:

Nutrient,Unit,Data points,Std. Error,"1 BUN = 57.0g",1Value per 100 g,
Proximates
"Energy",kcal,--,--,150,263
"Protein",g,--,--,5.00,8.77
"Total lipid (fat)",g,--,--,2.00,3.51
"Carbohydrate, by difference",g,--,--,28.00,49.12
"Fiber, total dietary",g,--,--,1.0,1.8
"Sugars, total",g,--,--,2.00,3.51
Minerals
"Calcium, Ca",mg,--,--,80,140
"Iron, Fe",mg,--,--,1.58,2.77
"Sodium, Na",mg,--,--,290,509
Vitamins
"Vitamin C, total ascorbic acid",mg,--,--,0.0,0.0
"Thiamin",mg,--,--,0.000,0.000
"Riboflavin",mg,--,--,0.136,0.239
"Niacin",mg,--,--,1.754,3.077
"Vitamin A, IU",IU,--,--,0,0
Lipids
"Fatty acids, total saturated",g,--,--,0.502,0.880
"Fatty acids, total trans",g,--,--,0.000,0.000
"Cholesterol",mg,--,--,0,0
Amino Acids
Other
Ingredients
"ENRICHED WHEAT FLOUR (WHEAT FLOUR, MALTED BARLEY FLOUR, NIACIN, REDUCED IRON, THIAMINE MONONITRATE, RIBOFLAVIN, FOLIC ACID), WATER, HIGH FRUCTOSE CORN SYRUP, SOYBEAN OIL, CONTAINS 2% LESS OF EACH OF THE FOLLOWING: YEAST, SALT, WHEAT FLOUR, CALCIUM PROPIONATE (PRESERVATIVE), WHEAT GLUTEN, CALCIUM STEAROYL LACTYLATE (CSL), CALCIUM SULFATE, DIACETYL TARTARIC ACID ESTERS OF MONO DIGLYCERIDES (DATEM), MONOCALCIUM PHOSPHATE, MONO- AND DIGLYCERIDES, AMMONIUM SULFATE, ETHOXYLATED MONO- AND DIGLYCERIDES, ASCORBIC ACID (VITAMIN C), CALCIUM PEROXIDE, L-CYSTEINE HYDROCHLORIDE, ENZYMES." Date available: 06/24/2017 Date last updated by company: 06/24/2017
