Source: USDA Branded Food Products Database Release December 2017 Software v.3.8.6.4 2017-10-02
Report Run at: December 18, 2017 13:09 EST
"Nutrient data for: 45010027, JAAFER SWEETS, ASSORTED BAKLAVA, UPC: 899094002003"
Food Group:  Branded Food Products Database
Common Name:

Nutrient,Unit,Data points,Std. Error,"2.0 ONZ = 57.0g",1Value per 100 g,
Proximates
"Energy",kcal,--,--,230,404
"Protein",g,--,--,3.00,5.26
"Total lipid (fat)",g,--,--,11.00,19.30
"Carbohydrate, by difference",g,--,--,30.00,52.63
"Fiber, total dietary",g,--,--,1.0,1.8
"Sugars, total",g,--,--,15.00,26.32
Minerals
"Calcium, Ca",mg,--,--,20,35
"Iron, Fe",mg,--,--,0.63,1.11
"Sodium, Na",mg,--,--,80,140
Vitamins
Lipids
"Fatty acids, total saturated",g,--,--,3.500,6.140
"Cholesterol",mg,--,--,20,35
Amino Acids
Other
Ingredients
"PHYLLO MADE WITH UNBLEACHED WHEAT FLOUR, SUGAR, CLARIFIED BUTTER, NUT MEATS (WALNUTS, CASHEWS, PISTACHIOS, ALMONDS), WATER, SALT, ROSE OR ORANGE BLOSSOM WATER." Date available: 06/24/2017 Date last updated by company: 06/24/2017
