Source: USDA Branded Food Products Database Release December 2017 Software v.3.8.6.4 2017-10-02
Report Run at: December 18, 2017 13:10 EST
"Nutrient data for: 45137088, JACK DANIEL'S, SMOKY MESQUITE LIQUID MARINADE, UPC: 013000520508"
Food Group:  Branded Food Products Database
Common Name:

Nutrient,Unit,Data points,Std. Error,"1 Tbsp = 19.0g",1Value per 100 g,
Proximates
"Energy",kcal,--,--,30,158
"Protein",g,--,--,0.00,0.00
"Total lipid (fat)",g,--,--,0.00,0.00
"Carbohydrate, by difference",g,--,--,7.00,36.84
"Fiber, total dietary",g,--,--,0.0,0.0
"Sugars, total",g,--,--,6.00,31.58
Minerals
"Calcium, Ca",mg,--,--,0,0
"Iron, Fe",mg,--,--,0.00,0.00
"Sodium, Na",mg,--,--,300,1579
Vitamins
"Vitamin C, total ascorbic acid",mg,--,--,0.0,0.0
"Vitamin A, IU",IU,--,--,0,0
Lipids
"Fatty acids, total saturated",g,--,--,0.000,0.000
"Fatty acids, total trans",g,--,--,0.000,0.000
"Cholesterol",mg,--,--,0,0
Amino Acids
Other
Ingredients
"HIGH FRUCTOSE CORN SYRUP, DISTILLED WHITE VINEGAR, WATER, MOLASSES, SALT, NATURAL MESQUITE SMOKE FLAVORING, MODIFIED CORN STARCH, DEHYDRATED ONION, CARAMEL COLORING, GARLIC POWDER, JACK DANIEL'S TENNESSEE WHISKEY FLAVORING (NATURAL AND ARTIFICIAL FLAVORIN" Date available: 09/23/2016 Date last updated by company: 09/23/2016
