Source: USDA Branded Food Products Database Release December 2017 Software v.3.8.6.4 2017-10-02
Report Run at: December 18, 2017 13:14 EST
"Nutrient data for: 45183992, JACK NICKLAUS, ICE CREAM, MANGO CRISP, UPC: 072180511782"
Food Group:  Branded Food Products Database
Common Name:

Nutrient,Unit,Data points,Std. Error,"0.5 cup = 73.0g",1Value per 100 g,
Proximates
"Energy",kcal,--,--,160,219
"Protein",g,--,--,3.00,4.11
"Total lipid (fat)",g,--,--,7.00,9.59
"Carbohydrate, by difference",g,--,--,21.00,28.77
"Fiber, total dietary",g,--,--,0.0,0.0
"Sugars, total",g,--,--,16.00,21.92
Minerals
"Calcium, Ca",mg,--,--,100,137
"Iron, Fe",mg,--,--,0.00,0.00
"Potassium, K",mg,--,--,140,192
"Sodium, Na",mg,--,--,50,68
Vitamins
"Vitamin C, total ascorbic acid",mg,--,--,0.0,0.0
"Vitamin A, IU",IU,--,--,225,308
Lipids
"Fatty acids, total saturated",g,--,--,4.000,5.480
"Fatty acids, total trans",g,--,--,0.000,0.000
"Cholesterol",mg,--,--,25,34
Amino Acids
Other
Ingredients
"MILK, NONFAT MILK, CREAM, SPICED MANGO SWIRL (SUGAR, WATER, MANGO, PECTIN, CITRIC ACID, PHOSPHORIC ACID, SPICE, MALIC ACID, XANTHAN GUM, NATURAL FLAVOR), CORN SYRUP, SUGAR, BROWN SUGAR STREUSEL (WHEAT FLOUR, SUGAR, BUTTER (CREAM, SALT), BROWN SUGAR, SOYBEAN OIL, SALT, SPICE), CONTAINS 2% OR LESS: NATURAL FLAVORS, MONO AND DIGLYCERIDES, GUAR GUM, CALCIUM SULFATE, LOCUST BEAN GUM, ANNATTO (COLOR), CELLULOSE GUM, CARRAGEENAN." Date available: 07/14/2017 Date last updated by company: 07/14/2017
