Source: USDA Branded Food Products Database Release December 2017 Software v.3.8.6.4 2017-10-02
Report Run at: December 18, 2017 13:10 EST
"Nutrient data for: 45161939, JACKIE'S COOKIE CONNECTION, COOKIE BABIES - SUGAR, UPC: 855094006205"
Food Group:  Branded Food Products Database
Common Name:

Nutrient,Unit,Data points,Std. Error,"10.0 BABIES | ABOUT = 28.0g",1Value per 100 g,
Proximates
"Energy",kcal,--,--,110,393
"Protein",g,--,--,1.00,3.57
"Total lipid (fat)",g,--,--,3.50,12.50
"Carbohydrate, by difference",g,--,--,18.00,64.29
"Fiber, total dietary",g,--,--,0.0,0.0
"Sugars, total",g,--,--,11.00,39.29
Minerals
"Calcium, Ca",mg,--,--,0,0
"Iron, Fe",mg,--,--,0.00,0.00
"Sodium, Na",mg,--,--,160,571
Vitamins
"Vitamin C, total ascorbic acid",mg,--,--,0.0,0.0
"Vitamin A, IU",IU,--,--,179,638
Lipids
"Fatty acids, total saturated",g,--,--,2.500,8.930
"Fatty acids, total trans",g,--,--,0.000,0.000
"Cholesterol",mg,--,--,20,71
Amino Acids
Other
Ingredients
"ALL PURPOSE FLOUR, PURE CANE GOLDEN BROWN SUGAR, PURE CANE SUGAR, BUTTER SALTED - LAND O LAGES, EGGS, BAKING POWDER, BAKING SODA - ARM AND HAMMER SALT, PURE VANILLA EXTRACT." Date available: 07/14/2017 Date last updated by company: 07/14/2017
