Source: USDA Branded Food Products Database Release December 2017 Software v.3.8.6.4 2017-10-02
Report Run at: December 18, 2017 13:12 EST
"Nutrient data for: 45014702, JACK LINK'S, HANDCRAFTED BEEF JERKY, TERIYAKI, UPC: 017082874696"
Food Group:  Branded Food Products Database
Common Name:

Nutrient,Unit,Data points,Std. Error,"1 ONZ = 28.0g",1Value per 100 g,
Proximates
"Energy",kcal,--,--,90,321
"Protein",g,--,--,13.00,46.43
"Total lipid (fat)",g,--,--,1.50,5.36
"Carbohydrate, by difference",g,--,--,3.00,10.71
"Fiber, total dietary",g,--,--,0.0,0.0
"Sugars, total",g,--,--,2.00,7.14
Minerals
"Calcium, Ca",mg,--,--,0,0
"Iron, Fe",mg,--,--,2.57,9.19
"Sodium, Na",mg,--,--,540,1929
Vitamins
"Vitamin C, total ascorbic acid",mg,--,--,0.0,0.0
"Vitamin A, IU",IU,--,--,0,0
Lipids
"Fatty acids, total saturated",g,--,--,0.501,1.790
"Fatty acids, total trans",g,--,--,0.000,0.000
"Cholesterol",mg,--,--,30,107
Amino Acids
Other
Ingredients
"BEEF, BROWN SUGAR, SOY SAUCE POWDER (WHEAT, SOYBEANS, SALT, MALTODEXTRIN), WATER, FLAVORING, SALT, SUGAR, MONOSODIUM GLUTAMATE, SODIUM NITRITE, POTASSIUM SORBATE TO ENSURE FRESHNESS." Date available: 07/14/2017 Date last updated by company: 07/14/2017
