Source: USDA Branded Food Products Database Release December 2017 Software v.3.8.6.4 2017-10-02
Report Run at: December 18, 2017 13:19 EST
"Nutrient data for: 45169787, JADE MONK, MATCHA GREEN TEA, UPC: 856733003302"
Food Group:  Branded Food Products Database
Common Name:

Nutrient,Unit,Data points,Std. Error,"1 BOTTLE = 354.0g",1Value per 100 g,
Proximates
"Energy",kcal,--,--,21,6
"Protein",g,--,--,0.99,0.28
"Total lipid (fat)",g,--,--,0.00,0.00
"Carbohydrate, by difference",g,--,--,4.99,1.41
"Fiber, total dietary",g,--,--,1.1,0.3
"Sugars, total",g,--,--,4.00,1.13
Minerals
"Calcium, Ca",mg,--,--,21,6
"Potassium, K",mg,--,--,71,20
"Sodium, Na",mg,--,--,14,4
Vitamins
"Vitamin C, total ascorbic acid",mg,--,--,5.0,1.4
"Vitamin A, IU",IU,--,--,761,215
Lipids
Amino Acids
Other
Ingredients
"PURIFIED WATER, ORGANIC MAPLE SYRUP, ORGANIC JAPANESE MATCHA GREEN TEA, ORGANIC LEMON JUICE (CONCENTRATE), ORGANIC WHEATGRASS JUICE, ORGANIC KALE, ORGANIC SPINACH, ORGANIC PARSLEY, ORGANIC CAYENNE." Date available: 07/14/2017 Date last updated by company: 07/14/2017
