Source: USDA Branded Food Products Database Release December 2017 Software v.3.8.6.4 2017-10-02
Report Run at: December 18, 2017 13:21 EST
"Nutrient data for: 45271690, JALAPENO CHEDDAR SMOKED SAUSAGE, UPC: 077782002409"
Food Group:  Branded Food Products Database
Common Name:

Nutrient,Unit,Data points,Std. Error,"1 LINK = 85.0g",1Value per 100 g,
Proximates
"Energy",kcal,--,--,270,318
"Protein",g,--,--,11.00,12.94
"Total lipid (fat)",g,--,--,24.00,28.24
"Carbohydrate, by difference",g,--,--,2.00,2.35
"Fiber, total dietary",g,--,--,0.0,0.0
"Sugars, total",g,--,--,1.00,1.18
Minerals
"Calcium, Ca",mg,--,--,80,94
"Iron, Fe",mg,--,--,0.23,0.27
"Sodium, Na",mg,--,--,670,788
Vitamins
"Vitamin C, total ascorbic acid",mg,--,--,3.9,4.6
"Vitamin A, IU",IU,--,--,194,228
Lipids
"Fatty acids, total saturated",g,--,--,9.002,10.590
"Fatty acids, total trans",g,--,--,0.000,0.000
"Cholesterol",mg,--,--,55,65
Amino Acids
Other
Ingredients
"PORK, WATER, DICED JALAPENO PEPPERS, WHITE CHEDDAR CHEESE ([PASTEURIZED MILK, CHEESE CULTURE, SALT, ENZYMES], POWDERED CELLULOSE) AND LESS THAN 2% OF THE FOLLOWING: SALT, CULTURED CELERY POWDER**, SEA SALT, GREEN BELL PEPPER POWDER, SUGAR, CHERRY POWDER, WHITE DISTILLED VINEGAR (MALTODEXTRIN), JALAPENO PEPPER POWDER, SPICES, NATURAL FLAVORS, MALTODEXTRIN, TOMATO POWDER, GARLIC POWDER, DEHYDRATED ONION, BLUE CHEESE POWDER (PASTEURIZED MILK, CHEESE CULTURES, SALT, ENZYMES), NATURAL HOG CASING." Date available: 07/14/2017 Date last updated by company: 07/14/2017
