Source: USDA Branded Food Products Database Release December 2017 Software v.3.8.6.4 2017-10-02
Report Run at: December 18, 2017 13:20 EST
"Nutrient data for: 45205933, JALA JALA, TEXACAN SALSA, UPC: 853147005090"
Food Group:  Branded Food Products Database
Common Name:

Nutrient,Unit,Data points,Std. Error,"2.0 Tbsp = 28.0g",1Value per 100 g,
Proximates
"Energy",kcal,--,--,4,14
"Protein",g,--,--,0.00,0.00
"Total lipid (fat)",g,--,--,0.00,0.00
"Carbohydrate, by difference",g,--,--,1.00,3.57
"Fiber, total dietary",g,--,--,0.3,0.9
"Sugars, total",g,--,--,1.00,3.57
Minerals
"Calcium, Ca",mg,--,--,10,36
"Iron, Fe",mg,--,--,0.32,1.15
"Sodium, Na",mg,--,--,37,132
Vitamins
"Vitamin C, total ascorbic acid",mg,--,--,5.3,19.1
"Vitamin A, IU",IU,--,--,179,638
Lipids
"Fatty acids, total saturated",g,--,--,0.000,0.000
"Fatty acids, total trans",g,--,--,0.000,0.000
"Cholesterol",mg,--,--,0,0
Amino Acids
Other
Ingredients
"TOMATOES, ONION, JALAPENOS, GARLIC, DISTILLED VINEGAR, GARLIC SALT (SALT, GARLIC, MODIFIED FOOD STARCH, SUGAR, PARSLEY, NATURAL FLAVOR, EXTRACTIVES OF CARROT FOR COLOR), CILANTRO, SPICES, SALT" Date available: 07/14/2017 Date last updated by company: 07/14/2017
