Source: USDA Branded Food Products Database Release December 2017 Software v.3.8.6.4 2017-10-02
Report Run at: December 18, 2017 13:21 EST
"Nutrient data for: 45257654, JALAPENO & CHEDDAR PORK PATTIES, UPC: 078742095868"
Food Group:  Branded Food Products Database
Common Name:

Nutrient,Unit,Data points,Std. Error,"1 PATTY = 151.0g",1Value per 100 g,
Proximates
"Energy",kcal,--,--,411,272
"Protein",g,--,--,22.00,14.57
"Total lipid (fat)",g,--,--,32.99,21.85
"Carbohydrate, by difference",g,--,--,5.00,3.31
"Fiber, total dietary",g,--,--,0.0,0.0
"Sugars, total",g,--,--,1.99,1.32
Minerals
"Calcium, Ca",mg,--,--,100,66
"Iron, Fe",mg,--,--,0.60,0.40
"Sodium, Na",mg,--,--,900,596
Vitamins
"Vitamin C, total ascorbic acid",mg,--,--,2.7,1.8
"Vitamin A, IU",IU,--,--,113,75
Lipids
"Fatty acids, total saturated",g,--,--,13.001,8.610
"Fatty acids, total trans",g,--,--,0.000,0.000
"Cholesterol",mg,--,--,95,63
Amino Acids
Other
Ingredients
"PORK, PASTEURIZED PROCESS CHEDDAR CHEESE [CHEDDAR CHEESE (CULTURED PASTEURIZED MILK, SALT, ENZYMES), MILKFAT, WATER, SODIUM PHOSPHATE, SALT, POTASSIUM SORBATE PRESERVATIVE, ANNATTO EXTRACT COLOR, POTATO STARCH, POWDERED CELLULOSE, NATAMYCIN], JALAPENO PEPPERS, LESS THAN 2% OF THE FOLLOWING, SALT, DEXTROSE, FLAVORINGS, CORN SYRUP SOLIDS, VINEGAR, WATER, POTASSIUM LACTATE, BHA, PROPYL GALLATE, CITRIC ACID." Date available: 09/07/2017 Date last updated by company: 09/07/2017
