Source: USDA Branded Food Products Database Release December 2017 Software v.3.8.6.4 2017-10-02
Report Run at: December 18, 2017 13:27 EST
"Nutrient data for: 45195073, JALAPENO SLICED PEPPERS, UPC: 030034085513"
Food Group:  Branded Food Products Database
Common Name:

Nutrient,Unit,Data points,Std. Error,"17.0 SLICES | ABOUT = 28.0g",1Value per 100 g,
Proximates
"Energy",kcal,--,--,5,18
"Protein",g,--,--,0.00,0.00
"Total lipid (fat)",g,--,--,0.00,0.00
"Carbohydrate, by difference",g,--,--,1.00,3.57
"Sugars, total",g,--,--,0.00,0.00
Minerals
"Sodium, Na",mg,--,--,450,1607
Vitamins
"Vitamin A, IU",IU,--,--,179,638
Lipids
Amino Acids
Other
Ingredients
"JALAPENO PEPPERS, WATER, VINEGAR, SALT, DEHYDRATED ONIONS, DEHYDRATED GARLIC, CALCIUM CHLORIDE, 0.1% SODIUM BENZOATE (PRESERVATIVE), AND YELLOW 5" Date available: 07/14/2017 Date last updated by company: 07/14/2017
