Source: USDA Branded Food Products Database Release December 2017 Software v.3.8.6.4 2017-10-02
Report Run at: December 18, 2017 13:28 EST
"Nutrient data for: 45088919, JALAPENO STUFFED QUEEN OLIVES, UPC: 072999257031"
Food Group:  Branded Food Products Database
Common Name:

Nutrient,Unit,Data points,Std. Error,"2.0 OLIVES = 20.0g",1Value per 100 g,
Proximates
"Energy",kcal,--,--,30,150
"Protein",g,--,--,0.00,0.00
"Total lipid (fat)",g,--,--,3.00,15.00
"Carbohydrate, by difference",g,--,--,1.00,5.00
Minerals
"Sodium, Na",mg,--,--,440,2200
Vitamins
Lipids
"Fatty acids, total saturated",g,--,--,0.000,0.000
"Fatty acids, total trans",g,--,--,0.000,0.000
"Cholesterol",mg,--,--,0,0
Amino Acids
Other
Ingredients
"OLIVES, WATER, JALAPENO PEPPER (JALAPENO PEPPERS, ACETIC ACID, SALT, CITRIC ACID), SALT, LACTIC ACID, ASCORBIC ACID." Date available: 07/14/2017 Date last updated by company: 07/14/2017
