Source: USDA Branded Food Products Database Release December 2017 Software v.3.8.6.4 2017-10-02
Report Run at: December 18, 2017 13:28 EST
"Nutrient data for: 45273121, JALAPENO SPREAD, UPC: 885616007502"
Food Group:  Branded Food Products Database
Common Name:

Nutrient,Unit,Data points,Std. Error,"1 tsp = 5.0g",1Value per 100 g,
Proximates
"Energy",kcal,--,--,2,50
"Protein",g,--,--,0.05,1.00
"Total lipid (fat)",g,--,--,0.05,1.00
"Carbohydrate, by difference",g,--,--,0.50,10.00
"Fiber, total dietary",g,--,--,0.1,1.8
"Sugars, total",g,--,--,0.23,4.60
Minerals
"Calcium, Ca",mg,--,--,30,600
"Iron, Fe",mg,--,--,0.00,0.00
"Sodium, Na",mg,--,--,60,1200
Vitamins
"Vitamin C, total ascorbic acid",mg,--,--,1.8,36.0
"Vitamin A, IU",IU,--,--,100,2000
Lipids
"Fatty acids, total saturated",g,--,--,0.000,0.000
"Fatty acids, total monounsaturated",g,--,--,0.000,0.000
"Fatty acids, total polyunsaturated",g,--,--,0.000,0.000
"Fatty acids, total trans",g,--,--,0.000,0.000
"Cholesterol",mg,--,--,0,0
Amino Acids
Other
Ingredients
"JALAPENO PEPPER, WATER SUGAR, CORN STARCH, MUSTARD SEEDS, ACIDITY REGULATORS: ACETIC ACID (E260), CITRIC ACID (E330), SALT, ONION POWDER, GARLIC POWDER, DRIED BASIL, MUSTARD POWDER, TURMERIC POWDER, THICKENING AGENT: XANTHAN GUM (E415), PRESERVATIVES: POTASSIUM SORBATE (E202), SODIUM BENZOATE (E211)." Date available: 10/13/2017 Date last updated by company: 10/13/2017
