Source: USDA Branded Food Products Database Release December 2017 Software v.3.8.6.4 2017-10-02
Report Run at: December 18, 2017 13:29 EST
"Nutrient data for: 45004452, JALEAS UJARRA'S, JELLY, STRAWBERRY, UPC: 7441041003132"
Food Group:  Branded Food Products Database
Common Name:

Nutrient,Unit,Data points,Std. Error,"1 CDA. = 20.0g",1Value per 100 g,
Proximates
"Energy",kcal,--,--,48,240
"Carbohydrate, by difference",g,--,--,12.00,60.00
"Sugars, total",g,--,--,12.00,60.00
Minerals
"Sodium, Na",mg,--,--,5,25
Vitamins
Lipids
Amino Acids
Other
Ingredients
"SUGAR, STRAWBERRY, PECTIN (AS GELATINISING), CITRIC ACID (AS ACIDULATING AGENT) AND SODIUM BENZOATE 0.1% (AS PRESERVATIVE)." Date available: 08/15/2017 Date last updated by company: 08/15/2017
