Source: USDA Branded Food Products Database Release December 2017 Software v.3.8.6.4 2017-10-02
Report Run at: December 18, 2017 13:36 EST
"Nutrient data for: 45218218, JAM, UPC: 810071001109"
Food Group:  Branded Food Products Database
Common Name:

Nutrient,Unit,Data points,Std. Error,"1 Tbsp = 20.0g",1Value per 100 g,
Proximates
"Energy",kcal,--,--,35,175
"Protein",g,--,--,0.00,0.00
"Total lipid (fat)",g,--,--,0.00,0.00
"Carbohydrate, by difference",g,--,--,9.00,45.00
"Sugars, total",g,--,--,9.00,45.00
Minerals
"Sodium, Na",mg,--,--,0,0
Vitamins
"Vitamin C, total ascorbic acid",mg,--,--,4.1,20.3
Lipids
"Fatty acids, total trans",g,--,--,0.000,0.000
Amino Acids
Other
Ingredients
"GOOSEBERRIES, SUGAR, FRUIT PECTIN." Date available: 07/14/2017 Date last updated by company: 07/14/2017
