Source: USDA Branded Food Products Database Release December 2017 Software v.3.8.6.4 2017-10-02
Report Run at: December 18, 2017 13:29 EST
"Nutrient data for: 45117867, JAMAICAN CHOICE, COCONUT MILK, UPC: 027246101001"
Food Group:  Branded Food Products Database
Common Name:

Nutrient,Unit,Data points,Std. Error,"0.25 cup = 61.0g",1Value per 100 g,
Proximates
"Energy",kcal,--,--,80,131
"Protein",g,--,--,0.00,0.00
"Total lipid (fat)",g,--,--,8.00,13.11
"Carbohydrate, by difference",g,--,--,2.00,3.28
"Fiber, total dietary",g,--,--,0.0,0.0
"Sugars, total",g,--,--,1.00,1.64
Minerals
"Calcium, Ca",mg,--,--,0,0
"Iron, Fe",mg,--,--,1.46,2.40
"Sodium, Na",mg,--,--,10,16
Vitamins
"Vitamin C, total ascorbic acid",mg,--,--,0.0,0.0
"Vitamin A, IU",IU,--,--,0,0
Lipids
"Fatty acids, total saturated",g,--,--,7.003,11.480
"Fatty acids, total trans",g,--,--,0.000,0.000
"Cholesterol",mg,--,--,0,0
Amino Acids
Other
Ingredients
"COCONUT MILK, WATER, GUAR GUM, POLYSORBATE 60, SODIUM METABISULPHITE (FOR COLOR RETENTION)." Date available: 06/25/2017 Date last updated by company: 06/25/2017
