Source: USDA Branded Food Products Database Release December 2017 Software v.3.8.6.4 2017-10-02
Report Run at: December 18, 2017 13:30 EST
"Nutrient data for: 45180880, JAMAICAN JERK SEASONING, UPC: 009349100105"
Food Group:  Branded Food Products Database
Common Name:

Nutrient,Unit,Data points,Std. Error,"1 tsp = 5.0g",1Value per 100 g,
Proximates
"Energy",kcal,--,--,20,400
"Protein",g,--,--,0.00,0.00
"Total lipid (fat)",g,--,--,0.00,0.00
"Carbohydrate, by difference",g,--,--,4.00,80.00
"Fiber, total dietary",g,--,--,3.0,60.0
"Sugars, total",g,--,--,3.00,60.00
Minerals
"Calcium, Ca",mg,--,--,20,400
"Iron, Fe",mg,--,--,7.20,144.00
"Sodium, Na",mg,--,--,210,4200
Vitamins
"Vitamin C, total ascorbic acid",mg,--,--,0.0,0.0
"Vitamin A, IU",IU,--,--,0,0
Lipids
"Fatty acids, total saturated",g,--,--,0.000,0.000
"Cholesterol",mg,--,--,0,0
Amino Acids
Other
Ingredients
"ESCALLION, HOT PEPPERS, ONIONS, PIMENTO, GARLIC, BLACK PEPPER, THYME, WATER, SALT" Date available: 10/13/2017 Date last updated by company: 10/13/2017
