Source: USDA Branded Food Products Database Release December 2017 Software v.3.8.6.4 2017-10-02
Report Run at: December 18, 2017 13:29 EST
"Nutrient data for: 45168722, JAMAICA BAHAMAS IMPORTS, CURRY POWDER, UPC: 685978000193"
Food Group:  Branded Food Products Database
Common Name:

Nutrient,Unit,Data points,Std. Error,"0.5 tsp = 1.0g",1Value per 100 g,
Proximates
"Energy",kcal,--,--,0,0
"Protein",g,--,--,0.00,0.00
"Total lipid (fat)",g,--,--,0.00,0.00
"Carbohydrate, by difference",g,--,--,1.00,100.00
Minerals
"Sodium, Na",mg,--,--,20,2000
Vitamins
"Vitamin C, total ascorbic acid",mg,--,--,60.0,6000.0
Lipids
Amino Acids
Other
Ingredients
"TUMERIC, CORIANDER, FOENUGREEK, SALT, CUMIN, ALLSPICE, PEPPER, GARLIC" Date available: 07/14/2017 Date last updated by company: 07/14/2017
