Source: USDA Branded Food Products Database Release December 2017 Software v.3.8.6.4 2017-10-02
Report Run at: December 18, 2017 13:32 EST
"Nutrient data for: 45201400, JAMBALAYA WITH CHICKEN & SMOKED SAUSAGE, UPC: 728028253566"
Food Group:  Branded Food Products Database
Common Name:

Nutrient,Unit,Data points,Std. Error,"1 PACKAGE = 283.0g",1Value per 100 g,
Proximates
"Energy",kcal,--,--,269,95
"Protein",g,--,--,21.99,7.77
"Total lipid (fat)",g,--,--,12.99,4.59
"Carbohydrate, by difference",g,--,--,30.00,10.60
"Fiber, total dietary",g,--,--,1.1,0.4
"Sugars, total",g,--,--,3.00,1.06
Minerals
"Calcium, Ca",mg,--,--,399,141
"Iron, Fe",mg,--,--,0.25,0.09
"Sodium, Na",mg,--,--,1240,438
Vitamins
"Vitamin C, total ascorbic acid",mg,--,--,6.2,2.2
"Vitamin A, IU",IU,--,--,518,183
Lipids
"Fatty acids, total saturated",g,--,--,4.500,1.590
"Fatty acids, total trans",g,--,--,0.000,0.000
"Cholesterol",mg,--,--,59,21
Amino Acids
Other
Ingredients
"WATER, CHICKEN (CHICKEN WHITE MEAT, WATER, SEASONING [SALT, CHICKEN POWDER (CHICKEN MEAT, CHICKEN BROTH, CHICKEN FAT, MALTODEXTRIN, NATURAL FLAVOR), MALTODEXTRIN, YEAST EXTRACT, NATURAL FLAVORS, SPICE], SOY PROTEIN CONCENTRATE, FOOD STARCH MODIFIED, SODIUM PHOSPHATES, NATURAL AND ARTIFICIAL ROASTED CHICKEN SKIN TYPE FLAVOR [SALT, MIXED TRIGLYCERIDES, FLAVOR, DISODIUM INOSINATE, DISODIUM GUANYLATE, GELATIN, CORNSTARCH, CONTAINS LESS THAN 2% (CARBOXYMETHYLCELLULOSE, CITRIC ACID, DIAMMONIUM PHOSPHATE, GUM ACACIA)], SALT), SMOKED SAUSAGE (PORK, WATER, SALT, GARLIC, PAPRIKA, WHITE PEPPER, BLACK PEPPER, SODIUM ERYTHORBATE, SODIUM NITRITE), RICE, TOMATOES (TOMATOES, CALCIUM CHLORIDE, CITRIC ACID), ONIONS, CELERY, SOYBEAN OIL, GREEN BELL PEPPER, TOMATO PASTE, ROASTED CHICKEN BASE (CHICKEN MEAT INCLUDING NATURAL CHICKEN JUICES, SALT, SUGAR, CHICKEN FLAVOR [AUTOLYZED YEAST EXTRACT, CHICKEN BROTH], CHICKEN FAT, YEAST EXTRACT, DRIED WHEY [MILK], POTATO FLOUR, DRIED ONION, NATURAL FLAVOR, TURMERIC), LIGHTLY SALTED BUTTER (CREAM, SALT), CULTURED DEXTROSE, GREEN ONIONS, SUGAR, GARLIC, FOOD STARCH MODIFIED, SALT, BACON BASE (SALT, MALTODEXTRIN, YEAST EXTRACT, SUGAR, HAM STOCK, BACON FAT, DRIED ONION, FLAVORS, DRIED GARLIC, AND CARMEL COLOR), PAPRIKA, ONION POWDER, GARLIC POWDER, CARAMEL COLORING, PARSLEY, NATURAL SMOKE FLAVOR, NISIN PREPARATION, SPICES." Date available: 07/14/2017 Date last updated by company: 07/14/2017
