Source: USDA Branded Food Products Database Release December 2017 Software v.3.8.6.4 2017-10-02
Report Run at: December 18, 2017 13:37 EST
"Nutrient data for: 45087700, JANIE'S COOKIE CO, CHOCOLATE CHUNK COOKIE DOUGH, UPC: 892866002126"
Food Group:  Branded Food Products Database
Common Name:

Nutrient,Unit,Data points,Std. Error,"1 ONZ = 28.0g",1Value per 100 g,
Proximates
"Energy",kcal,--,--,100,357
"Protein",g,--,--,1.00,3.57
"Total lipid (fat)",g,--,--,4.00,14.29
"Carbohydrate, by difference",g,--,--,14.00,50.00
"Fiber, total dietary",g,--,--,0.0,0.0
"Sugars, total",g,--,--,8.00,28.57
Minerals
"Calcium, Ca",mg,--,--,0,0
"Iron, Fe",mg,--,--,0.52,1.84
"Sodium, Na",mg,--,--,90,321
Vitamins
"Vitamin C, total ascorbic acid",mg,--,--,0.0,0.0
"Vitamin A, IU",IU,--,--,143,511
Lipids
"Fatty acids, total saturated",g,--,--,1.999,7.140
"Fatty acids, total trans",g,--,--,0.000,0.000
"Cholesterol",mg,--,--,20,71
Amino Acids
Other
Ingredients
"UNBLEACHED UNBROMATED WHEAT FLOUR, BROWN SUGAR, DARK SEMISWEET CHOCOLATE CHUNKS (CONTAINS SUGAR, CHOCOLATE LIQUOR, COCOA BUTTER, SOY LECITHIN (EMULSIFIER), NATURAL VANILLA.), EGG, GRANULATED SUGAR, UNSALTED BUTTER, VEGETABLE SHORTENING (CONTAINS PARTIALLY HYDROGENATED SOYBEAN AND COTTONSEED OILS.), BAKING SODA (SODIUM BICARBONATE), SALT, NATURAL VANILLA EXTRACT (CONTAINS WATER, ALCOHOL, VANILLA)." Date available: 06/25/2017 Date last updated by company: 06/25/2017
