Source: USDA Branded Food Products Database Release December 2017 Software v.3.8.6.4 2017-10-02
Report Run at: December 18, 2017 13:38 EST
"Nutrient data for: 45064542, JAPANESE HORSERADISH WASABI POWDER, UPC: 071828001920"
Food Group:  Branded Food Products Database
Common Name:

Nutrient,Unit,Data points,Std. Error,"0.25 tsp = 0.5g",1Value per 100 g,
Proximates
"Energy",kcal,--,--,0,0
"Protein",g,--,--,0.00,0.00
"Total lipid (fat)",g,--,--,0.00,0.00
"Carbohydrate, by difference",g,--,--,0.00,0.00
Minerals
"Sodium, Na",mg,--,--,0,0
Vitamins
Lipids
Amino Acids
Other
Ingredients
"HORSERADISH POWDER, MUSTARD FLOUR, SPINACH POWDER, WASABI POWDER, SILICON DIOXIDE (PREVENTS PRODUCT CAKING)." Date available: 10/04/2017 Date last updated by company: 10/04/2017
