Source: USDA Branded Food Products Database Release December 2017 Software v.3.8.6.4 2017-10-02
Report Run at: December 18, 2017 13:41 EST
"Nutrient data for: 45169923, JAR GOODS, CLASSIC VODKA TOMATO SAUCE, UPC: 859210004014"
Food Group:  Branded Food Products Database
Common Name:

Nutrient,Unit,Data points,Std. Error,"0.5 cup = 124.0g",1Value per 100 g,
Proximates
"Energy",kcal,--,--,130,105
"Protein",g,--,--,2.00,1.61
"Total lipid (fat)",g,--,--,9.00,7.26
"Carbohydrate, by difference",g,--,--,9.99,8.06
"Fiber, total dietary",g,--,--,2.0,1.6
"Sugars, total",g,--,--,6.00,4.84
Minerals
"Calcium, Ca",mg,--,--,60,48
"Iron, Fe",mg,--,--,0.36,0.29
"Sodium, Na",mg,--,--,410,331
Vitamins
"Vitamin C, total ascorbic acid",mg,--,--,0.0,0.0
"Vitamin A, IU",IU,--,--,761,614
Lipids
"Fatty acids, total saturated",g,--,--,3.001,2.420
"Fatty acids, total trans",g,--,--,0.000,0.000
"Cholesterol",mg,--,--,15,12
Amino Acids
Other
Ingredients
"TOMATOES, WATER, CREAM, ONIONS, OLIVE OIL, VODKA, CONTAINS 1% OR LESS OF EACH OF THE FOLLOWING: GARLIC, SALT, BLACK PEPPER, CITRIC ACID, BASIL." Date available: 07/14/2017 Date last updated by company: 07/14/2017
