Source: USDA Branded Food Products Database Release December 2017 Software v.3.8.6.4 2017-10-02
Report Run at: December 18, 2017 13:43 EST
"Nutrient data for: 45234767, JARRITOS, SODA, TAMARIND TAMARNDO, UPC: 090478410029"
Food Group:  Branded Food Products Database
Common Name:

Nutrient,Unit,Data points,Std. Error,"8.0 OZA = 240.0g",1Value per 100 g,
Proximates
"Energy",kcal,--,--,91,38
"Protein",g,--,--,0.00,0.00
"Total lipid (fat)",g,--,--,0.00,0.00
"Carbohydrate, by difference",g,--,--,22.01,9.17
"Sugars, total",g,--,--,22.01,9.17
Minerals
"Sodium, Na",mg,--,--,46,19
Vitamins
Lipids
"Cholesterol",mg,--,--,0,0
Amino Acids
Other
Ingredients
"CARBONATED WATER, SUGAR, NATURAL FLAVOR, CITRIC ACID, SODIUM BENZOATE (AS PRESERVATIVE), CARAMEL COLOR, RED 40." Date available: 07/14/2017 Date last updated by company: 07/14/2017
