Source: USDA Branded Food Products Database Release December 2017 Software v.3.8.6.4 2017-10-02
Report Run at: December 18, 2017 13:43 EST
"Nutrient data for: 45234609, JARRITOS, SODA, LIME, UPC: 090478216256"
Food Group:  Branded Food Products Database
Common Name:

Nutrient,Unit,Data points,Std. Error,"8.0 fl oz = 240.0g",1Value per 100 g,
Proximates
"Energy",kcal,--,--,110,46
"Protein",g,--,--,0.00,0.00
"Total lipid (fat)",g,--,--,0.00,0.00
"Carbohydrate, by difference",g,--,--,28.01,11.67
"Sugars, total",g,--,--,28.01,11.67
Minerals
"Sodium, Na",mg,--,--,46,19
Vitamins
Lipids
"Cholesterol",mg,--,--,0,0
Amino Acids
Other
Ingredients
"CARBONATED WATER, SUGAR, NATURAL FLAVORS, CITRIC ACID, SODIUM BENZOATE (AS PRESERVATIVE), YELLOW 5, BLUE 1." Date available: 06/24/2017 Date last updated by company: 06/24/2017
