Source: USDA Branded Food Products Database Release December 2017 Software v.3.8.6.4 2017-10-02
Report Run at: December 18, 2017 13:44 EST
"Nutrient data for: 45257706, JASMINE RICE, UPC: 082964701391"
Food Group:  Branded Food Products Database
Common Name:

Nutrient,Unit,Data points,Std. Error,"1 cup = 160.0g",1Value per 100 g,
Proximates
"Energy",kcal,--,--,250,156
"Protein",g,--,--,4.00,2.50
"Total lipid (fat)",g,--,--,0.99,0.62
"Carbohydrate, by difference",g,--,--,54.00,33.75
"Fiber, total dietary",g,--,--,1.9,1.2
"Sugars, total",g,--,--,0.00,0.00
Minerals
"Calcium, Ca",mg,--,--,19,12
"Iron, Fe",mg,--,--,0.10,0.06
"Sodium, Na",mg,--,--,0,0
Vitamins
"Vitamin C, total ascorbic acid",mg,--,--,0.0,0.0
"Vitamin A, IU",IU,--,--,0,0
Lipids
"Fatty acids, total saturated",g,--,--,0.000,0.000
"Fatty acids, total trans",g,--,--,0.000,0.000
"Cholesterol",mg,--,--,0,0
Amino Acids
Other
Ingredients
"WATER, JASMINE RICE." Date available: 07/14/2017 Date last updated by company: 07/14/2017
