Source: USDA Branded Food Products Database Release December 2017 Software v.3.8.6.4 2017-10-02
Report Run at: December 18, 2017 14:02 EST
"Nutrient data for: 45140626, JELL-O, TEMPTATIONS PIE SNACKS, LEMON MERINGUE PIE, UPC: 043000050842"
Food Group:  Branded Food Products Database
Common Name:

Nutrient,Unit,Data points,Std. Error,"1 SNACK = 95.0g",1Value per 100 g,
Proximates
"Energy",kcal,--,--,80,84
"Protein",g,--,--,1.00,1.05
"Total lipid (fat)",g,--,--,1.50,1.58
"Carbohydrate, by difference",g,--,--,17.00,17.89
"Fiber, total dietary",g,--,--,0.0,0.0
"Sugars, total",g,--,--,13.00,13.68
Minerals
"Calcium, Ca",mg,--,--,0,0
"Iron, Fe",mg,--,--,0.00,0.00
"Sodium, Na",mg,--,--,100,105
Vitamins
"Vitamin C, total ascorbic acid",mg,--,--,0.0,0.0
"Vitamin A, IU",IU,--,--,0,0
Lipids
"Fatty acids, total saturated",g,--,--,1.501,1.580
"Fatty acids, total trans",g,--,--,0.000,0.000
"Cholesterol",mg,--,--,0,0
Amino Acids
Other
Ingredients
"WATER, SUGAR, MODIFIED CORNSTARCH, CONTAINS LESS THAN 2% OF GELATIN, CORNSTARCH, HYDROGENATED COCONUT AND PALM KERNEL OIL, FUMARIC ACID (FOR TARTNESS), SALT, SUCROSE FATTY ACID ESTERS, SODIUM CITRATE (CONTROLS TARTNESS), LEMON OIL, SUCRALOSE, ACESULFAME P" Date available: 09/23/2016 Date last updated by company: 09/23/2016
