Source: USDA Branded Food Products Database Release December 2017 Software v.3.8.6.4 2017-10-02
Report Run at: December 18, 2017 13:57 EST
"Nutrient data for: 45139504, JELL-O, INSTANT PUDDING & PIE FILLING, BANANA CREAM, UPC: 043000204757"
Food Group:  Branded Food Products Database
Common Name:

Nutrient,Unit,Data points,Std. Error,"0.17 PACKAGE = 25.0g",1Value per 100 g,
Proximates
"Energy",kcal,--,--,90,360
"Protein",g,--,--,0.00,0.00
"Total lipid (fat)",g,--,--,0.00,0.00
"Carbohydrate, by difference",g,--,--,23.00,92.00
"Fiber, total dietary",g,--,--,0.0,0.0
"Sugars, total",g,--,--,18.00,72.00
Minerals
"Calcium, Ca",mg,--,--,0,0
"Iron, Fe",mg,--,--,0.00,0.00
"Sodium, Na",mg,--,--,360,1440
Vitamins
"Vitamin C, total ascorbic acid",mg,--,--,0.0,0.0
"Vitamin A, IU",IU,--,--,0,0
Lipids
"Fatty acids, total saturated",g,--,--,0.000,0.000
"Fatty acids, total trans",g,--,--,0.000,0.000
"Cholesterol",mg,--,--,0,0
Amino Acids
Other
Ingredients
"SUGAR, DEXTROSE (FROM CORN), MODIFIED CORNSTARCH, CONTAINS LESS THAN 2% OF NATURAL AND ARTIFICIAL FLAVOR, SALT, DISODIUM PHOSPHATE AND TETRASODIUM PYROPHOSPHATE (FOR THICKENING), MONO- AND DIGLYCERIDES (PREVENT FOAMING), YELLOW 5, YELLOW 6, ARTIFICIAL COL" Date available: 09/23/2016 Date last updated by company: 09/23/2016
