Source: USDA Branded Food Products Database Release December 2017 Software v.3.8.6.4 2017-10-02
Report Run at: December 18, 2017 14:00 EST
"Nutrient data for: 45140734, JELL-O, PUDDING SNACKS, BANANA SPLIT, UPC: 043000054697"
Food Group:  Branded Food Products Database
Common Name:

Nutrient,Unit,Data points,Std. Error,"1 SNACK = 110.0g",1Value per 100 g,
Proximates
"Energy",kcal,--,--,110,100
"Protein",g,--,--,2.00,1.82
"Total lipid (fat)",g,--,--,2.00,1.82
"Carbohydrate, by difference",g,--,--,23.00,20.91
"Fiber, total dietary",g,--,--,0.0,0.0
"Sugars, total",g,--,--,18.00,16.36
Minerals
"Calcium, Ca",mg,--,--,100,91
"Iron, Fe",mg,--,--,0.00,0.00
"Sodium, Na",mg,--,--,200,182
Vitamins
"Vitamin C, total ascorbic acid",mg,--,--,0.0,0.0
"Vitamin A, IU",IU,--,--,200,182
Lipids
"Fatty acids, total saturated",g,--,--,1.001,0.910
"Fatty acids, total trans",g,--,--,0.000,0.000
"Cholesterol",mg,--,--,6,5
Amino Acids
Other
Ingredients
"SKIM MILK, WATER, SUGAR, MODIFIED CORNSTARCH, CREAM, CONTAINS LESS THAN 1.5% OF COCOA (PROCESSED WITH ALKALI), SALT, CALCIUM PHOSPHATE, SODIUM STEAROYL LACTYLATE, CAROB BEAN GUM, SODIUM ALGINATE, NATURAL AND ARTIFICIAL FLAVOR, ARTIFICIAL COLOR, YELLOW 5," Date available: 09/23/2016 Date last updated by company: 09/23/2016
