Source: USDA Branded Food Products Database Release December 2017 Software v.3.8.6.4 2017-10-02
Report Run at: December 18, 2017 14:13 EST
"Nutrient data for: 45186832, JELLY, UPC: 852182002507"
Food Group:  Branded Food Products Database
Common Name:

Nutrient,Unit,Data points,Std. Error,"1 Tbsp = 18.0g",1Value per 100 g,
Proximates
"Energy",kcal,--,--,35,194
"Protein",g,--,--,0.00,0.00
"Total lipid (fat)",g,--,--,0.00,0.00
"Carbohydrate, by difference",g,--,--,8.00,44.44
"Sugars, total",g,--,--,8.00,44.44
Minerals
"Sodium, Na",mg,--,--,0,0
Vitamins
"Vitamin C, total ascorbic acid",mg,--,--,16.2,90.2
"Vitamin A, IU",IU,--,--,338,1878
Lipids
Amino Acids
Other
Ingredients
"SWEET RED PEPPERS, CIDER VINEGAR, SUGAR, PECTIN AND HABANERO PEPPERS." Date available: 07/14/2017 Date last updated by company: 07/14/2017
