Source: USDA Branded Food Products Database Release December 2017 Software v.3.8.6.4 2017-10-02
Report Run at: December 18, 2017 14:10 EST
"Nutrient data for: 45147787, JELLY BELLY, THE ORIGINAL GOURMET JELLY BEAN, UPC: 071567997201"
Food Group:  Branded Food Products Database
Common Name:

Nutrient,Unit,Data points,Std. Error,"35.0 PIECES = 40.0g",1Value per 100 g,
Proximates
"Energy",kcal,--,--,140,350
"Protein",g,--,--,0.00,0.00
"Total lipid (fat)",g,--,--,0.00,0.00
"Carbohydrate, by difference",g,--,--,37.00,92.50
"Sugars, total",g,--,--,28.00,70.00
Minerals
"Sodium, Na",mg,--,--,15,38
Vitamins
Lipids
Amino Acids
Other
Ingredients
"SUGAR, CORN SYRUP, MODIFIED FOOD STARCH, BLUEBERRY JUICE FROM PUREE, CONTAINS 2% OR LESS OF THE FOLLOWING: CITRIC ACID, NATURAL AND ARTIFICIAL FLAVOR, COLOR ADDED, BLUE 1 LAKE, BEESWAX, CARNAUBA WAX, CONFECTIONER'S GLAZE." Date available: 08/22/2017 Date last updated by company: 08/22/2017
