Source: USDA Branded Food Products Database Release December 2017 Software v.3.8.6.4 2017-10-02
Report Run at: December 18, 2017 13:58 EST
"Nutrient data for: 45140439, JELL-O, INSTANT REDUCED CALORIE PUDDING & PIE FILLING, CHOCOLATE, UPC: 043000205815"
Food Group:  Branded Food Products Database
Common Name:

Nutrient,Unit,Data points,Std. Error,"0.1666 PACKAGE = 11.0g",1Value per 100 g,
Proximates
"Energy",kcal,--,--,40,364
"Protein",g,--,--,1.00,9.09
"Total lipid (fat)",g,--,--,0.00,0.00
"Carbohydrate, by difference",g,--,--,8.00,72.73
"Fiber, total dietary",g,--,--,1.0,9.1
"Sugars, total",g,--,--,0.00,0.00
Minerals
"Calcium, Ca",mg,--,--,0,0
"Iron, Fe",mg,--,--,0.72,6.55
"Sodium, Na",mg,--,--,320,2909
Vitamins
"Vitamin C, total ascorbic acid",mg,--,--,0.0,0.0
"Vitamin A, IU",IU,--,--,0,0
Lipids
"Fatty acids, total saturated",g,--,--,0.000,0.000
"Fatty acids, total trans",g,--,--,0.000,0.000
"Cholesterol",mg,--,--,0,0
Amino Acids
Other
Ingredients
"MODIFIED CORNSTARCH, COCOA PROCESSED WITH ALKALI, MALTODEXTRIN, DISODIUM PHOSPHATE AND TETRASODIUM PYROPHOSPHATE (FOR THICKENING), CONTAINS LESS THAN 2% NATURAL AND ARTIFICIAL FLAVOR, SALT, SOY LECITHIN, XANTHAN GUM, CALCIUM SULFATE, MONO- AND DIGLYCERIDE" Date available: 09/23/2016 Date last updated by company: 09/23/2016
