Source: USDA Branded Food Products Database Release December 2017 Software v.3.8.6.4 2017-10-02
Report Run at: December 18, 2017 13:59 EST
"Nutrient data for: 45140408, JELL-O, LOW CALORIE GELATIN DESSERT, STRAWBERRY, UPC: 043000201459"
Food Group:  Branded Food Products Database
Common Name:

Nutrient,Unit,Data points,Std. Error,"0.125 PACKAGE, (MAKES 0.5 CUP) = 2.5g",1Value per 100 g,
Proximates
"Energy",kcal,--,--,10,400
"Protein",g,--,--,1.00,40.00
"Total lipid (fat)",g,--,--,0.00,0.00
"Carbohydrate, by difference",g,--,--,0.00,0.00
"Sugars, total",g,--,--,0.00,0.00
Minerals
"Sodium, Na",mg,--,--,55,2200
Vitamins
Lipids
"Fatty acids, total saturated",g,--,--,0.000,0.000
"Fatty acids, total trans",g,--,--,0.000,0.000
Amino Acids
Other
Ingredients
"GELATIN, ADIPIC ACID (FOR TARTNESS), DISODIUM PHOSPHATE (CONTROLS ACIDITY), MALTODEXTRIN (FROM CORN), FUMARIC ACID (FOR TARTNESS), ASPARTAME+ (SWEETENER), CONTAINS LESS THAN 2% OF ARTIFICIAL FLAVOR, ACESULFAME POTASSIUM (SWEETENER), SALT, RED 40." Date available: 09/23/2016 Date last updated by company: 09/23/2016
