Source: USDA Branded Food Products Database Release December 2017 Software v.3.8.6.4 2017-10-02
Report Run at: December 18, 2017 13:52 EST
"Nutrient data for: 45105244, JELLIED CRANBERRY SAUCE, UPC: 041152500048"
Food Group:  Branded Food Products Database
Common Name:

Nutrient,Unit,Data points,Std. Error,"0.25 cup = 70.0g",1Value per 100 g,
Proximates
"Energy",kcal,--,--,100,143
"Protein",g,--,--,0.00,0.00
"Total lipid (fat)",g,--,--,0.00,0.00
"Carbohydrate, by difference",g,--,--,26.00,37.14
"Fiber, total dietary",g,--,--,1.0,1.4
"Sugars, total",g,--,--,17.00,24.29
Minerals
"Sodium, Na",mg,--,--,10,14
Vitamins
Lipids
"Fatty acids, total saturated",g,--,--,0.000,0.000
"Fatty acids, total trans",g,--,--,0.000,0.000
Amino Acids
Other
Ingredients
"ORGANIC CRANBERRIES, ORGANIC SUGAR, FILTERED WATER, AND ORGANIC LEMON JUICE CONCENTRATE." Date available: 06/25/2017 Date last updated by company: 06/25/2017
