Source: USDA Branded Food Products Database Release December 2017 Software v.3.8.6.4 2017-10-02
Report Run at: December 18, 2017 13:56 EST
"Nutrient data for: 45311314, JELL-O, GELATIN SNACKS, MELON FUSION, UPC: 043000065372"
Food Group:  Branded Food Products Database
Common Name:

Nutrient,Unit,Data points,Std. Error,"1 SNACK = 96.0g",1Value per 100 g,
Proximates
"Energy",kcal,--,--,70,73
"Protein",g,--,--,1.00,1.04
"Total lipid (fat)",g,--,--,0.00,0.00
"Carbohydrate, by difference",g,--,--,17.00,17.71
"Fiber, total dietary",g,--,--,0.0,0.0
"Sugars, total",g,--,--,17.00,17.71
Minerals
"Calcium, Ca",mg,--,--,0,0
"Iron, Fe",mg,--,--,0.00,0.00
"Sodium, Na",mg,--,--,40,42
Vitamins
"Vitamin C, total ascorbic acid",mg,--,--,0.0,0.0
"Vitamin A, IU",IU,--,--,0,0
Lipids
"Fatty acids, total saturated",g,--,--,0.000,0.000
"Fatty acids, total trans",g,--,--,0.000,0.000
"Cholesterol",mg,--,--,0,0
Amino Acids
Other
Ingredients
"WATER, SUGAR, GELATIN, CONTAINS LESS THAN 0.5% OF ADIPIC ACID AND CITRIC ACID (FOR TARTNESS), SODIUM CITRATE ( CONTROLS ACIDITY), NATURAL AND ARTIFICIAL FLAVOR, YELLOW 5, BLUE 1." Date available: 07/14/2017 Date last updated by company: 07/14/2017
