Source: USDA Branded Food Products Database Release December 2017 Software v.3.8.6.4 2017-10-02
Report Run at: December 18, 2017 14:09 EST
"Nutrient data for: 45164621, JELLY BELLY, STAR WARS GALAXY MIX SPARKLING JELLY BEANS, UPC: 071567999847"
Food Group:  Branded Food Products Database
Common Name:

Nutrient,Unit,Data points,Std. Error,"1 PACKAGE = 28.0g",1Value per 100 g,
Proximates
"Energy",kcal,--,--,100,357
"Protein",g,--,--,0.00,0.00
"Total lipid (fat)",g,--,--,0.00,0.00
"Carbohydrate, by difference",g,--,--,26.00,92.86
"Sugars, total",g,--,--,17.00,60.71
Minerals
"Sodium, Na",mg,--,--,10,36
Vitamins
"Vitamin C, total ascorbic acid",mg,--,--,2.2,7.7
Lipids
Amino Acids
Other
Ingredients
"SUGAR, TAPIOCA SYRUP, MODIFIED FOOD STARCH, CONTAINS 2% OR LESS OF THE FOLLOWING: BLUEBERRY PUREE, BLACKBERRY PUREE, APPLE JUICE CONCENTRATE, PASSION FRUIT JUICE CONCENTRATE, GRAPE JUICE CONCENTRATE, CITRIC ACID, FUMARIC ACID, TARTARIC ACID, SODIUM CITRATE, SODIUM LACTATE, ACACIA GUM, NATURAL AND ARTIFICIAL FLAVORS, COLOR ADDED, BLUE 1 & 2 LAKE, RED 40, RED 40 LAKE, YELLOW 5 LAKE, BLUE 1 & 2, YELLOW 5, TURMERIC (COLOR), BEESWAX, CARNAUBA WAX, CONFECTIONER'S GLAZE" Date available: 07/14/2017 Date last updated by company: 07/14/2017
