Source: USDA Branded Food Products Database Release December 2017 Software v.3.8.6.4 2017-10-02
Report Run at: December 18, 2017 14:29 EST
"Nutrient data for: 45162520, JEWEL OSCO, PRETZELS, YOGURT, UPC: 008725247007"
Food Group:  Branded Food Products Database
Common Name:

Nutrient,Unit,Data points,Std. Error,"5.0 PCS = 30.0g",1Value per 100 g,
Proximates
"Energy",kcal,--,--,130,433
"Protein",g,--,--,1.00,3.33
"Total lipid (fat)",g,--,--,6.00,20.00
"Carbohydrate, by difference",g,--,--,20.00,66.67
"Fiber, total dietary",g,--,--,0.0,0.0
"Sugars, total",g,--,--,14.00,46.67
Minerals
"Calcium, Ca",mg,--,--,20,67
"Iron, Fe",mg,--,--,0.90,3.00
"Sodium, Na",mg,--,--,130,433
Vitamins
"Vitamin C, total ascorbic acid",mg,--,--,0.0,0.0
"Vitamin A, IU",IU,--,--,0,0
Lipids
"Fatty acids, total saturated",g,--,--,4.500,15.000
"Fatty acids, total trans",g,--,--,0.000,0.000
"Cholesterol",mg,--,--,0,0
Amino Acids
Other
Ingredients
"YOGURT COATING (SUGAR, PALM KERNEL OIL AND PALM OIL, REDUCED MINERAL WHEY POWDER, WHOLE MILK POWDER, TITANIUM DIOXIDE, YOGURT POWDER (CULTURED WHEY AND NONFAT MILK) SOY LECITHIN (AN EMULSIFIER), SALT AND VANILLA) AND PRETZELS (ENRICHED WHEAT FLOUR, SALT, CORN SYRUP, VEGETABLE OIL (MAY CONTAIN ONE OR MORE OF THE FOLLOWING: CORN, CANOLA, COTTONSEED, SOYBEAN), SODIUM BICARBONATE, AND YEAST)." Date available: 07/14/2017 Date last updated by company: 07/14/2017
