Source: USDA Branded Food Products Database Release December 2017 Software v.3.8.6.4 2017-10-02
Report Run at: December 18, 2017 14:28 EST
"Nutrient data for: 45149425, JEWEL OSCO, DARK CHOCOLATE, ALMONDS, UPC: 722648544097"
Food Group:  Branded Food Products Database
Common Name:

Nutrient,Unit,Data points,Std. Error,"0.25 cup = 38.0g",1Value per 100 g,
Proximates
"Energy",kcal,--,--,200,526
"Protein",g,--,--,4.00,10.53
"Total lipid (fat)",g,--,--,15.00,39.47
"Carbohydrate, by difference",g,--,--,18.00,47.37
"Fiber, total dietary",g,--,--,3.0,7.9
"Sugars, total",g,--,--,13.00,34.21
Minerals
"Calcium, Ca",mg,--,--,40,105
"Iron, Fe",mg,--,--,1.90,4.99
"Sodium, Na",mg,--,--,5,13
Vitamins
"Vitamin C, total ascorbic acid",mg,--,--,0.0,0.0
"Vitamin A, IU",IU,--,--,0,0
Lipids
"Fatty acids, total saturated",g,--,--,3.500,9.210
"Fatty acids, total trans",g,--,--,0.000,0.000
"Cholesterol",mg,--,--,5,13
Amino Acids
Other
Ingredients
"DARK CHOCOLATE (SUGAR, CHOCOLATE LIQUOR, COCOA BUTTER, ANHYDROUS MILK FAT, SOY LECITHIN [AN EMULSIFIER], VANILLA), ALMONDS, COTTONSEED AND PEANUT OILS, SUGAR, CORN SYRUP, GUM ARABIC, CONFECTIONER'S GLAZE." Date available: 07/14/2017 Date last updated by company: 07/14/2017
