Source: USDA Branded Food Products Database Release December 2017 Software v.3.8.6.4 2017-10-02
Report Run at: December 18, 2017 14:27 EST
"Nutrient data for: 45155300, JEWEL BAKE SHOP, COOKIES, CHOCOLATE CHIP, UPC: 041144753223"
Food Group:  Branded Food Products Database
Common Name:

Nutrient,Unit,Data points,Std. Error,"1 COOKIE = 14.0g",1Value per 100 g,
Proximates
"Energy",kcal,--,--,70,500
"Protein",g,--,--,1.00,7.14
"Total lipid (fat)",g,--,--,3.50,25.00
"Carbohydrate, by difference",g,--,--,9.00,64.29
"Fiber, total dietary",g,--,--,0.0,0.0
"Sugars, total",g,--,--,5.00,35.71
Minerals
"Calcium, Ca",mg,--,--,0,0
"Iron, Fe",mg,--,--,1.29,9.18
"Sodium, Na",mg,--,--,70,500
Vitamins
"Vitamin C, total ascorbic acid",mg,--,--,0.0,0.0
"Vitamin A, IU",IU,--,--,0,0
Lipids
"Fatty acids, total saturated",g,--,--,1.499,10.710
"Fatty acids, total trans",g,--,--,0.000,0.000
Amino Acids
Other
Ingredients
"ENRICHED BLEACHED FLOUR (BLEACHED WHEAT FLOUR, MALTED BARLEY FLOUR, NIACIN, IRON, THIAMINE MONONITRATE, RIBOFLAVIN, FOLIC ACID), SUGAR, SEMI-SWEET CHOCOLATE CHIPS (SUGAR, UNSWEETENED CHOCOLATE, COCOA BUTTER, SOY LECITHIN, VANILLA EXTRACT, MILK), PALM OIL, MARGARINE (PALM OIL, WATER, SOYBEAN OIL, SALT, MONO-AND DIGL YCERIDES, SOY LECITHIN, SODIUM BENZOATE [PRESERVATIVE],K CITRIC ACID, NATURAL AND ARTIFICIAL FLAVOR, BETA CAROTENE [COLOR], VITAMIN A PALMITATE ADDED,K WHEY [MILK]), EGGS, INVERT SUGAR, WATER, MOLASSES, MODIFIED CORN STARCH, SALT, BAKING SODA, SODIUM ALGINATE, SOY LECITHIN, ARTIFICIAL FLAVOR." Date available: 07/14/2017 Date last updated by company: 07/14/2017
