Source: USDA Branded Food Products Database Release December 2017 Software v.3.8.6.4 2017-10-02
Report Run at: December 18, 2017 14:31 EST
"Nutrient data for: 45097794, JFC, SPECIALLY SELECTED RED BEANS, UPC: 011152443898"
Food Group:  Branded Food Products Database
Common Name:

Nutrient,Unit,Data points,Std. Error,"1.2 oz = 35.0g",1Value per 100 g,
Proximates
"Energy",kcal,--,--,120,343
"Protein",g,--,--,7.00,20.00
"Total lipid (fat)",g,--,--,0.00,0.00
"Carbohydrate, by difference",g,--,--,22.00,62.86
"Fiber, total dietary",g,--,--,4.0,11.4
"Sugars, total",g,--,--,0.00,0.00
Minerals
"Calcium, Ca",mg,--,--,20,57
"Iron, Fe",mg,--,--,1.80,5.14
"Sodium, Na",mg,--,--,0,0
Vitamins
"Vitamin C, total ascorbic acid",mg,--,--,0.0,0.0
"Vitamin A, IU",IU,--,--,0,0
Lipids
"Fatty acids, total saturated",g,--,--,0.000,0.000
"Fatty acids, total trans",g,--,--,0.000,0.000
"Cholesterol",mg,--,--,0,0
Amino Acids
Other
Ingredients
"RED BEANS" Date available: 09/23/2016 Date last updated by company: 09/23/2016
