Source: USDA Branded Food Products Database Release December 2017 Software v.3.8.6.4 2017-10-02
Report Run at: December 18, 2017 14:37 EST
"Nutrient data for: 45294820, JIM'S OWN, BAR-B-QUE SAUCE MUSTARD, UPC: 666288500016"
Food Group:  Branded Food Products Database
Common Name:

Nutrient,Unit,Data points,Std. Error,"2.0 Tbsp = 30.0g",1Value per 100 g,
Proximates
"Energy",kcal,--,--,50,167
"Protein",g,--,--,0.00,0.00
"Total lipid (fat)",g,--,--,0.00,0.00
"Carbohydrate, by difference",g,--,--,12.00,40.00
"Fiber, total dietary",g,--,--,0.0,0.0
"Sugars, total",g,--,--,9.00,30.00
Minerals
"Calcium, Ca",mg,--,--,0,0
"Iron, Fe",mg,--,--,0.00,0.00
"Sodium, Na",mg,--,--,330,1100
Vitamins
"Vitamin C, total ascorbic acid",mg,--,--,0.0,0.0
"Vitamin A, IU",IU,--,--,334,1112
Lipids
"Fatty acids, total saturated",g,--,--,0.000,0.000
"Cholesterol",mg,--,--,0,0
Amino Acids
Other
Ingredients
"KETCHUP (TOMATO CONCENTRATE, ONION POWDER), SUGAR, CIDER VINEGAR, MUSTARD POWDER, MUSTARD SEEDS, SALT, WATER, WORCESTERSHIRE SAUCE (WATER, MOLASSES, HIGH FRUCTOSE CORN SYRUP, ANCHOVIES, HYDROLYZED SOY & CORN PROTEIN, ONIONS, TAMARINDS, GARLIC, CLOVES, CHILLI PEPPERS, NATURAL FLAVORS & ESCHALOTS) AND SPICES." Date available: 06/25/2017 Date last updated by company: 06/25/2017
