Source: USDA Branded Food Products Database Release December 2017 Software v.3.8.6.4 2017-10-02
Report Run at: December 18, 2017 14:35 EST
"Nutrient data for: 45307818, JIMMY DEAN, BREAKFAST BOWL SAUSAGE & GRAVY, UPC: 077900471414"
Food Group:  Branded Food Products Database
Common Name:

Nutrient,Unit,Data points,Std. Error,"1 BOWL = 198.0g",1Value per 100 g,
Proximates
"Energy",kcal,--,--,331,167
"Protein",g,--,--,13.01,6.57
"Total lipid (fat)",g,--,--,20.00,10.10
"Carbohydrate, by difference",g,--,--,25.01,12.63
"Fiber, total dietary",g,--,--,2.0,1.0
"Sugars, total",g,--,--,1.01,0.51
Minerals
"Calcium, Ca",mg,--,--,79,40
"Iron, Fe",mg,--,--,1.23,0.62
"Sodium, Na",mg,--,--,669,338
Vitamins
"Vitamin C, total ascorbic acid",mg,--,--,3.2,1.6
"Vitamin A, IU",IU,--,--,343,173
Lipids
"Fatty acids, total saturated",g,--,--,5.999,3.030
"Fatty acids, total trans",g,--,--,0.000,0.000
"Cholesterol",mg,--,--,236,119
Amino Acids
Other
Ingredients
"DICED POTATOES (POTATOES, VEGETABLE OIL [SOYBEAN AND/OR COTTONSEED OILS], MALTODEXTRIN, SALT, DEXTROSE, TETRASODIUM PYROPHOSPHATE AND SODIUM ACID PYROPHOSPHATE [TO MAINTAIN NATURAL COLOR]), PRE-COOKED SCRAMBLED EGGS (WHOLE EGGS, SKIM MILK, SOYBEAN OIL, MODIFIED CORN STARCH, XANTHAN GUM, LIQUID PEPPER EXTRACT, SALT, CITRIC ACID, BUTTER FLAVOR [BUTTER (CREAM, MILK), PARTIALLY HYDROGENATED SOYBEAN AND COTTONSEED OIL, SOYBEAN OIL, LIPOLYZED BUTTER OIL, NATURAL FLAVORS AND ARTIFICIAL FLAVORS]), COUNTRY GRAVY (WATER, MALTODEXTRIN, CORN STARCH, CREAM POWDER [SUNFLOWER OIL, CORN SYRUP SOLIDS, SODIUM CASEINATE, DIPOTASSIUM PHOSPHATE, MONO AND DIGLYCERIDES, SOY LECITHIN], SHORTENING POWDER [CORN OIL, CORN SYRUP SOLIDS, SODIUM CASEINATE, BHT, PROPYL GALLATE], BUTTERMILK SOLIDS, YEAST EXTRACT, POTASSIUM CHLORIDE, SODIUM CASEINATE, SPICE, SODIUM ACID PYROPHOSPHATE, SODIUM BICARBONATE, NATURAL FLAVOR, TITANIUM DIOXIDE, NATURAL BUTTER FLAVOR [CONTAINS WHEY SOLIDS, ENZYME-MODIFIED BUTTER OIL, DEHYDRATED BUTTER, MALTODEXTRIN, SALT, GUAR GUM, ANNATTO AND TURMERIC], AMMONIUM CHLORIDE LACTIC ACID, CITRIC ACID, SUCCINIC ACID), COOKED PORK SAUSAGE CRUMBLES (PORK, WATER, CONTAINS 2% OR LESS: SALT, SUGAR, SPICES, NATURAL FLAVOR [WITH MALTODEXTRIN, SUCCINIC ACID], SODIUM PHOSPHATES, CARAMEL COLOR, COOKED IN BEEF FAT), SHREDDED MILD CHEDDAR CHEESE (PASTEURIZED MILK, CHEESE CULTURE, SALT, ENZYMES, ANNATTO COLOR)." Date available: 08/07/2017 Date last updated by company: 08/07/2017
