Source: USDA Branded Food Products Database Release December 2017 Software v.3.8.6.4 2017-10-02
Report Run at: December 18, 2017 14:37 EST
"Nutrient data for: 45302675, JIMMY DEAN, SKILLETS SAUSAGE, UPC: 077900491603"
Food Group:  Branded Food Products Database
Common Name:

Nutrient,Unit,Data points,Std. Error,"0.25 PACKAGE = 127.0g",1Value per 100 g,
Proximates
"Energy",kcal,--,--,199,157
"Protein",g,--,--,5.99,4.72
"Total lipid (fat)",g,--,--,12.00,9.45
"Carbohydrate, by difference",g,--,--,18.00,14.17
"Fiber, total dietary",g,--,--,2.0,1.6
"Sugars, total",g,--,--,1.99,1.57
Minerals
"Calcium, Ca",mg,--,--,20,16
"Iron, Fe",mg,--,--,0.32,0.25
"Sodium, Na",mg,--,--,470,370
Vitamins
"Vitamin C, total ascorbic acid",mg,--,--,7.7,6.1
"Vitamin A, IU",IU,--,--,173,136
Lipids
"Fatty acids, total saturated",g,--,--,4.000,3.150
"Fatty acids, total trans",g,--,--,0.000,0.000
"Cholesterol",mg,--,--,15,12
Amino Acids
Other
Ingredients
"DICED POTATOES (POTATOES, PARTIALLY HYDROGENATED VEGETABLE OIL [SOYBEAN AND/OR COTTONSEED OILS] AND/OR VEGETABLE OIL [CANOLA, SOYBEAN, AND/OR SUNFLOWER OILS], MALTODEXTRIN, SALT, DEXTROSE, TETRASODIUM PYROPHOSPHATE AND DISODIUM DIHYDROGEN PYROPHOSPHATE [TO MAINTAIN NATURAL COLOR]), COOKED PORK SAUSAGE (PORK, WATER, CONTAINS 2% OR LESS OF: SALT, SUGAR, SPICES, NATURAL FLAVOR (WITH MALTODEXTRIN, SUCCINIC ACID) SODIUM PHOSPHATES, CARAMEL COLOR, COOKED IN BEEF FAT), RED BELL PEPPERS, ONION, GREEN BELL PEPPERS." Date available: 06/25/2017 Date last updated by company: 06/25/2017
