Source: USDA Branded Food Products Database Release December 2017 Software v.3.8.6.4 2017-10-02
Report Run at: December 18, 2017 14:36 EST
"Nutrient data for: 45170940, JIMMY DEAN, FULLY COOKED MEAT LOVERS PORK SAUSAGE AND BACON CRUMBLES, UPC: 077900196355"
Food Group:  Branded Food Products Database
Common Name:

Nutrient,Unit,Data points,Std. Error,"0.5 cup = 57.0g",1Value per 100 g,
Proximates
"Energy",kcal,--,--,210,368
"Protein",g,--,--,10.00,17.54
"Total lipid (fat)",g,--,--,19.00,33.33
"Carbohydrate, by difference",g,--,--,1.00,1.75
"Fiber, total dietary",g,--,--,0.0,0.0
"Sugars, total",g,--,--,0.00,0.00
Minerals
"Calcium, Ca",mg,--,--,0,0
"Iron, Fe",mg,--,--,0.00,0.00
"Sodium, Na",mg,--,--,680,1193
Vitamins
"Vitamin C, total ascorbic acid",mg,--,--,0.0,0.0
"Vitamin A, IU",IU,--,--,0,0
Lipids
"Fatty acids, total saturated",g,--,--,7.000,12.280
"Fatty acids, total trans",g,--,--,0.000,0.000
"Cholesterol",mg,--,--,40,70
Amino Acids
Other
Ingredients
"COOKED PORK SAUSAGE: PORK, CONTAINS 2% OR LESS: SALT, SPICES, SUGAR, MONOSODIUM GLUTAMATE, SODIUM LACTATE, WATER, SODIUM PHOSPHATES, CARAMEL COLOR, SODIUM DIACETATE, BEEF FAT, FULLY COOKED BACON BITS; BACON (CURED WITH WATER, SALT, SUGAR, SODIUM PHOSPHATES, SODIUM ERYTHORBATE, SODIUM NITRITE), SMOKE FLAVORING." Date available: 07/14/2017 Date last updated by company: 07/14/2017
