Source: USDA Branded Food Products Database Release December 2017 Software v.3.8.6.4 2017-10-02
Report Run at: December 18, 2017 14:35 EST
"Nutrient data for: 45307856, JIMMY DEAN, DELIGHTS, FRITTATAS TURKEY SAUSAGE & BACON, UPC: 077900310898"
Food Group:  Branded Food Products Database
Common Name:

Nutrient,Unit,Data points,Std. Error,"2.0 FRITTATAS = 113.0g",1Value per 100 g,
Proximates
"Energy",kcal,--,--,280,248
"Protein",g,--,--,14.00,12.39
"Total lipid (fat)",g,--,--,21.00,18.58
"Carbohydrate, by difference",g,--,--,8.99,7.96
"Fiber, total dietary",g,--,--,1.0,0.9
"Sugars, total",g,--,--,4.00,3.54
Minerals
"Calcium, Ca",mg,--,--,99,88
"Iron, Fe",mg,--,--,1.08,0.96
"Sodium, Na",mg,--,--,760,673
Vitamins
"Vitamin C, total ascorbic acid",mg,--,--,3.6,3.2
"Vitamin A, IU",IU,--,--,376,333
Lipids
"Fatty acids, total saturated",g,--,--,6.995,6.190
"Fatty acids, total trans",g,--,--,0.000,0.000
"Cholesterol",mg,--,--,250,221
Amino Acids
Other
Ingredients
"WHOLE EGG, WHOLE MILK, COOKED TURKEY BREAKFAST SAUSAGE CRUMBLES (TURKEY, WATER, CONTAINS LESS THAN 2% OF THE FOLLOWING: SALT, SPICES, DEXTROSE, SUGAR, SPICE EXTRACTIVES AND NATURAL FLAVORING), PASTEURIZED PROCESS CHEDDAR CHEESE (CHEDDAR CHEESE [PASTEURIZED MILK, CHEESE CULTURE, SALT, ENZYMES, ANNATTO (VEGETABLE COLOR)), WATER, CREAM, SODIUM PHOSPHATE, SALT, APO-CAROTENAL (COLOR), ENZYMES], BACON (CURED WITH: WATER, SALT, SUGAR, SMOKE FLAVORING, SODIUM PHOSPHATES, SODIUM ERYTHORBATE, SODIUM NITRITE), SOYBEAN OIL, SUGAR, MODIFIED CORN STARCH, CITRUS FIBER, SALT, SAUSAGE SEASONING (YEAST EXTRACT, SALT, SUGAR, SPICE, AND NATURAL FLAVORS), SOY LECITHIN (RELEASE AGENT)." Date available: 07/14/2017 Date last updated by company: 07/14/2017
