Source: USDA Branded Food Products Database Release December 2017 Software v.3.8.6.4 2017-10-02
Report Run at: December 18, 2017 14:40 EST
"Nutrient data for: 45250860, JLM, GRANNY SMITH GUMMI BEARS, UPC: 094776135004"
Food Group:  Branded Food Products Database
Common Name:

Nutrient,Unit,Data points,Std. Error,"1.4 ONZ = 40.0g",1Value per 100 g,
Proximates
Minerals
Vitamins
Lipids
Amino Acids
Other
Ingredients
"CORN SYRUP, GELATIN, CITRIC ACID, SORBITOL, NATURAL & ARTIFICIAL FLAVORS, FD & C YELLOW NO.5, VEGETABLE OIL (COCONUT), CARNAUBA WAX (USED FOR ANTI-STICKING)" Date available: 09/23/2016 Date last updated by company: 09/23/2016
