Source: USDA Branded Food Products Database Release December 2017 Software v.3.8.6.4 2017-10-02
Report Run at: December 18, 2017 14:39 EST
"Nutrient data for: 45176993, JLM, GOLDEN BERRY MIX, UPC: 094776140367"
Food Group:  Branded Food Products Database
Common Name:

Nutrient,Unit,Data points,Std. Error,"1 ONZ = 28.0g",1Value per 100 g,
Proximates
"Energy",kcal,--,--,90,321
"Protein",g,--,--,0.00,0.00
"Total lipid (fat)",g,--,--,0.00,0.00
"Carbohydrate, by difference",g,--,--,23.00,82.14
"Fiber, total dietary",g,--,--,2.0,7.1
"Sugars, total",g,--,--,19.00,67.86
Minerals
"Calcium, Ca",mg,--,--,0,0
"Iron, Fe",mg,--,--,0.52,1.84
"Sodium, Na",mg,--,--,0,0
Vitamins
"Vitamin C, total ascorbic acid",mg,--,--,0.0,0.0
"Vitamin A, IU",IU,--,--,0,0
Lipids
"Fatty acids, total saturated",g,--,--,0.000,0.000
"Fatty acids, total trans",g,--,--,0.000,0.000
"Cholesterol",mg,--,--,0,0
Amino Acids
Other
Ingredients
"RAISINS, DRIED BLUEBERRIES, DRIED CRANBERRIES, DRIED FLAVORED CRANBERRIES (CHERRY, STRAWBERRY, RASPBERRY), SULFUR DIOXIDE, SUGAR, CITRIC ACID, NATURAL FLAVORING (STRAWBERRY, CHERRY, RASPBERRY), ELDERBERRY JUICE CONCENTRATE, SUNFLOWER OIL. MAY CONTAIN AN OCCASIONAL GRAPE STEM. 529260" Date available: 07/14/2017 Date last updated by company: 07/14/2017
