Source: USDA Branded Food Products Database Release December 2017 Software v.3.8.6.4 2017-10-02
Report Run at: December 18, 2017 15:01 EST
"Nutrient data for: 45161104, JO'S CANDIES, SALTED CARAMELS, UPC: 755350100848"
Food Group:  Branded Food Products Database
Common Name:

Nutrient,Unit,Data points,Std. Error,"2.0 PIECES = 34.0g",1Value per 100 g,
Proximates
"Energy",kcal,--,--,150,441
"Protein",g,--,--,2.00,5.88
"Total lipid (fat)",g,--,--,7.00,20.59
"Carbohydrate, by difference",g,--,--,24.00,70.59
"Fiber, total dietary",g,--,--,1.0,2.9
"Sugars, total",g,--,--,18.00,52.94
Minerals
"Calcium, Ca",mg,--,--,40,118
"Iron, Fe",mg,--,--,0.53,1.56
"Sodium, Na",mg,--,--,25,74
Vitamins
"Vitamin C, total ascorbic acid",mg,--,--,0.0,0.0
"Vitamin A, IU",IU,--,--,0,0
Lipids
"Fatty acids, total saturated",g,--,--,3.998,11.760
"Fatty acids, total trans",g,--,--,0.000,0.000
"Cholesterol",mg,--,--,10,29
Amino Acids
Other
Ingredients
"DARK CHOCOLATE (CACAO BEANS, PURE CANE SUGAR, COCOA BUTTER SOYA LECITHIN, VANILLA BEANS) OR MILK CHOCOLATE (SUGAR, COCOA BUTTER, MILK, UNSWEETENED CHOCOLATE, SOYA LECITHIN, PURE VANILLA), CORN SYRUP, SUGAR, MILK, CREAM, BUTTER, MOLASSES, SOY LECITHIN, SALT, AND VANILLA." Date available: 07/14/2017 Date last updated by company: 07/14/2017
