Source: USDA Branded Food Products Database Release December 2017 Software v.3.8.6.4 2017-10-02
Report Run at: December 18, 2017 14:41 EST
"Nutrient data for: 45180110, JOAN OF ARC, FRESH GOAT CHEESE, WASABI, UPC: 711565203255"
Food Group:  Branded Food Products Database
Common Name:

Nutrient,Unit,Data points,Std. Error,"1 ONZ = 28.0g",1Value per 100 g,
Proximates
"Energy",kcal,--,--,70,250
"Protein",g,--,--,4.00,14.29
"Total lipid (fat)",g,--,--,5.00,17.86
"Carbohydrate, by difference",g,--,--,2.00,7.14
"Fiber, total dietary",g,--,--,0.0,0.0
"Sugars, total",g,--,--,1.00,3.57
Minerals
"Calcium, Ca",mg,--,--,40,143
"Iron, Fe",mg,--,--,0.00,0.00
"Sodium, Na",mg,--,--,70,250
Vitamins
"Vitamin C, total ascorbic acid",mg,--,--,0.0,0.0
"Vitamin A, IU",IU,--,--,535,1912
Lipids
"Fatty acids, total saturated",g,--,--,3.500,12.500
"Fatty acids, total trans",g,--,--,0.000,0.000
"Cholesterol",mg,--,--,20,71
Amino Acids
Other
Ingredients
"CULTURED PASTEURIZED GOAT'S MILK, ARTIFICIAL FLAVOR (HORSERADISH, MUSTARD, MUSTARD EXTRACT, SPIRULINA), SALT, ENZYMES." Date available: 07/14/2017 Date last updated by company: 07/14/2017
