Source: USDA Branded Food Products Database Release December 2017 Software v.3.8.6.4 2017-10-02
Report Run at: December 18, 2017 14:43 EST
"Nutrient data for: 45255452, JOCOTES CONGELADOS, UPC: 738529008831"
Food Group:  Branded Food Products Database
Common Name:

Nutrient,Unit,Data points,Std. Error,"3.53 ONZ = 100.0g",1Value per 100 g,
Proximates
"Energy",kcal,--,--,85,85
"Protein",g,--,--,0.00,0.00
"Total lipid (fat)",g,--,--,0.00,0.00
"Carbohydrate, by difference",g,--,--,22.00,22.00
"Fiber, total dietary",g,--,--,2.0,2.0
"Sugars, total",g,--,--,18.00,18.00
Minerals
"Calcium, Ca",mg,--,--,20,20
"Iron, Fe",mg,--,--,1.01,1.01
"Sodium, Na",mg,--,--,0,0
Vitamins
"Vitamin C, total ascorbic acid",mg,--,--,63.0,63.0
"Vitamin A, IU",IU,--,--,0,0
Lipids
"Fatty acids, total saturated",g,--,--,0.000,0.000
"Fatty acids, total trans",g,--,--,0.000,0.000
"Cholesterol",mg,--,--,0,0
Amino Acids
Other
Ingredients
"MOMBIAN PURPLE" Date available: 07/14/2017 Date last updated by company: 07/14/2017
