Source: USDA Branded Food Products Database Release December 2017 Software v.3.8.6.4 2017-10-02
Report Run at: December 18, 2017 14:46 EST
"Nutrient data for: 45092828, JOHNSONVILLE, FULLY COOKED BREAKFAST SAUSAGE, ORIGINAL RECIPE, UPC: 077782030570"
Food Group:  Branded Food Products Database
Common Name:

Nutrient,Unit,Data points,Std. Error,"2.0 LINKS = 45.0g",1Value per 100 g,
Proximates
"Energy",kcal,--,--,150,333
"Protein",g,--,--,7.00,15.56
"Total lipid (fat)",g,--,--,13.00,28.89
"Carbohydrate, by difference",g,--,--,2.00,4.44
Minerals
"Iron, Fe",mg,--,--,0.00,0.00
"Sodium, Na",mg,--,--,390,867
Vitamins
Lipids
"Fatty acids, total saturated",g,--,--,4.500,10.000
"Fatty acids, total trans",g,--,--,0.000,0.000
"Cholesterol",mg,--,--,30,67
Amino Acids
Other
Ingredients
"PORK , WATER AND LESS THAN 2% OF THE FOLLOWING; CORN SYRUP, SALT, POTASSIUM LACTATE, DEXTROSE, MONOSODIUM GLUTAMATE, SODIUM PHOSPHATE, SPICE, NATURAL FLAVORS, FLAVORINGS (SPICE EXTRACTIVES), SODIUM DIACETATE, CARAMEL COLOR, BHA, CITRIC ACID, PROPYL GALLATE" Date available: 10/11/2017 Date last updated by company: 10/11/2017
