Source: USDA Branded Food Products Database Release December 2017 Software v.3.8.6.4 2017-10-02
Report Run at: December 18, 2017 14:55 EST
"Nutrient data for: 45248241, JOLLY RANCHER, HARD CANDY, UPC: 01072739"
Food Group:  Branded Food Products Database
Common Name:

Nutrient,Unit,Data points,Std. Error,"3.0 PIECES = 18.0g",1Value per 100 g,
Proximates
"Energy",kcal,--,--,70,389
"Protein",g,--,--,0.00,0.00
"Total lipid (fat)",g,--,--,0.00,0.00
"Carbohydrate, by difference",g,--,--,17.00,94.44
"Sugars, total",g,--,--,11.00,61.11
Minerals
"Sodium, Na",mg,--,--,10,56
Vitamins
Lipids
Amino Acids
Other
Ingredients
"CORN SYRUP; SUGAR; MALIC ACID. CONTAINS 2% OR LESS OF: NATURAL AND ARTIFICIAL FLAVOR, ARTIFICIAL COLOR (RED 40, BLUE 1, YELLOW 6, SULFUR DIOXIDE, TO MAINTAIN FRESHNESS." Date available: 08/25/2017 Date last updated by company: 08/25/2017
