Source: USDA Branded Food Products Database Release December 2017 Software v.3.8.6.4 2017-10-02
Report Run at: December 18, 2017 14:58 EST
"Nutrient data for: 45012238, JONES DAIRY FARM, LIVERWURST BRAUNSCHWEIGER, UPC: 03397333"
Food Group:  Branded Food Products Database
Common Name:

Nutrient,Unit,Data points,Std. Error,"2.0 ONZ = 56.0g",1Value per 100 g,
Proximates
"Energy",kcal,--,--,100,179
"Protein",g,--,--,10.00,17.86
"Total lipid (fat)",g,--,--,5.00,8.93
"Carbohydrate, by difference",g,--,--,3.00,5.36
"Sugars, total",g,--,--,1.00,1.79
Minerals
"Iron, Fe",mg,--,--,7.07,12.63
"Sodium, Na",mg,--,--,500,893
Vitamins
"Vitamin C, total ascorbic acid",mg,--,--,11.8,21.0
"Vitamin A, IU",IU,--,--,14241,25430
Lipids
"Fatty acids, total saturated",g,--,--,1.002,1.790
"Fatty acids, total trans",g,--,--,0.000,0.000
"Cholesterol",mg,--,--,135,241
Amino Acids
Other
Ingredients
"PORK LIVERS, PORK, BACON (CURED WITH WATER, SALT, SUGAR, SODIUM PHOSPHATES, SODIUM ASCORBATE AND/OR SODIUM ERYTHORBATE, SODIUM NITRITE), WATER, POTASSIUM LACTATE, SALT, DEXTROSE, SPICES, DEHYDRATED ONIONS, SUGAR, SODIUM DIACETATE, SODIUM ASCORBATE, SODIUM NITRITE." Date available: 06/25/2017 Date last updated by company: 06/25/2017
