Source: USDA Branded Food Products Database Release December 2017 Software v.3.8.6.4 2017-10-02
Report Run at: December 18, 2017 15:01 EST
"Nutrient data for: 45010216, JOSE OLE, STEAK MEXTREMES COATED CORN TAQUITOS, CHIPOTLE BBQ, UPC: 073202893534"
Food Group:  Branded Food Products Database
Common Name:

Nutrient,Unit,Data points,Std. Error,"3.0 TAQUITOS = 85.0g",1Value per 100 g,
Proximates
"Energy",kcal,--,--,210,247
"Protein",g,--,--,6.00,7.06
"Total lipid (fat)",g,--,--,9.00,10.59
"Carbohydrate, by difference",g,--,--,28.00,32.94
"Fiber, total dietary",g,--,--,3.0,3.5
"Sugars, total",g,--,--,2.00,2.35
Minerals
"Calcium, Ca",mg,--,--,100,118
"Iron, Fe",mg,--,--,1.44,1.69
"Sodium, Na",mg,--,--,620,729
Vitamins
"Vitamin C, total ascorbic acid",mg,--,--,2.4,2.8
"Vitamin A, IU",IU,--,--,200,235
Lipids
"Fatty acids, total saturated",g,--,--,1.998,2.350
"Fatty acids, total trans",g,--,--,0.000,0.000
"Cholesterol",mg,--,--,10,12
Amino Acids
Other
Ingredients
"STEAK TAQUITO: GROUND CORN MASA FLOUR (WITH TRACE OF LIME), WATER, BEEF STEAK, GREEN CHILE PEPPERS (GREEN CHILE PEPPERS, CITRIC ACID), ONIONS, CONTAINS LESS THAN 2% OF: JALAPENO PEPPERS (JALAPENOS, VINEGAR, SALT), TOMATO PASTE, SEASONING (SALT, SPICES, GARLIC POWDER, NATURAL BEEF FLAVOR), ALPHA CELLULOSE, CALCIUM CARBONATE, WHEAT FLOUR, CELLULOSE, CALCIUM CARBONATE, WHEAT FLOUR, TEXTURED VEGETABLE PROTEIN (SOY FLOUR, CARAMEL COLOR), MODIFIED FOOD STARCH, SALT, CARAMEL COLOR. COATED WITH: SUGAR SALT, MALTODEXTRIN, DEXTROSE, BROWN SUGAR, SPICES, PAPRIKA, SODIUM DIACETATE, ONION POWDER, INACTIVE DRIED YEAST, MALTED BARLEY FLOUR, GARLIC POWDER, CORN STARCH, TOMATO POWDER, AUTOLYZED YEAST EXTRACT, CITRIC ACID, NATURAL FLAVORS, DISODIUM INOSINATE, DISODIUM GUANYLATE, EXTRACTIVES OF PAPRIKA. PREFRIED IN VEGETABLE OIL." Date available: 06/24/2017 Date last updated by company: 06/24/2017
