Source: USDA Branded Food Products Database Release December 2017 Software v.3.8.6.4 2017-10-02
Report Run at: December 18, 2017 15:02 EST
"Nutrient data for: 45012559, JOVY, FRUIT ROLL, STRAWBERRY, KIWI, UPC: 712199318209"
Food Group:  Branded Food Products Database
Common Name:

Nutrient,Unit,Data points,Std. Error,"0.75 oz = 21.2g",1Value per 100 g,
Proximates
"Energy",kcal,--,--,70,330
"Protein",g,--,--,0.00,0.00
"Total lipid (fat)",g,--,--,0.00,0.00
"Carbohydrate, by difference",g,--,--,18.00,84.91
"Fiber, total dietary",g,--,--,2.0,9.4
"Sugars, total",g,--,--,6.00,28.30
Minerals
"Calcium, Ca",mg,--,--,0,0
"Iron, Fe",mg,--,--,0.68,3.20
"Potassium, K",mg,--,--,55,259
"Sodium, Na",mg,--,--,5,24
Vitamins
"Vitamin C, total ascorbic acid",mg,--,--,17.0,80.1
"Vitamin A, IU",IU,--,--,0,0
Lipids
"Fatty acids, total saturated",g,--,--,0.000,0.000
"Fatty acids, total trans",g,--,--,0.000,0.000
"Cholesterol",mg,--,--,0,0
Amino Acids
Other
Ingredients
"NATURAL FRUIT (CONCENTRATED NATURAL STRAWBERRY, DEHYDRATED APPLE AND PEAR), SUGAR, GLUCOSE, PECTIN, NATURAL AND ARTIFICIAL FLAVORS, CITRIC ACID, MALIC ACID, ASCORBIC ACID, ARTIFICIAL COLOR [FD&C RED #40]." Date available: 06/25/2017 Date last updated by company: 06/25/2017
