Source: USDA Branded Food Products Database Release December 2017 Software v.3.8.6.4 2017-10-02
Report Run at: December 18, 2017 15:04 EST
"Nutrient data for: 45099597, JUFRAN, SWEET CHILI SAUCE, UPC: 4801668300039"
Food Group:  Branded Food Products Database
Common Name:

Nutrient,Unit,Data points,Std. Error,"2.0 Tbsp = 35.0g",1Value per 100 g,
Proximates
"Energy",kcal,--,--,60,171
"Carbohydrate, by difference",g,--,--,16.00,45.71
Minerals
Vitamins
"Vitamin C, total ascorbic acid",mg,--,--,27.0,77.1
Lipids
Amino Acids
Other
Ingredients
"SUGAR, WATER, RED CHILI, VINEGAR, GARLIC, SALT, MODIFIED STARCH, SPICES, 01.% SODIUM BENZOATE ADDED AS PRESERVATIVE AND BHA (ANTIOXIDANT)." Date available: 08/17/2017 Date last updated by company: 08/17/2017
