Source: USDA Branded Food Products Database Release December 2017 Software v.3.8.6.4 2017-10-02
Report Run at: December 18, 2017 15:09 EST
"Nutrient data for: 45213384, JUICE COCKTAIL FROM CONCENTRATE, UPC: 015400850490"
Food Group:  Branded Food Products Database
Common Name:

Nutrient,Unit,Data points,Std. Error,"8.0 OZA = 240.0g",1Value per 100 g,
Proximates
"Energy",kcal,--,--,130,54
"Protein",g,--,--,0.00,0.00
"Total lipid (fat)",g,--,--,0.00,0.00
"Carbohydrate, by difference",g,--,--,31.99,13.33
"Sugars, total",g,--,--,31.99,13.33
Minerals
"Sodium, Na",mg,--,--,36,15
Vitamins
"Vitamin C, total ascorbic acid",mg,--,--,78.0,32.5
Lipids
Amino Acids
Other
Ingredients
"WATER, HIGH FRUCTOSE CORN SYRUP, GRAPEFRUIT JUICE, CONCENTRATE, TANGERINE JUICE CONCENTRATE, GRAPEFRUIT PULP SACS, CITRIC ACID, PECTIN, NATURAL FLAVORS, ASCORBIC ACID (VITAMIN C), RED 40." Date available: 08/19/2017 Date last updated by company: 08/19/2017
