Source: USDA Branded Food Products Database Release December 2017 Software v.3.8.6.4 2017-10-02
Report Run at: December 18, 2017 15:12 EST
"Nutrient data for: 45235925, JUICE DRINK BLEND., UPC: 041800323005"
Food Group:  Branded Food Products Database
Common Name:

Nutrient,Unit,Data points,Std. Error,"1 BOTTLE = 296.0g",1Value per 100 g,
Proximates
"Energy",kcal,--,--,139,47
"Protein",g,--,--,0.00,0.00
"Total lipid (fat)",g,--,--,0.00,0.00
"Carbohydrate, by difference",g,--,--,35.99,12.16
"Sugars, total",g,--,--,34.99,11.82
Minerals
"Sodium, Na",mg,--,--,30,10
Vitamins
Lipids
Amino Acids
Other
Ingredients
"FILTERED WATER, HIGH FRUCTOSE CORN SYRUP, APPLE JUICE CONCENTRATE, NATURAL AND ARTIFICIAL FLAVOR, CITRIC ACID (FOR TARTNESS), KIWI AND STRAWBERRY JUICE CONCENTRATES, GUM ACACIA, ESTER GUM, SODIUM CITRATE, RED 40 (COLOR)." Date available: 10/13/2017 Date last updated by company: 10/13/2017
