Source: USDA Branded Food Products Database Release December 2017 Software v.3.8.6.4 2017-10-02
Report Run at: December 18, 2017 15:33 EST
"Nutrient data for: 45284714, JUICY WATERS, UPC: 883990681202"
Food Group:  Branded Food Products Database
Common Name:

Nutrient,Unit,Data points,Std. Error,"6.0 OZA = 177.0g",1Value per 100 g,
Proximates
"Energy",kcal,--,--,14,8
"Protein",g,--,--,0.00,0.00
"Total lipid (fat)",g,--,--,0.00,0.00
"Carbohydrate, by difference",g,--,--,4.00,2.26
"Sugars, total",g,--,--,4.00,2.26
Minerals
"Sodium, Na",mg,--,--,4,2
Vitamins
Lipids
Amino Acids
Other
Ingredients
"PURIFIED WATER, ORGANIC APPLE JUICE CONCENTRATE, NATURAL FLAVORS, CITRIC ACID, ORGANIC STEVIA REBAUDIANA LEAF EXTRACT, NATURAL GRAPE FLAVOR." Date available: 07/14/2017 Date last updated by company: 07/14/2017
