Source: USDA Branded Food Products Database Release December 2017 Software v.3.8.6.4 2017-10-02
Report Run at: December 18, 2017 15:14 EST
"Nutrient data for: 45316621, JUICE DRINK, UPC: 812475013221"
Food Group:  Branded Food Products Database
Common Name:

Nutrient,Unit,Data points,Std. Error,"8.0 OZA = 240.0g",1Value per 100 g,
Proximates
"Energy",kcal,--,--,29,12
"Protein",g,--,--,0.00,0.00
"Total lipid (fat)",g,--,--,0.00,0.00
"Carbohydrate, by difference",g,--,--,7.01,2.92
"Fiber, total dietary",g,--,--,0.0,0.0
"Sugars, total",g,--,--,7.01,2.92
Minerals
"Calcium, Ca",mg,--,--,41,17
"Iron, Fe",mg,--,--,0.00,0.00
"Sodium, Na",mg,--,--,50,21
Vitamins
"Vitamin C, total ascorbic acid",mg,--,--,18.0,7.5
"Vitamin A, IU",IU,--,--,0,0
Lipids
"Fatty acids, total saturated",g,--,--,0.000,0.000
"Fatty acids, total trans",g,--,--,0.000,0.000
"Cholesterol",mg,--,--,0,0
Amino Acids
Other
Ingredients
"WATER, ALOE VERA JUICE, ALOE VERA PULP, CANTALOUPE JUICE, CANE SUGAR, CUCUMBER JUICE, CITRIC ACID, NATURAL FLAVORS, ERYTHRITOL, ASCORBIC ACID, STEVIA LEAF EXTRACT" Date available: 07/14/2017 Date last updated by company: 07/14/2017
