Source: USDA Branded Food Products Database Release December 2017 Software v.3.8.6.4 2017-10-02
Report Run at: December 18, 2017 15:07 EST
"Nutrient data for: 45270891, JUICE BLEND FROM CONCENTRATE, UPC: 726284000207"
Food Group:  Branded Food Products Database
Common Name:

Nutrient,Unit,Data points,Std. Error,"1 BOTTLE = 16.0g",1Value per 100 g,
Proximates
"Energy",kcal,--,--,8,48
"Protein",g,--,--,0.00,0.00
"Total lipid (fat)",g,--,--,0.00,0.00
"Carbohydrate, by difference",g,--,--,1.90,11.88
"Sugars, total",g,--,--,1.80,11.25
Minerals
"Calcium, Ca",mg,--,--,1,4
"Iron, Fe",mg,--,--,0.02,0.15
"Sodium, Na",mg,--,--,2,14
Vitamins
Lipids
Amino Acids
Other
Ingredients
"FILTERED WATER; APPLE, CRANBERRY, POMEGRANATE, AND CHERRY JUICE CONCENTRATES; CITRIC ACID; VEGETABLE JUICE CONCENTRATES (COLOR); NATURAL FLAVORS." Date available: 08/20/2017 Date last updated by company: 08/20/2017
