Source: USDA Branded Food Products Database Release December 2017 Software v.3.8.6.4 2017-10-02
Report Run at: December 18, 2017 15:49 EST
"Nutrient data for: 45281146, JUMBOS! BISCUIT, UPC: 021130116171"
Food Group:  Branded Food Products Database
Common Name:

Nutrient,Unit,Data points,Std. Error,"1 BISCUIT = 57.0g",1Value per 100 g,
Proximates
"Energy",kcal,--,--,180,316
"Protein",g,--,--,4.00,7.02
"Total lipid (fat)",g,--,--,7.00,12.28
"Carbohydrate, by difference",g,--,--,26.00,45.61
"Fiber, total dietary",g,--,--,1.0,1.8
"Sugars, total",g,--,--,5.00,8.77
Minerals
"Calcium, Ca",mg,--,--,0,0
"Iron, Fe",mg,--,--,1.39,2.44
"Sodium, Na",mg,--,--,550,965
Vitamins
"Vitamin C, total ascorbic acid",mg,--,--,0.0,0.0
"Vitamin A, IU",IU,--,--,0,0
Lipids
"Fatty acids, total saturated",g,--,--,3.500,6.140
"Fatty acids, total monounsaturated",g,--,--,2.502,4.390
"Fatty acids, total polyunsaturated",g,--,--,0.998,1.750
"Fatty acids, total trans",g,--,--,0.000,0.000
"Cholesterol",mg,--,--,0,0
Amino Acids
Other
Ingredients
"ENRICHED BLEACHED FLOUR (WHEAT FLOUR, NIACIN, IRON, THIAMIN MONONITRATE [VITAMIN B1], RIBOFLAVIN [VITAMIN B2], FOLIC ACID), BUTTERMILK, VEGETABLE OIL (PALM, SOYBEAN AND/OR COTTONSEED OILS), WATER, SUGAR, LEAVENING (BAKING SODA, SODIUM ACID PYROPHOSPHATE, SODIUM ALUMINUM PHOSPHATE, ALUMINUM SULFATE). CONTAINS 2% OR LESS OF EACH OF THE FOLLOWING: DEXTROSE, SALT, SODIUM STEAROYL LACTYLATE, NATURAL AND ARTIFICIAL FLAVOR, XANTHAN GUM, POTASSIUM SORBATE AND CITRIC ACID AND TBHQ (PRESERVATIVES), SOY FLOUR." Date available: 09/21/2017 Date last updated by company: 09/21/2017
