Source: USDA Branded Food Products Database Release December 2017 Software v.3.8.6.4 2017-10-02
Report Run at: December 18, 2017 15:45 EST
"Nutrient data for: 45183277, JUMBO MARSHMALLOWS, UPC: 051933547056"
Food Group:  Branded Food Products Database
Common Name:

Nutrient,Unit,Data points,Std. Error,"1 PIECE = 26.0g",1Value per 100 g,
Proximates
"Energy",kcal,--,--,80,308
"Protein",g,--,--,0.00,0.00
"Total lipid (fat)",g,--,--,0.00,0.00
"Carbohydrate, by difference",g,--,--,20.00,76.92
"Fiber, total dietary",g,--,--,0.0,0.0
"Sugars, total",g,--,--,16.00,61.54
Minerals
"Calcium, Ca",mg,--,--,0,0
"Iron, Fe",mg,--,--,0.00,0.00
"Sodium, Na",mg,--,--,20,77
Vitamins
"Vitamin C, total ascorbic acid",mg,--,--,0.0,0.0
"Vitamin A, IU",IU,--,--,0,0
Lipids
"Fatty acids, total saturated",g,--,--,0.000,0.000
"Fatty acids, total trans",g,--,--,0.000,0.000
"Cholesterol",mg,--,--,0,0
Amino Acids
Other
Ingredients
"CORN SYRUP, SUGAR, MODIFIED CORN STARCH, WATER, GELATIN, CONTAINS 2% OR LESS OF: NATURAL AND ARTIFICIAL FLAVOR, TETRASODIUM PYROPHOSPHATE, COLOR (BLUE 1)." Date available: 07/14/2017 Date last updated by company: 07/14/2017
