Source: USDA Branded Food Products Database Release December 2017 Software v.3.8.6.4 2017-10-02
Report Run at: December 18, 2017 15:45 EST
"Nutrient data for: 45257319, JUMBO NACHO CHEESEBURGER, UPC: 071421032130"
Food Group:  Branded Food Products Database
Common Name:

Nutrient,Unit,Data points,Std. Error,"1 SANDWICH = 238.0g",1Value per 100 g,
Proximates
"Energy",kcal,--,--,640,269
"Protein",g,--,--,26.99,11.34
"Total lipid (fat)",g,--,--,38.01,15.97
"Carbohydrate, by difference",g,--,--,59.00,24.79
"Fiber, total dietary",g,--,--,5.0,2.1
"Sugars, total",g,--,--,10.00,4.20
Minerals
"Calcium, Ca",mg,--,--,200,84
"Iron, Fe",mg,--,--,3.17,1.33
"Sodium, Na",mg,--,--,959,403
Vitamins
"Vitamin C, total ascorbic acid",mg,--,--,12.4,5.2
"Vitamin A, IU",IU,--,--,295,124
Lipids
"Fatty acids, total saturated",g,--,--,12.995,5.460
"Fatty acids, total trans",g,--,--,2.499,1.050
"Cholesterol",mg,--,--,60,25
Amino Acids
Other
Ingredients
"FLAME BROILED JALAPENO BEEF PATTY: BEEF, WATER, TEXTURED VEGETABLE PROTEIN (SOY PROTEIN CONCENTRATE, CARAMEL COLOR), JALAPENO PEPPERS, SEASONING (HYDROLYZED CORN PROTEIN, DEXTROSE, SAT SPICES, DEHYDRATED GREEN AND RED BELL PEPPERS, ARTIFICIAL FLAVOR, ONION POWDER, SPICE EXTRACTIVES), SODIUM PHOSPHATES. SESAME SEED BUN: ENRICHED BLEACHED WHEAT FLOUR (WHEAT FLOUR, NIACIN, REDUCED IRON, THIAMINE MONONITRATE, RIBOLFAVIN, FOLIC ACID, ENZYME), WATER, SUGAR, SOYBEAN OIL, SESAME SEEDS, CONTAINS 2% OR LESS OF: YEAST (YEAST, SORBITAN MONOSTEARATE, ASCORBIC ACID), SALT, CALCIUM PROPIONATE (PRESERVATIVE), MONOGLYCERIDES WITH ASCORBIC ACID), SALT, CALCIUM PROPIONATE (PRESERVATIVE), MONOGLYCERIDES WITH ASCORBIC ACID AND CITRIC ACID (ANTIOXIDANTS), CALCIUM SULFATE, ENZYMES, WHEAT STARCH, ASCORBIC ACID. PASTEURIZED PROCESS NACHO CHEESE SPREAD: CHEESE (MILK, CHEESE CULTURE, SALT, ENZYMES), WATER, PARTIALLY HYDROGENATED SOYBEAN OIL, JALAPENO PEPPERS, SODIUM PHOSPHATE CASEIN, GREEN BELL PEPPER, RED BELL PEPPER, SALT, SODIUM ALGINATE, LACTIC ACID, WHEY, MALTODEXTRIN, MONOSODIUM GLUTAMATE, TOMATO POWDER, ONION POWDER, GARLIC POWDER, SPICES, NONFAT DRY MILK, FD&C YELLOW #5, FD&C YELLOW #6, SORBIC ACID(PRESERVATIVE), ARTIFICIAL COLOR, NATURAL FLAVORS." Date available: 08/23/2017 Date last updated by company: 08/23/2017
