Source: USDA Branded Food Products Database Release December 2017 Software v.3.8.6.4 2017-10-02
Report Run at: December 18, 2017 15:50 EST
"Nutrient data for: 45041385, JUMBO SUB BUNS, UPC: 071314043410"
Food Group:  Branded Food Products Database
Common Name:

Nutrient,Unit,Data points,Std. Error,"0.25 BUN = 57.0g",1Value per 100 g,
Proximates
"Energy",kcal,--,--,140,246
"Protein",g,--,--,5.00,8.77
"Total lipid (fat)",g,--,--,1.00,1.75
"Carbohydrate, by difference",g,--,--,27.00,47.37
"Fiber, total dietary",g,--,--,1.0,1.8
"Sugars, total",g,--,--,1.00,1.75
Minerals
"Calcium, Ca",mg,--,--,20,35
"Iron, Fe",mg,--,--,1.58,2.77
"Sodium, Na",mg,--,--,320,561
Vitamins
"Vitamin C, total ascorbic acid",mg,--,--,0.0,0.0
"Thiamin",mg,--,--,0.000,0.000
"Riboflavin",mg,--,--,0.170,0.298
"Niacin",mg,--,--,2.632,4.618
"Vitamin A, IU",IU,--,--,0,0
Lipids
"Fatty acids, total saturated",g,--,--,0.000,0.000
"Fatty acids, total trans",g,--,--,0.000,0.000
"Cholesterol",mg,--,--,0,0
Amino Acids
Other
Ingredients
"ENRICHED WHEAT FLOUR [WHEAT FLOUR, MALTED BARLEY FLOUR, NIACIN, IRON, THIAMINE MONONITRATE, RIBOFLAVIN, FOLIC ACID], WATER, CONTAINS 2% OR LESS OF THE FOLLOWING: SALT, CORN SUGAR, SUGAR, SOYBEAN OIL, DOUGH CONDITIONERS (DATEM, ASCORBIC ACID, L-CYSTEINE), CULTURED WHEAT FLOUR, YEAST, WHEAT GLUTEN, GUAR GUM, CORN SYRUP SOLIDS, MALTED BARLEY FLOUR, CORN STARCH, SOY LECITHIN." Date available: 07/14/2017 Date last updated by company: 07/14/2017
