Source: USDA Branded Food Products Database Release December 2017 Software v.3.8.6.4 2017-10-02
Report Run at: December 18, 2017 15:41 EST
"Nutrient data for: 45226623, JUMBO COOKED SHRIMP, UPC: 843237001477"
Food Group:  Branded Food Products Database
Common Name:

Nutrient,Unit,Data points,Std. Error,"3.0 ONZ = 84.0g",1Value per 100 g,
Proximates
"Energy",kcal,--,--,77,92
"Protein",g,--,--,17.00,20.24
"Total lipid (fat)",g,--,--,1.00,1.19
"Carbohydrate, by difference",g,--,--,0.00,0.00
"Fiber, total dietary",g,--,--,0.0,0.0
"Sugars, total",g,--,--,0.00,0.00
Minerals
"Calcium, Ca",mg,--,--,70,83
"Iron, Fe",mg,--,--,0.47,0.56
"Sodium, Na",mg,--,--,468,557
Vitamins
"Vitamin C, total ascorbic acid",mg,--,--,0.0,0.0
"Vitamin A, IU",IU,--,--,0,0
Lipids
"Fatty acids, total saturated",g,--,--,0.000,0.000
"Fatty acids, total trans",g,--,--,0.000,0.000
"Cholesterol",mg,--,--,165,196
Amino Acids
Other
Ingredients
"SHRIMP, WATER, SALT, SODIUM TRIPOLYPHOSPHATE." Date available: 09/13/2017 Date last updated by company: 09/13/2017
