Source: USDA Branded Food Products Database Release December 2017 Software v.3.8.6.4 2017-10-02
Report Run at: December 17, 2017 05:17 EST
"Nutrient data for: 45153378, K&G, RED CREAM SODA, UPC: 708615300231"
Food Group:  Branded Food Products Database
Common Name:

Nutrient,Unit,Data points,Std. Error,"8.0 OZA = 240.0g",1Value per 100 g,
Proximates
"Energy",kcal,--,--,110,46
"Protein",g,--,--,0.00,0.00
"Total lipid (fat)",g,--,--,0.00,0.00
"Carbohydrate, by difference",g,--,--,28.99,12.08
"Sugars, total",g,--,--,28.99,12.08
Minerals
"Sodium, Na",mg,--,--,14,6
Vitamins
Lipids
Amino Acids
Other
Ingredients
"CARBONATED WATER, SUGAR, SODIUM BENZOATE (PRESERVATIVE), CITRIC ACID, NATURAL AND ARTIFICIAL FLAVOR, FD&C RED NO. 40." Date available: 07/14/2017 Date last updated by company: 07/14/2017
