Source: USDA Branded Food Products Database Release December 2017 Software v.3.8.6.4 2017-10-02
Report Run at: December 17, 2017 05:17 EST
"Nutrient data for: 45165797, K&G, ROASTED & SALTED JUMBO SUNFLOWER SEEDS, UPC: 708615110236"
Food Group:  Branded Food Products Database
Common Name:

Nutrient,Unit,Data points,Std. Error,"0.75 cup = 30.0g",1Value per 100 g,
Proximates
"Energy",kcal,--,--,95,317
"Protein",g,--,--,3.00,10.00
"Total lipid (fat)",g,--,--,7.50,25.00
"Carbohydrate, by difference",g,--,--,3.00,10.00
"Fiber, total dietary",g,--,--,1.0,3.3
"Sugars, total",g,--,--,0.00,0.00
Minerals
"Calcium, Ca",mg,--,--,10,33
"Iron, Fe",mg,--,--,5.10,17.00
"Sodium, Na",mg,--,--,65,217
Vitamins
"Vitamin C, total ascorbic acid",mg,--,--,0.0,0.0
"Vitamin A, IU",IU,--,--,0,0
Lipids
"Fatty acids, total saturated",g,--,--,0.999,3.330
"Fatty acids, total monounsaturated",g,--,--,1.500,5.000
"Fatty acids, total polyunsaturated",g,--,--,5.001,16.670
"Fatty acids, total trans",g,--,--,0.000,0.000
"Cholesterol",mg,--,--,0,0
Amino Acids
Other
Ingredients
"SUNFLOWER SEEDS AND SALT." Date available: 07/14/2017 Date last updated by company: 07/14/2017
