Source: USDA Branded Food Products Database Release December 2017 Software v.3.8.6.4 2017-10-02
Report Run at: December 18, 2017 16:00 EST
"Nutrient data for: 45018334, KABUTO, INSTANT TOFU MISO SOUP, SOYBEAN PASTE SOUP WITH TOFU, UPC: 081652042815"
Food Group:  Branded Food Products Database
Common Name:

Nutrient,Unit,Data points,Std. Error,"3.17 oz = 90.0g",1Value per 100 g,
Proximates
"Energy",kcal,--,--,30,33
"Protein",g,--,--,2.00,2.22
"Total lipid (fat)",g,--,--,1.00,1.11
"Carbohydrate, by difference",g,--,--,5.00,5.56
"Fiber, total dietary",g,--,--,0.0,0.0
"Sugars, total",g,--,--,5.00,5.56
Minerals
"Calcium, Ca",mg,--,--,0,0
"Iron, Fe",mg,--,--,0.00,0.00
"Sodium, Na",mg,--,--,690,767
Vitamins
"Vitamin C, total ascorbic acid",mg,--,--,0.0,0.0
"Vitamin A, IU",IU,--,--,0,0
Lipids
"Fatty acids, total saturated",g,--,--,0.000,0.000
"Fatty acids, total trans",g,--,--,0.000,0.000
"Cholesterol",mg,--,--,0,0
Amino Acids
Other
Ingredients
"SOYBEAN PASTE (WATER, SOYBEAN, RICE, SALT), SUGAR, SALT, KELP EXTRACT, BONITO POWDER, BONITO EXTRACT, SARDINE EXTRACT, ALCOHOL, MONOSODIUM GLUTAMATE, DISODIUM INOSINATE, DISODIUM GUANYLATE, DISODIUM SUCCINATE. GARNISH : TOFU, SEAWEED, GREEN ONION, DRIED BONITO POWDER, DEXTRINE, SALT, DRIED SARDINE POWDER, MONOSODIUM GLUTAMATE, DISODIUM INOSINATE, DISODIUM GUANYLATE." Date last updated by company: 04/30/2015
