Source: USDA Branded Food Products Database Release December 2017 Software v.3.8.6.4 2017-10-02
Report Run at: December 18, 2017 16:01 EST
"Nutrient data for: 45117484, KAHIKI, STIRFRESH, GENERAL TSO'S CHICKEN, UPC: 054347220010"
Food Group:  Branded Food Products Database
Common Name:

Nutrient,Unit,Data points,Std. Error,"0.5 PACKAGE = 312.0g",1Value per 100 g,
Proximates
"Energy",kcal,--,--,390,125
"Protein",g,--,--,13.01,4.17
"Total lipid (fat)",g,--,--,18.00,5.77
"Carbohydrate, by difference",g,--,--,44.99,14.42
"Fiber, total dietary",g,--,--,4.1,1.3
"Sugars, total",g,--,--,25.99,8.33
Minerals
"Calcium, Ca",mg,--,--,59,19
"Iron, Fe",mg,--,--,0.90,0.29
"Sodium, Na",mg,--,--,961,308
Vitamins
"Vitamin C, total ascorbic acid",mg,--,--,44.9,14.4
"Vitamin A, IU",IU,--,--,1563,501
Lipids
"Fatty acids, total saturated",g,--,--,3.494,1.120
"Fatty acids, total trans",g,--,--,0.000,0.000
"Cholesterol",mg,--,--,25,8
Amino Acids
Other
Ingredients
"BROCCOLI, TEMPURA CHICKEN: (CHICKEN WHITE MEAT, WATER, WHEAT FLOUR, CORNSTARCH, CONTAINS 2% OR LESS OF: POTATO STARCH, SALT, WINE VINEGAR, VEGETABLE OIL, YEAST EXTRACT, BAKING SODA, EGGS, SPICE) FRIED IN VEGETABLE OIL, WATER, CARROTS, RED BELL PEPPER, BROWN SUGAR, SOY SAUCE (WATER, WHEAT, SOYBEANS, SALT, ALCOHOL, VINEGAR, LACTIC ACID), RAISIN JUICE CONCENTRATE, CONTAINS 2% OR LESS OF: CHICKEN STOCK, VEGETABLE OIL, GINGER, CORNSTARCH, BEEF FAT, GARLIC, SUGAR, MOLASSES, SESAME OIL, WINE VINEGAR, NATURAL FLAVOR WOK OIL (SAFFLOWER OIL, SESAME SEED OIL, RICE BRAN OIL, NATURAL FLAVORS), RED PEPPER, SOY LECITHIN, LEMON JUICE CONCENTRATE, XANTHAN GUM." Date available: 06/25/2017 Date last updated by company: 06/25/2017
