Source: USDA Branded Food Products Database Release December 2017 Software v.3.8.6.4 2017-10-02
Report Run at: December 18, 2017 16:02 EST
"Nutrient data for: 45327391, KAKE CHIPS, UPC: 025600085622"
Food Group:  Branded Food Products Database
Common Name:

Nutrient,Unit,Data points,Std. Error,"6.0 PIECES = 30.0g",1Value per 100 g,
Proximates
"Energy",kcal,--,--,160,533
"Protein",g,--,--,1.00,3.33
"Total lipid (fat)",g,--,--,8.00,26.67
"Carbohydrate, by difference",g,--,--,20.00,66.67
"Fiber, total dietary",g,--,--,1.0,3.3
"Sugars, total",g,--,--,12.00,40.00
Minerals
"Calcium, Ca",mg,--,--,0,0
"Iron, Fe",mg,--,--,0.40,1.33
"Potassium, K",mg,--,--,0,0
"Sodium, Na",mg,--,--,95,317
Vitamins
"Vitamin D",IU,--,--,0,0
Lipids
"Fatty acids, total saturated",g,--,--,4.500,15.000
"Fatty acids, total trans",g,--,--,0.000,0.000
"Cholesterol",mg,--,--,0,0
Amino Acids
Other
Ingredients
"UNBLEACHED ENRICHED FLOUR (WHEAT FLOUR, NIACIN, REDUCED IRON, THIAMIN MONONITRATE, RIBOFLAVIN, FOLIC ACID), PALM OIL, SUGAR, HIGH FRUCTOSE CORN SYRUP, COLOR BITS (SUGAR, DEXTROSE, WHEAT STARCH, MODIFIED CORN STARCH, CANOLA OIL, CELLULOSE GUM, YELLOW #5 LAKE, RED #40 LAKE, BLUE #2 LAKE, RED #3, BLUE #1 LAKE, BLUE #1), CONTAINS 2% OR LESS OF EACH OF THE FOLLOWING: CORN STARCH, SALT, NATURAL FLAVORS, WATER, SOY LECITHIN." Date available: 10/13/2017 Date last updated by company: 10/13/2017
