Source: USDA Branded Food Products Database Release December 2017 Software v.3.8.6.4 2017-10-02
Report Run at: December 18, 2017 16:02 EST
"Nutrient data for: 45244269, Kala Beautiful Beans Tropical Curry Crisps 0.75 oz, UNPREPARED, GTIN: 00039400185215"
Food Group:  Branded Food Products Database
Common Name:

Nutrient,Unit,Data points,Std. Error,"1 Package = 21.0g",1Value per 100 g,
Proximates
"Energy",kcal,--,--,100,476
"Protein",g,--,--,5.00,23.81
"Total lipid (fat)",g,--,--,4.50,21.43
"Carbohydrate, by difference",g,--,--,11.00,52.38
"Fiber, total dietary",g,--,--,4.0,19.0
"Sugars, total",g,--,--,1.00,4.76
Minerals
"Calcium, Ca",mg,--,--,0,0
"Iron, Fe",mg,--,--,1.08,5.14
"Sodium, Na",mg,--,--,130,619
Vitamins
"Vitamin C, total ascorbic acid",mg,--,--,0.0,0.0
"Vitamin A, IU",IU,--,--,0,0
Lipids
"Fatty acids, total saturated",g,--,--,0.500,2.380
"Fatty acids, total trans",g,--,--,0.000,0.000
"Cholesterol",mg,--,--,0,0
Amino Acids
Other
Ingredients
"Fava Beans, Sunflower Oil, Sugar, Contains Less Than 2% of: Sea Salt, Spices (Including Mustard), Garlic And Onion Powder, Molasses, Maltodextrin, Lime Juice, Citric Acid, Malic Acid, Extractives of Paprika, Turmeric, Natural Flavors." Date available: 10/10/2017 Date last updated by company: 08/07/2017
