Source: USDA Branded Food Products Database Release December 2017 Software v.3.8.6.4 2017-10-02
Report Run at: December 18, 2017 16:04 EST
"Nutrient data for: 45189659, KALAMATA PIECES OLIVES IN BRINE, UPC: 011110884190"
Food Group:  Branded Food Products Database
Common Name:

Nutrient,Unit,Data points,Std. Error,"2.0 Tbsp = 16.0g",1Value per 100 g,
Proximates
"Energy",kcal,--,--,40,250
"Protein",g,--,--,0.00,0.00
"Total lipid (fat)",g,--,--,4.00,25.00
"Carbohydrate, by difference",g,--,--,1.00,6.25
Minerals
"Sodium, Na",mg,--,--,260,1625
Vitamins
Lipids
Amino Acids
Other
Ingredients
"KALAMATA OLIVES, WATER, SALT, RED WINE VINEGAR, DISTILLED VINEGAR, OLIVE OIL." Date available: 10/19/2017 Date last updated by company: 10/19/2017
