Source: USDA Branded Food Products Database Release December 2017 Software v.3.8.6.4 2017-10-02
Report Run at: December 18, 2017 16:13 EST
"Nutrient data for: 45103981, KAM YEN JAN, CHINESE STYLE SWEET SAUSAGE, UPC: 074545100358"
Food Group:  Branded Food Products Database
Common Name:

Nutrient,Unit,Data points,Std. Error,"1 SAUSAGE = 46.0g",1Value per 100 g,
Proximates
"Energy",kcal,--,--,190,413
"Protein",g,--,--,9.00,19.57
"Total lipid (fat)",g,--,--,13.00,28.26
"Carbohydrate, by difference",g,--,--,9.00,19.57
"Fiber, total dietary",g,--,--,0.0,0.0
"Sugars, total",g,--,--,7.00,15.22
Minerals
"Calcium, Ca",mg,--,--,0,0
"Iron, Fe",mg,--,--,0.86,1.87
"Sodium, Na",mg,--,--,600,1304
Vitamins
"Vitamin C, total ascorbic acid",mg,--,--,0.0,0.0
"Vitamin A, IU",IU,--,--,897,1949
Lipids
"Fatty acids, total saturated",g,--,--,5.000,10.870
"Fatty acids, total trans",g,--,--,0.000,0.000
"Cholesterol",mg,--,--,50,109
Amino Acids
Other
Ingredients
"PORK, MECHANICALLY SEPARATED CHICKEN, PORK FAT, SUGAR, SOY SAUCE (WATER, SOYBEANS, SALT, WHEAT), SALT, SPICES, MONOSODIUM, GLUTAMATE, GRAIN ALCOHOL, SODIUM NITRITE, SODIUM ERYTHORBATE, IN BEEF COLLAGEN CASINGS." Date available: 07/07/2017 Date last updated by company: 07/07/2017
