Source: USDA Branded Food Products Database Release December 2017 Software v.3.8.6.4 2017-10-02
Report Run at: December 18, 2017 16:14 EST
"Nutrient data for: 45035115, KANSAS CITY CLASSIC RUB SPICES, UPC: 635519115213"
Food Group:  Branded Food Products Database
Common Name:

Nutrient,Unit,Data points,Std. Error,"0.25 tsp = 0.7g",1Value per 100 g,
Proximates
"Energy",kcal,--,--,0,0
"Protein",g,--,--,0.00,0.00
"Total lipid (fat)",g,--,--,0.00,0.00
"Carbohydrate, by difference",g,--,--,0.00,0.00
Minerals
"Sodium, Na",mg,--,--,110,15714
Vitamins
Lipids
Amino Acids
Other
Ingredients
"SALT, BROWN SUGAR, GARLIC, ONION, PAPRIKA, THYME, CORIANDER, ANCHO CHILES, CHIPOTLE CHILES, PARSLEY, CLOVES, CANOLA OIL, ALLSPICE" Date available: 10/05/2017 Date last updated by company: 10/05/2017
