Source: USDA Branded Food Products Database Release December 2017 Software v.3.8.6.4 2017-10-02
Report Run at: December 18, 2017 16:14 EST
"Nutrient data for: 45328014, KANSAS CITY, NOT A DESCRIPTIVE ITEM, UPC: 072924500249"
Food Group:  Branded Food Products Database
Common Name:

Nutrient,Unit,Data points,Std. Error,"8.0 OZA = 236.0g",1Value per 100 g,
Proximates
"Energy",kcal,--,--,111,47
"Protein",g,--,--,0.00,0.00
"Total lipid (fat)",g,--,--,0.00,0.00
"Carbohydrate, by difference",g,--,--,32.00,13.56
"Sugars, total",g,--,--,32.00,13.56
Minerals
"Sodium, Na",mg,--,--,26,11
Vitamins
Lipids
Amino Acids
Other
Ingredients
"CONTAINS: CARBONATED WATER, HIGH FRUCTOSE CORN SWEETENER, PURE CANE SUGAR, CARAMEL COLOR, NATURAL AND ARTIFICIAL FLAVORS, PHOSPHORIC ACID AND LESS THAN 1/10 OF 1% OF SODIUM BENZOATE TO PRESERVE FRESHNESS." Date available: 07/14/2017 Date last updated by company: 07/14/2017
