Source: USDA Branded Food Products Database Release December 2017 Software v.3.8.6.4 2017-10-02
Report Run at: December 18, 2017 16:23 EST
"Nutrient data for: 45032181, KASKEY'S, CHICKEN NOODLE CONDENSED SOUP, UPC: 051933034204"
Food Group:  Branded Food Products Database
Common Name:

Nutrient,Unit,Data points,Std. Error,"0.5 cup = 125.0g",1Value per 100 g,
Proximates
"Energy",kcal,--,--,60,48
"Protein",g,--,--,3.00,2.40
"Total lipid (fat)",g,--,--,2.00,1.60
"Carbohydrate, by difference",g,--,--,8.00,6.40
"Fiber, total dietary",g,--,--,1.0,0.8
"Sugars, total",g,--,--,0.00,0.00
Minerals
"Calcium, Ca",mg,--,--,0,0
"Iron, Fe",mg,--,--,1.41,1.13
"Potassium, K",mg,--,--,60,48
"Sodium, Na",mg,--,--,890,712
Vitamins
"Vitamin C, total ascorbic acid",mg,--,--,0.0,0.0
"Vitamin A, IU",IU,--,--,392,314
Lipids
"Fatty acids, total saturated",g,--,--,0.000,0.000
"Fatty acids, total monounsaturated",g,--,--,1.000,0.800
"Fatty acids, total polyunsaturated",g,--,--,0.000,0.000
"Fatty acids, total trans",g,--,--,0.000,0.000
"Cholesterol",mg,--,--,10,8
Amino Acids
Other
Ingredients
"CHICKEN BROTH, ENRICHED EGG NOODLES (WHEAT FLOUR, EGGS, EGG WHITES, NIACIN, FERROUS SULFATE [IRON], THIAMINE MONONITRATE, RIBOFLAVIN, FOLIC ACID), CHICKEN MEAT (COOKED CHICKEN MEAT, WATER, MODIFIED FOOD STARCH, SALT, SODIUM PHOSPHATE), CONTAINS LESS THAN 2% OF: SALT, MODIFIED FOOD STARCH, CHICKEN FAT, MONOSODIUM GLUTAMATE, CHICKEN FLAVOR (ONION POWDER, AUTOLYZED YEAST EXTRACT, SALT, CHICKEN BROTH, MODIFIED CORN STARCH, NATURAL FLAVOR), SPICE EXTRACT, ONION POWDER, BETA CAROTENE, GARLIC POWDER." Date available: 07/14/2017 Date last updated by company: 07/14/2017
