Source: USDA Branded Food Products Database Release December 2017 Software v.3.8.6.4 2017-10-02
Report Run at: December 18, 2017 16:24 EST
"Nutrient data for: 45032222, KASKEY'S, CHUNKY GRILLED CHICKEN OF SAUSAGE GUMBO, UPC: 051933038400"
Food Group:  Branded Food Products Database
Common Name:

Nutrient,Unit,Data points,Std. Error,"1 cup = 245.0g",1Value per 100 g,
Proximates
"Energy",kcal,--,--,120,49
"Protein",g,--,--,7.01,2.86
"Total lipid (fat)",g,--,--,2.50,1.02
"Carbohydrate, by difference",g,--,--,17.00,6.94
"Fiber, total dietary",g,--,--,2.0,0.8
"Sugars, total",g,--,--,2.99,1.22
Minerals
"Calcium, Ca",mg,--,--,59,24
"Iron, Fe",mg,--,--,0.71,0.29
"Sodium, Na",mg,--,--,811,331
Vitamins
"Vitamin C, total ascorbic acid",mg,--,--,2.5,1.0
"Vitamin A, IU",IU,--,--,500,204
Lipids
"Fatty acids, total saturated",g,--,--,1.004,0.410
"Fatty acids, total trans",g,--,--,0.000,0.000
"Cholesterol",mg,--,--,5,2
Amino Acids
Other
Ingredients
"CHICKEN BROTH, DICED TOMATOES, GRILLED WHITE CHICKEN MEAT (COOKED CHICKEN MEAT, WATER, MODIFIED FOOD STARCH, SALT, ISOLATED SOY PROTEIN, SODIUM PHOSPHATE), TOMATO CONCENTRATE (WATER, TOMATO PASTE), RICE, ANDOUILLE SAUSAGE WITH BEEF (PORK, BEEF, WATER, SALT, CORN SYRUP, SODIUM AND POTASSIUM LACTATE, SPICE, PAPRIKA, DEXTROSE, ONION AND GARLIC, SODIUM DIACETATE, SODIUM ERYTHROBATE, SODIUM NITRITE, FLAVORINGS, NATURAL SMOKE FLAVOR), CELERY, OKRA, GREEN BELL PEPPERS, CONTAINS LESS THAN 2% OF: GREEN CHILIES, SALT, JALAPENO PEPPERS, DEHYDRATED ONIONS, DEHYDRATED RED BELL PEPPERS, VEGETABLE BASE (COOKED VEGETABLES [CARROT, CELERY, ONION], SUGAR, SALT, CORN OIL, AUTOLYZED YEAST EXTRACT, FLAVORINGS), SUGAR, MONOSODIUM GLUTAMATE, GARLIC POWDER, SPICE, ONION POWDER, SPICE EXTRACT, MODIFIED FOOD STARCH, DEHYDRATED PARSLEY, RED PEPPER." Date available: 07/14/2017 Date last updated by company: 07/14/2017
