Source: USDA Branded Food Products Database Release December 2017 Software v.3.8.6.4 2017-10-02
Report Run at: December 18, 2017 20:32 EST
"Nutrient data for: 45093087, KAUKAUNA, EXTRA SHARP SPREADABLE CHEDDAR, UPC: 017003100996"
Food Group:  Branded Food Products Database
Common Name:

Nutrient,Unit,Data points,Std. Error,"2.0 Tbsp = 26.0g",1Value per 100 g,
Proximates
"Energy",kcal,--,--,90,346
"Protein",g,--,--,4.00,15.38
"Total lipid (fat)",g,--,--,6.00,23.08
"Carbohydrate, by difference",g,--,--,4.00,15.38
"Fiber, total dietary",g,--,--,0.0,0.0
"Sugars, total",g,--,--,3.00,11.54
Minerals
"Calcium, Ca",mg,--,--,150,577
"Iron, Fe",mg,--,--,0.00,0.00
"Sodium, Na",mg,--,--,180,692
Vitamins
"Vitamin C, total ascorbic acid",mg,--,--,0.0,0.0
"Vitamin A, IU",IU,--,--,385,1479
Lipids
"Fatty acids, total saturated",g,--,--,3.500,13.460
"Fatty acids, total trans",g,--,--,0.000,0.000
"Cholesterol",mg,--,--,20,77
Amino Acids
Other
Ingredients
"CHEDDAR CHEESE ([AGED OVER 200 DAYS], PASTEURIZED MILK, CHEESE CULTURE, SALT, ENZYME), WATER, REDUCED PROTEIN WHEY, REDUCED LACTOSE WHEY, CREAM, LACTIC ACID, SORBIC ACID (TO PROTECT FLAVOR), XANTHAN GUM, SALT, APOCAROTENAL (COLOR)." Date available: 06/25/2017 Date last updated by company: 06/25/2017
