Source: USDA Branded Food Products Database Release December 2017 Software v.3.8.6.4 2017-10-02
Report Run at: December 18, 2017 20:51 EST
"Nutrient data for: 45094632, KC MASTERPIECE, KETTLE COOKED BARBECUE SAUCE, THE AMERICAN ORIGINAL, UPC: 074609072409"
Food Group:  Branded Food Products Database
Common Name:

Nutrient,Unit,Data points,Std. Error,"2.0 Tbsp = 35.0g",1Value per 100 g,
Proximates
"Energy",kcal,--,--,60,171
"Protein",g,--,--,0.00,0.00
"Total lipid (fat)",g,--,--,0.00,0.00
"Carbohydrate, by difference",g,--,--,15.00,42.86
"Sugars, total",g,--,--,12.00,34.29
Minerals
"Calcium, Ca",mg,--,--,20,57
"Iron, Fe",mg,--,--,0.61,1.74
"Sodium, Na",mg,--,--,240,686
Vitamins
"Vitamin C, total ascorbic acid",mg,--,--,4.1,11.6
"Vitamin A, IU",IU,--,--,338,966
Lipids
"Cholesterol",mg,--,--,0,0
Amino Acids
Other
Ingredients
"TOMATO PUREE (WATER, TOMATO PASTE), HIGH FRUCTOSE CORN SYRUP, MOLASSES, WATER, MODIFIED FOOD STARCH, VINEGAR, LESS THAN 2% OF: SPICES, NATURAL HICKORY SMOKE FLAVOR, NATURAL FLAVOR, SALT, XANTHAN GUM, DRIED ONION, DRIED GARLIC, CARAMEL COLOR, TURMERIC, PAPRIKA EXTRACTS." Date available: 07/14/2017 Date last updated by company: 07/14/2017
