Source: USDA Branded Food Products Database Release December 2017 Software v.3.8.6.4 2017-10-02
Report Run at: December 18, 2017 20:54 EST
"Nutrient data for: 45235297, KEDEM, SPARKLING WHITE GRAPE JUICE, GRAPE, UPC: 073490129292"
Food Group:  Branded Food Products Database
Common Name:

Nutrient,Unit,Data points,Std. Error,"8.0 OZA = 240.0g",1Value per 100 g,
Proximates
"Energy",kcal,--,--,120,50
"Protein",g,--,--,0.00,0.00
"Total lipid (fat)",g,--,--,0.00,0.00
"Carbohydrate, by difference",g,--,--,37.01,15.42
"Sugars, total",g,--,--,37.01,15.42
Minerals
"Sodium, Na",mg,--,--,0,0
Vitamins
Lipids
Amino Acids
Other
Ingredients
"GRAPE JUICE GRAPE JUICE CONCENTRATE WATER, POTASSIUM SORBATE AND POTASSIUM METABISULFITE ADDED TO ENHANCE FRESHNESS ." Date available: 06/24/2017 Date last updated by company: 06/24/2017
