Source: USDA Branded Food Products Database Release December 2017 Software v.3.8.6.4 2017-10-02
Report Run at: December 18, 2017 20:56 EST
"Nutrient data for: 45127311, Keebler Club Crackers Original .2oz 300ct, UNPREPARED, GTIN: 10030100010323"
Food Group:  Branded Food Products Database
Common Name:

Nutrient,Unit,Data points,Std. Error,"1 Package = 7.0g",1Value per 100 g,
Proximates
"Water",g,--,--,0.18,2.64
"Energy",kcal,--,--,33,476
"Protein",g,--,--,0.56,8.07
"Total lipid (fat)",g,--,--,1.35,19.25
"Ash",g,--,--,0.17,2.43
"Carbohydrate, by difference",g,--,--,4.73,67.61
"Fiber, total dietary",g,--,--,0.1,1.9
"Sugars, total",g,--,--,0.55,7.90
Minerals
"Calcium, Ca",mg,--,--,0,0
"Iron, Fe",mg,--,--,0.25,3.51
"Sodium, Na",mg,--,--,52,739
Vitamins
"Vitamin C, total ascorbic acid",mg,--,--,0.7,10.0
"Vitamin A, IU",IU,--,--,1,10
Lipids
"Fatty acids, total saturated",g,--,--,0.119,1.700
"Fatty acids, total trans",g,--,--,0.017,0.240
"Cholesterol",mg,--,--,0,1
Amino Acids
Other
Ingredients
"ENRICHED FLOUR (WHEAT FLOUR, NIACIN, REDUCED IRON, THIAMIN MONONITRATE [VITAMIN B1], RIBLOFLAVIN [VITAMIN B2], FOLIC ACID), VEGETABLE OIL (CANOLA, CORN, PALM AND/OR SOYBEAN OIL), SUGAR, CORN SYRUP, SALT, LEAVENING (BAKING SODA, MONOCALCIUM PHOSPHATE), SOY LECITHIN." Date available: 10/16/2017 Date last updated by company: 10/16/2017
