Source: USDA Branded Food Products Database Release December 2017 Software v.3.8.6.4 2017-10-02
Report Run at: December 18, 2017 21:02 EST
"Nutrient data for: 45127186, KEEBLER FUDGE SHOPPE JUMBO STICKS 1.1OZ, UNPREPARED, GTIN: 00030100526322"
Food Group:  Branded Food Products Database
Common Name:

Nutrient,Unit,Data points,Std. Error,"1 Cookie = 31.0g",1Value per 100 g,
Proximates
"Water",g,--,--,0.31,1.00
"Protein",g,--,--,0.74,2.40
"Total lipid (fat)",g,--,--,8.46,27.30
"Ash",g,--,--,0.22,0.70
"Carbohydrate, by difference",g,--,--,21.27,68.60
"Fiber, total dietary",g,--,--,0.5,1.7
"Sugars, total",g,--,--,15.87,51.20
Minerals
"Calcium, Ca",mg,--,--,4,12
"Iron, Fe",mg,--,--,0.47,1.50
"Phosphorus, P",mg,--,--,1,4
"Potassium, K",mg,--,--,1,2
"Sodium, Na",mg,--,--,35,113
Vitamins
"Vitamin C, total ascorbic acid",mg,--,--,0.0,0.0
"Riboflavin",mg,--,--,0.003,0.010
"Vitamin A, IU",IU,--,--,0,1
Lipids
"Fatty acids, total saturated",g,--,--,5.270,17.000
"Fatty acids, total monounsaturated",g,--,--,2.294,7.400
"Fatty acids, total polyunsaturated",g,--,--,0.620,2.000
"Fatty acids, total trans",g,--,--,0.124,0.400
"Cholesterol",mg,--,--,0,0
Amino Acids
Other
Ingredients
"SUGAR, VEGETABLE OIL WITH TBHQ FOR FRESHNESS (PALM OIL, PARTIALLY HYDROGENATED PALM KERNEL, COCONUT, AND PALM OIL), BLEACHED ENRICHED FLOUR (WHEAT FLOUR, NIACINAMIDE, REDUCED IRON, THIAMIN MONONITRATE [VITAMIN B1], RIBOFLAVIN [VITAMIN B2], FOLIC ACID), CORNSTARCH, COCOA, CONTAINS TWO PERCENT OR LESS OF SALT, BAKING SODA, SOY LECITHIN, ARTIFICIAL VANILLA FLAVOR, YELLOW #5, YELLOW #6." Date available: 10/13/2017 Date last updated by company: 05/04/2017
