Source: USDA Branded Food Products Database Release December 2017 Software v.3.8.6.4 2017-10-02
Report Run at: December 18, 2017 21:00 EST
"Nutrient data for: 45260426, KEEBLER, FUDGE COVERED COCONUT DREAMS COOKIES, UPC: 030100944034"
Food Group:  Branded Food Products Database
Common Name:

Nutrient,Unit,Data points,Std. Error,"2.0 Cookies = 32.0g",1Value per 100 g,
Proximates
"Energy",kcal,--,--,160,500
"Protein",g,--,--,1.00,3.12
"Total lipid (fat)",g,--,--,9.00,28.12
"Carbohydrate, by difference",g,--,--,20.00,62.50
"Fiber, total dietary",g,--,--,1.0,3.1
"Sugars, total",g,--,--,12.00,37.50
Minerals
"Calcium, Ca",mg,--,--,0,0
"Iron, Fe",mg,--,--,0.56,1.75
"Sodium, Na",mg,--,--,55,172
Vitamins
"Vitamin C, total ascorbic acid",mg,--,--,0.0,0.0
"Vitamin A, IU",IU,--,--,0,0
Lipids
"Fatty acids, total saturated",g,--,--,7.002,21.880
"Fatty acids, total trans",g,--,--,0.000,0.000
"Cholesterol",mg,--,--,0,0
Amino Acids
Other
Ingredients
"SUGAR, VEGETABLE OIL (PARTIALLY HYDROGENATED PALM KERNEL AND/OR COTTONSEED OIL, SOYBEAN AND PALM OIL WITH TBHQ FOR FRESHNESS), ENRICHED FLOUR (WHEAT FLOUR, NIACIN, REDUCED IRON, VITAMIN B1 [THIAMIN MONONITRATE], VITAMIN B2 [RIBOFLAVIN], FOLIC ACID), COCONUT OIL, CORN SYRUP, SWEETENED CONDENSED MILK (CONDENSED MILK, SUGAR), COCOA, CONTAINS TWO PERCENT OR LESS OF SORBITOL, GLYCERIN, CORNSTARCH, INVERT SUGAR, SALT, SOY LECITHIN, DEXTROSE, CARAMELIZED SUGAR, NATURAL AND ARTIFICIAL FLAVORS, LEAVENING (MONOCALCIUM PHOSPHATE, BAKING SODA), CARRAGEENAN, CONDENSED SKIM MILK, PARTIALLY DEFATTED PEANUT FLOUR." Date available: 06/25/2017 Date last updated by company: 06/25/2017
