Source: USDA Branded Food Products Database Release December 2017 Software v.3.8.6.4 2017-10-02
Report Run at: December 18, 2017 20:58 EST
"Nutrient data for: 45318813, KEEBLER, COCONUT DREAMS, FUDGE, CARAMEL & COCONUT COOKIES, UPC: 030100505617"
Food Group:  Branded Food Products Database
Common Name:

Nutrient,Unit,Data points,Std. Error,"2.0 COOKIES = 28.0g",1Value per 100 g,
Proximates
"Energy",kcal,--,--,140,500
"Protein",g,--,--,1.00,3.57
"Total lipid (fat)",g,--,--,8.00,28.57
"Carbohydrate, by difference",g,--,--,17.00,60.71
"Fiber, total dietary",g,--,--,1.0,3.6
"Sugars, total",g,--,--,10.00,35.71
Minerals
"Calcium, Ca",mg,--,--,0,0
"Iron, Fe",mg,--,--,0.64,2.29
"Sodium, Na",mg,--,--,55,196
Vitamins
"Vitamin C, total ascorbic acid",mg,--,--,0.0,0.0
"Vitamin A, IU",IU,--,--,0,0
Lipids
"Fatty acids, total saturated",g,--,--,6.000,21.430
"Fatty acids, total trans",g,--,--,0.000,0.000
"Cholesterol",mg,--,--,0,0
Amino Acids
Other
Ingredients
"SUGAR, ENRICHED FLOUR (WHEAT FLOUR, NIACIN, REDUCED IRON, THIAMIN MONONITRATE [VITAMIN B1], RIBOFLAVIN [VITAMIN B2], FOLIC ACID), VEGETABLE OIL (PARTIALLY HYDROGENATED PALM KERNEL AND/OR COTTONSEED OIL, SOYBEAN AND PALM OIL WITH TBHQ FOR FRESHNESS), COCONUT, CORN SYRUP, SWEETENED CONDENSED MILK (CONDENSED MILK, SUGAR), COCOA, CONTAINS TWO PERCENT OR LESS OF SORBITOL, GLYCERIN, INVERT SUGAR, CORNSTARCH, SALT, SOY LECITHIN, DEXTROSE, CARAMELIZED SUGAR, NATURAL AND ARTIFICIAL FLAVOR, LEAVENING (BAKING SODA, MONOCALCIUM PHOSPHATE), CARRAGEENAN, PARTIALLY DEFATTED PEANUT FLOUR" Date available: 06/25/2017 Date last updated by company: 06/25/2017
