Source: USDA Branded Food Products Database Release December 2017 Software v.3.8.6.4 2017-10-02
Report Run at: December 18, 2017 21:10 EST
"Nutrient data for: 45280557, KEEP IT DOWN HERBAL TEA, UPC: 856627005214"
Food Group:  Branded Food Products Database
Common Name:

Nutrient,Unit,Data points,Std. Error,"1 TEABAG = 2.2g",1Value per 100 g,
Proximates
"Energy",kcal,--,--,0,0
"Protein",g,--,--,0.00,0.00
"Total lipid (fat)",g,--,--,0.00,0.00
"Carbohydrate, by difference",g,--,--,0.00,0.00
"Fiber, total dietary",g,--,--,0.0,0.0
"Sugars, total",g,--,--,0.00,0.00
Minerals
"Sodium, Na",mg,--,--,0,0
Vitamins
Lipids
"Fatty acids, total saturated",g,--,--,0.000,0.000
"Fatty acids, total trans",g,--,--,0.000,0.000
Amino Acids
Other
Ingredients
"ORGANIC GINGER ROOT, ORGANIC SPEARMINT, ORGANIC NETTLE LEAF, ORGANIC RED RASPBERRY LEAF, ORGANIC LAVENDER, ORANGE PEEL, ORGANIC ORANGE, CHERRY AND STRAWBERRY EXTRACTS." Date available: 07/14/2017 Date last updated by company: 07/14/2017
