Source: USDA Branded Food Products Database Release December 2017 Software v.3.8.6.4 2017-10-02
Report Run at: December 18, 2017 21:12 EST
"Nutrient data for: 45258066, KEFIR, UPC: 885963002021"
Food Group:  Branded Food Products Database
Common Name:

Nutrient,Unit,Data points,Std. Error,"8.0 OZA = 240.0g",1Value per 100 g,
Proximates
"Energy",kcal,--,--,130,54
"Protein",g,--,--,10.01,4.17
"Total lipid (fat)",g,--,--,4.51,1.88
"Carbohydrate, by difference",g,--,--,13.99,5.83
"Fiber, total dietary",g,--,--,0.0,0.0
"Sugars, total",g,--,--,13.99,5.83
Minerals
"Calcium, Ca",mg,--,--,350,146
"Iron, Fe",mg,--,--,0.00,0.00
"Sodium, Na",mg,--,--,139,58
Vitamins
"Vitamin C, total ascorbic acid",mg,--,--,1.0,0.4
"Vitamin A, IU",IU,--,--,142,59
Lipids
"Fatty acids, total saturated",g,--,--,3.000,1.250
"Fatty acids, total trans",g,--,--,0.000,0.000
"Cholesterol",mg,--,--,19,8
Amino Acids
Other
Ingredients
"PASTEURIZED SKIM MILK, CREAM, CULTURES. CAPFUL BLEND OF LIVE AND ACTIVE KEFIR CULTURES: S. THERMOPHILUS, L. DELBRUECKII SUBSP. BULGARICUS, S. THERMNOSUS, L. CASEI, L. LACTIS SUBSP. LACTIS, L. LACTIS SUBSP. LACTIC BIOVAR DIAETYLATICS,." Date available: 07/14/2017 Date last updated by company: 07/14/2017
