Source: USDA Branded Food Products Database Release December 2017 Software v.3.8.6.4 2017-10-02
Report Run at: December 17, 2017 03:56 EST
"Nutrient data for: 45096157, KELLY JELLY, TAMARIND JUICE WITH NATA DE COCO, TAMARIND, UPC: 840228113270"
Food Group:  Branded Food Products Database
Common Name:

Nutrient,Unit,Data points,Std. Error,"1.2 g = 1.2g",1Value per 100 g,
Proximates
"Total lipid (fat)",g,--,--,0.00,0.00
"Carbohydrate, by difference",g,--,--,35.00,2916.67
"Fiber, total dietary",g,--,--,3.0,250.0
"Sugars, total",g,--,--,2.00,166.67
Minerals
"Sodium, Na",mg,--,--,696,58000
Vitamins
Lipids
Amino Acids
Other
Ingredients
"TAMARIND JUICE 10% SUGAR 10% NATA DE COCO 20% (PRESERVATIVE, NO COLOUR ADDED)" Date last updated by company: 04/12/2016
