Source: USDA Branded Food Products Database Release December 2017 Software v.3.8.6.4 2017-10-02
Report Run at: December 17, 2017 04:06 EST
"Nutrient data for: 45226839, KEMPS, PREMIUM LIGHT EGGNOG, UPC: 041483037633"
Food Group:  Branded Food Products Database
Common Name:

Nutrient,Unit,Data points,Std. Error,"0.5 cup = 118.0g",1Value per 100 g,
Proximates
"Energy",kcal,--,--,130,110
"Protein",g,--,--,5.00,4.24
"Total lipid (fat)",g,--,--,2.50,2.12
"Carbohydrate, by difference",g,--,--,21.00,17.80
"Fiber, total dietary",g,--,--,0.0,0.0
"Sugars, total",g,--,--,19.00,16.10
Minerals
"Calcium, Ca",mg,--,--,199,169
"Iron, Fe",mg,--,--,0.00,0.00
"Sodium, Na",mg,--,--,181,153
Vitamins
"Vitamin C, total ascorbic acid",mg,--,--,1.2,1.0
"Vitamin A, IU",IU,--,--,509,431
Lipids
"Fatty acids, total saturated",g,--,--,1.499,1.270
"Fatty acids, total trans",g,--,--,0.000,0.000
"Cholesterol",mg,--,--,40,34
Amino Acids
Other
Ingredients
"NONFAT MILK, CREAM, SUGAR, CORN SYRUP, SUGARED EGG YOLKS, NATURAL AND ARTIFICIAL FLAVORS, SPICES, SALT, NUTMEG, GUAR GUM, CARRAGEENAN, POTASSIUM PHOSPHATE, TURMERIC, ANNATTO, VITAMIN A PALMITATE." Date available: 07/14/2017 Date last updated by company: 07/14/2017
