Source: USDA Branded Food Products Database Release December 2017 Software v.3.8.6.4 2017-10-02
Report Run at: December 17, 2017 04:29 EST
"Nutrient data for: 45240971, KEN'S STEAK HOUSE, MARINADE & SAUCE, LEMON PEPPER, UPC: 041335001843"
Food Group:  Branded Food Products Database
Common Name:

Nutrient,Unit,Data points,Std. Error,"1 Tbsp = 15.0g",1Value per 100 g,
Proximates
"Energy",kcal,--,--,15,100
"Protein",g,--,--,0.00,0.00
"Total lipid (fat)",g,--,--,0.00,0.00
"Carbohydrate, by difference",g,--,--,3.00,20.00
"Fiber, total dietary",g,--,--,0.0,0.0
"Sugars, total",g,--,--,2.00,13.33
Minerals
"Calcium, Ca",mg,--,--,0,0
"Iron, Fe",mg,--,--,0.00,0.00
"Potassium, K",mg,--,--,30,200
"Sodium, Na",mg,--,--,0,0
Vitamins
"Vitamin C, total ascorbic acid",mg,--,--,4.0,26.7
"Vitamin A, IU",IU,--,--,0,0
Lipids
"Fatty acids, total saturated",g,--,--,0.000,0.000
"Fatty acids, total trans",g,--,--,0.000,0.000
"Cholesterol",mg,--,--,0,0
Amino Acids
Other
Ingredients
"WATER, VINEGAR, SUGAR, CORN SYRUP SOLIDS, SOYBEAN OIL, CONTAINS LESS THAN 2% OF: MODIFIED FOOD STARCH, SPICE, LEMON JUICE CONCENTRATE, XANTHAN GUM, CITRIC ACID, POTASSIUM CHLORIDE, LEMON PEEL, NATURAL FLAVOR, FERMENTED WHEAT PROTEIN, YEAST EXTRACT, MALTODEXTRIN, RED BELL PEPPER, POTASSIUM SORBATE AND CALCIUM DISODIUM EDTA AS PRESERVATIVES, YELLOW #5, YELLOW #6." Date available: 06/24/2017 Date last updated by company: 06/24/2017
