Source: USDA Branded Food Products Database Release December 2017 Software v.3.8.6.4 2017-10-02
Report Run at: December 17, 2017 04:36 EST
"Nutrient data for: 45243035, KERN'S NECTAR, APRICOT NECTAR, UPC: 053859346294"
Food Group:  Branded Food Products Database
Common Name:

Nutrient,Unit,Data points,Std. Error,"8.0 OZA = 240.0g",1Value per 100 g,
Proximates
"Energy",kcal,--,--,139,58
"Protein",g,--,--,1.01,0.42
"Total lipid (fat)",g,--,--,0.00,0.00
"Carbohydrate, by difference",g,--,--,34.99,14.58
"Sugars, total",g,--,--,31.99,13.33
Minerals
"Potassium, K",mg,--,--,199,83
"Sodium, Na",mg,--,--,5,2
Vitamins
"Vitamin C, total ascorbic acid",mg,--,--,60.0,25.0
"Vitamin A, IU",IU,--,--,1750,729
Lipids
Amino Acids
Other
Ingredients
"WATER, HIGH FRUCTOSE CORN SYRUP, APRICOT PUREE CONCENTRATE, NATURAL FLAVOR, VITAMIN C (ASCORBIC ACID), MALIC ACID." Date available: 06/25/2017 Date last updated by company: 06/25/2017
