Source: USDA Branded Food Products Database Release December 2017 Software v.3.8.6.4 2017-10-02
Report Run at: December 17, 2017 04:36 EST
"Nutrient data for: 45200351, KESAR MANGO PULP, UPC: 703440212902"
Food Group:  Branded Food Products Database
Common Name:

Nutrient,Unit,Data points,Std. Error,"3.5 ONZ = 100.0g",1Value per 100 g,
Proximates
"Energy",kcal,--,--,92,92
"Protein",g,--,--,1.00,1.00
"Total lipid (fat)",g,--,--,0.00,0.00
"Carbohydrate, by difference",g,--,--,22.00,22.00
"Fiber, total dietary",g,--,--,2.0,2.0
"Sugars, total",g,--,--,20.00,20.00
Minerals
"Calcium, Ca",mg,--,--,20,20
"Iron, Fe",mg,--,--,0.27,0.27
"Sodium, Na",mg,--,--,24,24
Vitamins
"Vitamin C, total ascorbic acid",mg,--,--,0.6,0.6
"Vitamin A, IU",IU,--,--,150,150
Lipids
"Fatty acids, total saturated",g,--,--,0.000,0.000
"Fatty acids, total trans",g,--,--,0.000,0.000
"Cholesterol",mg,--,--,0,0
Amino Acids
Other
Ingredients
"KESAR MANGO PULP (95%), SUGAR & CITRIC ACID." Date available: 07/14/2017 Date last updated by company: 07/14/2017
