Source: USDA Branded Food Products Database Release December 2017 Software v.3.8.6.4 2017-10-02
Report Run at: December 17, 2017 04:38 EST
"Nutrient data for: 45051753, KET-L POTATO CHIPS, UPC: 074931150141"
Food Group:  Branded Food Products Database
Common Name:

Nutrient,Unit,Data points,Std. Error,"15.0 CHIPS | ABOUT = 28.0g",1Value per 100 g,
Proximates
"Energy",kcal,--,--,150,536
"Protein",g,--,--,2.00,7.14
"Total lipid (fat)",g,--,--,9.00,32.14
"Carbohydrate, by difference",g,--,--,15.00,53.57
"Fiber, total dietary",g,--,--,1.0,3.6
"Sugars, total",g,--,--,0.00,0.00
Minerals
"Calcium, Ca",mg,--,--,0,0
"Iron, Fe",mg,--,--,0.64,2.29
"Sodium, Na",mg,--,--,150,536
Vitamins
"Vitamin C, total ascorbic acid",mg,--,--,26.8,95.7
"Vitamin A, IU",IU,--,--,0,0
Lipids
"Fatty acids, total saturated",g,--,--,1.999,7.140
"Fatty acids, total trans",g,--,--,1.000,3.570
"Cholesterol",mg,--,--,0,0
Amino Acids
Other
Ingredients
"MADE FROM CAREFULLY SELECTED POTATOES, VEGETABLE SHORTENING CONTAINING ONE OR MORE OF THE FOLLOWING (SOY BEAN, COTTONSEED OIL) AND SALT." Date available: 06/24/2017 Date last updated by company: 06/24/2017
