Source: USDA Branded Food Products Database Release December 2017 Software v.3.8.6.4 2017-10-02
Report Run at: December 17, 2017 04:38 EST
"Nutrient data for: 45223932, KETCHUP, UPC: 751778173594"
Food Group:  Branded Food Products Database
Common Name:

Nutrient,Unit,Data points,Std. Error,"1 Tbsp = 17.0g",1Value per 100 g,
Proximates
"Energy",kcal,--,--,25,147
"Protein",g,--,--,0.00,0.00
"Total lipid (fat)",g,--,--,0.00,0.00
"Carbohydrate, by difference",g,--,--,6.00,35.29
"Sugars, total",g,--,--,6.00,35.29
Minerals
"Sodium, Na",mg,--,--,80,471
Vitamins
Lipids
Amino Acids
Other
Ingredients
"TOMATO, PUREE, SUGAR, VINEGAR, JALAPENO PEPPERS, SALT, ONION POWDER, SPICES." Date available: 07/14/2017 Date last updated by company: 07/14/2017
