Source: USDA Branded Food Products Database Release December 2017 Software v.3.8.6.4 2017-10-02
Report Run at: December 17, 2017 04:50 EST
"Nutrient data for: 45248365, KETTLE COOKED, UPC: 028400025393"
Food Group:  Branded Food Products Database
Common Name:

Nutrient,Unit,Data points,Std. Error,"15.0 CHIPS | ABOUT = 28.0g",1Value per 100 g,
Proximates
"Energy",kcal,--,--,150,536
"Protein",g,--,--,2.00,7.14
"Total lipid (fat)",g,--,--,9.00,32.14
"Carbohydrate, by difference",g,--,--,16.00,57.14
"Fiber, total dietary",g,--,--,1.0,3.6
"Sugars, total",g,--,--,1.00,3.57
Minerals
"Calcium, Ca",mg,--,--,0,0
"Iron, Fe",mg,--,--,0.72,2.57
"Magnesium, Mg",mg,--,--,16,57
"Potassium, K",mg,--,--,220,786
"Sodium, Na",mg,--,--,130,464
Vitamins
"Vitamin C, total ascorbic acid",mg,--,--,6.0,21.4
"Thiamin",mg,--,--,0.000,0.000
"Niacin",mg,--,--,2.142,7.650
"Vitamin A, IU",IU,--,--,0,0
Lipids
"Fatty acids, total saturated",g,--,--,1.501,5.360
"Fatty acids, total trans",g,--,--,0.000,0.000
"Cholesterol",mg,--,--,0,0
Amino Acids
Other
Ingredients
"POTATOES, VEGETABLE OIL (SUNFLOWER, CANOLA, AND/OR CORN OIL), JALAPENO SEASONING (MALTODEXTRIN [MADE FROM CORN], SALT, DEXTROSE, ONION POWDER, TORULA YEAST, SPICES, WHEY, PAPRIKA, NATURAL FLAVORS, SUNFLOWER OIL, GARLIC POWDER, JALAPENO PEPPER POWDER, AND YEAST EXTRACT)." Date available: 09/23/2016 Date last updated by company: 09/23/2016
