Source: USDA Branded Food Products Database Release December 2017 Software v.3.8.6.4 2017-10-02
Report Run at: December 17, 2017 04:43 EST
"Nutrient data for: 45261149, KETTLE COOKED LATTICE CUT POTATO CHIPS, UPC: 028400242981"
Food Group:  Branded Food Products Database
Common Name:

Nutrient,Unit,Data points,Std. Error,"13.0 CHIPS | ABOUT = 28.0g",1Value per 100 g,
Proximates
"Energy",kcal,--,--,150,536
"Protein",g,--,--,2.00,7.14
"Total lipid (fat)",g,--,--,8.00,28.57
"Carbohydrate, by difference",g,--,--,17.00,60.71
"Fiber, total dietary",g,--,--,1.0,3.6
"Sugars, total",g,--,--,1.00,3.57
Minerals
"Calcium, Ca",mg,--,--,20,71
"Iron, Fe",mg,--,--,0.36,1.29
"Potassium, K",mg,--,--,360,1286
"Sodium, Na",mg,--,--,135,482
Vitamins
"Vitamin C, total ascorbic acid",mg,--,--,6.0,21.4
"Thiamin",mg,--,--,0.000,0.000
"Vitamin B-6",mg,--,--,0.357,1.276
"Vitamin A, IU",IU,--,--,0,0
Lipids
"Fatty acids, total saturated",g,--,--,1.501,5.360
"Fatty acids, total trans",g,--,--,0.000,0.000
"Cholesterol",mg,--,--,0,0
Amino Acids
Other
Ingredients
"POTATOES, VEGETABLE OIL (SUNFLOWER, CORN, AND/OR CANOLA OIL), WHITE CHEDDAR & BLACK PEPPER SEASONING (CHEDDAR CHEESE [MILK, CHEESE CULTURES, SALT, ENZYMES], WHEY, BUTTERMILK, SALT, MALTODEXTRIN [MADE FROM CORN], SKIM MILK, BLACK PEPPER, SUNFLOWER OIL, SUGAR, NATURAL FLAVOR, ONION POWDER, YEAST EXTRACT, GARLIC POWDER, CITRIC ACID, MILK PROTEIN CONCENTRATE, AND LACTIC ACID)." Date available: 12/31/2016 Date last updated by company: 12/31/2016
