Source: USDA Branded Food Products Database Release December 2017 Software v.3.8.6.4 2017-10-02
Report Run at: December 17, 2017 04:52 EST
"Nutrient data for: 45219589, KETTLE CORN, UPC: 858245003030"
Food Group:  Branded Food Products Database
Common Name:

Nutrient,Unit,Data points,Std. Error,"1 PACKAGE = 57.0g",1Value per 100 g,
Proximates
"Energy",kcal,--,--,250,439
"Protein",g,--,--,3.00,5.26
"Total lipid (fat)",g,--,--,8.00,14.04
"Carbohydrate, by difference",g,--,--,45.00,78.95
"Fiber, total dietary",g,--,--,3.0,5.3
"Sugars, total",g,--,--,29.00,50.88
Minerals
"Calcium, Ca",mg,--,--,0,0
"Iron, Fe",mg,--,--,0.63,1.11
"Sodium, Na",mg,--,--,180,316
Vitamins
"Vitamin C, total ascorbic acid",mg,--,--,0.0,0.0
"Vitamin A, IU",IU,--,--,0,0
Lipids
"Fatty acids, total saturated",g,--,--,0.998,1.750
"Fatty acids, total trans",g,--,--,0.000,0.000
"Cholesterol",mg,--,--,0,0
Amino Acids
Other
Ingredients
"CANE SUGAR, GMO-FREE POPCORN, CORN OIL, SALT, CAYENNE PEPPER, DEHYDRATED LIME JUICE (MALTODEXTRIN, LIME JUICE, & LIME OIL)." Date available: 07/14/2017 Date last updated by company: 07/14/2017
