Source: USDA Branded Food Products Database Release December 2017 Software v.3.8.6.4 2017-10-02
Report Run at: December 17, 2017 04:41 EST
"Nutrient data for: 45330130, KETTLE CHIPS, UPC: 708163124587"
Food Group:  Branded Food Products Database
Common Name:

Nutrient,Unit,Data points,Std. Error,"14.0 CHIPS | ABOUT = 28.0g",1Value per 100 g,
Proximates
"Energy",kcal,--,--,140,500
"Protein",g,--,--,1.00,3.57
"Total lipid (fat)",g,--,--,7.00,25.00
"Carbohydrate, by difference",g,--,--,17.00,60.71
"Fiber, total dietary",g,--,--,1.0,3.6
"Sugars, total",g,--,--,2.00,7.14
Minerals
"Calcium, Ca",mg,--,--,0,0
"Iron, Fe",mg,--,--,0.64,2.29
"Sodium, Na",mg,--,--,120,429
Vitamins
"Vitamin C, total ascorbic acid",mg,--,--,4.3,15.3
"Vitamin A, IU",IU,--,--,0,0
Lipids
"Fatty acids, total saturated",g,--,--,0.501,1.790
"Fatty acids, total monounsaturated",g,--,--,5.001,17.860
"Fatty acids, total polyunsaturated",g,--,--,1.000,3.570
"Fatty acids, total trans",g,--,--,0.000,0.000
"Cholesterol",mg,--,--,0,0
Amino Acids
Other
Ingredients
"POTATOES, SUNFLOWER OIL AND/OR SAFFLOWER OIL, SUGAR, DEXTROSE, MALTODEXTRIN, PEACHES, GUM ACACIA, CITRIC ACID, SEA SALT, NATURAL FLAVOR, SPICE, PAPRIKA EXTRACT." Date available: 10/13/2017 Date last updated by company: 10/13/2017
