Source: USDA Branded Food Products Database Release December 2017 Software v.3.8.6.4 2017-10-02
Report Run at: December 17, 2017 05:11 EST
"Nutrient data for: 45034453, KEY FOOD, SWEET RELISH, UPC: 073296109436"
Food Group:  Branded Food Products Database
Common Name:

Nutrient,Unit,Data points,Std. Error,"1 Tbsp = 15.0g",1Value per 100 g,
Proximates
"Energy",kcal,--,--,15,100
"Protein",g,--,--,0.00,0.00
"Total lipid (fat)",g,--,--,0.00,0.00
"Carbohydrate, by difference",g,--,--,4.00,26.67
"Sugars, total",g,--,--,3.00,20.00
Minerals
"Sodium, Na",mg,--,--,120,800
Vitamins
Lipids
Amino Acids
Other
Ingredients
"CUCUMBERS, HIGH FRUCTOSE CORN SYRUP, WATER, VINEGAR, SALT, CALCIUM CHLORIDE, SPICES, XANTHAN GUM, SODIUM BENZOATE (PRESERVATIVES), PEPPERS, NATURAL FLAVORS, FD&C YELLOW #5, POLYSORBATE 80." Date available: 06/24/2017 Date last updated by company: 06/24/2017
