Source: USDA Branded Food Products Database Release December 2017 Software v.3.8.6.4 2017-10-02
Report Run at: December 17, 2017 04:59 EST
"Nutrient data for: 45028829, KEY FOOD, DELUXE SHELLS & CHEDDAR DINNER, UPC: 073296302653"
Food Group:  Branded Food Products Database
Common Name:

Nutrient,Unit,Data points,Std. Error,"4.0 ONZ = 113.0g",1Value per 100 g,
Proximates
"Energy",kcal,--,--,350,310
"Protein",g,--,--,14.00,12.39
"Total lipid (fat)",g,--,--,12.99,11.50
"Carbohydrate, by difference",g,--,--,45.00,39.82
"Fiber, total dietary",g,--,--,2.0,1.8
"Sugars, total",g,--,--,2.99,2.65
Minerals
"Calcium, Ca",mg,--,--,200,177
"Iron, Fe",mg,--,--,3.98,3.52
"Sodium, Na",mg,--,--,1031,912
Vitamins
"Vitamin C, total ascorbic acid",mg,--,--,0.0,0.0
"Vitamin A, IU",IU,--,--,3319,2937
Lipids
"Fatty acids, total saturated",g,--,--,6.000,5.310
"Fatty acids, total trans",g,--,--,0.000,0.000
"Cholesterol",mg,--,--,31,27
Amino Acids
Other
Ingredients
"ENRICHED MACARONI PRODUCT (DURUM AND WHEAT FLOUR WITH NIACIN, IRON [FERROUS SULFATE], THIAMINE MONONITRATE, RIBOFLAVIN, FOLIC ACID), CHEDDAR CHEESE SAUCE (CHEDDAR CHEESE [MILK, CHEESE CULTURE, SALT, ENZYMES], WATER, WHEY, CANOLA OIL, SODIUM PHOSPHATE, LESS THAN 2% OF THE FOLLOWING: WHEY PROTEIN CONCENTRATE, SALT, SKIM MILK, SODIUM ALGINATE, LACTIC ACID, PRESERVATIVE [SORBIC ACID], COLOR [OLEORESIN PAPRIKA, APOCAROTENAL])." Date available: 06/24/2017 Date last updated by company: 06/24/2017
