Source: USDA Branded Food Products Database Release December 2017 Software v.3.8.6.4 2017-10-02
Report Run at: December 17, 2017 05:01 EST
"Nutrient data for: 45029363, KEY FOOD, GREEN BEANS, FRENCH STYLE SLICED, UPC: 073296217001"
Food Group:  Branded Food Products Database
Common Name:

Nutrient,Unit,Data points,Std. Error,"0.5 cup = 120.0g",1Value per 100 g,
Proximates
"Energy",kcal,--,--,20,17
"Protein",g,--,--,1.00,0.83
"Total lipid (fat)",g,--,--,0.00,0.00
"Carbohydrate, by difference",g,--,--,4.00,3.33
"Fiber, total dietary",g,--,--,2.0,1.7
"Sugars, total",g,--,--,2.00,1.67
Minerals
"Calcium, Ca",mg,--,--,20,17
"Iron, Fe",mg,--,--,0.00,0.00
"Sodium, Na",mg,--,--,370,308
Vitamins
"Vitamin C, total ascorbic acid",mg,--,--,3.8,3.2
"Vitamin A, IU",IU,--,--,216,180
Lipids
"Fatty acids, total saturated",g,--,--,0.000,0.000
"Fatty acids, total trans",g,--,--,0.000,0.000
"Cholesterol",mg,--,--,0,0
Amino Acids
Other
Ingredients
"GREEN BEANS, WATER AND SALT." Date available: 06/24/2017 Date last updated by company: 06/24/2017
