Source: USDA Branded Food Products Database Release December 2017 Software v.3.8.6.4 2017-10-02
Report Run at: December 17, 2017 05:06 EST
"Nutrient data for: 45034861, KEY FOOD, POTATO WITH SPINACH PIEROGI, UPC: 834776000250"
Food Group:  Branded Food Products Database
Common Name:

Nutrient,Unit,Data points,Std. Error,"3.5 ONZ = 100.0g",1Value per 100 g,
Proximates
"Energy",kcal,--,--,135,135
"Protein",g,--,--,5.00,5.00
"Total lipid (fat)",g,--,--,1.00,1.00
"Carbohydrate, by difference",g,--,--,27.00,27.00
"Fiber, total dietary",g,--,--,1.0,1.0
"Sugars, total",g,--,--,0.00,0.00
Minerals
"Calcium, Ca",mg,--,--,20,20
"Iron, Fe",mg,--,--,1.53,1.53
"Sodium, Na",mg,--,--,310,310
Vitamins
"Vitamin C, total ascorbic acid",mg,--,--,4.1,4.1
"Vitamin A, IU",IU,--,--,170,170
Lipids
"Fatty acids, total saturated",g,--,--,0.400,0.400
"Fatty acids, total trans",g,--,--,0.000,0.000
"Cholesterol",mg,--,--,3,3
Amino Acids
Other
Ingredients
"FILLING: POTATOES, SPINACH, ONIONS, SOYBEAN OIL, SALT & PEPPER. DOUGH: FLOUR, WATER. DOUGH: WATER, WHEAT FLOUR, ENRICHED DURUM FLOUR (DURUM FLOUR, NIACIN, FERROUS SULFATE, THIAMINE MONONITRATE, RIBOFLAVIN, FOLIC ACID)." Date available: 07/14/2017 Date last updated by company: 07/14/2017
