Source: USDA Branded Food Products Database Release December 2017 Software v.3.8.6.4 2017-10-02
Report Run at: December 17, 2017 05:02 EST
"Nutrient data for: 45006773, KEY FOOD, INSTANT OATMEAL, CINNAMON ROLL, UPC: 073296054187"
Food Group:  Branded Food Products Database
Common Name:

Nutrient,Unit,Data points,Std. Error,"1 PACKET = 43.0g",1Value per 100 g,
Proximates
"Energy",kcal,--,--,160,372
"Protein",g,--,--,5.00,11.63
"Total lipid (fat)",g,--,--,2.00,4.65
"Carbohydrate, by difference",g,--,--,32.00,74.42
"Fiber, total dietary",g,--,--,3.0,7.0
"Sugars, total",g,--,--,13.00,30.23
Minerals
"Calcium, Ca",mg,--,--,100,233
"Iron, Fe",mg,--,--,4.61,10.71
"Magnesium, Mg",mg,--,--,51,119
"Phosphorus, P",mg,--,--,128,297
"Sodium, Na",mg,--,--,240,558
Vitamins
"Vitamin C, total ascorbic acid",mg,--,--,0.0,0.0
"Thiamin",mg,--,--,0.430,1.000
"Riboflavin",mg,--,--,0.340,0.791
"Niacin",mg,--,--,5.116,11.898
"Vitamin B-6",mg,--,--,0.512,1.190
"Vitamin A, IU",IU,--,--,1279,2974
"Vitamin D",IU,--,--,0,0
Lipids
"Fatty acids, total saturated",g,--,--,0.000,0.000
"Fatty acids, total monounsaturated",g,--,--,0.499,1.160
"Fatty acids, total polyunsaturated",g,--,--,1.002,2.330
"Fatty acids, total trans",g,--,--,0.000,0.000
"Cholesterol",mg,--,--,0,0
Amino Acids
Other
Ingredients
"WHOLE GRAIN ROLLED OATS (WITH OAT BRAN), SUGAR, SALT, CALCIUM CARBONATE (A SOURCE OF CALCIUM), CINNAMON, NATURAL AND ARTIFICIAL FLAVORS, GUAR GUM, CARAMEL COLOR, FERRIC ORTHOPHOSPHATE (A SOURCE OF IRON), NIACINAMIDE*, PYRIDOXINE HYDROCHLORIDE (VITAMIN B6)*, RIBOFLAVIN*, VITAMIN A PALMITATE, THIAMIN MONONITRATE*, FOLIC ACID*." Date available: 07/14/2017 Date last updated by company: 07/14/2017
