Source: USDA Branded Food Products Database Release December 2017 Software v.3.8.6.4 2017-10-02
Report Run at: December 17, 2017 05:04 EST
"Nutrient data for: 45033991, KEY FOOD, MIX VEGETABLES, UPC: 073296070972"
Food Group:  Branded Food Products Database
Common Name:

Nutrient,Unit,Data points,Std. Error,"0.66 cup = 90.0g",1Value per 100 g,
Proximates
"Energy",kcal,--,--,60,67
"Protein",g,--,--,2.00,2.22
"Total lipid (fat)",g,--,--,0.00,0.00
"Carbohydrate, by difference",g,--,--,13.00,14.44
"Fiber, total dietary",g,--,--,3.0,3.3
"Sugars, total",g,--,--,3.00,3.33
Minerals
"Calcium, Ca",mg,--,--,20,22
"Iron, Fe",mg,--,--,0.68,0.76
"Sodium, Na",mg,--,--,15,17
Vitamins
"Vitamin C, total ascorbic acid",mg,--,--,2.2,2.5
"Vitamin A, IU",IU,--,--,4250,4722
Lipids
"Fatty acids, total saturated",g,--,--,0.000,0.000
"Fatty acids, total trans",g,--,--,0.000,0.000
"Cholesterol",mg,--,--,0,0
Amino Acids
Other
Ingredients
"CARROTS, CORN, PEAS, GREEN BEANS, LIMA BEANS." Date available: 06/24/2017 Date last updated by company: 06/24/2017
