Source: USDA Branded Food Products Database Release December 2017 Software v.3.8.6.4 2017-10-02
Report Run at: December 17, 2017 05:02 EST
"Nutrient data for: 45006769, KEY FOOD, INSTANT SUGAR FREE OATMEAL, MAPLE 'N BROWN SUGAR, UPC: 073296056433"
Food Group:  Branded Food Products Database
Common Name:

Nutrient,Unit,Data points,Std. Error,"1 PACKET = 28.0g",1Value per 100 g,
Proximates
"Energy",kcal,--,--,100,357
"Protein",g,--,--,4.00,14.29
"Total lipid (fat)",g,--,--,2.00,7.14
"Carbohydrate, by difference",g,--,--,18.00,64.29
"Fiber, total dietary",g,--,--,3.0,10.7
"Sugars, total",g,--,--,0.00,0.00
Minerals
"Calcium, Ca",mg,--,--,200,714
"Iron, Fe",mg,--,--,7.07,25.26
"Magnesium, Mg",mg,--,--,79,281
"Phosphorus, P",mg,--,--,196,701
"Sodium, Na",mg,--,--,140,500
Vitamins
"Vitamin C, total ascorbic acid",mg,--,--,0.0,0.0
"Thiamin",mg,--,--,0.560,2.000
"Riboflavin",mg,--,--,0.340,1.214
"Niacin",mg,--,--,7.858,28.064
"Vitamin B-6",mg,--,--,0.786,2.806
"Vitamin A, IU",IU,--,--,1964,7016
Lipids
"Fatty acids, total saturated",g,--,--,0.000,0.000
"Fatty acids, total monounsaturated",g,--,--,0.501,1.790
"Fatty acids, total polyunsaturated",g,--,--,0.501,1.790
"Fatty acids, total trans",g,--,--,0.000,0.000
"Cholesterol",mg,--,--,0,0
Amino Acids
Other
Ingredients
"WHOLE GRAIN ROLLED OATS (WITH OAT BRAN), SALT, CALCIUM CARBONATE (A SOURCE OF CALCIUM), NATURAL AND ARTIFICIAL FLAVORS+, GUAR GUM, CARAMEL COLOR, ASPARTAME**, ACESULFAME POTASSIUM, FERRIC ORTHOPHOSPHATE (A SOURCE OF IRON), NIACINAMIDE*, PYRIDOXINE HYDROCHLORIDE (VITAMIN B6)*,RIBOFLAVIN*, VITAMIN A PALMITATE, THIAMIN MONONITRATE*, FOLIC ACID*." Date available: 07/14/2017 Date last updated by company: 07/14/2017
