Source: USDA Branded Food Products Database Release December 2017 Software v.3.8.6.4 2017-10-02
Report Run at: December 17, 2017 05:00 EST
"Nutrient data for: 45031492, KEY FOOD, FROSTING, CREAMY FUDGE, UPC: 073296313628"
Food Group:  Branded Food Products Database
Common Name:

Nutrient,Unit,Data points,Std. Error,"2.0 Tbsp = 33.0g",1Value per 100 g,
Proximates
"Energy",kcal,--,--,130,394
"Protein",g,--,--,0.00,0.00
"Total lipid (fat)",g,--,--,6.00,18.18
"Carbohydrate, by difference",g,--,--,20.00,60.61
"Fiber, total dietary",g,--,--,1.0,3.0
"Sugars, total",g,--,--,17.00,51.52
Minerals
"Calcium, Ca",mg,--,--,0,0
"Iron, Fe",mg,--,--,0.54,1.65
"Sodium, Na",mg,--,--,45,136
Vitamins
"Vitamin C, total ascorbic acid",mg,--,--,0.0,0.0
"Vitamin A, IU",IU,--,--,0,0
Lipids
"Fatty acids, total saturated",g,--,--,3.000,9.090
"Fatty acids, total trans",g,--,--,0.000,0.000
"Cholesterol",mg,--,--,5,15
Amino Acids
Other
Ingredients
"SUGAR, ANIMAL SHORTENING (CONTAINS ONE OR MORE OF THE FOLLOWING: TALLOW, LARD WITH PRESERVATIVE [BHT, TBHQ AND CITRIC ACID]), WATER, HIGH FRUCTOSE CORN SYRUP, COCOA (PROCESSED WITH ALKALI), EMULSIFIER (MONO- AND DIGLYCERIDES WITH PRESERVATIVES [CITRIC ACID AND TBHQ], POLYSORBATE 60, SOY LECITHIN), CORN STARCH, SALT, MODIFIED WHEAT STARCH, CITRIC ACID, PRESERVATIVE (POTASSIUM SORBATE), DEXTROSE, COLOR (RED 40 LAKE, BLUE 2 LAKE, YELLOW 5 LAKE), AGAR, NATURAL AND ARTIFICIAL FLAVOR" Date available: 06/24/2017 Date last updated by company: 06/24/2017
