Source: USDA Branded Food Products Database Release December 2017 Software v.3.8.6.4 2017-10-02
Report Run at: December 17, 2017 05:20 EST
"Nutrient data for: 45134005, KID CUISINE Pop Star Popcorn Chicken Meal, UNPREPARED, GTIN: 00031000196776"
Food Group:  Branded Food Products Database
Common Name:

Nutrient,Unit,Data points,Std. Error,"1  = 245.0g",1Value per 100 g,
Proximates
"Energy",kcal,--,--,419,171
"Protein",g,--,--,13.01,5.31
"Total lipid (fat)",g,--,--,13.01,5.31
"Carbohydrate, by difference",g,--,--,62.01,25.31
"Fiber, total dietary",g,--,--,7.1,2.9
"Sugars, total",g,--,--,10.00,4.08
Minerals
"Calcium, Ca",mg,--,--,59,24
"Iron, Fe",mg,--,--,1.45,0.59
"Potassium, K",mg,--,--,669,273
"Sodium, Na",mg,--,--,480,196
Vitamins
"Vitamin C, total ascorbic acid",mg,--,--,3.7,1.5
"Vitamin A, IU",IU,--,--,0,0
"Vitamin D",IU,--,--,0,0
Lipids
"Fatty acids, total saturated",g,--,--,2.989,1.220
"Fatty acids, total monounsaturated",g,--,--,3.993,1.630
"Fatty acids, total polyunsaturated",g,--,--,6.003,2.450
"Fatty acids, total trans",g,--,--,0.000,0.000
"Cholesterol",mg,--,--,20,8
Amino Acids
Other
Ingredients
"POPCORN CHICKEN: Popcorn Chicken Patty (Chicken Breast with Rib Meat, Water, Chicken Skin, Soy Protein and Soy Carbohydrate, Modified Corn Starch, Soy Protein Concentrate, Brown Sugar, Garlic Powder, Spice Extractives, Soy Lecithin, Mono- and Diglycerides, Soybean Oil, Sunflower Lecithin), Breading (Whole Wheat Flour, Bleached Wheat Flour, Water, Salt, Corn Starch, Dextrose, Extractives of Paprika, Yeast, Spices, Sugar, Autolyzed Yeast Extract, Guar Gum, Modified Corn Starch, Yellow Corn Flour, Extractives of Turmeric, Garlic Powder, Leavening [Sodium Acid Pyrophosphate, Sodium Bicarbonate, Monocalcium Phosphate]). CORN: Corn, Water, Sugar CHOCOLATE PUDDING: Water, Chocolate Pudding Blend (Dairy Product Solids [Modified Whey, Reduced Protein Whey, Whey Solids], Sugar, Modified Corn Starch, Maltodextrin, Crystalline Maltitol, Sweet Cream Powder [Sweet Cream, Nonfat Milk, Sodium Caseinate, Tocopherol], Cocoa Powder, Sorbitol, Propylene Glycol Esters of Mono and Diglycerides, Natural and Artificial Flavor, Soy Lecithin, Salt, Sucralose), Soybean Oil, Cellulose Gel and Cellulose Gum. FRENCH FRIES: French Fries (Potatoes, Canola Oil, Salt, Disodium Dihydrogen Phosphate [To Promote Color Retention], Coloring [Carmel Color, Annatto Extract, Turmeric], Dextrose) COOKIE SPOON: Enriched Flour (Wheat Flour, Niacin, Reduced Iron, Thiamine Mononitrate, Riboflavin, Folic Acid), Sugar, Chocolate Chips (Sugar, Chocolate Liquor, Dextrose, Cocoa Butter, Soy Lecithin, Vanilla), Brown Sugar, Canola Oil, Palm Oil, Wheat Gluten, Natural Flavors, Salt, Soy Lecithin, Natural Cocoa, Sodium Bicarbonate, Corn Starch, Ammonium Bicarbonate. CONTAINS: MILK, SOY, WHEAT" Date available: 10/23/2017 Date last updated by company: 10/22/2017
