Source: USDA Branded Food Products Database Release December 2017 Software v.3.8.6.4 2017-10-02
Report Run at: December 17, 2017 05:20 EST
"Nutrient data for: 45332957, KIDNEY BEANS, UPC: 041512079986"
Food Group:  Branded Food Products Database
Common Name:

Nutrient,Unit,Data points,Std. Error,"0.5 cup = 130.0g",1Value per 100 g,
Proximates
"Energy",kcal,--,--,100,77
"Protein",g,--,--,6.01,4.62
"Total lipid (fat)",g,--,--,0.00,0.00
"Carbohydrate, by difference",g,--,--,18.00,13.85
"Fiber, total dietary",g,--,--,7.0,5.4
"Sugars, total",g,--,--,3.00,2.31
Minerals
"Calcium, Ca",mg,--,--,60,46
"Iron, Fe",mg,--,--,1.79,1.38
"Sodium, Na",mg,--,--,380,292
Vitamins
"Vitamin C, total ascorbic acid",mg,--,--,1.2,0.9
"Vitamin A, IU",IU,--,--,0,0
Lipids
"Fatty acids, total saturated",g,--,--,0.000,0.000
"Fatty acids, total trans",g,--,--,0.000,0.000
"Cholesterol",mg,--,--,0,0
Amino Acids
Other
Ingredients
"WATER, DARK RED KIDNEY BEANS, LIQUID SUGAR, SALT, CALCIUM CHLORIDE, DISODIUM EDTA." Date available: 10/13/2017 Date last updated by company: 10/13/2017
