Source: USDA Branded Food Products Database Release December 2017 Software v.3.8.6.4 2017-10-02
Report Run at: December 17, 2017 05:23 EST
"Nutrient data for: 45168496, KIERAN'S, CRAB RANGOON DIP, UPC: 613103053165"
Food Group:  Branded Food Products Database
Common Name:

Nutrient,Unit,Data points,Std. Error,"1 ONZ = 28.0g",1Value per 100 g,
Proximates
"Energy",kcal,--,--,45,161
"Protein",g,--,--,4.00,14.29
"Total lipid (fat)",g,--,--,2.50,8.93
"Carbohydrate, by difference",g,--,--,2.00,7.14
"Fiber, total dietary",g,--,--,0.0,0.0
"Sugars, total",g,--,--,1.00,3.57
Minerals
"Calcium, Ca",mg,--,--,40,143
"Iron, Fe",mg,--,--,0.00,0.00
"Sodium, Na",mg,--,--,130,464
Vitamins
"Vitamin C, total ascorbic acid",mg,--,--,2.6,9.2
"Vitamin A, IU",IU,--,--,214,766
Lipids
"Fatty acids, total saturated",g,--,--,1.501,5.360
"Fatty acids, total trans",g,--,--,0.000,0.000
"Cholesterol",mg,--,--,15,54
Amino Acids
Other
Ingredients
"CREAM CHEESE (PASTEURIZED CULTURED MILK & CREAM, SALT, STABILIZERS (XANTHAN AND/OR CAROB BEAN AND/OR GUAR GUM), CRAB, SURIMI, GARLIC, CHIVES, WORCESTERSHIRE (DISTILLED WHITE VINEGAR, MOLASSES, WATER, SUGAR, ONIONS, ANCHOVIES, SALT, GARLIC, CLOVES, TAMARIND EXTRACT, CHILI PEPPER EXTRACT), SOY SAUCE, GREEN ONION, GARLIC, GINGER." Date available: 07/14/2017 Date last updated by company: 07/14/2017
