Source: USDA Branded Food Products Database Release December 2017 Software v.3.8.6.4 2017-10-02
Report Run at: December 17, 2017 05:24 EST
"Nutrient data for: 45096644, KIKKOMAN, CHINESE STYLE SEAFOOD SOUP MIX, CRAB, UPC: 041390031007"
Food Group:  Branded Food Products Database
Common Name:

Nutrient,Unit,Data points,Std. Error,"3.0 tsp = 9.0g",1Value per 100 g,
Proximates
"Energy",kcal,--,--,25,278
"Protein",g,--,--,1.00,11.11
"Total lipid (fat)",g,--,--,0.00,0.00
"Carbohydrate, by difference",g,--,--,5.00,55.56
"Fiber, total dietary",g,--,--,0.0,0.0
"Sugars, total",g,--,--,0.00,0.00
Minerals
"Calcium, Ca",mg,--,--,0,0
"Iron, Fe",mg,--,--,0.00,0.00
"Sodium, Na",mg,--,--,820,9111
Vitamins
"Vitamin C, total ascorbic acid",mg,--,--,0.0,0.0
"Vitamin A, IU",IU,--,--,0,0
Lipids
"Fatty acids, total saturated",g,--,--,0.000,0.000
"Fatty acids, total trans",g,--,--,0.000,0.000
"Cholesterol",mg,--,--,0,0
Amino Acids
Other
Ingredients
"POTATO STARCH, SALT, MALTODEXTRIN, DEHYDRATED SURIMI {POLLACK(FISH), LACTOSE(MILK), SALT, POTATO STARCH, FLAVORINGS, ARTIFICIAL FLAVORS, THICKENER(GUAR GUM, WHEAT GLUTEN, ARABIC GUM), COLOR(COCHINEAL), SEAFOOD EXTRACT POWDER (BONITO, CRAB, SARDINE, KELP), CELLULOSE}, DEHYDRATED SOY SAUCE(SOYBEANS, WHEAT,SALT, MODIFIED FOOD STARCH), DEHYDRATED SPINACH (SPINACH, SORBITOL), MONOSODIUM GLUTAMATE, MODIFIED FOOD STARCH, SESAME OIL, YEAST EXTRACT, ONION POWDER, CRAB EXTRACT POWDER(CRUSTACEAN SHELLFISH), HYDROLYZED VEGETABLE PROTEIN (CORN, SOYBEANS), GINGER POWDER, SPICES, DISODIUM INORDINATE, DISODIUM GUANYLATE, DL-ALANINE, ARTIFICIAL CRAB FLAVORS, GLYCINE, L-ARGININE, PALM OIL, FUMARIC ACID, DL-METHIONINE, L-LYSINE, L-HISTIDINE." Date available: 06/25/2017 Date last updated by company: 06/25/2017
