Source: USDA Branded Food Products Database Release December 2017 Software v.3.8.6.4 2017-10-02
Report Run at: December 17, 2017 05:26 EST
"Nutrient data for: 45065678, KIKKOMAN, SWEET SOY GLAZE, UPC: 041390007026"
Food Group:  Branded Food Products Database
Common Name:

Nutrient,Unit,Data points,Std. Error,"1 Tbsp = 20.0g",1Value per 100 g,
Proximates
"Energy",kcal,--,--,40,200
"Protein",g,--,--,1.00,5.00
"Total lipid (fat)",g,--,--,0.00,0.00
"Carbohydrate, by difference",g,--,--,10.00,50.00
"Sugars, total",g,--,--,9.00,45.00
Minerals
"Sodium, Na",mg,--,--,710,3550
Vitamins
Lipids
Amino Acids
Other
Ingredients
"NATURALLY BREWED SOY SAUCE (WATER, WHEAT, SOYBEANS, SALT), HIGH FRUCTOSE CORN SYRUP, SUGAR, CORN SYRUP, WATER, SALT, MODIFIED CORN STARCH, MONOSODIUM GLUTAMATE, VINEGAR, CARAMEL COLOR, CITRIC ACID, DISODIUM INOSINATE, DISODIUM GUANYLATE, XANTHAN GUM, LESS THAN 0.1% POTASSIUM SORBATE AND SODIUM BENZOATE AS PRESERVATIVES." Date available: 09/27/2017 Date last updated by company: 09/27/2017
