Source: USDA Branded Food Products Database Release December 2017 Software v.3.8.6.4 2017-10-02
Report Run at: December 17, 2017 05:30 EST
"Nutrient data for: 45192169, KIM'S KOKONUT WITH CHIA SEEDS, UPC: 702685730240"
Food Group:  Branded Food Products Database
Common Name:

Nutrient,Unit,Data points,Std. Error,"1 BAR = 83.0g",1Value per 100 g,
Proximates
"Energy",kcal,--,--,120,145
"Protein",g,--,--,1.00,1.20
"Total lipid (fat)",g,--,--,7.00,8.43
"Carbohydrate, by difference",g,--,--,12.00,14.46
"Fiber, total dietary",g,--,--,1.0,1.2
"Sugars, total",g,--,--,11.00,13.25
Minerals
"Calcium, Ca",mg,--,--,0,0
"Iron, Fe",mg,--,--,0.57,0.69
"Sodium, Na",mg,--,--,65,78
Vitamins
"Vitamin C, total ascorbic acid",mg,--,--,5.7,6.9
"Vitamin A, IU",IU,--,--,0,0
Lipids
"Fatty acids, total saturated",g,--,--,6.997,8.430
"Fatty acids, total trans",g,--,--,0.000,0.000
"Cholesterol",mg,--,--,0,0
Amino Acids
Other
Ingredients
"FILTERED WATER, COCONUT CREAM, COCONUT WATER CONCENTRATE, PINEAPPLE JUICE CONCENTRATE, PEAR JUICE CONCENTRATE, COCONUT FLAKES, CHIA SEEDS, GUAR GUM." Date available: 07/14/2017 Date last updated by company: 07/14/2017
