Source: USDA Branded Food Products Database Release December 2017 Software v.3.8.6.4 2017-10-02
Report Run at: December 17, 2017 05:29 EST
"Nutrient data for: 45205886, KIM & JAKE'S, PEASANT LOAF BREAD, UPC: 850775005089"
Food Group:  Branded Food Products Database
Common Name:

Nutrient,Unit,Data points,Std. Error,"3.57 ONZ = 100.0g",1Value per 100 g,
Proximates
"Energy",kcal,--,--,240,240
"Protein",g,--,--,4.00,4.00
"Total lipid (fat)",g,--,--,10.00,10.00
"Carbohydrate, by difference",g,--,--,35.00,35.00
"Fiber, total dietary",g,--,--,4.0,4.0
"Sugars, total",g,--,--,0.00,0.00
Minerals
"Calcium, Ca",mg,--,--,40,40
"Iron, Fe",mg,--,--,0.72,0.72
"Sodium, Na",mg,--,--,480,480
Vitamins
"Vitamin C, total ascorbic acid",mg,--,--,0.0,0.0
"Vitamin A, IU",IU,--,--,0,0
Lipids
"Fatty acids, total saturated",g,--,--,1.000,1.000
"Fatty acids, total trans",g,--,--,0.000,0.000
"Cholesterol",mg,--,--,0,0
Amino Acids
Other
Ingredients
"GLUTEN FREE OAT FLOUR, GLUTEN FREE TAPIOCA STARCH, GLUTEN FREE NATURALLY FERMENTED SORGHUM STARTER, WATER, FLAX MEAL, VINEGAR, ORGANIC COCONUT AMINO ACIDS, NON-GMO CANOLA OIL, XANTHAN GUM, SEA SALT" Date available: 07/14/2017 Date last updated by company: 07/14/2017
