Source: USDA Branded Food Products Database Release December 2017 Software v.3.8.6.4 2017-10-02
Report Run at: December 17, 2017 05:30 EST
"Nutrient data for: 45137108, KIMURA, RAMUNE CARBONATED SOFT DRINK, STRAWBERRY, UPC: 011152216805"
Food Group:  Branded Food Products Database
Common Name:

Nutrient,Unit,Data points,Std. Error,"1 BOTTLE = 200.0g",1Value per 100 g,
Proximates
"Energy",kcal,--,--,92,46
"Protein",g,--,--,0.00,0.00
"Total lipid (fat)",g,--,--,0.00,0.00
"Carbohydrate, by difference",g,--,--,22.00,11.00
"Fiber, total dietary",g,--,--,0.0,0.0
"Sugars, total",g,--,--,18.00,9.00
Minerals
"Calcium, Ca",mg,--,--,0,0
"Iron, Fe",mg,--,--,0.00,0.00
"Sodium, Na",mg,--,--,18,9
Vitamins
"Vitamin C, total ascorbic acid",mg,--,--,0.0,0.0
"Vitamin A, IU",IU,--,--,0,0
Lipids
"Fatty acids, total saturated",g,--,--,0.000,0.000
"Fatty acids, total trans",g,--,--,0.000,0.000
"Cholesterol",mg,--,--,0,0
Amino Acids
Other
Ingredients
"CARBONATED WATER, HIGH FRUCTOSE CORN SYRUP, CITRIC ACID, TRISODIUM CITRATE, ELDERBERRY COLOR, ARTIFICIAL FLAVOR." Date available: 06/25/2017 Date last updated by company: 06/25/2017
