Source: USDA Branded Food Products Database Release December 2017 Software v.3.8.6.4 2017-10-02
Report Run at: December 17, 2017 05:32 EST
"Nutrient data for: 45232356, KIND, HEALTHY GRAINS GRANOLA BAR, PEANUT BUTTER BERRY, UPC: 602652181115"
Food Group:  Branded Food Products Database
Common Name:

Nutrient,Unit,Data points,Std. Error,"1 BAR = 35.0g",1Value per 100 g,
Proximates
"Energy",kcal,--,--,150,429
"Protein",g,--,--,3.00,8.57
"Total lipid (fat)",g,--,--,4.50,12.86
"Carbohydrate, by difference",g,--,--,24.00,68.57
"Fiber, total dietary",g,--,--,2.5,7.1
"Sugars, total",g,--,--,7.00,20.00
Minerals
"Calcium, Ca",mg,--,--,20,57
"Iron, Fe",mg,--,--,1.24,3.53
"Sodium, Na",mg,--,--,75,214
Vitamins
"Vitamin C, total ascorbic acid",mg,--,--,0.0,0.0
"Vitamin A, IU",IU,--,--,0,0
Lipids
"Fatty acids, total saturated",g,--,--,0.500,1.430
"Fatty acids, total trans",g,--,--,0.000,0.000
"Cholesterol",mg,--,--,0,0
Amino Acids
Other
Ingredients
"WHOLE GRAIN BLEND (OATS, MILLET, BROWN RICE, BUCKWHEAT, AMARANTH, QUINOA, OAT FLOUR), DRIED CANE SYRUP, HONEY, TAPIOCA SYRUP, CRANBERRIES, PEANUT BUTTER, CANOLA OIL, PEANUTS, BROWN RICE SYRUP, RASPBERRIES, GUM ACACIA, VANILLA EXTRACT, SEA SALT, PEANUT FLOUR, VITAMIN E (TO MAINTAIN FRESHNESS)." Date available: 07/14/2017 Date last updated by company: 07/14/2017
