Source: USDA Branded Food Products Database Release December 2017 Software v.3.8.6.4 2017-10-02
Report Run at: December 17, 2017 05:38 EST
"Nutrient data for: 45244199, KINGS COMMAND FOODS FULLY COOKED CHICKEN BREAST STRIPS FOR FAJITA 2-5 POUND BAGS PER 10 POUND NET WEIGHT MASTER CASE, UNPREPARED, GTIN: 00088374097352"
Food Group:  Branded Food Products Database
Common Name:

Nutrient,Unit,Data points,Std. Error,"43.0 g = 43.0g",1Value per 100 g,
Proximates
"Energy",kcal,--,--,70,163
"Protein",g,--,--,10.00,23.26
"Total lipid (fat)",g,--,--,2.50,5.81
"Carbohydrate, by difference",g,--,--,1.00,2.33
"Fiber, total dietary",g,--,--,0.0,0.0
"Sugars, total",g,--,--,0.00,0.00
Minerals
"Calcium, Ca",mg,--,--,0,0
"Iron, Fe",mg,--,--,0.72,1.67
"Sodium, Na",mg,--,--,370,860
Vitamins
"Vitamin C, total ascorbic acid",mg,--,--,0.0,0.0
"Vitamin A, IU",IU,--,--,100,233
Lipids
"Fatty acids, total saturated",g,--,--,0.499,1.160
"Fatty acids, total trans",g,--,--,0.000,0.000
"Cholesterol",mg,--,--,40,93
Amino Acids
Other
Ingredients
"CHICKEN BREAST, WATER, SEASONING [SPICES, SUGAR, MALTODEXTRIN, SALT, SOY SAUCE SOLIDS (SOYBEANS, WHEAT, SOYBEAN AND CORN EXTRACTS, SALT, CORY SYRUP, AND CARAMEL COLOR) AND MALTODEXTRIN], GARLIC POWDER, SODIUM PHOSPHATE, ONION POWDER, GRILL FLAVOR (MALTODEXTRIN, NATURAL FLAVOR, MODIFIED CORN STARCH, CORN SYRUP SOLIDS), LEMON JUICE POWDER (CORN SYRUP SOLIDS, LEMON OIL), LIME JUICE POWDER (CORN SYRUP SOLIDS, LIME OIL), SILICON DIOXIDE ADDED TO PREVENT CAKING, SODIUM PHOSPHATE." Date last updated by company: 12/30/2016
