Source: USDA Branded Food Products Database Release December 2017 Software v.3.8.6.4 2017-10-02
Report Run at: December 17, 2017 05:40 EST
"Nutrient data for: 45244170, KINGS COMMAND FOODS UNCOOKED HOMESTYLE RAW BREADED PORK LOIN FRITTER, 40-4 OUNCE PORTIONS PER 10 POUND NET WEIGHT MASTER CASE., UNPREPARED, GTIN: 10088374700693"
Food Group:  Branded Food Products Database
Common Name:

Nutrient,Unit,Data points,Std. Error,"113.0 g = 113.0g",1Value per 100 g,
Proximates
"Energy",kcal,--,--,240,212
"Protein",g,--,--,17.00,15.04
"Total lipid (fat)",g,--,--,6.99,6.19
"Carbohydrate, by difference",g,--,--,29.00,25.66
"Fiber, total dietary",g,--,--,1.0,0.9
"Sugars, total",g,--,--,0.00,0.00
Minerals
"Calcium, Ca",mg,--,--,80,71
"Iron, Fe",mg,--,--,3.60,3.19
"Sodium, Na",mg,--,--,499,442
Vitamins
"Vitamin C, total ascorbic acid",mg,--,--,0.0,0.0
"Vitamin A, IU",IU,--,--,0,0
Lipids
"Fatty acids, total saturated",g,--,--,2.497,2.210
"Fatty acids, total trans",g,--,--,0.000,0.000
"Cholesterol",mg,--,--,45,40
Amino Acids
Other
Ingredients
"Pork Loin, Salt. Predusted and Battered with: Water, Enriched Wheat Flour (Niacin, Reduced Iron, Thiamine Mononitrate, Riboflavin, Folic Acid), Wheat Starch, Buttermilk Blend (Buttermilk, Whey), Salt, Leavening (Sodium Acid Pyrophosphate, Sodium Bicarbonate, Monocalcium Phosphate), Spice. Breaded with: Enriched Wheat Flour (Niacin, Reduced Iron, Thiamine Mononitrate, Riboflavin, Folic Acid), Wheat Flour, Leavening, (Sodium Acid Pyrophosphate, Sodium Bicarbonate, Corn Starch, Monocalcium Phosphate), Soy Flour." Date last updated by company: 12/27/2016
