Source: USDA Branded Food Products Database Release December 2017 Software v.3.8.6.4 2017-10-02
Report Run at: December 17, 2017 05:36 EST
"Nutrient data for: 45183897, KING SALMON FILLETS, UPC: 078742118789"
Food Group:  Branded Food Products Database
Common Name:

Nutrient,Unit,Data points,Std. Error,"3.0 -5 FILLETS | APPROX. = 113.0g",1Value per 100 g,
Proximates
"Energy",kcal,--,--,200,177
"Protein",g,--,--,23.00,20.35
"Total lipid (fat)",g,--,--,15.00,13.27
"Carbohydrate, by difference",g,--,--,0.00,0.00
"Fiber, total dietary",g,--,--,0.0,0.0
"Sugars, total",g,--,--,0.00,0.00
Minerals
"Calcium, Ca",mg,--,--,20,18
"Iron, Fe",mg,--,--,0.54,0.48
"Sodium, Na",mg,--,--,50,44
Vitamins
"Vitamin C, total ascorbic acid",mg,--,--,3.6,3.2
"Vitamin A, IU",IU,--,--,376,333
Lipids
"Fatty acids, total saturated",g,--,--,2.994,2.650
"Fatty acids, total trans",g,--,--,0.000,0.000
"Cholesterol",mg,--,--,75,66
Amino Acids
Other
Ingredients
"KING SALMON." Date available: 07/14/2017 Date last updated by company: 07/14/2017
