Source: USDA Branded Food Products Database Release December 2017 Software v.3.8.6.4 2017-10-02
Report Run at: December 17, 2017 05:46 EST
"Nutrient data for: 45192538, KIPPERED TURKEY BREAST, UPC: 793124000710"
Food Group:  Branded Food Products Database
Common Name:

Nutrient,Unit,Data points,Std. Error,"1 ONZ = 28.0g",1Value per 100 g,
Proximates
"Energy",kcal,--,--,40,143
"Protein",g,--,--,8.00,28.57
"Total lipid (fat)",g,--,--,0.00,0.00
"Carbohydrate, by difference",g,--,--,1.00,3.57
"Fiber, total dietary",g,--,--,0.0,0.0
"Sugars, total",g,--,--,1.00,3.57
Minerals
"Calcium, Ca",mg,--,--,0,0
"Iron, Fe",mg,--,--,0.64,2.29
"Sodium, Na",mg,--,--,200,714
Vitamins
"Vitamin C, total ascorbic acid",mg,--,--,0.0,0.0
"Vitamin A, IU",IU,--,--,0,0
Lipids
"Fatty acids, total saturated",g,--,--,0.000,0.000
"Fatty acids, total trans",g,--,--,0.000,0.000
"Cholesterol",mg,--,--,15,54
Amino Acids
Other
Ingredients
"TURKEY BREAST, BROWN SUGAR, SALT, WATER, CONTAINS 2% OR LESS: CARAMEL COLOR, CHERRY JUICE CONCENTRATE, CORN SYRUP SOLIDS, DEXTROSE, HONEY, HYDROLYZED VEGETABLE PROTEIN FROM SOY, MAPLE SUGAR, MAPLE SYRUP, MILK PROTEIN HYDROLYSATE, MOLASSES (MOLASSES, WHEAT STARCH, HIGH FRUCTOSE CORN SYRUP, SOY FLOUR), MONOSODIUM GLUTAMATE, SODIUM NITRITE, SPICE EXTRACTIVES, SPICES, SUGAR." Date available: 07/14/2017 Date last updated by company: 07/14/2017
