Source: USDA Branded Food Products Database Release December 2017 Software v.3.8.6.4 2017-10-02
Report Run at: December 17, 2017 05:46 EST
"Nutrient data for: 45249286, KIRKLAND SIGNATURE, CHOCOLATE CHUNK COOKIES, UPC: 096619704620"
Food Group:  Branded Food Products Database
Common Name:

Nutrient,Unit,Data points,Std. Error,"1 COOKIE = 21.0g",1Value per 100 g,
Proximates
"Energy",kcal,--,--,110,524
"Protein",g,--,--,1.00,4.76
"Total lipid (fat)",g,--,--,6.00,28.57
"Carbohydrate, by difference",g,--,--,12.00,57.14
"Fiber, total dietary",g,--,--,0.0,0.0
"Sugars, total",g,--,--,8.00,38.10
Minerals
"Calcium, Ca",mg,--,--,0,0
"Iron, Fe",mg,--,--,0.86,4.08
"Sodium, Na",mg,--,--,50,238
Vitamins
"Vitamin C, total ascorbic acid",mg,--,--,0.0,0.0
"Vitamin A, IU",IU,--,--,0,0
Lipids
"Fatty acids, total saturated",g,--,--,4.000,19.050
"Fatty acids, total trans",g,--,--,0.000,0.000
"Cholesterol",mg,--,--,5,24
Amino Acids
Other
Ingredients
"WHEAT FLOUR, DARK CHOCOLATE ENROBING [SUGAR, CHOCOLATE LIQUOR (ALKALIZED), COCOA BUTTER, SOY LECITHIN (EMULSIFIER), VANILLA], DARK CHOCOLATE CHUNKS [CHOCOLATE LIQUOR, SUGAR, ANHYDROUS DEXTROSE, COCOA BUTTER, SOY LECITHIN (EMULSIFIER), VANILLA EXTRACT], SUGAR, BUTTER, PALM OIL, MILK CHOCOLATE CHUNKS [SUGAR, COCOA BUTTER, WHOLE MILK POWDER, CHOCOLATE LIQUOR (ALKALIZED), NONFAT MILK POWDER, SOY LECITHIN (EMULSIFIER), VANILLA EXTRACT], GOLDEN SYRUP (PARTIALLY INVERTED SUGAR SYRUP), COCOA POWDER, RAISING AGENTS (SODIUM BICARBONATE, DISODIUM DIPHOSPHATE, AMMONIUM BICARBONATE)." Date available: 07/14/2017 Date last updated by company: 07/14/2017
