Source: USDA Branded Food Products Database Release December 2017 Software v.3.8.6.4 2017-10-02
Report Run at: December 17, 2017 05:49 EST
"Nutrient data for: 45238393, KITCHENS OF INDIA, ONION & YOGURT COOKING SAUCE, UPC: 841905130221"
Food Group:  Branded Food Products Database
Common Name:

Nutrient,Unit,Data points,Std. Error,"0.25 cup = 62.0g",1Value per 100 g,
Proximates
"Energy",kcal,--,--,50,81
"Protein",g,--,--,2.00,3.23
"Total lipid (fat)",g,--,--,2.00,3.23
"Carbohydrate, by difference",g,--,--,6.00,9.68
"Fiber, total dietary",g,--,--,1.0,1.6
"Sugars, total",g,--,--,3.00,4.84
Minerals
"Calcium, Ca",mg,--,--,40,65
"Iron, Fe",mg,--,--,0.73,1.18
"Sodium, Na",mg,--,--,420,677
Vitamins
"Vitamin C, total ascorbic acid",mg,--,--,1.2,2.0
"Vitamin A, IU",IU,--,--,761,1227
Lipids
"Fatty acids, total saturated",g,--,--,0.502,0.810
"Fatty acids, total trans",g,--,--,0.000,0.000
"Cholesterol",mg,--,--,0,0
Amino Acids
Other
Ingredients
"ONIONS, WATER, YOGURT (MILK, CULTURES), TOMATO PASTE, CASHEWS, SPICES, GINGER, SALT, LIME JUICE, YELLOW CORN FLOUR AND SUNFLOWER OIL." Date available: 07/14/2017 Date last updated by company: 07/14/2017
