Source: USDA Branded Food Products Database Release December 2017 Software v.3.8.6.4 2017-10-02
Report Run at: December 17, 2017 05:48 EST
"Nutrient data for: 45173761, KITCHEN CHEF SIGNATURE, TRADITIONAL SOURDOUGH SLICED LOAF, UPC: 041380750284"
Food Group:  Branded Food Products Database
Common Name:

Nutrient,Unit,Data points,Std. Error,"1 SLICE = 60.0g",1Value per 100 g,
Proximates
"Energy",kcal,--,--,150,250
"Protein",g,--,--,6.00,10.00
"Total lipid (fat)",g,--,--,0.50,0.83
"Carbohydrate, by difference",g,--,--,28.00,46.67
"Fiber, total dietary",g,--,--,1.0,1.7
"Sugars, total",g,--,--,0.00,0.00
Minerals
"Calcium, Ca",mg,--,--,0,0
"Iron, Fe",mg,--,--,0.60,1.00
"Sodium, Na",mg,--,--,340,567
Vitamins
"Vitamin C, total ascorbic acid",mg,--,--,0.0,0.0
"Vitamin A, IU",IU,--,--,0,0
Lipids
"Fatty acids, total saturated",g,--,--,0.000,0.000
"Fatty acids, total trans",g,--,--,0.000,0.000
"Cholesterol",mg,--,--,0,0
Amino Acids
Other
Ingredients
"UNENRICHED UNBLEACHED WHEAT FLOUR, FILTERED WATER, NATURALLY AGED SOURDOUGH STARTER, UNPROCESSED SEA SALT, WHEAT GLUTEN, ASCORBIC ACID, NATURAL ENZYME." Date available: 07/14/2017 Date last updated by company: 07/14/2017
