Source: USDA Branded Food Products Database Release December 2017 Software v.3.8.6.4 2017-10-02
Report Run at: December 17, 2017 05:47 EST
"Nutrient data for: 45103353, KITCHENAID, BROWNIE MIX, SALTED CARAMEL, UPC: 054467501563"
Food Group:  Branded Food Products Database
Common Name:

Nutrient,Unit,Data points,Std. Error,"2.0 -INCH BROWNIE = 27.0g",1Value per 100 g,
Proximates
"Energy",kcal,--,--,110,407
"Protein",g,--,--,1.00,3.70
"Total lipid (fat)",g,--,--,2.00,7.41
"Carbohydrate, by difference",g,--,--,22.00,81.48
"Fiber, total dietary",g,--,--,1.0,3.7
"Sugars, total",g,--,--,15.00,55.56
Minerals
"Calcium, Ca",mg,--,--,0,0
"Iron, Fe",mg,--,--,1.07,3.95
"Sodium, Na",mg,--,--,190,704
Vitamins
"Vitamin C, total ascorbic acid",mg,--,--,0.0,0.0
"Vitamin A, IU",IU,--,--,0,0
Lipids
"Fatty acids, total saturated",g,--,--,0.999,3.700
"Fatty acids, total trans",g,--,--,0.000,0.000
"Cholesterol",mg,--,--,0,0
Amino Acids
Other
Ingredients
"SUGAR, ENRICHED UNBLEACHED FLOUR (WHEAT FLOUR, NIACIN, REDUCED IRON, THIAMIN MONONITRATE, RIBOFLAVIN, FOLIC ACID, MALTED BARLEY FLOUR, ENZYMES, ASCORBIC ACID), SEMISWEET CHOCOLATE CHIPS (SUGAR, UNSWEETENED CHOCOLATE, COCOA BUTTER, SOY LECITHIN [EMULSIFIER], VANILLA EXTRACT), SOYBEAN OIL, COCOA (PROCESSED WITH ALKALI). LESS THAN 2% OF: SALT, NATURAL FLAVOR, BAKING SODA, CARAMEL COLOR." Date available: 06/25/2017 Date last updated by company: 06/25/2017
