Source: USDA Branded Food Products Database Release December 2017 Software v.3.8.6.4 2017-10-02
Report Run at: December 17, 2017 05:53 EST
"Nutrient data for: 45012240, KLEMENT'S, BEEF SUMMER SAUSAGE, UPC: 073608038201"
Food Group:  Branded Food Products Database
Common Name:

Nutrient,Unit,Data points,Std. Error,"2.0 oz = 56.0g",1Value per 100 g,
Proximates
"Energy",kcal,--,--,200,357
"Protein",g,--,--,10.00,17.86
"Total lipid (fat)",g,--,--,17.00,30.36
"Carbohydrate, by difference",g,--,--,1.00,1.79
Minerals
"Iron, Fe",mg,--,--,1.08,1.93
"Sodium, Na",mg,--,--,720,1286
Vitamins
Lipids
"Fatty acids, total saturated",g,--,--,7.000,12.500
"Cholesterol",mg,--,--,45,80
Amino Acids
Other
Ingredients
"BEEF, SALT, CONTAINS LESS THAN 2% OF FLAVORINGS, CORN SYRUP, DEXTROSE, LACTIC ACID STARTER CULTURE, SODIUM ERYTHORBATE, SODIUM NITRITE." Date last updated by company: 02/17/2015
