Source: USDA Branded Food Products Database Release December 2017 Software v.3.8.6.4 2017-10-02
Report Run at: December 17, 2017 05:53 EST
"Nutrient data for: 45157023, KLN FAMILY BRANDS, ENGINE CO. 51, CORN SNCKS, HOT CURLS, UPC: 076721279407"
Food Group:  Branded Food Products Database
Common Name:

Nutrient,Unit,Data points,Std. Error,"0.75 cup = 28.0g",1Value per 100 g,
Proximates
"Energy",kcal,--,--,130,464
"Protein",g,--,--,2.00,7.14
"Total lipid (fat)",g,--,--,5.00,17.86
"Carbohydrate, by difference",g,--,--,19.00,67.86
"Fiber, total dietary",g,--,--,0.0,0.0
"Sugars, total",g,--,--,0.00,0.00
Minerals
"Calcium, Ca",mg,--,--,20,71
"Iron, Fe",mg,--,--,0.00,0.00
"Sodium, Na",mg,--,--,310,1107
Vitamins
"Vitamin C, total ascorbic acid",mg,--,--,0.0,0.0
"Vitamin A, IU",IU,--,--,0,0
Lipids
"Fatty acids, total saturated",g,--,--,0.501,1.790
"Fatty acids, total trans",g,--,--,0.000,0.000
"Cholesterol",mg,--,--,0,0
Amino Acids
Other
Ingredients
"ENRICHED CORNMEAL (CORNMEAL, NIACIN, FERROUS SULFATE, CORNSTARCH, TRICALCIUM PHOSPHATE, THIAMINE MONONITRATE, RIBOFLAVIN, FOLIC ACID), VEGETABLE OIL (CORN, AND/OR SUNFLOWER, AND/OR CANOLA), WHEY, SALT, NATURAL FLAVORS, MONOSODIUM GLUTAMATE, CHEDDAR CHEESE BLEND (WHEY, CHEESE [MILK, CHEESE CULTURES, SALT, ENZYMES], BUTTERMILK SOLIDS), NATURAL FLAVOR, ONION POWDER, RED 40 LAKE, CITRIC ACID, CARAMEL COLOR, SODIUM DIACETATE, YELLOW 6 LAKE." Date available: 07/14/2017 Date last updated by company: 07/14/2017
