Source: USDA Branded Food Products Database Release December 2017 Software v.3.8.6.4 2017-10-02
Report Run at: December 17, 2017 05:58 EST
"Nutrient data for: 45088964, KNORR, TOMATO BOUILLON, WITH CHICKEN FLAVOR, UPC: 048001711129"
Food Group:  Branded Food Products Database
Common Name:

Nutrient,Unit,Data points,Std. Error,"1 CUP PREPARED) | (MAKES = 4.0g",1Value per 100 g,
Proximates
"Energy",kcal,--,--,10,250
"Protein",g,--,--,0.00,0.00
"Total lipid (fat)",g,--,--,0.00,0.00
"Carbohydrate, by difference",g,--,--,1.00,25.00
Minerals
"Sodium, Na",mg,--,--,910,22750
Vitamins
Lipids
Amino Acids
Other
Ingredients
"SALT, MONOSODIUM GLUTAMATE, CORN STARCH, SUGAR, BEEF FAT*, HYDROLYZED CORN PROTEIN, NATURAL FLAVOR, CHICKEN FAT*, TOMATO POWDER, CITRIC ACID, YEAST EXTRACT (BARLEY), MALTODEXTRIN, POWDERED COOKED CHICKEN*, CARAMEL COLOR (CONTAINS SULFITES), SILICON DIOXIDE (PREVENTS CAKING), TURMERIC (COLOR), DEHYDRATED PARSLEY, DISODIUM GUANYLATE, DISODIUM INOSINATE, YELLOW 5, YELLOW 6, ANNATTO (COLOR), RED 40." Date available: 07/14/2017 Date last updated by company: 07/14/2017
