Source: USDA Branded Food Products Database Release December 2017 Software v.3.8.6.4 2017-10-02
Report Run at: December 17, 2017 06:00 EST
"Nutrient data for: 45018746, KOHINOOR, CUMIN POWDER, UPC: 810347006067"
Food Group:  Branded Food Products Database
Common Name:

Nutrient,Unit,Data points,Std. Error,"0.33 PACK = 100.0g",1Value per 100 g,
Proximates
"Energy",kcal,--,--,103,103
"Protein",g,--,--,5.00,5.00
"Total lipid (fat)",g,--,--,3.00,3.00
"Carbohydrate, by difference",g,--,--,14.00,14.00
"Fiber, total dietary",g,--,--,1.0,1.0
"Sugars, total",g,--,--,0.00,0.00
Minerals
"Calcium, Ca",mg,--,--,50,50
"Iron, Fe",mg,--,--,0.90,0.90
"Sodium, Na",mg,--,--,325,325
Vitamins
"Vitamin C, total ascorbic acid",mg,--,--,1.5,1.5
"Vitamin A, IU",IU,--,--,150,150
Lipids
"Fatty acids, total saturated",g,--,--,0.000,0.000
"Fatty acids, total trans",g,--,--,0.000,0.000
"Cholesterol",mg,--,--,0,0
Amino Acids
Other
Ingredients
"GROUND CUMIN" Date available: 06/25/2017 Date last updated by company: 06/25/2017
