Source: USDA Branded Food Products Database Release December 2017 Software v.3.8.6.4 2017-10-02
Report Run at: December 17, 2017 06:01 EST
"Nutrient data for: 45329926, KOLOOCHEH WALNUT FILLED COOKIES, UPC: 052851749065"
Food Group:  Branded Food Products Database
Common Name:

Nutrient,Unit,Data points,Std. Error,"1 COOKIE = 50.0g",1Value per 100 g,
Proximates
"Energy",kcal,--,--,200,400
"Protein",g,--,--,3.00,6.00
"Total lipid (fat)",g,--,--,7.00,14.00
"Carbohydrate, by difference",g,--,--,30.00,60.00
"Fiber, total dietary",g,--,--,1.0,2.0
"Sugars, total",g,--,--,15.00,30.00
Minerals
"Calcium, Ca",mg,--,--,10,20
"Iron, Fe",mg,--,--,0.90,1.80
"Sodium, Na",mg,--,--,5,10
Vitamins
"Vitamin C, total ascorbic acid",mg,--,--,0.0,0.0
"Vitamin A, IU",IU,--,--,0,0
Lipids
"Fatty acids, total saturated",g,--,--,1.000,2.000
"Fatty acids, total trans",g,--,--,0.000,0.000
"Cholesterol",mg,--,--,40,80
Amino Acids
Other
Ingredients
"WHEAT FLOUR ( NIACIN, IRON, THIAMIN MONONITRATE, RIBOFLAVIN, FOLICACID), MARGARINE (PARTIALLY HYDROGENATED SOYBEAN AND COTTONSEED OIL, SALT, MONO AND DIGLYCERIDES, COLORED WITH ANNATO/TURMERIC, CALCIUM DISODIUM EDTA AS PRESERVATIVE, ARTIFICIAL FLAVORS, VITAMIN A PALMITATE), SUGAR, EGGS, WALNUTS, VANILLIN, CARDAMOM, ROSE WATER." Date available: 10/13/2017 Date last updated by company: 10/13/2017
