Source: USDA Branded Food Products Database Release December 2017 Software v.3.8.6.4 2017-10-02
Report Run at: December 17, 2017 06:02 EST
"Nutrient data for: 45219281, KOMBUCHA, RAW FIZZY PROBIOTIC TEA, UPC: 853328005222"
Food Group:  Branded Food Products Database
Common Name:

Nutrient,Unit,Data points,Std. Error,"8.0 OZA = 8.0g",1Value per 100 g,
Proximates
"Energy",kcal,--,--,1,12
"Protein",g,--,--,0.00,0.00
"Total lipid (fat)",g,--,--,0.00,0.00
"Carbohydrate, by difference",g,--,--,0.30,3.75
"Fiber, total dietary",g,--,--,0.0,0.0
"Sugars, total",g,--,--,0.20,2.50
Minerals
"Sodium, Na",mg,--,--,0,5
Vitamins
Lipids
"Fatty acids, total saturated",g,--,--,0.000,0.000
"Cholesterol",mg,--,--,0,0
Amino Acids
Other
Ingredients
"ORGANIC RAW KOMBUCHA (BREWED WITH PURIFIED WATER, KOMBUCHA CULTURE, ORGANIC TEA, ORGANIC EVAPORATED CANE SUGAR), BLUEBERRY JUICE*, THAI BASIL)*, LIME JUICE*, TEXAS LEMON JUICE*, PRESSED GINGER JUICE*." Date available: 07/14/2017 Date last updated by company: 07/14/2017
