Source: USDA Branded Food Products Database Release December 2017 Software v.3.8.6.4 2017-10-02
Report Run at: December 17, 2017 06:02 EST
"Nutrient data for: 45165169, KOMBUCHA FERMENTED TEA, UPC: 079893418971"
Food Group:  Branded Food Products Database
Common Name:

Nutrient,Unit,Data points,Std. Error,"16.0 OZA = 473.0g",1Value per 100 g,
Proximates
"Energy",kcal,--,--,52,11
"Protein",g,--,--,0.00,0.00
"Total lipid (fat)",g,--,--,0.00,0.00
"Carbohydrate, by difference",g,--,--,12.01,2.54
"Sugars, total",g,--,--,6.01,1.27
Minerals
"Iron, Fe",mg,--,--,0.57,0.12
"Sodium, Na",mg,--,--,9,2
Vitamins
Lipids
Amino Acids
Other
Ingredients
"ORGANIC KOMBUCHA (SPRING WATER, ORGANIC CANE SUGAR, ORGANIC BLACK TEA), ORGANIC APPLE JUICE CONCENTRATE, ORGANIC CRANBERRY JUICE CONCENTRATE, ORGANIC PEACH FLAVOR." Date available: 07/14/2017 Date last updated by company: 07/14/2017
