Source: USDA Branded Food Products Database Release December 2017 Software v.3.8.6.4 2017-10-02
Report Run at: December 17, 2017 06:04 EST
"Nutrient data for: 45216716, KOMBUCHA WONDER DRINK, SPARKLING FERMENTED TEA, CHERRY CASSIS, UPC: 665479080603"
Food Group:  Branded Food Products Database
Common Name:

Nutrient,Unit,Data points,Std. Error,"2.0 BOTTLE = 207.0g",1Value per 100 g,
Proximates
"Energy",kcal,--,--,41,20
"Protein",g,--,--,0.00,0.00
"Total lipid (fat)",g,--,--,0.00,0.00
"Carbohydrate, by difference",g,--,--,10.99,5.31
"Sugars, total",g,--,--,10.00,4.83
Minerals
"Sodium, Na",mg,--,--,0,0
Vitamins
Lipids
"Fatty acids, total saturated",g,--,--,0.000,0.000
"Fatty acids, total trans",g,--,--,0.000,0.000
Amino Acids
Other
Ingredients
"CONTENTS: WATER, ORGANIC BREWED GREEN TEA (WATER, ORGANIC GREEN TEA LEAVES), ORGANIC KOMBUCHA (WATER, ORGANIC CANE JUICE, ORGANIC OOLONG TEA LEAVES, ORGANIC YEAST, BACTERIA CULTURES), ORGANIC CANE JUICE, BLACK CURRANT JUICE CONCENTRATE, ORGANIC CHERRY JUICE CONCENTRATE, CARBON DIOXIDE." Date available: 06/25/2017 Date last updated by company: 06/25/2017
