Source: USDA Branded Food Products Database Release December 2017 Software v.3.8.6.4 2017-10-02
Report Run at: December 17, 2017 06:05 EST
"Nutrient data for: 45090990, KONA WASABI, POWDERED HORSERADISH, UPC: 4967825003226"
Food Group:  Branded Food Products Database
Common Name:

Nutrient,Unit,Data points,Std. Error,"1.7 GRM = 1.7g",1Value per 100 g,
Proximates
"Energy",kcal,--,--,6,353
"Protein",g,--,--,0.00,0.00
"Total lipid (fat)",g,--,--,0.00,0.00
"Carbohydrate, by difference",g,--,--,1.00,58.82
"Fiber, total dietary",g,--,--,0.0,0.0
"Sugars, total",g,--,--,0.00,0.00
Minerals
"Sodium, Na",mg,--,--,0,0
Vitamins
Lipids
Amino Acids
Other
Ingredients
"HORSERADISH, SPIRULINA, TURMERIC" Date available: 06/25/2017 Date last updated by company: 06/25/2017
