Source: USDA Branded Food Products Database Release December 2017 Software v.3.8.6.4 2017-10-02
Report Run at: December 17, 2017 06:07 EST
"Nutrient data for: 45237867, KOOL-AID UNSWEETENED DRINK MIX, UPC: 420664402000"
Food Group:  Branded Food Products Database
Common Name:

Nutrient,Unit,Data points,Std. Error,"0.125 PACKAGE = 0.6g",1Value per 100 g,
Proximates
"Energy",kcal,--,--,0,0
"Protein",g,--,--,0.00,0.00
"Total lipid (fat)",g,--,--,0.00,0.00
"Carbohydrate, by difference",g,--,--,0.00,0.00
Minerals
"Sodium, Na",mg,--,--,10,1667
Vitamins
"Vitamin C, total ascorbic acid",mg,--,--,6.0,1000.0
Lipids
Amino Acids
Other
Ingredients
"CITRIC ACID, MALTODEXTRIN, SAL, NATURAL FLAVOR, CALCIUM PHOSPHATE, CONTAINS LESS THAN 2% OF ASCORBIC ACID (VITAMIN C), ARTIFICIAL FLAVOR, ARTIFICIAL COLOR, RED 40, YELLOW 5, BHA (PRESERVATIVE)." Date available: 09/23/2016 Date last updated by company: 09/23/2016
