Source: USDA Branded Food Products Database Release December 2017 Software v.3.8.6.4 2017-10-02
Report Run at: December 17, 2017 06:06 EST
"Nutrient data for: 45202151, KOOL-AID, CAFFEINE FREE DRINK MIX, LEMONADE, UPC: 043000953518"
Food Group:  Branded Food Products Database
Common Name:

Nutrient,Unit,Data points,Std. Error,"0.125 cup = 18.0g",1Value per 100 g,
Proximates
"Energy",kcal,--,--,70,389
"Protein",g,--,--,0.00,0.00
"Total lipid (fat)",g,--,--,0.00,0.00
"Carbohydrate, by difference",g,--,--,17.00,94.44
"Sugars, total",g,--,--,17.00,94.44
Minerals
"Sodium, Na",mg,--,--,0,0
Vitamins
"Vitamin C, total ascorbic acid",mg,--,--,6.0,33.3
Lipids
Amino Acids
Other
Ingredients
"SUGAR, FRUCTOSE, CITRIC ACID, CONTAINS LESS THAN 2% OF ASCORBIC ACID (VITAMIN C), NATURAL FLAVOR, CALCIUM SILICATE, MAGNESIUM OXIDE, ARTIFICIAL COLOR, YELLOW 5 LAKE, BHA (PRESERVES FRESHNESS)." Date available: 09/23/2016 Date last updated by company: 09/23/2016
