Source: USDA Branded Food Products Database Release December 2017 Software v.3.8.6.4 2017-10-02
Report Run at: December 17, 2017 06:07 EST
"Nutrient data for: 45085754, KOON CHUN SAUCE FACTORY, PLUM SAUCE, UPC: 020717220157"
Food Group:  Branded Food Products Database
Common Name:

Nutrient,Unit,Data points,Std. Error,"1 Tbsp = 19.75g",1Value per 100 g,
Proximates
"Energy",kcal,--,--,50,253
"Protein",g,--,--,0.00,0.00
"Total lipid (fat)",g,--,--,0.00,0.00
"Carbohydrate, by difference",g,--,--,12.00,60.76
"Fiber, total dietary",g,--,--,0.0,0.0
"Sugars, total",g,--,--,11.00,55.70
Minerals
"Calcium, Ca",mg,--,--,0,0
"Iron, Fe",mg,--,--,1.22,6.16
"Sodium, Na",mg,--,--,350,1772
Vitamins
"Vitamin C, total ascorbic acid",mg,--,--,0.0,0.0
"Vitamin A, IU",IU,--,--,0,0
Lipids
"Fatty acids, total saturated",g,--,--,0.000,0.000
"Fatty acids, total trans",g,--,--,0.000,0.000
"Cholesterol",mg,--,--,0,0
Amino Acids
Other
Ingredients
"SUGAR, RICE VINEGAR, SALTED PLUM (PLUM, SALT), SWEET POTATO, GINGER, SALTED GARLIC (GARLIC, SALT), WATER & SALTED CHILI (CHILI, WATER, SALT)" Date available: 06/25/2017 Date last updated by company: 06/25/2017
