Source: USDA Branded Food Products Database Release December 2017 Software v.3.8.6.4 2017-10-02
Report Run at: December 17, 2017 06:08 EST
"Nutrient data for: 45145237, KOPPERS CHOCOLATE, MILK CHOCOLATE EASTER EGG MALTED MILK BALLS, UPC: 020439042747"
Food Group:  Branded Food Products Database
Common Name:

Nutrient,Unit,Data points,Std. Error,"0.25 cup = 40.0g",1Value per 100 g,
Proximates
"Energy",kcal,--,--,180,450
"Protein",g,--,--,1.00,2.50
"Total lipid (fat)",g,--,--,7.00,17.50
"Carbohydrate, by difference",g,--,--,30.00,75.00
"Fiber, total dietary",g,--,--,0.0,0.0
"Sugars, total",g,--,--,26.00,65.00
Minerals
"Calcium, Ca",mg,--,--,20,50
"Iron, Fe",mg,--,--,0.00,0.00
"Sodium, Na",mg,--,--,20,50
Vitamins
"Vitamin C, total ascorbic acid",mg,--,--,0.0,0.0
"Vitamin A, IU",IU,--,--,0,0
Lipids
"Fatty acids, total saturated",g,--,--,4.500,11.250
"Fatty acids, total trans",g,--,--,0.000,0.000
"Cholesterol",mg,--,--,5,12
Amino Acids
Other
Ingredients
"PURE MILK CHOCOLATE [CONTAINS: SUGAR, COCOA BUTTER, MILK, COCOA MASS, SOY LECITHIN (AN EMULSIFIER), VANILLA], CANE SUGAR, MALTED MILK BALLS: [CONTAINS: CORN SYRUP, SUGAR, MALTED MILK POWDER (BARLEY, MALT, WHEAT, MILK, BICARBONATE OF SODA, SALT), WHEY, VEGETABLE OILS (PALM KERNEL, PARTIALLY HYDROGENATED PALM, COCONUT OIL, MONO AND DIGLYCERIDES), COCOA (PROCESSED WITH ALKALAI), SKIM MILK, NATURAL AND ARTIFICIAL FLAVOR, AND SOY LECITHIN (AN EMULSIFIER)], US CERTIFIED COLORS INCLUDING: FD&C BLUE NO. 1, BLUE NO. 1 LAKE, BLUE NO. 2 LAKE, RED NO. 3, RED NO 40, RED NO. 40 LAKE, YELLOW NO. 5, YELLOW NO. 5 LAKE, YELLOW NO. 6 LAKE AND TITANIUM DIOXIDE, CONFECTIONERS GLAZE, CARNAUBA WAX, BEES WAX, GUM ARABIC, CORN SYRUP, CORN STARCH." Date available: 07/14/2017 Date last updated by company: 07/14/2017
