Source: USDA Branded Food Products Database Release December 2017 Software v.3.8.6.4 2017-10-02
Report Run at: December 17, 2017 06:08 EST
"Nutrient data for: 45154778, KOPPERS, RUM RAISIN, DARK CHOCOLATE, UPC: 020439050469"
Food Group:  Branded Food Products Database
Common Name:

Nutrient,Unit,Data points,Std. Error,"0.25 cup = 40.0g",1Value per 100 g,
Proximates
"Energy",kcal,--,--,180,450
"Protein",g,--,--,2.00,5.00
"Total lipid (fat)",g,--,--,10.00,25.00
"Carbohydrate, by difference",g,--,--,26.00,65.00
"Fiber, total dietary",g,--,--,2.0,5.0
"Sugars, total",g,--,--,15.00,37.50
Minerals
"Calcium, Ca",mg,--,--,20,50
"Iron, Fe",mg,--,--,1.80,4.50
"Sodium, Na",mg,--,--,0,0
Vitamins
"Vitamin C, total ascorbic acid",mg,--,--,0.0,0.0
"Vitamin A, IU",IU,--,--,0,0
Lipids
"Fatty acids, total saturated",g,--,--,6.000,15.000
"Fatty acids, total trans",g,--,--,0.000,0.000
"Cholesterol",mg,--,--,0,0
Amino Acids
Other
Ingredients
"DARK CHOCOLATE: [CONTAINS: SUGAR, COCOA MASS, COCOA BUTTER, SOY LECITHIN (AN EMULSIFIER), VANILLA], RAISINS (LESS THAN 1% SUNFLOWER OIL), CONFECTIONER'S GLAZE, GUM ARABIC, NATURAL AND ARTIFICIAL FLAVORS." Date available: 07/14/2017 Date last updated by company: 07/14/2017
