Source: USDA Branded Food Products Database Release December 2017 Software v.3.8.6.4 2017-10-02
Report Run at: December 17, 2017 06:10 EST
"Nutrient data for: 45257159, KOREAN STYLE STREET TACOS, UPC: 046567681863"
Food Group:  Branded Food Products Database
Common Name:

Nutrient,Unit,Data points,Std. Error,"1 TACO, WITH TOPPINGS 1.6OZ (45G) = 68.0g",1Value per 100 g,
Proximates
"Energy",kcal,--,--,210,309
"Protein",g,--,--,10.00,14.71
"Total lipid (fat)",g,--,--,7.00,10.29
"Carbohydrate, by difference",g,--,--,24.00,35.29
"Fiber, total dietary",g,--,--,2.0,2.9
"Sugars, total",g,--,--,5.00,7.35
Minerals
"Calcium, Ca",mg,--,--,100,147
"Iron, Fe",mg,--,--,1.44,2.12
"Sodium, Na",mg,--,--,400,588
Vitamins
"Vitamin C, total ascorbic acid",mg,--,--,6.0,8.8
"Vitamin A, IU",IU,--,--,300,441
Lipids
"Fatty acids, total saturated",g,--,--,2.502,3.680
"Fatty acids, total trans",g,--,--,0.000,0.000
"Cholesterol",mg,--,--,20,29
Amino Acids
Other
Ingredients
"COOKED BULGOGI SEASONED BEEF (BEEF, WATER, SOY SAUCE [WATER, WHEAT, SOYBEANS, SALT], SUGAR, RICE STARCH, RICE VINEGAR [REDUCED TO 5% ACIDITY], ROASTED SESAME SEED OIL, ONION AND GARLIC POWDER, SPICE, NATURAL FLAVOR), TORTILLA (WATER, ENRICHED FLOUR [WHEAT FLOUR, NIACIN, REDUCED IRON, THIAMINE MONONITRATE, RIBOFLAVIN, FOLIC ACID], ORGANIC YELLOW CORN MASA FLOUR, CANOLA OIL, PALM OIL, WHEAT GLUTEN, CONTAINS LESS THAN 2% OF BAKING SODA [SODIUM BICARBONATE], CITRIC ACID, CULTURED CORN SYRUP SOLIDS, ENZYMES, GUAR GUM, ORGANIC CANE SUGAR, CALCIUM ACID PYROPHOSPHATE, MONOCALCIUM PHOSPHATE, CALCIUM SULFATE, SEA SALT, TRACE OF LIME), CORN, KIMCHI (NAPA CABBAGE, RADISH, RED PEPPER, GARLIC, GINGER, SEA SALT, ONION, CANE SUGAR, WATER), MONTEREY JACK CHEESE (PASTEURIZED MILK, CHEESE CULTURE, SALT, ENZYMES, [POTATO STARCH AND POWDERED CELLULOSE {TO PREVENT CAKING}, NATAMYCIN {A NATURAL MOID INHIBITOR}]), WHITE MISO VINAIGRETTE (FILTERED WATER, ORGANIC WHOLE SOYBEANS, RICE, SEA SALT AND KOJI STARTER [ASPERGILLUS ORYZAE], WATER, SUGAR, RICE VINEGAR, PEANUT OIL, SOY SAUCE [CLEAR WATER, SALT, SOYBEANS, WHEAT, ALCOHOL {TO PRESERVE FRESHNESS}, LACTIC ACID, ACETIC ACID], SEA SALT, XANTHAN GUM), GREEN ONION, RED BELL PEPPER." Date available: 02/22/2017 Date last updated by company: 02/22/2017
