Source: USDA Branded Food Products Database Release December 2017 Software v.3.8.6.4 2017-10-02
Report Run at: December 17, 2017 06:09 EST
"Nutrient data for: 45045436, KOREAN BBQ SAUCE, UPC: 896859000120"
Food Group:  Branded Food Products Database
Common Name:

Nutrient,Unit,Data points,Std. Error,"2.0 Tbsp = 35.0g",1Value per 100 g,
Proximates
"Energy",kcal,--,--,45,129
"Protein",g,--,--,1.00,2.86
"Total lipid (fat)",g,--,--,0.00,0.00
"Carbohydrate, by difference",g,--,--,10.00,28.57
"Fiber, total dietary",g,--,--,0.0,0.0
"Sugars, total",g,--,--,8.00,22.86
Minerals
"Calcium, Ca",mg,--,--,0,0
"Iron, Fe",mg,--,--,1.22,3.48
"Sodium, Na",mg,--,--,630,1800
Vitamins
"Vitamin C, total ascorbic acid",mg,--,--,0.0,0.0
"Vitamin A, IU",IU,--,--,169,483
Lipids
"Fatty acids, total saturated",g,--,--,0.000,0.000
"Fatty acids, total trans",g,--,--,0.000,0.000
"Cholesterol",mg,--,--,0,0
Amino Acids
Other
Ingredients
"ORGANIC TAMARI SAUCE (WATER, ORGANIC SOYBEANS, SALT), WATER, ORGANIC CANE SUGAR, ORGANIC RICE VINEGAR, ORGANIC MOLASSES, ORGANIC TAPIOCA STARCH, ORGANIC JALAPENO PUREE (ORGANIC JALAPENO PEPPERS, SALT, ORGANIC VINEGAR, CALCIUM CHLORIDE, ORGANIC GINGER PUREE, ORGANIC GARLIC POWDER, ORGANIC DICED GARLIC, ORGANIC SESAME OIL, ORGANIC CAYENNE PEPPER, ORGANIC GARLIC GRANULES." Date available: 07/14/2017 Date last updated by company: 07/14/2017
