Source: USDA Branded Food Products Database Release December 2017 Software v.3.8.6.4 2017-10-02
Report Run at: December 17, 2017 06:10 EST
"Nutrient data for: 45204235, KOREAN HOT SAUCE, UPC: 861983000100"
Food Group:  Branded Food Products Database
Common Name:

Nutrient,Unit,Data points,Std. Error,"1 tsp = 5.0g",1Value per 100 g,
Proximates
"Energy",kcal,--,--,5,100
"Protein",g,--,--,0.00,0.00
"Total lipid (fat)",g,--,--,0.00,0.00
"Carbohydrate, by difference",g,--,--,1.00,20.00
"Sugars, total",g,--,--,1.00,20.00
Minerals
"Sodium, Na",mg,--,--,65,1300
Vitamins
Lipids
Amino Acids
Other
Ingredients
"WATER, BROWN SUGAR, APPLE CIDER VINEGAR, ORGANIC RICE SYRUP, HOT PEPPER POWDER, TAMARI SAUCE (WATER, ORGANIC WHOLE SOYBEANS, SALT), TOASTED SESAME OIL, SEA SALT, RICE FLOUR, GARLIC, CRUSHED RED PEPPER, GINGER, XANTHAN GUM, BLACK PEPPER, CAYENNE PEPPER." Date available: 07/14/2017 Date last updated by company: 07/14/2017
