Source: USDA Branded Food Products Database Release December 2017 Software v.3.8.6.4 2017-10-02
Report Run at: December 17, 2017 06:14 EST
"Nutrient data for: 45082070, KOSHER DILLS, UPC: 639277723987"
Food Group:  Branded Food Products Database
Common Name:

Nutrient,Unit,Data points,Std. Error,"1 PICKLE | ABOUT = 28.0g",1Value per 100 g,
Proximates
"Energy",kcal,--,--,5,18
"Protein",g,--,--,0.00,0.00
"Total lipid (fat)",g,--,--,0.00,0.00
"Carbohydrate, by difference",g,--,--,1.00,3.57
Minerals
"Sodium, Na",mg,--,--,220,786
Vitamins
Lipids
Amino Acids
Other
Ingredients
"CUCUMBERS, WATER, VINEGAR, SALT, CALCIUM CHLORIDE, POLYSORBATE 80, NATURAL FLAVORS, YELLOW 5." Date available: 06/25/2017 Date last updated by company: 06/25/2017
