Source: USDA Branded Food Products Database Release December 2017 Software v.3.8.6.4 2017-10-02
Report Run at: December 17, 2017 06:18 EST
"Nutrient data for: 45016245, KOYO, LEMONGRASS GINGER RAMEN NOODLES, UPC: 813551002122"
Food Group:  Branded Food Products Database
Common Name:

Nutrient,Unit,Data points,Std. Error,"1 PACKAGE = 60.0g",1Value per 100 g,
Proximates
"Energy",kcal,--,--,210,350
"Protein",g,--,--,8.00,13.33
"Total lipid (fat)",g,--,--,1.00,1.67
"Carbohydrate, by difference",g,--,--,43.00,71.67
"Fiber, total dietary",g,--,--,2.0,3.3
"Sugars, total",g,--,--,4.00,6.67
Minerals
"Calcium, Ca",mg,--,--,20,33
"Iron, Fe",mg,--,--,0.90,1.50
"Potassium, K",mg,--,--,130,217
"Sodium, Na",mg,--,--,620,1033
Vitamins
"Vitamin C, total ascorbic acid",mg,--,--,1.0,1.7
"Vitamin A, IU",IU,--,--,83,139
Lipids
"Fatty acids, total saturated",g,--,--,0.498,0.830
"Fatty acids, total trans",g,--,--,0.000,0.000
"Cholesterol",mg,--,--,0,0
Amino Acids
Other
Ingredients
"ORGANIC HEIRLOOM WHEAT FLOUR, SEA SLAT. SOUP PACKET: NATURAL SEA SALT, CHINESE MUSHROOM POWDER, VEGETABLE POWDERS (ONION, GARLIC), NATURAL CANE SUGAR, CHILI PEPPER, GINGER, BLACK PEPPER, LEMONGRASS, GREEN ONION, POWDER." Date available: 06/25/2017 Date last updated by company: 06/25/2017
