Source: USDA Branded Food Products Database Release December 2017 Software v.3.8.6.4 2017-10-02
Report Run at: December 17, 2017 06:18 EST
"Nutrient data for: 45093809, KOZLOWSKI FARM, OLD FASHIONED JAM, BOYSENBERRY, UPC: 081867100041"
Food Group:  Branded Food Products Database
Common Name:

Nutrient,Unit,Data points,Std. Error,"1 Tbsp = 20.0g",1Value per 100 g,
Proximates
"Energy",kcal,--,--,45,225
"Protein",g,--,--,0.00,0.00
"Total lipid (fat)",g,--,--,0.00,0.00
"Carbohydrate, by difference",g,--,--,12.00,60.00
"Fiber, total dietary",g,--,--,1.0,5.0
"Sugars, total",g,--,--,11.00,55.00
Minerals
"Calcium, Ca",mg,--,--,0,0
"Iron, Fe",mg,--,--,0.00,0.00
"Sodium, Na",mg,--,--,0,0
Vitamins
"Vitamin C, total ascorbic acid",mg,--,--,2.4,12.0
"Vitamin A, IU",IU,--,--,0,0
Lipids
"Fatty acids, total saturated",g,--,--,0.000,0.000
"Fatty acids, total trans",g,--,--,0.000,0.000
"Cholesterol",mg,--,--,0,0
Amino Acids
Other
Ingredients
"BOYSENBERRIES, PURE CANE SUGAR, SUGAR, FRUIT PECTIN, CITRIC ACID." Date available: 06/25/2017 Date last updated by company: 06/25/2017
