Source: USDA Branded Food Products Database Release December 2017 Software v.3.8.6.4 2017-10-02
Report Run at: December 17, 2017 06:18 EST
"Nutrient data for: 45094412, KOZLIK'S CANADIAN MUSTARD, REALLY HOT PREPARED MUSTARD, UPC: 850086000308"
Food Group:  Branded Food Products Database
Common Name:

Nutrient,Unit,Data points,Std. Error,"1 tsp = 5.0g",1Value per 100 g,
Proximates
"Energy",kcal,--,--,10,200
"Protein",g,--,--,0.00,0.00
"Total lipid (fat)",g,--,--,0.00,0.00
"Carbohydrate, by difference",g,--,--,1.00,20.00
"Sugars, total",g,--,--,0.00,0.00
Minerals
"Calcium, Ca",mg,--,--,0,0
"Iron, Fe",mg,--,--,0.00,0.00
"Sodium, Na",mg,--,--,35,700
Vitamins
Lipids
Amino Acids
Other
Ingredients
"MUSTARD SEED, WATER, DISTILLED VINEGAR, HABANERO PEPPERS, SEA SALT." Date available: 06/25/2017 Date last updated by company: 06/25/2017
