Source: USDA Branded Food Products Database Release December 2017 Software v.3.8.6.4 2017-10-02
Report Run at: December 17, 2017 06:20 EST
"Nutrient data for: 45292527, KRAUT KRISPS, UPC: 850273005451"
Food Group:  Branded Food Products Database
Common Name:

Nutrient,Unit,Data points,Std. Error,"1 ONZ = 28.0g",1Value per 100 g,
Proximates
"Energy",kcal,--,--,130,464
"Protein",g,--,--,2.00,7.14
"Total lipid (fat)",g,--,--,8.00,28.57
"Carbohydrate, by difference",g,--,--,14.00,50.00
"Fiber, total dietary",g,--,--,2.0,7.1
"Sugars, total",g,--,--,0.00,0.00
Minerals
"Calcium, Ca",mg,--,--,27,96
"Iron, Fe",mg,--,--,0.00,0.00
"Potassium, K",mg,--,--,53,189
"Sodium, Na",mg,--,--,200,714
Vitamins
"Vitamin D",IU,--,--,0,0
Lipids
"Fatty acids, total saturated",g,--,--,1.999,7.140
"Fatty acids, total trans",g,--,--,0.000,0.000
"Cholesterol",mg,--,--,0,0
Amino Acids
Other
Ingredients
"SAUERKRAUT* (GREEN CABBAGE*, WATER, SEA SALT), CORN FLOUR*, VEGETABLE OIL* (SUNFLOWER* AND/OR SAFFLOWER* AND/OR RED PALM OLEIN*), BROWN RICE FLOUR*, SEA SALT, DILL*, GARLIC*, VINEGAR POWDER*, ORGANIC INULIN*, BACILLUS COAGULANS GBI-30 6086, BLACK PEPPER*, CAYENNE*, DILL OIL." Date available: 09/23/2017 Date last updated by company: 09/23/2017
