Source: USDA Branded Food Products Database Release December 2017 Software v.3.8.6.4 2017-10-02
Report Run at: December 17, 2017 06:21 EST
"Nutrient data for: 45187846, KRAZY KRAUT, JUNIPER CARAWAY, UPC: 855515003448"
Food Group:  Branded Food Products Database
Common Name:

Nutrient,Unit,Data points,Std. Error,"0.5 cup = 71.0g",1Value per 100 g,
Proximates
"Energy",kcal,--,--,15,21
"Protein",g,--,--,1.00,1.41
"Total lipid (fat)",g,--,--,0.00,0.00
"Carbohydrate, by difference",g,--,--,4.00,5.63
"Fiber, total dietary",g,--,--,2.0,2.8
"Sugars, total",g,--,--,2.00,2.82
Minerals
"Calcium, Ca",mg,--,--,40,56
"Iron, Fe",mg,--,--,0.66,0.93
"Sodium, Na",mg,--,--,600,845
Vitamins
"Vitamin C, total ascorbic acid",mg,--,--,32.9,46.4
"Vitamin A, IU",IU,--,--,183,258
Lipids
"Fatty acids, total saturated",g,--,--,0.000,0.000
"Fatty acids, total trans",g,--,--,0.000,0.000
"Cholesterol",mg,--,--,0,0
Amino Acids
Other
Ingredients
"GREEN CABBAGE*, SEA SALT, GARLIC*, WATER, LEMON JUICE*, CARAWAY SEED*, YELLOW MUSTARD SEED*, JUNIPER BERRIES*, WAKAME SEAWEED, DULSE SEAWEED*" Date available: 07/14/2017 Date last updated by company: 07/14/2017
