Source: USDA Branded Food Products Database Release December 2017 Software v.3.8.6.4 2017-10-02
Report Run at: December 17, 2017 06:22 EST
"Nutrient data for: 45096065, KRINOS, TARAMOSALATA GREEK STYLE CAVIAR SPREAD, UPC: 075013250407"
Food Group:  Branded Food Products Database
Common Name:

Nutrient,Unit,Data points,Std. Error,"1 Tbsp = 11.0g",1Value per 100 g,
Proximates
"Energy",kcal,--,--,60,545
"Protein",g,--,--,1.00,9.09
"Total lipid (fat)",g,--,--,6.00,54.55
"Carbohydrate, by difference",g,--,--,0.00,0.00
"Fiber, total dietary",g,--,--,0.0,0.0
"Sugars, total",g,--,--,0.00,0.00
Minerals
"Calcium, Ca",mg,--,--,0,0
"Iron, Fe",mg,--,--,0.00,0.00
"Sodium, Na",mg,--,--,160,1455
Vitamins
"Vitamin C, total ascorbic acid",mg,--,--,0.0,0.0
"Vitamin A, IU",IU,--,--,0,0
Lipids
"Fatty acids, total saturated",g,--,--,1.000,9.090
"Fatty acids, total trans",g,--,--,0.000,0.000
"Cholesterol",mg,--,--,10,91
Amino Acids
Other
Ingredients
"WATER, CANOLA OIL, CARP (FISH) ROE, LEMON, JUICE, VEGETABLE JUICE (COLOR), LOCTIC ACID AND ACETIC ACID." Date available: 10/13/2017 Date last updated by company: 10/13/2017
