Source: USDA Branded Food Products Database Release December 2017 Software v.3.8.6.4 2017-10-02
Report Run at: December 17, 2017 06:27 EST
"Nutrient data for: 45114153, KROGER, CARBMASTER, YOGURT, BLACKBERRY, UPC: 011110480514"
Food Group:  Branded Food Products Database
Common Name:

Nutrient,Unit,Data points,Std. Error,"1 CONTAINER = 170.0g",1Value per 100 g,
Proximates
"Energy",kcal,--,--,60,35
"Protein",g,--,--,8.99,5.29
"Total lipid (fat)",g,--,--,1.50,0.88
"Carbohydrate, by difference",g,--,--,4.00,2.35
"Fiber, total dietary",g,--,--,0.0,0.0
"Sugars, total",g,--,--,2.99,1.76
Minerals
"Calcium, Ca",mg,--,--,299,176
"Iron, Fe",mg,--,--,0.36,0.21
"Potassium, K",mg,--,--,26,15
"Sodium, Na",mg,--,--,95,56
Vitamins
"Vitamin C, total ascorbic acid",mg,--,--,0.0,0.0
"Vitamin A, IU",IU,--,--,400,235
"Vitamin D",IU,--,--,60,35
Lipids
"Fatty acids, total saturated",g,--,--,1.003,0.590
"Fatty acids, total trans",g,--,--,0.000,0.000
"Cholesterol",mg,--,--,5,3
Amino Acids
Other
Ingredients
"WATER, MILK PROTEIN CONCENTRATE, MILK ISOLATE CREAM, SKIM MILK, MODIFIED CORN STARCH, NATURAL FLAVOR, GLEATIN, TRICALCIUM PHOSPHATE, SODIUM MALIC ACID, PECTIN, AGAR, CULTURED DEXTROSE, RED 40, BLUE 1, VITAMIN A PALIMITE CULTURES WITH L. ACIDOPHILUS AND B. BEFITIN." Date available: 06/25/2017 Date last updated by company: 06/25/2017
