Source: USDA Branded Food Products Database Release December 2017 Software v.3.8.6.4 2017-10-02
Report Run at: December 17, 2017 06:29 EST
"Nutrient data for: 45120676, KROGER, CINNAMON DANISH, CINNAMON, UPC: 011110040794"
Food Group:  Branded Food Products Database
Common Name:

Nutrient,Unit,Data points,Std. Error,"1 DANISH = 56.0g",1Value per 100 g,
Proximates
"Energy",kcal,--,--,200,357
"Protein",g,--,--,3.00,5.36
"Total lipid (fat)",g,--,--,9.00,16.07
"Carbohydrate, by difference",g,--,--,28.00,50.00
"Fiber, total dietary",g,--,--,1.0,1.8
"Sugars, total",g,--,--,15.00,26.79
Minerals
"Calcium, Ca",mg,--,--,100,179
"Iron, Fe",mg,--,--,1.06,1.89
"Sodium, Na",mg,--,--,200,357
Vitamins
"Vitamin C, total ascorbic acid",mg,--,--,0.0,0.0
"Vitamin A, IU",IU,--,--,393,702
Lipids
"Fatty acids, total saturated",g,--,--,4.502,8.040
"Fatty acids, total monounsaturated",g,--,--,3.002,5.360
"Fatty acids, total polyunsaturated",g,--,--,1.002,1.790
"Fatty acids, total trans",g,--,--,0.000,0.000
"Cholesterol",mg,--,--,5,9
Amino Acids
Other
Ingredients
"ENRICHED FLOUR BLEACHED (WHEAT FLOUR, MALTED BARLEY FLOUR, NIACIN, REDUCED IRON, THIAMINE MONONITRATE, RIBOFLAVIN, FOLIC ACID), SUGAR, WATER, MARGARINE (PALM OIL, WATER, SALT, MONOGLYCERIDES, WHEY, SODIUM BENZOATE [PRESERVATIVE], NATURAL AND ARTIFICIAL FLAVOR, CITRIC ACID, BETA CAROTENE [COLOR], VITAMIN A PALMITATE), EGG WHITES, CONTAINS LESS THAN 2% OF EACH OF THE FOLLOWING: DEXTROSE, MONO-AND DIGLYCERIDES, DEFATTED SOY FLOUR, GUAR GUM, WHEAT GLUTEN, LEAVENING (SODIUM ACID PYROPHOSPHATE, BAKING SODA), AMMONIUM SULFATE, SALT, ENZYMES, CALCIUM SULFATE, AZODICARBONAMIDE, PRESERVATIVES (CALCIUM PROPIONATE, POTASSIUM SORBATE, TOCOPHEROLS), BETA CAROTENE COLOR, YEAST, EGGS, CINNAMON, PALM OIL, CALCIUM CARBONATE, CORN STARCH, COCOA (PROCESSED WITH ALKALI), FUMARIC ACID, MOLASSES, XANTHAN GUM, AGAR, SODIUM HEXAMETAPHOSPHATE, NONFAT MILK, WHEY, SODIUM STEAROYL LACTYLATE, ASCORBIC ACID ADDED AS A DOUGH CONDITIONER, NATURAL & ARTIFICIAL FLAVORS, TITANIUM DIOXIDE (COLOR), MONOCALCIUM PHOSPHATE, SOYBEAN OIL, SOY LECITHIN." Date available: 07/14/2017 Date last updated by company: 07/14/2017
