Source: USDA Branded Food Products Database Release December 2017 Software v.3.8.6.4 2017-10-02
Report Run at: December 17, 2017 06:35 EST
"Nutrient data for: 45121635, KROGER, DELUXE ICE CREAM, CHOCOLATE PARADISE, UPC: 011110507129"
Food Group:  Branded Food Products Database
Common Name:

Nutrient,Unit,Data points,Std. Error,"0.5 cup = 70.0g",1Value per 100 g,
Proximates
"Energy",kcal,--,--,150,214
"Protein",g,--,--,3.00,4.29
"Total lipid (fat)",g,--,--,7.00,10.00
"Carbohydrate, by difference",g,--,--,19.00,27.14
"Fiber, total dietary",g,--,--,1.0,1.4
"Sugars, total",g,--,--,14.00,20.00
Minerals
"Calcium, Ca",mg,--,--,100,143
"Iron, Fe",mg,--,--,0.81,1.16
"Potassium, K",mg,--,--,150,214
"Sodium, Na",mg,--,--,65,93
Vitamins
"Vitamin C, total ascorbic acid",mg,--,--,1.3,1.9
"Vitamin A, IU",IU,--,--,225,321
Lipids
"Fatty acids, total saturated",g,--,--,3.997,5.710
"Fatty acids, total trans",g,--,--,0.000,0.000
"Cholesterol",mg,--,--,25,36
Amino Acids
Other
Ingredients
"MILK, CREAM, SUGAR, CORN SYRUP, COCOA PROCESSED WITH ALKALI, BUTTERMILK, WHEY, GUAR GUM, CELLULOSE GEL, CELLULOSE GUM, MONO AND DICLYCERIDES LOCUST BEAN GUM,POLYSORABATE 80, CARRAGEENAN." Date available: 06/25/2017 Date last updated by company: 06/25/2017
