Source: USDA Branded Food Products Database Release December 2017 Software v.3.8.6.4 2017-10-02
Report Run at: December 17, 2017 06:45 EST
"Nutrient data for: 45242457, KROGER, 100% LEMON JUICE, UPC: 011110702074"
Food Group:  Branded Food Products Database
Common Name:

Nutrient,Unit,Data points,Std. Error,"1 tsp = 5.0g",1Value per 100 g,
Proximates
"Energy",kcal,--,--,0,0
"Protein",g,--,--,0.00,0.00
"Total lipid (fat)",g,--,--,0.00,0.00
"Carbohydrate, by difference",g,--,--,0.00,0.00
"Sugars, total",g,--,--,0.00,0.00
Minerals
"Sodium, Na",mg,--,--,0,0
Vitamins
Lipids
Amino Acids
Other
Ingredients
"LEMON JUICE CONCENTRATE (WATER,CONCENTRATED LEMON JUICE), SODIUM BISULFATE (PRESERVATIVE), LEMON OIL, SODIUM BENZONATE (PRESERVATIVE)." Date available: 08/28/2017 Date last updated by company: 08/28/2017
