Source: USDA Branded Food Products Database Release December 2017 Software v.3.8.6.4 2017-10-02
Report Run at: December 17, 2017 06:53 EST
"Nutrient data for: 45171153, KROGER, PRE-SLICED MINI BAGELS, PLAIN, UPC: 011110879714"
Food Group:  Branded Food Products Database
Common Name:

Nutrient,Unit,Data points,Std. Error,"1 BAGEL = 43.0g",1Value per 100 g,
Proximates
"Energy",kcal,--,--,110,256
"Protein",g,--,--,4.00,9.30
"Total lipid (fat)",g,--,--,0.50,1.16
"Carbohydrate, by difference",g,--,--,24.00,55.81
"Fiber, total dietary",g,--,--,1.0,2.3
"Sugars, total",g,--,--,3.00,6.98
Minerals
"Calcium, Ca",mg,--,--,40,93
"Iron, Fe",mg,--,--,3.69,8.57
"Sodium, Na",mg,--,--,220,512
Vitamins
"Vitamin C, total ascorbic acid",mg,--,--,0.0,0.0
"Thiamin",mg,--,--,0.430,1.000
"Riboflavin",mg,--,--,0.136,0.316
"Niacin",mg,--,--,2.046,4.758
"Vitamin A, IU",IU,--,--,0,0
Lipids
"Fatty acids, total saturated",g,--,--,0.000,0.000
"Fatty acids, total monounsaturated",g,--,--,0.000,0.000
"Fatty acids, total polyunsaturated",g,--,--,0.000,0.000
"Fatty acids, total trans",g,--,--,0.000,0.000
"Cholesterol",mg,--,--,0,0
Amino Acids
Other
Ingredients
"ENRICHED FLOUR (WHEAT FLOUR, MALTED BARLEY FLOUR, NIACIN, REDUCED IRON, THIAMINE MONONITRATE, RIBOFLAVIN, FOLIC ACID), WATER, SUGAR, CONTAINS LESS THAN 2% OF EACH OF THE FOLLOWING: YEAST, SALT, GUAR GUM, SOYBEAN OIL, WHEAT FLOUR, CALCIUM PROPIONATE (PRESERVATIVE), WHEAT GLUTEN, MONOGLYCERIDES, CITRIC ACID (PRESERVATIVE), SORBIC ACID (PRESERVATIVE), ENZYMES, HYDROGENATED SOYBEAN OIL, DEGERMINATED YELLOW CORN MEAL, PROPIONIC ACID (PRESERVATIVE), PHOSPHORIC ACID (PRESERVATIVE)." Date available: 07/14/2017 Date last updated by company: 07/14/2017
