Source: USDA Branded Food Products Database Release December 2017 Software v.3.8.6.4 2017-10-02
Report Run at: December 17, 2017 06:34 EST
"Nutrient data for: 45120681, KROGER, DELUXE CHURNED REDUCED FAT ICE CREAM, VIVIDLY VANILLA, UPC: 011110014238"
Food Group:  Branded Food Products Database
Common Name:

Nutrient,Unit,Data points,Std. Error,"0.5 cup = 65.0g",1Value per 100 g,
Proximates
"Energy",kcal,--,--,100,154
"Protein",g,--,--,4.00,6.15
"Total lipid (fat)",g,--,--,3.00,4.62
"Carbohydrate, by difference",g,--,--,16.00,24.62
"Fiber, total dietary",g,--,--,1.0,1.5
"Sugars, total",g,--,--,5.00,7.69
Minerals
"Calcium, Ca",mg,--,--,150,231
"Iron, Fe",mg,--,--,0.00,0.00
"Sodium, Na",mg,--,--,60,92
Vitamins
"Vitamin C, total ascorbic acid",mg,--,--,1.4,2.1
"Vitamin A, IU",IU,--,--,450,692
Lipids
"Fatty acids, total saturated",g,--,--,2.002,3.080
"Fatty acids, total trans",g,--,--,0.000,0.000
"Cholesterol",mg,--,--,15,23
Amino Acids
Other
Ingredients
"MILK AND SKIM MILK, MALTODEXTRIN CREAM, MALTITOL, GLYCEROL, POYDEXTROSE, PROPYLENE GLYCOL MONOESTERS, GUAR GUM, MONO-AND DIGLYCERIDES, CELLLULOSE GEL, LOCUST BEAN GUM, CELLULOSE GUM, CARRAGEENAN, NATURAL AND ARTIFICIAL FLAVORS, SUCRALOSE, ENZYMES, ANNATTO (FOR COLOR), VITAMIN A PALMITATE." Date available: 07/14/2017 Date last updated by company: 07/14/2017
