Source: USDA Branded Food Products Database Release December 2017 Software v.3.8.6.4 2017-10-02
Report Run at: December 17, 2017 06:24 EST
"Nutrient data for: 45099221, KROGER, APRICOT PRESERVES, APRICOT, UPC: 011110718082"
Food Group:  Branded Food Products Database
Common Name:

Nutrient,Unit,Data points,Std. Error,"1 Tbsp = 20.0g",1Value per 100 g,
Proximates
"Energy",kcal,--,--,40,200
"Protein",g,--,--,0.00,0.00
"Total lipid (fat)",g,--,--,0.00,0.00
"Carbohydrate, by difference",g,--,--,10.00,50.00
"Sugars, total",g,--,--,7.00,35.00
Minerals
"Sodium, Na",mg,--,--,0,0
Vitamins
"Vitamin C, total ascorbic acid",mg,--,--,4.1,20.3
Lipids
Amino Acids
Other
Ingredients
"APRICOTS, HIGH FRUCTOSE CORN SYRUP, CORN SYRUP, SUGAR, CITRIC ACID, FRUIT PECTIN." Date available: 07/14/2017 Date last updated by company: 07/14/2017
