Source: USDA Branded Food Products Database Release December 2017 Software v.3.8.6.4 2017-10-02
Report Run at: December 17, 2017 06:56 EST
"Nutrient data for: 45120665, KROGER, SALTINES WHEAT CRACK-ARRRS, UPC: 011110090973"
Food Group:  Branded Food Products Database
Common Name:

Nutrient,Unit,Data points,Std. Error,"5.0 CRACKERS = 14.0g",1Value per 100 g,
Proximates
"Energy",kcal,--,--,60,429
"Protein",g,--,--,1.00,7.14
"Total lipid (fat)",g,--,--,1.00,7.14
"Carbohydrate, by difference",g,--,--,10.00,71.43
"Fiber, total dietary",g,--,--,1.0,7.1
"Sugars, total",g,--,--,0.00,0.00
Minerals
"Calcium, Ca",mg,--,--,20,143
"Iron, Fe",mg,--,--,1.29,9.18
"Sodium, Na",mg,--,--,100,714
Vitamins
"Vitamin C, total ascorbic acid",mg,--,--,0.0,0.0
"Vitamin A, IU",IU,--,--,0,0
Lipids
"Fatty acids, total saturated",g,--,--,0.000,0.000
"Fatty acids, total monounsaturated",g,--,--,0.000,0.000
"Fatty acids, total polyunsaturated",g,--,--,0.500,3.570
"Fatty acids, total trans",g,--,--,0.000,0.000
"Cholesterol",mg,--,--,0,0
Amino Acids
Other
Ingredients
"ENRICHED FLOUR (WHEAT FLOUR (WHEAT FLOUR, BARLEY MALT, NIACIN, REDUCED IRON, THIAMINE MONONITRATE, RIBOFLAVIN, FOLIC ACID), WHOLE WHEAT FLOUR, WATER, SOYBEAN OIL (WITH TBHQ [ANTIOXIDANT]), YEAST, SUGAR, SALT, BAKING SODA, CARAMEL COLOR, CALCIUM SULFATE, AMMONIUM SULFATE, WHEY, ENZYMES." Date available: 07/14/2017 Date last updated by company: 07/14/2017
