Source: USDA Branded Food Products Database Release December 2017 Software v.3.8.6.4 2017-10-02
Report Run at: December 17, 2017 06:44 EST
"Nutrient data for: 45116863, KROGER, JELLY BEANS CANDIES, UPC: 041260362798"
Food Group:  Branded Food Products Database
Common Name:

Nutrient,Unit,Data points,Std. Error,"14.0 PIECES = 41.0g",1Value per 100 g,
Proximates
"Energy",kcal,--,--,150,366
"Protein",g,--,--,0.00,0.00
"Total lipid (fat)",g,--,--,0.00,0.00
"Carbohydrate, by difference",g,--,--,37.00,90.24
"Fiber, total dietary",g,--,--,0.0,0.0
"Sugars, total",g,--,--,33.00,80.49
Minerals
"Calcium, Ca",mg,--,--,0,0
"Iron, Fe",mg,--,--,0.00,0.00
"Sodium, Na",mg,--,--,0,0
Vitamins
"Vitamin C, total ascorbic acid",mg,--,--,0.0,0.0
"Vitamin A, IU",IU,--,--,0,0
Lipids
"Fatty acids, total saturated",g,--,--,0.000,0.000
"Fatty acids, total trans",g,--,--,0.000,0.000
"Cholesterol",mg,--,--,0,0
Amino Acids
Other
Ingredients
"SUGAR, CORN SYRUP, CORN STARCH, MODIFIED CORN STARCH, CONFECTIONER'S GLAZE, ARTIFICIAL AND NATURAL FLAVORS, CARNAUBA WAX, BEESWAX, YELLOW 6, YELLOW 5, RED 40, BLUE 1, RED 3." Date available: 07/14/2017 Date last updated by company: 07/14/2017
