Source: USDA Branded Food Products Database Release December 2017 Software v.3.8.6.4 2017-10-02
Report Run at: December 17, 2017 06:35 EST
"Nutrient data for: 45120717, KROGER, DELUXE ICE CREAM, ROCKY ROAD, UPC: 011110507259"
Food Group:  Branded Food Products Database
Common Name:

Nutrient,Unit,Data points,Std. Error,"0.5 cup = 70.0g",1Value per 100 g,
Proximates
"Energy",kcal,--,--,160,229
"Protein",g,--,--,3.00,4.29
"Total lipid (fat)",g,--,--,8.00,11.43
"Carbohydrate, by difference",g,--,--,21.00,30.00
"Fiber, total dietary",g,--,--,1.0,1.4
"Sugars, total",g,--,--,15.00,21.43
Minerals
"Calcium, Ca",mg,--,--,100,143
"Iron, Fe",mg,--,--,0.81,1.16
"Potassium, K",mg,--,--,130,186
"Sodium, Na",mg,--,--,100,143
Vitamins
"Vitamin C, total ascorbic acid",mg,--,--,1.3,1.9
"Vitamin A, IU",IU,--,--,225,321
Lipids
"Fatty acids, total saturated",g,--,--,3.997,5.710
"Fatty acids, total trans",g,--,--,0.000,0.000
"Cholesterol",mg,--,--,25,36
Amino Acids
Other
Ingredients
"MILK, CREAM, SUGAR, CORN SYRUP, ROASTED ALMONDS (ALMONDS, CANOLA OIL, BUTTER [CREAM, SALT], SALT), COCOA PROCESSED WITH ALKALI, BUTTERMILK, WHEY, HIGH FRUCTOSE CORN SYRUP, DEXTROSE, CELLULOSE GEL, GUAR GUM, CELLULOSE GUM, MONO- AND DIGLYCERIDES, MODIFIED POTATO STARCH, LOCUST BEAN GUM, GUM ARABIC, PECTIN, POLYSORBATE 80, SODIUM CITRATE, CITRIC ACID, NATURAL FLAVORS, XANTHAN GUM, CARRAGEENAN." Date available: 07/14/2017 Date last updated by company: 07/14/2017
