Source: USDA Branded Food Products Database Release December 2017 Software v.3.8.6.4 2017-10-02
Report Run at: December 17, 2017 06:35 EST
"Nutrient data for: 45095612, KROGER, DICED PEARS SNACK BOWLS, UPC: 011110906618"
Food Group:  Branded Food Products Database
Common Name:

Nutrient,Unit,Data points,Std. Error,"1 BOWL = 108.0g",1Value per 100 g,
Proximates
"Energy",kcal,--,--,30,28
"Protein",g,--,--,0.00,0.00
"Total lipid (fat)",g,--,--,0.00,0.00
"Carbohydrate, by difference",g,--,--,7.00,6.48
"Fiber, total dietary",g,--,--,3.0,2.8
"Sugars, total",g,--,--,4.00,3.70
Minerals
"Calcium, Ca",mg,--,--,0,0
"Iron, Fe",mg,--,--,0.00,0.00
"Potassium, K",mg,--,--,45,42
"Sodium, Na",mg,--,--,0,0
Vitamins
"Vitamin C, total ascorbic acid",mg,--,--,77.8,72.0
"Vitamin A, IU",IU,--,--,0,0
Lipids
"Fatty acids, total saturated",g,--,--,0.000,0.000
"Fatty acids, total trans",g,--,--,0.000,0.000
"Cholesterol",mg,--,--,0,0
Amino Acids
Other
Ingredients
"PEARS, WATER, ASCORBIC ACID (VITAMIN C) TO PROTECT COLOR, CITRIC ACID, SUCRALOSE AND ACESULFAME K" Date available: 09/13/2017 Date last updated by company: 09/13/2017
