Source: USDA Branded Food Products Database Release December 2017 Software v.3.8.6.4 2017-10-02
Report Run at: December 17, 2017 06:29 EST
"Nutrient data for: 45308152, KROGER, CHOCOLATE SANDWICH COOKIES, CHOCOLATE, UPC: 011110087188"
Food Group:  Branded Food Products Database
Common Name:

Nutrient,Unit,Data points,Std. Error,"2.0 COOKIES = 30.0g",1Value per 100 g,
Proximates
"Energy",kcal,--,--,150,500
"Protein",g,--,--,1.00,3.33
"Total lipid (fat)",g,--,--,6.00,20.00
"Carbohydrate, by difference",g,--,--,23.00,76.67
"Fiber, total dietary",g,--,--,1.0,3.3
"Sugars, total",g,--,--,14.00,46.67
Minerals
"Calcium, Ca",mg,--,--,0,0
"Iron, Fe",mg,--,--,1.20,4.00
"Sodium, Na",mg,--,--,135,450
Vitamins
"Vitamin C, total ascorbic acid",mg,--,--,0.0,0.0
"Vitamin A, IU",IU,--,--,0,0
Lipids
"Fatty acids, total saturated",g,--,--,3.000,10.000
"Fatty acids, total monounsaturated",g,--,--,2.499,8.330
"Fatty acids, total polyunsaturated",g,--,--,0.999,3.330
"Fatty acids, total trans",g,--,--,0.000,0.000
"Cholesterol",mg,--,--,0,0
Amino Acids
Other
Ingredients
"SUGAR, ENRICHED FLOUR (BLEACHED WHEAT FLOUR, NIACIN, REDUCED IRON, THIAMINE MONONITRATE, RIBOFLAVIN, FOLIC ACID), CANOLA ANDOR SOYBEAN (WITH TBHQ [PRESERVATIVE]) AND/OR PALM OIL, DEXTROSE, COCOA PROCESSED WITH ALKALI. CONTAINS 2% OR LESS OF: COCOA, HIGH FRUCTOSE CORN SYRUP, CORN STARCH, SALT, LEAVENING (BAKING SODA, CALCIUM PHOSPHATE), SOY LECITHIN, NATURAL AND ARTIFICIAL CHOCOLATE FLAVOR, NATURAL AND ARTIFICIAL FLAVOR." Date available: 06/25/2017 Date last updated by company: 06/25/2017
