Source: USDA Branded Food Products Database Release December 2017 Software v.3.8.6.4 2017-10-02
Report Run at: December 17, 2017 06:56 EST
"Nutrient data for: 45123775, KROGER, SELECTS CHICKEN & CHEESE CORNBREAD SANDWICHES, UPC: 011110870261"
Food Group:  Branded Food Products Database
Common Name:

Nutrient,Unit,Data points,Std. Error,"1 SANDWICH = 133.0g",1Value per 100 g,
Proximates
"Energy",kcal,--,--,380,286
"Protein",g,--,--,14.00,10.53
"Total lipid (fat)",g,--,--,19.01,14.29
"Carbohydrate, by difference",g,--,--,35.01,26.32
"Fiber, total dietary",g,--,--,0.0,0.0
"Sugars, total",g,--,--,11.00,8.27
Minerals
"Calcium, Ca",mg,--,--,150,113
"Iron, Fe",mg,--,--,0.92,0.69
"Sodium, Na",mg,--,--,770,579
Vitamins
"Vitamin C, total ascorbic acid",mg,--,--,0.0,0.0
"Vitamin A, IU",IU,--,--,64,48
Lipids
"Fatty acids, total saturated",g,--,--,4.003,3.010
"Fatty acids, total trans",g,--,--,0.000,0.000
"Cholesterol",mg,--,--,80,60
Amino Acids
Other
Ingredients
"CORN BREAD: ENRICHED FLOUR (WHEAT FLOUR, MALTED BARLEY FLOUR, NIACIN, REDUCED BARLEY IRON, THIAMINE, RIBOFLAVIN, FOLIC ACID), WHOLE EGGS, WATER, CORN OIL, CORN FLOUR, YELLOW CORNMEAL, INVERTED CANE SUGAR, SUGAR, BUTTERMILK, HONEY, BAKING POWDER (SODIUM ACID PYROPHOSPHATE, SODIUM BICARBONATE, CORN STARCH, MONOCALCIUM PHOSPHATE), SALT. COUNTRY STYLE BREADED CHICKEN: BONELESS CHICKEN BREAST MEAT WITH RIB MEAT, WATER, SEASONING (MODIFIED CORN STARCH, CARRAGEENAN), SALT, SODIUM PHOSPHATE, BREADED WITH ENRICHED WHEAT FLOUR (WHEAT FLOUR, NIACIN, REDUCED IRON, THIAMINE MONONITRATE, RIBOFLAVIN, FOLIC ACID), WATER, SALT, SPICES, LEAVENING (MONOCALCIUM PHOSPHATE, SODIUM BICARBONATE), WHEAT GLUTEN, DRIED GARLIC, SOYBEAN OIL, WHITE CORN FLOUR, YELLOW CORN FLOUR, DRIED ONION, SOY FLOUR, PAPRIKA (FOR COLOR), SPICE EXTRACTIVES. PROCESS AMERICAN WHITE CHEESE PRODUCT: CULTURED MILK AND SKIM MILK, WHEY, SALT, SODIUM CITRATE, MODIFIED CORN STARCH, ARTIFICIAL COLOR, SODIUM PHOSPHATE, SORBIC ACID, ENZYMES, SOY LECITHIN." Date available: 07/14/2017 Date last updated by company: 07/14/2017
