Source: USDA Branded Food Products Database Release December 2017 Software v.3.8.6.4 2017-10-02
Report Run at: December 17, 2017 07:04 EST
"Nutrient data for: 45064907, KROGER, WHOLE WHEAT WIDE EGG NOODLES MADE WITH 100% WHOLE GRAIN, UPC: 011110895608"
Food Group:  Branded Food Products Database
Common Name:

Nutrient,Unit,Data points,Std. Error,"1 cup = 56.0g",1Value per 100 g,
Proximates
"Energy",kcal,--,--,210,375
"Protein",g,--,--,8.00,14.29
"Total lipid (fat)",g,--,--,3.00,5.36
"Carbohydrate, by difference",g,--,--,40.00,71.43
"Fiber, total dietary",g,--,--,5.0,8.9
"Sugars, total",g,--,--,2.00,3.57
Minerals
"Calcium, Ca",mg,--,--,0,0
"Iron, Fe",mg,--,--,1.77,3.16
"Sodium, Na",mg,--,--,15,27
Vitamins
"Vitamin C, total ascorbic acid",mg,--,--,0.0,0.0
"Vitamin A, IU",IU,--,--,0,0
Lipids
"Fatty acids, total saturated",g,--,--,1.002,1.790
"Fatty acids, total trans",g,--,--,0.000,0.000
"Cholesterol",mg,--,--,65,116
Amino Acids
Other
Ingredients
"DURUM WHOLE WHEAT FLOUR, EGGS." Date available: 07/14/2017 Date last updated by company: 07/14/2017
