Source: USDA Branded Food Products Database Release December 2017 Software v.3.8.6.4 2017-10-02
Report Run at: December 17, 2017 07:01 EST
"Nutrient data for: 45112202, KROGER, TRADITIONAL FAVORITES BROCCOLI SPEARS, UPC: 011110870285"
Food Group:  Branded Food Products Database
Common Name:

Nutrient,Unit,Data points,Std. Error,"2.0 SPEARS = 89.0g",1Value per 100 g,
Proximates
"Energy",kcal,--,--,30,34
"Protein",g,--,--,2.00,2.25
"Total lipid (fat)",g,--,--,0.00,0.00
"Carbohydrate, by difference",g,--,--,4.00,4.49
"Fiber, total dietary",g,--,--,2.0,2.2
"Sugars, total",g,--,--,2.00,2.25
Minerals
"Calcium, Ca",mg,--,--,40,45
"Iron, Fe",mg,--,--,0.00,0.00
"Sodium, Na",mg,--,--,25,28
Vitamins
"Vitamin C, total ascorbic acid",mg,--,--,28.7,32.2
"Vitamin A, IU",IU,--,--,95,107
Lipids
"Fatty acids, total saturated",g,--,--,0.000,0.000
"Fatty acids, total trans",g,--,--,0.000,0.000
"Cholesterol",mg,--,--,0,0
Amino Acids
Other
Ingredients
"BROCCOLI." Date available: 07/14/2017 Date last updated by company: 07/14/2017
