Source: USDA Branded Food Products Database Release December 2017 Software v.3.8.6.4 2017-10-02
Report Run at: December 17, 2017 07:00 EST
"Nutrient data for: 45090484, KROGER, SWISS CHEESE SINGLES, PASTEURIZED PROCESS CHEESE PRODUCT, UPC: 011110598073"
Food Group:  Branded Food Products Database
Common Name:

Nutrient,Unit,Data points,Std. Error,"1 SLICE = 21.0g",1Value per 100 g,
Proximates
"Energy",kcal,--,--,70,333
"Protein",g,--,--,4.00,19.05
"Total lipid (fat)",g,--,--,5.00,23.81
"Carbohydrate, by difference",g,--,--,1.00,4.76
"Fiber, total dietary",g,--,--,0.0,0.0
"Sugars, total",g,--,--,1.00,4.76
Minerals
"Calcium, Ca",mg,--,--,150,714
"Iron, Fe",mg,--,--,0.00,0.00
"Sodium, Na",mg,--,--,260,1238
Vitamins
"Vitamin C, total ascorbic acid",mg,--,--,0.0,0.0
"Vitamin A, IU",IU,--,--,476,2267
Lipids
"Fatty acids, total saturated",g,--,--,3.001,14.290
"Fatty acids, total trans",g,--,--,0.000,0.000
"Cholesterol",mg,--,--,15,71
Amino Acids
Other
Ingredients
"SWISS CHEESE (PART SKIM MILK, CHEESE CULTURE, SALT, ENZYMES, AGED OVER 60 DAYS), AMERICAN CHEESE (PASTEURIZED MILK, CHEESE CULTURE, SALT, ENZYMES), MONTEREY CHEESE (PASTEURIZED MILK, CHEESE CULTURE, SALT, ENZYMES), WATER, WHEY, MILK FAT, SKIM MILK, MODIFIED WHEY, SODIUM CITRATE, MILK PROTEIN CONCENTRATE, SALT, SORBIC ACID (PRESERVATIVE)." Date available: 06/25/2017 Date last updated by company: 06/25/2017
