Source: USDA Branded Food Products Database Release December 2017 Software v.3.8.6.4 2017-10-02
Report Run at: December 17, 2017 07:00 EST
"Nutrient data for: 45102550, KROGER, STRAWBERRY SPREADABLE FRUIT, UPC: 011110728753"
Food Group:  Branded Food Products Database
Common Name:

Nutrient,Unit,Data points,Std. Error,"1 Tbsp = 19.0g",1Value per 100 g,
Proximates
"Energy",kcal,--,--,35,184
"Protein",g,--,--,0.00,0.00
"Total lipid (fat)",g,--,--,0.00,0.00
"Carbohydrate, by difference",g,--,--,9.00,47.37
"Sugars, total",g,--,--,8.00,42.11
Minerals
"Sodium, Na",mg,--,--,0,0
Vitamins
Lipids
Amino Acids
Other
Ingredients
"FRUIT SYRUP, STRAWBERRIES, APPLE JUICE CONCENTRATE, FRUIT PECTIN, CITRIC ACID, GRAPE JUICE CONCENTRATE (FOR COLOR), NATURAL FLAVOR, CALCIUM CITRATE." Date available: 06/25/2017 Date last updated by company: 06/25/2017
