Source: USDA Branded Food Products Database Release December 2017 Software v.3.8.6.4 2017-10-02
Report Run at: December 17, 2017 06:32 EST
"Nutrient data for: 45171520, KROGER, CREAM CHEESE SPREAD, BLUEBERRY AND LEMON ZEST, UPC: 011110864567"
Food Group:  Branded Food Products Database
Common Name:

Nutrient,Unit,Data points,Std. Error,"2.0 Tbsp = 30.0g",1Value per 100 g,
Proximates
"Energy",kcal,--,--,100,333
"Protein",g,--,--,1.00,3.33
"Total lipid (fat)",g,--,--,8.00,26.67
"Carbohydrate, by difference",g,--,--,6.00,20.00
"Fiber, total dietary",g,--,--,0.0,0.0
"Sugars, total",g,--,--,6.00,20.00
Minerals
"Calcium, Ca",mg,--,--,20,67
"Iron, Fe",mg,--,--,0.00,0.00
"Sodium, Na",mg,--,--,85,283
Vitamins
"Vitamin C, total ascorbic acid",mg,--,--,0.0,0.0
"Vitamin A, IU",IU,--,--,500,1667
Lipids
"Fatty acids, total saturated",g,--,--,5.001,16.670
"Fatty acids, total trans",g,--,--,0.000,0.000
"Cholesterol",mg,--,--,25,83
Amino Acids
Other
Ingredients
"PASTEURIZED MILK AND CREAM, SUGAR, CRANBERRIES*, WATER, CHEESE CULTURE, LEMON PEEL, SALT, BLUEBERRIES*, GUAR GUM, GRAPE JUICE CONCENTRATE, LEMON JUICE CONCENTRATE, LEMON JUICE CONCENTRATE, POTASSIUM SORBATE (PRESERVATIVE), BLUEBERRY JUICE CONCENTRATE, NATURAL FLAVOR, CAROB BEAN GUM, XANTHAN GUM, LEMON OIL." Date available: 08/22/2017 Date last updated by company: 08/22/2017
