Source: USDA Branded Food Products Database Release December 2017 Software v.3.8.6.4 2017-10-02
Report Run at: December 17, 2017 06:36 EST
"Nutrient data for: 45162567, KROGER, DRINK MIX, PEACH MANGO, UPC: 011110020789"
Food Group:  Branded Food Products Database
Common Name:

Nutrient,Unit,Data points,Std. Error,"1 PACKET, MAKES 16.9 FL OZ. = 5.0g",1Value per 100 g,
Proximates
"Energy",kcal,--,--,15,300
"Protein",g,--,--,0.00,0.00
"Total lipid (fat)",g,--,--,0.00,0.00
"Carbohydrate, by difference",g,--,--,4.00,80.00
"Fiber, total dietary",g,--,--,0.0,0.0
"Sugars, total",g,--,--,0.00,0.00
Minerals
"Calcium, Ca",mg,--,--,0,0
"Iron, Fe",mg,--,--,0.00,0.00
"Sodium, Na",mg,--,--,5,100
Vitamins
"Vitamin C, total ascorbic acid",mg,--,--,0.0,0.0
"Vitamin A, IU",IU,--,--,0,0
Lipids
"Fatty acids, total saturated",g,--,--,0.000,0.000
"Fatty acids, total trans",g,--,--,0.000,0.000
"Cholesterol",mg,--,--,0,0
Amino Acids
Other
Ingredients
"MALTODEXTRIN, CITRIC ACID, MODIFIED CORN STARCH, SUCRALOSE, DEHYDRATED PEACH JUICE CONCENTRATE, NATURAL AND ARTIFICIAL FLAVORS, 2% OR LESS OF: ACESULFAME POTASSIUM, SODIUM CITRATE, MIXED TRIGLYCERIDES, CALCIUM SILICATE, POTASSIUM CITRATE, YELLOW 6, GUM ACACIA, ETHYL ACETATE, SUGAR**, TANNIC ACID, MANNITOL, TETRASODIUM PYROPHOSPHATE, SODIUM ASCORBATE, BHA, AND CARBOXYMETHYLCELLULOSE." Date available: 07/14/2017 Date last updated by company: 07/14/2017
