Source: USDA Branded Food Products Database Release December 2017 Software v.3.8.6.4 2017-10-02
Report Run at: December 17, 2017 07:03 EST
"Nutrient data for: 45193449, KROGER, VINDALOO SAUCE, UPC: 011110881373"
Food Group:  Branded Food Products Database
Common Name:

Nutrient,Unit,Data points,Std. Error,"0.5 cup = 118.0g",1Value per 100 g,
Proximates
"Energy",kcal,--,--,120,102
"Protein",g,--,--,1.99,1.69
"Total lipid (fat)",g,--,--,8.00,6.78
"Carbohydrate, by difference",g,--,--,11.00,9.32
"Fiber, total dietary",g,--,--,2.0,1.7
"Sugars, total",g,--,--,5.00,4.24
Minerals
"Calcium, Ca",mg,--,--,20,17
"Iron, Fe",mg,--,--,0.55,0.47
"Sodium, Na",mg,--,--,700,593
Vitamins
"Vitamin C, total ascorbic acid",mg,--,--,3.1,2.6
"Vitamin A, IU",IU,--,--,0,0
Lipids
"Fatty acids, total saturated",g,--,--,0.496,0.420
"Fatty acids, total trans",g,--,--,0.000,0.000
"Cholesterol",mg,--,--,0,0
Amino Acids
Other
Ingredients
"TOMATOES, ONIONS, WATER, CANOLA OIL, GARLIC, GINGER, SUGAR, SALT, CHILI POWDER (SPICES, SALT, CARAMEL, DEXTROSE), SPICES, MUSTARD FLOUR, CILANTRO, CITRIC ACID, MODIFIED CORN STARCH, TAMARIND, SODIUM BENZOATE (PRESERVATIVE), SPICE EXTRACT, DISODIUM EDTA (TO PROTECT FLAVOR)." Date available: 07/14/2017 Date last updated by company: 07/14/2017
