Source: USDA Branded Food Products Database Release December 2017 Software v.3.8.6.4 2017-10-02
Report Run at: December 17, 2017 06:41 EST
"Nutrient data for: 45126400, KROGER, GROUND BEEF, UPC: 011110979209"
Food Group:  Branded Food Products Database
Common Name:

Nutrient,Unit,Data points,Std. Error,"4.0 ONZ = 112.0g",1Value per 100 g,
Proximates
"Energy",kcal,--,--,349,312
"Protein",g,--,--,17.00,15.18
"Total lipid (fat)",g,--,--,31.00,27.68
"Carbohydrate, by difference",g,--,--,0.00,0.00
"Fiber, total dietary",g,--,--,0.0,0.0
"Sugars, total",g,--,--,0.00,0.00
Minerals
"Calcium, Ca",mg,--,--,20,18
"Iron, Fe",mg,--,--,1.37,1.22
"Sodium, Na",mg,--,--,75,67
Vitamins
"Vitamin C, total ascorbic acid",mg,--,--,0.0,0.0
"Vitamin A, IU",IU,--,--,0,0
Lipids
"Fatty acids, total saturated",g,--,--,11.995,10.710
"Cholesterol",mg,--,--,85,76
Amino Acids
Other
Ingredients
"GROUND BEEF." Date available: 07/14/2017 Date last updated by company: 07/14/2017
