Source: USDA Branded Food Products Database Release December 2017 Software v.3.8.6.4 2017-10-02
Report Run at: December 17, 2017 07:07 EST
"Nutrient data for: 45188232, KUCHENMEISTER, CAKE ROLL, STRAWBERRY, UPC: 4101540720604"
Food Group:  Branded Food Products Database
Common Name:

Nutrient,Unit,Data points,Std. Error,"0.2 CAKE = 80.0g",1Value per 100 g,
Proximates
"Energy",kcal,--,--,300,375
"Protein",g,--,--,3.00,3.75
"Total lipid (fat)",g,--,--,10.00,12.50
"Carbohydrate, by difference",g,--,--,50.00,62.50
"Fiber, total dietary",g,--,--,1.0,1.2
"Sugars, total",g,--,--,34.00,42.50
Minerals
"Sodium, Na",mg,--,--,190,238
Vitamins
Lipids
"Fatty acids, total saturated",g,--,--,4.000,5.000
"Fatty acids, total trans",g,--,--,0.000,0.000
"Cholesterol",mg,--,--,30,38
Amino Acids
Other
Ingredients
"CREAM FILLING [PALM FAT, GLUCOSE, FRUCTOSE, SUGAR, CANOLA OIL, HYDROGENATED PALM FAT, MONO-AND DIGLYCERIDES OF FATTY ACIDS (EMULSIFIER), SALT, NATURAL FLAVOR], STRAWBERRY FRUIT FILLING [GLUCOSE, FRUCTOSE, SUGAR, STRAWBERRIES, PECTINS (GELLING AGENT), ACIDITY REGULATORS (CITRIC ACID, SODIUM CITRATES), NATURAL FLAVOR, POTASSIUM SORBATE (PRESERVATIVE), ELDERBERRY JUICE CONCENTRATE], WHEAT FLOUR, SUGAR, EGGS, GLUCOSE, WHEAT STARCH, FRUCTOSE, COCOA ICING (SUGAR, HYDROGENATED PALM FAT, LOW FAT COCOA POWDER, EMULSIFIERS (SORBITAN TRISTEARATE , LECITHINS)], GLYCEROL (HUMECTANT), SKIMMED MILK POWDER, MILK PROTEIN, RAISING AGENT (PYROPHOSPHATES, SODIUM CARBONATES), ACIDITY REGULATORS (SODIUM ACETATES, CITRIC ACID), SALT, MONO- AND DIGLYCERIDES OF FATTY ACIDS (EMULSIFIER), POTASSIUM SORBATE (PRESERVATIVE), NATURAL FLAVOR." Date available: 10/19/2017 Date last updated by company: 10/19/2017
