Source: USDA Branded Food Products Database Release December 2017 Software v.3.8.6.4 2017-10-02
Report Run at: December 17, 2017 07:07 EST
"Nutrient data for: 45140430, KUHNE, YOGURT SALAD DRESSING, UPC: 039045392757"
Food Group:  Branded Food Products Database
Common Name:

Nutrient,Unit,Data points,Std. Error,"2.0 Tbsp = 30.0g",1Value per 100 g,
Proximates
"Energy",kcal,--,--,60,200
"Protein",g,--,--,1.00,3.33
"Total lipid (fat)",g,--,--,6.00,20.00
"Carbohydrate, by difference",g,--,--,3.00,10.00
"Sugars, total",g,--,--,2.00,6.67
Minerals
"Sodium, Na",mg,--,--,180,600
Vitamins
Lipids
"Fatty acids, total saturated",g,--,--,0.501,1.670
Amino Acids
Other
Ingredients
"WATER, SKIMMED MILK YOGURT (30%), RAPESEED OIL, GLUCOSE-FRUCTOSE SYRUP (FROM WHEAT AND CORN), SPIRIT VINEGAR, SUGAR, SALT, EGG YOLK, WHEY PRODUCT, THICKENING AGENTS: PECTIN, GUAR GUM AND LOCUST BEAN GUM, PARSLEY, LEMON JUICE CONCENTRATE, MODIFIED STARCH,ACIDITY REGULATORS: LACTIC ACID AND CITRIC ACID, DILL, NATURAL FLAVORING, SPICE." Date available: 10/13/2017 Date last updated by company: 10/13/2017
