Source: USDA Branded Food Products Database Release December 2017 Software v.3.8.6.4 2017-10-02
Report Run at: December 17, 2017 07:10 EST
"Nutrient data for: 45168559, KW COLLARDS, COLLARD GREENS, ORIGINAL, UPC: 628586539778"
Food Group:  Branded Food Products Database
Common Name:

Nutrient,Unit,Data points,Std. Error,"0.5 cup = 102.0g",1Value per 100 g,
Proximates
"Energy",kcal,--,--,100,98
"Protein",g,--,--,1.00,0.98
"Total lipid (fat)",g,--,--,9.00,8.82
"Carbohydrate, by difference",g,--,--,5.00,4.90
"Fiber, total dietary",g,--,--,2.0,2.0
"Sugars, total",g,--,--,1.00,0.98
Minerals
"Calcium, Ca",mg,--,--,60,59
"Iron, Fe",mg,--,--,0.46,0.45
"Sodium, Na",mg,--,--,35,34
Vitamins
"Vitamin C, total ascorbic acid",mg,--,--,34.4,33.7
"Vitamin A, IU",IU,--,--,3186,3124
Lipids
"Fatty acids, total saturated",g,--,--,1.499,1.470
"Fatty acids, total trans",g,--,--,0.000,0.000
"Cholesterol",mg,--,--,0,0
Amino Acids
Other
Ingredients
"COLLARDS, TOMATOES, PEPPERS, EXTRA VIRGIN OLIVE OIL, WATER, ONIONS, SPICES, VINEGAR, CITRIC ACID." Date available: 08/23/2017 Date last updated by company: 08/23/2017
