Source: USDA Branded Food Products Database Release December 2017 Software v.3.8.6.4 2017-10-02
Report Run at: December 17, 2017 07:10 EST
"Nutrient data for: 45091841, KYOSHIN, RICE CAKE WITH BERRY-FLAVORED BEAN PASTE, STRAWBERRY & BLUEBERRY, UPC: 011152181349"
Food Group:  Branded Food Products Database
Common Name:

Nutrient,Unit,Data points,Std. Error,"1.3 oz = 38.0g",1Value per 100 g,
Proximates
"Energy",kcal,--,--,120,316
"Protein",g,--,--,1.00,2.63
"Total lipid (fat)",g,--,--,0.00,0.00
"Carbohydrate, by difference",g,--,--,29.00,76.32
"Fiber, total dietary",g,--,--,1.0,2.6
"Sugars, total",g,--,--,28.00,73.68
Minerals
"Calcium, Ca",mg,--,--,0,0
"Iron, Fe",mg,--,--,0.00,0.00
"Sodium, Na",mg,--,--,0,0
Vitamins
"Vitamin C, total ascorbic acid",mg,--,--,0.0,0.0
"Vitamin A, IU",IU,--,--,0,0
Lipids
"Fatty acids, total saturated",g,--,--,0.000,0.000
"Fatty acids, total trans",g,--,--,0.000,0.000
"Cholesterol",mg,--,--,0,0
Amino Acids
Other
Ingredients
"GRANULATED SUGAR,GLUCOSE SYRUP (CORNSTARCH,WATER), BEAN PASTE (KIDNEY BEANS), MALTOSE, GLUCOSE RICE POWDER, HYDHOCEHATED GLUCOSE SYRUP , TRHALOSE, SORUNOL, CONCENTRATED FRUIT JUICE (STRAWBERRY, BLUEBERRY), GLYCERYL-LACTO ESTERS OF FATTY ACIDS, SODIUM ALGINATE, POTATO STARCH, ARTIFICIAL FALAVOR, RED NO.3, FDC&C BLUE NO.1, FD&C YELLOW NO,6," Date available: 05/24/2017 Date last updated by company: 05/24/2017
