Source: USDA Branded Food Products Database Release December 2017 Software v.3.8.6.4 2017-10-02
Report Run at: December 17, 2017 07:47 EST
"Nutrient data for: 45143240, L&A, ORGANIC SUPER FRUIT 100% JUICE, UPC: 041755990093"
Food Group:  Branded Food Products Database
Common Name:

Nutrient,Unit,Data points,Std. Error,"8.0 OZA = 237.0g",1Value per 100 g,
Proximates
"Energy",kcal,--,--,149,63
"Protein",g,--,--,0.00,0.00
"Total lipid (fat)",g,--,--,0.00,0.00
"Carbohydrate, by difference",g,--,--,37.00,15.61
"Sugars, total",g,--,--,34.01,14.35
Minerals
"Iron, Fe",mg,--,--,1.09,0.46
"Potassium, K",mg,--,--,590,249
"Sodium, Na",mg,--,--,14,6
Vitamins
"Vitamin C, total ascorbic acid",mg,--,--,27.3,11.5
Lipids
"Fatty acids, total saturated",g,--,--,0.000,0.000
"Fatty acids, total trans",g,--,--,0.000,0.000
"Cholesterol",mg,--,--,0,0
Amino Acids
Other
Ingredients
"ORGANIC POMEGRANATE, ORGANIC TART CHERRY, ORGANIC CONCORD GRAPE, ORGANIC ARONIABERRY, ORGANIC BLACK CARROT AND ORGANIC BLUEBERRY JUICES FROM CONCENTRATE (FILTERED WATER AND ORGANIC JUICE CONCENTRATES) AND NATURAL FLAVOR." Date available: 07/14/2017 Date last updated by company: 07/14/2017
