Source: USDA Branded Food Products Database Release December 2017 Software v.3.8.6.4 2017-10-02
Report Run at: December 17, 2017 07:10 EST
"Nutrient data for: 45193878, LA BANDERITA, CORN TORTILLAS, UPC: 027331011673"
Food Group:  Branded Food Products Database
Common Name:

Nutrient,Unit,Data points,Std. Error,"2.0 TORTILLA = 52.0g",1Value per 100 g,
Proximates
"Energy",kcal,--,--,110,212
"Protein",g,--,--,2.00,3.85
"Total lipid (fat)",g,--,--,1.00,1.92
"Carbohydrate, by difference",g,--,--,21.00,40.38
"Fiber, total dietary",g,--,--,3.0,5.8
"Sugars, total",g,--,--,0.00,0.00
Minerals
"Calcium, Ca",mg,--,--,20,38
"Iron, Fe",mg,--,--,0.76,1.46
"Sodium, Na",mg,--,--,20,38
Vitamins
"Vitamin C, total ascorbic acid",mg,--,--,0.6,1.2
"Vitamin A, IU",IU,--,--,0,0
Lipids
"Fatty acids, total saturated",g,--,--,0.998,1.920
"Fatty acids, total trans",g,--,--,0.000,0.000
"Cholesterol",mg,--,--,0,0
Amino Acids
Other
Ingredients
"WHOLE GRAIN CORN, WATER, CONTAINS 2% OR LESS OF EACH OF THE FOLLOWING: GUM BLEND, PRESERVATIVES (PROPIONIC ACID, SORBIC ACID, FUMARIC ACID, METHYL AND PROPYL PARABENS), ACIDITY REGULATORS (SODIUM HYDROXIDE, CALCIUM CARBONATE), LIME." Date available: 07/14/2017 Date last updated by company: 07/14/2017
