Source: USDA Branded Food Products Database Release December 2017 Software v.3.8.6.4 2017-10-02
Report Run at: December 17, 2017 07:13 EST
"Nutrient data for: 45176206, LA BREE'S BAKERY, MINI GOLD ICED CUPCAKES, UPC: 074555047483"
Food Group:  Branded Food Products Database
Common Name:

Nutrient,Unit,Data points,Std. Error,"3.0 CUPCAKES = 74.0g",1Value per 100 g,
Proximates
"Energy",kcal,--,--,300,405
"Protein",g,--,--,2.00,2.70
"Total lipid (fat)",g,--,--,15.00,20.27
"Carbohydrate, by difference",g,--,--,41.00,55.41
"Fiber, total dietary",g,--,--,1.0,1.4
"Sugars, total",g,--,--,35.00,47.30
Minerals
"Calcium, Ca",mg,--,--,0,0
"Iron, Fe",mg,--,--,1.17,1.58
"Sodium, Na",mg,--,--,260,351
Vitamins
"Vitamin C, total ascorbic acid",mg,--,--,0.0,0.0
"Vitamin A, IU",IU,--,--,0,0
Lipids
"Fatty acids, total saturated",g,--,--,6.001,8.110
"Fatty acids, total trans",g,--,--,0.000,0.000
"Cholesterol",mg,--,--,25,34
Amino Acids
Other
Ingredients
"SUGAR, WATER, BLEACHED ENRICHED WHEAT FLOUR (FLOUR, NIACIN, IRON, THIAMINE MONONITRATE, RIBOFLAVIN, FOLIC ACID), VEGETABLE SHORTENING (PALM OIL, MONO AND DIGLYCERIDES, POLYSORBATE 60), SOYBEAN OIL, EGGS, WATER, FOOD STARCH-MODIFIED, COCOA (PROCESSED WITH ALKALI), WHEY, WHEAT GLUTEN, DEXTROSE, SODIUM ALUMINUM PHOSPHATE, DEXTROSE, UNBLEACHED WHEAT FLOUR, SODIUM BICARBONATE, PROPYLENE GLYCOL MONOESTERS, SORBITAN MONO-STEARATE, POLYSORBATE 60, MONO AND DIGLYCERIDES, DATEM, SALT BETA CAROTENE, SODIUM ALGINATE, GUAR GUM, SOY LECITHIN (AN EMULSIFIER), XANTHAN GUM, CORN STARCH, NATURAL AND ARTIFICIAL FLAVORS, GUM ARABIC, CITRIC ACID, SODIUM PROPIONATE AND POTASSIUM SORBATE (PRESERVATIVES), PARTIALLY HYDROGENATED SOYBEAN AND COTTONSEED OILS, RICE FLOUR, CORN SYRUP, GLUCOSE, HYDROGENATED PALM KERNEL OIL, TITANIUM DIOXIDE, VANILLIN (ARTIFICIAL FLAVOR), CONFECTIONERS GLAZE, CARNAUBA WAX, YELLOW 5, YELLOW 6, RED 40, RED 3, BLUE 1, BLUE 1 LAKE, GREEN 3, PHOSPHORIC ACID." Date available: 07/14/2017 Date last updated by company: 07/14/2017
