Source: USDA Branded Food Products Database Release December 2017 Software v.3.8.6.4 2017-10-02
Report Run at: December 17, 2017 07:12 EST
"Nutrient data for: 45171384, LA BREA BAKERY, SLICED MULTIGRAIN ARTISAN SANDWICH BREAD, UPC: 013087901214"
Food Group:  Branded Food Products Database
Common Name:

Nutrient,Unit,Data points,Std. Error,"2.0 SLICES = 49.0g",1Value per 100 g,
Proximates
"Energy",kcal,--,--,130,265
"Protein",g,--,--,2.00,4.08
"Total lipid (fat)",g,--,--,4.00,8.16
"Carbohydrate, by difference",g,--,--,24.00,48.98
"Fiber, total dietary",g,--,--,3.0,6.1
"Sugars, total",g,--,--,3.00,6.12
Minerals
"Calcium, Ca",mg,--,--,60,122
"Iron, Fe",mg,--,--,2.75,5.62
"Sodium, Na",mg,--,--,310,633
Vitamins
"Vitamin C, total ascorbic acid",mg,--,--,0.0,0.0
"Vitamin A, IU",IU,--,--,0,0
Lipids
"Fatty acids, total saturated",g,--,--,0.000,0.000
"Fatty acids, total trans",g,--,--,0.000,0.000
"Cholesterol",mg,--,--,0,0
Amino Acids
Other
Ingredients
"WATER, GLUTEN FREE BLEND (CORN STARCH, MODIFIED TAPIOCA STARCH, TAPIOCA STARCH, POTATO STARCH, SORGHUM FLOUR, WHITE RICE FLOUR, BROWN RICE FLOUR, AMARANTH FLOUR), CANOLA OIL, SUGAR, PSYLLIUM, YEAST, CONTAINS 2% OR LESS OF: DRIED EGG WHITE, INVERT SUGAR, WHOLE FLAX SEEDS, CORN FLAKES, SUNFLOWER SEEDS, MILLET, PUMPKIN SEEDS, SALT, CULTURED CORN SYRUP SOLIDS, MOLASSES POWDER, MODIFIED CELLULOSE GUM, CELLULOSE GUM, POWDERED CELLULOSE, XANTHAN GUM, ENZYMES, NIACIN, REDUCED IRON, THIAMINE MONONITRATE, RIBOFLAVIN, FOLIC ACID." Date available: 07/14/2017 Date last updated by company: 07/14/2017
