Source: USDA Branded Food Products Database Release December 2017 Software v.3.8.6.4 2017-10-02
Report Run at: December 17, 2017 07:13 EST
"Nutrient data for: 45117961, LA CENA, GARBANZOS CHICK PEAS, UPC: 072728025047"
Food Group:  Branded Food Products Database
Common Name:

Nutrient,Unit,Data points,Std. Error,"0.25 cup = 50.0g",1Value per 100 g,
Proximates
"Energy",kcal,--,--,180,360
"Protein",g,--,--,10.00,20.00
"Total lipid (fat)",g,--,--,3.00,6.00
"Carbohydrate, by difference",g,--,--,30.00,60.00
"Fiber, total dietary",g,--,--,9.0,18.0
"Sugars, total",g,--,--,5.00,10.00
Minerals
"Calcium, Ca",mg,--,--,60,120
"Iron, Fe",mg,--,--,1.89,3.78
"Sodium, Na",mg,--,--,10,20
Vitamins
"Vitamin C, total ascorbic acid",mg,--,--,1.7,3.4
"Vitamin A, IU",IU,--,--,0,0
Lipids
"Fatty acids, total saturated",g,--,--,0.000,0.000
"Fatty acids, total trans",g,--,--,0.000,0.000
"Cholesterol",mg,--,--,0,0
Amino Acids
Other
Ingredients
"GARBANZO BEANS." Date available: 06/25/2017 Date last updated by company: 06/25/2017
