Source: USDA Branded Food Products Database Release December 2017 Software v.3.8.6.4 2017-10-02
Report Run at: December 17, 2017 07:16 EST
"Nutrient data for: 45165559, LA CONFITERIA DELAVIUDA, DARK - NOIR CHOCOLATE, UPC: 638564607061"
Food Group:  Branded Food Products Database
Common Name:

Nutrient,Unit,Data points,Std. Error,"40.0 GRM = 40.0g",1Value per 100 g,
Proximates
"Energy",kcal,--,--,220,550
"Protein",g,--,--,4.00,10.00
"Total lipid (fat)",g,--,--,15.00,37.50
"Carbohydrate, by difference",g,--,--,14.00,35.00
"Fiber, total dietary",g,--,--,4.0,10.0
"Sugars, total",g,--,--,12.00,30.00
Minerals
"Calcium, Ca",mg,--,--,20,50
"Iron, Fe",mg,--,--,4.50,11.25
"Sodium, Na",mg,--,--,0,0
Vitamins
"Vitamin C, total ascorbic acid",mg,--,--,0.0,0.0
"Vitamin A, IU",IU,--,--,0,0
Lipids
"Fatty acids, total saturated",g,--,--,9.000,22.500
"Fatty acids, total trans",g,--,--,0.000,0.000
"Cholesterol",mg,--,--,5,12
Amino Acids
Other
Ingredients
"COCOA MASS, SUGAR, COCOA BUTTER, EMULSIFIER: SOY LECITHIN, AND ARTIFICIAL FLAVOURING (VANILLIN). COCOA SOLIDS 70% MINIMUM." Date available: 07/14/2017 Date last updated by company: 07/14/2017
