Source: USDA Branded Food Products Database Release December 2017 Software v.3.8.6.4 2017-10-02
Report Run at: December 17, 2017 07:20 EST
"Nutrient data for: 45161960, LA DONA, LOLLIPOPS WITH CHILI, UPC: 855347000370"
Food Group:  Branded Food Products Database
Common Name:

Nutrient,Unit,Data points,Std. Error,"3.0 PIECES = 48.0g",1Value per 100 g,
Proximates
"Energy",kcal,--,--,180,375
"Protein",g,--,--,0.00,0.00
"Total lipid (fat)",g,--,--,0.00,0.00
"Carbohydrate, by difference",g,--,--,45.00,93.75
"Fiber, total dietary",g,--,--,0.0,0.0
"Sugars, total",g,--,--,45.00,93.75
Minerals
"Calcium, Ca",mg,--,--,0,0
"Iron, Fe",mg,--,--,0.00,0.00
"Sodium, Na",mg,--,--,300,625
Vitamins
"Vitamin C, total ascorbic acid",mg,--,--,0.0,0.0
"Vitamin A, IU",IU,--,--,0,0
Lipids
"Fatty acids, total saturated",g,--,--,0.000,0.000
"Fatty acids, total trans",g,--,--,0.000,0.000
"Cholesterol",mg,--,--,0,0
Amino Acids
Other
Ingredients
"SUGAR, CORN SYRUP, CITRIC ACID, TITANIUM DIOXIDE, POWDER OF ANCHO PEPPER, SALT, ARTIFICIAL FLAVORS AND COLORS (YELLOW #5)." Date available: 07/14/2017 Date last updated by company: 07/14/2017
