Source: USDA Branded Food Products Database Release December 2017 Software v.3.8.6.4 2017-10-02
Report Run at: December 17, 2017 07:21 EST
"Nutrient data for: 45031561, LA ESTRELLA, WHOLE WHEAT TOASTS, UPC: 071656001659"
Food Group:  Branded Food Products Database
Common Name:

Nutrient,Unit,Data points,Std. Error,"2.0 TOAST = 15.0g",1Value per 100 g,
Proximates
"Energy",kcal,--,--,60,400
"Protein",g,--,--,2.00,13.33
"Total lipid (fat)",g,--,--,2.00,13.33
"Carbohydrate, by difference",g,--,--,10.00,66.67
"Fiber, total dietary",g,--,--,1.0,6.7
"Sugars, total",g,--,--,1.00,6.67
Minerals
"Calcium, Ca",mg,--,--,0,0
"Iron, Fe",mg,--,--,0.00,0.00
"Sodium, Na",mg,--,--,55,367
Vitamins
"Vitamin C, total ascorbic acid",mg,--,--,0.0,0.0
"Vitamin A, IU",IU,--,--,0,0
Lipids
"Fatty acids, total saturated",g,--,--,1.000,6.670
"Fatty acids, total trans",g,--,--,0.000,0.000
"Cholesterol",mg,--,--,0,0
Amino Acids
Other
Ingredients
"WHEAT FLOUR (UNBLEACHED, UNBROMATED), WHOLE WHEAT FLOUR, WATER, VEGETABLE SHORTENING (SUNFLOWER, SOYBEAN), WHEY, MALT EXTRACT, DEXTROSE, YEAST, SALT, SOY LECITHIN, OAT FIBER, ASCORBIC ACID" Date available: 06/24/2017 Date last updated by company: 06/24/2017
