Source: USDA Branded Food Products Database Release December 2017 Software v.3.8.6.4 2017-10-02
Report Run at: December 17, 2017 07:24 EST
"Nutrient data for: 45205833, LA GELATERIA DI PIAZZA NAVONA, FROZEN DESSERT WITH CHOCOLATE SAUCE, COFFEE & CREAM, UPC: 826105000024"
Food Group:  Branded Food Products Database
Common Name:

Nutrient,Unit,Data points,Std. Error,"1 cup = 180.0g",1Value per 100 g,
Proximates
"Energy",kcal,--,--,211,117
"Protein",g,--,--,4.00,2.22
"Total lipid (fat)",g,--,--,10.01,5.56
"Carbohydrate, by difference",g,--,--,25.00,13.89
"Fiber, total dietary",g,--,--,1.1,0.6
"Sugars, total",g,--,--,23.99,13.33
Minerals
"Calcium, Ca",mg,--,--,101,56
"Iron, Fe",mg,--,--,0.27,0.15
"Sodium, Na",mg,--,--,45,25
Vitamins
"Vitamin C, total ascorbic acid",mg,--,--,0.0,0.0
"Vitamin A, IU",IU,--,--,38,21
Lipids
"Fatty acids, total saturated",g,--,--,7.002,3.890
"Fatty acids, total trans",g,--,--,0.000,0.000
"Cholesterol",mg,--,--,14,8
Amino Acids
Other
Ingredients
"SKIM MILK, CREAM, GLUCOSE SYRUP, COFFEE, SUGAR, CHOCOLATE SAUCE (WATER, SUGAR, DARK CHOCOLATE [COCOA PASTE, SUGAR, LOW FAT COCOA], GLUCOSE SYRUP, COCOA, AGAR, TARTARIC ACID), SKIM MILK POWDER, BUTTER, COCOA PREPARATION (COCOA, DEXTROSE, WHEAT STARCH, SUGAR, COCOA BUTTER), MONO AND DIGLYCERIDES OF FATTY ACIDS, LOCUST BEAN GUM, GUAR GUM, GROUND COFFEE" Date available: 08/07/2017 Date last updated by company: 08/07/2017
