Source: USDA Branded Food Products Database Release December 2017 Software v.3.8.6.4 2017-10-02
Report Run at: December 17, 2017 07:47 EST
"Nutrient data for: 45050864, LA NUESTRA, RICE ORGEAT, UPC: 756869175280"
Food Group:  Branded Food Products Database
Common Name:

Nutrient,Unit,Data points,Std. Error,"2.0 SPOONS = 19.0g",1Value per 100 g,
Proximates
"Energy",kcal,--,--,73,384
"Protein",g,--,--,2.00,10.53
"Total lipid (fat)",g,--,--,0.00,0.00
"Carbohydrate, by difference",g,--,--,17.00,89.47
"Fiber, total dietary",g,--,--,0.5,2.6
"Sugars, total",g,--,--,11.00,57.89
Minerals
"Calcium, Ca",mg,--,--,0,0
"Iron, Fe",mg,--,--,2.37,12.47
"Sodium, Na",mg,--,--,0,0
Vitamins
"Vitamin C, total ascorbic acid",mg,--,--,0.0,0.0
"Vitamin A, IU",IU,--,--,1447,7618
Lipids
"Fatty acids, total saturated",g,--,--,0.000,0.000
"Fatty acids, total trans",g,--,--,0.000,0.000
"Cholesterol",mg,--,--,0,0
Amino Acids
Other
Ingredients
"RICE, SUGAR FORTIFIED WITH VITAMIN A, VANILLA AND CINNAMON." Date available: 06/25/2017 Date last updated by company: 06/25/2017
