Source: USDA Branded Food Products Database Release December 2017 Software v.3.8.6.4 2017-10-02
Report Run at: December 17, 2017 07:48 EST
"Nutrient data for: 45030771, LA PASTA, FRESH PUMPKIN RAVIOLI, UPC: 079706021428"
Food Group:  Branded Food Products Database
Common Name:

Nutrient,Unit,Data points,Std. Error,"3.4 ONZ = 95.0g",1Value per 100 g,
Proximates
"Energy",kcal,--,--,220,232
"Protein",g,--,--,9.00,9.47
"Total lipid (fat)",g,--,--,6.00,6.32
"Carbohydrate, by difference",g,--,--,25.00,26.32
"Fiber, total dietary",g,--,--,1.0,1.1
"Sugars, total",g,--,--,4.00,4.21
Minerals
"Calcium, Ca",mg,--,--,200,211
"Iron, Fe",mg,--,--,2.65,2.79
"Sodium, Na",mg,--,--,330,347
Vitamins
"Vitamin C, total ascorbic acid",mg,--,--,5.3,5.6
"Vitamin A, IU",IU,--,--,1106,1164
Lipids
"Fatty acids, total saturated",g,--,--,3.496,3.680
"Fatty acids, total trans",g,--,--,0.000,0.000
"Cholesterol",mg,--,--,30,32
Amino Acids
Other
Ingredients
"FRESH PUMPKIN, FRESH PUMPKIN PUREE, PUMPKIN FLAKES, FRESH SAGE, PARMESAN CHEESE (PASTEURIZED PART-SKIM MILK, CHEESE CULTURE, SALT, ENZYMES, POWDERED CELLULOSE TO PREVENT CAKING), MASCARPONE CHEESE, MOZZARELLA CHEESE (PASTEURIZED MILK, CHEESE CULTURES, SALT, ENZYMES POWDERED CELLULOSE TO PREVENT CAKING), BREAD CRUMBS (WHEAT FLOUR, SUGAR, YEAST, SALT), HEAVY CREAM, BROWN SUGAR, BUTTER, MAPLE SYRUP, NUTMEG AND SEA SALT. PASTA INGREDIENTS: DURUM FLOUR (DURUM FLOUR, NIACIN, THIAMINE RIBOFLAVIN, FOLIC ACID.), PASTEURIZED LIQUID WHOE EGG, SPINACH POWDER, PAPRIKA OLEORESIN, SAGE, AND FILTERED WATER." Date available: 06/24/2017 Date last updated by company: 06/24/2017
