Source: USDA Branded Food Products Database Release December 2017 Software v.3.8.6.4 2017-10-02
Report Run at: December 17, 2017 07:47 EST
"Nutrient data for: 45177489, LA PANZANELLA, ARTISAN CRACKERS, UPC: 659000403009"
Food Group:  Branded Food Products Database
Common Name:

Nutrient,Unit,Data points,Std. Error,"6.0 CRACKERS = 25.0g",1Value per 100 g,
Proximates
"Energy",kcal,--,--,100,400
"Protein",g,--,--,3.00,12.00
"Total lipid (fat)",g,--,--,1.00,4.00
"Carbohydrate, by difference",g,--,--,19.00,76.00
"Fiber, total dietary",g,--,--,1.0,4.0
"Sugars, total",g,--,--,0.00,0.00
Minerals
"Calcium, Ca",mg,--,--,0,0
"Iron, Fe",mg,--,--,2.16,8.64
"Sodium, Na",mg,--,--,140,560
Vitamins
"Vitamin C, total ascorbic acid",mg,--,--,0.0,0.0
"Vitamin A, IU",IU,--,--,0,0
Lipids
"Fatty acids, total saturated",g,--,--,0.000,0.000
"Fatty acids, total trans",g,--,--,0.000,0.000
"Cholesterol",mg,--,--,0,0
Amino Acids
Other
Ingredients
"ENRICHED FLOUR (WHEAT FLOUR, NIACIN, REDUCED IRON, THIAMIN MONONITRATE, RIBOFLAVIN, FOLIC ACID), EXPELLER PRESSED CANOLA OIL AND EXTRA VIRGIN OLIVE OIL, SEA SALT, DRIED ROSEMARY." Date available: 07/14/2017 Date last updated by company: 07/14/2017
