Source: USDA Branded Food Products Database Release December 2017 Software v.3.8.6.4 2017-10-02
Report Run at: December 17, 2017 07:50 EST
"Nutrient data for: 45036995, LA PREFERIDA, LOW SODIUM LIGHT RED KIDNEY BEANS, UPC: 071524017850"
Food Group:  Branded Food Products Database
Common Name:

Nutrient,Unit,Data points,Std. Error,"0.5 cup = 130.0g",1Value per 100 g,
Proximates
"Energy",kcal,--,--,110,85
"Protein",g,--,--,8.00,6.15
"Total lipid (fat)",g,--,--,0.00,0.00
"Carbohydrate, by difference",g,--,--,19.99,15.38
"Fiber, total dietary",g,--,--,8.1,6.2
"Sugars, total",g,--,--,1.00,0.77
Minerals
"Calcium, Ca",mg,--,--,81,62
"Iron, Fe",mg,--,--,2.70,2.08
"Sodium, Na",mg,--,--,10,8
Vitamins
"Vitamin C, total ascorbic acid",mg,--,--,0.0,0.0
"Vitamin A, IU",IU,--,--,0,0
Lipids
"Fatty acids, total saturated",g,--,--,0.000,0.000
"Fatty acids, total trans",g,--,--,0.000,0.000
"Cholesterol",mg,--,--,0,0
Amino Acids
Other
Ingredients
"PREPARED LIGHT RED KIDNEY BEANS, WATER, CALCIUM CHLORIDE (FIRMING AGENT), CALCIUM DISODIUM EDTA (TO PROMOTE COLOR)." Date available: 06/24/2017 Date last updated by company: 06/24/2017
