Source: USDA Branded Food Products Database Release December 2017 Software v.3.8.6.4 2017-10-02
Report Run at: December 17, 2017 08:16 EST
"Nutrient data for: 45206556, LA VICTORIA, THICK'N CHUNKY SALSA, UPC: 72101012305"
Food Group:  Branded Food Products Database
Common Name:

Nutrient,Unit,Data points,Std. Error,"2.0 Tbsp = 30.0g",1Value per 100 g,
Proximates
"Energy",kcal,--,--,10,33
"Protein",g,--,--,0.00,0.00
"Total lipid (fat)",g,--,--,0.00,0.00
"Carbohydrate, by difference",g,--,--,2.00,6.67
"Fiber, total dietary",g,--,--,1.0,3.3
"Sugars, total",g,--,--,1.00,3.33
Minerals
"Calcium, Ca",mg,--,--,0,0
"Iron, Fe",mg,--,--,0.00,0.00
"Sodium, Na",mg,--,--,190,633
Vitamins
"Vitamin C, total ascorbic acid",mg,--,--,4.0,13.3
"Vitamin A, IU",IU,--,--,0,0
Lipids
"Fatty acids, total saturated",g,--,--,0.000,0.000
"Fatty acids, total trans",g,--,--,0.000,0.000
"Cholesterol",mg,--,--,0,0
Amino Acids
Other
Ingredients
"TOMATOES (TOMATOES, TOMATO JUICE, CITRIC ACID, CALCIUM CHLORIDE), ONIONS, GREEN JALAPENO PEPPERS, TOMATO PUREE, WATER, CONCENTRATED CRUSHED TOMATOES, GREEN CHILE PEPPERS (INCLUDES CITRIC ACID, CALCIUM CHLORIDE), LESS THAN 2% OF SALT, DISTILLED VINEGAR, GARLIC, XANTHAN GUM, PAPRIKA, SPICE." Date available: 07/14/2017 Date last updated by company: 07/14/2017
