Source: USDA Branded Food Products Database Release December 2017 Software v.3.8.6.4 2017-10-02
Report Run at: December 17, 2017 07:18 EST
"Nutrient data for: 45012451, LACTAID, ICE CREAM, VANILLA, UPC: 000450193000"
Food Group:  Branded Food Products Database
Common Name:

Nutrient,Unit,Data points,Std. Error,"0.5 cup = 71.0g",1Value per 100 g,
Proximates
"Energy",kcal,--,--,150,211
"Protein",g,--,--,2.00,2.82
"Total lipid (fat)",g,--,--,8.00,11.27
"Carbohydrate, by difference",g,--,--,16.00,22.54
"Fiber, total dietary",g,--,--,0.0,0.0
"Sugars, total",g,--,--,12.00,16.90
Minerals
"Calcium, Ca",mg,--,--,80,113
"Iron, Fe",mg,--,--,0.00,0.00
"Sodium, Na",mg,--,--,40,56
Vitamins
"Vitamin C, total ascorbic acid",mg,--,--,0.0,0.0
"Vitamin A, IU",IU,--,--,337,475
Lipids
"Fatty acids, total saturated",g,--,--,4.998,7.040
"Fatty acids, total trans",g,--,--,0.000,0.000
"Cholesterol",mg,--,--,35,49
Amino Acids
Other
Ingredients
"MILK, CREAM, SUGAR, CORN SYRUP, GUAR GUM, LOCUST BEAN GUM, NATURAL VANILLA FLAVOR, VANILLA BEANS, LACTASE ENZYME*." Date available: 06/25/2017 Date last updated by company: 06/25/2017
