Source: USDA Branded Food Products Database Release December 2017 Software v.3.8.6.4 2017-10-02
Report Run at: December 17, 2017 07:19 EST
"Nutrient data for: 45272356, LACTOSE FREE COFFEE CREAMER, UPC: 021130075959"
Food Group:  Branded Food Products Database
Common Name:

Nutrient,Unit,Data points,Std. Error,"1 Tbsp = 15.0g",1Value per 100 g,
Proximates
"Energy",kcal,--,--,45,300
"Protein",g,--,--,0.00,0.00
"Total lipid (fat)",g,--,--,1.50,10.00
"Carbohydrate, by difference",g,--,--,7.00,46.67
"Fiber, total dietary",g,--,--,0.0,0.0
"Sugars, total",g,--,--,7.00,46.67
Minerals
"Calcium, Ca",mg,--,--,0,0
"Iron, Fe",mg,--,--,0.00,0.00
"Sodium, Na",mg,--,--,0,0
Vitamins
"Vitamin C, total ascorbic acid",mg,--,--,0.0,0.0
"Vitamin A, IU",IU,--,--,0,0
Lipids
"Fatty acids, total saturated",g,--,--,0.000,0.000
"Fatty acids, total trans",g,--,--,0.000,0.000
"Cholesterol",mg,--,--,0,0
Amino Acids
Other
Ingredients
"WATER, SUGAR, HIGH OLEIC SOYBEAN OIL, CORN SYRUP, NATURAL AND ARTIFICIAL FLAVORS, SODIUM CASEINATE (A MILK DERIVATIVE)*, COCOA PROCESSED WITH ALKALI, SALT, DIPOTASSIUM PHOSPHATE, TITANIUM DIOXIDE (COLOR), DATEM, POLYSORBATE 60, CARRAGEENAN, SUCRALOSE, ACESULFAME POTASSIUM, CARAMEL COLOR." Date available: 10/04/2017 Date last updated by company: 10/04/2017
