Source: USDA Branded Food Products Database Release December 2017 Software v.3.8.6.4 2017-10-02
Report Run at: December 17, 2017 07:17 EST
"Nutrient data for: 45182763, LACTAID, ICE CREAM, BERRY CHOCOLATE CRUMBLE, UPC: 041383609855"
Food Group:  Branded Food Products Database
Common Name:

Nutrient,Unit,Data points,Std. Error,"0.5 cup = 71.0g",1Value per 100 g,
Proximates
"Energy",kcal,--,--,180,254
"Protein",g,--,--,2.00,2.82
"Total lipid (fat)",g,--,--,10.00,14.08
"Carbohydrate, by difference",g,--,--,20.00,28.17
"Fiber, total dietary",g,--,--,1.0,1.4
"Sugars, total",g,--,--,14.00,19.72
Minerals
"Calcium, Ca",mg,--,--,60,85
"Iron, Fe",mg,--,--,0.40,0.57
"Sodium, Na",mg,--,--,60,85
Vitamins
"Vitamin C, total ascorbic acid",mg,--,--,0.0,0.0
"Vitamin A, IU",IU,--,--,337,475
Lipids
"Fatty acids, total saturated",g,--,--,4.998,7.040
"Fatty acids, total trans",g,--,--,0.000,0.000
"Cholesterol",mg,--,--,25,35
Amino Acids
Other
Ingredients
"MILK, CREAM, CHOCOLATE CRUMBLE [SOYBEAN OIL, ENRICHED FLOUR (WHEAT FLOUR, NIACIN, REDUCED IRON, THIAMINE MONONITRATE, RIBOFLAVIN, FOLIC ACID), SUGAR, PARTIALLY HYDROGENATED SOYBEAN AND/OR COTTONSEED OILS, COCOA PROCESSED WITH ALKALI, HIGH FRUCTOSE CORN SYRUP, CORN FLOUR, SALT, DEXTROSE, SODIUM BICARBONATE, SOY LECITHIN, POWDERED SUGAR (SUGAR CORNSTARCH), VANILLIN], SUGAR, CORN SYRUP, BLACKBERRY PUREE, HIGH FRUCTOSE CORN SYRUP, GUAR GUM, LOCUST BEAN GUM, CITRIC ACID, NATURAL FLAVOR, RED 40, BLUE 1, AND LACTASE ENZYME*." Date available: 07/14/2017 Date last updated by company: 07/14/2017
