Source: USDA Branded Food Products Database Release December 2017 Software v.3.8.6.4 2017-10-02
Report Run at: December 17, 2017 07:25 EST
"Nutrient data for: 45022269, LAGG'S, CHAMOMILE HERBAL TEA, UPC: 000105000011"
Food Group:  Branded Food Products Database
Common Name:

Nutrient,Unit,Data points,Std. Error,"1 TEA BAG = 1.0g",1Value per 100 g,
Proximates
"Energy",kcal,--,--,0,0
"Protein",g,--,--,0.00,0.00
"Total lipid (fat)",g,--,--,0.00,0.00
"Carbohydrate, by difference",g,--,--,0.70,70.00
Minerals
"Potassium, K",mg,--,--,32,3200
"Sodium, Na",mg,--,--,3,300
Vitamins
Lipids
Amino Acids
Other
Ingredients
"CHAMOMILE FLOWERS." Date available: 06/25/2017 Date last updated by company: 06/25/2017
