Source: USDA Branded Food Products Database Release December 2017 Software v.3.8.6.4 2017-10-02
Report Run at: December 17, 2017 07:27 EST
"Nutrient data for: 45328086, LAKE CHAMPLAIN CHOCOLATES, ORGANIC DARK CHOCOLATE, PEANUT BUTTER, UPC: 769933855728"
Food Group:  Branded Food Products Database
Common Name:

Nutrient,Unit,Data points,Std. Error,"3.0 BLOCKS = 35.0g",1Value per 100 g,
Proximates
"Energy",kcal,--,--,190,543
"Protein",g,--,--,3.00,8.57
"Total lipid (fat)",g,--,--,13.00,37.14
"Carbohydrate, by difference",g,--,--,19.00,54.29
"Fiber, total dietary",g,--,--,2.0,5.7
"Sugars, total",g,--,--,16.00,45.71
Minerals
"Calcium, Ca",mg,--,--,20,57
"Iron, Fe",mg,--,--,3.86,11.02
"Sodium, Na",mg,--,--,25,71
Vitamins
"Vitamin C, total ascorbic acid",mg,--,--,0.0,0.0
"Vitamin A, IU",IU,--,--,0,0
Lipids
"Fatty acids, total saturated",g,--,--,7.000,20.000
"Fatty acids, total trans",g,--,--,0.000,0.000
"Cholesterol",mg,--,--,0,0
Amino Acids
Other
Ingredients
"*+DARK AND *WHITE CHOCOLATE (*+SUGAR, *+COCOA BUTTER, *+CHOCOLATE LIQUOR, *MILK POWDER, SOYBEAN LECITHIN (NON-GMO), AND *+VANILLA), *SALTED PEANUT BUTTER, AND *PEANUT FLOUR." Date available: 10/13/2017 Date last updated by company: 10/13/2017
