Source: USDA Branded Food Products Database Release December 2017 Software v.3.8.6.4 2017-10-02
Report Run at: December 17, 2017 07:32 EST
"Nutrient data for: 45272977, LAMBRUSCO WINE JELLY, UPC: 825325910076"
Food Group:  Branded Food Products Database
Common Name:

Nutrient,Unit,Data points,Std. Error,"30.0 GRM = 30.0g",1Value per 100 g,
Proximates
"Energy",kcal,--,--,60,200
"Protein",g,--,--,0.00,0.00
"Total lipid (fat)",g,--,--,0.00,0.00
"Carbohydrate, by difference",g,--,--,15.00,50.00
"Sugars, total",g,--,--,15.00,50.00
Minerals
"Sodium, Na",mg,--,--,10,33
Vitamins
Lipids
"Fatty acids, total saturated",g,--,--,0.600,2.000
"Fatty acids, total trans",g,--,--,0.000,0.000
"Cholesterol",mg,--,--,0,0
Amino Acids
Other
Ingredients
"LAMBRUSCO WINE 66% SUGAR, PECTIN." Date available: 07/14/2017 Date last updated by company: 07/14/2017
