Source: USDA Branded Food Products Database Release December 2017 Software v.3.8.6.4 2017-10-02
Report Run at: December 17, 2017 07:32 EST
"Nutrient data for: 45085058, LAMB SAAG WITH BASMATI RICE, UPC: 857063002027"
Food Group:  Branded Food Products Database
Common Name:

Nutrient,Unit,Data points,Std. Error,"10.0 ONZ = 283.0g",1Value per 100 g,
Proximates
"Energy",kcal,--,--,300,106
"Protein",g,--,--,17.01,6.01
"Total lipid (fat)",g,--,--,12.00,4.24
"Carbohydrate, by difference",g,--,--,36.00,12.72
"Fiber, total dietary",g,--,--,3.1,1.1
"Sugars, total",g,--,--,3.00,1.06
Minerals
"Calcium, Ca",mg,--,--,99,35
"Iron, Fe",mg,--,--,1.87,0.66
"Sodium, Na",mg,--,--,631,223
Vitamins
"Vitamin C, total ascorbic acid",mg,--,--,6.2,2.2
"Vitamin A, IU",IU,--,--,4135,1461
Lipids
"Fatty acids, total saturated",g,--,--,3.000,1.060
"Fatty acids, total trans",g,--,--,0.000,0.000
"Cholesterol",mg,--,--,45,16
Amino Acids
Other
Ingredients
"SPINACH SAUCE: SPINACH, WATER, DICED TOMATOES (TOMATOES, TOMATO JUICE, CITRIC ACID, CALCIUM CHLORIDE), CREAM, ONIONS, TOMATO PASTE, EXPELLER PRESSED CANOLA OIL, GARLIC PUREE (GARLIC, WATER), GINGER, SEA SALT, SPICES, PAPRIKA, XANTHAN GUM, LEMON JUICE CONCENTRATE, TURMERIC. BASMATI RICE: WATER, BASMATI RICE, EXPELLER PRESSED CANOLA OIL, GINGER, GARLIC PUREE (GARLIC, WATER). LAMB: BONELESS LAMB, NONFAT YOGURT (CULTURED NONFAT MILK, PECTIN), WATER, RICE STARCH, GINGER, SEA SALT, GARLIC PUREE (GARLIC, WATER), SPICES." Date available: 10/18/2017 Date last updated by company: 10/18/2017
