Source: USDA Branded Food Products Database Release December 2017 Software v.3.8.6.4 2017-10-02
Report Run at: December 17, 2017 07:32 EST
"Nutrient data for: 45153898, LAMBERTZ, SPRING COLLECTION EUROPEAN CHOCOLATE COOKIES, UPC: 810253011711"
Food Group:  Branded Food Products Database
Common Name:

Nutrient,Unit,Data points,Std. Error,"4.0 COOKIES = 31.0g",1Value per 100 g,
Proximates
"Energy",kcal,--,--,160,516
"Protein",g,--,--,2.00,6.45
"Total lipid (fat)",g,--,--,9.00,29.03
"Carbohydrate, by difference",g,--,--,19.00,61.29
"Fiber, total dietary",g,--,--,2.0,6.5
"Sugars, total",g,--,--,11.00,35.48
Minerals
"Calcium, Ca",mg,--,--,0,0
"Iron, Fe",mg,--,--,2.32,7.49
"Sodium, Na",mg,--,--,35,113
Vitamins
"Vitamin C, total ascorbic acid",mg,--,--,0.0,0.0
"Vitamin A, IU",IU,--,--,0,0
Lipids
"Fatty acids, total saturated",g,--,--,5.000,16.130
"Fatty acids, total trans",g,--,--,0.000,0.000
"Cholesterol",mg,--,--,5,16
Amino Acids
Other
Ingredients
"UNBLEACHED WHEAT FLOUR, SUGAR, DARK CHOCOLATE (SUGAR, CHOCOLATE LIQUOR, COCOA BUTTER, BUTTERFAT, EMULSIFIER [SOY LECITHIN]), MILK CHOCOLATE (SUGAR, COCOA BUTTE, WHEY (FROM MILK), NON FAT DRY MILK, CHOCOLATE LIQUOR, BUTTERFAT, LACTOSE, EMULSIFIER [SOY LECITHIN]), VEGETABLE SHORTENING (PALM, COCONUT, RAPESEED), WHITE CHOCOLATE (SUGAR, COCOA BUTTER, DRIED WHOLE MILK, WHEY (FROM MILK), EMULSIFIER [SOY LECITHIN]), ALMONDS, DRIED WHOLE MILK, GLUCOSE SYRUP, LOW FAT COCOA POWDER (PROCESSED WITH ALKALI), EGG WHITES, MARZIPAN (ALMONDS, SUGAR, INVERT SUGAR SYRUP), WHEY (FROM MILK), DEXTROSE, CREAM POWDER, NON FAT DRY MILK, LACTOSE, EMULSIFIER (MONO- AND DIGLYCERIDES OF FATTY ACIDS, SOY LECITHIN, RAPESEED LECITHIN), DRIED WHOLE EGG, INVERT SUGAR SYRUP, CARAMEL SUGAR SYRUP, MALT EXTRACT (BARLEY), SALT, LEAVENING (SODIUM BICARBONATE, SODIUM ACID PYROPHOSPHATE AND AMMONIUM BICARBONATE), NATURAL FLAVOR, SPICES." Date available: 07/14/2017 Date last updated by company: 07/14/2017
