Source: USDA Branded Food Products Database Release December 2017 Software v.3.8.6.4 2017-10-02
Report Run at: December 17, 2017 07:35 EST
"Nutrient data for: 45090243, LAMTHONG, FRUIT COCKTAIL IN SYRUP, UPC: 8850649009290"
Food Group:  Branded Food Products Database
Common Name:

Nutrient,Unit,Data points,Std. Error,"140.0 g = 140.0g",1Value per 100 g,
Proximates
"Energy",kcal,--,--,99,71
"Protein",g,--,--,0.99,0.71
"Total lipid (fat)",g,--,--,0.00,0.00
"Carbohydrate, by difference",g,--,--,23.00,16.43
"Fiber, total dietary",g,--,--,2.0,1.4
"Sugars, total",g,--,--,20.01,14.29
Minerals
"Calcium, Ca",mg,--,--,20,14
"Iron, Fe",mg,--,--,-0.36,-0.26
"Sodium, Na",mg,--,--,0,0
Vitamins
"Vitamin C, total ascorbic acid",mg,--,--,15.0,10.7
"Vitamin A, IU",IU,--,--,0,0
Lipids
"Fatty acids, total saturated",g,--,--,0.00,0.00
"Fatty acids, total trans",g,--,--,0.00,0.00
"Cholesterol",mg,--,--,0,0
Amino Acids
Other
Ingredients
"PINEAPPLE, PAPAYA, GUAVA NATA DE COCO (COCONUT JELL) SUGAR WATER, CITRIC ACID" Date last updated by company: 03/28/2016
