Source: USDA Branded Food Products Database Release December 2017 Software v.3.8.6.4 2017-10-02
Report Run at: December 17, 2017 07:40 EST
"Nutrient data for: 45003493, LANCE, TOAST CHEE, PEANUT BUTTER, UPC: 076410901190"
Food Group:  Branded Food Products Database
Common Name:

Nutrient,Unit,Data points,Std. Error,"1 PACKAGE 4 CRACKERS = 28.7g",1Value per 100 g,
Proximates
"Energy",kcal,--,--,150,523
"Protein",g,--,--,4.00,13.94
"Total lipid (fat)",g,--,--,7.00,24.39
"Carbohydrate, by difference",g,--,--,17.00,59.23
"Fiber, total dietary",g,--,--,1.0,3.5
"Sugars, total",g,--,--,3.00,10.45
Minerals
"Calcium, Ca",mg,--,--,40,139
"Iron, Fe",mg,--,--,1.25,4.37
"Sodium, Na",mg,--,--,150,523
Vitamins
"Vitamin C, total ascorbic acid",mg,--,--,0.0,0.0
"Vitamin A, IU",IU,--,--,0,0
Lipids
"Fatty acids, total saturated",g,--,--,1.501,5.230
"Fatty acids, total monounsaturated",g,--,--,2.999,10.450
"Fatty acids, total polyunsaturated",g,--,--,2.500,8.710
"Fatty acids, total trans",g,--,--,0.000,0.000
"Cholesterol",mg,--,--,0,0
Amino Acids
Other
Ingredients
"ENRICHED FLOUR (WHEAT FLOUR, NIACIN, REDUCED IRON, THIAMINE MONONITRATE, RIBOFLAVIN, FOLIC ACID), PEANUTS, VEGETABLE OIL (CONTAINS ONE OR MORE OF THE FOLLOWING: CANOLA OIL, CORN OIL, PALM OIL, SOYBEAN OIL), DEXTROSE, SUGAR, LEAVENING (SODIUM BICARBONATE, MONOCALCIUM PHOSPHATE, AMMONIUM BICARBONATE), CORN SYRUP, SALT, CHEDDAR CHEESE (PASTEURIZED MILK, CHEESE CULTURES, SALT, ENZYMES) ARTIFICIAL COLOR (YELLOW 6), MALTED BARLEY FLOUR, YEAST, SOY LECITHIN (EMULSIFIER)." Date available: 06/25/2017 Date last updated by company: 06/25/2017
