Source: USDA Branded Food Products Database Release December 2017 Software v.3.8.6.4 2017-10-02
Report Run at: December 17, 2017 07:36 EST
"Nutrient data for: 45224156, LANCE, CAPTAIN'S WAFERS, CRACKERS, UPC: 076410212500"
Food Group:  Branded Food Products Database
Common Name:

Nutrient,Unit,Data points,Std. Error,"4.0 CRACKERS (2PKGS.) = 13.0g",1Value per 100 g,
Proximates
"Energy",kcal,--,--,60,462
"Protein",g,--,--,1.00,7.69
"Total lipid (fat)",g,--,--,2.50,19.23
"Carbohydrate, by difference",g,--,--,9.00,69.23
"Fiber, total dietary",g,--,--,1.0,7.7
"Sugars, total",g,--,--,1.00,7.69
Minerals
"Calcium, Ca",mg,--,--,0,0
"Iron, Fe",mg,--,--,1.38,10.65
"Sodium, Na",mg,--,--,105,808
Vitamins
"Vitamin C, total ascorbic acid",mg,--,--,0.0,0.0
"Vitamin A, IU",IU,--,--,0,0
Lipids
"Fatty acids, total saturated",g,--,--,0.501,3.850
"Fatty acids, total monounsaturated",g,--,--,0.501,3.850
"Fatty acids, total polyunsaturated",g,--,--,1.000,7.690
"Fatty acids, total trans",g,--,--,0.000,0.000
"Cholesterol",mg,--,--,0,0
Amino Acids
Other
Ingredients
"ENRICHED FLOUR (WHEAT FLOUR, NIACIN, REDUCED IRON, THIAMINE MONONITRATE, RIBOFLAVIN, FOLIC ACID), VEGETABLE OIL (CONTAINS ONE OR MORE OF THE FOLLOWING: CANOLA OIL, CORN OIL, PALM OIL, SOYBEAN OIL), SUGAR, CORN SYRUP, SALT, LEAVENING (SODIUM BICARBONATE, AMMONIUM BICARBONATE, MONOCALCIUM PHOSPHATE)." Date available: 07/14/2017 Date last updated by company: 07/14/2017
