Source: USDA Branded Food Products Database Release December 2017 Software v.3.8.6.4 2017-10-02
Report Run at: December 17, 2017 07:41 EST
"Nutrient data for: 45224145, LANCE, WHOLE GRAIN CRACKERS, CHEDDAR CHEESE, UPC: 076410900483"
Food Group:  Branded Food Products Database
Common Name:

Nutrient,Unit,Data points,Std. Error,"1 PKG, 6 CRACKERS = 42.5g",1Value per 100 g,
Proximates
"Energy",kcal,--,--,210,494
"Protein",g,--,--,4.00,9.41
"Total lipid (fat)",g,--,--,10.00,23.53
"Carbohydrate, by difference",g,--,--,26.00,61.18
"Fiber, total dietary",g,--,--,2.0,4.7
"Sugars, total",g,--,--,6.00,14.12
Minerals
"Calcium, Ca",mg,--,--,60,141
"Iron, Fe",mg,--,--,1.27,2.99
"Sodium, Na",mg,--,--,300,706
Vitamins
"Vitamin C, total ascorbic acid",mg,--,--,0.0,0.0
"Vitamin A, IU",IU,--,--,0,0
Lipids
"Fatty acids, total saturated",g,--,--,3.001,7.060
"Fatty acids, total monounsaturated",g,--,--,3.001,7.060
"Fatty acids, total polyunsaturated",g,--,--,3.001,7.060
"Fatty acids, total trans",g,--,--,0.000,0.000
"Cholesterol",mg,--,--,0,0
Amino Acids
Other
Ingredients
"ENRICHED FLOUR (WHEAT FLOUR, NIACIN, REDUCED IRON, THIAMINE MONONITRATE, RIBOFLAVIN, FOLIC ACID), WHOLE WHEAT FLOUR, VEGETABLE OIL (CONTAINS ONE OR MORE OF THE FOLLOWING: CANOLA OIL, CORN OIL, PALM OIL, SOYBEAN OIL), SUGAR, DEPROTEINIZED DAIRY WHEY, MALTED BARLEY FLOUR, BUTTERMILK SOLIDS, LEAVENING (SODIUM BICARBONATE, AMMONIUM BICARBONATE, MONOCALCIUM PHOSPHATE), WHEAT GLUTEN, CORNSTARCH, DAIRY WHEY, SALT, WHOLE GRAIN OATS, WHEAT BRAN, SOUR CREAM ([CREAM, NONFAT MILK, CULTURES], CULTURED NONFAT MILK, LACTIC ACID, CITRIC ACID), WHEY PROTEIN CONCENTRATE, MALTODEXTRIN, CARAMEL COLOR, SOY LECITHIN (EMULSIFIER), CHEDDAR CHEESE (CULTURED MILK, SALT, ENZYMES), ONION, DEXTROSE, NATURAL AND ARTIFICIAL FLAVORS, NONFAT DRY MILK, SPICES, PARSLEY, ARTIFICIAL COLOR (YELLOW 5 LAKE), CITRIC ACID." Date available: 07/14/2017 Date last updated by company: 07/14/2017
