Source: USDA Branded Food Products Database Release December 2017 Software v.3.8.6.4 2017-10-02
Report Run at: December 17, 2017 07:41 EST
"Nutrient data for: 45224124, LANCE, WHOLE GRAIN CRACKERS, PEANUT BUTTER, UPC: 076410900452"
Food Group:  Branded Food Products Database
Common Name:

Nutrient,Unit,Data points,Std. Error,"1 PKG (6 CRACKERS) = 42.5g",1Value per 100 g,
Proximates
"Energy",kcal,--,--,210,494
"Protein",g,--,--,6.00,14.12
"Total lipid (fat)",g,--,--,9.00,21.18
"Carbohydrate, by difference",g,--,--,25.00,58.82
"Fiber, total dietary",g,--,--,2.0,4.7
"Sugars, total",g,--,--,5.00,11.76
Minerals
"Calcium, Ca",mg,--,--,40,94
"Iron, Fe",mg,--,--,1.70,3.99
"Sodium, Na",mg,--,--,270,635
Vitamins
"Vitamin C, total ascorbic acid",mg,--,--,0.0,0.0
"Vitamin A, IU",IU,--,--,0,0
Lipids
"Fatty acids, total saturated",g,--,--,2.002,4.710
"Fatty acids, total monounsaturated",g,--,--,3.502,8.240
"Fatty acids, total polyunsaturated",g,--,--,3.502,8.240
"Fatty acids, total trans",g,--,--,0.000,0.000
"Cholesterol",mg,--,--,0,0
Amino Acids
Other
Ingredients
"ENRICHED FLOUR (WHEAT FLOUR, NIACIN, REDUCED IRON, THIAMINE, MONONITRATE, RIBOFLAVIN, FOLIC ACID), WHOLE WHEAT FLOUR, PEANUTS, VEGETABLE OIL (CONTAINS ONE OR MORE OF THE FOLLOWING: CANOLA OIL, CORN OIL, PALM OIL, SOYBEAN OIL), SUGAR, DEXTROSE, MALTED BARLEY FLOUR, LEAVENING (SODIUM BICARBONATE, AMMONIUM BICARBONATE, MONOCALCIUM PHOSPHATE), WHEAT GLUTEN, CORNSTARCH, WHOLE GRAIN OATS, WHEAT BRAN, SALT, CARAMEL COLOR, SOY LECITHIN (EMULSIFIER)." Date available: 07/14/2017 Date last updated by company: 07/14/2017
