Source: USDA Branded Food Products Database Release December 2017 Software v.3.8.6.4 2017-10-02
Report Run at: December 17, 2017 07:41 EST
"Nutrient data for: 45016459, LANCE, XTRA FULLS TOASTY CRACKER SANDWICHES, PEANUT BUTTER, UPC: 076410902111"
Food Group:  Branded Food Products Database
Common Name:

Nutrient,Unit,Data points,Std. Error,"1 PACKAGE (6 CRACKERS) = 42.5g",1Value per 100 g,
Proximates
"Energy",kcal,--,--,220,518
"Protein",g,--,--,5.00,11.76
"Total lipid (fat)",g,--,--,12.00,28.24
"Carbohydrate, by difference",g,--,--,23.00,54.12
"Fiber, total dietary",g,--,--,1.0,2.4
"Sugars, total",g,--,--,5.00,11.76
Minerals
"Calcium, Ca",mg,--,--,40,94
"Iron, Fe",mg,--,--,1.70,3.99
"Sodium, Na",mg,--,--,220,518
Vitamins
"Vitamin C, total ascorbic acid",mg,--,--,0.0,0.0
"Vitamin A, IU",IU,--,--,0,0
Lipids
"Fatty acids, total saturated",g,--,--,4.501,10.590
"Fatty acids, total monounsaturated",g,--,--,3.999,9.410
"Fatty acids, total polyunsaturated",g,--,--,3.001,7.060
"Fatty acids, total trans",g,--,--,0.000,0.000
"Cholesterol",mg,--,--,0,0
Amino Acids
Other
Ingredients
"ENRICHED FLOUR (WHEAT FLOUR, NIACIN, REDUCED IRON, THIAMINE MONONITRATE, RIBOFLAVIN, FOLIC ACID), PEANUTS, VEGETABLE OIL (CONTAINS ONE OR MORE OF THE FOLLOWING: SOYBEAN OIL, CANOLA OIL, PALM OIL, HYDROGENATED PALM KERNEL), EMULSIFIERS (HYDROGENATED RAPESEED, COTTONSEED, AND SOYBEAN OIL, SOY LECITHIN), DEXTORSE, SUGAR, LEAVENING (SODIUM BICARBONATE, AMMONIUM BICARBONATE, MONOCALCIUM PHOSPHATE), CORN SYRUP, SALT, NATURAL FLAVOR." Date available: 07/14/2017 Date last updated by company: 07/14/2017
