Source: USDA Branded Food Products Database Release December 2017 Software v.3.8.6.4 2017-10-02
Report Run at: December 17, 2017 07:43 EST
"Nutrient data for: 45005532, LAND O'LAKES, SAUTE EXPRESS, SEASONED BUTTER & OLIVE OIL SAUTE STARTER, UPC: 034500159067"
Food Group:  Branded Food Products Database
Common Name:

Nutrient,Unit,Data points,Std. Error,"0.5 oz = 14.0g",1Value per 100 g,
Proximates
"Protein",g,--,--,0.00,0.00
"Total lipid (fat)",g,--,--,9.00,64.29
"Carbohydrate, by difference",g,--,--,1.00,7.14
Minerals
"Sodium, Na",mg,--,--,270,1929
Vitamins
"Vitamin C, total ascorbic acid",mg,--,--,9.0,64.3
"Vitamin A, IU",IU,--,--,400,2857
Lipids
"Fatty acids, total saturated",g,--,--,4.50,32.14
"Fatty acids, total trans",g,--,--,0.00,0.00
"Cholesterol",mg,--,--,20,143
Amino Acids
Other
Ingredients
"BUTTER (CREAM, SALT), WATER, OLIVE OIL, SALT, RED BELL PEPPER , NATURAL FLAVOR, CORN STARCH,CONTAINS LESS THAN 2% OF GARLIC POWDER, ONION POWDER, MARJORAM, THYME, ROSEMARY, SAVORY, SAGE, OREGANO, BASIL, CITRIC ACID, SOY LECITHIN." Date last updated by company: 08/08/2014
