Source: USDA Branded Food Products Database Release December 2017 Software v.3.8.6.4 2017-10-02
Report Run at: December 17, 2017 07:53 EST
"Nutrient data for: 45321309, LARABAR MINIS FRT NT FD BAR PNT BTR CHOC CHIP, UNPREPARED, GTIN: 00021908471532"
Food Group:  Branded Food Products Database
Common Name:

Nutrient,Unit,Data points,Std. Error,"1 Bar (22g) = 22.0g",1Value per 100 g,
Proximates
"Energy",kcal,--,--,110,500
"Protein",g,--,--,3.00,13.64
"Total lipid (fat)",g,--,--,6.00,27.27
"Carbohydrate, by difference",g,--,--,13.00,59.09
"Fiber, total dietary",g,--,--,2.0,9.1
"Sugars, total",g,--,--,9.00,40.91
Minerals
"Calcium, Ca",mg,--,--,0,0
"Iron, Fe",mg,--,--,0.72,3.27
"Sodium, Na",mg,--,--,30,136
Vitamins
"Vitamin C, total ascorbic acid",mg,--,--,0.0,0.0
"Vitamin A, IU",IU,--,--,0,0
Lipids
"Fatty acids, total saturated",g,--,--,1.500,6.820
"Fatty acids, total monounsaturated",g,--,--,3.001,13.640
"Fatty acids, total polyunsaturated",g,--,--,1.001,4.550
"Fatty acids, total trans",g,--,--,0.000,0.000
"Cholesterol",mg,--,--,0,0
Amino Acids
Other
Ingredients
"DATES, PEANUTS, SEMISWEET CHOCOLATE CHIPS* (UNSWEETENED CHOCOLATE, SUGAR, COCOA BUTTER, VANILLA), SEA SALT. *FAIR TRADE CERTIFIED? BY FAIR TRADE USA" Date available: 10/10/2017 Date last updated by company: 09/12/2017
