Source: USDA Branded Food Products Database Release December 2017 Software v.3.8.6.4 2017-10-02
Report Run at: December 17, 2017 07:56 EST
"Nutrient data for: 45097377, LARGE CURD COTTAGE CHEESE, UPC: 041250112518"
Food Group:  Branded Food Products Database
Common Name:

Nutrient,Unit,Data points,Std. Error,"0.5 cup = 113.0g",1Value per 100 g,
Proximates
"Energy",kcal,--,--,110,97
"Protein",g,--,--,12.00,10.62
"Total lipid (fat)",g,--,--,4.99,4.42
"Carbohydrate, by difference",g,--,--,6.99,6.19
"Fiber, total dietary",g,--,--,0.0,0.0
"Sugars, total",g,--,--,4.99,4.42
Minerals
"Calcium, Ca",mg,--,--,80,71
"Iron, Fe",mg,--,--,0.00,0.00
"Sodium, Na",mg,--,--,460,407
Vitamins
"Vitamin C, total ascorbic acid",mg,--,--,0.0,0.0
"Vitamin A, IU",IU,--,--,194,172
"Vitamin D",IU,--,--,40,35
Lipids
"Fatty acids, total saturated",g,--,--,2.994,2.650
"Fatty acids, total trans",g,--,--,0.000,0.000
"Cholesterol",mg,--,--,15,13
Amino Acids
Other
Ingredients
"CULTURED PASTEURIZED GRADE A SKIM MILK AND CREAM, CONTAINS LESS THAN 2% OF: GRADE A WHEY, SALT, MALTODEXTRIN, GUAR GUM, CITRIC ACID, CARRAGEENAN, NATURAL AND ARTIFICIAL FLAVOR, WATER, LACTIC ACID, PHOSPHORIC ACID, MONO AND DIGLYCERIDES, LOCUST BEAN GUM, POTASSIUM SORBATE (PRESERVATIVE), POLYSORBATE 80, ENZYME, VITAMIN A PALMITATE, VITAMIN D3." Date available: 10/13/2017 Date last updated by company: 10/13/2017
