Source: USDA Branded Food Products Database Release December 2017 Software v.3.8.6.4 2017-10-02
Report Run at: December 17, 2017 07:58 EST
"Nutrient data for: 45315648, LARGE LIMA BEANS, UPC: 04656701266"
Food Group:  Branded Food Products Database
Common Name:

Nutrient,Unit,Data points,Std. Error,"0.25 cup = 48.0g",1Value per 100 g,
Proximates
"Energy",kcal,--,--,160,333
"Protein",g,--,--,10.00,20.83
"Total lipid (fat)",g,--,--,0.00,0.00
"Carbohydrate, by difference",g,--,--,30.00,62.50
"Fiber, total dietary",g,--,--,9.0,18.8
"Sugars, total",g,--,--,4.00,8.33
Minerals
"Calcium, Ca",mg,--,--,40,83
"Iron, Fe",mg,--,--,2.63,5.47
"Sodium, Na",mg,--,--,10,21
Vitamins
"Vitamin C, total ascorbic acid",mg,--,--,0.0,0.0
"Vitamin A, IU",IU,--,--,0,0
Lipids
"Fatty acids, total saturated",g,--,--,0.000,0.000
"Fatty acids, total trans",g,--,--,0.000,0.000
"Cholesterol",mg,--,--,0,0
Amino Acids
Other
Ingredients
"LARGE LIMA BEANS." Date available: 08/22/2017 Date last updated by company: 08/22/2017
