Source: USDA Branded Food Products Database Release December 2017 Software v.3.8.6.4 2017-10-02
Report Run at: December 17, 2017 08:07 EST
"Nutrient data for: 45048059, LAS TROJES,  PEPITORIA MIX SEED BRITTLE,, UPC: 661444000171"
Food Group:  Branded Food Products Database
Common Name:

Nutrient,Unit,Data points,Std. Error,"2.0 ONZ = 57.0g",1Value per 100 g,
Proximates
"Energy",kcal,--,--,300,526
"Protein",g,--,--,8.00,14.04
"Total lipid (fat)",g,--,--,22.00,38.60
"Carbohydrate, by difference",g,--,--,24.00,42.11
"Fiber, total dietary",g,--,--,2.0,3.5
"Sugars, total",g,--,--,15.00,26.32
Minerals
"Calcium, Ca",mg,--,--,60,105
"Iron, Fe",mg,--,--,1.27,2.22
"Sodium, Na",mg,--,--,40,70
Vitamins
"Vitamin C, total ascorbic acid",mg,--,--,0.0,0.0
"Vitamin A, IU",IU,--,--,0,0
Lipids
"Fatty acids, total saturated",g,--,--,4.497,7.890
"Fatty acids, total trans",g,--,--,0.000,0.000
"Cholesterol",mg,--,--,5,9
Amino Acids
Other
Ingredients
"PEANUTS, SESAME SEED, ALMOND, COCONUT, PUMPKIN SEED, SUGAR." Date available: 06/25/2017 Date last updated by company: 06/25/2017
