Source: USDA Branded Food Products Database Release December 2017 Software v.3.8.6.4 2017-10-02
Report Run at: December 17, 2017 08:05 EST
"Nutrient data for: 45110473, LASAGNA WITH MEAT SAUCE, UPC: 717854105118"
Food Group:  Branded Food Products Database
Common Name:

Nutrient,Unit,Data points,Std. Error,"1 PACKAGE = 241.0g",1Value per 100 g,
Proximates
"Energy",kcal,--,--,241,100
"Protein",g,--,--,10.99,4.56
"Total lipid (fat)",g,--,--,6.99,2.90
"Carbohydrate, by difference",g,--,--,36.01,14.94
"Fiber, total dietary",g,--,--,2.9,1.2
"Sugars, total",g,--,--,4.99,2.07
Minerals
"Calcium, Ca",mg,--,--,60,25
"Iron, Fe",mg,--,--,1.45,0.60
"Sodium, Na",mg,--,--,641,266
Vitamins
"Vitamin C, total ascorbic acid",mg,--,--,7.2,3.0
"Vitamin A, IU",IU,--,--,810,336
Lipids
"Fatty acids, total saturated",g,--,--,2.506,1.040
"Fatty acids, total trans",g,--,--,0.000,0.000
"Cholesterol",mg,--,--,14,6
Amino Acids
Other
Ingredients
"COOKED ENRICHED MACARONI PRODUCT (WATER, DURUM SEMOLINA [ENRICHED WITH NIACIN, FERROUS SULFATE, THIAMINE MONONITRATE, RIBOFLAVIN, FOLIC ACID]), DICED TOMATOES (TOMATOES, TOMATO JUICE, CITRIC ACID, CALCIUM CHLORIDE), WATER, BEEF, PORK, TOMATO PASTE, LESS THAN 2% OF ONIONS, CHICKEN BROTH, GARLIC (WITH WATER AND CITRIC ACID), CARROTS, CELERY, GRANULATED SUGAR, SALT, BEEF BROTH FLAVOR (BEEF BROTH, FLAVOR, SALT), CANOLA OIL, BEEF BASE (ROASTED BEEF AND CONCENTRATED BEEF STOCK, SALT, HYDROLYZED SOY, CORN AND WHEAT PROTEIN, CORN OIL, SUGAR, AUTOLYZED YEAST EXTRACT, FLAVORINGS [CONTAINS OLEORESIN OF CELERY SEED], MALTODEXTRIN, WHEY, DEXTROSE, CARAMEL COLOR), YEAST EXTRACT, SPICE, MODIFIED FOOD STARCH, XANTHAN GUM, EXTRACTIVES OF PAPRIKA AND NATURAL FLAVORS, MALTODEXTRIN AND NATURAL FLAVOR." Date available: 07/14/2017 Date last updated by company: 07/14/2017
