Source: USDA Branded Food Products Database Release December 2017 Software v.3.8.6.4 2017-10-02
Report Run at: December 17, 2017 08:04 EST
"Nutrient data for: 45196725, LASAGNA, UPC: 041220320585"
Food Group:  Branded Food Products Database
Common Name:

Nutrient,Unit,Data points,Std. Error,"1 cup = 227.0g",1Value per 100 g,
Proximates
"Energy",kcal,--,--,429,189
"Protein",g,--,--,16.00,7.05
"Total lipid (fat)",g,--,--,24.99,11.01
"Carbohydrate, by difference",g,--,--,34.00,14.98
"Fiber, total dietary",g,--,--,2.0,0.9
"Sugars, total",g,--,--,4.00,1.76
Minerals
"Calcium, Ca",mg,--,--,200,88
"Iron, Fe",mg,--,--,1.54,0.68
"Potassium, K",mg,--,--,79,35
"Sodium, Na",mg,--,--,581,256
Vitamins
"Vitamin C, total ascorbic acid",mg,--,--,3.2,1.4
"Vitamin A, IU",IU,--,--,1074,473
Lipids
"Fatty acids, total saturated",g,--,--,15.005,6.610
"Fatty acids, total trans",g,--,--,0.000,0.000
"Cholesterol",mg,--,--,100,44
Amino Acids
Other
Ingredients
"WATER, HEAVY CREAM, SEMOLINA FLOUR (MILLED WHEAT, NIACIN, IRON, THIAMINE MONONITRATE, RIBOFLAVIN, FOLIC ACID), GRILLED SEASONED WHITE MEAT CHICKEN (CHICKEN WHITE MEAT WATER, POTATO STARCH, SALT), POBLANO PEPPERS, EXTRA SHARP CHEDDAR CHEESE (PASTEURIZED MILK, CULTURES, ENZYMES, SALT [ANNATTO IF COLORED]), CORN, SOUR CREAM (CULTURED PASTEURIZED LIGHT CREAM AND NON FAT MILK, POTASSIUM SORBATE {TO PRESERVE FRESHNESS], ENZYME], SPINACH, MONTEREY JACK CHEESE (PASTEURIZED MILK, SALT, ENZYMES, CULTURED), ROASTED POBLANO PEPPERS, BREAD CRUMBS (BLEACHED WHEAT FLOUR, YEAST, SUGAR, SALT), BUTTER (CREAM, SALT), MODIFIED CORN STARCH, CHICKEN FLAVOR CONCENTRATE (CHICKEN BROTH, CHICKEN FAT, SALT, CHICKEN FLAVOR, YEAST EXTRACT, COOKED VEGETABLES ([CARROT, ONION, CELERY], NATURAL FLAVORING, TURMERIC, CORN OIL), WHOLE EGG, POBLANO PEPPER BASE (POBLANO PEPPERS, SALT, SUGAR, JALAPENO POWDER, POTATO FLOUR, NATURAL FLAVORING, CANOLA OIL), SALT, CANOLA OIL, YEAST EXTRACT, GRANULATED GARLIC, XANTHAN GUM." Date available: 07/14/2017 Date last updated by company: 07/14/2017
