Source: USDA Branded Food Products Database Release December 2017 Software v.3.8.6.4 2017-10-02
Report Run at: December 17, 2017 08:05 EST
"Nutrient data for: 45262207, LASAGNA WITH MEAT SAUCE AND RICOTTA, UPC: 5051379081089"
Food Group:  Branded Food Products Database
Common Name:

Nutrient,Unit,Data points,Std. Error,"1 CONTAINER = 340.0g",1Value per 100 g,
Proximates
"Energy",kcal,--,--,500,147
"Protein",g,--,--,29.00,8.53
"Total lipid (fat)",g,--,--,19.01,5.59
"Carbohydrate, by difference",g,--,--,53.01,15.59
"Fiber, total dietary",g,--,--,4.1,1.2
"Sugars, total",g,--,--,10.00,2.94
Minerals
"Calcium, Ca",mg,--,--,598,176
"Iron, Fe",mg,--,--,1.33,0.39
"Sodium, Na",mg,--,--,949,279
Vitamins
"Vitamin C, total ascorbic acid",mg,--,--,8.8,2.6
"Vitamin A, IU",IU,--,--,1289,379
Lipids
"Fatty acids, total saturated",g,--,--,9.010,2.650
"Fatty acids, total trans",g,--,--,0.000,0.000
"Cholesterol",mg,--,--,65,19
Amino Acids
Other
Ingredients
"MARINARA SAUCE [TOMATO, GROUND PEELED TOMATO (TOMATO, TOMATO PUREE, SALT, CITRIC ACID), WATER, TOMATO PASTE, ONION, OLIVE OIL, SUGAR, SALT, CORN STARCH, GARLIC, SPICES], BOLOGNESE SAUCE [BEEF, DICED TOMATO (TOMATO, TOMATO JUICE, SALT, CALCIUM CHLORIDE, CITRIC ACID), ONION, WATER, RED WINE, CARROT, CELERY, MUSHROOM, TOMATO PASTE, CANOLA OIL, CORN STARCH, BEEF BASE (BEEF STOCK, NATURAL FLAVOR, SALT, YEAST EXTRACT, SUGAR, BEEF FAT), SPICES, SALT, PARSLEY], RICOTTA CHEESE (WHEY, MILK, ENZYMES, SALT), LASAGNA NOODLES (DURUM SEMOLINA, NIACIN, FERROUS SULFATE, THIAMIN MONONITRATE, RIBOFLAVIN, FOLIC ACID), MOZZARELLA CHEESE (PASTEURIZED MILK, CULTURES, SALT, ENZYMES), PARMESAN CHEESE (PASTEURIZED PART SKIM COW'S MILK, CHEESE CULTURES, SALT, ENZYMES, FLAVORS)." Date available: 07/14/2017 Date last updated by company: 07/14/2017
