Source: USDA Branded Food Products Database Release December 2017 Software v.3.8.6.4 2017-10-02
Report Run at: December 17, 2017 08:09 EST
"Nutrient data for: 45211616, LATTE, UPC: 085239123843"
Food Group:  Branded Food Products Database
Common Name:

Nutrient,Unit,Data points,Std. Error,"1 K-CUP = 21.0g",1Value per 100 g,
Proximates
"Energy",kcal,--,--,70,333
"Protein",g,--,--,0.00,0.00
"Total lipid (fat)",g,--,--,2.50,11.90
"Carbohydrate, by difference",g,--,--,12.00,57.14
"Fiber, total dietary",g,--,--,0.0,0.0
"Sugars, total",g,--,--,10.00,47.62
Minerals
"Calcium, Ca",mg,--,--,0,0
"Iron, Fe",mg,--,--,0.00,0.00
"Sodium, Na",mg,--,--,65,310
Vitamins
"Vitamin C, total ascorbic acid",mg,--,--,0.0,0.0
"Vitamin A, IU",IU,--,--,0,0
Lipids
"Fatty acids, total saturated",g,--,--,2.499,11.900
"Fatty acids, total trans",g,--,--,0.000,0.000
"Cholesterol",mg,--,--,0,0
Amino Acids
Other
Ingredients
"SUGAR, ARABICA COFFEE, CREAMER (COCONUT OIL, CORN SYRUP SOLIDS, SODIUM CASEINATE (A MILK DERIVATIVE), MONO & DIGLYCERIDES, AND DIPOTASSIUM PHOSPHATE), NATURAL AND ARTIFICIAL FLAVOR, SALT, SUCRALOSE." Date available: 07/14/2017 Date last updated by company: 07/14/2017
