Source: USDA Branded Food Products Database Release December 2017 Software v.3.8.6.4 2017-10-02
Report Run at: December 17, 2017 08:14 EST
"Nutrient data for: 45165277, LAURA LYNN, TORTILLA CHIPS, UPC: 086854033883"
Food Group:  Branded Food Products Database
Common Name:

Nutrient,Unit,Data points,Std. Error,"8.0 CHIPS | ABOUT = 28.0g",1Value per 100 g,
Proximates
"Energy",kcal,--,--,140,500
"Protein",g,--,--,2.00,7.14
"Total lipid (fat)",g,--,--,6.00,21.43
"Carbohydrate, by difference",g,--,--,19.00,67.86
"Fiber, total dietary",g,--,--,2.0,7.1
"Sugars, total",g,--,--,0.00,0.00
Minerals
"Calcium, Ca",mg,--,--,20,71
"Iron, Fe",mg,--,--,0.64,2.29
"Sodium, Na",mg,--,--,85,304
Vitamins
"Vitamin C, total ascorbic acid",mg,--,--,0.0,0.0
"Vitamin A, IU",IU,--,--,0,0
Lipids
"Fatty acids, total saturated",g,--,--,1.000,3.570
"Fatty acids, total monounsaturated",g,--,--,1.501,5.360
"Fatty acids, total polyunsaturated",g,--,--,4.001,14.290
"Fatty acids, total trans",g,--,--,0.000,0.000
"Cholesterol",mg,--,--,0,0
Amino Acids
Other
Ingredients
"GROUND WHITE CORN, VEGETABLE OIL (CONTAINS ONE OR MORE OF THE FOLLOWING: CORN, SUNFLOWER, SAFFLOWER, OR CANOLA OIL), AND SALT." Date available: 07/14/2017 Date last updated by company: 07/14/2017
