Source: USDA Branded Food Products Database Release December 2017 Software v.3.8.6.4 2017-10-02
Report Run at: December 17, 2017 08:12 EST
"Nutrient data for: 45157620, LAURA LYNN, LITE 50 ORANGE JUICE BEVERAGE, UPC: 086854061817"
Food Group:  Branded Food Products Database
Common Name:

Nutrient,Unit,Data points,Std. Error,"8.0 OZA = 240.0g",1Value per 100 g,
Proximates
"Energy",kcal,--,--,50,21
"Protein",g,--,--,1.01,0.42
"Total lipid (fat)",g,--,--,0.00,0.00
"Carbohydrate, by difference",g,--,--,13.01,5.42
"Fiber, total dietary",g,--,--,0.0,0.0
"Sugars, total",g,--,--,10.01,4.17
Minerals
"Calcium, Ca",mg,--,--,19,8
"Iron, Fe",mg,--,--,0.00,0.00
"Magnesium, Mg",mg,--,--,24,10
"Potassium, K",mg,--,--,451,188
"Sodium, Na",mg,--,--,10,4
Vitamins
"Vitamin C, total ascorbic acid",mg,--,--,72.0,30.0
"Thiamin",mg,--,--,0.000,0.000
"Riboflavin",mg,--,--,0.067,0.028
"Niacin",mg,--,--,0.799,0.333
"Vitamin B-6",mg,--,--,0.120,0.050
"Vitamin A, IU",IU,--,--,499,208
Lipids
"Fatty acids, total saturated",g,--,--,0.000,0.000
"Fatty acids, total trans",g,--,--,0.000,0.000
"Cholesterol",mg,--,--,0,0
Amino Acids
Other
Ingredients
"FILTERED WATER, NOT FROM CONCENTRATE ORANGE JUICE, CITRIC ACID, FRUIT PECTIN, POTASSIUM CITRATE, MAGNESIUM GLYCINATE, ASCORBIC ACID (VITAMIN C), STEVIA EXTRACT, BETA CAROTENE, NATURAL FLAVORS, NIACIN (VITAMIN B3), THIAMINE HYDROCHLORIDE (VITAMIN B1), PYRIDOXINE HYDROCHLORIDE (VITAMIN B6), RIBOFLAVIN (VITAMIN B2) FOLIC ACID." Date available: 07/14/2017 Date last updated by company: 07/14/2017
