Source: USDA Branded Food Products Database Release December 2017 Software v.3.8.6.4 2017-10-02
Report Run at: December 17, 2017 08:10 EST
"Nutrient data for: 45157617, LAURA LYNN, CHOCOLATE CARAMEL CLUSTERS, UPC: 086854061367"
Food Group:  Branded Food Products Database
Common Name:

Nutrient,Unit,Data points,Std. Error,"2.0 PIECES = 40.0g",1Value per 100 g,
Proximates
"Energy",kcal,--,--,200,500
"Protein",g,--,--,2.00,5.00
"Total lipid (fat)",g,--,--,11.00,27.50
"Carbohydrate, by difference",g,--,--,23.00,57.50
"Fiber, total dietary",g,--,--,1.0,2.5
"Sugars, total",g,--,--,21.00,52.50
Minerals
"Calcium, Ca",mg,--,--,20,50
"Iron, Fe",mg,--,--,0.45,1.12
"Sodium, Na",mg,--,--,85,212
Vitamins
"Vitamin C, total ascorbic acid",mg,--,--,0.0,0.0
"Vitamin A, IU",IU,--,--,0,0
Lipids
"Fatty acids, total saturated",g,--,--,5.000,12.500
"Fatty acids, total trans",g,--,--,0.000,0.000
"Cholesterol",mg,--,--,5,12
Amino Acids
Other
Ingredients
"MILK CHOCOLATE (SUGAR, CHOCOLATE LIQUOR, COCOA BUTTER, WHOLE MILK POWDER, SOY LECITHIN [AN EMULSIFIER], VANILLIN [AN ARTIFICIAL FLAVOR]), PEANUTS, CORN SYRUP, SUGAR, PALM OIL, WHEY POWDER (MILK) INVERT SUGAR, SALT, ARTIFICIAL VANILLA AND PURE VANILLA." Date available: 07/14/2017 Date last updated by company: 07/14/2017
