Source: USDA Branded Food Products Database Release December 2017 Software v.3.8.6.4 2017-10-02
Report Run at: December 17, 2017 08:18 EST
"Nutrient data for: 45107652, LAWRY'S, PERFECT BLEND CHICKEN & POULTRY RUB, UPC: 021500222037"
Food Group:  Branded Food Products Database
Common Name:

Nutrient,Unit,Data points,Std. Error,"0.25 tsp = 0.7g",1Value per 100 g,
Proximates
"Energy",kcal,--,--,0,0
"Protein",g,--,--,0.00,0.00
"Total lipid (fat)",g,--,--,0.00,0.00
"Carbohydrate, by difference",g,--,--,0.00,0.00
Minerals
"Sodium, Na",mg,--,--,125,17857
Vitamins
Lipids
Amino Acids
Other
Ingredients
"SEA SALT, MODIFIED CORN STARCH, GARLIC, SPICES (INCLUDING BLACK PEPPER,. PAPRIKA, ROSEMARY, THYME, PARSLEY, CELERY SEED, CHILI PEPPER, TURMERIC), SUGAR, ONION, RED BELL PEPPER, YEAST EXTRACT, CHICKEN, RIBOFLAVIN (FOR COLOR), AND NATURAL FLAVORS." Date available: 07/14/2017 Date last updated by company: 07/14/2017
