Source: USDA Branded Food Products Database Release December 2017 Software v.3.8.6.4 2017-10-02
Report Run at: December 17, 2017 08:23 EST
"Nutrient data for: 45252267, LAY'S, POTATO CHIPS, PICO DE GALLO, UPC: 028400423106"
Food Group:  Branded Food Products Database
Common Name:

Nutrient,Unit,Data points,Std. Error,"17.0 CHIPS | ABOUT = 28.0g",1Value per 100 g,
Proximates
"Energy",kcal,--,--,160,571
"Protein",g,--,--,2.00,7.14
"Total lipid (fat)",g,--,--,10.00,35.71
"Carbohydrate, by difference",g,--,--,16.00,57.14
"Fiber, total dietary",g,--,--,1.0,3.6
"Sugars, total",g,--,--,2.00,7.14
Minerals
"Calcium, Ca",mg,--,--,0,0
"Iron, Fe",mg,--,--,0.36,1.29
"Potassium, K",mg,--,--,310,1107
"Sodium, Na",mg,--,--,140,500
Vitamins
"Vitamin C, total ascorbic acid",mg,--,--,6.0,21.4
"Vitamin A, IU",IU,--,--,200,714
Lipids
"Fatty acids, total saturated",g,--,--,1.501,5.360
"Fatty acids, total trans",g,--,--,0.000,0.000
"Cholesterol",mg,--,--,0,0
Amino Acids
Other
Ingredients
"POTATOES, VEGETABLE OIL (SUNFLOWER, CORN, AND/OR CANOLA OIL), PICO DE GALLO SEASONING (SUGAR, TOMATO POWDER, SALT, MALTODEXTRIN [MADE FROM CORN], SPICES [INCLUDING CILANTROL], SOUR CREAM [CULTURED CREAM, SKIM MILK], YEAST EXTRACT, CITRIC ACID, ONION POWDER, SUNFLOWER OIL, DRIED GARLIC, NATURAL FLAVOR, SKIM MILK, CORN SYRUP SOLIDS, VEGETABLE JUICE, PAPRIKA EXTRACTS, AND ANNATTO EXTRACTS)." Date available: 09/28/2016 Date last updated by company: 09/28/2016
