Source: USDA Branded Food Products Database Release December 2017 Software v.3.8.6.4 2017-10-02
Report Run at: December 17, 2017 08:27 EST
"Nutrient data for: 45212194, LEAN GROUND TURKEY, UPC: 711535507437"
Food Group:  Branded Food Products Database
Common Name:

Nutrient,Unit,Data points,Std. Error,"4.0 ONZ = 112.0g",1Value per 100 g,
Proximates
"Energy",kcal,--,--,160,143
"Protein",g,--,--,24.00,21.43
"Total lipid (fat)",g,--,--,7.00,6.25
"Carbohydrate, by difference",g,--,--,1.00,0.89
"Sugars, total",g,--,--,0.00,0.00
Minerals
"Iron, Fe",mg,--,--,0.82,0.73
"Sodium, Na",mg,--,--,85,76
Vitamins
Lipids
"Fatty acids, total saturated",g,--,--,0.997,0.890
"Cholesterol",mg,--,--,60,54
Amino Acids
Other
Ingredients
"TURKEY, NATURAL FLAVOR." Date available: 07/14/2017 Date last updated by company: 07/14/2017
