Source: USDA Branded Food Products Database Release December 2017 Software v.3.8.6.4 2017-10-02
Report Run at: December 17, 2017 08:27 EST
"Nutrient data for: 45183902, LEAN GROUND BEEF, UPC: 078742123257"
Food Group:  Branded Food Products Database
Common Name:

Nutrient,Unit,Data points,Std. Error,"4.0 ONZ = 112.0g",1Value per 100 g,
Proximates
"Energy",kcal,--,--,170,152
"Protein",g,--,--,23.00,20.54
"Total lipid (fat)",g,--,--,8.00,7.14
"Carbohydrate, by difference",g,--,--,0.00,0.00
"Fiber, total dietary",g,--,--,0.0,0.0
"Sugars, total",g,--,--,0.00,0.00
Minerals
"Calcium, Ca",mg,--,--,0,0
"Iron, Fe",mg,--,--,2.05,1.83
"Sodium, Na",mg,--,--,75,67
Vitamins
"Vitamin C, total ascorbic acid",mg,--,--,0.0,0.0
"Vitamin A, IU",IU,--,--,0,0
Lipids
"Fatty acids, total saturated",g,--,--,3.494,3.120
"Fatty acids, total trans",g,--,--,0.504,0.450
"Cholesterol",mg,--,--,69,62
Amino Acids
Other
Ingredients
"LEAN GROUND BEEF." Date available: 07/14/2017 Date last updated by company: 07/14/2017
