Source: USDA Branded Food Products Database Release December 2017 Software v.3.8.6.4 2017-10-02
Report Run at: December 17, 2017 08:31 EST
"Nutrient data for: 45099602, LEE KUM KEE, SOUP BASE FOR SICHUAN HOT & SPICY HOT POT, UPC: 078895146202"
Food Group:  Branded Food Products Database
Common Name:

Nutrient,Unit,Data points,Std. Error,"1.33 Tbsp = 24.0g",1Value per 100 g,
Proximates
"Energy",kcal,--,--,40,167
"Protein",g,--,--,1.00,4.17
"Total lipid (fat)",g,--,--,2.50,10.42
"Carbohydrate, by difference",g,--,--,3.00,12.50
"Fiber, total dietary",g,--,--,2.0,8.3
"Sugars, total",g,--,--,1.00,4.17
Minerals
"Calcium, Ca",mg,--,--,0,0
"Iron, Fe",mg,--,--,0.00,0.00
"Sodium, Na",mg,--,--,1470,6125
Vitamins
"Vitamin C, total ascorbic acid",mg,--,--,0.0,0.0
"Vitamin A, IU",IU,--,--,0,0
Lipids
"Fatty acids, total saturated",g,--,--,0.000,0.000
"Fatty acids, total trans",g,--,--,0.000,0.000
"Cholesterol",mg,--,--,0,0
Amino Acids
Other
Ingredients
"SALTED CHILI PEPPERS (CHILI PEPPERS, SALT), SOY SAUCE (WATER, SALT, SOYBEANS, WHEAT FLOUR), SOYBEAN OIL, DRIED CHILI PEPPERS, SALT, MONOSODIUM GLUTAMATE AND DISODIUM 5'- INOSINATE AND DISODIUM 5'- GUANYLATE AS FLAVOR ENHANCERS, SICHUAN PEPPERS, FERMENTED SOYBEAN PASTE (WATER, SALT, SOYBEANS, WHEAT FLOUR), SUGAR, SPICE." Date available: 07/14/2017 Date last updated by company: 07/14/2017
