Source: USDA Branded Food Products Database Release December 2017 Software v.3.8.6.4 2017-10-02
Report Run at: December 17, 2017 08:30 EST
"Nutrient data for: 45085746, LEE KUM KEE, HOISIN SAUCE, UPC: 078895142747"
Food Group:  Branded Food Products Database
Common Name:

Nutrient,Unit,Data points,Std. Error,"2.0 Tbsp = 39.0g",1Value per 100 g,
Proximates
"Energy",kcal,--,--,90,231
"Protein",g,--,--,1.00,2.56
"Total lipid (fat)",g,--,--,0.00,0.00
"Carbohydrate, by difference",g,--,--,20.00,51.28
"Fiber, total dietary",g,--,--,0.0,0.0
"Sugars, total",g,--,--,18.00,46.15
Minerals
"Calcium, Ca",mg,--,--,0,0
"Iron, Fe",mg,--,--,0.00,0.00
"Sodium, Na",mg,--,--,960,2462
Vitamins
"Vitamin C, total ascorbic acid",mg,--,--,0.0,0.0
"Vitamin A, IU",IU,--,--,0,0
Lipids
"Fatty acids, total saturated",g,--,--,0.000,0.000
"Fatty acids, total trans",g,--,--,0.000,0.000
"Cholesterol",mg,--,--,0,0
Amino Acids
Other
Ingredients
"SUGAR, WATER, SALT, DISTILLED VINEGAR, SOY FLOUR, GARLIC, MODIFIED CORN STARCH, CONTAINS LESS THAN 2% OF SOYBEAN, CARAMEL COLOR, SESAME OIL, XANTHAN GUM, SPICES, CITRIC ACID," Date available: 06/25/2017 Date last updated by company: 06/25/2017
