Source: USDA Branded Food Products Database Release December 2017 Software v.3.8.6.4 2017-10-02
Report Run at: December 17, 2017 08:35 EST
"Nutrient data for: 45241647, LEMMY, PEACH LEMONADE, LEMON, UPC: 039771141247"
Food Group:  Branded Food Products Database
Common Name:

Nutrient,Unit,Data points,Std. Error,"13.85 OZA = 410.0g",1Value per 100 g,
Proximates
"Energy",kcal,--,--,180,44
"Protein",g,--,--,0.00,0.00
"Total lipid (fat)",g,--,--,0.00,0.00
"Carbohydrate, by difference",g,--,--,45.02,10.98
"Sugars, total",g,--,--,45.02,10.98
Minerals
"Sodium, Na",mg,--,--,0,0
Vitamins
Lipids
Amino Acids
Other
Ingredients
"TRIPLE FILTERED WATER, CANE SUGAR, LEMON JUICE (NOT FROM CONCENTRATE) NATURAL FLAVOR & NATURAL COLOR." Date available: 06/25/2017 Date last updated by company: 06/25/2017
