Source: USDA Branded Food Products Database Release December 2017 Software v.3.8.6.4 2017-10-02
Report Run at: December 17, 2017 08:39 EST
"Nutrient data for: 45250766, LEMONADE, UPC: 044800911067"
Food Group:  Branded Food Products Database
Common Name:

Nutrient,Unit,Data points,Std. Error,"12.0 ONZ = 355.0g",1Value per 100 g,
Proximates
"Energy",kcal,--,--,71,20
"Protein",g,--,--,0.00,0.00
"Total lipid (fat)",g,--,--,0.00,0.00
"Carbohydrate, by difference",g,--,--,18.00,5.07
"Fiber, total dietary",g,--,--,2.1,0.6
"Sugars, total",g,--,--,16.01,4.51
Minerals
"Calcium, Ca",mg,--,--,0,0
"Iron, Fe",mg,--,--,0.00,0.00
"Sodium, Na",mg,--,--,11,3
Vitamins
"Vitamin C, total ascorbic acid",mg,--,--,0.0,0.0
"Vitamin A, IU",IU,--,--,0,0
Lipids
Amino Acids
Other
Ingredients
"FILTERED WATER, FAIR TRADE CERTIFIED SUGAR IN THE RAW TURBINADO SUGAR, LEMON JUICE CONCENTRATE, ACACIA GUM, CITRIC ACID, NATURAL FLAVOR, STEVIA LEAF EXTRACT." Date available: 07/14/2017 Date last updated by company: 07/14/2017
