Source: USDA Branded Food Products Database Release December 2017 Software v.3.8.6.4 2017-10-02
Report Run at: December 17, 2017 08:48 EST
"Nutrient data for: 45213280, LEMON - LIME DRINK, UPC: 011225110788"
Food Group:  Branded Food Products Database
Common Name:

Nutrient,Unit,Data points,Std. Error,"1 cup = 240.0g",1Value per 100 g,
Proximates
"Energy",kcal,--,--,79,33
"Protein",g,--,--,0.00,0.00
"Total lipid (fat)",g,--,--,0.00,0.00
"Carbohydrate, by difference",g,--,--,22.01,9.17
"Fiber, total dietary",g,--,--,0.0,0.0
"Sugars, total",g,--,--,21.00,8.75
Minerals
"Calcium, Ca",mg,--,--,0,0
"Iron, Fe",mg,--,--,0.00,0.00
"Potassium, K",mg,--,--,14,6
"Sodium, Na",mg,--,--,24,10
Vitamins
"Vitamin C, total ascorbic acid",mg,--,--,0.0,0.0
"Vitamin A, IU",IU,--,--,0,0
Lipids
"Fatty acids, total saturated",g,--,--,0.000,0.000
"Fatty acids, total trans",g,--,--,0.000,0.000
"Cholesterol",mg,--,--,0,0
Amino Acids
Other
Ingredients
"WATER, HIGH FRUCTOSE CORN SYRUP, CITRIC ACID, SODIUM BENZOATE (PRESERVATIVE), POTASSIUM SORBATE, (PRESERVATIVE), SODIUM SACCHARIN, GUM ARABIC, NATURAL FLAVORS, GLYCEROL ESTER OF WOOD ROSIN, BROMINATED VEGETABLE OIL FD&C YELLOW NO. 5. FD&C BLUE NO. 1." Date available: 08/29/2017 Date last updated by company: 08/29/2017
