Source: USDA Branded Food Products Database Release December 2017 Software v.3.8.6.4 2017-10-02
Report Run at: December 17, 2017 08:40 EST
"Nutrient data for: 45290832, LEMON BAR, UPC: 021908495699"
Food Group:  Branded Food Products Database
Common Name:

Nutrient,Unit,Data points,Std. Error,"1 BAR = 45.0g",1Value per 100 g,
Proximates
"Energy",kcal,--,--,200,444
"Protein",g,--,--,4.00,8.89
"Total lipid (fat)",g,--,--,10.00,22.22
"Carbohydrate, by difference",g,--,--,24.00,53.33
"Fiber, total dietary",g,--,--,3.0,6.7
"Sugars, total",g,--,--,16.00,35.56
Minerals
"Calcium, Ca",mg,--,--,40,89
"Iron, Fe",mg,--,--,1.30,2.89
"Potassium, K",mg,--,--,300,667
"Sodium, Na",mg,--,--,5,11
Vitamins
"Vitamin D",IU,--,--,0,0
Lipids
"Fatty acids, total saturated",g,--,--,1.498,3.330
"Fatty acids, total monounsaturated",g,--,--,5.998,13.330
"Fatty acids, total polyunsaturated",g,--,--,1.998,4.440
"Fatty acids, total trans",g,--,--,0.000,0.000
"Cholesterol",mg,--,--,0,0
Amino Acids
Other
Ingredients
"DATES, CASHEWS, ALMONDS, LEMON JUICE CONCENTRATE, DRIED LEMON JUICE CONCENTRATE, LEMON OIL." Date available: 09/22/2017 Date last updated by company: 09/22/2017
