Source: USDA Branded Food Products Database Release December 2017 Software v.3.8.6.4 2017-10-02
Report Run at: December 17, 2017 08:53 EST
"Nutrient data for: 45278477, LEMON TART, UPC: 085239435014"
Food Group:  Branded Food Products Database
Common Name:

Nutrient,Unit,Data points,Std. Error,"0.125 OF TART = 61.0g",1Value per 100 g,
Proximates
"Energy",kcal,--,--,220,361
"Protein",g,--,--,3.00,4.92
"Total lipid (fat)",g,--,--,9.00,14.75
"Carbohydrate, by difference",g,--,--,32.00,52.46
"Fiber, total dietary",g,--,--,0.0,0.0
"Sugars, total",g,--,--,19.00,31.15
Minerals
"Calcium, Ca",mg,--,--,20,33
"Iron, Fe",mg,--,--,0.65,1.07
"Sodium, Na",mg,--,--,130,213
Vitamins
"Vitamin C, total ascorbic acid",mg,--,--,1.1,1.8
"Vitamin A, IU",IU,--,--,361,591
Lipids
"Fatty acids, total saturated",g,--,--,3.501,5.740
"Fatty acids, total trans",g,--,--,0.000,0.000
"Cholesterol",mg,--,--,40,66
Amino Acids
Other
Ingredients
"LEMON FILLING [SUGAR] EGG, WATER, LEMON JUICE CONCENTRATE, MODIFIED CORN STARCH, LEMON PEEL ENRICHED WHEAT FLOUR (WHEAT FLOUR, NIACIN, REDUCED IRON, THIAMINE MONONITRATE, RIBOFLAVIN, FOLIC ACID), LEMON OIL], ENRICHED WHEAT FLOUR (WHEAT FLOUR, NIACIN, REDUCED IRON, THIAMINE MONONITRATE, RIBOFLAVIN, FOLIC ACID), NON-HYDROGENATED MARGARINE (PALM, CANOLA AND MODIFIED PALM OILS, WATER, SALT, WHEY POWDER, SOY LECITHIN, MONOGLYCERIDES, NATURAL FLAVOR, VITAMIN A, VITAMIN D3), NON-HYDROGENATED VEGETABLE OIL SHORTENING (PALM, SOYBEAN, MODIFIED PALM AND COTTONSEED OILS), SUGAR, EGG, WATER, SALT, LEAVENING (SODIUM ACID PYROPHOSPHATE, SODIUM BICARBONATE, CORN STARCH, MONOCALCIUM PHOSPHATE, CALCIUM SULFATE), DEXTROSE, CORN STARCH, TITANIUM DIOXIDE (COLOR), ARTIFICIAL FLAVOR." Date available: 07/14/2017 Date last updated by company: 07/14/2017
