Source: USDA Branded Food Products Database Release December 2017 Software v.3.8.6.4 2017-10-02
Report Run at: December 17, 2017 08:38 EST
"Nutrient data for: 45215247, LEMONADE, UPC: 075450134988"
Food Group:  Branded Food Products Database
Common Name:

Nutrient,Unit,Data points,Std. Error,"8.0 OZA = 8.0g",1Value per 100 g,
Proximates
"Energy",kcal,--,--,3,42
"Protein",g,--,--,0.00,0.00
"Total lipid (fat)",g,--,--,0.00,0.00
"Carbohydrate, by difference",g,--,--,0.93,11.67
"Sugars, total",g,--,--,0.77,9.58
Minerals
"Sodium, Na",mg,--,--,0,0
Vitamins
"Vitamin C, total ascorbic acid",mg,--,--,0.6,7.6
Lipids
Amino Acids
Other
Ingredients
"FILTERED WATER, SUCROSE, LEMON JUICE CONCENTRATE, LEMON PULP, RASPBERRY JUICE CONCENTRATE, NATURAL RASPBERRY FLAVOR, NATURAL LEMON OILS." Date available: 07/14/2017 Date last updated by company: 07/14/2017
