Source: USDA Branded Food Products Database Release December 2017 Software v.3.8.6.4 2017-10-02
Report Run at: December 17, 2017 08:48 EST
"Nutrient data for: 45237162, LEMON LIME SODA, UPC: 041331039949"
Food Group:  Branded Food Products Database
Common Name:

Nutrient,Unit,Data points,Std. Error,"1 BOTTLE = 355.0g",1Value per 100 g,
Proximates
"Energy",kcal,--,--,170,48
"Protein",g,--,--,0.00,0.00
"Total lipid (fat)",g,--,--,0.00,0.00
"Carbohydrate, by difference",g,--,--,42.00,11.83
"Fiber, total dietary",g,--,--,0.0,0.0
"Sugars, total",g,--,--,41.00,11.55
Minerals
"Sodium, Na",mg,--,--,36,10
Vitamins
Lipids
"Fatty acids, total saturated",g,--,--,0.000,0.000
"Fatty acids, total trans",g,--,--,0.000,0.000
"Cholesterol",mg,--,--,0,0
Amino Acids
Other
Ingredients
"CARBONATED WATER, HIGH FRUCTOSE CORN SYRUP, NATURAL LEMON WITH OTHER NATURAL FLAVORS, CITRIC ACID, SODIUM CITRATE, ACACIA GUM, FD&C YELLOW #5 & FD&C BLUE #1 (ARTIFICIAL FLAVOR)." Date available: 06/25/2017 Date last updated by company: 06/25/2017
