Source: USDA Branded Food Products Database Release December 2017 Software v.3.8.6.4 2017-10-02
Report Run at: December 17, 2017 08:55 EST
"Nutrient data for: 45277664, LENTIL & BROWN RICE KIT CARDAMOM AND CURRANT, UPC: 851117004067"
Food Group:  Branded Food Products Database
Common Name:

Nutrient,Unit,Data points,Std. Error,"1.6 ONZ = 45.0g",1Value per 100 g,
Proximates
"Energy",kcal,--,--,160,356
"Protein",g,--,--,5.00,11.11
"Total lipid (fat)",g,--,--,1.00,2.22
"Carbohydrate, by difference",g,--,--,32.00,71.11
"Fiber, total dietary",g,--,--,5.0,11.1
"Sugars, total",g,--,--,2.00,4.44
Minerals
"Calcium, Ca",mg,--,--,40,89
"Iron, Fe",mg,--,--,5.60,12.44
"Sodium, Na",mg,--,--,390,867
Vitamins
"Vitamin C, total ascorbic acid",mg,--,--,3.7,8.3
"Vitamin A, IU",IU,--,--,0,0
Lipids
"Fatty acids, total saturated",g,--,--,0.000,0.000
"Fatty acids, total trans",g,--,--,0.000,0.000
"Cholesterol",mg,--,--,0,0
Amino Acids
Other
Ingredients
"PARBOILED LONG GRAIN BROWN RICE, ORANGE MASOOR LENTILS, ZANTE CURRANTS, SPICES (CUMIN, TURMERIC, GINGER POWDER, CARDAMOM, DRIED RED CHILI POWDER, CINNAMON) SALT, NUTRITIONAL YEAST." Date available: 07/14/2017 Date last updated by company: 07/14/2017
