Source: USDA Branded Food Products Database Release December 2017 Software v.3.8.6.4 2017-10-02
Report Run at: December 17, 2017 08:55 EST
"Nutrient data for: 45198726, LENTIL & CHORIZO SMOKY SOUP, UPC: 079893114484"
Food Group:  Branded Food Products Database
Common Name:

Nutrient,Unit,Data points,Std. Error,"1 cup = 245.0g",1Value per 100 g,
Proximates
"Energy",kcal,--,--,191,78
"Protein",g,--,--,8.01,3.27
"Total lipid (fat)",g,--,--,8.99,3.67
"Carbohydrate, by difference",g,--,--,19.01,7.76
"Fiber, total dietary",g,--,--,3.9,1.6
"Sugars, total",g,--,--,2.99,1.22
Minerals
"Calcium, Ca",mg,--,--,59,24
"Iron, Fe",mg,--,--,2.16,0.88
"Sodium, Na",mg,--,--,1009,412
Vitamins
"Vitamin C, total ascorbic acid",mg,--,--,3.7,1.5
"Vitamin A, IU",IU,--,--,1749,714
Lipids
"Fatty acids, total saturated",g,--,--,4.508,1.840
"Fatty acids, total trans",g,--,--,0.000,0.000
"Cholesterol",mg,--,--,29,12
Amino Acids
Other
Ingredients
"WATER, CREAM, CARROTS, CHORIZO SAUSAGE (PORK, WATER, SPICES, CHILI PEPPER, SALT, SUGAR, DEHYDRATED GARLIC). LENTILS, ONIONS, CONTAINS LESS THAN 2% OF: BUTTER (CREAM, SALT) MODIFIED CORN STARCH, SALT CHICKEN FAT, GARLIC, YEAST EXTRACT, CHIPOTLE PEPPER BASE (WATER, CHIPOTLE PEPPERS), CULTURED DEXTROSE, DIJON MUSTARD (MUSTARD SEEDS, VINEGAR, SALT, CITRIC ACID, POTASSIUM METABISULFITE [PRESERVATIVE]), FLAVORING, DEHYDRATED ONIONS, DISTILLED VINEGAR, SPICE, PAPRIKA, PAPRIKA EXTRACT, DEHYDRATED GARLIC." Date available: 07/14/2017 Date last updated by company: 07/14/2017
