Source: USDA Branded Food Products Database Release December 2017 Software v.3.8.6.4 2017-10-02
Report Run at: December 17, 2017 08:59 EST
"Nutrient data for: 45043963, LES PETITES FERMIERES, PEPPER JACK CHEESE, UPC: 651219209656"
Food Group:  Branded Food Products Database
Common Name:

Nutrient,Unit,Data points,Std. Error,"1 SLICE | ABOUT = 21.0g",1Value per 100 g,
Proximates
"Energy",kcal,--,--,80,381
"Protein",g,--,--,7.00,33.33
"Total lipid (fat)",g,--,--,6.00,28.57
"Carbohydrate, by difference",g,--,--,1.00,4.76
"Fiber, total dietary",g,--,--,0.0,0.0
"Sugars, total",g,--,--,0.00,0.00
Minerals
"Calcium, Ca",mg,--,--,200,952
"Iron, Fe",mg,--,--,0.00,0.00
"Sodium, Na",mg,--,--,125,595
Vitamins
"Vitamin C, total ascorbic acid",mg,--,--,0.0,0.0
"Vitamin A, IU",IU,--,--,476,2267
Lipids
"Fatty acids, total saturated",g,--,--,3.501,16.670
"Fatty acids, total trans",g,--,--,0.000,0.000
"Cholesterol",mg,--,--,20,95
Amino Acids
Other
Ingredients
"PASTEURIZED CULTURED MILK, JALAPENO AND BELL PEPPERS, SALT, KOSHER ENZYMES." Date available: 06/24/2017 Date last updated by company: 06/24/2017
