Source: USDA Branded Food Products Database Release December 2017 Software v.3.8.6.4 2017-10-02
Report Run at: December 17, 2017 09:00 EST
"Nutrient data for: 45160349, LESSEREVIL, BUDDHA BOWL FOODS, FLAVORED POPCORN, CLASSIC CHEDDAH, UPC: 180999001476"
Food Group:  Branded Food Products Database
Common Name:

Nutrient,Unit,Data points,Std. Error,"3.0 CUPS | ABOUT = 28.0g",1Value per 100 g,
Proximates
"Energy",kcal,--,--,110,393
"Protein",g,--,--,3.00,10.71
"Total lipid (fat)",g,--,--,4.00,14.29
"Carbohydrate, by difference",g,--,--,17.00,60.71
"Fiber, total dietary",g,--,--,5.0,17.9
"Sugars, total",g,--,--,1.00,3.57
Minerals
"Calcium, Ca",mg,--,--,20,71
"Iron, Fe",mg,--,--,0.64,2.29
"Sodium, Na",mg,--,--,190,679
Vitamins
"Vitamin C, total ascorbic acid",mg,--,--,0.0,0.0
"Vitamin A, IU",IU,--,--,179,638
Lipids
"Fatty acids, total saturated",g,--,--,2.999,10.710
"Fatty acids, total monounsaturated",g,--,--,0.000,0.000
"Fatty acids, total polyunsaturated",g,--,--,0.000,0.000
"Fatty acids, total trans",g,--,--,0.000,0.000
"Cholesterol",mg,--,--,0,0
Amino Acids
Other
Ingredients
"ORGANIC NON-GMO POPCORN, ORGANIC COCONUT OIL, ORGANIC CHEDDAR CHEESE BLEND [ORGANIC CHEDDAR CHEESE (ORGANIC CULTURED PASTEURIZED MILK, SALT, ENZYMES), ORGANIC NONFAT MILK, ORGANIC BUTTERMILK AND/OR ORGANIC WHEY, SALT, DISODIUM PHOSPHATE], ORGANIC TAPIOCA SOLIDS, ORGANIC BUTTERMILK AND/OR ORGANIC WHEY, HIMALAYAN SALT, ORGANIC EVAPORATED CANE SUGAR, ORGANIC CHEESE FLAVOR, NATURAL FLAVOR, CITRIC ACID." Date available: 07/14/2017 Date last updated by company: 07/14/2017
