Source: USDA Branded Food Products Database Release December 2017 Software v.3.8.6.4 2017-10-02
Report Run at: December 17, 2017 09:01 EST
"Nutrient data for: 45167387, LET'S DO ORGANIC, ORGANIC SHREDDED COCONUT - LIGHTLY SWEETENED WITH ORGANIC CANE SUGAR, UPC: 043182005173"
Food Group:  Branded Food Products Database
Common Name:

Nutrient,Unit,Data points,Std. Error,"11.0 | ABOUT = 15.0g",1Value per 100 g,
Proximates
"Energy",kcal,--,--,100,667
"Protein",g,--,--,1.00,6.67
"Total lipid (fat)",g,--,--,9.00,60.00
"Carbohydrate, by difference",g,--,--,5.00,33.33
"Fiber, total dietary",g,--,--,2.0,13.3
"Sugars, total",g,--,--,2.00,13.33
Minerals
"Calcium, Ca",mg,--,--,0,0
"Iron, Fe",mg,--,--,0.96,6.40
"Potassium, K",mg,--,--,75,500
"Sodium, Na",mg,--,--,5,33
Vitamins
"Vitamin C, total ascorbic acid",mg,--,--,0.0,0.0
"Vitamin A, IU",IU,--,--,0,0
Lipids
"Fatty acids, total saturated",g,--,--,7.999,53.330
"Fatty acids, total trans",g,--,--,0.000,0.000
"Cholesterol",mg,--,--,0,0
Amino Acids
Other
Ingredients
"ORGANIC COCONUT, ORGANIC CANE SUGAR." Date available: 07/14/2017 Date last updated by company: 07/14/2017
