Source: USDA Branded Food Products Database Release December 2017 Software v.3.8.6.4 2017-10-02
Report Run at: December 17, 2017 09:08 EST
"Nutrient data for: 45134580, LIBBYS Vienna Sausage Zesty BBQ Sauce, UNPREPARED, GTIN: 00039000086677"
Food Group:  Branded Food Products Database
Common Name:

Nutrient,Unit,Data points,Std. Error,"4.0 links with sauce (66g) = 66.0g",1Value per 100 g,
Proximates
"Energy",kcal,--,--,140,212
"Protein",g,--,--,5.00,7.58
"Total lipid (fat)",g,--,--,13.00,19.70
"Carbohydrate, by difference",g,--,--,2.00,3.03
"Fiber, total dietary",g,--,--,1.0,1.5
"Sugars, total",g,--,--,2.00,3.03
Minerals
"Calcium, Ca",mg,--,--,60,91
"Iron, Fe",mg,--,--,0.72,1.09
"Potassium, K",mg,--,--,95,144
"Sodium, Na",mg,--,--,460,697
Vitamins
"Vitamin C, total ascorbic acid",mg,--,--,0.0,0.0
"Vitamin A, IU",IU,--,--,0,0
Lipids
"Fatty acids, total saturated",g,--,--,4.000,6.060
"Fatty acids, total monounsaturated",g,--,--,5.003,7.580
"Fatty acids, total polyunsaturated",g,--,--,2.501,3.790
"Fatty acids, total trans",g,--,--,0.000,0.000
"Cholesterol",mg,--,--,40,61
Amino Acids
Other
Ingredients
"Vienna Sausage made with Chicken, Beef & Pork (Mechanically Separated Chicken, Water, Beef, Pork, Contains less than 2% of: Salt, Sugar, Spice, Sodium Erythorbate, Flavorings, Sodium Nitrite, Garlic Powder), Barbecue Sauce (Water, Tomato Paste, Sugar, Distilled Vinegar, Modified Corn Starch, Flavoring [Corn Syrup, Salt, Garlic, Sugar, Spices, Soy Sauce Solids {Naturally Fermented Wheat and Soybeans, Salt, Maltodextrin, Caramel Color}, Palm Oil, Tamarind, Flavoring], Salt, Spice, Citric Acid, Soybean Oil, Flavoring, Natural Smoke Flavoring. CONTAINS: SOY, WHEAT." Date available: 10/11/2017 Date last updated by company: 10/11/2017
