Source: USDA Branded Food Products Database Release December 2017 Software v.3.8.6.4 2017-10-02
Report Run at: December 17, 2017 09:08 EST
"Nutrient data for: 45151814, LIBER'S, SANDWICH CREMEOS, CHOCOLATE, UPC: 043427007672"
Food Group:  Branded Food Products Database
Common Name:

Nutrient,Unit,Data points,Std. Error,"1 COOKIE = 14.0g",1Value per 100 g,
Proximates
"Energy",kcal,--,--,60,429
"Protein",g,--,--,0.00,0.00
"Total lipid (fat)",g,--,--,2.50,17.86
"Carbohydrate, by difference",g,--,--,9.00,64.29
"Fiber, total dietary",g,--,--,0.0,0.0
"Sugars, total",g,--,--,4.00,28.57
Minerals
"Calcium, Ca",mg,--,--,0,0
"Iron, Fe",mg,--,--,0.00,0.00
"Sodium, Na",mg,--,--,15,107
Vitamins
"Vitamin C, total ascorbic acid",mg,--,--,0.0,0.0
"Vitamin A, IU",IU,--,--,0,0
Lipids
"Fatty acids, total saturated",g,--,--,1.000,7.140
"Fatty acids, total trans",g,--,--,0.000,0.000
"Cholesterol",mg,--,--,5,36
Amino Acids
Other
Ingredients
"POTATO STARCH, TAPIOCA STARCH, PALM SHORTENING, SUGAR, WHOLE EGGS, COCOA, SODIUM BICARBONATE, MONOCALCIUM POSPHATE, SALT, VANILLIN (ARTIFICIAL FLAVOR), CARRAGEENAN GUM, XANTHAN GUM, AMMONIUM BICARBONATE." Date available: 08/22/2017 Date last updated by company: 08/22/2017
