Source: USDA Branded Food Products Database Release December 2017 Software v.3.8.6.4 2017-10-02
Report Run at: December 17, 2017 09:08 EST
"Nutrient data for: 45187130, LIBERATED SPECIALTY FOODS, PIZZA CRUST, UPC: 085996005444"
Food Group:  Branded Food Products Database
Common Name:

Nutrient,Unit,Data points,Std. Error,"1 CRUST = 86.0g",1Value per 100 g,
Proximates
"Energy",kcal,--,--,460,535
"Protein",g,--,--,23.00,26.74
"Total lipid (fat)",g,--,--,35.00,40.70
"Carbohydrate, by difference",g,--,--,13.00,15.12
"Fiber, total dietary",g,--,--,10.0,11.6
"Sugars, total",g,--,--,2.00,2.33
Minerals
"Calcium, Ca",mg,--,--,150,174
"Iron, Fe",mg,--,--,3.60,4.19
"Sodium, Na",mg,--,--,220,256
Vitamins
"Vitamin C, total ascorbic acid",mg,--,--,0.0,0.0
"Vitamin A, IU",IU,--,--,100,116
Lipids
"Fatty acids, total saturated",g,--,--,3.999,4.650
"Fatty acids, total trans",g,--,--,0.000,0.000
"Cholesterol",mg,--,--,140,163
Amino Acids
Other
Ingredients
"ALMOND FLOUR (BLANCHED), ORGANIC EGG, ORGANIC EXTRA VIRGIN OLIVE OIL, SEA SALT, GARLIC, THYME, OREGANO, BASIL." Date available: 12/28/2016 Date last updated by company: 12/28/2016
