Source: USDA Branded Food Products Database Release December 2017 Software v.3.8.6.4 2017-10-02
Report Run at: December 17, 2017 09:11 EST
"Nutrient data for: 45102162, LIEBER'S, INSTANT PUDDING, VANILLA, UPC: 043427152396"
Food Group:  Branded Food Products Database
Common Name:

Nutrient,Unit,Data points,Std. Error,"12.0 GRM = 12.0g",1Value per 100 g,
Proximates
"Energy",kcal,--,--,40,333
"Protein",g,--,--,0.00,0.00
"Total lipid (fat)",g,--,--,0.00,0.00
"Carbohydrate, by difference",g,--,--,9.00,75.00
"Fiber, total dietary",g,--,--,1.0,8.3
"Sugars, total",g,--,--,2.00,16.67
Minerals
"Calcium, Ca",mg,--,--,0,0
"Iron, Fe",mg,--,--,3.00,25.00
"Sodium, Na",mg,--,--,100,833
Vitamins
"Vitamin C, total ascorbic acid",mg,--,--,0.0,0.0
"Vitamin A, IU",IU,--,--,0,0
Lipids
"Fatty acids, total saturated",g,--,--,0.000,0.000
"Fatty acids, total trans",g,--,--,0.000,0.000
Amino Acids
Other
Ingredients
"MODIFIED FOOD STARCH, DEXTROSE, TETRASODIUM PYROPHOSPHATE, DISODIUM PHOSPHATE, SALT, VANILLIN (ARTIFICIAL FLAVOR), SUCRALOSE." Date available: 06/25/2017 Date last updated by company: 06/25/2017
