Source: USDA Branded Food Products Database Release December 2017 Software v.3.8.6.4 2017-10-02
Report Run at: December 17, 2017 09:13 EST
"Nutrient data for: 45081798, LIFEWAY, FROZEN KEFIR, TART AND TANGY ORIGINAL, UPC: 017077402163"
Food Group:  Branded Food Products Database
Common Name:

Nutrient,Unit,Data points,Std. Error,"0.5 cup = 72.0g",1Value per 100 g,
Proximates
"Energy",kcal,--,--,90,125
"Protein",g,--,--,4.00,5.56
"Total lipid (fat)",g,--,--,1.00,1.39
"Carbohydrate, by difference",g,--,--,18.00,25.00
"Fiber, total dietary",g,--,--,0.0,0.0
"Sugars, total",g,--,--,16.00,22.22
Minerals
"Calcium, Ca",mg,--,--,150,208
"Iron, Fe",mg,--,--,0.00,0.00
"Sodium, Na",mg,--,--,60,83
Vitamins
"Vitamin C, total ascorbic acid",mg,--,--,0.0,0.0
"Vitamin A, IU",IU,--,--,0,0
Lipids
"Fatty acids, total saturated",g,--,--,0.497,0.690
"Fatty acids, total trans",g,--,--,0.000,0.000
"Cholesterol",mg,--,--,5,7
Amino Acids
Other
Ingredients
"CULTURED LOW FAT MILK, SKIM MILK, CANE SUGAR, TAPIOCA MALTODEXTRIN, NATURAL FLAVORS, STABILIZER (GUAR GUM, CAROB BEAN GUM), VANILLA EXTRACT, ACTIVE KEFIR CULTURES." Date available: 06/25/2017 Date last updated by company: 06/25/2017
