Source: USDA Branded Food Products Database Release December 2017 Software v.3.8.6.4 2017-10-02
Report Run at: December 17, 2017 09:11 EST
"Nutrient data for: 45148415, LIFE CHOICE, DELIGHT BITES MULTI-GRAIN SNACKS, SRIRACHA, UPC: 075436988871"
Food Group:  Branded Food Products Database
Common Name:

Nutrient,Unit,Data points,Std. Error,"24.0 PIECES) | (ABOUT = 28.0g",1Value per 100 g,
Proximates
"Energy",kcal,--,--,130,464
"Protein",g,--,--,1.00,3.57
"Total lipid (fat)",g,--,--,6.00,21.43
"Carbohydrate, by difference",g,--,--,17.00,60.71
"Fiber, total dietary",g,--,--,1.0,3.6
"Sugars, total",g,--,--,1.00,3.57
Minerals
"Calcium, Ca",mg,--,--,0,0
"Iron, Fe",mg,--,--,0.00,0.00
"Sodium, Na",mg,--,--,280,1000
Vitamins
"Vitamin C, total ascorbic acid",mg,--,--,0.0,0.0
"Vitamin A, IU",IU,--,--,0,0
Lipids
"Fatty acids, total saturated",g,--,--,0.501,1.790
"Fatty acids, total monounsaturated",g,--,--,4.500,16.070
"Fatty acids, total polyunsaturated",g,--,--,0.000,0.000
"Fatty acids, total trans",g,--,--,0.000,0.000
"Cholesterol",mg,--,--,0,0
Amino Acids
Other
Ingredients
"WHOLE WHEAT FLOUR, HIGH OLEIC SUNFLOWER OIL, WHEAT STARCH, CORN FLOUR, WHOLE RICE FLOUR, RICE FLOUR, SUGAR, POTATO STARCH, WHOLE BARLEY FLOUR, LESS THAN 2% OF: WHOLE OAT FLOUR, SEA SALT, SALT, CHILI PEPPER POWDER, SPICES, GARLIC POWDER, VINEGAR, TORULA YEAST, CITRIC ACID, NATURAL FLAVORS." Date available: 07/14/2017 Date last updated by company: 07/14/2017
