Source: USDA Branded Food Products Database Release December 2017 Software v.3.8.6.4 2017-10-02
Report Run at: December 17, 2017 09:12 EST
"Nutrient data for: 45102692, LIFESAVERS, SOURS GUMMIES CANDY, TANGY CHERRY, WATERMELON, ORANGE, STRAWBERRY, BLACK RASPBERRY, UPC: 019000170491"
Food Group:  Branded Food Products Database
Common Name:

Nutrient,Unit,Data points,Std. Error,"11.0 PIECES = 40.0g",1Value per 100 g,
Proximates
"Energy",kcal,--,--,130,325
"Protein",g,--,--,1.00,2.50
"Total lipid (fat)",g,--,--,0.00,0.00
"Carbohydrate, by difference",g,--,--,33.00,82.50
"Sugars, total",g,--,--,27.00,67.50
Minerals
"Sodium, Na",mg,--,--,0,0
Vitamins
Lipids
Amino Acids
Other
Ingredients
"MADE OF: CORN SYRUP, SUGAR, WATER, MODIFIED CORN STARCH, GELATIN, FUMARIC ACID, LACTIC ACID, CITRIC ACID, NATURAL AND ARTIFICIAL FLAVORS, COLORS (RED 40, YELLOW 5, BLUE 1)." Date available: 07/14/2017 Date last updated by company: 07/14/2017
