Source: USDA Branded Food Products Database Release December 2017 Software v.3.8.6.4 2017-10-02
Report Run at: December 17, 2017 09:12 EST
"Nutrient data for: 45158771, LIFE REFRESHED, COCONUT WATER, UPC: 889568000024"
Food Group:  Branded Food Products Database
Common Name:

Nutrient,Unit,Data points,Std. Error,"11.2 OZA = 330.0g",1Value per 100 g,
Proximates
"Energy",kcal,--,--,50,15
"Protein",g,--,--,0.00,0.00
"Total lipid (fat)",g,--,--,0.00,0.00
"Carbohydrate, by difference",g,--,--,13.99,4.24
"Fiber, total dietary",g,--,--,0.0,0.0
"Sugars, total",g,--,--,10.99,3.33
Minerals
"Calcium, Ca",mg,--,--,59,18
"Iron, Fe",mg,--,--,0.00,0.00
"Potassium, K",mg,--,--,650,197
"Sodium, Na",mg,--,--,20,6
Vitamins
"Vitamin C, total ascorbic acid",mg,--,--,0.0,0.0
"Vitamin A, IU",IU,--,--,0,0
Lipids
"Cholesterol",mg,--,--,0,0
Amino Acids
Other
Ingredients
"ORGANIC COCONUT WATER, <3% ORGANIC COCONUT WATER CONCENTRATE" Date available: 07/14/2017 Date last updated by company: 07/14/2017
