Source: USDA Branded Food Products Database Release December 2017 Software v.3.8.6.4 2017-10-02
Report Run at: December 17, 2017 09:14 EST
"Nutrient data for: 45112445, LIFT PROTEIN BAR, UPC: 637480045711"
Food Group:  Branded Food Products Database
Common Name:

Nutrient,Unit,Data points,Std. Error,"1 BAR = 60.0g",1Value per 100 g,
Proximates
"Energy",kcal,--,--,200,333
"Protein",g,--,--,21.00,35.00
"Total lipid (fat)",g,--,--,4.00,6.67
"Carbohydrate, by difference",g,--,--,24.00,40.00
"Fiber, total dietary",g,--,--,16.0,26.7
"Sugars, total",g,--,--,3.00,5.00
Minerals
"Calcium, Ca",mg,--,--,100,167
"Iron, Fe",mg,--,--,0.24,0.40
"Potassium, K",mg,--,--,60,100
"Sodium, Na",mg,--,--,190,317
Vitamins
"Vitamin C, total ascorbic acid",mg,--,--,0.0,0.0
"Vitamin A, IU",IU,--,--,0,0
Lipids
"Fatty acids, total saturated",g,--,--,3.000,5.000
"Fatty acids, total monounsaturated",g,--,--,1.002,1.670
"Fatty acids, total polyunsaturated",g,--,--,0.000,0.000
"Fatty acids, total trans",g,--,--,1.002,1.670
"Cholesterol",mg,--,--,35,58
Amino Acids
Other
Ingredients
"WHEY PROTEIN BLEND (WHEY PROTEIN CONCENTRATE, WHEY PROTEIN ISOLATE), SOLUBLE CORN FIBER, WHEY PROTEIN CRISPS (WHEY PROTEIN ISOLATE, WHEY PROTEIN CONCENTRATE, TAPIOCA STARCH, SUNFLOWER LECITHIN), WATER, GLYCERIN, COCONUT OIL, NATURAL FLAVOR, ALMONDS, SALT, CARAMEL COLOR, SUCRALOSE." Date available: 09/09/2017 Date last updated by company: 09/09/2017
