Source: USDA Branded Food Products Database Release December 2017 Software v.3.8.6.4 2017-10-02
Report Run at: December 17, 2017 09:23 EST
"Nutrient data for: 45183184, LIGHT ICE CREAM, UPC: 049705721797"
Food Group:  Branded Food Products Database
Common Name:

Nutrient,Unit,Data points,Std. Error,"0.5 cup = 66.0g",1Value per 100 g,
Proximates
"Energy",kcal,--,--,110,167
"Protein",g,--,--,2.00,3.03
"Total lipid (fat)",g,--,--,3.00,4.55
"Carbohydrate, by difference",g,--,--,18.00,27.27
"Fiber, total dietary",g,--,--,0.3,0.4
"Sugars, total",g,--,--,12.00,18.18
Minerals
"Calcium, Ca",mg,--,--,80,121
"Iron, Fe",mg,--,--,0.00,0.00
"Sodium, Na",mg,--,--,60,91
Vitamins
"Vitamin C, total ascorbic acid",mg,--,--,0.0,0.0
"Vitamin A, IU",IU,--,--,225,341
Lipids
"Fatty acids, total saturated",g,--,--,2.000,3.030
"Fatty acids, total trans",g,--,--,0.000,0.000
"Cholesterol",mg,--,--,10,15
Amino Acids
Other
Ingredients
"MILK, SUGAR, CORN SYRUP,, CREAM, SKIM MILK, STRAWBERRY PUREE, WHEY, WHEY PROTEIN CONCENTRATE, COCOA PROCESSED WITH ALKALI, NATURAL FLAVORS, MONO & DIGLYCERIDES, GUAR GUM, CAROB BEAN GUM, POLYSORBATE 80, BEET JUICE CONCENTRATE, ANNATTO, VITAMIN A PALMITATE." Date available: 07/14/2017 Date last updated by company: 07/14/2017
