Source: USDA Branded Food Products Database Release December 2017 Software v.3.8.6.4 2017-10-02
Report Run at: December 17, 2017 09:39 EST
"Nutrient data for: 45029572, LIGHT RED KIDNEY BEANS, UPC: 070620001046"
Food Group:  Branded Food Products Database
Common Name:

Nutrient,Unit,Data points,Std. Error,"0.25 cup = 38.0g",1Value per 100 g,
Proximates
"Energy",kcal,--,--,70,184
"Protein",g,--,--,9.00,23.68
"Total lipid (fat)",g,--,--,0.00,0.00
"Carbohydrate, by difference",g,--,--,22.00,57.89
"Fiber, total dietary",g,--,--,14.0,36.8
"Sugars, total",g,--,--,1.00,2.63
Minerals
"Calcium, Ca",mg,--,--,20,53
"Iron, Fe",mg,--,--,1.33,3.49
"Sodium, Na",mg,--,--,20,53
Vitamins
"Vitamin C, total ascorbic acid",mg,--,--,0.0,0.0
"Vitamin A, IU",IU,--,--,0,0
Lipids
"Fatty acids, total saturated",g,--,--,0.000,0.000
"Fatty acids, total trans",g,--,--,0.000,0.000
"Cholesterol",mg,--,--,0,0
Amino Acids
Other
Ingredients
"LIGHT RED KIDNEY BEANS." Date available: 10/13/2017 Date last updated by company: 10/13/2017
