Source: USDA Branded Food Products Database Release December 2017 Software v.3.8.6.4 2017-10-02
Report Run at: December 17, 2017 09:24 EST
"Nutrient data for: 45292561, LIGHT ICE CREAM, UPC: 858089003173"
Food Group:  Branded Food Products Database
Common Name:

Nutrient,Unit,Data points,Std. Error,"0.5 cup = 68.0g",1Value per 100 g,
Proximates
"Energy",kcal,--,--,90,132
"Protein",g,--,--,5.00,7.35
"Total lipid (fat)",g,--,--,3.00,4.41
"Carbohydrate, by difference",g,--,--,16.00,23.53
"Fiber, total dietary",g,--,--,3.0,4.4
"Sugars, total",g,--,--,7.00,10.29
Minerals
"Calcium, Ca",mg,--,--,100,147
"Iron, Fe",mg,--,--,0.61,0.89
"Sodium, Na",mg,--,--,120,176
Vitamins
"Vitamin C, total ascorbic acid",mg,--,--,0.0,0.0
"Vitamin A, IU",IU,--,--,112,165
Lipids
"Fatty acids, total saturated",g,--,--,1.000,1.470
"Fatty acids, total trans",g,--,--,0.000,0.000
"Cholesterol",mg,--,--,44,65
Amino Acids
Other
Ingredients
"MILK AND CREAM, EGGS, ERYTHRITOL, MILK PROTEIN CONCENTRATE, BROWNIE DOUGH (FLOUR [WHEAT], SUGAR, BUTTER, COCOA [PROCESSED WITH ALKALI], SOYBEAN OIL, WHITE RICE FLOUR, VANILLA EXTRACT, ORGANIC SOY LECITHIN, SALT), ORGANIC CANE SUGAR, PREBIOTIC FIBER, HIGH FAT COCOA, VEGETABLE GLYCERIN, SEA SALT, NATURAL FLAVORS, ORGANIC CAROB GUM, ORGANIC GUAR GUM, ORGANIC STEVIA." Date available: 07/14/2017 Date last updated by company: 07/14/2017
