Source: USDA Branded Food Products Database Release December 2017 Software v.3.8.6.4 2017-10-02
Report Run at: December 17, 2017 09:20 EST
"Nutrient data for: 45256939, LIGHT FAT FREE YOGURT, UPC: 070470445151"
Food Group:  Branded Food Products Database
Common Name:

Nutrient,Unit,Data points,Std. Error,"1 CONTAINER = 170.0g",1Value per 100 g,
Proximates
"Energy",kcal,--,--,90,53
"Protein",g,--,--,5.00,2.94
"Total lipid (fat)",g,--,--,0.00,0.00
"Carbohydrate, by difference",g,--,--,16.00,9.41
"Sugars, total",g,--,--,10.00,5.88
Minerals
"Calcium, Ca",mg,--,--,150,88
"Phosphorus, P",mg,--,--,100,59
"Sodium, Na",mg,--,--,80,47
Vitamins
"Vitamin A, IU",IU,--,--,750,441
"Vitamin D",IU,--,--,80,47
Lipids
"Fatty acids, total saturated",g,--,--,0.000,0.000
"Fatty acids, total trans",g,--,--,0.000,0.000
"Cholesterol",mg,--,--,5,3
Amino Acids
Other
Ingredients
"CHOCOLATE MINT INGREDIENTS: CULTURED PASTEURIZED GRADE A NONFAT MILK, MODIFIED CORN STARCH, SUGAR, KOSHER GELATIN, CARAMEL COLOR, NATURAL FLAVOR, POTASSIUM SORBATE ADDED TO MAINTAIN FRESHNESS, ACESULFAME POTASSIUM, SUCRALOSE, RED #40, YELLOW #6, VITAMIN A ACETATE, BLUE #1, VITAMIN D3. HARVEST PEACH INGREDIENTS: CULTURED PASTEURIZED GRADE A NONFAT MILK, PEACHES, MODIFIED CORN STARCH, SUGAR, KOSHER GELATIN, NATURAL FLAVOR, CITRIC ACID, TRICALCIUM PHOSPHATE, POTASSIUM SORBATE ADDED TO MAINTAIN FRESHNESS, ACESULFAME POTASSIUM, COLORED WITH ANNATTO EXTRACT, SUCRALOSE, VITAMIN A ACETATE, VITAMIN D3." Date available: 10/26/2016 Date last updated by company: 10/26/2016
