Source: USDA Branded Food Products Database Release December 2017 Software v.3.8.6.4 2017-10-02
Report Run at: December 17, 2017 09:37 EST
"Nutrient data for: 45328369, LIGHT NONFAT YOGURT, UPC: 018894304647"
Food Group:  Branded Food Products Database
Common Name:

Nutrient,Unit,Data points,Std. Error,"170.0 GRM = 170.0g",1Value per 100 g,
Proximates
"Energy",kcal,--,--,90,53
"Protein",g,--,--,5.00,2.94
"Total lipid (fat)",g,--,--,0.00,0.00
"Carbohydrate, by difference",g,--,--,18.00,10.59
"Fiber, total dietary",g,--,--,0.0,0.0
"Sugars, total",g,--,--,13.01,7.65
Minerals
"Calcium, Ca",mg,--,--,201,118
"Iron, Fe",mg,--,--,0.00,0.00
"Potassium, K",mg,--,--,280,165
"Sodium, Na",mg,--,--,85,50
Vitamins
"Vitamin C, total ascorbic acid",mg,--,--,0.0,0.0
"Vitamin A, IU",IU,--,--,1000,588
"Vitamin D",IU,--,--,80,47
Lipids
"Fatty acids, total saturated",g,--,--,0.000,0.000
"Fatty acids, total trans",g,--,--,0.000,0.000
"Cholesterol",mg,--,--,5,3
Amino Acids
Other
Ingredients
"CULTURED PASTEURIZED GRADE A NONFAT MILK, WATER, FOOD STARCH-MODIFIED FRUCTOSE, BANANA PUREE STRAWBERRIES, NATURAL FLAVOR, SUCRALOSE, CARRAGEENAN, PECTIN, CITRIC ACID, CALCIUM PHOSPHATE, POTASSIUM SORBATE (TO MAINTAIN FRESHNESS), ACESULFAME POTASSIUM, RED 40, VITAMIN A PALMITATE, VITAMIN D3." Date available: 07/14/2017 Date last updated by company: 07/14/2017
