Source: USDA Branded Food Products Database Release December 2017 Software v.3.8.6.4 2017-10-02
Report Run at: December 17, 2017 09:35 EST
"Nutrient data for: 45052580, LIGHT NONFAT YOGURT, UPC: 072036590435"
Food Group:  Branded Food Products Database
Common Name:

Nutrient,Unit,Data points,Std. Error,"6.0 ONZ = 170.0g",1Value per 100 g,
Proximates
"Energy",kcal,--,--,80,47
"Protein",g,--,--,6.00,3.53
"Total lipid (fat)",g,--,--,0.00,0.00
"Carbohydrate, by difference",g,--,--,13.01,7.65
"Fiber, total dietary",g,--,--,0.0,0.0
"Sugars, total",g,--,--,8.99,5.29
Minerals
"Calcium, Ca",mg,--,--,201,118
"Iron, Fe",mg,--,--,0.00,0.00
"Sodium, Na",mg,--,--,100,59
Vitamins
"Vitamin C, total ascorbic acid",mg,--,--,2.4,1.4
"Vitamin A, IU",IU,--,--,0,0
Lipids
"Fatty acids, total saturated",g,--,--,0.000,0.000
"Fatty acids, total trans",g,--,--,0.000,0.000
"Cholesterol",mg,--,--,5,3
Amino Acids
Other
Ingredients
"CULTURED PASTEURIZED NONFAT MILK, PINA COLADA BASE (PINEAPPLE, MODIFIED CORN STARCH, NATURAL FLAVORS, PINEAPPLE JUICE, COCONUT, PECTIN, SODIUM BENZOATE AND POTASSIUM SORBATE [PRESERVATIVE], LEMON JUICE, SUCRALOSE), NONFAT DRY MILK, MODIFIED FOOD STARCH, CARRAGEENAN, PECTIN, SUCRALOSE (NON-NUTRITIVE SWEETENER). CONTAINS ACTIVE YOGURT CULTURES. INCLUDING L. ACIDOPHILUS & B. BIFIDUS" Date available: 06/25/2017 Date last updated by company: 06/25/2017
