Source: USDA Branded Food Products Database Release December 2017 Software v.3.8.6.4 2017-10-02
Report Run at: December 17, 2017 09:19 EST
"Nutrient data for: 45234546, LIGHT EGG NOG, UPC: 041900077242"
Food Group:  Branded Food Products Database
Common Name:

Nutrient,Unit,Data points,Std. Error,"0.5 cup = 120.0g",1Value per 100 g,
Proximates
"Energy",kcal,--,--,130,108
"Protein",g,--,--,4.00,3.33
"Total lipid (fat)",g,--,--,3.50,2.92
"Carbohydrate, by difference",g,--,--,20.00,16.67
"Fiber, total dietary",g,--,--,0.0,0.0
"Sugars, total",g,--,--,19.00,15.83
Minerals
"Calcium, Ca",mg,--,--,150,125
"Iron, Fe",mg,--,--,0.00,0.00
"Sodium, Na",mg,--,--,106,88
Vitamins
"Vitamin C, total ascorbic acid",mg,--,--,0.0,0.0
"Vitamin A, IU",IU,--,--,300,250
Lipids
"Fatty acids, total saturated",g,--,--,2.004,1.670
"Fatty acids, total trans",g,--,--,0.000,0.000
"Cholesterol",mg,--,--,46,38
Amino Acids
Other
Ingredients
"MILK, HIGH FRUCTOSE CORN SYRUP, NONFAT MILK, EGG YOLK, CONTAINS LESS THAN 1% OF: WHEY, CORN STARCH, GUAR GUM, SALT, NUTMEG, CARRAGEENAN, NATURAL AND ARTIFICIAL FLAVOR, TURMERIC AND ANNATTO (COLOR), VITAMIN A PALMITATE." Date available: 06/24/2017 Date last updated by company: 06/24/2017
