Source: USDA Branded Food Products Database Release December 2017 Software v.3.8.6.4 2017-10-02
Report Run at: December 17, 2017 09:38 EST
"Nutrient data for: 45138509, LIGHT RANCH DRESSING, UPC: 041321005718"
Food Group:  Branded Food Products Database
Common Name:

Nutrient,Unit,Data points,Std. Error,"2.0 Tbsp = 30.0g",1Value per 100 g,
Proximates
"Energy",kcal,--,--,70,233
"Protein",g,--,--,0.00,0.00
"Total lipid (fat)",g,--,--,6.00,20.00
"Carbohydrate, by difference",g,--,--,4.00,13.33
"Fiber, total dietary",g,--,--,0.0,0.0
"Sugars, total",g,--,--,2.00,6.67
Minerals
"Calcium, Ca",mg,--,--,0,0
"Iron, Fe",mg,--,--,0.00,0.00
"Sodium, Na",mg,--,--,290,967
Vitamins
"Vitamin C, total ascorbic acid",mg,--,--,0.0,0.0
"Vitamin A, IU",IU,--,--,0,0
Lipids
"Fatty acids, total saturated",g,--,--,0.999,3.330
"Fatty acids, total monounsaturated",g,--,--,1.500,5.000
"Fatty acids, total polyunsaturated",g,--,--,3.000,10.000
"Fatty acids, total trans",g,--,--,0.000,0.000
"Cholesterol",mg,--,--,5,17
Amino Acids
Other
Ingredients
"WATER, SOYBEAN OIL, MALTODEXTRIN (CORN), DISTILLED VINEGAR, BUTTERMILK*, SUGAR, CORN SYRUP, MODIFIED CORN STARCH, SALT. CONTAINS 2% OR LESS OF: PHOSPHORIC ACID, TITANIUM DIOXIDE, GARLIC*, ONION*, XANTHAN GUM, EGG YOLKS, MONOSODIUM GLUTAMATE, LEMON JUICE CONCENTRATE, SPICES, PROPYLENE GLYCOL ALGINATE, NATURAL FLAVORS (MILK), SOY LECITHIN, DISODIUM INOSINATE AND DISODIUM GUANYLATE, SODIUM BENZOATE AND SORBIC ACID AND CALCIUM DISODIUM EDTA (TO PROTECT QUALITY)." Date available: 07/14/2017 Date last updated by company: 07/14/2017
