Source: USDA Branded Food Products Database Release December 2017 Software v.3.8.6.4 2017-10-02
Report Run at: December 17, 2017 09:31 EST
"Nutrient data for: 45217649, LIGHTLY SWEETENED TEA, UPC: 746742000211"
Food Group:  Branded Food Products Database
Common Name:

Nutrient,Unit,Data points,Std. Error,"8.0 OZA = 240.0g",1Value per 100 g,
Proximates
"Energy",kcal,--,--,46,19
"Protein",g,--,--,0.00,0.00
"Total lipid (fat)",g,--,--,0.00,0.00
"Carbohydrate, by difference",g,--,--,10.99,4.58
"Sugars, total",g,--,--,10.99,4.58
Minerals
"Sodium, Na",mg,--,--,10,4
Vitamins
Lipids
Amino Acids
Other
Ingredients
"FILTERED WATER, HIGH FRUCTOSE CORN SYRUP, CITRIC ACID, NATURAL FLAVOR, TEA SOLIDS, PHOSPHORIC ACID, SODIUM BENZOATE (PRESERVATIVE) AND POTASSIUM SORBATE (PRESERVATIVE)" Date available: 07/14/2017 Date last updated by company: 07/14/2017
