Source: USDA Branded Food Products Database Release December 2017 Software v.3.8.6.4 2017-10-02
Report Run at: December 17, 2017 09:43 EST
"Nutrient data for: 45229483, LIGHT WHEAT BREAD, UPC: 03003440065"
Food Group:  Branded Food Products Database
Common Name:

Nutrient,Unit,Data points,Std. Error,"2.0 SLICES = 41.0g",1Value per 100 g,
Proximates
"Energy",kcal,--,--,70,171
"Protein",g,--,--,4.00,9.76
"Total lipid (fat)",g,--,--,0.50,1.22
"Carbohydrate, by difference",g,--,--,16.00,39.02
"Fiber, total dietary",g,--,--,4.0,9.8
"Sugars, total",g,--,--,1.00,2.44
Minerals
"Calcium, Ca",mg,--,--,60,146
"Iron, Fe",mg,--,--,0.88,2.14
"Sodium, Na",mg,--,--,130,317
Vitamins
"Vitamin C, total ascorbic acid",mg,--,--,0.0,0.0
"Thiamin",mg,--,--,0.000,0.000
"Riboflavin",mg,--,--,0.102,0.249
"Niacin",mg,--,--,1.464,3.571
"Vitamin A, IU",IU,--,--,0,0
Lipids
"Fatty acids, total saturated",g,--,--,0.000,0.000
"Fatty acids, total trans",g,--,--,0.000,0.000
"Cholesterol",mg,--,--,0,0
Amino Acids
Other
Ingredients
"ENRICHED WHEAT FLOUR BLEACHED (WHEAT FLOUR, MALTED BARLEY FLOUR, NIACIN, IRON, THIAMINE MONONITRATE, RIBOFLAVIN, FOLIC ACID), OAT FIBER, WHEAT GLUTEN, HIGH FRUCTOSE CORN SYRUP, YEAST, CONTAINS 2% OR LESS OF THE FOLLOWING: SALT, CULTURED WHEAT FLOUR, VINEGAR, SOYBEAN OIL, WHEAT BRAN, SOY FIBER, WHOLE WHEAT FLOUR, BARLEY FIBER, WHITE RYE FLOUR, GUM COLLOID, CELLULOSE GUM, GUAR GUM, XANTHAN GUM, DOUGH CONDITIONERS (ETHOXYLATED MONO- & DIGLYCERIDES, MONOGLYCERIDES, ASCORBIC ACID), YEAST NUTRIENTS (CALCIUM SULFATE, AMMONIUM SULFATE), CARAMEL COLOR, ENZYME, SOY LECITHIN." Date available: 07/14/2017 Date last updated by company: 07/14/2017
