Source: USDA Branded Food Products Database Release December 2017 Software v.3.8.6.4 2017-10-02
Report Run at: December 17, 2017 09:25 EST
"Nutrient data for: 45330599, LIGHT ICE CREAM, UPC: 858089003401"
Food Group:  Branded Food Products Database
Common Name:

Nutrient,Unit,Data points,Std. Error,"0.5 cup = 66.0g",1Value per 100 g,
Proximates
"Energy",kcal,--,--,60,91
"Protein",g,--,--,5.00,7.58
"Total lipid (fat)",g,--,--,2.00,3.03
"Carbohydrate, by difference",g,--,--,14.00,21.21
"Fiber, total dietary",g,--,--,3.0,4.5
"Sugars, total",g,--,--,5.00,7.58
Minerals
"Calcium, Ca",mg,--,--,100,152
"Iron, Fe",mg,--,--,0.36,0.55
"Sodium, Na",mg,--,--,110,167
Vitamins
"Vitamin C, total ascorbic acid",mg,--,--,0.0,0.0
"Vitamin A, IU",IU,--,--,100,152
Lipids
"Fatty acids, total saturated",g,--,--,1.003,1.520
"Fatty acids, total trans",g,--,--,0.000,0.000
"Cholesterol",mg,--,--,40,61
Amino Acids
Other
Ingredients
"MILK AND CREAM, EGGS, ERYTHRITOL, PREBIOTIC FIBER, MILK PROTEIN CONCENTRATE, ORGANIC CANE SUGAR, VEGETABLE GLYCERIN, NATURAL PLANT EXTRACTS (FOR COLOR), NATURAL FLAVORS, SEA SALT, ORGANIC CAROB GUM, ORGANIC GUAR GUM, ORGANIC STEVIA." Date available: 10/13/2017 Date last updated by company: 10/13/2017
