Source: USDA Branded Food Products Database Release December 2017 Software v.3.8.6.4 2017-10-02
Report Run at: December 17, 2017 09:25 EST
"Nutrient data for: 45102374, LIGHT ICE CREAM VANILLA FUDGE SWIRL, UPC: 011225107238"
Food Group:  Branded Food Products Database
Common Name:

Nutrient,Unit,Data points,Std. Error,"0.5 cup = 63.0g",1Value per 100 g,
Proximates
"Energy",kcal,--,--,110,175
"Protein",g,--,--,2.00,3.17
"Total lipid (fat)",g,--,--,3.00,4.76
"Carbohydrate, by difference",g,--,--,18.00,28.57
"Fiber, total dietary",g,--,--,0.0,0.0
"Sugars, total",g,--,--,14.00,22.22
Minerals
"Calcium, Ca",mg,--,--,80,127
"Iron, Fe",mg,--,--,0.00,0.00
"Sodium, Na",mg,--,--,50,79
Vitamins
"Vitamin C, total ascorbic acid",mg,--,--,0.0,0.0
"Vitamin A, IU",IU,--,--,225,357
Lipids
"Fatty acids, total saturated",g,--,--,1.997,3.170
"Fatty acids, total trans",g,--,--,0.000,0.000
"Cholesterol",mg,--,--,10,16
Amino Acids
Other
Ingredients
"MILKFAT AND NONFAT MILK, SUGAR, FUDGE RIPPLE (CORN SYRUP, WATER, COCOA AND COCOA PROCESSED WITH ALKALI, CORN STARCH-MODIFIED, CITRIC ACID, SALT, POTASSIUM SORBATE [PRESERVATIVE], XANTHAN GUM, CARRAGEENAN, ARTIFICIAL FLAVOR), SWEETCREAM BUTTERMILK, CORN SYRUP, WHEY, CONTAINS LESS THAN 2% PROPYLENE GLYCOL MONOESTER, MONO & DIGLYCERIDES, GUAR GUM, CELLULOSE GUM, CARRAGEENEN, VITAMIN A PALMITATE, NATURAL FLAVOR, ANNATTO (COLOR)." Date available: 07/14/2017 Date last updated by company: 07/14/2017
