Source: USDA Branded Food Products Database Release December 2017 Software v.3.8.6.4 2017-10-02
Report Run at: December 17, 2017 09:38 EST
"Nutrient data for: 45065548, LIGHT POPCORN, UPC: 023896497709"
Food Group:  Branded Food Products Database
Common Name:

Nutrient,Unit,Data points,Std. Error,"4.0 CUPS POPPED | MAKES ABOUT = 29.0g",1Value per 100 g,
Proximates
"Energy",kcal,--,--,120,414
"Protein",g,--,--,2.00,6.90
"Total lipid (fat)",g,--,--,4.50,15.52
"Carbohydrate, by difference",g,--,--,18.00,62.07
"Fiber, total dietary",g,--,--,2.0,6.9
Minerals
"Iron, Fe",mg,--,--,0.62,2.14
"Sodium, Na",mg,--,--,290,1000
Vitamins
Lipids
"Fatty acids, total saturated",g,--,--,2.001,6.900
"Fatty acids, total monounsaturated",g,--,--,1.499,5.170
"Fatty acids, total polyunsaturated",g,--,--,1.001,3.450
"Fatty acids, total trans",g,--,--,0.000,0.000
"Cholesterol",mg,--,--,0,0
Amino Acids
Other
Ingredients
"WHOLE GRAIN POPCORN, PALM OIL, SALT, NATURAL & ARTIFICIAL FLAVOR [MILK], COLOR ADDED, FRESHNESS PRESERVED BY TBHQ." Date available: 07/14/2017 Date last updated by company: 07/14/2017
