Source: USDA Branded Food Products Database Release December 2017 Software v.3.8.6.4 2017-10-02
Report Run at: December 17, 2017 09:26 EST
"Nutrient data for: 45288150, LIGHT LOW FAT YOGURT, UPC: 070470006543"
Food Group:  Branded Food Products Database
Common Name:

Nutrient,Unit,Data points,Std. Error,"1 CONTAINER = 170.0g",1Value per 100 g,
Proximates
"Energy",kcal,--,--,90,53
"Protein",g,--,--,5.00,2.94
"Total lipid (fat)",g,--,--,0.00,0.00
"Carbohydrate, by difference",g,--,--,16.00,9.41
"Sugars, total",g,--,--,10.00,5.88
Minerals
"Calcium, Ca",mg,--,--,150,88
"Phosphorus, P",mg,--,--,100,59
"Sodium, Na",mg,--,--,80,47
Vitamins
"Vitamin A, IU",IU,--,--,750,441
"Vitamin D",IU,--,--,80,47
Lipids
"Fatty acids, total saturated",g,--,--,0.000,0.000
"Fatty acids, total trans",g,--,--,0.000,0.000
"Cholesterol",mg,--,--,5,3
Amino Acids
Other
Ingredients
"PASTEURIZED GRADE A NONFAT MILK, MODIFIED CORN STARCH, STRAWBERRIES, SUGAR, BANANA PUREE, KOSHER GELATIN, NATURAL FLAVOR, CITRIC ACID, TRICALCIUM PHOSPHATE, POTASSIUM SORBATE ADDED TO MAINTAIN FRESHNESS, ACESULFAME POTASSIUM, SUCRALOSE, RED #40, VITAMIN A ACETATE, YOGURT CULTURES (L. BULGARICUS, S. THERMOPHILUS, L. ACIDOPHILUS), VITAMIN D3." Date available: 05/06/2017 Date last updated by company: 05/06/2017
