Source: USDA Branded Food Products Database Release December 2017 Software v.3.8.6.4 2017-10-02
Report Run at: December 17, 2017 09:49 EST
"Nutrient data for: 45255363, LIMES, UPC: 095829500978"
Food Group:  Branded Food Products Database
Common Name:

Nutrient,Unit,Data points,Std. Error,"1 MEDIUM LIME = 67.0g",1Value per 100 g,
Proximates
"Energy",kcal,--,--,20,30
"Protein",g,--,--,0.00,0.00
"Total lipid (fat)",g,--,--,0.00,0.00
"Carbohydrate, by difference",g,--,--,7.00,10.45
"Fiber, total dietary",g,--,--,2.0,3.0
Minerals
"Potassium, K",mg,--,--,75,112
Vitamins
"Vitamin C, total ascorbic acid",mg,--,--,21.0,31.3
Lipids
Amino Acids
Other
Ingredients
"LIMES" Date available: 10/21/2016 Date last updated by company: 10/21/2016
