Source: USDA Branded Food Products Database Release December 2017 Software v.3.8.6.4 2017-10-02
Report Run at: December 17, 2017 09:48 EST
"Nutrient data for: 45316499, LIME & CHILI ALMONDS, UPC: 046567023427"
Food Group:  Branded Food Products Database
Common Name:

Nutrient,Unit,Data points,Std. Error,"0.25 cup = 30.0g",1Value per 100 g,
Proximates
"Energy",kcal,--,--,160,533
"Protein",g,--,--,6.00,20.00
"Total lipid (fat)",g,--,--,15.00,50.00
"Carbohydrate, by difference",g,--,--,7.00,23.33
"Fiber, total dietary",g,--,--,3.0,10.0
"Sugars, total",g,--,--,1.00,3.33
Minerals
"Calcium, Ca",mg,--,--,80,267
"Iron, Fe",mg,--,--,1.80,6.00
"Sodium, Na",mg,--,--,400,1333
Vitamins
"Vitamin C, total ascorbic acid",mg,--,--,0.0,0.0
"Vitamin A, IU",IU,--,--,166,555
Lipids
"Fatty acids, total saturated",g,--,--,1.500,5.000
"Fatty acids, total trans",g,--,--,0.000,0.000
"Cholesterol",mg,--,--,0,0
Amino Acids
Other
Ingredients
"ALMONDS, LIME AND CHILI SEASONING (SALT, SOUR CREAM POWDER [CREAM, NONFAT MILK, CULTURES], MALTODEXTRIN, MODIFIED CORN STARCH, PAPRIKA, CITRIC ACID, SPICE, CORN SYRUP SOLIDS, LIME JUICE SOLIDS, VINEGAR SOLIDS AND NATURAL FLAVOR), VEGETABLE OIL (MAY CONTAIN ONE OR MORE OF THE FOLLOWING: PEANUT, CANOLA, SUNFLOWER AND/OR SOYBEAN OIL)." Date available: 07/14/2017 Date last updated by company: 07/14/2017
