Source: USDA Branded Food Products Database Release December 2017 Software v.3.8.6.4 2017-10-02
Report Run at: December 17, 2017 09:50 EST
"Nutrient data for: 45285171, LIMITATION CRAB STICKS, UPC: 4770190036108"
Food Group:  Branded Food Products Database
Common Name:

Nutrient,Unit,Data points,Std. Error,"1 STICK = 34.0g",1Value per 100 g,
Proximates
"Energy",kcal,--,--,110,324
"Protein",g,--,--,7.00,20.59
"Total lipid (fat)",g,--,--,2.50,7.35
"Carbohydrate, by difference",g,--,--,16.00,47.06
"Fiber, total dietary",g,--,--,0.0,0.0
"Sugars, total",g,--,--,3.00,8.82
Minerals
"Calcium, Ca",mg,--,--,0,0
"Iron, Fe",mg,--,--,0.00,0.00
"Sodium, Na",mg,--,--,10,29
Vitamins
"Vitamin C, total ascorbic acid",mg,--,--,0.0,0.0
"Vitamin A, IU",IU,--,--,0,0
Lipids
"Fatty acids, total saturated",g,--,--,0.000,0.000
"Fatty acids, total monounsaturated",g,--,--,1.499,4.410
"Fatty acids, total polyunsaturated",g,--,--,1.000,2.940
"Fatty acids, total trans",g,--,--,0.000,0.000
"Cholesterol",mg,--,--,14,41
Amino Acids
Other
Ingredients
"WATER, FISH PROTEIN 31% (FISH MEAT, STABILIZERS: SORBITOL, POLYPHOSPHATES, SUGAR), WHEAT STARCH, EGG WHITE, POTATO STARCH, RAPESEED OIL, SUGAR, SOY PROTEIN, ARTIFICIAL AND NATURAL FLAVOURING (CONTAINS CRUSTACEANS), SALT, WHOLE EGG MASS, COLOR ADDED: TITANIUM DIOXIDE, CARMINES, PAPRIKA EXTRACT; STABILIZER: CARRAGEENAN." Date available: 10/13/2017 Date last updated by company: 10/13/2017
