Source: USDA Branded Food Products Database Release December 2017 Software v.3.8.6.4 2017-10-02
Report Run at: December 17, 2017 09:54 EST
"Nutrient data for: 45018416, LINDT, DARK CHOCOLATE, STRAWBERRY, UPC: 037466066837"
Food Group:  Branded Food Products Database
Common Name:

Nutrient,Unit,Data points,Std. Error,"4.0 Squares = 40.0g",1Value per 100 g,
Proximates
"Energy",kcal,--,--,200,500
"Protein",g,--,--,2.00,5.00
"Total lipid (fat)",g,--,--,12.00,30.00
"Carbohydrate, by difference",g,--,--,20.00,50.00
"Fiber, total dietary",g,--,--,1.0,2.5
"Sugars, total",g,--,--,19.00,47.50
Minerals
"Calcium, Ca",mg,--,--,20,50
"Iron, Fe",mg,--,--,1.35,3.38
"Sodium, Na",mg,--,--,15,38
Vitamins
"Vitamin C, total ascorbic acid",mg,--,--,0.0,0.0
"Vitamin A, IU",IU,--,--,0,0
Lipids
"Fatty acids, total saturated",g,--,--,7.000,17.500
"Fatty acids, total trans",g,--,--,0.000,0.000
"Cholesterol",mg,--,--,5,12
Amino Acids
Other
Ingredients
"SUGAR, CHOCOLATE, COCOA BUTTER, MILKFAT, STRAWBERRY PIECES, NATURAL AND ARTIFICIAL FLAVORS, SOYA LECITHIN (EMULSIFIER)." Date available: 06/25/2017 Date last updated by company: 06/25/2017
