Source: USDA Branded Food Products Database Release December 2017 Software v.3.8.6.4 2017-10-02
Report Run at: December 17, 2017 09:59 EST
"Nutrient data for: 45142030, LINDT, SIGNATURE SELECTIONS EXTRA DARK CHOCOLATE TRUFFLES, UPC: 009542013554"
Food Group:  Branded Food Products Database
Common Name:

Nutrient,Unit,Data points,Std. Error,"2.0 PIECES = 33.0g",1Value per 100 g,
Proximates
"Energy",kcal,--,--,200,606
"Protein",g,--,--,2.00,6.06
"Total lipid (fat)",g,--,--,16.00,48.48
"Carbohydrate, by difference",g,--,--,14.00,42.42
"Fiber, total dietary",g,--,--,2.0,6.1
"Sugars, total",g,--,--,11.00,33.33
Minerals
"Calcium, Ca",mg,--,--,20,61
"Iron, Fe",mg,--,--,1.09,3.31
"Sodium, Na",mg,--,--,10,30
Vitamins
"Vitamin C, total ascorbic acid",mg,--,--,0.0,0.0
"Vitamin A, IU",IU,--,--,0,0
Lipids
"Fatty acids, total saturated",g,--,--,10.999,33.330
"Fatty acids, total trans",g,--,--,0.000,0.000
"Cholesterol",mg,--,--,0,0
Amino Acids
Other
Ingredients
"CHOCOLATE, SUGAR, VEGETABLE OIL (COCONUT, PALM KERNEL), COCOA BUTTER, COCOA NIBS, MILKFAT, MILK, SOYA LECITHIN (EMULSIFIER), SKIM MILK, VANILLA SEEDS, ARTIFICIAL FLAVORS, BARLEY MALT POWDER." Date available: 07/14/2017 Date last updated by company: 07/14/2017
