Source: USDA Branded Food Products Database Release December 2017 Software v.3.8.6.4 2017-10-02
Report Run at: December 17, 2017 10:01 EST
"Nutrient data for: 45192391, LINGUINE EGG PASTA, UPC: 742753346867"
Food Group:  Branded Food Products Database
Common Name:

Nutrient,Unit,Data points,Std. Error,"1.25 cup = 85.0g",1Value per 100 g,
Proximates
"Energy",kcal,--,--,230,271
"Protein",g,--,--,10.00,11.76
"Total lipid (fat)",g,--,--,3.00,3.53
"Carbohydrate, by difference",g,--,--,42.00,49.41
"Fiber, total dietary",g,--,--,3.0,3.5
"Sugars, total",g,--,--,2.00,2.35
Minerals
"Calcium, Ca",mg,--,--,40,47
"Iron, Fe",mg,--,--,2.97,3.49
"Sodium, Na",mg,--,--,20,24
Vitamins
"Vitamin C, total ascorbic acid",mg,--,--,0.0,0.0
"Vitamin A, IU",IU,--,--,165,194
Lipids
"Fatty acids, total saturated",g,--,--,1.003,1.180
"Fatty acids, total trans",g,--,--,0.000,0.000
"Cholesterol",mg,--,--,50,59
Amino Acids
Other
Ingredients
"ORGANIC DURUM FLOUR, ORGANIC WHOLE EGGS, WATER." Date available: 07/14/2017 Date last updated by company: 07/14/2017
