Source: USDA Branded Food Products Database Release December 2017 Software v.3.8.6.4 2017-10-02
Report Run at: December 17, 2017 10:04 EST
"Nutrient data for: 45157770, LINKY DOODLES, CANDY CHAINS, UPC: 090076020224"
Food Group:  Branded Food Products Database
Common Name:

Nutrient,Unit,Data points,Std. Error,"1 STICK = 15.0g",1Value per 100 g,
Proximates
"Energy",kcal,--,--,50,333
"Protein",g,--,--,0.00,0.00
"Total lipid (fat)",g,--,--,0.00,0.00
"Carbohydrate, by difference",g,--,--,14.00,93.33
"Sugars, total",g,--,--,11.00,73.33
Minerals
"Sodium, Na",mg,--,--,0,0
Vitamins
Lipids
Amino Acids
Other
Ingredients
"SUGAR, CORN SYRUP, CITRIC ACID, MALIC ACID, NATURAL AND ARTIFICIAL FLAVORS, ARTIFICIAL COLORS: (RED 3, RED 40, RED 40 LAKE, BLUE 1, BLUE 1 LAKE, BLUE 2, BLUE 2 LAKE, YELLOW 5, YELLOW 5 LAKE, YELLOW 6, YELLOW 6 LAKE), TITANIUM DIOXIDE." Date available: 07/14/2017 Date last updated by company: 07/14/2017
