Source: USDA Branded Food Products Database Release December 2017 Software v.3.8.6.4 2017-10-02
Report Run at: December 17, 2017 10:07 EST
"Nutrient data for: 45088971, LIPTON, SOUP SECRETS, SOUP MIX WITH DICED WHITE CHICKEN MEAT, CHICKEN NOODLE, UPC: 041000003325"
Food Group:  Branded Food Products Database
Common Name:

Nutrient,Unit,Data points,Std. Error,"1 CUP PREPARED) | (MAKES = 20.0g",1Value per 100 g,
Proximates
"Energy",kcal,--,--,70,350
"Protein",g,--,--,3.00,15.00
"Total lipid (fat)",g,--,--,1.00,5.00
"Carbohydrate, by difference",g,--,--,12.00,60.00
"Fiber, total dietary",g,--,--,0.0,0.0
"Sugars, total",g,--,--,1.00,5.00
Minerals
"Calcium, Ca",mg,--,--,0,0
"Iron, Fe",mg,--,--,0.90,4.50
"Sodium, Na",mg,--,--,640,3200
Vitamins
"Vitamin C, total ascorbic acid",mg,--,--,0.0,0.0
"Vitamin A, IU",IU,--,--,0,0
Lipids
"Fatty acids, total saturated",g,--,--,0.000,0.000
"Fatty acids, total trans",g,--,--,0.000,0.000
"Cholesterol",mg,--,--,15,75
Amino Acids
Other
Ingredients
"ENRICHED EGG NOODLES [WHEAT FLOUR, DURUM FLOUR, EGGS, NIACIN, FERROUS SULFATE (IRON), THIAMINE MONONITRATE, RIBOFLAVIN, FOLIC ACID], MALTODEXTRIN (CORN), SALT, CHICKEN WHITE MEAT*, CORN SYRUP*, POWDERED CHICKEN, CORN STARCH, CONTAINS 2% OR LESS OF EACH OF THE FOLLOWING: MONOSODIUM GLUTAMATE, YEAST EXTRACT, CHICKEN FAT, SUGAR, HYDROLYZED SOY PROTEIN, POTASSIUM CHLORIDE, DISODIUM GUANYLATE, DISODIUM INOSINATE, WHEY PROTEIN CONCENTRATE (MILK), PARSLEY*, TURMERIC (FOR COLOR), NATURAL FLAVORS, SPICES." Date available: 07/14/2017 Date last updated by company: 07/14/2017
