Source: USDA Branded Food Products Database Release December 2017 Software v.3.8.6.4 2017-10-02
Report Run at: December 17, 2017 10:05 EST
"Nutrient data for: 45088597, LIPTON, CUP-A-SOUP, INSTANT SOUP, SPRING VEGETABLE, UPC: 041000014888"
Food Group:  Branded Food Products Database
Common Name:

Nutrient,Unit,Data points,Std. Error,"1 ENVELOPE (MAKES 6 FL OZ PREPARED) = 13.0g",1Value per 100 g,
Proximates
"Energy",kcal,--,--,50,385
"Protein",g,--,--,2.00,15.38
"Total lipid (fat)",g,--,--,1.00,7.69
"Carbohydrate, by difference",g,--,--,8.00,61.54
"Fiber, total dietary",g,--,--,1.0,7.7
"Sugars, total",g,--,--,1.00,7.69
Minerals
"Calcium, Ca",mg,--,--,0,0
"Iron, Fe",mg,--,--,1.38,10.65
"Sodium, Na",mg,--,--,450,3462
Vitamins
"Vitamin C, total ascorbic acid",mg,--,--,4.6,35.5
"Vitamin A, IU",IU,--,--,1539,11835
Lipids
"Fatty acids, total saturated",g,--,--,0.000,0.000
"Fatty acids, total trans",g,--,--,0.000,0.000
"Cholesterol",mg,--,--,5,38
Amino Acids
Other
Ingredients
"ENRICHED EGG NOODLES [DURUM WHEAT FLOUR, EGG YOLKS, NIACIN, FERROUS SULFATE (IRON), THIAMIN MONONITRATE, RIBOFLAVIN, FOLIC ACID], MALTODEXTRIN (CORN), SALT, SUGAR, YEAST EXTRACT, CARROTS*, HIGH OLEIC SUNFLOWER OIL, TOMATO POWDER, PEAS*, GARLIC POWDER, ONION POWDER, GUAR GUM, CITRIC ACID, SPICE, CARAMEL (FOR COLOR), NATURAL FLAVOR, SULFITES." Date available: 07/14/2017 Date last updated by company: 07/14/2017
