Source: USDA Branded Food Products Database Release December 2017 Software v.3.8.6.4 2017-10-02
Report Run at: December 17, 2017 10:20 EST
"Nutrient data for: 45138205, LISY, SEASONED MEAT TENDERIZER, UPC: 096786300076"
Food Group:  Branded Food Products Database
Common Name:

Nutrient,Unit,Data points,Std. Error,"0.25 TBP. = 1.0g",1Value per 100 g,
Proximates
"Energy",kcal,--,--,0,0
"Protein",g,--,--,0.00,0.00
"Total lipid (fat)",g,--,--,0.00,0.00
"Carbohydrate, by difference",g,--,--,0.30,30.00
"Fiber, total dietary",g,--,--,0.0,0.0
"Sugars, total",g,--,--,0.50,50.00
Minerals
"Calcium, Ca",mg,--,--,0,0
"Iron, Fe",mg,--,--,0.00,0.00
"Sodium, Na",mg,--,--,400,40000
Vitamins
"Vitamin C, total ascorbic acid",mg,--,--,0.0,0.0
"Vitamin A, IU",IU,--,--,20000,2000000
Lipids
"Fatty acids, total saturated",g,--,--,0.000,0.000
"Fatty acids, total trans",g,--,--,0.000,0.000
"Cholesterol",mg,--,--,0,0
Amino Acids
Other
Ingredients
"SALT, MONOSODIUM GLUTAMATE, DEXTROSE, ONION, PAPRIKA, ANNATTO, SPICES BROMELAIN, GARLIC CALCIUM SILICATE AND SOY." Date available: 06/25/2017 Date last updated by company: 06/25/2017
