Source: USDA Branded Food Products Database Release December 2017 Software v.3.8.6.4 2017-10-02
Report Run at: December 17, 2017 10:30 EST
"Nutrient data for: 45253659, LIT'L BEEF FRANKS, UPC: 044500052985"
Food Group:  Branded Food Products Database
Common Name:

Nutrient,Unit,Data points,Std. Error,"6.0 LINKS = 54.0g",1Value per 100 g,
Proximates
"Energy",kcal,--,--,160,296
"Protein",g,--,--,7.00,12.96
"Total lipid (fat)",g,--,--,14.00,25.93
"Carbohydrate, by difference",g,--,--,2.00,3.70
"Fiber, total dietary",g,--,--,0.0,0.0
"Sugars, total",g,--,--,1.00,1.85
Minerals
"Calcium, Ca",mg,--,--,20,37
"Iron, Fe",mg,--,--,0.73,1.36
"Sodium, Na",mg,--,--,550,1019
Vitamins
"Vitamin C, total ascorbic acid",mg,--,--,0.0,0.0
"Vitamin A, IU",IU,--,--,0,0
Lipids
"Fatty acids, total saturated",g,--,--,5.000,9.260
"Fatty acids, total trans",g,--,--,0.502,0.930
"Cholesterol",mg,--,--,35,65
Amino Acids
Other
Ingredients
"BEEF, WATER, CORN SYRUP, CONTAINS 2% OR LESS OF: SALT, DEXTROSE, POTASSIUM LACTATE, NATURAL FLAVORS, SODIUM PHOSPHATE, SODIUM DIACETATE, SODIUM ERYTHORBATE, SODIUM NITRITE." Date available: 07/14/2017 Date last updated by company: 07/14/2017
