Source: USDA Branded Food Products Database Release December 2017 Software v.3.8.6.4 2017-10-02
Report Run at: December 17, 2017 10:20 EST
"Nutrient data for: 45239769, LITE CRANBERRY JUICE COCKTAIL, UPC: 041318131314"
Food Group:  Branded Food Products Database
Common Name:

Nutrient,Unit,Data points,Std. Error,"8.0 OZA = 240.0g",1Value per 100 g,
Proximates
"Energy",kcal,--,--,41,17
"Protein",g,--,--,0.00,0.00
"Total lipid (fat)",g,--,--,0.00,0.00
"Carbohydrate, by difference",g,--,--,10.01,4.17
"Sugars, total",g,--,--,10.01,4.17
Minerals
"Potassium, K",mg,--,--,65,27
"Sodium, Na",mg,--,--,74,31
Vitamins
Lipids
Amino Acids
Other
Ingredients
"FILTERED WATER, CRANBERRY JUICE (CRANBERRY JUICE AND CRANBERRY JUICE FROM CONCENTRATE), FRUCTOSE, PECTIN, NATURAL FLAVORS, SODIUM CITRATE, ACESULFAME POTASSIUM, SUCRALOSE (SPLENDA BRAND)." Date available: 06/25/2017 Date last updated by company: 06/25/2017
