Source: USDA Branded Food Products Database Release December 2017 Software v.3.8.6.4 2017-10-02
Report Run at: December 17, 2017 10:21 EST
"Nutrient data for: 45283018, LITE 40% FEWER CALORIES THAN REGULAR NONFAT YOGURT CHERRY CHEESECAKE, UPC: 07203671548"
Food Group:  Branded Food Products Database
Common Name:

Nutrient,Unit,Data points,Std. Error,"1 CONTAINER = 170.0g",1Value per 100 g,
Proximates
"Energy",kcal,--,--,90,53
"Protein",g,--,--,6.00,3.53
"Total lipid (fat)",g,--,--,0.00,0.00
"Carbohydrate, by difference",g,--,--,17.00,10.00
"Fiber, total dietary",g,--,--,1.0,0.6
"Sugars, total",g,--,--,11.00,6.47
Minerals
"Calcium, Ca",mg,--,--,250,147
"Iron, Fe",mg,--,--,0.00,0.00
"Potassium, K",mg,--,--,299,176
"Sodium, Na",mg,--,--,110,65
Vitamins
"Vitamin C, total ascorbic acid",mg,--,--,0.0,0.0
"Vitamin A, IU",IU,--,--,299,176
"Vitamin D",IU,--,--,60,35
Lipids
"Fatty acids, total saturated",g,--,--,0.000,0.000
"Fatty acids, total trans",g,--,--,0.000,0.000
"Cholesterol",mg,--,--,5,3
Amino Acids
Other
Ingredients
"CULTURED NONFAT MILK, CHERRIES, CULTURED MILK AND NONFAT MILK, MODIFIED CORNSTARCH, NATURAL FLAVOR, GELATIN, TRICALCIUM PHOSPHATE, SOLUBLE CORN FIBER, AGAR, CULTURED DEXTROSE, LACTIC ACID, SUCRALOSE, NEOTAME, ACESULFAME POTASSIUM, VITAMIN A PALMITATE, VITAMIN D3, ACTIVE CULTURES WITH L. ACIDOPHILUS AND B. BIFIDUM." Date available: 07/14/2017 Date last updated by company: 07/14/2017
