Source: USDA Branded Food Products Database Release December 2017 Software v.3.8.6.4 2017-10-02
Report Run at: December 17, 2017 10:32 EST
"Nutrient data for: 45207290, LITTLE DEBBIE, CHRISTMAS TREE SNACK CAKE, UPC: 024300837784"
Food Group:  Branded Food Products Database
Common Name:

Nutrient,Unit,Data points,Std. Error,"1 CAKE = 85.0g",1Value per 100 g,
Proximates
"Energy",kcal,--,--,370,435
"Protein",g,--,--,1.00,1.18
"Total lipid (fat)",g,--,--,17.00,20.00
"Carbohydrate, by difference",g,--,--,53.00,62.35
"Fiber, total dietary",g,--,--,0.0,0.0
"Sugars, total",g,--,--,36.00,42.35
Minerals
"Calcium, Ca",mg,--,--,0,0
"Iron, Fe",mg,--,--,0.34,0.40
"Potassium, K",mg,--,--,30,35
"Sodium, Na",mg,--,--,150,176
Vitamins
"Vitamin C, total ascorbic acid",mg,--,--,0.0,0.0
"Vitamin A, IU",IU,--,--,0,0
Lipids
"Fatty acids, total saturated",g,--,--,9.002,10.590
"Fatty acids, total monounsaturated",g,--,--,3.001,3.530
"Fatty acids, total polyunsaturated",g,--,--,4.497,5.290
"Fatty acids, total trans",g,--,--,0.000,0.000
"Cholesterol",mg,--,--,0,0
Amino Acids
Other
Ingredients
"SUGAR, CORN SYRUP, ENRICHED BLEACHED FLOUR (WHEAT FLOUR, NIACIN, REDUCED IRON, THIAMIN MONONITRATE [VITAMIN B1], RIBOFLAVIN [VITAMIN B2], FOLIC ACID), WATER, PALM AND SOYBEAN OILS WITH TBHQ AND CITRIC ACID TO PROTECT FLAVOR, PALM AND PALM KERNEL OIL, DEXTROSE. CONTAINS 2% OR LESS OF EACH OF THE FOLLOWING: SOY FLOUR, SOYBEAN OIL, EGG WHITES, CORN STARCH, WHEY (MILK), LEAVENING (BAKING SODA, SODIUM ALUMINUM PHOSPHATE), GREEN SUGAR CRYSTALS (SUGAR, CONFECTIONER'S GLAZE, YELLOW 5 LAKE, BLUE 1 LAKE, CARNAUBA WAX), MONO- AND DIGLYCERIDES, SOY LECITHIN, SALT, SORBITAN MONOSTEARATE, SORBIC ACID (TO PRESERVE FRESHNESS), POLYSORBATE 60, NATURAL AND ARTIFICIAL FLAVORS, ARTIFICIAL COLORS (INCLUDES RED 40 LAKE), POLYSORBATE 80, WHEY PROTEIN CONCENTRATE." Date available: 07/14/2017 Date last updated by company: 07/14/2017
