Source: USDA Branded Food Products Database Release December 2017 Software v.3.8.6.4 2017-10-02
Report Run at: December 17, 2017 10:34 EST
"Nutrient data for: 45207260, LITTLE DEBBIE, REAL FRUIT FILLING PIE, APPLE, UPC: 024300837999"
Food Group:  Branded Food Products Database
Common Name:

Nutrient,Unit,Data points,Std. Error,"1 PIE = 113.0g",1Value per 100 g,
Proximates
"Energy",kcal,--,--,431,381
"Protein",g,--,--,2.99,2.65
"Total lipid (fat)",g,--,--,18.00,15.93
"Carbohydrate, by difference",g,--,--,63.00,55.75
"Fiber, total dietary",g,--,--,1.0,0.9
"Sugars, total",g,--,--,34.00,30.09
Minerals
"Calcium, Ca",mg,--,--,0,0
"Iron, Fe",mg,--,--,1.59,1.41
"Potassium, K",mg,--,--,80,71
"Sodium, Na",mg,--,--,420,372
Vitamins
"Vitamin C, total ascorbic acid",mg,--,--,0.0,0.0
"Vitamin A, IU",IU,--,--,0,0
Lipids
"Fatty acids, total saturated",g,--,--,10.000,8.850
"Fatty acids, total monounsaturated",g,--,--,6.000,5.310
"Fatty acids, total polyunsaturated",g,--,--,1.503,1.330
"Fatty acids, total trans",g,--,--,0.000,0.000
"Cholesterol",mg,--,--,0,0
Amino Acids
Other
Ingredients
"ENRICHED FLOUR (WHEAT FLOUR, NIACIN, REDUCED IRON, THIAMIN MONONITRATE [VITAMIN B1], RIBOFLAVIN [VITAMIN B2], FOLIC ACID), HIGH FRUCTOSE CORN SYRUP, WATER, PALM OIL, SUGAR, DRIED APPLES (SULFITE TREATED TO PRESERVE COLOR). CONTAINS 2% OR LESS OF EACH OF THE FOLLOWING: MODIFIED CORN STARCH, SALT, PRESERVATIVES (SODIUM PROPIONATE, SODIUM BENZOATE, CITRIC ACID), CORN STARCH, XANTHAN GUM, WHEAT FLOUR, MALTED BARLEY FLOUR, CINNAMON, DEXTROSE, CALCIUM CARBONATE, AGAR, NATURAL FLAVORS, MONO- AND DIGLYCERIDES, SORBITAN MONOSTEARATE, SOY LECITHIN." Date available: 07/14/2017 Date last updated by company: 07/14/2017
