Source: USDA Branded Food Products Database Release December 2017 Software v.3.8.6.4 2017-10-02
Report Run at: December 17, 2017 10:32 EST
"Nutrient data for: 45042459, LITTLE DEBBIE, CHRISTMAS TREE CAKES, UPC: 024300041563"
Food Group:  Branded Food Products Database
Common Name:

Nutrient,Unit,Data points,Std. Error,"1 CAKE = 45.0g",1Value per 100 g,
Proximates
"Energy",kcal,--,--,200,444
"Protein",g,--,--,1.00,2.22
"Total lipid (fat)",g,--,--,9.00,20.00
"Carbohydrate, by difference",g,--,--,29.00,64.44
"Fiber, total dietary",g,--,--,0.0,0.0
"Sugars, total",g,--,--,21.00,46.67
Minerals
"Calcium, Ca",mg,--,--,0,0
"Iron, Fe",mg,--,--,0.44,0.98
"Potassium, K",mg,--,--,25,56
"Sodium, Na",mg,--,--,80,178
Vitamins
"Vitamin C, total ascorbic acid",mg,--,--,0.0,0.0
"Vitamin A, IU",IU,--,--,0,0
Lipids
"Fatty acids, total saturated",g,--,--,5.000,11.110
"Fatty acids, total monounsaturated",g,--,--,1.998,4.440
"Fatty acids, total polyunsaturated",g,--,--,1.498,3.330
"Fatty acids, total trans",g,--,--,0.000,0.000
"Cholesterol",mg,--,--,0,0
Amino Acids
Other
Ingredients
"SUGAR, CORN SYRUP, ENRICHED BLEACHED FLOUR (WHEAT FLOUR, NIACIN, REDUCED IRON, THIAMIN MONONITRATE [VITAMIN B1], RIBOFLAVIN [VITAMIN B2], FOLIC ACID), WATER, PALM AND PALM KERNEL OIL, PALM AND SOYBEAN OILS WITH TBHQ AND CITRIC ACID TO PROTECT FLAVOR, DEXTROSE, SOYBEAN OIL. CONTAINS 2% OR LESS OF EACH OF THE FOLLOWING: SOY FLOUR, GREEN SUGAR CRYSTALS (SUGAR, CONFECTIONER'S GLAZE, YELLOW 5 LAKE, BLUE 1 LAKE, CARNAUBA WAX), EGG WHITES, WHEY (MILK), LEAVENING (BAKING SODA, SODIUM ALUMINUM PHOSPHATE), SALT, CORN STARCH, MONO- AND DIGLYCERIDES, SOY LECITHIN, SORBITAN MONOSTEARATE, SORBIC ACID (TO PRESERVE FRESHNESS), POLYSORBATE 60, NATURAL AND ARTIFICIAL FLAVORS, POLYSORBATE 80, ARTIFICIAL COLORS (INCLUDES RED 40 LAKE), WHEY PROTEIN CONCENTRATE, POTATO STARCH." Date available: 10/09/2017 Date last updated by company: 10/09/2017
