Source: USDA Branded Food Products Database Release December 2017 Software v.3.8.6.4 2017-10-02
Report Run at: December 17, 2017 10:34 EST
"Nutrient data for: 45180503, LITTLE DUCK ORGANICS, FREEZE DRIED SNACKS, APPLE + BANANA, UPC: 853331006018"
Food Group:  Branded Food Products Database
Common Name:

Nutrient,Unit,Data points,Std. Error,"0.25 cup = 7.0g",1Value per 100 g,
Proximates
"Energy",kcal,--,--,25,357
"Protein",g,--,--,0.00,0.00
"Total lipid (fat)",g,--,--,0.00,0.00
"Carbohydrate, by difference",g,--,--,6.00,85.71
"Fiber, total dietary",g,--,--,1.0,14.3
"Sugars, total",g,--,--,5.00,71.43
Minerals
"Calcium, Ca",mg,--,--,0,0
"Iron, Fe",mg,--,--,0.00,0.00
"Sodium, Na",mg,--,--,15,214
Vitamins
"Vitamin C, total ascorbic acid",mg,--,--,445.7,6367.4
"Vitamin A, IU",IU,--,--,0,0
Lipids
"Fatty acids, total saturated",g,--,--,0.000,0.000
"Fatty acids, total trans",g,--,--,0.000,0.000
"Cholesterol",mg,--,--,0,0
Amino Acids
Other
Ingredients
"ORGANIC APPLES ORGANIC BANANAS" Date available: 07/14/2017 Date last updated by company: 07/14/2017
