Source: USDA Branded Food Products Database Release December 2017 Software v.3.8.6.4 2017-10-02
Report Run at: December 17, 2017 10:36 EST
"Nutrient data for: 45332309, LITTLE MIRACLES, ORGANIC ENERGY DRINK, UPC: 852635005031"
Food Group:  Branded Food Products Database
Common Name:

Nutrient,Unit,Data points,Std. Error,"1 BOTTLE = 330.0g",1Value per 100 g,
Proximates
"Energy",kcal,--,--,89,27
"Protein",g,--,--,0.00,0.00
"Total lipid (fat)",g,--,--,0.00,0.00
"Carbohydrate, by difference",g,--,--,22.01,6.67
"Sugars, total",g,--,--,20.99,6.36
Minerals
"Sodium, Na",mg,--,--,20,6
Vitamins
Lipids
Amino Acids
Other
Ingredients
"WATER, AGAVE SYRUP*, CONCENTRATES OF APPLE JUICE*, LEMON JUICE*, CHERRY JUICE*, RASPBERRY JUICE*, ACAI JUICE*, CONCENTRATED WHITE TEA EXTRACT*, PANAX GINSENG EXTRACT*, ORGANIC COLORING CONCENTRATES FROM CARROT*, BLACKCURRANT* AND APPLE*, CITRIC ACID, NATURAL FLAVOR, ANTIOXIDANT." Date available: 06/25/2017 Date last updated by company: 06/25/2017
