Source: USDA Branded Food Products Database Release December 2017 Software v.3.8.6.4 2017-10-02
Report Run at: December 17, 2017 10:38 EST
"Nutrient data for: 45117496, LITTLE SECRETS, DARK CHOCOLATE CANDIES, RASPBERRY, UPC: 859453005182"
Food Group:  Branded Food Products Database
Common Name:

Nutrient,Unit,Data points,Std. Error,"24.0 PIECES = 40.0g",1Value per 100 g,
Proximates
"Energy",kcal,--,--,190,475
"Protein",g,--,--,1.00,2.50
"Total lipid (fat)",g,--,--,10.00,25.00
"Carbohydrate, by difference",g,--,--,27.00,67.50
"Fiber, total dietary",g,--,--,3.0,7.5
"Sugars, total",g,--,--,23.00,57.50
Minerals
"Calcium, Ca",mg,--,--,20,50
"Iron, Fe",mg,--,--,4.50,11.25
"Sodium, Na",mg,--,--,10,25
Vitamins
"Vitamin C, total ascorbic acid",mg,--,--,0.0,0.0
"Vitamin A, IU",IU,--,--,1250,3125
Lipids
"Fatty acids, total saturated",g,--,--,6.000,15.000
"Fatty acids, total trans",g,--,--,0.000,0.000
"Cholesterol",mg,--,--,0,0
Amino Acids
Other
Ingredients
"DARK CHOCOLATE RASPBERRY FLAVORED CENTER (DARK CHOCOLATE [FAIR TRADE CERTIFIED UNSWEETENED CHOCOLATE, FAIR TRADE CERTIFIED SUGAR, FAIR TRADE CERTIFIED COCOA BUTTER, SOY LECITHIN [AN EMULSIFIER], FAIR TRADE CERTIFIED NATURAL VANILLA EXTRACT], DRIED RASPBERRY, NATURAL FLAVOR), SUGAR, DRIED CANE SYRUP, COLORING (INCLUDES RED CABBAGE JUICE, BEET JUICE, BETA CAROTENE), GUM ARABIC, CARNAUBA WAX, WHITE MINERAL OIL." Date available: 07/14/2017 Date last updated by company: 07/14/2017
