Source: USDA Branded Food Products Database Release December 2017 Software v.3.8.6.4 2017-10-02
Report Run at: December 17, 2017 10:38 EST
"Nutrient data for: 45117501, LITTLE SECRETS, DARK CHOCOLATE CANDIES, CLASSIC DARK, UPC: 859453005045"
Food Group:  Branded Food Products Database
Common Name:

Nutrient,Unit,Data points,Std. Error,"1 PACK = 42.5g",1Value per 100 g,
Proximates
"Energy",kcal,--,--,200,471
"Protein",g,--,--,2.00,4.71
"Total lipid (fat)",g,--,--,10.00,23.53
"Carbohydrate, by difference",g,--,--,29.00,68.24
"Fiber, total dietary",g,--,--,3.0,7.1
"Sugars, total",g,--,--,24.00,56.47
Minerals
"Calcium, Ca",mg,--,--,20,47
"Iron, Fe",mg,--,--,4.24,9.97
"Sodium, Na",mg,--,--,10,24
Vitamins
"Vitamin C, total ascorbic acid",mg,--,--,0.0,0.0
"Vitamin A, IU",IU,--,--,0,0
Lipids
"Fatty acids, total saturated",g,--,--,6.001,14.120
"Fatty acids, total trans",g,--,--,0.000,0.000
"Cholesterol",mg,--,--,0,0
Amino Acids
Other
Ingredients
"DARK CHOCOLATE (FAIR TRADE CERTIFIED UNSWEETENED CHOCOLATE, FAIR TRADE CERTIFIED SUGAR, FAIR TRADE CERTIFIED COCOA BUTTER, SOY LECITHIN [AN EMULSIFIER], FAIR TRADE CERTIFIED NATURAL VANILLA EXTRACT), SUGAR, DRIED CANE SYRUP, COLORING (INCLUDES RED CABBAGE JUICE, FRUIT JUICE, VEGETABLE JUICE), GUM ARABIC, CARNAUBA WAX, WHITE MINERAL OIL." Date available: 07/14/2017 Date last updated by company: 07/14/2017
