Source: USDA Branded Food Products Database Release December 2017 Software v.3.8.6.4 2017-10-02
Report Run at: December 17, 2017 10:41 EST
"Nutrient data for: 45044720, LIVE LOVE SNACK, POPPED MULTIGRAIN SUPERSNACK, KALE & SEA SALT, UPC: 847028080061"
Food Group:  Branded Food Products Database
Common Name:

Nutrient,Unit,Data points,Std. Error,"25.0 CHIPS = 28.0g",1Value per 100 g,
Proximates
"Energy",kcal,--,--,110,393
"Protein",g,--,--,2.00,7.14
"Total lipid (fat)",g,--,--,3.00,10.71
"Carbohydrate, by difference",g,--,--,19.00,67.86
"Fiber, total dietary",g,--,--,2.0,7.1
"Sugars, total",g,--,--,1.00,3.57
Minerals
"Calcium, Ca",mg,--,--,0,0
"Iron, Fe",mg,--,--,0.64,2.29
"Sodium, Na",mg,--,--,160,571
Vitamins
"Vitamin C, total ascorbic acid",mg,--,--,0.0,0.0
"Vitamin A, IU",IU,--,--,0,0
Lipids
"Fatty acids, total saturated",g,--,--,0.000,0.000
"Fatty acids, total trans",g,--,--,0.000,0.000
"Cholesterol",mg,--,--,0,0
Amino Acids
Other
Ingredients
"BROWN RICE FLOUR BLEND (SPROUTED BROWN RICE, BROWN RICE), WHOLE GRAIN CORN FLOUR, POTATO STARCH, RICE FLOUR, FLAXSEED MEAL, TEFF FLOUR, DRIED CANE SYRUP, QUINOA FLOUR, KALE, CHIA SEEDS, SUNFLOWER OIL, SEA SALT." Date available: 06/24/2017 Date last updated by company: 06/24/2017
