Source: USDA Branded Food Products Database Release December 2017 Software v.3.8.6.4 2017-10-02
Report Run at: December 17, 2017 10:42 EST
"Nutrient data for: 45029078, LIVINGINTENTIONS, SUPERFOOD CEREAL, ACAI BLUEBERRY, UPC: 689076907521"
Food Group:  Branded Food Products Database
Common Name:

Nutrient,Unit,Data points,Std. Error,"0.5 cup = 51.0g",1Value per 100 g,
Proximates
"Energy",kcal,--,--,202,396
"Protein",g,--,--,5.00,9.80
"Total lipid (fat)",g,--,--,9.00,17.65
"Carbohydrate, by difference",g,--,--,30.00,58.82
"Fiber, total dietary",g,--,--,5.0,9.8
"Sugars, total",g,--,--,13.00,25.49
Minerals
"Calcium, Ca",mg,--,--,20,39
"Iron, Fe",mg,--,--,2.33,4.57
"Sodium, Na",mg,--,--,37,73
Vitamins
"Vitamin C, total ascorbic acid",mg,--,--,1.9,3.8
"Vitamin A, IU",IU,--,--,54,106
Lipids
"Fatty acids, total saturated",g,--,--,5.998,11.760
"Fatty acids, total trans",g,--,--,0.000,0.000
"Cholesterol",mg,--,--,0,0
Amino Acids
Other
Ingredients
"ORGANIC BUCKWHEAT SPROUTS, ORGANIC COCONUT, ORGANIC CURRANTS, ORGANIC COCONUT PALM SUGAR, ORGANIC BANANA, ORGANIC CLEAR AGAVE NECTAR, RAW BROWN RICE BRAN & GERM (GRAIN FREE), SUPERFOOD ANTIOXIDANT BLEND (BLUEBERRY JUICE, ORGANIC FREEZE DRIED ACAI, ORGANIC FREEZE DRIED MAQUI BERRY, ORGANIC ELDERBERRIES, AMLA BERRY EXTRACT, CAMU CAMU FRUIT EXTRACT) AND HIMALAYAN CRYSTAL SALT." Date available: 06/24/2017 Date last updated by company: 06/24/2017
