Source: USDA Branded Food Products Database Release December 2017 Software v.3.8.6.4 2017-10-02
Report Run at: December 17, 2017 10:43 EST
"Nutrient data for: 45207014, LLOYD'S, SEASONED SHREDDED PORK, BBQ SAUCE, UPC: 078929153466"
Food Group:  Branded Food Products Database
Common Name:

Nutrient,Unit,Data points,Std. Error,"0.25 cup = 56.0g",1Value per 100 g,
Proximates
"Energy",kcal,--,--,80,143
"Protein",g,--,--,6.00,10.71
"Total lipid (fat)",g,--,--,2.00,3.57
"Carbohydrate, by difference",g,--,--,10.00,17.86
"Sugars, total",g,--,--,10.00,17.86
Minerals
"Calcium, Ca",mg,--,--,0,0
"Iron, Fe",mg,--,--,1.09,1.95
"Sodium, Na",mg,--,--,400,714
Vitamins
Lipids
"Fatty acids, total saturated",g,--,--,1.002,1.790
"Cholesterol",mg,--,--,15,27
Amino Acids
Other
Ingredients
"COOKED SEASONED PORK (PORK, WATER, HYDROLYZED SOY PROTEIN, SALT, SODIUM PHOSPHATES), TOMATO PUREE (WATER, TOMATO PASTE), SEASONING (SUGAR, RICE STARCH, SALT, CHIPOTLE PEPPER, SPICES, GARLIC POWDER, DEHYDRATED GARLIC, NATURAL SMOKE FLAVOR, TARMARIND EXTRACT, SPICE EXTRACTIVES), MOLASSES, VINEGAR, HIGH FRUCTOSE CORN SYRUP, CONTAINS 2% OR LESS OF MODIFIED CORNSTARCH, SMOKE FLAVORING, PROPIONIC ACID, CULTURED DEXTROSE, POTASSIUM SORBATE (PRESERVATIVE), SODIUM BENZOATE (PRESERVATIVE), NISIN PREPARATION (SALT, NISIN)." Date available: 07/14/2017 Date last updated by company: 07/14/2017
