Source: USDA Branded Food Products Database Release December 2017 Software v.3.8.6.4 2017-10-02
Report Run at: December 17, 2017 10:43 EST
"Nutrient data for: 45206687, LLOYD'S, ST.LOUIS STYLE PORK SPARERIBS, UPC: 078929032617"
Food Group:  Branded Food Products Database
Common Name:

Nutrient,Unit,Data points,Std. Error,"5.0 ONZ = 140.0g",1Value per 100 g,
Proximates
"Energy",kcal,--,--,340,243
"Protein",g,--,--,21.99,15.71
"Total lipid (fat)",g,--,--,21.99,15.71
"Carbohydrate, by difference",g,--,--,13.01,9.29
"Sugars, total",g,--,--,13.01,9.29
Minerals
"Calcium, Ca",mg,--,--,60,43
"Iron, Fe",mg,--,--,1.81,1.29
"Sodium, Na",mg,--,--,620,443
Vitamins
"Vitamin C, total ascorbic acid",mg,--,--,1.3,0.9
"Vitamin A, IU",IU,--,--,99,71
Lipids
"Fatty acids, total saturated",g,--,--,9.002,6.430
"Cholesterol",mg,--,--,95,68
Amino Acids
Other
Ingredients
"COOKED PORK SPARERIBS, TOMATO PUREE (WATER, TOMATO PASTE), HIGH FRUCTOSE CORN SYRUP, CONTAINS 2% OR LESS OF VINEGAR, SEASONING RUB (SUGAR, SPICES, SALT, PAPRIKA, DEXTROSE, GARLIC POWDER, COCOA POWDER PROCESSED WITH ALKALI, TAMARIND EXTRACT [CORN SYRUP, PRUNE JUICE CONCENTRATE, EXTRACTIVES OF TAMARIND, WATER, TARTARIC ACID, CARAMEL COLOR, CITRIC ACID, MOLASSES], TOCOPHEROLS, SUNFLOWER OIL, NATURAL FLAVORS), MOLASSES. SEASONING BLEND (MODIFIED CORNSTARCH, SALT, CHILI PEPPER, ONION POWDER, PAPRIKA, GARLIC POWDER, SODIUM BENZOATE [PRESERVATIVE], SPICES, ERYTHORBIC ACID, NATURAL SMOKE FLAVOR), SALT, SUGAR, MODIFIED CORNSTARCH, NATURAL SMOKE FLAVORING, SODIUM PHOSPHATES, FLAVORING." Date available: 07/14/2017 Date last updated by company: 07/14/2017
