Source: USDA Branded Food Products Database Release December 2017 Software v.3.8.6.4 2017-10-02
Report Run at: December 17, 2017 10:43 EST
"Nutrient data for: 45118915, LLOYD'S, SEASONED SHREDDED CHICKEN IN BBQ SAUCE, UPC: 078929335862"
Food Group:  Branded Food Products Database
Common Name:

Nutrient,Unit,Data points,Std. Error,"0.25 cup = 56.0g",1Value per 100 g,
Proximates
"Energy",kcal,--,--,90,161
"Protein",g,--,--,6.00,10.71
"Total lipid (fat)",g,--,--,3.00,5.36
"Carbohydrate, by difference",g,--,--,9.00,16.07
"Sugars, total",g,--,--,9.00,16.07
Minerals
"Calcium, Ca",mg,--,--,20,36
"Iron, Fe",mg,--,--,0.32,0.58
"Sodium, Na",mg,--,--,480,857
Vitamins
Lipids
"Fatty acids, total saturated",g,--,--,1.002,1.790
"Cholesterol",mg,--,--,25,45
Amino Acids
Other
Ingredients
"COOKED SEASONED CHICKEN MEAT (MOSTLY DARK CHICKEN MEAT, WATER, SALT, ISOLATED SOY PROTEIN, SODIUM LACTATE, SODIUM PHOSPHATES, ANTIOXIDANT BLEND [MIXED TOCOPHEROLS, CORN STARCH, SILICON DIOXIDE]), TOMATO PUREE (WATER, TOMATO PASTE), HIGH FRUCTOSE CORN SYRUP, VINEGAR, BROWN SUGAR, CONTAINS 2% OR LESS OF MOLASSES, MODIFIED CORNSTARCH, SEASONING BLEND (SALT, PAPRIKA, SPICES, SODIUM BENZOATE, POTASSIUM SORBATE, ONION POWDER, SODIUM DIACETATE, GARLIC POWDER, YEAST EXTRACT, ERYTHORBIC ACID, NATURAL FLAVORS [INCLUDING SMOKE FLAVOR], TAMARIND EXTRACT [CORN SYRUP, PRUNE JUICE CONCENTRATE, EXTRACTIVES OF TAMARIND, WATER, TARTARIC ACID, CARAMEL COLOR, CITRIC ACID, MOLASSES]), SALT, CARAMEL COLOR, NATURAL SMOKE FLAVORING, CULTURED DEXTROSE, PROPIONIC ACID, NISIN PREPARATION (SALT, NISIN)." Date available: 07/14/2017 Date last updated by company: 07/14/2017
