Source: USDA Branded Food Products Database Release December 2017 Software v.3.8.6.4 2017-10-02
Report Run at: December 17, 2017 10:46 EST
"Nutrient data for: 45219938, LOADED BAKED POTATO SALAD, UPC: 085239025901"
Food Group:  Branded Food Products Database
Common Name:

Nutrient,Unit,Data points,Std. Error,"0.5 cup = 136.0g",1Value per 100 g,
Proximates
"Energy",kcal,--,--,280,206
"Protein",g,--,--,7.00,5.15
"Total lipid (fat)",g,--,--,19.00,13.97
"Carbohydrate, by difference",g,--,--,21.00,15.44
"Fiber, total dietary",g,--,--,1.0,0.7
"Sugars, total",g,--,--,4.00,2.94
Minerals
"Calcium, Ca",mg,--,--,80,59
"Iron, Fe",mg,--,--,3.71,2.73
"Sodium, Na",mg,--,--,900,662
Vitamins
"Vitamin C, total ascorbic acid",mg,--,--,12.4,9.1
"Vitamin A, IU",IU,--,--,205,151
Lipids
"Fatty acids, total saturated",g,--,--,5.998,4.410
"Fatty acids, total trans",g,--,--,0.000,0.000
"Cholesterol",mg,--,--,30,22
Amino Acids
Other
Ingredients
"POTATOES, MAYONNAISE DRESSING (SOYBEAN OIL, CORN SYRUP, DISTILLED VINEGAR, WATER, WHOLE EGGS, EGG YOLKS, MODIFIED CORN STARCH, SALT, SUGAR, DEXTROSE, MUSTARD FLOUR, LEMON JUICE CONCENTRATE, ONION POWDER, NATURAL FLAVOR, GARLIC POWDER, CALCIUM DISODIUM EDTA [PRESERVATIVE]), CHEDDAR CHEESE (PASTEURIZED MILK, CHEESE CULTURES, SALT, ENZYMES, ARTIFICIAL COLOR, POTATO STARCH AND POWDERED CELLULOSE [ANTI CAKING], NATAMYCIN [PRESERVATIVE]), BACON (CURED WITH WATER, SALT, SUGAR, SODIUM PHOSPHATE, SODIUM ERYTHORBATE, SODIUM NITRITE), SOUR CREAM (CREAM, MILK, MODIFIED CORN STARCH, LACTIC ACID, GELATIN, GUAR GUM, MONO & DIGLYCERIDES, CITRIC ACID, SODIUM PHOSPHATE, POTASSIUM SORBATE AND SODIUM BENZOATE [PRESERVATIVE], NATURAL AND ARTIFICIAL FLAVOR), RENDERED BACON FAT (TBHQ AND CITRIC ACID [PRESERVATIVES]), SODIUM LACTATE, SODIUM DIACETATE, SALT, DEHYDRATED ONION, DRIED CHIVES, WHITE PEPPER." Date available: 07/14/2017 Date last updated by company: 07/14/2017
