Source: USDA Branded Food Products Database Release December 2017 Software v.3.8.6.4 2017-10-02
Report Run at: December 17, 2017 10:48 EST
"Nutrient data for: 45213136, LOAF, UPC: 011110866667"
Food Group:  Branded Food Products Database
Common Name:

Nutrient,Unit,Data points,Std. Error,"1 SLICE = 38.0g",1Value per 100 g,
Proximates
"Energy",kcal,--,--,100,263
"Protein",g,--,--,3.00,7.89
"Total lipid (fat)",g,--,--,8.00,21.05
"Carbohydrate, by difference",g,--,--,5.00,13.16
"Fiber, total dietary",g,--,--,1.0,2.6
"Sugars, total",g,--,--,1.00,2.63
Minerals
"Calcium, Ca",mg,--,--,40,105
"Iron, Fe",mg,--,--,1.04,2.74
"Sodium, Na",mg,--,--,320,842
Vitamins
"Vitamin C, total ascorbic acid",mg,--,--,0.0,0.0
"Vitamin A, IU",IU,--,--,0,0
Lipids
"Fatty acids, total saturated",g,--,--,2.500,6.580
"Fatty acids, total trans",g,--,--,0.000,0.000
"Cholesterol",mg,--,--,25,66
Amino Acids
Other
Ingredients
"MECHANICALLY SEPARATED CHICKEN, PORK, WATER, SWEET PICKLES (CUCUMBER, FRUCTOSE AND/OR CANE SUGAR, WATER, VINEGAR, SALT, SODIUM BENZOATE AND POTASSIUM SORBATE ADDED AS PRESERVATIVES, XANTHAN GUM, POLYSORBATE 80, NATURAL FLAVORINGS, TURMERIC AND ALUM), BEEF, MODIFIED FOOD STARCH, RED BELL PEPPERS, SALT, CONTAINS 2% OR LESS OF: DEXTROSE, CORN SYRUP SOLIDS, POTASSIUM LACTATE, FLAVORING, SODIUM PHOSPHATES, SEASONINGS (MODIFIED FOOD STARCH, DEXTROSE, SUGAR, ONION POWDER, NATURAL FLAVORS, GARLIC POWDER, EXTRACTIVES OF PAPRIKA), SODIUM DIACETATE, SODIUM ERYTHORBATE, SODIUM NITRITE." Date available: 08/28/2017 Date last updated by company: 08/28/2017
