Source: USDA Branded Food Products Database Release December 2017 Software v.3.8.6.4 2017-10-02
Report Run at: December 17, 2017 10:56 EST
"Nutrient data for: 45160798, LOFTHOUSE, GRADUATION SUGAR COOKIES, UPC: 708971927820"
Food Group:  Branded Food Products Database
Common Name:

Nutrient,Unit,Data points,Std. Error,"1 COOKIE = 33.0g",1Value per 100 g,
Proximates
"Energy",kcal,--,--,160,485
"Protein",g,--,--,2.00,6.06
"Total lipid (fat)",g,--,--,6.00,18.18
"Carbohydrate, by difference",g,--,--,23.00,69.70
"Fiber, total dietary",g,--,--,1.0,3.0
"Sugars, total",g,--,--,9.00,27.27
Minerals
"Calcium, Ca",mg,--,--,0,0
"Iron, Fe",mg,--,--,1.09,3.31
"Sodium, Na",mg,--,--,125,379
Vitamins
"Vitamin C, total ascorbic acid",mg,--,--,0.0,0.0
"Vitamin A, IU",IU,--,--,0,0
Lipids
"Fatty acids, total saturated",g,--,--,3.000,9.090
"Fatty acids, total trans",g,--,--,0.000,0.000
"Cholesterol",mg,--,--,0,0
Amino Acids
Other
Ingredients
"ENRICHED BLEACHED WHEAT FLOUR (FLOUR, NIACIN, REDUCED IRON, THIAMINE MONONITRATE, RIBOFLAVIN, FOLIC ACID), SUGAR, PALM OIL, CONTAINS 2% OR LESS OF: NATURAL & ARTIFICIAL FLAVORS, SOY LECITHIN (EMULSIFIER), SALT, LEAVENING (AMMONIUM BICARBONATE, BAKING SODA), COLORS, (ANNATTO [COLOR], RED 40, BLUE 1, BLUE 2, YELLOW 5, YELLOW 6), WHEY, CONFECTIONERS GLAZE (LAC RESIN), EGGS, CORN SYRUP, CARNAUBA WAX." Date available: 07/14/2017 Date last updated by company: 07/14/2017
