Source: USDA Branded Food Products Database Release December 2017 Software v.3.8.6.4 2017-10-02
Report Run at: December 17, 2017 10:57 EST
"Nutrient data for: 45170116, LOI PASTA, MACARONI SEMOLINA PASTA, UPC: 869588000150"
Food Group:  Branded Food Products Database
Common Name:

Nutrient,Unit,Data points,Std. Error,"0.125 PACKAGE = 56.0g",1Value per 100 g,
Proximates
"Energy",kcal,--,--,203,362
"Protein",g,--,--,6.20,11.07
"Total lipid (fat)",g,--,--,0.80,1.43
"Carbohydrate, by difference",g,--,--,42.90,76.61
"Fiber, total dietary",g,--,--,2.0,3.6
"Sugars, total",g,--,--,1.30,2.32
Minerals
"Calcium, Ca",mg,--,--,11,20
"Iron, Fe",mg,--,--,2.52,4.50
"Sodium, Na",mg,--,--,4,7
Vitamins
"Vitamin C, total ascorbic acid",mg,--,--,0.0,0.0
"Vitamin A, IU",IU,--,--,0,0
Lipids
"Fatty acids, total saturated",g,--,--,0.302,0.540
"Fatty acids, total trans",g,--,--,0.000,0.000
"Cholesterol",mg,--,--,0,0
Amino Acids
Other
Ingredients
"DURUM WHEAT SEMOLINA AND WATER." Date available: 07/14/2017 Date last updated by company: 07/14/2017
