Source: USDA Branded Food Products Database Release December 2017 Software v.3.8.6.4 2017-10-02
Report Run at: December 17, 2017 10:58 EST
"Nutrient data for: 45055989, LOLLIPOP RINGS, UPC: 639277222435"
Food Group:  Branded Food Products Database
Common Name:

Nutrient,Unit,Data points,Std. Error,"10.0 GRM = 10.0g",1Value per 100 g,
Proximates
"Energy",kcal,--,--,40,400
"Protein",g,--,--,0.00,0.00
"Total lipid (fat)",g,--,--,0.00,0.00
"Carbohydrate, by difference",g,--,--,10.00,100.00
"Fiber, total dietary",g,--,--,0.0,0.0
"Sugars, total",g,--,--,5.00,50.00
Minerals
"Calcium, Ca",mg,--,--,0,0
"Iron, Fe",mg,--,--,0.00,0.00
"Sodium, Na",mg,--,--,0,0
Vitamins
"Vitamin C, total ascorbic acid",mg,--,--,0.0,0.0
"Vitamin A, IU",IU,--,--,0,0
Lipids
"Fatty acids, total saturated",g,--,--,0.000,0.000
"Fatty acids, total trans",g,--,--,0.000,0.000
"Cholesterol",mg,--,--,0,0
Amino Acids
Other
Ingredients
"SUGAR, CORN SYRUP, WATER, GELATIN, CITRIC ACID, CORN STARCH, LACTIC ACID, SODIUM LACTATE, TITANIUM DIOXIDE (FOR COLOR), ARTIFICIAL FLAVORS, ARTIFICIAL COLORS (FD&C YELLOW 5, FD&C YELLOW 6, FD&C BLUE 1, FD&C RED 40, FD&C RED 3)." Date available: 06/24/2017 Date last updated by company: 06/24/2017
