Source: USDA Branded Food Products Database Release December 2017 Software v.3.8.6.4 2017-10-02
Report Run at: December 17, 2017 10:58 EST
"Nutrient data for: 45214046, LOLLIPOPS, JELLY BEANS AND SOUR CANDY, UPC: 041376701429"
Food Group:  Branded Food Products Database
Common Name:

Nutrient,Unit,Data points,Std. Error,"5.0 PIECES = 45.0g",1Value per 100 g,
Proximates
"Energy",kcal,--,--,160,356
"Protein",g,--,--,2.00,4.44
"Total lipid (fat)",g,--,--,0.00,0.00
"Carbohydrate, by difference",g,--,--,37.00,82.22
"Sugars, total",g,--,--,25.00,55.56
Minerals
"Sodium, Na",mg,--,--,20,44
Vitamins
Lipids
Amino Acids
Other
Ingredients
"CORN SYRUP, SUGAR, GELATIN (BEEF), SORBITOL, MODIFIED CORN STARCH, CITRIC ACID, AGAR, MALIC ACID, ARTIFICIAL FLAVORS, GLAZING AGENT (COCONUT OIL, CARNAUBA WAX, VITAMIN E, CITRIC ACID), SODIUM CITRATE, ARTIFICIAL COLORS (TITANIUM DIOXIDE, YELLOW 5, YELLOW 6, RED 40, BLUE 1)." Date available: 07/14/2017 Date last updated by company: 07/14/2017
