Source: USDA Branded Food Products Database Release December 2017 Software v.3.8.6.4 2017-10-02
Report Run at: December 17, 2017 11:00 EST
"Nutrient data for: 45217943, LOLLIPOP, UPC: 768395487072"
Food Group:  Branded Food Products Database
Common Name:

Nutrient,Unit,Data points,Std. Error,"1 LARGE OR 2 SMALL LOLLIPOPS = 12.0g",1Value per 100 g,
Proximates
"Energy",kcal,--,--,45,375
"Protein",g,--,--,0.00,0.00
"Total lipid (fat)",g,--,--,0.00,0.00
"Carbohydrate, by difference",g,--,--,12.00,100.00
"Sugars, total",g,--,--,9.00,75.00
Minerals
"Sodium, Na",mg,--,--,0,0
Vitamins
Lipids
Amino Acids
Other
Ingredients
"SUGAR, CORN SYRUP, MALTODEXTRIN, WATER, ARTIFICIAL FLAVOR, RED 40, RED 3, TITANIUM DIOXIDE (FOR COLOR)." Date available: 07/14/2017 Date last updated by company: 07/14/2017
