Source: USDA Branded Food Products Database Release December 2017 Software v.3.8.6.4 2017-10-02
Report Run at: December 17, 2017 11:01 EST
"Nutrient data for: 45192153, LOMBIR COCOA ICE CREAM IN WAFER CUP, UPC: 700580409834"
Food Group:  Branded Food Products Database
Common Name:

Nutrient,Unit,Data points,Std. Error,"125.0 ML = 72.0g",1Value per 100 g,
Proximates
"Energy",kcal,--,--,180,250
"Protein",g,--,--,3.00,4.17
"Total lipid (fat)",g,--,--,10.00,13.89
"Carbohydrate, by difference",g,--,--,18.00,25.00
"Fiber, total dietary",g,--,--,1.0,1.4
"Sugars, total",g,--,--,14.00,19.44
Minerals
"Calcium, Ca",mg,--,--,80,111
"Iron, Fe",mg,--,--,0.00,0.00
"Sodium, Na",mg,--,--,40,56
Vitamins
"Vitamin C, total ascorbic acid",mg,--,--,0.0,0.0
"Vitamin A, IU",IU,--,--,0,0
Lipids
"Fatty acids, total saturated",g,--,--,5.998,8.330
"Fatty acids, total trans",g,--,--,0.000,0.000
"Cholesterol",mg,--,--,30,42
Amino Acids
Other
Ingredients
"ICE CREAM: MILK, BUTTER, SUGAR, WATER, SKIM MILK POWDER, COCOA POWDER PROCESSED WITH ALKALI, EMULSIFIER (MONO AND DIGLYCERIDES OF FATTY ACIDS), STABILIZERS (LOCUST BEAN GUM, CARRAGEENAN), NATURAL VANILLA FLAVOR; WATER: WHEAT FLOUR, CORN STARCH, RAPSEED OIL, SUGAR, WATER, EMULSIFIER (SOY LECITIN), SODIUM SALT, WHEAT FIBER, SALT;" Date available: 10/10/2017 Date last updated by company: 10/10/2017
