Source: USDA Branded Food Products Database Release December 2017 Software v.3.8.6.4 2017-10-02
Report Run at: December 17, 2017 11:08 EST
"Nutrient data for: 45142010, LONG GROVE CONFECTIONERY CO., CREAMY WHITE CONFETTI COOKIES, UPC: 008725050126"
Food Group:  Branded Food Products Database
Common Name:

Nutrient,Unit,Data points,Std. Error,"2.0 PCS = 42.0g",1Value per 100 g,
Proximates
"Energy",kcal,--,--,210,500
"Protein",g,--,--,1.00,2.38
"Total lipid (fat)",g,--,--,10.00,23.81
"Carbohydrate, by difference",g,--,--,29.00,69.05
"Fiber, total dietary",g,--,--,0.0,0.0
"Sugars, total",g,--,--,23.00,54.76
Minerals
"Calcium, Ca",mg,--,--,40,95
"Iron, Fe",mg,--,--,0.86,2.04
"Sodium, Na",mg,--,--,90,214
Vitamins
"Vitamin C, total ascorbic acid",mg,--,--,0.0,0.0
"Vitamin A, IU",IU,--,--,0,0
Lipids
"Fatty acids, total saturated",g,--,--,7.001,16.670
"Fatty acids, total trans",g,--,--,0.000,0.000
"Cholesterol",mg,--,--,0,0
Amino Acids
Other
Ingredients
"WHITE COATING (SUGAR, VEGETABLE OIL [PALM KERNEL AND HYDROGENATED PALM], WHEY POWDER [MILK], NONFAT DRY MILK, SORBITAN MONOSTEARATE, POLYSORBATE 60, SOY LECITHIN [EMULSIFIER], VANILLIN [ARTIFICIAL FLAVORING]), COOKIE (UNBLEACHED ENRICHED FLOUR [WHEAT FLOUR, NIACIN, REDUCED IRON, THIAMINE MONONITRATE {VITAMIN B1}, RIBOFLAVIN {VITAMIN B2}, FOLIC ACID], SUGAR, PALM AND/OR CANOLA OIL, COCOA PROCESSED WITH ALKALI, HIGH FRUCTOSE CORN SYRUP, LEAVENING [BAKING SODA AND/OR CALCIUM PHOSPHATE], CORNSTARCH, SALT, SOY LECITHIN, VANILLIN, CHOCOLATE), CONFETTI (SUGAR, CONFECTIONER'S GLAZE, CARNAUBA WAX, COLORING [RED #3, YELLOW #5 LAKE, BLUE #1 LAKE)." Date available: 07/14/2017 Date last updated by company: 07/14/2017
