Source: USDA Branded Food Products Database Release December 2017 Software v.3.8.6.4 2017-10-02
Report Run at: December 17, 2017 11:08 EST
"Nutrient data for: 45142006, LONG GROVE CONFECTIONERY CO., HALLOWEEN CHOCOLATE POP, UPC: 008725020082"
Food Group:  Branded Food Products Database
Common Name:

Nutrient,Unit,Data points,Std. Error,"0.333 PC. = 43.0g",1Value per 100 g,
Proximates
"Energy",kcal,--,--,230,535
"Protein",g,--,--,3.00,6.98
"Total lipid (fat)",g,--,--,14.00,32.56
"Carbohydrate, by difference",g,--,--,25.00,58.14
"Fiber, total dietary",g,--,--,1.0,2.3
"Sugars, total",g,--,--,24.00,55.81
Minerals
"Calcium, Ca",mg,--,--,80,186
"Iron, Fe",mg,--,--,0.42,0.98
"Sodium, Na",mg,--,--,35,81
Vitamins
"Vitamin C, total ascorbic acid",mg,--,--,1.4,3.3
"Vitamin A, IU",IU,--,--,117,271
Lipids
"Fatty acids, total saturated",g,--,--,9.000,20.930
"Fatty acids, total trans",g,--,--,0.000,0.000
"Cholesterol",mg,--,--,10,23
Amino Acids
Other
Ingredients
"MILK CHOCOLATE (SUGAR, WHOLE MILK, COCOA BUTTER, CHOCOLATE LIQUOR, SOY LECITHIN [EMULSIFIER], VANILLA), WHITE COATING (SUGAR, PARTIALLY HYDROGENATED PALM KERNEL OIL, NONFAT MILK POWDER, SOY LECITHIN, MONOGLYCERIDES, ARTIFICIAL COLOR [TITANIUM DIOXIDE], ARTIFICIAL FLAVOR)), ORANGE COLOR (PARTIALLY HYDROGENATED COTTONSEED AND SOYBEAN OIL, FD&C YELLOW #6 LAKE), DARK CHOCOLATE (SUGAR, CHOCOLATE LIQUOR, COCOA BUTTER, ANHYDROUS MILK FAT, SOY LECITHIN, VANILLA)." Date available: 07/14/2017 Date last updated by company: 07/14/2017
