Source: USDA Branded Food Products Database Release December 2017 Software v.3.8.6.4 2017-10-02
Report Run at: December 17, 2017 11:15 EST
"Nutrient data for: 45170141, LOS VILLARES, SWEET PEDRA XIMENEZ VINEGAR, UPC: 876314001213"
Food Group:  Branded Food Products Database
Common Name:

Nutrient,Unit,Data points,Std. Error,"1 Tbsp = 15.0g",1Value per 100 g,
Proximates
"Energy",kcal,--,--,12,80
"Protein",g,--,--,0.00,0.00
"Total lipid (fat)",g,--,--,0.00,0.00
"Carbohydrate, by difference",g,--,--,3.00,20.00
"Sugars, total",g,--,--,2.00,13.33
Minerals
"Sodium, Na",mg,--,--,1,7
Vitamins
Lipids
"Fatty acids, total trans",g,--,--,0.000,0.000
Amino Acids
Other
Ingredients
"PEDRO XIMENEZ AGED WINE VINEGAR." Date available: 07/14/2017 Date last updated by company: 07/14/2017
