Source: USDA Branded Food Products Database Release December 2017 Software v.3.8.6.4 2017-10-02
Report Run at: December 17, 2017 11:15 EST
"Nutrient data for: 45236385, LOTSA JUICE, FRUIT PUNCH, 100% JUICE BLEND, UPC: 041497256907"
Food Group:  Branded Food Products Database
Common Name:

Nutrient,Unit,Data points,Std. Error,"8.0 OZA = 240.0g",1Value per 100 g,
Proximates
"Energy",kcal,--,--,120,50
"Protein",g,--,--,0.00,0.00
"Total lipid (fat)",g,--,--,0.00,0.00
"Carbohydrate, by difference",g,--,--,30.00,12.50
"Sugars, total",g,--,--,28.99,12.08
Minerals
"Sodium, Na",mg,--,--,36,15
Vitamins
"Vitamin C, total ascorbic acid",mg,--,--,78.0,32.5
Lipids
Amino Acids
Other
Ingredients
"GRAPE AND APPLE JUICES FROM CONCENTRATE (WATER, GRAPE JUICE CONCENTRATE, APPLE JUICE CONCENTRATE), PASSIONFRUIT PUREE CONCENTRATE, NATURAL FLAVORS, ASCORBIC ACID (VITAMIN C)." Date available: 06/25/2017 Date last updated by company: 06/25/2017
