Source: USDA Branded Food Products Database Release December 2017 Software v.3.8.6.4 2017-10-02
Report Run at: December 17, 2017 11:15 EST
"Nutrient data for: 45256372, LOTTA NATURALLY GOOD POPS, UPC: 072730680586"
Food Group:  Branded Food Products Database
Common Name:

Nutrient,Unit,Data points,Std. Error,"1 POP = 57.0g",1Value per 100 g,
Proximates
"Energy",kcal,--,--,45,79
"Protein",g,--,--,0.00,0.00
"Total lipid (fat)",g,--,--,0.00,0.00
"Carbohydrate, by difference",g,--,--,11.00,19.30
"Fiber, total dietary",g,--,--,0.0,0.0
"Sugars, total",g,--,--,8.00,14.04
Minerals
"Calcium, Ca",mg,--,--,0,0
"Iron, Fe",mg,--,--,0.00,0.00
"Sodium, Na",mg,--,--,5,9
Vitamins
"Vitamin C, total ascorbic acid",mg,--,--,8.9,15.7
"Vitamin A, IU",IU,--,--,0,0
Lipids
"Fatty acids, total saturated",g,--,--,0.000,0.000
"Fatty acids, total trans",g,--,--,0.000,0.000
"Cholesterol",mg,--,--,0,0
Amino Acids
Other
Ingredients
"CHERRY: WATER, SUGAR, CORN SYRUP, CONCENTRATED PEAR AND CHERRY JUICES, CITRIC ACID, GUAR GUM, NATURAL FLAVORS, ASCORBIC ACID (VITAMIN C), NATURAL VEGETABLE BLUE COLOR (BLACK CARROT JUICE). GRAPE: WATER, SUGAR, CORN SYRUP, CONCENTRATED PEAR AND GRAPE JUICES, CITRIC ACID, GUAR GUM, NATURAL FLAVORS, ASCORBIC ACID (VITAMIN C), NATURAL VEGETABLE BLUE COLOR (BLACK CARROT JUICE). ORANGE: WATER, SUGAR, CORN SYRUP, CONCENTRATED PEAR AND ORANGE JUICES, CITRIC ACID, GUAR GUM, NATURAL FLAVORS, ASCORBIC ACID (VITAMIN C), BETA CAROTENE." Date available: 07/14/2017 Date last updated by company: 07/14/2017
