Source: USDA Branded Food Products Database Release December 2017 Software v.3.8.6.4 2017-10-02
Report Run at: December 17, 2017 11:16 EST
"Nutrient data for: 45121072, LOTTE, KANCHO CHOCO BISCUIT, UPC: 8801062144815"
Food Group:  Branded Food Products Database
Common Name:

Nutrient,Unit,Data points,Std. Error,"1 PACK = 42.0g",1Value per 100 g,
Proximates
"Energy",kcal,--,--,200,476
"Protein",g,--,--,3.00,7.14
"Total lipid (fat)",g,--,--,9.00,21.43
"Carbohydrate, by difference",g,--,--,28.00,66.67
"Fiber, total dietary",g,--,--,0.0,0.0
"Sugars, total",g,--,--,13.00,30.95
Minerals
"Calcium, Ca",mg,--,--,20,48
"Iron, Fe",mg,--,--,0.43,1.02
"Sodium, Na",mg,--,--,75,179
Vitamins
"Vitamin C, total ascorbic acid",mg,--,--,0.0,0.0
"Vitamin A, IU",IU,--,--,0,0
Lipids
"Fatty acids, total saturated",g,--,--,4.998,11.900
"Fatty acids, total trans",g,--,--,0.000,0.000
"Cholesterol",mg,--,--,0,0
Amino Acids
Other
Ingredients
"WHEAT FLOUR, SUGAR,BLENDED OIL(HYDROGENATED PALM OIL, GLYCERIN ESTERS OF FATTY ACIDS, TOCOPHEROL).COCOA MASS, PALM OIL, COCOA PREPARATION (WHOLE MILK POWDER, COCOA MASS), LACTOSE, ACIDITY REGULATOR (AMMONIUMBICARBONATE, SODIUM BICARBONATE), DEXTRIN, ALMOND POWDER, PROCESSED WHOLE MILK POWDER (WHEY POWDER, BUTTER FAT, LACTOSE, MILK CREAM, SODIUM CASEINATE), SALT D-MALTITO; SYRUB, ARTIFICIAL FLAVORS, EMULSIFIER (SOY LECITHIN), YEAST PREPARATION(DRIED YEAST, WHEAT FLOUR), GLUCOSE PREPARATION (GLUCOSE SYRUP, SUGAR, WATER), PROTEASE PREPARATION (PROTEASE, GLYCEROL." Date available: 06/25/2017 Date last updated by company: 06/25/2017
