Source: USDA Branded Food Products Database Release December 2017 Software v.3.8.6.4 2017-10-02
Report Run at: December 17, 2017 11:17 EST
"Nutrient data for: 45239821, LOTUS, BISCOFF, COOKIE WITH COFFEE, UPC: 021788506102"
Food Group:  Branded Food Products Database
Common Name:

Nutrient,Unit,Data points,Std. Error,"4.0 COOKIES = 31.0g",1Value per 100 g,
Proximates
"Energy",kcal,--,--,150,484
"Protein",g,--,--,2.00,6.45
"Total lipid (fat)",g,--,--,6.00,19.35
"Carbohydrate, by difference",g,--,--,23.00,74.19
"Fiber, total dietary",g,--,--,0.0,0.0
"Sugars, total",g,--,--,12.00,38.71
Minerals
"Calcium, Ca",mg,--,--,0,0
"Iron, Fe",mg,--,--,0.00,0.00
"Sodium, Na",mg,--,--,115,371
Vitamins
"Vitamin C, total ascorbic acid",mg,--,--,0.0,0.0
"Vitamin A, IU",IU,--,--,0,0
Lipids
"Fatty acids, total saturated",g,--,--,3.001,9.680
"Fatty acids, total trans",g,--,--,0.000,0.000
"Cholesterol",mg,--,--,0,0
Amino Acids
Other
Ingredients
"WHEAT FLOUR, SUGAR, VEGETABLE OILS (CONTAINS ONE OR MORE OF SOY BEAN OIL, SUNFLOWER OIL, CANOLA OIL, PALM OIL), BROWN SUGAR, SODIUM BICARBONATE (LEAVENING), SOY FLOUR, SALT, CINNAMON." Date available: 07/14/2017 Date last updated by company: 07/14/2017
