Source: USDA Branded Food Products Database Release December 2017 Software v.3.8.6.4 2017-10-02
Report Run at: December 17, 2017 11:19 EST
"Nutrient data for: 45221061, LOUISIANA MIX, UPC: 608819255033"
Food Group:  Branded Food Products Database
Common Name:

Nutrient,Unit,Data points,Std. Error,"0.25 cup = 30.0g",1Value per 100 g,
Proximates
"Energy",kcal,--,--,174,580
"Protein",g,--,--,7.00,23.33
"Total lipid (fat)",g,--,--,12.50,41.67
"Carbohydrate, by difference",g,--,--,11.00,36.67
"Fiber, total dietary",g,--,--,1.5,5.0
"Sugars, total",g,--,--,2.30,7.67
Minerals
"Calcium, Ca",mg,--,--,25,83
"Iron, Fe",mg,--,--,0.99,3.30
"Sodium, Na",mg,--,--,132,440
Vitamins
"Vitamin C, total ascorbic acid",mg,--,--,0.0,0.0
"Vitamin A, IU",IU,--,--,58,195
Lipids
"Fatty acids, total saturated",g,--,--,2.001,6.670
"Fatty acids, total trans",g,--,--,0.000,0.000
"Cholesterol",mg,--,--,0,0
Amino Acids
Other
Ingredients
"PEANUTS, STONE GROUND CORN, UNBLEACHED WHEAT FLOUR, CHEDDAR CHEESE, [PASTEURIZED MILD, CHEESE CULTURES, WHEAT, SOYBEANS OIL, BULGUR WHEAT, SESAME SEEDS, SUCROSE, STARCH, SALT, HONEY, MALTODEXTRIN, ONION POWDER, GARLIC POWDER, POTATO FLOUR, TOMATO POWDER, GREEN BELL" Date available: 07/14/2017 Date last updated by company: 07/14/2017
