Source: USDA Branded Food Products Database Release December 2017 Software v.3.8.6.4 2017-10-02
Report Run at: December 17, 2017 11:18 EST
"Nutrient data for: 45148147, LOUISIANA GOLD, GREEN SAUCE WITH TABASCO PEPPERS, UPC: 017600023353"
Food Group:  Branded Food Products Database
Common Name:

Nutrient,Unit,Data points,Std. Error,"1 tsp = 5.0g",1Value per 100 g,
Proximates
"Energy",kcal,--,--,0,0
"Protein",g,--,--,0.00,0.00
"Total lipid (fat)",g,--,--,0.00,0.00
"Carbohydrate, by difference",g,--,--,0.00,0.00
Minerals
"Sodium, Na",mg,--,--,260,5200
Vitamins
Lipids
Amino Acids
Other
Ingredients
"JALAPENO PEPPERS AND TABASCO PEPPERS, SPIRIT VINEGAR, SALT." Date available: 07/14/2017 Date last updated by company: 07/14/2017
