Source: USDA Branded Food Products Database Release December 2017 Software v.3.8.6.4 2017-10-02
Report Run at: December 17, 2017 11:21 EST
"Nutrient data for: 45151561, LOVE BANDIT PLUSH WITH MILK CHOCOLATE HEARTS, UPC: 041376500589"
Food Group:  Branded Food Products Database
Common Name:

Nutrient,Unit,Data points,Std. Error,"1 PACKAGE = 42.0g",1Value per 100 g,
Proximates
"Energy",kcal,--,--,210,500
"Protein",g,--,--,2.00,4.76
"Total lipid (fat)",g,--,--,10.00,23.81
"Carbohydrate, by difference",g,--,--,29.00,69.05
"Fiber, total dietary",g,--,--,1.0,2.4
"Sugars, total",g,--,--,27.00,64.29
Minerals
"Calcium, Ca",mg,--,--,40,95
"Iron, Fe",mg,--,--,0.86,2.04
"Sodium, Na",mg,--,--,30,71
Vitamins
"Vitamin C, total ascorbic acid",mg,--,--,0.0,0.0
"Vitamin A, IU",IU,--,--,0,0
Lipids
"Fatty acids, total saturated",g,--,--,6.002,14.290
"Fatty acids, total trans",g,--,--,0.000,0.000
"Cholesterol",mg,--,--,5,12
Amino Acids
Other
Ingredients
"SUGAR, COCOA BUTTER, CHOCOLATE LIQUOR, MILK, SOY LECITHIN AND PGPR (EMULSIFIERS), VANILLA, SALT." Date available: 07/14/2017 Date last updated by company: 07/14/2017
