Source: USDA Branded Food Products Database Release December 2017 Software v.3.8.6.4 2017-10-02
Report Run at: December 17, 2017 11:22 EST
"Nutrient data for: 45259924, LOVE BUG TRUFFLES, UPC: 711175122083"
Food Group:  Branded Food Products Database
Common Name:

Nutrient,Unit,Data points,Std. Error,"2.0 PIECES = 46.6g",1Value per 100 g,
Proximates
"Energy",kcal,--,--,240,515
"Protein",g,--,--,2.00,4.29
"Total lipid (fat)",g,--,--,16.00,34.33
"Carbohydrate, by difference",g,--,--,22.00,47.21
"Fiber, total dietary",g,--,--,1.0,2.1
"Sugars, total",g,--,--,16.00,34.33
Minerals
"Calcium, Ca",mg,--,--,40,86
"Iron, Fe",mg,--,--,0.77,1.66
"Sodium, Na",mg,--,--,30,64
Vitamins
"Vitamin C, total ascorbic acid",mg,--,--,0.0,0.0
"Vitamin A, IU",IU,--,--,0,0
Lipids
"Fatty acids, total saturated",g,--,--,10.000,21.460
"Fatty acids, total trans",g,--,--,0.000,0.000
"Cholesterol",mg,--,--,20,43
Amino Acids
Other
Ingredients
"IVORY CHOCOLATE (SUGAR, COCOA BUTTER, DRY WHOLE MILK, SOY LECITHIN [AN EMULSIFIER], VANILLA), COCOA BUTTER, NATURAL RED COLOR (CARMINE), EXTRA-BITTERSWEET STRAWBERRY GANACHE (DARK CHOCOLATE [UNSWEETENED CHOCOLATE, SUGAR, COCOA BUTTER, SOY LECITHIN {AN EMULSIFIER}, VANILLA], CREAM [MILK], UNSWEETENED CHOCOLATE, CORN SYRUP, CLARIFIED BUTTER [MILK FAT], NON FAT DRY MILK, GLYCERIN, STRAWBERRY FLAVOR, WILD STRAWBERRY COMPOUND, VANILLA EXTRACT, INVERT SUGAR, SOY LECITHIN, CITRIC ACID SOLUTION [CITRIC ACID/WATER], INVERTASE), EXTRA-BITTERSWEET RASPBERRY GANACHE (DARK CHOCOLATE [UNSWEETENED CHOCOLATE, SUGAR, COCOA BUTTER, SOY LECITHIN {AN EMULSIFIER}, VANILLA], CREAM [MILK], UNSWEETENED CHOCOLATE, CORN SYRUP, CLARIFIED BUTTER [MILK FAT], NON FAT DRY MILK, GLYCERIN, RASPBERRY COMPOUND, BLACK RASPBERRY FLAVOR [ETHYL ALCOHOL], VANILLA EXTRACT, INVERT SUGAR, SOY LECITHIN, CITRIC ACID SOLUTION [CITRIC ACID/WATER], INVERTASE), DARK CHOCOLATE (UNSWEETENED CHOCOLATE, SUGAR, COCOA BUTTER, SOY LECITHIN [AN EMULSIFIER], VANILLA)." Date available: 07/14/2017 Date last updated by company: 07/14/2017
