Source: USDA Branded Food Products Database Release December 2017 Software v.3.8.6.4 2017-10-02
Report Run at: December 17, 2017 11:50 EST
"Nutrient data for: 45032906, LOW- FAT GREEK YOGURT, UPC: 818290012807"
Food Group:  Branded Food Products Database
Common Name:

Nutrient,Unit,Data points,Std. Error,"1 CONTAINER = 150.0g",1Value per 100 g,
Proximates
"Energy",kcal,--,--,140,93
"Protein",g,--,--,10.99,7.33
"Total lipid (fat)",g,--,--,2.50,1.67
"Carbohydrate, by difference",g,--,--,19.00,12.67
"Fiber, total dietary",g,--,--,0.0,0.0
"Sugars, total",g,--,--,16.00,10.67
Minerals
"Calcium, Ca",mg,--,--,150,100
"Iron, Fe",mg,--,--,0.00,0.00
"Potassium, K",mg,--,--,220,147
"Sodium, Na",mg,--,--,60,40
Vitamins
"Vitamin C, total ascorbic acid",mg,--,--,0.0,0.0
"Vitamin A, IU",IU,--,--,0,0
Lipids
"Fatty acids, total saturated",g,--,--,1.500,1.000
"Fatty acids, total trans",g,--,--,0.000,0.000
"Cholesterol",mg,--,--,15,10
Amino Acids
Other
Ingredients
"LOWFAT YOGURT (CULTURED PASTEURIZED NONFAT MILK, CREAM), EVAPORATED CANE JUICE, STRAWBERRIES, WATER, BANANAS, PECTIN, LOCUST BEAN GUM, NATURAL FLAVOR, FRUIT AND VEGETABLE JUICE CONCENTRATE (FOR COLOR). CONTAINS LIVE AND ACTIVE CULTURES: S. THERMOPHILUS, L. BULGARICUS, L. ACIDOPHILUS, BIFIDUS AND L. CASEI." Date available: 07/15/2017 Date last updated by company: 07/15/2017
