Source: USDA Branded Food Products Database Release December 2017 Software v.3.8.6.4 2017-10-02
Report Run at: December 17, 2017 12:09 EST
"Nutrient data for: 45088901, LOW FAT YOGURT, UPC: 840426100195"
Food Group:  Branded Food Products Database
Common Name:

Nutrient,Unit,Data points,Std. Error,"1 POUCH = 85.0g",1Value per 100 g,
Proximates
"Energy",kcal,--,--,90,106
"Protein",g,--,--,4.00,4.71
"Total lipid (fat)",g,--,--,1.50,1.76
"Carbohydrate, by difference",g,--,--,15.00,17.65
"Fiber, total dietary",g,--,--,0.0,0.0
"Sugars, total",g,--,--,12.00,14.12
Minerals
"Calcium, Ca",mg,--,--,150,176
"Iron, Fe",mg,--,--,0.00,0.00
"Sodium, Na",mg,--,--,55,65
Vitamins
"Vitamin C, total ascorbic acid",mg,--,--,0.0,0.0
"Vitamin A, IU",IU,--,--,0,0
"Vitamin D",IU,--,--,60,71
Lipids
"Fatty acids, total saturated",g,--,--,1.003,1.180
"Fatty acids, total trans",g,--,--,0.000,0.000
"Cholesterol",mg,--,--,10,12
Amino Acids
Other
Ingredients
"CULTURED REDUCED FAT MILK, CANE SUGAR, STRAWBERRY PUREE CONCENTRATE, FRUIT PECTIN, TAPIOCA STARCH, NATURAL FLAVORS, VITAMIN D2." Date available: 08/10/2017 Date last updated by company: 08/10/2017
