Source: USDA Branded Food Products Database Release December 2017 Software v.3.8.6.4 2017-10-02
Report Run at: December 17, 2017 11:27 EST
"Nutrient data for: 45288785, LOW CALORIE DRINK MIX, UPC: 018894441502"
Food Group:  Branded Food Products Database
Common Name:

Nutrient,Unit,Data points,Std. Error,"0.5 PACKET = 2.0g",1Value per 100 g,
Proximates
"Energy",kcal,--,--,5,250
"Protein",g,--,--,0.00,0.00
"Total lipid (fat)",g,--,--,0.00,0.00
"Carbohydrate, by difference",g,--,--,0.00,0.00
Minerals
"Sodium, Na",mg,--,--,0,0
Vitamins
Lipids
Amino Acids
Other
Ingredients
"CITRIC ACID, MALTODEXTRIN, NATURAL FLAVOR, POTASSIUM CITRATE, ASPARTAME**, MAGNESIUM OXIDE, CONTAINS LESS THAN 2% OF: ACESULFAME POTASSIUM, GUM ARABIC, CALCIUM SILICATE, SOY LECITHIN, ARTIFICIAL COLOR, RED 40." Date available: 07/14/2017 Date last updated by company: 07/14/2017
