Source: USDA Branded Food Products Database Release December 2017 Software v.3.8.6.4 2017-10-02
Report Run at: December 17, 2017 11:53 EST
"Nutrient data for: 45272139, LOW FAT MILK ALTERNATIVE, UPC: 078716908835"
Food Group:  Branded Food Products Database
Common Name:

Nutrient,Unit,Data points,Std. Error,"2.0 Tbsp = 17.0g",1Value per 100 g,
Proximates
"Energy",kcal,--,--,70,412
"Protein",g,--,--,3.00,17.65
"Total lipid (fat)",g,--,--,2.50,14.71
"Carbohydrate, by difference",g,--,--,10.00,58.82
"Fiber, total dietary",g,--,--,0.0,0.0
"Sugars, total",g,--,--,1.00,5.88
Minerals
"Calcium, Ca",mg,--,--,100,588
"Iron, Fe",mg,--,--,0.00,0.00
"Sodium, Na",mg,--,--,115,676
Vitamins
"Vitamin C, total ascorbic acid",mg,--,--,0.0,0.0
"Riboflavin",mg,--,--,0.100,0.588
"Vitamin A, IU",IU,--,--,1470,8650
"Vitamin D",IU,--,--,100,588
Lipids
"Fatty acids, total saturated",g,--,--,1.999,11.760
"Fatty acids, total trans",g,--,--,0.000,0.000
"Cholesterol",mg,--,--,0,0
Amino Acids
Other
Ingredients
"WHEY, CREAMER (COCONUT OIL, CORN SYRUP SOLIDS, SODIUM CASEINATE [A MILK DERIVATIVE], DIPOTASSIUM PHOSPHATE, SUGAR, MONO AND DIGLYCERIDES, SODIUM SILICOALUMINATE, POLYSORBATE 80, TETRASODIUM PYROPHOSPHATE, SOY LECITHIN), PASTEURIZED SKIM MILK, SUGAR, VITAMIN MIX (NONFAT DRY MILK, VITAMIN A PALMITATE, SILICON DIOXIDE, CHOLECALCIFEROL), GUAR GUM." Date available: 08/23/2017 Date last updated by company: 08/23/2017
