Source: USDA Branded Food Products Database Release December 2017 Software v.3.8.6.4 2017-10-02
Report Run at: December 17, 2017 12:19 EST
"Nutrient data for: 45077459, LOW GLYCEMIC ICE CREAM, UPC: 731493120103"
Food Group:  Branded Food Products Database
Common Name:

Nutrient,Unit,Data points,Std. Error,"0.5 cup = 96.0g",1Value per 100 g,
Proximates
"Energy",kcal,--,--,160,167
"Protein",g,--,--,4.00,4.17
"Total lipid (fat)",g,--,--,10.00,10.42
"Carbohydrate, by difference",g,--,--,20.00,20.83
"Fiber, total dietary",g,--,--,5.0,5.2
"Sugars, total",g,--,--,14.00,14.58
Minerals
"Calcium, Ca",mg,--,--,150,156
"Iron, Fe",mg,--,--,0.00,0.00
"Sodium, Na",mg,--,--,5,5
Vitamins
"Vitamin C, total ascorbic acid",mg,--,--,1.3,1.4
"Vitamin A, IU",IU,--,--,449,468
Lipids
"Fatty acids, total saturated",g,--,--,6.000,6.250
"Fatty acids, total trans",g,--,--,0.000,0.000
"Cholesterol",mg,--,--,50,52
Amino Acids
Other
Ingredients
"MILK, CREAM, SOLUBLE CORN FIBER, SKIM MILK, EGGS, FRUCTOSE, VANILLA BEAN, VANILLA EXTRACT, MONK FRUIT EXTRACT, CAROB BEAN GUM, GUAR GUM." Date available: 07/14/2017 Date last updated by company: 07/14/2017
