Source: USDA Branded Food Products Database Release December 2017 Software v.3.8.6.4 2017-10-02
Report Run at: December 17, 2017 12:06 EST
"Nutrient data for: 45218790, LOW FAT PEANUTS, UPC: 850451004528"
Food Group:  Branded Food Products Database
Common Name:

Nutrient,Unit,Data points,Std. Error,"1.1 ONZ = 30.0g",1Value per 100 g,
Proximates
"Energy",kcal,--,--,142,473
"Protein",g,--,--,10.50,35.00
"Total lipid (fat)",g,--,--,10.20,34.00
"Carbohydrate, by difference",g,--,--,7.60,25.33
"Fiber, total dietary",g,--,--,4.0,13.3
"Sugars, total",g,--,--,0.70,2.33
Minerals
"Calcium, Ca",mg,--,--,30,100
"Iron, Fe",mg,--,--,1.20,4.00
"Sodium, Na",mg,--,--,115,383
Vitamins
"Vitamin C, total ascorbic acid",mg,--,--,3.0,10.0
"Vitamin A, IU",IU,--,--,833,2778
Lipids
"Fatty acids, total saturated",g,--,--,1.800,6.000
"Fatty acids, total trans",g,--,--,0.000,0.000
"Cholesterol",mg,--,--,5,17
Amino Acids
Other
Ingredients
"LOW FAT PEANUTS, SALT, BUTTER, CITRIC ACID, CORN FLOUR, XANTHAN GUM AND POWDERS OF CHILLY, TOMATO, GARLIC & ONION." Date available: 07/14/2017 Date last updated by company: 07/14/2017
