Source: USDA Branded Food Products Database Release December 2017 Software v.3.8.6.4 2017-10-02
Report Run at: December 17, 2017 11:29 EST
"Nutrient data for: 45065571, LOW CALORIE SOFT DRINK MIX, UPC: 072392351015"
Food Group:  Branded Food Products Database
Common Name:

Nutrient,Unit,Data points,Std. Error,"0.125 PACKET (MAKES 8 FL OZ PREPARED) = 1.3g",1Value per 100 g,
Proximates
"Energy",kcal,--,--,5,385
"Protein",g,--,--,0.00,0.00
"Total lipid (fat)",g,--,--,0.00,0.00
"Carbohydrate, by difference",g,--,--,0.00,0.00
Minerals
"Sodium, Na",mg,--,--,0,0
Vitamins
"Vitamin C, total ascorbic acid",mg,--,--,230.8,17751.7
Lipids
Amino Acids
Other
Ingredients
"CITRIC ACID, POTASSIUM CITRATE, NATURAL AND ARTIFICIAL FLAVORS, ASPARTAME?, MALTODEXTRIN, CONTAINS 2% OR LESS OF THE FOLLOWING: MAGNESIUM OXIDE, ACESULFAME POTASSIUM, ASCORBIC ACID (VITAMIN C), RED 40." Date available: 07/14/2017 Date last updated by company: 07/14/2017
