Source: USDA Branded Food Products Database Release December 2017 Software v.3.8.6.4 2017-10-02
Report Run at: December 17, 2017 12:14 EST
"Nutrient data for: 45263163, LOW FAT YOGURT, UPC: 070470489780"
Food Group:  Branded Food Products Database
Common Name:

Nutrient,Unit,Data points,Std. Error,"1 CONTAINER = 113.0g",1Value per 100 g,
Proximates
"Energy",kcal,--,--,99,88
"Protein",g,--,--,2.99,2.65
"Total lipid (fat)",g,--,--,0.50,0.44
"Carbohydrate, by difference",g,--,--,20.00,17.70
"Sugars, total",g,--,--,12.99,11.50
Minerals
"Calcium, Ca",mg,--,--,99,88
"Phosphorus, P",mg,--,--,80,71
"Potassium, K",mg,--,--,170,150
"Sodium, Na",mg,--,--,60,53
Vitamins
"Vitamin A, IU",IU,--,--,499,442
"Vitamin D",IU,--,--,40,35
Lipids
"Fatty acids, total saturated",g,--,--,0.000,0.000
"Fatty acids, total trans",g,--,--,0.000,0.000
"Cholesterol",mg,--,--,5,4
Amino Acids
Other
Ingredients
"BERRY INGREDIENTS: CULTURED PASTEURIZED GRADE A LOW FAT MILK, SUGAR, MODIFIED CORN STARCH. CONTAINS 1% OR LESS OF: KOSHER GELATIN, VEGETABLE AND FRUIT JUICE (FOR COLOR), NATURAL FLAVOR, POTASSIUM SORBATE ADDED TO MAINTAIN FRESHNESS, VITAMIN A ACETATE, VITAMIN D3. STRAWBERRY INGREDIENTS: CULTURED PASTEURIZED GRADE A LOW FAT MILK, SUGAR, MODIFIED CORN STARCH. CONTAINS 1% OR LESS OF: KOSHER GELATIN, VEGETABLE JUICE (FOR COLOR), NATURAL FLAVOR, POTASSIUM SORBATE ADDED TO MAINTAIN FRESHNESS, VITAMIN A ACETATE, VITAMIN D3." Date available: 12/31/2016 Date last updated by company: 12/31/2016
