Source: USDA Branded Food Products Database Release December 2017 Software v.3.8.6.4 2017-10-02
Report Run at: December 17, 2017 12:15 EST
"Nutrient data for: 45275727, LOW FAT YOGURT, UPC: 070470492032"
Food Group:  Branded Food Products Database
Common Name:

Nutrient,Unit,Data points,Std. Error,"1 TUBE = 56.0g",1Value per 100 g,
Proximates
"Energy",kcal,--,--,50,89
"Protein",g,--,--,2.00,3.57
"Total lipid (fat)",g,--,--,0.50,0.89
"Carbohydrate, by difference",g,--,--,10.00,17.86
"Fiber, total dietary",g,--,--,0.0,0.0
"Sugars, total",g,--,--,8.00,14.29
Minerals
"Calcium, Ca",mg,--,--,100,179
"Iron, Fe",mg,--,--,0.00,0.00
"Phosphorus, P",mg,--,--,60,107
"Potassium, K",mg,--,--,85,152
"Sodium, Na",mg,--,--,30,54
Vitamins
"Vitamin C, total ascorbic acid",mg,--,--,0.0,0.0
"Riboflavin",mg,--,--,0.068,0.121
"Vitamin A, IU",IU,--,--,400,714
"Vitamin D",IU,--,--,40,71
Lipids
"Fatty acids, total saturated",g,--,--,0.000,0.000
"Fatty acids, total trans",g,--,--,0.000,0.000
"Cholesterol",mg,--,--,5,9
Amino Acids
Other
Ingredients
"STRAWBERRY INGREDIENTS: CULTURED PASTEURIZED GRADE A LOW FAT MILK, SUGAR, MODIFIED CORN STARCH. CONTAINS 1% OR LESS OF: KOSHER GELATIN, TRICALCIUM PHOSPHATE, NATURAL FLAVOR, VEGETABLE JUICE (FOR COLOR), POTASSIUM SORBATE ADDED TO MAINTAIN FRESHNESS, CARRAGEENAN, VITAMIN A ACETATE, VITAMIN D3. BERRY INGREDIENTS: CULTURED PASTEURIZED GRADE A LOW FAT MILK, SUGAR, MODIFIED CORN STARCH. CONTAINS 1% OR LESS OF: KOSHER GELATIN, TRICALCIUM PHOSPHATE, VEGETABLE AND FRUIT JUICE (FOR COLOR), POTASSIUM SORBATE ADDED TO MAINTAIN FRESHNESS, CARRAGEENAN, NATURAL FLAVOR, VITAMIN A ACETATE. VITAMIN D3." Date available: 03/23/2017 Date last updated by company: 03/23/2017
