Source: USDA Branded Food Products Database Release December 2017 Software v.3.8.6.4 2017-10-02
Report Run at: December 17, 2017 12:07 EST
"Nutrient data for: 45194545, LOW FAT VANILLA WITH NUT-FREE GRANOLA, MIXED BERRY YOGURT PARFAIT, UPC: 041268196111"
Food Group:  Branded Food Products Database
Common Name:

Nutrient,Unit,Data points,Std. Error,"1 PARFAIT = 122.0g",1Value per 100 g,
Proximates
"Energy",kcal,--,--,150,123
"Protein",g,--,--,4.00,3.28
"Total lipid (fat)",g,--,--,2.00,1.64
"Carbohydrate, by difference",g,--,--,28.00,22.95
"Fiber, total dietary",g,--,--,1.0,0.8
"Sugars, total",g,--,--,15.99,13.11
Minerals
"Calcium, Ca",mg,--,--,100,82
"Iron, Fe",mg,--,--,0.83,0.68
"Sodium, Na",mg,--,--,74,61
Vitamins
"Vitamin C, total ascorbic acid",mg,--,--,4.1,3.4
"Vitamin A, IU",IU,--,--,459,376
Lipids
"Fatty acids, total saturated",g,--,--,0.500,0.410
Amino Acids
Other
Ingredients
"VANILLA YOGURT (CULTURED PASTEURIZED GRADE A LOW FAT MILK, SUGAR, MODIFIED CORN STARCH, KOSHER GELATIN, NATURAL FLAVORS, POTASSIUM SORBATE ADDED TO MAINTAIN FRESHNESS, VITAMIN A ACETATE, VITAMIN D3), OAT AND HONEY GRANOLA (WHOLE ROLLED OATS, MILLED CANE SUGAR, RICE FLOUR, OAT FLOUR, VEGETABLE OIL [CANOLA AND/OR SAFFLOWER AND/OR SUNFLOWER OIL], MOLASSES, HONEY, NATURAL FLAVOR, SALT, BARLEY MALT SYRUP), BLUEBERRIES, STRAWBERRIES." Date available: 07/14/2017 Date last updated by company: 07/14/2017
