Source: USDA Branded Food Products Database Release December 2017 Software v.3.8.6.4 2017-10-02
Report Run at: December 17, 2017 12:06 EST
"Nutrient data for: 45218787, LOW FAT PEANUTS, UPC: 850451004504"
Food Group:  Branded Food Products Database
Common Name:

Nutrient,Unit,Data points,Std. Error,"1.1 ONZ = 30.0g",1Value per 100 g,
Proximates
"Energy",kcal,--,--,135,450
"Protein",g,--,--,10.10,33.67
"Total lipid (fat)",g,--,--,10.70,35.67
"Carbohydrate, by difference",g,--,--,5.50,18.33
"Fiber, total dietary",g,--,--,3.4,11.3
"Sugars, total",g,--,--,0.00,0.00
Minerals
"Calcium, Ca",mg,--,--,20,67
"Iron, Fe",mg,--,--,0.90,3.00
"Sodium, Na",mg,--,--,47,157
Vitamins
"Vitamin C, total ascorbic acid",mg,--,--,0.0,0.0
"Vitamin A, IU",IU,--,--,0,0
Lipids
"Fatty acids, total saturated",g,--,--,1.800,6.000
"Fatty acids, total monounsaturated",g,--,--,5.301,17.670
"Fatty acids, total polyunsaturated",g,--,--,3.099,10.330
"Fatty acids, total trans",g,--,--,0.000,0.000
"Cholesterol",mg,--,--,0,0
Amino Acids
Other
Ingredients
"LOW FAT PEANUTS, PEANUT OIL, SEA SALT." Date available: 07/14/2017 Date last updated by company: 07/14/2017
