Source: USDA Branded Food Products Database Release December 2017 Software v.3.8.6.4 2017-10-02
Report Run at: December 17, 2017 11:53 EST
"Nutrient data for: 45326004, LOW FAT MALT MILK, UPC: 072730264076"
Food Group:  Branded Food Products Database
Common Name:

Nutrient,Unit,Data points,Std. Error,"1 cup = 240.0g",1Value per 100 g,
Proximates
"Energy",kcal,--,--,190,79
"Protein",g,--,--,9.00,3.75
"Total lipid (fat)",g,--,--,3.00,1.25
"Carbohydrate, by difference",g,--,--,31.01,12.92
"Fiber, total dietary",g,--,--,0.0,0.0
"Sugars, total",g,--,--,28.01,11.67
Minerals
"Calcium, Ca",mg,--,--,300,125
"Iron, Fe",mg,--,--,0.00,0.00
"Sodium, Na",mg,--,--,350,146
Vitamins
"Vitamin C, total ascorbic acid",mg,--,--,1.2,0.5
"Vitamin A, IU",IU,--,--,499,208
"Vitamin D",IU,--,--,101,42
Lipids
"Fatty acids, total saturated",g,--,--,1.992,0.830
"Fatty acids, total trans",g,--,--,0.000,0.000
"Cholesterol",mg,--,--,10,4
Amino Acids
Other
Ingredients
"LOW FAT MILK, SUGAR, MALTED MILK (EXTRACT OF WHEAT FLOUR, AND BARLEY, MILK, SALT, SODA), COCOA, ALKALIZED COCOA, CARRAGEENAN, VITAMIN A PALMITATE AND VITAMIN D3." Date available: 10/13/2017 Date last updated by company: 10/13/2017
