Source: USDA Branded Food Products Database Release December 2017 Software v.3.8.6.4 2017-10-02
Report Run at: December 17, 2017 11:41 EST
"Nutrient data for: 45033212, LOWES FOODS, STEVIA SWEETENER WITH STEVIA EXTRACT, UPC: 741643035584"
Food Group:  Branded Food Products Database
Common Name:

Nutrient,Unit,Data points,Std. Error,"3.5 GRM = 3.5g",1Value per 100 g,
Proximates
"Energy",kcal,--,--,0,0
"Protein",g,--,--,0.00,0.00
"Total lipid (fat)",g,--,--,0.00,0.00
"Carbohydrate, by difference",g,--,--,3.00,85.71
"Sugars, total",g,--,--,1.00,28.57
Minerals
"Sodium, Na",mg,--,--,0,0
Vitamins
Lipids
Amino Acids
Other
Ingredients
"ERYTHRITOL, DEXTROSE WITH MALTODEXTRIN, REBIANA, NATURAL FLAVORS." Date available: 06/24/2017 Date last updated by company: 06/24/2017
