Source: USDA Branded Food Products Database Release December 2017 Software v.3.8.6.4 2017-10-02
Report Run at: December 17, 2017 11:43 EST
"Nutrient data for: 45033185, LOWES FOODS, WHOLE GREEN BEANS, UPC: 741643010154"
Food Group:  Branded Food Products Database
Common Name:

Nutrient,Unit,Data points,Std. Error,"0.5 cup = 120.0g",1Value per 100 g,
Proximates
"Energy",kcal,--,--,20,17
"Protein",g,--,--,1.00,0.83
"Total lipid (fat)",g,--,--,0.00,0.00
"Carbohydrate, by difference",g,--,--,4.00,3.33
"Fiber, total dietary",g,--,--,2.0,1.7
"Sugars, total",g,--,--,2.00,1.67
Minerals
"Calcium, Ca",mg,--,--,20,17
"Iron, Fe",mg,--,--,0.78,0.65
"Sodium, Na",mg,--,--,290,242
Vitamins
"Vitamin C, total ascorbic acid",mg,--,--,2.6,2.2
"Vitamin A, IU",IU,--,--,325,271
Lipids
"Fatty acids, total saturated",g,--,--,0.000,0.000
"Fatty acids, total trans",g,--,--,0.000,0.000
"Cholesterol",mg,--,--,0,0
Amino Acids
Other
Ingredients
"GREEN BEANS, WATER, SALT." Date available: 07/14/2017 Date last updated by company: 07/14/2017
