Source: USDA Branded Food Products Database Release December 2017 Software v.3.8.6.4 2017-10-02
Report Run at: December 17, 2017 12:06 EST
"Nutrient data for: 45082809, LOWFAT STRAWBERRY CHEESECAKE YOGURT, UPC: 011213072562"
Food Group:  Branded Food Products Database
Common Name:

Nutrient,Unit,Data points,Std. Error,"1 CONTAINER = 170.0g",1Value per 100 g,
Proximates
"Energy",kcal,--,--,100,59
"Protein",g,--,--,5.00,2.94
"Total lipid (fat)",g,--,--,0.00,0.00
"Carbohydrate, by difference",g,--,--,18.00,10.59
"Fiber, total dietary",g,--,--,0.0,0.0
"Sugars, total",g,--,--,13.01,7.65
Minerals
"Calcium, Ca",mg,--,--,201,118
"Iron, Fe",mg,--,--,0.00,0.00
"Phosphorus, P",mg,--,--,150,88
"Potassium, K",mg,--,--,270,159
"Sodium, Na",mg,--,--,85,50
Vitamins
"Vitamin C, total ascorbic acid",mg,--,--,0.0,0.0
"Riboflavin",mg,--,--,0.255,0.150
"Pantothenic acid",mg,--,--,0.600,0.353
"Vitamin A, IU",IU,--,--,1000,588
"Vitamin D",IU,--,--,80,47
Lipids
"Fatty acids, total saturated",g,--,--,0.000,0.000
"Fatty acids, total trans",g,--,--,0.000,0.000
"Cholesterol",mg,--,--,5,3
Amino Acids
Other
Ingredients
"CULTURED PASTEURIZED GRAD A NONFAT MILK, WATER, MODIFIED FOOD STARCH, FRUCTOSE, STRAWBERRIES, NATURAL FLAVOR, CARRAGEENAN, PECTIN, SUCRALOSE, CALCIUM PHOSPHATE, CITRIC ACID, POTASSIUM SORBATE (TO MAINTAIN FRESHNESS), ACESULFAME POTASSIUM, VITAMIN A PALMITATE, RED 40, VITAMIN D3." Date available: 06/25/2017 Date last updated by company: 06/25/2017
