Source: USDA Branded Food Products Database Release December 2017 Software v.3.8.6.4 2017-10-02
Report Run at: December 17, 2017 12:07 EST
"Nutrient data for: 45194821, LOWFAT YOGURT, COOKIES PICES, UPC: 046675026990"
Food Group:  Branded Food Products Database
Common Name:

Nutrient,Unit,Data points,Std. Error,"1 CONTAINER = 170.0g",1Value per 100 g,
Proximates
"Energy",kcal,--,--,180,106
"Protein",g,--,--,5.00,2.94
"Total lipid (fat)",g,--,--,4.00,2.35
"Carbohydrate, by difference",g,--,--,31.99,18.82
"Fiber, total dietary",g,--,--,0.0,0.0
"Sugars, total",g,--,--,25.01,14.71
Minerals
"Calcium, Ca",mg,--,--,201,118
"Iron, Fe",mg,--,--,0.36,0.21
"Phosphorus, P",mg,--,--,150,88
"Sodium, Na",mg,--,--,95,56
Vitamins
"Vitamin C, total ascorbic acid",mg,--,--,0.0,0.0
"Vitamin A, IU",IU,--,--,400,235
"Vitamin D",IU,--,--,80,47
Lipids
"Fatty acids, total saturated",g,--,--,2.499,1.470
"Fatty acids, total trans",g,--,--,0.000,0.000
"Cholesterol",mg,--,--,10,6
Amino Acids
Other
Ingredients
"LOWFAT YOGURT: CULTURED PASTEURIZED GRADE A LOWFAT MILK, SUGAR, FOOD STARCH- MODIFIED, NATURAL FLAVORS, POTASSIUM SORBATE (TO PRESERVE FRESHNESS), VITAMIN A PALMITATE, VITAMIN D3. TWIX PIECES: MILK CHOCOLATE (SUGAR, COCOA BUTTER, CHOCOLATE, SKIM MILK, LACTOSE, MILKFAT, SOY LECITHIN, PGPR, ARTIFICIAL FLAVORS), SUGAR, ENRICHED WHEAT FLOUR (WHEAT FLOUR, NIACIN, REDUCED IRON, THIAMINE MONONITRATE, RIBOFLAVIN, FOLIC ACID), PALM OIL, CORN SYRUP, SKIM MILK, DEXTROSE, LESS THAN 2% - FOOD STARCH-MODIFIED, SALT, COCOA POWDER, BAKING SODA, SOY LECITHIN, ARTIFICIAL FLAVOR. CONTAINS ACTIVE YOGURT CULTURE INCLUDING L. ACIDOPHILUS & BIFIDUS" Date available: 07/14/2017 Date last updated by company: 07/14/2017
