Source: USDA Branded Food Products Database Release December 2017 Software v.3.8.6.4 2017-10-02
Report Run at: December 17, 2017 12:08 EST
"Nutrient data for: 45055043, LOWFAT YOGURT, UPC: 053600766616"
Food Group:  Branded Food Products Database
Common Name:

Nutrient,Unit,Data points,Std. Error,"170.0 GRM = 170.0g",1Value per 100 g,
Proximates
"Energy",kcal,--,--,190,112
"Protein",g,--,--,7.00,4.12
"Total lipid (fat)",g,--,--,3.50,2.06
"Carbohydrate, by difference",g,--,--,33.00,19.41
"Fiber, total dietary",g,--,--,0.0,0.0
"Sugars, total",g,--,--,28.00,16.47
Minerals
"Calcium, Ca",mg,--,--,201,118
"Iron, Fe",mg,--,--,0.71,0.42
"Sodium, Na",mg,--,--,95,56
Vitamins
"Vitamin C, total ascorbic acid",mg,--,--,2.4,1.4
"Vitamin A, IU",IU,--,--,750,441
"Vitamin D",IU,--,--,80,47
Lipids
"Fatty acids, total saturated",g,--,--,2.499,1.470
"Fatty acids, total trans",g,--,--,0.000,0.000
"Cholesterol",mg,--,--,5,3
Amino Acids
Other
Ingredients
"CULTURED PASTEURIZED GRADE A LOWFAT MILK, SUGAR, NONFAT MILK SOLIDS, MODIFIED CORNSTARCH, STRAWBERRIES, BITTERSWEET CHOCOLATE PIECES (CHOCOLATE, COCOA BUTTER, SUGAR), KOSHER GELATIN, NATURAL FLAVORS, CITRIC ACID, POTASSIUM SORBATE (TO MAINTAIN FRESHNESS), PECTIN, MALIC ACID, CONCENTRATED FRUIT AND VEGETABLE JUICE (COLOR), GUAR GUM, CALCIUM CITRATE, SODIUM CITRATE, VITAMIN A PALMITATE AND VITAMIN D3. CONTAINS: ACTIVE YOGURT CULTURES WITH L. BULGARICUS, S. THERMOPHILUS, BIFIDOBACTERIUM BB-12(R), L. ACIDOPHILUS AND L. CASEI." Date available: 06/24/2017 Date last updated by company: 06/24/2017
