Source: USDA Branded Food Products Database Release December 2017 Software v.3.8.6.4 2017-10-02
Report Run at: December 17, 2017 12:09 EST
"Nutrient data for: 45023111, LOWFAT YOGURT, UPC: 051933316959"
Food Group:  Branded Food Products Database
Common Name:

Nutrient,Unit,Data points,Std. Error,"6.0 ONZ = 170.0g",1Value per 100 g,
Proximates
"Energy",kcal,--,--,180,106
"Protein",g,--,--,7.00,4.12
"Total lipid (fat)",g,--,--,1.50,0.88
"Carbohydrate, by difference",g,--,--,34.00,20.00
"Fiber, total dietary",g,--,--,0.0,0.0
"Sugars, total",g,--,--,29.00,17.06
Minerals
"Calcium, Ca",mg,--,--,250,147
"Iron, Fe",mg,--,--,0.00,0.00
"Potassium, K",mg,--,--,299,176
"Sodium, Na",mg,--,--,95,56
Vitamins
"Vitamin C, total ascorbic acid",mg,--,--,1.2,0.7
"Vitamin A, IU",IU,--,--,750,441
"Vitamin D",IU,--,--,80,47
Lipids
"Fatty acids, total saturated",g,--,--,1.003,0.590
"Fatty acids, total trans",g,--,--,0.000,0.000
"Cholesterol",mg,--,--,10,6
Amino Acids
Other
Ingredients
"CULTURED PASTEURIZED GRADE A LOWFAT MILK, SUGAR, NONFAT MILK SOLIDS, MODIFIED CORNSTARCH, FRUCTOSE, HIGH FRUCTOSE CORN SYRUP, RED RASPBERRY PUREE, RED RASPBERRIES, KOSHER GELATIN, NATURAL FLAVORS, CITRIC ACID, POTASSIUM SORBATE (TO MAINTAIN FRESHNESS), RED 40, BLUE 1, YELLOW 5, VITAMIN A PALMITATE AND VITAMIN D3. CONTAINS ACTIVE YOGURT WITH BULGARCUS, S. THERMOPHILUS, BIFIDUS, L ACIDOPHILUS AND L. CASEI CULTURES." Date available: 06/25/2017 Date last updated by company: 06/25/2017
