Source: USDA Branded Food Products Database Release December 2017 Software v.3.8.6.4 2017-10-02
Report Run at: December 17, 2017 11:49 EST
"Nutrient data for: 45077512, LOWFAT GRANOLA WITH RAISINS, UPC: 713733164108"
Food Group:  Branded Food Products Database
Common Name:

Nutrient,Unit,Data points,Std. Error,"0.5 cup = 55.0g",1Value per 100 g,
Proximates
"Energy",kcal,--,--,200,364
"Protein",g,--,--,4.00,7.27
"Total lipid (fat)",g,--,--,3.00,5.45
"Carbohydrate, by difference",g,--,--,43.00,78.18
"Fiber, total dietary",g,--,--,5.0,9.1
"Sugars, total",g,--,--,15.00,27.27
Minerals
"Calcium, Ca",mg,--,--,40,73
"Iron, Fe",mg,--,--,1.80,3.27
"Potassium, K",mg,--,--,190,345
"Sodium, Na",mg,--,--,65,118
Vitamins
"Vitamin C, total ascorbic acid",mg,--,--,1.2,2.2
"Vitamin A, IU",IU,--,--,0,0
Lipids
"Fatty acids, total saturated",g,--,--,0.501,0.910
"Fatty acids, total monounsaturated",g,--,--,1.502,2.730
"Fatty acids, total polyunsaturated",g,--,--,1.001,1.820
"Fatty acids, total trans",g,--,--,0.000,0.000
"Cholesterol",mg,--,--,0,0
Amino Acids
Other
Ingredients
"WHOLE ROLLED OATS, WHOLE ROLLED WHEAT, MILLED CANE SUGAR, RAISINS (RAISINS, VEGETABLE GLYCERIN, VEGETABLE OIL [CANOLA AND/OR SUNFLOWER OIL]), RICE FLOUR, OAT FIBER, EXPELLER PRESSED CANOLA OIL, MOLASSES, CORNSTARCH, COCONUT, VEGETABLE GLYCERIN, CINNAMON BARK, SALT, BARLEY MALT SYRUP, ALMONDS, HERB BLEND (SUGAR, CARDAMOM, FENNEL SEED, FENUGREEK, NUTMEG), MIXED TOCOPHEROLS (NATURAL VITAMIN E TO MAINTAIN FRESHNESS)." Date available: 07/14/2017 Date last updated by company: 07/14/2017
