Source: USDA Branded Food Products Database Release December 2017 Software v.3.8.6.4 2017-10-02
Report Run at: December 17, 2017 12:27 EST
"Nutrient data for: 45172823, LUCERNE, SLICES CHEESE, PEPPER JACK, UPC: 021130048984"
Food Group:  Branded Food Products Database
Common Name:

Nutrient,Unit,Data points,Std. Error,"1 SLICE = 21.0g",1Value per 100 g,
Proximates
"Energy",kcal,--,--,70,333
"Protein",g,--,--,3.00,14.29
"Total lipid (fat)",g,--,--,5.00,23.81
"Carbohydrate, by difference",g,--,--,2.00,9.52
"Fiber, total dietary",g,--,--,0.0,0.0
"Sugars, total",g,--,--,1.00,4.76
Minerals
"Calcium, Ca",mg,--,--,250,1190
"Iron, Fe",mg,--,--,0.00,0.00
"Sodium, Na",mg,--,--,260,1238
Vitamins
"Vitamin C, total ascorbic acid",mg,--,--,0.0,0.0
"Vitamin A, IU",IU,--,--,476,2267
"Vitamin D",IU,--,--,40,190
Lipids
"Fatty acids, total saturated",g,--,--,3.501,16.670
"Fatty acids, total trans",g,--,--,0.000,0.000
"Cholesterol",mg,--,--,10,48
Amino Acids
Other
Ingredients
"AMERICAN CHEESE (MILK, CHEESE CULTURE, SALT, ENZYMES), MONTEREY JACK CHEESE (MILK, CHEESE CULTURE, SALT, ENZYMES), WATER, PALM OIL, WHEY, MODIFIED POTATO STARCH, MILK PROTEIN CONCENTRATE, SODIUM CITRATE, JALAPENO PEPPERS (JALAPENO PEPPERS, WATER, VINEGAR, SALT), TRICALCIUM PHOSPHATE, SALT, SORBIC ACID AS A PRESERVATIVE, OLEORESIN CAPSICUM AND VITAMIN D3." Date available: 07/14/2017 Date last updated by company: 07/14/2017
