Source: USDA Branded Food Products Database Release December 2017 Software v.3.8.6.4 2017-10-02
Report Run at: December 17, 2017 12:32 EST
"Nutrient data for: 45169567, LUCYS, BERRY BEST COOKIE, UPC: 853771005022"
Food Group:  Branded Food Products Database
Common Name:

Nutrient,Unit,Data points,Std. Error,"3.0 COOKIES = 32.0g",1Value per 100 g,
Proximates
"Energy",kcal,--,--,120,375
"Protein",g,--,--,2.00,6.25
"Total lipid (fat)",g,--,--,4.50,14.06
"Carbohydrate, by difference",g,--,--,18.00,56.25
"Fiber, total dietary",g,--,--,1.0,3.1
"Sugars, total",g,--,--,9.00,28.12
Minerals
"Sodium, Na",mg,--,--,170,531
Vitamins
Lipids
"Fatty acids, total saturated",g,--,--,0.998,3.120
"Fatty acids, total trans",g,--,--,0.000,0.000
"Cholesterol",mg,--,--,0,0
Amino Acids
Other
Ingredients
"ORGANIC CANE SUGAR*, DR. LUCY'S FLOUR BLEND (GLUTEN-FREE OAT, GARBANZO/CHICKPEA, POTATO STARCH, TAPIOCA, SORGHUM AND FAVA FLOURS), SOY MILK*, MOLASSES*, SUSTAINABLE PALM FRUIT OIL, EXPELLER PRESSED CANOLA OIL, OLIVE OIL, FILTERED WATER, FLAVORING AND CITRIC ACID FROM NON-GMO CORN, SUNFLOWER LECITHIN, RASPBERRY FRUIT, NON-DAIRY LACTIC ACID, BAKING SODA, POTASSIUM BITARTRATE, BAKING POWDER, VANILLA EXTRACT*, XANTHAN GUM, RASPBERRY EXTRACT, SALT, CALCIUM CARBONATE, ANNATTO EXTRACT COLOR, OIL OF LEMON, CELLULOSE GUM." Date available: 10/13/2017 Date last updated by company: 10/13/2017
