Source: USDA Branded Food Products Database Release December 2017 Software v.3.8.6.4 2017-10-02
Report Run at: December 17, 2017 12:32 EST
"Nutrient data for: 45161622, LUDO, SANTA HEAD SHAPED CANDY, SOUR, UPC: 831366006203"
Food Group:  Branded Food Products Database
Common Name:

Nutrient,Unit,Data points,Std. Error,"10.0 PIECES = 10.0g",1Value per 100 g,
Proximates
"Energy",kcal,--,--,35,350
"Protein",g,--,--,2.00,20.00
"Total lipid (fat)",g,--,--,0.00,0.00
"Carbohydrate, by difference",g,--,--,9.00,90.00
"Fiber, total dietary",g,--,--,0.0,0.0
"Sugars, total",g,--,--,8.00,80.00
Minerals
"Calcium, Ca",mg,--,--,0,0
"Iron, Fe",mg,--,--,0.00,0.00
"Sodium, Na",mg,--,--,0,0
Vitamins
"Vitamin C, total ascorbic acid",mg,--,--,0.0,0.0
"Vitamin A, IU",IU,--,--,0,0
Lipids
"Fatty acids, total saturated",g,--,--,0.000,0.000
"Fatty acids, total trans",g,--,--,0.000,0.000
"Cholesterol",mg,--,--,0,0
Amino Acids
Other
Ingredients
"DEXTROSE, SUGAR, CORN SYRUP, MALTODEXTRIN, MAGNESIUM STEARATE, CARNAUBA WAX, ARABIC GUM, ARTIFICIAL FLAVORS, ARTIFICIAL COLORS (FD&C BLUE 1, YELLOW 5, TITANIUM DIOXIDE)." Date available: 07/14/2017 Date last updated by company: 07/14/2017
