Source: USDA Branded Food Products Database Release December 2017 Software v.3.8.6.4 2017-10-02
Report Run at: December 17, 2017 12:38 EST
"Nutrient data for: 45140352, LUNCHABLES, LUNCH COMBINATIONS, TURKEY & CHEDDAR WITH CRACKERS, UPC: 044700024553"
Food Group:  Branded Food Products Database
Common Name:

Nutrient,Unit,Data points,Std. Error,"1 PACKAGE = 90.0g",1Value per 100 g,
Proximates
"Energy",kcal,--,--,260,289
"Protein",g,--,--,12.00,13.33
"Total lipid (fat)",g,--,--,13.00,14.44
"Carbohydrate, by difference",g,--,--,22.00,24.44
"Fiber, total dietary",g,--,--,1.0,1.1
"Sugars, total",g,--,--,5.00,5.56
Minerals
"Calcium, Ca",mg,--,--,150,167
"Iron, Fe",mg,--,--,1.44,1.60
"Sodium, Na",mg,--,--,670,744
Vitamins
"Vitamin C, total ascorbic acid",mg,--,--,0.0,0.0
"Vitamin A, IU",IU,--,--,200,222
Lipids
"Fatty acids, total saturated",g,--,--,7.002,7.780
"Fatty acids, total trans",g,--,--,0.000,0.000
"Cholesterol",mg,--,--,40,44
Amino Acids
Other
Ingredients
"ROAST WHITE TURKEY - CURED - SMOKE FLAVOR ADDED - WHITE TURKEY, WATER, POTASSIUM LACTATE, MODIFIED CORNSTARCH, CONTAINS LESS THAN 2% OF DEXTROSE, CARRAGEENAN, SALT, SODIUM PHOSPHATES, POTASSIUM CHLORIDE, SODIUM DIACETATE, FLAVOR, SODIUM ASCORBATE, SMOKE F" Date available: 09/23/2016 Date last updated by company: 09/23/2016
