Source: USDA Branded Food Products Database Release December 2017 Software v.3.8.6.4 2017-10-02
Report Run at: December 17, 2017 12:38 EST
"Nutrient data for: 45048310, LUNCHEON LOAF, UPC: 070038325154"
Food Group:  Branded Food Products Database
Common Name:

Nutrient,Unit,Data points,Std. Error,"2.0 ONZ = 56.0g",1Value per 100 g,
Proximates
"Energy",kcal,--,--,130,232
"Protein",g,--,--,6.00,10.71
"Total lipid (fat)",g,--,--,10.00,17.86
"Carbohydrate, by difference",g,--,--,3.00,5.36
"Fiber, total dietary",g,--,--,0.0,0.0
"Sugars, total",g,--,--,2.00,3.57
Minerals
"Calcium, Ca",mg,--,--,60,107
"Iron, Fe",mg,--,--,0.71,1.26
"Sodium, Na",mg,--,--,740,1321
Vitamins
"Vitamin C, total ascorbic acid",mg,--,--,0.0,0.0
"Vitamin A, IU",IU,--,--,0,0
Lipids
"Fatty acids, total saturated",g,--,--,3.002,5.360
"Fatty acids, total trans",g,--,--,0.000,0.000
"Cholesterol",mg,--,--,50,89
Amino Acids
Other
Ingredients
"MECHANICALLY SEPARATED CHICKEN, PORK, WHEAT, SALT, SUGAR, CORN SYRUP, LESS THAN 2%: FOOD STARCH- MODIFIED, BROWN SUGAR, SOYBEAN OIL, HYDROLYZED CORN, SOY AND WHEAT PROTEINS, BARLEY MALT FLOUR, NATURAL FLAVORINGS, SODIUM NITRATE, SODIUM TRIPOLYPHOSPHATE, SODIUM ERYTHORBATE, SMOKE FLAVORING." Date available: 06/25/2017 Date last updated by company: 06/25/2017
