Source: USDA Branded Food Products Database Release December 2017 Software v.3.8.6.4 2017-10-02
Report Run at: December 17, 2017 12:44 EST
"Nutrient data for: 45147941, LUNDS & BYERLYS, MILK CHOCOLATE ALMONDS, UPC: 072431018077"
Food Group:  Branded Food Products Database
Common Name:

Nutrient,Unit,Data points,Std. Error,"0.25 cup = 37.0g",1Value per 100 g,
Proximates
"Energy",kcal,--,--,200,541
"Protein",g,--,--,4.00,10.81
"Total lipid (fat)",g,--,--,14.00,37.84
"Carbohydrate, by difference",g,--,--,17.00,45.95
"Fiber, total dietary",g,--,--,2.0,5.4
"Sugars, total",g,--,--,15.00,40.54
Minerals
"Calcium, Ca",mg,--,--,60,162
"Iron, Fe",mg,--,--,0.97,2.63
"Sodium, Na",mg,--,--,10,27
Vitamins
"Vitamin C, total ascorbic acid",mg,--,--,0.8,2.2
"Vitamin A, IU",IU,--,--,67,182
Lipids
"Fatty acids, total saturated",g,--,--,4.999,13.510
"Fatty acids, total trans",g,--,--,0.000,0.000
"Cholesterol",mg,--,--,5,14
Amino Acids
Other
Ingredients
"MILK CHOCOLATE (SUGAR, COCOA BUTTER, WHOLE MILK, CHOCOLATE LIQUOR, SOY LECITHIN (AN EMULSIFIER), VANILLA), ALMONDS (USA), PEANUTS, AND/OR COTTONSEED OIL, CONFECTIONERS POLISH (MODIFIED CORN STARCH, SUGAR, CITRIC ACID, SORBIC ACID, WATER), CONFECTIONERS GLAZE." Date available: 07/14/2017 Date last updated by company: 07/14/2017
