Source: USDA Branded Food Products Database Release December 2017 Software v.3.8.6.4 2017-10-02
Report Run at: December 17, 2017 12:45 EST
"Nutrient data for: 45143815, LUNDS & BYERLYS, ORGANIC RAW ALMONDS, NUTS & SNACKS, UPC: 072431043611"
Food Group:  Branded Food Products Database
Common Name:

Nutrient,Unit,Data points,Std. Error,"0.25 cup = 36.0g",1Value per 100 g,
Proximates
"Energy",kcal,--,--,210,583
"Protein",g,--,--,8.00,22.22
"Total lipid (fat)",g,--,--,18.00,50.00
"Carbohydrate, by difference",g,--,--,7.00,19.44
"Fiber, total dietary",g,--,--,4.0,11.1
"Sugars, total",g,--,--,2.00,5.56
Minerals
"Calcium, Ca",mg,--,--,90,250
"Iron, Fe",mg,--,--,2.25,6.25
"Sodium, Na",mg,--,--,0,0
Vitamins
"Vitamin C, total ascorbic acid",mg,--,--,0.0,0.0
"Vitamin A, IU",IU,--,--,0,0
Lipids
"Fatty acids, total saturated",g,--,--,1.501,4.170
"Fatty acids, total trans",g,--,--,0.000,0.000
"Cholesterol",mg,--,--,0,0
Amino Acids
Other
Ingredients
"ORGANIC RAW WHOLE ALMONDS (SPAIN, ITALY)." Date available: 07/14/2017 Date last updated by company: 07/14/2017
