Source: USDA Branded Food Products Database Release December 2017 Software v.3.8.6.4 2017-10-02
Report Run at: December 17, 2017 12:40 EST
"Nutrient data for: 45061597, LUNDBERG FAMILY FARMS, ORGANIC RICE CAKES, UPC: 073416000131"
Food Group:  Branded Food Products Database
Common Name:

Nutrient,Unit,Data points,Std. Error,"1 CAKE = 19.0g",1Value per 100 g,
Proximates
"Energy",kcal,--,--,60,316
"Protein",g,--,--,1.00,5.26
"Total lipid (fat)",g,--,--,0.00,0.00
"Carbohydrate, by difference",g,--,--,13.00,68.42
"Fiber, total dietary",g,--,--,1.0,5.3
"Sugars, total",g,--,--,0.00,0.00
Minerals
"Calcium, Ca",mg,--,--,0,0
"Iron, Fe",mg,--,--,0.95,4.98
"Sodium, Na",mg,--,--,75,395
Vitamins
"Vitamin C, total ascorbic acid",mg,--,--,0.0,0.0
"Vitamin A, IU",IU,--,--,0,0
Lipids
"Fatty acids, total saturated",g,--,--,0.000,0.000
"Fatty acids, total trans",g,--,--,0.000,0.000
"Cholesterol",mg,--,--,0,0
Amino Acids
Other
Ingredients
"ORGANIC WHOLE GRAIN BROWN RICE, ORGANIC TAMARI (WATER, ORGANIC SOYBEANS, SALT), ORGANIC BROWN RICE SYRUP, ORGANIC NORI FLAKES, SEA SALT." Date available: 07/14/2017 Date last updated by company: 07/14/2017
