Source: USDA Branded Food Products Database Release December 2017 Software v.3.8.6.4 2017-10-02
Report Run at: December 17, 2017 12:44 EST
"Nutrient data for: 45154713, LUNDS & BYERLYS, M & M, COOKIE, UPC: 018169482001"
Food Group:  Branded Food Products Database
Common Name:

Nutrient,Unit,Data points,Std. Error,"1 COOKIE = 28.0g",1Value per 100 g,
Proximates
"Energy",kcal,--,--,120,429
"Protein",g,--,--,1.00,3.57
"Total lipid (fat)",g,--,--,4.50,16.07
"Carbohydrate, by difference",g,--,--,18.00,64.29
"Fiber, total dietary",g,--,--,0.0,0.0
"Sugars, total",g,--,--,11.00,39.29
Minerals
"Calcium, Ca",mg,--,--,0,0
"Iron, Fe",mg,--,--,0.00,0.00
"Sodium, Na",mg,--,--,90,321
Vitamins
"Vitamin C, total ascorbic acid",mg,--,--,0.0,0.0
"Vitamin A, IU",IU,--,--,0,0
Lipids
"Fatty acids, total saturated",g,--,--,2.999,10.710
"Fatty acids, total trans",g,--,--,0.000,0.000
"Cholesterol",mg,--,--,16,57
Amino Acids
Other
Ingredients
"WHEAT FLOUR (WHEAT FLOUR, MALTED BARLEY FLOUR), M&M'S (MILK CHOCOLATE (SUGAR, CHOCOLATE, SKIM MILK, COCOA BUTTER, LACTOSE, MILKFAT, SOY LECITHIN, SALT, ARTIFICIAL FLAVOR], SUGAR, CORNSTARCH, LESS THAN 1%: CORN SYRUP, DEXTRIN, COLORING [BLUE 1 LAKE, RED 40 LAKE, YELLOW 6, YELLOW 5, RED 40, BLUE 1, BLUE 2 LAKE, YELLOW 6 LAKE, YELLOW 5 LAKE, BLUE 2], GUM ACACIA), SALTED BUTTER (PASTEURIZED CREAM [MILK], SALT), SUGAR, BROWN SUGAR, WHOLE EGGS, CORN SYRUP, SALT, VANILLA EXTRACT (VANILLA BEAN EXTRACTIVES, CORN SYRUP, ETHYL ALCOHOL, WATER), BAKING POWDER (CORNSTARCH, SODIUM BICARBONATE, SODIUM ALUMINUM SULFATE, MONOCALCIUM PHOSPHATE), SODIUM BICARBONATE" Date available: 07/14/2017 Date last updated by company: 07/14/2017
