Source: USDA Branded Food Products Database Release December 2017 Software v.3.8.6.4 2017-10-02
Report Run at: December 17, 2017 12:48 EST
"Nutrient data for: 45192080, LUSCIOUS FOUR BERRY PIE, UPC: 681131121507"
Food Group:  Branded Food Products Database
Common Name:

Nutrient,Unit,Data points,Std. Error,"0.2 PIE = 136.0g",1Value per 100 g,
Proximates
"Energy",kcal,--,--,400,294
"Protein",g,--,--,3.01,2.21
"Total lipid (fat)",g,--,--,23.00,16.91
"Carbohydrate, by difference",g,--,--,47.00,34.56
"Fiber, total dietary",g,--,--,2.0,1.5
"Sugars, total",g,--,--,18.01,13.24
Minerals
"Calcium, Ca",mg,--,--,20,15
"Iron, Fe",mg,--,--,1.66,1.22
"Sodium, Na",mg,--,--,209,154
Vitamins
"Vitamin C, total ascorbic acid",mg,--,--,8.3,6.1
"Vitamin A, IU",IU,--,--,0,0
Lipids
"Fatty acids, total saturated",g,--,--,9.996,7.350
"Fatty acids, total trans",g,--,--,0.000,0.000
"Cholesterol",mg,--,--,0,0
Amino Acids
Other
Ingredients
"ENRICHED FLOUR (WHEAT FLOUR, NIACIN, REDUCED IRON, THIAMINE MONONITRATE, RIBOFLAVIN, FOLIC ACID), VEGETABLE SHORTENING (PALM OIL, SOYBEAN OIL), STRAWBERRIES, WATER, SUGAR, BLUEBERRIES, CRANBERRIES, RASPBERRIES, CONTAINS 2% OR LESS OF MODIFIED CORNSTARCH, DEXTROSE, SALT, SODIUM PROPIONATE (PRESERVATIVE), POTASSIUM SORBATE (PRESERVATIVE)." Date available: 07/14/2017 Date last updated by company: 07/14/2017
