Source: USDA Branded Food Products Database Release December 2017 Software v.3.8.6.4 2017-10-02
Report Run at: December 17, 2017 21:27 EST
"Nutrient data for: 45249085, M&M'S, CHOCOLATE CANDIES, PEANUT, UPC: 040000422105"
Food Group:  Branded Food Products Database
Common Name:

Nutrient,Unit,Data points,Std. Error,"1.5 ONZ = 42.0g",1Value per 100 g,
Proximates
"Energy",kcal,--,--,220,524
"Protein",g,--,--,4.00,9.52
"Total lipid (fat)",g,--,--,11.00,26.19
"Carbohydrate, by difference",g,--,--,25.00,59.52
"Fiber, total dietary",g,--,--,1.0,2.4
"Sugars, total",g,--,--,21.00,50.00
Minerals
"Calcium, Ca",mg,--,--,40,95
"Iron, Fe",mg,--,--,0.43,1.02
"Sodium, Na",mg,--,--,20,48
Vitamins
"Vitamin C, total ascorbic acid",mg,--,--,0.0,0.0
"Vitamin A, IU",IU,--,--,0,0
Lipids
"Fatty acids, total saturated",g,--,--,4.498,10.710
"Fatty acids, total trans",g,--,--,0.000,0.000
"Cholesterol",mg,--,--,5,12
Amino Acids
Other
Ingredients
"MILK CHOCOLATE (SUGAR, CHOCOLATE, COCOA BUTTER, SKIM ILK, LACTOSE, MILK FAT, PEANUTS, SOY LECITHIN, SALT, ARTIFICIAL FLAVORS), SUGAR, PEANUTS, CORNSTARCH, LESS THAN 1% - CORN SYRUP, GUM ACACIA, COLORING (INCLUDES BLUE 1 LAKE, YELLOW 6, RED 40 LAKE, YELLOW 5, RED 40, BLUE 1, BLUE 2 LAKE, YELLOW 6 LAKE, YELLOW 5 LAKE, BLUE 2), DEXTRIN." Date available: 07/14/2017 Date last updated by company: 07/14/2017
