Source: USDA Branded Food Products Database Release December 2017 Software v.3.8.6.4 2017-10-02
Report Run at: December 17, 2017 12:53 EST
"Nutrient data for: 45096054, MABUHAY, LANGKA SWEET JACKFRUIT IN SYRUP, UPC: 4806501821979"
Food Group:  Branded Food Products Database
Common Name:

Nutrient,Unit,Data points,Std. Error,"0.25 cup = 68.0g",1Value per 100 g,
Proximates
"Energy",kcal,--,--,80,118
"Protein",g,--,--,1.00,1.47
"Total lipid (fat)",g,--,--,0.00,0.00
"Carbohydrate, by difference",g,--,--,19.00,27.94
"Fiber, total dietary",g,--,--,0.0,0.0
"Sugars, total",g,--,--,19.00,27.94
Minerals
"Iron, Fe",mg,--,--,0.00,0.00
"Sodium, Na",mg,--,--,0,0
Vitamins
"Vitamin C, total ascorbic acid",mg,--,--,0.0,0.0
Lipids
"Fatty acids, total trans",g,--,--,0.000,0.000
Amino Acids
Other
Ingredients
"JACKFRUIT (50%) REFIND CANE SUGAR. WATER AND ACIDULANT (CITRIC ACID)" Date available: 06/25/2017 Date last updated by company: 06/25/2017
