Source: USDA Branded Food Products Database Release December 2017 Software v.3.8.6.4 2017-10-02
Report Run at: December 17, 2017 13:08 EST
"Nutrient data for: 45028165, MAC & CHEESE, UPC: 077958694490"
Food Group:  Branded Food Products Database
Common Name:

Nutrient,Unit,Data points,Std. Error,"1 CONTAINER = 284.0g",1Value per 100 g,
Proximates
"Energy",kcal,--,--,429,151
"Protein",g,--,--,19.99,7.04
"Total lipid (fat)",g,--,--,22.01,7.75
"Carbohydrate, by difference",g,--,--,38.99,13.73
"Fiber, total dietary",g,--,--,3.1,1.1
"Sugars, total",g,--,--,6.99,2.46
Minerals
"Calcium, Ca",mg,--,--,449,158
"Iron, Fe",mg,--,--,1.59,0.56
"Sodium, Na",mg,--,--,1281,451
Vitamins
"Vitamin C, total ascorbic acid",mg,--,--,0.0,0.0
"Vitamin A, IU",IU,--,--,1321,465
Lipids
"Fatty acids, total saturated",g,--,--,14.001,4.930
"Fatty acids, total trans",g,--,--,0.511,0.180
"Cholesterol",mg,--,--,54,19
Amino Acids
Other
Ingredients
"COOKED ENRICHED RIGATE PASTA (WATER, SEMOLINA, EGG WHITES, NIACIN, FERROUS SULFATE, THIAMINE MONONITRATE, RIBOFLAVIN, FOLIC ACID), AMERICAN CHEESE SPREAD (CHEDDAR AND COLBY CHEESE [PASTEURIZED MILK, CHEESE CULTURE, SALT, ENZYMES], WATER, WHEY, SODIUM PHOSPHATE, WHEY PROTEIN CONCENTRATE, SKIM MILK, MILKFAT, SALT, CARRAGEENAN, CELLULOSE GUM), LIGHT CREAM, CHEESE SAUCE (CHEDDAR CHEESE [PASTEURIZED MILK CHEESE CULTURE, SALT, ENZYMES], WATER, MILKFAT, WHEY, ENZYME MODIFIED CHEESE [PASTEURIZED MILK, WATER, SODIUM PHOSPHATE, MILKFAT, SALT, CHEESE CULTURE, ENZYMES], SODIUM PHOSPHATE, MODIFIED FOOD STARCH, SALT, LACTIC ACID, SODIUM ALGINATE, SORBIC ACID [PRESERVATIVE]), WHITE CHEDDAR CHEESE (PASTEURIZED MILK, CHEESE CULTURES, SALT, ENZYMES), CONTAINS 2% OR LESS OF: BUTTER (CREAM, SALT), WATER, MODIFIED FOOD STARCH, WHEAT FLOUR, SALT, SEASONING (YEAST EXTRACT, MALTODEXTRIN, SALT) AND NISIN PREPARATION." Date available: 07/14/2017 Date last updated by company: 07/14/2017
