Source: USDA Branded Food Products Database Release December 2017 Software v.3.8.6.4 2017-10-02
Report Run at: December 17, 2017 13:12 EST
"Nutrient data for: 45216120, MAC N' CHEESE, MACARONI DINNER, UPC: 092825103967"
Food Group:  Branded Food Products Database
Common Name:

Nutrient,Unit,Data points,Std. Error,"0.5 CUP MACARONI AND 1.5 TBSP DRY CHEESE MIX, MAKES ABOUT 1 CUP PREPARED | ABOUT = 70.0g",1Value per 100 g,
Proximates
"Energy",kcal,--,--,240,343
"Protein",g,--,--,8.00,11.43
"Total lipid (fat)",g,--,--,1.00,1.43
"Carbohydrate, by difference",g,--,--,50.00,71.43
"Fiber, total dietary",g,--,--,2.0,2.9
"Sugars, total",g,--,--,6.00,8.57
Minerals
"Calcium, Ca",mg,--,--,60,86
"Iron, Fe",mg,--,--,6.43,9.18
"Sodium, Na",mg,--,--,720,1029
Vitamins
"Vitamin C, total ascorbic acid",mg,--,--,0.0,0.0
"Vitamin A, IU",IU,--,--,0,0
Lipids
"Fatty acids, total saturated",g,--,--,0.000,0.000
"Fatty acids, total trans",g,--,--,0.000,0.000
"Cholesterol",mg,--,--,0,0
Amino Acids
Other
Ingredients
"ENRICHED MACARONI (WHEAT FLOUR, NIACIN, IRON [FERROUS SULFATE], THIAMINE MONONITRATE, RIBOFLAVIN, FOLIC ACID), DAIRY PRODUCT SOLIDS, ENRICHED BLEACHED FLOUR (BLEACHED WHEAT FLOUR, NIACIN, IRON, THIAMINE MONONITRATE, RIBOFLAVIN, FOLIC ACID), SALT CONTAINS 2% OR LESS OF: WHEY CHEDDAR CHEESE (MILK, CHEESE CULTURE, SALT, ENZYMES), MODIFIED CORN STARCH, REDUCED-LACTOSE WHEY, NATURAL FLAVOR, COLOR (YELLOW 5 LAKE, YELLOW 5 AND 6, YELLOW 6 LAKE), BUTTER (CREAM, SALT), BUTTERMILK, NONFAT MILK, DRIED YEAST, DISODIUM PHOSPHATE." Date available: 07/14/2017 Date last updated by company: 07/14/2017
