Source: USDA Branded Food Products Database Release December 2017 Software v.3.8.6.4 2017-10-02
Report Run at: December 17, 2017 13:12 EST
"Nutrient data for: 45277719, MAC N' MACARONI DINNER, UPC: 092825103950"
Food Group:  Branded Food Products Database
Common Name:

Nutrient,Unit,Data points,Std. Error,"1 PKG = 58.0g",1Value per 100 g,
Proximates
"Energy",kcal,--,--,230,397
"Protein",g,--,--,6.00,10.34
"Total lipid (fat)",g,--,--,4.50,7.76
"Carbohydrate, by difference",g,--,--,40.00,68.97
"Fiber, total dietary",g,--,--,1.0,1.7
"Sugars, total",g,--,--,3.00,5.17
Minerals
"Calcium, Ca",mg,--,--,80,138
"Iron, Fe",mg,--,--,6.21,10.70
"Sodium, Na",mg,--,--,480,828
Vitamins
"Vitamin C, total ascorbic acid",mg,--,--,0.0,0.0
"Vitamin A, IU",IU,--,--,431,743
Lipids
"Fatty acids, total saturated",g,--,--,2.001,3.450
"Fatty acids, total trans",g,--,--,0.000,0.000
"Cholesterol",mg,--,--,5,9
Amino Acids
Other
Ingredients
"ENRICHED MACARONI PRODUCT (WHEAT FLOUR, GLYCEROL MONOSTEARATE, NIACIN, IRON [FERROUS SULFATE], THIAMIN MONONITRATE, RIBOFLAVIN, FOLIC ACID), CHEESE SAUCE MIX (MALTODEXTRIN, SEMISOFT CHEESE [MILK, CHEESE CULTURE, SALT, ENZYMES], WHEY, PALM OIL, SALT, CORN SYRUP SOLIDS, NONFAT MILK, MODIFIED CORNSTARCH, SODIUM PHOSPHATE, CHEDDAR CHEESE [MILK, CHEESE CULTURE, SALT, ENZYMES], SODIUM CASEINATE, CALCIUM PHOSPHATE, BUTTER, LACTIC ACID, COLOR [TURMERIC OLEORESIN, YELLOW 6 LAKE], NATURAL AND ARTIFICIAL FLAVOR, GUAR GUM, DIPOTASSIUM PHOSPHATE, EMULSIFIER [MONOGLYCERIDES], SODIUM SILICOALUMINATE), MALTODEXTRIN, MODIFIED CORNSTARCH, ACETYLATED MONO- AND DIGLYCERIDES, SALT, POTASSIUM CHLORIDE, CALCIUM SILICATE" Date available: 07/14/2017 Date last updated by company: 07/14/2017
