Source: USDA Branded Food Products Database Release December 2017 Software v.3.8.6.4 2017-10-02
Report Run at: December 17, 2017 12:55 EST
"Nutrient data for: 45232158, MACADAMIA NUTS, UPC: 072992341829"
Food Group:  Branded Food Products Database
Common Name:

Nutrient,Unit,Data points,Std. Error,"0.25 cup = 28.0g",1Value per 100 g,
Proximates
"Energy",kcal,--,--,200,714
"Protein",g,--,--,2.00,7.14
"Total lipid (fat)",g,--,--,20.00,71.43
"Carbohydrate, by difference",g,--,--,4.00,14.29
"Fiber, total dietary",g,--,--,2.0,7.1
"Sugars, total",g,--,--,1.00,3.57
Minerals
"Calcium, Ca",mg,--,--,20,71
"Iron, Fe",mg,--,--,1.29,4.59
"Sodium, Na",mg,--,--,95,339
Vitamins
"Vitamin C, total ascorbic acid",mg,--,--,0.0,0.0
"Vitamin A, IU",IU,--,--,0,0
Lipids
"Fatty acids, total saturated",g,--,--,3.500,12.500
"Fatty acids, total monounsaturated",g,--,--,15.999,57.140
"Fatty acids, total polyunsaturated",g,--,--,0.501,1.790
"Fatty acids, total trans",g,--,--,0.000,0.000
"Cholesterol",mg,--,--,0,0
Amino Acids
Other
Ingredients
"MACADAMIA NUTS, CONTAINS 2% OR LESS OF CORN OIL, SPICES, SUGAR, SALT, MODIFIED CORNSTARCH, HYDROLYZED [CORN, SOY] PROTEIN, FRACTIONATED COCONUT OIL, GARLIC, SOY SAUCE [SOYBEAN, WHEAT, SALT), ONION, MALTODEXTRIN, CITRIC ACID, NATURAL FLAVOR, DISODIUM INOSINATE, DISODIUM GUANYLATE, WASABI POWDER, CARAMEL COLOR." Date available: 07/14/2017 Date last updated by company: 07/14/2017
