Source: USDA Branded Food Products Database Release December 2017 Software v.3.8.6.4 2017-10-02
Report Run at: December 17, 2017 13:01 EST
"Nutrient data for: 45192789, MACARONI & CHEESE, UPC: 848737001170"
Food Group:  Branded Food Products Database
Common Name:

Nutrient,Unit,Data points,Std. Error,"2.5 ONZ = 70.0g",1Value per 100 g,
Proximates
"Energy",kcal,--,--,250,357
"Protein",g,--,--,9.00,12.86
"Total lipid (fat)",g,--,--,1.50,2.14
"Carbohydrate, by difference",g,--,--,49.00,70.00
"Fiber, total dietary",g,--,--,1.0,1.4
"Sugars, total",g,--,--,6.00,8.57
Minerals
"Calcium, Ca",mg,--,--,100,143
"Iron, Fe",mg,--,--,9.65,13.78
"Sodium, Na",mg,--,--,550,786
Vitamins
"Vitamin C, total ascorbic acid",mg,--,--,0.0,0.0
"Vitamin A, IU",IU,--,--,357,510
Lipids
"Fatty acids, total saturated",g,--,--,0.497,0.710
"Fatty acids, total trans",g,--,--,0.000,0.000
"Cholesterol",mg,--,--,5,7
Amino Acids
Other
Ingredients
"ENRICHED PASTA (WHEAT FLOUR, NIACIN, IRON [FERROUS SULFATE], THIAMIN MONONITRATE, RIBOFLAVIN, FOLIC ACID), WHEY (FROM MILK), WHEAT FLOUR, CHEDDAR CHEESE (PASTEURIZED MILK, CHEESE CULTURE, SALT, ENZYMES), SALT, CORN STARCH, MALTODEXTRIN, NON-FAT DRY MILK, SODIUM PHOSPHATE, ANNATTO EXTRACT (COLOR), CITRIC ACID, LACTIC ACID POWDER (LACTIC ACID, CALCIUM LACTATE)." Date available: 07/14/2017 Date last updated by company: 07/14/2017
