Source: USDA Branded Food Products Database Release December 2017 Software v.3.8.6.4 2017-10-02
Report Run at: December 17, 2017 12:59 EST
"Nutrient data for: 45328486, MACARONI & CHEESE DINNER, UPC: 075450044188"
Food Group:  Branded Food Products Database
Common Name:

Nutrient,Unit,Data points,Std. Error,"1 POUCH = 61.0g",1Value per 100 g,
Proximates
"Energy",kcal,--,--,230,377
"Protein",g,--,--,8.00,13.11
"Total lipid (fat)",g,--,--,5.00,8.20
"Carbohydrate, by difference",g,--,--,39.00,63.93
"Fiber, total dietary",g,--,--,1.0,1.6
"Sugars, total",g,--,--,6.00,9.84
Minerals
"Calcium, Ca",mg,--,--,100,164
"Iron, Fe",mg,--,--,5.90,9.68
"Sodium, Na",mg,--,--,740,1213
Vitamins
"Vitamin C, total ascorbic acid",mg,--,--,0.0,0.0
"Vitamin A, IU",IU,--,--,0,0
Lipids
"Fatty acids, total saturated",g,--,--,1.501,2.460
"Fatty acids, total trans",g,--,--,1.501,2.460
"Cholesterol",mg,--,--,5,8
Amino Acids
Other
Ingredients
"ENRICHED MACARONI PRODUCT (ENRICHED WHEAT FLOUR, GLYCEROL MONOSTEARATE, NIACIN, IRON [FERROUS SULFATE], THIAMINE MONONITRATE, RIBOFLAVIN, FOLIC ACID), WHEY, NONFAT MILK, MALTODEXTRIN, PARTIALLY HYDROGENATED SOYBEAN OIL WITH EMULSIFIER (MONO- AND DIGLYCERIDES), CHEDDAR CHEESE (MILK, CHEESE CULTURE, SALT, ENZYMES), MODIFIED CORN STARCH, SALT, CONTAINS 2% OR LESS OF: CORN SYRUP SOLIDS, BLUE CHEESE (MILK, CHEESE CULTURE, SALT, ENZYMES), NATURAL FLAVOR, SODIUM CASEINATE, DISODIUM PHOSPHATE, COLOR (ANNATTO EXTRACT, OLEORESIN PAPRIKA, YELLOW 5 AND 6), SODIUM CITRATE, CITRIC ACID." Date available: 07/14/2017 Date last updated by company: 07/14/2017
