Source: USDA Branded Food Products Database Release December 2017 Software v.3.8.6.4 2017-10-02
Report Run at: December 17, 2017 12:59 EST
"Nutrient data for: 45215511, MACARONI & CHEESE DINNER, UPC: 077890347850"
Food Group:  Branded Food Products Database
Common Name:

Nutrient,Unit,Data points,Std. Error,"0.33 BOX) MAKES ABOUT 1 CUP PREPARED | (ABOUT = 70.0g",1Value per 100 g,
Proximates
"Energy",kcal,--,--,250,357
"Protein",g,--,--,8.00,11.43
"Total lipid (fat)",g,--,--,1.00,1.43
"Carbohydrate, by difference",g,--,--,52.00,74.29
"Fiber, total dietary",g,--,--,2.0,2.9
"Sugars, total",g,--,--,6.00,8.57
Minerals
"Calcium, Ca",mg,--,--,60,86
"Iron, Fe",mg,--,--,6.43,9.18
"Potassium, K",mg,--,--,200,286
"Sodium, Na",mg,--,--,580,829
Vitamins
"Vitamin C, total ascorbic acid",mg,--,--,0.0,0.0
"Vitamin A, IU",IU,--,--,0,0
Lipids
"Fatty acids, total saturated",g,--,--,0.000,0.000
"Fatty acids, total trans",g,--,--,0.000,0.000
"Cholesterol",mg,--,--,0,0
Amino Acids
Other
Ingredients
"ENRICHED MACARONI PRODUCT (WHEAT FLOUR, DURUM FLOUR, NIACIN, FERROUS SULFATE, THIAMINE MONONITRATE, RIBOFLAVIN, FOLIC ACID), CHEESE SAUCE MIX (DAIRY PRODUCT SOLIDS, MALTODEXTRIN, SALT MODIFIED CORN STARCH, MALTODEXTRIN, SALT MODIFIED CORN STARCH, CORN SYRUP SOLIDS, CHEDDAR CHEESE [PASTEURIZED MILK, CHEESE CULTURE, SALT, ENZYMES], BUTTERMILK POWDER, NATURAL FLAVOR, DISODIUM PHOSPHATE, DIPOTASSIUM PHOSPHATE, XANTHAN GUM, YELLOW 5 LAKE, YELLOW 6, YELLOW 5, SOYBEAN OIL, SILICON DIOXIDE)." Date available: 07/14/2017 Date last updated by company: 07/14/2017
