Source: USDA Branded Food Products Database Release December 2017 Software v.3.8.6.4 2017-10-02
Report Run at: December 17, 2017 13:05 EST
"Nutrient data for: 45270520, MACARONI SALAD, UPC: 035826070685"
Food Group:  Branded Food Products Database
Common Name:

Nutrient,Unit,Data points,Std. Error,"0.75 cup = 150.0g",1Value per 100 g,
Proximates
"Energy",kcal,--,--,310,207
"Protein",g,--,--,5.00,3.33
"Total lipid (fat)",g,--,--,21.00,14.00
"Carbohydrate, by difference",g,--,--,28.99,19.33
"Fiber, total dietary",g,--,--,1.1,0.7
"Sugars, total",g,--,--,10.01,6.67
Minerals
"Calcium, Ca",mg,--,--,20,13
"Iron, Fe",mg,--,--,1.35,0.90
"Sodium, Na",mg,--,--,790,527
Vitamins
"Vitamin C, total ascorbic acid",mg,--,--,5.5,3.7
"Vitamin A, IU",IU,--,--,466,311
Lipids
"Fatty acids, total saturated",g,--,--,3.495,2.330
"Fatty acids, total trans",g,--,--,0.000,0.000
"Cholesterol",mg,--,--,26,17
Amino Acids
Other
Ingredients
"COOKED ENRICHED MACARONI (WHEAT FLOUR, EGG, NIACIN, IRON, THIAMINE MONONITRATE, RIBOFLAVIN, FOLIC ACID), SALAD DRESSING (SOYBEAN OIL, WATER, HIGH FRUCTOSE CORN SYRUP, VINEGAR, EGG YOLKS, MODIFIED CORN STARCH, SUGAR, SALT, MUSTARD), MAYONNAISE (SOYBEAN OIL, WATER, EGG YOLKS, VINEGAR, HIGH FRUCTOSE CORN SYRUP, SALT, CALCIUM DISODIUM EDTA TO PROTECT FLAVOR), SWEET RELISH (CUCUMBERS, WATER, HIGH FRUCTOSE CORN SYRUP, SALT, WHITE DISTILLED VINEGAR, MODIFIED FOOD STARCH, NATURAL FLAVORS, SODIUM BENZOATE [PRESERVATIVE], CALCIUM CHLORIDE), HIGH FRUCTOSE CORN SYRUP, GREEN BELL PEPPER, CELERY, CARROT, RED BELL PEPPER, WATER, ONION, SALT, MODIFIED CORN STARCH, VINEGAR, POTASSIUM SORBATE AND SODIUM BENZOATE TO PROTECT FLAVOR, SPICE, XANTHAN GUM." Date available: 07/14/2017 Date last updated by company: 07/14/2017
