Source: USDA Branded Food Products Database Release December 2017 Software v.3.8.6.4 2017-10-02
Report Run at: December 17, 2017 13:04 EST
"Nutrient data for: 45279416, MACARONI SALAD AMISH-STYLE, UPC: 021130067237"
Food Group:  Branded Food Products Database
Common Name:

Nutrient,Unit,Data points,Std. Error,"0.75 cup = 140.0g",1Value per 100 g,
Proximates
"Energy",kcal,--,--,280,200
"Protein",g,--,--,5.00,3.57
"Total lipid (fat)",g,--,--,12.00,8.57
"Carbohydrate, by difference",g,--,--,39.00,27.86
"Fiber, total dietary",g,--,--,1.0,0.7
"Sugars, total",g,--,--,19.00,13.57
Minerals
"Calcium, Ca",mg,--,--,0,0
"Iron, Fe",mg,--,--,1.44,1.03
"Sodium, Na",mg,--,--,570,407
Vitamins
"Vitamin C, total ascorbic acid",mg,--,--,1.3,0.9
"Vitamin A, IU",IU,--,--,0,0
Lipids
"Fatty acids, total saturated",g,--,--,2.002,1.430
"Fatty acids, total trans",g,--,--,0.000,0.000
"Cholesterol",mg,--,--,15,11
Amino Acids
Other
Ingredients
"COOKED MACARONI (SEMOLINA WHEAT FLOUR [ENRICHED WITH NIACIN, IRON, THIAMINE MONONITRATE, RIBOFLAVIN, FOLIC ACID], EGG WHITE), SALAD DRESSING (SOYBEAN OIL, WATER, HIGH FRUCTOSE CORN SYRUP, VINEGAR, EGG YOLKS, MODIFIED CORN STARCH, SUGAR, SALT, MUSTARD), SUGAR, WATER, RED BELL PEPPER, ONION, VINEGAR, GREEN BELL PEPPER, SALT, CELERY, POTASSIUM SORBATE AND SODIUM BENZOATE TO PROTECT FLAVOR, XANTHAN GUM." Date available: 07/14/2017 Date last updated by company: 07/14/2017
