Source: USDA Branded Food Products Database Release December 2017 Software v.3.8.6.4 2017-10-02
Report Run at: December 17, 2017 13:04 EST
"Nutrient data for: 45193331, MACARONI SALAD, UPC: 011110653604"
Food Group:  Branded Food Products Database
Common Name:

Nutrient,Unit,Data points,Std. Error,"0.75 cup = 145.0g",1Value per 100 g,
Proximates
"Energy",kcal,--,--,310,214
"Protein",g,--,--,5.00,3.45
"Total lipid (fat)",g,--,--,21.00,14.48
"Carbohydrate, by difference",g,--,--,26.00,17.93
"Fiber, total dietary",g,--,--,2.0,1.4
"Sugars, total",g,--,--,7.00,4.83
Minerals
"Calcium, Ca",mg,--,--,0,0
"Iron, Fe",mg,--,--,1.74,1.20
"Sodium, Na",mg,--,--,811,559
Vitamins
"Vitamin C, total ascorbic acid",mg,--,--,0.0,0.0
"Vitamin A, IU",IU,--,--,0,0
Lipids
"Fatty acids, total saturated",g,--,--,3.495,2.410
"Fatty acids, total trans",g,--,--,0.000,0.000
"Cholesterol",mg,--,--,14,10
Amino Acids
Other
Ingredients
"COOKED MACARONI (SEMOLINA WHEAT FLOUR [ENRICHED WITH NIACIN, IRON, THIAMINE MONONITRATE, RIBOFLAVIN, FOLIC ACID], EGG WHITE), MAYONNAISE (SOYBEAN OIL, WATER, EGG YOLKS, VINEGAR, HIGH FRUCTOSE CORN SYRUP, SALT, CALCIUM DISODIUM EDTA [PRESERVATIVES]), SWEET PICKLE (CUCUMBERS, HIGH FRUCTOSE CORN SYRUP, DISTILLED VINEGAR, CONTAINS LESS THAN 2% OF: SALT, XANTHAN GUM, SODIUM BENZOATE [PRESERVATIVE], CALCIUM CHLORIDE, NATURAL FLAVORING, POLYSORBATE 80), HIGH FRUCTOSE CORN SYRUP, CELERY, WATER, LESS THAN 2% OF: ONION, RED BELL PEPPER, SALT, VINEGAR, MUSTARD (WATER, VINEGAR, MUSTARD SEED, SALT, SUGAR, SOYBEAN OIL, TURMERIC AND PAPRIKA, ANNATTO, GARLIC, SPICES, XANTHAN GUM, CALCIUM DISODIUM EDTA [PRESERVATIVE], NATURAL FLAVOR, CITRIC ACID), MODIFIED CORN STARCH, POTASSIUM SORBATE AND SODIUM BENZOATE (PRESERVATIVE), SUGAR, XANTHAN GUM, ANNATTO COLOR (SOYBEAN OIL, ANNATTO EXTRACT, MONO- AND DIGLYCERIDES)." Date available: 07/14/2017 Date last updated by company: 07/14/2017
