Source: USDA Branded Food Products Database Release December 2017 Software v.3.8.6.4 2017-10-02
Report Run at: December 17, 2017 13:10 EST
"Nutrient data for: 45255535, MACHICA BARLEY FLOUR, UPC: 825262007129"
Food Group:  Branded Food Products Database
Common Name:

Nutrient,Unit,Data points,Std. Error,"1 cup = 100.0g",1Value per 100 g,
Proximates
"Energy",kcal,--,--,340,340
"Protein",g,--,--,9.00,9.00
"Total lipid (fat)",g,--,--,0.50,0.50
"Carbohydrate, by difference",g,--,--,77.00,77.00
"Fiber, total dietary",g,--,--,7.0,7.0
"Sugars, total",g,--,--,0.00,0.00
Minerals
"Calcium, Ca",mg,--,--,80,80
"Iron, Fe",mg,--,--,6.30,6.30
"Sodium, Na",mg,--,--,0,0
Vitamins
"Vitamin C, total ascorbic acid",mg,--,--,1.2,1.2
"Vitamin A, IU",IU,--,--,0,0
Lipids
"Fatty acids, total saturated",g,--,--,0.000,0.000
"Fatty acids, total trans",g,--,--,0.000,0.000
"Cholesterol",mg,--,--,0,0
Amino Acids
Other
Ingredients
"BARLEY FLOUR." Date available: 07/14/2017 Date last updated by company: 07/14/2017
