Source: USDA Branded Food Products Database Release December 2017 Software v.3.8.6.4 2017-10-02
Report Run at: December 17, 2017 13:21 EST
"Nutrient data for: 45121139, MADE WITH 100% REAL MOZZARELLA CHEESE, UPC: 072180637352"
Food Group:  Branded Food Products Database
Common Name:

Nutrient,Unit,Data points,Std. Error,"0.25 PIZZA = 143.0g",1Value per 100 g,
Proximates
"Energy",kcal,--,--,360,252
"Protein",g,--,--,13.00,9.09
"Total lipid (fat)",g,--,--,16.00,11.19
"Carbohydrate, by difference",g,--,--,41.00,28.67
"Fiber, total dietary",g,--,--,2.0,1.4
"Sugars, total",g,--,--,7.01,4.90
Minerals
"Calcium, Ca",mg,--,--,200,140
"Iron, Fe",mg,--,--,4.90,3.43
"Potassium, K",mg,--,--,260,182
"Sodium, Na",mg,--,--,749,524
Vitamins
"Vitamin C, total ascorbic acid",mg,--,--,0.0,0.0
"Vitamin A, IU",IU,--,--,409,286
Lipids
"Fatty acids, total saturated",g,--,--,7.007,4.900
"Fatty acids, total trans",g,--,--,0.000,0.000
"Cholesterol",mg,--,--,34,24
Amino Acids
Other
Ingredients
"ENRICHED FLOUR (WHEAT FLOUR, MALTED BARLEY FLOUR, NIACIN, REDUCED IRON, THIAMINE MONONITRATE, RIBOFLAVIN, FOLIC ACID), WATER, LOW MOISTURE PART SKIM MOZZARELLA CHEESE (CULTURED PASTEURIZED PART SKIM MILK, SALT ENZYMES), COOKED PIZZA TOPPING (SAUSAGE [PORK, MECHANICALLY SEPARATED CHICKEN, SPICES, WATER, SALT, SUGAR, GARLIC POWDER], WATER, TEXTURED VEGETABLE PROTEIN [SOY FLOUR, SALT]), TOMATO PASTE, PEPPERONI MADE WITH PORK, CHICKEN AND BEEF (PORK, MECHANICALLY SEPARATED CHICKEN, BEEF, SALT, CONTAINS 2% OR LESS OF: WATER, DEXTROSE, SPICES, SMOKE FLAVORING, LACTIC ACID STARTER CULTURE, SODIUM ASCORBATE, FLAVORING, LACTIC ACID STARTER CULTURE, SODIUM ASCORBATE, FLAVORING, GARLIC POWDER, SODIUM NITYRITE, BHA, BHT, CITRIC ACID, CONTAINS ONE OR MORE OF: PAPRIKA, OLEORESIN OF PAPRIKA), SMOKED HAM WITH NATURAL JUICES (CURED WITH WATER, SALT, DEXTROSE, SODIUM PHOSPHATE, SODIUM ERYTHORBATE, SODIUM NITRITE), CONTAINS 2% OR LESS OF: YEAST, PALM OIL, SUGAR, VEGETABLE OIL (SOYBEAN AND/OR CANOLA OIL), SALT, MODIFIED FOOD STARCH, SPICE, MALTODEXTRIN, HYDROLYZED SOY AND CORN PROTEIN, DRIED GARLIC, PAPRIKA, WHEAT STARCH, L-CYSTEINE HYDROCHLORIDE, AMMONIUM SULFATE, SOY LECITHIN, NATURAL FLAVOR, ENZYMES (CONTAINS WHEAT), ASCORBIC ACID." Date available: 07/14/2017 Date last updated by company: 07/14/2017
