Source: USDA Branded Food Products Database Release December 2017 Software v.3.8.6.4 2017-10-02
Report Run at: December 17, 2017 13:16 EST
"Nutrient data for: 45091193, MADECASSE, MADAGASCAR CHOCOLATE, CINNAMON & CHILI PEPPER, UPC: 898575001535"
Food Group:  Branded Food Products Database
Common Name:

Nutrient,Unit,Data points,Std. Error,"0.5 BAR = 75.0g",1Value per 100 g,
Proximates
"Energy",kcal,--,--,220,293
"Protein",g,--,--,2.60,3.47
"Total lipid (fat)",g,--,--,15.00,20.00
"Carbohydrate, by difference",g,--,--,19.00,25.33
"Fiber, total dietary",g,--,--,2.6,3.5
"Sugars, total",g,--,--,13.00,17.33
Minerals
"Calcium, Ca",mg,--,--,0,0
"Iron, Fe",mg,--,--,0.60,0.80
"Sodium, Na",mg,--,--,9,12
Vitamins
"Vitamin C, total ascorbic acid",mg,--,--,0.0,0.0
"Vitamin A, IU",IU,--,--,0,0
Lipids
"Fatty acids, total saturated",g,--,--,9.000,12.000
"Fatty acids, total trans",g,--,--,0.000,0.000
"Cholesterol",mg,--,--,0,0
Amino Acids
Other
Ingredients
"COCOA BEANS, SUGAR, COCOA BUTTER, SOY LECITHIN, NATURAL VANILLA, SAKAY PEPPER,CINNAMON CEYLANI-CUM." Date available: 06/25/2017 Date last updated by company: 06/25/2017
