Source: USDA Branded Food Products Database Release December 2017 Software v.3.8.6.4 2017-10-02
Report Run at: December 17, 2017 13:16 EST
"Nutrient data for: 45089696, MADECASSE, HEIRLOOM COCOA MADAGASCAR CHOCOLATE, UPC: 898575001351"
Food Group:  Branded Food Products Database
Common Name:

Nutrient,Unit,Data points,Std. Error,"2.64 oz = 75.0g",1Value per 100 g,
Proximates
"Energy",kcal,--,--,220,293
"Protein",g,--,--,5.00,6.67
"Total lipid (fat)",g,--,--,15.00,20.00
"Carbohydrate, by difference",g,--,--,15.00,20.00
"Fiber, total dietary",g,--,--,1.0,1.3
"Sugars, total",g,--,--,7.00,9.33
Minerals
"Calcium, Ca",mg,--,--,20,27
"Iron, Fe",mg,--,--,1.08,1.44
"Sodium, Na",mg,--,--,0,0
Vitamins
"Vitamin C, total ascorbic acid",mg,--,--,0.0,0.0
"Vitamin A, IU",IU,--,--,0,0
Lipids
"Fatty acids, total saturated",g,--,--,8.002,10.670
"Fatty acids, total trans",g,--,--,0.000,0.000
"Cholesterol",mg,--,--,0,0
Amino Acids
Other
Ingredients
"COCOA BEANS, SUGAR, COCOA BUTTER. AT LEAST 75% FAIRTRADE CONTENT." Date last updated by company: 03/26/2016
