Source: USDA Branded Food Products Database Release December 2017 Software v.3.8.6.4 2017-10-02
Report Run at: December 17, 2017 13:24 EST
"Nutrient data for: 45094853, MAE PLOY, COCONUT CREAM, UPC: 044738018531"
Food Group:  Branded Food Products Database
Common Name:

Nutrient,Unit,Data points,Std. Error,"0.33 cup = 80.0g",1Value per 100 g,
Proximates
"Energy",kcal,--,--,160,200
"Protein",g,--,--,2.00,2.50
"Total lipid (fat)",g,--,--,17.00,21.25
"Carbohydrate, by difference",g,--,--,3.00,3.75
"Fiber, total dietary",g,--,--,0.0,0.0
"Sugars, total",g,--,--,2.00,2.50
Minerals
"Calcium, Ca",mg,--,--,0,0
"Iron, Fe",mg,--,--,0.36,0.45
"Sodium, Na",mg,--,--,20,25
Vitamins
"Vitamin C, total ascorbic acid",mg,--,--,0.0,0.0
"Vitamin A, IU",IU,--,--,0,0
Lipids
"Fatty acids, total saturated",g,--,--,12.000,15.000
"Fatty acids, total trans",g,--,--,0.000,0.000
"Cholesterol",mg,--,--,0,0
Amino Acids
Other
Ingredients
"COCONUT EXTRACT, WATER, CITRIC ACID (AS ANTIOXIDANT), SODIUM METABISULFITE (AS PRESREVATIVE)." Date available: 06/25/2017 Date last updated by company: 06/25/2017
