Source: USDA Branded Food Products Database Release December 2017 Software v.3.8.6.4 2017-10-02
Report Run at: December 17, 2017 13:24 EST
"Nutrient data for: 45094716, MAESRI, YELLOW CURRY PASTE, UPC: 8850539240406"
Food Group:  Branded Food Products Database
Common Name:

Nutrient,Unit,Data points,Std. Error,"1 Tbsp = 17.0g",1Value per 100 g,
Proximates
"Energy",kcal,--,--,30,176
"Protein",g,--,--,0.00,0.00
"Total lipid (fat)",g,--,--,1.50,8.82
"Carbohydrate, by difference",g,--,--,4.00,23.53
"Fiber, total dietary",g,--,--,1.0,5.9
"Sugars, total",g,--,--,2.00,11.76
Minerals
"Calcium, Ca",mg,--,--,0,0
"Iron, Fe",mg,--,--,1.06,6.23
"Sodium, Na",mg,--,--,570,3353
Vitamins
"Vitamin C, total ascorbic acid",mg,--,--,0.0,0.0
"Vitamin A, IU",IU,--,--,0,0
Lipids
"Fatty acids, total saturated",g,--,--,0.000,0.000
"Fatty acids, total trans",g,--,--,0.000,0.000
"Cholesterol",mg,--,--,0,0
Amino Acids
Other
Ingredients
"DRIED RED CHILLI, SHALLOT, GARLIC, SOYBEAN OIL, SUGAR, SALT, FRESH TURMERIC, LEMONGRASS, SPICES (CORIANDER SEEDS, CUMIN, CARDAMOM, CINNAMON, BAY LEAVES, LESSER GALANGA, CLOVES), GALANGAL, CURRY POWDER (MUSTARD, CUMIN, CORIANDER, FENUGREEK, WHEAT FLOUR, CHILLI, PEPPER, FENNEL, TURMERIC), KAFFIR LIME." Date available: 06/25/2017 Date last updated by company: 06/25/2017
