Source: USDA Branded Food Products Database Release December 2017 Software v.3.8.6.4 2017-10-02
Report Run at: December 17, 2017 13:27 EST
"Nutrient data for: 45251932, MAGNETIC WIZARD BEVERAGE, UPC: 7503018304335"
Food Group:  Branded Food Products Database
Common Name:

Nutrient,Unit,Data points,Std. Error,"1 BOTTLE = 250.0g",1Value per 100 g,
Proximates
"Energy",kcal,--,--,20,8
"Protein",g,--,--,1.00,0.40
"Total lipid (fat)",g,--,--,0.00,0.00
"Carbohydrate, by difference",g,--,--,3.00,1.20
"Fiber, total dietary",g,--,--,3.0,1.2
"Sugars, total",g,--,--,0.00,0.00
Minerals
"Calcium, Ca",mg,--,--,20,8
"Iron, Fe",mg,--,--,0.00,0.00
"Sodium, Na",mg,--,--,20,8
Vitamins
"Vitamin C, total ascorbic acid",mg,--,--,13.0,5.2
"Vitamin A, IU",IU,--,--,0,0
Lipids
"Fatty acids, total saturated",g,--,--,0.000,0.000
"Fatty acids, total trans",g,--,--,0.000,0.000
"Cholesterol",mg,--,--,0,0
Amino Acids
Other
Ingredients
"WATER, CHIA SEEDS (SALVIA HISPANICA L.), STEVIA BONDA [REBAUDIOSIDE A (95%), MALTODEXTRIN], LIME JUICE POWDER, XANTHAN GUM AS STABILIZER AND GRAPEFRUIT SEED EXTRACT AS PRESERVATIVE." Date available: 08/11/2017 Date last updated by company: 08/11/2017
