Source: USDA Branded Food Products Database Release December 2017 Software v.3.8.6.4 2017-10-02
Report Run at: December 17, 2017 13:33 EST
"Nutrient data for: 45140436, MAITRE JACQUES, TARROGON, FRENCH WINE VINEGAR, UPC: 070670008521"
Food Group:  Branded Food Products Database
Common Name:

Nutrient,Unit,Data points,Std. Error,"1 Tbsp = 15.0g",1Value per 100 g,
Proximates
"Energy",kcal,--,--,0,0
"Protein",g,--,--,0.00,0.00
"Total lipid (fat)",g,--,--,0.00,0.00
"Carbohydrate, by difference",g,--,--,0.00,0.00
Minerals
"Sodium, Na",mg,--,--,0,0
Vitamins
Lipids
Amino Acids
Other
Ingredients
"WHITE WINE VINEGAR, NATURAL TARRAGON FLAVOR, TARRAGON SPRIG, POTASSIUM BISULPHITE AS A PRESERVATIVE. ADJUSTED WITH WATER TO 6% ACIDITY." Date available: 07/14/2017 Date last updated by company: 07/14/2017
