Source: USDA Branded Food Products Database Release December 2017 Software v.3.8.6.4 2017-10-02
Report Run at: December 17, 2017 13:36 EST
"Nutrient data for: 45232782, MALHER, CHICKEN FLAVOR AND MACARRONI SHELLS SOUP MIX, UPC: 089674041427"
Food Group:  Branded Food Products Database
Common Name:

Nutrient,Unit,Data points,Std. Error,"1 TBSP. = 12.0g",1Value per 100 g,
Proximates
"Energy",kcal,--,--,40,333
"Protein",g,--,--,2.00,16.67
"Total lipid (fat)",g,--,--,1.00,8.33
"Carbohydrate, by difference",g,--,--,7.00,58.33
Minerals
"Sodium, Na",mg,--,--,770,6417
Vitamins
Lipids
"Fatty acids, total saturated",g,--,--,0.000,0.000
"Fatty acids, total trans",g,--,--,0.000,0.000
"Cholesterol",mg,--,--,0,0
Amino Acids
Other
Ingredients
"PASTA, SALT, WHEAT FLOUR, SUGAR, MONOSODIUM GLUTAMATE (FLAVOR ENHANCER), HYDROGENATED VEGETABLE OIL (PALM AND OLEIN), ARTIFICIAL CHICKEN FLAVOR, CHICKEN MEAT*, CORN STARCH, SILICON DIOXIDE (ANTI CAKING AGENT), CHICKEN FAT**, ONION, TURMERIC, GARLIC, PARSLEY, CUMIN AND DISODIUM INOSINATE (SCENT ENHANCER)." Date available: 10/04/2017 Date last updated by company: 10/04/2017
