Source: USDA Branded Food Products Database Release December 2017 Software v.3.8.6.4 2017-10-02
Report Run at: December 17, 2017 13:36 EST
"Nutrient data for: 45026402, MALHER, REFRIED BLACK BEANS, CHILES JALAPENOS, UPC: 089674085438"
Food Group:  Branded Food Products Database
Common Name:

Nutrient,Unit,Data points,Std. Error,"2.72 | ABOUT = 156.0g",1Value per 100 g,
Proximates
"Energy",kcal,--,--,229,147
"Protein",g,--,--,10.00,6.41
"Total lipid (fat)",g,--,--,6.01,3.85
"Carbohydrate, by difference",g,--,--,32.99,21.15
"Fiber, total dietary",g,--,--,9.0,5.8
Minerals
"Calcium, Ca",mg,--,--,100,64
"Iron, Fe",mg,--,--,3.00,1.92
"Sodium, Na",mg,--,--,640,410
Vitamins
Lipids
"Fatty acids, total saturated",g,--,--,0.998,0.640
"Fatty acids, total trans",g,--,--,0.000,0.000
"Cholesterol",mg,--,--,0,0
Amino Acids
Other
Ingredients
"WATER, BLACK BEANS, VEGETABLE OIL (REFINED SOY OIL), SALT, ARTIFICIAL JALAPENO PEPPER FLAVOR, PEPPER OLEORESIN AND NATURAL FLAVORS (GARLIC AND ONION)." Date available: 07/14/2017 Date last updated by company: 07/14/2017
