Source: USDA Branded Food Products Database Release December 2017 Software v.3.8.6.4 2017-10-02
Report Run at: December 17, 2017 13:41 EST
"Nutrient data for: 45108802, MAMA NANO'S, TRADITIONAL SAUCE WITH TUNA, UPC: 891602000044"
Food Group:  Branded Food Products Database
Common Name:

Nutrient,Unit,Data points,Std. Error,"0.5 cup = 120.0g",1Value per 100 g,
Proximates
"Energy",kcal,--,--,90,75
"Protein",g,--,--,2.00,1.67
"Total lipid (fat)",g,--,--,5.00,4.17
"Carbohydrate, by difference",g,--,--,8.00,6.67
"Fiber, total dietary",g,--,--,4.0,3.3
"Sugars, total",g,--,--,6.00,5.00
Minerals
"Calcium, Ca",mg,--,--,40,33
"Iron, Fe",mg,--,--,1.14,0.95
"Potassium, K",mg,--,--,270,225
"Sodium, Na",mg,--,--,210,175
Vitamins
"Vitamin C, total ascorbic acid",mg,--,--,2.5,2.1
"Vitamin A, IU",IU,--,--,1585,1321
Lipids
"Fatty acids, total saturated",g,--,--,0.504,0.420
"Fatty acids, total trans",g,--,--,0.000,0.000
"Cholesterol",mg,--,--,0,0
Amino Acids
Other
Ingredients
"TOMATOES, VINEGAR, MUSHROOMS, ONIONS, CARROTS, CELERY, CUCUMBERS, RIPE OLIVES, GREEN BEANS, GREEN PEPPERS, CAULIFLOWER, OLIVE OIL, JALAPENO PEPPERS, CANE SUGAR, GREEN OLIVES, GARLIC CHUNK LIGHT TUNA, MINCED PIMENTO, SALT, CITRIC ACID, SPICES, CALCIUM CHLORIDE, FERROUS GLUCONATE, (LACTATE ADDED TO STABILIZE COLOR)." Date available: 06/25/2017 Date last updated by company: 06/25/2017
