Source: USDA Branded Food Products Database Release December 2017 Software v.3.8.6.4 2017-10-02
Report Run at: December 17, 2017 13:42 EST
"Nutrient data for: 45084488, MAMA SCOTT'S, APPLE BARBEQUE SAUCE, UPC: 702662010020"
Food Group:  Branded Food Products Database
Common Name:

Nutrient,Unit,Data points,Std. Error,"1 Tbsp = 15.0g",1Value per 100 g,
Proximates
"Energy",kcal,--,--,15,100
"Protein",g,--,--,0.00,0.00
"Total lipid (fat)",g,--,--,0.00,0.00
"Carbohydrate, by difference",g,--,--,3.00,20.00
"Fiber, total dietary",g,--,--,0.0,0.0
"Sugars, total",g,--,--,3.00,20.00
Minerals
"Calcium, Ca",mg,--,--,0,0
"Iron, Fe",mg,--,--,0.00,0.00
"Sodium, Na",mg,--,--,65,433
Vitamins
"Vitamin C, total ascorbic acid",mg,--,--,4.0,27.0
"Vitamin A, IU",IU,--,--,338,2253
Lipids
"Fatty acids, total saturated",g,--,--,0.000,0.000
"Fatty acids, total trans",g,--,--,0.000,0.000
"Cholesterol",mg,--,--,0,0
Amino Acids
Other
Ingredients
"KETCHUP (TOMATOES, FRUCTOSE CORN SYRUP, ONION POWDER), BROWN SUGAR, APPLES, LEMON JUICE (LEMON), VINEGAR, SUGAR GRANULATED, PAPRIKA (SILICON DIOXIDE, ETHOXYQUIN), NUTMEG." Date available: 06/25/2017 Date last updated by company: 06/25/2017
