Source: USDA Branded Food Products Database Release December 2017 Software v.3.8.6.4 2017-10-02
Report Run at: December 17, 2017 13:44 EST
"Nutrient data for: 45164747, MAMBA, LONG LASTING SOUR CANDY, UPC: 072799111674"
Food Group:  Branded Food Products Database
Common Name:

Nutrient,Unit,Data points,Std. Error,"6.0 PIECES = 25.0g",1Value per 100 g,
Proximates
"Energy",kcal,--,--,100,400
"Protein",g,--,--,0.00,0.00
"Total lipid (fat)",g,--,--,1.00,4.00
"Carbohydrate, by difference",g,--,--,22.00,88.00
"Fiber, total dietary",g,--,--,0.0,0.0
"Sugars, total",g,--,--,6.00,24.00
Minerals
"Calcium, Ca",mg,--,--,0,0
"Iron, Fe",mg,--,--,0.00,0.00
"Sodium, Na",mg,--,--,0,0
Vitamins
"Vitamin C, total ascorbic acid",mg,--,--,0.0,0.0
"Vitamin A, IU",IU,--,--,0,0
Lipids
"Fatty acids, total saturated",g,--,--,0.500,2.000
"Fatty acids, total trans",g,--,--,0.000,0.000
"Cholesterol",mg,--,--,0,0
Amino Acids
Other
Ingredients
"GLUCOSE SYRUP (FROM WHEAT OR CORN), SUGAR, VEGETABLE OIL (PALM OIL AND/OR SHEANUT OIL), SORBITOL HUMECTANT, MODIFIED FOOD STARCH, MALIC ACID, ARTIFICIAL FLAVORS, CONCENTRATED ELDERBERRY JUICE, COLORS, TURMERIC, PAPRIKA, EMULSIFIER POLYSORBATE ANTIOXIDANT ALPHA-TOCOPHEROL." Date available: 07/14/2017 Date last updated by company: 07/14/2017
