Source: USDA Branded Food Products Database Release December 2017 Software v.3.8.6.4 2017-10-02
Report Run at: December 17, 2017 13:44 EST
"Nutrient data for: 45256565, MAMEY GOURMET FRUIT BARS, UPC: 852243002477"
Food Group:  Branded Food Products Database
Common Name:

Nutrient,Unit,Data points,Std. Error,"1 BAR = 88.0g",1Value per 100 g,
Proximates
"Energy",kcal,--,--,136,155
"Protein",g,--,--,1.00,1.14
"Total lipid (fat)",g,--,--,6.00,6.82
"Carbohydrate, by difference",g,--,--,19.00,21.59
"Fiber, total dietary",g,--,--,1.0,1.1
"Sugars, total",g,--,--,16.00,18.18
Minerals
"Calcium, Ca",mg,--,--,40,45
"Iron, Fe",mg,--,--,0.54,0.61
"Potassium, K",mg,--,--,0,0
"Sodium, Na",mg,--,--,31,35
Vitamins
"Vitamin C, total ascorbic acid",mg,--,--,0.0,0.0
"Vitamin A, IU",IU,--,--,300,341
Lipids
"Fatty acids, total saturated",g,--,--,3.001,3.410
"Cholesterol",mg,--,--,22,25
Amino Acids
Other
Ingredients
"MILK, MAMEY PUREE, SUGAR, MAMEY FLAVOR, FD&C YELLOW #8054, FD&C RED #40, STABILIZER." Date available: 07/14/2017 Date last updated by company: 07/14/2017
