Source: USDA Branded Food Products Database Release December 2017 Software v.3.8.6.4 2017-10-02
Report Run at: December 17, 2017 13:46 EST
"Nutrient data for: 45021832, MAMMA LOMBARDI'S, VODKA SAUCE, UPC: 824634260896"
Food Group:  Branded Food Products Database
Common Name:

Nutrient,Unit,Data points,Std. Error,"0.5 cup = 113.0g",1Value per 100 g,
Proximates
"Energy",kcal,--,--,56,50
"Protein",g,--,--,0.99,0.88
"Total lipid (fat)",g,--,--,2.99,2.65
"Carbohydrate, by difference",g,--,--,4.99,4.42
"Fiber, total dietary",g,--,--,1.0,0.9
"Sugars, total",g,--,--,2.00,1.77
Minerals
"Calcium, Ca",mg,--,--,40,35
"Iron, Fe",mg,--,--,0.90,0.80
"Sodium, Na",mg,--,--,315,279
Vitamins
"Vitamin C, total ascorbic acid",mg,--,--,8.4,7.4
"Vitamin A, IU",IU,--,--,550,487
Lipids
"Fatty acids, total saturated",g,--,--,2.00,1.77
"Fatty acids, total trans",g,--,--,0.00,0.00
"Cholesterol",mg,--,--,11,10
Amino Acids
Other
Ingredients
"IMPORTED ITALIAN PLUM TOMATOES, IMPORTED EXTRA VIRGIN OLIVE OIL, ROMANO CHEESE, HEAVY CREAM, FRESH ONIONS,CELERY, CARROTS, BUTTER, VODKA, SALT, RED PEPPER, BLACK PEPPER, FRESH BASIL." Date last updated by company: 05/22/2015
