Source: USDA Branded Food Products Database Release December 2017 Software v.3.8.6.4 2017-10-02
Report Run at: December 17, 2017 13:50 EST
"Nutrient data for: 45329894, MANDARIN ORANGES IN LIGHT SYRUP, UPC: 041512099380"
Food Group:  Branded Food Products Database
Common Name:

Nutrient,Unit,Data points,Std. Error,"0.5 cup = 140.0g",1Value per 100 g,
Proximates
"Energy",kcal,--,--,70,50
"Protein",g,--,--,0.99,0.71
"Total lipid (fat)",g,--,--,0.00,0.00
"Carbohydrate, by difference",g,--,--,17.00,12.14
"Fiber, total dietary",g,--,--,1.0,0.7
"Sugars, total",g,--,--,17.00,12.14
Minerals
"Calcium, Ca",mg,--,--,20,14
"Iron, Fe",mg,--,--,0.71,0.51
"Sodium, Na",mg,--,--,10,7
Vitamins
"Vitamin C, total ascorbic acid",mg,--,--,21.0,15.0
"Vitamin A, IU",IU,--,--,300,214
Lipids
"Fatty acids, total saturated",g,--,--,0.000,0.000
"Fatty acids, total trans",g,--,--,0.000,0.000
"Cholesterol",mg,--,--,0,0
Amino Acids
Other
Ingredients
"MANDARIN ORANGE WHOLE SEGMENTS, WATER, SUGAR, CITRIC ACID." Date available: 10/13/2017 Date last updated by company: 10/13/2017
