Source: USDA Branded Food Products Database Release December 2017 Software v.3.8.6.4 2017-10-02
Report Run at: December 17, 2017 13:52 EST
"Nutrient data for: 45329896, MANDARIN ORANGES, UPC: 074027077109"
Food Group:  Branded Food Products Database
Common Name:

Nutrient,Unit,Data points,Std. Error,"5.3 ONZ = 150.0g",1Value per 100 g,
Proximates
"Energy",kcal,--,--,100,67
"Protein",g,--,--,0.00,0.00
"Total lipid (fat)",g,--,--,0.00,0.00
"Carbohydrate, by difference",g,--,--,23.00,15.33
"Fiber, total dietary",g,--,--,1.1,0.7
"Sugars, total",g,--,--,21.00,14.00
Minerals
"Calcium, Ca",mg,--,--,18,12
"Iron, Fe",mg,--,--,0.68,0.45
"Sodium, Na",mg,--,--,15,10
Vitamins
"Vitamin C, total ascorbic acid",mg,--,--,16.8,11.2
"Vitamin A, IU",IU,--,--,933,622
Lipids
"Fatty acids, total saturated",g,--,--,0.000,0.000
"Fatty acids, total trans",g,--,--,0.000,0.000
"Cholesterol",mg,--,--,0,0
Amino Acids
Other
Ingredients
"CHINESE MANDARIN ORANGE SEGMENTS, WATER, SUGAR." Date available: 10/13/2017 Date last updated by company: 10/13/2017
