Source: USDA Branded Food Products Database Release December 2017 Software v.3.8.6.4 2017-10-02
Report Run at: December 17, 2017 13:49 EST
"Nutrient data for: 45060175, MANDARIN ORANGES IN LIGHT SYRUP, UPC: 639277843241"
Food Group:  Branded Food Products Database
Common Name:

Nutrient,Unit,Data points,Std. Error,"0.5 cup = 140.0g",1Value per 100 g,
Proximates
"Energy",kcal,--,--,80,57
"Protein",g,--,--,0.00,0.00
"Total lipid (fat)",g,--,--,0.00,0.00
"Carbohydrate, by difference",g,--,--,19.00,13.57
"Fiber, total dietary",g,--,--,1.0,0.7
"Sugars, total",g,--,--,19.00,13.57
Minerals
"Calcium, Ca",mg,--,--,20,14
"Iron, Fe",mg,--,--,0.71,0.51
"Sodium, Na",mg,--,--,6,4
Vitamins
"Vitamin C, total ascorbic acid",mg,--,--,23.9,17.1
"Vitamin A, IU",IU,--,--,99,71
Lipids
"Fatty acids, total saturated",g,--,--,0.000,0.000
"Cholesterol",mg,--,--,0,0
Amino Acids
Other
Ingredients
"MANDARIN ORANGE SEGMENTS, WATER, SUGAR." Date available: 07/14/2017 Date last updated by company: 07/14/2017
