Source: USDA Branded Food Products Database Release December 2017 Software v.3.8.6.4 2017-10-02
Report Run at: December 17, 2017 14:01 EST
"Nutrient data for: 45276723, MANGO PEACH SPLASH, UPC: 041303058763"
Food Group:  Branded Food Products Database
Common Name:

Nutrient,Unit,Data points,Std. Error,"8.0 OZA = 240.0g",1Value per 100 g,
Proximates
"Energy",kcal,--,--,79,33
"Protein",g,--,--,0.00,0.00
"Total lipid (fat)",g,--,--,0.00,0.00
"Carbohydrate, by difference",g,--,--,19.99,8.33
"Sugars, total",g,--,--,18.00,7.50
Minerals
"Sodium, Na",mg,--,--,36,15
Vitamins
"Vitamin C, total ascorbic acid",mg,--,--,60.0,25.0
"Vitamin A, IU",IU,--,--,749,312
Lipids
Amino Acids
Other
Ingredients
"FILTERED WATER, HIGH FRUCTOSE CORN SYRUP, CARROT JUICE FROM CONCENTRATE (FILTERED WATER, CARROT JUICE CONCENTRATE), CONTAINS LESS THAN 2% OF: A FRUIT JUICE BLEND (FILTERED WATER, APPLE JUICE CONCENTRATE, PEACH JUICE CONCENTRATE), CITRIC ACID, NATURAL FLAVORS, ASCORBIC ACID (VITAMIN C), MANGO PUREE, SUCRALOSE." Date available: 07/14/2017 Date last updated by company: 07/14/2017
