Source: USDA Branded Food Products Database Release December 2017 Software v.3.8.6.4 2017-10-02
Report Run at: December 17, 2017 14:12 EST
"Nutrient data for: 45104298, MANITOU TRADING COMPANY, NATURALLY SEASONED FUSIONS, MOROCCAN COUSCOUS, UPC: 687080621136"
Food Group:  Branded Food Products Database
Common Name:

Nutrient,Unit,Data points,Std. Error,"0.333 CUP = 55.0g",1Value per 100 g,
Proximates
"Energy",kcal,--,--,210,382
"Protein",g,--,--,7.00,12.73
"Total lipid (fat)",g,--,--,1.50,2.73
"Carbohydrate, by difference",g,--,--,41.00,74.55
"Fiber, total dietary",g,--,--,3.0,5.5
"Sugars, total",g,--,--,1.00,1.82
Minerals
"Calcium, Ca",mg,--,--,20,36
"Iron, Fe",mg,--,--,2.75,5.00
"Sodium, Na",mg,--,--,85,155
Vitamins
"Vitamin C, total ascorbic acid",mg,--,--,68.8,125.0
"Vitamin A, IU",IU,--,--,1273,2314
Lipids
"Fatty acids, total saturated",g,--,--,0.000,0.000
"Fatty acids, total trans",g,--,--,0.000,0.000
"Cholesterol",mg,--,--,0,0
Amino Acids
Other
Ingredients
"COUSCOUS (DURUM WHEAT SEMOLINA), SPICES, BELL PEPPER, CANOLA OIL, CILANTRO, SALT, ORANGE PEEL, TURMERIC, DRIED CHILES." Date available: 06/25/2017 Date last updated by company: 06/25/2017
