Source: USDA Branded Food Products Database Release December 2017 Software v.3.8.6.4 2017-10-02
Report Run at: December 17, 2017 14:07 EST
"Nutrient data for: 45240457, MANIFRESHTO, BLUEPRINT COLD PRESSED JUICE BEVERAGE, PINEAPPLE APPLE MINT, UPC: 852043003049"
Food Group:  Branded Food Products Database
Common Name:

Nutrient,Unit,Data points,Std. Error,"1 BOTTLE = 473.0g",1Value per 100 g,
Proximates
"Energy",kcal,--,--,208,44
"Protein",g,--,--,0.99,0.21
"Total lipid (fat)",g,--,--,0.00,0.00
"Carbohydrate, by difference",g,--,--,49.00,10.36
"Fiber, total dietary",g,--,--,0.0,0.0
"Sugars, total",g,--,--,44.98,9.51
Minerals
"Calcium, Ca",mg,--,--,38,8
"Iron, Fe",mg,--,--,0.38,0.08
"Sodium, Na",mg,--,--,57,12
Vitamins
"Vitamin C, total ascorbic acid",mg,--,--,85.1,18.0
"Vitamin A, IU",IU,--,--,0,0
Lipids
"Fatty acids, total saturated",g,--,--,0.000,0.000
"Fatty acids, total trans",g,--,--,0.000,0.000
"Cholesterol",mg,--,--,0,0
Amino Acids
Other
Ingredients
"JUICE FROM: ORGANIC PINEAPPLE, ORGANIC APPLE, ORGANIC MINT AND FILTERED WATER" Date available: 06/25/2017 Date last updated by company: 06/25/2017
