Source: USDA Branded Food Products Database Release December 2017 Software v.3.8.6.4 2017-10-02
Report Run at: December 17, 2017 14:09 EST
"Nutrient data for: 45023440, MANISCHEWITZ, EXTRA WIDE YOLK FREE, ENRICHED NOODLE STYLE PASTA, UPC: 072700007351"
Food Group:  Branded Food Products Database
Common Name:

Nutrient,Unit,Data points,Std. Error,"1.25 cup = 55.0g",1Value per 100 g,
Proximates
"Energy",kcal,--,--,200,364
"Protein",g,--,--,8.00,14.55
"Total lipid (fat)",g,--,--,1.00,1.82
"Carbohydrate, by difference",g,--,--,41.00,74.55
"Fiber, total dietary",g,--,--,2.0,3.6
"Sugars, total",g,--,--,2.00,3.64
Minerals
"Calcium, Ca",mg,--,--,20,36
"Iron, Fe",mg,--,--,1.80,3.27
"Sodium, Na",mg,--,--,10,18
Vitamins
"Vitamin C, total ascorbic acid",mg,--,--,0.0,0.0
"Thiamin",mg,--,--,0.550,1.000
"Riboflavin",mg,--,--,0.170,0.309
"Niacin",mg,--,--,3.000,5.455
"Vitamin A, IU",IU,--,--,0,0
Lipids
"Fatty acids, total saturated",g,--,--,0.000,0.000
"Fatty acids, total trans",g,--,--,0.000,0.000
"Cholesterol",mg,--,--,0,0
Amino Acids
Other
Ingredients
"DURUM FLOUR (WHEAT), EGG WHITES, NIACIN (VITAMIN B3), IRON (FERROUS SULFATE), THIAMIN MONONITRATE (VITAMIN B1), RIBOFLAVIN (VITAMIN B1) AND FOLIC ACID (VITAMIN B9)." Date available: 07/14/2017 Date last updated by company: 07/14/2017
