Source: USDA Branded Food Products Database Release December 2017 Software v.3.8.6.4 2017-10-02
Report Run at: December 17, 2017 14:13 EST
"Nutrient data for: 45019662, MANNA ORGANICS, FRUIT & NUT BREAD, UPC: 058449000099"
Food Group:  Branded Food Products Database
Common Name:

Nutrient,Unit,Data points,Std. Error,"0.75 slice = 56.0g",1Value per 100 g,
Proximates
"Energy",kcal,--,--,140,250
"Protein",g,--,--,6.00,10.71
"Total lipid (fat)",g,--,--,1.00,1.79
"Carbohydrate, by difference",g,--,--,27.00,48.21
"Fiber, total dietary",g,--,--,6.0,10.7
"Sugars, total",g,--,--,16.00,28.57
Minerals
"Calcium, Ca",mg,--,--,20,36
"Iron, Fe",mg,--,--,1.44,2.58
"Sodium, Na",mg,--,--,7,12
Vitamins
"Vitamin C, total ascorbic acid",mg,--,--,0.0,0.0
"Vitamin A, IU",IU,--,--,0,0
Lipids
"Fatty acids, total saturated",g,--,--,0.000,0.000
"Fatty acids, total trans",g,--,--,0.000,0.000
"Cholesterol",mg,--,--,0,0
Amino Acids
Other
Ingredients
"SPROUTED ORGANIC WHEAT KERNELS, FILTERED WATER, ORGANIC RAISINS, ORGANIC DATES (ORGANIC DATES, ORGANIC OAT FLOUR) (MAY CONTAIN PITS), ORGANIC ALMONDS, ORGANIC CASHEWS, ORGANIC HAZELNUTS, ORGANIC CINNAMON, ORGANIC NUTMEG" Date available: 06/25/2017 Date last updated by company: 06/25/2017
