Source: USDA Branded Food Products Database Release December 2017 Software v.3.8.6.4 2017-10-02
Report Run at: December 17, 2017 14:15 EST
"Nutrient data for: 45289897, MANTECA RECIPE READY, UPC: 070800553037"
Food Group:  Branded Food Products Database
Common Name:

Nutrient,Unit,Data points,Std. Error,"1 Tbsp = 13.0g",1Value per 100 g,
Proximates
"Energy",kcal,--,--,120,923
"Protein",g,--,--,0.00,0.00
"Total lipid (fat)",g,--,--,13.00,100.00
"Carbohydrate, by difference",g,--,--,0.00,0.00
Minerals
"Sodium, Na",mg,--,--,0,0
Vitamins
Lipids
"Fatty acids, total saturated",g,--,--,5.000,38.460
"Fatty acids, total trans",g,--,--,0.000,0.000
"Cholesterol",mg,--,--,10,77
Amino Acids
Other
Ingredients
"LARD, NATURAL FLAVORING" Date available: 07/14/2017 Date last updated by company: 07/14/2017
