Source: USDA Branded Food Products Database Release December 2017 Software v.3.8.6.4 2017-10-02
Report Run at: December 17, 2017 14:16 EST
"Nutrient data for: 45030528, MANUKA HEALTH, MGO 30+ MANUKA HONEY BLEND, UPC: 895015001513"
Food Group:  Branded Food Products Database
Common Name:

Nutrient,Unit,Data points,Std. Error,"1 Tbsp = 15.0g",1Value per 100 g,
Proximates
"Energy",kcal,--,--,45,300
"Protein",g,--,--,0.00,0.00
"Total lipid (fat)",g,--,--,0.00,0.00
"Carbohydrate, by difference",g,--,--,12.00,80.00
"Sugars, total",g,--,--,12.00,80.00
Minerals
Vitamins
Lipids
Amino Acids
Other
Ingredients
"MANUKA HONEY, NEW ZEALAND NATIVE BUSH HONEY." Date available: 10/02/2017 Date last updated by company: 10/02/2017
