Source: USDA Branded Food Products Database Release December 2017 Software v.3.8.6.4 2017-10-02
Report Run at: December 17, 2017 14:18 EST
"Nutrient data for: 45192413, MANZANILLA OLIVES STUFFED WITH PIMIENTO, UPC: 750144232248"
Food Group:  Branded Food Products Database
Common Name:

Nutrient,Unit,Data points,Std. Error,"5.0 OLIVES = 15.0g",1Value per 100 g,
Proximates
"Energy",kcal,--,--,25,167
"Protein",g,--,--,0.00,0.00
"Total lipid (fat)",g,--,--,2.50,16.67
"Carbohydrate, by difference",g,--,--,0.00,0.00
Minerals
"Sodium, Na",mg,--,--,330,2200
Vitamins
Lipids
"Fatty acids, total saturated",g,--,--,0.500,3.330
Amino Acids
Other
Ingredients
"MANZANILLA OLIVES, WATER, MINCED PIMIENTO (PIMIENTO, SODIUM ALGINATE, GUAR GUM, CALCIUM CHLORIDE, POTASSIUM SORBATE), SALT, LACTIC ACID." Date available: 07/14/2017 Date last updated by company: 07/14/2017
