Source: USDA Branded Food Products Database Release December 2017 Software v.3.8.6.4 2017-10-02
Report Run at: December 17, 2017 14:18 EST
"Nutrient data for: 45189655, MANZANILLA OLIVES, UPC: 011110884015"
Food Group:  Branded Food Products Database
Common Name:

Nutrient,Unit,Data points,Std. Error,"5.0 OLIVES = 15.0g",1Value per 100 g,
Proximates
"Energy",kcal,--,--,20,133
"Protein",g,--,--,0.00,0.00
"Total lipid (fat)",g,--,--,2.00,13.33
"Carbohydrate, by difference",g,--,--,1.00,6.67
Minerals
"Sodium, Na",mg,--,--,300,2000
Vitamins
Lipids
Amino Acids
Other
Ingredients
"SPANISH OLIVES, WATER, PIMIENTO, SODIUM ALGINATE GUAR GUM, CALCIUM CHLORIDE, SALT, LACTIC ACID, CITRIC ACID." Date available: 10/19/2017 Date last updated by company: 10/19/2017
