Source: USDA Branded Food Products Database Release December 2017 Software v.3.8.6.4 2017-10-02
Report Run at: December 17, 2017 14:26 EST
"Nutrient data for: 45139864, MAPLE GROVE FARMS OF VERMONT, WHOLE MIX BLEND PANCAKE & WAFFLE MIX, UPC: 074683007755"
Food Group:  Branded Food Products Database
Common Name:

Nutrient,Unit,Data points,Std. Error,"0.25 cup = 38.0g",1Value per 100 g,
Proximates
"Energy",kcal,--,--,130,342
"Protein",g,--,--,4.00,10.53
"Total lipid (fat)",g,--,--,0.65,1.71
"Carbohydrate, by difference",g,--,--,27.00,71.05
"Fiber, total dietary",g,--,--,3.0,7.9
"Sugars, total",g,--,--,3.00,7.89
Minerals
"Calcium, Ca",mg,--,--,150,395
"Iron, Fe",mg,--,--,1.14,2.99
"Sodium, Na",mg,--,--,400,1053
Vitamins
"Vitamin C, total ascorbic acid",mg,--,--,0.0,0.0
"Vitamin A, IU",IU,--,--,0,0
Lipids
"Fatty acids, total saturated",g,--,--,0.201,0.530
"Fatty acids, total trans",g,--,--,0.000,0.000
"Cholesterol",mg,--,--,0,0
Amino Acids
Other
Ingredients
"WHOLE WHEAT FLOUR, UNBLEACHED WHEAT FLOUR, RICE FLOUR, SUGAR, LEAVENING (MONOCALCIUM PHOSPHATE, SODIUM BICARBONATE), SEA SALT, DRY WHEY, BUTTERMILK POWDER." Date available: 07/14/2017 Date last updated by company: 07/14/2017
