Source: USDA Branded Food Products Database Release December 2017 Software v.3.8.6.4 2017-10-02
Report Run at: December 17, 2017 14:29 EST
"Nutrient data for: 45038864, MAPLE NUT TREATS, UPC: 713733107969"
Food Group:  Branded Food Products Database
Common Name:

Nutrient,Unit,Data points,Std. Error,"11.0 PIECES = 42.0g",1Value per 100 g,
Proximates
"Energy",kcal,--,--,230,548
"Protein",g,--,--,4.00,9.52
"Total lipid (fat)",g,--,--,13.00,30.95
"Carbohydrate, by difference",g,--,--,24.00,57.14
"Fiber, total dietary",g,--,--,1.0,2.4
"Sugars, total",g,--,--,20.00,47.62
Minerals
"Calcium, Ca",mg,--,--,20,48
"Iron, Fe",mg,--,--,0.43,1.02
"Sodium, Na",mg,--,--,35,83
Vitamins
"Vitamin C, total ascorbic acid",mg,--,--,0.0,0.0
"Vitamin A, IU",IU,--,--,0,0
Lipids
"Fatty acids, total saturated",g,--,--,8.001,19.050
"Fatty acids, total trans",g,--,--,0.000,0.000
"Cholesterol",mg,--,--,0,0
Amino Acids
Other
Ingredients
"SUGAR, PARTIALLY HYDROGENATED PALM KERNEL OIL, PEANUTS, WHOLE MILK SOLIDS, WHEY (MILK), NONFAT DRY MILK SOLIDS, SOY LECITHIN (EMULSIFIER), SALT, ARTIFICIAL COLORS (INCLUDES FD&C YELLOW 5 LAKE, YELLOW 6 LAKE, BLUE 2 LAKE), MAPLE SYRUP, ARTIFICIAL FLAVORING." Date available: 07/14/2017 Date last updated by company: 07/14/2017
