Source: USDA Branded Food Products Database Release December 2017 Software v.3.8.6.4 2017-10-02
Report Run at: December 17, 2017 14:30 EST
"Nutrient data for: 45280841, MAPLE SLICED BACON, UPC: 688267056536"
Food Group:  Branded Food Products Database
Common Name:

Nutrient,Unit,Data points,Std. Error,"2.0 PAN FRIED SLICES = 15.0g",1Value per 100 g,
Proximates
"Energy",kcal,--,--,90,600
"Protein",g,--,--,5.00,33.33
"Total lipid (fat)",g,--,--,7.00,46.67
"Carbohydrate, by difference",g,--,--,0.00,0.00
"Fiber, total dietary",g,--,--,0.0,0.0
"Sugars, total",g,--,--,0.00,0.00
Minerals
"Calcium, Ca",mg,--,--,0,0
"Iron, Fe",mg,--,--,0.00,0.00
"Sodium, Na",mg,--,--,270,1800
Vitamins
"Vitamin C, total ascorbic acid",mg,--,--,0.0,0.0
"Vitamin A, IU",IU,--,--,0,0
Lipids
"Fatty acids, total saturated",g,--,--,2.501,16.670
"Fatty acids, total monounsaturated",g,--,--,3.499,23.330
"Fatty acids, total polyunsaturated",g,--,--,1.000,6.670
"Fatty acids, total trans",g,--,--,0.000,0.000
"Cholesterol",mg,--,--,15,100
Amino Acids
Other
Ingredients
"BACON (CURED WITH WATER, SALT, SUGAR, MAPLE FLAVOR, NATURAL AND ARTIFICIAL FLAVOR [PROPYLENE GLYCOL, FLAVOR {CONTAINS CORN SYRUP AND CARAMEL COLOR}, WATER, MAPLE SYRUP], SODIUM PHOSPHATE, SODIUM ERYTHORBATE, SODIUM NITRITE)." Date available: 07/14/2017 Date last updated by company: 07/14/2017
