Source: USDA Branded Food Products Database Release December 2017 Software v.3.8.6.4 2017-10-02
Report Run at: December 17, 2017 14:21 EST
"Nutrient data for: 45141846, MAPLE BALSAMIC VINAIGRETTE, UPC: 074683004242"
Food Group:  Branded Food Products Database
Common Name:

Nutrient,Unit,Data points,Std. Error,"2.0 Tbsp = 30.0g",1Value per 100 g,
Proximates
"Energy",kcal,--,--,50,167
"Protein",g,--,--,0.00,0.00
"Total lipid (fat)",g,--,--,3.00,10.00
"Carbohydrate, by difference",g,--,--,6.00,20.00
"Sugars, total",g,--,--,5.00,16.67
Minerals
"Sodium, Na",mg,--,--,45,150
Vitamins
Lipids
Amino Acids
Other
Ingredients
"WATER, BALSAMIC VINEGAR (WINE VINEGAR, CONCENTRATED GRAPE MUST, CARAMEL COLOR), MAPLE SYRUP, CANOLA OIL, CIDER VINEGAR, SUGAR, SALT, XANTHAN GUM, DRIED ONION, DRIED GARLIC, DRIED RED AND GREEN BELL PEPPERS, GUAR GUM, NATURAL FLAVOR." Date available: 07/14/2017 Date last updated by company: 07/14/2017
