Source: USDA Branded Food Products Database Release December 2017 Software v.3.8.6.4 2017-10-02
Report Run at: December 17, 2017 14:29 EST
"Nutrient data for: 45121690, MAPLE NUT GOODIES, UPC: 011300380211"
Food Group:  Branded Food Products Database
Common Name:

Nutrient,Unit,Data points,Std. Error,"8.0 PIECES = 42.0g",1Value per 100 g,
Proximates
"Energy",kcal,--,--,210,500
"Protein",g,--,--,4.00,9.52
"Total lipid (fat)",g,--,--,12.00,28.57
"Carbohydrate, by difference",g,--,--,24.00,57.14
"Fiber, total dietary",g,--,--,1.0,2.4
"Sugars, total",g,--,--,19.00,45.24
Minerals
"Calcium, Ca",mg,--,--,0,0
"Iron, Fe",mg,--,--,0.00,0.00
"Sodium, Na",mg,--,--,70,167
Vitamins
"Vitamin C, total ascorbic acid",mg,--,--,0.0,0.0
"Vitamin A, IU",IU,--,--,0,0
Lipids
"Fatty acids, total saturated",g,--,--,4.998,11.900
"Fatty acids, total trans",g,--,--,0.000,0.000
"Cholesterol",mg,--,--,0,0
Amino Acids
Other
Ingredients
"SUGAR, PEANUTS, CORN SYRUP, VEGETABLE OIL (PALM KERNEL AND/OR PALM), MAPLE SYRUP, SALT, SODIUM BICARBONATE, NATURAL AND ARTIFICIAL FLAVORS, SOY LECITHIN (AN EMULSIFIER), CARAMEL COLOR, YELLOW 5 LAKE, YELLOW 6 LAKE, RED 40 LAKE, SUNFLOWER LECITHIN (AN EMULSIFIER), BLUE 1 LAKE." Date available: 07/14/2017 Date last updated by company: 07/14/2017
