Source: USDA Branded Food Products Database Release December 2017 Software v.3.8.6.4 2017-10-02
Report Run at: December 17, 2017 14:24 EST
"Nutrient data for: 45241714, MAPLEGOLD, PURE MAPLE SYRUP, UPC: 068270320372"
Food Group:  Branded Food Products Database
Common Name:

Nutrient,Unit,Data points,Std. Error,"0.25 cup = 60.0g",1Value per 100 g,
Proximates
"Energy",kcal,--,--,210,350
"Protein",g,--,--,0.00,0.00
"Total lipid (fat)",g,--,--,0.00,0.00
"Carbohydrate, by difference",g,--,--,53.00,88.33
"Sugars, total",g,--,--,53.00,88.33
Minerals
"Sodium, Na",mg,--,--,1,2
Vitamins
Lipids
Amino Acids
Other
Ingredients
"100% PURE MAPLE SYRUP." Date available: 06/25/2017 Date last updated by company: 06/25/2017
