Source: USDA Branded Food Products Database Release December 2017 Software v.3.8.6.4 2017-10-02
Report Run at: December 17, 2017 14:36 EST
"Nutrient data for: 45194389, MARASCHINO CHERRIES, UPC: 021130335442"
Food Group:  Branded Food Products Database
Common Name:

Nutrient,Unit,Data points,Std. Error,"1 CHERRY = 5.0g",1Value per 100 g,
Proximates
"Energy",kcal,--,--,10,200
"Protein",g,--,--,0.00,0.00
"Total lipid (fat)",g,--,--,0.00,0.00
"Carbohydrate, by difference",g,--,--,2.00,40.00
"Sugars, total",g,--,--,1.00,20.00
Minerals
"Sodium, Na",mg,--,--,0,0
Vitamins
Lipids
Amino Acids
Other
Ingredients
"CHERRIES, WATER, CORN SYRUP, HIGH FRUCTOSE CORN SYRUP, CITRIC ACID, NATURAL AND ARTIFICIAL FLAVOR, POTASSIUM SORBATE AND SODIUM BENZOATE ADDED AS PRESERVATIVES, RED 40, SULFUR DIOXIDE (PRESERVATIVE)." Date available: 07/14/2017 Date last updated by company: 07/14/2017
