Source: USDA Branded Food Products Database Release December 2017 Software v.3.8.6.4 2017-10-02
Report Run at: December 17, 2017 14:39 EST
"Nutrient data for: 45176054, MARBLE CAKE, UPC: 073490132407"
Food Group:  Branded Food Products Database
Common Name:

Nutrient,Unit,Data points,Std. Error,"0.1 CAKE = 45.0g",1Value per 100 g,
Proximates
"Energy",kcal,--,--,190,422
"Protein",g,--,--,2.00,4.44
"Total lipid (fat)",g,--,--,11.00,24.44
"Carbohydrate, by difference",g,--,--,23.00,51.11
"Fiber, total dietary",g,--,--,1.0,2.2
"Sugars, total",g,--,--,14.00,31.11
Minerals
"Calcium, Ca",mg,--,--,10,22
"Iron, Fe",mg,--,--,0.96,2.13
"Sodium, Na",mg,--,--,200,444
Vitamins
"Vitamin C, total ascorbic acid",mg,--,--,0.0,0.0
"Vitamin A, IU",IU,--,--,89,198
Lipids
"Fatty acids, total saturated",g,--,--,4.000,8.890
"Fatty acids, total trans",g,--,--,0.000,0.000
"Cholesterol",mg,--,--,70,156
Amino Acids
Other
Ingredients
"SUGARS, EGGS, PALM OIL, POTATO STARCH, MODIFIED TAPIOCA STARCH (HYDROXY PROPYL DISTARCH PROPYLENE GLYCOL), COCOA POWDER, EMULSIFIER (MONO- AND DIGLYCERIDES OF FATTY ACIDS, POLYGLYCEROL ESTERS OF FATTY ACIDS), LEAVENING AGENTS (DISODIUM DIPHOSPHATE, SODIUM HYDROGEN CARBONATE), CELLULOSE FIBER, STABILIZER (XANTHAN GUM), SALT, CINNAMON, PRESERVATIVE (SORBIC ACID), ARTIFICIAL FLAVOR." Date available: 10/10/2017 Date last updated by company: 10/10/2017
