Source: USDA Branded Food Products Database Release December 2017 Software v.3.8.6.4 2017-10-02
Report Run at: December 17, 2017 14:44 EST
"Nutrient data for: 45037052, MARCO POLO, ROASTED PEPPERS WITH GARLIC, UPC: 616618001287"
Food Group:  Branded Food Products Database
Common Name:

Nutrient,Unit,Data points,Std. Error,"1 PEPPER = 35.0g",1Value per 100 g,
Proximates
"Energy",kcal,--,--,10,29
"Protein",g,--,--,0.50,1.43
"Total lipid (fat)",g,--,--,0.00,0.00
"Carbohydrate, by difference",g,--,--,2.00,5.71
"Fiber, total dietary",g,--,--,1.0,2.9
"Sugars, total",g,--,--,1.00,2.86
Minerals
"Calcium, Ca",mg,--,--,0,0
"Iron, Fe",mg,--,--,0.00,0.00
"Sodium, Na",mg,--,--,100,286
Vitamins
"Vitamin C, total ascorbic acid",mg,--,--,12.8,36.7
"Vitamin A, IU",IU,--,--,0,0
Lipids
"Fatty acids, total saturated",g,--,--,0.000,0.000
"Fatty acids, total trans",g,--,--,0.000,0.000
"Cholesterol",mg,--,--,0,0
Amino Acids
Other
Ingredients
"PEPPERS, WATER, SALT, ACETIC ACID, GARLIC." Date available: 06/24/2017 Date last updated by company: 06/24/2017
