Source: USDA Branded Food Products Database Release December 2017 Software v.3.8.6.4 2017-10-02
Report Run at: December 17, 2017 14:43 EST
"Nutrient data for: 45266263, MARCONA ALMONDS ROASTED & SALTED, UPC: 072488991125"
Food Group:  Branded Food Products Database
Common Name:

Nutrient,Unit,Data points,Std. Error,"0.25 cup = 38.0g",1Value per 100 g,
Proximates
"Energy",kcal,--,--,220,579
"Protein",g,--,--,8.00,21.05
"Total lipid (fat)",g,--,--,20.00,52.63
"Carbohydrate, by difference",g,--,--,8.00,21.05
"Fiber, total dietary",g,--,--,5.0,13.2
"Sugars, total",g,--,--,2.00,5.26
Minerals
"Calcium, Ca",mg,--,--,100,263
"Iron, Fe",mg,--,--,1.90,4.99
"Sodium, Na",mg,--,--,75,197
Vitamins
"Vitamin C, total ascorbic acid",mg,--,--,0.0,0.0
"Vitamin A, IU",IU,--,--,0,0
Lipids
"Fatty acids, total saturated",g,--,--,1.501,3.950
"Fatty acids, total trans",g,--,--,0.000,0.000
"Cholesterol",mg,--,--,0,0
Amino Acids
Other
Ingredients
"ALMONDS, NON GMO CANOLA OIL, SALT." Date available: 07/14/2017 Date last updated by company: 07/14/2017
