Source: USDA Branded Food Products Database Release December 2017 Software v.3.8.6.4 2017-10-02
Report Run at: December 17, 2017 14:45 EST
"Nutrient data for: 45152372, MARCZYK FINE FOODS, RED APPLE CARAMELS, UPC: 072989766710"
Food Group:  Branded Food Products Database
Common Name:

Nutrient,Unit,Data points,Std. Error,"12.0 PIECES = 40.0g",1Value per 100 g,
Proximates
"Energy",kcal,--,--,200,500
"Protein",g,--,--,1.00,2.50
"Total lipid (fat)",g,--,--,11.00,27.50
"Carbohydrate, by difference",g,--,--,25.00,62.50
"Fiber, total dietary",g,--,--,0.0,0.0
"Sugars, total",g,--,--,20.00,50.00
Minerals
"Calcium, Ca",mg,--,--,40,100
"Iron, Fe",mg,--,--,0.00,0.00
"Sodium, Na",mg,--,--,25,62
Vitamins
"Vitamin C, total ascorbic acid",mg,--,--,0.0,0.0
"Vitamin A, IU",IU,--,--,125,312
Lipids
"Fatty acids, total saturated",g,--,--,7.000,17.500
"Fatty acids, total trans",g,--,--,0.000,0.000
"Cholesterol",mg,--,--,10,25
Amino Acids
Other
Ingredients
"WHITE CHOCOLATE (SUGAR, COCOA BUTTER, WHOLE MILK, SOY LECITHIN, SALT, VANILLA), CORN SYRUP, SUGAR, CREAM [MILK], PALM KERNEL OIL, SALT, SOY LECITHIN, ARTIFICIAL COLORS (RED 40 LAKE, BLUE 2 LAKE), CITRIC ACID, NATURAL FLAVOR, TAPIOCA SYRUP, TAPIOCA DEXTRIN, CONFECTIONER'S GLAZE." Date available: 07/14/2017 Date last updated by company: 07/14/2017
