Source: USDA Branded Food Products Database Release December 2017 Software v.3.8.6.4 2017-10-02
Report Run at: December 17, 2017 14:46 EST
"Nutrient data for: 45008645, MARGARET HOLMES, PEANUT PATCH, GREEN BOILED PEANUTS, CAJUN, UPC: 075200007258"
Food Group:  Branded Food Products Database
Common Name:

Nutrient,Unit,Data points,Std. Error,"0.25 cup = 34.0g",1Value per 100 g,
Proximates
"Energy",kcal,--,--,90,265
"Protein",g,--,--,4.00,11.76
"Total lipid (fat)",g,--,--,7.00,20.59
"Carbohydrate, by difference",g,--,--,4.00,11.76
"Fiber, total dietary",g,--,--,4.0,11.8
"Sugars, total",g,--,--,0.00,0.00
Minerals
"Calcium, Ca",mg,--,--,20,59
"Iron, Fe",mg,--,--,0.53,1.56
"Sodium, Na",mg,--,--,300,882
Vitamins
"Vitamin C, total ascorbic acid",mg,--,--,0.0,0.0
"Vitamin A, IU",IU,--,--,0,0
Lipids
"Fatty acids, total saturated",g,--,--,1.499,4.410
"Fatty acids, total trans",g,--,--,0.000,0.000
"Cholesterol",mg,--,--,0,0
Amino Acids
Other
Ingredients
"GREEN BOILED PEANUTS, WATER, SALT, SUGAR, RED PEPPER FLAKES, MONOSODIUM GLUTAMATE, DEHYDRATED ONION, DEHYDRATED ONION, DEHYDRATED GARLIC, OLEORESIN CAPSICUM, ERYTHORBIC ACID (TO PROMOTE COLOR RETENTION) AND OLEORESIN PAPRIKA." Date available: 06/24/2017 Date last updated by company: 06/24/2017
