Source: USDA Branded Food Products Database Release December 2017 Software v.3.8.6.4 2017-10-02
Report Run at: December 17, 2017 14:52 EST
"Nutrient data for: 45009483, MARGIE'S, GUAVA VINAIGRETTE DRESSING, UPC: 716418628797"
Food Group:  Branded Food Products Database
Common Name:

Nutrient,Unit,Data points,Std. Error,"2.0 Tbsp = 32.0g",1Value per 100 g,
Proximates
"Energy",kcal,--,--,35,109
"Protein",g,--,--,0.00,0.00
"Total lipid (fat)",g,--,--,1.00,3.12
"Carbohydrate, by difference",g,--,--,6.00,18.75
"Fiber, total dietary",g,--,--,0.0,0.0
"Sugars, total",g,--,--,5.00,15.62
Minerals
"Calcium, Ca",mg,--,--,0,0
"Iron, Fe",mg,--,--,0.00,0.00
"Sodium, Na",mg,--,--,135,422
Vitamins
"Vitamin C, total ascorbic acid",mg,--,--,15.2,47.5
"Vitamin A, IU",IU,--,--,0,0
Lipids
"Fatty acids, total saturated",g,--,--,0.000,0.000
"Fatty acids, total trans",g,--,--,0.000,0.000
"Cholesterol",mg,--,--,0,0
Amino Acids
Other
Ingredients
"WHITE GRAPE JUICE FROM CONCENTRATE, GUAVA FRUIT, DISTILLED VINEGAR, ONION, CANOLA OIL, AND LESS THAN 2% SEA SALT, SPICES, GARLIC POWDER, XANTHAN GUM, NATURAL FLAVOR, NATURAL VEGETABLE COLOR." Date available: 06/24/2017 Date last updated by company: 06/24/2017
