Source: USDA Branded Food Products Database Release December 2017 Software v.3.8.6.4 2017-10-02
Report Run at: December 17, 2017 14:49 EST
"Nutrient data for: 45312744, MARGARITAVILLE, GELATIN, MARGARITA, UPC: 072392012510"
Food Group:  Branded Food Products Database
Common Name:

Nutrient,Unit,Data points,Std. Error,"0.25 PACKAGE = 20.0g",1Value per 100 g,
Proximates
"Energy",kcal,--,--,70,350
"Protein",g,--,--,1.00,5.00
"Total lipid (fat)",g,--,--,0.00,0.00
"Carbohydrate, by difference",g,--,--,17.00,85.00
"Sugars, total",g,--,--,17.00,85.00
Minerals
"Sodium, Na",mg,--,--,95,475
Vitamins
Lipids
Amino Acids
Other
Ingredients
"SUGAR, GELATIN, CONTAINS 2% OR LESS OF THE FOLLOWING: FUMARIC ACID. SODIUM CITRATE, NATURAL FLAVOR, MALIC ACID, CITRIC ACID, SALT, YELLOW 5 LAKE, YELLOW 5, BLUE 1." Date available: 06/25/2017 Date last updated by company: 06/25/2017
