Source: USDA Branded Food Products Database Release December 2017 Software v.3.8.6.4 2017-10-02
Report Run at: December 17, 2017 14:46 EST
"Nutrient data for: 45057348, MARGARET HOLMES, RED BEANS AND RICE, JUST ADD SAUSAGE, UPC: 041443118136"
Food Group:  Branded Food Products Database
Common Name:

Nutrient,Unit,Data points,Std. Error,"0.5 cup = 140.0g",1Value per 100 g,
Proximates
"Energy",kcal,--,--,111,79
"Protein",g,--,--,5.00,3.57
"Total lipid (fat)",g,--,--,1.50,1.07
"Carbohydrate, by difference",g,--,--,20.01,14.29
"Fiber, total dietary",g,--,--,1.0,0.7
"Sugars, total",g,--,--,0.99,0.71
Minerals
"Calcium, Ca",mg,--,--,20,14
"Iron, Fe",mg,--,--,1.53,1.09
"Sodium, Na",mg,--,--,1000,714
Vitamins
"Vitamin C, total ascorbic acid",mg,--,--,0.0,0.0
"Vitamin A, IU",IU,--,--,0,0
Lipids
"Fatty acids, total saturated",g,--,--,0.000,0.000
"Fatty acids, total trans",g,--,--,0.000,0.000
"Cholesterol",mg,--,--,0,0
Amino Acids
Other
Ingredients
"WATER, PREPARED RED BEANS, LONG GRAIN ENRICHED RICE, MONOSODIUM GLUTAMATE, HYDROLYZED SOY PROTEIN, SALT, SOYBEAN OIL, CORN FLOUR, DEHYDRATED ONION, SPICES, EXTRACTIVE OF PAPRIKA, RENDERED BACON FAT, NATURAL HICKORY SMOKE FLAVOR, AND CARAMEL COLOR." Date available: 06/24/2017 Date last updated by company: 06/24/2017
