Source: USDA Branded Food Products Database Release December 2017 Software v.3.8.6.4 2017-10-02
Report Run at: December 17, 2017 14:51 EST
"Nutrient data for: 45268386, MARGHERITA PIZZA, UPC: 758940627398"
Food Group:  Branded Food Products Database
Common Name:

Nutrient,Unit,Data points,Std. Error,"0.166 PIZZA = 55.0g",1Value per 100 g,
Proximates
"Energy",kcal,--,--,120,218
"Protein",g,--,--,7.00,12.73
"Total lipid (fat)",g,--,--,3.00,5.45
"Carbohydrate, by difference",g,--,--,27.00,49.09
"Fiber, total dietary",g,--,--,2.0,3.6
"Sugars, total",g,--,--,2.00,3.64
Minerals
"Calcium, Ca",mg,--,--,150,273
"Iron, Fe",mg,--,--,2.55,4.64
"Sodium, Na",mg,--,--,590,1073
Vitamins
"Vitamin C, total ascorbic acid",mg,--,--,0.0,0.0
"Vitamin A, IU",IU,--,--,709,1289
Lipids
"Fatty acids, total saturated",g,--,--,1.502,2.730
"Fatty acids, total trans",g,--,--,0.000,0.000
"Cholesterol",mg,--,--,15,27
Amino Acids
Other
Ingredients
"WHEAT FLOUR, WATER, MOZZARELLA CHEESE 27,2% (MILK, SALT, RENNET, MILK ENZYMES), TOMATOES, EXTRA VIRGIN OLIVE OIL, SALT, BREWER'S YEAST, OREGANO." Date available: 09/08/2017 Date last updated by company: 09/08/2017
