Source: USDA Branded Food Products Database Release December 2017 Software v.3.8.6.4 2017-10-02
Report Run at: December 17, 2017 14:52 EST
"Nutrient data for: 45011447, MARGIE'S, BANANA SYRUP, BANANA, UPC: 716418957361"
Food Group:  Branded Food Products Database
Common Name:

Nutrient,Unit,Data points,Std. Error,"0.25 cup = 74.0g",1Value per 100 g,
Proximates
"Energy",kcal,--,--,150,203
"Protein",g,--,--,1.00,1.35
"Total lipid (fat)",g,--,--,0.00,0.00
"Carbohydrate, by difference",g,--,--,35.00,47.30
"Fiber, total dietary",g,--,--,1.0,1.4
"Sugars, total",g,--,--,34.00,45.95
Minerals
"Calcium, Ca",mg,--,--,20,27
"Iron, Fe",mg,--,--,0.61,0.82
"Sodium, Na",mg,--,--,10,14
Vitamins
"Vitamin C, total ascorbic acid",mg,--,--,1.0,1.4
"Vitamin A, IU",IU,--,--,0,0
Lipids
"Fatty acids, total saturated",g,--,--,0.000,0.000
"Fatty acids, total trans",g,--,--,0.000,0.000
"Cholesterol",mg,--,--,0,0
Amino Acids
Other
Ingredients
"WHITE GRAPE JUICE CONCENTRATE, BANANA PUREE, XANTHAN GUM (THICKENER)." Date available: 06/24/2017 Date last updated by company: 06/24/2017
