Source: USDA Branded Food Products Database Release December 2017 Software v.3.8.6.4 2017-10-02
Report Run at: December 17, 2017 15:22 EST
"Nutrient data for: 45033610, MARINOS, RAINBOW ITALIAN ICES, UPC: 073718000075"
Food Group:  Branded Food Products Database
Common Name:

Nutrient,Unit,Data points,Std. Error,"1 cup = 133.0g",1Value per 100 g,
Proximates
"Energy",kcal,--,--,100,75
"Protein",g,--,--,0.00,0.00
"Total lipid (fat)",g,--,--,0.00,0.00
"Carbohydrate, by difference",g,--,--,26.00,19.55
"Fiber, total dietary",g,--,--,0.0,0.0
"Sugars, total",g,--,--,24.01,18.05
Minerals
"Calcium, Ca",mg,--,--,0,0
"Iron, Fe",mg,--,--,0.16,0.12
"Sodium, Na",mg,--,--,15,11
Vitamins
"Vitamin C, total ascorbic acid",mg,--,--,0.0,0.0
"Vitamin A, IU",IU,--,--,0,0
Lipids
"Fatty acids, total saturated",g,--,--,0.000,0.000
"Cholesterol",mg,--,--,0,0
Amino Acids
Other
Ingredients
"WATER, SUGAR, CORN SYRUP, CITRIC ACID, CELLULOSE GUM, SOY PROTEIN, ARTIFICIAL FLAVOR, RED 40, BLUE 1, CARAMEL COLOR." Date available: 06/24/2017 Date last updated by company: 06/24/2017
