Source: USDA Branded Food Products Database Release December 2017 Software v.3.8.6.4 2017-10-02
Report Run at: December 17, 2017 15:04 EST
"Nutrient data for: 45134633, MARIE CALLENDERS Vermont White Cheddar Macaroni And Cheese Bake, UNPREPARED, GTIN: 00021131590055"
Food Group:  Branded Food Products Database
Common Name:

Nutrient,Unit,Data points,Std. Error,"0.5 Package (340g) = 340.0g",1Value per 100 g,
Proximates
"Energy",kcal,--,--,598,176
"Protein",g,--,--,21.01,6.18
"Total lipid (fat)",g,--,--,34.00,10.00
"Carbohydrate, by difference",g,--,--,53.01,15.59
"Fiber, total dietary",g,--,--,4.1,1.2
"Sugars, total",g,--,--,2.99,0.88
Minerals
"Calcium, Ca",mg,--,--,401,118
"Iron, Fe",mg,--,--,2.69,0.79
"Potassium, K",mg,--,--,160,47
"Sodium, Na",mg,--,--,1340,394
Vitamins
"Vitamin C, total ascorbic acid",mg,--,--,3.7,1.1
"Vitamin A, IU",IU,--,--,1000,294
Lipids
"Fatty acids, total saturated",g,--,--,19.006,5.590
"Fatty acids, total monounsaturated",g,--,--,7.990,2.350
"Fatty acids, total polyunsaturated",g,--,--,4.012,1.180
"Fatty acids, total trans",g,--,--,0.986,0.290
"Cholesterol",mg,--,--,88,26
Amino Acids
Other
Ingredients
"Cooked Enriched Pasta (Water, Durum Wheat Semolina, Niacin, Ferrous Sulfate [Iron], Thiamine Mononitrate, Riboflavin, Folic Acid), Water, Cream, Vermont White Cheddar Cheese (Cheddar Cheese [Pasteurized Milk, Cheese Culture, Salt, Enzymes], Potato Starch, Powdered Cellulose [To Prevent Caking], Natamycin [A Natural Mold Inhibitor]), Pasteurized Processed Swiss Cheese Product ([Pasteurized Milk, Cheese Culture, Salt, Enzymes], Water, Sodium Phosphate, Cream, Salt, Flavors, Propionic Acid, Sorbic Acid [Preservative]), Contains 2% or less of: Soybean Oil, Modified Corn Starch, Nonfat Dry Milk, Salt, Sodium Phosphates, DATEM, Mono- and Diglycerides, Xanthan Gum, Spice, Guar Gum. CONTAINS: MILK, WHEAT." Date available: 10/12/2017 Date last updated by company: 10/11/2017
