Source: USDA Branded Food Products Database Release December 2017 Software v.3.8.6.4 2017-10-02
Report Run at: December 17, 2017 15:13 EST
"Nutrient data for: 45198102, MARINARA SAUCE, UPC: 075450153026"
Food Group:  Branded Food Products Database
Common Name:

Nutrient,Unit,Data points,Std. Error,"0.5 cup = 125.0g",1Value per 100 g,
Proximates
"Energy",kcal,--,--,70,56
"Protein",g,--,--,2.00,1.60
"Total lipid (fat)",g,--,--,3.00,2.40
"Carbohydrate, by difference",g,--,--,11.00,8.80
"Fiber, total dietary",g,--,--,1.0,0.8
"Sugars, total",g,--,--,6.00,4.80
Minerals
"Calcium, Ca",mg,--,--,60,48
"Iron, Fe",mg,--,--,0.76,0.61
"Sodium, Na",mg,--,--,230,184
Vitamins
"Vitamin C, total ascorbic acid",mg,--,--,12.6,10.1
"Vitamin A, IU",IU,--,--,792,634
Lipids
"Fatty acids, total saturated",g,--,--,0.500,0.400
"Fatty acids, total trans",g,--,--,0.000,0.000
"Cholesterol",mg,--,--,0,0
Amino Acids
Other
Ingredients
"TOMATOES (DICED TOMATOES, TOMATO JUICE, CITRIC ACID, CALCIUM CHLORIDE), WATER, TOMATO PASTE, SOYBEAN OIL, ONION, SUGAR, MINCED GARLIC (GARLIC, WATER, PHOSPHORIC ACID), FOOD STARCH-MODIFIED, SALT, DEHYDRATED GARLIC, HYDROLYZED CORN PROTEIN (HYDROLYZED CORN PROTEIN, PARTIALLY HYDROGENATED VEGETABLE OIL [COTTONSEED, SOYBEAN]), PARSLEY, CHICKEN FLAVOR (HYDROLYZED CORN GLUTEN, SALT, MALTODEXTRIN, CHICKEN FAT, SODIUM PHOSPHATE, SPICES, SUGAR, NATURAL FLAVORS, DISODIUM INOSINATE, DISODIUM GUANYLATE), BASIL LEAVES, BLACK PEPPER, FENNEL, ROSEMARY, YEAST EXTRACT, ONION POWDER, RED PEPPER." Date available: 09/27/2017 Date last updated by company: 09/27/2017
