Source: USDA Branded Food Products Database Release December 2017 Software v.3.8.6.4 2017-10-02
Report Run at: December 17, 2017 15:09 EST
"Nutrient data for: 45315895, MARINADE, UPC: 04656701528"
Food Group:  Branded Food Products Database
Common Name:

Nutrient,Unit,Data points,Std. Error,"1 Tbsp = 15.0g",1Value per 100 g,
Proximates
"Energy",kcal,--,--,40,267
"Protein",g,--,--,0.00,0.00
"Total lipid (fat)",g,--,--,0.50,3.33
"Carbohydrate, by difference",g,--,--,8.00,53.33
"Sugars, total",g,--,--,7.00,46.67
Minerals
"Sodium, Na",mg,--,--,350,2333
Vitamins
Lipids
Amino Acids
Other
Ingredients
"HIGH FRUCTOSE CORN SYRUP, SOY SAUCE (WATER, SOYBEAN, SALT, WHEAT), DISTILLED VINEGAR, MOLASSES, SAKI (RICE WINE), WATER, SALT, GARLIC*, HONEY, MODIFIED FOOD STARCH, SESAME SEED, SESAME OIL, CONTAINS LESS THAN 1% OF HYDROLYZED SOY PROTEIN, CARAMEL COLOR, SPICE, NATURAL FLAVORS, XANTHAN GUM, SODIUM BENZOATE AS A PRESERVATIVE." Date available: 07/14/2017 Date last updated by company: 07/14/2017
