Source: USDA Branded Food Products Database Release December 2017 Software v.3.8.6.4 2017-10-02
Report Run at: December 17, 2017 14:57 EST
"Nutrient data for: 45134536, MARIE CALLENDERS Chicken Corn Chowder, UNPREPARED, GTIN: 00021131501310"
Food Group:  Branded Food Products Database
Common Name:

Nutrient,Unit,Data points,Std. Error,"1 Cup (200g) = 200.0g",1Value per 100 g,
Proximates
"Energy",kcal,--,--,460,230
"Protein",g,--,--,15.00,7.50
"Total lipid (fat)",g,--,--,28.00,14.00
"Carbohydrate, by difference",g,--,--,38.00,19.00
"Fiber, total dietary",g,--,--,3.0,1.5
"Sugars, total",g,--,--,3.00,1.50
Minerals
"Calcium, Ca",mg,--,--,40,20
"Iron, Fe",mg,--,--,2.70,1.35
"Potassium, K",mg,--,--,250,125
"Sodium, Na",mg,--,--,720,360
Vitamins
"Vitamin C, total ascorbic acid",mg,--,--,2.4,1.2
"Vitamin A, IU",IU,--,--,0,0
Lipids
"Fatty acids, total saturated",g,--,--,12.000,6.000
"Fatty acids, total monounsaturated",g,--,--,6.000,3.000
"Fatty acids, total polyunsaturated",g,--,--,9.000,4.500
"Fatty acids, total trans",g,--,--,0.000,0.000
"Cholesterol",mg,--,--,30,15
Amino Acids
Other
Ingredients
"Filling: Chicken Broth (Water, Chicken Broth Powder [Maltodextrin, Chicken Broth, Salt, Flavors]), White Meat Chicken (White Meat Chicken, Water, Isolated Soy Protein Product [Isolated Soy Protein, Modified Potato Starch, Corn Starch, Carrageenan, Soy Lecithin], Dextrose, Salt, Flavoring), Corn, Potatoes (Potatoes, Calcium Chloride), Water, Bacon (Pork Cured With: Water, Salt, Sodium Phosphates, Sodium Erythrobate, Sodium Nitrite, Sugar, Brown Sugar, Smoke Flavor), Celery, Onions, Contains 2% Or Less Of: White Cheddar Cheese (Pasteurized Milk, Cheese Culture, Salt, Enzymes, Potato Starch, Powdered Cellulose, Natamycin), Cream, Modified Corn Starch, Butter (Cream, Salt), Soybean Oil, Salt, Chicken Flavor (Chicken Broth, Chicken Fat, Salt, Flavor, Disodium Inosinate & Disodium Guanylate, Polysorbate 60, Xanthan Gum), Nonfat Dry Milk, Sugar, Methylcellulose, Flavoring, Xanthan Gum, Guar Gum. Crust: Enriched Wheat Flour (Wheat Flour, Niacin, Reduced Iron, Thiamine Mononitrite, Riboflavin, Folic Acid), Interesterified Soybean Oil, Water, Salt, Modified Whey, Caramel Color. CONTAINS: MILK, SOY, WHEAT." Date available: 10/12/2017 Date last updated by company: 10/12/2017
