Source: USDA Branded Food Products Database Release December 2017 Software v.3.8.6.4 2017-10-02
Report Run at: December 17, 2017 14:57 EST
"Nutrient data for: 45134644, MARIE CALLENDERS Chicken And Rice Bake, UNPREPARED, GTIN: 00021131590130"
Food Group:  Branded Food Products Database
Common Name:

Nutrient,Unit,Data points,Std. Error,"1 cup (243g) = 243.0g",1Value per 100 g,
Proximates
"Energy",kcal,--,--,279,115
"Protein",g,--,--,17.01,7.00
"Total lipid (fat)",g,--,--,11.01,4.53
"Carbohydrate, by difference",g,--,--,26.00,10.70
"Fiber, total dietary",g,--,--,1.9,0.8
"Sugars, total",g,--,--,1.99,0.82
Minerals
"Calcium, Ca",mg,--,--,151,62
"Iron, Fe",mg,--,--,0.36,0.15
"Potassium, K",mg,--,--,411,169
"Sodium, Na",mg,--,--,610,251
Vitamins
"Vitamin C, total ascorbic acid",mg,--,--,11.9,4.9
"Vitamin A, IU",IU,--,--,1001,412
Lipids
"Fatty acids, total saturated",g,--,--,5.006,2.060
"Fatty acids, total monounsaturated",g,--,--,3.499,1.440
"Fatty acids, total polyunsaturated",g,--,--,1.507,0.620
"Fatty acids, total trans",g,--,--,0.000,0.000
"Cholesterol",mg,--,--,56,23
Amino Acids
Other
Ingredients
"Cheese Sauce (Water, Cheddar Club Cheese [Pasteurized Cultured Milk, Salt, Enzymes, Annatto], Wine, Butter [Cream, Salt], Modified Corn Starch, Cheese Flavor [Whey, Cheese {Granular and Blue (Pasteurized Milk, Cheese Culture, Salt, Enzyme)}, Sunflower Oil, Maltodextrin, Salt, Sodium Phosphate, Citric Acid, Lactic Acid], Soybean Oil, Nonfat Dry Milk, Cheddar Cheese Flavor [Cheddar and Colby Cheese {Pasteurized Milk, Cheese Cultures, Salt, Enzymes}, Water, Lactic Acid, Yeast Extract, Sodium Citrate, Sodium Phosphate, Salt, Enzymes], Salt, Sodium Phosphates, Xanthan Gum, Guar Gum, Beta Carotene), Cooked Rice (Water, White Rice), Chicken (White Meat Chicken, Water, Olive Oil, Isolated Soy Protein Product [Isolated Soy Protein, Modified Potato Starch, Corn Starch, Carrageenan, Soy Lecithin], Dextrose, Potassium Chloride, Salt, Sodium Phosphates, Flavoring), Broccoli, Cheddar Cheese (Milk, Cheese Cultures, Salt, Enzymes, Annatto). CONTAINS SOY, MILK." Date available: 10/12/2017 Date last updated by company: 10/12/2017
