Source: USDA Branded Food Products Database Release December 2017 Software v.3.8.6.4 2017-10-02
Report Run at: December 17, 2017 15:07 EST
"Nutrient data for: 45198067, MARINADE & COOKING SAUCE, UPC: 075450135602"
Food Group:  Branded Food Products Database
Common Name:

Nutrient,Unit,Data points,Std. Error,"1 Tbsp = 15.0g",1Value per 100 g,
Proximates
"Energy",kcal,--,--,10,67
"Protein",g,--,--,0.00,0.00
"Total lipid (fat)",g,--,--,0.00,0.00
"Carbohydrate, by difference",g,--,--,2.00,13.33
"Sugars, total",g,--,--,1.00,6.67
Minerals
"Sodium, Na",mg,--,--,40,267
Vitamins
"Vitamin A, IU",IU,--,--,400,2667
Lipids
Amino Acids
Other
Ingredients
"MANGO, WATER, DICED PINEAPPLE (PINEAPPLE, PINEAPPLE JUICE, CITRIC ACID), APPLE CIDER VINEGAR, GINGER PUREE (GINGER, WATER, CITRIC ACID), SUGAR, DRIED COCONUT, JALAPENO PEPPERS, SPICES, DRIED ONION, SALT, DRIED RED BELL PEPPERS, LIME JUICE CONCENTRATE, DRIED GARLIC." Date available: 07/14/2017 Date last updated by company: 07/14/2017
