Source: USDA Branded Food Products Database Release December 2017 Software v.3.8.6.4 2017-10-02
Report Run at: December 17, 2017 15:13 EST
"Nutrient data for: 45195027, MARINARA SAUCE, UPC: 039436400108"
Food Group:  Branded Food Products Database
Common Name:

Nutrient,Unit,Data points,Std. Error,"0.5 cup = 125.0g",1Value per 100 g,
Proximates
"Energy",kcal,--,--,92,74
"Protein",g,--,--,2.00,1.60
"Total lipid (fat)",g,--,--,6.00,4.80
"Carbohydrate, by difference",g,--,--,9.00,7.20
"Fiber, total dietary",g,--,--,2.0,1.6
"Sugars, total",g,--,--,1.00,0.80
Minerals
"Iron, Fe",mg,--,--,0.38,0.30
"Sodium, Na",mg,--,--,155,124
Vitamins
"Vitamin C, total ascorbic acid",mg,--,--,14.0,11.2
"Vitamin A, IU",IU,--,--,1056,845
Lipids
"Fatty acids, total saturated",g,--,--,1.000,0.800
"Fatty acids, total trans",g,--,--,0.000,0.000
Amino Acids
Other
Ingredients
"TOMATOES, ONIONS, WATER, OIL BLEND (EXPELLER PRESSED CANOLA OIL & OLIVE OIL), GARLIC, PARSLEY, SALT, BASIL, OREGANO, RED CHILI FLAKES, CITRIC ACID." Date available: 10/19/2017 Date last updated by company: 10/19/2017
