Source: USDA Branded Food Products Database Release December 2017 Software v.3.8.6.4 2017-10-02
Report Run at: December 17, 2017 15:04 EST
"Nutrient data for: 45134306, MARIE CALLENDERS Vegetable Pot Pie, UNPREPARED, GTIN: 00021131000103"
Food Group:  Branded Food Products Database
Common Name:

Nutrient,Unit,Data points,Std. Error,"1 Pie (283g) = 283.0g",1Value per 100 g,
Proximates
"Energy",kcal,--,--,679,240
"Protein",g,--,--,12.00,4.24
"Total lipid (fat)",g,--,--,39.99,14.13
"Carbohydrate, by difference",g,--,--,69.00,24.38
"Fiber, total dietary",g,--,--,5.9,2.1
"Sugars, total",g,--,--,8.01,2.83
Minerals
"Calcium, Ca",mg,--,--,201,71
"Iron, Fe",mg,--,--,3.59,1.27
"Potassium, K",mg,--,--,419,148
"Sodium, Na",mg,--,--,781,276
Vitamins
"Vitamin C, total ascorbic acid",mg,--,--,5.9,2.1
"Vitamin A, IU",IU,--,--,750,265
Lipids
"Fatty acids, total saturated",g,--,--,17.999,6.360
"Fatty acids, total monounsaturated",g,--,--,6.000,2.120
"Fatty acids, total polyunsaturated",g,--,--,14.009,4.950
"Fatty acids, total trans",g,--,--,0.000,0.000
"Cholesterol",mg,--,--,25,9
Amino Acids
Other
Ingredients
"Filling: Water, Broccoli, Potatoes (Potatoes, Calcium Chloride), Cheddar Club Cheese (Pasteurized Cultured Milk, Salt, Enzymes, Annatto [Color]), Carrots, Maltodextrin, Onions, Soybean Oil, Contains 2% or less of: Butter (Cream, Salt), Enzyme Modified Cheese (Cheddar and Colby Cheese [Pasteurized Milk, Cheese Cultures, Salt, Enzymes], Water, Lactic Acid, Yeast Extract, Sodium Citrate, Sodium Phosphate, Salt, Enzymes), Whey, Nonfat Dry Milk, Modified Corn Starch, Salt, Disodium Phosphate, Methylcellulose, Xanthan Gum, Annatto (Color), Guar Gum, Citric Acid. Crust: Enriched Wheat Flour (Wheat Flour, Niacin, Reduced Iron, Thiamine Mononitrate, Riboflavin, Folic Acid), Interesterified Soybean Oil, Water, Salt, Modified Whey, Caramel Color. CONTAINS: MILK, WHEAT." Date available: 10/12/2017 Date last updated by company: 10/12/2017
