Source: USDA Branded Food Products Database Release December 2017 Software v.3.8.6.4 2017-10-02
Report Run at: December 17, 2017 14:59 EST
"Nutrient data for: 45134511, MARIE CALLENDERS Family Serve Meat Lasagna, UNPREPARED, GTIN: 00021131451073"
Food Group:  Branded Food Products Database
Common Name:

Nutrient,Unit,Data points,Std. Error,"1 cup (227g) = 227.0g",1Value per 100 g,
Proximates
"Energy",kcal,--,--,261,115
"Protein",g,--,--,15.00,6.61
"Total lipid (fat)",g,--,--,10.01,4.41
"Carbohydrate, by difference",g,--,--,27.99,12.33
"Fiber, total dietary",g,--,--,4.1,1.8
"Sugars, total",g,--,--,4.99,2.20
Minerals
"Calcium, Ca",mg,--,--,200,88
"Iron, Fe",mg,--,--,1.43,0.63
"Potassium, K",mg,--,--,561,247
"Sodium, Na",mg,--,--,990,436
Vitamins
"Vitamin C, total ascorbic acid",mg,--,--,4.8,2.1
"Vitamin A, IU",IU,--,--,499,220
Lipids
"Fatty acids, total saturated",g,--,--,15.005,6.610
"Fatty acids, total monounsaturated",g,--,--,3.496,1.540
"Fatty acids, total polyunsaturated",g,--,--,0.499,0.220
"Fatty acids, total trans",g,--,--,0.000,0.000
"Cholesterol",mg,--,--,34,15
Amino Acids
Other
Ingredients
"Tomato Puree (Water, Tomato Paste), Cooked Enriched Lasagna (Water, Enriched Wheat Flour [Durum Wheat Semolina, Niacin, Ferrous Sulfate, Thiamine Mononitrate, Riboflavin, Folic Acid], Egg Whites), Seasoned Cooked Beef and Pork (Beef, Pork, Seasoning [Flavorings, Salt, Spice, Dextrose], Tomato Paste, Salt, Soybean Oil), Ricotta Cheese (Pasteurized Whey, Milk, Cream), Mozzarella Cheese (Part Skim Mozzarella Cheese [Pasteurized Milk, Cultures, Salt, Enzymes], Whey Protein Concentrate), Water, Contains 2% or less of: Parmesan and Romano (Made From Cow's Milk) Cheeses (Part-Skim Milk, Cheese Culture, Salt, Enzymes), Crushed Garlic (Garlic, Citric Acid), Carrots, Celery, Seasoning (Salt, Dextrose, Sugar, Spice, Spice Extractives [Including Paprika, Soy Lecithin], Disodium Inosinate, Disodium Guanylate), Sugar, Heavy Whipping Cream, Bread Crumbs (Wheat Flour, Sugar, Yeast, Soybean Oil, Salt), Spices, Onions, Modified Corn Starch, Salt, Dried Egg Whites. CONTAINS: WHEAT, EGG, MILK, SOY." Date available: 10/12/2017 Date last updated by company: 10/12/2017
