Source: USDA Branded Food Products Database Release December 2017 Software v.3.8.6.4 2017-10-02
Report Run at: December 17, 2017 15:20 EST
"Nutrient data for: 45126340, MARINELA, SPONCH COOKIES, MARSHMALLOW, UPC: 074323029628"
Food Group:  Branded Food Products Database
Common Name:

Nutrient,Unit,Data points,Std. Error,"2.0 PIECES = 30.0g",1Value per 100 g,
Proximates
"Energy",kcal,--,--,110,367
"Protein",g,--,--,1.00,3.33
"Total lipid (fat)",g,--,--,2.00,6.67
"Carbohydrate, by difference",g,--,--,21.00,70.00
"Fiber, total dietary",g,--,--,0.0,0.0
"Sugars, total",g,--,--,13.00,43.33
Minerals
"Calcium, Ca",mg,--,--,0,0
"Iron, Fe",mg,--,--,3.00,10.00
"Sodium, Na",mg,--,--,35,117
"Zinc, Zn",mg,--,--,1.50,5.00
Vitamins
"Vitamin C, total ascorbic acid",mg,--,--,0.0,0.0
"Thiamin",mg,--,--,0.000,0.000
"Riboflavin",mg,--,--,0.000,0.000
"Niacin",mg,--,--,0.000,0.000
"Vitamin A, IU",IU,--,--,500,1667
Lipids
"Fatty acids, total saturated",g,--,--,0.999,3.330
"Fatty acids, total monounsaturated",g,--,--,0.999,3.330
"Fatty acids, total polyunsaturated",g,--,--,0.000,0.000
"Fatty acids, total trans",g,--,--,0.000,0.000
"Cholesterol",mg,--,--,0,0
Amino Acids
Other
Ingredients
"SUGAR, WHEAT FLOUR, STRAWBERRY TOPPING [SUGAR, STRAWBERRY PUREE, CORN SYRUP, CORN STARCH, PECTIN, CITRIC ACID, ARTIFICIAL FLAVOR, CELLULOSE GUM, PRESERVATIVES (SODIUM BENZOATE, POTASSIUM SORBATE), ARTIFICIAL COLOR (RED 40), HYDROGENATED COCONUT OIL], WATER, GLUCOSE, COCONUT (WITH SODIUM METABISULFITE TO PROTECT COLOR), VEGETABLE SHORTENING (PALM AND CANOLA OIL, SOY LECITHIN), HIGH FRUCTOSE CORN SYRUP, GELATIN, EGG WHITES, IODIZED SALT, ARTIFICIAL AND NATURAL FLAVOR, BAKING SODA, CALCIUM SULFATE, SODIUM ALUMINIUM SULFATE, MONOCALCIUM PHOSPHATE, CALCIUM CARBONATE, AMMONIUM BICARBONATE, FERROUS FUMARATE, ZINC CITRATE, VITAMIN A PALMITATE, SODIUM STEAROYL LACTYLATE, SOY LECITHIN, MALTODEXTRIN, ARTIFICIAL COLOR (RED 3, RED 40, YELLOW 5), THIAMIN MONONITRATE RIBOFLAVIN, NIACIN, FOLIC ACID, FERROUS SULFATE, ZINC OXIDE." Date available: 07/14/2017 Date last updated by company: 07/14/2017
