Source: USDA Branded Food Products Database Release December 2017 Software v.3.8.6.4 2017-10-02
Report Run at: December 17, 2017 15:09 EST
"Nutrient data for: 45236018, MARINADE, UPC: 605021695190"
Food Group:  Branded Food Products Database
Common Name:

Nutrient,Unit,Data points,Std. Error,"1 Tbsp = 15.0g",1Value per 100 g,
Proximates
"Energy",kcal,--,--,10,67
"Protein",g,--,--,0.00,0.00
"Total lipid (fat)",g,--,--,0.00,0.00
"Carbohydrate, by difference",g,--,--,2.00,13.33
"Sugars, total",g,--,--,1.00,6.67
Minerals
"Sodium, Na",mg,--,--,0,0
Vitamins
Lipids
Amino Acids
Other
Ingredients
"WATER, DISTILLED VINEGAR, ONION JUICE (ONION JUICE, VINEGAR), SPICE BLEND (DRIED ONION, SPICES, DRIED CARROT, DRIED GARLIC ORANGE PEEL, CHILI PEPPER FLAKES, CORN SYRUP SOLIDS, LEMON PEEL, DRIED RED BELL PEPPER, LEMON JUICE, TURMERIC (COLOR), CITRIC ACID, MALTODEXTRIN, SUGAR, NATURAL FLAVOR, LEMON OIL, RED PEPPER, SPICE EXTRACTIVES, SOY LECITHIN), SUGAR, MODIFIED CORN STARCH, LEMON JUICE CONCENTRATE, DRIED GARLIC, NATURAL FLAVOR, CITRIC ACID, XANTHAN GUM, POTASSIUM SORBATE POTASSIUM BENZOATE (OT PRESERVE FRESHNESS), MODIFIED CELLULOSE GUM, TURMERIC EXTRACTIVE." Date available: 06/25/2017 Date last updated by company: 06/25/2017
