Source: USDA Branded Food Products Database Release December 2017 Software v.3.8.6.4 2017-10-02
Report Run at: December 17, 2017 15:09 EST
"Nutrient data for: 45233074, MARINADE, UPC: 077890248225"
Food Group:  Branded Food Products Database
Common Name:

Nutrient,Unit,Data points,Std. Error,"1 Tbsp = 15.0g",1Value per 100 g,
Proximates
"Energy",kcal,--,--,60,400
"Protein",g,--,--,0.00,0.00
"Total lipid (fat)",g,--,--,6.00,40.00
"Carbohydrate, by difference",g,--,--,1.00,6.67
"Fiber, total dietary",g,--,--,0.0,0.0
"Sugars, total",g,--,--,1.00,6.67
Minerals
"Calcium, Ca",mg,--,--,0,0
"Iron, Fe",mg,--,--,0.00,0.00
"Sodium, Na",mg,--,--,210,1400
Vitamins
"Vitamin C, total ascorbic acid",mg,--,--,0.0,0.0
"Vitamin A, IU",IU,--,--,0,0
Lipids
"Fatty acids, total saturated",g,--,--,1.000,6.670
"Fatty acids, total trans",g,--,--,0.000,0.000
"Cholesterol",mg,--,--,0,0
Amino Acids
Other
Ingredients
"SOYBEAN OIL, WATER, WHITE VINEGAR, RED WINE VINEGAR, SALT, SUGAR, CIDER VINEGAR, CONTAINS 2% OR LESS OF DIJON MUSTARD (VINEGAR, MUSTARD SEED, WATER, SALT, WHITE WINE, TURMERIC, SPICES), DRIED GARLIC, GARLIC, CONCENTRATED LEMON JUICE, SPICES, ROASTED GARLIC, XANTHAN GUM, MOLASSES, OLIVE OIL, CORN SYRUP, CARAMEL COLOR, TAMARIND, NATURAL FLAVOR, CITRIC ACID, WITH POTASSIUM SORBATE AND BENZOATE TO PRESERVE FLAVOR." Date available: 06/24/2017 Date last updated by company: 06/24/2017
