Source: USDA Branded Food Products Database Release December 2017 Software v.3.8.6.4 2017-10-02
Report Run at: December 17, 2017 15:01 EST
"Nutrient data for: 45133860, MARIE CALLENDERS Multiserve Chicken Pot Pie, UNPREPARED, GTIN: 00021131800277"
Food Group:  Branded Food Products Database
Common Name:

Nutrient,Unit,Data points,Std. Error,"1 Cup (200g) = 200.0g",1Value per 100 g,
Proximates
"Energy",kcal,--,--,370,185
"Protein",g,--,--,11.00,5.50
"Total lipid (fat)",g,--,--,21.00,10.50
"Carbohydrate, by difference",g,--,--,35.00,17.50
"Fiber, total dietary",g,--,--,4.0,2.0
"Sugars, total",g,--,--,4.00,2.00
Minerals
"Calcium, Ca",mg,--,--,20,10
"Iron, Fe",mg,--,--,1.80,0.90
"Potassium, K",mg,--,--,220,110
"Sodium, Na",mg,--,--,800,400
Vitamins
"Vitamin C, total ascorbic acid",mg,--,--,2.4,1.2
"Vitamin A, IU",IU,--,--,1000,500
Lipids
"Fatty acids, total saturated",g,--,--,9.000,4.500
"Fatty acids, total monounsaturated",g,--,--,3.500,1.750
"Fatty acids, total polyunsaturated",g,--,--,8.000,4.000
"Fatty acids, total trans",g,--,--,0.000,0.000
"Cholesterol",mg,--,--,24,12
Amino Acids
Other
Ingredients
"Filling: Chicken Broth (Water, Chicken Broth Powder [Maltodextrin, Chicken Broth, Salt, Flavors]), White Meat Chicken (White Meat Chicken, Water, Isolated Soy Protein Product [Isolated Soy Protein, Modified Potato Starch, Corn Starch, Carrageenan, Soy Lecithin], Dextrose, Salt, Flavoring), Carrots, Peas, Water, Modified Corn Starch, Celery, Contains 2% or less of: Onions, Salt, Soybean Oil, Nonfat Dry Milk, Chicken Flavor (Contains Chicken Broth, Rendered Chicken Fat, Salt, Flavor, Disodium Inosinate & Disodium Guanylate, Polysorbate 60, Xanthan Gum), Cream, Sugar, Methylcellulose, Dried Onion, Xanthan Gum, Flavoring, Guar Gum, Extractives of Turmeric. Crust: Enriched Wheat Flour (Wheat Flour, Niacin, Iron, Thiamine Mononitrate, Riboflavin, Folic Acid), Interesterified Soybean Oil, Water, Salt, Modified Whey, Caramel Color. CONTAINS: MILK, SOY, WHEAT." Date available: 10/12/2017 Date last updated by company: 10/12/2017
