Source: USDA Branded Food Products Database Release December 2017 Software v.3.8.6.4 2017-10-02
Report Run at: December 17, 2017 14:55 EST
"Nutrient data for: 45328040, MARICH, CHRISTMAS CHOCOLATE ALMONDS, UPC: 797817242401"
Food Group:  Branded Food Products Database
Common Name:

Nutrient,Unit,Data points,Std. Error,"9.0 PCS = 40.0g",1Value per 100 g,
Proximates
"Energy",kcal,--,--,190,475
"Protein",g,--,--,4.00,10.00
"Total lipid (fat)",g,--,--,9.00,22.50
"Carbohydrate, by difference",g,--,--,25.00,62.50
"Fiber, total dietary",g,--,--,2.0,5.0
"Sugars, total",g,--,--,21.00,52.50
Minerals
"Calcium, Ca",mg,--,--,40,100
"Iron, Fe",mg,--,--,0.90,2.25
"Sodium, Na",mg,--,--,0,0
Vitamins
"Vitamin C, total ascorbic acid",mg,--,--,0.0,0.0
"Vitamin A, IU",IU,--,--,0,0
Lipids
"Fatty acids, total saturated",g,--,--,1.000,2.500
"Fatty acids, total trans",g,--,--,0.000,0.000
"Cholesterol",mg,--,--,0,0
Amino Acids
Other
Ingredients
"MILK CHOCOLATE (SUGAR, WHOLE MILK, COCOA BUTTER, COCOA MASS, SOY LECITHIN, VANILLA), SUGAR, ALMONDS, ARTIFICIAL COLORS (YELLOW 5 LAKE, RED 40 LAKE, BLUE 1 LAKE), COLOR ADDED (TITANIUM DIOXIDE), TAPIOCA DEXTRIN, CORN SYRUP, CARNAUBA WAX, CONFECTIONER'S GLAZE, NATURAL FLAVOR." Date available: 10/13/2017 Date last updated by company: 10/13/2017
