Source: USDA Branded Food Products Database Release December 2017 Software v.3.8.6.4 2017-10-02
Report Run at: December 17, 2017 15:19 EST
"Nutrient data for: 45139141, MARINELA, BARRITAS, FRESA COOKIES, STRAWBERRY, UPC: 074323029642"
Food Group:  Branded Food Products Database
Common Name:

Nutrient,Unit,Data points,Std. Error,"1 piece = 34.0g",1Value per 100 g,
Proximates
"Energy",kcal,--,--,150,441
"Protein",g,--,--,1.00,2.94
"Total lipid (fat)",g,--,--,6.00,17.65
"Carbohydrate, by difference",g,--,--,22.00,64.71
"Fiber, total dietary",g,--,--,0.0,0.0
"Sugars, total",g,--,--,9.00,26.47
Minerals
"Calcium, Ca",mg,--,--,0,0
"Iron, Fe",mg,--,--,3.97,11.68
"Sodium, Na",mg,--,--,50,147
"Zinc, Zn",mg,--,--,1.50,4.41
Vitamins
"Vitamin C, total ascorbic acid",mg,--,--,0.0,0.0
"Thiamin",mg,--,--,0.000,0.000
"Riboflavin",mg,--,--,0.034,0.100
"Niacin",mg,--,--,0.588,1.729
"Vitamin A, IU",IU,--,--,441,1297
Lipids
"Fatty acids, total saturated",g,--,--,3.998,11.760
"Fatty acids, total monounsaturated",g,--,--,1.499,4.410
"Fatty acids, total polyunsaturated",g,--,--,0.500,1.470
"Fatty acids, total trans",g,--,--,0.000,0.000
"Cholesterol",mg,--,--,0,0
Amino Acids
Other
Ingredients
"STRAWBERRY FILLING [HIGH FRUCTOSE CORN SYRUP, SUGAR, STRAWBERRY PUREE, PINEPPLE PUREE & QUINCE PUREE, GLYCERIN, CORN, STARCH, DEHYDRATED APPLE POWDER, ALGINATE, PECTHIN, CITRIC ACID, CALCIUM CITRATE, ARTIFICIAL FLAVOR, SODIUM BENZOATE (PRESERVATIVE), ARTIFICIAL COLOR (RED 40)], VEGETABLE SHORTNING (HYDROGENATED PALM AND PALM KERNEL OIL) WATER GLUCOSE , SUGAR, IODIZED SALT, ARTIFICIAL AND NATURAL FLAVOR, FUMARATE, ZINC CITRATE VITAMIN A PALMITATE, ARTIFICIAL COLOR (YELLOW 5, RED 40), SOY LECITHIN, THIAMIN MONONITRATE, RIBOFLAVIN, NIACIN, FOLIC ACID, FERROUS SULFATE, ZINC OXIDE." Date available: 07/14/2017 Date last updated by company: 07/14/2017
