Source: USDA Branded Food Products Database Release December 2017 Software v.3.8.6.4 2017-10-02
Report Run at: December 17, 2017 15:42 EST
"Nutrient data for: 45065055, MARKET PANTRY, HOMESTYLE SWEET RELISH, UPC: 085239602232"
Food Group:  Branded Food Products Database
Common Name:

Nutrient,Unit,Data points,Std. Error,"1 Tbsp = 15.0g",1Value per 100 g,
Proximates
"Energy",kcal,--,--,15,100
"Protein",g,--,--,0.00,0.00
"Total lipid (fat)",g,--,--,0.00,0.00
"Carbohydrate, by difference",g,--,--,3.00,20.00
"Sugars, total",g,--,--,3.00,20.00
Minerals
"Sodium, Na",mg,--,--,140,933
Vitamins
Lipids
Amino Acids
Other
Ingredients
"CUCUMBERS, HIGH FRUCTOSE CORN SYRUP, WATER, VINEGAR, SALT, LACTIC ACID, CALCIUM CHLORIDE, XANTHAN GUM, SODIUM BENZOATE (PRESERVATIVE), SPICE, DEHYDRATED RED BELL PEPPER, ALUM, YELLOW 5, POLYSORBATE 80, NATURAL FLAVOR." Date available: 07/14/2017 Date last updated by company: 07/14/2017
