Source: USDA Branded Food Products Database Release December 2017 Software v.3.8.6.4 2017-10-02
Report Run at: December 17, 2017 15:25 EST
"Nutrient data for: 45174240, MARKET BASKET, BANANA NUT BREAD, UPC: 049705572467"
Food Group:  Branded Food Products Database
Common Name:

Nutrient,Unit,Data points,Std. Error,"1 SLICE = 51.0g",1Value per 100 g,
Proximates
"Energy",kcal,--,--,170,333
"Protein",g,--,--,3.00,5.88
"Total lipid (fat)",g,--,--,7.00,13.73
"Carbohydrate, by difference",g,--,--,25.00,49.02
"Fiber, total dietary",g,--,--,1.0,2.0
"Sugars, total",g,--,--,15.00,29.41
Minerals
"Calcium, Ca",mg,--,--,20,39
"Iron, Fe",mg,--,--,0.70,1.38
"Sodium, Na",mg,--,--,160,314
Vitamins
"Vitamin C, total ascorbic acid",mg,--,--,1.2,2.3
"Vitamin A, IU",IU,--,--,0,0
Lipids
"Fatty acids, total saturated",g,--,--,1.000,1.960
"Fatty acids, total trans",g,--,--,0.000,0.000
"Cholesterol",mg,--,--,20,39
Amino Acids
Other
Ingredients
"SUGAR, ENRICHED WHEAT FLOUR (WHEAT FLOUR, MALTED BARLEY FLOUR, NIACIN, IRON, THIAMINE MONONITRATE, RIBOFLAVIN, FOLIC ACID), BANANAS, WHOLE EGGS, SOYBEAN OIL, WATER, WALNUTS, SOUR CREAM [CULTURED PASTEURIZED GRADE A SKIM MILK, CREAM, MODIFIED FOOD STARCH, SODIUM PHOSPHATE, LOCUST BEAN GUM, GUAR GUM, CARRAGEENAN AND POTASSIUM SORBATE (TO PRESERVE FRESHNESS)], LEAVENING (SODIUM ACID PYROPHOSPHATE, BAKING SODA, MONOCALCIUM PHOSPHATE), WHEAT GLUTEMN, SALT, NATURAL AND ARTIFICIAL FLAVOR." Date available: 07/14/2017 Date last updated by company: 07/14/2017
