Source: USDA Branded Food Products Database Release December 2017 Software v.3.8.6.4 2017-10-02
Report Run at: December 17, 2017 16:00 EST
"Nutrient data for: 45224336, MARKETSIDE, DIJON DILL DIP, UPC: 681131094665"
Food Group:  Branded Food Products Database
Common Name:

Nutrient,Unit,Data points,Std. Error,"2.0 Tbsp = 31.0g",1Value per 100 g,
Proximates
"Energy",kcal,--,--,45,145
"Protein",g,--,--,2.00,6.45
"Total lipid (fat)",g,--,--,3.00,9.68
"Carbohydrate, by difference",g,--,--,2.00,6.45
"Fiber, total dietary",g,--,--,0.0,0.0
"Sugars, total",g,--,--,1.00,3.23
Minerals
"Calcium, Ca",mg,--,--,60,194
"Iron, Fe",mg,--,--,0.00,0.00
"Sodium, Na",mg,--,--,135,435
Vitamins
"Vitamin C, total ascorbic acid",mg,--,--,0.0,0.0
"Vitamin A, IU",IU,--,--,0,0
Lipids
"Fatty acids, total saturated",g,--,--,1.500,4.840
"Fatty acids, total trans",g,--,--,0.000,0.000
"Cholesterol",mg,--,--,10,32
Amino Acids
Other
Ingredients
"SOUR CREAM (MILK, CREAM, SKIM MILK, BACTERIAL CULTURES, ENZYMES), GREEK YOGURT (PASTEURIZED NONFAT MILK, MILK PROTEIN CONCENTRATE, ENZYMES BACTERIAL CULTURES), WATER, CONTAINS LESS THAN 2% OF CITRIC ACID, CULTURED NONFAT MILK, DEHYDRATED ONION, DILL WEED, GROUND CELERY SEED, MUSTARD SEED, NATURAL FLAVOR, ONION POWDER, RED WINE VINEGAR, SALT, SOYBEAN OIL, SPICES, SUGAR, WHITE WINE, TARTARIC ACID, TURMERIC, VINEGAR, XANTHAN GUM." Date available: 07/14/2017 Date last updated by company: 07/14/2017
