Source: USDA Branded Food Products Database Release December 2017 Software v.3.8.6.4 2017-10-02
Report Run at: December 17, 2017 15:29 EST
"Nutrient data for: 45101722, MARKET CLASSICS, SOUP MIX, HARVEST VEGETABLE, UPC: 24231268"
Food Group:  Branded Food Products Database
Common Name:

Nutrient,Unit,Data points,Std. Error,"0.25 cup = 34.0g",1Value per 100 g,
Proximates
"Energy",kcal,--,--,120,353
"Protein",g,--,--,3.00,8.82
"Total lipid (fat)",g,--,--,0.00,0.00
"Carbohydrate, by difference",g,--,--,26.00,76.47
"Fiber, total dietary",g,--,--,1.0,2.9
"Sugars, total",g,--,--,3.00,8.82
Minerals
"Calcium, Ca",mg,--,--,20,59
"Iron, Fe",mg,--,--,2.12,6.23
"Sodium, Na",mg,--,--,360,1059
Vitamins
"Vitamin C, total ascorbic acid",mg,--,--,35.3,103.8
"Vitamin A, IU",IU,--,--,1838,5406
Lipids
"Fatty acids, total saturated",g,--,--,0.000,0.000
"Fatty acids, total trans",g,--,--,0.000,0.000
"Cholesterol",mg,--,--,0,0
Amino Acids
Other
Ingredients
"RICE, PASTA (ENRICHED DURUM SEMOLINA FLOUR NIACIN, RIBOFLAVIN, THIAMINE, IRON, FOLIC ACID]), SOUP BASE (CORN STARCH, SAE SALT, DRIED CANE SYRUP WHEY, ONION, GARLIC, MALTODEXTRIN, SPICES, CHICKEN BROTH, CHICKEN FAT, NATURAL FLAVOR, TURMERIC), ONIONS, CELERY, CARROTS, PEAS, BELL PEPPER, GREEN BEANS, CORN, CHIVES." Date available: 06/25/2017 Date last updated by company: 06/25/2017
