Source: USDA Branded Food Products Database Release December 2017 Software v.3.8.6.4 2017-10-02
Report Run at: December 17, 2017 15:50 EST
"Nutrient data for: 45165217, MARKET PANTRY, RED VELVET CRACKLE COOKIES, UPC: 085239015292"
Food Group:  Branded Food Products Database
Common Name:

Nutrient,Unit,Data points,Std. Error,"1 COOKIES = 35.0g",1Value per 100 g,
Proximates
"Energy",kcal,--,--,150,429
"Protein",g,--,--,2.00,5.71
"Total lipid (fat)",g,--,--,6.00,17.14
"Carbohydrate, by difference",g,--,--,23.00,65.71
"Fiber, total dietary",g,--,--,1.0,2.9
"Sugars, total",g,--,--,11.00,31.43
Minerals
"Calcium, Ca",mg,--,--,0,0
"Iron, Fe",mg,--,--,2.06,5.88
"Sodium, Na",mg,--,--,180,514
Vitamins
"Vitamin C, total ascorbic acid",mg,--,--,0.0,0.0
"Vitamin A, IU",IU,--,--,286,816
Lipids
"Fatty acids, total saturated",g,--,--,2.499,7.140
"Fatty acids, total trans",g,--,--,0.000,0.000
"Cholesterol",mg,--,--,15,43
Amino Acids
Other
Ingredients
"ENRICHED BLEACHED WHEAT FLOUR, (FLOUR, NIACIN, REDUCED IRON, THIAMINE MONONITRATE, RIBOFLAVIN, FOLIC ACID), SUGAR, MARGARINE (PALM OIL, WATER, SOYBEAN OIL, SALT, MONO- AND DIGLYCERIDES, ANNATTO [COLOR], CALCIUM DISODIUM EDTA [PRESERVATIVE], ARTIFCIAL FLAVOR, VITAMIN A PALMITATE), EGGS, COCOA PROCESSED WITH ALKALI, SUGAR TOPPING (DEXTROSE, CORN STARCH, PALM OIL, TITANIUM DIOXIDE [COLOR], ARTIFCIAL FLAVOR), CORN SYRUP, MODIFIED FOOD STARCH, NATURAL AND ARTIFCIAL FLAVORS, RED 40 LAKE, LEAVENING (BAKING SODA, AMMONIUM BICARBONATE), SALT, SOY LECITHIN (EMULSIFIER), WHEY." Date available: 07/14/2017 Date last updated by company: 07/14/2017
