Source: USDA Branded Food Products Database Release December 2017 Software v.3.8.6.4 2017-10-02
Report Run at: December 17, 2017 16:01 EST
"Nutrient data for: 45224606, MARKETSIDE, ROASTED ONION DIP, UPC: 681131095297"
Food Group:  Branded Food Products Database
Common Name:

Nutrient,Unit,Data points,Std. Error,"2.0 Tbsp = 30.0g",1Value per 100 g,
Proximates
"Energy",kcal,--,--,110,367
"Protein",g,--,--,1.00,3.33
"Total lipid (fat)",g,--,--,11.00,36.67
"Carbohydrate, by difference",g,--,--,3.00,10.00
"Fiber, total dietary",g,--,--,0.0,0.0
"Sugars, total",g,--,--,1.00,3.33
Minerals
"Calcium, Ca",mg,--,--,40,133
"Iron, Fe",mg,--,--,0.00,0.00
"Sodium, Na",mg,--,--,280,933
Vitamins
"Vitamin C, total ascorbic acid",mg,--,--,0.0,0.0
"Vitamin A, IU",IU,--,--,0,0
Lipids
"Fatty acids, total saturated",g,--,--,1.500,5.000
"Fatty acids, total trans",g,--,--,0.000,0.000
"Cholesterol",mg,--,--,5,17
Amino Acids
Other
Ingredients
"SOYBEAN OIL, GREEK YOGURT (PASTEURIZED NONFAT MILK, MILK PROTEIN CONCENTRATE, ENZYMES, BACTERIAL CULTURES),CULTURED NONFAT BUTTERMILK, WATER, MALTODEXTRIN, WHOLE EGGS AND EGG YOLKS, SALT, CONTAINS LESS THAN 2% OF CITRIC ACID, CULTURED NONFAT MILK, DEHYDRATED ONION, DRIED TOASTED ONIONS, GREEN ONION, GROUND MUSTARD, LACTIC ACID, MALIC ACID, NATURAL FLAVORS, NONFAT MILK, ONION, ONION POWDER, SPICES, SUGAR, VINEGAR, XANTHAN GUM, YEAST EXTRACT." Date available: 07/14/2017 Date last updated by company: 07/14/2017
