Source: USDA Branded Food Products Database Release December 2017 Software v.3.8.6.4 2017-10-02
Report Run at: December 17, 2017 15:26 EST
"Nutrient data for: 45155930, MARKET BASKET, ORGANIC GOJI POWER MIX, UPC: 049705409046"
Food Group:  Branded Food Products Database
Common Name:

Nutrient,Unit,Data points,Std. Error,"0.25 cup = 30.0g",1Value per 100 g,
Proximates
"Energy",kcal,--,--,140,467
"Protein",g,--,--,4.00,13.33
"Total lipid (fat)",g,--,--,8.00,26.67
"Carbohydrate, by difference",g,--,--,14.00,46.67
"Fiber, total dietary",g,--,--,3.0,10.0
"Sugars, total",g,--,--,9.00,30.00
Minerals
"Calcium, Ca",mg,--,--,20,67
"Iron, Fe",mg,--,--,2.40,8.00
"Sodium, Na",mg,--,--,50,167
Vitamins
"Vitamin C, total ascorbic acid",mg,--,--,0.0,0.0
"Vitamin A, IU",IU,--,--,166,555
Lipids
"Fatty acids, total saturated",g,--,--,1.500,5.000
"Fatty acids, total trans",g,--,--,0.000,0.000
"Cholesterol",mg,--,--,0,0
Amino Acids
Other
Ingredients
"ORGANIC RAISINS (TREATED WITH ORGANIC CANOLA OIL OR ORGANIC SUNFLOWER OIL), ORGANIC HULLED SUNFLOWER SEEDS. ORGANIC SHELLED PUMPKIN SEEDS, ORGANIC CASHEWS DRY ROASTED SALTED (ORGANIC CASHEWS, SALT), ORGANIC ALMONDS DRY ROASTED SALTED (ORGANIC DICED APPLES, ORGANIC GOJI BERRIES." Date available: 07/14/2017 Date last updated by company: 07/14/2017
