Source: USDA Branded Food Products Database Release December 2017 Software v.3.8.6.4 2017-10-02
Report Run at: December 17, 2017 15:45 EST
"Nutrient data for: 45059434, MARKET PANTRY, MAC & CHEESE BLEND, UPC: 085239119907"
Food Group:  Branded Food Products Database
Common Name:

Nutrient,Unit,Data points,Std. Error,"0.25 cup = 28.0g",1Value per 100 g,
Proximates
"Energy",kcal,--,--,110,393
"Protein",g,--,--,7.00,25.00
"Total lipid (fat)",g,--,--,8.00,28.57
"Carbohydrate, by difference",g,--,--,2.00,7.14
"Fiber, total dietary",g,--,--,0.0,0.0
"Sugars, total",g,--,--,0.00,0.00
Minerals
"Calcium, Ca",mg,--,--,200,714
"Iron, Fe",mg,--,--,0.00,0.00
"Sodium, Na",mg,--,--,220,786
Vitamins
"Vitamin C, total ascorbic acid",mg,--,--,0.0,0.0
"Vitamin A, IU",IU,--,--,535,1912
Lipids
"Fatty acids, total saturated",g,--,--,5.001,17.860
"Fatty acids, total trans",g,--,--,0.000,0.000
"Cholesterol",mg,--,--,30,107
Amino Acids
Other
Ingredients
"CHEDDAR CHEESE (PASTEURIZED MILK, CHEESE CULTURE, SALT, ENZYMES, ANNATTO COLOR), PASTEURIZED PROCESS AMERICAN CHEESE (AMERICAN CHEESE [MILK, CHEESE CULTURE, SALT, ENZYMES], WATER, CREAM, SODIUM PHOSPHATE, TITANIUM DIOXIDE [COLOR], SALT, SORBIC ACID [PRESERVATIVE]), SWISS CHEESE (PASTEURIZED PART-SKIM MILK, SALT, CHEESE CULTURE, ENZYMES), POTATO STARCH, CORN STARCH, AND CELLULOSE POWDER ADDED TO PREVENT CAKING, NATAMYCIN (MOLD INHIBITOR)." Date available: 07/14/2017 Date last updated by company: 07/14/2017
