Source: USDA Branded Food Products Database Release December 2017 Software v.3.8.6.4 2017-10-02
Report Run at: December 17, 2017 15:36 EST
"Nutrient data for: 45061111, MARKET PANTRY, CREAM CHEESE SPREAD, PLAIN, UPC: 085239284780"
Food Group:  Branded Food Products Database
Common Name:

Nutrient,Unit,Data points,Std. Error,"2.0 Tbsp = 31.0g",1Value per 100 g,
Proximates
"Energy",kcal,--,--,80,258
"Protein",g,--,--,2.00,6.45
"Total lipid (fat)",g,--,--,7.00,22.58
"Carbohydrate, by difference",g,--,--,2.00,6.45
"Fiber, total dietary",g,--,--,0.0,0.0
"Sugars, total",g,--,--,2.00,6.45
Minerals
"Calcium, Ca",mg,--,--,40,129
"Iron, Fe",mg,--,--,0.00,0.00
"Sodium, Na",mg,--,--,120,387
Vitamins
"Vitamin C, total ascorbic acid",mg,--,--,0.0,0.0
"Vitamin A, IU",IU,--,--,484,1561
Lipids
"Fatty acids, total saturated",g,--,--,4.501,14.520
"Fatty acids, total trans",g,--,--,0.000,0.000
"Cholesterol",mg,--,--,25,81
Amino Acids
Other
Ingredients
"PASTEURIZED, MILK AND CREAM, CHEESE CULTURE, SALT, GUAR GUM, CITRIC ACID, POTASSIUM SORBATE (PRESERVATIVE), CAROB BEAN GUM, XANTHAN GUM." Date available: 07/14/2017 Date last updated by company: 07/14/2017
