Source: USDA Branded Food Products Database Release December 2017 Software v.3.8.6.4 2017-10-02
Report Run at: December 17, 2017 15:49 EST
"Nutrient data for: 45144323, MARKET PANTRY, PUMPKIN SPICE CAKE BITES, UPC: 085239028865"
Food Group:  Branded Food Products Database
Common Name:

Nutrient,Unit,Data points,Std. Error,"2.0 COOKIES = 28.0g",1Value per 100 g,
Proximates
"Energy",kcal,--,--,120,429
"Protein",g,--,--,1.00,3.57
"Total lipid (fat)",g,--,--,5.00,17.86
"Carbohydrate, by difference",g,--,--,17.00,60.71
"Fiber, total dietary",g,--,--,1.0,3.6
"Sugars, total",g,--,--,10.00,35.71
Minerals
"Calcium, Ca",mg,--,--,0,0
"Iron, Fe",mg,--,--,3.21,11.48
"Sodium, Na",mg,--,--,55,196
Vitamins
"Vitamin C, total ascorbic acid",mg,--,--,0.0,0.0
"Vitamin A, IU",IU,--,--,3348,11957
Lipids
"Fatty acids, total saturated",g,--,--,2.999,10.710
"Fatty acids, total trans",g,--,--,0.000,0.000
"Cholesterol",mg,--,--,5,18
Amino Acids
Other
Ingredients
"COATING (SUGAR, PALM KERNEL AND PALM OIL, COCOA POWDER, COCOA POWDER PROCESSED WITH ALKALI, SORBITAN TRISTEARATE, SOY LECITHIN, VANILLA EXTRACT), ENRICHED BLEACHED WHEAT FLOUR (FLOUR, NIACIN, REDUCED IRON, THIAMINE MONONITRATE, RIBOFLAVIN, FOLIC ACID), PUMPKIN, SUGAR, SOYBEAN OIL, EGGS, CONTAINS 2% OR LESS OF: FOOD STARCH-MODIFIED, CANDY CORN CRUNCHLET (SUGAR, CORN SYRUP, CORN FLAKES, WHEAT FLOUR, PALM OIL, NATURAL FLAVOR, YELLOW 6, YELLOW 5, SOY LECITHIN), TOPPING (SUGAR, YELLOW CORN FLOUR, PARTIALLY HYDROGENATED VEGETABLE OIL [COTTONSEED AND/OR SOYBEAN], CINNAMON), SALT, LEAVENING (BAKING SODA, SODIUM ALUMINIUM SULFATE, MONOCALCIUM PHOSPHATE), SPICE, NATURAL FLAVORS, CORN STARCH, WHEY, SODIUM PROPIONATE (PRESERVATIVE), SILICON DIOXIDE." Date available: 07/14/2017 Date last updated by company: 07/14/2017
