Source: USDA Branded Food Products Database Release December 2017 Software v.3.8.6.4 2017-10-02
Report Run at: December 17, 2017 15:55 EST
"Nutrient data for: 45222551, MARKET PANTRY, TOMATO CONDENSED SOUP, UPC: 085239183786"
Food Group:  Branded Food Products Database
Common Name:

Nutrient,Unit,Data points,Std. Error,"0.5 cup = 123.0g",1Value per 100 g,
Proximates
"Energy",kcal,--,--,90,73
"Protein",g,--,--,2.00,1.63
"Total lipid (fat)",g,--,--,0.00,0.00
"Carbohydrate, by difference",g,--,--,20.00,16.26
"Fiber, total dietary",g,--,--,2.0,1.6
"Sugars, total",g,--,--,16.00,13.01
Minerals
"Calcium, Ca",mg,--,--,0,0
"Iron, Fe",mg,--,--,1.44,1.17
"Potassium, K",mg,--,--,370,301
"Sodium, Na",mg,--,--,480,390
Vitamins
"Vitamin C, total ascorbic acid",mg,--,--,107.5,87.4
"Vitamin A, IU",IU,--,--,598,486
Lipids
"Fatty acids, total saturated",g,--,--,0.000,0.000
"Fatty acids, total trans",g,--,--,0.000,0.000
"Cholesterol",mg,--,--,0,0
Amino Acids
Other
Ingredients
"TOMATO PUREE (WATER, TOMATO PASTE), HIGH FRUCTOSE CORN SYRUP, WHEAT FLOUR, WATER, CONTAINS 2% OR LESS OF SALT, POTASSIUM CHLORIDE, CITRIC ACID, ASCORBIC ACID, NATURAL FLAVOR." Date available: 07/14/2017 Date last updated by company: 07/14/2017
