Source: USDA Branded Food Products Database Release December 2017 Software v.3.8.6.4 2017-10-02
Report Run at: December 17, 2017 15:50 EST
"Nutrient data for: 45144326, MARKET PANTRY, RAINBOW CANDY TUB, CHEERY SOURS, RAINBOW STARS, ASSORTED FRUIT FLAVORED SLICES & JELLY BEANS, UPC: 085239035917"
Food Group:  Branded Food Products Database
Common Name:

Nutrient,Unit,Data points,Std. Error,"16.0 PIECES = 40.0g",1Value per 100 g,
Proximates
"Energy",kcal,--,--,156,390
"Protein",g,--,--,0.00,0.00
"Total lipid (fat)",g,--,--,0.00,0.00
"Carbohydrate, by difference",g,--,--,40.00,100.00
"Sugars, total",g,--,--,37.00,92.50
Minerals
"Sodium, Na",mg,--,--,0,0
Vitamins
Lipids
Amino Acids
Other
Ingredients
"CHERRY SOURS: DEXTROSE, CORN SYRUP, SUGAR, MODIFIED AND UNMODIFIED CORN STARCH, MALIC ACID, TAPIOCA DEXTRIN, ARTIFICIAL FLAVOR, CONFECTIONERY GLAZE, CITRIC ACID, POLISHING WAX (CARNAUBA WAX, WHITE MINERAL OIL, BEESWAX), ARTIFICIAL COLOR (RED 40). RAINBOW STARS: DEXTROSE, MALTODEXTRIN, CALCIUM STEARATE, MALIC ACID, RESINOUS GLAZE, NATURAL AND ARTIFICIAL FLAVORS, TAPIOCA DEXTRIN, CARNAUBA WAX, ARTIFICIAL COLORS (YELLOW 5, YELLOW 6, YELLOW 5 LAKE, RED 40, RED 40 LAKE, BLUE 1, BLUE 1 LAKE). JELLY BEANS: SUGAR, CORN SYRUP, MODIFIED AND UNMODIFIED CORN STARCH, NATURAL AND ARTIFICIAL FLAVORS, POLISHING WAX (CARNAUBA WAX, WHITE MINERAL OIL, BEESWAX), CONFECTIONERY GLAZE, ARTIFICIAL COLORS (YELLOW 5, YELLOW 6, RED 40, BLUE 1, RED 3), FRUIT-FLAVORED SLICES: SUGAR, CORN SYRUP, MODIFIED FOOD STARCH, CITRIC ACID, SODIUM CITRATE, NATURAL AND ARTIFICIAL FLAVORS, ARTIFICIAL COLORS (RED 40, YELLOW 5, YELLOW 6, BLUE 1)." Date available: 09/23/2016 Date last updated by company: 09/23/2016
