Source: USDA Branded Food Products Database Release December 2017 Software v.3.8.6.4 2017-10-02
Report Run at: December 17, 2017 15:40 EST
"Nutrient data for: 45226950, MARKET PANTRY, FINELY SHREDDED PARMESAN CHEESE, UPC: 085239118580"
Food Group:  Branded Food Products Database
Common Name:

Nutrient,Unit,Data points,Std. Error,"0.33 cup = 28.0g",1Value per 100 g,
Proximates
"Energy",kcal,--,--,110,393
"Protein",g,--,--,10.00,35.71
"Total lipid (fat)",g,--,--,7.00,25.00
"Carbohydrate, by difference",g,--,--,1.00,3.57
"Fiber, total dietary",g,--,--,0.0,0.0
"Sugars, total",g,--,--,0.00,0.00
Minerals
"Calcium, Ca",mg,--,--,300,1071
"Iron, Fe",mg,--,--,0.00,0.00
"Sodium, Na",mg,--,--,340,1214
Vitamins
"Vitamin C, total ascorbic acid",mg,--,--,0.0,0.0
"Vitamin A, IU",IU,--,--,357,1275
Lipids
"Fatty acids, total saturated",g,--,--,4.001,14.290
"Fatty acids, total trans",g,--,--,0.000,0.000
"Cholesterol",mg,--,--,20,71
Amino Acids
Other
Ingredients
"PARMESAN CHEESE (PASTEURIZED PART-SKIM MILK, CHEESE CULTURE, SALT, ENZYMES), POTATO STARCH, CORN STARCH AND POWDERED CELLULOSE TO PREVENT CAKING, NATAMYCIN (MOLD INHIBITOR)." Date available: 07/14/2017 Date last updated by company: 07/14/2017
