Source: USDA Branded Food Products Database Release December 2017 Software v.3.8.6.4 2017-10-02
Report Run at: December 17, 2017 15:34 EST
"Nutrient data for: 45177457, MARKET PANTRY, CHOCOLATE MINI CUPCAKES, UPC: 085239018019"
Food Group:  Branded Food Products Database
Common Name:

Nutrient,Unit,Data points,Std. Error,"3.0 CUPCAKES = 75.0g",1Value per 100 g,
Proximates
"Energy",kcal,--,--,320,427
"Protein",g,--,--,2.00,2.67
"Total lipid (fat)",g,--,--,17.00,22.67
"Carbohydrate, by difference",g,--,--,42.00,56.00
"Fiber, total dietary",g,--,--,1.0,1.3
"Sugars, total",g,--,--,35.00,46.67
Minerals
"Calcium, Ca",mg,--,--,20,27
"Iron, Fe",mg,--,--,1.16,1.54
"Sodium, Na",mg,--,--,180,240
Vitamins
"Vitamin C, total ascorbic acid",mg,--,--,0.0,0.0
"Vitamin A, IU",IU,--,--,0,0
Lipids
"Fatty acids, total saturated",g,--,--,5.003,6.670
"Fatty acids, total trans",g,--,--,0.000,0.000
"Cholesterol",mg,--,--,25,33
Amino Acids
Other
Ingredients
"CAKE: SUGAR, WATER BLEACHED ENRICHED WHEAT FLOUR (WHEAT FLOUR, NIACIN, REDUCED IRON, THIAMINE MONONITRATE, RIBOFLAVIN, FOLIC ACID), EGG, SOYBEAN AND CANOLA OIL, COCOA POWDER PROCESSED WITH ALKALI, MODIFIED CORN STARCH, WHEY POWDER, LEAVENING (SODIUM ACID PYROPHOSPHATE, SODIUM BICARBONATE, CORN STARCH, MONOCALCIUM PHOSPHATE, CALCIUM SULFATE), SOY LECITHIN, WHEAT GLUTEN, SALT, DATEM, ARTIFICIAL FLAVOR. ICING: ICING SUGAR, SHORTENING (CANOLA, PALM, MODIFIED PALM AND PALM KERNEL OIL), GLUCOSE, WATER, SKIM MILK POWDER, BUTTER (CREAM, SALT), RED 40, MONO AND DIGLYCERIDES, ARTIFICIAL FLAVOR, SALT, POLYSORBATE 60. SPRINKLES: SUGAR, MODIFIED CORN STARCH, PALM KERNEL OIL, CORN STARCH, PALM KERNEL OIL, CORN STARCH, ARTIFICIAL OIL, CORN STARCH, ARTIFICIAL FLAVOR, GUM ARABICA, SOY LECITHIN, CONFECTIONER'S GLAZE, BLUE 1, YELLOW 5, POLYSORBATE 60." Date available: 07/14/2017 Date last updated by company: 07/14/2017
