Source: USDA Branded Food Products Database Release December 2017 Software v.3.8.6.4 2017-10-02
Report Run at: December 17, 2017 15:49 EST
"Nutrient data for: 45227004, MARKET PANTRY, POPCORN CHICKEN, UPC: 085239501245"
Food Group:  Branded Food Products Database
Common Name:

Nutrient,Unit,Data points,Std. Error,"3.0 ONZ = 84.0g",1Value per 100 g,
Proximates
"Energy",kcal,--,--,190,226
"Protein",g,--,--,14.00,16.67
"Total lipid (fat)",g,--,--,8.00,9.52
"Carbohydrate, by difference",g,--,--,14.00,16.67
"Fiber, total dietary",g,--,--,1.0,1.2
"Sugars, total",g,--,--,0.00,0.00
Minerals
"Calcium, Ca",mg,--,--,0,0
"Iron, Fe",mg,--,--,0.73,0.87
"Sodium, Na",mg,--,--,590,702
Vitamins
"Vitamin C, total ascorbic acid",mg,--,--,0.0,0.0
"Vitamin A, IU",IU,--,--,0,0
Lipids
"Fatty acids, total saturated",g,--,--,1.504,1.790
"Fatty acids, total monounsaturated",g,--,--,2.999,3.570
"Fatty acids, total polyunsaturated",g,--,--,3.998,4.760
"Fatty acids, total trans",g,--,--,0.000,0.000
"Cholesterol",mg,--,--,35,42
Amino Acids
Other
Ingredients
"BONELESS, SKINLESS CHICKEN BREAST CHUNKS WITH RIB MEAT, WATER, WHEAT FLOUR, CONTAINS 2% OR LESS OF THE FOLLOWING: BUTTERMILK POWDER, DEXTROSE, EXTRACTIVES OF PAPRIKA, OIL OF GARLIC, SALT, SODIUM PHOSPHATES, SPICES, YELLOW CORN FLOUR. BEADING SET IN VEGETABLE OIL." Date available: 07/14/2017 Date last updated by company: 07/14/2017
