Source: USDA Branded Food Products Database Release December 2017 Software v.3.8.6.4 2017-10-02
Report Run at: December 17, 2017 15:29 EST
"Nutrient data for: 45163091, MARKET DISTRICT, COFFEE, UPC: 030034096670"
Food Group:  Branded Food Products Database
Common Name:

Nutrient,Unit,Data points,Std. Error,"8.0 OZA = 237.0g",1Value per 100 g,
Proximates
"Energy",kcal,--,--,19,8
"Protein",g,--,--,1.00,0.42
"Total lipid (fat)",g,--,--,0.00,0.00
"Carbohydrate, by difference",g,--,--,9.01,3.80
"Sugars, total",g,--,--,1.99,0.84
Minerals
"Calcium, Ca",mg,--,--,19,8
"Iron, Fe",mg,--,--,0.00,0.00
"Sodium, Na",mg,--,--,5,2
Vitamins
"Vitamin C, total ascorbic acid",mg,--,--,0.0,0.0
"Vitamin A, IU",IU,--,--,0,0
Lipids
"Fatty acids, total saturated",g,--,--,0.000,0.000
"Fatty acids, total trans",g,--,--,0.000,0.000
"Cholesterol",mg,--,--,0,0
Amino Acids
Other
Ingredients
"ORGANIC COFFEE CONCENTRATE, WATER, ERYTHRITOL, SUGAR, MONK FRUIT EXTRACT, POTASSIUM PHOSPHATES." Date available: 09/13/2017 Date last updated by company: 09/13/2017
