Source: USDA Branded Food Products Database Release December 2017 Software v.3.8.6.4 2017-10-02
Report Run at: December 17, 2017 15:40 EST
"Nutrient data for: 45092655, MARKET PANTRY, FRUIT SNACKS, MIXED FRUIT, UPC: 085239201701"
Food Group:  Branded Food Products Database
Common Name:

Nutrient,Unit,Data points,Std. Error,"1 POUCH = 26.0g",1Value per 100 g,
Proximates
"Energy",kcal,--,--,80,308
"Protein",g,--,--,1.00,3.85
"Total lipid (fat)",g,--,--,0.00,0.00
"Carbohydrate, by difference",g,--,--,19.00,73.08
"Sugars, total",g,--,--,13.00,50.00
Minerals
"Sodium, Na",mg,--,--,30,115
Vitamins
"Vitamin C, total ascorbic acid",mg,--,--,92.3,355.0
Lipids
Amino Acids
Other
Ingredients
"CORN SYRUP, SUGAR, APPLE JUICE CONCENTRATE, MODIFIED CORN STARCH, GELATIN (PORK), SORBITOL, CITRIC ACID, NATURAL AND ARTIFICIAL FLAVORS, SODIUM ASCORBATE (VITAMIN C), SODIUM CITRATE, ASCORBIC ACID (VITAMIN C), WHITE MINERAL OIL, CARNAUBA WAX, RED 40, YELLOW 6, BLUE 1." Date available: 10/17/2017 Date last updated by company: 10/17/2017
