Source: USDA Branded Food Products Database Release December 2017 Software v.3.8.6.4 2017-10-02
Report Run at: December 17, 2017 15:55 EST
"Nutrient data for: 45105412, MARKET PANTRY, TACO SEASONING MIX, UPC: 085239262023"
Food Group:  Branded Food Products Database
Common Name:

Nutrient,Unit,Data points,Std. Error,"1 Tbsp = 6.0g",1Value per 100 g,
Proximates
"Energy",kcal,--,--,20,333
"Protein",g,--,--,0.00,0.00
"Total lipid (fat)",g,--,--,0.00,0.00
"Carbohydrate, by difference",g,--,--,4.00,66.67
"Fiber, total dietary",g,--,--,1.0,16.7
"Sugars, total",g,--,--,0.00,0.00
Minerals
"Calcium, Ca",mg,--,--,0,0
"Iron, Fe",mg,--,--,6.00,99.99
"Sodium, Na",mg,--,--,260,4333
Vitamins
"Vitamin C, total ascorbic acid",mg,--,--,0.0,0.0
"Vitamin A, IU",IU,--,--,3333,55558
Lipids
"Fatty acids, total saturated",g,--,--,0.000,0.000
"Fatty acids, total trans",g,--,--,0.000,0.000
"Cholesterol",mg,--,--,0,0
Amino Acids
Other
Ingredients
"YELLOW CORN FLOUR, MALTODEXTRIN, PAPRIKA, SPICES, SALT, MODIFIED CORN STARCH, ANCHO CHILI PEPPER, GARLIC POWDER, CITRIC ACID, CARAMEL COLOR, YEAST EXTRACT, ONION POWDER, SILICON DIOXIDE." Date available: 07/14/2017 Date last updated by company: 07/14/2017
