Source: USDA Branded Food Products Database Release December 2017 Software v.3.8.6.4 2017-10-02
Report Run at: December 17, 2017 16:09 EST
"Nutrient data for: 45241724, MARLEY'S, MELLOW MOOD, GREEN TEA WITH HONEY, UPC: 857741002028"
Food Group:  Branded Food Products Database
Common Name:

Nutrient,Unit,Data points,Std. Error,"8.0 OZA = 236.0g",1Value per 100 g,
Proximates
"Energy",kcal,--,--,50,21
"Protein",g,--,--,0.00,0.00
"Total lipid (fat)",g,--,--,0.00,0.00
"Carbohydrate, by difference",g,--,--,15.01,6.36
"Sugars, total",g,--,--,13.99,5.93
Minerals
"Sodium, Na",mg,--,--,26,11
Vitamins
Lipids
Amino Acids
Other
Ingredients
"PREMIUM BREWED DECAFFEINATED GREEN TEA USING TRIPLE FILTERED WATER, PURE CANE SUGAR, HONEY, NATURAL FLAVOR, SODIUM CITRATE, CITRIC ACID, CHAMOMILE EXTRACT, LEMON BALM EXTRACT, VALERIAN ROOT EXTRACT, HOPS EXTRACT, PASSIONFLOWER EXTRACT." Date available: 06/25/2017 Date last updated by company: 06/25/2017
