Source: USDA Branded Food Products Database Release December 2017 Software v.3.8.6.4 2017-10-02
Report Run at: December 17, 2017 16:16 EST
"Nutrient data for: 45112274, MARSHMALLOW PIES, UPC: 024300041112"
Food Group:  Branded Food Products Database
Common Name:

Nutrient,Unit,Data points,Std. Error,"1 COOKIE = 43.0g",1Value per 100 g,
Proximates
"Energy",kcal,--,--,180,419
"Protein",g,--,--,2.00,4.65
"Total lipid (fat)",g,--,--,7.00,16.28
"Carbohydrate, by difference",g,--,--,28.00,65.12
"Fiber, total dietary",g,--,--,0.0,0.0
"Sugars, total",g,--,--,15.00,34.88
Minerals
"Calcium, Ca",mg,--,--,0,0
"Iron, Fe",mg,--,--,0.84,1.95
"Potassium, K",mg,--,--,60,140
"Sodium, Na",mg,--,--,105,244
Vitamins
"Vitamin C, total ascorbic acid",mg,--,--,0.0,0.0
"Vitamin A, IU",IU,--,--,0,0
Lipids
"Fatty acids, total saturated",g,--,--,3.999,9.300
"Fatty acids, total monounsaturated",g,--,--,1.501,3.490
"Fatty acids, total polyunsaturated",g,--,--,0.499,1.160
"Fatty acids, total trans",g,--,--,0.000,0.000
"Cholesterol",mg,--,--,0,0
Amino Acids
Other
Ingredients
"ENRICHED BLEACHED FLOUR (WHEAT FLOUR, NIACIN, REDUCED IRON, THIAMIN MONONITRATE [VITAMIN B1], RIBOFLAVIN [VITAMIN B2], FOLIC ACID), SUGAR, CORN SYRUP, WATER, PALM AND PALM KERNEL OIL, PALM AND SOYBEAN OILS WITH TBHQ AND CITRIC ACID TO PROTECT FLAVOR, COCOA, INVERT SUGAR. CONTAINS 2% OR LESS OF EACH OF THE FOLLOWING: SOY FLOUR, BARLEY MALT EXTRACT, LEAVENING (BAKING SODA, SODIUM ALUMINUM PHOSPHATE), KOSHER GELATIN, NONFAT DRY MILK, CORN STARCH, MODIFIED TAPIOCA AND CORN STARCH, SALT, DATEM, ANNATTO EXTRACT (COLOR), SOY LECITHIN, MONO- AND DIGLYCERIDES, NATURAL AND ARTIFICIAL FLAVORS, SPICE, WHEY, EGG WHITES, SOYBEAN OIL." Date available: 07/14/2017 Date last updated by company: 07/14/2017
