Source: USDA Branded Food Products Database Release December 2017 Software v.3.8.6.4 2017-10-02
Report Run at: December 17, 2017 16:15 EST
"Nutrient data for: 45165000, MARSHMALLOW EGG COVERED IN MILK CHOCOLATE, UPC: 077260063700"
Food Group:  Branded Food Products Database
Common Name:

Nutrient,Unit,Data points,Std. Error,"1 EGG = 35.0g",1Value per 100 g,
Proximates
"Energy",kcal,--,--,140,400
"Protein",g,--,--,1.00,2.86
"Total lipid (fat)",g,--,--,4.00,11.43
"Carbohydrate, by difference",g,--,--,25.00,71.43
"Fiber, total dietary",g,--,--,1.0,2.9
"Sugars, total",g,--,--,18.00,51.43
Minerals
"Calcium, Ca",mg,--,--,20,57
"Iron, Fe",mg,--,--,0.51,1.47
"Sodium, Na",mg,--,--,40,114
Vitamins
"Vitamin C, total ascorbic acid",mg,--,--,0.0,0.0
"Vitamin A, IU",IU,--,--,0,0
Lipids
"Fatty acids, total saturated",g,--,--,2.499,7.140
"Fatty acids, total trans",g,--,--,0.000,0.000
"Cholesterol",mg,--,--,0,0
Amino Acids
Other
Ingredients
"INGREDIENTS CONSIST OF MILK CHOCOLATE {SUGAR, WHOLE MILK, COCOA BUTTER, CHOCOLATE, SOY LECITHIN (AN EMULSIFIER), VANILLIN (AN ARTIFICIAL FLAVOR)}, CORN SYRUP, SUGAR, INVERT SUGAR, SORBITOL, GELATIN, SALT, NATURAL FLAVOR, AND PHOSPHATES. 6370-102" Date available: 07/14/2017 Date last updated by company: 07/14/2017
