Source: USDA Branded Food Products Database Release December 2017 Software v.3.8.6.4 2017-10-02
Report Run at: December 17, 2017 16:21 EST
"Nutrient data for: 45234962, MARTINELLI'S, 100% PURE CIDER, UPC: 041244001514"
Food Group:  Branded Food Products Database
Common Name:

Nutrient,Unit,Data points,Std. Error,"8.0 fl oz = 240.0g",1Value per 100 g,
Proximates
"Energy",kcal,--,--,139,58
"Protein",g,--,--,1.01,0.42
"Total lipid (fat)",g,--,--,0.00,0.00
"Carbohydrate, by difference",g,--,--,34.99,14.58
"Fiber, total dietary",g,--,--,0.0,0.0
"Sugars, total",g,--,--,31.01,12.92
Minerals
"Calcium, Ca",mg,--,--,0,0
"Iron, Fe",mg,--,--,0.00,0.00
"Potassium, K",mg,--,--,120,50
"Sodium, Na",mg,--,--,0,0
Vitamins
"Vitamin C, total ascorbic acid",mg,--,--,1.2,0.5
"Riboflavin",mg,--,--,0.137,0.057
"Niacin",mg,--,--,1.601,0.667
"Vitamin A, IU",IU,--,--,0,0
Lipids
"Fatty acids, total saturated",g,--,--,0.000,0.000
"Fatty acids, total trans",g,--,--,0.000,0.000
"Cholesterol",mg,--,--,0,0
Amino Acids
Other
Ingredients
"PASTEURIZED 100% PURE APPLE JUICE FROM U.S. GROWN APPLES." Date available: 09/23/2016 Date last updated by company: 09/23/2016
