Source: USDA Branded Food Products Database Release December 2017 Software v.3.8.6.4 2017-10-02
Report Run at: December 17, 2017 16:23 EST
"Nutrient data for: 45196296, MARUCHAN, SPICY MISO RAMEN NOODLE SOUP, MISO CHICKEN, UPC: 041789003523"
Food Group:  Branded Food Products Database
Common Name:

Nutrient,Unit,Data points,Std. Error,"0.5 CONTAINER = 48.0g",1Value per 100 g,
Proximates
"Energy",kcal,--,--,220,458
"Protein",g,--,--,5.00,10.42
"Total lipid (fat)",g,--,--,10.00,20.83
"Carbohydrate, by difference",g,--,--,28.00,58.33
"Fiber, total dietary",g,--,--,2.0,4.2
"Sugars, total",g,--,--,3.00,6.25
Minerals
"Calcium, Ca",mg,--,--,20,42
"Iron, Fe",mg,--,--,9.19,19.14
"Sodium, Na",mg,--,--,920,1917
Vitamins
"Vitamin C, total ascorbic acid",mg,--,--,6.1,12.8
"Vitamin A, IU",IU,--,--,511,1064
Lipids
"Fatty acids, total saturated",g,--,--,4.502,9.380
"Fatty acids, total trans",g,--,--,0.000,0.000
"Cholesterol",mg,--,--,0,0
Amino Acids
Other
Ingredients
"ENRICHED WHEAT FLOUR (WHEAT FLOUR, NIACIN, REDUCED IRON, THIAMINE MONONITRATE, RIBOFLAVIN, FOLIC ACID), VEGETABLE OIL (CONTAINS ONE OR MORE OF THE FOLLOWING: CANOLA, COTTONSEED, PALM) PRESERVED BY TBHQ, DEHYDRATED VEGETABLES (RED BELL PEPPER, CORN, GARLIC, ONION, CHIVE), SALT, MALTODEXTRIN, MISO POWDER (SOYBEANS, WHEAT, RICE, SALT), CONTAINS LESS THAN 2% OF: MONOSODIUM GLUTAMATE, DEHYDRATED SOY SAUCE (WHEAT, SOYBEANS, SALT), TEXTURED SOY PROTEIN, SUGAR, POWDERED COOKED CHICKEN, CHILI AND OTHER SPICES, CHICKEN FAT, HYDROLYZED CORN, WHEAT AND SOY PROTEIN, POTASSIUM CARBONATE, CARAMEL COLOR, POWDERED CREAM SUBSTITUTE (PALM OIL, CORN SYRUP SOLIDS, SODIUM CASEINATE [MILK DERIVATIVE], MONO AND DIGLYCERIDES), SODIUM (MONO, HEXAMETA, AND/OR TRIPOLY) PHOSPHATE, SODIUM CARBONATE, DISODIUM GUANYLATE, DISODIUM INOSINATE, SILICON DIOXIDE (ANTI-CAKING AGENT), YEAST EXTRACT, NATURAL AND ARTIFICIAL FLAVOR, CHICKEN BROTH, SOYA LECITHIN, TURMERIC." Date available: 07/14/2017 Date last updated by company: 07/14/2017
