Source: USDA Branded Food Products Database Release December 2017 Software v.3.8.6.4 2017-10-02
Report Run at: December 17, 2017 16:25 EST
"Nutrient data for: 45222653, MARVEL, AVENGERS VALENTINE CANDY CARE KIT, UPC: 041376507557"
Food Group:  Branded Food Products Database
Common Name:

Nutrient,Unit,Data points,Std. Error,"2.0 POPS = 14.0g",1Value per 100 g,
Proximates
"Energy",kcal,--,--,60,429
"Protein",g,--,--,0.00,0.00
"Total lipid (fat)",g,--,--,0.00,0.00
"Carbohydrate, by difference",g,--,--,14.00,100.00
"Sugars, total",g,--,--,12.00,85.71
Minerals
"Sodium, Na",mg,--,--,0,0
Vitamins
Lipids
Amino Acids
Other
Ingredients
"SUGAR, GLUCOSE SYRUP, CITRIC ACID, ARTIFICIAL FLAVOR, ARTIFICIAL COLORS (RED 40, TITANIUM DIOXIDE)." Date available: 07/14/2017 Date last updated by company: 07/14/2017
