Source: USDA Branded Food Products Database Release December 2017 Software v.3.8.6.4 2017-10-02
Report Run at: December 17, 2017 16:27 EST
"Nutrient data for: 45326931, MARY'S CHILI VERDE, UPC: 037600790796"
Food Group:  Branded Food Products Database
Common Name:

Nutrient,Unit,Data points,Std. Error,"1 cup = 247.0g",1Value per 100 g,
Proximates
"Energy",kcal,--,--,321,130
"Protein",g,--,--,18.01,7.29
"Total lipid (fat)",g,--,--,16.99,6.88
"Carbohydrate, by difference",g,--,--,23.00,9.31
"Fiber, total dietary",g,--,--,5.9,2.4
"Sugars, total",g,--,--,4.99,2.02
Minerals
"Calcium, Ca",mg,--,--,104,42
"Iron, Fe",mg,--,--,1.80,0.73
"Potassium, K",mg,--,--,469,190
"Sodium, Na",mg,--,--,1020,413
Vitamins
"Vitamin D",IU,--,--,0,0
Lipids
"Fatty acids, total saturated",g,--,--,6.002,2.430
"Fatty acids, total trans",g,--,--,0.000,0.000
"Cholesterol",mg,--,--,44,18
Amino Acids
Other
Ingredients
"PORK, GREEN ANAHEIM PEPPERS, NAVY BEANS, CHICKEN BROTH (WATER, ROASTED CHICKEN STOCK, YEAST EXTRACT, CHICKEN FAT, CANE SUGAR, SALT, DRIED CHICKEN, NATURAL FLAVOR, CHICKEN FLAVOR, MALTODEXTRIN, FLAVOR), ONIONS, TOMATILLOS (CONTAINS CITRIC ACID), JALAPENO PEPPERS, GARLIC PUREE (GARLIC, CANE SUGAR, SEA SALT), SERRANO PEPPERS, CONTAINS 2% OR LESS OF CREAM (MILK), SALT, CORNSTARCH, SPICES, LIME JUICE CONCENTRATE, CILANTRO, SUGAR, WHITE VINEGAR, OLIVE OIL, XANTHAN GUM, FLAVORING." Date available: 10/13/2017 Date last updated by company: 10/13/2017
