Source: USDA Branded Food Products Database Release December 2017 Software v.3.8.6.4 2017-10-02
Report Run at: December 17, 2017 16:33 EST
"Nutrient data for: 45126777, MASHED POTATOES, UPC: 075900006179"
Food Group:  Branded Food Products Database
Common Name:

Nutrient,Unit,Data points,Std. Error,"0.5 cup = 140.0g",1Value per 100 g,
Proximates
"Energy",kcal,--,--,169,121
"Protein",g,--,--,4.00,2.86
"Total lipid (fat)",g,--,--,7.99,5.71
"Carbohydrate, by difference",g,--,--,21.00,15.00
"Fiber, total dietary",g,--,--,2.0,1.4
"Sugars, total",g,--,--,2.00,1.43
Minerals
"Calcium, Ca",mg,--,--,41,29
"Iron, Fe",mg,--,--,0.36,0.26
"Sodium, Na",mg,--,--,430,307
Vitamins
"Vitamin C, total ascorbic acid",mg,--,--,9.0,6.4
"Vitamin A, IU",IU,--,--,200,143
Lipids
"Fatty acids, total saturated",g,--,--,4.004,2.860
"Fatty acids, total trans",g,--,--,0.000,0.000
"Cholesterol",mg,--,--,25,18
Amino Acids
Other
Ingredients
"POTATOES, MILK, BUTTER (CREAM, SALT), MARGARINE (SOYBEAN OIL, WATER, SALT, WHEY SOLIDS, HYDROGENATED COTTONSEED OIL, VEGETABLE MONO AND DIGLYCERIDES, SOY LECITHIN, SODIUM BENZOATE [PRESERVATIVE], CITRIC ACID, ARTIFICIAL FLAVOR, VITAMIN A PALMITATE ADDED), DIACETYL TARTARIC ACID OF ESTER OF MONO AND DIGLYCERIDES, CALCIUM SILICATE [ANTICAKING AGENT]), SOUR CREAM (CULTURED CREAM, SKIM MILK, MODIFIED FOOD CORN STARCH, WHEY POWDER, GUAR GUM, LOCUST BEAN GUM, SODIUM CITRATE, POTASSIUM SORBATE [PRESERVATIVE], CARRAGEENAN), ONION, WATER, CONTAINS LESS THAN 2% OF THE FOLLOWING: PEPPER JACK CHEESE (PASTEURIZED MILK, JALAPENO PEPPERS, CHEESE CULTURE, SALT, ENZYMES), BACON BITS (PORK CURED WITH WATER, SALT, SUGAR, SODIUM ASCORBATE, SODIUM NITRITE), SUN DRIED TOMATOES (TOMATOES, SALT), SEASONING (SPICE, MALTODEXTRIN, PALM OIL, SALT, BEEF STOCK POWDER, NATURAL & ARTIFICIAL FLAVOR, SAFFLOWER OIL, NATURAL SMOKE FLAVOR, POLYSORBATE 80 [EMULSIFIER]), SALT, CHIVES, SODIUM ACID PYROPHOSPHATE, PRESERVATIVE BLEND (ARTIFICIAL COLOR, POTASSIUM SORBATE, SALT, AND SOYBEAN OIL)." Date available: 07/14/2017 Date last updated by company: 07/14/2017
