Source: USDA Branded Food Products Database Release December 2017 Software v.3.8.6.4 2017-10-02
Report Run at: December 17, 2017 16:35 EST
"Nutrient data for: 45197601, MASHED POTATOES, UPC: 071923522078"
Food Group:  Branded Food Products Database
Common Name:

Nutrient,Unit,Data points,Std. Error,"0.5 CUP PREPARED | ABOUT = 28.0g",1Value per 100 g,
Proximates
"Energy",kcal,--,--,110,393
"Protein",g,--,--,2.00,7.14
"Total lipid (fat)",g,--,--,2.00,7.14
"Carbohydrate, by difference",g,--,--,20.00,71.43
"Fiber, total dietary",g,--,--,1.0,3.6
"Sugars, total",g,--,--,2.00,7.14
Minerals
"Calcium, Ca",mg,--,--,40,143
"Iron, Fe",mg,--,--,0.00,0.00
"Sodium, Na",mg,--,--,530,1893
Vitamins
"Vitamin C, total ascorbic acid",mg,--,--,12.0,42.9
"Vitamin A, IU",IU,--,--,0,0
Lipids
"Fatty acids, total saturated",g,--,--,1.501,5.360
"Fatty acids, total trans",g,--,--,0.000,0.000
"Cholesterol",mg,--,--,5,18
Amino Acids
Other
Ingredients
"DEHYDRATED POTATO WITH EMULSIFIER (MONO-AND DIGLYCERIDES) AND PRESERVATIVE (SODIUM ACID PYROPHOSPHATE, SODIUM BISULFITE, CITRIC ACID), BUTTER (CREAM, SALT), NONFAT MILK, SALT, MALTODEXTRIN, WHEY, NATURAL FLAVOR, MODIFIED CORN STARCH, DEHYDRATED ONION, LACTIC ACID, CALCIUM SILICATE, SPICE, DISODIUM INOSINATE, DISODIUM GUANYLATE, COLOR (TURMERIC), PRESERVATIVE (BHT)" Date available: 07/14/2017 Date last updated by company: 07/14/2017
