Source: USDA Branded Food Products Database Release December 2017 Software v.3.8.6.4 2017-10-02
Report Run at: December 17, 2017 16:40 EST
"Nutrient data for: 45288872, MATCHA LATTE, UPC: 4710095808691"
Food Group:  Branded Food Products Database
Common Name:

Nutrient,Unit,Data points,Std. Error,"1 SACHET = 20.0g",1Value per 100 g,
Proximates
"Energy",kcal,--,--,90,450
"Protein",g,--,--,0.00,0.00
"Total lipid (fat)",g,--,--,2.50,12.50
"Carbohydrate, by difference",g,--,--,17.00,85.00
"Fiber, total dietary",g,--,--,0.0,0.0
"Sugars, total",g,--,--,13.00,65.00
Minerals
"Calcium, Ca",mg,--,--,0,0
"Iron, Fe",mg,--,--,0.00,0.00
"Potassium, K",mg,--,--,0,0
"Sodium, Na",mg,--,--,0,0
Vitamins
Lipids
"Fatty acids, total saturated",g,--,--,2.500,12.500
"Fatty acids, total trans",g,--,--,0.000,0.000
"Cholesterol",mg,--,--,0,0
Amino Acids
Other
Ingredients
"SUGAR, CREAMER [CORN SYRUP SOLID, HYDROGENATED COCONUT OIL, SODIUM CASEINATE (A MILK DERIVATIVE), POTASSIUM PHOSPHATE DIBASIC, SODIUM SILICOALUMINATE, GLYCERYL MONOOLEATE, POTASSIUM POLYMETAPHOSPHATE, SODIUM STEAROYL LACTYLATE, COLORANT (ANNATTO AND TURMERIC)], GREEN TEA POWDER" Date available: 07/14/2017 Date last updated by company: 07/14/2017
