Source: USDA Branded Food Products Database Release December 2017 Software v.3.8.6.4 2017-10-02
Report Run at: December 17, 2017 16:41 EST
"Nutrient data for: 45088903, MATERNE, GOGO SQUEEZ, APPLESAUCE ON THE GO, APPLE BANANA, UPC: 848860001139"
Food Group:  Branded Food Products Database
Common Name:

Nutrient,Unit,Data points,Std. Error,"90.0 g = 90.0g",1Value per 100 g,
Proximates
"Energy",kcal,--,--,60,67
"Protein",g,--,--,0.00,0.00
"Total lipid (fat)",g,--,--,0.00,0.00
"Carbohydrate, by difference",g,--,--,15.00,16.67
"Fiber, total dietary",g,--,--,1.0,1.1
"Sugars, total",g,--,--,11.00,12.22
Minerals
"Sodium, Na",mg,--,--,0,0
Vitamins
Lipids
Amino Acids
Other
Ingredients
"APPLE, BANANA, APPLE JUICE CONCENTRATE , LEMON JUICE CONCENTRATE." Date last updated by company: 03/25/2016
