Source: USDA Branded Food Products Database Release December 2017 Software v.3.8.6.4 2017-10-02
Report Run at: December 17, 2017 16:48 EST
"Nutrient data for: 45227615, MAUNA LOA, DARK CHOCOLATE MACADAMIAS, UPC: 072992055757"
Food Group:  Branded Food Products Database
Common Name:

Nutrient,Unit,Data points,Std. Error,"0.25 cup = 38.0g",1Value per 100 g,
Proximates
"Energy",kcal,--,--,200,526
"Protein",g,--,--,2.00,5.26
"Total lipid (fat)",g,--,--,14.00,36.84
"Carbohydrate, by difference",g,--,--,21.00,55.26
"Fiber, total dietary",g,--,--,2.0,5.3
"Sugars, total",g,--,--,17.00,44.74
Minerals
"Calcium, Ca",mg,--,--,0,0
"Iron, Fe",mg,--,--,2.37,6.23
"Sodium, Na",mg,--,--,5,13
Vitamins
"Vitamin C, total ascorbic acid",mg,--,--,0.0,0.0
"Vitamin A, IU",IU,--,--,0,0
Lipids
"Fatty acids, total saturated",g,--,--,6.000,15.790
"Fatty acids, total monounsaturated",g,--,--,2.998,7.890
"Fatty acids, total polyunsaturated",g,--,--,0.000,0.000
"Fatty acids, total trans",g,--,--,0.000,0.000
"Cholesterol",mg,--,--,0,0
Amino Acids
Other
Ingredients
"SEMI-SWEET CHOCOLATE [SUGAR, CHOCOLATE, COCOA BUTTER, MILK FAT, SOY LECITHIN (EMULSIFIER), VANILLIN (ARTIFICIAL FLAVOR), SALT, MILK], MACADAMIA NUTS, SUGAR, CONTAINS 2% OR LESS OF DEXTRIN, RESINOUS GLAZE, HIGH MALTOSE CORN SYRUP, CORNSTARCH." Date available: 07/14/2017 Date last updated by company: 07/14/2017
