Source: USDA Branded Food Products Database Release December 2017 Software v.3.8.6.4 2017-10-02
Report Run at: December 17, 2017 16:50 EST
"Nutrient data for: 45147530, MAXINE'S HEAVENLY, OATMEAL CHOCOLATE CHIP, UPC: 853026005012"
Food Group:  Branded Food Products Database
Common Name:

Nutrient,Unit,Data points,Std. Error,"1 COOKIE = 28.0g",1Value per 100 g,
Proximates
"Energy",kcal,--,--,130,464
"Protein",g,--,--,2.00,7.14
"Total lipid (fat)",g,--,--,6.00,21.43
"Carbohydrate, by difference",g,--,--,16.00,57.14
"Fiber, total dietary",g,--,--,1.0,3.6
"Sugars, total",g,--,--,7.00,25.00
Minerals
"Calcium, Ca",mg,--,--,20,71
"Iron, Fe",mg,--,--,1.29,4.59
"Magnesium, Mg",mg,--,--,14,51
"Phosphorus, P",mg,--,--,107,382
"Potassium, K",mg,--,--,55,196
"Sodium, Na",mg,--,--,70,250
Vitamins
"Vitamin C, total ascorbic acid",mg,--,--,2.2,7.7
"Riboflavin",mg,--,--,0.000,0.000
"Niacin",mg,--,--,0.714,2.550
"Vitamin A, IU",IU,--,--,0,0
Lipids
"Fatty acids, total saturated",g,--,--,1.000,3.570
"Fatty acids, total trans",g,--,--,0.000,0.000
"Cholesterol",mg,--,--,0,0
Amino Acids
Other
Ingredients
"GLUTEN FREE OATS (OATS*, OAT FLOUR), SEMI-SWEET CHOCOLATE (EVAPORATED CANE JUICE, NATURAL CHOCOLATE LIQUOR, NON-DAIRY COCOA BUTTER), COCONUT PALM SUGAR*, BROWN RICE FLOUR*, PALM FRUIT OIL*, FLAX SEED*, SUNFLOWER LECITHIN, ALUMINUM FREE BAKING POWDER (SODIUM BICARBONATE, NON-GMO CORN STARCH, MONOCALCIUM PHOSPHATE), SEA SALT, PURE VANILLA EXTRACT*" Date available: 07/14/2017 Date last updated by company: 07/14/2017
