Source: USDA Branded Food Products Database Release December 2017 Software v.3.8.6.4 2017-10-02
Report Run at: December 17, 2017 16:57 EST
"Nutrient data for: 45317695, MAYO, UPC: 02100002688"
Food Group:  Branded Food Products Database
Common Name:

Nutrient,Unit,Data points,Std. Error,"1 Tbsp = 13.0g",1Value per 100 g,
Proximates
"Energy",kcal,--,--,90,692
"Protein",g,--,--,0.00,0.00
"Total lipid (fat)",g,--,--,10.00,76.92
"Carbohydrate, by difference",g,--,--,0.00,0.00
"Fiber, total dietary",g,--,--,0.0,0.0
"Sugars, total",g,--,--,0.00,0.00
Minerals
"Calcium, Ca",mg,--,--,0,0
"Iron, Fe",mg,--,--,0.00,0.00
"Sodium, Na",mg,--,--,70,538
Vitamins
"Vitamin C, total ascorbic acid",mg,--,--,0.0,0.0
"Vitamin A, IU",IU,--,--,0,0
Lipids
"Fatty acids, total saturated",g,--,--,1.500,11.540
"Fatty acids, total monounsaturated",g,--,--,2.500,19.230
"Fatty acids, total polyunsaturated",g,--,--,5.999,46.150
"Fatty acids, total trans",g,--,--,0.000,0.000
"Cholesterol",mg,--,--,5,38
Amino Acids
Other
Ingredients
"SOYBEAN OIL, WATER, EGGS, VINEGAR, CONTAINS LESS THAN 2% OF SUGAR, SALT, EGG YOLKS, NATURAL FLAVOR (CONTAINS MUSTARD), LEMON JUICE CONCENTRATE, CALCIUM DISODIUM EDTA (TO PROTECT FLAVOR), DRIED GARLIC, DRIED ONIONS, PAPRIKA" Date available: 07/14/2017 Date last updated by company: 07/14/2017
