Source: USDA Branded Food Products Database Release December 2017 Software v.3.8.6.4 2017-10-02
Report Run at: December 17, 2017 16:55 EST
"Nutrient data for: 45206024, MAYONNAISE, UPC: 855482006152"
Food Group:  Branded Food Products Database
Common Name:

Nutrient,Unit,Data points,Std. Error,"1 Tbsp = 13.0g",1Value per 100 g,
Proximates
"Energy",kcal,--,--,90,692
"Protein",g,--,--,0.00,0.00
"Total lipid (fat)",g,--,--,10.00,76.92
"Carbohydrate, by difference",g,--,--,0.00,0.00
"Sugars, total",g,--,--,0.00,0.00
Minerals
"Sodium, Na",mg,--,--,80,615
Vitamins
Lipids
"Fatty acids, total saturated",g,--,--,1.000,7.690
"Fatty acids, total trans",g,--,--,0.000,0.000
"Cholesterol",mg,--,--,10,77
Amino Acids
Other
Ingredients
"*SUNFLOWER OIL, WATER, *CAGE FREE SALTED EGG YOLKS (*CAGE FREE EGG YOLKS, SALT), *MUSTARD (*DISTILLED VINEGAR, WATER, *MUSTARD SEED, SEA SALT, *SPICES), *LEMON JUICE, *APPLE CIDER VINEGAR, *WHITE DISTILLED VINEGAR, *WHOLE EGGS, *MUSTARD SEED, SEA SALT." Date available: 07/14/2017 Date last updated by company: 07/14/2017
