Source: USDA Branded Food Products Database Release December 2017 Software v.3.8.6.4 2017-10-02
Report Run at: December 17, 2017 17:03 EST
"Nutrient data for: 45243662, MCCORMICK, COCKTAIL SAUCE FOR SEAFOOD, UPC: 041234113777"
Food Group:  Branded Food Products Database
Common Name:

Nutrient,Unit,Data points,Std. Error,"0.25 cup = 60.0g",1Value per 100 g,
Proximates
"Energy",kcal,--,--,90,150
"Protein",g,--,--,1.00,1.67
"Total lipid (fat)",g,--,--,0.50,0.83
"Carbohydrate, by difference",g,--,--,19.00,31.67
"Fiber, total dietary",g,--,--,1.0,1.7
"Sugars, total",g,--,--,16.00,26.67
Minerals
"Sodium, Na",mg,--,--,970,1617
Vitamins
"Vitamin C, total ascorbic acid",mg,--,--,6.0,10.0
"Vitamin A, IU",IU,--,--,100,167
Lipids
Amino Acids
Other
Ingredients
"TOMATO PASTE, HIGH FRUCTOSE CORN SYRUP, WATER, VINEGAR, HORSERADISH, SALT, LEMON JUICE CONCENTRATE, ONION, SODIUM BENZOATE (ADDED AS A PRESERVATIVE), RED PEPPER, XANTHAN GUM, NATURAL AND ARTIFICIAL FLAVORS, AND GARLIC." Date available: 10/05/2017 Date last updated by company: 10/05/2017
