Source: USDA Branded Food Products Database Release December 2017 Software v.3.8.6.4 2017-10-02
Report Run at: December 17, 2017 17:03 EST
"Nutrient data for: 45107958, MCCORMICK, CHILI SMOKY BBQ SEASONING MIX, UPC: 052100023724"
Food Group:  Branded Food Products Database
Common Name:

Nutrient,Unit,Data points,Std. Error,"1 CUP CHILI) | (SEASONS = 8.0g",1Value per 100 g,
Proximates
"Energy",kcal,--,--,30,375
"Protein",g,--,--,0.00,0.00
"Total lipid (fat)",g,--,--,0.00,0.00
"Carbohydrate, by difference",g,--,--,6.00,75.00
"Sugars, total",g,--,--,3.00,37.50
Minerals
"Sodium, Na",mg,--,--,400,5000
Vitamins
"Vitamin A, IU",IU,--,--,3125,39062
Lipids
Amino Acids
Other
Ingredients
"SUGAR, SPICES (INCLUDING CHILI PEPPER, SMOKED PAPRIKA, BLACK PEPPER, AND CELERY SEED), BROWN SUGAR, ONION, SALT, GARLIC, TOMATO, SUNFLOWER OIL, AND NATURAL FLAVOR (INCLUDING HICKORY SMOKE)." Date available: 07/14/2017 Date last updated by company: 07/14/2017
