Source: USDA Branded Food Products Database Release December 2017 Software v.3.8.6.4 2017-10-02
Report Run at: December 17, 2017 17:12 EST
"Nutrient data for: 45107035, MCCORMICK, GRILL MATES, PORK RUB, UPC: 052100634753"
Food Group:  Branded Food Products Database
Common Name:

Nutrient,Unit,Data points,Std. Error,"2.0 tsp = 4.5g",1Value per 100 g,
Proximates
"Energy",kcal,--,--,15,333
"Protein",g,--,--,0.00,0.00
"Total lipid (fat)",g,--,--,0.00,0.00
"Carbohydrate, by difference",g,--,--,2.00,44.44
"Sugars, total",g,--,--,1.00,22.22
Minerals
"Sodium, Na",mg,--,--,220,4889
Vitamins
Lipids
Amino Acids
Other
Ingredients
"CHILI PEPPER, SPICES AND HERBS (INCLUDING RED PEPPER), BROWN SUGAR, GARLIC, SALT, ONION, APPLE CIDER VINEGAR, SILICON DIOXIDE (ADDED TO MAKE FREE FLOWING), MALTODEXTRIN, NATURAL FLAVOR, AND CORN SYRUP SOLIDS." Date available: 07/14/2017 Date last updated by company: 07/14/2017
