Source: USDA Branded Food Products Database Release December 2017 Software v.3.8.6.4 2017-10-02
Report Run at: December 17, 2017 17:03 EST
"Nutrient data for: 45107757, MCCORMICK, CHICKEN BRUSCHETTA SEASONING MIX, UPC: 052100034003"
Food Group:  Branded Food Products Database
Common Name:

Nutrient,Unit,Data points,Std. Error,"2.0 tsp = 4.5g",1Value per 100 g,
Proximates
"Energy",kcal,--,--,15,333
"Protein",g,--,--,0.00,0.00
"Total lipid (fat)",g,--,--,0.00,0.00
"Carbohydrate, by difference",g,--,--,3.00,66.67
"Sugars, total",g,--,--,1.00,22.22
Minerals
"Sodium, Na",mg,--,--,370,8222
Vitamins
"Vitamin C, total ascorbic acid",mg,--,--,40.0,888.9
Lipids
Amino Acids
Other
Ingredients
"ONION, SEA SALT, GARLIC, MODIFIED CORN STARCH, SUGAR, SPICES (INCLUDING BASIL, OREGANO, RED PEPPER), RED BELL PEPPER, PARMESAN CHEESE (CULTURED PART-SKIM COW'S MILK, SALT, ENZYMES), TOMATO, CITRIC ACID, OLIVE OIL, NATURAL FLAVOR, AND DISODIUM PHOSPHATE." Date available: 07/14/2017 Date last updated by company: 07/14/2017
