Source: USDA Branded Food Products Database Release December 2017 Software v.3.8.6.4 2017-10-02
Report Run at: December 17, 2017 17:20 EST
"Nutrient data for: 45106903, MCCORMICK, SLOW COOKERS FIESTA CHICKEN SEASONING MIX, UPC: 052100021836"
Food Group:  Branded Food Products Database
Common Name:

Nutrient,Unit,Data points,Std. Error,"2.0 tsp = 5.0g",1Value per 100 g,
Proximates
"Energy",kcal,--,--,15,300
"Protein",g,--,--,0.00,0.00
"Total lipid (fat)",g,--,--,0.00,0.00
"Carbohydrate, by difference",g,--,--,3.00,60.00
Minerals
"Sodium, Na",mg,--,--,480,9600
Vitamins
"Vitamin A, IU",IU,--,--,1000,20000
Lipids
Amino Acids
Other
Ingredients
"SPICES (INCLUDING CHILI PEPPER AND CUMIN), SALT, MODIFIED CORN STARCH, GARLIC, SUGAR, ONION, XANTHAN GUM, NATURAL FLAVOR (INCLUDING WHEAT), AND YEAST EXTRACT." Date available: 07/14/2017 Date last updated by company: 07/14/2017
