Source: USDA Branded Food Products Database Release December 2017 Software v.3.8.6.4 2017-10-02
Report Run at: December 17, 2017 17:08 EST
"Nutrient data for: 45108128, MCCORMICK, GLUTEN-FREE SPAGHETTI SAUCE MIX, UPC: 052100031071"
Food Group:  Branded Food Products Database
Common Name:

Nutrient,Unit,Data points,Std. Error,"0.5 CUP SAUCE) | MIX (SEASONS = 8.0g",1Value per 100 g,
Proximates
"Energy",kcal,--,--,25,312
"Protein",g,--,--,0.00,0.00
"Total lipid (fat)",g,--,--,0.00,0.00
"Carbohydrate, by difference",g,--,--,6.00,75.00
"Sugars, total",g,--,--,3.00,37.50
Minerals
"Sodium, Na",mg,--,--,410,5125
Vitamins
Lipids
Amino Acids
Other
Ingredients
"SUGAR, MODIFIED TAPIOCA STARCH, SALT, CORN MALTODEXTRIN, ONION, MODIFIED CORN STARCH, TOMATO POWDER, SPICES (INCLUDING BASIL, PAPRIKA, OREGANO), GARLIC, NATURAL FLAVOR, BEET POWDER (FOR COLOR), AND XANTHAN GUM." Date available: 07/14/2017 Date last updated by company: 07/14/2017
