Source: USDA Branded Food Products Database Release December 2017 Software v.3.8.6.4 2017-10-02
Report Run at: December 17, 2017 17:07 EST
"Nutrient data for: 45108030, MCCORMICK, CULINARY SELECTS, SMOKED PAPRIKA, UPC: 052100029177"
Food Group:  Branded Food Products Database
Common Name:

Nutrient,Unit,Data points,Std. Error,"0.25 tsp = 0.6g",1Value per 100 g,
Proximates
"Energy",kcal,--,--,0,0
"Protein",g,--,--,0.00,0.00
"Total lipid (fat)",g,--,--,0.00,0.00
"Carbohydrate, by difference",g,--,--,0.00,0.00
Minerals
"Sodium, Na",mg,--,--,0,0
Vitamins
"Vitamin A, IU",IU,--,--,8334,1388917
Lipids
Amino Acids
Other
Ingredients
"PAPRIKA, AND SILICON DIOXIDE (ADDED TO MAKE FREE FLOWING)." Date available: 07/14/2017 Date last updated by company: 07/14/2017
