Source: USDA Branded Food Products Database Release December 2017 Software v.3.8.6.4 2017-10-02
Report Run at: December 17, 2017 17:04 EST
"Nutrient data for: 45107487, MCCORMICK, COUNTRY GRAVY MIX, UPC: 052100097220"
Food Group:  Branded Food Products Database
Common Name:

Nutrient,Unit,Data points,Std. Error,"0.25 CUP) | (MAKES = 9.0g",1Value per 100 g,
Proximates
"Energy",kcal,--,--,40,444
"Protein",g,--,--,1.00,11.11
"Total lipid (fat)",g,--,--,2.00,22.22
"Carbohydrate, by difference",g,--,--,5.00,55.56
"Sugars, total",g,--,--,1.00,11.11
Minerals
"Sodium, Na",mg,--,--,250,2778
Vitamins
Lipids
"Fatty acids, total monounsaturated",g,--,--,1.500,16.670
Amino Acids
Other
Ingredients
"MODIFIED CORN STARCH, SUNFLOWER OIL, ENRICHED WHEAT FLOUR (FLOUR, NIACIN, IRON, THIAMINE MONONITRATE, RIBOFLAVIN, FOLIC ACID), CORN SYRUP SOLIDS, BUTTERMILK SOLIDS, SALT, CORN STARCH, SODIUM CASEINATE, SPICES (INCLUDING BLACK PEPPER), MONO- AND DIGLYCERIDES (FOR SMOOTHNESS), NONFAT DRY MILK, DIPOTASSIUM PHOSPHATE, WHEY, SOY LECITHIN, DISODIUM INOSINATE AND GUANYLATE (FLAVOR ENHANCERS), AND CARAMEL COLOR." Date available: 07/14/2017 Date last updated by company: 07/14/2017
