Source: USDA Branded Food Products Database Release December 2017 Software v.3.8.6.4 2017-10-02
Report Run at: December 17, 2017 17:19 EST
"Nutrient data for: 45117688, MCCORMICK, SALSA NATURALA MIX, MILD, UPC: 070528006310"
Food Group:  Branded Food Products Database
Common Name:

Nutrient,Unit,Data points,Std. Error,"2.0 TBSP. PREPARED SALSA) | (MAKES = 1.2g",1Value per 100 g,
Proximates
"Energy",kcal,--,--,5,417
"Protein",g,--,--,0.00,0.00
"Total lipid (fat)",g,--,--,0.00,0.00
"Carbohydrate, by difference",g,--,--,1.00,83.33
Minerals
"Sodium, Na",mg,--,--,105,8750
Vitamins
Lipids
Amino Acids
Other
Ingredients
"ONION, SALT, GARLIC, GREEN AND RED BELL PEPPERS, TOMATO PASTE, SUGAR, SPICES (INCLUDING CHILI PEPPER, CILANTRO), CORN SYRUP SOLIDS, CITRIC ACID, XANTHAN GUM (THICKENER), PAPRIKA, LEMON JUICE SOLIDS, AND NATURAL FLAVOR." Date available: 07/14/2017 Date last updated by company: 07/14/2017
