Source: USDA Branded Food Products Database Release December 2017 Software v.3.8.6.4 2017-10-02
Report Run at: December 17, 2017 17:02 EST
"Nutrient data for: 45107005, MCCORMICK, BAG 'N SEASON, COUNTRY CHICKEN, UPC: 052100157450"
Food Group:  Branded Food Products Database
Common Name:

Nutrient,Unit,Data points,Std. Error,"2.0 tsp = 6.0g",1Value per 100 g,
Proximates
"Energy",kcal,--,--,20,333
"Protein",g,--,--,0.00,0.00
"Total lipid (fat)",g,--,--,1.00,16.67
"Carbohydrate, by difference",g,--,--,3.00,50.00
Minerals
"Sodium, Na",mg,--,--,590,9833
Vitamins
"Vitamin A, IU",IU,--,--,834,13892
Lipids
"Fatty acids, total monounsaturated",g,--,--,0.500,8.330
Amino Acids
Other
Ingredients
"SALT, MODIFIED CORN STARCH, ONION, SUNFLOWER OIL, CORN SYRUP SOLIDS, CARROTS, ENRICHED WHEAT FLOUR (FLOUR, NIACIN, IRON, THIAMINE MONONITRATE, RIBOFLAVIN, FOLIC ACID), HYDROLYZED CORN GLUTEN AND WHEAT GLUTEN, SPICES, TORULA YEAST, DEXTROSE, SODIUM CASEINATE (MILK), SOY FLOUR, MONO- AND DIGLYCERIDES (FOR SMOOTHNESS), PAPRIKA, YEAST EXTRACT, DISODIUM INOSINATE AND GUANYLATE (FLAVOR ENHANCERS), CHICKEN BROTH, SOY LECITHIN, TURMERIC, NATURAL FLAVOR, AND CHICKEN FAT." Date available: 07/14/2017 Date last updated by company: 07/14/2017
