Source: USDA Branded Food Products Database Release December 2017 Software v.3.8.6.4 2017-10-02
Report Run at: December 17, 2017 17:14 EST
"Nutrient data for: 45038195, MCCORMICK, ITALIAN HERB BAKED SEASONING MIX, CHICKEN & PASTA, UPC: 052100018959"
Food Group:  Branded Food Products Database
Common Name:

Nutrient,Unit,Data points,Std. Error,"1 CUP) | (SEASONS = 3.0g",1Value per 100 g,
Proximates
"Energy",kcal,--,--,10,333
"Protein",g,--,--,0.00,0.00
"Total lipid (fat)",g,--,--,0.00,0.00
"Carbohydrate, by difference",g,--,--,2.00,66.67
Minerals
"Sodium, Na",mg,--,--,250,8333
Vitamins
Lipids
Amino Acids
Other
Ingredients
"ONION, SPICES (INCLUDING PAPRIKA, OREGANO, PARSLEY, RED PEPPER), SALT, GARLIC, ROMANO CHEESE (PART-SKIM COW'S MILK, CHEESE CULTURES, SALT, ENZYMES), SUGAR, RED BELL PEPPER, PARMESAN CHEESE (PART SKIM MILK, CHEESE CULTURES, SALT, ENZYMES), AND CITRIC ACID." Date available: 07/14/2017 Date last updated by company: 07/14/2017
