Source: USDA Branded Food Products Database Release December 2017 Software v.3.8.6.4 2017-10-02
Report Run at: December 17, 2017 17:33 EST
"Nutrient data for: 45291251, MEAT RUB, UPC: 819153010053"
Food Group:  Branded Food Products Database
Common Name:

Nutrient,Unit,Data points,Std. Error,"0.25 tsp = 1.0g",1Value per 100 g,
Proximates
"Energy",kcal,--,--,0,0
"Protein",g,--,--,0.00,0.00
"Total lipid (fat)",g,--,--,0.00,0.00
"Carbohydrate, by difference",g,--,--,1.00,100.00
Minerals
"Potassium, K",mg,--,--,4,400
"Sodium, Na",mg,--,--,140,14000
Vitamins
Lipids
Amino Acids
Other
Ingredients
"BROWN SUGAR, SALT, CHILI PEPPER AND OTHER SPICES, PAPRIKA, DEHYDRATED ONION AND GARLIC, CELERY." Date available: 07/14/2017 Date last updated by company: 07/14/2017
