Source: USDA Branded Food Products Database Release December 2017 Software v.3.8.6.4 2017-10-02
Report Run at: December 17, 2017 17:33 EST
"Nutrient data for: 45333181, MEAT SAUCE, UPC: 857199006074"
Food Group:  Branded Food Products Database
Common Name:

Nutrient,Unit,Data points,Std. Error,"0.5 cup = 127.0g",1Value per 100 g,
Proximates
"Energy",kcal,--,--,80,63
"Protein",g,--,--,8.00,6.30
"Total lipid (fat)",g,--,--,2.50,1.97
"Carbohydrate, by difference",g,--,--,7.00,5.51
"Fiber, total dietary",g,--,--,2.0,1.6
"Sugars, total",g,--,--,3.00,2.36
Minerals
"Calcium, Ca",mg,--,--,20,16
"Iron, Fe",mg,--,--,0.76,0.60
"Sodium, Na",mg,--,--,460,362
Vitamins
"Vitamin C, total ascorbic acid",mg,--,--,9.5,7.5
"Vitamin A, IU",IU,--,--,423,333
Lipids
"Fatty acids, total saturated",g,--,--,0.495,0.390
"Fatty acids, total trans",g,--,--,0.000,0.000
"Cholesterol",mg,--,--,30,24
Amino Acids
Other
Ingredients
"CRUSHED TOMATOES (CUT TOMATOES, TOMATO PUREE, SALT, CITRIC ACID), COOKED TURKEY CRUMBLES (TURKEY, WATER, SALT), TOMATO SAUCE (TOMATO PASTE, WATER), ONIONS, GARLIC POWDER, MINCED ONION, OLIVE OIL, SALT, SUGAR, OREGANO, PEPPER, BASIL, PARSLEY." Date available: 10/13/2017 Date last updated by company: 10/13/2017
