Source: USDA Branded Food Products Database Release December 2017 Software v.3.8.6.4 2017-10-02
Report Run at: December 17, 2017 17:28 EST
"Nutrient data for: 45273499, MEATBALLS, UPC: 036669028000"
Food Group:  Branded Food Products Database
Common Name:

Nutrient,Unit,Data points,Std. Error,"3.0 MEATBALLS = 85.0g",1Value per 100 g,
Proximates
"Energy",kcal,--,--,230,271
"Protein",g,--,--,14.00,16.47
"Total lipid (fat)",g,--,--,18.00,21.18
"Carbohydrate, by difference",g,--,--,5.00,5.88
"Fiber, total dietary",g,--,--,2.0,2.4
"Sugars, total",g,--,--,1.00,1.18
Minerals
"Calcium, Ca",mg,--,--,60,71
"Iron, Fe",mg,--,--,1.80,2.12
"Sodium, Na",mg,--,--,410,482
Vitamins
"Vitamin C, total ascorbic acid",mg,--,--,0.0,0.0
"Vitamin A, IU",IU,--,--,0,0
Lipids
"Fatty acids, total saturated",g,--,--,4.998,5.880
"Fatty acids, total trans",g,--,--,0.000,0.000
"Cholesterol",mg,--,--,55,65
Amino Acids
Other
Ingredients
"BEEF AND PORK, WATER, TEXTURED SOY FLOUR, SOY PROTEIN CONCENTRATE, LESS THAN 2% OF: OREGANO, BASIL, BLACK PEPPER, NATURAL FLAVORS, RICE FLOUR, DEXTROSE, SALT" Date available: 10/13/2017 Date last updated by company: 10/13/2017
