Source: USDA Branded Food Products Database Release December 2017 Software v.3.8.6.4 2017-10-02
Report Run at: December 17, 2017 17:35 EST
"Nutrient data for: 45232795, MEDFORD FARMS, ORGANIC MAPLE SYRUP, UPC: 076606614644"
Food Group:  Branded Food Products Database
Common Name:

Nutrient,Unit,Data points,Std. Error,"0.25 cup = 60.0g",1Value per 100 g,
Proximates
"Energy",kcal,--,--,210,350
"Protein",g,--,--,0.00,0.00
"Total lipid (fat)",g,--,--,0.00,0.00
"Carbohydrate, by difference",g,--,--,53.00,88.33
"Sugars, total",g,--,--,47.00,78.33
Minerals
"Calcium, Ca",mg,--,--,60,100
"Iron, Fe",mg,--,--,0.90,1.50
"Potassium, K",mg,--,--,160,267
"Sodium, Na",mg,--,--,5,8
Vitamins
Lipids
Amino Acids
Other
Ingredients
"MAPLE SYRUP." Date available: 06/24/2017 Date last updated by company: 06/24/2017
