Source: USDA Branded Food Products Database Release December 2017 Software v.3.8.6.4 2017-10-02
Report Run at: December 17, 2017 17:35 EST
"Nutrient data for: 45006806, MEDFORD FARMS, STONE GROUND LESS SALT WHEAT CRACKERS, UPC: 076606795862"
Food Group:  Branded Food Products Database
Common Name:

Nutrient,Unit,Data points,Std. Error,"3.0 CRACKERS = 15.0g",1Value per 100 g,
Proximates
"Energy",kcal,--,--,60,400
"Protein",g,--,--,2.00,13.33
"Total lipid (fat)",g,--,--,1.50,10.00
"Carbohydrate, by difference",g,--,--,11.00,73.33
"Fiber, total dietary",g,--,--,1.0,6.7
"Sugars, total",g,--,--,0.00,0.00
Minerals
"Calcium, Ca",mg,--,--,0,0
"Iron, Fe",mg,--,--,2.40,16.00
"Sodium, Na",mg,--,--,75,500
Vitamins
"Vitamin C, total ascorbic acid",mg,--,--,0.0,0.0
"Vitamin A, IU",IU,--,--,0,0
Lipids
"Fatty acids, total saturated",g,--,--,0.000,0.000
"Fatty acids, total trans",g,--,--,0.000,0.000
"Cholesterol",mg,--,--,0,0
Amino Acids
Other
Ingredients
"ENRICHED FLOUR (WHEAT FLOUR,NIACIN, REDUCED IRON, THIAMINE, MONONITRATE, RIBOFLAVIN, FOLIC ACID), CRACKED WHEAT, CANOLA OIL AND/OR SUNFLOWER OIL (CONTAINS ROSEMARY EXTRACT AND ASCORBIC ACID), YEAST, WHEY POWDER, MALT FLOUR, SODIUM BICARBONATE, MONOCALCIUM PHOSPHATE, SOY LECITHIN, SALT, SODIUM METABISULPHITE, PROTEASE." Date available: 07/14/2017 Date last updated by company: 07/14/2017
