Source: USDA Branded Food Products Database Release December 2017 Software v.3.8.6.4 2017-10-02
Report Run at: December 17, 2017 17:42 EST
"Nutrient data for: 45280821, MEDITERRANEAN STYLE SALAD WITH CHICKEN, UPC: 021130069774"
Food Group:  Branded Food Products Database
Common Name:

Nutrient,Unit,Data points,Std. Error,"1 SALAD = 248.0g",1Value per 100 g,
Proximates
"Energy",kcal,--,--,250,101
"Protein",g,--,--,16.00,6.45
"Total lipid (fat)",g,--,--,15.00,6.05
"Carbohydrate, by difference",g,--,--,16.00,6.45
"Fiber, total dietary",g,--,--,2.0,0.8
"Sugars, total",g,--,--,9.00,3.63
Minerals
"Calcium, Ca",mg,--,--,149,60
"Iron, Fe",mg,--,--,2.53,1.02
"Sodium, Na",mg,--,--,1171,472
Vitamins
"Vitamin C, total ascorbic acid",mg,--,--,13.6,5.5
"Vitamin A, IU",IU,--,--,2257,910
Lipids
"Fatty acids, total saturated",g,--,--,3.497,1.410
"Fatty acids, total trans",g,--,--,0.000,0.000
"Cholesterol",mg,--,--,35,14
Amino Acids
Other
Ingredients
"WHITE MEAT CHICKEN (CHICKEN BREAST WITH RIB MEAT, WATER, CULTURED SUGAR AND VINEGAR, POTATO STARCH, SEA SALT, NATURAL FLAVORS), BALSAMIC VINAIGRETTE DRESSING (WATER, BALSAMIC VINEGAR, SOYBEAN OIL, SUGAR, DISTILLED VINEGAR, SALT, CONTAINS LESS THAN 2% OF EXTRA VIRGIN OLIVE OIL, SPICES, DEHYDRATED GARLIC, MUSTARD SEED, SUN-DRIED TOMATOES, XANTHAN GUM, WHITE WINE, CITRIC ACID, TARTARIC ACID, TURMERIC, CALCIUM DISODIUM EDTA ADDED TO PROTECT FLAVOR), SPRING MIX (MAY CONTAIN SOME OR ALL OF THE FOLLOWING BABY WHOLE LEAF VARIETIES: GREEN LEAF, MIZUNA, GREEN ROMAINE, TANGO, GREEN OAK, GREEN CHARD, BABY SPINACH, ARUGULA, FRISEE, TATSOI, MACHE, RED CHARD, RED LEAF, LOLLA ROSA, RED ROMAINE, RED MUSTARD, RADICCHIO, RED OAK, BEET TOPS), ARUGULA, GRAPE TOMATOES, RED ONION, FETA CHEESE (PASTEURIZED MILK, CHEESE CULTURE, SALT, ENZYMES, POTATO STARCH [TO PREVENT CAKING]), KALAMATA OLIVES (KALAMATA OLIVES, BRINE, WATER, SEA SALT, OLIVE OIL)." Date available: 07/14/2017 Date last updated by company: 07/14/2017
