Source: USDA Branded Food Products Database Release December 2017 Software v.3.8.6.4 2017-10-02
Report Run at: December 17, 2017 17:47 EST
"Nutrient data for: 45277355, MEDIUM EGG NOODLES, UPC: 078742018454"
Food Group:  Branded Food Products Database
Common Name:

Nutrient,Unit,Data points,Std. Error,"1 cup = 56.0g",1Value per 100 g,
Proximates
"Energy",kcal,--,--,220,393
"Protein",g,--,--,8.00,14.29
"Total lipid (fat)",g,--,--,3.00,5.36
"Carbohydrate, by difference",g,--,--,40.00,71.43
"Fiber, total dietary",g,--,--,2.0,3.6
"Sugars, total",g,--,--,2.00,3.57
Minerals
"Calcium, Ca",mg,--,--,20,36
"Iron, Fe",mg,--,--,1.77,3.16
"Potassium, K",mg,--,--,170,304
"Sodium, Na",mg,--,--,15,27
Vitamins
"Vitamin C, total ascorbic acid",mg,--,--,0.0,0.0
"Thiamin",mg,--,--,0.560,1.000
"Riboflavin",mg,--,--,0.250,0.447
"Niacin",mg,--,--,3.928,7.014
"Vitamin A, IU",IU,--,--,0,0
Lipids
"Fatty acids, total saturated",g,--,--,1.002,1.790
"Fatty acids, total monounsaturated",g,--,--,0.498,0.890
"Fatty acids, total polyunsaturated",g,--,--,1.002,1.790
"Fatty acids, total trans",g,--,--,0.000,0.000
"Cholesterol",mg,--,--,65,116
Amino Acids
Other
Ingredients
"SEMOLINA, DURUM FLOUR, EGG YOLKS, NIACIN, FERROUS SULFATE (IRON), THIAMINE MONONITRATE, RIBOFLAVIN, FOLIC ACID." Date available: 07/14/2017 Date last updated by company: 07/14/2017
