Source: USDA Branded Food Products Database Release December 2017 Software v.3.8.6.4 2017-10-02
Report Run at: December 17, 2017 17:39 EST
"Nutrient data for: 45284837, MEDITERRANEAN PISTACHIO GELATO, UPC: 011225154362"
Food Group:  Branded Food Products Database
Common Name:

Nutrient,Unit,Data points,Std. Error,"0.5 cup = 93.0g",1Value per 100 g,
Proximates
"Energy",kcal,--,--,170,183
"Protein",g,--,--,5.00,5.38
"Total lipid (fat)",g,--,--,8.00,8.60
"Carbohydrate, by difference",g,--,--,21.00,22.58
"Fiber, total dietary",g,--,--,2.0,2.2
"Sugars, total",g,--,--,19.00,20.43
Minerals
"Calcium, Ca",mg,--,--,100,108
"Iron, Fe",mg,--,--,0.41,0.44
"Potassium, K",mg,--,--,220,237
"Sodium, Na",mg,--,--,55,59
Vitamins
"Vitamin C, total ascorbic acid",mg,--,--,1.4,1.5
"Vitamin A, IU",IU,--,--,113,121
"Vitamin D",IU,--,--,32,34
Lipids
"Fatty acids, total saturated",g,--,--,3.999,4.300
"Fatty acids, total trans",g,--,--,0.000,0.000
"Cholesterol",mg,--,--,10,11
Amino Acids
Other
Ingredients
"MILK, CANE SUGAR, PISTACHIOS, CREAM, COCONUT OIL, DEXTROSE, VEGETABLE FIBER, GUAR GUM, TARA GUM, NATURAL FLAVOR, XANTHAN GUM." Date available: 07/14/2017 Date last updated by company: 07/14/2017
