Source: USDA Branded Food Products Database Release December 2017 Software v.3.8.6.4 2017-10-02
Report Run at: December 17, 2017 17:55 EST
"Nutrient data for: 45278131, MEGA MEAT PIZZA, UPC: 075706155026"
Food Group:  Branded Food Products Database
Common Name:

Nutrient,Unit,Data points,Std. Error,"0.1 PIZZA. = 140.0g",1Value per 100 g,
Proximates
"Energy",kcal,--,--,340,243
"Protein",g,--,--,14.00,10.00
"Total lipid (fat)",g,--,--,17.00,12.14
"Carbohydrate, by difference",g,--,--,35.99,25.71
"Fiber, total dietary",g,--,--,2.0,1.4
"Sugars, total",g,--,--,4.00,2.86
Minerals
"Calcium, Ca",mg,--,--,200,143
"Iron, Fe",mg,--,--,3.77,2.69
"Sodium, Na",mg,--,--,970,693
Vitamins
"Vitamin C, total ascorbic acid",mg,--,--,8.4,6.0
"Vitamin A, IU",IU,--,--,557,398
Lipids
"Fatty acids, total saturated",g,--,--,7.000,5.000
"Fatty acids, total trans",g,--,--,0.000,0.000
"Cholesterol",mg,--,--,41,29
Amino Acids
Other
Ingredients
"CRUST (ENRICHED WHEAT FLOUR [WHEAT FLOUR, MALTED BARLEY FLOUR, NIACIN, REDUCED IRON, THIAMINE MONONITRATE {B1}, RIBOFLAVIN {B2}, FOLIC ACID], WATER, YEAST, BREAD CRUMBS [ENRICHED BLEACHED WHEAT FLOUR {ENRICHED WITH NIACIN, REDUCED IRON, THIAMINE MONONITRATE, RIBOFLAVIN, FOLIC ACID}, SUGAR, SALT], PALM OIL, SOY LECITHIN, CONTAINS 2% OR LESS OF: VEGETABLE OIL WITH ARTIFICIAL BUTTER FLAVOR [LIQUID AND HYDROGENATED SOYBEAN OIL, CONTAIN LESS THAN 2% OF: SALT, SOY LECITHIN, NATURAL AND ARTIFICIAL FLAVOR, BETA CAROTENE {COLOR}, TBHQ AND CITRIC ACID, DIMETHYLPOLYSILOXANE], OAT FIBER, DEHYDRATED POTATOES, SOYBEAN OIL AND/OR CANOLA OIL, BAKING POWDER [SODIUM ACID PYROPHOSPHATE, SODIUM BICARBONATE, CORNSTARCH, MONOCALCIUM PHOSPHATE], CORNMEAL, VITAL WHEAT GLUTEN, SALT, SUGAR, PARMESAN CHEESE [PASTEURIZED COW'S MILK, CHEESE CULTURES, SALT, RENNET], ROMANO CHEESE [PASTEURIZED COW'S MILK, CHEESE CULTURES, SALT, RENNET], VINEGAR, SOUR FLAVOR [FUMARIC ACID, LACTIC ACID, ACETIC ACID], NATURAL FLAVOR [SUNFLOWER OIL, NATURAL FLAVOR], DOUGH CONDITIONER [ASCORBIC ACID, ENZYMES]), SAUCE (WATER, TOMATOES, OLIVE OIL, SUGAR, SALT, SPICES, GARLIC POWDER), LOW MOISTURE PART SKIM MOZZARELLA CHEESE (PASTEURIZED PART SKIM MILK, CHEESE CULTURES, SALT, ENZYMES), ITALIAN SAUSAGE (PORK, PORK FAT, DEXTROSE, SPICES, SALT, FLAVORINGS, SODIUM PHOSPHATES, YEAST EXTRACT), PEPPERONI (PORK, BEEF, SALT, SPICES, DEXTROSE, LACTIC ACID STARTER CULTURE, OLEORESIN OF PAPRIKA, FLAVORINGS, SODIUM ASCORBATE, SODIUM NITRITE, BHA, BHT, CITRIC ACID), BEEF (BEEF, SALT, FLAVORINGS)." Date available: 07/14/2017 Date last updated by company: 07/14/2017
