Source: USDA Branded Food Products Database Release December 2017 Software v.3.8.6.4 2017-10-02
Report Run at: December 17, 2017 17:55 EST
"Nutrient data for: 45242792, MEGAH SARI, SAMBAL BAKSO, ORIGINAL, UPC: 838452003030"
Food Group:  Branded Food Products Database
Common Name:

Nutrient,Unit,Data points,Std. Error,"10.0 MLT = 10.0g",1Value per 100 g,
Proximates
"Energy",kcal,--,--,16,157
"Protein",g,--,--,0.20,2.00
"Total lipid (fat)",g,--,--,0.40,4.00
"Carbohydrate, by difference",g,--,--,2.80,28.00
"Fiber, total dietary",g,--,--,0.0,0.0
"Sugars, total",g,--,--,1.60,16.00
Minerals
"Sodium, Na",mg,--,--,256,2560
Vitamins
Lipids
"Fatty acids, total saturated",g,--,--,0.300,3.000
"Cholesterol",mg,--,--,0,0
Amino Acids
Other
Ingredients
"CHILI, SUGAR, VEGETABLE OIL, SALT, VINEGAR, FLAVOR ENHANCER (MONOSODIUM GLUTAMATE), PRESERVATIVE (SODIUM BENZOATE)" Date available: 09/22/2017 Date last updated by company: 09/22/2017
