Source: USDA Branded Food Products Database Release December 2017 Software v.3.8.6.4 2017-10-02
Report Run at: December 17, 2017 17:55 EST
"Nutrient data for: 45281434, MEGA CRACKLINS, UPC: 021900981442"
Food Group:  Branded Food Products Database
Common Name:

Nutrient,Unit,Data points,Std. Error,"6.0 PIECES) | (APPROX. = 14.0g",1Value per 100 g,
Proximates
"Energy",kcal,--,--,80,571
"Protein",g,--,--,9.00,64.29
"Total lipid (fat)",g,--,--,5.00,35.71
"Carbohydrate, by difference",g,--,--,0.00,0.00
Minerals
"Sodium, Na",mg,--,--,330,2357
Vitamins
Lipids
"Fatty acids, total saturated",g,--,--,1.499,10.710
"Fatty acids, total monounsaturated",g,--,--,2.500,17.860
"Fatty acids, total polyunsaturated",g,--,--,1.000,7.140
"Fatty acids, total trans",g,--,--,0.000,0.000
"Cholesterol",mg,--,--,15,107
Amino Acids
Other
Ingredients
"PORK FAT WITH ATTACHED SKIN, CORN SYRUP SOLIDS, SALT, SODIUM DIACETATE, MALIC ACID, DEXTROSE, MONOSODIUM GLUTAMATE, SUGAR, SPICES, ONION POWDER, PAPRIKA (COLOR), NATURAL FLAVOR." Date available: 07/14/2017 Date last updated by company: 07/14/2017
