Source: USDA Branded Food Products Database Release December 2017 Software v.3.8.6.4 2017-10-02
Report Run at: December 17, 2017 18:03 EST
"Nutrient data for: 45035601, MEIJER, CHERRY TRIO, UPC: 708820989108"
Food Group:  Branded Food Products Database
Common Name:

Nutrient,Unit,Data points,Std. Error,"12.0 PCS = 40.0g",1Value per 100 g,
Proximates
"Energy",kcal,--,--,180,450
"Protein",g,--,--,1.00,2.50
"Total lipid (fat)",g,--,--,8.00,20.00
"Carbohydrate, by difference",g,--,--,29.00,72.50
"Fiber, total dietary",g,--,--,1.0,2.5
"Sugars, total",g,--,--,8.00,20.00
Minerals
"Calcium, Ca",mg,--,--,20,50
"Iron, Fe",mg,--,--,0.36,0.90
"Sodium, Na",mg,--,--,15,38
Vitamins
"Vitamin C, total ascorbic acid",mg,--,--,0.0,0.0
"Vitamin A, IU",IU,--,--,0,0
Lipids
"Fatty acids, total saturated",g,--,--,5.000,12.500
"Fatty acids, total trans",g,--,--,0.000,0.000
"Cholesterol",mg,--,--,0,0
Amino Acids
Other
Ingredients
"MILK CHOCOLATE (SUGAR, COCOA BUTTER, CHOCOLATE LIQUOR, MILK, SOY LECITHIN, VANILLA), DARK CHOCOLATE (SUGAR, CHOCOLATE LIQUOR PROCESSES WITH ALKALI, COCOA BUTTER, BUTTERFAT [MILK], SOY LECITHIN, VANILLA), YOGURT (SUGAR, VEGETABLE OILS [PALM KERNEL, PALM], WHEY, YOGURT POWDER [NONFAT MILK, LACTIC ACID], SOY LECITHIN [AN EMULSIFIER], SALT, VANILLA), CHERRIES (CHERRIES, SUGAR, SUNFLOWER OIL), CORN SYRUP, MODIFIED STARCH (TAPIOCA), POWDERED SUGAR, CONFECTIONER'S GLAZE." Date available: 06/24/2017 Date last updated by company: 06/24/2017
