Source: USDA Branded Food Products Database Release December 2017 Software v.3.8.6.4 2017-10-02
Report Run at: December 17, 2017 18:21 EST
"Nutrient data for: 45041886, MEIJER GOLD, MILD SALSA, MANGO SALSA, UPC: 760236374077"
Food Group:  Branded Food Products Database
Common Name:

Nutrient,Unit,Data points,Std. Error,"2.0 Tbsp = 28.0g",1Value per 100 g,
Proximates
"Energy",kcal,--,--,15,54
"Protein",g,--,--,0.00,0.00
"Total lipid (fat)",g,--,--,0.00,0.00
"Carbohydrate, by difference",g,--,--,4.00,14.29
"Fiber, total dietary",g,--,--,0.0,0.0
"Sugars, total",g,--,--,3.00,10.71
Minerals
"Calcium, Ca",mg,--,--,0,0
"Iron, Fe",mg,--,--,0.00,0.00
"Sodium, Na",mg,--,--,95,339
Vitamins
"Vitamin C, total ascorbic acid",mg,--,--,21.4,76.5
"Vitamin A, IU",IU,--,--,535,1912
Lipids
"Fatty acids, total saturated",g,--,--,0.000,0.000
"Fatty acids, total trans",g,--,--,0.000,0.000
"Cholesterol",mg,--,--,0,0
Amino Acids
Other
Ingredients
"MANGO [DRIED MANGO AND FILTERED WATER], TOMATOES, ASSORTED PEPPERS, ONIONS, PEACHES, APPLE CIDER VINEGAR, EVAPORATED CANE JUICE, TOMATO PASTE, CILANTRO, LEMON JUICE FORM CONCENTRATE, SPICES, SALT AND GARLIC POWDER." Date available: 07/14/2017 Date last updated by company: 07/14/2017
