Source: USDA Branded Food Products Database Release December 2017 Software v.3.8.6.4 2017-10-02
Report Run at: December 17, 2017 18:26 EST
"Nutrient data for: 45039548, MEIJER, ICE CREAM, CHOCOLATE, UPC: 719283596161"
Food Group:  Branded Food Products Database
Common Name:

Nutrient,Unit,Data points,Std. Error,"0.5 cup = 60.0g",1Value per 100 g,
Proximates
"Energy",kcal,--,--,100,167
"Protein",g,--,--,3.00,5.00
"Total lipid (fat)",g,--,--,3.00,5.00
"Carbohydrate, by difference",g,--,--,17.00,28.33
"Fiber, total dietary",g,--,--,1.0,1.7
"Sugars, total",g,--,--,13.00,21.67
Minerals
"Calcium, Ca",mg,--,--,100,167
"Iron, Fe",mg,--,--,0.81,1.35
"Sodium, Na",mg,--,--,50,83
Vitamins
"Vitamin C, total ascorbic acid",mg,--,--,0.0,0.0
"Vitamin A, IU",IU,--,--,225,375
Lipids
"Fatty acids, total saturated",g,--,--,1.998,3.330
"Fatty acids, total trans",g,--,--,0.000,0.000
"Cholesterol",mg,--,--,10,17
Amino Acids
Other
Ingredients
"MILKFAT AND NONFAT MILK, SUGAR, SWEETCREAM BUTTERMILK, CORN SYRUP, COCOA (PROCESSED WITH ALKALI), CONTAINS LESS THAN 2% OF WHEY, MONO AND DIGLYCERIDES, GUAR GUM, TARA GUM, CELLULOSE GUM, PROPYLENE GLYCOL MONOESTER, XANTHAN GUM, CARRAGEENAN, VITAMIN A PALMITATE." Date available: 06/24/2017 Date last updated by company: 06/24/2017
