Source: USDA Branded Food Products Database Release December 2017 Software v.3.8.6.4 2017-10-02
Report Run at: December 17, 2017 18:26 EST
"Nutrient data for: 45039549, MEIJER, ICE CREAM, CHOCOLATE, UPC: 886926172393"
Food Group:  Branded Food Products Database
Common Name:

Nutrient,Unit,Data points,Std. Error,"0.5 cup = 68.0g",1Value per 100 g,
Proximates
"Energy",kcal,--,--,150,221
"Protein",g,--,--,2.00,2.94
"Total lipid (fat)",g,--,--,8.00,11.76
"Carbohydrate, by difference",g,--,--,18.00,26.47
"Fiber, total dietary",g,--,--,1.0,1.5
"Sugars, total",g,--,--,13.00,19.12
Minerals
"Calcium, Ca",mg,--,--,80,118
"Iron, Fe",mg,--,--,0.81,1.19
"Sodium, Na",mg,--,--,40,59
Vitamins
"Vitamin C, total ascorbic acid",mg,--,--,0.0,0.0
"Vitamin A, IU",IU,--,--,449,661
Lipids
"Fatty acids, total saturated",g,--,--,4.998,7.350
"Fatty acids, total trans",g,--,--,0.000,0.000
"Cholesterol",mg,--,--,30,44
Amino Acids
Other
Ingredients
"MILKFAT AND NONFAT MILK, SUGAR, CORN SYRUP, COCOA (PROCESSED WITH ALKALI), WHEY, MONO & DIGLYCERIDES, CELLULOSE GUM, GUAR GUM, CARRAGEENAN." Date available: 06/24/2017 Date last updated by company: 06/24/2017
