Source: USDA Branded Food Products Database Release December 2017 Software v.3.8.6.4 2017-10-02
Report Run at: December 17, 2017 18:54 EST
"Nutrient data for: 45037904, MEIJER, SQUEEZABLE CONCORD GRAPE JELLY, GRAPE, UPC: 719283593245"
Food Group:  Branded Food Products Database
Common Name:

Nutrient,Unit,Data points,Std. Error,"1 Tbsp = 20.0g",1Value per 100 g,
Proximates
"Energy",kcal,--,--,50,250
"Protein",g,--,--,0.00,0.00
"Total lipid (fat)",g,--,--,0.00,0.00
"Carbohydrate, by difference",g,--,--,13.00,65.00
"Sugars, total",g,--,--,8.00,40.00
Minerals
"Sodium, Na",mg,--,--,10,50
Vitamins
Lipids
Amino Acids
Other
Ingredients
"CONCORD GRAPE JUICE (WATER AND CONCORD GRAPE JUICE CONCENTRATE), CORN SYRUP, HIGH FRUCTOSE CORN SYRUP, FRUIT PECTIN, CITRIC ACID AND SODIUM CITRATE" Date available: 06/24/2017 Date last updated by company: 06/24/2017
