Source: USDA Branded Food Products Database Release December 2017 Software v.3.8.6.4 2017-10-02
Report Run at: December 17, 2017 18:49 EST
"Nutrient data for: 45036403, MEIJER, SEEDED VIENNA BREAD, UPC: 713733706490"
Food Group:  Branded Food Products Database
Common Name:

Nutrient,Unit,Data points,Std. Error,"1 -3/4' SLICE = 57.0g",1Value per 100 g,
Proximates
"Energy",kcal,--,--,140,246
"Protein",g,--,--,5.00,8.77
"Total lipid (fat)",g,--,--,1.00,1.75
"Carbohydrate, by difference",g,--,--,28.00,49.12
"Fiber, total dietary",g,--,--,1.0,1.8
"Sugars, total",g,--,--,1.00,1.75
Minerals
"Calcium, Ca",mg,--,--,0,0
"Iron, Fe",mg,--,--,1.58,2.77
"Sodium, Na",mg,--,--,330,579
Vitamins
"Vitamin C, total ascorbic acid",mg,--,--,3.1,5.5
"Vitamin A, IU",IU,--,--,0,0
Lipids
"Fatty acids, total saturated",g,--,--,0.000,0.000
"Fatty acids, total trans",g,--,--,0.000,0.000
"Cholesterol",mg,--,--,0,0
Amino Acids
Other
Ingredients
"WHEAT FLOUR, ENRICHED (WHEAT FLOUR, MALTED BARLEY FLOUR, NIACIN. REDUCED IRON, THIAMINE MONONITRATE, RIBOFLAVIN, FOLIC ACID), WATER, DRIED DURUM WHEAT SOURDOUGH, SALT, SESAME SEEDS, DOUGH CONDITIONER (WHEAT FLOUR, MALTED BARLEY FLOUR, ENZYMES, CONTAINS 2% OR LESS OF THE FOLLOWING: ASCORBIC ACID, SOYBEAN OIL), YEAST." Date available: 06/24/2017 Date last updated by company: 06/24/2017
