Source: USDA Branded Food Products Database Release December 2017 Software v.3.8.6.4 2017-10-02
Report Run at: December 17, 2017 18:51 EST
"Nutrient data for: 45182403, MEIJER, SLICED STRAWBERRIES, UPC: 041250957843"
Food Group:  Branded Food Products Database
Common Name:

Nutrient,Unit,Data points,Std. Error,"1 cup = 140.0g",1Value per 100 g,
Proximates
"Energy",kcal,--,--,150,107
"Protein",g,--,--,0.00,0.00
"Total lipid (fat)",g,--,--,0.00,0.00
"Carbohydrate, by difference",g,--,--,38.00,27.14
"Fiber, total dietary",g,--,--,2.0,1.4
"Sugars, total",g,--,--,35.00,25.00
Minerals
"Calcium, Ca",mg,--,--,20,14
"Iron, Fe",mg,--,--,1.08,0.77
"Sodium, Na",mg,--,--,0,0
Vitamins
"Vitamin C, total ascorbic acid",mg,--,--,60.1,42.9
"Vitamin A, IU",IU,--,--,0,0
Lipids
"Fatty acids, total saturated",g,--,--,0.000,0.000
"Fatty acids, total trans",g,--,--,0.000,0.000
"Cholesterol",mg,--,--,0,0
Amino Acids
Other
Ingredients
"STRAWBERRIES, SUGAR." Date available: 07/14/2017 Date last updated by company: 07/14/2017
