Source: USDA Branded Food Products Database Release December 2017 Software v.3.8.6.4 2017-10-02
Report Run at: December 17, 2017 18:43 EST
"Nutrient data for: 45038699, MEIJER, PORK SMOKED SAUSAGE, PORTABELLA AND ASIAGO, UPC: 713733194624"
Food Group:  Branded Food Products Database
Common Name:

Nutrient,Unit,Data points,Std. Error,"1 LINK = 66.0g",1Value per 100 g,
Proximates
"Energy",kcal,--,--,200,303
"Protein",g,--,--,9.00,13.64
"Total lipid (fat)",g,--,--,19.00,28.79
"Carbohydrate, by difference",g,--,--,1.00,1.52
"Fiber, total dietary",g,--,--,0.0,0.0
"Sugars, total",g,--,--,0.00,0.00
Minerals
"Calcium, Ca",mg,--,--,40,61
"Iron, Fe",mg,--,--,0.30,0.46
"Sodium, Na",mg,--,--,630,955
Vitamins
"Vitamin C, total ascorbic acid",mg,--,--,5.0,7.6
"Vitamin A, IU",IU,--,--,250,379
Lipids
"Fatty acids, total saturated",g,--,--,7.003,10.610
"Fatty acids, total trans",g,--,--,0.000,0.000
"Cholesterol",mg,--,--,40,61
Amino Acids
Other
Ingredients
"MEAT INGREDIENTS (PORK, BEEF), WATER, PASTEURIZED PROCESS ASIAGO CHEESE PRODUCT [ASIAGO CHEESE (PART-SKIM MILK, CHEESE CULTURE, SALT, ENZYMES), CHEDDAR CHEESE (MILK, CHEESE CULTURE, SALT, ENZYMES), WATER, CREAM, SODIUM PHOSPHATES, ENZYME MODIFIED CHEESE (CULTURED MILK, SALT, SODIUM PHOSPHATE, ENZYMES), SALT, SORBIC ACID], PASTEURIZED PROCESS MOZZARELLA STYLE CHEESE PRODUCT (CULTURED MILK AND PART-SKIM MILK, WATER, NONFAT DRY MILK, SODIUM PHOSPHATES, SALT, CONTAINS LESS THAN 2% OF CREAM, LACTIC ACID, TITANIUM DIOXIDE, SORBIC ACID, ENZYMES), PORTABELLA MUSHROOMS AND 2% OR LESS OF THE FOLLOWING: SALT, NATURAL SPICES, NATURAL FLAVORS, SUGAR, SODIUM PHOSPHATES, SODIUM ERYTHORBATE, SODIUM NITRITE, BEEF COLLAGEN CASING." Date available: 09/29/2017 Date last updated by company: 09/29/2017
