Source: USDA Branded Food Products Database Release December 2017 Software v.3.8.6.4 2017-10-02
Report Run at: December 17, 2017 18:26 EST
"Nutrient data for: 45037974, MEIJER, HOT DOGS, UPC: 713733627078"
Food Group:  Branded Food Products Database
Common Name:

Nutrient,Unit,Data points,Std. Error,"1 LINK = 57.0g",1Value per 100 g,
Proximates
"Energy",kcal,--,--,170,298
"Protein",g,--,--,4.00,7.02
"Total lipid (fat)",g,--,--,16.00,28.07
"Carbohydrate, by difference",g,--,--,3.00,5.26
"Fiber, total dietary",g,--,--,0.0,0.0
"Sugars, total",g,--,--,2.00,3.51
Minerals
"Calcium, Ca",mg,--,--,0,0
"Iron, Fe",mg,--,--,0.35,0.61
"Sodium, Na",mg,--,--,660,1158
Vitamins
"Vitamin C, total ascorbic acid",mg,--,--,0.0,0.0
"Vitamin A, IU",IU,--,--,0,0
Lipids
"Fatty acids, total saturated",g,--,--,4.497,7.890
"Fatty acids, total trans",g,--,--,0.000,0.000
"Cholesterol",mg,--,--,40,70
Amino Acids
Other
Ingredients
"MECHANICALLY SEPARATED CHICKEN, WATER, PORK, CORN SYRUP, MODIFIED FOOD STARCH, SALT, CONTAINS LESS THAN 2% OF SODIUM LACTATE, DEXTROSE, SODIUM PHOSPHATE, BEEF, SODIUM DIACETATE, FLAVORINGS, SODIUM ERYTHORBATE, SODIUM NITRITE, OLEORESIN OR PAPRIKA, CITRIC ACID" Date available: 06/24/2017 Date last updated by company: 06/24/2017
