Source: USDA Branded Food Products Database Release December 2017 Software v.3.8.6.4 2017-10-02
Report Run at: December 17, 2017 18:30 EST
"Nutrient data for: 45043562, MEIJER, KOSHER DILL SPEARS, UPC: 708820298668"
Food Group:  Branded Food Products Database
Common Name:

Nutrient,Unit,Data points,Std. Error,"1 ONZ = 28.0g",1Value per 100 g,
Proximates
"Energy",kcal,--,--,0,0
"Protein",g,--,--,0.00,0.00
"Total lipid (fat)",g,--,--,0.00,0.00
"Carbohydrate, by difference",g,--,--,1.00,3.57
Minerals
"Calcium, Ca",mg,--,--,20,71
"Sodium, Na",mg,--,--,290,1036
Vitamins
Lipids
"Fatty acids, total trans",g,--,--,0.000,0.000
Amino Acids
Other
Ingredients
"CUCUMBERS, WATER, SALT, VINEGAR, GARLIC, SPICES, CALCIUM CHLORIDE, 1/10 OF 1% SODIUM BENZOATE AS A PRESERVATIVE, NATURAL FLAVORS, TURMERIC." Date available: 07/14/2017 Date last updated by company: 07/14/2017
