Source: USDA Branded Food Products Database Release December 2017 Software v.3.8.6.4 2017-10-02
Report Run at: December 17, 2017 18:39 EST
"Nutrient data for: 45037426, MEIJER, ORGANIC CAESAR SALAD, UPC: 035971800021"
Food Group:  Branded Food Products Database
Common Name:

Nutrient,Unit,Data points,Std. Error,"6.5 ONZ = 184.0g",1Value per 100 g,
Proximates
"Energy",kcal,--,--,236,128
"Protein",g,--,--,5.00,2.72
"Total lipid (fat)",g,--,--,19.01,10.33
"Carbohydrate, by difference",g,--,--,14.00,7.61
"Fiber, total dietary",g,--,--,4.0,2.2
"Sugars, total",g,--,--,2.01,1.09
Minerals
"Calcium, Ca",mg,--,--,120,65
"Iron, Fe",mg,--,--,1.23,0.67
"Sodium, Na",mg,--,--,578,314
Vitamins
"Vitamin C, total ascorbic acid",mg,--,--,20.6,11.2
"Vitamin A, IU",IU,--,--,7494,4073
Lipids
"Fatty acids, total saturated",g,--,--,2.999,1.630
"Fatty acids, total trans",g,--,--,0.000,0.000
"Cholesterol",mg,--,--,7,4
Amino Acids
Other
Ingredients
"ORGANIC ROMAINE LETTUCE, ORGANIC CAESAR DRESSING (ORGANIC SOYBEAN OIL, WATER, ORGANIC CIDER VINEGAR, ORGANIC PARMESAN CHEESE (ORGANIC WHOLE MILK, CULTURE, SALT, ENZYMES), SALT, ORGANIC SUGAR, ORGANIC LEMON JUICE CONCENTRATE, ORGANIC DRIED GARLIC, ORGANIC SPICE, NATURAL ANCHOVY FLAVOR, XANTHAN GUM, ORGANIC MUSTARD SEED, ORGANIC CRUSHED RED PEPPERS, ORGANIC ROSEMARY EXTRACT), ORGANIC CROUTONS (ORGANIC WHEAT FLOUR, ORGANIC SUNFLOWER AND/OR ORGANIC SAFFLOWER OIL, ORGANIC CRACKED RYE, ORGANIC CRACKED WHEAT, SALT, YEAST 2% OR LESS OF ORGANIC SUGAR, ORGANIC WHEAT GLUTEN, ORGANIC GARLIC POWDER, ORGANIC ONION POWDER, ORGANIC PARMESAN CHEESE POWDER (ORGANIC PASTEURIZED MILK, SALT, CULTURE, ENZYME), ORGANIC SPICES, NATURAL FLAVORS, CITRIC ACID), ORGANIC PARMESAN HARD GRATING CHEESE (ORGANIC PASTEURIZED MILK, CHEESE CULTURE, SALT, ENZYMES), POWDERED CELLULOSE (TO PREVENT CAKING)." Date available: 06/24/2017 Date last updated by company: 06/24/2017
