Source: USDA Branded Food Products Database Release December 2017 Software v.3.8.6.4 2017-10-02
Report Run at: December 17, 2017 19:02 EST
"Nutrient data for: 45040422, MEIJER, VEGETABLE WITH BEEF STOCK CONDENSED SOUP, UPC: 041250663850"
Food Group:  Branded Food Products Database
Common Name:

Nutrient,Unit,Data points,Std. Error,"0.5 cup = 123.0g",1Value per 100 g,
Proximates
"Energy",kcal,--,--,90,73
"Protein",g,--,--,4.00,3.25
"Total lipid (fat)",g,--,--,1.00,0.81
"Carbohydrate, by difference",g,--,--,17.99,14.63
"Fiber, total dietary",g,--,--,1.0,0.8
"Sugars, total",g,--,--,1.00,0.81
Minerals
"Calcium, Ca",mg,--,--,0,0
"Iron, Fe",mg,--,--,1.07,0.87
"Sodium, Na",mg,--,--,850,691
Vitamins
"Vitamin C, total ascorbic acid",mg,--,--,0.0,0.0
"Vitamin A, IU",IU,--,--,993,807
Lipids
"Fatty acids, total saturated",g,--,--,0.000,0.000
"Fatty acids, total trans",g,--,--,0.000,0.000
"Cholesterol",mg,--,--,0,0
Amino Acids
Other
Ingredients
"BEEF STOCK, REHYDRATED POTATOES, CARROTS, WATER, TOMATO PASTE, PEAS, GREEN BEANS, HIGH FRUCTOSE CORN SYRUP, ENRICHED MACARONI PRODUCT (ENRICHED WHEAT FLOUR [WHEAT FLOUR, NIACIN, FERROUS SULFATE, THIAMINE MONONITRATE, RIBOFLAVIN, FOLIC ACID], EGG WHITES), CORN, CELERY, MODIFIED CORN STARCH, CONTAINS LESS THAN 2% OF: SALT, MONOSODIUM GLUTAMATE, DEHYDRATED ONIONS, HYDROLYZED CORN, SOY AND WHEAT PROTEINS, BEEF FAT, ONION POWDER, GARLIC POWDER, DEXTROSE, DISODIUM INOSINATE, DISODIUM GUANYLATE, CITRIC ACID, CURRY POWDER (SPICES INCLUDING TURMERIC), EXTRACTIVE OF PAPRIKA, NATURAL FLAVOR, SOY LECITHIN." Date available: 09/26/2017 Date last updated by company: 09/26/2017
