Source: USDA Branded Food Products Database Release December 2017 Software v.3.8.6.4 2017-10-02
Report Run at: December 17, 2017 18:29 EST
"Nutrient data for: 45160836, MEIJER, KETTLE POTATO CHIPS, SWEET & TANGY, UPC: 713733914581"
Food Group:  Branded Food Products Database
Common Name:

Nutrient,Unit,Data points,Std. Error,"18.0 CHIPS | ABOUT = 28.0g",1Value per 100 g,
Proximates
"Energy",kcal,--,--,130,464
"Protein",g,--,--,2.00,7.14
"Total lipid (fat)",g,--,--,5.00,17.86
"Carbohydrate, by difference",g,--,--,20.00,71.43
"Fiber, total dietary",g,--,--,1.0,3.6
"Sugars, total",g,--,--,3.00,10.71
Minerals
"Calcium, Ca",mg,--,--,0,0
"Iron, Fe",mg,--,--,0.64,2.29
"Potassium, K",mg,--,--,330,1179
"Sodium, Na",mg,--,--,125,446
Vitamins
"Vitamin C, total ascorbic acid",mg,--,--,21.4,76.5
"Vitamin A, IU",IU,--,--,0,0
Lipids
"Fatty acids, total saturated",g,--,--,0.501,1.790
"Fatty acids, total monounsaturated",g,--,--,1.501,5.360
"Fatty acids, total polyunsaturated",g,--,--,2.999,10.710
"Fatty acids, total trans",g,--,--,0.000,0.000
"Cholesterol",mg,--,--,0,0
Amino Acids
Other
Ingredients
"POTATOES, VEGETABLE OIL (CONTAINS ONE OR MORE OF THE FOLLOWING: CORN, SUNFLOWER, OR CANOLA OIL), SUGAR, DEXTROSE, BROWN SUGAR, SALT, FRUCTOSE, DRIED ONION, MALTODEXTRIN, FOOD STARCH-MODIFIED, HONEY POWDER (DRIED CANE SYRUP, HONEY), YEAST EXTRACT, DRIED MUSTARD (VINEGAR, MUSTARD SEED, SALT, TURMERIC), SPICES, VINEGAR, PAPRIKA EXTRACT (COLOR), CITRIC ACID, AND NATURAL FLAVORS (INCLUDING SMOKE)." Date available: 07/14/2017 Date last updated by company: 07/14/2017
