Source: USDA Branded Food Products Database Release December 2017 Software v.3.8.6.4 2017-10-02
Report Run at: December 17, 2017 18:55 EST
"Nutrient data for: 45227362, MEIJER, SYRUP, CHOCOLATE, UPC: 719283266835"
Food Group:  Branded Food Products Database
Common Name:

Nutrient,Unit,Data points,Std. Error,"2.0 Tbsp = 38.0g",1Value per 100 g,
Proximates
"Energy",kcal,--,--,100,263
"Protein",g,--,--,1.00,2.63
"Total lipid (fat)",g,--,--,0.00,0.00
"Carbohydrate, by difference",g,--,--,24.00,63.16
"Fiber, total dietary",g,--,--,1.0,2.6
"Sugars, total",g,--,--,16.00,42.11
Minerals
"Iron, Fe",mg,--,--,1.22,3.20
"Sodium, Na",mg,--,--,25,66
Vitamins
Lipids
"Fatty acids, total saturated",g,--,--,0.000,0.000
"Fatty acids, total trans",g,--,--,0.000,0.000
Amino Acids
Other
Ingredients
"HIGH FRUCTOSE CORN SYRUP, CORN SYRUP, WATER, SUGAR, COCOA, CONTAINS 2% OR LESS OF POTASSIUM SORBATE (A PRESERVATIVE), SALT, MONO- AND DI-GLYCERIDES*, POLYSORBATE 60 (AN EMULSIFIER), XANTHAN GUM, VANILLIN (AN ARTIFICIAL FLAVOR)." Date available: 07/14/2017 Date last updated by company: 07/14/2017
