Source: USDA Branded Food Products Database Release December 2017 Software v.3.8.6.4 2017-10-02
Report Run at: December 17, 2017 18:49 EST
"Nutrient data for: 45035274, MEIJER, SANDWICH WHITE BREAD, UPC: 041250678847"
Food Group:  Branded Food Products Database
Common Name:

Nutrient,Unit,Data points,Std. Error,"2.0 SLICES = 52.0g",1Value per 100 g,
Proximates
"Energy",kcal,--,--,140,269
"Protein",g,--,--,4.00,7.69
"Total lipid (fat)",g,--,--,1.50,2.88
"Carbohydrate, by difference",g,--,--,27.00,51.92
"Fiber, total dietary",g,--,--,1.0,1.9
"Sugars, total",g,--,--,2.00,3.85
Minerals
"Calcium, Ca",mg,--,--,60,115
"Iron, Fe",mg,--,--,1.73,3.33
"Sodium, Na",mg,--,--,240,462
Vitamins
"Vitamin C, total ascorbic acid",mg,--,--,0.0,0.0
"Thiamin",mg,--,--,0.520,1.000
"Riboflavin",mg,--,--,0.170,0.327
"Niacin",mg,--,--,1.924,3.700
"Vitamin A, IU",IU,--,--,0,0
Lipids
"Fatty acids, total saturated",g,--,--,0.000,0.000
"Fatty acids, total monounsaturated",g,--,--,0.000,0.000
"Fatty acids, total polyunsaturated",g,--,--,0.499,0.960
"Fatty acids, total trans",g,--,--,0.000,0.000
"Cholesterol",mg,--,--,0,0
Amino Acids
Other
Ingredients
"ENRICHED UNBLEACHED FLOUR [WHEAT FLOUR, MALTED BARLEY FLOUR, REDUCED IRON, THIAMINE MONONITRATE (VITAMIN B1), RIBOFLAVIN (VITAMIN B2), NIACIN (VITAMIN B3), FOLIC ACID], WATER, HIGH FRUCTOSE CORN SYRUP, YEAST, SOYBEAN OIL, SALT, MONOGLYCERIDES, CALCIUM PROPIONATE (A PRESERVATIVE), SODIUM STEAROYL LACTYLATE, VINEGAR, CALCIUM SULFATE, CITRIC ACID, ASCORBIC ACID, SOY LECITHIN." Date available: 07/14/2017 Date last updated by company: 07/14/2017
