Source: USDA Branded Food Products Database Release December 2017 Software v.3.8.6.4 2017-10-02
Report Run at: December 17, 2017 19:01 EST
"Nutrient data for: 45038823, MEIJER, TURKEY BREAST, OVEN ROASTED, UPC: 041250653585"
Food Group:  Branded Food Products Database
Common Name:

Nutrient,Unit,Data points,Std. Error,"1 SLICE = 28.0g",1Value per 100 g,
Proximates
"Energy",kcal,--,--,30,107
"Protein",g,--,--,5.00,17.86
"Total lipid (fat)",g,--,--,0.50,1.79
"Carbohydrate, by difference",g,--,--,1.00,3.57
"Sugars, total",g,--,--,1.00,3.57
Minerals
"Iron, Fe",mg,--,--,0.71,2.53
"Sodium, Na",mg,--,--,220,786
Vitamins
Lipids
"Fatty acids, total saturated",g,--,--,0.000,0.000
"Fatty acids, total trans",g,--,--,0.000,0.000
"Cholesterol",mg,--,--,10,36
Amino Acids
Other
Ingredients
"TURKEY BREAST, WATER, MODIFIED FOOD STARCH, CONTAINS 2% OR LESS OF THE FOLLOWING: SALT, DEXTROSE, POTASSIUM LACTATE, CARRAGEENAN, SODIUM PHOSPHATE, SODIUM DIACETATE, SODIUM ERYTHORBATE, SODIUM NITRITE, FLAVORING." Date available: 06/24/2017 Date last updated by company: 06/24/2017
