Source: USDA Branded Food Products Database Release December 2017 Software v.3.8.6.4 2017-10-02
Report Run at: December 17, 2017 17:59 EST
"Nutrient data for: 45038597, MEIJER, BBQ CHICKEN WINGS, UPC: 886926292725"
Food Group:  Branded Food Products Database
Common Name:

Nutrient,Unit,Data points,Std. Error,"3.0 ONZ = 84.0g",1Value per 100 g,
Proximates
"Energy",kcal,--,--,160,190
"Protein",g,--,--,13.00,15.48
"Total lipid (fat)",g,--,--,9.00,10.71
"Carbohydrate, by difference",g,--,--,7.00,8.33
"Fiber, total dietary",g,--,--,0.0,0.0
"Sugars, total",g,--,--,4.00,4.76
Minerals
"Calcium, Ca",mg,--,--,0,0
"Iron, Fe",mg,--,--,0.73,0.87
"Sodium, Na",mg,--,--,400,476
Vitamins
"Vitamin C, total ascorbic acid",mg,--,--,0.0,0.0
"Vitamin A, IU",IU,--,--,101,120
Lipids
"Fatty acids, total saturated",g,--,--,1.999,2.380
"Fatty acids, total trans",g,--,--,0.000,0.000
"Cholesterol",mg,--,--,45,54
Amino Acids
Other
Ingredients
"CHICKEN WING SECTIONS, WATER, WHEAT FLOUR, SUGAR, TOMATO PASTE, MODIFIED FOOD STARCH, CONTAINS 2% OR LESS OF: DISTILLED VINEGAR, HONEY, SALT, MOLASSES, SODIUM PHOSPHATES, SPICES, SMOKE FLAVOR, CARAMEL COLOR, GARLIC POWDER, ONION POWDER, XANTHAN GUM, CORN SYRUP SOLIDS, LEMON JUICE, LEMON OIL, GARLIC EXTRACT, GARLIC OIL, SOY LECITHIN. BLANCHED IN VEGETABLE OIL." Date available: 06/24/2017 Date last updated by company: 06/24/2017
