Source: USDA Branded Food Products Database Release December 2017 Software v.3.8.6.4 2017-10-02
Report Run at: December 17, 2017 18:37 EST
"Nutrient data for: 45141057, MEIJER, NONFAT GREEK YOGURT, LEMON, UPC: 713733620499"
Food Group:  Branded Food Products Database
Common Name:

Nutrient,Unit,Data points,Std. Error,"1 CONTAINER = 150.0g",1Value per 100 g,
Proximates
"Energy",kcal,--,--,120,80
"Protein",g,--,--,13.01,8.67
"Total lipid (fat)",g,--,--,0.00,0.00
"Carbohydrate, by difference",g,--,--,17.00,11.33
"Fiber, total dietary",g,--,--,1.1,0.7
"Sugars, total",g,--,--,16.00,10.67
Minerals
"Calcium, Ca",mg,--,--,150,100
"Sodium, Na",mg,--,--,75,50
Vitamins
Lipids
"Cholesterol",mg,--,--,10,7
Amino Acids
Other
Ingredients
"CULTURED PASTEURIZED SKIM MILK, SUGAR, LEMON JUICE CONCENTRATE PECTIN, SODIUM CITRATE, NATURAL FLAVOR, LOCUST BEAN GUM, CALCIUM CHLORIDE AND TURMERIC (COLOR)." Date available: 10/06/2017 Date last updated by company: 10/06/2017
