Source: USDA Branded Food Products Database Release December 2017 Software v.3.8.6.4 2017-10-02
Report Run at: December 17, 2017 18:26 EST
"Nutrient data for: 45037413, MEIJER, INSTANT OATMEAL, PEACHES, CREAM, UPC: 041250564829"
Food Group:  Branded Food Products Database
Common Name:

Nutrient,Unit,Data points,Std. Error,"1 PACKET = 35.0g",1Value per 100 g,
Proximates
"Energy",kcal,--,--,130,371
"Protein",g,--,--,3.00,8.57
"Total lipid (fat)",g,--,--,2.00,5.71
"Carbohydrate, by difference",g,--,--,27.00,77.14
"Fiber, total dietary",g,--,--,2.0,5.7
"Sugars, total",g,--,--,12.00,34.29
Minerals
"Calcium, Ca",mg,--,--,100,286
"Iron, Fe",mg,--,--,5.66,16.16
"Magnesium, Mg",mg,--,--,38,108
"Phosphorus, P",mg,--,--,126,359
"Sodium, Na",mg,--,--,170,486
Vitamins
"Vitamin C, total ascorbic acid",mg,--,--,0.0,0.0
"Thiamin",mg,--,--,0.350,1.000
"Riboflavin",mg,--,--,0.340,0.971
"Niacin",mg,--,--,6.286,17.960
"Vitamin B-6",mg,--,--,0.629,1.796
"Vitamin A, IU",IU,--,--,1572,4490
Lipids
"Fatty acids, total saturated",g,--,--,0.500,1.430
"Fatty acids, total monounsaturated",g,--,--,0.500,1.430
"Fatty acids, total polyunsaturated",g,--,--,0.500,1.430
"Fatty acids, total trans",g,--,--,0.000,0.000
"Cholesterol",mg,--,--,0,0
Amino Acids
Other
Ingredients
"WHOLE GRAIN ROLLED OATS, SUGAR, FAVORED AND COLORED FRUIT PIECES (DEHYDRATED APPLES [TREATED WITH SODIUM SULFITE TO PROMOTE COLOR RETENTION], ARTIFICIAL PEACH FLAVOR, CITRIC ACID, ANNATTO COLOR), CREAMING AGENT (MALTODEXTRIN, VEGETABLE OIL [SOYBEAN AND/OR PALM AND/OR COCONUT AND OR CANOLA AND/OR SUNFLOWER], WHEY, SODIUM CASEINATE, DIPOTASSIUM PHOSPHATE), CALCIUM CARBONATE (A SOURCE OF CALCIUM), SALT, ARTIFICIAL FLAVOR, GUAR GUM, FERRIC PHOSPHATE (A SOURCE OF IRON),NIACINAMIDE*, PYRIDOXINE HYDROCHLORIDE (VITAMIN B6)*, RIBOFLAVIN*, VITAMIN A PALMITATE,THIAMIN MONONITRATE*, FOLIC ACID*." Date available: 07/14/2017 Date last updated by company: 07/14/2017
