Source: USDA Branded Food Products Database Release December 2017 Software v.3.8.6.4 2017-10-02
Report Run at: December 17, 2017 18:28 EST
"Nutrient data for: 45170273, MEIJER, ITALIAN STYLE SHREDDED MOZZARELLA CHEESE, UPC: 041250689805"
Food Group:  Branded Food Products Database
Common Name:

Nutrient,Unit,Data points,Std. Error,"0.25 cup = 28.0g",1Value per 100 g,
Proximates
"Energy",kcal,--,--,80,286
"Protein",g,--,--,7.00,25.00
"Total lipid (fat)",g,--,--,6.00,21.43
"Carbohydrate, by difference",g,--,--,2.00,7.14
"Fiber, total dietary",g,--,--,0.0,0.0
"Sugars, total",g,--,--,1.00,3.57
Minerals
"Calcium, Ca",mg,--,--,198,707
"Iron, Fe",mg,--,--,0.06,0.21
"Potassium, K",mg,--,--,55,196
"Sodium, Na",mg,--,--,190,679
Vitamins
"Vitamin A, IU",IU,--,--,235,839
Lipids
"Fatty acids, total saturated",g,--,--,2.999,10.710
"Fatty acids, total trans",g,--,--,0.000,0.000
"Cholesterol",mg,--,--,20,71
Amino Acids
Other
Ingredients
"CULTURED PASTEURIZED REDUCED FAT MILK, SALT, ENZYMES, ANTICAKE (POTATO STARCH, POWDERED CELLULOSE), NATAMYCIN (A NATURAL MOLD INHIBITOR)." Date available: 10/09/2017 Date last updated by company: 10/09/2017
