Source: USDA Branded Food Products Database Release December 2017 Software v.3.8.6.4 2017-10-02
Report Run at: December 17, 2017 18:51 EST
"Nutrient data for: 45234511, MEIJER, SICILIAN THIN CRUST PIZZA, UPC: 713733326056"
Food Group:  Branded Food Products Database
Common Name:

Nutrient,Unit,Data points,Std. Error,"0.333 PIZZA = 135.0g",1Value per 100 g,
Proximates
"Energy",kcal,--,--,329,244
"Protein",g,--,--,16.00,11.85
"Total lipid (fat)",g,--,--,16.00,11.85
"Carbohydrate, by difference",g,--,--,30.00,22.22
"Fiber, total dietary",g,--,--,0.9,0.7
"Sugars, total",g,--,--,3.00,2.22
Minerals
"Calcium, Ca",mg,--,--,300,222
"Iron, Fe",mg,--,--,1.57,1.16
"Sodium, Na",mg,--,--,830,615
Vitamins
"Vitamin C, total ascorbic acid",mg,--,--,6.9,5.1
"Vitamin A, IU",IU,--,--,578,428
Lipids
"Fatty acids, total saturated",g,--,--,7.007,5.190
"Fatty acids, total trans",g,--,--,0.000,0.000
"Cholesterol",mg,--,--,45,33
Amino Acids
Other
Ingredients
"CRUST (WHEAT FLOUR, WATER, CONTAINS 2% OR LESS OF: SOYBEAN OIL, YEAST, VINEGAR, SUGAR, SALT, DOUGH CONDITIONER [WHEAT FLOUR, ASCORBIC ACID, ENZYMES], ENRICHMENT [FERROUS SULFATE, NIACIN, WHEAT FLOUR, THIAMINE MONONITRATE, RIBOFLAVIN, FOLIC ACID], CALCIUM PROPIONATE [PRESERVATIVE], SOY LECITHIN [PROCESSING AID]), CHEESES (LOW MOISTURE PART-SKIM MOZZARELLA CHEESE [PASTEURIZED MILK, CHEESE CULTURES, SALT, ENZYMES], LOW MOISTURE WHOLE MILK MOZZARELLA CHEESE [PASTEURIZED MILK, CHEESE CULTURES, SALT, ENZYMES], PARMESAN AND ROMANO CHEESE BLEND [BOTH MADE WITH PASTEURIZED COW'S MILK, CHEESE CULTURES, SALT, ENZYMES]), SAUCE (WATER, TOMATO PASTE, SALT, SUGAR, SPICES, ONION POWDER, GARLIC POWDER), CAPICOLA HAM WATER ADDED (CURED WITH WATER, SALT, DEXTROSE, 2% OR LESS OF THE FOLLOWING: SODIUM LACTATE, MALTODEXTRIN, SODIUM PHOSPHATE, SODIUM DIACETATE, SPICE EXTRACTIVES INCLUDING PAPRIKA, SODIUM ERYTHORBATE, SODIUM NITRITE), COOKED ITALIAN SAUSAGE (PORK, SPICES, WATER, SALT, CORN SYRUP SOLIDS, PAPRIKA, GARLIC, SUGAR, EXTRACTIVES OF SPICES INCLUDING PAPRIKA, LEMON JUICE POWDER [CORN SYRUP SOLIDS, LEMON JUICE SOLIDS, LEMON OIL], BHA, BHT, CITRIC ACID, DISODIUM INOSINATE AND DISODIUM GUANYLATE, PROPYL GALLATE), GENOA SALAMI (PORK, BEEF, SALT, CONTAINS 2% OR LESS: WINE, DEXTROSE, SPICES, FLAVORING, LACTIC ACID STARTER CULTURE, SODIUM NITRITE, BHA, BHT, CITRIC ACID), BASIL." Date available: 07/14/2017 Date last updated by company: 07/14/2017
