Source: USDA Branded Food Products Database Release December 2017 Software v.3.8.6.4 2017-10-02
Report Run at: December 17, 2017 19:07 EST
"Nutrient data for: 45134126, Mellocream® Chocolate Fudge, #10 can, UNPREPARED, GTIN: 00027000220009"
Food Group:  Branded Food Products Database
Common Name:

Nutrient,Unit,Data points,Std. Error,"2.0 tbsp. (37g) = 37.0g",1Value per 100 g,
Proximates
"Energy",kcal,--,--,130,351
"Protein",g,--,--,1.00,2.70
"Total lipid (fat)",g,--,--,4.50,12.16
"Carbohydrate, by difference",g,--,--,21.00,56.76
"Fiber, total dietary",g,--,--,1.0,2.7
"Sugars, total",g,--,--,16.00,43.24
Minerals
"Calcium, Ca",mg,--,--,20,54
"Iron, Fe",mg,--,--,0.36,0.97
"Potassium, K",mg,--,--,90,243
"Sodium, Na",mg,--,--,60,162
Vitamins
"Vitamin A, IU",IU,--,--,0,0
Lipids
"Fatty acids, total saturated",g,--,--,4.000,10.810
"Fatty acids, total monounsaturated",g,--,--,0.000,0.000
"Fatty acids, total polyunsaturated",g,--,--,0.000,0.000
"Fatty acids, total trans",g,--,--,0.000,0.000
"Cholesterol",mg,--,--,0,0
Amino Acids
Other
Ingredients
"Corn Syrup, Nonfat Milk, Sugar, Hydrogenated Coconut Oil, Cocoa (Processed With Alkali), less than 2% of: Modified Corn Starch, Water, Salt, Potassium Sorbate (Preservative), Sodium Bicarbonate, Soy Lecithin, Artificial Flavor. CONTAINS: MILK, SOY." Date available: 10/12/2017 Date last updated by company: 10/12/2017
