Source: USDA Branded Food Products Database Release December 2017 Software v.3.8.6.4 2017-10-02
Report Run at: December 17, 2017 19:08 EST
"Nutrient data for: 45156808, MELSTER CANDIES, ICE CREAM SHOPPE TAFFY, UPC: 074013515110"
Food Group:  Branded Food Products Database
Common Name:

Nutrient,Unit,Data points,Std. Error,"4.0 PIECES = 32.0g",1Value per 100 g,
Proximates
"Energy",kcal,--,--,110,344
"Protein",g,--,--,0.00,0.00
"Total lipid (fat)",g,--,--,1.50,4.69
"Carbohydrate, by difference",g,--,--,23.00,71.88
"Fiber, total dietary",g,--,--,0.0,0.0
"Sugars, total",g,--,--,13.00,40.62
Minerals
"Calcium, Ca",mg,--,--,0,0
"Iron, Fe",mg,--,--,0.00,0.00
"Sodium, Na",mg,--,--,40,125
Vitamins
"Vitamin C, total ascorbic acid",mg,--,--,0.0,0.0
"Vitamin A, IU",IU,--,--,0,0
Lipids
"Fatty acids, total saturated",g,--,--,0.998,3.120
"Fatty acids, total trans",g,--,--,0.000,0.000
"Cholesterol",mg,--,--,0,0
Amino Acids
Other
Ingredients
"CORN SYRUP, SUGAR, HYDROGENATED SOYBEAN OIL, MODIFIED CORN STARCH, MONO & DIGLYCERIDES, SALT, SOY LECITHIN (AN EMULSIFIER), COCOA PROCESSED WITH ALKALI, CHOCOLATE LIQUOR, CITRIC ACID, MALIC ACID, DEXTROSE, HIGH FRUCTOSE CORN SYRUP, GELATIN, MODIFIED SOY PROTEIN, SODIUM HEXAMETAPHOSPHATE, COCOA BUTTER, MILKFAT, DISTILLED MONOGLYCERIDES, MILK, HYDROGENATED PALM KERNEL AND PALM OILS, DRY WHEY (MILK), BLUE 1, YELLOW 5, YELLOW 6, RED 3, RED 40, ARTIFICIAL FLAVOR." Date available: 12/31/2016 Date last updated by company: 12/31/2016
