Source: USDA Branded Food Products Database Release December 2017 Software v.3.8.6.4 2017-10-02
Report Run at: December 17, 2017 19:09 EST
"Nutrient data for: 45149497, MELVILLE CANDY, SANTA BEARD GIANT LOLLIPOP, UPC: 732577802915"
Food Group:  Branded Food Products Database
Common Name:

Nutrient,Unit,Data points,Std. Error,"1 LOLLIPOP = 127.0g",1Value per 100 g,
Proximates
"Energy",kcal,--,--,400,315
"Protein",g,--,--,0.00,0.00
"Total lipid (fat)",g,--,--,0.00,0.00
"Carbohydrate, by difference",g,--,--,100.00,78.74
"Sugars, total",g,--,--,72.00,56.69
Minerals
"Sodium, Na",mg,--,--,0,0
Vitamins
Lipids
"Fatty acids, total saturated",g,--,--,0.000,0.000
"Fatty acids, total trans",g,--,--,0.000,0.000
"Cholesterol",mg,--,--,0,0
Amino Acids
Other
Ingredients
"SUGAR, CORN SYRUP, WATER, ARTIFICIAL FRUIT PUNCH FLAVOR, CANOLA OIL, FD&C APPROVED COLORS (YELLOW #5, YELLOW #6, RED #40, RED #3, BLUE #1, TITANIUM DIOXIDE)." Date available: 09/23/2016 Date last updated by company: 09/23/2016
