Source: USDA Branded Food Products Database Release December 2017 Software v.3.8.6.4 2017-10-02
Report Run at: December 17, 2017 19:10 EST
"Nutrient data for: 45095009, MENTOS, NOWMINTS, SUGARFREE MINTS, PEPPERMINT, UPC: 073390009205"
Food Group:  Branded Food Products Database
Common Name:

Nutrient,Unit,Data points,Std. Error,"0.62 g = 0.62g",1Value per 100 g,
Proximates
"Energy",kcal,--,--,1,161
"Protein",g,--,--,0.00,0.00
"Total lipid (fat)",g,--,--,0.00,0.00
"Carbohydrate, by difference",g,--,--,0.60,96.77
"Sugars, total",g,--,--,0.00,0.00
Minerals
"Sodium, Na",mg,--,--,0,0
Vitamins
Lipids
Amino Acids
Other
Ingredients
"XYLITOL, NATURAL AND ARTIFICIAL FLAVORS, MALTODEXTRIN, COLOR (TITANIUM DIOXIDE), MAGNESIUM SALTS OF FATTY ACIDS, ASPARTAME, COCONUT FAT, SODIUM CARBOXYMETHYLCELLULOSE, CORNSTARCH, ACESULFAME K, GUM ARABIC." Date available: 06/25/2017 Date last updated by company: 06/25/2017
