Source: USDA Branded Food Products Database Release December 2017 Software v.3.8.6.4 2017-10-02
Report Run at: December 17, 2017 19:12 EST
"Nutrient data for: 45155063, MERICO, COOKIES QUICK!, COOKIE DOUGH, UPC: 033700005938"
Food Group:  Branded Food Products Database
Common Name:

Nutrient,Unit,Data points,Std. Error,"1 COOKIE = 19.0g",1Value per 100 g,
Proximates
"Energy",kcal,--,--,90,474
"Protein",g,--,--,1.00,5.26
"Total lipid (fat)",g,--,--,4.00,21.05
"Carbohydrate, by difference",g,--,--,12.00,63.16
"Fiber, total dietary",g,--,--,0.0,0.0
"Sugars, total",g,--,--,7.00,36.84
Minerals
"Calcium, Ca",mg,--,--,0,0
"Iron, Fe",mg,--,--,0.76,3.99
"Sodium, Na",mg,--,--,80,421
Vitamins
"Vitamin C, total ascorbic acid",mg,--,--,0.0,0.0
"Vitamin A, IU",IU,--,--,0,0
Lipids
"Fatty acids, total saturated",g,--,--,2.001,10.530
"Fatty acids, total monounsaturated",g,--,--,0.999,5.260
"Fatty acids, total polyunsaturated",g,--,--,0.999,5.260
"Fatty acids, total trans",g,--,--,0.000,0.000
"Cholesterol",mg,--,--,6,33
Amino Acids
Other
Ingredients
"ENRICHED BLEACHED FLOUR [WHEAT FLOUR, NIACIN, IRON, THIAMIN MONONITRATE (VITAMIN B1), RIBOFLAVIN (VITAMIN B2), FOLIC ACID], SUGAR, SEMISWEET CHOCOLATE CHUNKS (SUGAR, CHOCOLATE LIQUOR, COCOA BUTTER, SOY LECITHIN, ARTIFICIAL FLAVOR, MILK), VEGETABLE OIL (PALM, SOYBEAN AND/OR COTTONSEED OILS), WALNUTS, WATER, CORN SYRUP SOLIDS, EGGS. CONTAINS 2% OR LESS OF EACH OF THE FOLLOWING: SKIM MILK, MOLASSES, SALT, BAKING SODA, NATURAL AND ARTIFICIAL FLAVORS." Date available: 07/14/2017 Date last updated by company: 07/14/2017
