Source: USDA Branded Food Products Database Release December 2017 Software v.3.8.6.4 2017-10-02
Report Run at: December 17, 2017 19:12 EST
"Nutrient data for: 45215614, MERINGUE PIE, UPC: 078742049168"
Food Group:  Branded Food Products Database
Common Name:

Nutrient,Unit,Data points,Std. Error,"0.1667 PIE = 118.0g",1Value per 100 g,
Proximates
"Energy",kcal,--,--,340,288
"Protein",g,--,--,1.99,1.69
"Total lipid (fat)",g,--,--,13.99,11.86
"Carbohydrate, by difference",g,--,--,51.00,43.22
"Fiber, total dietary",g,--,--,0.9,0.8
"Sugars, total",g,--,--,33.00,27.97
Minerals
"Calcium, Ca",mg,--,--,0,0
"Iron, Fe",mg,--,--,0.00,0.00
"Sodium, Na",mg,--,--,290,246
Vitamins
"Vitamin C, total ascorbic acid",mg,--,--,0.0,0.0
"Vitamin A, IU",IU,--,--,0,0
Lipids
"Fatty acids, total saturated",g,--,--,6.997,5.930
"Fatty acids, total trans",g,--,--,0.000,0.000
"Cholesterol",mg,--,--,5,4
Amino Acids
Other
Ingredients
"WATER, SUGAR, WHEAT FLOUR, PALM OIL SHORTENING, SOYBEAN OIL SHORTENING, HIGH FRUCTOSE CORN SYRUP, MODIFIED TAPIOCA, CONTAINS 2% OR LESS OF EACH OF THE FOLLOWING: AGAR, BLUE 1, BUTTER (CREAM, NATURAL FLAVOR), CANOLA OIL, CARAMEL COLOR, CAROB BEAN GUM, DEXTROSE, CELLULOSE GUM, CORNSTARCH, CREAM OF TARTAR, EGG WHITES, GUAR GUM, KEY LIME PUREE (KEY LIME JUICE CONCENTRATE, KEY LIME PULP, KEY LIME OIL, LIME PEEL), LIME PUREE (LIME JUICE CONCENTRATE, LIME PULP, LIME OIL, LIME PEEL), NATURAL & ARTIFICIAL FLAVORS, POTASSIUM SORBATE (PRESERVATIVE), SALT, SODIUM ALUM, SODIUM BENZOATE (PRESERVATIVE), SODIUM PHOSPHATE, SORBIC ACID (PRESERVATIVE), TAPIOCA DEXTRIN, TITANIUM DIOXIDE COLOR, VANILLIN, YELLOW 5." Date available: 07/14/2017 Date last updated by company: 07/14/2017
