Source: USDA Branded Food Products Database Release December 2017 Software v.3.8.6.4 2017-10-02
Report Run at: December 17, 2017 19:15 EST
"Nutrient data for: 45166130, METRO DELI, KETTLE COOKED POTATO CHIPS, JALAPENO CHEDDAR, UPC: 758108684430"
Food Group:  Branded Food Products Database
Common Name:

Nutrient,Unit,Data points,Std. Error,"21.0 CHIPS | ABOUT = 43.0g",1Value per 100 g,
Proximates
"Energy",kcal,--,--,220,512
"Protein",g,--,--,3.00,6.98
"Total lipid (fat)",g,--,--,11.00,25.58
"Carbohydrate, by difference",g,--,--,26.00,60.47
"Fiber, total dietary",g,--,--,2.0,4.7
"Sugars, total",g,--,--,0.00,0.00
Minerals
"Calcium, Ca",mg,--,--,0,0
"Iron, Fe",mg,--,--,0.63,1.46
"Sodium, Na",mg,--,--,290,674
Vitamins
"Vitamin C, total ascorbic acid",mg,--,--,10.4,24.3
"Vitamin A, IU",IU,--,--,0,0
Lipids
"Fatty acids, total saturated",g,--,--,1.002,2.330
"Fatty acids, total monounsaturated",g,--,--,7.998,18.600
"Fatty acids, total polyunsaturated",g,--,--,2.000,4.650
"Fatty acids, total trans",g,--,--,0.000,0.000
"Cholesterol",mg,--,--,0,0
Amino Acids
Other
Ingredients
"POTATOES, SUNFLOWER OIL AND/OR SAFFLOWER OIL, WHEY, SEA SALT, DEHYDRATED VEGETABLE (ONION, GREEN BELL PEPPERS, TOMATO, GARLIC), MALTODEXTRIN, JALAPENO PEPPER, CHEDDAR CHEESE (CULTURED MILK, SALT, ENZYMES), NATURAL FLAVORS, VINEGAR POWDER (MALTODEXTRIN VINEGAR, MODIFIED FOOD STARCH), BUTTERMILK, CITRIC ACID, YEAST EXTRACT, LACTIC ACID, DISODIUM PHOSPHATE, EXTRACTIVES OF PAPRIKA AND TURMERIC." Date available: 07/14/2017 Date last updated by company: 07/14/2017
