Source: USDA Branded Food Products Database Release December 2017 Software v.3.8.6.4 2017-10-02
Report Run at: December 17, 2017 19:23 EST
"Nutrient data for: 45209492, MEXICAN STYLE MELTING CHEESE, UPC: 645230087812"
Food Group:  Branded Food Products Database
Common Name:

Nutrient,Unit,Data points,Std. Error,"0.33 cup = 30.0g",1Value per 100 g,
Proximates
"Energy",kcal,--,--,90,300
"Protein",g,--,--,6.00,20.00
"Total lipid (fat)",g,--,--,8.00,26.67
"Carbohydrate, by difference",g,--,--,1.00,3.33
"Fiber, total dietary",g,--,--,0.0,0.0
"Sugars, total",g,--,--,0.00,0.00
Minerals
"Calcium, Ca",mg,--,--,200,667
"Iron, Fe",mg,--,--,0.60,2.00
"Sodium, Na",mg,--,--,310,1033
Vitamins
"Vitamin C, total ascorbic acid",mg,--,--,0.0,0.0
"Vitamin A, IU",IU,--,--,833,2778
Lipids
"Fatty acids, total saturated",g,--,--,2.499,8.330
"Fatty acids, total trans",g,--,--,2.001,6.670
"Cholesterol",mg,--,--,5,17
Amino Acids
Other
Ingredients
"MOZZARELLA CHEESE SUBSTITUTE {WATER, PARTIALLY HYDROGENATED SOYBEAN OIL, CASEIN AND/OR CASEINATE, FOOD STARCH, SALT, SODIUM ALUMINUM PHOSPHATE, SODIUM PHOSPHATES, LACTIC ACID, SODIUM CITRATE, SORBIC ACID (PRESERVATIVE), VITAMIN SUPPLEMENT (MAGNESIUM OXIDE, DICALCIUM PHOSPHATE, ZINC OXIDE, RIBOFLAVIN (VITAMIN B2), ELECTROLYTIC IRON, FOLIC ACID, PYRIDOXINE HYDROCHLORIDE (VITAMIN B6), NIACINAMIDE, THIAMINE MONONITRATE (VITAMIN B1), CYANOCOBALAMIN (VITAMIN B12), VITAMIN A PALMITATE)}, MOZZARELLA CHEESE (MILK, CHEESE CULTURE, SALT, AND ENZYMES). FOOD STARCH, POWDERED CELLULOSE, DEXTROSE, GLUCOSE OXIDASE (PREVENTS CAKING AND MAINTAINS FRESHNESS)." Date available: 07/14/2017 Date last updated by company: 07/14/2017
