Source: USDA Branded Food Products Database Release December 2017 Software v.3.8.6.4 2017-10-02
Report Run at: December 17, 2017 19:24 EST
"Nutrient data for: 45182405, MEXICAN STYLE TURKEY BREAST THINNIES, UPC: 040822062312"
Food Group:  Branded Food Products Database
Common Name:

Nutrient,Unit,Data points,Std. Error,"5.0 SLICES = 57.0g",1Value per 100 g,
Proximates
"Energy",kcal,--,--,50,88
"Protein",g,--,--,9.00,15.79
"Total lipid (fat)",g,--,--,0.50,0.88
"Carbohydrate, by difference",g,--,--,2.00,3.51
"Fiber, total dietary",g,--,--,0.0,0.0
"Sugars, total",g,--,--,0.00,0.00
Minerals
"Calcium, Ca",mg,--,--,0,0
"Iron, Fe",mg,--,--,0.00,0.00
"Sodium, Na",mg,--,--,560,982
Vitamins
"Vitamin C, total ascorbic acid",mg,--,--,0.0,0.0
"Vitamin A, IU",IU,--,--,0,0
Lipids
"Fatty acids, total saturated",g,--,--,0.199,0.350
"Fatty acids, total trans",g,--,--,0.000,0.000
"Cholesterol",mg,--,--,20,35
Amino Acids
Other
Ingredients
"TURKEY BREAST MEAT, WATER, MODIFIED TAPIOCA STARCH, SALT, CARRAGEENAN, MALTODEXTRIN, AUTOLYZED YEAST EXTRACT, SODIUM PHOSPHATE, POTASSIUM LACTATE, SPICES AND COLORINGS, POTASSIUM ACETATE, FLAVORINGS, ROSEMARY EXTRACT, SODIUM ASCORBATE, SODIUM NITRITE." Date available: 07/14/2017 Date last updated by company: 07/14/2017
