Source: USDA Branded Food Products Database Release December 2017 Software v.3.8.6.4 2017-10-02
Report Run at: December 17, 2017 19:21 EST
"Nutrient data for: 45089630, MEXICAN STYLE CREAM, UPC: 769087001125"
Food Group:  Branded Food Products Database
Common Name:

Nutrient,Unit,Data points,Std. Error,"2.0 Tbsp = 30.0g",1Value per 100 g,
Proximates
"Energy",kcal,--,--,100,333
"Protein",g,--,--,1.00,3.33
"Total lipid (fat)",g,--,--,11.00,36.67
"Carbohydrate, by difference",g,--,--,1.00,3.33
"Fiber, total dietary",g,--,--,0.0,0.0
"Sugars, total",g,--,--,1.00,3.33
Minerals
"Calcium, Ca",mg,--,--,200,667
"Iron, Fe",mg,--,--,0.00,0.00
"Sodium, Na",mg,--,--,150,500
Vitamins
"Vitamin C, total ascorbic acid",mg,--,--,0.0,0.0
"Vitamin A, IU",IU,--,--,500,1667
Lipids
"Fatty acids, total saturated",g,--,--,6.999,23.330
"Fatty acids, total trans",g,--,--,0.000,0.000
"Cholesterol",mg,--,--,30,100
Amino Acids
Other
Ingredients
"PASTEURIZED HEAVY CREAM, CREAM CHEESE (PASTEURIZED CULTURED MILK AND CREAM, WHEY, SALT AND CAROB BEAN GUM), SOUR CREAM (CULTURED MILK, CREAM, MODIFIED FOOD STARCH, SODIUM CITRATE, CARRAGEENAN, GUAR GUM, LOCUST BEAN GUM, POTASSIUM SORBATE), SALT, ANNATTO (FOR COLOR)." Date available: 06/24/2017 Date last updated by company: 06/24/2017
