Source: USDA Branded Food Products Database Release December 2017 Software v.3.8.6.4 2017-10-02
Report Run at: December 17, 2017 19:21 EST
"Nutrient data for: 45207409, MEXICAN STYLE FOUR CHEESE BLEND, UPC: 018894306177"
Food Group:  Branded Food Products Database
Common Name:

Nutrient,Unit,Data points,Std. Error,"0.25 cup = 28.0g",1Value per 100 g,
Proximates
"Energy",kcal,--,--,110,393
"Protein",g,--,--,6.00,21.43
"Total lipid (fat)",g,--,--,9.00,32.14
"Carbohydrate, by difference",g,--,--,1.00,3.57
"Fiber, total dietary",g,--,--,0.0,0.0
"Sugars, total",g,--,--,0.00,0.00
Minerals
"Calcium, Ca",mg,--,--,200,714
"Iron, Fe",mg,--,--,0.00,0.00
"Sodium, Na",mg,--,--,200,714
Vitamins
"Vitamin C, total ascorbic acid",mg,--,--,0.0,0.0
"Vitamin A, IU",IU,--,--,535,1912
Lipids
"Fatty acids, total saturated",g,--,--,6.000,21.430
"Fatty acids, total trans",g,--,--,0.000,0.000
"Cholesterol",mg,--,--,25,89
Amino Acids
Other
Ingredients
"MONTEREY JACK CHEESE (PASTEURIZED MILK, CHEESE CULTURE, SALT, ENZYMES), CHEDDAR CHEESE (PASTEURIZED MILK, CHEESE CULTURE, SALT, ENZYMES, ANNATTO [COLOR]), QUESO QUESADILLA CHEESE (PASTEURIZED MILK, CHEESE CULTURE, SALT, ENZYMES), ASADERO CHEESE (PASTEURIZED MILK, CHEESE CULTURE, SALT, ENZYMES). POTATO STARCH, CORN STARCH AND CALCIUM SULFATE ADDED TO PREVENT CAKING. NATAMYCIN (A NATURAL MOLD INHIBITOR)." Date available: 10/03/2017 Date last updated by company: 10/03/2017
