Source: USDA Branded Food Products Database Release December 2017 Software v.3.8.6.4 2017-10-02
Report Run at: December 17, 2017 19:21 EST
"Nutrient data for: 45049101, MEXICAN STYLE CORN, UPC: 041498147037"
Food Group:  Branded Food Products Database
Common Name:

Nutrient,Unit,Data points,Std. Error,"0.33 cup = 85.0g",1Value per 100 g,
Proximates
"Energy",kcal,--,--,80,94
"Protein",g,--,--,2.00,2.35
"Total lipid (fat)",g,--,--,0.50,0.59
"Carbohydrate, by difference",g,--,--,17.00,20.00
"Fiber, total dietary",g,--,--,1.0,1.2
"Sugars, total",g,--,--,4.00,4.71
Minerals
"Iron, Fe",mg,--,--,1.10,1.30
"Sodium, Na",mg,--,--,250,294
Vitamins
"Vitamin C, total ascorbic acid",mg,--,--,5.5,6.5
Lipids
"Fatty acids, total saturated",g,--,--,0.000,0.000
"Fatty acids, total trans",g,--,--,0.000,0.000
Amino Acids
Other
Ingredients
"CORN, WATER, RED AND GREEN PEPPERS, SUGAR, SALT." Date available: 06/25/2017 Date last updated by company: 06/25/2017
