Source: USDA Branded Food Products Database Release December 2017 Software v.3.8.6.4 2017-10-02
Report Run at: December 17, 2017 19:19 EST
"Nutrient data for: 45108259, MEXICAN RICE, UPC: 041331026635"
Food Group:  Branded Food Products Database
Common Name:

Nutrient,Unit,Data points,Std. Error,"0.25 cup = 45.0g",1Value per 100 g,
Proximates
"Energy",kcal,--,--,160,356
"Protein",g,--,--,3.00,6.67
"Total lipid (fat)",g,--,--,0.00,0.00
"Carbohydrate, by difference",g,--,--,35.00,77.78
"Fiber, total dietary",g,--,--,1.0,2.2
"Sugars, total",g,--,--,1.00,2.22
Minerals
"Calcium, Ca",mg,--,--,20,44
"Iron, Fe",mg,--,--,1.80,4.00
"Sodium, Na",mg,--,--,650,1444
Vitamins
"Vitamin C, total ascorbic acid",mg,--,--,9.0,20.0
"Vitamin A, IU",IU,--,--,100,222
Lipids
"Fatty acids, total saturated",g,--,--,0.000,0.000
"Fatty acids, total trans",g,--,--,0.000,0.000
"Cholesterol",mg,--,--,0,0
Amino Acids
Other
Ingredients
"LONG GRAIN ENRICHED PARBOILED WHITE RICE (RICE ENRICHED WITH IRON [FERRIC ORTHOPHOSPHATE], NIACIN, THIAMINE [THIAMINE MONONITRATE] AND FOLIC ACID), CHICKEN FLAVOR (SALT, MONOSODIUM GLUTAMATE, SUGAR, YEAST EXTRACT, MALTODEXTRIN, GRANULATED ONION, CHICKEN FAT, NATURAL FLAVOR, SILICON DIOXIDE, GARLIC, SPICES, PARSLEY), WHOLE KERNEL CORN, DEHYDRATED TOMATO FLAKES, DEHYDRATED GREEN BELL PEPPERS, TOMATO POWDER, MONO-SODIUM GLUTAMATE, DEHYDRATED CUMIN, SUGAR, DEHYDRATED JALAPENO PEPPER, DEHYDRATED GRANULATED GARLIC, DEHYDRATED PARSLEY, YELLOW #5, SILICON DIOXIDE AS ANTICAKING AGENT, GROUND CHILE PEPPER AND ANNATTO." Date available: 07/14/2017 Date last updated by company: 07/14/2017
