Source: USDA Branded Food Products Database Release December 2017 Software v.3.8.6.4 2017-10-02
Report Run at: December 17, 2017 19:19 EST
"Nutrient data for: 45330582, MEXICAN LAYERED SALAD, UPC: 879147008169"
Food Group:  Branded Food Products Database
Common Name:

Nutrient,Unit,Data points,Std. Error,"0.5 cup = 60.0g",1Value per 100 g,
Proximates
"Energy",kcal,--,--,100,167
"Protein",g,--,--,2.00,3.33
"Total lipid (fat)",g,--,--,7.00,11.67
"Carbohydrate, by difference",g,--,--,8.00,13.33
"Fiber, total dietary",g,--,--,2.0,3.3
"Sugars, total",g,--,--,2.00,3.33
Minerals
"Calcium, Ca",mg,--,--,20,33
"Iron, Fe",mg,--,--,0.00,0.00
"Sodium, Na",mg,--,--,430,717
Vitamins
"Vitamin C, total ascorbic acid",mg,--,--,35.0,58.3
"Vitamin A, IU",IU,--,--,1750,2917
Lipids
"Fatty acids, total saturated",g,--,--,1.002,1.670
"Fatty acids, total trans",g,--,--,0.000,0.000
"Cholesterol",mg,--,--,0,0
Amino Acids
Other
Ingredients
"DRESSING (CANOLA OIL, GARLIC, SALT, JALAPENOS, CILANTRO, CUMIN, DIJON MUSTARD (WATER, MUSTARD SEED, VINEGAR, SALT, WHITE WINE, CITRIC ACID, TARTARIC ACID, TURMERIC, SPICES), SOY LECITHIN), PICO DE GALLO (TOMATOES, ONION, JALAPENOS, FRESH LIME JUICE, CILANTRO, SALT, SODIUM BENZOATE (PRESERVATIVE)), CORN, BLACK BEANS (WATER, BLACK BEANS, ONION POWDER, SALT, GARLIC POWDER & FERROUS GLUCONATE (TO PRESERVE COLOR)), JICAMA, RED PEPPER, FRESH LIME JUICE, KALE, HONEY, QUESO FRESCO CHEESE (PASTEURIZED WHOLE COW'S MILK, SALT, ENZYMES, CULTURES)." Date available: 10/13/2017 Date last updated by company: 10/13/2017
