Source: USDA Branded Food Products Database Release December 2017 Software v.3.8.6.4 2017-10-02
Report Run at: December 17, 2017 20:24 EST
"Nutrient data for: 45262247, MI LY INSTANT NOODLE, UPC: 8934684029199"
Food Group:  Branded Food Products Database
Common Name:

Nutrient,Unit,Data points,Std. Error,"1 cup = 65.0g",1Value per 100 g,
Proximates
"Energy",kcal,--,--,318,489
"Protein",g,--,--,5.00,7.69
"Total lipid (fat)",g,--,--,14.00,21.54
"Carbohydrate, by difference",g,--,--,42.00,64.62
"Fiber, total dietary",g,--,--,0.0,0.0
"Sugars, total",g,--,--,1.00,1.54
Minerals
"Calcium, Ca",mg,--,--,0,0
"Iron, Fe",mg,--,--,0.00,0.00
"Sodium, Na",mg,--,--,2000,3077
Vitamins
"Vitamin C, total ascorbic acid",mg,--,--,0.0,0.0
"Vitamin A, IU",IU,--,--,0,0
Lipids
"Fatty acids, total saturated",g,--,--,4.998,7.690
"Fatty acids, total trans",g,--,--,0.501,0.770
"Cholesterol",mg,--,--,0,0
Amino Acids
Other
Ingredients
"NOODLES (54G): WHEAT FLOUR, MODIFIED TAPIOCA STARCH, PALM OIL, SALT, POTASSIUM CARBONATE (E501I). SOUP SACHET (4.8G): SALT, SPICES (PEPPER POWDER, GARLIC POWDER), SUGAR, ARTIFICIAL PORK FLAVOR (0.3%), DRIED GREEN ONION, FLAVOR ENHANCER: MONOSODIUM GLUTAMATE (E621). SAUCE (4.1G): PALM OIL, FRIED RED ONIONS. CONDIMENT (1.8G): DRIED CABBAGE, DRIED CARROT, DRIED GREEN ONION. CHILLI SACHET (0.3G): CHILLI POWDER." Date available: 10/13/2017 Date last updated by company: 10/13/2017
