Source: USDA Branded Food Products Database Release December 2017 Software v.3.8.6.4 2017-10-02
Report Run at: December 17, 2017 21:05 EST
"Nutrient data for: 45004759, MI RANCHITO, BLUE CORN TORTILLA CHIPS, UPC: 077966001792"
Food Group:  Branded Food Products Database
Common Name:

Nutrient,Unit,Data points,Std. Error,"12.0 CHIPS | APPROX. = 28.3g",1Value per 100 g,
Proximates
"Energy",kcal,--,--,140,495
"Protein",g,--,--,2.00,7.07
"Total lipid (fat)",g,--,--,7.00,24.73
"Carbohydrate, by difference",g,--,--,19.00,67.14
"Fiber, total dietary",g,--,--,2.0,7.1
"Sugars, total",g,--,--,0.00,0.00
Minerals
"Calcium, Ca",mg,--,--,40,141
"Iron, Fe",mg,--,--,0.64,2.25
"Sodium, Na",mg,--,--,75,265
Vitamins
"Vitamin C, total ascorbic acid",mg,--,--,0.0,0.0
"Vitamin A, IU",IU,--,--,0,0
Lipids
"Fatty acids, total saturated",g,--,--,1.500,5.300
"Fatty acids, total trans",g,--,--,0.000,0.000
"Cholesterol",mg,--,--,0,0
Amino Acids
Other
Ingredients
"STONE GROUND BLUE CORN, VEGETABLE OIL (MAY CONTAIN ONE OR MORE OF THE FOLLOWING: CANOLA, SAFFLOWER, SUNFLOWER, SOYBEAN, CORN, AND/OR COTTONSEED), WATER AND SEA SALT." Date available: 06/25/2017 Date last updated by company: 06/25/2017
