Source: USDA Branded Food Products Database Release December 2017 Software v.3.8.6.4 2017-10-02
Report Run at: December 17, 2017 19:30 EST
"Nutrient data for: 45041791, MICHIGAN VENISON CO, ORIGINAL GRILLING SAUCE, SMOOTH 'N SWEET, UPC: 853407005051"
Food Group:  Branded Food Products Database
Common Name:

Nutrient,Unit,Data points,Std. Error,"0.25 cup = 46.0g",1Value per 100 g,
Proximates
"Energy",kcal,--,--,90,196
"Protein",g,--,--,1.00,2.17
"Total lipid (fat)",g,--,--,0.00,0.00
"Carbohydrate, by difference",g,--,--,22.00,47.83
"Fiber, total dietary",g,--,--,1.0,2.2
"Sugars, total",g,--,--,19.00,41.30
Minerals
"Sodium, Na",mg,--,--,340,739
Vitamins
Lipids
"Fatty acids, total saturated",g,--,--,0.000,0.000
"Fatty acids, total trans",g,--,--,0.000,0.000
"Cholesterol",mg,--,--,0,0
Amino Acids
Other
Ingredients
"BROWN SUGAR, TOMATO PASTE, APPLE CIDER VINEGAR, CANE SUGAR, WATER, ORANGE JUICE CONCENTRATE, ONION, GARLIC, KOSHER SALT, MOLASSES, PAPRIKA, CHILI PEPPER, CAYENNE, PEPPER." Date available: 07/14/2017 Date last updated by company: 07/14/2017
