Source: USDA Branded Food Products Database Release December 2017 Software v.3.8.6.4 2017-10-02
Report Run at: December 17, 2017 19:29 EST
"Nutrient data for: 45110342, MICHELINA'S, TERIYAKI CHICKEN, UPC: 717854151504"
Food Group:  Branded Food Products Database
Common Name:

Nutrient,Unit,Data points,Std. Error,"1 PACKAGE = 227.0g",1Value per 100 g,
Proximates
"Energy",kcal,--,--,311,137
"Protein",g,--,--,11.01,4.85
"Total lipid (fat)",g,--,--,3.00,1.32
"Carbohydrate, by difference",g,--,--,60.00,26.43
"Fiber, total dietary",g,--,--,0.9,0.4
"Sugars, total",g,--,--,10.01,4.41
Minerals
"Calcium, Ca",mg,--,--,59,26
"Iron, Fe",mg,--,--,1.23,0.54
"Sodium, Na",mg,--,--,819,361
Vitamins
"Vitamin C, total ascorbic acid",mg,--,--,10.2,4.5
"Vitamin A, IU",IU,--,--,645,284
Lipids
"Fatty acids, total saturated",g,--,--,0.499,0.220
"Fatty acids, total trans",g,--,--,0.000,0.000
"Cholesterol",mg,--,--,9,4
Amino Acids
Other
Ingredients
"COOKED LONG GRAIN RICE, WATER, SOY SAUCE (WATER, SOYBEANS, SALT, LACTIC ACID AND LESS THAN 1/10% SODIUM BENZOATE AS A PRESERVATIVE), COOKED WHITE CHICKEN (CHICKEN BREAST WITH RIB MEAT, WATER, SOY PROTEIN ISOLATE, 2% OR LESS OF SALT, SODIUM PHOSPHATE, MODIFIED FOOD STARCH, MALTODEXTRIN AND NATURAL FLAVOR), PINEAPPLE, BROWN SUGAR, BROCCOLI, CARROTS, LESS THAN 2% OR MODIFIED FOOD STARCH, CANOLA OIL, ORANGE JUICE CONCENTRATE, TOASTED SESAME SEEDS, GARLIC (WITH WATER AND CITRIC ACID), GINGER PUREE (GINGER, WATER, CITRIC ACID, POTASSIUM SORBATE), TOASTED SESAME OIL, HYDROLYZED WHEAT PROTEIN (WHEAT PROTEIN, SALT, AND MALTODEXTRIN), XANTHAN GUM, SPICE." Date available: 07/14/2017 Date last updated by company: 07/14/2017
