Source: USDA Branded Food Products Database Release December 2017 Software v.3.8.6.4 2017-10-02
Report Run at: December 17, 2017 19:29 EST
"Nutrient data for: 45111728, MICHELINA'S, ORANGE CHICKEN, UPC: 717854151450"
Food Group:  Branded Food Products Database
Common Name:

Nutrient,Unit,Data points,Std. Error,"1 PACKAGE = 227.0g",1Value per 100 g,
Proximates
"Energy",kcal,--,--,279,123
"Protein",g,--,--,8.99,3.96
"Total lipid (fat)",g,--,--,2.50,1.10
"Carbohydrate, by difference",g,--,--,55.00,24.23
"Fiber, total dietary",g,--,--,0.9,0.4
"Sugars, total",g,--,--,8.99,3.96
Minerals
"Calcium, Ca",mg,--,--,59,26
"Iron, Fe",mg,--,--,0.93,0.41
"Sodium, Na",mg,--,--,581,256
Vitamins
"Vitamin C, total ascorbic acid",mg,--,--,10.2,4.5
"Vitamin A, IU",IU,--,--,343,151
Lipids
"Fatty acids, total saturated",g,--,--,0.000,0.000
"Fatty acids, total trans",g,--,--,0.000,0.000
"Cholesterol",mg,--,--,9,4
Amino Acids
Other
Ingredients
"COOKED LONG GRAIN RICE, WATER, COOKED WHITE CHICKEN (CHICKEN BREAST WITH RIB MEAT, WATER, 2% OR LESS OF SOY PROTEIN ISOLATE, SALT, SODIUM PHOSPHATE, MODIFIED FOOD STARCH, MALTODEXTRIN AND NATURAL FLAVOR), SOY SAUCE (WATER, WHEAT, SOYBEANS, SALT, ALCOHOL, VINEGAR AND LACTIC ACID), BROWN SUGAR, LESS THAN 2% OF CARROTS, ORANGE JUICE CONCENTRATE, RED BELL PEPPERS, MODIFIED FOOD STARCH, PEAS, CANOLA OIL, CHICKEN BASE (CHICKEN MEAT AND CONCENTRATED CHICKEN STOCK, SALT, SUGAR, DRIED WHEY, RENDERED CHICKEN FAT, CORN SYRUP SOLIDS, YEAST EXTRACT, NATURAL FLAVOR, CITRIC ACID, EXTRACTIVES OF TURMERIC), GINGER PUREE (GINGER, WATER), APPLE JUICE CONCENTRATE, GARLIC (WITH WATER AND CITRIC ACID), XANTHAN GUM, COLD PRESSED ORANGE OIL, SPICE." Date available: 08/07/2017 Date last updated by company: 08/07/2017
