Source: USDA Branded Food Products Database Release December 2017 Software v.3.8.6.4 2017-10-02
Report Run at: December 17, 2017 19:31 EST
"Nutrient data for: 45316606, MICROWAVEABLE NOODLE SOUP MIX WITH CHICKEN BROTH, UPC: 07078425411"
Food Group:  Branded Food Products Database
Common Name:

Nutrient,Unit,Data points,Std. Error,"0.25 POUCH = 16.0g",1Value per 100 g,
Proximates
"Energy",kcal,--,--,60,375
"Protein",g,--,--,2.00,12.50
"Total lipid (fat)",g,--,--,1.00,6.25
"Carbohydrate, by difference",g,--,--,10.00,62.50
"Fiber, total dietary",g,--,--,0.0,0.0
"Sugars, total",g,--,--,0.00,0.00
Minerals
"Calcium, Ca",mg,--,--,0,0
"Iron, Fe",mg,--,--,0.00,0.00
"Potassium, K",mg,--,--,0,0
"Sodium, Na",mg,--,--,570,3562
Vitamins
"Vitamin D",IU,--,--,0,0
Lipids
"Fatty acids, total saturated",g,--,--,0.000,0.000
"Fatty acids, total trans",g,--,--,0.000,0.000
"Cholesterol",mg,--,--,10,62
Amino Acids
Other
Ingredients
"ENRICHED NOODLES (WHEAT FLOUR, EGG WHITE AND/OR WHOLE EGG, NIACIN, FERROUS SULFATE [IRON], THIAMIN MONONITRATE, RIBOFLAVIN, FOLIC ACID), CORN SYRUP SOLIDS, HYDROLYZED SOY PROTEIN, SALT, MONOSODIUM GLUTAMATE, CONTAINS LESS THAN 2% OF: COOKED CHICKEN, CHICKEN FAT, PALM OIL, CORNSTARCH, SILICON DIOXIDE, YEAST EXTRACT, DEHYDRATED CHICKEN BROTH, NATURAL FLAVORS, DEHYDRATED PARSLEY, ONION POWDER, CARAMEL COLOR, TURMERIC EXTRACT (COLOR)." Date available: 07/14/2017 Date last updated by company: 07/14/2017
