Source: USDA Branded Food Products Database Release December 2017 Software v.3.8.6.4 2017-10-02
Report Run at: December 17, 2017 19:31 EST
"Nutrient data for: 45183271, MICROWAVABLE MIC & CHEESE DINNER, UPC: 051933346529"
Food Group:  Branded Food Products Database
Common Name:

Nutrient,Unit,Data points,Std. Error,"1 PKG = 58.0g",1Value per 100 g,
Proximates
"Energy",kcal,--,--,230,397
"Protein",g,--,--,6.00,10.34
"Total lipid (fat)",g,--,--,4.50,7.76
"Carbohydrate, by difference",g,--,--,39.00,67.24
"Fiber, total dietary",g,--,--,1.0,1.7
"Sugars, total",g,--,--,6.00,10.34
Minerals
"Calcium, Ca",mg,--,--,60,103
"Iron, Fe",mg,--,--,6.21,10.70
"Sodium, Na",mg,--,--,720,1241
Vitamins
"Vitamin C, total ascorbic acid",mg,--,--,0.0,0.0
"Vitamin A, IU",IU,--,--,0,0
Lipids
"Fatty acids, total saturated",g,--,--,2.001,3.450
"Fatty acids, total trans",g,--,--,0.000,0.000
"Cholesterol",mg,--,--,0,0
Amino Acids
Other
Ingredients
"ENRICHED MACARONI PRODUCT (WHEAT FLOUR, DURUM FLOUR, NIACIN, FERROUS SULFATE, THIAMINE MONONITRATE, RIBOFLAVIN, FOLIC ACID), CHEESE SAUCE MIX (WHEY, MALTODEXTRIN, PALM OIL, CHEDDAR CHEESE [PASTEURIZED MILK, CHEESE CULTURES, SALT, ENZYMES], NATURAL FLAVORS, SALT, DISODIUM PHOSPHATE, SODIUM CASEINATE, YEAST EXTRACT, SOYBEAN OIL, YELLOW 6 LAKE, YELLOW 5 LAKE, YELLOW 5, YELLOW 6, SILICON DIOXIDE), POWDER (FOOD STARCH MODIFIED, SALT, ACETYLATED MONOGLYCERIDES, MALTODEXTRIN, SILICON DIOXIDE)." Date available: 07/14/2017 Date last updated by company: 07/14/2017
