Source: USDA Branded Food Products Database Release December 2017 Software v.3.8.6.4 2017-10-02
Report Run at: December 17, 2017 19:33 EST
"Nutrient data for: 45227918, MICROWAVE POPCORN, UPC: 490710819908"
Food Group:  Branded Food Products Database
Common Name:

Nutrient,Unit,Data points,Std. Error,"4.5 CUPS POPPED); SERVINGS PER BAG ABOUT 2.5 | UNPOPPED (MAKES ABOUT = 34.0g",1Value per 100 g,
Proximates
"Energy",kcal,--,--,150,441
"Protein",g,--,--,4.00,11.76
"Total lipid (fat)",g,--,--,2.50,7.35
"Carbohydrate, by difference",g,--,--,28.00,82.35
"Fiber, total dietary",g,--,--,4.0,11.8
"Sugars, total",g,--,--,0.00,0.00
Minerals
"Calcium, Ca",mg,--,--,0,0
"Iron, Fe",mg,--,--,1.59,4.67
"Sodium, Na",mg,--,--,320,941
Vitamins
"Vitamin C, total ascorbic acid",mg,--,--,0.0,0.0
"Vitamin A, IU",IU,--,--,0,0
Lipids
"Fatty acids, total saturated",g,--,--,1.000,2.940
"Fatty acids, total trans",g,--,--,0.000,0.000
"Cholesterol",mg,--,--,0,0
Amino Acids
Other
Ingredients
"POPCORN, PALM OIL, SALT, BUTTER (MILK), NATURAL FLAVOR, COLOR ADDED, TBHQ AND CITRIC ACID." Date available: 07/14/2017 Date last updated by company: 07/14/2017
