Source: USDA Branded Food Products Database Release December 2017 Software v.3.8.6.4 2017-10-02
Report Run at: December 17, 2017 19:33 EST
"Nutrient data for: 45322946, MICROWAVE POPCORN, UPC: 046567018713"
Food Group:  Branded Food Products Database
Common Name:

Nutrient,Unit,Data points,Std. Error,"3.0 | AS PACKAGED, SERVINGS PER BAG ABOUT = 33.0g",1Value per 100 g,
Proximates
"Energy",kcal,--,--,170,515
"Protein",g,--,--,2.00,6.06
"Total lipid (fat)",g,--,--,10.00,30.30
"Carbohydrate, by difference",g,--,--,17.00,51.52
"Fiber, total dietary",g,--,--,4.0,12.1
"Sugars, total",g,--,--,0.00,0.00
Minerals
"Calcium, Ca",mg,--,--,0,0
"Iron, Fe",mg,--,--,1.09,3.31
"Sodium, Na",mg,--,--,250,758
Vitamins
"Vitamin C, total ascorbic acid",mg,--,--,0.0,0.0
"Vitamin A, IU",IU,--,--,0,0
Lipids
"Fatty acids, total saturated",g,--,--,5.000,15.150
"Fatty acids, total monounsaturated",g,--,--,3.501,10.610
"Fatty acids, total polyunsaturated",g,--,--,1.000,3.030
"Fatty acids, total trans",g,--,--,0.000,0.000
"Cholesterol",mg,--,--,0,0
Amino Acids
Other
Ingredients
"POPCORN, PALM OIL WITH PRESERVATIVE (TBHQ), SALT, NATURAL FLAVOR, COLOR (ANNATTO EXTRACT)." Date available: 09/13/2017 Date last updated by company: 09/13/2017
