Source: USDA Branded Food Products Database Release December 2017 Software v.3.8.6.4 2017-10-02
Report Run at: December 17, 2017 19:34 EST
"Nutrient data for: 45015332, MIDDLE EARTH ORGANICS, ORGANIC TOMATO & BASIL SAUCE, UPC: 832279002016"
Food Group:  Branded Food Products Database
Common Name:

Nutrient,Unit,Data points,Std. Error,"0.5 cup = 118.0g",1Value per 100 g,
Proximates
"Energy",kcal,--,--,65,55
"Protein",g,--,--,1.10,0.93
"Total lipid (fat)",g,--,--,5.00,4.24
"Carbohydrate, by difference",g,--,--,5.00,4.24
"Fiber, total dietary",g,--,--,0.9,0.8
"Sugars, total",g,--,--,3.00,2.54
Minerals
"Calcium, Ca",mg,--,--,20,17
"Iron, Fe",mg,--,--,0.77,0.65
"Sodium, Na",mg,--,--,242,205
Vitamins
"Vitamin C, total ascorbic acid",mg,--,--,25.4,21.5
"Vitamin A, IU",IU,--,--,1162,985
Lipids
"Fatty acids, total saturated",g,--,--,0.696,0.590
"Fatty acids, total trans",g,--,--,0.000,0.000
"Cholesterol",mg,--,--,0,0
Amino Acids
Other
Ingredients
"ORGANIC TOMATOES, ORGANIC EXTRA VIRGIN OLIVE OIL, ORGANIC ONION, ORGANIC CARROT, ORGANIC BASIL, ORGANIC CELERY, SEA SALT" Date available: 07/14/2017 Date last updated by company: 07/14/2017
