Source: USDA Branded Food Products Database Release December 2017 Software v.3.8.6.4 2017-10-02
Report Run at: December 17, 2017 19:35 EST
"Nutrient data for: 45226561, MIDIUM WILD CAUGHT GULF SHRIMP, UPC: 788767006595"
Food Group:  Branded Food Products Database
Common Name:

Nutrient,Unit,Data points,Std. Error,"4.0 ONZ = 112.0g",1Value per 100 g,
Proximates
"Energy",kcal,--,--,120,107
"Protein",g,--,--,13.00,11.61
"Total lipid (fat)",g,--,--,2.00,1.79
"Carbohydrate, by difference",g,--,--,1.00,0.89
"Fiber, total dietary",g,--,--,0.0,0.0
"Sugars, total",g,--,--,0.00,0.00
Minerals
"Calcium, Ca",mg,--,--,60,54
"Iron, Fe",mg,--,--,1.37,1.22
"Sodium, Na",mg,--,--,170,152
Vitamins
"Vitamin C, total ascorbic acid",mg,--,--,0.9,0.8
"Vitamin A, IU",IU,--,--,37,33
Lipids
"Fatty acids, total saturated",g,--,--,0.000,0.000
"Fatty acids, total monounsaturated",g,--,--,0.000,0.000
"Fatty acids, total polyunsaturated",g,--,--,0.000,0.000
"Fatty acids, total trans",g,--,--,0.000,0.000
"Cholesterol",mg,--,--,155,138
Amino Acids
Other
Ingredients
"SHRIMP, WATER, SODIUM BISULFITE (AS A PRESERVATIVE) AND SODIUM TRIPOLYPHOSPHATE." Date available: 10/13/2017 Date last updated by company: 10/13/2017
