Source: USDA Branded Food Products Database Release December 2017 Software v.3.8.6.4 2017-10-02
Report Run at: December 17, 2017 19:35 EST
"Nutrient data for: 45255663, MIDWEST'S PREMIUM LEGACY, BREAKFAST SAUSAGE, TURKEY, UPC: 758878430336"
Food Group:  Branded Food Products Database
Common Name:

Nutrient,Unit,Data points,Std. Error,"2.0 ONZ = 56.0g",1Value per 100 g,
Proximates
"Energy",kcal,--,--,80,143
"Protein",g,--,--,10.00,17.86
"Total lipid (fat)",g,--,--,4.00,7.14
"Carbohydrate, by difference",g,--,--,1.00,1.79
"Fiber, total dietary",g,--,--,0.0,0.0
"Sugars, total",g,--,--,0.00,0.00
Minerals
"Calcium, Ca",mg,--,--,20,36
"Iron, Fe",mg,--,--,0.71,1.26
"Sodium, Na",mg,--,--,290,518
Vitamins
"Vitamin C, total ascorbic acid",mg,--,--,0.0,0.0
"Vitamin A, IU",IU,--,--,0,0
Lipids
"Fatty acids, total saturated",g,--,--,1.501,2.680
"Fatty acids, total trans",g,--,--,0.000,0.000
"Cholesterol",mg,--,--,40,71
Amino Acids
Other
Ingredients
"GROUND TURKEY, WATER AND 2% OR LESS OF SALT, SPICES, SUGAR, DEXTROSE, SPICE EXTRACTIVES, NATURAL FLAVORING." Date available: 07/14/2017 Date last updated by company: 07/14/2017
