Source: USDA Branded Food Products Database Release December 2017 Software v.3.8.6.4 2017-10-02
Report Run at: December 17, 2017 19:46 EST
"Nutrient data for: 45275999, MILD ITALIAN SAUSAGE, UPC: 028364201888"
Food Group:  Branded Food Products Database
Common Name:

Nutrient,Unit,Data points,Std. Error,"1 PAN FRIED LINK = 85.0g",1Value per 100 g,
Proximates
"Energy",kcal,--,--,280,329
"Protein",g,--,--,18.00,21.18
"Total lipid (fat)",g,--,--,22.00,25.88
"Carbohydrate, by difference",g,--,--,2.00,2.35
"Fiber, total dietary",g,--,--,0.0,0.0
"Sugars, total",g,--,--,2.00,2.35
Minerals
"Calcium, Ca",mg,--,--,20,24
"Iron, Fe",mg,--,--,0.47,0.55
"Sodium, Na",mg,--,--,650,765
Vitamins
"Vitamin C, total ascorbic acid",mg,--,--,0.0,0.0
"Vitamin A, IU",IU,--,--,0,0
Lipids
"Fatty acids, total saturated",g,--,--,7.998,9.410
"Fatty acids, total trans",g,--,--,0.000,0.000
"Cholesterol",mg,--,--,70,82
Amino Acids
Other
Ingredients
"PORK, LESS THAN 2% OF THE FOLLOWING: WATER, SUGAR, SALT, SPICES (INCLUDING FENNEL & BLACK PEPPER), POTASSIUM CHLORIDE, PAPRIKA, NATURAL FLAVORS." Date available: 07/14/2017 Date last updated by company: 07/14/2017
