Source: USDA Branded Food Products Database Release December 2017 Software v.3.8.6.4 2017-10-02
Report Run at: December 17, 2017 20:20 EST
"Nutrient data for: 45210649, MILK & WHITE CHOCOLATE DUCK, UPC: 819893019842"
Food Group:  Branded Food Products Database
Common Name:

Nutrient,Unit,Data points,Std. Error,"0.5 PIECE = 40.0g",1Value per 100 g,
Proximates
"Energy",kcal,--,--,220,550
"Protein",g,--,--,3.00,7.50
"Total lipid (fat)",g,--,--,13.00,32.50
"Carbohydrate, by difference",g,--,--,24.00,60.00
"Fiber, total dietary",g,--,--,0.0,0.0
"Sugars, total",g,--,--,24.00,60.00
Minerals
"Calcium, Ca",mg,--,--,60,150
"Iron, Fe",mg,--,--,0.00,0.00
"Sodium, Na",mg,--,--,30,75
Vitamins
"Vitamin C, total ascorbic acid",mg,--,--,1.5,3.8
"Vitamin A, IU",IU,--,--,125,312
Lipids
"Fatty acids, total saturated",g,--,--,8.000,20.000
"Fatty acids, total trans",g,--,--,0.000,0.000
"Cholesterol",mg,--,--,10,25
Amino Acids
Other
Ingredients
"WHITE CHOCOLATE (SUGAR, COCOA BUTTER, WHOLE MILK POWDER, SOY LECITHIN, VANILLA EXTRACT), MILK CHOCOLATE (SUGAR, WHOLE MILK POWDER, COCOA BUTTER, CHOCOLATE LIQUOR, SOY LECITHIN, VANILLA EXTRACT), ARTIFICIAL COLORS (BLUE 1 LAKE, RED 3 DYE, RED 40 LAKE, YELLOW 5 LAKE, YELLOW 6 LAKE)." Date available: 07/14/2017 Date last updated by company: 07/14/2017
