Source: USDA Branded Food Products Database Release December 2017 Software v.3.8.6.4 2017-10-02
Report Run at: December 17, 2017 19:49 EST
"Nutrient data for: 45251916, MILKA, MILKINIS SCHOKO-DROPS, UPC: 891128144000"
Food Group:  Branded Food Products Database
Common Name:

Nutrient,Unit,Data points,Std. Error,"25.0 GRM = 25.0g",1Value per 100 g,
Proximates
"Energy",kcal,--,--,125,500
"Protein",g,--,--,1.60,6.40
"Total lipid (fat)",g,--,--,6.10,24.40
"Carbohydrate, by difference",g,--,--,16.00,64.00
"Fiber, total dietary",g,--,--,0.2,0.8
"Sugars, total",g,--,--,15.50,62.00
Minerals
"Sodium, Na",mg,--,--,30,120
Vitamins
Lipids
"Fatty acids, total saturated",g,--,--,3.500,14.000
Amino Acids
Other
Ingredients
"SUGAR, COCOA BUTTER, WHOLE MILK POWDER (10%), SKIMMED MILK POWDER, CHOCOLATE LIQUOR, DEXTROSE, WHEY POWDER, VEGETABLE FAT, BUTTERFAT, COATING AGENTS (GUM ARABIC, CARNUABA WAX, SHELLAC, BEESWAX), EMULSIFIER (SOY LECITHIN), HAZEL NUTS, RICE STARCH, COLOURS (E171, E120, E131), AROMAS." Date available: 07/14/2017 Date last updated by company: 07/14/2017
