Source: USDA Branded Food Products Database Release December 2017 Software v.3.8.6.4 2017-10-02
Report Run at: December 17, 2017 19:58 EST
"Nutrient data for: 45141681, MILK CHOCOLATE COVERED, UPC: 034986060031"
Food Group:  Branded Food Products Database
Common Name:

Nutrient,Unit,Data points,Std. Error,"16.0 PIECES = 39.0g",1Value per 100 g,
Proximates
"Energy",kcal,--,--,170,436
"Protein",g,--,--,2.00,5.13
"Total lipid (fat)",g,--,--,7.00,17.95
"Carbohydrate, by difference",g,--,--,17.00,43.59
"Fiber, total dietary",g,--,--,1.0,2.6
"Sugars, total",g,--,--,16.00,41.03
Minerals
"Calcium, Ca",mg,--,--,40,103
"Iron, Fe",mg,--,--,0.92,2.37
"Sodium, Na",mg,--,--,170,436
Vitamins
"Vitamin C, total ascorbic acid",mg,--,--,0.0,0.0
"Vitamin A, IU",IU,--,--,0,0
Lipids
"Fatty acids, total saturated",g,--,--,3.498,8.970
"Fatty acids, total trans",g,--,--,0.000,0.000
"Cholesterol",mg,--,--,5,13
Amino Acids
Other
Ingredients
"PRETZEL BALLS (ENRICHED WHEAT FLOUR [WHEAT FLOUR, NIACIN, REDUCED IRON, THIAMINE MONONITRATE, RIBOFLAVIN, FOLIC ACID], SALT, MALT, VEGETABLE OIL (CONTAINS ONE OR MORE OF THE FOLLOWING CANOLA OIL, CORN OIL, SOYBEAN OIL), LEAVENING (CONTAINS ONE OR MORE OF THE FOLLOWING (YEAST SODIUM BICARBONATE, AMMONIUM BICARBONATE), MILK CHOCOLATE (SUGAR, COCOA BUTTER, WHOLE MILK, CHOCOLATE LIQUOR, NONFAT DRY MILK, SOY LECITHIN, VANILLA), RAINBOW NONPAREILS (SUGAR, CORN STARCH, CONFECTIONER'S GLAZE, YELLOW 5, CARNAUBA WAX, RED 3, BLUE 1, RED 40, YELLOW 6, BLUE 2)." Date available: 07/14/2017 Date last updated by company: 07/14/2017
