Source: USDA Branded Food Products Database Release December 2017 Software v.3.8.6.4 2017-10-02
Report Run at: December 17, 2017 20:05 EST
"Nutrient data for: 45267726, MILK CHOCOLATE REINDEER LOLLIPOP RENI, UPC: 698028412174"
Food Group:  Branded Food Products Database
Common Name:

Nutrient,Unit,Data points,Std. Error,"1 POP = 35.0g",1Value per 100 g,
Proximates
"Energy",kcal,--,--,200,571
"Protein",g,--,--,2.00,5.71
"Total lipid (fat)",g,--,--,12.00,34.29
"Carbohydrate, by difference",g,--,--,19.00,54.29
"Fiber, total dietary",g,--,--,0.0,0.0
"Sugars, total",g,--,--,15.00,42.86
Minerals
"Calcium, Ca",mg,--,--,100,286
"Iron, Fe",mg,--,--,3.86,11.02
"Sodium, Na",mg,--,--,35,100
Vitamins
"Vitamin C, total ascorbic acid",mg,--,--,0.0,0.0
"Vitamin A, IU",IU,--,--,0,0
Lipids
"Fatty acids, total saturated",g,--,--,7.000,20.000
"Fatty acids, total trans",g,--,--,0.000,0.000
"Cholesterol",mg,--,--,5,14
Amino Acids
Other
Ingredients
"MILK CHOCOLATE (SUGAR, COCOA BUTTER, MILK, NONFAT MILK, UNSWEETENED CHOCOLATE, SOY LECITHIN AS AN EMULSIFIER, VANILLA FLAVOR), WHITE CHOCOLATE (SUGAR, COCOA BUTTER, MILK, SOY LECITHIN AS AN EMULSIFIER, VANILLA FLAVOR), DARK CHOCOLATE (UNSWEETENED CHOCOLATE , SUGAR, COCOA BUTTER, SOY LECITHIN AS AN EMULSIFIER, VANILLA FLAVOR)." Date available: 08/21/2017 Date last updated by company: 08/21/2017
