Source: USDA Branded Food Products Database Release December 2017 Software v.3.8.6.4 2017-10-02
Report Run at: December 17, 2017 20:14 EST
"Nutrient data for: 45236844, MILK COCOLATE COCONUT CLUSTER, UPC: 089449700504"
Food Group:  Branded Food Products Database
Common Name:

Nutrient,Unit,Data points,Std. Error,"4.0 PIECES = 44.0g",1Value per 100 g,
Proximates
"Energy",kcal,--,--,250,568
"Protein",g,--,--,2.00,4.55
"Total lipid (fat)",g,--,--,17.00,38.64
"Carbohydrate, by difference",g,--,--,24.00,54.55
"Fiber, total dietary",g,--,--,2.0,4.5
"Sugars, total",g,--,--,19.00,43.18
Minerals
"Calcium, Ca",mg,--,--,60,136
"Iron, Fe",mg,--,--,1.64,3.72
"Sodium, Na",mg,--,--,20,45
Vitamins
"Vitamin C, total ascorbic acid",mg,--,--,0.0,0.0
"Vitamin A, IU",IU,--,--,0,0
Lipids
"Fatty acids, total saturated",g,--,--,11.999,27.270
"Fatty acids, total trans",g,--,--,0.000,0.000
"Cholesterol",mg,--,--,5,11
Amino Acids
Other
Ingredients
"COCONUT (SALT, WITH SODIUM METABISULFITE FOR COLOR RETENTION), SUGAR, COCOA BUTTER, MILK, CHOCOLATE LIQUOR, CONTAINS 0.5% OR LESS OF THE FOLLOWING SOYA LECITHIN (AN EMULSIFIER), NONFAT MILK, VANILLA EXTRACT." Date available: 06/25/2017 Date last updated by company: 06/25/2017
