Source: USDA Branded Food Products Database Release December 2017 Software v.3.8.6.4 2017-10-02
Report Run at: December 17, 2017 19:57 EST
"Nutrient data for: 45325966, MILK CHOCOLATE COVERED GUMMI BEARS, UPC: 655956004260"
Food Group:  Branded Food Products Database
Common Name:

Nutrient,Unit,Data points,Std. Error,"40.0 GRM = 40.0g",1Value per 100 g,
Proximates
"Energy",kcal,--,--,140,350
"Protein",g,--,--,1.00,2.50
"Total lipid (fat)",g,--,--,8.00,20.00
"Carbohydrate, by difference",g,--,--,26.00,65.00
"Fiber, total dietary",g,--,--,0.0,0.0
"Sugars, total",g,--,--,20.00,50.00
Minerals
"Calcium, Ca",mg,--,--,60,150
"Iron, Fe",mg,--,--,0.00,0.00
"Sodium, Na",mg,--,--,15,38
Vitamins
"Vitamin C, total ascorbic acid",mg,--,--,0.0,0.0
"Vitamin A, IU",IU,--,--,0,0
Lipids
"Fatty acids, total saturated",g,--,--,2.500,6.250
"Fatty acids, total trans",g,--,--,0.000,0.000
"Cholesterol",mg,--,--,0,0
Amino Acids
Other
Ingredients
"GUMMY BEARS [CORN SYRUP, SUGAR, MODIFIED POTATO STARCH GELATIN, CITRIC ACID, WHITE GRAPE JUICE CONCENTRATE, NATURAL AND ARTIFICIAL FLAVORS, HYDROGENATED COCONUT OIL, CARNAUBA WAX, ARTIFICIAL COLORS (RED 40, YELLOW 5, YELLOW 6, BLUE 1), BEESWAX], MILK CHOCOLATE [SUGAR, COCOA BUTTER, MILK, SOY LECITHIN (AN EMULSIFIER), ARTIFICIAL FLAVORING, SALT]" Date available: 08/11/2017 Date last updated by company: 08/11/2017
