Source: USDA Branded Food Products Database Release December 2017 Software v.3.8.6.4 2017-10-02
Report Run at: December 17, 2017 19:52 EST
"Nutrient data for: 45081198, MILK CHOCOLATE BUTTERCRUNCH TOFFEE, UPC: 041770331604"
Food Group:  Branded Food Products Database
Common Name:

Nutrient,Unit,Data points,Std. Error,"1.4 ONZ = 40.0g",1Value per 100 g,
Proximates
"Energy",kcal,--,--,220,550
"Protein",g,--,--,2.00,5.00
"Total lipid (fat)",g,--,--,14.00,35.00
"Carbohydrate, by difference",g,--,--,23.00,57.50
"Fiber, total dietary",g,--,--,0.0,0.0
"Sugars, total",g,--,--,22.00,55.00
Minerals
"Calcium, Ca",mg,--,--,60,150
"Iron, Fe",mg,--,--,0.45,1.12
"Sodium, Na",mg,--,--,80,200
Vitamins
"Vitamin C, total ascorbic acid",mg,--,--,0.0,0.0
"Vitamin A, IU",IU,--,--,125,312
Lipids
"Fatty acids, total saturated",g,--,--,8.000,20.000
"Fatty acids, total trans",g,--,--,0.000,0.000
"Cholesterol",mg,--,--,10,25
Amino Acids
Other
Ingredients
"MILK CHOCOLATE (SUGAR, COCOA BUTTER, WHOLE MILK POWDER, UNSWEETENED CHOCOLATE (COCOA MASS), SKIM MILK POWDER, SOY LECITHIN (EMULSIFIER) AND VANILLA (NATURAL FLAVOR)), ROCA BUTTERCRUNCH (SUGAR, BUTTER (CREAM, SALT), PALM OIL, ALMONDS, SOY LECITHIN (EMULSIFIER) AND VANILLA (NATURAL FLAVOR))." Date available: 10/04/2017 Date last updated by company: 10/04/2017
