Source: USDA Branded Food Products Database Release December 2017 Software v.3.8.6.4 2017-10-02
Report Run at: December 17, 2017 20:02 EST
"Nutrient data for: 45144340, MILK CHOCOLATE & PEANUT BUTTER FLAVORED SNACK BITES, UPC: 085239120002"
Food Group:  Branded Food Products Database
Common Name:

Nutrient,Unit,Data points,Std. Error,"0.5 cup = 40.0g",1Value per 100 g,
Proximates
"Energy",kcal,--,--,200,500
"Protein",g,--,--,3.00,7.50
"Total lipid (fat)",g,--,--,10.00,25.00
"Carbohydrate, by difference",g,--,--,25.00,62.50
"Fiber, total dietary",g,--,--,1.0,2.5
"Sugars, total",g,--,--,17.00,42.50
Minerals
"Calcium, Ca",mg,--,--,80,200
"Iron, Fe",mg,--,--,4.50,11.25
"Sodium, Na",mg,--,--,135,338
Vitamins
"Vitamin C, total ascorbic acid",mg,--,--,3.0,7.5
"Vitamin A, IU",IU,--,--,250,625
Lipids
"Fatty acids, total saturated",g,--,--,7.000,17.500
"Fatty acids, total trans",g,--,--,0.000,0.000
"Cholesterol",mg,--,--,5,12
Amino Acids
Other
Ingredients
"MILK CHOCOLATE (SUGAR, MILK, COCOA BUTTER, CHOCOLATE, SOY LECITHIN, VANILLIN [ARTIFICIAL FLAVOR]), RICE BISCUITS (RICE, SUGAR, SALT, CALCIUM CARBONATE, MOLASSES, REDUCED IRON AND ZINC OXIDE [MINERAL NUTRIENTS], VITAMIN C [SODIUM ASCORBATE], VITAMIN B3 [NIACINAMIDE], VITAMIN B6 [PYRIDOXINE HYDROCHLORIDE], VITAMIN B1 [THIAMIN MONONITRATE], VITAMIN B2 [RIBOFLAVIN], FOLIC ACID, VITAMIN A PALMITATE, VITAMIN B12, VITAMIN D), SUGAR, PALM KERNEL OIL, PARTIALLY DEFATTED PEANUT FLOUR, NONFAT MILK, MALTODEXTRIN, HYDROGENATED PALM OIL, SALT, SOY LECITHIN." Date available: 07/14/2017 Date last updated by company: 07/14/2017
