Source: USDA Branded Food Products Database Release December 2017 Software v.3.8.6.4 2017-10-02
Report Run at: December 17, 2017 20:07 EST
"Nutrient data for: 45248644, MILK CHOCOLATE TRUFFLES, UPC: 050428495551"
Food Group:  Branded Food Products Database
Common Name:

Nutrient,Unit,Data points,Std. Error,"4.0 PIECES = 42.0g",1Value per 100 g,
Proximates
"Energy",kcal,--,--,220,524
"Protein",g,--,--,2.00,4.76
"Total lipid (fat)",g,--,--,13.00,30.95
"Carbohydrate, by difference",g,--,--,22.00,52.38
"Fiber, total dietary",g,--,--,1.0,2.4
"Sugars, total",g,--,--,22.00,52.38
Minerals
"Calcium, Ca",mg,--,--,80,190
"Iron, Fe",mg,--,--,0.43,1.02
"Sodium, Na",mg,--,--,40,95
Vitamins
"Vitamin C, total ascorbic acid",mg,--,--,0.0,0.0
"Vitamin A, IU",IU,--,--,0,0
Lipids
"Fatty acids, total saturated",g,--,--,8.001,19.050
"Fatty acids, total trans",g,--,--,0.000,0.000
"Cholesterol",mg,--,--,5,12
Amino Acids
Other
Ingredients
"MILK CHOCOLATE (SUGAR, COCOA BUTTER, WHOLE MILK POWDER, COCOA MASS, SKIMMED MILK POWDER, SOY LECITHIN [EMULSIFIER], NATURAL VANILLA EXTRACT), SUGAR, PARTIALLY HYDROGENATED VEGETABLE FAT (PALM, SHEA, SOY, RAPE, SUNFLOWER, COCONUT), WHOLE MILK POWDER, SKIMMED MILK POWDER, COCOA MASS, COCOA BUTTER, MILK FAT, WHEY POWDER FROM MILK, SOY LECITHIN (EMULSIFIER), NATURAL VANILLA EXTRACT, CARAMEL FILLING (CONDENSED SWEETENED MILK, GLUCOSE, FRUCTOSE SYRUP FROM WHEAT, SUGAR, PARTIALLY HYDROGENATED PALM OIL, SUNFLOWER LECITHIN [EMULSIFIER], SORBITAN TRISTEARATE [EMULSIFIER], MILK FAT, FULLY HYDROGENATED RAPE OIL, WATER, GLYCEROL, BURNED SUGAR, CITRIC ACID, SODIUM CITRATE, CARRAGEENAN [STABILIZER], SALT), ARTIFICIAL FLAVOR." Date available: 08/22/2017 Date last updated by company: 08/22/2017
