Source: USDA Branded Food Products Database Release December 2017 Software v.3.8.6.4 2017-10-02
Report Run at: December 17, 2017 20:00 EST
"Nutrient data for: 45271719, MILK CHOCOLATE HEARTS, UPC: 768395504373"
Food Group:  Branded Food Products Database
Common Name:

Nutrient,Unit,Data points,Std. Error,"1 PACKAGE = 18.0g",1Value per 100 g,
Proximates
"Energy",kcal,--,--,90,500
"Protein",g,--,--,1.00,5.56
"Total lipid (fat)",g,--,--,4.00,22.22
"Carbohydrate, by difference",g,--,--,12.00,66.67
"Fiber, total dietary",g,--,--,0.0,0.0
"Sugars, total",g,--,--,11.00,61.11
Minerals
"Calcium, Ca",mg,--,--,20,111
"Iron, Fe",mg,--,--,2.00,11.11
"Sodium, Na",mg,--,--,15,83
Vitamins
"Vitamin C, total ascorbic acid",mg,--,--,0.0,0.0
"Vitamin A, IU",IU,--,--,0,0
Lipids
"Fatty acids, total saturated",g,--,--,3.001,16.670
"Fatty acids, total trans",g,--,--,0.000,0.000
"Cholesterol",mg,--,--,5,28
Amino Acids
Other
Ingredients
"MILK CHOCOLATE (SUGAR, COCOA BUTTER, DRY WHOLE MILK, CHOCOLATE LIQUOR, MILK FAT, SOY LECITHIN (EMULSIFIER), SALT, VANILLA FLAVOR)." Date available: 07/14/2017 Date last updated by company: 07/14/2017
