Source: USDA Branded Food Products Database Release December 2017 Software v.3.8.6.4 2017-10-02
Report Run at: December 17, 2017 19:53 EST
"Nutrient data for: 45266071, MILK CHOCOLATE CARAMEL PRESENTS, UPC: 052745790296"
Food Group:  Branded Food Products Database
Common Name:

Nutrient,Unit,Data points,Std. Error,"3.0 PIECES = 39.0g",1Value per 100 g,
Proximates
"Energy",kcal,--,--,190,487
"Protein",g,--,--,2.00,5.13
"Total lipid (fat)",g,--,--,10.00,25.64
"Carbohydrate, by difference",g,--,--,24.00,61.54
"Fiber, total dietary",g,--,--,1.0,2.6
"Sugars, total",g,--,--,22.00,56.41
Minerals
"Calcium, Ca",mg,--,--,60,154
"Iron, Fe",mg,--,--,0.46,1.18
"Sodium, Na",mg,--,--,50,128
Vitamins
"Vitamin C, total ascorbic acid",mg,--,--,0.0,0.0
"Vitamin A, IU",IU,--,--,128,328
Lipids
"Fatty acids, total saturated",g,--,--,5.998,15.380
"Fatty acids, total trans",g,--,--,0.000,0.000
"Cholesterol",mg,--,--,5,13
Amino Acids
Other
Ingredients
"MILK CHOCOLATE (SUGAR, COCOA BUTTER, CHOCOLATE LIQUOR, MILK, SOY LECITHIN (AN EMULSIFIER) AND VANILLA), CARAMEL SAUCE (CORN SYRUP, SUGAR, BROWN SUGAR, SKIM MILK, PALM OIL, BUTTER, CORNSTARCH, SALT, MONO-AND DIGLYCERIDES, POTASSIUM SORBATE {TO PRESERVE FRESHNESS}, SOY LECITHIN, CARAMEL COLOR, XANTHAN GUM, LOCUST BEAN GUM, ARTIFICIAL FLAVOR, NATURAL FLAVOR)." Date available: 07/14/2017 Date last updated by company: 07/14/2017
