Source: USDA Branded Food Products Database Release December 2017 Software v.3.8.6.4 2017-10-02
Report Run at: December 17, 2017 19:54 EST
"Nutrient data for: 45207175, MILK CHOCOLATE CARAMELS, UPC: 009542011161"
Food Group:  Branded Food Products Database
Common Name:

Nutrient,Unit,Data points,Std. Error,"3.0 PIECES = 38.0g",1Value per 100 g,
Proximates
"Energy",kcal,--,--,190,500
"Protein",g,--,--,2.00,5.26
"Total lipid (fat)",g,--,--,13.00,34.21
"Carbohydrate, by difference",g,--,--,19.00,50.00
"Fiber, total dietary",g,--,--,1.0,2.6
"Sugars, total",g,--,--,16.00,42.11
Minerals
"Calcium, Ca",mg,--,--,40,105
"Iron, Fe",mg,--,--,0.47,1.25
"Sodium, Na",mg,--,--,75,197
Vitamins
"Vitamin C, total ascorbic acid",mg,--,--,0.0,0.0
"Vitamin A, IU",IU,--,--,131,346
Lipids
"Fatty acids, total saturated",g,--,--,5.001,13.160
"Fatty acids, total trans",g,--,--,0.000,0.000
"Cholesterol",mg,--,--,10,26
Amino Acids
Other
Ingredients
"CARAMEL [TAPIOCA SYRUP, INVERT SUGAR, SWEETENED CONDENSED SKIM MILK, BUTTER (CREAM, SALT), HEAVY CREAM, SUGAR, SALT, CARRAGEENAN, SOYA LECITHIN], PECANS, SUGAR, MILK, COCOA BUTTER, CHOCOLATE, SOYA LECITHIN (EMULSIFIER), BARLEY MALT POWDER, ARTIFICIAL FLAVOR." Date available: 07/14/2017 Date last updated by company: 07/14/2017
