Source: USDA Branded Food Products Database Release December 2017 Software v.3.8.6.4 2017-10-02
Report Run at: December 17, 2017 20:08 EST
"Nutrient data for: 45146022, MILK CHOCOLATE, UPC: 768395493134"
Food Group:  Branded Food Products Database
Common Name:

Nutrient,Unit,Data points,Std. Error,"8.0 PIECES = 38.0g",1Value per 100 g,
Proximates
"Energy",kcal,--,--,200,526
"Protein",g,--,--,2.00,5.26
"Total lipid (fat)",g,--,--,11.00,28.95
"Carbohydrate, by difference",g,--,--,24.00,63.16
"Fiber, total dietary",g,--,--,0.0,0.0
"Sugars, total",g,--,--,23.00,60.53
Minerals
"Calcium, Ca",mg,--,--,60,158
"Iron, Fe",mg,--,--,0.95,2.49
"Sodium, Na",mg,--,--,25,66
Vitamins
"Vitamin C, total ascorbic acid",mg,--,--,0.0,0.0
"Vitamin A, IU",IU,--,--,0,0
Lipids
"Fatty acids, total saturated",g,--,--,7.000,18.420
"Fatty acids, total trans",g,--,--,0.000,0.000
"Cholesterol",mg,--,--,5,13
Amino Acids
Other
Ingredients
"SUGAR, COCOA BUTTER, DRY WHOLE MILK, CHOCOLATE LIQUOR, SOY LECITHIN AND PGPR (EMULSIFIERS), NATURAL FLAVOR." Date available: 07/14/2017 Date last updated by company: 07/14/2017
