Source: USDA Branded Food Products Database Release December 2017 Software v.3.8.6.4 2017-10-02
Report Run at: December 17, 2017 19:51 EST
"Nutrient data for: 45284411, MILK CHOCOLATE ALMOND, UPC: 095045400014"
Food Group:  Branded Food Products Database
Common Name:

Nutrient,Unit,Data points,Std. Error,"42.0 GRM = 42.0g",1Value per 100 g,
Proximates
"Energy",kcal,--,--,250,595
"Protein",g,--,--,2.00,4.76
"Total lipid (fat)",g,--,--,18.00,42.86
"Carbohydrate, by difference",g,--,--,22.00,52.38
"Fiber, total dietary",g,--,--,1.0,2.4
"Sugars, total",g,--,--,21.00,50.00
Minerals
"Calcium, Ca",mg,--,--,40,95
"Iron, Fe",mg,--,--,0.21,0.51
"Sodium, Na",mg,--,--,54,129
Vitamins
"Vitamin C, total ascorbic acid",mg,--,--,0.0,0.0
"Vitamin A, IU",IU,--,--,417,992
Lipids
"Fatty acids, total saturated",g,--,--,10.000,23.810
"Fatty acids, total trans",g,--,--,0.000,0.000
"Cholesterol",mg,--,--,32,76
Amino Acids
Other
Ingredients
"BUTTER, SUGAR, MILK CHOCOLATE (SUGAR, WHOLE MILK, COCOA BUTTER, CHOCOLATE LIQUOR, SOY LECITHIN, VANILLIN), ALMONDS, SEA SALT." Date available: 07/14/2017 Date last updated by company: 07/14/2017
