Source: USDA Branded Food Products Database Release December 2017 Software v.3.8.6.4 2017-10-02
Report Run at: December 17, 2017 20:18 EST
"Nutrient data for: 45256492, MILK SHAKE, UPC: 715506120076"
Food Group:  Branded Food Products Database
Common Name:

Nutrient,Unit,Data points,Std. Error,"8.0 OZA = 237.0g",1Value per 100 g,
Proximates
"Energy",kcal,--,--,270,114
"Protein",g,--,--,6.99,2.95
"Total lipid (fat)",g,--,--,10.00,4.22
"Carbohydrate, by difference",g,--,--,39.01,16.46
"Fiber, total dietary",g,--,--,0.0,0.0
"Sugars, total",g,--,--,37.99,16.03
Minerals
"Calcium, Ca",mg,--,--,249,105
"Iron, Fe",mg,--,--,0.00,0.00
"Sodium, Na",mg,--,--,410,173
Vitamins
"Vitamin C, total ascorbic acid",mg,--,--,1.2,0.5
"Vitamin A, IU",IU,--,--,405,171
Lipids
"Fatty acids, total saturated",g,--,--,5.996,2.530
"Fatty acids, total trans",g,--,--,0.000,0.000
"Cholesterol",mg,--,--,40,17
Amino Acids
Other
Ingredients
"REDUCED FAT MILK, SUGAR, WATER, CREAM, NATURAL AND ARTIFICIAL FLAVORS, NONFAT DRY MILK, PHOSPHATES, CARAMEL COLOR, GUAR GUM, CELLULOSE GEL, CELLULOSE GUM, CARRAGEENAN." Date available: 07/14/2017 Date last updated by company: 07/14/2017
