Source: USDA Branded Food Products Database Release December 2017 Software v.3.8.6.4 2017-10-02
Report Run at: December 17, 2017 19:51 EST
"Nutrient data for: 45265683, MILK CHOCOLATE BARK W/ ALMONDS, UPC: 041497133260"
Food Group:  Branded Food Products Database
Common Name:

Nutrient,Unit,Data points,Std. Error,"1 PIECE = 44.0g",1Value per 100 g,
Proximates
"Energy",kcal,--,--,230,523
"Protein",g,--,--,3.00,6.82
"Total lipid (fat)",g,--,--,15.00,34.09
"Carbohydrate, by difference",g,--,--,24.00,54.55
"Fiber, total dietary",g,--,--,1.0,2.3
"Sugars, total",g,--,--,21.00,47.73
Minerals
"Calcium, Ca",mg,--,--,60,136
"Iron, Fe",mg,--,--,0.82,1.86
"Sodium, Na",mg,--,--,25,57
Vitamins
"Vitamin C, total ascorbic acid",mg,--,--,0.0,0.0
"Vitamin A, IU",IU,--,--,0,0
Lipids
"Fatty acids, total saturated",g,--,--,7.000,15.910
"Fatty acids, total trans",g,--,--,0.000,0.000
"Cholesterol",mg,--,--,5,11
Amino Acids
Other
Ingredients
"MILK CHOCOLATE (SUGAR, COCOA BUTTER, CHOCOLATE LIQUOR, MILK, LACTOSE, SOY LECITHIN, SALT, NATURAL VANILLA FLAVOR), ALMONDS." Date available: 07/14/2017 Date last updated by company: 07/14/2017
