Source: USDA Branded Food Products Database Release December 2017 Software v.3.8.6.4 2017-10-02
Report Run at: December 17, 2017 20:12 EST
"Nutrient data for: 45259498, MILK CHOCOLATE WITH CRISPED RICE, UPC: 03465206"
Food Group:  Branded Food Products Database
Common Name:

Nutrient,Unit,Data points,Std. Error,"1 BAR = 43.0g",1Value per 100 g,
Proximates
"Energy",kcal,--,--,210,488
"Protein",g,--,--,3.00,6.98
"Total lipid (fat)",g,--,--,11.00,25.58
"Carbohydrate, by difference",g,--,--,28.00,65.12
"Fiber, total dietary",g,--,--,1.0,2.3
"Sugars, total",g,--,--,23.00,53.49
Minerals
"Calcium, Ca",mg,--,--,60,140
"Iron, Fe",mg,--,--,1.26,2.92
"Sodium, Na",mg,--,--,45,105
Vitamins
"Vitamin C, total ascorbic acid",mg,--,--,0.0,0.0
"Vitamin A, IU",IU,--,--,0,0
Lipids
"Fatty acids, total saturated",g,--,--,7.000,16.280
"Fatty acids, total trans",g,--,--,0.000,0.000
"Cholesterol",mg,--,--,5,12
Amino Acids
Other
Ingredients
"MILK CHOCOLATE ( SUGAR; CHOCOLATE; COCOA BUTTER; NONFAT MILK; MILK FAT; SOY LECITHIN; PGPR EMULSIFIER; VANILLIN, ARTIFICIAL FLAVOR); CRISP RICE (RICE FLOUR; SUGAR; MALT EXTRACT; SALT; MONOGLYCERIDES; TOCOPHEROLS, TO MAINTAIN FRESHNESS)." Date available: 07/14/2017 Date last updated by company: 07/14/2017
