Source: USDA Branded Food Products Database Release December 2017 Software v.3.8.6.4 2017-10-02
Report Run at: December 17, 2017 19:53 EST
"Nutrient data for: 45280947, MILK CHOCOLATE CANDIES, UPC: 888109010799"
Food Group:  Branded Food Products Database
Common Name:

Nutrient,Unit,Data points,Std. Error,"1 BROWNIE = 43.0g",1Value per 100 g,
Proximates
"Energy",kcal,--,--,180,419
"Protein",g,--,--,2.00,4.65
"Total lipid (fat)",g,--,--,7.00,16.28
"Carbohydrate, by difference",g,--,--,26.00,60.47
"Fiber, total dietary",g,--,--,1.0,2.3
"Sugars, total",g,--,--,19.00,44.19
Minerals
"Calcium, Ca",mg,--,--,80,186
"Iron, Fe",mg,--,--,1.01,2.34
"Sodium, Na",mg,--,--,80,186
Vitamins
"Vitamin C, total ascorbic acid",mg,--,--,0.0,0.0
"Vitamin A, IU",IU,--,--,0,0
Lipids
"Fatty acids, total saturated",g,--,--,2.498,5.810
"Fatty acids, total trans",g,--,--,0.000,0.000
"Cholesterol",mg,--,--,5,12
Amino Acids
Other
Ingredients
"SUGAR, WATER, BLEACHED ENRICHED WHEAT FLOUR [WHEAT FLOUR, NIACIN, FERROUS SULFATE (IRON), THIAMIN MONONITRATE, RIBOFLAVIN, FOLIC ACID], M&M'S MILK CHOCOLATE BITS [(SUGAR, CHOCOLATE, SKIM MILK, COCOA BUTTER, LACTOSE, MILKFAT, SOY LECITHIN, SALT, ARTIFICIAL FLAVORS), SUGAR, LESS THAN 2% COLORING (INCLUDES BLUE 1 LAKE, RED 40, YELLOW 6, YELLOW 5, BLUE 1, YELLOW 5 LAKE, RED 40 LAKE, YELLOW 6 LAKE, BLUE 2 LAKE, BLUE 2), DEXTRIN, CORN SYRUP, CORNSTARCH], SOYBEAN OIL, PALM OIL, CORN SYRUP, COCOA (PROCESSED WITH ALKALI), CONTAINS 2% OR LESS: GLYCERIN, DEFATTED SOY FLOUR, SOY LECITHIN, FUDGE BASE (COCOA PROCESSED WITH ALKALI, SOYBEAN OIL, CORN SYRUP SOLIDS, PALM OIL, MONO- AND DIGLYCERIDES, SOY LECITHIN, SALT, CHOCOLATE LIQUOR, ARTIFICIAL FLAVOR), SOYBEAN OIL, CALCIUM CARBONATE, CALCIUM SULFATE, AGAR, LOCUST BEAN GUM, SUNFLOWER OIL, DISODIUM PHOSPHATE, EGG WHITES, PALM OIL, SHORTENING, NATURAL AND ARTIFICIAL FLAVOR, EGGS, SUCROSE, DEXTROSE, SALT MODIFIED CORN STARCH, POTASSIUM SORBATE (TO RETAIN FRESHNESS), BAKING SODA, ENZYMES." Date available: 07/14/2017 Date last updated by company: 07/14/2017
