Source: USDA Branded Food Products Database Release December 2017 Software v.3.8.6.4 2017-10-02
Report Run at: December 17, 2017 20:01 EST
"Nutrient data for: 45268530, MILK CHOCOLATE HEART, UPC: 768395505363"
Food Group:  Branded Food Products Database
Common Name:

Nutrient,Unit,Data points,Std. Error,"1 PACKAGE = 70.0g",1Value per 100 g,
Proximates
"Energy",kcal,--,--,370,529
"Protein",g,--,--,4.00,5.71
"Total lipid (fat)",g,--,--,20.00,28.57
"Carbohydrate, by difference",g,--,--,43.00,61.43
"Fiber, total dietary",g,--,--,1.0,1.4
"Sugars, total",g,--,--,42.00,60.00
Minerals
"Calcium, Ca",mg,--,--,100,143
"Iron, Fe",mg,--,--,1.03,1.47
"Sodium, Na",mg,--,--,40,57
Vitamins
"Vitamin C, total ascorbic acid",mg,--,--,0.0,0.0
"Vitamin A, IU",IU,--,--,0,0
Lipids
"Fatty acids, total saturated",g,--,--,11.998,17.140
"Fatty acids, total trans",g,--,--,0.000,0.000
"Cholesterol",mg,--,--,10,14
Amino Acids
Other
Ingredients
"SUGAR, COCOA BUTTER, DRY WHOLE MILK, CHOCOLATE LIQUOR, EMULSIFIERS (SOY LECITHIN, PGPR), NATURAL VANILLA FLAVOR." Date available: 10/13/2017 Date last updated by company: 10/13/2017
