Source: USDA Branded Food Products Database Release December 2017 Software v.3.8.6.4 2017-10-02
Report Run at: December 17, 2017 20:16 EST
"Nutrient data for: 45086607, MILK FREE SOUR CREAM, UPC: 020188060139"
Food Group:  Branded Food Products Database
Common Name:

Nutrient,Unit,Data points,Std. Error,"2.0 Tbsp = 30.0g",1Value per 100 g,
Proximates
"Energy",kcal,--,--,85,283
"Protein",g,--,--,1.00,3.33
"Total lipid (fat)",g,--,--,5.00,16.67
"Carbohydrate, by difference",g,--,--,9.00,30.00
"Fiber, total dietary",g,--,--,0.0,0.0
"Sugars, total",g,--,--,2.00,6.67
"Lactose",g,--,--,0.00,0.00
Minerals
"Sodium, Na",mg,--,--,160,533
Vitamins
Lipids
"Fatty acids, total saturated",g,--,--,2.001,6.670
"Fatty acids, total trans",g,--,--,0.000,0.000
"Cholesterol",mg,--,--,0,0
Amino Acids
Other
Ingredients
"WATER, EXPELLER PROCESSED NATURAL OIL BLEND (SOYBEAN, PALM FRUIT AND OLIVE), MALTODEXTRIN, SOY PROTEIN, TOFU, NON DAIRY LACTIC ACID, ORGANIC SUGAR, BLEND OF NATURAL GUMS (LOCUST BEAN, GUAR, CELLULOSE, XANTHAN AND CARRAGEENAN), VEG. MONO AND DIGLYCERIDES, SALT." Date available: 09/23/2017 Date last updated by company: 09/23/2017
