Source: USDA Branded Food Products Database Release December 2017 Software v.3.8.6.4 2017-10-02
Report Run at: December 17, 2017 19:51 EST
"Nutrient data for: 45211500, MILK CHOCOLATE ALMOND TOFFEE, UPC: 894216002022"
Food Group:  Branded Food Products Database
Common Name:

Nutrient,Unit,Data points,Std. Error,"1 PIECE = 42.0g",1Value per 100 g,
Proximates
"Energy",kcal,--,--,230,548
"Protein",g,--,--,1.00,2.38
"Total lipid (fat)",g,--,--,16.00,38.10
"Carbohydrate, by difference",g,--,--,22.00,52.38
"Fiber, total dietary",g,--,--,1.0,2.4
"Sugars, total",g,--,--,20.00,47.62
Minerals
"Calcium, Ca",mg,--,--,40,95
"Iron, Fe",mg,--,--,0.86,2.04
"Sodium, Na",mg,--,--,70,167
Vitamins
"Vitamin C, total ascorbic acid",mg,--,--,0.0,0.0
"Vitamin A, IU",IU,--,--,238,567
Lipids
"Fatty acids, total saturated",g,--,--,9.001,21.430
"Fatty acids, total trans",g,--,--,0.000,0.000
"Cholesterol",mg,--,--,20,48
Amino Acids
Other
Ingredients
"MILK CHOCOLATE(CHOCOLATE LIQUOR, SUGAR, COCOA BUTTER, SOY LECITHIN, VANILLA), CANE SUGAR, SALTED BUTTER (CREAM, SALT), ALMONDS." Date available: 07/14/2017 Date last updated by company: 07/14/2017
