Source: USDA Branded Food Products Database Release December 2017 Software v.3.8.6.4 2017-10-02
Report Run at: December 17, 2017 20:23 EST
"Nutrient data for: 45103111, MILLION DOLLAR COOKIE MIX, UPC: 654448003064"
Food Group:  Branded Food Products Database
Common Name:

Nutrient,Unit,Data points,Std. Error,"0.8 ONZ = 22.5g",1Value per 100 g,
Proximates
"Energy",kcal,--,--,80,356
"Protein",g,--,--,1.00,4.44
"Total lipid (fat)",g,--,--,2.00,8.89
"Carbohydrate, by difference",g,--,--,16.00,71.11
"Fiber, total dietary",g,--,--,1.0,4.4
"Sugars, total",g,--,--,11.00,48.89
Minerals
"Calcium, Ca",mg,--,--,0,0
"Iron, Fe",mg,--,--,1.28,5.69
"Sodium, Na",mg,--,--,45,200
Vitamins
"Vitamin C, total ascorbic acid",mg,--,--,0.0,0.0
"Vitamin A, IU",IU,--,--,0,0
Lipids
"Fatty acids, total saturated",g,--,--,0.999,4.440
"Fatty acids, total trans",g,--,--,0.000,0.000
"Cholesterol",mg,--,--,0,0
Amino Acids
Other
Ingredients
"100% ROLLED OATS, FLOUR (ENRICHED WHEAT FLOUR, MALTED BARLEY FLOUR, NIACIN, IRON REDUCED, THIAMINE MONONITRATE, RIBOFLAVIN, FOLIC ACID), SEMI-SWEET CHOCOLATE CHIPS (SUGAR, CHOCOLATE LIQUOR, COCOA BUTTER, DEXTROSE, SOYA LECITHIN, NATURAL VANILLA, MAY CONTAIN MILK), BROWN SUGAR, SUGAR, SWEETENED GROUND CHOCOLATE (SUGAR, COCOA (PROCESSED WITH POTASSIUM CARBONATE), CHOCOLATE LIQUOR, AND PURE VANILLA), BAKING POWDER (SODIUM ACID PYROPHOSPHATE, SODIUM BICARBONATE, CORN STARCH AND MONOCALCIUM PHOSPHATE), SODIUM BICARBONATE, SALT." Date available: 07/14/2017 Date last updated by company: 07/14/2017
