Source: USDA Branded Food Products Database Release December 2017 Software v.3.8.6.4 2017-10-02
Report Run at: December 17, 2017 20:21 EST
"Nutrient data for: 45154448, MILLCREEK CACAO ROASTERS, DARK CHOCOLATE BAR, UPC: 858489005043"
Food Group:  Branded Food Products Database
Common Name:

Nutrient,Unit,Data points,Std. Error,"25.0 GRM = 25.0g",1Value per 100 g,
Proximates
"Energy",kcal,--,--,140,560
"Protein",g,--,--,2.00,8.00
"Total lipid (fat)",g,--,--,11.00,44.00
"Carbohydrate, by difference",g,--,--,13.00,52.00
"Fiber, total dietary",g,--,--,3.0,12.0
"Sugars, total",g,--,--,9.00,36.00
Minerals
"Calcium, Ca",mg,--,--,20,80
"Iron, Fe",mg,--,--,3.60,14.40
"Sodium, Na",mg,--,--,3,12
Vitamins
Lipids
"Fatty acids, total saturated",g,--,--,6.000,24.000
"Fatty acids, total trans",g,--,--,0.000,0.000
Amino Acids
Other
Ingredients
"CACAO, PURE CANE SUGAR, COCOA BUTTER, HIMALAYAN PINK SALT" Date available: 10/11/2017 Date last updated by company: 10/11/2017
