Source: USDA Branded Food Products Database Release December 2017 Software v.3.8.6.4 2017-10-02
Report Run at: December 17, 2017 20:28 EST
"Nutrient data for: 45203673, MINH, MINI EGG ROLLS, WHITE MEAT CHICKEN, UPC: 072180668721"
Food Group:  Branded Food Products Database
Common Name:

Nutrient,Unit,Data points,Std. Error,"3.0 PIECES WITH SAUCE = 88.0g",1Value per 100 g,
Proximates
"Energy",kcal,--,--,180,205
"Protein",g,--,--,4.00,4.55
"Total lipid (fat)",g,--,--,7.00,7.95
"Carbohydrate, by difference",g,--,--,26.00,29.55
"Fiber, total dietary",g,--,--,1.0,1.1
"Sugars, total",g,--,--,7.00,7.95
Minerals
"Calcium, Ca",mg,--,--,0,0
"Iron, Fe",mg,--,--,1.05,1.19
"Potassium, K",mg,--,--,140,159
"Sodium, Na",mg,--,--,460,523
Vitamins
"Vitamin C, total ascorbic acid",mg,--,--,4.7,5.3
"Vitamin A, IU",IU,--,--,966,1098
Lipids
"Fatty acids, total saturated",g,--,--,1.496,1.700
"Fatty acids, total trans",g,--,--,0.000,0.000
"Cholesterol",mg,--,--,10,11
Amino Acids
Other
Ingredients
"FILLING: CABBAGE, WHITE MEAT CHICKEN, CARROTS, CELERY, ONION, CONTAINS 2% OR LESS OF: MODIFIED FOOD STARCH, SUGAR, SALT, BROWN RICE, GREEN ONIONS, SPICE, WHEAT GLUTEN, GARLIC, AUTOLYZED YEAST EXTRACT, TOASTED SESAME OIL, DRIED ONION, DEXTROSE, NATURAL FLAVOR; WRAPPER: WATER, ENRICHED FLOUR (WHEAT FLOUR, NIACIN, REDUCED IRON, THIAMINE MONONITRATE, RIBOFLAVIN, FOLIC ACID), YELLOW CORN FLOUR, CONTAINS 2% OR LESS OF: MODIFIED FOOD STARCH, VEGETABLE OIL (SOYBEAN, COTTONSEED, CORN, AND/OR CANOLA OIL), SALT, EGGS, DEXTROSE, LEAVENING (SODIUM ACID PYROPHOSPHATE, SODIUM BICARBONATE), DRIED GARLIC, DRIED ONION, SPICE, CARAMEL COLOR. FRIED IN VEGETABLE OIL (SOYBEAN, COTTONSEED, CORN, AND/OR CANOLA OIL). SAUCE: SUGAR, WATER, CHILI PEPPERS, VINEGAR, SALT, CONTAINS 2% OR LESS OF: MODIFIED FOOD STARCH, ROASTED GARLIC, DRIED GARLIC, XANTHAN GUM, OLEORESIN PAPRIKA, GUAR GUM, NATURAL FLAVOR, CITRIC ACID." Date available: 07/14/2017 Date last updated by company: 07/14/2017
