Source: USDA Branded Food Products Database Release December 2017 Software v.3.8.6.4 2017-10-02
Report Run at: December 17, 2017 20:36 EST
"Nutrient data for: 45331890, MINI CRAB CAKES, UPC: 045425191308"
Food Group:  Branded Food Products Database
Common Name:

Nutrient,Unit,Data points,Std. Error,"6.0 CAKES = 85.0g",1Value per 100 g,
Proximates
"Energy",kcal,--,--,180,212
"Protein",g,--,--,12.00,14.12
"Total lipid (fat)",g,--,--,13.00,15.29
"Carbohydrate, by difference",g,--,--,19.00,22.35
"Fiber, total dietary",g,--,--,1.0,1.2
"Sugars, total",g,--,--,2.00,2.35
Minerals
"Calcium, Ca",mg,--,--,40,47
"Iron, Fe",mg,--,--,0.72,0.85
"Sodium, Na",mg,--,--,410,482
Vitamins
"Vitamin C, total ascorbic acid",mg,--,--,1.8,2.1
"Vitamin A, IU",IU,--,--,100,118
Lipids
"Fatty acids, total saturated",g,--,--,1.998,2.350
"Fatty acids, total trans",g,--,--,0.000,0.000
"Cholesterol",mg,--,--,40,47
Amino Acids
Other
Ingredients
"CRABMEAT, MAYONNAISE (SOYBEAN OIL, EGG YOLK, WATER, HIGH FRUCTOSE CORN SYRUP, VINEGAR, SALT, SPICES, CALCIUM DISODIUM EDTA), CELERY, BREAD CRUMBS (BLEACHED WHEAT FLOUR, YEAST, SUGAR, SALT, SOYBEAN OIL), FLOUR (UNBLEACHED WHEAT FLOUR, MALTED BARLEY, NIACIN, REDUCED IRON, THIAMINE MONONITRATE, RIBOFLAVIN, FOLIC ACID), ONION, MILK, BUTTER (CREAM, SALT), GREEN PEPPER, NIACIN PREPARATION, CULTURED DEXTROSE, MALTODEXTRIN, ROSEMARY EXTRACT, SOY LECITHIN, SPICES (MODIFIED CORN STARCH, SALT, SOY PROTEIN ISOLATE, CELERY SEED, HYDROLYZED SOY PROTEIN, AUTOLYZED YEAST, XANTHAN GUM, PARSLEY, SOYBEAN OIL, PAPRIKA, ONION POWDER, SILICON DIOXIDE), WORCHESTHIRE (WATER, DISTILLED VINEGAR, HIGH FRUCTOSE CORN SYRUP, SALT, HYDROLYZED SOY PROTEIN, DEXTROSE, CHILI PEPPER, CARAMEL COLOR, GARLIC, ONION, MUSTARD, MALIC ACID, NATURAL FLAVOR, DISODIUM GUANYLATE, DISODIUM INOSINATE)." Date available: 10/13/2017 Date last updated by company: 10/13/2017
