Source: USDA Branded Food Products Database Release December 2017 Software v.3.8.6.4 2017-10-02
Report Run at: December 17, 2017 20:54 EST
"Nutrient data for: 45260248, MINI SUGAR COOKIES WITH CHOCOLATY COATING, UPC: 085239253724"
Food Group:  Branded Food Products Database
Common Name:

Nutrient,Unit,Data points,Std. Error,"3.0 COOKIES = 28.0g",1Value per 100 g,
Proximates
"Energy",kcal,--,--,140,500
"Protein",g,--,--,1.00,3.57
"Total lipid (fat)",g,--,--,7.00,25.00
"Carbohydrate, by difference",g,--,--,19.00,67.86
"Fiber, total dietary",g,--,--,0.0,0.0
"Sugars, total",g,--,--,12.00,42.86
Minerals
"Calcium, Ca",mg,--,--,0,0
"Iron, Fe",mg,--,--,0.64,2.29
"Sodium, Na",mg,--,--,65,232
Vitamins
"Vitamin C, total ascorbic acid",mg,--,--,0.0,0.0
"Vitamin A, IU",IU,--,--,0,0
Lipids
"Fatty acids, total saturated",g,--,--,5.001,17.860
"Fatty acids, total trans",g,--,--,0.000,0.000
"Cholesterol",mg,--,--,0,0
Amino Acids
Other
Ingredients
"WHITE COATING (SUGAR, PALM KERNEL AND PALM OIL, NONFAT DRY MILK, TITANIUM DIOXIDE [COLOR], SOY LECITHIN, VANILLA EXTRACT), ENRICHED BLEACHED WHEAT FLOUR (FLOUR, NIACIN, REDUCED IRON, THIAMINE MONONITRATE, RIBOFLAVIN, FOLIC ACID), SUGAR, PALM OIL, CONTAINS 2% OR LESS OF: RICE FLOUR, NATURAL & ARTIFICIAL FLAVORS, SALT, VEGETABLE OIL (PALM KERNEL OIL AND/OR PALM OIL AND/OR PARTIALLY HYDROGENATED VEGETABLE OIL [COTTONSEED AND/OR SOYBEAN OIL]), LEAVENING (AMMONIUM BICARBONATE, BAKING SODA), ANNATTO (COLOR), BLUE 1, BLUE 1 LAKE, BLUE 2, BLUE 2 LAKE, RED 3, RED 40, RED 40 LAKE, TITANIUM DIOXIDE (COLOR), YELLOW 5, YELLOW 5 LAKE, YELLOW 6, YELLOW 6 LAKE, SOY LECITHIN, CONFECTIONER'S GLAZE, CORN STARCH, GUM ARABIC, CELLULOSE GUM, CARRAGEENAN, WHEY, CARNAUBA WAX, EGGS, GUM TRAGACANTH, CORN SYRUP." Date available: 07/14/2017 Date last updated by company: 07/14/2017
