Source: USDA Branded Food Products Database Release December 2017 Software v.3.8.6.4 2017-10-02
Report Run at: December 17, 2017 20:39 EST
"Nutrient data for: 45283609, MINI DONUTS, UPC: 024126016257"
Food Group:  Branded Food Products Database
Common Name:

Nutrient,Unit,Data points,Std. Error,"3.0 DONUTS = 48.0g",1Value per 100 g,
Proximates
"Energy",kcal,--,--,230,479
"Protein",g,--,--,2.00,4.17
"Total lipid (fat)",g,--,--,14.00,29.17
"Carbohydrate, by difference",g,--,--,24.00,50.00
"Fiber, total dietary",g,--,--,1.0,2.1
"Sugars, total",g,--,--,13.00,27.08
Minerals
"Calcium, Ca",mg,--,--,0,0
"Iron, Fe",mg,--,--,1.24,2.58
"Sodium, Na",mg,--,--,240,500
Vitamins
"Vitamin C, total ascorbic acid",mg,--,--,0.0,0.0
"Vitamin A, IU",IU,--,--,0,0
Lipids
"Fatty acids, total saturated",g,--,--,9.000,18.750
"Fatty acids, total trans",g,--,--,0.000,0.000
"Cholesterol",mg,--,--,20,42
Amino Acids
Other
Ingredients
"ENRICHED BLEACHED WHEAT FLOUR (BLEACHED FLOUR, MALTED BARLEY FLOUR, NIACIN, IRON, THIAMIN MONONITRATE, RIBOFLAVIN, FOLIC ACID), SUGAR, VEGETABLE OIL (CONTAINS ONE OR MORE OF THE FOLLOWING OILS: COTTONSEED OIL, PALM OIL, SOYBEAN OIL), WATER, HYDROGENATED VEGETABLE OIL (PALM KERNEL OIL, PALM OIL), HIGH FRUCTOSE CORN SYRUP, COCOA POWDER (PROCESSED WITH ALKALI), CONTAINS 2% OR LESS OF THE FOLLOWING: EGGS, NONFAT MILK, GLYCERIN, SOY FLOUR, CORN SYRUP, LEAVENING (SODIUM ACID PYROPHOSPHATE, BAKING SODA, SODIUM ALUMINUM PHOSPHATE), PRESERVATIVES (POTASSIUM SORBATE, SODIUM PROPIONATE, CALCIUM PROPIONATE), SALT, DISTILLED MONOGLYCERIDES, DEXTROSE, FOOD STARCH-MODIFIED (CORN AND/OR WHEAT), WHEY, SOY LECITHIN, NATURAL AND ARTIFICIAL FLAVOR, MONO- AND DIGLYCERIDES, SPICES, TAPIOCA STARCH, WHEAT STARCH, CELLULOSE GUM, GUAR GUM, KARAYA GUM, COLORED WITH EXTRACTS OF ANNATTO AND TURMERIC, ARTIFICIAL COLOR, COCONUT." Date available: 07/14/2017 Date last updated by company: 07/14/2017
