Source: USDA Branded Food Products Database Release December 2017 Software v.3.8.6.4 2017-10-02
Report Run at: December 17, 2017 20:37 EST
"Nutrient data for: 45279851, MINI CUPCAKES, UPC: 085239441534"
Food Group:  Branded Food Products Database
Common Name:

Nutrient,Unit,Data points,Std. Error,"3.0 CUPCAKES = 75.0g",1Value per 100 g,
Proximates
"Energy",kcal,--,--,350,467
"Protein",g,--,--,2.00,2.67
"Total lipid (fat)",g,--,--,17.00,22.67
"Carbohydrate, by difference",g,--,--,48.00,64.00
"Fiber, total dietary",g,--,--,1.0,1.3
"Sugars, total",g,--,--,40.00,53.33
Minerals
"Calcium, Ca",mg,--,--,20,27
"Iron, Fe",mg,--,--,0.38,0.51
"Sodium, Na",mg,--,--,190,253
Vitamins
"Vitamin C, total ascorbic acid",mg,--,--,0.0,0.0
"Vitamin A, IU",IU,--,--,0,0
Lipids
"Fatty acids, total saturated",g,--,--,5.003,6.670
"Fatty acids, total trans",g,--,--,0.000,0.000
"Cholesterol",mg,--,--,20,27
Amino Acids
Other
Ingredients
"CAKE: SUGAR, BLEACHED ENRICHED WHEAT FLOUR (WHEAT FLOUR, NIACIN, REDUCED IRON, THIAMINE MONONITRATE, RIBOFLAVIN, FOLIC ACID), EGG, VEGETABLE OIL (CANOLA AND SOYBEAN), WATER, MODIFIED CORNSTARCH, WHEY (MILK INGREDIENT), LEAVENING (SODIUM ACID PYROPHOSPHATE, SODIUM BICARBONATE, CORN STARCH, MONOCALCIUM PHOSPHATE, CALCIUM SULFATE), SOY LECITHIN, WHEAT GLUTEN, SALT, DIACETYL TARTARIC ACID ESTERS OF MONO AND DIGLYCERIDES, ARTIFICIAL FLAVOR. ICING: ICING SUGAR, NON-HYDROGENATED VEGETABLE OIL SHORTENING (CANOLA, PALM, MODIFIED PALM AND PALM KERNEL OILS), GLUCOSE, WATER, SKIM MILK POWDER, BUTTER (CREAM, SALT), ARTIFICIAL FLAVOR, SALT, POLYSORBATE 60. SPRINKLES: SUGAR, MODIFIED CORN STARCH, PALM KERNEL OIL, CORN STARCH, GUM ARABIC, CONFECTIONERS GLAZE, SOY LECITHIN, YELLOW 6, YELLOW 5, BLUE 1, RED 40, ARTIFICIAL FLAVOR, POLYSORBATE 60." Date available: 07/14/2017 Date last updated by company: 07/14/2017
