Source: USDA Branded Food Products Database Release December 2017 Software v.3.8.6.4 2017-10-02
Report Run at: December 17, 2017 20:31 EST
"Nutrient data for: 45230606, MINI BUNDT CAKES, UPC: 492180200729"
Food Group:  Branded Food Products Database
Common Name:

Nutrient,Unit,Data points,Std. Error,"1 BUNDT = 85.0g",1Value per 100 g,
Proximates
"Energy",kcal,--,--,350,412
"Protein",g,--,--,3.00,3.53
"Total lipid (fat)",g,--,--,16.00,18.82
"Carbohydrate, by difference",g,--,--,48.00,56.47
"Fiber, total dietary",g,--,--,1.0,1.2
"Sugars, total",g,--,--,34.00,40.00
Minerals
"Calcium, Ca",mg,--,--,20,24
"Iron, Fe",mg,--,--,0.68,0.80
"Sodium, Na",mg,--,--,370,435
Vitamins
"Vitamin C, total ascorbic acid",mg,--,--,0.0,0.0
"Vitamin A, IU",IU,--,--,377,443
Lipids
"Fatty acids, total saturated",g,--,--,6.001,7.060
"Fatty acids, total trans",g,--,--,0.000,0.000
"Cholesterol",mg,--,--,20,24
Amino Acids
Other
Ingredients
"SUGAR, ENRICHED BLEACHED WHEAT FLOUR (FLOUR, NIACIN, REDUCED IRON, THIAMINE MONONITRATE, RIBOFLAVIN, FOLIC ACID), CREAM CHEESE (MILK, CREAM, CHEESE CULTURE, SALT, CAROB BEAN GUM), SOYBEAN OIL, EGG WHITES, MARGARINE (PALM OIL, WATER, SOYBEAN OIL, SALT, MONO AND DIGLYCERIDES, ARTIFICIAL FLAVOR, ANNATTO EXTRACT, CALCIUM DISODIUM EDTA [PRESERVATIVE], VITAMIN A PALMITATE), EGGS, VEGETABLE SHORTENING (PALM AND SOYBEAN OILS, MONO AND DIGLYCERIDES, POLYSORBATE 60, TBHQ [PRESERVATIVE]), CONTAINS LESS THAN 2% OF THE FOLLOWING: NATURAL FLAVOR, MODIFIED CORNSTARCH, WATER, SKIM MILK, LEAVENING (BAKING SODA, SODIUM ALUMINUM PHOSPHATE, SODIUM ACID PYROPHOSPHATE, MONOCALCIUM PHOSPHATE), MONO AND DIGLYCERIDES, SALT, WHEAT STARCH, MODIFIED WHEY, MODIFIED TAPIOCA STARCH, SODIUM STEAROYL LACTYLATE, PROPYLENE GLYCOL MONO AND DIESTERS OF FATS AND FATTY ACIDS, WHEY, DEXTROSE, SORBITAN MONOSTEARATE, CALCIUM ACETATE, SOY LECITHIN, XANTHAN GUM, PALM AND PALM KERNEL OILS, GUAR GUM, NATURAL AND ARTIFICIAL FLAVOR, SODIUM CASEINATE, POLYSORBATE 60, MILK, WHEAT GLUTEN, COLORED WITH (TURMERIC OLEORESIN, BETA CAROTENE), SOY FLOUR." Date available: 07/14/2017 Date last updated by company: 07/14/2017
