Source: USDA Branded Food Products Database Release December 2017 Software v.3.8.6.4 2017-10-02
Report Run at: December 17, 2017 20:43 EST
"Nutrient data for: 45214539, MINI MALTED MILK EGGS, UPC: 052548550349"
Food Group:  Branded Food Products Database
Common Name:

Nutrient,Unit,Data points,Std. Error,"18.0 PIECES = 40.0g",1Value per 100 g,
Proximates
"Energy",kcal,--,--,180,450
"Protein",g,--,--,1.00,2.50
"Total lipid (fat)",g,--,--,6.00,15.00
"Carbohydrate, by difference",g,--,--,32.00,80.00
"Fiber, total dietary",g,--,--,0.0,0.0
"Sugars, total",g,--,--,25.00,62.50
Minerals
"Calcium, Ca",mg,--,--,40,100
"Iron, Fe",mg,--,--,0.00,0.00
"Sodium, Na",mg,--,--,70,175
Vitamins
"Vitamin C, total ascorbic acid",mg,--,--,0.0,0.0
"Vitamin A, IU",IU,--,--,0,0
Lipids
"Fatty acids, total saturated",g,--,--,6.000,15.000
"Fatty acids, total trans",g,--,--,0.000,0.000
"Cholesterol",mg,--,--,0,0
Amino Acids
Other
Ingredients
"SUGAR, CORN SYRUP, PARTIALLY HYDROGENATED VEGETABLE OIL (PALM KERNEL, COCONUT OIL, COTTONSEED AND/OR SOYBEAN), WHEY, MALTED MILK (MALTED BARLEY, WHEAT FLOUR, MILK, SODIUM BICARBONATE, SALT), MALT SYRUP, MONO AND DIGLYCERIDES, SOY LECITHIN, SALT, ARTIFICIAL COLORS (TITANIUM DIOXIDE, FD&C YELLOW #5, YELLOW #5 LAKE, BLUE #1 LAKE, BLUE #1, RED #3, RED #40 LAKE), ARTIFICIAL FLAVORS, MODIFIED CORNSTARCH, GUM ARABIC, CONFECTIONER'S GLAZE." Date available: 07/14/2017 Date last updated by company: 07/14/2017
