Source: USDA Branded Food Products Database Release December 2017 Software v.3.8.6.4 2017-10-02
Report Run at: December 17, 2017 20:40 EST
"Nutrient data for: 45207206, MINI GOLD & CHOCOLATE CUPCAKES PARTY PLATTER, UPC: 010995305585"
Food Group:  Branded Food Products Database
Common Name:

Nutrient,Unit,Data points,Std. Error,"3.0 CUPCAKES = 85.0g",1Value per 100 g,
Proximates
"Energy",kcal,--,--,330,388
"Protein",g,--,--,2.00,2.35
"Total lipid (fat)",g,--,--,13.00,15.29
"Carbohydrate, by difference",g,--,--,52.00,61.18
"Fiber, total dietary",g,--,--,1.0,1.2
"Sugars, total",g,--,--,40.00,47.06
Minerals
"Calcium, Ca",mg,--,--,20,24
"Iron, Fe",mg,--,--,1.02,1.20
"Sodium, Na",mg,--,--,260,306
Vitamins
"Vitamin C, total ascorbic acid",mg,--,--,0.0,0.0
"Vitamin A, IU",IU,--,--,0,0
Lipids
"Fatty acids, total saturated",g,--,--,4.998,5.880
"Fatty acids, total trans",g,--,--,0.000,0.000
"Cholesterol",mg,--,--,20,24
Amino Acids
Other
Ingredients
"SUGAR, WATER, VEGETABLE OIL (PALM, SOYBEAN, PALM KERNEL, CANOLA), BLEACHED ENRICHED WHEAT FLOUR (FLOUR, NIACIN, REDUCED IRON, THIAMINE MONONITRATE, RIBOFLAVIN, FOLIC ACID), FOOD STARCH-MODIFIED, EGGS, COCOA (PROCESSED WITH ALKALI), CORNSTARCH, CORN SYRUP, NONFAT MILK, LEAVENING (BAKING SODA, SODIUM ACID PYROPHOSPHATE, MONOCALCIUM PHOSPHATE, SODIUM ALUMINUM PHOSPHATE, ALUMINUM SULFATE), SALT, MONO- AND DIGLYCERIDES, WHEY, EGG WHITES, DEXTROSE, SOY LECITHIN, POLYGLYCEROL ESTERS OF FATTY ACIDS, GUAR GUM, NATURAL & ARTIFICIAL FLAVORS, POLYSORBATE 60, POTASSIUM SORBATE (PRESERVATIVE), WHEAT STARCH, GUM ARABIC, GLYCERIN, SODIUM CARBOXYMETHYLCELLULOSE, CALCIUM SULFATE, DATEM, SODIUM STEAROYL LACTYLATE, YELLOW 5, WHEAT PROTEIN ISOLATE, CALCIUM STEAROYL-2-LACTYLATE, YELLOW 6, BLUE 1, RED 40, RED 3, METHYLCELLULOSE, XANTHAN GUM." Date available: 07/14/2017 Date last updated by company: 07/14/2017
