Source: USDA Branded Food Products Database Release December 2017 Software v.3.8.6.4 2017-10-02
Report Run at: December 17, 2017 20:53 EST
"Nutrient data for: 45275676, MINIS HARD CANDIES, UPC: 072799763565"
Food Group:  Branded Food Products Database
Common Name:

Nutrient,Unit,Data points,Std. Error,"5.0 PIECES = 16.0g",1Value per 100 g,
Proximates
"Energy",kcal,--,--,50,312
"Protein",g,--,--,0.00,0.00
"Total lipid (fat)",g,--,--,1.00,6.25
"Carbohydrate, by difference",g,--,--,14.00,87.50
"Fiber, total dietary",g,--,--,0.0,0.0
"Sugars, total",g,--,--,0.00,0.00
Minerals
"Calcium, Ca",mg,--,--,0,0
"Iron, Fe",mg,--,--,0.00,0.00
"Sodium, Na",mg,--,--,85,531
Vitamins
"Vitamin C, total ascorbic acid",mg,--,--,0.0,0.0
"Vitamin A, IU",IU,--,--,0,0
Lipids
"Fatty acids, total saturated",g,--,--,1.000,6.250
"Fatty acids, total trans",g,--,--,0.000,0.000
"Cholesterol",mg,--,--,5,31
Amino Acids
Other
Ingredients
"SWEETENER ISOMALT, BUTTER, CREAM, SALT, ARTIFICIAL FLAVORS, SOY LECITHIN EMULSIFIER, SWEETENER ACESULFAME K" Date available: 07/14/2017 Date last updated by company: 07/14/2017
