Source: USDA Branded Food Products Database Release December 2017 Software v.3.8.6.4 2017-10-02
Report Run at: December 17, 2017 20:33 EST
"Nutrient data for: 45290713, MINI CHOCOLATE CUPCAKES WITH BUTTERCREME ICING, UPC: 078742141114"
Food Group:  Branded Food Products Database
Common Name:

Nutrient,Unit,Data points,Std. Error,"3.0 CUPCAKES = 71.0g",1Value per 100 g,
Proximates
"Energy",kcal,--,--,280,394
"Protein",g,--,--,2.00,2.82
"Total lipid (fat)",g,--,--,12.00,16.90
"Carbohydrate, by difference",g,--,--,39.00,54.93
"Fiber, total dietary",g,--,--,1.0,1.4
"Sugars, total",g,--,--,28.00,39.44
Minerals
"Calcium, Ca",mg,--,--,40,56
"Iron, Fe",mg,--,--,1.62,2.28
"Sodium, Na",mg,--,--,300,423
Vitamins
"Vitamin C, total ascorbic acid",mg,--,--,0.0,0.0
"Vitamin A, IU",IU,--,--,0,0
Lipids
"Fatty acids, total saturated",g,--,--,4.501,6.340
"Fatty acids, total trans",g,--,--,0.000,0.000
"Cholesterol",mg,--,--,20,28
Amino Acids
Other
Ingredients
"SUGAR, WATER, VEGETABLE OIL (SOYBEAN, PALM, PALM KERNEL), BLEACHED ENRICHED WHEAT FLOUR (FLOUR, NIACIN, REDUCED IRON, THIAMINE MONONITRATE, RIBOFLAVIN, FOLIC ACID), COCOA (PROCESSED WITH ALKALI), CORNSTARCH, EGGS, FOOD STARCH-MODIFIED, LEAVENING (BAKING SODA, SODIUM ACID PYROPHOSPHATE, MONOCALCIUM PHOSPHATE, SODIUM ALUMINUM PHOSPHATE), NONFAT MILK, CORN SYRUP, WHEY (MILK), MONO- AND DIGLYCERIDES, SALT, DEXTROSE, GUAR GUM, POTASSIUM SORBATE (PRESERVATIVE), SOY LECITHIN, POLYGLYCEROL ESTERS OF FATTY ACIDS, XANTHAN GUM, NATURAL AND ARTIFICIAL FLAVOR, DEXTRIN, ISOLATED SOY PROTEIN, CALCIUM SULFATE, POLYSORBATE 60, SODIUM CARBOXYMETHYLCELLULOSE, GUM ARABIC, CONFECTIONER'S GLAZE, DATEM, BLUE 1, RED 3, RED 40, RED 40 LAKE, YELLOW 6 LAKE, CARNAUBA WAX, YELLOW 5 LAKE, BLUE 1 LAKE." Date available: 07/14/2017 Date last updated by company: 07/14/2017
