Source: USDA Branded Food Products Database Release December 2017 Software v.3.8.6.4 2017-10-02
Report Run at: December 17, 2017 20:53 EST
"Nutrient data for: 45325237, MINIS FUDGE ICED GOLDEN CAKES, UPC: 072030022871"
Food Group:  Branded Food Products Database
Common Name:

Nutrient,Unit,Data points,Std. Error,"1 CAKE = 47.0g",1Value per 100 g,
Proximates
"Energy",kcal,--,--,190,404
"Protein",g,--,--,1.00,2.13
"Total lipid (fat)",g,--,--,8.00,17.02
"Carbohydrate, by difference",g,--,--,28.00,59.57
"Fiber, total dietary",g,--,--,0.0,0.0
"Sugars, total",g,--,--,20.00,42.55
Minerals
"Calcium, Ca",mg,--,--,20,43
"Iron, Fe",mg,--,--,0.84,1.79
"Sodium, Na",mg,--,--,140,298
Vitamins
"Vitamin C, total ascorbic acid",mg,--,--,0.0,0.0
"Vitamin A, IU",IU,--,--,0,0
Lipids
"Fatty acids, total saturated",g,--,--,2.002,4.260
"Fatty acids, total monounsaturated",g,--,--,2.002,4.260
"Fatty acids, total polyunsaturated",g,--,--,3.502,7.450
"Fatty acids, total trans",g,--,--,0.000,0.000
"Cholesterol",mg,--,--,20,43
Amino Acids
Other
Ingredients
"SUGAR, ENRICHED BLEACHED FLOUR (BLEACHED WHEAT FLOUR, THIAMIN MONONITRATE, RIBOFLAVIN, NIACIN, REDUCED IRON, FOLIC ACID), VEGETABLE OILS (SOYBEAN AND/OR CANOLA, PALM AND PALM KERNEL OILS), EGGS, GLYCERIN, WATER, COCOA (PROCESSED WITH ALKALI), WHEY (MILK), CORN SYRUP, WHEAT STARCH, EMULSIFIERS (MONO- AND DIGLYCERIDES, SORBITAN MONOSTEARATE, POLYSORBATE 60, SOY LECITHIN), PROPYLENE GLYCOL, LEAVENING (CORNSTARCH, BAKING SODA, SODIUM ALUMINUM PHOSPHATE AND/OR SULFATE, SODIUM AND/OR CALCIUM ACID PYROPHOSPHATE, MONOCALCIUM PHOSPHATE, CALCIUM SULFATE, POTASSIUM BICARBONATE), SALT, PRESERVATIVES (POTASSIUM SORBATE, SORBIC ACID), DEXTROSE, GUMS (XANTHAN, AGAR, LOCUST BEAN), ARTIFICIAL FLAVOR, SODIUM CARBOXYMETHYLCELLULOSE, CORNSTARCH, SOY PROTEIN, COLORS (CARAMEL, YELLOW 5, YELLOW 6, RED 40, RED 3, BLUE 1)." Date available: 08/11/2017 Date last updated by company: 08/11/2017
