Source: USDA Branded Food Products Database Release December 2017 Software v.3.8.6.4 2017-10-02
Report Run at: December 17, 2017 20:57 EST
"Nutrient data for: 45208612, MINI WAFER FINGERS IN MILK CHOCOLATE, UPC: 077245108303"
Food Group:  Branded Food Products Database
Common Name:

Nutrient,Unit,Data points,Std. Error,"2.0 BARS = 37.0g",1Value per 100 g,
Proximates
"Energy",kcal,--,--,200,541
"Protein",g,--,--,3.00,8.11
"Total lipid (fat)",g,--,--,11.00,29.73
"Carbohydrate, by difference",g,--,--,22.00,59.46
"Fiber, total dietary",g,--,--,0.0,0.0
"Sugars, total",g,--,--,16.00,43.24
Minerals
"Calcium, Ca",mg,--,--,0,0
"Iron, Fe",mg,--,--,0.00,0.00
"Sodium, Na",mg,--,--,30,81
Vitamins
"Vitamin C, total ascorbic acid",mg,--,--,0.0,0.0
"Vitamin A, IU",IU,--,--,0,0
Lipids
"Fatty acids, total saturated",g,--,--,7.000,18.920
"Fatty acids, total trans",g,--,--,0.000,0.000
"Cholesterol",mg,--,--,10,27
Amino Acids
Other
Ingredients
"SUGAR, MILK POWDER, COCOA BUTTER, CHOCOLATE LIQUOR, WHEAT FLOUR, NUTS (HAZELNUTS, CASHEWS), VEGETABLE OIL & FAT (PALM OIL, PALM FAT), SOY FLOUR, MILK FAT, SOY/RAPESEED LECITHIN & PGPR (EMULSIFIERS), SALT, VANILLIN (ARTIFICIAL FLAVOR), SODIUM BICARBONATE AND AMMONIUM BICARBONATE (LEAVENING AGENTS), PROTEINASE (ENZYME)." Date available: 07/14/2017 Date last updated by company: 07/14/2017
