Source: USDA Branded Food Products Database Release December 2017 Software v.3.8.6.4 2017-10-02
Report Run at: December 17, 2017 20:48 EST
"Nutrient data for: 45189989, MINI PIE, UPC: 018828741029"
Food Group:  Branded Food Products Database
Common Name:

Nutrient,Unit,Data points,Std. Error,"1 MINI PIE WITH ICING (6.5G) = 51.0g",1Value per 100 g,
Proximates
"Energy",kcal,--,--,170,333
"Protein",g,--,--,2.00,3.92
"Total lipid (fat)",g,--,--,6.00,11.76
"Carbohydrate, by difference",g,--,--,26.00,50.98
"Fiber, total dietary",g,--,--,1.0,2.0
"Sugars, total",g,--,--,13.00,25.49
Minerals
"Calcium, Ca",mg,--,--,40,78
"Iron, Fe",mg,--,--,1.80,3.53
"Sodium, Na",mg,--,--,135,265
Vitamins
"Vitamin C, total ascorbic acid",mg,--,--,0.0,0.0
"Vitamin A, IU",IU,--,--,0,0
Lipids
"Fatty acids, total saturated",g,--,--,2.999,5.880
"Fatty acids, total trans",g,--,--,0.000,0.000
"Cholesterol",mg,--,--,0,0
Amino Acids
Other
Ingredients
"ENRICHED FLOUR (WHEAT FLOUR, NIACIN, IRON, THIAMIN MONONITRATE, RIBOFLAVIN, FOLIC ACID), WATER, SUGAR, MILK CHOCOLATE (SUGAR, CHOCOLATE LIQUOR, COCOA BUTTER, WHOLE MILK, SOY LECITHIN, SALT, VANILLA), COCOA POWDER, SHORTENING (PALM OIL AND SOYBEAN OIL), CH" Date available: 12/07/2016 Date last updated by company: 12/07/2016
