Source: USDA Branded Food Products Database Release December 2017 Software v.3.8.6.4 2017-10-02
Report Run at: December 17, 2017 20:45 EST
"Nutrient data for: 45189613, MINI MUFFINS, UPC: 011110868541"
Food Group:  Branded Food Products Database
Common Name:

Nutrient,Unit,Data points,Std. Error,"2.0 MUFFINS = 53.0g",1Value per 100 g,
Proximates
"Energy",kcal,--,--,210,396
"Protein",g,--,--,3.00,5.66
"Total lipid (fat)",g,--,--,11.00,20.75
"Carbohydrate, by difference",g,--,--,25.00,47.17
"Fiber, total dietary",g,--,--,0.0,0.0
"Sugars, total",g,--,--,15.00,28.30
Minerals
"Calcium, Ca",mg,--,--,0,0
"Iron, Fe",mg,--,--,1.49,2.82
"Sodium, Na",mg,--,--,170,321
Vitamins
"Vitamin C, total ascorbic acid",mg,--,--,0.0,0.0
"Vitamin A, IU",IU,--,--,0,0
Lipids
"Fatty acids, total saturated",g,--,--,1.002,1.890
"Fatty acids, total trans",g,--,--,0.000,0.000
"Cholesterol",mg,--,--,40,75
Amino Acids
Other
Ingredients
"SUGAR, EGGS, ENRICHED BLEACHED FLOUR (WHEAT FLOUR, NIACIN, REDUCED IRON, THIAMINE MONONITRATE, RIBOFLAVIN, FOLIC ACID), SOYBEAN OIL, WATER, MODIFIED CORN STARCH, CONTAINS LESS THAN 2% OF: WHEY (MILK), WHEAT GLUTEN, NATURAL AND ARTIFICIAL FLAVORS, SALT, LEAVENING (SODIUM ACID, PYRO PHOSPHATE, BAKING SODA), PROPYLENE GLYCOL ESTERS OF FATTY ACIDS, MONO AND DIGLYCERIDES, POTASSIUM SORBATE (PRESERVATIVE), PHOSPHORIC ACID, YELLOW 6." Date available: 07/14/2017 Date last updated by company: 07/14/2017
