Source: USDA Branded Food Products Database Release December 2017 Software v.3.8.6.4 2017-10-02
Report Run at: December 17, 2017 20:49 EST
"Nutrient data for: 45322919, MINI PIZZA BAGELS, UPC: 07203601990"
Food Group:  Branded Food Products Database
Common Name:

Nutrient,Unit,Data points,Std. Error,"4.0 PIECES = 88.0g",1Value per 100 g,
Proximates
"Energy",kcal,--,--,180,205
"Protein",g,--,--,10.00,11.36
"Total lipid (fat)",g,--,--,4.50,5.11
"Carbohydrate, by difference",g,--,--,27.00,30.68
"Fiber, total dietary",g,--,--,3.0,3.4
"Sugars, total",g,--,--,4.00,4.55
Minerals
"Calcium, Ca",mg,--,--,170,193
"Iron, Fe",mg,--,--,1.70,1.93
"Potassium, K",mg,--,--,130,148
"Sodium, Na",mg,--,--,340,386
Vitamins
"Vitamin C, total ascorbic acid",mg,--,--,5.0,5.7
Lipids
"Fatty acids, total saturated",g,--,--,2.499,2.840
"Fatty acids, total trans",g,--,--,0.000,0.000
"Cholesterol",mg,--,--,15,17
Amino Acids
Other
Ingredients
"BAGEL: (ENRICHED FLOUR [WHEAT FLOUR, NIACIN, REDUCED IRON, THIAMIN MONONITRATE {B1}, RIBOFLAVIN {B2}, FOLIC ACID], WATER, WHOLE WHEAT FLOUR, CONTAINS LESS THAN 2% OF THE FOLLOWING: SUGAR, WHEAT GLUTEN, YEAST, SALT, SOYBEAN OIL, MODIFIED WHEAT STARCH, SOY PROTEIN ISOLATE, VINEGAR [PRESERVATIVE]), TOMATO SAUCE: (WATER, TOMATO PASTE, SPICES [SUGAR, SALT, GARLIC, BLACK PEPPER, BASIL]), MOZZARELLA CHEESE: (PASTEURIZED MILK, NONFAT MILK, CULTURES, SALT, ENZYMES), CHEDDAR CHEESE: (CULTURED PASTEURIZED MILK, SALT, ENZYMES, ANNATTO [COLOR]), MONTEREY JACK CHEESE: (CULTURED PASTEURIZED MILK, SALT, ENZYMES), OREGANO." Date available: 07/14/2017 Date last updated by company: 07/14/2017
