Source: USDA Branded Food Products Database Release December 2017 Software v.3.8.6.4 2017-10-02
Report Run at: December 17, 2017 20:34 EST
"Nutrient data for: 45264827, MINI CHOCOLATE TRUFFLE BOMB CAKE, UPC: 023933685144"
Food Group:  Branded Food Products Database
Common Name:

Nutrient,Unit,Data points,Std. Error,"2.32 ONZ = 66.0g",1Value per 100 g,
Proximates
"Energy",kcal,--,--,230,348
"Protein",g,--,--,2.00,3.03
"Total lipid (fat)",g,--,--,14.00,21.21
"Carbohydrate, by difference",g,--,--,25.00,37.88
"Fiber, total dietary",g,--,--,2.0,3.0
"Sugars, total",g,--,--,18.00,27.27
Minerals
"Calcium, Ca",mg,--,--,20,30
"Iron, Fe",mg,--,--,2.18,3.31
"Sodium, Na",mg,--,--,170,258
Vitamins
"Vitamin C, total ascorbic acid",mg,--,--,0.0,0.0
"Vitamin A, IU",IU,--,--,0,0
Lipids
"Fatty acids, total saturated",g,--,--,5.003,7.580
"Fatty acids, total trans",g,--,--,0.000,0.000
"Cholesterol",mg,--,--,20,30
Amino Acids
Other
Ingredients
"CHOCOLATE (SUGAR, COCOA MASS, COCOA BUTTER, NATURAL VANILLA, SOYA LECITHIN), WHOLE EGGS, FUDGE (COCOA, SOYBEAN OIL, CORN SYRUP SOLIDS, PALM OIL, MONO AND DIGLYCERIDES, SOY LECITHIN, SALT, CHOCOLATE LIQUOR, TBHQ, ARTIFICIAL FLAVOR), CHOCOLATE (SUGAR, CHOCOLATE LIQUOR, COCOA BUTTER, SOYA LECITHIN, VANILLA EXTRACT), FLOUR (BLEACHED WHEAT FLOUR, NIACIN, IRON, THIAMIN, MONONITRATE, RIBOFLAVIN, FOLIC ACID), FONDANT (LIQUID SUGAR, CORN SYRUP), EVAPORATED MILK (MILK, DISODIUM PHOSPHATE, CARRAGEENAN, VITAMIN D), COCOA PROCESSED WITH ALKALI, CREME BASE (FOOD STARCH MODIFIED, DEXTROSE, SALT, TITANIUM DIOXIDE, CARRAGEENAN, GLUCONO DELTA, LACTONE, SODIUM BENZOATE, POTASSIUM SORBATE, ARTIFICIAL FLAVOR, YELLOW #5, YELLOW #6). CONTAINS 2% OR LESS OF THE FOLLOWING: SOUR CREAM (CULTURED MILK, CREAM, NON FAT MILK SOLIDS, MODIFIED FOOD STARCH, GUAR GUM, CARRAGEENAN, LOCUST BEAN GUM), BUTTER (CREAM), VANILLA (WATER, ALCOHOL, PROPYLENE GLYCOL, SUGAR, ARTIFICIAL FLAVORS, CARAMEL COLOR), MILK POWDER (PASTEURIZED SKIM MILK), BAKING POWDER (SODIUM ACID PYROPHOSPHATE, SODIUM BICARBONATE, CORN STARCH, MONOCALCIUM PHOSPHATE)." Date available: 10/10/2017 Date last updated by company: 10/10/2017
