Source: USDA Branded Food Products Database Release December 2017 Software v.3.8.6.4 2017-10-02
Report Run at: December 17, 2017 20:45 EST
"Nutrient data for: 45213282, MINI MUFFINS, UPC: 011225123788"
Food Group:  Branded Food Products Database
Common Name:

Nutrient,Unit,Data points,Std. Error,"2.0 MUFFINS = 49.0g",1Value per 100 g,
Proximates
"Energy",kcal,--,--,200,408
"Protein",g,--,--,2.00,4.08
"Total lipid (fat)",g,--,--,10.00,20.41
"Carbohydrate, by difference",g,--,--,25.00,51.02
"Fiber, total dietary",g,--,--,0.0,0.0
"Sugars, total",g,--,--,14.00,28.57
Minerals
"Calcium, Ca",mg,--,--,20,41
"Iron, Fe",mg,--,--,1.62,3.30
"Sodium, Na",mg,--,--,150,306
Vitamins
"Vitamin C, total ascorbic acid",mg,--,--,0.0,0.0
"Vitamin A, IU",IU,--,--,224,458
Lipids
"Fatty acids, total saturated",g,--,--,1.999,4.080
"Fatty acids, total trans",g,--,--,0.000,0.000
"Cholesterol",mg,--,--,25,51
Amino Acids
Other
Ingredients
"SUGAR, ENRICHED BLEACHED FLOUR (WHEAT FLOUR, NIACIN, IRON, THIAMINE MONONITRATE, RIBOFLAVIN, FOLIC ACID), SOYBEAN OIL, WATER, EGGS, BANANAS, WALNUTS, MARGARINE (PALM OIL, WATER, SALT, MONO AND DIGLYCERIDES, SOY LECITHIN, SODIUM BENZOATE, ARTIFICIAL FLAVOR, BETA CAROTENE FOR COLOR AND VITAMIN A PALMITATE), CONTAINS 2% OR LESS OF: FOOD STARCH-MODIFIED, INVERT SUGAR, GLYCERINE, CINNAMON, MOLASSES, SODIUM ALUMINUM PHOSPHATE, BAKING SODA, MONOCALCIUM PHOSPHATE, MONO AND DIGLYCERIDES, SODIUM STEAROYL LACTYLATE, POLYSORBATE 60, PROPYLENE GLYCOL MONOESTERS, WHEY, SALT, WHEAT GLUTEN, NONFAT MILK, SOY FLOUR, PRESERVATIVES (POTASSIUM SORBATE, SORBIC ACID AND SODIUM PROPIONATE), GUAR GUM, XANTHAN GUM, NATURAL AND ARTIFICIAL FLAVOR." Date available: 07/14/2017 Date last updated by company: 07/14/2017
