Source: USDA Branded Food Products Database Release December 2017 Software v.3.8.6.4 2017-10-02
Report Run at: December 17, 2017 20:50 EST
"Nutrient data for: 45120516, MINI QUESADILLAS CHICKEN & CHEESE, UPC: 073202895132"
Food Group:  Branded Food Products Database
Common Name:

Nutrient,Unit,Data points,Std. Error,"3.0 PIECES = 85.0g",1Value per 100 g,
Proximates
"Energy",kcal,--,--,210,247
"Protein",g,--,--,9.00,10.59
"Total lipid (fat)",g,--,--,8.00,9.41
"Carbohydrate, by difference",g,--,--,25.00,29.41
"Fiber, total dietary",g,--,--,2.0,2.4
"Sugars, total",g,--,--,1.00,1.18
Minerals
"Calcium, Ca",mg,--,--,200,235
"Iron, Fe",mg,--,--,2.37,2.79
"Sodium, Na",mg,--,--,570,671
Vitamins
"Vitamin C, total ascorbic acid",mg,--,--,0.0,0.0
"Vitamin A, IU",IU,--,--,330,388
Lipids
"Fatty acids, total saturated",g,--,--,3.502,4.120
"Fatty acids, total trans",g,--,--,0.000,0.000
"Cholesterol",mg,--,--,20,24
Amino Acids
Other
Ingredients
"ENRICHED WHEAT FLOUR (WHEAT FLOUR, NIACIN, REDUCED IRON, THIAMINE MONONITRATE, RIBOFLAVIN, FOLIC ACID), WATER COOKED WHITE CHICKEN MEAT (CHICKEN WHITE MEAT, WATER, MODIFIED FOOD STARCH, SALT, SODIUM PHOSPHATE), PASTEURIZED PROCESS CHEDDAR CHEESE [CULTURED MILK, WATER, SALT, SODIUM PHOSPHATE, CREAM, SODIUM HEXAMETAPHOSPHATE, SORBIC ACID (PRESERVATIVE), ARTIFICIAL COLOR, LACTIC ACID, ENZYMES], MONTEREY JACK CHEESE (PASTEURIZED MILK, CHEESE CULTURE, SALT, ENZYMES), STONE-GROUND CORN MASA FLOUR (TRACE OF LIME), CHEDDAR CHEESE (PASTEURIZED MILK, CHEESE CULTURE, SALT, ENZYMES, ANNATTO COLOR), SOYBEAN OIL, GREEN CHILE PEPPERS (GREEN CHILES, CITRIC ACID), ONIONS. CONTAINS LESS THAN 2% OF: TOMATO PASTE, GARLIC IN OIL (GARLIC, WATER, SOYBEAN OIL, PHOSPHORIC ACID AS AN ACIDIFYING AGENT), CRUSHED RED PEPPER, FLAVORINGS, CHICKEN BASE (CHICKEN MEAT INCLUDING NATURAL CHICKEN JUICES, NATURAL SEA SALT, CHICKEN FAT, VEGETABLE EXTRACT (POTATO, CARROT, ONION), YEAST EXTRACT, NATURAL FLAVORS, AND TURMERIC), CELLULOSE, METHYLCELLULOSE, MODIFIED FOOD STARCH, CALCIUM CARBONATE, LEAVENING (SODIUM BICARBONATE, CORN STARCH, SODIUM ALUMINUM SULFATE, CALCIUM SULFATE, MONOCALCIUM PHOSPHATE), L-CYCSTEINE MONOHYDROCHLORIDE, GUAR GUM, SALT." Date available: 07/14/2017 Date last updated by company: 07/14/2017
