Source: USDA Branded Food Products Database Release December 2017 Software v.3.8.6.4 2017-10-02
Report Run at: December 17, 2017 20:48 EST
"Nutrient data for: 45203744, MINI PECAN TARTS, UPC: 857484001111"
Food Group:  Branded Food Products Database
Common Name:

Nutrient,Unit,Data points,Std. Error,"1 TART = 25.0g",1Value per 100 g,
Proximates
"Energy",kcal,--,--,110,440
"Protein",g,--,--,1.00,4.00
"Total lipid (fat)",g,--,--,6.00,24.00
"Carbohydrate, by difference",g,--,--,13.00,52.00
"Fiber, total dietary",g,--,--,0.5,2.0
"Sugars, total",g,--,--,5.00,20.00
Minerals
"Calcium, Ca",mg,--,--,0,0
"Iron, Fe",mg,--,--,0.72,2.88
"Sodium, Na",mg,--,--,45,180
Vitamins
"Vitamin C, total ascorbic acid",mg,--,--,0.0,0.0
"Vitamin A, IU",IU,--,--,0,0
Lipids
"Fatty acids, total saturated",g,--,--,2.500,10.000
"Fatty acids, total monounsaturated",g,--,--,1.000,4.000
"Fatty acids, total polyunsaturated",g,--,--,0.000,0.000
"Fatty acids, total trans",g,--,--,0.000,0.000
"Cholesterol",mg,--,--,15,60
Amino Acids
Other
Ingredients
"ENRICHED FLOUR (WHEAT FLOUR, MALTED BARLEY FLOUR,ASCORBIC ACID, NIACIN, IRON, THIAMINE MONONITRATE, RIBOFLAVIN, FOLIC ACID), CORN SYRUP, BUTTER WITH NATURAL FLAVOR (CREAM, NATURAL FALVOR), PECANS, BROWN SUGAR (SUGAR, INVERT SUGAR, CANE MOLASSES), EGGS, POWDERED SUGAR, HONEY, MARGARINE (PALM OIL, WATER, SALT, VEGETABLE MONOGLYCERIDES, WHEY SOLIDS, SODIUM BENZOATE, NATURAL & ARTIFICIAL FLAVOR, CITRIC ACID, BETA CAROTENE [COLOR], VITAMIN A PALMITATE), WATER, CORN STARCH, VANILLA EXTRACT (WATER, ETHYL ALCOHOL, CORN SYRUP, NATURAL FLAVOR), SALT, STABILIZER BLEND (CARRAGEENAN STANDARDIZED WITH SUGAR AND CLACIUM SULFATE, TARA GUM)." Date available: 07/14/2017 Date last updated by company: 07/14/2017
