Source: USDA Branded Food Products Database Release December 2017 Software v.3.8.6.4 2017-10-02
Report Run at: December 17, 2017 20:31 EST
"Nutrient data for: 45282432, MINI BROWNIES, UPC: 085239441930"
Food Group:  Branded Food Products Database
Common Name:

Nutrient,Unit,Data points,Std. Error,"2.0 BROWNIES = 50.0g",1Value per 100 g,
Proximates
"Energy",kcal,--,--,230,460
"Protein",g,--,--,1.00,2.00
"Total lipid (fat)",g,--,--,12.00,24.00
"Carbohydrate, by difference",g,--,--,29.00,58.00
"Fiber, total dietary",g,--,--,1.0,2.0
"Sugars, total",g,--,--,20.00,40.00
Minerals
"Calcium, Ca",mg,--,--,0,0
"Iron, Fe",mg,--,--,0.86,1.73
"Sodium, Na",mg,--,--,85,170
Vitamins
"Vitamin C, total ascorbic acid",mg,--,--,0.0,0.0
"Vitamin A, IU",IU,--,--,0,0
Lipids
"Fatty acids, total saturated",g,--,--,3.500,7.000
"Fatty acids, total trans",g,--,--,0.000,0.000
"Cholesterol",mg,--,--,0,0
Amino Acids
Other
Ingredients
"BROWNIE: SUGAR, BLEACHED ENRICHED WHEAT FLOUR (WHEAT FLOUR, NIACIN, REDUCED IRON, THIAMINE MONONITRATE, RIBOFLAVIN, FOLIC ACID), SOYBEAN OIL, EGG WHITE, CORN SYRUP, WATER, CHOCOLATE (SUGAR, CHOCOLATE LIQUOR, COCOA BUTTER, SOY LECITHIN, VANILLA EXTRACT), SHORTENING (PALM, CANOLA AND MODIFIED PALM OIL), COCOA POWDER PROCESSED WITH ALKALI, SALT, NATURAL AND ARTIFICIAL FLAVOR, WHEY POWDER, MODIFIED CORN STARCH, LEAVENING (SODIUM ACID PYROPHOSPHATE, SODIUM BICARBONATE, CORN STARCH, MONOCALCIUM PHOSPHATE, CALCIUM SULFATE), SOY LECITHIN. FROSTING: ICING SUGAR, NON-HYDROGENATED VEGETABLE OIL SHORTENING (CANOLA, PALM, MODIFIED PALM AND PALM KERNEL OILS), GLUCOSE, WATER, SKIM MILK POWDER, MONO AND DIGLYCERIDES, BUTTER (CREAM SALT), ARTIFICIAL FLAVOR, YELLOW 5, BLUE 1, MODIFIED CORN STARCH, SALT, POLYSORBATE 60. SPRINKLES: SUGAR, MODIFIED CORN STARCH, PALM KERNEL OIL, CORN STARCH, GUM ARABIC CONFECTIONER'S GLAZE, SOY LECITHIN, YELLOW 6, YELLOW 5, BLUE 1, RED 40, ARTIFICIAL FLAVOR, POLYSORBATE 60." Date available: 07/14/2017 Date last updated by company: 07/14/2017
