Source: USDA Branded Food Products Database Release December 2017 Software v.3.8.6.4 2017-10-02
Report Run at: December 17, 2017 20:45 EST
"Nutrient data for: 45214527, MINI MUFFINS, UPC: 051933340220"
Food Group:  Branded Food Products Database
Common Name:

Nutrient,Unit,Data points,Std. Error,"1 MUFFIN | APPROX. = 25.0g",1Value per 100 g,
Proximates
"Energy",kcal,--,--,110,440
"Protein",g,--,--,1.00,4.00
"Total lipid (fat)",g,--,--,6.00,24.00
"Carbohydrate, by difference",g,--,--,11.00,44.00
"Fiber, total dietary",g,--,--,0.0,0.0
"Sugars, total",g,--,--,7.00,28.00
Minerals
"Calcium, Ca",mg,--,--,20,80
"Iron, Fe",mg,--,--,3.17,12.67
"Sodium, Na",mg,--,--,130,520
Vitamins
"Vitamin C, total ascorbic acid",mg,--,--,0.0,0.0
"Vitamin A, IU",IU,--,--,0,0
Lipids
"Fatty acids, total saturated",g,--,--,1.500,6.000
"Fatty acids, total trans",g,--,--,0.000,0.000
"Cholesterol",mg,--,--,20,80
Amino Acids
Other
Ingredients
"SUGAR, ENRICHED BLEACHED WHEAT FLOUR (FLOUR, NIACIN, IRON, THIAMINE MONONITRATE, RIBOFLAVIN, FOLIC ACID), WHOLE EGGS, LIQUID SOYBEAN OIL, WATER, COCOA (PROCESSED WITH ALKALI), CHOCOLATE CHIPS (SUGAR, CHOCOLATE LIQUOR, COCOA BUTTER, SOY LECITHIN, VANILLIN), MODIFIED CORN STARCH, MONO AND DIGLYCERIDES, WHEY (MILK). CONTAINS 2% OR LESS OF EACH: SALT, BAKING SODA, SODIUM ALUMINUM PHOSPHATE, CALCIUM POTASSIUM SORBATE AND SODIUM PROPIONATE (PRESERVATIVES), NONFAT MILK, XANTHAN GUM, GUAR GUM, POLYSORBATE 60, VITAL WHEAT GLUTEN, SORBITAN MONOSTEARATE, SODIUM STEAROYL LACTYLATE, NATURAL AND ARTIFICIAL FLAVORS." Date available: 07/14/2017 Date last updated by company: 07/14/2017
