Source: USDA Branded Food Products Database Release December 2017 Software v.3.8.6.4 2017-10-02
Report Run at: December 17, 2017 20:38 EST
"Nutrient data for: 45192741, MINI CUSTARD-FILLED ICED ECLAIRS, UPC: 824863000843"
Food Group:  Branded Food Products Database
Common Name:

Nutrient,Unit,Data points,Std. Error,"3.0 MINI ECLAIRS = 45.0g",1Value per 100 g,
Proximates
"Energy",kcal,--,--,130,289
"Protein",g,--,--,2.00,4.44
"Total lipid (fat)",g,--,--,7.00,15.56
"Carbohydrate, by difference",g,--,--,14.00,31.11
"Fiber, total dietary",g,--,--,1.0,2.2
"Sugars, total",g,--,--,8.00,17.78
Minerals
"Calcium, Ca",mg,--,--,20,44
"Iron, Fe",mg,--,--,0.68,1.51
"Sodium, Na",mg,--,--,80,178
Vitamins
"Vitamin C, total ascorbic acid",mg,--,--,0.0,0.0
"Vitamin A, IU",IU,--,--,0,0
Lipids
"Fatty acids, total saturated",g,--,--,3.501,7.780
"Fatty acids, total trans",g,--,--,0.000,0.000
"Cholesterol",mg,--,--,30,67
Amino Acids
Other
Ingredients
"WATER, WHOLE EGGS, SUGAR, WHEAT FLOUR, PARTIALLY HYDROGENATED OIL (SOYBEAN, PALM KERNEL, AND COTTONSEED OILS), SOYBEAN OIL, MODIFIED FOOD STARCH, CONTAINS 2% OR LESS OF: COCOA (PROCESSED WITH ALKALI), DEXTROSE, NON FAT DRY MILK, CHOCOLATE LIQUOR, PALM OIL, SALT, NATURAL AND ARTIFICIAL FLAVOR, LEAVENING (SODIUM ACID PYROPHOSPHATE, BAKING SODA, MONOCALCIUM PHOSPHATE), SOY LECITHIN, TITANIUM DIOXIDE, CARRAGEENAN, MONO AND DIGLYCERIDES, FD&C YELLOW 5, FD&C YELLOW 6, RED 40, POLYSORBATE 60." Date available: 07/14/2017 Date last updated by company: 07/14/2017
