Source: USDA Branded Food Products Database Release December 2017 Software v.3.8.6.4 2017-10-02
Report Run at: December 17, 2017 20:29 EST
"Nutrient data for: 45146083, MINIATURES PEANUT BUTTER CUPS, UPC: 768395500009"
Food Group:  Branded Food Products Database
Common Name:

Nutrient,Unit,Data points,Std. Error,"1 PAKCAGE = 17.0g",1Value per 100 g,
Proximates
"Energy",kcal,--,--,90,529
"Protein",g,--,--,2.00,11.76
"Total lipid (fat)",g,--,--,5.00,29.41
"Carbohydrate, by difference",g,--,--,10.00,58.82
"Fiber, total dietary",g,--,--,1.0,5.9
"Sugars, total",g,--,--,9.00,52.94
Minerals
"Calcium, Ca",mg,--,--,0,0
"Iron, Fe",mg,--,--,0.00,0.00
"Sodium, Na",mg,--,--,50,294
Vitamins
"Vitamin C, total ascorbic acid",mg,--,--,0.0,0.0
"Vitamin A, IU",IU,--,--,0,0
Lipids
"Fatty acids, total saturated",g,--,--,1.999,11.760
"Fatty acids, total trans",g,--,--,0.000,0.000
"Cholesterol",mg,--,--,0,0
Amino Acids
Other
Ingredients
"MILK CHOCOLATE ( SUGAR; COCOA BUTTER; CHOCOLATE; NONFAT MILK; MILK FAT; LACTOSE; SOY LECITHIN; PGPR, EMULSIFIER); PEANUTS; SUGAR; DEXTROSE; SALT; TBHQ ( PRESERVATIVE)" Date available: 07/14/2017 Date last updated by company: 07/14/2017
