Source: USDA Branded Food Products Database Release December 2017 Software v.3.8.6.4 2017-10-02
Report Run at: December 17, 2017 20:28 EST
"Nutrient data for: 45199155, MINI ASPARAGUS & BACON CRUSTLESS QUICHES, UPC: 078742110998"
Food Group:  Branded Food Products Database
Common Name:

Nutrient,Unit,Data points,Std. Error,"5.0 PIECES = 83.0g",1Value per 100 g,
Proximates
"Energy",kcal,--,--,230,277
"Protein",g,--,--,15.00,18.07
"Total lipid (fat)",g,--,--,17.00,20.48
"Carbohydrate, by difference",g,--,--,3.00,3.61
"Fiber, total dietary",g,--,--,1.0,1.2
"Sugars, total",g,--,--,1.00,1.20
Minerals
"Calcium, Ca",mg,--,--,200,241
"Iron, Fe",mg,--,--,2.43,2.93
"Sodium, Na",mg,--,--,720,867
Vitamins
"Vitamin C, total ascorbic acid",mg,--,--,25.3,30.5
"Vitamin A, IU",IU,--,--,675,813
Lipids
"Fatty acids, total saturated",g,--,--,6.997,8.430
"Fatty acids, total monounsaturated",g,--,--,2.996,3.610
"Fatty acids, total polyunsaturated",g,--,--,0.996,1.200
"Fatty acids, total trans",g,--,--,0.000,0.000
"Cholesterol",mg,--,--,210,253
Amino Acids
Other
Ingredients
"WHOLE EGGS, PARMESAN CHEESE (PASTEURIZED MILK, CHEESE CULTURE, ENZYMES, SALT), ASPARAGUS, CREAM BLEND (PASTEURIZED CREAM, MILK), BACON (CURED WITH: WATER SALT, SUGAR, SODIUM PHOSPHATE, SODIUM ERYTHORBATE, SODIUM NITRITE.), RED BELL PEPPERS, CANOLA OIL, SEA SALT, CORN STARCH, BLACK PEPPER." Date available: 07/14/2017 Date last updated by company: 07/14/2017
