Source: USDA Branded Food Products Database Release December 2017 Software v.3.8.6.4 2017-10-02
Report Run at: December 17, 2017 20:54 EST
"Nutrient data for: 45203371, MINI STUFFED CLAMS WITH SPICY CHORIZO, UPC: 880632014152"
Food Group:  Branded Food Products Database
Common Name:

Nutrient,Unit,Data points,Std. Error,"2.0 PIECES = 71.0g",1Value per 100 g,
Proximates
"Energy",kcal,--,--,170,239
"Protein",g,--,--,7.00,9.86
"Total lipid (fat)",g,--,--,9.00,12.68
"Carbohydrate, by difference",g,--,--,13.00,18.31
"Fiber, total dietary",g,--,--,0.0,0.0
"Sugars, total",g,--,--,1.00,1.41
Minerals
"Calcium, Ca",mg,--,--,40,56
"Iron, Fe",mg,--,--,1.29,1.82
"Sodium, Na",mg,--,--,330,465
Vitamins
"Vitamin C, total ascorbic acid",mg,--,--,5.8,8.1
"Vitamin A, IU",IU,--,--,599,843
Lipids
"Fatty acids, total saturated",g,--,--,4.501,6.340
"Fatty acids, total trans",g,--,--,0.000,0.000
"Cholesterol",mg,--,--,30,42
Amino Acids
Other
Ingredients
"SURF CLAMS, CLAM JUICE (SEA CLAM JUICE, SALT), CHORIZO SAUSAGE (ALL-NATURAL PORK, WATER, PAPRIKA, SALT, VINEGAR, SOY FLOUR, SPICES), BUTTER (CREAM, SALT), PANKO BREAD CRUMBS (UNBLEACHED WHEAT FLOUR, EVAPORATED CANE JUICE, YEAST, SEA SALT), CRACKER (UNBLEACHED WHEAT FLOUR, WATER, CANOLA OIL, CANE SUGAR, SALT, YEAST, BAKING SODA), ONION, ASIAGO CHEESE (PASTEURIZED PART-SKIM MILK, CHEESE CULTURES, SALT, ENZYMES), PARSLEY, GARLIC, LEMON JUICE, CLAM BROTH (DEHYDRATED CLAM BROTH, MALTODEXTRIN), BLACK PEPPER, PAPRIKA." Date available: 07/14/2017 Date last updated by company: 07/14/2017
