Source: USDA Branded Food Products Database Release December 2017 Software v.3.8.6.4 2017-10-02
Report Run at: December 17, 2017 20:59 EST
"Nutrient data for: 45101036, MINT CHOCOLATE CHIP ICE CREAM, UPC: 076310440140"
Food Group:  Branded Food Products Database
Common Name:

Nutrient,Unit,Data points,Std. Error,"0.5 cup = 83.0g",1Value per 100 g,
Proximates
"Energy",kcal,--,--,200,241
"Protein",g,--,--,4.00,4.82
"Total lipid (fat)",g,--,--,11.00,13.25
"Carbohydrate, by difference",g,--,--,23.00,27.71
"Fiber, total dietary",g,--,--,1.0,1.2
"Sugars, total",g,--,--,21.00,25.30
Minerals
"Calcium, Ca",mg,--,--,100,120
"Iron, Fe",mg,--,--,0.41,0.49
"Sodium, Na",mg,--,--,55,66
Vitamins
"Vitamin C, total ascorbic acid",mg,--,--,1.3,1.6
"Vitamin A, IU",IU,--,--,338,407
Lipids
"Fatty acids, total saturated",g,--,--,6.997,8.430
"Fatty acids, total trans",g,--,--,0.000,0.000
"Cholesterol",mg,--,--,35,42
Amino Acids
Other
Ingredients
"SKIM MILK, CREAM, SUGAR, CHOCOLATE CHIPS [(SUGAR, CHOCOLATE LIQUOR PROCESSED WITH ALKALI, COCOA BUTTER, BUTTER OIL, LECITHIN, VANILLIN, NATURAL FLAVORS), PARTIALLY HYDROGENATED SOYBEAN OIL], CORN SYRUP, PASTEURIZED EGG YOLK, NATURAL PEPPERMINT FLAVOR, STABILIZER (CELLULOSE GUM, CAROB BEAN GUM, CARRAGEENAN, GUAR GUM, DEXTROSE, SALT), YELLOW 5, BLUE 1." Date available: 07/14/2017 Date last updated by company: 07/14/2017
