Source: USDA Branded Food Products Database Release December 2017 Software v.3.8.6.4 2017-10-02
Report Run at: December 17, 2017 21:00 EST
"Nutrient data for: 45332019, MINT MAGIC, CAFFEINE FREE HERBAL TEA BAGS, UPC: 070734053207"
Food Group:  Branded Food Products Database
Common Name:

Nutrient,Unit,Data points,Std. Error,"1 TEA BAG, MAKES 8 FL. OZ. = 2.0g",1Value per 100 g,
Proximates
"Energy",kcal,--,--,0,0
"Protein",g,--,--,0.00,0.00
"Total lipid (fat)",g,--,--,0.00,0.00
"Carbohydrate, by difference",g,--,--,0.00,0.00
"Sugars, total",g,--,--,0.00,0.00
Minerals
"Sodium, Na",mg,--,--,0,0
Vitamins
Lipids
Amino Acids
Other
Ingredients
"SPEARMINT, PEPPERMINT, ROASTED CHICORY, CINNAMON AND ORANGE PEEL." Date available: 10/13/2017 Date last updated by company: 10/13/2017
