Source: USDA Branded Food Products Database Release December 2017 Software v.3.8.6.4 2017-10-02
Report Run at: December 17, 2017 20:58 EST
"Nutrient data for: 45208080, MINT ASSORTED CHOCOLATE, UPC: 049022800793"
Food Group:  Branded Food Products Database
Common Name:

Nutrient,Unit,Data points,Std. Error,"4.0 PIECES = 42.0g",1Value per 100 g,
Proximates
"Energy",kcal,--,--,210,500
"Protein",g,--,--,2.00,4.76
"Total lipid (fat)",g,--,--,12.00,28.57
"Carbohydrate, by difference",g,--,--,26.00,61.90
"Fiber, total dietary",g,--,--,2.0,4.8
"Sugars, total",g,--,--,21.00,50.00
Minerals
"Calcium, Ca",mg,--,--,20,48
"Iron, Fe",mg,--,--,1.29,3.06
"Sodium, Na",mg,--,--,35,83
Vitamins
"Vitamin C, total ascorbic acid",mg,--,--,0.0,0.0
"Vitamin A, IU",IU,--,--,0,0
Lipids
"Fatty acids, total saturated",g,--,--,8.001,19.050
"Fatty acids, total trans",g,--,--,0.000,0.000
"Cholesterol",mg,--,--,5,12
Amino Acids
Other
Ingredients
"SUGAR, UNSWEETENED CHOCOLATE, GLUCOSE SYRUP (WHEAT), COCONUT OIL (CONTAINS SOY LECITHIN - AN EMULSIFIER), COCOA BUTTER, LACTOSE (MILK, SWEETENED CONDENSED MILK (PASTEURIZED MILK, SUGAR), PALM KERNEL OIL, BUTTER (MILK), COCOA - PROCESSED WITH ALKALI, HEAVY WHIPPING CREAM (MILK), NONFAT DRY MILK, DEXTROSE, SORBITOL, WHOLE MILK, SOY LECITHIN - AN EMULSIFIER, WHOLE MILK POWDER, WATER, NATURAL FLAVORS, SALT, SODIUM BICARBONATE, MILK FAT, DRIED EGG WHITE, MONO AND DIGLYCERIDES, ACETIC ACID, MILK PROTEIN." Date available: 07/14/2017 Date last updated by company: 07/14/2017
