Source: USDA Branded Food Products Database Release December 2017 Software v.3.8.6.4 2017-10-02
Report Run at: December 17, 2017 20:59 EST
"Nutrient data for: 45265590, MINT CHOCOLATE CLASSIC, PREMIUM GELATO, UPC: 041172813159"
Food Group:  Branded Food Products Database
Common Name:

Nutrient,Unit,Data points,Std. Error,"0.5 cup = 93.0g",1Value per 100 g,
Proximates
"Energy",kcal,--,--,160,172
"Protein",g,--,--,4.00,4.30
"Total lipid (fat)",g,--,--,8.00,8.60
"Carbohydrate, by difference",g,--,--,22.00,23.66
"Fiber, total dietary",g,--,--,1.0,1.1
"Sugars, total",g,--,--,20.00,21.51
Minerals
"Calcium, Ca",mg,--,--,100,108
"Iron, Fe",mg,--,--,0.00,0.00
"Potassium, K",mg,--,--,160,172
"Sodium, Na",mg,--,--,55,59
Vitamins
"Vitamin C, total ascorbic acid",mg,--,--,1.4,1.5
"Vitamin A, IU",IU,--,--,113,121
Lipids
"Fatty acids, total saturated",g,--,--,7.003,7.530
"Fatty acids, total trans",g,--,--,0.000,0.000
"Cholesterol",mg,--,--,10,11
Amino Acids
Other
Ingredients
"MILK, CANE SUGAR, CREAM, COCONUT OIL, COCOA, DEXTROSE, VEGETABLE FIBER, MINT, NATURAL FLAVORS, GUAR GUM, TARA GUM, CITRIC ACID XANTHAN GUM, SOY LECITHIN." Date available: 07/14/2017 Date last updated by company: 07/14/2017
