Source: USDA Branded Food Products Database Release December 2017 Software v.3.8.6.4 2017-10-02
Report Run at: December 17, 2017 21:10 EST
"Nutrient data for: 45304689, MISTIC, TROPICAL FRUIT PUNCH, UPC: 089396156126"
Food Group:  Branded Food Products Database
Common Name:

Nutrient,Unit,Data points,Std. Error,"1 BOTTLE = 16.0g",1Value per 100 g,
Proximates
"Energy",kcal,--,--,8,48
"Protein",g,--,--,0.00,0.00
"Total lipid (fat)",g,--,--,0.00,0.00
"Carbohydrate, by difference",g,--,--,1.90,11.88
"Sugars, total",g,--,--,1.87,11.67
Minerals
"Sodium, Na",mg,--,--,2,10
Vitamins
Lipids
Amino Acids
Other
Ingredients
"FILTERED WATER, HIGH FRUCTOSE CORN SYRUP, PEAR JUICE CONCENTRATE, CITRIC ACID, NATURAL AND ARTIFICIAL FLAVORS, ACACIA GUM, RED 40" Date available: 06/25/2017 Date last updated by company: 06/25/2017
