Source: USDA Branded Food Products Database Release December 2017 Software v.3.8.6.4 2017-10-02
Report Run at: December 17, 2017 21:25 EST
"Nutrient data for: 45191039, MIX IT UP FROZEN POPS, UPC: 057243000137"
Food Group:  Branded Food Products Database
Common Name:

Nutrient,Unit,Data points,Std. Error,"1 STICK = 48.8g",1Value per 100 g,
Proximates
"Energy",kcal,--,--,40,82
"Protein",g,--,--,0.00,0.00
"Total lipid (fat)",g,--,--,0.00,0.00
"Carbohydrate, by difference",g,--,--,11.00,22.54
"Fiber, total dietary",g,--,--,0.0,0.0
"Sugars, total",g,--,--,10.00,20.49
Minerals
"Sodium, Na",mg,--,--,0,0
Vitamins
"Vitamin C, total ascorbic acid",mg,--,--,60.0,123.0
Lipids
"Fatty acids, total saturated",g,--,--,0.000,0.000
"Fatty acids, total trans",g,--,--,0.000,0.000
"Cholesterol",mg,--,--,0,0
Amino Acids
Other
Ingredients
"WATER, SUGAR, NATURAL & ARTIFICIAL FLAVORS, CITRIC ACID, GUAR GUM, ASCORBIC ACID (VITAMIN C), XANTHAN GUM, MALIC ACID, FD&C YELLOW #5, FD&C RED #40, FD&C BLUE #1." Date available: 07/14/2017 Date last updated by company: 07/14/2017
