Source: USDA Branded Food Products Database Release December 2017 Software v.3.8.6.4 2017-10-02
Report Run at: December 17, 2017 21:15 EST
"Nutrient data for: 45182095, MIXED FRUIT, UPC: 035826088253"
Food Group:  Branded Food Products Database
Common Name:

Nutrient,Unit,Data points,Std. Error,"1 cup = 100.0g",1Value per 100 g,
Proximates
"Energy",kcal,--,--,50,50
"Protein",g,--,--,1.00,1.00
"Total lipid (fat)",g,--,--,0.00,0.00
"Carbohydrate, by difference",g,--,--,12.00,12.00
"Fiber, total dietary",g,--,--,2.0,2.0
"Sugars, total",g,--,--,10.00,10.00
Minerals
"Calcium, Ca",mg,--,--,10,10
"Iron, Fe",mg,--,--,0.25,0.25
"Sodium, Na",mg,--,--,11,11
Vitamins
"Vitamin C, total ascorbic acid",mg,--,--,42.0,42.0
"Vitamin A, IU",IU,--,--,280,280
Lipids
"Fatty acids, total saturated",g,--,--,0.000,0.000
"Fatty acids, total trans",g,--,--,0.000,0.000
"Cholesterol",mg,--,--,0,0
Amino Acids
Other
Ingredients
"STRAWBERRIES, PEACHES, MANGO, PINEAPPLE, RED SEEDLESS GRAPES." Date available: 07/14/2017 Date last updated by company: 07/14/2017
