Source: USDA Branded Food Products Database Release December 2017 Software v.3.8.6.4 2017-10-02
Report Run at: December 17, 2017 21:19 EST
"Nutrient data for: 45141611, MIXED NUTS WITH PEANUTS ROASTED & SALTED, UPC: 021130294268"
Food Group:  Branded Food Products Database
Common Name:

Nutrient,Unit,Data points,Std. Error,"0.25 cup = 30.0g",1Value per 100 g,
Proximates
"Energy",kcal,--,--,180,600
"Protein",g,--,--,6.00,20.00
"Total lipid (fat)",g,--,--,16.00,53.33
"Carbohydrate, by difference",g,--,--,6.00,20.00
"Fiber, total dietary",g,--,--,2.0,6.7
"Sugars, total",g,--,--,1.00,3.33
Minerals
"Calcium, Ca",mg,--,--,40,133
"Iron, Fe",mg,--,--,1.80,6.00
"Sodium, Na",mg,--,--,100,333
Vitamins
"Vitamin C, total ascorbic acid",mg,--,--,0.0,0.0
"Vitamin A, IU",IU,--,--,0,0
Lipids
"Fatty acids, total saturated",g,--,--,2.001,6.670
"Fatty acids, total trans",g,--,--,0.000,0.000
"Cholesterol",mg,--,--,0,0
Amino Acids
Other
Ingredients
"PEANUTS (PEANUTS, PEANUT OIL, SALT), CASHEWS (CASHEWS, PEANUT OIL, SALT), ALMONDS (ALMONDS, PEANUT OIL, SALT), HAZELNUTS, PECANS (PECANS, PEANUT OIL, SALT), BRAZIL NUTS." Date available: 07/14/2017 Date last updated by company: 07/14/2017
