Source: USDA Branded Food Products Database Release December 2017 Software v.3.8.6.4 2017-10-02
Report Run at: December 17, 2017 21:12 EST
"Nutrient data for: 45231756, MIXED BERRY BLEND, UPC: 085239141816"
Food Group:  Branded Food Products Database
Common Name:

Nutrient,Unit,Data points,Std. Error,"1 cup = 140.0g",1Value per 100 g,
Proximates
"Energy",kcal,--,--,70,50
"Protein",g,--,--,0.99,0.71
"Total lipid (fat)",g,--,--,0.00,0.00
"Carbohydrate, by difference",g,--,--,17.00,12.14
"Fiber, total dietary",g,--,--,6.0,4.3
"Sugars, total",g,--,--,11.00,7.86
Minerals
"Calcium, Ca",mg,--,--,20,14
"Iron, Fe",mg,--,--,0.71,0.51
"Sodium, Na",mg,--,--,0,0
Vitamins
"Vitamin C, total ascorbic acid",mg,--,--,23.9,17.1
"Vitamin A, IU",IU,--,--,99,71
Lipids
"Fatty acids, total saturated",g,--,--,0.000,0.000
"Fatty acids, total trans",g,--,--,0.000,0.000
"Cholesterol",mg,--,--,0,0
Amino Acids
Other
Ingredients
"STRAWBERRIES, BLACKBERRIES, BLUEBERRIES AND RASPBERRIES." Date available: 07/14/2017 Date last updated by company: 07/14/2017
