Source: USDA Branded Food Products Database Release December 2017 Software v.3.8.6.4 2017-10-02
Report Run at: December 17, 2017 21:20 EST
"Nutrient data for: 45214344, MIXED NUTS WITH SEA SALT, UPC: 049022764286"
Food Group:  Branded Food Products Database
Common Name:

Nutrient,Unit,Data points,Std. Error,"1.5 ONZ = 43.0g",1Value per 100 g,
Proximates
"Energy",kcal,--,--,260,605
"Protein",g,--,--,10.00,23.26
"Total lipid (fat)",g,--,--,23.00,53.49
"Carbohydrate, by difference",g,--,--,8.00,18.60
"Fiber, total dietary",g,--,--,3.0,7.0
"Sugars, total",g,--,--,2.00,4.65
Minerals
"Calcium, Ca",mg,--,--,60,140
"Iron, Fe",mg,--,--,1.67,3.89
"Sodium, Na",mg,--,--,125,291
Vitamins
"Vitamin C, total ascorbic acid",mg,--,--,0.0,0.0
"Vitamin A, IU",IU,--,--,0,0
Lipids
"Fatty acids, total saturated",g,--,--,3.001,6.980
"Fatty acids, total trans",g,--,--,0.000,0.000
"Cholesterol",mg,--,--,0,0
Amino Acids
Other
Ingredients
"PEANUTS, ALMONDS, CASHEWS, BRAZIL NUTS, HAZELNUTS (FILBERTS), PECANS, PEANUT AND/OR COTTONSEED OIL, SEA SALT" Date available: 07/14/2017 Date last updated by company: 07/14/2017
