Source: USDA Branded Food Products Database Release December 2017 Software v.3.8.6.4 2017-10-02
Report Run at: December 17, 2017 21:17 EST
"Nutrient data for: 45272944, MIXED NUTS PISTACHIO HAZELNUT ALMOND, UPC: 794711001233"
Food Group:  Branded Food Products Database
Common Name:

Nutrient,Unit,Data points,Std. Error,"2.0 PIECES = 31.0g",1Value per 100 g,
Proximates
"Energy",kcal,--,--,130,419
"Protein",g,--,--,1.29,4.16
"Total lipid (fat)",g,--,--,0.30,0.97
"Carbohydrate, by difference",g,--,--,29.00,93.55
"Fiber, total dietary",g,--,--,1.0,3.2
"Sugars, total",g,--,--,24.00,77.42
Minerals
"Calcium, Ca",mg,--,--,0,0
"Sodium, Na",mg,--,--,0,0
Vitamins
"Vitamin C, total ascorbic acid",mg,--,--,0.0,0.0
"Vitamin A, IU",IU,--,--,0,0
Lipids
"Fatty acids, total saturated",g,--,--,0.202,0.650
"Fatty acids, total trans",g,--,--,0.000,0.000
"Cholesterol",mg,--,--,0,0
Amino Acids
Other
Ingredients
"SUGAR, NUTS (PISTACHIO NUT, ALMOND NUT, HAZELNUT), CORN STARCH, WATER ACIDITY REGULATOR (CITRIC ACID), VANILLIN." Date available: 10/13/2017 Date last updated by company: 10/13/2017
