Source: USDA Branded Food Products Database Release December 2017 Software v.3.8.6.4 2017-10-02
Report Run at: December 17, 2017 21:22 EST
"Nutrient data for: 45048808, MIXED VEGETABLES, UPC: 041318020281"
Food Group:  Branded Food Products Database
Common Name:

Nutrient,Unit,Data points,Std. Error,"0.5 cup = 125.0g",1Value per 100 g,
Proximates
"Energy",kcal,--,--,45,36
"Protein",g,--,--,1.00,0.80
"Total lipid (fat)",g,--,--,0.00,0.00
"Carbohydrate, by difference",g,--,--,9.00,7.20
"Fiber, total dietary",g,--,--,2.0,1.6
"Sugars, total",g,--,--,2.00,1.60
Minerals
"Calcium, Ca",mg,--,--,20,16
"Iron, Fe",mg,--,--,0.75,0.60
"Sodium, Na",mg,--,--,25,20
Vitamins
"Vitamin C, total ascorbic acid",mg,--,--,2.5,2.0
"Vitamin A, IU",IU,--,--,3120,2496
Lipids
"Fatty acids, total saturated",g,--,--,0.000,0.000
"Fatty acids, total trans",g,--,--,0.000,0.000
"Cholesterol",mg,--,--,0,0
Amino Acids
Other
Ingredients
"WATER CARROTS, POTATOES, CELERY, PEAS GREEN BEAN, CORN, LIMA BEANS, CALCIUM CHLORIDE (FIRMING AGENT), ONION FLAVOR." Date available: 06/25/2017 Date last updated by company: 06/25/2017
