Source: USDA Branded Food Products Database Release December 2017 Software v.3.8.6.4 2017-10-02
Report Run at: December 17, 2017 21:16 EST
"Nutrient data for: 45203501, MIXED MELON SPEARS, UPC: 5051379108861"
Food Group:  Branded Food Products Database
Common Name:

Nutrient,Unit,Data points,Std. Error,"0.333 PACK = 142.0g",1Value per 100 g,
Proximates
"Energy",kcal,--,--,50,35
"Protein",g,--,--,0.99,0.70
"Total lipid (fat)",g,--,--,0.00,0.00
"Carbohydrate, by difference",g,--,--,12.00,8.45
"Fiber, total dietary",g,--,--,1.0,0.7
"Sugars, total",g,--,--,10.00,7.04
Minerals
"Calcium, Ca",mg,--,--,0,0
"Iron, Fe",mg,--,--,0.00,0.00
"Sodium, Na",mg,--,--,16,11
Vitamins
"Vitamin C, total ascorbic acid",mg,--,--,29.5,20.8
"Vitamin A, IU",IU,--,--,1972,1389
Lipids
"Fatty acids, total saturated",g,--,--,0.000,0.000
"Fatty acids, total trans",g,--,--,0.000,0.000
"Cholesterol",mg,--,--,0,0
Amino Acids
Other
Ingredients
"MAY CONTAIN TWO OR MORE OF THE FOLLOWING: HONEYDEW, CANTALOUPE, WATERMELON." Date available: 10/19/2017 Date last updated by company: 10/19/2017
