Source: USDA Branded Food Products Database Release December 2017 Software v.3.8.6.4 2017-10-02
Report Run at: December 17, 2017 21:31 EST
"Nutrient data for: 45255347, MOCHA ICE COFFEE, UPC: 072470000170"
Food Group:  Branded Food Products Database
Common Name:

Nutrient,Unit,Data points,Std. Error,"10.0 OZA = 296.0g",1Value per 100 g,
Proximates
"Energy",kcal,--,--,210,71
"Protein",g,--,--,5.00,1.69
"Total lipid (fat)",g,--,--,2.99,1.01
"Carbohydrate, by difference",g,--,--,42.00,14.19
"Fiber, total dietary",g,--,--,0.0,0.0
"Sugars, total",g,--,--,38.01,12.84
Minerals
"Calcium, Ca",mg,--,--,151,51
"Iron, Fe",mg,--,--,0.44,0.15
"Sodium, Na",mg,--,--,189,64
Vitamins
"Vitamin C, total ascorbic acid",mg,--,--,0.0,0.0
"Vitamin A, IU",IU,--,--,121,41
Lipids
"Fatty acids, total saturated",g,--,--,1.510,0.510
"Fatty acids, total trans",g,--,--,0.000,0.000
"Cholesterol",mg,--,--,9,3
Amino Acids
Other
Ingredients
"FILTERED WATER, MILK, SUGAR, NONFAT DRY MILK, COFFEE, NATURAL & ARTIFICIAL FLAVORS, COCOA PROCESSED WITH ALKALI,, DIPOTASSIUM PHOSPHATE, DISODIUM PHOSPHATE, SALT." Date available: 07/14/2017 Date last updated by company: 07/14/2017
