Source: USDA Branded Food Products Database Release December 2017 Software v.3.8.6.4 2017-10-02
Report Run at: December 17, 2017 21:33 EST
"Nutrient data for: 45317684, MOIST MUFFIN BAKED WITH SWEET WILD BLUEBERRIES, UPC: 029519232030"
Food Group:  Branded Food Products Database
Common Name:

Nutrient,Unit,Data points,Std. Error,"1 MUFFIN = 54.7g",1Value per 100 g,
Proximates
"Energy",kcal,--,--,150,274
"Protein",g,--,--,3.00,5.48
"Total lipid (fat)",g,--,--,1.50,2.74
"Carbohydrate, by difference",g,--,--,35.00,63.99
"Fiber, total dietary",g,--,--,6.0,11.0
"Sugars, total",g,--,--,16.00,29.25
Minerals
"Calcium, Ca",mg,--,--,20,37
"Iron, Fe",mg,--,--,2.17,3.97
"Sodium, Na",mg,--,--,240,439
Vitamins
"Vitamin C, total ascorbic acid",mg,--,--,0.0,0.0
"Thiamin",mg,--,--,0.000,0.000
"Riboflavin",mg,--,--,0.136,0.249
"Niacin",mg,--,--,1.206,2.205
"Vitamin A, IU",IU,--,--,0,0
Lipids
"Fatty acids, total saturated",g,--,--,0.498,0.910
"Fatty acids, total trans",g,--,--,0.000,0.000
"Cholesterol",mg,--,--,25,46
Amino Acids
Other
Ingredients
"ENRICHED WHEAT FLOUR (FLOUR, MALTED BARLEY FLOUR, NIACIN, IRON, THIAMINE MONONITRATE, RIBOFLAVIN, FOLIC ACID), WATER, SUGAR, BLUEBERRIES, POLYDEXTROSE, EGGS, GLYCERIN, INVERT SUGAR, CONTAINS 2% OR LESS OF: CITRIC ACID, CORN SYRUP, CORN SYRUP SOLIDS, DATEM, DEXTROSE, EGG WHITES, EGG YOLKS, FOOD STARCH-MODIFIED, GUM ARABIC, LEAVENING (BAKING SODA, MONOCALCIUM PHOSPHATE, SODIUM ACID PYROPHOSPHATE, SODIUM ALUMINUM PHOSPHATE), MALTODEXTRIN, MONO- AND DIGLYCERIDES, NATURAL AND ARTIFICIAL FLAVOR, NONFAT MILK, POTASSIUM SORBATE AND SODIUM PROPIONATE (PRESERVATIVES), PROPYLENE GLYCOL MONO- AND DIESTERS OF FATTY ACIDS, SALT, SODIUM STEAROYL LACTYLATE, SOYBEAN OIL, SOY LECITHIN, WHEAT STARCH, XANTHAN GUM." Date available: 06/24/2017 Date last updated by company: 06/24/2017
