Source: USDA Branded Food Products Database Release December 2017 Software v.3.8.6.4 2017-10-02
Report Run at: December 17, 2017 21:36 EST
"Nutrient data for: 45210951, MOM'S TRADITIONAL GOOEY BUTTER CAKE MIX, UPC: 853710002044"
Food Group:  Branded Food Products Database
Common Name:

Nutrient,Unit,Data points,Std. Error,"1.2 ONZ = 33.0g",1Value per 100 g,
Proximates
"Energy",kcal,--,--,130,394
"Protein",g,--,--,1.00,3.03
"Total lipid (fat)",g,--,--,1.50,4.55
"Carbohydrate, by difference",g,--,--,29.00,87.88
"Fiber, total dietary",g,--,--,0.0,0.0
"Sugars, total",g,--,--,25.00,75.76
Minerals
"Calcium, Ca",mg,--,--,60,182
"Iron, Fe",mg,--,--,0.44,1.32
"Sodium, Na",mg,--,--,90,273
Vitamins
"Vitamin C, total ascorbic acid",mg,--,--,0.0,0.0
"Vitamin A, IU",IU,--,--,0,0
Lipids
"Fatty acids, total saturated",g,--,--,0.000,0.000
"Fatty acids, total trans",g,--,--,0.000,0.000
"Cholesterol",mg,--,--,0,0
Amino Acids
Other
Ingredients
"PACKET 1: SUGAR, ENRICHED BLEACHED FLOUR (BLEACHED WHEAT FLOUR, NIACIN, IRON, THIAMINE MONONITRATE, RIBOFLAVIN, FOLIC ACID), PARTIALLY HYDROGENATED VEGETABLE SHORTENING (CONTAINS SOYBEAN OIL, PARTIALLY HYDROGENATED SOYBEAN OIL) WITH EMULSIFIER (PROPYLENE GLYCOL MONO- AND DIESTERS, MONO- AND DIGLYCERIDES, SOY LECITHIN), NONFAT MILK, DEXTROSE, LEAVENING (BAKING SODA, SODIUM ALUMINUM PHOSPHATE, ALUMINUM SULFATE), EGG WHITE, SALT, CALCIUM CARBONATE, MODIFIED CORN STARCH, EGG YOLK, ARTIFICIAL FLAVOR, GUAR GUM, WHEAT STARCH, MALTODEXTRIN, COLOR (YELLOW 5, YELLOW 6). PACKET 2: CONFECTIONER'S SUGAR, CORN STARCH (TO PREVENT CAKING)." Date available: 07/14/2017 Date last updated by company: 07/14/2017
