Source: USDA Branded Food Products Database Release December 2017 Software v.3.8.6.4 2017-10-02
Report Run at: December 17, 2017 21:38 EST
"Nutrient data for: 45222367, MONKEY MUNCH, UPC: 877245503999"
Food Group:  Branded Food Products Database
Common Name:

Nutrient,Unit,Data points,Std. Error,"40.0 GRM = 40.0g",1Value per 100 g,
Proximates
"Energy",kcal,--,--,200,500
"Protein",g,--,--,3.00,7.50
"Total lipid (fat)",g,--,--,9.00,22.50
"Carbohydrate, by difference",g,--,--,26.00,65.00
"Sugars, total",g,--,--,16.00,40.00
Minerals
"Sodium, Na",mg,--,--,135,338
Vitamins
Lipids
"Fatty acids, total trans",g,--,--,0.000,0.000
Amino Acids
Other
Ingredients
"MILK CHOCOLATE (SUGAR, MILK, COCOA BUTTER, CHOCOLATE, SOY LECITHIN (AN EMULSIFIER), VANILLIN (AN ARTIFICIAL FLAVOR), RICE BISCUITS (RICE, SUGAR, SALT, CALCIUM CARBONATE, BARLEY MALT EXTRACT, IRON & ZINC (MINERAL NUTRIENTS), VITAMIN C (SODIUM ASCORBATE, AB VITAMIN (NIACINAMIDE), VITAMIN B6 (PYRIDOXINE HYDROCHLORIDE), VITAMIN B1 (THIAMIN MONONITRATE), VITAMIN B2 (RIBOFLAVIN), AB VITAMIN (FOLIC ACID), VITAMIN A PALMITATE, VITAMIN B12, VITAMIN D), SUGAR, PALM KERNEL OIL, PARTIALLY DEFATTED PEANUT FLOUR, NONFAT MILK, MALTODEXTRIN, PARTIALLY HYDROGENATED PALM OIL, SALT, SOY LECITHIN (AN EMULSIFIER)" Date available: 10/19/2017 Date last updated by company: 10/19/2017
