Source: USDA Branded Food Products Database Release December 2017 Software v.3.8.6.4 2017-10-02
Report Run at: December 17, 2017 21:41 EST
"Nutrient data for: 45216799, MONTEBELLO KITCHENS, LAVENDER, UPC: 720456007018"
Food Group:  Branded Food Products Database
Common Name:

Nutrient,Unit,Data points,Std. Error,"2.0 Tbsp = 30.0g",1Value per 100 g,
Proximates
"Energy",kcal,--,--,39,130
"Protein",g,--,--,1.00,3.33
"Total lipid (fat)",g,--,--,0.00,0.00
"Carbohydrate, by difference",g,--,--,9.00,30.00
"Fiber, total dietary",g,--,--,1.0,3.3
"Sugars, total",g,--,--,8.00,26.67
Minerals
"Calcium, Ca",mg,--,--,10,33
"Iron, Fe",mg,--,--,0.18,0.60
"Sodium, Na",mg,--,--,89,297
Vitamins
"Vitamin C, total ascorbic acid",mg,--,--,0.0,0.0
"Vitamin A, IU",IU,--,--,0,0
Lipids
"Fatty acids, total saturated",g,--,--,0.000,0.000
"Fatty acids, total trans",g,--,--,0.000,0.000
"Cholesterol",mg,--,--,0,0
Amino Acids
Other
Ingredients
"COCONUT WATER (FILTERED WATER, COCONUT WATER POWDER), APPLE CIDER VINEGAR. DATES, CHIA SEED, ORGANIC LAVENDER, LAVENDER EXTRACT (PURE LAVENDER OIL, ALCOHOL) GRANULATED GARLIC, GLUCOMANNAN POWDER (KONJAC PLANT), SALT." Date available: 06/25/2017 Date last updated by company: 06/25/2017
