Source: USDA Branded Food Products Database Release December 2017 Software v.3.8.6.4 2017-10-02
Report Run at: December 17, 2017 21:42 EST
"Nutrient data for: 45016004, MONTEBELLO, ORGANIC STROZZAPRETI, ITALIAN MACARONI PRODUCT, UPC: 015532101064"
Food Group:  Branded Food Products Database
Common Name:

Nutrient,Unit,Data points,Std. Error,"0.12 OF THE PACKAGE = 56.0g",1Value per 100 g,
Proximates
"Energy",kcal,--,--,210,375
"Protein",g,--,--,7.00,12.50
"Total lipid (fat)",g,--,--,1.00,1.79
"Carbohydrate, by difference",g,--,--,44.00,78.57
"Fiber, total dietary",g,--,--,2.0,3.6
"Sugars, total",g,--,--,1.00,1.79
Minerals
"Calcium, Ca",mg,--,--,0,0
"Iron, Fe",mg,--,--,1.80,3.21
"Sodium, Na",mg,--,--,0,0
Vitamins
"Vitamin C, total ascorbic acid",mg,--,--,0.0,0.0
"Vitamin A, IU",IU,--,--,0,0
Lipids
"Fatty acids, total saturated",g,--,--,0.000,0.000
"Fatty acids, total trans",g,--,--,0.000,0.000
"Cholesterol",mg,--,--,0,0
Amino Acids
Other
Ingredients
"ORGANIC DURUM WHEAT SEMOLINA." Date available: 06/25/2017 Date last updated by company: 06/25/2017
