Source: USDA Branded Food Products Database Release December 2017 Software v.3.8.6.4 2017-10-02
Report Run at: December 17, 2017 21:42 EST
"Nutrient data for: 45192266, MONTEREY GOURMET FOODS, KING CRAB RAVIOLI, UPC: 720692820709"
Food Group:  Branded Food Products Database
Common Name:

Nutrient,Unit,Data points,Std. Error,"1 cup = 114.0g",1Value per 100 g,
Proximates
"Energy",kcal,--,--,280,246
"Protein",g,--,--,15.00,13.16
"Total lipid (fat)",g,--,--,11.00,9.65
"Carbohydrate, by difference",g,--,--,29.00,25.44
"Fiber, total dietary",g,--,--,2.1,1.8
"Sugars, total",g,--,--,1.00,0.88
Minerals
"Calcium, Ca",mg,--,--,200,175
"Iron, Fe",mg,--,--,1.32,1.16
"Sodium, Na",mg,--,--,490,430
Vitamins
"Vitamin C, total ascorbic acid",mg,--,--,3.0,2.6
"Vitamin A, IU",IU,--,--,491,431
Lipids
"Fatty acids, total saturated",g,--,--,7.000,6.140
"Fatty acids, total trans",g,--,--,0.000,0.000
"Cholesterol",mg,--,--,90,79
Amino Acids
Other
Ingredients
"DURUM FLOUR, MONTEREY JACK CHEESE (PASTEURIZED MILK, CHEESE CULTURE, SALT, ENZYMES), COOKED SHRIMP (SHRIMP, SALT), EGGS, MASCARPONE ITALIAN CHEESE (PASTEURIZED MILK AND CREAM, CITRIC ACID), CRAB FLAVORED SEAFOOD (ALASKA POLLOCK, WATER, SUGAR, WHEAT STARCH, POTATO STARCH, EGG WHITE, SALT, POTASSIUM CHLORIDE, NATURAL CRAB FLAVORS, SOY FLOUR, LYCOPENE COLOR), CRAB MEAT (CRAB MEAT AND SALT), ROMANO CHEESE (PASTEURIZED COW'S MILK, CHEESE CULTURE, ENZYMES, RENNET, SALT), ONIONS, WATER, ROASTED RED BELL PEPPER, BREAD CRUMBS (WHEAT FLOUR, SALT, EXTRACT, SALT, YEAST) LOBSTER FLAVOR (LOBSTER EXTRACT, YEAST EXTRACT, SALT AND MALTODEXTRIN), SEA SALT, NATURAL BUTTER FLAVOR (MALTODEXTRIN, MODIFIED BUTTER OIL AND DEHYDRATED BUTTER, SALT, SHORTENING POWDER, GUAR GUM, BAKING SODA, ANNATTO AND TURMERIC COLOR), EVAPORATED CANE JUICE, GRANULATED GARLIC, GROUNDED CUMIN SEED, BLACK PEPPER, CAYENNE PEPPER, CHILI PEPPER." Date available: 07/14/2017 Date last updated by company: 07/14/2017
