Source: USDA Branded Food Products Database Release December 2017 Software v.3.8.6.4 2017-10-02
Report Run at: December 17, 2017 21:42 EST
"Nutrient data for: 45292989, MONTEREY JACK CHEESE SLICES, UPC: 011110201324"
Food Group:  Branded Food Products Database
Common Name:

Nutrient,Unit,Data points,Std. Error,"1 SLICE = 17.0g",1Value per 100 g,
Proximates
"Energy",kcal,--,--,60,353
"Protein",g,--,--,4.00,23.53
"Total lipid (fat)",g,--,--,5.00,29.41
"Carbohydrate, by difference",g,--,--,0.00,0.00
"Fiber, total dietary",g,--,--,0.0,0.0
"Sugars, total",g,--,--,0.00,0.00
Minerals
"Calcium, Ca",mg,--,--,100,588
"Iron, Fe",mg,--,--,0.00,0.00
"Potassium, K",mg,--,--,0,0
"Sodium, Na",mg,--,--,100,588
Vitamins
"Vitamin D",IU,--,--,0,0
Lipids
"Fatty acids, total saturated",g,--,--,3.000,17.650
"Fatty acids, total trans",g,--,--,0.000,0.000
"Cholesterol",mg,--,--,15,88
Amino Acids
Other
Ingredients
"PASTEURIZED ORGANIC MILK, CHEESE CULTURES, SALT, ENZYMES." Date available: 09/23/2017 Date last updated by company: 09/23/2017
