Source: USDA Branded Food Products Database Release December 2017 Software v.3.8.6.4 2017-10-02
Report Run at: December 17, 2017 21:49 EST
"Nutrient data for: 45268468, MOOSE MUNCH GOURMET POPCORN, UPC: 780994812451"
Food Group:  Branded Food Products Database
Common Name:

Nutrient,Unit,Data points,Std. Error,"0.5 cup = 40.0g",1Value per 100 g,
Proximates
"Energy",kcal,--,--,190,475
"Protein",g,--,--,1.00,2.50
"Total lipid (fat)",g,--,--,7.00,17.50
"Carbohydrate, by difference",g,--,--,30.00,75.00
"Fiber, total dietary",g,--,--,1.0,2.5
"Sugars, total",g,--,--,18.00,45.00
Minerals
"Calcium, Ca",mg,--,--,20,50
"Iron, Fe",mg,--,--,0.90,2.25
"Sodium, Na",mg,--,--,140,350
Vitamins
"Vitamin C, total ascorbic acid",mg,--,--,0.0,0.0
"Vitamin A, IU",IU,--,--,0,0
Lipids
"Fatty acids, total saturated",g,--,--,4.000,10.000
"Fatty acids, total trans",g,--,--,0.000,0.000
"Cholesterol",mg,--,--,10,25
Amino Acids
Other
Ingredients
"CORN SYRUP, SUGAR, MILK CHOCOLATE (SUGAR, CHOCOLATE LIQUOR, MILK, COCOA BUTTER, SOY LECITHIN, VANILLA), POPCORN, BUTTER (CREAM [MILK], SALT), WATER, ALMONDS, CASHEWS (WITH PEANUT AND/OR COTTONSEED OIL), HONEY, BROWN SUGAR, SALT, SOY LECITHIN, NATURAL FLAVOR, BHA/BHT IN CORN OIL TO RETARD OXIDATION." Date available: 07/14/2017 Date last updated by company: 07/14/2017
