Source: USDA Branded Food Products Database Release December 2017 Software v.3.8.6.4 2017-10-02
Report Run at: December 17, 2017 21:50 EST
"Nutrient data for: 45085388, MOREHOUSE, PREPARED HORSERADISH, UPC: 011209001040"
Food Group:  Branded Food Products Database
Common Name:

Nutrient,Unit,Data points,Std. Error,"1 tsp = 5.0g",1Value per 100 g,
Proximates
"Energy",kcal,--,--,0,0
"Protein",g,--,--,0.00,0.00
"Total lipid (fat)",g,--,--,0.00,0.00
"Carbohydrate, by difference",g,--,--,1.00,20.00
"Fiber, total dietary",g,--,--,0.0,0.0
"Sugars, total",g,--,--,0.00,0.00
Minerals
"Calcium, Ca",mg,--,--,0,0
"Iron, Fe",mg,--,--,0.00,0.00
"Sodium, Na",mg,--,--,55,1100
Vitamins
"Vitamin C, total ascorbic acid",mg,--,--,0.0,0.0
"Vitamin A, IU",IU,--,--,0,0
Lipids
"Fatty acids, total saturated",g,--,--,0.000,0.000
"Fatty acids, total trans",g,--,--,0.000,0.000
"Cholesterol",mg,--,--,0,0
Amino Acids
Other
Ingredients
"GRATED HORSERADISH ROOTS, DISTILLED VINEGAR, WATER, SALT, SOYBEAN OIL, MODIFIED FOOD STARCH, CITRIC ACID, POTASSIUM SORBATE (PRESERVATIVE), SODIUM METABISULFITE (RETAINS PRODUCT COLOR), TITANIUM DIOXIDE (RETAINS PRODUCT COLOR), ARTIFICIAL FLAVORING, SODIUM BENZOATE (PRESERVATIVE), NATURAL FLAVORING, CALCIUM DISODIUM EDTA (RETAINS PRODUCT FRESHNESS)" Date available: 07/14/2017 Date last updated by company: 07/14/2017
