Source: USDA Branded Food Products Database Release December 2017 Software v.3.8.6.4 2017-10-02
Report Run at: December 17, 2017 21:51 EST
"Nutrient data for: 45042260, MORINAGA, MORI-NU, SILKEN SOFT TOFU, UPC: 085696608037"
Food Group:  Branded Food Products Database
Common Name:

Nutrient,Unit,Data points,Std. Error,"1 """" SLICE) | (ABOUT = 85.0g",1Value per 100 g,
Proximates
"Energy",kcal,--,--,45,53
"Protein",g,--,--,4.00,4.71
"Total lipid (fat)",g,--,--,2.50,2.94
"Carbohydrate, by difference",g,--,--,1.00,1.18
Minerals
"Calcium, Ca",mg,--,--,20,24
"Iron, Fe",mg,--,--,0.72,0.85
"Sodium, Na",mg,--,--,0,0
Vitamins
"Vitamin C, total ascorbic acid",mg,--,--,0.0,0.0
"Vitamin A, IU",IU,--,--,0,0
Lipids
"Fatty acids, total saturated",g,--,--,0.000,0.000
"Fatty acids, total trans",g,--,--,0.000,0.000
"Cholesterol",mg,--,--,0,0
Amino Acids
Other
Ingredients
"FILTERED WATER, SOYBEANS, GLUCONOLACTONE*, CALCIUM CHLORIDE." Date available: 10/13/2017 Date last updated by company: 10/13/2017
