Source: USDA Branded Food Products Database Release December 2017 Software v.3.8.6.4 2017-10-02
Report Run at: December 17, 2017 21:52 EST
"Nutrient data for: 45192250, MORNING GLORY MUFFINS, UPC: 717887215211"
Food Group:  Branded Food Products Database
Common Name:

Nutrient,Unit,Data points,Std. Error,"1 MUFFIN = 85.0g",1Value per 100 g,
Proximates
"Energy",kcal,--,--,260,306
"Protein",g,--,--,4.00,4.71
"Total lipid (fat)",g,--,--,11.00,12.94
"Carbohydrate, by difference",g,--,--,36.00,42.35
"Fiber, total dietary",g,--,--,2.0,2.4
"Sugars, total",g,--,--,21.00,24.71
Minerals
"Calcium, Ca",mg,--,--,20,24
"Iron, Fe",mg,--,--,0.94,1.10
"Sodium, Na",mg,--,--,250,294
Vitamins
"Vitamin C, total ascorbic acid",mg,--,--,1.5,1.8
"Vitamin A, IU",IU,--,--,1294,1522
Lipids
"Fatty acids, total saturated",g,--,--,1.496,1.760
"Fatty acids, total trans",g,--,--,0.000,0.000
"Cholesterol",mg,--,--,30,35
Amino Acids
Other
Ingredients
"ENRICHED FLOUR (WHEAT FLOUR, NIACIN, REDUCED IRON, THIAMIN MONONITRATE, RIBOFLAVIN, FOLIC ACID), PINEAPPLE (PINEAPPLE, PINEAPPLE JUICE). SUGAR, CARROTS, CANOLA OIL, WHOLE EGGS, APPLESAUCE (APPLES, WATER). WATER, WALNUTS, RAISINS, APRICOTS (DRIED APRICOTS, RICE FLOUR (ANTICAKING AGENT), SULPHUR [PRESERVATIVE]), COCONUT, SODIUM BICARBONATE, SALT, CINNAMON, CARDAMOM, VANILLA EXTRACT (WATER, ETHYL ALCOHOL, VANILLA BEANS EXTRACTIVES)." Date available: 07/14/2017 Date last updated by company: 07/14/2017
