Source: USDA Branded Food Products Database Release December 2017 Software v.3.8.6.4 2017-10-02
Report Run at: December 17, 2017 21:56 EST
"Nutrient data for: 45219914, MOROCCAN INSPIRED QUINOA & KALE BLEND, UPC: 085239004531"
Food Group:  Branded Food Products Database
Common Name:

Nutrient,Unit,Data points,Std. Error,"1 PACKAGE = 99.0g",1Value per 100 g,
Proximates
"Energy",kcal,--,--,100,101
"Protein",g,--,--,3.00,3.03
"Total lipid (fat)",g,--,--,4.00,4.04
"Carbohydrate, by difference",g,--,--,15.00,15.15
"Fiber, total dietary",g,--,--,2.0,2.0
"Sugars, total",g,--,--,1.00,1.01
Minerals
"Calcium, Ca",mg,--,--,60,61
"Iron, Fe",mg,--,--,3.54,3.58
"Potassium, K",mg,--,--,230,232
"Sodium, Na",mg,--,--,270,273
Vitamins
"Vitamin C, total ascorbic acid",mg,--,--,23.7,23.9
"Vitamin A, IU",IU,--,--,4924,4974
Lipids
"Fatty acids, total saturated",g,--,--,0.505,0.510
"Fatty acids, total trans",g,--,--,0.000,0.000
"Cholesterol",mg,--,--,0,0
Amino Acids
Other
Ingredients
"COOKED WHITE QUINOA, KALE, BUTTERNUT SQUASH, APPLE, COOKED RED QUINOA, GARLIC, EXTRA VIRGIN OLIVE OIL, SEASONING (SALT, TURMERIC, OTHER SPICES, LESS THAN 2% ORGANIC RICE CONCENTRATE)." Date available: 10/17/2017 Date last updated by company: 10/17/2017
