Source: USDA Branded Food Products Database Release December 2017 Software v.3.8.6.4 2017-10-02
Report Run at: December 17, 2017 21:59 EST
"Nutrient data for: 45004039, MOSER ROTH, TOFFEE CRUNCH CHOCOLATE BAR, UPC: 072799830694"
Food Group:  Branded Food Products Database
Common Name:

Nutrient,Unit,Data points,Std. Error,"2.0 PIECES = 50.0g",1Value per 100 g,
Proximates
"Energy",kcal,--,--,270,540
"Protein",g,--,--,3.00,6.00
"Total lipid (fat)",g,--,--,16.00,32.00
"Carbohydrate, by difference",g,--,--,28.00,56.00
"Fiber, total dietary",g,--,--,2.0,4.0
"Sugars, total",g,--,--,26.00,52.00
Minerals
"Calcium, Ca",mg,--,--,100,200
"Iron, Fe",mg,--,--,0.72,1.44
"Sodium, Na",mg,--,--,65,130
Vitamins
"Vitamin C, total ascorbic acid",mg,--,--,0.0,0.0
"Vitamin A, IU",IU,--,--,200,400
Lipids
"Fatty acids, total saturated",g,--,--,10.000,20.000
"Fatty acids, total trans",g,--,--,0.000,0.000
"Cholesterol",mg,--,--,15,30
Amino Acids
Other
Ingredients
"MILK CHOCOLATE (SUGAR, COCOA BUTTER, WHOLE MILK POWDER, COCOA LIQUOR, BUTTERFAT, SOY LECITHIN EMULSIFIER, VANILLA EXTRACT), SUGAR, GLUCOSE SYRUP, BUTTERFAT, SALT, NATURAL FLAVORS, SOY LECITHIN EMULSIFIER." Date available: 07/14/2017 Date last updated by company: 07/14/2017
