Source: USDA Branded Food Products Database Release December 2017 Software v.3.8.6.4 2017-10-02
Report Run at: December 17, 2017 22:03 EST
"Nutrient data for: 45321127, MOTT'S, APPLESAUSE, MIXED BERRY, UPC: 014800002751"
Food Group:  Branded Food Products Database
Common Name:

Nutrient,Unit,Data points,Std. Error,"1 POUCH = 90.0g",1Value per 100 g,
Proximates
"Energy",kcal,--,--,40,44
"Protein",g,--,--,0.00,0.00
"Total lipid (fat)",g,--,--,0.00,0.00
"Carbohydrate, by difference",g,--,--,10.00,11.11
"Fiber, total dietary",g,--,--,1.0,1.1
"Sugars, total",g,--,--,8.00,8.89
Minerals
"Potassium, K",mg,--,--,75,83
"Sodium, Na",mg,--,--,5,6
Vitamins
"Vitamin C, total ascorbic acid",mg,--,--,11.7,13.0
Lipids
Amino Acids
Other
Ingredients
"APPLES, WATER, RASPBERRY PUREE, STRAWBERRY PUREE CONCENTRATE, FRUIT AND VEGETABLE JUICES (FOR COLOR), APPLE PUREE CONCENTRATE, BLUEBERRY PUREE CONCENTRATE, ASCORBIC ACID (VITAMIN C), NATURAL FLAVORS" Date available: 09/09/2017 Date last updated by company: 09/09/2017
