Source: USDA Branded Food Products Database Release December 2017 Software v.3.8.6.4 2017-10-02
Report Run at: December 17, 2017 22:07 EST
"Nutrient data for: 45153873, MOUTH PARTY, ORIGINAL CARAMELS, UPC: 804879085911"
Food Group:  Branded Food Products Database
Common Name:

Nutrient,Unit,Data points,Std. Error,"4.0 CARAMELS = 43.0g",1Value per 100 g,
Proximates
"Energy",kcal,--,--,200,465
"Protein",g,--,--,0.00,0.00
"Total lipid (fat)",g,--,--,11.00,25.58
"Carbohydrate, by difference",g,--,--,27.00,62.79
"Fiber, total dietary",g,--,--,0.0,0.0
"Sugars, total",g,--,--,18.00,41.86
Minerals
"Calcium, Ca",mg,--,--,20,47
"Iron, Fe",mg,--,--,0.00,0.00
"Sodium, Na",mg,--,--,70,163
Vitamins
"Vitamin C, total ascorbic acid",mg,--,--,0.0,0.0
"Vitamin A, IU",IU,--,--,465,1081
Lipids
"Fatty acids, total saturated",g,--,--,7.000,16.280
"Fatty acids, total trans",g,--,--,0.000,0.000
"Cholesterol",mg,--,--,35,81
Amino Acids
Other
Ingredients
"CREAM, SUGAR, CORN SYRUP, HIGH FRUCTOSE CORN SYRUP, BUTTER (CREAM, SALT), SALT, VANILLA EXTRACT, CARRAGEENAN, MONO-DIGLYCERIDES, CELLULOSE GUM, POLY SORBATE 80." Date available: 07/14/2017 Date last updated by company: 07/14/2017
