Source: USDA Branded Food Products Database Release December 2017 Software v.3.8.6.4 2017-10-02
Report Run at: December 17, 2017 22:07 EST
"Nutrient data for: 45092765, MOZZARELLA BITES, UPC: 041322374509"
Food Group:  Branded Food Products Database
Common Name:

Nutrient,Unit,Data points,Std. Error,"2.0 PIECES = 45.0g",1Value per 100 g,
Proximates
"Energy",kcal,--,--,160,356
"Protein",g,--,--,8.00,17.78
"Total lipid (fat)",g,--,--,7.00,15.56
"Carbohydrate, by difference",g,--,--,16.00,35.56
"Fiber, total dietary",g,--,--,1.0,2.2
"Sugars, total",g,--,--,1.00,2.22
Minerals
"Calcium, Ca",mg,--,--,150,333
"Iron, Fe",mg,--,--,2.04,4.53
"Sodium, Na",mg,--,--,280,622
Vitamins
"Vitamin C, total ascorbic acid",mg,--,--,0.0,0.0
"Vitamin A, IU",IU,--,--,189,420
Lipids
"Fatty acids, total saturated",g,--,--,3.001,6.670
"Fatty acids, total trans",g,--,--,0.000,0.000
"Cholesterol",mg,--,--,10,22
Amino Acids
Other
Ingredients
"LOW MOISTURE PART SKIM MOZZARELLA CHEESE (CULTURED PASTEURIZED PART SKIM MILK, SALT, ENZYME, MODIFIED FOOD STARCH*), ENRICHED BLEACHED WHEAT FLOUR (WHEAT FLOUR, NIACIN, FERROUS SULFATE, THIAMINE MONONITRATE, RIBOFLAVIN, FOLIC ACID), WATER, SOYBEAN OIL, SUGAR, CONTAINS 2% OR LESS OF EACH OF THE FOLLOWING: GUAR GUM, NATURAL FLAVOR, NONFAT DRY MILK, PARMESAN CHEESE (PASTEURIZED PART SKIM MILK, CHEESE CULTURE, SALT, ENZYME), SALT, SOY LECITHIN, XANTHAN GUM, YEAST." Date available: 07/14/2017 Date last updated by company: 07/14/2017
