Source: USDA Branded Food Products Database Release December 2017 Software v.3.8.6.4 2017-10-02
Report Run at: December 17, 2017 22:13 EST
"Nutrient data for: 45265544, MR & MRS T, ORIGINAL MARGARITA MIX, UPC: 070655910078"
Food Group:  Branded Food Products Database
Common Name:

Nutrient,Unit,Data points,Std. Error,"4.0 OZA = 120.0g",1Value per 100 g,
Proximates
"Energy",kcal,--,--,100,83
"Protein",g,--,--,0.00,0.00
"Total lipid (fat)",g,--,--,0.00,0.00
"Carbohydrate, by difference",g,--,--,23.00,19.17
"Sugars, total",g,--,--,22.00,18.33
Minerals
"Sodium, Na",mg,--,--,60,50
Vitamins
Lipids
Amino Acids
Other
Ingredients
"WATER, HIGH FRUCTOSE CORN SYRUP, CITRIC ACID, AGAVE NECTAR, SODIUM CITRATEE, SODIUM HEXAMETAPHOSPHATE, CELLULOSE GUM, POTASSIUM SORBATE (PRESERVATIVE), ACACIA GUM, NATURAL FLAVORS, POLYSORBATE 60, ESTER GUM, SODIUM METABISULFITE (PRESERVATIVE), YELLOW 5, BLUE 1." Date available: 06/25/2017 Date last updated by company: 06/25/2017
