Source: USDA Branded Food Products Database Release December 2017 Software v.3.8.6.4 2017-10-02
Report Run at: December 17, 2017 22:24 EST
"Nutrient data for: 45017836, MRS. WAGES, PEPPER JACK QUESO MEDIUM CHEESE DIP MIX, UPC: 072058611576"
Food Group:  Branded Food Products Database
Common Name:

Nutrient,Unit,Data points,Std. Error,"2.0 TBSP DIP (27G)] | [MAKES = 4.0g",1Value per 100 g,
Proximates
"Energy",kcal,--,--,20,500
"Protein",g,--,--,0.00,0.00
"Total lipid (fat)",g,--,--,1.00,25.00
"Carbohydrate, by difference",g,--,--,2.00,50.00
"Sugars, total",g,--,--,1.00,25.00
Minerals
"Sodium, Na",mg,--,--,125,3125
Vitamins
Lipids
Amino Acids
Other
Ingredients
"CHEESE BLEND [MONTERREY JACK & CHEDDAR CHEESE (MILK, CHEESE CULTURES, SALT, ENZYMES), WHEY, MALTODEXTRIN, SALT, CANOLA OIL, LACTIC ACID, SODIUM PHOSPHATE], MODIFIED FOOD STARCH, PARTIALLY HYDROGENATED SOYBEAN OIL, WHEY, BUTTERMILK (NONFAT MILK, LACTIC ACID CREAM, CITRIC ACID), SALT, DEHYDRATED VEGETABLE (GREEN & RED BELL PEPPER, JALAPENO, TOMATO, ONION, GARLIC), CORN SYRUP SOLIDS, CONTAINS LESS THAN 2% OF EACH OF THE FOLLOWING: YEAST EXTRACT, GUM BLEND (XANTHAN GUM, CARRAGEENAN),SODIUM CASEINATE, MONO & DIGLYCERIDES, SPICE, CITRIC ACID, POTASSIUM PHOSPHATE." Date available: 06/25/2017 Date last updated by company: 06/25/2017
