Source: USDA Branded Food Products Database Release December 2017 Software v.3.8.6.4 2017-10-02
Report Run at: December 17, 2017 22:15 EST
"Nutrient data for: 45312592, MRS. CAMPBELL'S, CHOW CHOW, HOME-STYLE SOUTHERN RELISH, HOT, UPC: 073209000058"
Food Group:  Branded Food Products Database
Common Name:

Nutrient,Unit,Data points,Std. Error,"1 Tbsp = 16.0g",1Value per 100 g,
Proximates
"Energy",kcal,--,--,15,94
"Protein",g,--,--,0.00,0.00
"Total lipid (fat)",g,--,--,0.00,0.00
"Carbohydrate, by difference",g,--,--,3.00,18.75
"Sugars, total",g,--,--,2.00,12.50
Minerals
"Sodium, Na",mg,--,--,20,125
Vitamins
Lipids
Amino Acids
Other
Ingredients
"CABBAGE,VINEGAR, WATER, SUGAR, RED BELL PEPPERS, DRIED ONIONS, CONTAINS 2% OR LESS OF CITRIC ACID, SALT, LACTIC ACID, TURMERIC, SPICES, PAPRIKA EXTRACT, XANTHAN GUM, NATURAL FLAVOR" Date available: 06/25/2017 Date last updated by company: 06/25/2017
