Source: USDA Branded Food Products Database Release December 2017 Software v.3.8.6.4 2017-10-02
Report Run at: December 17, 2017 22:24 EST
"Nutrient data for: 45028658, MRS. WAGES, SPICED APPLE MIX, UPC: 072058609405"
Food Group:  Branded Food Products Database
Common Name:

Nutrient,Unit,Data points,Std. Error,"0.5 CUP PREPARED FRUIT | SEASONS = 12.0g",1Value per 100 g,
Proximates
"Energy",kcal,--,--,45,375
"Protein",g,--,--,0.00,0.00
"Total lipid (fat)",g,--,--,0.00,0.00
"Carbohydrate, by difference",g,--,--,12.00,100.00
"Fiber, total dietary",g,--,--,0.0,0.0
"Sugars, total",g,--,--,11.00,91.67
Minerals
"Calcium, Ca",mg,--,--,0,0
"Iron, Fe",mg,--,--,4.20,34.99
"Sodium, Na",mg,--,--,30,250
Vitamins
"Vitamin C, total ascorbic acid",mg,--,--,0.0,0.0
"Vitamin A, IU",IU,--,--,0,0
Lipids
"Fatty acids, total saturated",g,--,--,0.000,0.000
"Fatty acids, total trans",g,--,--,0.000,0.000
"Cholesterol",mg,--,--,0,0
Amino Acids
Other
Ingredients
"SUGAR, BROWN SUGAR, LEMON POWDER (CONTAINS CORN SYRUP SOLIDS, LEMON JUICE, LEMON OIL), SPICES, SALT, CITRIC ACID." Date available: 07/14/2017 Date last updated by company: 07/14/2017
