Source: USDA Branded Food Products Database Release December 2017 Software v.3.8.6.4 2017-10-02
Report Run at: December 17, 2017 22:16 EST
"Nutrient data for: 45139757, MRS DASH, SEASONING BLEND, GARLIC, HERB, UPC: 605021600453"
Food Group:  Branded Food Products Database
Common Name:

Nutrient,Unit,Data points,Std. Error,"0.25 tsp = 0.7g",1Value per 100 g,
Proximates
"Energy",kcal,--,--,0,0
"Protein",g,--,--,0.00,0.00
"Total lipid (fat)",g,--,--,0.00,0.00
"Carbohydrate, by difference",g,--,--,0.00,0.00
Minerals
"Potassium, K",mg,--,--,10,1429
"Sodium, Na",mg,--,--,0,0
Vitamins
Lipids
"Fatty acids, total trans",g,--,--,0.000,0.000
Amino Acids
Other
Ingredients
"GARLIC, ONION, SPICES (BLACK PEPPER, PARSLEY, FENNEL, BASIL, BAY, MARJORAM, OREGANO, SAVORY, THYME, CAYENNE PEPPER, CORIANDER, CUMIN, MUSTARD, ROSEMARY, CELERY SEED), CARROT, ORANGE PEEL, SPICE EXTRACTIVES." Date available: 07/14/2017 Date last updated by company: 07/14/2017
