Source: USDA Branded Food Products Database Release December 2017 Software v.3.8.6.4 2017-10-02
Report Run at: December 17, 2017 22:19 EST
"Nutrient data for: 45222892, MRS. FRESHLEY'S, GLAZED BUNS, HONEY, UPC: 072250011945"
Food Group:  Branded Food Products Database
Common Name:

Nutrient,Unit,Data points,Std. Error,"1 HONEY BUN = 43.0g",1Value per 100 g,
Proximates
"Energy",kcal,--,--,180,419
"Protein",g,--,--,2.00,4.65
"Total lipid (fat)",g,--,--,9.00,20.93
"Carbohydrate, by difference",g,--,--,21.00,48.84
"Fiber, total dietary",g,--,--,1.0,2.3
"Sugars, total",g,--,--,9.00,20.93
Minerals
"Calcium, Ca",mg,--,--,40,93
"Iron, Fe",mg,--,--,2.01,4.67
"Sodium, Na",mg,--,--,135,314
Vitamins
"Vitamin C, total ascorbic acid",mg,--,--,0.0,0.0
"Vitamin A, IU",IU,--,--,0,0
Lipids
"Fatty acids, total saturated",g,--,--,5.001,11.630
"Fatty acids, total monounsaturated",g,--,--,3.001,6.980
"Fatty acids, total polyunsaturated",g,--,--,1.002,2.330
"Fatty acids, total trans",g,--,--,0.000,0.000
"Cholesterol",mg,--,--,0,0
Amino Acids
Other
Ingredients
"ENRICHED FLOUR (WHEAT FLOUR, MALTED BARLEY FLOUR, NIACIN, REDUCED IRON, THIAMIN MONONITRATE, RIBOFLAVIN, FOLIC ACID), SUGAR, WATER, VEGETABLE OIL (SOYBEAN AND/OR PALM), CORN SYRUP, YEAST, CONTAINS 2% OR LESS OF EACH OF THE FOLLOWING: CINNAMON, DEXTROSE, CORN STARCH, SALT, DISTILLED MONOGLYCERIDES, SOY FLOUR, MONOCALCIUM PHOSPHATE, CALCIUM CARBONATE, LEAVENING (SODIUM ACID PYROPHOSPHATE AND SODIUM BICARBONATE), AGAR, SOY LECITHIN, DATEM, NATURAL AND ARTIFICIAL FLAVOR, TITANIUM DIOXIDE (COLOR), MONOGLYCERIDES, ENZYMES, WHEAT STARCH, COLORED WITH TURMERIC AND ANNATTO, ASCORBIC ACID, DRY HONEY, CALCIUM STEARATE, HYDROXYLATED SOY LECITHIN, PRESERVED WITH CALCIUM PROPIONATE, SODIUM PROPIONATE, POTASSIUM SORBATE AND NATAMYCIN." Date available: 10/10/2017 Date last updated by company: 10/10/2017
