Source: USDA Branded Food Products Database Release December 2017 Software v.3.8.6.4 2017-10-02
Report Run at: December 17, 2017 22:15 EST
"Nutrient data for: 45227167, MRS BAIRD'S, 100% WHOLE WHEAT BREAD, UPC: 070870000424"
Food Group:  Branded Food Products Database
Common Name:

Nutrient,Unit,Data points,Std. Error,"1 SLICE = 26.0g",1Value per 100 g,
Proximates
"Energy",kcal,--,--,70,269
"Protein",g,--,--,3.00,11.54
"Total lipid (fat)",g,--,--,1.00,3.85
"Carbohydrate, by difference",g,--,--,12.00,46.15
"Fiber, total dietary",g,--,--,2.0,7.7
"Sugars, total",g,--,--,1.00,3.85
Minerals
"Calcium, Ca",mg,--,--,40,154
"Iron, Fe",mg,--,--,1.38,5.32
"Sodium, Na",mg,--,--,115,442
Vitamins
"Vitamin C, total ascorbic acid",mg,--,--,0.0,0.0
"Thiamin",mg,--,--,0.000,0.000
"Riboflavin",mg,--,--,0.000,0.000
"Niacin",mg,--,--,1.538,5.915
"Vitamin A, IU",IU,--,--,0,0
Lipids
"Fatty acids, total saturated",g,--,--,0.000,0.000
"Fatty acids, total monounsaturated",g,--,--,0.000,0.000
"Fatty acids, total polyunsaturated",g,--,--,0.000,0.000
"Fatty acids, total trans",g,--,--,0.000,0.000
"Cholesterol",mg,--,--,0,0
Amino Acids
Other
Ingredients
"WHOLE WHEAT FLOUR, WATER, WHEAT GLUTEN, SUGAR, YEAST, WHEAT BRAN, SOYBEAN OIL, SALT, MOLASSES, CALCIUM PROPIONATE (PRESERVATIVE), DATEM, MONOGLYCERIDES, CALCIUM SULFATE, CELLULOSE GUM, MONOCALCIUM PHOSPHATE, SOY LECITHIN, CITRIC ACID, GRAIN VINEGAR, POTASSIUM IODATE." Date available: 07/14/2017 Date last updated by company: 07/14/2017
