Source: USDA Branded Food Products Database Release December 2017 Software v.3.8.6.4 2017-10-02
Report Run at: December 17, 2017 22:14 EST
"Nutrient data for: 45226765, MRS BAIRD'S, EXTRA THIN SANDWICH BREAD, UPC: 070870001001"
Food Group:  Branded Food Products Database
Common Name:

Nutrient,Unit,Data points,Std. Error,"1 SLICE = 26.0g",1Value per 100 g,
Proximates
"Energy",kcal,--,--,70,269
"Protein",g,--,--,2.00,7.69
"Total lipid (fat)",g,--,--,1.00,3.85
"Carbohydrate, by difference",g,--,--,13.00,50.00
"Fiber, total dietary",g,--,--,0.0,0.0
"Sugars, total",g,--,--,2.00,7.69
Minerals
"Calcium, Ca",mg,--,--,20,77
"Iron, Fe",mg,--,--,1.38,5.32
"Sodium, Na",mg,--,--,120,462
Vitamins
"Vitamin C, total ascorbic acid",mg,--,--,0.0,0.0
"Thiamin",mg,--,--,0.260,1.000
"Riboflavin",mg,--,--,0.068,0.262
"Niacin",mg,--,--,1.538,5.915
"Vitamin A, IU",IU,--,--,0,0
Lipids
"Fatty acids, total saturated",g,--,--,0.000,0.000
"Fatty acids, total monounsaturated",g,--,--,0.000,0.000
"Fatty acids, total polyunsaturated",g,--,--,0.000,0.000
"Fatty acids, total trans",g,--,--,0.000,0.000
"Cholesterol",mg,--,--,0,0
Amino Acids
Other
Ingredients
"ENRICHED WHEAT FLOUR [FLOUR, MALTED BARLEY FLOUR, REDUCED IRON, NIACIN, THIAMIN MONONITRATE (VITAMIN B1), RIBOFLAVIN (VITAMIN B2), FOLIC ACID], WATER, HIGH FRUCTOSE CORN SYRUP, YEAST, SOYBEAN OIL, SALT, WHEAT GLUTEN, PRESERVATIVES (CALCIUM PROPIONATE, SORBIC ACID), MONOGLYCERIDES, DATEM, CALCIUM SULFATE, SOY LECITHIN, CITRIC ACID, GRAIN VINEGAR, POTASSIUM IODATE, MONOCALCIUM PHOSPHATE." Date available: 07/14/2017 Date last updated by company: 07/14/2017
