Source: USDA Branded Food Products Database Release December 2017 Software v.3.8.6.4 2017-10-02
Report Run at: December 17, 2017 22:23 EST
"Nutrient data for: 45006562, MRS.T'S, POTATO & CHEDDAR PIEROGIES, UPC: 041164008211"
Food Group:  Branded Food Products Database
Common Name:

Nutrient,Unit,Data points,Std. Error,"3.0 PIEROGIES = 114.0g",1Value per 100 g,
Proximates
"Energy",kcal,--,--,170,149
"Protein",g,--,--,5.00,4.39
"Total lipid (fat)",g,--,--,2.50,2.19
"Carbohydrate, by difference",g,--,--,31.00,27.19
"Fiber, total dietary",g,--,--,1.0,0.9
"Sugars, total",g,--,--,1.00,0.88
Minerals
"Calcium, Ca",mg,--,--,21,18
"Iron, Fe",mg,--,--,1.07,0.94
"Sodium, Na",mg,--,--,510,447
Vitamins
"Vitamin C, total ascorbic acid",mg,--,--,4.4,3.9
"Vitamin A, IU",IU,--,--,0,0
Lipids
"Fatty acids, total saturated",g,--,--,0.502,0.440
"Fatty acids, total trans",g,--,--,0.000,0.000
"Cholesterol",mg,--,--,5,4
Amino Acids
Other
Ingredients
"WATER, ENRICHED FLOUR (WHEAT FLOUR, NIACIN, IRON, THIAMINE, RIBOFLAVIN, FOLIC ACID), POTATO FLAKES (POTATOES, MONO AND DIGLYCERIDES, SODIUM ACID PYROPHOSPHATE, CITRIC ACID), SOYBEAN OIL, SALT, DEHYDRATED CHEDDAR CHEESE (CHEDDAR CHEESE [PASTEURIZED MILK, CHEESE CULTURES, SALT, ENZYMES], DISODIUM PHOSPHATE), ONION, NATURAL FLAVOR, EGGS, YEAST EXTRACT, WHEY, SPICES, ANNATTO AND TURMERIC (COLOR)." Date available: 07/14/2017 Date last updated by company: 07/14/2017
