Source: USDA Branded Food Products Database Release December 2017 Software v.3.8.6.4 2017-10-02
Report Run at: December 17, 2017 22:19 EST
"Nutrient data for: 45222893, MRS. FRESHLEY'S, DELICIOUS DEALS, ICED BUNS, HONEY, UPC: 072250003872"
Food Group:  Branded Food Products Database
Common Name:

Nutrient,Unit,Data points,Std. Error,"1 HONEY BUN = 57.0g",1Value per 100 g,
Proximates
"Energy",kcal,--,--,250,439
"Protein",g,--,--,2.00,3.51
"Total lipid (fat)",g,--,--,13.00,22.81
"Carbohydrate, by difference",g,--,--,31.00,54.39
"Fiber, total dietary",g,--,--,1.0,1.8
"Sugars, total",g,--,--,17.00,29.82
Minerals
"Calcium, Ca",mg,--,--,80,140
"Iron, Fe",mg,--,--,0.63,1.11
"Sodium, Na",mg,--,--,130,228
Vitamins
"Vitamin C, total ascorbic acid",mg,--,--,0.0,0.0
"Vitamin A, IU",IU,--,--,0,0
Lipids
"Fatty acids, total saturated",g,--,--,7.000,12.280
"Fatty acids, total monounsaturated",g,--,--,4.497,7.890
"Fatty acids, total polyunsaturated",g,--,--,2.502,4.390
"Fatty acids, total trans",g,--,--,0.000,0.000
"Cholesterol",mg,--,--,0,0
Amino Acids
Other
Ingredients
"ENRICHED FLOUR (WHEAT FLOUR, MALTED BARLEY FLOUR, NIACIN, REDUCED IRON, THIAMIN MONONITRATE, RIBOFLAVIN, FOLIC ACID), SUGAR, PALM OIL, WATER, VEGETABLE SHORTENING (SOYBEAN OIL AND PALM OIL WITH ADDED MONO-AND DIGLYCERIDES), YEAST, CONTAINS 2% OR LESS OF EACH OF THE FOLLOWING: DEXTROSE, CORNSTARCH, SALT, SOYBEAN OIL, SOY FLOUR, MONOGLYCERIDES, CORN SYRUP, CALCIUM CARBONATE, LEAVENING (SODIUM ACID PYROPHOSPHATE, BAKING SODA, MONOCALCIUM PHOSPHATE), CINNAMON, DATEM, SOY LECITHIN, DRIED HONEY, CALCIUM SULFATE, AGAR, TITANIUM DIOXIDE (FOR COLOR), COLORED WITH EXTRACTS OF ANNATTO AND TURMERIC, ENZYMES, ARTIFICIAL FLAVOR, PRESERVED WITH CALCIUM PROPIONATE, SODIUM PROPIONATE, AND POTASSIUM SORBATE." Date available: 07/14/2017 Date last updated by company: 07/14/2017
