Source: USDA Branded Food Products Database Release December 2017 Software v.3.8.6.4 2017-10-02
Report Run at: December 17, 2017 22:20 EST
"Nutrient data for: 45222679, MRS. FRESHLEY'S, WHEAT BREAD, UPC: 072250915038"
Food Group:  Branded Food Products Database
Common Name:

Nutrient,Unit,Data points,Std. Error,"1 SLICE = 26.0g",1Value per 100 g,
Proximates
"Energy",kcal,--,--,70,269
"Protein",g,--,--,3.00,11.54
"Total lipid (fat)",g,--,--,0.50,1.92
"Carbohydrate, by difference",g,--,--,13.00,50.00
"Fiber, total dietary",g,--,--,1.0,3.8
"Sugars, total",g,--,--,2.00,7.69
Minerals
"Calcium, Ca",mg,--,--,20,77
"Iron, Fe",mg,--,--,1.38,5.32
"Sodium, Na",mg,--,--,125,481
Vitamins
"Vitamin C, total ascorbic acid",mg,--,--,0.0,0.0
"Vitamin A, IU",IU,--,--,0,0
Lipids
"Fatty acids, total saturated",g,--,--,0.000,0.000
"Fatty acids, total trans",g,--,--,0.000,0.000
"Cholesterol",mg,--,--,0,0
Amino Acids
Other
Ingredients
"ENRICHED FLOUR (WHEAT FLOUR, MALTED BARLEY FLOUR, NIACIN, REDUCED IRON, THIAMINE MONONITRATE, RIBOFLAVIN, FOLIC ACID), WATER, WHOLE WHEAT FLOUR, HIGH FRUCTOSE CORN SYRUP, YEAST, CONTAIN 2% OR LESS OF EACH OF THE FOLLOWING: WHEAT GLUTEN, SOYBEAN OIL, SALT, DOUGH CONDITIONERS (CONTAINS ONE OR MORE OF THE FOLLOWING: SODIUM STEAROYL LACTYLATE, CALCIUM STEAROYL-2-LACTYLATE, MONO- AND DIGLYCERIDES, CALCIUM PEROXIDE, CALCIUM IODATE, DATEM, ETHOXYLATED MONO- AND DIGLYCERIDES, AZODICARBONAMIDE), CALCIUM SULFATE, AMMONIUM SULFATE, MONOCALCIUM PHOSPHATE, ENZYMES, SOY LECITHIN, SOY FLOUR, CALCIUM PROPIONATE (TO RETARD SPOILAGE)." Date available: 07/14/2017 Date last updated by company: 07/14/2017
