Source: USDA Branded Food Products Database Release December 2017 Software v.3.8.6.4 2017-10-02
Report Run at: December 17, 2017 22:25 EST
"Nutrient data for: 45137740, MT. M, CITRUS SODA, CITRUS, UPC: 061500119531"
Food Group:  Branded Food Products Database
Common Name:

Nutrient,Unit,Data points,Std. Error,"8.0 OZA = 240.0g",1Value per 100 g,
Proximates
"Energy",kcal,--,--,120,50
"Protein",g,--,--,0.00,0.00
"Total lipid (fat)",g,--,--,0.00,0.00
"Carbohydrate, by difference",g,--,--,31.99,13.33
"Sugars, total",g,--,--,31.99,13.33
Minerals
"Sodium, Na",mg,--,--,24,10
Vitamins
Lipids
Amino Acids
Other
Ingredients
"CARBONATED WATER, HIGH FRUCTOSE CORN SYRUP, CONCENTRATED ORANGE JUICE AND OTHER NATURAL FLAVORS, CITRIC ACID, POTASSIUM BENZOATE (A PRESERVATIVE), GUM ACACIA, POTASSIUM CITRATE, CAFFEINE, CALCIUM DISODIUM EDTA (TO PROTECT FLAVOR), YELLOW 5, BROMINATED VEGETABLE OIL." Date available: 07/14/2017 Date last updated by company: 07/14/2017
