Source: USDA Branded Food Products Database Release December 2017 Software v.3.8.6.4 2017-10-02
Report Run at: December 17, 2017 22:25 EST
"Nutrient data for: 45056923, MT. OLIVE, DILL RELISH, UPC: 009300000109"
Food Group:  Branded Food Products Database
Common Name:

Nutrient,Unit,Data points,Std. Error,"1 Tbsp = 15.0g",1Value per 100 g,
Proximates
"Energy",kcal,--,--,0,0
"Protein",g,--,--,0.00,0.00
"Total lipid (fat)",g,--,--,0.00,0.00
"Carbohydrate, by difference",g,--,--,0.00,0.00
Minerals
"Sodium, Na",mg,--,--,160,1067
Vitamins
Lipids
Amino Acids
Other
Ingredients
"CUCUMBERS, WATER, VINEGAR, SALT, RED BELL PEPPER, CALCIUM CHLORIDE ALUM, XANTHAN GUM, 0.1% SODIUM BENZOATE (PRESERVATIVE), NATURAL FLAVORS, POLYSORBATE 80, AND YELLOW 5." Date available: 07/14/2017 Date last updated by company: 07/14/2017
