Source: USDA Branded Food Products Database Release December 2017 Software v.3.8.6.4 2017-10-02
Report Run at: December 17, 2017 22:25 EST
"Nutrient data for: 45205041, MT. OLIVE, BREAD & BUTTER CHIPS PICKLES, HINT OF SALT, UPC: 009300003476"
Food Group:  Branded Food Products Database
Common Name:

Nutrient,Unit,Data points,Std. Error,"6.0 CHIPS) USUALLY | (ABOUT = 28.0g",1Value per 100 g,
Proximates
"Energy",kcal,--,--,25,89
"Protein",g,--,--,0.00,0.00
"Total lipid (fat)",g,--,--,0.00,0.00
"Carbohydrate, by difference",g,--,--,6.00,21.43
"Sugars, total",g,--,--,6.00,21.43
Minerals
"Sodium, Na",mg,--,--,160,571
Vitamins
Lipids
Amino Acids
Other
Ingredients
"CUCUMBERS, SUGAR, WATER, VINEGAR, SALT, MUSTARD SEEDS, ONION FLAKES, CALCIUM CHLORIDE (FIRMING AGENT), CELERY SEEDS, POLYSORBATE 80, AND TURMERIC (FOR COLOR)." Date available: 07/14/2017 Date last updated by company: 07/14/2017
