Source: USDA Branded Food Products Database Release December 2017 Software v.3.8.6.4 2017-10-02
Report Run at: December 17, 2017 22:30 EST
"Nutrient data for: 45230016, MUENSTER CHEESE, UPC: 078742143941"
Food Group:  Branded Food Products Database
Common Name:

Nutrient,Unit,Data points,Std. Error,"1 SLICE = 21.0g",1Value per 100 g,
Proximates
"Energy",kcal,--,--,80,381
"Protein",g,--,--,5.00,23.81
"Total lipid (fat)",g,--,--,6.00,28.57
"Carbohydrate, by difference",g,--,--,0.00,0.00
"Fiber, total dietary",g,--,--,0.0,0.0
"Sugars, total",g,--,--,0.00,0.00
Minerals
"Calcium, Ca",mg,--,--,150,714
"Iron, Fe",mg,--,--,0.00,0.00
"Sodium, Na",mg,--,--,135,643
Vitamins
"Vitamin C, total ascorbic acid",mg,--,--,0.0,0.0
"Vitamin A, IU",IU,--,--,476,2267
Lipids
"Fatty acids, total saturated",g,--,--,4.000,19.050
"Fatty acids, total trans",g,--,--,0.000,0.000
"Cholesterol",mg,--,--,20,95
Amino Acids
Other
Ingredients
"PASTEURIZED MILK, SALT, ENZYMES CHEESE CULTURE, ANNATTO EXTRACT COLOR." Date available: 07/14/2017 Date last updated by company: 07/14/2017
