Source: USDA Branded Food Products Database Release December 2017 Software v.3.8.6.4 2017-10-02
Report Run at: December 17, 2017 22:33 EST
"Nutrient data for: 45203753, MUFFINS, UPC: 857848005083"
Food Group:  Branded Food Products Database
Common Name:

Nutrient,Unit,Data points,Std. Error,"1 MUFFIN = 68.0g",1Value per 100 g,
Proximates
"Energy",kcal,--,--,200,294
"Protein",g,--,--,4.00,5.88
"Total lipid (fat)",g,--,--,6.00,8.82
"Carbohydrate, by difference",g,--,--,33.00,48.53
"Fiber, total dietary",g,--,--,2.0,2.9
"Sugars, total",g,--,--,18.00,26.47
Minerals
"Calcium, Ca",mg,--,--,20,29
"Iron, Fe",mg,--,--,0.87,1.28
"Sodium, Na",mg,--,--,290,426
Vitamins
"Vitamin C, total ascorbic acid",mg,--,--,0.0,0.0
"Vitamin A, IU",IU,--,--,405,595
Lipids
"Fatty acids, total saturated",g,--,--,1.503,2.210
"Fatty acids, total trans",g,--,--,0.000,0.000
"Cholesterol",mg,--,--,55,81
Amino Acids
Other
Ingredients
"SUGAR, EGGS, BUTTERNUT SQUASH PUREE, WHOLE WHEAT FLOUR, ENRICHED FLOUR BLEACHED (WHEAT FLOUR, NIACIN, REDUCED IRON, THIAMINE MONONITRATE, RIBOFLAVIN, FOLIC ACID), WATER, BLUEBERRIES, SOYBEAN OIL AND/OR CANOLA OIL, FOOD STARCH-MODIFIED, CONTAINS, LESS THAN 2% OF EACH OF THE FOLLOWING: SOYBEAN OIL, WHEY, BUTTER WITH NATURAL FLAORS (CREAM, NATURAL FLAVORS, LEAVENING (SODIUM ACID PYROPHOSPHATE, BAKING SODA), SALT, WHEAT GLUTEN, MONO- AND DIGLYCERIDES, NATURAL AND ARTIFICIAL FLAVORS, PROPYLENE GLYCOL MONO- AND DIESTERS OF FATS AND FATTY ACIDS, SORBITAN MONOSTEARATE, POLYSORBATE 60, SODIUM STEAROYL LACTYLATE, DEXTROSE, CORN STARCH, CITRIC ACID PRESERVATIVE, SOY FLOUR." Date available: 07/14/2017 Date last updated by company: 07/14/2017
