Source: USDA Branded Food Products Database Release December 2017 Software v.3.8.6.4 2017-10-02
Report Run at: December 17, 2017 22:37 EST
"Nutrient data for: 45321521, MUIR GLEN ORG DICED TOMATOES SAN MARZANO STYLE W BASIL GRLC, UNPREPARED, GTIN: 00725342287413"
Food Group:  Branded Food Products Database
Common Name:

Nutrient,Unit,Data points,Std. Error,"0.5 cup (130g) = 130.0g",1Value per 100 g,
Proximates
"Energy",kcal,--,--,30,23
"Protein",g,--,--,1.00,0.77
"Total lipid (fat)",g,--,--,0.00,0.00
"Carbohydrate, by difference",g,--,--,6.01,4.62
"Fiber, total dietary",g,--,--,1.0,0.8
"Sugars, total",g,--,--,3.00,2.31
Minerals
"Calcium, Ca",mg,--,--,20,15
"Iron, Fe",mg,--,--,0.71,0.55
"Sodium, Na",mg,--,--,211,162
Vitamins
"Vitamin C, total ascorbic acid",mg,--,--,2.3,1.8
"Vitamin A, IU",IU,--,--,500,385
Lipids
"Fatty acids, total saturated",g,--,--,0.000,0.000
"Fatty acids, total trans",g,--,--,0.000,0.000
"Cholesterol",mg,--,--,0,0
Amino Acids
Other
Ingredients
"ORGANIC TOMATOES, ORGANIC TOMATO JUICE, CITRIC ACID, SEA SALT, ORGANIC BASIL, ORGANIC GARLIC POWDER, CALCIUM CHLORIDE." Date available: 10/10/2017 Date last updated by company: 07/02/2017
