Source: USDA Branded Food Products Database Release December 2017 Software v.3.8.6.4 2017-10-02
Report Run at: December 17, 2017 22:36 EST
"Nutrient data for: 45321493, MUIR GLEN ORG CRUSHED TOMATOES FIRE ROASTED, UNPREPARED, GTIN: 00725342291113"
Food Group:  Branded Food Products Database
Common Name:

Nutrient,Unit,Data points,Std. Error,"0.25 cup (65g) = 65.0g",1Value per 100 g,
Proximates
"Energy",kcal,--,--,25,38
"Protein",g,--,--,1.00,1.54
"Total lipid (fat)",g,--,--,0.00,0.00
"Carbohydrate, by difference",g,--,--,5.00,7.69
"Fiber, total dietary",g,--,--,1.0,1.5
"Sugars, total",g,--,--,3.00,4.62
Minerals
"Calcium, Ca",mg,--,--,0,0
"Iron, Fe",mg,--,--,0.36,0.55
"Sodium, Na",mg,--,--,110,169
Vitamins
"Vitamin C, total ascorbic acid",mg,--,--,0.0,0.0
"Vitamin A, IU",IU,--,--,500,769
Lipids
"Fatty acids, total saturated",g,--,--,0.000,0.000
"Fatty acids, total trans",g,--,--,0.000,0.000
"Cholesterol",mg,--,--,0,0
Amino Acids
Other
Ingredients
"ORGANIC FIRE ROASTED TOMATOES, ORGANIC TOMATO PUREE, CITRIC ACID, SEA SALT." Date available: 10/10/2017 Date last updated by company: 07/02/2017
