Source: USDA Branded Food Products Database Release December 2017 Software v.3.8.6.4 2017-10-02
Report Run at: December 17, 2017 22:36 EST
"Nutrient data for: 45311760, MUIR GLEN, ORGANIC PASTA SAUCE, CHUNKY TOMATO & HERBS, UPC: 725342282463"
Food Group:  Branded Food Products Database
Common Name:

Nutrient,Unit,Data points,Std. Error,"0.5 cup = 125.0g",1Value per 100 g,
Proximates
"Energy",kcal,--,--,50,40
"Protein",g,--,--,2.00,1.60
"Total lipid (fat)",g,--,--,0.50,0.40
"Carbohydrate, by difference",g,--,--,10.00,8.00
"Fiber, total dietary",g,--,--,2.0,1.6
"Sugars, total",g,--,--,6.00,4.80
Minerals
"Calcium, Ca",mg,--,--,60,48
"Iron, Fe",mg,--,--,1.14,0.91
"Sodium, Na",mg,--,--,280,224
Vitamins
"Vitamin C, total ascorbic acid",mg,--,--,1.2,1.0
"Vitamin A, IU",IU,--,--,792,634
Lipids
"Fatty acids, total saturated",g,--,--,0.000,0.000
"Fatty acids, total trans",g,--,--,0.000,0.000
"Cholesterol",mg,--,--,0,0
Amino Acids
Other
Ingredients
"TOMATO PUREE* (WATER, TOMATO PASTE*), TOMATOES IN JUICE*, ONION*, SUGAR*, SEA SALT, EXTRA VIRGIN OLIVE OIL*, BASIL*, CITRIC ACID, GARLIC*, CALCIUM CHLORIDE, OREGANO*, BLACK PEPPER*, THYME*, FENNEL*." Date available: 07/14/2017 Date last updated by company: 07/14/2017
