Source: USDA Branded Food Products Database Release December 2017 Software v.3.8.6.4 2017-10-02
Report Run at: December 17, 2017 22:39 EST
"Nutrient data for: 45036506, MULTIGRAIN CEREAL, UPC: 070617006924"
Food Group:  Branded Food Products Database
Common Name:

Nutrient,Unit,Data points,Std. Error,"1 cup = 30.0g",1Value per 100 g,
Proximates
"Energy",kcal,--,--,110,367
"Protein",g,--,--,2.00,6.67
"Total lipid (fat)",g,--,--,0.50,1.67
"Carbohydrate, by difference",g,--,--,25.00,83.33
"Fiber, total dietary",g,--,--,3.0,10.0
"Sugars, total",g,--,--,5.00,16.67
Minerals
"Calcium, Ca",mg,--,--,250,833
"Iron, Fe",mg,--,--,8.25,27.50
"Potassium, K",mg,--,--,135,450
"Sodium, Na",mg,--,--,20,67
Vitamins
"Vitamin C, total ascorbic acid",mg,--,--,27.5,91.7
"Vitamin A, IU",IU,--,--,0,0
"Vitamin D",IU,--,--,100,333
Lipids
"Fatty acids, total saturated",g,--,--,0.000,0.000
"Fatty acids, total trans",g,--,--,0.000,0.000
"Cholesterol",mg,--,--,0,0
Amino Acids
Other
Ingredients
"NON-GMO CORN FLOUR, WHOLE GRAIN PURE OAT FLOUR, EVAPORATED CANE SUGAR, WHOLE GRAIN BROWN RICE FLOUR, OAT HULL FIBER, UNSULPHURED MOLASSES, CALCIUM CARBONATE, NATURAL FLAVOR, CARAMEL COLOR (FROM CANE MOLASSES), ANNATTO (FOR COLOR), VITAMIN C (ASCORBIC ACID), IRON (FERRIC ORTHOPHOSPHATE), VITAMIN D3, TOCOPHEROLS (ANTIOXIDANTS TO PRESERVE FRESHNESS)." Date available: 07/14/2017 Date last updated by company: 07/14/2017
