Source: USDA Branded Food Products Database Release December 2017 Software v.3.8.6.4 2017-10-02
Report Run at: December 17, 2017 22:38 EST
"Nutrient data for: 45179084, MULTIGRAIN BREAD, UPC: 737349002333"
Food Group:  Branded Food Products Database
Common Name:

Nutrient,Unit,Data points,Std. Error,"1 SLICE = 43.0g",1Value per 100 g,
Proximates
"Energy",kcal,--,--,130,302
"Protein",g,--,--,5.00,11.63
"Total lipid (fat)",g,--,--,3.00,6.98
"Carbohydrate, by difference",g,--,--,20.00,46.51
"Fiber, total dietary",g,--,--,3.0,7.0
"Sugars, total",g,--,--,3.00,6.98
Minerals
"Calcium, Ca",mg,--,--,20,47
"Iron, Fe",mg,--,--,1.26,2.92
"Sodium, Na",mg,--,--,170,395
Vitamins
"Vitamin C, total ascorbic acid",mg,--,--,0.0,0.0
"Vitamin A, IU",IU,--,--,0,0
Lipids
"Fatty acids, total saturated",g,--,--,0.000,0.000
"Fatty acids, total trans",g,--,--,0.000,0.000
"Cholesterol",mg,--,--,0,0
Amino Acids
Other
Ingredients
"WHOLE GRAIN FRESH-MALTED WHEAT, WHOLE WHEAT FLAVOR, UNBLEACHED WHEAT FLOUR (BARLEY MALT, VITAMIN C), HONEY, VITAL WHEAT GLUTEN, SESAME SEEDS, NON-GMO CANOLA OIL, SUNFLOWER SEEDS, SEA SALT, FRESH YEAST, FLAX SEED, CRACKED WHEAT, BARLEY, CORN, RYE, OATS, MILLET, TRITICALE, BROWN RICE." Date available: 07/14/2017 Date last updated by company: 07/14/2017
