Source: USDA Branded Food Products Database Release December 2017 Software v.3.8.6.4 2017-10-02
Report Run at: December 17, 2017 22:43 EST
"Nutrient data for: 45216026, MULTIGRAIN SNACKS, UPC: 028400084673"
Food Group:  Branded Food Products Database
Common Name:

Nutrient,Unit,Data points,Std. Error,"15.0 CHIPS | ABOUT = 28.0g",1Value per 100 g,
Proximates
"Energy",kcal,--,--,140,500
"Protein",g,--,--,2.00,7.14
"Total lipid (fat)",g,--,--,6.00,21.43
"Carbohydrate, by difference",g,--,--,18.00,64.29
"Fiber, total dietary",g,--,--,2.0,7.1
"Sugars, total",g,--,--,2.00,7.14
Minerals
"Calcium, Ca",mg,--,--,0,0
"Iron, Fe",mg,--,--,0.36,1.29
"Sodium, Na",mg,--,--,210,750
Vitamins
"Vitamin C, total ascorbic acid",mg,--,--,0.0,0.0
"Vitamin A, IU",IU,--,--,0,0
Lipids
"Fatty acids, total saturated",g,--,--,1.000,3.570
"Fatty acids, total monounsaturated",g,--,--,3.500,12.500
"Fatty acids, total polyunsaturated",g,--,--,1.000,3.570
"Fatty acids, total trans",g,--,--,0.000,0.000
"Cholesterol",mg,--,--,0,0
Amino Acids
Other
Ingredients
"WHOLE CORN, SUNFLOWER AND/OR CANOLA OIL, WHOLE WHEAT, BROWN RICE FLOUR, WHOLE OAT FLOUR, SUGAR, MALTODEXTRIN (MADE FROM CORN), SALT, CHEDDAR CHEESE (MILK, CHEESE CULTURES, SALT, ENZYMES), NATURAL FLAVORS, WHEY, WHEY PROTEIN CONCENTRATE, ONION POWDER, ROMANO CHEESE (COW'S MILK, CHEESE CULTURES, SALT, ENZYMES), BUTTERMILK, YEAST EXTRACT, CITRIC ACID, PAPRIKA EXTRACTS, LACTIC ACID, GARLIC POWDER, PARMESAN CHEESE (MILK, CHEESE CULTURES, SALT, ENZYMES), AND SKIM MILK." Date available: 12/31/2016 Date last updated by company: 12/31/2016
