Source: USDA Branded Food Products Database Release December 2017 Software v.3.8.6.4 2017-10-02
Report Run at: December 17, 2017 22:45 EST
"Nutrient data for: 45083854, MULTI-USE TOFU, UPC: 025484000940"
Food Group:  Branded Food Products Database
Common Name:

Nutrient,Unit,Data points,Std. Error,"3.2 ONZ = 90.0g",1Value per 100 g,
Proximates
"Energy",kcal,--,--,50,56
"Protein",g,--,--,5.00,5.56
"Total lipid (fat)",g,--,--,2.50,2.78
"Carbohydrate, by difference",g,--,--,1.00,1.11
"Fiber, total dietary",g,--,--,0.0,0.0
"Sugars, total",g,--,--,0.00,0.00
Minerals
"Calcium, Ca",mg,--,--,150,167
"Iron, Fe",mg,--,--,0.68,0.76
"Potassium, K",mg,--,--,160,178
"Sodium, Na",mg,--,--,15,17
Vitamins
Lipids
"Fatty acids, total saturated",g,--,--,0.000,0.000
"Fatty acids, total monounsaturated",g,--,--,0.999,1.110
"Fatty acids, total polyunsaturated",g,--,--,1.503,1.670
"Fatty acids, total trans",g,--,--,0.000,0.000
"Cholesterol",mg,--,--,0,0
Amino Acids
Other
Ingredients
"WATER, WHOLE NON GENETICALLY ENGINEERED SOYBEANS, CALCIUM SULFATE" Date available: 06/25/2017 Date last updated by company: 06/25/2017
