Source: USDA Branded Food Products Database Release December 2017 Software v.3.8.6.4 2017-10-02
Report Run at: December 17, 2017 22:38 EST
"Nutrient data for: 45269122, MULTI-COLORED SKULLS, UPC: 829364127006"
Food Group:  Branded Food Products Database
Common Name:

Nutrient,Unit,Data points,Std. Error,"14.0 PCS = 14.0g",1Value per 100 g,
Proximates
"Energy",kcal,--,--,50,357
"Protein",g,--,--,0.00,0.00
"Total lipid (fat)",g,--,--,0.00,0.00
"Carbohydrate, by difference",g,--,--,13.00,92.86
"Fiber, total dietary",g,--,--,0.0,0.0
"Sugars, total",g,--,--,13.00,92.86
Minerals
"Calcium, Ca",mg,--,--,0,0
"Iron, Fe",mg,--,--,0.00,0.00
"Sodium, Na",mg,--,--,0,0
Vitamins
"Vitamin C, total ascorbic acid",mg,--,--,0.0,0.0
"Vitamin A, IU",IU,--,--,0,0
Lipids
"Fatty acids, total saturated",g,--,--,0.000,0.000
"Cholesterol",mg,--,--,0,0
Amino Acids
Other
Ingredients
"DEXTROSE, MALTODEXTRIN, CALCIUM STEARATE, MALIC ACID, NATURAL AND ARTIFICIAL FLAVORS, RESINOUS GLAZE (CONFECTIONER'S GLAZE). TAPIOCA DEXTRIN, CARNAUBA WAX, COLORS (YELLOW 5 & 6, RED 40, BLUE 1 & 2, YELLOW 5 & 6 LAKE, RED 40 LAKE, BLUE 1 LAKE)." Date available: 07/14/2017 Date last updated by company: 07/14/2017
