Source: USDA Branded Food Products Database Release December 2017 Software v.3.8.6.4 2017-10-02
Report Run at: December 17, 2017 22:38 EST
"Nutrient data for: 45201901, MULTI-GRAIN BREAD, UPC: 072036000064"
Food Group:  Branded Food Products Database
Common Name:

Nutrient,Unit,Data points,Std. Error,"1 SLICE = 43.0g",1Value per 100 g,
Proximates
"Energy",kcal,--,--,110,256
"Protein",g,--,--,5.00,11.63
"Total lipid (fat)",g,--,--,1.50,3.49
"Carbohydrate, by difference",g,--,--,20.00,46.51
"Fiber, total dietary",g,--,--,4.0,9.3
"Sugars, total",g,--,--,4.00,9.30
Minerals
"Calcium, Ca",mg,--,--,40,93
"Iron, Fe",mg,--,--,1.26,2.92
"Sodium, Na",mg,--,--,150,349
Vitamins
"Vitamin C, total ascorbic acid",mg,--,--,0.0,0.0
"Thiamin",mg,--,--,0.000,0.000
"Riboflavin",mg,--,--,0.034,0.079
"Niacin",mg,--,--,0.930,2.163
"Vitamin A, IU",IU,--,--,0,0
Lipids
"Fatty acids, total saturated",g,--,--,0.000,0.000
"Fatty acids, total monounsaturated",g,--,--,0.000,0.000
"Fatty acids, total polyunsaturated",g,--,--,1.002,2.330
"Fatty acids, total trans",g,--,--,0.000,0.000
"Cholesterol",mg,--,--,0,0
Amino Acids
Other
Ingredients
"WHOLE WHEAT FLOUR, WATER, SUGAR, WHEAT GLUTEN, BROWN RICE, CORNMEAL, OATS, WHEAT BRAN, YEAST, CELLULOSE FIBER, SOYBEAN OIL, BLACK & WHITE SESAME SEEDS, SALT, MOLASSES, DATEM AND/OR SODIUM STEAROYL LACTYLATE, MONO- AND DIGLYCERIDES, CALCIUM PROPIONATE (PRESERVATIVE), CALCIUM SULFATE, POPPY SEEDS, GRAIN VINEGAR, SOY LECITHIN, CITRIC ACID, CALCIUM CARBONATE, NUTS [WALNUTS AND/OR HAZELNUTS (FILBERTS) AND/OR ALMONDS], WHEY, SOY FLOUR, NONFAT MILK." Date available: 07/14/2017 Date last updated by company: 07/14/2017
