Source: USDA Branded Food Products Database Release December 2017 Software v.3.8.6.4 2017-10-02
Report Run at: December 17, 2017 22:45 EST
"Nutrient data for: 45232272, MULTIPURPOSE FLOUR, UPC: 859216003233"
Food Group:  Branded Food Products Database
Common Name:

Nutrient,Unit,Data points,Std. Error,"3.0 Tbsp = 26.0g",1Value per 100 g,
Proximates
"Energy",kcal,--,--,90,346
"Protein",g,--,--,2.00,7.69
"Total lipid (fat)",g,--,--,0.00,0.00
"Carbohydrate, by difference",g,--,--,21.00,80.77
"Fiber, total dietary",g,--,--,1.0,3.8
"Sugars, total",g,--,--,1.00,3.85
Minerals
"Calcium, Ca",mg,--,--,40,154
"Iron, Fe",mg,--,--,0.00,0.00
"Sodium, Na",mg,--,--,15,58
Vitamins
"Vitamin C, total ascorbic acid",mg,--,--,0.0,0.0
"Vitamin A, IU",IU,--,--,0,0
Lipids
"Fatty acids, total saturated",g,--,--,0.000,0.000
"Fatty acids, total trans",g,--,--,0.000,0.000
"Cholesterol",mg,--,--,0,0
Amino Acids
Other
Ingredients
"CORNSTARCH, WHITE RICE FLOUR, BROWN RICE FLOUR, RBST-FREE MILK POWDER, TAPIOCA FLOUR, POTATO STARCH, XANTHAN GUM." Date available: 07/14/2017 Date last updated by company: 07/14/2017
