Source: USDA Branded Food Products Database Release December 2017 Software v.3.8.6.4 2017-10-02
Report Run at: December 17, 2017 22:45 EST
"Nutrient data for: 45055297, MUNCHIE MIX HONEY ROASTED PEANUTS, HONEY ROASTED SESAME STICKS, MINI PRETZEL TWISTS, CHEDDAR CHEESE STICKS, RANCH BAGEL CHIPS., UPC: 072036330819"
Food Group:  Branded Food Products Database
Common Name:

Nutrient,Unit,Data points,Std. Error,"0.33 cup = 25.0g",1Value per 100 g,
Proximates
"Energy",kcal,--,--,120,480
"Protein",g,--,--,3.00,12.00
"Total lipid (fat)",g,--,--,6.00,24.00
"Carbohydrate, by difference",g,--,--,14.00,56.00
"Fiber, total dietary",g,--,--,1.0,4.0
"Sugars, total",g,--,--,1.00,4.00
Minerals
"Calcium, Ca",mg,--,--,20,80
"Iron, Fe",mg,--,--,1.44,5.76
"Sodium, Na",mg,--,--,190,760
Vitamins
"Vitamin C, total ascorbic acid",mg,--,--,0.0,0.0
"Vitamin A, IU",IU,--,--,0,0
Lipids
"Fatty acids, total saturated",g,--,--,1.000,4.000
"Fatty acids, total trans",g,--,--,0.000,0.000
"Cholesterol",mg,--,--,0,0
Amino Acids
Other
Ingredients
"PEANUTS, BLEACHED AND UNBLEACHED WHEAT FLOUR (NIACIN, REDUCED IRON, THIAMIN MONONITRATE, RIBOFLAVIN), STONE GROUND CORN, PEANUT AND/OR CANOLA AND/OR COTTONSEED AND/OR SOYBEAN OIL, CHEESE POWDER AND FLAVOR {CHEDDAR CHEESE (PASTEURIZED MILK, CHEESE CULTURES, SALT, ENZYMES), WHEY, SALT, DISODIUM PHOSPHATE, YELLOW 5 & 6, YELLOW 6 LAKE}, SUGAR, SALT, SESAME SEEDS, HONEY, MALTED BARLEY FLOUR, BULGUR WHEAT, WHEAT STARCH, WHEAT GLUTEN, CORN SYRUP, BUTTERMILK POWDER, OAT BRAN, DEXTROSE MONOHYDRATE, NATURAL AND ARTIFICIAL FLAVORING, MALTODEXTRIN, MODIFIED CORN STARCH, ONION AND GARLIC POWDERS, CITRIC ACID, SOUR CREAM POWDER (SOUR CREAM SOLIDS, CULTURED NONFAT MILK, CITRIC ACID, TBHQ), MILK SOLIDS, LACTIC ACID, YEAST, TOMATO POWDER, EXTRACTIVES OF PAPRIKA, SODIUM BICARBONATE, XANTHAN GUM, GUAR GUM, TURMERIC AND BEET POWDER, MALIC ACIDS." Date available: 06/24/2017 Date last updated by company: 06/24/2017
