Source: USDA Branded Food Products Database Release December 2017 Software v.3.8.6.4 2017-10-02
Report Run at: December 17, 2017 22:46 EST
"Nutrient data for: 45250951, MUNCH REAL, CANDY COOKIES, UPC: 667651001246"
Food Group:  Branded Food Products Database
Common Name:

Nutrient,Unit,Data points,Std. Error,"28.0 GRM = 28.0g",1Value per 100 g,
Proximates
"Energy",kcal,--,--,120,429
"Protein",g,--,--,1.00,3.57
"Total lipid (fat)",g,--,--,7.00,25.00
"Carbohydrate, by difference",g,--,--,14.00,50.00
"Fiber, total dietary",g,--,--,1.0,3.6
"Sugars, total",g,--,--,6.00,21.43
Minerals
"Calcium, Ca",mg,--,--,0,0
"Iron, Fe",mg,--,--,1.93,6.88
"Potassium, K",mg,--,--,63,224
"Sodium, Na",mg,--,--,10,36
Vitamins
"Vitamin C, total ascorbic acid",mg,--,--,2.2,7.7
"Vitamin A, IU",IU,--,--,0,0
Lipids
"Fatty acids, total saturated",g,--,--,2.500,8.930
"Fatty acids, total trans",g,--,--,1.000,3.570
"Cholesterol",mg,--,--,15,54
Amino Acids
Other
Ingredients
"POTATO STARCH, SUGAR, EGGS, PARTIALLY DEHYDRATED COTTONSEED SHORTENING, APRICOT KERNEL PASTE GLUCOSE, BAKING POWDER, VANILLA FLAVOR, CANDY SPRINKLES, FD&C RED 40, BLUE 1, YELLOW 5, YELLOW 6, POTASSIUM SORBATE." Date available: 07/14/2017 Date last updated by company: 07/14/2017
