Source: USDA Branded Food Products Database Release December 2017 Software v.3.8.6.4 2017-10-02
Report Run at: December 17, 2017 22:47 EST
"Nutrient data for: 45321523, MUR GLN PASTA SAUCE TOMATO BASIL, UNPREPARED, GTIN: 00725342283569"
Food Group:  Branded Food Products Database
Common Name:

Nutrient,Unit,Data points,Std. Error,"0.5 cup (125g) = 125.0g",1Value per 100 g,
Proximates
"Energy",kcal,--,--,80,64
"Protein",g,--,--,2.00,1.60
"Total lipid (fat)",g,--,--,4.50,3.60
"Carbohydrate, by difference",g,--,--,8.00,6.40
"Fiber, total dietary",g,--,--,2.0,1.6
"Sugars, total",g,--,--,4.00,3.20
Minerals
"Calcium, Ca",mg,--,--,0,0
"Iron, Fe",mg,--,--,0.36,0.29
"Sodium, Na",mg,--,--,310,248
Vitamins
"Vitamin C, total ascorbic acid",mg,--,--,1.2,1.0
"Vitamin A, IU",IU,--,--,750,600
Lipids
"Fatty acids, total saturated",g,--,--,0.500,0.400
"Fatty acids, total trans",g,--,--,0.000,0.000
"Cholesterol",mg,--,--,0,0
Amino Acids
Other
Ingredients
"ORGANIC TOMATO PUREE (WATER, ORGANIC TOMATO PASTE), ORGANIC TOMATOES IN JUICE, ORGANIC EXTRA VIRGIN OLIVE OIL, ORGANIC SAUTEED ONION, ORGANIC CARROT PUREE, ORGANIC BASIL, SEA SALT, ORGANIC SAUTEED GARLIC, CITRIC ACID, CALCIUM CHLORIDE, ORGANIC FENNEL , ORGANIC BLACK PEPPER, ORGANIC OREGANO." Date available: 10/10/2017 Date last updated by company: 07/02/2017
