Source: USDA Branded Food Products Database Release December 2017 Software v.3.8.6.4 2017-10-02
Report Run at: December 17, 2017 22:48 EST
"Nutrient data for: 45304917, MURRAY, OATMEAL, SUGAR FREE COOKIES, UPC: 082011913326"
Food Group:  Branded Food Products Database
Common Name:

Nutrient,Unit,Data points,Std. Error,"3.0 COOKIES = 32.0g",1Value per 100 g,
Proximates
"Energy",kcal,--,--,140,438
"Protein",g,--,--,2.00,6.25
"Total lipid (fat)",g,--,--,7.00,21.88
"Carbohydrate, by difference",g,--,--,21.00,65.62
"Fiber, total dietary",g,--,--,3.0,9.4
"Sugars, total",g,--,--,0.00,0.00
Minerals
"Calcium, Ca",mg,--,--,0,0
"Iron, Fe",mg,--,--,1.13,3.52
"Sodium, Na",mg,--,--,130,406
Vitamins
"Vitamin C, total ascorbic acid",mg,--,--,0.0,0.0
"Vitamin A, IU",IU,--,--,0,0
Lipids
"Fatty acids, total saturated",g,--,--,2.499,7.810
"Fatty acids, total trans",g,--,--,0.000,0.000
"Cholesterol",mg,--,--,0,0
Amino Acids
Other
Ingredients
"ENRICHED FLOUR (WHEAT FLOUR, NIACIN, REDUCED IRON, VITAMIN B1 [THIAMIN MONONITRATE], VITAMIN B2 [RIBOFLAVIN], FOLIC ACID), SOYBEAN AND PALM OIL, WHOLE GRAIN OATS, POLYDEXTROSE, SORBITOL*, MALTODEXTRIN, MALTITOL, CONTAINS 2% OR LESS OF NATURAL AND ARTIFICIAL FLAVORS (CONTAINS MILK), CORNSTARCH, CINNAMON, SALT, LEAVENING (BAKING SODA, SODIUM ACID PYROPHOSPHATE), EGGS, SOY LECITHIN, CARAMEL COLOR, DATEM, ACESULFAME POTASSIUM, SUCRALOSE, ANNATTO EXTRACT FOR COLOR, PAPRIKA OLEORESIN FOR COLOR, NUTMEG." Date available: 07/14/2017 Date last updated by company: 07/14/2017
