Source: USDA Branded Food Products Database Release December 2017 Software v.3.8.6.4 2017-10-02
Report Run at: December 17, 2017 22:52 EST
"Nutrient data for: 45054590, MUSETTE, PICHOLINE OLIVES, GREEN OLIVES, UPC: 076606104435"
Food Group:  Branded Food Products Database
Common Name:

Nutrient,Unit,Data points,Std. Error,"1 Tbsp = 15.0g",1Value per 100 g,
Proximates
"Energy",kcal,--,--,18,120
"Total lipid (fat)",g,--,--,2.00,13.33
Minerals
"Sodium, Na",mg,--,--,360,2400
Vitamins
Lipids
"Fatty acids, total saturated",g,--,--,0.150,1.000
Amino Acids
Other
Ingredients
"OLIVES, WATER, SALT AND CITRIC ACID." Date available: 06/25/2017 Date last updated by company: 06/25/2017
