Source: USDA Branded Food Products Database Release December 2017 Software v.3.8.6.4 2017-10-02
Report Run at: December 17, 2017 22:56 EST
"Nutrient data for: 45054309, MUSHROOMS, UPC: 026662111342"
Food Group:  Branded Food Products Database
Common Name:

Nutrient,Unit,Data points,Std. Error,"0.5 CUP W/LIQUID = 115.0g",1Value per 100 g,
Proximates
"Energy",kcal,--,--,20,17
"Protein",g,--,--,2.00,1.74
"Total lipid (fat)",g,--,--,0.00,0.00
"Carbohydrate, by difference",g,--,--,3.00,2.61
"Fiber, total dietary",g,--,--,1.0,0.9
"Sugars, total",g,--,--,1.00,0.87
Minerals
"Calcium, Ca",mg,--,--,0,0
"Iron, Fe",mg,--,--,0.40,0.35
"Sodium, Na",mg,--,--,390,339
Vitamins
"Vitamin C, total ascorbic acid",mg,--,--,1.4,1.2
"Vitamin A, IU",IU,--,--,0,0
Lipids
"Fatty acids, total saturated",g,--,--,0.000,0.000
"Fatty acids, total trans",g,--,--,0.000,0.000
"Cholesterol",mg,--,--,0,0
Amino Acids
Other
Ingredients
"INGREDIENTS: MUSHROOMS. WATER, SALT, CALCIUM DISODIUM EDTA (TO RETAIN COLOR)." Date available: 10/13/2017 Date last updated by company: 10/13/2017
