Source: USDA Branded Food Products Database Release December 2017 Software v.3.8.6.4 2017-10-02
Report Run at: December 17, 2017 23:01 EST
"Nutrient data for: 45193297, MUSTARD POTATO SALAD, UPC: 011110111739"
Food Group:  Branded Food Products Database
Common Name:

Nutrient,Unit,Data points,Std. Error,"0.75 cup = 140.0g",1Value per 100 g,
Proximates
"Energy",kcal,--,--,239,171
"Protein",g,--,--,2.00,1.43
"Total lipid (fat)",g,--,--,14.99,10.71
"Carbohydrate, by difference",g,--,--,24.00,17.14
"Fiber, total dietary",g,--,--,2.0,1.4
"Sugars, total",g,--,--,5.00,3.57
Minerals
"Calcium, Ca",mg,--,--,20,14
"Iron, Fe",mg,--,--,0.36,0.26
"Sodium, Na",mg,--,--,470,336
Vitamins
"Vitamin C, total ascorbic acid",mg,--,--,9.0,6.4
"Vitamin A, IU",IU,--,--,0,0
Lipids
"Fatty acids, total saturated",g,--,--,2.506,1.790
"Fatty acids, total trans",g,--,--,0.000,0.000
"Cholesterol",mg,--,--,15,11
Amino Acids
Other
Ingredients
"POTATOES, DRESSING (SALAD DRESSING [SOYBEAN OIL, WATER, SUGAR, VINEGAR, EGG YOLKS, MODIFIED CORN STARCH, SALT, NATURAL FLAVOR, MUSTARD FLOUR, PAPRIKA, CALCIUM DISODIUM EDTA {PRESERVATIVE}], MUSTARD [DISTILLED VINEGAR, MUSTARD SEED, SALT, TURMERIC, SPICES], SUGAR, CONTAINS 2% OR LESS OF: SALT, PEPPER, LACTIC ACID), ONIONS." Date available: 07/14/2017 Date last updated by company: 07/14/2017
