Source: USDA Branded Food Products Database Release December 2017 Software v.3.8.6.4 2017-10-02
Report Run at: December 17, 2017 23:05 EST
"Nutrient data for: 45118066, MUTTI PARMA, BABY ROMA TOMATOES, UPC: 854693000645"
Food Group:  Branded Food Products Database
Common Name:

Nutrient,Unit,Data points,Std. Error,"0.5 cup = 100.0g",1Value per 100 g,
Proximates
"Energy",kcal,--,--,22,22
"Protein",g,--,--,1.00,1.00
"Total lipid (fat)",g,--,--,0.00,0.00
"Carbohydrate, by difference",g,--,--,4.00,4.00
"Fiber, total dietary",g,--,--,2.0,2.0
"Sugars, total",g,--,--,3.00,3.00
Minerals
"Calcium, Ca",mg,--,--,20,20
"Iron, Fe",mg,--,--,0.94,0.94
"Sodium, Na",mg,--,--,40,40
Vitamins
"Vitamin C, total ascorbic acid",mg,--,--,11.7,11.7
"Vitamin A, IU",IU,--,--,1300,1300
Lipids
"Fatty acids, total saturated",g,--,--,0.000,0.000
"Fatty acids, total trans",g,--,--,0.000,0.000
"Cholesterol",mg,--,--,0,0
Amino Acids
Other
Ingredients
"BABY ROMA TOMATOES (60%), TOMATO JUICE (40%)." Date available: 06/25/2017 Date last updated by company: 06/25/2017
