Source: USDA Branded Food Products Database Release December 2017 Software v.3.8.6.4 2017-10-02
Report Run at: December 17, 2017 23:07 EST
"Nutrient data for: 45147465, MY DAD'S COOKIES, GLUTEN FREE CHOCOLATE CHIPS COOKIES, UPC: 852291004102"
Food Group:  Branded Food Products Database
Common Name:

Nutrient,Unit,Data points,Std. Error,"3.0 COOKIES = 31.0g",1Value per 100 g,
Proximates
"Energy",kcal,--,--,150,484
"Protein",g,--,--,1.00,3.23
"Total lipid (fat)",g,--,--,7.00,22.58
"Carbohydrate, by difference",g,--,--,22.00,70.97
"Fiber, total dietary",g,--,--,1.0,3.2
"Sugars, total",g,--,--,13.00,41.94
Minerals
"Calcium, Ca",mg,--,--,0,0
"Iron, Fe",mg,--,--,1.16,3.75
"Sodium, Na",mg,--,--,60,194
Vitamins
"Vitamin C, total ascorbic acid",mg,--,--,0.0,0.0
"Vitamin A, IU",IU,--,--,0,0
Lipids
"Fatty acids, total saturated",g,--,--,3.500,11.290
"Fatty acids, total trans",g,--,--,0.000,0.000
"Cholesterol",mg,--,--,15,48
Amino Acids
Other
Ingredients
"GLUTEN FREE FLOUR (BROWN RICE FLOUR, POTATO STARCH, TAPIOCA FLOUR, XANTHAN GUM), PALM OIL, CHOCOLATE CHIPS (SUGAR, COCOA POWDER (PROCESSED WITH ALKALI), CHOCOLATE LIQUOR, SOY LECITHIN, VANILLA EXTRACT), SUGAR, BROWN SUGAR, EGG, VANILLA, BAKING SODA, AGAVE SYRUP, CREAM OF TARAR, BAKING POWDER (SODIUM ACID PYROPHOSPHATE, SODIUM BICARBONATE, CORNSTARCH, MONOCALCIUM PHOSPHATE), SALT." Date available: 07/14/2017 Date last updated by company: 07/14/2017
