Source: USDA Branded Food Products Database Release December 2017 Software v.3.8.6.4 2017-10-02
Report Run at: December 17, 2017 23:07 EST
"Nutrient data for: 45217907, MY DELI SANDWICH, UPC: 052547700097"
Food Group:  Branded Food Products Database
Common Name:

Nutrient,Unit,Data points,Std. Error,"1 SANDWICH = 174.0g",1Value per 100 g,
Proximates
"Energy",kcal,--,--,520,299
"Protein",g,--,--,17.99,10.34
"Total lipid (fat)",g,--,--,33.01,18.97
"Carbohydrate, by difference",g,--,--,34.99,20.11
"Fiber, total dietary",g,--,--,1.0,0.6
"Sugars, total",g,--,--,4.00,2.30
Minerals
"Calcium, Ca",mg,--,--,200,115
"Iron, Fe",mg,--,--,2.89,1.66
"Sodium, Na",mg,--,--,1470,845
Vitamins
"Vitamin C, total ascorbic acid",mg,--,--,3.8,2.2
"Vitamin A, IU",IU,--,--,402,231
Lipids
"Fatty acids, total saturated",g,--,--,17.000,9.770
"Fatty acids, total trans",g,--,--,0.000,0.000
"Cholesterol",mg,--,--,155,89
Amino Acids
Other
Ingredients
"BUTTERMILK BISCUIT ENRICHED FLOUR (BLEACHED WHEAT FLOUR, NIACIN, REDUCED IRON,THIAMINE MONONITRATE, RIBOFLAVIN, FOLIC ACID), BUTTERMILK, PALM AND PALM KERNAL OIL, ENRICHED FLOUR (WHEAT FLOUR, NIACIN, REDUCED IRON, THIAMINE MONONITRATE, RIBOFLAVIN, FOLIC ACID), WATER, LEAVENING (SODIUM ALUMINUM PHOSPHATE, SODIUM BICARBOANTE, MONOCALCIUM PHOSPHATE), CONTAINS 2% OR LESS OF: SALT, SUGAR, DEXTROSE, PARTIALLY HYDROGENATED SOYBEAN OIL, NATURAL FLAVOR, SOYBEAN OIL, JALAPENO EGG PATTY: WHOLE EGGS, MONTEREY JACK CHEESE (PASTEURIZED MILK, CHEESE CULTURE SALT, ENZYMES, POTATO STARCH AND POWDERED CELLULOSE [TO PREVENT CAKING], NATAMYCIN [A NATURAL MOLD INHIBITOR]), JALAPENO PEPPERS WHOLE MILK RED PEPPERS, CONTAINS 2% OR LESS OF FOLLOWING ONIONS, MODIFIED FOOD STARCH, SALT, PEPPER ON DEXTROSE, XANTHAN GUM, CITRIC ACID, PORK SAUSAGE PATTY: PORK, WHEY PROTEIN CONCENTRATE SALT, SPICES, CORN SYRUP SOLIDS, DEXTROSE, CARAMEL COLOR, SPICE EXTRACTIVES, BHA, PROPYL GALLATE, CITRIC ACID, PASTEURIZED PROCESS AMERICAN CHEESE AMERICAN CHEESES (CULTURED MILK, SALT, ENZYMES). CREAM, SODIUM PHOSPHATE, SALT, SORBIC ACID (PRESERVATIVE), ARTIFICIAL COLOR." Date available: 07/14/2017 Date last updated by company: 07/14/2017
