Source: USDA Branded Food Products Database Release December 2017 Software v.3.8.6.4 2017-10-02
Report Run at: December 17, 2017 23:12 EST
"Nutrient data for: 45118140, MY-T-FINE, TAPIOCA PUDDING, VANILLA, UPC: 072392330249"
Food Group:  Branded Food Products Database
Common Name:

Nutrient,Unit,Data points,Std. Error,"0.5 cup = 19.0g",1Value per 100 g,
Proximates
"Energy",kcal,--,--,70,368
"Protein",g,--,--,0.00,0.00
"Total lipid (fat)",g,--,--,0.00,0.00
"Carbohydrate, by difference",g,--,--,18.00,94.74
"Fiber, total dietary",g,--,--,0.0,0.0
"Sugars, total",g,--,--,12.00,63.16
Minerals
"Calcium, Ca",mg,--,--,0,0
"Iron, Fe",mg,--,--,0.00,0.00
"Sodium, Na",mg,--,--,160,842
Vitamins
"Vitamin C, total ascorbic acid",mg,--,--,0.0,0.0
"Vitamin A, IU",IU,--,--,0,0
Lipids
"Fatty acids, total saturated",g,--,--,0.000,0.000
"Fatty acids, total trans",g,--,--,0.000,0.000
"Cholesterol",mg,--,--,0,0
Amino Acids
Other
Ingredients
"SUGAR, TAPIOCA, CORNSTARCH, FOOD STARCH MODIFIED, SALT, CONTAINS LESS THAN 2% OF THE FOLLOWING: NATURAL AND ARTIFICIAL FLAVOR, PARTIALLY HYDROGENATED SOYBEAN AND COTTON SEED OIL, YELLOW 5, YELLOW 6, SOY LECITHIN." Date available: 06/25/2017 Date last updated by company: 06/25/2017
