Source: USDA Branded Food Products Database Release December 2017 Software v.3.8.6.4 2017-10-02
Report Run at: December 17, 2017 23:12 EST
"Nutrient data for: 45096934, MYRNA'S, SKINNY CRISPS, GOURMET CRACKERS, SAY CHEESE, UPC: 856615004106"
Food Group:  Branded Food Products Database
Common Name:

Nutrient,Unit,Data points,Std. Error,"14.0 GRM = 14.0g",1Value per 100 g,
Proximates
"Energy",kcal,--,--,70,500
"Protein",g,--,--,3.00,21.43
"Total lipid (fat)",g,--,--,3.50,25.00
"Carbohydrate, by difference",g,--,--,7.00,50.00
"Fiber, total dietary",g,--,--,2.0,14.3
"Sugars, total",g,--,--,2.00,14.29
Minerals
"Calcium, Ca",mg,--,--,20,143
"Iron, Fe",mg,--,--,2.57,18.37
"Sodium, Na",mg,--,--,170,1214
Vitamins
"Vitamin C, total ascorbic acid",mg,--,--,0.0,0.0
"Vitamin A, IU",IU,--,--,0,0
Lipids
"Fatty acids, total saturated",g,--,--,0.000,0.000
"Fatty acids, total trans",g,--,--,0.000,0.000
"Cholesterol",mg,--,--,0,0
Amino Acids
Other
Ingredients
"CHICKPEA FLOUR, ALMONDS,GOLDEN FLAX SEEDS, SORGHUM FLOUR, PSYLLIUM HUSKS,CHEESE BLEND (CONTAINS:CHEDDAR CHEESE, WHEY, BUTTERMILK, SLAT, DISODIUM PHOSPHATE), ORGANIC EVAPORATED CANE SUGAR, OLIVE OIL, SEA SLAT, PAPRIKA, LESS THAN 2% FILTERED WATER" Date available: 06/25/2017 Date last updated by company: 06/25/2017
