Source: USDA Branded Food Products Database Release December 2017 Software v.3.8.6.4 2017-10-02
Report Run at: December 17, 2017 23:13 EST
"Nutrient data for: 45176668, NAAN, UPC: 077890396056"
Food Group:  Branded Food Products Database
Common Name:

Nutrient,Unit,Data points,Std. Error,"0.5 NAAN = 63.0g",1Value per 100 g,
Proximates
"Energy",kcal,--,--,190,302
"Protein",g,--,--,6.00,9.52
"Total lipid (fat)",g,--,--,5.00,7.94
"Carbohydrate, by difference",g,--,--,29.00,46.03
"Fiber, total dietary",g,--,--,1.0,1.6
"Sugars, total",g,--,--,2.00,3.17
Minerals
"Calcium, Ca",mg,--,--,40,63
"Iron, Fe",mg,--,--,1.43,2.27
"Sodium, Na",mg,--,--,430,683
Vitamins
"Vitamin C, total ascorbic acid",mg,--,--,0.0,0.0
"Vitamin A, IU",IU,--,--,0,0
Lipids
"Fatty acids, total saturated",g,--,--,1.002,1.590
"Fatty acids, total trans",g,--,--,0.000,0.000
"Cholesterol",mg,--,--,5,8
Amino Acids
Other
Ingredients
"UNBLEACHED, UNBROMATED, ENRICHED WHEAT FLOUR (WHEAT FLOUR, ASCORBIC ACID AS DOUGH CONDITIONER, NIACIN, REDUCED IRON, THIAMIN MONONITRATE, RIBOFLAVIN, ENZYMES, FOLIC ACID), CULTURED BUTTERMILK (SKIM MILK, DRY BUTTERMILK), WATER, SOYBEAN OIL, ROASTED GARLIC, CULTURED WHEAT FLOUR, EGGS, SUGAR, BAKING POWDER (SODIUM ACID PYROPHOSPHATE, SODIUM BICARBONATE, CORN STARCH, MONOCALCIUM PHOSPHATE), SEA SALT, GHEE (CLARIFIED BUTTER), WHEAT GLUTEN, DEXTROSE, CILANTRO LEAVES, DEXTRIN, VEGETABLE FIBER, YEAST." Date available: 07/14/2017 Date last updated by company: 07/14/2017
