Source: USDA Branded Food Products Database Release December 2017 Software v.3.8.6.4 2017-10-02
Report Run at: December 17, 2017 23:14 EST
"Nutrient data for: 45098783, NACHO CHEESE DIP, UPC: 074690094380"
Food Group:  Branded Food Products Database
Common Name:

Nutrient,Unit,Data points,Std. Error,"2.0 Tbsp = 30.0g",1Value per 100 g,
Proximates
"Energy",kcal,--,--,80,267
"Protein",g,--,--,4.00,13.33
"Total lipid (fat)",g,--,--,6.00,20.00
"Carbohydrate, by difference",g,--,--,3.00,10.00
"Fiber, total dietary",g,--,--,0.0,0.0
"Sugars, total",g,--,--,2.00,6.67
Minerals
"Calcium, Ca",mg,--,--,80,267
"Iron, Fe",mg,--,--,0.00,0.00
"Sodium, Na",mg,--,--,330,1100
Vitamins
"Vitamin C, total ascorbic acid",mg,--,--,0.0,0.0
"Vitamin A, IU",IU,--,--,166,555
Lipids
"Fatty acids, total saturated",g,--,--,3.000,10.000
"Fatty acids, total trans",g,--,--,0.000,0.000
"Cholesterol",mg,--,--,10,33
Amino Acids
Other
Ingredients
"WATER, CHEDDAR CHEESE ([AGED OVER 120 DAYS], PASTEURIZED MILK, CHEESE CULTURE, SALT, ENZYME), DRY WHEY, PALM OIL, CORN OIL, SODIUM PHOSPHATE, SKIM MILK, MODIFIED FOOD STARCH, LACTIC ACID, JALAPENO PEPPERS, NATURAL FLAVORS, DEHYDRATED RED AND GREEN BELL PEPPERS, SALT, SORBIC ACID (TO PROTECT FLAVOR), DRIED ROMANO CHEESE (MILK, CHEESE CULTURES, SALT, ENZYMES), MONO AND DIGLYCERIDES, APO-CAROTENAL (COLOR), XANTHAN GUM, SPICES, CARRAGEENAN, SOY LECITHIN, VITAMIN E (AS ANTIOXIDANT)." Date available: 07/14/2017 Date last updated by company: 07/14/2017
