Source: USDA Branded Food Products Database Release December 2017 Software v.3.8.6.4 2017-10-02
Report Run at: December 17, 2017 23:17 EST
"Nutrient data for: 45032112, NAKED GRANOLA, TASTE OF MAINE GRANOLA, UPC: 183201000076"
Food Group:  Branded Food Products Database
Common Name:

Nutrient,Unit,Data points,Std. Error,"1.1 OZ = 30.0g",1Value per 100 g,
Proximates
"Energy",kcal,--,--,146,487
"Protein",g,--,--,2.90,9.67
"Total lipid (fat)",g,--,--,7.90,26.33
"Carbohydrate, by difference",g,--,--,15.00,50.00
"Fiber, total dietary",g,--,--,5.0,16.7
"Sugars, total",g,--,--,5.00,16.67
Minerals
"Calcium, Ca",mg,--,--,22,73
"Iron, Fe",mg,--,--,1.85,6.16
"Sodium, Na",mg,--,--,7,23
Vitamins
"Vitamin C, total ascorbic acid",mg,--,--,0.5,1.8
"Vitamin A, IU",IU,--,--,0,0
Lipids
"Fatty acids, total saturated",g,--,--,1.500,5.000
"Fatty acids, total monounsaturated",g,--,--,3.501,11.670
"Fatty acids, total polyunsaturated",g,--,--,2.499,8.330
"Fatty acids, total trans",g,--,--,0.000,0.000
"Cholesterol",mg,--,--,0,0
Amino Acids
Other
Ingredients
"NAKED MAINE BLEND (CRANBERRIES, ALMONDS, RAW SUNFLOWER SEEDS, RAW SESAME SEEDS, BLUEBERRIES, FLAX SEEDS, RAW PUMPKIN SEEDS, POMEGRANATE EXTRACT), ORGANIC THICK ROLLED OATS, HONEY, NON-GMO CANOLA OIL, MOLASSES, UNSWEETENED COCONUT, VANILLA, CINNAMON, PROBIOTIC 'BACILLUS COAGULANS GB-306086'" Date available: 06/24/2017 Date last updated by company: 06/24/2017
