Source: USDA Branded Food Products Database Release December 2017 Software v.3.8.6.4 2017-10-02
Report Run at: December 17, 2017 23:22 EST
"Nutrient data for: 45224485, NAPA VALLEY NATURALS, ORGANIC EXTRA VIRGIN OLIVE OIL, UPC: 000000035071"
Food Group:  Branded Food Products Database
Common Name:

Nutrient,Unit,Data points,Std. Error,"1 Tbsp = 14.0g",1Value per 100 g,
Proximates
"Energy",kcal,--,--,120,857
"Total lipid (fat)",g,--,--,14.00,100.00
Minerals
Vitamins
Lipids
"Fatty acids, total saturated",g,--,--,2.001,14.290
Amino Acids
Other
Ingredients
"100% COLD PRESSED UNREFINED OIL FROM THE FIRST PRESSING OF ORGANIC OLIVES." Date available: 08/24/2017 Date last updated by company: 08/24/2017
