Source: USDA Branded Food Products Database Release December 2017 Software v.3.8.6.4 2017-10-02
Report Run at: December 17, 2017 23:24 EST
"Nutrient data for: 45015522, NAPOLEON, WHOLE ARTICHOKE HEARTS, UPC: 041253004100"
Food Group:  Branded Food Products Database
Common Name:

Nutrient,Unit,Data points,Std. Error,"3.0 ONZ = 85.0g",1Value per 100 g,
Proximates
"Energy",kcal,--,--,38,45
"Protein",g,--,--,3.00,3.53
"Total lipid (fat)",g,--,--,0.00,0.00
"Carbohydrate, by difference",g,--,--,9.00,10.59
"Fiber, total dietary",g,--,--,2.6,3.1
"Sugars, total",g,--,--,1.00,1.18
Minerals
"Calcium, Ca",mg,--,--,60,71
"Iron, Fe",mg,--,--,1.10,1.30
"Sodium, Na",mg,--,--,187,220
Vitamins
"Vitamin C, total ascorbic acid",mg,--,--,14.7,17.3
"Vitamin A, IU",IU,--,--,306,360
Lipids
"Fatty acids, total saturated",g,--,--,0.000,0.000
"Fatty acids, total trans",g,--,--,0.000,0.000
"Cholesterol",mg,--,--,0,0
Amino Acids
Other
Ingredients
"WHOLE ARTICHOKE HEARTS, WATER, SALT AND CITRIC ACID." Date available: 07/14/2017 Date last updated by company: 07/14/2017
