Source: USDA Branded Food Products Database Release December 2017 Software v.3.8.6.4 2017-10-02
Report Run at: December 17, 2017 23:24 EST
"Nutrient data for: 45014873, NASH'S, RYE FLOUR, UPC: 015568109522"
Food Group:  Branded Food Products Database
Common Name:

Nutrient,Unit,Data points,Std. Error,"0.25 CUP = 27.0g",1Value per 100 g,
Proximates
"Energy",kcal,--,--,100,370
"Protein",g,--,--,3.00,11.11
"Total lipid (fat)",g,--,--,0.00,0.00
"Carbohydrate, by difference",g,--,--,21.00,77.78
"Fiber, total dietary",g,--,--,2.0,7.4
"Sugars, total",g,--,--,0.00,0.00
Minerals
"Calcium, Ca",mg,--,--,0,0
"Iron, Fe",mg,--,--,0.67,2.47
"Sodium, Na",mg,--,--,0,0
Vitamins
"Vitamin C, total ascorbic acid",mg,--,--,0.0,0.0
"Vitamin A, IU",IU,--,--,0,0
Lipids
"Fatty acids, total saturated",g,--,--,0.000,0.000
"Fatty acids, total trans",g,--,--,0.000,0.000
"Cholesterol",mg,--,--,0,0
Amino Acids
Other
Ingredients
"FRESHLY-GROUND WHOLE, ORGANIC RYE FLOUR." Date available: 06/25/2017 Date last updated by company: 06/25/2017
