Source: USDA Branded Food Products Database Release December 2017 Software v.3.8.6.4 2017-10-02
Report Run at: December 17, 2017 23:25 EST
"Nutrient data for: 45168541, NASSAU CANDY, MILK CHOCOLATE PEANUT BUTTER CRISPS, UPC: 618645255442"
Food Group:  Branded Food Products Database
Common Name:

Nutrient,Unit,Data points,Std. Error,"4.0 PIECES = 40.0g",1Value per 100 g,
Proximates
"Energy",kcal,--,--,190,475
"Protein",g,--,--,2.00,5.00
"Total lipid (fat)",g,--,--,7.00,17.50
"Carbohydrate, by difference",g,--,--,29.00,72.50
"Fiber, total dietary",g,--,--,0.0,0.0
"Sugars, total",g,--,--,23.00,57.50
Minerals
"Calcium, Ca",mg,--,--,0,0
"Iron, Fe",mg,--,--,0.00,0.00
"Sodium, Na",mg,--,--,50,125
Vitamins
"Vitamin C, total ascorbic acid",mg,--,--,0.0,0.0
"Vitamin A, IU",IU,--,--,0,0
Lipids
"Fatty acids, total saturated",g,--,--,2.500,6.250
"Fatty acids, total trans",g,--,--,0.000,0.000
"Cholesterol",mg,--,--,0,0
Amino Acids
Other
Ingredients
"MILK CHOCOLATE (SUGAR, COCOA BUTTER, CHOCOLATE LIQUOR, SKIM MILK POWDER, MILKFAT, WHOLE MILK POWDER, SOY LECITHIN [EMULSIFIER], VANILLA EXTRACT), PEANUT BUTTER CRISPS: SUGAR, GLUCOSE SYRUP, PEANUT BUTTER (FRESH GROUND DRY ROASTED PEANUTS, SALT, TOCOPHEROL TO MAINTAIN FRESHNESS), VANILLA EXTRACT." Date available: 07/14/2017 Date last updated by company: 07/14/2017
