Source: USDA Branded Food Products Database Release December 2017 Software v.3.8.6.4 2017-10-02
Report Run at: December 18, 2017 00:20 EST
"Nutrient data for: 45244426, NAT VLY SWT SLTY NUT GRAN BARS CHOC PRETZEL NUT, UNPREPARED, GTIN: 00016000509412"
Food Group:  Branded Food Products Database
Common Name:

Nutrient,Unit,Data points,Std. Error,"1 bar (35g) = 35.0g",1Value per 100 g,
Proximates
"Energy",kcal,--,--,150,429
"Protein",g,--,--,2.00,5.71
"Total lipid (fat)",g,--,--,5.00,14.29
"Carbohydrate, by difference",g,--,--,24.00,68.57
"Fiber, total dietary",g,--,--,1.0,2.9
"Sugars, total",g,--,--,8.00,22.86
Minerals
"Calcium, Ca",mg,--,--,0,0
"Iron, Fe",mg,--,--,0.36,1.03
"Sodium, Na",mg,--,--,160,457
Vitamins
"Vitamin C, total ascorbic acid",mg,--,--,0.0,0.0
"Vitamin A, IU",IU,--,--,0,0
Lipids
"Fatty acids, total saturated",g,--,--,1.998,5.710
"Fatty acids, total trans",g,--,--,0.000,0.000
"Cholesterol",mg,--,--,0,0
Amino Acids
Other
Ingredients
"WHOLE GRAIN OATS, CORN SYRUP, SUGAR, WHOLE GRAIN WHEAT FLOUR, ALMONDS, VEGETABLE OILS (PALM KERNEL, CANOLA AND/OR SOYBEAN), RICE FLOUR, FRUCTOSE, TAPIOCA SYRUP, VEGETABLE GLYCERIN, COCOA, SALT, SOY LECITHIN, CORN STARCH, BARLEY MALT EXTRACT, MILK, BAKING SODA, YEAST, NATURAL FLAVOR, MIXED TOCOPHEROLS ADDED TO RETAIN FRESHNESS." Date available: 10/10/2017 Date last updated by company: 10/06/2017
