Source: USDA Branded Food Products Database Release December 2017 Software v.3.8.6.4 2017-10-02
Report Run at: December 18, 2017 00:20 EST
"Nutrient data for: 45321374, NAT VLY PRTN GRAN PNT BTR, UNPREPARED, GTIN: 00016000488342"
Food Group:  Branded Food Products Database
Common Name:

Nutrient,Unit,Data points,Std. Error,"0.5 cup (55g) = 55.0g",1Value per 100 g,
Proximates
"Energy",kcal,--,--,240,436
"Protein",g,--,--,11.00,20.00
"Total lipid (fat)",g,--,--,8.00,14.55
"Carbohydrate, by difference",g,--,--,31.00,56.36
"Fiber, total dietary",g,--,--,4.0,7.3
"Sugars, total",g,--,--,13.00,23.64
Minerals
"Calcium, Ca",mg,--,--,40,73
"Iron, Fe",mg,--,--,1.80,3.27
"Potassium, K",mg,--,--,170,309
"Sodium, Na",mg,--,--,160,291
Vitamins
"Vitamin C, total ascorbic acid",mg,--,--,0.0,0.0
"Vitamin A, IU",IU,--,--,0,0
Lipids
"Fatty acids, total saturated",g,--,--,1.001,1.820
"Fatty acids, total monounsaturated",g,--,--,4.499,8.180
"Fatty acids, total polyunsaturated",g,--,--,2.002,3.640
"Fatty acids, total trans",g,--,--,0.000,0.000
"Cholesterol",mg,--,--,0,0
Amino Acids
Other
Ingredients
"WHOLE GRAIN OATS, SUGAR, SOY PROTEIN ISOLATE, PEANUT BUTTER (PEANUTS, SALT), CANOLA OIL, DEXTROSE, HONEY, MOLASSES, RICE STARCH, SOY LECITHIN, BAKING SODA, SALT, NATURAL FLAVOR. VITAMIN E (MIXED TOCOPHEROLS) ADDED TO PRESERVE FRESHNESS." Date available: 10/18/2017 Date last updated by company: 10/17/2017
