Source: USDA Branded Food Products Database Release December 2017 Software v.3.8.6.4 2017-10-02
Report Run at: December 18, 2017 00:20 EST
"Nutrient data for: 45321404, NAT VLY SWEET SALTY XL CHWY GRAN BARS PNT, UNPREPARED, GTIN: 00016000514898"
Food Group:  Branded Food Products Database
Common Name:

Nutrient,Unit,Data points,Std. Error,"1 bar (53g) = 53.0g",1Value per 100 g,
Proximates
"Energy",kcal,--,--,250,472
"Protein",g,--,--,6.00,11.32
"Total lipid (fat)",g,--,--,13.00,24.53
"Carbohydrate, by difference",g,--,--,30.00,56.60
"Fiber, total dietary",g,--,--,2.0,3.8
"Sugars, total",g,--,--,11.00,20.75
Minerals
"Calcium, Ca",mg,--,--,0,0
"Iron, Fe",mg,--,--,0.36,0.68
"Sodium, Na",mg,--,--,210,396
Vitamins
"Vitamin C, total ascorbic acid",mg,--,--,0.0,0.0
"Vitamin A, IU",IU,--,--,0,0
Lipids
"Fatty acids, total saturated",g,--,--,4.002,7.550
"Fatty acids, total trans",g,--,--,0.000,0.000
"Cholesterol",mg,--,--,0,0
Amino Acids
Other
Ingredients
"ROASTED PEANUTS, CORN SYRUP, SUGAR, WHOLE GRAIN OATS, PALM KERNEL OIL, RICE FLOUR, WHOLE GRAIN WHEAT, VEGETABLE GLYCERIN, WHEY, PEANUT BUTTER (PEANUTS, SALT), FRUCTOSE, CANOLA OIL, SALT, SOY LECITHIN, PEANUT FLOUR, CORN STARCH, BARLEY MALT EXTRACT, HONEY ROASTED ALMOND BUTTER (ALMONDS, HONEY, MALTODEXTRIN, PALM OIL, MIXED TOCOPHEROLS), BAKING SODA, NATURAL FLAVOR, VITAMIN E (MIXED TOCOPHEROLS) ADDED TO RETAIN FRESHNESS." Date available: 10/10/2017 Date last updated by company: 07/06/2017
