Source: USDA Branded Food Products Database Release December 2017 Software v.3.8.6.4 2017-10-02
Report Run at: December 18, 2017 00:19 EST
"Nutrient data for: 45244432, NAT VLY PRTN CHWY BARS PNT BTR DARK CHOC, UNPREPARED, GTIN: 00016000507661"
Food Group:  Branded Food Products Database
Common Name:

Nutrient,Unit,Data points,Std. Error,"1 bar (40g) = 40.0g",1Value per 100 g,
Proximates
"Energy",kcal,--,--,190,475
"Protein",g,--,--,10.00,25.00
"Total lipid (fat)",g,--,--,12.00,30.00
"Carbohydrate, by difference",g,--,--,14.00,35.00
"Fiber, total dietary",g,--,--,5.0,12.5
"Sugars, total",g,--,--,6.00,15.00
Minerals
"Calcium, Ca",mg,--,--,20,50
"Iron, Fe",mg,--,--,1.08,2.70
"Sodium, Na",mg,--,--,180,450
Vitamins
"Vitamin C, total ascorbic acid",mg,--,--,0.0,0.0
"Vitamin A, IU",IU,--,--,0,0
Lipids
"Fatty acids, total saturated",g,--,--,3.500,8.750
"Fatty acids, total monounsaturated",g,--,--,7.000,17.500
"Fatty acids, total polyunsaturated",g,--,--,1.000,2.500
"Fatty acids, total trans",g,--,--,0.000,0.000
"Cholesterol",mg,--,--,0,0
Amino Acids
Other
Ingredients
"ROASTED PEANUTS, SOY PROTEIN ISOLATE, CHICORY ROOT EXTRACT, SEMISWEET CHOCOLATE CHIPS (SUGAR, CHOCOLATE LIQUOR, COCOA BUTTER, SOY LECITHIN, NATURAL FLAVOR), VEGETABLE OILS (PALM KERNEL, PALM, CANOLA, PEANUT), SUGAR, CORN SYRUP, WHEY PROTEIN CONCENTRATE, FRUCTOSE, PEANUT BUTTER (PEANUTS, SALT), COCOA, VEGETABLE GLYCERIN, RICE STARCH, SOY LECITHIN, SALT, CORN STARCH, NATURAL FLAVOR." Date available: 10/18/2017 Date last updated by company: 10/09/2017
