Source: USDA Branded Food Products Database Release December 2017 Software v.3.8.6.4 2017-10-02
Report Run at: December 17, 2017 23:26 EST
"Nutrient data for: 45169221, NATIERRA, ORGANIC CACAO POWDER WITH MACA, UPC: 812907014758"
Food Group:  Branded Food Products Database
Common Name:

Nutrient,Unit,Data points,Std. Error,"1 ONZ = 28.0g",1Value per 100 g,
Proximates
"Energy",kcal,--,--,80,286
"Protein",g,--,--,5.00,17.86
"Total lipid (fat)",g,--,--,2.00,7.14
"Carbohydrate, by difference",g,--,--,15.00,53.57
"Fiber, total dietary",g,--,--,2.0,7.1
"Sugars, total",g,--,--,0.00,0.00
Minerals
"Calcium, Ca",mg,--,--,0,0
"Iron, Fe",mg,--,--,0.00,0.00
"Sodium, Na",mg,--,--,0,0
Vitamins
"Vitamin C, total ascorbic acid",mg,--,--,0.0,0.0
"Vitamin A, IU",IU,--,--,0,0
Lipids
"Fatty acids, total saturated",g,--,--,0.000,0.000
"Fatty acids, total trans",g,--,--,0.000,0.000
"Cholesterol",mg,--,--,0,0
Amino Acids
Other
Ingredients
"ORGANIC CACAO POWDER, ORGANIC MACA POWDER." Date available: 07/14/2017 Date last updated by company: 07/14/2017
