Source: USDA Branded Food Products Database Release December 2017 Software v.3.8.6.4 2017-10-02
Report Run at: December 17, 2017 23:31 EST
"Nutrient data for: 45332690, NATURAL CALM, MAGNESIUM-CALCIUM POWDER, UPC: 871469000418"
Food Group:  Branded Food Products Database
Common Name:

Nutrient,Unit,Data points,Std. Error,"2.0 tsp = 6.45g",1Value per 100 g,
Proximates
Minerals
"Calcium, Ca",mg,--,--,200,3101
"Magnesium, Mg",mg,--,--,300,4651
"Potassium, K",mg,--,--,99,1535
Vitamins
"Vitamin C, total ascorbic acid",mg,--,--,250.0,3876.0
Lipids
Amino Acids
Other
Ingredients
"MEDICINAL INGREDIENTS: MAGNESIUM (AS MAGNESIUM CARBONATE), CALCIUM (AS CALCIUM GLUCONATE), POTASSIUM (AS POTASSIUM CITRATE), VITAMIN C (ASCORBIC ACID, DERIVED FROM CORN), VITAMIN D3 (CHOLECALCIFEROL), AND BORON (AS BORON CITRATE)." Date available: 07/14/2017 Date last updated by company: 07/14/2017
