Source: USDA Branded Food Products Database Release December 2017 Software v.3.8.6.4 2017-10-02
Report Run at: December 18, 2017 00:07 EST
"Nutrient data for: 45041673, NATURE'S HARVEST, MULTIGRAIN LARGE HAMBURGER BUNS, UPC: 078700801784"
Food Group:  Branded Food Products Database
Common Name:

Nutrient,Unit,Data points,Std. Error,"1 BUN = 74.0g",1Value per 100 g,
Proximates
"Energy",kcal,--,--,190,257
"Protein",g,--,--,8.00,10.81
"Total lipid (fat)",g,--,--,2.00,2.70
"Carbohydrate, by difference",g,--,--,34.00,45.95
"Fiber, total dietary",g,--,--,5.0,6.8
"Sugars, total",g,--,--,5.00,6.76
Minerals
"Calcium, Ca",mg,--,--,80,108
"Iron, Fe",mg,--,--,1.21,1.64
"Sodium, Na",mg,--,--,310,419
Vitamins
"Vitamin C, total ascorbic acid",mg,--,--,0.0,0.0
"Thiamin",mg,--,--,0.000,0.000
"Riboflavin",mg,--,--,0.136,0.184
"Niacin",mg,--,--,1.352,1.827
"Vitamin A, IU",IU,--,--,0,0
Lipids
"Fatty acids, total saturated",g,--,--,0.000,0.000
"Fatty acids, total monounsaturated",g,--,--,0.000,0.000
"Fatty acids, total polyunsaturated",g,--,--,0.999,1.350
"Fatty acids, total trans",g,--,--,0.000,0.000
"Cholesterol",mg,--,--,0,0
Amino Acids
Other
Ingredients
"WHOLE WHEAT FLOUR, WATER, ENRICHED WHEAT FLOUR [FLOUR, MALTED BARLEY FLOUR, REDUCED IRON, NIACIN, THIAMIN MONONITRATE (VITAMIN B1), RIBOFLAVIN (VITAMIN B2), FOLIC ACID], SUGAR, WHEAT BRAN, WHEAT GLUTEN, YEAST, WHEAT, SOYBEAN OIL, SALT, OAT BEAN, RYE, MOLASSES, BARLEY, CALCIUM PROPIONATE (PRESERVATIVE), GRAIN VINEGAR, SOY LECITHIN, DATEM, MONOGLYCERIDES, CALCIUM SULFATE, MONOCALCIUM PHOSPHATE, CORNSTARCH, CITRIC ACID, POTASSIUM IODATE." Date available: 07/14/2017 Date last updated by company: 07/14/2017
