Source: USDA Branded Food Products Database Release December 2017 Software v.3.8.6.4 2017-10-02
Report Run at: December 17, 2017 23:38 EST
"Nutrient data for: 45237904, NATURAL ENERGY DRINK, UPC: 897658001080"
Food Group:  Branded Food Products Database
Common Name:

Nutrient,Unit,Data points,Std. Error,"12.0 OZA = 355.0g",1Value per 100 g,
Proximates
"Energy",kcal,--,--,11,3
"Protein",g,--,--,0.00,0.00
"Total lipid (fat)",g,--,--,0.00,0.00
"Carbohydrate, by difference",g,--,--,3.02,0.85
"Sugars, total",g,--,--,3.02,0.85
Minerals
"Sodium, Na",mg,--,--,135,38
Vitamins
Lipids
Amino Acids
Other
Ingredients
"SPARKLING WATER, ORGANIC CANE SYRUP, ORGANIC GREEN TEA LEAF EXTRACT, CITRIC ACID, NATURAL FLAVORS, SALT, ORGANIC STEVIA LEAF EXTRACT, LUO HAN GUO FRUIT EXTRACT, ORGANIC GUARANA SEED EXTRACT, ORGANIC ECHINACEA FLOWER EXTRACT, ORGANIC PANAX GINSENG ROOT EXTRACT." Date available: 07/14/2017 Date last updated by company: 07/14/2017
