Source: USDA Branded Food Products Database Release December 2017 Software v.3.8.6.4 2017-10-02
Report Run at: December 17, 2017 23:50 EST
"Nutrient data for: 45067946, NATURAL OATMEAL, UPC: 858117003229"
Food Group:  Branded Food Products Database
Common Name:

Nutrient,Unit,Data points,Std. Error,"1 CONTAINER = 65.0g",1Value per 100 g,
Proximates
"Energy",kcal,--,--,250,385
"Protein",g,--,--,5.00,7.69
"Total lipid (fat)",g,--,--,3.00,4.62
"Carbohydrate, by difference",g,--,--,47.00,72.31
"Fiber, total dietary",g,--,--,7.0,10.8
"Sugars, total",g,--,--,15.00,23.08
Minerals
"Calcium, Ca",mg,--,--,30,46
"Iron, Fe",mg,--,--,1.68,2.58
"Sodium, Na",mg,--,--,140,215
Vitamins
"Vitamin C, total ascorbic acid",mg,--,--,12.7,19.5
"Vitamin A, IU",IU,--,--,0,0
Lipids
"Fatty acids, total saturated",g,--,--,0.000,0.000
"Fatty acids, total trans",g,--,--,0.000,0.000
"Cholesterol",mg,--,--,0,0
Amino Acids
Other
Ingredients
"CERTIFIED GLUTEN-FREE ROLLED OATS, STRAWBERRIES, EVAPORATED CANE JUICE, SEA SALT." Date available: 07/14/2017 Date last updated by company: 07/14/2017
