Source: USDA Branded Food Products Database Release December 2017 Software v.3.8.6.4 2017-10-02
Report Run at: December 17, 2017 23:46 EST
"Nutrient data for: 45291074, NATURALLY FLAVORED WATER, UPC: 851842005216"
Food Group:  Branded Food Products Database
Common Name:

Nutrient,Unit,Data points,Std. Error,"8.0 OZA = 8.0g",1Value per 100 g,
Proximates
"Energy",kcal,--,--,0,0
"Protein",g,--,--,0.00,0.00
"Total lipid (fat)",g,--,--,0.00,0.00
"Carbohydrate, by difference",g,--,--,0.00,0.00
"Sugars, total",g,--,--,0.00,0.00
Minerals
"Sodium, Na",mg,--,--,2,23
Vitamins
Lipids
"Fatty acids, total saturated",g,--,--,0.000,0.000
"Fatty acids, total trans",g,--,--,0.000,0.000
Amino Acids
Other
Ingredients
"WATER, NATURAL FLAVORS, CITRIC ACID, SODIUM HEXAMETAPHOSPHATE, POTASSIUM SORBATE (PRESERVATIVE), STEVIA EXTRACT." Date available: 07/14/2017 Date last updated by company: 07/14/2017
