Source: USDA Branded Food Products Database Release December 2017 Software v.3.8.6.4 2017-10-02
Report Run at: December 17, 2017 23:30 EST
"Nutrient data for: 45216648, NATURAL BREW, OUTRAGEOUS GINGER ALE, GINGER, UPC: 074682113402"
Food Group:  Branded Food Products Database
Common Name:

Nutrient,Unit,Data points,Std. Error,"1 Bottle = 355.0g",1Value per 100 g,
Proximates
"Energy",kcal,--,--,181,51
"Protein",g,--,--,0.00,0.00
"Total lipid (fat)",g,--,--,0.00,0.00
"Carbohydrate, by difference",g,--,--,43.98,12.39
"Sugars, total",g,--,--,42.99,12.11
Minerals
"Sodium, Na",mg,--,--,11,3
Vitamins
Lipids
Amino Acids
Other
Ingredients
"SPARKLING FILTERED WATER, BREWED GINGER ROOT TEA (WATER, GINGER ROOT), SUGAR, CITRIC ACID, NATURAL FLAVORS." Date available: 06/25/2017 Date last updated by company: 06/25/2017
