Source: USDA Branded Food Products Database Release December 2017 Software v.3.8.6.4 2017-10-02
Report Run at: December 18, 2017 00:17 EST
"Nutrient data for: 45170206, NATURE'S RANCHER, UNCURED PORK & BEEF HOT DOGS, UPC: 891534005056"
Food Group:  Branded Food Products Database
Common Name:

Nutrient,Unit,Data points,Std. Error,"1 HOT DOG = 42.0g",1Value per 100 g,
Proximates
"Energy",kcal,--,--,110,262
"Protein",g,--,--,5.00,11.90
"Total lipid (fat)",g,--,--,10.00,23.81
"Carbohydrate, by difference",g,--,--,1.00,2.38
"Fiber, total dietary",g,--,--,0.0,0.0
"Sugars, total",g,--,--,0.00,0.00
Minerals
"Calcium, Ca",mg,--,--,100,238
"Iron, Fe",mg,--,--,1.89,4.49
"Sodium, Na",mg,--,--,250,595
Vitamins
"Vitamin C, total ascorbic acid",mg,--,--,1.6,3.7
"Vitamin A, IU",IU,--,--,131,312
Lipids
"Fatty acids, total saturated",g,--,--,3.499,8.330
"Fatty acids, total trans",g,--,--,0.000,0.000
"Cholesterol",mg,--,--,30,71
Amino Acids
Other
Ingredients
"MEAT INGREDIENTS (PORK AND BEEF RAISED WITHOUT ANTIBIOTICS), WATER. CONTAINS 2% OR LESS OF SEA SALT, EVAPORATED CANE SYRUP, SPICES (INCLUDING MUSTARD, PEPPER, NUTMEG, ALLSPICE, GINGER), HONEY, CELERY JUICE POWDER, LACTIC ACID STARTER CULTURE (NOT FROM MILK), VINEGAR, ONION AND GARLIC POWDER, PAPRIKA." Date available: 07/14/2017 Date last updated by company: 07/14/2017
