Source: USDA Branded Food Products Database Release December 2017 Software v.3.8.6.4 2017-10-02
Report Run at: December 17, 2017 23:41 EST
"Nutrient data for: 45218602, NATURAL GUACAMOLE TRAIL MIX, UPC: 030684700880"
Food Group:  Branded Food Products Database
Common Name:

Nutrient,Unit,Data points,Std. Error,"0.25 cup = 30.0g",1Value per 100 g,
Proximates
"Energy",kcal,--,--,150,500
"Protein",g,--,--,2.50,8.33
"Total lipid (fat)",g,--,--,6.00,20.00
"Carbohydrate, by difference",g,--,--,19.00,63.33
"Fiber, total dietary",g,--,--,1.5,5.0
"Sugars, total",g,--,--,3.00,10.00
Minerals
"Calcium, Ca",mg,--,--,0,0
"Iron, Fe",mg,--,--,0.00,0.00
"Sodium, Na",mg,--,--,314,1047
Vitamins
"Vitamin C, total ascorbic acid",mg,--,--,0.0,0.0
"Vitamin A, IU",IU,--,--,0,0
Lipids
"Fatty acids, total saturated",g,--,--,0.999,3.330
"Fatty acids, total trans",g,--,--,0.000,0.000
"Cholesterol",mg,--,--,0,0
Amino Acids
Other
Ingredients
"WHITE CORN MASA FLOUR, WHEAT FLOUR, PEANUTS, SOYBEAN OIL, GUACAMOLE SEASONING (DEHYDRATED SPINACH, SALT, ONION AND GARLIC POWDER, NATURAL AVOCADO FLAVOR, DEHYDRATED PARSLEY, CITRIC ACID, NATURAL LIME FLAVOR, SPINACH POWDER, RED CABBAGE AND TURMERIC OLEORESINS (COLOR)." Date available: 07/14/2017 Date last updated by company: 07/14/2017
