Source: USDA Branded Food Products Database Release December 2017 Software v.3.8.6.4 2017-10-02
Report Run at: December 17, 2017 23:48 EST
"Nutrient data for: 45177205, NATURALLY SMOKED APPLEWOOD BACON, UPC: 079621002571"
Food Group:  Branded Food Products Database
Common Name:

Nutrient,Unit,Data points,Std. Error,"1 PAN FRIED SLICE = 15.0g",1Value per 100 g,
Proximates
"Energy",kcal,--,--,90,600
"Protein",g,--,--,5.00,33.33
"Total lipid (fat)",g,--,--,7.00,46.67
"Carbohydrate, by difference",g,--,--,0.00,0.00
Minerals
"Sodium, Na",mg,--,--,270,1800
Vitamins
Lipids
"Fatty acids, total saturated",g,--,--,2.501,16.670
"Fatty acids, total trans",g,--,--,0.000,0.000
"Cholesterol",mg,--,--,15,100
Amino Acids
Other
Ingredients
"WATER, SALT, SUGAR, SODIUM PHOSPHATE, SODIUM ERYTHORBATE, SODIUM NITRITE." Date available: 07/14/2017 Date last updated by company: 07/14/2017
