Source: USDA Branded Food Products Database Release December 2017 Software v.3.8.6.4 2017-10-02
Report Run at: December 18, 2017 00:05 EST
"Nutrient data for: 45158518, NATURE'S EATS, TEXAS KICKIN' WASABI TRAIL MIX, UPC: 832112003620"
Food Group:  Branded Food Products Database
Common Name:

Nutrient,Unit,Data points,Std. Error,"1 ONZ = 28.0g",1Value per 100 g,
Proximates
"Energy",kcal,--,--,130,464
"Protein",g,--,--,4.00,14.29
"Total lipid (fat)",g,--,--,6.00,21.43
"Carbohydrate, by difference",g,--,--,15.00,53.57
"Fiber, total dietary",g,--,--,2.0,7.1
"Sugars, total",g,--,--,9.00,32.14
Minerals
"Calcium, Ca",mg,--,--,20,71
"Iron, Fe",mg,--,--,3.21,11.48
"Sodium, Na",mg,--,--,105,375
Vitamins
"Vitamin C, total ascorbic acid",mg,--,--,0.0,0.0
"Vitamin A, IU",IU,--,--,0,0
Lipids
"Fatty acids, total saturated",g,--,--,1.000,3.570
"Fatty acids, total trans",g,--,--,0.000,0.000
"Cholesterol",mg,--,--,0,0
Amino Acids
Other
Ingredients
"ROASTED SALTED ALMONDS (ALMONDS, COTTONSEED, PEANUT AND/OR CANOLA OIL, SEA SALT), CRANBERRIES (CRANBERRIES, SUGAR, SUNFLOWER OIL), WASABI GREEN PEAS (PEAS, CORN STARCH, WASABI FLAVOR, LIQUID SUGAR, PALM OIL, SEA SALT, FD&C YELLOW 5 & BLUE #1), GOLDEN RAISINS (DRIED SEEDLESS GRAPES, SULPHUR DIOXIDE, VEGETABLE AND/OR SUNFLOWER OIL TREATED), ROASTED SALTED PEANUTS (PEANUTS, COTTONSEED, PEANUT AND/OR CANOLA OIL, SEA SALT)." Date available: 07/14/2017 Date last updated by company: 07/14/2017
