Source: USDA Branded Food Products Database Release December 2017 Software v.3.8.6.4 2017-10-02
Report Run at: December 17, 2017 23:40 EST
"Nutrient data for: 45192887, NATURAL GOURMET JALAPENO PICKLES, UPC: 851769005184"
Food Group:  Branded Food Products Database
Common Name:

Nutrient,Unit,Data points,Std. Error,"2.0 SLICES | ABOUT = 28.0g",1Value per 100 g,
Proximates
"Energy",kcal,--,--,55,196
"Protein",g,--,--,0.00,0.00
"Total lipid (fat)",g,--,--,0.00,0.00
"Carbohydrate, by difference",g,--,--,13.00,46.43
"Fiber, total dietary",g,--,--,0.0,0.0
"Sugars, total",g,--,--,13.00,46.43
Minerals
"Calcium, Ca",mg,--,--,0,0
"Iron, Fe",mg,--,--,0.00,0.00
"Sodium, Na",mg,--,--,200,714
Vitamins
"Vitamin C, total ascorbic acid",mg,--,--,18.0,64.3
"Vitamin A, IU",IU,--,--,0,0
Lipids
"Cholesterol",mg,--,--,0,0
Amino Acids
Other
Ingredients
"SOUR PICKLE (CUCUMBER, SALT, VINEGAR, TURMERIC, ALUM, DILL, NATURAL SPICE FLAVORING, GARLIC), SUGAR, WHITE VINEGAR, NATURAL JALAPENO EXTRACT FLAVORING, NATURAL CHILI PEPPER EXTRACT." Date available: 11/25/2016 Date last updated by company: 11/25/2016
