Source: USDA Branded Food Products Database Release December 2017 Software v.3.8.6.4 2017-10-02
Report Run at: December 17, 2017 23:57 EST
"Nutrient data for: 45243358, NATURAL SPRING WATER, UPC: 046121262101"
Food Group:  Branded Food Products Database
Common Name:

Nutrient,Unit,Data points,Std. Error,"8.0 fl oz = 240.0g",1Value per 100 g,
Proximates
"Energy",kcal,--,--,0,0
"Protein",g,--,--,0.00,0.00
"Total lipid (fat)",g,--,--,0.00,0.00
"Carbohydrate, by difference",g,--,--,0.00,0.00
Minerals
"Calcium, Ca",mg,--,--,19,8
"Sodium, Na",mg,--,--,0,0
Vitamins
Lipids
Amino Acids
Other
Ingredients
"SPRING WATER" Date available: 02/27/2017 Date last updated by company: 02/27/2017
