Source: USDA Branded Food Products Database Release December 2017 Software v.3.8.6.4 2017-10-02
Report Run at: December 17, 2017 23:49 EST
"Nutrient data for: 45205822, NATURAL NECTAR, HAZELNUT COCOA SPREAD, UPC: 817252011285"
Food Group:  Branded Food Products Database
Common Name:

Nutrient,Unit,Data points,Std. Error,"2.0 Tbsp = 37.0g",1Value per 100 g,
Proximates
"Energy",kcal,--,--,210,568
"Protein",g,--,--,2.00,5.41
"Total lipid (fat)",g,--,--,14.00,37.84
"Carbohydrate, by difference",g,--,--,21.00,56.76
"Fiber, total dietary",g,--,--,1.5,4.1
"Sugars, total",g,--,--,19.00,51.35
Minerals
"Calcium, Ca",mg,--,--,40,108
"Iron, Fe",mg,--,--,4.57,12.34
"Sodium, Na",mg,--,--,10,27
Vitamins
"Vitamin C, total ascorbic acid",mg,--,--,0.0,0.0
"Vitamin A, IU",IU,--,--,0,0
Lipids
"Fatty acids, total saturated",g,--,--,3.500,9.460
"Fatty acids, total trans",g,--,--,0.000,0.000
"Cholesterol",mg,--,--,0,0
Amino Acids
Other
Ingredients
"ORGANIC CANE SUGAR, ORGANIC VEGETABLE OIL (PALM, SUNFLOWER), ORGANIC HAZEL NUTS, ORGANIC COCOA POWDER, ORGANIC SKIMMED MILK POWDER, EMULSIFIER (SUNFLOWER LECITHIN), ORGANIC VANILLA EXTRACT" Date available: 07/14/2017 Date last updated by company: 07/14/2017
