Source: USDA Branded Food Products Database Release December 2017 Software v.3.8.6.4 2017-10-02
Report Run at: December 18, 2017 00:01 EST
"Nutrient data for: 45022742, NATURA'S, INSTANT HIBISCUS DRINK, JAMAICA HIBISCUS, UPC: 043757000060"
Food Group:  Branded Food Products Database
Common Name:

Nutrient,Unit,Data points,Std. Error,"8.0 OZA = 40.0g",1Value per 100 g,
Proximates
"Energy",kcal,--,--,150,375
"Protein",g,--,--,0.00,0.00
"Total lipid (fat)",g,--,--,0.00,0.00
"Carbohydrate, by difference",g,--,--,36.00,90.00
"Sugars, total",g,--,--,30.00,75.00
Minerals
"Sodium, Na",mg,--,--,35,88
Vitamins
Lipids
Amino Acids
Other
Ingredients
"SUGAR, NATURAL HIBISCUS EXTRACT, CITRIC ACID, SODIUM CITRATE, GUAR GUM, SILICON DIOXIDE, LESS THAN 0.1% SODIUM BENZOATE (AS A PRESERVATIVE), ARTIFICIAL COLORING INCLUDING RED #40 AND BLUE #2." Date available: 06/25/2017 Date last updated by company: 06/25/2017
