Source: USDA Branded Food Products Database Release December 2017 Software v.3.8.6.4 2017-10-02
Report Run at: December 17, 2017 23:52 EST
"Nutrient data for: 45280485, NATURAL* PORK CARNITAS, UPC: 085239301609"
Food Group:  Branded Food Products Database
Common Name:

Nutrient,Unit,Data points,Std. Error,"3.0 ONZ = 84.0g",1Value per 100 g,
Proximates
"Energy",kcal,--,--,120,143
"Protein",g,--,--,10.00,11.90
"Total lipid (fat)",g,--,--,7.00,8.33
"Carbohydrate, by difference",g,--,--,2.00,2.38
"Fiber, total dietary",g,--,--,0.0,0.0
"Sugars, total",g,--,--,1.00,1.19
Minerals
"Calcium, Ca",mg,--,--,0,0
"Iron, Fe",mg,--,--,0.73,0.87
"Sodium, Na",mg,--,--,210,250
Vitamins
"Vitamin C, total ascorbic acid",mg,--,--,0.0,0.0
"Vitamin A, IU",IU,--,--,0,0
Lipids
"Fatty acids, total saturated",g,--,--,2.503,2.980
"Fatty acids, total trans",g,--,--,0.000,0.000
"Cholesterol",mg,--,--,35,42
Amino Acids
Other
Ingredients
"PORK, CARNITA SEASONING (WATER, ONIONS, STEAK SEASONING [SALT, GARLIC, SPICES, SUGAR, ONION], GARLIC, SPICES)." Date available: 07/14/2017 Date last updated by company: 07/14/2017
