Source: USDA Branded Food Products Database Release December 2017 Software v.3.8.6.4 2017-10-02
Report Run at: December 17, 2017 23:28 EST
"Nutrient data for: 45332435, NATURADE, WHEY PROTEIN SHAKE, VANILLA, UPC: 079911027031"
Food Group:  Branded Food Products Database
Common Name:

Nutrient,Unit,Data points,Std. Error,"2.0 SCOOPS = 32.0g",1Value per 100 g,
Proximates
"Energy",kcal,--,--,131,409
"Protein",g,--,--,20.00,62.50
"Total lipid (fat)",g,--,--,4.00,12.50
"Carbohydrate, by difference",g,--,--,6.00,18.75
"Fiber, total dietary",g,--,--,1.0,3.1
"Sugars, total",g,--,--,4.00,12.50
Minerals
"Calcium, Ca",mg,--,--,150,469
"Iron, Fe",mg,--,--,0.45,1.41
"Potassium, K",mg,--,--,120,375
"Sodium, Na",mg,--,--,121,378
Vitamins
"Vitamin C, total ascorbic acid",mg,--,--,0.0,0.0
"Vitamin A, IU",IU,--,--,125,391
Lipids
"Fatty acids, total saturated",g,--,--,0.998,3.120
"Fatty acids, total trans",g,--,--,0.000,0.000
"Cholesterol",mg,--,--,57,178
Amino Acids
Other
Ingredients
"PROTEIN BLEND (WHEY PROTEIN CONCENTRATE, WHEY PROTEIN ISOLATE AND WHEY PROTEIN HYDROLYSATE), SUNFLOWER OIL HIGH OLEIC, L-GLUTAMINE, L-LEUCINE, L-ISOLEUCINE, L-VALINE, ENZYME BLEND (PEPZYME AG: AMINOPEPTIDASE, BACTERIAL PROTEASE AND PLANT PROTEASE), CANE SUGAR, ACACIA GUM, NATURAL FLAVORS, XANTHAN GUM, SEA SALT, STEVIA LEAF EXTRACT." Date available: 07/14/2017 Date last updated by company: 07/14/2017
