Source: USDA Branded Food Products Database Release December 2017 Software v.3.8.6.4 2017-10-02
Report Run at: December 17, 2017 23:50 EST
"Nutrient data for: 45289305, NATURAL PEACH FLAVORED DRINK, UPC: 849819000562"
Food Group:  Branded Food Products Database
Common Name:

Nutrient,Unit,Data points,Std. Error,"8.0 OZA = 240.0g",1Value per 100 g,
Proximates
"Energy",kcal,--,--,5,2
"Protein",g,--,--,0.00,0.00
"Total lipid (fat)",g,--,--,0.00,0.00
"Carbohydrate, by difference",g,--,--,0.00,0.00
"Sugars, total",g,--,--,0.00,0.00
Minerals
"Sodium, Na",mg,--,--,36,15
Vitamins
"Vitamin C, total ascorbic acid",mg,--,--,1.2,0.5
Lipids
Amino Acids
Other
Ingredients
"FILTERED WATER, CITRIC ACID, NATURAL FLAVORS, SODIUM HEXAMETAPHOSPHATE (TO PROTECT FLAVOR), APPLE JUICE CONCENTRATE, PEACH JUICE CONCENTRATE, SUCRALOSE, ACESULFAME POTASSIUM, POTASSIUM BENZOATE (TO PRESERVE FRESHNESS), SODIUM CITRATE, ASCORBIC ACID (VITAMIN C), RED 40, POTASSIUM SORBATE (TO PRESERVE FRESHNESS), AND YELLOW 5." Date available: 07/14/2017 Date last updated by company: 07/14/2017
