Source: USDA Branded Food Products Database Release December 2017 Software v.3.8.6.4 2017-10-02
Report Run at: December 17, 2017 23:56 EST
"Nutrient data for: 45166762, NATURAL SPORTS JUICE, UPC: 851731002418"
Food Group:  Branded Food Products Database
Common Name:

Nutrient,Unit,Data points,Std. Error,"12.0 OZA = 355.0g",1Value per 100 g,
Proximates
"Energy",kcal,--,--,121,34
"Total lipid (fat)",g,--,--,0.00,0.00
"Carbohydrate, by difference",g,--,--,31.99,9.01
"Sugars, total",g,--,--,31.99,9.01
Minerals
"Potassium, K",mg,--,--,39,11
"Sodium, Na",mg,--,--,135,38
Vitamins
Lipids
Amino Acids
Other
Ingredients
"FILTERED CARBONATED WATER, HONEY, APPLE JUICE CONCENTRATE, NATURAL FLAVOR, CITRIC ACID, SEA SALT, POTASSIUM CHLORIDE." Date available: 10/13/2017 Date last updated by company: 10/13/2017
