Source: USDA Branded Food Products Database Release December 2017 Software v.3.8.6.4 2017-10-02
Report Run at: December 17, 2017 23:52 EST
"Nutrient data for: 45222032, NATURAL PROBIOTIC SMOOTHIE, UPC: 850473002083"
Food Group:  Branded Food Products Database
Common Name:

Nutrient,Unit,Data points,Std. Error,"8.0 OZA = 240.0g",1Value per 100 g,
Proximates
"Energy",kcal,--,--,149,62
"Protein",g,--,--,7.01,2.92
"Total lipid (fat)",g,--,--,2.50,1.04
"Carbohydrate, by difference",g,--,--,24.00,10.00
"Fiber, total dietary",g,--,--,0.0,0.0
"Sugars, total",g,--,--,7.01,2.92
Minerals
"Calcium, Ca",mg,--,--,199,83
"Iron, Fe",mg,--,--,0.00,0.00
"Sodium, Na",mg,--,--,84,35
Vitamins
"Vitamin C, total ascorbic acid",mg,--,--,0.0,0.0
"Vitamin A, IU",IU,--,--,250,104
Lipids
"Fatty acids, total saturated",g,--,--,1.488,0.620
"Fatty acids, total trans",g,--,--,0.000,0.000
"Cholesterol",mg,--,--,10,4
Amino Acids
Other
Ingredients
"FILTERED WATER, CREAM, MALTODEXTRIN, NONFAT DRIED MILK, GELATIN (AS STABILIZER), LACTIC CULTURES." Date available: 10/13/2017 Date last updated by company: 10/13/2017
