Source: USDA Branded Food Products Database Release December 2017 Software v.3.8.6.4 2017-10-02
Report Run at: December 18, 2017 00:16 EST
"Nutrient data for: 45165670, NATURE'S PROMISE, WHITE CHEDDAR PUFFS, UPC: 688267037061"
Food Group:  Branded Food Products Database
Common Name:

Nutrient,Unit,Data points,Std. Error,"1 ONZ = 28.0g",1Value per 100 g,
Proximates
"Energy",kcal,--,--,130,464
"Protein",g,--,--,3.00,10.71
"Total lipid (fat)",g,--,--,5.00,17.86
"Carbohydrate, by difference",g,--,--,16.00,57.14
"Fiber, total dietary",g,--,--,1.0,3.6
"Sugars, total",g,--,--,1.00,3.57
Minerals
"Calcium, Ca",mg,--,--,40,143
"Iron, Fe",mg,--,--,0.64,2.29
"Sodium, Na",mg,--,--,190,679
Vitamins
"Vitamin C, total ascorbic acid",mg,--,--,0.0,0.0
"Vitamin A, IU",IU,--,--,179,638
Lipids
"Fatty acids, total saturated",g,--,--,1.000,3.570
"Fatty acids, total trans",g,--,--,0.000,0.000
"Cholesterol",mg,--,--,5,18
Amino Acids
Other
Ingredients
"ORGANIC CORNMEAL, ORGANIC RICE FLOUR, ORGANIC WHITE CHEDDAR CHEESE ([ORGANIC CULTURED PASTEURIZED MILK, SALT, ENZYMES], ORGANIC NONFAT DRY MILK, ORGANIC BUTTERMILK, ORGANIC WHEY, SALT, DISODIUM PHOSPHATE), ORGANIC SUNFLOWER AND/OR SAFFLOWER OIL." Date available: 07/14/2017 Date last updated by company: 07/14/2017
