Source: USDA Branded Food Products Database Release December 2017 Software v.3.8.6.4 2017-10-02
Report Run at: December 17, 2017 23:50 EST
"Nutrient data for: 45205823, NATURAL NECTAR, ORGANIC BREAKFAST BISCUITS, UPC: 817252011353"
Food Group:  Branded Food Products Database
Common Name:

Nutrient,Unit,Data points,Std. Error,"2.0 COOKIES = 25.0g",1Value per 100 g,
Proximates
"Energy",kcal,--,--,110,440
"Protein",g,--,--,2.00,8.00
"Total lipid (fat)",g,--,--,4.50,18.00
"Carbohydrate, by difference",g,--,--,16.00,64.00
"Fiber, total dietary",g,--,--,2.0,8.0
"Sugars, total",g,--,--,5.00,20.00
Minerals
"Calcium, Ca",mg,--,--,0,0
"Iron, Fe",mg,--,--,1.44,5.76
"Sodium, Na",mg,--,--,55,220
Vitamins
"Vitamin C, total ascorbic acid",mg,--,--,0.0,0.0
"Vitamin A, IU",IU,--,--,0,0
Lipids
"Fatty acids, total saturated",g,--,--,2.000,8.000
"Fatty acids, total trans",g,--,--,0.000,0.000
"Cholesterol",mg,--,--,0,0
Amino Acids
Other
Ingredients
"ORGANIC UNBLEACHED WHEAT FLOUR, ORGANIC CANE SUGAR*, ORGANIC PALM OIL, ORGANIC WHOLE OATS, ORGANIC WHEAT BRAN, ORGANIC HONEY*, ORGANIC MULTIGRAIN CLUSTERS (ORGANIC RICE, ORGANIC OATS, ORGANIC CANE SUGAR, ORGANIC BARLEY MALT SYRUP, SEA SALT), ORGANIC CHIA SEEDS, BAKING POWDERS (AMMONIUM HYDROGEN CARBONATE - SODIUM HYDROGEN CARBONATE - MONOCALCIUM PHOSPHATE), SEA SALT" Date available: 07/14/2017 Date last updated by company: 07/14/2017
