Source: USDA Branded Food Products Database Release December 2017 Software v.3.8.6.4 2017-10-02
Report Run at: December 17, 2017 23:58 EST
"Nutrient data for: 45169272, NATURAL TIDES, SURF CHIPS, GROOVY POTATO WAVES, SALT & VINEGAR, UPC: 817252011810"
Food Group:  Branded Food Products Database
Common Name:

Nutrient,Unit,Data points,Std. Error,"14.0 CHIPS = 28.0g",1Value per 100 g,
Proximates
"Energy",kcal,--,--,150,536
"Protein",g,--,--,1.00,3.57
"Total lipid (fat)",g,--,--,9.00,32.14
"Carbohydrate, by difference",g,--,--,15.00,53.57
"Fiber, total dietary",g,--,--,0.5,1.8
"Sugars, total",g,--,--,0.00,0.00
Minerals
"Calcium, Ca",mg,--,--,0,0
"Iron, Fe",mg,--,--,0.00,0.00
"Sodium, Na",mg,--,--,190,679
Vitamins
"Vitamin C, total ascorbic acid",mg,--,--,0.0,0.0
"Vitamin A, IU",IU,--,--,0,0
Lipids
"Fatty acids, total saturated",g,--,--,1.000,3.570
"Fatty acids, total trans",g,--,--,0.000,0.000
"Cholesterol",mg,--,--,0,0
Amino Acids
Other
Ingredients
"DRIED POTATOES, HI OLEIC SUNFLOWER OIL, SALT, LACTOSE, CANE SUGAR, VINEGAR POWDER, NATURAL FLAVOR, POTATO STARCH, YEAST EXTRACT POWDER, BARLEY MALT VINEGAR EXTRACT POWDER, MONO- AND DIGYLCERIDES OF FATTY ACIDS (FROM NON HYDROGENATED PALM OIL)." Date available: 07/14/2017 Date last updated by company: 07/14/2017
