Source: USDA Branded Food Products Database Release December 2017 Software v.3.8.6.4 2017-10-02
Report Run at: December 18, 2017 00:21 EST
"Nutrient data for: 45099413, NAVARRO'S, FERMENTED SHRIMP IN RICE, UPC: 4804888287081"
Food Group:  Branded Food Products Database
Common Name:

Nutrient,Unit,Data points,Std. Error,"1 Tbsp = 18.0g",1Value per 100 g,
Proximates
"Energy",kcal,--,--,25,139
"Protein",g,--,--,1.00,5.56
"Total lipid (fat)",g,--,--,1.00,5.56
"Carbohydrate, by difference",g,--,--,3.00,16.67
"Fiber, total dietary",g,--,--,0.0,0.0
"Sugars, total",g,--,--,1.00,5.56
Minerals
"Calcium, Ca",mg,--,--,0,0
"Iron, Fe",mg,--,--,0.00,0.00
"Sodium, Na",mg,--,--,130,722
Vitamins
"Vitamin C, total ascorbic acid",mg,--,--,0.0,0.0
"Vitamin A, IU",IU,--,--,0,0
Lipids
"Fatty acids, total saturated",g,--,--,1.001,5.560
"Fatty acids, total trans",g,--,--,0.000,0.000
"Cholesterol",mg,--,--,0,0
Amino Acids
Other
Ingredients
"COOKED RICE, SHRIMP, IODIZED SALT, TOMATO SAUCE, CORN OIL, GINGER AND GARLIC." Date available: 07/14/2017 Date last updated by company: 07/14/2017
