Source: USDA Branded Food Products Database Release December 2017 Software v.3.8.6.4 2017-10-02
Report Run at: December 18, 2017 00:28 EST
"Nutrient data for: 45228371, NECTAR, UPC: 041331127226"
Food Group:  Branded Food Products Database
Common Name:

Nutrient,Unit,Data points,Std. Error,"1 CAN = 284.0g",1Value per 100 g,
Proximates
"Energy",kcal,--,--,179,63
"Protein",g,--,--,0.99,0.35
"Total lipid (fat)",g,--,--,0.00,0.00
"Carbohydrate, by difference",g,--,--,45.01,15.85
"Fiber, total dietary",g,--,--,2.0,0.7
"Sugars, total",g,--,--,37.01,13.03
Minerals
"Calcium, Ca",mg,--,--,20,7
"Iron, Fe",mg,--,--,0.91,0.32
"Sodium, Na",mg,--,--,20,7
Vitamins
"Vitamin C, total ascorbic acid",mg,--,--,50.8,17.9
"Vitamin A, IU",IU,--,--,633,223
Lipids
"Fatty acids, total saturated",g,--,--,0.000,0.000
"Fatty acids, total trans",g,--,--,0.000,0.000
"Cholesterol",mg,--,--,0,0
Amino Acids
Other
Ingredients
"WATER, PEACH PULP, HIGH FRUCTOSE CORN SYRUP, CORN SYRUP, FOOD STARCH-MODIFIED, CITRIC ACID, ASCORBIC ACID (VITAMIN C)." Date available: 07/14/2017 Date last updated by company: 07/14/2017
