Source: USDA Branded Food Products Database Release December 2017 Software v.3.8.6.4 2017-10-02
Report Run at: December 18, 2017 00:28 EST
"Nutrient data for: 45218601, NECTAR, UPC: 820213130048"
Food Group:  Branded Food Products Database
Common Name:

Nutrient,Unit,Data points,Std. Error,"0.5 cup = 120.0g",1Value per 100 g,
Proximates
"Energy",kcal,--,--,60,50
"Total lipid (fat)",g,--,--,0.00,0.00
"Carbohydrate, by difference",g,--,--,14.00,11.67
"Fiber, total dietary",g,--,--,1.0,0.8
"Sugars, total",g,--,--,13.00,10.83
Minerals
Vitamins
"Vitamin C, total ascorbic acid",mg,--,--,60.0,50.0
Lipids
"Fatty acids, total saturated",g,--,--,0.000,0.000
"Fatty acids, total trans",g,--,--,0.000,0.000
Amino Acids
Other
Ingredients
"WATER, PUREE FROM: CARROTS, BANANAS AND APPLES, SUGAR (A) AND/OR GLUCOSE-FRUCTOSE SYRUP (B), ACIDITY REGULATORS - CITRIC ACID AND APPLE ACID, ENRICHING SUBSTANCE - VITAMIN C, AROMAS A,B" Date available: 10/19/2017 Date last updated by company: 10/19/2017
