Source: USDA Branded Food Products Database Release December 2017 Software v.3.8.6.4 2017-10-02
Report Run at: December 18, 2017 00:30 EST
"Nutrient data for: 45043208, NELLIE & JOE'S, KEY WEST LIME JUICE, LIME, UPC: 084744001011"
Food Group:  Branded Food Products Database
Common Name:

Nutrient,Unit,Data points,Std. Error,"1 tsp = 4.72g",1Value per 100 g,
Proximates
"Energy",kcal,--,--,0,0
"Protein",g,--,--,0.00,0.00
"Total lipid (fat)",g,--,--,0.00,0.00
"Carbohydrate, by difference",g,--,--,0.00,0.00
Minerals
"Sodium, Na",mg,--,--,5,106
Vitamins
Lipids
"Fatty acids, total saturated",g,--,--,0.000,0.000
"Fatty acids, total trans",g,--,--,0.000,0.000
"Cholesterol",mg,--,--,0,0
Amino Acids
Other
Ingredients
"KEY WEST LIME JUICE FROM CONCENTRATE, AND LESS THAN 1/10 OF 1% SODIUM BENZOATE AS A PRESERVATIVE." Date available: 07/14/2017 Date last updated by company: 07/14/2017
