Source: USDA Branded Food Products Database Release December 2017 Software v.3.8.6.4 2017-10-02
Report Run at: December 18, 2017 00:42 EST
"Nutrient data for: 45182343, NEW ORLEANS STYLE RED BEANS & RICE ENTREE MIX, UPC: 039156006048"
Food Group:  Branded Food Products Database
Common Name:

Nutrient,Unit,Data points,Std. Error,"1 CUP PREPARED | DRY MIX = 56.0g",1Value per 100 g,
Proximates
"Energy",kcal,--,--,200,357
"Protein",g,--,--,8.00,14.29
"Total lipid (fat)",g,--,--,1.00,1.79
"Carbohydrate, by difference",g,--,--,39.00,69.64
"Fiber, total dietary",g,--,--,6.0,10.7
"Sugars, total",g,--,--,3.00,5.36
Minerals
"Calcium, Ca",mg,--,--,40,71
"Iron, Fe",mg,--,--,2.17,3.87
"Sodium, Na",mg,--,--,720,1286
Vitamins
"Vitamin C, total ascorbic acid",mg,--,--,1.9,3.4
"Vitamin A, IU",IU,--,--,161,287
Lipids
"Fatty acids, total saturated",g,--,--,0.000,0.000
"Fatty acids, total trans",g,--,--,0.000,0.000
"Cholesterol",mg,--,--,0,0
Amino Acids
Other
Ingredients
"ENRICHED LONG GRAIN PARBOILED RICE (RICE, IRON, NIACIN, THIAMINE MONONITRATE, FOLIC ACID), WHOLE RED BEANS, RED BEAN POWDER, ONION*, HYDROLYZED VEGETABLE PROTEIN (HYDROLYZED CORN GLUTEN & SAFFLOWER OIL), RED & GREEN BELL PEPPER*, TOMATO POWDER, SALT, GARLIC*, SMOKY BACON HAM FLAVOR (MALTODEXTRIN, SALT, MODIFIED CORN STARCH, DISODIUM INOSINATE, DISODIUM GUANYLATE, AND SILICONE DIOXIDE), SOYBEAN OIL, SMOKE POWDER (YELLOW CORN FLOUR, NATURAL HICKORY SMOKE FLAVOR), BLACK PEPPER, PARSLEY FLAKES*, RED PEPPER." Date available: 07/14/2017 Date last updated by company: 07/14/2017
