Source: USDA Branded Food Products Database Release December 2017 Software v.3.8.6.4 2017-10-02
Report Run at: December 18, 2017 00:42 EST
"Nutrient data for: 45202320, NEW ORLEANS STYLE RED BEANS & RICE, UPC: 757107012572"
Food Group:  Branded Food Products Database
Common Name:

Nutrient,Unit,Data points,Std. Error,"0.75 cup = 140.0g",1Value per 100 g,
Proximates
"Energy",kcal,--,--,190,136
"Protein",g,--,--,6.01,4.29
"Total lipid (fat)",g,--,--,2.51,1.79
"Carbohydrate, by difference",g,--,--,37.00,26.43
"Fiber, total dietary",g,--,--,2.9,2.1
"Sugars, total",g,--,--,2.00,1.43
Minerals
"Calcium, Ca",mg,--,--,41,29
"Iron, Fe",mg,--,--,0.00,0.00
"Sodium, Na",mg,--,--,620,443
Vitamins
"Vitamin C, total ascorbic acid",mg,--,--,0.0,0.0
"Vitamin A, IU",IU,--,--,0,0
Lipids
"Fatty acids, total saturated",g,--,--,0.504,0.360
"Fatty acids, total trans",g,--,--,0.000,0.000
"Cholesterol",mg,--,--,0,0
Amino Acids
Other
Ingredients
"NATURAL STEAMED RICE (WATER, RICE) (88%), KIDNEY BEANS, SEASONING (RICE FLOUR, YEAST EXTRACT, TOMATO POWDER, NATURAL FLAVORING, RED PEPPER, CAYENNE, SALT, SMOKED PAPRIKA, DRIED CHILLI FLAKES), SEASONING (VEGETABLE STOCK (WATER, ONION, CARROT EXTRACT, TOMATO, CELERIAC, HERB), RICE FLOUR, FLAVORING (CONTAINS EGG), YEAST EXTRACT, SALT, RAPESEED OIL, MALTODEXTRIN, SUGAR), SOY SAUCE (WATER, SOYBEANS, WHEAT, SALT, ONION, SUNFLOWER OIL, ACIDITY REGULATOR, GLUCONO DELTA LACTONE, RED PEPPER, YEAST EXTRACT, GARLIC, SUGAR, SALT, COLORS, CARAMEL, CAROTENES, PAPRIKA EXTRACT, PARSLEY." Date available: 07/14/2017 Date last updated by company: 07/14/2017
