Source: USDA Branded Food Products Database Release December 2017 Software v.3.8.6.4 2017-10-02
Report Run at: December 18, 2017 00:40 EST
"Nutrient data for: 45030775, NEWMAN'S OWN, ORGANIC SUPER DARK CHOCOLATE CUPS WITH RASPBERRY CENTERS, UPC: 757645010627"
Food Group:  Branded Food Products Database
Common Name:

Nutrient,Unit,Data points,Std. Error,"1 PACKAGE = 53.0g",1Value per 100 g,
Proximates
"Energy",kcal,--,--,240,453
"Protein",g,--,--,2.00,3.77
"Total lipid (fat)",g,--,--,15.00,28.30
"Carbohydrate, by difference",g,--,--,30.00,56.60
"Fiber, total dietary",g,--,--,4.0,7.5
"Sugars, total",g,--,--,20.00,37.74
Minerals
"Calcium, Ca",mg,--,--,20,38
"Iron, Fe",mg,--,--,1.36,2.56
"Sodium, Na",mg,--,--,0,0
Vitamins
"Vitamin C, total ascorbic acid",mg,--,--,1.1,2.1
"Vitamin A, IU",IU,--,--,0,0
Lipids
"Fatty acids, total saturated",g,--,--,8.999,16.980
"Fatty acids, total trans",g,--,--,0.000,0.000
"Cholesterol",mg,--,--,0,0
Amino Acids
Other
Ingredients
"ORGANIC SUPER DARK CHOCOLATE (ORGANIC CHOCOLATE LIQUOR*, ORGANIC SUGAR, ORGANIC COCOA BUTTER*, ORGANIC SOY LECITHIN [AN EMULSIFIER], ORGANIC VANILLA), ORGANIC RASPBERRY SAUCE (ORGANIC CANE SUGAR, ORGANIC SEEDLESS RED RASPBERRY PUREE, ORGANIC TAPIOCA SYRUP, GLYCERIN, ORGANIC LEMON JUICE CONCENTRATE, NATURAL RASPBERRY FLAVOR WITH OTHER NATURAL FLAVORS, ORGANIC LOCUST BEAN GUM, PECTIN, FRUIT AND VEGETABLE JUICE FOR COLOR)." Date available: 07/14/2017 Date last updated by company: 07/14/2017
