Source: USDA Branded Food Products Database Release December 2017 Software v.3.8.6.4 2017-10-02
Report Run at: December 18, 2017 00:38 EST
"Nutrient data for: 45222615, NEWMAN'S OWN, COMPLETE SKILLET MEAL, BEEF & BROCCOLI, UPC: 020662005151"
Food Group:  Branded Food Products Database
Common Name:

Nutrient,Unit,Data points,Std. Error,"0.5 PACKAGE = 312.0g",1Value per 100 g,
Proximates
"Energy",kcal,--,--,250,80
"Protein",g,--,--,20.00,6.41
"Total lipid (fat)",g,--,--,8.99,2.88
"Carbohydrate, by difference",g,--,--,22.99,7.37
"Fiber, total dietary",g,--,--,5.0,1.6
"Sugars, total",g,--,--,8.99,2.88
Minerals
"Calcium, Ca",mg,--,--,81,26
"Iron, Fe",mg,--,--,1.68,0.54
"Sodium, Na",mg,--,--,789,253
Vitamins
"Vitamin C, total ascorbic acid",mg,--,--,37.4,12.0
"Vitamin A, IU",IU,--,--,936,300
Lipids
"Fatty acids, total saturated",g,--,--,2.496,0.800
"Fatty acids, total trans",g,--,--,0.000,0.000
"Cholesterol",mg,--,--,44,14
Amino Acids
Other
Ingredients
"BROCCOLI, SAUCE (WATER, SOY SAUCE [WATER, SOYBEANS, WHEAT, SALT, VINEGAR], RICE WINE [DISTILLED RICE, SALT, WATER], SUGAR, SOYBEAN OIL, GARLIC [WITH WATER AND CITRIC ACID], STABILIZER [CORN STARCH, GUM ARABIC, XANTHAN GUM, GUAR GUM], GINGER PUREE [GINGER, WATER], OYSTER-FLAVORED FISH SAUCE [WATER, EVAPORATED CANE SYRUP, SALT, CORN STARCH, VINEGAR, MALTODEXTRIN, OYSTER EXTRACT], CHICKEN BROTH, CORN STARCH, CHILI OIL [SOYBEAN OIL, DRIED CHILI PEPPER], SESAME OIL, SPICES, FERMENTED SOY SAUCE POWDER [SOY SAUCE {FERMENTED SOYBEANS, WHEAT, SALT}, MALTODEXTRIN], OYSTER-FLAVORED FISH EXTRACT POWDER [COOKED OYSTER, MALTODEXTRIN, SALT, SUGAR, SOY SAUCE {FERMENTED SOYBEANS, WHEAT, SALT}], TARA GUM), NATURAL* SLICED SEASONED BEEF (BEEF, WATER, SEASONING [SOY SAUCE POWDER {SOY SAUCE (FERMENTED SOYBEANS, WHEAT, SALT), MALTODEXTRIN}, CORN STARCH, DEHYDRATED ONION, BROWN SUGAR, SALT, YEAST EXTRACT, GARLIC POWDER, SPICE, NATURAL FLAVORS], FLAVORINGS, NONFAT DRY MILK, DRIED WHOLE EGGS)." Date available: 07/14/2017 Date last updated by company: 07/14/2017
