Source: USDA Branded Food Products Database Release December 2017 Software v.3.8.6.4 2017-10-02
Report Run at: December 18, 2017 00:48 EST
"Nutrient data for: 45087326, NIAMAN RANCH, UNCURED CANADIAN BACON, UPC: 648649060582"
Food Group:  Branded Food Products Database
Common Name:

Nutrient,Unit,Data points,Std. Error,"2.0 SLICES = 66.0g",1Value per 100 g,
Proximates
"Energy",kcal,--,--,90,136
"Protein",g,--,--,12.00,18.18
"Total lipid (fat)",g,--,--,4.50,6.82
"Carbohydrate, by difference",g,--,--,2.00,3.03
"Fiber, total dietary",g,--,--,0.0,0.0
"Sugars, total",g,--,--,0.50,0.76
Minerals
"Calcium, Ca",mg,--,--,0,0
"Iron, Fe",mg,--,--,0.45,0.68
"Sodium, Na",mg,--,--,910,1379
Vitamins
"Vitamin C, total ascorbic acid",mg,--,--,0.0,0.0
"Vitamin A, IU",IU,--,--,125,189
Lipids
"Fatty acids, total saturated",g,--,--,2.000,3.030
"Fatty acids, total trans",g,--,--,0.000,0.000
"Cholesterol",mg,--,--,30,45
Amino Acids
Other
Ingredients
"PORK LOINS, WATER, SEA SALT, TURBINADO SUGAR, CELERY POWDER, LACTIC ACID STARTER CULTURE." Date available: 10/05/2017 Date last updated by company: 10/05/2017
