Source: USDA Branded Food Products Database Release December 2017 Software v.3.8.6.4 2017-10-02
Report Run at: December 18, 2017 00:48 EST
"Nutrient data for: 45084690, NIB MOR, DAILY DOSE OF DARK, ORIGINAL, UPC: 853081002285"
Food Group:  Branded Food Products Database
Common Name:

Nutrient,Unit,Data points,Std. Error,"1 PIECES = 9.9g",1Value per 100 g,
Proximates
"Energy",kcal,--,--,50,505
"Protein",g,--,--,1.00,10.10
"Total lipid (fat)",g,--,--,4.00,40.40
"Carbohydrate, by difference",g,--,--,5.00,50.51
"Fiber, total dietary",g,--,--,1.0,10.1
"Sugars, total",g,--,--,3.00,30.30
Minerals
"Calcium, Ca",mg,--,--,20,202
"Iron, Fe",mg,--,--,1.82,18.36
"Sodium, Na",mg,--,--,0,0
Vitamins
"Vitamin C, total ascorbic acid",mg,--,--,0.0,0.0
"Vitamin A, IU",IU,--,--,0,0
Lipids
"Fatty acids, total saturated",g,--,--,2.500,25.250
"Fatty acids, total trans",g,--,--,0.000,0.000
"Cholesterol",mg,--,--,0,0
Amino Acids
Other
Ingredients
"*ORGANIC CACAO, ORGANIC CANE SUGAR, *ORGANIC CACAO BUTTER, ORGANIC NON-GMO SOY LECITHIN (AN EMULSIFIER), ORGANIC VANILLA." Date available: 06/25/2017 Date last updated by company: 06/25/2017
