Source: USDA Branded Food Products Database Release December 2017 Software v.3.8.6.4 2017-10-02
Report Run at: December 18, 2017 00:49 EST
"Nutrient data for: 45292319, NIBS & COFFEE CACAO-NECTAR BAR, UPC: 854835004111"
Food Group:  Branded Food Products Database
Common Name:

Nutrient,Unit,Data points,Std. Error,"1 PIECE = 24.0g",1Value per 100 g,
Proximates
"Energy",kcal,--,--,117,488
"Protein",g,--,--,2.00,8.33
"Total lipid (fat)",g,--,--,9.00,37.50
"Carbohydrate, by difference",g,--,--,10.00,41.67
"Fiber, total dietary",g,--,--,2.0,8.3
"Sugars, total",g,--,--,7.00,29.17
Minerals
"Calcium, Ca",mg,--,--,20,83
"Iron, Fe",mg,--,--,2.63,10.94
"Sodium, Na",mg,--,--,42,175
Vitamins
"Vitamin A, IU",IU,--,--,209,869
Lipids
"Fatty acids, total saturated",g,--,--,4.999,20.830
Amino Acids
Other
Ingredients
"RAW LOCAL HONEY, SHREDDED ORGANIC COCONUT, UNREFINED ORGANIC COCONUT OIL, ALKALIZED ORGANIC COCOA POWDER, CACAO NIBS, GROUND COFFEE, VANILLA, HIMALAYAN PINK SALT." Date available: 07/14/2017 Date last updated by company: 07/14/2017
