Source: USDA Branded Food Products Database Release December 2017 Software v.3.8.6.4 2017-10-02
Report Run at: December 18, 2017 00:56 EST
"Nutrient data for: 45104308, NICE!, WHOLE ALMONDS, UPC: 049022880566"
Food Group:  Branded Food Products Database
Common Name:

Nutrient,Unit,Data points,Std. Error,"1 package = 42.0g",1Value per 100 g,
Proximates
"Energy",kcal,--,--,240,571
"Protein",g,--,--,9.00,21.43
"Total lipid (fat)",g,--,--,21.00,50.00
"Carbohydrate, by difference",g,--,--,9.00,21.43
"Fiber, total dietary",g,--,--,5.0,11.9
"Sugars, total",g,--,--,2.00,4.76
Minerals
"Calcium, Ca",mg,--,--,100,238
"Iron, Fe",mg,--,--,1.71,4.08
"Sodium, Na",mg,--,--,0,0
Vitamins
"Vitamin C, total ascorbic acid",mg,--,--,0.0,0.0
"Vitamin A, IU",IU,--,--,0,0
Lipids
"Fatty acids, total saturated",g,--,--,1.499,3.570
"Fatty acids, total trans",g,--,--,0.000,0.000
"Cholesterol",mg,--,--,0,0
Amino Acids
Other
Ingredients
"ALMONDS." Date available: 06/25/2017 Date last updated by company: 06/25/2017
