Source: USDA Branded Food Products Database Release December 2017 Software v.3.8.6.4 2017-10-02
Report Run at: December 18, 2017 00:50 EST
"Nutrient data for: 45155765, NICE!, CHOCOLATE BRIDGE MIX, MILK AND DARK CHOCOLATE, UPC: 049022834330"
Food Group:  Branded Food Products Database
Common Name:

Nutrient,Unit,Data points,Std. Error,"18.0 PIECES = 40.0g",1Value per 100 g,
Proximates
"Energy",kcal,--,--,180,450
"Protein",g,--,--,2.00,5.00
"Total lipid (fat)",g,--,--,8.00,20.00
"Carbohydrate, by difference",g,--,--,27.00,67.50
"Fiber, total dietary",g,--,--,1.0,2.5
"Sugars, total",g,--,--,22.00,55.00
Minerals
"Calcium, Ca",mg,--,--,40,100
"Iron, Fe",mg,--,--,0.90,2.25
"Sodium, Na",mg,--,--,40,100
Vitamins
"Vitamin C, total ascorbic acid",mg,--,--,0.0,0.0
"Vitamin A, IU",IU,--,--,0,0
Lipids
"Fatty acids, total saturated",g,--,--,5.000,12.500
"Fatty acids, total trans",g,--,--,0.000,0.000
"Cholesterol",mg,--,--,5,12
Amino Acids
Other
Ingredients
"MILK CHOCOLATE (SUGAR, COCOA BUTTER, MILK, CHOCOLATE LIQUOR, SOY LECITHIN -AN EMULSIFIER, ARTIFICIAL FLAVORING AND SALT), SEMISWEET CHOCOLATE (SUGAR, CHOCOLATE LIQUOR, COCOA BUTTER, MILK FAT, SOY LECITHIN -AN EMULSIFIER, ARTIFICIAL FLAVORING), PEANUTS, SUGAR, RAISINS, CORN SYRUP, SWEETENED CONDENSED MILK (MILK, SKIM MILK, SUGAR), ALMONDS, BRAZIL NUTS, HYDROGENATED VEGETABLE OIL (PALM KERNEL AND SOYBEAN OIL), EVAPORATED MILK (VITAMIN D ADDED), SALT, INVERTASE, NATURAL AND ARTIFICIAL FLAVORS, EGG WHITES, CITRIC ACID, GUM ARABIC, MODIFIED STARCH, COCONUT OIL, CONFECTIONER'S GLAZE, ARTIFICIAL COLORS (INCLUDING FD&C: RED #40 AND BWE #1), XANTHAN GUM." Date available: 07/14/2017 Date last updated by company: 07/14/2017
