Source: USDA Branded Food Products Database Release December 2017 Software v.3.8.6.4 2017-10-02
Report Run at: December 18, 2017 00:55 EST
"Nutrient data for: 45086333, NICE!, SOUR NEON BEARS CANDY, UPC: 049022698925"
Food Group:  Branded Food Products Database
Common Name:

Nutrient,Unit,Data points,Std. Error,"14.0 PIECES = 42.0g",1Value per 100 g,
Proximates
"Energy",kcal,--,--,140,333
"Protein",g,--,--,2.00,4.76
"Total lipid (fat)",g,--,--,0.00,0.00
"Carbohydrate, by difference",g,--,--,32.00,76.19
"Fiber, total dietary",g,--,--,0.0,0.0
"Sugars, total",g,--,--,25.00,59.52
Minerals
"Calcium, Ca",mg,--,--,0,0
"Iron, Fe",mg,--,--,0.00,0.00
"Sodium, Na",mg,--,--,10,24
Vitamins
"Vitamin C, total ascorbic acid",mg,--,--,0.0,0.0
"Vitamin A, IU",IU,--,--,0,0
Lipids
"Fatty acids, total saturated",g,--,--,0.000,0.000
"Fatty acids, total trans",g,--,--,0.000,0.000
"Cholesterol",mg,--,--,0,0
Amino Acids
Other
Ingredients
"SUGAR, CORN SYRUP, GELATIN, WHITE GRAPE JUICE FROM CONCENTRATE, CITRIC ACID, FUMARIC ACID, TITANIUM DIOXIDE (FOR COLOR), NATURAL & ARTIFICIAL FLAVORS, LACTIC ACID, CALCIUM LACTATE, ARTIFICIAL COLORS INCLUDING (RED 40, BLUE 1, YELLOW 5, YELLOW 6), SILICON DIOXIDE (ANTICAKING AGENT)." Date available: 06/25/2017 Date last updated by company: 06/25/2017
