Source: USDA Branded Food Products Database Release December 2017 Software v.3.8.6.4 2017-10-02
Report Run at: December 18, 2017 00:53 EST
"Nutrient data for: 45277790, NICE 'N CHEESY QUESO BLANCO WITH JALAPENOS, UPC: 011110869074"
Food Group:  Branded Food Products Database
Common Name:

Nutrient,Unit,Data points,Std. Error,"0.031 PKG.) | ( = 28.0g",1Value per 100 g,
Proximates
"Energy",kcal,--,--,70,250
"Protein",g,--,--,4.00,14.29
"Total lipid (fat)",g,--,--,5.00,17.86
"Carbohydrate, by difference",g,--,--,3.00,10.71
"Fiber, total dietary",g,--,--,0.0,0.0
"Sugars, total",g,--,--,2.00,7.14
Minerals
"Calcium, Ca",mg,--,--,150,536
"Iron, Fe",mg,--,--,0.00,0.00
"Sodium, Na",mg,--,--,470,1679
Vitamins
"Vitamin C, total ascorbic acid",mg,--,--,0.0,0.0
"Vitamin A, IU",IU,--,--,357,1275
Lipids
"Fatty acids, total saturated",g,--,--,2.999,10.710
"Fatty acids, total trans",g,--,--,0.000,0.000
"Cholesterol",mg,--,--,15,54
Amino Acids
Other
Ingredients
"MILK, WATER, WHEY, SKIM MILK, SODIUM PHOSPHATE, MALTODEXTRIN, CREAM, JALAPENO PEPPERS, WHEY PROTEIN CONCENTRATE, MILK PROTEIN CONCENTRATE, SALT, CHEESE CULTURE, CALCIUM PHOSPHATE, SODIUM ALGINATE, SORBIC ACID (PRESERVATIVE), VINEGAR, LACTIC ACID, NATURAL FLAVOR, ENZYMES, CALCIUM CHLORIDE." Date available: 07/14/2017 Date last updated by company: 07/14/2017
