Source: USDA Branded Food Products Database Release December 2017 Software v.3.8.6.4 2017-10-02
Report Run at: December 18, 2017 00:53 EST
"Nutrient data for: 45164196, NICE!, MAGIC MIX TRAIL MIX, UPC: 049022816831"
Food Group:  Branded Food Products Database
Common Name:

Nutrient,Unit,Data points,Std. Error,"3.0 Tbsp = 30.0g",1Value per 100 g,
Proximates
"Energy",kcal,--,--,140,467
"Protein",g,--,--,3.00,10.00
"Total lipid (fat)",g,--,--,8.00,26.67
"Carbohydrate, by difference",g,--,--,17.00,56.67
"Fiber, total dietary",g,--,--,2.0,6.7
"Sugars, total",g,--,--,14.00,46.67
Minerals
"Calcium, Ca",mg,--,--,20,67
"Iron, Fe",mg,--,--,1.20,4.00
"Sodium, Na",mg,--,--,50,167
Vitamins
"Vitamin C, total ascorbic acid",mg,--,--,0.0,0.0
"Vitamin A, IU",IU,--,--,0,0
Lipids
"Fatty acids, total saturated",g,--,--,3.000,10.000
"Fatty acids, total trans",g,--,--,0.000,0.000
"Cholesterol",mg,--,--,0,0
Amino Acids
Other
Ingredients
"PEANUTS (PEANUTS, VEGETABLE OIL [PEANUT, COTTONSEED, CANOLA AND/OR SOYBEAN OIL], SALT), RAISINS, M&M'S MILK CHOCOLATE CANDIES (MILK CHOCOLATE [SUGAR, CHOCOLATE, SKIM MILK, COCOA BUTTER, LACTOSE, MILKFAT, SOY LECITHIN, SALT, ARTIFICIAL FLAVORS], SUGAR, CORNSTARCH, LESS THAN 1% OF CORN SYRUP, DEXTRIN, COLORING [INCLUDES RED 40 LAKE, RED 40, BLUE 1, YELLOW 6, BLUE 1 LAKE, YELLOW 5, BLUE 2 LAKE, YELLOW 6 LAKE, YELLOW 5 LAKE, BLUE 2], GUM ACACIA), SEMISWEET CHOCOLATE CHIPS (SUGAR, CHOCOLATE LIQUOR, COCOA BUTTER, DEXTROSE, SOY LECITHIN, VANILLIN [ARTIFICIAL FLAVOR]), PEANUT BUTTER FLAVORED DROPS (SUGAR PALM KERNEL AND PALM OIL, PARTIALLY DEFATTED PEANUT FLOUR, WHEY POWDER, NONFAT DRY MILK, PEANUTS, ANHYDROUS DEXTROSE, SALT, SOY LECITHIN)." Date available: 07/14/2017 Date last updated by company: 07/14/2017
