Source: USDA Branded Food Products Database Release December 2017 Software v.3.8.6.4 2017-10-02
Report Run at: December 18, 2017 00:54 EST
"Nutrient data for: 45151892, NICE!, PUMPKIN SEEDS, UPC: 049022880610"
Food Group:  Branded Food Products Database
Common Name:

Nutrient,Unit,Data points,Std. Error,"1 PACKAGE = 42.0g",1Value per 100 g,
Proximates
"Energy",kcal,--,--,190,452
"Protein",g,--,--,8.00,19.05
"Total lipid (fat)",g,--,--,8.00,19.05
"Carbohydrate, by difference",g,--,--,23.00,54.76
"Fiber, total dietary",g,--,--,8.0,19.0
"Sugars, total",g,--,--,0.00,0.00
Minerals
"Calcium, Ca",mg,--,--,20,48
"Iron, Fe",mg,--,--,1.71,4.08
"Sodium, Na",mg,--,--,1340,3190
Vitamins
"Vitamin C, total ascorbic acid",mg,--,--,0.0,0.0
"Vitamin A, IU",IU,--,--,0,0
Lipids
"Fatty acids, total saturated",g,--,--,1.499,3.570
"Fatty acids, total trans",g,--,--,0.000,0.000
"Cholesterol",mg,--,--,0,0
Amino Acids
Other
Ingredients
"PUMPKIN SEEDS, SALT." Date available: 07/14/2017 Date last updated by company: 07/14/2017
