Source: USDA Branded Food Products Database Release December 2017 Software v.3.8.6.4 2017-10-02
Report Run at: December 18, 2017 00:59 EST
"Nutrient data for: 45043687, NIMAN RANCH, PULLED PORK WITH BARBECUE SAUCE, UPC: 648649091524"
Food Group:  Branded Food Products Database
Common Name:

Nutrient,Unit,Data points,Std. Error,"0.25 cup = 59.0g",1Value per 100 g,
Proximates
"Energy",kcal,--,--,90,153
"Protein",g,--,--,6.00,10.17
"Total lipid (fat)",g,--,--,2.00,3.39
"Carbohydrate, by difference",g,--,--,12.00,20.34
"Fiber, total dietary",g,--,--,0.0,0.0
"Sugars, total",g,--,--,11.00,18.64
Minerals
"Calcium, Ca",mg,--,--,0,0
"Iron, Fe",mg,--,--,0.52,0.88
"Sodium, Na",mg,--,--,290,492
Vitamins
"Vitamin C, total ascorbic acid",mg,--,--,3.5,5.9
"Vitamin A, IU",IU,--,--,0,0
Lipids
"Fatty acids, total saturated",g,--,--,0.501,0.850
"Fatty acids, total trans",g,--,--,0.000,0.000
"Cholesterol",mg,--,--,20,34
Amino Acids
Other
Ingredients
"PORK, WATER, SEA SALT, SAUCE: WATER, SUGAR, TOMATO PASTE, VINEGAR, CORN SYRUP, MODIFIED FOOD STARCH, SALT, PINEAPPLE JUICE CONCENTRATE, CULTURED DEXTROSE, NATURAL SMOKE FLAVOR, CARAMEL COLOR, MOLASSES, SPICES, CAYENNE PEPPER, GARLIC POWDER, TAMARIND, NATURAL FLAVOR." Date available: 10/13/2017 Date last updated by company: 10/13/2017
