Source: USDA Branded Food Products Database Release December 2017 Software v.3.8.6.4 2017-10-02
Report Run at: December 18, 2017 01:27 EST
"Nutrient data for: 45130327, No Salt Added Crushed Tomatoes, #10 can, UNPREPARED, GTIN: 00027000380628"
Food Group:  Branded Food Products Database
Common Name:

Nutrient,Unit,Data points,Std. Error,"0.5 cup (121g) = 121.0g",1Value per 100 g,
Proximates
"Energy",kcal,--,--,40,33
"Protein",g,--,--,2.00,1.65
"Total lipid (fat)",g,--,--,0.00,0.00
"Carbohydrate, by difference",g,--,--,9.00,7.44
"Fiber, total dietary",g,--,--,3.0,2.5
"Sugars, total",g,--,--,5.00,4.13
Minerals
"Calcium, Ca",mg,--,--,0,0
"Iron, Fe",mg,--,--,1.08,0.89
"Potassium, K",mg,--,--,440,364
"Sodium, Na",mg,--,--,40,33
Vitamins
"Vitamin C, total ascorbic acid",mg,--,--,9.0,7.4
"Vitamin A, IU",IU,--,--,300,248
Lipids
"Fatty acids, total saturated",g,--,--,0.000,0.000
"Fatty acids, total monounsaturated",g,--,--,0.000,0.000
"Fatty acids, total polyunsaturated",g,--,--,0.000,0.000
"Fatty acids, total trans",g,--,--,0.000,0.000
"Cholesterol",mg,--,--,0,0
Amino Acids
Other
Ingredients
"Vine-Ripened Unpeeled Tomatoes, Tomato Puree, Citric Acid." Date available: 10/12/2017 Date last updated by company: 10/12/2017
