Source: USDA Branded Food Products Database Release December 2017 Software v.3.8.6.4 2017-10-02
Report Run at: December 18, 2017 01:03 EST
"Nutrient data for: 45153120, NOBLE, BLOOD ORANGE - ORANGE JUICE, UPC: 639001461062"
Food Group:  Branded Food Products Database
Common Name:

Nutrient,Unit,Data points,Std. Error,"8.0 OZA = 240.0g",1Value per 100 g,
Proximates
"Energy",kcal,--,--,110,46
"Protein",g,--,--,1.01,0.42
"Total lipid (fat)",g,--,--,0.00,0.00
"Carbohydrate, by difference",g,--,--,25.99,10.83
"Sugars, total",g,--,--,22.01,9.17
Minerals
"Calcium, Ca",mg,--,--,19,8
"Sodium, Na",mg,--,--,0,0
Vitamins
"Vitamin C, total ascorbic acid",mg,--,--,60.0,25.0
Lipids
Amino Acids
Other
Ingredients
"BLOOD ORANGE JUICE FROM CONCENTRATE (FILTERED WATER, BLOOD ORANGE JUICE CONCENTRATE), ORANGE JUICE NOT FROM CONCENTRATE, BLOOD ORANGE JUICE NOT FROM CONCENTRATE." Date available: 07/14/2017 Date last updated by company: 07/14/2017
