Source: USDA Branded Food Products Database Release December 2017 Software v.3.8.6.4 2017-10-02
Report Run at: December 18, 2017 01:04 EST
"Nutrient data for: 45234745, NOIR 60% DARK COCOA, UPC: 011835330170"
Food Group:  Branded Food Products Database
Common Name:

Nutrient,Unit,Data points,Std. Error,"9.0 PIECES = 37.0g",1Value per 100 g,
Proximates
"Energy",kcal,--,--,200,541
"Protein",g,--,--,3.00,8.11
"Total lipid (fat)",g,--,--,12.00,32.43
"Carbohydrate, by difference",g,--,--,20.00,54.05
"Fiber, total dietary",g,--,--,4.0,10.8
"Sugars, total",g,--,--,15.00,40.54
Minerals
"Calcium, Ca",mg,--,--,0,0
"Iron, Fe",mg,--,--,4.87,13.15
"Sodium, Na",mg,--,--,0,0
Vitamins
"Vitamin C, total ascorbic acid",mg,--,--,4.9,13.2
"Vitamin A, IU",IU,--,--,0,0
Lipids
"Fatty acids, total saturated",g,--,--,7.000,18.920
"Fatty acids, total trans",g,--,--,0.000,0.000
"Cholesterol",mg,--,--,0,0
Amino Acids
Other
Ingredients
"ORGANIC COCOA MASS, ORGANIC CANE SUGAR, ORGANIC POMEGRANATE PREPARATION 12% [ORGANIC POMEGRANATE, ORGANIC APPLE JUICE CONCENTRATE, ORGANIC RICE FLOUR, THICKENER (PECTIN)] ORGANIC COCOA BUTTER, ORGANIC VANILLA PODS. COCOA: 60% MIN. (CHOCOLATE), MAY CONTAIN MILK, TREE NUTS AND PEANUTS. COCOA SUGAR VANILLA: TRADED IN COMPLIANCE WITH FAIRTRDE STANDARDS, TOTAL 88%." Date available: 06/24/2017 Date last updated by company: 06/24/2017
