Source: USDA Branded Food Products Database Release December 2017 Software v.3.8.6.4 2017-10-02
Report Run at: December 18, 2017 01:04 EST
"Nutrient data for: 45254546, NOISINA SPREAD, UPC: 719416204246"
Food Group:  Branded Food Products Database
Common Name:

Nutrient,Unit,Data points,Std. Error,"2.0 Tbsp = 35.0g",1Value per 100 g,
Proximates
"Energy",kcal,--,--,200,571
"Protein",g,--,--,1.00,2.86
"Total lipid (fat)",g,--,--,15.00,42.86
"Carbohydrate, by difference",g,--,--,17.00,48.57
"Fiber, total dietary",g,--,--,1.0,2.9
"Sugars, total",g,--,--,15.00,42.86
Minerals
"Iron, Fe",mg,--,--,0.51,1.47
"Sodium, Na",mg,--,--,0,0
Vitamins
Lipids
"Fatty acids, total saturated",g,--,--,1.998,5.710
"Fatty acids, total trans",g,--,--,0.000,0.000
Amino Acids
Other
Ingredients
"SUGAR, CANOLA OIL, HAZELNUT, COCOA, PALM OIL, AGAVE, NATURAL FLAVOR, SUNFLOWER LECITHIN AND/OR SOY LECITHIN*." Date available: 07/28/2017 Date last updated by company: 07/28/2017
