Source: USDA Branded Food Products Database Release December 2017 Software v.3.8.6.4 2017-10-02
Report Run at: December 18, 2017 01:10 EST
"Nutrient data for: 45140147, NON-FAT GREEK YOGURT, UPC: 818290010650"
Food Group:  Branded Food Products Database
Common Name:

Nutrient,Unit,Data points,Std. Error,"1 cup = 227.0g",1Value per 100 g,
Proximates
"Energy",kcal,--,--,170,75
"Protein",g,--,--,19.00,8.37
"Total lipid (fat)",g,--,--,0.00,0.00
"Carbohydrate, by difference",g,--,--,23.00,10.13
"Fiber, total dietary",g,--,--,0.9,0.4
"Sugars, total",g,--,--,20.00,8.81
Minerals
"Calcium, Ca",mg,--,--,200,88
"Iron, Fe",mg,--,--,0.00,0.00
"Potassium, K",mg,--,--,300,132
"Sodium, Na",mg,--,--,91,40
Vitamins
"Vitamin C, total ascorbic acid",mg,--,--,0.0,0.0
"Vitamin A, IU",IU,--,--,0,0
Lipids
"Fatty acids, total saturated",g,--,--,0.000,0.000
"Fatty acids, total trans",g,--,--,0.000,0.000
"Cholesterol",mg,--,--,9,4
Amino Acids
Other
Ingredients
"NONFAT YOGURT (CULTURED PASTEURIZED NONFAT MILK), EVAPORATED CANE SUGAR, PEACHES, WATER, FRUIT PECTIN, NATURAL FLAVOR, LOCUST BEAN GUM, VEGETABLE JUICE CONCENTRATE (FOR COLOR), GUAR GUM, LEMON JUICE CONCENTRATE. CONTAINS LIVE AND ACTIVE CULTURES: S. THERMOPHILUS, L. BULGARICUS, L. ACIDOPHILUS, BIFIDUS AND L. CASEI." Date available: 07/14/2017 Date last updated by company: 07/14/2017
