Source: USDA Branded Food Products Database Release December 2017 Software v.3.8.6.4 2017-10-02
Report Run at: December 18, 2017 01:06 EST
"Nutrient data for: 45055268, NON-DAIRY COFFEE CREAMER, UPC: 032251004025"
Food Group:  Branded Food Products Database
Common Name:

Nutrient,Unit,Data points,Std. Error,"12.0 GRM = 12.0g",1Value per 100 g,
Proximates
"Energy",kcal,--,--,50,417
"Protein",g,--,--,0.00,0.00
"Total lipid (fat)",g,--,--,1.00,8.33
"Carbohydrate, by difference",g,--,--,11.00,91.67
"Fiber, total dietary",g,--,--,0.0,0.0
"Sugars, total",g,--,--,8.00,66.67
Minerals
"Calcium, Ca",mg,--,--,0,0
"Iron, Fe",mg,--,--,0.00,0.00
"Sodium, Na",mg,--,--,5,42
Vitamins
"Vitamin C, total ascorbic acid",mg,--,--,0.0,0.0
"Vitamin A, IU",IU,--,--,0,0
Lipids
"Fatty acids, total saturated",g,--,--,0.000,0.000
"Fatty acids, total trans",g,--,--,0.000,0.000
"Cholesterol",mg,--,--,0,0
Amino Acids
Other
Ingredients
"SUGAR, CORN SYRUP SOLIDS, PARTIALLY HYDROGENATED SOYBEAN OIL, CONTAINS 2% OR LESS OF EACH OF THE FOLLOWING: SODIUM CASEINATE (A MILK DERIVATIVE), DIPOTASSIUM PHOSPHATE, MONO AND DIGLYCERIDES, SODIUM SILICOALUMINATE OR SILICON DIOXIDE (ANTI-CAKING AGENT), SODIUM TRIPOLYPHOSPHATE, DIACETYL TARTARIC ACID ESTERS OF MONO AND DIGLYCERIDES,BETA CAROTENE, RIBOFLAVIN, TITANIUM DIOXIDE (ARTIFICIAL COLORS), NATURAL AND ARTIFICIAL FLAVOR, DEXTROSE AND SILICON DIOXIDE." Date available: 09/26/2017 Date last updated by company: 09/26/2017
