Source: USDA Branded Food Products Database Release December 2017 Software v.3.8.6.4 2017-10-02
Report Run at: December 18, 2017 01:05 EST
"Nutrient data for: 45325861, NON-ALCOHOLIC PREMIUM MIXER GINGER BEER, UPC: 811751022100"
Food Group:  Branded Food Products Database
Common Name:

Nutrient,Unit,Data points,Std. Error,"6.0 ONZ = 178.0g",1Value per 100 g,
Proximates
"Energy",kcal,--,--,69,39
"Protein",g,--,--,0.00,0.00
"Total lipid (fat)",g,--,--,0.00,0.00
"Carbohydrate, by difference",g,--,--,18.00,10.11
"Fiber, total dietary",g,--,--,0.0,0.0
"Sugars, total",g,--,--,18.00,10.11
Minerals
"Calcium, Ca",mg,--,--,0,0
"Iron, Fe",mg,--,--,0.00,0.00
"Potassium, K",mg,--,--,0,0
"Sodium, Na",mg,--,--,20,11
Vitamins
Lipids
"Fatty acids, total saturated",g,--,--,0.000,0.000
"Fatty acids, total trans",g,--,--,0.000,0.000
"Cholesterol",mg,--,--,0,0
Amino Acids
Other
Ingredients
"FILTERED WATER, PURE CANE SUGAR, NATURAL GINGER EXTRACT AND OTHER NATURAL FLAVORS, POTASSIUM SORBATE (PRESERVES FRESHNESS), CITRIC ACID, SODIUM BENZOATE (PRESERVES FRESHNESS), SALT." Date available: 08/11/2017 Date last updated by company: 08/11/2017
