Source: USDA Branded Food Products Database Release December 2017 Software v.3.8.6.4 2017-10-02
Report Run at: December 18, 2017 01:05 EST
"Nutrient data for: 45100399, NONA LIM, PAD THAI NOODLES, UPC: 859792002309"
Food Group:  Branded Food Products Database
Common Name:

Nutrient,Unit,Data points,Std. Error,"3.7 ONZ = 105.0g",1Value per 100 g,
Proximates
"Energy",kcal,--,--,190,181
"Protein",g,--,--,2.00,1.90
"Total lipid (fat)",g,--,--,8.00,7.62
"Carbohydrate, by difference",g,--,--,11.00,10.48
"Fiber, total dietary",g,--,--,1.1,1.0
"Sugars, total",g,--,--,1.00,0.95
Minerals
"Calcium, Ca",mg,--,--,0,0
"Iron, Fe",mg,--,--,0.19,0.18
"Potassium, K",mg,--,--,0,0
"Sodium, Na",mg,--,--,65,62
Vitamins
"Vitamin C, total ascorbic acid",mg,--,--,0.0,0.0
"Vitamin A, IU",IU,--,--,0,0
Lipids
"Fatty acids, total saturated",g,--,--,0.998,0.950
"Fatty acids, total trans",g,--,--,0.000,0.000
"Cholesterol",mg,--,--,0,0
Amino Acids
Other
Ingredients
"RICE, STARCH (TAPIOCA STARCH, CORN STARCH, MODIFIED TAPIOCA STARCH AND POTATO STARCH), VEGETABLE OIL (PALM OIL, SESAME OIL, SOYBEAN OIL, AND LECITHIN)" Date available: 08/29/2017 Date last updated by company: 08/29/2017
