Source: USDA Branded Food Products Database Release December 2017 Software v.3.8.6.4 2017-10-02
Report Run at: December 18, 2017 01:17 EST
"Nutrient data for: 45289952, NONFAT YOGURT, UPC: 036632013385"
Food Group:  Branded Food Products Database
Common Name:

Nutrient,Unit,Data points,Std. Error,"1 cup = 150.0g",1Value per 100 g,
Proximates
"Energy",kcal,--,--,90,60
"Protein",g,--,--,13.01,8.67
"Total lipid (fat)",g,--,--,0.00,0.00
"Carbohydrate, by difference",g,--,--,12.00,8.00
"Fiber, total dietary",g,--,--,3.0,2.0
"Sugars, total",g,--,--,8.00,5.33
Minerals
"Calcium, Ca",mg,--,--,100,67
"Iron, Fe",mg,--,--,0.00,0.00
"Potassium, K",mg,--,--,118,79
"Sodium, Na",mg,--,--,56,37
Vitamins
"Vitamin D",IU,--,--,40,27
Lipids
"Fatty acids, total saturated",g,--,--,0.000,0.000
"Fatty acids, total trans",g,--,--,0.000,0.000
"Cholesterol",mg,--,--,4,3
Amino Acids
Other
Ingredients
"CULTURED GRADE A NON FAT MILK, WATER, CHICORY ROOT FIBER, CANE SUGAR, CONTAINS LESS THAN 1% OF CORN STARCH, NATURAL FLAVORS, FRUIT JUICE (FOR COLOR), STEVIA LEAF EXTRACT, CAROB BEAN GUM, MALIC ACID, SODIUM CITRATE, VITAMIN D3." Date available: 10/13/2017 Date last updated by company: 10/13/2017
