Source: USDA Branded Food Products Database Release December 2017 Software v.3.8.6.4 2017-10-02
Report Run at: December 18, 2017 01:17 EST
"Nutrient data for: 45279976, NONFAT YOGURT, UPC: 03003406104"
Food Group:  Branded Food Products Database
Common Name:

Nutrient,Unit,Data points,Std. Error,"1 CONATINER = 170.0g",1Value per 100 g,
Proximates
"Energy",kcal,--,--,90,53
"Protein",g,--,--,5.00,2.94
"Total lipid (fat)",g,--,--,0.00,0.00
"Carbohydrate, by difference",g,--,--,17.00,10.00
"Fiber, total dietary",g,--,--,0.0,0.0
"Sugars, total",g,--,--,12.00,7.06
Minerals
"Calcium, Ca",mg,--,--,250,147
"Iron, Fe",mg,--,--,0.00,0.00
"Phosphorus, P",mg,--,--,150,88
"Potassium, K",mg,--,--,280,165
"Sodium, Na",mg,--,--,90,53
Vitamins
"Vitamin C, total ascorbic acid",mg,--,--,0.0,0.0
"Riboflavin",mg,--,--,0.338,0.199
"Pantothenic acid",mg,--,--,0.600,0.353
"Vitamin A, IU",IU,--,--,1000,588
"Vitamin D",IU,--,--,80,47
Lipids
"Fatty acids, total saturated",g,--,--,0.000,0.000
"Fatty acids, total trans",g,--,--,0.000,0.000
"Cholesterol",mg,--,--,5,3
Amino Acids
Other
Ingredients
"CULTURED PASTEURIZED GRADE A NONFAT MILK, WATER, MODIFIED FOOD STARCH, FRUCTOSE, NATURAL FLAVOR, CARRAGEENAN, PECTIN, CALCIUM PHOSPHATE, SUCRALOSE, CITRIC ACID, POTASSIUM SORBATE (TO MAINTAIN FRESHNESS), ACESULFAME POTASSIUM, ANNATTO EXTRACT COLOR, TURMERIC COLOR, VITAMIN A PALMITATE, VITAMIN D3." Date available: 07/14/2017 Date last updated by company: 07/14/2017
