Source: USDA Branded Food Products Database Release December 2017 Software v.3.8.6.4 2017-10-02
Report Run at: December 18, 2017 01:15 EST
"Nutrient data for: 45194045, NONFAT YOGURT, UPC: 035826094308"
Food Group:  Branded Food Products Database
Common Name:

Nutrient,Unit,Data points,Std. Error,"1 CONTAINER = 170.0g",1Value per 100 g,
Proximates
"Energy",kcal,--,--,100,59
"Protein",g,--,--,6.00,3.53
"Total lipid (fat)",g,--,--,0.00,0.00
"Carbohydrate, by difference",g,--,--,19.01,11.18
"Fiber, total dietary",g,--,--,0.2,0.1
"Sugars, total",g,--,--,13.01,7.65
Minerals
"Calcium, Ca",mg,--,--,201,118
"Iron, Fe",mg,--,--,0.00,0.00
"Potassium, K",mg,--,--,309,182
"Sodium, Na",mg,--,--,95,56
Vitamins
"Vitamin C, total ascorbic acid",mg,--,--,0.0,0.0
"Vitamin A, IU",IU,--,--,0,0
Lipids
"Fatty acids, total saturated",g,--,--,0.000,0.000
"Fatty acids, total trans",g,--,--,0.000,0.000
"Cholesterol",mg,--,--,5,3
Amino Acids
Other
Ingredients
"CULTURED PASTEURIZED NONFAT MILK, WHEY PROTEIN CONCENTRATE, FRUCTOSE, STRAWBERRIES, BANANA PUREE, MODIFIED CORN STARCH, WHEY, NATURAL FLAVOR, POTASSIUM SORBATE (TO PRESERVE FRESHNESS), CITRIC ACID, ASPARTAME**, CARRAGEENAN, PECTIN, TURMERIC (COLOR), RED 40 AND BLUE 1. CONTAINS ACTIVE YOGURT CULTURES INCLUDING L. ACIDOPHILUS AND B. BIFIDUS." Date available: 07/14/2017 Date last updated by company: 07/14/2017
