Source: USDA Branded Food Products Database Release December 2017 Software v.3.8.6.4 2017-10-02
Report Run at: December 18, 2017 01:14 EST
"Nutrient data for: 45237922, NONFAT YOGURT DRINK, PROTEIN SMOOTHIE, UPC: 036632037749"
Food Group:  Branded Food Products Database
Common Name:

Nutrient,Unit,Data points,Std. Error,"1 BOTTLE = 281.0g",1Value per 100 g,
Proximates
"Energy",kcal,--,--,121,43
"Protein",g,--,--,12.00,4.27
"Total lipid (fat)",g,--,--,0.00,0.00
"Carbohydrate, by difference",g,--,--,18.01,6.41
"Fiber, total dietary",g,--,--,5.1,1.8
"Sugars, total",g,--,--,10.00,3.56
Minerals
"Calcium, Ca",mg,--,--,399,142
"Iron, Fe",mg,--,--,0.00,0.00
"Potassium, K",mg,--,--,450,160
"Sodium, Na",mg,--,--,149,53
Vitamins
"Vitamin C, total ascorbic acid",mg,--,--,0.0,0.0
"Vitamin A, IU",IU,--,--,0,0
"Vitamin D",IU,--,--,121,43
Lipids
"Fatty acids, total saturated",g,--,--,0.000,0.000
"Fatty acids, total trans",g,--,--,0.000,0.000
"Cholesterol",mg,--,--,14,5
Amino Acids
Other
Ingredients
"CULTURED GRADE A NON FAT MILK, WATER, POLYDEXTROSE, MILK PROTEIN CONCENTRATED., CONTAINS LESS THAN 1% OF MODIFIED FOOD STARCH, NATURAL AND ARTIFICIAL FLAVORS, SUCRALOSE, MALIC ACID, ACESULFAME POTASSIUM, VITAMIN D3, POTASSIUM SORBATE (TO MAINTAIN FRESHNESS), SODIUM CITRATE, RED 40." Date available: 07/14/2017 Date last updated by company: 07/14/2017
