Source: USDA Branded Food Products Database Release December 2017 Software v.3.8.6.4 2017-10-02
Report Run at: December 18, 2017 01:12 EST
"Nutrient data for: 45221852, NONFAT GREEK YOGURT, UPC: 818290013552"
Food Group:  Branded Food Products Database
Common Name:

Nutrient,Unit,Data points,Std. Error,"1 CONTAINER = 170.0g",1Value per 100 g,
Proximates
"Energy",kcal,--,--,139,82
"Protein",g,--,--,13.01,7.65
"Total lipid (fat)",g,--,--,0.00,0.00
"Carbohydrate, by difference",g,--,--,21.00,12.35
"Fiber, total dietary",g,--,--,1.0,0.6
"Sugars, total",g,--,--,18.00,10.59
Minerals
"Calcium, Ca",mg,--,--,150,88
"Iron, Fe",mg,--,--,0.00,0.00
"Sodium, Na",mg,--,--,65,38
Vitamins
"Vitamin C, total ascorbic acid",mg,--,--,6.0,3.5
"Vitamin A, IU",IU,--,--,0,0
Lipids
"Fatty acids, total saturated",g,--,--,0.000,0.000
"Fatty acids, total trans",g,--,--,0.000,0.000
"Cholesterol",mg,--,--,5,3
Amino Acids
Other
Ingredients
"NONFAT YOGURT (CULTURED PASTEURIZED NONFAT MILK, LIVE AND ACTIVE CULTURES: S. THERMOPHILUS, L. BULGARICUS, L ACIDOPHILUS, BIFIDUS AND L. CASEI), STRAWBERRIES, EVAPORATED CANE JUICE, PECTIN NATURAL FLAVORS, LOCUST BEAN GUM, FRUIT AND VEGETABLE JUICE CONCENTRATE (FOR COLOR)." Date available: 07/14/2017 Date last updated by company: 07/14/2017
