Source: USDA Branded Food Products Database Release December 2017 Software v.3.8.6.4 2017-10-02
Report Run at: December 18, 2017 01:16 EST
"Nutrient data for: 45195581, NONFAT YOGURT, UPC: 078742081779"
Food Group:  Branded Food Products Database
Common Name:

Nutrient,Unit,Data points,Std. Error,"4.0 ONZ = 113.0g",1Value per 100 g,
Proximates
"Energy",kcal,--,--,90,80
"Protein",g,--,--,2.99,2.65
"Total lipid (fat)",g,--,--,0.00,0.00
"Carbohydrate, by difference",g,--,--,19.00,16.81
"Fiber, total dietary",g,--,--,0.0,0.0
"Sugars, total",g,--,--,15.00,13.27
Minerals
"Calcium, Ca",mg,--,--,299,265
"Iron, Fe",mg,--,--,0.00,0.00
"Sodium, Na",mg,--,--,55,49
Vitamins
"Vitamin C, total ascorbic acid",mg,--,--,0.0,0.0
"Vitamin A, IU",IU,--,--,0,0
"Vitamin D",IU,--,--,80,71
Lipids
"Fatty acids, total saturated",g,--,--,0.000,0.000
"Fatty acids, total trans",g,--,--,0.000,0.000
"Cholesterol",mg,--,--,0,0
Amino Acids
Other
Ingredients
"CULTURED PASTEURIZED GRADE A NONFAT MILK, SUGAR, WATER, PEACHES, MODIFIED CORNSTARCH, WHEY, NATURAL FLAVORS, TRICALCIUM PHOSPHATE, GELLAN GUM, POTASSIUM SORBATE (FOR FRESHNESS), CITRIC ACID, ANNATTO (FOR COLOR), CAROB BEAN GUM, VITAMIN D3." Date available: 07/14/2017 Date last updated by company: 07/14/2017
