Source: USDA Branded Food Products Database Release December 2017 Software v.3.8.6.4 2017-10-02
Report Run at: December 18, 2017 01:15 EST
"Nutrient data for: 45039446, NONFAT YOGURT, UPC: 719283126924"
Food Group:  Branded Food Products Database
Common Name:

Nutrient,Unit,Data points,Std. Error,"1 cup = 227.0g",1Value per 100 g,
Proximates
"Energy",kcal,--,--,141,62
"Protein",g,--,--,4.99,2.20
"Total lipid (fat)",g,--,--,0.00,0.00
"Carbohydrate, by difference",g,--,--,26.99,11.89
"Fiber, total dietary",g,--,--,0.0,0.0
"Sugars, total",g,--,--,19.00,8.37
Minerals
"Calcium, Ca",mg,--,--,243,107
"Iron, Fe",mg,--,--,0.00,0.00
"Sodium, Na",mg,--,--,109,48
Vitamins
Lipids
"Fatty acids, total saturated",g,--,--,0.000,0.000
"Fatty acids, total trans",g,--,--,0.000,0.000
"Cholesterol",mg,--,--,5,2
Amino Acids
Other
Ingredients
"CULTURED, PASTEURIZED, SKIM MILK WITH VITAMINS A & D, WATER, FRUCTOSE, MODIFIED CORN STARCH, PECTIN, NONFAT DRY MILK, NATURAL FLAVOR, CITRIC ACID, ACESULFAME POTASSIUM, POTASSIUM SORBATE, SODIUM CITRATE, CALCIUM CITRATE, SUCRALOSE." Date available: 09/22/2017 Date last updated by company: 09/22/2017
