Source: USDA Branded Food Products Database Release December 2017 Software v.3.8.6.4 2017-10-02
Report Run at: December 18, 2017 01:19 EST
"Nutrient data for: 45117457, NONPAREIL CAPERS, UPC: 886926216967"
Food Group:  Branded Food Products Database
Common Name:

Nutrient,Unit,Data points,Std. Error,"1 Tbsp = 15.0g",1Value per 100 g,
Proximates
"Energy",kcal,--,--,0,0
"Protein",g,--,--,0.00,0.00
"Total lipid (fat)",g,--,--,0.00,0.00
"Carbohydrate, by difference",g,--,--,0.00,0.00
"Fiber, total dietary",g,--,--,0.0,0.0
"Sugars, total",g,--,--,0.00,0.00
Minerals
"Sodium, Na",mg,--,--,400,2667
Vitamins
Lipids
Amino Acids
Other
Ingredients
"CAPERS, WATER, DISTILLED WHITE VINEGAR, SALT." Date available: 07/14/2017 Date last updated by company: 07/14/2017
