Source: USDA Branded Food Products Database Release December 2017 Software v.3.8.6.4 2017-10-02
Report Run at: December 18, 2017 01:21 EST
"Nutrient data for: 45197716, NOODLE IN BROWN SAUCE WITH PORK, SOYBEAN KERNELS, AND TOFU, UPC: 072869826015"
Food Group:  Branded Food Products Database
Common Name:

Nutrient,Unit,Data points,Std. Error,"1 BOWL = 420.0g",1Value per 100 g,
Proximates
"Energy",kcal,--,--,542,129
"Protein",g,--,--,23.02,5.48
"Total lipid (fat)",g,--,--,18.02,4.29
"Carbohydrate, by difference",g,--,--,68.00,16.19
"Fiber, total dietary",g,--,--,5.9,1.4
"Sugars, total",g,--,--,8.99,2.14
Minerals
"Calcium, Ca",mg,--,--,202,48
"Iron, Fe",mg,--,--,0.34,0.08
"Sodium, Na",mg,--,--,1739,414
Vitamins
"Vitamin C, total ascorbic acid",mg,--,--,0.4,0.1
"Vitamin A, IU",IU,--,--,25,6
Lipids
"Fatty acids, total saturated",g,--,--,3.990,0.950
"Fatty acids, total trans",g,--,--,0.000,0.000
"Cholesterol",mg,--,--,80,19
Amino Acids
Other
Ingredients
"COOKED NOODLE (WHEAT FLOUR, WATER, SALT), WATER, PORK, SOYBEAN KERNELS, BEAN SAUCE [SOYA BEAN PASTE (WATER, SOYA BEAN, SALT, AND WHEAT FLOUR), WATER, SUGAR, SALT, SESAME SEED OIL], TOFU [WATER, SOYBEANS, SOY SAUCE (WATER, SOYBEANS,WHEAT, SALT, SODIUM BENZOATE), SPICES, CALCIUM SULFATE, CARAMEL COLOR], ONION, LESS THAN 2% OF HOI SIN SAUCE [SUGAR, WATER, SOYBEAN PASTE (WATER, SOYBEAN, WHEAT FLOUR SALT), TOMATO PASTE (TOMATO), SALT, RICE VINEGAR (WATER, RICE), GARLIC, MODIFIED CORN STARCH, CHILI, CARAMEL COLOR (SUGARCANE MOLASSES, WATER) CITRIC ACID], SOYBEAN OIL, SHERRY WINE (WINE, SALT, SULFITES), SOY SAUCE (WATER, WHEAT SOYBEANS, SALT, SODIUM BENZOATE: LESS THAN 1/10 OF 1% AS A PRESERVATIVE), FRIED SHALLOT (SHALLOT, PALM OIL, CORN STARCH), SUGAR, MUSHROOM FLAVORED SOY SAUCE (WATER, SOY BEANS, SUGAR, SALT, WHEAT FLOUR, EXTRACT OF MUSHROOM, SULFUR DIOXIDE), MODIFIED CORN STARCH, GELATIN, GARLIC, SESAME OIL, GINGER, WHITE PEPPER." Date available: 07/14/2017 Date last updated by company: 07/14/2017
