Source: USDA Branded Food Products Database Release December 2017 Software v.3.8.6.4 2017-10-02
Report Run at: December 18, 2017 01:21 EST
"Nutrient data for: 45218006, NOODLE SOUP MIX, UPC: 011161110705"
Food Group:  Branded Food Products Database
Common Name:

Nutrient,Unit,Data points,Std. Error,"1.66 Tbsp = 16.0g",1Value per 100 g,
Proximates
"Energy",kcal,--,--,60,375
"Protein",g,--,--,2.00,12.50
"Total lipid (fat)",g,--,--,1.50,9.38
"Carbohydrate, by difference",g,--,--,8.00,50.00
"Fiber, total dietary",g,--,--,0.0,0.0
"Sugars, total",g,--,--,0.00,0.00
Minerals
"Calcium, Ca",mg,--,--,20,125
"Iron, Fe",mg,--,--,1.12,7.03
"Sodium, Na",mg,--,--,850,5312
Vitamins
"Vitamin C, total ascorbic acid",mg,--,--,0.0,0.0
"Vitamin A, IU",IU,--,--,0,0
Lipids
"Fatty acids, total saturated",g,--,--,0.000,0.000
"Fatty acids, total trans",g,--,--,0.000,0.000
"Cholesterol",mg,--,--,10,62
Amino Acids
Other
Ingredients
"ENRICHED EGG NOODLES (SEMOLINA WHEAT FLOUR, EGG, NIACIN, IRON (FERROUS SULFATE), THIAMINE MONONITRATE, RIBOFLAVIN, FOLIC ACID), SALT, MALTODEXTRIN, MONOSODIUM GLUTAMATE, HYDROLYZED CORN AND SOY PROTEIN, PARTIALLY HYDROGENATED VEGETABLE SHORTENING (CONTAINS SOYBEAN OIL) WITH EMULSIFIER (MONO - AND DIGLYCERIDES), CHICKEN FAT, CORN STARCH, SUGAR, DEHYDRATED CHICKEN, SPICE, SOY FLO9UR, ANTI-CAKING AGENT (CALCIUM SILICATE), CORN SYRUP SOLIDS, AUTOLYZED YEAST EXTRACT, COLOR (TURMERIC, CARAMEL), DEHYDRATED ONION, DEHYDRATED CELERY, DEHYDRATED GARLIC, DISODIUM INOSINATE, DISODIUM GUANYLATE, SODIUM CASEINATE, CHICKEN BROTH, NATURAL AND ARTIFICIAL FLAVOR, GELATIN, DEXTROSE." Date available: 07/14/2017 Date last updated by company: 07/14/2017
