Source: USDA Branded Food Products Database Release December 2017 Software v.3.8.6.4 2017-10-02
Report Run at: December 18, 2017 01:24 EST
"Nutrient data for: 45204921, NORDICA, SOUR CREAM DIP, GREEN CHILI, UPC: 070267004097"
Food Group:  Branded Food Products Database
Common Name:

Nutrient,Unit,Data points,Std. Error,"2.0 Tbsp = 30.0g",1Value per 100 g,
Proximates
"Energy",kcal,--,--,60,200
"Protein",g,--,--,1.00,3.33
"Total lipid (fat)",g,--,--,5.00,16.67
"Carbohydrate, by difference",g,--,--,2.00,6.67
"Fiber, total dietary",g,--,--,0.0,0.0
"Sugars, total",g,--,--,1.00,3.33
Minerals
"Calcium, Ca",mg,--,--,40,133
"Iron, Fe",mg,--,--,0.00,0.00
"Potassium, K",mg,--,--,60,200
"Sodium, Na",mg,--,--,190,633
Vitamins
"Vitamin C, total ascorbic acid",mg,--,--,4.0,13.3
"Vitamin A, IU",IU,--,--,500,1667
Lipids
"Fatty acids, total saturated",g,--,--,3.501,11.670
"Fatty acids, total trans",g,--,--,0.000,0.000
"Cholesterol",mg,--,--,20,67
Amino Acids
Other
Ingredients
"CULTURED MILK AND CREAM, WHEY, SALT, CORN STARCH-MODIFIED, DEHYDRATED VEGETABLES (ONIONS, GREEN CHILI, GARLIC, JALAPENO), SODIUM TRIPOLYPHOSPHATE, SPICES, YEAST EXTRACT, MONOSODIUM GLUTAMATE, GELATIN, VINEGAR POWDER (MALTODEXTRIN, FOOD STARCH MODIFIED, VINEGAR), POTASSIUM SORBATE (TO MAINTAIN FRESHNESS), GUAR GUM, CARRAGEENAN, NATURAL AND ARTIFICIAL FLAVORS, CALCIUM SULFATE, LOCUST BEAN GUM, COLORED WITH PAPRIKA." Date available: 07/14/2017 Date last updated by company: 07/14/2017
