Source: USDA Branded Food Products Database Release December 2017 Software v.3.8.6.4 2017-10-02
Report Run at: December 18, 2017 01:23 EST
"Nutrient data for: 45204916, NORDICA, COTTAGE CHEESE, UPC: 070876000107"
Food Group:  Branded Food Products Database
Common Name:

Nutrient,Unit,Data points,Std. Error,"0.5 cup = 113.0g",1Value per 100 g,
Proximates
"Energy",kcal,--,--,120,106
"Protein",g,--,--,12.99,11.50
"Total lipid (fat)",g,--,--,4.99,4.42
"Carbohydrate, by difference",g,--,--,4.00,3.54
"Fiber, total dietary",g,--,--,0.0,0.0
"Sugars, total",g,--,--,4.00,3.54
Minerals
"Calcium, Ca",mg,--,--,99,88
"Iron, Fe",mg,--,--,0.00,0.00
"Potassium, K",mg,--,--,120,106
"Sodium, Na",mg,--,--,490,434
Vitamins
"Vitamin C, total ascorbic acid",mg,--,--,0.0,0.0
"Vitamin A, IU",IU,--,--,194,172
Lipids
"Fatty acids, total saturated",g,--,--,3.503,3.100
"Fatty acids, total trans",g,--,--,0.000,0.000
"Cholesterol",mg,--,--,25,22
Amino Acids
Other
Ingredients
"CULTURED PASTEURIZED NONFAT MILK, MILK, NONFAT MILK, CREAM, WHEY, SALT, GUAR GUM, LOCUST BEAN GUM, CARRAGEENAN, CALCIUM SULFATE, SODIUM AND POTASSIUM PHOSPHATES, POTASSIUM SORBATE (TO MAINTAIN FRESHNESS), CITRIC ACID, LACTIC ACID, NATURAL FLAVORS, ENZYMES." Date available: 07/14/2017 Date last updated by company: 07/14/2017
