Source: USDA Branded Food Products Database Release December 2017 Software v.3.8.6.4 2017-10-02
Report Run at: December 18, 2017 01:24 EST
"Nutrient data for: 45183494, NORMANDY STYLE VEGETABLES, UPC: 074175505707"
Food Group:  Branded Food Products Database
Common Name:

Nutrient,Unit,Data points,Std. Error,"1 cup = 97.0g",1Value per 100 g,
Proximates
"Energy",kcal,--,--,30,31
"Protein",g,--,--,1.00,1.03
"Total lipid (fat)",g,--,--,0.00,0.00
"Carbohydrate, by difference",g,--,--,5.00,5.15
"Fiber, total dietary",g,--,--,2.0,2.1
"Sugars, total",g,--,--,3.00,3.09
Minerals
"Calcium, Ca",mg,--,--,20,21
"Iron, Fe",mg,--,--,0.00,0.00
"Sodium, Na",mg,--,--,25,26
Vitamins
"Vitamin C, total ascorbic acid",mg,--,--,15.8,16.3
"Vitamin A, IU",IU,--,--,657,677
Lipids
"Fatty acids, total saturated",g,--,--,0.000,0.000
"Fatty acids, total trans",g,--,--,0.000,0.000
"Cholesterol",mg,--,--,0,0
Amino Acids
Other
Ingredients
"BROCCOLI, CAULIFLOWER, CARROTS, YELLOW SQUASH, ZUCCHINI." Date available: 07/14/2017 Date last updated by company: 07/14/2017
