Source: USDA Branded Food Products Database Release December 2017 Software v.3.8.6.4 2017-10-02
Report Run at: December 18, 2017 01:24 EST
"Nutrient data for: 45194108, NORTH ATALANTIC HADDOCK CHOWDER FRESH SOUP, UPC: 018894904724"
Food Group:  Branded Food Products Database
Common Name:

Nutrient,Unit,Data points,Std. Error,"1 cup = 245.0g",1Value per 100 g,
Proximates
"Energy",kcal,--,--,260,106
"Protein",g,--,--,13.99,5.71
"Total lipid (fat)",g,--,--,17.00,6.94
"Carbohydrate, by difference",g,--,--,13.99,5.71
"Fiber, total dietary",g,--,--,1.0,0.4
"Sugars, total",g,--,--,3.99,1.63
Minerals
"Calcium, Ca",mg,--,--,81,33
"Iron, Fe",mg,--,--,0.37,0.15
"Sodium, Na",mg,--,--,649,265
Vitamins
"Vitamin C, total ascorbic acid",mg,--,--,0.0,0.0
"Vitamin A, IU",IU,--,--,750,306
Lipids
"Fatty acids, total saturated",g,--,--,9.996,4.080
"Fatty acids, total trans",g,--,--,0.000,0.000
"Cholesterol",mg,--,--,96,39
Amino Acids
Other
Ingredients
"FISH STOCK, LIGHT CREAM (MILK, CREAM), HADDOCK, POTATOES, ONIONS, CELERY, BUTTER (CREAM, SALT), WHEAT FLOUR, SEA SALT, GARLIC, SPICES, PEPPER SAUCE (DISTILLED VINEGAR, RED PEPPER, SALT)." Date available: 07/14/2017 Date last updated by company: 07/14/2017
