Source: USDA Branded Food Products Database Release December 2017 Software v.3.8.6.4 2017-10-02
Report Run at: December 18, 2017 01:25 EST
"Nutrient data for: 45033959, NORTHERN CATCH, FANCY WHOLE OYSTERS, UPC: 041498119843"
Food Group:  Branded Food Products Database
Common Name:

Nutrient,Unit,Data points,Std. Error,"2.0 OZ = 56.0g",1Value per 100 g,
Proximates
"Energy",kcal,--,--,70,125
"Protein",g,--,--,7.00,12.50
"Total lipid (fat)",g,--,--,3.00,5.36
"Carbohydrate, by difference",g,--,--,3.00,5.36
"Fiber, total dietary",g,--,--,0.0,0.0
"Sugars, total",g,--,--,0.00,0.00
Minerals
"Calcium, Ca",mg,--,--,20,36
"Iron, Fe",mg,--,--,9.56,17.07
"Sodium, Na",mg,--,--,140,250
Vitamins
"Vitamin C, total ascorbic acid",mg,--,--,0.0,0.0
"Vitamin A, IU",IU,--,--,304,542
Lipids
"Fatty acids, total saturated",g,--,--,0.498,0.890
"Fatty acids, total trans",g,--,--,0.000,0.000
"Cholesterol",mg,--,--,45,80
Amino Acids
Other
Ingredients
"OYSTERS, WATER, SALT." Date available: 06/24/2017 Date last updated by company: 06/24/2017
