Source: USDA Branded Food Products Database Release December 2017 Software v.3.8.6.4 2017-10-02
Report Run at: December 18, 2017 01:24 EST
"Nutrient data for: 45241361, NORTH AMERICAN DULSE, UPC: 630614000037"
Food Group:  Branded Food Products Database
Common Name:

Nutrient,Unit,Data points,Std. Error,"0.25 cup = 14.0g",1Value per 100 g,
Proximates
"Energy",kcal,--,--,38,271
"Protein",g,--,--,4.00,28.57
"Total lipid (fat)",g,--,--,0.00,0.00
"Carbohydrate, by difference",g,--,--,6.00,42.86
"Fiber, total dietary",g,--,--,4.0,28.6
"Sugars, total",g,--,--,0.00,0.00
Minerals
"Calcium, Ca",mg,--,--,30,214
"Iron, Fe",mg,--,--,3.96,28.29
"Sodium, Na",mg,--,--,243,1736
Vitamins
"Vitamin C, total ascorbic acid",mg,--,--,1.2,8.6
"Vitamin A, IU",IU,--,--,100,714
Lipids
"Fatty acids, total saturated",g,--,--,0.000,0.000
"Fatty acids, total trans",g,--,--,0.000,0.000
"Cholesterol",mg,--,--,0,0
Amino Acids
Other
Ingredients
"DULSE" Date available: 09/23/2016 Date last updated by company: 09/23/2016
