Source: USDA Branded Food Products Database Release December 2017 Software v.3.8.6.4 2017-10-02
Report Run at: December 18, 2017 01:29 EST
"Nutrient data for: 45020886, NOSUGAR, SUCRALOSE SUGAR SUSTITUTE, UPC: 7792129002180"
Food Group:  Branded Food Products Database
Common Name:

Nutrient,Unit,Data points,Std. Error,"1 SACHET = 1.0g",1Value per 100 g,
Proximates
"Energy",kcal,--,--,0,0
"Carbohydrate, by difference",g,--,--,0.90,90.00
"Glucose (dextrose)",g,--,--,0.87,87.00
Minerals
Vitamins
Lipids
Amino Acids
Other
Ingredients
"DEXTROSE, MALTODEXTRINE, SUCRALOSE (1,2%)." Date available: 10/04/2017 Date last updated by company: 10/04/2017
