Source: USDA Branded Food Products Database Release December 2017 Software v.3.8.6.4 2017-10-02
Report Run at: December 18, 2017 01:30 EST
"Nutrient data for: 45205925, NOT KETCHUP, DIPPING SAUCE, SPICED FIG, UPC: 852781005039"
Food Group:  Branded Food Products Database
Common Name:

Nutrient,Unit,Data points,Std. Error,"1 Tbsp = 17.0g",1Value per 100 g,
Proximates
"Energy",kcal,--,--,20,118
"Protein",g,--,--,0.00,0.00
"Total lipid (fat)",g,--,--,0.00,0.00
"Carbohydrate, by difference",g,--,--,5.00,29.41
"Fiber, total dietary",g,--,--,0.0,0.0
"Sugars, total",g,--,--,5.00,29.41
Minerals
"Calcium, Ca",mg,--,--,0,0
"Iron, Fe",mg,--,--,0.00,0.00
"Sodium, Na",mg,--,--,95,559
Vitamins
"Vitamin C, total ascorbic acid",mg,--,--,0.0,0.0
"Vitamin A, IU",IU,--,--,294,1729
Lipids
"Fatty acids, total saturated",g,--,--,0.000,0.000
"Fatty acids, total trans",g,--,--,0.000,0.000
"Cholesterol",mg,--,--,0,0
Amino Acids
Other
Ingredients
"FIG PUREE (WATER, FIG PASTE), DEMERARA SUGAR, APPLE CIDER VINEGAR, WATER, MOLASSES, ONION, SALT, SPICES, DEHYDRATED GARLIC, NATURAL FLAVORS, DEHYDRATED ONION, XANTHAN GUM" Date available: 07/14/2017 Date last updated by company: 07/14/2017
