Source: USDA Branded Food Products Database Release December 2017 Software v.3.8.6.4 2017-10-02
Report Run at: December 18, 2017 01:31 EST
"Nutrient data for: 45224069, NOW AND LATER, ORIGINAL MIXED FRUIT CHEWS, APPLE, STRAWBERRY, GRAPE, CHERRY, BANANA, UPC: 041420016349"
Food Group:  Branded Food Products Database
Common Name:

Nutrient,Unit,Data points,Std. Error,"8.0 PIECES = 40.0g",1Value per 100 g,
Proximates
"Energy",kcal,--,--,150,375
"Protein",g,--,--,0.00,0.00
"Total lipid (fat)",g,--,--,1.50,3.75
"Carbohydrate, by difference",g,--,--,35.00,87.50
"Sugars, total",g,--,--,28.00,70.00
Minerals
"Sodium, Na",mg,--,--,55,138
Vitamins
Lipids
"Fatty acids, total saturated",g,--,--,0.500,1.250
Amino Acids
Other
Ingredients
"CORN SYRUP, SUGAR, PALM OIL, CITRIC ACID, SALT, SOY LECITHIN (EMULSIFIER), ARTIFICIAL FLAVORS, RED 40, YELLOW 5, BLUE 1, BLUE 2." Date available: 07/14/2017 Date last updated by company: 07/14/2017
