Source: USDA Branded Food Products Database Release December 2017 Software v.3.8.6.4 2017-10-02
Report Run at: December 18, 2017 01:34 EST
"Nutrient data for: 45002806, NUMI, SAVORY TEA, ORGANIC TEA, CARROT CURRY, UPC: 680692160024"
Food Group:  Branded Food Products Database
Common Name:

Nutrient,Unit,Data points,Std. Error,"1 TEABAG MAKES 10 FL OZ PREPARED = 4.54g",1Value per 100 g,
Proximates
"Energy",kcal,--,--,0,0
"Protein",g,--,--,0.00,0.00
"Total lipid (fat)",g,--,--,0.00,0.00
"Carbohydrate, by difference",g,--,--,0.00,0.00
Minerals
"Calcium, Ca",mg,--,--,20,441
"Iron, Fe",mg,--,--,0.00,0.00
"Sodium, Na",mg,--,--,135,2974
Vitamins
"Vitamin C, total ascorbic acid",mg,--,--,0.0,0.0
"Vitamin A, IU",IU,--,--,0,0
Lipids
"Cholesterol",mg,--,--,0,0
Amino Acids
Other
Ingredients
"ORGANIC CARROT, ORGANIC CURRY, ORGANIC CILANTRO, ORGANIC ONION, ORGANIC GINGER, ORGANIC TURMERIC, ORGANIC DECAF GREEN TEA." Date available: 09/01/2017 Date last updated by company: 09/01/2017
