Source: USDA Branded Food Products Database Release December 2017 Software v.3.8.6.4 2017-10-02
Report Run at: December 18, 2017 01:35 EST
"Nutrient data for: 45287526, NUT BUTTER FILLED ENERGY BAR, UPC: 722252405975"
Food Group:  Branded Food Products Database
Common Name:

Nutrient,Unit,Data points,Std. Error,"1 BAR = 50.0g",1Value per 100 g,
Proximates
"Energy",kcal,--,--,230,460
"Protein",g,--,--,7.00,14.00
"Total lipid (fat)",g,--,--,11.00,22.00
"Carbohydrate, by difference",g,--,--,27.00,54.00
"Fiber, total dietary",g,--,--,2.0,4.0
"Sugars, total",g,--,--,10.00,20.00
Minerals
"Calcium, Ca",mg,--,--,40,80
"Iron, Fe",mg,--,--,1.44,2.88
"Magnesium, Mg",mg,--,--,6,13
"Phosphorus, P",mg,--,--,48,96
"Potassium, K",mg,--,--,115,230
"Sodium, Na",mg,--,--,150,300
Vitamins
"Vitamin C, total ascorbic acid",mg,--,--,0.0,0.0
"Vitamin A, IU",IU,--,--,0,0
Lipids
"Fatty acids, total saturated",g,--,--,2.000,4.000
"Fatty acids, total monounsaturated",g,--,--,5.000,10.000
"Fatty acids, total polyunsaturated",g,--,--,1.500,3.000
"Fatty acids, total trans",g,--,--,0.000,0.000
"Cholesterol",mg,--,--,0,0
Amino Acids
Other
Ingredients
"ORGANIC NUT BUTTER BLEND (ORGANIC ALMOND BUTTER, ORGANIC CASHEW BUTTER), ORGANIC ROLLED OATS, ORGANIC BROWN RICE SYRUP, ORGANIC HIGH OLEIC SUNFLOWER OIL, ORGANIC PEA PROTEIN, ORGANIC DATE PASTE, ORGANIC RICE STARCH, ORGANIC OAT FLOUR, ORGANIC CANE SYRUP, ORGANIC PALM OIL, ORGANIC DRIED CANE SYRUP, ORGANIC BROWN RICE PROTEIN, ORGANIC TAPIOCA SYRUP, ORGANIC RICE FLOUR, VEGETABLE GLYCERIN, ORGANIC WILD BLUEBERRIES, NATURAL FLAVORS, SEA SALT, SUNFLOWER LECITHIN, ORGANIC COCONUT, MIXED TOCOPHEROLS (ANTIOXIDANT)." Date available: 07/14/2017 Date last updated by company: 07/14/2017
