Source: USDA Branded Food Products Database Release December 2017 Software v.3.8.6.4 2017-10-02
Report Run at: December 18, 2017 01:36 EST
"Nutrient data for: 45149594, NUT & CHOCOLATE TRAIL MIX, UPC: 753519466248"
Food Group:  Branded Food Products Database
Common Name:

Nutrient,Unit,Data points,Std. Error,"0.25 CUP = 28.0g",1Value per 100 g,
Proximates
"Energy",kcal,--,--,130,464
"Protein",g,--,--,3.00,10.71
"Total lipid (fat)",g,--,--,7.00,25.00
"Carbohydrate, by difference",g,--,--,13.00,46.43
"Fiber, total dietary",g,--,--,1.0,3.6
"Sugars, total",g,--,--,12.00,42.86
Minerals
"Calcium, Ca",mg,--,--,40,143
"Iron, Fe",mg,--,--,2.57,9.19
"Sodium, Na",mg,--,--,80,286
Vitamins
"Vitamin C, total ascorbic acid",mg,--,--,0.0,0.0
"Vitamin A, IU",IU,--,--,0,0
Lipids
"Fatty acids, total saturated",g,--,--,1.999,7.140
"Fatty acids, total trans",g,--,--,0.000,0.000
"Cholesterol",mg,--,--,0,0
Amino Acids
Other
Ingredients
"PEANUTS (PEANUTS ROASTED IN PEANUT AND/OR COTTONSEED AND/OR SUNFLOWER SEED AND/OR CANOLA OIL, SALT), RAISINS (WITH SULPHUR DIOXIDE ADDED AS A PRESERVATIVE), CANDY COATED CHOCOLATE PIECES (CONFECTIONERY COATING: SUGAR, PARTIALLY HYDROGENATED PALM KERNEL OIL, COCOA POWDER, WHEY POWDER, NONFAT MILK POWDER, SOY LECITHIN [AN EMULSIFIER], VANILLIN [ARTIFICIAL FLAVOR], SUGAR, ARABIC GUM, CORN SYRUP, ARTIFICIAL COLORING [INCLUDES RED 40 LAKE, YELLOW 6 LAKE, YELLOW 6, BLUE 2 LAKE, BLUE 1 LAKE, YELLOW 5 LAKE], CONFECTIONER'S GLAZE [CARNAUBA WAX, BEESWAX, AND SHELLAC]), ALMONDS AND CASHEWS (ALMONDS AND CASHEWS ROASTED IN PEANUT AND/OR COTTONSEED AND/OR SUNFLOWER SEED AND/OR CANOLA OIL, SALT.)" Date available: 07/14/2017 Date last updated by company: 07/14/2017
