Source: USDA Branded Food Products Database Release December 2017 Software v.3.8.6.4 2017-10-02
Report Run at: December 18, 2017 01:35 EST
"Nutrient data for: 45198048, NUT BAR, UPC: 075062270036"
Food Group:  Branded Food Products Database
Common Name:

Nutrient,Unit,Data points,Std. Error,"1 BAR = 40.0g",1Value per 100 g,
Proximates
"Energy",kcal,--,--,180,450
"Protein",g,--,--,4.00,10.00
"Total lipid (fat)",g,--,--,11.00,27.50
"Carbohydrate, by difference",g,--,--,20.00,50.00
"Fiber, total dietary",g,--,--,4.0,10.0
"Sugars, total",g,--,--,11.00,27.50
Minerals
"Calcium, Ca",mg,--,--,20,50
"Iron, Fe",mg,--,--,1.08,2.70
"Sodium, Na",mg,--,--,20,50
Vitamins
"Vitamin C, total ascorbic acid",mg,--,--,0.0,0.0
"Vitamin A, IU",IU,--,--,100,250
Lipids
"Fatty acids, total saturated",g,--,--,1.500,3.750
"Fatty acids, total trans",g,--,--,0.000,0.000
"Cholesterol",mg,--,--,0,0
Amino Acids
Other
Ingredients
"PEANUTS, ALMONDS, CRANBERRIES (CRANBERRIES, SUGAR, SUNFLOWER OIL), RAISINS, HONEY, CHICORY ROOT FIBER, TAPIOCA SYRUP, CRISP RICE (RICE FLOUR, SUGAR, SALT, CALCIUM CARBONATE), WALNUTS, PECANS DATES, PUMPKIN SEEDS, CANOLA OIL, FLAX SEEDS , VEGETABLE GLYCERINE, WATER, NATURAL FLAVOR, SOY LECITHIN." Date available: 08/02/2017 Date last updated by company: 08/02/2017
