Source: USDA Branded Food Products Database Release December 2017 Software v.3.8.6.4 2017-10-02
Report Run at: December 18, 2017 01:40 EST
"Nutrient data for: 45040323, NUTRISYSTEM D, CHOCOLATE CHIP COOKIE, UPC: 632674835055"
Food Group:  Branded Food Products Database
Common Name:

Nutrient,Unit,Data points,Std. Error,"1 COOKIE PACK = 36.0g",1Value per 100 g,
Proximates
"Energy",kcal,--,--,150,417
"Protein",g,--,--,7.00,19.44
"Total lipid (fat)",g,--,--,6.00,16.67
"Carbohydrate, by difference",g,--,--,18.00,50.00
"Fiber, total dietary",g,--,--,3.0,8.3
"Sugars, total",g,--,--,8.00,22.22
Minerals
"Calcium, Ca",mg,--,--,20,56
"Iron, Fe",mg,--,--,1.50,4.17
"Sodium, Na",mg,--,--,85,236
Vitamins
"Vitamin C, total ascorbic acid",mg,--,--,0.0,0.0
"Vitamin A, IU",IU,--,--,0,0
Lipids
"Fatty acids, total saturated",g,--,--,3.499,9.720
"Fatty acids, total trans",g,--,--,0.000,0.000
"Cholesterol",mg,--,--,20,56
Amino Acids
Other
Ingredients
"VITAL WHEAT GLUTEN, OATS, BUTTER, SUGAR FREE CHOCOLATE CHIPS (MALTITOL, CHOCOLATE LIQUOR, COCOA BUTTER, SOY LECITHIN, VANILLA), BROWN SUGAR, SUGAR, RESISTANT MALTODEXTRIN, EGGS, VANILLA, BICARBONATE OF SODA." Date available: 06/24/2017 Date last updated by company: 06/24/2017
