Source: USDA Branded Food Products Database Release December 2017 Software v.3.8.6.4 2017-10-02
Report Run at: December 18, 2017 01:46 EST
"Nutrient data for: 45201043, NUTRITION ENERGY BAR, UPC: 750049548871"
Food Group:  Branded Food Products Database
Common Name:

Nutrient,Unit,Data points,Std. Error,"1 BAR = 34.0g",1Value per 100 g,
Proximates
"Energy",kcal,--,--,160,471
"Protein",g,--,--,4.00,11.76
"Total lipid (fat)",g,--,--,8.00,23.53
"Carbohydrate, by difference",g,--,--,18.00,52.94
"Fiber, total dietary",g,--,--,3.0,8.8
"Sugars, total",g,--,--,8.00,23.53
Minerals
"Calcium, Ca",mg,--,--,20,59
"Iron, Fe",mg,--,--,0.42,1.24
"Potassium, K",mg,--,--,135,397
"Sodium, Na",mg,--,--,110,324
Vitamins
"Vitamin C, total ascorbic acid",mg,--,--,0.0,0.0
"Vitamin A, IU",IU,--,--,0,0
Lipids
"Fatty acids, total saturated",g,--,--,1.499,4.410
"Fatty acids, total trans",g,--,--,0.000,0.000
"Cholesterol",mg,--,--,0,0
Amino Acids
Other
Ingredients
"PEANUTS, BROWN RICE SYRUP, ALMONDS, ROLLED OATS, DRIED CRANBERRIES,PINEAPPLE JUICE SYRUP, RAISINS, TAPIOCA SYRUP, DRIED CANE SYRUP, DRIED BLUEBERRIES, CHICORY ROOT FIBER, APPLE JUICE CONCENTRATE, COCONUT OIL, HEMP SEEDS, FLAXSEED, SALT, WATER, NATURAL FLAVOR, SUNFLOWER OIL, PINEAPPLE JUICE CONCENTRATE." Date available: 07/14/2017 Date last updated by company: 07/14/2017
