Source: USDA Branded Food Products Database Release December 2017 Software v.3.8.6.4 2017-10-02
Report Run at: December 18, 2017 01:51 EST
"Nutrient data for: 45155233, NUTS, SEEDS & CHOCOLATE, UPC: 038718038350"
Food Group:  Branded Food Products Database
Common Name:

Nutrient,Unit,Data points,Std. Error,"0.25 cup = 30.0g",1Value per 100 g,
Proximates
"Energy",kcal,--,--,170,567
"Protein",g,--,--,5.00,16.67
"Total lipid (fat)",g,--,--,14.00,46.67
"Carbohydrate, by difference",g,--,--,8.00,26.67
"Fiber, total dietary",g,--,--,2.0,6.7
"Sugars, total",g,--,--,3.00,10.00
Minerals
"Calcium, Ca",mg,--,--,40,133
"Iron, Fe",mg,--,--,2.40,8.00
"Magnesium, Mg",mg,--,--,133,444
"Phosphorus, P",mg,--,--,250,833
"Sodium, Na",mg,--,--,0,0
"Copper, Cu",mg,--,--,0.400,1.333
"Manganese, Mn",mg,--,--,0.600,2.000
Vitamins
"Vitamin C, total ascorbic acid",mg,--,--,0.0,0.0
"Vitamin A, IU",IU,--,--,667,2222
Lipids
"Fatty acids, total saturated",g,--,--,2.001,6.670
"Fatty acids, total trans",g,--,--,0.000,0.000
"Cholesterol",mg,--,--,0,0
Amino Acids
Other
Ingredients
"ALMONDS, CASHEWS, PEPITAS (PUMPKIN KERNELS, PEANUT OIL), MILK CHOCOLATE CANDIES (MILK CHOCOLATE [DRIED CANE SYRUP, COCOA BUTTER, CHOCOLATE LIQUOR, WHOLE MILK POWDER, SOY LECITHIN, VANILLA], DRIED CANE SYRUP, COLOR [BETA CAROTENE, TURMERIC OLEORESIN, BEET JUICE], GUM ARABIC, CONFECTIONER'S GLAZE), WALNUTS, SUNFLOWER KERNELS (SUNFLOWER KERNELS, PEANUT OIL)." Date available: 07/14/2017 Date last updated by company: 07/14/2017
