Source: USDA Branded Food Products Database Release December 2017 Software v.3.8.6.4 2017-10-02
Report Run at: December 18, 2017 01:52 EST
"Nutrient data for: 45331840, NUTS & SEEDS, UPC: 730555002180"
Food Group:  Branded Food Products Database
Common Name:

Nutrient,Unit,Data points,Std. Error,"1.13 ONZ = 32.0g",1Value per 100 g,
Proximates
"Energy",kcal,--,--,120,375
"Protein",g,--,--,3.00,9.38
"Total lipid (fat)",g,--,--,12.00,37.50
"Carbohydrate, by difference",g,--,--,9.00,28.12
"Fiber, total dietary",g,--,--,2.0,6.2
"Sugars, total",g,--,--,6.00,18.75
Minerals
"Calcium, Ca",mg,--,--,26,81
"Iron, Fe",mg,--,--,0.70,2.19
"Sodium, Na",mg,--,--,125,391
Vitamins
"Vitamin D",IU,--,--,0,0
Lipids
"Fatty acids, total saturated",g,--,--,0.998,3.120
"Fatty acids, total trans",g,--,--,0.000,0.000
"Cholesterol",mg,--,--,0,0
Amino Acids
Other
Ingredients
"DRY ROASTED CALIFORNIA ALMONDS, EGG WHITES, WALNUTS, PUMPKIN SEEDS, DEHYDRATED CANE JUICE, ORGANIC TAMARI SAUCE, SEA SALT, CHILI PEPPER, TURMERIC, CUMIN" Date available: 10/13/2017 Date last updated by company: 10/13/2017
