Source: USDA Branded Food Products Database Release December 2017 Software v.3.8.6.4 2017-10-02
Report Run at: December 18, 2017 01:53 EST
"Nutrient data for: 45323909, NUTTY BERRY TRAIL MIX, UPC: 817974022019"
Food Group:  Branded Food Products Database
Common Name:

Nutrient,Unit,Data points,Std. Error,"0.25 cup = 34.0g",1Value per 100 g,
Proximates
"Energy",kcal,--,--,160,471
"Protein",g,--,--,3.00,8.82
"Total lipid (fat)",g,--,--,9.00,26.47
"Carbohydrate, by difference",g,--,--,19.00,55.88
"Fiber, total dietary",g,--,--,3.0,8.8
"Sugars, total",g,--,--,14.00,41.18
Minerals
"Calcium, Ca",mg,--,--,50,147
"Iron, Fe",mg,--,--,0.70,2.06
"Potassium, K",mg,--,--,130,382
"Sodium, Na",mg,--,--,0,0
Vitamins
"Vitamin D",IU,--,--,0,0
Lipids
"Fatty acids, total saturated",g,--,--,1.000,2.940
"Fatty acids, total trans",g,--,--,0.000,0.000
"Cholesterol",mg,--,--,0,0
Amino Acids
Other
Ingredients
"ALMONDS, DRIED SWEETENED CRANBERRIES (CRANBERRIES, SUGAR, SUNFLOWER OIL), DRIED SWEETENED BLUEBERRIES (CULTIVATED BLUEBERRIES, SUGAR, SUNFLOWER OIL), CASHEWS, SUNFLOWER OIL." Date available: 10/13/2017 Date last updated by company: 10/13/2017
