Source: USDA Branded Food Products Database Release December 2017 Software v.3.8.6.4 2017-10-02
Report Run at: December 18, 2017 01:56 EST
"Nutrient data for: 45094831, NYAKERS, GINGER SNAPS, ORANGE, UPC: 891980000032"
Food Group:  Branded Food Products Database
Common Name:

Nutrient,Unit,Data points,Std. Error,"6.0 COOKIES = 30.0g",1Value per 100 g,
Proximates
"Energy",kcal,--,--,140,467
"Protein",g,--,--,2.00,6.67
"Total lipid (fat)",g,--,--,5.00,16.67
"Carbohydrate, by difference",g,--,--,21.00,70.00
"Fiber, total dietary",g,--,--,1.0,3.3
"Sugars, total",g,--,--,11.00,36.67
Minerals
"Sodium, Na",mg,--,--,65,217
Vitamins
Lipids
"Fatty acids, total saturated",g,--,--,3.000,10.000
"Fatty acids, total trans",g,--,--,0.000,0.000
Amino Acids
Other
Ingredients
"WHEAT FLOUR, SUGAR, VEGETABLE MARGARINE (RAPESEED, PALM AND COCONUT OILS, WATER, SALT, MONO-AND DIGLYCERIDES OF FATTY ACIDS, POLYGLYCEROL ESTERS OF FATTY ACID, CITRIC ACID, FLAVOUR, VITAMIN A), SODIUM BICARBONATE, CLOVES, CINNAMON, GINGER, NATURAL ORANGE FLAVOUR." Date available: 10/13/2017 Date last updated by company: 10/13/2017
