Source: USDA Branded Food Products Database Release December 2017 Software v.3.8.6.4 2017-10-02
Report Run at: December 18, 2017 02:18 EST
"Nutrient data for: 45187343, O' DOUGHS, MULTIGRAIN SANDWICH THINS, UPC: 698433001130"
Food Group:  Branded Food Products Database
Common Name:

Nutrient,Unit,Data points,Std. Error,"1 SANDWICH THIN = 85.0g",1Value per 100 g,
Proximates
"Energy",kcal,--,--,170,200
"Protein",g,--,--,4.00,4.71
"Total lipid (fat)",g,--,--,2.50,2.94
"Carbohydrate, by difference",g,--,--,33.00,38.82
"Fiber, total dietary",g,--,--,4.0,4.7
"Sugars, total",g,--,--,2.00,2.35
Minerals
"Calcium, Ca",mg,--,--,30,35
"Iron, Fe",mg,--,--,0.31,0.37
"Sodium, Na",mg,--,--,500,588
Vitamins
Lipids
"Fatty acids, total saturated",g,--,--,0.000,0.000
"Fatty acids, total trans",g,--,--,0.000,0.000
"Cholesterol",mg,--,--,0,0
Amino Acids
Other
Ingredients
"WATER, POTATO STARCH, TAPIOCA STARCH, CHICKPEA FLOUR, SPROUTED FLAX FLOUR, SOYA FLOUR, WHOLE GRAIN RICE FLOUR, ORGANIC EVAPORATED CANE JUICE, CELLULOSE FIBER, GLYCERIN, SUNFLOWER OIL, YEAST, SEA SALT, SALBA CHIA SEED, XANTHAN GUM, BAKING POWDER, BAKING SODA." Date available: 10/19/2017 Date last updated by company: 10/19/2017
