Source: USDA Branded Food Products Database Release December 2017 Software v.3.8.6.4 2017-10-02
Report Run at: December 18, 2017 03:07 EST
"Nutrient data for: 45176563, O ORGANICS, ORGANIC COTTAGE CHEESE, UPC: 079893401331"
Food Group:  Branded Food Products Database
Common Name:

Nutrient,Unit,Data points,Std. Error,"0.5 cup = 113.0g",1Value per 100 g,
Proximates
"Energy",kcal,--,--,120,106
"Protein",g,--,--,14.00,12.39
"Total lipid (fat)",g,--,--,4.99,4.42
"Carbohydrate, by difference",g,--,--,4.00,3.54
"Fiber, total dietary",g,--,--,0.0,0.0
"Sugars, total",g,--,--,4.00,3.54
Minerals
"Calcium, Ca",mg,--,--,150,133
"Iron, Fe",mg,--,--,0.00,0.00
"Potassium, K",mg,--,--,140,124
"Sodium, Na",mg,--,--,400,354
Vitamins
"Vitamin C, total ascorbic acid",mg,--,--,0.0,0.0
"Vitamin A, IU",IU,--,--,194,172
Lipids
"Fatty acids, total saturated",g,--,--,3.503,3.100
"Fatty acids, total trans",g,--,--,0.000,0.000
"Cholesterol",mg,--,--,25,22
Amino Acids
Other
Ingredients
"ORGANIC CULTURED PASTEURIZED NONFAT MILK, ORGANIC MILK AND ORGANIC CREAM, ORGANIC NONFAT MILK, SALT, TRI-CALCIUM PHOSPHATE, ORGANIC LOCUST BEAN GUM, CITRIC ACID, CARRAGEENAN, MICROBIAL ENZYME, (NON-ANIMAL, RENNETLESS), CARBON DIOXIDE (TO PROTECT FLAVOR), AND LIVE AND ACTIVE CULTURES: L ACIDOPHILUS AND BIFIFDOBACTERIUM BIFIDUM." Date available: 07/14/2017 Date last updated by company: 07/14/2017
