Source: USDA Branded Food Products Database Release December 2017 Software v.3.8.6.4 2017-10-02
Report Run at: December 18, 2017 03:08 EST
"Nutrient data for: 45095517, O ORGANICS, ORGANIC ROASTED GARLIC HUMMUS, UPC: 079893115603"
Food Group:  Branded Food Products Database
Common Name:

Nutrient,Unit,Data points,Std. Error,"2.0 Tbsp = 28.0g",1Value per 100 g,
Proximates
"Energy",kcal,--,--,60,214
"Protein",g,--,--,1.00,3.57
"Total lipid (fat)",g,--,--,5.00,17.86
"Carbohydrate, by difference",g,--,--,4.00,14.29
"Fiber, total dietary",g,--,--,1.0,3.6
"Sugars, total",g,--,--,1.00,3.57
Minerals
"Calcium, Ca",mg,--,--,20,71
"Iron, Fe",mg,--,--,1.29,4.59
"Sodium, Na",mg,--,--,125,446
Vitamins
"Vitamin C, total ascorbic acid",mg,--,--,2.2,7.7
"Vitamin A, IU",IU,--,--,0,0
Lipids
"Fatty acids, total saturated",g,--,--,0.000,0.000
"Fatty acids, total trans",g,--,--,0.000,0.000
"Cholesterol",mg,--,--,0,0
Amino Acids
Other
Ingredients
"ORGANIC CHICKPEAS (ORGANIC CHICKPEAS, WATER), ORGANIC CANOLA OIL, ORGANIC SESAME TAHINI, ORGANIC GREEN ONION, ORGANIC GARLIC, SEA SALT, CITRIC ACID, ORGANIC GARLIC POWDER." Date available: 06/25/2017 Date last updated by company: 06/25/2017
