Source: USDA Branded Food Products Database Release December 2017 Software v.3.8.6.4 2017-10-02
Report Run at: December 18, 2017 03:07 EST
"Nutrient data for: 45078173, O ORGANICS, MEDITERRANEAN STYLE QUINOA WITH BROWN RICE, UPC: 079893402864"
Food Group:  Branded Food Products Database
Common Name:

Nutrient,Unit,Data points,Std. Error,"0.5 PACKAGE = 141.0g",1Value per 100 g,
Proximates
"Energy",kcal,--,--,210,149
"Protein",g,--,--,6.01,4.26
"Total lipid (fat)",g,--,--,9.00,6.38
"Carbohydrate, by difference",g,--,--,27.00,19.15
"Fiber, total dietary",g,--,--,2.0,1.4
"Sugars, total",g,--,--,1.00,0.71
Minerals
"Calcium, Ca",mg,--,--,100,71
"Iron, Fe",mg,--,--,0.86,0.61
"Sodium, Na",mg,--,--,450,319
Vitamins
"Vitamin C, total ascorbic acid",mg,--,--,1.6,1.1
"Vitamin A, IU",IU,--,--,718,509
Lipids
"Fatty acids, total saturated",g,--,--,2.496,1.770
"Fatty acids, total trans",g,--,--,0.000,0.000
"Cholesterol",mg,--,--,10,7
Amino Acids
Other
Ingredients
"COOKED ORGANIC WHITE QUINOA, ORGANIC BROWN RICE, COOKED ORGANIC RED QUINOA, ORGANIC SPINACH, ORGANIC TOMATO, ORGANIC CRUMBLED FETA CHEESE (ORGANIC MILK PRO-BIOTIC CULTURE, VEGETARIAN RENNET, SEA SALT), ORGANIC GARLIC, ORGANIC EXTRA VIRGIN OLIVE OIL, ORGANIC BASIL, SEA SALT, ORGANIC BLACK PEPPER." Date available: 06/24/2017 Date last updated by company: 06/24/2017
