Source: USDA Branded Food Products Database Release December 2017 Software v.3.8.6.4 2017-10-02
Report Run at: December 18, 2017 08:27 EST
"Nutrient data for: 45192496, O SOLE MIO, CHEESE & PESTO SACCOTTINI, UPC: 779566112730"
Food Group:  Branded Food Products Database
Common Name:

Nutrient,Unit,Data points,Std. Error,"1 cup = 115.0g",1Value per 100 g,
Proximates
"Energy",kcal,--,--,350,304
"Protein",g,--,--,12.99,11.30
"Total lipid (fat)",g,--,--,11.99,10.43
"Carbohydrate, by difference",g,--,--,50.00,43.48
"Fiber, total dietary",g,--,--,4.0,3.5
"Sugars, total",g,--,--,2.00,1.74
Minerals
"Calcium, Ca",mg,--,--,150,130
"Iron, Fe",mg,--,--,3.29,2.86
"Sodium, Na",mg,--,--,490,426
Vitamins
"Vitamin C, total ascorbic acid",mg,--,--,0.0,0.0
"Vitamin A, IU",IU,--,--,365,317
Lipids
"Fatty acids, total saturated",g,--,--,4.002,3.480
"Fatty acids, total trans",g,--,--,0.000,0.000
"Cholesterol",mg,--,--,45,39
Amino Acids
Other
Ingredients
"PASTA: ENRICHED DURUM WHEAT SEMOLINA (ENRICHED WITH NIACIN, FERROUS SULFATE, THIAMINE MONONITRATE, RIBOFLAVIN, FOLIC ACID), ENRICHED WHEAT FLOUR (ENRICHED WITH NIACIN, FERROUS SULFATE, THIAMINE MONONITRATE, RIBOFLAVIN, FOLIC ACID), FRESH WHOLE PASTEURIZED EGGS, WATER, FILLING; CHEESE (RICOTTA, PARMESAN, ROMANO [PASTEURIZED COW'S MILK, WHEY, SALT, POWERED CELLULOSE, LIPASE, MICROBIAL ENZYME, BACTERIAL CULTURE, CITRIC ACID]), TOASTED WHEAT CRUMBS (WHEAT FLOUR, YEAST), BASIL, CANOLA OIL, OAT FIBERS, SALT, SPICES, LEMON JUICE (WATER, CONCENTRATED LEMON JUICE, SULPHITES, LEMON OIL)." Date available: 07/14/2017 Date last updated by company: 07/14/2017
