Source: USDA Branded Food Products Database Release December 2017 Software v.3.8.6.4 2017-10-02
Report Run at: December 18, 2017 01:57 EST
"Nutrient data for: 45176899, OASIS MEDITERRANEAN CUISINE, HOMMUS, SPICY MEDITERRANEAN, UPC: 092378190025"
Food Group:  Branded Food Products Database
Common Name:

Nutrient,Unit,Data points,Std. Error,"2.0 Tbsp = 30.0g",1Value per 100 g,
Proximates
"Energy",kcal,--,--,37,123
"Protein",g,--,--,1.20,4.00
"Total lipid (fat)",g,--,--,1.00,3.33
"Carbohydrate, by difference",g,--,--,3.10,10.33
"Fiber, total dietary",g,--,--,1.0,3.3
"Sugars, total",g,--,--,0.50,1.67
Minerals
"Calcium, Ca",mg,--,--,30,100
"Iron, Fe",mg,--,--,0.90,3.00
"Sodium, Na",mg,--,--,85,283
Vitamins
"Vitamin C, total ascorbic acid",mg,--,--,1.0,3.3
"Vitamin A, IU",IU,--,--,0,0
Lipids
"Fatty acids, total saturated",g,--,--,0.000,0.000
"Fatty acids, total trans",g,--,--,0.000,0.000
"Cholesterol",mg,--,--,0,0
Amino Acids
Other
Ingredients
"CHICKPEAS, WATER, SESAME TAHINI, LEMON JUICE, FRESH GARLIC, SEA SALT, MUSTARD POWDER, DILL WEED, BLACK PEPPER, CAYENNE PEPPER, CUMIN, CORIANDER." Date available: 07/14/2017 Date last updated by company: 07/14/2017
