Source: USDA Branded Food Products Database Release December 2017 Software v.3.8.6.4 2017-10-02
Report Run at: December 18, 2017 02:00 EST
"Nutrient data for: 45236951, OATMEAL ENRICHED BREAD, UPC: 041497000685"
Food Group:  Branded Food Products Database
Common Name:

Nutrient,Unit,Data points,Std. Error,"1 SLICE, PER CONTAINER = 36.0g",1Value per 100 g,
Proximates
"Energy",kcal,--,--,100,278
"Protein",g,--,--,3.00,8.33
"Total lipid (fat)",g,--,--,1.50,4.17
"Carbohydrate, by difference",g,--,--,19.00,52.78
"Fiber, total dietary",g,--,--,1.0,2.8
"Sugars, total",g,--,--,3.00,8.33
Minerals
"Calcium, Ca",mg,--,--,80,222
"Iron, Fe",mg,--,--,2.00,5.55
"Sodium, Na",mg,--,--,170,472
Vitamins
"Vitamin C, total ascorbic acid",mg,--,--,0.0,0.0
"Thiamin",mg,--,--,0.360,1.000
"Riboflavin",mg,--,--,0.141,0.393
"Niacin",mg,--,--,1.666,4.628
"Vitamin A, IU",IU,--,--,694,1929
"Vitamin D",IU,--,--,40,111
Lipids
"Fatty acids, total saturated",g,--,--,0.000,0.000
"Fatty acids, total monounsaturated",g,--,--,0.000,0.000
"Fatty acids, total polyunsaturated",g,--,--,0.500,1.390
"Fatty acids, total trans",g,--,--,0.000,0.000
"Cholesterol",mg,--,--,0,0
Amino Acids
Other
Ingredients
"ENRICHED WHEAT FLOUR [ FLOUR, MALTED BARLEY FLOUR, REDUCED IRON, NIACIN, THIAMIN MONONITRATE (VITAMIN B1), RIBOFLAVIN (VITAMIN B2), FOLIC ACID], WATER, OATS, HIGH FRUCTOSE CORN SYRUP, YEAST, MOLASSES, SOYBEAN AND/OR CANOLA OIL, WHEAT GLUTEN, SALT, ENRICHMENT (CALCIUM SULFATE, VITAMIN A ACETATE, VITAMIN A PALMITATE, VITAMIN D3), MONO- AND DIGLYCERIDES, NATURAL FLAVOR, CALCIUM PROPIONATE (PRESERVATIVE), DATEM, SODIUM STEAROYL LACTYLATE, CARAMEL COLOR, SOY FLOUR, ETHOXYLATED MONO- AND DIGLYCERIDES, SOY LECITHIN, CITRIC ACID, FERROUS SULFATE, CALCIUM PHOSPHATE, AZODICARBONAMIDE." Date available: 06/25/2017 Date last updated by company: 06/25/2017
