Source: USDA Branded Food Products Database Release December 2017 Software v.3.8.6.4 2017-10-02
Report Run at: December 18, 2017 02:02 EST
"Nutrient data for: 45323150, OATMEAL RAISIN COOKIES, UPC: 4141526001"
Food Group:  Branded Food Products Database
Common Name:

Nutrient,Unit,Data points,Std. Error,"1 COOKIE = 15.0g",1Value per 100 g,
Proximates
"Energy",kcal,--,--,70,467
"Protein",g,--,--,1.00,6.67
"Total lipid (fat)",g,--,--,3.00,20.00
"Carbohydrate, by difference",g,--,--,11.00,73.33
"Fiber, total dietary",g,--,--,1.0,6.7
"Sugars, total",g,--,--,5.00,33.33
Minerals
"Calcium, Ca",mg,--,--,5,33
"Iron, Fe",mg,--,--,0.40,2.67
"Potassium, K",mg,--,--,35,233
"Sodium, Na",mg,--,--,35,233
Vitamins
"Vitamin D",IU,--,--,0,0
Lipids
"Fatty acids, total saturated",g,--,--,1.500,10.000
"Fatty acids, total trans",g,--,--,0.000,0.000
"Cholesterol",mg,--,--,10,67
Amino Acids
Other
Ingredients
"COOKIE (ROLLED OATS, RAISINS, BUTTER, ORGANIC CANE SUGAR, ENRICHED FLOUR [WHEAT FLOUR, NIACIN, REDUCED IRON, THIAMINE MONONITRATE, RIBOFLAVIN, FOLIC ACID], EGGS, MOLASSES, BAKING SODA, SEA SALT, VANILLA EXTRACT, CINNAMON), TOPPING (ROLLED OATS)." Date available: 09/25/2017 Date last updated by company: 09/25/2017
