Source: USDA Branded Food Products Database Release December 2017 Software v.3.8.6.4 2017-10-02
Report Run at: December 18, 2017 02:14 EST
"Nutrient data for: 45111582, OCEAN SPRAY, WAVE, APPLE WHITE CRANBERRY JUICE DRINK, MANGO PINEAPPLE WITH WHITE CRANBERRIES, UPC: 031200023971"
Food Group:  Branded Food Products Database
Common Name:

Nutrient,Unit,Data points,Std. Error,"10.0 fl oz = 314.0g",1Value per 100 g,
Proximates
"Energy",kcal,--,--,107,34
"Protein",g,--,--,0.00,0.00
"Total lipid (fat)",g,--,--,0.00,0.00
"Carbohydrate, by difference",g,--,--,25.56,8.14
"Sugars, total",g,--,--,25.56,8.14
Minerals
"Potassium, K",mg,--,--,16,5
"Sodium, Na",mg,--,--,16,5
Vitamins
"Vitamin C, total ascorbic acid",mg,--,--,63.7,20.3
Lipids
Amino Acids
Other
Ingredients
"FILTERED WATER, CANE OR BEET SUGAR, APPLE JUICE FROM CONCENTRATE, WHITE CRANBERRY JUICE FROM CONCENTRATE, NATURAL FLAVOR, FUMARIC ACID, VEGETABLE CONCENTRATE FOR COLOR, MALIC ACID, CITRIC ACID, ASCORBIC ACID (VITAMIN C)" Date available: 12/09/2016 Date last updated by company: 12/09/2016
