Source: USDA Branded Food Products Database Release December 2017 Software v.3.8.6.4 2017-10-02
Report Run at: December 18, 2017 02:13 EST
"Nutrient data for: 45227665, OCEAN SPRAY, MOCKTAILS, CRANBERRY SANGRIA, UPC: 031200021946"
Food Group:  Branded Food Products Database
Common Name:

Nutrient,Unit,Data points,Std. Error,"1 CUP = 240.0g",1Value per 100 g,
Proximates
"Energy",kcal,--,--,79,33
"Protein",g,--,--,0.00,0.00
"Total lipid (fat)",g,--,--,0.00,0.00
"Carbohydrate, by difference",g,--,--,21.00,8.75
"Sugars, total",g,--,--,19.01,7.92
Minerals
"Potassium, K",mg,--,--,106,44
"Sodium, Na",mg,--,--,46,19
Vitamins
"Vitamin C, total ascorbic acid",mg,--,--,1.2,0.5
Lipids
Amino Acids
Other
Ingredients
"FILTERED WATER, CRANBERRY JUICE (WATER, CRANBERRY JUICE CONCENTRATE), GRAPE JUICE (WATER, GRAPE JUICE CONCENTRATE), APPLE JUICE (WATER, APPLE JUICE CONCENTRATE), PINEAPPLE JUICE (WATER, PINEAPPLE JUICE CONCENTRATE), SUGAR, ORANGE JUICE (WATER, ORANGE JUICE CONCENTRATE), NATURAL FLAVOR, VEGETABLE CONCENTRATE FOR COLOR, SODIUM CITRATE, GUM ARABIC, ASCORBIC ACID (VITAMIN C), ESTER GUM, ORANGE EXTRACT, CARDAMOM EXTRACT." Date available: 03/23/2017 Date last updated by company: 03/23/2017
