Source: USDA Branded Food Products Database Release December 2017 Software v.3.8.6.4 2017-10-02
Report Run at: December 18, 2017 02:12 EST
"Nutrient data for: 45003366, OCEAN SPRAY, JUICE, CRANBERRY RASPBERRY, UPC: 2673633465935"
Food Group:  Branded Food Products Database
Common Name:

Nutrient,Unit,Data points,Std. Error,"8.0 fl oz = 251.0g",1Value per 100 g,
Proximates
"Energy",kcal,--,--,126,50
"Protein",g,--,--,0.00,0.00
"Total lipid (fat)",g,--,--,0.00,0.00
"Carbohydrate, by difference",g,--,--,31.38,12.50
"Sugars, total",g,--,--,31.38,12.50
Minerals
"Calcium, Ca",mg,--,--,20,8
"Iron, Fe",mg,--,--,0.38,0.15
"Magnesium, Mg",mg,--,--,8,3
"Phosphorus, P",mg,--,--,20,8
"Potassium, K",mg,--,--,178,71
"Sodium, Na",mg,--,--,15,6
Vitamins
"Vitamin C, total ascorbic acid",mg,--,--,62.8,25.0
Lipids
Amino Acids
Other
Ingredients
"GRAPE JUICE (WATER, GRAPE JUICE CONCENTRATE), APPLE JUICE (WATER, APPLE JUICE CONCENTRATE), CRANBERRY JUICE (WATER. CRANBERRY JUICE CONCENTRATE), RASPBERRY JUICE (WATER, RASPBERRY JUICE CONCENTRATE), NATURAL FLAVORS, ASCORBIC ACID (VITAMIN C), FUMARIC ACID." Date available: 09/23/2016 Date last updated by company: 09/23/2016
