Source: USDA Branded Food Products Database Release December 2017 Software v.3.8.6.4 2017-10-02
Report Run at: December 18, 2017 02:10 EST
"Nutrient data for: 45109662, OCEAN SPRAY, CRANBERRY MANGO JUICE DRINK, CRAN MANGO, UPC: 031200021335"
Food Group:  Branded Food Products Database
Common Name:

Nutrient,Unit,Data points,Std. Error,"1 cup = 240.0g",1Value per 100 g,
Proximates
"Energy",kcal,--,--,120,50
"Protein",g,--,--,0.00,0.00
"Total lipid (fat)",g,--,--,0.00,0.00
"Carbohydrate, by difference",g,--,--,30.00,12.50
"Sugars, total",g,--,--,30.00,12.50
Minerals
"Potassium, K",mg,--,--,24,10
"Sodium, Na",mg,--,--,36,15
Vitamins
"Vitamin C, total ascorbic acid",mg,--,--,60.0,25.0
Lipids
Amino Acids
Other
Ingredients
"FILTERED WATER, CANE OR BEET SUGAR, CRANBERRY JUICE (WATER, CRANBERRY JUICE CONCENTRATE), MANGO JUICE (WATER, MANGO JUICE CONCENTRATE), CITRIC ACID, NATURAL FLAVORS, GUM ARABIC, ESTER GUM, ASCORBIC ACID (VITAMIN C), FUMARIC ACID, VEGETABLE CONCENTRATE FOR COLOR" Date available: 03/22/2017 Date last updated by company: 03/22/2017
