Source: USDA Branded Food Products Database Release December 2017 Software v.3.8.6.4 2017-10-02
Report Run at: December 18, 2017 02:09 EST
"Nutrient data for: 45110838, OCEAN SPRAY, CRANBERRY JUICE COCKTAIL, UPC: 031200230270"
Food Group:  Branded Food Products Database
Common Name:

Nutrient,Unit,Data points,Std. Error,"8.0 fl oz = 251.0g",1Value per 100 g,
Proximates
"Energy",kcal,--,--,126,50
"Protein",g,--,--,0.00,0.00
"Total lipid (fat)",g,--,--,0.00,0.00
"Carbohydrate, by difference",g,--,--,31.38,12.50
"Sugars, total",g,--,--,31.38,12.50
Minerals
"Calcium, Ca",mg,--,--,105,42
"Potassium, K",mg,--,--,48,19
"Sodium, Na",mg,--,--,5,2
Vitamins
"Vitamin C, total ascorbic acid",mg,--,--,62.8,25.0
Lipids
Amino Acids
Other
Ingredients
"FILTERED WATER, CRANBERRY JUICE (WATER, CRANBERRY JUICE CONCENTRATE), CANE OR BEET SUGAR, CALCIUM FUMARATE, ASCORBIC ACID (VITAMIN C), CALCIUM CHLORIDE, VEGETABLE CONCENTRATE FOR COLOR." Date available: 03/22/2017 Date last updated by company: 03/22/2017
