Source: USDA Branded Food Products Database Release December 2017 Software v.3.8.6.4 2017-10-02
Report Run at: December 18, 2017 02:08 EST
"Nutrient data for: 45009633, OCEAN SPRAY, CRAISINS, DRIED CRANBERRIES WITH POMEGRANATE JUICE INFUSED, UPC: 031200294678"
Food Group:  Branded Food Products Database
Common Name:

Nutrient,Unit,Data points,Std. Error,"0.25 cup = 40.0g",1Value per 100 g,
Proximates
"Energy",kcal,--,--,130,325
"Protein",g,--,--,0.00,0.00
"Total lipid (fat)",g,--,--,0.00,0.00
"Carbohydrate, by difference",g,--,--,33.00,82.50
"Fiber, total dietary",g,--,--,3.0,7.5
"Sugars, total",g,--,--,29.00,72.50
Minerals
"Sodium, Na",mg,--,--,0,0
Vitamins
Lipids
"Fatty acids, total saturated",g,--,--,0.000,0.000
"Fatty acids, total trans",g,--,--,0.000,0.000
Amino Acids
Other
Ingredients
"CRANBERRIES, SUGAR, POMEGRANATE JUICE CONCENTRATE, MALIC ACID, NATURAL FLAVOR, ELDERBERRY JUICE CONCENTRATE (FOR COLOR)." Date available: 03/22/2017 Date last updated by company: 03/22/2017
