Source: USDA Branded Food Products Database Release December 2017 Software v.3.8.6.4 2017-10-02
Report Run at: December 18, 2017 02:07 EST
"Nutrient data for: 45183640, OCEAN SPARKLE, TILAPIA FILLETS, UPC: 075627103090"
Food Group:  Branded Food Products Database
Common Name:

Nutrient,Unit,Data points,Std. Error,"4.0 ONZ = 113.0g",1Value per 100 g,
Proximates
"Energy",kcal,--,--,99,88
"Protein",g,--,--,21.00,18.58
"Total lipid (fat)",g,--,--,0.99,0.88
"Carbohydrate, by difference",g,--,--,0.99,0.88
"Fiber, total dietary",g,--,--,0.0,0.0
"Sugars, total",g,--,--,0.00,0.00
Minerals
"Calcium, Ca",mg,--,--,0,0
"Iron, Fe",mg,--,--,0.00,0.00
"Sodium, Na",mg,--,--,50,44
Vitamins
"Vitamin C, total ascorbic acid",mg,--,--,0.0,0.0
"Vitamin A, IU",IU,--,--,0,0
Lipids
"Fatty acids, total saturated",g,--,--,0.000,0.000
"Fatty acids, total trans",g,--,--,0.000,0.000
"Cholesterol",mg,--,--,60,53
Amino Acids
Other
Ingredients
"TILAPIA CARBON MONOXIDE(TO RETAIN COLOR), SODIUM TRIPOLYPHOSPHATE (TO RETAIN MOISTURE)" Date available: 07/14/2017 Date last updated by company: 07/14/2017
