Source: USDA Branded Food Products Database Release December 2017 Software v.3.8.6.4 2017-10-02
Report Run at: December 18, 2017 02:14 EST
"Nutrient data for: 45110454, OCEAN SPRAY, WAVE, JUICE DRINK, APPLE WITH WHITE CRANBERRIES, UPC: 031200023957"
Food Group:  Branded Food Products Database
Common Name:

Nutrient,Unit,Data points,Std. Error,"10.0 fl oz = 314.0g",1Value per 100 g,
Proximates
"Energy",kcal,--,--,107,34
"Protein",g,--,--,0.00,0.00
"Total lipid (fat)",g,--,--,0.00,0.00
"Carbohydrate, by difference",g,--,--,27.66,8.81
"Sugars, total",g,--,--,27.66,8.81
Minerals
"Potassium, K",mg,--,--,16,5
"Sodium, Na",mg,--,--,16,5
Vitamins
"Vitamin C, total ascorbic acid",mg,--,--,63.7,20.3
Lipids
Amino Acids
Other
Ingredients
"FILTERED WATER, CANE OR BEET SUGAR, APPLE JUICE FROM CONCENTRATE, WHITE CRANBERRY JUICE FROM CONCENTRATE, NATURAL FLAVORS, FUMARIC ACID, MALIC ACID, CITRIC ACID, ASCORBIC ACID (VITAMIN C). BETA-CAROTENE FOR COLOR" Date available: 09/23/2016 Date last updated by company: 09/23/2016
