Source: USDA Branded Food Products Database Release December 2017 Software v.3.8.6.4 2017-10-02
Report Run at: December 18, 2017 02:09 EST
"Nutrient data for: 45111606, OCEAN SPRAY, CRAISINS, SWEETENED DRIED CRANBERRIES WITH REAL CHERRY JUICE, CHERRY, UPC: 031200034441"
Food Group:  Branded Food Products Database
Common Name:

Nutrient,Unit,Data points,Std. Error,"1.16 oz = 32.9g",1Value per 100 g,
Proximates
"Energy",kcal,--,--,110,334
"Protein",g,--,--,0.00,0.00
"Total lipid (fat)",g,--,--,0.00,0.00
"Carbohydrate, by difference",g,--,--,28.00,85.11
"Fiber, total dietary",g,--,--,3.0,9.1
"Sugars, total",g,--,--,24.00,72.95
Minerals
"Sodium, Na",mg,--,--,0,0
Vitamins
Lipids
"Fatty acids, total saturated",g,--,--,0.000,0.000
"Fatty acids, total trans",g,--,--,0.000,0.000
Amino Acids
Other
Ingredients
"CRANBERRIES, SUGAR, CHERRY JUICE CONCENTRATE, CITRIC ACID, NATURAL FLAVOR, ELDERBERRY JUICE CONCENTRATE (FOR COLOR)." Date available: 10/17/2016 Date last updated by company: 10/17/2016
