Source: USDA Branded Food Products Database Release December 2017 Software v.3.8.6.4 2017-10-02
Report Run at: December 18, 2017 02:17 EST
"Nutrient data for: 45130403, ODOMS TENNESSEE PRIDE Mild Sausage Roll, UNPREPARED, GTIN: 00072895161500"
Food Group:  Branded Food Products Database
Common Name:

Nutrient,Unit,Data points,Std. Error,"2.0 oz cooked (56g) = 56.0g",1Value per 100 g,
Proximates
"Energy",kcal,--,--,180,321
"Protein",g,--,--,9.00,16.07
"Total lipid (fat)",g,--,--,16.00,28.57
"Carbohydrate, by difference",g,--,--,0.00,0.00
"Fiber, total dietary",g,--,--,0.0,0.0
"Sugars, total",g,--,--,0.00,0.00
Minerals
"Calcium, Ca",mg,--,--,0,0
"Iron, Fe",mg,--,--,0.72,1.29
"Sodium, Na",mg,--,--,450,804
Vitamins
"Vitamin C, total ascorbic acid",mg,--,--,0.0,0.0
"Vitamin A, IU",IU,--,--,0,0
Lipids
"Fatty acids, total saturated",g,--,--,5.998,10.710
"Fatty acids, total trans",g,--,--,0.000,0.000
"Cholesterol",mg,--,--,40,71
Amino Acids
Other
Ingredients
"Pork, Water, Contains 2% or Less of the following: Salt, Sugar, Monosodium Glutamate, and Natural Flavorings." Date available: 10/12/2017 Date last updated by company: 10/12/2017
