Source: USDA Branded Food Products Database Release December 2017 Software v.3.8.6.4 2017-10-02
Report Run at: December 18, 2017 02:19 EST
"Nutrient data for: 45154423, OFF THE COB, SWEET CORN TORTILLA CHIPS, UPC: 857509003083"
Food Group:  Branded Food Products Database
Common Name:

Nutrient,Unit,Data points,Std. Error,"10.0 CHIPS | ABOUT = 28.0g",1Value per 100 g,
Proximates
"Energy",kcal,--,--,140,500
"Protein",g,--,--,2.00,7.14
"Total lipid (fat)",g,--,--,7.00,25.00
"Carbohydrate, by difference",g,--,--,19.00,67.86
"Fiber, total dietary",g,--,--,2.0,7.1
"Sugars, total",g,--,--,2.00,7.14
Minerals
"Calcium, Ca",mg,--,--,20,71
"Iron, Fe",mg,--,--,0.00,0.00
"Sodium, Na",mg,--,--,80,286
Vitamins
"Vitamin C, total ascorbic acid",mg,--,--,0.0,0.0
"Vitamin A, IU",IU,--,--,715,2552
Lipids
"Fatty acids, total saturated",g,--,--,0.501,1.790
"Fatty acids, total monounsaturated",g,--,--,5.001,17.860
"Fatty acids, total polyunsaturated",g,--,--,1.000,3.570
"Fatty acids, total trans",g,--,--,0.000,0.000
"Cholesterol",mg,--,--,0,0
Amino Acids
Other
Ingredients
"ORGANIC YELLOW CORN ORGANIC WHITE CORN, SWEET CORN, EXPELLER PRESSED SUNFLOWER OIL AND/OR SAFFLOWER OIL, EVAPORATED CANE JUICE, SEA SALT." Date available: 07/14/2017 Date last updated by company: 07/14/2017
