Source: USDA Branded Food Products Database Release December 2017 Software v.3.8.6.4 2017-10-02
Report Run at: December 18, 2017 02:20 EST
"Nutrient data for: 45149395, OH, SUGAR!, CHOCOLATE GEMS, UPC: 718097351225"
Food Group:  Branded Food Products Database
Common Name:

Nutrient,Unit,Data points,Std. Error,"18.0 PIECES | APPROX = 42.0g",1Value per 100 g,
Proximates
"Energy",kcal,--,--,190,452
"Protein",g,--,--,2.00,4.76
"Total lipid (fat)",g,--,--,9.00,21.43
"Carbohydrate, by difference",g,--,--,28.00,66.67
"Fiber, total dietary",g,--,--,0.0,0.0
"Sugars, total",g,--,--,26.00,61.90
Minerals
"Calcium, Ca",mg,--,--,60,143
"Iron, Fe",mg,--,--,0.43,1.02
"Sodium, Na",mg,--,--,20,48
Vitamins
"Vitamin C, total ascorbic acid",mg,--,--,0.0,0.0
"Vitamin A, IU",IU,--,--,119,283
Lipids
"Fatty acids, total saturated",g,--,--,6.002,14.290
"Fatty acids, total trans",g,--,--,0.000,0.000
"Cholesterol",mg,--,--,5,12
Amino Acids
Other
Ingredients
"MILK CHOCOLATE [SUGAR, COCOA BUTTER, WHOLE MILK, CHOCOLATE LIQUOR, LACTOSE, SOY LECITHIN (AN EMULSIFIER), AND VANILLIN (AN ARTIFICIAL FLAVOR)], SUGAR, GUM ARABIC, CORN SYRUP, ARTIFICIAL COLORING, AND CONFECTIONER'S GLAZE (CARNAUBA WAX, BEESWAX, SHELLAC). COLORS: BLUE #1 LAKE, YELLOW #5 LAKE" Date available: 07/14/2017 Date last updated by company: 07/14/2017
