Source: USDA Branded Food Products Database Release December 2017 Software v.3.8.6.4 2017-10-02
Report Run at: December 18, 2017 02:42 EST
"Nutrient data for: 45206877, OLD WISCONSIN, TURKEY SAUSAGE STICKS, UPC: 073170425003"
Food Group:  Branded Food Products Database
Common Name:

Nutrient,Unit,Data points,Std. Error,"1 STICK = 15.0g",1Value per 100 g,
Proximates
"Energy",kcal,--,--,40,267
"Protein",g,--,--,3.00,20.00
"Total lipid (fat)",g,--,--,2.50,16.67
"Carbohydrate, by difference",g,--,--,1.00,6.67
"Fiber, total dietary",g,--,--,0.0,0.0
"Sugars, total",g,--,--,0.00,0.00
Minerals
"Calcium, Ca",mg,--,--,0,0
"Iron, Fe",mg,--,--,1.32,8.80
"Sodium, Na",mg,--,--,160,1067
Vitamins
"Vitamin C, total ascorbic acid",mg,--,--,0.0,0.0
"Vitamin A, IU",IU,--,--,0,0
Lipids
"Fatty acids, total saturated",g,--,--,1.000,6.670
"Fatty acids, total trans",g,--,--,0.000,0.000
"Cholesterol",mg,--,--,15,100
Amino Acids
Other
Ingredients
"TURKEY, MECHANICALLY SEPARATED TURKEY, CONTAINS 2% OR LESS OF: SALT, CORN SYRUP SOLIDS, SPICES, DEXTROSE, LACTIC ACID STARTER CULTURE, CARRAGEENAN, SODIUM ERYTHORBATE (MADE FROM SUGAR), GARLIC POWDER, SODIUM NITRITE. IN COLLAGEN CASING." Date available: 07/14/2017 Date last updated by company: 07/14/2017
