Source: USDA Branded Food Products Database Release December 2017 Software v.3.8.6.4 2017-10-02
Report Run at: December 18, 2017 02:30 EST
"Nutrient data for: 45212387, OLD FASHIONED CHOCOLATE CHIP COOKIES, UPC: 754807201107"
Food Group:  Branded Food Products Database
Common Name:

Nutrient,Unit,Data points,Std. Error,"2.0 COOKIES = 29.0g",1Value per 100 g,
Proximates
"Energy",kcal,--,--,140,483
"Protein",g,--,--,1.00,3.45
"Total lipid (fat)",g,--,--,5.00,17.24
"Carbohydrate, by difference",g,--,--,21.00,72.41
"Fiber, total dietary",g,--,--,0.0,0.0
"Sugars, total",g,--,--,9.00,31.03
Minerals
"Calcium, Ca",mg,--,--,0,0
"Iron, Fe",mg,--,--,1.24,4.28
"Sodium, Na",mg,--,--,95,328
Vitamins
"Vitamin C, total ascorbic acid",mg,--,--,0.0,0.0
"Vitamin A, IU",IU,--,--,0,0
Lipids
"Fatty acids, total saturated",g,--,--,2.999,10.340
"Fatty acids, total monounsaturated",g,--,--,2.001,6.900
"Fatty acids, total polyunsaturated",g,--,--,0.000,0.000
"Fatty acids, total trans",g,--,--,0.000,0.000
"Cholesterol",mg,--,--,0,0
Amino Acids
Other
Ingredients
"ENRICHED BLEACHED WHEAT FLOUR (BLEACHED WHEAT FLOUR, NIACIN, REDUCED IRON, THIAMINE MONONITRATE, RIBOFLAVIN AND FOLIC ACID), SUGAR, PALM OIL, SEMI-SWEET CHOCOLATE CHIPS (SUGAR, CHOCOLATE LIQUOR, COCOA BUTTER, DEXTROSE, SOY LECITHIN [AN EMULSIFIER], CORN SYRUP, HIGH FRUCTOSE CORN SYRUP, CONTAINS TWO PERCENT OR LESS OF: SODIUM BICARBONATE, SALT, NATURAL AND ARTIFICIAL FLAVORS AND SOY LECITHIN (AN EMULISIFIER)." Date available: 07/14/2017 Date last updated by company: 07/14/2017
