Source: USDA Branded Food Products Database Release December 2017 Software v.3.8.6.4 2017-10-02
Report Run at: December 18, 2017 02:31 EST
"Nutrient data for: 45264205, OLD FASHIONED DONUTS, UPC: 072220220322"
Food Group:  Branded Food Products Database
Common Name:

Nutrient,Unit,Data points,Std. Error,"1 DONUT = 57.0g",1Value per 100 g,
Proximates
"Energy",kcal,--,--,230,404
"Protein",g,--,--,2.00,3.51
"Total lipid (fat)",g,--,--,9.00,15.79
"Carbohydrate, by difference",g,--,--,35.00,61.40
"Fiber, total dietary",g,--,--,1.0,1.8
"Sugars, total",g,--,--,25.00,43.86
Minerals
"Calcium, Ca",mg,--,--,100,175
"Iron, Fe",mg,--,--,1.04,1.83
"Sodium, Na",mg,--,--,200,351
Vitamins
"Vitamin C, total ascorbic acid",mg,--,--,0.0,0.0
"Vitamin A, IU",IU,--,--,0,0
Lipids
"Fatty acids, total saturated",g,--,--,4.497,7.890
"Fatty acids, total trans",g,--,--,0.000,0.000
"Cholesterol",mg,--,--,5,9
Amino Acids
Other
Ingredients
"DONUT: DONUT MIX (ENRICHED BLEACHED WHEAT FLOUR [WHEAT FLOUR, NIACIN, IRON, THIAMIN MONONITRATE, RIBOFLAVIN, FOLIC ACID], SUGAR, SOYBEAN OIL, DEXTROSE, DRIED WHEY [MILK], LEAVENING [SODIUM ACID PYROPHOSPHATE, SODIUM BICARBONATE AND MONOCALCIUM PHOSPHATE], SOY FLOUR, SALT, ENZYMES [WHEAT FLOUR, ENZYMES AND CANOLA OIL], POTATO FLOUR, DRIED EGG YOLK, PALM EMULSIFIER [MONO- AND DIGLYCERIDES AND CITRIC ACID], SOY LECITHIN, SPICES, NATURAL FLAVORS, VANILLIN, BETA CAROTENE [COLOR], AND DOUGH STABILIZER [TAPIOCA-CORN DEXTRIN, GUAR GUM, WHEAT STARCH, AND KARAYA GUM]), WATER, SUGAR, PALM OIL. DONUT COATING: POWDERED SUGAR, WATER, SUGAR, STABILIZER (CALCIUM CARBONATE, SUGAR, CALCIUM, SULFATE, DEXTROSE, AGAR, GUAR GUM, SODIUM HEXAMETAPHOSPHATE, MONOGLYCERIDES), PALM OIL, ARTIFICIAL FLAVOR, SALT." Date available: 07/14/2017 Date last updated by company: 07/14/2017
