Source: USDA Branded Food Products Database Release December 2017 Software v.3.8.6.4 2017-10-02
Report Run at: December 18, 2017 02:42 EST
"Nutrient data for: 45267016, OLD WORLD BRICK OVEN BREAD, FICELLE TWIN PACK, UPC: 072659311707"
Food Group:  Branded Food Products Database
Common Name:

Nutrient,Unit,Data points,Std. Error,"1 ROLL = 156.0g",1Value per 100 g,
Proximates
"Energy",kcal,--,--,381,244
Minerals
"Iron, Fe",mg,--,--,0.34,0.22
Vitamins
"Vitamin C, total ascorbic acid",mg,--,--,0.0,0.0
"Vitamin A, IU",IU,--,--,0,0
Lipids
Amino Acids
Other
Ingredients
"ENRICHED WHEAT FLOUR (CONTAINS NIACIN, REDUCED IRON, THIAMINE MONONITRATE, & RIBOFLAVIN, WATER, SALT, YEAST, CORN MEAL, ASCORBIC ACID, CALCIUM PROPIONATE, ENZYMES." Date available: 10/19/2017 Date last updated by company: 10/19/2017
