Source: USDA Branded Food Products Database Release December 2017 Software v.3.8.6.4 2017-10-02
Report Run at: December 18, 2017 02:33 EST
"Nutrient data for: 45148613, OLD FASHIONED HARD CANDY MIX, UPC: 078184339759"
Food Group:  Branded Food Products Database
Common Name:

Nutrient,Unit,Data points,Std. Error,"3.0 PCS = 16.0g",1Value per 100 g,
Proximates
"Energy",kcal,--,--,60,375
"Protein",g,--,--,0.00,0.00
"Total lipid (fat)",g,--,--,1.00,6.25
"Carbohydrate, by difference",g,--,--,16.00,100.00
"Fiber, total dietary",g,--,--,0.0,0.0
"Sugars, total",g,--,--,12.00,75.00
Minerals
"Calcium, Ca",mg,--,--,0,0
"Iron, Fe",mg,--,--,0.00,0.00
"Sodium, Na",mg,--,--,55,344
Vitamins
"Vitamin C, total ascorbic acid",mg,--,--,0.0,0.0
"Vitamin A, IU",IU,--,--,0,0
Lipids
"Fatty acids, total saturated",g,--,--,0.499,3.120
"Fatty acids, total trans",g,--,--,0.000,0.000
"Cholesterol",mg,--,--,5,31
Amino Acids
Other
Ingredients
"SUGAR, CORN SYRUP, WHOLE MILK, BUTTER (CREAM SALT), SOY LECITHIN (AN EMULSIFIER), FRUIT PULP, CITRIC ACID, SALT, TITANIUM DIOXIDE (FOR COLOR), CARAMEL COLOR, NATURAL AND ARTIFICIAL FLAVORS, ARTIFICIAL COLOR INCLUDING FD & C RED 40, YELLOW 5, YELLOW 6, BLUE 1, RED 3." Date available: 07/14/2017 Date last updated by company: 07/14/2017
