Source: USDA Branded Food Products Database Release December 2017 Software v.3.8.6.4 2017-10-02
Report Run at: December 18, 2017 02:42 EST
"Nutrient data for: 45206691, OLD WISCONSIN, TURKEY SAUSAGE SNACK STICKS, UPC: 073170127976"
Food Group:  Branded Food Products Database
Common Name:

Nutrient,Unit,Data points,Std. Error,"1 STICK = 14.0g",1Value per 100 g,
Proximates
"Energy",kcal,--,--,35,250
"Protein",g,--,--,3.00,21.43
"Total lipid (fat)",g,--,--,2.00,14.29
"Carbohydrate, by difference",g,--,--,2.00,14.29
"Fiber, total dietary",g,--,--,0.0,0.0
"Sugars, total",g,--,--,2.00,14.29
Minerals
"Calcium, Ca",mg,--,--,0,0
"Iron, Fe",mg,--,--,1.29,9.18
"Sodium, Na",mg,--,--,130,929
Vitamins
"Vitamin C, total ascorbic acid",mg,--,--,0.0,0.0
"Vitamin A, IU",IU,--,--,0,0
Lipids
"Fatty acids, total saturated",g,--,--,0.500,3.570
"Fatty acids, total trans",g,--,--,0.000,0.000
"Cholesterol",mg,--,--,10,71
Amino Acids
Other
Ingredients
"TURKEY, MECHANICALLY SEPARATED TURKEY, BROWN SUGAR, DRIED HONEY (REFINERY SYRUP, HONEY), CONTAINS 2% OR LESS OF: SALT, HYDROLYZED CORN PROTEIN, FRUCTOSE, LACTIC ACID STARTER CULTURE, NATURAL FLAVORING, SODIUM ERYTHORBATE (MADE FROM SUGAR), SODIUM NITRITE IN COLLAGEN CASING." Date available: 07/14/2017 Date last updated by company: 07/14/2017
