Source: USDA Branded Food Products Database Release December 2017 Software v.3.8.6.4 2017-10-02
Report Run at: December 18, 2017 02:27 EST
"Nutrient data for: 45311135, OLD EL PASO STAND N STUFF TACO DNR KT, UNPREPARED, GTIN: 00046000287362"
Food Group:  Branded Food Products Database
Common Name:

Nutrient,Unit,Data points,Std. Error,"2.0 shells, 1 1/3 tbsp taco sauce, 2 1/2 tsp seasoning mix (50g) = 50.0g",1Value per 100 g,
Proximates
"Energy",kcal,--,--,150,300
"Protein",g,--,--,2.00,4.00
"Total lipid (fat)",g,--,--,6.00,12.00
"Carbohydrate, by difference",g,--,--,21.00,42.00
"Fiber, total dietary",g,--,--,2.0,4.0
"Sugars, total",g,--,--,1.00,2.00
Minerals
"Calcium, Ca",mg,--,--,40,80
"Iron, Fe",mg,--,--,0.72,1.44
"Sodium, Na",mg,--,--,530,1060
Vitamins
"Vitamin C, total ascorbic acid",mg,--,--,0.0,0.0
"Vitamin A, IU",IU,--,--,400,800
Lipids
"Fatty acids, total saturated",g,--,--,2.500,5.000
"Fatty acids, total trans",g,--,--,0.000,0.000
"Cholesterol",mg,--,--,0,0
Amino Acids
Other
Ingredients
"TACO SHELLS: LIMED CORN FLOUR, PALM OIL, SALT.  TACO SAUCE: TOMATO PUREE (WATER, TOMATO PASTE), WATER. CONTAINS 2% OR LESS OF: SUGAR, SALT, MODIFIED CORN STARCH, DISTILLED VINEGAR, SPICE, SEA SALT, CITRIC ACID, GARLIC POWDER, ONION POWDER, CHILI PEPPER.  SEASONING MIX: CHILI PEPPER, MALTODEXTRIN, SALT, ONION POWDER, SPICE, CORN STARCH, SEA SALT. CONTAINS 2% OR LESS OF: VEGETABLE OIL (CANOLA, SOYBEAN AND/OR SUNFLOWER OIL), SILICON DIOXIDE (ANTICAKING AGENT), CITRIC ACID, SUGAR, NATURAL FLAVOR." Date available: 10/10/2017 Date last updated by company: 08/26/2017
