Source: USDA Branded Food Products Database Release December 2017 Software v.3.8.6.4 2017-10-02
Report Run at: December 18, 2017 02:27 EST
"Nutrient data for: 45310685, OLD EL PASO REFRIED BEANS TRADITIONAL, UNPREPARED, GTIN: 00046000821214"
Food Group:  Branded Food Products Database
Common Name:

Nutrient,Unit,Data points,Std. Error,"0.5 cup (120g) = 120.0g",1Value per 100 g,
Proximates
"Energy",kcal,--,--,110,92
"Protein",g,--,--,6.00,5.00
"Total lipid (fat)",g,--,--,2.50,2.08
"Carbohydrate, by difference",g,--,--,16.00,13.33
"Fiber, total dietary",g,--,--,6.0,5.0
"Sugars, total",g,--,--,0.00,0.00
Minerals
"Calcium, Ca",mg,--,--,20,17
"Iron, Fe",mg,--,--,1.08,0.90
"Sodium, Na",mg,--,--,440,367
Vitamins
"Vitamin C, total ascorbic acid",mg,--,--,0.0,0.0
"Vitamin A, IU",IU,--,--,0,0
Lipids
"Fatty acids, total saturated",g,--,--,0.996,0.830
"Fatty acids, total trans",g,--,--,0.000,0.000
"Cholesterol",mg,--,--,5,4
Amino Acids
Other
Ingredients
"3COOKED PINTO BEANS, WATER. CONTAINS 2% OR LESS OF: LARD, SALT, VINEGAR, ONION POWDER, HYDROGENATED LARD, GARLIC POWDER, SPICE, CHILI PEPPER." Date available: 10/10/2017 Date last updated by company: 07/02/2017
