Source: USDA Branded Food Products Database Release December 2017 Software v.3.8.6.4 2017-10-02
Report Run at: December 18, 2017 02:33 EST
"Nutrient data for: 45290780, OLD FASHIONED LEMONADE, UPC: 041318590326"
Food Group:  Branded Food Products Database
Common Name:

Nutrient,Unit,Data points,Std. Error,"12.0 OZA = 360.0g",1Value per 100 g,
Proximates
"Energy",kcal,--,--,180,50
"Protein",g,--,--,0.00,0.00
"Total lipid (fat)",g,--,--,0.00,0.00
"Carbohydrate, by difference",g,--,--,42.98,11.94
"Fiber, total dietary",g,--,--,0.0,0.0
"Sugars, total",g,--,--,42.98,11.94
Minerals
"Calcium, Ca",mg,--,--,14,4
"Iron, Fe",mg,--,--,0.00,0.00
"Sodium, Na",mg,--,--,14,4
Vitamins
"Vitamin D",IU,--,--,0,0
Lipids
"Fatty acids, total saturated",g,--,--,0.000,0.000
"Fatty acids, total trans",g,--,--,0.000,0.000
"Cholesterol",mg,--,--,0,0
Amino Acids
Other
Ingredients
"FILTERED WATER, SUGAR, CONCENTRATED LEMON JUICE, LEMON PULP." Date available: 07/14/2017 Date last updated by company: 07/14/2017
