Source: USDA Branded Food Products Database Release December 2017 Software v.3.8.6.4 2017-10-02
Report Run at: December 18, 2017 02:41 EST
"Nutrient data for: 45206564, OLD WISCONSIN, NATURAL CUT, BEEF SNACK STICKS, UPC: 073170622020"
Food Group:  Branded Food Products Database
Common Name:

Nutrient,Unit,Data points,Std. Error,"1 STICK = 25.0g",1Value per 100 g,
Proximates
"Energy",kcal,--,--,70,280
"Protein",g,--,--,4.00,16.00
"Total lipid (fat)",g,--,--,6.00,24.00
"Carbohydrate, by difference",g,--,--,1.00,4.00
"Fiber, total dietary",g,--,--,0.0,0.0
"Sugars, total",g,--,--,1.00,4.00
Minerals
"Calcium, Ca",mg,--,--,0,0
"Iron, Fe",mg,--,--,0.72,2.88
"Sodium, Na",mg,--,--,270,1080
Vitamins
"Vitamin C, total ascorbic acid",mg,--,--,0.0,0.0
"Vitamin A, IU",IU,--,--,0,0
Lipids
"Fatty acids, total saturated",g,--,--,2.500,10.000
"Fatty acids, total trans",g,--,--,0.000,0.000
"Cholesterol",mg,--,--,15,60
Amino Acids
Other
Ingredients
"BEEF, SEA SALT, CONTAINS 2% OR LESS OF: EVAPORATED CANE SUGAR, SPICES, MUSTARD SEED, CELERY JUICE SOLIDS, CHERRY JUICE SOLIDS, LACTIC ACID STARTER CULTURE, NATURAL FLAVOR, SMOKE FLAVORING, YEAST EXTRACT." Date available: 08/22/2017 Date last updated by company: 08/22/2017
