Source: USDA Branded Food Products Database Release December 2017 Software v.3.8.6.4 2017-10-02
Report Run at: December 18, 2017 02:39 EST
"Nutrient data for: 45216659, OLDMILL BREAD CO, OAT BRAN, UPC: 664541000068"
Food Group:  Branded Food Products Database
Common Name:

Nutrient,Unit,Data points,Std. Error,"1 SLICE = 41.0g",1Value per 100 g,
Proximates
"Energy",kcal,--,--,101,246
"Protein",g,--,--,5.00,12.20
"Total lipid (fat)",g,--,--,0.00,0.00
"Carbohydrate, by difference",g,--,--,23.00,56.10
"Fiber, total dietary",g,--,--,2.0,4.9
"Sugars, total",g,--,--,4.00,9.76
Minerals
"Sodium, Na",mg,--,--,160,390
Vitamins
Lipids
"Fatty acids, total saturated",g,--,--,0.000,0.000
"Cholesterol",mg,--,--,0,0
Amino Acids
Other
Ingredients
"UNBLEACHED WHEAT FLOUR, WATER, HONEY, OAT BRAN, FRESHLY MILLED WHOLE WHEAT FLOUR, ROLLED OATS, SALT, YEAST, SOY LECITHIN." Date available: 07/14/2017 Date last updated by company: 07/14/2017
