Source: USDA Branded Food Products Database Release December 2017 Software v.3.8.6.4 2017-10-02
Report Run at: December 18, 2017 02:49 EST
"Nutrient data for: 45270639, OLIVES STUFFED WITH REAL GARLIC, UPC: 051933354692"
Food Group:  Branded Food Products Database
Common Name:

Nutrient,Unit,Data points,Std. Error,"1 OLIVE = 10.0g",1Value per 100 g,
Proximates
"Energy",kcal,--,--,15,150
"Protein",g,--,--,0.00,0.00
"Total lipid (fat)",g,--,--,1.50,15.00
"Carbohydrate, by difference",g,--,--,0.00,0.00
"Fiber, total dietary",g,--,--,0.0,0.0
"Sugars, total",g,--,--,0.00,0.00
Minerals
"Sodium, Na",mg,--,--,170,1700
Vitamins
Lipids
"Fatty acids, total saturated",g,--,--,0.000,0.000
"Fatty acids, total trans",g,--,--,0.000,0.000
"Cholesterol",mg,--,--,0,0
Amino Acids
Other
Ingredients
"QUEEN OLIVES, WATER, GARLIC (CITRIC ACID, ACETIC ACID, SODIUM SULFITE), SALT AND LACTIC ACID." Date available: 07/14/2017 Date last updated by company: 07/14/2017
