Source: USDA Branded Food Products Database Release December 2017 Software v.3.8.6.4 2017-10-02
Report Run at: December 18, 2017 02:48 EST
"Nutrient data for: 45286121, OLIVE OIL & VINEGAR, UPC: 041335363804"
Food Group:  Branded Food Products Database
Common Name:

Nutrient,Unit,Data points,Std. Error,"2.0 Tbsp = 30.0g",1Value per 100 g,
Proximates
"Energy",kcal,--,--,140,467
"Protein",g,--,--,0.00,0.00
"Total lipid (fat)",g,--,--,15.00,50.00
"Carbohydrate, by difference",g,--,--,1.00,3.33
"Fiber, total dietary",g,--,--,0.0,0.0
"Sugars, total",g,--,--,1.00,3.33
Minerals
"Calcium, Ca",mg,--,--,0,0
"Iron, Fe",mg,--,--,0.00,0.00
"Sodium, Na",mg,--,--,260,867
Vitamins
"Vitamin C, total ascorbic acid",mg,--,--,0.0,0.0
"Vitamin A, IU",IU,--,--,0,0
Lipids
"Fatty acids, total saturated",g,--,--,1.500,5.000
"Fatty acids, total trans",g,--,--,0.000,0.000
"Cholesterol",mg,--,--,0,0
Amino Acids
Other
Ingredients
"BLEND OF VEGETABLE OILS (CANOLA OIL, OLIVE OIL, EXTRA VIRGIN OLIVE OIL), VINEGAR, WATER, SALT, SUGAR, CONTAINS LESS THAN 2% OF GARLIC, SPICE, LEMON JUICE CONCENTRATE, ONION JUICE POWDER, GARLIC POWDER, XANTHAN GUM, MUSTARD SEED, TURMERIC EXTRACT (COLOR)." Date available: 07/14/2017 Date last updated by company: 07/14/2017
