Source: USDA Branded Food Products Database Release December 2017 Software v.3.8.6.4 2017-10-02
Report Run at: December 18, 2017 02:46 EST
"Nutrient data for: 45188925, OLIVE OIL, UPC: 8054726882015"
Food Group:  Branded Food Products Database
Common Name:

Nutrient,Unit,Data points,Std. Error,"1 Tbsp = 16.0g",1Value per 100 g,
Proximates
"Energy",kcal,--,--,133,834
"Total lipid (fat)",g,--,--,14.83,92.69
"Carbohydrate, by difference",g,--,--,0.00,0.00
"Fiber, total dietary",g,--,--,0.0,0.0
"Sugars, total",g,--,--,0.00,0.00
Minerals
"Sodium, Na",mg,--,--,60,375
Vitamins
Lipids
"Fatty acids, total saturated",g,--,--,2.381,14.880
"Cholesterol",mg,--,--,0,0
Amino Acids
Other
Ingredients
"OLIVE OIL, BLACK TRUFFLE AROMA." Date available: 08/15/2017 Date last updated by company: 08/15/2017
