Source: USDA Branded Food Products Database Release December 2017 Software v.3.8.6.4 2017-10-02
Report Run at: December 18, 2017 02:53 EST
"Nutrient data for: 45202242, OMEGA GRANOLA BARS, UPC: 815506015690"
Food Group:  Branded Food Products Database
Common Name:

Nutrient,Unit,Data points,Std. Error,"1 BAR = 40.0g",1Value per 100 g,
Proximates
"Energy",kcal,--,--,170,425
"Protein",g,--,--,3.00,7.50
"Total lipid (fat)",g,--,--,4.00,10.00
"Carbohydrate, by difference",g,--,--,30.00,75.00
"Fiber, total dietary",g,--,--,8.0,20.0
"Sugars, total",g,--,--,9.00,22.50
Minerals
"Calcium, Ca",mg,--,--,40,100
"Iron, Fe",mg,--,--,0.72,1.80
"Sodium, Na",mg,--,--,40,100
Vitamins
"Vitamin C, total ascorbic acid",mg,--,--,0.0,0.0
"Vitamin A, IU",IU,--,--,0,0
Lipids
"Fatty acids, total saturated",g,--,--,1.000,2.500
"Fatty acids, total monounsaturated",g,--,--,1.000,2.500
"Fatty acids, total polyunsaturated",g,--,--,2.000,5.000
"Fatty acids, total trans",g,--,--,0.000,0.000
"Cholesterol",mg,--,--,0,0
Amino Acids
Other
Ingredients
"GRANOLA CEREAL (WHOLE GRAIN ROLLED OATS, WHOLE GRAIN WHEAT FLAKES, CRISP RICE [RICE FLOUR, CANE SUGAR, SALT, CALCIUM CARBONATE, MALT EXTRACT, MONOGLYCERIDES], BROWN SUGAR, MODIFIED MILK INGREDIENTS, CHIA SEED MEAL, SOYBEAN OIL, PUMPKIN SEED KERNELS, DRIED APPLE PIECES, ROASTED SUNFLOWER SEED KERNELS, BROWN FLAX SEED MEAL, SOY FIBER, SLICED ALMONDS, HONEY, NATURAL FLAVORS), CHICORY INULIN, BROWN RICE SYRUP, HONEY, DICED CRANBERRIES (DRIED CRANBERRIES, CANE SUGAR, SUNFLOWER OIL), SOY LECITHIN (EMULSIFIER), MALIC ACID, NATURAL FLAVOR." Date available: 10/13/2017 Date last updated by company: 10/13/2017
