Source: USDA Branded Food Products Database Release December 2017 Software v.3.8.6.4 2017-10-02
Report Run at: December 18, 2017 02:58 EST
"Nutrient data for: 45264015, ONION RINGS, UPC: 041262271418"
Food Group:  Branded Food Products Database
Common Name:

Nutrient,Unit,Data points,Std. Error,"29.0 RINGS = 28.0g",1Value per 100 g,
Proximates
"Energy",kcal,--,--,140,500
"Protein",g,--,--,0.00,0.00
"Total lipid (fat)",g,--,--,6.00,21.43
"Carbohydrate, by difference",g,--,--,20.00,71.43
"Fiber, total dietary",g,--,--,0.0,0.0
"Sugars, total",g,--,--,0.00,0.00
Minerals
"Calcium, Ca",mg,--,--,20,71
"Iron, Fe",mg,--,--,0.64,2.29
"Sodium, Na",mg,--,--,360,1286
Vitamins
"Vitamin C, total ascorbic acid",mg,--,--,0.0,0.0
"Vitamin A, IU",IU,--,--,0,0
Lipids
"Fatty acids, total saturated",g,--,--,1.501,5.360
"Fatty acids, total trans",g,--,--,0.000,0.000
"Cholesterol",mg,--,--,0,0
Amino Acids
Other
Ingredients
"MODIFIED CORN STARCH, TAPIOCA STARCH, VEGETABLE OIL (CONTAINS ONE OR MORE OF THE FOLLOWING: CORN, COTTONSEED, SUNFLOWER, OR CANOLA OIL), ONION POWDER, POTATO FLOUR, SALT, SUGAR, TORULA YEAST, HYDROLYZED TORULA YEAST PROTEINS, HYDROLYZED BREWERS YEAST PROTEINS, MONOSODIUM GLUTAMATE (FLAVOR ENHANCER), GARLIC POWDER, PAPRIKA, SPICE EXTRACTIVE FLAVORINGS, YELLOW #5, YELLOW #6, RED #3, BLUE #1." Date available: 07/14/2017 Date last updated by company: 07/14/2017
