Source: USDA Branded Food Products Database Release December 2017 Software v.3.8.6.4 2017-10-02
Report Run at: December 18, 2017 02:58 EST
"Nutrient data for: 45290449, ONION RINGS, UPC: 856339006080"
Food Group:  Branded Food Products Database
Common Name:

Nutrient,Unit,Data points,Std. Error,"1 PACKAGE = 28.0g",1Value per 100 g,
Proximates
"Energy",kcal,--,--,130,464
"Protein",g,--,--,2.00,7.14
"Total lipid (fat)",g,--,--,6.00,21.43
"Carbohydrate, by difference",g,--,--,17.00,60.71
"Fiber, total dietary",g,--,--,1.0,3.6
"Sugars, total",g,--,--,1.00,3.57
Minerals
"Calcium, Ca",mg,--,--,0,0
"Iron, Fe",mg,--,--,0.64,2.29
"Sodium, Na",mg,--,--,350,1250
Vitamins
"Vitamin C, total ascorbic acid",mg,--,--,0.0,0.0
"Vitamin A, IU",IU,--,--,0,0
Lipids
"Fatty acids, total saturated",g,--,--,1.000,3.570
"Fatty acids, total trans",g,--,--,0.000,0.000
"Cholesterol",mg,--,--,0,0
Amino Acids
Other
Ingredients
"ENRICHED CORN MEAL, VEGETABLE OIL, (ONE OR MORE OF THE FOLLOWING: SOYBEAN, COTTON SEED, CORN, PALM) ONION RING SEASONING (RICE FLOUR, WHEY, MONOSODIUM GLUTAMATE, CORN OIL, BUTTER MILK POWDER, CARAMEL COLOR, NATURAL FLAVORS, CORN SYRUP SOLIDS, MALTODEXTRIN, SODIUM CASEINATE, LACTIC ACID, FOLIC ACID, DISODIUM INOSINATE AND DISODIUM GUANYLATE, YELLOW 5 LAKE, RED 4 LAKE TURMERIC EXTRACT FOR COLOR, ONION POWDER, GARLIC POWDER, CANOLA OIL, ARTIFICIAL FLAVOR, BHT AND PROPYL GALLATE TO PROTECT FLAVOR, LESS THAN 2% OF SILICON DIOXIDE FOR ANTI-CAKING), FLOUR SALT, GUM ARABIC" Date available: 07/14/2017 Date last updated by company: 07/14/2017
