Source: USDA Branded Food Products Database Release December 2017 Software v.3.8.6.4 2017-10-02
Report Run at: December 18, 2017 03:05 EST
"Nutrient data for: 45123936, OODLES OF NOODLES, RAMEN NOODLE SOUP, UPC: 070662015032"
Food Group:  Branded Food Products Database
Common Name:

Nutrient,Unit,Data points,Std. Error,"0.5 DRY NOODLE BLOCK | ABOUT = 42.0g",1Value per 100 g,
Proximates
"Energy",kcal,--,--,190,452
"Protein",g,--,--,5.00,11.90
"Total lipid (fat)",g,--,--,7.00,16.67
"Carbohydrate, by difference",g,--,--,26.00,61.90
"Fiber, total dietary",g,--,--,2.0,4.8
"Sugars, total",g,--,--,1.00,2.38
Minerals
"Calcium, Ca",mg,--,--,0,0
"Iron, Fe",mg,--,--,2.14,5.10
"Sodium, Na",mg,--,--,910,2167
Vitamins
"Vitamin C, total ascorbic acid",mg,--,--,0.0,0.0
"Vitamin A, IU",IU,--,--,0,0
Lipids
"Fatty acids, total saturated",g,--,--,3.499,8.330
"Fatty acids, total trans",g,--,--,0.000,0.000
"Cholesterol",mg,--,--,0,0
Amino Acids
Other
Ingredients
"ENRICHED FLOUR (WHEAT FLOUR, NIACIN, REDUCED IRON, THIAMINE MONONITRATE, RIBOFLAVIN, FOLIC ACID), PALM OIL, SALT, CONTAINS LESS THAN 2% OF MONOSODIUM GLUTAMATE, HYDROLYZED CORN PROTEIN, POWDERED CHICKEN, ONION POWDER, GARLIC POWDER, SPICE AND COLOR, SODIUM CARBONATE, MALTODEXTRIN, CALCIUM SILICATE, SODIUM TRIPOLYPHOSPHATE, HYDROLYZED SOY PROTEIN, WHEAT, SOYBEAN, SUGAR, AUTOLYZED YEAST EXTRACT, RENDERED CHICKEN FAT, DRIED LEEK FLAKE, CITRIC ACID, NATURAL AND ARTIFICIAL FLAVOR, DISODIUM GUANYLATE, DISODIUM INOSINATE, SODIUM ALGINATE, TBHQ (PRESERVATIVE), POTASSIUM CARBONATE." Date available: 07/14/2017 Date last updated by company: 07/14/2017
