Source: USDA Branded Food Products Database Release December 2017 Software v.3.8.6.4 2017-10-02
Report Run at: December 18, 2017 03:11 EST
"Nutrient data for: 45095500, OPEN NATURE, ROASTED RED PEPPER HUMMUS, UPC: 079893110202"
Food Group:  Branded Food Products Database
Common Name:

Nutrient,Unit,Data points,Std. Error,"1 ONZ = 28.0g",1Value per 100 g,
Proximates
"Energy",kcal,--,--,80,286
"Protein",g,--,--,2.00,7.14
"Total lipid (fat)",g,--,--,6.00,21.43
"Carbohydrate, by difference",g,--,--,5.00,17.86
"Fiber, total dietary",g,--,--,1.0,3.6
"Sugars, total",g,--,--,1.00,3.57
Minerals
"Calcium, Ca",mg,--,--,20,71
"Iron, Fe",mg,--,--,1.29,4.59
"Sodium, Na",mg,--,--,150,536
Vitamins
"Vitamin C, total ascorbic acid",mg,--,--,6.4,22.9
"Vitamin A, IU",IU,--,--,179,638
Lipids
"Fatty acids, total saturated",g,--,--,0.501,1.790
"Fatty acids, total trans",g,--,--,0.000,0.000
"Cholesterol",mg,--,--,0,0
Amino Acids
Other
Ingredients
"CHICKPEAS (CHICKPEAS AND WATER), SESAME TAHINI, CANOLA OIL, ROASTED RED PEPPER, PEPPADEW PEPPER (SWEET PIQUANTE PEPPER, WATER, SUGAR, VINEGAR, SALT, CITRIC ACID, ASCORBIC ACID, CALCIUM CHLORIDE), SEA SALT, GARLIC, PAPRIKA, CITRIC ACID, GARLIC POWDER, SMOKED PAPRIKA." Date available: 06/25/2017 Date last updated by company: 06/25/2017
