Source: USDA Branded Food Products Database Release December 2017 Software v.3.8.6.4 2017-10-02
Report Run at: December 18, 2017 03:11 EST
"Nutrient data for: 45148710, OPEN NATURE, PITA CHIPS WITH GARDEN HERBS, UPC: 079893112848"
Food Group:  Branded Food Products Database
Common Name:

Nutrient,Unit,Data points,Std. Error,"9.0 CHIPS | ABOUT = 28.0g",1Value per 100 g,
Proximates
"Energy",kcal,--,--,130,464
"Protein",g,--,--,4.00,14.29
"Total lipid (fat)",g,--,--,5.00,17.86
"Carbohydrate, by difference",g,--,--,18.00,64.29
"Fiber, total dietary",g,--,--,2.0,7.1
"Sugars, total",g,--,--,1.00,3.57
Minerals
"Calcium, Ca",mg,--,--,0,0
"Iron, Fe",mg,--,--,1.29,4.59
"Sodium, Na",mg,--,--,150,536
Vitamins
"Vitamin C, total ascorbic acid",mg,--,--,0.0,0.0
"Vitamin A, IU",IU,--,--,0,0
Lipids
"Fatty acids, total saturated",g,--,--,0.000,0.000
"Fatty acids, total trans",g,--,--,0.000,0.000
"Cholesterol",mg,--,--,0,0
Amino Acids
Other
Ingredients
"WHOLE WHEAT FLOUR, WHEAT FLOUR, HIGH OLEIC SUNFLOWER OIL (TOCOPHEROLS AND ROSEMARY EXTRACT [TO PRESERVE FRESHNESS]), SUGAR, LESS THAN 2% OF: ONION AND GARLIC POWDERS, SESAME SEEDS, YEAST, SALT, FLAXSEED, OAT BRAN, RED AND GREEN BELL PEPPER POWDER, TOMATO POWDER, INACTIVATED YEAST, DRIED PARSLEY, DRIED LEMON PEEL, CARROT POWDER, SPICES, BARLEY MALT FLOUR." Date available: 07/14/2017 Date last updated by company: 07/14/2017
