Source: USDA Branded Food Products Database Release December 2017 Software v.3.8.6.4 2017-10-02
Report Run at: December 18, 2017 03:24 EST
"Nutrient data for: 45236487, ORANGE SWEET ROLLS WITH ICING, UPC: 078742235684"
Food Group:  Branded Food Products Database
Common Name:

Nutrient,Unit,Data points,Std. Error,"1 ROLL WITH ICING = 49.0g",1Value per 100 g,
Proximates
"Energy",kcal,--,--,170,347
"Protein",g,--,--,2.00,4.08
"Total lipid (fat)",g,--,--,6.00,12.24
"Carbohydrate, by difference",g,--,--,26.00,53.06
"Fiber, total dietary",g,--,--,1.0,2.0
"Sugars, total",g,--,--,12.00,24.49
Minerals
"Calcium, Ca",mg,--,--,0,0
"Iron, Fe",mg,--,--,0.73,1.50
"Potassium, K",mg,--,--,0,0
"Sodium, Na",mg,--,--,280,571
Vitamins
"Vitamin C, total ascorbic acid",mg,--,--,0.0,0.0
"Thiamin",mg,--,--,0.000,0.000
"Riboflavin",mg,--,--,0.068,0.139
"Niacin",mg,--,--,0.816,1.665
"Vitamin A, IU",IU,--,--,0,0
Lipids
"Fatty acids, total saturated",g,--,--,2.499,5.100
"Fatty acids, total monounsaturated",g,--,--,1.999,4.080
"Fatty acids, total polyunsaturated",g,--,--,1.000,2.040
"Fatty acids, total trans",g,--,--,0.000,0.000
"Cholesterol",mg,--,--,0,0
Amino Acids
Other
Ingredients
"ENRICHED BLEACHED FLOUR [WHEAT FLOUR, NIACIN, IRON, THIAMINE MONONITRATE (VITAMIN B1), RIBOFLAVIN (VITAMIN B2), FOLIC ACID], SUGAR, WATER, VEGETABLE OIL (PALM, SOYBEAN AND/OR COTTONSEED OILS), WHEY. CONTAINS 2% OR LESS OF EACH OF THE FOLLOWING: DEXTROSE, LEAVENING (SODIUM ACID PYROPHOSPHATE, BAKING SODA), CORN SYRUP, CORNSTARCH, CINNAMON, SALT, SODIUM STEAROYL LACTYLATE, XANTHAN GUM, GUAR GUM, CAROB BEAN GUM, POLYSORBATE 60, CITRIC ACID, NATURAL AND ARTIFICIAL FLAVORS, COLORED WITH (YELLOW 5, RED 40, YELLOW 6, CARAMEL COLOR), MALT SYRUP, MONO- AND DIGLYCERIDES, SOY FLOUR." Date available: 06/25/2017 Date last updated by company: 06/25/2017
