Source: USDA Branded Food Products Database Release December 2017 Software v.3.8.6.4 2017-10-02
Report Run at: December 18, 2017 03:22 EST
"Nutrient data for: 45151472, ORANGE PUNCH, UPC: 041152423521"
Food Group:  Branded Food Products Database
Common Name:

Nutrient,Unit,Data points,Std. Error,"8.0 OZA = 240.0g",1Value per 100 g,
Proximates
"Energy",kcal,--,--,29,12
"Protein",g,--,--,0.00,0.00
"Total lipid (fat)",g,--,--,0.00,0.00
"Carbohydrate, by difference",g,--,--,7.01,2.92
"Sugars, total",g,--,--,7.01,2.92
Minerals
"Sodium, Na",mg,--,--,36,15
Vitamins
"Vitamin C, total ascorbic acid",mg,--,--,6.0,2.5
Lipids
Amino Acids
Other
Ingredients
"FILTERED WATER, HIGH FRUCTOSE CORN SYRUP, CITRIC ACID, NATURAL FLAVORS, GUM ARABIC, MEDIUM CHAIN TRIGLYCERIDES, ESTER GUM, SUCRALOSE, ASCORBIC ACID (VITAMIN C), YELLOW 6." Date available: 07/14/2017 Date last updated by company: 07/14/2017
