Source: USDA Branded Food Products Database Release December 2017 Software v.3.8.6.4 2017-10-02
Report Run at: December 18, 2017 03:25 EST
"Nutrient data for: 45081730, ORANGE TWIN POPS, UPC: 076197003674"
Food Group:  Branded Food Products Database
Common Name:

Nutrient,Unit,Data points,Std. Error,"1 POP = 79.0g",1Value per 100 g,
Proximates
"Energy",kcal,--,--,60,76
"Protein",g,--,--,0.00,0.00
"Total lipid (fat)",g,--,--,0.00,0.00
"Carbohydrate, by difference",g,--,--,15.00,18.99
"Fiber, total dietary",g,--,--,0.0,0.0
"Sugars, total",g,--,--,12.00,15.19
Minerals
"Calcium, Ca",mg,--,--,0,0
"Iron, Fe",mg,--,--,0.00,0.00
"Sodium, Na",mg,--,--,0,0
Vitamins
"Vitamin C, total ascorbic acid",mg,--,--,0.0,0.0
"Vitamin A, IU",IU,--,--,0,0
Lipids
"Fatty acids, total saturated",g,--,--,0.000,0.000
"Fatty acids, total trans",g,--,--,0.000,0.000
"Cholesterol",mg,--,--,0,0
Amino Acids
Other
Ingredients
"WATER, SUGAR, HIGH FRUCTOSE CORN SYRUP, CORN SYRUP, CONTAINS LESS THAN 2% OF GUAR GUM, CITRIC ACID, NATURAL FLAVORS, XANTHAN GUM, YELLOW 6, RED 40." Date available: 07/14/2017 Date last updated by company: 07/14/2017
