Source: USDA Branded Food Products Database Release December 2017 Software v.3.8.6.4 2017-10-02
Report Run at: December 18, 2017 03:13 EST
"Nutrient data for: 45051393, ORANGE CHICKEN, UPC: 041497034048"
Food Group:  Branded Food Products Database
Common Name:

Nutrient,Unit,Data points,Std. Error,"1 PACKAGE = 283.0g",1Value per 100 g,
Proximates
"Energy",kcal,--,--,379,134
"Protein",g,--,--,8.01,2.83
"Total lipid (fat)",g,--,--,4.50,1.59
"Carbohydrate, by difference",g,--,--,77.00,27.21
"Fiber, total dietary",g,--,--,2.0,0.7
"Sugars, total",g,--,--,30.99,10.95
Minerals
"Calcium, Ca",mg,--,--,40,14
"Iron, Fe",mg,--,--,1.25,0.44
"Sodium, Na",mg,--,--,770,272
Vitamins
"Vitamin C, total ascorbic acid",mg,--,--,8.2,2.9
"Vitamin A, IU",IU,--,--,1723,609
Lipids
"Fatty acids, total saturated",g,--,--,0.509,0.180
"Fatty acids, total trans",g,--,--,0.000,0.000
"Cholesterol",mg,--,--,11,4
Amino Acids
Other
Ingredients
"COOKED RICE. SAUCE: WATER, SUGAR, WINE VINEGAR, SOY SAUCE (WATER, WHEAT, SOYBEAN, SALT), ORANGE JUICE CONCENTRATE, CORN STARCH, GINGER, LESS THAN 2% OF THE FOLLOWING: HONEY, SALT, GARLIC, XANTHAN GUM, EXTRACTIVES OF PAPRIKA. TEMPURA CHICKEN: CHICKEN WHITE MEAT, WATER, POTATO AND CORN STARCH, SALT, YEAST EXTARCT, SPICES. COATING: WATER, ENRICHED FLOUR, (WHEAT FLOUR, NIACIN, IRON, THIAMINE MONONITRATE, RIBOFLAVIN, FOLIC ACID), CORN STARCH, VEGETABLE OIL (SOYBEAN, CORN, AND/OR SUNFLOWER OIL), LEAVENING (SODIUM ACID PYROPHOSPHATE, SODIUM BICARBONATE), SALT, YEAST EXTRACT, EGGS." Date available: 10/15/2017 Date last updated by company: 10/15/2017
