Source: USDA Branded Food Products Database Release December 2017 Software v.3.8.6.4 2017-10-02
Report Run at: December 18, 2017 03:14 EST
"Nutrient data for: 45281143, ORANGE CREAM BARS, UPC: 085239734339"
Food Group:  Branded Food Products Database
Common Name:

Nutrient,Unit,Data points,Std. Error,"1 BAR = 50.0g",1Value per 100 g,
Proximates
"Energy",kcal,--,--,70,140
"Protein",g,--,--,1.00,2.00
"Total lipid (fat)",g,--,--,1.00,2.00
"Carbohydrate, by difference",g,--,--,15.00,30.00
"Fiber, total dietary",g,--,--,0.0,0.0
"Sugars, total",g,--,--,10.00,20.00
Minerals
"Calcium, Ca",mg,--,--,40,80
"Iron, Fe",mg,--,--,0.00,0.00
"Sodium, Na",mg,--,--,20,40
Vitamins
"Vitamin C, total ascorbic acid",mg,--,--,0.0,0.0
"Vitamin A, IU",IU,--,--,0,0
Lipids
"Fatty acids, total saturated",g,--,--,0.500,1.000
"Fatty acids, total trans",g,--,--,0.000,0.000
"Cholesterol",mg,--,--,5,10
Amino Acids
Other
Ingredients
"ORANGE SHERBET: WATER, SUGAR, CORN SYRUP, NONFAT MILK, CREAM, CONTAINS LESS THAN 2% OF WHEY, CITRIC ACID, CONCENTRATED ORANGE JUICE, GUAR GUM, MONO AND DIGLYCERIDES, LOCUST BEAN GUM, NATURAL FLAVOR, CALCIUM SULFATE, POLYSORBATE 80, YELLOW 6. FROZEN DAIRY DESSERT: NONFAT MILK, SUGAR, CORN SYRUP, SWEET CREAM BUTTERMILK, CREAM, HIGH FRUCTOSE CORN SYRUP, WHEY PROTEIN CONCENTRATE, WHEY, CONTAINS LESS THAN 2% OF ARTIFICIAL FLAVOR, GUAR GUM, MONO AND DIGLYCERIDE, XANTHAN GUM, POLYSORBATE 80, CARRAGEENAN." Date available: 07/14/2017 Date last updated by company: 07/14/2017
