Source: USDA Branded Food Products Database Release December 2017 Software v.3.8.6.4 2017-10-02
Report Run at: December 18, 2017 03:24 EST
"Nutrient data for: 45137109, ORANGE SODA, UPC: 011161022473"
Food Group:  Branded Food Products Database
Common Name:

Nutrient,Unit,Data points,Std. Error,"1 CAN = 355.0g",1Value per 100 g,
Proximates
"Energy",kcal,--,--,199,56
"Protein",g,--,--,0.00,0.00
"Total lipid (fat)",g,--,--,0.00,0.00
"Carbohydrate, by difference",g,--,--,48.99,13.80
"Sugars, total",g,--,--,48.99,13.80
Minerals
"Sodium, Na",mg,--,--,28,8
Vitamins
Lipids
Amino Acids
Other
Ingredients
"CARBONATED WATER, HIGH FRUCTOSE CORN SYRUP, CITRIC ACID, SODIUM BENZOATE (PRESERVATIVE), GUM ACACIA, NATURAL FLAVORS, GLYCEROL ESTER OF WOOD ROSIN, YELLOW #6 AND RED #40." Date available: 06/25/2017 Date last updated by company: 06/25/2017
