Source: USDA Branded Food Products Database Release December 2017 Software v.3.8.6.4 2017-10-02
Report Run at: December 18, 2017 03:25 EST
"Nutrient data for: 45211752, ORANGE TORTAS, UPC: 8437010259722"
Food Group:  Branded Food Products Database
Common Name:

Nutrient,Unit,Data points,Std. Error,"100.0 GRM = 100.0g",1Value per 100 g,
Proximates
"Energy",kcal,--,--,473,473
"Protein",g,--,--,6.75,6.75
"Total lipid (fat)",g,--,--,19.53,19.53
"Carbohydrate, by difference",g,--,--,67.43,67.43
"Fiber, total dietary",g,--,--,0.5,0.5
"Sugars, total",g,--,--,17.90,17.90
Minerals
Vitamins
Lipids
"Fatty acids, total saturated",g,--,--,2.940,2.940
"Fatty acids, total trans",g,--,--,0.000,0.000
"Cholesterol",mg,--,--,0,0
Amino Acids
Other
Ingredients
"UNBLEACHED WHEAT FLOUR, EXTRA VIRGIN OLIVE OIL (17%), WATER, PURE CANE SUGAR, NATURAL ORANGE ZEST (10%) AND SALT." Date available: 11/25/2016 Date last updated by company: 11/25/2016
