Source: USDA Branded Food Products Database Release December 2017 Software v.3.8.6.4 2017-10-02
Report Run at: December 18, 2017 03:12 EST
"Nutrient data for: 45123871, ORANGE CHICKEN BREAST, UPC: 695119120109"
Food Group:  Branded Food Products Database
Common Name:

Nutrient,Unit,Data points,Std. Error,"1 cup = 178.0g",1Value per 100 g,
Proximates
"Energy",kcal,--,--,420,236
"Protein",g,--,--,16.00,8.99
"Total lipid (fat)",g,--,--,11.00,6.18
"Carbohydrate, by difference",g,--,--,64.01,35.96
"Fiber, total dietary",g,--,--,1.1,0.6
"Sugars, total",g,--,--,29.99,16.85
Minerals
"Calcium, Ca",mg,--,--,0,0
"Iron, Fe",mg,--,--,0.78,0.44
"Sodium, Na",mg,--,--,749,421
Vitamins
"Vitamin C, total ascorbic acid",mg,--,--,0.0,0.0
"Vitamin A, IU",IU,--,--,329,185
Lipids
"Fatty acids, total saturated",g,--,--,1.495,0.840
"Fatty acids, total trans",g,--,--,0.000,0.000
"Cholesterol",mg,--,--,25,14
Amino Acids
Other
Ingredients
"CHICKEN: CHICKEN BREAST MEAT, WATER, CORNSTARCH, BLEACHED ENRICHED FLOUR (WHEAT FLOUR, NIACIN, IRON, THIAMINE MONONITRATE, RIBOFLAVIN, FOLIC ACID). CONTAINS LESS THAN 2% OF DEXTRIN, EGG WHITES, EGG YOLKS, LEAVENING (SODIUM ACID PYROPHOSPHATE, SODIUM BICARBONATE, MONOCALCIUM PHOSPHATE), MODIFIED POTATO STARCH, NONFAT DRY MILK, RICE FLOUR, SALT, SODIUM PHOSPHATE, XANTHAN GUM. COOKED IN VEGETABLE OIL. ORANGE SAUCE: WATER, HIGH FRUCTOSE CORN SYRUP, SUGAR, DISTILLED VINEGAR, MODIFIED FOOD STARCH, ORANGE JUICE CONCENTRATE, CORN SYRUP, SESAME SEED OIL, GINGER, GARLIC, SOY SAUCE (WATER, WHEAT, SOYBEANS, SALT), SALT, PAPRIKA, XANTHAN GUM, OIL OF ANNATO, NATURAL AND ARTIFICIAL FLAVOR, PHOSPHORIC ACID, CITRIC ACID, POTASSIUM SORBATE (PRESERVATIVE)." Date available: 08/07/2017 Date last updated by company: 08/07/2017
