Source: USDA Branded Food Products Database Release December 2017 Software v.3.8.6.4 2017-10-02
Report Run at: December 18, 2017 03:21 EST
"Nutrient data for: 45317766, ORANGE PEACH MANGO, UPC: 048500021125"
Food Group:  Branded Food Products Database
Common Name:

Nutrient,Unit,Data points,Std. Error,"8.0 OZA = 240.0g",1Value per 100 g,
Proximates
"Energy",kcal,--,--,120,50
"Protein",g,--,--,1.01,0.42
"Total lipid (fat)",g,--,--,0.00,0.00
"Carbohydrate, by difference",g,--,--,28.99,12.08
"Sugars, total",g,--,--,27.00,11.25
Minerals
"Potassium, K",mg,--,--,300,125
"Sodium, Na",mg,--,--,10,4
Vitamins
"Vitamin C, total ascorbic acid",mg,--,--,60.0,25.0
"Vitamin A, IU",IU,--,--,199,83
Lipids
"Fatty acids, total saturated",g,--,--,0.000,0.000
"Fatty acids, total trans",g,--,--,0.000,0.000
"Cholesterol",mg,--,--,0,0
Amino Acids
Other
Ingredients
"INGREDIENTS: FILTERED WATER, APPLE JUICE CONCENTRATE, ORANGE JUICE CONCENTRATE, CLARIFIED PINEAPPLE JUICE CONCENTRATE, PEACH PUREE CONCENTRATE, GRAPE JUICE CONCENTRATE, MANGO PUREE CONCENTRATE, CITRIC ACID, BETACAROTENE (COLOR), NATURAL FLAVORS AND ASCORBIC ACID (VITAMIN C)." Date available: 06/24/2017 Date last updated by company: 06/24/2017
