Source: USDA Branded Food Products Database Release December 2017 Software v.3.8.6.4 2017-10-02
Report Run at: December 18, 2017 03:14 EST
"Nutrient data for: 45195283, ORANGE DANISH WITH ICING, UPC: 035826094971"
Food Group:  Branded Food Products Database
Common Name:

Nutrient,Unit,Data points,Std. Error,"1 ROLL WITH ICING = 49.0g",1Value per 100 g,
Proximates
"Energy",kcal,--,--,180,367
"Protein",g,--,--,2.00,4.08
"Total lipid (fat)",g,--,--,8.00,16.33
"Carbohydrate, by difference",g,--,--,25.00,51.02
"Fiber, total dietary",g,--,--,0.0,0.0
"Sugars, total",g,--,--,12.00,24.49
Minerals
"Calcium, Ca",mg,--,--,0,0
"Iron, Fe",mg,--,--,0.81,1.65
"Sodium, Na",mg,--,--,270,551
Vitamins
"Vitamin C, total ascorbic acid",mg,--,--,0.0,0.0
"Vitamin A, IU",IU,--,--,0,0
Lipids
"Fatty acids, total saturated",g,--,--,3.499,7.140
"Fatty acids, total monounsaturated",g,--,--,2.999,6.120
"Fatty acids, total polyunsaturated",g,--,--,1.499,3.060
"Fatty acids, total trans",g,--,--,0.000,0.000
"Cholesterol",mg,--,--,0,0
Amino Acids
Other
Ingredients
"ENRICHED BLEACHED FLOUR [WHEAT FLOUR, NIACIN, IRON, THIAMIN MONONITRATE (VITAMIN B1), RIBOFLAVIN (VITAMIN B2), FOLIC ACID], SUGAR, WATER, VEGETABLE OIL (PALM, SOYBEAN AND/OR COTTONSEED OILS). CONTAINS 2% OR LESS OF EACH OF THE FOLLOWING: DEXTROSE, LEAVENING (SODIUM ACID PYROPHOSPHATE, BAKING SODA), ORANGE PEEL, NATURAL AND ARTIFICIAL FLAVORS, CORN SYRUP, SALT, CORN STARCH, SODIUM STEAROYL LACTYLATE, CINNAMON, VEGETABLE GUMS (XANTHAN, GUAR, CAROB BEAN), POLYSORBATE 60, MONO- AND DIGLYCERIDES, COLORED WITH (TITANIUM DIOXIDE, CARAMEL COLOR, YELLOW 5, YELLOW 6), MALT SYRUP, SORBIC ACID AND BHT AND TBHQ AND CITRIC ACID (PRESERVATIVES) SOY FLOUR." Date available: 07/14/2017 Date last updated by company: 07/14/2017
