Source: USDA Branded Food Products Database Release December 2017 Software v.3.8.6.4 2017-10-02
Report Run at: December 18, 2017 03:25 EST
"Nutrient data for: 45186376, ORAZIO'S, GELATO, TRIPLE DARK CHOCOLATE, UPC: 797043881047"
Food Group:  Branded Food Products Database
Common Name:

Nutrient,Unit,Data points,Std. Error,"4.0 ONZ = 113.0g",1Value per 100 g,
Proximates
"Energy",kcal,--,--,180,159
"Protein",g,--,--,4.00,3.54
"Total lipid (fat)",g,--,--,10.00,8.85
"Carbohydrate, by difference",g,--,--,23.00,20.35
"Fiber, total dietary",g,--,--,3.1,2.7
"Sugars, total",g,--,--,16.00,14.16
Minerals
"Calcium, Ca",mg,--,--,99,88
"Iron, Fe",mg,--,--,1.44,1.27
"Sodium, Na",mg,--,--,55,49
Vitamins
"Vitamin C, total ascorbic acid",mg,--,--,0.0,0.0
"Vitamin A, IU",IU,--,--,299,265
Lipids
"Fatty acids, total saturated",g,--,--,6.000,5.310
"Fatty acids, total trans",g,--,--,0.000,0.000
"Cholesterol",mg,--,--,31,27
Amino Acids
Other
Ingredients
"MILK, CREAM, DUTCH CHOCOLATE SYRUP (SUGAR, WATER, COCOA PROCESSED WITH ALKALI, COCOA, CHOCOLATE LIQUOR, SALT), SUGAR, DUTCH COCOA PROCESSED WITH ALKALI, CHOCOLATE CHIPS (SUGAR COCOA MASS, COCOA BUTTER, SOYA LECITHIN, VANILLA), CORN SYRUP, NONFAT DRY MILK, VEGETABLE STABILIZER." Date available: 10/19/2017 Date last updated by company: 10/19/2017
