Source: USDA Branded Food Products Database Release December 2017 Software v.3.8.6.4 2017-10-02
Report Run at: December 18, 2017 03:26 EST
"Nutrient data for: 45328080, ORBIT COOKIES, BELL & TREE SUGAR COOKIE PLATTER, UPC: 628020102049"
Food Group:  Branded Food Products Database
Common Name:

Nutrient,Unit,Data points,Std. Error,"1 COOKIE = 28.0g",1Value per 100 g,
Proximates
"Energy",kcal,--,--,130,464
"Protein",g,--,--,2.00,7.14
"Total lipid (fat)",g,--,--,5.00,17.86
"Carbohydrate, by difference",g,--,--,21.00,75.00
"Fiber, total dietary",g,--,--,0.0,0.0
"Sugars, total",g,--,--,9.00,32.14
Minerals
"Calcium, Ca",mg,--,--,0,0
"Iron, Fe",mg,--,--,0.64,2.29
"Sodium, Na",mg,--,--,80,286
Vitamins
"Vitamin C, total ascorbic acid",mg,--,--,0.0,0.0
"Vitamin A, IU",IU,--,--,0,0
Lipids
"Fatty acids, total saturated",g,--,--,1.501,5.360
"Fatty acids, total trans",g,--,--,0.000,0.000
"Cholesterol",mg,--,--,5,18
Amino Acids
Other
Ingredients
"ENRICHED WHEAT FLOUR (WHEAT FLOUR, NIACIN, IRON, THIAMINE MONONITRATE, RIBOFLAVIN, FOLIC ACID), SUGAR, MARGARINE (CANOLA OIL, MODIFIED PALM AND PALM KERNEL OILS, WATER, SALT, MODIFIED MILK INGREDIENTS, SOYA LECITHIN, POTASSIUM SORBATE, NATURAL FLAVOR, VITAMIN A PALMITATE, VITAMIN D3, COLOR), INVERT SUGAR, WHOLE DRIED EGGS, BAKING SODA (LEAVENING), ARTIFICIAL FLAVOR, ARTIFICIAL COLORS (FD&C YELLOW #5, FD&C RED #40, FD&C BLUE #1)." Date available: 07/14/2017 Date last updated by company: 07/14/2017
