Source: USDA Branded Food Products Database Release December 2017 Software v.3.8.6.4 2017-10-02
Report Run at: December 18, 2017 03:26 EST
"Nutrient data for: 45195440, ORCA BAY, MAHI MAHI BURGER, SPICY THAI, UPC: 029714909430"
Food Group:  Branded Food Products Database
Common Name:

Nutrient,Unit,Data points,Std. Error,"4.0 ONZ = 113.0g",1Value per 100 g,
Proximates
"Energy",kcal,--,--,90,80
"Protein",g,--,--,19.00,16.81
"Total lipid (fat)",g,--,--,2.00,1.77
"Carbohydrate, by difference",g,--,--,0.00,0.00
"Fiber, total dietary",g,--,--,0.0,0.0
"Sugars, total",g,--,--,0.00,0.00
Minerals
"Calcium, Ca",mg,--,--,20,18
"Iron, Fe",mg,--,--,0.54,0.48
"Sodium, Na",mg,--,--,450,398
Vitamins
"Vitamin C, total ascorbic acid",mg,--,--,0.0,0.0
"Vitamin A, IU",IU,--,--,75,66
Lipids
"Fatty acids, total saturated",g,--,--,1.503,1.330
"Fatty acids, total trans",g,--,--,0.000,0.000
"Cholesterol",mg,--,--,35,31
Amino Acids
Other
Ingredients
"MAHI MAHI (CORYPHAENA HIPPURUS), ORGANIC COCONUT MILK (ORGANIC COCONUT KERNEL EXTRACT, WATER), GREEN ONION, JALAPENO PEPPER, GREEN CURRY PASTE (GREEN CHILI, LEMONGRASS, GARLIC, SALT, GALANGAL, SHRIMP PASTE [SHRIMP, SALT], KAFFIR LIME PEEL, CORIANDER SEED, PEPPER, CUMIN TURMERIC), SALT, PEPPER." Date available: 07/14/2017 Date last updated by company: 07/14/2017
