Source: USDA Branded Food Products Database Release December 2017 Software v.3.8.6.4 2017-10-02
Report Run at: December 18, 2017 04:30 EST
"Nutrient data for: 45200535, ORGANIC CULTURED COCONUT MILK, UPC: 856402004029"
Food Group:  Branded Food Products Database
Common Name:

Nutrient,Unit,Data points,Std. Error,"1 CONTAINER = 170.0g",1Value per 100 g,
Proximates
"Energy",kcal,--,--,240,141
"Protein",g,--,--,1.00,0.59
"Total lipid (fat)",g,--,--,14.01,8.24
"Carbohydrate, by difference",g,--,--,17.00,10.00
"Fiber, total dietary",g,--,--,0.0,0.0
"Sugars, total",g,--,--,8.01,4.71
Minerals
"Calcium, Ca",mg,--,--,20,12
"Iron, Fe",mg,--,--,0.71,0.42
"Sodium, Na",mg,--,--,70,41
Vitamins
"Vitamin C, total ascorbic acid",mg,--,--,0.0,0.0
"Vitamin A, IU",IU,--,--,0,0
Lipids
"Fatty acids, total saturated",g,--,--,12.002,7.060
"Fatty acids, total trans",g,--,--,0.000,0.000
"Cholesterol",mg,--,--,0,0
Amino Acids
Other
Ingredients
"ORGANIC COCONUT MILK (WATER, ORGANIC COCONUT CREAM, GUAR GUM), ORGANIC TAPIOCA STARCH, ORGANIC ARROWROOT STARCH, ORGANIC COCONUT SUGAR, ORGANIC VANILLA EXTRACT, AND LIVE ACTIVE CULTURES; S. THERMOPHILUS, L. BULGARICUS, L. ACIDOPHILUS, BIFIDOBACTERIUM" Date available: 07/14/2017 Date last updated by company: 07/14/2017
