Source: USDA Branded Food Products Database Release December 2017 Software v.3.8.6.4 2017-10-02
Report Run at: December 18, 2017 06:30 EST
"Nutrient data for: 45193934, ORGANIC SAUCE, UPC: 019646005331"
Food Group:  Branded Food Products Database
Common Name:

Nutrient,Unit,Data points,Std. Error,"0.5 cup = 125.0g",1Value per 100 g,
Proximates
"Energy",kcal,--,--,70,56
"Protein",g,--,--,1.00,0.80
"Total lipid (fat)",g,--,--,4.00,3.20
"Carbohydrate, by difference",g,--,--,8.00,6.40
"Fiber, total dietary",g,--,--,1.0,0.8
"Sugars, total",g,--,--,5.00,4.00
Minerals
"Calcium, Ca",mg,--,--,60,48
"Iron, Fe",mg,--,--,0.76,0.61
"Sodium, Na",mg,--,--,400,320
Vitamins
"Vitamin C, total ascorbic acid",mg,--,--,15.9,12.7
"Vitamin A, IU",IU,--,--,422,338
Lipids
"Fatty acids, total saturated",g,--,--,0.500,0.400
"Fatty acids, total trans",g,--,--,0.000,0.000
"Cholesterol",mg,--,--,0,0
Amino Acids
Other
Ingredients
"ORGANIC TOMATOES, ORGANIC TOMATO PUREE (WATER, ORGANIC TOMATO PASTE), ORGANIC ONIONS, ORGANIC ROASTED GARLIC, ORGANIC EXTRA VIRGIN OLIVE OIL, SALT, ORGANIC BASIL, ORGANIC GARLIC, ORGANIC SUGAR, ORGANIC SPICES, CITRIC ACID." Date available: 07/14/2017 Date last updated by company: 07/14/2017
