Source: USDA Branded Food Products Database Release December 2017 Software v.3.8.6.4 2017-10-02
Report Run at: December 18, 2017 04:22 EST
"Nutrient data for: 45325248, ORGANIC COLD BREW COFFEE, UPC: 079893413624"
Food Group:  Branded Food Products Database
Common Name:

Nutrient,Unit,Data points,Std. Error,"12.0 OZA = 360.0g",1Value per 100 g,
Proximates
"Energy",kcal,--,--,4,1
"Protein",g,--,--,0.00,0.00
"Total lipid (fat)",g,--,--,0.00,0.00
"Carbohydrate, by difference",g,--,--,0.00,0.00
"Fiber, total dietary",g,--,--,0.0,0.0
"Sugars, total",g,--,--,0.00,0.00
Minerals
"Calcium, Ca",mg,--,--,25,7
"Iron, Fe",mg,--,--,0.00,0.00
"Potassium, K",mg,--,--,4,1
"Sodium, Na",mg,--,--,61,17
Vitamins
Lipids
"Fatty acids, total saturated",g,--,--,0.000,0.000
"Fatty acids, total trans",g,--,--,0.000,0.000
"Cholesterol",mg,--,--,0,0
Amino Acids
Other
Ingredients
"WATER, ORGANIC ARABICA COFFEE." Date available: 08/11/2017 Date last updated by company: 08/11/2017
