Source: USDA Branded Food Products Database Release December 2017 Software v.3.8.6.4 2017-10-02
Report Run at: December 18, 2017 07:35 EST
"Nutrient data for: 45212524, ORGANIC YELLOW ONIONS, UPC: 812306020084"
Food Group:  Branded Food Products Database
Common Name:

Nutrient,Unit,Data points,Std. Error,"1 MEDIUM ONION = 148.0g",1Value per 100 g,
Proximates
"Energy",kcal,--,--,61,41
"Protein",g,--,--,2.00,1.35
"Total lipid (fat)",g,--,--,0.00,0.00
"Carbohydrate, by difference",g,--,--,14.00,9.46
"Fiber, total dietary",g,--,--,3.0,2.0
"Sugars, total",g,--,--,9.00,6.08
Minerals
"Calcium, Ca",mg,--,--,40,27
"Iron, Fe",mg,--,--,0.36,0.24
Vitamins
"Vitamin C, total ascorbic acid",mg,--,--,12.0,8.1
"Vitamin A, IU",IU,--,--,0,0
Lipids
Amino Acids
Other
Ingredients
"ORGANIC YELLOW ONIONS" Date available: 12/01/2016 Date last updated by company: 12/01/2016
