Source: USDA Branded Food Products Database Release December 2017 Software v.3.8.6.4 2017-10-02
Report Run at: December 18, 2017 04:59 EST
"Nutrient data for: 45277438, ORGANIC GINGER SNAPS, UPC: 011535500514"
Food Group:  Branded Food Products Database
Common Name:

Nutrient,Unit,Data points,Std. Error,"5.0 COOKIES = 33.0g",1Value per 100 g,
Proximates
"Energy",kcal,--,--,140,424
"Protein",g,--,--,1.00,3.03
"Total lipid (fat)",g,--,--,4.00,12.12
"Carbohydrate, by difference",g,--,--,26.00,78.79
"Fiber, total dietary",g,--,--,1.0,3.0
"Sugars, total",g,--,--,14.00,42.42
Minerals
"Calcium, Ca",mg,--,--,20,61
"Iron, Fe",mg,--,--,5.45,16.53
"Sodium, Na",mg,--,--,150,455
Vitamins
"Vitamin C, total ascorbic acid",mg,--,--,0.0,0.0
"Vitamin A, IU",IU,--,--,0,0
Lipids
"Fatty acids, total saturated",g,--,--,2.000,6.060
"Fatty acids, total monounsaturated",g,--,--,1.502,4.550
"Fatty acids, total polyunsaturated",g,--,--,0.000,0.000
"Fatty acids, total trans",g,--,--,0.000,0.000
"Cholesterol",mg,--,--,0,0
Amino Acids
Other
Ingredients
"ORGANIC WHEAT FLOUR, ORGANIC CANE SUGAR, ORGANIC CANOLA AND/OR ORGANIC SUNFLOWER AND/OR ORGANIC PALM OIL, ORGANIC MOLASSES, ORGANIC GINGER, BAKING SODA, SEA SALT, ORGANIC SOY LECITHIN." Date available: 07/14/2017 Date last updated by company: 07/14/2017
