Source: USDA Branded Food Products Database Release December 2017 Software v.3.8.6.4 2017-10-02
Report Run at: December 18, 2017 04:25 EST
"Nutrient data for: 45267945, ORGANIC CRANBERRY SAUCE, UPC: 723055855806"
Food Group:  Branded Food Products Database
Common Name:

Nutrient,Unit,Data points,Std. Error,"0.25 cup = 62.0g",1Value per 100 g,
Proximates
"Energy",kcal,--,--,90,145
"Protein",g,--,--,0.00,0.00
"Total lipid (fat)",g,--,--,0.00,0.00
"Carbohydrate, by difference",g,--,--,23.00,37.10
"Fiber, total dietary",g,--,--,1.0,1.6
"Sugars, total",g,--,--,20.00,32.26
Minerals
"Calcium, Ca",mg,--,--,0,0
"Iron, Fe",mg,--,--,0.00,0.00
"Sodium, Na",mg,--,--,0,0
Vitamins
"Vitamin C, total ascorbic acid",mg,--,--,6.8,10.9
"Vitamin A, IU",IU,--,--,0,0
Lipids
"Fatty acids, total saturated",g,--,--,0.000,0.000
"Fatty acids, total trans",g,--,--,0.000,0.000
"Cholesterol",mg,--,--,0,0
Amino Acids
Other
Ingredients
"ORGANIC CRANBERRIES, ORGANIC SUGAR, WATER, ORGANIC ORANGE JUICE, ORGANIC GINGER ORGANIC CINNAMON." Date available: 07/14/2017 Date last updated by company: 07/14/2017
