Source: USDA Branded Food Products Database Release December 2017 Software v.3.8.6.4 2017-10-02
Report Run at: December 18, 2017 07:16 EST
"Nutrient data for: 45088355, ORGANIC VEGENAISE BETTER THAN MAYO, UPC: 049568180168"
Food Group:  Branded Food Products Database
Common Name:

Nutrient,Unit,Data points,Std. Error,"1 Tbsp = 14.0g",1Value per 100 g,
Proximates
"Energy",kcal,--,--,80,571
"Protein",g,--,--,0.00,0.00
"Total lipid (fat)",g,--,--,9.00,64.29
"Carbohydrate, by difference",g,--,--,0.00,0.00
"Fiber, total dietary",g,--,--,0.0,0.0
"Sugars, total",g,--,--,0.00,0.00
Minerals
"Calcium, Ca",mg,--,--,0,0
"Iron, Fe",mg,--,--,0.00,0.00
"Sodium, Na",mg,--,--,70,500
Vitamins
"Vitamin C, total ascorbic acid",mg,--,--,0.0,0.0
"Vitamin A, IU",IU,--,--,0,0
Lipids
"Fatty acids, total saturated",g,--,--,1.499,10.710
"Fatty acids, total monounsaturated",g,--,--,2.001,14.290
"Fatty acids, total polyunsaturated",g,--,--,4.999,35.710
"Fatty acids, total trans",g,--,--,0.000,0.000
"Cholesterol",mg,--,--,0,0
Amino Acids
Other
Ingredients
"(VEGAN, GLUTEN-FREE, DAIRY-FREE, NON-GMO): ORGANIC EXPELLER-PRESSED SOYBEAN OIL, FILTERED WATER, ORGANIC BROWN RICE SYRUP, ORGANIC APPLE CIDER VINEGAR, SEA SALT, ORGANIC SOY PROTEIN, ORGANIC MUSTARD FLOUR, ORGANIC LEMON JUICE CONCENTRATE." Date available: 07/14/2017 Date last updated by company: 07/14/2017
