Source: USDA Branded Food Products Database Release December 2017 Software v.3.8.6.4 2017-10-02
Report Run at: December 18, 2017 04:01 EST
"Nutrient data for: 45326722, ORGANIC BROWN SUGAR BBQ SAUCE, UPC: 639246072016"
Food Group:  Branded Food Products Database
Common Name:

Nutrient,Unit,Data points,Std. Error,"2.0 Tbsp = 37.0g",1Value per 100 g,
Proximates
"Energy",kcal,--,--,35,95
"Total lipid (fat)",g,--,--,0.00,0.00
"Carbohydrate, by difference",g,--,--,9.00,24.32
"Sugars, total",g,--,--,7.00,18.92
Minerals
"Potassium, K",mg,--,--,5,14
"Sodium, Na",mg,--,--,270,730
Vitamins
"Vitamin D",IU,--,--,0,0
Lipids
Amino Acids
Other
Ingredients
"*HEIRLOOM TOMATOES, *TOMATO SAUCE (*TOMATO CONCENTRATE, *DISTILLED VINEGAR, *SUGAR, SALT, *ONION POWDER, *SPICE, NATURAL FLAVORING), *BROWN SUGAR, FILTERED WATER, *RED WINE VINEGAR, *MOLASSES, NATURAL SMOKE FLAVOR, SALT, *SPICES." Date available: 10/13/2017 Date last updated by company: 10/13/2017
