Source: USDA Branded Food Products Database Release December 2017 Software v.3.8.6.4 2017-10-02
Report Run at: December 18, 2017 07:22 EST
"Nutrient data for: 45266495, ORGANIC WALNUT HALVES & PIECES, UPC: 076958620577"
Food Group:  Branded Food Products Database
Common Name:

Nutrient,Unit,Data points,Std. Error,"0.25 cup = 30.0g",1Value per 100 g,
Proximates
"Energy",kcal,--,--,190,633
"Protein",g,--,--,4.00,13.33
"Total lipid (fat)",g,--,--,18.00,60.00
"Carbohydrate, by difference",g,--,--,4.00,13.33
"Fiber, total dietary",g,--,--,2.0,6.7
"Sugars, total",g,--,--,1.00,3.33
Minerals
"Calcium, Ca",mg,--,--,40,133
"Iron, Fe",mg,--,--,1.80,6.00
"Sodium, Na",mg,--,--,0,0
Vitamins
"Vitamin C, total ascorbic acid",mg,--,--,0.0,0.0
"Vitamin A, IU",IU,--,--,0,0
Lipids
"Fatty acids, total saturated",g,--,--,2.001,6.670
"Fatty acids, total trans",g,--,--,0.000,0.000
"Cholesterol",mg,--,--,0,0
Amino Acids
Other
Ingredients
"ORGANIC WALNUTS." Date available: 07/14/2017 Date last updated by company: 07/14/2017
