Source: USDA Branded Food Products Database Release December 2017 Software v.3.8.6.4 2017-10-02
Report Run at: December 18, 2017 04:32 EST
"Nutrient data for: 45207919, ORGANIC DARK CHOCOLATE COVERED WALNUTS, UPC: 041415407862"
Food Group:  Branded Food Products Database
Common Name:

Nutrient,Unit,Data points,Std. Error,"7.0 PIECES = 29.0g",1Value per 100 g,
Proximates
"Energy",kcal,--,--,170,586
"Protein",g,--,--,3.00,10.34
"Total lipid (fat)",g,--,--,16.00,55.17
"Carbohydrate, by difference",g,--,--,8.00,27.59
"Fiber, total dietary",g,--,--,2.0,6.9
"Sugars, total",g,--,--,4.00,13.79
Minerals
"Calcium, Ca",mg,--,--,40,138
"Iron, Fe",mg,--,--,1.24,4.28
"Sodium, Na",mg,--,--,0,0
Vitamins
"Vitamin C, total ascorbic acid",mg,--,--,0.0,0.0
"Vitamin A, IU",IU,--,--,0,0
Lipids
"Fatty acids, total saturated",g,--,--,4.501,15.520
"Fatty acids, total trans",g,--,--,0.000,0.000
"Cholesterol",mg,--,--,0,0
Amino Acids
Other
Ingredients
"ORGANIC ROASTED WALNUTS, ORGANIC DARK CHOCOLATE (ORGANIC DRIED CANE SYRUP, ORGANIC CHOCOLATE LIQUOR, ORGANIC COCOA BUTTER, ORGANIC SOY LECITHIN [EMULSIFIER], ORGANIC VANILLA), ORGANIC GUM ARABIC, ORGANIC CONFECTIONERS GLAZE." Date available: 07/14/2017 Date last updated by company: 07/14/2017
