Source: USDA Branded Food Products Database Release December 2017 Software v.3.8.6.4 2017-10-02
Report Run at: December 18, 2017 06:12 EST
"Nutrient data for: 45078248, ORGANIC QUINOA WITH KALE AND BROWN RICE, UPC: 079893402857"
Food Group:  Branded Food Products Database
Common Name:

Nutrient,Unit,Data points,Std. Error,"0.5 PACKAGE = 142.0g",1Value per 100 g,
Proximates
"Energy",kcal,--,--,190,134
"Protein",g,--,--,5.00,3.52
"Total lipid (fat)",g,--,--,7.00,4.93
"Carbohydrate, by difference",g,--,--,29.00,20.42
"Fiber, total dietary",g,--,--,3.0,2.1
"Sugars, total",g,--,--,0.00,0.00
Minerals
"Calcium, Ca",mg,--,--,60,42
"Iron, Fe",mg,--,--,0.85,0.60
"Sodium, Na",mg,--,--,400,282
Vitamins
"Vitamin C, total ascorbic acid",mg,--,--,4.7,3.3
"Vitamin A, IU",IU,--,--,713,502
Lipids
"Fatty acids, total saturated",g,--,--,0.994,0.700
"Fatty acids, total trans",g,--,--,0.000,0.000
"Cholesterol",mg,--,--,0,0
Amino Acids
Other
Ingredients
"COOKED ORGANIC WHITE QUINOA, ORGANIC KALE, ORGANIC BROWN RICE, COOKED ORGANIC RED QUINOA, ORGANIC GARLIC GARLIC, ORGANIC EXTRA VIRGIN OLIVE OIL, SEA SALT, ORGANIC BLACK PEPPER." Date available: 06/24/2017 Date last updated by company: 06/24/2017
