Source: USDA Branded Food Products Database Release December 2017 Software v.3.8.6.4 2017-10-02
Report Run at: December 18, 2017 05:40 EST
"Nutrient data for: 45289714, ORGANIC 1% MILK FAT LOW FAT MILK, UPC: 717544205203"
Food Group:  Branded Food Products Database
Common Name:

Nutrient,Unit,Data points,Std. Error,"1 cup = 240.0g",1Value per 100 g,
Proximates
"Energy",kcal,--,--,120,50
"Protein",g,--,--,10.01,4.17
"Total lipid (fat)",g,--,--,2.50,1.04
"Carbohydrate, by difference",g,--,--,15.00,6.25
"Fiber, total dietary",g,--,--,0.0,0.0
"Sugars, total",g,--,--,15.00,6.25
Minerals
"Calcium, Ca",mg,--,--,379,158
"Iron, Fe",mg,--,--,0.00,0.00
"Potassium, K",mg,--,--,509,212
"Sodium, Na",mg,--,--,161,67
Vitamins
Lipids
"Fatty acids, total saturated",g,--,--,1.488,0.620
"Fatty acids, total trans",g,--,--,0.000,0.000
"Cholesterol",mg,--,--,14,6
Amino Acids
Other
Ingredients
"ORGANIC NONFAT MILK, ORGANIC MILK, VITAMIN A PALMITATE AND VITAMIN D3." Date available: 09/06/2017 Date last updated by company: 09/06/2017
