Source: USDA Branded Food Products Database Release December 2017 Software v.3.8.6.4 2017-10-02
Report Run at: December 18, 2017 05:39 EST
"Nutrient data for: 45263849, ORGANIC MILD CHEDDAR SLICED CHEESE, UPC: 725439990905"
Food Group:  Branded Food Products Database
Common Name:

Nutrient,Unit,Data points,Std. Error,"1 SLICE = 21.0g",1Value per 100 g,
Proximates
"Energy",kcal,--,--,80,381
"Protein",g,--,--,5.00,23.81
"Total lipid (fat)",g,--,--,7.00,33.33
"Carbohydrate, by difference",g,--,--,1.00,4.76
"Fiber, total dietary",g,--,--,0.0,0.0
"Sugars, total",g,--,--,0.00,0.00
Minerals
"Calcium, Ca",mg,--,--,149,710
"Iron, Fe",mg,--,--,0.00,0.00
"Phosphorus, P",mg,--,--,16000,76190
"Potassium, K",mg,--,--,16,76
"Sodium, Na",mg,--,--,135,643
Vitamins
Lipids
"Fatty acids, total saturated",g,--,--,4.000,19.050
"Fatty acids, total trans",g,--,--,0.000,0.000
"Cholesterol",mg,--,--,20,95
Amino Acids
Other
Ingredients
"ORGANIC PASTEURIZED MILK, CHEESE CULTURES, SALT AND MICROBIAL ENZYMES." Date available: 10/19/2017 Date last updated by company: 10/19/2017
