Source: USDA Branded Food Products Database Release December 2017 Software v.3.8.6.4 2017-10-02
Report Run at: December 18, 2017 04:35 EST
"Nutrient data for: 45194164, ORGANIC DICED PEARS, UPC: 019646001135"
Food Group:  Branded Food Products Database
Common Name:

Nutrient,Unit,Data points,Std. Error,"1 BOWL = 113.0g",1Value per 100 g,
Proximates
"Energy",kcal,--,--,60,53
"Protein",g,--,--,0.00,0.00
"Total lipid (fat)",g,--,--,0.00,0.00
"Carbohydrate, by difference",g,--,--,14.00,12.39
"Fiber, total dietary",g,--,--,2.0,1.8
"Sugars, total",g,--,--,8.99,7.96
Minerals
"Calcium, Ca",mg,--,--,0,0
"Iron, Fe",mg,--,--,0.00,0.00
"Sodium, Na",mg,--,--,0,0
Vitamins
"Vitamin C, total ascorbic acid",mg,--,--,74.4,65.8
"Vitamin A, IU",IU,--,--,0,0
Lipids
"Fatty acids, total saturated",g,--,--,0.000,0.000
"Fatty acids, total trans",g,--,--,0.000,0.000
"Cholesterol",mg,--,--,0,0
Amino Acids
Other
Ingredients
"ORGANIC PEARS, WATER, ORGANIC PEAR JUICE CONCENTRATE, ASCORBIC ACID (VITAMIN C) TO PROTECT COLOR, NATURALLY DERIVED CITRIC ACID." Date available: 07/14/2017 Date last updated by company: 07/14/2017
