Source: USDA Branded Food Products Database Release December 2017 Software v.3.8.6.4 2017-10-02
Report Run at: December 18, 2017 05:45 EST
"Nutrient data for: 45288382, ORGANIC MUESLI, UPC: 853305003258"
Food Group:  Branded Food Products Database
Common Name:

Nutrient,Unit,Data points,Std. Error,"1 PACKET = 40.0g",1Value per 100 g,
Proximates
"Energy",kcal,--,--,160,400
"Protein",g,--,--,7.00,17.50
"Total lipid (fat)",g,--,--,6.00,15.00
"Carbohydrate, by difference",g,--,--,25.00,62.50
"Fiber, total dietary",g,--,--,3.0,7.5
"Sugars, total",g,--,--,3.00,7.50
Minerals
"Sodium, Na",mg,--,--,0,0
Vitamins
Lipids
"Fatty acids, total saturated",g,--,--,0.500,1.250
"Fatty acids, total trans",g,--,--,0.000,0.000
"Cholesterol",mg,--,--,0,0
Amino Acids
Other
Ingredients
"GLUTEN FREE OATS*, RAISINS*, ALMONDS*, FLAXSEEDS*, CASHEWS*, PUMPKIN SEEDS*" Date available: 09/22/2017 Date last updated by company: 09/22/2017
