Source: USDA Branded Food Products Database Release December 2017 Software v.3.8.6.4 2017-10-02
Report Run at: December 18, 2017 05:13 EST
"Nutrient data for: 45055315, ORGANIC HONEY GRAHAM TEDDY BEARS, UPC: 848737002382"
Food Group:  Branded Food Products Database
Common Name:

Nutrient,Unit,Data points,Std. Error,"10.0 COOKIES = 30.0g",1Value per 100 g,
Proximates
"Energy",kcal,--,--,140,467
"Protein",g,--,--,2.00,6.67
"Total lipid (fat)",g,--,--,4.50,15.00
"Carbohydrate, by difference",g,--,--,22.00,73.33
"Fiber, total dietary",g,--,--,1.0,3.3
"Sugars, total",g,--,--,7.00,23.33
Minerals
"Calcium, Ca",mg,--,--,0,0
"Iron, Fe",mg,--,--,1.20,4.00
"Sodium, Na",mg,--,--,100,333
Vitamins
"Vitamin C, total ascorbic acid",mg,--,--,0.0,0.0
"Vitamin A, IU",IU,--,--,0,0
Lipids
"Fatty acids, total saturated",g,--,--,2.001,6.670
"Fatty acids, total trans",g,--,--,0.000,0.000
"Cholesterol",mg,--,--,0,0
Amino Acids
Other
Ingredients
"ORGANIC ENRICHED WHEAT FLOUR (WHEAT FLOUR, NIACIN, IRON, THIAMINE MONONITRATE, RIBOFLAVIN, FOLIC ACID), ORGANIC GRAHAM FLOUR, ORGANIC PALM OIL AND/OR ORGANIC CANOLA OIL AND/OR ORGANIC SUNFLOWER OIL, ORGANIC DEHYDRATED CANE SUGAR, ORGANIC BROWN SUGAR, ORGANIC HONEY, ORGANIC INVERT SUGAR, SEA SALT, BAKING SODA, NATURAL FLAVOR, AMMONIUM BICARBONATE, ORGANIC VANILLA EXTRACT, SOY LECITHIN." Date available: 06/24/2017 Date last updated by company: 06/24/2017
