Source: USDA Branded Food Products Database Release December 2017 Software v.3.8.6.4 2017-10-02
Report Run at: December 18, 2017 04:29 EST
"Nutrient data for: 45272056, ORGANIC CRYSTALLIZED GINGER, UPC: 086700095683"
Food Group:  Branded Food Products Database
Common Name:

Nutrient,Unit,Data points,Std. Error,"40.0 GRM = 40.0g",1Value per 100 g,
Proximates
"Energy",kcal,--,--,140,350
"Protein",g,--,--,4.00,10.00
"Carbohydrate, by difference",g,--,--,34.00,85.00
"Fiber, total dietary",g,--,--,6.0,15.0
"Sugars, total",g,--,--,1.00,2.50
Minerals
"Calcium, Ca",mg,--,--,46,115
"Iron, Fe",mg,--,--,8.00,20.00
"Sodium, Na",mg,--,--,10,25
Vitamins
"Vitamin C, total ascorbic acid",mg,--,--,1.0,2.5
Lipids
Amino Acids
Other
Ingredients
"ORGANIC GINGER, ORGANIC EVAPORATED CANE SUGAR." Date available: 08/23/2017 Date last updated by company: 08/23/2017
