Source: USDA Branded Food Products Database Release December 2017 Software v.3.8.6.4 2017-10-02
Report Run at: December 18, 2017 05:44 EST
"Nutrient data for: 45218544, ORGANIC MORNING ENERGIZER SMOOTHIE, UPC: 818512017009"
Food Group:  Branded Food Products Database
Common Name:

Nutrient,Unit,Data points,Std. Error,"1 POUCH = 156.0g",1Value per 100 g,
Proximates
"Energy",kcal,--,--,161,103
"Protein",g,--,--,3.00,1.92
"Total lipid (fat)",g,--,--,6.01,3.85
"Carbohydrate, by difference",g,--,--,22.00,14.10
"Fiber, total dietary",g,--,--,4.1,2.6
"Sugars, total",g,--,--,15.01,9.62
Minerals
"Calcium, Ca",mg,--,--,41,26
"Iron, Fe",mg,--,--,1.44,0.92
"Phosphorus, P",mg,--,--,41,26
"Potassium, K",mg,--,--,410,263
"Sodium, Na",mg,--,--,9,6
"Manganese, Mn",mg,--,--,0.000,0.000
Vitamins
"Vitamin C, total ascorbic acid",mg,--,--,48.0,30.8
"Vitamin A, IU",IU,--,--,300,192
Lipids
"Fatty acids, total saturated",g,--,--,4.493,2.880
"Fatty acids, total trans",g,--,--,0.000,0.000
"Cholesterol",mg,--,--,0,0
Amino Acids
Other
Ingredients
"ORGANIC BANANAS, ORGANIC COCONUT MILK (ORGANIC COCONUT KERNEL EXTRACT, WATER), ORGANIC KIWI, ORGANIC APPLE, ORGANIC ZUCCHINI, ORGANIC PINEAPPLES, ORGANIC SPINACH, ORGANIC FLAX, ORGANIC BROWN RICE, ORGANIC RICE PROTEIN, CITRIC ACID, ORGANIC OAT FIBER, ORGANIC NATURAL VANILLA FLAVOR, ASCORBIC ACID (VITAMIN C)." Date available: 07/14/2017 Date last updated by company: 07/14/2017
