Source: USDA Branded Food Products Database Release December 2017 Software v.3.8.6.4 2017-10-02
Report Run at: December 18, 2017 05:55 EST
"Nutrient data for: 45269588, ORGANIC PEANUT BUTTER & STRAWBERRY JELLY SANDWICH, UPC: 855851006066"
Food Group:  Branded Food Products Database
Common Name:

Nutrient,Unit,Data points,Std. Error,"1 SANDWICH = 57.0g",1Value per 100 g,
Proximates
"Energy",kcal,--,--,220,386
"Protein",g,--,--,7.00,12.28
"Total lipid (fat)",g,--,--,12.00,21.05
"Carbohydrate, by difference",g,--,--,22.00,38.60
"Fiber, total dietary",g,--,--,1.0,1.8
"Sugars, total",g,--,--,8.00,14.04
Minerals
"Calcium, Ca",mg,--,--,0,0
"Iron, Fe",mg,--,--,1.61,2.83
"Sodium, Na",mg,--,--,190,333
Vitamins
"Vitamin C, total ascorbic acid",mg,--,--,0.0,0.0
"Vitamin A, IU",IU,--,--,0,0
Lipids
"Fatty acids, total saturated",g,--,--,2.001,3.510
"Fatty acids, total trans",g,--,--,0.000,0.000
"Cholesterol",mg,--,--,0,0
Amino Acids
Other
Ingredients
"ORGANIC WHITE BREAD (ORGANIC WHEAT FLOUR, WATER, ORGANIC DRIED CANE SYRUP, ORGANIC WHEAT GLUTEN, ORGANIC SOYBEAN OIL, YEAST, CONTAINS 2% OR LESS OF THE FOLLOWING: CULTURED ORGANIC WHEAT FLOUR, SEA SALT, ORGANIC SOY LECITHIN, CALCIUM SULFATE, ASCORBIC ACID, ENZYMES), ORGANIC PEANUT BUTTER (ORGANIC DRY ROASTED PEANUTS, ORGANIC PALM OIL*, ORGANIC CANE SUGAR, SEA SALT), ORGANIC STRAWBERRY SPREAD (ORGANIC STRAWBERRIES, ORGANIC CANE SUGAR, FRUIT PECTIN, CITRIC ACID)." Date available: 07/14/2017 Date last updated by company: 07/14/2017
