Source: USDA Branded Food Products Database Release December 2017 Software v.3.8.6.4 2017-10-02
Report Run at: December 18, 2017 05:33 EST
"Nutrient data for: 45286646, ORGANIC LOW SODIUM CHICKEN BROTH, UPC: 071627081024"
Food Group:  Branded Food Products Database
Common Name:

Nutrient,Unit,Data points,Std. Error,"1 cup = 240.0g",1Value per 100 g,
Proximates
"Energy",kcal,--,--,5,2
"Protein",g,--,--,1.01,0.42
"Total lipid (fat)",g,--,--,0.00,0.00
"Carbohydrate, by difference",g,--,--,0.00,0.00
"Fiber, total dietary",g,--,--,0.0,0.0
"Sugars, total",g,--,--,0.00,0.00
Minerals
"Calcium, Ca",mg,--,--,0,0
"Iron, Fe",mg,--,--,0.00,0.00
"Sodium, Na",mg,--,--,139,58
Vitamins
"Vitamin C, total ascorbic acid",mg,--,--,0.0,0.0
"Vitamin A, IU",IU,--,--,0,0
Lipids
"Fatty acids, total saturated",g,--,--,0.000,0.000
"Fatty acids, total trans",g,--,--,0.000,0.000
"Cholesterol",mg,--,--,5,2
Amino Acids
Other
Ingredients
"FILTERED WATER, ORGANIC CHICKEN FLAVOR BASE (ORGANIC CHICKEN FLAVOR [INCLUDES ORGANIC CHICKEN], ORGANIC SOY SAUCE [WATER, ORGANIC SOYBEANS, SALT], ORGANIC VEGETABLE STOCK [ORGANIC CARROT, ORGANIC CELERY, ORGANIC ONION], ORGANIC CANOLA OIL*, SEA SALT, YEAST EXTRACT, ORGANIC EVAPORATED CANE SYRUP, ORGANIC ONION POWDER, ORGANIC OLIVE OIL*, ORGANIC TURMERIC, ORGANIC FLAVOR, NATURAL FLAVOR)." Date available: 10/04/2017 Date last updated by company: 10/04/2017
