Source: USDA Branded Food Products Database Release December 2017 Software v.3.8.6.4 2017-10-02
Report Run at: December 18, 2017 06:49 EST
"Nutrient data for: 45243653, ORGANIC STOCK FOR COOKING, UPC: 611443010770"
Food Group:  Branded Food Products Database
Common Name:

Nutrient,Unit,Data points,Std. Error,"1 cup = 240.0g",1Value per 100 g,
Proximates
"Energy",kcal,--,--,36,15
"Protein",g,--,--,4.99,2.08
"Total lipid (fat)",g,--,--,0.50,0.21
"Carbohydrate, by difference",g,--,--,1.99,0.83
"Fiber, total dietary",g,--,--,1.0,0.4
"Sugars, total",g,--,--,1.01,0.42
Minerals
"Calcium, Ca",mg,--,--,0,0
"Iron, Fe",mg,--,--,0.00,0.00
"Potassium, K",mg,--,--,46,19
"Sodium, Na",mg,--,--,439,183
Vitamins
"Vitamin C, total ascorbic acid",mg,--,--,0.0,0.0
"Vitamin A, IU",IU,--,--,0,0
Lipids
"Fatty acids, total saturated",g,--,--,0.000,0.000
"Fatty acids, total trans",g,--,--,0.000,0.000
"Cholesterol",mg,--,--,0,0
Amino Acids
Other
Ingredients
"ORGANIC BEEF STOCK (WATER, ORGANIC BEEF STOCK), ORGANIC BEEF FLAVOR, ORGANIC EVAPORATED CANE SYRUP, SEA SALT, ORGANIC CANE SUGAR, ORGANIC ONION POWDER, ORGANIC NATURAL FLAVOR, COOKED ORGANIC VEGETABLES (ORGANIC CARROT, ORGANIC ONION, ORGANIC CELERY), ORGANIC GARLIC POWDER, ORGANIC SPICE AND HERBS (ORGANIC BLACK PEPPER, ORGANIC BAY LEAF, ORGANIC THYME), ORGANIC TOMATO PASTE, ORGANIC MOLASSES, AND ORGANIC POTATO FLOUR." Date available: 10/13/2017 Date last updated by company: 10/13/2017
