Source: USDA Branded Food Products Database Release December 2017 Software v.3.8.6.4 2017-10-02
Report Run at: December 18, 2017 06:13 EST
"Nutrient data for: 45286185, ORGANIC RAMEN BROTH, UPC: 084253244206"
Food Group:  Branded Food Products Database
Common Name:

Nutrient,Unit,Data points,Std. Error,"1 cup = 240.0g",1Value per 100 g,
Proximates
"Energy",kcal,--,--,24,10
"Protein",g,--,--,1.01,0.42
"Total lipid (fat)",g,--,--,1.01,0.42
"Carbohydrate, by difference",g,--,--,3.00,1.25
"Fiber, total dietary",g,--,--,1.0,0.4
"Sugars, total",g,--,--,1.01,0.42
Minerals
"Calcium, Ca",mg,--,--,0,0
"Iron, Fe",mg,--,--,0.00,0.00
"Sodium, Na",mg,--,--,530,221
Vitamins
"Vitamin C, total ascorbic acid",mg,--,--,0.0,0.0
"Vitamin A, IU",IU,--,--,0,0
Lipids
"Fatty acids, total saturated",g,--,--,0.000,0.000
"Fatty acids, total trans",g,--,--,0.000,0.000
"Cholesterol",mg,--,--,0,0
Amino Acids
Other
Ingredients
"FILTERED WATER, ORGANIC FLAVORS (WITH ORGANIC WHEAT), ORGANIC TAMARI SOY SAUCE (ORGANIC WHOLE SOYBEANS, SALT), ORGANIC MIRIN (ORGANIC SAKE [ORGANIC RICE, KOJI {ASPERGILLUS ORYZAE}], ORGANIC SUGAR, SALT), ORGANIC GINGER JUICE, NATURAL FLAVORS, ORGANIC TOASTED SESAME OIL, YEAST EXTRACT." Date available: 07/14/2017 Date last updated by company: 07/14/2017
