Source: USDA Branded Food Products Database Release December 2017 Software v.3.8.6.4 2017-10-02
Report Run at: December 18, 2017 06:38 EST
"Nutrient data for: 45188811, ORGANIC SOFT DRIED TURKISH APRICOTS, UPC: 890201002459"
Food Group:  Branded Food Products Database
Common Name:

Nutrient,Unit,Data points,Std. Error,"0.25 cup = 40.0g",1Value per 100 g,
Proximates
"Energy",kcal,--,--,74,185
"Protein",g,--,--,2.00,5.00
"Total lipid (fat)",g,--,--,0.00,0.00
"Carbohydrate, by difference",g,--,--,15.00,37.50
"Fiber, total dietary",g,--,--,3.0,7.5
"Sugars, total",g,--,--,15.00,37.50
Minerals
"Calcium, Ca",mg,--,--,30,75
"Iron, Fe",mg,--,--,1.44,3.60
"Potassium, K",mg,--,--,550,1375
"Sodium, Na",mg,--,--,6,15
Vitamins
"Vitamin C, total ascorbic acid",mg,--,--,0.0,0.0
"Vitamin A, IU",IU,--,--,1200,3000
Lipids
"Fatty acids, total saturated",g,--,--,0.000,0.000
"Fatty acids, total monounsaturated",g,--,--,0.000,0.000
"Fatty acids, total polyunsaturated",g,--,--,0.000,0.000
"Fatty acids, total trans",g,--,--,0.000,0.000
"Cholesterol",mg,--,--,0,0
Amino Acids
Other
Ingredients
"ORGANICALLY GROWN AND HUMIDIFIED APRICOTS, SPRING WATER." Date available: 07/14/2017 Date last updated by company: 07/14/2017
