Source: USDA Branded Food Products Database Release December 2017 Software v.3.8.6.4 2017-10-02
Report Run at: December 18, 2017 04:24 EST
"Nutrient data for: 45205051, ORGANIC COUNTRY-STYLE BONELESS PORK RIBS, UPC: 093966304800"
Food Group:  Branded Food Products Database
Common Name:

Nutrient,Unit,Data points,Std. Error,"4.0 ONZ = 112.0g",1Value per 100 g,
Proximates
"Energy",kcal,--,--,160,143
"Protein",g,--,--,23.00,20.54
"Total lipid (fat)",g,--,--,7.00,6.25
"Carbohydrate, by difference",g,--,--,0.00,0.00
"Fiber, total dietary",g,--,--,0.0,0.0
"Sugars, total",g,--,--,0.00,0.00
Minerals
"Calcium, Ca",mg,--,--,20,18
"Iron, Fe",mg,--,--,1.36,1.21
"Sodium, Na",mg,--,--,55,49
Vitamins
"Vitamin C, total ascorbic acid",mg,--,--,1.5,1.3
"Vitamin A, IU",IU,--,--,0,0
Lipids
"Fatty acids, total saturated",g,--,--,2.498,2.230
"Cholesterol",mg,--,--,75,67
Amino Acids
Other
Ingredients
"ORGANIC PORK" Date available: 07/14/2017 Date last updated by company: 07/14/2017
