Source: USDA Branded Food Products Database Release December 2017 Software v.3.8.6.4 2017-10-02
Report Run at: December 18, 2017 07:16 EST
"Nutrient data for: 45234570, ORGANIC VEGETABLE BROTH, UPC: 052603054508"
Food Group:  Branded Food Products Database
Common Name:

Nutrient,Unit,Data points,Std. Error,"240.0 ML = 8.0g",1Value per 100 g,
Proximates
"Energy",kcal,--,--,0,6
"Protein",g,--,--,0.00,0.00
"Total lipid (fat)",g,--,--,0.00,0.00
"Carbohydrate, by difference",g,--,--,0.10,1.25
"Fiber, total dietary",g,--,--,0.0,0.4
"Sugars, total",g,--,--,0.03,0.42
Minerals
"Calcium, Ca",mg,--,--,1,8
"Iron, Fe",mg,--,--,0.00,0.00
"Sodium, Na",mg,--,--,4,54
Vitamins
"Vitamin C, total ascorbic acid",mg,--,--,0.0,0.0
"Vitamin A, IU",IU,--,--,42,521
Lipids
"Fatty acids, total saturated",g,--,--,0.000,0.000
"Fatty acids, total trans",g,--,--,0.000,0.000
"Cholesterol",mg,--,--,0,0
Amino Acids
Other
Ingredients
"WATER, CARROTS*, ONION*, CELERY*, LEEKS*, TOMATO PUREE*, MUSHROOMS*, GARLIC*, SEA SALT, SAVORY LEAF*, GROUND BAY LEAF*." Date available: 10/13/2017 Date last updated by company: 10/13/2017
