Source: USDA Branded Food Products Database Release December 2017 Software v.3.8.6.4 2017-10-02
Report Run at: December 18, 2017 04:16 EST
"Nutrient data for: 45227445, ORGANIC CHOPPED KALE, UPC: 085239006627"
Food Group:  Branded Food Products Database
Common Name:

Nutrient,Unit,Data points,Std. Error,"1 cup = 81.0g",1Value per 100 g,
Proximates
"Energy",kcal,--,--,25,31
"Protein",g,--,--,2.00,2.47
"Total lipid (fat)",g,--,--,0.00,0.00
"Carbohydrate, by difference",g,--,--,3.00,3.70
"Fiber, total dietary",g,--,--,2.0,2.5
"Sugars, total",g,--,--,0.00,0.00
Minerals
"Calcium, Ca",mg,--,--,60,74
"Iron, Fe",mg,--,--,0.38,0.47
"Sodium, Na",mg,--,--,30,37
Vitamins
"Vitamin C, total ascorbic acid",mg,--,--,3.8,4.7
"Vitamin A, IU",IU,--,--,1836,2267
Lipids
"Fatty acids, total saturated",g,--,--,0.000,0.000
"Fatty acids, total trans",g,--,--,0.000,0.000
"Cholesterol",mg,--,--,0,0
Amino Acids
Other
Ingredients
"ORGANIC KALE." Date available: 07/14/2017 Date last updated by company: 07/14/2017
