Source: USDA Branded Food Products Database Release December 2017 Software v.3.8.6.4 2017-10-02
Report Run at: December 18, 2017 07:07 EST
"Nutrient data for: 45224028, ORGANIC TRUFFLES, UPC: 866845000007"
Food Group:  Branded Food Products Database
Common Name:

Nutrient,Unit,Data points,Std. Error,"2.0 PCS = 20.0g",1Value per 100 g,
Proximates
"Energy",kcal,--,--,88,440
"Protein",g,--,--,1.00,5.00
"Total lipid (fat)",g,--,--,6.00,30.00
"Carbohydrate, by difference",g,--,--,9.60,48.00
"Fiber, total dietary",g,--,--,1.9,9.5
"Sugars, total",g,--,--,5.10,25.50
Minerals
"Sodium, Na",mg,--,--,1,5
Vitamins
Lipids
"Fatty acids, total saturated",g,--,--,6.000,30.000
"Cholesterol",mg,--,--,0,0
Amino Acids
Other
Ingredients
"RAW AGAVE, RAW COCOA MASS (POWDER, PASTE, COCOA BUTTER), RAW COCONUT OIL, MAPLE SUGAR, PURE WATER." Date available: 10/19/2017 Date last updated by company: 10/19/2017
