Source: USDA Branded Food Products Database Release December 2017 Software v.3.8.6.4 2017-10-02
Report Run at: December 18, 2017 07:32 EST
"Nutrient data for: 45036237, ORGANIC WHOLE WHEAT PENNE RIGATE WHOLE WHEAT MACARONI PRODUCT, UPC: 719283594198"
Food Group:  Branded Food Products Database
Common Name:

Nutrient,Unit,Data points,Std. Error,"2.0 ONZ = 56.0g",1Value per 100 g,
Proximates
"Energy",kcal,--,--,210,375
"Protein",g,--,--,7.00,12.50
"Total lipid (fat)",g,--,--,1.00,1.79
"Carbohydrate, by difference",g,--,--,44.00,78.57
"Fiber, total dietary",g,--,--,6.0,10.7
"Sugars, total",g,--,--,2.00,3.57
Minerals
"Calcium, Ca",mg,--,--,11,20
"Iron, Fe",mg,--,--,0.80,1.43
"Potassium, K",mg,--,--,105,188
"Sodium, Na",mg,--,--,10,18
Vitamins
"Vitamin D",IU,--,--,0,0
Lipids
"Fatty acids, total saturated",g,--,--,0.000,0.000
"Fatty acids, total trans",g,--,--,0.000,0.000
"Cholesterol",mg,--,--,0,0
Amino Acids
Other
Ingredients
"ORGANIC HARD AMBER DURUM WHOLE WHEAT." Date available: 10/18/2017 Date last updated by company: 10/18/2017
