Source: USDA Branded Food Products Database Release December 2017 Software v.3.8.6.4 2017-10-02
Report Run at: December 18, 2017 05:55 EST
"Nutrient data for: 45110739, ORGANIC PEANUT BUTTER SANDWICH CRACKERS, UPC: 742365004650"
Food Group:  Branded Food Products Database
Common Name:

Nutrient,Unit,Data points,Std. Error,"12.0 SANDWICHES = 30.0g",1Value per 100 g,
Proximates
"Energy",kcal,--,--,160,533
"Protein",g,--,--,2.00,6.67
"Total lipid (fat)",g,--,--,9.00,30.00
"Carbohydrate, by difference",g,--,--,17.00,56.67
"Fiber, total dietary",g,--,--,1.0,3.3
"Sugars, total",g,--,--,4.00,13.33
Minerals
"Calcium, Ca",mg,--,--,100,333
"Iron, Fe",mg,--,--,1.20,4.00
"Sodium, Na",mg,--,--,190,633
Vitamins
"Vitamin C, total ascorbic acid",mg,--,--,0.0,0.0
"Vitamin A, IU",IU,--,--,0,0
Lipids
"Fatty acids, total saturated",g,--,--,2.001,6.670
"Fatty acids, total trans",g,--,--,0.000,0.000
"Cholesterol",mg,--,--,0,0
Amino Acids
Other
Ingredients
"ORGANIC WHEAT FLOUR, ORGANIC SUNFLOWER OIL, ORGANIC PEANUT BUTTER (ORGANIC DRY ROASTED PEANUTS, ORGANIC PALM OIL, SALT), ORGANIC PALM FRUIT OIL, ORGANIC POWDERED CANE SUGAR, (ORGANIC CANE SUGAR, ORGANIC TAPIOCA STARCH), ORGANIC CANE SUGAR, SALT, CALCIUM CARBONATE, ORGANIC MALT EXTRACT, BAKING SODA, ENZYMES, NATURAL FLAVOR." Date available: 07/14/2017 Date last updated by company: 07/14/2017
