Source: USDA Branded Food Products Database Release December 2017 Software v.3.8.6.4 2017-10-02
Report Run at: December 18, 2017 07:16 EST
"Nutrient data for: 45328227, ORGANIC VEGETABLE CHILI, UPC: 041497053339"
Food Group:  Branded Food Products Database
Common Name:

Nutrient,Unit,Data points,Std. Error,"1 cup = 245.0g",1Value per 100 g,
Proximates
"Energy",kcal,--,--,130,53
"Protein",g,--,--,6.00,2.45
"Total lipid (fat)",g,--,--,2.50,1.02
"Carbohydrate, by difference",g,--,--,23.01,9.39
"Fiber, total dietary",g,--,--,7.1,2.9
"Sugars, total",g,--,--,3.99,1.63
Minerals
"Calcium, Ca",mg,--,--,59,24
"Iron, Fe",mg,--,--,1.79,0.73
"Sodium, Na",mg,--,--,610,249
Vitamins
"Vitamin C, total ascorbic acid",mg,--,--,24.0,9.8
"Vitamin A, IU",IU,--,--,2499,1020
Lipids
"Fatty acids, total saturated",g,--,--,0.000,0.000
"Fatty acids, total trans",g,--,--,0.000,0.000
"Cholesterol",mg,--,--,0,0
Amino Acids
Other
Ingredients
"VEGETABLE STOCK* (WATER, VEGETABLE BASE* [CARROTS*, TOMATOES*, ONIONS*, POTATOES*, GARLIC*, SEA SALT, DEXTROSE*, EVAPORATED CANE SYRUP*, CANOLA OIL*, SPICES*, TURMERIC*]), TOMATOES* (TOMATOES*, TOMATO PUREE*, NATURALLY DERIVED CITRIC ACID), CHICKPEAS* (CHICKPEAS*, WATER, SEA SALT), KIDNEY BEANS* (KIDNEY BEANS*, WATER, SEA SALT, KOMBU SEAWEED), ONIONS*, CELERY*, CARROTS*, RED BELL PEPPERS*, BLACK BEANS*, LENTILS*, CONTAINS 2% OR LESS OF: CORN STARCH*, GARLIC*, CANOLA OIL*, LEMON JUICE*, JALAPENO PEPPERS*, CILANTRO*, SEA SALT AND SPICES*." Date available: 10/13/2017 Date last updated by company: 10/13/2017
