Source: USDA Branded Food Products Database Release December 2017 Software v.3.8.6.4 2017-10-02
Report Run at: December 18, 2017 05:21 EST
"Nutrient data for: 45316470, ORGANIC JUICE DRINK, UPC: 819416010615"
Food Group:  Branded Food Products Database
Common Name:

Nutrient,Unit,Data points,Std. Error,"1 POUCH = 177.0g",1Value per 100 g,
Proximates
"Energy",kcal,--,--,30,17
"Protein",g,--,--,0.00,0.00
"Total lipid (fat)",g,--,--,0.00,0.00
"Carbohydrate, by difference",g,--,--,6.99,3.95
"Sugars, total",g,--,--,6.99,3.95
Minerals
"Potassium, K",mg,--,--,71,40
"Sodium, Na",mg,--,--,0,0
Vitamins
"Vitamin C, total ascorbic acid",mg,--,--,81.4,46.0
Lipids
Amino Acids
Other
Ingredients
"FILTERED WATER, ORGANIC APPLE JUICE FROM CONCENTRATE, CITRIC ACID, ASCORBIC ACID (VITAMIN C), NATURAL FLAVORS." Date available: 07/14/2017 Date last updated by company: 07/14/2017
