Source: USDA Branded Food Products Database Release December 2017 Software v.3.8.6.4 2017-10-02
Report Run at: December 18, 2017 04:49 EST
"Nutrient data for: 45083880, ORGANIC FIRM TOFU, UPC: 076371012218"
Food Group:  Branded Food Products Database
Common Name:

Nutrient,Unit,Data points,Std. Error,"3.0 oz = 85.0g",1Value per 100 g,
Proximates
"Energy",kcal,--,--,70,82
"Protein",g,--,--,7.00,8.24
"Total lipid (fat)",g,--,--,4.00,4.71
"Carbohydrate, by difference",g,--,--,2.00,2.35
"Fiber, total dietary",g,--,--,1.0,1.2
"Sugars, total",g,--,--,0.00,0.00
Minerals
"Calcium, Ca",mg,--,--,150,176
"Iron, Fe",mg,--,--,1.44,1.69
"Potassium, K",mg,--,--,125,147
"Sodium, Na",mg,--,--,10,12
Vitamins
"Vitamin C, total ascorbic acid",mg,--,--,0.0,0.0
"Vitamin A, IU",IU,--,--,0,0
Lipids
"Fatty acids, total saturated",g,--,--,0.501,0.590
"Fatty acids, total monounsaturated",g,--,--,1.003,1.180
"Fatty acids, total polyunsaturated",g,--,--,2.499,2.940
"Fatty acids, total trans",g,--,--,0.000,0.000
"Cholesterol",mg,--,--,0,0
Amino Acids
Other
Ingredients
"WATER, ORGANIC SOYBEANS, CALCIUM SULFATE." Date available: 06/25/2017 Date last updated by company: 06/25/2017
