Source: USDA Branded Food Products Database Release December 2017 Software v.3.8.6.4 2017-10-02
Report Run at: December 18, 2017 06:02 EST
"Nutrient data for: 45268782, ORGANIC POPCORN, UPC: 815196013334"
Food Group:  Branded Food Products Database
Common Name:

Nutrient,Unit,Data points,Std. Error,"1 ONZ = 28.0g",1Value per 100 g,
Proximates
"Energy",kcal,--,--,130,464
"Protein",g,--,--,1.00,3.57
"Total lipid (fat)",g,--,--,6.00,21.43
"Carbohydrate, by difference",g,--,--,20.00,71.43
"Fiber, total dietary",g,--,--,1.0,3.6
"Sugars, total",g,--,--,13.00,46.43
Minerals
"Calcium, Ca",mg,--,--,0,0
"Iron, Fe",mg,--,--,0.00,0.00
"Sodium, Na",mg,--,--,30,107
Vitamins
"Vitamin C, total ascorbic acid",mg,--,--,0.0,0.0
"Vitamin A, IU",IU,--,--,0,0
Lipids
"Fatty acids, total saturated",g,--,--,4.500,16.070
"Fatty acids, total trans",g,--,--,0.000,0.000
"Cholesterol",mg,--,--,0,0
Amino Acids
Other
Ingredients
"ORGANIC CANE SUGAR, ORGANIC POPCORN, ORGANIC COCONUT OIL, ORGANIC BLACK RASPBERRY FLAVOR (ORGANIC SUNFLOWER OIL, NATURAL FLAVOR), SEA SALT, CITRIC ACID." Date available: 07/14/2017 Date last updated by company: 07/14/2017
