Source: USDA Branded Food Products Database Release December 2017 Software v.3.8.6.4 2017-10-02
Report Run at: December 18, 2017 04:41 EST
"Nutrient data for: 45192027, ORGANIC EDAMAME SPAGHETTI, UPC: 650748779906"
Food Group:  Branded Food Products Database
Common Name:

Nutrient,Unit,Data points,Std. Error,"2.0 ONZ = 56.0g",1Value per 100 g,
Proximates
"Energy",kcal,--,--,204,364
"Protein",g,--,--,24.00,42.86
"Total lipid (fat)",g,--,--,2.00,3.57
"Carbohydrate, by difference",g,--,--,21.00,37.50
"Fiber, total dietary",g,--,--,11.0,19.6
"Sugars, total",g,--,--,6.00,10.71
Minerals
"Calcium, Ca",mg,--,--,80,143
"Iron, Fe",mg,--,--,5.40,9.64
"Sodium, Na",mg,--,--,5,9
Vitamins
"Vitamin C, total ascorbic acid",mg,--,--,6.6,11.8
"Vitamin A, IU",IU,--,--,100,179
Lipids
"Fatty acids, total saturated",g,--,--,0.000,0.000
"Fatty acids, total trans",g,--,--,0.000,0.000
"Cholesterol",mg,--,--,0,0
Amino Acids
Other
Ingredients
"ORGANIC EDAMAME (GREEN SOYBEANS), WATER." Date available: 12/31/2016 Date last updated by company: 12/31/2016
