Source: USDA Branded Food Products Database Release December 2017 Software v.3.8.6.4 2017-10-02
Report Run at: December 18, 2017 04:17 EST
"Nutrient data for: 45048485, ORGANIC CINNAMON RAISIN BAGELS, UPC: 717221290058"
Food Group:  Branded Food Products Database
Common Name:

Nutrient,Unit,Data points,Std. Error,"1 BAGEL = 106.0g",1Value per 100 g,
Proximates
"Energy",kcal,--,--,290,274
"Protein",g,--,--,9.00,8.49
"Total lipid (fat)",g,--,--,0.50,0.47
"Carbohydrate, by difference",g,--,--,60.00,56.60
"Fiber, total dietary",g,--,--,3.0,2.8
"Sugars, total",g,--,--,16.00,15.09
Minerals
"Calcium, Ca",mg,--,--,20,19
"Iron, Fe",mg,--,--,1.49,1.41
"Sodium, Na",mg,--,--,909,858
Vitamins
"Vitamin C, total ascorbic acid",mg,--,--,0.0,0.0
"Vitamin A, IU",IU,--,--,0,0
Lipids
"Fatty acids, total saturated",g,--,--,0.000,0.000
"Fatty acids, total trans",g,--,--,0.000,0.000
"Cholesterol",mg,--,--,0,0
Amino Acids
Other
Ingredients
"ORGANIC WHEAT FLOUR, WATER, ORGANIC EVAPORATED CANE JUICE (SUGAR), ORGANIC RAISINS, SEA SALT, ORGANIC WHEAT GLUTEN, ORGANIC CULTURED WHEAT, ORGANIC CINNAMON, ORGANIC CULTURED WHEAT FLOUR, ORGANIC BARLEY MALT, YEAST." Date available: 08/31/2017 Date last updated by company: 08/31/2017
