Source: USDA Branded Food Products Database Release December 2017 Software v.3.8.6.4 2017-10-02
Report Run at: December 18, 2017 04:32 EST
"Nutrient data for: 45290946, ORGANIC DARK CHOCOLATE SNACK BITES, UPC: 076500040464"
Food Group:  Branded Food Products Database
Common Name:

Nutrient,Unit,Data points,Std. Error,"1.4 ONZ = 40.0g",1Value per 100 g,
Proximates
"Energy",kcal,--,--,170,425
"Protein",g,--,--,2.00,5.00
"Total lipid (fat)",g,--,--,10.00,25.00
"Carbohydrate, by difference",g,--,--,25.00,62.50
"Fiber, total dietary",g,--,--,3.0,7.5
"Sugars, total",g,--,--,11.00,27.50
Minerals
"Calcium, Ca",mg,--,--,20,50
"Iron, Fe",mg,--,--,3.38,8.44
"Sodium, Na",mg,--,--,0,0
Vitamins
"Vitamin C, total ascorbic acid",mg,--,--,1.5,3.8
"Vitamin A, IU",IU,--,--,125,312
Lipids
"Fatty acids, total saturated",g,--,--,6.000,15.000
"Fatty acids, total trans",g,--,--,0.000,0.000
"Cholesterol",mg,--,--,0,0
Amino Acids
Other
Ingredients
"ORGANIC DARK CHOCOLATE (*ORGANIC CHOCOLATE LIQUOR, *ORGANIC DRIED CANE SYRUP, *ORGANIC COCOA BUTTER, ORGANIC SOY LECITHIN ADDED AS AN EMULSIFIER, AND ORGANIC VANILLA EXTRACT), ORGANIC BANANA BITES (DRIED BANANA, SIOMA OIL, SUNFLOWER OIL, OR PALM OIL), GUM ARABIC, GLUCOSE SYRUP, WATER, VEGETABLE FAT, CITRIC ACID, POTASSIUM SORBATE, ORGANIC TAPIOCA SYRUP (ORGANIC TAPIOCA STARCH, WATER)." Date available: 07/14/2017 Date last updated by company: 07/14/2017
