Source: USDA Branded Food Products Database Release December 2017 Software v.3.8.6.4 2017-10-02
Report Run at: December 18, 2017 05:43 EST
"Nutrient data for: 45229161, ORGANIC MIXED VEGETABLES, UPC: 014500017215"
Food Group:  Branded Food Products Database
Common Name:

Nutrient,Unit,Data points,Std. Error,"0.67 cup = 88.0g",1Value per 100 g,
Proximates
"Energy",kcal,--,--,50,57
"Protein",g,--,--,2.00,2.27
"Total lipid (fat)",g,--,--,0.00,0.00
"Carbohydrate, by difference",g,--,--,11.00,12.50
"Fiber, total dietary",g,--,--,2.0,2.3
"Sugars, total",g,--,--,3.00,3.41
Minerals
"Calcium, Ca",mg,--,--,0,0
"Iron, Fe",mg,--,--,0.34,0.39
"Sodium, Na",mg,--,--,25,28
Vitamins
"Vitamin C, total ascorbic acid",mg,--,--,5.8,6.6
"Vitamin A, IU",IU,--,--,4346,4939
Lipids
"Fatty acids, total saturated",g,--,--,0.000,0.000
"Fatty acids, total trans",g,--,--,0.000,0.000
"Cholesterol",mg,--,--,0,0
Amino Acids
Other
Ingredients
"ORGANIC CORN, ORGANIC CARROTS, ORGANIC GREEN BEANS, ORGANIC SWEET PEAS." Date available: 07/14/2017 Date last updated by company: 07/14/2017
