Source: USDA Branded Food Products Database Release December 2017 Software v.3.8.6.4 2017-10-02
Report Run at: December 18, 2017 07:02 EST
"Nutrient data for: 45330763, ORGANIC TOMATO PASTE, UPC: 042563604042"
Food Group:  Branded Food Products Database
Common Name:

Nutrient,Unit,Data points,Std. Error,"2.0 Tbsp = 33.0g",1Value per 100 g,
Proximates
"Energy",kcal,--,--,25,76
"Protein",g,--,--,1.00,3.03
"Total lipid (fat)",g,--,--,0.00,0.00
"Carbohydrate, by difference",g,--,--,5.00,15.15
"Fiber, total dietary",g,--,--,2.0,6.1
"Sugars, total",g,--,--,4.00,12.12
Minerals
"Calcium, Ca",mg,--,--,20,61
"Iron, Fe",mg,--,--,1.09,3.31
"Potassium, K",mg,--,--,410,1242
"Sodium, Na",mg,--,--,20,61
Vitamins
"Vitamin C, total ascorbic acid",mg,--,--,5.4,16.5
"Vitamin A, IU",IU,--,--,1137,3444
Lipids
"Fatty acids, total saturated",g,--,--,0.000,0.000
"Fatty acids, total trans",g,--,--,0.000,0.000
"Cholesterol",mg,--,--,0,0
Amino Acids
Other
Ingredients
"ORGANIC TOMATOES, NATURALLY DERIVED CITRIC ACID." Date available: 10/13/2017 Date last updated by company: 10/13/2017
