Source: USDA Branded Food Products Database Release December 2017 Software v.3.8.6.4 2017-10-02
Report Run at: December 18, 2017 07:03 EST
"Nutrient data for: 45200335, ORGANIC TOMATO SAUCE, UPC: 706173015185"
Food Group:  Branded Food Products Database
Common Name:

Nutrient,Unit,Data points,Std. Error,"0.25 cup = 63.0g",1Value per 100 g,
Proximates
"Energy",kcal,--,--,15,24
"Protein",g,--,--,0.00,0.00
"Total lipid (fat)",g,--,--,0.00,0.00
"Carbohydrate, by difference",g,--,--,3.00,4.76
"Fiber, total dietary",g,--,--,1.0,1.6
"Sugars, total",g,--,--,2.00,3.17
Minerals
"Calcium, Ca",mg,--,--,0,0
"Iron, Fe",mg,--,--,0.34,0.54
"Potassium, K",mg,--,--,180,286
"Sodium, Na",mg,--,--,320,508
Vitamins
"Vitamin C, total ascorbic acid",mg,--,--,1.1,1.8
"Vitamin A, IU",IU,--,--,285,453
Lipids
"Fatty acids, total saturated",g,--,--,0.000,0.000
"Fatty acids, total trans",g,--,--,0.000,0.000
"Cholesterol",mg,--,--,0,0
Amino Acids
Other
Ingredients
"ORGANIC TOMATO PUREE, SEA SALT, ORGANIC SUGAR, ORGANIC RED PEPPER, NATURALLY DERIVED CITRIC ACID." Date available: 07/14/2017 Date last updated by company: 07/14/2017
