Source: USDA Branded Food Products Database Release December 2017 Software v.3.8.6.4 2017-10-02
Report Run at: December 18, 2017 07:17 EST
"Nutrient data for: 45039258, ORGANIC VEGETABLE QUINOA SOUP, UPC: 052603055215"
Food Group:  Branded Food Products Database
Common Name:

Nutrient,Unit,Data points,Std. Error,"1 cup = 241.0g",1Value per 100 g,
Proximates
"Energy",kcal,--,--,111,46
"Protein",g,--,--,4.00,1.66
"Total lipid (fat)",g,--,--,2.00,0.83
"Carbohydrate, by difference",g,--,--,18.99,7.88
"Fiber, total dietary",g,--,--,4.1,1.7
"Sugars, total",g,--,--,2.99,1.24
Minerals
"Calcium, Ca",mg,--,--,80,33
"Iron, Fe",mg,--,--,1.83,0.76
"Sodium, Na",mg,--,--,530,220
Vitamins
"Vitamin C, total ascorbic acid",mg,--,--,0.0,0.0
"Vitamin A, IU",IU,--,--,2034,844
Lipids
"Fatty acids, total saturated",g,--,--,0.193,0.080
"Fatty acids, total trans",g,--,--,0.000,0.000
"Cholesterol",mg,--,--,0,0
Amino Acids
Other
Ingredients
"WATER, ONIONS*, TOMATOES*, CARROTS*, RED BELL PEPPER*, QUINOA*, NAVY BEANS*, CORNSTARCH*, TOMATO PASTE*, SEA SALT, GARLIC*, EXTRA VIRGIN OLIVE OIL*, BASIL*, THYME*, BLACK PEPPER*." Date available: 07/14/2017 Date last updated by company: 07/14/2017
