Source: USDA Branded Food Products Database Release December 2017 Software v.3.8.6.4 2017-10-02
Report Run at: December 18, 2017 05:37 EST
"Nutrient data for: 45052807, ORGANIC MARINARA, PREMIUM ALL NATURAL ORGANIC SAUCE, UPC: 039153414754"
Food Group:  Branded Food Products Database
Common Name:

Nutrient,Unit,Data points,Std. Error,"0.5 cup = 113.0g",1Value per 100 g,
Proximates
"Energy",kcal,--,--,45,40
"Protein",g,--,--,0.99,0.88
"Total lipid (fat)",g,--,--,2.50,2.21
"Carbohydrate, by difference",g,--,--,4.99,4.42
"Fiber, total dietary",g,--,--,1.0,0.9
"Sugars, total",g,--,--,2.00,1.77
Minerals
"Calcium, Ca",mg,--,--,40,35
"Iron, Fe",mg,--,--,1.14,1.01
"Sodium, Na",mg,--,--,380,336
Vitamins
"Vitamin C, total ascorbic acid",mg,--,--,9.5,8.4
"Vitamin A, IU",IU,--,--,105,93
Lipids
"Fatty acids, total saturated",g,--,--,0.994,0.880
"Fatty acids, total trans",g,--,--,0.000,0.000
"Cholesterol",mg,--,--,0,0
Amino Acids
Other
Ingredients
"ORGANIC ITALIAN PLUM TOMATOES, ORGANIC ONIONS, ORGANIC EXTRA VIRGIN OLIVE OIL, SEA SALT, ORGANIC GARLIC, AND ORGANIC SPICES." Date available: 06/25/2017 Date last updated by company: 06/25/2017
