Source: USDA Branded Food Products Database Release December 2017 Software v.3.8.6.4 2017-10-02
Report Run at: December 18, 2017 05:23 EST
"Nutrient data for: 45191714, ORGANIC KALE RISING CRUST PIZZA, UPC: 085239307717"
Food Group:  Branded Food Products Database
Common Name:

Nutrient,Unit,Data points,Std. Error,"0.25 PIZZA = 110.0g",1Value per 100 g,
Proximates
"Energy",kcal,--,--,230,209
"Protein",g,--,--,12.00,10.91
"Total lipid (fat)",g,--,--,7.00,6.36
"Carbohydrate, by difference",g,--,--,32.00,29.09
"Fiber, total dietary",g,--,--,2.0,1.8
"Sugars, total",g,--,--,3.00,2.73
Minerals
"Calcium, Ca",mg,--,--,200,182
"Iron, Fe",mg,--,--,1.28,1.16
"Sodium, Na",mg,--,--,490,445
Vitamins
"Vitamin C, total ascorbic acid",mg,--,--,15.9,14.5
"Vitamin A, IU",IU,--,--,1772,1611
Lipids
"Fatty acids, total saturated",g,--,--,3.498,3.180
"Fatty acids, total trans",g,--,--,0.000,0.000
"Cholesterol",mg,--,--,15,14
Amino Acids
Other
Ingredients
"ORGANIC WHEAT FLOUR, FILTERED WATER, ORGANIC LOW-MOISTURE PART-SKIM MOZZARELLA CHEESE (ORGANIC CULTURED PASTEURIZED PART-SKIM MILK, SALT, ENZYMES), ORGANIC CRUSHED TOMATOES, ORGANIC PASTEURIZED COW'S MILK FETA (ORGANIC PASTEURIZED MILK AND ORGANIC NONFAT DRY MILK, SALT, CHEESE CULTURE, CALCIUM CHLORIDE), ORGANIC KALE, ORGANIC RED ONION, ORGANIC EXTRA VIRGIN OLIVE OIL, ORGANIC TOMATO PASTE, YEAST, ORGANIC VITAL WHEAT GLUTEN, ORGANIC HONEY, SEA SALT, ORGANIC SPICES, ORGANIC CANE SUGAR, ORGANIC GARLIC POWDER, ORGANIC GRANULATED GARLIC." Date available: 07/14/2017 Date last updated by company: 07/14/2017
