Source: USDA Branded Food Products Database Release December 2017 Software v.3.8.6.4 2017-10-02
Report Run at: December 18, 2017 07:00 EST
"Nutrient data for: 45123605, ORGANIC TOASTER PASTRIES TARTS, UPC: 058449410027"
Food Group:  Branded Food Products Database
Common Name:

Nutrient,Unit,Data points,Std. Error,"1 PASTRY = 52.0g",1Value per 100 g,
Proximates
"Energy",kcal,--,--,210,404
"Protein",g,--,--,2.00,3.85
"Total lipid (fat)",g,--,--,4.50,8.65
"Carbohydrate, by difference",g,--,--,39.00,75.00
"Fiber, total dietary",g,--,--,1.0,1.9
"Sugars, total",g,--,--,21.00,40.38
Minerals
"Calcium, Ca",mg,--,--,20,38
"Iron, Fe",mg,--,--,3.05,5.86
"Sodium, Na",mg,--,--,130,250
Vitamins
"Vitamin C, total ascorbic acid",mg,--,--,0.0,0.0
"Vitamin A, IU",IU,--,--,0,0
Lipids
"Fatty acids, total saturated",g,--,--,2.002,3.850
"Fatty acids, total trans",g,--,--,0.000,0.000
"Cholesterol",mg,--,--,0,0
Amino Acids
Other
Ingredients
"WHEAT FLOUR*, CANE SUGAR*, INVERT CANE SYRUP*, PALM OIL*, WHOLE WHEAT FLOUR*, APPLES*, CORN STARCH*, VITAL WHEAT GLUTEN*, DEXTROSE*, RICE STARCH*, SEA SALT, LEAVENING (BAKING SODA, CREAM OF TARTAR), TAPIOCA STARCH*, CINNAMON*, APPLE FLAVOR*, HONEY*, MOLASSES*, CITRIC ACID, VANILLA FLAVOR*, ALGIN, SODIUM CITRATE, MONOCALCIUM PHOSPHATE, WHEY PROTEIN CONCENTRATE* (MILK)." Date available: 07/14/2017 Date last updated by company: 07/14/2017
