Source: USDA Branded Food Products Database Release December 2017 Software v.3.8.6.4 2017-10-02
Report Run at: December 18, 2017 06:11 EST
"Nutrient data for: 45183430, ORGANIC QUINOA, UPC: 073866106438"
Food Group:  Branded Food Products Database
Common Name:

Nutrient,Unit,Data points,Std. Error,"0.25 cup = 45.0g",1Value per 100 g,
Proximates
"Energy",kcal,--,--,170,378
"Protein",g,--,--,6.00,13.33
"Total lipid (fat)",g,--,--,2.50,5.56
"Carbohydrate, by difference",g,--,--,29.00,64.44
"Fiber, total dietary",g,--,--,3.0,6.7
"Sugars, total",g,--,--,2.00,4.44
Minerals
"Calcium, Ca",mg,--,--,20,44
"Iron, Fe",mg,--,--,1.80,4.00
"Sodium, Na",mg,--,--,0,0
Vitamins
"Vitamin C, total ascorbic acid",mg,--,--,0.0,0.0
"Vitamin A, IU",IU,--,--,0,0
Lipids
"Fatty acids, total saturated",g,--,--,0.000,0.000
"Fatty acids, total trans",g,--,--,0.000,0.000
"Cholesterol",mg,--,--,0,0
Amino Acids
Other
Ingredients
"ORGANIC WHITE QUINOA." Date available: 07/14/2017 Date last updated by company: 07/14/2017
