Source: USDA Branded Food Products Database Release December 2017 Software v.3.8.6.4 2017-10-02
Report Run at: December 18, 2017 05:20 EST
"Nutrient data for: 45086812, ORGANIC ITALIAN STRAINED TOMATOES, UPC: 8003716001271"
Food Group:  Branded Food Products Database
Common Name:

Nutrient,Unit,Data points,Std. Error,"0.5 cup = 121.0g",1Value per 100 g,
Proximates
"Energy",kcal,--,--,24,20
"Protein",g,--,--,1.10,0.91
"Total lipid (fat)",g,--,--,0.05,0.04
"Carbohydrate, by difference",g,--,--,6.00,4.96
"Fiber, total dietary",g,--,--,2.1,1.7
"Sugars, total",g,--,--,4.01,3.31
Minerals
"Calcium, Ca",mg,--,--,21,17
"Iron, Fe",mg,--,--,0.71,0.59
"Sodium, Na",mg,--,--,21,17
Vitamins
"Vitamin C, total ascorbic acid",mg,--,--,3.0,2.5
"Vitamin A, IU",IU,--,--,248,205
Lipids
"Fatty acids, total saturated",g,--,--,0.048,0.040
"Fatty acids, total trans",g,--,--,0.000,0.000
"Cholesterol",mg,--,--,0,0
Amino Acids
Other
Ingredients
"FRESH TOMATOES*." Date available: 07/14/2017 Date last updated by company: 07/14/2017
