Source: USDA Branded Food Products Database Release December 2017 Software v.3.8.6.4 2017-10-02
Report Run at: December 18, 2017 04:22 EST
"Nutrient data for: 45290969, ORGANIC COLD BREW COFFEE, UPC: 855186006311"
Food Group:  Branded Food Products Database
Common Name:

Nutrient,Unit,Data points,Std. Error,"1 BOTTLE = 310.5g",1Value per 100 g,
Proximates
"Energy",kcal,--,--,6,2
"Protein",g,--,--,0.00,0.00
"Total lipid (fat)",g,--,--,0.00,0.00
"Carbohydrate, by difference",g,--,--,0.00,0.00
Minerals
"Sodium, Na",mg,--,--,6,2
Vitamins
Lipids
Amino Acids
Other
Ingredients
"ORGANIC COLD BREW COFFEE (WATER, ORGANIC COFFEE)" Date available: 07/14/2017 Date last updated by company: 07/14/2017
