Source: USDA Branded Food Products Database Release December 2017 Software v.3.8.6.4 2017-10-02
Report Run at: December 18, 2017 05:27 EST
"Nutrient data for: 45228792, ORGANIC LEMON SODA, UPC: 851277005096"
Food Group:  Branded Food Products Database
Common Name:

Nutrient,Unit,Data points,Std. Error,"1 CAN = 355.0g",1Value per 100 g,
Proximates
"Energy",kcal,--,--,121,34
"Protein",g,--,--,0.00,0.00
"Total lipid (fat)",g,--,--,0.00,0.00
"Carbohydrate, by difference",g,--,--,30.00,8.45
"Sugars, total",g,--,--,29.00,8.17
Minerals
"Sodium, Na",mg,--,--,0,0
Vitamins
"Vitamin C, total ascorbic acid",mg,--,--,5.0,1.4
Lipids
Amino Acids
Other
Ingredients
"FILTERED CARBONATED WATER, ORGANIC CANE SUGAR, ORGANIC LEMON JUICE FROM CONCENTRATE." Date available: 07/14/2017 Date last updated by company: 07/14/2017
