Source: USDA Branded Food Products Database Release December 2017 Software v.3.8.6.4 2017-10-02
Report Run at: December 18, 2017 04:41 EST
"Nutrient data for: 45212292, ORGANIC EDAMAME, UPC: 732869292615"
Food Group:  Branded Food Products Database
Common Name:

Nutrient,Unit,Data points,Std. Error,"2.0 CUPS) OR 3.2 OZ (90G) EDIBLE PARTS (ABOUT 1 CUP) | WITH PODS (ABOUT = 180.0g",1Value per 100 g,
Proximates
"Energy",kcal,--,--,169,94
"Protein",g,--,--,12.01,6.67
"Total lipid (fat)",g,--,--,2.00,1.11
"Carbohydrate, by difference",g,--,--,28.01,15.56
"Fiber, total dietary",g,--,--,9.0,5.0
"Sugars, total",g,--,--,0.00,0.00
Minerals
"Calcium, Ca",mg,--,--,101,56
"Iron, Fe",mg,--,--,1.28,0.71
"Sodium, Na",mg,--,--,310,172
Vitamins
"Vitamin C, total ascorbic acid",mg,--,--,0.0,0.0
"Vitamin A, IU",IU,--,--,94,52
Lipids
"Fatty acids, total saturated",g,--,--,0.000,0.000
"Fatty acids, total trans",g,--,--,0.000,0.000
"Cholesterol",mg,--,--,0,0
Amino Acids
Other
Ingredients
"ORGANIC SOYBEANS AND SEA SALT." Date available: 09/16/2017 Date last updated by company: 09/16/2017
