Source: USDA Branded Food Products Database Release December 2017 Software v.3.8.6.4 2017-10-02
Report Run at: December 18, 2017 05:12 EST
"Nutrient data for: 45047677, ORGANIC HEARTY TOMATO BISQUE, UPC: 052603054904"
Food Group:  Branded Food Products Database
Common Name:

Nutrient,Unit,Data points,Std. Error,"1 cup = 245.0g",1Value per 100 g,
Proximates
"Energy",kcal,--,--,130,53
"Protein",g,--,--,2.01,0.82
"Total lipid (fat)",g,--,--,8.01,3.27
"Carbohydrate, by difference",g,--,--,19.01,7.76
"Fiber, total dietary",g,--,--,2.0,0.8
"Sugars, total",g,--,--,13.01,5.31
Minerals
"Calcium, Ca",mg,--,--,59,24
"Iron, Fe",mg,--,--,0.71,0.29
"Sodium, Na",mg,--,--,669,273
Vitamins
"Vitamin C, total ascorbic acid",mg,--,--,2.5,1.0
"Vitamin A, IU",IU,--,--,750,306
Lipids
"Fatty acids, total saturated",g,--,--,4.998,2.040
"Fatty acids, total trans",g,--,--,0.000,0.000
"Cholesterol",mg,--,--,29,12
Amino Acids
Other
Ingredients
"WATER, TOMATOES*, TOMATO CONCENTRATE*, CREAM*[MILK], CANE SUGAR*, CORN STARCH*, SEA SALT, SODIUM CITRATE, GARLIC*, ONIONS*." Date available: 10/13/2017 Date last updated by company: 10/13/2017
