Source: USDA Branded Food Products Database Release December 2017 Software v.3.8.6.4 2017-10-02
Report Run at: December 18, 2017 07:05 EST
"Nutrient data for: 45322972, ORGANIC TRADITIONAL WHOLE WHEAT UDON ORIENTAL NOODLES, UPC: 023547822010"
Food Group:  Branded Food Products Database
Common Name:

Nutrient,Unit,Data points,Std. Error,"1 BUNDLE = 76.0g",1Value per 100 g,
Proximates
"Total lipid (fat)",g,--,--,1.00,1.32
"Fiber, total dietary",g,--,--,2.0,2.6
"Sugars, total",g,--,--,0.00,0.00
Minerals
"Calcium, Ca",mg,--,--,20,26
"Iron, Fe",mg,--,--,1.95,2.57
Vitamins
"Vitamin C, total ascorbic acid",mg,--,--,0.0,0.0
"Vitamin A, IU",IU,--,--,0,0
Lipids
"Fatty acids, total saturated",g,--,--,0.000,0.000
"Fatty acids, total trans",g,--,--,0.000,0.000
"Cholesterol",mg,--,--,0,0
Amino Acids
Other
Ingredients
"ORGANIC WHOLE WHEAT FLOUR, ORGANIC SIFTED WHEAT FLOUR, SEA SALT." Date available: 08/15/2017 Date last updated by company: 08/15/2017
