Source: USDA Branded Food Products Database Release December 2017 Software v.3.8.6.4 2017-10-02
Report Run at: December 18, 2017 05:44 EST
"Nutrient data for: 45292645, ORGANIC MORINGA GREENS & PROTEIN SUPERFOOD SMOOTHIE MIX, UPC: 850460005332"
Food Group:  Branded Food Products Database
Common Name:

Nutrient,Unit,Data points,Std. Error,"0.25 cup = 29.0g",1Value per 100 g,
Proximates
"Energy",kcal,--,--,110,379
"Protein",g,--,--,15.00,51.72
"Total lipid (fat)",g,--,--,1.50,5.17
"Carbohydrate, by difference",g,--,--,10.00,34.48
"Fiber, total dietary",g,--,--,5.0,17.2
"Sugars, total",g,--,--,1.00,3.45
Minerals
"Calcium, Ca",mg,--,--,159,548
"Iron, Fe",mg,--,--,2.30,7.93
"Potassium, K",mg,--,--,141,486
"Sodium, Na",mg,--,--,240,828
Vitamins
"Vitamin D",IU,--,--,0,0
Lipids
"Fatty acids, total saturated",g,--,--,0.000,0.000
"Fatty acids, total trans",g,--,--,0.000,0.000
"Cholesterol",mg,--,--,0,0
Amino Acids
Other
Ingredients
"ORGANIC MORINGA LEAF POWDER, ORGANIC PEA PROTEIN, ORGANIC BROWN RICE PROTEIN, ORGANIC NATURAL FLAVORS, ORGANIC GUAR GUM, SALT, ORGANIC STEVIA LEAF EXTRACT, SUNFLOWER LECITHIN." Date available: 10/04/2017 Date last updated by company: 10/04/2017
