Source: USDA Branded Food Products Database Release December 2017 Software v.3.8.6.4 2017-10-02
Report Run at: December 18, 2017 06:26 EST
"Nutrient data for: 45031737, ORGANIC ROYAL BLACK QUINOA, UPC: 017670010297"
Food Group:  Branded Food Products Database
Common Name:

Nutrient,Unit,Data points,Std. Error,"0.25 cup = 43.0g",1Value per 100 g,
Proximates
"Energy",kcal,--,--,160,372
"Protein",g,--,--,6.00,13.95
"Total lipid (fat)",g,--,--,2.50,5.81
"Carbohydrate, by difference",g,--,--,29.00,67.44
"Fiber, total dietary",g,--,--,3.0,7.0
Minerals
"Calcium, Ca",mg,--,--,20,47
"Iron, Fe",mg,--,--,3.77,8.76
"Sodium, Na",mg,--,--,10,23
Vitamins
Lipids
Amino Acids
Other
Ingredients
"100% ORGANIC ROYAL BLACK QUINOA." Date available: 10/02/2017 Date last updated by company: 10/02/2017
