Source: USDA Branded Food Products Database Release December 2017 Software v.3.8.6.4 2017-10-02
Report Run at: December 18, 2017 06:05 EST
"Nutrient data for: 45205067, ORGANIC PRAIRIE, ORGANIC GROUND BEEF PATTIES, UPC: 093966307337"
Food Group:  Branded Food Products Database
Common Name:

Nutrient,Unit,Data points,Std. Error,"1 PATTY = 151.0g",1Value per 100 g,
Proximates
"Energy",kcal,--,--,325,215
"Protein",g,--,--,26.00,17.22
"Total lipid (fat)",g,--,--,23.00,15.23
"Carbohydrate, by difference",g,--,--,0.00,0.00
"Fiber, total dietary",g,--,--,0.0,0.0
"Sugars, total",g,--,--,0.00,0.00
Minerals
"Calcium, Ca",mg,--,--,20,13
"Iron, Fe",mg,--,--,1.53,1.01
"Sodium, Na",mg,--,--,100,66
Vitamins
"Vitamin C, total ascorbic acid",mg,--,--,0.0,0.0
"Vitamin A, IU",IU,--,--,0,0
Lipids
"Fatty acids, total saturated",g,--,--,9.996,6.620
"Fatty acids, total monounsaturated",g,--,--,9.996,6.620
"Fatty acids, total polyunsaturated",g,--,--,0.498,0.330
"Cholesterol",mg,--,--,106,70
Amino Acids
Other
Ingredients
"USDA CERTIFIED ORGANIC GRASSFED BEEF." Date available: 07/14/2017 Date last updated by company: 07/14/2017
