Source: USDA Branded Food Products Database Release December 2017 Software v.3.8.6.4 2017-10-02
Report Run at: December 18, 2017 05:13 EST
"Nutrient data for: 45063506, ORGANIC HOISIN SAUCE, UPC: 036800403673"
Food Group:  Branded Food Products Database
Common Name:

Nutrient,Unit,Data points,Std. Error,"1 Tbsp = 15.0g",1Value per 100 g,
Proximates
"Energy",kcal,--,--,15,100
"Protein",g,--,--,0.00,0.00
"Total lipid (fat)",g,--,--,0.00,0.00
"Carbohydrate, by difference",g,--,--,3.00,20.00
"Fiber, total dietary",g,--,--,0.0,0.0
"Sugars, total",g,--,--,2.00,13.33
Minerals
"Calcium, Ca",mg,--,--,0,0
"Iron, Fe",mg,--,--,0.00,0.00
"Sodium, Na",mg,--,--,135,900
Vitamins
"Vitamin C, total ascorbic acid",mg,--,--,0.0,0.0
"Vitamin A, IU",IU,--,--,0,0
Lipids
"Fatty acids, total saturated",g,--,--,0.000,0.000
"Fatty acids, total trans",g,--,--,0.000,0.000
"Cholesterol",mg,--,--,0,0
Amino Acids
Other
Ingredients
"FILTERED WATER, ORGANIC SUGAR, ORGANIC SOY SAUCE (WATER, ORGANIC SOYBEANS, ORGANIC WHEAT, SALT, ORGANIC ALCOHOL), ORGANIC CIDER VINEGAR, ORGANIC MISO (ORGANIC RICE KOJI, ORGANIC SOYBEANS, SEA SALT, WATER, KOJI SPORES), ORGANIC MOLASSES, ORGANIC CORN STARCH, ORGANIC ORANGE JUICE CONCENTRATE, ORGANIC GINGER PUREE, ORGANIC TOASTED SESAME OIL, ORGANIC ONION POWDER, ORGANIC GARLIC POWDER, ORGANIC CARAMEL COLOR, ORGANIC CHILI POWDER, ORGANIC GARLIC, ORGANIC TAMARIND, XANTHAN GUM (A NATURAL THICKENER)." Date available: 07/14/2017 Date last updated by company: 07/14/2017
