Source: USDA Branded Food Products Database Release December 2017 Software v.3.8.6.4 2017-10-02
Report Run at: December 18, 2017 07:12 EST
"Nutrient data for: 45082792, ORGANIC VALLEY, LOWFAT COTTAGE CHEESE, UPC: 093966002041"
Food Group:  Branded Food Products Database
Common Name:

Nutrient,Unit,Data points,Std. Error,"0.5 cup = 110.0g",1Value per 100 g,
Proximates
"Energy",kcal,--,--,100,91
"Protein",g,--,--,15.00,13.64
"Total lipid (fat)",g,--,--,2.00,1.82
"Carbohydrate, by difference",g,--,--,4.00,3.64
"Fiber, total dietary",g,--,--,0.0,0.0
"Sugars, total",g,--,--,3.00,2.73
Minerals
"Calcium, Ca",mg,--,--,80,73
"Iron, Fe",mg,--,--,0.00,0.00
"Sodium, Na",mg,--,--,450,409
Vitamins
"Vitamin C, total ascorbic acid",mg,--,--,0.0,0.0
"Vitamin A, IU",IU,--,--,200,182
Lipids
"Fatty acids, total saturated",g,--,--,1.496,1.360
"Fatty acids, total trans",g,--,--,0.000,0.000
"Cholesterol",mg,--,--,10,9
Amino Acids
Other
Ingredients
"ORGANIC CULTURED PASTEURIZED SKIM MILK, ORGANIC PASTEURIZED CREAM, ORGANIC NONFAT MILK, SALT, CITRIC ACID, ORGANIC GUAR GUM, ORGANIC LOCUST BEAN GUM, ACIDOPHILUS AND BIFIDUS CULTURES, VITAMIN A PALMITATE." Date available: 07/14/2017 Date last updated by company: 07/14/2017
