Source: USDA Branded Food Products Database Release December 2017 Software v.3.8.6.4 2017-10-02
Report Run at: December 18, 2017 06:01 EST
"Nutrient data for: 45081878, ORGANIC POLENTA, UPC: 659201102039"
Food Group:  Branded Food Products Database
Common Name:

Nutrient,Unit,Data points,Std. Error,"100.0 g = 100.0g",1Value per 100 g,
Proximates
"Energy",kcal,--,--,71,71
"Protein",g,--,--,2.00,2.00
"Total lipid (fat)",g,--,--,0.00,0.00
"Carbohydrate, by difference",g,--,--,15.00,15.00
"Fiber, total dietary",g,--,--,1.0,1.0
"Sugars, total",g,--,--,1.00,1.00
Minerals
"Calcium, Ca",mg,--,--,0,0
"Iron, Fe",mg,--,--,0.50,0.50
"Sodium, Na",mg,--,--,310,310
Vitamins
"Vitamin C, total ascorbic acid",mg,--,--,10.1,10.1
"Vitamin A, IU",IU,--,--,420,420
Lipids
"Fatty acids, total saturated",g,--,--,0.000,0.000
"Fatty acids, total trans",g,--,--,0.000,0.000
"Cholesterol",mg,--,--,0,0
Amino Acids
Other
Ingredients
"WATER, ORGANIC YELLOW CORN MEAL, ORGANIC DEHYDRATED GARLIC, SALT, ORGANIC BASIL, TARTARIC ACID*, ASCORBIC ACID (VITAMIN C), BETA CAROTENE (VITAMIN A). *A NATURALLY OCCURRING ACID USED TO CONTROL PH." Date available: 06/25/2017 Date last updated by company: 06/25/2017
