Source: USDA Branded Food Products Database Release December 2017 Software v.3.8.6.4 2017-10-02
Report Run at: December 18, 2017 06:51 EST
"Nutrient data for: 45221288, ORGANIC STUFFED SHELLS, UPC: 785030021057"
Food Group:  Branded Food Products Database
Common Name:

Nutrient,Unit,Data points,Std. Error,"1 BOWL = 284.0g",1Value per 100 g,
Proximates
"Energy",kcal,--,--,321,113
"Protein",g,--,--,15.00,5.28
"Total lipid (fat)",g,--,--,3.49,1.23
"Carbohydrate, by difference",g,--,--,64.01,22.54
"Fiber, total dietary",g,--,--,9.1,3.2
"Sugars, total",g,--,--,9.00,3.17
Minerals
"Calcium, Ca",mg,--,--,60,21
"Iron, Fe",mg,--,--,1.85,0.65
"Potassium, K",mg,--,--,301,106
"Sodium, Na",mg,--,--,551,194
Vitamins
"Vitamin C, total ascorbic acid",mg,--,--,6.2,2.2
"Vitamin A, IU",IU,--,--,0,0
Lipids
"Fatty acids, total saturated",g,--,--,0.511,0.180
"Fatty acids, total trans",g,--,--,0.000,0.000
"Cholesterol",mg,--,--,0,0
Amino Acids
Other
Ingredients
"WATER, ORGANIC SEMOLINA FLOUR, ORGANIC TOMATO PASTE (ORGANIC TOMATOES), ORGANIC SOY BEAN FIBER, ORGANIC KALE, ORGANIC SPINACH, ORGANIC DRIED CANE SYRUP, SEA SALT, ORGANIC ONIONS, ORGANIC VINEGAR, ORGANIC MODIFIED CORN STARCH, ORGANIC MUSHROOMS, ORGANIC OLIVE OIL, ORGANIC CANOLA OIL, ORGANIC DRIED GARLIC, ORGANIC ITALIAN SEASONING (ORGANIC OREGANO, ORGANIC BASIL, ORGANIC MARJORAM, ORGANIC ROSEMARY), ORGANIC PARSLEY FLAKES, ORGANIC BASIL, ORGANIC BLACK PEPPER, ORGANIC OREGANO, CITRIC ACID." Date available: 08/07/2017 Date last updated by company: 08/07/2017
