Source: USDA Branded Food Products Database Release December 2017 Software v.3.8.6.4 2017-10-02
Report Run at: December 18, 2017 06:53 EST
"Nutrient data for: 45328695, ORGANIC SUPERFOODS, UPC: 762357192226"
Food Group:  Branded Food Products Database
Common Name:

Nutrient,Unit,Data points,Std. Error,"1 BOTTLE = 325.0g",1Value per 100 g,
Proximates
"Energy",kcal,--,--,110,34
"Protein",g,--,--,2.02,0.62
"Total lipid (fat)",g,--,--,2.02,0.62
"Carbohydrate, by difference",g,--,--,21.00,6.46
"Fiber, total dietary",g,--,--,1.9,0.6
"Sugars, total",g,--,--,15.99,4.92
Minerals
"Calcium, Ca",mg,--,--,39,12
"Iron, Fe",mg,--,--,0.52,0.16
"Potassium, K",mg,--,--,332,102
"Sodium, Na",mg,--,--,150,46
Vitamins
"Vitamin C, total ascorbic acid",mg,--,--,6.5,2.0
"Vitamin A, IU",IU,--,--,370,114
Lipids
"Fatty acids, total saturated",g,--,--,1.495,0.460
"Fatty acids, total trans",g,--,--,0.000,0.000
"Cholesterol",mg,--,--,0,0
Amino Acids
Other
Ingredients
"*COCONUTMILK (WATER, *COCONUT PUREE), *PINEAPPLE JUICE, *MANGO PUREE, *ORANGE JUICE, *APPLE JUICE, *CUCUMBER JUICE, *GINGER JUICE, *SPINACH JUICE, *ROMAINE LETTUCE JUICE, *ACEROLA CHERRY PUREE, *KALE JUICE, *BAOBAB FRUIT POWDER, *GROUND CHIA, *MINT, HIMALAYAN PINK SALT." Date available: 10/13/2017 Date last updated by company: 10/13/2017
