Source: USDA Branded Food Products Database Release December 2017 Software v.3.8.6.4 2017-10-02
Report Run at: December 18, 2017 05:37 EST
"Nutrient data for: 45160099, ORGANIC MATCHA, UPC: 892809000639"
Food Group:  Branded Food Products Database
Common Name:

Nutrient,Unit,Data points,Std. Error,"8.0 OZA = 240.0g",1Value per 100 g,
Proximates
"Energy",kcal,--,--,19,8
"Protein",g,--,--,0.00,0.00
"Total lipid (fat)",g,--,--,0.00,0.00
"Carbohydrate, by difference",g,--,--,6.00,2.50
"Fiber, total dietary",g,--,--,0.0,0.0
"Sugars, total",g,--,--,4.99,2.08
Minerals
"Calcium, Ca",mg,--,--,0,0
"Iron, Fe",mg,--,--,0.00,0.00
"Sodium, Na",mg,--,--,0,0
Vitamins
"Vitamin C, total ascorbic acid",mg,--,--,0.0,0.0
"Vitamin A, IU",IU,--,--,0,0
Lipids
"Fatty acids, total saturated",g,--,--,0.000,0.000
"Fatty acids, total trans",g,--,--,0.000,0.000
"Cholesterol",mg,--,--,0,0
Amino Acids
Other
Ingredients
"BREWED MATCHA TEA (FILTERED WATER AND ORGANIC MATCHA), BREWED ORGANIC GREEN TEA (FILTERED WATER AND ORGANIC GREEN TEA LEAVES), ORGANIC HONEY, ORGANIC GREEN TEA ESSENCE, CITRIC ACID." Date available: 07/14/2017 Date last updated by company: 07/14/2017
