Source: USDA Branded Food Products Database Release December 2017 Software v.3.8.6.4 2017-10-02
Report Run at: December 18, 2017 04:02 EST
"Nutrient data for: 45016922, ORGANIC CACAO POWDER, UPC: 858847000871"
Food Group:  Branded Food Products Database
Common Name:

Nutrient,Unit,Data points,Std. Error,"2.5 Tbsp = 15.0g",1Value per 100 g,
Proximates
"Energy",kcal,--,--,60,400
"Protein",g,--,--,4.00,26.67
"Total lipid (fat)",g,--,--,1.50,10.00
"Carbohydrate, by difference",g,--,--,8.00,53.33
"Fiber, total dietary",g,--,--,5.0,33.3
"Sugars, total",g,--,--,0.00,0.00
Minerals
"Calcium, Ca",mg,--,--,34,227
"Iron, Fe",mg,--,--,2.00,13.33
"Magnesium, Mg",mg,--,--,102,680
"Potassium, K",mg,--,--,291,1940
"Sodium, Na",mg,--,--,0,0
Vitamins
"Vitamin D",IU,--,--,0,0
Lipids
"Fatty acids, total saturated",g,--,--,1.000,6.670
"Fatty acids, total trans",g,--,--,0.000,0.000
"Cholesterol",mg,--,--,0,0
Amino Acids
Other
Ingredients
"CERTIFIED ORGANIC CACAO (THEOBROMA CACAO)." Date available: 07/14/2017 Date last updated by company: 07/14/2017
