Source: USDA Branded Food Products Database Release December 2017 Software v.3.8.6.4 2017-10-02
Report Run at: December 18, 2017 06:08 EST
"Nutrient data for: 45316514, ORGANIC PROTEIN BAR, UPC: 858236003056"
Food Group:  Branded Food Products Database
Common Name:

Nutrient,Unit,Data points,Std. Error,"1 BAR = 48.0g",1Value per 100 g,
Proximates
"Energy",kcal,--,--,230,479
"Protein",g,--,--,11.00,22.92
"Total lipid (fat)",g,--,--,11.00,22.92
"Carbohydrate, by difference",g,--,--,21.00,43.75
"Fiber, total dietary",g,--,--,2.0,4.2
"Sugars, total",g,--,--,13.00,27.08
Minerals
"Calcium, Ca",mg,--,--,40,83
"Iron, Fe",mg,--,--,2.25,4.69
"Magnesium, Mg",mg,--,--,33,69
"Phosphorus, P",mg,--,--,84,174
"Potassium, K",mg,--,--,170,354
"Sodium, Na",mg,--,--,30,62
Vitamins
"Vitamin C, total ascorbic acid",mg,--,--,1.0,2.1
"Vitamin A, IU",IU,--,--,0,0
Lipids
"Fatty acids, total saturated",g,--,--,9.000,18.750
"Fatty acids, total trans",g,--,--,0.000,0.000
"Cholesterol",mg,--,--,0,0
Amino Acids
Other
Ingredients
"ORGANIC COCONUT NECTAR, ORGANIC WHOLE GRAIN BROWN RICE PROTEIN, ORGANIC DARK CHOCOLATE (ORGANIC COCOA LIQUOR, ORGANIC DRIED CANE SYRUP, ORGANIC COCOA BUTTER) ORGANIC COCONUT OIL, ORGANIC COCONUT, ORGANIC OATS, ORGANIC COCOA LIQUOR, SUNFLOWER LECITHIN, SEA SALT." Date available: 07/14/2017 Date last updated by company: 07/14/2017
