Source: USDA Branded Food Products Database Release December 2017 Software v.3.8.6.4 2017-10-02
Report Run at: December 18, 2017 06:40 EST
"Nutrient data for: 45231253, ORGANIC SOUP, UPC: 708820893030"
Food Group:  Branded Food Products Database
Common Name:

Nutrient,Unit,Data points,Std. Error,"1 cup = 245.0g",1Value per 100 g,
Proximates
"Energy",kcal,--,--,71,29
"Protein",g,--,--,2.01,0.82
"Total lipid (fat)",g,--,--,0.00,0.00
"Carbohydrate, by difference",g,--,--,17.00,6.94
"Fiber, total dietary",g,--,--,2.9,1.2
"Sugars, total",g,--,--,3.99,1.63
Minerals
"Calcium, Ca",mg,--,--,39,16
"Iron, Fe",mg,--,--,1.08,0.44
"Sodium, Na",mg,--,--,561,229
Vitamins
"Vitamin C, total ascorbic acid",mg,--,--,3.7,1.5
"Vitamin A, IU",IU,--,--,100,41
Lipids
"Fatty acids, total saturated",g,--,--,0.000,0.000
"Fatty acids, total trans",g,--,--,0.000,0.000
"Cholesterol",mg,--,--,0,0
Amino Acids
Other
Ingredients
"FILTERED WATER, ORGANIC BUTTERNUT SQUASH, ORGANIC KALE, ORGANIC CARROTS, ORGANIC POTATOES, ORGANIC CELERY, ORGANIC ONIONS, CONTAINS 2% OR LESS OF: ORGANIC POTATO STARCH, ORGANIC PUMPKIN JUICE CONCENTRATE, SEA SALT, ORGANIC GARLIC POWDER, ORGANIC GINGER PUREE, ORGANIC SPICES, ORGANIC PAPRIKA." Date available: 07/14/2017 Date last updated by company: 07/14/2017
