Source: USDA Branded Food Products Database Release December 2017 Software v.3.8.6.4 2017-10-02
Report Run at: December 18, 2017 05:31 EST
"Nutrient data for: 45232871, ORGANIC LOVE CRUNCH BAR, UPC: 058449153306"
Food Group:  Branded Food Products Database
Common Name:

Nutrient,Unit,Data points,Std. Error,"1 BAR = 35.0g",1Value per 100 g,
Proximates
"Energy",kcal,--,--,190,543
"Protein",g,--,--,5.00,14.29
"Total lipid (fat)",g,--,--,13.00,37.14
"Carbohydrate, by difference",g,--,--,15.00,42.86
"Fiber, total dietary",g,--,--,4.0,11.4
"Sugars, total",g,--,--,6.00,17.14
Minerals
"Calcium, Ca",mg,--,--,40,114
"Iron, Fe",mg,--,--,1.65,4.70
"Sodium, Na",mg,--,--,100,286
Vitamins
"Vitamin C, total ascorbic acid",mg,--,--,0.0,0.0
"Vitamin A, IU",IU,--,--,0,0
Lipids
"Fatty acids, total saturated",g,--,--,2.499,7.140
"Fatty acids, total trans",g,--,--,0.000,0.000
"Cholesterol",mg,--,--,0,0
Amino Acids
Other
Ingredients
"ALMONDS*, PEANUTS*, DARK CHOCOLATE COATING* (CANE SUGAR*, PALM KERNEL OIL*, FAIR TRADE COCOA POWDER PROCESSED WITH ALKALI*, SOY LECITHIN*, VANILLA*), INULIN*, CASHEWS*, TAPIOCA SYRUP*, HEMP SEEDS*, CANE SUGAR*, QUINOA CRISPS*, TAPIOCA STARCH*, HONEY*, SUNFLOWER OIL*, SEA SALT, SUNFLOWER LECITHIN*." Date available: 07/14/2017 Date last updated by company: 07/14/2017
