Source: USDA Branded Food Products Database Release December 2017 Software v.3.8.6.4 2017-10-02
Report Run at: December 18, 2017 04:11 EST
"Nutrient data for: 45167426, ORGANIC CHICKEN BREAST STRIPS WITH RIB MEAT, UPC: 051611277848"
Food Group:  Branded Food Products Database
Common Name:

Nutrient,Unit,Data points,Std. Error,"3.0 ONZ = 84.0g",1Value per 100 g,
Proximates
"Energy",kcal,--,--,100,119
"Protein",g,--,--,24.00,28.57
"Total lipid (fat)",g,--,--,1.00,1.19
"Carbohydrate, by difference",g,--,--,0.00,0.00
"Fiber, total dietary",g,--,--,0.0,0.0
"Sugars, total",g,--,--,0.00,0.00
Minerals
"Calcium, Ca",mg,--,--,100,119
"Iron, Fe",mg,--,--,0.00,0.00
"Sodium, Na",mg,--,--,290,345
Vitamins
"Vitamin C, total ascorbic acid",mg,--,--,0.0,0.0
"Vitamin A, IU",IU,--,--,0,0
Lipids
"Fatty acids, total saturated",g,--,--,0.000,0.000
"Fatty acids, total trans",g,--,--,0.000,0.000
"Cholesterol",mg,--,--,40,48
Amino Acids
Other
Ingredients
"ORGANIC CHICKEN BREAST WITH RIB MEAT RAISED WITHOUT ANTIBIOTICS, WATER. CONTAINS 2% OR LESS OF SEA SALT, ORGANIC GARLIC POWDER, ORGANIC ONION POWDER, ORGANIC BLACK PEPPER." Date available: 08/11/2017 Date last updated by company: 08/11/2017
