Source: USDA Branded Food Products Database Release December 2017 Software v.3.8.6.4 2017-10-02
Report Run at: December 18, 2017 06:16 EST
"Nutrient data for: 45279127, ORGANIC RAW KOMUCHA, UPC: 722430200064"
Food Group:  Branded Food Products Database
Common Name:

Nutrient,Unit,Data points,Std. Error,"8.0 OZA = 8.0g",1Value per 100 g,
Proximates
"Energy",kcal,--,--,1,12
"Protein",g,--,--,0.00,0.00
"Total lipid (fat)",g,--,--,0.00,0.00
"Carbohydrate, by difference",g,--,--,0.23,2.92
"Sugars, total",g,--,--,0.07,0.83
Minerals
"Sodium, Na",mg,--,--,0,4
Vitamins
Lipids
"Cholesterol",mg,--,--,0,0
Amino Acids
Other
Ingredients
"100% G.T.'S ORGANIC RAW KOMBUCHA*, FRESH PRESSED GINGER JUICE*, AND 100% PURE LOVE!!!" Date available: 07/14/2017 Date last updated by company: 07/14/2017
