Source: USDA Branded Food Products Database Release December 2017 Software v.3.8.6.4 2017-10-02
Report Run at: December 18, 2017 04:03 EST
"Nutrient data for: 45316659, ORGANIC CAESAR DRESSING, UPC: 677294997202"
Food Group:  Branded Food Products Database
Common Name:

Nutrient,Unit,Data points,Std. Error,"2.0 Tbsp = 30.0g",1Value per 100 g,
Proximates
"Energy",kcal,--,--,50,167
"Protein",g,--,--,1.00,3.33
"Total lipid (fat)",g,--,--,5.00,16.67
"Carbohydrate, by difference",g,--,--,2.00,6.67
"Fiber, total dietary",g,--,--,1.0,3.3
"Sugars, total",g,--,--,1.00,3.33
Minerals
"Calcium, Ca",mg,--,--,0,0
"Iron, Fe",mg,--,--,0.00,0.00
"Sodium, Na",mg,--,--,390,1300
Vitamins
"Vitamin C, total ascorbic acid",mg,--,--,0.0,0.0
"Vitamin A, IU",IU,--,--,0,0
Lipids
"Fatty acids, total saturated",g,--,--,0.999,3.330
"Fatty acids, total trans",g,--,--,0.000,0.000
"Cholesterol",mg,--,--,5,17
Amino Acids
Other
Ingredients
"ORGANIC CIDER VINEGAR, FILTERED WATER, ORGANIC SOYBEAN OIL, ORGANIC ROMANO CHEESE (PASTEURIZED ORGANIC COW'S MILK, SALT, CHEESE CULTURES, ENZYMES, ORGANIC POTATO STARCH), ORGANIC HONEY, ORGANIC GARLIC PUREE, SALT, ORGANIC WHITE VINEGAR, ORGANIC LEMON JUICE CONCENTRATE, NATURAL ANCHOVY FLAVOR, ORGANIC GARLIC, ORGANIC BLACK PEPPER AND XANTHAN GUM (A NATURAL THICKENER)" Date available: 07/14/2017 Date last updated by company: 07/14/2017
