Source: USDA Branded Food Products Database Release December 2017 Software v.3.8.6.4 2017-10-02
Report Run at: December 18, 2017 05:12 EST
"Nutrient data for: 45332497, ORGANIC HEMP PROTEIN 15G, UPC: 692752100123"
Food Group:  Branded Food Products Database
Common Name:

Nutrient,Unit,Data points,Std. Error,"3.0 Tbsp = 30.0g",1Value per 100 g,
Proximates
"Energy",kcal,--,--,90,300
"Protein",g,--,--,15.00,50.00
"Total lipid (fat)",g,--,--,3.00,10.00
"Carbohydrate, by difference",g,--,--,9.00,30.00
"Fiber, total dietary",g,--,--,8.0,26.7
"Sugars, total",g,--,--,1.00,3.33
Minerals
"Iron, Fe",mg,--,--,9.60,32.00
"Magnesium, Mg",mg,--,--,320,1067
"Potassium, K",mg,--,--,370,1233
"Sodium, Na",mg,--,--,0,0
"Zinc, Zn",mg,--,--,3.75,12.50
Vitamins
Lipids
"Fatty acids, total saturated",g,--,--,0.000,0.000
"Fatty acids, total monounsaturated",g,--,--,0.000,0.000
"Fatty acids, total polyunsaturated",g,--,--,3.000,10.000
"Fatty acids, total trans",g,--,--,0.000,0.000
"Cholesterol",mg,--,--,0,0
Amino Acids
Other
Ingredients
"ORGANIC HEMP PROTEIN" Date available: 07/14/2017 Date last updated by company: 07/14/2017
