Source: USDA Branded Food Products Database Release December 2017 Software v.3.8.6.4 2017-10-02
Report Run at: December 18, 2017 04:55 EST
"Nutrient data for: 45185628, ORGANIC FRUIT SPREAD, UPC: 711535509110"
Food Group:  Branded Food Products Database
Common Name:

Nutrient,Unit,Data points,Std. Error,"1 Tbsp = 18.0g",1Value per 100 g,
Proximates
"Energy",kcal,--,--,40,222
"Protein",g,--,--,0.00,0.00
"Total lipid (fat)",g,--,--,0.00,0.00
"Carbohydrate, by difference",g,--,--,10.00,55.56
"Sugars, total",g,--,--,9.00,50.00
Minerals
"Sodium, Na",mg,--,--,0,0
Vitamins
Lipids
Amino Acids
Other
Ingredients
"ORGANIC APRICOTS, ORGANIC SUGAR, FRUIT PECTIN, CITRIC ACID." Date available: 08/11/2017 Date last updated by company: 08/11/2017
