Source: USDA Branded Food Products Database Release December 2017 Software v.3.8.6.4 2017-10-02
Report Run at: December 18, 2017 07:09 EST
"Nutrient data for: 45025638, ORGANIC UNREFINED MASCOBADO SUGAR, UPC: 000000058360"
Food Group:  Branded Food Products Database
Common Name:

Nutrient,Unit,Data points,Std. Error,"1 tsp = 4.0g",1Value per 100 g,
Proximates
"Energy",kcal,--,--,15,375
"Carbohydrate, by difference",g,--,--,4.00,100.00
"Sugars, total",g,--,--,4.00,100.00
Minerals
Vitamins
Lipids
Amino Acids
Other
Ingredients
"ORGANIC UNREFINED MASCOBADO SUGAR." Date available: 08/16/2017 Date last updated by company: 08/16/2017
