Source: USDA Branded Food Products Database Release December 2017 Software v.3.8.6.4 2017-10-02
Report Run at: December 18, 2017 04:11 EST
"Nutrient data for: 45268898, ORGANIC CHICKEN AND VEGETABLE STIR FRY, UPC: 819269012606"
Food Group:  Branded Food Products Database
Common Name:

Nutrient,Unit,Data points,Std. Error,"1 TRAY = 284.0g",1Value per 100 g,
Proximates
"Energy",kcal,--,--,199,70
"Protein",g,--,--,13.01,4.58
"Total lipid (fat)",g,--,--,1.99,0.70
"Carbohydrate, by difference",g,--,--,33.00,11.62
"Fiber, total dietary",g,--,--,3.1,1.1
"Sugars, total",g,--,--,8.01,2.82
Minerals
"Calcium, Ca",mg,--,--,40,14
"Iron, Fe",mg,--,--,0.48,0.17
"Sodium, Na",mg,--,--,210,74
Vitamins
"Vitamin C, total ascorbic acid",mg,--,--,53.7,18.9
"Vitamin A, IU",IU,--,--,1715,604
Lipids
"Fatty acids, total saturated",g,--,--,0.000,0.000
"Fatty acids, total trans",g,--,--,0.000,0.000
"Cholesterol",mg,--,--,20,7
Amino Acids
Other
Ingredients
"ORGANIC CAULIFLOWER, ORGANIC CHICKEN, WATER, ORGANIC ONION, ORGANIC BELL PEPPER, ORGANIC CARROTS, ORGANIC ZUCCHINI, ORGANIC BROCCOLI, ORGANIC HONEY, ORGANIC GARLIC, ORGANIC LEMON JUICE, ORGANIC TAPIOCA STARCH, ORGANIC GINGER, ORGANIC SESAME OIL, ORGANIC GREEN ONIONS, SEA SALT, ORGANIC CRUSHED RED PEPPER, ORGANIC BLACK PEPPER" Date available: 07/14/2017 Date last updated by company: 07/14/2017
