Source: USDA Branded Food Products Database Release December 2017 Software v.3.8.6.4 2017-10-02
Report Run at: December 18, 2017 04:21 EST
"Nutrient data for: 45276361, ORGANIC COCONUT WATER, UPC: 8572860004099"
Food Group:  Branded Food Products Database
Common Name:

Nutrient,Unit,Data points,Std. Error,"8.0 OZA = 240.0g",1Value per 100 g,
Proximates
"Energy",kcal,--,--,50,21
"Protein",g,--,--,0.00,0.00
"Total lipid (fat)",g,--,--,0.00,0.00
"Carbohydrate, by difference",g,--,--,13.01,5.42
"Sugars, total",g,--,--,13.01,5.42
Minerals
"Calcium, Ca",mg,--,--,41,17
"Magnesium, Mg",mg,--,--,24,10
"Phosphorus, P",mg,--,--,19,8
"Potassium, K",mg,--,--,451,188
"Sodium, Na",mg,--,--,41,17
Vitamins
Lipids
Amino Acids
Other
Ingredients
"ORGANIC COCONUT WATER." Date available: 10/13/2017 Date last updated by company: 10/13/2017
