Source: USDA Branded Food Products Database Release December 2017 Software v.3.8.6.4 2017-10-02
Report Run at: December 18, 2017 04:37 EST
"Nutrient data for: 45256736, ORGANIC DICED TOMATOES WITH GREEN CHILIES, UPC: 019646001104"
Food Group:  Branded Food Products Database
Common Name:

Nutrient,Unit,Data points,Std. Error,"0.5 cup = 117.0g",1Value per 100 g,
Proximates
"Energy",kcal,--,--,20,17
"Protein",g,--,--,0.99,0.85
"Total lipid (fat)",g,--,--,0.00,0.00
"Carbohydrate, by difference",g,--,--,4.00,3.42
"Fiber, total dietary",g,--,--,2.0,1.7
"Sugars, total",g,--,--,2.00,1.71
Minerals
"Calcium, Ca",mg,--,--,20,17
"Iron, Fe",mg,--,--,0.40,0.34
"Sodium, Na",mg,--,--,380,325
Vitamins
"Vitamin C, total ascorbic acid",mg,--,--,5.4,4.6
"Vitamin A, IU",IU,--,--,833,712
Lipids
"Fatty acids, total saturated",g,--,--,0.000,0.000
"Fatty acids, total trans",g,--,--,0.000,0.000
"Cholesterol",mg,--,--,0,0
Amino Acids
Other
Ingredients
"ORGANIC DICED TOMATOES, WATER, ORGANIC CHOPPED GREEN JALAPENO CHILI PEPPERS, SEA SALT, ORGANIC VINEGAR, ORGANIC CILANTRO, NATURALLY DERIVED CITRIC ACID, CALCIUM CHLORIDE." Date available: 07/14/2017 Date last updated by company: 07/14/2017
