Source: USDA Branded Food Products Database Release December 2017 Software v.3.8.6.4 2017-10-02
Report Run at: December 18, 2017 04:16 EST
"Nutrient data for: 45198978, ORGANIC CHOPPED ROMAINE, UPC: 077890391143"
Food Group:  Branded Food Products Database
Common Name:

Nutrient,Unit,Data points,Std. Error,"2.0 CUPS = 85.0g",1Value per 100 g,
Proximates
"Energy",kcal,--,--,10,12
"Protein",g,--,--,1.00,1.18
"Total lipid (fat)",g,--,--,0.00,0.00
"Carbohydrate, by difference",g,--,--,2.00,2.35
"Fiber, total dietary",g,--,--,1.0,1.2
"Sugars, total",g,--,--,0.00,0.00
Minerals
"Calcium, Ca",mg,--,--,40,47
"Iron, Fe",mg,--,--,1.08,1.27
"Sodium, Na",mg,--,--,5,6
Vitamins
"Vitamin C, total ascorbic acid",mg,--,--,21.0,24.7
"Vitamin A, IU",IU,--,--,2250,2647
Lipids
"Fatty acids, total saturated",g,--,--,0.000,0.000
"Fatty acids, total trans",g,--,--,0.000,0.000
"Cholesterol",mg,--,--,0,0
Amino Acids
Other
Ingredients
"ORGANIC ROMAINE LETTUCE." Date available: 07/14/2017 Date last updated by company: 07/14/2017
