Source: USDA Branded Food Products Database Release December 2017 Software v.3.8.6.4 2017-10-02
Report Run at: December 18, 2017 04:17 EST
"Nutrient data for: 45106276, ORGANIC CINNAMON SPICE INSTANT OATMEAL, UPC: 00896979"
Food Group:  Branded Food Products Database
Common Name:

Nutrient,Unit,Data points,Std. Error,"1 PACKET = 40.0g",1Value per 100 g,
Proximates
"Energy",kcal,--,--,150,375
"Protein",g,--,--,4.00,10.00
"Total lipid (fat)",g,--,--,1.50,3.75
"Carbohydrate, by difference",g,--,--,30.00,75.00
"Fiber, total dietary",g,--,--,2.5,6.2
"Sugars, total",g,--,--,13.00,32.50
Minerals
"Calcium, Ca",mg,--,--,0,0
"Iron, Fe",mg,--,--,1.48,3.71
"Sodium, Na",mg,--,--,90,225
Vitamins
"Vitamin C, total ascorbic acid",mg,--,--,0.0,0.0
"Vitamin A, IU",IU,--,--,0,0
Lipids
"Fatty acids, total saturated",g,--,--,0.000,0.000
"Fatty acids, total monounsaturated",g,--,--,0.500,1.250
"Fatty acids, total polyunsaturated",g,--,--,0.500,1.250
"Fatty acids, total trans",g,--,--,0.000,0.000
"Cholesterol",mg,--,--,0,0
Amino Acids
Other
Ingredients
"ORGANIC ROLLED OATS, ORGANIC DEHYDRATED CANE JUICE SOLIDS, ORGANIC CINNAMON, ORGANIC SPICES, SEA SALT." Date available: 06/25/2017 Date last updated by company: 06/25/2017
