Source: USDA Branded Food Products Database Release December 2017 Software v.3.8.6.4 2017-10-02
Report Run at: December 18, 2017 05:39 EST
"Nutrient data for: 45066553, ORGANIC MILD SALSA, UPC: 030684016950"
Food Group:  Branded Food Products Database
Common Name:

Nutrient,Unit,Data points,Std. Error,"2.0 Tbsp = 28.0g",1Value per 100 g,
Proximates
"Energy",kcal,--,--,10,36
"Protein",g,--,--,0.00,0.00
"Total lipid (fat)",g,--,--,0.00,0.00
"Carbohydrate, by difference",g,--,--,2.00,7.14
"Sugars, total",g,--,--,1.00,3.57
Minerals
"Calcium, Ca",mg,--,--,0,0
"Iron, Fe",mg,--,--,0.00,0.00
"Sodium, Na",mg,--,--,95,339
Vitamins
"Vitamin C, total ascorbic acid",mg,--,--,0.0,0.0
"Vitamin A, IU",IU,--,--,338,1207
Lipids
Amino Acids
Other
Ingredients
"ORGANIC DICED TOMATOES, ORGANIC ONIONS, WATER, ORGANIC CRUSHED TOMATOES, ORGANIC GARLIC, ORGANIC CILANTRO, ORGANIC CIDER VINEGAR, SEA SALT, ORGANIC LIME JUICE CONCENTRATE, ORGANIC CUMIN, ORGANIC JALAPENOS, ORGANIC BLACK PEPPER." Date available: 10/19/2017 Date last updated by company: 10/19/2017
