Source: USDA Branded Food Products Database Release December 2017 Software v.3.8.6.4 2017-10-02
Report Run at: December 18, 2017 05:13 EST
"Nutrient data for: 45222157, ORGANIC HIGH ANTIOXIDANT TRAIL MIX, UPC: 854010003090"
Food Group:  Branded Food Products Database
Common Name:

Nutrient,Unit,Data points,Std. Error,"0.25 cup = 35.0g",1Value per 100 g,
Proximates
"Energy",kcal,--,--,140,400
"Protein",g,--,--,4.00,11.43
"Total lipid (fat)",g,--,--,6.00,17.14
"Carbohydrate, by difference",g,--,--,21.00,60.00
"Fiber, total dietary",g,--,--,3.0,8.6
"Sugars, total",g,--,--,10.00,28.57
Minerals
"Calcium, Ca",mg,--,--,40,114
"Iron, Fe",mg,--,--,2.06,5.88
"Sodium, Na",mg,--,--,65,186
Vitamins
"Vitamin C, total ascorbic acid",mg,--,--,5.1,14.7
"Vitamin A, IU",IU,--,--,1071,3061
Lipids
"Fatty acids, total saturated",g,--,--,0.000,0.000
"Fatty acids, total trans",g,--,--,0.000,0.000
"Cholesterol",mg,--,--,0,0
Amino Acids
Other
Ingredients
"ORGANIC JUMBO THOMPSON RAISINS (ORGANIC RAISINS, ORGANIC HIGH OLEIC SUNFLOWER OIL), ORGANIC ROASTED SALTED PUMPKIN SEEDS (ORGANIC PUMPKIN SEEDS, SEA SALT), ORGANIC DOMESTIC ALMONDS, ORGANIC WALNUTS, ORGANIC GOJI BERRIES, ORGANIC DRIED SWEETENED CRANBERRIES (ORGANIC CRANBERRIES, ORGANIC HIGH OLEIC SUNFLOWER OIL, ORGANIC CANE SUGAR), ORGANIC MULBERRIES FREE OF ADDITIVES, PRESERVATIVES AND CHEMICALS." Date available: 07/14/2017 Date last updated by company: 07/14/2017
