Source: USDA Branded Food Products Database Release December 2017 Software v.3.8.6.4 2017-10-02
Report Run at: December 18, 2017 05:34 EST
"Nutrient data for: 45230644, ORGANIC MADELEINES, UPC: 697941880008"
Food Group:  Branded Food Products Database
Common Name:

Nutrient,Unit,Data points,Std. Error,"1 COOKIE = 20.0g",1Value per 100 g,
Proximates
"Energy",kcal,--,--,100,500
"Protein",g,--,--,1.00,5.00
"Total lipid (fat)",g,--,--,6.00,30.00
"Carbohydrate, by difference",g,--,--,6.00,30.00
"Fiber, total dietary",g,--,--,0.0,0.0
"Sugars, total",g,--,--,6.00,30.00
Minerals
"Calcium, Ca",mg,--,--,0,0
"Iron, Fe",mg,--,--,0.00,0.00
"Sodium, Na",mg,--,--,40,200
Vitamins
"Vitamin C, total ascorbic acid",mg,--,--,0.0,0.0
"Vitamin A, IU",IU,--,--,500,2500
Lipids
"Fatty acids, total saturated",g,--,--,3.000,15.000
"Fatty acids, total monounsaturated",g,--,--,0.000,0.000
"Fatty acids, total polyunsaturated",g,--,--,0.000,0.000
"Fatty acids, total trans",g,--,--,0.000,0.000
"Cholesterol",mg,--,--,30,150
Amino Acids
Other
Ingredients
"ORGANIC UNSALTED BUTTER, ORGANIC CANE SUGAR, ORGANIC UNBLEACHED FLOUR, ORGANIC EGGS, ORGANIC VANILLA EXTRACT, SALT." Date available: 07/14/2017 Date last updated by company: 07/14/2017
