Source: USDA Branded Food Products Database Release December 2017 Software v.3.8.6.4 2017-10-02
Report Run at: December 18, 2017 03:48 EST
"Nutrient data for: 45148360, ORGANIC BALSAMIC VINEGAR OF MODENA, UPC: 757645031202"
Food Group:  Branded Food Products Database
Common Name:

Nutrient,Unit,Data points,Std. Error,"1 Tbsp = 15.0g",1Value per 100 g,
Proximates
"Energy",kcal,--,--,20,133
"Carbohydrate, by difference",g,--,--,5.00,33.33
"Sugars, total",g,--,--,5.00,33.33
Minerals
Vitamins
Lipids
Amino Acids
Other
Ingredients
"WINE VINEGAR FROM ORGANIC GRAPES, ORGANIC CONCENTRATED COOKED GRAPE MUST." Date available: 10/04/2017 Date last updated by company: 10/04/2017
