Source: USDA Branded Food Products Database Release December 2017 Software v.3.8.6.4 2017-10-02
Report Run at: December 18, 2017 07:11 EST
"Nutrient data for: 45135878, ORGANIC VALLEY, FRENCH VANILLA HALF & HALF, UPC: 093966004502"
Food Group:  Branded Food Products Database
Common Name:

Nutrient,Unit,Data points,Std. Error,"2.0 Tbsp = 30.0g",1Value per 100 g,
Proximates
"Energy",kcal,--,--,70,233
"Protein",g,--,--,1.00,3.33
"Total lipid (fat)",g,--,--,3.50,11.67
"Carbohydrate, by difference",g,--,--,10.00,33.33
"Fiber, total dietary",g,--,--,0.0,0.0
"Sugars, total",g,--,--,9.00,30.00
Minerals
"Calcium, Ca",mg,--,--,20,67
"Iron, Fe",mg,--,--,0.00,0.00
"Sodium, Na",mg,--,--,10,33
Vitamins
"Vitamin C, total ascorbic acid",mg,--,--,0.0,0.0
"Vitamin A, IU",IU,--,--,166,555
Lipids
"Fatty acids, total saturated",g,--,--,2.001,6.670
"Fatty acids, total trans",g,--,--,0.000,0.000
"Cholesterol",mg,--,--,10,33
Amino Acids
Other
Ingredients
"ORGANIC GRADE A MILK AND CREAM, ORGANIC FAIR TRADE UNREFINED CANE SUGAR, ORGANIC FAIR TRADE VANILLA FLAVOR, ORGANIC COCONUT FLAVOR" Date available: 06/24/2017 Date last updated by company: 06/24/2017
