Source: USDA Branded Food Products Database Release December 2017 Software v.3.8.6.4 2017-10-02
Report Run at: December 18, 2017 05:11 EST
"Nutrient data for: 45324945, ORGANIC HAZELNUT SPREAD WITH COCOA, UPC: 692752107276"
Food Group:  Branded Food Products Database
Common Name:

Nutrient,Unit,Data points,Std. Error,"2.0 Tbsp = 37.0g",1Value per 100 g,
Proximates
"Energy",kcal,--,--,200,541
"Protein",g,--,--,3.00,8.11
"Total lipid (fat)",g,--,--,14.00,37.84
"Carbohydrate, by difference",g,--,--,18.00,48.65
"Fiber, total dietary",g,--,--,6.0,16.2
"Sugars, total",g,--,--,12.00,32.43
Minerals
"Calcium, Ca",mg,--,--,20,54
"Iron, Fe",mg,--,--,2.43,6.57
"Sodium, Na",mg,--,--,0,0
Vitamins
"Vitamin C, total ascorbic acid",mg,--,--,0.0,0.0
"Vitamin A, IU",IU,--,--,0,0
Lipids
"Fatty acids, total saturated",g,--,--,7.000,18.920
"Fatty acids, total monounsaturated",g,--,--,3.500,9.460
"Fatty acids, total polyunsaturated",g,--,--,1.498,4.050
"Fatty acids, total trans",g,--,--,0.000,0.000
"Cholesterol",mg,--,--,0,0
Amino Acids
Other
Ingredients
"CANE SUGAR*, COCOA*, PALM OIL*+, FLAXSEED FLOUR*, INULIN*, HAZELNUT*, PALM OLEIN*+, PALM STEARIN*+, REFINED COCONUT OIL*, CHIA SEED OIL*, SUNFLOWER LECITHIN*, NATURAL VANILLA FLAVOR*." Date available: 08/11/2017 Date last updated by company: 08/11/2017
