Source: USDA Branded Food Products Database Release December 2017 Software v.3.8.6.4 2017-10-02
Report Run at: December 18, 2017 04:11 EST
"Nutrient data for: 45256642, ORGANIC CHICKEN NOODLE SOUP, UPC: 011150479509"
Food Group:  Branded Food Products Database
Common Name:

Nutrient,Unit,Data points,Std. Error,"1 cup = 245.0g",1Value per 100 g,
Proximates
"Energy",kcal,--,--,110,45
"Protein",g,--,--,8.01,3.27
"Total lipid (fat)",g,--,--,2.99,1.22
"Carbohydrate, by difference",g,--,--,13.01,5.31
"Fiber, total dietary",g,--,--,1.0,0.4
"Sugars, total",g,--,--,2.99,1.22
Minerals
"Calcium, Ca",mg,--,--,20,8
"Iron, Fe",mg,--,--,0.37,0.15
"Sodium, Na",mg,--,--,701,286
Vitamins
"Vitamin C, total ascorbic acid",mg,--,--,2.5,1.0
"Vitamin A, IU",IU,--,--,1499,612
Lipids
"Fatty acids, total saturated",g,--,--,1.494,0.610
"Fatty acids, total trans",g,--,--,0.000,0.000
"Cholesterol",mg,--,--,24,10
Amino Acids
Other
Ingredients
"CHICKEN STOCK* (WATER, CHICKEN BASE* [CHICKEN FLAVOR*, SEA SALT, CANE SUGAR*, ONION POWDER*, YEAST EXTRACT, VEGETABLE CONCENTRATES* [CARROT*, ONION*, CHICKEN*], TURMERIC*]), WATER, CHICKEN* (CHICKEN*, WATER, RICE STARCH*, SALT, EVAPORATED CANE SYRUP, CULTURED DEXTROSE*, MALTODEXTRIN*, GARLIC POWDER*, ONION POWDER*), ONIONS*, CHEESE PENNE PASTA* (WHEAT FLOUR*, EGG WHITE*), CARROTS*, CONTAINS 2% OR LESS OF: BUTTER*, (SWEET CREAM*, SEA SALT), GARLIC*, BASIL*, CORN STARCH*, SPICE*." Date available: 07/14/2017 Date last updated by company: 07/14/2017
