Source: USDA Branded Food Products Database Release December 2017 Software v.3.8.6.4 2017-10-02
Report Run at: December 18, 2017 06:24 EST
"Nutrient data for: 45169167, ORGANIC ROASTED SEAWEED SNACK, UPC: 811201021011"
Food Group:  Branded Food Products Database
Common Name:

Nutrient,Unit,Data points,Std. Error,"1 PACK = 5.0g",1Value per 100 g,
Proximates
"Energy",kcal,--,--,15,300
"Protein",g,--,--,0.30,6.00
"Total lipid (fat)",g,--,--,2.00,40.00
"Carbohydrate, by difference",g,--,--,0.00,0.00
"Fiber, total dietary",g,--,--,0.0,0.0
"Sugars, total",g,--,--,0.00,0.00
Minerals
"Calcium, Ca",mg,--,--,10,200
"Iron, Fe",mg,--,--,1.80,36.00
"Sodium, Na",mg,--,--,40,800
Vitamins
"Vitamin C, total ascorbic acid",mg,--,--,24.0,480.0
"Vitamin A, IU",IU,--,--,2000,40000
Lipids
"Fatty acids, total saturated",g,--,--,0.000,0.000
"Fatty acids, total trans",g,--,--,0.000,0.000
"Cholesterol",mg,--,--,0,0
Amino Acids
Other
Ingredients
"ORGANIC SEAWEED, ORGANIC EXTRA VIRGIN OLIVE OIL, ORGANIC GRANULATED ONION, SEA SALT" Date available: 10/13/2017 Date last updated by company: 10/13/2017
