Source: USDA Branded Food Products Database Release December 2017 Software v.3.8.6.4 2017-10-02
Report Run at: December 18, 2017 04:12 EST
"Nutrient data for: 45028647, ORGANIC CHICKEN & WILD RICE SOUP, UPC: 848737003495"
Food Group:  Branded Food Products Database
Common Name:

Nutrient,Unit,Data points,Std. Error,"1 cup = 245.0g",1Value per 100 g,
Proximates
"Energy",kcal,--,--,100,41
"Protein",g,--,--,6.00,2.45
"Total lipid (fat)",g,--,--,1.49,0.61
"Carbohydrate, by difference",g,--,--,14.99,6.12
"Fiber, total dietary",g,--,--,1.0,0.4
"Sugars, total",g,--,--,1.00,0.41
Minerals
"Calcium, Ca",mg,--,--,20,8
"Iron, Fe",mg,--,--,0.71,0.29
"Sodium, Na",mg,--,--,659,269
Vitamins
"Vitamin C, total ascorbic acid",mg,--,--,0.0,0.0
"Vitamin A, IU",IU,--,--,2499,1020
Lipids
"Fatty acids, total saturated",g,--,--,0.000,0.000
"Fatty acids, total trans",g,--,--,0.000,0.000
"Cholesterol",mg,--,--,10,4
Amino Acids
Other
Ingredients
"WATER, ORGANIC CARROTS, ORGANIC GRILLED CHICKEN MEAT (ORGANIC CHICKEN MEAT, WATER, LESS THAN 2% ORGANIC RICE STARCH, SALT, ORGANIC EVAPORATED CANE SYRUP, ORGANIC CULTURED DEXTROSE AND MALTODEXTRIN, ORGANIC GARLIC POWDER, ORGANIC ONION POWDER), ORGANIC WILD RICE, ORGANIC BROWN RICE, CONTAINS LESS THAN 2% OF ORGANIC CORN STARCH, ORGANIC CELERY, ORGANIC TOMATO PUREE, SEA SALT, ORGANIC CONCENTRATED CHICKEN STOCK, ORGANIC CHICKEN FLAVOR, ORGANIC YEAST EXTRACT, ORGANIC DEHYDRATED PARSLEY, ORGANIC CANE SUGAR, ORGANIC ONION POWDER, ORGANIC VEGETABLES (ORGANIC CARROT, ORGANIC ONION, ORGANIC CELERY), CITRIC ACID, ORGANIC TURMERIC EXTRACT." Date available: 07/14/2017 Date last updated by company: 07/14/2017
