Source: USDA Branded Food Products Database Release December 2017 Software v.3.8.6.4 2017-10-02
Report Run at: December 18, 2017 05:59 EST
"Nutrient data for: 45323388, ORGANIC PINEAPPLES, UPC: 812907011115"
Food Group:  Branded Food Products Database
Common Name:

Nutrient,Unit,Data points,Std. Error,"1 ONZ = 30.0g",1Value per 100 g,
Proximates
"Energy",kcal,--,--,120,400
"Protein",g,--,--,0.50,1.67
"Total lipid (fat)",g,--,--,0.50,1.67
"Carbohydrate, by difference",g,--,--,27.00,90.00
"Fiber, total dietary",g,--,--,1.0,3.3
"Sugars, total",g,--,--,23.00,76.67
Minerals
"Calcium, Ca",mg,--,--,40,133
"Iron, Fe",mg,--,--,0.48,1.60
"Sodium, Na",mg,--,--,0,0
Vitamins
"Vitamin C, total ascorbic acid",mg,--,--,12.0,40.0
"Vitamin A, IU",IU,--,--,0,0
Lipids
"Fatty acids, total saturated",g,--,--,0.000,0.000
"Fatty acids, total trans",g,--,--,0.000,0.000
"Cholesterol",mg,--,--,0,0
Amino Acids
Other
Ingredients
"ORGANIC PINEAPPLES." Date available: 07/17/2017 Date last updated by company: 07/17/2017
