Source: USDA Branded Food Products Database Release December 2017 Software v.3.8.6.4 2017-10-02
Report Run at: December 18, 2017 07:19 EST
"Nutrient data for: 45231615, ORGANIC VILLE, DIJON VINAIGRETTE, UPC: 896859000045"
Food Group:  Branded Food Products Database
Common Name:

Nutrient,Unit,Data points,Std. Error,"2.0 Tbsp = 30.0g",1Value per 100 g,
Proximates
"Energy",kcal,--,--,80,267
"Protein",g,--,--,0.00,0.00
"Total lipid (fat)",g,--,--,8.00,26.67
"Carbohydrate, by difference",g,--,--,2.00,6.67
"Fiber, total dietary",g,--,--,0.0,0.0
"Sugars, total",g,--,--,1.00,3.33
Minerals
"Calcium, Ca",mg,--,--,0,0
"Iron, Fe",mg,--,--,0.00,0.00
"Sodium, Na",mg,--,--,240,800
Vitamins
"Vitamin C, total ascorbic acid",mg,--,--,0.0,0.0
"Vitamin A, IU",IU,--,--,0,0
Lipids
"Fatty acids, total saturated",g,--,--,0.999,3.330
"Fatty acids, total trans",g,--,--,0.000,0.000
"Cholesterol",mg,--,--,0,0
Amino Acids
Other
Ingredients
"WATER, ORGANIC EXPELLER PRESSED SOYBEAN OIL, ORGANIC DIJON MUSTARD, ORGANIC CIDER VINEGAR, ORGANIC MISO (ORGANIC SOYBEANS, ORGANIC RICE KOJI, SEA SALT, WATER, KOJI SPORES), ORGANIC AGAVE NECTAR, SALT, ORGANIC ONION POWDER, ORGANIC MUSTARD POWDER, ORGANIC TURMERIC EXTRACT, ORGANIC MINCED GARLIC, XANTHAN GUM, ORGANIC BLACK PEPPER, ORGANIC TARRAGON, ORGANIC ROSEMARY EXTRACT." Date available: 06/25/2017 Date last updated by company: 06/25/2017
