Source: USDA Branded Food Products Database Release December 2017 Software v.3.8.6.4 2017-10-02
Report Run at: December 18, 2017 03:55 EST
"Nutrient data for: 45257176, ORGANIC 50/50 BLEND VEGETABLES, UPC: 036800419377"
Food Group:  Branded Food Products Database
Common Name:

Nutrient,Unit,Data points,Std. Error,"2.0 CUPS | ABOUT = 85.0g",1Value per 100 g,
Proximates
"Energy",kcal,--,--,20,24
"Protein",g,--,--,2.00,2.35
"Total lipid (fat)",g,--,--,0.00,0.00
"Carbohydrate, by difference",g,--,--,3.00,3.53
"Fiber, total dietary",g,--,--,1.0,1.2
"Sugars, total",g,--,--,1.00,1.18
Minerals
"Calcium, Ca",mg,--,--,80,94
"Iron, Fe",mg,--,--,1.80,2.12
"Sodium, Na",mg,--,--,60,71
Vitamins
"Vitamin C, total ascorbic acid",mg,--,--,18.0,21.2
"Vitamin A, IU",IU,--,--,6000,7059
Lipids
"Fatty acids, total saturated",g,--,--,0.000,0.000
"Fatty acids, total trans",g,--,--,0.000,0.000
"Cholesterol",mg,--,--,0,0
Amino Acids
Other
Ingredients
"ORGANIC BABY SPINACH, ORGANIC SPRING MIX (MAY CONTAIN SOME OR ALL OF THE FOLLOWING ORGANIC BABY WHOLE LEAF VARITIES: ORGANIC GREEN LEAF ORGANIC MIZUNA, ORGANIC GREEN ROMAINE, ROGANIC TANGO, ORGANIC GREEN OAK, ORGANIC ARUGULA, ORGANIC FRISEE, ORGANIC TATSOL,ORGANIC MACHE, ORGANIC RED CHARD, ORGANIC RED LEAF, ORGANIC LOLLA ROSA, ORGANIC RED ROMAINE, ORGANIC RED MUSTARD, ORGANIC RADICCHIO, ORGANIC RED OAK, ORGANIC BEET TOPS)." Date available: 07/14/2017 Date last updated by company: 07/14/2017
