Source: USDA Branded Food Products Database Release December 2017 Software v.3.8.6.4 2017-10-02
Report Run at: December 18, 2017 06:11 EST
"Nutrient data for: 45290038, ORGANIC QUICK COOKING STEEL CUT OATS, UPC: 039978039606"
Food Group:  Branded Food Products Database
Common Name:

Nutrient,Unit,Data points,Std. Error,"0.25 cup = 36.0g",1Value per 100 g,
Proximates
"Energy",kcal,--,--,140,389
"Protein",g,--,--,4.00,11.11
"Total lipid (fat)",g,--,--,2.50,6.94
"Carbohydrate, by difference",g,--,--,25.00,69.44
"Fiber, total dietary",g,--,--,4.0,11.1
"Sugars, total",g,--,--,0.00,0.00
Minerals
"Calcium, Ca",mg,--,--,20,56
"Iron, Fe",mg,--,--,1.20,3.33
"Sodium, Na",mg,--,--,0,0
Vitamins
"Vitamin C, total ascorbic acid",mg,--,--,0.0,0.0
"Vitamin A, IU",IU,--,--,0,0
Lipids
"Fatty acids, total saturated",g,--,--,0.500,1.390
"Fatty acids, total trans",g,--,--,0.000,0.000
"Cholesterol",mg,--,--,0,0
Amino Acids
Other
Ingredients
"ORGANIC WHOLE GRAIN OATS." Date available: 07/14/2017 Date last updated by company: 07/14/2017
