Source: USDA Branded Food Products Database Release December 2017 Software v.3.8.6.4 2017-10-02
Report Run at: December 18, 2017 06:11 EST
"Nutrient data for: 45066153, ORGANIC QUINOA, UPC: 036800342705"
Food Group:  Branded Food Products Database
Common Name:

Nutrient,Unit,Data points,Std. Error,"1 CONTAINER = 120.0g",1Value per 100 g,
Proximates
"Energy",kcal,--,--,170,142
"Protein",g,--,--,6.00,5.00
"Total lipid (fat)",g,--,--,2.50,2.08
"Carbohydrate, by difference",g,--,--,31.00,25.83
"Fiber, total dietary",g,--,--,3.0,2.5
"Sugars, total",g,--,--,0.00,0.00
Minerals
"Calcium, Ca",mg,--,--,20,17
"Iron, Fe",mg,--,--,1.69,1.41
"Sodium, Na",mg,--,--,120,100
Vitamins
"Vitamin C, total ascorbic acid",mg,--,--,0.0,0.0
"Vitamin A, IU",IU,--,--,0,0
Lipids
"Fatty acids, total saturated",g,--,--,0.000,0.000
"Fatty acids, total monounsaturated",g,--,--,0.996,0.830
"Fatty acids, total polyunsaturated",g,--,--,1.500,1.250
"Fatty acids, total trans",g,--,--,0.000,0.000
"Cholesterol",mg,--,--,0,0
Amino Acids
Other
Ingredients
"WATER, ORGANIC QUINOA, SEA SALT, GLUCONO-DELTA-LACTONE" Date available: 07/14/2017 Date last updated by company: 07/14/2017
