Source: USDA Branded Food Products Database Release December 2017 Software v.3.8.6.4 2017-10-02
Report Run at: December 18, 2017 05:44 EST
"Nutrient data for: 45235094, ORGANIC MORNING PROTEIN SMOOTHIE, UPC: 818512017047"
Food Group:  Branded Food Products Database
Common Name:

Nutrient,Unit,Data points,Std. Error,"1 POUCH = 156.0g",1Value per 100 g,
Proximates
"Energy",kcal,--,--,129,83
"Protein",g,--,--,5.01,3.21
"Total lipid (fat)",g,--,--,0.00,0.00
"Carbohydrate, by difference",g,--,--,26.01,16.67
"Fiber, total dietary",g,--,--,4.1,2.6
"Sugars, total",g,--,--,18.00,11.54
Minerals
"Calcium, Ca",mg,--,--,100,64
"Iron, Fe",mg,--,--,0.78,0.50
"Phosphorus, P",mg,--,--,66,42
"Potassium, K",mg,--,--,340,218
"Sodium, Na",mg,--,--,30,19
"Manganese, Mn",mg,--,--,0.000,0.000
Vitamins
"Vitamin C, total ascorbic acid",mg,--,--,32.8,21.0
"Vitamin A, IU",IU,--,--,1635,1048
Lipids
"Fatty acids, total saturated",g,--,--,0.000,0.000
"Fatty acids, total trans",g,--,--,0.000,0.000
"Cholesterol",mg,--,--,0,0
Amino Acids
Other
Ingredients
"ORGANIC PEACHES, ORGANIC BANANAS, ORGANIC NONFAT GREEK YOGURT (ORGANIC CULTURED SKIM MILK, ORGANIC NONFAT DRY MILK), ORGANIC CARROTS, WATER, ORGANIC ORANGE JUICE CONCENTRATE, ORGANIC ROLLED OATS, ORGANIC HONEY, ORGANIC MILK PROTEIN, ORGANIC OAT FIBER, CITRIC ACID, ORGANIC NATURAL FLAVORS, ASCORBIC ACID (VITAMIN C)." Date available: 07/14/2017 Date last updated by company: 07/14/2017
