Source: USDA Branded Food Products Database Release December 2017 Software v.3.8.6.4 2017-10-02
Report Run at: December 18, 2017 04:17 EST
"Nutrient data for: 45204864, ORGANIC CITRUS BALSAMIC VINEGAR, UPC: 8033055601405"
Food Group:  Branded Food Products Database
Common Name:

Nutrient,Unit,Data points,Std. Error,"0.25 cup = 59.0g",1Value per 100 g,
Proximates
"Energy",kcal,--,--,51,86
"Protein",g,--,--,0.00,0.00
"Total lipid (fat)",g,--,--,0.00,0.00
"Carbohydrate, by difference",g,--,--,12.00,20.34
"Fiber, total dietary",g,--,--,0.0,0.0
"Sugars, total",g,--,--,12.00,20.34
Minerals
"Calcium, Ca",mg,--,--,0,0
"Iron, Fe",mg,--,--,0.00,0.00
"Sodium, Na",mg,--,--,9,15
Vitamins
"Vitamin C, total ascorbic acid",mg,--,--,0.0,0.0
"Vitamin A, IU",IU,--,--,0,0
Lipids
"Fatty acids, total saturated",g,--,--,0.000,0.000
"Fatty acids, total trans",g,--,--,0.000,0.000
"Cholesterol",mg,--,--,0,0
Amino Acids
Other
Ingredients
"ORGANIC GRAPE MUST, ORGANIC WINE VINEGAR, ORGANIC LEMON JUICE, NATURAL FRUIT PECTIN, NATURAL LEMON AND ORANGE FLAVORS." Date available: 10/13/2017 Date last updated by company: 10/13/2017
