Source: USDA Branded Food Products Database Release December 2017 Software v.3.8.6.4 2017-10-02
Report Run at: December 18, 2017 04:22 EST
"Nutrient data for: 45284298, ORGANIC COLESLAW DRESSING, UPC: 077890412329"
Food Group:  Branded Food Products Database
Common Name:

Nutrient,Unit,Data points,Std. Error,"2.0 Tbsp = 31.0g",1Value per 100 g,
Proximates
"Energy",kcal,--,--,120,387
"Protein",g,--,--,0.00,0.00
"Total lipid (fat)",g,--,--,11.00,35.48
"Carbohydrate, by difference",g,--,--,6.00,19.35
"Sugars, total",g,--,--,6.00,19.35
Minerals
"Sodium, Na",mg,--,--,200,645
Vitamins
Lipids
"Fatty acids, total saturated",g,--,--,1.500,4.840
"Fatty acids, total trans",g,--,--,0.000,0.000
"Cholesterol",mg,--,--,5,16
Amino Acids
Other
Ingredients
"WATER, ORGANIC SOYBEAN OIL, ORGANIC SUGAR, ORGANIC DISTILLED VINEGAR, CONTAINS LESS THAN 2% OF ORGANIC EGG YOLKS, SEA SALT, ORGANIC SPICES (CONTAINS CELERY), ORGANIC POPPY SEEDS, ORGANIC LEMON JUICE CONCENTRATE, ORGANIC CORN STARCH, XANTHAN GUM, ORGANIC ONION POWDER, SALT, ORGANIC PAPRIKA (FOR COLOR)." Date available: 09/21/2017 Date last updated by company: 09/21/2017
