Source: USDA Branded Food Products Database Release December 2017 Software v.3.8.6.4 2017-10-02
Report Run at: December 18, 2017 04:41 EST
"Nutrient data for: 45275301, ORGANIC EDAMAME, UPC: 037842000318"
Food Group:  Branded Food Products Database
Common Name:

Nutrient,Unit,Data points,Std. Error,"0.333 cup = 84.0g",1Value per 100 g,
Proximates
"Energy",kcal,--,--,120,143
"Protein",g,--,--,11.00,13.10
"Total lipid (fat)",g,--,--,6.00,7.14
"Carbohydrate, by difference",g,--,--,9.00,10.71
"Fiber, total dietary",g,--,--,3.0,3.6
"Sugars, total",g,--,--,0.00,0.00
Minerals
"Calcium, Ca",mg,--,--,163,194
"Iron, Fe",mg,--,--,2.90,3.45
"Potassium, K",mg,--,--,512,610
"Sodium, Na",mg,--,--,10,12
Vitamins
"Vitamin C, total ascorbic acid",mg,--,--,163.0,194.0
"Vitamin D",IU,--,--,0,0
Lipids
"Fatty acids, total saturated",g,--,--,0.504,0.600
"Fatty acids, total trans",g,--,--,0.000,0.000
"Cholesterol",mg,--,--,0,0
Amino Acids
Other
Ingredients
"ORGANIC EDAMAME (GREEN SOYBEANS)" Date available: 10/13/2017 Date last updated by company: 10/13/2017
