Source: USDA Branded Food Products Database Release December 2017 Software v.3.8.6.4 2017-10-02
Report Run at: December 18, 2017 07:27 EST
"Nutrient data for: 45081939, ORGANIC WHOLE GRAIN RICE & SEASONING MIX, UPC: 073416510609"
Food Group:  Branded Food Products Database
Common Name:

Nutrient,Unit,Data points,Std. Error,"2.0 ONZ = 56.0g",1Value per 100 g,
Proximates
"Energy",kcal,--,--,210,375
"Protein",g,--,--,6.00,10.71
"Total lipid (fat)",g,--,--,2.00,3.57
"Carbohydrate, by difference",g,--,--,44.00,78.57
"Fiber, total dietary",g,--,--,5.0,8.9
"Sugars, total",g,--,--,2.00,3.57
Minerals
"Calcium, Ca",mg,--,--,20,36
"Iron, Fe",mg,--,--,1.16,2.07
"Sodium, Na",mg,--,--,480,857
Vitamins
"Vitamin C, total ascorbic acid",mg,--,--,2.9,5.2
"Vitamin A, IU",IU,--,--,402,718
Lipids
"Fatty acids, total saturated",g,--,--,0.000,0.000
"Fatty acids, total trans",g,--,--,0.000,0.000
"Cholesterol",mg,--,--,0,0
Amino Acids
Other
Ingredients
"ORGANIC PARBOILED BROWN RICE, ORGANIC DEHYDRATED BLACK BEANS, ORGANIC SPICES (PAPRIKA, BLACK PEPPER, WHITE PEPPER, CUMIN, CELERY SEED, CAYENNE), SEA SALT, ORGANIC DEHYDRATED VEGETABLES (TOMATO, RED BELL PEPPER), ORGANIC DEHYDRATED ONION, ORGANIC DEHYDRATED GARLIC, ORGANIC SUGAR, ORGANIC RICE CONCENTRATE." Date available: 07/14/2017 Date last updated by company: 07/14/2017
