Source: USDA Branded Food Products Database Release December 2017 Software v.3.8.6.4 2017-10-02
Report Run at: December 18, 2017 07:13 EST
"Nutrient data for: 45019819, ORGANIC VALLEY, ORGANIC NON-INSTANT GRADE A NONFAT DRY MILK, UPC: 093966614107"
Food Group:  Branded Food Products Database
Common Name:

Nutrient,Unit,Data points,Std. Error,"3.0 Tbsp = 26.0g",1Value per 100 g,
Proximates
"Energy",kcal,--,--,90,346
"Protein",g,--,--,9.00,34.62
"Total lipid (fat)",g,--,--,0.00,0.00
"Carbohydrate, by difference",g,--,--,13.00,50.00
"Fiber, total dietary",g,--,--,0.0,0.0
"Sugars, total",g,--,--,13.00,50.00
Minerals
"Calcium, Ca",mg,--,--,300,1154
"Iron, Fe",mg,--,--,0.00,0.00
"Sodium, Na",mg,--,--,130,500
Vitamins
"Vitamin C, total ascorbic acid",mg,--,--,2.3,8.9
"Vitamin A, IU",IU,--,--,0,0
Lipids
"Fatty acids, total saturated",g,--,--,0.000,0.000
"Fatty acids, total trans",g,--,--,0.000,0.000
"Cholesterol",mg,--,--,5,19
Amino Acids
Other
Ingredients
"ORGANIC SKIM MILK." Date available: 10/04/2017 Date last updated by company: 10/04/2017
