Source: USDA Branded Food Products Database Release December 2017 Software v.3.8.6.4 2017-10-02
Report Run at: December 18, 2017 06:34 EST
"Nutrient data for: 45010609, ORGANIC SHORT GRAIN BROWN RICE, UPC: 073416045330"
Food Group:  Branded Food Products Database
Common Name:

Nutrient,Unit,Data points,Std. Error,"1 BOWL = 210.0g",1Value per 100 g,
Proximates
"Energy",kcal,--,--,319,152
"Protein",g,--,--,5.00,2.38
"Total lipid (fat)",g,--,--,2.50,1.19
"Carbohydrate, by difference",g,--,--,69.99,33.33
"Fiber, total dietary",g,--,--,4.0,1.9
"Sugars, total",g,--,--,0.00,0.00
Minerals
"Calcium, Ca",mg,--,--,0,0
"Iron, Fe",mg,--,--,0.59,0.28
"Sodium, Na",mg,--,--,21,10
Vitamins
"Vitamin C, total ascorbic acid",mg,--,--,0.0,0.0
"Vitamin A, IU",IU,--,--,0,0
Lipids
"Fatty acids, total saturated",g,--,--,0.000,0.000
"Fatty acids, total trans",g,--,--,0.000,0.000
"Cholesterol",mg,--,--,0,0
Amino Acids
Other
Ingredients
"COOKED ORGANIC SHORT GRAIN BROWN RICE." Date available: 07/14/2017 Date last updated by company: 07/14/2017
