Source: USDA Branded Food Products Database Release December 2017 Software v.3.8.6.4 2017-10-02
Report Run at: December 18, 2017 05:01 EST
"Nutrient data for: 45197710, ORGANIC GOURMET BEAN SOUP MIX, UPC: 072769005619"
Food Group:  Branded Food Products Database
Common Name:

Nutrient,Unit,Data points,Std. Error,"0.25 cup = 45.0g",1Value per 100 g,
Proximates
"Energy",kcal,--,--,150,333
"Protein",g,--,--,11.00,24.44
"Total lipid (fat)",g,--,--,0.00,0.00
"Carbohydrate, by difference",g,--,--,28.00,62.22
"Fiber, total dietary",g,--,--,10.0,22.2
"Sugars, total",g,--,--,2.00,4.44
Minerals
"Calcium, Ca",mg,--,--,60,133
"Iron, Fe",mg,--,--,3.00,6.67
"Sodium, Na",mg,--,--,5,11
Vitamins
"Vitamin C, total ascorbic acid",mg,--,--,1.4,3.0
"Vitamin A, IU",IU,--,--,0,0
Lipids
"Fatty acids, total saturated",g,--,--,0.000,0.000
"Fatty acids, total trans",g,--,--,0.000,0.000
"Cholesterol",mg,--,--,0,0
Amino Acids
Other
Ingredients
"ORGANIC YELLOW SPLIT PEAS, ORGANIC PINTO BEANS, ORGANIC SMALL RED BEANS, ORGANIC GREAT NORTHERN BEANS, ORGANIC BLACK BEANS, ORGANIC LENTILS, ORGANIC GREEN SPLIT PEAS, AND ORGANIC BLACKEYE PEAS." Date available: 07/14/2017 Date last updated by company: 07/14/2017
