Source: USDA Branded Food Products Database Release December 2017 Software v.3.8.6.4 2017-10-02
Report Run at: December 18, 2017 04:18 EST
"Nutrient data for: 45208666, ORGANIC COCONUT & BAOBAB GRANOLA, UPC: 077890352212"
Food Group:  Branded Food Products Database
Common Name:

Nutrient,Unit,Data points,Std. Error,"0.25 cup = 30.0g",1Value per 100 g,
Proximates
"Energy",kcal,--,--,140,467
"Protein",g,--,--,2.00,6.67
"Total lipid (fat)",g,--,--,5.00,16.67
"Carbohydrate, by difference",g,--,--,21.00,70.00
"Fiber, total dietary",g,--,--,2.0,6.7
"Sugars, total",g,--,--,7.00,23.33
Minerals
"Calcium, Ca",mg,--,--,0,0
"Iron, Fe",mg,--,--,1.32,4.40
"Sodium, Na",mg,--,--,30,100
Vitamins
"Vitamin C, total ascorbic acid",mg,--,--,0.0,0.0
"Vitamin A, IU",IU,--,--,0,0
Lipids
"Fatty acids, total saturated",g,--,--,1.500,5.000
"Fatty acids, total trans",g,--,--,0.000,0.000
"Cholesterol",mg,--,--,0,0
Amino Acids
Other
Ingredients
"ORGANIC WHOLE ROLLED OATS, ORGANIC MILLED CANE SUGAR, ORGANIC VEGETABLE OIL (ORGANIC CANOLA AND/OR ORGANIC SAFFLOWER AND/OR ORGANIC SUNFLOWER OIL), ORGANIC RICE FLOUR, ORGANIC COCONUT, ORGANIC CORNSTARCH, ORGANIC HONEY, NATURAL FLAVOR, SALT, ORGANIC BAOBAB FRUIT POWDER, ORGANIC BARLEY MALT SYRUP, ORGANIC ALMOND POWDER, MIXED TOCOPHEROLS (NATURAL VITAMIN E TO MAINTAIN FRESHNESS)." Date available: 07/14/2017 Date last updated by company: 07/14/2017
