Source: USDA Branded Food Products Database Release December 2017 Software v.3.8.6.4 2017-10-02
Report Run at: December 18, 2017 06:13 EST
"Nutrient data for: 45034794, ORGANIC RAMEN NOODLES, UPC: 813551002238"
Food Group:  Branded Food Products Database
Common Name:

Nutrient,Unit,Data points,Std. Error,"1 PACKAGE = 54.0g",1Value per 100 g,
Proximates
"Energy",kcal,--,--,200,370
"Protein",g,--,--,6.00,11.11
"Total lipid (fat)",g,--,--,1.00,1.85
"Carbohydrate, by difference",g,--,--,42.00,77.78
"Fiber, total dietary",g,--,--,2.0,3.7
"Sugars, total",g,--,--,1.00,1.85
Minerals
"Calcium, Ca",mg,--,--,0,0
"Iron, Fe",mg,--,--,0.66,1.23
"Potassium, K",mg,--,--,80,148
"Sodium, Na",mg,--,--,190,352
Vitamins
"Vitamin C, total ascorbic acid",mg,--,--,0.0,0.0
"Vitamin A, IU",IU,--,--,0,0
Lipids
"Fatty acids, total saturated",g,--,--,0.000,0.000
"Fatty acids, total trans",g,--,--,0.000,0.000
"Cholesterol",mg,--,--,0,0
Amino Acids
Other
Ingredients
"ORGANIC HEIRLOOM WHEAT FLOUR, SEA SALT." Date available: 06/24/2017 Date last updated by company: 06/24/2017
