Source: USDA Branded Food Products Database Release December 2017 Software v.3.8.6.4 2017-10-02
Report Run at: December 18, 2017 06:48 EST
"Nutrient data for: 45081923, ORGANIC STEAK SAUCE, UPC: 099482448042"
Food Group:  Branded Food Products Database
Common Name:

Nutrient,Unit,Data points,Std. Error,"1 Tbsp = 15.0g",1Value per 100 g,
Proximates
"Energy",kcal,--,--,10,67
"Protein",g,--,--,0.00,0.00
"Total lipid (fat)",g,--,--,0.00,0.00
"Carbohydrate, by difference",g,--,--,2.00,13.33
"Sugars, total",g,--,--,1.00,6.67
Minerals
"Sodium, Na",mg,--,--,170,1133
Vitamins
"Vitamin C, total ascorbic acid",mg,--,--,4.0,27.0
Lipids
Amino Acids
Other
Ingredients
"ORGANIC TOMATO PUREE (WATER, ORGANIC TOMATO PASTE), ORGANIC WHITE VINEGAR, ORGANIC WORCESTERSHIRE, SAUCE (ORGANIC CANE SUGAR, SEA SALT, ORGANIC CARAMEL COLOR, ORGANIC GARLIC RAISINS, ORGANIC ORANGE JUICE CONCENTRATE, SALT, ORGANIC CANE SUGAR, ORGANIC LEMON JUICE CONCENTRATE, ORGANIC COLOR, ORGANIC GARLIC POWDER, ORGANIC TAMARIND, ORGANIC BLACK PEPPER, ORGANIC CELERY SEED, ORGANIC CAYENNE PEPPERS, XANTHAN GUM)." Date available: 06/25/2017 Date last updated by company: 06/25/2017
