Source: USDA Branded Food Products Database Release December 2017 Software v.3.8.6.4 2017-10-02
Report Run at: December 18, 2017 07:33 EST
"Nutrient data for: 45086014, ORGANIC WILD BERRY FRUIT SPREAD, UPC: 799210222271"
Food Group:  Branded Food Products Database
Common Name:

Nutrient,Unit,Data points,Std. Error,"1 Tbsp = 19.0g",1Value per 100 g,
Proximates
"Energy",kcal,--,--,30,158
"Protein",g,--,--,0.00,0.00
"Total lipid (fat)",g,--,--,0.00,0.00
"Carbohydrate, by difference",g,--,--,8.00,42.11
"Sugars, total",g,--,--,6.00,31.58
Minerals
"Sodium, Na",mg,--,--,0,0
Vitamins
"Vitamin C, total ascorbic acid",mg,--,--,50.7,266.9
Lipids
Amino Acids
Other
Ingredients
"ORGANIC WILD BERRIES (ORGANIC BLACKBERRIES, ORGANIC STRAWBERRIES, ORGANIC BILBERRIES, ORGANIC RASPBERRIES) ORGANIC APPLE JUICE CONCENTRATE, NATURAL FRUIT PECTIN, ASCORBIC ACID." Date available: 07/14/2017 Date last updated by company: 07/14/2017
