Source: USDA Branded Food Products Database Release December 2017 Software v.3.8.6.4 2017-10-02
Report Run at: December 18, 2017 04:34 EST
"Nutrient data for: 45209850, ORGANIC DEEP GREEN BLENDS, UPC: 032601706357"
Food Group:  Branded Food Products Database
Common Name:

Nutrient,Unit,Data points,Std. Error,"2.0 CUPS | ABOUT = 85.0g",1Value per 100 g,
Proximates
"Energy",kcal,--,--,20,24
"Protein",g,--,--,2.00,2.35
"Total lipid (fat)",g,--,--,0.00,0.00
"Carbohydrate, by difference",g,--,--,4.00,4.71
"Fiber, total dietary",g,--,--,1.0,1.2
"Sugars, total",g,--,--,0.00,0.00
Minerals
"Calcium, Ca",mg,--,--,100,118
"Iron, Fe",mg,--,--,0.72,0.85
"Sodium, Na",mg,--,--,105,124
Vitamins
"Vitamin C, total ascorbic acid",mg,--,--,21.0,24.7
"Vitamin A, IU",IU,--,--,5000,5882
Lipids
"Fatty acids, total saturated",g,--,--,0.000,0.000
"Fatty acids, total trans",g,--,--,0.000,0.000
"Cholesterol",mg,--,--,0,0
Amino Acids
Other
Ingredients
"ORGANIC BABY SPINACH, ORGANIC PAK-CHOI, ORGANIC MIZUNA, ORGANIC KOMATSUNA, ORGANIC BABY KALE, ORGANIC BABY CHARD, ORGANIC BABY TATSOI, ORGANIC BABY MUSTARD, ORGANIC BABY COLLARD." Date available: 07/14/2017 Date last updated by company: 07/14/2017
