Source: USDA Branded Food Products Database Release December 2017 Software v.3.8.6.4 2017-10-02
Report Run at: December 18, 2017 06:09 EST
"Nutrient data for: 45176166, ORGANIC PUMPKIN & FLAXSEED GRANOLA, UPC: 070038640493"
Food Group:  Branded Food Products Database
Common Name:

Nutrient,Unit,Data points,Std. Error,"0.5 cup = 52.0g",1Value per 100 g,
Proximates
"Energy",kcal,--,--,230,442
"Protein",g,--,--,6.00,11.54
"Total lipid (fat)",g,--,--,9.00,17.31
"Carbohydrate, by difference",g,--,--,34.00,65.38
"Fiber, total dietary",g,--,--,4.0,7.7
"Sugars, total",g,--,--,10.00,19.23
Minerals
"Calcium, Ca",mg,--,--,0,0
"Iron, Fe",mg,--,--,1.52,2.93
"Sodium, Na",mg,--,--,60,115
Vitamins
"Vitamin C, total ascorbic acid",mg,--,--,0.0,0.0
"Vitamin A, IU",IU,--,--,0,0
Lipids
"Fatty acids, total saturated",g,--,--,0.998,1.920
"Fatty acids, total trans",g,--,--,0.000,0.000
"Cholesterol",mg,--,--,0,0
Amino Acids
Other
Ingredients
"ORGANIC WHOLE ROLLED OATS, ORGANIC NATURALLY MILLED SUGAR, ORGANIC EXPELLER PRESSED CANOLA OIL, ORGANIC CRISP BROWN RICE WITH ORGANIC RICE SYRUP AND SEA SALT, ORGANIC RICE SYRUP, ORGANIC FLAX SEEDS, ORGANIC PUMPKIN SEEDS, ORGANIC OAT FLOUR, ORGANIC MOLASSES, ORGANIC CINNAMON, SALT." Date available: 07/14/2017 Date last updated by company: 07/14/2017
