Source: USDA Branded Food Products Database Release December 2017 Software v.3.8.6.4 2017-10-02
Report Run at: December 18, 2017 06:51 EST
"Nutrient data for: 45289337, ORGANIC SUN DRIED TOMATO, UPC: 851368004380"
Food Group:  Branded Food Products Database
Common Name:

Nutrient,Unit,Data points,Std. Error,"2.0 Tbsp = 28.0g",1Value per 100 g,
Proximates
"Energy",kcal,--,--,50,179
"Protein",g,--,--,2.00,7.14
"Total lipid (fat)",g,--,--,3.00,10.71
"Carbohydrate, by difference",g,--,--,5.00,17.86
"Fiber, total dietary",g,--,--,2.0,7.1
"Sugars, total",g,--,--,1.00,3.57
Minerals
"Sodium, Na",mg,--,--,130,464
Vitamins
"Vitamin C, total ascorbic acid",mg,--,--,0.0,0.0
"Vitamin A, IU",IU,--,--,0,0
Lipids
"Fatty acids, total saturated",g,--,--,0.000,0.000
"Fatty acids, total trans",g,--,--,0.000,0.000
"Cholesterol",mg,--,--,0,0
Amino Acids
Other
Ingredients
"ORGANIC CHICKPEAS (ORGANIC CHICKPEAS AND WATER), ORGANIC SESAME TAHINI, ORGANIC EXTRA VIRGIN OLIVE OIL AND/OR ORGANIC SUNFLOWER OIL, SEA SALT, ORGANIC GARLIC, CITRIC ACID, ORGANIC CUMIN, ORGANIC SUN DRIED TOMATO, ORGANIC BASIL" Date available: 09/22/2017 Date last updated by company: 09/22/2017
