Source: USDA Branded Food Products Database Release December 2017 Software v.3.8.6.4 2017-10-02
Report Run at: December 18, 2017 07:26 EST
"Nutrient data for: 45161481, ORGANIC WHOLE GRAIN CORN TORTILLA CHIPS, UPC: 814353020017"
Food Group:  Branded Food Products Database
Common Name:

Nutrient,Unit,Data points,Std. Error,"9.0 CHIPS | ABOUT = 28.0g",1Value per 100 g,
Proximates
"Energy",kcal,--,--,130,464
"Protein",g,--,--,2.00,7.14
"Total lipid (fat)",g,--,--,6.00,21.43
"Carbohydrate, by difference",g,--,--,15.00,53.57
"Fiber, total dietary",g,--,--,3.0,10.7
"Sugars, total",g,--,--,0.00,0.00
Minerals
"Calcium, Ca",mg,--,--,40,143
"Iron, Fe",mg,--,--,1.29,4.59
"Sodium, Na",mg,--,--,80,286
Vitamins
"Vitamin C, total ascorbic acid",mg,--,--,0.0,0.0
"Vitamin A, IU",IU,--,--,179,638
Lipids
"Fatty acids, total saturated",g,--,--,0.501,1.790
"Fatty acids, total monounsaturated",g,--,--,3.500,12.500
"Fatty acids, total polyunsaturated",g,--,--,1.501,5.360
"Fatty acids, total trans",g,--,--,0.000,0.000
"Cholesterol",mg,--,--,0,0
Amino Acids
Other
Ingredients
"ORGANIC STONE GROUND WHOLE CORN, ORGANIC SUNFLOWER OIL, ORGANIC SPROUTED SEED, GRAIN, AND BEAN BLEND [ORGANIC SPROUTED BLACK BEANS, ORGANIC SPROUTED FLAX SEED. ORGANIC SPROUTED QUINOA], PURE SEA SALT, ORGANIC GARLIC, ORGANIC ONION." Date available: 07/14/2017 Date last updated by company: 07/14/2017
