Source: USDA Branded Food Products Database Release December 2017 Software v.3.8.6.4 2017-10-02
Report Run at: December 18, 2017 05:46 EST
"Nutrient data for: 45284487, ORGANIC NACHO TORTILLA CHIPS, UPC: 068826166140"
Food Group:  Branded Food Products Database
Common Name:

Nutrient,Unit,Data points,Std. Error,"12.0 CHIPS | ABOUT = 28.0g",1Value per 100 g,
Proximates
"Energy",kcal,--,--,130,464
"Protein",g,--,--,2.00,7.14
"Total lipid (fat)",g,--,--,5.00,17.86
"Carbohydrate, by difference",g,--,--,19.00,67.86
"Fiber, total dietary",g,--,--,2.0,7.1
"Sugars, total",g,--,--,1.00,3.57
Minerals
"Calcium, Ca",mg,--,--,20,71
"Iron, Fe",mg,--,--,0.64,2.29
"Sodium, Na",mg,--,--,150,536
Vitamins
"Vitamin C, total ascorbic acid",mg,--,--,0.0,0.0
"Vitamin A, IU",IU,--,--,0,0
Lipids
"Fatty acids, total saturated",g,--,--,0.000,0.000
"Fatty acids, total trans",g,--,--,0.000,0.000
"Cholesterol",mg,--,--,0,0
Amino Acids
Other
Ingredients
"STONE GROUND CORN*, SUNFLOWER* AND/OR SAFFLOWER* OIL, VEGAN NACHO SEASONING* (RICE FLOUR*, CANE SUGAR*, SEA SALT, ONION POWDER*, TOMATO POWDER*, YEAST EXTRACT*, GARLIC POWDER*, PAPRIKA POWDER*, VEGAN CHEDDAR CHEESE FLAVOR*, SPICES*, JALAPENO PEPPER POWDER*, RED BELL PEPPER POWDER*, GREEN BELL PEPPER POWDER*, ANNATTO EXTRACT*, LACTIC ACID, CITRIC ACID), CHIA SEEDS*, RED QUINOA*, TRACE OF LIME." Date available: 07/14/2017 Date last updated by company: 07/14/2017
