Source: USDA Branded Food Products Database Release December 2017 Software v.3.8.6.4 2017-10-02
Report Run at: December 18, 2017 03:50 EST
"Nutrient data for: 45271359, ORGANIC BEEF BONE BROTH, UPC: 680474051663"
Food Group:  Branded Food Products Database
Common Name:

Nutrient,Unit,Data points,Std. Error,"1 cup = 236.0g",1Value per 100 g,
Proximates
"Energy",kcal,--,--,35,15
"Protein",g,--,--,7.01,2.97
"Total lipid (fat)",g,--,--,0.50,0.21
"Carbohydrate, by difference",g,--,--,0.00,0.00
"Fiber, total dietary",g,--,--,0.0,0.0
"Sugars, total",g,--,--,0.00,0.00
Minerals
"Sodium, Na",mg,--,--,250,106
Vitamins
Lipids
"Fatty acids, total saturated",g,--,--,0.000,0.000
"Fatty acids, total trans",g,--,--,0.000,0.000
"Cholesterol",mg,--,--,0,0
Amino Acids
Other
Ingredients
"TRIPLE FILTERED WATER, ORGANIC GRASS FED BEEF BONES, ORGANIC ONION, ORGANIC WHITE VINEGAR, ORGANIC THYME, ORGANIC PARSLEY, ORGANIC PEPPERCORNS, SEA SALT" Date available: 07/14/2017 Date last updated by company: 07/14/2017
