Source: USDA Branded Food Products Database Release December 2017 Software v.3.8.6.4 2017-10-02
Report Run at: December 18, 2017 05:04 EST
"Nutrient data for: 45079603, ORGANIC GRAVY MIX FOR CHICKEN, UPC: 098308228424"
Food Group:  Branded Food Products Database
Common Name:

Nutrient,Unit,Data points,Std. Error,"1 Tbsp = 7.0g",1Value per 100 g,
Proximates
"Energy",kcal,--,--,20,286
"Protein",g,--,--,1.00,14.29
"Total lipid (fat)",g,--,--,0.00,0.00
"Carbohydrate, by difference",g,--,--,4.00,57.14
"Fiber, total dietary",g,--,--,0.0,0.0
"Sugars, total",g,--,--,1.00,14.29
Minerals
"Calcium, Ca",mg,--,--,0,0
"Iron, Fe",mg,--,--,0.00,0.00
"Sodium, Na",mg,--,--,340,4857
Vitamins
"Vitamin C, total ascorbic acid",mg,--,--,0.0,0.0
"Thiamin",mg,--,--,0.000,0.000
"Riboflavin",mg,--,--,0.486,6.938
"Niacin",mg,--,--,0.000,0.000
"Vitamin A, IU",IU,--,--,0,0
Lipids
"Fatty acids, total saturated",g,--,--,0.000,0.000
"Fatty acids, total trans",g,--,--,0.000,0.000
"Cholesterol",mg,--,--,0,0
Amino Acids
Other
Ingredients
"WHEAT FLOUR*, CORN STARCH*, SALT, SWEET WHEY POWDER*, DRIED CHICKEN STOCK*, YEAST EXTRACT, AUTOLYZED YEAST EXTRACT*, CANE SUGAR*, CHICKEN FLAVOR*, RICE CONCENTRATE*, ONION POWDER*, MALTODEXTRIN*, GARLIC POWDER*, SPICES*, TURMERIC*, NATURAL BUTTER FLAVOR*, NATURAL FLAVOR." Date available: 07/14/2017 Date last updated by company: 07/14/2017
