Source: USDA Branded Food Products Database Release December 2017 Software v.3.8.6.4 2017-10-02
Report Run at: December 18, 2017 04:26 EST
"Nutrient data for: 45024590, ORGANIC CREAMERY, ORGANIC FETA CHEESE CRUMBLES, UPC: 711565006139"
Food Group:  Branded Food Products Database
Common Name:

Nutrient,Unit,Data points,Std. Error,"0.25 cup = 28.0g",1Value per 100 g,
Proximates
"Energy",kcal,--,--,80,286
"Protein",g,--,--,5.00,17.86
"Total lipid (fat)",g,--,--,6.00,21.43
"Carbohydrate, by difference",g,--,--,1.00,3.57
"Fiber, total dietary",g,--,--,1.0,3.6
"Sugars, total",g,--,--,0.00,0.00
Minerals
"Calcium, Ca",mg,--,--,60,214
"Iron, Fe",mg,--,--,0.00,0.00
"Sodium, Na",mg,--,--,320,1143
Vitamins
"Vitamin C, total ascorbic acid",mg,--,--,0.0,0.0
"Vitamin A, IU",IU,--,--,357,1275
Lipids
"Fatty acids, total saturated",g,--,--,4.001,14.290
"Fatty acids, total trans",g,--,--,0.000,0.000
"Cholesterol",mg,--,--,20,71
Amino Acids
Other
Ingredients
"ORGANIC FETA CHEESE (PASTEURIZED ORGANIC MILK, CHEESE CULTURES, SALT, ENZYMES), POWDERED CELLULOSE (TO PREVENT CAKING)." Date available: 06/25/2017 Date last updated by company: 06/25/2017
