Source: USDA Branded Food Products Database Release December 2017 Software v.3.8.6.4 2017-10-02
Report Run at: December 18, 2017 07:22 EST
"Nutrient data for: 45293296, ORGANIC WASHED & TRIMMED ROMAINE LETTUCE, UPC: 707185000374"
Food Group:  Branded Food Products Database
Common Name:

Nutrient,Unit,Data points,Std. Error,"6.0 LEAVES = 85.0g",1Value per 100 g,
Proximates
"Energy",kcal,--,--,15,18
"Protein",g,--,--,1.00,1.18
"Total lipid (fat)",g,--,--,0.00,0.00
"Carbohydrate, by difference",g,--,--,3.00,3.53
"Fiber, total dietary",g,--,--,2.0,2.4
"Sugars, total",g,--,--,1.00,1.18
Minerals
"Calcium, Ca",mg,--,--,20,24
"Iron, Fe",mg,--,--,0.72,0.85
"Sodium, Na",mg,--,--,5,6
Vitamins
"Vitamin C, total ascorbic acid",mg,--,--,21.0,24.7
"Vitamin A, IU",IU,--,--,7500,8824
Lipids
"Fatty acids, total saturated",g,--,--,0.000,0.000
"Fatty acids, total trans",g,--,--,0.000,0.000
"Cholesterol",mg,--,--,0,0
Amino Acids
Other
Ingredients
"ORGANIC ROMAINE LETTUCE" Date available: 07/14/2017 Date last updated by company: 07/14/2017
