Source: USDA Branded Food Products Database Release December 2017 Software v.3.8.6.4 2017-10-02
Report Run at: December 18, 2017 06:33 EST
"Nutrient data for: 45183414, ORGANIC SEVILLE ORANGE SPREAD, UPC: 067275000388"
Food Group:  Branded Food Products Database
Common Name:

Nutrient,Unit,Data points,Std. Error,"1 Tbsp = 18.0g",1Value per 100 g,
Proximates
"Energy",kcal,--,--,30,167
"Protein",g,--,--,0.00,0.00
"Total lipid (fat)",g,--,--,0.00,0.00
"Carbohydrate, by difference",g,--,--,8.00,44.44
"Sugars, total",g,--,--,8.00,44.44
Minerals
"Sodium, Na",mg,--,--,10,56
Vitamins
"Vitamin C, total ascorbic acid",mg,--,--,40.6,225.4
Lipids
Amino Acids
Other
Ingredients
"CONCENTRATED ORGANIC GRAPE JUICE, ORGANIC SEVILLE ORANGE PULP, ORGANIC CONCENTRATED ORANGE JUICE, NATURAL APPLE PECTIN, ASCORBIC ACID (VITAMIN C), CITRIC ACID." Date available: 07/14/2017 Date last updated by company: 07/14/2017
