Source: USDA Branded Food Products Database Release December 2017 Software v.3.8.6.4 2017-10-02
Report Run at: December 18, 2017 04:44 EST
"Nutrient data for: 45148373, ORGANIC EXTRA VIRGIN OLIVE OIL, UPC: 799210175010"
Food Group:  Branded Food Products Database
Common Name:

Nutrient,Unit,Data points,Std. Error,"1 Tbsp = 15.0g",1Value per 100 g,
Proximates
"Energy",kcal,--,--,120,800
"Protein",g,--,--,0.00,0.00
"Total lipid (fat)",g,--,--,14.00,93.33
"Carbohydrate, by difference",g,--,--,0.00,0.00
Minerals
"Sodium, Na",mg,--,--,0,0
Vitamins
Lipids
"Fatty acids, total saturated",g,--,--,1.999,13.330
"Fatty acids, total monounsaturated",g,--,--,11.000,73.330
"Fatty acids, total polyunsaturated",g,--,--,1.000,6.670
Amino Acids
Other
Ingredients
"100% ITALIAN ORGANIC EXTRA VIRGIN OLIVE OIL." Date available: 08/24/2017 Date last updated by company: 08/24/2017
