Source: USDA Branded Food Products Database Release December 2017 Software v.3.8.6.4 2017-10-02
Report Run at: December 18, 2017 05:16 EST
"Nutrient data for: 45203726, ORGANIC ICE CREAM SANDWICH, UPC: 856452004475"
Food Group:  Branded Food Products Database
Common Name:

Nutrient,Unit,Data points,Std. Error,"1 SANDWICH = 67.0g",1Value per 100 g,
Proximates
"Energy",kcal,--,--,190,284
"Protein",g,--,--,3.00,4.48
"Total lipid (fat)",g,--,--,9.00,13.43
"Carbohydrate, by difference",g,--,--,25.00,37.31
"Fiber, total dietary",g,--,--,0.0,0.0
"Sugars, total",g,--,--,16.00,23.88
Minerals
"Calcium, Ca",mg,--,--,60,90
"Iron, Fe",mg,--,--,0.72,1.07
"Sodium, Na",mg,--,--,70,104
Vitamins
"Vitamin C, total ascorbic acid",mg,--,--,1.2,1.8
"Vitamin A, IU",IU,--,--,200,299
Lipids
"Fatty acids, total saturated",g,--,--,4.998,7.460
"Fatty acids, total trans",g,--,--,0.000,0.000
"Cholesterol",mg,--,--,15,22
Amino Acids
Other
Ingredients
"ICE CREAM: ORGANIC MILK, ORGANIC CREAM, ORGANIC CANE SUGAR, ORGANIC NONFAT MILK, ORGANIC LOCUST BEAN GUM, ORGANIC VANILLA EXTRACT, WAFER: ORGANIC WHEAT FLOUR, ORGANIC CANE SUGAR, ORGANIC CANE SYRUP, ORGANIC PALM OIL, ORGANIC CARAMEL COLOR BAKING SODA, ORGANIC SOY LECITHIN, SALT ORGANIC COCOA POWDER (PROCESSED WITH ALKALI), ORGANIC VANILLA EXTRACT." Date available: 09/12/2017 Date last updated by company: 09/12/2017
