Source: USDA Branded Food Products Database Release December 2017 Software v.3.8.6.4 2017-10-02
Report Run at: December 18, 2017 03:42 EST
"Nutrient data for: 45185030, ORGANIC BABY ARUGULA, UPC: 711535501978"
Food Group:  Branded Food Products Database
Common Name:

Nutrient,Unit,Data points,Std. Error,"5.0 OZ = 142.0g",1Value per 100 g,
Proximates
"Energy",kcal,--,--,36,25
"Protein",g,--,--,4.00,2.82
"Total lipid (fat)",g,--,--,0.00,0.00
"Carbohydrate, by difference",g,--,--,5.00,3.52
"Fiber, total dietary",g,--,--,2.0,1.4
"Sugars, total",g,--,--,3.00,2.11
Minerals
"Calcium, Ca",mg,--,--,250,176
"Iron, Fe",mg,--,--,1.08,0.76
"Sodium, Na",mg,--,--,40,28
Vitamins
"Vitamin C, total ascorbic acid",mg,--,--,12.6,8.9
"Vitamin A, IU",IU,--,--,2094,1475
Lipids
"Fatty acids, total saturated",g,--,--,0.000,0.000
"Fatty acids, total trans",g,--,--,0.000,0.000
"Cholesterol",mg,--,--,0,0
Amino Acids
Other
Ingredients
"ORGANIC BABY ARUGULA." Date available: 07/14/2017 Date last updated by company: 07/14/2017
