Source: USDA Branded Food Products Database Release December 2017 Software v.3.8.6.4 2017-10-02
Report Run at: December 18, 2017 06:41 EST
"Nutrient data for: 45197196, ORGANIC SOUTHWESTERN-STYLE BLACK BEAN SOUP, UPC: 070038639138"
Food Group:  Branded Food Products Database
Common Name:

Nutrient,Unit,Data points,Std. Error,"1 cup = 245.0g",1Value per 100 g,
Proximates
"Energy",kcal,--,--,120,49
"Protein",g,--,--,6.00,2.45
"Total lipid (fat)",g,--,--,1.00,0.41
"Carbohydrate, by difference",g,--,--,23.01,9.39
"Fiber, total dietary",g,--,--,5.9,2.4
"Sugars, total",g,--,--,3.99,1.63
Minerals
"Calcium, Ca",mg,--,--,59,24
"Iron, Fe",mg,--,--,1.08,0.44
"Sodium, Na",mg,--,--,750,306
Vitamins
"Vitamin C, total ascorbic acid",mg,--,--,0.0,0.0
"Vitamin A, IU",IU,--,--,100,41
Lipids
"Fatty acids, total saturated",g,--,--,0.000,0.000
"Fatty acids, total trans",g,--,--,0.000,0.000
"Cholesterol",mg,--,--,0,0
Amino Acids
Other
Ingredients
"FILTERED WATER, ORGANIC BLACK BEANS, ORGANIC TOMATOES, ORGANIC TOMATO PASTE, ORGANIC ONIONS, ORGANIC RED PEPPER, ORGANIC CORNSTARCH, SEA SALT, ORGANIC CORN, ORGANIC CANE SUGAR, ORGANIC GARLIC POWDER, ORGANIC RED CHILI PEPPER, ORGANIC GROUND CUMIN, ORGANIC CHIPOTLE PEPPER." Date available: 07/14/2017 Date last updated by company: 07/14/2017
