Source: USDA Branded Food Products Database Release December 2017 Software v.3.8.6.4 2017-10-02
Report Run at: December 18, 2017 07:24 EST
"Nutrient data for: 45324947, ORGANIC WHITE CHIA SEED SUPERFOOD, UPC: 692752101809"
Food Group:  Branded Food Products Database
Common Name:

Nutrient,Unit,Data points,Std. Error,"1 Tbsp = 12.0g",1Value per 100 g,
Proximates
"Energy",kcal,--,--,60,500
"Protein",g,--,--,3.00,25.00
"Total lipid (fat)",g,--,--,3.00,25.00
"Carbohydrate, by difference",g,--,--,5.00,41.67
"Fiber, total dietary",g,--,--,5.0,41.7
"Sugars, total",g,--,--,0.00,0.00
Minerals
"Calcium, Ca",mg,--,--,80,667
"Iron, Fe",mg,--,--,4.05,33.75
"Magnesium, Mg",mg,--,--,150,1250
"Potassium, K",mg,--,--,60,500
"Sodium, Na",mg,--,--,0,0
Vitamins
"Vitamin C, total ascorbic acid",mg,--,--,0.0,0.0
"Vitamin A, IU",IU,--,--,0,0
Lipids
"Fatty acids, total saturated",g,--,--,0.000,0.000
"Fatty acids, total monounsaturated",g,--,--,0.000,0.000
"Fatty acids, total polyunsaturated",g,--,--,2.500,20.830
"Fatty acids, total trans",g,--,--,0.000,0.000
"Cholesterol",mg,--,--,0,0
Amino Acids
Other
Ingredients
"RAW ORGANIC CHIA SEEDS" Date available: 08/11/2017 Date last updated by company: 08/11/2017
