Source: USDA Branded Food Products Database Release December 2017 Software v.3.8.6.4 2017-10-02
Report Run at: December 18, 2017 04:57 EST
"Nutrient data for: 45232253, ORGANIC GARDEN VEGGIE TEMPEH, UPC: 043454090104"
Food Group:  Branded Food Products Database
Common Name:

Nutrient,Unit,Data points,Std. Error,"3.0 ONZ = 84.0g",1Value per 100 g,
Proximates
"Energy",kcal,--,--,160,190
"Protein",g,--,--,16.00,19.05
"Total lipid (fat)",g,--,--,6.00,7.14
"Carbohydrate, by difference",g,--,--,10.00,11.90
"Fiber, total dietary",g,--,--,8.0,9.5
"Sugars, total",g,--,--,0.00,0.00
Minerals
"Calcium, Ca",mg,--,--,60,71
"Iron, Fe",mg,--,--,1.07,1.27
"Potassium, K",mg,--,--,270,321
"Sodium, Na",mg,--,--,75,89
Vitamins
"Vitamin C, total ascorbic acid",mg,--,--,0.0,0.0
"Vitamin A, IU",IU,--,--,60,71
Lipids
"Fatty acids, total saturated",g,--,--,1.000,1.190
"Fatty acids, total monounsaturated",g,--,--,1.000,1.190
"Fatty acids, total polyunsaturated",g,--,--,3.503,4.170
"Fatty acids, total trans",g,--,--,0.000,0.000
"Cholesterol",mg,--,--,0,0
Amino Acids
Other
Ingredients
"CULTURED ORGANIC SOYBEAN (SOYBEANS, LACTIC ACID FROM PLANT SOURCES), WATER, ORGANIC CARROTS, YEAST EXTRACT, ORGANIC ONIONS, ORGANIC DRIED GREEN BELL PEPPERS, ORGANIC DRIED RED BELL PEPPERS, ORGANIC CELERY SEED, ORGANIC BROWN RICE." Date available: 07/14/2017 Date last updated by company: 07/14/2017
