Source: USDA Branded Food Products Database Release December 2017 Software v.3.8.6.4 2017-10-02
Report Run at: December 18, 2017 05:11 EST
"Nutrient data for: 45090742, ORGANIC HAWAIIAN DRESSING & MARINADE, UPC: 074305033124"
Food Group:  Branded Food Products Database
Common Name:

Nutrient,Unit,Data points,Std. Error,"2.0 Tbsp = 32.0g",1Value per 100 g,
Proximates
"Energy",kcal,--,--,20,62
"Protein",g,--,--,0.00,0.00
"Total lipid (fat)",g,--,--,0.00,0.00
"Carbohydrate, by difference",g,--,--,5.00,15.62
"Fiber, total dietary",g,--,--,0.0,0.0
"Sugars, total",g,--,--,4.00,12.50
Minerals
"Calcium, Ca",mg,--,--,0,0
"Iron, Fe",mg,--,--,0.00,0.00
"Sodium, Na",mg,--,--,0,0
Vitamins
"Vitamin C, total ascorbic acid",mg,--,--,0.0,0.0
"Vitamin A, IU",IU,--,--,0,0
Lipids
"Fatty acids, total saturated",g,--,--,0.000,0.000
"Fatty acids, total trans",g,--,--,0.000,0.000
"Cholesterol",mg,--,--,0,0
Amino Acids
Other
Ingredients
"ORGANIC APPLE CIDER VINEGAR, PURIFIED WATER, ORGANIC MANGO PUREE, ORGANIC PINEAPPLE JUICE CONCENTRATE, ORGANIC RICE STARCH, ORGANIC APPLE JUICE CONCENTRATE, ORGANIC LIME JUICE, ORGANIC HAWAIIAN GINGER, ORGANIC PASSION FRUIT JUICE CONCENTRATE, ORGANIC HAWAIIAN NONI JUICE AND ORGANIC STEVIA EXTRACT, AND NATURAL XANTHAN GUM." Date available: 07/14/2017 Date last updated by company: 07/14/2017
