Source: USDA Branded Food Products Database Release December 2017 Software v.3.8.6.4 2017-10-02
Report Run at: December 18, 2017 04:47 EST
"Nutrient data for: 45263847, ORGANIC FANCY SHREDDED MOZZARELLA CHEESE, UPC: 725439990837"
Food Group:  Branded Food Products Database
Common Name:

Nutrient,Unit,Data points,Std. Error,"0.25 cup = 28.0g",1Value per 100 g,
Proximates
"Energy",kcal,--,--,80,286
"Protein",g,--,--,7.00,25.00
"Total lipid (fat)",g,--,--,5.00,17.86
"Carbohydrate, by difference",g,--,--,2.00,7.14
"Fiber, total dietary",g,--,--,0.0,0.0
"Sugars, total",g,--,--,0.00,0.00
Minerals
"Calcium, Ca",mg,--,--,190,679
"Iron, Fe",mg,--,--,0.00,0.00
"Potassium, K",mg,--,--,53,189
"Sodium, Na",mg,--,--,180,643
Vitamins
Lipids
"Fatty acids, total saturated",g,--,--,2.999,10.710
"Fatty acids, total trans",g,--,--,0.000,0.000
"Cholesterol",mg,--,--,15,54
Amino Acids
Other
Ingredients
"ORGANIC PASTEURIZED PART-SKIM MILK, CHEESE CULTURES, SALT AND MICROBIAL ENZYMES. POWDERED CELLULOSE ADDED TO PREVENT CAKING." Date available: 10/19/2017 Date last updated by company: 10/19/2017
