Source: USDA Branded Food Products Database Release December 2017 Software v.3.8.6.4 2017-10-02
Report Run at: December 18, 2017 07:23 EST
"Nutrient data for: 45042245, ORGANIC WHEAT NOODLES, BROWN RICE UDON, UPC: 650748777360"
Food Group:  Branded Food Products Database
Common Name:

Nutrient,Unit,Data points,Std. Error,"2.0 ONZ = 56.0g",1Value per 100 g,
Proximates
"Energy",kcal,--,--,188,336
"Protein",g,--,--,7.30,13.04
"Total lipid (fat)",g,--,--,1.00,1.79
"Carbohydrate, by difference",g,--,--,38.00,67.86
"Fiber, total dietary",g,--,--,2.4,4.3
"Sugars, total",g,--,--,0.80,1.43
Minerals
"Calcium, Ca",mg,--,--,15,27
"Iron, Fe",mg,--,--,1.94,3.47
"Sodium, Na",mg,--,--,1,1
Vitamins
"Vitamin C, total ascorbic acid",mg,--,--,0.0,0.0
"Vitamin A, IU",IU,--,--,0,0
Lipids
"Fatty acids, total saturated",g,--,--,0.000,0.000
"Fatty acids, total trans",g,--,--,0.000,0.000
"Cholesterol",mg,--,--,0,0
Amino Acids
Other
Ingredients
"ORGANIC SIFTED WHEAT FLOUR (60%), ORGANIC BROWN RICE FLOUR (38%). SEA SALT" Date available: 06/24/2017 Date last updated by company: 06/24/2017
