Source: USDA Branded Food Products Database Release December 2017 Software v.3.8.6.4 2017-10-02
Report Run at: December 18, 2017 07:31 EST
"Nutrient data for: 45198464, ORGANIC WHOLE WHEAT CIABATTA ROLLS, UPC: 077890381601"
Food Group:  Branded Food Products Database
Common Name:

Nutrient,Unit,Data points,Std. Error,"1 ROLL = 78.0g",1Value per 100 g,
Proximates
"Energy",kcal,--,--,210,269
"Protein",g,--,--,8.00,10.26
"Total lipid (fat)",g,--,--,1.00,1.28
"Carbohydrate, by difference",g,--,--,40.00,51.28
"Fiber, total dietary",g,--,--,6.0,7.7
"Sugars, total",g,--,--,6.00,7.69
Minerals
"Calcium, Ca",mg,--,--,0,0
"Iron, Fe",mg,--,--,0.46,0.59
"Sodium, Na",mg,--,--,370,474
Vitamins
"Vitamin C, total ascorbic acid",mg,--,--,0.0,0.0
"Vitamin A, IU",IU,--,--,0,0
Lipids
"Fatty acids, total saturated",g,--,--,0.000,0.000
"Fatty acids, total trans",g,--,--,0.000,0.000
"Cholesterol",mg,--,--,0,0
Amino Acids
Other
Ingredients
"ORGANIC WHOLE WHEAT FLOUR, WATER, ORGANIC HONEY, CONTAINS 2% OR LESS OF: ORGANIC VITAL WHEAT GLUTEN, ORGANIC CANOLA OIL, YEAST, SEA SALT, ENZYMES (CALCIUM SULFATE, ENZYMES)." Date available: 07/14/2017 Date last updated by company: 07/14/2017
