Source: USDA Branded Food Products Database Release December 2017 Software v.3.8.6.4 2017-10-02
Report Run at: December 18, 2017 05:00 EST
"Nutrient data for: 45197141, ORGANIC GOJI WHOLESOME SNACK BAR, UPC: 059527312103"
Food Group:  Branded Food Products Database
Common Name:

Nutrient,Unit,Data points,Std. Error,"1 BAR = 40.0g",1Value per 100 g,
Proximates
"Energy",kcal,--,--,190,475
"Protein",g,--,--,7.00,17.50
"Total lipid (fat)",g,--,--,11.00,27.50
"Carbohydrate, by difference",g,--,--,19.00,47.50
"Fiber, total dietary",g,--,--,3.0,7.5
"Sugars, total",g,--,--,11.00,27.50
Minerals
"Calcium, Ca",mg,--,--,20,50
"Iron, Fe",mg,--,--,1.08,2.70
"Potassium, K",mg,--,--,290,725
"Sodium, Na",mg,--,--,10,25
Vitamins
"Vitamin C, total ascorbic acid",mg,--,--,0.0,0.0
"Vitamin A, IU",IU,--,--,0,0
Lipids
"Fatty acids, total saturated",g,--,--,1.500,3.750
"Fatty acids, total trans",g,--,--,0.000,0.000
"Cholesterol",mg,--,--,0,0
Amino Acids
Other
Ingredients
"RAISINS* (RAISINS*, SUNFLOWER OIL*), ROASTED PEANUTS*, AGAVE SYRUP*, SUNFLOWER SEEDS*, CASHEWS*, GOJI BERRY*, FLAXSEEDS*, BROWN RICE SYRUP*, ALMONDS*, PUMPKIN SEED*, SUNFLOWER OIL BLEND* [SUNFLOWER OIL*, ANTIOXIDANTS (MIXED TOCOPHEROLS, ROSEMARY EXTRACT*)], POMEGRANATE JUICE CONCENTRATE*, FREEZE-DRIED RASPBERRY GRITS*, AGAR." Date available: 07/14/2017 Date last updated by company: 07/14/2017
