Source: USDA Branded Food Products Database Release December 2017 Software v.3.8.6.4 2017-10-02
Report Run at: December 18, 2017 04:15 EST
"Nutrient data for: 45288419, ORGANIC CHOPPED COMPLETE SALAD KIT, UPC: 077745249407"
Food Group:  Branded Food Products Database
Common Name:

Nutrient,Unit,Data points,Std. Error,"2.0 cup = 100.0g",1Value per 100 g,
Proximates
"Energy",kcal,--,--,120,120
"Protein",g,--,--,3.00,3.00
"Total lipid (fat)",g,--,--,9.00,9.00
"Carbohydrate, by difference",g,--,--,8.00,8.00
"Fiber, total dietary",g,--,--,2.0,2.0
"Sugars, total",g,--,--,3.00,3.00
Minerals
"Calcium, Ca",mg,--,--,60,60
"Iron, Fe",mg,--,--,0.72,0.72
"Sodium, Na",mg,--,--,240,240
Vitamins
"Vitamin C, total ascorbic acid",mg,--,--,12.0,12.0
"Vitamin A, IU",IU,--,--,5500,5500
Lipids
"Fatty acids, total saturated",g,--,--,2.000,2.000
"Fatty acids, total trans",g,--,--,0.000,0.000
"Cholesterol",mg,--,--,10,10
Amino Acids
Other
Ingredients
"ORGANIC VEGETABLE BLEND (ORGANIC ROMAINE, ORGANIC GREEN AND RED CABBAGE, ORGANIC CARROTS, INGREDIENTS MAY VARY BY SEASON), ORGANIC SOUTHWEST RANCH DRESSING (WATER, ORGANIC EXPELLER PRESSED SOY OIL, ORGANIC SOUR CREAM [ORGANIC CULTURED PASTEURIZED NONFAT MILK AND CREAM, ORGANIC NONFAT DRY MILK], ORGANIC WHITE WINE VINEGAR, ORGANIC CILANTRO, ORGANIC CANE SUGAR, ORGANIC SAUTEED ONION, ORGANIC EGG YOLK, NATURAL FLAVORS, SALT, ORGANIC CORNSTARCH, ORGANIC GARLIC, ORGANIC LEMON JUICE CONCENTRATE, ORGANIC SPICES [MUSTARD], ORGANIC JALAPENO PEPPER, ORGANIC GARLIC POWDER, XANTHAN GUM, LACTIC ACID, ORGANIC DEHYDRATED RED BELL PEPPER, ORGANIC DEHYDRATED CILANTRO), ORGANIC TORTILLA STRIPS (ORGANIC STONE GROUND YELLOW CORN, ORGANIC STONE GROUND BLUE CORN, ORGANIC SUNFLOWER OIL OR ORGANIC SAFFLOWER OIL, SEA SALT, WATER, TRACE OF LIME), ORGANIC MONTEREY JACK CHEESE (PASTEURIZED ORGANIC MILK, CHEESE CULTURE, SALT, ENZYMES, POWDERED CELLULOSE [TO PREVENT CAKING])." Date available: 10/13/2017 Date last updated by company: 10/13/2017
