Source: USDA Branded Food Products Database Release December 2017 Software v.3.8.6.4 2017-10-02
Report Run at: December 18, 2017 06:47 EST
"Nutrient data for: 45230343, ORGANIC SRIRACHA HOT CHILI SAUCE, UPC: 688267178429"
Food Group:  Branded Food Products Database
Common Name:

Nutrient,Unit,Data points,Std. Error,"1 tsp = 5.0g",1Value per 100 g,
Proximates
"Energy",kcal,--,--,0,0
"Protein",g,--,--,0.00,0.00
"Total lipid (fat)",g,--,--,0.00,0.00
"Carbohydrate, by difference",g,--,--,1.00,20.00
"Sugars, total",g,--,--,1.00,20.00
Minerals
"Calcium, Ca",mg,--,--,1,20
"Potassium, K",mg,--,--,5,100
"Sodium, Na",mg,--,--,55,1100
Vitamins
Lipids
Amino Acids
Other
Ingredients
"ORGANIC RED JALAPENO PEPPER PUREE, WATER, ORGANIC RED BELL PEPPER PUREE, ORGANIC CANE SUGAR, ORGANIC WHITE VINEGAR, ORGANIC GARLIC PUREE, SALT, ORGANIC GARLIC, ORGANIC HABANERO PEPPER POWDER, XANTHAN GUM." Date available: 07/14/2017 Date last updated by company: 07/14/2017
