Source: USDA Branded Food Products Database Release December 2017 Software v.3.8.6.4 2017-10-02
Report Run at: December 18, 2017 05:22 EST
"Nutrient data for: 45290870, ORGANIC JUICE, UPC: 031200021625"
Food Group:  Branded Food Products Database
Common Name:

Nutrient,Unit,Data points,Std. Error,"1 CUP = 240.0g",1Value per 100 g,
Proximates
"Energy",kcal,--,--,130,54
"Protein",g,--,--,0.00,0.00
"Total lipid (fat)",g,--,--,0.00,0.00
"Carbohydrate, by difference",g,--,--,34.01,14.17
"Sugars, total",g,--,--,31.99,13.33
Minerals
"Calcium, Ca",mg,--,--,19,8
"Iron, Fe",mg,--,--,0.72,0.30
"Potassium, K",mg,--,--,230,96
"Sodium, Na",mg,--,--,19,8
Vitamins
"Vitamin C, total ascorbic acid",mg,--,--,60.0,25.0
"Vitamin A, IU",IU,--,--,101,42
Lipids
Amino Acids
Other
Ingredients
"ORGANIC GRAPE JUICE (WATER, ORGANIC GRAPE JUICE CONCENTRATE), ORGANIC APPLE JUICE (WATER, ORGANIC APPLE JUICE CONCENTRATE), ORGANIC CRANBERRY JUICE (WATER, ORGANIC CRANBERRY JUICE CONCENTRATE), ORGANIC BLUEBERRY JUICE (WATER, ORGANIC BLUEBERRY JUICE CONCENTRATE), NATURAL FLAVOR, ASCORBIC ACID (VITAMIN C), MALIC ACID." Date available: 05/17/2017 Date last updated by company: 05/17/2017
