Source: USDA Branded Food Products Database Release December 2017 Software v.3.8.6.4 2017-10-02
Report Run at: December 18, 2017 06:06 EST
"Nutrient data for: 45178743, ORGANIC PREMIUM SEASONED CROUTONS, UPC: 711535507086"
Food Group:  Branded Food Products Database
Common Name:

Nutrient,Unit,Data points,Std. Error,"2.0 Tbsp = 7.0g",1Value per 100 g,
Proximates
"Energy",kcal,--,--,30,429
"Protein",g,--,--,1.00,14.29
"Total lipid (fat)",g,--,--,1.00,14.29
"Carbohydrate, by difference",g,--,--,4.00,57.14
"Fiber, total dietary",g,--,--,0.0,0.0
"Sugars, total",g,--,--,0.00,0.00
Minerals
"Calcium, Ca",mg,--,--,2,29
"Iron, Fe",mg,--,--,0.00,0.00
"Potassium, K",mg,--,--,12,171
"Sodium, Na",mg,--,--,70,1000
Vitamins
"Vitamin D",IU,--,--,0,0
Lipids
"Fatty acids, total saturated",g,--,--,0.000,0.000
"Fatty acids, total monounsaturated",g,--,--,1.000,14.290
"Fatty acids, total polyunsaturated",g,--,--,0.000,0.000
"Fatty acids, total trans",g,--,--,0.000,0.000
"Cholesterol",mg,--,--,0,0
Amino Acids
Other
Ingredients
"ORGANIC WHEAT FLOUR, ORGANIC SUNFLOWER AND/OR ORGANIC SAFFLOWER OIL, ORGANIC CRACKED RYE, ORGANIC CRACKED WHEAT, YEAST, 2% OR LESS OF SALT, ORGANIC WHEAT GLUTEN, ORGANIC GARLIC POWDER, ORGANIC SUGAR, ORGANIC ONION POWDER, ORGANIC DEHYDRATED PARSLEY." Date available: 10/13/2017 Date last updated by company: 10/13/2017
