Source: USDA Branded Food Products Database Release December 2017 Software v.3.8.6.4 2017-10-02
Report Run at: December 18, 2017 06:57 EST
"Nutrient data for: 45106363, ORGANIC TEA, UPC: 680692105025"
Food Group:  Branded Food Products Database
Common Name:

Nutrient,Unit,Data points,Std. Error,"1 TEABAG, MAKES 8 FL OZ PREPARED = 3.35g",1Value per 100 g,
Proximates
"Energy",kcal,--,--,5,149
"Protein",g,--,--,0.00,0.00
"Total lipid (fat)",g,--,--,0.50,14.93
"Carbohydrate, by difference",g,--,--,0.00,0.00
Minerals
"Calcium, Ca",mg,--,--,0,0
"Iron, Fe",mg,--,--,0.00,0.00
"Sodium, Na",mg,--,--,0,0
Vitamins
"Vitamin C, total ascorbic acid",mg,--,--,53.7,1603.9
"Vitamin A, IU",IU,--,--,1492,44552
Lipids
"Cholesterol",mg,--,--,0,0
Amino Acids
Other
Ingredients
"FAIR TRADE CERTIFIED ORGANIC CACAO POWDER, FAIR TRADE CERTIFIED ORGANIC ASSAM BLACK TEA, ORGANIC ORANGE PEEL, ORGANIC VANILLA BEANS, ORGANIC BERGAMOT OIL." Date available: 07/14/2017 Date last updated by company: 07/14/2017
