Source: USDA Branded Food Products Database Release December 2017 Software v.3.8.6.4 2017-10-02
Report Run at: December 18, 2017 04:57 EST
"Nutrient data for: 45078319, ORGANIC GARBANZO BEAN, UPC: 074873253207"
Food Group:  Branded Food Products Database
Common Name:

Nutrient,Unit,Data points,Std. Error,"0.5 cup = 130.0g",1Value per 100 g,
Proximates
"Energy",kcal,--,--,110,85
"Protein",g,--,--,6.01,4.62
"Total lipid (fat)",g,--,--,2.00,1.54
"Carbohydrate, by difference",g,--,--,19.99,15.38
"Fiber, total dietary",g,--,--,6.0,4.6
"Sugars, total",g,--,--,4.00,3.08
Minerals
"Calcium, Ca",mg,--,--,40,31
"Iron, Fe",mg,--,--,1.79,1.38
"Sodium, Na",mg,--,--,125,96
Vitamins
"Vitamin C, total ascorbic acid",mg,--,--,0.0,0.0
"Vitamin A, IU",IU,--,--,0,0
Lipids
"Fatty acids, total saturated",g,--,--,0.000,0.000
"Fatty acids, total trans",g,--,--,0.000,0.000
"Cholesterol",mg,--,--,0,0
Amino Acids
Other
Ingredients
"WATER, ORGANIC GARBANZO BEANS, SEA SALT." Date available: 07/14/2017 Date last updated by company: 07/14/2017
