Source: USDA Branded Food Products Database Release December 2017 Software v.3.8.6.4 2017-10-02
Report Run at: December 18, 2017 05:23 EST
"Nutrient data for: 45077595, ORGANIC KALE SALAD, UPC: 829101001439"
Food Group:  Branded Food Products Database
Common Name:

Nutrient,Unit,Data points,Std. Error,"1 cup = 56.0g",1Value per 100 g,
Proximates
"Energy",kcal,--,--,29,52
"Protein",g,--,--,2.00,3.57
"Total lipid (fat)",g,--,--,0.00,0.00
"Carbohydrate, by difference",g,--,--,6.00,10.71
"Fiber, total dietary",g,--,--,2.0,3.6
"Sugars, total",g,--,--,2.00,3.57
Minerals
"Calcium, Ca",mg,--,--,60,107
"Iron, Fe",mg,--,--,1.28,2.29
"Sodium, Na",mg,--,--,30,54
Vitamins
"Vitamin C, total ascorbic acid",mg,--,--,65.4,116.7
"Vitamin A, IU",IU,--,--,18215,32526
Lipids
"Fatty acids, total saturated",g,--,--,0.000,0.000
"Fatty acids, total trans",g,--,--,0.000,0.000
"Cholesterol",mg,--,--,0,0
Amino Acids
Other
Ingredients
"ORGANIC KALE, ORGANIC RED CABBAGE & ORGANIC CARROTS." Date available: 10/12/2017 Date last updated by company: 10/12/2017
