Source: USDA Branded Food Products Database Release December 2017 Software v.3.8.6.4 2017-10-02
Report Run at: December 18, 2017 04:52 EST
"Nutrient data for: 45216651, ORGANIC FRUIT BARS, UPC: 037295003669"
Food Group:  Branded Food Products Database
Common Name:

Nutrient,Unit,Data points,Std. Error,"1 BAR = 71.0g",1Value per 100 g,
Proximates
"Energy",kcal,--,--,60,85
"Protein",g,--,--,1.00,1.41
"Total lipid (fat)",g,--,--,0.00,0.00
"Carbohydrate, by difference",g,--,--,15.00,21.13
"Fiber, total dietary",g,--,--,0.0,0.0
"Sugars, total",g,--,--,12.00,16.90
Minerals
"Calcium, Ca",mg,--,--,0,0
"Iron, Fe",mg,--,--,0.00,0.00
"Sodium, Na",mg,--,--,0,0
Vitamins
"Vitamin C, total ascorbic acid",mg,--,--,0.0,0.0
"Vitamin A, IU",IU,--,--,0,0
Lipids
"Fatty acids, total saturated",g,--,--,0.000,0.000
"Fatty acids, total trans",g,--,--,0.000,0.000
"Cholesterol",mg,--,--,0,0
Amino Acids
Other
Ingredients
"FILTERED WATER, ORGANIC STRAWBERRIES, ORGANIC STRAWBERRY PUREE, ORGANIC SUGAR, CITRIC ACID TO PROMOTE COLOR RETENTION, ORGANIC GUAR GUM, XANTHAN GUM." Date available: 07/15/2017 Date last updated by company: 07/15/2017
