Source: USDA Branded Food Products Database Release December 2017 Software v.3.8.6.4 2017-10-02
Report Run at: December 18, 2017 06:25 EST
"Nutrient data for: 45285963, ORGANIC ROSEMARY FLATBREAD CRACKERS WITH SEA SALT, UPC: 079893115610"
Food Group:  Branded Food Products Database
Common Name:

Nutrient,Unit,Data points,Std. Error,"1.5 FLATBREADS = 14.0g",1Value per 100 g,
Proximates
"Energy",kcal,--,--,60,429
"Protein",g,--,--,1.00,7.14
"Total lipid (fat)",g,--,--,1.00,7.14
"Carbohydrate, by difference",g,--,--,11.00,78.57
"Fiber, total dietary",g,--,--,1.0,7.1
"Sugars, total",g,--,--,1.00,7.14
Minerals
"Calcium, Ca",mg,--,--,0,0
"Iron, Fe",mg,--,--,0.00,0.00
"Sodium, Na",mg,--,--,100,714
Vitamins
"Vitamin C, total ascorbic acid",mg,--,--,0.0,0.0
"Vitamin A, IU",IU,--,--,0,0
Lipids
"Fatty acids, total saturated",g,--,--,0.000,0.000
"Fatty acids, total trans",g,--,--,0.000,0.000
"Cholesterol",mg,--,--,0,0
Amino Acids
Other
Ingredients
"ORGANIC UNBLEACHED WHEAT FLOUR, ORGANIC EXPELLER PRESSED CANOLA OIL, ORGANIC GRAIN MIX (ORGANIC CRACKED WHEAT, ORGANIC SPELT, ORGANIC RYE, ORGANIC BARLEY, ORGANIC TRITICALE, ORGANIC OATS, ORGANIC FLAX), ORGANIC SESAME SEEDS, ORGANIC SUGAR, ORGANIC ROSEMARY, ORGANIC DEHYDRATED MINCED ONION, SEA SALT, ORGANIC YEAST." Date available: 09/29/2017 Date last updated by company: 09/29/2017
