Source: USDA Branded Food Products Database Release December 2017 Software v.3.8.6.4 2017-10-02
Report Run at: December 18, 2017 07:33 EST
"Nutrient data for: 45198395, ORGANIC WHOLE WHEAT TORTILLAS, UPC: 727888402060"
Food Group:  Branded Food Products Database
Common Name:

Nutrient,Unit,Data points,Std. Error,"1 TORTILLA = 68.0g",1Value per 100 g,
Proximates
"Energy",kcal,--,--,210,309
"Protein",g,--,--,5.00,7.35
"Total lipid (fat)",g,--,--,6.00,8.82
"Carbohydrate, by difference",g,--,--,34.00,50.00
"Fiber, total dietary",g,--,--,6.0,8.8
"Sugars, total",g,--,--,1.00,1.47
Minerals
"Calcium, Ca",mg,--,--,80,118
"Iron, Fe",mg,--,--,1.16,1.71
"Sodium, Na",mg,--,--,470,691
Vitamins
"Vitamin C, total ascorbic acid",mg,--,--,0.0,0.0
"Vitamin A, IU",IU,--,--,0,0
Lipids
"Fatty acids, total saturated",g,--,--,0.503,0.740
"Fatty acids, total trans",g,--,--,0.000,0.000
"Cholesterol",mg,--,--,0,0
Amino Acids
Other
Ingredients
"ORGANIC WHOLE WHEAT FLOUR, WATER, ORGANIC SAFFLOWER OIL, CONTAINS LESS THAN 2% OF EACH OF THE FOLLOWING: CREAM OF TARTAR, SEA SALT, ORGANIC CULTURED WHEAT STARCH, ORGANIC CANE SUGAR, BAKING POWDER (SODIUM ACID PYROPHOSPHATE, BAKING SODA, NON-GMO CORN STARCH, MONOCALCIUM PHOSPHATE), SUNFLOWER LECITHIN, ORGANIC WHITE DISTILLED VINEGAR, ORGANIC MALTODEXTRIN, ORGANIC GUAR GUM." Date available: 07/14/2017 Date last updated by company: 07/14/2017
