Source: USDA Branded Food Products Database Release December 2017 Software v.3.8.6.4 2017-10-02
Report Run at: December 18, 2017 05:22 EST
"Nutrient data for: 45289397, ORGANIC JUICE, UPC: 050200019173"
Food Group:  Branded Food Products Database
Common Name:

Nutrient,Unit,Data points,Std. Error,"8.0 OZA = 240.0g",1Value per 100 g,
Proximates
"Energy",kcal,--,--,50,21
"Protein",g,--,--,0.00,0.00
"Total lipid (fat)",g,--,--,0.00,0.00
"Carbohydrate, by difference",g,--,--,12.00,5.00
"Sugars, total",g,--,--,12.00,5.00
Minerals
"Sodium, Na",mg,--,--,250,104
Vitamins
"Vitamin C, total ascorbic acid",mg,--,--,60.0,25.0
"Thiamin",mg,--,--,0.000,0.000
Lipids
Amino Acids
Other
Ingredients
"CONTAINS: WATER, HIGH FRUCTOSE CORN SYRUP AND 2% OR LESS OF EACH OF THE FOLLOWING: CONCENTRATED JUICES (ORANGE, TANGERINE, APPLE, LIME, GRAPEFRUIT), CITRIC ACID, MALIC ACID, ASCORBIC ACID (VITAMIN C), THIAMIN HYDROCHLORIDE (VITAMIN B1), NATURAL FLAVORS, MODIFIED CORNSTARCH, CANOLA OIL, SODIUM CITRATE, CELLULOSE GUM, SUCRALOSE, SODIUM HEXAMETAPHOSPHATE, POTASSIUM SORBATE TO PROTECT FLAVOR, YELLOW #5, YELLOW #6." Date available: 07/14/2017 Date last updated by company: 07/14/2017
