Source: USDA Branded Food Products Database Release December 2017 Software v.3.8.6.4 2017-10-02
Report Run at: December 18, 2017 04:12 EST
"Nutrient data for: 45232291, ORGANIC CHICKEN TENDERS, UPC: 024105510059"
Food Group:  Branded Food Products Database
Common Name:

Nutrient,Unit,Data points,Std. Error,"4.0 ONZ = 112.0g",1Value per 100 g,
Proximates
"Energy",kcal,--,--,110,98
"Protein",g,--,--,26.00,23.21
"Total lipid (fat)",g,--,--,1.00,0.89
"Carbohydrate, by difference",g,--,--,0.00,0.00
Minerals
"Iron, Fe",mg,--,--,0.82,0.73
"Sodium, Na",mg,--,--,60,54
Vitamins
Lipids
"Fatty acids, total trans",g,--,--,0.000,0.000
"Cholesterol",mg,--,--,65,58
Amino Acids
Other
Ingredients
"ALL NATURAL* ORGANIC CHICKEN BREAST TENDERS." Date available: 10/17/2017 Date last updated by company: 10/17/2017
