Source: USDA Branded Food Products Database Release December 2017 Software v.3.8.6.4 2017-10-02
Report Run at: December 18, 2017 07:56 EST
"Nutrient data for: 45237793, ORIGINAL HORCHATA, UPC: 053859085766"
Food Group:  Branded Food Products Database
Common Name:

Nutrient,Unit,Data points,Std. Error,"8.0 OZA = 240.0g",1Value per 100 g,
Proximates
"Energy",kcal,--,--,139,58
"Protein",g,--,--,3.00,1.25
"Total lipid (fat)",g,--,--,3.00,1.25
"Carbohydrate, by difference",g,--,--,25.99,10.83
"Fiber, total dietary",g,--,--,0.0,0.0
"Sugars, total",g,--,--,24.00,10.00
Minerals
"Calcium, Ca",mg,--,--,101,42
"Iron, Fe",mg,--,--,0.00,0.00
"Potassium, K",mg,--,--,130,54
"Sodium, Na",mg,--,--,46,19
Vitamins
"Vitamin C, total ascorbic acid",mg,--,--,0.0,0.0
"Vitamin A, IU",IU,--,--,300,125
Lipids
"Fatty acids, total saturated",g,--,--,1.992,0.830
"Fatty acids, total trans",g,--,--,0.000,0.000
"Cholesterol",mg,--,--,10,4
Amino Acids
Other
Ingredients
"WATER, MILK, HIGH FRUCTOSE CORN SYRUP, SUGAR, RICE FLOUR, NATURAL AND ARTIFICIAL FLAVORS, CINNAMON, BETA CAROTENE COLOR." Date available: 07/14/2017 Date last updated by company: 07/14/2017
