Source: USDA Branded Food Products Database Release December 2017 Software v.3.8.6.4 2017-10-02
Report Run at: December 18, 2017 07:59 EST
"Nutrient data for: 45263047, ORIGINAL LOW FAT YOGURT, UPC: 070470492636"
Food Group:  Branded Food Products Database
Common Name:

Nutrient,Unit,Data points,Std. Error,"1 CONTAINER = 170.0g",1Value per 100 g,
Proximates
"Energy",kcal,--,--,150,88
"Protein",g,--,--,6.00,3.53
"Total lipid (fat)",g,--,--,2.01,1.18
"Carbohydrate, by difference",g,--,--,25.01,14.71
"Sugars, total",g,--,--,18.00,10.59
Minerals
"Phosphorus, P",mg,--,--,150,88
"Sodium, Na",mg,--,--,95,56
Vitamins
"Vitamin C, total ascorbic acid",mg,--,--,12.1,7.1
"Vitamin A, IU",IU,--,--,750,441
"Vitamin D",IU,--,--,80,47
Lipids
"Fatty acids, total saturated",g,--,--,1.003,0.590
"Fatty acids, total trans",g,--,--,0.000,0.000
"Cholesterol",mg,--,--,10,6
Amino Acids
Other
Ingredients
"FRENCH VANILLA INGREDIENTS: PASTEURIZED GRADE A REDUCED FAT MILK, SUGAR, MODIFIED CORN STARCH, KOSHER GELATIN, NATURAL FLAVOR, YOGURT CULTURES (L. BULGARICUS, S. THERMOPHILUS, L. ACIDOPHILUS), VITAMIN A ACETATE, VITAMIN D3. CINNAMON ROLL INGREDIENTS: PASTEURIZED GRADE A REDUCED FAT MILK, SUGAR, MODIFIED CORN STARCH, KOSHER GELATIN, NATURAL FLAVOR, CINNAMON, CITRIC ACID, YOGURT CULTURES (L. BULGARICUS, S. THERMOPHILUS, L. ACIDOPHILUS), VITAMIN A ACETATE, VITAMIN D3." Date available: 12/31/2016 Date last updated by company: 12/31/2016
