Source: USDA Branded Food Products Database Release December 2017 Software v.3.8.6.4 2017-10-02
Report Run at: December 18, 2017 07:49 EST
"Nutrient data for: 45253814, ORIGINAL CRAB SPREAD, UPC: 01121303204"
Food Group:  Branded Food Products Database
Common Name:

Nutrient,Unit,Data points,Std. Error,"2.0 Tbsp = 28.0g",1Value per 100 g,
Proximates
"Energy",kcal,--,--,60,214
"Protein",g,--,--,2.00,7.14
"Total lipid (fat)",g,--,--,4.50,16.07
"Carbohydrate, by difference",g,--,--,4.00,14.29
"Fiber, total dietary",g,--,--,0.0,0.0
"Sugars, total",g,--,--,1.00,3.57
Minerals
"Calcium, Ca",mg,--,--,0,0
"Iron, Fe",mg,--,--,0.61,2.17
"Sodium, Na",mg,--,--,190,679
Vitamins
"Vitamin C, total ascorbic acid",mg,--,--,0.0,0.0
"Vitamin A, IU",IU,--,--,0,0
Lipids
"Fatty acids, total saturated",g,--,--,1.999,7.140
"Fatty acids, total trans",g,--,--,0.000,0.000
"Cholesterol",mg,--,--,10,36
Amino Acids
Other
Ingredients
"IMITATION CRAB (POLLOCK, WHITING AND/OR ARROW TOOTH FLOUNDER, WATER, WHEAT STARCH, SUGAR, EGG WHITES, CORN STARCH, SORBITOL, CONTAINS 2% OR LESS OF: SALT, MODIFIED FOOD STARCH, NATURAL AND ARTIFICIAL FLAVORS, SOYBEAN OIL, SODIUM TRIPOLYPHOSPHATE, TETRASODIUM PYROPHOSPHATE, PAPRIKA OLEORESIN, CARMINE, CORN SYRUP, SOY LECITHIN, COLOR ADDED), CREAM CHEESE (PASTEURIZED MILK AND CREAM, CHEESE CULTURE, SALT, STABILIZERS [CAROB BEAN, XANTHAN, GUAR GUM]), MAYONNAISE (SOYBEAN OIL, CORN SYRUP, WATER, EGG YOLKS, DISTILLED AND CIDER VINEGARS, SALT, SPICES, CALCIUM DISODIUM EDTA ADDED TO PROTECT FLAVOR), WATER, CHABLIS WINE (WINE, SALT, POTASSIUM SORBATE, POTASSIUM METABISULFITE), LEMON JUICE (WATER, LEMON JUICE, SODIUM BISULFATE, SODIUM BENZOATE, LEMON OIL), SUGAR, ONION, MUSTARD, SEASONING SALT (SALT, SPICES, PAPRIKA, SUGAR, ONION, GARLIC, TRICALCIUM PHOSPHATE), GARLIC AND POTASSIUM SORBATE, XANTHAN GUM." Date available: 07/14/2017 Date last updated by company: 07/14/2017
