Source: USDA Branded Food Products Database Release December 2017 Software v.3.8.6.4 2017-10-02
Report Run at: December 18, 2017 08:03 EST
"Nutrient data for: 45323562, ORIGINAL PEANUTS, UPC: 070842000087"
Food Group:  Branded Food Products Database
Common Name:

Nutrient,Unit,Data points,Std. Error,"1 ONZ = 28.0g",1Value per 100 g,
Proximates
"Energy",kcal,--,--,160,571
"Protein",g,--,--,7.00,25.00
"Total lipid (fat)",g,--,--,10.00,35.71
"Carbohydrate, by difference",g,--,--,9.00,32.14
"Fiber, total dietary",g,--,--,2.0,7.1
"Sugars, total",g,--,--,1.00,3.57
Minerals
"Calcium, Ca",mg,--,--,16,57
"Iron, Fe",mg,--,--,1.00,3.57
"Potassium, K",mg,--,--,185,661
"Sodium, Na",mg,--,--,110,393
Vitamins
"Vitamin D",IU,--,--,0,0
Lipids
"Fatty acids, total saturated",g,--,--,2.500,8.930
"Fatty acids, total trans",g,--,--,0.000,0.000
"Cholesterol",mg,--,--,0,0
Amino Acids
Other
Ingredients
"PEANUTS, COCONUT OIL, CORN SYRUP AND SALT." Date available: 09/25/2017 Date last updated by company: 09/25/2017
