Source: USDA Branded Food Products Database Release December 2017 Software v.3.8.6.4 2017-10-02
Report Run at: December 18, 2017 08:09 EST
"Nutrient data for: 45204295, ORIGINAL SALSA, UPC: 865633000014"
Food Group:  Branded Food Products Database
Common Name:

Nutrient,Unit,Data points,Std. Error,"2.0 Tbsp = 28.0g",1Value per 100 g,
Proximates
"Energy",kcal,--,--,10,36
"Protein",g,--,--,0.00,0.00
"Total lipid (fat)",g,--,--,0.00,0.00
"Carbohydrate, by difference",g,--,--,2.00,7.14
"Sugars, total",g,--,--,1.00,3.57
Minerals
"Sodium, Na",mg,--,--,75,268
Vitamins
"Vitamin C, total ascorbic acid",mg,--,--,6.4,22.9
"Vitamin A, IU",IU,--,--,357,1275
Lipids
Amino Acids
Other
Ingredients
"PEELED TOMATOES (VINE-RIPENED FRESH TOMATOES, SALT, CALCIUM CHLORIDE AND NATURALLY DERIVED CITRIC ACID), ONIONS, GREEN CHILE PEPPERS (GREEN CHILE PEPPERS, WATER, SALT AND CITRIC ACID), PICKLED JALAPENO PEPPERS (JALAPENO PEPPERS, VINEGAR, IODIZED SALT), VINEGAR, CILANTRO, JALAPENO CHILE PEPPER, SERRANO CHILE PEPPER, SPICES." Date available: 07/14/2017 Date last updated by company: 07/14/2017
