Source: USDA Branded Food Products Database Release December 2017 Software v.3.8.6.4 2017-10-02
Report Run at: December 18, 2017 07:42 EST
"Nutrient data for: 45265791, ORIGINAL BBQ SAUCE, UPC: 040232178641"
Food Group:  Branded Food Products Database
Common Name:

Nutrient,Unit,Data points,Std. Error,"2.0 Tbsp = 30.0g",1Value per 100 g,
Proximates
"Energy",kcal,--,--,50,167
"Protein",g,--,--,0.00,0.00
"Total lipid (fat)",g,--,--,1.00,3.33
"Carbohydrate, by difference",g,--,--,10.00,33.33
"Fiber, total dietary",g,--,--,0.0,0.0
"Sugars, total",g,--,--,9.00,30.00
Minerals
"Calcium, Ca",mg,--,--,6,20
"Iron, Fe",mg,--,--,0.61,2.03
"Potassium, K",mg,--,--,20,67
"Sodium, Na",mg,--,--,160,533
Vitamins
"Vitamin D",IU,--,--,0,0
Lipids
"Fatty acids, total saturated",g,--,--,0.675,2.250
"Fatty acids, total trans",g,--,--,0.000,0.000
"Cholesterol",mg,--,--,5,17
Amino Acids
Other
Ingredients
"KETCHUP (TOMATO CONCENTRATE FROM RED RIPE TOMATOES, DISTILLED VINEGAR, HIGH FRUCTOSE CORN SYRUP, CORN SYRUP, SALT, SPICE, ONION POWDER, NATURAL FLAVORING), TOMATO SAUCE, APPLE CIDER VINEGAR, BROWN SUGAR, MOLASSES, SUGAR, FRESH YELLOW ONION, BUTTER (PASTEURIZED CREAM, NATURAL FLAVORINGS), WORCESTERSHIRE SAUCE (DISTILLED WHITE VINEGAR, MOLASSES, CORN SYRUP, WATER, SALT, CARAMEL COLOR, GARLIC POWDER, SUGAR, SPICES, TAMARIND, NATURAL FLAVORS, SULFITING AGENT), JALAPENO RED PUREE (RED JALAPENO PEPPERS, SALT AND ACETIC ACID), YELLOW MUSTARD (DISTILLED VINEGAR, WATER, MUSTARD SEED, SALT, TURMERIC, PAPRIKA, SPICE, GARLIC POWDER), WATER, DARK CHILI POWDER (CHILI PEPPER, SPICES, SALT, SILICON DIOXIDE [TO PREVENT CAKING], GARLIC), FRESH GARLIC, CONTAINS 2% OR LESS OF: GRANULATED GARLIC, DISTILLED WHITE VINEGAR, POTASSIUM SORBATE, SODIUM BISULFITE, XANTHAN GUM." Date available: 09/28/2017 Date last updated by company: 09/28/2017
