Source: USDA Branded Food Products Database Release December 2017 Software v.3.8.6.4 2017-10-02
Report Run at: December 18, 2017 08:06 EST
"Nutrient data for: 45290372, ORIGINAL POTATO CRISPS, UPC: 028400047012"
Food Group:  Branded Food Products Database
Common Name:

Nutrient,Unit,Data points,Std. Error,"1 PACKAGE = 24.8g",1Value per 100 g,
Proximates
"Energy",kcal,--,--,110,444
"Protein",g,--,--,2.00,8.06
"Total lipid (fat)",g,--,--,3.00,12.10
"Carbohydrate, by difference",g,--,--,19.00,76.61
"Fiber, total dietary",g,--,--,1.0,4.0
"Sugars, total",g,--,--,2.00,8.06
Minerals
"Calcium, Ca",mg,--,--,5,20
"Iron, Fe",mg,--,--,0.00,0.00
"Potassium, K",mg,--,--,197,794
"Sodium, Na",mg,--,--,140,565
Vitamins
Lipids
"Fatty acids, total saturated",g,--,--,0.399,1.610
"Fatty acids, total monounsaturated",g,--,--,0.999,4.030
"Fatty acids, total polyunsaturated",g,--,--,1.500,6.050
"Fatty acids, total trans",g,--,--,0.000,0.000
"Cholesterol",mg,--,--,0,0
Amino Acids
Other
Ingredients
"DRIED POTATOES, CORN STARCH, CORN OIL, SUGAR, SEA SALT, SOY LECITHIN, DEXTROSE, AND ANNATTO EXTRACTS." Date available: 05/11/2017 Date last updated by company: 05/11/2017
