Source: USDA Branded Food Products Database Release December 2017 Software v.3.8.6.4 2017-10-02
Report Run at: December 18, 2017 07:55 EST
"Nutrient data for: 45175674, ORIGINAL GRAHAM CRACKERS, UPC: 074175004224"
Food Group:  Branded Food Products Database
Common Name:

Nutrient,Unit,Data points,Std. Error,"2.0 WHOLE CRACKERS = 31.0g",1Value per 100 g,
Proximates
"Energy",kcal,--,--,130,419
"Protein",g,--,--,2.00,6.45
"Total lipid (fat)",g,--,--,3.00,9.68
"Carbohydrate, by difference",g,--,--,24.00,77.42
"Fiber, total dietary",g,--,--,1.0,3.2
"Sugars, total",g,--,--,8.00,25.81
Minerals
"Calcium, Ca",mg,--,--,0,0
"Iron, Fe",mg,--,--,1.74,5.62
"Sodium, Na",mg,--,--,135,435
Vitamins
"Vitamin C, total ascorbic acid",mg,--,--,0.0,0.0
"Vitamin A, IU",IU,--,--,0,0
Lipids
"Fatty acids, total saturated",g,--,--,0.000,0.000
"Fatty acids, total monounsaturated",g,--,--,0.499,1.610
"Fatty acids, total polyunsaturated",g,--,--,1.500,4.840
"Fatty acids, total trans",g,--,--,0.000,0.000
"Cholesterol",mg,--,--,0,0
Amino Acids
Other
Ingredients
"ENRICHED FLOUR (WHEAT FLOUR, NIACIN, REDUCED IRON, THIAMIN MONONITRATE [VITAMIN B1], RIBOFLAVIN [VITAMIN B2], FOLIC ACID), GRAHAM FLOUR (WHOLE GRAIN WHEAT FLOUR), SUGAR, CANOLA AND/OR SOYBEAN AND/OR PALM OIL, HONEY, CONTAINS 2% OR LESS OF: SALT, BAKING SODA, SOY LECITHIN, CALCIUM PHOSPHATE (LEAVENING), ARTIFICIAL FLAVOR, SODIUM SULFITE." Date available: 07/14/2017 Date last updated by company: 07/14/2017
