Source: USDA Branded Food Products Database Release December 2017 Software v.3.8.6.4 2017-10-02
Report Run at: December 18, 2017 08:17 EST
"Nutrient data for: 45328543, ORIGINAL UNSWEETENED ALMOND BEVERAGE, UPC: 717544207214"
Food Group:  Branded Food Products Database
Common Name:

Nutrient,Unit,Data points,Std. Error,"240.0 ML = 8.0g",1Value per 100 g,
Proximates
"Energy",kcal,--,--,1,17
"Protein",g,--,--,0.03,0.42
"Total lipid (fat)",g,--,--,0.10,1.25
"Carbohydrate, by difference",g,--,--,0.07,0.83
"Fiber, total dietary",g,--,--,0.0,0.4
"Sugars, total",g,--,--,0.03,0.42
Minerals
"Calcium, Ca",mg,--,--,15,188
"Iron, Fe",mg,--,--,0.02,0.30
"Magnesium, Mg",mg,--,--,1,7
"Phosphorus, P",mg,--,--,1,17
"Potassium, K",mg,--,--,6,79
"Sodium, Na",mg,--,--,6,75
"Zinc, Zn",mg,--,--,0.01,0.12
Vitamins
"Vitamin C, total ascorbic acid",mg,--,--,0.0,0.0
"Riboflavin",mg,--,--,0.001,0.014
"Vitamin A, IU",IU,--,--,17,211
"Vitamin D",IU,--,--,3,42
Lipids
"Fatty acids, total saturated",g,--,--,0.000,0.000
"Fatty acids, total trans",g,--,--,0.000,0.000
"Cholesterol",mg,--,--,0,0
Amino Acids
Other
Ingredients
"ALMOND BEVERAGE (FILTERED WATER, ALMONDS), TRICALCIUM PHOSPHATE, SEA SALT, GELLAN GUM, DIPOTASSIUM PHOSPHATE, XANTHAN GUM, SUNFLOWER LECITHIN, VITAMIN A PALMITATE, VITAMIN D2, D-ALPHA-TOCOPHEROL (NATURAL VITAMIN E)." Date available: 10/06/2017 Date last updated by company: 10/06/2017
