Source: USDA Branded Food Products Database Release December 2017 Software v.3.8.6.4 2017-10-02
Report Run at: December 18, 2017 07:48 EST
"Nutrient data for: 45285163, ORIGINAL COCONUT MACAROON COOKIE, UPC: 739340319786"
Food Group:  Branded Food Products Database
Common Name:

Nutrient,Unit,Data points,Std. Error,"1 PIECE = 42.0g",1Value per 100 g,
Proximates
"Energy",kcal,--,--,175,417
"Protein",g,--,--,1.00,2.38
"Total lipid (fat)",g,--,--,10.00,23.81
"Carbohydrate, by difference",g,--,--,20.00,47.62
"Fiber, total dietary",g,--,--,3.0,7.1
"Sugars, total",g,--,--,13.00,30.95
Minerals
"Calcium, Ca",mg,--,--,0,0
"Iron, Fe",mg,--,--,0.64,1.53
"Sodium, Na",mg,--,--,70,167
Vitamins
"Vitamin C, total ascorbic acid",mg,--,--,0.0,0.0
"Vitamin A, IU",IU,--,--,60,142
Lipids
"Fatty acids, total saturated",g,--,--,8.001,19.050
"Fatty acids, total trans",g,--,--,0.000,0.000
"Cholesterol",mg,--,--,3,8
Amino Acids
Other
Ingredients
"COCONUT FLAKES (COCONUT, SUGAR, WATER, PROPYLENE GLYCOL, SALT, SODIUM METABISULFATE), SUGAR, RICE FLOUR, EGG WHITES, BROWN RICE SYRUP, BUTTER, COCONUT CREAM (COCONUT EXTRACTED, SODIUM CARBOXY METHYL CELLULOSE, XANTHAN GUM, WATER), KOSHER SALT, VANILLA EXTRACT." Date available: 07/14/2017 Date last updated by company: 07/14/2017
