Source: USDA Branded Food Products Database Release December 2017 Software v.3.8.6.4 2017-10-02
Report Run at: December 18, 2017 07:41 EST
"Nutrient data for: 45067384, ORIGINAL BARBECUE SAUCE, UPC: 021130480814"
Food Group:  Branded Food Products Database
Common Name:

Nutrient,Unit,Data points,Std. Error,"2.0 Tbsp = 37.0g",1Value per 100 g,
Proximates
"Energy",kcal,--,--,70,189
"Protein",g,--,--,0.00,0.00
"Total lipid (fat)",g,--,--,0.00,0.00
"Carbohydrate, by difference",g,--,--,18.00,48.65
"Fiber, total dietary",g,--,--,0.0,0.0
"Sugars, total",g,--,--,16.00,43.24
Minerals
"Calcium, Ca",mg,--,--,0,0
"Iron, Fe",mg,--,--,0.00,0.00
"Sodium, Na",mg,--,--,290,784
Vitamins
"Vitamin C, total ascorbic acid",mg,--,--,0.0,0.0
"Vitamin A, IU",IU,--,--,0,0
Lipids
"Fatty acids, total saturated",g,--,--,0.000,0.000
"Fatty acids, total trans",g,--,--,0.000,0.000
"Cholesterol",mg,--,--,0,0
Amino Acids
Other
Ingredients
"HIGH FRUCTOSE CORN SYRUP, TOMATO CONCENTRATE (TOMATO PASTE, WATER), DISTILLED VINEGAR, MODIFIED CORN STARCH, LESS THAN 2% OF: SALT, PINEAPPLE JUICE CONCENTRATE, MOLASSES, CARAMEL COLOR, SPICES, XANTHAN GUM, SMOKE FLAVOR, SODIUM BENZOATE (AS PRESERVATIVE), GARLIC POWDER, CORN SYRUP, SUGAR, TAMARIND, NATURAL FLAVOR." Date available: 07/14/2017 Date last updated by company: 07/14/2017
