Source: USDA Branded Food Products Database Release December 2017 Software v.3.8.6.4 2017-10-02
Report Run at: December 18, 2017 08:18 EST
"Nutrient data for: 45278005, ORIGINAL WHIPPED LIGHT CREAM, UPC: 07078402495"
Food Group:  Branded Food Products Database
Common Name:

Nutrient,Unit,Data points,Std. Error,"2.0 Tbsp = 6.0g",1Value per 100 g,
Proximates
"Energy",kcal,--,--,15,250
"Protein",g,--,--,0.00,0.00
"Total lipid (fat)",g,--,--,1.00,16.67
"Carbohydrate, by difference",g,--,--,1.00,16.67
"Fiber, total dietary",g,--,--,0.0,0.0
"Sugars, total",g,--,--,0.00,0.00
Minerals
"Calcium, Ca",mg,--,--,0,0
"Iron, Fe",mg,--,--,0.00,0.00
"Sodium, Na",mg,--,--,0,0
Vitamins
"Vitamin C, total ascorbic acid",mg,--,--,0.0,0.0
"Vitamin A, IU",IU,--,--,0,0
Lipids
"Fatty acids, total saturated",g,--,--,0.500,8.330
"Fatty acids, total trans",g,--,--,0.000,0.000
"Cholesterol",mg,--,--,5,83
Amino Acids
Other
Ingredients
"CREAM, SKIM MILK, CORN SYRUP, CANE SUGAR, MONO-AND DIGLYCERIDES, CARRAGEENAN, DEXTROSE, NATURAL AND ARTIFICIAL VANILLA FLAVORING, NITROUS OXIDE AS WHIPPING PROPELLANT." Date available: 07/14/2017 Date last updated by company: 07/14/2017
