Source: USDA Branded Food Products Database Release December 2017 Software v.3.8.6.4 2017-10-02
Report Run at: December 18, 2017 08:15 EST
"Nutrient data for: 45326117, ORIGINAL TACO SEASONING MIX, UPC: 078742236957"
Food Group:  Branded Food Products Database
Common Name:

Nutrient,Unit,Data points,Std. Error,"2.0 TACOS) | MIX (SEASON = 5.0g",1Value per 100 g,
Proximates
"Energy",kcal,--,--,15,300
"Protein",g,--,--,0.00,0.00
"Total lipid (fat)",g,--,--,0.00,0.00
"Carbohydrate, by difference",g,--,--,3.00,60.00
"Fiber, total dietary",g,--,--,1.0,20.0
Minerals
"Iron, Fe",mg,--,--,0.40,8.00
"Sodium, Na",mg,--,--,300,6000
Vitamins
Lipids
Amino Acids
Other
Ingredients
"CHILI PEPPER, CORN MALTODEXTRIN, SALT, ONION, SPICES, CORNSTARCH, SEA SALT, SILICON DIOXIDE (TO MAKE FREE FLOWING), NATURAL FLAVOR, SUGAR." Date available: 08/11/2017 Date last updated by company: 08/11/2017
