Source: USDA Branded Food Products Database Release December 2017 Software v.3.8.6.4 2017-10-02
Report Run at: December 18, 2017 07:52 EST
"Nutrient data for: 45213785, ORIGINAL EXTRA CHEESE PIZZA, UPC: 036800048010"
Food Group:  Branded Food Products Database
Common Name:

Nutrient,Unit,Data points,Std. Error,"0.25 PIZZA = 145.0g",1Value per 100 g,
Proximates
"Energy",kcal,--,--,310,214
"Protein",g,--,--,14.01,9.66
"Total lipid (fat)",g,--,--,12.01,8.28
"Carbohydrate, by difference",g,--,--,36.00,24.83
"Fiber, total dietary",g,--,--,2.0,1.4
"Sugars, total",g,--,--,4.00,2.76
Minerals
"Calcium, Ca",mg,--,--,349,241
"Iron, Fe",mg,--,--,1.45,1.00
"Sodium, Na",mg,--,--,750,517
Vitamins
"Vitamin C, total ascorbic acid",mg,--,--,12.0,8.3
"Vitamin A, IU",IU,--,--,673,464
Lipids
"Fatty acids, total saturated",g,--,--,6.003,4.140
"Fatty acids, total trans",g,--,--,0.000,0.000
"Cholesterol",mg,--,--,35,24
Amino Acids
Other
Ingredients
"CRUST (WHEAT FLOUR, WATER, CONTAINS 2% OR LESS OF: SOYBEAN OIL, YEAST, SUGAR, BAKING POWDER [SODIUM ACID PYROPHOSPHATE, SODIUM BICARBONATE, CORN STARCH, MONOCALCIUM PHOSPHATE, CALCIUM SULFATE], SALT, VINEGAR, DOUGH CONDITIONER [WHEAT FLOUR, ASCORBIC ACID, ENZYMES], CULTURED WHEY, ENRICHMENT [FERROUS SULFATE, NIACIN, WHEAT FLOUR, THIAMINE MONONITRATE, RIBOFLAVIN, FOLIC ACID], SOY LECITHIN [PROCESSING AID]), LOW MOISTURE PART-SKIM MOZZARELLA CHEESE (PASTEURIZED MILK, CHEESE CULTURES, SALT, ENZYMES), SAUCE (WATER, TOMATO PASTE, SALT, SUGAR, DEXTROSE, SPICES, NATURAL FLAVORS, DEHYDRATED GARLIC, CITRIC ACID)." Date available: 07/14/2017 Date last updated by company: 07/14/2017
