Source: USDA Branded Food Products Database Release December 2017 Software v.3.8.6.4 2017-10-02
Report Run at: December 18, 2017 08:15 EST
"Nutrient data for: 45270105, ORIGINAL TEXAS ROAST CROUTONS, UPC: 070200011311"
Food Group:  Branded Food Products Database
Common Name:

Nutrient,Unit,Data points,Std. Error,"2.0 Tbsp = 7.0g",1Value per 100 g,
Proximates
"Energy",kcal,--,--,35,500
"Protein",g,--,--,1.00,14.29
"Total lipid (fat)",g,--,--,1.50,21.43
"Carbohydrate, by difference",g,--,--,4.00,57.14
"Fiber, total dietary",g,--,--,0.0,0.0
"Sugars, total",g,--,--,0.00,0.00
Minerals
"Calcium, Ca",mg,--,--,0,0
"Iron, Fe",mg,--,--,0.00,0.00
"Sodium, Na",mg,--,--,105,1500
Vitamins
"Vitamin C, total ascorbic acid",mg,--,--,0.0,0.0
"Vitamin A, IU",IU,--,--,0,0
Lipids
"Fatty acids, total saturated",g,--,--,0.000,0.000
"Fatty acids, total trans",g,--,--,0.000,0.000
"Cholesterol",mg,--,--,0,0
Amino Acids
Other
Ingredients
"ENRICHED WHEAT FLOUR (WHEAT FLOUR, MALTED BARLEY FLOUR, NIACIN, FERROUS SULFATE, THIAMINE MONONITRATE, RIBOFLAVIN, FOLIC ACID), CANOLA AND/OR SUNFLOWER OIL, SEASONING {SOUR CREAM SOLIDS [SOUR CREAM (CULTURED CREAM, NONFAT MILK)], SALT, BUTTERMILK SOLIDS, SUGAR, NATURAL FLAVORS (INCLUDING AUTOLYZED YEAST EXTRACT), PARMESAN CHEESE [(PASTEURIZED MILK, CHEESE CULTURES, SALT, ENZYMES), WHEY, DISODIUM PHOSPHATE, LACTIC ACID], ONION*, GARLIC*, SPICES, PARSLEY*, CITRIC ACID}, SALT, WATER, YEAST, NATURAL FLAVOR, CITRIC ACID AND/OR TOCOPHEROLS ADDED TO MAINTAIN FRESHNESS." Date available: 07/14/2017 Date last updated by company: 07/14/2017
