Source: USDA Branded Food Products Database Release December 2017 Software v.3.8.6.4 2017-10-02
Report Run at: December 18, 2017 08:03 EST
"Nutrient data for: 45286354, ORIGINAL PANCAKE SYRUP, UPC: 021130286324"
Food Group:  Branded Food Products Database
Common Name:

Nutrient,Unit,Data points,Std. Error,"0.25 cup = 60.0g",1Value per 100 g,
Proximates
"Energy",kcal,--,--,210,350
"Protein",g,--,--,0.00,0.00
"Total lipid (fat)",g,--,--,0.00,0.00
"Carbohydrate, by difference",g,--,--,52.00,86.67
"Sugars, total",g,--,--,34.00,56.67
Minerals
"Sodium, Na",mg,--,--,10,17
Vitamins
Lipids
Amino Acids
Other
Ingredients
"CORN SYRUP, HIGH FRUCTOSE CORN SYRUP, WATER, NATURAL AND ARTIFICIAL FLAVORS, CARAMEL COLOR, POTASSIUM SORBATE (PRESERVATIVE), CITRIC ACID." Date available: 07/14/2017 Date last updated by company: 07/14/2017
