Source: USDA Branded Food Products Database Release December 2017 Software v.3.8.6.4 2017-10-02
Report Run at: December 18, 2017 07:53 EST
"Nutrient data for: 45202514, ORIGINAL FRUIT FLAPJACK BAR, UPC: 841652100027"
Food Group:  Branded Food Products Database
Common Name:

Nutrient,Unit,Data points,Std. Error,"1.9 ONZ = 53.0g",1Value per 100 g,
Proximates
"Energy",kcal,--,--,230,434
"Protein",g,--,--,3.00,5.66
"Total lipid (fat)",g,--,--,11.00,20.75
"Carbohydrate, by difference",g,--,--,28.00,52.83
"Fiber, total dietary",g,--,--,2.0,3.8
"Sugars, total",g,--,--,18.00,33.96
Minerals
"Calcium, Ca",mg,--,--,20,38
"Iron, Fe",mg,--,--,1.02,1.92
"Sodium, Na",mg,--,--,110,208
Vitamins
"Vitamin C, total ascorbic acid",mg,--,--,0.0,0.0
"Vitamin A, IU",IU,--,--,94,178
Lipids
"Fatty acids, total saturated",g,--,--,3.498,6.600
"Fatty acids, total trans",g,--,--,0.000,0.000
"Cholesterol",mg,--,--,0,0
Amino Acids
Other
Ingredients
"ROLLED OATS, NON-HYDROGENATED VEGETABLE SPREAD (VEGETABLE OIL [CANOLA OIL AND/OR PALM OIL], WATER, SALT), GOLDEN SYRUP, DEMERARA SUGAR, DRIED APRICOTS, DRIED DATES, SUNFLOWERS SEEDS RAISINS, DRIED CURRANTS, PUMPKIN SEEDS" Date available: 07/14/2017 Date last updated by company: 07/14/2017
