Source: USDA Branded Food Products Database Release December 2017 Software v.3.8.6.4 2017-10-02
Report Run at: December 18, 2017 08:08 EST
"Nutrient data for: 45269463, ORIGINAL RECIPE PASTA SAUCE, UPC: 859199001158"
Food Group:  Branded Food Products Database
Common Name:

Nutrient,Unit,Data points,Std. Error,"0.5 cup = 125.0g",1Value per 100 g,
Proximates
"Energy",kcal,--,--,130,104
"Protein",g,--,--,2.00,1.60
"Total lipid (fat)",g,--,--,10.00,8.00
"Carbohydrate, by difference",g,--,--,9.00,7.20
"Fiber, total dietary",g,--,--,1.0,0.8
"Sugars, total",g,--,--,6.00,4.80
Minerals
"Calcium, Ca",mg,--,--,80,64
"Iron, Fe",mg,--,--,0.76,0.61
"Sodium, Na",mg,--,--,150,120
Vitamins
"Vitamin C, total ascorbic acid",mg,--,--,25.4,20.3
"Vitamin A, IU",IU,--,--,792,634
Lipids
"Fatty acids, total saturated",g,--,--,1.500,1.200
"Fatty acids, total trans",g,--,--,0.000,0.000
"Cholesterol",mg,--,--,0,0
Amino Acids
Other
Ingredients
"CALIFORNIA PEAR TOMATOES, TOMATO PASTE, IMPORTED OLIVE OIL, ONIONS, GARLIC, BASIL AND SPICES." Date available: 07/14/2017 Date last updated by company: 07/14/2017
