Source: USDA Branded Food Products Database Release December 2017 Software v.3.8.6.4 2017-10-02
Report Run at: December 18, 2017 08:22 EST
"Nutrient data for: 45194757, ORTI DI CALABRIA, ALFREDO SAUCE, UPC: 033157000708"
Food Group:  Branded Food Products Database
Common Name:

Nutrient,Unit,Data points,Std. Error,"0.5 cup = 125.0g",1Value per 100 g,
Proximates
"Energy",kcal,--,--,220,176
"Protein",g,--,--,6.00,4.80
"Total lipid (fat)",g,--,--,19.00,15.20
"Carbohydrate, by difference",g,--,--,6.00,4.80
"Fiber, total dietary",g,--,--,0.5,0.4
"Sugars, total",g,--,--,4.00,3.20
Minerals
"Calcium, Ca",mg,--,--,150,120
"Iron, Fe",mg,--,--,0.00,0.00
"Potassium, K",mg,--,--,70,56
"Sodium, Na",mg,--,--,320,256
Vitamins
"Vitamin C, total ascorbic acid",mg,--,--,0.0,0.0
"Vitamin A, IU",IU,--,--,318,254
Lipids
"Fatty acids, total saturated",g,--,--,12.000,9.600
"Fatty acids, total monounsaturated",g,--,--,5.000,4.000
"Fatty acids, total polyunsaturated",g,--,--,0.500,0.400
"Fatty acids, total trans",g,--,--,0.000,0.000
"Cholesterol",mg,--,--,75,60
Amino Acids
Other
Ingredients
"DOUBLE CREAM, WATER, PECORINO CHEESE (EWE'S MILK, SEA SALT, RENNET), WHEY PROTEIN (MILK), GRANA PADANO CHEESE (COW'S MILK, SEA SALT, RENNET, PRESERVATIVE: LYSOZYME FROM EGG), GARLIC, EXTRA VIRGIN OLIVE OIL, ONION, XANTHAN GUM, SEA SALT, SUGAR, BLACK PEPPER, ACIDITY REGULATOR: LACTIC ACID" Date available: 07/14/2017 Date last updated by company: 07/14/2017
