Source: USDA Branded Food Products Database Release December 2017 Software v.3.8.6.4 2017-10-02
Report Run at: December 18, 2017 08:27 EST
"Nutrient data for: 45187637, OSETRA CAVIAR, CAVIAR MALOSSOL, UPC: 825743940006"
Food Group:  Branded Food Products Database
Common Name:

Nutrient,Unit,Data points,Std. Error,"1 Tbsp = 15.0g",1Value per 100 g,
Proximates
"Energy",kcal,--,--,40,267
"Protein",g,--,--,3.00,20.00
"Total lipid (fat)",g,--,--,2.50,16.67
"Carbohydrate, by difference",g,--,--,0.00,0.00
"Fiber, total dietary",g,--,--,0.0,0.0
"Sugars, total",g,--,--,0.00,0.00
Minerals
"Calcium, Ca",mg,--,--,0,0
"Iron, Fe",mg,--,--,8.16,54.40
"Sodium, Na",mg,--,--,200,1333
Vitamins
"Vitamin C, total ascorbic acid",mg,--,--,0.0,0.0
"Vitamin A, IU",IU,--,--,567,3777
Lipids
"Fatty acids, total saturated",g,--,--,1.000,6.670
"Fatty acids, total trans",g,--,--,0.000,0.000
"Cholesterol",mg,--,--,75,500
Amino Acids
Other
Ingredients
"FARMED RUSSIAN STURGEON ROE AND SALT" Date available: 07/14/2017 Date last updated by company: 07/14/2017
