Source: USDA Branded Food Products Database Release December 2017 Software v.3.8.6.4 2017-10-02
Report Run at: December 18, 2017 08:29 EST
"Nutrient data for: 45171360, OTIS SPUNKMEYER, GOLDEN FROSTED CREME CAKES, UPC: 013087207460"
Food Group:  Branded Food Products Database
Common Name:

Nutrient,Unit,Data points,Std. Error,"2.0 CAKES = 77.0g",1Value per 100 g,
Proximates
"Energy",kcal,--,--,310,403
"Protein",g,--,--,2.00,2.60
"Total lipid (fat)",g,--,--,14.00,18.18
"Carbohydrate, by difference",g,--,--,45.00,58.44
"Fiber, total dietary",g,--,--,0.0,0.0
"Sugars, total",g,--,--,34.00,44.16
Minerals
"Calcium, Ca",mg,--,--,20,26
"Iron, Fe",mg,--,--,0.75,0.97
"Sodium, Na",mg,--,--,230,299
Vitamins
"Vitamin C, total ascorbic acid",mg,--,--,0.0,0.0
"Vitamin A, IU",IU,--,--,104,135
Lipids
"Fatty acids, total saturated",g,--,--,5.998,7.790
"Fatty acids, total trans",g,--,--,0.000,0.000
"Cholesterol",mg,--,--,35,45
Amino Acids
Other
Ingredients
"SUGAR, WATER, ENRICHED BLEACHED FLOUR (BLEACHED WHEAT FLOUR, NIACIN, IRON, THIAMINE MONONITRATE, RIBOFLAVIN, FOLIC ACID), EGGS, PALM OIL, SOYBEAN OIL, CORN SYRUP, CONTAINS 2% OR LESS OF: MALTODEXTRIN, WHEY (MILK), MODIFIED CORN STARCH, GLYCERIN, MONO- AND DIGLYCERIDES, CORNSTARCH, WHEAT GLUTEN, NONFAT MILK, SALT, LEAVENING (SODIUM ACID PYROPHOSPHATE, BAKING SODA, MONOCALCIUM PHOSPHATE), PRESERVATIVES (SODIUM PROPIONATE, POTASSIUM SORBATE, SORBIC ACID), PROPYLENE GLYCOL ESTERS OF FATTY ACIDS, VANILLA EXTRACT, POLYSORBATE 60, GUMS (AGAR, XANTHAN, SODIUM ALGINATE, GUAR, ACACIA), SOY LECITHIN, SODIUM STEAROYL LACTYLATE, NATURAL FLAVORS (CONTAINS MILK), CORN FLOUR, DATEM, CITRIC ACID, DEXTROSE, TRICALCIUM PHOSPHATE, TURMERIC AND ANNATTO EXTRACTS (COLOR)." Date available: 10/08/2017 Date last updated by company: 10/08/2017
