Source: USDA Branded Food Products Database Release December 2017 Software v.3.8.6.4 2017-10-02
Report Run at: December 18, 2017 08:29 EST
"Nutrient data for: 45010291, OTTER POPS, ICE BARS, UPC: 072392851003"
Food Group:  Branded Food Products Database
Common Name:

Nutrient,Unit,Data points,Std. Error,"85.0 g = 85.0g",1Value per 100 g,
Proximates
"Energy",kcal,--,--,45,53
"Protein",g,--,--,0.00,0.00
"Total lipid (fat)",g,--,--,0.00,0.00
"Carbohydrate, by difference",g,--,--,11.00,12.94
"Sugars, total",g,--,--,10.00,11.76
Minerals
"Sodium, Na",mg,--,--,10,12
Vitamins
Lipids
Amino Acids
Other
Ingredients
"WATER, HIGH FRUCTOSE CORN SYRUP, CONTAINS 2% OR LESS OF THE FOLLOWING: APPLE AND PEAR JUICE FROM CONCENTRATE, CITRIC ACID, NATURAL AND ARTIFICIAL FLAVORS, SODIUM BENZOATE AND POTASSIUM SORBATE (PRESERVATIVES), RED 40, YELLOW 5, YELLOW 6, BLUE 1." Date available: 06/24/2017 Date last updated by company: 06/24/2017
