Source: USDA Branded Food Products Database Release December 2017 Software v.3.8.6.4 2017-10-02
Report Run at: December 18, 2017 08:37 EST
"Nutrient data for: 45169641, OUTRAGEOUS BAKING, LEMON POPPY SEED BREAD, UPC: 854719006002"
Food Group:  Branded Food Products Database
Common Name:

Nutrient,Unit,Data points,Std. Error,"2.0 ONZ = 57.0g",1Value per 100 g,
Proximates
"Energy",kcal,--,--,210,368
"Protein",g,--,--,2.00,3.51
"Total lipid (fat)",g,--,--,12.00,21.05
"Carbohydrate, by difference",g,--,--,25.00,43.86
"Fiber, total dietary",g,--,--,1.0,1.8
"Sugars, total",g,--,--,14.00,24.56
Minerals
"Calcium, Ca",mg,--,--,40,70
"Iron, Fe",mg,--,--,1.27,2.22
"Sodium, Na",mg,--,--,100,175
Vitamins
"Vitamin C, total ascorbic acid",mg,--,--,0.0,0.0
"Vitamin A, IU",IU,--,--,0,0
Lipids
"Fatty acids, total saturated",g,--,--,2.502,4.390
"Fatty acids, total trans",g,--,--,0.000,0.000
"Cholesterol",mg,--,--,25,44
Amino Acids
Other
Ingredients
"BROWN RICE FLOUR, POTATO STARCH, TAPIOCA FLOUR, SORGHUM FLOUR, CANE SUGAR, NON GMO RICE BRAN OIL, EGGS, COCONUT MILK (GUAR GUM), POPPY SEEDS, LEMON OIL, BAKING POWDER (NON GMO CORN), SEA SALT, VANILLA, CINNAMON, XANTHAN GUM." Date available: 07/14/2017 Date last updated by company: 07/14/2017
