Source: USDA Branded Food Products Database Release December 2017 Software v.3.8.6.4 2017-10-02
Report Run at: December 18, 2017 08:42 EST
"Nutrient data for: 45270073, OVEN ROASTED DICED CHICKEN BREAST, UPC: 023700636133"
Food Group:  Branded Food Products Database
Common Name:

Nutrient,Unit,Data points,Std. Error,"3.0 ONZ = 84.0g",1Value per 100 g,
Proximates
"Energy",kcal,--,--,100,119
"Protein",g,--,--,19.00,22.62
"Total lipid (fat)",g,--,--,2.50,2.98
"Carbohydrate, by difference",g,--,--,1.00,1.19
"Fiber, total dietary",g,--,--,0.0,0.0
"Sugars, total",g,--,--,1.00,1.19
Minerals
"Calcium, Ca",mg,--,--,0,0
"Iron, Fe",mg,--,--,0.24,0.28
"Sodium, Na",mg,--,--,470,560
Vitamins
"Vitamin C, total ascorbic acid",mg,--,--,0.0,0.0
"Vitamin A, IU",IU,--,--,0,0
Lipids
"Fatty acids, total saturated",g,--,--,1.000,1.190
"Fatty acids, total monounsaturated",g,--,--,1.000,1.190
"Fatty acids, total polyunsaturated",g,--,--,0.000,0.000
"Fatty acids, total trans",g,--,--,0.000,0.000
"Cholesterol",mg,--,--,50,60
Amino Acids
Other
Ingredients
"CHICKEN BREAST WITH RIB MEAT, CHICKEN BROTH, CONTAINS 2% OR LESS OF: MODIFIED FOOD STARCH, DEXTROSE, SALT, VINEGAR, ROASTED CHICKEN FLAVOR (CONTAINS SALT, AUTOLYZED YEAST EXTRACT, SUGAR, MOLASSES, DISODIUM INOSINATE, DISODIUM GUANYLATE AND SODIUM PHOSPHATES), BROWN SUGAR, CHICKEN BROTH CONCENTRATE [CHICKEN BROTH, YEAST EXTRACT, CHICKEN FLAVOR (CHICKEN FAT AND FLAVORING), CORN SYRUP SOLIDS, SALT AND FLAVOR]. SODIUM PHOSPHATES, NATURAL FLAVOR." Date available: 07/14/2017 Date last updated by company: 07/14/2017
