Source: USDA Branded Food Products Database Release December 2017 Software v.3.8.6.4 2017-10-02
Report Run at: December 18, 2017 08:49 EST
"Nutrient data for: 45095817, OWL'S NEST, CHEDDARY CHEESE SPREAD, UPC: 037181385541"
Food Group:  Branded Food Products Database
Common Name:

Nutrient,Unit,Data points,Std. Error,"2.0 Tbsp = 30.0g",1Value per 100 g,
Proximates
"Energy",kcal,--,--,100,333
"Protein",g,--,--,3.00,10.00
"Total lipid (fat)",g,--,--,8.00,26.67
"Carbohydrate, by difference",g,--,--,4.00,13.33
"Fiber, total dietary",g,--,--,0.0,0.0
"Sugars, total",g,--,--,2.00,6.67
Minerals
"Calcium, Ca",mg,--,--,80,267
"Iron, Fe",mg,--,--,0.00,0.00
"Sodium, Na",mg,--,--,180,600
Vitamins
"Vitamin C, total ascorbic acid",mg,--,--,0.0,0.0
"Vitamin A, IU",IU,--,--,500,1667
Lipids
"Fatty acids, total saturated",g,--,--,3.999,13.330
"Fatty acids, total trans",g,--,--,0.000,0.000
"Cholesterol",mg,--,--,20,67
Amino Acids
Other
Ingredients
"PASTEURIZED MILK AND CREAM, WATER, REDUCED LACTOSE WHEY, SOYBEAN AND/OR CANOLA OIL, REDUCED PROTEIN WHEY, CORN SYRUP SOLIDS, SKIM MILK, MILK PROTEIN CONCENTRATE, CONTAINS 2% OR LESS OF VINEGAR, EGG YOLKS, CHEESE CULTURE, SALT, LACTIC ACID, MODIFIED CORN STARCH, XANTHAN GUM, LOCUST BEAN GUM, GUAR GUM, SORBIC ACID AND SODIUM BENZOATE (TO PROTECT FLAVOR), DEXTROSE, ONION AND GARLIC POWDER, CITRIC ACID, NATURAL FLAVOR, ENZYMES, SPICES, PAPRIKA EXTRACT, AND ANNATTO COLOR)" Date available: 06/25/2017 Date last updated by company: 06/25/2017
