Source: USDA Branded Food Products Database Release December 2017 Software v.3.8.6.4 2017-10-02
Report Run at: December 18, 2017 08:51 EST
"Nutrient data for: 45324126, OYSTER SAUCE, UPC: 074027500034"
Food Group:  Branded Food Products Database
Common Name:

Nutrient,Unit,Data points,Std. Error,"1 Tbsp = 15.0g",1Value per 100 g,
Proximates
"Energy",kcal,--,--,15,100
"Protein",g,--,--,1.00,6.67
"Total lipid (fat)",g,--,--,0.00,0.00
"Carbohydrate, by difference",g,--,--,3.00,20.00
"Fiber, total dietary",g,--,--,0.0,0.0
"Sugars, total",g,--,--,1.00,6.67
Minerals
"Calcium, Ca",mg,--,--,0,0
"Iron, Fe",mg,--,--,1.22,8.11
"Sodium, Na",mg,--,--,670,4467
Vitamins
"Vitamin C, total ascorbic acid",mg,--,--,0.0,0.0
"Vitamin A, IU",IU,--,--,0,0
Lipids
"Fatty acids, total saturated",g,--,--,0.000,0.000
"Fatty acids, total trans",g,--,--,0.000,0.000
"Cholesterol",mg,--,--,0,0
Amino Acids
Other
Ingredients
"WATER, SUGAR, SOY SAUCE, THICKENER (MODIFIED CORN STARCH E1422), SALT, PACIFIC OYSTER, FLAVOUR ENHANCER (MONOSODIUM GLUTAMATE E621), COLOUR (CARAMEL E150C), PRESERVATIVE (POTASSIUM SORBATE E202), (SODIUM BENZOATE E211)" Date available: 08/23/2017 Date last updated by company: 08/23/2017
