Source: USDA Branded Food Products Database Release December 2017 Software v.3.8.6.4 2017-10-02
Report Run at: December 18, 2017 08:51 EST
"Nutrient data for: 45015162, OZERY BAKERY INC., SNACKING ROUNDS, FRUIT & GRAIN SNAKS, CRANBERRY ORANGE, UPC: 664164101838"
Food Group:  Branded Food Products Database
Common Name:

Nutrient,Unit,Data points,Std. Error,"1 PITA = 26.0g",1Value per 100 g,
Proximates
"Energy",kcal,--,--,70,269
"Protein",g,--,--,2.00,7.69
"Total lipid (fat)",g,--,--,0.00,0.00
"Carbohydrate, by difference",g,--,--,14.00,53.85
"Fiber, total dietary",g,--,--,1.0,3.8
"Sugars, total",g,--,--,2.00,7.69
Minerals
"Calcium, Ca",mg,--,--,20,77
"Iron, Fe",mg,--,--,1.11,4.26
"Potassium, K",mg,--,--,35,135
"Sodium, Na",mg,--,--,70,269
Vitamins
"Vitamin C, total ascorbic acid",mg,--,--,1.8,7.1
"Vitamin A, IU",IU,--,--,0,0
Lipids
"Fatty acids, total saturated",g,--,--,0.000,0.000
"Fatty acids, total monounsaturated",g,--,--,0.000,0.000
"Fatty acids, total polyunsaturated",g,--,--,0.000,0.000
"Fatty acids, total trans",g,--,--,0.000,0.000
"Cholesterol",mg,--,--,0,0
Amino Acids
Other
Ingredients
"UNBLEACHED WHEAT FLOUR [WHEAT FLOUR, ASCORBIC ACID (NATURAL DOUGH CONDITIONER), NIACIN [VITAMIN B-3], IRON [FERROUS SULPHATE], THIAMIN MONONITRATE [VITAMIN B-1], RIBOFLAVIN [VITAMIN B-2], FOLIC ACID], FILTERED WATER, WHOLE GRAIN WHEAT FLOUR INCLUDING GERM, ANTI-OXIDANT CONTAINING CRANBERRIES (CRANBERRIES, SUGAR, SUNFLOWER OIL), ORGANIC EVAPORATED CANE SUGAR, ORANGE PUREE (CONCENTRATED ORANGE JUICE, WATER, CONCENTRATED TANGERINE JUICE, ORANGE PULP CELLS, GROUND ORANGES AND ORANGE OIL), SOUR DOUGH (ORGANIC UNBLEACHED FLOUR [WHEAT FLOUR, ASCORBIC ACID (NATURAL DOUGH CONDITIONER), NIACIN [VITAMIN B-3], IRON [FERROUS SULPHATE], THIAMIN MONONITRATE [VITAMIN B-1], RIBOFLAVIN [VITAMIN B-2], FOLIC ACID], FILTERED WATER, ORGANIC EVAPORATED CANE SUGAR, SEA SALT, YEAST, SUNFLOWER OIL) CRUSHED ORANGES, YEAST, SEA SALT, SUNFLOWER OIL, CULTURED WHEAT STARCH, CITRIC ACID, AMYLASE (ENZYME)." Date available: 06/25/2017 Date last updated by company: 06/25/2017
