Source: USDA Branded Food Products Database Release December 2017 Software v.3.8.6.4 2017-10-02
Report Run at: December 18, 2017 08:52 EST
"Nutrient data for: 45135436, PACE DIPS PEPPER SALSA, UNPREPARED, GTIN: 00041565197446"
Food Group:  Branded Food Products Database
Common Name:

Nutrient,Unit,Data points,Std. Error,"2.0 tbsp = 32.0g",1Value per 100 g,
Proximates
"Energy",kcal,--,--,10,31
"Protein",g,--,--,0.00,0.00
"Total lipid (fat)",g,--,--,0.00,0.00
"Carbohydrate, by difference",g,--,--,2.00,6.25
"Fiber, total dietary",g,--,--,0.0,0.0
"Sugars, total",g,--,--,1.00,3.12
Minerals
"Calcium, Ca",mg,--,--,12,38
"Iron, Fe",mg,--,--,0.00,0.00
"Sodium, Na",mg,--,--,130,406
Vitamins
"Vitamin C, total ascorbic acid",mg,--,--,0.0,0.0
"Vitamin A, IU",IU,--,--,100,312
Lipids
"Fatty acids, total saturated",g,--,--,0.00,0.00
"Fatty acids, total trans",g,--,--,0.00,0.00
"Cholesterol",mg,--,--,0,0
Amino Acids
Other
Ingredients
"DICED TOMATOES IN TOMATO JUICE, CRUSHED TOMATOES (WATER, CRUSHED TOMATO CONCENTRATE), JALAPENO PEPPERS, WATER, ONIONS, YELLOW PEPPERS, RED PEPPERS, GARLIC, DEHYDRATED ONIONS, SALT, DISTILLED VINEGAR, CILANTRO, LIME JUICE CONCENTRATE, NATURAL FLAVORING, SOY LECITHIN." Date last updated by company: 10/21/2016
