Source: USDA Branded Food Products Database Release December 2017 Software v.3.8.6.4 2017-10-02
Report Run at: December 18, 2017 08:53 EST
"Nutrient data for: 45186275, PACIFIC COD FILLETS, UPC: 826504847060"
Food Group:  Branded Food Products Database
Common Name:

Nutrient,Unit,Data points,Std. Error,"4.0 -6 FILLETS = 113.0g",1Value per 100 g,
Proximates
"Energy",kcal,--,--,60,53
"Protein",g,--,--,14.00,12.39
"Total lipid (fat)",g,--,--,0.00,0.00
"Carbohydrate, by difference",g,--,--,0.00,0.00
"Fiber, total dietary",g,--,--,0.0,0.0
"Sugars, total",g,--,--,0.00,0.00
Minerals
"Calcium, Ca",mg,--,--,0,0
"Iron, Fe",mg,--,--,0.00,0.00
"Sodium, Na",mg,--,--,510,451
Vitamins
"Vitamin C, total ascorbic acid",mg,--,--,0.0,0.0
"Vitamin A, IU",IU,--,--,0,0
Lipids
"Fatty acids, total saturated",g,--,--,0.000,0.000
"Fatty acids, total trans",g,--,--,0.000,0.000
"Cholesterol",mg,--,--,45,40
Amino Acids
Other
Ingredients
"COD FILLETS, SODIUM TRIPOLYPHOSPHATE (ADDED TO RETAIN MOISTURE)." Date available: 07/14/2017 Date last updated by company: 07/14/2017
