Source: USDA Branded Food Products Database Release December 2017 Software v.3.8.6.4 2017-10-02
Report Run at: December 18, 2017 08:53 EST
"Nutrient data for: 45051963, PACIFIC COCONUT FROZEN BARS WITH COCONUT WATER, UPC: 657243611083"
Food Group:  Branded Food Products Database
Common Name:

Nutrient,Unit,Data points,Std. Error,"1 BAR = 48.0g",1Value per 100 g,
Proximates
"Energy",kcal,--,--,40,83
"Protein",g,--,--,0.00,0.00
"Total lipid (fat)",g,--,--,0.00,0.00
"Carbohydrate, by difference",g,--,--,9.00,18.75
"Sugars, total",g,--,--,9.00,18.75
Minerals
"Potassium, K",mg,--,--,9,19
"Sodium, Na",mg,--,--,32,67
Vitamins
"Vitamin C, total ascorbic acid",mg,--,--,12.0,25.0
Lipids
"Fatty acids, total saturated",g,--,--,0.000,0.000
"Fatty acids, total trans",g,--,--,0.000,0.000
Amino Acids
Other
Ingredients
"FILTERED WATER, SUGAR, NATURAL FLAVOR, COCONUT WATER CONCENTRATE, LOCUST BEAN GUM, CITRIC ACID, ASCORBIC ACID, SEA SALT" Date available: 10/13/2017 Date last updated by company: 10/13/2017
