Source: USDA Branded Food Products Database Release December 2017 Software v.3.8.6.4 2017-10-02
Report Run at: December 18, 2017 08:52 EST
"Nutrient data for: 45045622, PACIFIC, BEER BATTERED COD, UPC: 659204596033"
Food Group:  Branded Food Products Database
Common Name:

Nutrient,Unit,Data points,Std. Error,"3.5 ONZ = 100.0g",1Value per 100 g,
Proximates
"Energy",kcal,--,--,190,190
"Protein",g,--,--,11.00,11.00
"Total lipid (fat)",g,--,--,7.00,7.00
"Carbohydrate, by difference",g,--,--,20.00,20.00
"Fiber, total dietary",g,--,--,0.0,0.0
"Sugars, total",g,--,--,0.00,0.00
Minerals
"Calcium, Ca",mg,--,--,0,0
"Iron, Fe",mg,--,--,0.00,0.00
"Sodium, Na",mg,--,--,560,560
Vitamins
"Vitamin C, total ascorbic acid",mg,--,--,0.0,0.0
"Vitamin A, IU",IU,--,--,0,0
Lipids
"Fatty acids, total saturated",g,--,--,1.500,1.500
"Fatty acids, total trans",g,--,--,0.000,0.000
"Cholesterol",mg,--,--,15,15
Amino Acids
Other
Ingredients
"COD, MODIFIED CORN STARCH RICE FLOUR, BEER (WATER, SORGHUM, ORGANIC BUCKWHEAT, ORGANIC LENTILS, HOPS), PEA FLOUR, NATURAL FLAVORS, SALT, LEAVENING (SODIUM ACID PUROPHOSPHATE, SODIUM BICARBONATE), EGG WHITES, YEAST EXTRACT, CANOLA OIL, SUGAR." Date available: 06/24/2017 Date last updated by company: 06/24/2017
