Source: USDA Branded Food Products Database Release December 2017 Software v.3.8.6.4 2017-10-02
Report Run at: December 18, 2017 08:57 EST
"Nutrient data for: 45214166, PACZKI, UPC: 041573236328"
Food Group:  Branded Food Products Database
Common Name:

Nutrient,Unit,Data points,Std. Error,"4.0 ONZ = 113.0g",1Value per 100 g,
Proximates
"Energy",kcal,--,--,310,274
"Protein",g,--,--,4.99,4.42
"Total lipid (fat)",g,--,--,14.00,12.39
"Carbohydrate, by difference",g,--,--,43.00,38.05
"Fiber, total dietary",g,--,--,1.0,0.9
"Sugars, total",g,--,--,12.99,11.50
Minerals
"Calcium, Ca",mg,--,--,80,71
"Iron, Fe",mg,--,--,0.88,0.78
"Sodium, Na",mg,--,--,330,292
Vitamins
"Vitamin C, total ascorbic acid",mg,--,--,1.1,1.0
"Vitamin A, IU",IU,--,--,0,0
Lipids
"Fatty acids, total saturated",g,--,--,6.000,5.310
"Fatty acids, total trans",g,--,--,0.000,0.000
"Cholesterol",mg,--,--,10,9
Amino Acids
Other
Ingredients
"ENRICHED BLEACHED WHEAT FLOUR (WHEAT FLOUR, NIACIN, REDUCED IRON, THIAMINE MONONITRATE, RIBOFLAVIN, FOLIC ACID), WATER, PALM OIL WITH CITRIC ACID ADDED AS A PRESERVATIVE, DOUGH CONDITIONER (SOY FLOUR, WHEY, SALT, SODIUM ACID PYROPHOSPHATE, SODIUM BICARBONATE, LECITHIN, SODIUM STEAROYL LACTYLATE, GUAR GUM, CALCIUM PROPIONATE, SOY OIL, ASCORBIC ACID, EXTRACTS OF ANNATTO AND TURMERIC, LCYSTEINE, ENZYMES), SUGAR, YEAST, MONO-AND DIGLYCERIDES FROM VEGETABLE OILS WITH TBHQ AND CITRIC ACID ADDED TO HELP PROTECT FLAVOR, EGG, TURMERIC AND ANNATTO EXTRACTS, CINNAMON. FILLING: WATER, SUGAR, STRAWBERRIES, CORN SYRUP, FOOD STARCH-MODIFIED, CITRIC ACID, POTASSIUM SORBATE AND SODIUM PROPIONATE (PRESERVATIVES), SALT, ARTIFICIAL FLAVOR, RED 40." Date available: 07/14/2017 Date last updated by company: 07/14/2017
