Source: USDA Branded Food Products Database Release December 2017 Software v.3.8.6.4 2017-10-02
Report Run at: December 18, 2017 08:58 EST
"Nutrient data for: 45054216, PAD THAI NOODLES, UPC: 030650600053"
Food Group:  Branded Food Products Database
Common Name:

Nutrient,Unit,Data points,Std. Error,"0.5 PACKAGE = 127.5g",1Value per 100 g,
Proximates
"Energy",kcal,--,--,391,307
"Protein",g,--,--,5.00,3.92
"Total lipid (fat)",g,--,--,3.00,2.35
"Carbohydrate, by difference",g,--,--,85.00,66.67
"Fiber, total dietary",g,--,--,0.0,0.0
"Sugars, total",g,--,--,16.00,12.55
Minerals
"Calcium, Ca",mg,--,--,20,16
"Iron, Fe",mg,--,--,0.15,0.12
"Sodium, Na",mg,--,--,434,340
Vitamins
"Vitamin C, total ascorbic acid",mg,--,--,1.0,0.8
"Vitamin A, IU",IU,--,--,0,0
Lipids
"Fatty acids, total saturated",g,--,--,0.000,0.000
"Fatty acids, total trans",g,--,--,0.000,0.000
"Cholesterol",mg,--,--,0,0
Amino Acids
Other
Ingredients
"RICE NOODLES (RICE FLOUR, WATER, MODIFIED TAPIOCA STARCH), PAD THAI SAUCE (PALM SUGAR, TAMARIND JUICE (TAMARIND AND WATER), WATER, SHALLOT, SWEET RADISH, GARLIC, SOYBEAN OIL, POTASSIUM CHLORIDE, MALTODEXTRIN, MISO (SOYBEAN, RICE, SALT), SALT, HYDROLYZED VEGETABLE PROTEIN (SOYBEAN, CORN MALTODEXTRIN), YEAST EXTRACT, PAPRIKA OLEORESIN , CITRIC ACID, ALPHA-TOCOPHEROL, CHILI OLEORESIN.)." Date available: 06/25/2017 Date last updated by company: 06/25/2017
