Source: USDA Branded Food Products Database Release December 2017 Software v.3.8.6.4 2017-10-02
Report Run at: December 18, 2017 09:00 EST
"Nutrient data for: 45021839, PAESANA, VODKA SAUCE, UPC: 076050170239"
Food Group:  Branded Food Products Database
Common Name:

Nutrient,Unit,Data points,Std. Error,"0.5 cup = 123.0g",1Value per 100 g,
Proximates
"Energy",kcal,--,--,130,106
"Protein",g,--,--,3.00,2.44
"Total lipid (fat)",g,--,--,10.00,8.13
"Carbohydrate, by difference",g,--,--,8.00,6.50
"Fiber, total dietary",g,--,--,2.0,1.6
"Sugars, total",g,--,--,3.00,2.44
Minerals
"Calcium, Ca",mg,--,--,100,81
"Iron, Fe",mg,--,--,0.38,0.31
"Sodium, Na",mg,--,--,440,358
Vitamins
"Vitamin C, total ascorbic acid",mg,--,--,1.2,1.0
"Vitamin A, IU",IU,--,--,792,644
Lipids
"Fatty acids, total saturated",g,--,--,5.006,4.070
"Fatty acids, total trans",g,--,--,0.000,0.000
"Cholesterol",mg,--,--,20,16
Amino Acids
Other
Ingredients
"MADE WITH FRESH INGREDIENTS: PLUM TOMATOES, HEAVY CREAM, FRESH ONIONS, 100% EXTRA VIRGIN OLIVE OIL, FRESH GARLIC, PARMESAN CHEESE (PASTEURIZED MILK, CULTURES, SALT, ENZYME, POWDERED CELLULOSE (ANTI-CAKING AGENT)), BUTTER, FRESH BASIL, ROMANO CHEESE (PASTEURIZED MILK, CULTURES, SALT, ENZYME, POWDERED CELLULOSE (ANTI-CAKING AGENT)), SEA SALT, VODKA, CITRIC ACID AND BLACK PEPPER." Date available: 06/25/2017 Date last updated by company: 06/25/2017
