Source: USDA Branded Food Products Database Release December 2017 Software v.3.8.6.4 2017-10-02
Report Run at: December 18, 2017 09:01 EST
"Nutrient data for: 45100269, PALADINI, PASTA SAUCE, UPC: 020915001046"
Food Group:  Branded Food Products Database
Common Name:

Nutrient,Unit,Data points,Std. Error,"0.5 cup = 128.0g",1Value per 100 g,
Proximates
"Energy",kcal,--,--,79,62
"Protein",g,--,--,1.00,0.78
"Total lipid (fat)",g,--,--,5.00,3.91
"Carbohydrate, by difference",g,--,--,7.00,5.47
"Fiber, total dietary",g,--,--,2.0,1.6
"Sugars, total",g,--,--,3.99,3.12
Minerals
"Calcium, Ca",mg,--,--,20,16
"Iron, Fe",mg,--,--,0.76,0.59
"Sodium, Na",mg,--,--,170,133
Vitamins
"Vitamin C, total ascorbic acid",mg,--,--,9.5,7.4
"Vitamin A, IU",IU,--,--,529,413
Lipids
"Fatty acids, total saturated",g,--,--,0.499,0.390
"Fatty acids, total trans",g,--,--,0.000,0.000
"Cholesterol",mg,--,--,0,0
Amino Acids
Other
Ingredients
"COARSE GROUND TOMATOES, SAUTERNE WINE, ONIONS, OLIVE OIL, TOMATO PASTE, WATER, GARLIC, PARSLEY, FRESH BASIL, OREGANO, SPICES, RED CHILI FLAKES, CAYENNE PEPPER, SALT." Date available: 07/14/2017 Date last updated by company: 07/14/2017
