Source: USDA Branded Food Products Database Release December 2017 Software v.3.8.6.4 2017-10-02
Report Run at: December 18, 2017 09:03 EST
"Nutrient data for: 45104136, PALDO, BOWL NOODLE SOUP, HOT & SPICY, UPC: 648436100033"
Food Group:  Branded Food Products Database
Common Name:

Nutrient,Unit,Data points,Std. Error,"43.0 g = 43.0g",1Value per 100 g,
Proximates
"Energy",kcal,--,--,196,456
"Protein",g,--,--,4.00,9.30
"Total lipid (fat)",g,--,--,8.00,18.60
"Carbohydrate, by difference",g,--,--,27.00,62.79
"Fiber, total dietary",g,--,--,1.0,2.3
"Sugars, total",g,--,--,1.00,2.33
Minerals
"Calcium, Ca",mg,--,--,20,47
"Iron, Fe",mg,--,--,2.05,4.77
"Sodium, Na",mg,--,--,1080,2512
Vitamins
"Vitamin C, total ascorbic acid",mg,--,--,0.0,0.0
"Vitamin A, IU",IU,--,--,0,0
Lipids
"Fatty acids, total saturated",g,--,--,3.999,9.300
"Fatty acids, total trans",g,--,--,0.000,0.000
"Cholesterol",mg,--,--,0,0
Amino Acids
Other
Ingredients
"WHEAT FLOUR, PALM OIL, POTATO STARCH, MODIFIED POTATO STARCH, SALT, GUAR GUM, RIBOFLAVIN, POUR BASE: SALT, VEGETABLE POWDER (RED PEPPER, ONION, GARLIC MUSHROOM, MONOSODIUM GLUTAMATE, RED PEPPER, GLUCOSE, SOY SAUCE POWDER (WHEAT, SOYBEAN, SALT), SOY BEAN PASTE POWDER (SOY BEAN, WHEAT, SALT), BLACK PEPPER, ONION FLAKE, HONEY VEGETABLE: CARROT FLAKE, GREEN ONION FLAKE." Date available: 06/25/2017 Date last updated by company: 06/25/2017
