Source: USDA Branded Food Products Database Release December 2017 Software v.3.8.6.4 2017-10-02
Report Run at: December 18, 2017 09:03 EST
"Nutrient data for: 45243250, PALDO, PORORO MILK, MILK, UPC: 648436330652"
Food Group:  Branded Food Products Database
Common Name:

Nutrient,Unit,Data points,Std. Error,"180.0 MLT = 180.0g",1Value per 100 g,
Proximates
"Energy",kcal,--,--,95,53
"Protein",g,--,--,0.00,0.00
"Total lipid (fat)",g,--,--,0.00,0.00
"Carbohydrate, by difference",g,--,--,23.99,13.33
"Fiber, total dietary",g,--,--,0.4,0.2
"Sugars, total",g,--,--,23.00,12.78
Minerals
"Calcium, Ca",mg,--,--,40,22
"Iron, Fe",mg,--,--,0.00,0.00
"Sodium, Na",mg,--,--,20,11
Vitamins
"Vitamin C, total ascorbic acid",mg,--,--,0.0,0.0
"Vitamin A, IU",IU,--,--,0,0
Lipids
"Fatty acids, total saturated",g,--,--,0.000,0.000
"Fatty acids, total trans",g,--,--,0.000,0.000
"Cholesterol",mg,--,--,0,0
Amino Acids
Other
Ingredients
"WATER, SUGAR, SKIM MILK POWDER, CALCIUM LACTATE, CITRIC ACID, FRUITS MIX FLAVOR, SOYBEAN POLYSACCHARIDE, SODIUM CITRATE, LEMON FLAVOR, EMULSIFYING AGENT, VITAMIN D3" Date available: 06/25/2017 Date last updated by company: 06/25/2017
