Source: USDA Branded Food Products Database Release December 2017 Software v.3.8.6.4 2017-10-02
Report Run at: December 18, 2017 09:04 EST
"Nutrient data for: 45055923, PALEO BREAD, UPC: 813926002931"
Food Group:  Branded Food Products Database
Common Name:

Nutrient,Unit,Data points,Std. Error,"1 SLICE = 43.0g",1Value per 100 g,
Proximates
"Energy",kcal,--,--,60,140
"Protein",g,--,--,7.00,16.28
"Total lipid (fat)",g,--,--,3.00,6.98
"Carbohydrate, by difference",g,--,--,6.00,13.95
"Fiber, total dietary",g,--,--,5.0,11.6
"Sugars, total",g,--,--,1.00,2.33
Minerals
"Calcium, Ca",mg,--,--,40,93
"Iron, Fe",mg,--,--,0.42,0.98
"Potassium, K",mg,--,--,200,465
"Sodium, Na",mg,--,--,115,267
Vitamins
"Vitamin C, total ascorbic acid",mg,--,--,1.4,3.3
"Vitamin A, IU",IU,--,--,0,0
Lipids
"Fatty acids, total saturated",g,--,--,1.002,2.330
"Fatty acids, total trans",g,--,--,0.000,0.000
"Cholesterol",mg,--,--,0,0
Amino Acids
Other
Ingredients
"PURIFIED WATER, ALMOND FLOUR, ORGANIC COCONUT FLOUR, EGG WHITES, PSYLLIUM SEED POWDER, ORGANIC LEMON JUICE, POTASSIUM BICARBONATE (LEAVENING), SALT." Date available: 07/14/2017 Date last updated by company: 07/14/2017
