Source: USDA Branded Food Products Database Release December 2017 Software v.3.8.6.4 2017-10-02
Report Run at: December 18, 2017 09:08 EST
"Nutrient data for: 45126890, PALERMO'S, PIZZERIA, MEDIUM CRUST ROASTED VEGETABLE PIZZA, UPC: 075706148080"
Food Group:  Branded Food Products Database
Common Name:

Nutrient,Unit,Data points,Std. Error,"0.25 PIZZA = 153.0g",1Value per 100 g,
Proximates
"Energy",kcal,--,--,311,203
"Protein",g,--,--,13.01,8.50
"Total lipid (fat)",g,--,--,11.00,7.19
"Carbohydrate, by difference",g,--,--,39.99,26.14
"Fiber, total dietary",g,--,--,2.0,1.3
"Sugars, total",g,--,--,6.00,3.92
Minerals
"Calcium, Ca",mg,--,--,249,163
"Iron, Fe",mg,--,--,1.38,0.90
"Sodium, Na",mg,--,--,770,503
Vitamins
"Vitamin C, total ascorbic acid",mg,--,--,11.5,7.5
"Vitamin A, IU",IU,--,--,638,417
Lipids
"Fatty acids, total saturated",g,--,--,5.003,3.270
"Fatty acids, total trans",g,--,--,0.000,0.000
"Cholesterol",mg,--,--,24,16
Amino Acids
Other
Ingredients
"CRUST (ENRICHED WHEAT FLOUR [{FLOUR, NIACIN, REDUCED IRON, THIAMIN MONONITRATE, RIBOFLAVIN, FOLIC ACID}, MALTED BARLEY FLOUR, ASCORBIC ACID], WATER, SOYBEAN OIL, BREAD CRUMBS [WHEAT FLOUR, YEAST, SUGAR, SALT], YEAST, 2% OR LESS OF THE FOLLOWING: HONEY, SUGAR, SALT), CHEESES (LOW MOISTURE PART SKIM MOZZARELLA CHEESE [PASTEURIZED PART SKIM MILK, CHEESE CULTURES, SALT, ENZYMES], PARMESAN AND ROMANO CHEESE BLEND [BOTH MADE FROM PASTEURIZED COW'S MILK, CHEESE CULTURE, SALT, ENZYMES]), SAUCE (WATER, TOMATOES, SUGAR, SALT, DEHYDRATED GARLIC, SPICE), BROCCOLI, RED BELL PEPPERS, YELLOW BELL PEPPERS, RED ONIONS." Date available: 07/14/2017 Date last updated by company: 07/14/2017
