Source: USDA Branded Food Products Database Release December 2017 Software v.3.8.6.4 2017-10-02
Report Run at: December 18, 2017 09:05 EST
"Nutrient data for: 45271435, PALEO SNACK CLUSTERS, UPC: 855780004331"
Food Group:  Branded Food Products Database
Common Name:

Nutrient,Unit,Data points,Std. Error,"1.5 ONZ = 43.0g",1Value per 100 g,
Proximates
"Energy",kcal,--,--,210,488
"Protein",g,--,--,4.00,9.30
"Total lipid (fat)",g,--,--,16.00,37.21
"Carbohydrate, by difference",g,--,--,14.00,32.56
"Fiber, total dietary",g,--,--,4.0,9.3
"Sugars, total",g,--,--,9.00,20.93
Minerals
"Calcium, Ca",mg,--,--,20,47
"Iron, Fe",mg,--,--,1.67,3.89
"Potassium, K",mg,--,--,105,244
"Sodium, Na",mg,--,--,150,349
Vitamins
"Vitamin C, total ascorbic acid",mg,--,--,0.0,0.0
"Vitamin A, IU",IU,--,--,0,0
Lipids
"Fatty acids, total saturated",g,--,--,7.998,18.600
"Fatty acids, total trans",g,--,--,0.000,0.000
"Cholesterol",mg,--,--,0,0
Amino Acids
Other
Ingredients
"COCONUT FLAKES, DATES, HONEY, WALNUTS, CASHEWS, PUMPKIN SEEDS, ORGANIC FLAX SEEDS, COCONUT OIL, MAPLE EXTRACT, VANILLA EXTRACT, SEA SALT." Date available: 07/14/2017 Date last updated by company: 07/14/2017
