Source: USDA Branded Food Products Database Release December 2017 Software v.3.8.6.4 2017-10-02
Report Run at: December 18, 2017 09:05 EST
"Nutrient data for: 45203760, PALEOSTIX ORIGINAL BEEF STICKS, UPC: 858201005269"
Food Group:  Branded Food Products Database
Common Name:

Nutrient,Unit,Data points,Std. Error,"1 ONZ = 28.0g",1Value per 100 g,
Proximates
"Energy",kcal,--,--,40,143
"Protein",g,--,--,7.00,25.00
"Total lipid (fat)",g,--,--,1.50,5.36
"Carbohydrate, by difference",g,--,--,0.00,0.00
Minerals
"Iron, Fe",mg,--,--,1.29,4.59
"Sodium, Na",mg,--,--,70,250
Vitamins
Lipids
"Fatty acids, total saturated",g,--,--,0.501,1.790
"Cholesterol",mg,--,--,20,71
Amino Acids
Other
Ingredients
"BEEF, SEA SALT, PAPRIKA, BEET POWDER, BLACK PEPPER, GARLIC POWDER, CELERY POWDER, WHITE PEPPER." Date available: 10/19/2017 Date last updated by company: 10/19/2017
