Source: USDA Branded Food Products Database Release December 2017 Software v.3.8.6.4 2017-10-02
Report Run at: December 18, 2017 09:12 EST
"Nutrient data for: 45020552, PALMER'S CANDIES, SEA SALT CARAMEL PRETZEL BARK, UPC: 077232172560"
Food Group:  Branded Food Products Database
Common Name:

Nutrient,Unit,Data points,Std. Error,"40.0 GRM = 40.0g",1Value per 100 g,
Proximates
"Energy",kcal,--,--,200,500
"Protein",g,--,--,2.00,5.00
"Total lipid (fat)",g,--,--,12.00,30.00
"Carbohydrate, by difference",g,--,--,25.00,62.50
"Fiber, total dietary",g,--,--,2.0,5.0
"Sugars, total",g,--,--,16.00,40.00
Minerals
"Calcium, Ca",mg,--,--,0,0
"Iron, Fe",mg,--,--,2.25,5.62
"Sodium, Na",mg,--,--,440,1100
Vitamins
"Vitamin C, total ascorbic acid",mg,--,--,0.0,0.0
"Vitamin A, IU",IU,--,--,0,0
Lipids
"Fatty acids, total saturated",g,--,--,11.000,27.500
"Fatty acids, total trans",g,--,--,0.000,0.000
"Cholesterol",mg,--,--,0,0
Amino Acids
Other
Ingredients
"SUGAR, HYDROGENATED PALM KERNEL OIL, COCOA POWDER (PROCESSED WITH ALKALI), ENRICHED WHEAT FLOUR (WHEAT FLOUR, NIACIN, REDUCED IRON, THIAMIN MONONITRATE, RIBOFLAVIN, FOLIC ACID), WHEY POWDER, PARTIALLY HYDROGENATED PALM KERNEL OIL, REDUCED MINERAL WHEY POWDER, WHOLE MILK SOLIDS, SEA SALT, CORN SYRUP, SODIUM BICARBONATE, NONFAT DRY MILK SOLIDS, YEAST, ARTIFICIAL COLORS INCLUDING: YELLOW 5 LAKE, YELLOW 6 LAKE, BLUE 2 LAKE, SOY LECITHIN (AN EMULSIFIER), NATURAL AND ARTIFICIAL FLAVORS, SALT." Date available: 06/25/2017 Date last updated by company: 06/25/2017
