Source: USDA Branded Food Products Database Release December 2017 Software v.3.8.6.4 2017-10-02
Report Run at: December 18, 2017 09:15 EST
"Nutrient data for: 45134850, PAM Baking Cooking Spray, UNPREPARED, GTIN: 00064144030095"
Food Group:  Branded Food Products Database
Common Name:

Nutrient,Unit,Data points,Std. Error,"0.333 Second Spray (0.27g) = 0.27g",1Value per 100 g,
Proximates
"Energy",kcal,--,--,0,0
"Protein",g,--,--,0.00,0.00
"Total lipid (fat)",g,--,--,0.00,0.00
"Carbohydrate, by difference",g,--,--,0.00,0.00
"Fiber, total dietary",g,--,--,0.0,0.0
"Sugars, total",g,--,--,0.00,0.00
Minerals
"Calcium, Ca",mg,--,--,0,0
"Iron, Fe",mg,--,--,0.00,0.00
"Potassium, K",mg,--,--,0,0
"Sodium, Na",mg,--,--,0,0
Vitamins
"Vitamin C, total ascorbic acid",mg,--,--,0.0,0.0
"Vitamin A, IU",IU,--,--,0,0
Lipids
"Fatty acids, total saturated",g,--,--,0.000,0.000
"Fatty acids, total monounsaturated",g,--,--,0.000,0.000
"Fatty acids, total polyunsaturated",g,--,--,0.000,0.000
"Fatty acids, total trans",g,--,--,0.000,0.000
"Cholesterol",mg,--,--,0,0
Amino Acids
Other
Ingredients
"Canola Oil*, Palm Oil*, Coconut Oil*, Lecithin from Soybeans, Wheat Flour, Silicon Dioxide, Artificial Flavor. CONTAINS: SOY. Also contains propellant to dispense spray. *Adds a trivial amount of flavor." Date available: 10/12/2017 Date last updated by company: 10/12/2017
