Source: USDA Branded Food Products Database Release December 2017 Software v.3.8.6.4 2017-10-02
Report Run at: December 18, 2017 09:15 EST
"Nutrient data for: 45319108, PAMANA, UNFLAVORED GULAMAN, ORANGE, UPC: 795981490253"
Food Group:  Branded Food Products Database
Common Name:

Nutrient,Unit,Data points,Std. Error,"22.0 GRM = 22.0g",1Value per 100 g,
Proximates
"Energy",kcal,--,--,80,364
"Protein",g,--,--,1.00,4.55
"Total lipid (fat)",g,--,--,0.00,0.00
"Carbohydrate, by difference",g,--,--,20.00,90.91
"Sugars, total",g,--,--,20.00,90.91
Minerals
"Sodium, Na",mg,--,--,25,114
Vitamins
Lipids
Amino Acids
Other
Ingredients
"SUGAR, CARRAGEENAN, POTASSIUM CITRATE, POTASSIUM CHLORIDE, FUMARIC ACID, FD&C YELLOW #5, RED #40." Date available: 07/14/2017 Date last updated by company: 07/14/2017
