Source: USDA Branded Food Products Database Release December 2017 Software v.3.8.6.4 2017-10-02
Report Run at: December 18, 2017 09:16 EST
"Nutrient data for: 45311525, PAMELA'S, PECAN SHORTBREAD, UPC: 093709101000"
Food Group:  Branded Food Products Database
Common Name:

Nutrient,Unit,Data points,Std. Error,"1 COOKIE = 23.0g",1Value per 100 g,
Proximates
"Energy",kcal,--,--,130,565
"Protein",g,--,--,1.00,4.35
"Total lipid (fat)",g,--,--,8.00,34.78
"Carbohydrate, by difference",g,--,--,14.00,60.87
"Fiber, total dietary",g,--,--,0.5,2.2
"Sugars, total",g,--,--,5.00,21.74
Minerals
"Calcium, Ca",mg,--,--,0,0
"Iron, Fe",mg,--,--,0.00,0.00
"Sodium, Na",mg,--,--,70,304
Vitamins
"Vitamin C, total ascorbic acid",mg,--,--,0.0,0.0
"Vitamin A, IU",IU,--,--,0,0
Lipids
"Fatty acids, total saturated",g,--,--,4.000,17.390
"Fatty acids, total trans",g,--,--,0.000,0.000
"Cholesterol",mg,--,--,20,87
Amino Acids
Other
Ingredients
"FLOUR BASE (BROWN RICE FLOUR, WHITE RICE FLOUR, TAPIOCA STARCH, SWEET RICE FLOUR, XANTHAN GUM); BUTTER (SALTED); ORGANIC EVAPORATED CANE SUGAR; PECANS; XANTHAN GUM; NATURAL VANILLA FLAVOR." Date available: 07/14/2017 Date last updated by company: 07/14/2017
