Source: USDA Branded Food Products Database Release December 2017 Software v.3.8.6.4 2017-10-02
Report Run at: December 18, 2017 09:18 EST
"Nutrient data for: 45243578, PANANG GINGER CURRY SIMMER SAUCE, UPC: 085239305232"
Food Group:  Branded Food Products Database
Common Name:

Nutrient,Unit,Data points,Std. Error,"0.5 cup = 120.0g",1Value per 100 g,
Proximates
"Energy",kcal,--,--,170,142
"Protein",g,--,--,1.00,0.83
"Total lipid (fat)",g,--,--,13.00,10.83
"Carbohydrate, by difference",g,--,--,11.00,9.17
"Fiber, total dietary",g,--,--,1.0,0.8
"Sugars, total",g,--,--,7.00,5.83
Minerals
"Calcium, Ca",mg,--,--,20,17
"Iron, Fe",mg,--,--,0.36,0.30
"Sodium, Na",mg,--,--,600,500
Vitamins
"Vitamin C, total ascorbic acid",mg,--,--,0.6,0.5
"Vitamin A, IU",IU,--,--,50,42
Lipids
"Fatty acids, total saturated",g,--,--,6.996,5.830
"Fatty acids, total trans",g,--,--,0.000,0.000
"Cholesterol",mg,--,--,0,0
Amino Acids
Other
Ingredients
"WATER, COCONUT CREAM, CANOLA OIL, GINGER, SUGAR, TOMATO PASTE, SPICES, CONTAINS 2% OR LESS OF: GARLIC, NATURAL FLAVOR, SALT, RED JALAPENO PEPPERS, MODIFIED CORN STARCH, LEMONGRASS, LEMON PEEL, DRIED ONION, LEMON PULP, LIME JUICE CONCENTRATE, LEMON JUICE CONCENTRATE, XANTHAN GUM, CITRIC ACID, TURMERIC, ACETIC ACID." Date available: 07/14/2017 Date last updated by company: 07/14/2017
