Source: USDA Branded Food Products Database Release December 2017 Software v.3.8.6.4 2017-10-02
Report Run at: December 18, 2017 09:21 EST
"Nutrient data for: 45057470, PANCAKE & WAFFLE MIX, UPC: 856017003370"
Food Group:  Branded Food Products Database
Common Name:

Nutrient,Unit,Data points,Std. Error,"4.0 """" PANCAKES) | (MAKES ABOUT TWO = 35.0g",1Value per 100 g,
Proximates
"Energy",kcal,--,--,130,371
"Protein",g,--,--,2.00,5.71
"Total lipid (fat)",g,--,--,2.00,5.71
"Carbohydrate, by difference",g,--,--,25.00,71.43
"Fiber, total dietary",g,--,--,2.0,5.7
"Sugars, total",g,--,--,4.00,11.43
Minerals
"Calcium, Ca",mg,--,--,100,286
"Iron, Fe",mg,--,--,0.41,1.18
"Sodium, Na",mg,--,--,240,686
Vitamins
"Vitamin C, total ascorbic acid",mg,--,--,0.0,0.0
"Vitamin A, IU",IU,--,--,0,0
Lipids
"Fatty acids, total saturated",g,--,--,0.000,0.000
"Fatty acids, total trans",g,--,--,0.000,0.000
"Cholesterol",mg,--,--,0,0
Amino Acids
Other
Ingredients
"ORGANIC BROWN RICE FLOUR, ORGANIC POTATO STARCH, HAZELNUT MEAL, WHITE RICE FLOUR, BUTTERMILK, ORGANIC EVAPORATED CANE JUICE LEAVENING (MONOCALCIUM PHOSPHATE, SODIUM BICARBONATE, NON-GMO CORN STARCH), CASSAVA STARCH, SALT, NATURAL FLAVOR, XANTHAN GUM." Date available: 07/14/2017 Date last updated by company: 07/14/2017
