Source: USDA Branded Food Products Database Release December 2017 Software v.3.8.6.4 2017-10-02
Report Run at: December 18, 2017 09:21 EST
"Nutrient data for: 45105781, PANCAKE & WAFFLE MIX, UPC: 00545488"
Food Group:  Branded Food Products Database
Common Name:

Nutrient,Unit,Data points,Std. Error,"3.0 PANCAKES PREPARED = 43.0g",1Value per 100 g,
Proximates
"Energy",kcal,--,--,140,326
"Protein",g,--,--,3.00,6.98
"Total lipid (fat)",g,--,--,1.00,2.33
"Carbohydrate, by difference",g,--,--,32.00,74.42
"Fiber, total dietary",g,--,--,2.0,4.7
"Sugars, total",g,--,--,8.00,18.60
Minerals
"Calcium, Ca",mg,--,--,40,93
"Iron, Fe",mg,--,--,0.34,0.78
"Sodium, Na",mg,--,--,320,744
Vitamins
"Vitamin C, total ascorbic acid",mg,--,--,0.0,0.0
"Vitamin A, IU",IU,--,--,0,0
Lipids
"Fatty acids, total saturated",g,--,--,0.000,0.000
"Fatty acids, total trans",g,--,--,0.000,0.000
"Cholesterol",mg,--,--,0,0
Amino Acids
Other
Ingredients
"WHITE SORGHUM FLOUR, POTATO STARCH, CANE SUGAR, TAPIOCA FLOUR, BUTTERMILK POWDER (MILK), BAKING POWDER (SODIUM ACID PYROPHOSPHATE, BAKING SODA, MONOCALCIUM PHOSPHATE), EXPELLER PRESSED CANOLA OIL, SEA SALT, ORGANIC VANILLA FLAVOR, NATURAL FLAVORS, XANTHAN GUM." Date available: 06/25/2017 Date last updated by company: 06/25/2017
