Source: USDA Branded Food Products Database Release December 2017 Software v.3.8.6.4 2017-10-02
Report Run at: December 18, 2017 09:23 EST
"Nutrient data for: 45331253, PANCAKE & WAFFLE MIX, UPC: 688267175947"
Food Group:  Branded Food Products Database
Common Name:

Nutrient,Unit,Data points,Std. Error,"2.0 PANCAKES | DRY MIX, MAKES = 50.0g",1Value per 100 g,
Proximates
"Energy",kcal,--,--,170,340
"Protein",g,--,--,6.00,12.00
"Total lipid (fat)",g,--,--,0.50,1.00
"Carbohydrate, by difference",g,--,--,37.00,74.00
"Fiber, total dietary",g,--,--,5.0,10.0
"Sugars, total",g,--,--,11.00,22.00
Minerals
"Calcium, Ca",mg,--,--,80,160
"Iron, Fe",mg,--,--,1.44,2.88
"Sodium, Na",mg,--,--,340,680
Vitamins
"Vitamin C, total ascorbic acid",mg,--,--,0.9,1.9
"Vitamin A, IU",IU,--,--,80,160
Lipids
"Fatty acids, total saturated",g,--,--,0.000,0.000
"Fatty acids, total trans",g,--,--,0.000,0.000
"Cholesterol",mg,--,--,0,0
Amino Acids
Other
Ingredients
"WHEAT FLOUR (MILLED WHEAT, MALTED BARLEY FLOUR), SUGAR, PUMPKIN POWDER, PUMPKIN FLAKES, SPICES, NON-ALUMINUM BAKING POWDER (SODIUM ACID PYROPHOSPHATE, SODIUM BICARBONATE, CORNSTARCH, MONOCALCIUM PHOSPHATE), BAKING SODA, SALT, NATURAL VANILLA FLAVOR." Date available: 10/13/2017 Date last updated by company: 10/13/2017
