Source: USDA Branded Food Products Database Release December 2017 Software v.3.8.6.4 2017-10-02
Report Run at: December 18, 2017 09:26 EST
"Nutrient data for: 45193860, PANERA BREAD, THAI CHILI LIME VINAIGRETTE DRESSING, UPC: 018959001290"
Food Group:  Branded Food Products Database
Common Name:

Nutrient,Unit,Data points,Std. Error,"2.0 Tbsp = 30.0g",1Value per 100 g,
Proximates
"Energy",kcal,--,--,40,133
"Protein",g,--,--,0.00,0.00
"Total lipid (fat)",g,--,--,1.00,3.33
"Carbohydrate, by difference",g,--,--,7.00,23.33
"Fiber, total dietary",g,--,--,0.0,0.0
"Sugars, total",g,--,--,5.00,16.67
Minerals
"Calcium, Ca",mg,--,--,0,0
"Iron, Fe",mg,--,--,0.61,2.03
"Sodium, Na",mg,--,--,140,467
Vitamins
"Vitamin C, total ascorbic acid",mg,--,--,0.0,0.0
"Vitamin A, IU",IU,--,--,169,563
Lipids
"Fatty acids, total saturated",g,--,--,0.000,0.000
"Fatty acids, total trans",g,--,--,0.000,0.000
"Cholesterol",mg,--,--,0,0
Amino Acids
Other
Ingredients
"FILTERED WATER, RICE VINEGAR, SUGAR, SOY SAUCE(WATER, WHEAT, SOYBEANS, SALT, LACTIC ACID), LEMONGRASS, SESAME OIL, CONTAINS LESS THAN 2% OF FOOD STARCH-MODIFIED, SPICE, LIME JUICE CONCENTRATE, RED PEPPER, XANTHAN GUM, NATURAL FLAVORS." Date available: 07/14/2017 Date last updated by company: 07/14/2017
