Source: USDA Branded Food Products Database Release December 2017 Software v.3.8.6.4 2017-10-02
Report Run at: December 18, 2017 09:27 EST
"Nutrient data for: 45267597, PANETTONE WITH ORANGE AND CHOCOLATE, UPC: 672640315600"
Food Group:  Branded Food Products Database
Common Name:

Nutrient,Unit,Data points,Std. Error,"83.3 GRM = 83.3g",1Value per 100 g,
Proximates
"Energy",kcal,--,--,333,400
"Protein",g,--,--,5.00,6.00
"Total lipid (fat)",g,--,--,13.00,15.61
"Carbohydrate, by difference",g,--,--,48.00,57.62
"Fiber, total dietary",g,--,--,2.0,2.4
"Sugars, total",g,--,--,21.00,25.21
Minerals
"Calcium, Ca",mg,--,--,30,36
"Iron, Fe",mg,--,--,1.21,1.45
"Sodium, Na",mg,--,--,158,190
Vitamins
"Vitamin C, total ascorbic acid",mg,--,--,0.0,0.0
"Vitamin A, IU",IU,--,--,288,346
Lipids
"Fatty acids, total saturated",g,--,--,7.997,9.600
"Fatty acids, total trans",g,--,--,0.000,0.000
"Cholesterol",mg,--,--,104,125
Amino Acids
Other
Ingredients
"WHEAT FLOUR, CANDIED ORANGE PEELS 19% (ORANGE PEELS 52,5%, GLUCOSE - FRUCTOSE SYRUP, SACCHAROSE, CONCENTRATED LEMON JUICE), BUTTER, SUGAR, EGG YOLK, DARK CHOCOLATE 7% (SUGAR, COCOA PASTE, COCOA BUTTER, EMULSIFIER: SOYA LECITHIN, VANILLA NATURAL FLAVOR), NATURAL MOTHER YEAST, EMULSIFIER: MONO AND DIGLYCERIDES OF FATTY ACIDS OF VEGETABLE ORIGIN - SUNFLOWER LECITHIN, INVERTED SUGAR SYRUP, SALT, WHEAT MALT, NATURAL FLAVORS, VANILLA EXTRACT (FROM MADAGASCAR BEANS)." Date available: 10/11/2017 Date last updated by company: 10/11/2017
