Source: USDA Branded Food Products Database Release December 2017 Software v.3.8.6.4 2017-10-02
Report Run at: December 18, 2017 09:30 EST
"Nutrient data for: 45095028, PANTAINORASINGH BRAND, BAMBOO SHOOT, UPC: 816125000609"
Food Group:  Branded Food Products Database
Common Name:

Nutrient,Unit,Data points,Std. Error,"0.67 cup = 136.0g",1Value per 100 g,
Proximates
"Energy",kcal,--,--,15,11
"Protein",g,--,--,1.01,0.74
"Total lipid (fat)",g,--,--,0.00,0.00
"Carbohydrate, by difference",g,--,--,3.01,2.21
"Fiber, total dietary",g,--,--,0.0,0.0
"Sugars, total",g,--,--,0.00,0.00
Minerals
"Calcium, Ca",mg,--,--,0,0
"Iron, Fe",mg,--,--,0.69,0.51
"Sodium, Na",mg,--,--,1680,1235
Vitamins
"Vitamin C, total ascorbic acid",mg,--,--,0.0,0.0
"Vitamin A, IU",IU,--,--,0,0
Lipids
"Fatty acids, total saturated",g,--,--,0.000,0.000
"Fatty acids, total trans",g,--,--,0.000,0.000
"Cholesterol",mg,--,--,0,0
Amino Acids
Other
Ingredients
"BAMBOO SHOOT (59%), WATER, BAI YANANG (3%), SALT, ACIDITY REGULATOR (CITRIC ACID : E330), PRESERVATIVE (SODIUM BENZOATE : E211), FLAVOUR ENHANCERS (MONOSODIUM GLUTAMATE : E621, DISODIUM 5'-INOSINATE: E631, DISODIUM 5'-GUANYLATE : E627)." Date available: 06/25/2017 Date last updated by company: 06/25/2017
