Source: USDA Branded Food Products Database Release December 2017 Software v.3.8.6.4 2017-10-02
Report Run at: December 18, 2017 09:32 EST
"Nutrient data for: 45154656, PAPAS, WHITE COVERED OPERA CREAM, UPC: 012065002202"
Food Group:  Branded Food Products Database
Common Name:

Nutrient,Unit,Data points,Std. Error,"1 EGG = 31.5g",1Value per 100 g,
Proximates
"Energy",kcal,--,--,140,444
"Protein",g,--,--,0.00,0.00
"Total lipid (fat)",g,--,--,3.00,9.52
"Carbohydrate, by difference",g,--,--,23.00,73.02
"Fiber, total dietary",g,--,--,0.0,0.0
"Sugars, total",g,--,--,23.00,73.02
Minerals
"Calcium, Ca",mg,--,--,10,32
"Iron, Fe",mg,--,--,0.00,0.00
"Sodium, Na",mg,--,--,20,63
Vitamins
"Vitamin C, total ascorbic acid",mg,--,--,0.0,0.0
"Vitamin A, IU",IU,--,--,158,503
Lipids
"Fatty acids, total saturated",g,--,--,2.000,6.350
"Fatty acids, total trans",g,--,--,0.000,0.000
"Cholesterol",mg,--,--,12,38
Amino Acids
Other
Ingredients
"SUGAR, WHITE COATING (SUGAR, PALM KERNEL OIL, NON-FAT MILK, SWEET DAIRY WHEY - MILK, LACTOSE - MILK, MILK FAT, BUTTERMILK, SODIUM CASEINATE - MILK, SOY LECITHIN - ON EMULSIFIER, HYDROGENATED PALM OIL, ARTIFICIAL FLAVORS), HEAVY CREAM, WHOLE MILK, WATER, SALT, INVERTASE" Date available: 07/14/2017 Date last updated by company: 07/14/2017
