Source: USDA Branded Food Products Database Release December 2017 Software v.3.8.6.4 2017-10-02
Report Run at: December 18, 2017 09:37 EST
"Nutrient data for: 45123098, PARADE, INSTANT OATMEAL, APPLE & CINNAMON, UPC: 050700291734"
Food Group:  Branded Food Products Database
Common Name:

Nutrient,Unit,Data points,Std. Error,"1 PACKET = 35.0g",1Value per 100 g,
Proximates
"Energy",kcal,--,--,130,371
"Protein",g,--,--,3.00,8.57
"Total lipid (fat)",g,--,--,1.50,4.29
"Carbohydrate, by difference",g,--,--,27.00,77.14
"Fiber, total dietary",g,--,--,3.0,8.6
"Sugars, total",g,--,--,12.00,34.29
Minerals
"Calcium, Ca",mg,--,--,100,286
"Iron, Fe",mg,--,--,5.66,16.16
"Magnesium, Mg",mg,--,--,50,144
"Phosphorus, P",mg,--,--,157,449
"Sodium, Na",mg,--,--,170,486
Vitamins
"Vitamin C, total ascorbic acid",mg,--,--,0.0,0.0
"Thiamin",mg,--,--,0.350,1.000
"Riboflavin",mg,--,--,0.340,0.971
"Niacin",mg,--,--,6.286,17.960
"Vitamin B-6",mg,--,--,0.629,1.796
"Vitamin A, IU",IU,--,--,1572,4490
Lipids
"Fatty acids, total saturated",g,--,--,0.000,0.000
"Fatty acids, total monounsaturated",g,--,--,0.500,1.430
"Fatty acids, total polyunsaturated",g,--,--,0.500,1.430
"Fatty acids, total trans",g,--,--,0.000,0.000
"Cholesterol",mg,--,--,0,0
Amino Acids
Other
Ingredients
"WHOLE GRAIN ROLLED OATS (WITH OAT BRAN), SUGAR, DEHYDRATED APPLES (TREATED WITH SULFUR DIOXIDE AND SODIUM SULFITE TO PROMOTE COLOR RETENTION), CINNAMON, SALT, CALCIUM CARBONATE (A SOURCE OF CALCIUM), NATURAL FLAVOR, CITRIC ACID, GUAR GUM, FERRIC PHOSPHATE (A SOURCE OF IRON), NIACINAMIDE*, PYRIDOXINE HYDROCHLORIDE (VITAMIN B6)*, RIBOFAVIN*, VITAMIN A PALMITATE, THIAMIN MONONITRATE*, FOLIC ACID*." Date available: 06/25/2017 Date last updated by company: 06/25/2017
