Source: USDA Branded Food Products Database Release December 2017 Software v.3.8.6.4 2017-10-02
Report Run at: December 18, 2017 09:39 EST
"Nutrient data for: 45256894, PARFAIT, UPC: 053495160063"
Food Group:  Branded Food Products Database
Common Name:

Nutrient,Unit,Data points,Std. Error,"6.5 ONZ = 184.0g",1Value per 100 g,
Proximates
"Energy",kcal,--,--,250,136
"Protein",g,--,--,6.00,3.26
"Total lipid (fat)",g,--,--,2.50,1.36
"Carbohydrate, by difference",g,--,--,51.00,27.72
"Fiber, total dietary",g,--,--,2.9,1.6
"Sugars, total",g,--,--,29.99,16.30
Minerals
"Calcium, Ca",mg,--,--,151,82
"Iron, Fe",mg,--,--,0.24,0.13
"Sodium, Na",mg,--,--,169,92
Vitamins
"Vitamin C, total ascorbic acid",mg,--,--,5.9,3.2
"Vitamin A, IU",IU,--,--,326,177
Lipids
"Fatty acids, total saturated",g,--,--,0.994,0.540
"Fatty acids, total trans",g,--,--,0.000,0.000
"Cholesterol",mg,--,--,9,5
Amino Acids
Other
Ingredients
"LOWFAT VANILLA YOGURT (CULTURED PASTEURIZED GRADE A LOW FAT MILK, SUGAR, MODIFIED CORN STARCH, KOSHER GELATIN, NATURAL FLAVOR, POTASSIUM SORBATE ADDED TO MAINTAIN FRESHNESS, VITAMIN A ACETATE, VITAMIN D3), OATS 'N HONEY WITH GRANOLA BAR PCS (WHOLE GRAIN OATS, SUGAR, CANOLA OIL, YELLOW CORN FLOUR, BROWN SUGAR SYRUP, SALT, SOY LECITHIN, BAKING SODA, NATURAL FLAVOR), FRESH STRAWBERRIES AND BLUEBERRIES." Date available: 07/14/2017 Date last updated by company: 07/14/2017
