Source: USDA Branded Food Products Database Release December 2017 Software v.3.8.6.4 2017-10-02
Report Run at: December 18, 2017 09:39 EST
"Nutrient data for: 45133970, PARKAY Soft Spread, UNPREPARED, GTIN: 00027000310090"
Food Group:  Branded Food Products Database
Common Name:

Nutrient,Unit,Data points,Std. Error,"1 Tbsp (12g) = 12.0g",1Value per 100 g,
Proximates
"Energy",kcal,--,--,70,583
"Protein",g,--,--,0.00,0.00
"Total lipid (fat)",g,--,--,8.00,66.67
"Carbohydrate, by difference",g,--,--,1.00,8.33
"Fiber, total dietary",g,--,--,0.0,0.0
"Sugars, total",g,--,--,0.00,0.00
Minerals
"Calcium, Ca",mg,--,--,0,0
"Iron, Fe",mg,--,--,0.00,0.00
"Potassium, K",mg,--,--,0,0
"Sodium, Na",mg,--,--,90,750
Vitamins
"Vitamin C, total ascorbic acid",mg,--,--,0.0,0.0
"Vitamin A, IU",IU,--,--,300,2500
Lipids
"Fatty acids, total saturated",g,--,--,2.000,16.670
"Fatty acids, total monounsaturated",g,--,--,2.000,16.670
"Fatty acids, total polyunsaturated",g,--,--,3.500,29.170
"Fatty acids, total trans",g,--,--,0.000,0.000
"Cholesterol",mg,--,--,0,0
Amino Acids
Other
Ingredients
"Soybean Oil, Water, Palm Oil, Palm Kernel Oil, NonFat Milk, Less than 2% of: Salt, Dried Whey, Buttermilk (Water, Buttermilk Powder), Emulsifiers (Mono- and Diglycerides, Soy Lecithin), Preservatives (Potassium Sorbate, Sodium Benzoate), Natural and Artificial Flavors, Phosphoric Acid, Vitamin A Palmitate, Beta Carotene (Color).    CONTAINS: MILK, SOY" Date available: 10/11/2017 Date last updated by company: 10/11/2017
