Source: USDA Branded Food Products Database Release December 2017 Software v.3.8.6.4 2017-10-02
Report Run at: December 18, 2017 09:45 EST
"Nutrient data for: 45198015, PARMESAN RISOTTO, UPC: 071117021288"
Food Group:  Branded Food Products Database
Common Name:

Nutrient,Unit,Data points,Std. Error,"1 cup = 196.0g",1Value per 100 g,
Proximates
"Energy",kcal,--,--,270,138
"Protein",g,--,--,7.00,3.57
"Total lipid (fat)",g,--,--,12.99,6.63
"Carbohydrate, by difference",g,--,--,31.01,15.82
"Fiber, total dietary",g,--,--,1.0,0.5
"Sugars, total",g,--,--,1.00,0.51
Minerals
"Calcium, Ca",mg,--,--,151,77
"Iron, Fe",mg,--,--,0.08,0.04
"Sodium, Na",mg,--,--,760,388
Vitamins
"Vitamin C, total ascorbic acid",mg,--,--,0.2,0.1
"Vitamin A, IU",IU,--,--,116,59
Lipids
"Fatty acids, total saturated",g,--,--,7.997,4.080
"Fatty acids, total trans",g,--,--,0.000,0.000
"Cholesterol",mg,--,--,45,23
Amino Acids
Other
Ingredients
"COOKED RICE (WATER, PARBOILED WHITE RICE), WATER, HEAVY CREAM (CREAM, SODIUM CITRATE, CARRAGEENAN, POLYSORBATE 80), PARMESAN CHEESE (PASTEURIZED PART-SKIM MILK, CHEESE CULTURE, SALT, ENZYMES), ONION, ROASTED VEGETABLE BASE {VEGETABLE BLEND [PUREES {CARROT, CELERY, ONION, SAUTEED ONION, RED BELL PEPPER}, DEHYDRATED {TOMATO, CARROTS, GREEN BELL PEPPER, ONION}, JUICES {ONION, GARLIC, SHALLOT, CARROT}], SUGAR, SALT, YEAST EXTRACT, HYDROLYZED CORN PROTEIN, CONTAINS 2% OR LESS OF THE FOLLOWING: MALTODEXTRIN, CANOLA OIL, NATURAL FLAVOR, DISODIUM INOSINATE, DISODIUM GUANYLATE, MODIFIED FOOD STARCH, SPICE, HYDROLYZED SOY PROTEIN, BURGUNDY WINE SOLIDS), MODIFIED CORN STARCH, BUTTER (SWEET CREAM, SALT), COOKING WINE (SAUTERNE WINE, SALT, SODIUM METABISULFITE AS A PRESERVATIVE), ONION POWDER, SALT, PARMESAN AND ROMANO CHEESE BASE (PARMESAN AND ROMANO CHEESE [MILK, CULTURE, ENZYMES, SALT], WATER, WHEY, SALT, MODIFIED CORN STARCH, CULTURED BUTTERMILK SOLIDS, CALCIUM AND SODIUM CASEINATES, NATURAL FLAVORING, AND GARLIC POWDER), GARLIC MINCED IN OIL (GARLIC, SOYBEAN OIL, CITRIC ACID), POTASSIUM SORBATE AND SODIUM BENZOATE TO PROTECT FLAVOR, DEHYDRATED PARSLEY, XANTHAN GUM, SPICE." Date available: 07/14/2017 Date last updated by company: 07/14/2017
