Source: USDA Branded Food Products Database Release December 2017 Software v.3.8.6.4 2017-10-02
Report Run at: December 18, 2017 09:45 EST
"Nutrient data for: 45003369, PARMESAN & ROMANO CHEESE, UPC: 041498193225"
Food Group:  Branded Food Products Database
Common Name:

Nutrient,Unit,Data points,Std. Error,"1 Tbsp = 5.0g",1Value per 100 g,
Proximates
"Energy",kcal,--,--,20,400
"Protein",g,--,--,2.00,40.00
"Total lipid (fat)",g,--,--,1.50,30.00
"Carbohydrate, by difference",g,--,--,0.00,0.00
Minerals
"Calcium, Ca",mg,--,--,60,1200
"Sodium, Na",mg,--,--,95,1900
Vitamins
"Vitamin A, IU",IU,--,--,1000,20000
Lipids
"Fatty acids, total saturated",g,--,--,1.000,20.000
"Cholesterol",mg,--,--,5,100
Amino Acids
Other
Ingredients
"PARMESAN CHEESE (PASTEURIZED CULTURED MILK, SALT, ENZYMES), ROMANO CHEESE (PASTEURIZED CULTURED SHEEP'S MILK, SALT ENZYMES). POWDERED CELLULOSE (ADDED TO PREVENT CAKING). POTASSIUM SORBATE TO PROTECT FLAVOR." Date available: 07/14/2017 Date last updated by company: 07/14/2017
