Source: USDA Branded Food Products Database Release December 2017 Software v.3.8.6.4 2017-10-02
Report Run at: December 18, 2017 09:47 EST
"Nutrient data for: 45039019, PARMESAN STYLE GRATED TOPPING, UPC: 041250209126"
Food Group:  Branded Food Products Database
Common Name:

Nutrient,Unit,Data points,Std. Error,"2.0 tsp = 5.0g",1Value per 100 g,
Proximates
"Energy",kcal,--,--,15,300
"Protein",g,--,--,1.00,20.00
"Total lipid (fat)",g,--,--,0.50,10.00
"Carbohydrate, by difference",g,--,--,1.00,20.00
"Fiber, total dietary",g,--,--,0.0,0.0
"Sugars, total",g,--,--,0.00,0.00
Minerals
"Calcium, Ca",mg,--,--,20,400
"Iron, Fe",mg,--,--,0.00,0.00
"Sodium, Na",mg,--,--,150,3000
Vitamins
"Vitamin C, total ascorbic acid",mg,--,--,0.0,0.0
"Vitamin A, IU",IU,--,--,0,0
Lipids
"Fatty acids, total saturated",g,--,--,0.000,0.000
"Fatty acids, total trans",g,--,--,0.000,0.000
"Cholesterol",mg,--,--,30,600
Amino Acids
Other
Ingredients
"IMITATION PARMESAN CHEESE (WATER, CASEIN AND/OR CASEINATE, CORN STARCH, MODIFIED POTATO STARCH, SALT, NATURAL FLAVOR, STABILIZERS [MONO AND DIGLYCERIDES, GUAR GUM, CARRAGEENAN], SODIUM ALUMINUM PHOSPHATE, SODIUM PHOSPHATE, LACTIC ACID, SORBIC ACID [A PRESERVATIVE], PARMESAN CHEESE (PASTEURIZED PART-SKIM MILK, CHEESE CULTURED, SALT, ENZYMES), CELLULOSE (ADDED TO PREVENT CAKING), SALT, POTASSIUM SORBATE (A PRESERVATIVE)." Date available: 07/14/2017 Date last updated by company: 07/14/2017
