Source: USDA Branded Food Products Database Release December 2017 Software v.3.8.6.4 2017-10-02
Report Run at: December 18, 2017 09:45 EST
"Nutrient data for: 45283577, PARMESAN RANCH LARGE-CUT CROUTONS, UPC: 085239084083"
Food Group:  Branded Food Products Database
Common Name:

Nutrient,Unit,Data points,Std. Error,"2.0 Tbsp = 7.0g",1Value per 100 g,
Proximates
"Energy",kcal,--,--,30,429
"Protein",g,--,--,1.00,14.29
"Total lipid (fat)",g,--,--,1.00,14.29
"Carbohydrate, by difference",g,--,--,4.00,57.14
"Fiber, total dietary",g,--,--,0.0,0.0
"Sugars, total",g,--,--,0.00,0.00
Minerals
"Calcium, Ca",mg,--,--,0,0
"Iron, Fe",mg,--,--,2.57,36.75
"Sodium, Na",mg,--,--,80,1143
Vitamins
"Vitamin C, total ascorbic acid",mg,--,--,0.0,0.0
"Vitamin A, IU",IU,--,--,0,0
Lipids
"Fatty acids, total saturated",g,--,--,0.000,0.000
"Fatty acids, total trans",g,--,--,0.000,0.000
"Cholesterol",mg,--,--,0,0
Amino Acids
Other
Ingredients
"ENRICHED FLOUR (WHEAT FLOUR, MALTED BARLEY FLOUR, NIACIN, REDUCED IRON, THIAMIN MONONITRATE, RIBOFLAVIN, FOLIC ACID), CANOLA AND/OR SUNFLOWER OIL, WHEAT GLUTEN, SALT, CULTURED NONFAT MILK, SUGAR, YEAST, 2% OR LESS OF DEHYDRATED PARSLEY, NATURAL FLAVORS (MILK), ONION POWDER, WHEY, GARLIC POWDER, CALCIUM SULFATE, AUTOLYZED YEAST EXTRACT, HYDROLYZED CORN PROTEIN, LACTIC ACID, CALCIUM LACTATE, CITRIC ACID, DISODIUM INOSINATE, DISODIUM GUANYLATE, ROSEMARY EXTRACTIVES AND ASCORBIC ACID (TO PRESERVE FRESHNESS), ENZYMES." Date available: 07/14/2017 Date last updated by company: 07/14/2017
