Source: USDA Branded Food Products Database Release December 2017 Software v.3.8.6.4 2017-10-02
Report Run at: December 18, 2017 09:43 EST
"Nutrient data for: 45188326, PARMESAN CHEESE, UPC: 814258010076"
Food Group:  Branded Food Products Database
Common Name:

Nutrient,Unit,Data points,Std. Error,"2.0 PIECES = 35.0g",1Value per 100 g,
Proximates
"Energy",kcal,--,--,80,229
"Protein",g,--,--,4.00,11.43
"Total lipid (fat)",g,--,--,6.00,17.14
"Carbohydrate, by difference",g,--,--,2.00,5.71
"Sugars, total",g,--,--,2.00,5.71
Minerals
"Calcium, Ca",mg,--,--,150,429
"Sodium, Na",mg,--,--,200,571
Vitamins
"Vitamin A, IU",IU,--,--,428,1224
Lipids
"Fatty acids, total saturated",g,--,--,4.501,12.860
"Cholesterol",mg,--,--,25,71
Amino Acids
Other
Ingredients
"PARMIGIANO REGGIANO PDO CHEESE 25% (MILK, SALT, RENNET), WATER, WHEY, BUTTER, MILK PROTEINS, EMULSIFYING SALTS: SODIUM CITRATE, ACIDITY REGULATOR: CITRIC ACID, THICKENER: CARRAGEENAN." Date available: 10/19/2017 Date last updated by company: 10/19/2017
