Source: USDA Branded Food Products Database Release December 2017 Software v.3.8.6.4 2017-10-02
Report Run at: December 18, 2017 09:51 EST
"Nutrient data for: 45150849, PARTY MIX, UPC: 019646001777"
Food Group:  Branded Food Products Database
Common Name:

Nutrient,Unit,Data points,Std. Error,"40.0 GRM = 40.0g",1Value per 100 g,
Proximates
"Energy",kcal,--,--,232,580
"Protein",g,--,--,7.00,17.50
"Total lipid (fat)",g,--,--,16.00,40.00
"Carbohydrate, by difference",g,--,--,15.00,37.50
"Fiber, total dietary",g,--,--,2.0,5.0
"Sugars, total",g,--,--,1.00,2.50
Minerals
"Calcium, Ca",mg,--,--,60,150
"Iron, Fe",mg,--,--,2.25,5.62
"Sodium, Na",mg,--,--,270,675
Vitamins
Lipids
"Fatty acids, total saturated",g,--,--,2.000,5.000
"Fatty acids, total trans",g,--,--,0.000,0.000
"Cholesterol",mg,--,--,0,0
Amino Acids
Other
Ingredients
"PEANUTS: VEGETABLE/PEANUT OIL, SALT, GARLIC SESAME STICKS (UNBLEACHED WHEAT FLOUR, (CONTAINS MALTED BARLEY AS A NATURAL ENZYME ADDITIVE), SOYBEAN OIL, SESAME SEEDS, BULGUR WHEAT, SALT, GARLIC POWDER, BEET POWDER, (COLOR), TURMERIC (COLOR). CHEDDAR SESAME STICKS: UNBLEACHED WHEAT FLOUR(CONTAINS MALTED BARLEY FLOUR AS A NATURAL ENZYME ADDITIVE), SOYBEAN OIL, BULGUR WHEAT, SESAME SEEDS, CHEESE POWDER, [CHEDDER CHEESE(CULTURED MILK, SALT, ENZYMES), WHEY PROTEIN CONCENTRATE, LACTOSE, BUTTERMILK SOLIDS, SALT, ANNATTO EXTRACT), SALT, ANNATTO (COLOR), CITRIC ACID, POPPY&ONION SESAME STICKS: UNBLEACHED WHEAT FLOUR (CONTAINS MALTED BARLEY FLOUR AS A ENZYME)." Date available: 10/13/2017 Date last updated by company: 10/13/2017
