Source: USDA Branded Food Products Database Release December 2017 Software v.3.8.6.4 2017-10-02
Report Run at: December 18, 2017 09:50 EST
"Nutrient data for: 45323071, PART SKIM RICOTTA CHEESE, UPC: 038259110645"
Food Group:  Branded Food Products Database
Common Name:

Nutrient,Unit,Data points,Std. Error,"0.25 cup = 62.0g",1Value per 100 g,
Proximates
"Energy",kcal,--,--,90,145
"Protein",g,--,--,6.00,9.68
"Total lipid (fat)",g,--,--,5.00,8.06
"Carbohydrate, by difference",g,--,--,3.00,4.84
"Fiber, total dietary",g,--,--,0.0,0.0
"Sugars, total",g,--,--,3.00,4.84
Minerals
"Calcium, Ca",mg,--,--,80,129
"Iron, Fe",mg,--,--,0.00,0.00
"Potassium, K",mg,--,--,113,182
"Sodium, Na",mg,--,--,95,153
Vitamins
"Vitamin D",IU,--,--,0,0
Lipids
"Fatty acids, total saturated",g,--,--,3.001,4.840
"Fatty acids, total trans",g,--,--,0.000,0.000
"Cholesterol",mg,--,--,30,48
Amino Acids
Other
Ingredients
"PASTEURIZED WHEY, PASTEURIZED MILK, VINEGAR, STABILIZER (MODIFIED FOOD STARCH, GUAR GUM, CARRAGEENAN), SALT." Date available: 09/25/2017 Date last updated by company: 09/25/2017
