Source: USDA Branded Food Products Database Release December 2017 Software v.3.8.6.4 2017-10-02
Report Run at: December 18, 2017 09:50 EST
"Nutrient data for: 45280980, PART SKIM RICOTTA CHEESE, UPC: 041303008904"
Food Group:  Branded Food Products Database
Common Name:

Nutrient,Unit,Data points,Std. Error,"0.25 cup = 62.0g",1Value per 100 g,
Proximates
"Energy",kcal,--,--,90,145
"Protein",g,--,--,6.00,9.68
"Total lipid (fat)",g,--,--,6.00,9.68
"Carbohydrate, by difference",g,--,--,4.00,6.45
"Fiber, total dietary",g,--,--,0.0,0.0
"Sugars, total",g,--,--,2.00,3.23
Minerals
"Calcium, Ca",mg,--,--,100,161
"Iron, Fe",mg,--,--,0.00,0.00
"Sodium, Na",mg,--,--,150,242
Vitamins
"Vitamin C, total ascorbic acid",mg,--,--,0.0,0.0
"Vitamin A, IU",IU,--,--,177,286
Lipids
"Fatty acids, total saturated",g,--,--,3.999,6.450
"Fatty acids, total trans",g,--,--,0.000,0.000
"Cholesterol",mg,--,--,30,48
Amino Acids
Other
Ingredients
"PASTEURIZED WHEY, PASTEURIZED MILK, VINEGAR, STABILIZERS (MODIFIED FOOD STARCH, GUAR GUM, CARRAGEENAN), SALT." Date available: 07/14/2017 Date last updated by company: 07/14/2017
