Source: USDA Branded Food Products Database Release December 2017 Software v.3.8.6.4 2017-10-02
Report Run at: December 18, 2017 09:56 EST
"Nutrient data for: 45197069, PASQUALES MILD ITALIAN SAUSAGE MEATBALLS, UPC: 042629007091"
Food Group:  Branded Food Products Database
Common Name:

Nutrient,Unit,Data points,Std. Error,"2.0 MEATBALLS = 114.0g",1Value per 100 g,
Proximates
"Energy",kcal,--,--,180,158
"Protein",g,--,--,17.00,14.91
"Total lipid (fat)",g,--,--,12.00,10.53
"Carbohydrate, by difference",g,--,--,1.00,0.88
"Fiber, total dietary",g,--,--,0.0,0.0
"Sugars, total",g,--,--,0.00,0.00
Minerals
"Calcium, Ca",mg,--,--,21,18
"Iron, Fe",mg,--,--,0.81,0.71
"Sodium, Na",mg,--,--,660,579
Vitamins
"Vitamin C, total ascorbic acid",mg,--,--,0.0,0.0
"Vitamin A, IU",IU,--,--,0,0
Lipids
"Fatty acids, total saturated",g,--,--,3.500,3.070
"Fatty acids, total trans",g,--,--,0.000,0.000
"Cholesterol",mg,--,--,30,26
Amino Acids
Other
Ingredients
"PORK, SEASONINGS (SALT, DEXTROSE, LEMON EXTRACT, SPICES, SPICE EXTRACTIVES), WATER, SODIUM LACTATE." Date available: 07/14/2017 Date last updated by company: 07/14/2017
