Source: USDA Branded Food Products Database Release December 2017 Software v.3.8.6.4 2017-10-02
Report Run at: December 18, 2017 09:58 EST
"Nutrient data for: 45229904, PASSPORTS CARAMEL DROPS, UPC: 072976138315"
Food Group:  Branded Food Products Database
Common Name:

Nutrient,Unit,Data points,Std. Error,"3.0 PIECES = 17.0g",1Value per 100 g,
Proximates
"Energy",kcal,--,--,70,412
"Protein",g,--,--,0.00,0.00
"Total lipid (fat)",g,--,--,1.91,11.24
"Carbohydrate, by difference",g,--,--,16.00,94.12
"Fiber, total dietary",g,--,--,0.0,0.0
"Sugars, total",g,--,--,12.00,70.59
Minerals
"Calcium, Ca",mg,--,--,0,0
"Iron, Fe",mg,--,--,0.00,0.00
"Sodium, Na",mg,--,--,35,206
Vitamins
"Vitamin C, total ascorbic acid",mg,--,--,0.0,0.0
"Vitamin A, IU",IU,--,--,0,0
Lipids
"Fatty acids, total saturated",g,--,--,0.201,1.180
"Fatty acids, total trans",g,--,--,0.000,0.000
"Cholesterol",mg,--,--,5,29
Amino Acids
Other
Ingredients
"SUGAR, GLUCOSE SYRUP, SWEETENED CONDENSED SKIMMED MILK (6%), BUTTER OIL (1%), SALT, CONDENSED WHEY, NATURAL FLAVOR, (CARAMELISED SUGAR SYRUP) CARAMEL, SUNFLOWER LECITHIN (EMULSIFIER)." Date available: 08/28/2017 Date last updated by company: 08/28/2017
