Source: USDA Branded Food Products Database Release December 2017 Software v.3.8.6.4 2017-10-02
Report Run at: December 18, 2017 09:58 EST
"Nutrient data for: 45229913, PASSPORTS CHEWY TOFFEE SPECIALTIES, UPC: 072976600317"
Food Group:  Branded Food Products Database
Common Name:

Nutrient,Unit,Data points,Std. Error,"6.0 PIECES = 40.0g",1Value per 100 g,
Proximates
"Energy",kcal,--,--,170,425
"Total lipid (fat)",g,--,--,4.00,10.00
"Carbohydrate, by difference",g,--,--,32.00,80.00
"Fiber, total dietary",g,--,--,1.0,2.5
"Sugars, total",g,--,--,22.00,55.00
Minerals
"Sodium, Na",mg,--,--,41,102
Vitamins
Lipids
"Fatty acids, total saturated",g,--,--,2.000,5.000
"Cholesterol",mg,--,--,1,2
Amino Acids
Other
Ingredients
"SUGAR, GLUCOSE SYRUP, PALM FAT, CONDENSED SKIMMED MILK (3%), FAT-REDUCED COCOA, SORBITOL (HUMECTANT); SWEET WHEY POWDER, FLAVORS, SUNFLOWER LECITHIN (EMULSIFIER), CHOCOLATE (SUGAR, COCOA MASS, COCOA BUTTER, CLARIFIED BUTTER, SUNFLOWER LECITHIN (EMULSIFIER); FLAVOR); SALT, CARAMEL SUGAR SYRUP." Date available: 10/19/2017 Date last updated by company: 10/19/2017
