Source: USDA Branded Food Products Database Release December 2017 Software v.3.8.6.4 2017-10-02
Report Run at: December 18, 2017 10:16 EST
"Nutrient data for: 45285765, PASTEL MILK NO PAREILS CANDY, UPC: 070784509983"
Food Group:  Branded Food Products Database
Common Name:

Nutrient,Unit,Data points,Std. Error,"16.0 PCS = 42.0g",1Value per 100 g,
Proximates
"Energy",kcal,--,--,210,500
"Protein",g,--,--,1.00,2.38
"Total lipid (fat)",g,--,--,10.00,23.81
"Carbohydrate, by difference",g,--,--,23.00,54.76
"Fiber, total dietary",g,--,--,0.0,0.0
"Sugars, total",g,--,--,22.00,52.38
Minerals
"Calcium, Ca",mg,--,--,60,143
"Iron, Fe",mg,--,--,0.43,1.02
"Sodium, Na",mg,--,--,25,60
Vitamins
"Vitamin C, total ascorbic acid",mg,--,--,0.0,0.0
"Vitamin A, IU",IU,--,--,0,0
Lipids
"Fatty acids, total saturated",g,--,--,7.001,16.670
"Fatty acids, total trans",g,--,--,0.000,0.000
"Cholesterol",mg,--,--,5,12
Amino Acids
Other
Ingredients
"MILK CHOCOLATE (SUGAR, COCOA BUTTER, MILK, CHOCOLATE LIQUOR, SOY LECITHIN [EMULSIFIER], VANILLA), SEEDS (SUGAR, CORNSTARCH, CONFECTIONER'S GLAZE, CARNAUBA WAX, FD&C YELLOW #5, RED #3, BLUE #1)." Date available: 07/14/2017 Date last updated by company: 07/14/2017
