Source: USDA Branded Food Products Database Release December 2017 Software v.3.8.6.4 2017-10-02
Report Run at: December 18, 2017 10:17 EST
"Nutrient data for: 45185149, PASTEURIZED BLUE SWIMMING CRAB MEAT, UPC: 718122455065"
Food Group:  Branded Food Products Database
Common Name:

Nutrient,Unit,Data points,Std. Error,"3.0 OUNCES = 85.0g",1Value per 100 g,
Proximates
"Energy",kcal,--,--,85,100
"Protein",g,--,--,19.00,22.35
"Total lipid (fat)",g,--,--,1.00,1.18
"Carbohydrate, by difference",g,--,--,0.00,0.00
"Fiber, total dietary",g,--,--,0.0,0.0
"Sugars, total",g,--,--,0.00,0.00
Minerals
"Calcium, Ca",mg,--,--,90,106
"Iron, Fe",mg,--,--,1.08,1.27
"Sodium, Na",mg,--,--,220,259
Vitamins
"Vitamin C, total ascorbic acid",mg,--,--,0.0,0.0
"Vitamin A, IU",IU,--,--,100,118
Lipids
"Fatty acids, total saturated",g,--,--,0.000,0.000
"Fatty acids, total trans",g,--,--,0.000,0.000
"Cholesterol",mg,--,--,80,94
Amino Acids
Other
Ingredients
"100% HAND PICKED BLUE SWIMMING CRAB (PORTUNUS PELAGICUS) SODIUM ACID PYROPHOSPHATE ADDED TO RETAIN COLOR." Date available: 07/14/2017 Date last updated by company: 07/14/2017
