Source: USDA Branded Food Products Database Release December 2017 Software v.3.8.6.4 2017-10-02
Report Run at: December 18, 2017 09:58 EST
"Nutrient data for: 45266576, PASTA ALFREDO WITH WHITE CHICKEN & BROCCOLI, UPC: 077890375693"
Food Group:  Branded Food Products Database
Common Name:

Nutrient,Unit,Data points,Std. Error,"10.0 ONZ = 283.0g",1Value per 100 g,
Proximates
"Energy",kcal,--,--,419,148
"Protein",g,--,--,18.99,6.71
"Total lipid (fat)",g,--,--,21.00,7.42
"Carbohydrate, by difference",g,--,--,36.99,13.07
"Fiber, total dietary",g,--,--,1.1,0.4
"Sugars, total",g,--,--,5.01,1.77
Minerals
"Calcium, Ca",mg,--,--,249,88
"Iron, Fe",mg,--,--,1.25,0.44
"Potassium, K",mg,--,--,91,32
"Sodium, Na",mg,--,--,1101,389
Vitamins
"Vitamin C, total ascorbic acid",mg,--,--,3.4,1.2
"Vitamin A, IU",IU,--,--,518,183
Lipids
"Fatty acids, total saturated",g,--,--,9.990,3.530
"Fatty acids, total trans",g,--,--,0.000,0.000
"Cholesterol",mg,--,--,59,21
Amino Acids
Other
Ingredients
"WATER, HALF AND HALF CREAM (MILK, CREAM, DISODIUM PHOSPHATE, SODIUM CITRATE), PENNE PASTA (SEMOLINA [WHEAT], NIACIN, IRON [FERROUS SULFATE], THIAMIN MONONITRATE, RIBOFLAVIN, AND FOLIC ACID), GRILLED SEASONED CHICKEN WHITE MEAT (CHICKEN WHITE MEAT, WATER, POTATO STARCH, SALT), BROCCOLI, MARGARINE (SOYBEAN OIL, PALM OIL, WATER, SALT, MONO AND DIGLYCERIDES, SOYBEAN LECITHIN [SOY], NATURAL BUTTER FLAVOR, COLORED WITH ANNATTO, VITAMIN A PALMITATE ADDED), PARMESAN CHEESE (PASTEURIZED PART SKIM MILK, CHEESE CULTURES, SALT, ENZYMES), IMPORTED ROMANO CHEESE (PASTEURIZED SHEEP'S MILK, CHEESE CULTURES, SALT, ENZYMES), MODIFIED CORN STARCH, WHOLE MILK POWDER, SALT, CRUSHED GARLIC, STABILIZER (MODIFIED FOOD STARCH, SODIUM PHOSPHATE, MONO AND DIGLYCERIDES, XANTHAN GUM, AND GUAR GUM), NATURAL FLAVOR, BLACK PEPPER, PARSLEY." Date available: 07/14/2017 Date last updated by company: 07/14/2017
