Source: USDA Branded Food Products Database Release December 2017 Software v.3.8.6.4 2017-10-02
Report Run at: December 18, 2017 10:00 EST
"Nutrient data for: 45267509, PASTA E FAGIOLI, UPC: 655516151878"
Food Group:  Branded Food Products Database
Common Name:

Nutrient,Unit,Data points,Std. Error,"0.33 cup = 48.0g",1Value per 100 g,
Proximates
"Energy",kcal,--,--,160,333
"Protein",g,--,--,9.00,18.75
"Total lipid (fat)",g,--,--,0.50,1.04
"Carbohydrate, by difference",g,--,--,32.00,66.67
"Fiber, total dietary",g,--,--,10.0,20.8
"Sugars, total",g,--,--,2.00,4.17
Minerals
"Calcium, Ca",mg,--,--,60,125
"Iron, Fe",mg,--,--,1.97,4.10
"Sodium, Na",mg,--,--,10,21
Vitamins
"Vitamin C, total ascorbic acid",mg,--,--,2.6,5.5
"Vitamin A, IU",IU,--,--,1094,2279
Lipids
"Fatty acids, total saturated",g,--,--,0.000,0.000
"Fatty acids, total trans",g,--,--,0.000,0.000
"Cholesterol",mg,--,--,0,0
Amino Acids
Other
Ingredients
"BORLOTTI & BABY LIMA BEANS, GLUTEN FREE NON-GMO CORN PASTA (CORN FLOUR), CARROTS, ONIONS, GARLIC, TOMATOES, RED & GREEN BELL PEPPERS, BASIL, OREGANO, THYME, ROSEMARY, MARJORAM, BAY LEAF." Date available: 07/14/2017 Date last updated by company: 07/14/2017
