Source: USDA Branded Food Products Database Release December 2017 Software v.3.8.6.4 2017-10-02
Report Run at: December 18, 2017 10:07 EST
"Nutrient data for: 45194600, PASTA SAUCE, UPC: 03003406929"
Food Group:  Branded Food Products Database
Common Name:

Nutrient,Unit,Data points,Std. Error,"0.5 cup = 113.0g",1Value per 100 g,
Proximates
"Energy",kcal,--,--,99,88
"Protein",g,--,--,2.00,1.77
"Total lipid (fat)",g,--,--,6.99,6.19
"Carbohydrate, by difference",g,--,--,6.99,6.19
"Fiber, total dietary",g,--,--,1.0,0.9
"Sugars, total",g,--,--,4.00,3.54
Minerals
"Calcium, Ca",mg,--,--,40,35
"Iron, Fe",mg,--,--,0.76,0.67
"Sodium, Na",mg,--,--,360,319
Vitamins
"Vitamin C, total ascorbic acid",mg,--,--,19.0,16.8
"Vitamin A, IU",IU,--,--,792,701
Lipids
"Fatty acids, total saturated",g,--,--,2.497,2.210
"Fatty acids, total trans",g,--,--,0.000,0.000
"Cholesterol",mg,--,--,10,9
Amino Acids
Other
Ingredients
"TOMATOES, HEAVY CREAM, OLIVE OIL, ONIONS, VODKA, PARMESAN CHEESE (PASTEURIZED MILK, CHEESE CULTURES, SALT, ENZYMES, FOOD STARCH, CELLULOSE [TO PREVENT CAKING]), GARLIC, SEA SALT, BASIL, BLACK PEPPER, OREGANO." Date available: 07/14/2017 Date last updated by company: 07/14/2017
