Source: USDA Branded Food Products Database Release December 2017 Software v.3.8.6.4 2017-10-02
Report Run at: December 18, 2017 10:11 EST
"Nutrient data for: 45279430, PASTA SAUCE, UPC: 072431009662"
Food Group:  Branded Food Products Database
Common Name:

Nutrient,Unit,Data points,Std. Error,"0.5 cup = 121.0g",1Value per 100 g,
Proximates
"Energy",kcal,--,--,80,66
"Protein",g,--,--,1.00,0.83
"Total lipid (fat)",g,--,--,6.00,4.96
"Carbohydrate, by difference",g,--,--,6.00,4.96
"Fiber, total dietary",g,--,--,1.0,0.8
"Sugars, total",g,--,--,4.01,3.31
Minerals
"Calcium, Ca",mg,--,--,21,17
"Iron, Fe",mg,--,--,0.38,0.31
"Sodium, Na",mg,--,--,460,380
Vitamins
"Vitamin C, total ascorbic acid",mg,--,--,0.0,0.0
"Vitamin A, IU",IU,--,--,422,349
Lipids
"Fatty acids, total saturated",g,--,--,1.004,0.830
"Fatty acids, total trans",g,--,--,0.000,0.000
"Cholesterol",mg,--,--,0,0
Amino Acids
Other
Ingredients
"SAN MARZANO TOMATOES, WATER, GARLIC, EXTRA VIRGIN OLIVE OIL, SRIRACHA SAUCE (RED JALAPENOS, AGED CAYENNE PEPPERS, SUGAR, SALT, GARLIC, VINEGAR, WATER, CITRIC ACID, NATURAL FLAVOR), BASIL, SEA SALT, SPICE." Date available: 07/14/2017 Date last updated by company: 07/14/2017
