Source: USDA Branded Food Products Database Release December 2017 Software v.3.8.6.4 2017-10-02
Report Run at: December 18, 2017 10:16 EST
"Nutrient data for: 45198336, PASTEL PRETZELS, UPC: 077232181180"
Food Group:  Branded Food Products Database
Common Name:

Nutrient,Unit,Data points,Std. Error,"6.0 PIECES = 30.0g",1Value per 100 g,
Proximates
"Energy",kcal,--,--,140,467
"Protein",g,--,--,2.00,6.67
"Total lipid (fat)",g,--,--,6.00,20.00
"Carbohydrate, by difference",g,--,--,21.00,70.00
"Fiber, total dietary",g,--,--,0.0,0.0
"Sugars, total",g,--,--,12.00,40.00
Minerals
"Calcium, Ca",mg,--,--,40,133
"Iron, Fe",mg,--,--,1.20,4.00
"Sodium, Na",mg,--,--,150,500
Vitamins
"Vitamin C, total ascorbic acid",mg,--,--,0.0,0.0
"Vitamin A, IU",IU,--,--,0,0
Lipids
"Fatty acids, total saturated",g,--,--,6.000,20.000
"Fatty acids, total trans",g,--,--,0.000,0.000
"Cholesterol",mg,--,--,0,0
Amino Acids
Other
Ingredients
"SUGAR, ENRICHED WHEAT FLOUR (WHEAT FLOUR, NIACIN, REDUCED IRON, THIAMIN MONONITRATE, RIBOFLAVIN, FOLIC ACID), VEGETABLE OIL (PARTIALLY HYDROGENATED PALM KERNEL AND PALM, HYDROGENATED PALM KERNEL), SKIM MILK, SALT, COCOA POWDER (PROCESSED WITH ALKALI), LACTOSE, NONFAT DRY MILK, WHEY POWDER, TITANIUM DIOXIDE (FOR COLOR), CORN SYRUP, SODIUM BICARBONATE, YEAST, DISTILLED MONOGLYCERIDE, SOY LECITHIN (AN EMULSIFIER), VANILLIN (AN ARTIFICIAL FLAVORING), CORNSTARCH, CONFECTIONER'S GLAZE, CARNAUBA WAX, YELLOW 5, YELLOW 6, RED 3, RED 40, BLUE 1 AND BLUE 2." Date available: 07/14/2017 Date last updated by company: 07/14/2017
