Source: USDA Branded Food Products Database Release December 2017 Software v.3.8.6.4 2017-10-02
Report Run at: December 18, 2017 10:17 EST
"Nutrient data for: 45189119, PASTEURIZED CRABMEAT, UPC: 6920282254134"
Food Group:  Branded Food Products Database
Common Name:

Nutrient,Unit,Data points,Std. Error,"100.0 GRM = 100.0g",1Value per 100 g,
Proximates
"Energy",kcal,--,--,90,90
"Protein",g,--,--,19.00,19.00
"Total lipid (fat)",g,--,--,1.00,1.00
"Carbohydrate, by difference",g,--,--,0.00,0.00
"Fiber, total dietary",g,--,--,0.0,0.0
"Sugars, total",g,--,--,0.00,0.00
Minerals
"Calcium, Ca",mg,--,--,90,90
"Iron, Fe",mg,--,--,0.61,0.61
"Sodium, Na",mg,--,--,310,310
Vitamins
"Vitamin C, total ascorbic acid",mg,--,--,1.0,1.0
"Vitamin A, IU",IU,--,--,85,85
Lipids
"Fatty acids, total saturated",g,--,--,0.000,0.000
"Fatty acids, total trans",g,--,--,0.000,0.000
"Cholesterol",mg,--,--,80,80
Amino Acids
Other
Ingredients
"HAND-PICKED CRABMEAT" Date available: 07/14/2017 Date last updated by company: 07/14/2017
