Source: USDA Branded Food Products Database Release December 2017 Software v.3.8.6.4 2017-10-02
Report Run at: December 18, 2017 10:04 EST
"Nutrient data for: 45087371, PASTA SAUCE ROASTED EGGPLANT, UPC: 816979010250"
Food Group:  Branded Food Products Database
Common Name:

Nutrient,Unit,Data points,Std. Error,"0.5 cup = 118.0g",1Value per 100 g,
Proximates
"Energy",kcal,--,--,70,59
"Protein",g,--,--,1.99,1.69
"Total lipid (fat)",g,--,--,5.00,4.24
"Carbohydrate, by difference",g,--,--,5.00,4.24
"Fiber, total dietary",g,--,--,2.0,1.7
"Sugars, total",g,--,--,3.00,2.54
Minerals
"Calcium, Ca",mg,--,--,20,17
"Iron, Fe",mg,--,--,2.86,2.42
"Sodium, Na",mg,--,--,280,237
Vitamins
"Vitamin C, total ascorbic acid",mg,--,--,1.3,1.1
Lipids
"Fatty acids, total saturated",g,--,--,1.003,0.850
Amino Acids
Other
Ingredients
"TOMATOES*, EGGPLANT*, EXTRA-VIRGIN OLIVE OIL*, ONION*, CARROTS*, CELERY*, SALT." Date available: 10/18/2017 Date last updated by company: 10/18/2017
