Source: USDA Branded Food Products Database Release December 2017 Software v.3.8.6.4 2017-10-02
Report Run at: December 18, 2017 10:11 EST
"Nutrient data for: 45325495, PASTA SAUCE, UPC: 018894750291"
Food Group:  Branded Food Products Database
Common Name:

Nutrient,Unit,Data points,Std. Error,"0.5 cup = 125.0g",1Value per 100 g,
Proximates
"Energy",kcal,--,--,70,56
"Protein",g,--,--,2.00,1.60
"Total lipid (fat)",g,--,--,3.00,2.40
"Carbohydrate, by difference",g,--,--,9.00,7.20
"Fiber, total dietary",g,--,--,2.0,1.6
"Sugars, total",g,--,--,6.00,4.80
Minerals
"Calcium, Ca",mg,--,--,20,16
"Iron, Fe",mg,--,--,0.76,0.61
"Potassium, K",mg,--,--,360,288
"Sodium, Na",mg,--,--,460,368
Vitamins
"Vitamin C, total ascorbic acid",mg,--,--,2.5,2.0
"Vitamin A, IU",IU,--,--,529,423
Lipids
"Fatty acids, total saturated",g,--,--,0.500,0.400
"Fatty acids, total trans",g,--,--,0.000,0.000
"Cholesterol",mg,--,--,0,0
Amino Acids
Other
Ingredients
"TOMATO PUREE (WATER, TOMATO PASTE), GROUND BEEF, SUGAR, SALT, SOYBEAN OIL, DRIED ONIONS, OLIVE OIL, ROMANO CHEESE (MILK, CHEESE CULTURES, SALT, ENZYMES), DRIED GARLIC, SPICES, CITRIC ACID." Date available: 08/11/2017 Date last updated by company: 08/11/2017
