Source: USDA Branded Food Products Database Release December 2017 Software v.3.8.6.4 2017-10-02
Report Run at: December 18, 2017 10:05 EST
"Nutrient data for: 45001702, PASTA SAUCE, UPC: 5051379051846"
Food Group:  Branded Food Products Database
Common Name:

Nutrient,Unit,Data points,Std. Error,"0.5 cup = 113.0g",1Value per 100 g,
Proximates
"Energy",kcal,--,--,45,40
"Protein",g,--,--,0.99,0.88
"Total lipid (fat)",g,--,--,1.50,1.33
"Carbohydrate, by difference",g,--,--,6.99,6.19
"Fiber, total dietary",g,--,--,1.0,0.9
"Sugars, total",g,--,--,4.99,4.42
Minerals
"Calcium, Ca",mg,--,--,0,0
"Iron, Fe",mg,--,--,0.76,0.67
"Sodium, Na",mg,--,--,460,407
Vitamins
"Vitamin C, total ascorbic acid",mg,--,--,5.1,4.5
"Vitamin A, IU",IU,--,--,423,374
Lipids
"Fatty acids, total saturated",g,--,--,0.000,0.000
"Fatty acids, total trans",g,--,--,0.000,0.000
"Cholesterol",mg,--,--,0,0
Amino Acids
Other
Ingredients
"TOMATO PUREE (WATER, TOMATO PASTE), TOMATOES, PORTOBELLO MUSHROOMS, SUGAR, SOYBEAN OIL, SALT, GARLIC POWDER, ONIONS, TOMATO FLAKES, BASIL, NATURAL FLAVOR, OREGANO, PARSLEY." Date available: 06/24/2017 Date last updated by company: 06/24/2017
