Source: USDA Branded Food Products Database Release December 2017 Software v.3.8.6.4 2017-10-02
Report Run at: December 18, 2017 09:58 EST
"Nutrient data for: 45222513, PASTA AND RED BEANS TUSCAN SOUP, UPC: 8001246209815"
Food Group:  Branded Food Products Database
Common Name:

Nutrient,Unit,Data points,Std. Error,"150.0 GRM = 150.0g",1Value per 100 g,
Proximates
"Energy",kcal,--,--,260,173
"Protein",g,--,--,7.00,4.67
"Total lipid (fat)",g,--,--,15.00,10.00
"Carbohydrate, by difference",g,--,--,25.01,16.67
"Fiber, total dietary",g,--,--,3.0,2.0
"Sugars, total",g,--,--,2.00,1.33
Minerals
"Calcium, Ca",mg,--,--,40,27
"Iron, Fe",mg,--,--,2.35,1.57
"Sodium, Na",mg,--,--,410,273
Vitamins
"Vitamin C, total ascorbic acid",mg,--,--,0.0,0.0
"Vitamin A, IU",IU,--,--,244,163
Lipids
"Fatty acids, total saturated",g,--,--,1.995,1.330
"Fatty acids, total trans",g,--,--,0.000,0.000
"Cholesterol",mg,--,--,26,17
Amino Acids
Other
Ingredients
"WATER, RED BEANS (22%), EGG PASTA (12%) (DURUM WHEAT BRAN, PASTEURIZED EGGS (20%)), EXTRA VIRGIN OLIVE OIL, SUNFLOWER OIL, ONION, SALT, WHEAT FLOUR, PALM OIL, YEAST EXTRACT, CARROT, SAGE, BLACK PEPPER." Date available: 07/14/2017 Date last updated by company: 07/14/2017
