Source: USDA Branded Food Products Database Release December 2017 Software v.3.8.6.4 2017-10-02
Report Run at: December 18, 2017 10:19 EST
"Nutrient data for: 45207609, PASTEURIZED PROCESSED SANDWICH SLICES, UPC: 031249712409"
Food Group:  Branded Food Products Database
Common Name:

Nutrient,Unit,Data points,Std. Error,"1 SLICE = 17.0g",1Value per 100 g,
Proximates
"Energy",kcal,--,--,30,176
"Protein",g,--,--,0.00,0.00
"Total lipid (fat)",g,--,--,2.00,11.76
"Carbohydrate, by difference",g,--,--,3.00,17.65
"Fiber, total dietary",g,--,--,0.0,0.0
"Sugars, total",g,--,--,0.00,0.00
Minerals
"Calcium, Ca",mg,--,--,0,0
"Iron, Fe",mg,--,--,0.00,0.00
"Sodium, Na",mg,--,--,190,1118
Vitamins
"Vitamin C, total ascorbic acid",mg,--,--,0.0,0.0
"Vitamin A, IU",IU,--,--,0,0
Lipids
"Fatty acids, total saturated",g,--,--,0.000,0.000
"Fatty acids, total trans",g,--,--,1.000,5.880
"Cholesterol",mg,--,--,0,0
Amino Acids
Other
Ingredients
"WATER, FOOD STARCH, PARTIALLY HYDROGENATED SOYBEAN OIL, MODIFIED FOOD STARCH, JALAPENO PEPPERS, MILK PROTEIN CONCENTRATE, SALT, NATURAL FLAVOR, SODIUM PHOSPHATE, STABILIZERS (XANTHAN, LOCUST BEAN, GUAR GUMS), SORBIC ACID (AS A PRESERVATIVE), LACTIC ACID, ARTIFICIAL COLOR." Date available: 08/27/2017 Date last updated by company: 08/27/2017
