Source: USDA Branded Food Products Database Release December 2017 Software v.3.8.6.4 2017-10-02
Report Run at: December 18, 2017 10:18 EST
"Nutrient data for: 45053804, PASTEURIZED PREPARED CHEESE PRODUCT, UPC: 051933190702"
Food Group:  Branded Food Products Database
Common Name:

Nutrient,Unit,Data points,Std. Error,"1 SLICE = 19.0g",1Value per 100 g,
Proximates
"Energy",kcal,--,--,60,316
"Protein",g,--,--,3.00,15.79
"Total lipid (fat)",g,--,--,4.00,21.05
"Carbohydrate, by difference",g,--,--,2.00,10.53
"Fiber, total dietary",g,--,--,0.0,0.0
"Sugars, total",g,--,--,1.00,5.26
Minerals
"Calcium, Ca",mg,--,--,300,1579
"Iron, Fe",mg,--,--,0.00,0.00
"Phosphorus, P",mg,--,--,526,2770
"Sodium, Na",mg,--,--,230,1211
Vitamins
"Vitamin C, total ascorbic acid",mg,--,--,0.0,0.0
"Vitamin A, IU",IU,--,--,526,2771
"Vitamin D",IU,--,--,40,211
Lipids
"Fatty acids, total saturated",g,--,--,2.500,13.160
"Fatty acids, total trans",g,--,--,0.000,0.000
"Cholesterol",mg,--,--,10,53
Amino Acids
Other
Ingredients
"MILK, WHEY, CREAM, MILK PROTEIN CONCENTRATE, SODIUM CITRATE, CALCIUM PHOSPHATE, MODIFIED FOOD STARCH, CONTAINS LESS THAN 2% OF SALT, WHEY PROTEIN CONCENTRATE, GELATIN, SODIUM PHOSPHATE, SORBIC ACID (PRESERVATIVE), CITRIC ACID, LACTIC ACID, COLOR ADDED, VITAMIN D3, VITAMIN A PALMITATE, ENZYMES, CHEESE CULTURE." Date available: 06/25/2017 Date last updated by company: 06/25/2017
