Source: USDA Branded Food Products Database Release December 2017 Software v.3.8.6.4 2017-10-02
Report Run at: December 18, 2017 10:22 EST
"Nutrient data for: 45139516, PATH OF LIFE, ORGANIC QUINOA & KALE, UPC: 855229005028"
Food Group:  Branded Food Products Database
Common Name:

Nutrient,Unit,Data points,Std. Error,"0.5 PACKAGE = 142.0g",1Value per 100 g,
Proximates
"Energy",kcal,--,--,180,127
"Protein",g,--,--,6.01,4.23
"Total lipid (fat)",g,--,--,6.01,4.23
"Carbohydrate, by difference",g,--,--,24.00,16.90
"Fiber, total dietary",g,--,--,2.0,1.4
"Sugars, total",g,--,--,0.99,0.70
Minerals
"Calcium, Ca",mg,--,--,80,56
"Iron, Fe",mg,--,--,4.94,3.48
"Sodium, Na",mg,--,--,400,282
Vitamins
"Vitamin C, total ascorbic acid",mg,--,--,12.4,8.7
"Vitamin A, IU",IU,--,--,4119,2901
Lipids
"Fatty acids, total saturated",g,--,--,0.994,0.700
"Fatty acids, total trans",g,--,--,0.000,0.000
"Cholesterol",mg,--,--,0,0
Amino Acids
Other
Ingredients
"COOKED ORGANIC WHITE QUINOA (ORGANIC WHITE QUINOA, WATER), ORGANIC KALE, COOKED ORGANIC RED QUINOA (ORGANIC RED QUINOA, WATER), ORGANIC GARLIC, ORGANIC EXTRA VIRGIN OLIVE OIL, SEA SALT, ORGANIC PEPPER." Date available: 09/24/2017 Date last updated by company: 09/24/2017
