Source: USDA Branded Food Products Database Release December 2017 Software v.3.8.6.4 2017-10-02
Report Run at: December 18, 2017 10:27 EST
"Nutrient data for: 45024716, PCC, MILD ITALIAN CHICKEN SAUSAGE, UPC: 202730707208"
Food Group:  Branded Food Products Database
Common Name:

Nutrient,Unit,Data points,Std. Error,"1 LINK = 94.0g",1Value per 100 g,
Proximates
"Energy",kcal,--,--,110,117
"Protein",g,--,--,18.00,19.15
"Total lipid (fat)",g,--,--,3.00,3.19
"Carbohydrate, by difference",g,--,--,1.00,1.06
"Fiber, total dietary",g,--,--,0.0,0.0
"Sugars, total",g,--,--,0.00,0.00
Minerals
"Calcium, Ca",mg,--,--,20,21
"Iron, Fe",mg,--,--,1.08,1.15
"Sodium, Na",mg,--,--,560,596
Vitamins
"Vitamin C, total ascorbic acid",mg,--,--,3.6,3.8
"Vitamin A, IU",IU,--,--,200,213
Lipids
"Fatty acids, total saturated",g,--,--,0.996,1.060
"Fatty acids, total trans",g,--,--,0.000,0.000
"Cholesterol",mg,--,--,70,74
Amino Acids
Other
Ingredients
"CHICKEN, WATER, SE SALT, SPICES, GRANULATED GARLIC, PARSLEY, PAPRIKA, LEMON JUICE, NATURAL PORK CASING." Date available: 07/07/2017 Date last updated by company: 07/07/2017
