Source: USDA Branded Food Products Database Release December 2017 Software v.3.8.6.4 2017-10-02
Report Run at: December 18, 2017 10:27 EST
"Nutrient data for: 45018441, PCC, ORGANIC APRICOTS, TURKISH VARIETY, UPC: 744335610250"
Food Group:  Branded Food Products Database
Common Name:

Nutrient,Unit,Data points,Std. Error,"2.0 ONZ = 57.0g",1Value per 100 g,
Proximates
"Energy",kcal,--,--,156,274
"Protein",g,--,--,1.00,1.75
"Total lipid (fat)",g,--,--,0.00,0.00
"Carbohydrate, by difference",g,--,--,35.00,61.40
"Fiber, total dietary",g,--,--,3.0,5.3
"Sugars, total",g,--,--,24.00,42.11
Minerals
"Calcium, Ca",mg,--,--,30,53
"Iron, Fe",mg,--,--,1.39,2.44
"Sodium, Na",mg,--,--,0,0
Vitamins
"Vitamin C, total ascorbic acid",mg,--,--,5.9,10.3
"Vitamin A, IU",IU,--,--,983,1724
Lipids
"Fatty acids, total saturated",g,--,--,0.000,0.000
"Fatty acids, total trans",g,--,--,0.000,0.000
"Cholesterol",mg,--,--,0,0
Amino Acids
Other
Ingredients
"ORGANIC APRICOTS." Date available: 07/14/2017 Date last updated by company: 07/14/2017
