Source: USDA Branded Food Products Database Release December 2017 Software v.3.8.6.4 2017-10-02
Report Run at: December 18, 2017 10:31 EST
"Nutrient data for: 45126645, PEACH FINEST YOGHURT, UPC: 853923002602"
Food Group:  Branded Food Products Database
Common Name:

Nutrient,Unit,Data points,Std. Error,"8.0 ONZ = 227.0g",1Value per 100 g,
Proximates
"Energy",kcal,--,--,279,123
"Protein",g,--,--,12.01,5.29
"Total lipid (fat)",g,--,--,11.01,4.85
"Carbohydrate, by difference",g,--,--,35.00,15.42
"Fiber, total dietary",g,--,--,0.9,0.4
"Sugars, total",g,--,--,32.01,14.10
Minerals
"Calcium, Ca",mg,--,--,400,176
"Iron, Fe",mg,--,--,0.00,0.00
"Sodium, Na",mg,--,--,109,48
Vitamins
"Vitamin C, total ascorbic acid",mg,--,--,15.7,6.9
"Vitamin A, IU",IU,--,--,300,132
Lipids
"Fatty acids, total saturated",g,--,--,5.993,2.640
"Fatty acids, total trans",g,--,--,0.000,0.000
"Cholesterol",mg,--,--,30,13
Amino Acids
Other
Ingredients
"GRADE A PASTEURIZED MILK, FRUIT PUREE (PEACHES, CANE SUGAR, WATER, PECTIN, LOCUST BEAN GUM, NATURAL FLAVOR, LEMON JUICE CONCENTRATE), CANE SUGAR, HONEY, KOSHER GELATIN, PECTIN, LIVE ACTIVE CULTURES (S. THERMOPHILUS, L. BULGARICUS, L. ACIDOPHILUS, BIFIDUS, AND L. CASEI.)" Date available: 07/14/2017 Date last updated by company: 07/14/2017
