Source: USDA Branded Food Products Database Release December 2017 Software v.3.8.6.4 2017-10-02
Report Run at: December 18, 2017 10:30 EST
"Nutrient data for: 45195199, PEACH CHIPOTLE SALSA, UPC: 041190052332"
Food Group:  Branded Food Products Database
Common Name:

Nutrient,Unit,Data points,Std. Error,"2.0 Tbsp = 32.0g",1Value per 100 g,
Proximates
"Energy",kcal,--,--,25,78
"Protein",g,--,--,0.00,0.00
"Total lipid (fat)",g,--,--,0.00,0.00
"Carbohydrate, by difference",g,--,--,6.00,18.75
"Fiber, total dietary",g,--,--,0.0,0.0
"Sugars, total",g,--,--,5.00,15.62
Minerals
"Calcium, Ca",mg,--,--,0,0
"Iron, Fe",mg,--,--,0.00,0.00
"Sodium, Na",mg,--,--,95,297
Vitamins
"Vitamin C, total ascorbic acid",mg,--,--,0.0,0.0
"Vitamin A, IU",IU,--,--,156,488
Lipids
"Fatty acids, total saturated",g,--,--,0.000,0.000
"Fatty acids, total trans",g,--,--,0.000,0.000
"Cholesterol",mg,--,--,0,0
Amino Acids
Other
Ingredients
"PEACHES, TOMATOES, WATER, ONIONS, DRIED CANE SYRUP, GREEN BELL PEPPERS, TOMATO PASTE, APPLE CIDER VINEGAR, SALT, LEMON JUICE FROM CONCENTRATE, CONTAINS 0.5% OR LESS OF EACH THE FOLLOWING: CHIPOTLE PEPPER PUREE, SPICES, GARLIC, XANTHAN GUM, VINEGAR, SUGAR, CANOLA OIL*, NATURAL FLAVOR." Date available: 07/14/2017 Date last updated by company: 07/14/2017
