Source: USDA Branded Food Products Database Release December 2017 Software v.3.8.6.4 2017-10-02
Report Run at: December 18, 2017 10:28 EST
"Nutrient data for: 45029380, PEACE CEREAL, CRISPY RICE & FLAKES, CRISPY RICE AND OAT CLUSTERS, WHEAT-RICE FLAKES WITH POMEGRANATE AND REAL BLUEBERRIES, BLUEBERRY POMEGRANATE, UPC: 075070104477"
Food Group:  Branded Food Products Database
Common Name:

Nutrient,Unit,Data points,Std. Error,"0.67 cup = 55.0g",1Value per 100 g,
Proximates
"Energy",kcal,--,--,240,436
"Protein",g,--,--,5.00,9.09
"Total lipid (fat)",g,--,--,6.00,10.91
"Carbohydrate, by difference",g,--,--,41.00,74.55
"Fiber, total dietary",g,--,--,3.0,5.5
"Sugars, total",g,--,--,14.00,25.45
Minerals
"Calcium, Ca",mg,--,--,20,36
"Iron, Fe",mg,--,--,1.08,1.96
"Sodium, Na",mg,--,--,20,36
Vitamins
"Vitamin C, total ascorbic acid",mg,--,--,0.0,0.0
"Vitamin A, IU",IU,--,--,0,0
Lipids
"Fatty acids, total saturated",g,--,--,0.501,0.910
"Fatty acids, total trans",g,--,--,0.000,0.000
"Cholesterol",mg,--,--,0,0
Amino Acids
Other
Ingredients
"WHOLE ROLLED OATS, MILLED CANE SUGAR, RICE FLOUR, VEGETABLE OIL (CANOLA AND/OR SAFFLOWER AND/OR SUNFLOWER OIL), BROWN RICE, WHOLE WHEAT FLOUR, POMEGRANATE PUREE (POMEGRANATE JUICE CONCENTRATE, CRANBERRY JUICE CONCENTRATE, SUGAR, ELDERBERRY JUICE CONCENTRATE AND FRUIT JUICE (FOR COLOR)), FREEZE DRIED BLUEBERRIES, SALT, BARLEY MALT SYRUP, NATURAL FLAVOR." Date available: 06/24/2017 Date last updated by company: 06/24/2017
