Source: USDA Branded Food Products Database Release December 2017 Software v.3.8.6.4 2017-10-02
Report Run at: December 18, 2017 10:34 EST
"Nutrient data for: 45157040, PEACH RINGS, UPC: 041512134197"
Food Group:  Branded Food Products Database
Common Name:

Nutrient,Unit,Data points,Std. Error,"5.0 PIECES = 43.0g",1Value per 100 g,
Proximates
"Energy",kcal,--,--,140,326
"Protein",g,--,--,2.00,4.65
"Total lipid (fat)",g,--,--,0.00,0.00
"Carbohydrate, by difference",g,--,--,34.00,79.07
"Fiber, total dietary",g,--,--,0.0,0.0
"Sugars, total",g,--,--,27.00,62.79
Minerals
"Calcium, Ca",mg,--,--,0,0
"Iron, Fe",mg,--,--,0.00,0.00
"Sodium, Na",mg,--,--,10,23
Vitamins
"Vitamin C, total ascorbic acid",mg,--,--,0.0,0.0
"Vitamin A, IU",IU,--,--,0,0
Lipids
"Fatty acids, total saturated",g,--,--,0.000,0.000
"Fatty acids, total trans",g,--,--,0.000,0.000
"Cholesterol",mg,--,--,0,0
Amino Acids
Other
Ingredients
"SUGAR, CORN SYRUP, GELATIN, CITRIC ACID, WHITE GRAPE JUICE FROM CONCENTRATE, SORBITOL, NATURAL AND ARTIFICIAL FLAVORS, ARTIFICIAL COLORS INCLUDING (YELLOW 6, RED 40, YELLOW 5)." Date available: 07/14/2017 Date last updated by company: 07/14/2017
