Source: USDA Branded Food Products Database Release December 2017 Software v.3.8.6.4 2017-10-02
Report Run at: December 18, 2017 10:32 EST
"Nutrient data for: 45197052, PEACH HALVES IN HEAVY SYRUP, UPC: 051933551978"
Food Group:  Branded Food Products Database
Common Name:

Nutrient,Unit,Data points,Std. Error,"0.25 cup = 70.0g",1Value per 100 g,
Proximates
"Energy",kcal,--,--,57,81
"Protein",g,--,--,0.30,0.43
"Total lipid (fat)",g,--,--,0.05,0.07
"Carbohydrate, by difference",g,--,--,12.60,18.00
"Fiber, total dietary",g,--,--,0.8,1.1
"Sugars, total",g,--,--,11.90,17.00
Minerals
"Calcium, Ca",mg,--,--,0,0
"Iron, Fe",mg,--,--,0.00,0.00
"Sodium, Na",mg,--,--,4,6
Vitamins
"Vitamin C, total ascorbic acid",mg,--,--,0.0,0.0
"Vitamin A, IU",IU,--,--,0,0
Lipids
"Fatty acids, total saturated",g,--,--,0.000,0.000
"Cholesterol",mg,--,--,0,0
Amino Acids
Other
Ingredients
"PEACHES, WATER, CANE SUGAR, CITRIC ACID." Date available: 07/14/2017 Date last updated by company: 07/14/2017
