Source: USDA Branded Food Products Database Release December 2017 Software v.3.8.6.4 2017-10-02
Report Run at: December 18, 2017 10:33 EST
"Nutrient data for: 45282588, PEACH LOWFAT YOGURT, UPC: 021130078615"
Food Group:  Branded Food Products Database
Common Name:

Nutrient,Unit,Data points,Std. Error,"1 CONTAINER = 170.0g",1Value per 100 g,
Proximates
"Energy",kcal,--,--,160,94
"Protein",g,--,--,6.00,3.53
"Total lipid (fat)",g,--,--,1.50,0.88
"Carbohydrate, by difference",g,--,--,31.01,18.24
"Fiber, total dietary",g,--,--,0.0,0.0
"Sugars, total",g,--,--,25.01,14.71
Minerals
"Calcium, Ca",mg,--,--,250,147
"Iron, Fe",mg,--,--,0.36,0.21
"Potassium, K",mg,--,--,270,159
"Sodium, Na",mg,--,--,100,59
Vitamins
"Vitamin C, total ascorbic acid",mg,--,--,4.8,2.8
"Vitamin A, IU",IU,--,--,100,59
Lipids
"Fatty acids, total saturated",g,--,--,1.003,0.590
"Fatty acids, total trans",g,--,--,0.000,0.000
"Cholesterol",mg,--,--,10,6
Amino Acids
Other
Ingredients
"CULTURED PASTEURIZED LOW FAT MILK, PEACH FLAVORED BASE (WATER, SUGAR, PEACHES, PEACH PUREE, MODIFIED CORN STARCH, NATURAL FLAVOR, CITRIC ACID, ANNATTO EXTRACT [COLOR], MALIC ACID), SUGAR, MODIFIED CORN STARCH, PECTIN, CARRAGEENAN, TRICALCIUM PHOSPHATE." Date available: 07/14/2017 Date last updated by company: 07/14/2017
