Source: USDA Branded Food Products Database Release December 2017 Software v.3.8.6.4 2017-10-02
Report Run at: December 18, 2017 10:36 EST
"Nutrient data for: 45242588, PEACH! SODA, UPC: 073800001614"
Food Group:  Branded Food Products Database
Common Name:

Nutrient,Unit,Data points,Std. Error,"8.0 OZA = 240.0g",1Value per 100 g,
Proximates
"Energy",kcal,--,--,91,38
"Protein",g,--,--,0.00,0.00
"Total lipid (fat)",g,--,--,0.00,0.00
"Carbohydrate, by difference",g,--,--,22.99,9.58
"Sugars, total",g,--,--,22.99,9.58
Minerals
"Sodium, Na",mg,--,--,24,10
Vitamins
Lipids
Amino Acids
Other
Ingredients
"CARBONATED WATER, HIGH FRUCTOSE CORN SYRUP, CITRIC ACID, POTASSIUM CITRATE, MALIC ACID, POTASSIUM BENZOATE (PRESERVATIVE), NATURAL AND ARTIFICIAL FLAVORS, SUCRALOSE, RED 40." Date available: 07/14/2017 Date last updated by company: 07/14/2017
