Source: USDA Branded Food Products Database Release December 2017 Software v.3.8.6.4 2017-10-02
Report Run at: December 18, 2017 10:28 EST
"Nutrient data for: 45047099, PEACE CEREAL, GRANOLA, COCONUT CRAZE, WHOLE GRAIN OAT CLUSTERS WITH COCONUT SUGAR, COCONUT OIL, TOASTED COCONUT AND COCONUT FLAKES, UPC: 075070109861"
Food Group:  Branded Food Products Database
Common Name:

Nutrient,Unit,Data points,Std. Error,"0.5 cup = 55.0g",1Value per 100 g,
Proximates
"Energy",kcal,--,--,270,491
"Protein",g,--,--,5.00,9.09
"Total lipid (fat)",g,--,--,12.00,21.82
"Carbohydrate, by difference",g,--,--,37.00,67.27
"Fiber, total dietary",g,--,--,4.0,7.3
"Sugars, total",g,--,--,9.00,16.36
Minerals
"Calcium, Ca",mg,--,--,20,36
"Iron, Fe",mg,--,--,1.44,2.62
"Sodium, Na",mg,--,--,110,200
Vitamins
"Vitamin C, total ascorbic acid",mg,--,--,2.4,4.4
"Vitamin A, IU",IU,--,--,0,0
Lipids
"Fatty acids, total saturated",g,--,--,6.000,10.910
"Fatty acids, total trans",g,--,--,0.000,0.000
"Cholesterol",mg,--,--,0,0
Amino Acids
Other
Ingredients
"WHOLE ROLLED OATS, COCONUT PALM SUGAR, COCONUT, RICE FLOUR, EXPELLER PRESSED CANOLA OIL, CORNSTARCH, NATURAL FLAVOR, COCONUT OIL, MILLED CANE SUGAR, SALT, BARLEY MALT SYRUP, ALMONDS, WHOLE ROLLED WHEAT, MIXED TOCOPHEROLS (NATURAL VITAMIN E TO MAINTAIN FRESHNESS)." Date available: 07/14/2017 Date last updated by company: 07/14/2017
