Source: USDA Branded Food Products Database Release December 2017 Software v.3.8.6.4 2017-10-02
Report Run at: December 18, 2017 10:34 EST
"Nutrient data for: 45090982, PEACH RINGS, UPC: 891475001544"
Food Group:  Branded Food Products Database
Common Name:

Nutrient,Unit,Data points,Std. Error,"4.0 PIECES = 40.0g",1Value per 100 g,
Proximates
"Energy",kcal,--,--,130,325
"Protein",g,--,--,0.00,0.00
"Total lipid (fat)",g,--,--,0.00,0.00
"Carbohydrate, by difference",g,--,--,32.00,80.00
"Fiber, total dietary",g,--,--,0.0,0.0
"Sugars, total",g,--,--,23.00,57.50
Minerals
"Calcium, Ca",mg,--,--,0,0
"Iron, Fe",mg,--,--,0.00,0.00
"Sodium, Na",mg,--,--,120,300
Vitamins
"Vitamin C, total ascorbic acid",mg,--,--,75.0,187.5
"Vitamin A, IU",IU,--,--,0,0
Lipids
"Fatty acids, total saturated",g,--,--,0.000,0.000
"Fatty acids, total trans",g,--,--,0.000,0.000
"Cholesterol",mg,--,--,0,0
Amino Acids
Other
Ingredients
"ORGANIC CANE SUGAR, ORGANIC TAPIOCA SYRUP, ORGANIC GRAPE JUICE CONCENTRATE, PECTIN, CITRIC ACID, ASCORBIC ACID, NATURAL FLAVOR, COLOR ADDED(ORGANIC BLACK CARROT JUICE CONCENTRATE, ORGANIC TURMERIC)." Date available: 06/25/2017 Date last updated by company: 06/25/2017
