Source: USDA Branded Food Products Database Release December 2017 Software v.3.8.6.4 2017-10-02
Report Run at: December 18, 2017 10:30 EST
"Nutrient data for: 45220102, PEACH COBBLER PIE, UPC: 5051379077563"
Food Group:  Branded Food Products Database
Common Name:

Nutrient,Unit,Data points,Std. Error,"1 SLICE = 113.0g",1Value per 100 g,
Proximates
"Energy",kcal,--,--,299,265
"Protein",g,--,--,2.99,2.65
"Total lipid (fat)",g,--,--,10.99,9.73
"Carbohydrate, by difference",g,--,--,48.00,42.48
"Fiber, total dietary",g,--,--,2.0,1.8
"Sugars, total",g,--,--,25.00,22.12
Minerals
"Calcium, Ca",mg,--,--,0,0
"Iron, Fe",mg,--,--,1.99,1.76
"Sodium, Na",mg,--,--,40,35
Vitamins
"Vitamin C, total ascorbic acid",mg,--,--,0.0,0.0
"Vitamin A, IU",IU,--,--,332,294
Lipids
"Fatty acids, total saturated",g,--,--,6.000,5.310
"Fatty acids, total trans",g,--,--,0.000,0.000
"Cholesterol",mg,--,--,20,18
Amino Acids
Other
Ingredients
"PEACHES, SUGAR, ENRICHED WHEAT FLOUR (WHEAT FLOUR, NIACIN, REDUCED IRON, THIAMIN MONONITRATE, RIBOFLAVIN, FOLIC ACID), BUTTER (CREAM, NATURAL FLAVOR), WATER, ALL PURPOSE FLOUR (BLEACHED WHEAT FLOUR, MALTED BARLEY FLOUR, NIACIN, REDUCED IRON, THIAMIN MONONITRATE, RIBOFLAVIN, FOLIC ACID), OATS, PALM OIL, BROWN SUGAR, CORN STARCH, EGG, SALT." Date available: 07/14/2017 Date last updated by company: 07/14/2017
