Source: USDA Branded Food Products Database Release December 2017 Software v.3.8.6.4 2017-10-02
Report Run at: December 18, 2017 10:57 EST
"Nutrient data for: 45264756, PEANUTS, UPC: 019962446832"
Food Group:  Branded Food Products Database
Common Name:

Nutrient,Unit,Data points,Std. Error,"0.25 cup = 32.0g",1Value per 100 g,
Proximates
"Energy",kcal,--,--,190,594
"Protein",g,--,--,9.00,28.12
"Total lipid (fat)",g,--,--,16.00,50.00
"Carbohydrate, by difference",g,--,--,7.00,21.88
"Fiber, total dietary",g,--,--,2.0,6.2
"Sugars, total",g,--,--,1.00,3.12
Minerals
"Calcium, Ca",mg,--,--,250,781
"Iron, Fe",mg,--,--,1.13,3.52
"Sodium, Na",mg,--,--,200,625
Vitamins
"Vitamin C, total ascorbic acid",mg,--,--,1.9,5.8
"Vitamin A, IU",IU,--,--,156,488
Lipids
"Fatty acids, total saturated",g,--,--,2.499,7.810
"Fatty acids, total trans",g,--,--,0.000,0.000
"Cholesterol",mg,--,--,0,0
Amino Acids
Other
Ingredients
"CHILI PEANUTS (PEANUTS, CHILI POWDER (CAYENNE PEPPER, SALT, SPICES, DEXTROSE, ONION, NATURAL FLAVORS, GARLIC, ANNATTO EXTRACT, CITRIC ACID, SILICON DIOXIDE (LESS THAN 2.0% TO PREVENT CAKING)), PAPRIKA, CITRIC ACID, SEA SALT, CANOLA AND/OR SOYBEAN OIL)." Date available: 10/13/2017 Date last updated by company: 10/13/2017
