Source: USDA Branded Food Products Database Release December 2017 Software v.3.8.6.4 2017-10-02
Report Run at: December 18, 2017 10:53 EST
"Nutrient data for: 45292802, PEANUT OIL, UPC: 026700101564"
Food Group:  Branded Food Products Database
Common Name:

Nutrient,Unit,Data points,Std. Error,"1 Tbsp = 14.0g",1Value per 100 g,
Proximates
"Energy",kcal,--,--,120,857
"Protein",g,--,--,0.00,0.00
"Total lipid (fat)",g,--,--,14.00,100.00
"Carbohydrate, by difference",g,--,--,0.00,0.00
"Fiber, total dietary",g,--,--,0.0,0.0
"Sugars, total",g,--,--,0.00,0.00
Minerals
"Calcium, Ca",mg,--,--,0,0
"Iron, Fe",mg,--,--,0.00,0.00
"Sodium, Na",mg,--,--,0,0
Vitamins
"Vitamin C, total ascorbic acid",mg,--,--,0.0,0.0
"Vitamin A, IU",IU,--,--,0,0
Lipids
"Fatty acids, total saturated",g,--,--,2.500,17.860
"Fatty acids, total monounsaturated",g,--,--,6.000,42.860
"Fatty acids, total polyunsaturated",g,--,--,4.999,35.710
"Fatty acids, total trans",g,--,--,0.000,0.000
"Cholesterol",mg,--,--,0,0
Amino Acids
Other
Ingredients
"PEANUT OIL, TBHQ AND CITRIC ACID ADDED TO PROTECT FLAVOR, DIMETHYLPOLYSILOXANE, AN ANTI-FOAMING AGENT ADDED." Date available: 07/14/2017 Date last updated by company: 07/14/2017
