Source: USDA Branded Food Products Database Release December 2017 Software v.3.8.6.4 2017-10-02
Report Run at: December 18, 2017 10:44 EST
"Nutrient data for: 45287032, PEANUT BUTTER FUDGE EXPLOSION, UPC: 041268168637"
Food Group:  Branded Food Products Database
Common Name:

Nutrient,Unit,Data points,Std. Error,"0.666 cup = 79.0g",1Value per 100 g,
Proximates
"Energy",kcal,--,--,190,241
"Protein",g,--,--,4.00,5.06
"Total lipid (fat)",g,--,--,9.00,11.39
"Carbohydrate, by difference",g,--,--,24.00,30.38
"Fiber, total dietary",g,--,--,1.0,1.3
"Sugars, total",g,--,--,17.00,21.52
Minerals
"Calcium, Ca",mg,--,--,94,119
"Iron, Fe",mg,--,--,0.00,0.00
"Potassium, K",mg,--,--,168,213
"Sodium, Na",mg,--,--,100,127
Vitamins
"Vitamin D",IU,--,--,0,0
Lipids
"Fatty acids, total saturated",g,--,--,3.997,5.060
"Fatty acids, total trans",g,--,--,0.000,0.000
"Cholesterol",mg,--,--,10,13
Amino Acids
Other
Ingredients
"MILKFAT AND NONFAT MILK, SUGAR, PEANUT BUTTER CUPS (SUGAR, PEANUT BUTTER [PEANUTS, SALT], COCONUT OIL, NONFAT MILK, WHOLE MILK, COCOA PROCESSED WITH ALKALI, SOY LECITHIN [EMULSIFIER], NATURAL FLAVORS), CORN SYRUP, FUDGE (SUGAR, PEANUT OIL, COCOA PROCESSED WITH ALKALI, WHEY, SALT, SOY LECITHIN), PEANUT BUTTER (PEANUTS, SUGAR, PEANUT BUTTER (PEANUTS, SUGAR, PEANUT OIL AND SALT),WHEY, WHEY PROTEIN CONCENTRATE, MALTODEXTRIN, MONO & DIGLYCERIDES, TAPIOCA STARCH, GUAR GUM, LOCUST BEAN GUM, POLYSORBATE 80, NATURAL & ARTIFICAL FLAVOR, CARRAGEENAN, CARAMEL COLOR AND VITAMIN A PALMITATE." Date available: 10/13/2017 Date last updated by company: 10/13/2017
