Source: USDA Branded Food Products Database Release December 2017 Software v.3.8.6.4 2017-10-02
Report Run at: December 18, 2017 10:42 EST
"Nutrient data for: 45210992, PEANUT BUTTER CUPS, UPC: 855188003530"
Food Group:  Branded Food Products Database
Common Name:

Nutrient,Unit,Data points,Std. Error,"1 SINGLE = 15.0g",1Value per 100 g,
Proximates
"Energy",kcal,--,--,80,533
"Protein",g,--,--,1.00,6.67
"Total lipid (fat)",g,--,--,6.00,40.00
"Carbohydrate, by difference",g,--,--,7.00,46.67
"Fiber, total dietary",g,--,--,1.0,6.7
"Sugars, total",g,--,--,5.00,33.33
Minerals
"Calcium, Ca",mg,--,--,0,0
"Iron, Fe",mg,--,--,1.20,8.00
"Sodium, Na",mg,--,--,45,300
Vitamins
"Vitamin C, total ascorbic acid",mg,--,--,0.0,0.0
"Vitamin A, IU",IU,--,--,0,0
Lipids
"Fatty acids, total saturated",g,--,--,2.501,16.670
"Fatty acids, total trans",g,--,--,0.000,0.000
"Cholesterol",mg,--,--,0,0
Amino Acids
Other
Ingredients
"ORGANIC DARK CHOCOLATE (ORGANIC EVAPORATED CANE SUGAR, ORGANIC CHOCOLATE LIQUOR*, ORGANIC COCOA BUTTER,* ORGANIC SOY LECITHIN, ORGANIC VANILLA), ORGANIC PEANUTS, ORGANIC EVAPORATED CANE SUGAR, ORGANIC COCOA BUTTER, ORGANIC PALM FRUIT OIL, ORGANIC VANILLA FLAVOR, SEA SALT." Date available: 07/14/2017 Date last updated by company: 07/14/2017
