Source: USDA Branded Food Products Database Release December 2017 Software v.3.8.6.4 2017-10-02
Report Run at: December 18, 2017 10:38 EST
"Nutrient data for: 45275941, PEANUT BUTTER BIG CHIPPER, UPC: 075243204034"
Food Group:  Branded Food Products Database
Common Name:

Nutrient,Unit,Data points,Std. Error,"1 SANDWICH = 99.0g",1Value per 100 g,
Proximates
"Energy",kcal,--,--,340,343
"Protein",g,--,--,4.00,4.04
"Total lipid (fat)",g,--,--,17.00,17.17
"Carbohydrate, by difference",g,--,--,46.00,46.46
"Fiber, total dietary",g,--,--,0.0,0.0
"Sugars, total",g,--,--,29.00,29.29
Minerals
"Calcium, Ca",mg,--,--,64,65
"Iron, Fe",mg,--,--,0.00,0.00
"Potassium, K",mg,--,--,123,124
"Sodium, Na",mg,--,--,300,303
Vitamins
"Vitamin D",IU,--,--,0,0
Lipids
"Fatty acids, total saturated",g,--,--,8.999,9.090
"Fatty acids, total trans",g,--,--,0.000,0.000
"Cholesterol",mg,--,--,15,15
Amino Acids
Other
Ingredients
"ICE CREAM: MILKFAT AND NONFAT MILK, PEANUT BUTTER CHIPS [SUGAR, HYDROGENATED PALM KERNEL OIL, PARTIALLY DEFATTED PEANUT FLOUR, NONFAT MILK POWDER, WHEY, DARK ROASTED PEANUT BUTTER (ROASTED PEANUTS, HYDROGENATED RAPESEED AND COTTONSEED OIL), DEXTROSE, SALT, SOY LECITHIN], CORN SYRUP, SUGAR, CHOCOLATE CHIPS (SUGAR, CHOCOLATE LIQUOR, COCOA BUTTER, SOY LECITHIN), CONTAINS LESS THAN 2% OF WHEY, MONO AND DIGLYCERIDES, GUAR GUM, LOCUST BEAN GUM, CALCIUM SULFATE, POLYSORBATE 80, CARRAGEENAN, VANILLA, ANNATTO (COLOR)., PEANUT BUTTER COOKIE: SUGAR, ENRICHED WHEAT FLOUR (WHEAT FLOUR, MALTED BARLEY FLOUR, NIACIN, IRON, THIAMINE MONONITRATE, RIBOFLAVIN, FOLIC ACID), PEANUT BUTTER [PEANUTS, DEXTROSE, FULLY HYDROGENATED VEGETABLE OILS (COTTONSEED, SOYBEAN, RAPESEED), SALT], WHEAT FLOUR, MARGARINE [PALM OIL, WATER, SALT, MONO & DIGLYCERIDES, SOY LECITHIN, SODIUM BENZOATE, ARTIFICIAL FLAVOR, BETA CAROTENE (COLOR), VITAMIN A PALMITATE], WATER, SHORTENING (PALM OIL), SUGARCANE MOLASSES, CONTAINS 2% OR LESS OF: EGGS, NATURAL FLAVORS, BAKING SODA, BUTTERMILK POWDER, SALT, CORN SYRUP, SOY LECITHIN, FOOD STARCH - MODIFIED." Date available: 10/13/2017 Date last updated by company: 10/13/2017
