Source: USDA Branded Food Products Database Release December 2017 Software v.3.8.6.4 2017-10-02
Report Run at: December 18, 2017 11:01 EST
"Nutrient data for: 45237421, PEARL ONION STUFFED OLIVES, UPC: 011225027826"
Food Group:  Branded Food Products Database
Common Name:

Nutrient,Unit,Data points,Std. Error,"2.0 OLIVES = 16.0g",1Value per 100 g,
Proximates
"Energy",kcal,--,--,20,125
"Protein",g,--,--,0.00,0.00
"Total lipid (fat)",g,--,--,1.50,9.38
"Carbohydrate, by difference",g,--,--,1.00,6.25
Minerals
"Sodium, Na",mg,--,--,330,2062
Vitamins
Lipids
"Fatty acids, total saturated",g,--,--,0.000,0.000
"Fatty acids, total trans",g,--,--,0.000,0.000
Amino Acids
Other
Ingredients
"OLIVES, WATER, ONION, SALT, LACTIC ACID, SODIUM BISULFITE (ADDED TO STABILIZE COLOR)." Date available: 06/24/2017 Date last updated by company: 06/24/2017
