Source: USDA Branded Food Products Database Release December 2017 Software v.3.8.6.4 2017-10-02
Report Run at: December 18, 2017 11:15 EST
"Nutrient data for: 45276633, PECAN TURTLE TRAIL, UPC: 041483035196"
Food Group:  Branded Food Products Database
Common Name:

Nutrient,Unit,Data points,Std. Error,"1 CONTAINER = 116.0g",1Value per 100 g,
Proximates
"Energy",kcal,--,--,300,259
"Protein",g,--,--,4.00,3.45
"Total lipid (fat)",g,--,--,15.00,12.93
"Carbohydrate, by difference",g,--,--,39.00,33.62
"Fiber, total dietary",g,--,--,1.0,0.9
"Sugars, total",g,--,--,27.00,23.28
Minerals
"Calcium, Ca",mg,--,--,100,86
"Iron, Fe",mg,--,--,0.00,0.00
"Sodium, Na",mg,--,--,190,164
Vitamins
"Vitamin C, total ascorbic acid",mg,--,--,0.0,0.0
"Vitamin A, IU",IU,--,--,300,259
Lipids
"Fatty acids, total saturated",g,--,--,8.004,6.900
"Fatty acids, total trans",g,--,--,0.000,0.000
"Cholesterol",mg,--,--,39,34
Amino Acids
Other
Ingredients
"ICE CREAM: MILKFAT AND NONFAT MILK, SWEET CREAM BUTTERMILK, SUGAR, CORN SYRUP, WHEY, HIGH FRUCTOSE CORN SYRUP, NATURAL FLAVOR, MONO AND DIGLYCERIDES, GUAR GUM, CALCIUM SULFATE, CAROB BEAN GUM, SALT, CARAMEL COLOR, CARRAGEENAN. CARAMEL: CORN SYRUP, SWEETENED CONDENSED SKIM MILK (CONDENSED SKIM MILK, SUGAR, CORN SYRUP), WATER, SUGAR, CREAM, BUTTER (CREAM, SALT), SALT, SODIUM ALGINATE, XANTHAN GUM, MONO AND DIGLYCERIDES, NATURAL FLAVOR, PECTIN, SODIUM BICARBONATE, SODIUM CITRATE. CARAMEL FILLED CHOCOLATY TURTLES: SUGAR, COCONUT OIL, CORN SYRUP, SWEETENED CONDENSED MILK, (MILK, SUGAR), NONFAT MILK, MILK, COCOA PROCESSED WITH ALKALI, HEAVY CREAM, BUTTER (CREAM, SALT), PALM KERNEL OIL, SOY LECITHIN, NATURAL AND ARTIFICIAL FLAVOR SALT. PECANS: PECANS, COTTONSEED OIL, SALT." Date available: 07/14/2017 Date last updated by company: 07/14/2017
