Source: USDA Branded Food Products Database Release December 2017 Software v.3.8.6.4 2017-10-02
Report Run at: December 18, 2017 11:09 EST
"Nutrient data for: 45187996, PECAN DANDYS, UPC: 858494004000"
Food Group:  Branded Food Products Database
Common Name:

Nutrient,Unit,Data points,Std. Error,"0.5 BAR = 47.5g",1Value per 100 g,
Proximates
"Energy",kcal,--,--,240,505
"Protein",g,--,--,2.00,4.21
"Total lipid (fat)",g,--,--,17.00,35.79
"Carbohydrate, by difference",g,--,--,22.00,46.32
"Fiber, total dietary",g,--,--,1.0,2.1
"Sugars, total",g,--,--,15.00,31.58
Minerals
"Calcium, Ca",mg,--,--,0,0
"Iron, Fe",mg,--,--,0.38,0.80
"Sodium, Na",mg,--,--,95,200
Vitamins
"Vitamin A, IU",IU,--,--,421,886
Lipids
"Fatty acids, total saturated",g,--,--,7.999,16.840
"Fatty acids, total trans",g,--,--,0.000,0.000
"Cholesterol",mg,--,--,35,74
Amino Acids
Other
Ingredients
"HORMONE FREE BUTTER BROWN CASH SUGAR, PECANS, GLUTEN-FREE FLOUR BLEND (BROWN RICE MODIFIED TAPIOCA STARCH, POTATO STARCH, CORN STARCH, CORN FLOUR, WHITE RICE FLOUR, XANTHAN GUM), PURE HONEY, WHITE CANE SUGAR, CAGE FREE EGGS, PURE VANILLA EXTRACT (WATER, ALCOHOL, SUGAR, VANILLA BEAN EXTRACTIVES), BAKING POWDER." Date available: 10/19/2017 Date last updated by company: 10/19/2017
