Source: USDA Branded Food Products Database Release December 2017 Software v.3.8.6.4 2017-10-02
Report Run at: December 18, 2017 11:17 EST
"Nutrient data for: 45244531, PEDIALYTE GRAPE 1/33.8 FL OZ (1L) BOTTLE, PREPARED, GTIN: 00070074802404"
Food Group:  Branded Food Products Database
Common Name:

Nutrient,Unit,Data points,Std. Error,"12.0 OZA = 12.0g",1Value per 100 g,
Proximates
"Protein",g,--,--,0.00,0.00
"Total lipid (fat)",g,--,--,0.00,0.00
"Carbohydrate, by difference",g,--,--,0.30,2.50
"Sugars, total",g,--,--,0.30,2.50
Minerals
"Potassium, K",mg,--,--,9,78
"Sodium, Na",mg,--,--,12,103
"Zinc, Zn",mg,--,--,0.09,0.78
Vitamins
Lipids
Amino Acids
Other
Ingredients
"Water, Dextrose, Less than 2% of:, Citric Acid, Potassium Citrate, Salt, Artificial Flavor, Sodium Citrate, Sucralose, Acesulfame Potassium, Zinc Gluconate, Red 40, Blue 1" Date available: 10/05/2017 Date last updated by company: 08/31/2017
