Source: USDA Branded Food Products Database Release December 2017 Software v.3.8.6.4 2017-10-02
Report Run at: December 18, 2017 11:22 EST
"Nutrient data for: 45159114, PEEPS, MARSHMALLOW PUMPKINS, UPC: 886786044465"
Food Group:  Branded Food Products Database
Common Name:

Nutrient,Unit,Data points,Std. Error,"8.0 PUMPKINS = 32.0g",1Value per 100 g,
Proximates
"Energy",kcal,--,--,110,344
"Protein",g,--,--,1.00,3.12
"Total lipid (fat)",g,--,--,0.00,0.00
"Carbohydrate, by difference",g,--,--,28.00,87.50
"Fiber, total dietary",g,--,--,0.0,0.0
"Sugars, total",g,--,--,26.00,81.25
Minerals
"Calcium, Ca",mg,--,--,0,0
"Iron, Fe",mg,--,--,0.00,0.00
"Sodium, Na",mg,--,--,10,31
Vitamins
"Vitamin C, total ascorbic acid",mg,--,--,0.0,0.0
"Vitamin A, IU",IU,--,--,0,0
Lipids
"Fatty acids, total saturated",g,--,--,0.000,0.000
"Fatty acids, total trans",g,--,--,0.000,0.000
"Cholesterol",mg,--,--,0,0
Amino Acids
Other
Ingredients
"SUGAR, CORN SYRUP, GELATIN, CONTAINS LESS THAN 0.5% OF THE FOLLOWING INGREDIENTS: YELLOW #6 LAKE, MALTODEXTRIN, NATURAL FLAVORS, POTASSIUM SORBATE (A PRESERVATIVE), YELLOW #6, YELLOW #5 (TARTRAZINE), RED #40, BLUE #1." Date available: 07/14/2017 Date last updated by company: 07/14/2017
