Source: USDA Branded Food Products Database Release December 2017 Software v.3.8.6.4 2017-10-02
Report Run at: December 18, 2017 11:20 EST
"Nutrient data for: 45164585, PEEPS, LOLLIPOP, UPC: 070970546686"
Food Group:  Branded Food Products Database
Common Name:

Nutrient,Unit,Data points,Std. Error,"4.0 CHICKS = 39.0g",1Value per 100 g,
Proximates
"Energy",kcal,--,--,130,333
"Protein",g,--,--,1.00,2.56
"Total lipid (fat)",g,--,--,0.00,0.00
"Carbohydrate, by difference",g,--,--,33.00,84.62
"Sugars, total",g,--,--,30.00,76.92
Minerals
"Sodium, Na",mg,--,--,10,26
Vitamins
Lipids
"Fatty acids, total saturated",g,--,--,0.000,0.000
"Fatty acids, total trans",g,--,--,0.000,0.000
Amino Acids
Other
Ingredients
"SUGAR, CORN SYRUP, GELATIN, CONTAINS LESS THAN 0.5% OF THE FOLLOWING INGREDIENTS: RED #40 LAKE, RED #40, RED #3, POTASSIUM SORBATE (A PRESERVATIVE), NATURAL FLAVORS, CARNAUBA WAX" Date available: 07/14/2017 Date last updated by company: 07/14/2017
