Source: USDA Branded Food Products Database Release December 2017 Software v.3.8.6.4 2017-10-02
Report Run at: December 18, 2017 11:28 EST
"Nutrient data for: 45066703, PENNE, UPC: 071518000639"
Food Group:  Branded Food Products Database
Common Name:

Nutrient,Unit,Data points,Std. Error,"2.0 ONZ = 57.0g",1Value per 100 g,
Proximates
"Energy",kcal,--,--,209,367
"Protein",g,--,--,5.00,8.77
"Total lipid (fat)",g,--,--,1.00,1.75
"Carbohydrate, by difference",g,--,--,44.00,77.19
"Fiber, total dietary",g,--,--,2.0,3.5
"Sugars, total",g,--,--,0.00,0.00
Minerals
"Calcium, Ca",mg,--,--,10,18
"Iron, Fe",mg,--,--,1.33,2.33
"Sodium, Na",mg,--,--,0,0
Vitamins
"Vitamin C, total ascorbic acid",mg,--,--,0.0,0.0
"Vitamin A, IU",IU,--,--,0,0
Lipids
"Fatty acids, total saturated",g,--,--,0.000,0.000
"Fatty acids, total trans",g,--,--,0.000,0.000
"Cholesterol",mg,--,--,0,0
Amino Acids
Other
Ingredients
"100% WHOLE GRAIN BROWN RICE FLOUR, GOLDEM MILLED FLAX SEED" Date available: 06/25/2017 Date last updated by company: 06/25/2017
