Source: USDA Branded Food Products Database Release December 2017 Software v.3.8.6.4 2017-10-02
Report Run at: December 18, 2017 11:31 EST
"Nutrient data for: 45147227, PEPPA PIG, CHOCOLATE CHIP COOKIES, UPC: 845120050784"
Food Group:  Branded Food Products Database
Common Name:

Nutrient,Unit,Data points,Std. Error,"7.0 COOKIES | APPROX = 28.0g",1Value per 100 g,
Proximates
"Energy",kcal,--,--,140,500
"Protein",g,--,--,1.00,3.57
"Total lipid (fat)",g,--,--,7.00,25.00
"Carbohydrate, by difference",g,--,--,18.00,64.29
"Fiber, total dietary",g,--,--,1.0,3.6
"Sugars, total",g,--,--,8.00,28.57
Minerals
"Calcium, Ca",mg,--,--,0,0
"Iron, Fe",mg,--,--,1.29,4.59
"Sodium, Na",mg,--,--,90,321
Vitamins
"Vitamin C, total ascorbic acid",mg,--,--,0.0,0.0
"Vitamin A, IU",IU,--,--,0,0
Lipids
"Fatty acids, total saturated",g,--,--,2.999,10.710
"Fatty acids, total trans",g,--,--,0.000,0.000
"Cholesterol",mg,--,--,0,0
Amino Acids
Other
Ingredients
"BLEACHED ENRICHED WHEAT FLOUR (CONTAINS NIACIN, REDUCED IRON, THIAMINE MONONITRATE (VITAMIN B1), RIBOFLAVIN (VITAMIN B), FOLIC ACID, SUGAR, VEGETABLE SHORTENING [CONTAINS PALM OIL, SOYBEAN OIL, CANOLA OIL, TOCOPHEROLS (ADDED AS AN ANTIOXIDANT)], CHOCOLATE CHIPS (SUGAR, PARTIALLY HYDROGENATED PALM KERNEL OIL, COCOA, COCOA PROCESSED WITH ALKALI DEXTROSE, AND SOY LECITHIN, COCOA, WHOLE EGG SOLIDS, SALT, LEAVENINGS (SODIUM BICARBONATE, AMMONIUM BICARBONATE, BAKING POWDER), MILK REPLACEMENT (SOYA-PROTEIN, MALTODEXTRIN, CERELOSE, GUAR GUM, BETA CAROTENE), LECITHIN (AN EMULSIFIER), NATURAL AND ARTIFICIAL FLAVORS." Date available: 07/14/2017 Date last updated by company: 07/14/2017
