Source: USDA Branded Food Products Database Release December 2017 Software v.3.8.6.4 2017-10-02
Report Run at: December 18, 2017 11:57 EST
"Nutrient data for: 45210404, PEPPER, UPC: 04656702492"
Food Group:  Branded Food Products Database
Common Name:

Nutrient,Unit,Data points,Std. Error,"0.25 tsp = 0.85g",1Value per 100 g,
Proximates
"Energy",kcal,--,--,0,0
"Protein",g,--,--,0.00,0.00
"Total lipid (fat)",g,--,--,0.00,0.00
"Carbohydrate, by difference",g,--,--,0.00,0.00
Minerals
"Sodium, Na",mg,--,--,65,7647
Vitamins
Lipids
"Fatty acids, total trans",g,--,--,0.000,0.000
Amino Acids
Other
Ingredients
"BLACK PEPPER, ORANGE & LEMON PEEL, DEHYDRATED ONION, SEA SALT, DEHYDRATED GARLIC, CITRIC ACID." Date available: 07/14/2017 Date last updated by company: 07/14/2017
