Source: USDA Branded Food Products Database Release December 2017 Software v.3.8.6.4 2017-10-02
Report Run at: December 18, 2017 11:53 EST
"Nutrient data for: 45148146, PEPPER SAUCE, UPC: 011210006607"
Food Group:  Branded Food Products Database
Common Name:

Nutrient,Unit,Data points,Std. Error,"1 tsp = 5.0g",1Value per 100 g,
Proximates
"Energy",kcal,--,--,15,300
"Protein",g,--,--,0.00,0.00
"Total lipid (fat)",g,--,--,0.00,0.00
"Carbohydrate, by difference",g,--,--,3.00,60.00
"Sugars, total",g,--,--,3.00,60.00
Minerals
"Sodium, Na",mg,--,--,60,1200
Vitamins
Lipids
"Fatty acids, total trans",g,--,--,0.000,0.000
Amino Acids
Other
Ingredients
"SUGAR, RED PEPPER, WATER, DISTILLED VINEGAR, PEAR CONCENTRATE, GARLIC, ONION, TABASCO BRAND PEPPER SAUCE (DISTILLED VINEGAR, RED PEPPER, SALT), GINGER, SALT, XANTHAN GUM AND SPICES." Date available: 07/14/2017 Date last updated by company: 07/14/2017
