Source: USDA Branded Food Products Database Release December 2017 Software v.3.8.6.4 2017-10-02
Report Run at: December 18, 2017 11:38 EST
"Nutrient data for: 45086179, PEPPER JACK, UPC: 046100001899"
Food Group:  Branded Food Products Database
Common Name:

Nutrient,Unit,Data points,Std. Error,"1 SLICE = 19.0g",1Value per 100 g,
Proximates
"Energy",kcal,--,--,60,316
"Protein",g,--,--,5.00,26.32
"Total lipid (fat)",g,--,--,4.00,21.05
"Carbohydrate, by difference",g,--,--,0.00,0.00
"Fiber, total dietary",g,--,--,0.0,0.0
"Sugars, total",g,--,--,0.00,0.00
Minerals
"Calcium, Ca",mg,--,--,150,789
"Iron, Fe",mg,--,--,0.00,0.00
"Phosphorus, P",mg,--,--,263,1385
"Potassium, K",mg,--,--,10,53
"Sodium, Na",mg,--,--,135,711
Vitamins
"Vitamin C, total ascorbic acid",mg,--,--,0.0,0.0
"Vitamin A, IU",IU,--,--,526,2771
Lipids
"Fatty acids, total saturated",g,--,--,2.500,13.160
"Fatty acids, total trans",g,--,--,0.000,0.000
"Cholesterol",mg,--,--,10,53
Amino Acids
Other
Ingredients
"PASTEURIZED REDUCED FAT MILK, HOT PEPPERS (JALAPENO PEPPERS, HABANERO PEPPERS), CHEESE CULTURE, SALT, ENZYMES, VITAMIN A PALMITATE." Date available: 07/14/2017 Date last updated by company: 07/14/2017
