Source: USDA Branded Food Products Database Release December 2017 Software v.3.8.6.4 2017-10-02
Report Run at: December 18, 2017 11:51 EST
"Nutrient data for: 45213516, PEPPERONI THIN CRUST PIZZA, UPC: 021130150700"
Food Group:  Branded Food Products Database
Common Name:

Nutrient,Unit,Data points,Std. Error,"0.33 PIZZA = 128.0g",1Value per 100 g,
Proximates
"Energy",kcal,--,--,280,219
"Protein",g,--,--,12.01,9.38
"Total lipid (fat)",g,--,--,13.00,10.16
"Carbohydrate, by difference",g,--,--,30.00,23.44
"Fiber, total dietary",g,--,--,2.0,1.6
"Sugars, total",g,--,--,3.99,3.12
Minerals
"Calcium, Ca",mg,--,--,200,156
"Iron, Fe",mg,--,--,1.65,1.29
"Sodium, Na",mg,--,--,790,617
Vitamins
"Vitamin C, total ascorbic acid",mg,--,--,9.1,7.1
"Vitamin A, IU",IU,--,--,609,476
Lipids
"Fatty acids, total saturated",g,--,--,4.506,3.520
"Fatty acids, total trans",g,--,--,0.000,0.000
"Cholesterol",mg,--,--,26,20
Amino Acids
Other
Ingredients
"CRUST {WHEAT FLOUR, WATER, SOYBEAN OIL, YEAST, SUGAR, BAKING POWDER (SODIUM ACID PYROPHOSPHATE, SODIUM BICARBONATE, CORNSTARCH, MONOCALCIUM PHOSPHATE], SALT, CALCIUM PROPIONATE [PRESERVATIVE]), SAUCE (WATER, TOMATO PASTE, SALT, SUGAR, SPICES, ONION POWDER, GARLIC POWDER), CHEESE BLEND (LOW MOISTURE PART SKIM MOZZARELLA CHEESE [PASTEURIZED MILK, CHEESE CULTURES, SALT, ENZYMES], MOZZARELLA CHEESE SUBSTITUTE [WATER, VEGETABLE OIL {CORN OIL AND/OR SOY OIL}, CHEESE SOLIDS, MODIFIED FOOD STARCH, NONFAT MILK, SWEET WHEY, SALT, MAGNESIUM OXIDE, FERRIC ORTHOPHOSPHATE, VITAMIN A PALMITATE, NIACINAMIDE, ZINC OXIDE, PYRIDOXINE HYDROCHLORIDE {VITAMIN B6}, CYANOCOBALAMIN]), PEPPERONI (PORK, MECHANICALLY SEPARATED CHICKEN, BEEF, SALT, SPICES, DEXTROSE, LACTIC ACID STARTER CULTURE, OLEORESIN OF PAPRIKA, SODIUM ASCORBATE, FLAVORING, SODIUM NITRITE, BHA, BHT, CITRIC ACID)." Date available: 07/14/2017 Date last updated by company: 07/14/2017
