Source: USDA Branded Food Products Database Release December 2017 Software v.3.8.6.4 2017-10-02
Report Run at: December 18, 2017 11:34 EST
"Nutrient data for: 45256477, PEPPERED SMOKED BEEF, UPC: 700226014002"
Food Group:  Branded Food Products Database
Common Name:

Nutrient,Unit,Data points,Std. Error,"1 ONZ = 28.0g",1Value per 100 g,
Proximates
"Energy",kcal,--,--,70,250
"Protein",g,--,--,11.00,39.29
"Total lipid (fat)",g,--,--,1.00,3.57
"Carbohydrate, by difference",g,--,--,4.00,14.29
"Fiber, total dietary",g,--,--,0.0,0.0
"Sugars, total",g,--,--,3.00,10.71
Minerals
"Calcium, Ca",mg,--,--,20,71
"Iron, Fe",mg,--,--,1.93,6.88
"Sodium, Na",mg,--,--,400,1429
Vitamins
"Vitamin C, total ascorbic acid",mg,--,--,0.0,0.0
"Vitamin A, IU",IU,--,--,0,0
Lipids
"Fatty acids, total saturated",g,--,--,0.000,0.000
"Fatty acids, total trans",g,--,--,0.000,0.000
"Cholesterol",mg,--,--,35,125
Amino Acids
Other
Ingredients
"BEEF, HONEY GRANULES, BROWN SUGAR, BLACK PEPPER, SALT, CELERY POWDER, SEA SALT, WHITE PEPPER, GRANULATED ONION, GINGER, GRANULATED GARLIC." Date available: 07/14/2017 Date last updated by company: 07/14/2017
