Source: USDA Branded Food Products Database Release December 2017 Software v.3.8.6.4 2017-10-02
Report Run at: December 18, 2017 11:49 EST
"Nutrient data for: 45202640, PEPPERONI PIZZA, UPC: 782796023813"
Food Group:  Branded Food Products Database
Common Name:

Nutrient,Unit,Data points,Std. Error,"1 PIECE = 89.0g",1Value per 100 g,
Proximates
"Energy",kcal,--,--,230,258
"Protein",g,--,--,11.00,12.36
"Total lipid (fat)",g,--,--,10.00,11.24
"Carbohydrate, by difference",g,--,--,23.00,25.84
"Fiber, total dietary",g,--,--,2.0,2.2
"Sugars, total",g,--,--,2.00,2.25
Minerals
"Calcium, Ca",mg,--,--,150,169
"Iron, Fe",mg,--,--,0.00,0.00
"Sodium, Na",mg,--,--,640,719
Vitamins
"Vitamin C, total ascorbic acid",mg,--,--,5.3,5.9
"Vitamin A, IU",IU,--,--,658,739
Lipids
"Fatty acids, total saturated",g,--,--,4.503,5.060
"Fatty acids, total trans",g,--,--,0.000,0.000
"Cholesterol",mg,--,--,20,22
Amino Acids
Other
Ingredients
"DOUGH (ENRICHED WHEAT FLOUR (WHEAT FLOUR, NIACIN, IRON, AMYLASE, ASCORBIC ACID, THIAMINE MONONITRATE, RIBOFLAVIN, FOLIC ACID), WATER, YEAST, EXTRA VIRGIN OLIVE OIL, SUGAR, SALT, CANOLA OIL AS A MANUFACTURING AID), PIZZA SAUCE (TOMATOES, BLEND OF EXTRA VIRGIN OLIVE OIL AND SUNFLOWER OIL, SALT, OREGANO, GRANULATED GARLIC, BLACK PEPPER AND NATURALLY DERIVED CITRIC ACID), CHEESE BLEND (LOW MOISTURE PART SKIM MOZZARELLA CHEESE (PASTEURIZED PART-SKIM MILK, CHEESE CULTURE, SALT, ENZYMES), PROVOLONE CHEESE (PASTEURIZED MILK, CHEESE CULTURES, SALT, ENZYMES), ASIAGO MEDIUM CHEESE (PASTEURIZED MILK, CHEESE CULTURES, SALT, ENZYMES), IMPORTED ROMANO CHEESE (PASTEURIZED SHEEP'S MILK, CHEESE CULTURES, SALT, ENZYMES), PRODUCT OF FRANCE, RICE FLOUR AND CELLULOSE POWDER ADDED TO PREVENT CAKING, NATAMYCIN (A NATURAL MOLD INHIBITOR)), PEPPERONI (PORK, BEEF, SALT, CONTAINS 2% OR LESS OF FLAVORINGS, LACTIC ACID STARTER CULTURE, DEXTROSE, PAPRIKA, SODIUM NITRITE, BHA, BHT, CITRIC ACID), PARMESAN CHEESE (PASTEURIZED PART-SKIM MILK, CHEESE CULTURES, SALT, ENZYMES, AND POWDERED CELLULOSE (ANTI-CAKING AGENT))." Date available: 07/14/2017 Date last updated by company: 07/14/2017
