Source: USDA Branded Food Products Database Release December 2017 Software v.3.8.6.4 2017-10-02
Report Run at: December 18, 2017 11:51 EST
"Nutrient data for: 45051946, PEPPERONI, THIN CRUST PIZZA, UPC: 041497027576"
Food Group:  Branded Food Products Database
Common Name:

Nutrient,Unit,Data points,Std. Error,"0.25 PIZZA = 152.0g",1Value per 100 g,
Proximates
"Energy",kcal,--,--,410,270
"Protein",g,--,--,16.99,11.18
"Total lipid (fat)",g,--,--,19.00,12.50
"Carbohydrate, by difference",g,--,--,43.00,28.29
"Fiber, total dietary",g,--,--,4.0,2.6
"Sugars, total",g,--,--,5.00,3.29
Minerals
"Calcium, Ca",mg,--,--,249,164
"Iron, Fe",mg,--,--,1.85,1.22
"Sodium, Na",mg,--,--,780,513
Vitamins
"Vitamin C, total ascorbic acid",mg,--,--,4.6,3.0
"Vitamin A, IU",IU,--,--,641,422
Lipids
"Fatty acids, total saturated",g,--,--,8.998,5.920
"Fatty acids, total trans",g,--,--,0.502,0.330
"Cholesterol",mg,--,--,40,26
Amino Acids
Other
Ingredients
"TOPPINGS: SAUCE (WATER, TOMATO PASTE, SOYBEAN OIL, MODIFIED FOOD STARCH, SALT, SPICES, GARLIC POWDER, XANTHAN GUM, PAPRIKA, ONION POWDER, PARMESAN CHEESE [PASTEURIZED CULTURED PART-SKIM MILK, SALT, ENZYMES]), CHEESES (LOW MOISTURE MOZZARELLA [PASTEURIZED MILK, CHEESE CULTURES, SALT, ENZYMES], PROVOLONE [PASTEURIZED MILK, CHEESE CULTURES, SALT, ENZYMES]), PEPPERONI (PORK, BEEF, SALT, SPICES, DEXTROSE, LACTIC ACID STARTER CULTURE, OLEORESIN OF PAPRIKA, FLAVORING, SODIUM NITRITE, BHA, BHT, CITRIC ACID. MAY CONTAIN WATER). CRUST: MALTED WHEAT FLOUR (WHEAT FLOUR, MALTED BARLEY FLOUR), WATER, CONTAINS 2% OR LESS OF: YEAST, SAUGAR, SALT, SOYBEAN OIL, L-CYSTEINE, CALCIUM PROPIONATE TO RETARD SPOILAGE." Date available: 06/25/2017 Date last updated by company: 06/25/2017
