Source: USDA Branded Food Products Database Release December 2017 Software v.3.8.6.4 2017-10-02
Report Run at: December 18, 2017 11:51 EST
"Nutrient data for: 45190212, PEPPERONI STYLE SEASONING SNACK STICKS, UPC: 024557700237"
Food Group:  Branded Food Products Database
Common Name:

Nutrient,Unit,Data points,Std. Error,"2.0 PIECES = 26.0g",1Value per 100 g,
Proximates
"Energy",kcal,--,--,100,385
"Protein",g,--,--,5.00,19.23
"Total lipid (fat)",g,--,--,9.00,34.62
"Carbohydrate, by difference",g,--,--,1.00,3.85
"Sugars, total",g,--,--,1.00,3.85
Minerals
"Calcium, Ca",mg,--,--,0,0
"Iron, Fe",mg,--,--,1.73,6.66
"Sodium, Na",mg,--,--,380,1462
Vitamins
"Vitamin C, total ascorbic acid",mg,--,--,0.0,0.0
"Vitamin A, IU",IU,--,--,192,740
Lipids
"Fatty acids, total saturated",g,--,--,3.999,15.380
"Fatty acids, total trans",g,--,--,0.000,0.000
"Cholesterol",mg,--,--,25,96
Amino Acids
Other
Ingredients
"PORK, BEEF, SALT, AND LESS THAN 2% OF THE FOLLOWING: DEXTROSE, SPICES, FLAVORINGS, PAPRIKA, CORN SYRUP SOLIDS, SUGAR, MONOSODIUM GLUTAMATE, LACTIC ACID STARTER CULTURE, SODIUM NITRITE. IN A COLLAGEN CASING." Date available: 10/19/2017 Date last updated by company: 10/19/2017
