Source: USDA Branded Food Products Database Release December 2017 Software v.3.8.6.4 2017-10-02
Report Run at: December 18, 2017 11:43 EST
"Nutrient data for: 45057240, PEPPERMINT ICE CREAM, UPC: 085239735718"
Food Group:  Branded Food Products Database
Common Name:

Nutrient,Unit,Data points,Std. Error,"0.5 cup = 65.0g",1Value per 100 g,
Proximates
"Energy",kcal,--,--,150,231
"Protein",g,--,--,2.00,3.08
"Total lipid (fat)",g,--,--,7.00,10.77
"Carbohydrate, by difference",g,--,--,18.00,27.69
"Fiber, total dietary",g,--,--,0.0,0.0
"Sugars, total",g,--,--,15.00,23.08
Minerals
"Calcium, Ca",mg,--,--,80,123
"Iron, Fe",mg,--,--,0.00,0.00
"Sodium, Na",mg,--,--,55,85
Vitamins
"Vitamin C, total ascorbic acid",mg,--,--,0.0,0.0
"Vitamin A, IU",IU,--,--,225,346
Lipids
"Fatty acids, total saturated",g,--,--,4.998,7.690
"Fatty acids, total trans",g,--,--,0.000,0.000
"Cholesterol",mg,--,--,25,38
Amino Acids
Other
Ingredients
"MILKFAT AND NONFAT MILK, SWEET CREAM BUTTERMILK, SUGAR, CORN SYRUP, HIGH FRUCTOSE CORN SYRUP, GREEN MINT FLAKES (SUGAR, COCONUT OIL, BUTTER MILK POWDER, NATURAL FLAVORS, SOY LECITHIN, ARTIFICIAL COLOR [YELLOW 5 LAKE, BLUE 1 LAKE]), CHOCOLATE FLAVORED FLAKES (SUGAR, COCONUT OIL, COCOA PROCESSED WITH ALKALI, PARTIALLY HYDROGENATED COCONUT OIL, COCOA, SALT, SOY LECITHIN, NATURAL FLAVOR), WHEY, NATURAL FLAVOR, MONO- AND DIGLYCERIDES, GUAR GUM, CALCIUM SULFATE, LOCUST BEAN GUM, CARRAGEENAN." Date available: 07/14/2017 Date last updated by company: 07/14/2017
