Source: USDA Branded Food Products Database Release December 2017 Software v.3.8.6.4 2017-10-02
Report Run at: December 18, 2017 11:34 EST
"Nutrient data for: 45260834, PEPPERED SALAME WITH PEPPER JACK CHEESE & TOASTED ROUNDS, UPC: 044500074048"
Food Group:  Branded Food Products Database
Common Name:

Nutrient,Unit,Data points,Std. Error,"1 PACKAGE = 91.0g",1Value per 100 g,
Proximates
"Energy",kcal,--,--,330,363
"Protein",g,--,--,17.00,18.68
"Total lipid (fat)",g,--,--,19.00,20.88
"Carbohydrate, by difference",g,--,--,23.00,25.27
"Fiber, total dietary",g,--,--,1.0,1.1
"Sugars, total",g,--,--,4.00,4.40
Minerals
"Calcium, Ca",mg,--,--,250,275
"Iron, Fe",mg,--,--,1.08,1.19
"Sodium, Na",mg,--,--,1250,1374
Vitamins
"Vitamin C, total ascorbic acid",mg,--,--,5.5,6.0
"Vitamin A, IU",IU,--,--,181,199
Lipids
"Fatty acids, total saturated",g,--,--,9.000,9.890
"Fatty acids, total trans",g,--,--,0.000,0.000
"Cholesterol",mg,--,--,60,66
Amino Acids
Other
Ingredients
"PEPPERED SALAME INGREDIENTS: PORK, NONFAT DRY MILK, DEXTROSE, SALT, CONTAINS 2% OR LESS OF: SUGAR, NATURAL SPICES, VITAMIN C (ASCORBIC ACID), GRANULATED GARLIC, LACTIC ACID STARTER CULTURE, SODIUM NITRITE, SODIUM NITRATE. PASTEURIZED PROCESS PEPPER JACK CHEESE INGREDIENTS: CULTURED MILK, WATER, CREAM, SKIM MILK, WHEY, SODIUM PHOSPHATES, GREEN AND RED JALAPENO PEPPERS, SALT, CASEIN, SORBIC ACID, TITANIUM DIOXIDE, ENZYMES. TOASTED ROUNDS INGREDIENTS: ENRICHED FLOUR (WHEAT FLOUR, MALTED BARLEY FLOUR, NIACIN, REDUCED IRON, THIAMINE MONONITRATE, RIBOFLAVIN, FOLIC ACID), SUGAR, 2% OR LESS OF CANOLA AND/OR EXTRA VIRGIN OLIVE OIL, SALT, YEAST." Date available: 07/14/2017 Date last updated by company: 07/14/2017
