Source: USDA Branded Food Products Database Release December 2017 Software v.3.8.6.4 2017-10-02
Report Run at: December 18, 2017 11:56 EST
"Nutrient data for: 45212608, PEPPERS WITH RANCH DIP, UPC: 826766141524"
Food Group:  Branded Food Products Database
Common Name:

Nutrient,Unit,Data points,Std. Error,"1 CONTAINER = 142.0g",1Value per 100 g,
Proximates
"Energy",kcal,--,--,109,77
"Protein",g,--,--,2.00,1.41
"Total lipid (fat)",g,--,--,7.99,5.63
"Carbohydrate, by difference",g,--,--,9.00,6.34
"Fiber, total dietary",g,--,--,2.0,1.4
"Sugars, total",g,--,--,5.00,3.52
Minerals
"Calcium, Ca",mg,--,--,20,14
"Iron, Fe",mg,--,--,0.26,0.18
"Sodium, Na",mg,--,--,250,176
Vitamins
"Vitamin C, total ascorbic acid",mg,--,--,52.8,37.2
"Vitamin A, IU",IU,--,--,616,434
Lipids
"Fatty acids, total saturated",g,--,--,0.497,0.350
"Fatty acids, total trans",g,--,--,0.000,0.000
"Cholesterol",mg,--,--,6,4
Amino Acids
Other
Ingredients
"GREEN BELL PEPPER, RED BELL PEPPER, YELLOW BELL PEPPER, RANCH DIP (LOW FAT BUTTERMILK [SKIM MILK, WHEY, WATER, SKIM MILK SOLIDS, WHEY SOLIDS, CORN STARCH, TAPIOCA STARCH, DISODIUM PHOSPHATE, CARRAGEENAN GUM, LOCUST BEAN GUM, CULTURE], CANOLA OIL, WATER, NON FAT SOUR CREAM [CULTURED SKIM MILK, CORN STARCH, TAPIOCA STARCH, CARRAGEENAN GUM, LOCUST BEAN GUM], SUGAR, DISTILLED VINEGAR, EGG YOLK, SALT, DRIED CARROTS, MALTODEXTRIN, MODIFIED CORN STARCH, DRIED ONION, CIDER VINEGAR, NATURAL FLAVORS, DRIED GARLIC, XANTHAN GUM, CARRAGEENAN GUM, SPICES, DRIED GREEN ONION, ARTIFICIAL COLOR, LACTIC ACID)." Date available: 07/14/2017 Date last updated by company: 07/14/2017
