Source: USDA Branded Food Products Database Release December 2017 Software v.3.8.6.4 2017-10-02
Report Run at: December 18, 2017 11:57 EST
"Nutrient data for: 45077798, PEPPER TOPPERS, UPC: 041220996834"
Food Group:  Branded Food Products Database
Common Name:

Nutrient,Unit,Data points,Std. Error,"1 Tbsp = 15.0g",1Value per 100 g,
Proximates
"Energy",kcal,--,--,25,167
"Protein",g,--,--,0.00,0.00
"Total lipid (fat)",g,--,--,2.00,13.33
"Carbohydrate, by difference",g,--,--,1.00,6.67
"Fiber, total dietary",g,--,--,0.0,0.0
"Sugars, total",g,--,--,1.00,6.67
Minerals
"Calcium, Ca",mg,--,--,0,0
"Iron, Fe",mg,--,--,0.00,0.00
"Sodium, Na",mg,--,--,80,533
Vitamins
"Vitamin C, total ascorbic acid",mg,--,--,81.2,541.0
"Vitamin A, IU",IU,--,--,338,2253
Lipids
"Fatty acids, total saturated",g,--,--,0.000,0.000
"Fatty acids, total trans",g,--,--,0.000,0.000
"Cholesterol",mg,--,--,0,0
Amino Acids
Other
Ingredients
"YELLOW AJI PEPPER, SUNFLOWER OIL, VINEGAR, SUGAR, SALT, TAPIOCA STARCH, GARLIC, CITRIC ACID, SPICES." Date available: 07/14/2017 Date last updated by company: 07/14/2017
