Source: USDA Branded Food Products Database Release December 2017 Software v.3.8.6.4 2017-10-02
Report Run at: December 18, 2017 11:58 EST
"Nutrient data for: 45084108, PEREG, QUINOA WITH VEGETABLES, UPC: 813568001026"
Food Group:  Branded Food Products Database
Common Name:

Nutrient,Unit,Data points,Std. Error,"0.25 cup = 42.0g",1Value per 100 g,
Proximates
"Energy",kcal,--,--,140,333
"Protein",g,--,--,2.00,4.76
"Total lipid (fat)",g,--,--,1.00,2.38
"Carbohydrate, by difference",g,--,--,30.00,71.43
"Fiber, total dietary",g,--,--,3.0,7.1
"Sugars, total",g,--,--,3.00,7.14
Minerals
"Calcium, Ca",mg,--,--,20,48
"Iron, Fe",mg,--,--,2.89,6.89
"Sodium, Na",mg,--,--,26,61
Vitamins
"Vitamin C, total ascorbic acid",mg,--,--,25.7,61.2
"Vitamin A, IU",IU,--,--,2410,5739
Lipids
"Fatty acids, total saturated",g,--,--,0.000,0.000
"Fatty acids, total trans",g,--,--,0.000,0.000
"Cholesterol",mg,--,--,0,0
Amino Acids
Other
Ingredients
" PREWASHED QUINOA WITH DRIED VEGETABLES CARROTS POTATOES RED BELL PEPPERS TOASTED ONIONS RAISINS HERBS SPICES AND SALT." Date available: 06/25/2017 Date last updated by company: 06/25/2017
