Source: USDA Branded Food Products Database Release December 2017 Software v.3.8.6.4 2017-10-02
Report Run at: December 18, 2017 12:00 EST
"Nutrient data for: 45009935, PERFECT PASTA, GOAT CHEESE RAVIOLI, UPC: 097137203114"
Food Group:  Branded Food Products Database
Common Name:

Nutrient,Unit,Data points,Std. Error,"5.0 RAVIOLIS = 113.0g",1Value per 100 g,
Proximates
"Energy",kcal,--,--,240,212
"Protein",g,--,--,10.99,9.73
"Total lipid (fat)",g,--,--,8.99,7.96
"Carbohydrate, by difference",g,--,--,32.00,28.32
"Fiber, total dietary",g,--,--,1.0,0.9
"Sugars, total",g,--,--,0.99,0.88
Minerals
"Calcium, Ca",mg,--,--,60,53
"Iron, Fe",mg,--,--,0.81,0.72
"Sodium, Na",mg,--,--,310,274
Vitamins
"Vitamin C, total ascorbic acid",mg,--,--,0.0,0.0
"Vitamin A, IU",IU,--,--,150,133
Lipids
"Fatty acids, total saturated",g,--,--,4.995,4.420
"Fatty acids, total trans",g,--,--,0.000,0.000
"Cholesterol",mg,--,--,50,44
Amino Acids
Other
Ingredients
"DURUM WHEAT FLOUR (ENRICHED WITH IRON (FERROUS SULFATE) AND B VITAMINS (NIACIN, THIAMIN, RIBOFLAVIN, FOLIC ACID)), GOAT CHEESE (PASTEURIZED GOAT MILK, RENNET, CHEESE CULTURES, SALT), WHOLE MILK RICOTTA CHEESE (SWEET WHEY, WHOLE MILK, SWEET CREAM, CULTURE, VINEGAR AND SALT), WATER, WHOLE EGG, FLOUR BLEND (YELLOW CORN FLOUR, WHEAT FLOUR, SOYBEAN OIL, EXTRACTIVES OF TURMERIC AND PAPRIKA), BREAD CRUMBS (WHEAT FLOUR, SUGAR, CANOLA OIL, SALT, YEAST), HALF & HALF (MILK, CREAM), SALT, PARSLEY, BLACK PEPPER." Date available: 06/24/2017 Date last updated by company: 06/24/2017
