Source: USDA Branded Food Products Database Release December 2017 Software v.3.8.6.4 2017-10-02
Report Run at: December 18, 2017 12:01 EST
"Nutrient data for: 45009924, PERFECT PASTA, SPECIAL POTATO GNOCCHI, UPC: 097137202988"
Food Group:  Branded Food Products Database
Common Name:

Nutrient,Unit,Data points,Std. Error,"1 CUP = 179.0g",1Value per 100 g,
Proximates
"Energy",kcal,--,--,290,162
"Protein",g,--,--,6.00,3.35
"Total lipid (fat)",g,--,--,0.50,0.28
"Carbohydrate, by difference",g,--,--,66.00,36.87
"Fiber, total dietary",g,--,--,0.0,0.0
"Sugars, total",g,--,--,0.00,0.00
Minerals
"Calcium, Ca",mg,--,--,0,0
"Iron, Fe",mg,--,--,0.00,0.00
"Sodium, Na",mg,--,--,1249,698
Vitamins
"Vitamin C, total ascorbic acid",mg,--,--,0.0,0.0
"Vitamin A, IU",IU,--,--,0,0
Lipids
"Fatty acids, total saturated",g,--,--,0.000,0.000
"Fatty acids, total trans",g,--,--,0.000,0.000
"Cholesterol",mg,--,--,0,0
Amino Acids
Other
Ingredients
"WATER, GNOCCHI FLOUR BLEND (POTATO FLOUR (POTATOES, MONO- AND DIGLYCERIDES OF FATTY ACIDS, DIPHOSPHATES, SODIUM METABISULPHITE, ASCORBYL PAMITATE, SPICES, CITRIC ACID), WHEAT STARCH, CORN STARCH, WHEAT FLOUR, SALT, SKIMMED MILK POWDER, EGG YOLK POWDER)." Date available: 06/24/2017 Date last updated by company: 06/24/2017
