Source: USDA Branded Food Products Database Release December 2017 Software v.3.8.6.4 2017-10-02
Report Run at: December 18, 2017 12:00 EST
"Nutrient data for: 45257799, PERFECTLY SIMPLE BAR, UPC: 638102641533"
Food Group:  Branded Food Products Database
Common Name:

Nutrient,Unit,Data points,Std. Error,"1 BAR = 40.0g",1Value per 100 g,
Proximates
"Energy",kcal,--,--,190,475
"Protein",g,--,--,11.00,27.50
"Total lipid (fat)",g,--,--,9.00,22.50
"Carbohydrate, by difference",g,--,--,15.00,37.50
"Fiber, total dietary",g,--,--,1.0,2.5
"Sugars, total",g,--,--,9.00,22.50
Minerals
"Potassium, K",mg,--,--,140,350
"Sodium, Na",mg,--,--,190,475
Vitamins
Lipids
"Fatty acids, total saturated",g,--,--,3.000,7.500
"Fatty acids, total trans",g,--,--,0.000,0.000
"Cholesterol",mg,--,--,5,12
Amino Acids
Other
Ingredients
"SOY PROTEIN ISOLATE, BROWN RICE SYRUP, ROASTED CASHEWS, CHOCOLATE LIQUOR, SUGAR, CRYSTALLINE FRUCTOSE, ALMOND BUTTER, DUTCH-PROCESS COCOA (PROCESS WITH ALKALI), HIGH OLEIC SAFFLOWER OIL, CORN SYRUP, CREAM, TAPIOCA STARCH; LESS THAN 2% OF THE FOLLOWING: NATURAL FLAVORS, SALT, PALM KERNEL OIL, COCOA BUTTER, MILK PROTEIN ISOLATE, PEANUT OIL, MADAGASCAR VANILLA, SOY LECITHIN, PASTEURIZED WHOLE EGG POWDER, XANTHAN GUM, LOCUST BEAN GUM, GUM ARABIC." Date available: 10/19/2017 Date last updated by company: 10/19/2017
