Source: USDA Branded Food Products Database Release December 2017 Software v.3.8.6.4 2017-10-02
Report Run at: December 18, 2017 12:00 EST
"Nutrient data for: 45010620, PERFECT PASTA, CHEESE RAVIOLI, UPC: 097137203138"
Food Group:  Branded Food Products Database
Common Name:

Nutrient,Unit,Data points,Std. Error,"5.0 RAVIOLIS = 113.0g",1Value per 100 g,
Proximates
"Energy",kcal,--,--,240,212
"Protein",g,--,--,10.99,9.73
"Total lipid (fat)",g,--,--,8.00,7.08
"Carbohydrate, by difference",g,--,--,32.00,28.32
"Fiber, total dietary",g,--,--,1.0,0.9
"Sugars, total",g,--,--,0.00,0.00
Minerals
"Calcium, Ca",mg,--,--,150,133
"Iron, Fe",mg,--,--,1.33,1.18
"Sodium, Na",mg,--,--,260,230
Vitamins
"Vitamin C, total ascorbic acid",mg,--,--,0.0,0.0
"Vitamin A, IU",IU,--,--,495,438
Lipids
"Fatty acids, total saturated",g,--,--,4.000,3.540
"Fatty acids, total trans",g,--,--,0.000,0.000
"Cholesterol",mg,--,--,55,49
Amino Acids
Other
Ingredients
"DURUM WHEAT FLOUR (ENRICHED WITH IRON (FERROUS SULFATE) AND B VITAMINS (NIACIN, THIAMIN, RIBOFLAVIN, FOLIC ACID)), WHOLE MILK RICOTTA CHEESE (SWEET WHEY, WHOLE MILK, SWEET CREAM, CULTURE, VINEGAR AND SALT), WATER, WHOLE EGG, ROMANO CHEESE (PASTEURIZED COWS MILK, CHEESE CULTURES, SALT, ENZYMES, POWDERED CELLULOSE ADDED TO PREVENT CAKING), FLOUR BLEND (YELLOW CORN FLOUR, WHEAT FLOUR, SOYBEAN OIL, EXTRACTIVES OF TURMERIC AND PAPRIKA), PARMESAN CHEESE (PASTEURIZED PART-SKIM COWS MILK, CHEESE CULTURES, SALT, ENZYMES, POWDERED CELLULOSE ADDED TO PREVENT CAKING), BREAD CRUMBS {WHEAT FLOUR, SUGAR, CANOLA OIL, SALT, YEAST), SALT, PARSLEY, HALF & HALF MILK, CREAM), BLACK PEPPER" Date available: 06/24/2017 Date last updated by company: 06/24/2017
