Source: USDA Branded Food Products Database Release December 2017 Software v.3.8.6.4 2017-10-02
Report Run at: December 18, 2017 12:01 EST
"Nutrient data for: 45314425, PERFORMANCE ENERGY GEL, UPC: 097421450606"
Food Group:  Branded Food Products Database
Common Name:

Nutrient,Unit,Data points,Std. Error,"1 PACK = 41.0g",1Value per 100 g,
Proximates
"Energy",kcal,--,--,110,268
"Protein",g,--,--,0.00,0.00
"Total lipid (fat)",g,--,--,0.00,0.00
"Carbohydrate, by difference",g,--,--,27.00,65.85
"Sugars, total",g,--,--,10.00,24.39
Minerals
"Potassium, K",mg,--,--,20,49
"Sodium, Na",mg,--,--,200,488
Vitamins
Lipids
Amino Acids
Other
Ingredients
"DUAL SOURCE ENERGY BLEND (MALTODEXTRIN, FRUCTOSE), WATER, AND LESS THAN 2% OF: SALT, SODIUM CITRATE, CITRIC ACID, GREEN TEA EXTRACT AND CAFFEINE FROM TEA, SODIUM BENZOATE AND POTASSIUM SORBATE (TO MAINTAIN FRESHNESS), POTASSIUM CHLORIDE, NATURAL FLAVOR." Date available: 07/14/2017 Date last updated by company: 07/14/2017
