Source: USDA Branded Food Products Database Release December 2017 Software v.3.8.6.4 2017-10-02
Report Run at: December 18, 2017 12:13 EST
"Nutrient data for: 45184996, PET, LIMITED EDITION HOME MADE STYLE ICE CREAM, MISSISSIPPI MUD PIE, UPC: 087932003590"
Food Group:  Branded Food Products Database
Common Name:

Nutrient,Unit,Data points,Std. Error,"0.5 cup = 67.0g",1Value per 100 g,
Proximates
"Energy",kcal,--,--,170,254
"Protein",g,--,--,3.00,4.48
"Total lipid (fat)",g,--,--,9.00,13.43
"Carbohydrate, by difference",g,--,--,23.00,34.33
"Fiber, total dietary",g,--,--,1.0,1.5
"Sugars, total",g,--,--,17.00,25.37
Minerals
"Calcium, Ca",mg,--,--,80,119
"Iron, Fe",mg,--,--,0.81,1.21
"Sodium, Na",mg,--,--,65,97
Vitamins
"Vitamin C, total ascorbic acid",mg,--,--,0.0,0.0
"Vitamin A, IU",IU,--,--,225,336
Lipids
"Fatty acids, total saturated",g,--,--,4.502,6.720
"Fatty acids, total trans",g,--,--,0.000,0.000
"Cholesterol",mg,--,--,20,30
Amino Acids
Other
Ingredients
"MILKFAT AND NONFAT MILK, SUGAR, FUDGE RIBBON [POWDERED SUGAR, PEANUT OIL, COCOA (PROCESSED WITH ALKALI), DEXTROSE, NONFAT DRY MILK, COCOA, SALT, SOY LECITHIN], CORN SYRUP, COOKIES [ENRICHED FLOUR (WHEAT FLOUR, NIACIN, REDUCED IRON, THIAMINE MONONITRATE, RIBOFLAVIN, FOLIC ACID), SUGAR, VEGETABLE OIL (SOYBEAN, PALM AND PALM KERNEL OIL), DEXTROSE, DEGERMINATED YELLOW CORN FLOUR, COCOA PROCESSED WITH ALKALI, INVERT SUGAR, CONTAINS 2% OR LESS CHOCOLATE, LEAVENING (BAKING SODA, MONOCALCIUM PHOSPHATE), SALT, CORNSTARCH, NATURAL FLAVOR, SOY LECITHIN WHEY], COCOA (PROCESSED WITH ALKALI), SWEETCREAM BUTTERMILK, CONTAINS LESS THAN 2% OF WHEY, GUAR GUM, MONO AND DIGLYCERIDES, XANTHAN GUM, POLYSORBATE 80, CELLULOSE GUM, COFFEE, NATURAL FLAVORS, CARRAGEENAN, CARAMEL COLOR" Date available: 07/14/2017 Date last updated by company: 07/14/2017
