Source: USDA Branded Food Products Database Release December 2017 Software v.3.8.6.4 2017-10-02
Report Run at: December 18, 2017 12:07 EST
"Nutrient data for: 45134204, PETER PAN Natural Creamy Peanut Butter, UNPREPARED, GTIN: 00045300299037"
Food Group:  Branded Food Products Database
Common Name:

Nutrient,Unit,Data points,Std. Error,"2.0 tbsp (32g) = 32.0g",1Value per 100 g,
Proximates
"Energy",kcal,--,--,210,656
"Protein",g,--,--,8.00,25.00
"Total lipid (fat)",g,--,--,17.00,53.12
"Carbohydrate, by difference",g,--,--,6.00,18.75
"Fiber, total dietary",g,--,--,2.0,6.2
"Sugars, total",g,--,--,3.00,9.38
Minerals
"Calcium, Ca",mg,--,--,0,0
"Iron, Fe",mg,--,--,0.36,1.12
"Potassium, K",mg,--,--,180,562
"Sodium, Na",mg,--,--,125,391
Vitamins
"Vitamin C, total ascorbic acid",mg,--,--,0.0,0.0
"Vitamin A, IU",IU,--,--,0,0
Lipids
"Fatty acids, total saturated",g,--,--,3.002,9.380
"Fatty acids, total monounsaturated",g,--,--,7.002,21.880
"Fatty acids, total polyunsaturated",g,--,--,4.499,14.060
"Fatty acids, total trans",g,--,--,0.000,0.000
"Cholesterol",mg,--,--,0,0
Amino Acids
Other
Ingredients
"Roasted Peanuts, Sugar, Fractionated Palm Oil, Salt. CONTAINS: PEANUTS." Date available: 10/12/2017 Date last updated by company: 10/10/2017
