Source: USDA Branded Food Products Database Release December 2017 Software v.3.8.6.4 2017-10-02
Report Run at: December 18, 2017 12:09 EST
"Nutrient data for: 45199745, PETITE DICED TOMATOES, UPC: 60788003932"
Food Group:  Branded Food Products Database
Common Name:

Nutrient,Unit,Data points,Std. Error,"0.5 cup = 123.0g",1Value per 100 g,
Proximates
"Energy",kcal,--,--,30,24
"Protein",g,--,--,1.00,0.81
"Total lipid (fat)",g,--,--,0.00,0.00
"Carbohydrate, by difference",g,--,--,7.00,5.69
"Fiber, total dietary",g,--,--,1.0,0.8
"Sugars, total",g,--,--,5.01,4.07
Minerals
"Calcium, Ca",mg,--,--,20,16
"Iron, Fe",mg,--,--,0.38,0.31
"Potassium, K",mg,--,--,240,195
"Sodium, Na",mg,--,--,250,203
Vitamins
"Vitamin C, total ascorbic acid",mg,--,--,9.5,7.7
"Vitamin A, IU",IU,--,--,529,430
Lipids
"Fatty acids, total saturated",g,--,--,0.000,0.000
"Fatty acids, total trans",g,--,--,0.000,0.000
"Cholesterol",mg,--,--,0,0
Amino Acids
Other
Ingredients
"TOMATOES, TOMATO JUICE, LESS THAN 2% OF: SUGAR, SALT, DRIED ONION, DRIED CELERY, DRIED BELL PEPPER, CALCIUM CHLORIDE, CITRIC ACID, NATURAL FLAVORS." Date available: 07/14/2017 Date last updated by company: 07/14/2017
