Source: USDA Branded Food Products Database Release December 2017 Software v.3.8.6.4 2017-10-02
Report Run at: December 18, 2017 12:10 EST
"Nutrient data for: 45278332, PETITE DILL PICKLES, UPC: 041268131396"
Food Group:  Branded Food Products Database
Common Name:

Nutrient,Unit,Data points,Std. Error,"2.5 PICKLES | ABOUT = 28.0g",1Value per 100 g,
Proximates
"Energy",kcal,--,--,0,0
"Protein",g,--,--,0.00,0.00
"Total lipid (fat)",g,--,--,0.00,0.00
"Carbohydrate, by difference",g,--,--,1.00,3.57
Minerals
"Sodium, Na",mg,--,--,210,750
Vitamins
Lipids
Amino Acids
Other
Ingredients
"FRESH CUCUMBERS, WATER, VINEGAR, SALT, DEHYDRATED GARLIC AND ONIONS, CALCIUM CHLORIDE, NATURAL FLAVORS, POLYSORBATE 80, YELLOW 5, BLUE 1." Date available: 07/14/2017 Date last updated by company: 07/14/2017
