Source: USDA Branded Food Products Database Release December 2017 Software v.3.8.6.4 2017-10-02
Report Run at: December 18, 2017 12:11 EST
"Nutrient data for: 45286353, PETITE GREEN PEAS, UPC: 021333990103"
Food Group:  Branded Food Products Database
Common Name:

Nutrient,Unit,Data points,Std. Error,"0.667 cup = 90.0g",1Value per 100 g,
Proximates
"Energy",kcal,--,--,70,78
"Protein",g,--,--,5.00,5.56
"Total lipid (fat)",g,--,--,0.50,0.56
"Carbohydrate, by difference",g,--,--,12.00,13.33
"Fiber, total dietary",g,--,--,4.0,4.4
"Sugars, total",g,--,--,6.00,6.67
Minerals
"Calcium, Ca",mg,--,--,0,0
"Iron, Fe",mg,--,--,0.68,0.76
"Sodium, Na",mg,--,--,105,117
Vitamins
"Vitamin C, total ascorbic acid",mg,--,--,8.5,9.4
"Vitamin A, IU",IU,--,--,284,315
Lipids
"Fatty acids, total saturated",g,--,--,0.000,0.000
"Fatty acids, total trans",g,--,--,0.000,0.000
"Cholesterol",mg,--,--,0,0
Amino Acids
Other
Ingredients
"PETITE GREEN PEAS, SALT." Date available: 07/14/2017 Date last updated by company: 07/14/2017
