Source: USDA Branded Food Products Database Release December 2017 Software v.3.8.6.4 2017-10-02
Report Run at: December 18, 2017 12:14 EST
"Nutrient data for: 45198339, PETTLE, ARTICHOKE HEARTS, UPC: 076606895333"
Food Group:  Branded Food Products Database
Common Name:

Nutrient,Unit,Data points,Std. Error,"0.5 cup = 130.0g",1Value per 100 g,
Proximates
"Energy",kcal,--,--,35,27
"Protein",g,--,--,2.00,1.54
"Total lipid (fat)",g,--,--,0.00,0.00
"Carbohydrate, by difference",g,--,--,8.00,6.15
"Fiber, total dietary",g,--,--,1.9,1.5
"Sugars, total",g,--,--,0.00,0.00
Minerals
"Calcium, Ca",mg,--,--,60,46
"Iron, Fe",mg,--,--,0.27,0.21
"Sodium, Na",mg,--,--,450,346
Vitamins
"Vitamin C, total ascorbic acid",mg,--,--,4.5,3.5
"Vitamin A, IU",IU,--,--,0,0
Lipids
"Fatty acids, total saturated",g,--,--,0.000,0.000
"Fatty acids, total trans",g,--,--,0.000,0.000
"Cholesterol",mg,--,--,0,0
Amino Acids
Other
Ingredients
"ARTICHOKE HEARTS, WATER, SALT, CITRIC ACID, CALCIUM CHLORIDE, ASCORBIC ACID." Date available: 07/14/2017 Date last updated by company: 07/14/2017
