Source: USDA Branded Food Products Database Release December 2017 Software v.3.8.6.4 2017-10-02
Report Run at: December 18, 2017 12:16 EST
"Nutrient data for: 45022200, PFEIFFER, CREAMY ITALIAN DRESSING, UPC: 070200210622"
Food Group:  Branded Food Products Database
Common Name:

Nutrient,Unit,Data points,Std. Error,"2.0 Tbsp = 28.0g",1Value per 100 g,
Proximates
"Energy",kcal,--,--,120,429
"Protein",g,--,--,0.00,0.00
"Total lipid (fat)",g,--,--,13.00,46.43
"Carbohydrate, by difference",g,--,--,2.00,7.14
"Fiber, total dietary",g,--,--,0.0,0.0
"Sugars, total",g,--,--,1.00,3.57
Minerals
"Calcium, Ca",mg,--,--,0,0
"Iron, Fe",mg,--,--,0.00,0.00
"Sodium, Na",mg,--,--,370,1321
Vitamins
"Vitamin C, total ascorbic acid",mg,--,--,0.0,0.0
"Vitamin A, IU",IU,--,--,0,0
Lipids
"Fatty acids, total saturated",g,--,--,1.999,7.140
"Fatty acids, total trans",g,--,--,0.000,0.000
"Cholesterol",mg,--,--,5,18
Amino Acids
Other
Ingredients
"SOYBEAN OIL, WATER, DISTILLED VINEGAR, HIGH FRUCTOSE CORN SYRUP, SALT, EGG YOLK, GARLIC*, ONION*, BLACK PEPPER, XANTHAN GUM, BELL PEPPERS*, POTASSIUM SORBATE AND SODIUM BENZOATE ADDED AS PRESERVATIVES, MONOSODIUM GLUTAMATE, CALCIUM DISODIUM EDTA ADDED TO PROTECT FLAVOR, NATURAL FLAVOR, YELLOW #5." Date available: 07/14/2017 Date last updated by company: 07/14/2017
