Source: USDA Branded Food Products Database Release December 2017 Software v.3.8.6.4 2017-10-02
Report Run at: December 18, 2017 12:19 EST
"Nutrient data for: 45257794, PHILLY CHEESE STEAK, UPC: 657815005746"
Food Group:  Branded Food Products Database
Common Name:

Nutrient,Unit,Data points,Std. Error,"135.0 GRM = 135.0g",1Value per 100 g,
Proximates
"Energy",kcal,--,--,250,185
"Protein",g,--,--,17.00,12.59
"Total lipid (fat)",g,--,--,8.01,5.93
"Carbohydrate, by difference",g,--,--,27.00,20.00
"Fiber, total dietary",g,--,--,0.9,0.7
"Sugars, total",g,--,--,3.00,2.22
Minerals
"Calcium, Ca",mg,--,--,150,111
"Iron, Fe",mg,--,--,2.79,2.07
"Sodium, Na",mg,--,--,990,733
Vitamins
"Vitamin C, total ascorbic acid",mg,--,--,3.8,2.8
"Vitamin A, IU",IU,--,--,310,230
Lipids
"Fatty acids, total saturated",g,--,--,3.996,2.960
"Cholesterol",mg,--,--,35,26
Amino Acids
Other
Ingredients
"BUN: WHEAT FLOUR [ENRICHED WITH BARLEY MALT, IRON (FERROUS SULFATE) AND THE FOLLOWING B VITAMINS: NIACIN, THIAMIN(B1), RIBOFLAVIN(B2), FOLIC ACID], WATER, CORN SYRUP,FRESH YEAST,NON FAT DRY MILK, BUTTERMILK, SOYBEAN OIL,SALT, VINEGAR, DOUGH CONDITIONERS (VEGETABLE MONO AND DIGLYCERIDES,SODIUM STEAROYL LACTYLATE),CALCIUM PROPIONATE; ROAST BEEF: CONTAINS UP TO 15% OF A SOLUTION OF WATER, SALT, DEXTROSE, SODIUM PHOSPHATE,HYDROLYZED SOY PROTEIN, YEAST EXTRACT, CARAMEL COLOR ADDED (RUBBED WITH: SALT, SUGAR, DEXTROSE, CARAMEL COLOR, SPICES AND FLAVORINGS); PROCESS SWISS CHEESE: SWISS CHEESE (MILK, CHEESE CULTURES, SALT,CALCIUM CHLORIDE, ENZYMES), WATER, CREAM, SODIUM CITRATE, COLOR ADDED, ENZYME AND SOY LECITHIN (NON-STICKING AGENCY); ONIONS, GREEN PEPPERS." Date available: 07/14/2017 Date last updated by company: 07/14/2017
