Source: USDA Branded Food Products Database Release December 2017 Software v.3.8.6.4 2017-10-02
Report Run at: December 18, 2017 12:22 EST
"Nutrient data for: 45233829, PICKAPEPPA, SPICY MANGO SAUCE, UPC: 072155241065"
Food Group:  Branded Food Products Database
Common Name:

Nutrient,Unit,Data points,Std. Error,"1 tsp = 5.0g",1Value per 100 g,
Proximates
"Energy",kcal,--,--,10,200
"Carbohydrate, by difference",g,--,--,2.00,40.00
"Sugars, total",g,--,--,2.00,40.00
Minerals
"Sodium, Na",mg,--,--,10,200
Vitamins
Lipids
Amino Acids
Other
Ingredients
"MANGOES, SUGAR, CANE VINEGAR GINGER, PEPPERS, RAISINS, ONIONS, GARLIC, SEA SALT" Date available: 08/16/2017 Date last updated by company: 08/16/2017
