Source: USDA Branded Food Products Database Release December 2017 Software v.3.8.6.4 2017-10-02
Report Run at: December 18, 2017 12:25 EST
"Nutrient data for: 45196593, PICKLED GARLIC, UPC: 049646901128"
Food Group:  Branded Food Products Database
Common Name:

Nutrient,Unit,Data points,Std. Error,"2.0 MUSHROOMS = 14.0g",1Value per 100 g,
Proximates
"Energy",kcal,--,--,15,107
"Protein",g,--,--,1.00,7.14
"Total lipid (fat)",g,--,--,0.00,0.00
"Carbohydrate, by difference",g,--,--,1.00,7.14
"Fiber, total dietary",g,--,--,0.0,0.0
"Sugars, total",g,--,--,2.00,14.29
Minerals
"Calcium, Ca",mg,--,--,40,286
"Iron, Fe",mg,--,--,1.29,9.18
"Sodium, Na",mg,--,--,130,929
Vitamins
"Vitamin C, total ascorbic acid",mg,--,--,12.9,91.8
"Vitamin A, IU",IU,--,--,715,5104
Lipids
"Fatty acids, total saturated",g,--,--,0.000,0.000
"Fatty acids, total trans",g,--,--,0.000,0.000
"Cholesterol",mg,--,--,0,0
Amino Acids
Other
Ingredients
"MUSHROOMS, WATER, VINEGAR, SALT, SUGAR, NATURAL SPICES AND FLAVORS, SODIUM BISULFITE." Date available: 07/14/2017 Date last updated by company: 07/14/2017
