Source: USDA Branded Food Products Database Release December 2017 Software v.3.8.6.4 2017-10-02
Report Run at: December 18, 2017 12:23 EST
"Nutrient data for: 45202805, PICKLED CAULIFLOWER SWEET HURRY CURRY, UPC: 852589006016"
Food Group:  Branded Food Products Database
Common Name:

Nutrient,Unit,Data points,Std. Error,"1 ONZ = 28.0g",1Value per 100 g,
Proximates
"Energy",kcal,--,--,11,39
"Protein",g,--,--,1.00,3.57
"Total lipid (fat)",g,--,--,0.00,0.00
"Carbohydrate, by difference",g,--,--,2.00,7.14
"Sugars, total",g,--,--,1.00,3.57
Minerals
"Sodium, Na",mg,--,--,20,71
Vitamins
Lipids
"Cholesterol",mg,--,--,0,0
Amino Acids
Other
Ingredients
"CAULIFLOWER, ORGANIC DISTILLED VINEGAR, WATER, BROWN SUGAR, RED BELL PEPPER, ONION, CURRY POWDER, KOSHER SALT" Date available: 08/22/2017 Date last updated by company: 08/22/2017
