Source: USDA Branded Food Products Database Release December 2017 Software v.3.8.6.4 2017-10-02
Report Run at: December 18, 2017 12:25 EST
"Nutrient data for: 45196256, PICKLED GARLIC, UPC: 041695392636"
Food Group:  Branded Food Products Database
Common Name:

Nutrient,Unit,Data points,Std. Error,"2.0 Tbsp = 30.0g",1Value per 100 g,
Proximates
"Energy",kcal,--,--,40,133
"Protein",g,--,--,2.00,6.67
"Total lipid (fat)",g,--,--,0.00,0.00
"Carbohydrate, by difference",g,--,--,9.00,30.00
"Fiber, total dietary",g,--,--,0.0,0.0
"Sugars, total",g,--,--,1.00,3.33
Minerals
"Calcium, Ca",mg,--,--,40,133
"Iron, Fe",mg,--,--,0.36,1.20
"Sodium, Na",mg,--,--,390,1300
Vitamins
"Vitamin C, total ascorbic acid",mg,--,--,9.0,30.0
"Vitamin A, IU",IU,--,--,0,0
Lipids
"Fatty acids, total saturated",g,--,--,0.000,0.000
"Fatty acids, total trans",g,--,--,0.000,0.000
"Cholesterol",mg,--,--,0,0
Amino Acids
Other
Ingredients
"GARLIC (GARLIC CLOVES, WATER, WHITE DISTILLED VINEGAR, SALT, PHOSPHORIC ACID, POTASSIUM SORBATE (PRESERVATIVE) AND SODIUM BENZOATE (PRESERVATIVE)), DISTILLED VINEGAR, WATER, CANE SUGAR, RED PEPPERS, PARSLEY AND LESS THAN 1/10TH OF 1% POTASSIUM SORBATE AND SODIUM BENZOATE ADDED AS PRESERVATIVES." Date available: 07/14/2017 Date last updated by company: 07/14/2017
