Source: USDA Branded Food Products Database Release December 2017 Software v.3.8.6.4 2017-10-02
Report Run at: December 18, 2017 12:25 EST
"Nutrient data for: 45082794, PICKLED GINGER, UPC: 011152185255"
Food Group:  Branded Food Products Database
Common Name:

Nutrient,Unit,Data points,Std. Error,"1 ONZ = 28.0g",1Value per 100 g,
Proximates
"Energy",kcal,--,--,5,18
"Protein",g,--,--,0.00,0.00
"Total lipid (fat)",g,--,--,0.00,0.00
"Carbohydrate, by difference",g,--,--,1.00,3.57
Minerals
"Sodium, Na",mg,--,--,1030,3679
Vitamins
Lipids
"Fatty acids, total trans",g,--,--,0.000,0.000
Amino Acids
Other
Ingredients
"GINGER, WATER, SALT, ACETIC ACID, CITRIC ACID, POTASSIUM SORBATE (PRESERVATIVE), FD&C RED NO. 40." Date available: 06/25/2017 Date last updated by company: 06/25/2017
