Source: USDA Branded Food Products Database Release December 2017 Software v.3.8.6.4 2017-10-02
Report Run at: December 18, 2017 12:27 EST
"Nutrient data for: 45079216, PICKLED RAISINS, UPC: 896919002040"
Food Group:  Branded Food Products Database
Common Name:

Nutrient,Unit,Data points,Std. Error,"1 Tbsp = 30.0g",1Value per 100 g,
Proximates
"Energy",kcal,--,--,60,200
"Protein",g,--,--,0.00,0.00
"Total lipid (fat)",g,--,--,0.00,0.00
"Carbohydrate, by difference",g,--,--,17.00,56.67
"Fiber, total dietary",g,--,--,1.0,3.3
"Sugars, total",g,--,--,14.00,46.67
Minerals
"Sodium, Na",mg,--,--,35,117
Vitamins
Lipids
Amino Acids
Other
Ingredients
"GOLDEN RAISINS (CONTAINS ADDED SULFITES), APPLE CIDER VINEGAR CANE SUGAR, THYME, BAY LEAF, MUSTARD SEED, ARBOL CHILI, SEA SALT." Date available: 06/24/2017 Date last updated by company: 06/24/2017
