Source: USDA Branded Food Products Database Release December 2017 Software v.3.8.6.4 2017-10-02
Report Run at: December 18, 2017 12:23 EST
"Nutrient data for: 45222307, PICKLED BEETS, UPC: 896742001203"
Food Group:  Branded Food Products Database
Common Name:

Nutrient,Unit,Data points,Std. Error,"4.0 BEETS) | (ABOUT = 32.0g",1Value per 100 g,
Proximates
"Energy",kcal,--,--,30,94
"Protein",g,--,--,0.00,0.00
"Total lipid (fat)",g,--,--,0.00,0.00
"Carbohydrate, by difference",g,--,--,7.00,21.88
"Fiber, total dietary",g,--,--,0.0,0.0
"Sugars, total",g,--,--,7.00,21.88
Minerals
"Sodium, Na",mg,--,--,110,344
Vitamins
"Vitamin C, total ascorbic acid",mg,--,--,0.0,0.0
"Vitamin A, IU",IU,--,--,0,0
Lipids
Amino Acids
Other
Ingredients
"BEETS, SUGAR, WATER, VINEGAR, SALT, SPICES." Date available: 07/14/2017 Date last updated by company: 07/14/2017
