Source: USDA Branded Food Products Database Release December 2017 Software v.3.8.6.4 2017-10-02
Report Run at: December 18, 2017 12:31 EST
"Nutrient data for: 45010190, PICTSWEET, STEAM'BLES, SEASONED CALIFORNIA VEGETABLES WITH CRACKED PEPPER SEASONING, UPC: 070560980111"
Food Group:  Branded Food Products Database
Common Name:

Nutrient,Unit,Data points,Std. Error,"1 cup = 93.0g",1Value per 100 g,
Proximates
"Energy",kcal,--,--,35,38
"Total lipid (fat)",g,--,--,0.00,0.00
"Carbohydrate, by difference",g,--,--,6.00,6.45
"Fiber, total dietary",g,--,--,2.0,2.2
"Sugars, total",g,--,--,3.00,3.23
Minerals
"Calcium, Ca",mg,--,--,20,22
"Iron, Fe",mg,--,--,0.00,0.00
"Sodium, Na",mg,--,--,180,194
Vitamins
"Vitamin C, total ascorbic acid",mg,--,--,13.7,14.7
"Vitamin A, IU",IU,--,--,685,737
Lipids
"Fatty acids, total saturated",g,--,--,0.000,0.000
"Fatty acids, total trans",g,--,--,0.000,0.000
"Cholesterol",mg,--,--,0,0
Amino Acids
Other
Ingredients
"BROCCOLI, SQUASH, CARROTS, CAULIFLOWER, MALTODEXTRIN, SALT, SPICES, CELERY, BLACK PEPPER, ONION POWDER." Date available: 06/24/2017 Date last updated by company: 06/24/2017
