Source: USDA Branded Food Products Database Release December 2017 Software v.3.8.6.4 2017-10-02
Report Run at: December 18, 2017 12:33 EST
"Nutrient data for: 45190939, PIE FILLING BLACKBERRY, UPC: 049646670062"
Food Group:  Branded Food Products Database
Common Name:

Nutrient,Unit,Data points,Std. Error,"0.5 cup = 151.0g",1Value per 100 g,
Proximates
"Energy",kcal,--,--,260,172
"Protein",g,--,--,0.00,0.00
"Total lipid (fat)",g,--,--,0.00,0.00
"Carbohydrate, by difference",g,--,--,66.00,43.71
"Fiber, total dietary",g,--,--,2.0,1.3
"Sugars, total",g,--,--,49.00,32.45
Minerals
"Calcium, Ca",mg,--,--,20,13
"Iron, Fe",mg,--,--,0.20,0.13
"Sodium, Na",mg,--,--,54,36
Vitamins
"Vitamin C, total ascorbic acid",mg,--,--,0.6,0.4
"Vitamin A, IU",IU,--,--,0,0
Lipids
"Fatty acids, total saturated",g,--,--,0.000,0.000
"Fatty acids, total trans",g,--,--,0.000,0.000
"Cholesterol",mg,--,--,0,0
Amino Acids
Other
Ingredients
"BLACKBERRIES, WATER, SUGAR, THERMFLO, SALT, SPICES, LEMON JUICE." Date available: 07/14/2017 Date last updated by company: 07/14/2017
