Source: USDA Branded Food Products Database Release December 2017 Software v.3.8.6.4 2017-10-02
Report Run at: December 18, 2017 12:36 EST
"Nutrient data for: 45180413, PIE IN THE SKY BAKERY, CHEESECAKE, BLUEBERRY, UPC: 852661006026"
Food Group:  Branded Food Products Database
Common Name:

Nutrient,Unit,Data points,Std. Error,"3.0 ONZ = 85.0g",1Value per 100 g,
Proximates
"Energy",kcal,--,--,216,254
"Protein",g,--,--,5.00,5.88
"Total lipid (fat)",g,--,--,13.00,15.29
"Carbohydrate, by difference",g,--,--,23.00,27.06
"Sugars, total",g,--,--,23.00,27.06
Minerals
"Calcium, Ca",mg,--,--,50,59
"Iron, Fe",mg,--,--,0.79,0.93
"Sodium, Na",mg,--,--,118,139
Vitamins
"Vitamin C, total ascorbic acid",mg,--,--,0.8,1.0
"Vitamin A, IU",IU,--,--,882,1038
Lipids
"Fatty acids, total saturated",g,--,--,7.004,8.240
"Cholesterol",mg,--,--,94,111
Amino Acids
Other
Ingredients
"FILLING: CREAM CHEESE (MILK, CREAM, CHEESE CULTURE, SALT, CAROB BEAN GUM), SOUR CREAM, SUGAR, EGGS, GLUTEN FREE VANILLA, BLUEBERRIES, APPLE JUICE, ARROWROOT. CRUST: BROWN RICE FLOUR, HONEY, TAPIOCA STARCH, BUTTER, EGGS, BAKING POWDER, BAKING SODA, POTATO STARCH, MONOCALCIUM PHOSPHATE, XANTHAN GUM, SEA SALT, CREAM OF TARTAR." Date available: 10/19/2017 Date last updated by company: 10/19/2017
