Source: USDA Branded Food Products Database Release December 2017 Software v.3.8.6.4 2017-10-02
Report Run at: December 18, 2017 12:31 EST
"Nutrient data for: 45147758, PIE BITES, KEY LIME COATED TRUFFLES, UPC: 855538004620"
Food Group:  Branded Food Products Database
Common Name:

Nutrient,Unit,Data points,Std. Error,"3.0 PIECES = 27.0g",1Value per 100 g,
Proximates
"Energy",kcal,--,--,128,474
"Protein",g,--,--,2.00,7.41
"Total lipid (fat)",g,--,--,6.00,22.22
"Carbohydrate, by difference",g,--,--,17.00,62.96
"Fiber, total dietary",g,--,--,0.0,0.0
"Sugars, total",g,--,--,16.00,59.26
Minerals
"Calcium, Ca",mg,--,--,50,185
"Iron, Fe",mg,--,--,1.00,3.71
"Sodium, Na",mg,--,--,23,85
Vitamins
"Vitamin C, total ascorbic acid",mg,--,--,0.0,0.0
"Vitamin A, IU",IU,--,--,0,0
Lipids
"Fatty acids, total saturated",g,--,--,4.501,16.670
"Fatty acids, total trans",g,--,--,0.000,0.000
"Cholesterol",mg,--,--,4,15
Amino Acids
Other
Ingredients
"CREAMY INSIDE: WHITE CHOCOLATE (SUGAR, COCOA BUTTER, WHOLE MILK, SOY LECITHIN - AN EMULSIFIER, VANILLA), SWEETENED CONDENSED WHOLE MILK, BUTTER, NATURAL FLAVORS. CRUNCHY OUTSIDE: UNBLEACHED ENRICHED WHEAT FLOUR (WHEAT FLOUR, THIAMINE MONONITRATE, NIACIN, RIBOFLAVIN, REDUCED IRON, FOLIC ACID), NATURAL CANE SUGAR, WATER, COCONUT OIL, GRAIN ADDITIVE (WHEAT BRAN AND WHEAT GERM DERIVED FROM WHITE WHEAT), WHEAT STARCH, COCOA BUTTER, HONEY, PALM KERNEL OIL, NONFAT DRY MILK, WHOLE MILK POWDER, PASTEURIZED EGGS, SOY LECITHIN, BAKING SODA, SALT, LIME OIL, NATURAL FLAVOR, CITRIC ACID, VEGETABLE COLOR (PUMPKIN, ALGAE, APPLE, CITRIC ACID)." Date available: 07/14/2017 Date last updated by company: 07/14/2017
