Source: USDA Branded Food Products Database Release December 2017 Software v.3.8.6.4 2017-10-02
Report Run at: December 18, 2017 12:38 EST
"Nutrient data for: 45192516, PIE, UPC: 783045678785"
Food Group:  Branded Food Products Database
Common Name:

Nutrient,Unit,Data points,Std. Error,"125.0 GRM = 125.0g",1Value per 100 g,
Proximates
"Energy",kcal,--,--,310,248
"Protein",g,--,--,6.00,4.80
"Total lipid (fat)",g,--,--,11.00,8.80
"Carbohydrate, by difference",g,--,--,47.00,37.60
"Fiber, total dietary",g,--,--,1.0,0.8
"Sugars, total",g,--,--,31.00,24.80
Minerals
"Calcium, Ca",mg,--,--,100,80
"Iron, Fe",mg,--,--,1.44,1.15
"Sodium, Na",mg,--,--,270,216
Vitamins
"Vitamin C, total ascorbic acid",mg,--,--,3.6,2.9
"Vitamin A, IU",IU,--,--,750,600
Lipids
"Fatty acids, total saturated",g,--,--,5.000,4.000
"Fatty acids, total trans",g,--,--,0.000,0.000
"Cholesterol",mg,--,--,40,32
Amino Acids
Other
Ingredients
"WATER, PUMPKIN, SUGAR, UNBLEACHED ENRICHED WHEAT FLOUR (NIACIN, REDUCED IRON, THIAMIN MONONITRATE, RIBOFLAVIN, FOLIC ACID), PALM OIL, WHOLE EGG, DRY NONFAT MILK, WHEY, MODIFIED FOOD STARCH (CORN), SALT, POTASSIUM SORBATE (AS A PRESERVATIVE), CINNAMON, DEXTROSE, CITRIC ACID, SPICES." Date available: 07/14/2017 Date last updated by company: 07/14/2017
