Source: USDA Branded Food Products Database Release December 2017 Software v.3.8.6.4 2017-10-02
Report Run at: December 18, 2017 12:33 EST
"Nutrient data for: 45291937, PIE CRUSTS, UPC: 713733280457"
Food Group:  Branded Food Products Database
Common Name:

Nutrient,Unit,Data points,Std. Error,"0.125 CRUST = 18.0g",1Value per 100 g,
Proximates
"Energy",kcal,--,--,80,444
"Protein",g,--,--,1.00,5.56
"Total lipid (fat)",g,--,--,4.50,25.00
"Carbohydrate, by difference",g,--,--,9.00,50.00
"Fiber, total dietary",g,--,--,0.0,0.0
"Sugars, total",g,--,--,1.00,5.56
Minerals
"Calcium, Ca",mg,--,--,0,0
"Iron, Fe",mg,--,--,0.50,2.78
"Sodium, Na",mg,--,--,70,389
Vitamins
"Vitamin D",IU,--,--,0,0
Lipids
"Fatty acids, total saturated",g,--,--,2.000,11.110
"Fatty acids, total monounsaturated",g,--,--,1.499,8.330
"Fatty acids, total polyunsaturated",g,--,--,0.500,2.780
"Fatty acids, total trans",g,--,--,0.000,0.000
"Cholesterol",mg,--,--,5,28
Amino Acids
Other
Ingredients
"ENRICHED WHEAT FLOUR (WHEAT FLOUR, NIACIN, IRON, THIAMIN MONONITRATE, RIBOFLAVIN, FOLIC ACID), LARD AND HYDROGENATED LARD WITH BHA AND BHT ADDED TO PROTECT FLAVOR, WATER, SUGAR. CONTAINS 2% OR LESS OF: SALT, BAKING SODA, SODIUM METABISULFITE (PRESERVATIVE), YELLOW 5, YELLOW 6." Date available: 07/14/2017 Date last updated by company: 07/14/2017
