Source: USDA Branded Food Products Database Release December 2017 Software v.3.8.6.4 2017-10-02
Report Run at: December 18, 2017 12:38 EST
"Nutrient data for: 45226657, PIE, UPC: 885523208573"
Food Group:  Branded Food Products Database
Common Name:

Nutrient,Unit,Data points,Std. Error,"0.167 PIE = 104.0g",1Value per 100 g,
Proximates
"Energy",kcal,--,--,320,308
"Protein",g,--,--,3.00,2.88
"Total lipid (fat)",g,--,--,17.00,16.35
"Carbohydrate, by difference",g,--,--,39.00,37.50
"Fiber, total dietary",g,--,--,1.0,1.0
"Sugars, total",g,--,--,19.00,18.27
Minerals
"Calcium, Ca",mg,--,--,20,19
"Iron, Fe",mg,--,--,0.44,0.42
"Sodium, Na",mg,--,--,210,202
Vitamins
"Vitamin C, total ascorbic acid",mg,--,--,1.5,1.4
"Vitamin A, IU",IU,--,--,120,115
Lipids
"Fatty acids, total saturated",g,--,--,7.998,7.690
"Fatty acids, total trans",g,--,--,0.000,0.000
"Cholesterol",mg,--,--,0,0
Amino Acids
Other
Ingredients
"CHERRIES, ENRICHED UNBLEACHED FLOUR (WHEAT FLOUR, NIACIN, REDUCED IRON, THIAMINE MONONITRATE, RIBOFLAVIN, FOLIC ACID), PALM OIL, WATER, HIGH FRUCTOSE CORN SYRUP, MODIFIED FOOD STARCH, SUGAR, DEXTROSE, SALT, EGGS, CINNAMON, POTASSIUM SORBATE AND CALCIUM PROPIONATE (PRESERVATIVES) AND XANTHAN GUM." Date available: 07/14/2017 Date last updated by company: 07/14/2017
