Source: USDA Branded Food Products Database Release December 2017 Software v.3.8.6.4 2017-10-02
Report Run at: December 18, 2017 12:38 EST
"Nutrient data for: 45190341, PIE, UPC: 032100094610"
Food Group:  Branded Food Products Database
Common Name:

Nutrient,Unit,Data points,Std. Error,"0.1 PIE = 133.0g",1Value per 100 g,
Proximates
"Energy",kcal,--,--,370,278
"Protein",g,--,--,5.00,3.76
"Total lipid (fat)",g,--,--,15.00,11.28
"Carbohydrate, by difference",g,--,--,54.00,40.60
"Fiber, total dietary",g,--,--,1.1,0.8
"Sugars, total",g,--,--,36.00,27.07
Minerals
"Calcium, Ca",mg,--,--,80,60
"Iron, Fe",mg,--,--,1.01,0.76
"Sodium, Na",mg,--,--,301,226
Vitamins
"Vitamin C, total ascorbic acid",mg,--,--,5.6,4.2
"Vitamin A, IU",IU,--,--,188,141
Lipids
"Fatty acids, total saturated",g,--,--,6.996,5.260
"Fatty acids, total trans",g,--,--,0.000,0.000
"Cholesterol",mg,--,--,0,0
Amino Acids
Other
Ingredients
"SKIM MILK, ENRICHED FLOUR (WHEAT FLOUR, NIACIN, IRON, THIAMIN MONONITRATE, RIBOFLAVIN, FOLIC ACID), SUGAR, MANGO, HIGH FRUCTOSE CORN SYRUP, VEGETABLE OILS (PALM AND SOYBEAN OIL), WATER, ALMONDS. CONTAINS 2% OR LESS: PARTIALLY HYDROGENATED PALM KERNEL OIL, MARGARINE [VEGETABLE OIL (PALM AND SOYBEAN OIL), WATER, SALT, MONO- AND DIGLYCERIDES, ANNATTO (COLOR), CALCIUM DISODIUM EDTA (PRESERVATIVE), ARTIFICIAL FLAVOR, VITAMIN A PALMITATE], MODIFIED CORN STARCH, NATURAL AND ARTIFICIAL FLAVORS, MILK PROTEIN ISOLATE, CORN SYRUP, SALT, GELATIN, EGG WHITES, CITRIC ACID, CORN STARCH, GUMS (CAROB BEAN, CELLULOSE, XANTHAN, LOCUST BEAN, GUAR). DRIED PASSION FRUIT, SODIUM PHOSPHATE, CARRAGEENAN, POLYSORBATE 60, POLYGLYCEROL ESTERS OF FATTY ACIDS, AGAR, SOY LECITHIN, SODIUM ALUM, CREAM OF TARTAR, SODIUM CITRATE, DISODIUM PHOSPHATE, TETRASODIUM PYROPHOSPHATE, MONOGLYCERIDES, COLORED WITH (TURMERIC, ANNATTO EXTRACT AND BETA-CAROTENE)." Date available: 07/14/2017 Date last updated by company: 07/14/2017
