Source: USDA Branded Food Products Database Release December 2017 Software v.3.8.6.4 2017-10-02
Report Run at: December 18, 2017 12:38 EST
"Nutrient data for: 45270870, PIE, UPC: 723055031736"
Food Group:  Branded Food Products Database
Common Name:

Nutrient,Unit,Data points,Std. Error,"0.125 PIE = 106.0g",1Value per 100 g,
Proximates
"Energy",kcal,--,--,350,330
"Protein",g,--,--,6.00,5.66
"Total lipid (fat)",g,--,--,19.00,17.92
"Carbohydrate, by difference",g,--,--,42.00,39.62
"Fiber, total dietary",g,--,--,1.0,0.9
"Sugars, total",g,--,--,34.00,32.08
Minerals
"Calcium, Ca",mg,--,--,151,142
"Iron, Fe",mg,--,--,0.85,0.80
"Sodium, Na",mg,--,--,130,123
Vitamins
"Vitamin C, total ascorbic acid",mg,--,--,2.9,2.7
"Vitamin A, IU",IU,--,--,884,834
Lipids
"Fatty acids, total saturated",g,--,--,11.003,10.380
"Fatty acids, total trans",g,--,--,0.000,0.000
"Cholesterol",mg,--,--,114,108
Amino Acids
Other
Ingredients
"CONDENSED MILK (EVAPORATED MILK, SUGAR), HEAVY CREAM (RBST FREE MILK), GRAHAM CRACKER (WHEAT FLOUR, SUGAR, WHOLE WHEAT FLOUR, SOYBEAN OIL, HONEY, SODIUM BICARBONATE, SALT), KEY LIME JUICE, CAGE FREE EGG YOLKS (EGGS, SUGAR), RBST FREE UNSALTED BUTTER, POWDERED SUGAR (SUGAR, CORNSTARCH), SUGAR, STABILIZER (GELATIN (FROM FISH SOURCES), DEXTROSE), SUNFLOWER OIL (SUNFLOWER LECITHIN, NATURAL FLAVOR, PROPELLANT)." Date available: 07/14/2017 Date last updated by company: 07/14/2017
