Source: USDA Branded Food Products Database Release December 2017 Software v.3.8.6.4 2017-10-02
Report Run at: December 18, 2017 12:37 EST
"Nutrient data for: 45220830, PIEROGI POTATO, UPC: 708165401013"
Food Group:  Branded Food Products Database
Common Name:

Nutrient,Unit,Data points,Std. Error,"3.0 PIEROGI = 99.0g",1Value per 100 g,
Proximates
"Energy",kcal,--,--,190,192
"Protein",g,--,--,5.00,5.05
"Total lipid (fat)",g,--,--,4.50,4.55
"Carbohydrate, by difference",g,--,--,33.00,33.33
"Fiber, total dietary",g,--,--,1.0,1.0
"Sugars, total",g,--,--,0.00,0.00
Minerals
"Calcium, Ca",mg,--,--,0,0
"Iron, Fe",mg,--,--,0.61,0.62
"Sodium, Na",mg,--,--,40,40
Vitamins
"Vitamin C, total ascorbic acid",mg,--,--,4.2,4.2
"Vitamin A, IU",IU,--,--,171,173
Lipids
"Fatty acids, total saturated",g,--,--,1.000,1.010
"Fatty acids, total trans",g,--,--,0.000,0.000
"Cholesterol",mg,--,--,10,10
Amino Acids
Other
Ingredients
"UNBLEACHED FLOUR (MILLED WHEAT, MALTED BARLEY FLOUR), FRESH POTATOES, EGGS, SOYBEAN OIL, BUTTER, SEASONINGS (SALT AND PEPPER)." Date available: 09/08/2017 Date last updated by company: 09/08/2017
