Source: USDA Branded Food Products Database Release December 2017 Software v.3.8.6.4 2017-10-02
Report Run at: December 18, 2017 12:36 EST
"Nutrient data for: 45098898, PIER 33 GOURMET, MUSSELS IN WHITE WINE SUACE, UPC: 824710335029"
Food Group:  Branded Food Products Database
Common Name:

Nutrient,Unit,Data points,Std. Error,"12.0 MUSSELS | ABOUT = 85.0g",1Value per 100 g,
Proximates
"Energy",kcal,--,--,290,341
"Protein",g,--,--,31.00,36.47
"Total lipid (fat)",g,--,--,12.00,14.12
"Carbohydrate, by difference",g,--,--,11.00,12.94
"Fiber, total dietary",g,--,--,0.0,0.0
"Sugars, total",g,--,--,0.00,0.00
Minerals
"Calcium, Ca",mg,--,--,40,47
"Iron, Fe",mg,--,--,9.00,10.59
"Sodium, Na",mg,--,--,520,612
Vitamins
"Vitamin C, total ascorbic acid",mg,--,--,18.0,21.2
"Vitamin A, IU",IU,--,--,400,471
Lipids
"Fatty acids, total saturated",g,--,--,1.998,2.350
"Fatty acids, total trans",g,--,--,0.000,0.000
"Cholesterol",mg,--,--,75,88
Amino Acids
Other
Ingredients
"FARM RAISED MUSSELS (MYTILUS CHILENSIS), SUNFLOWER OIL, WHITE WINE (CONTAINS SULFITES), VEGETABLE FAT, BUTTER, ONION, PARSLEY, SUGAR, CELERY, GARLIC." Date available: 07/14/2017 Date last updated by company: 07/14/2017
