Source: USDA Branded Food Products Database Release December 2017 Software v.3.8.6.4 2017-10-02
Report Run at: December 18, 2017 12:40 EST
"Nutrient data for: 45145924, PIGGLY WIGGLY, SWEETENED DRIED CRANBERRY TRAIL MIX, UPC: 034952585131"
Food Group:  Branded Food Products Database
Common Name:

Nutrient,Unit,Data points,Std. Error,"0.25 cup = 37.0g",1Value per 100 g,
Proximates
"Energy",kcal,--,--,180,486
"Protein",g,--,--,3.00,8.11
"Total lipid (fat)",g,--,--,11.00,29.73
"Carbohydrate, by difference",g,--,--,21.00,56.76
"Fiber, total dietary",g,--,--,2.0,5.4
"Sugars, total",g,--,--,13.00,35.14
Minerals
"Calcium, Ca",mg,--,--,40,108
"Iron, Fe",mg,--,--,0.48,1.31
"Sodium, Na",mg,--,--,50,135
Vitamins
"Vitamin C, total ascorbic acid",mg,--,--,0.0,0.0
"Vitamin A, IU",IU,--,--,0,0
Lipids
"Fatty acids, total saturated",g,--,--,2.002,5.410
"Fatty acids, total trans",g,--,--,0.000,0.000
"Cholesterol",mg,--,--,0,0
Amino Acids
Other
Ingredients
"SWEETENED DRIED CRANBERRIES (SUGAR, SUNFLOWER OIL), PEANUTS (PEANUT AND/OR COTTONSEED OIL, SALT), MILK CHOCOLATE CHIPS (SUGAR, WHOLE MILK, COCOA BUTTER, CHOCOLATE LIQUOR, SOY LECITHIN [AN EMULSIFIER] AND VANILLA [AN ARTIFICIAL FLAVOR]), ALMONDS AND CASHEWS (COTTONSEED OIL AND SALT)." Date available: 07/14/2017 Date last updated by company: 07/14/2017
