Source: USDA Branded Food Products Database Release December 2017 Software v.3.8.6.4 2017-10-02
Report Run at: December 18, 2017 12:39 EST
"Nutrient data for: 45163768, PIGGLY WIGGLY, FUDGE STICKS, FUDGE COVERED CREME WAFERS, UPC: 041290052294"
Food Group:  Branded Food Products Database
Common Name:

Nutrient,Unit,Data points,Std. Error,"3.0 WAFERS = 27.0g",1Value per 100 g,
Proximates
"Energy",kcal,--,--,140,519
"Protein",g,--,--,1.00,3.70
"Total lipid (fat)",g,--,--,7.00,25.93
"Carbohydrate, by difference",g,--,--,18.00,66.67
"Fiber, total dietary",g,--,--,1.0,3.7
"Sugars, total",g,--,--,14.00,51.85
Minerals
"Calcium, Ca",mg,--,--,0,0
"Iron, Fe",mg,--,--,0.67,2.47
"Sodium, Na",mg,--,--,20,74
Vitamins
"Vitamin C, total ascorbic acid",mg,--,--,0.0,0.0
"Vitamin A, IU",IU,--,--,0,0
Lipids
"Fatty acids, total saturated",g,--,--,5.000,18.520
"Fatty acids, total monounsaturated",g,--,--,2.001,7.410
"Fatty acids, total polyunsaturated",g,--,--,0.000,0.000
"Fatty acids, total trans",g,--,--,0.000,0.000
"Cholesterol",mg,--,--,0,0
Amino Acids
Other
Ingredients
"SUGAR, VEGETABLE OIL (PARTIALLY HYDROGENATED SOYBEAN AND/OR PALM KERNEL OIL*, PALM WITH TGHQ ADDED FOR FRESHNESS), ENRICHED FLOUR (WHEAT FLOUR, NIACIN, IRON, THIAMIN MONONITRATE, RIBOFLAVIN, FOLIC ACID), DEXTROSE, COCOA, CONTAINS 2% OR LESS OF: CORNSTARCH, SALT, ARTIFICIAL FLAVOR, COCOA (PROCESSED WITH ALKALI), BAKING SODA, YELLOW 5, YELLOW 6, SOY LECITHIN." Date available: 07/14/2017 Date last updated by company: 07/14/2017
