Source: USDA Branded Food Products Database Release December 2017 Software v.3.8.6.4 2017-10-02
Report Run at: December 18, 2017 12:39 EST
"Nutrient data for: 45163432, PIGGLY WIGGLY, GUM DROPS, UPC: 034952582635"
Food Group:  Branded Food Products Database
Common Name:

Nutrient,Unit,Data points,Std. Error,"4.0 PIECES = 43.0g",1Value per 100 g,
Proximates
"Energy",kcal,--,--,150,349
"Protein",g,--,--,0.00,0.00
"Total lipid (fat)",g,--,--,0.00,0.00
"Carbohydrate, by difference",g,--,--,38.00,88.37
"Fiber, total dietary",g,--,--,0.0,0.0
"Sugars, total",g,--,--,28.00,65.12
Minerals
"Calcium, Ca",mg,--,--,0,0
"Iron, Fe",mg,--,--,0.00,0.00
"Sodium, Na",mg,--,--,0,0
Vitamins
"Vitamin C, total ascorbic acid",mg,--,--,0.0,0.0
"Vitamin A, IU",IU,--,--,0,0
Lipids
"Fatty acids, total saturated",g,--,--,0.000,0.000
"Fatty acids, total trans",g,--,--,0.000,0.000
"Cholesterol",mg,--,--,0,0
Amino Acids
Other
Ingredients
"SUCROSE, CORN SYRUP, MODIFIED FOOD STARCH, DEXTROSE, NATURAL AND ARTIFICIAL FLAVOR, RED 40, YELLOW 5,YELLOW 6, BLUE 1 AND BLUE 2." Date available: 07/14/2017 Date last updated by company: 07/14/2017
