Source: USDA Branded Food Products Database Release December 2017 Software v.3.8.6.4 2017-10-02
Report Run at: December 18, 2017 12:41 EST
"Nutrient data for: 45003842, PILGRIM'S, BUFFALO STYLE CHICKEN WINGS, UPC: 077013160304"
Food Group:  Branded Food Products Database
Common Name:

Nutrient,Unit,Data points,Std. Error,"3.0 ONZ = 84.0g",1Value per 100 g,
Proximates
"Energy",kcal,--,--,220,262
"Protein",g,--,--,13.00,15.48
"Total lipid (fat)",g,--,--,16.00,19.05
"Carbohydrate, by difference",g,--,--,4.00,4.76
"Fiber, total dietary",g,--,--,0.0,0.0
"Sugars, total",g,--,--,0.00,0.00
Minerals
"Calcium, Ca",mg,--,--,20,24
"Iron, Fe",mg,--,--,0.73,0.87
"Sodium, Na",mg,--,--,730,869
Vitamins
"Vitamin C, total ascorbic acid",mg,--,--,2.4,2.9
"Vitamin A, IU",IU,--,--,759,904
Lipids
"Fatty acids, total saturated",g,--,--,3.998,4.760
"Fatty acids, total trans",g,--,--,0.000,0.000
"Cholesterol",mg,--,--,55,65
Amino Acids
Other
Ingredients
"CHICKEN WINGS 1ST AND 2ND SECTIONS, WATER, SEASONING [MALTODEXTRIN, CORN STARCH, SALT, NATURAL FLAVOR, SPICE, POLYSORBATE 80, OLEORESIN PAPRIKA EXTRACTIVES (COLOR)], SEASONING (MODIFIED FOOD STARCH [TAPICOA], ALGIN, SALT, SPICES), SODIUM PHOSPHATES, SALT. COATED WITH: MODIFIED FOOD STARCH, TAPICOA STARCH, DEXTRIN, RICE FLOUR, SALT, LEAVENING (SODIUM ACID PYROPHOSPHATE, SODIUM BICARBONATE), CORNSTARCH, GUAR GUM, BETA CAROTENE (COLOR), GLAZED WITH: DISTILLED VINEGAR, AGED CAYENNE RED PEPPERS, WATER, SALT, PAPRIKA, SOYBEAN OIL, XANTHAN GUM, EXTRACTIVES OF PAPRIKA (COLOR), NATURAL BUTTER FLAVOR, GARLIC POWDER, SPICE. COATING SET IN VEGETABLE OIL" Date available: 06/25/2017 Date last updated by company: 06/25/2017
