Source: USDA Branded Food Products Database Release December 2017 Software v.3.8.6.4 2017-10-02
Report Run at: December 18, 2017 12:48 EST
"Nutrient data for: 45328506, PINEAPPLE CHUNKS, UPC: 030223081548"
Food Group:  Branded Food Products Database
Common Name:

Nutrient,Unit,Data points,Std. Error,"5.0 ONZ = 142.0g",1Value per 100 g,
Proximates
"Energy",kcal,--,--,45,32
"Protein",g,--,--,0.99,0.70
"Total lipid (fat)",g,--,--,0.00,0.00
"Carbohydrate, by difference",g,--,--,18.01,12.68
"Fiber, total dietary",g,--,--,2.0,1.4
"Sugars, total",g,--,--,12.99,9.15
Minerals
"Calcium, Ca",mg,--,--,20,14
"Iron, Fe",mg,--,--,0.35,0.25
"Sodium, Na",mg,--,--,0,0
Vitamins
"Vitamin C, total ascorbic acid",mg,--,--,53.2,37.5
"Vitamin A, IU",IU,--,--,98,69
Lipids
"Fatty acids, total saturated",g,--,--,0.000,0.000
"Fatty acids, total trans",g,--,--,0.000,0.000
"Cholesterol",mg,--,--,0,0
Amino Acids
Other
Ingredients
"GOLD PINEAPPLE, JUICES." Date available: 09/21/2017 Date last updated by company: 09/21/2017
