Source: USDA Branded Food Products Database Release December 2017 Software v.3.8.6.4 2017-10-02
Report Run at: December 18, 2017 12:56 EST
"Nutrient data for: 45063276, PINEAPPLE TIDBITS IN 100% PINEAPPLE JUICE, UPC: 038900004071"
Food Group:  Branded Food Products Database
Common Name:

Nutrient,Unit,Data points,Std. Error,"1 CONTAINER = 113.0g",1Value per 100 g,
Proximates
"Energy",kcal,--,--,60,53
"Protein",g,--,--,0.99,0.88
"Total lipid (fat)",g,--,--,0.00,0.00
"Carbohydrate, by difference",g,--,--,15.00,13.27
"Fiber, total dietary",g,--,--,1.0,0.9
"Sugars, total",g,--,--,14.00,12.39
Minerals
"Calcium, Ca",mg,--,--,0,0
"Iron, Fe",mg,--,--,0.45,0.40
"Potassium, K",mg,--,--,134,119
"Sodium, Na",mg,--,--,0,0
Vitamins
"Vitamin C, total ascorbic acid",mg,--,--,37.2,32.9
"Vitamin A, IU",IU,--,--,0,0
Lipids
"Fatty acids, total saturated",g,--,--,0.000,0.000
"Fatty acids, total trans",g,--,--,0.000,0.000
"Cholesterol",mg,--,--,0,0
Amino Acids
Other
Ingredients
"PINEAPPLE, PINEAPPLE JUICE, ASCORBIC ACID (TO PROMOTE COLOR RETENTION), AND CITRIC ACID." Date available: 10/13/2017 Date last updated by company: 10/13/2017
