Source: USDA Branded Food Products Database Release December 2017 Software v.3.8.6.4 2017-10-02
Report Run at: December 18, 2017 12:48 EST
"Nutrient data for: 45315534, PINEAPPLE COCONUT CRISPS, UPC: 857340006144"
Food Group:  Branded Food Products Database
Common Name:

Nutrient,Unit,Data points,Std. Error,"9.0 CRISPS | ABOUT = 28.0g",1Value per 100 g,
Proximates
"Energy",kcal,--,--,130,464
"Protein",g,--,--,3.00,10.71
"Total lipid (fat)",g,--,--,4.50,16.07
"Carbohydrate, by difference",g,--,--,19.00,67.86
"Fiber, total dietary",g,--,--,2.0,7.1
"Sugars, total",g,--,--,6.00,21.43
Minerals
"Calcium, Ca",mg,--,--,20,71
"Iron, Fe",mg,--,--,1.93,6.88
"Sodium, Na",mg,--,--,240,857
Vitamins
"Vitamin C, total ascorbic acid",mg,--,--,0.0,0.0
"Vitamin A, IU",IU,--,--,0,0
Lipids
"Fatty acids, total saturated",g,--,--,2.500,8.930
"Fatty acids, total trans",g,--,--,0.000,0.000
"Cholesterol",mg,--,--,0,0
Amino Acids
Other
Ingredients
"BUTTERMILK (CULTURED LOW FAT MILK, CONDENSED SKIM MILK, SALT, VITAMIN A AND VITAMIN D), UNBLEACHED FLOUR (WHEAT FLOUR, MALTED BARLEY FLOUR, NIACIN, IRON, THIAMIN, RIBOFLAVIN, AND FOLIC ACID), DRIED PINEAPPLE (PINEAPPLE, CANE SUGAR AND CITRIC ACID), TOASTED COCONUT CHIPS, SESAME SEEDS, HONEY, BROWN SUGAR, GRAPE SEED FLOUR, SEA SALT, AND BAKING SODA." Date available: 07/14/2017 Date last updated by company: 07/14/2017
