Source: USDA Branded Food Products Database Release December 2017 Software v.3.8.6.4 2017-10-02
Report Run at: December 18, 2017 12:58 EST
"Nutrient data for: 45188818, PINE NUTS HUMMOS, UPC: 894184003014"
Food Group:  Branded Food Products Database
Common Name:

Nutrient,Unit,Data points,Std. Error,"1 ONZ = 28.0g",1Value per 100 g,
Proximates
"Energy",kcal,--,--,45,161
"Protein",g,--,--,2.00,7.14
"Total lipid (fat)",g,--,--,3.00,10.71
"Carbohydrate, by difference",g,--,--,4.00,14.29
"Fiber, total dietary",g,--,--,2.0,7.1
"Sugars, total",g,--,--,0.70,2.50
Minerals
"Calcium, Ca",mg,--,--,10,36
"Iron, Fe",mg,--,--,1.29,4.59
"Sodium, Na",mg,--,--,106,379
Vitamins
"Vitamin C, total ascorbic acid",mg,--,--,0.0,0.0
"Vitamin A, IU",IU,--,--,0,0
Lipids
"Fatty acids, total saturated",g,--,--,0.000,0.000
"Fatty acids, total trans",g,--,--,0.000,0.000
"Cholesterol",mg,--,--,0,0
Amino Acids
Other
Ingredients
"CHICKPEAS, TAHINI, OLIVE AND NON-GMO CANOLA OIL, GARLIC, PINE NUTS, LEMON JUICE, CITRIC ACID, SALT." Date available: 07/14/2017 Date last updated by company: 07/14/2017
