Source: USDA Branded Food Products Database Release December 2017 Software v.3.8.6.4 2017-10-02
Report Run at: December 18, 2017 13:09 EST
"Nutrient data for: 45266272, PINTO BEANS WITH JALAPENOS, UPC: 050700003733"
Food Group:  Branded Food Products Database
Common Name:

Nutrient,Unit,Data points,Std. Error,"0.5 cup = 129.0g",1Value per 100 g,
Proximates
"Energy",kcal,--,--,101,78
"Protein",g,--,--,6.00,4.65
"Total lipid (fat)",g,--,--,0.50,0.39
"Carbohydrate, by difference",g,--,--,18.00,13.95
"Fiber, total dietary",g,--,--,5.0,3.9
"Sugars, total",g,--,--,0.00,0.00
Minerals
"Calcium, Ca",mg,--,--,40,31
"Iron, Fe",mg,--,--,1.82,1.41
"Sodium, Na",mg,--,--,480,372
Vitamins
"Vitamin C, total ascorbic acid",mg,--,--,0.0,0.0
"Vitamin A, IU",IU,--,--,101,78
Lipids
"Fatty acids, total saturated",g,--,--,0.503,0.390
"Fatty acids, total trans",g,--,--,0.000,0.000
"Cholesterol",mg,--,--,0,0
Amino Acids
Other
Ingredients
"PREPARED PINTO BEANS, WATER, SALT, JALAPENO PEPPERS (PACKED IN WATER, SALT, CITRIC ACID, POTASSIUM SORBATE, SODIUM BENZOATE), ONION POWDER." Date available: 07/14/2017 Date last updated by company: 07/14/2017
