Source: USDA Branded Food Products Database Release December 2017 Software v.3.8.6.4 2017-10-02
Report Run at: December 18, 2017 13:09 EST
"Nutrient data for: 45332956, PINTO BEANS, UPC: 041512080043"
Food Group:  Branded Food Products Database
Common Name:

Nutrient,Unit,Data points,Std. Error,"0.5 cup = 130.0g",1Value per 100 g,
Proximates
"Energy",kcal,--,--,100,77
"Protein",g,--,--,6.01,4.62
"Total lipid (fat)",g,--,--,0.00,0.00
"Carbohydrate, by difference",g,--,--,18.00,13.85
"Fiber, total dietary",g,--,--,4.0,3.1
"Sugars, total",g,--,--,1.00,0.77
Minerals
"Calcium, Ca",mg,--,--,60,46
"Iron, Fe",mg,--,--,1.44,1.11
"Sodium, Na",mg,--,--,420,323
Vitamins
"Vitamin C, total ascorbic acid",mg,--,--,2.3,1.8
"Vitamin A, IU",IU,--,--,0,0
Lipids
"Fatty acids, total saturated",g,--,--,0.000,0.000
"Fatty acids, total trans",g,--,--,0.000,0.000
"Cholesterol",mg,--,--,0,0
Amino Acids
Other
Ingredients
"WATER, PINTO BEANS, SALT, CALCIUM CHLORIDE, CALCIUM DISODIUM EDTA." Date available: 10/13/2017 Date last updated by company: 10/13/2017
