Source: USDA Branded Food Products Database Release December 2017 Software v.3.8.6.4 2017-10-02
Report Run at: December 18, 2017 13:07 EST
"Nutrient data for: 45197550, PINTO BEANS, UPC: 071240040026"
Food Group:  Branded Food Products Database
Common Name:

Nutrient,Unit,Data points,Std. Error,"0.5 cup = 130.0g",1Value per 100 g,
Proximates
"Energy",kcal,--,--,110,85
"Protein",g,--,--,6.99,5.38
"Total lipid (fat)",g,--,--,0.00,0.00
"Carbohydrate, by difference",g,--,--,19.99,15.38
"Fiber, total dietary",g,--,--,4.9,3.8
"Sugars, total",g,--,--,1.00,0.77
Minerals
"Calcium, Ca",mg,--,--,40,31
"Iron, Fe",mg,--,--,1.44,1.11
"Potassium, K",mg,--,--,450,346
"Sodium, Na",mg,--,--,130,100
Vitamins
"Vitamin C, total ascorbic acid",mg,--,--,2.3,1.8
"Vitamin A, IU",IU,--,--,0,0
Lipids
"Fatty acids, total saturated",g,--,--,0.000,0.000
"Fatty acids, total trans",g,--,--,0.000,0.000
"Cholesterol",mg,--,--,0,0
Amino Acids
Other
Ingredients
"WATER, PINTO BEANS, SALT, CALCIUM CHLORIDE, CALCIUM EDTA (ADDED TO PROMOTE COLOR RETENTION)." Date available: 07/14/2017 Date last updated by company: 07/14/2017
