Source: USDA Branded Food Products Database Release December 2017 Software v.3.8.6.4 2017-10-02
Report Run at: December 18, 2017 13:07 EST
"Nutrient data for: 45012561, PINTO BEANS, UPC: 078883240431"
Food Group:  Branded Food Products Database
Common Name:

Nutrient,Unit,Data points,Std. Error,"0.5 cup = 115.0g",1Value per 100 g,
Proximates
"Energy",kcal,--,--,130,113
"Protein",g,--,--,4.00,3.48
"Total lipid (fat)",g,--,--,5.00,4.35
"Carbohydrate, by difference",g,--,--,17.00,14.78
"Fiber, total dietary",g,--,--,4.9,4.3
"Sugars, total",g,--,--,1.00,0.87
Minerals
"Calcium, Ca",mg,--,--,40,35
"Iron, Fe",mg,--,--,1.62,1.41
"Sodium, Na",mg,--,--,450,391
Vitamins
"Vitamin C, total ascorbic acid",mg,--,--,0.0,0.0
"Vitamin A, IU",IU,--,--,0,0
Lipids
"Fatty acids, total saturated",g,--,--,0.000,0.000
"Fatty acids, total trans",g,--,--,0.000,0.000
"Cholesterol",mg,--,--,0,0
Amino Acids
Other
Ingredients
"WATER, PINTO BEANS, CANOLA AND/OR SUNFLOWER SEED OIL, ONION, CHEESE NATURAL FLAVOR AND IODIZED SALT." Date available: 06/25/2017 Date last updated by company: 06/25/2017
