Source: USDA Branded Food Products Database Release December 2017 Software v.3.8.6.4 2017-10-02
Report Run at: December 18, 2017 13:16 EST
"Nutrient data for: 45090160, PITTED BLACK OLIVES, UPC: 041253009204"
Food Group:  Branded Food Products Database
Common Name:

Nutrient,Unit,Data points,Std. Error,"4.0 OLIVES = 15.0g",1Value per 100 g,
Proximates
"Energy",kcal,--,--,20,133
"Protein",g,--,--,0.00,0.00
"Total lipid (fat)",g,--,--,2.00,13.33
"Carbohydrate, by difference",g,--,--,1.00,6.67
"Fiber, total dietary",g,--,--,0.0,0.0
"Sugars, total",g,--,--,0.00,0.00
Minerals
"Calcium, Ca",mg,--,--,0,0
"Iron, Fe",mg,--,--,2.40,16.00
"Sodium, Na",mg,--,--,120,800
Vitamins
"Vitamin C, total ascorbic acid",mg,--,--,0.0,0.0
"Vitamin A, IU",IU,--,--,0,0
Lipids
"Fatty acids, total saturated",g,--,--,0.500,3.330
"Fatty acids, total trans",g,--,--,0.000,0.000
"Cholesterol",mg,--,--,0,0
Amino Acids
Other
Ingredients
"RIPE OLIVES, WATER, SEA SALT, FERROUS GLUCONATE [ADDED TO STABILIZE COLOR]." Date available: 07/14/2017 Date last updated by company: 07/14/2017
