Source: USDA Branded Food Products Database Release December 2017 Software v.3.8.6.4 2017-10-02
Report Run at: December 18, 2017 13:21 EST
"Nutrient data for: 45192117, PITTED QUEEN OLIVES SEASONED IN BRINE, UPC: 68826709863"
Food Group:  Branded Food Products Database
Common Name:

Nutrient,Unit,Data points,Std. Error,"3.0 OLIVES = 17.0g",1Value per 100 g,
Proximates
"Energy",kcal,--,--,30,176
"Protein",g,--,--,0.00,0.00
"Total lipid (fat)",g,--,--,3.50,20.59
"Carbohydrate, by difference",g,--,--,0.00,0.00
"Fiber, total dietary",g,--,--,0.0,0.0
"Sugars, total",g,--,--,0.00,0.00
Minerals
"Calcium, Ca",mg,--,--,0,0
"Iron, Fe",mg,--,--,1.06,6.23
"Sodium, Na",mg,--,--,280,1647
Vitamins
"Vitamin C, total ascorbic acid",mg,--,--,0.0,0.0
"Vitamin A, IU",IU,--,--,0,0
Lipids
"Fatty acids, total saturated",g,--,--,0.000,0.000
"Fatty acids, total trans",g,--,--,0.000,0.000
"Cholesterol",mg,--,--,0,0
Amino Acids
Other
Ingredients
"GREEN OLIVES, WATER, SPICES, SALT, LACTIC ACID." Date available: 07/14/2017 Date last updated by company: 07/14/2017
