Source: USDA Branded Food Products Database Release December 2017 Software v.3.8.6.4 2017-10-02
Report Run at: December 18, 2017 13:19 EST
"Nutrient data for: 45204046, PITTED MANZANILLA OLIVES, UPC: 8413636201031"
Food Group:  Branded Food Products Database
Common Name:

Nutrient,Unit,Data points,Std. Error,"3.0 OLIVES = 10.0g",1Value per 100 g,
Proximates
"Energy",kcal,--,--,15,150
"Protein",g,--,--,0.00,0.00
"Total lipid (fat)",g,--,--,1.50,15.00
"Carbohydrate, by difference",g,--,--,0.00,0.00
Minerals
"Sodium, Na",mg,--,--,160,1600
Vitamins
Lipids
"Fatty acids, total saturated",g,--,--,1.000,10.000
"Fatty acids, total trans",g,--,--,0.000,0.000
Amino Acids
Other
Ingredients
"PITTED MANZANILLA OLIVES, WATER AND SALT, CITRIC ACID, LACTIC ACID AND ASCORBIC ACID." Date available: 09/30/2017 Date last updated by company: 09/30/2017
