Source: USDA Branded Food Products Database Release December 2017 Software v.3.8.6.4 2017-10-02
Report Run at: December 18, 2017 13:22 EST
"Nutrient data for: 45230620, PIXAR FINDING DORY KIDS COASTLINE KETTLE CORN, UPC: 023896422015"
Food Group:  Branded Food Products Database
Common Name:

Nutrient,Unit,Data points,Std. Error,"1 BAG UNPOPPED, (MAKES 5 CUPS POPPED), SERVINGS PER BAG:1 = 34.0g",1Value per 100 g,
Proximates
"Energy",kcal,--,--,120,353
"Protein",g,--,--,3.00,8.82
"Total lipid (fat)",g,--,--,2.00,5.88
"Carbohydrate, by difference",g,--,--,23.00,67.65
"Fiber, total dietary",g,--,--,3.0,8.8
Minerals
"Iron, Fe",mg,--,--,1.06,3.11
"Sodium, Na",mg,--,--,260,765
Vitamins
Lipids
"Fatty acids, total saturated",g,--,--,0.500,1.470
"Fatty acids, total monounsaturated",g,--,--,0.500,1.470
"Fatty acids, total polyunsaturated",g,--,--,0.500,1.470
"Fatty acids, total trans",g,--,--,0.000,0.000
"Cholesterol",mg,--,--,0,0
Amino Acids
Other
Ingredients
"WHOLE GRAIN POPCORN, PALM OIL, SALT, SUCRALOSE, FRESHNESS PRESERVED BY TBHQ." Date available: 07/14/2017 Date last updated by company: 07/14/2017
