Source: USDA Branded Food Products Database Release December 2017 Software v.3.8.6.4 2017-10-02
Report Run at: December 18, 2017 13:25 EST
"Nutrient data for: 45212539, PIZZA DOUGH, UPC: 814959201353"
Food Group:  Branded Food Products Database
Common Name:

Nutrient,Unit,Data points,Std. Error,"2.0 ONZ = 55.0g",1Value per 100 g,
Proximates
"Energy",kcal,--,--,120,218
"Protein",g,--,--,5.00,9.09
"Total lipid (fat)",g,--,--,1.00,1.82
"Carbohydrate, by difference",g,--,--,26.00,47.27
"Fiber, total dietary",g,--,--,4.0,7.3
"Sugars, total",g,--,--,0.00,0.00
Minerals
"Calcium, Ca",mg,--,--,20,36
"Iron, Fe",mg,--,--,1.31,2.38
"Sodium, Na",mg,--,--,220,400
Vitamins
"Vitamin C, total ascorbic acid",mg,--,--,0.0,0.0
"Vitamin A, IU",IU,--,--,0,0
Lipids
"Fatty acids, total saturated",g,--,--,0.000,0.000
"Fatty acids, total trans",g,--,--,0.000,0.000
"Cholesterol",mg,--,--,0,0
Amino Acids
Other
Ingredients
"HIGH GLUTEN SPRING WHEAT FLOUR, WATER, SALT, SUGAR, SOYBEAN OIL, SESAME SEED, POPPY SEED, DRIED GARLIC, DRIED ONION, YEAST, CARAWAY SEED" Date available: 07/14/2017 Date last updated by company: 07/14/2017
