Source: USDA Branded Food Products Database Release December 2017 Software v.3.8.6.4 2017-10-02
Report Run at: December 18, 2017 13:31 EST
"Nutrient data for: 45227960, PIZZA, UPC: 028704474002"
Food Group:  Branded Food Products Database
Common Name:

Nutrient,Unit,Data points,Std. Error,"0.2 PIZZA = 155.0g",1Value per 100 g,
Proximates
"Energy",kcal,--,--,429,277
"Protein",g,--,--,17.00,10.97
"Total lipid (fat)",g,--,--,18.00,11.61
"Carbohydrate, by difference",g,--,--,46.00,29.68
"Fiber, total dietary",g,--,--,0.9,0.6
"Sugars, total",g,--,--,2.00,1.29
Minerals
"Calcium, Ca",mg,--,--,400,258
"Iron, Fe",mg,--,--,1.36,0.88
"Sodium, Na",mg,--,--,921,594
Vitamins
"Vitamin C, total ascorbic acid",mg,--,--,2.9,1.9
"Vitamin A, IU",IU,--,--,629,406
Lipids
"Fatty acids, total saturated",g,--,--,5.998,3.870
"Fatty acids, total trans",g,--,--,0.000,0.000
"Cholesterol",mg,--,--,36,23
Amino Acids
Other
Ingredients
"CRUST (FLOUR (WHEAT, MALTED BARLEY), WATER, SOYBEAN OIL, YEAST, SALT, DEXTROSE, LEAVENING (SODIUM ALUMINUM PHOSPHATE, SODIUM BICARBONATE), CALCIUM PROPIONATE (PRESERVATIVE) AND SOY LECITHIN, LOW MOISTURE PART SKIM MOZZARELLA CHEESE (PASTEURIZED PART SKIM MILK, CHEESE CULTURES, SALT, ENZYMES, FULLY COOKED BUFFALO STYLE SHREDDED GRILLED CHICKEN (CHICKEN BREAST MEAT WITH RIB MEAT, WATER, SEASONING (SALT, TAPIOCA STARCH, DRY HOT SAUCE (AGED CAYENNE PEPPERS, SEEDS AND SKINS, SALT, DISTILLED VINEGAR, CANOLA OIL, NATURAL TOCOPHEROL, GARLIC POWDER), SPICES, NATURAL FLAVORS, VINEGAR POWDER (ACETIC ACID, MALTODEXTRIN, GARLIC POWDER, SUGAR, ONION POWDER, XANTHAN GUM, OLEORESIN OF PAPRIKA AND LESS THAN 2% TRICALCIUM PHOSPHATE ADDED TO PREVENT CAKING), SALT, SODIUM PHOSPHATE AND BLACK PEPPER), BUTTERMILK RANCH SOYBEAN OIL, CULTURED BUTTERMILK, SOUR CREAM (CULTURED CREAM, ENZYME), VINEGAR, EGG YOLK, CONTAINS LESS THAN 2% OF SUGAR, SALT, SPICE, YEAST EXTRACT, NATURAL FLAVOR, MUSTARD BRAN, GARLIC POWDER, TOASTED ONION POWDER, XANTHAN GUM, BUTTERMILK POWDER, BETA CAROTENE (COLOR), LACTIC ACID. CHEDDAR CHEESE (PASTEURIZED MILK, SALT, CHEESE CULTURES, ENZYMES, ANNATTO), BACON (PORK CURED WITH: WATER, SALT, SODIUM ERYTHORBATE, SODIUM NITRITE, MAY CONTAIN SUGAR, SMOKE FLAVORING, SODIUM PHOSPHATE)." Date available: 07/14/2017 Date last updated by company: 07/14/2017
