Source: USDA Branded Food Products Database Release December 2017 Software v.3.8.6.4 2017-10-02
Report Run at: December 18, 2017 13:32 EST
"Nutrient data for: 45314429, PIZZA, UPC: 892453001105"
Food Group:  Branded Food Products Database
Common Name:

Nutrient,Unit,Data points,Std. Error,"0.2 PIZZA = 680.0g",1Value per 100 g,
Proximates
"Energy",kcal,--,--,449,66
"Protein",g,--,--,19.99,2.94
"Total lipid (fat)",g,--,--,28.97,4.26
"Carbohydrate, by difference",g,--,--,28.97,4.26
"Fiber, total dietary",g,--,--,0.7,0.1
"Sugars, total",g,--,--,1.02,0.15
Minerals
"Calcium, Ca",mg,--,--,503,74
"Iron, Fe",mg,--,--,0.20,0.03
"Sodium, Na",mg,--,--,462,68
Vitamins
"Vitamin C, total ascorbic acid",mg,--,--,0.7,0.1
"Vitamin A, IU",IU,--,--,143,21
Lipids
"Fatty acids, total saturated",g,--,--,8.024,1.180
"Fatty acids, total trans",g,--,--,0.000,0.000
"Cholesterol",mg,--,--,88,13
Amino Acids
Other
Ingredients
"CRUST: TAPIOCA STARCH, MILK, EGGS, CANOLA OIL, CHEDDAR CHEESE (FRESH PASTEURIZED MILK, CHEESE CULTURES, SALT, ENZYMES), MOZZARELLA CHEESE (PASTEURIZED MILK, CHEESE CULTURE, SALT, VEGETABLE RENNET), PARMESAN CHEESE (PASTEURIZED MILK, CHEESE CULTURE, SALT, VEGETABLE RENNET). TOPPING: MOZZARELLA CHEESE (PASTEURIZED MILK, CHEESE CULTURE, SALT, VEGETABLE RENNET), PARMESAN CHEESE (PASTEURIZED MILK, CHEESE CULTURE, SALT, VEGETABLE RENNET), WATER, CANOLA OIL, SUNFLOWER SEEDS, BASIL, FRESH GARLIC." Date available: 06/21/2017 Date last updated by company: 06/21/2017
