Source: USDA Branded Food Products Database Release December 2017 Software v.3.8.6.4 2017-10-02
Report Run at: December 18, 2017 13:34 EST
"Nutrient data for: 45204787, PIZZETI, UPC: 5201360600540"
Food Group:  Branded Food Products Database
Common Name:

Nutrient,Unit,Data points,Std. Error,"6.0 PIECES = 28.0g",1Value per 100 g,
Proximates
"Energy",kcal,--,--,120,429
"Protein",g,--,--,4.00,14.29
"Total lipid (fat)",g,--,--,4.50,16.07
"Carbohydrate, by difference",g,--,--,16.00,57.14
"Fiber, total dietary",g,--,--,1.0,3.6
"Sugars, total",g,--,--,1.00,3.57
Minerals
"Calcium, Ca",mg,--,--,60,214
"Iron, Fe",mg,--,--,0.64,2.29
"Sodium, Na",mg,--,--,270,964
Vitamins
"Vitamin C, total ascorbic acid",mg,--,--,0.0,0.0
"Vitamin A, IU",IU,--,--,179,638
Lipids
"Fatty acids, total saturated",g,--,--,1.999,7.140
"Fatty acids, total trans",g,--,--,0.000,0.000
"Cholesterol",mg,--,--,5,18
Amino Acids
Other
Ingredients
"WHEAT FLOUR, EMMENTALER CHEESE (15%) (PASTEURIZED COW'S MILK, SALT, STARTER CULTURE, MICROBIAL RENNET), PALM OIL, SALT, TOMATO SEASONING (3%) [DRIED TOMATO (5%), DRIED GARLIC, DRIED ONION, DEXTROSE, SOUR WHEY POWDER FROM MILK, HERBS, OREGANO (1%), BEETROOT JUICE POWDER, PAPRIKA, FLAVORING SUBSTANCES], SUGAR, YEAST, DRIED OLIVE, SOY FLOUR." Date available: 07/14/2017 Date last updated by company: 07/14/2017
