Source: USDA Branded Food Products Database Release December 2017 Software v.3.8.6.4 2017-10-02
Report Run at: December 18, 2017 13:24 EST
"Nutrient data for: 45314388, PIZZA CRUST, UPC: 01831704"
Food Group:  Branded Food Products Database
Common Name:

Nutrient,Unit,Data points,Std. Error,"0.2 PACKAGE = 62.0g",1Value per 100 g,
Proximates
"Energy",kcal,--,--,160,258
"Protein",g,--,--,5.00,8.06
"Total lipid (fat)",g,--,--,2.00,3.23
"Carbohydrate, by difference",g,--,--,30.00,48.39
"Fiber, total dietary",g,--,--,1.0,1.6
"Sugars, total",g,--,--,3.00,4.84
Minerals
"Calcium, Ca",mg,--,--,0,0
"Iron, Fe",mg,--,--,1.16,1.87
"Sodium, Na",mg,--,--,280,452
Vitamins
"Vitamin C, total ascorbic acid",mg,--,--,0.0,0.0
"Vitamin A, IU",IU,--,--,0,0
Lipids
"Fatty acids, total saturated",g,--,--,0.000,0.000
"Fatty acids, total trans",g,--,--,0.000,0.000
"Cholesterol",mg,--,--,0,0
Amino Acids
Other
Ingredients
"ENRICHED FLOUR BLEACHED (WHEAT FLOUR, NIACIN, FERROUS SULFATE, THIAMIN MONONITRATE, RIBOFLAVIN, FOLIC ACID), WATER, SOYBEAN OIL. CONTAINS 2% OR LESS OF: VITAL WHEAT GLUTEN, DEXTROSE, SUGAR, LEAVENING (GLUCONO DELTA-LACTONE, BAKING SODA), SALT, POTASSIUM CHLORIDE, HYDROGENATED VEGETABLE OIL (SOYBEAN, PALM, AND/OR COTTONSEED), NATURAL AND ARTIFICIAL FLAVOR, MONO AND DIGLYCERIDES, XANTHAN GUM, YEAST, YEAST EXTRACT, AZODICARBONAMIDE (DOUGH CONDITIONER)." Date available: 07/14/2017 Date last updated by company: 07/14/2017
