Source: USDA Branded Food Products Database Release December 2017 Software v.3.8.6.4 2017-10-02
Report Run at: December 18, 2017 13:24 EST
"Nutrient data for: 45269271, PIZZA CRUST MIX, UPC: 853344005107"
Food Group:  Branded Food Products Database
Common Name:

Nutrient,Unit,Data points,Std. Error,"0.0625 PKG. = 20.0g",1Value per 100 g,
Proximates
"Energy",kcal,--,--,70,350
"Protein",g,--,--,1.00,5.00
"Total lipid (fat)",g,--,--,0.00,0.00
"Carbohydrate, by difference",g,--,--,16.00,80.00
"Fiber, total dietary",g,--,--,1.0,5.0
"Sugars, total",g,--,--,1.00,5.00
Minerals
"Calcium, Ca",mg,--,--,0,0
"Iron, Fe",mg,--,--,0.90,4.50
"Sodium, Na",mg,--,--,90,450
Vitamins
"Vitamin C, total ascorbic acid",mg,--,--,0.0,0.0
"Vitamin A, IU",IU,--,--,0,0
Lipids
"Fatty acids, total saturated",g,--,--,0.000,0.000
"Fatty acids, total trans",g,--,--,0.000,0.000
"Cholesterol",mg,--,--,0,0
Amino Acids
Other
Ingredients
"GLUTEN-FREE FLOUR (SORGHUM FLOUR, WHITE RICE FLOUR, NON-GMO CORNSTARCH, TAPIOCA STARCH, MILLET FLOUR), YEAST, XANTHAN GUM, SUGAR, SALT, PSYLLIUM HUSK POWDER, ASCORBIC ACID (VITAMIN C)" Date available: 07/14/2017 Date last updated by company: 07/14/2017
