Source: USDA Branded Food Products Database Release December 2017 Software v.3.8.6.4 2017-10-02
Report Run at: December 18, 2017 13:32 EST
"Nutrient data for: 45261496, PIZZA, UPC: 826766141753"
Food Group:  Branded Food Products Database
Common Name:

Nutrient,Unit,Data points,Std. Error,"0.125 PIZZA = 97.0g",1Value per 100 g,
Proximates
"Energy",kcal,--,--,220,227
"Protein",g,--,--,12.00,12.37
"Total lipid (fat)",g,--,--,8.00,8.25
"Carbohydrate, by difference",g,--,--,26.00,26.80
"Fiber, total dietary",g,--,--,1.0,1.0
"Sugars, total",g,--,--,6.00,6.19
Minerals
"Calcium, Ca",mg,--,--,100,103
"Iron, Fe",mg,--,--,5.42,5.59
"Sodium, Na",mg,--,--,550,567
Vitamins
"Vitamin C, total ascorbic acid",mg,--,--,4.8,5.0
"Vitamin A, IU",IU,--,--,402,414
Lipids
"Fatty acids, total saturated",g,--,--,3.502,3.610
"Fatty acids, total trans",g,--,--,0.000,0.000
"Cholesterol",mg,--,--,30,31
Amino Acids
Other
Ingredients
"PIZZA CRUST (ENRICHED FLOUR [WHEAT FLOUR, MALTED BARLEY FLOUR, NIACIN, IRON, THIAMINE MONONITRATE, RIBOFLAVIN, FOLIC ACID], WATER, CONTAINS 2% OR LESS IF EACH OF THE FOLLOWING: YEAST, VITAL WHEAT GLUTEN, CULTURED WHEAT FLOUR, PARTIALLY HYDROGENATED SOYBEAN OIL, NATURAL BUTTER FLAVOR, BETA CAROTENE, SALT, SUGAR, FERMENTED WHEAT FLOUR, SODIUM ACID PYROPHOSPHATE, SOY LECITHIN, ASCORBIC ACID, BAKERY ENZYME [AMYLASE, WHEAT STARCH, SALT], SODIUM STEAROYL LACTYLATE, AZODICARBONAMIDE, MICROCRYSTALLINE CELLULOSE, CORN STARCH, DICALCIUM PHOSPHATE, SODIUM BICARBONATE), HONEY BBQ SAUCE (HIGH FRUCTOSE CORN SYRUP, WATER, TOMATO PASTE, DISTILLED WHITE VINEGAR, MOLASSES, HONEY, MODIFIED CORN STARCH, SALT, SUGAR, NATURAL SMOKE FLAVOR, SODIUM COLOR, MUSTARD FLOUR, GARLIC POWDER, ONION POWDER, SPICES, NATURAL HONEY FLAVOR), HAND PULLED ROTISSERIE CHICKEN BREAST MEAT - SAVORY FULLY COOKED [CHICKEN BREAST MEAT, WATER, SEASONING [SALT, MALTODEXTRIN, NATURAL FLAVORS, ONION POWDER, CANOLA OIL, CARRAGEENAN, LESS THAN 2% SILICONE DIOXIDE AS AN ANTI-CAKING AGENT], SODIUM TRIPOLYPHOSPHATE, SALT), MILD CHEDDAR CHEESE (CHEDDAR CHEESE [PASTEURIZED MILK, CHEESE CULTURES, SALT, ENZYMES, COLORED WITH ANNATTO], POTATO STARCH, CORN STARCH,A ND CELLULOSE POWDER ADDED TO [PREVENT CAKING, NATAMYCIN [A NATURAL MOLD INHIBITOR]), MOZZARELLA CHEESE (WHOLE MILK, LOW MOISTURE MOZZARELLA CHEESE [PASTEURIZED MILK, CHEESE CULTURES, SALT, ENZYMES], RICE FLOUR AND POWDERED CELLULOSE ADDED TO PREVENT CAKING, NATAMYCIN (A NATURAL MOLD INHIBITOR]), BACON PIZZA TOPPING (CURED WITH WATER, SALT, SMOKE FLAVORING, SODIUM PHOSPHATE, SODIUM ERYTHORBATE, SODIUM NITRITE. MAY CONTAINS SUGAR, BROWN SUGAR), GREEN ONION." Date available: 07/14/2017 Date last updated by company: 07/14/2017
