Source: USDA Branded Food Products Database Release December 2017 Software v.3.8.6.4 2017-10-02
Report Run at: December 18, 2017 13:33 EST
"Nutrient data for: 45009257, PIZZERIA BITES, UPC: 041322375117"
Food Group:  Branded Food Products Database
Common Name:

Nutrient,Unit,Data points,Std. Error,"4.0 PIECES = 91.0g",1Value per 100 g,
Proximates
"Energy",kcal,--,--,250,275
"Protein",g,--,--,10.00,10.99
"Total lipid (fat)",g,--,--,10.00,10.99
"Carbohydrate, by difference",g,--,--,29.00,31.87
"Fiber, total dietary",g,--,--,2.0,2.2
"Sugars, total",g,--,--,4.00,4.40
Minerals
"Calcium, Ca",mg,--,--,150,165
"Iron, Fe",mg,--,--,1.55,1.70
"Sodium, Na",mg,--,--,510,560
Vitamins
"Vitamin C, total ascorbic acid",mg,--,--,10.3,11.3
"Vitamin A, IU",IU,--,--,429,471
Lipids
"Fatty acids, total saturated",g,--,--,4.004,4.400
"Fatty acids, total trans",g,--,--,0.000,0.000
"Cholesterol",mg,--,--,20,22
Amino Acids
Other
Ingredients
"WHEAT FLOUR, WATER, LOW MOISTURE PART SKIM MOZZARELLA CHEESE (PASTEURIZED PART SKIM MILK, CHEESE CULTURES, SALT, ENZYME), PEPPERONI (PORK, BEEF, SALT, SPICES, DEXTROSE, LACTIC ACID STARTER CULTURE, PAPRIKA OLEORESIN, NATURAL FLAVORING, SODIUM NITRITE, BHA, BHT, CITRIC ACID), TOMATO PASTE, SOYBEAN OIL, CONTAINS 2% OR LESS OF EACH OF THE FOLLOWING: BREAD CRUMBS (ENRICHED WHEAT FLOUR [WHEAT FLOUR, NIACIN, REDUCED IRON, THIAMINE MONONITRATE, RIBOFLAVIN, FOLIC ACID], SALT, DRIED YEAST), CELLULOSE, DEHYDRATED GARLIC, GUAR GUM, LOW MOISTURE PART SKIM MOZZARELLA CHEESE (CULTURED PASTEURIZED PART SKIM MILK, SALT, ENZYMES, *MODIFIED CORN STARCH), NATURAL FLAVORS, NONFAT DRY MILK, ONION POWDER, PARMESAN CHEESE (PASTEURIZED PART SKIM MILK, CHEESE CULTURE, SALT, ENZYME), PARSLEY, SALT, SOY LECITHIN, SPICES, SUGAR, WHEY SOLIDS, XANTHAN GUM, YEAST, *INGREDIENT NOT IN REGULAR MOZZARELLA CHEESE." Date available: 07/14/2017 Date last updated by company: 07/14/2017
