Source: USDA Branded Food Products Database Release December 2017 Software v.3.8.6.4 2017-10-02
Report Run at: December 18, 2017 13:29 EST
"Nutrient data for: 45025610, PIZZA, UPC: 791559150000"
Food Group:  Branded Food Products Database
Common Name:

Nutrient,Unit,Data points,Std. Error,"0.34 PIZZA = 47.0g",1Value per 100 g,
Proximates
"Energy",kcal,--,--,140,298
"Protein",g,--,--,3.00,6.38
"Total lipid (fat)",g,--,--,0.50,1.06
"Carbohydrate, by difference",g,--,--,30.00,63.83
"Fiber, total dietary",g,--,--,1.0,2.1
"Sugars, total",g,--,--,0.00,0.00
Minerals
"Calcium, Ca",mg,--,--,0,0
"Iron, Fe",mg,--,--,1.26,2.69
"Sodium, Na",mg,--,--,0,0
Vitamins
"Vitamin C, total ascorbic acid",mg,--,--,0.0,0.0
"Vitamin A, IU",IU,--,--,0,0
Lipids
"Fatty acids, total saturated",g,--,--,0.000,0.000
"Fatty acids, total trans",g,--,--,0.000,0.000
"Cholesterol",mg,--,--,0,0
Amino Acids
Other
Ingredients
"WHOLE GRAIN BROWN RICE, POTATO" Date available: 09/20/2017 Date last updated by company: 09/20/2017
