Source: USDA Branded Food Products Database Release December 2017 Software v.3.8.6.4 2017-10-02
Report Run at: December 18, 2017 13:31 EST
"Nutrient data for: 45227954, PIZZA, UPC: 028704446009"
Food Group:  Branded Food Products Database
Common Name:

Nutrient,Unit,Data points,Std. Error,"0.2 PIZZA = 149.0g",1Value per 100 g,
Proximates
"Energy",kcal,--,--,431,289
"Protein",g,--,--,17.00,11.41
"Total lipid (fat)",g,--,--,18.00,12.08
"Carbohydrate, by difference",g,--,--,46.00,30.87
"Fiber, total dietary",g,--,--,1.0,0.7
"Sugars, total",g,--,--,2.00,1.34
Minerals
"Calcium, Ca",mg,--,--,399,268
"Iron, Fe",mg,--,--,1.42,0.95
"Sodium, Na",mg,--,--,900,604
Vitamins
"Vitamin C, total ascorbic acid",mg,--,--,1.6,1.1
"Vitamin A, IU",IU,--,--,523,351
Lipids
"Fatty acids, total saturated",g,--,--,6.005,4.030
"Fatty acids, total trans",g,--,--,0.000,0.000
"Cholesterol",mg,--,--,34,23
Amino Acids
Other
Ingredients
"CRUST (FLOUR (WHEAT, MALTED BARLEY), WATER, SOYBEAN OIL, YEAST, SALT, DEXTROSE, LEAVENING (SODIUM ALUMINUM PHOSPHATE, SODIUM BICARBONATE), CALCIUM PROPIONATE (PRESERVATIVE) AND SOY LECITHIN), LOW MOISTURE PARK SKIM MOZZARELLA CHEESE (CULTURED PASTEURIZED PART SKIM MILK, SALT, ENZYMES, TOMATO PASTE, TABASCO SAUCE (VINEGAR, RED PEPPER AND SALT), ROMANO CHEESE (PASTEURIZED PART SKIM COWS MILK, CHEESE CULTURES, SALT, ENZYMES), SPICES), PEPPERONI (PORK, BEEF, SALT, DEXTROSE, SODIUM NITRITE, BHA, BHT, CITRIC ACID, MAY CONTAIN WATER, SPICES, FLAVORING, SMOKE FLAVORING, PAPRIKA, OLEORESIN OF PAPRIKA, LACTIC ACID STARTER CULTURE, SODIUM ASCORBATE, GARLIC POWDER, DEHYDRATED GARLIC)." Date available: 07/14/2017 Date last updated by company: 07/14/2017
