Source: USDA Branded Food Products Database Release December 2017 Software v.3.8.6.4 2017-10-02
Report Run at: December 18, 2017 13:32 EST
"Nutrient data for: 45263869, PIZZA, UPC: 039528024762"
Food Group:  Branded Food Products Database
Common Name:

Nutrient,Unit,Data points,Std. Error,"0.111 PIZZA = 139.0g",1Value per 100 g,
Proximates
"Energy",kcal,--,--,379,273
"Protein",g,--,--,16.00,11.51
"Total lipid (fat)",g,--,--,19.00,13.67
"Carbohydrate, by difference",g,--,--,36.00,25.90
"Fiber, total dietary",g,--,--,1.9,1.4
"Sugars, total",g,--,--,4.00,2.88
Minerals
"Calcium, Ca",mg,--,--,250,180
"Iron, Fe",mg,--,--,2.53,1.82
"Sodium, Na",mg,--,--,680,489
Vitamins
"Vitamin C, total ascorbic acid",mg,--,--,6.7,4.8
"Vitamin A, IU",IU,--,--,1052,757
Lipids
"Fatty acids, total saturated",g,--,--,8.006,5.760
"Fatty acids, total trans",g,--,--,0.000,0.000
"Cholesterol",mg,--,--,35,25
Amino Acids
Other
Ingredients
"CRUST: (UNENRICHED WHEAT FLOUR (WHEAT FLOUR, MALTED BARLEY FLOUR), WATER, VEGETABLE OIL (MAY CONTAIN CANOLA AND/OR SOYBEAN OIL), SEA SALT, SUGAR, HONEY, YEAST), WHOLE MILK MOZZARELLA CHEESE (PASTEURIZED MILK, CHEESE CULTURES, SALT, ENZYMES), PIZZA SAUCE (TOMATO PUREE, GARLIC POWDER, SALT, CITRIC ACID), ROMANO CHEESE (PASTEURIZED SHEEP'S MILK, CHEESE CULTURES, SALT, ENZYMES, ANTI-CAKING AGENT [STARCH, POWDERED CELLULOSE]), OREGANO LEAVES." Date available: 07/14/2017 Date last updated by company: 07/14/2017
