Source: USDA Branded Food Products Database Release December 2017 Software v.3.8.6.4 2017-10-02
Report Run at: December 18, 2017 13:27 EST
"Nutrient data for: 45080966, PIZZA SAUCE, UPC: 0334612"
Food Group:  Branded Food Products Database
Common Name:

Nutrient,Unit,Data points,Std. Error,"0.25 cup = 64.0g",1Value per 100 g,
Proximates
"Energy",kcal,--,--,40,62
"Protein",g,--,--,1.00,1.56
"Total lipid (fat)",g,--,--,3.00,4.69
"Carbohydrate, by difference",g,--,--,3.00,4.69
"Fiber, total dietary",g,--,--,1.0,1.6
"Sugars, total",g,--,--,2.00,3.12
Minerals
"Calcium, Ca",mg,--,--,0,0
"Iron, Fe",mg,--,--,3.05,4.76
"Sodium, Na",mg,--,--,230,359
Vitamins
"Vitamin C, total ascorbic acid",mg,--,--,10.2,15.9
"Vitamin A, IU",IU,--,--,634,991
Lipids
"Fatty acids, total saturated",g,--,--,0.000,0.000
"Fatty acids, total trans",g,--,--,0.000,0.000
"Cholesterol",mg,--,--,0,0
Amino Acids
Other
Ingredients
"IMPORTED SAN MARZANO PLUM TOMATOES, TOMATO PUREE, IMPORTED ITALIAN EXTRA VIRGIN OLIVE OIL, ANCHOVIES (FISH), FRESH BASIL, SEA SALT, GROUND BLACK PEPPER." Date available: 06/25/2017 Date last updated by company: 06/25/2017
