Source: USDA Branded Food Products Database Release December 2017 Software v.3.8.6.4 2017-10-02
Report Run at: December 18, 2017 13:27 EST
"Nutrient data for: 45199471, PIZZA SAUCE, UPC: 60788001295"
Food Group:  Branded Food Products Database
Common Name:

Nutrient,Unit,Data points,Std. Error,"0.25 cup = 63.0g",1Value per 100 g,
Proximates
"Energy",kcal,--,--,30,48
"Protein",g,--,--,1.00,1.59
"Total lipid (fat)",g,--,--,1.00,1.59
"Carbohydrate, by difference",g,--,--,5.00,7.94
"Fiber, total dietary",g,--,--,1.0,1.6
"Sugars, total",g,--,--,3.00,4.76
Minerals
"Calcium, Ca",mg,--,--,0,0
"Iron, Fe",mg,--,--,0.76,1.21
"Potassium, K",mg,--,--,190,302
"Sodium, Na",mg,--,--,250,397
Vitamins
"Vitamin C, total ascorbic acid",mg,--,--,2.5,4.0
"Vitamin A, IU",IU,--,--,634,1006
Lipids
"Fatty acids, total saturated",g,--,--,0.000,0.000
"Fatty acids, total trans",g,--,--,0.000,0.000
"Cholesterol",mg,--,--,0,0
Amino Acids
Other
Ingredients
"TOMATO PUREE (WATER, TOMATO PASTE), SOYBEAN OIL, SALT, SPICES, PARSLEY, NATURAL FLAVOR, CITRIC ACID." Date available: 07/14/2017 Date last updated by company: 07/14/2017
