Source: USDA Branded Food Products Database Release December 2017 Software v.3.8.6.4 2017-10-02
Report Run at: December 18, 2017 13:39 EST
"Nutrient data for: 45331901, PLAIN GREEK YOGURT WITH FRUIT, UPC: 077890438985"
Food Group:  Branded Food Products Database
Common Name:

Nutrient,Unit,Data points,Std. Error,"5.3 ONZ = 150.0g",1Value per 100 g,
Proximates
"Energy",kcal,--,--,130,87
"Protein",g,--,--,10.99,7.33
"Total lipid (fat)",g,--,--,2.50,1.67
"Carbohydrate, by difference",g,--,--,15.00,10.00
"Fiber, total dietary",g,--,--,1.9,1.3
"Sugars, total",g,--,--,12.00,8.00
Minerals
"Calcium, Ca",mg,--,--,100,67
"Iron, Fe",mg,--,--,0.00,0.00
"Potassium, K",mg,--,--,159,106
"Sodium, Na",mg,--,--,34,23
Vitamins
"Vitamin D",IU,--,--,0,0
Lipids
"Fatty acids, total saturated",g,--,--,1.500,1.000
"Fatty acids, total trans",g,--,--,0.000,0.000
"Cholesterol",mg,--,--,10,7
Amino Acids
Other
Ingredients
"CULTURED PASTEURIZED GRADE A ORGANIC REDUCED FAT MILK, ORGANIC RASPBERRIES, ORGANIC SUGAR, NATURAL FLAVOR, ORGANIC LEMON JUICE CONCENTRATE, CONTAINS THE FOLLOWING LIVE AND ACTIVE CULTURES: L. BULGARICUS, S. THERMOPHILUS, L. ACIDOPHILUS, BIFIDUS, L. CASEI." Date available: 10/13/2017 Date last updated by company: 10/13/2017
