Source: USDA Branded Food Products Database Release December 2017 Software v.3.8.6.4 2017-10-02
Report Run at: December 18, 2017 13:35 EST
"Nutrient data for: 45287896, PLAIN BAGELS, UPC: 048121255206"
Food Group:  Branded Food Products Database
Common Name:

Nutrient,Unit,Data points,Std. Error,"1 BAGEL = 75.0g",1Value per 100 g,
Proximates
"Energy",kcal,--,--,200,267
"Protein",g,--,--,8.00,10.67
"Total lipid (fat)",g,--,--,1.00,1.33
"Carbohydrate, by difference",g,--,--,39.00,52.00
"Fiber, total dietary",g,--,--,1.0,1.3
"Sugars, total",g,--,--,3.00,4.00
Minerals
"Calcium, Ca",mg,--,--,80,107
"Iron, Fe",mg,--,--,2.00,2.67
"Potassium, K",mg,--,--,60,80
"Sodium, Na",mg,--,--,460,613
Vitamins
"Vitamin D",IU,--,--,0,0
Lipids
"Fatty acids, total saturated",g,--,--,0.000,0.000
"Fatty acids, total monounsaturated",g,--,--,0.000,0.000
"Fatty acids, total polyunsaturated",g,--,--,0.000,0.000
"Fatty acids, total trans",g,--,--,0.000,0.000
"Cholesterol",mg,--,--,0,0
Amino Acids
Other
Ingredients
"ENRICHED WHEAT FLOUR [FLOUR, MALTED BARLEY FLOUR, REDUCED IRON, NIACIN, THIAMIN MONONITRATE (VITAMIN B1), RIBOFLAVIN (VITAMIN B2), FOLIC ACID], WATER, WHEAT GLUTEN, SUGAR, YEAST, SALT, CORNMEAL, CALCIUM PROPIONATE AND SORBIC ACID (TO PRESERVE FRESHNESS), FERMENTED WHEAT FLOUR, INACTIVE DRY YEAST, MALTODEXTRIN, MONOGLYCERIDES, POTASSIUM CITRATE, CELLULOSE GUM, CITRIC ACID, XANTHAN GUM, CORNSTARCH." Date available: 09/22/2017 Date last updated by company: 09/22/2017
