Source: USDA Branded Food Products Database Release December 2017 Software v.3.8.6.4 2017-10-02
Report Run at: December 18, 2017 13:46 EST
"Nutrient data for: 45154336, PLAYGROUND PUNCH, BEVERAGE, STRAWBERRY, UPC: 854503004023"
Food Group:  Branded Food Products Database
Common Name:

Nutrient,Unit,Data points,Std. Error,"10.0 OZA = 300.0g",1Value per 100 g,
Proximates
"Energy",kcal,--,--,30,10
"Protein",g,--,--,0.00,0.00
"Total lipid (fat)",g,--,--,0.00,0.00
"Carbohydrate, by difference",g,--,--,9.99,3.33
"Sugars, total",g,--,--,8.01,2.67
Minerals
"Sodium, Na",mg,--,--,84,28
Vitamins
"Vitamin C, total ascorbic acid",mg,--,--,72.0,24.0
Lipids
Amino Acids
Other
Ingredients
"WATER, PURE CANE SUGAR, CITRIC ACID, CORN OIL, FOOD STARCH MODIFIED, NATURAL AND ARTIFICIAL FLAVORS, SODIUM HEXAMETAPHOSPHATE (PROTECT FLAVOR), SODIUM BENZOATE (PRESERVATIVE), POTASSIUM SORBATE (PRESERVATIVE), ASCORBIC ACID (VITAMIN C), RED 40, ACESULFAME POTASSIUM, SUCRALOSE, CALCIUM DISODIUM EDTA (PROTECT FLAVOR), SUCROSE ACETATE ISOBUTYRATE." Date available: 07/14/2017 Date last updated by company: 07/14/2017
