Source: USDA Branded Food Products Database Release December 2017 Software v.3.8.6.4 2017-10-02
Report Run at: December 18, 2017 13:47 EST
"Nutrient data for: 45087157, PLUMP & SWEET GOLDEN RAISINS, UPC: 787359177057"
Food Group:  Branded Food Products Database
Common Name:

Nutrient,Unit,Data points,Std. Error,"1 Tbsp = 7.0g",1Value per 100 g,
Proximates
"Energy",kcal,--,--,20,286
"Protein",g,--,--,0.00,0.00
"Total lipid (fat)",g,--,--,0.00,0.00
"Carbohydrate, by difference",g,--,--,5.00,71.43
"Sugars, total",g,--,--,5.00,71.43
Minerals
"Iron, Fe",mg,--,--,2.06,29.39
"Sodium, Na",mg,--,--,0,0
Vitamins
Lipids
Amino Acids
Other
Ingredients
"DRIED THOMPSON SEEDLESS GRAPES, SUNFLOWER OIL, SULFUR DIOXIDE [TO PRESERVE COLOR]." Date available: 10/04/2017 Date last updated by company: 10/04/2017
