Source: USDA Branded Food Products Database Release December 2017 Software v.3.8.6.4 2017-10-02
Report Run at: December 18, 2017 13:47 EST
"Nutrient data for: 45289824, PLUM NECTAR, UPC: 076406022106"
Food Group:  Branded Food Products Database
Common Name:

Nutrient,Unit,Data points,Std. Error,"1 CAN = 335.0g",1Value per 100 g,
Proximates
"Energy",kcal,--,--,171,51
"Protein",g,--,--,0.00,0.00
"Total lipid (fat)",g,--,--,0.00,0.00
"Carbohydrate, by difference",g,--,--,42.01,12.54
"Fiber, total dietary",g,--,--,3.0,0.9
"Sugars, total",g,--,--,38.99,11.64
Minerals
"Calcium, Ca",mg,--,--,0,0
"Iron, Fe",mg,--,--,0.27,0.08
"Potassium, K",mg,--,--,90,27
"Sodium, Na",mg,--,--,50,15
Vitamins
"Vitamin C, total ascorbic acid",mg,--,--,0.0,0.0
"Vitamin A, IU",IU,--,--,0,0
Lipids
"Fatty acids, total saturated",g,--,--,0.000,0.000
"Fatty acids, total monounsaturated",g,--,--,0.000,0.000
"Fatty acids, total polyunsaturated",g,--,--,0.000,0.000
"Fatty acids, total trans",g,--,--,0.000,0.000
"Cholesterol",mg,--,--,0,0
Amino Acids
Other
Ingredients
"WATER, PLUM PUREE FROM CONCENTRATE, SUGAR AND/OR HIGH FRUCTOSE CORN SYRUP, CITRIC ACID, CARMINE AND FD&C RED NO. 40 (COLOR), SUCRALOSE." Date available: 07/14/2017 Date last updated by company: 07/14/2017
