Source: USDA Branded Food Products Database Release December 2017 Software v.3.8.6.4 2017-10-02
Report Run at: December 18, 2017 13:51 EST
"Nutrient data for: 45214280, POCKET PIE, UPC: 046567605463"
Food Group:  Branded Food Products Database
Common Name:

Nutrient,Unit,Data points,Std. Error,"2.5 ONZ = 71.0g",1Value per 100 g,
Proximates
"Energy",kcal,--,--,380,535
"Protein",g,--,--,6.00,8.45
"Total lipid (fat)",g,--,--,13.00,18.31
"Carbohydrate, by difference",g,--,--,61.00,85.92
"Fiber, total dietary",g,--,--,2.0,2.8
"Sugars, total",g,--,--,11.00,15.49
Minerals
"Calcium, Ca",mg,--,--,20,28
"Iron, Fe",mg,--,--,4.76,6.70
"Sodium, Na",mg,--,--,320,451
Vitamins
"Vitamin C, total ascorbic acid",mg,--,--,42.2,59.5
"Vitamin A, IU",IU,--,--,704,992
Lipids
"Fatty acids, total saturated",g,--,--,8.002,11.270
"Fatty acids, total trans",g,--,--,0.000,0.000
"Cholesterol",mg,--,--,30,42
Amino Acids
Other
Ingredients
"APPLES, BLEACHED WHEAT FLOUR ENRICHED (NIACIN REDUCED IRON, THIAMINE MONONITRATE, RIBOFLAVIN, FOLIC ACID), BUTTER (PASTEURIZED CREAM), SUGAR, WATER, BROWN SUGAR, FOOD STARCH MODIFIED, MILK SOLIDS (MILK PROTEIN CONCENTRATE, NON-FAT DRY MILK, LACTOSE), SALT, CINNAMON, VANILLA EXTRACT (VANILLA, WATER, ETHYL ALCOHOL), LEMON PUREE (CHOPPED LEMON PEELS, CANE SUGAR, NATURAL LEMON FLAVOR)" Date available: 07/14/2017 Date last updated by company: 07/14/2017
