Source: USDA Branded Food Products Database Release December 2017 Software v.3.8.6.4 2017-10-02
Report Run at: December 18, 2017 13:54 EST
"Nutrient data for: 45235425, POLAR, DIET CREAM SODA, UPC: 071537052626"
Food Group:  Branded Food Products Database
Common Name:

Nutrient,Unit,Data points,Std. Error,"8.0 OZA = 240.0g",1Value per 100 g,
Proximates
"Energy",kcal,--,--,0,0
"Protein",g,--,--,0.00,0.00
"Total lipid (fat)",g,--,--,0.00,0.00
"Carbohydrate, by difference",g,--,--,0.00,0.00
"Sugars, total",g,--,--,0.00,0.00
Minerals
"Sodium, Na",mg,--,--,0,0
Vitamins
Lipids
Amino Acids
Other
Ingredients
"CONTAINS CARBONATED WATER, ARTIFICIAL FLAVORS, ASPARTAME,* CARAMEL COLOR, POTASSIUM BENZOATE (A PRESERVATIVE), CITRIC ACID." Date available: 07/14/2017 Date last updated by company: 07/14/2017
