Source: USDA Branded Food Products Database Release December 2017 Software v.3.8.6.4 2017-10-02
Report Run at: December 18, 2017 13:53 EST
"Nutrient data for: 45057152, POLANER, ALL FRUIT, SPREADABLE FRUIT, RASPBERRY, UPC: 072400007286"
Food Group:  Branded Food Products Database
Common Name:

Nutrient,Unit,Data points,Std. Error,"1 Tbsp = 18.0g",1Value per 100 g,
Proximates
"Energy",kcal,--,--,35,194
"Protein",g,--,--,0.00,0.00
"Total lipid (fat)",g,--,--,0.00,0.00
"Carbohydrate, by difference",g,--,--,9.00,50.00
"Sugars, total",g,--,--,8.00,44.44
Minerals
"Sodium, Na",mg,--,--,10,56
Vitamins
Lipids
Amino Acids
Other
Ingredients
"JUICE CONCENTRATES (PEAR, GRAPE,PINEAPPLE), RASPBERRIES, WATER, CITRIC ACID, FRUIT PECTIN, NATURAL FLAVOR." Date available: 07/14/2017 Date last updated by company: 07/14/2017
