Source: USDA Branded Food Products Database Release December 2017 Software v.3.8.6.4 2017-10-02
Report Run at: December 18, 2017 13:56 EST
"Nutrient data for: 45270224, POLE AND LINE CAUGHT SKIPJACK TUNA, UPC: 719283262264"
Food Group:  Branded Food Products Database
Common Name:

Nutrient,Unit,Data points,Std. Error,"1 POUCH = 81.0g",1Value per 100 g,
Proximates
"Energy",kcal,--,--,80,99
"Protein",g,--,--,19.00,23.46
"Total lipid (fat)",g,--,--,0.50,0.62
"Carbohydrate, by difference",g,--,--,0.00,0.00
"Fiber, total dietary",g,--,--,0.0,0.0
"Sugars, total",g,--,--,0.00,0.00
Minerals
"Calcium, Ca",mg,--,--,0,0
"Iron, Fe",mg,--,--,1.13,1.40
"Sodium, Na",mg,--,--,230,284
Vitamins
"Vitamin C, total ascorbic acid",mg,--,--,0.0,0.0
"Vitamin A, IU",IU,--,--,0,0
Lipids
"Fatty acids, total saturated",g,--,--,0.000,0.000
"Fatty acids, total trans",g,--,--,0.000,0.000
"Cholesterol",mg,--,--,15,19
Amino Acids
Other
Ingredients
"SKIPJACK TUNA, WATER, SEA SALT." Date available: 07/14/2017 Date last updated by company: 07/14/2017
