Source: USDA Branded Food Products Database Release December 2017 Software v.3.8.6.4 2017-10-02
Report Run at: December 18, 2017 13:57 EST
"Nutrient data for: 45197686, POLISH COCKTAIL SMOKIES, SMOKED POLISH SAUSAGE, UPC: 073608056878"
Food Group:  Branded Food Products Database
Common Name:

Nutrient,Unit,Data points,Std. Error,"5.0 LINKS = 66.0g",1Value per 100 g,
Proximates
"Energy",kcal,--,--,210,318
"Protein",g,--,--,8.00,12.12
"Total lipid (fat)",g,--,--,18.00,27.27
"Carbohydrate, by difference",g,--,--,1.00,1.52
"Fiber, total dietary",g,--,--,0.0,0.0
"Sugars, total",g,--,--,1.00,1.52
Minerals
"Calcium, Ca",mg,--,--,20,30
"Iron, Fe",mg,--,--,0.30,0.46
"Sodium, Na",mg,--,--,630,955
Vitamins
"Vitamin C, total ascorbic acid",mg,--,--,0.0,0.0
"Vitamin A, IU",IU,--,--,84,127
Lipids
"Fatty acids, total saturated",g,--,--,5.999,9.090
"Fatty acids, total trans",g,--,--,0.000,0.000
"Cholesterol",mg,--,--,40,61
Amino Acids
Other
Ingredients
"PORK, WATER, BEEF, CONTAINS LESS THAN 2% SALT, FLAVORING, CORN SYRUP, ISOLATED OAT PRODUCT, POTASSIUM LACTATE DEXTROSE, SODIUM PHOSPHATE, PAPRIKA, SODIUM DIACETATE, SODIUM ERYTHORBATE, SODIUM NITRITE." Date available: 07/14/2017 Date last updated by company: 07/14/2017
