Source: USDA Branded Food Products Database Release December 2017 Software v.3.8.6.4 2017-10-02
Report Run at: December 18, 2017 13:58 EST
"Nutrient data for: 45330856, POLISH SAUSAGE, UPC: 070055018138"
Food Group:  Branded Food Products Database
Common Name:

Nutrient,Unit,Data points,Std. Error,"1 LINK = 94.0g",1Value per 100 g,
Proximates
"Energy",kcal,--,--,280,298
"Protein",g,--,--,11.00,11.70
"Total lipid (fat)",g,--,--,24.00,25.53
"Carbohydrate, by difference",g,--,--,5.00,5.32
"Fiber, total dietary",g,--,--,0.0,0.0
"Sugars, total",g,--,--,1.00,1.06
Minerals
"Calcium, Ca",mg,--,--,0,0
"Iron, Fe",mg,--,--,0.42,0.45
"Sodium, Na",mg,--,--,1020,1085
Vitamins
"Vitamin C, total ascorbic acid",mg,--,--,0.0,0.0
"Vitamin A, IU",IU,--,--,0,0
Lipids
"Fatty acids, total saturated",g,--,--,7.999,8.510
"Fatty acids, total trans",g,--,--,0.000,0.000
"Cholesterol",mg,--,--,55,59
Amino Acids
Other
Ingredients
"PORK, MECHANICALLY SEPARATED CHICKEN, WATER, BEEF, CORN SYRUP, CONTAINS 2% OR LESS OF SALT, SODIUM LACTATE, FLAVORINGS, SODIUM DIACETATE, SODIUM ERYTHORBATE, SODIUM NITRITE." Date available: 10/13/2017 Date last updated by company: 10/13/2017
