Source: USDA Branded Food Products Database Release December 2017 Software v.3.8.6.4 2017-10-02
Report Run at: December 18, 2017 14:06 EST
"Nutrient data for: 45161768, POP' BOX, MICROWAVE POPCORN, UPC: 850589004346"
Food Group:  Branded Food Products Database
Common Name:

Nutrient,Unit,Data points,Std. Error,"5.0 CUPS POPPED) | UNPOPPED (MAKES = 33.0g",1Value per 100 g,
Proximates
"Energy",kcal,--,--,130,394
"Protein",g,--,--,3.00,9.09
"Total lipid (fat)",g,--,--,4.00,12.12
"Carbohydrate, by difference",g,--,--,22.00,66.67
"Fiber, total dietary",g,--,--,7.0,21.2
"Sugars, total",g,--,--,0.00,0.00
Minerals
"Calcium, Ca",mg,--,--,0,0
"Iron, Fe",mg,--,--,1.09,3.31
"Sodium, Na",mg,--,--,260,788
Vitamins
"Vitamin C, total ascorbic acid",mg,--,--,0.0,0.0
"Vitamin A, IU",IU,--,--,151,459
Lipids
"Fatty acids, total saturated",g,--,--,1.502,4.550
"Fatty acids, total trans",g,--,--,0.000,0.000
"Cholesterol",mg,--,--,0,0
Amino Acids
Other
Ingredients
"CORN 85%, VEGETABLE PALM OIL, SALT." Date available: 09/21/2017 Date last updated by company: 09/21/2017
