Source: USDA Branded Food Products Database Release December 2017 Software v.3.8.6.4 2017-10-02
Report Run at: December 17, 2017 05:58 EST
"Nutrient data for: 45146953, POP WEAVER, MICROWAVE POPCORN, SWEET CHIPOTLE, UPC: 041667038197"
Food Group:  Branded Food Products Database
Common Name:

Nutrient,Unit,Data points,Std. Error,"1 BAG UNPOPPED (MAKES ABOUT 9 1/2 CUPS POPPED) = 71.0g",1Value per 100 g,
Proximates
"Energy",kcal,--,--,370,521
"Protein",g,--,--,5.00,7.04
"Total lipid (fat)",g,--,--,23.00,32.39
"Carbohydrate, by difference",g,--,--,36.00,50.70
"Fiber, total dietary",g,--,--,6.0,8.5
"Sugars, total",g,--,--,0.00,0.00
Minerals
"Calcium, Ca",mg,--,--,20,28
"Iron, Fe",mg,--,--,1.02,1.43
"Sodium, Na",mg,--,--,790,1113
Vitamins
Lipids
"Fatty acids, total saturated",g,--,--,11.999,16.900
"Fatty acids, total monounsaturated",g,--,--,8.002,11.270
"Fatty acids, total polyunsaturated",g,--,--,3.500,4.930
"Fatty acids, total trans",g,--,--,0.000,0.000
"Cholesterol",mg,--,--,0,0
Amino Acids
Other
Ingredients
"POPCORN, PALM OIL, SALT, CONTAINS 2% OR LESS OF THE FOLLOWING: NATURAL FLAVOR, FD&C YELLOW # 5 LAKE, FD&C YELLOW # 6, FD&C BLUE #2 LAKE, COLOR ADDED, SUCRALOSE, CITRIC ACID TO PRESERVE FRESHNESS." Date available: 10/13/2017 Date last updated by company: 10/13/2017
