Source: USDA Branded Food Products Database Release December 2017 Software v.3.8.6.4 2017-10-02
Report Run at: December 18, 2017 14:15 EST
"Nutrient data for: 45218767, POPCORN, UPC: 850251004155"
Food Group:  Branded Food Products Database
Common Name:

Nutrient,Unit,Data points,Std. Error,"1 PACKAGE = 18.0g",1Value per 100 g,
Proximates
"Energy",kcal,--,--,100,556
"Protein",g,--,--,2.00,11.11
"Total lipid (fat)",g,--,--,6.00,33.33
"Carbohydrate, by difference",g,--,--,9.00,50.00
"Fiber, total dietary",g,--,--,2.0,11.1
"Sugars, total",g,--,--,0.00,0.00
Minerals
"Calcium, Ca",mg,--,--,0,0
"Iron, Fe",mg,--,--,1.00,5.56
"Sodium, Na",mg,--,--,30,167
Vitamins
"Vitamin C, total ascorbic acid",mg,--,--,0.0,0.0
"Vitamin A, IU",IU,--,--,0,0
Lipids
"Fatty acids, total saturated",g,--,--,0.500,2.780
"Fatty acids, total trans",g,--,--,0.000,0.000
"Cholesterol",mg,--,--,0,0
Amino Acids
Other
Ingredients
"ALL NATURAL POPCORN, SUNFLOWER OIL AND SALT." Date available: 07/14/2017 Date last updated by company: 07/14/2017
