Source: USDA Branded Food Products Database Release December 2017 Software v.3.8.6.4 2017-10-02
Report Run at: December 18, 2017 14:14 EST
"Nutrient data for: 45213634, POPCORN, UPC: 028400247511"
Food Group:  Branded Food Products Database
Common Name:

Nutrient,Unit,Data points,Std. Error,"1 PACKAGE = 42.5g",1Value per 100 g,
Proximates
"Energy",kcal,--,--,210,494
"Protein",g,--,--,2.00,4.71
"Total lipid (fat)",g,--,--,10.00,23.53
"Carbohydrate, by difference",g,--,--,30.00,70.59
"Fiber, total dietary",g,--,--,3.0,7.1
"Sugars, total",g,--,--,18.00,42.35
Minerals
"Calcium, Ca",mg,--,--,0,0
"Iron, Fe",mg,--,--,0.00,0.00
"Sodium, Na",mg,--,--,170,400
Vitamins
"Vitamin C, total ascorbic acid",mg,--,--,0.0,0.0
"Vitamin A, IU",IU,--,--,0,0
Lipids
"Fatty acids, total saturated",g,--,--,0.501,1.180
"Fatty acids, total trans",g,--,--,0.000,0.000
"Cholesterol",mg,--,--,0,0
Amino Acids
Other
Ingredients
"SUGAR, POPCORN, CANOLA OIL, CORN SYRUP, SALT, SOY LECITHIN, CARAMEL COLOR, AND NATURAL FLAVOR." Date available: 12/31/2016 Date last updated by company: 12/31/2016
