Source: USDA Branded Food Products Database Release December 2017 Software v.3.8.6.4 2017-10-02
Report Run at: December 18, 2017 14:15 EST
"Nutrient data for: 45219520, POPCORN, UPC: 856369004100"
Food Group:  Branded Food Products Database
Common Name:

Nutrient,Unit,Data points,Std. Error,"3.0 CUPS | MAKES ABOUT = 33.0g",1Value per 100 g,
Proximates
"Energy",kcal,--,--,170,515
"Protein",g,--,--,4.00,12.12
"Total lipid (fat)",g,--,--,10.00,30.30
"Carbohydrate, by difference",g,--,--,16.00,48.48
"Fiber, total dietary",g,--,--,3.0,9.1
"Sugars, total",g,--,--,0.00,0.00
Minerals
"Calcium, Ca",mg,--,--,40,121
"Iron, Fe",mg,--,--,1.09,3.31
"Sodium, Na",mg,--,--,170,515
Vitamins
"Vitamin C, total ascorbic acid",mg,--,--,0.0,0.0
"Vitamin A, IU",IU,--,--,0,0
Lipids
"Fatty acids, total saturated",g,--,--,1.000,3.030
"Fatty acids, total monounsaturated",g,--,--,0.502,1.520
"Fatty acids, total polyunsaturated",g,--,--,6.999,21.210
"Fatty acids, total trans",g,--,--,0.000,0.000
"Cholesterol",mg,--,--,5,15
Amino Acids
Other
Ingredients
"ORGANIC POPCORN KERNELS, HIGH OLEIC SUNFLOWER OIL, PARMESAN CHEESE (WHOLE MILK, CULTURES, SALT, ENZYMES), DRIED ORGANIC ROSEMARY, SEA SALT" Date available: 09/22/2017 Date last updated by company: 09/22/2017
