Source: USDA Branded Food Products Database Release December 2017 Software v.3.8.6.4 2017-10-02
Report Run at: December 18, 2017 14:12 EST
"Nutrient data for: 45078285, POPCORN, UPC: 046084230339"
Food Group:  Branded Food Products Database
Common Name:

Nutrient,Unit,Data points,Std. Error,"3.0 CUPS POPPED, SERVING PER BAG: ABOUT 3 | MAKES ABOUT = 33.0g",1Value per 100 g,
Proximates
"Energy",kcal,--,--,140,424
"Protein",g,--,--,3.00,9.09
"Total lipid (fat)",g,--,--,5.00,15.15
"Carbohydrate, by difference",g,--,--,21.00,63.64
"Fiber, total dietary",g,--,--,4.0,12.1
"Sugars, total",g,--,--,0.00,0.00
Minerals
"Iron, Fe",mg,--,--,1.09,3.31
"Sodium, Na",mg,--,--,160,485
Vitamins
Lipids
"Fatty acids, total saturated",g,--,--,2.000,6.060
"Fatty acids, total trans",g,--,--,0.000,0.000
"Cholesterol",mg,--,--,0,0
Amino Acids
Other
Ingredients
"POPCORN, PALM OIL, AND SALT" Date available: 07/14/2017 Date last updated by company: 07/14/2017
