Source: USDA Branded Food Products Database Release December 2017 Software v.3.8.6.4 2017-10-02
Report Run at: December 18, 2017 14:12 EST
"Nutrient data for: 45147185, POPCORN, UPC: 843571005636"
Food Group:  Branded Food Products Database
Common Name:

Nutrient,Unit,Data points,Std. Error,"2.5 cup = 28.0g",1Value per 100 g,
Proximates
"Energy",kcal,--,--,150,536
"Protein",g,--,--,3.00,10.71
"Total lipid (fat)",g,--,--,9.00,32.14
"Carbohydrate, by difference",g,--,--,14.00,50.00
"Fiber, total dietary",g,--,--,2.0,7.1
"Sugars, total",g,--,--,2.00,7.14
Minerals
"Calcium, Ca",mg,--,--,71,255
"Iron, Fe",mg,--,--,0.64,2.29
"Sodium, Na",mg,--,--,290,1036
Vitamins
"Vitamin C, total ascorbic acid",mg,--,--,0.0,0.0
"Vitamin A, IU",IU,--,--,0,0
Lipids
"Fatty acids, total saturated",g,--,--,1.000,3.570
"Fatty acids, total trans",g,--,--,0.000,0.000
"Cholesterol",mg,--,--,5,18
Amino Acids
Other
Ingredients
"POPCORN, VEGETABLE OIL (CANOLA OR SUNFLOWER), WHEY (MILK), MALTODEXTRIN, CHEDDAR AND BLUE CHEESE (CULTURED MILK, SALT, AND ENZYMES), BUTTERMILK, SALT, CITRIC ACID, LACTIC ACID." Date available: 08/11/2017 Date last updated by company: 08/11/2017
