Source: USDA Branded Food Products Database Release December 2017 Software v.3.8.6.4 2017-10-02
Report Run at: December 18, 2017 14:12 EST
"Nutrient data for: 45142501, POPCORN, UPC: 028400586344"
Food Group:  Branded Food Products Database
Common Name:

Nutrient,Unit,Data points,Std. Error,"2.0 1/2 CUPS | ABOUT = 28.0g",1Value per 100 g,
Proximates
"Energy",kcal,--,--,160,571
"Protein",g,--,--,3.00,10.71
"Total lipid (fat)",g,--,--,10.00,35.71
"Carbohydrate, by difference",g,--,--,14.00,50.00
"Fiber, total dietary",g,--,--,2.0,7.1
"Sugars, total",g,--,--,1.00,3.57
Minerals
"Calcium, Ca",mg,--,--,20,71
"Iron, Fe",mg,--,--,0.36,1.29
"Sodium, Na",mg,--,--,380,1357
Vitamins
"Vitamin C, total ascorbic acid",mg,--,--,0.0,0.0
"Vitamin A, IU",IU,--,--,0,0
Lipids
"Fatty acids, total saturated",g,--,--,1.501,5.360
"Fatty acids, total trans",g,--,--,0.000,0.000
"Cholesterol",mg,--,--,5,18
Amino Acids
Other
Ingredients
"POPCORN, VEGETABLE OIL (CORN, CANOLA AND/OR SUNFLOWER OIL), FLAMIN' HOT SEASONING (CHEDDAR CHEESE [MILK, CHEESE CULTURES, SALT, ENZYMES], SALT, BUTTERMILK, WHEY, MONOSODIUM GLUTAMATE, TOMATO POWDER, ROMANO CHEESE [PART-SKIM COW'S MILK, CHEESE CULTURES, SALT, ENZYMES], WHEY PROTEIN CONCENTRATE, MALTODEXTRIN [MADE FROM CORN], ONION POWDER, CORN OIL, ARTIFICIAL COLOR [RED 40 LAKE, YELLOW 6 LAKE, YELLOW 6], NATURAL FLAVOR, SUNFLOWER OIL, GARLIC POWDER, SUGAR, CITRIC ACID, LACTIC ACID, DISODIUM INOSINATE, AND DISODIUM GUANYLATE)" Date available: 09/23/2016 Date last updated by company: 09/23/2016
