Source: USDA Branded Food Products Database Release December 2017 Software v.3.8.6.4 2017-10-02
Report Run at: December 18, 2017 14:24 EST
"Nutrient data for: 45296251, POPPYSEED DRESSING, UPC: 041318200843"
Food Group:  Branded Food Products Database
Common Name:

Nutrient,Unit,Data points,Std. Error,"2.0 Tbsp = 30.0g",1Value per 100 g,
Proximates
"Energy",kcal,--,--,90,300
"Protein",g,--,--,0.00,0.00
"Total lipid (fat)",g,--,--,5.00,16.67
"Carbohydrate, by difference",g,--,--,10.00,33.33
"Fiber, total dietary",g,--,--,0.0,0.0
"Sugars, total",g,--,--,8.00,26.67
Minerals
"Calcium, Ca",mg,--,--,0,0
"Iron, Fe",mg,--,--,0.00,0.00
"Sodium, Na",mg,--,--,280,933
Vitamins
"Vitamin C, total ascorbic acid",mg,--,--,0.0,0.0
"Vitamin A, IU",IU,--,--,166,555
Lipids
"Fatty acids, total saturated",g,--,--,0.999,3.330
"Fatty acids, total trans",g,--,--,0.000,0.000
"Cholesterol",mg,--,--,0,0
Amino Acids
Other
Ingredients
"HIGH FRUCTOSE CORN SYRUP, WATER, VINEGAR, SOYBEAN OIL, MODIFIED FOOD STARCH, SALT, CONTAINS LESS THAN 2% OF: SOUR CREAM POWDER (CULTURED SOUR CREAM, SKIM MILK SOLIDS, WHEY, SUGAR, CITRIC ACID, LACTIC ACID), WHEY, POPPY SEEDS, ONION*, MUSTARD FLOUR, POLYSORBATE 60, XANTHAN GUM, GUAR GUM, BETA-CAROTENE (COLOR), POTASSIUM SORBATE AND CALCIUM DISODIUM EDTA (TO PROTECT FLAVOR). *DRIED." Date available: 07/14/2017 Date last updated by company: 07/14/2017
