Source: USDA Branded Food Products Database Release December 2017 Software v.3.8.6.4 2017-10-02
Report Run at: December 18, 2017 14:25 EST
"Nutrient data for: 45241383, POPPYSEED, UPC: 074683005928"
Food Group:  Branded Food Products Database
Common Name:

Nutrient,Unit,Data points,Std. Error,"2.0 Tbsp = 30.0g",1Value per 100 g,
Proximates
"Energy",kcal,--,--,10,33
"Protein",g,--,--,0.00,0.00
"Total lipid (fat)",g,--,--,0.00,0.00
"Carbohydrate, by difference",g,--,--,3.00,10.00
"Fiber, total dietary",g,--,--,3.0,10.0
"Sugars, total",g,--,--,0.00,0.00
Minerals
"Sodium, Na",mg,--,--,200,667
Vitamins
Lipids
Amino Acids
Other
Ingredients
"WATER, CIDER VINEGAR, MALTODEXTRIN, LEMON JUICE CONCENTRATE, SALT, POPPY SEEDS, CELLULOSE GEL, DRIED ONION, MUSTARD FLOUR, XANTHAN GUM, CELLULOSE GUM, SUCRALOSE, POTASSIUM SORBATE AND CALCIUM DISODIUM EDTA (TO PRESERVE FRESHNESS), TITANIUM DIOXIDE (COLOR)." Date available: 10/04/2017 Date last updated by company: 10/04/2017
