Source: USDA Branded Food Products Database Release December 2017 Software v.3.8.6.4 2017-10-02
Report Run at: December 18, 2017 14:21 EST
"Nutrient data for: 45085609, POPPED CHIP SNACK, UPC: 082666800606"
Food Group:  Branded Food Products Database
Common Name:

Nutrient,Unit,Data points,Std. Error,"22.0 CHIPS | ABOUT = 28.0g",1Value per 100 g,
Proximates
"Energy",kcal,--,--,120,429
"Protein",g,--,--,2.00,7.14
"Total lipid (fat)",g,--,--,4.00,14.29
"Carbohydrate, by difference",g,--,--,18.00,64.29
"Fiber, total dietary",g,--,--,1.0,3.6
"Sugars, total",g,--,--,1.00,3.57
Minerals
"Calcium, Ca",mg,--,--,20,71
"Iron, Fe",mg,--,--,0.64,2.29
"Potassium, K",mg,--,--,150,536
"Sodium, Na",mg,--,--,190,679
Vitamins
"Vitamin C, total ascorbic acid",mg,--,--,0.0,0.0
"Vitamin A, IU",IU,--,--,0,0
Lipids
"Fatty acids, total saturated",g,--,--,0.501,1.790
"Fatty acids, total monounsaturated",g,--,--,2.500,8.930
"Fatty acids, total polyunsaturated",g,--,--,0.501,1.790
"Fatty acids, total trans",g,--,--,0.000,0.000
"Cholesterol",mg,--,--,0,0
Amino Acids
Other
Ingredients
"DRIED POTATO, RICE FLOUR, SUNFLOWER, SAFFLOWER, AND/OR CANOLA OIL, SEASONING (WHEY POWDER, BUTTERMILK POWDER, MALTODEXTRIN, SALT, DRIED BUTTER [CREAM, SALT], CHEDDAR CHEESE [MILK, CULTURES, SALT, ENZYMES], AUTOLYZED YEAST EXTRACT, ONION POWDER, NONFAT DRY MILK, NATURAL FLAVORS, ANNATTO, GARLIC POWDER, CITRIC ACID, DRIED MILKFAT, PAPRIKA OLEORESIN [COLOR], TURMERIC, GUM ARABIC), POTATO STARCH." Date available: 07/14/2017 Date last updated by company: 07/14/2017
