Source: USDA Branded Food Products Database Release December 2017 Software v.3.8.6.4 2017-10-02
Report Run at: December 17, 2017 05:56 EST
"Nutrient data for: 45085896, POPSICLE, SOUR PATCH KIDS, RASPBERRY FLAVORED FROZEN CONFECTION WITH OTHER NATURAL FLAVORS, UPC: 077567213907"
Food Group:  Branded Food Products Database
Common Name:

Nutrient,Unit,Data points,Std. Error,"87.0 g = 87.0g",1Value per 100 g,
Proximates
"Energy",kcal,--,--,80,92
"Protein",g,--,--,0.00,0.00
"Total lipid (fat)",g,--,--,0.00,0.00
"Carbohydrate, by difference",g,--,--,20.00,22.99
"Sugars, total",g,--,--,12.00,13.79
Minerals
"Sodium, Na",mg,--,--,10,11
Vitamins
Lipids
Amino Acids
Other
Ingredients
"WATER, HIGH FRUCTOSE CORN SYRUP, CORN SYRUP, MALTODEXTRIN, LIQUID SUGAR (SUGAR, WATER), CONTAINS 1 PERCENT OR LESS OF EACH OF THE FOLLOWING: CITRIC ACID, MALIC ACID, GUAR GUM, MONO AND DIGLYCERIDES, CELLULOSE GUM, PECTIN, MODIFIED CELLULOSE, RED 40, NATURAL FLAVOR, POLYSORBATE 80, RED RASPBERRY JUICE CONCENTRATE, POLYSORBATE 65, CARRAGEENAN, LOCUST BEAN GUM" Date available: 04/24/2017 Date last updated by company: 04/24/2017
