Source: USDA Branded Food Products Database Release December 2017 Software v.3.8.6.4 2017-10-02
Report Run at: December 17, 2017 05:56 EST
"Nutrient data for: 45142205, POPS, UPC: 014200027088"
Food Group:  Branded Food Products Database
Common Name:

Nutrient,Unit,Data points,Std. Error,"1 POP = 16.0g",1Value per 100 g,
Proximates
"Energy",kcal,--,--,60,375
"Protein",g,--,--,0.00,0.00
"Total lipid (fat)",g,--,--,0.00,0.00
"Carbohydrate, by difference",g,--,--,14.00,87.50
"Sugars, total",g,--,--,11.00,68.75
Minerals
"Sodium, Na",mg,--,--,0,0
Vitamins
Lipids
Amino Acids
Other
Ingredients
"SUGAR, CORN SYRUP, CITRIC ACID, ARTIFICIAL FLAVORS, ARTIFICIAL COLORS (INCLUDING FD&C RED 40 AND FD&C BLUE 1), TURMERIC COLORING." Date available: 07/14/2017 Date last updated by company: 07/14/2017
