Source: USDA Branded Food Products Database Release December 2017 Software v.3.8.6.4 2017-10-02
Report Run at: December 17, 2017 05:57 EST
"Nutrient data for: 45215089, POPS, UPC: 074534943003"
Food Group:  Branded Food Products Database
Common Name:

Nutrient,Unit,Data points,Std. Error,"1 POP = 49.0g",1Value per 100 g,
Proximates
"Energy",kcal,--,--,30,61
"Protein",g,--,--,0.00,0.00
"Total lipid (fat)",g,--,--,0.00,0.00
"Carbohydrate, by difference",g,--,--,10.00,20.41
"Sugars, total",g,--,--,7.00,14.29
Minerals
"Sodium, Na",mg,--,--,0,0
Vitamins
"Vitamin C, total ascorbic acid",mg,--,--,6.0,12.2
Lipids
Amino Acids
Other
Ingredients
"WATER, SUGAR, HIGH FRUCTOSE CORN SYRUP, CORN SYRUP, CITRIC ACID, GUAR GUM AND/OR CELLULOSE GUM, MALTODEXTRIN, NATURAL MANGO FLAVOR WITH OTHER NATURAL FLAVORS, XANTHAN GUM, MODIFIED FOOD STARCH, ASCORBIC ACID, POLYSORBATE 60, ACESULFAME POTASSIUM, SUCRALOSE, YELLOW 5, YELLOW 6." Date available: 07/14/2017 Date last updated by company: 07/14/2017
