Source: USDA Branded Food Products Database Release December 2017 Software v.3.8.6.4 2017-10-02
Report Run at: December 17, 2017 06:10 EST
"Nutrient data for: 45099977, POR KWAN, INSTANT BEEF FLAVOR PASTE, UPC: 8850643002310"
Food Group:  Branded Food Products Database
Common Name:

Nutrient,Unit,Data points,Std. Error,"1 Tbsp = 10.0g",1Value per 100 g,
Proximates
"Energy",kcal,--,--,15,150
"Protein",g,--,--,0.00,0.00
"Total lipid (fat)",g,--,--,1.00,10.00
"Carbohydrate, by difference",g,--,--,2.00,20.00
"Fiber, total dietary",g,--,--,0.0,0.0
"Sugars, total",g,--,--,1.00,10.00
Minerals
"Calcium, Ca",mg,--,--,0,0
"Iron, Fe",mg,--,--,1.46,14.62
"Sodium, Na",mg,--,--,600,6000
Vitamins
"Vitamin C, total ascorbic acid",mg,--,--,4.9,48.7
"Vitamin A, IU",IU,--,--,0,0
Lipids
"Fatty acids, total saturated",g,--,--,0.000,0.000
"Fatty acids, total trans",g,--,--,0.000,0.000
"Cholesterol",mg,--,--,0,0
Amino Acids
Other
Ingredients
"ONION, GARLIC, SALT, SOY BEAN OIL, SUGAR, LEMON GRASS, MONOSODIUM GLUTAMATE, SOY SAUCE POWDER (SOY BEAN, SALT, WHEAT), ARTIFICIAL BEEF FLAVOR, CHILI, SPICES (PEPPER, CINNAMON, CLOVE, STAR ANISE), GINGER, PAPRIKA COLOR, CARAMEL COLOR, CITRIC ACID." Date available: 07/14/2017 Date last updated by company: 07/14/2017
