Source: USDA Branded Food Products Database Release December 2017 Software v.3.8.6.4 2017-10-02
Report Run at: December 17, 2017 06:10 EST
"Nutrient data for: 45094794, POR KWAN, RED CURRY SOUP, UPC: 8850643058324"
Food Group:  Branded Food Products Database
Common Name:

Nutrient,Unit,Data points,Std. Error,"0.5 cup = 110.0g",1Value per 100 g,
Proximates
"Energy",kcal,--,--,110,100
"Protein",g,--,--,3.00,2.73
"Total lipid (fat)",g,--,--,8.00,7.27
"Carbohydrate, by difference",g,--,--,7.00,6.36
"Fiber, total dietary",g,--,--,1.0,0.9
"Sugars, total",g,--,--,3.00,2.73
Minerals
"Calcium, Ca",mg,--,--,20,18
"Iron, Fe",mg,--,--,0.55,0.50
"Sodium, Na",mg,--,--,860,782
Vitamins
"Vitamin C, total ascorbic acid",mg,--,--,1.9,1.7
"Vitamin A, IU",IU,--,--,0,0
Lipids
"Fatty acids, total saturated",g,--,--,1.496,1.360
"Fatty acids, total trans",g,--,--,0.000,0.000
"Cholesterol",mg,--,--,0,0
Amino Acids
Other
Ingredients
"COCONUT MILK, WATER, BAMBOO SHOOTS (14%), RED CURRY PASTE (GARLIC, LEMON GRASS, RED CHILI, SHALLOT, SALT, GALANGA, KAFFIR LIME PEEL, CORIANDER, PEPPER, CUMIN), BABY CORN (5%), SUGAR, SALT, SWEET BASIL LEAVES, KAFFIR LINE LEAVES." Date available: 06/25/2017 Date last updated by company: 06/25/2017
