Source: USDA Branded Food Products Database Release December 2017 Software v.3.8.6.4 2017-10-02
Report Run at: December 17, 2017 05:59 EST
"Nutrient data for: 45189428, PORCINI DRIED MUSHROOM, UPC: 5906458118753"
Food Group:  Branded Food Products Database
Common Name:

Nutrient,Unit,Data points,Std. Error,"200.0 G FRESH) | ( = 20.0g",1Value per 100 g,
Proximates
"Energy",kcal,--,--,75,375
"Protein",g,--,--,3.00,15.00
"Total lipid (fat)",g,--,--,0.00,0.00
"Carbohydrate, by difference",g,--,--,12.00,60.00
"Fiber, total dietary",g,--,--,0.0,0.0
"Sugars, total",g,--,--,0.00,0.00
Minerals
"Calcium, Ca",mg,--,--,75,375
"Iron, Fe",mg,--,--,0.90,4.50
"Sodium, Na",mg,--,--,11,55
Vitamins
"Vitamin C, total ascorbic acid",mg,--,--,15.0,75.0
"Vitamin A, IU",IU,--,--,0,0
Lipids
"Fatty acids, total saturated",g,--,--,0.000,0.000
"Fatty acids, total trans",g,--,--,0.000,0.000
"Cholesterol",mg,--,--,0,0
Amino Acids
Other
Ingredients
"PORCINI MUSHROOM" Date available: 10/13/2017 Date last updated by company: 10/13/2017
