Source: USDA Branded Food Products Database Release December 2017 Software v.3.8.6.4 2017-10-02
Report Run at: December 17, 2017 06:05 EST
"Nutrient data for: 45285397, PORK RAISED WITHOUT ANTIBIOTICS, UPC: 036800195363"
Food Group:  Branded Food Products Database
Common Name:

Nutrient,Unit,Data points,Std. Error,"1 LINK = 42.0g",1Value per 100 g,
Proximates
"Energy",kcal,--,--,130,310
"Protein",g,--,--,5.00,11.90
"Total lipid (fat)",g,--,--,11.00,26.19
"Carbohydrate, by difference",g,--,--,1.00,2.38
"Fiber, total dietary",g,--,--,0.0,0.0
"Sugars, total",g,--,--,1.00,2.38
Minerals
"Calcium, Ca",mg,--,--,0,0
"Iron, Fe",mg,--,--,0.47,1.12
"Sodium, Na",mg,--,--,330,786
Vitamins
"Vitamin C, total ascorbic acid",mg,--,--,0.0,0.0
"Vitamin A, IU",IU,--,--,0,0
Lipids
"Fatty acids, total saturated",g,--,--,3.998,9.520
"Fatty acids, total trans",g,--,--,0.000,0.000
"Cholesterol",mg,--,--,25,60
Amino Acids
Other
Ingredients
"PORK, WATER, SEA SALT, NATURAL FLAVORINGS (GROUND MUSTARD, CELERY POWDER, GROUND CORIANDER, ONION POWDER, GARLIC POWDER, WHITE PEPPER), TURBINADO SUGAR, PAPRIKA." Date available: 10/05/2017 Date last updated by company: 10/05/2017
