Source: USDA Branded Food Products Database Release December 2017 Software v.3.8.6.4 2017-10-02
Report Run at: December 17, 2017 06:04 EST
"Nutrient data for: 45199199, PORK KARTINAS, UPC: 079893003474"
Food Group:  Branded Food Products Database
Common Name:

Nutrient,Unit,Data points,Std. Error,"1 cup = 200.0g",1Value per 100 g,
Proximates
"Energy",kcal,--,--,310,155
"Protein",g,--,--,19.00,9.50
"Total lipid (fat)",g,--,--,14.00,7.00
"Carbohydrate, by difference",g,--,--,25.00,12.50
"Fiber, total dietary",g,--,--,1.0,0.5
"Sugars, total",g,--,--,3.00,1.50
Minerals
"Calcium, Ca",mg,--,--,40,20
"Iron, Fe",mg,--,--,1.26,0.63
"Sodium, Na",mg,--,--,820,410
Vitamins
"Vitamin C, total ascorbic acid",mg,--,--,3.4,1.7
"Vitamin A, IU",IU,--,--,140,70
Lipids
"Fatty acids, total saturated",g,--,--,3.500,1.750
"Fatty acids, total trans",g,--,--,0.000,0.000
"Cholesterol",mg,--,--,60,30
Amino Acids
Other
Ingredients
"PORK CARNITAS (SEASONED PORK AND BINDER PRODUCT [PORK, WATER, CANOLA OIL, TAPIOCA STARCH (MODIFIED TAPIOCA STARCH, CARRAGEENAN, SODIUM PHOSPHATES), SEA SALT, CARAMEL COLOR, POTASSIUM PHOSPHATES], WATER, COLA SYRUP [WATER, SUGAR, CARAMEL COLOR, PHOSPHORIC ACID, CAFFEINE, NATURAL FLAVORS], SEASONING (CORN SYRUP SOLIDS, MALTODEXTRIN, DEHYDRATED GARLIC, ORANGE JUICE SOLIDS, SALT, SPICES, CITRIC ACID, VINEGAR SOLIDS, MODIFIED CORN STARCH, MALIC ACID, NATURAL FLAVORS], SALTED BUTTER [CREAM, SALT]), RED RICE (WATER, ENRICHED PARBOILED RICE (LONG GRAIN RICE, IRON PHOSPHATE, NIACIN, THIAMIN MONONITRATE, FOLIC ACID], TOMATOES, ONION, TOMATO SAUCE [TOMATO PUREE, SALT, RED PEPPER, DEHYDRATED ONION, DEHYDRATED GARLIC, NATURAL FLAVOR, CITRIC ACID], CHICKEN BASE [CHICKEN MEAT INCLUDING CHICKEN JUICES, AUTOLYZED YEAST EXTRACT, POTATO FLOUR, SALT, FLAVORING, DRY WHEY, SUGAR, CARROT POWDER], CANOLA OIL, GARLIC, SERRANO PEPPER, CULTURED DEXTROSE, SEA SALT, CILANTRO)." Date available: 07/14/2017 Date last updated by company: 07/14/2017
