Source: USDA Branded Food Products Database Release December 2017 Software v.3.8.6.4 2017-10-02
Report Run at: December 17, 2017 06:04 EST
"Nutrient data for: 45236149, PORK MARINADE, UPC: 780993111272"
Food Group:  Branded Food Products Database
Common Name:

Nutrient,Unit,Data points,Std. Error,"1 Tbsp = 15.0g",1Value per 100 g,
Proximates
"Energy",kcal,--,--,15,100
"Protein",g,--,--,0.00,0.00
"Total lipid (fat)",g,--,--,0.00,0.00
"Carbohydrate, by difference",g,--,--,4.00,26.67
"Fiber, total dietary",g,--,--,0.0,0.0
"Sugars, total",g,--,--,3.00,20.00
Minerals
"Calcium, Ca",mg,--,--,0,0
"Iron, Fe",mg,--,--,0.00,0.00
"Sodium, Na",mg,--,--,310,2067
Vitamins
"Vitamin C, total ascorbic acid",mg,--,--,0.0,0.0
"Vitamin A, IU",IU,--,--,333,2223
Lipids
"Fatty acids, total saturated",g,--,--,0.000,0.000
"Fatty acids, total trans",g,--,--,0.000,0.000
"Cholesterol",mg,--,--,0,0
Amino Acids
Other
Ingredients
"WATER, HIGH FRUCTOSE CORN SYRUP, APPLE CIDER VINEGAR, SPICES, SOY SAUCE (WATER, WHEAT, SOYBEANS, SALT), TOMATO PASTE, WORCESTERSHIRE SAUCE CONCENTRATE (VINEGAR, MOLASSES, CORN SYRUP, WATER, SALT, CARAMEL COLOR, GARLIC POWDER, SUGAR, SPICES, TAMARIND), DISTILLED VINEGAR, SALT, CONTAINS 2% OR LESS OF: MOLASSES, SUGAR, MUSTARD SEED, NATURAL FLAVORS, TAMARIND EXTRACT, XANTHAN GUM, CORN SYRUP SOLIDS, FOOD STARCH-MODIFIED, DRIED ONION, DRIED GARLIC, MONOSODIUM GLUTAMATE, LEMON JUICE SOLIDS, DRIED CARROTS, DRIED RED PEPPERS, DRIED TOMATO, NATURAL SMOKE FLAVOR, DRIED ORANGE PEEL, DEXTROSE, YEAST AUTOLYZED, BUTTER, JALAPENO PEPPER POWDER, PAPRIKA, CARAMEL COLOR, SODIUM BENZOATE AND POTASSIUM SORBATE (PRESERVATIVES), CITRIC ACID GARLIC POWDER, SPICE EXTRACT, SOY LECITHIN." Date available: 09/29/2017 Date last updated by company: 09/29/2017
