Source: USDA Branded Food Products Database Release December 2017 Software v.3.8.6.4 2017-10-02
Report Run at: December 17, 2017 06:07 EST
"Nutrient data for: 45201217, PORK SAUSAGE PATTIES, UPC: 755440005947"
Food Group:  Branded Food Products Database
Common Name:

Nutrient,Unit,Data points,Std. Error,"1 COOKED PETTY = 50.0g",1Value per 100 g,
Proximates
"Energy",kcal,--,--,212,424
"Protein",g,--,--,6.00,12.00
"Total lipid (fat)",g,--,--,20.00,40.00
"Carbohydrate, by difference",g,--,--,2.00,4.00
"Fiber, total dietary",g,--,--,0.0,0.0
"Sugars, total",g,--,--,0.00,0.00
Minerals
"Calcium, Ca",mg,--,--,0,0
"Iron, Fe",mg,--,--,1.23,2.45
"Sodium, Na",mg,--,--,320,640
Vitamins
"Vitamin C, total ascorbic acid",mg,--,--,0.0,0.0
"Vitamin A, IU",IU,--,--,0,0
Lipids
"Fatty acids, total saturated",g,--,--,7.000,14.000
"Fatty acids, total trans",g,--,--,0.000,0.000
"Cholesterol",mg,--,--,35,70
Amino Acids
Other
Ingredients
"PORK, WATER, SALT, SPICES, CORN SYRUP SOLIDS, DEXTROSE, BHA, CITRIC ACID, PROPYL GALLATE." Date available: 07/14/2017 Date last updated by company: 07/14/2017
