Source: USDA Branded Food Products Database Release December 2017 Software v.3.8.6.4 2017-10-02
Report Run at: December 17, 2017 06:04 EST
"Nutrient data for: 45199017, PORK PATTIES, UPC: 085771282954"
Food Group:  Branded Food Products Database
Common Name:

Nutrient,Unit,Data points,Std. Error,"1.5 ONZ = 43.0g",1Value per 100 g,
Proximates
"Energy",kcal,--,--,160,372
"Protein",g,--,--,5.00,11.63
"Total lipid (fat)",g,--,--,15.00,34.88
"Carbohydrate, by difference",g,--,--,1.00,2.33
"Fiber, total dietary",g,--,--,0.3,0.6
"Sugars, total",g,--,--,1.00,2.33
Minerals
"Calcium, Ca",mg,--,--,20,47
"Iron, Fe",mg,--,--,0.46,1.07
"Sodium, Na",mg,--,--,210,488
Vitamins
"Vitamin C, total ascorbic acid",mg,--,--,0.0,0.0
"Vitamin A, IU",IU,--,--,128,298
Lipids
"Fatty acids, total saturated",g,--,--,5.998,13.950
"Fatty acids, total trans",g,--,--,0.000,0.000
"Cholesterol",mg,--,--,25,58
Amino Acids
Other
Ingredients
"PORK, WATER, TEXTURED SOY FLOUR, SALT, SPICES, SUGAR, MONOSODIUM GLUTAMATE, CITRIC ACID, BHA, BHT AND PROPYL GALLATE ADDED TO HELP PROTECT FLAVOR." Date available: 08/21/2017 Date last updated by company: 08/21/2017
