Source: USDA Branded Food Products Database Release December 2017 Software v.3.8.6.4 2017-10-02
Report Run at: December 17, 2017 06:04 EST
"Nutrient data for: 45197836, PORK PATTIES, UPC: 070247977717"
Food Group:  Branded Food Products Database
Common Name:

Nutrient,Unit,Data points,Std. Error,"1 PATTY = 151.0g",1Value per 100 g,
Proximates
"Energy",kcal,--,--,461,305
"Protein",g,--,--,23.99,15.89
"Total lipid (fat)",g,--,--,38.01,25.17
"Carbohydrate, by difference",g,--,--,3.00,1.99
"Fiber, total dietary",g,--,--,0.0,0.0
"Sugars, total",g,--,--,1.00,0.66
Minerals
"Calcium, Ca",mg,--,--,100,66
"Iron, Fe",mg,--,--,0.60,0.40
"Sodium, Na",mg,--,--,1090,722
Vitamins
"Vitamin C, total ascorbic acid",mg,--,--,0.0,0.0
"Vitamin A, IU",IU,--,--,56,37
Lipids
"Fatty acids, total saturated",g,--,--,14.994,9.930
"Fatty acids, total trans",g,--,--,0.000,0.000
"Cholesterol",mg,--,--,100,66
Amino Acids
Other
Ingredients
"PORK, BACON (CURED WITH WATER, SALT, SUGAR, SODIUM PHOSPHATES, SODIUM ERYTHORBATE, SODIUM NITRITE, SMOKE FLAVORING), PASTEURIZED PROCESS CHEDDAR CHEESE [CHEDDAR CHEESE (CULTURED PASTEURIZED MILK, SALT, ENZYMES), MILKFAT, WATER, SODIUM PHOSPHATE, SALT, POTASSIUM SORBATE, ANNATTO, POTATO STARCH, POWDERED CELLULOSE, NATAMYCIN]. LESS THAN 2% OF THE FOLLOWING: SALT, DEXTROSE, FLAVORINGS, WATER, VINEGAR, POTASSIUM LACTATE, BHA, PROPYL GALLATE, CITRIC ACID." Date available: 09/07/2017 Date last updated by company: 09/07/2017
