Source: USDA Branded Food Products Database Release December 2017 Software v.3.8.6.4 2017-10-02
Report Run at: December 17, 2017 06:03 EST
"Nutrient data for: 45203342, PORK EGG ROLL, UPC: 861989000111"
Food Group:  Branded Food Products Database
Common Name:

Nutrient,Unit,Data points,Std. Error,"1 EGG ROLL = 141.0g",1Value per 100 g,
Proximates
"Energy",kcal,--,--,185,131
"Protein",g,--,--,13.00,9.22
"Total lipid (fat)",g,--,--,5.01,3.55
"Carbohydrate, by difference",g,--,--,35.00,24.82
"Fiber, total dietary",g,--,--,3.0,2.1
"Sugars, total",g,--,--,9.00,6.38
Minerals
"Calcium, Ca",mg,--,--,49,35
"Iron, Fe",mg,--,--,0.54,0.38
"Sodium, Na",mg,--,--,281,199
Vitamins
"Vitamin C, total ascorbic acid",mg,--,--,1.8,1.3
"Vitamin A, IU",IU,--,--,302,214
Lipids
"Fatty acids, total saturated",g,--,--,2.002,1.420
"Fatty acids, total trans",g,--,--,0.000,0.000
"Cholesterol",mg,--,--,1,1
Amino Acids
Other
Ingredients
"CABBAGE, PORK, TVP (TEXTURED VEGETABLE PROTEIN), CARROTS, CELERY, ONION, SUGAR, SALT, MSG, SESAME OIL, BLACK PEPPER, CRUST CONTAINS, FLOUR, WATER, CORN STARCH, EGG, SALT, SODIUM BENZOATE (LESS THAN 1% OF 1/10)." Date available: 07/14/2017 Date last updated by company: 07/14/2017
