Source: USDA Branded Food Products Database Release December 2017 Software v.3.8.6.4 2017-10-02
Report Run at: December 17, 2017 06:01 EST
"Nutrient data for: 45203318, PORK CHOPS, UPC: 859522004344"
Food Group:  Branded Food Products Database
Common Name:

Nutrient,Unit,Data points,Std. Error,"7.0 ONZ = 198.0g",1Value per 100 g,
Proximates
"Energy",kcal,--,--,380,192
"Protein",g,--,--,34.00,17.17
"Total lipid (fat)",g,--,--,24.00,12.12
"Carbohydrate, by difference",g,--,--,6.00,3.03
"Fiber, total dietary",g,--,--,1.0,0.5
"Sugars, total",g,--,--,3.01,1.52
Minerals
"Calcium, Ca",mg,--,--,40,20
"Iron, Fe",mg,--,--,0.77,0.39
"Sodium, Na",mg,--,--,1230,621
Vitamins
"Vitamin C, total ascorbic acid",mg,--,--,1.6,0.8
"Vitamin A, IU",IU,--,--,85,43
Lipids
"Fatty acids, total saturated",g,--,--,7.999,4.040
"Fatty acids, total trans",g,--,--,0.000,0.000
"Cholesterol",mg,--,--,101,51
Amino Acids
Other
Ingredients
"CENTER CUT PORK LOIN, WATER, MARINADE (SEA SALT, SUGAR, BURGUNDY WINE POWDER [MALTODEXTRIN, MODIFIED CORN STARCH, CORN SYRUP, BURGUNDY WINE SOLIDS, NATURAL FLAVORS, SORBIC ACID, MALIC ACID], SPICES [INCLUDING PEPPER AND OREGANO], DEHYDRATED GARLIC, FRUCTOSE, VINEGAR POWDER [MALTODEXTRIN, WHITE DISTILLED VINEGAR AND MODIFIED FOOD STARCH), CILANTRO AND PARSLEY FLAKES, CITRIC ACID), DRIED PARSLEY." Date available: 08/29/2017 Date last updated by company: 08/29/2017
