Source: USDA Branded Food Products Database Release December 2017 Software v.3.8.6.4 2017-10-02
Report Run at: December 17, 2017 06:12 EST
"Nutrient data for: 45243633, PORTLAND PUNCH, FRUIT DRINK CONCENTRATE, LOGANBERRY, RASPBERRY, UPC: 042774300702"
Food Group:  Branded Food Products Database
Common Name:

Nutrient,Unit,Data points,Std. Error,"3.0 Tbsp = 38.0g",1Value per 100 g,
Proximates
"Energy",kcal,--,--,80,211
"Protein",g,--,--,0.00,0.00
"Total lipid (fat)",g,--,--,0.00,0.00
"Carbohydrate, by difference",g,--,--,23.00,60.53
"Sugars, total",g,--,--,23.00,60.53
Minerals
"Sodium, Na",mg,--,--,5,13
Vitamins
Lipids
Amino Acids
Other
Ingredients
"HIGH FRUCTOSE CORN SYRUP. WATER, RASPBERRY JUICE FROM CONCENTRATE, NATURAL AND ARTIFICIAL FLAVORS, CITRIC ACID AND SODIUM BENZOATE (LESS THAN 1/10TH OF 1% AS A PRESERVATIVE)" Date available: 08/11/2017 Date last updated by company: 08/11/2017
