Source: USDA Branded Food Products Database Release December 2017 Software v.3.8.6.4 2017-10-02
Report Run at: December 17, 2017 06:13 EST
"Nutrient data for: 45108381, PORT WINE, CHEDDAR CHEESE SNACK SPREAD, UPC: 048707432304"
Food Group:  Branded Food Products Database
Common Name:

Nutrient,Unit,Data points,Std. Error,"2.0 Tbsp = 30.0g",1Value per 100 g,
Proximates
"Energy",kcal,--,--,100,333
"Protein",g,--,--,4.00,13.33
"Total lipid (fat)",g,--,--,8.00,26.67
"Carbohydrate, by difference",g,--,--,4.00,13.33
"Fiber, total dietary",g,--,--,0.0,0.0
"Sugars, total",g,--,--,4.00,13.33
Minerals
"Calcium, Ca",mg,--,--,150,500
"Iron, Fe",mg,--,--,0.60,2.00
"Sodium, Na",mg,--,--,180,600
Vitamins
"Vitamin C, total ascorbic acid",mg,--,--,0.0,0.0
"Vitamin A, IU",IU,--,--,166,555
Lipids
"Fatty acids, total saturated",g,--,--,3.501,11.670
"Fatty acids, total trans",g,--,--,0.000,0.000
"Cholesterol",mg,--,--,15,50
Amino Acids
Other
Ingredients
"CHEESE (PASTEURIZED MILK, CHEESE CULTURE, SALT, ENZYMES), WATER, WHEY, SOYBEAN OIL, LESS THAN 2 % PORT WINE, SORBIC ACID (AS A PRESERVATIVE), RED #40, XANTHAN GUM, ANNATTO COLOR." Date available: 07/14/2017 Date last updated by company: 07/14/2017
