Source: USDA Branded Food Products Database Release December 2017 Software v.3.8.6.4 2017-10-02
Report Run at: December 17, 2017 06:11 EST
"Nutrient data for: 45176642, PORTABELLA QUICHE, UPC: 077890393000"
Food Group:  Branded Food Products Database
Common Name:

Nutrient,Unit,Data points,Std. Error,"0.25 PIE = 141.0g",1Value per 100 g,
Proximates
"Energy",kcal,--,--,300,213
"Protein",g,--,--,9.00,6.38
"Total lipid (fat)",g,--,--,19.01,13.48
"Carbohydrate, by difference",g,--,--,25.00,17.73
"Fiber, total dietary",g,--,--,1.0,0.7
"Sugars, total",g,--,--,0.00,0.00
Minerals
"Calcium, Ca",mg,--,--,80,57
"Iron, Fe",mg,--,--,1.79,1.27
"Sodium, Na",mg,--,--,430,305
Vitamins
"Vitamin C, total ascorbic acid",mg,--,--,0.0,0.0
"Vitamin A, IU",IU,--,--,199,141
Lipids
"Fatty acids, total saturated",g,--,--,4.498,3.190
"Fatty acids, total trans",g,--,--,0.000,0.000
"Cholesterol",mg,--,--,130,92
Amino Acids
Other
Ingredients
"(FILLING [WATER, LIQUID WHOLE EGGS, MAYONNAISE {CANOLA OIL, DISTILLED VINEGAR, EGG YOLKS, SUGAR, SALT, SPICE, OLEORESIN PAPRIKA}, PORTABELLO MUSHROOMS, SWISS CHEESE {CULTURED PASTEURIZED MILK, SALT, ENZYMES, POTATO STARCH, CORNSTARCH}, ONIONS, MODIFIED FOOD STARCH, HEAVY CREAM, HOT SAUCE {AGED CAYENNE RED PEPPERS, VINEGAR, WATER, SALT, GARLIC POWDER}, SALT, NISIN PREPERATION], CRUST [ENRICHED FLOUR {WHEAT FLOUR, NIACIN, IRON, THIAMINE MONONITRATE, RIBOFLAVIN, FOLIC ACID}, PALM OIL, WATER, WHOLE EGGS, SALT])." Date available: 07/14/2017 Date last updated by company: 07/14/2017
