Source: USDA Branded Food Products Database Release December 2017 Software v.3.8.6.4 2017-10-02
Report Run at: December 17, 2017 06:31 EST
"Nutrient data for: 45284545, POTATO CHIPS, UPC: 028400623940"
Food Group:  Branded Food Products Database
Common Name:

Nutrient,Unit,Data points,Std. Error,"15.0 CHIPS | ABOUT = 28.0g",1Value per 100 g,
Proximates
"Energy",kcal,--,--,160,571
"Protein",g,--,--,2.00,7.14
"Total lipid (fat)",g,--,--,10.00,35.71
"Carbohydrate, by difference",g,--,--,15.00,53.57
"Fiber, total dietary",g,--,--,1.0,3.6
"Sugars, total",g,--,--,1.00,3.57
Minerals
"Calcium, Ca",mg,--,--,0,0
"Iron, Fe",mg,--,--,0.36,1.29
"Potassium, K",mg,--,--,330,1179
"Sodium, Na",mg,--,--,140,500
Vitamins
"Vitamin C, total ascorbic acid",mg,--,--,6.0,21.4
"Vitamin A, IU",IU,--,--,0,0
Lipids
"Fatty acids, total saturated",g,--,--,1.501,5.360
"Fatty acids, total trans",g,--,--,0.000,0.000
"Cholesterol",mg,--,--,0,0
Amino Acids
Other
Ingredients
"POTATOES, VEGETABLE OIL (SUNFLOWER, CORN, AND/OR CANOLA OIL), BEER 'N BRATS SEASONING (SALT, ONION POWDER, MALTODEXTRIN [MADE FROM CORN], CHEDDAR CHEESE [MILK, CHEESE CULTURES, SALT, ENZYMES], BROWN SUGAR, SUGAR, YEAST EXTRACT, WHEY PROTEIN CONCENTRATE, SPICES, SKIM MILK, WHEY, SUNFLOWER OIL, BUTTER [CREAM, SALT], BEER SOLIDS [MALTED BARLEY, CORN SYRUP, HOPS, YEAST], ROMANO CHEESE [COW'S MILK, CHEESE CULTURES, SALT, ENZYMES], CITRIC ACID, CORN OIL, NATURAL FLAVOR [INCLUDING NATURAL EXTRACTIVES OF BEER], CHICKEN BROTH, CHICKEN POWDER, ANNATTO EXTRACTS, BUTTERMILK, LACTIC ACID, CHICKEN FAT, LACTOSE, CARAMEL COLOR, AND DIJON MUSTARD [VINEGAR, MUSTARD SEED, SALT, TURMERIC, SPICES])." Date available: 05/21/2017 Date last updated by company: 05/21/2017
