Source: USDA Branded Food Products Database Release December 2017 Software v.3.8.6.4 2017-10-02
Report Run at: December 17, 2017 06:44 EST
"Nutrient data for: 45190875, POTATO GNOCCHI, UPC: 046567031101"
Food Group:  Branded Food Products Database
Common Name:

Nutrient,Unit,Data points,Std. Error,"1 cup = 120.0g",1Value per 100 g,
Proximates
"Energy",kcal,--,--,200,167
"Protein",g,--,--,5.00,4.17
"Total lipid (fat)",g,--,--,0.00,0.00
"Carbohydrate, by difference",g,--,--,45.00,37.50
"Fiber, total dietary",g,--,--,1.0,0.8
"Sugars, total",g,--,--,1.00,0.83
Minerals
"Calcium, Ca",mg,--,--,20,17
"Iron, Fe",mg,--,--,1.68,1.40
"Sodium, Na",mg,--,--,300,250
Vitamins
"Vitamin C, total ascorbic acid",mg,--,--,0.0,0.0
"Vitamin A, IU",IU,--,--,0,0
Lipids
"Fatty acids, total saturated",g,--,--,0.000,0.000
"Fatty acids, total trans",g,--,--,0.000,0.000
"Cholesterol",mg,--,--,0,0
Amino Acids
Other
Ingredients
"POTATO PUREE 70% [WATER, DEHYDRATED POTATO FLAKE (POTATOES, EMULSIFIER: MONO AND DIGLYCERIDES OF FATTY ACIDS, NATURAL FLAVORINGS)], WHEAT FLOUR, POTATO STARCH, RICE FLOUR, SALT, SPICES, ACIDITY REGULATOR: LACTIC ACID, PRESERVATIVE: POTASSIUM SORBATE." Date available: 07/14/2017 Date last updated by company: 07/14/2017
