Source: USDA Branded Food Products Database Release December 2017 Software v.3.8.6.4 2017-10-02
Report Run at: December 17, 2017 06:46 EST
"Nutrient data for: 45199132, POTATO SALAD, UPC: 078742132365"
Food Group:  Branded Food Products Database
Common Name:

Nutrient,Unit,Data points,Std. Error,"0.5 cup = 135.0g",1Value per 100 g,
Proximates
"Energy",kcal,--,--,230,170
"Protein",g,--,--,3.00,2.22
"Total lipid (fat)",g,--,--,13.00,9.63
"Carbohydrate, by difference",g,--,--,27.00,20.00
"Fiber, total dietary",g,--,--,3.0,2.2
"Sugars, total",g,--,--,8.01,5.93
Minerals
"Calcium, Ca",mg,--,--,0,0
"Iron, Fe",mg,--,--,1.50,1.11
"Sodium, Na",mg,--,--,520,385
Vitamins
"Vitamin C, total ascorbic acid",mg,--,--,0.0,0.0
"Vitamin A, IU",IU,--,--,0,0
Lipids
"Fatty acids, total saturated",g,--,--,2.498,1.850
"Fatty acids, total trans",g,--,--,0.000,0.000
"Cholesterol",mg,--,--,20,15
Amino Acids
Other
Ingredients
"POTATOES, MAYONNAISE (SOYBEAN OIL, WATER, EGG YOLKS, VINEGAR, CORN SYRUP, SALT, SPICE, CALCIUM DISODIUM EDTA TO PROTECT FLAVOR), CORN SYRUP, CELERY, HARD COOKED EGGS, RED BELL PEPPER, SWEET PICKLES (CURED CUCUMBERS, HIGH FRUCTOSE CORN SYRUP, WATER, VINEGAR, SALT, MODIFIED TAPIOCA STARCH, XANTHAN GUM, SODIUM BENZOATE, NATURAL FLAVORING, CALCIUM CHLORIDE), ONION, MUSTARD (WATER, VINEGAR, MUSTARD SEED, SALT, SUGAR, SOYBEAN OIL, TURMERIC, ANNATTO, GARLIC, SPICES, XANTHAN GUM, CALCIUM DISODIUM EDTA; RETAINS PRODUCT FRESHNESS, NATURAL FLAVOR, CITRIC ACID), WATER, VINEGAR, SALT, MODIFIED CORN STARCH, SPICES, SOYBEAN OIL, POTASSIUM SORBATE AND SODIUM BENZOATE TO PROTECT FLAVOR, XANTHAN GUM, DEHYDRATED PARSLEY." Date available: 07/14/2017 Date last updated by company: 07/14/2017
