Source: USDA Branded Food Products Database Release December 2017 Software v.3.8.6.4 2017-10-02
Report Run at: December 17, 2017 06:16 EST
"Nutrient data for: 45158604, POTATO CHIPS BARBECUE, UPC: 852406003075"
Food Group:  Branded Food Products Database
Common Name:

Nutrient,Unit,Data points,Std. Error,"13.0 CHIPS | ABOUT = 28.0g",1Value per 100 g,
Proximates
"Energy",kcal,--,--,150,536
"Protein",g,--,--,2.00,7.14
"Total lipid (fat)",g,--,--,9.00,32.14
"Carbohydrate, by difference",g,--,--,16.00,57.14
"Fiber, total dietary",g,--,--,2.0,7.1
"Sugars, total",g,--,--,0.00,0.00
Minerals
"Calcium, Ca",mg,--,--,0,0
"Iron, Fe",mg,--,--,0.64,2.29
"Sodium, Na",mg,--,--,150,536
Vitamins
"Vitamin C, total ascorbic acid",mg,--,--,16.1,57.4
"Vitamin A, IU",IU,--,--,0,0
Lipids
"Fatty acids, total saturated",g,--,--,1.000,3.570
"Fatty acids, total trans",g,--,--,0.000,0.000
"Cholesterol",mg,--,--,0,0
Amino Acids
Other
Ingredients
"LUKE'S ORGANIC POTATOES, LUKE'S ORGANIC SUSTAINABLE OIL BLEND (SUNFLOWER OIL, SAFFLOWER OIL AND/OR RED PALM OLEIN), ORGANIC BARBECUE SEASONING (ORGANIC TAPIOCA MALTODEXTRIN, SEA SALT, ORGANIC TOMATO, ORGANIC PAPRIKA, ORGANIC ONION, ORGANIC GARLIC, NATURAL SMOKE FLAVOR, ORGANIC VINEGAR, CITRIC ACID, ORGANIC SPICES, ORGANIC STEVIA)" Date available: 07/14/2017 Date last updated by company: 07/14/2017
