Source: USDA Branded Food Products Database Release December 2017 Software v.3.8.6.4 2017-10-02
Report Run at: December 17, 2017 06:44 EST
"Nutrient data for: 45322834, POTATO HOME STYLE SOUP MIX, UPC: 041149120006"
Food Group:  Branded Food Products Database
Common Name:

Nutrient,Unit,Data points,Std. Error,"1 CUP PREPARED | DRY MIX, = 39.0g",1Value per 100 g,
Proximates
"Energy",kcal,--,--,150,385
"Protein",g,--,--,3.00,7.69
"Total lipid (fat)",g,--,--,3.50,8.97
"Carbohydrate, by difference",g,--,--,27.00,69.23
"Fiber, total dietary",g,--,--,2.0,5.1
"Sugars, total",g,--,--,3.00,7.69
Minerals
"Calcium, Ca",mg,--,--,20,51
"Iron, Fe",mg,--,--,0.92,2.37
"Sodium, Na",mg,--,--,810,2077
Vitamins
"Vitamin C, total ascorbic acid",mg,--,--,7.7,19.7
"Vitamin A, IU",IU,--,--,0,0
Lipids
"Fatty acids, total saturated",g,--,--,0.998,2.560
"Fatty acids, total monounsaturated",g,--,--,2.001,5.130
"Fatty acids, total polyunsaturated",g,--,--,0.000,0.000
"Fatty acids, total trans",g,--,--,0.000,0.000
"Cholesterol",mg,--,--,0,0
Amino Acids
Other
Ingredients
"DEHYDRATED POTATOES, ENRICHED FLOUR (BLEACHED WHEAT FLOUR, MALTED BARLEY FLOUR, NIACIN, IRON, THIAMIN MONONITRATE, RIBOFLAVIN, FOLIC ACID), CREAMER (PARTIALLY HYDROGENATED SOYBEAN OIL, CORN SYRUP SOLIDS, SODIUM CASEINATE, MONO AND DIGLYCERIDES, DIPOTASSIUM PHOSPHATE, SOY LECITHIN), DEHYDRATED ONION, DEXTROSE, SALT, AUTOLYZED YEAST EXTRACT, MODIFIED CORN STARCH, NATURAL FLAVORS (CULTURED POTATO EXTRACT, WHEY, MALTODEXTRIN, NATURAL BUTTER FLAVOR, ANNATTO, TURMERIC, LEEK POWDER, PARTIALLY HYDROGENATED PALM OIL, GLUTAMIC ACID), SUGAR, CHICKEN FAT, HYDROLYZED SOY PROTEIN AND CORN GLUTEN, DISODIUM PHOSPHATE, DEHYDRATED GARLIC, SPICE, DISODIUM INOSINATE, DISODIUM GUANYLATE, TARTARIC ACID." Date available: 07/14/2017 Date last updated by company: 07/14/2017
