Source: USDA Branded Food Products Database Release December 2017 Software v.3.8.6.4 2017-10-02
Report Run at: December 17, 2017 06:18 EST
"Nutrient data for: 45142401, POTATO CHIPS, UPC: 021140012722"
Food Group:  Branded Food Products Database
Common Name:

Nutrient,Unit,Data points,Std. Error,"15.0 CHIPS | ABOUT = 28.0g",1Value per 100 g,
Proximates
"Energy",kcal,--,--,150,536
"Protein",g,--,--,2.00,7.14
"Total lipid (fat)",g,--,--,9.00,32.14
"Carbohydrate, by difference",g,--,--,15.00,53.57
"Fiber, total dietary",g,--,--,1.0,3.6
"Sugars, total",g,--,--,2.00,7.14
Minerals
"Calcium, Ca",mg,--,--,0,0
"Iron, Fe",mg,--,--,0.64,2.29
"Sodium, Na",mg,--,--,250,893
Vitamins
"Vitamin C, total ascorbic acid",mg,--,--,8.6,30.6
"Vitamin A, IU",IU,--,--,0,0
Lipids
"Fatty acids, total saturated",g,--,--,1.000,3.570
"Fatty acids, total trans",g,--,--,0.000,0.000
"Cholesterol",mg,--,--,0,0
Amino Acids
Other
Ingredients
"POTATOES, VEGETABLE OIL (CORN AND/OR CANOLA AND/OR SUNFLOWER OIL), BBQ SEASONING (SUGAR, SALT, CORN MALTODEXTRIN, DEXTROSE, SPICES, HYDROLYZED SOY AND CORN PROTEIN, MONOSODIUM GLUTAMATE, TORULA YEAST, PAPRIKA, LESS THAN 2% CALCIUM SILICATE [AS ANTICAKING AGENT], CARAMEL COLOR, EXTRACTIVES OF PAPRIKA, DISODIUM INOSINATE AND GUANYLATE, NATURAL FLAVOR, YELLOW 6 LAKE)." Date available: 07/14/2017 Date last updated by company: 07/14/2017
