Source: USDA Branded Food Products Database Release December 2017 Software v.3.8.6.4 2017-10-02
Report Run at: December 17, 2017 06:23 EST
"Nutrient data for: 45200008, POTATO CHIPS, UPC: 614156061725"
Food Group:  Branded Food Products Database
Common Name:

Nutrient,Unit,Data points,Std. Error,"12.0 CHIPS) | (ABOUT = 28.0g",1Value per 100 g,
Proximates
"Energy",kcal,--,--,170,607
"Protein",g,--,--,2.00,7.14
"Total lipid (fat)",g,--,--,10.00,35.71
"Carbohydrate, by difference",g,--,--,17.00,60.71
"Fiber, total dietary",g,--,--,1.0,3.6
"Sugars, total",g,--,--,1.00,3.57
Minerals
"Calcium, Ca",mg,--,--,0,0
"Iron, Fe",mg,--,--,0.64,2.29
"Potassium, K",mg,--,--,240,857
"Sodium, Na",mg,--,--,390,1393
Vitamins
"Vitamin C, total ascorbic acid",mg,--,--,4.3,15.3
"Vitamin A, IU",IU,--,--,0,0
Lipids
"Fatty acids, total saturated",g,--,--,1.501,5.360
"Fatty acids, total monounsaturated",g,--,--,2.500,8.930
"Fatty acids, total polyunsaturated",g,--,--,6.000,21.430
"Fatty acids, total trans",g,--,--,0.000,0.000
"Cholesterol",mg,--,--,0,0
Amino Acids
Other
Ingredients
"POTATOES, VEGETABLE OIL (CONTAINS ONE OR MORE OF THE FOLLOWING: CORN, SUNFLOWER, OR COTTONSEED OIL), SALT, PEPPER, SEA SALT, DEXTROSE, ONION POWDER, GARLIC POWDER, CORN STARCH, NATURAL FLAVOR." Date available: 07/14/2017 Date last updated by company: 07/14/2017
