Source: USDA Branded Food Products Database Release December 2017 Software v.3.8.6.4 2017-10-02
Report Run at: December 17, 2017 06:19 EST
"Nutrient data for: 45051635, POTATO CHIPS, UPC: 041780000880"
Food Group:  Branded Food Products Database
Common Name:

Nutrient,Unit,Data points,Std. Error,"20.0 CHIPS | ABOUT = 28.0g",1Value per 100 g,
Proximates
"Energy",kcal,--,--,150,536
"Protein",g,--,--,2.00,7.14
"Total lipid (fat)",g,--,--,9.00,32.14
"Carbohydrate, by difference",g,--,--,15.00,53.57
"Fiber, total dietary",g,--,--,1.0,3.6
"Sugars, total",g,--,--,2.00,7.14
Minerals
"Calcium, Ca",mg,--,--,0,0
"Iron, Fe",mg,--,--,0.64,2.29
"Magnesium, Mg",mg,--,--,29,102
"Phosphorus, P",mg,--,--,71,255
"Potassium, K",mg,--,--,290,1036
"Sodium, Na",mg,--,--,150,536
Vitamins
"Vitamin C, total ascorbic acid",mg,--,--,10.7,38.3
"Thiamin",mg,--,--,0.000,0.000
"Niacin",mg,--,--,2.142,7.650
"Vitamin B-6",mg,--,--,0.143,0.510
"Vitamin A, IU",IU,--,--,0,0
Lipids
"Fatty acids, total saturated",g,--,--,1.999,7.140
"Fatty acids, total monounsaturated",g,--,--,1.999,7.140
"Fatty acids, total polyunsaturated",g,--,--,5.001,17.860
"Fatty acids, total trans",g,--,--,0.000,0.000
"Cholesterol",mg,--,--,0,0
Amino Acids
Other
Ingredients
"POTATOES, COTTONSEED OIL, SUGAR, FRUCTOSE, SALT, TORULA YEAST (INCLUDING SMOKED TORULA YEAST), BROWN SUGAR, DEXTROSE, ONION POWDER, NATURAL FLAVORS, MALTODEXTRIN (DERIVED FROM CORN), SPICES, EXTRACTIVES OF PAPRIKA, GARLIC POWDER, YEAST EXTRACT." Date available: 07/14/2017 Date last updated by company: 07/14/2017
