Source: USDA Branded Food Products Database Release December 2017 Software v.3.8.6.4 2017-10-02
Report Run at: December 17, 2017 06:35 EST
"Nutrient data for: 45264195, POTATO CRISPS, UPC: 071146004092"
Food Group:  Branded Food Products Database
Common Name:

Nutrient,Unit,Data points,Std. Error,"1 ONZ = 28.0g",1Value per 100 g,
Proximates
"Energy",kcal,--,--,150,536
"Protein",g,--,--,2.00,7.14
"Total lipid (fat)",g,--,--,9.00,32.14
"Carbohydrate, by difference",g,--,--,16.00,57.14
"Fiber, total dietary",g,--,--,1.0,3.6
"Sugars, total",g,--,--,0.00,0.00
Minerals
"Calcium, Ca",mg,--,--,20,71
"Iron, Fe",mg,--,--,0.64,2.29
"Potassium, K",mg,--,--,340,1214
"Sodium, Na",mg,--,--,100,357
Vitamins
"Vitamin C, total ascorbic acid",mg,--,--,21.4,76.5
"Vitamin A, IU",IU,--,--,0,0
Lipids
"Fatty acids, total saturated",g,--,--,1.000,3.570
"Fatty acids, total trans",g,--,--,0.000,0.000
"Cholesterol",mg,--,--,0,0
Amino Acids
Other
Ingredients
"POTATOES, VEGETABLE OIL (SUNFLOWER AND/OR CANOLA OIL), CHEDDAR CHEESE (MILK, SALT, CHEESE CULTURES, ENZYMES), SEA SALT, SUGAR, TORULA YEAST, YEAST EXTRACT, ONION POWDER, CITRIC ACID, LACTIC ACID, NATURAL FLAVORS (CONTAINS PORK AND BACON FAT), GARLIC POWDER, EXTRACTIVE OF PAPRIKA (COLOR), SPICE, AND NATURAL SMOKE FLAVOR." Date available: 07/14/2017 Date last updated by company: 07/14/2017
