Source: USDA Branded Food Products Database Release December 2017 Software v.3.8.6.4 2017-10-02
Report Run at: December 17, 2017 06:45 EST
"Nutrient data for: 45293189, POTATO PUFFS, UPC: 04656701813"
Food Group:  Branded Food Products Database
Common Name:

Nutrient,Unit,Data points,Std. Error,"10.0 PIECES | ABOUT = 84.0g",1Value per 100 g,
Proximates
"Energy",kcal,--,--,160,190
"Protein",g,--,--,2.00,2.38
"Total lipid (fat)",g,--,--,9.00,10.71
"Carbohydrate, by difference",g,--,--,18.00,21.43
"Fiber, total dietary",g,--,--,2.0,2.4
"Sugars, total",g,--,--,1.00,1.19
Minerals
"Calcium, Ca",mg,--,--,0,0
"Iron, Fe",mg,--,--,0.73,0.87
"Sodium, Na",mg,--,--,330,393
Vitamins
"Vitamin C, total ascorbic acid",mg,--,--,1.2,1.4
"Vitamin A, IU",IU,--,--,0,0
Lipids
"Fatty acids, total saturated",g,--,--,2.503,2.980
"Fatty acids, total monounsaturated",g,--,--,4.502,5.360
"Fatty acids, total polyunsaturated",g,--,--,1.999,2.380
"Fatty acids, total trans",g,--,--,0.000,0.000
"Cholesterol",mg,--,--,0,0
Amino Acids
Other
Ingredients
"POTATOES, VEGETABLE OIL (MAY CONTAIN ONE OR MORE OF THE FOLLOWING: CANOLA OIL, SUNFLOWER OIL, COTTONSEED OIL, PALM OIL, CORN OIL, SOYBEAN OIL, HYDROGENATED SOYBEAN AND/OR COTTONSEED OIL), SALT, CORN FLOUR, DEHYDRATED POTATO, ONION POWDER, SPICE, DISODIUM DIHYDROGEN PYROPHOSPHATE (TO PROMOTE COLOR RETENTION), DEXTROSE." Date available: 07/14/2017 Date last updated by company: 07/14/2017
