Source: USDA Branded Food Products Database Release December 2017 Software v.3.8.6.4 2017-10-02
Report Run at: December 17, 2017 06:30 EST
"Nutrient data for: 45269997, POTATO CHIPS, UPC: 041262277335"
Food Group:  Branded Food Products Database
Common Name:

Nutrient,Unit,Data points,Std. Error,"1 BAG = 35.0g",1Value per 100 g,
Proximates
"Energy",kcal,--,--,190,543
"Protein",g,--,--,2.00,5.71
"Total lipid (fat)",g,--,--,13.00,37.14
"Carbohydrate, by difference",g,--,--,18.00,51.43
"Fiber, total dietary",g,--,--,1.0,2.9
"Sugars, total",g,--,--,0.00,0.00
Minerals
"Calcium, Ca",mg,--,--,0,0
"Iron, Fe",mg,--,--,0.51,1.47
"Sodium, Na",mg,--,--,200,571
Vitamins
"Vitamin C, total ascorbic acid",mg,--,--,8.6,24.5
"Vitamin A, IU",IU,--,--,0,0
Lipids
"Fatty acids, total saturated",g,--,--,2.499,7.140
"Fatty acids, total trans",g,--,--,0.000,0.000
"Cholesterol",mg,--,--,0,0
Amino Acids
Other
Ingredients
"POTATOES, VEGETABLE OIL (CONTAINS ONE OR MORE OF THE FOLLOWING: CORN, COTTONSEED, SUNFLOWER, SOYBEAN OR CANOLA OIL), SALT." Date available: 07/14/2017 Date last updated by company: 07/14/2017
