Source: USDA Branded Food Products Database Release December 2017 Software v.3.8.6.4 2017-10-02
Report Run at: December 17, 2017 06:32 EST
"Nutrient data for: 45293209, POTATO CHIPS, UPC: 041190407644"
Food Group:  Branded Food Products Database
Common Name:

Nutrient,Unit,Data points,Std. Error,"2.0 PIECES = 104.0g",1Value per 100 g,
Proximates
"Energy",kcal,--,--,250,240
"Protein",g,--,--,7.00,6.73
"Total lipid (fat)",g,--,--,15.00,14.42
"Carbohydrate, by difference",g,--,--,21.00,20.19
"Fiber, total dietary",g,--,--,5.0,4.8
"Sugars, total",g,--,--,1.00,0.96
Minerals
"Calcium, Ca",mg,--,--,140,135
"Iron, Fe",mg,--,--,1.80,1.73
"Potassium, K",mg,--,--,480,462
"Sodium, Na",mg,--,--,280,269
Vitamins
"Vitamin D",IU,--,--,0,0
Lipids
"Fatty acids, total saturated",g,--,--,5.002,4.810
"Fatty acids, total trans",g,--,--,0.000,0.000
"Cholesterol",mg,--,--,20,19
Amino Acids
Other
Ingredients
"BAKED POTATO SHELL, CHEDDAR CHEESE (PASTEURIZED MILK, CHEESE CULTURE, SALT, ENZYMES, ANNATTO [COLOR]), CHEESE SAUCE (WATER, AGED CHEDDAR CHEESE (CULTURED MILK, SALT, ENZYMES, ANNATTO COLOR], SOYBEAN OIL, MODIFIED CORNSTARCH, SODIUM PHOSPHATE, SALT, CELLULOSE GUM, MONO AND DIGLYCERIDES, SPICE [CONTAINS MUSTARD], YEAST EXTRACT, ANNATTO COLOR), CANOLA OIL, BACON (CURD WITH WATER, SALT, SUGAR, SODIUM NITRITE, MAY CONTAIN NATURAL SMOKE FLAVOR, SODIUM PHOSPHATE, SODIUM ERYTHORBATE, SODIUM ASCORBATE), WHITE CHEDDAR CHEESE (PASTEURIZED MILK CHEESE CULTURE, SALT, ENZYMES) WATER, BACON SEASONING (DEXTROSE, SALT, MIRA YEAST MALTODEXTRIN, YEAST EXTRACT, NATURAL SMOKE FLAVOR, NATURAL FLAVORS, ONION POWDER, GUM A, DRIED CHIVES." Date available: 09/23/2017 Date last updated by company: 09/23/2017
