Source: USDA Branded Food Products Database Release December 2017 Software v.3.8.6.4 2017-10-02
Report Run at: December 17, 2017 06:27 EST
"Nutrient data for: 45248374, POTATO CHIPS, UPC: 028400277204"
Food Group:  Branded Food Products Database
Common Name:

Nutrient,Unit,Data points,Std. Error,"10.0 CHIPS | ABOUT = 28.0g",1Value per 100 g,
Proximates
"Energy",kcal,--,--,160,571
"Protein",g,--,--,2.00,7.14
"Total lipid (fat)",g,--,--,10.00,35.71
"Carbohydrate, by difference",g,--,--,16.00,57.14
"Fiber, total dietary",g,--,--,1.0,3.6
"Sugars, total",g,--,--,1.00,3.57
Minerals
"Calcium, Ca",mg,--,--,0,0
"Iron, Fe",mg,--,--,0.36,1.29
"Potassium, K",mg,--,--,310,1107
"Sodium, Na",mg,--,--,160,571
Vitamins
"Vitamin C, total ascorbic acid",mg,--,--,6.0,21.4
"Niacin",mg,--,--,1.428,5.100
"Vitamin B-6",mg,--,--,0.286,1.021
"Vitamin A, IU",IU,--,--,100,357
Lipids
"Fatty acids, total saturated",g,--,--,1.501,5.360
"Fatty acids, total trans",g,--,--,0.000,0.000
"Cholesterol",mg,--,--,0,0
Amino Acids
Other
Ingredients
"POTATOES, VEGETABLE OIL (SUNFLOWER, CORN, AND/OR CANOLA OIL), HOT WINGS SEASONING (MALTODEXTRIN [MADE FROM CORN], NATURAL FLAVOR, CAYENNE PEPPER SAUCE [SALT, AGED CAYENNE RED PEPPERS, VINEGAR, DRIED GARLIC], MONOSODIUM GLUTAMATE, SALT, SPICE, ONION POWDER, YEAST EXTRACT, CHICKEN FAT, BROWN SUGAR, GARLIC POWDER, CITRIC ACID, BUTTER [CREAM, SALT], ARTIFICIAL COLOR [RED 40 LAKE, YELLOW 6 LAKE], SKIM MILK, CHICKEN BROTH, CHICKEN POWDER, AND SUNFLOWER OIL)" Date available: 09/23/2016 Date last updated by company: 09/23/2016
