Source: USDA Branded Food Products Database Release December 2017 Software v.3.8.6.4 2017-10-02
Report Run at: December 17, 2017 06:24 EST
"Nutrient data for: 45198997, POTATO CHIPS, UPC: 077975021309"
Food Group:  Branded Food Products Database
Common Name:

Nutrient,Unit,Data points,Std. Error,"20.0 CHIPS | ABOUT = 28.0g",1Value per 100 g,
Proximates
"Energy",kcal,--,--,150,536
"Protein",g,--,--,2.00,7.14
"Total lipid (fat)",g,--,--,9.00,32.14
"Carbohydrate, by difference",g,--,--,15.00,53.57
"Fiber, total dietary",g,--,--,1.0,3.6
"Sugars, total",g,--,--,0.00,0.00
Minerals
"Calcium, Ca",mg,--,--,0,0
"Iron, Fe",mg,--,--,0.00,0.00
"Sodium, Na",mg,--,--,360,1286
Vitamins
"Vitamin C, total ascorbic acid",mg,--,--,21.4,76.5
"Vitamin A, IU",IU,--,--,179,638
Lipids
"Fatty acids, total saturated",g,--,--,0.501,1.790
"Fatty acids, total trans",g,--,--,0.000,0.000
"Cholesterol",mg,--,--,0,0
Amino Acids
Other
Ingredients
"POTATOES, VEGETABLE OIL (ONE OR MORE OF THE FOLLOWING: CANOLA OIL, CORN OIL, COTTONSEED OIL), SALT, MALTODEXTRIN, DRIED CAYENNE PEPPER SAUCE (CAYENNE PEPPERS, VINEGAR, SALT, GARLIC), SODIUM DIACETATE, MODIFIED CORN STARCH, MONOSODIUM GLUTAMATE, VINEGAR, PAPRIKA EXTRACT, CITRIC ACID, GARLIC POWDER, CARAMEL COLOR, DISODIUM INOSINATE AND DISODIUM GUANYLATE, LACTIC ACID." Date available: 07/14/2017 Date last updated by company: 07/14/2017
