Source: USDA Branded Food Products Database Release December 2017 Software v.3.8.6.4 2017-10-02
Report Run at: December 17, 2017 06:47 EST
"Nutrient data for: 45194546, POTATO SAUSAGE, UPC: 029341502028"
Food Group:  Branded Food Products Database
Common Name:

Nutrient,Unit,Data points,Std. Error,"2.5 ONZ = 70.0g",1Value per 100 g,
Proximates
"Energy",kcal,--,--,110,157
"Protein",g,--,--,7.00,10.00
"Total lipid (fat)",g,--,--,7.00,10.00
"Carbohydrate, by difference",g,--,--,5.00,7.14
"Fiber, total dietary",g,--,--,1.0,1.4
"Sugars, total",g,--,--,1.00,1.43
Minerals
"Iron, Fe",mg,--,--,0.88,1.25
"Sodium, Na",mg,--,--,370,529
Vitamins
"Vitamin C, total ascorbic acid",mg,--,--,5.8,8.3
Lipids
"Fatty acids, total saturated",g,--,--,2.499,3.570
"Fatty acids, total trans",g,--,--,0.000,0.000
"Cholesterol",mg,--,--,25,36
Amino Acids
Other
Ingredients
"PORK AND BEEF, POTATOES, ONION, SEASONINGS (SALT, SAGE, BLACK PEPPER, RED PEPPER, CORIANDER, DEXTROSE)." Date available: 10/19/2017 Date last updated by company: 10/19/2017
