Source: USDA Branded Food Products Database Release December 2017 Software v.3.8.6.4 2017-10-02
Report Run at: December 17, 2017 06:31 EST
"Nutrient data for: 45286597, POTATO CHIPS, UPC: 028400634786"
Food Group:  Branded Food Products Database
Common Name:

Nutrient,Unit,Data points,Std. Error,"11.0 CHIPS | ABOUT = 28.0g",1Value per 100 g,
Proximates
"Energy",kcal,--,--,150,536
"Protein",g,--,--,2.00,7.14
"Total lipid (fat)",g,--,--,10.00,35.71
"Carbohydrate, by difference",g,--,--,16.00,57.14
"Fiber, total dietary",g,--,--,1.0,3.6
"Sugars, total",g,--,--,1.00,3.57
Minerals
"Calcium, Ca",mg,--,--,20,71
"Iron, Fe",mg,--,--,0.36,1.29
"Potassium, K",mg,--,--,320,1143
"Sodium, Na",mg,--,--,170,607
Vitamins
"Vitamin C, total ascorbic acid",mg,--,--,6.0,21.4
"Vitamin A, IU",IU,--,--,0,0
Lipids
"Fatty acids, total saturated",g,--,--,1.501,5.360
"Fatty acids, total trans",g,--,--,0.000,0.000
"Cholesterol",mg,--,--,0,0
Amino Acids
Other
Ingredients
"POTATOES, VEGETABLE OIL (SUNFLOWER, CORN, AND/OR CANOLA OIL), FLAMIN' HOT SEASONING (MALTODEXTRIN [MADE FROM CORN], SALT, SUGAR, MONOSODIUM GLUTAMATE, YEAST EXTRACT, SUNFLOWER OIL, CITRIC ACID, CHEDDAR CHEESE [MILK, CHEESE CULTURES, SALT, ENZYMES], ARTIFICIAL COLOR [RED 40 LAKE, YELLOW 6 LAKE, YELLOW 6], ONION POWDER, WHEY, CORN SYRUP SOLIDS, BUTTERMILK, ROMANO CHEESE [PART-SKIM COW'S MILK, CHEESE CULTURES, SALT, ENZYMES], WHEY PROTEIN CONCENTRATE, GARLIC POWDER, NATURAL FLAVOR, SODIUM CASEINATE AND SODIUM DIACETATE)." Date available: 04/28/2017 Date last updated by company: 04/28/2017
