Source: USDA Branded Food Products Database Release December 2017 Software v.3.8.6.4 2017-10-02
Report Run at: December 17, 2017 06:20 EST
"Nutrient data for: 45150989, POTATO CHIPS, UPC: 021900981695"
Food Group:  Branded Food Products Database
Common Name:

Nutrient,Unit,Data points,Std. Error,"1 PACKAGE = 53.2g",1Value per 100 g,
Proximates
"Energy",kcal,--,--,280,526
"Protein",g,--,--,4.00,7.52
"Total lipid (fat)",g,--,--,16.00,30.08
"Carbohydrate, by difference",g,--,--,29.00,54.51
"Fiber, total dietary",g,--,--,2.0,3.8
"Sugars, total",g,--,--,1.00,1.88
Minerals
"Calcium, Ca",mg,--,--,0,0
"Iron, Fe",mg,--,--,0.68,1.27
"Sodium, Na",mg,--,--,630,1184
Vitamins
"Vitamin C, total ascorbic acid",mg,--,--,8.5,15.9
"Vitamin A, IU",IU,--,--,0,0
Lipids
"Fatty acids, total saturated",g,--,--,1.000,1.880
"Fatty acids, total trans",g,--,--,0.000,0.000
"Cholesterol",mg,--,--,0,0
Amino Acids
Other
Ingredients
"POTATOES, VEGETABLE OIL (CONTAINS ONE OR MORE OF THE FOLLOWING: CANOLA OIL, CORN OIL, COTTONSEED OIL), SALT, MALTODEXTRIN, DRY VINEGAR FLAVOR (CONTAINS SODIUM DIACETATE, CITRIC ACID, LACTOSE, TARTARIC ACID), MALIC ACID, SUGAR, SODIUM CITRATE, CITRIC ACID." Date available: 07/14/2017 Date last updated by company: 07/14/2017
