Source: USDA Branded Food Products Database Release December 2017 Software v.3.8.6.4 2017-10-02
Report Run at: December 17, 2017 06:50 EST
"Nutrient data for: 45093269, POTTED MEAT SPREAD, MADE WITH CHICKEN, PORK ADDED, UPC: 011225024894"
Food Group:  Branded Food Products Database
Common Name:

Nutrient,Unit,Data points,Std. Error,"1 CAN = 85.0g",1Value per 100 g,
Proximates
"Energy",kcal,--,--,180,212
"Protein",g,--,--,11.00,12.94
"Total lipid (fat)",g,--,--,15.00,17.65
"Carbohydrate, by difference",g,--,--,0.00,0.00
Minerals
"Calcium, Ca",mg,--,--,100,118
"Iron, Fe",mg,--,--,0.94,1.10
"Sodium, Na",mg,--,--,880,1035
Vitamins
"Vitamin C, total ascorbic acid",mg,--,--,0.0,0.0
"Vitamin A, IU",IU,--,--,0,0
Lipids
"Fatty acids, total saturated",g,--,--,4.497,5.290
"Fatty acids, total trans",g,--,--,0.000,0.000
"Cholesterol",mg,--,--,80,94
Amino Acids
Other
Ingredients
"MECHANICALLY SEPARATED CHICKEN, PARTIALLY DEFATTED COOKED PORK FATTY TISSUE (TOCOPHEROL, NATURAL FLAVOR, CITRIC ACID), WATER, SALT. CONTAINS 2% OR LESS OF: MUSTARD, VINEGAR, DEXTROSE, SODIUM ERYTHORBATE, GARLIC POWDER, NATURAL FLAVORS, SODIUM NITRITE." Date available: 10/04/2017 Date last updated by company: 10/04/2017
