Source: USDA Branded Food Products Database Release December 2017 Software v.3.8.6.4 2017-10-02
Report Run at: December 17, 2017 06:51 EST
"Nutrient data for: 45174472, POTTER'S CRACKERS, CRISPS CRACKERS, APPLE, UPC: 045635957008"
Food Group:  Branded Food Products Database
Common Name:

Nutrient,Unit,Data points,Std. Error,"4.0 CRACKERS = 17.0g",1Value per 100 g,
Proximates
"Energy",kcal,--,--,80,471
"Protein",g,--,--,2.00,11.76
"Total lipid (fat)",g,--,--,2.00,11.76
"Carbohydrate, by difference",g,--,--,15.00,88.24
"Fiber, total dietary",g,--,--,1.0,5.9
"Sugars, total",g,--,--,6.00,35.29
Minerals
"Sodium, Na",mg,--,--,130,765
Vitamins
Lipids
"Fatty acids, total saturated",g,--,--,0.500,2.940
"Cholesterol",mg,--,--,0,0
Amino Acids
Other
Ingredients
"WHEAT FLOUR*, APPLE*, BUTTERMILK*, ROLLED OATS*, BROWN SUGAR*, RAW CANE SUGAR*, SUNFLOWER SEEDS*, SESAME SEEDS*, RAISINS*, BAKING SODA*, CINNAMON*, SALT AND NUTMEG.*" Date available: 10/19/2017 Date last updated by company: 10/19/2017
