Source: USDA Branded Food Products Database Release December 2017 Software v.3.8.6.4 2017-10-02
Report Run at: December 17, 2017 06:56 EST
"Nutrient data for: 45193090, POWERBAR, HARVEST ENERGY MIXED NUTS BAR, UPC: 097421240016"
Food Group:  Branded Food Products Database
Common Name:

Nutrient,Unit,Data points,Std. Error,"1 BAR = 45.0g",1Value per 100 g,
Proximates
"Energy",kcal,--,--,210,467
"Protein",g,--,--,9.00,20.00
"Total lipid (fat)",g,--,--,10.00,22.22
"Carbohydrate, by difference",g,--,--,21.00,46.67
"Fiber, total dietary",g,--,--,2.0,4.4
"Sugars, total",g,--,--,8.00,17.78
Minerals
"Calcium, Ca",mg,--,--,100,222
"Iron, Fe",mg,--,--,1.60,3.56
"Potassium, K",mg,--,--,150,333
"Sodium, Na",mg,--,--,210,467
Vitamins
"Vitamin C, total ascorbic acid",mg,--,--,13.3,29.6
"Thiamin",mg,--,--,0.000,0.000
"Riboflavin",mg,--,--,0.102,0.227
"Vitamin B-6",mg,--,--,0.142,0.316
"Vitamin A, IU",IU,--,--,0,0
Lipids
"Fatty acids, total saturated",g,--,--,0.999,2.220
"Fatty acids, total trans",g,--,--,0.000,0.000
"Cholesterol",mg,--,--,0,0
Amino Acids
Other
Ingredients
"DRY ROASTED ALMONDS AND PEANUTS, HIGH MALTOSE BROWN RICE SYRUP. SOY CRISPS (SOY PROTEIN ISOLATE, TAPIOCA STARCH, SALT), WHOLE OATS (CONTAINS WHEAT), RICE CRISPS (RICE BRAN, RICE FLOUR, ROSEMARY EXTRACT), CANE INVERT SYRUP, HIGH OLEIC CANOLA OIL, AND LESS THAN 2% OF: VEGETABLE GLYCERIN, OLIGOFRUCTOSE (FROM CHICORY ROOT), CALCIUM PHOSPHATE, SALT, SOY LECITHIN, POTASSIUM PHOSPHATE, NONFAT MILK, ASCORBIC ACID (VITAMIN C), FERROUS FUMARATE (IRON), PYRIDOXINE HYDROCHLORIDE (VITAMIN B6), THIAMIN HYDROCHLORIDE (VITAMIN B1), RIBOFLAVIN (VITAMIN B2)." Date available: 07/14/2017 Date last updated by company: 07/14/2017
