Source: USDA Branded Food Products Database Release December 2017 Software v.3.8.6.4 2017-10-02
Report Run at: December 17, 2017 06:58 EST
"Nutrient data for: 45137778, POWERBAR, PROTEIN PLUS BAR, VANILLA, UPC: 097421376791"
Food Group:  Branded Food Products Database
Common Name:

Nutrient,Unit,Data points,Std. Error,"1 BAR = 60.0g",1Value per 100 g,
Proximates
"Energy",kcal,--,--,210,350
"Protein",g,--,--,20.00,33.33
"Total lipid (fat)",g,--,--,5.00,8.33
"Carbohydrate, by difference",g,--,--,27.00,45.00
"Fiber, total dietary",g,--,--,4.0,6.7
"Sugars, total",g,--,--,14.00,23.33
Minerals
"Calcium, Ca",mg,--,--,80,133
"Iron, Fe",mg,--,--,1.08,1.80
"Potassium, K",mg,--,--,120,200
"Sodium, Na",mg,--,--,130,217
Vitamins
"Vitamin C, total ascorbic acid",mg,--,--,0.0,0.0
"Vitamin A, IU",IU,--,--,0,0
Lipids
"Fatty acids, total saturated",g,--,--,3.000,5.000
"Fatty acids, total trans",g,--,--,0.000,0.000
"Cholesterol",mg,--,--,5,8
Amino Acids
Other
Ingredients
"TRISOURCE PROTEIN BLEND (SOY PROTEIN ISOLATE, CALCIUM CASEINATE, WHEY PROTEIN ISOLATE), MALTITOL SYRUP, COATING (SUGAR, FRACTIONATED PALM KERNEL OIL, WHEY, NONFAT MILK, CULTURED WHEY, SOY LECITHIN, VANILLA), OLIGOFRUCTOSE (FROM CHICORY ROOT), FRUCTOSE, NO" Date available: 09/23/2016 Date last updated by company: 09/23/2016
