Source: USDA Branded Food Products Database Release December 2017 Software v.3.8.6.4 2017-10-02
Report Run at: December 17, 2017 07:03 EST
"Nutrient data for: 45160138, PRAIM CONFECTIONS, MILK CHOCOLATE, UPC: 898136002841"
Food Group:  Branded Food Products Database
Common Name:

Nutrient,Unit,Data points,Std. Error,"1.75 ONZ = 50.0g",1Value per 100 g,
Proximates
"Energy",kcal,--,--,270,540
"Protein",g,--,--,3.00,6.00
"Total lipid (fat)",g,--,--,16.00,32.00
"Carbohydrate, by difference",g,--,--,29.00,58.00
"Fiber, total dietary",g,--,--,1.0,2.0
"Sugars, total",g,--,--,28.00,56.00
Minerals
"Calcium, Ca",mg,--,--,100,200
"Iron, Fe",mg,--,--,0.90,1.80
"Sodium, Na",mg,--,--,38,76
Vitamins
"Vitamin C, total ascorbic acid",mg,--,--,0.6,1.2
"Vitamin A, IU",IU,--,--,100,200
Lipids
"Fatty acids, total saturated",g,--,--,10.000,20.000
"Fatty acids, total trans",g,--,--,0.000,0.000
"Cholesterol",mg,--,--,10,20
Amino Acids
Other
Ingredients
"SUGAR, WHOLE MILK, COCOA BUTTER, CHOCOLATE LIQUOR, SOY LECITHIN (AN EMULSIFIER), VANILLA." Date available: 07/14/2017 Date last updated by company: 07/14/2017
