Source: USDA Branded Food Products Database Release December 2017 Software v.3.8.6.4 2017-10-02
Report Run at: December 17, 2017 08:19 EST
"Nutrient data for: 45005505, PRE-SLICED 6 BAGELS PLAIN, UPC: 076800006917"
Food Group:  Branded Food Products Database
Common Name:

Nutrient,Unit,Data points,Std. Error,"1 BAGEL = 81.0g",1Value per 100 g,
Proximates
"Energy",kcal,--,--,220,272
"Protein",g,--,--,8.00,9.88
"Total lipid (fat)",g,--,--,1.50,1.85
"Carbohydrate, by difference",g,--,--,42.00,51.85
"Fiber, total dietary",g,--,--,2.0,2.5
"Sugars, total",g,--,--,3.00,3.70
Minerals
"Calcium, Ca",mg,--,--,40,49
"Iron, Fe",mg,--,--,3.67,4.53
"Sodium, Na",mg,--,--,430,531
Vitamins
"Vitamin C, total ascorbic acid",mg,--,--,0.0,0.0
"Thiamin",mg,--,--,0.000,0.000
"Riboflavin",mg,--,--,0.255,0.315
"Niacin",mg,--,--,2.716,3.353
"Vitamin A, IU",IU,--,--,0,0
Lipids
"Fatty acids, total saturated",g,--,--,0.000,0.000
"Fatty acids, total monounsaturated",g,--,--,0.000,0.000
"Fatty acids, total polyunsaturated",g,--,--,0.502,0.620
"Fatty acids, total trans",g,--,--,0.000,0.000
"Cholesterol",mg,--,--,0,0
Amino Acids
Other
Ingredients
"ENRICHED WHEAT FLOUR (FLOUR, ENZYME, ASCORBIC ACID [DOUGH CONDITIONER, NIACIN REDUCED IRON, THAMINE MONONITRATE, RIBOFLAVIN FOLIC ACID), WATER, HIGH FRUCTOSE CORN SYRUP CONTAINS 2% OR LESS OF: YEAST, SALT, VITAL WHEAT GLUTEN, SOYBEAN OIL, PRESERATIVES (SORBIC ACID, CALCIUM PROPIONATE), MONO- AND DIGLYCERIDES , DOUGH CONDITIONERS (CALCIUM SULFATE, L-CYSTEINE, WHEAT FLOUR, ENZYMES, YELLOW CORN MEAL." Date available: 07/14/2017 Date last updated by company: 07/14/2017
