Source: USDA Branded Food Products Database Release December 2017 Software v.3.8.6.4 2017-10-02
Report Run at: December 17, 2017 07:37 EST
"Nutrient data for: 45184367, PREMIUM ICE CREAM, UPC: 075450175127"
Food Group:  Branded Food Products Database
Common Name:

Nutrient,Unit,Data points,Std. Error,"0.5 cup = 65.0g",1Value per 100 g,
Proximates
"Energy",kcal,--,--,140,215
"Protein",g,--,--,2.00,3.08
"Total lipid (fat)",g,--,--,6.00,9.23
"Carbohydrate, by difference",g,--,--,20.00,30.77
"Fiber, total dietary",g,--,--,0.0,0.0
"Sugars, total",g,--,--,14.00,21.54
Minerals
"Calcium, Ca",mg,--,--,60,92
"Iron, Fe",mg,--,--,0.00,0.00
"Sodium, Na",mg,--,--,60,92
Vitamins
"Vitamin C, total ascorbic acid",mg,--,--,0.0,0.0
"Vitamin A, IU",IU,--,--,225,346
Lipids
"Fatty acids, total saturated",g,--,--,3.497,5.380
"Fatty acids, total trans",g,--,--,0.000,0.000
"Cholesterol",mg,--,--,25,38
Amino Acids
Other
Ingredients
"MILKFAT AND NONFAT MILK, SWEET CREAM BUTTERMILK, FUDGE SWIRL (CORN SYRUP, SUGAR, WATER, HIGH FRUCTOSE CORN SYRUP, COCOA [PROCESSED WITH ALKALI], WHEY, PECTIN), BROWNIES (SUGAR, WHEAT FLOUR, MILK, PASTEURIZED EGGS, MARGARINE [PARTIALLY HYDROGENATED SOYBEAN OIL AND LIQUID SOYBEAN OIL, WATER, SALT, SOY LECITHIN, NATURAL FLAVOR, MONO- AND DIGLYCERIDES, COLOR ADDED (ANNATTO, TURMERIC), VITAMIN A PALMITATE, WHEY], COCOA PROCESSED WITH ALKALI, CORNSTARCH, BAKING POWDER, SOY LECITHIN, NATURAL AND ARTIFICIAL FLAVOR, SALT), SUGAR, CORN SYRUP, HIGH FRUCTOSE CORN SYRUP, WHEY, NATURAL FLAVOR, MONO- AND DIGLYCERIDES, GUAR GUM, CALCIUM SULFATE, CAROB BEAN GUM, ANNATTO (COLOR), CARRAGEENAN, CARAMEL COLOR." Date available: 07/14/2017 Date last updated by company: 07/14/2017
