Source: USDA Branded Food Products Database Release December 2017 Software v.3.8.6.4 2017-10-02
Report Run at: December 17, 2017 07:48 EST
"Nutrient data for: 45219516, PREMIUM LIMEADE, UPC: 856190003136"
Food Group:  Branded Food Products Database
Common Name:

Nutrient,Unit,Data points,Std. Error,"8.0 OZA = 237.0g",1Value per 100 g,
Proximates
"Energy",kcal,--,--,71,30
"Protein",g,--,--,0.00,0.00
"Total lipid (fat)",g,--,--,0.00,0.00
"Carbohydrate, by difference",g,--,--,17.99,7.59
"Sugars, total",g,--,--,16.99,7.17
Minerals
"Sodium, Na",mg,--,--,2,1
Vitamins
Lipids
Amino Acids
Other
Ingredients
"FILTERED WATER, LEMON JUICE (FROM CONCENTRATE), CANE SUGAR, NATURAL LIME FLAVOR AND OTHER NATURAL FLAVORS, GUM ARABIC, PURIFIED STEVIA EXTRACT, ESTER GUM." Date available: 07/14/2017 Date last updated by company: 07/14/2017
