Source: USDA Branded Food Products Database Release December 2017 Software v.3.8.6.4 2017-10-02
Report Run at: December 17, 2017 07:13 EST
"Nutrient data for: 45228870, PREMIUM BROWNIE MIX, UPC: 634680143728"
Food Group:  Branded Food Products Database
Common Name:

Nutrient,Unit,Data points,Std. Error,"0.05 PACKAGE, ABOUT DRY MIX = 26.0g",1Value per 100 g,
Proximates
"Energy",kcal,--,--,110,423
"Protein",g,--,--,1.00,3.85
"Total lipid (fat)",g,--,--,1.00,3.85
"Carbohydrate, by difference",g,--,--,26.00,100.00
"Fiber, total dietary",g,--,--,1.0,3.8
"Sugars, total",g,--,--,18.00,69.23
Minerals
"Calcium, Ca",mg,--,--,0,0
"Iron, Fe",mg,--,--,1.11,4.26
"Sodium, Na",mg,--,--,110,423
Vitamins
"Vitamin C, total ascorbic acid",mg,--,--,0.0,0.0
"Vitamin A, IU",IU,--,--,0,0
Lipids
"Fatty acids, total saturated",g,--,--,0.616,2.370
"Fatty acids, total trans",g,--,--,0.000,0.000
"Cholesterol",mg,--,--,0,0
Amino Acids
Other
Ingredients
"BROWNIE MIX INGREDIENTS: SUGAR, ENRICHED BLEACHED FLOUR (BLEACHED WHEAT FLOUR, NIACIN, IRON, THIAMINE MONONITRATE, RIBOFLAVIN, FOLIC ACID), COCOA (PROCESSED WITH ALKALI), CONTAINS 2% OR LESS OF: SOYBEAN OIL, CORN STARCH, SALT, ARTIFICIAL FLAVOR. CARAMEL PACKET INGREDIENTS: CORN SYRUP, SUGAR, BUTTER (PASTEURIZED CREAM, SALT), EVAPORATED MILK, SEA SALT, CARAMEL COLOR, NATURAL FLAVORS, POTASSIUM SORBATE (AS PRESERVATIVE), SOY LECITHIN, SODIUM PHOSPHATE." Date available: 07/14/2017 Date last updated by company: 07/14/2017
