Source: USDA Branded Food Products Database Release December 2017 Software v.3.8.6.4 2017-10-02
Report Run at: December 17, 2017 07:16 EST
"Nutrient data for: 45103970, PREMIUM CHICKEN CUTS, UPC: 017082878021"
Food Group:  Branded Food Products Database
Common Name:

Nutrient,Unit,Data points,Std. Error,"1 ONZ = 28.0g",1Value per 100 g,
Proximates
"Energy",kcal,--,--,80,286
"Protein",g,--,--,11.00,39.29
"Total lipid (fat)",g,--,--,1.00,3.57
"Carbohydrate, by difference",g,--,--,6.00,21.43
"Fiber, total dietary",g,--,--,0.0,0.0
"Sugars, total",g,--,--,6.00,21.43
Minerals
"Calcium, Ca",mg,--,--,0,0
"Iron, Fe",mg,--,--,0.64,2.29
"Sodium, Na",mg,--,--,400,1429
Vitamins
"Vitamin C, total ascorbic acid",mg,--,--,0.0,0.0
"Vitamin A, IU",IU,--,--,0,0
Lipids
"Fatty acids, total saturated",g,--,--,0.000,0.000
"Fatty acids, total trans",g,--,--,0.000,0.000
"Cholesterol",mg,--,--,20,71
Amino Acids
Other
Ingredients
"CHICKEN BREAST, BROWN SUGAR, CANE SUGAR, TAMARI SOY SAUCE (WATER, SOYBEANS, SALT, SUGAR), CHICKEN BROTH, WATER, LESS THAN 2%: SALTED SAKE (WATER, RICE, SALT), SESAME SEEDS, SEA SALT, GINGER, GARLIC POWDER, NATURAL FLAVOR, PINEAPPLE JUICE." Date available: 07/14/2017 Date last updated by company: 07/14/2017
