Source: USDA Branded Food Products Database Release December 2017 Software v.3.8.6.4 2017-10-02
Report Run at: December 17, 2017 07:46 EST
"Nutrient data for: 45151820, PREMIUM JUICE, UPC: 043717390255"
Food Group:  Branded Food Products Database
Common Name:

Nutrient,Unit,Data points,Std. Error,"1 cup = 264.0g",1Value per 100 g,
Proximates
"Energy",kcal,--,--,137,52
"Protein",g,--,--,0.79,0.30
"Total lipid (fat)",g,--,--,0.79,0.30
"Carbohydrate, by difference",g,--,--,35.40,13.41
"Fiber, total dietary",g,--,--,0.8,0.3
"Sugars, total",g,--,--,32.00,12.12
Minerals
"Potassium, K",mg,--,--,55,21
"Sodium, Na",mg,--,--,3,1
Vitamins
Lipids
"Fatty acids, total saturated",g,--,--,0.000,0.000
"Fatty acids, total trans",g,--,--,0.000,0.000
"Cholesterol",mg,--,--,0,0
Amino Acids
Other
Ingredients
"SEA BUCKTHORN PUREE (25%), WATER, SUGAR." Date available: 07/14/2017 Date last updated by company: 07/14/2017
