Source: USDA Branded Food Products Database Release December 2017 Software v.3.8.6.4 2017-10-02
Report Run at: December 17, 2017 07:17 EST
"Nutrient data for: 45051471, PREMIUM CHUNK CHICKEN BREAST IN WATER, UPC: 041497314546"
Food Group:  Branded Food Products Database
Common Name:

Nutrient,Unit,Data points,Std. Error,"2.0 oz = 56.0g",1Value per 100 g,
Proximates
"Energy",kcal,--,--,60,107
"Protein",g,--,--,13.00,23.21
"Total lipid (fat)",g,--,--,1.00,1.79
"Carbohydrate, by difference",g,--,--,0.00,0.00
"Fiber, total dietary",g,--,--,0.0,0.0
"Sugars, total",g,--,--,0.00,0.00
Minerals
"Calcium, Ca",mg,--,--,20,36
"Iron, Fe",mg,--,--,0.36,0.64
"Sodium, Na",mg,--,--,270,482
Vitamins
"Vitamin C, total ascorbic acid",mg,--,--,2.4,4.3
"Vitamin A, IU",IU,--,--,0,0
Lipids
"Fatty acids, total saturated",g,--,--,0.000,0.000
"Fatty acids, total trans",g,--,--,0.000,0.000
"Cholesterol",mg,--,--,45,80
Amino Acids
Other
Ingredients
"CHICKEN BREAD MEAT, WATER, SEASONING (SALT, MODIFIED FOOD STARCH, SODIUM PHOSPHATES, CHICKEN BROTH NATURAL FLAVORS)." Date available: 03/23/2017 Date last updated by company: 03/23/2017
