Source: USDA Branded Food Products Database Release December 2017 Software v.3.8.6.4 2017-10-02
Report Run at: December 17, 2017 07:51 EST
"Nutrient data for: 45147914, PREMIUM MORBID MIX ZOMBIE SODA, UPC: 857428005472"
Food Group:  Branded Food Products Database
Common Name:

Nutrient,Unit,Data points,Std. Error,"1 BOTTLE = 355.0g",1Value per 100 g,
Proximates
"Energy",kcal,--,--,146,41
"Protein",g,--,--,0.00,0.00
"Total lipid (fat)",g,--,--,0.00,0.00
"Carbohydrate, by difference",g,--,--,37.98,10.70
"Sugars, total",g,--,--,36.00,10.14
Minerals
"Sodium, Na",mg,--,--,21,6
Vitamins
Lipids
Amino Acids
Other
Ingredients
"CARBONATED WATER, PURE CANE SUGAR, CITRIC ACID, NATURAL FLAVORS, SODIUM BENZOATE AND POTASSIUM SORBATE AS PRESERVATIVE, YELLOW AND BLUE 1." Date available: 07/14/2017 Date last updated by company: 07/14/2017
