Source: USDA Branded Food Products Database Release December 2017 Software v.3.8.6.4 2017-10-02
Report Run at: December 17, 2017 07:48 EST
"Nutrient data for: 45289771, PREMIUM LIGHT ICE CREAM, UPC: 717544208501"
Food Group:  Branded Food Products Database
Common Name:

Nutrient,Unit,Data points,Std. Error,"0.5 cup = 62.0g",1Value per 100 g,
Proximates
"Energy",kcal,--,--,120,194
"Protein",g,--,--,3.00,4.84
"Total lipid (fat)",g,--,--,3.50,5.65
"Carbohydrate, by difference",g,--,--,19.00,30.65
"Fiber, total dietary",g,--,--,0.0,0.0
"Sugars, total",g,--,--,17.00,27.42
Minerals
"Calcium, Ca",mg,--,--,100,161
"Iron, Fe",mg,--,--,0.00,0.00
"Sodium, Na",mg,--,--,170,274
Vitamins
"Vitamin C, total ascorbic acid",mg,--,--,0.0,0.0
"Vitamin A, IU",IU,--,--,225,363
Lipids
"Fatty acids, total saturated",g,--,--,2.499,4.030
"Fatty acids, total trans",g,--,--,0.000,0.000
"Cholesterol",mg,--,--,10,16
Amino Acids
Other
Ingredients
"MILK, NONFAT MILK, SUGAR, DENALI SALTY CARAMEL VARIEGATE [HIGH FRUCTOSE CORN SYRUP, WATER, SWEETENED CONDENSED SKIM MILK (CONDENSED SKIM MILK, SUGAR), BUTTER, MODIFIED FOOD STARCH (CORN), SEA SALT, ARTIFICIAL FLAVOR (CONTAINS CARAMEL COLOR), POTASSIUM SORBATE (PRESERVATIVE), DISODIUM PHOSPHATE, CARRAGEENAN], CORN SYRUP, CREAM, SALTY CARAMEL CUPS [SUGAR, COCONUT OIL (REFINED), CORN SYRUP, SWEETENED CONDENSED MILK (MILK, SUGAR), HEAVY CREAM (MILK), NONFAT MILK, WHOLE MILK, COCOA (PROCESSED WITH ALKALI), BUTTER (CREAM (MILK), SALT), SEA SALT, COCOA, SOY LECITHIN (EMULSIFIER), NATURAL FLAVORS], DENALI SALTY TOFFEE FLAVOR BASE [WATER, SEA SALT, NATURAL AND ARTIFICIAL FLAVOR (CONTAINS CARAMEL COLOR), POTASSIUM SORBATE (PRESERVATIVE)], WHEY PROTEIN, TAPIOCA STARCH, GUAR GUM, MONO- AND DIGLYCERIDES (PLANT DERIVED), TARA GUM, CELLULOSE GUM, POLYSORBATE 80, XANTHAN GUM, CARRAGEENAN, DEXTROSE, VITAMIN A PALMITATE." Date available: 07/14/2017 Date last updated by company: 07/14/2017
