Source: USDA Branded Food Products Database Release December 2017 Software v.3.8.6.4 2017-10-02
Report Run at: December 17, 2017 07:33 EST
"Nutrient data for: 45123284, PREMIUM ICE CREAM, UPC: 041900078485"
Food Group:  Branded Food Products Database
Common Name:

Nutrient,Unit,Data points,Std. Error,"0.5 cup = 68.0g",1Value per 100 g,
Proximates
"Energy",kcal,--,--,150,221
"Protein",g,--,--,2.00,2.94
"Total lipid (fat)",g,--,--,6.00,8.82
"Carbohydrate, by difference",g,--,--,22.00,32.35
"Fiber, total dietary",g,--,--,0.0,0.0
"Sugars, total",g,--,--,16.00,23.53
Minerals
"Calcium, Ca",mg,--,--,80,118
"Iron, Fe",mg,--,--,0.00,0.00
"Sodium, Na",mg,--,--,200,294
Vitamins
"Vitamin C, total ascorbic acid",mg,--,--,0.0,0.0
"Vitamin A, IU",IU,--,--,225,331
Lipids
"Fatty acids, total saturated",g,--,--,3.998,5.880
"Fatty acids, total trans",g,--,--,0.000,0.000
"Cholesterol",mg,--,--,25,37
Amino Acids
Other
Ingredients
"MILKFAT AND NONFAT MILK, CARAMEL RIBBON (CORN SYRUP, SWEETENED CONDENSED WHOLE MILK, SUGAR, WATER, BUTTER, SEA SALT, PECTIN, NATURAL FLAVOR), SUGAR, CORN SYRUP, HIGH FRUCTOSE CORN SYRUP, WHEY, CONTAINS LESS THAN 2% OF BUTTERMILK, MONO AND DIGLYCERIDES, CELLULOSE GUM, GUAR GUM, BUTTER, CARRAGEENAN, SODIUM BICARBONATE, SEA SALT." Date available: 07/20/2017 Date last updated by company: 07/20/2017
