Source: USDA Branded Food Products Database Release December 2017 Software v.3.8.6.4 2017-10-02
Report Run at: December 17, 2017 07:27 EST
"Nutrient data for: 45262649, PREMIUM FRUIT IN LIGHT SYRUP, UPC: 079453227005"
Food Group:  Branded Food Products Database
Common Name:

Nutrient,Unit,Data points,Std. Error,"0.5 cup = 100.0g",1Value per 100 g,
Proximates
"Energy",kcal,--,--,60,60
"Protein",g,--,--,0.00,0.00
"Total lipid (fat)",g,--,--,0.00,0.00
"Carbohydrate, by difference",g,--,--,15.00,15.00
"Fiber, total dietary",g,--,--,1.0,1.0
"Sugars, total",g,--,--,13.00,13.00
Minerals
"Calcium, Ca",mg,--,--,20,20
"Iron, Fe",mg,--,--,0.50,0.50
"Sodium, Na",mg,--,--,10,10
Vitamins
"Vitamin C, total ascorbic acid",mg,--,--,67.2,67.2
"Vitamin A, IU",IU,--,--,700,700
Lipids
"Fatty acids, total saturated",g,--,--,0.000,0.000
"Fatty acids, total trans",g,--,--,0.000,0.000
"Cholesterol",mg,--,--,0,0
Amino Acids
Other
Ingredients
"HONEYDEW AND CANTALOUPE, PINEAPPLE, WATER, ORANGES, SUGAR, GRAPES, SODIUM BENZOATE AND POTASSIUM SORBATE (PRESERVATIVES), ASCORBIC ACID, TURMERIC, CITRIC ACID." Date available: 07/14/2017 Date last updated by company: 07/14/2017
