Source: USDA Branded Food Products Database Release December 2017 Software v.3.8.6.4 2017-10-02
Report Run at: December 17, 2017 08:12 EST
"Nutrient data for: 45092513, PREMIUM WILD-CAUGHT PINK SALMON, UPC: 048000011947"
Food Group:  Branded Food Products Database
Common Name:

Nutrient,Unit,Data points,Std. Error,"1 POUCH = 70.0g",1Value per 100 g,
Proximates
"Energy",kcal,--,--,70,100
"Protein",g,--,--,13.00,18.57
"Total lipid (fat)",g,--,--,0.50,0.71
"Carbohydrate, by difference",g,--,--,4.00,5.71
"Fiber, total dietary",g,--,--,1.0,1.4
"Sugars, total",g,--,--,3.00,4.29
Minerals
"Calcium, Ca",mg,--,--,0,0
"Iron, Fe",mg,--,--,0.43,0.62
"Sodium, Na",mg,--,--,330,471
Vitamins
"Vitamin C, total ascorbic acid",mg,--,--,0.0,0.0
"Vitamin A, IU",IU,--,--,122,174
Lipids
"Fatty acids, total saturated",g,--,--,0.000,0.000
"Fatty acids, total trans",g,--,--,0.000,0.000
"Cholesterol",mg,--,--,25,36
Amino Acids
Other
Ingredients
"SALMON, WATER, RED CHILI, SUGAR, GARLIC, TOMATO PASTE, SALT, DISTILLED VINEGAR, MODIFIED FOOD STARCH, PAPRIKA OLEORESIN, XANTHAN GUM, CHILI POWDER." Date available: 07/14/2017 Date last updated by company: 07/14/2017
