Source: USDA Branded Food Products Database Release December 2017 Software v.3.8.6.4 2017-10-02
Report Run at: December 17, 2017 08:08 EST
"Nutrient data for: 45238490, PREMIUM SOY SAUCE, UPC: 073899555005"
Food Group:  Branded Food Products Database
Common Name:

Nutrient,Unit,Data points,Std. Error,"1 Tbsp = 15.0g",1Value per 100 g,
Proximates
"Energy",kcal,--,--,10,67
"Protein",g,--,--,2.00,13.33
"Total lipid (fat)",g,--,--,0.00,0.00
"Carbohydrate, by difference",g,--,--,1.00,6.67
"Sugars, total",g,--,--,0.00,0.00
Minerals
"Iron, Fe",mg,--,--,1.20,8.00
"Sodium, Na",mg,--,--,920,6133
Vitamins
Lipids
Amino Acids
Other
Ingredients
"WATER, WHEAT, SOYBEANS, SALT, ALCOHOL (TO RETAIN FRESHNESS)." Date available: 07/14/2017 Date last updated by company: 07/14/2017
