Source: USDA Branded Food Products Database Release December 2017 Software v.3.8.6.4 2017-10-02
Report Run at: December 17, 2017 07:10 EST
"Nutrient data for: 45179422, PREMIUM BAKING CHIPS, UPC: 747599623080"
Food Group:  Branded Food Products Database
Common Name:

Nutrient,Unit,Data points,Std. Error,"16.0 CHIPS = 15.0g",1Value per 100 g,
Proximates
"Energy",kcal,--,--,80,533
"Protein",g,--,--,1.00,6.67
"Total lipid (fat)",g,--,--,6.00,40.00
"Carbohydrate, by difference",g,--,--,8.00,53.33
"Fiber, total dietary",g,--,--,1.0,6.7
"Sugars, total",g,--,--,6.00,40.00
Minerals
"Calcium, Ca",mg,--,--,0,0
"Iron, Fe",mg,--,--,3.60,24.00
"Sodium, Na",mg,--,--,0,0
Vitamins
"Vitamin C, total ascorbic acid",mg,--,--,0.0,0.0
"Vitamin A, IU",IU,--,--,0,0
Lipids
"Fatty acids, total saturated",g,--,--,3.499,23.330
"Fatty acids, total trans",g,--,--,0.000,0.000
"Cholesterol",mg,--,--,0,0
Amino Acids
Other
Ingredients
"BITTERSWEET CHOCOLATE (UNSWEETENED CHOCOLATE, SUGAR, COCOA BUTTER, MILK FAT, SOY LECITHIN - AN EMULSIFIER, VANILLA)." Date available: 07/14/2017 Date last updated by company: 07/14/2017
