Source: USDA Branded Food Products Database Release December 2017 Software v.3.8.6.4 2017-10-02
Report Run at: December 17, 2017 07:17 EST
"Nutrient data for: 45050486, PREMIUM CHUNK CHICKEN BREAST IN WATER, UPC: 078742008394"
Food Group:  Branded Food Products Database
Common Name:

Nutrient,Unit,Data points,Std. Error,"0.333 cup = 71.0g",1Value per 100 g,
Proximates
"Energy",kcal,--,--,70,99
"Protein",g,--,--,12.00,16.90
"Total lipid (fat)",g,--,--,1.50,2.11
"Carbohydrate, by difference",g,--,--,0.00,0.00
"Fiber, total dietary",g,--,--,0.0,0.0
"Sugars, total",g,--,--,0.00,0.00
Minerals
"Calcium, Ca",mg,--,--,0,0
"Iron, Fe",mg,--,--,0.28,0.39
"Sodium, Na",mg,--,--,250,352
Vitamins
"Vitamin C, total ascorbic acid",mg,--,--,0.9,1.3
"Vitamin A, IU",IU,--,--,0,0
Lipids
"Fatty acids, total saturated",g,--,--,0.000,0.000
"Fatty acids, total trans",g,--,--,0.000,0.000
"Cholesterol",mg,--,--,40,56
Amino Acids
Other
Ingredients
"CHICKEN BREAST MEAT, WATER, SALT." Date available: 06/25/2017 Date last updated by company: 06/25/2017
