Source: USDA Branded Food Products Database Release December 2017 Software v.3.8.6.4 2017-10-02
Report Run at: December 17, 2017 07:54 EST
"Nutrient data for: 45313032, PREMIUM ORCHARD, YOGURT TRAIL MIX, UPC: 767000188069"
Food Group:  Branded Food Products Database
Common Name:

Nutrient,Unit,Data points,Std. Error,"3.0 Tbsp = 30.0g",1Value per 100 g,
Proximates
"Energy",kcal,--,--,150,500
"Protein",g,--,--,4.00,13.33
"Total lipid (fat)",g,--,--,9.00,30.00
"Carbohydrate, by difference",g,--,--,13.00,43.33
"Fiber, total dietary",g,--,--,2.0,6.7
"Sugars, total",g,--,--,7.00,23.33
Minerals
"Calcium, Ca",mg,--,--,20,67
"Iron, Fe",mg,--,--,1.80,6.00
"Sodium, Na",mg,--,--,70,233
Vitamins
"Vitamin C, total ascorbic acid",mg,--,--,0.0,0.0
"Vitamin A, IU",IU,--,--,0,0
Lipids
"Fatty acids, total saturated",g,--,--,1.500,5.000
"Fatty acids, total trans",g,--,--,0.000,0.000
"Cholesterol",mg,--,--,0,0
Amino Acids
Other
Ingredients
"PEANUTS (MAY CONTAINS PEANUT OIL AND SALT), RAISINS, SUNFLOWER KERNELS (ROASTED IN SOYBEAN OIL AND SALT), YOGURT CHIPS (SUGAR, PARTIALLY HYDROGENATED PALM KERNEL OIL, WHEY POWDER, NONFAT YOGURT POWDER, TITANIUM DIOXIDE, SOY LECITHIN,SALT AND ARTIFICIAL FLAVOR), ALMONDS, CRANBERRIES (SUGAR, CITRIC ACID, SUNFLOWER OIL AND ELDERBERRY JUICE CONCENTRATE (COLOR)) AND PUMPKIN SEED KERNELS." Date available: 06/25/2017 Date last updated by company: 06/25/2017
