Source: USDA Branded Food Products Database Release December 2017 Software v.3.8.6.4 2017-10-02
Report Run at: December 17, 2017 07:40 EST
"Nutrient data for: 45215492, PREMIUM ICE CREAM, UPC: 077890338179"
Food Group:  Branded Food Products Database
Common Name:

Nutrient,Unit,Data points,Std. Error,"0.5 cup = 106.0g",1Value per 100 g,
Proximates
"Energy",kcal,--,--,270,255
"Protein",g,--,--,4.00,3.77
"Total lipid (fat)",g,--,--,13.00,12.26
"Carbohydrate, by difference",g,--,--,35.00,33.02
"Fiber, total dietary",g,--,--,2.0,1.9
"Sugars, total",g,--,--,30.00,28.30
Minerals
"Calcium, Ca",mg,--,--,80,75
"Iron, Fe",mg,--,--,2.02,1.91
"Potassium, K",mg,--,--,151,142
"Sodium, Na",mg,--,--,70,66
Vitamins
"Vitamin C, total ascorbic acid",mg,--,--,2.6,2.5
"Vitamin A, IU",IU,--,--,562,530
Lipids
"Fatty acids, total saturated",g,--,--,8.003,7.550
"Fatty acids, total trans",g,--,--,0.000,0.000
"Cholesterol",mg,--,--,70,66
Amino Acids
Other
Ingredients
"ORGANIC CREAM, ORGANIC SKIM MILK, ORGANIC RASPBERRY SWIRL (ORGANIC SUGAR, ORGANIC RASPBERRY PUREE, WATER, ORGANIC LEMON JUICE CONCENTRATE, NATURAL RASPBERRY FLAVOR WITH OTHER NATURAL FLAVORS, PECTIN, ORGANIC LOCUST BEAN GUM, FRUIT AND VEGETABLE JUICE COLOR), ORGANIC CHOCOLATE BASE (ORGANIC CANE SUGAR, WATER, ORGANIC COCOA, ORGANIC TAPIOCA SYRUP, ORGANIC CHOCOLATE EXTRACT, SALT), ORGANIC SUGAR, ORGANIC COCOA, ORGANIC EGG YOLKS." Date available: 07/14/2017 Date last updated by company: 07/14/2017
