Source: USDA Branded Food Products Database Release December 2017 Software v.3.8.6.4 2017-10-02
Report Run at: December 17, 2017 07:19 EST
"Nutrient data for: 45238710, PREMIUM COCONUT WATER BEVERAGE, UPC: 812186020112"
Food Group:  Branded Food Products Database
Common Name:

Nutrient,Unit,Data points,Std. Error,"1 BOX = 250.0g",1Value per 100 g,
Proximates
"Energy",kcal,--,--,70,28
"Protein",g,--,--,0.00,0.00
"Total lipid (fat)",g,--,--,1.00,0.40
"Carbohydrate, by difference",g,--,--,14.00,5.60
"Sugars, total",g,--,--,10.00,4.00
Minerals
"Calcium, Ca",mg,--,--,20,8
"Iron, Fe",mg,--,--,2.08,0.83
"Magnesium, Mg",mg,--,--,35,14
"Phosphorus, P",mg,--,--,20,8
"Potassium, K",mg,--,--,500,200
"Sodium, Na",mg,--,--,45,18
Vitamins
Lipids
"Fatty acids, total saturated",g,--,--,1.000,0.400
Amino Acids
Other
Ingredients
"COCONUT WATER, WATER, CANE SUGAR, COCONUT CREAM [COCONUT EXTRACT, WATER], COCOA PROCESSED WITH ALKALI, NATURAL FLAVORS, CARRAGEENAN, GELLAN GUM." Date available: 07/14/2017 Date last updated by company: 07/14/2017
