Source: USDA Branded Food Products Database Release December 2017 Software v.3.8.6.4 2017-10-02
Report Run at: December 17, 2017 07:54 EST
"Nutrient data for: 45288029, PREMIUM ORGANIC CALIFORNIA-STYLE BLEND, UPC: 021908504100"
Food Group:  Branded Food Products Database
Common Name:

Nutrient,Unit,Data points,Std. Error,"0.5 CUP COOKED | FROZEN = 83.0g",1Value per 100 g,
Proximates
"Energy",kcal,--,--,20,24
"Protein",g,--,--,1.00,1.20
"Total lipid (fat)",g,--,--,0.00,0.00
"Carbohydrate, by difference",g,--,--,5.00,6.02
"Fiber, total dietary",g,--,--,1.0,1.2
"Sugars, total",g,--,--,2.00,2.41
Minerals
"Calcium, Ca",mg,--,--,20,24
"Iron, Fe",mg,--,--,0.00,0.00
"Potassium, K",mg,--,--,200,241
"Sodium, Na",mg,--,--,25,30
Vitamins
"Vitamin C, total ascorbic acid",mg,--,--,15.4,18.5
"Vitamin A, IU",IU,--,--,768,925
Lipids
"Fatty acids, total saturated",g,--,--,0.000,0.000
"Fatty acids, total trans",g,--,--,0.000,0.000
"Cholesterol",mg,--,--,0,0
Amino Acids
Other
Ingredients
"BROCCOLI*, CAULIFLOWER*, CARROTS*, ZUCCHINI*." Date available: 10/04/2017 Date last updated by company: 10/04/2017
