Source: USDA Branded Food Products Database Release December 2017 Software v.3.8.6.4 2017-10-02
Report Run at: December 17, 2017 08:07 EST
"Nutrient data for: 45231923, PREMIUM SLICED BRIOCHE BUNS, UPC: 071025158540"
Food Group:  Branded Food Products Database
Common Name:

Nutrient,Unit,Data points,Std. Error,"1 BUN = 74.0g",1Value per 100 g,
Proximates
"Energy",kcal,--,--,200,270
"Protein",g,--,--,7.00,9.46
"Total lipid (fat)",g,--,--,4.00,5.41
"Carbohydrate, by difference",g,--,--,34.00,45.95
"Fiber, total dietary",g,--,--,1.0,1.4
"Sugars, total",g,--,--,4.00,5.41
Minerals
"Calcium, Ca",mg,--,--,200,270
"Iron, Fe",mg,--,--,1.21,1.64
"Sodium, Na",mg,--,--,340,459
Vitamins
"Vitamin C, total ascorbic acid",mg,--,--,0.0,0.0
"Thiamin",mg,--,--,0.000,0.000
"Riboflavin",mg,--,--,0.255,0.345
"Niacin",mg,--,--,2.028,2.741
"Vitamin A, IU",IU,--,--,0,0
Lipids
"Fatty acids, total saturated",g,--,--,1.502,2.030
"Fatty acids, total monounsaturated",g,--,--,0.999,1.350
"Fatty acids, total polyunsaturated",g,--,--,1.502,2.030
"Fatty acids, total trans",g,--,--,0.000,0.000
"Cholesterol",mg,--,--,25,34
Amino Acids
Other
Ingredients
"ENRICHED UNBLEACHED WHEAT FLOUR (WHEAT FLOUR, MALTED BARLEY FLOUR, NIACIN, REDUCED IRON, THIAMIN MONONITRATE, RIBOFLAVIN AND FOLIC ACID), WATER, YEAST, SUGAR, SALTED BUTTER. CONTAINS 2% OR LESS OF EACH OF THE FOLLOWING: NONFAT DRY MILK, POWDERED WHOLE EGG, VITAL WHEAT GLUTEN, VEGETABLE OIL (CANOLA AND/OR SOY), SALT, YEAST NUTRIENT (AMMONIUM SULFATE), DOUGH CONDITIONERS (MONO- DIGLYCERIDES, SODIUM STEAROYL LACTYLATE, ASCORBIC ACID, MONOCALCIUM PHOSPHATE), XANTHAN GUM, SUCRALOSE, CALCIUM SULFATE, ENZYMES, CALCIUM PROPIONATE (MOLD INHIBITOR), YELLOW CORN FLOUR, TURMERIC & ANNATTO WHICH IMPART COLOR, TOPICAL SPRAY (WATER, MODIFIED CORN STARCH, CITRIC ACID, POTASSIUM SORBATE, XANTHAN GUM, SODIUM BENZOATE)." Date available: 07/14/2017 Date last updated by company: 07/14/2017
