Source: USDA Branded Food Products Database Release December 2017 Software v.3.8.6.4 2017-10-02
Report Run at: December 17, 2017 07:41 EST
"Nutrient data for: 45219615, PREMIUM ICE CREAM, UPC: 858738003264"
Food Group:  Branded Food Products Database
Common Name:

Nutrient,Unit,Data points,Std. Error,"6.0 OZA = 152.0g",1Value per 100 g,
Proximates
"Energy",kcal,--,--,290,191
"Protein",g,--,--,9.00,5.92
"Total lipid (fat)",g,--,--,9.00,5.92
"Carbohydrate, by difference",g,--,--,46.00,30.26
"Fiber, total dietary",g,--,--,3.0,2.0
"Sugars, total",g,--,--,32.00,21.05
Minerals
"Calcium, Ca",mg,--,--,400,263
"Iron, Fe",mg,--,--,5.40,3.55
"Potassium, K",mg,--,--,450,296
"Sodium, Na",mg,--,--,271,178
Vitamins
"Vitamin C, total ascorbic acid",mg,--,--,29.9,19.7
"Vitamin A, IU",IU,--,--,1750,1151
Lipids
"Fatty acids, total saturated",g,--,--,5.001,3.290
"Fatty acids, total trans",g,--,--,0.000,0.000
"Cholesterol",mg,--,--,35,23
Amino Acids
Other
Ingredients
"WATER, SUGAR, CREAM, MILK PROTEINS, CORN SYRUP, MALTODEXTRIN, SOLUBLE CORN FIBER, VITAMINS & MINERALS (DIMAGNESIUM PHOSPHATE, TRICALCIUM PHOSPHATE, POTASSIUM CHLORIDE, DIPOTASSIUM PHOSPHATE, FERRIC ORTHOPHOSPHATE, D-1 ALPHA TOCOPHERYL ACETATE, ZINC OXIDE, NIACINAMIDE, D-CALCIUM PANTOTHENATE, MANGANESE SULFATE, VITAMIN A PALMITATE, THIAMIN MONONITRATE, PYRIDOXINE HYDROCHLORIDE, CUPRIC OXIDE, RIBOFLAVIN, CHROMIUM CHLORIDE, BIOTIN, POTASSIUM IODIDE, SODIUM MOLYBDATE, SODIUM SELENITE, VITAMIN K-1, FOLIC ACID, VITAMIN D3, CYANOCOBALAMIN), SWEETENED CONDENSED SKIM MILK, NATURAL & ARTIFICIAL FLAVOR, LESS THAN 1% OF: MODIFIED FOOD STARCH, BUTTER, STABILIZER (MONO & DIGLYCERIDES, CELLULOSE GEL, CELLULOSE GUM, CARRAGEENAN, PECTIN), CULTURES (S. THERMOPHILUS, L. BULGARICUS, L. ACIDOPHILUS, BIFIDOBACTERIUM), SALT, ASCORBIC ACID (VITAMIN C), CARAMEL COLOR." Date available: 10/13/2017 Date last updated by company: 10/13/2017
