Source: USDA Branded Food Products Database Release December 2017 Software v.3.8.6.4 2017-10-02
Report Run at: December 17, 2017 07:15 EST
"Nutrient data for: 45256668, PREMIUM C'EST SI BON BOUDIN, UPC: 013451425445"
Food Group:  Branded Food Products Database
Common Name:

Nutrient,Unit,Data points,Std. Error,"2.0 ONZ = 56.0g",1Value per 100 g,
Proximates
"Energy",kcal,--,--,100,179
"Protein",g,--,--,7.00,12.50
"Total lipid (fat)",g,--,--,7.00,12.50
"Carbohydrate, by difference",g,--,--,2.00,3.57
"Fiber, total dietary",g,--,--,0.0,0.0
"Sugars, total",g,--,--,0.00,0.00
Minerals
"Calcium, Ca",mg,--,--,0,0
"Iron, Fe",mg,--,--,1.06,1.89
"Sodium, Na",mg,--,--,280,500
Vitamins
"Vitamin C, total ascorbic acid",mg,--,--,2.4,4.2
"Vitamin A, IU",IU,--,--,736,1315
Lipids
"Fatty acids, total saturated",g,--,--,1.999,3.570
"Fatty acids, total trans",g,--,--,0.000,0.000
"Cholesterol",mg,--,--,30,54
Amino Acids
Other
Ingredients
"PORK, RICE, WATER, PORK LIVERS, SALT, DEHYDRATED ONIONS, FLAVORINGS, APPLESAUCE (APPLES AND WATER), NOVAGUARD LM100 (SODIUM DIACETATE, NISIN, ROSEMARY EXTRACT, TRIGLYCERIDE [CARRIER], SODIUM CHLORIDE [CARRIER]), DEHYDRATED BELL PEPPERS, DEHYDRATED GREEN ONIONS, DEHYDRATED PARSLEY, DEHYDRATED CELERY." Date available: 07/14/2017 Date last updated by company: 07/14/2017
