Source: USDA Branded Food Products Database Release December 2017 Software v.3.8.6.4 2017-10-02
Report Run at: December 17, 2017 07:44 EST
"Nutrient data for: 45327313, PREMIUM ICE CREAM, UPC: 075450088649"
Food Group:  Branded Food Products Database
Common Name:

Nutrient,Unit,Data points,Std. Error,"0.5 cup = 65.0g",1Value per 100 g,
Proximates
"Energy",kcal,--,--,160,246
"Protein",g,--,--,2.00,3.08
"Total lipid (fat)",g,--,--,8.00,12.31
"Carbohydrate, by difference",g,--,--,21.00,32.31
"Fiber, total dietary",g,--,--,0.0,0.0
"Sugars, total",g,--,--,15.00,23.08
Minerals
"Calcium, Ca",mg,--,--,80,123
"Iron, Fe",mg,--,--,0.00,0.00
"Sodium, Na",mg,--,--,100,154
Vitamins
"Vitamin C, total ascorbic acid",mg,--,--,0.0,0.0
"Vitamin A, IU",IU,--,--,200,308
Lipids
"Fatty acids, total saturated",g,--,--,4.998,7.690
"Fatty acids, total trans",g,--,--,0.000,0.000
"Cholesterol",mg,--,--,25,38
Amino Acids
Other
Ingredients
"MILKFAT AND NONFAT MILK, SWEET CREAM BUTTERMILK, SALTY CARAMEL SWIRL (CORN SYRUP, SWEETENED CONDENSED SKIM MILK [SUGAR, WATER, NONFAT MILK SOLIDS], BUTTER [CREAM, SALT], WATER, SEA SALT, CARRAGEENAN, SODIUM BICARBONATE), SUGAR, CORN SYRUP, CARAMEL FILLED FOOTBALLS (SUGAR, COCONUT OIL, CORN SYRUP, SWEETENED CONDENSED MILK [MILK, SUGAR], SKIM MILK, MILK, COCOA PROCESSED WITH ALKALI, CREAM, BUTTER [CREAM, SALT], PALM KERNEL OIL, SOY LECITHIN, NATURAL AND ARTIFICIAL FLAVOR, SALT), CHOCOLATY COATED PEANUTS (ROASTED PEANUTS [PEANUTS, SALT, PEANUT AND/OR SOYBEAN OIL], SUGAR, COCONUT OIL, COCOA PROCESSED WITH ALKALI, COCOA, BUTTERFAT, SALT, SOY LECITHIN, NATURAL FLAVOR), WHEY, HIGH FRUCTOSE CORN SYRUP, NATURAL FLAVOR, MONO- AND DIGLYCERIDES, GUAR GUM, CALCIUM SULFATE, CAROB BEAN GUM, ANNATTO (COLOR), CARRAGEENAN." Date available: 10/13/2017 Date last updated by company: 10/13/2017
