Source: USDA Branded Food Products Database Release December 2017 Software v.3.8.6.4 2017-10-02
Report Run at: December 17, 2017 08:06 EST
"Nutrient data for: 45289763, PREMIUM SHERBET, UPC: 717544208631"
Food Group:  Branded Food Products Database
Common Name:

Nutrient,Unit,Data points,Std. Error,"0.5 cup = 86.0g",1Value per 100 g,
Proximates
"Energy",kcal,--,--,120,140
"Protein",g,--,--,1.00,1.16
"Total lipid (fat)",g,--,--,1.00,1.16
"Carbohydrate, by difference",g,--,--,27.00,31.40
"Fiber, total dietary",g,--,--,0.0,0.0
"Sugars, total",g,--,--,21.00,24.42
Minerals
"Calcium, Ca",mg,--,--,40,47
"Iron, Fe",mg,--,--,0.00,0.00
"Sodium, Na",mg,--,--,20,23
Vitamins
"Vitamin C, total ascorbic acid",mg,--,--,0.0,0.0
"Vitamin A, IU",IU,--,--,0,0
Lipids
"Fatty acids, total saturated",g,--,--,0.499,0.580
"Fatty acids, total trans",g,--,--,0.000,0.000
"Cholesterol",mg,--,--,5,6
Amino Acids
Other
Ingredients
"MILK, SUGAR, WATER, CORN SYRUP, PINEAPPLE PUREE [PINEAPPLES, PINEAPPLE JUICE CONCENTRATE, CORN SYRUP, SUGAR, WATER, LOCUST BEAN GUM, PROPYLENE GLYCOL ALGINATE, NATURAL FLAVORS, CITRIC ACID, SODIUM BENZOATE (PRESERVATIVE), TURMERIC (COLOR)], NONFAT MILK, MONO- AND DIGLYCERIDES (PLANT DERIVED), CONTAINS ONE OR MORE OF THE FOLLOWING GUMS (GUAR, CELLULOSE, LOCUST BEAN, XANTHAN, AND/OR CARRAGEENAN), DEXTROSE, CITRIC ACID, ARTIFICIAL PINEAPPLE FLAVOR." Date available: 07/14/2017 Date last updated by company: 07/14/2017
