Source: USDA Branded Food Products Database Release December 2017 Software v.3.8.6.4 2017-10-02
Report Run at: December 17, 2017 07:55 EST
"Nutrient data for: 45324893, PREMIUM PASTA SAUCE MADE WITH ITALIAN TOMATOES, UPC: 855019000417"
Food Group:  Branded Food Products Database
Common Name:

Nutrient,Unit,Data points,Std. Error,"0.5 cup = 120.0g",1Value per 100 g,
Proximates
"Energy",kcal,--,--,95,79
"Protein",g,--,--,3.00,2.50
"Total lipid (fat)",g,--,--,5.00,4.17
"Carbohydrate, by difference",g,--,--,8.00,6.67
"Fiber, total dietary",g,--,--,3.0,2.5
"Sugars, total",g,--,--,6.00,5.00
Minerals
"Calcium, Ca",mg,--,--,20,17
"Iron, Fe",mg,--,--,0.00,0.00
"Sodium, Na",mg,--,--,480,400
Vitamins
"Vitamin C, total ascorbic acid",mg,--,--,5.0,4.2
"Vitamin A, IU",IU,--,--,317,264
Lipids
"Fatty acids, total saturated",g,--,--,2.004,1.670
"Fatty acids, total trans",g,--,--,0.000,0.000
"Cholesterol",mg,--,--,0,0
Amino Acids
Other
Ingredients
"ITALIAN TOMATOES (DICED AND PUREE), WHITE BUTTON MUSHROOMS, EXTRA VIRGIN OLIVE OIL, ONIONS, SUNFLOWER OIL, PORCINI MUSHROOMS, BASIL, SUGAR, SALT, ARTIFICIAL FLAVORS, GARLIC, BLACK PEPPER, SUMMER BLACK TRUFFLE" Date available: 08/10/2017 Date last updated by company: 08/10/2017
