Source: USDA Branded Food Products Database Release December 2017 Software v.3.8.6.4 2017-10-02
Report Run at: December 17, 2017 07:07 EST
"Nutrient data for: 45188512, PREMIUM AGED GOUDA CHEESE BITES, UPC: 853748002054"
Food Group:  Branded Food Products Database
Common Name:

Nutrient,Unit,Data points,Std. Error,"1 PIECE = 15.0g",1Value per 100 g,
Proximates
"Energy",kcal,--,--,60,400
"Protein",g,--,--,4.00,26.67
"Total lipid (fat)",g,--,--,5.00,33.33
"Carbohydrate, by difference",g,--,--,0.00,0.00
"Fiber, total dietary",g,--,--,0.0,0.0
"Sugars, total",g,--,--,0.00,0.00
Minerals
"Calcium, Ca",mg,--,--,150,1000
"Iron, Fe",mg,--,--,0.00,0.00
"Sodium, Na",mg,--,--,140,933
Vitamins
"Vitamin C, total ascorbic acid",mg,--,--,0.0,0.0
"Vitamin A, IU",IU,--,--,734,4890
Lipids
"Fatty acids, total saturated",g,--,--,3.000,20.000
"Cholesterol",mg,--,--,15,100
Amino Acids
Other
Ingredients
"PASTEURIZED MILK, SALT, CHEESE CULTURES, RENNET, COLOR: ANNATTO." Date available: 07/14/2017 Date last updated by company: 07/14/2017
