Source: USDA Branded Food Products Database Release December 2017 Software v.3.8.6.4 2017-10-02
Report Run at: December 17, 2017 07:47 EST
"Nutrient data for: 45213255, PREMIUM JURTLE CARAMEL CORN, UPC: 01121308893"
Food Group:  Branded Food Products Database
Common Name:

Nutrient,Unit,Data points,Std. Error,"0.5 cup = 30.0g",1Value per 100 g,
Proximates
"Energy",kcal,--,--,150,500
"Protein",g,--,--,2.00,6.67
"Total lipid (fat)",g,--,--,8.00,26.67
"Carbohydrate, by difference",g,--,--,18.00,60.00
"Fiber, total dietary",g,--,--,1.0,3.3
"Sugars, total",g,--,--,14.00,46.67
Minerals
"Calcium, Ca",mg,--,--,20,67
"Iron, Fe",mg,--,--,1.20,4.00
"Sodium, Na",mg,--,--,70,233
Vitamins
"Vitamin C, total ascorbic acid",mg,--,--,0.0,0.0
"Vitamin A, IU",IU,--,--,0,0
Lipids
"Fatty acids, total saturated",g,--,--,6.000,20.000
"Fatty acids, total trans",g,--,--,0.000,0.000
"Cholesterol",mg,--,--,0,0
Amino Acids
Other
Ingredients
"DARK CHOCOLATE FLAVORED CONFECTIONERS' COATING (SUGAR, VEGETABLE OILS [PALM KERNEL AND PARTIALLY HYDROGENATED PALM], COCOA, SKIM MILK, COCOA [PROCESSED WITH ALKALI], VANILLA, NATURAL AND ARTIFICIAL FLAVORS, SORBITAN TRISTEARATE AND SOY LECITHIN [EMULSIFIERS], SALT), BROWN SUGAR, CORN SYRUP, WHITE CONFECTIONERS' COATING (SUGAR, PARTIALLY HYDROGENATED PALM KERNEL OIL, NONFAT MILK POWDER, SOY LECITHIN [EMULSIFIER], MONOGLYCERIDES, ARTIFICIAL COLOR [TITANIUM DIOXIDE], ARTIFICIAL FLAVOR), POPCORN, ROASTED SALTED ALMONDS (WHOLE ALMONDS, PEANUT OIL, SALT), ROASTED SALTED PECAN PIECES (PECAN PIECES, PEANUT OIL, SALT), SUGAR, WATER, COCONUT OIL (PURE COCONUT OIL, BETA-CAROTENE), BUTTER (CREAM, SALT), NATURAL FLAVOR, SALT, ARTIFICIAL BUTTER FLAVOR, FD&C YELLOW 5 LAKE (E102), BAKING SODA (SODIUM BICARBONATE)." Date available: 07/14/2017 Date last updated by company: 07/14/2017
