Source: USDA Branded Food Products Database Release December 2017 Software v.3.8.6.4 2017-10-02
Report Run at: December 17, 2017 08:05 EST
"Nutrient data for: 45055248, PREMIUM SHAVED BLACK FOREST HAM, UPC: 077400109404"
Food Group:  Branded Food Products Database
Common Name:

Nutrient,Unit,Data points,Std. Error,"2.0 ONZ = 56.0g",1Value per 100 g,
Proximates
"Energy",kcal,--,--,60,107
"Protein",g,--,--,10.00,17.86
"Total lipid (fat)",g,--,--,1.50,2.68
"Carbohydrate, by difference",g,--,--,1.00,1.79
"Sugars, total",g,--,--,1.00,1.79
Minerals
"Iron, Fe",mg,--,--,1.42,2.53
"Sodium, Na",mg,--,--,650,1161
Vitamins
Lipids
"Fatty acids, total saturated",g,--,--,0.498,0.890
"Fatty acids, total trans",g,--,--,0.000,0.000
"Cholesterol",mg,--,--,20,36
Amino Acids
Other
Ingredients
"HAM, WATER, SEA SALT, LESS THAN 2% OF: DEXTROSE, POTASSIUM LACTATE, SODIUM PHOSPHATE, SODIUM DIACETATE, SODIUM ERYTHORBATE, SODIUM NITRITE, NATURAL FLAVORING, CARAMEL COLOR." Date available: 06/24/2017 Date last updated by company: 06/24/2017
