Source: USDA Branded Food Products Database Release December 2017 Software v.3.8.6.4 2017-10-02
Report Run at: December 17, 2017 08:12 EST
"Nutrient data for: 45291695, PREMIUM WHOLE FLAXSEED, UPC: 039978034205"
Food Group:  Branded Food Products Database
Common Name:

Nutrient,Unit,Data points,Std. Error,"3.0 Tbsp = 31.0g",1Value per 100 g,
Proximates
"Energy",kcal,--,--,170,548
"Protein",g,--,--,6.00,19.35
"Total lipid (fat)",g,--,--,11.00,35.48
"Carbohydrate, by difference",g,--,--,10.00,32.26
"Fiber, total dietary",g,--,--,8.0,25.8
"Sugars, total",g,--,--,0.00,0.00
Minerals
"Calcium, Ca",mg,--,--,56,181
"Iron, Fe",mg,--,--,2.00,6.45
"Potassium, K",mg,--,--,269,868
"Sodium, Na",mg,--,--,10,32
Vitamins
"Vitamin D",IU,--,--,0,0
Lipids
"Fatty acids, total saturated",g,--,--,1.001,3.230
"Fatty acids, total monounsaturated",g,--,--,2.499,8.060
"Fatty acids, total polyunsaturated",g,--,--,7.000,22.580
"Fatty acids, total trans",g,--,--,0.000,0.000
"Cholesterol",mg,--,--,0,0
Amino Acids
Other
Ingredients
"WHOLE FLAXSEED." Date available: 07/17/2017 Date last updated by company: 07/17/2017
