Source: USDA Branded Food Products Database Release December 2017 Software v.3.8.6.4 2017-10-02
Report Run at: December 17, 2017 07:25 EST
"Nutrient data for: 45326884, PREMIUM DRIED ORGANIC CRANBERRIES, UPC: 708390000296"
Food Group:  Branded Food Products Database
Common Name:

Nutrient,Unit,Data points,Std. Error,"0.25 cup = 40.0g",1Value per 100 g,
Proximates
"Energy",kcal,--,--,140,350
"Protein",g,--,--,0.00,0.00
"Total lipid (fat)",g,--,--,0.00,0.00
"Carbohydrate, by difference",g,--,--,35.00,87.50
"Fiber, total dietary",g,--,--,2.0,5.0
"Sugars, total",g,--,--,29.00,72.50
Minerals
"Sodium, Na",mg,--,--,0,0
Vitamins
Lipids
Amino Acids
Other
Ingredients
"ORGANIC CRANBERRIES, ORGANIC CANE SUGAR, ORGANIC SUNFLOWER OIL" Date available: 10/18/2017 Date last updated by company: 10/18/2017
