Source: USDA Branded Food Products Database Release December 2017 Software v.3.8.6.4 2017-10-02
Report Run at: December 17, 2017 07:44 EST
"Nutrient data for: 45291732, PREMIUM ICE CREAM, UPC: 07203643011"
Food Group:  Branded Food Products Database
Common Name:

Nutrient,Unit,Data points,Std. Error,"0.666 cup = 88.0g",1Value per 100 g,
Proximates
"Energy",kcal,--,--,190,216
"Protein",g,--,--,3.00,3.41
"Total lipid (fat)",g,--,--,9.00,10.23
"Carbohydrate, by difference",g,--,--,22.00,25.00
"Fiber, total dietary",g,--,--,0.0,0.0
"Sugars, total",g,--,--,16.00,18.18
Minerals
"Calcium, Ca",mg,--,--,114,130
"Iron, Fe",mg,--,--,2.00,2.27
"Potassium, K",mg,--,--,204,232
"Sodium, Na",mg,--,--,85,97
Vitamins
"Vitamin D",IU,--,--,0,0
Lipids
"Fatty acids, total saturated",g,--,--,6.002,6.820
"Fatty acids, total trans",g,--,--,0.000,0.000
"Cholesterol",mg,--,--,25,28
Amino Acids
Other
Ingredients
"MILK, CREAM, SUGAR, CORN SYRUP, HIGH FRUCTOSE CORN SYRUP, NONFAT DRY MILK, COCOA PROCESSED WITH ALKALI, WHEY, GUAR GUM, MONO- AND DIGLYCERIDES, CELLULOSE GUM, POLYSORBATE 80, CARRAGEENAN, LOCUST BEAN GUM." Date available: 09/22/2017 Date last updated by company: 09/22/2017
