Source: USDA Branded Food Products Database Release December 2017 Software v.3.8.6.4 2017-10-02
Report Run at: December 17, 2017 07:07 EST
"Nutrient data for: 45194471, PREMIO, SWEET ITALIAN SAUSAGE WITH BROCCOLI RABE & ROMANO CHEESE, UPC: 028364216172"
Food Group:  Branded Food Products Database
Common Name:

Nutrient,Unit,Data points,Std. Error,"1 PAN FRIED LINK = 70.0g",1Value per 100 g,
Proximates
"Energy",kcal,--,--,200,286
"Protein",g,--,--,13.00,18.57
"Total lipid (fat)",g,--,--,16.00,22.86
"Carbohydrate, by difference",g,--,--,1.00,1.43
"Fiber, total dietary",g,--,--,0.0,0.0
"Sugars, total",g,--,--,1.00,1.43
Minerals
"Calcium, Ca",mg,--,--,20,29
"Iron, Fe",mg,--,--,0.28,0.40
"Sodium, Na",mg,--,--,610,871
Vitamins
"Vitamin C, total ascorbic acid",mg,--,--,0.9,1.3
"Vitamin A, IU",IU,--,--,0,0
Lipids
"Fatty acids, total saturated",g,--,--,4.998,7.140
"Fatty acids, total trans",g,--,--,0.000,0.000
"Cholesterol",mg,--,--,55,79
Amino Acids
Other
Ingredients
"PORK, BROCCOLI RABE, LESS THAN 2% OF THE FOLLOWING: SALT, SUGAR, ROMANO CHEESE (PASTEURIZED SHEEP'S MILK, CULTURES, SALT, ENZYMES), PARMESAN CHEESE POWDER [PARMESAN CHEESE (PART SKIM MILK, CHEESE CULTURES, SALT, ENZYMES), WHEY, BUTTERMILK SOLIDS, SODIUM PHOSPHATE, SALT], SPICES (INCLUDING BLACK PEPPER & FENNEL), DEHYDRATED GARLIC, PAPRIKA, NATURAL FLAVORS." Date available: 07/14/2017 Date last updated by company: 07/14/2017
