Source: USDA Branded Food Products Database Release December 2017 Software v.3.8.6.4 2017-10-02
Report Run at: December 17, 2017 07:57 EST
"Nutrient data for: 45194672, PREMIUM PLAIN NONFAT GREEK YOGURT, UPC: 041415552647"
Food Group:  Branded Food Products Database
Common Name:

Nutrient,Unit,Data points,Std. Error,"1 CONTAINER = 150.0g",1Value per 100 g,
Proximates
"Energy",kcal,--,--,90,60
"Protein",g,--,--,16.00,10.67
"Total lipid (fat)",g,--,--,0.00,0.00
"Carbohydrate, by difference",g,--,--,6.00,4.00
"Fiber, total dietary",g,--,--,0.0,0.0
"Sugars, total",g,--,--,4.00,2.67
Minerals
"Calcium, Ca",mg,--,--,200,133
"Iron, Fe",mg,--,--,0.00,0.00
"Sodium, Na",mg,--,--,56,37
Vitamins
"Vitamin C, total ascorbic acid",mg,--,--,0.0,0.0
"Vitamin A, IU",IU,--,--,0,0
Lipids
"Fatty acids, total saturated",g,--,--,0.000,0.000
"Fatty acids, total trans",g,--,--,0.000,0.000
"Cholesterol",mg,--,--,0,0
Amino Acids
Other
Ingredients
"GRADE A PASTEURIZED SKIM MILK, LIVE ACTIVE YOGURT CULTURES L. BULGARICUS, S. THERMOPHILUS, L. ACIDOPHILUS, BIFIDUS, L. CASEI)." Date available: 07/14/2017 Date last updated by company: 07/14/2017
