Source: USDA Branded Food Products Database Release December 2017 Software v.3.8.6.4 2017-10-02
Report Run at: December 17, 2017 07:31 EST
"Nutrient data for: 45149849, PREMIUM HOT COCOA, UPC: 810683022196"
Food Group:  Branded Food Products Database
Common Name:

Nutrient,Unit,Data points,Std. Error,"15.0 GRM = 15.0g",1Value per 100 g,
Proximates
"Energy",kcal,--,--,70,467
"Protein",g,--,--,1.00,6.67
"Total lipid (fat)",g,--,--,3.00,20.00
"Carbohydrate, by difference",g,--,--,10.00,66.67
"Fiber, total dietary",g,--,--,1.0,6.7
"Sugars, total",g,--,--,5.00,33.33
Minerals
"Calcium, Ca",mg,--,--,0,0
"Iron, Fe",mg,--,--,2.40,16.00
"Sodium, Na",mg,--,--,200,1333
Vitamins
"Vitamin C, total ascorbic acid",mg,--,--,0.0,0.0
"Vitamin A, IU",IU,--,--,0,0
Lipids
"Fatty acids, total saturated",g,--,--,0.000,0.000
"Fatty acids, total trans",g,--,--,0.000,0.000
"Cholesterol",mg,--,--,0,0
Amino Acids
Other
Ingredients
"PURE CANE SUGAR, NON DAIRY CREAMER (CORN SYRUP SOLIDS, HYDROGENATED COCONUT OIL, SODIUM CASEINATE (A MILK DERIVATIVE), DIPOTASSIUM PHOSPHATE, MONO-AND DIGLYCERIDES, SALT, SODIUM CITRATE, SODIUM SILICOALUMINATE, SOY LECITHIN, ARTIFICIAL FLAVORS, ARTIFICIAL COLORS). MALTODEXTRIN, COCOA AND ARTIFICIAL FLAVORS, SALT, SILICONE DIOXIDE." Date available: 07/14/2017 Date last updated by company: 07/14/2017
