Source: USDA Branded Food Products Database Release December 2017 Software v.3.8.6.4 2017-10-02
Report Run at: December 17, 2017 08:11 EST
"Nutrient data for: 45260639, PREMIUM WAFER STICKS, UPC: 8994391012082"
Food Group:  Branded Food Products Database
Common Name:

Nutrient,Unit,Data points,Std. Error,"100.0 GRM = 100.0g",1Value per 100 g,
Proximates
"Energy",kcal,--,--,470,470
"Protein",g,--,--,6.00,6.00
"Total lipid (fat)",g,--,--,18.00,18.00
"Carbohydrate, by difference",g,--,--,72.00,72.00
"Fiber, total dietary",g,--,--,3.0,3.0
"Sugars, total",g,--,--,36.00,36.00
Minerals
"Calcium, Ca",mg,--,--,40,40
"Iron, Fe",mg,--,--,4.50,4.50
"Sodium, Na",mg,--,--,230,230
Vitamins
"Vitamin C, total ascorbic acid",mg,--,--,0.0,0.0
"Vitamin A, IU",IU,--,--,50,50
Lipids
"Fatty acids, total saturated",g,--,--,9.000,9.000
"Cholesterol",mg,--,--,0,0
Amino Acids
Other
Ingredients
"WHEAT FLOUR, SUGAR, VEGETABLE OIL, CORN STARCH, MILK POWDER, SOYA LECITHIN, SALT, VANILLIN, STRAWBERRY FLAVOUR, CITRIC ACID, FOOD COLOUR (ERITROSYN E 127)" Date available: 07/14/2017 Date last updated by company: 07/14/2017
