Source: USDA Branded Food Products Database Release December 2017 Software v.3.8.6.4 2017-10-02
Report Run at: December 17, 2017 07:07 EST
"Nutrient data for: 45027917, PREMIO, HOT ITALIAN SAUSAGE, UPC: 028364120325"
Food Group:  Branded Food Products Database
Common Name:

Nutrient,Unit,Data points,Std. Error,"1 PAN FRIED LINK = 56.0g",1Value per 100 g,
Proximates
"Energy",kcal,--,--,190,339
"Protein",g,--,--,11.00,19.64
"Total lipid (fat)",g,--,--,14.00,25.00
"Carbohydrate, by difference",g,--,--,3.00,5.36
"Fiber, total dietary",g,--,--,0.0,0.0
"Sugars, total",g,--,--,3.00,5.36
Minerals
"Calcium, Ca",mg,--,--,20,36
"Iron, Fe",mg,--,--,0.35,0.63
"Sodium, Na",mg,--,--,440,786
Vitamins
"Vitamin C, total ascorbic acid",mg,--,--,0.0,0.0
"Vitamin A, IU",IU,--,--,98,175
Lipids
"Fatty acids, total saturated",g,--,--,5.001,8.930
"Fatty acids, total trans",g,--,--,0.000,0.000
"Cholesterol",mg,--,--,50,89
Amino Acids
Other
Ingredients
"PORK, DEXTROSE, CORN SYRUP, LESS THAN 2% OF THE FOLLOWING: WATER, SALT, PAPRIKA, SPICES (INCLUDING RED PEPPER & FENNEL), POTASSIUM CHLORIDE, EXTRACTIVES OF PAPRIKA, NATURAL FLAVORS." Date available: 07/14/2017 Date last updated by company: 07/14/2017
