Source: USDA Branded Food Products Database Release December 2017 Software v.3.8.6.4 2017-10-02
Report Run at: December 17, 2017 07:56 EST
"Nutrient data for: 45330243, PREMIUM PASTA SAUCE, UPC: 728920131177"
Food Group:  Branded Food Products Database
Common Name:

Nutrient,Unit,Data points,Std. Error,"0.5 cup = 124.0g",1Value per 100 g,
Proximates
"Energy",kcal,--,--,60,48
"Protein",g,--,--,1.00,0.81
"Total lipid (fat)",g,--,--,3.00,2.42
"Carbohydrate, by difference",g,--,--,7.01,5.65
"Fiber, total dietary",g,--,--,1.0,0.8
"Sugars, total",g,--,--,1.00,0.81
Minerals
"Calcium, Ca",mg,--,--,40,32
"Iron, Fe",mg,--,--,1.14,0.92
"Sodium, Na",mg,--,--,640,516
Vitamins
"Vitamin C, total ascorbic acid",mg,--,--,19.0,15.3
"Vitamin A, IU",IU,--,--,528,426
Lipids
"Fatty acids, total saturated",g,--,--,0.496,0.400
"Fatty acids, total trans",g,--,--,0.000,0.000
"Cholesterol",mg,--,--,0,0
Amino Acids
Other
Ingredients
"TOMATO PUREE (WATER, TOMATO PASTE), TOMATOES, OLIVE OIL, ONIONS, BASIL, GARLIC, SALT, SODIUM BENZOATE (A PRESERVATIVE), CITRIC ACID, SPICE." Date available: 10/13/2017 Date last updated by company: 10/13/2017
