Source: USDA Branded Food Products Database Release December 2017 Software v.3.8.6.4 2017-10-02
Report Run at: December 17, 2017 07:12 EST
"Nutrient data for: 45214323, PREMIUM BLEND ROASTED CASHEWS, ALMONDS, MACADAMIAS & PECANS WITH SEAS SALT, UPC: 049022734623"
Food Group:  Branded Food Products Database
Common Name:

Nutrient,Unit,Data points,Std. Error,"0.25 cup = 30.0g",1Value per 100 g,
Proximates
"Energy",kcal,--,--,180,600
"Protein",g,--,--,5.00,16.67
"Total lipid (fat)",g,--,--,17.00,56.67
"Carbohydrate, by difference",g,--,--,6.00,20.00
"Fiber, total dietary",g,--,--,2.0,6.7
"Sugars, total",g,--,--,1.00,3.33
Minerals
"Calcium, Ca",mg,--,--,40,133
"Iron, Fe",mg,--,--,2.40,8.00
"Sodium, Na",mg,--,--,60,200
Vitamins
"Vitamin C, total ascorbic acid",mg,--,--,0.0,0.0
"Vitamin A, IU",IU,--,--,0,0
Lipids
"Fatty acids, total saturated",g,--,--,2.001,6.670
"Fatty acids, total monounsaturated",g,--,--,9.999,33.330
"Fatty acids, total polyunsaturated",g,--,--,3.501,11.670
"Fatty acids, total trans",g,--,--,0.000,0.000
"Cholesterol",mg,--,--,0,0
Amino Acids
Other
Ingredients
"CASHEWS, ALMONDS, MACADAMIA NUTS, PECANS, PEANUT OIL AND/OR SOY OIL, SALT." Date available: 07/14/2017 Date last updated by company: 07/14/2017
