Source: USDA Branded Food Products Database Release December 2017 Software v.3.8.6.4 2017-10-02
Report Run at: December 17, 2017 07:35 EST
"Nutrient data for: 45181940, PREMIUM ICE CREAM, UPC: 030034086947"
Food Group:  Branded Food Products Database
Common Name:

Nutrient,Unit,Data points,Std. Error,"0.5 cup = 68.0g",1Value per 100 g,
Proximates
"Energy",kcal,--,--,160,235
"Protein",g,--,--,2.00,2.94
"Total lipid (fat)",g,--,--,8.00,11.76
"Carbohydrate, by difference",g,--,--,22.00,32.35
"Fiber, total dietary",g,--,--,1.0,1.5
"Sugars, total",g,--,--,15.00,22.06
Minerals
"Calcium, Ca",mg,--,--,60,88
"Iron, Fe",mg,--,--,0.72,1.06
"Sodium, Na",mg,--,--,60,88
Vitamins
"Vitamin C, total ascorbic acid",mg,--,--,0.0,0.0
"Vitamin A, IU",IU,--,--,200,294
Lipids
"Fatty acids, total saturated",g,--,--,4.502,6.620
"Fatty acids, total trans",g,--,--,0.000,0.000
"Cholesterol",mg,--,--,25,37
Amino Acids
Other
Ingredients
"MILKFAT AND NONFAT MILK, SUGAR, CARAMEL SWIRL [CORN SYRUP, HIGH FRUCTOSE CORN SYRUP, SUGAR, WATER, BUTTER, BUTTERMILK POWDER, NONFAT DRY MILK, PECTIN, MONO AND DIGLYCERIDES, SALT, POTASSIUM SORBATE (PRESERVATIVE), SODIUM BICARBONATE, XANTHAN GUM, SODIUM CITRATE], CORN SYRUP, FUDGE COATED CASHEWS {CONFECTIONERY COATING [SUGAR, COCONUT OIL, ALKALIZED COCOA, NATURAL COCOA, MILKFAT, SOY LECITHIN, NATURAL FLAVORS], CASHEWS}, COCOA (PROCESSED WITH ALKALI), HIGH FRUCTOSE CORN SYRUP, CONTAINS LESS THAN 2% OF COCOA, WHEY, MONO AND DIGLYCERIDES, CELLULOSE GUM, GUAR GUM, SALT, CITRIC ACID, CARRAGEENAN." Date available: 10/14/2016 Date last updated by company: 10/14/2016
