Source: USDA Branded Food Products Database Release December 2017 Software v.3.8.6.4 2017-10-02
Report Run at: December 17, 2017 07:57 EST
"Nutrient data for: 45121682, PREMIUM PIZZERIA FOUR CHEESE CLASSIC PIZZA, UPC: 031205066003"
Food Group:  Branded Food Products Database
Common Name:

Nutrient,Unit,Data points,Std. Error,"0.167 PIZZA = 128.0g",1Value per 100 g,
Proximates
"Energy",kcal,--,--,349,273
"Protein",g,--,--,14.00,10.94
"Total lipid (fat)",g,--,--,19.99,15.62
"Carbohydrate, by difference",g,--,--,31.00,24.22
"Fiber, total dietary",g,--,--,5.0,3.9
"Sugars, total",g,--,--,1.00,0.78
Minerals
"Calcium, Ca",mg,--,--,300,234
"Iron, Fe",mg,--,--,2.74,2.14
"Sodium, Na",mg,--,--,680,531
Vitamins
"Vitamin C, total ascorbic acid",mg,--,--,0.0,0.0
"Vitamin A, IU",IU,--,--,457,357
Lipids
"Fatty acids, total saturated",g,--,--,8.000,6.250
"Fatty acids, total trans",g,--,--,0.000,0.000
"Cholesterol",mg,--,--,35,27
Amino Acids
Other
Ingredients
"CRUST: (WHEAT FLOUR, WATER, CORN OIL, YEAST, SALT), WHOLE MILK MOZZARELLA CHEESE: (PASTEURIZED MILK, CHEESE CULTURES, SALT, ENZYMES), CHEDDAR CHEESE: (PASTEURIZED MILK, CHEESE CULTURES, SALT, ENZYMES, ANNOTTO (COLOR), PROVOLONE CHEESE: (PASTEURIZED MILK, CHEESE CULTURES, SALT, ENZYMES), ROMANO CHEESE: (PASTEURIZED PART SKIM COW'S MILK, CHEESE CULTURES, SALT, ENZYMES), SAUCE: (TOMATO PUREE, WATER, OREGANO, SALT, BLACK PEPPER)." Date available: 07/14/2017 Date last updated by company: 07/14/2017
