Source: USDA Branded Food Products Database Release December 2017 Software v.3.8.6.4 2017-10-02
Report Run at: December 17, 2017 07:52 EST
"Nutrient data for: 45081178, PREMIUM NOODLE SOUP, UPC: 071072003756"
Food Group:  Branded Food Products Database
Common Name:

Nutrient,Unit,Data points,Std. Error,"1 CUP PREPARED | ABOUT = 21.0g",1Value per 100 g,
Proximates
"Energy",kcal,--,--,70,333
"Protein",g,--,--,3.00,14.29
"Total lipid (fat)",g,--,--,0.00,0.00
"Carbohydrate, by difference",g,--,--,14.00,66.67
"Fiber, total dietary",g,--,--,2.0,9.5
"Sugars, total",g,--,--,2.00,9.52
Minerals
"Calcium, Ca",mg,--,--,20,95
"Iron, Fe",mg,--,--,0.86,4.08
"Sodium, Na",mg,--,--,750,3571
Vitamins
"Vitamin C, total ascorbic acid",mg,--,--,0.0,0.0
"Vitamin A, IU",IU,--,--,476,2267
Lipids
"Fatty acids, total saturated",g,--,--,0.000,0.000
"Fatty acids, total trans",g,--,--,0.000,0.000
"Cholesterol",mg,--,--,10,48
Amino Acids
Other
Ingredients
"EGG NOODLES (DURUM WHEAT SEMOLINA, EGGS), DEHYDRATED VEGETABLES (CARROTS, PEAS, ONIONS, CELERY), SALT. CONTAINS 2% OR LESS OF: DEHYDRATED CHICKEN, MALTODEXTRIN, ONION EXTRACT, SAUTEED ONION, SUGAR, YEAST EXTRACT, CORN OIL, CARROT EXTRACT, CELERY EXTRACT, RED WINE, SPICES, MONOSODIUM GLUTAMATE, CORN MEAL, POTATO STARCH, AUTOLYZED YEAST EXTRACT, HYDROLYZED CORN STARCH, SOY LECITHIN, GARLIC, DISODIUM INOSINATE, DISODIUM GUANYLATE, SODIUM ALUMINOSILICATE (ANTI-CAKING AGENT)." Date available: 06/25/2017 Date last updated by company: 06/25/2017
