Source: USDA Branded Food Products Database Release December 2017 Software v.3.8.6.4 2017-10-02
Report Run at: December 17, 2017 07:34 EST
"Nutrient data for: 45029491, PREMIUM ICE CREAM, UPC: 020735110119"
Food Group:  Branded Food Products Database
Common Name:

Nutrient,Unit,Data points,Std. Error,"0.5 cup = 66.0g",1Value per 100 g,
Proximates
"Energy",kcal,--,--,140,212
"Protein",g,--,--,2.00,3.03
"Total lipid (fat)",g,--,--,6.00,9.09
"Carbohydrate, by difference",g,--,--,20.00,30.30
"Fiber, total dietary",g,--,--,0.0,0.0
"Sugars, total",g,--,--,15.00,22.73
Minerals
"Calcium, Ca",mg,--,--,60,91
"Iron, Fe",mg,--,--,0.00,0.00
"Sodium, Na",mg,--,--,50,76
Vitamins
"Vitamin C, total ascorbic acid",mg,--,--,0.0,0.0
"Vitamin A, IU",IU,--,--,225,341
Lipids
"Fatty acids, total saturated",g,--,--,4.000,6.060
"Fatty acids, total trans",g,--,--,0.000,0.000
"Cholesterol",mg,--,--,20,30
Amino Acids
Other
Ingredients
"MILK, CREAM, FUDGE (CORN SYRUP, WATER, COCOA, SUGAR, MODIFIED CORN STARCH, CORN STARCH, COCOA PROCESSED WITH ALKALI, SALT, CARRAGEENAN, NATURAL FLAVOR, GUAR GUM), CORN SYRUP, SUGAR, WHEY, NONFAT MILK, CELLULOSE GEL, CELLULOSE GUM, NATURAL & ARTIFICIAL FLAVORS, MONO & DIGLYCERIDES, CARRAGEENAN." Date available: 07/14/2017 Date last updated by company: 07/14/2017
