Source: USDA Branded Food Products Database Release December 2017 Software v.3.8.6.4 2017-10-02
Report Run at: December 17, 2017 07:12 EST
"Nutrient data for: 45229122, PREMIUM BLACK ICED TEA BLEND, UPC: 011156059415"
Food Group:  Branded Food Products Database
Common Name:

Nutrient,Unit,Data points,Std. Error,"1 TEA BAG, MAKES 4 SERVINGS - 8 FL OZ EACH (240 ML) = 7.0g",1Value per 100 g,
Proximates
"Energy",kcal,--,--,0,0
"Protein",g,--,--,0.00,0.00
"Total lipid (fat)",g,--,--,0.00,0.00
"Carbohydrate, by difference",g,--,--,0.00,0.00
Minerals
"Sodium, Na",mg,--,--,0,0
Vitamins
Lipids
Amino Acids
Other
Ingredients
"BLACK TEA" Date available: 07/14/2017 Date last updated by company: 07/14/2017
