Source: USDA Branded Food Products Database Release December 2017 Software v.3.8.6.4 2017-10-02
Report Run at: December 17, 2017 07:42 EST
"Nutrient data for: 45264379, PREMIUM ICE CREAM, UPC: 076310080193"
Food Group:  Branded Food Products Database
Common Name:

Nutrient,Unit,Data points,Std. Error,"0.5 cup = 83.0g",1Value per 100 g,
Proximates
"Energy",kcal,--,--,230,277
"Protein",g,--,--,6.00,7.23
"Total lipid (fat)",g,--,--,13.00,15.66
"Carbohydrate, by difference",g,--,--,22.00,26.51
"Fiber, total dietary",g,--,--,1.0,1.2
"Sugars, total",g,--,--,19.00,22.89
Minerals
"Calcium, Ca",mg,--,--,100,120
"Iron, Fe",mg,--,--,0.41,0.49
"Sodium, Na",mg,--,--,115,139
Vitamins
"Vitamin C, total ascorbic acid",mg,--,--,1.3,1.6
"Vitamin A, IU",IU,--,--,225,271
Lipids
"Fatty acids, total saturated",g,--,--,6.997,8.430
"Fatty acids, total trans",g,--,--,0.000,0.000
"Cholesterol",mg,--,--,30,36
Amino Acids
Other
Ingredients
"SKIM MILK, CREAM, SUGAR, PEANUT BUTTER, (PEANUTS, PEANUT OIL, SUGAR, SALT), CHOCOLATE CHIPS [(SUGAR, CHOCOLATE LIQUOR PROCESSED WITH ALKALI, COCOA BUTTER, BUTTER OIL, LECITHIN, VANILLIN, NATURAL FLAVORS), PARTIALLY HYDROGENATED SOYBEAN OIL], CORN SYRUP, PASTEURIZED EGG YOLK, NATURAL FLAVORS, STABILIZER (CELLULOSE GUM, CAROB BEAN GUM, CARRAGEENAN, GUAR GUM, DEXTROSE, SALT)." Date available: 07/14/2017 Date last updated by company: 07/14/2017
