Source: USDA Branded Food Products Database Release December 2017 Software v.3.8.6.4 2017-10-02
Report Run at: December 17, 2017 07:44 EST
"Nutrient data for: 45314873, PREMIUM ICE CREAM, UPC: 021333991568"
Food Group:  Branded Food Products Database
Common Name:

Nutrient,Unit,Data points,Std. Error,"0.5 cup = 66.0g",1Value per 100 g,
Proximates
"Energy",kcal,--,--,140,212
"Protein",g,--,--,2.00,3.03
"Total lipid (fat)",g,--,--,7.00,10.61
"Carbohydrate, by difference",g,--,--,19.00,28.79
"Fiber, total dietary",g,--,--,1.0,1.5
"Sugars, total",g,--,--,15.00,22.73
Minerals
"Calcium, Ca",mg,--,--,80,121
"Iron, Fe",mg,--,--,1.21,1.84
"Sodium, Na",mg,--,--,35,53
Vitamins
"Vitamin C, total ascorbic acid",mg,--,--,0.0,0.0
"Vitamin A, IU",IU,--,--,225,341
Lipids
"Fatty acids, total saturated",g,--,--,4.000,6.060
"Fatty acids, total trans",g,--,--,0.000,0.000
"Cholesterol",mg,--,--,25,38
Amino Acids
Other
Ingredients
"MILK, CREAM, BUTTERMILK, SUGAR, WHEY, FUDGE SWIRL (CORN SYRUP, SUGAR, WATER, PALM OIL, UNSWEETENED CHOCOLATE PROCESSED WITH ALKALI, COCOA PROCESSED WITH ALKALI, PECTIN, MONO AND DIGLYCERIDES, POLYSORBATE 80), BROWNIES {SUGAR, WHEAT FLOUR, INTERESTERIFIED SOYBEAN OIL, LIQUID PASTEURIZED EGGS, COCOA PROCESSED WITH ALKALI, RICE SYRUP, WATER, CORN STARCH, SOY LECITHIN, SALT, NATURAL FLAVOR, BAKING SODA, BAKING POWDER (SODIUM ACID PYROPHOSPHATE, SODIUM BICARBONATE, CORN STARCH, MONOCALCIUM PHOSPHATE)}, SKIM MILK, CORN SYRUP, COCOA PROCESSED WITH ALKALI, CONTAINS 1% OR LESS OF CAROB BEAN GUM, GUAR GUM, CARRAGEENAN, MONO AND DIGLYCERIDES, CELLULOSE GEL, CELLULOSE GUM." Date available: 07/14/2017 Date last updated by company: 07/14/2017
