Source: USDA Branded Food Products Database Release December 2017 Software v.3.8.6.4 2017-10-02
Report Run at: December 17, 2017 08:09 EST
"Nutrient data for: 45056238, PREMIUM SUCCOTASH, UPC: 028800297017"
Food Group:  Branded Food Products Database
Common Name:

Nutrient,Unit,Data points,Std. Error,"0.666 cup = 85.0g",1Value per 100 g,
Proximates
"Energy",kcal,--,--,80,94
"Protein",g,--,--,3.00,3.53
"Total lipid (fat)",g,--,--,0.00,0.00
"Carbohydrate, by difference",g,--,--,16.00,18.82
"Fiber, total dietary",g,--,--,3.0,3.5
"Sugars, total",g,--,--,1.00,1.18
Minerals
"Calcium, Ca",mg,--,--,0,0
"Iron, Fe",mg,--,--,0.72,0.85
"Sodium, Na",mg,--,--,40,47
Vitamins
"Vitamin C, total ascorbic acid",mg,--,--,6.0,7.1
"Vitamin A, IU",IU,--,--,200,235
Lipids
"Fatty acids, total saturated",g,--,--,0.000,0.000
"Fatty acids, total trans",g,--,--,0.000,0.000
"Cholesterol",mg,--,--,0,0
Amino Acids
Other
Ingredients
"CORN, LIMA BEANS AND SALT." Date available: 07/14/2017 Date last updated by company: 07/14/2017
