Source: USDA Branded Food Products Database Release December 2017 Software v.3.8.6.4 2017-10-02
Report Run at: December 17, 2017 07:07 EST
"Nutrient data for: 45172288, PREMIERE MOISON, ORGANIC FLAXSEED BREAD, UPC: 029145800115"
Food Group:  Branded Food Products Database
Common Name:

Nutrient,Unit,Data points,Std. Error,"1 SLICE = 45.0g",1Value per 100 g,
Proximates
"Energy",kcal,--,--,110,244
"Protein",g,--,--,4.00,8.89
"Total lipid (fat)",g,--,--,2.00,4.44
"Carbohydrate, by difference",g,--,--,19.00,42.22
"Fiber, total dietary",g,--,--,2.0,4.4
"Sugars, total",g,--,--,1.00,2.22
Minerals
"Calcium, Ca",mg,--,--,0,0
"Iron, Fe",mg,--,--,0.80,1.78
"Sodium, Na",mg,--,--,230,511
Vitamins
"Vitamin C, total ascorbic acid",mg,--,--,0.0,0.0
"Vitamin A, IU",IU,--,--,0,0
Lipids
"Fatty acids, total saturated",g,--,--,0.000,0.000
"Fatty acids, total trans",g,--,--,0.000,0.000
"Cholesterol",mg,--,--,0,0
Amino Acids
Other
Ingredients
"UNBLEACHED ENRICHED ORGANIC FLOUR (ORGANIC WHEAT FLOUR*, MALTED BARLEY FLOUR, NIACIN, REDUCED IRON, THIAMINE MONONITRATE, RIBOFLAVIN, FOLIC ACID), FILTERED WATER, ORGANIC FLAXSEED, CONTAINS LESS THAN 1.0% OF EACH OF THE FOLLOWING: SEA SALT, YEAST." Date available: 07/14/2017 Date last updated by company: 07/14/2017
