Source: USDA Branded Food Products Database Release December 2017 Software v.3.8.6.4 2017-10-02
Report Run at: December 17, 2017 07:59 EST
"Nutrient data for: 45295582, PREMIUM PORK SAUSAGE, UPC: 077900117534"
Food Group:  Branded Food Products Database
Common Name:

Nutrient,Unit,Data points,Std. Error,"2.0 ONZ = 56.0g",1Value per 100 g,
Proximates
"Energy",kcal,--,--,180,321
"Protein",g,--,--,10.00,17.86
"Total lipid (fat)",g,--,--,15.00,26.79
"Carbohydrate, by difference",g,--,--,1.00,1.79
"Fiber, total dietary",g,--,--,0.0,0.0
"Sugars, total",g,--,--,0.00,0.00
Minerals
"Calcium, Ca",mg,--,--,20,36
"Iron, Fe",mg,--,--,0.35,0.63
"Sodium, Na",mg,--,--,420,750
Vitamins
"Vitamin C, total ascorbic acid",mg,--,--,0.0,0.0
"Vitamin A, IU",IU,--,--,98,175
Lipids
"Fatty acids, total saturated",g,--,--,5.001,8.930
"Fatty acids, total trans",g,--,--,0.000,0.000
"Cholesterol",mg,--,--,45,80
Amino Acids
Other
Ingredients
"PORK, WATER, CONTAINS 2% OR LESS OF: CORN SYRUP, SALT, SPICES, SUGAR, MONOSODIUM GLUTAMATE, FLAVORINGS." Date available: 06/25/2017 Date last updated by company: 06/25/2017
