Source: USDA Branded Food Products Database Release December 2017 Software v.3.8.6.4 2017-10-02
Report Run at: December 17, 2017 07:19 EST
"Nutrient data for: 45295690, PREMIUM COFFEE BEVERAGE, UPC: 012222041433"
Food Group:  Branded Food Products Database
Common Name:

Nutrient,Unit,Data points,Std. Error,"1 BOTTLE = 11.0g",1Value per 100 g,
Proximates
"Energy",kcal,--,--,4,36
"Protein",g,--,--,0.03,0.30
"Total lipid (fat)",g,--,--,0.02,0.15
"Carbohydrate, by difference",g,--,--,0.73,6.67
"Fiber, total dietary",g,--,--,0.0,0.0
"Sugars, total",g,--,--,0.67,6.06
Minerals
"Calcium, Ca",mg,--,--,2,18
"Iron, Fe",mg,--,--,0.00,0.00
"Sodium, Na",mg,--,--,1,6
Vitamins
"Vitamin C, total ascorbic acid",mg,--,--,0.0,0.0
"Vitamin A, IU",IU,--,--,4,33
Lipids
"Fatty acids, total saturated",g,--,--,0.000,0.000
"Fatty acids, total trans",g,--,--,0.000,0.000
"Cholesterol",mg,--,--,0,2
Amino Acids
Other
Ingredients
"BREWED STARBUCKS COFFEE (WATER, COFFEE) REDUCED-FAT MILK, SUGAR, NATURAL FLAVORS, PECTIN, ASCORBIC ACID." Date available: 06/25/2017 Date last updated by company: 06/25/2017
