Source: USDA Branded Food Products Database Release December 2017 Software v.3.8.6.4 2017-10-02
Report Run at: December 17, 2017 07:42 EST
"Nutrient data for: 45264263, PREMIUM ICE CREAM, UPC: 719283255587"
Food Group:  Branded Food Products Database
Common Name:

Nutrient,Unit,Data points,Std. Error,"0.66 cup = 90.0g",1Value per 100 g,
Proximates
"Energy",kcal,--,--,170,189
"Protein",g,--,--,2.00,2.22
"Total lipid (fat)",g,--,--,9.00,10.00
"Carbohydrate, by difference",g,--,--,21.00,23.33
"Fiber, total dietary",g,--,--,0.0,0.0
"Sugars, total",g,--,--,17.00,18.89
Minerals
"Calcium, Ca",mg,--,--,79,88
"Iron, Fe",mg,--,--,0.00,0.00
"Potassium, K",mg,--,--,105,117
"Sodium, Na",mg,--,--,40,44
Vitamins
"Vitamin D",IU,--,--,0,0
Lipids
"Fatty acids, total saturated",g,--,--,6.003,6.670
"Fatty acids, total trans",g,--,--,0.000,0.000
"Cholesterol",mg,--,--,35,39
Amino Acids
Other
Ingredients
"MILKFAT AND NONFAT MILK, SUGAR, STRAWBERRIES (STRAWBERRIES, SUGAR, PECTIN), CORN SYRUP, CONTAINS LESS THAN 2% OF WHEY, STRAWBERRY PUREE, MONO AND DIGLYCERIDES, CELLULOSE GUM, GUAR GUM, CARRAGEENAN, NATURAL FLAVORS, LOCUST BEAN GUM, CITRIC ACID, PHOSPHORIC ACID, MALIC ACID, RED 40, ANNATTO (COLOR)." Date available: 10/17/2017 Date last updated by company: 10/17/2017
