Source: USDA Branded Food Products Database Release December 2017 Software v.3.8.6.4 2017-10-02
Report Run at: December 17, 2017 08:18 EST
"Nutrient data for: 45062250, PRESIDENT, LIGHT BUTTER, UPC: 077901009371"
Food Group:  Branded Food Products Database
Common Name:

Nutrient,Unit,Data points,Std. Error,"1 Tbsp = 14.0g",1Value per 100 g,
Proximates
"Energy",kcal,--,--,50,357
"Protein",g,--,--,0.00,0.00
"Total lipid (fat)",g,--,--,5.50,39.29
"Carbohydrate, by difference",g,--,--,0.00,0.00
"Fiber, total dietary",g,--,--,0.0,0.0
"Sugars, total",g,--,--,0.00,0.00
Minerals
"Calcium, Ca",mg,--,--,0,0
"Iron, Fe",mg,--,--,0.00,0.00
"Sodium, Na",mg,--,--,70,500
Vitamins
"Vitamin C, total ascorbic acid",mg,--,--,0.0,0.0
"Vitamin A, IU",IU,--,--,1353,9661
Lipids
"Fatty acids, total saturated",g,--,--,3.500,25.000
"Fatty acids, total trans",g,--,--,0.000,0.000
"Cholesterol",mg,--,--,15,107
Amino Acids
Other
Ingredients
"WATER*, BUTTER (PASTEURIZED CREAM), MODIFIED CORN STARCH*, SALT, GELATIN*, LACTIC ACID*, MONOGLYCERIDES*, POTASSIUM SORBATE (PRESERVATIVES), BETA-CAROTENE (COLOR), VITAMIN A PALMITATE, VITAMIN E, NATURAL FLAVOR*" Date available: 06/24/2017 Date last updated by company: 06/24/2017
