Source: USDA Branded Food Products Database Release December 2017 Software v.3.8.6.4 2017-10-02
Report Run at: December 17, 2017 08:18 EST
"Nutrient data for: 45088353, PRESIDENT, PUB CHEESE, SPREADABLE CHEESE, CHEDDAR & PORTER ALE, UPC: 070153229047"
Food Group:  Branded Food Products Database
Common Name:

Nutrient,Unit,Data points,Std. Error,"2.0 Tbsp = 23.0g",1Value per 100 g,
Proximates
"Energy",kcal,--,--,70,304
"Protein",g,--,--,2.00,8.70
"Total lipid (fat)",g,--,--,6.00,26.09
"Carbohydrate, by difference",g,--,--,1.00,4.35
"Fiber, total dietary",g,--,--,0.0,0.0
"Sugars, total",g,--,--,0.00,0.00
Minerals
"Calcium, Ca",mg,--,--,40,174
"Iron, Fe",mg,--,--,0.00,0.00
"Sodium, Na",mg,--,--,125,543
Vitamins
"Vitamin C, total ascorbic acid",mg,--,--,0.0,0.0
"Vitamin A, IU",IU,--,--,435,1891
Lipids
"Fatty acids, total saturated",g,--,--,4.000,17.390
"Fatty acids, total trans",g,--,--,0.000,0.000
"Cholesterol",mg,--,--,25,109
Amino Acids
Other
Ingredients
"CULTURED PASTEURIZED MILK AND CREAM CHEDDAR CHEESE (PASTEURIZED MILK, CHEESE CULTURES, SALT, ENZYME), PORTER ALE (MALT SYRUP, SALT, NATURAL FLAVOR), SKIM MILK, SALT, NATURAL FLAVORS, LOCUST BEAN AND GUAR GUMS (STABILIZERS), SORBIC ACID (TO PROTECT FLAVOR), APOCAROTENAL AS COLOR." Date available: 07/14/2017 Date last updated by company: 07/14/2017
