Source: USDA Branded Food Products Database Release December 2017 Software v.3.8.6.4 2017-10-02
Report Run at: December 17, 2017 08:28 EST
"Nutrient data for: 45147959, PRETZELS, UPC: 072488987081"
Food Group:  Branded Food Products Database
Common Name:

Nutrient,Unit,Data points,Std. Error,"8.0 PIECES = 40.0g",1Value per 100 g,
Proximates
"Energy",kcal,--,--,190,475
"Protein",g,--,--,2.00,5.00
"Total lipid (fat)",g,--,--,8.00,20.00
"Carbohydrate, by difference",g,--,--,28.00,70.00
"Fiber, total dietary",g,--,--,0.0,0.0
"Sugars, total",g,--,--,18.00,45.00
Minerals
"Calcium, Ca",mg,--,--,40,100
"Iron, Fe",mg,--,--,3.38,8.44
"Sodium, Na",mg,--,--,170,425
Vitamins
"Vitamin C, total ascorbic acid",mg,--,--,0.0,0.0
"Vitamin A, IU",IU,--,--,0,0
Lipids
"Fatty acids, total saturated",g,--,--,7.000,17.500
"Fatty acids, total trans",g,--,--,0.000,0.000
"Cholesterol",mg,--,--,0,0
Amino Acids
Other
Ingredients
"YOGURT COATING (SUGAR, PALM KERNEL OIL, NONFAT DRY MILK, WHEY [MILK]. NONFAT YOGURT POWDER [CULTURED WHEY, NONFAT MILK], TITANIUM DIOXIDE [COLOR], SOY LECITHIN, LACTIC ACID, NATURAL FLAVORS), PRETZELS (ENRICHED WHEAT FLOUR [WHEAT STARCH, NIACIN REDUCED IRON, THIAMINE MONONITRATE, RIBOFLAVIN, FOLIC ACID, SILICON DIOXIDE (ANTI-CAKING AGENT), CORN SYRUP, SALT, SODIUM BICARBONATE, YEAST])." Date available: 07/14/2017 Date last updated by company: 07/14/2017
