Source: USDA Branded Food Products Database Release December 2017 Software v.3.8.6.4 2017-10-02
Report Run at: December 17, 2017 08:23 EST
"Nutrient data for: 45217310, PRETZEL CRUSTED CHEESE STICKS, UPC: 041322353207"
Food Group:  Branded Food Products Database
Common Name:

Nutrient,Unit,Data points,Std. Error,"2.0 STICKS = 55.0g",1Value per 100 g,
Proximates
"Energy",kcal,--,--,200,364
"Protein",g,--,--,8.00,14.55
"Total lipid (fat)",g,--,--,13.00,23.64
"Carbohydrate, by difference",g,--,--,15.00,27.27
"Fiber, total dietary",g,--,--,1.0,1.8
"Sugars, total",g,--,--,1.00,1.82
Minerals
"Calcium, Ca",mg,--,--,150,273
"Iron, Fe",mg,--,--,0.56,1.01
"Sodium, Na",mg,--,--,430,782
Vitamins
"Vitamin C, total ascorbic acid",mg,--,--,0.0,0.0
"Vitamin A, IU",IU,--,--,309,562
Lipids
"Fatty acids, total saturated",g,--,--,5.000,9.090
"Fatty acids, total trans",g,--,--,0.000,0.000
"Cholesterol",mg,--,--,15,27
Amino Acids
Other
Ingredients
"LOW MOISTURE PART SKIM MOZZARELLA CHEESE (PASTEURIZED PART SKIM MILK, CHEESE CULTURES, SALT, ENZYME), CHEDDAR CHEESE (PASTEURIZED MILK, CHEESE CULTURE, SALT, ENZYME, ANNATTO [COLOR]), SOYBEAN OIL, WATER, WHEAT FLOUR, BLEACHED WHEAT FLOUR, WHOLE WHEAT FLOUR, PRETZEL PIECES (WHEAT FLOUR, YEAST, SODIUM BICARBONATE), YELLOW CORN FLOUR, CONTAINS 2% OR LESS OF EACH OF THE FOLLOWING: ANNATTO (COLOR), BUTTERFAT, CELLULOSE, CHEDDAR CHEESE (PASTEURIZED MILK, CHEESE CULTURE, SALT, ENZYMES), DEXTROSE, DRIED GARLIC, DRIED ONION, GUM ARABIC, MALTODEXTRIN, METHYLCELLULOSE, MODIFIED CORNSTARCH, NATURAL FLAVOR, NONFAT MILK SOLIDS, SALT, SODIUM ALGINATE, SODIUM PHOSPHATE, SPICE, SUGAR, TORULA YEAST, WHEY, XANTHAN GUM, YEAST EXTRACT, YEAST." Date available: 07/14/2017 Date last updated by company: 07/14/2017
