Source: USDA Branded Food Products Database Release December 2017 Software v.3.8.6.4 2017-10-02
Report Run at: December 17, 2017 08:25 EST
"Nutrient data for: 45154201, PRETZEL PERFECTION, TWISTS RASPBERRY TRUFFLE COATED PRETZELS, RASPBERRY, UPC: 850229005191"
Food Group:  Branded Food Products Database
Common Name:

Nutrient,Unit,Data points,Std. Error,"1 ONZ = 28.0g",1Value per 100 g,
Proximates
"Energy",kcal,--,--,140,500
"Protein",g,--,--,1.00,3.57
"Total lipid (fat)",g,--,--,7.00,25.00
"Carbohydrate, by difference",g,--,--,20.00,71.43
"Fiber, total dietary",g,--,--,1.0,3.6
"Sugars, total",g,--,--,13.00,46.43
Minerals
"Calcium, Ca",mg,--,--,20,71
"Iron, Fe",mg,--,--,0.00,0.00
"Sodium, Na",mg,--,--,150,536
Vitamins
"Vitamin C, total ascorbic acid",mg,--,--,0.0,0.0
"Vitamin A, IU",IU,--,--,0,0
Lipids
"Fatty acids, total saturated",g,--,--,6.000,21.430
"Fatty acids, total trans",g,--,--,0.000,0.000
"Cholesterol",mg,--,--,0,0
Amino Acids
Other
Ingredients
"WHITE CHOCOLATE (SUGAR, PALM KERNEL OIL, NONFAT DRY MILK, MILK, SOY LECITHIN {AN EMULSIFIER}, SALT), GLUTEN-FREE PRETZELS (CORN STARCH, POTATO STARCH, RICE FLOUR, SOLUBLE CORN FIBER, PALM OIL, SUGAR, SALT, CELLULOSE GUM, SOY LECITHIN, YEAST EXTRACT, SODIUM BICARBONATE, SODIUM ACID PYROPHOSPHATE, CITRIC ACID), RASPBERRY FLAVOR OIL (VEGETABLE OIL, NATURAL FLAVORS)." Date available: 07/14/2017 Date last updated by company: 07/14/2017
