Source: USDA Branded Food Products Database Release December 2017 Software v.3.8.6.4 2017-10-02
Report Run at: December 17, 2017 08:21 EST
"Nutrient data for: 45105260, PRETZ, BAKED SNACK STICKS, UPC: 073141153034"
Food Group:  Branded Food Products Database
Common Name:

Nutrient,Unit,Data points,Std. Error,"1 BOX = 33.0g",1Value per 100 g,
Proximates
"Energy",kcal,--,--,160,485
"Protein",g,--,--,3.00,9.09
"Total lipid (fat)",g,--,--,6.00,18.18
"Carbohydrate, by difference",g,--,--,23.00,69.70
"Fiber, total dietary",g,--,--,1.0,3.0
"Sugars, total",g,--,--,2.00,6.06
Minerals
"Calcium, Ca",mg,--,--,0,0
"Iron, Fe",mg,--,--,0.54,1.65
"Sodium, Na",mg,--,--,260,788
Vitamins
"Vitamin C, total ascorbic acid",mg,--,--,0.0,0.0
"Vitamin A, IU",IU,--,--,0,0
Lipids
"Fatty acids, total saturated",g,--,--,4.000,12.120
"Fatty acids, total trans",g,--,--,0.000,0.000
"Cholesterol",mg,--,--,0,0
Amino Acids
Other
Ingredients
"WHEAT FLOUR, VEGETABLE OIL (PALM KERNEL OIL), SUGAR, PALM OIL SHORTENING, GLUTINOUS RICE FLOUR, SALT, SPICES, CONTAINS 1 PERCENT OR LESS OF: YEAST, MONOSODIUM GLUTAMATE, MALT EXTRACT, CORIANDER, HYDROLYZED VEGETABLE PROTEIN, MINT, CITRIC ACID, LACTOSE, MALIC ACID, SODIUM HYDROXIDE, SODIUM BICARBONATE, DISODIUM 5'-INOSINATE, DISODIUM 5'-GUANYLATE, TOCOPHEROLS." Date available: 06/25/2017 Date last updated by company: 06/25/2017
