Source: USDA Branded Food Products Database Release December 2017 Software v.3.8.6.4 2017-10-02
Report Run at: December 17, 2017 08:27 EST
"Nutrient data for: 45326177, PRETZEL SLIDERS, UPC: 015984900208"
Food Group:  Branded Food Products Database
Common Name:

Nutrient,Unit,Data points,Std. Error,"2.0 SLIDERS = 142.0g",1Value per 100 g,
Proximates
"Energy",kcal,--,--,339,239
"Protein",g,--,--,63.01,44.37
"Total lipid (fat)",g,--,--,9.00,6.34
"Carbohydrate, by difference",g,--,--,30.00,21.13
"Fiber, total dietary",g,--,--,0.0,0.0
"Sugars, total",g,--,--,6.01,4.23
Minerals
"Calcium, Ca",mg,--,--,99,70
"Iron, Fe",mg,--,--,1.42,1.00
"Sodium, Na",mg,--,--,980,690
Vitamins
"Vitamin D",IU,--,--,0,0
Lipids
"Fatty acids, total saturated",g,--,--,4.004,2.820
"Fatty acids, total trans",g,--,--,0.000,0.000
"Cholesterol",mg,--,--,85,60
Amino Acids
Other
Ingredients
"CHICKEN BREAST MEAT (COATED WITH PAPRIKA, CHILI PEPPER, SPICES, PAPRIKA EXTRACT), WATER, SEASONING (SALT, MALTODEXTRIN, SUGAR, MODIFIED FOOD STARCH, GARLIC POWDER, SODIUM DIACETATE, YEAST EXTRACT, ONION POWDER, DRIED CHICKEN BROTH, CANOLA OIL, NATURAL FLAVORS, DRIED VINEGAR, CAYENNE PEPPER), CONTAINS 2% OR LESS OF DEXTROSE, SALT, SODIUM PHOSPHATE, SODIUM ACETATE, SODIUM DIACETATE, BAVARIAN PRETZEL SLIDER ROLL (ENRICHED BLEACHED WHEAT FLOUR (BLEACHED WHEAT FLOUR, MALTED BARLEY FLOUR, NIACIN, REDUCED IRON, THIAMINE MONONITRATE, RIBOFLAVIN, FOLIC ACID), WATER, BROWN SUGAR, VEGETABLE SHORTENING (PALM OIL), YEAST, WHITE VINEGAR, BARLEY MALT, SALT, BICARBONATES AND CARBONATES OF SODA), SWISS CHEESE (PASTEURIZED MILK, CHEESE CULTURES, SALT, ENZYMES.)" Date available: 10/18/2017 Date last updated by company: 10/18/2017
