Source: USDA Branded Food Products Database Release December 2017 Software v.3.8.6.4 2017-10-02
Report Run at: December 17, 2017 08:22 EST
"Nutrient data for: 45175665, PRETZEL BREAD STICKS, UPC: 071314060189"
Food Group:  Branded Food Products Database
Common Name:

Nutrient,Unit,Data points,Std. Error,"1 BREADSTICK = 40.0g",1Value per 100 g,
Proximates
"Energy",kcal,--,--,110,275
"Protein",g,--,--,3.00,7.50
"Total lipid (fat)",g,--,--,1.50,3.75
"Carbohydrate, by difference",g,--,--,19.00,47.50
"Fiber, total dietary",g,--,--,1.0,2.5
"Sugars, total",g,--,--,2.00,5.00
Minerals
"Calcium, Ca",mg,--,--,20,50
"Iron, Fe",mg,--,--,1.48,3.71
"Sodium, Na",mg,--,--,230,575
Vitamins
"Vitamin C, total ascorbic acid",mg,--,--,0.0,0.0
"Thiamin",mg,--,--,0.400,1.000
"Riboflavin",mg,--,--,0.102,0.255
"Niacin",mg,--,--,2.200,5.500
"Vitamin A, IU",IU,--,--,0,0
Lipids
"Fatty acids, total saturated",g,--,--,0.500,1.250
"Fatty acids, total trans",g,--,--,0.000,0.000
"Cholesterol",mg,--,--,0,0
Amino Acids
Other
Ingredients
"ENRICHED WHEAT FLOUR, (WHEAT FLOUR, MALTED BARLEY FLOUR, NIACIN, IRON, THIAMIN MONONITRATE, RIBOFLAVIN, FOLIC ACID), WATER, SUGAR, PALM OIL, CORN SUGAR, CONTAINS 2% OR LESS OF THE FOLLOWING: SALT, POTATO FLAKES, CORN STARCH, DOUGH CONDITIONERS (MONO AND DIGLYCERIDES, SODIUM STEAROYL LACTYLATE, ASCORBIC ACID, AZODICARBONAMIDE, L-CYSTEINE), MALT, SOY FLOUR, YEAST NUTRIENTS (MONOCALCIUM PHOSPHATE, CALCIUM SULFATE, AMMONIUM SULFATE), SPICE OILS (TURMERIC, PEPRIKA), CULTURED WHEAT FLOUR, YEAST PARTIALLY HYDROGENATED SOYBEAN AND/OR COTTONSEED OIL, HYDROXYLATED SOY LECITHIN, VINEGAR, CULTURED WHEAT SPONGE (WHEAT FLOUR), KOSHER SALT, SODIUM HYDROXIDE, POTASSIUM SORBATE (PRESERVATIVE), SOY LECITHIN" Date available: 07/14/2017 Date last updated by company: 07/14/2017
