Source: USDA Branded Food Products Database Release December 2017 Software v.3.8.6.4 2017-10-02
Report Run at: December 17, 2017 08:32 EST
"Nutrient data for: 45146965, PRICE CHOPPER, ICED OATMEAL SOFT COOKIES, UPC: 041735083456"
Food Group:  Branded Food Products Database
Common Name:

Nutrient,Unit,Data points,Std. Error,"1 COOKIES = 25.0g",1Value per 100 g,
Proximates
"Energy",kcal,--,--,110,440
"Protein",g,--,--,1.00,4.00
"Total lipid (fat)",g,--,--,4.00,16.00
"Carbohydrate, by difference",g,--,--,17.00,68.00
"Fiber, total dietary",g,--,--,1.0,4.0
"Sugars, total",g,--,--,7.00,28.00
Minerals
"Calcium, Ca",mg,--,--,0,0
"Iron, Fe",mg,--,--,0.72,2.88
"Sodium, Na",mg,--,--,85,340
Vitamins
"Vitamin C, total ascorbic acid",mg,--,--,0.0,0.0
"Vitamin A, IU",IU,--,--,0,0
Lipids
"Fatty acids, total saturated",g,--,--,2.000,8.000
"Fatty acids, total trans",g,--,--,0.000,0.000
"Cholesterol",mg,--,--,0,0
Amino Acids
Other
Ingredients
"ENRICHED BLEACHED FLOUR (BLEACHED WHEAT FLOUR, NIACIN, REDUCED IRON, THIAMINE MONONITRATE, RIBOFLAVIN, FOLIC ACID), SUGAR, HIGH FRUCTOSE, CORN SYRUP, PALM OIL, OATMEAL, CORN SYRUP, RAISIN PASTE, SOYBEAN OIL, CONTAINS 2% OR LESS OF EGGS, PALM KERNEL OIL, MONO AND DIGLYCERIDES, MODIFIED CORN STARCH, BAKING SODA, SALT SPICES, NATURAL AND ARTIFICIAL FLAVORS (CONTAINS MILK), POTASSIUM SORBATE (PRESERVATIVE), SOY LECITHIN." Date available: 07/14/2017 Date last updated by company: 07/14/2017
