Source: USDA Branded Food Products Database Release December 2017 Software v.3.8.6.4 2017-10-02
Report Run at: December 17, 2017 08:36 EST
"Nutrient data for: 45085973, PRIMAL ISLAND, GRAIN FREE GRANOLA, TOASTED COCONUT, UPC: 853059005003"
Food Group:  Branded Food Products Database
Common Name:

Nutrient,Unit,Data points,Std. Error,"0.5 cup = 34.0g",1Value per 100 g,
Proximates
"Energy",kcal,--,--,190,559
"Protein",g,--,--,3.00,8.82
"Total lipid (fat)",g,--,--,16.00,47.06
"Carbohydrate, by difference",g,--,--,11.00,32.35
"Fiber, total dietary",g,--,--,4.0,11.8
"Sugars, total",g,--,--,6.00,17.65
Minerals
"Calcium, Ca",mg,--,--,40,118
"Iron, Fe",mg,--,--,1.75,5.14
"Sodium, Na",mg,--,--,5,15
Vitamins
"Vitamin C, total ascorbic acid",mg,--,--,0.0,0.0
"Vitamin A, IU",IU,--,--,0,0
Lipids
"Fatty acids, total saturated",g,--,--,8.000,23.530
"Fatty acids, total trans",g,--,--,0.000,0.000
"Cholesterol",mg,--,--,0,0
Amino Acids
Other
Ingredients
"ORGANIC COCONUT FLAKES, SLICED ALMONDS, ORGANIC HONEY, ORGANIC PECANS, ORGANIC GROUND FLAX SEEDS, PURE ORGANIC VANILLA EXTRACT, ORGANIC HAZELNUTS, ORGANIC COCONUT OIL, ORGANIC ALMOND EXTRACT, ORGANIC CINNAMON, ORGANIC SESAME SEEDS, ORGANIC NUTMEG" Date available: 06/25/2017 Date last updated by company: 06/25/2017
