Source: USDA Branded Food Products Database Release December 2017 Software v.3.8.6.4 2017-10-02
Report Run at: December 17, 2017 08:37 EST
"Nutrient data for: 45166810, PRIMAVERA WITH ASPARAGUS & PEAS, UPC: 897034002588"
Food Group:  Branded Food Products Database
Common Name:

Nutrient,Unit,Data points,Std. Error,"0.25 cup = 45.0g",1Value per 100 g,
Proximates
"Energy",kcal,--,--,170,378
"Protein",g,--,--,7.00,15.56
"Total lipid (fat)",g,--,--,1.00,2.22
"Carbohydrate, by difference",g,--,--,36.00,80.00
"Fiber, total dietary",g,--,--,5.0,11.1
"Sugars, total",g,--,--,0.00,0.00
Minerals
"Calcium, Ca",mg,--,--,20,44
"Iron, Fe",mg,--,--,1.80,4.00
"Sodium, Na",mg,--,--,280,622
Vitamins
"Vitamin C, total ascorbic acid",mg,--,--,2.4,5.3
"Vitamin A, IU",IU,--,--,100,222
Lipids
"Fatty acids, total saturated",g,--,--,0.000,0.000
"Fatty acids, total trans",g,--,--,0.000,0.000
"Cholesterol",mg,--,--,0,0
Amino Acids
Other
Ingredients
"FARRO WHEAT, DEHYDRATED VEGETABLES (ONION, ASPARAGUS, PEAS, GARLIC, CHIVES, PARSLEY), RICE FLOUR, SALT, YEAST EXTRACT, SPICES, NATURAL FLAVOR, LESS THAN 2% SUNFLOWER OIL ADDED TO PREVENT CAKING." Date available: 07/14/2017 Date last updated by company: 07/14/2017
