Source: USDA Branded Food Products Database Release December 2017 Software v.3.8.6.4 2017-10-02
Report Run at: December 17, 2017 08:46 EST
"Nutrient data for: 45171087, PRIVATE SELECTION, CREAMSTYLE CLASSIC CHEESECAKE, UPC: 011110135094"
Food Group:  Branded Food Products Database
Common Name:

Nutrient,Unit,Data points,Std. Error,"0.25 CAKE = 113.0g",1Value per 100 g,
Proximates
"Energy",kcal,--,--,410,363
"Protein",g,--,--,6.99,6.19
"Total lipid (fat)",g,--,--,24.00,21.24
"Carbohydrate, by difference",g,--,--,40.00,35.40
"Fiber, total dietary",g,--,--,1.0,0.9
"Sugars, total",g,--,--,25.00,22.12
Minerals
"Calcium, Ca",mg,--,--,99,88
"Iron, Fe",mg,--,--,0.79,0.70
"Sodium, Na",mg,--,--,340,301
Vitamins
"Vitamin C, total ascorbic acid",mg,--,--,0.0,0.0
"Vitamin A, IU",IU,--,--,829,734
Lipids
"Fatty acids, total saturated",g,--,--,12.995,11.500
"Fatty acids, total trans",g,--,--,0.497,0.440
"Cholesterol",mg,--,--,80,71
Amino Acids
Other
Ingredients
"CREAM CHEESE (MILK, CREAM, CHEESE CULTURE, SALT, CAROB BEAN GUM), SUGAR, SOUR CREAM (CULTURED PASTEURIZED LIGHT CREAM AND NONFAT MILK, ENZYME), ENRICHED BLEACHED FLOUR (WHEAT FLOUR, NIACIN, REDUCED IRON, THIAMINE MONONITRATE, RIBOFLAVIN, FOLIC ACID), EGGS, MARGARINE (SOYBEAN OIL, PALM OIL, WATER, SALT, MONO- AND DIGLYCERIDES, NONFAT MILK, SOY LECITHIN, SODIUM BENZOATE [PRESERVATIVE], ARTIFICIAL FLAVOR, VITAMIN A PALMITATE, BETA CAROTENE [COLOR], NONFAT MILK, CORN SYRUP, GRAHAM FLOUR, BROWN SUGAR, PALM OIL, CONTAINS LESS THAN 2% OF THE FOLLOWING: HONEY, RICE FLOUR, MODIFIED CORNSTARCH, CORNSTARCH, NATURAL AND ARTIFICIAL FLAVOR, GELATIN, CINNAMON, SOY LECITHIN, LEMON JUICE CONCENTRATE, SALT, BAKING SODA, DATEM, MONO- AND DIGLYCERIDES, CARAMEL COLOR, POTASSIUM SORBATE (PRESERVATIVE)." Date available: 07/14/2017 Date last updated by company: 07/14/2017
