Source: USDA Branded Food Products Database Release December 2017 Software v.3.8.6.4 2017-10-02
Report Run at: December 17, 2017 08:46 EST
"Nutrient data for: 45114099, PRIVATE SELECTION, COLBY JACK SLICED CHEESE, UPC: 011110607294"
Food Group:  Branded Food Products Database
Common Name:

Nutrient,Unit,Data points,Std. Error,"1 SLICE = 22.0g",1Value per 100 g,
Proximates
"Energy",kcal,--,--,90,409
"Protein",g,--,--,5.00,22.73
"Total lipid (fat)",g,--,--,7.00,31.82
"Carbohydrate, by difference",g,--,--,0.00,0.00
Minerals
"Calcium, Ca",mg,--,--,150,682
"Iron, Fe",mg,--,--,0.00,0.00
"Sodium, Na",mg,--,--,140,636
Vitamins
"Vitamin C, total ascorbic acid",mg,--,--,0.0,0.0
"Vitamin A, IU",IU,--,--,682,3100
Lipids
"Fatty acids, total saturated",g,--,--,4.000,18.180
"Fatty acids, total monounsaturated",g,--,--,2.000,9.090
"Fatty acids, total polyunsaturated",g,--,--,0.000,0.000
"Fatty acids, total trans",g,--,--,0.000,0.000
"Cholesterol",mg,--,--,25,114
Amino Acids
Other
Ingredients
"PASTEURIZED MILK, CHEESE CULTURES, SALT, MICROBIAL ENZYMES, ANNATTO (FOR COLOR)." Date available: 10/13/2017 Date last updated by company: 10/13/2017
