Source: USDA Branded Food Products Database Release December 2017 Software v.3.8.6.4 2017-10-02
Report Run at: December 17, 2017 08:49 EST
"Nutrient data for: 45171326, PRIVATE SELECTION, ROLLED OATMEAL, CRANBERRY APPLE WALNUT, UPC: 011110022912"
Food Group:  Branded Food Products Database
Common Name:

Nutrient,Unit,Data points,Std. Error,"1 PACKAGE = 73.0g",1Value per 100 g,
Proximates
"Energy",kcal,--,--,290,397
"Protein",g,--,--,6.00,8.22
"Total lipid (fat)",g,--,--,7.00,9.59
"Carbohydrate, by difference",g,--,--,53.00,72.60
"Fiber, total dietary",g,--,--,6.0,8.2
"Sugars, total",g,--,--,13.00,17.81
Minerals
"Calcium, Ca",mg,--,--,20,27
"Iron, Fe",mg,--,--,0.81,1.11
"Sodium, Na",mg,--,--,125,171
Vitamins
"Vitamin C, total ascorbic acid",mg,--,--,0.9,1.2
"Vitamin A, IU",IU,--,--,0,0
Lipids
"Fatty acids, total saturated",g,--,--,1.000,1.370
"Fatty acids, total trans",g,--,--,0.000,0.000
"Cholesterol",mg,--,--,0,0
Amino Acids
Other
Ingredients
"STEEL CUT AND ROLLED OATMEAL, BROWN SUGAR, DRIED SWEETENED CRANBERRIES (CRANBERRIES, SUGAR, SUNFLOWER OIL), WALNUTS (WALNUTS, BHT, SOYBEAN OIL), DEHYDRATED APPLES (APPLES, SODIUM SULFITE AND SULFUR DIOXIDE [FOR COLOR RETENTION]), DRIED APPLES (APPLES, SUGAR, CINNAMON), DEHYDRATED APPLES SLICES (APPLES, SUGAR, FRUCTOSE, CINNAMON SODIUM SULFITE [FOR COLOR RETENTION]), CINNAMON, NONFAT DRY MILK, NATURAL FLAVORS, SALT, MODIFIED CORN STARCH." Date available: 07/14/2017 Date last updated by company: 07/14/2017
