Source: USDA Branded Food Products Database Release December 2017 Software v.3.8.6.4 2017-10-02
Report Run at: December 17, 2017 08:49 EST
"Nutrient data for: 45171119, PRIVATE SELECTION, PINEAPPLE UPSIDE DOWN CAKE, UPC: 011110654564"
Food Group:  Branded Food Products Database
Common Name:

Nutrient,Unit,Data points,Std. Error,"0.125 CAKE = 115.0g",1Value per 100 g,
Proximates
"Energy",kcal,--,--,320,278
"Protein",g,--,--,4.00,3.48
"Total lipid (fat)",g,--,--,11.99,10.43
"Carbohydrate, by difference",g,--,--,49.00,42.61
"Fiber, total dietary",g,--,--,1.0,0.9
"Sugars, total",g,--,--,35.99,31.30
Minerals
"Calcium, Ca",mg,--,--,40,35
"Iron, Fe",mg,--,--,0.75,0.65
"Sodium, Na",mg,--,--,340,296
Vitamins
"Vitamin C, total ascorbic acid",mg,--,--,2.5,2.2
"Vitamin A, IU",IU,--,--,278,242
Lipids
"Fatty acids, total saturated",g,--,--,7.003,6.090
"Fatty acids, total trans",g,--,--,0.000,0.000
"Cholesterol",mg,--,--,75,65
Amino Acids
Other
Ingredients
"PINEAPPLE, ENRICHED FLOUR (WHEAT FLOUR, NIACIN, REDUCED IRON, THIAMINE MONONITRATE, RIBOFLAVIN, FOLIC ACID), BROWN SUGAR, BUTTER (CREAM, SALT), LIQUID INVERT SUGAR, EGGS, BUTTERMILK (PARTLY SKIMMED MILK, SALT, BACTERIAL CULTURE), SUGAR, WATER, MODIFIED TAPIOCA STARCH, BAKING POWDER (SODIUM ACID PYROPHOSPHATE, BAKING SODA, CORN STARCH, CALCIUM SULPHATE, MONOCALCIUM PHOSPHATE), SODIUM PROPIONATE, WHITE VINEGAR, NATURAL FLAVOR, BAKING SODA, POTASSIUM SORBATE (PRESERVATIVE)." Date available: 10/09/2017 Date last updated by company: 10/09/2017
