Source: USDA Branded Food Products Database Release December 2017 Software v.3.8.6.4 2017-10-02
Report Run at: December 17, 2017 08:50 EST
"Nutrient data for: 45126270, PRIVATE SELECTION, TRIPLE BERRY MEDLEY, UPC: 011110878083"
Food Group:  Branded Food Products Database
Common Name:

Nutrient,Unit,Data points,Std. Error,"1 cup = 140.0g",1Value per 100 g,
Proximates
"Energy",kcal,--,--,80,57
"Protein",g,--,--,0.99,0.71
"Total lipid (fat)",g,--,--,0.00,0.00
"Carbohydrate, by difference",g,--,--,21.00,15.00
"Fiber, total dietary",g,--,--,9.0,6.4
"Sugars, total",g,--,--,9.00,6.43
Minerals
"Calcium, Ca",mg,--,--,41,29
"Iron, Fe",mg,--,--,0.71,0.51
"Sodium, Na",mg,--,--,0,0
Vitamins
"Vitamin C, total ascorbic acid",mg,--,--,1.3,0.9
"Vitamin A, IU",IU,--,--,99,71
Lipids
"Fatty acids, total saturated",g,--,--,0.000,0.000
"Fatty acids, total trans",g,--,--,0.000,0.000
"Cholesterol",mg,--,--,0,0
Amino Acids
Other
Ingredients
"BLACKBERRIES, BLUEBERRIES, RASPBERRIES, WATER, SUCROSE." Date available: 07/14/2017 Date last updated by company: 07/14/2017
