Source: USDA Branded Food Products Database Release December 2017 Software v.3.8.6.4 2017-10-02
Report Run at: December 17, 2017 08:55 EST
"Nutrient data for: 45263072, PROBIOTICS DRINK MIX, UPC: 838766019130"
Food Group:  Branded Food Products Database
Common Name:

Nutrient,Unit,Data points,Std. Error,"1 POUCH = 6.0g",1Value per 100 g,
Proximates
"Energy",kcal,--,--,5,83
"Protein",g,--,--,0.00,0.00
"Total lipid (fat)",g,--,--,0.00,0.00
"Carbohydrate, by difference",g,--,--,1.00,16.67
"Fiber, total dietary",g,--,--,2.0,33.3
"Sugars, total",g,--,--,0.00,0.00
Minerals
"Calcium, Ca",mg,--,--,0,0
"Iron, Fe",mg,--,--,0.00,0.00
"Sodium, Na",mg,--,--,5,83
Vitamins
"Vitamin C, total ascorbic acid",mg,--,--,0.0,0.0
"Vitamin A, IU",IU,--,--,0,0
Lipids
"Fatty acids, total saturated",g,--,--,0.000,0.000
"Fatty acids, total trans",g,--,--,0.000,0.000
"Cholesterol",mg,--,--,0,0
Amino Acids
Other
Ingredients
"INULIN, CITRIC ACID, POTASSIUM BICARBONATE, NATURAL FLAVORS, SODIUM BICARBONATE, PROBIOTICS (BACILUS COAGULANS MTCC 5856), APPLE POWDER, STEVIA EXTRACT, ORGANIC LEMON POWDER." Date available: 07/14/2017 Date last updated by company: 07/14/2017
