Source: USDA Branded Food Products Database Release December 2017 Software v.3.8.6.4 2017-10-02
Report Run at: December 17, 2017 08:55 EST
"Nutrient data for: 45241108, PROBIOTICS SPARKLING DRINK FROM CONCENTRATE, UPC: 891770002666"
Food Group:  Branded Food Products Database
Common Name:

Nutrient,Unit,Data points,Std. Error,"8.0 ONZ = 240.0g",1Value per 100 g,
Proximates
"Energy",kcal,--,--,24,10
"Protein",g,--,--,0.00,0.00
"Total lipid (fat)",g,--,--,0.00,0.00
"Carbohydrate, by difference",g,--,--,6.00,2.50
"Sugars, total",g,--,--,6.00,2.50
Minerals
"Sodium, Na",mg,--,--,5,2
Vitamins
Lipids
Amino Acids
Other
Ingredients
"FILTERED WATER, APPLE JUICE FROM CONCENTRATE, PEAR JUICE FROM CONCENTRATE, CONTAINS 2% OR LESS OF GINGER EXTRACT, NATURAL FLAVORS, CITRIC ACID, LACTOBACILLUS PLANTARUM 299V" Date available: 07/14/2017 Date last updated by company: 07/14/2017
