Source: USDA Branded Food Products Database Release December 2017 Software v.3.8.6.4 2017-10-02
Report Run at: December 17, 2017 08:56 EST
"Nutrient data for: 45204007, PROCESSED KOSHER PICKLES, UPC: 739625001016"
Food Group:  Branded Food Products Database
Common Name:

Nutrient,Unit,Data points,Std. Error,"0.25 PICKLE) | (ABOUT = 28.0g",1Value per 100 g,
Proximates
"Energy",kcal,--,--,3,11
"Protein",g,--,--,1.00,3.57
"Total lipid (fat)",g,--,--,0.10,0.36
"Carbohydrate, by difference",g,--,--,0.48,1.71
"Fiber, total dietary",g,--,--,0.4,1.5
"Sugars, total",g,--,--,0.10,0.36
Minerals
"Sodium, Na",mg,--,--,250,893
Vitamins
"Vitamin C, total ascorbic acid",mg,--,--,100.0,357.1
"Vitamin A, IU",IU,--,--,17,61
Lipids
"Fatty acids, total saturated",g,--,--,0.101,0.360
"Cholesterol",mg,--,--,0,0
Amino Acids
Other
Ingredients
"CUCUMBERS, WATER, DISTILLED VINEGAR, SALT, SPICE OILS, ALUM, 1/10 OF 1% SODIUM BENZOATE, CALCIUM CHLORIDE, FD&C YELLOW NO. 5, POLYSORBATE 80." Date available: 07/14/2017 Date last updated by company: 07/14/2017
