Source: USDA Branded Food Products Database Release December 2017 Software v.3.8.6.4 2017-10-02
Report Run at: December 17, 2017 08:56 EST
"Nutrient data for: 45289318, PROCESSED CHEESE WITH RED PEPPERS, UPC: 5902899103709"
Food Group:  Branded Food Products Database
Common Name:

Nutrient,Unit,Data points,Std. Error,"1 ONZ = 30.0g",1Value per 100 g,
Proximates
"Energy",kcal,--,--,60,200
"Protein",g,--,--,3.00,10.00
"Total lipid (fat)",g,--,--,4.50,15.00
"Carbohydrate, by difference",g,--,--,2.00,6.67
"Fiber, total dietary",g,--,--,0.0,0.0
"Sugars, total",g,--,--,2.00,6.67
Minerals
"Calcium, Ca",mg,--,--,20,67
"Sodium, Na",mg,--,--,310,1033
Vitamins
"Vitamin A, IU",IU,--,--,166,555
Lipids
"Fatty acids, total saturated",g,--,--,3.000,10.000
"Cholesterol",mg,--,--,15,50
Amino Acids
Other
Ingredients
"WATER, CHEESE, SKIMMED POWDERED MILK, CUCUMBERS, RED PEPPERS, BUTTER (MILK), DISODIUM DIPHOSPHATE, SODIUM POLYPHOSPHATE, MILK PROTEIN, AROMA, SALT, CITRIC ACID." Date available: 09/22/2017 Date last updated by company: 09/22/2017
