Source: USDA Branded Food Products Database Release December 2017 Software v.3.8.6.4 2017-10-02
Report Run at: December 17, 2017 09:02 EST
"Nutrient data for: 45310654, PROGRESSO VGTBL CLSCS SOUP TOMATO BASIL, UNPREPARED, GTIN: 00041196010138"
Food Group:  Branded Food Products Database
Common Name:

Nutrient,Unit,Data points,Std. Error,"1 cup (244g) = 244.0g",1Value per 100 g,
Proximates
"Energy",kcal,--,--,149,61
"Protein",g,--,--,3.00,1.23
"Total lipid (fat)",g,--,--,3.00,1.23
"Carbohydrate, by difference",g,--,--,28.01,11.48
"Fiber, total dietary",g,--,--,2.0,0.8
"Sugars, total",g,--,--,15.01,6.15
Minerals
"Calcium, Ca",mg,--,--,20,8
"Iron, Fe",mg,--,--,0.73,0.30
"Sodium, Na",mg,--,--,691,283
Vitamins
"Vitamin C, total ascorbic acid",mg,--,--,4.9,2.0
"Vitamin A, IU",IU,--,--,500,205
Lipids
"Fatty acids, total saturated",g,--,--,0.488,0.200
"Fatty acids, total monounsaturated",g,--,--,0.488,0.200
"Fatty acids, total polyunsaturated",g,--,--,1.488,0.610
"Fatty acids, total trans",g,--,--,0.000,0.000
"Cholesterol",mg,--,--,0,0
Amino Acids
Other
Ingredients
"TOMATO PUREE (WATER, TOMATO PASTE), WATER, SUGAR. CONTAINS LESS THAN 2% OF: CORN SYRUP SOLIDS, WHEAT FLOUR BLEACHED, SOYBEAN OIL, MODIFIED FOOD STARCH, SALT, POTASSIUM CHLORIDE, GARLIC POWDER, DRIED PARSLEY, DRIED BASIL, CITRIC ACID, ASCORBIC ACID, NATURAL FLAVOR, SOY LECITHIN." Date available: 10/19/2017 Date last updated by company: 10/16/2017
