Source: USDA Branded Food Products Database Release December 2017 Software v.3.8.6.4 2017-10-02
Report Run at: December 17, 2017 09:04 EST
"Nutrient data for: 45204900, PROMISED LAND DAIRY, HOMOGENIZED MILK, UPC: 763528302048"
Food Group:  Branded Food Products Database
Common Name:

Nutrient,Unit,Data points,Std. Error,"1 cup = 240.0g",1Value per 100 g,
Proximates
"Energy",kcal,--,--,180,75
"Protein",g,--,--,9.00,3.75
"Total lipid (fat)",g,--,--,10.99,4.58
"Carbohydrate, by difference",g,--,--,12.00,5.00
"Fiber, total dietary",g,--,--,0.0,0.0
"Sugars, total",g,--,--,12.00,5.00
Minerals
"Calcium, Ca",mg,--,--,350,146
"Iron, Fe",mg,--,--,0.36,0.15
"Potassium, K",mg,--,--,300,125
"Sodium, Na",mg,--,--,170,71
Vitamins
"Vitamin C, total ascorbic acid",mg,--,--,0.0,0.0
"Vitamin A, IU",IU,--,--,499,208
"Vitamin D",IU,--,--,101,42
Lipids
"Fatty acids, total saturated",g,--,--,7.008,2.920
"Fatty acids, total trans",g,--,--,0.000,0.000
"Cholesterol",mg,--,--,36,15
Amino Acids
Other
Ingredients
"MILK, VITAMIN D3." Date available: 07/14/2017 Date last updated by company: 07/14/2017
