Source: USDA Branded Food Products Database Release December 2017 Software v.3.8.6.4 2017-10-02
Report Run at: December 17, 2017 09:04 EST
"Nutrient data for: 45315067, PROPEL, WATER BEVERAGE WITH ELECTROLYTES & VITAMINS, BLACK CHERRY, UPC: 05234307"
Food Group:  Branded Food Products Database
Common Name:

Nutrient,Unit,Data points,Std. Error,"12.0 OZA = 360.0g",1Value per 100 g,
Proximates
"Energy",kcal,--,--,0,0
"Protein",g,--,--,0.00,0.00
"Total lipid (fat)",g,--,--,0.00,0.00
"Carbohydrate, by difference",g,--,--,0.00,0.00
"Sugars, total",g,--,--,0.00,0.00
Minerals
"Potassium, K",mg,--,--,40,11
"Sodium, Na",mg,--,--,158,44
Vitamins
"Vitamin C, total ascorbic acid",mg,--,--,18.0,5.0
"Niacin",mg,--,--,6.998,1.944
"Pantothenic acid",mg,--,--,4.000,1.111
"Vitamin B-6",mg,--,--,0.698,0.194
Lipids
Amino Acids
Other
Ingredients
"WATER, CITRIC ACID, SODIUM HEXAMETAPHOSPHATE (TO PROTECT FLAVOR), NATURAL FLAVOR, SALT, POTASSIUM SORBATE (PRESERVES FRESHNESS), POTASSIUM CITRATE, SODIUM CITRATE, ASCORBIC ACID (VITAMIN C), SUCRALOSE, ACESULFAME POTASSIUM, CALCIUM DISODIUM EDTA (TO PROTECT FLAVOR), CALCIUM PANTOTHENATE (VITAMIN B5), NIACINAMIDE (VITAMIN B3), VITAMIN E ACETATE, PYRIDOXINE HYDROCHLORIDE (VITAMIN B6)." Date available: 07/14/2017 Date last updated by company: 07/14/2017
