Source: USDA Branded Food Products Database Release December 2017 Software v.3.8.6.4 2017-10-02
Report Run at: December 17, 2017 09:13 EST
"Nutrient data for: 45323372, PROTEIN BAR, UPC: 888849005437"
Food Group:  Branded Food Products Database
Common Name:

Nutrient,Unit,Data points,Std. Error,"1 BAR = 60.0g",1Value per 100 g,
Proximates
"Energy",kcal,--,--,170,283
"Protein",g,--,--,17.00,28.33
"Total lipid (fat)",g,--,--,7.00,11.67
"Carbohydrate, by difference",g,--,--,30.00,50.00
"Fiber, total dietary",g,--,--,10.0,16.7
"Sugars, total",g,--,--,13.00,21.67
Minerals
"Calcium, Ca",mg,--,--,200,333
"Iron, Fe",mg,--,--,0.24,0.40
"Magnesium, Mg",mg,--,--,5,9
"Phosphorus, P",mg,--,--,67,111
"Potassium, K",mg,--,--,45,75
"Sodium, Na",mg,--,--,190,317
Vitamins
"Vitamin C, total ascorbic acid",mg,--,--,0.0,0.0
"Vitamin A, IU",IU,--,--,0,0
Lipids
"Fatty acids, total saturated",g,--,--,6.000,10.000
"Fatty acids, total trans",g,--,--,0.000,0.000
"Cholesterol",mg,--,--,10,17
Amino Acids
Other
Ingredients
"PROTEIN BLEND (MILK PROTEIN ISOLATE, WHEY PROTEIN ISOLATE), SOLUBLE CORN FIBER (PREBIOTIC FIBER), ALLULOSE**, PALM KERNEL OIL, ERYTHRITOL, BUTTER, WATER. CONTAINS LESS THAN 2% OF THE FOLLOWING: NATURAL FLAVORS, SEA SALT, CINNAMON, BAKING SODA, PALM OIL, CELLULOSE GUM, XANTHAN GUM, CARRAGEENAN, MALIC ACID, COLOR (VEGETABLE JUICE), SUCRALOSE, SUNFLOWER LECITHIN." Date available: 07/14/2017 Date last updated by company: 07/14/2017
