Source: USDA Branded Food Products Database Release December 2017 Software v.3.8.6.4 2017-10-02
Report Run at: December 17, 2017 09:21 EST
"Nutrient data for: 45288263, PROTEIN POWDER, UPC: 791083301213"
Food Group:  Branded Food Products Database
Common Name:

Nutrient,Unit,Data points,Std. Error,"1 SCOOP = 42.0g",1Value per 100 g,
Proximates
"Energy",kcal,--,--,170,405
"Protein",g,--,--,20.00,47.62
"Total lipid (fat)",g,--,--,1.50,3.57
"Carbohydrate, by difference",g,--,--,19.00,45.24
"Fiber, total dietary",g,--,--,0.0,0.0
"Sugars, total",g,--,--,17.00,40.48
Minerals
"Calcium, Ca",mg,--,--,40,95
"Iron, Fe",mg,--,--,3.21,7.65
"Potassium, K",mg,--,--,300,714
"Sodium, Na",mg,--,--,190,452
Vitamins
"Vitamin C, total ascorbic acid",mg,--,--,0.0,0.0
"Vitamin A, IU",IU,--,--,0,0
Lipids
"Fatty acids, total saturated",g,--,--,0.000,0.000
"Fatty acids, total trans",g,--,--,0.000,0.000
"Cholesterol",mg,--,--,0,0
Amino Acids
Other
Ingredients
"SOY PROTEIN ISOLATE, FRUCTOSE, NATURAL AND ARTIFICIAL FLAVORS AND SOY LECITHIN." Date available: 07/14/2017 Date last updated by company: 07/14/2017
