Source: USDA Branded Food Products Database Release December 2017 Software v.3.8.6.4 2017-10-02
Report Run at: December 17, 2017 09:14 EST
"Nutrient data for: 45326904, PROTEIN BAR, UPC: 749826648453"
Food Group:  Branded Food Products Database
Common Name:

Nutrient,Unit,Data points,Std. Error,"1 BAR = 50.0g",1Value per 100 g,
Proximates
"Energy",kcal,--,--,190,380
"Protein",g,--,--,20.00,40.00
"Total lipid (fat)",g,--,--,6.00,12.00
"Carbohydrate, by difference",g,--,--,17.00,34.00
"Fiber, total dietary",g,--,--,1.0,2.0
"Sugars, total",g,--,--,2.00,4.00
Minerals
"Calcium, Ca",mg,--,--,150,300
"Iron, Fe",mg,--,--,0.86,1.73
"Sodium, Na",mg,--,--,180,360
Vitamins
"Vitamin C, total ascorbic acid",mg,--,--,0.0,0.0
"Vitamin A, IU",IU,--,--,0,0
Lipids
"Fatty acids, total saturated",g,--,--,3.500,7.000
"Fatty acids, total trans",g,--,--,0.000,0.000
"Cholesterol",mg,--,--,15,30
Amino Acids
Other
Ingredients
"PROTEIN BLEND (MILK PROTEIN ISOLATE, WHEY PROTEIN CONCENTRATE, WHEY PROTEIN ISOLATE), CHOCOLATE FLAVORED COATING (MALTITOL, FRACTIONATED PALM KERNEL OIL, WHEY PROTEIN CONCENTRATE, COCOA [PROCESSED WITH ALKALI], CALCIUM CARBONATE, NATURAL FLAVORS, SOY LECITHIN, SUCRALOSE), CARAMEL LAYER (MALTITOL SYRUP, NONFAT DRY MILK, HEAVY CREAM [CREAM, MILK, CELLULOSE GEL, MILK SOLIDS, CELLULOSE GUM], WATER, MILK PROTEIN CONCENTRATE, PALM KERNEL OIL, BUTTER, DISODIUM PHOSPHATE, CARAMEL, NATURAL FLAVOR, SOY LECITHIN, CARRAGEENAN), HYDROLYZED COLLAGEN, GLYCERIN, WATER, PEANUTS, NATURAL FLAVORS, SOY CRISPS (SOY PROTEIN ISOLATE, TAPIOCA STARCH, SALT), SUCRALOSE, ALMOND BUTTER." Date available: 10/13/2017 Date last updated by company: 10/13/2017
