Source: USDA Branded Food Products Database Release December 2017 Software v.3.8.6.4 2017-10-02
Report Run at: December 17, 2017 09:17 EST
"Nutrient data for: 45045231, PROTEIN & FIBER HOT OATMEAL, UPC: 753656711898"
Food Group:  Branded Food Products Database
Common Name:

Nutrient,Unit,Data points,Std. Error,"1 PACKET = 50.0g",1Value per 100 g,
Proximates
"Energy",kcal,--,--,190,380
"Protein",g,--,--,10.00,20.00
"Total lipid (fat)",g,--,--,3.50,7.00
"Carbohydrate, by difference",g,--,--,31.00,62.00
"Fiber, total dietary",g,--,--,5.0,10.0
"Sugars, total",g,--,--,9.00,18.00
Minerals
"Calcium, Ca",mg,--,--,22,44
"Iron, Fe",mg,--,--,1.98,3.96
"Sodium, Na",mg,--,--,135,270
Vitamins
"Vitamin C, total ascorbic acid",mg,--,--,0.0,0.0
"Vitamin A, IU",IU,--,--,0,0
Lipids
"Fatty acids, total saturated",g,--,--,0.000,0.000
"Fatty acids, total trans",g,--,--,0.000,0.000
"Cholesterol",mg,--,--,0,0
Amino Acids
Other
Ingredients
"WHOLE GRAIN BLEND (ROLLED OATS, STEEL CUT OATS, RED QUINOA), DRIED CANE SYRUP, ISOLATED SOY PROTEIN, CHICORY ROOT FIBER, NATURAL FLAVORS, ALMONDS, PECANS, SEA SALT, GROUND VANILLA BEANS." Date available: 09/06/2017 Date last updated by company: 09/06/2017
