Source: USDA Branded Food Products Database Release December 2017 Software v.3.8.6.4 2017-10-02
Report Run at: December 17, 2017 09:23 EST
"Nutrient data for: 45144418, PROTEIN SHAKE WITH REAL COFFEE, UPC: 089094035990"
Food Group:  Branded Food Products Database
Common Name:

Nutrient,Unit,Data points,Std. Error,"1 CAN = 240.0g",1Value per 100 g,
Proximates
"Energy",kcal,--,--,101,42
"Protein",g,--,--,16.01,6.67
"Total lipid (fat)",g,--,--,1.49,0.62
"Carbohydrate, by difference",g,--,--,4.99,2.08
"Fiber, total dietary",g,--,--,0.0,0.0
"Sugars, total",g,--,--,4.01,1.67
Minerals
"Calcium, Ca",mg,--,--,451,188
"Iron, Fe",mg,--,--,0.00,0.00
"Sodium, Na",mg,--,--,110,46
Vitamins
"Vitamin C, total ascorbic acid",mg,--,--,0.0,0.0
"Vitamin A, IU",IU,--,--,0,0
Lipids
"Fatty acids, total saturated",g,--,--,1.008,0.420
"Fatty acids, total trans",g,--,--,0.000,0.000
"Cholesterol",mg,--,--,14,6
Amino Acids
Other
Ingredients
"ULTRAFILTERED NONFAT MILK (MILK), REDUCED FAT MILK (MILK), COFFEE (FILTERED WATER, COFFEE), SALT, SODIUM BICARBONATE, SODIUM CITRATE, NATURAL AND ARTIFICIAL FLAVORS, SUCRALOSE, CAFFEINE." Date available: 11/14/2016 Date last updated by company: 11/14/2016
