Source: USDA Branded Food Products Database Release December 2017 Software v.3.8.6.4 2017-10-02
Report Run at: December 17, 2017 09:20 EST
"Nutrient data for: 45203748, PROTEIN PEANUT BUTTER, UPC: 857697005197"
Food Group:  Branded Food Products Database
Common Name:

Nutrient,Unit,Data points,Std. Error,"1 POUCH = 32.0g",1Value per 100 g,
Proximates
"Energy",kcal,--,--,200,625
"Protein",g,--,--,11.00,34.38
"Total lipid (fat)",g,--,--,14.00,43.75
"Carbohydrate, by difference",g,--,--,7.00,21.88
"Fiber, total dietary",g,--,--,5.0,15.6
"Sugars, total",g,--,--,2.00,6.25
Minerals
"Sodium, Na",mg,--,--,0,0
Vitamins
Lipids
"Fatty acids, total saturated",g,--,--,2.000,6.250
"Fatty acids, total trans",g,--,--,0.000,0.000
Amino Acids
Other
Ingredients
"ROASTED PEANUTS, WHEY PROTEIN, DARK CHOCOLATE CHIPS (UNSWEETENED CHOCOLATE, COCOA BUTTER, SOY LECITHIN, VANILLA), COCONUT PALM SUGAR, UNSWEETENED COCOA, COCONUT OIL, CHIA SEED, FLAX SEED." Date available: 11/25/2016 Date last updated by company: 11/25/2016
