Source: USDA Branded Food Products Database Release December 2017 Software v.3.8.6.4 2017-10-02
Report Run at: December 17, 2017 09:15 EST
"Nutrient data for: 45269563, PROTEIN CHIPS, UPC: 859204006116"
Food Group:  Branded Food Products Database
Common Name:

Nutrient,Unit,Data points,Std. Error,"12.0 CHIPS) | (ABOUT = 28.0g",1Value per 100 g,
Proximates
"Energy",kcal,--,--,120,429
"Protein",g,--,--,15.00,53.57
"Total lipid (fat)",g,--,--,4.00,14.29
"Carbohydrate, by difference",g,--,--,7.00,25.00
"Fiber, total dietary",g,--,--,3.0,10.7
"Sugars, total",g,--,--,1.00,3.57
Minerals
"Calcium, Ca",mg,--,--,40,143
"Iron, Fe",mg,--,--,5.04,18.00
"Potassium, K",mg,--,--,200,714
"Sodium, Na",mg,--,--,280,1000
Vitamins
"Vitamin C, total ascorbic acid",mg,--,--,0.0,0.0
"Vitamin A, IU",IU,--,--,50,179
Lipids
"Fatty acids, total saturated",g,--,--,0.000,0.000
"Fatty acids, total trans",g,--,--,0.000,0.000
"Cholesterol",mg,--,--,0,0
Amino Acids
Other
Ingredients
"PEA PROTEIN ISOLATE, POTATO FLAKES, SUNFLOWER OIL, GUAR GUM, SEASONING (SUGAR, BROWN SUGAR, SALT, PAPRIKA, ONION POWDER, RICE FLOUR, TOMATO POWDER, GARLIC POWDER, MOLASSES, NATURAL SMOKE FLAVOR, NATURAL EXTRACTIVES OF PAPRIKA, CITRIC ACID, SPICES)" Date available: 01/13/2017 Date last updated by company: 01/13/2017
