Source: USDA Branded Food Products Database Release December 2017 Software v.3.8.6.4 2017-10-02
Report Run at: December 17, 2017 09:15 EST
"Nutrient data for: 45331228, PROTEIN CEREAL, UPC: 070617206300"
Food Group:  Branded Food Products Database
Common Name:

Nutrient,Unit,Data points,Std. Error,"1 cup = 40.0g",1Value per 100 g,
Proximates
"Energy",kcal,--,--,140,350
"Protein",g,--,--,6.00,15.00
"Total lipid (fat)",g,--,--,1.00,2.50
"Carbohydrate, by difference",g,--,--,30.00,75.00
"Fiber, total dietary",g,--,--,3.0,7.5
"Sugars, total",g,--,--,9.00,22.50
Minerals
"Calcium, Ca",mg,--,--,0,0
"Iron, Fe",mg,--,--,0.90,2.25
"Potassium, K",mg,--,--,100,250
"Sodium, Na",mg,--,--,140,350
Vitamins
"Vitamin D",IU,--,--,0,0
Lipids
"Fatty acids, total saturated",g,--,--,0.000,0.000
"Fatty acids, total monounsaturated",g,--,--,0.000,0.000
"Fatty acids, total polyunsaturated",g,--,--,0.500,1.250
"Fatty acids, total trans",g,--,--,0.000,0.000
"Cholesterol",mg,--,--,0,0
Amino Acids
Other
Ingredients
"WHOLE GRAIN CORN FLOUR, CORN FLOUR, CANE SUGAR, PEA PROTEIN CONCENTRATE, WHOLE GRAIN BLUE CORN FLOUR, SEA SALT, RASPBERRY POWDER, BLUEBERRY POWDER, NATURAL FLAVOR, RED RADISH COLOR, TOCOPHEROLS (ANTIOXIDANTS TO MAINTAIN FRESHNESS)." Date available: 10/13/2017 Date last updated by company: 10/13/2017
