Source: USDA Branded Food Products Database Release December 2017 Software v.3.8.6.4 2017-10-02
Report Run at: December 17, 2017 09:06 EST
"Nutrient data for: 45269514, PROTEIN AND ENERGY BAR, UPC: 862227000221"
Food Group:  Branded Food Products Database
Common Name:

Nutrient,Unit,Data points,Std. Error,"1 BAR = 36.0g",1Value per 100 g,
Proximates
"Energy",kcal,--,--,150,417
"Protein",g,--,--,10.00,27.78
"Total lipid (fat)",g,--,--,7.00,19.44
"Carbohydrate, by difference",g,--,--,14.00,38.89
"Fiber, total dietary",g,--,--,2.0,5.6
"Sugars, total",g,--,--,10.00,27.78
Minerals
"Calcium, Ca",mg,--,--,80,222
"Iron, Fe",mg,--,--,0.40,1.11
"Sodium, Na",mg,--,--,15,42
Vitamins
"Vitamin C, total ascorbic acid",mg,--,--,0.0,0.0
"Vitamin A, IU",IU,--,--,0,0
Lipids
"Fatty acids, total saturated",g,--,--,2.002,5.560
"Fatty acids, total trans",g,--,--,0.000,0.000
"Cholesterol",mg,--,--,0,0
Amino Acids
Other
Ingredients
"DATES, WHEY PROTEIN ISOLATE, PECANS, COCONUT OIL, ORGANIC MAPLE SYRUP, ORGANIC VEGETABLE GLYCERIN, ORGANIC GOLDEN FLAXSEEDS, WHITE CHIA SEEDS, ORGANIC MAPLE FLAVORING." Date available: 07/14/2017 Date last updated by company: 07/14/2017
