Source: USDA Branded Food Products Database Release December 2017 Software v.3.8.6.4 2017-10-02
Report Run at: December 17, 2017 09:14 EST
"Nutrient data for: 45325175, PROTEIN BAR, UPC: 643843715245"
Food Group:  Branded Food Products Database
Common Name:

Nutrient,Unit,Data points,Std. Error,"1 BAR = 72.0g",1Value per 100 g,
Proximates
"Energy",kcal,--,--,290,403
"Protein",g,--,--,30.00,41.67
"Total lipid (fat)",g,--,--,7.00,9.72
"Carbohydrate, by difference",g,--,--,26.00,36.11
"Fiber, total dietary",g,--,--,3.0,4.2
"Sugars, total",g,--,--,11.00,15.28
Minerals
"Calcium, Ca",mg,--,--,100,139
"Iron, Fe",mg,--,--,2.00,2.78
"Phosphorus, P",mg,--,--,111,154
"Potassium, K",mg,--,--,160,222
"Sodium, Na",mg,--,--,420,583
Vitamins
"Vitamin C, total ascorbic acid",mg,--,--,0.0,0.0
"Vitamin A, IU",IU,--,--,0,0
Lipids
"Fatty acids, total saturated",g,--,--,4.003,5.560
"Fatty acids, total trans",g,--,--,0.000,0.000
"Cholesterol",mg,--,--,5,7
Amino Acids
Other
Ingredients
"PREMIER PROTEIN BLEND (SOY PROTEIN ISOLATE, WHEY PROTEIN HYDROLYSATE, WHEY PROTEIN CONCENTRATE), GLYCERIN, HYDROLYZED GELATIN, SUGAR, WATER, INULIN, NONFAT DRY MILK, PALM KERNEL OIL, CASHEWS, CONTAINS 2% OR LESS OF: TAPIOCA STARCH, CANOLA OIL, WHOLE MILK SOLIDS, NATURAL FLAVORS, SALT, SOY LECITHIN, VANILLA EXTRACT, CORN SYRUP, CREAM, COCOA POWDER, STEVIOL GLYCOSIDES (STEVIA LEAF EXTRACT), FRUCTOSE, DISODIUM PHOSPHATE, CARRAGEENAN." Date available: 08/11/2017 Date last updated by company: 08/11/2017
