Source: USDA Branded Food Products Database Release December 2017 Software v.3.8.6.4 2017-10-02
Report Run at: December 17, 2017 09:19 EST
"Nutrient data for: 45263684, PROTEIN MILK BREVERAGE, UPC: 028300004047"
Food Group:  Branded Food Products Database
Common Name:

Nutrient,Unit,Data points,Std. Error,"12.0 OZA = 354.0g",1Value per 100 g,
Proximates
"Energy",kcal,--,--,191,54
"Protein",g,--,--,29.98,8.47
"Total lipid (fat)",g,--,--,4.00,1.13
"Carbohydrate, by difference",g,--,--,12.00,3.39
"Fiber, total dietary",g,--,--,2.8,0.8
"Sugars, total",g,--,--,7.01,1.98
Minerals
"Calcium, Ca",mg,--,--,800,226
"Iron, Fe",mg,--,--,0.25,0.07
"Magnesium, Mg",mg,--,--,18,5
"Phosphorus, P",mg,--,--,67,19
"Potassium, K",mg,--,--,499,141
"Sodium, Na",mg,--,--,251,71
"Zinc, Zn",mg,--,--,0.28,0.08
"Copper, Cu",mg,--,--,0.198,0.056
Vitamins
"Vitamin C, total ascorbic acid",mg,--,--,0.0,0.0
"Riboflavin",mg,--,--,0.170,0.048
"Vitamin A, IU",IU,--,--,510,144
"Vitamin D",IU,--,--,159,45
Lipids
"Fatty acids, total saturated",g,--,--,2.513,0.710
"Fatty acids, total trans",g,--,--,0.000,0.000
"Cholesterol",mg,--,--,35,10
Amino Acids
Other
Ingredients
"WATER, SKIM MILK, MILK PROTEIN CONCENTRATE, CREAM, SOLUBLE CORN FIBER, NATURAL AND ARTIFICIAL FLAVOR, SODIUM HEXAMETAPHOSPHATE, DIPOTASSIUM PHOSPHATE, SALT, SUCRALOSE, CARAMEL COLOR, CARRAGEENAN, LACTASE ENZYME, VITAMIN A PALMITATE AND VITAMIN D3." Date available: 07/14/2017 Date last updated by company: 07/14/2017
