Source: USDA Branded Food Products Database Release December 2017 Software v.3.8.6.4 2017-10-02
Report Run at: December 17, 2017 09:18 EST
"Nutrient data for: 45179749, PROTEIN GRANOLA, UPC: 688267165160"
Food Group:  Branded Food Products Database
Common Name:

Nutrient,Unit,Data points,Std. Error,"0.667 cup = 55.0g",1Value per 100 g,
Proximates
"Energy",kcal,--,--,220,400
"Protein",g,--,--,9.00,16.36
"Total lipid (fat)",g,--,--,6.00,10.91
"Carbohydrate, by difference",g,--,--,34.00,61.82
"Fiber, total dietary",g,--,--,3.0,5.5
"Sugars, total",g,--,--,10.00,18.18
Minerals
"Calcium, Ca",mg,--,--,17,31
"Iron, Fe",mg,--,--,1.00,1.82
"Potassium, K",mg,--,--,118,215
"Sodium, Na",mg,--,--,75,136
Vitamins
"Vitamin C, total ascorbic acid",mg,--,--,0.0,0.0
"Vitamin A, IU",IU,--,--,0,0
"Vitamin D",IU,--,--,0,0
Lipids
"Fatty acids, total saturated",g,--,--,0.501,0.910
"Fatty acids, total monounsaturated",g,--,--,2.998,5.450
"Fatty acids, total polyunsaturated",g,--,--,2.002,3.640
"Fatty acids, total trans",g,--,--,0.000,0.000
"Cholesterol",mg,--,--,0,0
Amino Acids
Other
Ingredients
"WHOLE ROLLED OATS, EVAPORATED CANE SYRUP, SOY PROTEIN, WHOLE ROLLED WHEAT, EXPELLER PRESSED CANOLA OIL, HONEY, HEMP SEEDS, SALT, ALMONDS, COCONUT (UNSULPHURED), VANILLA EXTRACT." Date available: 09/23/2017 Date last updated by company: 09/23/2017
