Source: USDA Branded Food Products Database Release December 2017 Software v.3.8.6.4 2017-10-02
Report Run at: December 17, 2017 09:27 EST
"Nutrient data for: 45099320, PRUNOTTO, BLACK EYE BEANS, UPC: 54078078000599"
Food Group:  Branded Food Products Database
Common Name:

Nutrient,Unit,Data points,Std. Error,"1 cup = 194.0g",1Value per 100 g,
Proximates
"Energy",kcal,--,--,662,341
"Protein",g,--,--,42.00,21.65
"Total lipid (fat)",g,--,--,3.01,1.55
"Carbohydrate, by difference",g,--,--,121.00,62.37
"Fiber, total dietary",g,--,--,28.9,14.9
"Sugars, total",g,--,--,4.00,2.06
Minerals
"Calcium, Ca",mg,--,--,241,124
"Iron, Fe",mg,--,--,6.52,3.36
"Sodium, Na",mg,--,--,10,5
Vitamins
"Vitamin C, total ascorbic acid",mg,--,--,0.0,0.0
"Vitamin A, IU",IU,--,--,0,0
Lipids
"Fatty acids, total saturated",g,--,--,1.009,0.520
Amino Acids
Other
Ingredients
"DRIED BEANS." Date available: 07/14/2017 Date last updated by company: 07/14/2017
