Source: USDA Branded Food Products Database Release December 2017 Software v.3.8.6.4 2017-10-02
Report Run at: December 17, 2017 09:34 EST
"Nutrient data for: 45196169, PUBLIX, UNSWEETENED APPLESAUCE, UPC: 041415088146"
Food Group:  Branded Food Products Database
Common Name:

Nutrient,Unit,Data points,Std. Error,"0.5 cup = 122.0g",1Value per 100 g,
Proximates
"Energy",kcal,--,--,50,41
"Protein",g,--,--,0.00,0.00
"Total lipid (fat)",g,--,--,0.00,0.00
"Carbohydrate, by difference",g,--,--,13.01,10.66
"Fiber, total dietary",g,--,--,2.0,1.6
"Sugars, total",g,--,--,9.00,7.38
Minerals
"Calcium, Ca",mg,--,--,0,0
"Iron, Fe",mg,--,--,0.00,0.00
"Sodium, Na",mg,--,--,10,8
Vitamins
"Vitamin C, total ascorbic acid",mg,--,--,0.7,0.6
"Vitamin A, IU",IU,--,--,0,0
Lipids
"Fatty acids, total saturated",g,--,--,0.000,0.000
"Fatty acids, total trans",g,--,--,0.000,0.000
Amino Acids
Other
Ingredients
"APPLES, WATER, ASCORBIC ACID (TO MAINTAIN COLOR)." Date available: 07/14/2017 Date last updated by company: 07/14/2017
