Source: USDA Branded Food Products Database Release December 2017 Software v.3.8.6.4 2017-10-02
Report Run at: December 17, 2017 09:30 EST
"Nutrient data for: 45173791, PUBLIX BAKERY, CHOCOLATE RASPBERRY CREME CAKE, CHOCOLATE RASPBERRY, UPC: 041415193918"
Food Group:  Branded Food Products Database
Common Name:

Nutrient,Unit,Data points,Std. Error,"1 SLICE = 89.0g",1Value per 100 g,
Proximates
"Energy",kcal,--,--,310,348
"Protein",g,--,--,4.00,4.49
"Total lipid (fat)",g,--,--,22.00,24.72
"Carbohydrate, by difference",g,--,--,26.00,29.21
"Fiber, total dietary",g,--,--,1.0,1.1
"Sugars, total",g,--,--,17.00,19.10
Minerals
"Calcium, Ca",mg,--,--,0,0
"Iron, Fe",mg,--,--,3.03,3.41
"Sodium, Na",mg,--,--,200,225
Vitamins
"Vitamin C, total ascorbic acid",mg,--,--,0.0,0.0
"Vitamin A, IU",IU,--,--,0,0
Lipids
"Fatty acids, total saturated",g,--,--,3.996,4.490
"Fatty acids, total trans",g,--,--,0.000,0.000
"Cholesterol",mg,--,--,85,96
Amino Acids
Other
Ingredients
"SUGAR, EGGS, WATER, BLEACHED WHEAT FLOUR, SOYBEAN OIL, RASPBERRY PUREE, COCOA POWDER PROCESSED WITH ALKALI, VANILLA CRUNCH (ENRICHED FLOUR [WHEAT FLOUR, NIACIN, REDUCE IRON, THIAMINE MONONITRATE, RIBOFLAVIN, FOLIC ACID], SUGAR, VEGETABLE OILS [PALM, MODIFIED PALM], INVERT SUGAR, WATER, GLUCOSE, BAKING POWDER [SODIUM ACID PYROPHOSPHATE, CORNSTARCH, BAKING SODA, MONOCALCIUM PHOSPHATE], MODIFIED FOOD STARCH [CORN], NATURAL FLAVOR, ANNATTO [COLOR]), MOIDIFIED FOOD STARCH (CORN), APPLE JUICED CONCENTRATE, MALTODEXTRIN, WHEY (MILK), SALT, VITAL WHEAT GLUTEN, EMULSIFIER (WATER, CANOLA OIL, MONO AND DIGLYCERIDES, SODIUM STEAROYL LACTYLATE), CORN SYRUP, CORNSTARCH, SODIUM ALUMINUM PHOSPHATE, BAKING SODA, NATURAL AND ARTIFICIAL FLAVORS, GUAR GUM, CALCIUM ACETATE, XANTHAN GUM, WHEAT STARCH, PRESERVATIVES (POTASSIUM SOPRBATE, SODIUM PROPIONATE), GLYCERINE, AGAR, FUMARIC ACID ACID, CITRIC ACID, SOYU LECITHIN, DEXTROSE." Date available: 07/14/2017 Date last updated by company: 07/14/2017
