Source: USDA Branded Food Products Database Release December 2017 Software v.3.8.6.4 2017-10-02
Report Run at: December 17, 2017 09:31 EST
"Nutrient data for: 45174076, PUBLIX DELI, BLACK BEAN HUMMUS, OLIVE OIL AND ROASTED RED PEPPERS, UPC: 041415450622"
Food Group:  Branded Food Products Database
Common Name:

Nutrient,Unit,Data points,Std. Error,"2.0 Tbsp = 29.0g",1Value per 100 g,
Proximates
"Energy",kcal,--,--,45,155
"Protein",g,--,--,1.00,3.45
"Total lipid (fat)",g,--,--,2.50,8.62
"Carbohydrate, by difference",g,--,--,4.00,13.79
"Fiber, total dietary",g,--,--,1.0,3.4
"Sugars, total",g,--,--,0.00,0.00
Minerals
"Calcium, Ca",mg,--,--,40,138
"Iron, Fe",mg,--,--,2.48,8.56
"Sodium, Na",mg,--,--,160,552
Vitamins
"Vitamin C, total ascorbic acid",mg,--,--,2.1,7.1
"Vitamin A, IU",IU,--,--,862,2972
Lipids
"Fatty acids, total saturated",g,--,--,0.000,0.000
"Fatty acids, total trans",g,--,--,0.000,0.000
"Cholesterol",mg,--,--,0,0
Amino Acids
Other
Ingredients
"BLACK BEANS (BLACK BEANS, WATER, SALT, CALCIUM CHLORIDE, FERROUS GLUCONATE), OLIVE OIL, ROASTED RED PEPPERS (RED PEPPERS, RED PEPPER CONCENTRATE [RED PEPPER, SUGAR, POTATO FLOUR, SALT, SMOKE FLAVOR, SPICE, CORN OIL[, GARLIC PUREE [GARLIC, SUGAR, SALT], SALT, CONTAINS LESS THAN 2% PAPRIKA, CITRIC ACID, WATER, SUGAR, TURMERIC [COLOR], XANTHAN GUM, POTASSIUM SORBATE AND SODIUM BENZOATE [PRESERVATIVES]), LEMON JUICE FROM CONCENTRATE (WATER, LEMON JUICE CONCENTRATE, SODIUM BISULFITE AND SODIUM BENZOATE [PRESERVATIVES], LEMON OIL), TAHINI (SESAME SEEDS), MINCED GARLIC (GARLIC, WATER, PHOSPHORIC ACID), SEASONINGS (SALT, SPICES, CITRIC ACID, SODIUM BENZOATE, AND POTASSIUM SORBATE [PRESERVATIVES])." Date available: 07/14/2017 Date last updated by company: 07/14/2017
