Source: USDA Branded Food Products Database Release December 2017 Software v.3.8.6.4 2017-10-02
Report Run at: December 17, 2017 09:38 EST
"Nutrient data for: 45281829, PUDDING SNACK, UPC: 021130513130"
Food Group:  Branded Food Products Database
Common Name:

Nutrient,Unit,Data points,Std. Error,"1 cup = 92.0g",1Value per 100 g,
Proximates
"Energy",kcal,--,--,100,109
"Protein",g,--,--,1.00,1.09
"Total lipid (fat)",g,--,--,2.00,2.17
"Carbohydrate, by difference",g,--,--,20.00,21.74
"Fiber, total dietary",g,--,--,1.0,1.1
"Sugars, total",g,--,--,14.00,15.22
Minerals
"Calcium, Ca",mg,--,--,300,326
"Iron, Fe",mg,--,--,0.78,0.85
"Potassium, K",mg,--,--,85,92
"Sodium, Na",mg,--,--,115,125
Vitamins
"Vitamin C, total ascorbic acid",mg,--,--,0.0,0.0
"Vitamin A, IU",IU,--,--,0,0
Lipids
"Fatty acids, total saturated",g,--,--,1.003,1.090
"Fatty acids, total monounsaturated",g,--,--,1.003,1.090
"Fatty acids, total polyunsaturated",g,--,--,0.000,0.000
"Fatty acids, total trans",g,--,--,0.000,0.000
"Cholesterol",mg,--,--,0,0
Amino Acids
Other
Ingredients
"WATER, NONFAT MILK, SUGAR, MODIFIED CORN STARCH, PALM OIL, LESS THAN 2% OF: COCOA (PROCESSED WITH ALKALI), CALCIUM CARBONATE, SALT, SODIUM STEAROYL LACTYLATE, NATURAL AND ARTIFICIAL FLAVORS, DISODIUM PHOSPHATE, COLORS (TITANIUM DIOXIDE, YELLOW 5, YELLOW 6)." Date available: 07/14/2017 Date last updated by company: 07/14/2017
