Source: USDA Branded Food Products Database Release December 2017 Software v.3.8.6.4 2017-10-02
Report Run at: December 17, 2017 09:38 EST
"Nutrient data for: 45198011, PUDDING, UPC: 071079056304"
Food Group:  Branded Food Products Database
Common Name:

Nutrient,Unit,Data points,Std. Error,"1 PUDDING CUP = 99.0g",1Value per 100 g,
Proximates
"Energy",kcal,--,--,100,101
"Protein",g,--,--,1.00,1.01
"Total lipid (fat)",g,--,--,1.50,1.52
"Carbohydrate, by difference",g,--,--,19.00,19.19
"Fiber, total dietary",g,--,--,0.0,0.0
"Sugars, total",g,--,--,14.00,14.14
Minerals
"Calcium, Ca",mg,--,--,40,40
"Iron, Fe",mg,--,--,0.00,0.00
"Sodium, Na",mg,--,--,110,111
Vitamins
"Vitamin C, total ascorbic acid",mg,--,--,0.0,0.0
"Vitamin A, IU",IU,--,--,0,0
Lipids
"Fatty acids, total saturated",g,--,--,0.000,0.000
"Fatty acids, total monounsaturated",g,--,--,1.000,1.010
"Fatty acids, total polyunsaturated",g,--,--,0.000,0.000
"Fatty acids, total trans",g,--,--,0.000,0.000
"Cholesterol",mg,--,--,0,0
Amino Acids
Other
Ingredients
"NONFAT MILK, WATER, SUGAR, MODIFIED FOOD STARCH, CANOLA OIL, COFFEE EXTRACT*, CONTAINS LESS THAN 1 PERCENT OF: NATURAL AND ARTIFICIAL FLAVORS, CARRAGEENAN, SALT, SODIUM STEAROYL LACTYLATE, COLOR ADDED." Date available: 07/14/2017 Date last updated by company: 07/14/2017
