Source: USDA Branded Food Products Database Release December 2017 Software v.3.8.6.4 2017-10-02
Report Run at: December 17, 2017 09:38 EST
"Nutrient data for: 45221824, PUDDING, UPC: 851146002034"
Food Group:  Branded Food Products Database
Common Name:

Nutrient,Unit,Data points,Std. Error,"1 POUCH = 90.0g",1Value per 100 g,
Proximates
"Energy",kcal,--,--,90,100
"Protein",g,--,--,0.00,0.00
"Total lipid (fat)",g,--,--,1.50,1.67
"Carbohydrate, by difference",g,--,--,20.00,22.22
"Fiber, total dietary",g,--,--,1.0,1.1
"Sugars, total",g,--,--,15.00,16.67
Minerals
"Calcium, Ca",mg,--,--,0,0
"Iron, Fe",mg,--,--,0.40,0.44
"Sodium, Na",mg,--,--,120,133
Vitamins
"Vitamin C, total ascorbic acid",mg,--,--,0.0,0.0
"Vitamin A, IU",IU,--,--,0,0
Lipids
"Fatty acids, total saturated",g,--,--,0.504,0.560
"Fatty acids, total trans",g,--,--,0.000,0.000
"Cholesterol",mg,--,--,0,0
Amino Acids
Other
Ingredients
"WATER, SUGAR, MODIFIED CORNSTARCH, CONTAINS 2% OR LESS OF THE FOLLOWING PALM OIL, COCOA POWDER XANTHAN GUM, NATURAL FLAVORS, SALT, BISULFATE OF SODA (NATURAL ACIDIFIER), COLOR ADDED (TITANIUM DIOXIDE)." Date available: 07/14/2017 Date last updated by company: 07/14/2017
