Source: USDA Branded Food Products Database Release December 2017 Software v.3.8.6.4 2017-10-02
Report Run at: December 17, 2017 09:36 EST
"Nutrient data for: 45136346, PUDDING & PIE FILLING, UPC: 011110673237"
Food Group:  Branded Food Products Database
Common Name:

Nutrient,Unit,Data points,Std. Error,"0.167 PACKAGE = 25.0g",1Value per 100 g,
Proximates
"Energy",kcal,--,--,90,360
"Protein",g,--,--,1.00,4.00
"Total lipid (fat)",g,--,--,0.00,0.00
"Carbohydrate, by difference",g,--,--,22.00,88.00
"Fiber, total dietary",g,--,--,1.0,4.0
"Sugars, total",g,--,--,15.00,60.00
Minerals
"Calcium, Ca",mg,--,--,0,0
"Iron, Fe",mg,--,--,0.00,0.00
"Sodium, Na",mg,--,--,130,520
Vitamins
"Vitamin C, total ascorbic acid",mg,--,--,0.0,0.0
"Vitamin A, IU",IU,--,--,0,0
Lipids
"Fatty acids, total saturated",g,--,--,0.000,0.000
"Fatty acids, total trans",g,--,--,0.000,0.000
"Cholesterol",mg,--,--,0,0
Amino Acids
Other
Ingredients
"SUGAR, DEXTROSE, CORN STARCH, COCOA PROCESSED WITH ALKALI, MODIFIED CORN STARCH, CONTAINS 2% OR LESS OF: SALT, PARTIALLY HYDROGENATED SOYBEAN/COTTONSEED OIL, POLYSORBATE 60, CORN SYRUP SOLIDS, SODIUM CASEINATE, CARRAGEENAN, TETRASODIUM PYROPHOSPHATE, ARTIFICIAL FLAVOR, MALTODEXTRIN, CITRIC ACID, RED 40, YELLOW 5, BLUE 1." Date available: 06/24/2017 Date last updated by company: 06/24/2017
