Source: USDA Branded Food Products Database Release December 2017 Software v.3.8.6.4 2017-10-02
Report Run at: December 17, 2017 09:39 EST
"Nutrient data for: 45203207, PUDD'N POUCHES DAILY PUDDING, UPC: 853021005727"
Food Group:  Branded Food Products Database
Common Name:

Nutrient,Unit,Data points,Std. Error,"1 POUCH = 85.0g",1Value per 100 g,
Proximates
"Energy",kcal,--,--,60,71
"Protein",g,--,--,3.00,3.53
"Total lipid (fat)",g,--,--,1.50,1.76
"Carbohydrate, by difference",g,--,--,9.00,10.59
"Fiber, total dietary",g,--,--,0.0,0.0
"Sugars, total",g,--,--,6.00,7.06
Minerals
"Calcium, Ca",mg,--,--,250,294
"Iron, Fe",mg,--,--,0.00,0.00
"Sodium, Na",mg,--,--,50,59
Vitamins
"Vitamin C, total ascorbic acid",mg,--,--,0.0,0.0
"Vitamin A, IU",IU,--,--,0,0
"Vitamin D",IU,--,--,80,94
Lipids
"Fatty acids, total saturated",g,--,--,1.003,1.180
"Fatty acids, total trans",g,--,--,0.000,0.000
"Cholesterol",mg,--,--,5,6
Amino Acids
Other
Ingredients
"SKIM MILK, CREAM, SUGAR, FOOD STARCH-MODIFIED, LESS THAN 1.5% OF NATURAL FLAVOR, CALCIUM PHOSPHATE, XANTHAN GUM, VEGETABLE (RADISH) AND FRUIT (APPLE, BLACKCURRANT) JUICE FROM CONCENTRATE FOR COLOR, SODIUM CITRATE, REBAUDIOSIDE A, VITAMIN D3." Date available: 07/14/2017 Date last updated by company: 07/14/2017
