Source: USDA Branded Food Products Database Release December 2017 Software v.3.8.6.4 2017-10-02
Report Run at: December 17, 2017 09:36 EST
"Nutrient data for: 45240169, PUDDING & PIE FILLING, UPC: 011110711335"
Food Group:  Branded Food Products Database
Common Name:

Nutrient,Unit,Data points,Std. Error,"0.25 PACKAGE MAKES 0.5 CUP = 7.0g",1Value per 100 g,
Proximates
"Energy",kcal,--,--,25,357
"Protein",g,--,--,0.00,0.00
"Total lipid (fat)",g,--,--,0.00,0.00
"Carbohydrate, by difference",g,--,--,5.00,71.43
"Fiber, total dietary",g,--,--,0.0,0.0
"Sugars, total",g,--,--,0.00,0.00
Minerals
"Calcium, Ca",mg,--,--,0,0
"Iron, Fe",mg,--,--,0.00,0.00
"Sodium, Na",mg,--,--,240,3429
Vitamins
"Vitamin C, total ascorbic acid",mg,--,--,0.0,0.0
"Vitamin A, IU",IU,--,--,0,0
Lipids
"Fatty acids, total saturated",g,--,--,0.000,0.000
"Fatty acids, total trans",g,--,--,0.000,0.000
"Cholesterol",mg,--,--,0,0
Amino Acids
Other
Ingredients
"MODIFIED CORN STARCH, TAPIOCA MALTODEXTRIN*, DISODIUM PHOSPHATE, TETRASODIUM PHOSPHATE, TETRASODIUM PYROPHOSPHATE, NONFAT MILK*, TITANIUM DIOXIDE (FOR COLOR), YELLOW 5, YELLOW 6, NATURAL FLAVOR, CONTAINS 2% OR LESS OF: CELLULOSE GUM, SALT, ASPARTAME**, EMULSIFIER (MONO- AND DIGLYCERIDES), SOY LECITHIN, XANTHAN GUM, ACESULFAME POTASSIUM." Date available: 07/14/2017 Date last updated by company: 07/14/2017
