Source: USDA Branded Food Products Database Release December 2017 Software v.3.8.6.4 2017-10-02
Report Run at: December 17, 2017 09:36 EST
"Nutrient data for: 45062334, PUDDING SNACKS, UPC: 011213088884"
Food Group:  Branded Food Products Database
Common Name:

Nutrient,Unit,Data points,Std. Error,"1 PUDDING CUP = 92.0g",1Value per 100 g,
Proximates
"Energy",kcal,--,--,100,109
"Protein",g,--,--,1.00,1.09
"Total lipid (fat)",g,--,--,2.50,2.72
"Carbohydrate, by difference",g,--,--,18.00,19.57
"Fiber, total dietary",g,--,--,1.0,1.1
"Sugars, total",g,--,--,11.00,11.96
Minerals
"Calcium, Ca",mg,--,--,300,326
"Iron, Fe",mg,--,--,0.00,0.00
"Potassium, K",mg,--,--,40,43
"Sodium, Na",mg,--,--,130,141
Vitamins
"Vitamin C, total ascorbic acid",mg,--,--,0.0,0.0
"Vitamin A, IU",IU,--,--,0,0
Lipids
"Fatty acids, total saturated",g,--,--,1.003,1.090
"Fatty acids, total trans",g,--,--,0.000,0.000
"Cholesterol",mg,--,--,0,0
Amino Acids
Other
Ingredients
"WATER, NONFAT MILK, SUGAR, MODIFIED CORN STARCH, PARTIALLY HYDROGENATED PALM OIL, LESS THAN 2% OF: CALCIUM CARBONATE, SALT, SODIUM STEAROYL LACTYLATE, DISODIUM PHOSPHATE, ARTIFICIAL FLAVOR, NATURAL FLAVOR WITH OTHER NATURAL FLAVORS, COLOR ADDED (INCLUDING YELLOW 5 AND YELLOW 6)." Date available: 07/14/2017 Date last updated by company: 07/14/2017
