Source: USDA Branded Food Products Database Release December 2017 Software v.3.8.6.4 2017-10-02
Report Run at: December 17, 2017 09:37 EST
"Nutrient data for: 45196969, PUDDING SNACKS, UPC: 041735081254"
Food Group:  Branded Food Products Database
Common Name:

Nutrient,Unit,Data points,Std. Error,"1 PUDDING CUP = 92.0g",1Value per 100 g,
Proximates
"Energy",kcal,--,--,110,120
"Protein",g,--,--,1.00,1.09
"Total lipid (fat)",g,--,--,2.50,2.72
"Carbohydrate, by difference",g,--,--,20.00,21.74
"Fiber, total dietary",g,--,--,2.0,2.2
"Sugars, total",g,--,--,13.00,14.13
Minerals
"Calcium, Ca",mg,--,--,300,326
"Iron, Fe",mg,--,--,0.78,0.85
"Potassium, K",mg,--,--,95,103
"Sodium, Na",mg,--,--,115,125
Vitamins
"Vitamin C, total ascorbic acid",mg,--,--,0.0,0.0
"Vitamin A, IU",IU,--,--,0,0
Lipids
"Fatty acids, total saturated",g,--,--,1.003,1.090
"Fatty acids, total trans",g,--,--,0.000,0.000
"Cholesterol",mg,--,--,0,0
Amino Acids
Other
Ingredients
"WATER, NONFAT MILK, SUGAR, MODIFIED CORN STARCH, PARTIALLY HYDROGENATED PALM OIL, COCOA (PROCESSED WITH ALKALI), LESS THAN 2% OF: CALCIUM CARBONATE, SALT, SODIUM STEAROYL LACTYLATE, ARTIFICIAL FLAVOR, COLOR ADDED." Date available: 07/14/2017 Date last updated by company: 07/14/2017
