Source: USDA Branded Food Products Database Release December 2017 Software v.3.8.6.4 2017-10-02
Report Run at: December 17, 2017 09:40 EST
"Nutrient data for: 45216041, PUFFED RING'S, UPC: 028400215725"
Food Group:  Branded Food Products Database
Common Name:

Nutrient,Unit,Data points,Std. Error,"19.0 PIECES | ABOUT = 28.0g",1Value per 100 g,
Proximates
"Energy",kcal,--,--,160,571
"Protein",g,--,--,1.00,3.57
"Total lipid (fat)",g,--,--,10.00,35.71
"Carbohydrate, by difference",g,--,--,14.00,50.00
"Fiber, total dietary",g,--,--,1.0,3.6
"Sugars, total",g,--,--,1.00,3.57
Minerals
"Calcium, Ca",mg,--,--,0,0
"Iron, Fe",mg,--,--,0.72,2.57
"Sodium, Na",mg,--,--,220,786
Vitamins
"Vitamin C, total ascorbic acid",mg,--,--,0.0,0.0
"Vitamin A, IU",IU,--,--,100,357
Lipids
"Fatty acids, total saturated",g,--,--,1.501,5.360
"Fatty acids, total trans",g,--,--,0.000,0.000
"Cholesterol",mg,--,--,0,0
Amino Acids
Other
Ingredients
"ENRICHED CORN MEAL (CORN MEAL, FERROUS SULFATE, NIACIN, THIAMIN MONONITRATE, RIBOFLAVIN, FOLIC ACID), VEGETABLE OIL (SUNFLOWER, CORN AND/OR CANOLA OIL), HONEY BBQ SEASONING (SUGAR, SALT, BROWN SUGAR, ONION POWDER, MONOSODIUM GLUTAMATE, MALTODEXTRIN [MADE FROM CORN], SPICES, TOMATO POWDER, MOLASSES, DEXTROSE, TORULA YEAST, ARTIFICIAL COLOR (YELLOW 5 LAKE, YELLOW 6 LAKE, BLUE 2 LAKE), SUNFLOWER OIL, GARLIC POWDER, LACTOSE, SODIUM DIACETATE, YEAST EXTRACT, CITRIC ACID, HONEY, SKIM MILK, NATURAL AND ARTIFICIAL FLAVORS [INCLUDING NATURAL SMOKE FLAVOR], AND BUTTERMILK)." Date available: 12/31/2016 Date last updated by company: 12/31/2016
