Source: USDA Branded Food Products Database Release December 2017 Software v.3.8.6.4 2017-10-02
Report Run at: December 17, 2017 09:42 EST
"Nutrient data for: 45096116, PUGET SOUND STYLE CLAM CHOWDER WITH BACON, UPC: 030383193884"
Food Group:  Branded Food Products Database
Common Name:

Nutrient,Unit,Data points,Std. Error,"0.5 cup = 123.0g",1Value per 100 g,
Proximates
"Energy",kcal,--,--,189,154
"Protein",g,--,--,6.00,4.88
"Total lipid (fat)",g,--,--,8.00,6.50
"Carbohydrate, by difference",g,--,--,24.00,19.51
"Fiber, total dietary",g,--,--,0.0,0.0
"Sugars, total",g,--,--,4.00,3.25
Minerals
"Calcium, Ca",mg,--,--,41,33
"Iron, Fe",mg,--,--,8.97,7.29
"Sodium, Na",mg,--,--,640,520
Vitamins
"Vitamin C, total ascorbic acid",mg,--,--,18.0,14.6
"Vitamin A, IU",IU,--,--,199,162
Lipids
"Fatty acids, total saturated",g,--,--,0.996,0.810
"Fatty acids, total trans",g,--,--,0.000,0.000
"Cholesterol",mg,--,--,10,8
Amino Acids
Other
Ingredients
"CLAM, SALT, YEAST EXTRACT, FLAVORING, POTATO FLAVOR,SUGAR, ONION POWDER, GARLIC POWDER, HONEY, SODIUM CANOLA OIL, WHEAT FLOUR(WHEAT FLOUR, SUGAR, RIBOFLAVIN, FOLIC ACID), DEHYDRATED ONION, MODIFIED , SUGAR, SALT)." Date available: 06/25/2017 Date last updated by company: 06/25/2017
