Source: USDA Branded Food Products Database Release December 2017 Software v.3.8.6.4 2017-10-02
Report Run at: December 17, 2017 09:44 EST
"Nutrient data for: 45217074, PULLED PORK WITH SMOKIN' HOT MAMA BBQ SAUCE, UPC: 041220331437"
Food Group:  Branded Food Products Database
Common Name:

Nutrient,Unit,Data points,Std. Error,"0.5 cup = 124.0g",1Value per 100 g,
Proximates
"Energy",kcal,--,--,270,218
"Protein",g,--,--,12.00,9.68
"Total lipid (fat)",g,--,--,16.00,12.90
"Carbohydrate, by difference",g,--,--,20.00,16.13
"Fiber, total dietary",g,--,--,1.0,0.8
"Sugars, total",g,--,--,18.00,14.52
Minerals
"Calcium, Ca",mg,--,--,20,16
"Iron, Fe",mg,--,--,0.48,0.39
"Potassium, K",mg,--,--,410,331
"Sodium, Na",mg,--,--,760,613
Vitamins
"Vitamin C, total ascorbic acid",mg,--,--,0.0,0.0
"Vitamin A, IU",IU,--,--,222,179
Lipids
"Fatty acids, total saturated",g,--,--,4.997,4.030
"Fatty acids, total trans",g,--,--,0.000,0.000
"Cholesterol",mg,--,--,45,36
Amino Acids
Other
Ingredients
"SMOKED PORK (PORK, WATER, CONTAINS 2% OR LESS SEA SALT, EVAPORATED CANE SYRUP, NATURAL FLAVORINGS, BAKING SODA), BARBEQUE SAUCE (SUGAR, APPLE CIDER VINEGAR, TOMATO PASTE, SOY SAUCE [WATER, WHEAT, SOYBEANS, SALT] LIQUID BROWN SUGAR [SUGAR, INVERT SUGAR, MOLASSES], SPICES, DRIED ONION, DRIED GARLIC, YELLOW MUSTARD [VINEGAR, MUSTARD SEED, SALT, TUMERIC, SPICES], DRIED CHIPOTLE CHILI PEPPERS, LEMON JUICE CONCENTRATE)." Date available: 07/14/2017 Date last updated by company: 07/14/2017
