Source: USDA Branded Food Products Database Release December 2017 Software v.3.8.6.4 2017-10-02
Report Run at: December 17, 2017 09:43 EST
"Nutrient data for: 45197080, PULLED PORK, UPC: 042804219530"
Food Group:  Branded Food Products Database
Common Name:

Nutrient,Unit,Data points,Std. Error,"0.33 cup = 85.0g",1Value per 100 g,
Proximates
"Energy",kcal,--,--,200,235
"Protein",g,--,--,12.00,14.12
"Total lipid (fat)",g,--,--,16.00,18.82
"Carbohydrate, by difference",g,--,--,2.00,2.35
"Fiber, total dietary",g,--,--,0.0,0.0
"Sugars, total",g,--,--,1.00,1.18
Minerals
"Calcium, Ca",mg,--,--,20,24
"Iron, Fe",mg,--,--,0.72,0.85
"Sodium, Na",mg,--,--,490,576
Vitamins
"Vitamin C, total ascorbic acid",mg,--,--,0.0,0.0
"Vitamin A, IU",IU,--,--,100,118
Lipids
"Fatty acids, total saturated",g,--,--,6.001,7.060
"Fatty acids, total trans",g,--,--,0.000,0.000
"Cholesterol",mg,--,--,50,59
Amino Acids
Other
Ingredients
"PORK WATER, 2% OR LESS SEA SALT, EVAPORATED CANE JUICE, NATURAL FLAVORINGS, BAKING SODA." Date available: 09/07/2017 Date last updated by company: 09/07/2017
