Source: USDA Branded Food Products Database Release December 2017 Software v.3.8.6.4 2017-10-02
Report Run at: December 17, 2017 09:48 EST
"Nutrient data for: 45266050, PUMPKIN PEANUT BUTTER CUPS, UPC: 041269591793"
Food Group:  Branded Food Products Database
Common Name:

Nutrient,Unit,Data points,Std. Error,"39.0 GRM = 39.0g",1Value per 100 g,
Proximates
"Energy",kcal,--,--,230,590
"Protein",g,--,--,2.00,5.13
"Total lipid (fat)",g,--,--,12.00,30.77
"Carbohydrate, by difference",g,--,--,24.00,61.54
"Fiber, total dietary",g,--,--,1.0,2.6
"Sugars, total",g,--,--,22.00,56.41
Minerals
"Calcium, Ca",mg,--,--,20,51
"Iron, Fe",mg,--,--,0.46,1.18
"Sodium, Na",mg,--,--,45,115
Vitamins
"Vitamin C, total ascorbic acid",mg,--,--,0.0,0.0
"Vitamin A, IU",IU,--,--,0,0
Lipids
"Fatty acids, total saturated",g,--,--,10.000,25.640
"Cholesterol",mg,--,--,0,0
Amino Acids
Other
Ingredients
"SUGAR, HYDROGENATED VEGETABLE OIL (PALM KERNEL ANDIOR PALM), GROUND PEANUTS, WHEY, LACTOSE, SKIM MILK, COCOA (PROCESSED WITH ALKALI), PEANUT FLOUR, SOY LECITHIN, SORBITOL (EMULSIFIER), SALT, VANILLIN (ARTIFICIAL FLAVOR), U.S. CERTIFIED COLORS (FD&C BLUE #1, BLUE #2, RED #40, YELLOW #6 LAKES;AND RED #3)" Date available: 07/14/2017 Date last updated by company: 07/14/2017
