Source: USDA Branded Food Products Database Release December 2017 Software v.3.8.6.4 2017-10-02
Report Run at: December 17, 2017 09:51 EST
"Nutrient data for: 45179874, PUMPKIN POUND CAKE, UPC: 810893027172"
Food Group:  Branded Food Products Database
Common Name:

Nutrient,Unit,Data points,Std. Error,"0.333 CAKE = 76.0g",1Value per 100 g,
Proximates
"Energy",kcal,--,--,240,316
"Protein",g,--,--,3.00,3.95
"Total lipid (fat)",g,--,--,9.00,11.84
"Carbohydrate, by difference",g,--,--,37.00,48.68
"Fiber, total dietary",g,--,--,1.0,1.3
"Sugars, total",g,--,--,21.00,27.63
Minerals
"Calcium, Ca",mg,--,--,20,26
"Iron, Fe",mg,--,--,1.89,2.49
"Sodium, Na",mg,--,--,260,342
Vitamins
"Vitamin C, total ascorbic acid",mg,--,--,0.0,0.0
"Thiamin",mg,--,--,0.000,0.000
"Riboflavin",mg,--,--,0.136,0.179
"Niacin",mg,--,--,0.842,1.108
"Vitamin A, IU",IU,--,--,0,0
Lipids
"Fatty acids, total saturated",g,--,--,3.504,4.610
"Fatty acids, total trans",g,--,--,0.000,0.000
"Cholesterol",mg,--,--,15,20
Amino Acids
Other
Ingredients
"POUND CAKE: SUGAR, BLEACHED WHEAT FLOUR (WHEAT FLOUR, THIAMINE MONONITRATE, RIBOLFLAVIN, NIACIN, IRON, FOLIC ACID), WATER, VEGETABLE SHORTENING (PALM OIL AND SOYBEAN OIL WITH PROPYLENE GLYCOL MONDESTERS, MONO- AND DIGLYCERIDES, SOYBEAN LECITHIN), DEXTROSE, DRY WHOLE EGGS, SOY FLOUR, SWEET WHEY (MILK), SALT, MODIFIED FOOD STARCH, BAKING POWDER (SODIUM ACID PYROPHOSPHATE, BAKING SODA, MONO CALCIUM PHOSPHATE),DRY EGG ALBUMEN, DRY NONFAT MILK, NATURAL AND ARTIFICIAL FLAVORS, GUAR GUM, WHEAT GLUTEN, CELLULOSE GUM, XANTHAN GUM, CORN SYRUP SOLIDS, ALGIN, SODIUM CASEINATE (MILK), POTASSIUM SORBATE AND SODIUM PROPIONATE ADDED TO RETARD SPOILAGE, EXTRACTS OF ANNATTO AND TURMERIC, FD&C YELLOW #5, FD&C YELLOW #6." Date available: 10/10/2017 Date last updated by company: 10/10/2017
