Source: USDA Branded Food Products Database Release December 2017 Software v.3.8.6.4 2017-10-02
Report Run at: December 17, 2017 09:49 EST
"Nutrient data for: 45216277, PUMPKIN PIE ALMONDS, UPC: 095248804152"
Food Group:  Branded Food Products Database
Common Name:

Nutrient,Unit,Data points,Std. Error,"1 ONZ = 28.0g",1Value per 100 g,
Proximates
"Energy",kcal,--,--,160,571
"Protein",g,--,--,2.00,7.14
"Total lipid (fat)",g,--,--,0.00,0.00
"Carbohydrate, by difference",g,--,--,15.00,53.57
"Fiber, total dietary",g,--,--,1.0,3.6
"Sugars, total",g,--,--,13.00,46.43
Minerals
"Calcium, Ca",mg,--,--,40,143
"Iron, Fe",mg,--,--,0.64,2.29
"Sodium, Na",mg,--,--,25,89
Vitamins
"Vitamin C, total ascorbic acid",mg,--,--,0.0,0.0
"Vitamin A, IU",IU,--,--,0,0
Lipids
"Fatty acids, total saturated",g,--,--,6.000,21.430
"Fatty acids, total trans",g,--,--,0.000,0.000
"Cholesterol",mg,--,--,0,0
Amino Acids
Other
Ingredients
"CONFECTIONERY COATING (SUGAR, PALM KERNEL OIL, NONFAT DRY MILK SOLIDS, WHOLE MILK SOLIDS, SOY LECITHIN-AN EMULSIFIER, NATURAL FLAVOR, SALT), ALMONDS, GROUND CINNAMON, TAPIOCA DEXTRIN, GROUND GINGER, CONFECTIONERS GLAZE, GROUND NUTMEG, COCOA BUTTER OIL, FD&C YELLOW 6 LAKE AND GROUND CLOVES." Date available: 08/10/2017 Date last updated by company: 08/10/2017
