Source: USDA Branded Food Products Database Release December 2017 Software v.3.8.6.4 2017-10-02
Report Run at: December 17, 2017 09:48 EST
"Nutrient data for: 45192859, PUMPKIN MUFFINS, UPC: 851083005129"
Food Group:  Branded Food Products Database
Common Name:

Nutrient,Unit,Data points,Std. Error,"1 MUFFIN = 70.0g",1Value per 100 g,
Proximates
"Energy",kcal,--,--,209,299
"Protein",g,--,--,1.00,1.43
"Total lipid (fat)",g,--,--,9.00,12.86
"Carbohydrate, by difference",g,--,--,32.00,45.71
"Fiber, total dietary",g,--,--,1.0,1.4
"Sugars, total",g,--,--,21.00,30.00
Minerals
"Calcium, Ca",mg,--,--,10,14
"Iron, Fe",mg,--,--,0.28,0.40
"Sodium, Na",mg,--,--,300,429
Vitamins
"Vitamin C, total ascorbic acid",mg,--,--,9.4,13.5
"Vitamin A, IU",IU,--,--,1572,2245
Lipids
"Fatty acids, total saturated",g,--,--,1.001,1.430
"Fatty acids, total trans",g,--,--,0.000,0.000
"Cholesterol",mg,--,--,0,0
Amino Acids
Other
Ingredients
"GLUTEN-FREE FLOUR (SORGHUM, GARBANZO BEAN, WHITE RICE, TAPIOCA FLOUR, POTATO STARCH), CANE SUGAR (VEGAN), PUMPKIN PUREE, NON-GMO CANOLA OIL, UNSULPHURED MOLASSES, WATER, EGG REPLACER, CINNAMON, GINGER, NUTMEG, SODIUM BICARBONATE, XANTHAN GUM, SEA SALT, CLOVES, ASCORBIC ACID." Date available: 07/14/2017 Date last updated by company: 07/14/2017
