Source: USDA Branded Food Products Database Release December 2017 Software v.3.8.6.4 2017-10-02
Report Run at: December 17, 2017 09:48 EST
"Nutrient data for: 45331767, PUMPKIN FUDGE, UPC: 029405025289"
Food Group:  Branded Food Products Database
Common Name:

Nutrient,Unit,Data points,Std. Error,"2.0 -1/4"""" X 3/4"""" X 1"""" SQ.) | ABOUT = 42.0g",1Value per 100 g,
Proximates
"Energy",kcal,--,--,180,429
"Protein",g,--,--,0.00,0.00
"Total lipid (fat)",g,--,--,7.00,16.67
"Carbohydrate, by difference",g,--,--,29.00,69.05
"Fiber, total dietary",g,--,--,0.0,0.0
"Sugars, total",g,--,--,24.00,57.14
Minerals
"Calcium, Ca",mg,--,--,40,95
"Iron, Fe",mg,--,--,0.00,0.00
"Sodium, Na",mg,--,--,70,167
Vitamins
"Vitamin C, total ascorbic acid",mg,--,--,0.0,0.0
"Vitamin A, IU",IU,--,--,1191,2835
Lipids
"Fatty acids, total saturated",g,--,--,6.002,14.290
"Fatty acids, total trans",g,--,--,0.000,0.000
"Cholesterol",mg,--,--,5,12
Amino Acids
Other
Ingredients
"SUGAR, PUMPKIN, HYDROGENATED PALM KERNEL OIL WITH SOY LECITHIN, BUTTER (CREAM [MILK], SALT), CORN SYRUPS SOLIDS, BROWN SUGAR, NONFAT DRY MILK SOLIDS, CREAM (MILK) POWDER, SORBITOL, WATER, SALT, CINNAMON, NATURAL & ARTIFICIAL FLAVOR, POTASSIUM SORBATE (PRESERVATIVE), GINGER, CLOVES, VANILLA (WATER, PROPYLENE GLYCOL, ETHYL ALCHOL, ARTIFICIAL FLAVORS, CARAMEL COLOR)." Date available: 10/13/2017 Date last updated by company: 10/13/2017
