Source: USDA Branded Food Products Database Release December 2017 Software v.3.8.6.4 2017-10-02
Report Run at: December 17, 2017 09:48 EST
"Nutrient data for: 45167000, PUMPKIN MUFFIN & BREAD ALMOND FLOUR MIX, UPC: 856069005018"
Food Group:  Branded Food Products Database
Common Name:

Nutrient,Unit,Data points,Std. Error,"1 MUFFIN OR 1 SLICE OF BREAD = 21.0g",1Value per 100 g,
Proximates
"Energy",kcal,--,--,90,429
"Protein",g,--,--,2.00,9.52
"Total lipid (fat)",g,--,--,3.00,14.29
"Carbohydrate, by difference",g,--,--,14.00,66.67
"Fiber, total dietary",g,--,--,2.0,9.5
"Sugars, total",g,--,--,6.00,28.57
Minerals
"Calcium, Ca",mg,--,--,40,190
"Iron, Fe",mg,--,--,1.37,6.53
"Magnesium, Mg",mg,--,--,228,1088
"Sodium, Na",mg,--,--,135,643
"Copper, Cu",mg,--,--,0.080,0.381
"Manganese, Mn",mg,--,--,0.210,1.000
Vitamins
"Vitamin C, total ascorbic acid",mg,--,--,6.9,32.7
"Vitamin A, IU",IU,--,--,190,907
Lipids
"Fatty acids, total saturated",g,--,--,0.000,0.000
"Fatty acids, total trans",g,--,--,0.000,0.000
"Cholesterol",mg,--,--,0,0
Amino Acids
Other
Ingredients
"ALMOND FLOUR, ORGANIC COCONUT SUGAR, PUMPKIN, ARROWROOT, ORGANIC COCONUT FLOUR, ORGANIC SPICES, (CINNAMON, NUTMEG, CLOVES), BAKING SODA, SEA SALT." Date available: 07/14/2017 Date last updated by company: 07/14/2017
