Source: USDA Branded Food Products Database Release December 2017 Software v.3.8.6.4 2017-10-02
Report Run at: December 17, 2017 09:55 EST
"Nutrient data for: 45269238, PUMPKIN SPICE, UPC: 852965001123"
Food Group:  Branded Food Products Database
Common Name:

Nutrient,Unit,Data points,Std. Error,"1 COOKIE | ABOUT = 33.0g",1Value per 100 g,
Proximates
"Energy",kcal,--,--,130,394
"Protein",g,--,--,1.00,3.03
"Total lipid (fat)",g,--,--,5.00,15.15
"Carbohydrate, by difference",g,--,--,20.00,60.61
"Fiber, total dietary",g,--,--,0.0,0.0
"Sugars, total",g,--,--,11.00,33.33
Minerals
"Calcium, Ca",mg,--,--,0,0
"Iron, Fe",mg,--,--,1.09,3.31
"Sodium, Na",mg,--,--,70,212
Vitamins
"Vitamin C, total ascorbic acid",mg,--,--,0.0,0.0
"Vitamin A, IU",IU,--,--,0,0
Lipids
"Fatty acids, total saturated",g,--,--,1.502,4.550
"Fatty acids, total trans",g,--,--,0.000,0.000
"Cholesterol",mg,--,--,0,0
Amino Acids
Other
Ingredients
"UNBLEACHED WHEAT FLOUR, BROWN SUGAR, NON-HYDROGENATED VEGETABLE OIL (PALM, CANOLA, OLIVE, NATURAL FLAVOR, SUNFLOWER LECTHIN, NON-DAIRY LACTIC ACID, AND ANNATTO EXTRACT), NATURAL VANILLA, PUMPKIN PIE SPICE (CINNAMON, GINGER, NUTMEG, AND CLOVES), ALUMINUM FREE BAKING POWDER, BAKING SODA, SALT, AND XANTHAN GUM." Date available: 07/14/2017 Date last updated by company: 07/14/2017
