Source: USDA Branded Food Products Database Release December 2017 Software v.3.8.6.4 2017-10-02
Report Run at: December 17, 2017 09:55 EST
"Nutrient data for: 45192490, PUMPKIN TARTS, UPC: 770981098746"
Food Group:  Branded Food Products Database
Common Name:

Nutrient,Unit,Data points,Std. Error,"3.0 TARTS = 85.0g",1Value per 100 g,
Proximates
"Energy",kcal,--,--,290,341
"Protein",g,--,--,4.00,4.71
"Total lipid (fat)",g,--,--,15.00,17.65
"Carbohydrate, by difference",g,--,--,36.00,42.35
"Fiber, total dietary",g,--,--,1.0,1.2
"Sugars, total",g,--,--,17.00,20.00
Minerals
"Calcium, Ca",mg,--,--,20,24
"Iron, Fe",mg,--,--,0.94,1.10
"Sodium, Na",mg,--,--,75,88
Vitamins
"Vitamin C, total ascorbic acid",mg,--,--,0.8,0.9
"Vitamin A, IU",IU,--,--,1132,1332
Lipids
"Fatty acids, total saturated",g,--,--,6.001,7.060
"Fatty acids, total trans",g,--,--,0.000,0.000
"Cholesterol",mg,--,--,45,53
Amino Acids
Other
Ingredients
"ENRICHED WHEAT FLOUR (WHEAT FLOUR, NIACIN, REDUCED IRON, THIAMINE MONONITRATE, RIBOFLAVIN, FOLIC ACID), SUGAR, SHORTENING (PALM, SOYBEAN AND MODIFIED PALM OIL), PUMPKIN, EGG, SWEETENED CONDENSED MILK, WATER, SOYBEAN OIL, DEXTROSE, GLUCOSE, MARGARINE [SOYBEAN AND MODIFIED PALM OIL, WATER, SALT, WHEY POWDER, SOYBEAN LECTHIN, MONOGLYCERIDES, NATURAL FLAVOR, VITAMIN A PALMITATE, VITAMIN D3, COLOR (ANNATTO)], MODIFIED CORN STARCH, VINEGAR, SPICES, COLOR (BETA CAROTENE), SALT, POTASSIUM SORBATE (PRESERVATIVE), SOYBEAN LECITHIN, XANTHAN GUM, CAROB BEAN GUM, GUAR GUM." Date available: 07/14/2017 Date last updated by company: 07/14/2017
