Source: USDA Branded Food Products Database Release December 2017 Software v.3.8.6.4 2017-10-02
Report Run at: December 17, 2017 09:47 EST
"Nutrient data for: 45328198, PUMPKIN CREME PIE, UPC: 011110540249"
Food Group:  Branded Food Products Database
Common Name:

Nutrient,Unit,Data points,Std. Error,"0.125 PIE = 152.0g",1Value per 100 g,
Proximates
"Energy",kcal,--,--,430,283
"Protein",g,--,--,5.00,3.29
"Total lipid (fat)",g,--,--,21.99,14.47
"Carbohydrate, by difference",g,--,--,54.01,35.53
"Fiber, total dietary",g,--,--,2.0,1.3
"Sugars, total",g,--,--,39.00,25.66
Minerals
"Calcium, Ca",mg,--,--,100,66
"Iron, Fe",mg,--,--,0.88,0.58
"Sodium, Na",mg,--,--,330,217
Vitamins
"Vitamin C, total ascorbic acid",mg,--,--,0.0,0.0
"Vitamin A, IU",IU,--,--,246,162
Lipids
"Fatty acids, total saturated",g,--,--,11.993,7.890
"Fatty acids, total trans",g,--,--,0.000,0.000
"Cholesterol",mg,--,--,40,26
Amino Acids
Other
Ingredients
"PUMPKIN, WHIPPED TOPPING (WATER, NON-HYDROGENATED PALM KERNEL OIL, SUGAR, NON-HYDROGENATED COCONUT OIL, SODIUM CASEINATE, NATURAL FLAVOR, POLYSORBATE 60, SORBITAN MONOSTEARATE, XANTHAN GUM, GUAR GUM, BETA CAROTENE FOR COLOR), SUGAR, WATER, ENRICHED FLOUR (WHEAT FLOUR, NIACIN, REDUCED IRON, THIAMINE MONONITRATE, RIBOFLAVIN, FOLIC ACID), EGGS, VEGETABLE OIL (PALM, SOYBEAN), NONFAT DRY MILK FORTIFIED WITH VITAMINS A AND D, BROWN SUGAR, WHIPPING CREAM (CREAM, SUGAR, SKIM MILK, INVERT SYRUP, MODIFIED CORN STARCH, CRYSTALLINE CELLULOSE, XANTHAN GUM, CARRAGEENAN, ARTIFICIAL FLAVOR, POLYSORBATE 80), VEGETABLE OIL (SOYBEAN AND/OR COTTONSEED), INVERT SUGAR, MODIFIED CORN STARCH, SALT, STABILIZER (SUGAR, CORN STARCH, CAROB BEAN GUM, CELLULOSE GUM, AGAR, SALT), POTASSIUM SORBATE (PRESERVATIVE), CINNAMON WITH ARTIFICIAL FLAVOR, NUTMEG, DEXTROSE, GINGER, XANTHAN GUM, ANNATTO EXTRACT AND TURMERIC AS COLOR, CALCIUM PROPIONATE TO RETARD SPOILAGE." Date available: 10/13/2017 Date last updated by company: 10/13/2017
