Source: USDA Branded Food Products Database Release December 2017 Software v.3.8.6.4 2017-10-02
Report Run at: December 17, 2017 09:57 EST
"Nutrient data for: 45165655, PURALOE, ALOE VERA WITH PULP, UPC: 683849100607"
Food Group:  Branded Food Products Database
Common Name:

Nutrient,Unit,Data points,Std. Error,"240.0 MLT = 240.0g",1Value per 100 g,
Proximates
"Energy",kcal,--,--,98,41
"Protein",g,--,--,0.00,0.00
"Total lipid (fat)",g,--,--,0.00,0.00
"Carbohydrate, by difference",g,--,--,24.00,10.00
"Fiber, total dietary",g,--,--,1.0,0.4
"Sugars, total",g,--,--,24.00,10.00
Minerals
"Calcium, Ca",mg,--,--,91,38
"Sodium, Na",mg,--,--,34,14
Vitamins
"Vitamin C, total ascorbic acid",mg,--,--,20.4,8.5
Lipids
"Fatty acids, total saturated",g,--,--,0.000,0.000
"Fatty acids, total trans",g,--,--,0.000,0.000
"Cholesterol",mg,--,--,0,0
Amino Acids
Other
Ingredients
"PURIFIED WATER, ALOE VERA PULPS (GEL) (>15%), SUGAR, CALCIUM LACTATE (E327), CITRIC ACID(E330), SODIUM CITRATE (E331), GELLAN GUM(E418), VITAMIN C(E300), GRAPE FLAVOR." Date available: 07/14/2017 Date last updated by company: 07/14/2017
