Source: USDA Branded Food Products Database Release December 2017 Software v.3.8.6.4 2017-10-02
Report Run at: December 17, 2017 10:41 EST
"Nutrient data for: 45288305, PURE WHEY PROTEIN POWDER, UPC: 791083649681"
Food Group:  Branded Food Products Database
Common Name:

Nutrient,Unit,Data points,Std. Error,"1 POUCH = 42.0g",1Value per 100 g,
Proximates
"Energy",kcal,--,--,160,381
"Protein",g,--,--,30.00,71.43
"Total lipid (fat)",g,--,--,2.50,5.95
"Carbohydrate, by difference",g,--,--,5.00,11.90
"Fiber, total dietary",g,--,--,1.0,2.4
"Sugars, total",g,--,--,2.00,4.76
Minerals
"Calcium, Ca",mg,--,--,200,476
"Iron, Fe",mg,--,--,0.43,1.02
"Potassium, K",mg,--,--,220,524
"Sodium, Na",mg,--,--,160,381
Vitamins
"Vitamin C, total ascorbic acid",mg,--,--,0.0,0.0
"Vitamin A, IU",IU,--,--,0,0
Lipids
"Fatty acids, total saturated",g,--,--,1.499,3.570
"Fatty acids, total trans",g,--,--,0.000,0.000
"Cholesterol",mg,--,--,100,238
Amino Acids
Other
Ingredients
"WHEY PROTEIN CONCENTRATE; LESS THAN 2% OF: ARTIFICIAL FLAVOR, SALT, SOY LECITHIN, CARRAGEENAN, XANTHAN GUM, CALCIUM SILICATE, ACESULFAME POTASSIUM AND SUCRALOSE." Date available: 07/14/2017 Date last updated by company: 07/14/2017
