Source: USDA Branded Food Products Database Release December 2017 Software v.3.8.6.4 2017-10-02
Report Run at: December 17, 2017 10:25 EST
"Nutrient data for: 45239049, PURE MAPLE SYRUP, UPC: 041318210552"
Food Group:  Branded Food Products Database
Common Name:

Nutrient,Unit,Data points,Std. Error,"0.25 cup = 60.0g",1Value per 100 g,
Proximates
"Energy",kcal,--,--,220,367
"Protein",g,--,--,0.00,0.00
"Total lipid (fat)",g,--,--,0.00,0.00
"Carbohydrate, by difference",g,--,--,53.00,88.33
"Sugars, total",g,--,--,52.00,86.67
Minerals
"Calcium, Ca",mg,--,--,20,33
"Sodium, Na",mg,--,--,5,8
Vitamins
Lipids
Amino Acids
Other
Ingredients
"100% PURE MAPLE SYRUP." Date available: 07/14/2017 Date last updated by company: 07/14/2017
