Source: USDA Branded Food Products Database Release December 2017 Software v.3.8.6.4 2017-10-02
Report Run at: December 17, 2017 10:10 EST
"Nutrient data for: 45105793, PURE DARK COCOA, UPC: 850840001114"
Food Group:  Branded Food Products Database
Common Name:

Nutrient,Unit,Data points,Std. Error,"1 SERVING = 19.0g",1Value per 100 g,
Proximates
"Energy",kcal,--,--,120,632
"Protein",g,--,--,1.00,5.26
"Total lipid (fat)",g,--,--,11.00,57.89
"Carbohydrate, by difference",g,--,--,5.00,26.32
"Fiber, total dietary",g,--,--,3.0,15.8
"Sugars, total",g,--,--,2.00,10.53
Minerals
"Calcium, Ca",mg,--,--,20,105
"Iron, Fe",mg,--,--,3.79,19.94
"Sodium, Na",mg,--,--,15,79
Vitamins
"Vitamin C, total ascorbic acid",mg,--,--,0.0,0.0
"Vitamin A, IU",IU,--,--,0,0
Lipids
"Fatty acids, total saturated",g,--,--,7.000,36.840
"Fatty acids, total trans",g,--,--,0.000,0.000
"Cholesterol",mg,--,--,5,26
Amino Acids
Other
Ingredients
"ORGANIC CACAO BUTTER, ORGANIC CACAO POWDER, ORGANIC AGAVE, ORGANIC COCONUT OIL AND ORGANIC VANILLA." Date available: 06/25/2017 Date last updated by company: 06/25/2017
