Source: USDA Branded Food Products Database Release December 2017 Software v.3.8.6.4 2017-10-02
Report Run at: December 17, 2017 10:20 EST
"Nutrient data for: 45172961, PURE JOY, CINNAMON BREAD, UPC: 040232143823"
Food Group:  Branded Food Products Database
Common Name:

Nutrient,Unit,Data points,Std. Error,"1 SLICE = 57.0g",1Value per 100 g,
Proximates
"Energy",kcal,--,--,190,333
"Protein",g,--,--,4.00,7.02
"Total lipid (fat)",g,--,--,7.00,12.28
"Carbohydrate, by difference",g,--,--,29.00,50.88
"Fiber, total dietary",g,--,--,1.0,1.8
"Sugars, total",g,--,--,14.00,24.56
Minerals
"Calcium, Ca",mg,--,--,20,35
"Iron, Fe",mg,--,--,0.31,0.55
"Sodium, Na",mg,--,--,180,316
Vitamins
"Vitamin C, total ascorbic acid",mg,--,--,0.0,0.0
"Vitamin A, IU",IU,--,--,88,154
Lipids
"Fatty acids, total saturated",g,--,--,2.502,4.390
"Fatty acids, total trans",g,--,--,0.000,0.000
"Cholesterol",mg,--,--,30,53
Amino Acids
Other
Ingredients
"ENRICHED UNBLEACHED WHEAT FLOUR (WHEAT FLOUR, BARLEY FLOUR, NIACIN, REDUCED IRON, THIAMIN MONONITRATE, RIBOFLAVIN, FOLIC ACID), GRANULATED SUGAR, WATER, EGGS, MARGARINE, BUTTER, CANOLA OIL, YEAST, NONFAT DRY MILK, GROUND CINNAMON, SALT." Date available: 07/14/2017 Date last updated by company: 07/14/2017
