Source: USDA Branded Food Products Database Release December 2017 Software v.3.8.6.4 2017-10-02
Report Run at: December 17, 2017 10:42 EST
"Nutrient data for: 45167870, PURE WHOLE MILK GREEK YOGURT + PEARS AND HONEY, UPC: 818290010148"
Food Group:  Branded Food Products Database
Common Name:

Nutrient,Unit,Data points,Std. Error,"1 CONTAINER = 150.0g",1Value per 100 g,
Proximates
"Energy",kcal,--,--,140,93
"Protein",g,--,--,10.99,7.33
"Total lipid (fat)",g,--,--,5.00,3.33
"Carbohydrate, by difference",g,--,--,13.99,9.33
"Fiber, total dietary",g,--,--,1.1,0.7
"Sugars, total",g,--,--,10.99,7.33
Minerals
"Calcium, Ca",mg,--,--,150,100
"Iron, Fe",mg,--,--,0.00,0.00
"Potassium, K",mg,--,--,180,120
"Sodium, Na",mg,--,--,64,43
Vitamins
"Vitamin C, total ascorbic acid",mg,--,--,0.0,0.0
"Vitamin A, IU",IU,--,--,226,151
Lipids
"Fatty acids, total saturated",g,--,--,3.000,2.000
"Fatty acids, total trans",g,--,--,0.000,0.000
"Cholesterol",mg,--,--,26,17
Amino Acids
Other
Ingredients
"YOGURT (CULTURED PASTEURIZED NONFAT MILK, CREAM), PEARS, WATER, EVAPORATED CANE SUGAR, HONEY, NATURAL FLAVORS, FRUIT PECTIN, LOCUST BEAN GUM, LEMON JUICE CONCENTRATE. CONTAINS LIVE AND ACTIVE CULTURES: S. THERMOPHILUS, L. BULGARICUS, L. ACIDOPHILUS, BIFIDUS AND L. CASEI." Date available: 07/15/2017 Date last updated by company: 07/15/2017
