Source: USDA Branded Food Products Database Release December 2017 Software v.3.8.6.4 2017-10-02
Report Run at: December 17, 2017 10:33 EST
"Nutrient data for: 45066759, PURE PROTEIN, PROTEIN POWDER, RICH CHOCOLATE, UPC: 749826443256"
Food Group:  Branded Food Products Database
Common Name:

Nutrient,Unit,Data points,Std. Error,"1 SCOOP = 42.0g",1Value per 100 g,
Proximates
"Energy",kcal,--,--,170,405
"Protein",g,--,--,25.00,59.52
"Total lipid (fat)",g,--,--,3.00,7.14
"Carbohydrate, by difference",g,--,--,10.00,23.81
"Fiber, total dietary",g,--,--,1.0,2.4
"Sugars, total",g,--,--,2.00,4.76
Minerals
"Calcium, Ca",mg,--,--,200,476
"Iron, Fe",mg,--,--,0.68,1.63
"Magnesium, Mg",mg,--,--,23,54
"Phosphorus, P",mg,--,--,95,227
"Potassium, K",mg,--,--,260,619
"Sodium, Na",mg,--,--,190,452
Vitamins
"Vitamin C, total ascorbic acid",mg,--,--,0.0,0.0
"Vitamin A, IU",IU,--,--,0,0
Lipids
"Fatty acids, total saturated",g,--,--,1.499,3.570
"Fatty acids, total trans",g,--,--,0.000,0.000
"Cholesterol",mg,--,--,80,190
Amino Acids
Other
Ingredients
"PROTEIN BLEND (ULTRAFILTERED WHEY PROTEIN CONCENTRATE [WHICH CONTAINS BETA-LACTOGLOBULIN, ALPHA-LACTALBUMIN AND GLYCOMACROPEPTIDES], MICROFILTERED WHEY PROTEIN ISOLATE), MALTODEXTRIN, COCOA (PROCESSED WITH ALKALI), NATURAL AND ARTIFICIAL FLAVORS, SOY LECITHIN, XANTHAN GUM, CELLULOSE GUM, SALT, DICALCIUM PHOSPHATE, CALCIUM CARBONATE, ACESULFAME POTASSIUM, SUCRALOSE." Date available: 07/14/2017 Date last updated by company: 07/14/2017
