Source: USDA Branded Food Products Database Release December 2017 Software v.3.8.6.4 2017-10-02
Report Run at: December 17, 2017 10:23 EST
"Nutrient data for: 45202411, PURELY SIMPLE SALAD TOPPER, UPC: 819944010828"
Food Group:  Branded Food Products Database
Common Name:

Nutrient,Unit,Data points,Std. Error,"0.25 cup = 30.0g",1Value per 100 g,
Proximates
"Energy",kcal,--,--,150,500
"Protein",g,--,--,5.00,16.67
"Total lipid (fat)",g,--,--,10.00,33.33
"Carbohydrate, by difference",g,--,--,11.00,36.67
"Fiber, total dietary",g,--,--,3.0,10.0
"Sugars, total",g,--,--,5.00,16.67
Minerals
"Calcium, Ca",mg,--,--,60,200
"Iron, Fe",mg,--,--,2.40,8.00
"Sodium, Na",mg,--,--,0,0
Vitamins
"Vitamin C, total ascorbic acid",mg,--,--,0.0,0.0
"Vitamin A, IU",IU,--,--,0,0
Lipids
"Fatty acids, total saturated",g,--,--,0.999,3.330
"Fatty acids, total monounsaturated",g,--,--,3.999,13.330
"Fatty acids, total polyunsaturated",g,--,--,4.500,15.000
"Fatty acids, total trans",g,--,--,0.000,0.000
"Cholesterol",mg,--,--,0,0
Amino Acids
Other
Ingredients
"ORGANIC SHELLED PUMPKIN SEEDS, ORGANIC DRIED CRANBERRIES (ORGANIC CRANBERRIES, ORGANIC DRIED CANE SYRUP, ORGANIC SUNFLOWER OIL), ORGANIC SUNFLOWER SEEDS, ORGANIC FLAX SEEDS, ORGANIC CHIA SEEDS, ORGANIC ALMONDS, ORGANIC DRIED APPLES, ORGANIC PECANS." Date available: 07/14/2017 Date last updated by company: 07/14/2017
