Source: USDA Branded Food Products Database Release December 2017 Software v.3.8.6.4 2017-10-02
Report Run at: December 17, 2017 10:42 EST
"Nutrient data for: 45081199, PURE WHITE SUGAR FREE GUM, UPC: 073390014124"
Food Group:  Branded Food Products Database
Common Name:

Nutrient,Unit,Data points,Std. Error,"1 PIECE = 2.0g",1Value per 100 g,
Proximates
"Energy",kcal,--,--,5,250
"Protein",g,--,--,0.00,0.00
"Total lipid (fat)",g,--,--,0.00,0.00
"Carbohydrate, by difference",g,--,--,1.50,75.00
"Sugars, total",g,--,--,0.00,0.00
Minerals
"Sodium, Na",mg,--,--,5,250
Vitamins
Lipids
Amino Acids
Other
Ingredients
"XYLITOL, CHEWING GUM BASE, SORBITOL, MANNITOL, GLYCEROL, MALTITOL SYRUP; CONTAINS LESS THAN 2 PERCENT OF: NATURAL AND ARTIFICIAL FLAVORS, RICE STARCH, SODIUM TRIPOLYPHOSPHATE, MALTODEXTRIN, ASPARTAME, SUCROSE ESTERS OF FATTY ACIDS, SOYA LECITHIN, ACESULFAME K, SODIUM CARBOXYMETHYLCELLULOSE, XANTHAN GUM, GUM ARABIC, CARNAUBA WAX, BHT TO MAINTAIN FRESHNESS, SUCRALOSE, BLUE 1 LAKE." Date available: 08/11/2017 Date last updated by company: 08/11/2017
