Source: USDA Branded Food Products Database Release December 2017 Software v.3.8.6.4 2017-10-02
Report Run at: December 17, 2017 10:46 EST
"Nutrient data for: 45117979, PURO, CORN MEAL COARSE, UPC: 744994003837"
Food Group:  Branded Food Products Database
Common Name:

Nutrient,Unit,Data points,Std. Error,"3.0 Tbsp = 31.0g",1Value per 100 g,
Proximates
"Energy",kcal,--,--,110,355
"Protein",g,--,--,2.00,6.45
"Total lipid (fat)",g,--,--,0.00,0.00
"Carbohydrate, by difference",g,--,--,24.00,77.42
"Fiber, total dietary",g,--,--,1.0,3.2
"Sugars, total",g,--,--,0.00,0.00
Minerals
"Iron, Fe",mg,--,--,1.74,5.62
"Sodium, Na",mg,--,--,0,0
Vitamins
"Thiamin",mg,--,--,0.310,1.000
"Riboflavin",mg,--,--,0.102,0.329
"Niacin",mg,--,--,1.936,6.245
Lipids
"Fatty acids, total saturated",g,--,--,0.000,0.000
"Cholesterol",mg,--,--,0,0
Amino Acids
Other
Ingredients
"CORN MEAL, IRON, NIACIN, THIAMINE, RIBOFLAVIN AND FOLIC ACID." Date available: 06/25/2017 Date last updated by company: 06/25/2017
