Source: USDA Branded Food Products Database Release December 2017 Software v.3.8.6.4 2017-10-02
Report Run at: December 17, 2017 10:46 EST
"Nutrient data for: 45038403, PURPLE COW, BLENDED LOWFAT YOGURT, ORANGE CREAM, UPC: 708820427945"
Food Group:  Branded Food Products Database
Common Name:

Nutrient,Unit,Data points,Std. Error,"1 CONTAINER = 170.0g",1Value per 100 g,
Proximates
"Energy",kcal,--,--,150,88
"Protein",g,--,--,5.00,2.94
"Total lipid (fat)",g,--,--,1.50,0.88
"Carbohydrate, by difference",g,--,--,30.00,17.65
"Fiber, total dietary",g,--,--,0.0,0.0
"Sugars, total",g,--,--,25.01,14.71
Minerals
"Calcium, Ca",mg,--,--,500,294
"Iron, Fe",mg,--,--,0.00,0.00
"Phosphorus, P",mg,--,--,299,176
"Potassium, K",mg,--,--,250,147
"Sodium, Na",mg,--,--,80,47
Vitamins
"Vitamin C, total ascorbic acid",mg,--,--,0.0,0.0
"Riboflavin",mg,--,--,0.255,0.150
"Pantothenic acid",mg,--,--,0.399,0.235
"Vitamin A, IU",IU,--,--,1000,588
"Vitamin D",IU,--,--,80,47
Lipids
"Fatty acids, total saturated",g,--,--,1.003,0.590
"Fatty acids, total trans",g,--,--,0.000,0.000
"Cholesterol",mg,--,--,5,3
Amino Acids
Other
Ingredients
"CULTURED PASTEURIZED GRADE A LOW FAT MILK, SUGAR, WATER, MODIFIED FOOD STARCH, CALCIUM PHOSPHATE, NATURAL FLAVOR, ORANGE PULP, ORANGE JUICE CONCENTRATE, VEGETABLE JUICE (COLOR), ANNATTO EXTRACT COLOR, PECTIN, CARRAGEENAN, CITRIC ACID, POTASSIUM SORBATE (TO MAINTAIN FRESHNESS), ORANGE OIL, VITAMIN A PALMITATE, VITAMIN D3." Date available: 06/24/2017 Date last updated by company: 06/24/2017
