Source: USDA Branded Food Products Database Release December 2017 Software v.3.8.6.4 2017-10-02
Report Run at: December 17, 2017 10:48 EST
"Nutrient data for: 45235920, PURPLE POWER JUICE, UPC: 753792002690"
Food Group:  Branded Food Products Database
Common Name:

Nutrient,Unit,Data points,Std. Error,"8.0 OZA = 240.0g",1Value per 100 g,
Proximates
"Energy",kcal,--,--,120,50
"Protein",g,--,--,0.00,0.00
"Total lipid (fat)",g,--,--,0.00,0.00
"Carbohydrate, by difference",g,--,--,28.99,12.08
"Sugars, total",g,--,--,28.99,12.08
Minerals
"Sodium, Na",mg,--,--,14,6
Vitamins
"Vitamin C, total ascorbic acid",mg,--,--,72.0,30.0
"Vitamin A, IU",IU,--,--,499,208
Lipids
Amino Acids
Other
Ingredients
"100% JUICE FROM APPLE, PURPLE CARROT, RASPBERRY, PINEAPPLE, BLACKBERRY, BLUEBERRY AND PEAR JUICE CONCENTRATES (FILTERED WATER AND JUICE CONCENTRATES), NATURAL FLAVORS, CITRIC ACID, ASCORBIC ACID (VITAMIN C), VEGETABLE COLOR, XANTHAN GUM, GRAPE SKIN EXTRACT, VITAMIN A PALMITATE, VITAMIN E ACETATE." Date available: 06/25/2017 Date last updated by company: 06/25/2017
