Source: USDA Branded Food Products Database Release December 2017 Software v.3.8.6.4 2017-10-02
Report Run at: December 17, 2017 10:50 EST
"Nutrient data for: 45161797, Q DRINKS, GINGER ALE, UPC: 851694003262"
Food Group:  Branded Food Products Database
Common Name:

Nutrient,Unit,Data points,Std. Error,"1 CAN = 355.0g",1Value per 100 g,
Proximates
"Energy",kcal,--,--,89,25
"Protein",g,--,--,0.00,0.00
"Total lipid (fat)",g,--,--,0.00,0.00
"Carbohydrate, by difference",g,--,--,21.02,5.92
"Sugars, total",g,--,--,21.02,5.92
Minerals
"Sodium, Na",mg,--,--,4,1
Vitamins
Lipids
Amino Acids
Other
Ingredients
"CARBONATED WATER. ORGANIC AGAVE. GINGER EXTRACT. EXTRACTS OF CORIANDER, CARDAMOM, CAYENNE, ORANGE PEEL AND ROSE OIL. CITRIC ACID." Date available: 07/14/2017 Date last updated by company: 07/14/2017
