Source: USDA Branded Food Products Database Release December 2017 Software v.3.8.6.4 2017-10-02
Report Run at: December 17, 2017 10:51 EST
"Nutrient data for: 45211249, QUADRATINI BITE SIZE WAFER COOKIES, UPC: 076580005964"
Food Group:  Branded Food Products Database
Common Name:

Nutrient,Unit,Data points,Std. Error,"8.0 COOKIES = 29.0g",1Value per 100 g,
Proximates
"Energy",kcal,--,--,150,517
"Protein",g,--,--,2.00,6.90
"Total lipid (fat)",g,--,--,8.00,27.59
"Carbohydrate, by difference",g,--,--,19.00,65.52
"Fiber, total dietary",g,--,--,2.0,6.9
"Sugars, total",g,--,--,8.00,27.59
Minerals
"Calcium, Ca",mg,--,--,0,0
"Iron, Fe",mg,--,--,1.24,4.28
"Sodium, Na",mg,--,--,25,86
Vitamins
"Vitamin C, total ascorbic acid",mg,--,--,0.0,0.0
"Vitamin A, IU",IU,--,--,0,0
Lipids
"Fatty acids, total saturated",g,--,--,6.000,20.690
"Fatty acids, total trans",g,--,--,0.000,0.000
"Cholesterol",mg,--,--,0,0
Amino Acids
Other
Ingredients
"UNBLEACHED WHEAT FLOUR, EXPELLER PRESSED COCONUT OIL, GLUCOSE SYRUP (WHEAT), SUGAR, COCOA, DEXTROSE WHEY POWDER (MILK), SOY FLOUR, SWEET CHOCOLATE 5% IN THE CREAM (CHOCOLATE LIQUOR, SUGAR), SKIMMED MILK POWDER, BARLEY MALT EXTRACT, SALT, LEAVENING AGENTS (SODIUM HYDROGEN CARBONATE, DISODIUM DIPHOSPHATE), EMULSIFIER SOY LECITHIN, HAZELNUTS, NATURAL VANILLA PODS." Date available: 07/14/2017 Date last updated by company: 07/14/2017
