Source: USDA Branded Food Products Database Release December 2017 Software v.3.8.6.4 2017-10-02
Report Run at: December 17, 2017 10:53 EST
"Nutrient data for: 45078674, QUARK SOFT CHEESE, UPC: 040817010021"
Food Group:  Branded Food Products Database
Common Name:

Nutrient,Unit,Data points,Std. Error,"0.5 cup = 110.0g",1Value per 100 g,
Proximates
"Energy",kcal,--,--,90,82
"Protein",g,--,--,11.00,10.00
"Total lipid (fat)",g,--,--,3.00,2.73
"Carbohydrate, by difference",g,--,--,5.00,4.55
"Fiber, total dietary",g,--,--,0.0,0.0
"Sugars, total",g,--,--,0.00,0.00
Minerals
"Calcium, Ca",mg,--,--,80,73
"Iron, Fe",mg,--,--,0.00,0.00
"Sodium, Na",mg,--,--,30,27
Vitamins
"Vitamin C, total ascorbic acid",mg,--,--,0.0,0.0
"Vitamin A, IU",IU,--,--,0,0
Lipids
"Fatty acids, total saturated",g,--,--,2.002,1.820
"Fatty acids, total trans",g,--,--,0.000,0.000
"Cholesterol",mg,--,--,10,9
Amino Acids
Other
Ingredients
"PASTEURIZED LOW FAT MILK, CULTURE, VEGETABLE RENNET, POTASSIUM SORBATE" Date available: 07/14/2017 Date last updated by company: 07/14/2017
