Source: USDA Branded Food Products Database Release December 2017 Software v.3.8.6.4 2017-10-02
Report Run at: December 17, 2017 10:55 EST
"Nutrient data for: 45215715, QUEEN OLIVES STUFFED WITH ALMONDS, UPC: 078742062648"
Food Group:  Branded Food Products Database
Common Name:

Nutrient,Unit,Data points,Std. Error,"3.0 PIECES = 15.0g",1Value per 100 g,
Proximates
"Energy",kcal,--,--,35,233
"Protein",g,--,--,1.00,6.67
"Total lipid (fat)",g,--,--,3.00,20.00
"Carbohydrate, by difference",g,--,--,1.00,6.67
Minerals
"Sodium, Na",mg,--,--,210,1400
Vitamins
Lipids
Amino Acids
Other
Ingredients
"GREEN OLIVES, WATER, ALMONDS, SEA SALT, CITRIC ACID, ASCORBIC ACID PRESERVATIVE." Date available: 10/19/2017 Date last updated by company: 10/19/2017
