Source: USDA Branded Food Products Database Release December 2017 Software v.3.8.6.4 2017-10-02
Report Run at: December 17, 2017 11:02 EST
"Nutrient data for: 45009822, QUICK GRITS, UPC: 036800134645"
Food Group:  Branded Food Products Database
Common Name:

Nutrient,Unit,Data points,Std. Error,"1 CUP PREPARED | MAKES = 37.0g",1Value per 100 g,
Proximates
"Energy",kcal,--,--,130,351
"Protein",g,--,--,3.00,8.11
"Total lipid (fat)",g,--,--,0.50,1.35
"Carbohydrate, by difference",g,--,--,29.00,78.38
"Fiber, total dietary",g,--,--,2.0,5.4
"Sugars, total",g,--,--,0.00,0.00
Minerals
"Iron, Fe",mg,--,--,1.56,4.21
"Sodium, Na",mg,--,--,0,0
Vitamins
"Thiamin",mg,--,--,0.000,0.000
"Riboflavin",mg,--,--,0.102,0.276
"Niacin",mg,--,--,1.730,4.676
Lipids
"Fatty acids, total saturated",g,--,--,0.000,0.000
"Fatty acids, total monounsaturated",g,--,--,0.000,0.000
"Fatty acids, total polyunsaturated",g,--,--,0.000,0.000
"Fatty acids, total trans",g,--,--,0.000,0.000
Amino Acids
Other
Ingredients
"WHITE HOMINY GRITS MADE FROM CORN, NIACIN*, REDUCED IRON, THIAMIN MONONITRATE*, RIBOFLAVIN*, FOLIC ACID*" Date available: 06/24/2017 Date last updated by company: 06/24/2017
