Source: USDA Branded Food Products Database Release December 2017 Software v.3.8.6.4 2017-10-02
Report Run at: December 17, 2017 11:10 EST
"Nutrient data for: 45065000, QUINOA WHOLE GRAIN BLEND, UPC: 859331002142"
Food Group:  Branded Food Products Database
Common Name:

Nutrient,Unit,Data points,Std. Error,"0.33 cup = 50.0g",1Value per 100 g,
Proximates
"Energy",kcal,--,--,180,360
"Protein",g,--,--,5.00,10.00
"Total lipid (fat)",g,--,--,2.00,4.00
"Carbohydrate, by difference",g,--,--,34.00,68.00
"Fiber, total dietary",g,--,--,3.0,6.0
"Sugars, total",g,--,--,1.00,2.00
Minerals
"Calcium, Ca",mg,--,--,20,40
"Iron, Fe",mg,--,--,1.29,2.59
"Sodium, Na",mg,--,--,490,980
Vitamins
"Vitamin C, total ascorbic acid",mg,--,--,0.0,0.0
"Vitamin A, IU",IU,--,--,0,0
Lipids
"Fatty acids, total saturated",g,--,--,0.000,0.000
"Fatty acids, total trans",g,--,--,0.000,0.000
"Cholesterol",mg,--,--,0,0
Amino Acids
Other
Ingredients
"PARBOILED BROWN RICE, QUINOA, MILLET, AUTOLYZED YEAST, SEA SALT, BLACK PEPPER, HERBS*." Date available: 07/14/2017 Date last updated by company: 07/14/2017
