Source: USDA Branded Food Products Database Release December 2017 Software v.3.8.6.4 2017-10-02
Report Run at: December 17, 2017 11:09 EST
"Nutrient data for: 45216415, QUINOA SMOOTHIE WITH STRAWBERRY, UPC: 0610079399587"
Food Group:  Branded Food Products Database
Common Name:

Nutrient,Unit,Data points,Std. Error,"1 BOTTLE = 283.0g",1Value per 100 g,
Proximates
"Energy",kcal,--,--,150,53
"Protein",g,--,--,3.00,1.06
"Total lipid (fat)",g,--,--,1.50,0.53
"Carbohydrate, by difference",g,--,--,35.01,12.37
"Fiber, total dietary",g,--,--,3.1,1.1
"Sugars, total",g,--,--,20.01,7.07
Minerals
"Calcium, Ca",mg,--,--,20,7
"Iron, Fe",mg,--,--,0.91,0.32
"Sodium, Na",mg,--,--,17,6
Vitamins
Lipids
"Fatty acids, total saturated",g,--,--,0.000,0.000
"Fatty acids, total trans",g,--,--,0.000,0.000
"Cholesterol",mg,--,--,0,0
Amino Acids
Other
Ingredients
"PURIFIED WATER, ORGANIC GLUTEN-FREE QUINOA FLOUR, ORGANIC AGAVE, ORGANIC STRAWBERRY JUICE CONCENTRATE, NATURAL FLAVORS." Date available: 10/19/2017 Date last updated by company: 10/19/2017
