Source: USDA Branded Food Products Database Release December 2017 Software v.3.8.6.4 2017-10-02
Report Run at: December 17, 2017 11:09 EST
"Nutrient data for: 45219928, QUINOA SALAD, UPC: 085239025703"
Food Group:  Branded Food Products Database
Common Name:

Nutrient,Unit,Data points,Std. Error,"1 CONTAINER = 170.0g",1Value per 100 g,
Proximates
"Energy",kcal,--,--,350,206
"Protein",g,--,--,12.00,7.06
"Total lipid (fat)",g,--,--,5.00,2.94
"Carbohydrate, by difference",g,--,--,62.00,36.47
"Fiber, total dietary",g,--,--,6.0,3.5
"Sugars, total",g,--,--,8.01,4.71
Minerals
"Calcium, Ca",mg,--,--,80,47
"Iron, Fe",mg,--,--,6.66,3.92
"Sodium, Na",mg,--,--,830,488
Vitamins
"Vitamin C, total ascorbic acid",mg,--,--,3.9,2.3
"Vitamin A, IU",IU,--,--,330,194
Lipids
"Fatty acids, total saturated",g,--,--,1.496,0.880
"Fatty acids, total trans",g,--,--,0.000,0.000
"Cholesterol",mg,--,--,5,3
Amino Acids
Other
Ingredients
"QUINOA, DRESSING (WATER, HIGH FRUCTOSE CORN SYRUP, VINEGAR, SALT, DEHYDRATED GARLIC, SOYBEAN OIL, MODIFIED CORN STARCH, DEHYDRATED ONION, XANTHAN GUM, DEHYDRATED RED BELL PEPPER, SODIUM BENZOATE [PRESERVATIVE], SORBIC ACID, CONCENTRATED LEMON JUICE, SPICES, CARAMEL COLOR, CALCIUM DISODIUM EDTA [PRESERVATIVE], YELLOW 6 [COLOR]), BLACK BEANS (WATER, BLACK BEANS, SALT), CHICKPEAS (CHICKPEAS, WATER, SALT, DISODIUM EDTA [PRESERVATIVE]), RED BEANS (RED BEANS, WATER, SALT, CALCIUM CHLORIDE, AND CALCIUM DISODIUM EDTA [PRESERVATIVE]), FETA CHEESE (CULTURED PASTEURIZED MILK, SALT, ENZYMES, POTATO STARCH [ANTI CAKING]), PARSLEY, BASIL, SUGAR, POTASSIUM SORBATE AND SODIUM BENZOATE (PRESERVATIVES)." Date available: 07/14/2017 Date last updated by company: 07/14/2017
