Source: USDA Branded Food Products Database Release December 2017 Software v.3.8.6.4 2017-10-02
Report Run at: December 17, 2017 11:09 EST
"Nutrient data for: 45257929, QUINOA SALAD WITH PIQUILLO PEPPER, UPC: 681131123020"
Food Group:  Branded Food Products Database
Common Name:

Nutrient,Unit,Data points,Std. Error,"0.5 cup = 105.0g",1Value per 100 g,
Proximates
"Energy",kcal,--,--,100,95
"Protein",g,--,--,2.00,1.90
"Total lipid (fat)",g,--,--,5.00,4.76
"Carbohydrate, by difference",g,--,--,11.00,10.48
"Fiber, total dietary",g,--,--,2.0,1.9
"Sugars, total",g,--,--,3.00,2.86
Minerals
"Calcium, Ca",mg,--,--,40,38
"Iron, Fe",mg,--,--,1.44,1.37
"Sodium, Na",mg,--,--,320,305
Vitamins
"Vitamin C, total ascorbic acid",mg,--,--,0.0,0.0
"Vitamin A, IU",IU,--,--,0,0
Lipids
"Fatty acids, total saturated",g,--,--,0.000,0.000
"Fatty acids, total trans",g,--,--,0.000,0.000
"Cholesterol",mg,--,--,0,0
Amino Acids
Other
Ingredients
"PIQUILLO PEPPER, WATER, WHITE QUINOA, WHITE ONION, TOMATO PULP, SUNFLOWER OIL, GREEN PEPPER, LEMON JUICE, SALT, PEPPERMINT, LACTIC ACID (TO CONTROL PH VALUE), CITRIC ACID (TO CONTROL PH VALUE), BLACK PEPPER POWDER." Date available: 07/14/2017 Date last updated by company: 07/14/2017
