Source: USDA Branded Food Products Database Release December 2017 Software v.3.8.6.4 2017-10-02
Report Run at: December 17, 2017 11:07 EST
"Nutrient data for: 45200016, QUINOA & CORN CHILI, UPC: 655516151533"
Food Group:  Branded Food Products Database
Common Name:

Nutrient,Unit,Data points,Std. Error,"0.333 C DRY MIX ONLY = 30.0g",1Value per 100 g,
Proximates
"Energy",kcal,--,--,100,333
"Protein",g,--,--,4.00,13.33
"Total lipid (fat)",g,--,--,2.00,6.67
"Carbohydrate, by difference",g,--,--,18.00,60.00
"Fiber, total dietary",g,--,--,6.0,20.0
"Sugars, total",g,--,--,3.00,10.00
Minerals
"Calcium, Ca",mg,--,--,40,133
"Iron, Fe",mg,--,--,3.00,10.00
"Sodium, Na",mg,--,--,25,83
Vitamins
"Vitamin C, total ascorbic acid",mg,--,--,90.0,300.0
"Vitamin A, IU",IU,--,--,2500,8333
Lipids
"Fatty acids, total saturated",g,--,--,0.000,0.000
"Fatty acids, total trans",g,--,--,0.000,0.000
"Cholesterol",mg,--,--,0,0
Amino Acids
Other
Ingredients
"QUINOA, CORN, RED & GREEN BELL PEPPERS, TOMATOES, ONIONS, CUMIN, CHILI, GARLIC, PAPRIKA, CAYENNE" Date available: 07/14/2017 Date last updated by company: 07/14/2017
