Source: USDA Branded Food Products Database Release December 2017 Software v.3.8.6.4 2017-10-02
Report Run at: December 17, 2017 11:10 EST
"Nutrient data for: 45267215, QUINOA WITH KALE, BROWN RICE, RED QUINOA, GARLIC AND OLIVE OIL, UPC: 078742158235"
Food Group:  Branded Food Products Database
Common Name:

Nutrient,Unit,Data points,Std. Error,"1 cup = 127.0g",1Value per 100 g,
Proximates
"Energy",kcal,--,--,180,142
"Protein",g,--,--,5.00,3.94
"Total lipid (fat)",g,--,--,5.00,3.94
"Carbohydrate, by difference",g,--,--,30.00,23.62
"Fiber, total dietary",g,--,--,2.0,1.6
"Sugars, total",g,--,--,4.00,3.15
Minerals
"Calcium, Ca",mg,--,--,60,47
"Iron, Fe",mg,--,--,1.21,0.95
"Potassium, K",mg,--,--,271,213
"Sodium, Na",mg,--,--,300,236
Vitamins
"Vitamin C, total ascorbic acid",mg,--,--,10.0,7.9
"Vitamin A, IU",IU,--,--,1171,922
Lipids
"Fatty acids, total saturated",g,--,--,1.003,0.790
"Fatty acids, total monounsaturated",g,--,--,2.502,1.970
"Fatty acids, total polyunsaturated",g,--,--,1.003,0.790
"Fatty acids, total trans",g,--,--,0.000,0.000
"Cholesterol",mg,--,--,0,0
Amino Acids
Other
Ingredients
"COOKED WHITE QUINOA, COOKED BROWN RICE, KALE, COOKED RED QUINOA, GARLIC, EXTRA VIRGIN OLIVE OIL, LEMON JUICE, COCONUT PALM SUGAR, SEA SALT, BLACK PEPPER." Date available: 07/14/2017 Date last updated by company: 07/14/2017
