Source: USDA Branded Food Products Database Release December 2017 Software v.3.8.6.4 2017-10-02
Report Run at: December 17, 2017 11:08 EST
"Nutrient data for: 45268007, QUINOA & KALE GRAIN BOWL WITH CHICKEN, UPC: 688267173578"
Food Group:  Branded Food Products Database
Common Name:

Nutrient,Unit,Data points,Std. Error,"1 BOWL = 255.0g",1Value per 100 g,
Proximates
"Energy",kcal,--,--,291,114
"Protein",g,--,--,13.01,5.10
"Total lipid (fat)",g,--,--,4.49,1.76
"Carbohydrate, by difference",g,--,--,42.00,16.47
"Fiber, total dietary",g,--,--,4.1,1.6
"Sugars, total",g,--,--,1.99,0.78
Minerals
"Calcium, Ca",mg,--,--,79,31
"Iron, Fe",mg,--,--,1.38,0.54
"Sodium, Na",mg,--,--,421,165
Vitamins
"Vitamin C, total ascorbic acid",mg,--,--,27.5,10.8
"Vitamin A, IU",IU,--,--,2295,900
Lipids
"Fatty acids, total saturated",g,--,--,0.995,0.390
"Fatty acids, total trans",g,--,--,0.000,0.000
"Cholesterol",mg,--,--,20,8
Amino Acids
Other
Ingredients
"COOKED BROWN RICE (WATER, BROWN RICE), BROCCOLI, TOMATOES, KALE, CHICKEN (CHICKEN BREAST, WATER, RICE STARCH, CANOLA OIL, SALT, GARLIC, LEMON JUICE), COOKED WHITE QUINOA (WATER, WHITE QUINOA), COOKED RED QUINOA (WATER, RED QUINOA), BASIL, OLIVE OIL BLEND (OLIVE OIL, WATER, GARLIC, SALT, DISTILLED VINEGAR, SPICES, CELLULOSE GUM+, XANTHAN GUM+)." Date available: 07/14/2017 Date last updated by company: 07/14/2017
