Source: USDA Branded Food Products Database Release December 2017 Software v.3.8.6.4 2017-10-02
Report Run at: December 17, 2017 11:05 EST
"Nutrient data for: 45202353, QUINOA BAR, UPC: 819944013140"
Food Group:  Branded Food Products Database
Common Name:

Nutrient,Unit,Data points,Std. Error,"1 BAR = 40.0g",1Value per 100 g,
Proximates
"Energy",kcal,--,--,180,450
"Protein",g,--,--,5.00,12.50
"Total lipid (fat)",g,--,--,11.00,27.50
"Carbohydrate, by difference",g,--,--,19.00,47.50
"Fiber, total dietary",g,--,--,3.0,7.5
"Sugars, total",g,--,--,9.00,22.50
Minerals
"Calcium, Ca",mg,--,--,40,100
"Iron, Fe",mg,--,--,1.44,3.60
"Sodium, Na",mg,--,--,10,25
Vitamins
"Vitamin C, total ascorbic acid",mg,--,--,0.0,0.0
"Vitamin A, IU",IU,--,--,0,0
Lipids
"Fatty acids, total saturated",g,--,--,1.500,3.750
"Fatty acids, total trans",g,--,--,0.000,0.000
"Cholesterol",mg,--,--,0,0
Amino Acids
Other
Ingredients
"CASHEWS, ALMONDS, BRAZIL NUTS, DRIED BANANAS, STRAWBERRY BITS (FRUIT CONCENTRATES (APPLE JUICE, PEAR JUICE, APPLE PUREE), STRAWBERRY PUREE, RICE FLOUR, POLYDEXTROSE, CHERRY JUICE CONCENTRATE, NATURAL FLAVOR, PECTIN, LEMON JUICE CONCENTRATE, CARROT JUICE CONCENTRATE), COCONUT SYRUP (COCONUT SUGAR, WATER), BROWNRICE SYRUP, FLAX SEEDS, AMARNTH, QUINOA FLAKES, APRICOTS, WHOLE GRAIN BROWN RICE, HIGH-OLEIC SUNFLOWER OIL, NATURAL FLAVOR, CITRIC ACID, MIXED TOCOPHEROLS (VITAMIN E), AND ROSEMARY EXTRACT (ANTIOXIDENTS)." Date available: 07/14/2017 Date last updated by company: 07/14/2017
