Source: USDA Branded Food Products Database Release December 2017 Software v.3.8.6.4 2017-10-02
Report Run at: December 17, 2017 11:10 EST
"Nutrient data for: 45218812, QUINOA, UPC: 850714002087"
Food Group:  Branded Food Products Database
Common Name:

Nutrient,Unit,Data points,Std. Error,"1 CUP PREPARED (112G) = 56.0g",1Value per 100 g,
Proximates
"Energy",kcal,--,--,200,357
"Protein",g,--,--,8.00,14.29
"Total lipid (fat)",g,--,--,3.50,6.25
"Carbohydrate, by difference",g,--,--,35.00,62.50
"Fiber, total dietary",g,--,--,4.0,7.1
"Sugars, total",g,--,--,0.00,0.00
Minerals
"Calcium, Ca",mg,--,--,40,71
"Iron, Fe",mg,--,--,2.17,3.87
"Magnesium, Mg",mg,--,--,81,144
"Potassium, K",mg,--,--,281,502
"Sodium, Na",mg,--,--,430,768
"Zinc, Zn",mg,--,--,1.50,2.68
Vitamins
"Vitamin C, total ascorbic acid",mg,--,--,0.0,0.0
"Vitamin B-6",mg,--,--,0.241,0.430
"Vitamin A, IU",IU,--,--,81,144
Lipids
"Fatty acids, total saturated",g,--,--,0.398,0.710
"Fatty acids, total trans",g,--,--,0.000,0.000
"Cholesterol",mg,--,--,0,0
Amino Acids
Other
Ingredients
"ORGANIC QUINOA, SEA SALT, ORGANIC CUMIN, ORGANIC GARLIC, ORGANIC SPICES, ORGANIC CINNAMON." Date available: 07/14/2017 Date last updated by company: 07/14/2017
