Source: USDA Branded Food Products Database Release December 2017 Software v.3.8.6.4 2017-10-02
Report Run at: December 17, 2017 11:06 EST
"Nutrient data for: 45001758, QUINOA & BROWN RICE WITH GARLIC & HERBS, UPC: 5051379035969"
Food Group:  Branded Food Products Database
Common Name:

Nutrient,Unit,Data points,Std. Error,"1 cup = 152.0g",1Value per 100 g,
Proximates
"Energy",kcal,--,--,271,178
"Protein",g,--,--,6.00,3.95
"Total lipid (fat)",g,--,--,6.00,3.95
"Carbohydrate, by difference",g,--,--,49.00,32.24
"Fiber, total dietary",g,--,--,3.0,2.0
"Sugars, total",g,--,--,1.00,0.66
Minerals
"Calcium, Ca",mg,--,--,20,13
"Iron, Fe",mg,--,--,0.32,0.21
"Sodium, Na",mg,--,--,391,257
Vitamins
"Vitamin C, total ascorbic acid",mg,--,--,0.0,0.0
"Vitamin A, IU",IU,--,--,0,0
Lipids
"Fatty acids, total saturated",g,--,--,1.003,0.660
"Fatty acids, total trans",g,--,--,0.000,0.000
"Cholesterol",mg,--,--,0,0
Amino Acids
Other
Ingredients
"WATER, PARBOILED BROWN RICE, QUINOA, CANOLA AND/OR SUNFLOWER OIL, GARLIC POWDER, SALT, RICE STARCH, ONION POWDER, PARSLEY, PEPPERCORNS." Date available: 09/19/2017 Date last updated by company: 09/19/2017
