Source: USDA Branded Food Products Database Release December 2017 Software v.3.8.6.4 2017-10-02
Report Run at: December 17, 2017 17:14 EST
"Nutrient data for: 45255997, R.W. KNUDSEN, 100% JUICE, SPICED PEAR, UPC: 074682140019"
Food Group:  Branded Food Products Database
Common Name:

Nutrient,Unit,Data points,Std. Error,"8.0 OZA = 240.0g",1Value per 100 g,
Proximates
"Energy",kcal,--,--,120,50
"Protein",g,--,--,0.00,0.00
"Total lipid (fat)",g,--,--,0.00,0.00
"Carbohydrate, by difference",g,--,--,28.99,12.08
"Sugars, total",g,--,--,22.99,9.58
Minerals
"Calcium, Ca",mg,--,--,41,17
"Iron, Fe",mg,--,--,0.72,0.30
"Potassium, K",mg,--,--,281,117
"Sodium, Na",mg,--,--,14,6
Vitamins
"Vitamin C, total ascorbic acid",mg,--,--,1.2,0.5
Lipids
Amino Acids
Other
Ingredients
"FILTERED WATER (SUFFICIENT TO RECONSTITUTE), PEAR AND APPLE JUICE CONCENTRATES, NATURAL FLAVORS, CITRIC ACID, CINNAMON." Date available: 06/25/2017 Date last updated by company: 06/25/2017
