Source: USDA Branded Food Products Database Release December 2017 Software v.3.8.6.4 2017-10-02
Report Run at: December 17, 2017 17:13 EST
"Nutrient data for: 45248690, R.W. KNUDSEN FAMILY, JUICE BEVERAGE, APPLE & GINGER, UPC: 074682200232"
Food Group:  Branded Food Products Database
Common Name:

Nutrient,Unit,Data points,Std. Error,"8.0 OZA = 240.0g",1Value per 100 g,
Proximates
"Energy",kcal,--,--,120,50
"Protein",g,--,--,0.00,0.00
"Total lipid (fat)",g,--,--,0.00,0.00
"Carbohydrate, by difference",g,--,--,28.99,12.08
"Fiber, total dietary",g,--,--,1.0,0.4
"Sugars, total",g,--,--,22.99,9.58
Minerals
"Calcium, Ca",mg,--,--,19,8
"Sodium, Na",mg,--,--,10,4
Vitamins
"Vitamin C, total ascorbic acid",mg,--,--,1.2,0.5
Lipids
Amino Acids
Other
Ingredients
"APPLE JUICE, GINGER PUREE, LEMON JUICE CONCENTRATE." Date available: 08/17/2017 Date last updated by company: 08/17/2017
