Source: USDA Branded Food Products Database Release December 2017 Software v.3.8.6.4 2017-10-02
Report Run at: December 17, 2017 11:15 EST
"Nutrient data for: 45190818, RACINE DANISH KRINGLES, KRINGLE, RASPBERRY, UPC: 045251002120"
Food Group:  Branded Food Products Database
Common Name:

Nutrient,Unit,Data points,Std. Error,"0.16 KRINGLE = 50.0g",1Value per 100 g,
Proximates
"Energy",kcal,--,--,150,300
"Protein",g,--,--,2.00,4.00
"Total lipid (fat)",g,--,--,7.00,14.00
"Carbohydrate, by difference",g,--,--,22.00,44.00
"Fiber, total dietary",g,--,--,1.0,2.0
"Sugars, total",g,--,--,14.00,28.00
Minerals
"Calcium, Ca",mg,--,--,20,40
"Iron, Fe",mg,--,--,0.40,0.79
"Sodium, Na",mg,--,--,115,230
Vitamins
"Vitamin C, total ascorbic acid",mg,--,--,0.0,0.0
"Vitamin A, IU",IU,--,--,220,440
Lipids
"Fatty acids, total saturated",g,--,--,3.000,6.000
"Fatty acids, total trans",g,--,--,0.000,0.000
"Cholesterol",mg,--,--,5,10
Amino Acids
Other
Ingredients
"WHEAT FLOUR, INTERESTERIFIED SOYBEAN OIL, SUGAR, HIGH FRUCTOSE CORN SYRUP, BROWN SUGAR (SUGAR, MOLASSES, CANE SYRUP), RASPBERRIES, EGGS, CORN SYRUP, MODIFIED FOOD STARCH, CONTAINS 2% OR LESS OF THE FOLLOWING: WATER, SOY PROTEIN, SOY LECITHIN, YEAST, DEXTROSE, SALT, CITRIC ACID, RED 40, NATURAL & ARTIFICIAL FLAVORS (MILK), POTASSIUM SORBATE PRESERVATIVE, SODIUM BENZOATE, SODIUM CITRATE, TOCOPHEROLS PRESERVATIVE, CALCIUM CARBONATE, PARTIALLY HYDROGENATED SOYBEAN & COTTONSEED OILS, MALTODEXTRIN, MONO- & DIGLYCERIDES, AGAR-AGAR, CALCIUM PROPIONATE, CARAMEL COLOR, ANNATTO COLOR, TITANIUM DIOXIDE COLOR, CORN STARCH, CINNAMON, TURMERIC COLOR, CALCIUM DISODIUM EDTA PRESERVATIVE, VITAMIN A PALMITATE, MALTED BARLEY." Date available: 07/14/2017 Date last updated by company: 07/14/2017
