Source: USDA Branded Food Products Database Release December 2017 Software v.3.8.6.4 2017-10-02
Report Run at: December 17, 2017 11:18 EST
"Nutrient data for: 45041980, RAGU, CHEESE CREATIONS SAUCE, PARMESAN & ROMANO, UPC: 036200015155"
Food Group:  Branded Food Products Database
Common Name:

Nutrient,Unit,Data points,Std. Error,"0.5 cup = 129.0g",1Value per 100 g,
Proximates
"Energy",kcal,--,--,80,62
"Protein",g,--,--,3.01,2.33
"Total lipid (fat)",g,--,--,2.50,1.94
"Carbohydrate, by difference",g,--,--,13.00,10.08
"Fiber, total dietary",g,--,--,2.1,1.6
"Sugars, total",g,--,--,9.00,6.98
Minerals
"Calcium, Ca",mg,--,--,61,47
"Iron, Fe",mg,--,--,0.76,0.59
"Sodium, Na",mg,--,--,480,372
Vitamins
"Vitamin C, total ascorbic acid",mg,--,--,9.5,7.4
"Vitamin A, IU",IU,--,--,529,410
Lipids
"Fatty acids, total saturated",g,--,--,0.503,0.390
"Fatty acids, total trans",g,--,--,0.000,0.000
"Cholesterol",mg,--,--,0,0
Amino Acids
Other
Ingredients
"TOMATO PUREE (WATER, TOMATO PASTE), CRUSHED TOMATOES IN PUREE [CRUSHED TOMATOES, TOMATO PUREE, CALCIUM CHLORIDE (FIRMING AID), CITRIC ACID], SUGAR, ONIONS, SOYBEAN OIL, PARMESAN CHEESE [PASTEURIZED PART-SKIM MILK, CHEESE CULTURES (BARLEY), SLAT, ENZYMES], SALT, ROMANO CHEESE [PASTEURIZED PART-SKIM MILK, CHEESE CULTURES, SALT, ENZYMES], GARLIC POWDER, SPICES, CITRIC ACID, NATURAL FLAVOR." Date available: 07/14/2017 Date last updated by company: 07/14/2017
