Source: USDA Branded Food Products Database Release December 2017 Software v.3.8.6.4 2017-10-02
Report Run at: December 17, 2017 11:19 EST
"Nutrient data for: 45324096, RAHAT LOKUM, UPC: 783963007858"
Food Group:  Branded Food Products Database
Common Name:

Nutrient,Unit,Data points,Std. Error,"1 PIECE = 25.0g",1Value per 100 g,
Proximates
"Energy",kcal,--,--,92,368
"Protein",g,--,--,0.50,2.00
"Total lipid (fat)",g,--,--,1.60,6.40
"Carbohydrate, by difference",g,--,--,19.00,76.00
"Fiber, total dietary",g,--,--,0.4,1.6
"Sugars, total",g,--,--,16.50,66.00
Minerals
"Calcium, Ca",mg,--,--,0,0
"Iron, Fe",mg,--,--,0.36,1.44
"Sodium, Na",mg,--,--,0,0
Vitamins
"Vitamin A, IU",IU,--,--,0,0
Lipids
"Fatty acids, total saturated",g,--,--,0.500,2.000
"Cholesterol",mg,--,--,0,0
Amino Acids
Other
Ingredients
"SUGAR, CORN STARCH, CITRIC ACID (E-330), NATURAL VANILLA FLAVOR." Date available: 10/13/2017 Date last updated by company: 10/13/2017
