Source: USDA Branded Food Products Database Release December 2017 Software v.3.8.6.4 2017-10-02
Report Run at: December 17, 2017 11:24 EST
"Nutrient data for: 45121004, RAINCOAST TRADING, SOLID WHITE ALBACORE TUNA, UPC: 810757000112"
Food Group:  Branded Food Products Database
Common Name:

Nutrient,Unit,Data points,Std. Error,"0.33 cup = 55.0g",1Value per 100 g,
Proximates
"Energy",kcal,--,--,100,182
"Protein",g,--,--,15.00,27.27
"Total lipid (fat)",g,--,--,4.00,7.27
"Carbohydrate, by difference",g,--,--,0.00,0.00
"Fiber, total dietary",g,--,--,0.0,0.0
"Sugars, total",g,--,--,0.00,0.00
Minerals
"Calcium, Ca",mg,--,--,0,0
"Iron, Fe",mg,--,--,0.56,1.01
"Sodium, Na",mg,--,--,110,200
Vitamins
"Vitamin C, total ascorbic acid",mg,--,--,0.0,0.0
"Vitamin A, IU",IU,--,--,0,0
Lipids
"Fatty acids, total saturated",g,--,--,1.502,2.730
"Fatty acids, total trans",g,--,--,0.000,0.000
"Cholesterol",mg,--,--,25,45
Amino Acids
Other
Ingredients
"ALBACORE TUNA, SEA SALT." Date available: 06/25/2017 Date last updated by company: 06/25/2017
