Source: USDA Branded Food Products Database Release December 2017 Software v.3.8.6.4 2017-10-02
Report Run at: December 17, 2017 11:22 EST
"Nutrient data for: 45144351, RAINBOW SOUR STRIPS FRUIT-FLAVORED CHEWY CANDY, UPC: 085239559727"
Food Group:  Branded Food Products Database
Common Name:

Nutrient,Unit,Data points,Std. Error,"16.0 PIECES = 40.0g",1Value per 100 g,
Proximates
"Energy",kcal,--,--,160,400
"Protein",g,--,--,1.00,2.50
"Total lipid (fat)",g,--,--,1.50,3.75
"Carbohydrate, by difference",g,--,--,34.00,85.00
"Fiber, total dietary",g,--,--,0.0,0.0
"Sugars, total",g,--,--,24.00,60.00
Minerals
"Calcium, Ca",mg,--,--,0,0
"Iron, Fe",mg,--,--,0.00,0.00
"Sodium, Na",mg,--,--,0,0
Vitamins
"Vitamin C, total ascorbic acid",mg,--,--,0.0,0.0
"Vitamin A, IU",IU,--,--,0,0
Lipids
"Fatty acids, total saturated",g,--,--,1.000,2.500
"Fatty acids, total trans",g,--,--,0.000,0.000
"Cholesterol",mg,--,--,0,0
Amino Acids
Other
Ingredients
"SUGAR, GLUCOSE SYRUP, WHEAT FLOUR, ACIDULANTS (MALIC ACID, CITRIC ACID), VEGETABLE FAT (PALM), APPLE JUICE CONCENTRATE, NATURAL FLAVOR, LIQUID SORBITOL, MODIFIED CORN STARCH, EMULSIFIER (MONO AND DI GLYCERIDES OF VEGETABLE FATTY ACIDS), COLORS (TITANIUM DIOXIDE, YELLOW 5, RED 40, BLUE 1)." Date available: 07/21/2017 Date last updated by company: 07/21/2017
