Source: USDA Branded Food Products Database Release December 2017 Software v.3.8.6.4 2017-10-02
Report Run at: December 17, 2017 11:23 EST
"Nutrient data for: 45060654, RAINBOW, UPC: 044276023004"
Food Group:  Branded Food Products Database
Common Name:

Nutrient,Unit,Data points,Std. Error,"0.5 cup = 110.0g",1Value per 100 g,
Proximates
"Energy",kcal,--,--,90,82
"Protein",g,--,--,2.00,1.82
"Total lipid (fat)",g,--,--,1.00,0.91
"Carbohydrate, by difference",g,--,--,18.00,16.36
"Fiber, total dietary",g,--,--,0.0,0.0
"Sugars, total",g,--,--,18.00,16.36
Minerals
"Calcium, Ca",mg,--,--,0,0
"Iron, Fe",mg,--,--,0.00,0.00
"Sodium, Na",mg,--,--,30,27
Vitamins
"Vitamin C, total ascorbic acid",mg,--,--,0.0,0.0
"Vitamin A, IU",IU,--,--,0,0
Lipids
"Fatty acids, total saturated",g,--,--,1.001,0.910
"Fatty acids, total trans",g,--,--,0.000,0.000
"Cholesterol",mg,--,--,0,0
Amino Acids
Other
Ingredients
"INGREDIENTS: WATER, SUGAR, AND/OR HIGH FRUCTOSE CORN SYRUP, GELATIN PARTIALLY HYDROGENATED SOYBEAN AND/OR PALM KERNEL OIL, CITRIC ACID, SODIUM CITRATE, NATURAL AND ARTIFICIAL FLAVORS, POTASSIUM SORBATE AND/OR SODIUM BENZOATE TO PRESERVE FRESHNESS. SALT. DEXTROSE, CARBOHYDRATE GUM, POLYSORBATE 60, POLYGLYCEROL ESTERS OF FATTY ACIDS, SOY LECITHIN, SODIUM STEAROYL LACTYLATE DISODIUM PHOSPHATE, XANTHAN GUM, BETA CAROTENE (COLOR), YELLOW 6 RED 40, STARCH-MODIFIED (CORN), GUM ACACIA YELLOW 5, BLUE 1." Date available: 07/14/2017 Date last updated by company: 07/14/2017
