Source: USDA Branded Food Products Database Release December 2017 Software v.3.8.6.4 2017-10-02
Report Run at: December 17, 2017 11:28 EST
"Nutrient data for: 45261331, RAJUN CAJUN CASHEWS, UPC: 725498700231"
Food Group:  Branded Food Products Database
Common Name:

Nutrient,Unit,Data points,Std. Error,"1 ONZ = 28.0g",1Value per 100 g,
Proximates
"Energy",kcal,--,--,170,607
"Protein",g,--,--,4.00,14.29
"Total lipid (fat)",g,--,--,13.00,46.43
"Carbohydrate, by difference",g,--,--,0.01,0.04
"Fiber, total dietary",g,--,--,1.0,3.6
"Sugars, total",g,--,--,2.00,7.14
Minerals
"Calcium, Ca",mg,--,--,0,0
"Iron, Fe",mg,--,--,2.57,9.19
"Sodium, Na",mg,--,--,75,268
Vitamins
"Vitamin C, total ascorbic acid",mg,--,--,0.0,0.0
"Vitamin A, IU",IU,--,--,0,0
Lipids
"Fatty acids, total saturated",g,--,--,1.999,7.140
"Fatty acids, total trans",g,--,--,0.101,0.360
"Cholesterol",mg,--,--,0,0
Amino Acids
Other
Ingredients
"CASHEWS, SALT, CAYENNE PEPPER (PROD OF MEXICO), JALAPENO PEPPER (PROD OF MEXICO). MAY CONTAIN ANY OF THE FOLLOWING: CANOLA OIL, VEG SHORTENING, PEANUT OIL." Date available: 10/13/2017 Date last updated by company: 10/13/2017
