Source: USDA Branded Food Products Database Release December 2017 Software v.3.8.6.4 2017-10-02
Report Run at: December 17, 2017 11:30 EST
"Nutrient data for: 45155742, RALEY'S, DARK CHOCOLATE BAR, MORITA CHILI PEPPER, UPC: 046567031699"
Food Group:  Branded Food Products Database
Common Name:

Nutrient,Unit,Data points,Std. Error,"0.5 BAR = 43.0g",1Value per 100 g,
Proximates
"Energy",kcal,--,--,230,535
"Protein",g,--,--,3.00,6.98
"Total lipid (fat)",g,--,--,14.00,32.56
"Carbohydrate, by difference",g,--,--,22.00,51.16
"Fiber, total dietary",g,--,--,3.0,7.0
"Sugars, total",g,--,--,19.00,44.19
Minerals
"Calcium, Ca",mg,--,--,20,47
"Iron, Fe",mg,--,--,0.00,0.00
"Sodium, Na",mg,--,--,0,0
Vitamins
"Vitamin C, total ascorbic acid",mg,--,--,0.0,0.0
"Vitamin A, IU",IU,--,--,117,271
Lipids
"Fatty acids, total saturated",g,--,--,9.000,20.930
"Fatty acids, total trans",g,--,--,0.000,0.000
"Cholesterol",mg,--,--,0,0
Amino Acids
Other
Ingredients
"DARK CHOCOLATE (COCOA MASS, SUGAR, COCOA BUTTER, SOY LECITHIN [EMULSIFIER], AND NATURAL VANILLA EXTRACT), MORITA CHILE PEPPER POWDER." Date available: 07/14/2017 Date last updated by company: 07/14/2017
