Source: USDA Branded Food Products Database Release December 2017 Software v.3.8.6.4 2017-10-02
Report Run at: December 17, 2017 11:28 EST
"Nutrient data for: 45183034, RALEY'S, AMARENA GELATO, CHERRY, CREAM, UPC: 046567030517"
Food Group:  Branded Food Products Database
Common Name:

Nutrient,Unit,Data points,Std. Error,"0.5 cup = 100.0g",1Value per 100 g,
Proximates
"Energy",kcal,--,--,220,220
"Protein",g,--,--,3.00,3.00
"Total lipid (fat)",g,--,--,8.00,8.00
"Carbohydrate, by difference",g,--,--,34.00,34.00
"Fiber, total dietary",g,--,--,1.0,1.0
"Sugars, total",g,--,--,32.00,32.00
Minerals
"Calcium, Ca",mg,--,--,150,150
"Sodium, Na",mg,--,--,60,60
Vitamins
Lipids
"Fatty acids, total saturated",g,--,--,7.000,7.000
"Cholesterol",mg,--,--,5,5
Amino Acids
Other
Ingredients
"SKIM MILK, CHERRY SYRUP (COM SYRUP, CHERRY JUICE, SUGAR, PECTIN, PROPYLENE GLYCOL ALGINATE, CITRIC ACID, ARTIFICIAL FLAVOR), SUGAR, COCONUT OIL, HIGH FRUCTOSE CORN SYRUP, CHERRIES, CORN SYRUP, BUTTER, MONO-AND DIGLYCERIDES, SODIUM ALGINATE, LOCUST BEAN GUM, CITRIC ACID, TARTARIC ACID, ARTIFICIAL FLAVOR." Date available: 10/19/2017 Date last updated by company: 10/19/2017
