Source: USDA Branded Food Products Database Release December 2017 Software v.3.8.6.4 2017-10-02
Report Run at: December 17, 2017 11:35 EST
"Nutrient data for: 45097788, RAMBLIN' BOAR, MEMPHIS STYLE BBQ SAUCE, UPC: 863756000010"
Food Group:  Branded Food Products Database
Common Name:

Nutrient,Unit,Data points,Std. Error,"2.0 Tbsp = 36.0g",1Value per 100 g,
Proximates
"Energy",kcal,--,--,28,78
"Protein",g,--,--,0.00,0.00
"Total lipid (fat)",g,--,--,0.00,0.00
"Carbohydrate, by difference",g,--,--,6.00,16.67
"Fiber, total dietary",g,--,--,0.0,0.0
"Sugars, total",g,--,--,6.00,16.67
Minerals
"Sodium, Na",mg,--,--,290,806
Vitamins
Lipids
"Fatty acids, total saturated",g,--,--,0.000,0.000
"Fatty acids, total trans",g,--,--,0.000,0.000
Amino Acids
Other
Ingredients
"CIDER VINEGAR, KETCHUP (TOMATO CONCENTRATE, SUGAR, VINEGAR, SALT, SPICES), BROWN SUGAR, MOLASSES, MUSTARD (VINEGAR, WATER, MUSTARD SEED, SALT, TURMERIC, PAPRIKA AND GARLIC POWDER), SPICES:" Date available: 06/25/2017 Date last updated by company: 06/25/2017
