Source: USDA Branded Food Products Database Release December 2017 Software v.3.8.6.4 2017-10-02
Report Run at: December 17, 2017 11:35 EST
"Nutrient data for: 45242499, RAMBLIN' BOAR, BBQ SAUCE, UPC: 863756000027"
Food Group:  Branded Food Products Database
Common Name:

Nutrient,Unit,Data points,Std. Error,"2.0 Tbsp = 35.0g",1Value per 100 g,
Proximates
"Energy",kcal,--,--,24,69
"Protein",g,--,--,0.00,0.00
"Total lipid (fat)",g,--,--,0.00,0.00
"Carbohydrate, by difference",g,--,--,5.00,14.29
"Fiber, total dietary",g,--,--,0.0,0.0
"Sugars, total",g,--,--,6.00,17.14
Minerals
"Sodium, Na",mg,--,--,80,229
Vitamins
Lipids
"Fatty acids, total saturated",g,--,--,0.000,0.000
"Fatty acids, total trans",g,--,--,0.000,0.000
Amino Acids
Other
Ingredients
"MUSTARD (VINEGAR, WATER, MUSTARD SEED, SALT, TUMERIC, PAPRIKA AND GARLIC POWDER), CIDER, VINEGAR, BROWN SUGAR, SPICES." Date available: 06/25/2017 Date last updated by company: 06/25/2017
