Source: USDA Branded Food Products Database Release December 2017 Software v.3.8.6.4 2017-10-02
Report Run at: December 17, 2017 11:36 EST
"Nutrient data for: 45011303, RAMEN NOODLES BOWL WITH VEGETABLES, UPC: 041789003042"
Food Group:  Branded Food Products Database
Common Name:

Nutrient,Unit,Data points,Std. Error,"0.5 CONTAINER = 47.8g",1Value per 100 g,
Proximates
"Energy",kcal,--,--,220,460
"Protein",g,--,--,5.00,10.46
"Total lipid (fat)",g,--,--,9.00,18.83
"Carbohydrate, by difference",g,--,--,28.00,58.58
"Fiber, total dietary",g,--,--,1.0,2.1
"Sugars, total",g,--,--,3.00,6.28
Minerals
"Calcium, Ca",mg,--,--,20,42
"Iron, Fe",mg,--,--,1.51,3.15
"Sodium, Na",mg,--,--,820,1715
Vitamins
"Vitamin C, total ascorbic acid",mg,--,--,1.2,2.6
"Vitamin A, IU",IU,--,--,105,219
Lipids
"Fatty acids, total saturated",g,--,--,4.498,9.410
"Fatty acids, total trans",g,--,--,0.000,0.000
"Cholesterol",mg,--,--,0,0
Amino Acids
Other
Ingredients
"ENRICHED WHEAT FLOUR (WHEAT FLOUR, NIACIN, REDUCED IRON, THIAMINE MONONITRATE, RIBOFLAVIN, FOLIC ACID), VEGETABLE OIL (CONTAINS ONE OR MORE OF THE FOLLOWING: CANOLA, COTTONSEED, PALM) PRESERVED BY TBHQ, DEHYDRATED VEGETABLES (CABBAGE, CARROT, ONION, GARLIC, CHIVE), SALT, TEXTURED SOY, PROTEIN, MALTODEXTRIN, CONTAINS LESS THAN 2% OF: MONOSODIUM GLUTAMATE, SUGAR, BEEF EXTRACT, HYDROLYZED CORN, WHEAT AND SOY PROTEIN, YEAST EXTRACT, CARAMEL COLOR, POTASSIUM CARBONATE, SPICES (CELERY SEED), SODIUM (MONO, HEXAMETA, AND/OR TRIPOLY) PHOSPHATE, SODIUM CARBONATE, BEEF FAT, SOY SAUCE (WATER, WHEAT, SOYBEANS, SALT), SILICON DIOXIDE (ANTI-CAKING AGENT), DISODIUM INOSINATE, DISODIUM GUANYLATE, LACTOSE, CHICKEN BROTH, SOYA LECITHIN, TURMERIC." Date available: 07/14/2017 Date last updated by company: 07/14/2017
