Source: USDA Branded Food Products Database Release December 2017 Software v.3.8.6.4 2017-10-02
Report Run at: December 17, 2017 11:36 EST
"Nutrient data for: 45123933, RAMEN NOODLE SOUP, UPC: 070662010020"
Food Group:  Branded Food Products Database
Common Name:

Nutrient,Unit,Data points,Std. Error,"0.5 DRY NOODLE BLOCK AND 1 TSP SEASONING MIX) | (ABOUT = 42.0g",1Value per 100 g,
Proximates
"Energy",kcal,--,--,190,452
"Protein",g,--,--,5.00,11.90
"Total lipid (fat)",g,--,--,7.00,16.67
"Carbohydrate, by difference",g,--,--,27.00,64.29
"Fiber, total dietary",g,--,--,2.0,4.8
"Sugars, total",g,--,--,0.00,0.00
Minerals
"Calcium, Ca",mg,--,--,0,0
"Iron, Fe",mg,--,--,3.21,7.65
"Sodium, Na",mg,--,--,760,1810
Vitamins
"Vitamin C, total ascorbic acid",mg,--,--,0.0,0.0
"Vitamin A, IU",IU,--,--,0,0
Lipids
"Fatty acids, total saturated",g,--,--,3.499,8.330
"Fatty acids, total monounsaturated",g,--,--,2.999,7.140
"Fatty acids, total polyunsaturated",g,--,--,0.000,0.000
"Fatty acids, total trans",g,--,--,0.000,0.000
"Cholesterol",mg,--,--,0,0
Amino Acids
Other
Ingredients
"ENRICHED FLOUR (WHEAT FLOUR, NIACIN, REDUCED IRON, THIAMINE MONONITRATE, RIBOFLAVIN, FOLIC ACID), PALM OIL, SALT, CONTAINS LESS THAN 2% OF AUTOLYZED YEAST EXTRACT, BAKER'S YEAST EXTRACT, BEEF FAT, CARAMEL COLOR, CORN SYRUP, DEXTRIN, DISODIUM GUANYLATE, DISODIUM INOSINATE, DRIED LEEK FLAKE, GARLIC POWDER, HYDROLYZED CORN PROTEIN, HYDROLYZED SOY PROTEIN, MALTODEXTRIN, MONOSODIUM GLUTAMATE, ONION POWDER. POTASSIUM CARBONATE, POWDERED BEEF, SODIUM ALGINATE, SODIUM CARBONATE, SODIUM TRIPOLYPHOSPHATE, SOY SAUCE (WHEAT, SOYBEAN, SALT, WATER), SPICE, SUGAR. TBHQ (PRESERVATIVE)." Date available: 07/14/2017 Date last updated by company: 07/14/2017
