Source: USDA Branded Food Products Database Release December 2017 Software v.3.8.6.4 2017-10-02
Report Run at: December 17, 2017 11:40 EST
"Nutrient data for: 45202941, RANCH DRESSING, MARINADE, DIP, UPC: 855482006084"
Food Group:  Branded Food Products Database
Common Name:

Nutrient,Unit,Data points,Std. Error,"1 Tbsp = 14.7g",1Value per 100 g,
Proximates
"Energy",kcal,--,--,20,136
"Protein",g,--,--,0.00,0.00
"Total lipid (fat)",g,--,--,2.00,13.61
"Carbohydrate, by difference",g,--,--,1.00,6.80
"Sugars, total",g,--,--,0.00,0.00
Minerals
"Sodium, Na",mg,--,--,115,782
Vitamins
Lipids
"Fatty acids, total saturated",g,--,--,1.499,10.200
Amino Acids
Other
Ingredients
"ORGANIC COCONUT MILK, ORGANIC LEMON JUICE, ORGANIC MUSTARD (ORGANIC VINEGAR, WATER, ORGANIC MUSTARD SEED, SEA SALT, ORGANIC TURMERIC, ORGANIC SPICES), ORGANIC SPICES, SEA SALT, ORGANIC ONION POWDER, ORGANIC COCONUT AMINOS, ORGANIC GARLIC POWDER, ORGANIC APPLE CIDER VINEGAR" Date available: 10/19/2017 Date last updated by company: 10/19/2017
