Source: USDA Branded Food Products Database Release December 2017 Software v.3.8.6.4 2017-10-02
Report Run at: December 17, 2017 11:46 EST
"Nutrient data for: 45126345, RANDOLPH MARKET, ITALIAN SAUSAGE, HOT, UPC: 769363110237"
Food Group:  Branded Food Products Database
Common Name:

Nutrient,Unit,Data points,Std. Error,"1 LINK (APPROXIMATELY 4 SERVINGS PER POUND) = 112.0g",1Value per 100 g,
Proximates
"Energy",kcal,--,--,300,268
"Protein",g,--,--,16.00,14.29
"Total lipid (fat)",g,--,--,25.00,22.32
"Carbohydrate, by difference",g,--,--,2.00,1.79
Minerals
"Calcium, Ca",mg,--,--,20,18
"Iron, Fe",mg,--,--,0.71,0.63
"Sodium, Na",mg,--,--,930,830
Vitamins
Lipids
"Fatty acids, total saturated",g,--,--,10.002,8.930
"Cholesterol",mg,--,--,75,67
Amino Acids
Other
Ingredients
"PORK, WATER, SALT, CORN SYRUP SOLIDS, SPICES, PAPRIKA, BHA, BHT, PROPYL GALLATE, CITRIC ACID." Date available: 10/13/2017 Date last updated by company: 10/13/2017
