Source: USDA Branded Food Products Database Release December 2017 Software v.3.8.6.4 2017-10-02
Report Run at: December 17, 2017 11:46 EST
"Nutrient data for: 45027470, RAPA, BEEF SCRAPPLE, UPC: 07117480"
Food Group:  Branded Food Products Database
Common Name:

Nutrient,Unit,Data points,Std. Error,"2.0 ONZ = 56.0g",1Value per 100 g,
Proximates
"Energy",kcal,--,--,110,196
"Protein",g,--,--,4.00,7.14
"Total lipid (fat)",g,--,--,7.00,12.50
"Carbohydrate, by difference",g,--,--,8.00,14.29
Minerals
"Iron, Fe",mg,--,--,0.71,1.26
"Sodium, Na",mg,--,--,260,464
Vitamins
"Vitamin A, IU",IU,--,--,491,877
Lipids
"Fatty acids, total saturated",g,--,--,3.002,5.360
"Fatty acids, total trans",g,--,--,0.000,0.000
"Cholesterol",mg,--,--,30,54
Amino Acids
Other
Ingredients
"BEEF BROTH, BEEF TRIM, BEEF HEARTS, CORN MEL, BEEF LIVERS, WHEAT FLOUR, SALT, SUGAR, SPICES, FLAVORING." Date available: 07/14/2017 Date last updated by company: 07/14/2017
