Source: USDA Branded Food Products Database Release December 2017 Software v.3.8.6.4 2017-10-02
Report Run at: December 17, 2017 11:56 EST
"Nutrient data for: 45065980, RASPBERRY VINAIGRETTE, UPC: 011110834126"
Food Group:  Branded Food Products Database
Common Name:

Nutrient,Unit,Data points,Std. Error,"2.0 Tbsp = 30.0g",1Value per 100 g,
Proximates
"Energy",kcal,--,--,160,533
"Protein",g,--,--,0.00,0.00
"Total lipid (fat)",g,--,--,14.00,46.67
"Carbohydrate, by difference",g,--,--,7.00,23.33
"Fiber, total dietary",g,--,--,1.0,3.3
"Sugars, total",g,--,--,5.00,16.67
Minerals
"Calcium, Ca",mg,--,--,0,0
"Iron, Fe",mg,--,--,0.00,0.00
"Sodium, Na",mg,--,--,160,533
Vitamins
"Vitamin C, total ascorbic acid",mg,--,--,0.0,0.0
"Vitamin A, IU",IU,--,--,0,0
Lipids
"Fatty acids, total saturated",g,--,--,0.999,3.330
"Fatty acids, total trans",g,--,--,0.000,0.000
"Cholesterol",mg,--,--,0,0
Amino Acids
Other
Ingredients
"CANOLA OIL, RED WINE VINEGAR, SUGAR, WATER, SALT, WHITE WINE VINEGAR, DEHYDRATED GARLIC, MUSTARD SEED, PEPPER, RASPBERRY JUICE (FROM CONCENTRATE), DEHYDRATED ONION, NATURAL RASPBERRY FLAVOR, RASPBERRY COLOR (RED 40, POTASSIUM SORBATE, BLUE 1), CITRIC ACID, SPICES." Date available: 07/14/2017 Date last updated by company: 07/14/2017
