Source: USDA Branded Food Products Database Release December 2017 Software v.3.8.6.4 2017-10-02
Report Run at: December 17, 2017 11:53 EST
"Nutrient data for: 45194446, RASPBERRY GLAZE, WITH BALSAMIC VINEGAR OF MODENA, UPC: 041130382659"
Food Group:  Branded Food Products Database
Common Name:

Nutrient,Unit,Data points,Std. Error,"1 Tbsp = 15.0g",1Value per 100 g,
Proximates
"Energy",kcal,--,--,35,233
"Protein",g,--,--,0.00,0.00
"Total lipid (fat)",g,--,--,0.00,0.00
"Carbohydrate, by difference",g,--,--,8.00,53.33
"Sugars, total",g,--,--,8.00,53.33
Minerals
"Sodium, Na",mg,--,--,0,0
Vitamins
Lipids
Amino Acids
Other
Ingredients
"COOKED GRAPE MUST, BALSAMIC VINEGAR OF MODENA (39%) (WINE VINEGAR, CONCENTRATED GRAPE MUST, COOKED GRAPE MUST, CARAMEL), WINE VINEGAR, RASPBERRY NATURAL FLAVOR, GUAR GUM AND XANTHAN GUM (THICKENERS)." Date available: 12/31/2016 Date last updated by company: 12/31/2016
