Source: USDA Branded Food Products Database Release December 2017 Software v.3.8.6.4 2017-10-02
Report Run at: December 17, 2017 11:55 EST
"Nutrient data for: 45214238, RASPBERRY TEA, UPC: 042827001099"
Food Group:  Branded Food Products Database
Common Name:

Nutrient,Unit,Data points,Std. Error,"1 cup = 240.0g",1Value per 100 g,
Proximates
"Energy",kcal,--,--,79,33
"Protein",g,--,--,0.00,0.00
"Total lipid (fat)",g,--,--,0.00,0.00
"Carbohydrate, by difference",g,--,--,19.99,8.33
"Sugars, total",g,--,--,18.00,7.50
Minerals
"Calcium, Ca",mg,--,--,300,125
"Iron, Fe",mg,--,--,1.08,0.45
"Sodium, Na",mg,--,--,10,4
Vitamins
Lipids
Amino Acids
Other
Ingredients
"SPRING WATER, SUGAR, CITRIC ACID, MALTODEXTRIN, INSTANT TEA, TRIACETIN, MODIFIED FOOD STARCH, NATURAL FLAVOR, RASPBERRY JUICE SOLIDS, SODIUM BENZOATE." Date available: 07/14/2017 Date last updated by company: 07/14/2017
