Source: USDA Branded Food Products Database Release December 2017 Software v.3.8.6.4 2017-10-02
Report Run at: December 17, 2017 12:13 EST
"Nutrient data for: 45271434, RAW, ORGANIC KOMBUCHA, UPC: 855519004052"
Food Group:  Branded Food Products Database
Common Name:

Nutrient,Unit,Data points,Std. Error,"8.0 OZA = 240.0g",1Value per 100 g,
Proximates
"Energy",kcal,--,--,46,19
"Protein",g,--,--,0.00,0.00
"Total lipid (fat)",g,--,--,0.00,0.00
"Carbohydrate, by difference",g,--,--,7.01,2.92
"Sugars, total",g,--,--,6.00,2.50
Minerals
"Sodium, Na",mg,--,--,7,3
Vitamins
Lipids
"Cholesterol",mg,--,--,0,0
Amino Acids
Other
Ingredients
"ORGANIC RAW KOMBUCHA CULTURE (ORGANIC YEAST & ORGANIC BACTERIA CULTURES), ORGANIC BLACK TEA, ORGANIC GREEN TEA, ORGANIC RAW SUGAR." Date available: 07/14/2017 Date last updated by company: 07/14/2017
