Source: USDA Branded Food Products Database Release December 2017 Software v.3.8.6.4 2017-10-02
Report Run at: December 17, 2017 12:07 EST
"Nutrient data for: 45291445, RAW GOAT MILK FETA CHEESE, UPC: 079004100115"
Food Group:  Branded Food Products Database
Common Name:

Nutrient,Unit,Data points,Std. Error,"1.125 ' X 1 1/8' CUBE) | ( = 28.0g",1Value per 100 g,
Proximates
"Energy",kcal,--,--,110,393
"Protein",g,--,--,6.00,21.43
"Total lipid (fat)",g,--,--,9.00,32.14
"Carbohydrate, by difference",g,--,--,0.00,0.00
"Fiber, total dietary",g,--,--,0.0,0.0
"Sugars, total",g,--,--,0.00,0.00
Minerals
"Calcium, Ca",mg,--,--,200,714
"Iron, Fe",mg,--,--,0.00,0.00
"Sodium, Na",mg,--,--,150,536
Vitamins
"Vitamin C, total ascorbic acid",mg,--,--,0.0,0.0
"Vitamin A, IU",IU,--,--,535,1912
Lipids
"Fatty acids, total saturated",g,--,--,6.000,21.430
"Fatty acids, total trans",g,--,--,0.000,0.000
"Cholesterol",mg,--,--,15,54
Amino Acids
Other
Ingredients
"CULTURED GOAT MILK, SALT, MICROBIAL ENZYMES." Date available: 07/14/2017 Date last updated by company: 07/14/2017
