Source: USDA Branded Food Products Database Release December 2017 Software v.3.8.6.4 2017-10-02
Report Run at: December 17, 2017 12:25 EST
"Nutrient data for: 45039317, RAW WHOLE POPPY SEEDS, UPC: 039978004314"
Food Group:  Branded Food Products Database
Common Name:

Nutrient,Unit,Data points,Std. Error,"3.0 Tbsp = 28.0g",1Value per 100 g,
Proximates
"Energy",kcal,--,--,150,536
"Protein",g,--,--,6.00,21.43
"Total lipid (fat)",g,--,--,11.00,39.29
"Carbohydrate, by difference",g,--,--,8.00,28.57
"Fiber, total dietary",g,--,--,7.0,25.0
"Sugars, total",g,--,--,1.00,3.57
Minerals
"Calcium, Ca",mg,--,--,350,1250
"Iron, Fe",mg,--,--,4.82,17.22
"Magnesium, Mg",mg,--,--,179,638
"Sodium, Na",mg,--,--,0,0
"Zinc, Zn",mg,--,--,2.25,8.04
Vitamins
"Vitamin C, total ascorbic acid",mg,--,--,0.0,0.0
"Vitamin A, IU",IU,--,--,0,0
Lipids
"Fatty acids, total saturated",g,--,--,1.501,5.360
"Fatty acids, total trans",g,--,--,0.000,0.000
"Cholesterol",mg,--,--,0,0
Amino Acids
Other
Ingredients
"POPPY SEEDS." Date available: 07/14/2017 Date last updated by company: 07/14/2017
