Source: USDA Branded Food Products Database Release December 2017 Software v.3.8.6.4 2017-10-02
Report Run at: December 17, 2017 12:05 EST
"Nutrient data for: 45204622, RAW COLD-PRESSED PROTEIN BAR, UPC: 859583003027"
Food Group:  Branded Food Products Database
Common Name:

Nutrient,Unit,Data points,Std. Error,"1.7 ONZ = 48.0g",1Value per 100 g,
Proximates
"Energy",kcal,--,--,210,438
"Protein",g,--,--,8.00,16.67
"Total lipid (fat)",g,--,--,11.00,22.92
"Carbohydrate, by difference",g,--,--,22.00,45.83
"Fiber, total dietary",g,--,--,4.0,8.3
"Sugars, total",g,--,--,9.00,18.75
Minerals
"Calcium, Ca",mg,--,--,60,125
"Iron, Fe",mg,--,--,2.40,5.00
"Magnesium, Mg",mg,--,--,67,139
"Phosphorus, P",mg,--,--,84,174
"Potassium, K",mg,--,--,233,486
"Sodium, Na",mg,--,--,0,0
"Zinc, Zn",mg,--,--,0.25,0.52
"Manganese, Mn",mg,--,--,0.480,1.000
Vitamins
"Thiamin",mg,--,--,0.000,0.000
"Vitamin B-6",mg,--,--,0.080,0.167
Lipids
"Fatty acids, total saturated",g,--,--,0.998,2.080
"Fatty acids, total trans",g,--,--,0.000,0.000
"Cholesterol",mg,--,--,0,0
Amino Acids
Other
Ingredients
"DATES*, ALMONDS*, PINEAPPLE*, HEMP PROTEIN POWDER*, HEMP SEEDS*, COCONUT NECTAR*, RAISINS*." Date available: 09/02/2017 Date last updated by company: 09/02/2017
