Source: USDA Branded Food Products Database Release December 2017 Software v.3.8.6.4 2017-10-02
Report Run at: December 17, 2017 12:04 EST
"Nutrient data for: 45153134, RAW CHOCOLATE MACAROONS, UPC: 639713561500"
Food Group:  Branded Food Products Database
Common Name:

Nutrient,Unit,Data points,Std. Error,"1 MACAROON = 170.0g",1Value per 100 g,
Proximates
"Energy",kcal,--,--,78,46
"Protein",g,--,--,7.00,4.12
"Total lipid (fat)",g,--,--,6.31,3.71
"Carbohydrate, by difference",g,--,--,7.00,4.12
"Fiber, total dietary",g,--,--,4.1,2.4
"Sugars, total",g,--,--,3.81,2.24
Minerals
"Sodium, Na",mg,--,--,2,1
Vitamins
Lipids
"Fatty acids, total saturated",g,--,--,5.304,3.120
"Fatty acids, total trans",g,--,--,0.000,0.000
"Cholesterol",mg,--,--,0,0
Amino Acids
Other
Ingredients
"ORGANIC COCONUT, ORGANIC CACAO, MAPLE SYRUP, ORGANIC COCONUT OIL, ORGANIC VANILLA, HIMALAYAN SALT." Date available: 09/23/2016 Date last updated by company: 09/23/2016
