Source: USDA Branded Food Products Database Release December 2017 Software v.3.8.6.4 2017-10-02
Report Run at: December 17, 2017 12:21 EST
"Nutrient data for: 45270677, RAW SPANISH PEANUTS, UPC: 072488991156"
Food Group:  Branded Food Products Database
Common Name:

Nutrient,Unit,Data points,Std. Error,"0.25 cup = 33.0g",1Value per 100 g,
Proximates
"Energy",kcal,--,--,190,576
"Protein",g,--,--,9.00,27.27
"Total lipid (fat)",g,--,--,16.00,48.48
"Carbohydrate, by difference",g,--,--,5.00,15.15
"Fiber, total dietary",g,--,--,3.0,9.1
"Sugars, total",g,--,--,2.00,6.06
Minerals
"Calcium, Ca",mg,--,--,40,121
"Iron, Fe",mg,--,--,2.18,6.61
"Sodium, Na",mg,--,--,5,15
Vitamins
"Vitamin C, total ascorbic acid",mg,--,--,0.0,0.0
"Vitamin A, IU",IU,--,--,0,0
Lipids
"Fatty acids, total saturated",g,--,--,2.501,7.580
"Fatty acids, total trans",g,--,--,0.000,0.000
"Cholesterol",mg,--,--,0,0
Amino Acids
Other
Ingredients
"PEANUTS." Date available: 07/14/2017 Date last updated by company: 07/14/2017
