Source: USDA Branded Food Products Database Release December 2017 Software v.3.8.6.4 2017-10-02
Report Run at: December 17, 2017 12:14 EST
"Nutrient data for: 45333124, RAW PEELED AND DEVEINED TAIL OFF IQF SHRIMP, UPC: 8908008604003"
Food Group:  Branded Food Products Database
Common Name:

Nutrient,Unit,Data points,Std. Error,"4.0 ONZ = 113.0g",1Value per 100 g,
Proximates
"Energy",kcal,--,--,110,97
"Protein",g,--,--,24.00,21.24
"Total lipid (fat)",g,--,--,0.99,0.88
"Carbohydrate, by difference",g,--,--,0.00,0.00
"Fiber, total dietary",g,--,--,0.0,0.0
"Sugars, total",g,--,--,0.00,0.00
Minerals
"Calcium, Ca",mg,--,--,40,35
"Iron, Fe",mg,--,--,3.50,3.10
"Sodium, Na",mg,--,--,250,221
Vitamins
"Vitamin C, total ascorbic acid",mg,--,--,2.4,2.1
"Vitamin A, IU",IU,--,--,292,258
Lipids
"Fatty acids, total saturated",g,--,--,0.000,0.000
"Fatty acids, total trans",g,--,--,0.000,0.000
"Cholesterol",mg,--,--,220,195
Amino Acids
Other
Ingredients
"SHRIMPS, SALT & SODIUM TRI POLY PHOSPHATE" Date available: 10/13/2017 Date last updated by company: 10/13/2017
