Source: USDA Branded Food Products Database Release December 2017 Software v.3.8.6.4 2017-10-02
Report Run at: December 17, 2017 12:20 EST
"Nutrient data for: 45271715, RAW SHRIMP, UPC: 886926467901"
Food Group:  Branded Food Products Database
Common Name:

Nutrient,Unit,Data points,Std. Error,"4.0 ONZ = 112.0g",1Value per 100 g,
Proximates
"Energy",kcal,--,--,110,98
"Protein",g,--,--,18.00,16.07
"Total lipid (fat)",g,--,--,2.00,1.79
"Carbohydrate, by difference",g,--,--,0.00,0.00
"Fiber, total dietary",g,--,--,0.0,0.0
"Sugars, total",g,--,--,0.00,0.00
Minerals
"Calcium, Ca",mg,--,--,102,91
"Iron, Fe",mg,--,--,2.40,2.14
"Potassium, K",mg,--,--,293,262
"Sodium, Na",mg,--,--,400,357
Vitamins
Lipids
"Fatty acids, total saturated",g,--,--,0.000,0.000
"Fatty acids, total trans",g,--,--,0.000,0.000
"Cholesterol",mg,--,--,170,152
Amino Acids
Other
Ingredients
"SHRIMP, SALT." Date available: 07/14/2017 Date last updated by company: 07/14/2017
