Source: USDA Branded Food Products Database Release December 2017 Software v.3.8.6.4 2017-10-02
Report Run at: December 17, 2017 12:19 EST
"Nutrient data for: 45209518, RAW SHRIMP, UPC: 02114001941"
Food Group:  Branded Food Products Database
Common Name:

Nutrient,Unit,Data points,Std. Error,"4.0 ONZ = 114.0g",1Value per 100 g,
Proximates
"Energy",kcal,--,--,35,31
"Protein",g,--,--,8.99,7.89
"Total lipid (fat)",g,--,--,0.00,0.00
"Carbohydrate, by difference",g,--,--,0.00,0.00
"Fiber, total dietary",g,--,--,0.0,0.0
"Sugars, total",g,--,--,0.00,0.00
Minerals
"Calcium, Ca",mg,--,--,21,18
"Iron, Fe",mg,--,--,0.00,0.00
"Sodium, Na",mg,--,--,360,316
Vitamins
"Vitamin C, total ascorbic acid",mg,--,--,0.0,0.0
"Vitamin A, IU",IU,--,--,0,0
Lipids
"Fatty acids, total saturated",g,--,--,0.000,0.000
"Fatty acids, total monounsaturated",g,--,--,0.000,0.000
"Fatty acids, total polyunsaturated",g,--,--,0.000,0.000
"Fatty acids, total trans",g,--,--,0.000,0.000
"Cholesterol",mg,--,--,70,61
Amino Acids
Other
Ingredients
"UNCOOKED SHRIMP, SODIUM TRIPOLYPHOSPHATE (FOR MOISTURE RETENTION), SALT." Date available: 07/14/2017 Date last updated by company: 07/14/2017
