Source: USDA Branded Food Products Database Release December 2017 Software v.3.8.6.4 2017-10-02
Report Run at: December 17, 2017 12:25 EST
"Nutrient data for: 45154874, RAYGE CANDY, ASSORTED GUM DROPS, UPC: 026883261451"
Food Group:  Branded Food Products Database
Common Name:

Nutrient,Unit,Data points,Std. Error,"3.0 PIECES = 40.0g",1Value per 100 g,
Proximates
"Energy",kcal,--,--,130,325
"Protein",g,--,--,0.00,0.00
"Total lipid (fat)",g,--,--,0.00,0.00
"Carbohydrate, by difference",g,--,--,33.00,82.50
"Fiber, total dietary",g,--,--,0.0,0.0
"Sugars, total",g,--,--,28.00,70.00
Minerals
"Sodium, Na",mg,--,--,15,38
Vitamins
Lipids
"Fatty acids, total saturated",g,--,--,0.000,0.000
"Fatty acids, total trans",g,--,--,0.000,0.000
"Cholesterol",mg,--,--,0,0
Amino Acids
Other
Ingredients
"SUGAR, CORN SYRUP, CORNSTARCH, MODIFIED CORNSTARCH, NATURAL AND ARTIFICIAL FLAVORS, ARTIFICIAL COLORS INCLUDING (RED 40, YELLOW 6, YELLOW 5, BLUE 1)." Date available: 08/30/2017 Date last updated by company: 08/30/2017
