Source: USDA Branded Food Products Database Release December 2017 Software v.3.8.6.4 2017-10-02
Report Run at: December 17, 2017 12:26 EST
"Nutrient data for: 45307972, RAYMUNDO'S, CARAMEL FLAN, UPC: 033456050015"
Food Group:  Branded Food Products Database
Common Name:

Nutrient,Unit,Data points,Std. Error,"4.0 ONZ = 113.0g",1Value per 100 g,
Proximates
Minerals
Vitamins
Lipids
Amino Acids
Other
Ingredients
"MILK, WATER, SUGAR EGGS, MODIFIED FOOD STARCH, CORN SYRUP,LESS THAN 1% OF HIGH FRUCTOSE CORN SYRUP,CARRAGEENAN, LOCUST BEAN GUM, ARTIFICIAL FLAVOR, SALT, POTASSIUM SORBATE TO MAINTAIN FRESHNESS, YELLOW #5, YELLOW #6. CONTAINS: MILK,EGGS." Date available: 06/19/2017 Date last updated by company: 06/19/2017
