Source: USDA Branded Food Products Database Release December 2017 Software v.3.8.6.4 2017-10-02
Report Run at: December 17, 2017 12:27 EST
"Nutrient data for: 45166155, RC ALMONDS, ROASTED ALMONDS, UPC: 764072881294"
Food Group:  Branded Food Products Database
Common Name:

Nutrient,Unit,Data points,Std. Error,"0.25 cup = 29.0g",1Value per 100 g,
Proximates
"Energy",kcal,--,--,160,552
"Protein",g,--,--,6.00,20.69
"Total lipid (fat)",g,--,--,13.00,44.83
"Carbohydrate, by difference",g,--,--,9.00,31.03
"Fiber, total dietary",g,--,--,3.0,10.3
"Sugars, total",g,--,--,5.00,17.24
Minerals
"Calcium, Ca",mg,--,--,80,276
"Iron, Fe",mg,--,--,1.86,6.42
"Sodium, Na",mg,--,--,180,621
Vitamins
"Vitamin C, total ascorbic acid",mg,--,--,0.0,0.0
"Vitamin A, IU",IU,--,--,0,0
Lipids
"Fatty acids, total saturated",g,--,--,1.001,3.450
"Fatty acids, total trans",g,--,--,0.000,0.000
"Cholesterol",mg,--,--,0,0
Amino Acids
Other
Ingredients
"RAW ALMONDS, ORGANIC EVAPORATED CANE SUGAR, ORGANIC HONEY, WHISKEY (CORN, APPLE CIDER), SEA SALT, CANOLA OIL, CINNAMON CAYENNE PEPPER." Date available: 07/14/2017 Date last updated by company: 07/14/2017
