Source: USDA Branded Food Products Database Release December 2017 Software v.3.8.6.4 2017-10-02
Report Run at: December 17, 2017 12:28 EST
"Nutrient data for: 45292347, READY PASTA, UPC: 076808007466"
Food Group:  Branded Food Products Database
Common Name:

Nutrient,Unit,Data points,Std. Error,"1 cup = 121.0g",1Value per 100 g,
Proximates
"Energy",kcal,--,--,211,174
"Protein",g,--,--,7.01,5.79
"Total lipid (fat)",g,--,--,2.00,1.65
"Carbohydrate, by difference",g,--,--,42.00,34.71
"Fiber, total dietary",g,--,--,2.1,1.7
"Sugars, total",g,--,--,2.00,1.65
Minerals
"Calcium, Ca",mg,--,--,21,17
"Iron, Fe",mg,--,--,0.83,0.69
"Sodium, Na",mg,--,--,211,174
Vitamins
"Vitamin C, total ascorbic acid",mg,--,--,0.0,0.0
"Vitamin A, IU",IU,--,--,0,0
Lipids
"Fatty acids, total saturated",g,--,--,0.000,0.000
"Fatty acids, total trans",g,--,--,0.000,0.000
"Cholesterol",mg,--,--,0,0
Amino Acids
Other
Ingredients
"WATER, PASTA [SEMOLINA (WHEAT), DURUM WHEAT FLOUR], EXTRA VIRGIN OLIVE OIL, SEA SALT." Date available: 07/14/2017 Date last updated by company: 07/14/2017
