Source: USDA Branded Food Products Database Release December 2017 Software v.3.8.6.4 2017-10-02
Report Run at: December 17, 2017 12:37 EST
"Nutrient data for: 45173061, REAL FOODS, SPINACH DIP, UPC: 030223009504"
Food Group:  Branded Food Products Database
Common Name:

Nutrient,Unit,Data points,Std. Error,"28.0 GRM = 28.0g",1Value per 100 g,
Proximates
"Energy",kcal,--,--,80,286
"Protein",g,--,--,1.00,3.57
"Total lipid (fat)",g,--,--,7.00,25.00
"Carbohydrate, by difference",g,--,--,3.00,10.71
"Fiber, total dietary",g,--,--,0.0,0.0
"Sugars, total",g,--,--,1.00,3.57
Minerals
"Calcium, Ca",mg,--,--,20,71
"Iron, Fe",mg,--,--,0.00,0.00
"Sodium, Na",mg,--,--,180,643
Vitamins
"Vitamin C, total ascorbic acid",mg,--,--,2.2,7.7
"Vitamin A, IU",IU,--,--,715,2552
Lipids
"Fatty acids, total saturated",g,--,--,1.999,7.140
"Fatty acids, total trans",g,--,--,0.000,0.000
"Cholesterol",mg,--,--,10,36
Amino Acids
Other
Ingredients
"DIP BASE (SOUR CREAM [CULTURED PASTEURIZED GRADE A CREAM, NONFAT MILK, AND ENZYME], MAYONNAISE [CANOLA OIL, LIQUID EGGS (WHOLE EGGS), WATER, WHITE DISTILLED VINEGAR, SUGAR, SALT, LEMON JUICE FROM CONCENTRATE, MUSTARD SPICE, GUAR GUM, XANTHAN GUM), LEMON JUICE CONCENTRATE, CULTURED GRADE A NON-FAT DRY MILK POWDER, GRADE A NON-FAT DRY MILK POWDER, MALTODEXTRIN, GUAR GUM, XANTHAN GUM), WATER CHESTNUTS, SPINACH, VEGETABLE SOUP MIX (DEHYDRATED VEGETABLES (ONIONS, CARROTS, TOMATOES, CELERY ROOT, LEEKS, CABBAGE, CAULIFLOWER, PEAS, POTATOES], SALT, POTATO STARCH, HYDROLYZED CORN PROTEIN, LACTOSE, HYDROLYZED SOY PROTEIN, MODIFIED POTATO STARCH, HYDROLYZED WHEAT PROTEIN, CORN STARCH, PALM OIL, ONION POWDER, NATURAL FLAVOR, CARAMEL COLOR, GARLIC POWDER, CITRIC ACID, TURMERIC [COLOR] SPICE), SALT ONION POWDER, SUGAR, DEHYDRATED GARLIC" Date available: 07/14/2017 Date last updated by company: 07/14/2017
