Source: USDA Branded Food Products Database Release December 2017 Software v.3.8.6.4 2017-10-02
Report Run at: December 17, 2017 12:38 EST
"Nutrient data for: 45050284, REAL 100% FRUIT SAUCE, UPC: 050600004014"
Food Group:  Branded Food Products Database
Common Name:

Nutrient,Unit,Data points,Std. Error,"1 POUCH = 113.0g",1Value per 100 g,
Proximates
"Energy",kcal,--,--,60,53
"Protein",g,--,--,0.00,0.00
"Total lipid (fat)",g,--,--,0.00,0.00
"Carbohydrate, by difference",g,--,--,15.00,13.27
"Fiber, total dietary",g,--,--,1.0,0.9
"Sugars, total",g,--,--,12.00,10.62
Minerals
"Calcium, Ca",mg,--,--,0,0
"Iron, Fe",mg,--,--,0.16,0.14
"Sodium, Na",mg,--,--,15,13
Vitamins
"Vitamin C, total ascorbic acid",mg,--,--,7.9,7.0
"Vitamin A, IU",IU,--,--,221,196
Lipids
"Fatty acids, total saturated",g,--,--,0.000,0.000
"Fatty acids, total trans",g,--,--,0.000,0.000
"Cholesterol",mg,--,--,0,0
Amino Acids
Other
Ingredients
"APPLES, MANGOES, PINEAPPLES, VITAMIN C." Date available: 06/25/2017 Date last updated by company: 06/25/2017
