Source: USDA Branded Food Products Database Release December 2017 Software v.3.8.6.4 2017-10-02
Report Run at: December 17, 2017 12:35 EST
"Nutrient data for: 45194990, REAL CRUMBLED BACON, UPC: 037600273275"
Food Group:  Branded Food Products Database
Common Name:

Nutrient,Unit,Data points,Std. Error,"1 Tbsp = 7.0g",1Value per 100 g,
Proximates
"Energy",kcal,--,--,25,357
"Protein",g,--,--,3.00,42.86
"Total lipid (fat)",g,--,--,1.50,21.43
"Carbohydrate, by difference",g,--,--,0.00,0.00
Minerals
"Sodium, Na",mg,--,--,190,2714
Vitamins
Lipids
"Fatty acids, total saturated",g,--,--,0.500,7.140
"Cholesterol",mg,--,--,10,143
Amino Acids
Other
Ingredients
"BACON (CURED WITH WATER, SALT, SODIUM ERYTHORBATE, SODIUM NITRITE. MAY ALSO CONTAIN SMOKE FLAVORING, SUGAR, DEXTROSE, BROWN SUGAR, SODIUM PHOSPHATE, POTASSIUM CHLORIDE, FLAVORING)." Date available: 07/14/2017 Date last updated by company: 07/14/2017
