Source: USDA Branded Food Products Database Release December 2017 Software v.3.8.6.4 2017-10-02
Report Run at: December 17, 2017 12:45 EST
"Nutrient data for: 45281685, REAL MAYONNAISE, UPC: 04131820074"
Food Group:  Branded Food Products Database
Common Name:

Nutrient,Unit,Data points,Std. Error,"1 Tbsp = 13.0g",1Value per 100 g,
Proximates
"Energy",kcal,--,--,90,692
"Protein",g,--,--,0.00,0.00
"Total lipid (fat)",g,--,--,10.00,76.92
"Carbohydrate, by difference",g,--,--,0.00,0.00
Minerals
"Sodium, Na",mg,--,--,75,577
Vitamins
Lipids
"Fatty acids, total saturated",g,--,--,1.500,11.540
"Cholesterol",mg,--,--,5,38
Amino Acids
Other
Ingredients
"SOYBEAN OIL, WATER, WHOLE EGGS AND EGG YOLKS, VINEGAR, SALT, CONTAINS LESS THAN 2%: SUGAR, LEMON JUICE (WATER, LEMON JUICE CONCENTRATE), OLEORESIN PAPRIKA (COLOR), NATURAL FLAVORS, CALCIUM DISODIUM EDTA ADDED TO PROTECT PRODUCT QUALITY." Date available: 07/14/2017 Date last updated by company: 07/14/2017
