Source: USDA Branded Food Products Database Release December 2017 Software v.3.8.6.4 2017-10-02
Report Run at: December 17, 2017 12:41 EST
"Nutrient data for: 45283286, REAL ICE CREAM, UPC: 688267112607"
Food Group:  Branded Food Products Database
Common Name:

Nutrient,Unit,Data points,Std. Error,"0.5 cup = 68.0g",1Value per 100 g,
Proximates
"Energy",kcal,--,--,160,235
"Protein",g,--,--,4.00,5.88
"Total lipid (fat)",g,--,--,9.00,13.24
"Carbohydrate, by difference",g,--,--,16.00,23.53
"Fiber, total dietary",g,--,--,1.0,1.5
"Sugars, total",g,--,--,10.00,14.71
Minerals
"Calcium, Ca",mg,--,--,60,88
"Iron, Fe",mg,--,--,0.81,1.19
"Sodium, Na",mg,--,--,100,147
Vitamins
"Vitamin C, total ascorbic acid",mg,--,--,0.0,0.0
"Vitamin A, IU",IU,--,--,225,331
Lipids
"Fatty acids, total saturated",g,--,--,3.998,5.880
"Fatty acids, total trans",g,--,--,0.000,0.000
"Cholesterol",mg,--,--,20,29
Amino Acids
Other
Ingredients
"SKIM MILK, CREAM, CORN SYRUP, PEANUT BUTTER SWIRL (PEANUTS, SUGAR, SALT, PEANUT OIL), HIGH FRUCTOSE CORN SYRUP, COCOA (PROCESSED WITH ALKALI), WHEY, CONTAINS 2% OR LESS OF: MONO- AND DIGLYCERIDES, GUAR GUM, CALCIUM SULFATE, LOCUST BEAN GUM, CARRAGEENAN." Date available: 07/14/2017 Date last updated by company: 07/14/2017
