Source: USDA Branded Food Products Database Release December 2017 Software v.3.8.6.4 2017-10-02
Report Run at: December 17, 2017 12:47 EST
"Nutrient data for: 45285769, REAL PREMIUM FROZEN YOGURT, UPC: 021140031785"
Food Group:  Branded Food Products Database
Common Name:

Nutrient,Unit,Data points,Std. Error,"0.5 cup = 72.0g",1Value per 100 g,
Proximates
"Energy",kcal,--,--,120,167
"Protein",g,--,--,4.00,5.56
"Total lipid (fat)",g,--,--,2.50,3.47
"Carbohydrate, by difference",g,--,--,21.00,29.17
"Fiber, total dietary",g,--,--,0.0,0.0
"Sugars, total",g,--,--,19.00,26.39
Minerals
"Calcium, Ca",mg,--,--,150,208
"Iron, Fe",mg,--,--,0.00,0.00
"Sodium, Na",mg,--,--,60,83
Vitamins
"Vitamin C, total ascorbic acid",mg,--,--,0.0,0.0
"Vitamin A, IU",IU,--,--,843,1171
"Vitamin D",IU,--,--,80,111
Lipids
"Fatty acids, total saturated",g,--,--,1.498,2.080
"Fatty acids, total trans",g,--,--,0.000,0.000
"Cholesterol",mg,--,--,10,14
Amino Acids
Other
Ingredients
"SKIM MILK, BUTTERMILK, CULTURED SKIM MILK*, CORN SYRUP, MILK, LIQUID SUGAR, CREAM, VANILLA EXTRACT, CELLULOSE GUM, MONO- AND DIGLYCERIDES, GUAR GUM, CARRAGEENAN, DEXTROSE, SALT, VITAMIN E, VITAMIN A PALMITATE, VITAMIN D3" Date available: 07/14/2017 Date last updated by company: 07/14/2017
