Source: USDA Branded Food Products Database Release December 2017 Software v.3.8.6.4 2017-10-02
Report Run at: December 17, 2017 12:41 EST
"Nutrient data for: 45282117, REAL ICE CREAM, UPC: 688267131608"
Food Group:  Branded Food Products Database
Common Name:

Nutrient,Unit,Data points,Std. Error,"0.5 cup = 68.0g",1Value per 100 g,
Proximates
"Energy",kcal,--,--,170,250
"Protein",g,--,--,3.00,4.41
"Total lipid (fat)",g,--,--,10.00,14.71
"Carbohydrate, by difference",g,--,--,17.00,25.00
"Fiber, total dietary",g,--,--,1.0,1.5
"Sugars, total",g,--,--,12.00,17.65
Minerals
"Calcium, Ca",mg,--,--,60,88
"Iron, Fe",mg,--,--,5.06,7.44
"Sodium, Na",mg,--,--,35,51
Vitamins
"Vitamin C, total ascorbic acid",mg,--,--,0.0,0.0
"Vitamin A, IU",IU,--,--,337,496
Lipids
"Fatty acids, total saturated",g,--,--,4.998,7.350
"Fatty acids, total trans",g,--,--,0.000,0.000
"Cholesterol",mg,--,--,30,44
Amino Acids
Other
Ingredients
"SKIM MILK, CREAM, SUGAR, CORN SYRUP, ALMONDS (ROASTED IN COTTONSEED OIL, BUTTER, SALT), COCOA, COCOA (PROCESSED WITH ALKALI), CONTAINS 2% OR LESS OF: LOCUST BEAN GUM, GUAR GUM, CARRAGEENAN, NATURAL VANILLA FLAVOR." Date available: 07/14/2017 Date last updated by company: 07/14/2017
