Source: USDA Branded Food Products Database Release December 2017 Software v.3.8.6.4 2017-10-02
Report Run at: December 17, 2017 12:47 EST
"Nutrient data for: 45288359, REAL PREMIUM ICE CREAM, UPC: 021140031716"
Food Group:  Branded Food Products Database
Common Name:

Nutrient,Unit,Data points,Std. Error,"0.5 cup = 70.0g",1Value per 100 g,
Proximates
"Energy",kcal,--,--,190,271
"Protein",g,--,--,2.00,2.86
"Total lipid (fat)",g,--,--,10.00,14.29
"Carbohydrate, by difference",g,--,--,23.00,32.86
"Fiber, total dietary",g,--,--,0.0,0.0
"Sugars, total",g,--,--,20.00,28.57
Minerals
"Calcium, Ca",mg,--,--,80,114
"Iron, Fe",mg,--,--,0.00,0.00
"Sodium, Na",mg,--,--,60,86
Vitamins
"Vitamin C, total ascorbic acid",mg,--,--,0.0,0.0
"Vitamin A, IU",IU,--,--,337,482
Lipids
"Fatty acids, total saturated",g,--,--,5.999,8.570
"Fatty acids, total trans",g,--,--,0.000,0.000
"Cholesterol",mg,--,--,20,29
Amino Acids
Other
Ingredients
"MILK, CREAM, LIQUID SUGAR, SKIM MILK, SUGAR COOKIE DOUGH [WHEAT FLOUR, SUGAR, BUTTER (CREAM, SALT), WATER, CORN STARCH, NATURAL FLAVOR, SALT, SODIUM BICARBONATE], PURPLE FROSTING [SUGAR, PEANUT OIL, VEGETABLE JUICE (COLOR), NATURAL FLAVOR, SOY LECITHIN, SALT], CORN SYRUP, FROSTED COOKIE FRECKLES [SUGAR, COCONUT OIL, SKIM MILK POWDER, VEGETABLE JUICE (COLOR), NATURAL FLAVOR, SOY LECITHIN, PAPRIKA EXTRACT (COLOR), SPIRULINA EXTRACT (COLOR), TURMERIC (COLOR), SUGAR COOKIE BASE [SUGAR, CORN SYRUP, WATER, CREAM CHEESE (CULTURED PASTEURIZED MILK & CREAM, SALT, ENZYMES), EGG YOLKS, MODIFIED CORN STARCH, NATURAL FLAVOR, TITANIUM DIOXIDE (COLOR), SALT, ANNATTO (COLOR), LACTIC ACID], MONO- AND DIGLYCERIDES, GUAR GUM, CELLULOSE GUM, CARRAGEENAN, DEXTROSE." Date available: 07/14/2017 Date last updated by company: 07/14/2017
