Source: USDA Branded Food Products Database Release December 2017 Software v.3.8.6.4 2017-10-02
Report Run at: December 17, 2017 12:33 EST
"Nutrient data for: 45290593, REAL BUTTER CREAM FROSTING, UPC: 641548139137"
Food Group:  Branded Food Products Database
Common Name:

Nutrient,Unit,Data points,Std. Error,"2.0 Tbsp = 26.0g",1Value per 100 g,
Proximates
"Energy",kcal,--,--,115,442
"Protein",g,--,--,0.20,0.77
"Total lipid (fat)",g,--,--,5.30,20.38
"Carbohydrate, by difference",g,--,--,17.80,68.46
"Sugars, total",g,--,--,17.10,65.77
Minerals
"Calcium, Ca",mg,--,--,0,0
"Iron, Fe",mg,--,--,0.35,1.33
"Sodium, Na",mg,--,--,37,142
Vitamins
"Vitamin C, total ascorbic acid",mg,--,--,0.0,0.0
"Vitamin A, IU",IU,--,--,289,1110
Lipids
"Fatty acids, total saturated",g,--,--,0.003,0.010
"Fatty acids, total trans",g,--,--,0.000,0.000
"Cholesterol",mg,--,--,14,54
Amino Acids
Other
Ingredients
"POWDERED SUGAR (SUGAR, CORN STARCH TO PREVENT CAKING), BUTTER, WATER, COCOA POWDER." Date available: 08/15/2017 Date last updated by company: 08/15/2017
