Source: USDA Branded Food Products Database Release December 2017 Software v.3.8.6.4 2017-10-02
Report Run at: December 17, 2017 12:50 EST
"Nutrient data for: 45148057, REASOR'S, PRALINE FROSTED PECANS, UPC: 073042455763"
Food Group:  Branded Food Products Database
Common Name:

Nutrient,Unit,Data points,Std. Error,"0.33 cup = 38.0g",1Value per 100 g,
Proximates
"Energy",kcal,--,--,290,763
"Protein",g,--,--,2.00,5.26
"Total lipid (fat)",g,--,--,17.00,44.74
"Carbohydrate, by difference",g,--,--,35.00,92.11
"Fiber, total dietary",g,--,--,2.0,5.3
"Sugars, total",g,--,--,31.00,81.58
Minerals
"Calcium, Ca",mg,--,--,0,0
"Iron, Fe",mg,--,--,0.95,2.49
"Sodium, Na",mg,--,--,160,421
Vitamins
"Vitamin C, total ascorbic acid",mg,--,--,0.0,0.0
"Vitamin A, IU",IU,--,--,0,0
Lipids
"Fatty acids, total saturated",g,--,--,1.999,5.260
"Fatty acids, total trans",g,--,--,0.000,0.000
"Cholesterol",mg,--,--,5,13
Amino Acids
Other
Ingredients
"PECANS, SUGARS, BUTTER, NATURAL & ARTIFICIAL FLAVORINGS, SALT." Date available: 07/14/2017 Date last updated by company: 07/14/2017
