Source: USDA Branded Food Products Database Release December 2017 Software v.3.8.6.4 2017-10-02
Report Run at: December 17, 2017 12:51 EST
"Nutrient data for: 45157556, REBECCA & ROSE, GLUTEN FREE COOKIES, CHOCOLATE, UPC: 073490154386"
Food Group:  Branded Food Products Database
Common Name:

Nutrient,Unit,Data points,Std. Error,"3.0 COOKIES = 33.0g",1Value per 100 g,
Proximates
"Energy",kcal,--,--,200,606
"Protein",g,--,--,2.00,6.06
"Total lipid (fat)",g,--,--,12.00,36.36
"Carbohydrate, by difference",g,--,--,19.00,57.58
"Fiber, total dietary",g,--,--,1.0,3.0
"Sugars, total",g,--,--,11.00,33.33
Minerals
"Calcium, Ca",mg,--,--,20,61
"Iron, Fe",mg,--,--,0.54,1.65
"Sodium, Na",mg,--,--,5,15
Vitamins
"Vitamin C, total ascorbic acid",mg,--,--,0.0,0.0
"Vitamin A, IU",IU,--,--,0,0
Lipids
"Fatty acids, total saturated",g,--,--,4.501,13.640
"Fatty acids, total trans",g,--,--,0.000,0.000
"Cholesterol",mg,--,--,20,61
Amino Acids
Other
Ingredients
"APRICOT KERNEL PASTE (APRICOT KERNELS, SUGAR), POTATO STARCH, VEGETABLE SHORTENING (PALM OIL, PALM STEARIN, MONO & DIGLYCER-IDES), SUGAR, WHOLE EGGS, ALMOND FLOUR, COCOA." Date available: 07/14/2017 Date last updated by company: 07/14/2017
