Source: USDA Branded Food Products Database Release December 2017 Software v.3.8.6.4 2017-10-02
Report Run at: December 17, 2017 12:59 EST
"Nutrient data for: 45078894, RED CHILE ENCHILADA SAUCE, UPC: 071524154654"
Food Group:  Branded Food Products Database
Common Name:

Nutrient,Unit,Data points,Std. Error,"0.25 cup = 65.0g",1Value per 100 g,
Proximates
"Energy",kcal,--,--,80,123
"Protein",g,--,--,2.00,3.08
"Total lipid (fat)",g,--,--,5.00,7.69
"Carbohydrate, by difference",g,--,--,12.00,18.46
"Fiber, total dietary",g,--,--,5.0,7.7
"Sugars, total",g,--,--,2.00,3.08
Minerals
"Calcium, Ca",mg,--,--,20,31
"Iron, Fe",mg,--,--,1.46,2.25
"Sodium, Na",mg,--,--,440,677
Vitamins
"Vitamin C, total ascorbic acid",mg,--,--,6.1,9.4
"Vitamin A, IU",IU,--,--,5072,7803
Lipids
"Fatty acids, total saturated",g,--,--,1.001,1.540
"Fatty acids, total trans",g,--,--,1.001,1.540
"Cholesterol",mg,--,--,0,0
Amino Acids
Other
Ingredients
"INGREDIENTS: WATER, RED CHILE PASTE, WHEAT FLOUR, CANOLA OIL OR PARTIALLY HYDROGENATED CANOLA OIL, SALT, TOMATO PASTE, SPICES, CARAMEL COLOR, GARLIC POWDER, RED COLOR #40, CITRIC ACID." Date available: 06/24/2017 Date last updated by company: 06/24/2017
