Source: USDA Branded Food Products Database Release December 2017 Software v.3.8.6.4 2017-10-02
Report Run at: December 17, 2017 13:12 EST
"Nutrient data for: 45053146, RED HOTS  CHICKEN , PORK AND BEEF SAUSAGE, UPC: 043595027946"
Food Group:  Branded Food Products Database
Common Name:

Nutrient,Unit,Data points,Std. Error,"2.5 ONZ = 70.0g",1Value per 100 g,
Proximates
"Energy",kcal,--,--,180,257
"Protein",g,--,--,8.00,11.43
"Total lipid (fat)",g,--,--,14.00,20.00
"Carbohydrate, by difference",g,--,--,5.00,7.14
"Fiber, total dietary",g,--,--,0.0,0.0
"Sugars, total",g,--,--,2.00,2.86
Minerals
"Calcium, Ca",mg,--,--,60,86
"Iron, Fe",mg,--,--,0.85,1.21
"Sodium, Na",mg,--,--,790,1129
Vitamins
"Vitamin C, total ascorbic acid",mg,--,--,0.9,1.3
"Vitamin A, IU",IU,--,--,157,224
Lipids
"Fatty acids, total saturated",g,--,--,4.998,7.140
"Cholesterol",mg,--,--,60,86
Amino Acids
Other
Ingredients
"MECHANICALLY SEPARATED CHICKEN, PORK AND BEEF, WATER, BEEF HEARTS, PORK HEARTS, CORN SYRUP, MODIFIED FOOD STARCH, SALT, CONTAINS 2% OR LESS DEXTROSE, FLAVORINGS, BEEF STOCK, SODIUM PHOSPHATE, POTASSIUM LACTATE, JALAPENO PEPPERS, SODIUM ERYTHORBATE, POTASSIUM PHOSPHATE, SODIUM NITRITE, MONOSODIUM GLUTAMATE, RED DYE # 40." Date available: 06/25/2017 Date last updated by company: 06/25/2017
