Source: USDA Branded Food Products Database Release December 2017 Software v.3.8.6.4 2017-10-02
Report Run at: December 17, 2017 12:54 EST
"Nutrient data for: 45285234, RED BARON, DEEP DISH PIZZA, SUPREME, UPC: 072180733672"
Food Group:  Branded Food Products Database
Common Name:

Nutrient,Unit,Data points,Std. Error,"1 PIZZA = 163.0g",1Value per 100 g,
Proximates
"Energy",kcal,--,--,411,252
"Protein",g,--,--,15.00,9.20
"Total lipid (fat)",g,--,--,19.01,11.66
"Carbohydrate, by difference",g,--,--,46.99,28.83
"Fiber, total dietary",g,--,--,2.0,1.2
"Sugars, total",g,--,--,14.00,8.59
Minerals
"Calcium, Ca",mg,--,--,200,123
"Iron, Fe",mg,--,--,4.30,2.64
"Potassium, K",mg,--,--,319,196
"Sodium, Na",mg,--,--,900,552
Vitamins
"Vitamin C, total ascorbic acid",mg,--,--,2.9,1.8
"Vitamin A, IU",IU,--,--,479,294
Lipids
"Fatty acids, total saturated",g,--,--,8.998,5.520
"Fatty acids, total trans",g,--,--,0.000,0.000
"Cholesterol",mg,--,--,29,18
Amino Acids
Other
Ingredients
"ENRICHED FLOUR (WHEAT FLOUR, MALTED BARLEY FLOUR, NIACIN, REDUCED IRON, THIAMINE MONONITRATE, RIBOFLAVIN, FOLIC ACID), TOMATOES (WATER, TOMATO PASTE), LOW MOISTURE PART SKIM MOZZARELLA CHEESE (CULTURED PASTEURIZED PART SKIM MILK, SALT, ENZYMES), CHEESE TOPPING (LOW MOISTURE PART SKIM MOZZARELLA CHEESE [CULTURED PASTEURIZED MILK, SALT, ENZYMES]. MODIFIED FOOD STARCH, NONFAT MILK, NATURAL FLAVORS, ANNATTO [COLOR]), COOKED PIZZA TOPPING (SAUSAGE [PORK, MECHANICALLY SEPARATED CHICKEN, SPICES, WATER, SALT, SUGAR, GARLIC POWDER], WATER, TEXTURED VEGETABLE PROTEIN [SOY FLOUR, SALT]), GREEN AND RED PEPPERS, VEGETABLE SHORTENING (PALM OIL, NATURAL FLAVOR, SOY LECITHIN), YEAST, PEPPERONI MADE WITH PORK, CHICKEN, AND BEEF (PORK, MECHANICALLY SEPARATED CHICKEN, BEEF, SALT, CONTAINS 2% OR LESS OF: SPICES, DEXTROSE, LACTIC ACID STARTER CULTURE, OLEORESIN OF PAPRIKA, SODIUM ASCORBATE, NATURAL SMOKE FLAVORING, FLAVORING, SODIUM NITRITE, BHA, BHT, CITRIC ACID), CONTAINS 2% OR LESS OF: WATER, ONION, VEGETABLE OIL (SOYBEAN, COTTONSEED, CORN, AND/OR CANOLA OIL), SUGAR, SALT, SPICE, MALTODEXTRIN, GARLIC, HYDROLYZED SOY AND CORN PROTEIN, PAPRIKA, MODIFIED FOOD STARCH, DOUGH CONDITIONER (WHEAT STARCH, L-CYSTEINE HYDROCHLORIDE, AMMONIUM SULFATE), GARLIC POWDER, DEFATTED SOY FLOUR, ASCORBIC ACID." Date available: 09/25/2017 Date last updated by company: 09/25/2017
