Source: USDA Branded Food Products Database Release December 2017 Software v.3.8.6.4 2017-10-02
Report Run at: December 17, 2017 13:54 EST
"Nutrient data for: 45203751, RED VELVET PROTEIN PEANUT SPREAD, UPC: 857697005432"
Food Group:  Branded Food Products Database
Common Name:

Nutrient,Unit,Data points,Std. Error,"2.0 Tbsp = 32.0g",1Value per 100 g,
Proximates
"Energy",kcal,--,--,200,625
"Protein",g,--,--,11.00,34.38
"Total lipid (fat)",g,--,--,14.00,43.75
"Carbohydrate, by difference",g,--,--,9.00,28.12
"Fiber, total dietary",g,--,--,5.0,15.6
"Sugars, total",g,--,--,4.00,12.50
Minerals
"Calcium, Ca",mg,--,--,20,62
"Iron, Fe",mg,--,--,0.56,1.75
"Sodium, Na",mg,--,--,0,0
Vitamins
"Vitamin C, total ascorbic acid",mg,--,--,0.0,0.0
"Vitamin A, IU",IU,--,--,0,0
Lipids
"Fatty acids, total saturated",g,--,--,2.000,6.250
"Fatty acids, total trans",g,--,--,0.000,0.000
Amino Acids
Other
Ingredients
"ROASTED PEANUTS, WHEY PROTEIN, DARK CHOCOLATE CHIPS (UNSWEETENED CHOCOLATE COCOA BUTTER, SOY LECITHIN, VANILLA), COCONUT PALM SUGAR, UNSWEETENED COCOA, BEET ROOT POWDER, COCONUT OIL, CHIA SEED, FLAX SEED." Date available: 07/14/2017 Date last updated by company: 07/14/2017
