Source: USDA Branded Food Products Database Release December 2017 Software v.3.8.6.4 2017-10-02
Report Run at: December 17, 2017 13:52 EST
"Nutrient data for: 45144088, RED VELVET BARK, UPC: 077232181456"
Food Group:  Branded Food Products Database
Common Name:

Nutrient,Unit,Data points,Std. Error,"40.0 GRM = 40.0g",1Value per 100 g,
Proximates
"Energy",kcal,--,--,210,525
"Protein",g,--,--,1.00,2.50
"Total lipid (fat)",g,--,--,12.00,30.00
"Carbohydrate, by difference",g,--,--,26.00,65.00
"Fiber, total dietary",g,--,--,0.0,0.0
"Sugars, total",g,--,--,26.00,65.00
Minerals
"Calcium, Ca",mg,--,--,40,100
"Iron, Fe",mg,--,--,0.00,0.00
"Sodium, Na",mg,--,--,25,62
Vitamins
"Vitamin C, total ascorbic acid",mg,--,--,0.0,0.0
"Vitamin A, IU",IU,--,--,0,0
Lipids
"Fatty acids, total saturated",g,--,--,11.000,27.500
"Fatty acids, total trans",g,--,--,0.000,0.000
"Cholesterol",mg,--,--,0,0
Amino Acids
Other
Ingredients
"SUGAR, HYDROGENATED AND PARTIALLY HYDROGENATED PALM KERNEL OIL, SKIM MILK, LACTOSE, WHOLE AND NONFAT DRY MILK SOLIDS, TITANIUM DIOXIDE (FOR COLOR), DISTILLED MONOGLYCERIDE, RED 40 LAKE, BLUE 2 LAKE, SOY LECITHIN (AN EMULISIFIER), NATURAL AND ARTIFICIAL FLAVORS, SALT." Date available: 07/14/2017 Date last updated by company: 07/14/2017
