Source: USDA Branded Food Products Database Release December 2017 Software v.3.8.6.4 2017-10-02
Report Run at: December 17, 2017 13:57 EST
"Nutrient data for: 45284313, RED WINE VINAIGRETTE, UPC: 070200580374"
Food Group:  Branded Food Products Database
Common Name:

Nutrient,Unit,Data points,Std. Error,"2.0 Tbsp = 31.0g",1Value per 100 g,
Proximates
"Energy",kcal,--,--,80,258
"Protein",g,--,--,0.00,0.00
"Total lipid (fat)",g,--,--,8.00,25.81
"Carbohydrate, by difference",g,--,--,2.00,6.45
"Fiber, total dietary",g,--,--,0.0,0.0
"Sugars, total",g,--,--,1.00,3.23
Minerals
"Calcium, Ca",mg,--,--,0,0
"Iron, Fe",mg,--,--,0.00,0.00
"Sodium, Na",mg,--,--,240,774
Vitamins
"Vitamin C, total ascorbic acid",mg,--,--,0.0,0.0
"Vitamin A, IU",IU,--,--,0,0
Lipids
"Fatty acids, total saturated",g,--,--,1.001,3.230
"Fatty acids, total trans",g,--,--,0.000,0.000
"Cholesterol",mg,--,--,0,0
Amino Acids
Other
Ingredients
"WATER, SOYBEAN OIL, RED WINE VINEGAR, CABERNET WINE (CONTAINS SULFITES), MERLOT WINE, SUGAR, GARLIC*, SALT, NATURAL FLAVOR, ONION*, SPICE, DISTILLED VINEGAR, MUSTARD SEED, YEAST EXTRACT, CORN SYRUP, MOLASSES, SHALLOTS, WHITE WINE, PECTIN, CITRIC ACID, TARTARIC ACID, CARAMEL COLOR, XANTHAN GUM, TAMARIND, OLEORESIN ROSEMARY, ANNATTO COLOR." Date available: 07/14/2017 Date last updated by company: 07/14/2017
