Source: USDA Branded Food Products Database Release December 2017 Software v.3.8.6.4 2017-10-02
Report Run at: December 17, 2017 12:56 EST
"Nutrient data for: 45056423, RED BEANS IN CHILI SAUCE, UPC: 023000982152"
Food Group:  Branded Food Products Database
Common Name:

Nutrient,Unit,Data points,Std. Error,"0.5 cup = 130.0g",1Value per 100 g,
Proximates
"Energy",kcal,--,--,120,92
"Protein",g,--,--,6.01,4.62
"Total lipid (fat)",g,--,--,0.49,0.38
"Carbohydrate, by difference",g,--,--,23.00,17.69
"Fiber, total dietary",g,--,--,10.0,7.7
"Sugars, total",g,--,--,2.00,1.54
Minerals
"Calcium, Ca",mg,--,--,40,31
"Iron, Fe",mg,--,--,5.71,4.39
"Sodium, Na",mg,--,--,370,285
Vitamins
"Vitamin C, total ascorbic acid",mg,--,--,5.1,3.9
"Vitamin A, IU",IU,--,--,845,650
Lipids
"Fatty acids, total saturated",g,--,--,0.000,0.000
"Fatty acids, total trans",g,--,--,0.000,0.000
"Cholesterol",mg,--,--,0,0
Amino Acids
Other
Ingredients
"COOKED SMALL RED BEANS, (BEANS, WATER), WATER, CONTAINS 2% OR LESS OF HIGH FRUCTOSE CORN SYRUP, WHEAT FLOUR, TOMATO PASTE, SALT, SPICES, CORN FLOUR, SOYBEAN OIL, NATURAL FLAVORS." Date available: 07/14/2017 Date last updated by company: 07/14/2017
