Source: USDA Branded Food Products Database Release December 2017 Software v.3.8.6.4 2017-10-02
Report Run at: December 17, 2017 13:19 EST
"Nutrient data for: 45230275, RED ONION, UPC: 688267170010"
Food Group:  Branded Food Products Database
Common Name:

Nutrient,Unit,Data points,Std. Error,"1 MEDIUM ONION = 148.0g",1Value per 100 g,
Proximates
"Energy",kcal,--,--,44,30
"Protein",g,--,--,1.01,0.68
"Total lipid (fat)",g,--,--,0.00,0.00
"Carbohydrate, by difference",g,--,--,10.00,6.76
"Fiber, total dietary",g,--,--,2.1,1.4
"Sugars, total",g,--,--,5.00,3.38
Minerals
"Calcium, Ca",mg,--,--,21,14
"Iron, Fe",mg,--,--,0.00,0.00
"Sodium, Na",mg,--,--,0,0
Vitamins
"Vitamin C, total ascorbic acid",mg,--,--,6.1,4.1
"Vitamin A, IU",IU,--,--,0,0
Lipids
"Fatty acids, total saturated",g,--,--,0.000,0.000
"Fatty acids, total trans",g,--,--,0.000,0.000
"Cholesterol",mg,--,--,0,0
Amino Acids
Other
Ingredients
"ONION" Date available: 02/15/2017 Date last updated by company: 02/15/2017
