Source: USDA Branded Food Products Database Release December 2017 Software v.3.8.6.4 2017-10-02
Report Run at: December 17, 2017 13:23 EST
"Nutrient data for: 45277271, RED RASPBERRIES, UPC: 092825096153"
Food Group:  Branded Food Products Database
Common Name:

Nutrient,Unit,Data points,Std. Error,"1 cup = 140.0g",1Value per 100 g,
Proximates
"Energy",kcal,--,--,70,50
"Protein",g,--,--,2.00,1.43
"Total lipid (fat)",g,--,--,0.99,0.71
"Carbohydrate, by difference",g,--,--,17.00,12.14
"Fiber, total dietary",g,--,--,9.0,6.4
"Sugars, total",g,--,--,6.01,4.29
Minerals
"Calcium, Ca",mg,--,--,41,29
"Iron, Fe",mg,--,--,1.08,0.77
"Sodium, Na",mg,--,--,0,0
Vitamins
"Vitamin C, total ascorbic acid",mg,--,--,36.0,25.7
"Vitamin A, IU",IU,--,--,0,0
Lipids
"Fatty acids, total saturated",g,--,--,0.000,0.000
"Fatty acids, total trans",g,--,--,0.000,0.000
"Cholesterol",mg,--,--,0,0
Amino Acids
Other
Ingredients
"RED RASPBERRIES." Date available: 07/14/2017 Date last updated by company: 07/14/2017
