Source: USDA Branded Food Products Database Release December 2017 Software v.3.8.6.4 2017-10-02
Report Run at: December 17, 2017 13:53 EST
"Nutrient data for: 45230600, RED VELVET MINI BUNDT CAKES WITH REAL CREAM CHEESE FILLING, UPC: 492180200712"
Food Group:  Branded Food Products Database
Common Name:

Nutrient,Unit,Data points,Std. Error,"1 BUNDT = 82.0g",1Value per 100 g,
Proximates
"Energy",kcal,--,--,350,427
"Protein",g,--,--,3.00,3.66
"Total lipid (fat)",g,--,--,16.00,19.51
"Carbohydrate, by difference",g,--,--,49.00,59.76
"Fiber, total dietary",g,--,--,1.0,1.2
"Sugars, total",g,--,--,34.00,41.46
Minerals
"Calcium, Ca",mg,--,--,40,49
"Iron, Fe",mg,--,--,1.05,1.28
"Sodium, Na",mg,--,--,370,451
Vitamins
"Vitamin C, total ascorbic acid",mg,--,--,0.0,0.0
"Vitamin A, IU",IU,--,--,195,238
Lipids
"Fatty acids, total saturated",g,--,--,6.002,7.320
"Fatty acids, total trans",g,--,--,0.000,0.000
"Cholesterol",mg,--,--,20,24
Amino Acids
Other
Ingredients
"SUGAR, ENRICHED BLEACHED WHEAT FLOUR (FLOUR, NIACIN, REDUCED IRON, THIAMINE MONONITRATE, RIBOFLAVIN, FOLIC ACID), CREAM CHEESE (MILK, CREAM, CHEESE CULTURE, SALT, CAROB BEAN GUM), SOYBEAN OIL, MARGARINE (PALM OIL, WATER, SOYBEAN OIL, SALT, MONO AND DIGLYCERIDES, ARTIFICIAL FLAVOR, ANNATTO EXTRACT, CALCIUM DISODIUM EDTA [PRESERVATIVE], VITAMIN A PALMITATE), EGGS, VEGETABLE SHORTENING (PALM AND SOYBEAN OILS, MONO AND DIGLYCERIDES, POLYSORBATE 60, TBHQ [PRESERVATIVE]), BUTTERMILK, CONTAINS LESS THAN 2% OF THE FOLLOWING: MODIFIED CORNSTARCH, COCOA ALKALI PROCESSED, PALM AND PALM KERNEL OILS, LEAVENING (BAKING SODA, SODIUM ALUMINUM PHOSPHATE, SODIUM ACID PYROPHOSPHATE, MONOCALCIUM PHOSPHATE, ALUMINUM SULFATE), EGG WHITES, MONO AND DIGLYCERIDES, SALT, SKIM MILK, MILK, MODIFIED WHEY, WHEY, NATURAL AND ARTIFICIAL FLAVOR, SODIUM STEAROYL LACTYLATE, PROPYLENE GLYCOL MONO AND DIESTERS OF FATS AND FATTY ACIDS, SORBITAN MONOSTEARATE, SOY LECITHIN, CALCIUM ACETATE, GUAR GUM, XANTHAN GUM, NATURAL FLAVOR, RED 40, SODIUM CASEINATE, BUTTERMILK SOLIDS, POLYSORBATE 60, WHEAT GLUTEN, SOY FLOUR." Date available: 07/14/2017 Date last updated by company: 07/14/2017
