Source: USDA Branded Food Products Database Release December 2017 Software v.3.8.6.4 2017-10-02
Report Run at: December 17, 2017 13:13 EST
"Nutrient data for: 45207980, RED ICING, UPC: 042887939998"
Food Group:  Branded Food Products Database
Common Name:

Nutrient,Unit,Data points,Std. Error,"1 PIECE = 28.0g",1Value per 100 g,
Proximates
"Energy",kcal,--,--,80,286
"Protein",g,--,--,0.00,0.00
"Total lipid (fat)",g,--,--,0.00,0.00
"Carbohydrate, by difference",g,--,--,20.00,71.43
"Sugars, total",g,--,--,17.00,60.71
Minerals
"Sodium, Na",mg,--,--,0,0
Vitamins
Lipids
Amino Acids
Other
Ingredients
"SUGAR, WATER, GLUCOSE SYRUP, MODIFIED STARCH, ARTIFICIAL FLAVOR, CARRAGEENAN, CITRIC ACID, POTASSIUM SORBATE, TITANIUM DIOXIDE, ARTIFICIAL COLORS (FD&C RED 40, FD&C YELLOW 5, FD&C RED 3, FD&C BLUE 1)." Date available: 07/14/2017 Date last updated by company: 07/14/2017
