Source: USDA Branded Food Products Database Release December 2017 Software v.3.8.6.4 2017-10-02
Report Run at: December 17, 2017 12:58 EST
"Nutrient data for: 45323628, RED & BLUE TORTILLA CHIPS, UPC: 050428566633"
Food Group:  Branded Food Products Database
Common Name:

Nutrient,Unit,Data points,Std. Error,"1 ONZ = 28.0g",1Value per 100 g,
Proximates
"Energy",kcal,--,--,140,500
"Protein",g,--,--,2.00,7.14
"Total lipid (fat)",g,--,--,8.00,28.57
"Carbohydrate, by difference",g,--,--,16.00,57.14
"Fiber, total dietary",g,--,--,2.0,7.1
"Sugars, total",g,--,--,0.00,0.00
Minerals
"Calcium, Ca",mg,--,--,16,57
"Iron, Fe",mg,--,--,0.40,1.43
"Potassium, K",mg,--,--,0,0
"Sodium, Na",mg,--,--,100,357
Vitamins
"Vitamin D",IU,--,--,0,0
Lipids
"Fatty acids, total saturated",g,--,--,1.000,3.570
"Fatty acids, total trans",g,--,--,0.000,0.000
"Cholesterol",mg,--,--,0,0
Amino Acids
Other
Ingredients
"WHOLE GRAIN CORN, ORGANIC BLUE CORN, VEGETABLE OIL (CORN AND/OR SUNFLOWER OIL), SEA SALT, PROPYLENE GLYCOL, WATER, FD&C RED #40, FD&C BLUE #1, FD&C YELLOW #5, FD&C RED #3" Date available: 09/25/2017 Date last updated by company: 09/25/2017
