Source: USDA Branded Food Products Database Release December 2017 Software v.3.8.6.4 2017-10-02
Report Run at: December 17, 2017 12:56 EST
"Nutrient data for: 45204345, RED BEAN PINEAPPLE BUN, UPC: 874918000311"
Food Group:  Branded Food Products Database
Common Name:

Nutrient,Unit,Data points,Std. Error,"0.5 PIECE = 57.0g",1Value per 100 g,
Proximates
"Energy",kcal,--,--,210,368
"Protein",g,--,--,6.00,10.53
"Total lipid (fat)",g,--,--,5.00,8.77
"Carbohydrate, by difference",g,--,--,33.00,57.89
"Fiber, total dietary",g,--,--,1.0,1.8
"Sugars, total",g,--,--,5.00,8.77
Minerals
"Calcium, Ca",mg,--,--,20,35
"Iron, Fe",mg,--,--,1.04,1.83
"Sodium, Na",mg,--,--,150,263
Vitamins
"Vitamin C, total ascorbic acid",mg,--,--,1.1,2.0
"Vitamin A, IU",IU,--,--,0,0
Lipids
"Fatty acids, total saturated",g,--,--,2.502,4.390
"Fatty acids, total trans",g,--,--,0.000,0.000
"Cholesterol",mg,--,--,15,26
Amino Acids
Other
Ingredients
"BREAD FLOUR (ENRICHED WHEAT FLOUR BLEACHED [FLOUR, NIACIN, IRON THIAMINE MONONITRATE, RIBOFLAVIN, FOLIC ACID]), RED BEAN FILLING (RED BEAN, SUGAR, MALTOSE, SOYBEAN OIL), WATER, SUGAR PALM SHORTENING, WHOLE EGGS, MARGARINE, MILK POWDER (MILK PROTEIN CONCENTRATE, NON-FAT DRY MILK, LACTOSE), BREAD BASE (DEXTROSE, SOYBEAN OIL, SUGAR, SALT, CORN STARCH, SOY FLOUR), BUTTER, YEAST SALT, BLACK SESAME SEEDS, EGG MILK FLAVOR." Date available: 07/14/2017 Date last updated by company: 07/14/2017
