Source: USDA Branded Food Products Database Release December 2017 Software v.3.8.6.4 2017-10-02
Report Run at: December 17, 2017 13:22 EST
"Nutrient data for: 45242597, RED POP! SODA, UPC: 07387835"
Food Group:  Branded Food Products Database
Common Name:

Nutrient,Unit,Data points,Std. Error,"1 CAN = 355.0g",1Value per 100 g,
Proximates
"Energy",kcal,--,--,149,42
"Protein",g,--,--,0.00,0.00
"Total lipid (fat)",g,--,--,0.00,0.00
"Carbohydrate, by difference",g,--,--,36.99,10.42
"Sugars, total",g,--,--,36.99,10.42
Minerals
"Sodium, Na",mg,--,--,39,11
Vitamins
Lipids
Amino Acids
Other
Ingredients
"CARBONATED WATER, HIGH FRUCTOSE CORN SYRUP, CITRIC ACID, POTASSIUM BENZOATE (PRESERVATIVE), RED 40, GUM ACACIA, NATURAL AND ARTIFICIAL FLAVORS, SUCRALOSE, POTASSIUM SORBATE (PRESERVATIVE).F1" Date available: 07/14/2017 Date last updated by company: 07/14/2017
