Source: USDA Branded Food Products Database Release December 2017 Software v.3.8.6.4 2017-10-02
Report Run at: December 17, 2017 13:17 EST
"Nutrient data for: 45025475, REDMOND, REAL SALT GRANULAR, UPC: 000000018371"
Food Group:  Branded Food Products Database
Common Name:

Nutrient,Unit,Data points,Std. Error,"0.25 tsp = 1.4g",1Value per 100 g,
Proximates
Minerals
"Sodium, Na",mg,--,--,530,37857
Vitamins
Lipids
Amino Acids
Other
Ingredients
"ANCIENT SEA SALT WITH NATURAL TRACE MINERALS" Date available: 08/17/2017 Date last updated by company: 08/17/2017
