Source: USDA Branded Food Products Database Release December 2017 Software v.3.8.6.4 2017-10-02
Report Run at: December 17, 2017 13:43 EST
"Nutrient data for: 45263716, REDUCED FAT MILK, UPC: 028300003224"
Food Group:  Branded Food Products Database
Common Name:

Nutrient,Unit,Data points,Std. Error,"1 BOTTLE = 354.0g",1Value per 100 g,
Proximates
"Energy",kcal,--,--,301,85
"Protein",g,--,--,12.99,3.67
"Total lipid (fat)",g,--,--,8.00,2.26
"Carbohydrate, by difference",g,--,--,43.01,12.15
"Fiber, total dietary",g,--,--,1.1,0.3
"Sugars, total",g,--,--,40.00,11.30
Minerals
"Calcium, Ca",mg,--,--,450,127
"Iron, Fe",mg,--,--,0.50,0.14
"Potassium, K",mg,--,--,598,169
"Sodium, Na",mg,--,--,301,85
Vitamins
"Vitamin C, total ascorbic acid",mg,--,--,2.5,0.7
"Vitamin A, IU",IU,--,--,510,144
"Vitamin D",IU,--,--,159,45
Lipids
"Fatty acids, total saturated",g,--,--,4.991,1.410
"Fatty acids, total trans",g,--,--,0.000,0.000
"Cholesterol",mg,--,--,35,10
Amino Acids
Other
Ingredients
"REDUCED FAT MILK, SUGAR, COCOA (PROCESSED WITH ALKALI), CORN STARCH, SALT, CARRAGEENAN, NATURAL VANILLA, VITAMINS A & D." Date available: 07/14/2017 Date last updated by company: 07/14/2017
