Source: USDA Branded Food Products Database Release December 2017 Software v.3.8.6.4 2017-10-02
Report Run at: December 17, 2017 13:47 EST
"Nutrient data for: 45263682, REDUCED FAT MMMMILK, UPC: 028300000322"
Food Group:  Branded Food Products Database
Common Name:

Nutrient,Unit,Data points,Std. Error,"1 cup = 240.0g",1Value per 100 g,
Proximates
"Energy",kcal,--,--,120,50
"Protein",g,--,--,7.99,3.33
"Total lipid (fat)",g,--,--,4.51,1.88
"Carbohydrate, by difference",g,--,--,12.00,5.00
"Fiber, total dietary",g,--,--,0.0,0.0
"Sugars, total",g,--,--,12.00,5.00
Minerals
"Calcium, Ca",mg,--,--,300,125
"Iron, Fe",mg,--,--,0.00,0.00
"Potassium, K",mg,--,--,401,167
"Sodium, Na",mg,--,--,120,50
Vitamins
"Vitamin C, total ascorbic acid",mg,--,--,2.4,1.0
"Vitamin A, IU",IU,--,--,499,208
"Vitamin D",IU,--,--,101,42
Lipids
"Fatty acids, total saturated",g,--,--,3.000,1.250
"Fatty acids, total trans",g,--,--,0.000,0.000
"Cholesterol",mg,--,--,19,8
Amino Acids
Other
Ingredients
"REDUCED FAT MILK, VITAMIN A & D." Date available: 07/14/2017 Date last updated by company: 07/14/2017
