Source: USDA Branded Food Products Database Release December 2017 Software v.3.8.6.4 2017-10-02
Report Run at: December 17, 2017 13:42 EST
"Nutrient data for: 45227853, REDUCED FAT MILK, UPC: 071580001688"
Food Group:  Branded Food Products Database
Common Name:

Nutrient,Unit,Data points,Std. Error,"1 cup = 240.0g",1Value per 100 g,
Proximates
"Energy",kcal,--,--,180,75
"Protein",g,--,--,7.01,2.92
"Total lipid (fat)",g,--,--,4.51,1.88
"Carbohydrate, by difference",g,--,--,28.01,11.67
"Fiber, total dietary",g,--,--,1.0,0.4
"Sugars, total",g,--,--,27.00,11.25
Minerals
"Calcium, Ca",mg,--,--,250,104
"Iron, Fe",mg,--,--,0.72,0.30
"Sodium, Na",mg,--,--,190,79
Vitamins
"Vitamin C, total ascorbic acid",mg,--,--,1.2,0.5
"Vitamin A, IU",IU,--,--,499,208
"Vitamin D",IU,--,--,101,42
Lipids
"Fatty acids, total saturated",g,--,--,3.000,1.250
"Fatty acids, total trans",g,--,--,0.000,0.000
"Cholesterol",mg,--,--,19,8
Amino Acids
Other
Ingredients
"REDUCED FAT MILK, SUGAR, COCOA, LOCUST BEAN GUM, CARRAGEENAN, ARTIFICIAL VANILLA, VITAMIN A PALMITATE, VITAMIN D3 ADDED." Date available: 07/14/2017 Date last updated by company: 07/14/2017
