Source: USDA Branded Food Products Database Release December 2017 Software v.3.8.6.4 2017-10-02
Report Run at: December 17, 2017 13:50 EST
"Nutrient data for: 45164182, REDUCED SODIUM MIXED NUTS WITH PEANUTS, UPC: 046567031057"
Food Group:  Branded Food Products Database
Common Name:

Nutrient,Unit,Data points,Std. Error,"0.25 cup = 30.0g",1Value per 100 g,
Proximates
"Energy",kcal,--,--,170,567
"Protein",g,--,--,7.00,23.33
"Total lipid (fat)",g,--,--,15.00,50.00
"Carbohydrate, by difference",g,--,--,6.00,20.00
"Fiber, total dietary",g,--,--,3.0,10.0
"Sugars, total",g,--,--,1.00,3.33
Minerals
"Calcium, Ca",mg,--,--,40,133
"Iron, Fe",mg,--,--,2.40,8.00
"Sodium, Na",mg,--,--,60,200
Vitamins
"Vitamin C, total ascorbic acid",mg,--,--,0.0,0.0
"Vitamin A, IU",IU,--,--,0,0
Lipids
"Fatty acids, total saturated",g,--,--,2.001,6.670
"Fatty acids, total trans",g,--,--,0.000,0.000
"Cholesterol",mg,--,--,0,0
Amino Acids
Other
Ingredients
"PEANUTS, ALMONDS, CASHEWS, FILBERTS, VEGETABLE OIL (MAY CONTAIN ONE OR MORE OF THE FOLLOWING: PEANUT, CANOLA, SUNFLOWER AND/OR SOYBEAN OIL), SEA SALT." Date available: 10/03/2017 Date last updated by company: 10/03/2017
