Source: USDA Branded Food Products Database Release December 2017 Software v.3.8.6.4 2017-10-02
Report Run at: December 17, 2017 13:32 EST
"Nutrient data for: 45280717, REDUCED CALORIE SYRUP, UPC: 07078445857"
Food Group:  Branded Food Products Database
Common Name:

Nutrient,Unit,Data points,Std. Error,"0.25 cup = 60.0g",1Value per 100 g,
Proximates
"Energy",kcal,--,--,35,58
"Protein",g,--,--,0.00,0.00
"Total lipid (fat)",g,--,--,0.00,0.00
"Carbohydrate, by difference",g,--,--,11.00,18.33
"Fiber, total dietary",g,--,--,1.0,1.7
"Sugars, total",g,--,--,0.00,0.00
Minerals
"Calcium, Ca",mg,--,--,0,0
"Iron, Fe",mg,--,--,0.00,0.00
"Sodium, Na",mg,--,--,115,192
Vitamins
"Vitamin C, total ascorbic acid",mg,--,--,0.0,0.0
"Vitamin A, IU",IU,--,--,0,0
Lipids
"Fatty acids, total saturated",g,--,--,0.000,0.000
"Fatty acids, total trans",g,--,--,0.000,0.000
"Cholesterol",mg,--,--,0,0
Amino Acids
Other
Ingredients
"WATER, SORBITOL*, CONTAINS LESS THAN 2% OF: CELLULOSE GUM, SALT, NATURAL AND ARTIFICIAL FLAVORS, CARAMEL COLOR, XANTHAN GUM, SORBIC ACID AND SODIUM BENZOATE (PRESERVATIVES), ACESULFAME POTASSIUM (NONNUTRITIVE SWEETENER)*, POTASSIUM CHLORIDE*, SODIUM HEXAMETAPHOSPHATE, PHOSPHORIC ACID, SUCRALOSE (NONNUTRITIVE SWEETENER)*." Date available: 07/14/2017 Date last updated by company: 07/14/2017
