Source: USDA Branded Food Products Database Release December 2017 Software v.3.8.6.4 2017-10-02
Report Run at: December 17, 2017 13:51 EST
"Nutrient data for: 45272744, REDUCED SUGAR JUICE COCKTAIL BLEND FROM CONCENTRATE, UPC: 075355114757"
Food Group:  Branded Food Products Database
Common Name:

Nutrient,Unit,Data points,Std. Error,"8.0 OZA = 240.0g",1Value per 100 g,
Proximates
"Energy",kcal,--,--,19,8
"Protein",g,--,--,0.00,0.00
"Total lipid (fat)",g,--,--,0.00,0.00
"Carbohydrate, by difference",g,--,--,4.01,1.67
"Sugars, total",g,--,--,4.01,1.67
Minerals
"Calcium, Ca",mg,--,--,19,8
"Iron, Fe",mg,--,--,0.36,0.15
"Potassium, K",mg,--,--,24,10
"Sodium, Na",mg,--,--,14,6
Vitamins
"Vitamin C, total ascorbic acid",mg,--,--,6.0,2.5
"Vitamin A, IU",IU,--,--,0,0
Lipids
"Cholesterol",mg,--,--,0,0
Amino Acids
Other
Ingredients
"FILTERED WATER, CRANBERRY JUICE CONCENTRATE, ARONIA BERRY JUICE CONCENTRATE, CITRIC ACID, NATURAL FLAVORS, ACESULFAME POTASSIUM, SUCRALOSE (SPLENDA BRAND), ASCORBIC ACID (VITAMIN C)." Date available: 08/20/2017 Date last updated by company: 08/20/2017
