Source: USDA Branded Food Products Database Release December 2017 Software v.3.8.6.4 2017-10-02
Report Run at: December 17, 2017 13:34 EST
"Nutrient data for: 45191838, REDUCED FAT CREAMY PEANUT SPREAD, UPC: 092825111603"
Food Group:  Branded Food Products Database
Common Name:

Nutrient,Unit,Data points,Std. Error,"2.0 Tbsp = 36.0g",1Value per 100 g,
Proximates
"Energy",kcal,--,--,190,528
"Protein",g,--,--,9.00,25.00
"Total lipid (fat)",g,--,--,12.00,33.33
"Carbohydrate, by difference",g,--,--,13.00,36.11
"Fiber, total dietary",g,--,--,2.0,5.6
"Sugars, total",g,--,--,5.00,13.89
Minerals
"Calcium, Ca",mg,--,--,0,0
"Iron, Fe",mg,--,--,1.00,2.78
"Sodium, Na",mg,--,--,240,667
Vitamins
"Vitamin C, total ascorbic acid",mg,--,--,0.0,0.0
"Vitamin A, IU",IU,--,--,0,0
Lipids
"Fatty acids, total saturated",g,--,--,2.498,6.940
"Fatty acids, total trans",g,--,--,0.000,0.000
"Cholesterol",mg,--,--,0,0
Amino Acids
Other
Ingredients
"PEANUTS, CORN SYRUP SOLIDS, PARTIALLY DEFATTED PEANUT FLOUR, SALT, HYDROGENATED VEGETABLE OIL (RAPESEED AND/OR COTTONSEED), MOLASSES." Date available: 07/14/2017 Date last updated by company: 07/14/2017
