Source: USDA Branded Food Products Database Release December 2017 Software v.3.8.6.4 2017-10-02
Report Run at: December 17, 2017 13:39 EST
"Nutrient data for: 45157466, REDUCED FAT MILK, UPC: 072060002300"
Food Group:  Branded Food Products Database
Common Name:

Nutrient,Unit,Data points,Std. Error,"1 cup = 240.0g",1Value per 100 g,
Proximates
"Energy",kcal,--,--,221,92
"Protein",g,--,--,7.99,3.33
"Total lipid (fat)",g,--,--,4.51,1.88
"Carbohydrate, by difference",g,--,--,37.01,15.42
"Fiber, total dietary",g,--,--,0.0,0.0
"Sugars, total",g,--,--,37.01,15.42
Minerals
"Calcium, Ca",mg,--,--,300,125
"Iron, Fe",mg,--,--,0.00,0.00
"Sodium, Na",mg,--,--,106,44
Vitamins
"Vitamin C, total ascorbic acid",mg,--,--,0.0,0.0
"Vitamin A, IU",IU,--,--,499,208
"Vitamin D",IU,--,--,101,42
Lipids
"Fatty acids, total saturated",g,--,--,3.000,1.250
"Fatty acids, total trans",g,--,--,0.000,0.000
"Cholesterol",mg,--,--,19,8
Amino Acids
Other
Ingredients
"GRADE A REDUCED FAT MILK, CHAI TEA EXTRACT, SUGAR, STABILIZER (MODIFIED CORNSTARCH, GUAR GUM AND CARRAGEENAN), NATURAL AND ARTIFICIAL FLAVOR, VITAMIN A PALMITATE AND VITAMIN D3." Date available: 07/14/2017 Date last updated by company: 07/14/2017
