Source: USDA Branded Food Products Database Release December 2017 Software v.3.8.6.4 2017-10-02
Report Run at: December 17, 2017 13:38 EST
"Nutrient data for: 45282332, REDUCED FAT ICE CREAM, UPC: 041130285547"
Food Group:  Branded Food Products Database
Common Name:

Nutrient,Unit,Data points,Std. Error,"0.5 cup = 64.0g",1Value per 100 g,
Proximates
"Energy",kcal,--,--,120,188
"Protein",g,--,--,2.00,3.12
"Total lipid (fat)",g,--,--,4.50,7.03
"Carbohydrate, by difference",g,--,--,19.00,29.69
"Fiber, total dietary",g,--,--,0.0,0.0
"Sugars, total",g,--,--,12.00,18.75
Minerals
"Calcium, Ca",mg,--,--,60,94
"Iron, Fe",mg,--,--,0.00,0.00
"Sodium, Na",mg,--,--,40,62
Vitamins
"Vitamin C, total ascorbic acid",mg,--,--,0.0,0.0
"Vitamin A, IU",IU,--,--,225,352
Lipids
"Fatty acids, total saturated",g,--,--,3.002,4.690
"Fatty acids, total trans",g,--,--,0.000,0.000
"Cholesterol",mg,--,--,20,31
Amino Acids
Other
Ingredients
"MILKFAT AND NONFAT MILK, FUDGE SWIRL (CORN SYRUP, SUGAR, WATER, HIGH FRUCTOSE CORN SYRUP, COCOA [PROCESSED WITH ALKALI], WHEY, PECTIN), SWEET CREAM BUTTERMILK, HIGH FRUCTOSE CORN SYRUP, CORN SYRUP, WHEY, MALTODEXTRIN, MONO & DIGLYCERIDES, NATURAL AND ARTIFICIAL FLAVOR, TAPIOCA STARCH, GUAR GUM, LOCUST BEAN GUM, POLYSORBATE 80, CARRAGEENAN, ANNATTO (COLOR), SUCRALOSE." Date available: 07/14/2017 Date last updated by company: 07/14/2017
