Source: USDA Branded Food Products Database Release December 2017 Software v.3.8.6.4 2017-10-02
Report Run at: December 17, 2017 13:58 EST
"Nutrient data for: 45025254, REDWOOD HILL FARM, GOAT MILK YOGURT, STRAWBERRY, UPC: 081312200647"
Food Group:  Branded Food Products Database
Common Name:

Nutrient,Unit,Data points,Std. Error,"1 CONTAINER = 170.0g",1Value per 100 g,
Proximates
"Energy",kcal,--,--,150,88
"Protein",g,--,--,6.00,3.53
"Total lipid (fat)",g,--,--,3.50,2.06
"Carbohydrate, by difference",g,--,--,24.00,14.12
"Fiber, total dietary",g,--,--,1.0,0.6
"Sugars, total",g,--,--,19.99,11.76
Minerals
"Calcium, Ca",mg,--,--,150,88
"Iron, Fe",mg,--,--,1.09,0.64
"Sodium, Na",mg,--,--,65,38
Vitamins
"Vitamin C, total ascorbic acid",mg,--,--,3.6,2.1
"Vitamin A, IU",IU,--,--,100,59
Lipids
"Fatty acids, total saturated",g,--,--,2.499,1.470
"Fatty acids, total trans",g,--,--,0.000,0.000
"Cholesterol",mg,--,--,26,15
Amino Acids
Other
Ingredients
"GRADE A PASTEURIZED WHOLE GOAT MILK, FRUIT (HONEY, ORGANIC STRAWBERRIES, WATER, ORGANIC APPLE JUICE CONCENTRATE, NATURAL FLAVORS, PECTIN, LOCUST BEAN GUM, RED CABBAGE JUICE [FOR COLOR], CITRIC ACID), TAPIOCA STARCH, PECTIN AND LIVE ACTIVE CULTURES: S. THERMOPHILUS, L. BULGARICUS, L. ACIDOPHILUS & BIFIDUS." Date available: 07/14/2017 Date last updated by company: 07/14/2017
