Source: USDA Branded Food Products Database Release December 2017 Software v.3.8.6.4 2017-10-02
Report Run at: December 17, 2017 13:59 EST
"Nutrient data for: 45232810, REESE, GRILLED MARINATED ASPARAGUS SPEARS, UPC: 070670005520"
Food Group:  Branded Food Products Database
Common Name:

Nutrient,Unit,Data points,Std. Error,"0.25 JAR = 85.0g",1Value per 100 g,
Proximates
"Energy",kcal,--,--,40,47
"Protein",g,--,--,2.00,2.35
"Total lipid (fat)",g,--,--,1.00,1.18
"Carbohydrate, by difference",g,--,--,5.00,5.88
"Fiber, total dietary",g,--,--,1.0,1.2
"Sugars, total",g,--,--,2.00,2.35
Minerals
"Calcium, Ca",mg,--,--,20,24
"Iron, Fe",mg,--,--,0.72,0.85
"Sodium, Na",mg,--,--,390,459
Vitamins
"Vitamin C, total ascorbic acid",mg,--,--,18.0,21.2
"Vitamin A, IU",IU,--,--,500,588
Lipids
"Fatty acids, total saturated",g,--,--,0.000,0.000
"Fatty acids, total trans",g,--,--,0.000,0.000
"Cholesterol",mg,--,--,0,0
Amino Acids
Other
Ingredients
"GREEN ASPARAGUS, WATER, CANE VINEGAR, SUGAR, SUNFLOWER OIL, SALT AND SPICES." Date available: 09/23/2016 Date last updated by company: 09/23/2016
