Source: USDA Branded Food Products Database Release December 2017 Software v.3.8.6.4 2017-10-02
Report Run at: December 17, 2017 14:08 EST
"Nutrient data for: 45280189, REFRIED BEANS, UPC: 075450017991"
Food Group:  Branded Food Products Database
Common Name:

Nutrient,Unit,Data points,Std. Error,"0.5 cup = 130.0g",1Value per 100 g,
Proximates
"Energy",kcal,--,--,100,77
"Protein",g,--,--,6.01,4.62
"Total lipid (fat)",g,--,--,1.50,1.15
"Carbohydrate, by difference",g,--,--,17.00,13.08
"Fiber, total dietary",g,--,--,6.0,4.6
"Sugars, total",g,--,--,1.00,0.77
Minerals
"Calcium, Ca",mg,--,--,38,29
"Iron, Fe",mg,--,--,1.60,1.23
"Sodium, Na",mg,--,--,480,369
Vitamins
"Vitamin C, total ascorbic acid",mg,--,--,0.0,0.0
"Vitamin A, IU",IU,--,--,0,0
"Vitamin D",IU,--,--,0,0
Lipids
"Fatty acids, total saturated",g,--,--,0.000,0.000
"Fatty acids, total trans",g,--,--,0.000,0.000
"Cholesterol",mg,--,--,0,0
Amino Acids
Other
Ingredients
"PREPARED PINTO BEANS, WATER, CONTAINS LESS THAN 2%: SALT, LARD, ONION POWDER, CHILI PEPPER, SPICE, GARLIC POWDER." Date available: 10/13/2017 Date last updated by company: 10/13/2017
