Source: USDA Branded Food Products Database Release December 2017 Software v.3.8.6.4 2017-10-02
Report Run at: December 17, 2017 14:09 EST
"Nutrient data for: 45196025, REFRIED BLACK BEANS, UPC: 041303058558"
Food Group:  Branded Food Products Database
Common Name:

Nutrient,Unit,Data points,Std. Error,"0.5 cup = 120.0g",1Value per 100 g,
Proximates
"Energy",kcal,--,--,110,92
"Protein",g,--,--,6.00,5.00
"Total lipid (fat)",g,--,--,2.50,2.08
"Carbohydrate, by difference",g,--,--,18.00,15.00
"Fiber, total dietary",g,--,--,6.0,5.0
"Sugars, total",g,--,--,1.00,0.83
Minerals
"Calcium, Ca",mg,--,--,40,33
"Iron, Fe",mg,--,--,1.56,1.30
"Sodium, Na",mg,--,--,450,375
Vitamins
"Vitamin C, total ascorbic acid",mg,--,--,0.0,0.0
"Vitamin A, IU",IU,--,--,0,0
Lipids
"Fatty acids, total saturated",g,--,--,0.996,0.830
"Fatty acids, total trans",g,--,--,0.000,0.000
"Cholesterol",mg,--,--,0,0
Amino Acids
Other
Ingredients
"COOKED BLACK BEANS, WATER, CONTAINS 2% OR LESS OF THE FOLLOWING: SALT, LARD, ONION POWDER, CHILI PEPPER, SPICE, GARLIC POWDER" Date available: 07/14/2017 Date last updated by company: 07/14/2017
