Source: USDA Branded Food Products Database Release December 2017 Software v.3.8.6.4 2017-10-02
Report Run at: December 17, 2017 14:04 EST
"Nutrient data for: 45162889, REFRESHE, MOUNTAIN BREEZE SODA, CITRUS, UPC: 021130252459"
Food Group:  Branded Food Products Database
Common Name:

Nutrient,Unit,Data points,Std. Error,"1 CAN = 355.0g",1Value per 100 g,
Proximates
"Energy",kcal,--,--,181,51
"Protein",g,--,--,0.00,0.00
"Total lipid (fat)",g,--,--,0.00,0.00
"Carbohydrate, by difference",g,--,--,48.00,13.52
"Sugars, total",g,--,--,48.00,13.52
Minerals
"Sodium, Na",mg,--,--,60,17
Vitamins
Lipids
Amino Acids
Other
Ingredients
"CARBONATED WATER, HIGH FRUCTOSE CORN SYRUP, CITRIC ACID, NATURAL FLAVOR, SODIUM BENZOATE (A PRESERVATIVE), SODIUM CITRATE, CAFFEINE, GUM ACACIA, CALCIUM DISODIUM EDTA (TO PROTECT FLAVOR), ESTER GUM, YELLOW 5." Date available: 07/14/2017 Date last updated by company: 07/14/2017
