Source: USDA Branded Food Products Database Release December 2017 Software v.3.8.6.4 2017-10-02
Report Run at: December 17, 2017 14:03 EST
"Nutrient data for: 45150924, REFRESHE, GINGER ALE, UPC: 021130252718"
Food Group:  Branded Food Products Database
Common Name:

Nutrient,Unit,Data points,Std. Error,"8.0 OZA = 240.0g",1Value per 100 g,
Proximates
"Energy",kcal,--,--,79,33
"Protein",g,--,--,0.00,0.00
"Total lipid (fat)",g,--,--,0.00,0.00
"Carbohydrate, by difference",g,--,--,21.00,8.75
"Sugars, total",g,--,--,21.00,8.75
Minerals
"Sodium, Na",mg,--,--,29,12
Vitamins
Lipids
Amino Acids
Other
Ingredients
"CARBONATED WATER, HIGH FRUCTOSE CORN SYRUP, CITRIC ACID, SODIUM BENZOATE (A PRESERVATIVE), CARAMEL COLOR, NATURAL FLAVORS." Date available: 07/14/2017 Date last updated by company: 07/14/2017
