Source: USDA Branded Food Products Database Release December 2017 Software v.3.8.6.4 2017-10-02
Report Run at: December 17, 2017 14:08 EST
"Nutrient data for: 45266126, REFRIED BEANS WITH JALAPENO, UPC: 070278000705"
Food Group:  Branded Food Products Database
Common Name:

Nutrient,Unit,Data points,Std. Error,"0.5 cup = 130.0g",1Value per 100 g,
Proximates
"Energy",kcal,--,--,140,108
"Protein",g,--,--,6.99,5.38
"Total lipid (fat)",g,--,--,2.50,1.92
"Carbohydrate, by difference",g,--,--,22.00,16.92
"Fiber, total dietary",g,--,--,4.9,3.8
"Sugars, total",g,--,--,1.00,0.77
Minerals
"Calcium, Ca",mg,--,--,40,31
"Iron, Fe",mg,--,--,1.79,1.38
"Potassium, K",mg,--,--,500,385
"Sodium, Na",mg,--,--,480,369
Vitamins
"Vitamin C, total ascorbic acid",mg,--,--,3.6,2.8
"Vitamin A, IU",IU,--,--,0,0
Lipids
"Fatty acids, total saturated",g,--,--,1.001,0.770
"Fatty acids, total trans",g,--,--,0.000,0.000
"Cholesterol",mg,--,--,0,0
Amino Acids
Other
Ingredients
"WATER, PINTO BEANS, JALAPENO PEPPERS, LARD, SALT." Date available: 07/14/2017 Date last updated by company: 07/14/2017
