Source: USDA Branded Food Products Database Release December 2017 Software v.3.8.6.4 2017-10-02
Report Run at: December 17, 2017 14:18 EST
"Nutrient data for: 45322264, RENOLA GRAIN FREE GRANOLA, UPC: 021908488240"
Food Group:  Branded Food Products Database
Common Name:

Nutrient,Unit,Data points,Std. Error,"1 POUCH = 35.0g",1Value per 100 g,
Proximates
"Energy",kcal,--,--,200,571
"Protein",g,--,--,6.00,17.14
"Total lipid (fat)",g,--,--,14.00,40.00
"Carbohydrate, by difference",g,--,--,12.00,34.29
"Fiber, total dietary",g,--,--,2.0,5.7
"Sugars, total",g,--,--,8.00,22.86
Minerals
"Calcium, Ca",mg,--,--,40,114
"Iron, Fe",mg,--,--,3.86,11.02
"Sodium, Na",mg,--,--,10,29
Vitamins
"Vitamin C, total ascorbic acid",mg,--,--,0.0,0.0
"Vitamin A, IU",IU,--,--,0,0
Lipids
"Fatty acids, total saturated",g,--,--,1.502,4.290
"Fatty acids, total trans",g,--,--,0.000,0.000
"Cholesterol",mg,--,--,0,0
Amino Acids
Other
Ingredients
"ALMONDS, SUNFLOWER SEEDS, DRIED MOLASSES, PUMPKIN SEEDS, PECANS, RAISINS, CASHEWS, TAPIOCA SYRUP, CINNAMON, VANILLA EXTRACT." Date available: 07/14/2017 Date last updated by company: 07/14/2017
