Source: USDA Branded Food Products Database Release December 2017 Software v.3.8.6.4 2017-10-02
Report Run at: December 17, 2017 14:20 EST
"Nutrient data for: 45017066, RESER'S FINE FOODS, ORIGINAL POTATO SALAD, UPC: 071117184006"
Food Group:  Branded Food Products Database
Common Name:

Nutrient,Unit,Data points,Std. Error,"0.5 cup = 135.0g",1Value per 100 g,
Proximates
"Energy",kcal,--,--,230,170
"Protein",g,--,--,3.00,2.22
"Total lipid (fat)",g,--,--,12.00,8.89
"Carbohydrate, by difference",g,--,--,28.00,20.74
"Fiber, total dietary",g,--,--,3.0,2.2
"Sugars, total",g,--,--,8.01,5.93
Minerals
"Calcium, Ca",mg,--,--,0,0
"Iron, Fe",mg,--,--,1.50,1.11
"Sodium, Na",mg,--,--,540,400
Vitamins
"Vitamin C, total ascorbic acid",mg,--,--,0.0,0.0
"Vitamin A, IU",IU,--,--,104,77
Lipids
"Fatty acids, total saturated",g,--,--,2.498,1.850
"Fatty acids, total trans",g,--,--,0.000,0.000
"Cholesterol",mg,--,--,9,7
Amino Acids
Other
Ingredients
"POTATOES, MAYONNAISE (SOYBEAN OIL, WATER, EGG YOLKS, VINEGAR, HIGH FRUCTOSE CORN SYRUP, SALT, SPICE, CALCIUM DISODIUM EDTA TO PROTECT FLAVOR), HIGH FRUCTOSE CORN SYRUP, CELERY, SWEET PICKLES (CURED CUCUMBERS, HIGH FRUCTOSE CORN SYRUP, VINEGAR, SALT, XANTHAN GUM, SODIUM BENZOATE, NATURAL FLAVORING, POLYSORBATE 80, CALCIUM CHLORIDE), MUSTARD (WATER, VINEGAR, MUSTARD SEED, SALT, SUGAR, SOYBEAN OIL, TURMERIC, ANNATTO, GARLIC, SPICES, XANTHAN GUM, CALCIUM DISODIUM EDTA; RETAINS PRODUCT FRESHNESS, NATURAL FLAVOR, CITRIC ACID), ONION, WATER, SALT, BELL PEPPER, VINEGAR, MODIFIED CORN STARCH, SPICE, POTASSIUM SORBATE AND SODIUM BENZOATE TO PROTECT FLAVOR, XANTHAN GUM, ANNATTO COLOR." Date available: 06/25/2017 Date last updated by company: 06/25/2017
