Source: USDA Branded Food Products Database Release December 2017 Software v.3.8.6.4 2017-10-02
Report Run at: December 17, 2017 14:19 EST
"Nutrient data for: 45119159, RESER'S FINE FOODS, BAKED MACARONI & CHEESE, UPC: 071117023497"
Food Group:  Branded Food Products Database
Common Name:

Nutrient,Unit,Data points,Std. Error,"0.66 cup = 150.0g",1Value per 100 g,
Proximates
"Energy",kcal,--,--,200,133
"Protein",g,--,--,10.99,7.33
"Total lipid (fat)",g,--,--,8.00,5.33
"Carbohydrate, by difference",g,--,--,20.00,13.33
"Fiber, total dietary",g,--,--,1.1,0.7
"Sugars, total",g,--,--,2.00,1.33
Minerals
"Calcium, Ca",mg,--,--,200,133
"Iron, Fe",mg,--,--,2.40,1.60
"Sodium, Na",mg,--,--,650,433
Vitamins
"Vitamin C, total ascorbic acid",mg,--,--,0.0,0.0
"Vitamin A, IU",IU,--,--,666,444
Lipids
"Fatty acids, total saturated",g,--,--,4.995,3.330
"Fatty acids, total trans",g,--,--,0.000,0.000
"Cholesterol",mg,--,--,26,17
Amino Acids
Other
Ingredients
"COOKED MACARONI (SEMOLINA WHEAT FLOUR [ENRICHED WITH NIACIN, IRON, THIAMINE MONONITRATE, RIBOFLAVIN, FOLIC ACID], EGG WHITE), WATER, PASTEURIZED PROCESS CHEESE SPREAD (AMERICAN CHEESE [MILK, CHEESE CULTURE, SALT, ENZYMES], WATER, WHEY, SODIUM PHOSPHATE, WHEY PROTEIN CONCENTRATE, SKIM MILK, SALT, MILKFAT, ARTIFICIAL COLOR), CHEDDAR CHEESE (PASTEURIZED MILK, CHEESE CULTURES, SALT, ENZYMES, ANNATTO COLOR, NATAMYCIN [NATURAL MOLD INHIBITOR]), CHEDDAR CLUB CHEESE(CHEDDAR CHEESE [PASTEURIZED MILK, CHEESE CULTURE, SALT, ENZYMES], WATER, SALT, ANNATTO COLOR), MODIFIED CORN STARCH, SALT, DEXTROSE, ONION BASE (ONION GRANULES, SALT, CORN OIL, MALTODEXTRIN [FROM CORN], SUGAR, POTATO FLOUR, NATURAL FLAVORING), ANNATTO COLOR, POTASSIUM SORBATE TO PROTECT FLAVOR." Date available: 06/25/2017 Date last updated by company: 06/25/2017
