Source: USDA Branded Food Products Database Release December 2017 Software v.3.8.6.4 2017-10-02
Report Run at: December 17, 2017 14:22 EST
"Nutrient data for: 45183390, RESTAURANT STYLE PLAIN ENGLISH MUFFINS, UPC: 072945612389"
Food Group:  Branded Food Products Database
Common Name:

Nutrient,Unit,Data points,Std. Error,"1 MUFFIN = 57.0g",1Value per 100 g,
Proximates
"Energy",kcal,--,--,130,228
"Protein",g,--,--,4.00,7.02
"Total lipid (fat)",g,--,--,1.00,1.75
"Carbohydrate, by difference",g,--,--,26.00,45.61
"Fiber, total dietary",g,--,--,1.0,1.8
"Sugars, total",g,--,--,1.00,1.75
Minerals
"Calcium, Ca",mg,--,--,40,70
"Iron, Fe",mg,--,--,1.39,2.44
"Sodium, Na",mg,--,--,220,386
Vitamins
"Vitamin C, total ascorbic acid",mg,--,--,0.0,0.0
"Thiamin",mg,--,--,0.000,0.000
"Riboflavin",mg,--,--,0.136,0.239
"Niacin",mg,--,--,1.544,2.709
"Vitamin A, IU",IU,--,--,0,0
Lipids
"Fatty acids, total saturated",g,--,--,0.000,0.000
"Fatty acids, total monounsaturated",g,--,--,0.000,0.000
"Fatty acids, total polyunsaturated",g,--,--,0.000,0.000
"Fatty acids, total trans",g,--,--,0.000,0.000
"Cholesterol",mg,--,--,0,0
Amino Acids
Other
Ingredients
"ENRICHED WHEAT FLOUR [FLOUR, MALTED BARLEY FLOUR, REDUCED IRON, NIACIN, THIAMIN MONONITRATE (VITAMIN B1), RIBOFLAVIN (VITAMIN B2), FOLIC ACID], WATER YEAST, RICE FLOUR, WHITE CORN MASA FLOUR (PROCESSED WITH LIME), SALT, SUGAR, SOYBEAN OIL, PRESERVATIVES (CALCIUM PROPIONATE, POTASSIUM SORBATE), GRAIN VINEGAR, WHEAT STARCH, MONO- GLYCERIDES, SOY LECITHIN, ACETIC ACID, CITRIC ACID, CALCIUM SULFATE." Date available: 07/28/2017 Date last updated by company: 07/28/2017
