Source: USDA Branded Food Products Database Release December 2017 Software v.3.8.6.4 2017-10-02
Report Run at: December 17, 2017 14:22 EST
"Nutrient data for: 45258610, RESTAURANT STYLE MEDIUM SALSA, UPC: 864202000004"
Food Group:  Branded Food Products Database
Common Name:

Nutrient,Unit,Data points,Std. Error,"2.0 Tbsp = 30.0g",1Value per 100 g,
Proximates
"Energy",kcal,--,--,10,33
"Protein",g,--,--,0.00,0.00
"Total lipid (fat)",g,--,--,0.00,0.00
"Carbohydrate, by difference",g,--,--,2.00,6.67
"Fiber, total dietary",g,--,--,0.0,0.0
"Sugars, total",g,--,--,1.00,3.33
Minerals
"Sodium, Na",mg,--,--,105,350
Vitamins
"Vitamin A, IU",IU,--,--,338,1127
Lipids
"Fatty acids, total saturated",g,--,--,0.000,0.000
"Fatty acids, total trans",g,--,--,0.000,0.000
"Cholesterol",mg,--,--,0,0
Amino Acids
Other
Ingredients
"DICED TOMATOES (TOMATOES, TOMATO JUICE, CITRIC ACID, CALCIUM CHLORIDE), ONION, JALAPENO PEPPERS (JALAPENOS, WATER, SALT, ACETIC ACID), WATER, GARLIC (GARLIC, PURIFIED WATER), SEA SALT, ROJO GOLD SEASONING (GARLIC, CHIPOTLE POWDER, JALAPENO POWDER, ANCHO POWDER, GRANULATED ONION, SALT, GRANULATED RED BELL PEPPER, GRANULATED GREEN BELL PEPPER, BROWN SUGAR, TAMARIND POWDER AND SPICES)." Date available: 10/19/2017 Date last updated by company: 10/19/2017
