Source: USDA Branded Food Products Database Release December 2017 Software v.3.8.6.4 2017-10-02
Report Run at: December 17, 2017 14:26 EST
"Nutrient data for: 45120894, RHODES BAKE N SERV, CINNAMON ROLLS, UPC: 070022007790"
Food Group:  Branded Food Products Database
Common Name:

Nutrient,Unit,Data points,Std. Error,"1 ROLL = 82.0g",1Value per 100 g,
Proximates
"Energy",kcal,--,--,230,280
"Total lipid (fat)",g,--,--,6.00,7.32
"Sugars, total",g,--,--,10.00,12.20
Minerals
"Calcium, Ca",mg,--,--,20,24
"Iron, Fe",mg,--,--,1.10,1.34
Vitamins
"Vitamin C, total ascorbic acid",mg,--,--,0.0,0.0
"Vitamin A, IU",IU,--,--,61,74
Lipids
"Fatty acids, total trans",g,--,--,0.000,0.000
Amino Acids
Other
Ingredients
"UNBLEACHED ENRICHED WHITE FLOUR (WHEAT FLOUR, MALTED BARLEY FLOUR, NIACIN, FERROUS SULFATE OR REDUCED IRON, THIAMIN MONONITRATE, RIBOFLAVIN, FOLIC ACID), WATER, BROWN SUGAR, MARGARINE (PALM OIL, WATER, SOYBEAN OIL, SALT, SOY LECITHIN, MONO & DIGLYCERIDES, SODIUM BENZOATE (TO PRESERVE FRESHNESS), CITRIC ACID, NATURAL AND ARTIFICIAL FLAVOR, BETA CAROTENE, VITAMIN A PALMITATE), GRANULATED SUGAR, SOYBEAN OIL AND/OR CANOLA OIL, LEAVENING (SODIUM BICARBONATE, CORNSTARCH, SODIUM ACID PYROPHOSPHATE, SODIUM ALUMINUM PHOSPHATE), SOY FLOUR, CINNAMON, DATEM, CALCIUM SULFATE, GUAR GUM, MONOGLYCERIDES, AMMONIUM SULFATE, WHEAT GLUTEN, CORN SYRUP, SOLIDS, ALGINATE, ASCORBIC ACID, POTASSIUM IODATE, ENZYME (FOR IMPROVED BAKING), FROSTING: POWDERED SUGAR, CREAM CHEESE (PASTEURIZED MILK AND CREAM, CHEESE CULTURE, SALT, CAROB BEAN GUM, NONFAT DRY, MILK, SODIUM PHOSPHATE), MARGARINE, ARTIFICIAL FLAVOR." Date available: 07/14/2017 Date last updated by company: 07/14/2017
