Source: USDA Branded Food Products Database Release December 2017 Software v.3.8.6.4 2017-10-02
Report Run at: December 17, 2017 14:27 EST
"Nutrient data for: 45079264, RIB RUB, UPC: 780993107565"
Food Group:  Branded Food Products Database
Common Name:

Nutrient,Unit,Data points,Std. Error,"0.25 tsp = 2.0g",1Value per 100 g,
Proximates
"Energy",kcal,--,--,5,250
"Protein",g,--,--,0.00,0.00
"Total lipid (fat)",g,--,--,0.00,0.00
"Carbohydrate, by difference",g,--,--,1.00,50.00
Minerals
"Sodium, Na",mg,--,--,220,11000
Vitamins
Lipids
Amino Acids
Other
Ingredients
"SUGAR, SALT, DEHYDRATED GARLIC, DEHYDRATED ONION, SPICES (INCLUDING CELERY SEED), PAPRIKA, SOYBEAN OIL (AS A PROCESSING AID), DEHYDRATED CARROTS MALTODEXTRIN, MUSTARD, DEHYDRATED RED BELL PEPPER, DEHYDRATED TOMATO NATURAL SMOKE FLAVOR, CITRIC ACID, DEHYDRATED ORANGE PEEL, CORN SYRUP SOLIDS, NATURAL FLAVORS, LEMON JUICE SOLIDS, NOT MORE THAN 2%: SILICON DIOXIDE ADDED TO PREVENT CAKING." Date available: 07/14/2017 Date last updated by company: 07/14/2017
