Source: USDA Branded Food Products Database Release December 2017 Software v.3.8.6.4 2017-10-02
Report Run at: December 17, 2017 14:40 EST
"Nutrient data for: 45275914, RICE, UPC: 051933353794"
Food Group:  Branded Food Products Database
Common Name:

Nutrient,Unit,Data points,Std. Error,"1 CUP PREPARED. | MAKES ABOUT = 66.0g",1Value per 100 g,
Proximates
"Energy",kcal,--,--,240,364
"Protein",g,--,--,7.00,10.61
"Total lipid (fat)",g,--,--,1.00,1.52
"Carbohydrate, by difference",g,--,--,50.00,75.76
"Fiber, total dietary",g,--,--,2.0,3.0
"Sugars, total",g,--,--,2.00,3.03
Minerals
"Calcium, Ca",mg,--,--,40,61
"Iron, Fe",mg,--,--,1.23,1.86
"Sodium, Na",mg,--,--,670,1015
Vitamins
"Vitamin C, total ascorbic acid",mg,--,--,2.4,3.7
"Vitamin A, IU",IU,--,--,341,517
Lipids
"Fatty acids, total saturated",g,--,--,0.000,0.000
"Fatty acids, total trans",g,--,--,0.000,0.000
"Cholesterol",mg,--,--,0,0
Amino Acids
Other
Ingredients
"ENRICHED MACARONI PRODUCT (WHEAT FLOUR, NIACIN, FERROUS SULFATE, THIAMIN MONONITRATE, RIBOFLAVIN, FOLIC ACID), ENRICHED PARBOILED LONG GRAIN RICE (RICE, NIACIN, FERRIC ORTHOPHOSPHATE, THIAMIN MONONITRATE, FOLIC ACID), SEASONING (MALTODEXTRIN, SALT, CARROT*, ONION*, GARLIC*, HYDROLYZED SOY PROTEIN, SUGAR, CORN STARCH, NATURAL FLAVOR, CHICKEN FAT, YEAST EXTRACT, SPICE, NONFAT MILK*, TURMERIC EXTRACT [COLOR], DISODIUM INOSINATE, DISODIUM GUANYLATE), BROCCOLI*." Date available: 07/14/2017 Date last updated by company: 07/14/2017
