Source: USDA Branded Food Products Database Release December 2017 Software v.3.8.6.4 2017-10-02
Report Run at: December 17, 2017 14:32 EST
"Nutrient data for: 45222518, RICE CRUNCH, UPC: 8809214443113"
Food Group:  Branded Food Products Database
Common Name:

Nutrient,Unit,Data points,Std. Error,"30.0 GRM = 30.0g",1Value per 100 g,
Proximates
"Energy",kcal,--,--,150,500
"Protein",g,--,--,3.00,10.00
"Total lipid (fat)",g,--,--,1.00,3.33
"Carbohydrate, by difference",g,--,--,27.00,90.00
"Fiber, total dietary",g,--,--,0.0,0.0
"Sugars, total",g,--,--,5.00,16.67
Minerals
"Calcium, Ca",mg,--,--,0,0
"Iron, Fe",mg,--,--,0.00,0.00
"Sodium, Na",mg,--,--,13,43
Vitamins
"Vitamin C, total ascorbic acid",mg,--,--,0.0,0.0
"Vitamin A, IU",IU,--,--,0,0
Lipids
"Fatty acids, total saturated",g,--,--,0.000,0.000
"Fatty acids, total trans",g,--,--,0.000,0.000
"Cholesterol",mg,--,--,0,0
Amino Acids
Other
Ingredients
"RICE, SUGAR, CORN SYRUP, MARGARINE, GELATIN" Date available: 10/13/2017 Date last updated by company: 10/13/2017
