Source: USDA Branded Food Products Database Release December 2017 Software v.3.8.6.4 2017-10-02
Report Run at: December 17, 2017 14:33 EST
"Nutrient data for: 45135850, RICE CRUSTED FISH FILLETS, UPC: 080868000633"
Food Group:  Branded Food Products Database
Common Name:

Nutrient,Unit,Data points,Std. Error,"2.0 FILLETS = 96.0g",1Value per 100 g,
Proximates
"Energy",kcal,--,--,170,177
"Protein",g,--,--,11.00,11.46
"Total lipid (fat)",g,--,--,7.00,7.29
"Carbohydrate, by difference",g,--,--,16.00,16.67
"Fiber, total dietary",g,--,--,4.0,4.2
"Sugars, total",g,--,--,0.00,0.00
Minerals
"Calcium, Ca",mg,--,--,20,21
"Iron, Fe",mg,--,--,0.41,0.43
"Potassium, K",mg,--,--,220,229
"Sodium, Na",mg,--,--,310,323
Vitamins
"Vitamin C, total ascorbic acid",mg,--,--,0.0,0.0
"Vitamin A, IU",IU,--,--,0,0
Lipids
"Fatty acids, total saturated",g,--,--,0.499,0.520
"Fatty acids, total trans",g,--,--,0.000,0.000
"Cholesterol",mg,--,--,35,36
Amino Acids
Other
Ingredients
"ALASKAN POLLOCK FILLETS (WILD), RICE CRUST (RICE FLOUR, WHOLE GRAIN AMARANTH FLOUR, YELLOW CORN MEAL, CORN STARCH, SALT, DEXTROSE, RAISIN JUICE CONCENTRATE, HONEY, EXPELLER PRESSED CANOLA OIL, GARLIC POWDER, ONION POWDER, YEAST EXTRACT, SPICE), EXPELLER PRESSED CANOLA OIL" Date available: 09/08/2017 Date last updated by company: 09/08/2017
