Source: USDA Branded Food Products Database Release December 2017 Software v.3.8.6.4 2017-10-02
Report Run at: December 17, 2017 14:30 EST
"Nutrient data for: 45269776, RICE CAKES, UPC: 5011032667852"
Food Group:  Branded Food Products Database
Common Name:

Nutrient,Unit,Data points,Std. Error,"100.0 GRM = 100.0g",1Value per 100 g,
Proximates
"Energy",kcal,--,--,488,488
"Protein",g,--,--,6.30,6.30
"Total lipid (fat)",g,--,--,23.00,23.00
"Carbohydrate, by difference",g,--,--,61.00,61.00
"Fiber, total dietary",g,--,--,5.1,5.1
"Sugars, total",g,--,--,27.00,27.00
Minerals
Vitamins
Lipids
Amino Acids
Other
Ingredients
"DARK CHOCOLATE 60% (SUGAR 45%, COCOA MASS 37%, COCOA BUTTER 17%, EMULSIFIER: SOYA LECITHIN, NATURAL VANILLA FLAVOUR), WHOLEGRAIN RICE 39.5%, SESAME SEEDS, SALT." Date available: 10/19/2017 Date last updated by company: 10/19/2017
