Source: USDA Branded Food Products Database Release December 2017 Software v.3.8.6.4 2017-10-02
Report Run at: December 17, 2017 14:37 EST
"Nutrient data for: 45330819, RICE PORRIDGE WITH TUNA, UPC: 8801047161585"
Food Group:  Branded Food Products Database
Common Name:

Nutrient,Unit,Data points,Std. Error,"10.05 ONZ = 285.0g",1Value per 100 g,
Proximates
"Energy",kcal,--,--,151,53
"Protein",g,--,--,7.01,2.46
"Total lipid (fat)",g,--,--,1.00,0.35
"Carbohydrate, by difference",g,--,--,27.99,9.82
"Fiber, total dietary",g,--,--,2.0,0.7
"Sugars, total",g,--,--,0.00,0.00
Minerals
"Calcium, Ca",mg,--,--,0,0
"Iron, Fe",mg,--,--,0.00,0.00
"Sodium, Na",mg,--,--,550,193
Vitamins
"Vitamin C, total ascorbic acid",mg,--,--,0.0,0.0
"Vitamin A, IU",IU,--,--,0,0
Lipids
"Fatty acids, total saturated",g,--,--,0.000,0.000
"Fatty acids, total trans",g,--,--,0.000,0.000
"Cholesterol",mg,--,--,11,4
Amino Acids
Other
Ingredients
"WATER, RICE, TUNA, POTATO, CARROT, CLAM VEGETABLE EXTRACT, TUNA BONE EXTRACT, YEAST EXTRACT, SMOKED TUNA POWDER, SALT, MONOSODIUM GLUTAMATE, FLAKE: LAVER, SESAME, SESAME OIL : SESAME" Date available: 10/13/2017 Date last updated by company: 10/13/2017
