Source: USDA Branded Food Products Database Release December 2017 Software v.3.8.6.4 2017-10-02
Report Run at: December 17, 2017 14:32 EST
"Nutrient data for: 45264673, RICE CRACKERS, UPC: 019061191015"
Food Group:  Branded Food Products Database
Common Name:

Nutrient,Unit,Data points,Std. Error,"0.5 cup = 40.0g",1Value per 100 g,
Proximates
"Energy",kcal,--,--,110,275
"Protein",g,--,--,2.00,5.00
"Total lipid (fat)",g,--,--,0.00,0.00
"Carbohydrate, by difference",g,--,--,26.00,65.00
"Fiber, total dietary",g,--,--,0.0,0.0
"Sugars, total",g,--,--,1.00,2.50
Minerals
"Calcium, Ca",mg,--,--,0,0
"Iron, Fe",mg,--,--,1.35,3.38
"Sodium, Na",mg,--,--,170,425
Vitamins
"Vitamin C, total ascorbic acid",mg,--,--,0.0,0.0
"Vitamin A, IU",IU,--,--,0,0
Lipids
"Fatty acids, total saturated",g,--,--,0.000,0.000
"Fatty acids, total trans",g,--,--,0.000,0.000
"Cholesterol",mg,--,--,0,0
Amino Acids
Other
Ingredients
"GLUTINOUS RICE, SOY SAUCE (WATER, SOYBEANS, WHEAT, SALT), SUGAR, MODIFIED FOOD STARCH, SESAME SEEDS, SEAWEED, CHILI, ARTIFICIAL COLOR YELLOW #6." Date available: 07/14/2017 Date last updated by company: 07/14/2017
