Source: USDA Branded Food Products Database Release December 2017 Software v.3.8.6.4 2017-10-02
Report Run at: December 17, 2017 14:44 EST
"Nutrient data for: 45092112, RICHIN, DRIED ANCHOVY, UPC: 715685130156"
Food Group:  Branded Food Products Database
Common Name:

Nutrient,Unit,Data points,Std. Error,"50.0 GRM = 50.0g",1Value per 100 g,
Proximates
"Energy",kcal,--,--,160,320
"Protein",g,--,--,35.00,70.00
"Total lipid (fat)",g,--,--,1.50,3.00
"Carbohydrate, by difference",g,--,--,0.00,0.00
"Fiber, total dietary",g,--,--,0.0,0.0
"Sugars, total",g,--,--,0.00,0.00
Minerals
"Calcium, Ca",mg,--,--,1100,2200
"Iron, Fe",mg,--,--,15.30,30.60
"Sodium, Na",mg,--,--,280,560
Vitamins
"Vitamin C, total ascorbic acid",mg,--,--,0.0,0.0
"Vitamin A, IU",IU,--,--,0,0
Lipids
"Fatty acids, total saturated",g,--,--,0.700,1.400
"Fatty acids, total trans",g,--,--,0.000,0.000
"Cholesterol",mg,--,--,0,0
Amino Acids
Other
Ingredients
"ANCHOVY, SALT." Date available: 06/25/2017 Date last updated by company: 06/25/2017
