Source: USDA Branded Food Products Database Release December 2017 Software v.3.8.6.4 2017-10-02
Report Run at: December 17, 2017 14:44 EST
"Nutrient data for: 45100278, RICHIN BRAND, WHOLE OYSTER MUSHROOMS, UPC: 015685100075"
Food Group:  Branded Food Products Database
Common Name:

Nutrient,Unit,Data points,Std. Error,"8.0 PIECE = 110.0g",1Value per 100 g,
Proximates
"Energy",kcal,--,--,12,11
"Protein",g,--,--,1.00,0.91
"Total lipid (fat)",g,--,--,0.00,0.00
"Carbohydrate, by difference",g,--,--,2.00,1.82
"Fiber, total dietary",g,--,--,2.0,1.8
"Sugars, total",g,--,--,0.00,0.00
Minerals
"Calcium, Ca",mg,--,--,0,0
"Iron, Fe",mg,--,--,1.28,1.16
"Sodium, Na",mg,--,--,381,346
Vitamins
"Vitamin C, total ascorbic acid",mg,--,--,0.0,0.0
"Vitamin A, IU",IU,--,--,0,0
Lipids
"Fatty acids, total saturated",g,--,--,0.000,0.000
"Fatty acids, total trans",g,--,--,0.000,0.000
"Cholesterol",mg,--,--,0,0
Amino Acids
Other
Ingredients
"OYSTER MUSHROOMS WATER AND SALT" Date available: 07/14/2017 Date last updated by company: 07/14/2017
