Source: USDA Branded Food Products Database Release December 2017 Software v.3.8.6.4 2017-10-02
Report Run at: December 17, 2017 14:44 EST
"Nutrient data for: 45103169, RICHIN, BLACK MELON SEED, UPC: 715685190013"
Food Group:  Branded Food Products Database
Common Name:

Nutrient,Unit,Data points,Std. Error,"100.0 GRM = 100.0g",1Value per 100 g,
Proximates
"Energy",kcal,--,--,510,510
"Protein",g,--,--,29.00,29.00
"Total lipid (fat)",g,--,--,39.00,39.00
"Carbohydrate, by difference",g,--,--,23.00,23.00
"Fiber, total dietary",g,--,--,3.0,3.0
Minerals
"Calcium, Ca",mg,--,--,20,20
"Iron, Fe",mg,--,--,2.43,2.43
"Sodium, Na",mg,--,--,370,370
Vitamins
"Vitamin C, total ascorbic acid",mg,--,--,1.1,1.1
"Vitamin A, IU",IU,--,--,0,0
Lipids
"Fatty acids, total saturated",g,--,--,7.000,7.000
"Fatty acids, total trans",g,--,--,0.000,0.000
Amino Acids
Other
Ingredients
"MELON SEEDS, SALT, SUGAR, & ANISE SEED." Date available: 06/25/2017 Date last updated by company: 06/25/2017
