Source: USDA Branded Food Products Database Release December 2017 Software v.3.8.6.4 2017-10-02
Report Run at: December 17, 2017 14:42 EST
"Nutrient data for: 45273988, RICH CHOCOLATE ICE CREAM WITH CHOCOLATE COATED ALMONDS, UPC: 018894312550"
Food Group:  Branded Food Products Database
Common Name:

Nutrient,Unit,Data points,Std. Error,"0.5 cup = 67.0g",1Value per 100 g,
Proximates
"Energy",kcal,--,--,160,239
"Protein",g,--,--,3.00,4.48
"Total lipid (fat)",g,--,--,9.00,13.43
"Carbohydrate, by difference",g,--,--,17.00,25.37
"Fiber, total dietary",g,--,--,0.0,0.0
"Sugars, total",g,--,--,13.00,19.40
Minerals
"Calcium, Ca",mg,--,--,60,90
"Iron, Fe",mg,--,--,0.40,0.60
"Sodium, Na",mg,--,--,40,60
Vitamins
"Vitamin C, total ascorbic acid",mg,--,--,0.0,0.0
"Vitamin A, IU",IU,--,--,338,504
Lipids
"Fatty acids, total saturated",g,--,--,4.998,7.460
"Fatty acids, total trans",g,--,--,0.000,0.000
"Cholesterol",mg,--,--,30,45
Amino Acids
Other
Ingredients
"MILK, CREAM, SKIM MILK, SUGAR, CORN SYRUP, CHOCOLATE COATED ALMONDS (CHOCOLATE COATING [SUGAR, CHOCOLATE LIQUOR, COCOA BUTTER, SOY LECITHIN], ALMONDS, SALT), COCOA (PROCESSED WITH ALKALI), WHEY PROTEIN CONCENTRATE, WHEY, GUAR GUM, MONO AND DIGLYCERIDES, XANTHAN GUM, CARRAGEENAN." Date available: 07/14/2017 Date last updated by company: 07/14/2017
