Source: USDA Branded Food Products Database Release December 2017 Software v.3.8.6.4 2017-10-02
Report Run at: December 17, 2017 14:43 EST
"Nutrient data for: 45054131, RICH FROSTED MINI DONUTS, UPC: 041497002566"
Food Group:  Branded Food Products Database
Common Name:

Nutrient,Unit,Data points,Std. Error,"3.0 DONUTS = 66.0g",1Value per 100 g,
Proximates
"Energy",kcal,--,--,290,439
"Protein",g,--,--,4.00,6.06
"Total lipid (fat)",g,--,--,17.00,25.76
"Carbohydrate, by difference",g,--,--,31.00,46.97
"Fiber, total dietary",g,--,--,2.0,3.0
"Sugars, total",g,--,--,16.00,24.24
Minerals
"Calcium, Ca",mg,--,--,20,30
"Iron, Fe",mg,--,--,1.50,2.27
"Sodium, Na",mg,--,--,250,379
Vitamins
"Vitamin C, total ascorbic acid",mg,--,--,0.0,0.0
"Vitamin A, IU",IU,--,--,0,0
Lipids
"Fatty acids, total saturated",g,--,--,9.999,15.150
"Fatty acids, total trans",g,--,--,0.000,0.000
"Cholesterol",mg,--,--,20,30
Amino Acids
Other
Ingredients
"DONUT: ENRICHED FLOUR (WHEAT FLOUR, MALTED BARLEY FLOUR, NIACIN, REDUCED IRON, THIAMINE MONONITRATE-B1, RIBOFLAVIN-B2, FOLIC ACID), WATER, VEGETABLE SHORTENING (PALM, PARTIALLY HYDROGENATED SOYBEAN, PARTIALLY HYDROGENATED COTTONSEED, AND SOYBEAN OILS), SUGAR, EGGS, SOY FLOUR, MAY CONTAIN 2% OR LESS OF: LEAVENING (BAKING SODA, SODIUM ACID PYROPHOSPHATE, SODIUM ALUMINUM PHOSPHATE, GLUCONO DELTA-LACTONE, ALUMINUM SULFATE, MONOCALCIUM PHOSPHATE), MILK PROTEIN CONCENTRATE, SKIM MILK, DEXTROSE, BETA CAROTENE COLOR, CORNSTARCH, GLYCERINE, DEXTRIN, ENZYMES, GUAR GUM, VITAL WHEAT GLUTEN, KARAYA GUM, LACTOSE (MILK), TAPIOCA STARCH, ASCORBIC ACID, SOY LECITHIN, MONO AND DIGLYCERIDES, NATURAL AND ARTIFICIAL FLAVORS, POLYSORBATE 80, SALT, PROPYLENE GLYCOL MONO AND DIESTERS, SODIUM STEAROYL LACTYLATE, COLORED WITH EXTRACTS OF ANNATTO AND TURMERIC; POTASSIUM SORBATE, SODIUM PROPIONATE AND SORBIC ACID (TO PRESERVE FRESHNESS), SPICE, ARTIFICIAL COLOR, TOASTED GROUND WHEAT GERM, WHEAT STARCH, CELLULOSE GUM, ALPHA TOCOPHEROLS AS PRESERVATIVE, MONO & DIESTERS OF FATTY ACIDS WITH BHT & CITRIC ACID AS PRESERVATIVES, CORN OIL, CITRIC ACID. COATING: SUGAR, PARTIALLY HYDROGENATED VEGETABLE OIL (PALM KERNEL, COCONUT, PALM OIL), COCOA, COCOA PROCESSED WITH ALKALI, SOY LECITHIN, SALT, ARTIFICIAL FLAVOR." Date available: 06/25/2017 Date last updated by company: 06/25/2017
