Source: USDA Branded Food Products Database Release December 2017 Software v.3.8.6.4 2017-10-02
Report Run at: December 17, 2017 14:41 EST
"Nutrient data for: 45193716, RICHARD'S, ANDOUILLE BREAKFAST LINKS, JALAPENO & CHEESE, UPC: 013451427432"
Food Group:  Branded Food Products Database
Common Name:

Nutrient,Unit,Data points,Std. Error,"2.0 LINKS = 57.0g",1Value per 100 g,
Proximates
"Energy",kcal,--,--,130,228
"Protein",g,--,--,8.00,14.04
"Total lipid (fat)",g,--,--,11.00,19.30
"Carbohydrate, by difference",g,--,--,1.00,1.75
Minerals
"Calcium, Ca",mg,--,--,40,70
"Iron, Fe",mg,--,--,0.35,0.61
"Sodium, Na",mg,--,--,490,860
Vitamins
Lipids
"Fatty acids, total saturated",g,--,--,4.001,7.020
"Cholesterol",mg,--,--,40,70
Amino Acids
Other
Ingredients
"PORK, PORK STOMACHS, WATER, PASTEURIZED PROCESS CHEDDAR CHEESE (CHEDDAR CHEESE [PASTEURIZED MILK, CHEESE CULTURES, SALT, ENZYMES], MILKFAT, WATER, SODIUM PHOSPHATE, SALT, SORBIC ACID, ANNATTO COLORING AND POWDERED CELLULOSE ADDED TO PREVENT CAKING), SALT, DEXTROSE, DEHYDRATED JALAPENOS, MUSTARD, SPICES, SEASONING (SALT, LACTIC ACID, SODIUM DI-ACETATE), MONOSODIUM GLUTAMATE, GARLIC POWDER, NATURAL SMOKE FLAVORING, SODIUM ERYTHORBATE, SODIUM NITRITE." Date available: 07/14/2017 Date last updated by company: 07/14/2017
