Source: USDA Branded Food Products Database Release December 2017 Software v.3.8.6.4 2017-10-02
Report Run at: December 17, 2017 14:49 EST
"Nutrient data for: 45180444, RIDICULOUSLY DELICIOUS SPICE CUPCAKE, UPC: 853407004214"
Food Group:  Branded Food Products Database
Common Name:

Nutrient,Unit,Data points,Std. Error,"2.7 ONZ = 77.0g",1Value per 100 g,
Proximates
"Energy",kcal,--,--,130,169
"Protein",g,--,--,2.00,2.60
"Total lipid (fat)",g,--,--,7.00,9.09
"Carbohydrate, by difference",g,--,--,14.00,18.18
"Fiber, total dietary",g,--,--,1.0,1.3
"Sugars, total",g,--,--,8.00,10.39
Minerals
"Calcium, Ca",mg,--,--,30,39
"Iron, Fe",mg,--,--,0.36,0.47
"Sodium, Na",mg,--,--,327,425
Vitamins
"Vitamin C, total ascorbic acid",mg,--,--,0.0,0.0
"Vitamin A, IU",IU,--,--,250,325
Lipids
"Fatty acids, total saturated",g,--,--,3.996,5.190
"Fatty acids, total trans",g,--,--,0.000,0.000
"Cholesterol",mg,--,--,36,47
Amino Acids
Other
Ingredients
"FLOUR BLEND (SORGHUM FLOUR, TAPIOCA FLOUR, RICE FLOUR), BUTTERMILK, SUGAR, EGGS, BUTTER, BROWN SUGAR, PASTEURIZED MILK, VANILLA, SALT, BAKING POWDER, BAKING SODA, CINNAMON, XANTHAN GUM, GINGER, NUTMEG, CLOVES." Date available: 10/14/2016 Date last updated by company: 10/14/2016
