Source: USDA Branded Food Products Database Release December 2017 Software v.3.8.6.4 2017-10-02
Report Run at: December 17, 2017 14:50 EST
"Nutrient data for: 45159225, RIEGELEIN, RIEGELEIN CONFISERIE, UPC: 013900722217"
Food Group:  Branded Food Products Database
Common Name:

Nutrient,Unit,Data points,Std. Error,"1.41 ONZ = 40.0g",1Value per 100 g,
Proximates
"Energy",kcal,--,--,220,550
"Protein",g,--,--,2.00,5.00
"Total lipid (fat)",g,--,--,13.00,32.50
"Carbohydrate, by difference",g,--,--,24.00,60.00
"Fiber, total dietary",g,--,--,1.0,2.5
"Sugars, total",g,--,--,23.00,57.50
Minerals
"Calcium, Ca",mg,--,--,60,150
"Iron, Fe",mg,--,--,0.90,2.25
"Sodium, Na",mg,--,--,40,100
Vitamins
"Vitamin C, total ascorbic acid",mg,--,--,0.0,0.0
"Vitamin A, IU",IU,--,--,0,0
Lipids
"Fatty acids, total saturated",g,--,--,8.000,20.000
"Fatty acids, total trans",g,--,--,0.000,0.000
"Cholesterol",mg,--,--,0,0
Amino Acids
Other
Ingredients
"SUGAR, COCOA BUTTER, WHOLE MILK POWDER, CHOCOLATE LIQUOR, WHEY POWDER, SOY LECITHIN; VANILLA EXTRACT." Date available: 07/14/2017 Date last updated by company: 07/14/2017
