Source: USDA Branded Food Products Database Release December 2017 Software v.3.8.6.4 2017-10-02
Report Run at: December 17, 2017 14:57 EST
"Nutrient data for: 45094797, RIP VAN WAFELS, DARK CHOCOLATE SEA SALT, UPC: 856282003020"
Food Group:  Branded Food Products Database
Common Name:

Nutrient,Unit,Data points,Std. Error,"1 WAFEL = 33.0g",1Value per 100 g,
Proximates
"Energy",kcal,--,--,130,394
"Protein",g,--,--,2.00,6.06
"Total lipid (fat)",g,--,--,6.00,18.18
"Carbohydrate, by difference",g,--,--,19.00,57.58
"Fiber, total dietary",g,--,--,1.0,3.0
"Sugars, total",g,--,--,8.00,24.24
Minerals
"Calcium, Ca",mg,--,--,0,0
"Iron, Fe",mg,--,--,1.09,3.31
"Sodium, Na",mg,--,--,65,197
Vitamins
"Vitamin C, total ascorbic acid",mg,--,--,0.0,0.0
"Vitamin A, IU",IU,--,--,0,0
Lipids
"Fatty acids, total saturated",g,--,--,2.501,7.580
"Fatty acids, total trans",g,--,--,0.000,0.000
"Cholesterol",mg,--,--,5,15
Amino Acids
Other
Ingredients
"WHEAT FLOUR, TAPIOCA SYRUP, CANE SUGAR, PALM OIL*, WATER, COCOA POWDER (PROCESSED WITH ALKALI), UNSALTED BUTTER (CREAM), WHEAT SUGAR, EGGS, CHICKPEA FLOUR, BROWN SUGAR, MOLASSES, COCOA EXTRACT, SEA SALT, OAT FIBER, BAKING SODA, SUNFLOWER LECITHIN, OAT FLOUR, FLAXSEED OIL." Date available: 06/25/2017 Date last updated by company: 06/25/2017
