Source: USDA Branded Food Products Database Release December 2017 Software v.3.8.6.4 2017-10-02
Report Run at: December 17, 2017 15:01 EST
"Nutrient data for: 45258563, RISOTTO ALLE VERDURE MISTE, MIXED VEGETABLES, UPC: 8000193000827"
Food Group:  Branded Food Products Database
Common Name:

Nutrient,Unit,Data points,Std. Error,"0.5 cup = 83.0g",1Value per 100 g,
Proximates
"Energy",kcal,--,--,286,345
"Protein",g,--,--,7.00,8.43
"Total lipid (fat)",g,--,--,2.40,2.89
"Carbohydrate, by difference",g,--,--,68.00,81.93
"Fiber, total dietary",g,--,--,2.4,2.9
"Sugars, total",g,--,--,1.00,1.20
Minerals
"Calcium, Ca",mg,--,--,30,36
"Iron, Fe",mg,--,--,0.19,0.23
"Sodium, Na",mg,--,--,990,1193
Vitamins
"Vitamin C, total ascorbic acid",mg,--,--,0.7,0.8
"Vitamin A, IU",IU,--,--,0,0
Lipids
"Fatty acids, total saturated",g,--,--,0.797,0.960
"Fatty acids, total trans",g,--,--,0.000,0.000
"Cholesterol",mg,--,--,0,0
Amino Acids
Other
Ingredients
"VIALONE NANO RICE (90%), VEGETABLE SEASONING WITHOUT GLUTAMATE (SALT, POTATO STARCH, YEAST EXTRACT, POTATO MALTODEXTRIN, CARROT, ONION, CELERY, PARSLEY, SUNFLOWER OIL, SPICES NATURAL FLAVORS), VEGETABLES DRIED IN VARYING PROPORTIONS (5.2%): ZUCCHINI, SWEET PEPPERS, GREEN PEAS, ONION, GARLIC." Date available: 07/14/2017 Date last updated by company: 07/14/2017
