Source: USDA Branded Food Products Database Release December 2017 Software v.3.8.6.4 2017-10-02
Report Run at: December 17, 2017 15:01 EST
"Nutrient data for: 45192590, RISOTTO MILANESE, UPC: 810579020077"
Food Group:  Branded Food Products Database
Common Name:

Nutrient,Unit,Data points,Std. Error,"0.25 cup = 70.0g",1Value per 100 g,
Proximates
"Energy",kcal,--,--,140,200
"Protein",g,--,--,4.00,5.71
"Total lipid (fat)",g,--,--,0.50,0.71
"Carbohydrate, by difference",g,--,--,31.00,44.29
"Fiber, total dietary",g,--,--,1.0,1.4
"Sugars, total",g,--,--,0.00,0.00
Minerals
"Calcium, Ca",mg,--,--,0,0
"Iron, Fe",mg,--,--,0.23,0.33
"Sodium, Na",mg,--,--,600,857
Vitamins
"Vitamin C, total ascorbic acid",mg,--,--,0.0,0.0
"Vitamin A, IU",IU,--,--,0,0
Lipids
"Fatty acids, total saturated",g,--,--,0.000,0.000
"Fatty acids, total trans",g,--,--,0.000,0.000
"Cholesterol",mg,--,--,0,0
Amino Acids
Other
Ingredients
"SEASONING MIX 12%: PRECOOKED RICE FLOUR, NATURAL FLAVOURING, ONION, SALT, SAFFRON 0.5%. PRECOOKED ARBORIO RICE 88%: PRECOOKED ARBORIO RICE 98%, SUNFLOWER OIL, VEGETABLE BROTH [(HYDROLYZED VEGETABLE PROTEINS (FROM SOY, CORN AND RAPE), SALT, PALM OIL, SPICES EXTRACT), SALT, GLUCOSE, CORN STARCH, SUGAR, NATURAL FLAVORING, SPICES EXTRACT (WITH CELERY), ARTIFICIAL FLAVOURING (WITH CELERY, SOY), VEGETABLE MIX (TOMATOES, PARSLEY, PARSNIP, ONION, CARROTS, LEEK), PALM OIL, SPICES, SHIITAKE MUSHROOMS (LENTINUS EDODES)]." Date available: 07/14/2017 Date last updated by company: 07/14/2017
