Source: USDA Branded Food Products Database Release December 2017 Software v.3.8.6.4 2017-10-02
Report Run at: December 17, 2017 15:02 EST
"Nutrient data for: 45319263, RITA RITZ, GUYABANO FRUIT TEA, UPC: 4804888151511"
Food Group:  Branded Food Products Database
Common Name:

Nutrient,Unit,Data points,Std. Error,"2.0 GRM = 2.0g",1Value per 100 g,
Proximates
"Energy",kcal,--,--,10,500
"Protein",g,--,--,0.00,0.00
"Total lipid (fat)",g,--,--,0.00,0.00
"Carbohydrate, by difference",g,--,--,2.00,100.00
Minerals
"Sodium, Na",mg,--,--,0,0
Vitamins
Lipids
Amino Acids
Other
Ingredients
"GUYABANO FRUIT AND GUYABANO LEAVES (ANNONA MURICATA)" Date available: 06/25/2017 Date last updated by company: 06/25/2017
