Source: USDA Branded Food Products Database Release December 2017 Software v.3.8.6.4 2017-10-02
Report Run at: December 17, 2017 15:02 EST
"Nutrient data for: 45321566, RITE AID, PANTRY, CHOCOLATE COVERED JUMBO RAISINS, MILK CHOCOLATE, UPC: 011822882293"
Food Group:  Branded Food Products Database
Common Name:

Nutrient,Unit,Data points,Std. Error,"0.25 CUP) | (ABOUT = 28.0g",1Value per 100 g,
Proximates
"Energy",kcal,--,--,130,464
"Protein",g,--,--,1.00,3.57
"Total lipid (fat)",g,--,--,6.00,21.43
"Carbohydrate, by difference",g,--,--,19.00,67.86
"Fiber, total dietary",g,--,--,1.0,3.6
"Sugars, total",g,--,--,18.00,64.29
Minerals
"Calcium, Ca",mg,--,--,36,128
"Iron, Fe",mg,--,--,1.29,4.59
"Sodium, Na",mg,--,--,15,54
Vitamins
"Vitamin C, total ascorbic acid",mg,--,--,0.0,0.0
"Vitamin A, IU",IU,--,--,0,0
Lipids
"Fatty acids, total saturated",g,--,--,5.001,17.860
"Fatty acids, total trans",g,--,--,0.000,0.000
"Cholesterol",mg,--,--,0,0
Amino Acids
Other
Ingredients
"MILK CHOCOLATE (SUGAR, COCOA BUTTER, WHOLE MILK POWDER, CHOCOLATE LIQUOR, SOY LECITHIN [AN EMULSIFIER], VANILLA), JUMBO RAISINS, PARTIALLY HYDROGENATED PALM KERNEL OIL, NONFAT DRY MILK, COCOA (MAY BE PROCESSED WITH ALKALI), WHEY POWDER (MILK), SALT, ARTIFICIAL FLAVOR (VANILLA), GUM ARABIC, CORN SYRUP, CERTIFIED CONFECTIONER GLAZE." Date available: 08/12/2017 Date last updated by company: 08/12/2017
