Source: USDA Branded Food Products Database Release December 2017 Software v.3.8.6.4 2017-10-02
Report Run at: December 17, 2017 15:05 EST
"Nutrient data for: 45034218, RIVERWALK CANTINA, SALSA, MILD, UPC: 051974171241"
Food Group:  Branded Food Products Database
Common Name:

Nutrient,Unit,Data points,Std. Error,"2.0 Tbsp = 30.0g",1Value per 100 g,
Proximates
"Energy",kcal,--,--,10,33
"Protein",g,--,--,0.00,0.00
"Total lipid (fat)",g,--,--,0.00,0.00
"Carbohydrate, by difference",g,--,--,2.00,6.67
"Fiber, total dietary",g,--,--,1.0,3.3
"Sugars, total",g,--,--,1.00,3.33
Minerals
"Sodium, Na",mg,--,--,210,700
Vitamins
"Vitamin C, total ascorbic acid",mg,--,--,6.1,20.3
"Vitamin A, IU",IU,--,--,169,563
Lipids
Amino Acids
Other
Ingredients
"TOMATO PUREE (WATER, TOMATO PASTE), TOMATOES, JALAPENO PEPPERS, ONIONS, DISTILLED VINEGAR, SALT, DEHYDRATED GARLIC, NATURAL FLAVOR." Date available: 10/13/2017 Date last updated by company: 10/13/2017
