Source: USDA Branded Food Products Database Release December 2017 Software v.3.8.6.4 2017-10-02
Report Run at: December 17, 2017 15:06 EST
"Nutrient data for: 45098613, ROAR'S HEAD, NATURALLY SMOKED BACON, UPC: 042421225792"
Food Group:  Branded Food Products Database
Common Name:

Nutrient,Unit,Data points,Std. Error,"2.0 SLICES = 12.0g",1Value per 100 g,
Proximates
"Energy",kcal,--,--,60,500
"Protein",g,--,--,4.00,33.33
"Total lipid (fat)",g,--,--,5.00,41.67
"Carbohydrate, by difference",g,--,--,0.00,0.00
Minerals
"Sodium, Na",mg,--,--,190,1583
Vitamins
Lipids
"Fatty acids, total saturated",g,--,--,2.000,16.670
"Fatty acids, total monounsaturated",g,--,--,2.000,16.670
"Fatty acids, total polyunsaturated",g,--,--,1.000,8.330
"Fatty acids, total trans",g,--,--,0.000,0.000
"Cholesterol",mg,--,--,10,83
Amino Acids
Other
Ingredients
"CURED WITH: WATER, SALT, SUGAR, SODIUM PHOSPHATE, SODIUM ERYTHORBATE, SODIUM NITRITE." Date available: 07/14/2017 Date last updated by company: 07/14/2017
