Source: USDA Branded Food Products Database Release December 2017 Software v.3.8.6.4 2017-10-02
Report Run at: December 17, 2017 15:25 EST
"Nutrient data for: 45191874, ROASTED RED PEPPER RAVIOLI, UPC: 097137305665"
Food Group:  Branded Food Products Database
Common Name:

Nutrient,Unit,Data points,Std. Error,"5.0 RAVIOLI = 113.0g",1Value per 100 g,
Proximates
"Energy",kcal,--,--,190,168
"Protein",g,--,--,8.00,7.08
"Total lipid (fat)",g,--,--,8.00,7.08
"Carbohydrate, by difference",g,--,--,27.00,23.89
"Fiber, total dietary",g,--,--,1.0,0.9
"Sugars, total",g,--,--,0.00,0.00
Minerals
"Calcium, Ca",mg,--,--,99,88
"Iron, Fe",mg,--,--,1.44,1.27
"Sodium, Na",mg,--,--,299,265
Vitamins
"Vitamin C, total ascorbic acid",mg,--,--,1.2,1.1
"Vitamin A, IU",IU,--,--,299,265
Lipids
"Fatty acids, total saturated",g,--,--,2.994,2.650
"Fatty acids, total trans",g,--,--,0.000,0.000
"Cholesterol",mg,--,--,45,40
Amino Acids
Other
Ingredients
"DURUM WHEAT FLOUR (ENRICHED WITH IRON (FERROUS SULFATE) AND B VITAMINS (NIACIN, THIAMIN, RIBOFLAVIN, FOLIC ACID)), WHOLE MILK RICOTTA CHEESE (SWEET WHEY, WHOLE MILK, SWEET CREAM CULTURE, VINEGAR AND SALT), ROASTED RED PEPPER (ROASTED RED PEPPERS, WATER, SALT, CITRIC ACID), WATER, WHOLE EGG, ROMANO CHEESE (PASTEURIZED SHEEP'S MILK, CHEESE CULTURE, SALT, ENZYMES MODIFIED FOOD STARCH, POWDERED CELLULOSE ANTI-CAKING AGENT), IMPORTED PARMESAN CHEESE (PASTEURIZED PART-SKIM COW'S MILK, CHEESE CULTURES, SALT, ENZYMES, FOOD STARCH, POWDERED CELLULOSE ADDED TO PREVENT CAKING), FLOUR BLEND (YELLOW CORN FLOUR, WHEAT FLOUR, SOYBEAN OIL, EXTRACTIVES OF TURMERIC AND PAPRIKA), SALT, PARSLEY, BLACK PEPPER." Date available: 12/31/2016 Date last updated by company: 12/31/2016
