Source: USDA Branded Food Products Database Release December 2017 Software v.3.8.6.4 2017-10-02
Report Run at: December 17, 2017 15:11 EST
"Nutrient data for: 45265184, ROASTED BUTTERNUT SQUASH WITH CRANBERRIES, UPC: 036406367317"
Food Group:  Branded Food Products Database
Common Name:

Nutrient,Unit,Data points,Std. Error,"0.5 cup = 113.0g",1Value per 100 g,
Proximates
"Energy",kcal,--,--,80,71
"Protein",g,--,--,0.99,0.88
"Total lipid (fat)",g,--,--,0.99,0.88
"Carbohydrate, by difference",g,--,--,19.00,16.81
"Fiber, total dietary",g,--,--,3.1,2.7
"Sugars, total",g,--,--,8.99,7.96
Minerals
"Calcium, Ca",mg,--,--,60,53
"Iron, Fe",mg,--,--,0.89,0.79
"Sodium, Na",mg,--,--,130,115
Vitamins
"Vitamin C, total ascorbic acid",mg,--,--,22.3,19.7
"Vitamin A, IU",IU,--,--,10530,9319
Lipids
"Fatty acids, total saturated",g,--,--,0.000,0.000
"Fatty acids, total trans",g,--,--,0.000,0.000
"Cholesterol",mg,--,--,0,0
Amino Acids
Other
Ingredients
"BUTTERNUT SQUASH, ONION, DRIED SWEETENED CRANBERRY (CRANBERRY, SUGAR, SUNFLOWER OIL), SEA SALT, CANOLA OIL, NUTMEG, BLACK PEPPER, SAGE." Date available: 07/14/2017 Date last updated by company: 07/14/2017
