Source: USDA Branded Food Products Database Release December 2017 Software v.3.8.6.4 2017-10-02
Report Run at: December 17, 2017 15:29 EST
"Nutrient data for: 45048222, ROASTED & SALTED CHILI PEANUTS, UPC: 795944171953"
Food Group:  Branded Food Products Database
Common Name:

Nutrient,Unit,Data points,Std. Error,"1 ONZ = 28.0g",1Value per 100 g,
Proximates
"Energy",kcal,--,--,168,600
"Protein",g,--,--,8.00,28.57
"Total lipid (fat)",g,--,--,15.00,53.57
"Carbohydrate, by difference",g,--,--,4.00,14.29
"Fiber, total dietary",g,--,--,3.0,10.7
"Sugars, total",g,--,--,1.00,3.57
Minerals
"Calcium, Ca",mg,--,--,20,71
"Iron, Fe",mg,--,--,0.64,2.29
"Sodium, Na",mg,--,--,90,321
Vitamins
"Vitamin C, total ascorbic acid",mg,--,--,0.0,0.0
"Vitamin A, IU",IU,--,--,0,0
Lipids
"Fatty acids, total saturated",g,--,--,1.999,7.140
"Fatty acids, total trans",g,--,--,0.000,0.000
"Cholesterol",mg,--,--,0,0
Amino Acids
Other
Ingredients
"ING,: PEANUTS, CHILI, SALT,  PEANUTS OIL" Date available: 06/25/2017 Date last updated by company: 06/25/2017
