Source: USDA Branded Food Products Database Release December 2017 Software v.3.8.6.4 2017-10-02
Report Run at: December 17, 2017 15:30 EST
"Nutrient data for: 45217136, ROASTED SALTED MIXED NUTS, UPC: 688267147364"
Food Group:  Branded Food Products Database
Common Name:

Nutrient,Unit,Data points,Std. Error,"0.25 cup = 28.0g",1Value per 100 g,
Proximates
"Energy",kcal,--,--,170,607
"Protein",g,--,--,6.00,21.43
"Total lipid (fat)",g,--,--,15.00,53.57
"Carbohydrate, by difference",g,--,--,5.00,17.86
"Fiber, total dietary",g,--,--,3.0,10.7
"Sugars, total",g,--,--,1.00,3.57
Minerals
"Calcium, Ca",mg,--,--,40,143
"Iron, Fe",mg,--,--,1.29,4.59
"Sodium, Na",mg,--,--,150,536
Vitamins
"Vitamin C, total ascorbic acid",mg,--,--,0.0,0.0
"Vitamin A, IU",IU,--,--,0,0
Lipids
"Fatty acids, total saturated",g,--,--,1.999,7.140
"Fatty acids, total trans",g,--,--,0.000,0.000
"Cholesterol",mg,--,--,0,0
Amino Acids
Other
Ingredients
"ALMONDS, PEANUTS (ROASTED IN PEANUT, SUNFLOWER AND/OR CANOLA OIL), WALNUTS, HAZELNUTS, BRAZIL NUTS, CASHEWS (ROASTED IN SUNFLOWER AND/OR CANOLA OIL), SEA SALT." Date available: 07/14/2017 Date last updated by company: 07/14/2017
