Source: USDA Branded Food Products Database Release December 2017 Software v.3.8.6.4 2017-10-02
Report Run at: December 17, 2017 15:29 EST
"Nutrient data for: 45120925, ROASTED & SALTED CRANBERRY CRUNCH, UPC: 788709827653"
Food Group:  Branded Food Products Database
Common Name:

Nutrient,Unit,Data points,Std. Error,"0.25 CUP | ABOUT = 28.0g",1Value per 100 g,
Proximates
"Energy",kcal,--,--,130,464
"Protein",g,--,--,3.00,10.71
"Total lipid (fat)",g,--,--,7.00,25.00
"Carbohydrate, by difference",g,--,--,15.00,53.57
"Fiber, total dietary",g,--,--,2.0,7.1
"Sugars, total",g,--,--,11.00,39.29
Minerals
"Calcium, Ca",mg,--,--,20,71
"Iron, Fe",mg,--,--,0.64,2.29
"Sodium, Na",mg,--,--,40,143
Vitamins
"Vitamin C, total ascorbic acid",mg,--,--,0.0,0.0
"Vitamin A, IU",IU,--,--,0,0
Lipids
"Fatty acids, total saturated",g,--,--,1.501,5.360
"Fatty acids, total trans",g,--,--,0.000,0.000
"Cholesterol",mg,--,--,0,0
Amino Acids
Other
Ingredients
"CRANBERRIES (SUGAR, SUNFLOWER OIL), PEANUTS, ALMONDS, RAISINS (VEGETABLE OIL ADDED), YOGURT RAISINS (YOGURT COATING (SUGAR, PALM KERNEL OIL AND PALM OIL, REDUCED MINERAL WHEY PROTEIN, WHOLE MILK POWDER, TITANIUM DIOXIDE, YOGURT POWDER (CULTURED WHEY AND NON-FAT MILK), SOY LECITHIN (AN EMULSIFIER), SALT, VANILLA), RAISINS, GUM ARABIC, CORN SYRUP, SUGAR AND CERTIFIED CONFECTIONERS GLAZE (FOOD GRADE LAC RESIN)." Date available: 07/14/2017 Date last updated by company: 07/14/2017
