Source: USDA Branded Food Products Database Release December 2017 Software v.3.8.6.4 2017-10-02
Report Run at: December 17, 2017 15:12 EST
"Nutrient data for: 45046052, ROASTED CHICKEN BASE, UPC: 098308227717"
Food Group:  Branded Food Products Database
Common Name:

Nutrient,Unit,Data points,Std. Error,"1 tsp = 6.0g",1Value per 100 g,
Proximates
"Energy",kcal,--,--,15,250
"Protein",g,--,--,1.00,16.67
"Total lipid (fat)",g,--,--,0.50,8.33
"Carbohydrate, by difference",g,--,--,2.00,33.33
"Fiber, total dietary",g,--,--,0.0,0.0
"Sugars, total",g,--,--,1.00,16.67
Minerals
"Sodium, Na",mg,--,--,500,8333
Vitamins
Lipids
"Fatty acids, total saturated",g,--,--,0.000,0.000
"Fatty acids, total trans",g,--,--,0.000,0.000
"Cholesterol",mg,--,--,0,0
Amino Acids
Other
Ingredients
"ROASTED CHICKEN MEAT WITH NATURAL JUICES, SALT, SUGAR, MALTODEXTRIN, YEAST EXTRACT, RENDERED CHICKEN FAT, FLAVORINGS, POTATO FLOUR, TURMERIC." Date available: 10/13/2017 Date last updated by company: 10/13/2017
