Source: USDA Branded Food Products Database Release December 2017 Software v.3.8.6.4 2017-10-02
Report Run at: December 17, 2017 15:17 EST
"Nutrient data for: 45105280, ROASTED GARLIC SALSA, UPC: 041695342532"
Food Group:  Branded Food Products Database
Common Name:

Nutrient,Unit,Data points,Std. Error,"2.0 Tbsp = 30.0g",1Value per 100 g,
Proximates
"Energy",kcal,--,--,5,17
"Protein",g,--,--,0.00,0.00
"Total lipid (fat)",g,--,--,0.00,0.00
"Carbohydrate, by difference",g,--,--,2.00,6.67
"Fiber, total dietary",g,--,--,0.0,0.0
"Sugars, total",g,--,--,1.00,3.33
Minerals
"Calcium, Ca",mg,--,--,20,67
"Iron, Fe",mg,--,--,0.00,0.00
"Sodium, Na",mg,--,--,90,300
Vitamins
"Vitamin C, total ascorbic acid",mg,--,--,8.0,26.7
"Vitamin A, IU",IU,--,--,0,0
Lipids
"Fatty acids, total saturated",g,--,--,0.000,0.000
"Fatty acids, total trans",g,--,--,0.000,0.000
"Cholesterol",mg,--,--,0,0
Amino Acids
Other
Ingredients
"DICED TOMATOES (TOMATOES, TOMATO JUICE, SALT, CITRIC ACID, CALCIUM CHLORIDE), GREEN BELL PEPPERS, MINCED GARLIC, JALAPENO PEPPERS, KEY LIME JUICE (WATER, KEY LIME JUICE, LESS THAN 1/50TH OF 1% SODIUM META BISULFITE (PRESERVATIVE)), GARLIC, CITRIC ACID, CORN STARCH, SALT, WITH LESS THAN 1/10TH OF 1% POTASSIUM SORBATE ADDED AS A PRESERVATIVE AND NATURAL FLAVORING." Date available: 06/25/2017 Date last updated by company: 06/25/2017
