Source: USDA Branded Food Products Database Release December 2017 Software v.3.8.6.4 2017-10-02
Report Run at: December 17, 2017 15:33 EST
"Nutrient data for: 45292408, ROASTED & SEASONED LAVER, UPC: 081652071518"
Food Group:  Branded Food Products Database
Common Name:

Nutrient,Unit,Data points,Std. Error,"4.0 SHTS = 2.0g",1Value per 100 g,
Proximates
"Energy",kcal,--,--,10,500
"Protein",g,--,--,0.00,0.00
"Total lipid (fat)",g,--,--,1.00,50.00
"Carbohydrate, by difference",g,--,--,1.00,50.00
"Fiber, total dietary",g,--,--,0.0,0.0
"Sugars, total",g,--,--,0.00,0.00
Minerals
"Calcium, Ca",mg,--,--,40,2000
"Iron, Fe",mg,--,--,0.00,0.00
"Sodium, Na",mg,--,--,10,500
Vitamins
"Vitamin C, total ascorbic acid",mg,--,--,120.0,6000.0
"Vitamin A, IU",IU,--,--,0,0
Lipids
"Fatty acids, total saturated",g,--,--,0.000,0.000
"Fatty acids, total trans",g,--,--,0.000,0.000
"Cholesterol",mg,--,--,0,0
Amino Acids
Other
Ingredients
"LAVER, CANOLA OIL, GREEN LAVER, SESAME OIL, PERILLA OIL, NATURAL SEA SALT" Date available: 07/14/2017 Date last updated by company: 07/14/2017
