Source: USDA Branded Food Products Database Release December 2017 Software v.3.8.6.4 2017-10-02
Report Run at: December 17, 2017 15:30 EST
"Nutrient data for: 45217401, ROASTED SALTED PEPITAS, UPC: 722648710546"
Food Group:  Branded Food Products Database
Common Name:

Nutrient,Unit,Data points,Std. Error,"0.25 cup = 24.0g",1Value per 100 g,
Proximates
"Energy",kcal,--,--,140,583
"Protein",g,--,--,7.00,29.17
"Total lipid (fat)",g,--,--,11.00,45.83
"Carbohydrate, by difference",g,--,--,3.00,12.50
"Fiber, total dietary",g,--,--,2.0,8.3
"Sugars, total",g,--,--,1.00,4.17
Minerals
"Calcium, Ca",mg,--,--,0,0
"Iron, Fe",mg,--,--,4.50,18.75
"Sodium, Na",mg,--,--,30,125
Vitamins
"Vitamin C, total ascorbic acid",mg,--,--,0.0,0.0
"Vitamin A, IU",IU,--,--,209,869
Lipids
"Fatty acids, total saturated",g,--,--,3.000,12.500
"Fatty acids, total trans",g,--,--,0.000,0.000
"Cholesterol",mg,--,--,0,0
Amino Acids
Other
Ingredients
"PEPITAS, COTTONSEED AND PEANUT OILS, SALT." Date available: 07/14/2017 Date last updated by company: 07/14/2017
