Source: USDA Branded Food Products Database Release December 2017 Software v.3.8.6.4 2017-10-02
Report Run at: December 17, 2017 15:21 EST
"Nutrient data for: 45150718, ROASTED PEANUTS, UPC: 011822584616"
Food Group:  Branded Food Products Database
Common Name:

Nutrient,Unit,Data points,Std. Error,"1 PACKAGE = 42.0g",1Value per 100 g,
Proximates
"Energy",kcal,--,--,250,595
"Protein",g,--,--,12.00,28.57
"Total lipid (fat)",g,--,--,22.00,52.38
"Carbohydrate, by difference",g,--,--,6.00,14.29
"Fiber, total dietary",g,--,--,4.0,9.5
"Sugars, total",g,--,--,2.00,4.76
Minerals
"Calcium, Ca",mg,--,--,20,48
"Iron, Fe",mg,--,--,0.86,2.04
"Magnesium, Mg",mg,--,--,95,227
"Phosphorus, P",mg,--,--,178,425
"Potassium, K",mg,--,--,300,714
"Sodium, Na",mg,--,--,170,405
"Manganese, Mn",mg,--,--,0.840,2.000
Vitamins
"Vitamin C, total ascorbic acid",mg,--,--,0.0,0.0
"Niacin",mg,--,--,7.142,17.005
"Vitamin A, IU",IU,--,--,0,0
Lipids
"Fatty acids, total saturated",g,--,--,3.499,8.330
"Fatty acids, total monounsaturated",g,--,--,11.000,26.190
"Fatty acids, total polyunsaturated",g,--,--,7.001,16.670
"Fatty acids, total trans",g,--,--,0.000,0.000
"Cholesterol",mg,--,--,0,0
Amino Acids
Other
Ingredients
"PEANUTS, VEGETABLE OIL (PEANUT, COTTONSEED, SOYBEAN AND/OR SUNFLOWER SEED), SEA SALT." Date available: 07/14/2017 Date last updated by company: 07/14/2017
