Source: USDA Branded Food Products Database Release December 2017 Software v.3.8.6.4 2017-10-02
Report Run at: December 17, 2017 15:31 EST
"Nutrient data for: 45285733, ROASTED - SALTED SESAME STICKS, UPC: 034325079069"
Food Group:  Branded Food Products Database
Common Name:

Nutrient,Unit,Data points,Std. Error,"1.4 ONZ = 40.0g",1Value per 100 g,
Proximates
"Energy",kcal,--,--,220,550
"Protein",g,--,--,4.00,10.00
"Total lipid (fat)",g,--,--,15.00,37.50
"Carbohydrate, by difference",g,--,--,18.00,45.00
"Fiber, total dietary",g,--,--,2.0,5.0
"Sugars, total",g,--,--,0.00,0.00
Minerals
"Calcium, Ca",mg,--,--,80,200
"Iron, Fe",mg,--,--,2.48,6.19
"Sodium, Na",mg,--,--,590,1475
Vitamins
"Vitamin C, total ascorbic acid",mg,--,--,0.0,0.0
"Vitamin A, IU",IU,--,--,0,0
Lipids
"Fatty acids, total saturated",g,--,--,3.000,7.500
"Fatty acids, total trans",g,--,--,0.000,0.000
"Cholesterol",mg,--,--,0,0
Amino Acids
Other
Ingredients
"ENRICHED WHEAT FLOUR (UNBLEACHED WHEAT FLOUR, MALTED BARLEY FLOUR, NIACIN, IRON (REDUCED IRON), THIAMINE MONONITRATE, RIBOFLAVIN, FOLIC ACID), SOYBEAN OIL, SESAME SEEDS, BULGUR WHEAT, SALT, BEET POWDER (COLOR), TURMERIC (COLOR)." Date available: 07/14/2017 Date last updated by company: 07/14/2017
