Source: USDA Branded Food Products Database Release December 2017 Software v.3.8.6.4 2017-10-02
Report Run at: December 17, 2017 15:14 EST
"Nutrient data for: 45253753, ROASTED GARLIC ARTISAN BREAD, UPC: 011110074621"
Food Group:  Branded Food Products Database
Common Name:

Nutrient,Unit,Data points,Std. Error,"0.166 OF A LOAF = 57.0g",1Value per 100 g,
Proximates
"Energy",kcal,--,--,140,246
"Protein",g,--,--,5.00,8.77
"Total lipid (fat)",g,--,--,0.00,0.00
"Carbohydrate, by difference",g,--,--,29.00,50.88
"Fiber, total dietary",g,--,--,1.0,1.8
"Sugars, total",g,--,--,1.00,1.75
Minerals
"Calcium, Ca",mg,--,--,60,105
"Iron, Fe",mg,--,--,0.95,1.66
"Sodium, Na",mg,--,--,300,526
Vitamins
"Vitamin C, total ascorbic acid",mg,--,--,0.0,0.0
"Vitamin A, IU",IU,--,--,0,0
Lipids
"Fatty acids, total saturated",g,--,--,0.000,0.000
"Fatty acids, total trans",g,--,--,0.000,0.000
"Cholesterol",mg,--,--,0,0
Amino Acids
Other
Ingredients
"ORGANIC WHEAT FLOUR, WATER, CONTAINS 2% OR LESS OF: SEA SALT, ORGANIC ROASTED GARLIC, CULTURED ORGANIC UNBLEACHED WHEAT FLOUR,YEAST." Date available: 07/14/2017 Date last updated by company: 07/14/2017
