Source: USDA Branded Food Products Database Release December 2017 Software v.3.8.6.4 2017-10-02
Report Run at: December 17, 2017 15:30 EST
"Nutrient data for: 45324053, ROASTED SALTED NUT MIX, UPC: 835144031210"
Food Group:  Branded Food Products Database
Common Name:

Nutrient,Unit,Data points,Std. Error,"1 ONZ = 28.0g",1Value per 100 g,
Proximates
"Energy",kcal,--,--,180,643
"Protein",g,--,--,4.00,14.29
"Total lipid (fat)",g,--,--,16.00,57.14
"Carbohydrate, by difference",g,--,--,6.00,21.43
"Fiber, total dietary",g,--,--,1.0,3.6
"Sugars, total",g,--,--,1.00,3.57
Minerals
"Calcium, Ca",mg,--,--,30,107
"Iron, Fe",mg,--,--,1.93,6.88
"Sodium, Na",mg,--,--,60,214
Vitamins
"Vitamin C, total ascorbic acid",mg,--,--,0.0,0.0
"Vitamin A, IU",IU,--,--,0,0
Lipids
"Fatty acids, total saturated",g,--,--,1.000,3.570
"Fatty acids, total trans",g,--,--,0.000,0.000
Amino Acids
Other
Ingredients
"CASHEWS, ALMONDS, BRAZIL NUTS, HAZEL NUTS, PECANS, CANOLA, PEANUT AND OR SOYBEAN OIL, SALT." Date available: 08/10/2017 Date last updated by company: 08/10/2017
