Source: USDA Branded Food Products Database Release December 2017 Software v.3.8.6.4 2017-10-02
Report Run at: December 17, 2017 15:21 EST
"Nutrient data for: 45180530, ROASTED PEANUT OIL, UPC: 854259005046"
Food Group:  Branded Food Products Database
Common Name:

Nutrient,Unit,Data points,Std. Error,"1 Tbsp = 15.0g",1Value per 100 g,
Proximates
"Energy",kcal,--,--,130,867
"Protein",g,--,--,0.00,0.00
"Total lipid (fat)",g,--,--,14.00,93.33
"Carbohydrate, by difference",g,--,--,0.00,0.00
Minerals
"Sodium, Na",mg,--,--,0,0
Vitamins
Lipids
"Fatty acids, total saturated",g,--,--,1.000,6.670
"Fatty acids, total monounsaturated",g,--,--,11.000,73.330
"Fatty acids, total polyunsaturated",g,--,--,1.999,13.330
"Fatty acids, total trans",g,--,--,0.000,0.000
"Cholesterol",mg,--,--,0,0
Amino Acids
Other
Ingredients
"100% PURE PEANUT OIL." Date available: 07/14/2017 Date last updated by company: 07/14/2017
