Source: USDA Branded Food Products Database Release December 2017 Software v.3.8.6.4 2017-10-02
Report Run at: December 17, 2017 15:11 EST
"Nutrient data for: 45184969, ROASTED BRUSSELS SPROUTS WITH PARMESAN, UPC: 688267169403"
Food Group:  Branded Food Products Database
Common Name:

Nutrient,Unit,Data points,Std. Error,"1 cup = 140.0g",1Value per 100 g,
Proximates
"Energy",kcal,--,--,140,100
"Protein",g,--,--,6.01,4.29
"Total lipid (fat)",g,--,--,6.01,4.29
"Carbohydrate, by difference",g,--,--,14.99,10.71
"Fiber, total dietary",g,--,--,6.0,4.3
"Sugars, total",g,--,--,4.00,2.86
Minerals
"Calcium, Ca",mg,--,--,99,71
"Iron, Fe",mg,--,--,1.29,0.92
"Sodium, Na",mg,--,--,461,329
Vitamins
"Vitamin C, total ascorbic acid",mg,--,--,98.6,70.4
"Vitamin A, IU",IU,--,--,893,638
Lipids
"Fatty acids, total saturated",g,--,--,0.994,0.710
"Fatty acids, total trans",g,--,--,0.000,0.000
"Cholesterol",mg,--,--,0,0
Amino Acids
Other
Ingredients
"ROASTED BRUSSELS SPROUTS (BRUSSELS SPROUTS, VEGETABLE ROASTING OIL [SOYBEAN OIL, GARLIC, ONION, BASIL, OLIVE OIL, SALT, WHITE BALSAMIC VINEGAR {CHAMPAGNE VINEGAR, WHITE GRAPE JUICE CONCENTRATE}, GARLIC POWDER, SUGAR, BLACK PEPPER]), PARMESAN CHEESE (PASTEURIZED PART-SKIM MILK, SALT, CHEESE CULTURE, ENZYMES, [POTATO STARCH AND POWDERED CELLULOSE {TO PREVENT CAKING}, NATAMYCIN {A NATURAL MOLD INHIBITOR}])" Date available: 10/11/2017 Date last updated by company: 10/11/2017
