Source: USDA Branded Food Products Database Release December 2017 Software v.3.8.6.4 2017-10-02
Report Run at: December 17, 2017 15:16 EST
"Nutrient data for: 45285301, ROASTED GARLIC MAC & CHEESE WITH SPINACH, UPC: 698997809623"
Food Group:  Branded Food Products Database
Common Name:

Nutrient,Unit,Data points,Std. Error,"1 TRAY = 227.0g",1Value per 100 g,
Proximates
"Energy",kcal,--,--,411,181
"Protein",g,--,--,16.00,7.05
"Total lipid (fat)",g,--,--,23.00,10.13
"Carbohydrate, by difference",g,--,--,40.00,17.62
"Fiber, total dietary",g,--,--,3.0,1.3
"Sugars, total",g,--,--,3.00,1.32
Minerals
"Calcium, Ca",mg,--,--,400,176
"Iron, Fe",mg,--,--,0.61,0.27
"Sodium, Na",mg,--,--,520,229
Vitamins
"Vitamin C, total ascorbic acid",mg,--,--,2.0,0.9
"Vitamin A, IU",IU,--,--,1934,852
Lipids
"Fatty acids, total saturated",g,--,--,14.006,6.170
"Fatty acids, total trans",g,--,--,0.000,0.000
"Cholesterol",mg,--,--,59,26
Amino Acids
Other
Ingredients
"GLUTEN FREE ELBOW NOODLES (WATER, BROWN RICE FLOUR, POTATO STARCH, TAPIOCA STARCH, EGG WHITE, SALT, XANTHAN GUM), WHOLE MILK (MILK, VITAMIN D3), SPINACH, MONTEREY JACK CHEESE (MILK, CHEESE CULTURE, SALT, ENZYMES), CHEDDAR CHEESE (MILK, CHEESE CULTURES, SALT, ENZYMES), FONTINA CHEESE (CULTURED MILK, ENZYMES, SALT), HEAVY CREAM, BUTTER, WATER, ONIONS, POTATO FLOUR, PARMESAN CHEESE (MILK, CHEESE CULTURES, SALT, ENZYMES), GARLIC, CORN STARCH, SEA SALT, SPICES." Date available: 07/14/2017 Date last updated by company: 07/14/2017
