Source: USDA Branded Food Products Database Release December 2017 Software v.3.8.6.4 2017-10-02
Report Run at: December 17, 2017 15:16 EST
"Nutrient data for: 45285618, ROASTED GARLIC MASHED POTATOES, UPC: 713733275507"
Food Group:  Branded Food Products Database
Common Name:

Nutrient,Unit,Data points,Std. Error,"0.333 cup = 28.0g",1Value per 100 g,
Proximates
"Energy",kcal,--,--,120,429
"Protein",g,--,--,2.00,7.14
"Total lipid (fat)",g,--,--,4.00,14.29
"Carbohydrate, by difference",g,--,--,18.00,64.29
"Fiber, total dietary",g,--,--,2.0,7.1
"Sugars, total",g,--,--,1.00,3.57
Minerals
"Calcium, Ca",mg,--,--,20,71
"Iron, Fe",mg,--,--,1.80,6.43
"Potassium, K",mg,--,--,320,1143
"Sodium, Na",mg,--,--,430,1536
Vitamins
"Vitamin C, total ascorbic acid",mg,--,--,18.0,64.3
"Vitamin A, IU",IU,--,--,0,0
Lipids
"Fatty acids, total saturated",g,--,--,3.500,12.500
"Fatty acids, total trans",g,--,--,0.000,0.000
"Cholesterol",mg,--,--,0,0
Amino Acids
Other
Ingredients
"IDAHO POTATOES WITH EMULSIFIER (MONO & DIGLYCERIDES) AND PRESERVATIVES (SODIUM ACID PYROPHOSPHATE, SODIUM BISULFITE, CITRIC ACID, MIXED TOCOPHEROLS), COCONUT OIL, MALTODEXTRIN, NONFAT DRY MILK, SALT, DEHYDRATED GARLIC, SODIUM CASEINATE, CANOLA OIL, HYDROLYZED SOY PROTEIN, NATURAL FLAVORS, MONO AND DIGLYCERIDES, DIPOTASSIUM PHOSPHATE, PARSLEY, BLACK PEPPER, DISODIUM INOSINATE, DISODIUM GUANYLATE, ANNATTO EXTRACT (COLOR), SOYBEAN OIL, AND LESS THAN 2% SILICON DIOXIDE ADDED AS AN ANTICAKING AGENT." Date available: 07/14/2017 Date last updated by company: 07/14/2017
