Source: USDA Branded Food Products Database Release December 2017 Software v.3.8.6.4 2017-10-02
Report Run at: December 17, 2017 15:31 EST
"Nutrient data for: 45275616, ROASTED SALTED PUMPKIN SEEDS, UPC: 019646001371"
Food Group:  Branded Food Products Database
Common Name:

Nutrient,Unit,Data points,Std. Error,"50.0 GRM = 50.0g",1Value per 100 g,
Proximates
"Energy",kcal,--,--,317,634
"Protein",g,--,--,15.00,30.00
"Total lipid (fat)",g,--,--,25.00,50.00
"Carbohydrate, by difference",g,--,--,8.00,16.00
"Fiber, total dietary",g,--,--,3.0,6.0
"Sugars, total",g,--,--,1.00,2.00
Minerals
"Calcium, Ca",mg,--,--,30,60
"Iron, Fe",mg,--,--,4.14,8.28
"Sodium, Na",mg,--,--,165,330
Vitamins
"Vitamin C, total ascorbic acid",mg,--,--,0.6,1.2
"Vitamin A, IU",IU,--,--,0,0
Lipids
"Fatty acids, total saturated",g,--,--,4.000,8.000
"Fatty acids, total trans",g,--,--,0.000,0.000
"Cholesterol",mg,--,--,0,0
Amino Acids
Other
Ingredients
"PUMPKIN SEEDS, PEANUT OIL, AND SALT." Date available: 07/14/2017 Date last updated by company: 07/14/2017
