Source: USDA Branded Food Products Database Release December 2017 Software v.3.8.6.4 2017-10-02
Report Run at: December 17, 2017 15:15 EST
"Nutrient data for: 45061253, ROASTED GARLIC & HERB GRINDER, UPC: 021248102653"
Food Group:  Branded Food Products Database
Common Name:

Nutrient,Unit,Data points,Std. Error,"0.25 tsp = 1.1g",1Value per 100 g,
Proximates
"Energy",kcal,--,--,5,455
"Protein",g,--,--,0.00,0.00
"Total lipid (fat)",g,--,--,0.00,0.00
"Carbohydrate, by difference",g,--,--,1.00,90.91
Minerals
"Sodium, Na",mg,--,--,75,6818
Vitamins
"Vitamin C, total ascorbic acid",mg,--,--,109.1,9917.5
"Vitamin A, IU",IU,--,--,0,0
Lipids
Amino Acids
Other
Ingredients
"DEHYDRATED VEGETABLES (GARLIC, RED BELL PEPPER), DEMERARA SUGAR, SEA SALT, SPICES, PARSLEY, CITRIC ACID, AND GARLIC OIL." Date available: 08/11/2017 Date last updated by company: 08/11/2017
