Source: USDA Branded Food Products Database Release December 2017 Software v.3.8.6.4 2017-10-02
Report Run at: December 17, 2017 15:17 EST
"Nutrient data for: 45223369, ROASTED GARLIC, UPC: 077661147306"
Food Group:  Branded Food Products Database
Common Name:

Nutrient,Unit,Data points,Std. Error,"2.0 Tbsp = 30.0g",1Value per 100 g,
Proximates
"Energy",kcal,--,--,60,200
"Protein",g,--,--,1.00,3.33
"Total lipid (fat)",g,--,--,5.00,16.67
"Carbohydrate, by difference",g,--,--,3.00,10.00
"Fiber, total dietary",g,--,--,0.0,0.0
"Sugars, total",g,--,--,1.00,3.33
Minerals
"Calcium, Ca",mg,--,--,40,133
"Iron, Fe",mg,--,--,0.00,0.00
"Sodium, Na",mg,--,--,200,667
Vitamins
"Vitamin C, total ascorbic acid",mg,--,--,0.0,0.0
"Vitamin A, IU",IU,--,--,0,0
Lipids
"Fatty acids, total saturated",g,--,--,0.000,0.000
"Fatty acids, total trans",g,--,--,0.000,0.000
"Cholesterol",mg,--,--,0,0
Amino Acids
Other
Ingredients
"NON FAT GREEN YOGURT (CULTURED SKIM MILK, MILK PROTEIN CONCENTRATE, CORN STARCH, TAPIOCA STARCH, CARRAGEENAN GUM, LOCUST BEAN GUM), WATER, CANOLA OIL, DISTILLED VINEGAR, MALTODEXTRIN, GLUCONIC ACID, SUGAR, SALT, DRIED GARLIC, SEASONING BLEND (DEXTROSE, SALT, NATURAL FLAVORS, MODIFIED CORN STARCH), SPICE, XANTHAN GUM, CARRAGEENAN GUM, ACACIA GUM, ROASTED GARLIC PUREE (GARLIC, WATER, NATURAL FLAVOR, CITRIC ACID), NATURAL FLAVOR." Date available: 07/14/2017 Date last updated by company: 07/14/2017
