Source: USDA Branded Food Products Database Release December 2017 Software v.3.8.6.4 2017-10-02
Report Run at: December 17, 2017 15:39 EST
"Nutrient data for: 45202607, ROASTING VEGETABLES, UPC: 782796022724"
Food Group:  Branded Food Products Database
Common Name:

Nutrient,Unit,Data points,Std. Error,"3.0 ONZ = 85.0g",1Value per 100 g,
Proximates
"Energy",kcal,--,--,25,29
"Protein",g,--,--,1.00,1.18
"Total lipid (fat)",g,--,--,0.00,0.00
"Carbohydrate, by difference",g,--,--,6.00,7.06
"Fiber, total dietary",g,--,--,1.0,1.2
"Sugars, total",g,--,--,2.00,2.35
Minerals
"Calcium, Ca",mg,--,--,20,24
"Iron, Fe",mg,--,--,0.36,0.42
"Sodium, Na",mg,--,--,20,24
Vitamins
"Vitamin C, total ascorbic acid",mg,--,--,12.0,14.1
"Vitamin A, IU",IU,--,--,2250,2647
Lipids
"Fatty acids, total saturated",g,--,--,0.000,0.000
"Fatty acids, total trans",g,--,--,0.000,0.000
"Cholesterol",mg,--,--,0,0
Amino Acids
Other
Ingredients
"ZUCCHINI, YELLOW SQUASH, RED ONION, CARROT, BUTTERNUT SQUASH." Date available: 07/14/2017 Date last updated by company: 07/14/2017
