Source: USDA Branded Food Products Database Release December 2017 Software v.3.8.6.4 2017-10-02
Report Run at: December 17, 2017 15:25 EST
"Nutrient data for: 45332911, ROASTED RED PEPPER HUMMUS, UPC: 052603094832"
Food Group:  Branded Food Products Database
Common Name:

Nutrient,Unit,Data points,Std. Error,"2.0 Tbsp = 31.0g",1Value per 100 g,
Proximates
"Energy",kcal,--,--,45,145
"Protein",g,--,--,1.00,3.23
"Total lipid (fat)",g,--,--,3.00,9.68
"Carbohydrate, by difference",g,--,--,4.00,12.90
"Fiber, total dietary",g,--,--,1.0,3.2
"Sugars, total",g,--,--,1.00,3.23
Minerals
"Calcium, Ca",mg,--,--,0,0
"Iron, Fe",mg,--,--,0.58,1.88
"Sodium, Na",mg,--,--,130,419
Vitamins
"Vitamin C, total ascorbic acid",mg,--,--,0.0,0.0
"Vitamin A, IU",IU,--,--,162,521
Lipids
"Fatty acids, total saturated",g,--,--,0.000,0.000
"Fatty acids, total trans",g,--,--,0.000,0.000
"Cholesterol",mg,--,--,0,0
Amino Acids
Other
Ingredients
"WATER, CHICKPEAS*, ROASTED RED BELL PEPPERS*, RED BELL PEPPERS*, CANOLA OIL*, TAHINI (GROUND SESAME)*, GARLIC*, LEMON JUICE CONCENTRATE*, SEA SALT, SESAME OIL*, SPICES*." Date available: 10/13/2017 Date last updated by company: 10/13/2017
