Source: USDA Branded Food Products Database Release December 2017 Software v.3.8.6.4 2017-10-02
Report Run at: December 17, 2017 15:39 EST
"Nutrient data for: 45266869, ROASTING VEGETABLE, UPC: 072036884060"
Food Group:  Branded Food Products Database
Common Name:

Nutrient,Unit,Data points,Std. Error,"3.0 ONZ = 85.0g",1Value per 100 g,
Proximates
"Energy",kcal,--,--,35,41
"Protein",g,--,--,1.00,1.18
"Total lipid (fat)",g,--,--,0.00,0.00
"Carbohydrate, by difference",g,--,--,8.00,9.41
"Fiber, total dietary",g,--,--,2.0,2.4
"Sugars, total",g,--,--,3.00,3.53
Minerals
"Calcium, Ca",mg,--,--,20,24
"Iron, Fe",mg,--,--,0.36,0.42
"Potassium, K",mg,--,--,230,271
"Sodium, Na",mg,--,--,25,29
Vitamins
"Vitamin C, total ascorbic acid",mg,--,--,12.0,14.1
"Vitamin A, IU",IU,--,--,2000,2353
Lipids
"Fatty acids, total saturated",g,--,--,0.000,0.000
"Fatty acids, total trans",g,--,--,0.000,0.000
"Cholesterol",mg,--,--,0,0
Amino Acids
Other
Ingredients
"POTATO, CARROT, RUTABAGA, CELERY, YELLOW ONION, RED ONION, PARSNIP, FENNEL." Date available: 07/14/2017 Date last updated by company: 07/14/2017
