Source: USDA Branded Food Products Database Release December 2017 Software v.3.8.6.4 2017-10-02
Report Run at: December 17, 2017 15:07 EST
"Nutrient data for: 45195720, ROAST BEEF PINWHEELS, UPC: 030223012184"
Food Group:  Branded Food Products Database
Common Name:

Nutrient,Unit,Data points,Std. Error,"6.0 PIECES = 255.0g",1Value per 100 g,
Proximates
"Energy",kcal,--,--,660,259
"Protein",g,--,--,37.99,14.90
"Total lipid (fat)",g,--,--,28.00,10.98
"Carbohydrate, by difference",g,--,--,28.00,10.98
"Fiber, total dietary",g,--,--,1.0,0.4
"Sugars, total",g,--,--,3.01,1.18
Minerals
"Calcium, Ca",mg,--,--,301,118
"Iron, Fe",mg,--,--,2.47,0.97
"Sodium, Na",mg,--,--,1211,475
Vitamins
"Vitamin C, total ascorbic acid",mg,--,--,3.3,1.3
"Vitamin A, IU",IU,--,--,1237,485
Lipids
"Fatty acids, total saturated",g,--,--,9.002,3.530
"Fatty acids, total trans",g,--,--,0.000,0.000
"Cholesterol",mg,--,--,125,49
Amino Acids
Other
Ingredients
"ROAST BEEF (BEEF, WATER, CONTAINS LESS THAN 2% SODIUM LACTATE, SODIUM PHOSPHATE, SODIUM DIACETATE, SALT, HYDROLYZED CORN PROTEIN, FLAVORINGS. COATED WITH DEXTROSE, SALT, CARAMEL COLOR, ONION AND GARLIC POWDER, HYDROLYZED CORN PROTEIN, SPICES), LAVASH (ENRICHED UNBLEACHED WHEAT FLOUR [MALTED BARLEY FLOUR, IRON, THIAMIN MONONITRATE, NIACIN, RIBOFLAVIN, FOLIC ACID, CITRIC ACID], FILTERED WATER, SEA SALT, YEAST, CULTURE WHEAT, CITRIC ACID), CREAM CHEESE SPREAD (PASTEURIZED MILK AND CREAM, CHEESE CULTURE, SALT, STABILIZERS [CAROB BEAN, XANTHAN AND/OR GUAR GUMS]), MILD CHEDDAR CHEESE (PASTEURIZED MILK, CHEESE CULTURES, SALT, MICROBIAL ENZYMES, ANNATTO [FOR COLOR]), LETTUCE, ROASTED RED PEPPER (RED PEPPERS, WATER, SALT, CITRIC ACID, CALCIUM CHLORIDE)." Date available: 07/14/2017 Date last updated by company: 07/14/2017
