Source: USDA Branded Food Products Database Release December 2017 Software v.3.8.6.4 2017-10-02
Report Run at: December 17, 2017 15:12 EST
"Nutrient data for: 45262107, ROASTED CHICKEN & KALE RAVIOLI WITH A PEPPERCORN CHEESE SAUCE, UPC: 850821003601"
Food Group:  Branded Food Products Database
Common Name:

Nutrient,Unit,Data points,Std. Error,"150.0 GRM = 150.0g",1Value per 100 g,
Proximates
"Energy",kcal,--,--,310,207
"Protein",g,--,--,18.00,12.00
"Total lipid (fat)",g,--,--,15.00,10.00
"Carbohydrate, by difference",g,--,--,28.01,18.67
"Fiber, total dietary",g,--,--,1.9,1.3
"Sugars, total",g,--,--,2.00,1.33
Minerals
"Calcium, Ca",mg,--,--,100,67
"Iron, Fe",mg,--,--,1.02,0.68
"Sodium, Na",mg,--,--,520,347
Vitamins
"Vitamin C, total ascorbic acid",mg,--,--,1.4,0.9
"Vitamin A, IU",IU,--,--,850,567
Lipids
"Fatty acids, total saturated",g,--,--,7.995,5.330
"Fatty acids, total trans",g,--,--,0.000,0.000
"Cholesterol",mg,--,--,75,50
Amino Acids
Other
Ingredients
"RAVIOLI: SEMOLINA (SEMOLINA, NIACIN, FERROUS SULFATE, THIAMIN MONONITRATE, RIBOFLAVIN, FOLIC ACID), CHICKEN BREAST, KALE, WATER, EGG (EGG, CITRIC ACID, WATER), MILK (ASCORBIC ACID (VITAMIN C) AND VITAMIN D2), FONTINA (PASTEURIZED MILK, CHEESE CULTURE, SALT, CORN FLOUR/CELLULOSE (ANTI-CAKING AGENT), ENZYMES), MOZZARELLA CHEESE (PASTEURIZED PARK SKIM MILK, CHEESE CULTURES, SALT, ENZYMES AND CELLULOSE (TO PREVENT CAKING), 2% OR LESS OF ONION, BREAD CRUMBS (WHEAT FLOUR, NATURAL CANE SUGAR, YEAST, SEA, SALT), WHITE WINE (WINE, SALT, SULFITES), CREAM (CREAM, CARRAGEENAN, MONO & DIGLYCERIDES), GARLIC, ROMANO CHEESE (PASTEURIZED COW'S MILK, CHEESE CULTURES, SALT, ENZYMES), EGG WHITE, SEA SALT, ASIAGO CHEESE (PASTEURIZED MILK, CHEESE CULTURE, SALT, ENZYMES, CORN FLOUR/CELLULOSE (ANTI-CAKING AGENT)), PARMESAN CHEESE (PASTEURIZED COW'S MILK, CHEESE CULTURES, SALT, ENZYMES), SOY SAUCE (WATER, WHEAT, SOYBEANS, SALT), BUTTER (PASTEURIZED CREAM, SALT) ENRICHED SPRING WHEAT FLOUR ((NIACIN, REDUCED IRON, THIAMINE MONONITRATE, RIBOFLAVIN, FOLIC ACID), MALTED BARLEY FLOUR), MODIFIED FOOD STARCH, PAPRIKA, WHEY PROTEIN, RICE STARCH, RED PEPPER, BALSAMIC VINEGAR, CARRAGEENAN, BROWN SUGAR, CANOLA AND OLIVE OIL, BLACK PEPPER. SAUCE: MILK (MILK, ASCORBIC ACID (VITAMIN C) AND VITAMIN D2), LIGHT CREAM (LIGHT CREAM CARRAGEENAN, MONO & DIGLYCERIDES), WHITE WINE (WINE, SALT, SULFITES), BUTTER (PASTEURIZED CREAM, SALT), ROMANO CHEESE (PASTEURIZED COW'S MILK, CHEESE CULTURES, SALT, ENZYMES), SHALLOTS, BLUE CHEESE (PASTEURIZED MILK, CULTURE, SEA SALT, RENNET ENZYMES, PENICILLIUM ROQUEFORTI MOLD SPORE, NATAMYCIN (TO PROTECT FLAVOR) AND CELLULOSE (TO PREVENT CAKING), GARLIC, MODIFIED FOOD STARCH, VEGETABLE STOCK (WATER SALT, DEXTROSE, MALTODEXTRIN. ONION POWDER, CARROT POWDER, AUTOLYZED YEAST EXTRACT, NATURAL FLAVORING, CELERY SEED, TURMERIC), SEA SALT, RICE STARCH, CARRAGEENAN, CRACKED BLACK PEPPER." Date available: 07/14/2017 Date last updated by company: 07/14/2017
