Source: USDA Branded Food Products Database Release December 2017 Software v.3.8.6.4 2017-10-02
Report Run at: December 17, 2017 15:40 EST
"Nutrient data for: 45022327, ROBERT ROTHSCHILD FARM, ORGANIC CHILI & CILANTRO DIP, UPC: 011246701156"
Food Group:  Branded Food Products Database
Common Name:

Nutrient,Unit,Data points,Std. Error,"2.0 Tbsp = 33.0g",1Value per 100 g,
Proximates
"Energy",kcal,--,--,40,121
"Protein",g,--,--,0.00,0.00
"Total lipid (fat)",g,--,--,0.00,0.00
"Carbohydrate, by difference",g,--,--,9.00,27.27
"Fiber, total dietary",g,--,--,0.0,0.0
"Sugars, total",g,--,--,8.00,24.24
Minerals
"Calcium, Ca",mg,--,--,0,0
"Iron, Fe",mg,--,--,0.00,0.00
"Sodium, Na",mg,--,--,125,379
Vitamins
"Vitamin C, total ascorbic acid",mg,--,--,13.6,41.3
"Vitamin A, IU",IU,--,--,151,459
Lipids
"Fatty acids, total saturated",g,--,--,0.000,0.000
"Fatty acids, total trans",g,--,--,0.000,0.000
"Cholesterol",mg,--,--,0,0
Amino Acids
Other
Ingredients
"RED BELL PEPPERS*, SUGAR*, WATER, ONIONS*, DISTILLED WHITE VINEGAR*, SOY SAUCE* (WATER, SOYBEANS*, WHEAT*, SALT, ALCOHOL* (TO PRESERVE FRESHNESS)), CORNSTARCH*, CILANTRO*, LIME JUICE CONCENTRATE*, GARLIC*, CRUSHED RED CHILI PEPPERS*, SEA SALT, XANTHAN GUM, CITRIC ACID." Date available: 06/25/2017 Date last updated by company: 06/25/2017
