Source: USDA Branded Food Products Database Release December 2017 Software v.3.8.6.4 2017-10-02
Report Run at: December 17, 2017 15:39 EST
"Nutrient data for: 45003998, ROBERTO'S, MEDIUM GREEN CHILI SALSA, UPC: 054791100036"
Food Group:  Branded Food Products Database
Common Name:

Nutrient,Unit,Data points,Std. Error,"2.0 Tbsp = 28.0g",1Value per 100 g,
Proximates
"Energy",kcal,--,--,10,36
"Protein",g,--,--,0.00,0.00
"Total lipid (fat)",g,--,--,0.00,0.00
"Carbohydrate, by difference",g,--,--,2.00,7.14
"Sugars, total",g,--,--,1.00,3.57
Minerals
"Sodium, Na",mg,--,--,170,607
Vitamins
"Vitamin C, total ascorbic acid",mg,--,--,4.3,15.3
"Vitamin A, IU",IU,--,--,179,638
Lipids
Amino Acids
Other
Ingredients
"TOMATOES (VINE-RIPENED FRESH TOMATOES, SALT, CALCIUM CHLORIDE AND CITRIC ACID), GREEN CHILES (GREEN CHILI PEPPERS, WATER, SALT, CITRIC ACID), ONIONS, SALT, CILANTRO, COARSE HOT CHILIS, GARLIC, AND SPICES. 1/10 OF 1% SODIUM BENZOATE AND POTASSIUM SORBATE ADDED TO MAINTAIN FRESHNESS." Date available: 06/25/2017 Date last updated by company: 06/25/2017
