Source: USDA Branded Food Products Database Release December 2017 Software v.3.8.6.4 2017-10-02
Report Run at: December 17, 2017 15:41 EST
"Nutrient data for: 45147043, ROCA THINS, DARK CHOCOLATE PEPPERMINT BARK, UPC: 041770588404"
Food Group:  Branded Food Products Database
Common Name:

Nutrient,Unit,Data points,Std. Error,"1.4 ONZ = 40.0g",1Value per 100 g,
Proximates
"Energy",kcal,--,--,200,500
"Protein",g,--,--,1.00,2.50
"Total lipid (fat)",g,--,--,13.00,32.50
"Carbohydrate, by difference",g,--,--,23.00,57.50
"Fiber, total dietary",g,--,--,2.0,5.0
"Sugars, total",g,--,--,19.00,47.50
Minerals
"Calcium, Ca",mg,--,--,20,50
"Iron, Fe",mg,--,--,1.35,3.38
"Sodium, Na",mg,--,--,40,100
Vitamins
"Vitamin C, total ascorbic acid",mg,--,--,0.0,0.0
"Vitamin A, IU",IU,--,--,125,312
Lipids
"Fatty acids, total saturated",g,--,--,8.000,20.000
"Fatty acids, total trans",g,--,--,0.000,0.000
"Cholesterol",mg,--,--,5,12
Amino Acids
Other
Ingredients
"SEMISWEET CHOCOLATE (SUGAR, UNSWEETENED CHOCOLATE PROCESSED WITH ALKALI (COCOA MASS), COCOA BUTTER, MILK FAT, SOY LECITHIN (EMULSIFIER) AND NATURAL FLAVORS), SUGAR, BUTTER (CREAM,SALT), CORN SYRUP, PALM OIL, OIL OF PEPPERMINT (NATURAL FLAVOR), SOY LECITHIN (EMULSIFIER), VEGETABLE JUICE COLOR, CARAMEL COLOR AND VANILLA(NATURAL FLAVOR)." Date available: 07/14/2017 Date last updated by company: 07/14/2017
