Source: USDA Branded Food Products Database Release December 2017 Software v.3.8.6.4 2017-10-02
Report Run at: December 17, 2017 15:45 EST
"Nutrient data for: 45264747, RODS PRETZELS, UPC: 021130290529"
Food Group:  Branded Food Products Database
Common Name:

Nutrient,Unit,Data points,Std. Error,"3.0 PRETZELS = 36.0g",1Value per 100 g,
Proximates
"Energy",kcal,--,--,140,389
"Protein",g,--,--,3.00,8.33
"Total lipid (fat)",g,--,--,1.00,2.78
"Carbohydrate, by difference",g,--,--,29.00,80.56
"Fiber, total dietary",g,--,--,1.0,2.8
"Sugars, total",g,--,--,1.00,2.78
Minerals
"Calcium, Ca",mg,--,--,0,0
"Iron, Fe",mg,--,--,2.00,5.55
"Potassium, K",mg,--,--,40,111
"Sodium, Na",mg,--,--,270,750
Vitamins
"Vitamin C, total ascorbic acid",mg,--,--,0.0,0.0
"Vitamin A, IU",IU,--,--,0,0
Lipids
"Fatty acids, total saturated",g,--,--,0.000,0.000
"Fatty acids, total monounsaturated",g,--,--,0.000,0.000
"Fatty acids, total polyunsaturated",g,--,--,0.500,1.390
"Fatty acids, total trans",g,--,--,0.000,0.000
"Cholesterol",mg,--,--,0,0
Amino Acids
Other
Ingredients
"ENRICHED WHEAT FLOUR (WHEAT FLOUR, NIACIN, REDUCED IRON, THIAMIN MONONITRATE, RIBOFLAVIN, FOLIC ACID), LESS THAN 2% OF: CANOLA OIL AND/OR SOYBEAN OIL, SALT, CORN SYRUP, BARLEY MALT EXTRACT, LEAVENING (CONTAINS ONE OR MORE OF: YEAST, SODIUM BICARBONATE, AMMONIUM BICARBONATE), L-CYSTEINE." Date available: 07/14/2017 Date last updated by company: 07/14/2017
