Source: USDA Branded Food Products Database Release December 2017 Software v.3.8.6.4 2017-10-02
Report Run at: December 17, 2017 15:48 EST
"Nutrient data for: 45025115, ROLAND, FRENCH GALETTES SHORTBREAD COOKIES, UPC: 041224711747"
Food Group:  Branded Food Products Database
Common Name:

Nutrient,Unit,Data points,Std. Error,"4.0 COOKIES = 30.0g",1Value per 100 g,
Proximates
"Energy",kcal,--,--,140,467
"Protein",g,--,--,2.00,6.67
"Total lipid (fat)",g,--,--,6.00,20.00
"Carbohydrate, by difference",g,--,--,21.00,70.00
"Fiber, total dietary",g,--,--,1.0,3.3
"Sugars, total",g,--,--,10.00,33.33
Minerals
"Calcium, Ca",mg,--,--,0,0
"Iron, Fe",mg,--,--,0.60,2.00
"Sodium, Na",mg,--,--,150,500
Vitamins
"Vitamin C, total ascorbic acid",mg,--,--,0.0,0.0
"Vitamin A, IU",IU,--,--,334,1112
Lipids
"Fatty acids, total saturated",g,--,--,3.501,11.670
"Fatty acids, total trans",g,--,--,0.000,0.000
"Cholesterol",mg,--,--,25,83
Amino Acids
Other
Ingredients
"WHEAT FLOUR, SUGAR, BUTTERFAT (COLORING BETA-CAROTENE). WHEAT STARCH, EGG YOLKS, EGGS, SKIM MILK, SALT, RAISING AGENTS (AMMONIUM HYDROGEN CARBONATE, SODIUM HYDROGEN CARBONATE, TETRASODIUM DIPHOSPHATE)." Date available: 07/14/2017 Date last updated by company: 07/14/2017
