Source: USDA Branded Food Products Database Release December 2017 Software v.3.8.6.4 2017-10-02
Report Run at: December 17, 2017 15:47 EST
"Nutrient data for: 45087491, ROLAND, CHERRIES, PASSION FRUIT, UPC: 041224604469"
Food Group:  Branded Food Products Database
Common Name:

Nutrient,Unit,Data points,Std. Error,"1 CHERRY = 5.0g",1Value per 100 g,
Proximates
"Energy",kcal,--,--,10,200
"Protein",g,--,--,0.00,0.00
"Total lipid (fat)",g,--,--,0.00,0.00
"Carbohydrate, by difference",g,--,--,2.00,40.00
"Sugars, total",g,--,--,2.00,40.00
Minerals
"Sodium, Na",mg,--,--,0,0
Vitamins
Lipids
"Fatty acids, total saturated",g,--,--,0.000,0.000
"Fatty acids, total trans",g,--,--,0.000,0.000
"Cholesterol",mg,--,--,0,0
Amino Acids
Other
Ingredients
"CHERRIES, SUGAR/HIGH FRUCTOSE CORN SYRUP, WATER, CITRIC ACID, SODIUM BENZOATE AND POTASSIUM SORBATE ADDED AS PRESERVATIVES, CALCIUM CHLORIDE, NATURAL AND ARTIFICIAL FLAVOR, FD&C YELLOW #6, SULFUR DIOXIDE (AS A PRESERVATIVE)." Date available: 06/25/2017 Date last updated by company: 06/25/2017
