Source: USDA Branded Food Products Database Release December 2017 Software v.3.8.6.4 2017-10-02
Report Run at: December 17, 2017 15:48 EST
"Nutrient data for: 45104340, ROLAND, GRILLED ARTICHOKE HEARTS FRESH PACK, UPC: 041224310148"
Food Group:  Branded Food Products Database
Common Name:

Nutrient,Unit,Data points,Std. Error,"3.0 ARTICHOKES = 30.0g",1Value per 100 g,
Proximates
"Energy",kcal,--,--,45,150
"Protein",g,--,--,0.00,0.00
"Total lipid (fat)",g,--,--,4.00,13.33
"Carbohydrate, by difference",g,--,--,2.00,6.67
"Fiber, total dietary",g,--,--,2.0,6.7
"Sugars, total",g,--,--,0.00,0.00
Minerals
"Calcium, Ca",mg,--,--,0,0
"Iron, Fe",mg,--,--,1.56,5.20
"Sodium, Na",mg,--,--,250,833
Vitamins
"Vitamin C, total ascorbic acid",mg,--,--,0.0,0.0
"Vitamin A, IU",IU,--,--,0,0
Lipids
"Fatty acids, total saturated",g,--,--,0.000,0.000
"Fatty acids, total trans",g,--,--,0.000,0.000
"Cholesterol",mg,--,--,0,0
Amino Acids
Other
Ingredients
"ARTICHOKE HEARTS, SUNFLOWER OIL, VINEGAR, SALT, SPICES, CITRIC ACID, ASCORBIC ACID." Date available: 06/25/2017 Date last updated by company: 06/25/2017
