Source: USDA Branded Food Products Database Release December 2017 Software v.3.8.6.4 2017-10-02
Report Run at: December 17, 2017 15:52 EST
"Nutrient data for: 45178593, ROLL CAKE, UPC: 694411005848"
Food Group:  Branded Food Products Database
Common Name:

Nutrient,Unit,Data points,Std. Error,"1.625 ONZ = 46.0g",1Value per 100 g,
Proximates
"Energy",kcal,--,--,189,411
"Protein",g,--,--,4.00,8.70
"Total lipid (fat)",g,--,--,10.00,21.74
"Carbohydrate, by difference",g,--,--,21.00,45.65
"Fiber, total dietary",g,--,--,0.0,0.0
"Sugars, total",g,--,--,11.00,23.91
Minerals
"Calcium, Ca",mg,--,--,20,43
"Iron, Fe",mg,--,--,1.17,2.55
"Sodium, Na",mg,--,--,195,424
Vitamins
"Vitamin C, total ascorbic acid",mg,--,--,1.3,2.8
"Vitamin A, IU",IU,--,--,109,236
Lipids
"Fatty acids, total saturated",g,--,--,2.001,4.350
"Fatty acids, total trans",g,--,--,0.000,0.000
"Cholesterol",mg,--,--,33,72
Amino Acids
Other
Ingredients
"ENRICHED WHEAT FLOUR (FERROUS SULFITE, NIACIN, THIAMIN MONONITRATE, RIBOFLAVIN, FOLIC ACID), SUGAR, WHOLE EGGS, MODIFIED CORN STARCH, VEGETABLE OIL (SOYBEAN OR COTTONSEED), RASPBERRY, NONFAT MILK, COCONUT FLAKE, BAKING POWDER (LEAVENING), EMULSIFIER (PROPYLENE GLYCOL MONOESTERS), SALT, SOY LECITHIN, MONO AND DIGLYCERIDES, HIGH FRUCTOSE CORN SYRUP, PECTIN, NATURAL AND ARTIFICIAL FLAVORS, POTASSIUM SORBATE AND CITRIC ACID (PRESERVATIVES), SODIUM BENZOATE, XANTHAN GUM, LOCUS BEAN GUM, CALCIUM CORRAGEENAN, MALIC ACID, FD&C RED # 40, FD&C YELLOW # 6, BLUE #1, BLUE #2." Date available: 10/10/2017 Date last updated by company: 10/10/2017
