Source: USDA Branded Food Products Database Release December 2017 Software v.3.8.6.4 2017-10-02
Report Run at: December 17, 2017 15:54 EST
"Nutrient data for: 45197114, ROLL-UPS, UPC: 071007419331"
Food Group:  Branded Food Products Database
Common Name:

Nutrient,Unit,Data points,Std. Error,"2.0 PIECES = 142.0g",1Value per 100 g,
Proximates
"Energy",kcal,--,--,300,211
"Protein",g,--,--,10.00,7.04
"Total lipid (fat)",g,--,--,15.00,10.56
"Carbohydrate, by difference",g,--,--,33.99,23.94
"Fiber, total dietary",g,--,--,1.0,0.7
"Sugars, total",g,--,--,3.00,2.11
Minerals
"Calcium, Ca",mg,--,--,40,28
"Iron, Fe",mg,--,--,2.66,1.87
"Sodium, Na",mg,--,--,601,423
Vitamins
"Vitamin C, total ascorbic acid",mg,--,--,0.0,0.0
"Vitamin A, IU",IU,--,--,98,69
Lipids
"Fatty acids, total saturated",g,--,--,4.501,3.170
"Fatty acids, total trans",g,--,--,0.000,0.000
"Cholesterol",mg,--,--,105,74
Amino Acids
Other
Ingredients
"FLOUR, TORTILLA (WHEAT FLOUR (ENRICHED WITH NIACIN, REDUCED IRON, THIAMIN MONONITRATE, RIBOFLAVIN, FOLIC ACID), WATER, VEGETABLE OIL (SOYBEAN, SUNFLOWER, CANOLA AND/OR CORN OIL), DOUGH CONDITIONERS (SALT, YEAST, CELLULOSE GUM, GUAR GUM, WHEAT STARCH, ENZYMES, SODIUM METABISULFITE, SODIUM STEAROYL LACTYLATE, L-CYSTEINE, MONO AND DIGLYCERIDES, DICALCIUM PHOSPHATE, MICROCRYSTALLINE CELLULOSE), SCRAMBLED EGGS (WHOLE EGGS, NONFAT MILK, MODIFIED FOOD STARCH, SALT, XANTHAN GUM, CITRIC ACID, SPICE), SAUSAGE (PORK, WATER, SOY PROTEIN CONCENTRATE, SALT, SPICES, CORN SYRUP SOLIDS, SUGAR, AUTOLYZED YEAST EXTRACT, SPICE EXTRACTIVE), CHEESE SAUCE (WATER, AGED CHEDDAR CHEESE (CULTURED MILK, SALT, ENZYMES, ANNATTO COLOR), PARTIALLY HYDROGENATED SOYBEAN OIL, MODIFIED CORN STARCH, CREAM CHEESE [PASTEURIZED MILK AND CREAM, CHEESE CULTURE, SALT, STABILIZERS (XANTHAN, GUAR, CAROB BEAN GUMS)], CONTAINS 2% OR LESS OF SODIUM PHOSPHATE, NONFAT DRY MILK, SALT, WHEY, CELLULOSE GUM, LACTIC ACID, PROPIONIC ACID, SUGAR, MONOGLYCERIDES, YEAST EXTRACT, BUTTER OIL, NATURAL FLAVOR, ANNATTO COLOR, FD&C YELLOW NO. 6), WATER, CONTAINS 2% OR LESS MODIFIED CORN STARCH, SUGAR, MAPLE FLAVOR (MOLASSES, MAPLE SYRUP, NATURAL FLAVORS), SALT, SPICE." Date available: 09/25/2017 Date last updated by company: 09/25/2017
