Source: USDA Branded Food Products Database Release December 2017 Software v.3.8.6.4 2017-10-02
Report Run at: December 17, 2017 15:54 EST
"Nutrient data for: 45275018, ROMAINE HEARTS, UPC: 011110916297"
Food Group:  Branded Food Products Database
Common Name:

Nutrient,Unit,Data points,Std. Error,"6.0 LEAVES = 85.0g",1Value per 100 g,
Proximates
"Energy",kcal,--,--,15,18
"Protein",g,--,--,1.00,1.18
"Total lipid (fat)",g,--,--,0.50,0.59
"Carbohydrate, by difference",g,--,--,3.00,3.53
"Fiber, total dietary",g,--,--,2.0,2.4
"Sugars, total",g,--,--,1.00,1.18
Minerals
"Calcium, Ca",mg,--,--,20,24
"Iron, Fe",mg,--,--,0.72,0.85
"Sodium, Na",mg,--,--,5,6
Vitamins
"Vitamin C, total ascorbic acid",mg,--,--,18.0,21.2
"Vitamin A, IU",IU,--,--,1800,2118
Lipids
"Fatty acids, total saturated",g,--,--,0.000,0.000
"Fatty acids, total trans",g,--,--,0.000,0.000
"Cholesterol",mg,--,--,0,0
Amino Acids
Other
Ingredients
"ROMAINE HEARTS" Date available: 02/27/2017 Date last updated by company: 02/27/2017
