Source: USDA Branded Food Products Database Release December 2017 Software v.3.8.6.4 2017-10-02
Report Run at: December 17, 2017 15:55 EST
"Nutrient data for: 45177296, ROMANO CHEESE, UPC: 075717112063"
Food Group:  Branded Food Products Database
Common Name:

Nutrient,Unit,Data points,Std. Error,"2.0 ONZ = 56.0g",1Value per 100 g,
Proximates
"Energy",kcal,--,--,20,36
"Protein",g,--,--,1.00,1.79
"Total lipid (fat)",g,--,--,2.00,3.57
"Carbohydrate, by difference",g,--,--,0.00,0.00
"Fiber, total dietary",g,--,--,0.0,0.0
"Sugars, total",g,--,--,0.00,0.00
Minerals
"Calcium, Ca",mg,--,--,60,107
"Iron, Fe",mg,--,--,0.00,0.00
"Sodium, Na",mg,--,--,75,134
Vitamins
"Vitamin C, total ascorbic acid",mg,--,--,0.0,0.0
"Vitamin A, IU",IU,--,--,0,0
Lipids
"Fatty acids, total saturated",g,--,--,1.002,1.790
"Fatty acids, total trans",g,--,--,0.000,0.000
"Cholesterol",mg,--,--,5,9
Amino Acids
Other
Ingredients
"PASTEURIZED MILK (FROM SHEEP AND COW), BACTERIAL CULTURES, SALT AND ENZYMES." Date available: 07/14/2017 Date last updated by company: 07/14/2017
