Source: USDA Branded Food Products Database Release December 2017 Software v.3.8.6.4 2017-10-02
Report Run at: December 17, 2017 15:58 EST
"Nutrient data for: 45093547, RONZONI, GLUTEN FREE, THIN SPAGHETTI, GLUTEN FREE PASTA, UPC: 071300040089"
Food Group:  Branded Food Products Database
Common Name:

Nutrient,Unit,Data points,Std. Error,"0.167 BOX | APPROXIMATELY = 56.0g",1Value per 100 g,
Proximates
"Energy",kcal,--,--,200,357
"Protein",g,--,--,4.00,7.14
"Total lipid (fat)",g,--,--,1.50,2.68
"Carbohydrate, by difference",g,--,--,44.00,78.57
"Fiber, total dietary",g,--,--,2.0,3.6
"Sugars, total",g,--,--,0.00,0.00
Minerals
"Calcium, Ca",mg,--,--,0,0
"Iron, Fe",mg,--,--,0.90,1.61
"Sodium, Na",mg,--,--,0,0
Vitamins
"Vitamin C, total ascorbic acid",mg,--,--,0.0,0.0
"Vitamin A, IU",IU,--,--,0,0
Lipids
"Fatty acids, total saturated",g,--,--,0.000,0.000
"Fatty acids, total monounsaturated",g,--,--,0.498,0.890
"Fatty acids, total polyunsaturated",g,--,--,0.498,0.890
"Fatty acids, total trans",g,--,--,0.000,0.000
"Cholesterol",mg,--,--,0,0
Amino Acids
Other
Ingredients
"WHITE RICE FLOUR, BROWN RICE FLOUR, CORN FLOUR, QUINOA FLOUR, MONO AND DIGLYCERIDES." Date available: 07/14/2017 Date last updated by company: 07/14/2017
