Source: USDA Branded Food Products Database Release December 2017 Software v.3.8.6.4 2017-10-02
Report Run at: December 17, 2017 16:01 EST
"Nutrient data for: 45266128, ROOT BEER, UPC: 0421144"
Food Group:  Branded Food Products Database
Common Name:

Nutrient,Unit,Data points,Std. Error,"1 BOTTLE = 12.0g",1Value per 100 g,
Proximates
"Energy",kcal,--,--,6,47
"Protein",g,--,--,0.00,0.00
"Total lipid (fat)",g,--,--,0.00,0.00
"Carbohydrate, by difference",g,--,--,1.40,11.67
"Sugars, total",g,--,--,1.40,11.67
Minerals
"Sodium, Na",mg,--,--,1,10
Vitamins
Lipids
Amino Acids
Other
Ingredients
"CARBONATED WATER, SUGAR, HONEY, ROOT BEER EXTRACT #214, ROOT BEER EXTRACT # 79-400, CITRIC ACID, SODIUM BENZOATE-A PRESERVATIVE, YUCCA, VANILLA." Date available: 07/14/2017 Date last updated by company: 07/14/2017
