Source: USDA Branded Food Products Database Release December 2017 Software v.3.8.6.4 2017-10-02
Report Run at: December 17, 2017 16:01 EST
"Nutrient data for: 45236591, ROOT BEER, UPC: 078742018300"
Food Group:  Branded Food Products Database
Common Name:

Nutrient,Unit,Data points,Std. Error,"1 CAN = 355.0g",1Value per 100 g,
Proximates
"Energy",kcal,--,--,181,51
"Protein",g,--,--,0.00,0.00
"Total lipid (fat)",g,--,--,0.00,0.00
"Carbohydrate, by difference",g,--,--,48.99,13.80
"Sugars, total",g,--,--,48.99,13.80
Minerals
"Sodium, Na",mg,--,--,46,13
Vitamins
Lipids
Amino Acids
Other
Ingredients
"CARBONATED WATER, HIGH FRUCTOSE CORN SYRUP, CARAMEL COLOR, POTASSIUM BENZOATE (A PRESERVATIVE), NATURAL AND ARTIFICIAL FLAVOR." Date available: 06/25/2017 Date last updated by company: 06/25/2017
