Source: USDA Branded Food Products Database Release December 2017 Software v.3.8.6.4 2017-10-02
Report Run at: December 17, 2017 16:01 EST
"Nutrient data for: 45154542, ROOT BEER, UPC: 011110884787"
Food Group:  Branded Food Products Database
Common Name:

Nutrient,Unit,Data points,Std. Error,"1 CAN = 354.0g",1Value per 100 g,
Proximates
"Energy",kcal,--,--,191,54
"Protein",g,--,--,0.00,0.00
"Total lipid (fat)",g,--,--,0.00,0.00
"Carbohydrate, by difference",g,--,--,47.01,13.28
"Sugars, total",g,--,--,45.98,12.99
Minerals
"Sodium, Na",mg,--,--,35,10
Vitamins
Lipids
Amino Acids
Other
Ingredients
"CARBONATED WATER, SUGAR, CARAMEL COLOR, POTASSIUM BENZOATE (PRESERVATIVE), CITRIC ACID, NATURAL AND ARTIFICIAL FLAVOR." Date available: 07/14/2017 Date last updated by company: 07/14/2017
