Source: USDA Branded Food Products Database Release December 2017 Software v.3.8.6.4 2017-10-02
Report Run at: December 17, 2017 16:01 EST
"Nutrient data for: 45236892, ROOT BEER, UPC: 071537020137"
Food Group:  Branded Food Products Database
Common Name:

Nutrient,Unit,Data points,Std. Error,"8.0 OZA = 240.0g",1Value per 100 g,
Proximates
"Energy",kcal,--,--,110,46
"Protein",g,--,--,0.00,0.00
"Total lipid (fat)",g,--,--,0.00,0.00
"Carbohydrate, by difference",g,--,--,28.01,11.67
"Sugars, total",g,--,--,28.01,11.67
Minerals
"Sodium, Na",mg,--,--,0,0
Vitamins
Lipids
Amino Acids
Other
Ingredients
"CONTAINS CARBONATED WATER, HIGH FRUCTOSE CORN SYRUP, CARAMEL COLOR, NATURAL AND ARTIFICIAL FLAVORS." Date available: 06/25/2017 Date last updated by company: 06/25/2017
