Source: USDA Branded Food Products Database Release December 2017 Software v.3.8.6.4 2017-10-02
Report Run at: December 17, 2017 16:04 EST
"Nutrient data for: 45312358, ROSCA DE REYES, UPC: 896911001898"
Food Group:  Branded Food Products Database
Common Name:

Nutrient,Unit,Data points,Std. Error,"2.0 ONZ = 57.0g",1Value per 100 g,
Proximates
"Energy",kcal,--,--,180,316
"Protein",g,--,--,4.00,7.02
"Total lipid (fat)",g,--,--,6.00,10.53
"Carbohydrate, by difference",g,--,--,30.00,52.63
"Fiber, total dietary",g,--,--,1.0,1.8
"Sugars, total",g,--,--,9.00,15.79
Minerals
"Calcium, Ca",mg,--,--,0,0
"Iron, Fe",mg,--,--,2.02,3.55
"Sodium, Na",mg,--,--,125,219
Vitamins
"Vitamin C, total ascorbic acid",mg,--,--,8.4,14.8
"Vitamin A, IU",IU,--,--,0,0
Lipids
"Fatty acids, total saturated",g,--,--,0.998,1.750
"Fatty acids, total trans",g,--,--,0.502,0.880
"Cholesterol",mg,--,--,0,0
Amino Acids
Other
Ingredients
"ENRICHED WHEAT FLOUR (MALTED BARLEY FLOUR, NIACIN, IRON, THIAMINE MONONITRATE, RIBOFLAVIN, FOLIC ACID.), OIL, VEGETABLE, INDUSTRIAL, SOY (PARTIAALY HYDROGENATED, GRANULATED SUGAR, WATER, EGGS, VEGETABLE SHORTENING (PARTIALLY HYDROGENATED SOYBEAN AND COTTONSEED OILS.). POWDERED SUGAR, CRUSHED CINNAMON, QUINCE, MANGO, APPLE, AND PEACH PASTES, YELLOW 5 AND 6, SODIUM BENZOATE, SALT, ARTIFICIAL BUTTER FLAVOR, CALCIUM PROPIONATE, YEAST, CORN SYRUP." Date available: 10/10/2017 Date last updated by company: 10/10/2017
