Source: USDA Branded Food Products Database Release December 2017 Software v.3.8.6.4 2017-10-02
Report Run at: December 17, 2017 16:06 EST
"Nutrient data for: 45274558, ROSEMARY OLIVE OIL, UPC: 085239430194"
Food Group:  Branded Food Products Database
Common Name:

Nutrient,Unit,Data points,Std. Error,"1 -0.75 INCH SLICE = 57.0g",1Value per 100 g,
Proximates
"Energy",kcal,--,--,160,281
"Protein",g,--,--,5.00,8.77
"Total lipid (fat)",g,--,--,2.50,4.39
"Carbohydrate, by difference",g,--,--,29.00,50.88
"Fiber, total dietary",g,--,--,1.0,1.8
"Sugars, total",g,--,--,0.00,0.00
Minerals
"Calcium, Ca",mg,--,--,0,0
"Iron, Fe",mg,--,--,1.58,2.77
"Sodium, Na",mg,--,--,310,544
Vitamins
"Vitamin C, total ascorbic acid",mg,--,--,0.0,0.0
"Vitamin A, IU",IU,--,--,0,0
Lipids
"Fatty acids, total saturated",g,--,--,0.000,0.000
"Fatty acids, total trans",g,--,--,0.000,0.000
"Cholesterol",mg,--,--,0,0
Amino Acids
Other
Ingredients
"UNBLEACHED BREAD FLOUR (WHEAT FLOUR, MALTED BARLEY FLOUR, NIACIN, IRON, THIAMIN MONONITRATE, RIBOFLAVIN, FOLIC ACID), WATER, OLIVE OIL, CONTAINS 2% OR LESS OF: SALT, ROSEMARY, WHEAT FLOUR, ASCORBIC ACID ADDED AS DOUGH CONDITIONER, ENZYMES, YEAST, MALT (MALTED BARLEY, WHEAT FLOUR, DEXTROSE)." Date available: 07/14/2017 Date last updated by company: 07/14/2017
