Source: USDA Branded Food Products Database Release December 2017 Software v.3.8.6.4 2017-10-02
Report Run at: December 17, 2017 16:04 EST
"Nutrient data for: 45147183, ROSE HIP WITH HIBISCUS FLOWER TEA BAGS, UPC: 842826000006"
Food Group:  Branded Food Products Database
Common Name:

Nutrient,Unit,Data points,Std. Error,"1 cup = 240.0g",1Value per 100 g,
Proximates
"Energy",kcal,--,--,7,3
"Protein",g,--,--,0.00,0.00
"Total lipid (fat)",g,--,--,0.00,0.00
"Carbohydrate, by difference",g,--,--,1.90,0.79
"Sugars, total",g,--,--,0.00,0.00
Minerals
"Potassium, K",mg,--,--,38,16
"Sodium, Na",mg,--,--,0,0
Vitamins
"Vitamin C, total ascorbic acid",mg,--,--,6.0,2.5
Lipids
Amino Acids
Other
Ingredients
"ROSE HIP BERRIES 75% HIBISCUS FLOWER 25%." Date available: 07/14/2017 Date last updated by company: 07/14/2017
