Source: USDA Branded Food Products Database Release December 2017 Software v.3.8.6.4 2017-10-02
Report Run at: December 17, 2017 16:05 EST
"Nutrient data for: 45161993, ROSELYN RECIPE, RACE CAR SUGAR COOKIES, UPC: 856398001927"
Food Group:  Branded Food Products Database
Common Name:

Nutrient,Unit,Data points,Std. Error,"1 COOKIES = 35.0g",1Value per 100 g,
Proximates
"Energy",kcal,--,--,170,486
"Protein",g,--,--,2.00,5.71
"Total lipid (fat)",g,--,--,9.00,25.71
"Carbohydrate, by difference",g,--,--,20.00,57.14
"Fiber, total dietary",g,--,--,0.0,0.0
"Sugars, total",g,--,--,10.00,28.57
Minerals
"Calcium, Ca",mg,--,--,0,0
"Iron, Fe",mg,--,--,1.03,2.94
"Sodium, Na",mg,--,--,95,271
Vitamins
"Vitamin C, total ascorbic acid",mg,--,--,0.0,0.0
"Vitamin A, IU",IU,--,--,143,409
Lipids
"Fatty acids, total saturated",g,--,--,5.002,14.290
"Fatty acids, total trans",g,--,--,0.000,0.000
"Cholesterol",mg,--,--,15,43
Amino Acids
Other
Ingredients
"BLEACHED ENRICHED WHEAT FLOUR (WHEAT FLOUR, NIACIN, REDUCED IRON, THIAMINE MONONITRATE [VITAMINE B1], RIBOFLAVIN [VITAMINE B2], FOLIC ACID), SUGAR, SHORTENING (PALM OIL, CITRIC ACID), TOPPER (SUGAR, CORN SYRUP, CORN STARCH, COCOA POWDER (PROCESSED WITH ALKALI), NATURAL AND ARTIFICIAL, CARNAUBA WAX) 0, EGGS, BUTTER MARGARINE (PALM OIL AND SOYBEAN OIL WITH PROPYLENE GLYCOL MONOESTERS, MONO-AND DIGLYCERIDES, SOYBEAN LECITHIN), VANILLA, SALT, NONFAT MILK POWDER." Date available: 07/14/2017 Date last updated by company: 07/14/2017
