Source: USDA Branded Food Products Database Release December 2017 Software v.3.8.6.4 2017-10-02
Report Run at: December 17, 2017 16:05 EST
"Nutrient data for: 45182133, ROSEMARY & GELATIN, UPC: 035032380073"
Food Group:  Branded Food Products Database
Common Name:

Nutrient,Unit,Data points,Std. Error,"1 ONZ = 28.0g",1Value per 100 g,
Proximates
"Energy",kcal,--,--,90,321
"Protein",g,--,--,7.00,25.00
"Total lipid (fat)",g,--,--,7.00,25.00
"Carbohydrate, by difference",g,--,--,0.00,0.00
"Fiber, total dietary",g,--,--,0.0,0.0
"Sugars, total",g,--,--,0.00,0.00
Minerals
"Calcium, Ca",mg,--,--,0,0
"Iron, Fe",mg,--,--,0.71,2.53
"Sodium, Na",mg,--,--,490,1750
Vitamins
"Vitamin C, total ascorbic acid",mg,--,--,0.0,0.0
"Vitamin A, IU",IU,--,--,0,0
Lipids
"Fatty acids, total saturated",g,--,--,1.999,7.140
"Fatty acids, total trans",g,--,--,0.000,0.000
"Cholesterol",mg,--,--,20,71
Amino Acids
Other
Ingredients
"PORK, SALT, SPICES, DEXTROSE, SUGAR, LACTIC ACID STARTER CULTURE, POTASSIUM NITRATE, GARLIC, SODIUM NITRITE, COLLAGEN CASING." Date available: 07/14/2017 Date last updated by company: 07/14/2017
