Source: USDA Branded Food Products Database Release December 2017 Software v.3.8.6.4 2017-10-02
Report Run at: December 17, 2017 16:13 EST
"Nutrient data for: 45269290, ROTISSERIE SHREDDED CHICKEN BREAST MEAT WITH SEASONING, UPC: 854127002320"
Food Group:  Branded Food Products Database
Common Name:

Nutrient,Unit,Data points,Std. Error,"3.0 ONZ = 85.0g",1Value per 100 g,
Proximates
"Energy",kcal,--,--,120,141
"Protein",g,--,--,24.00,28.24
"Total lipid (fat)",g,--,--,2.50,2.94
"Carbohydrate, by difference",g,--,--,0.00,0.00
"Fiber, total dietary",g,--,--,0.0,0.0
"Sugars, total",g,--,--,0.00,0.00
Minerals
"Calcium, Ca",mg,--,--,0,0
"Iron, Fe",mg,--,--,0.36,0.42
"Sodium, Na",mg,--,--,370,435
Vitamins
"Vitamin C, total ascorbic acid",mg,--,--,0.0,0.0
"Vitamin A, IU",IU,--,--,0,0
Lipids
"Fatty acids, total saturated",g,--,--,0.501,0.590
"Fatty acids, total trans",g,--,--,0.000,0.000
"Cholesterol",mg,--,--,55,65
Amino Acids
Other
Ingredients
"CHICKEN BREAST MARINATED WITH: WATER, SALT, YEAST EXTRACT, NATURAL FLAVOR, CHICKEN FAT & CHICKEN BROTH. SEASONED WITH: YELLOW CORN FLOUR, SALT, SPICES, CORN FLOUR, PAPRIKA (FOR COLOR), GARLIC, SUGAR, CITRIC ACID, ONION, PAPRIKA OLEORESIN (FOR COLOR) & NATURAL FLAVORS" Date available: 07/14/2017 Date last updated by company: 07/14/2017
