Source: USDA Branded Food Products Database Release December 2017 Software v.3.8.6.4 2017-10-02
Report Run at: December 17, 2017 16:11 EST
"Nutrient data for: 45325031, ROTISSERIE CHICKEN BREAST SALAD, UPC: 085239402108"
Food Group:  Branded Food Products Database
Common Name:

Nutrient,Unit,Data points,Std. Error,"0.333 cup = 97.0g",1Value per 100 g,
Proximates
"Energy",kcal,--,--,240,247
"Protein",g,--,--,17.00,17.53
"Total lipid (fat)",g,--,--,16.00,16.49
"Carbohydrate, by difference",g,--,--,5.00,5.15
"Fiber, total dietary",g,--,--,0.0,0.0
"Sugars, total",g,--,--,2.00,2.06
Minerals
"Calcium, Ca",mg,--,--,20,21
"Iron, Fe",mg,--,--,1.04,1.07
"Sodium, Na",mg,--,--,760,784
Vitamins
"Vitamin C, total ascorbic acid",mg,--,--,1.7,1.8
"Vitamin A, IU",IU,--,--,145,149
Lipids
"Fatty acids, total saturated",g,--,--,2.997,3.090
"Fatty acids, total trans",g,--,--,0.000,0.000
"Cholesterol",mg,--,--,55,57
Amino Acids
Other
Ingredients
"FULLY COOKED CHICKEN (SKINLESS BONELESS CHICKEN BREAST [WITH RIB MEAT], CHICKEN BROTH, SALT, MODIFIED CORN STARCH, SEASONING [POTASSIUM CITRATE, CITRIC ACID, SODIUM DIACETATE, VEGETABLE OIL], SODIUM PHOSPHATES, CARRAGEENAN, NATURAL FLAVOR), DRESSING (SOYBEAN OIL, CORN SYRUP, VINEGAR, WATER, EGG YOLKS, MODIFIED CORN STARCH, SALT, ONION POWDER, NATURAL FLAVOR, WHOLE EGGS, SUGAR, DEXTROSE, MUSTARD FLOUR, LEMON JUICE CONCENTRATE, GARLIC POWDER, POTASSIUM SORBATE, SODIUM BENZOATE AND CALCIUM DISODIUM EDTA [PRESERVATIVES]), CELERY, ONION, RED PEPPERS, SODIUM LACTATE, SODIUM DIACETATE, FLAVORING (SALT, MOLASSES [SYRUP, CANE MILL MOLASSES, CANE CARAMEL COLOR], SPICES, GRANULATED ONION, DRIED PORK STOCK [PORK STOCK, SALT], SMOKED HICKORY SALT [SALT, NATURAL HICKORY SMOKE FLAVOR, SILICON DIOXIDE], PAPRIKA [COLOR], SILICON DIOXIDE [ANTI CAKING]), MODIFIED CORN STARCH, SALT, WHITE PEPPER." Date available: 08/23/2017 Date last updated by company: 08/23/2017
