Source: USDA Branded Food Products Database Release December 2017 Software v.3.8.6.4 2017-10-02
Report Run at: December 17, 2017 16:10 EST
"Nutrient data for: 45058124, ROTINI PASTA, UPC: 767387034201"
Food Group:  Branded Food Products Database
Common Name:

Nutrient,Unit,Data points,Std. Error,"2.0 ONZ = 56.0g",1Value per 100 g,
Proximates
"Energy",kcal,--,--,190,339
"Protein",g,--,--,7.00,12.50
"Total lipid (fat)",g,--,--,1.00,1.79
"Carbohydrate, by difference",g,--,--,41.00,73.21
"Fiber, total dietary",g,--,--,5.0,8.9
"Sugars, total",g,--,--,1.00,1.79
Minerals
"Calcium, Ca",mg,--,--,0,0
"Iron, Fe",mg,--,--,4.50,8.04
"Phosphorus, P",mg,--,--,200,357
"Sodium, Na",mg,--,--,10,18
"Zinc, Zn",mg,--,--,0.60,1.07
"Copper, Cu",mg,--,--,0.120,0.214
Vitamins
"Vitamin C, total ascorbic acid",mg,--,--,0.0,0.0
"Thiamin",mg,--,--,0.560,1.000
"Riboflavin",mg,--,--,0.255,0.455
"Niacin",mg,--,--,3.928,7.014
"Pantothenic acid",mg,--,--,0.200,0.357
"Vitamin B-6",mg,--,--,0.118,0.210
"Vitamin A, IU",IU,--,--,0,0
Lipids
"Fatty acids, total saturated",g,--,--,0.000,0.000
"Fatty acids, total monounsaturated",g,--,--,0.101,0.180
"Fatty acids, total polyunsaturated",g,--,--,0.302,0.540
"Fatty acids, total trans",g,--,--,0.000,0.000
"Cholesterol",mg,--,--,0,0
Amino Acids
Other
Ingredients
"ENRICHED SEMOLINA, [SEMOLINA, IRON (FERROUS SULFATE), AND B VITAMINS (NIACIN, THIAMIN MONONITRATE, RIBOFLAVIN, FOLIC ACID)], INULIN (VEGETABLE FIBER), WHEAT GLUTEN (PLANT PROTEIN), XANTHAN GUM (FOOD FIBER), PECTIN (FRUIT FIBER), POTASSIUM CHLORIDE." Date available: 07/14/2017 Date last updated by company: 07/14/2017
