Source: USDA Branded Food Products Database Release December 2017 Software v.3.8.6.4 2017-10-02
Report Run at: December 17, 2017 16:10 EST
"Nutrient data for: 45270874, ROTINI PASTA SALAD, UPC: 718129010502"
Food Group:  Branded Food Products Database
Common Name:

Nutrient,Unit,Data points,Std. Error,"0.5 cup = 140.0g",1Value per 100 g,
Proximates
"Energy",kcal,--,--,300,214
"Protein",g,--,--,5.00,3.57
"Total lipid (fat)",g,--,--,19.00,13.57
"Carbohydrate, by difference",g,--,--,26.00,18.57
"Fiber, total dietary",g,--,--,2.0,1.4
"Sugars, total",g,--,--,0.99,0.71
Minerals
"Calcium, Ca",mg,--,--,20,14
"Iron, Fe",mg,--,--,1.08,0.77
"Sodium, Na",mg,--,--,410,293
Vitamins
"Vitamin C, total ascorbic acid",mg,--,--,9.0,6.4
"Vitamin A, IU",IU,--,--,1000,714
Lipids
"Fatty acids, total saturated",g,--,--,1.498,1.070
"Fatty acids, total trans",g,--,--,0.000,0.000
"Cholesterol",mg,--,--,0,0
Amino Acids
Other
Ingredients
"COOKED ENRICHED ROTINI (DURUM WHEAT SEMOLINA, FERROUS SULFATE (IRON), NIACIN, THIAMINE MONONITRATE, RIBOFLAVIN, FOLIC ACID), CANOLA OIL, WATER, RED BELL PEPPER, BLACK OLIVES (RIPE OLIVES, WATER, SALT, FERROUS GLUCONATE (TO STABILIZE COLOR]), CARROTS, DISTILLED VINEGAR, ONION, GREEN BELL PEPPER, GARLIC (GARLIC WATER), SALT, YEAST EXTRACT (YEAST EXTRACT, SALT), SODIUM BENZOATE AND POTASSIUM SORBATE ADDED TO PROTECT FLAVOR, CORNSTARCH, SUGAR, DEHYDRATED GARLIC, SPICE, CITRIC ACID." Date available: 07/14/2017 Date last updated by company: 07/14/2017
