Source: USDA Branded Food Products Database Release December 2017 Software v.3.8.6.4 2017-10-02
Report Run at: December 17, 2017 16:27 EST
"Nutrient data for: 45232454, ROUNDY'S, JUICE COCKTAIL CONCENTRATE, GRAPE, UPC: 011150541084"
Food Group:  Branded Food Products Database
Common Name:

Nutrient,Unit,Data points,Std. Error,"8.0 FL OZ PREPARED | CONCENTRATE MAKES = 60.0g",1Value per 100 g,
Proximates
"Energy",kcal,--,--,150,250
"Protein",g,--,--,0.00,0.00
"Total lipid (fat)",g,--,--,0.00,0.00
"Carbohydrate, by difference",g,--,--,37.00,61.67
"Sugars, total",g,--,--,36.00,60.00
Minerals
"Sodium, Na",mg,--,--,20,33
Vitamins
"Vitamin C, total ascorbic acid",mg,--,--,60.0,100.0
Lipids
"Cholesterol",mg,--,--,0,0
Amino Acids
Other
Ingredients
"SWEETENERS (HIGH FRUCTOSE CORN SYRUP, SUGAR) WATER, GRAPE JUICE CONCENTRATE, NATURAL FLAVORS, CITRIC ACID, ASCORBIC ACID (VITAMIN C), RED 40, BLUE 1." Date available: 06/25/2017 Date last updated by company: 06/25/2017
