Source: USDA Branded Food Products Database Release December 2017 Software v.3.8.6.4 2017-10-02
Report Run at: December 17, 2017 16:16 EST
"Nutrient data for: 45021158, ROUNDY'S, BLACK BEAN DIP, MEDIUM, UPC: 011150092937"
Food Group:  Branded Food Products Database
Common Name:

Nutrient,Unit,Data points,Std. Error,"2.0 Tbsp = 32.0g",1Value per 100 g,
Proximates
"Energy",kcal,--,--,20,62
"Protein",g,--,--,2.00,6.25
"Total lipid (fat)",g,--,--,0.00,0.00
"Carbohydrate, by difference",g,--,--,5.00,15.62
"Fiber, total dietary",g,--,--,3.0,9.4
"Sugars, total",g,--,--,1.00,3.12
Minerals
"Calcium, Ca",mg,--,--,20,62
"Iron, Fe",mg,--,--,1.13,3.52
"Sodium, Na",mg,--,--,260,812
Vitamins
"Vitamin C, total ascorbic acid",mg,--,--,0.0,0.0
"Vitamin A, IU",IU,--,--,156,488
Lipids
"Fatty acids, total saturated",g,--,--,0.000,0.000
"Fatty acids, total trans",g,--,--,0.000,0.000
"Cholesterol",mg,--,--,0,0
Amino Acids
Other
Ingredients
"TOMATO PUREE (WATER, TOMATO PASTE, CITRIC ACID), BLACK BEANS, JALAPENO PEPPERS, RED BELL PEPPERS, SALT, SUGAR, LIME JUICE CONCENTRATE, VINEGAR, SPICES, CHIPOTLE POWDER, ONION POWDER, DRIED GARLIC." Date available: 06/25/2017 Date last updated by company: 06/25/2017
