Source: USDA Branded Food Products Database Release December 2017 Software v.3.8.6.4 2017-10-02
Report Run at: December 17, 2017 16:24 EST
"Nutrient data for: 45171627, ROUNDY'S, GREEN-N-GOLD COOKIE DOUGH, SUGAR, UPC: 011150528290"
Food Group:  Branded Food Products Database
Common Name:

Nutrient,Unit,Data points,Std. Error,"2.0 COOKIES = 38.0g",1Value per 100 g,
Proximates
"Energy",kcal,--,--,160,421
"Protein",g,--,--,2.00,5.26
"Total lipid (fat)",g,--,--,7.00,18.42
"Carbohydrate, by difference",g,--,--,22.00,57.89
"Fiber, total dietary",g,--,--,0.0,0.0
"Sugars, total",g,--,--,11.00,28.95
Minerals
"Calcium, Ca",mg,--,--,0,0
"Iron, Fe",mg,--,--,0.76,1.99
"Sodium, Na",mg,--,--,150,395
Vitamins
"Vitamin C, total ascorbic acid",mg,--,--,0.0,0.0
"Vitamin A, IU",IU,--,--,316,832
Lipids
"Fatty acids, total saturated",g,--,--,2.500,6.580
"Fatty acids, total trans",g,--,--,0.000,0.000
"Cholesterol",mg,--,--,0,0
Amino Acids
Other
Ingredients
"ENRICHED WHEAT FLOUR (FLOUR, ASCORBIC ACID [DOUGH CONDITIONER], NIACIN, REDUCED IRON, THIAMINE MONONITRATE, RIBOFLAVIN, FOLIC ACID), SUGAR, VEGETABLE OIL MARGARINE (PALM AND PALM KERNEL OIL, LIQUID CANOLA OIL, WATER, SALT, WHEY POWDER, VEGETABLE MONOGLYCERIDES, SOY LECITHIN, POTASSIUM SORBATE [PRESERVATIVE], CITRIC ACID, ARTIFICIAL FLAVOR, VITAMIN A PALMITATE, COLORED WITH BETA CAROTENE, VITAMIN D3, VITAMIN E), WATER, FOOTBALL HELMET SHAPES (ICING SUGAR, MODIFIED CORN STARCH, PALM KERNEL OIL, FLAVOR, SOY LECITHIN, COLOR [YELLOW #5, BLUE #1], GUM ARABIC, POLYSORBATE 60), EGGS, CORN SYRUP, LEAVENING (BAKING SODA, SODIUM ALUMINUM PHOSPHATE), NATURAL AND ARTIFICIAL FLAVOR, SALT." Date available: 07/14/2017 Date last updated by company: 07/14/2017
