Source: USDA Branded Food Products Database Release December 2017 Software v.3.8.6.4 2017-10-02
Report Run at: December 17, 2017 16:18 EST
"Nutrient data for: 45016418, ROUNDY'S, CHUNKY, VEGETABLE SOUP, UPC: 011150094757"
Food Group:  Branded Food Products Database
Common Name:

Nutrient,Unit,Data points,Std. Error,"1 cup = 245.0g",1Value per 100 g,
Proximates
"Energy",kcal,--,--,120,49
"Protein",g,--,--,3.99,1.63
"Total lipid (fat)",g,--,--,0.00,0.00
"Carbohydrate, by difference",g,--,--,24.99,10.20
"Fiber, total dietary",g,--,--,2.9,1.2
"Sugars, total",g,--,--,7.01,2.86
Minerals
"Calcium, Ca",mg,--,--,59,24
"Iron, Fe",mg,--,--,0.71,0.29
"Potassium, K",mg,--,--,549,224
"Sodium, Na",mg,--,--,431,176
Vitamins
"Vitamin C, total ascorbic acid",mg,--,--,0.0,0.0
"Vitamin A, IU",IU,--,--,5000,2041
Lipids
"Fatty acids, total saturated",g,--,--,0.000,0.000
"Fatty acids, total monounsaturated",g,--,--,0.000,0.000
"Fatty acids, total polyunsaturated",g,--,--,0.000,0.000
"Fatty acids, total trans",g,--,--,0.000,0.000
"Cholesterol",mg,--,--,0,0
Amino Acids
Other
Ingredients
"CHICKEN BROTH, CARROTS, POTATOES, CELERY, PEAS, DICED TOMATOES (TOMATOES, TOMATO JUICE, SALT, CITRIC ACID, CALCIUM CHLORIDE), GREEN BEANS, CORN, TOMATO PASTE, HIGH FRUCTOSE CORN SYRUP, CONTAINS LESS THAN 2% OF THE FOLLOWING INGREDIENTS: MODIFIED FOOD STARCH, ONIONS, FLAVORING (MINERALS [POTASSIUM CHLORIDE, MAGNESIUM CHLORIDE, MAGNESIUM SULFATE], YEAST EXTRACT, NATURAL FLAVOR), SALT, LOWER SODIUM NATURAL SEA SALT (SEA SALT, POTASSIUM CHLORIDE, MAGNESIUM SULFATE), HYDROLYZED SOY AND WHEAT GLUTEN PROTEINS, ONION POWDER, DEXTROSE, SPICE EXTRACT, GARLIC POWDER, DEHYDRATED PARSLEY, DISODIUM GUANYLATE, DISODIUM INOSINATE." Date available: 07/14/2017 Date last updated by company: 07/14/2017
