Source: USDA Branded Food Products Database Release December 2017 Software v.3.8.6.4 2017-10-02
Report Run at: December 17, 2017 16:32 EST
"Nutrient data for: 45144804, ROUNDY'S, PENNSYLVANIA DUTCH SOURDOUGH PRETZELS RANCH, UPC: 011150980944"
Food Group:  Branded Food Products Database
Common Name:

Nutrient,Unit,Data points,Std. Error,"8.0 PIECES | ABOUT = 30.0g",1Value per 100 g,
Proximates
"Energy",kcal,--,--,140,467
"Protein",g,--,--,3.00,10.00
"Total lipid (fat)",g,--,--,6.00,20.00
"Carbohydrate, by difference",g,--,--,19.00,63.33
"Fiber, total dietary",g,--,--,1.0,3.3
"Sugars, total",g,--,--,0.00,0.00
Minerals
"Calcium, Ca",mg,--,--,0,0
"Iron, Fe",mg,--,--,0.60,2.00
"Sodium, Na",mg,--,--,300,1000
Vitamins
"Vitamin C, total ascorbic acid",mg,--,--,0.0,0.0
"Vitamin A, IU",IU,--,--,0,0
Lipids
"Fatty acids, total saturated",g,--,--,0.000,0.000
"Fatty acids, total trans",g,--,--,0.000,0.000
"Cholesterol",mg,--,--,0,0
Amino Acids
Other
Ingredients
"INGREDIENTS: PRETZELS (WHEAT FLOUR, VEGETABLE FIBER, SALT, CORN OIL, MALT, HONEY, YEAST, SODA), CANOLA OIL RANCH SEASONING [MALTODEXTRIN, SALT, WHEY, MONOSODIUM GLUTAMATE, BUTTERMILK, GARLIC, LACTIC ACID, ONION, NONFAT DRY MILK, CITRIC ACID, SPICES, PARSLEY, SOYBEAN OIL, MALIC ACID, ARTIFICIAL FLAVOR, GARLIC OIL, SILICON DIOXIDE (FLOW AGENT)], SEASONED SALT [SALT, SUGAR, SPICES (INCLUDING PAPRIKA AND TURMERIC), ONION, CORNSTARCH, GARLIC, TRICALCIUM PHOSPHATE (PREVENTS CAKING), PAPRIKA OLEORESIN (COLOR), NATURAL FLAVOR, SOY LECITHIN], GARLIC POWDER." Date available: 07/14/2017 Date last updated by company: 07/14/2017
