Source: USDA Branded Food Products Database Release December 2017 Software v.3.8.6.4 2017-10-02
Report Run at: December 17, 2017 16:40 EST
"Nutrient data for: 45242714, ROUNDY'S SELECT, TRUE MAPLE SYRUP, UPC: 011150275354"
Food Group:  Branded Food Products Database
Common Name:

Nutrient,Unit,Data points,Std. Error,"2.0 ONZ = 60.0g",1Value per 100 g,
Proximates
"Energy",kcal,--,--,200,333
"Protein",g,--,--,0.00,0.00
"Total lipid (fat)",g,--,--,0.00,0.00
"Carbohydrate, by difference",g,--,--,53.00,88.33
"Fiber, total dietary",g,--,--,0.0,0.0
"Sugars, total",g,--,--,53.00,88.33
Minerals
"Calcium, Ca",mg,--,--,80,133
"Iron, Fe",mg,--,--,1.20,2.00
"Sodium, Na",mg,--,--,7,12
Vitamins
"Vitamin C, total ascorbic acid",mg,--,--,0.0,0.0
"Vitamin A, IU",IU,--,--,0,0
Lipids
"Fatty acids, total saturated",g,--,--,0.000,0.000
"Fatty acids, total trans",g,--,--,0.000,0.000
"Cholesterol",mg,--,--,0,0
Amino Acids
Other
Ingredients
"PURE MAPLE SYRUP." Date available: 06/24/2017 Date last updated by company: 06/24/2017
