Source: USDA Branded Food Products Database Release December 2017 Software v.3.8.6.4 2017-10-02
Report Run at: December 17, 2017 16:34 EST
"Nutrient data for: 45144794, ROUNDY'S, PURE MILK CHOCOLATE CRANBERRY, UPC: 011150950206"
Food Group:  Branded Food Products Database
Common Name:

Nutrient,Unit,Data points,Std. Error,"16.0 PCS = 40.0g",1Value per 100 g,
Proximates
"Energy",kcal,--,--,180,450
"Total lipid (fat)",g,--,--,7.00,17.50
"Carbohydrate, by difference",g,--,--,29.00,72.50
"Fiber, total dietary",g,--,--,2.0,5.0
"Sugars, total",g,--,--,23.00,57.50
Minerals
"Calcium, Ca",mg,--,--,40,100
"Iron, Fe",mg,--,--,0.36,0.90
"Sodium, Na",mg,--,--,15,38
Vitamins
"Vitamin C, total ascorbic acid",mg,--,--,0.0,0.0
"Vitamin A, IU",IU,--,--,0,0
Lipids
"Fatty acids, total saturated",g,--,--,4.500,11.250
"Fatty acids, total trans",g,--,--,0.000,0.000
"Cholesterol",mg,--,--,5,12
Amino Acids
Other
Ingredients
"MIX CHOCOLATE (SUGAR, COCOA BUTTER,CHOCOLATE LIQUOR, MILK, LACTOSE, SOY LECITHIN [EMULSIFIER], SALT, VANILLA), DRIED CRANBERRIES (CRANBERRIES, SUGAR, SUNFLOWER OIL), GLAZE (GUM ARABIC, SUCROSE, CORN SYRUP, MODIFIED STARCH, COCONUT OIL, CITRIC ACID, SORBIC ACID, WATER), CONFECTIONERS GLAZE." Date available: 10/13/2017 Date last updated by company: 10/13/2017
