Source: USDA Branded Food Products Database Release December 2017 Software v.3.8.6.4 2017-10-02
Report Run at: December 17, 2017 16:14 EST
"Nutrient data for: 45002449, ROUND TOP WHITE ENRICHED BREAD, UPC: 011110001207"
Food Group:  Branded Food Products Database
Common Name:

Nutrient,Unit,Data points,Std. Error,"1 SLICE = 26.0g",1Value per 100 g,
Proximates
"Energy",kcal,--,--,70,269
"Protein",g,--,--,2.00,7.69
"Total lipid (fat)",g,--,--,1.00,3.85
"Carbohydrate, by difference",g,--,--,14.00,53.85
"Fiber, total dietary",g,--,--,0.0,0.0
"Sugars, total",g,--,--,2.00,7.69
Minerals
"Calcium, Ca",mg,--,--,0,0
"Iron, Fe",mg,--,--,1.38,5.32
"Sodium, Na",mg,--,--,140,538
Vitamins
"Vitamin C, total ascorbic acid",mg,--,--,0.0,0.0
"Thiamin",mg,--,--,0.260,1.000
"Riboflavin",mg,--,--,0.068,0.262
"Niacin",mg,--,--,1.538,5.915
"Vitamin A, IU",IU,--,--,0,0
Lipids
"Fatty acids, total saturated",g,--,--,0.000,0.000
"Fatty acids, total monounsaturated",g,--,--,0.000,0.000
"Fatty acids, total polyunsaturated",g,--,--,0.000,0.000
"Fatty acids, total trans",g,--,--,0.000,0.000
"Cholesterol",mg,--,--,0,0
Amino Acids
Other
Ingredients
"UNBLEACHED ENRICHED FLOUR (WHEAT FLOUR, MALTED BARLEY FLOUR, NIACIN, REDUCED IRON, THIAMINE MONONITRATE, RIBOFLAVIN, FOLIC ACID), WATER, HIGH FRUCTOSE CORN SYRUP, CONTAINS 2% OR LESS OF: YEAST, SALT, SOYBEAN OIL, WHEAT GLUTEN, DOUGH CONDITIONERS (SODIUM STEAROYL LACTYLATE, CALCIUM STEAROYL LACTYLATE, MONOGLYCERIDES AND/OR DIGLYCERIDES, CALCIUM PEROXIDE, CALCIUM IODATE, DATEM, ETHOXYLATED MONO-AND DIGLYCERIDES, AZODICARBONAMIDE AND/OR ENZYMES), SOY FLOUR, YEAST FOOD (AMMONIUM SULFATE), MONOCALCIUM PHOSPHATE, CALCIUM SULFATE, SOY LECITHIN, CALCIUM PROPIONATE (TO RETARD SPOILAGE)." Date available: 06/25/2017 Date last updated by company: 06/25/2017
