Source: USDA Branded Food Products Database Release December 2017 Software v.3.8.6.4 2017-10-02
Report Run at: December 17, 2017 16:26 EST
"Nutrient data for: 45019135, ROUNDY'S, ITALIAN CLASSICS PLAIN BREAD CRUMBS, UPC: 011150110006"
Food Group:  Branded Food Products Database
Common Name:

Nutrient,Unit,Data points,Std. Error,"0.25 cup = 31.0g",1Value per 100 g,
Proximates
"Energy",kcal,--,--,120,387
"Protein",g,--,--,4.00,12.90
"Total lipid (fat)",g,--,--,1.50,4.84
"Carbohydrate, by difference",g,--,--,22.00,70.97
"Fiber, total dietary",g,--,--,1.0,3.2
"Sugars, total",g,--,--,2.00,6.45
Minerals
"Calcium, Ca",mg,--,--,40,129
"Iron, Fe",mg,--,--,2.32,7.49
"Sodium, Na",mg,--,--,250,806
Vitamins
"Vitamin C, total ascorbic acid",mg,--,--,0.0,0.0
"Thiamin",mg,--,--,0.310,1.000
"Riboflavin",mg,--,--,0.255,0.823
"Niacin",mg,--,--,2.580,8.323
"Vitamin A, IU",IU,--,--,0,0
Lipids
"Fatty acids, total saturated",g,--,--,0.000,0.000
"Fatty acids, total trans",g,--,--,0.000,0.000
"Cholesterol",mg,--,--,0,0
Amino Acids
Other
Ingredients
"ENRICHED BREAD (ENRICHED WHEAT FLOUR, MALTED BARLEY, NIACIN, FERROUS SULFATE, THIAMINE MONONITRTE, RIBOFLAVIN, FOLIC ACID, WATER, HIGH FRUCTOSE CORN SYRUP, CORN SYRUP, PARTIALLY HYDROGENATED VEGETABLE OIL [SOYBEAN AND/OR COTTONSEED OIL AND/OR CANOLA AND CORN OILS]). MAY CONTAIN SALT, YEAST, SUGAR, HONEY, SESAME AND/OR POPPY SEEDS, MOLASSES, WHEAT GLUTEN, WHEY, SOY FLOUR, WHOLE WHEAT FLOUR, RYE FLOUR, OAT BRAN, CORN FLOUR, CORN MEAL, RICE FLOUR, POTATO FLOUR, BUTTER, SKIM MILK, BUTTERMILK, LACTIC ACID, DISTILLED VINEGAR, SOY LECITHIN; DOUGH CONDITIONERS (MONO- AND DIGLYCERIDES, SODIUM AND/OR CALCIUM STEAROYL LACTYLATE), YEAST NUTRIENTS (CONTAINS ONE OR MORE OF THE FOLLOWING: MONOCALCIUM PHOSPHATE, CALCIUM SULFATE, AMMONIUM SULFATE); CALCIUM PROPIONATE (PRESERVATIVE), POTASSIUM SORBATE (PRESERVATIVE)." Date available: 06/25/2017 Date last updated by company: 06/25/2017
