Source: USDA Branded Food Products Database Release December 2017 Software v.3.8.6.4 2017-10-02
Report Run at: December 17, 2017 16:33 EST
"Nutrient data for: 45014692, ROUNDY'S, POTATO CHIPS, UPC: 011150224864"
Food Group:  Branded Food Products Database
Common Name:

Nutrient,Unit,Data points,Std. Error,"1 ONZ = 28.0g",1Value per 100 g,
Proximates
"Energy",kcal,--,--,150,536
"Protein",g,--,--,2.00,7.14
"Total lipid (fat)",g,--,--,8.00,28.57
"Carbohydrate, by difference",g,--,--,16.00,57.14
"Fiber, total dietary",g,--,--,1.0,3.6
"Sugars, total",g,--,--,1.00,3.57
Minerals
"Calcium, Ca",mg,--,--,0,0
"Iron, Fe",mg,--,--,0.64,2.29
"Sodium, Na",mg,--,--,170,607
Vitamins
"Vitamin C, total ascorbic acid",mg,--,--,6.4,22.9
"Vitamin A, IU",IU,--,--,0,0
Lipids
"Fatty acids, total saturated",g,--,--,0.501,1.790
"Fatty acids, total trans",g,--,--,0.000,0.000
"Cholesterol",mg,--,--,0,0
Amino Acids
Other
Ingredients
"POTATOES, SUNFLOWER AND/OR CANOLA OIL, SUGAR, CORN MALTODEXTRIN, CONTAINS TWO PERCENT OR LESS OF: SALT, SODIUM DIACETATE, PAPRIKA, YEAST EXTRACT, ONION POWDER, DEXTROSE, MODIFIED CORNSTARCH, GARLIC POWDER, MALIC ACID, CITRIC ACID, VINEGAR SOLIDS, SPICE, EXTRACTIVES OF PAPRIKA (COLOR), NATURAL FLAVOR (CONTAINS NATURAL HICKORY SMOKE FLAVOR)." Date available: 07/14/2017 Date last updated by company: 07/14/2017
