Source: USDA Branded Food Products Database Release December 2017 Software v.3.8.6.4 2017-10-02
Report Run at: December 17, 2017 16:21 EST
"Nutrient data for: 45016422, ROUNDY'S, EXTRA NOODLE IN CHICKEN BROTH CONDENSED SOUP, UPC: 011150094924"
Food Group:  Branded Food Products Database
Common Name:

Nutrient,Unit,Data points,Std. Error,"0.5 cup = 125.0g",1Value per 100 g,
Proximates
"Energy",kcal,--,--,80,64
"Protein",g,--,--,3.00,2.40
"Total lipid (fat)",g,--,--,2.00,1.60
"Carbohydrate, by difference",g,--,--,13.00,10.40
"Fiber, total dietary",g,--,--,1.0,0.8
"Sugars, total",g,--,--,0.00,0.00
Minerals
"Calcium, Ca",mg,--,--,20,16
"Iron, Fe",mg,--,--,1.41,1.13
"Sodium, Na",mg,--,--,480,384
Vitamins
"Vitamin C, total ascorbic acid",mg,--,--,0.0,0.0
"Vitamin A, IU",IU,--,--,980,784
Lipids
"Fatty acids, total saturated",g,--,--,0.500,0.400
"Fatty acids, total monounsaturated",g,--,--,1.000,0.800
"Fatty acids, total polyunsaturated",g,--,--,0.500,0.400
"Fatty acids, total trans",g,--,--,0.000,0.000
"Cholesterol",mg,--,--,10,8
Amino Acids
Other
Ingredients
"CHICKEN STOCK, ENRICHED EGG NOODLES (WHEAT FLOUR, EGGS, EGG WHITES, NIACIN, FERROUS SULFATE [IRON], THIAMIN MONONITRATE, RIBOFLAVIN, FOLIC ACID), CARROTS, POTATO STARCH, CONTAINS LESS THAN 2% OF: FLAVORING (YEAST EXTRACT, SALT), POTASSIUM CHLORIDE, CHICKEN FAT, SEA SALT, NATURAL FLAVOR, ONION POWDER, DISODIUM INOSINATE, DISODIUM GUANYLATE, YEAST EXTRACT, SALT, COOKED MECHANICALLY SEPARATED CHICKEN MEAT, BETA CAROTENE (FOR COLOR), GARLIC POWDER." Date available: 07/14/2017 Date last updated by company: 07/14/2017
