Source: USDA Branded Food Products Database Release December 2017 Software v.3.8.6.4 2017-10-02
Report Run at: December 17, 2017 16:27 EST
"Nutrient data for: 45012564, ROUNDY'S, JUNIOR POPS, UPC: 011150589956"
Food Group:  Branded Food Products Database
Common Name:

Nutrient,Unit,Data points,Std. Error,"1 BAR = 56.0g",1Value per 100 g,
Proximates
"Energy",kcal,--,--,40,71
"Protein",g,--,--,0.00,0.00
"Total lipid (fat)",g,--,--,0.00,0.00
"Carbohydrate, by difference",g,--,--,10.00,17.86
"Fiber, total dietary",g,--,--,0.0,0.0
"Sugars, total",g,--,--,8.00,14.29
Minerals
"Calcium, Ca",mg,--,--,0,0
"Iron, Fe",mg,--,--,0.00,0.00
"Sodium, Na",mg,--,--,5,9
Vitamins
"Vitamin C, total ascorbic acid",mg,--,--,0.0,0.0
"Vitamin A, IU",IU,--,--,0,0
Lipids
"Fatty acids, total saturated",g,--,--,0.000,0.000
"Fatty acids, total trans",g,--,--,0.000,0.000
"Cholesterol",mg,--,--,0,0
Amino Acids
Other
Ingredients
"WATER, SUGAR, CORN SYRUP, HIGH FRUCTOSE CORN SYRUP, CITRIC ACID, GUAR GUM, ARTIFICIAL FLAVORS (CHERRY, LIME, GRAPE, ROOT BEER AND BANANA), NATURAL ORANGE FLAVOR, ARTIFICIAL COLORS (BLUE #1, RED #40, YELLOW #5 AND #6), SODIUM BENZOATE." Date available: 06/25/2017 Date last updated by company: 06/25/2017
