Source: USDA Branded Food Products Database Release December 2017 Software v.3.8.6.4 2017-10-02
Report Run at: December 17, 2017 16:45 EST
"Nutrient data for: 45014689, ROUNDY'S, TORTILLA CHIPS, NACHO CHEESE, UPC: 011150224604"
Food Group:  Branded Food Products Database
Common Name:

Nutrient,Unit,Data points,Std. Error,"12.0 CHIPS = 28.0g",1Value per 100 g,
Proximates
"Energy",kcal,--,--,150,536
"Protein",g,--,--,2.00,7.14
"Total lipid (fat)",g,--,--,8.00,28.57
"Carbohydrate, by difference",g,--,--,16.00,57.14
"Fiber, total dietary",g,--,--,1.0,3.6
"Sugars, total",g,--,--,1.00,3.57
Minerals
"Calcium, Ca",mg,--,--,20,71
"Iron, Fe",mg,--,--,0.64,2.29
"Magnesium, Mg",mg,--,--,43,153
"Phosphorus, P",mg,--,--,143,510
"Potassium, K",mg,--,--,80,286
"Sodium, Na",mg,--,--,280,1000
Vitamins
"Vitamin C, total ascorbic acid",mg,--,--,2.2,7.7
"Thiamin",mg,--,--,0.000,0.000
"Riboflavin",mg,--,--,0.068,0.243
"Vitamin A, IU",IU,--,--,0,0
Lipids
"Fatty acids, total saturated",g,--,--,1.000,3.570
"Fatty acids, total monounsaturated",g,--,--,4.001,14.290
"Fatty acids, total polyunsaturated",g,--,--,2.500,8.930
"Fatty acids, total trans",g,--,--,0.000,0.000
"Cholesterol",mg,--,--,0,0
Amino Acids
Other
Ingredients
"GROUND YELLOW CORN, SUNFLOWER OIL AND / OR CANOLA OIL, SALT, WHEY (MILK), DRY BUTTERMILK, ROMANO CHEESE (CULTURED PASTEURIZED PART-SKIM MILK, SALT, AND ENZYMES), TOMATO POWDER, CHEDDAR CHEESE (CULTURED PASTEURIZED MILK, SALT AND ENZYMES), MONOSODIUM GLUTAMATE, ONION POWDER, PARTIALLY HYDROGENATED SOYBEAN OIL, DISODIUM PHOSPHATE, GARLIC POWDER, WHEAT FLOUR, NATURAL AND ARTIFICIAL FLAVOR, PARMESAN CHEESE (CULTURED PART-SKIM MILK, SALT, AND ENZYMES), CITRIC ACID, DEXTROSE, LACTIC ACID, SPICE, ARTIFICIAL COLOR, (YELLOW 6, EXTRACTIVES OF TURMERIC AND CARAMEL COLOR), DISODIUM INOSINATE, DISODIUM GUANYLATE, AND NOT MORE THAN 2 % SILICON DIOXIDE ADDED AS AN ANTICAKING AGENT." Date available: 07/14/2017 Date last updated by company: 07/14/2017
