Source: USDA Branded Food Products Database Release December 2017 Software v.3.8.6.4 2017-10-02
Report Run at: December 17, 2017 16:49 EST
"Nutrient data for: 45159818, ROWNTREES, FRUIT PASTILLES, UPC: 613035415147"
Food Group:  Branded Food Products Database
Common Name:

Nutrient,Unit,Data points,Std. Error,"7.0 PIECES = 30.0g",1Value per 100 g,
Proximates
"Energy",kcal,--,--,94,313
"Protein",g,--,--,1.10,3.67
"Total lipid (fat)",g,--,--,0.00,0.00
"Carbohydrate, by difference",g,--,--,22.00,73.33
"Fiber, total dietary",g,--,--,0.0,0.0
"Sugars, total",g,--,--,14.90,49.67
Minerals
"Calcium, Ca",mg,--,--,0,0
"Iron, Fe",mg,--,--,0.00,0.00
"Sodium, Na",mg,--,--,0,0
Vitamins
"Vitamin C, total ascorbic acid",mg,--,--,0.0,0.0
"Vitamin A, IU",IU,--,--,0,0
Lipids
"Fatty acids, total saturated",g,--,--,0.000,0.000
"Fatty acids, total trans",g,--,--,0.000,0.000
"Cholesterol",mg,--,--,0,0
Amino Acids
Other
Ingredients
"SUGAR, GLUCOSE SYRUP,GELATIN, GUM ARABIC, MODIFIED STARCH, CONCENTRATED FRUIT JUICE (1%) (GRAPE, APPLE, LIME, ORANGE, BLACKCURRANT, STRAWBERRY,LEMON), ACIDS (MALIC ACID, CITRIC ACID, LACTIC ACID), ACIDITY REGULATOR (TRISODIUM CITRATE), FLAVOURINGS, NATURALLY SOURCED COLOURS (ANTHOCYANINS, CURCUMIN, BETA-CAROTENE, COPPER COMPLEXES OF CHLOROPHYLLINS)." Date available: 07/14/2017 Date last updated by company: 07/14/2017
