Source: USDA Branded Food Products Database Release December 2017 Software v.3.8.6.4 2017-10-02
Report Run at: December 17, 2017 16:50 EST
"Nutrient data for: 45044368, ROYAL, CURRY-DELIGHTS, TOMATO CHUTNEY, UPC: 189114000516"
Food Group:  Branded Food Products Database
Common Name:

Nutrient,Unit,Data points,Std. Error,"1 Tbsp = 16.5g",1Value per 100 g,
Proximates
"Energy",kcal,--,--,36,218
"Protein",g,--,--,0.00,0.00
"Total lipid (fat)",g,--,--,1.00,6.06
"Carbohydrate, by difference",g,--,--,8.00,48.48
"Fiber, total dietary",g,--,--,0.3,1.8
"Sugars, total",g,--,--,7.00,42.42
Minerals
"Calcium, Ca",mg,--,--,20,121
"Iron, Fe",mg,--,--,0.00,0.00
"Sodium, Na",mg,--,--,110,667
Vitamins
"Vitamin C, total ascorbic acid",mg,--,--,12.7,77.1
"Vitamin A, IU",IU,--,--,606,3673
Lipids
"Fatty acids, total saturated",g,--,--,0.000,0.000
"Fatty acids, total trans",g,--,--,0.000,0.000
"Cholesterol",mg,--,--,0,0
Amino Acids
Other
Ingredients
"FRESH TOMATOES, SUGAR, FRESH ONIONS, VINEGAR, COMPRESSED CANOLA OIL, FRESH GARLIC PUREE, FRESH GINGER PUREE, SALT, RAISINS, VINEGAR." Date available: 06/24/2017 Date last updated by company: 06/24/2017
