Source: USDA Branded Food Products Database Release December 2017 Software v.3.8.6.4 2017-10-02
Report Run at: December 17, 2017 16:52 EST
"Nutrient data for: 45254509, ROYAL PEANUT BUTTER CAKE, UPC: 096162647481"
Food Group:  Branded Food Products Database
Common Name:

Nutrient,Unit,Data points,Std. Error,"85.0 GRM = 85.0g",1Value per 100 g,
Proximates
"Energy",kcal,--,--,310,365
"Protein",g,--,--,3.00,3.53
"Total lipid (fat)",g,--,--,15.00,17.65
"Carbohydrate, by difference",g,--,--,43.00,50.59
"Fiber, total dietary",g,--,--,1.0,1.2
"Sugars, total",g,--,--,33.00,38.82
Minerals
"Calcium, Ca",mg,--,--,60,71
"Iron, Fe",mg,--,--,1.35,1.59
"Sodium, Na",mg,--,--,280,329
Vitamins
"Vitamin C, total ascorbic acid",mg,--,--,0.0,0.0
"Vitamin A, IU",IU,--,--,188,221
Lipids
"Fatty acids, total saturated",g,--,--,6.001,7.060
"Fatty acids, total trans",g,--,--,0.000,0.000
"Cholesterol",mg,--,--,20,24
Amino Acids
Other
Ingredients
"ENRICHED BLEACHED WHEAT FLOUR (WHEAT FLOUR, NIACIN, THIAMINE MONONITRATE, (VITAMIN B1), RIBOFLAVIN (VITAMIN B2) AND FOLIC ACID), SUGAR, VEGETABLE SHORTENING (PALM OIL AND SOYBEAN OIL), WATER, EGGS, COCOA (PROCESSED WITH ALKALI), CORN SYRUP PEANUT BUTTER, MODIFIED FOOD STARCH, WHEY (FROM MILK), WHEAT GLUTEN, SALT, LEAVENING (SODIUM ACID PYROPHOSPHATE, SODIUM BICARBONATE, CORN STARCH AND MONOCALCIUM PHOSPHATE), GUAR GUM, PROPYLENE GLYCOL ESTERS AND SOY LECITHIN." Date available: 10/10/2017 Date last updated by company: 10/10/2017
