Source: USDA Branded Food Products Database Release December 2017 Software v.3.8.6.4 2017-10-02
Report Run at: December 17, 2017 16:50 EST
"Nutrient data for: 45158266, ROYAL FARMS, MILK CHOCOLATE, BROWNIE BATTER, UPC: 721605284595"
Food Group:  Branded Food Products Database
Common Name:

Nutrient,Unit,Data points,Std. Error,"1 BAR = 61.0g",1Value per 100 g,
Proximates
"Energy",kcal,--,--,300,492
"Protein",g,--,--,2.00,3.28
"Total lipid (fat)",g,--,--,18.00,29.51
"Carbohydrate, by difference",g,--,--,36.00,59.02
"Fiber, total dietary",g,--,--,1.0,1.6
"Sugars, total",g,--,--,31.00,50.82
Minerals
"Calcium, Ca",mg,--,--,60,98
"Iron, Fe",mg,--,--,0.59,0.97
"Sodium, Na",mg,--,--,55,90
Vitamins
"Vitamin C, total ascorbic acid",mg,--,--,0.0,0.0
"Vitamin A, IU",IU,--,--,82,134
Lipids
"Fatty acids, total saturated",g,--,--,10.998,18.030
"Fatty acids, total trans",g,--,--,0.000,0.000
"Cholesterol",mg,--,--,10,16
Amino Acids
Other
Ingredients
"MILK CHOCOLATE (SUGAR, COCOA BUTTER, CHOCOLATE LIQUOR, MILK, SOY LECITHIN, SALT, AND VANILLA), BROWNIE FILLING (DARK CHOCOLATE (SUGAR, CHOCOLATE LIQUOR, CHOCOLATE LIQUOR PROCESSED WITH ALKALI, COCOA BUTTER, BUTTERFAT, SOY LECITHIN AND VANILLA), CREAM, CORN SYRUP, BUTTER, POTASSIUM SORBATE, SUGAR, WATER, WHEAT FLOUR, GLYCERIN, COCOA PROCESSED WITH ALKALI, NATURAL AND ARTIFICIAL FLAVORS, HIGH FRUCTOSE CORN SYRUP, WHEAT STARCH, SOYBEAN OIL, SALT, DEXTROSE, SODIUM BICARBONATE, POTASSIUM SORBATE AND BENZOIC ACID AS PRESERVATIVES, CARRAGEENAN)." Date available: 07/14/2017 Date last updated by company: 07/14/2017
