Source: USDA Branded Food Products Database Release December 2017 Software v.3.8.6.4 2017-10-02
Report Run at: December 17, 2017 16:54 EST
"Nutrient data for: 45234071, RUBSCHLAGER, COCKTAIL SOURDOUGH BREAD, WHOLE GRAIN BREAD, UPC: 071494000234"
Food Group:  Branded Food Products Database
Common Name:

Nutrient,Unit,Data points,Std. Error,"3.0 SLICES = 31.0g",1Value per 100 g,
Proximates
"Energy",kcal,--,--,80,258
"Protein",g,--,--,2.00,6.45
"Total lipid (fat)",g,--,--,1.50,4.84
"Carbohydrate, by difference",g,--,--,15.00,48.39
"Fiber, total dietary",g,--,--,2.0,6.5
"Sugars, total",g,--,--,0.00,0.00
Minerals
"Calcium, Ca",mg,--,--,60,194
"Iron, Fe",mg,--,--,1.16,3.75
"Sodium, Na",mg,--,--,170,548
Vitamins
"Vitamin C, total ascorbic acid",mg,--,--,0.0,0.0
"Vitamin A, IU",IU,--,--,0,0
Lipids
"Fatty acids, total saturated",g,--,--,0.000,0.000
"Fatty acids, total trans",g,--,--,0.000,0.000
"Cholesterol",mg,--,--,0,0
Amino Acids
Other
Ingredients
"WHOLE WHEAT FLOUR, WHOLE RYE MEAL, UNBLEACHED WHEAT FLOUR, WATER, CANOLA OIL, MALT EXTRACT, SALT, SOY LECITHIN, BROWN RICE SYRUP, YEAST, CALCIUM PROPIONATE (A PRESERVATIVE)." Date available: 06/24/2017 Date last updated by company: 06/24/2017
