Source: USDA Branded Food Products Database Release December 2017 Software v.3.8.6.4 2017-10-02
Report Run at: December 17, 2017 16:55 EST
"Nutrient data for: 45213975, RUBY RED JUICE, UPC: 041303009062"
Food Group:  Branded Food Products Database
Common Name:

Nutrient,Unit,Data points,Std. Error,"8.0 OZA = 240.0g",1Value per 100 g,
Proximates
"Energy",kcal,--,--,101,42
"Protein",g,--,--,1.01,0.42
"Total lipid (fat)",g,--,--,0.00,0.00
"Carbohydrate, by difference",g,--,--,24.00,10.00
"Fiber, total dietary",g,--,--,0.0,0.0
"Sugars, total",g,--,--,22.99,9.58
Minerals
"Calcium, Ca",mg,--,--,19,8
"Iron, Fe",mg,--,--,0.00,0.00
"Magnesium, Mg",mg,--,--,31,13
"Phosphorus, P",mg,--,--,41,17
"Potassium, K",mg,--,--,370,154
"Sodium, Na",mg,--,--,0,0
Vitamins
"Vitamin C, total ascorbic acid",mg,--,--,72.0,30.0
"Thiamin",mg,--,--,0.000,0.000
"Riboflavin",mg,--,--,0.034,0.014
"Pantothenic acid",mg,--,--,0.401,0.167
"Vitamin B-6",mg,--,--,0.079,0.033
"Vitamin A, IU",IU,--,--,0,0
"Vitamin D",IU,--,--,0,0
Lipids
"Fatty acids, total saturated",g,--,--,0.000,0.000
"Fatty acids, total trans",g,--,--,0.000,0.000
"Cholesterol",mg,--,--,0,0
Amino Acids
Other
Ingredients
"GRAPEFRUIT JUICE." Date available: 07/14/2017 Date last updated by company: 07/14/2017
