Source: USDA Branded Food Products Database Release December 2017 Software v.3.8.6.4 2017-10-02
Report Run at: December 17, 2017 16:57 EST
"Nutrient data for: 45274655, RUDOLPH'S MIX INDULGENT TRAIL MIX, UPC: 085239259504"
Food Group:  Branded Food Products Database
Common Name:

Nutrient,Unit,Data points,Std. Error,"0.333 cup = 37.0g",1Value per 100 g,
Proximates
"Energy",kcal,--,--,180,486
"Protein",g,--,--,2.00,5.41
"Total lipid (fat)",g,--,--,8.00,21.62
"Carbohydrate, by difference",g,--,--,25.00,67.57
"Fiber, total dietary",g,--,--,1.0,2.7
"Sugars, total",g,--,--,17.00,45.95
Minerals
"Calcium, Ca",mg,--,--,40,108
"Iron, Fe",mg,--,--,1.95,5.26
"Sodium, Na",mg,--,--,65,176
Vitamins
"Vitamin C, total ascorbic acid",mg,--,--,1.6,4.4
"Vitamin A, IU",IU,--,--,135,365
Lipids
"Fatty acids, total saturated",g,--,--,4.999,13.510
"Fatty acids, total trans",g,--,--,0.000,0.000
"Cholesterol",mg,--,--,5,14
Amino Acids
Other
Ingredients
"GRAHAM BITES (BLEACHED WHEAT FLOUR, GRAHAM FLOUR, SUGAR, PALM OIL, MOLASSES, SALT, MALTED BARLEY FLOUR, SPICES, SOY LECITHIN, BAKING SODA), PEANUT BUTTER FLAVORED CEREAL SQUARES (MILK CHOCOLATE [SUGAR, MILK, COCOA BUTTER, CHOCOLATE, SOY LECITHIN, VANILLIN], RICE CEREAL SQUARES [RICE, SUGAR, SALT, CALCIUM CARBONATE, MOLASSES, REDUCED IRON AND ZINC OXIDE, SODIUM ASCORBATE, NIACINAMIDE, PYRIDOXINE HYDROCHLORIDE, THIAMIN MONONITRATE, RIBOFLAVIN, FOLIC ACID, VITAMIN A PALMITATE, VITAMIN B12, VITAMIN D], SUGAR, PALM KERNEL OIL, PARTIALLY DEFATTED PEANUT FLOUR, NONFAT MILK, MALTODEXTRIN, HYDROGENATED PALM OIL, SALT, SOY LECITHIN), WHITE CHOCOLATE OAT CEREAL (WHITE CHOCOLATE [SUGAR, COCOA BUTTER, MILK, SOY LECITHIN, NATURAL VANILLA FLAVOR], OAT CEREAL [WHOLE OAT FLOUR, MODIFIED CORN STARCH, WHEAT STARCH, SUGAR, CONTAINS 2% OR LESS OF: SALT, CALCIUM CARBONATE, OAT FIBER, TRIPOTASSIUM PHOSPHATE, SODIUM ASCORBATE, TOCOPHEROLS {PRESERVATIVE}, REDUCED IRON, VITAMIN A PALMITATE, NIACINAMIDE, ZINC OXIDE, PYRIDOXINE HYDROCHLORIDE, RIBOFLAVIN, CHOLECALCIFEROL, THIAMINE HYDROCHLORIDE, FOLIC ACID, ANNATTO EXTRACT {COLOR}, CYANOCOBALAMIN], GUM ACACIA, SUGAR, CONFECTIONER'S GLAZE), M&M'S MILK CHOCOLATE CANDIES (MILK CHOCOLATE [SUGAR, CHOCOLATE, SKIM MILK, COCOA BUTTER, LACTOSE, MILKFAT, SOY LECITHIN, SALT, ARTIFICIAL FLAVORS], SUGAR, CORNSTARCH, LESS THAN 1% CORN SYRUP, GUM ACACIA, COLORING [INCLUDES RED 40, YELLOW 5, BLUE 1, YELLOW 5 LAKE, RED 40 LAKE, BLUE 1 LAKE, YELLOW 6, BLUE 2 LAKE, YELLOW 6 LAKE, BLUE 2], DEXTRIN), MINI PEANUT BUTTER CUPS (MILK CHOCOLATE [SUGAR, COCOA BUTTER, CHOCOLATE, WHOLE MILK, SOY LECITHIN, NATURAL FLAVORS], SUGAR, PALM KERNEL OIL, PARTIALLY DEFATTED PEANUT FLOUR, NONFAT MILK, PEANUT BUTTER [PEANUTS, SALT], SALT, SOY LECITHIN)." Date available: 09/07/2017 Date last updated by company: 09/07/2017
