Source: USDA Branded Food Products Database Release December 2017 Software v.3.8.6.4 2017-10-02
Report Run at: December 17, 2017 16:57 EST
"Nutrient data for: 45151064, RUFFELS, POTATO CHIPS, UPC: 028400019934"
Food Group:  Branded Food Products Database
Common Name:

Nutrient,Unit,Data points,Std. Error,"1 PACKAGE = 28.3g",1Value per 100 g,
Proximates
"Energy",kcal,--,--,160,565
"Protein",g,--,--,2.00,7.07
"Total lipid (fat)",g,--,--,10.00,35.34
"Carbohydrate, by difference",g,--,--,15.00,53.00
"Fiber, total dietary",g,--,--,1.0,3.5
"Sugars, total",g,--,--,1.00,3.53
Minerals
"Calcium, Ca",mg,--,--,0,0
"Iron, Fe",mg,--,--,0.36,1.27
"Magnesium, Mg",mg,--,--,16,57
"Phosphorus, P",mg,--,--,20,71
"Potassium, K",mg,--,--,340,1201
"Sodium, Na",mg,--,--,160,565
Vitamins
"Vitamin C, total ascorbic acid",mg,--,--,6.0,21.2
"Thiamin",mg,--,--,0.000,0.000
"Niacin",mg,--,--,2.120,7.491
"Vitamin B-6",mg,--,--,0.353,1.249
"Vitamin A, IU",IU,--,--,0,0
Lipids
"Fatty acids, total saturated",g,--,--,1.500,5.300
"Fatty acids, total trans",g,--,--,0.000,0.000
"Cholesterol",mg,--,--,0,0
Amino Acids
Other
Ingredients
"POTATOES, VEGETABLE OIL (SUNFLOWER, CORN, AND/OR CANOLA OIL), AND SALT." Date available: 09/23/2016 Date last updated by company: 09/23/2016
