Source: USDA Branded Food Products Database Release December 2017 Software v.3.8.6.4 2017-10-02
Report Run at: December 17, 2017 17:00 EST
"Nutrient data for: 45239427, RUNA, TRADITIONAL CLEAN ENERGY GUAYUSA TEA, MAPLE SYRUP, UPC: 857732002310"
Food Group:  Branded Food Products Database
Common Name:

Nutrient,Unit,Data points,Std. Error,"1 BOTTLE = 414.0g",1Value per 100 g,
Proximates
"Energy",kcal,--,--,25,6
"Total lipid (fat)",g,--,--,0.00,0.00
"Carbohydrate, by difference",g,--,--,7.00,1.69
"Sugars, total",g,--,--,6.00,1.45
Minerals
"Calcium, Ca",mg,--,--,21,5
"Iron, Fe",mg,--,--,0.33,0.08
"Sodium, Na",mg,--,--,0,0
Vitamins
"Vitamin C, total ascorbic acid",mg,--,--,10.3,2.5
"Vitamin A, IU",IU,--,--,0,0
Lipids
Amino Acids
Other
Ingredients
"BREWED ORGANIC GUAYUSA (PURIFIED WATER AND ORGANIC GUAYUSA LEAVES**), ORGANIC VERMONT MAPLE SYRUP, CITRIC ACID, NATURAL FLAVORS, MONKFRUIT EXTRACT, VITAMIN C (ASCORBIC ACID)." Date available: 07/14/2017 Date last updated by company: 07/14/2017
