Source: USDA Branded Food Products Database Release December 2017 Software v.3.8.6.4 2017-10-02
Report Run at: December 17, 2017 17:06 EST
"Nutrient data for: 45222535, RUSSELL STOVER, PRIVATE RESERVE, FINE ASSORTED CHOCOLATES, UPC: 077260081728"
Food Group:  Branded Food Products Database
Common Name:

Nutrient,Unit,Data points,Std. Error,"3.0 PIECES = 42.0g",1Value per 100 g,
Proximates
"Energy",kcal,--,--,200,476
"Protein",g,--,--,2.00,4.76
"Total lipid (fat)",g,--,--,11.00,26.19
"Carbohydrate, by difference",g,--,--,25.00,59.52
"Fiber, total dietary",g,--,--,1.0,2.4
"Sugars, total",g,--,--,21.00,50.00
Minerals
"Calcium, Ca",mg,--,--,60,143
"Iron, Fe",mg,--,--,1.29,3.06
"Sodium, Na",mg,--,--,40,95
Vitamins
"Vitamin C, total ascorbic acid",mg,--,--,0.0,0.0
"Vitamin A, IU",IU,--,--,119,283
Lipids
"Fatty acids, total saturated",g,--,--,7.001,16.670
"Fatty acids, total trans",g,--,--,0.000,0.000
"Cholesterol",mg,--,--,5,12
Amino Acids
Other
Ingredients
"CONSIST OF CHOCOLATE {SUGAR, CHOCOLATE, CHOCOLATE PROCESSED WITH ALKALI, COCOA BUTTER, WHOLE MILK, MILK FAT, SOY LECITHIN (AN EMULSIFIER), VANILLA (A NATURAL FLAVOR), VANILLIN (AN ARTIFICIAL FLAVOR)}, WHITE CHOCOLATE (SUGAR, COCOA BUTTER, WHOLE MILK, SOY LECITHIN (AN EMULSIFIER), ARTIFICIAL FLAVOR SALT), CORN SYRUP, SUGAR, WHOLE MILK, NONFAT MILK SOLIDS, CONDENSED MILK, DAIRY CREAM, PALM KERNEL OIL, BROWN SUGAR, INVERT SUGAR, RASPBERRIES, HAZELNUTS, COCONUT OIL, ALMONDS, NATURAL AND ARTIFICIAL FLAVORS, SALT, HONEY, SOY LECITHIN (AN EMULSIFIER), EGG ALBUMEN, COFFEE, CITRIC ACID, LEMON OIL, POTASSIUM SORBATE AND SODIUM BENZOATE (PRESERVATIVES), TAPIOCA FLOUR, FD&C COLORS (RED #40, BLUE #1, YELLOW #5), AND INVERTASE (AN ENZYME)." Date available: 07/14/2017 Date last updated by company: 07/14/2017
