Source: USDA Branded Food Products Database Release December 2017 Software v.3.8.6.4 2017-10-02
Report Run at: December 17, 2017 17:07 EST
"Nutrient data for: 45114515, RUSSELL STOVER, SUGAR FREE PECAN DELIGHT, UPC: 077260096258"
Food Group:  Branded Food Products Database
Common Name:

Nutrient,Unit,Data points,Std. Error,"2.0 PIECES = 34.0g",1Value per 100 g,
Proximates
"Energy",kcal,--,--,160,471
"Protein",g,--,--,2.00,5.88
"Total lipid (fat)",g,--,--,12.00,35.29
"Carbohydrate, by difference",g,--,--,19.00,55.88
"Fiber, total dietary",g,--,--,2.0,5.9
"Sugars, total",g,--,--,0.00,0.00
Minerals
"Calcium, Ca",mg,--,--,0,0
"Iron, Fe",mg,--,--,0.53,1.56
"Sodium, Na",mg,--,--,35,103
Vitamins
"Vitamin C, total ascorbic acid",mg,--,--,0.0,0.0
"Vitamin A, IU",IU,--,--,0,0
Lipids
"Fatty acids, total saturated",g,--,--,6.001,17.650
"Fatty acids, total trans",g,--,--,0.000,0.000
"Cholesterol",mg,--,--,0,0
Amino Acids
Other
Ingredients
"CONSIST OF CHOCOLATE CANDY {MALTITOL, CHOCOLATE, COCOA BUTTER, SODIUM CASEINATE (MILK), MILK FAT, SOY LECITHIN (AN EMULSIFIER), SUCRALOSE, NATURAL AND ARTIFICIAL FLAVOR, SALT), MALTITOL SYRUP, PECANS, POLYDEXTROSE, PALM KERNEL OIL, SODIUM CASEINATE (MILK), MALTITOL, NATURAL AND ARTIFICIAL FLAVORS, SOY LECITHIN (AN EMULSIFIER), FD&C COLORS (YELLOW #5 & #6, RED #40, BLUE #1) AND SODIUM BENZOATE (PRESERVATIVE)." Date available: 07/14/2017 Date last updated by company: 07/14/2017
