Source: USDA Branded Food Products Database Release December 2017 Software v.3.8.6.4 2017-10-02
Report Run at: December 17, 2017 17:03 EST
"Nutrient data for: 45144122, RUSSELL STOVER, BITES, BLUEBERRY, UPC: 077260097576"
Food Group:  Branded Food Products Database
Common Name:

Nutrient,Unit,Data points,Std. Error,"10.0 PIECES = 42.0g",1Value per 100 g,
Proximates
"Energy",kcal,--,--,190,452
"Protein",g,--,--,1.00,2.38
"Total lipid (fat)",g,--,--,8.00,19.05
"Carbohydrate, by difference",g,--,--,29.00,69.05
"Fiber, total dietary",g,--,--,1.0,2.4
"Sugars, total",g,--,--,22.00,52.38
Minerals
"Calcium, Ca",mg,--,--,0,0
"Iron, Fe",mg,--,--,1.29,3.06
"Sodium, Na",mg,--,--,20,48
Vitamins
"Vitamin C, total ascorbic acid",mg,--,--,0.0,0.0
"Vitamin A, IU",IU,--,--,0,0
Lipids
"Fatty acids, total saturated",g,--,--,4.498,10.710
"Fatty acids, total trans",g,--,--,0.000,0.000
"Cholesterol",mg,--,--,0,0
Amino Acids
Other
Ingredients
"DARK CHOCOLATE {SUGAR, CHOCOLATE PROCESSED WITH ALKALI, COCOA BUTTER, MILK FAT (MILK), SOY LECITHIN (AN EMULSIFIER), VANILLIN (AN ARTIFICIAL FLAVOR)}, SUGAR, CORN SYRUP, FOOD STARCH - MODIFIED, CITRIC ACID, SORBIC ACID, PECTIN, NATURAL BLUEBERRY FLAVOR, PALM KERNEL OIL, CONFECTIONER'S GLAZE, SODIUM ACETATE, FD&C BLUE #1, AND SODIUM BENZOATE (PRESERVATIVE). 9757 - 101" Date available: 07/14/2017 Date last updated by company: 07/14/2017
