Source: USDA Branded Food Products Database Release December 2017 Software v.3.8.6.4 2017-10-02
Report Run at: December 17, 2017 17:05 EST
"Nutrient data for: 45152612, RUSSELL STOVER, HARD CANDY, ASSORTED FRUIT, UPC: 077260095930"
Food Group:  Branded Food Products Database
Common Name:

Nutrient,Unit,Data points,Std. Error,"3.0 PIECES = 17.0g",1Value per 100 g,
Proximates
"Energy",kcal,--,--,40,235
"Protein",g,--,--,0.00,0.00
"Total lipid (fat)",g,--,--,0.00,0.00
"Carbohydrate, by difference",g,--,--,17.00,100.00
"Sugars, total",g,--,--,1.00,5.88
Minerals
"Sodium, Na",mg,--,--,0,0
Vitamins
Lipids
Amino Acids
Other
Ingredients
"CONSIST OF MALTITOL SYRUP, CITRIC ACID, NATURAL AND ARTIFICIAL FLAVORS, AND FD&C COLORS (YELLOW #5 & #6, RED #40, BLUE #1)." Date available: 07/14/2017 Date last updated by company: 07/14/2017
