Source: USDA Branded Food Products Database Release December 2017 Software v.3.8.6.4 2017-10-02
Report Run at: December 17, 2017 17:03 EST
"Nutrient data for: 45157711, RUSSELL STOVER, CARAMEL BROWNIE CANDY IN MILK CHOCOLATE, UPC: 077260061751"
Food Group:  Branded Food Products Database
Common Name:

Nutrient,Unit,Data points,Std. Error,"1 PIECE = 28.0g",1Value per 100 g,
Proximates
"Energy",kcal,--,--,130,464
"Protein",g,--,--,1.00,3.57
"Total lipid (fat)",g,--,--,6.00,21.43
"Carbohydrate, by difference",g,--,--,19.00,67.86
"Fiber, total dietary",g,--,--,1.0,3.6
"Sugars, total",g,--,--,16.00,57.14
Minerals
"Calcium, Ca",mg,--,--,40,143
"Iron, Fe",mg,--,--,0.64,2.29
"Sodium, Na",mg,--,--,45,161
Vitamins
"Vitamin C, total ascorbic acid",mg,--,--,0.0,0.0
"Vitamin A, IU",IU,--,--,179,638
Lipids
"Fatty acids, total saturated",g,--,--,4.001,14.290
"Fatty acids, total trans",g,--,--,0.000,0.000
"Cholesterol",mg,--,--,0,0
Amino Acids
Other
Ingredients
"CONSIST OF MILK CHOCOLATE (SUGAR, WHOLE MILK COCOA BUTTER, CHOCOLATE, SOY LECITHIN (AN EMULSIFIER), VANILLIN (AN ARTIFICIAL FLAVOR), SUGAR, CORN SYRUP, DAIRY CREAM, CONDENSED MILK PALM KERNEL OIL INVERT SUGAR, BROMINE MIX (SUGAR, ENRICHED WHEAT FLOUR (WHEAT FLOUR, NIACIN, REDUCED IRON, THIAMINE MONONITRATE, RIBOFLAVIN, FOLIC ACID), COCA PROCESSED WITH ALKALI, EGG WHITES, SALT, NATURAL SALT, NATURAL FLAVOR, NONFAT MILK SOLIDS. WHEY SOLIDS XANTHAN GUM SORBITOL, BROWN SUGAR, SALT, NATURAL FLAVORS, AND SOY LECITHIN (AN EMULSIFIER)." Date available: 07/14/2017 Date last updated by company: 07/14/2017
