Source: USDA Branded Food Products Database Release December 2017 Software v.3.8.6.4 2017-10-02
Report Run at: December 17, 2017 17:06 EST
"Nutrient data for: 45157704, RUSSELL STOVER, MILK CHOCOLATE, CARAMEL, MARSHMALLOW, PUMPKIN SPICE, UPC: 077260068101"
Food Group:  Branded Food Products Database
Common Name:

Nutrient,Unit,Data points,Std. Error,"3.0 PIECES = 42.0g",1Value per 100 g,
Proximates
"Energy",kcal,--,--,170,405
"Protein",g,--,--,1.00,2.38
"Total lipid (fat)",g,--,--,6.00,14.29
"Carbohydrate, by difference",g,--,--,30.00,71.43
"Fiber, total dietary",g,--,--,0.0,0.0
"Sugars, total",g,--,--,21.00,50.00
Minerals
"Calcium, Ca",mg,--,--,40,95
"Iron, Fe",mg,--,--,0.43,1.02
"Sodium, Na",mg,--,--,55,131
Vitamins
"Vitamin C, total ascorbic acid",mg,--,--,0.0,0.0
"Vitamin A, IU",IU,--,--,0,0
Lipids
"Fatty acids, total saturated",g,--,--,3.998,9.520
"Fatty acids, total trans",g,--,--,0.000,0.000
"Cholesterol",mg,--,--,5,12
Amino Acids
Other
Ingredients
"CONSIST OF MILK CHOCOLATE {SUGAR, WHOLE MILK, COCOA BUTTER, CHOCOLATE, SOY LECITHIN (AN EMULSIFIER), VANILLIN (AN ARTIFICIAL FLAVOR)}, CORN SYRUP, SUGAR, INVERT SUGAR, DAIRY CREAM, SORBITOL, CONDENSED MILK, PARTIALLY HYDROGENATED PALM KERNEL OIL, GELATIN, BROWN SUGAR, SALT, NATURAL FLAVORS, NATURAL PUMPKIN SPICE FLAVOR, SOY LECITHIN (AN EMULSIFIER), FD&C COLORS (YELLOW #5 & #6, RED #40, BLUE #1), SODIUM BENZOATE (PRESERVATIVE), AND PHOSPHATES." Date available: 07/14/2017 Date last updated by company: 07/14/2017
