Source: USDA Branded Food Products Database Release December 2017 Software v.3.8.6.4 2017-10-02
Report Run at: December 17, 2017 17:02 EST
"Nutrient data for: 45157092, RUSSELL STOVER, ASSORTED TRUFFLES, UPC: 077260062611"
Food Group:  Branded Food Products Database
Common Name:

Nutrient,Unit,Data points,Std. Error,"2.0 PIECES = 32.0g",1Value per 100 g,
Proximates
"Energy",kcal,--,--,170,531
"Protein",g,--,--,2.00,6.25
"Total lipid (fat)",g,--,--,10.00,31.25
"Carbohydrate, by difference",g,--,--,19.00,59.38
"Fiber, total dietary",g,--,--,1.0,3.1
"Sugars, total",g,--,--,16.00,50.00
Minerals
"Calcium, Ca",mg,--,--,40,125
"Iron, Fe",mg,--,--,1.13,3.52
"Sodium, Na",mg,--,--,15,47
Vitamins
"Vitamin C, total ascorbic acid",mg,--,--,0.0,0.0
"Vitamin A, IU",IU,--,--,156,488
Lipids
"Fatty acids, total saturated",g,--,--,6.000,18.750
"Fatty acids, total trans",g,--,--,0.000,0.000
"Cholesterol",mg,--,--,10,31
Amino Acids
Other
Ingredients
"INGREDIENTS CONSIST OF CHOCOLATE {SUGAR, CHOCOLATE, CHOCOLATE PROCESSED WITH ALKALI, COCOA BUTTER, WHOLE MILK, MILK FAT, SOY LECITHIN (AN EMULSIFIER), VANILLIN (AN ARTIFICIAL FLAVOR)}, WHITE CHOCOLATE {SUGAR, COCOA BUTTER, WHOLE MILK, SOY LECITHIN (AN EMULSIFIER), ARTIFICIAL FLAVOR, SALT}, CONDENSED MILK, BUTTER, SUGAR, CORN SYRUP, COCOA PROCESSED WITH POTASSIUM CARBONATE, CONFECTIONER'S GLAZE, INVERT SUGAR, NATURAL FLAVOR, AND POTASSIUM SORBATE (PRESERVATIVE). 6261-101" Date available: 07/14/2017 Date last updated by company: 07/14/2017
