Source: USDA Branded Food Products Database Release December 2017 Software v.3.8.6.4 2017-10-02
Report Run at: December 17, 2017 17:02 EST
"Nutrient data for: 45226718, RUSSELL STOVER, ASSORTED FINE CHOCOLATES, UPC: 077260048059"
Food Group:  Branded Food Products Database
Common Name:

Nutrient,Unit,Data points,Std. Error,"3.0 PIECES = 39.0g",1Value per 100 g,
Proximates
"Energy",kcal,--,--,180,462
"Protein",g,--,--,1.00,2.56
"Total lipid (fat)",g,--,--,7.00,17.95
"Carbohydrate, by difference",g,--,--,28.00,71.79
"Fiber, total dietary",g,--,--,1.0,2.6
"Sugars, total",g,--,--,22.00,56.41
Minerals
"Calcium, Ca",mg,--,--,40,103
"Iron, Fe",mg,--,--,0.92,2.37
"Sodium, Na",mg,--,--,70,179
Vitamins
"Vitamin C, total ascorbic acid",mg,--,--,0.0,0.0
"Vitamin A, IU",IU,--,--,0,0
Lipids
"Fatty acids, total saturated",g,--,--,5.000,12.820
"Fatty acids, total trans",g,--,--,0.000,0.000
"Cholesterol",mg,--,--,5,13
Amino Acids
Other
Ingredients
"INGREDIENTS CONSIST OF CHOCOLATE {SUGAR, CHOCOLATE, CHOCOLATE PROCESSED WITH ALKALI, COCOA BUTTER, WHOLE MILK, MILK FAT, SOY LECITHIN (AN EMULSIFIER), VANILLIN (AN ARTIFICIAL FLAVOR)}, SUGAR, CORN SYRUP, CONDENSED MILK, COCONUT WITH SODIUM METABISULFITE (TO PROMOTE COLOR RETENTION), DAIRY CREAM, BROWN SUGAR, MOLASSES, PALM KERNEL OIL, INVERT SUGAR, SORBITOL, COCOA POWDER, WHITE CHOCOLATE {SUGAR, COCOA BUTTER, WHOLE MILK, SOY LECITHIN (AN EMULSIFIER), ARTIFICIAL FLAVOR, SALT}, ORANGE PEEL, HONEY, EGG ALBUMEN, BUTTER, NATURAL FLAVOR, SOY LECITHIN (AN EMULSIFIER), TAPIOCA FLOUR, INVERTASE (AN ENZYME), FD&C COLOR (YELLOW #6), TOCOPHEROLS (A NATURAL ANTIOXIDANT), AND SODIUM BENZOATE (PRESERVATIVE)." Date available: 07/14/2017 Date last updated by company: 07/14/2017
