Source: USDA Branded Food Products Database Release December 2017 Software v.3.8.6.4 2017-10-02
Report Run at: December 17, 2017 17:11 EST
"Nutrient data for: 45322624, RUSTIC MEXICAN RICE & BEANS, UPC: 041000715457"
Food Group:  Branded Food Products Database
Common Name:

Nutrient,Unit,Data points,Std. Error,"1 CUP PREPARED) | ( = 75.0g",1Value per 100 g,
Proximates
"Energy",kcal,--,--,270,360
"Protein",g,--,--,7.00,9.33
"Total lipid (fat)",g,--,--,1.00,1.33
"Carbohydrate, by difference",g,--,--,57.00,76.00
"Fiber, total dietary",g,--,--,3.0,4.0
"Sugars, total",g,--,--,4.00,5.33
Minerals
"Calcium, Ca",mg,--,--,12,16
"Iron, Fe",mg,--,--,0.65,0.86
"Sodium, Na",mg,--,--,800,1067
Vitamins
"Vitamin C, total ascorbic acid",mg,--,--,21.0,28.0
"Vitamin A, IU",IU,--,--,450,600
Lipids
"Fatty acids, total saturated",g,--,--,0.000,0.000
"Fatty acids, total trans",g,--,--,0.000,0.000
"Cholesterol",mg,--,--,0,0
Amino Acids
Other
Ingredients
"LONG GRAIN RICE, RED BEANS*, RED AND GREEN BELL PEPPERS*, GARLIC POWDER (SULFITES), TOMATO POWDER, ONION POWDER, SALT, YEAST EXTRACT, SPICES, MALTODEXTRIN, SUGAR, CORN STARCH, OLIVE OIL, JALAPENO POWDER, PAPRIKA (COLOR), NATURAL FLAVOR, SOY LECITHIN." Date available: 08/19/2017 Date last updated by company: 08/19/2017
