Source: USDA Branded Food Products Database Release December 2017 Software v.3.8.6.4 2017-10-02
Report Run at: December 17, 2017 17:12 EST
"Nutrient data for: 45098259, RUTHERFORD & MEYER, QUINCE FRUIT PASTE, UPC: 872016001001"
Food Group:  Branded Food Products Database
Common Name:

Nutrient,Unit,Data points,Std. Error,"0.2 ONZ = 6.0g",1Value per 100 g,
Proximates
"Energy",kcal,--,--,15,250
"Protein",g,--,--,0.00,0.00
"Total lipid (fat)",g,--,--,0.00,0.00
"Carbohydrate, by difference",g,--,--,5.00,83.33
"Sugars, total",g,--,--,3.00,50.00
Minerals
"Calcium, Ca",mg,--,--,0,0
"Iron, Fe",mg,--,--,0.00,0.00
"Sodium, Na",mg,--,--,0,0
Vitamins
"Vitamin C, total ascorbic acid",mg,--,--,0.0,0.0
"Vitamin A, IU",IU,--,--,0,0
Lipids
"Fatty acids, total trans",g,--,--,0.000,0.000
Amino Acids
Other
Ingredients
"QUINCE PULP, SUGAR, GLUCOSE, DEXTROSE, GELLING AGENT (FRUIT PECTIN), ACIDITY REGULATORS (CITRIC ACID, TARTARIC ACID, SODIUM CITRATE), NATURAL FLAVOR" Date available: 07/14/2017 Date last updated by company: 07/14/2017
