Source: USDA Branded Food Products Database Release December 2017 Software v.3.8.6.4 2017-10-02
Report Run at: December 17, 2017 17:12 EST
"Nutrient data for: 45156365, RUTTER'S, UNSWEETENED ICED, UPC: 071156500652"
Food Group:  Branded Food Products Database
Common Name:

Nutrient,Unit,Data points,Std. Error,"8.0 ONZ = 237.0g",1Value per 100 g,
Proximates
"Energy",kcal,--,--,0,0
"Protein",g,--,--,0.00,0.00
"Total lipid (fat)",g,--,--,0.00,0.00
"Carbohydrate, by difference",g,--,--,0.00,0.00
"Sugars, total",g,--,--,0.00,0.00
Minerals
"Sodium, Na",mg,--,--,14,6
Vitamins
Lipids
Amino Acids
Other
Ingredients
"FILTERED WATER, NATURAL FLAVOR, BLACK TEA, PHOSPHORIC ACID, SODIUM BENZOATE AND POTASSIUM SORBATE AS PRESERVATIVES FOR FRESHNESS." Date available: 07/14/2017 Date last updated by company: 07/14/2017
