Source: USDA Branded Food Products Database Release December 2017 Software v.3.8.6.4 2017-10-02
Report Run at: December 17, 2017 17:15 EST
"Nutrient data for: 45053233, RYE, ALL NATURAL, UPC: 031711000225"
Food Group:  Branded Food Products Database
Common Name:

Nutrient,Unit,Data points,Std. Error,"1 SLICE = 41.0g",1Value per 100 g,
Proximates
"Energy",kcal,--,--,90,220
"Protein",g,--,--,3.00,7.32
"Total lipid (fat)",g,--,--,0.00,0.00
"Carbohydrate, by difference",g,--,--,18.00,43.90
"Fiber, total dietary",g,--,--,1.0,2.4
"Sugars, total",g,--,--,0.00,0.00
Minerals
"Calcium, Ca",mg,--,--,20,49
"Iron, Fe",mg,--,--,0.44,1.07
"Sodium, Na",mg,--,--,190,463
Vitamins
"Vitamin C, total ascorbic acid",mg,--,--,0.0,0.0
"Vitamin A, IU",IU,--,--,0,0
Lipids
"Fatty acids, total saturated",g,--,--,0.000,0.000
"Fatty acids, total trans",g,--,--,0.000,0.000
"Cholesterol",mg,--,--,0,0
Amino Acids
Other
Ingredients
"WHEAT FLOUR, MALTED BARLEY FLOUR, WATER, RYE CHOPS, CARAWAY SEEDS, SALT, YEAST." Date available: 06/25/2017 Date last updated by company: 06/25/2017
