Source: USDA Branded Food Products Database Release December 2017 Software v.3.8.6.4 2017-10-02
Report Run at: December 18, 2017 01:33 EST
"Nutrient data for: 45002260, S. MARZANO TOMATO, UPC: 026825008793"
Food Group:  Branded Food Products Database
Common Name:

Nutrient,Unit,Data points,Std. Error,"0.5 cup = 122.0g",1Value per 100 g,
Proximates
"Energy",kcal,--,--,24,20
"Protein",g,--,--,1.00,0.82
"Total lipid (fat)",g,--,--,0.00,0.00
"Carbohydrate, by difference",g,--,--,5.00,4.10
"Fiber, total dietary",g,--,--,2.0,1.6
"Sugars, total",g,--,--,4.00,3.28
Minerals
"Calcium, Ca",mg,--,--,20,16
"Iron, Fe",mg,--,--,0.59,0.48
"Sodium, Na",mg,--,--,20,16
Vitamins
"Vitamin C, total ascorbic acid",mg,--,--,2.4,2.0
"Vitamin A, IU",IU,--,--,205,168
Lipids
"Fatty acids, total saturated",g,--,--,0.000,0.000
"Fatty acids, total trans",g,--,--,0.000,0.000
"Cholesterol",mg,--,--,0,0
Amino Acids
Other
Ingredients
"S. MARZANO PLUM PEELED TOMATOES, S. MARZANO TOMATO PUREE, BASIL LEAF." Date available: 07/14/2017 Date last updated by company: 07/14/2017
