Source: USDA Branded Food Products Database Release December 2017 Software v.3.8.6.4 2017-10-02
Report Run at: December 18, 2017 02:00 EST
"Nutrient data for: 45083775, S'MORES COCOA, UPC: 729776413226"
Food Group:  Branded Food Products Database
Common Name:

Nutrient,Unit,Data points,Std. Error,"3.5 Tbsp = 40.0g",1Value per 100 g,
Proximates
"Energy",kcal,--,--,170,425
"Protein",g,--,--,2.00,5.00
"Total lipid (fat)",g,--,--,2.50,6.25
"Carbohydrate, by difference",g,--,--,33.00,82.50
"Fiber, total dietary",g,--,--,0.0,0.0
"Sugars, total",g,--,--,26.00,65.00
Minerals
"Calcium, Ca",mg,--,--,80,200
"Iron, Fe",mg,--,--,0.90,2.25
"Sodium, Na",mg,--,--,210,525
Vitamins
"Vitamin C, total ascorbic acid",mg,--,--,0.0,0.0
"Vitamin A, IU",IU,--,--,0,0
Lipids
"Fatty acids, total saturated",g,--,--,2.000,5.000
"Fatty acids, total trans",g,--,--,0.000,0.000
"Cholesterol",mg,--,--,0,0
Amino Acids
Other
Ingredients
"SUGAR, CANDY CANE PIECES (CORN SYRUP, SUGAR, PEPPERMINT OIL, TITANIUM DIOXIDE [COLOR], RED 40, RED 3, YELLOW 6, BLUE 1), SWEET WHEY, MALTODEXTRIN, COCONUT OIL, CORN SYRUP SOLIDS, COCOA (PROCESSED WITH ALKALI), NON-FAT DRY MILK, NATURAL AND ARTIFICIAL FLAVORS, SALT, SODIUM CASEINATE, MONO AND DIGLYCERIDES, DIPOTASSIUM PHOSPHATE, SILICON DIOXIDE, CARRAGEEAN." Date available: 07/14/2017 Date last updated by company: 07/14/2017
