Source: USDA Branded Food Products Database Release December 2017 Software v.3.8.6.4 2017-10-02
Report Run at: December 17, 2017 17:17 EST
"Nutrient data for: 45187785, SABOR MEXICANO, INFIERNO EXTRA HOT SALSA, UPC: 853094004030"
Food Group:  Branded Food Products Database
Common Name:

Nutrient,Unit,Data points,Std. Error,"2.0 Tbsp = 31.0g",1Value per 100 g,
Proximates
"Energy",kcal,--,--,10,32
"Protein",g,--,--,0.00,0.00
"Total lipid (fat)",g,--,--,0.00,0.00
"Carbohydrate, by difference",g,--,--,2.00,6.45
"Sugars, total",g,--,--,1.00,3.23
Minerals
"Sodium, Na",mg,--,--,70,226
Vitamins
"Vitamin C, total ascorbic acid",mg,--,--,20.3,65.4
"Vitamin A, IU",IU,--,--,676,2182
Lipids
Amino Acids
Other
Ingredients
"ORGANIC TOMATOES, ORGANIC HABANERO PEPPERS, ORGANIC CILANTRO, ORGANIC ONIONS, ORGANIC GARLIC, SEA SALT" Date available: 10/19/2017 Date last updated by company: 10/19/2017
