Source: USDA Branded Food Products Database Release December 2017 Software v.3.8.6.4 2017-10-02
Report Run at: December 17, 2017 17:26 EST
"Nutrient data for: 45172394, SAFEWAY SELECT, THAW, PHYLLO PASTRY SHELLS, UPC: 021130186099"
Food Group:  Branded Food Products Database
Common Name:

Nutrient,Unit,Data points,Std. Error,"2.0 MINI SHELLS = 7.0g",1Value per 100 g,
Proximates
"Energy",kcal,--,--,20,286
"Protein",g,--,--,1.00,14.29
"Total lipid (fat)",g,--,--,0.50,7.14
"Carbohydrate, by difference",g,--,--,4.00,57.14
"Fiber, total dietary",g,--,--,0.0,0.0
"Sugars, total",g,--,--,0.00,0.00
Minerals
"Calcium, Ca",mg,--,--,0,0
"Iron, Fe",mg,--,--,2.57,36.75
"Sodium, Na",mg,--,--,15,214
Vitamins
"Vitamin C, total ascorbic acid",mg,--,--,0.0,0.0
"Vitamin A, IU",IU,--,--,0,0
Lipids
"Fatty acids, total saturated",g,--,--,0.000,0.000
"Fatty acids, total trans",g,--,--,0.000,0.000
"Cholesterol",mg,--,--,0,0
Amino Acids
Other
Ingredients
"ENRICHED BLEACHED WHEAT FLOUR (BLEACHED FLOUR, NIACIN, IRON, THIAMIN MONONITRATE, RIBOFLAVIN, FOLIC ACID), WATER, CORN STARCH, CANOLA OIL (ASCORBIC ACID, ROSEMARY AND CITRIC ACID ADDED TO PRESERVE FRESHNESS), VITAL WHEAT GLUTEN, SALT, DEXTROSE, PRESERVATIVES (CALCIUM PROPIONATE, POTASSIUM SORBATE), MALTODEXTRIN, CITRIC ACID, NATURAL BUTTER FLAVOR." Date available: 09/07/2017 Date last updated by company: 09/07/2017
