Source: USDA Branded Food Products Database Release December 2017 Software v.3.8.6.4 2017-10-02
Report Run at: December 17, 2017 17:22 EST
"Nutrient data for: 45089072, SAFE STYLE DRINK MIX CAPPUCCINO, UPC: 018400312517"
Food Group:  Branded Food Products Database
Common Name:

Nutrient,Unit,Data points,Std. Error,"3.0 Tbsp = 27.0g",1Value per 100 g,
Proximates
"Energy",kcal,--,--,110,407
"Protein",g,--,--,2.00,7.41
"Total lipid (fat)",g,--,--,3.50,12.96
"Carbohydrate, by difference",g,--,--,19.00,70.37
"Fiber, total dietary",g,--,--,0.0,0.0
"Sugars, total",g,--,--,16.00,59.26
Minerals
"Calcium, Ca",mg,--,--,60,222
"Iron, Fe",mg,--,--,0.67,2.47
"Sodium, Na",mg,--,--,125,463
Vitamins
"Vitamin C, total ascorbic acid",mg,--,--,0.0,0.0
"Vitamin A, IU",IU,--,--,0,0
Lipids
"Fatty acids, total saturated",g,--,--,3.000,11.110
"Fatty acids, total trans",g,--,--,0.000,0.000
"Cholesterol",mg,--,--,0,0
Amino Acids
Other
Ingredients
"SUGAR, CREAMER (PARTIALLY HYDROGENATED VEGETABLE OIL [COCONUT, CANOLA, AND SOYBEAN OILS], CORN SYRUP SOLIDS, SODIUM CASEINATE [A MILK DERIVATIVE], DIPOTASSIUM PHOSPHATE, SUGAR, WHEY, MALTODEXTRIN, MONO- AND DIGLYCERIDES, SILICON DIOXIDE, SODIUM SILICOALUMINATE, SODIUM STEAROYL LACTYLATE, SOY LECITHIN, COLORED WITH [ANNATTO, TURMERIC], ARTIFICIAL FLAVOR), SWEET DAIRY WHEY, NONFAT DRY MILK, INSTANT COFFEE, ARTIFICIAL FLAVOR, COCOA (PROCESSED WITH ALKALI), SODIUM ALUMINOSILICATE (TO PREVENT CAKING), CELLULOSE GUM, SALT." Date available: 10/13/2017 Date last updated by company: 10/13/2017
