Source: USDA Branded Food Products Database Release December 2017 Software v.3.8.6.4 2017-10-02
Report Run at: December 17, 2017 17:25 EST
"Nutrient data for: 45172557, SAFEWAY SELECT, DRIED PHILIPPINE MANGO SLICES, UPC: 021130982531"
Food Group:  Branded Food Products Database
Common Name:

Nutrient,Unit,Data points,Std. Error,"0.33 cup = 40.0g",1Value per 100 g,
Proximates
"Energy",kcal,--,--,150,375
"Protein",g,--,--,1.00,2.50
"Total lipid (fat)",g,--,--,0.00,0.00
"Carbohydrate, by difference",g,--,--,37.00,92.50
"Fiber, total dietary",g,--,--,1.0,2.5
"Sugars, total",g,--,--,31.00,77.50
Minerals
"Calcium, Ca",mg,--,--,0,0
"Iron, Fe",mg,--,--,1.26,3.15
"Sodium, Na",mg,--,--,50,125
Vitamins
"Vitamin C, total ascorbic acid",mg,--,--,63.0,157.5
"Vitamin A, IU",IU,--,--,350,875
Lipids
"Fatty acids, total saturated",g,--,--,0.000,0.000
"Fatty acids, total trans",g,--,--,0.000,0.000
"Cholesterol",mg,--,--,0,0
Amino Acids
Other
Ingredients
"MANGO SLICES, SUGAR, SULFUR DIOXIDE (PRESERVATIVE)." Date available: 07/14/2017 Date last updated by company: 07/14/2017
