Source: USDA Branded Food Products Database Release December 2017 Software v.3.8.6.4 2017-10-02
Report Run at: December 17, 2017 17:27 EST
"Nutrient data for: 45170459, SAFFRON ROAD, BEAN STALKS, SEA SALT, UPC: 854487006372"
Food Group:  Branded Food Products Database
Common Name:

Nutrient,Unit,Data points,Std. Error,"21.0 PIECES | ABOUT = 28.0g",1Value per 100 g,
Proximates
"Energy",kcal,--,--,90,321
"Protein",g,--,--,4.00,14.29
"Total lipid (fat)",g,--,--,5.00,17.86
"Carbohydrate, by difference",g,--,--,15.00,53.57
"Fiber, total dietary",g,--,--,1.0,3.6
"Sugars, total",g,--,--,1.00,3.57
Minerals
"Calcium, Ca",mg,--,--,20,71
"Iron, Fe",mg,--,--,1.29,4.59
"Sodium, Na",mg,--,--,270,964
Vitamins
"Vitamin C, total ascorbic acid",mg,--,--,0.0,0.0
"Vitamin A, IU",IU,--,--,0,0
Lipids
"Fatty acids, total saturated",g,--,--,0.000,0.000
"Fatty acids, total trans",g,--,--,0.000,0.000
"Cholesterol",mg,--,--,0,0
Amino Acids
Other
Ingredients
"BEAN FLOUR (GREEN PEA, RED PINTO, WHITE CANNELLINI), POTATO STARCH, SUNFLOWER OIL, SEA SALT, POTASSIUM CHLORIDE, SPINACH POWDER, BEETROOT POWDER, ROSEMARY EXTRACT, ASCORBIC ACID." Date available: 07/14/2017 Date last updated by company: 07/14/2017
