Source: USDA Branded Food Products Database Release December 2017 Software v.3.8.6.4 2017-10-02
Report Run at: December 17, 2017 17:36 EST
"Nutrient data for: 45170751, SALAMIDA, ORIGINAL SPIEDIE SAUCE MARINADE, UPC: 033481000061"
Food Group:  Branded Food Products Database
Common Name:

Nutrient,Unit,Data points,Std. Error,"1 Tbsp = 15.0g",1Value per 100 g,
Proximates
"Energy",kcal,--,--,15,100
"Protein",g,--,--,0.00,0.00
"Total lipid (fat)",g,--,--,1.50,10.00
"Carbohydrate, by difference",g,--,--,1.00,6.67
"Fiber, total dietary",g,--,--,2.0,13.3
"Sugars, total",g,--,--,0.00,0.00
Minerals
"Sodium, Na",mg,--,--,160,1067
Vitamins
Lipids
"Fatty acids, total saturated",g,--,--,0.000,0.000
"Fatty acids, total trans",g,--,--,0.000,0.000
"Cholesterol",mg,--,--,0,0
Amino Acids
Other
Ingredients
"VINEGARS (REG WINE/DISTILLED), SOYBEAN OIL, SALT, BLACK PEPPER, DEHYDRATED GARLIC, SPICES, NATURAL FLAVOR, MONOSODIUM GLUTAMATE (TO ENHANCE FLAVOR)" Date available: 06/25/2017 Date last updated by company: 06/25/2017
