Source: USDA Branded Food Products Database Release December 2017 Software v.3.8.6.4 2017-10-02
Report Run at: December 17, 2017 17:33 EST
"Nutrient data for: 45262211, SALAD KIT, UPC: 5051379081560"
Food Group:  Branded Food Products Database
Common Name:

Nutrient,Unit,Data points,Std. Error,"0.5 CONTAINER = 213.0g",1Value per 100 g,
Proximates
"Energy",kcal,--,--,141,66
"Protein",g,--,--,11.99,5.63
"Total lipid (fat)",g,--,--,6.01,2.82
"Carbohydrate, by difference",g,--,--,9.01,4.23
"Fiber, total dietary",g,--,--,3.0,1.4
"Sugars, total",g,--,--,2.00,0.94
Minerals
"Calcium, Ca",mg,--,--,100,47
"Iron, Fe",mg,--,--,0.94,0.44
"Sodium, Na",mg,--,--,271,127
Vitamins
"Vitamin C, total ascorbic acid",mg,--,--,23.6,11.1
"Vitamin A, IU",IU,--,--,6243,2931
Lipids
"Fatty acids, total saturated",g,--,--,2.492,1.170
"Fatty acids, total trans",g,--,--,0.000,0.000
"Cholesterol",mg,--,--,30,14
Amino Acids
Other
Ingredients
"ROMAINE LETTUCE, FULLY COOKED CHICKEN BREAST [CHICKEN BREAST WITH RIB MEAT, WATER, SEASONING (LEMON JUICE CONCENTRATE, DISTILLED VINEGAR, RICE STARCH, SALT, NATURAL FLAVOR, SUGAR, SPICES, MALTODEXTRIN, YEAST EXTRACT, CORN STARCH, DEXTROSE, CARAMEL COLOR, DEHYDRATED PARSLEY, DEHYDRATED GREEN ONIONS, TURMERIC, TAPIOCA MALTODEXTRIN, MUSHROOM EXTRACT, PAPRIKA EXTRACTIVES)], SOUTHWEST DRESSING {SOYBEAN OIL, TOMATOES (TOMATOES, TOMATO JUICE, CITRIC ACID, CALCIUM CHLORIDE), CHIPOTLE PUREE (WATER, CHIPOTLE PEPPERS, TOMATO PASTE, VINEGAR, SALT, SPICES, ONION POWDER, GARLIC POWDER, CITRIC ACID), WATER, DISTILLED VINEGAR, SOUR CREAM [CULTURED PASTEURIZED MILK, CREAM, STABILIZER (MODIFIED CORN STARCH, SODIUM PHOSPHATE, GUAR GUM, CARRAGEENAN, SODIUM CITRATE, LOCUST BEAN GUM)], SUGAR, SALT, SPICES, LEMON JUICE CONCENTRATE, SERRANO PEPPERS (SERRANO PEPPERS, WATER, CITRIC ACID), PAPRIKA (FOR COLOR), EGGS, DEHYDRATED ONION, GARLIC POWDER, EGG YOLKS, ONION POWDER, XANTHAN GUM, CILANTRO, CITRIC ACID}, BELL PEPPERS, CHEESE [JACK CHEESE (PASTEURIZED MILK, CHEESE CULTURES, SALT, ENZYMES), CHEDDAR CHEESE (PASTEURIZED MILK, CHEESE CULTURES, SALT, ENZYMES, ANNATTO FOR COLOR)], TORTILLA STRIPS (CORN MASA FLOUR, SUNFLOWER OIL, CORN OIL, SALT, TRACE OF LIME)." Date available: 07/14/2017 Date last updated by company: 07/14/2017
