Source: USDA Branded Food Products Database Release December 2017 Software v.3.8.6.4 2017-10-02
Report Run at: December 17, 2017 17:31 EST
"Nutrient data for: 45201636, SALAD DRESSINGS, UPC: 806795005783"
Food Group:  Branded Food Products Database
Common Name:

Nutrient,Unit,Data points,Std. Error,"2.0 Tbsp = 30.0g",1Value per 100 g,
Proximates
"Energy",kcal,--,--,140,467
"Protein",g,--,--,0.00,0.00
"Total lipid (fat)",g,--,--,14.00,46.67
"Carbohydrate, by difference",g,--,--,5.00,16.67
"Fiber, total dietary",g,--,--,0.0,0.0
"Sugars, total",g,--,--,5.00,16.67
Minerals
"Calcium, Ca",mg,--,--,0,0
"Iron, Fe",mg,--,--,0.00,0.00
"Sodium, Na",mg,--,--,240,800
Vitamins
"Vitamin C, total ascorbic acid",mg,--,--,0.0,0.0
"Vitamin A, IU",IU,--,--,0,0
Lipids
"Fatty acids, total saturated",g,--,--,2.001,6.670
"Fatty acids, total trans",g,--,--,0.000,0.000
"Cholesterol",mg,--,--,10,33
Amino Acids
Other
Ingredients
"SOYBEAN OIL, PICKLE RELISH (CORN SWEETENERS, PICKLES, SUGAR, TOMATO PASTE, DISTILLED VINEGAR, SALT, RED BELL PEPPER, MUSTARD SEED, XANTHAN GUM, SODIUM BENZOATE AND POTASSIUM SORBATE AS PRESERVATIVES, NATURAL SPICE FLAVORS, ALUM, EDTA), WATER, SUGAR, EGGS, DISTILLED AND CIDER VINEGARS, SALT, SPICE, ONION, XANTHAN GUM, PROPYLENE GLYCOL ALGINATE, GARLIC, PAPRIKA, AND CALCIUM DISODIUM EDTA ADDED TO PROTECT FLAVOR." Date available: 07/14/2017 Date last updated by company: 07/14/2017
