Source: USDA Branded Food Products Database Release December 2017 Software v.3.8.6.4 2017-10-02
Report Run at: December 17, 2017 17:33 EST
"Nutrient data for: 45289191, SALAD KIT WITH GRILLED CHICKEN SANTA FE STYLE, UPC: 077745298016"
Food Group:  Branded Food Products Database
Common Name:

Nutrient,Unit,Data points,Std. Error,"1.5 cup = 100.0g",1Value per 100 g,
Proximates
"Energy",kcal,--,--,140,140
"Protein",g,--,--,7.00,7.00
"Total lipid (fat)",g,--,--,9.00,9.00
"Carbohydrate, by difference",g,--,--,9.00,9.00
"Fiber, total dietary",g,--,--,2.0,2.0
"Sugars, total",g,--,--,2.00,2.00
Minerals
"Calcium, Ca",mg,--,--,60,60
"Iron, Fe",mg,--,--,0.72,0.72
"Sodium, Na",mg,--,--,260,260
Vitamins
"Vitamin C, total ascorbic acid",mg,--,--,3.6,3.6
"Vitamin A, IU",IU,--,--,2250,2250
Lipids
"Fatty acids, total saturated",g,--,--,2.000,2.000
"Fatty acids, total trans",g,--,--,0.000,0.000
"Cholesterol",mg,--,--,20,20
Amino Acids
Other
Ingredients
"ROMAINE LETTUCE, WHITE MEAT CHICKEN (CHICKEN BREAST WITH RIB MEAT, WATER, SEASONING [MODIFIED TAPIOCA STARCH, WHEY PROTEIN CONCENTRATE, CARRAGEENAN, SODIUM CITRATE], SEASONING [ONION AND GARLIC POWDER, SPICES, HYDROLYZED CORN PROTEIN], SODIUM PHOSPHATES, SALT), SALSA RANCH DRESSING (SALSA [TOMATOES, ONIONS, CHILIES, GARLIC, SALT, CILANTRO, CITRIC ACID, XANTHAN GUM], VEGETABLE OIL [SOYBEAN AND/OR CANOLA OIL], BUTTERMILK [CULTURED SKIM MILK, BUTTERFAT, SALT], SUGAR, WATER, WHITE WINE VINEGAR, SALT, EGG YOLKS, NATURAL AND ARTIFICIAL FLAVORS, JALAPENO PEPPERS, DISTILLED VINEGAR, DEHYDRATED GARLIC, LEMON JUICE CONCENTRATE, EXTRACTIVE OF RICE, XANTHAN GUM, SPICES [INCLUDING CUMIN AND MUSTARD], PHOSPHORIC ACID, POLYSORBATE 60, SODIUM BENZOATE [AS A PRESERVATIVE], POTASSIUM SORBATE [AS A PRESERVATIVE], DEHYDRATED PARSLEY, CITRIC ACID, CALCIUM DISODIUM EDTA [TO PROTECT FLAVOR]), CORN, BLACK BEANS, CHEESE BLEND (MONTEREY JACK AND QUESO QUESADILLA CHEESE [PASTEURIZED MILK, CHEESE CULTURE, SALT, ENZYMES], ASADERO AND CHEDDAR CHEESE [PASTEURIZED MILK, CHEESE CULTURE, SALT, ENZYMES, ANNATTO (VEGETABLE COLOR)], POTATO STARCH AND POWDERED CELLULOSE [TO PREVENT CAKING], NATAMYCIN [A NATURAL MOLD INHIBITOR]), TRI-COLOR TORTILLA STRIPS (CORN MASA FLOUR, SUNFLOWER, SAFFLOWER, AND/OR CANOLA OIL, SEASONING [WHEY, SOUR CREAM SOLIDS {CREAM, NONFAT MILK CULTURES}, CHEDDAR CHEESE {MILK, SALT, CHEESE CULTURES, ENZYMES}, SEA SALT, MILK, CITRIC ACID, BUTTERMILK, SPICES, TOMATO POWDER, PARTIALLY HYDROGENATED SOYBEAN OIL, PAPRIKA {COLOR}, ONION POWDER, CHILI PEPPER, SODIUM CASEINATE, CORN SYRUP SOLIDS, GARLIC POWDER, LACTOSE, LACTIC ACID, LIME JUICE SOLIDS, MODIFIED FOOD STARCH, EXTRACTIVE OF PAPRIKA {COLOR}, NATURAL FLAVORS], RED 40, BLUE 1, BLUE 2)." Date available: 10/04/2017 Date last updated by company: 10/04/2017
