Source: USDA Branded Food Products Database Release December 2017 Software v.3.8.6.4 2017-10-02
Report Run at: December 17, 2017 17:32 EST
"Nutrient data for: 45281496, SALAD DRESSING, UPC: 075450035032"
Food Group:  Branded Food Products Database
Common Name:

Nutrient,Unit,Data points,Std. Error,"2.0 Tbsp = 29.0g",1Value per 100 g,
Proximates
"Energy",kcal,--,--,120,414
"Protein",g,--,--,0.00,0.00
"Total lipid (fat)",g,--,--,12.00,41.38
"Carbohydrate, by difference",g,--,--,2.00,6.90
"Fiber, total dietary",g,--,--,0.0,0.0
"Sugars, total",g,--,--,1.00,3.45
Minerals
"Calcium, Ca",mg,--,--,0,0
"Iron, Fe",mg,--,--,0.00,0.00
"Sodium, Na",mg,--,--,240,828
Vitamins
"Vitamin C, total ascorbic acid",mg,--,--,0.0,0.0
"Vitamin A, IU",IU,--,--,0,0
Lipids
"Fatty acids, total saturated",g,--,--,2.001,6.900
"Fatty acids, total trans",g,--,--,0.000,0.000
"Cholesterol",mg,--,--,10,34
Amino Acids
Other
Ingredients
"SOYBEAN OIL, WATER, VINEGAR, EGG YOLKS, SUGAR, CONTAINS LESS THAN 2% OF: SALT, NATURAL FLAVORS, DRIED GARLIC, MODIFIED FOOD STARCH, DRIED BUTTERMILK, PHOSPHORIC ACID, DRIED ONION, MONOSODIUM GLUTAMATE, XANTHAN GUM, DISODIUM PHOSPHATE, DRIED WHEY, SPICES, SORBIC ACID AND CALCIUM DISODIUM EDTA AS PERSERVATIVES, NONFAT DRY MILK, DISODIUM GUANYLATE AND DISODIUM INOSINATE, POLYSORBATE 60, DRIED PARSLEY." Date available: 07/14/2017 Date last updated by company: 07/14/2017
