Source: USDA Branded Food Products Database Release December 2017 Software v.3.8.6.4 2017-10-02
Report Run at: December 17, 2017 17:31 EST
"Nutrient data for: 45199026, SALAD DRESSING, UPC: 086824100232"
Food Group:  Branded Food Products Database
Common Name:

Nutrient,Unit,Data points,Std. Error,"2.0 Tbsp = 28.0g",1Value per 100 g,
Proximates
"Energy",kcal,--,--,150,536
"Protein",g,--,--,0.00,0.00
"Total lipid (fat)",g,--,--,16.00,57.14
"Carbohydrate, by difference",g,--,--,2.00,7.14
"Fiber, total dietary",g,--,--,0.0,0.0
"Sugars, total",g,--,--,1.00,3.57
Minerals
"Calcium, Ca",mg,--,--,0,0
"Iron, Fe",mg,--,--,0.00,0.00
"Sodium, Na",mg,--,--,190,679
Vitamins
"Vitamin C, total ascorbic acid",mg,--,--,0.0,0.0
"Vitamin A, IU",IU,--,--,0,0
Lipids
"Fatty acids, total saturated",g,--,--,1.999,7.140
"Fatty acids, total trans",g,--,--,0.000,0.000
"Cholesterol",mg,--,--,25,89
Amino Acids
Other
Ingredients
"SOYBEAN OIL, WATER, EGG YOLK, SUGAR, DISTILLED VINEGAR, SALT, MUSTARD, NATURAL, FLAVORS, CITRIC ACID, LEMON, PARMESAN CHEESE (SKIM MILK, SALT, CULTURES, AND ENZYMES), VINEGAR POWDER (MALTODEXTRIN, MODIFIED FOOD STARCH, VINEGAR), SUGAR, MUSTARD POWDER, MUSTARD (DISTILLED VINEGAR, WATER, MUSTARD SEED, SALT, TURMERIC), MALTODEXTRIN, GARLIC POWDER, PAPRIKA (COLOR), MUSTARD FLAVOR (MONO AND DIGLYCERIDES, OLEORESIN MUSTARD, MUSTARD OIL), OLEORESIN TUMERIC (COLOR) AND LESS THAN 2% SILICON DIOXIDE ADDED TO PREVENT CAKING." Date available: 07/14/2017 Date last updated by company: 07/14/2017
