Source: USDA Branded Food Products Database Release December 2017 Software v.3.8.6.4 2017-10-02
Report Run at: December 17, 2017 17:36 EST
"Nutrient data for: 45023364, SALAMIDA, PINCH, CAJUN SPICE BLEND, UPC: 033481654325"
Food Group:  Branded Food Products Database
Common Name:

Nutrient,Unit,Data points,Std. Error,"0.25 tsp = 0.8g",1Value per 100 g,
Proximates
"Energy",kcal,--,--,0,0
"Protein",g,--,--,0.00,0.00
"Total lipid (fat)",g,--,--,0.00,0.00
"Carbohydrate, by difference",g,--,--,0.00,0.00
Minerals
"Sodium, Na",mg,--,--,130,16250
Vitamins
Lipids
"Fatty acids, total saturated",g,--,--,0.000,0.000
Amino Acids
Other
Ingredients
"SALT, PEPPER, DEHYDRATED GARLIC, CAYENNE PEPPER, SPICES, PAPRIKA, MONOSODIUM GLUTAMATE (LESS THAN 2%), SILICON DIOXIDE (PREVENTS CAKING)." Date available: 07/14/2017 Date last updated by company: 07/14/2017
