Source: USDA Branded Food Products Database Release December 2017 Software v.3.8.6.4 2017-10-02
Report Run at: December 17, 2017 17:37 EST
"Nutrient data for: 45206211, SALERNO'S, GOURMET ARRABBIATA SAUCE, UPC: 861264000027"
Food Group:  Branded Food Products Database
Common Name:

Nutrient,Unit,Data points,Std. Error,"4.0 ONZ = 113.0g",1Value per 100 g,
Proximates
"Energy",kcal,--,--,99,88
"Protein",g,--,--,0.99,0.88
"Total lipid (fat)",g,--,--,6.99,6.19
"Carbohydrate, by difference",g,--,--,6.99,6.19
"Fiber, total dietary",g,--,--,2.0,1.8
"Sugars, total",g,--,--,2.99,2.65
Minerals
"Calcium, Ca",mg,--,--,20,18
"Iron, Fe",mg,--,--,0.72,0.64
"Sodium, Na",mg,--,--,510,451
Vitamins
"Vitamin C, total ascorbic acid",mg,--,--,12.0,10.6
"Vitamin A, IU",IU,--,--,299,265
Lipids
"Fatty acids, total saturated",g,--,--,0.994,0.880
"Fatty acids, total trans",g,--,--,0.000,0.000
"Cholesterol",mg,--,--,0,0
Amino Acids
Other
Ingredients
"TOMATOES,100% OLIVE OIL, GARLIC, IMPORTED AGED BALSAMIC VINEGAR, CHIPOTLE PEPPERS, AND FRESH, ORGANIC HERBS." Date available: 07/14/2017 Date last updated by company: 07/14/2017
