Source: USDA Branded Food Products Database Release December 2017 Software v.3.8.6.4 2017-10-02
Report Run at: December 17, 2017 17:38 EST
"Nutrient data for: 45205616, SALLIE'S GREATEST, BLUEBERRY LEMON + THYME JAM, UPC: 728028065923"
Food Group:  Branded Food Products Database
Common Name:

Nutrient,Unit,Data points,Std. Error,"1 Tbsp = 15.0g",1Value per 100 g,
Proximates
"Energy",kcal,--,--,45,300
"Protein",g,--,--,0.00,0.00
"Total lipid (fat)",g,--,--,0.00,0.00
"Carbohydrate, by difference",g,--,--,12.00,80.00
"Sugars, total",g,--,--,10.00,66.67
Minerals
"Iron, Fe",mg,--,--,0.61,4.06
"Sodium, Na",mg,--,--,5,33
Vitamins
"Vitamin C, total ascorbic acid",mg,--,--,4.0,27.0
Lipids
Amino Acids
Other
Ingredients
"ALL NATURAL CANE SUGAR, BLUEBERRIES, PECTIN (DEXTROSE, PECTIN AND FUMARIC ACID), LEMON JUICE (WATER, LEMON JUICE CONCENTRATE), THYME, LEMON ZEST." Date available: 07/14/2017 Date last updated by company: 07/14/2017
