Source: USDA Branded Food Products Database Release December 2017 Software v.3.8.6.4 2017-10-02
Report Run at: December 17, 2017 17:39 EST
"Nutrient data for: 45330623, SALMON JERKY, UPC: 017082882684"
Food Group:  Branded Food Products Database
Common Name:

Nutrient,Unit,Data points,Std. Error,"3.0 PIECES | ABOUT = 28.0g",1Value per 100 g,
Proximates
"Energy",kcal,--,--,80,286
"Protein",g,--,--,11.00,39.29
"Total lipid (fat)",g,--,--,1.50,5.36
"Carbohydrate, by difference",g,--,--,6.00,21.43
"Fiber, total dietary",g,--,--,0.0,0.0
"Sugars, total",g,--,--,6.00,21.43
Minerals
"Calcium, Ca",mg,--,--,0,0
"Iron, Fe",mg,--,--,0.00,0.00
"Potassium, K",mg,--,--,140,500
"Sodium, Na",mg,--,--,490,1750
Vitamins
Lipids
"Fatty acids, total saturated",g,--,--,0.000,0.000
"Fatty acids, total monounsaturated",g,--,--,0.501,1.790
"Fatty acids, total polyunsaturated",g,--,--,0.000,0.000
"Fatty acids, total trans",g,--,--,0.000,0.000
"Cholesterol",mg,--,--,25,89
Amino Acids
Other
Ingredients
"SOCKEYE SALMON, CANE SUGAR, SEA SALT, CONTAINS 2% OR LESS OF: SOY SAUCE ([SOYBEANS, SALT, VINEGAR], MALTODEXTRIN, SALT), YEAST EXTRACT, GARLIC POWDER, NATURAL FLAVORS, SPICES, ONION POWDER, NATURAL WOOD SMOKE." Date available: 10/13/2017 Date last updated by company: 10/13/2017
