Source: USDA Branded Food Products Database Release December 2017 Software v.3.8.6.4 2017-10-02
Report Run at: December 17, 2017 17:38 EST
"Nutrient data for: 45330601, SALMON BURGERS, UPC: 728575201201"
Food Group:  Branded Food Products Database
Common Name:

Nutrient,Unit,Data points,Std. Error,"4.0 ONZ = 113.0g",1Value per 100 g,
Proximates
"Energy",kcal,--,--,130,115
"Protein",g,--,--,16.00,14.16
"Total lipid (fat)",g,--,--,4.99,4.42
"Carbohydrate, by difference",g,--,--,6.00,5.31
"Fiber, total dietary",g,--,--,2.0,1.8
"Sugars, total",g,--,--,2.99,2.65
Minerals
"Calcium, Ca",mg,--,--,40,35
"Iron, Fe",mg,--,--,0.81,0.72
"Sodium, Na",mg,--,--,280,248
Vitamins
"Vitamin D",IU,--,--,280,248
Lipids
"Fatty acids, total saturated",g,--,--,0.994,0.880
"Fatty acids, total trans",g,--,--,0.000,0.000
"Cholesterol",mg,--,--,31,27
Amino Acids
Other
Ingredients
"SALMON, CARROT, KALE, ONION, RED BELL PEPPER, BROWN SUGAR, DEHYDRATED GARLIC, SPICES, SOY SAUCE (WHEAT, SOYBEANS, SALT), DEHYDRATED ONION, FRUCTOSE, MALTODEXTRIN, MODIFIED CORN STARCH, SALT, SESAME SEEDS, DEHYDRATED RED BELL PEPPER, PINEAPPLE JUICE SOLIDS, NATURAL FLAVORS, CALCIUM SILICATE AND RICE CONCENTRATE (TO PREVENT CAKING)." Date available: 10/13/2017 Date last updated by company: 10/13/2017
