Source: USDA Branded Food Products Database Release December 2017 Software v.3.8.6.4 2017-10-02
Report Run at: December 17, 2017 17:39 EST
"Nutrient data for: 45225869, SALMON FILLETS, UPC: 075391029428"
Food Group:  Branded Food Products Database
Common Name:

Nutrient,Unit,Data points,Std. Error,"1 FILLET) | RAW (APPROX. = 113.0g",1Value per 100 g,
Proximates
"Energy",kcal,--,--,99,88
"Protein",g,--,--,19.00,16.81
"Total lipid (fat)",g,--,--,2.50,2.21
"Carbohydrate, by difference",g,--,--,0.00,0.00
"Fiber, total dietary",g,--,--,0.0,0.0
"Sugars, total",g,--,--,0.00,0.00
Minerals
"Calcium, Ca",mg,--,--,0,0
"Iron, Fe",mg,--,--,0.54,0.48
"Potassium, K",mg,--,--,0,0
"Sodium, Na",mg,--,--,250,221
Vitamins
"Vitamin C, total ascorbic acid",mg,--,--,0.0,0.0
"Vitamin A, IU",IU,--,--,0,0
Lipids
"Fatty acids, total saturated",g,--,--,0.497,0.440
"Fatty acids, total trans",g,--,--,0.000,0.000
"Cholesterol",mg,--,--,45,40
Amino Acids
Other
Ingredients
"SALMON FILLETS, SODIUM TRIPOLYPHOSPHATE (ADDED TO RETAIN MOISTURE)." Date available: 07/14/2017 Date last updated by company: 07/14/2017
