Source: USDA Branded Food Products Database Release December 2017 Software v.3.8.6.4 2017-10-02
Report Run at: December 17, 2017 17:40 EST
"Nutrient data for: 45030000, SALO BAHIA, IODIZED SEA SALT FINE CRYSTALS, UPC: 899793002007"
Food Group:  Branded Food Products Database
Common Name:

Nutrient,Unit,Data points,Std. Error,"0.25 tsp = 1.5g",1Value per 100 g,
Proximates
"Energy",kcal,--,--,0,0
"Protein",g,--,--,0.00,0.00
"Total lipid (fat)",g,--,--,0.00,0.00
"Carbohydrate, by difference",g,--,--,0.00,0.00
Minerals
"Sodium, Na",mg,--,--,590,39333
Vitamins
Lipids
Amino Acids
Other
Ingredients
"SALT, POTASSIUM IODIDE, SODIUM THIOSULFATE, YELLOW PRUSIATE OF SODA (ANTICAKING), PRECIPITATED SILICA (FREE FLOWING)." Date available: 07/14/2017 Date last updated by company: 07/14/2017
