Source: USDA Branded Food Products Database Release December 2017 Software v.3.8.6.4 2017-10-02
Report Run at: December 17, 2017 17:44 EST
"Nutrient data for: 45325759, SALSA STARTER, UPC: 787359133114"
Food Group:  Branded Food Products Database
Common Name:

Nutrient,Unit,Data points,Std. Error,"0.5 tsp = 3.0g",1Value per 100 g,
Proximates
"Energy",kcal,--,--,10,333
"Protein",g,--,--,0.00,0.00
"Total lipid (fat)",g,--,--,0.00,0.00
"Carbohydrate, by difference",g,--,--,0.00,0.00
Minerals
"Sodium, Na",mg,--,--,100,3333
Vitamins
Lipids
Amino Acids
Other
Ingredients
"TOMATO PASTE, RED ONION, CILANTRO, LIME JUICE CONCENTRATE, JALAPENO, CANOLA OIL, LIME, SUGAR, SALT, ACETIC ACID, SPICE, RED CHILI PEPPER, XANTHAN GUM, POTASSIUM SORBATE (PRESERVATIVE)." Date available: 08/11/2017 Date last updated by company: 08/11/2017
