Source: USDA Branded Food Products Database Release December 2017 Software v.3.8.6.4 2017-10-02
Report Run at: December 17, 2017 17:48 EST
"Nutrient data for: 45201675, SALSA, UPC: 81166302126"
Food Group:  Branded Food Products Database
Common Name:

Nutrient,Unit,Data points,Std. Error,"2.0 Tbsp = 30.0g",1Value per 100 g,
Proximates
"Energy",kcal,--,--,10,33
"Protein",g,--,--,0.00,0.00
"Total lipid (fat)",g,--,--,0.00,0.00
"Carbohydrate, by difference",g,--,--,3.00,10.00
"Fiber, total dietary",g,--,--,0.0,0.0
"Sugars, total",g,--,--,1.00,3.33
Minerals
"Calcium, Ca",mg,--,--,0,0
"Iron, Fe",mg,--,--,0.00,0.00
"Sodium, Na",mg,--,--,110,367
Vitamins
"Vitamin C, total ascorbic acid",mg,--,--,8.0,26.7
"Vitamin A, IU",IU,--,--,166,555
Lipids
"Fatty acids, total saturated",g,--,--,0.000,0.000
"Fatty acids, total trans",g,--,--,0.000,0.000
"Cholesterol",mg,--,--,0,0
Amino Acids
Other
Ingredients
"TOMATOES (VINE RIPENED TOMATOES, TOMATO JUICE, SALT, CALCIUM CHLORIDE, CITRIC ACID), CRUSHED TOMATOES (VINE RIPENED TOMATOES), JALAPENO, ONION, GREEN BELL PEPPERS, SERRANO PEPPERS, RED BELL PEPPERS, DISTILLED WHITE VINEGAR, CILANTRO, CHIPOTLE SAUCE (CHIPOTLE PEPPERS, WATER, TOMATO PUREE, VINEGAR, SALT, SUGAR, GARLIC, SOYBEAN OIL), GARLIC, SUGAR, CORN STARCH, KOSHER SALT, CUMIN, CITRIC ACID, XANTHAN GUM, OREGANO." Date available: 07/14/2017 Date last updated by company: 07/14/2017
