Source: USDA Branded Food Products Database Release December 2017 Software v.3.8.6.4 2017-10-02
Report Run at: December 17, 2017 17:51 EST
"Nutrient data for: 45285571, SALSA, UPC: 850450005052"
Food Group:  Branded Food Products Database
Common Name:

Nutrient,Unit,Data points,Std. Error,"2.0 Tbsp = 30.0g",1Value per 100 g,
Proximates
"Energy",kcal,--,--,5,17
"Protein",g,--,--,0.00,0.00
"Total lipid (fat)",g,--,--,0.00,0.00
"Carbohydrate, by difference",g,--,--,1.00,3.33
"Sugars, total",g,--,--,1.00,3.33
Minerals
"Sodium, Na",mg,--,--,150,500
Vitamins
"Vitamin C, total ascorbic acid",mg,--,--,8.0,26.7
"Vitamin A, IU",IU,--,--,166,555
Lipids
Amino Acids
Other
Ingredients
"TOMATO, TOMATO JUICE (WATER AND CONCENTRATE JUICE OF TOMATOES), SALT, VITAMIN C (ASCORBIC ACID), ONION, JALAPENO PEPPER, CILANTRO, GARLIC." Date available: 07/14/2017 Date last updated by company: 07/14/2017
