Source: USDA Branded Food Products Database Release December 2017 Software v.3.8.6.4 2017-10-02
Report Run at: December 17, 2017 17:48 EST
"Nutrient data for: 45201414, SALSA, UPC: 780994790568"
Food Group:  Branded Food Products Database
Common Name:

Nutrient,Unit,Data points,Std. Error,"2.0 Tbsp = 32.0g",1Value per 100 g,
Proximates
"Energy",kcal,--,--,15,47
"Protein",g,--,--,1.00,3.12
"Total lipid (fat)",g,--,--,0.00,0.00
"Carbohydrate, by difference",g,--,--,2.00,6.25
"Fiber, total dietary",g,--,--,1.0,3.1
"Sugars, total",g,--,--,1.00,3.12
Minerals
"Calcium, Ca",mg,--,--,20,62
"Iron, Fe",mg,--,--,0.56,1.75
"Sodium, Na",mg,--,--,210,656
Vitamins
"Vitamin C, total ascorbic acid",mg,--,--,3.7,11.7
"Vitamin A, IU",IU,--,--,0,0
Lipids
"Fatty acids, total saturated",g,--,--,0.000,0.000
"Fatty acids, total trans",g,--,--,0.000,0.000
"Cholesterol",mg,--,--,0,0
Amino Acids
Other
Ingredients
"TOMATOES, WATER, BLACK BEANS, RED BELL PEPPER, ONIONS, CORN, GREEN CHILI PEPPERS, RED WINE VINEGAR (CONTAINS SULFITES), JALAPENO PEPPERS, SALT, FOOD STARCH MODIFIED, SPICES, CILANTRO." Date available: 07/14/2017 Date last updated by company: 07/14/2017
