Source: USDA Branded Food Products Database Release December 2017 Software v.3.8.6.4 2017-10-02
Report Run at: December 17, 2017 17:51 EST
"Nutrient data for: 45280486, SALSA, UPC: 041303006481"
Food Group:  Branded Food Products Database
Common Name:

Nutrient,Unit,Data points,Std. Error,"2.0 Tbsp = 29.0g",1Value per 100 g,
Proximates
"Energy",kcal,--,--,5,17
"Protein",g,--,--,0.00,0.00
"Total lipid (fat)",g,--,--,0.00,0.00
"Carbohydrate, by difference",g,--,--,1.00,3.45
"Fiber, total dietary",g,--,--,0.0,0.0
"Sugars, total",g,--,--,0.00,0.00
Minerals
"Calcium, Ca",mg,--,--,0,0
"Iron, Fe",mg,--,--,0.00,0.00
"Sodium, Na",mg,--,--,170,586
Vitamins
"Vitamin C, total ascorbic acid",mg,--,--,8.3,28.5
"Vitamin A, IU",IU,--,--,0,0
Lipids
"Fatty acids, total saturated",g,--,--,0.000,0.000
"Fatty acids, total trans",g,--,--,0.000,0.000
"Cholesterol",mg,--,--,0,0
Amino Acids
Other
Ingredients
"TOMATOES (TOMATOES, TOMATO JUICE), TOMATOES, CHILE (JALAPENO, ANAHEIM), ONIONS, LESS THAN 2% OF: SALT, PARSLEY, GARLIC POWDER, CITRIC ACID, VINEGAR, NATURAL FLAVOR, CALCIUM CHLORIDE, CILANTRO, XANTHAN GUM, SODIUM BENZOATE AND POTASSIUM SORBATE (ADDED TO MAINTAIN FRESHNESS)." Date available: 07/14/2017 Date last updated by company: 07/14/2017
