Source: USDA Branded Food Products Database Release December 2017 Software v.3.8.6.4 2017-10-02
Report Run at: December 17, 2017 17:42 EST
"Nutrient data for: 45269003, SALSA DE MOLCAJETE ROJA, UPC: 829793005487"
Food Group:  Branded Food Products Database
Common Name:

Nutrient,Unit,Data points,Std. Error,"2.0 Tbsp = 46.0g",1Value per 100 g,
Proximates
"Energy",kcal,--,--,10,22
"Protein",g,--,--,0.00,0.00
"Total lipid (fat)",g,--,--,0.00,0.00
"Carbohydrate, by difference",g,--,--,2.00,4.35
"Fiber, total dietary",g,--,--,1.0,2.2
"Sugars, total",g,--,--,1.00,2.17
Minerals
"Calcium, Ca",mg,--,--,0,0
"Iron, Fe",mg,--,--,0.00,0.00
"Sodium, Na",mg,--,--,190,413
Vitamins
"Vitamin C, total ascorbic acid",mg,--,--,13.1,28.4
"Vitamin A, IU",IU,--,--,435,946
Lipids
"Fatty acids, total saturated",g,--,--,0.000,0.000
"Fatty acids, total trans",g,--,--,0.000,0.000
"Cholesterol",mg,--,--,0,0
Amino Acids
Other
Ingredients
"ROASTED TOMATOES, ROASTED CHILI, SALT, WATER." Date available: 07/14/2017 Date last updated by company: 07/14/2017
