Source: USDA Branded Food Products Database Release December 2017 Software v.3.8.6.4 2017-10-02
Report Run at: December 17, 2017 17:48 EST
"Nutrient data for: 45202325, SALSA, UPC: 817071003089"
Food Group:  Branded Food Products Database
Common Name:

Nutrient,Unit,Data points,Std. Error,"1 ONZ = 30.0g",1Value per 100 g,
Proximates
"Energy",kcal,--,--,10,33
"Protein",g,--,--,0.00,0.00
"Total lipid (fat)",g,--,--,0.00,0.00
"Carbohydrate, by difference",g,--,--,2.00,6.67
"Fiber, total dietary",g,--,--,0.0,0.0
"Sugars, total",g,--,--,1.00,3.33
Minerals
"Calcium, Ca",mg,--,--,0,0
"Iron, Fe",mg,--,--,0.60,2.00
"Sodium, Na",mg,--,--,220,733
Vitamins
"Vitamin C, total ascorbic acid",mg,--,--,10.0,33.3
"Vitamin A, IU",IU,--,--,166,555
Lipids
"Fatty acids, total saturated",g,--,--,0.000,0.000
"Fatty acids, total trans",g,--,--,0.000,0.000
"Cholesterol",mg,--,--,0,0
Amino Acids
Other
Ingredients
"TOMATOES, TOMATO JUICE, ONION, PABLANO PEPPER, JALAPENO PEPPER, FRESH GARLIC, CILANTRO, WATER, LIME JUICE CONCENTRATE, SALT, GRANULATED GARLIC, CALCIUM CHLORIDE, COMINO, WHITE PEPPER, SODIUM BENZOATE, LIME OIL, SODIUM METABISULFITE, CITRIC ACID." Date available: 07/14/2017 Date last updated by company: 07/14/2017
