Source: USDA Branded Food Products Database Release December 2017 Software v.3.8.6.4 2017-10-02
Report Run at: December 17, 2017 17:46 EST
"Nutrient data for: 45081909, SALSA, UPC: 052334116605"
Food Group:  Branded Food Products Database
Common Name:

Nutrient,Unit,Data points,Std. Error,"2.0 Tbsp = 30.0g",1Value per 100 g,
Proximates
"Energy",kcal,--,--,10,33
"Protein",g,--,--,0.00,0.00
"Total lipid (fat)",g,--,--,0.00,0.00
"Carbohydrate, by difference",g,--,--,2.00,6.67
"Fiber, total dietary",g,--,--,1.0,3.3
"Sugars, total",g,--,--,1.00,3.33
Minerals
"Calcium, Ca",mg,--,--,0,0
"Iron, Fe",mg,--,--,0.00,0.00
"Sodium, Na",mg,--,--,160,533
Vitamins
"Vitamin C, total ascorbic acid",mg,--,--,6.0,20.0
"Vitamin A, IU",IU,--,--,500,1667
Lipids
"Fatty acids, total saturated",g,--,--,0.000,0.000
"Fatty acids, total trans",g,--,--,0.000,0.000
"Cholesterol",mg,--,--,0,0
Amino Acids
Other
Ingredients
"ORGANIC TOMATOES (ORGANIC TOMATOES, ORGANIC TOMATO JUICE, CITRIC ACID, CALCIUM CHLORIDE), ORGANIC TOMATO PUREE, WATER, ORGANIC APPLE CIDER VINEGAR, ORGANIC CILANTRO, ORGANIC ONION, ORGANIC JALAPENO PEPPERS, SEA SALT, ORGANIC CHILI FLAKES, ORGANIC GARLIC POWDER, ORGANIC CUMIN POWDER, ORGANIC CHILI POWDER." Date available: 06/25/2017 Date last updated by company: 06/25/2017
