Source: USDA Branded Food Products Database Release December 2017 Software v.3.8.6.4 2017-10-02
Report Run at: December 17, 2017 17:47 EST
"Nutrient data for: 45195091, SALSA, UPC: 040822341653"
Food Group:  Branded Food Products Database
Common Name:

Nutrient,Unit,Data points,Std. Error,"2.0 Tbsp = 31.0g",1Value per 100 g,
Proximates
"Energy",kcal,--,--,25,81
"Protein",g,--,--,0.00,0.00
"Total lipid (fat)",g,--,--,0.00,0.00
"Carbohydrate, by difference",g,--,--,6.00,19.35
"Fiber, total dietary",g,--,--,1.0,3.2
"Sugars, total",g,--,--,5.00,16.13
Minerals
"Calcium, Ca",mg,--,--,20,65
"Iron, Fe",mg,--,--,0.58,1.88
"Sodium, Na",mg,--,--,100,323
Vitamins
"Vitamin C, total ascorbic acid",mg,--,--,3.9,12.5
"Vitamin A, IU",IU,--,--,322,1040
Lipids
"Fatty acids, total saturated",g,--,--,0.000,0.000
"Fatty acids, total trans",g,--,--,0.000,0.000
"Cholesterol",mg,--,--,0,0
Amino Acids
Other
Ingredients
"TOMATOES, MANGOS, ASSORTED PEPPERS & CHILIES, WATER, EVAPORATED CANE SUGAR, ONION, PEACHES, TOMATO PUREE, CILANTRO, SALT, RED WINE VINEGAR, GARLIC, VINEGAR, POTASSIUM SORBATE ADDED TO MAINTAIN FRESHNESS, SPICES, CITRIC ACID, LEMON JUICE CONCENTRATE, XANTHAN GUM, NATURAL FLAVORS." Date available: 07/14/2017 Date last updated by company: 07/14/2017
