Source: USDA Branded Food Products Database Release December 2017 Software v.3.8.6.4 2017-10-02
Report Run at: December 17, 2017 17:56 EST
"Nutrient data for: 45212019, SALTED CARAMEL COOKIES, UPC: 654367550502"
Food Group:  Branded Food Products Database
Common Name:

Nutrient,Unit,Data points,Std. Error,"3.0 COOKIES = 28.0g",1Value per 100 g,
Proximates
"Energy",kcal,--,--,109,389
"Protein",g,--,--,1.00,3.57
"Total lipid (fat)",g,--,--,4.00,14.29
"Carbohydrate, by difference",g,--,--,17.00,60.71
"Fiber, total dietary",g,--,--,0.0,0.0
"Sugars, total",g,--,--,10.00,35.71
Minerals
"Calcium, Ca",mg,--,--,10,36
"Iron, Fe",mg,--,--,0.97,3.45
"Sodium, Na",mg,--,--,122,436
Vitamins
"Vitamin C, total ascorbic acid",mg,--,--,0.0,0.0
"Vitamin A, IU",IU,--,--,268,957
Lipids
"Fatty acids, total saturated",g,--,--,2.999,10.710
"Fatty acids, total trans",g,--,--,0.000,0.000
"Cholesterol",mg,--,--,11,39
Amino Acids
Other
Ingredients
"UNBLEACHED FLOUR (WHEAT AND BARLEY FLOUR, REDUCED IRON, THIAMINE MONONITRATE, RIBOFLAVIN, FOLIC ACID), CANE SUGAR, BUTTER (CREAM, SALT), EGGS, MOLASSES, VANILLA EXTRACT, SALT, BAKING POWDER (MONOCALCIUM PHOSPHATE, SODIUM BICARBONATE, NON-GMO CORN STARCH), BAKING SODA, CITRIC ACID." Date available: 07/14/2017 Date last updated by company: 07/14/2017
