Source: USDA Branded Food Products Database Release December 2017 Software v.3.8.6.4 2017-10-02
Report Run at: December 17, 2017 18:00 EST
"Nutrient data for: 45220754, SALTED, ROASTED SOY NUTS, UPC: 085239156209"
Food Group:  Branded Food Products Database
Common Name:

Nutrient,Unit,Data points,Std. Error,"0.333 cup = 32.0g",1Value per 100 g,
Proximates
"Energy",kcal,--,--,130,406
"Protein",g,--,--,13.00,40.62
"Total lipid (fat)",g,--,--,8.00,25.00
"Carbohydrate, by difference",g,--,--,9.00,28.12
"Fiber, total dietary",g,--,--,6.0,18.8
"Sugars, total",g,--,--,2.00,6.25
Minerals
"Calcium, Ca",mg,--,--,60,188
"Iron, Fe",mg,--,--,2.25,7.03
"Sodium, Na",mg,--,--,210,656
Vitamins
"Vitamin C, total ascorbic acid",mg,--,--,0.0,0.0
"Vitamin A, IU",IU,--,--,0,0
Lipids
"Fatty acids, total saturated",g,--,--,0.998,3.120
"Fatty acids, total trans",g,--,--,0.000,0.000
"Cholesterol",mg,--,--,0,0
Amino Acids
Other
Ingredients
"SOYBEANS, SUNFLOWER SEED OIL, SALT." Date available: 07/14/2017 Date last updated by company: 07/14/2017
