Source: USDA Branded Food Products Database Release December 2017 Software v.3.8.6.4 2017-10-02
Report Run at: December 17, 2017 18:00 EST
"Nutrient data for: 45153501, SALTED SUNFLOWER, UPC: 722648932214"
Food Group:  Branded Food Products Database
Common Name:

Nutrient,Unit,Data points,Std. Error,"0.25 cup = 34.0g",1Value per 100 g,
Proximates
"Energy",kcal,--,--,200,588
"Protein",g,--,--,7.00,20.59
"Total lipid (fat)",g,--,--,18.00,52.94
"Carbohydrate, by difference",g,--,--,8.00,23.53
"Fiber, total dietary",g,--,--,4.0,11.8
"Sugars, total",g,--,--,1.00,2.94
Minerals
"Calcium, Ca",mg,--,--,100,294
"Iron, Fe",mg,--,--,1.06,3.11
"Sodium, Na",mg,--,--,110,324
Vitamins
"Vitamin C, total ascorbic acid",mg,--,--,0.0,0.0
"Vitamin A, IU",IU,--,--,0,0
Lipids
"Fatty acids, total saturated",g,--,--,2.499,7.350
"Fatty acids, total trans",g,--,--,0.000,0.000
"Cholesterol",mg,--,--,0,0
Amino Acids
Other
Ingredients
"SUNFLOWER KERNELS, COTTONSEED AND PEANUT AND COCONUT OILS, SALT." Date available: 07/14/2017 Date last updated by company: 07/14/2017
