Source: USDA Branded Food Products Database Release December 2017 Software v.3.8.6.4 2017-10-02
Report Run at: December 17, 2017 17:57 EST
"Nutrient data for: 45196885, SALTED CHOCOLATE CARAMEL SAUCE, UPC: 089036795005"
Food Group:  Branded Food Products Database
Common Name:

Nutrient,Unit,Data points,Std. Error,"30.0 ML) | ( = 1.0g",1Value per 100 g,
Proximates
"Energy",kcal,--,--,3,333
"Protein",g,--,--,0.03,3.33
"Total lipid (fat)",g,--,--,0.00,0.00
"Carbohydrate, by difference",g,--,--,0.83,83.33
"Sugars, total",g,--,--,0.70,70.00
Minerals
"Iron, Fe",mg,--,--,0.06,6.08
"Sodium, Na",mg,--,--,4,350
Vitamins
Lipids
"Fatty acids, total trans",g,--,--,0.000,0.000
"Cholesterol",mg,--,--,0,0
Amino Acids
Other
Ingredients
"SUGAR, WATER, CORN SYRUP, COCOA (PROCESSED WITH ALKALI), SWEETENED CONDENSED SKIM MILK, SEA SALT, NATURAL FLAVORS, POTASSIUM SORBATE (TO PRESERVE FRESHNESS), CHOCOLATE LIQUOR, CITRIC ACID, CARRAGEENAN GUM." Date available: 07/14/2017 Date last updated by company: 07/14/2017
