Source: USDA Branded Food Products Database Release December 2017 Software v.3.8.6.4 2017-10-02
Report Run at: December 17, 2017 17:53 EST
"Nutrient data for: 45147239, SALTED ALMOND DARK CHOCOLATE BAR, UPC: 046567034034"
Food Group:  Branded Food Products Database
Common Name:

Nutrient,Unit,Data points,Std. Error,"0.5 BAR = 43.0g",1Value per 100 g,
Proximates
"Energy",kcal,--,--,230,535
"Protein",g,--,--,3.00,6.98
"Total lipid (fat)",g,--,--,15.00,34.88
"Carbohydrate, by difference",g,--,--,20.00,46.51
"Fiber, total dietary",g,--,--,3.0,7.0
"Sugars, total",g,--,--,17.00,39.53
Minerals
"Calcium, Ca",mg,--,--,20,47
"Iron, Fe",mg,--,--,0.42,0.98
"Sodium, Na",mg,--,--,220,512
Vitamins
"Vitamin C, total ascorbic acid",mg,--,--,0.0,0.0
"Vitamin A, IU",IU,--,--,0,0
Lipids
"Fatty acids, total saturated",g,--,--,7.998,18.600
"Fatty acids, total trans",g,--,--,0.000,0.000
"Cholesterol",mg,--,--,0,0
Amino Acids
Other
Ingredients
"DARK CHOCOLATE (COCOA MASS, SUGAR, COCOA BUTTER, SOY LECITHIN [EMULSIFIER], AND NATURAL VANILLA EXTRACT), ROASTED ALMOND BITS, SEA SALT." Date available: 07/14/2017 Date last updated by company: 07/14/2017
