Source: USDA Branded Food Products Database Release December 2017 Software v.3.8.6.4 2017-10-02
Report Run at: December 17, 2017 18:06 EST
"Nutrient data for: 45102532, SALVADORAN STYLE SOUR CREAM, UPC: 074562002031"
Food Group:  Branded Food Products Database
Common Name:

Nutrient,Unit,Data points,Std. Error,"2.0 Tbsp = 30.0g",1Value per 100 g,
Proximates
"Energy",kcal,--,--,60,200
"Protein",g,--,--,1.00,3.33
"Total lipid (fat)",g,--,--,6.00,20.00
"Carbohydrate, by difference",g,--,--,1.00,3.33
"Fiber, total dietary",g,--,--,0.0,0.0
"Sugars, total",g,--,--,1.00,3.33
Minerals
"Calcium, Ca",mg,--,--,20,67
"Iron, Fe",mg,--,--,0.00,0.00
"Sodium, Na",mg,--,--,100,333
Vitamins
"Vitamin C, total ascorbic acid",mg,--,--,0.0,0.0
"Vitamin A, IU",IU,--,--,334,1112
Lipids
"Fatty acids, total saturated",g,--,--,3.501,11.670
"Fatty acids, total trans",g,--,--,0.000,0.000
"Cholesterol",mg,--,--,25,83
Amino Acids
Other
Ingredients
"CULTURED PASTEURIZED GRADE A CREAM, MILK AND WHEY PROTEIN CONCENTRATE, SEA SALT, CARRAGEENAN, NATURAL FLAVOR, POTASSIUM SORBATE (TO MAINTAIN FRESHNESS), XANTHAN GUM AND ANNATTO EXTRACT (FOR COLOR)." Date available: 09/23/2017 Date last updated by company: 09/23/2017
