Source: USDA Branded Food Products Database Release December 2017 Software v.3.8.6.4 2017-10-02
Report Run at: December 17, 2017 18:09 EST
"Nutrient data for: 45040722, SAM'S CHOICE, PERSONAL DOUBLE PEPPERONI PIZZA, UPC: 078742108995"
Food Group:  Branded Food Products Database
Common Name:

Nutrient,Unit,Data points,Std. Error,"1 PIZZA = 235.0g",1Value per 100 g,
Proximates
"Energy",kcal,--,--,670,285
"Protein",g,--,--,27.99,11.91
"Total lipid (fat)",g,--,--,38.00,16.17
"Carbohydrate, by difference",g,--,--,50.99,21.70
"Fiber, total dietary",g,--,--,2.1,0.9
"Sugars, total",g,--,--,5.01,2.13
Minerals
"Calcium, Ca",mg,--,--,400,170
"Iron, Fe",mg,--,--,2.98,1.27
"Potassium, K",mg,--,--,421,179
"Sodium, Na",mg,--,--,1711,728
Vitamins
"Vitamin C, total ascorbic acid",mg,--,--,7.5,3.2
"Vitamin A, IU",IU,--,--,623,265
Lipids
"Fatty acids, total saturated",g,--,--,18.001,7.660
"Fatty acids, total monounsaturated",g,--,--,14.006,5.960
"Fatty acids, total polyunsaturated",g,--,--,3.501,1.490
"Fatty acids, total trans",g,--,--,1.010,0.430
"Cholesterol",mg,--,--,80,34
Amino Acids
Other
Ingredients
"CRUST (BLEACHED FLOUR [WHEAT FLOUR, MALTED BARLEY FLOUR], WATER, SHORTENING FLAKES [PALM OIL, SOY LECITHIN, NATURAL BUTTER FLAVOR], SUGAR, YEAST, SWEET DAIRY WHEY, SALT, SOYBEAN OIL, DISTILLED MONOGLYCERIDES [MONOGLYCERIDES, ASCORBIC ACID AND CITRIC ACID [PRESERVATIVES], DOUGH CONDITIONER [SOY FLOUR, DEXTROSE, CALCIUM SULFATE, SODIUM STEAROYL LACTYLATE, WHEAT FLOUR, TRICALCIUM PHOSPHATE, FUNGAL ENZYMES, ASCORBIC ACID), DOUGH CONDITIONER [WHEY, AMMONIUM SULFATE, L-CRYSTEINE], ENRICHMENT [WHEAT STARCH, NIACIN, REDUCED IRON, THIAMINE MONONITRATE, RIBOFLAVIN, FOLIC ACID, SILICON DIOXIDE {FLOW AID}]), SAUCE (DICED TOMATOES [TOMATOES, TOMATO JUICE, CITRIC ACID, CALCIUM CHLORIDE], WATER, TOMATO PASTE, HIGH FRUCTOSE CORN SYRUP, MODIFIED CORNSTARCH, BLEND OF ROMANO AND PARMESAN CHEESE [PASTEURIZED PART-SKIM COW'S MILK, CHEESE CULTURES, SALT, ENZYMES], SALT, CITRIC ACID, SPICES, SODIUM BENZOATE AND POTASSIUM SORBATE [PRESERVATIVES],GARLIC POWDER, ONION POWDER), PEPPERONI (PORK AND BEEF, SALT, SPICES, DEXTROSE, LACTIC ACID STARTER CULTURE, OLEORESIN OF PAPRIKA, FLAVORING, SODIUM ASCORBATE, SODIUM NITRATE, BHA, BHT, CITRIC ACID), WHOLE MILK MOZZARELLA CHEESE (PASTEURIZED MILK, CHEESE CULTURE, SALT, ENZYMES), PROVOLONE CHEESE (PASTEURIZED MILK, CHEESE CULTURE, SALT, ENZYMES), CONTAINS 2% OR LESS OF: GARLIC, PARMESAN CHEESE ([PASTEURIZED PART-SKIM MILK, CHEESE CULTURE, SALT, ENZYMES], POWDERED CELLULOSE [ANTI-CAKING AGENT]), ROMANO CHEESE ([PASTEURIZED PART-SKIM COW'S MILK, CHEESE CULTURE, SALT, ENZYMES], POWDERED CELLULOSE [ANTI-CAKING AGENT]), DEHYDRATED GARLIC, DRIED PARSLEY, DRIED OREGANO, DRIED BASIL." Date available: 06/24/2017 Date last updated by company: 06/24/2017
