Source: USDA Branded Food Products Database Release December 2017 Software v.3.8.6.4 2017-10-02
Report Run at: December 17, 2017 18:24 EST
"Nutrient data for: 45193113, SAN-LUIS, HOT SAUCE, UPC: 711410003023"
Food Group:  Branded Food Products Database
Common Name:

Nutrient,Unit,Data points,Std. Error,"1 tsp = 5.0g",1Value per 100 g,
Proximates
"Energy",kcal,--,--,0,0
"Protein",g,--,--,0.00,0.00
"Total lipid (fat)",g,--,--,0.00,0.00
"Carbohydrate, by difference",g,--,--,0.00,0.00
"Sugars, total",g,--,--,0.00,0.00
Minerals
"Sodium, Na",mg,--,--,107,2140
Vitamins
Lipids
Amino Acids
Other
Ingredients
"WATER, SALT, ARBOL, CASCABEL, AND PUYA PEPPERS, FIBER, ACETIC ACID, XANTHAN GUM, CARBOXINETIL-CELLULOSE (CMC), POTASSIUM SORBATE, AND SODIUM BENZOATE (PRESERVATIVE), GARLIC POWDER, SPICES, ARTIFICIAL COLORS FD &C RED NO. 40 AND FD&C YELLOW NO. 5." Date available: 06/25/2017 Date last updated by company: 06/25/2017
