Source: USDA Branded Food Products Database Release December 2017 Software v.3.8.6.4 2017-10-02
Report Run at: December 17, 2017 18:21 EST
"Nutrient data for: 45283409, SANDWICH, UPC: 070640310500"
Food Group:  Branded Food Products Database
Common Name:

Nutrient,Unit,Data points,Std. Error,"1 SANDWICH = 114.0g",1Value per 100 g,
Proximates
"Energy",kcal,--,--,280,246
"Protein",g,--,--,5.00,4.39
"Total lipid (fat)",g,--,--,8.00,7.02
"Carbohydrate, by difference",g,--,--,47.00,41.23
"Fiber, total dietary",g,--,--,2.1,1.8
"Sugars, total",g,--,--,29.00,25.44
Minerals
"Calcium, Ca",mg,--,--,150,132
"Iron, Fe",mg,--,--,1.44,1.26
"Potassium, K",mg,--,--,310,272
"Sodium, Na",mg,--,--,210,184
Vitamins
"Vitamin C, total ascorbic acid",mg,--,--,0.0,0.0
"Vitamin A, IU",IU,--,--,400,351
Lipids
"Fatty acids, total saturated",g,--,--,5.005,4.390
"Fatty acids, total trans",g,--,--,0.000,0.000
"Cholesterol",mg,--,--,25,22
Amino Acids
Other
Ingredients
"REDUCED FAT ICE CREAM [MILK, CREAM, FUDGE SAUCE {HIGH FRUCTOSE CORN SYRUP, SWEETENED CONDENSED SKIM MILK (SKIM MILK, SUGAR, CORN SYRUP), BUTTER (CREAM, SALT), WATER, COCOA PROCESSED WITH ALKALI, CHOCOLATE LIQUOR, CONTAINS 2% OF LESS OF SUGAR, MONO AND DIGLYCERIDES, SALT, XANTHAN GUM, ARTIFICIAL FLAVORS}, SUGAR, CORN SYRUP, SKIM MILK, WHEY, BUTTERMILK, COCOA PROCESSED WITH ALKALI, CONTAINS 1% OR LESS OF MONO AND DIGLYCERIDES, CAROB BEAN GUM, CELLULOSE GUM, CARRAGEENAN, VITAMIN A PALMITATE], WAFERS (WHEAT FLOUR, SUGAR, PALM OIL, COCOA, DEXTROSE, CARAMEL COLOR, CORN FLOUR, CORN SYRUP, FOOD STARCH-MODIFIED, NATURAL AND ARTIFICIAL FLAVOR, SALT, BAKING SODA, SOY LECITHIN)." Date available: 07/14/2017 Date last updated by company: 07/14/2017
