Source: USDA Branded Food Products Database Release December 2017 Software v.3.8.6.4 2017-10-02
Report Run at: December 17, 2017 18:12 EST
"Nutrient data for: 45146049, SANDERS, THE PAVILION COLLECTION, MILK CHOCOLATE ALMOND BARK, UPC: 035900271366"
Food Group:  Branded Food Products Database
Common Name:

Nutrient,Unit,Data points,Std. Error,"0.33 PIECE = 35.0g",1Value per 100 g,
Proximates
"Energy",kcal,--,--,200,571
"Protein",g,--,--,4.00,11.43
"Total lipid (fat)",g,--,--,14.00,40.00
"Carbohydrate, by difference",g,--,--,17.00,48.57
"Fiber, total dietary",g,--,--,1.0,2.9
"Sugars, total",g,--,--,15.00,42.86
Minerals
"Calcium, Ca",mg,--,--,60,171
"Iron, Fe",mg,--,--,1.03,2.94
"Sodium, Na",mg,--,--,20,57
Vitamins
"Vitamin C, total ascorbic acid",mg,--,--,1.7,4.9
"Vitamin A, IU",IU,--,--,143,409
Lipids
"Fatty acids, total saturated",g,--,--,5.999,17.140
"Fatty acids, total trans",g,--,--,0.000,0.000
"Cholesterol",mg,--,--,5,14
Amino Acids
Other
Ingredients
"MILK CHOCOLATE (SUGAR, COCOA BUTTER, WHOLE MILK POWDER, CHOCOLATE LIQUOR, NONFAT DRY MILK POWDER, ANHYDROUS MILKFAT, SOY LECITHIN-AN EMULSIFIER, VANILLA), ALMONDS." Date available: 07/14/2017 Date last updated by company: 07/14/2017
