Source: USDA Branded Food Products Database Release December 2017 Software v.3.8.6.4 2017-10-02
Report Run at: December 17, 2017 18:11 EST
"Nutrient data for: 45118443, SANDERS FINE CHOCOLATIERS, FRUIT & SNACK DIP, CLASSIC CARAMEL, UPC: 035900279287"
Food Group:  Branded Food Products Database
Common Name:

Nutrient,Unit,Data points,Std. Error,"1 ONZ = 28.0g",1Value per 100 g,
Proximates
"Energy",kcal,--,--,90,321
"Protein",g,--,--,0.00,0.00
"Total lipid (fat)",g,--,--,3.00,10.71
"Carbohydrate, by difference",g,--,--,15.00,53.57
"Fiber, total dietary",g,--,--,0.0,0.0
"Sugars, total",g,--,--,12.00,42.86
Minerals
"Calcium, Ca",mg,--,--,20,71
"Iron, Fe",mg,--,--,0.00,0.00
"Sodium, Na",mg,--,--,95,339
Vitamins
"Vitamin C, total ascorbic acid",mg,--,--,0.0,0.0
"Vitamin A, IU",IU,--,--,179,638
Lipids
"Fatty acids, total saturated",g,--,--,1.999,7.140
"Fatty acids, total trans",g,--,--,0.000,0.000
"Cholesterol",mg,--,--,10,36
Amino Acids
Other
Ingredients
"CORN SYRUP, CREAM (MILK), SUGAR, WATER, MILK, FOOD STARCH-MODIFIED, BUTTER (MILK), BROWN SUGAR, WHEY (MILK), NON-FAT MILK POWDER, SALT, GUM ACACIA, XANTHAN GUM, RAISIN JUICE CONCENTRATE, SOY LECITHIN-AN EMULSIFIER." Date available: 06/25/2017 Date last updated by company: 06/25/2017
