Source: USDA Branded Food Products Database Release December 2017 Software v.3.8.6.4 2017-10-02
Report Run at: December 17, 2017 18:21 EST
"Nutrient data for: 45225172, SANDWICH WHITE BREAD, UPC: 036800199187"
Food Group:  Branded Food Products Database
Common Name:

Nutrient,Unit,Data points,Std. Error,"2.0 SLICES = 44.0g",1Value per 100 g,
Proximates
"Energy",kcal,--,--,110,250
"Protein",g,--,--,3.00,6.82
"Total lipid (fat)",g,--,--,1.50,3.41
"Carbohydrate, by difference",g,--,--,22.00,50.00
"Fiber, total dietary",g,--,--,1.0,2.3
"Sugars, total",g,--,--,2.00,4.55
Minerals
"Calcium, Ca",mg,--,--,40,91
"Iron, Fe",mg,--,--,1.23,2.79
"Sodium, Na",mg,--,--,250,568
Vitamins
"Vitamin C, total ascorbic acid",mg,--,--,0.0,0.0
"Thiamin",mg,--,--,0.000,0.000
"Riboflavin",mg,--,--,0.116,0.264
"Niacin",mg,--,--,1.818,4.132
"Vitamin A, IU",IU,--,--,0,0
Lipids
"Fatty acids, total saturated",g,--,--,0.000,0.000
"Fatty acids, total trans",g,--,--,0.000,0.000
"Cholesterol",mg,--,--,0,0
Amino Acids
Other
Ingredients
"WHEAT FLOUR, WATER, HIGH FRUCTOSE CORN SYRUP OR SUGAR, YEAST, CONTAINS 2% OR LESS OF: FERROUS SULFATE (IRON), ""B"" VITAMINS (NIACIN, THIAMIN MONONITRATE (B1), RIBOFLAVIN (B2), FOLIC ACID), BARLEY MALT, WHEAT GLUTEN, SOYBEAN OIL, SALT, DOUGH CONDITIONERS (MONO AND DIGLYCERIDES, SODIUM STEAROYL LACTYLATE, DATEM, SORBIC ACID, CALCIUM DIOXIDE AND/OR AZODICARBONAMIDE), CALCIUM SULFATE, VINEGAR, YEAST NUTRIENTS (MONOCALCIUM PHOSPHATE, CALCIUM CARBONATE, AMMONIUM SULFATE, AMMONIUM CHLORIDE), CORNSTARCH, WHEAT STARCH, SOY FLOUR, WHEY, CALCIUM PROPIONATE (TO RETAIN FRESHNESS), SOY LECITHIN." Date available: 07/14/2017 Date last updated by company: 07/14/2017
