Source: USDA Branded Food Products Database Release December 2017 Software v.3.8.6.4 2017-10-02
Report Run at: December 17, 2017 18:13 EST
"Nutrient data for: 45021913, SANDWICH BROS. OF WINCONSIN, EGG & CHEESE FLATBREAD POCKET SANDWICHES, UPC: 077507005081"
Food Group:  Branded Food Products Database
Common Name:

Nutrient,Unit,Data points,Std. Error,"1 SANDWICH = 70.0g",1Value per 100 g,
Proximates
"Energy",kcal,--,--,150,214
"Protein",g,--,--,8.00,11.43
"Total lipid (fat)",g,--,--,8.00,11.43
"Carbohydrate, by difference",g,--,--,12.00,17.14
"Fiber, total dietary",g,--,--,1.0,1.4
"Sugars, total",g,--,--,1.00,1.43
Minerals
"Calcium, Ca",mg,--,--,80,114
"Iron, Fe",mg,--,--,1.31,1.87
"Sodium, Na",mg,--,--,490,700
Vitamins
"Vitamin C, total ascorbic acid",mg,--,--,0.0,0.0
"Vitamin A, IU",IU,--,--,365,521
Lipids
"Fatty acids, total saturated",g,--,--,4.501,6.430
"Fatty acids, total trans",g,--,--,0.000,0.000
"Cholesterol",mg,--,--,90,129
Amino Acids
Other
Ingredients
"OMELET (WHOLE EGGS, CHEDDAR CHEESE [PROCESSED CHEDDAR CHEESE ( CULTURED MILK, WATER, CREAM, SKIM MILK, SODIUM PHOSPHATES, SALT, SORBIC ACID, ENZYMES, ANNATTO), POWDERED CELLULOSE, POTTASSIUM SORBATE AND NATAMYCIN], NON FAT MILK, CORN STARCH, SALT, PEPPER, XANTHAN GUM, CITRIC ACID), POCKET BREAD (WHEAT FLOUR, WATER, SUNFLOWER OIL, [ROSEMARY EXTRACT AND VITAMIN E], YEAST, CANE SUGAR, SALT, CALCIUM PROPIONATE, ENZYMES, FUMARIC ACID), PASTEURIZED PROCESS AMERICAN CHEESE (CULTURED MILK, WATER, CREAM, SODIUM PHOSPHATES, SALT, SORBIC ACID, ANNATTO, PAPRIKA EXTRACT, ENZYMES)." Date available: 06/25/2017 Date last updated by company: 06/25/2017
