Source: USDA Branded Food Products Database Release December 2017 Software v.3.8.6.4 2017-10-02
Report Run at: December 17, 2017 18:12 EST
"Nutrient data for: 45273785, SANDWICH BREAD, UPC: 085239211366"
Food Group:  Branded Food Products Database
Common Name:

Nutrient,Unit,Data points,Std. Error,"1 SLICE = 28.0g",1Value per 100 g,
Proximates
"Energy",kcal,--,--,80,286
"Protein",g,--,--,3.00,10.71
"Total lipid (fat)",g,--,--,1.00,3.57
"Carbohydrate, by difference",g,--,--,15.00,53.57
"Fiber, total dietary",g,--,--,1.0,3.6
"Sugars, total",g,--,--,2.00,7.14
Minerals
"Calcium, Ca",mg,--,--,40,143
"Iron, Fe",mg,--,--,1.93,6.88
"Sodium, Na",mg,--,--,110,393
Vitamins
"Vitamin C, total ascorbic acid",mg,--,--,0.0,0.0
"Vitamin A, IU",IU,--,--,0,0
Lipids
"Fatty acids, total saturated",g,--,--,0.000,0.000
"Fatty acids, total trans",g,--,--,0.000,0.000
"Cholesterol",mg,--,--,0,0
Amino Acids
Other
Ingredients
"ENRICHED BLEACHED FLOUR [WHEAT FLOUR, MALTED BARLEY FLOUR, NIACIN, IRON, THIAMIN MONONITRATE (VITAMIN B1), RIBOFLAVIN (VITAMIN B2), FOLIC ACID], WATER, WHOLE GRAIN (WHOLE WHEAT FLOUR, ROLLED WHEAT), HIGH FRUCTOSE CORN SYRUP, YEAST. CONTAINS 2% OR LESS OF EACH OF THE FOLLOWING: WHEAT GLUTEN, SOYBEAN OIL, WHEAT BRAN, MOLASSES, MALTED BARLEY FLOUR, SALT, WHEAT GERM, DOUGH CONDITIONERS (MAY CONTAIN ONE OR MORE OF THE FOLLOWING: MONO- AND DIGLYCERIDES, ETHOXYLATED MONO- AND DIGLYCERIDES, SODIUM STEAROYL LACTYLATE, CALCIUM PEROXIDE, DATEM, ASCORBIC ACID, AZODICARBONAMIDE, ENZYMES), CALCIUM PROPIONATE (PRESERVATIVE), DISTILLED VINEGAR, YEAST NUTRIENTS (MONOCALCIUM PHOSPHATE, CALCIUM SULFATE, AMMONIUM SULFATE), CORN STARCH, CARAMEL COLOR, SOY LECITHIN, MILK, SOY FLOUR." Date available: 07/14/2017 Date last updated by company: 07/14/2017
