Source: USDA Branded Food Products Database Release December 2017 Software v.3.8.6.4 2017-10-02
Report Run at: December 17, 2017 18:21 EST
"Nutrient data for: 45279771, SANDWICH WHEAT BREAD, UPC: 041130261404"
Food Group:  Branded Food Products Database
Common Name:

Nutrient,Unit,Data points,Std. Error,"1 SLICE = 28.0g",1Value per 100 g,
Proximates
"Energy",kcal,--,--,70,250
"Protein",g,--,--,2.00,7.14
"Total lipid (fat)",g,--,--,0.50,1.79
"Carbohydrate, by difference",g,--,--,13.00,46.43
"Fiber, total dietary",g,--,--,1.0,3.6
"Sugars, total",g,--,--,1.00,3.57
Minerals
"Calcium, Ca",mg,--,--,40,143
"Iron, Fe",mg,--,--,1.29,4.59
"Sodium, Na",mg,--,--,125,446
Vitamins
"Vitamin C, total ascorbic acid",mg,--,--,0.0,0.0
"Thiamin",mg,--,--,0.280,1.000
"Riboflavin",mg,--,--,0.121,0.433
"Niacin",mg,--,--,1.428,5.100
"Vitamin A, IU",IU,--,--,0,0
Lipids
"Fatty acids, total saturated",g,--,--,0.000,0.000
"Fatty acids, total monounsaturated",g,--,--,0.000,0.000
"Fatty acids, total polyunsaturated",g,--,--,0.000,0.000
"Fatty acids, total trans",g,--,--,0.000,0.000
"Cholesterol",mg,--,--,0,0
Amino Acids
Other
Ingredients
"ENRICHED WHEAT FLOUR (FLOUR, MALTED BARLEY FLOUR, REDUCED IRON, NIACIN, THIAMIN MONONITRATE (VITAMIN B1), RIBOFLAVIN (VITAMIN B2), FOLIC ACID], WATER, WHOLE WHEAT FLOUR, HIGH FRUCTOSE CORN SYRUP, YEAST WHEAT BRAN, SOYBEAN OIL WHEAT GLUTEN, SALT, MOLASSES, CALCIUM PROPIONATE (PRESERVATIVE), DATEM, MONOGLYCERIDES, CALCIUM SULFATE, SOY LECITHIN, CITRIC ACID, GRAIN VINEGAR, POTASSIUM IODATE, MONOCALCIUM PHOSPHATE, CORNSTARCH." Date available: 07/14/2017 Date last updated by company: 07/14/2017
