Source: USDA Branded Food Products Database Release December 2017 Software v.3.8.6.4 2017-10-02
Report Run at: December 17, 2017 18:34 EST
"Nutrient data for: 45203667, SARA LEE, PREMIUM MESQUITE SMOKED TURKEY BREAST, UPC: 075971163078"
Food Group:  Branded Food Products Database
Common Name:

Nutrient,Unit,Data points,Std. Error,"2.0 ONZ = 56.0g",1Value per 100 g,
Proximates
"Energy",kcal,--,--,50,89
"Protein",g,--,--,11.00,19.64
"Total lipid (fat)",g,--,--,0.50,0.89
"Carbohydrate, by difference",g,--,--,1.00,1.79
"Fiber, total dietary",g,--,--,0.0,0.0
"Sugars, total",g,--,--,1.00,1.79
Minerals
"Calcium, Ca",mg,--,--,0,0
"Iron, Fe",mg,--,--,1.09,1.95
"Sodium, Na",mg,--,--,400,714
Vitamins
"Vitamin C, total ascorbic acid",mg,--,--,0.0,0.0
"Vitamin A, IU",IU,--,--,0,0
Lipids
"Fatty acids, total saturated",g,--,--,0.000,0.000
"Fatty acids, total trans",g,--,--,0.000,0.000
"Cholesterol",mg,--,--,30,54
Amino Acids
Other
Ingredients
"TURKEY BREAST, WATER, CONTAINS 2% OR LESS: SALT, SUGAR, POTASSIUM AND SODIUM PHOSPHATE, ASCORBIC ACID (VITAMIN C), CITRIC ACID, SODIUM NITRITE, SODIUM PROPIONATE." Date available: 10/13/2017 Date last updated by company: 10/13/2017
