Source: USDA Branded Food Products Database Release December 2017 Software v.3.8.6.4 2017-10-02
Report Run at: December 17, 2017 18:35 EST
"Nutrient data for: 45137093, SARANAC, SOFT DRINK, BLACK CHERRY CREAM, UPC: 009450042233"
Food Group:  Branded Food Products Database
Common Name:

Nutrient,Unit,Data points,Std. Error,"1 BOTTLE = 355.0g",1Value per 100 g,
Proximates
"Energy",kcal,--,--,167,47
"Protein",g,--,--,0.00,0.00
"Total lipid (fat)",g,--,--,0.00,0.00
"Carbohydrate, by difference",g,--,--,42.99,12.11
"Sugars, total",g,--,--,42.99,12.11
Minerals
"Sodium, Na",mg,--,--,14,4
Vitamins
Lipids
Amino Acids
Other
Ingredients
"CARBONATED WATER, HIGH FRUCTOSE CORN SYRUP, NATURAL & ARTIFICIAL FLAVORS, CITRIC ACID, SODIUM BENZOATE, CARAMEL COLOR, FD&C RED #40, FD&C BLUE #1." Date available: 06/25/2017 Date last updated by company: 06/25/2017
