Source: USDA Branded Food Products Database Release December 2017 Software v.3.8.6.4 2017-10-02
Report Run at: December 17, 2017 18:35 EST
"Nutrient data for: 45257331, SARDINES IN EXTRA VIRGIN OLIVE OIL, UPC: 070303070000"
Food Group:  Branded Food Products Database
Common Name:

Nutrient,Unit,Data points,Std. Error,"0.25 cup = 55.0g",1Value per 100 g,
Proximates
"Energy",kcal,--,--,130,236
"Protein",g,--,--,13.00,23.64
"Total lipid (fat)",g,--,--,8.50,15.45
"Carbohydrate, by difference",g,--,--,0.00,0.00
"Fiber, total dietary",g,--,--,0.0,0.0
"Sugars, total",g,--,--,0.00,0.00
Minerals
"Calcium, Ca",mg,--,--,150,273
"Iron, Fe",mg,--,--,4.17,7.59
"Sodium, Na",mg,--,--,200,364
Vitamins
"Vitamin C, total ascorbic acid",mg,--,--,1.9,3.4
"Vitamin A, IU",IU,--,--,0,0
Lipids
"Fatty acids, total saturated",g,--,--,1.502,2.730
"Fatty acids, total trans",g,--,--,0.000,0.000
"Cholesterol",mg,--,--,45,82
Amino Acids
Other
Ingredients
"SARDINES (FISH), ORGANIC EXTRA VIRGIN OLIVE OIL, 'SALT." Date available: 07/14/2017 Date last updated by company: 07/14/2017
