Source: USDA Branded Food Products Database Release December 2017 Software v.3.8.6.4 2017-10-02
Report Run at: December 17, 2017 18:36 EST
"Nutrient data for: 45063838, SARDINES IN SPICY TOMATO SAUCE, UPC: 071524094301"
Food Group:  Branded Food Products Database
Common Name:

Nutrient,Unit,Data points,Std. Error,"0.25 cup = 55.0g",1Value per 100 g,
Proximates
"Energy",kcal,--,--,75,136
"Protein",g,--,--,6.00,10.91
"Total lipid (fat)",g,--,--,4.00,7.27
"Carbohydrate, by difference",g,--,--,3.00,5.45
"Fiber, total dietary",g,--,--,1.3,2.4
"Sugars, total",g,--,--,3.00,5.45
Minerals
"Calcium, Ca",mg,--,--,20,36
"Iron, Fe",mg,--,--,5.57,10.12
"Sodium, Na",mg,--,--,478,869
Vitamins
"Vitamin C, total ascorbic acid",mg,--,--,1.9,3.4
"Vitamin A, IU",IU,--,--,387,703
Lipids
"Fatty acids, total saturated",g,--,--,1.199,2.180
"Fatty acids, total trans",g,--,--,0.000,0.000
"Cholesterol",mg,--,--,33,60
Amino Acids
Other
Ingredients
"SARDINES, TOMATO SAUCE, SPICES AND SALT." Date available: 06/25/2017 Date last updated by company: 06/25/2017
