Source: USDA Branded Food Products Database Release December 2017 Software v.3.8.6.4 2017-10-02
Report Run at: December 17, 2017 18:35 EST
"Nutrient data for: 45232820, SARDINAS IN SOYBEAN OIL, UPC: 041224125100"
Food Group:  Branded Food Products Database
Common Name:

Nutrient,Unit,Data points,Std. Error,"3.0 PIECES = 55.0g",1Value per 100 g,
Proximates
"Energy",kcal,--,--,110,200
"Protein",g,--,--,13.00,23.64
"Total lipid (fat)",g,--,--,6.00,10.91
"Carbohydrate, by difference",g,--,--,0.00,0.00
"Fiber, total dietary",g,--,--,0.0,0.0
"Sugars, total",g,--,--,0.00,0.00
Minerals
"Calcium, Ca",mg,--,--,300,545
"Iron, Fe",mg,--,--,2.23,4.05
"Sodium, Na",mg,--,--,370,673
Vitamins
"Vitamin C, total ascorbic acid",mg,--,--,1.9,3.4
"Vitamin A, IU",IU,--,--,155,281
Lipids
"Fatty acids, total saturated",g,--,--,1.502,2.730
"Fatty acids, total trans",g,--,--,0.000,0.000
"Cholesterol",mg,--,--,40,73
Amino Acids
Other
Ingredients
"SARDINES, SOYBEAN OIL, SALT." Date available: 06/24/2017 Date last updated by company: 06/24/2017
