Source: USDA Branded Food Products Database Release December 2017 Software v.3.8.6.4 2017-10-02
Report Run at: December 17, 2017 18:40 EST
"Nutrient data for: 45041175, SARGENTO, TASTINGS, PARMENTINO CHEESE, UPC: 046100019979"
Food Group:  Branded Food Products Database
Common Name:

Nutrient,Unit,Data points,Std. Error,"0.25 CHUNK = 27.0g",1Value per 100 g,
Proximates
"Energy",kcal,--,--,100,370
"Protein",g,--,--,8.00,29.63
"Total lipid (fat)",g,--,--,8.00,29.63
"Carbohydrate, by difference",g,--,--,1.00,3.70
"Fiber, total dietary",g,--,--,0.0,0.0
"Sugars, total",g,--,--,0.00,0.00
Minerals
"Calcium, Ca",mg,--,--,250,926
"Iron, Fe",mg,--,--,0.00,0.00
"Sodium, Na",mg,--,--,250,926
Vitamins
"Vitamin C, total ascorbic acid",mg,--,--,0.0,0.0
"Vitamin A, IU",IU,--,--,555,2057
Lipids
"Fatty acids, total saturated",g,--,--,5.000,18.520
"Fatty acids, total trans",g,--,--,0.000,0.000
"Cholesterol",mg,--,--,25,93
Amino Acids
Other
Ingredients
"PASTEURIZED MILK, CHEESE CULTURE, SALT, ENZYMES." Date available: 07/14/2017 Date last updated by company: 07/14/2017
