Source: USDA Branded Food Products Database Release December 2017 Software v.3.8.6.4 2017-10-02
Report Run at: December 17, 2017 18:43 EST
"Nutrient data for: 45269523, SAUCE & SPREAD, UPC: 864612000243"
Food Group:  Branded Food Products Database
Common Name:

Nutrient,Unit,Data points,Std. Error,"1 Tbsp = 15.0g",1Value per 100 g,
Proximates
"Energy",kcal,--,--,35,233
"Protein",g,--,--,0.00,0.00
"Total lipid (fat)",g,--,--,3.00,20.00
"Carbohydrate, by difference",g,--,--,2.00,13.33
"Fiber, total dietary",g,--,--,0.0,0.0
"Sugars, total",g,--,--,1.00,6.67
Minerals
"Calcium, Ca",mg,--,--,0,0
"Iron, Fe",mg,--,--,0.00,0.00
"Sodium, Na",mg,--,--,150,1000
Vitamins
"Vitamin C, total ascorbic acid",mg,--,--,4.0,27.0
"Vitamin A, IU",IU,--,--,338,2253
Lipids
"Fatty acids, total saturated",g,--,--,0.000,0.000
"Fatty acids, total trans",g,--,--,0.000,0.000
"Cholesterol",mg,--,--,0,0
Amino Acids
Other
Ingredients
"WATER, WHITE DISTILLED VINEGAR, CANOLA OIL, MUSTARD SEED, SUGAR, PEPPERS (RED CHILI, RED JALAPENO), SALT, GARLIC, EGGS, CULTURED DEXTROSE, NATURAL VITAMIN E (PROTECTS FLAVOR), LEMON JUICE, TURMERIC, SPICES, CITRIC ACID, XANTHAN GUM, ANNATTO, NATURAL FLAVORS." Date available: 07/14/2017 Date last updated by company: 07/14/2017
