Source: USDA Branded Food Products Database Release December 2017 Software v.3.8.6.4 2017-10-02
Report Run at: December 17, 2017 18:43 EST
"Nutrient data for: 45120183, SAUCE SUPREME, TURKEY GRAVY MIX, UPC: 076114300091"
Food Group:  Branded Food Products Database
Common Name:

Nutrient,Unit,Data points,Std. Error,"2.0 Tbsp = 5.0g",1Value per 100 g,
Proximates
"Energy",kcal,--,--,15,300
"Protein",g,--,--,0.00,0.00
"Total lipid (fat)",g,--,--,0.00,0.00
"Carbohydrate, by difference",g,--,--,3.00,60.00
"Fiber, total dietary",g,--,--,0.0,0.0
"Sugars, total",g,--,--,0.00,0.00
Minerals
"Calcium, Ca",mg,--,--,0,0
"Iron, Fe",mg,--,--,0.00,0.00
"Sodium, Na",mg,--,--,320,6400
Vitamins
"Vitamin C, total ascorbic acid",mg,--,--,0.0,0.0
"Vitamin A, IU",IU,--,--,0,0
Lipids
"Fatty acids, total saturated",g,--,--,0.000,0.000
"Fatty acids, total trans",g,--,--,0.000,0.000
"Cholesterol",mg,--,--,0,0
Amino Acids
Other
Ingredients
"MODIFIED FOOD STARCH, WHEAT FLOUR, SALT, HYDROLYZED SOYBEAN PROTEIN, SUGAR, PARTIALLY HYDROGENATED SOY OIL, MALTODEXTRIN, ONION, AUTOLYZED YEAST, PARTIALLY HYDROGENATED COTTONSEED OIL, CORN SYRUP SOLIDS, GARLIC, MONOSODIUM GLUTAMATE, NATURAL FLAVORS, CARAMEL COLOR, SPICES, DISODIUM INOSINATE, DISODIUM GUANYLATE, MONO AND DIGLYCERIDES, SODIUM CITRATE, DIPOTASSIUM PHOSPHATE, CARRAGEENAN." Date available: 06/25/2017 Date last updated by company: 06/25/2017
