Source: USDA Branded Food Products Database Release December 2017 Software v.3.8.6.4 2017-10-02
Report Run at: December 17, 2017 18:42 EST
"Nutrient data for: 45138277, SAUCE & MARINADE, UPC: 715364100098"
Food Group:  Branded Food Products Database
Common Name:

Nutrient,Unit,Data points,Std. Error,"1 Tbsp = 15.0g",1Value per 100 g,
Proximates
"Energy",kcal,--,--,20,133
"Protein",g,--,--,0.00,0.00
"Total lipid (fat)",g,--,--,0.00,0.00
"Carbohydrate, by difference",g,--,--,4.00,26.67
"Sugars, total",g,--,--,3.00,20.00
Minerals
"Calcium, Ca",mg,--,--,0,0
"Iron, Fe",mg,--,--,0.00,0.00
"Sodium, Na",mg,--,--,140,933
Vitamins
"Vitamin C, total ascorbic acid",mg,--,--,0.0,0.0
"Vitamin A, IU",IU,--,--,0,0
Lipids
"Fatty acids, total trans",g,--,--,0.000,0.000
Amino Acids
Other
Ingredients
"WATER, DIJON MUSTARD (WATER, DISTILLED VINEGAR, MUSTARD FLOUR, SALT, COOKING WINE, SUGAR, PECTIN, GARLIC POWDER, SPICE, TURMERIC, CITRIC ACID), HIGH FRUCTOSE CORN SYRUP, DISTILLED VINEGAR, MODIFIED FOOD STARCH, CONTAINS LESS THAN 2% OF DRIED GARLIC, HONEY, MALIC ACID, SEA SALT, SPICES, SODIUM BENZOATE AND POTASSIUM SORBATE (PRESERVATIVES), XANTHAN GUM." Date available: 10/13/2017 Date last updated by company: 10/13/2017
