Source: USDA Branded Food Products Database Release December 2017 Software v.3.8.6.4 2017-10-02
Report Run at: December 17, 2017 18:44 EST
"Nutrient data for: 45170739, SAUCE, UPC: 042421160031"
Food Group:  Branded Food Products Database
Common Name:

Nutrient,Unit,Data points,Std. Error,"1 tsp = 5.0g",1Value per 100 g,
Proximates
"Energy",kcal,--,--,15,300
"Protein",g,--,--,0.00,0.00
"Total lipid (fat)",g,--,--,1.50,30.00
"Carbohydrate, by difference",g,--,--,1.00,20.00
"Sugars, total",g,--,--,1.00,20.00
Minerals
"Sodium, Na",mg,--,--,15,300
Vitamins
Lipids
"Fatty acids, total trans",g,--,--,0.000,0.000
Amino Acids
Other
Ingredients
"CANOLA OIL, WATER, HORSERADISH, VINEGAR, SUGAR, EGG YOLKS, XANTHAN GUM, LEMON JUICE, SALT, GROUND MUSTARD SEEDS, TOCOPHEROL (A NATURAL PRESERVATIVE)." Date available: 06/25/2017 Date last updated by company: 06/25/2017
