Source: USDA Branded Food Products Database Release December 2017 Software v.3.8.6.4 2017-10-02
Report Run at: December 17, 2017 18:44 EST
"Nutrient data for: 45065229, SAUCE, UPC: 036200344309"
Food Group:  Branded Food Products Database
Common Name:

Nutrient,Unit,Data points,Std. Error,"0.25 cup = 61.0g",1Value per 100 g,
Proximates
"Energy",kcal,--,--,80,131
"Protein",g,--,--,1.00,1.64
"Total lipid (fat)",g,--,--,8.00,13.11
"Carbohydrate, by difference",g,--,--,2.00,3.28
"Fiber, total dietary",g,--,--,0.0,0.0
"Sugars, total",g,--,--,1.00,1.64
Minerals
"Calcium, Ca",mg,--,--,40,66
"Iron, Fe",mg,--,--,0.00,0.00
"Sodium, Na",mg,--,--,240,393
Vitamins
"Vitamin C, total ascorbic acid",mg,--,--,0.0,0.0
"Vitamin A, IU",IU,--,--,101,166
Lipids
"Fatty acids, total saturated",g,--,--,2.501,4.100
"Fatty acids, total trans",g,--,--,0.000,0.000
"Cholesterol",mg,--,--,20,33
Amino Acids
Other
Ingredients
"WATER, SOYBEAN OIL, CREAM (MILK), MODIFIED CORN STARCH, ENZYME MODIFIED EGG YOLK, WHEY, PARMESAN CHEESE (PASTEURIZED PART-SKIM MILK, CHEESE CULTURE (FROM BARLEY), SALT, ENZYMES), CHEDDAR CHEESE (PASTEURIZED MILK, CHEESE CULTURES, SALT, ENZYMES), SALT, AGED ASIAGO CHEESE [PASTEURIZED PART-SKIM MILK, CHEESE CULTURES, SALT, ENZYMES], ROMANO CHEESE (PASTEURIZED PART-SKIM MILK, CHEESE CULTURES, SALT, ENZYMES), WHEY PROTEIN CONCENTRATE, BUTTER (CREAM, SALT), XANTHAN GUM, YEAST EXTRACT, GARLIC POWDER, NATURAL FLAVOR, NONFAT MILK, ANNATTO EXTRACT (FOR COLOR), DISODIUM PHOSPHATE, SPICE, PAPRIKA EXTRACT (FOR COLOR)." Date available: 10/13/2017 Date last updated by company: 10/13/2017
