Source: USDA Branded Food Products Database Release December 2017 Software v.3.8.6.4 2017-10-02
Report Run at: December 17, 2017 18:49 EST
"Nutrient data for: 45056076, SAUER'S GRINDERS TM, UPC: 052500008031"
Food Group:  Branded Food Products Database
Common Name:

Nutrient,Unit,Data points,Std. Error,"1 CONTAINER = 1.5g",1Value per 100 g,
Proximates
"Energy",kcal,--,--,0,0
"Protein",g,--,--,0.00,0.00
"Total lipid (fat)",g,--,--,0.00,0.00
"Carbohydrate, by difference",g,--,--,0.00,0.00
Minerals
"Sodium, Na",mg,--,--,590,39333
Vitamins
Lipids
Amino Acids
Other
Ingredients
"INGREDIENTS: SEA SALT." Date available: 06/24/2017 Date last updated by company: 06/24/2017
