Source: USDA Branded Food Products Database Release December 2017 Software v.3.8.6.4 2017-10-02
Report Run at: December 17, 2017 18:50 EST
"Nutrient data for: 45258291, SAUSAGE & CHEDDAR STUFFED JALAPENOS, UPC: 811663023349"
Food Group:  Branded Food Products Database
Common Name:

Nutrient,Unit,Data points,Std. Error,"1 PIECE = 112.0g",1Value per 100 g,
Proximates
"Energy",kcal,--,--,349,312
"Protein",g,--,--,18.00,16.07
"Total lipid (fat)",g,--,--,30.00,26.79
"Carbohydrate, by difference",g,--,--,2.00,1.79
"Fiber, total dietary",g,--,--,0.0,0.0
"Sugars, total",g,--,--,1.00,0.89
Minerals
"Calcium, Ca",mg,--,--,150,134
"Iron, Fe",mg,--,--,0.48,0.43
"Sodium, Na",mg,--,--,720,643
Vitamins
"Vitamin C, total ascorbic acid",mg,--,--,4.0,3.6
"Vitamin A, IU",IU,--,--,134,120
Lipids
"Fatty acids, total saturated",g,--,--,11.995,10.710
"Fatty acids, total trans",g,--,--,0.000,0.000
"Cholesterol",mg,--,--,65,58
Amino Acids
Other
Ingredients
"PORK SAUSAGE (PORK, WATER, SAGE CRUSHED RED PEPPER AND GROUND BLACK PEPPER), BACON (CURED WITH WATER, SALT, SUGAR, SODIUM PHOSPHATES, SODIUM ERYTHORBATE AND SODIUM NITRITE), PASTEURIZED PROCESSED SHARP CHEDDAR CHEESE (CULTURED MILK, WATER, CREAM, SODIUM PHOSPHATES, SALT, SORBIC ACID [PRESERVATIVES], ENZYMES ANNATTO AND PAPRIKA EXTRACT [COLOR]), JALAPENO PEPPERS, BBQ SEASONING (SUGAR, SALT, PAPRIKA, CHILI PEPPER, CELERY, GARLIC, CUMIN), WATER, DEHYDRATED VINEGAR, ROSEMARY EXTRACT (MALTODEXTRIN, ROSEMARY OLEORESIN)." Date available: 07/14/2017 Date last updated by company: 07/14/2017
