Source: USDA Branded Food Products Database Release December 2017 Software v.3.8.6.4 2017-10-02
Report Run at: December 17, 2017 18:54 EST
"Nutrient data for: 45078647, SAUSAGE, UPC: 066736666392"
Food Group:  Branded Food Products Database
Common Name:

Nutrient,Unit,Data points,Std. Error,"1 LINK = 42.0g",1Value per 100 g,
Proximates
"Energy",kcal,--,--,220,524
"Protein",g,--,--,9.00,21.43
"Total lipid (fat)",g,--,--,19.00,45.24
"Carbohydrate, by difference",g,--,--,4.00,9.52
"Fiber, total dietary",g,--,--,0.0,0.0
"Sugars, total",g,--,--,4.00,9.52
Minerals
"Calcium, Ca",mg,--,--,20,48
"Sodium, Na",mg,--,--,610,1452
Vitamins
"Vitamin A, IU",IU,--,--,0,0
"Vitamin D",IU,--,--,0,0
Lipids
"Fatty acids, total saturated",g,--,--,7.001,16.670
"Fatty acids, total trans",g,--,--,0.000,0.000
"Cholesterol",mg,--,--,26,62
Amino Acids
Other
Ingredients
"PORK, PORK BACK FAT, SUGAR, SOY SAUCE (WATER, SOYBEAN, SALT, WHEAT FLOUR), WATER, SALT, COOKING WINE, MONOSODIUM GLUTAMATE, GRAIN ALCOHOL, SPICES, SODIUM NITRITE." Date available: 06/24/2017 Date last updated by company: 06/24/2017
