Source: USDA Branded Food Products Database Release December 2017 Software v.3.8.6.4 2017-10-02
Report Run at: December 17, 2017 18:51 EST
"Nutrient data for: 45198101, SAUSAGE GRAVY, UPC: 075450153019"
Food Group:  Branded Food Products Database
Common Name:

Nutrient,Unit,Data points,Std. Error,"0.25 cup = 63.0g",1Value per 100 g,
Proximates
"Energy",kcal,--,--,50,79
"Protein",g,--,--,1.00,1.59
"Total lipid (fat)",g,--,--,3.00,4.76
"Carbohydrate, by difference",g,--,--,4.00,6.35
"Fiber, total dietary",g,--,--,0.0,0.0
"Sugars, total",g,--,--,1.00,1.59
Minerals
"Calcium, Ca",mg,--,--,20,32
"Iron, Fe",mg,--,--,0.00,0.00
"Sodium, Na",mg,--,--,260,413
Vitamins
"Vitamin C, total ascorbic acid",mg,--,--,0.0,0.0
"Vitamin A, IU",IU,--,--,101,161
Lipids
"Fatty acids, total saturated",g,--,--,1.499,2.380
"Fatty acids, total trans",g,--,--,0.000,0.000
"Cholesterol",mg,--,--,15,24
Amino Acids
Other
Ingredients
"WATER, MILK (MILK, CREAM, VITAMIN D3), PORK TRIM (CONTAINS 2% SALT), WHIPPING CREAM (CREAM, MILK), FOOD STARCH-MODIFIED, FLOUR (BLEACHED WHEAT FLOUR, POTASSIUM BROMATE, ENZYME), FLAVOR ENHANCER (MALTODEXTRIN, SODIUM CHLORIDE, DISODIUM INOSINATE, DISODIUM GUANYLATE, THIAMINE HYDROCHLORIDE, CITRIC ACID), SEASONING (SALT, SPICES, SUGAR, SPICE EXTRACTIVES), PORK SAUSAGE SEASONING (SALT, SPICES, DEXTROSE, SUGAR, SPICE EXTRACTIVES, BHA, BHT, CITRIC ACID), TITANIUM DIOXIDE (COLOR)." Date available: 07/14/2017 Date last updated by company: 07/14/2017
