Source: USDA Branded Food Products Database Release December 2017 Software v.3.8.6.4 2017-10-02
Report Run at: December 17, 2017 18:51 EST
"Nutrient data for: 45282053, SAUSAGE, EGG & CHEESE, UPC: 075900100112"
Food Group:  Branded Food Products Database
Common Name:

Nutrient,Unit,Data points,Std. Error,"1 SANDWICH = 125.0g",1Value per 100 g,
Proximates
"Energy",kcal,--,--,320,256
"Protein",g,--,--,14.00,11.20
"Total lipid (fat)",g,--,--,18.00,14.40
"Carbohydrate, by difference",g,--,--,25.00,20.00
"Fiber, total dietary",g,--,--,2.0,1.6
"Sugars, total",g,--,--,2.00,1.60
Minerals
"Calcium, Ca",mg,--,--,200,160
"Iron, Fe",mg,--,--,1.84,1.47
"Sodium, Na",mg,--,--,690,552
Vitamins
"Vitamin C, total ascorbic acid",mg,--,--,0.9,0.7
"Vitamin A, IU",IU,--,--,204,163
Lipids
"Fatty acids, total saturated",g,--,--,7.000,5.600
"Fatty acids, total trans",g,--,--,0.000,0.000
"Cholesterol",mg,--,--,110,88
Amino Acids
Other
Ingredients
"ENGLISH MUFFIN: ENRICHED FLOUR (BLEACHED WHEAT FLOUR, MALTED BARLEY FLOUR, NIACIN, REDUCED IRON, THIAMINE MONONITRATE, RIBOFLAVIN, FOLIC ACID), WATER, YEAST, WHEAT GLUTEN. CONTAINS 2% OR LESS OF EACH OF THE FOLLOWING: SALT, SUCROSE, HYDROGENATED SOYBEAN AND/OR COTTONSEED OIL, CORN MEAL, DOUGH CONDITIONERS (MAY CONTAIN ONE OR MORE THE FOLLOWING: DATEM, ENZYMES, AZODICARBONAMIDE, ASCORBIC ACID, CALCIUM CITRATE), CALCIUM PROPIONATE AND POTASSIUM SORBATE (PRESERVATIVES). EGG PATTY: WHOLE EGGS, WHEY, SKIM MILK, SOYBEAN OIL, CONTAINS LESS THAN 2% OF THE FOLLOWING: WATER, DICALCIUM PHOSPHATE DIHYDRATE, ARTIFICIAL BUTTER FLAVOR, (PARTIALLY HYDROGENATED SOYBEAN AND COTTONSEED OIL, FLAVOR, MEDIUM CHAIN TRIGLYCERIDES) NATURAL BUTTER FLAVOR, SALT, SODIUM BICARBONATE, XANTHAN GUM, CITRIC ACID, WHITE PEPPER. SAUSAGE PATTY: PORK, WATER, CONTAINS 2% OR LESS OF THE FOLLOWING: SALT, SPICES, SUGAR, MONOSODIUM GLUTAMATE, CARAMEL COLOR. PASTEURIZED PROCESS CHEDDAR CHEESE: CHEDDAR CHEESE (PASTEURIZED MILK, CHEESE CULTURE, SALT, ENZYMES), WATER, SODIUM PHOSPHATE, MILKFAT, SALT, SODIUM HEXAMETAPHOSPHATE, SORBIC ACID (PRESERVATIVE), APOCAROTENOL (COLOR)." Date available: 07/14/2017 Date last updated by company: 07/14/2017
