Source: USDA Branded Food Products Database Release December 2017 Software v.3.8.6.4 2017-10-02
Report Run at: December 17, 2017 18:51 EST
"Nutrient data for: 45170586, SAUSAGE, EGG & CHEESE TACOS, UPC: 070110056662"
Food Group:  Branded Food Products Database
Common Name:

Nutrient,Unit,Data points,Std. Error,"2.0 TACOS = 136.0g",1Value per 100 g,
Proximates
"Energy",kcal,--,--,330,243
"Protein",g,--,--,13.00,9.56
"Total lipid (fat)",g,--,--,18.01,13.24
"Carbohydrate, by difference",g,--,--,29.00,21.32
"Fiber, total dietary",g,--,--,1.0,0.7
"Sugars, total",g,--,--,1.01,0.74
Minerals
"Calcium, Ca",mg,--,--,101,74
"Iron, Fe",mg,--,--,2.77,2.04
"Sodium, Na",mg,--,--,811,596
Vitamins
"Vitamin C, total ascorbic acid",mg,--,--,3.7,2.7
"Vitamin A, IU",IU,--,--,514,378
Lipids
"Fatty acids, total saturated",g,--,--,7.004,5.150
"Fatty acids, total trans",g,--,--,0.000,0.000
"Cholesterol",mg,--,--,135,99
Amino Acids
Other
Ingredients
"TORTILLA (BLEACHED AND/OR UNBLEACHED ENRICHED WHEAT FLOUR [FLOUR, MALTED BARLEY FLOUR, NIACIN, REDUCED IRON, THIAMINE MONONITRATE, RIBOFLAVIN, FOLIC ACID], WATER, SHORTENING [PALM OIL AND SOYBEAN OIL WITH MONO AND DIGLYCERIDES ADDED], DOUGH CONDITIONER [SALT, SODIUM PROPIONATE, LEAVENING (SODIUM ACID PYROPHOSPHATE, SODIUM BICARBONATE, MONOCALCIUM PHOSPHATE), POTASSIUM SORBATE (TO PRESERVE FRESHNESS), WHEAT FLOUR, SOY PROTEIN, MALTODEXTRIN, STARCH, MONO AND DIGLYCERIDES, LECITHIN, DEXTROSE, XANTHAN GUM, GUAR GUM, L-CYSTEINE, NATURAL FLAVORS]), SAUSAGE (PORK, WATER, CONTAINS 2% OR LESS OF THE FOLLOWING: SALT, SPICES, SUGAR, MONOSODIUM GLUTAMATE), EGG PRODUCT (WHOLE EGGS, CITRIC ACID [TO PRESERVE COLOR]), PASTEURIZED PROCESSED CHEDDAR CHEESE (CHEDDAR CHEESE [CULTURED PASTEURIZED MILK, SALT, ENZYMES], WATER, MILKFAT, SODIUM PHOSPHATES, SALT, POTASSIUM SORBATE (TO PRESERVE FRESHNESS), ANNATTO [COLOR], POTATO STARCH, POWDERED CELLULOSE [TO PREVENT CAKING]), POTATOES, ONIONS, BELL PEPPERS, MODIFIED POTATO STARCH, SOY LECITHIN, SALT." Date available: 07/14/2017 Date last updated by company: 07/14/2017
