Source: USDA Branded Food Products Database Release December 2017 Software v.3.8.6.4 2017-10-02
Report Run at: December 17, 2017 18:50 EST
"Nutrient data for: 45121666, SAUSAGE CLASSIC PIZZA, UPC: 031205010006"
Food Group:  Branded Food Products Database
Common Name:

Nutrient,Unit,Data points,Std. Error,"1 PIZZA = 241.0g",1Value per 100 g,
Proximates
"Energy",kcal,--,--,641,266
"Protein",g,--,--,32.00,13.28
"Total lipid (fat)",g,--,--,34.99,14.52
"Carbohydrate, by difference",g,--,--,53.00,21.99
"Fiber, total dietary",g,--,--,8.0,3.3
"Sugars, total",g,--,--,2.00,0.83
Minerals
"Calcium, Ca",mg,--,--,451,187
"Iron, Fe",mg,--,--,2.92,1.21
"Sodium, Na",mg,--,--,1311,544
Vitamins
"Vitamin C, total ascorbic acid",mg,--,--,1.9,0.8
"Vitamin A, IU",IU,--,--,405,168
Lipids
"Fatty acids, total saturated",g,--,--,12.002,4.980
"Fatty acids, total trans",g,--,--,0.506,0.210
"Cholesterol",mg,--,--,84,35
Amino Acids
Other
Ingredients
"CRUST: (WHEAT FLOUR, WATER, CORN OIL, YEAST, SALT), WHOLE MILK MOZZARELLA CHEESE: (PASTEURIZED MILK, CHEESE CULTURES, SALT, ENZYMES), SAUCE: (TOMATO PUREE, WATER, OREGANO, SALT, BLACK PEPPER), SAUSAGE: (PORK, SALT, SPICES, FLAVORING)." Date available: 09/07/2017 Date last updated by company: 09/07/2017
