Source: USDA Branded Food Products Database Release December 2017 Software v.3.8.6.4 2017-10-02
Report Run at: December 17, 2017 18:56 EST
"Nutrient data for: 45033780, SAVE TODAY, DRESSING, RANCH, UPC: 051933189652"
Food Group:  Branded Food Products Database
Common Name:

Nutrient,Unit,Data points,Std. Error,"2.0 Tbsp = 30.0g",1Value per 100 g,
Proximates
"Energy",kcal,--,--,80,267
"Protein",g,--,--,0.00,0.00
"Total lipid (fat)",g,--,--,8.00,26.67
"Carbohydrate, by difference",g,--,--,2.00,6.67
"Fiber, total dietary",g,--,--,0.0,0.0
"Sugars, total",g,--,--,1.00,3.33
Minerals
"Calcium, Ca",mg,--,--,0,0
"Iron, Fe",mg,--,--,0.00,0.00
"Sodium, Na",mg,--,--,230,767
Vitamins
"Vitamin C, total ascorbic acid",mg,--,--,0.0,0.0
"Vitamin A, IU",IU,--,--,0,0
Lipids
"Fatty acids, total saturated",g,--,--,0.999,3.330
"Fatty acids, total trans",g,--,--,0.000,0.000
"Cholesterol",mg,--,--,10,33
Amino Acids
Other
Ingredients
"WATER, SOYBEAN OIL, VINEGAR, SUGAR, EGG YOLKS, CONTAINS 2% OR LESS OF: SALT, FOOD STARCH-MODIFIED, WHEY SOLIDS, NONFAT DRY MILK, PHOSPHORIC ACID, XANTHAN GUM, GARLIC POWDER, ONION POWDER, MONOSODIUM GLUTAMATE, BUTTERMILK POWDER, DISODIUM PHOSPHATE, SPICES, SORBIC ACID, NATURAL AND ARTIFICIAL FLAVORS, DISODIUM INOSINATE, DISODIUM GUANYLATE, POLYSORBATE 60, DRIED PARSLEY, CALCIUM DISODIUM EDTA (TO PROTECT FLAVOR)." Date available: 06/24/2017 Date last updated by company: 06/24/2017
