Source: USDA Branded Food Products Database Release December 2017 Software v.3.8.6.4 2017-10-02
Report Run at: December 17, 2017 18:57 EST
"Nutrient data for: 45014539, SAVORY COLLECTION, THOUSAND ISLAND DRESSING, UPC: 095815221030"
Food Group:  Branded Food Products Database
Common Name:

Nutrient,Unit,Data points,Std. Error,"2.0 Tbsp = 30.0g",1Value per 100 g,
Proximates
"Energy",kcal,--,--,35,117
"Protein",g,--,--,0.00,0.00
"Total lipid (fat)",g,--,--,1.00,3.33
"Carbohydrate, by difference",g,--,--,6.00,20.00
"Fiber, total dietary",g,--,--,0.0,0.0
"Sugars, total",g,--,--,5.00,16.67
Minerals
"Potassium, K",mg,--,--,10,33
"Sodium, Na",mg,--,--,271,903
Vitamins
Lipids
"Fatty acids, total saturated",g,--,--,0.000,0.000
"Fatty acids, total trans",g,--,--,0.000,0.000
"Cholesterol",mg,--,--,1,3
Amino Acids
Other
Ingredients
"WATER, HIGH FRUCTOSE CORN SYRUP, VINEGAR, TOMATO PASTE, MODIFIED FOOD STARCH, NON-HYDROGENATED SOYBEAN OIL, SALT, MUSTARD SEED, CUCUMBER, LESS THAN 2% OF THE FOLLOWING: GRANULATED GARLIC, DRIED EGG YOLK, ARTIFICIAL COLOR, SPICES, SPICE EXTRACTIVES, XANTHAN GUM (NATURAL FOOD FIBER), LESS THAN 0.1% POTASSIUM SORBATE & SODIUM BENZOATE (AS PRESERVATIVES), CALCIUM DISODIUM EDTA (TO PROTECT FLAVOR)." Date available: 07/14/2017 Date last updated by company: 07/14/2017
