Source: USDA Branded Food Products Database Release December 2017 Software v.3.8.6.4 2017-10-02
Report Run at: December 17, 2017 18:59 EST
"Nutrient data for: 45276873, SAVORY HERB CROUTONS, UPC: 074175264727"
Food Group:  Branded Food Products Database
Common Name:

Nutrient,Unit,Data points,Std. Error,"2.0 Tbsp = 7.0g",1Value per 100 g,
Proximates
"Energy",kcal,--,--,30,429
"Protein",g,--,--,1.00,14.29
"Total lipid (fat)",g,--,--,1.00,14.29
"Carbohydrate, by difference",g,--,--,5.00,71.43
"Fiber, total dietary",g,--,--,0.0,0.0
"Sugars, total",g,--,--,0.00,0.00
Minerals
"Calcium, Ca",mg,--,--,0,0
"Iron, Fe",mg,--,--,2.57,36.75
"Sodium, Na",mg,--,--,95,1357
Vitamins
"Vitamin C, total ascorbic acid",mg,--,--,0.0,0.0
"Vitamin A, IU",IU,--,--,0,0
Lipids
"Fatty acids, total saturated",g,--,--,0.000,0.000
"Fatty acids, total trans",g,--,--,0.000,0.000
"Cholesterol",mg,--,--,0,0
Amino Acids
Other
Ingredients
"ENRICHED FLOUR (WHEAT FLOUR, MALTED BARLEY FLOUR, NIACIN, REDUCED IRON, THIAMIN MONONITRATE, RIBOFLAVIN, FOLIC ACID), CANOLA AND/OR SUNFLOWER OIL, YEAST, SALT, 2% OR LESS OF HIGH FRUCTOSE CORN SYRUP, WHEY, DEXTROSE, ONION POWDER, TOMATO POWDER, GARLIC POWDER, DEHYDRATED PARSLEY, CARROT POWDER, SPICES, DILLWEED, NATURAL AND ARTIFICIAL FLAVOR, CALCIUM PROPIONATE (PRESERVATIVE), CALCIUM PEROXIDE, CALCIUM SULFATE, ASCORBIC ACID, AZODICARBONAMIDE, ENZYMES, SODIUM STEAROYL LACTYLATE, AUTOLYZED YEAST, TURMERIC (COLOR), MALIC ACID, DISODIUM INOSINATE, DISODIUM GUANYLATE, SODIUM ACETATE, LACTOSE, FUMARIC ACID, CITRIC ACID, TBHQ (TO PRESERVE FRESHNESS)." Date available: 08/23/2017 Date last updated by company: 08/23/2017
