Source: USDA Branded Food Products Database Release December 2017 Software v.3.8.6.4 2017-10-02
Report Run at: December 17, 2017 18:57 EST
"Nutrient data for: 45014537, SAVORY COLLECTION, CREAMY ITALIAN DRESSING, UPC: 095815221443"
Food Group:  Branded Food Products Database
Common Name:

Nutrient,Unit,Data points,Std. Error,"2.0 Tbsp = 30.0g",1Value per 100 g,
Proximates
"Energy",kcal,--,--,20,67
"Protein",g,--,--,0.00,0.00
"Total lipid (fat)",g,--,--,0.00,0.00
"Carbohydrate, by difference",g,--,--,5.00,16.67
"Fiber, total dietary",g,--,--,0.0,0.0
"Sugars, total",g,--,--,3.00,10.00
Minerals
"Calcium, Ca",mg,--,--,2,7
"Iron, Fe",mg,--,--,0.00,0.00
"Potassium, K",mg,--,--,5,17
"Sodium, Na",mg,--,--,312,1040
Vitamins
"Vitamin C, total ascorbic acid",mg,--,--,0.0,0.0
"Vitamin A, IU",IU,--,--,7,23
Lipids
"Fatty acids, total saturated",g,--,--,0.000,0.000
"Fatty acids, total trans",g,--,--,0.000,0.000
"Cholesterol",mg,--,--,1,3
Amino Acids
Other
Ingredients
"WATER, HIGH FRUCTOSE CORN SYRUP, VINEGAR, MODIFIED FOOD STARCH, SALT, CIDER VINEGAR, NON-HYDROGENATED SOYBEAN OIL, DEHYDRATED GARLIC, DEHYDRATED ONION, DRIED EGG YOLKS, XANTHAN GUM (A NATURAL FOOD FIBER), ARTIFICIAL COLOR, LESS THAN 0.1% SODIUM BENZOATE & POTASSIUM SORBATE (AS PRESERVATIVES), MUSTARD POWDER, SPICE EXTRACTIVES, RED BELL PEPPER, SPICES, CELERY SEED, CHIVES, CALCIUM DISODIUM EDTA (TO PROTECT FLAVOR), NATURAL FLAVOR." Date available: 07/14/2017 Date last updated by company: 07/14/2017
