Source: USDA Branded Food Products Database Release December 2017 Software v.3.8.6.4 2017-10-02
Report Run at: December 17, 2017 19:00 EST
"Nutrient data for: 45274823, SAVORY SAUTE SQUASH KIT, UPC: 825401303709"
Food Group:  Branded Food Products Database
Common Name:

Nutrient,Unit,Data points,Std. Error,"5.25 ONZ = 147.0g",1Value per 100 g,
Proximates
"Energy",kcal,--,--,50,34
"Protein",g,--,--,4.00,2.72
"Total lipid (fat)",g,--,--,0.00,0.00
"Carbohydrate, by difference",g,--,--,10.00,6.80
"Fiber, total dietary",g,--,--,4.0,2.7
"Sugars, total",g,--,--,4.00,2.72
Minerals
"Calcium, Ca",mg,--,--,29,20
"Iron, Fe",mg,--,--,1.21,0.82
"Potassium, K",mg,--,--,390,265
"Sodium, Na",mg,--,--,410,279
Vitamins
"Vitamin C, total ascorbic acid",mg,--,--,51.5,35.0
"Vitamin A, IU",IU,--,--,2333,1587
Lipids
"Fatty acids, total saturated",g,--,--,0.000,0.000
"Fatty acids, total trans",g,--,--,0.000,0.000
"Cholesterol",mg,--,--,0,0
Amino Acids
Other
Ingredients
"SPICES (INCLUDING CHILI PEPPER), RED BELL PEPPER, GARLIC, SALT, SUGAR, SMOKED PAPRIKA, PARSLEY, SILICON DIOXIDE (ANTI-CAKING AGENT)." Date available: 09/13/2017 Date last updated by company: 09/13/2017
