Source: USDA Branded Food Products Database Release December 2017 Software v.3.8.6.4 2017-10-02
Report Run at: December 17, 2017 18:56 EST
"Nutrient data for: 45317021, SAVORITZ, 4 KIDS, CHEESE DIP & CRACKER STICKS, UPC: 041498156473"
Food Group:  Branded Food Products Database
Common Name:

Nutrient,Unit,Data points,Std. Error,"1 UNIT = 28.0g",1Value per 100 g,
Proximates
"Energy",kcal,--,--,100,357
"Protein",g,--,--,2.00,7.14
"Total lipid (fat)",g,--,--,4.00,14.29
"Carbohydrate, by difference",g,--,--,14.00,50.00
"Fiber, total dietary",g,--,--,0.0,0.0
"Sugars, total",g,--,--,3.00,10.71
Minerals
"Calcium, Ca",mg,--,--,40,143
"Iron, Fe",mg,--,--,0.64,2.29
"Sodium, Na",mg,--,--,330,1179
Vitamins
"Vitamin C, total ascorbic acid",mg,--,--,0.0,0.0
"Vitamin A, IU",IU,--,--,357,1275
Lipids
"Fatty acids, total saturated",g,--,--,1.501,5.360
"Fatty acids, total trans",g,--,--,0.000,0.000
"Cholesterol",mg,--,--,5,18
Amino Acids
Other
Ingredients
"CRACKER STICK: ENRICHED FLOUR [WHEAT FLOUR, NIACIN, REDUCED IRON, THIAMINE MONONITRATE (VITAMIN B1), RIBOFLAVIN (VITAMIN B2), FOLIC ACID], SUGAR, VEGETABLE OIL (COTTONSEED, CANOLA AND/OR PARTIALLY HYDROGENATED SOYBEAN OIL WITH TBHQ), CONTAINS 2% OR LESS OF: SALT, YEAST EXTRACT, SODIUM BICARBONATE. PASTEURIZED PROCESS CHEESE DIP: WHEY, CHEDDAR AND OTHER NATURAL CHEESE [MILK, CHEESE CULTURE, SALT, ENZYMES, ANNATTO (VEGETABLE COLOR)], WATER, MILKFAT, MALTODEXTRIN, SODIUM PHOSPHATE, CORN SYRUP SOLIDS, PARTIALLY HYDROGENATED SOYBEAN OIL, CONTAINS 2% OR LESS OF: SODIUM ALGINATE, SALT, XANTHAN GUM, LACTIC ACID, APO-CAROTENAL (COLOR), SORBIC ACID (PRESERVATIVE), DISTILLED MONOGLYCERIDES, NATURAL FLAVORS, ASCORBIC ACID, CITRIC ACID." Date available: 07/14/2017 Date last updated by company: 07/14/2017
