Source: USDA Branded Food Products Database Release December 2017 Software v.3.8.6.4 2017-10-02
Report Run at: December 17, 2017 19:01 EST
"Nutrient data for: 45108608, SAWYER'S, COMANCHERO, CHILI MIX, MANGO-HABANERO, UPC: 859736002679"
Food Group:  Branded Food Products Database
Common Name:

Nutrient,Unit,Data points,Std. Error,"4.0 W/ ADDED MEAT = 51.0g",1Value per 100 g,
Proximates
"Energy",kcal,--,--,170,333
"Protein",g,--,--,9.00,17.65
"Total lipid (fat)",g,--,--,1.00,1.96
"Carbohydrate, by difference",g,--,--,32.00,62.75
"Fiber, total dietary",g,--,--,9.0,17.6
"Sugars, total",g,--,--,3.00,5.88
Minerals
"Calcium, Ca",mg,--,--,60,118
"Iron, Fe",mg,--,--,5.29,10.38
"Sodium, Na",mg,--,--,390,765
Vitamins
"Vitamin C, total ascorbic acid",mg,--,--,23.5,46.1
"Vitamin A, IU",IU,--,--,0,0
Lipids
"Fatty acids, total saturated",g,--,--,0.000,0.000
"Fatty acids, total trans",g,--,--,0.000,0.000
"Cholesterol",mg,--,--,0,0
Amino Acids
Other
Ingredients
"PRE-COOKED PINTO & KIDNEY BEANS. TOMATO POWDER, DEHYDRATED MANGO (MANGO, SUGAR, CITRIC ACID, SULFER DIOXIDE AS PRESERVATIVE, FD&C YELLOW # 5 AND #6), SPICES, DEHYDRATED VEGETABLES (ONIONS, RED & GREEN BELL PEPPERS), SUGAR, GARLIC GRANULES, FOOD STARCH-MODIFIED, CARAMEL COLOR, SEA SALT, CITRIC ACID, ONION POWDER." Date available: 06/25/2017 Date last updated by company: 06/25/2017
