Source: USDA Branded Food Products Database Release December 2017 Software v.3.8.6.4 2017-10-02
Report Run at: December 17, 2017 19:02 EST
"Nutrient data for: 45114603, SAZON, UPC: 075669108336"
Food Group:  Branded Food Products Database
Common Name:

Nutrient,Unit,Data points,Std. Error,"1 GRM = 1.0g",1Value per 100 g,
Proximates
"Energy",kcal,--,--,0,0
"Total lipid (fat)",g,--,--,0.00,0.00
"Carbohydrate, by difference",g,--,--,0.00,0.00
Minerals
"Sodium, Na",mg,--,--,170,17000
Vitamins
Lipids
"Fatty acids, total trans",g,--,--,0.000,0.000
"Cholesterol",mg,--,--,0,0
Amino Acids
Other
Ingredients
"MONOSODIUM GLUMATE, SALT, GARLIC POWDER, ONION POWDER, SPICES EXTRACTS, NATURAL COLOR, TRICALCIUM PHOSPHATE (ANTICAKING AGENT)." Date available: 10/13/2017 Date last updated by company: 10/13/2017
