Source: USDA Branded Food Products Database Release December 2017 Software v.3.8.6.4 2017-10-02
Report Run at: December 17, 2017 19:03 EST
"Nutrient data for: 45195996, SCALLOPED POTATOES, UPC: 041270946322"
Food Group:  Branded Food Products Database
Common Name:

Nutrient,Unit,Data points,Std. Error,"0.33 CUP POTATO SLICES AND 1 -1/2 TBSP DRY SAUCE MIX) | ABOUT = 28.0g",1Value per 100 g,
Proximates
"Energy",kcal,--,--,100,357
"Protein",g,--,--,2.00,7.14
"Total lipid (fat)",g,--,--,0.00,0.00
"Carbohydrate, by difference",g,--,--,21.00,75.00
"Fiber, total dietary",g,--,--,2.0,7.1
"Sugars, total",g,--,--,1.00,3.57
Minerals
"Calcium, Ca",mg,--,--,20,71
"Iron, Fe",mg,--,--,0.64,2.29
"Sodium, Na",mg,--,--,600,2143
Vitamins
"Vitamin C, total ascorbic acid",mg,--,--,10.7,38.3
"Vitamin A, IU",IU,--,--,0,0
Lipids
"Fatty acids, total saturated",g,--,--,0.000,0.000
"Fatty acids, total trans",g,--,--,0.000,0.000
"Cholesterol",mg,--,--,0,0
Amino Acids
Other
Ingredients
"DEHYDRATED POTATOES WITH PRESERVATIVE (SODIUM BISULFITE), ENRICHED FLOUR (WHEAT FLOUR NIACIN, IRON, THIAMINE MONONITRATE RIBOFLAVIN, FOLIC ACID), CORN STARCH, SALT, WHEY, CONTAINS 2% OR LESS OF: CORN SYRUP SOLIDS, PALM OIL, DEHYDRATED ONION, NATURAL FLAVOR, BAKING SODA, DEHYDRATED CELERY, SPICE, COLOR (PAPRIKA, ANNATTO EXTRACT), SODIUM CASEINATE, DIPOTASSIUM PHOSPHATE, DISODIUM GUANYLATE, DISODIUM INOSINATE, EMULSIFIER (MONOGLYCERIDES), GUAR GUM, PRESERVATIVE (TBHQ), SODIUM SILICOALUMINATE" Date available: 07/14/2017 Date last updated by company: 07/14/2017
