Source: USDA Branded Food Products Database Release December 2017 Software v.3.8.6.4 2017-10-02
Report Run at: December 17, 2017 19:03 EST
"Nutrient data for: 45126773, SCALLOPED POTATOES, UPC: 075900006155"
Food Group:  Branded Food Products Database
Common Name:

Nutrient,Unit,Data points,Std. Error,"0.666 cup = 140.0g",1Value per 100 g,
Proximates
"Energy",kcal,--,--,239,171
"Protein",g,--,--,7.99,5.71
"Total lipid (fat)",g,--,--,16.00,11.43
"Carbohydrate, by difference",g,--,--,18.00,12.86
"Fiber, total dietary",g,--,--,1.0,0.7
"Sugars, total",g,--,--,3.00,2.14
Minerals
"Calcium, Ca",mg,--,--,150,107
"Iron, Fe",mg,--,--,0.13,0.09
"Sodium, Na",mg,--,--,560,400
Vitamins
"Vitamin C, total ascorbic acid",mg,--,--,1.7,1.2
"Vitamin A, IU",IU,--,--,447,319
Lipids
"Fatty acids, total saturated",g,--,--,9.002,6.430
"Fatty acids, total trans",g,--,--,0.000,0.000
"Cholesterol",mg,--,--,50,36
Amino Acids
Other
Ingredients
"POTATOES, MILK, CHEDDAR CHEESE (PASTEURIZED MILK, CHEESE CULTURE, SALT, ENZYMES AND ANNATTO [VEGETABLE COLOR]), BUTTER (CREAM [MILK], SALT), SOUR CREAM (CULTURED CREAM, SKIM MILK, MODIFIED FOOD CORN STARCH, WHEY POWDER, GUAR GUM, LOCUST BEAN GUM, SODIUM CITRATE, POTASSIUM SORBATE [PRESERVATIVE], CARRAGEENAN), ONION, WATER, CHEESE (CHEDDAR CHEESE [PASTEURIZED MILK, CHEESE CULTURE, SALT, ENZYMES], WATER, SALT), PARMESAN AND ROMANO CHEESE (PASTEURIZED MILK, CHEESE CULTURE, SALT, ENZYMES). CONTAINS LESS THAN 2% OF THE FOLLOWING: MODIFIED FOOD STARCH, DEXTROSE, SALT, GELATIN, ONION POWDER, POTASSIUM SORBATE (TO PRESERVE FRESHNESS), SODIUM ACID PYROPHOSPHATE, BLACK PEPPER." Date available: 07/14/2017 Date last updated by company: 07/14/2017
