Source: USDA Branded Food Products Database Release December 2017 Software v.3.8.6.4 2017-10-02
Report Run at: December 17, 2017 19:04 EST
"Nutrient data for: 45214562, SCARY BERRY GHOST SHAPED MARSHMALLOWS, UPC: 054300233392"
Food Group:  Branded Food Products Database
Common Name:

Nutrient,Unit,Data points,Std. Error,"7.0 PIECES = 30.0g",1Value per 100 g,
Proximates
"Energy",kcal,--,--,90,300
"Protein",g,--,--,1.00,3.33
"Total lipid (fat)",g,--,--,0.00,0.00
"Carbohydrate, by difference",g,--,--,23.00,76.67
"Sugars, total",g,--,--,15.00,50.00
Minerals
"Sodium, Na",mg,--,--,35,117
Vitamins
Lipids
Amino Acids
Other
Ingredients
"CORN SYRUP, SUGAR, MODIFIED FOOD STARCH (CORN), GELATIN (GELATINE, PECTIN), WATER, DEXTROSE, CITRIC ACID, TETRASODIUM PYROPHOSPHATE, NATURAL AND ARTIFICIAL FLAVOR, BLUE 1 LAKE, BLUE 2 LAKE, TITANIUM DIOXIDE." Date available: 07/14/2017 Date last updated by company: 07/14/2017
