Source: USDA Branded Food Products Database Release December 2017 Software v.3.8.6.4 2017-10-02
Report Run at: December 17, 2017 19:05 EST
"Nutrient data for: 45318722, SCHARFFEN BERGER, BITTERSWEET BAKING CHUNKS FINE ARTISAN DARK CHOCOLATE, UPC: 643392501511"
Food Group:  Branded Food Products Database
Common Name:

Nutrient,Unit,Data points,Std. Error,"1 Tbsp = 15.0g",1Value per 100 g,
Proximates
"Energy",kcal,--,--,80,533
"Protein",g,--,--,1.00,6.67
"Total lipid (fat)",g,--,--,6.00,40.00
"Carbohydrate, by difference",g,--,--,7.00,46.67
"Fiber, total dietary",g,--,--,1.0,6.7
"Sugars, total",g,--,--,5.00,33.33
Minerals
"Calcium, Ca",mg,--,--,0,0
"Iron, Fe",mg,--,--,1.20,8.00
"Sodium, Na",mg,--,--,0,0
Vitamins
"Vitamin C, total ascorbic acid",mg,--,--,0.0,0.0
"Vitamin A, IU",IU,--,--,0,0
Lipids
"Fatty acids, total saturated",g,--,--,4.000,26.670
"Fatty acids, total trans",g,--,--,0.000,0.000
"Cholesterol",mg,--,--,0,0
Amino Acids
Other
Ingredients
"CACAO BEANS*; SUGAR; COCOA BUTTER*; NON-GMO SOY LECITHIN; WHOLE VANILLA BEANS." Date available: 06/25/2017 Date last updated by company: 06/25/2017
