Source: USDA Branded Food Products Database Release December 2017 Software v.3.8.6.4 2017-10-02
Report Run at: December 17, 2017 19:13 EST
"Nutrient data for: 45089905, SCHULTZ'S GOURMET, COOKING HOT SAUCES, SPICY, UPC: 857004001003"
Food Group:  Branded Food Products Database
Common Name:

Nutrient,Unit,Data points,Std. Error,"1 Tbsp = 15.0g",1Value per 100 g,
Proximates
"Energy",kcal,--,--,35,233
"Protein",g,--,--,0.50,3.33
"Total lipid (fat)",g,--,--,1.50,10.00
"Carbohydrate, by difference",g,--,--,4.00,26.67
"Fiber, total dietary",g,--,--,0.0,0.0
"Sugars, total",g,--,--,1.50,10.00
Minerals
"Sodium, Na",mg,--,--,115,767
Vitamins
Lipids
"Fatty acids, total saturated",g,--,--,1.000,6.670
"Fatty acids, total trans",g,--,--,0.000,0.000
"Cholesterol",mg,--,--,3,20
Amino Acids
Other
Ingredients
"AGED CAYENNE PEPPERS, DISTILLED WATER, VINEGAR, UNSALTED BUTTER, SEA SALT, EXTRA VIRGIN OLIVE OIL, FRESH CHOPPED GARLIC, PEPPERS, SPICES AND XANTHAN GUM." Date available: 06/25/2017 Date last updated by company: 06/25/2017
