Source: USDA Branded Food Products Database Release December 2017 Software v.3.8.6.4 2017-10-02
Report Run at: December 17, 2017 19:14 EST
"Nutrient data for: 45165883, SCHWARTZ BROTHERS BAKERY, SHORTBREAD COOKIES, CHOCOLATE ALMOND, UPC: 717887178080"
Food Group:  Branded Food Products Database
Common Name:

Nutrient,Unit,Data points,Std. Error,"1 COOKIE = 21.0g",1Value per 100 g,
Proximates
"Energy",kcal,--,--,110,524
"Protein",g,--,--,1.00,4.76
"Total lipid (fat)",g,--,--,7.00,33.33
"Carbohydrate, by difference",g,--,--,13.00,61.90
"Fiber, total dietary",g,--,--,1.0,4.8
"Sugars, total",g,--,--,6.00,28.57
Minerals
"Calcium, Ca",mg,--,--,0,0
"Iron, Fe",mg,--,--,0.86,4.08
"Sodium, Na",mg,--,--,60,286
Vitamins
"Vitamin C, total ascorbic acid",mg,--,--,0.0,0.0
"Vitamin A, IU",IU,--,--,0,0
Lipids
"Fatty acids, total saturated",g,--,--,4.000,19.050
"Fatty acids, total trans",g,--,--,0.000,0.000
"Cholesterol",mg,--,--,15,71
Amino Acids
Other
Ingredients
"ENRICHED UNBLEACHED FLOUR (WHEAT FLOUR, NIACIN, REDUCED IRON, THIAMIN MONONITRATE, RIBOFLAVIN, FOLIC ACID), BUTTER (FROM MILK), SUGAR, COVERLUX WHITE (SUGAR, FRACTIONATED PALM KERNEL OIL, NON FAT MILK, WHOLE MILK, WHEY POWDER, PALM OIL, SOY LECITHIN [AN EMULSIFIER], VANILLA), COCOA POWDER (COCOA PROCESED WITH POTASSIUM CARBONATE), WATER, ALMONDS, VANILLA EXTRACT (WATER, ETHYL ALCOHOL, VANILLA BEANS EXTRACTIVES), BAKING POWDER (SODIUM ACID PYROPHOSPHATE, SODIUM BICARBONATE, CORN STARCH, MONOCALCIUM PHOSPHATE), SEA SALT, CINNAMON." Date available: 07/14/2017 Date last updated by company: 07/14/2017
