Source: USDA Branded Food Products Database Release December 2017 Software v.3.8.6.4 2017-10-02
Report Run at: December 17, 2017 19:16 EST
"Nutrient data for: 45178062, SCONES, UPC: 717887220048"
Food Group:  Branded Food Products Database
Common Name:

Nutrient,Unit,Data points,Std. Error,"1 SCONE = 38.0g",1Value per 100 g,
Proximates
"Energy",kcal,--,--,140,368
"Protein",g,--,--,2.00,5.26
"Total lipid (fat)",g,--,--,6.00,15.79
"Carbohydrate, by difference",g,--,--,20.00,52.63
"Fiber, total dietary",g,--,--,1.0,2.6
"Sugars, total",g,--,--,8.00,21.05
Minerals
"Calcium, Ca",mg,--,--,20,53
"Iron, Fe",mg,--,--,1.04,2.74
"Sodium, Na",mg,--,--,120,316
Vitamins
"Vitamin C, total ascorbic acid",mg,--,--,0.0,0.0
"Vitamin A, IU",IU,--,--,1447,3809
Lipids
"Fatty acids, total saturated",g,--,--,3.500,9.210
"Fatty acids, total trans",g,--,--,0.000,0.000
"Cholesterol",mg,--,--,20,53
Amino Acids
Other
Ingredients
"SCONE MIX (ENRICHED WHEAT FLOUR [WHEAT FLOUR, NIACIN, IRON, THIAMINE MONONITRATE, RIBOFLAVIN, FOLIC ACID], SUGAR, LEAVENING [BAKING POWDER, SODIUM BICARBONATE, ENCAPSULATED SODIUM BICARBONATE, MONO DIGLYCERIDES], SALT, ORANGE PEEL), BUTTER (FROM MILK), PUMPKIN, POWDERED SUGAR (SUGAR, CONSTARCH), WATER, WHOLE EGGS, ORGANIC HONEY, BUTTERMILK, CINNAMON, GINGER, CORN SYRUP, NUTMEG, VANILLA EXTRACT (WATER, ETHYL ALCOHOL, VANILLA BEANS EXTRACTIVES), GUM ACACIA, GROUND CLOVES, CANOLA OIL, SALT, MODIFIED RICE STARCH." Date available: 07/14/2017 Date last updated by company: 07/14/2017
