Source: USDA Branded Food Products Database Release December 2017 Software v.3.8.6.4 2017-10-02
Report Run at: December 17, 2017 19:16 EST
"Nutrient data for: 45164049, SCONZA, JORDANETTES, ALMONDS IN A DELICIOUS CANDY SHELL, UPC: 041668019713"
Food Group:  Branded Food Products Database
Common Name:

Nutrient,Unit,Data points,Std. Error,"1.4 ONZ = 40.0g",1Value per 100 g,
Proximates
"Energy",kcal,--,--,180,450
"Protein",g,--,--,2.00,5.00
"Total lipid (fat)",g,--,--,6.00,15.00
"Carbohydrate, by difference",g,--,--,30.00,75.00
"Fiber, total dietary",g,--,--,1.0,2.5
"Sugars, total",g,--,--,28.00,70.00
Minerals
"Calcium, Ca",mg,--,--,40,100
"Iron, Fe",mg,--,--,0.45,1.12
"Sodium, Na",mg,--,--,5,12
Vitamins
"Vitamin C, total ascorbic acid",mg,--,--,0.0,0.0
"Vitamin A, IU",IU,--,--,0,0
Lipids
"Fatty acids, total saturated",g,--,--,0.400,1.000
"Fatty acids, total trans",g,--,--,0.000,0.000
"Cholesterol",mg,--,--,0,0
Amino Acids
Other
Ingredients
"SUGAR, ALMONDS, CORN SYRUP, TAPIOCA DEXTRIN, STARCH SOLUTION (MODIFIED STARCH, SUGAR, VEGETABLE OIL - COCONUT ORIGIN), NATURAL & ARTIFICIAL FLAVORS, ARTIFICIAL COLORS (RED 3, FD&C YELLOW 5 LAKE, BLUE 1 & 2 LAKE, TITANIUM DIOXIDE), CONFECTIONERS GLAZE (WITH BEESWAX & CARNAUBA WAX)." Date available: 07/14/2017 Date last updated by company: 07/14/2017
