Source: USDA Branded Food Products Database Release December 2017 Software v.3.8.6.4 2017-10-02
Report Run at: December 17, 2017 19:18 EST
"Nutrient data for: 45177326, SCOTT'S OF WISCONSIN, SWISS CHEESE, ALMOND, UPC: 075912041526"
Food Group:  Branded Food Products Database
Common Name:

Nutrient,Unit,Data points,Std. Error,"7.0 | ABOUT = 31.0g",1Value per 100 g,
Proximates
"Energy",kcal,--,--,110,355
"Protein",g,--,--,6.00,19.35
"Total lipid (fat)",g,--,--,8.00,25.81
"Carbohydrate, by difference",g,--,--,4.00,12.90
"Fiber, total dietary",g,--,--,0.4,1.3
"Sugars, total",g,--,--,4.00,12.90
Minerals
"Calcium, Ca",mg,--,--,150,484
"Iron, Fe",mg,--,--,0.00,0.00
"Sodium, Na",mg,--,--,140,452
Vitamins
"Vitamin C, total ascorbic acid",mg,--,--,0.0,0.0
"Vitamin A, IU",IU,--,--,322,1040
Lipids
"Fatty acids, total saturated",g,--,--,3.999,12.900
"Fatty acids, total trans",g,--,--,0.000,0.000
"Cholesterol",mg,--,--,25,81
Amino Acids
Other
Ingredients
"SWISS CHEESE (CULTURED PASTEURIZED MILK, SALT, ENZYMES), CHEDDAR CHEESE (CULTURED PASTEURIZED MILK, SALT, ENZYMES, CALCIUM CHLORIDE), WATER, ALMONDS, CREAM, WHEY, WHEY PROTEIN CONCENTRATE, REDUCED LACTOSE WHEY, SORBIC ACID (TO PROTECT FLAVOR), SALT, GUAR GUM." Date available: 07/14/2017 Date last updated by company: 07/14/2017
