Source: USDA Branded Food Products Database Release December 2017 Software v.3.8.6.4 2017-10-02
Report Run at: December 17, 2017 19:18 EST
"Nutrient data for: 45177370, SCOTT'S OF WISCONSIN, GARLIC BEER CHEESE SPREAD, UPC: 075912043520"
Food Group:  Branded Food Products Database
Common Name:

Nutrient,Unit,Data points,Std. Error,"2.0 Tbsp = 31.0g",1Value per 100 g,
Proximates
"Energy",kcal,--,--,90,290
"Protein",g,--,--,4.00,12.90
"Total lipid (fat)",g,--,--,7.00,22.58
"Carbohydrate, by difference",g,--,--,4.00,12.90
"Fiber, total dietary",g,--,--,0.0,0.0
"Sugars, total",g,--,--,3.00,9.68
Minerals
"Calcium, Ca",mg,--,--,100,323
"Iron, Fe",mg,--,--,0.00,0.00
"Sodium, Na",mg,--,--,170,548
Vitamins
"Vitamin C, total ascorbic acid",mg,--,--,0.0,0.0
"Vitamin A, IU",IU,--,--,322,1040
Lipids
"Fatty acids, total saturated",g,--,--,3.500,11.290
"Fatty acids, total trans",g,--,--,0.000,0.000
"Cholesterol",mg,--,--,20,65
Amino Acids
Other
Ingredients
"CHEDDAR CHEESE (CULTURED PASTEURIZED MILK, SALT, ENZYMES, VEGETABLE OR ANNATTO COLOR, CALCIUM CHLORIDE), CREAM CHEESE (PASTEURIZED MILK AND CREAM, CHEESE CULTURES, SALT, CAROB BEAN GUM), WATER, SALAD DRESSING (SOYBEAN AND/OR CANOLA OIL, WATER, HIGH FRUCTOSE CORN SYRUP, DISTILLED VINEGAR, MODIFIED CORN STARCH, EGG YOLKS, SALT, SEASONING [DEXTROSE, SPICES, ONION AND GARLIC POWDER, SPICE EXTRACTIVES], NATURAL FLAVOR, SODIUM BENZOATE [PRESERVATIVE], PAPRIKA EXTRACT), REDUCED LACTOSE WHEY, WHEY, BEER (WATER, MALT, CORN, HOPS), GARLIC POWDER, SORBIC ACID (TO PROTECT FLAVOR), ANNATTO COLOR, SALT, GUAR GUM. LACTIC ACID, APOCAROTENAL COLOR." Date available: 07/14/2017 Date last updated by company: 07/14/2017
