Source: USDA Branded Food Products Database Release December 2017 Software v.3.8.6.4 2017-10-02
Report Run at: December 17, 2017 19:19 EST
"Nutrient data for: 45049134, SCRAPPLE, UPC: 076295062009"
Food Group:  Branded Food Products Database
Common Name:

Nutrient,Unit,Data points,Std. Error,"2.0 ONZ = 56.0g",1Value per 100 g,
Proximates
"Energy",kcal,--,--,110,196
"Protein",g,--,--,6.00,10.71
"Total lipid (fat)",g,--,--,7.00,12.50
"Carbohydrate, by difference",g,--,--,6.00,10.71
"Fiber, total dietary",g,--,--,1.0,1.8
"Sugars, total",g,--,--,1.00,1.79
Minerals
"Calcium, Ca",mg,--,--,0,0
"Iron, Fe",mg,--,--,1.06,1.89
"Sodium, Na",mg,--,--,280,500
Vitamins
"Vitamin C, total ascorbic acid",mg,--,--,1.2,2.1
"Vitamin A, IU",IU,--,--,295,526
Lipids
"Fatty acids, total saturated",g,--,--,1.999,3.570
"Fatty acids, total trans",g,--,--,0.000,0.000
"Cholesterol",mg,--,--,20,36
Amino Acids
Other
Ingredients
"WATER, PORK WITH SKIN, CORN MEAL, PORK LIVERS, PORK SKINS, PORK TONGUES, PORK HEARTS, FLOUR, SALT, ONIONS, SPICE." Date available: 06/25/2017 Date last updated by company: 06/25/2017
