Source: USDA Branded Food Products Database Release December 2017 Software v.3.8.6.4 2017-10-02
Report Run at: December 17, 2017 19:20 EST
"Nutrient data for: 45009449, SCRUMPTIOUS PANTRY, TOMATO CATSUP, EARTHY WITH ROSEMARY AND JUNIPER BERRIES, UPC: 852885003252"
Food Group:  Branded Food Products Database
Common Name:

Nutrient,Unit,Data points,Std. Error,"1 Tbsp = 16.0g",1Value per 100 g,
Proximates
"Energy",kcal,--,--,10,62
"Protein",g,--,--,0.00,0.00
"Total lipid (fat)",g,--,--,0.00,0.00
"Carbohydrate, by difference",g,--,--,2.00,12.50
"Fiber, total dietary",g,--,--,0.0,0.0
"Sugars, total",g,--,--,1.00,6.25
Minerals
"Sodium, Na",mg,--,--,60,375
Vitamins
"Vitamin C, total ascorbic acid",mg,--,--,18.0,112.5
"Vitamin A, IU",IU,--,--,750,4688
Lipids
Amino Acids
Other
Ingredients
"TOMATOES, ONIONS, CANE SUGAR, APPLE CIDER VINEGAR, SEA SALT, GROUND JUNIPER BERRIES, GROUND ROSEMARY, SPICES, CITRIC ACID" Date available: 10/13/2017 Date last updated by company: 10/13/2017
