Source: USDA Branded Food Products Database Release December 2017 Software v.3.8.6.4 2017-10-02
Report Run at: December 17, 2017 19:29 EST
"Nutrient data for: 45292563, SEA SALT CARAMEL ICE CREAM, UPC: 858089003159"
Food Group:  Branded Food Products Database
Common Name:

Nutrient,Unit,Data points,Std. Error,"0.5 cup = 70.0g",1Value per 100 g,
Proximates
"Energy",kcal,--,--,80,114
"Protein",g,--,--,5.00,7.14
"Total lipid (fat)",g,--,--,2.00,2.86
"Carbohydrate, by difference",g,--,--,15.00,21.43
"Fiber, total dietary",g,--,--,3.0,4.3
"Sugars, total",g,--,--,7.00,10.00
Minerals
"Calcium, Ca",mg,--,--,110,157
"Iron, Fe",mg,--,--,1.82,2.60
"Sodium, Na",mg,--,--,110,157
Vitamins
"Vitamin C, total ascorbic acid",mg,--,--,0.0,0.0
"Vitamin A, IU",IU,--,--,113,161
Lipids
"Fatty acids, total saturated",g,--,--,1.001,1.430
"Fatty acids, total trans",g,--,--,0.000,0.000
"Cholesterol",mg,--,--,40,57
Amino Acids
Other
Ingredients
"MILK AND CREAM, EGGS, ERYTHRITOL, PREBIOTIC FIBER, MILK PROTEIN CONCENTRATE, ORGANIC CANE SUGAR, CARAMEL SWIRL (CORN SYRUP, NONFAT MILK, SUGAR, BUTTER, SALT, NATURAL FLAVOR, SOY LECITHIN), VEGETABLE GLYCERIN, SEA SALT, NATURAL FLAVORS, ORGANIC CAROB GUM, ORGANIC GUAR GUM, ORGANIC STEVIA." Date available: 07/14/2017 Date last updated by company: 07/14/2017
