Source: USDA Branded Food Products Database Release December 2017 Software v.3.8.6.4 2017-10-02
Report Run at: December 17, 2017 19:22 EST
"Nutrient data for: 45119986, SEA CUISINE, SRIRACHA BUFFALO SHRIMP, UPC: 035493014470"
Food Group:  Branded Food Products Database
Common Name:

Nutrient,Unit,Data points,Std. Error,"5.0 SHRIMP | ABOUT = 84.0g",1Value per 100 g,
Proximates
"Energy",kcal,--,--,170,202
"Protein",g,--,--,11.00,13.10
"Total lipid (fat)",g,--,--,3.00,3.57
"Carbohydrate, by difference",g,--,--,23.00,27.38
"Fiber, total dietary",g,--,--,1.0,1.2
"Sugars, total",g,--,--,1.00,1.19
Minerals
"Calcium, Ca",mg,--,--,20,24
"Iron, Fe",mg,--,--,1.46,1.74
"Sodium, Na",mg,--,--,610,726
Vitamins
"Vitamin C, total ascorbic acid",mg,--,--,2.4,2.9
"Vitamin A, IU",IU,--,--,202,241
Lipids
"Fatty acids, total saturated",g,--,--,0.000,0.000
"Fatty acids, total trans",g,--,--,0.000,0.000
"Cholesterol",mg,--,--,60,71
Amino Acids
Other
Ingredients
"SHRIMP, WHEAT FLOUR, WATER, MODIFIED CORN STARCH, VEGETABLE OIL (CANOLA, COTTONSEED, AND/OR SOYBEAN), CONTAINS 2% OR LESS OF: SALT, NATURAL FLAVOR, HOT SAUCE (AGED RED PEPPERS, VINEGAR, SALT, GARLIC POWDER), XANTHAN GUM, SUGAR, MALIC ACID, WHEAT GLUTEN, LEAVENING (SODIUM ACID PYROPHOSPHATE, SODIUM BICARBONATE), MODIFIED WHEAT STARCH, GARLIC POWDER, MALTODEXTRIN, YEAST, MODIFIED POTATO STARCH, SPICES, VINEGAR, PAPRIKA EXTRACT (COLOR), SODIUM TRIPOLYPHOSPHATE (TO RETAIN MOISTURE)." Date available: 07/14/2017 Date last updated by company: 07/14/2017
