Source: USDA Branded Food Products Database Release December 2017 Software v.3.8.6.4 2017-10-02
Report Run at: December 17, 2017 19:27 EST
"Nutrient data for: 45185452, SEA MAZZ, LOBSTER FULLY COOKED, UPC: 748734660168"
Food Group:  Branded Food Products Database
Common Name:

Nutrient,Unit,Data points,Std. Error,"1 LOBSTER APPROX. = 85.0g",1Value per 100 g,
Proximates
"Energy",kcal,--,--,83,98
"Protein",g,--,--,17.00,20.00
"Total lipid (fat)",g,--,--,1.00,1.18
"Carbohydrate, by difference",g,--,--,1.00,1.18
"Fiber, total dietary",g,--,--,0.0,0.0
"Sugars, total",g,--,--,0.00,0.00
Minerals
"Calcium, Ca",mg,--,--,50,59
"Iron, Fe",mg,--,--,0.47,0.55
"Sodium, Na",mg,--,--,323,380
Vitamins
"Vitamin C, total ascorbic acid",mg,--,--,0.0,0.0
"Vitamin A, IU",IU,--,--,65,76
Lipids
"Fatty acids, total saturated",g,--,--,0.000,0.000
"Fatty acids, total trans",g,--,--,0.000,0.000
"Cholesterol",mg,--,--,61,72
Amino Acids
Other
Ingredients
"NORTH ATLANTIC LOBSTER ALL NATURAL WITH NO ADDITIVES AND NO PRESERVATIVES." Date available: 09/06/2017 Date last updated by company: 09/06/2017
