Source: USDA Branded Food Products Database Release December 2017 Software v.3.8.6.4 2017-10-02
Report Run at: December 17, 2017 19:28 EST
"Nutrient data for: 45294246, SEA PAK, SHRIMP SPRING ROLLS, UPC: 041322390219"
Food Group:  Branded Food Products Database
Common Name:

Nutrient,Unit,Data points,Std. Error,"3.0 ROLLS = 85.0g",1Value per 100 g,
Proximates
"Energy",kcal,--,--,170,200
"Protein",g,--,--,4.00,4.71
"Total lipid (fat)",g,--,--,9.00,10.59
"Carbohydrate, by difference",g,--,--,18.00,21.18
"Fiber, total dietary",g,--,--,2.0,2.4
"Sugars, total",g,--,--,1.00,1.18
Minerals
"Calcium, Ca",mg,--,--,20,24
"Iron, Fe",mg,--,--,0.72,0.85
"Sodium, Na",mg,--,--,440,518
Vitamins
"Vitamin C, total ascorbic acid",mg,--,--,4.8,5.6
"Vitamin A, IU",IU,--,--,1500,1765
Lipids
"Fatty acids, total saturated",g,--,--,1.496,1.760
"Fatty acids, total trans",g,--,--,0.000,0.000
"Cholesterol",mg,--,--,20,24
Amino Acids
Other
Ingredients
"WRAPPER (WHEAT FLOUR, WATER, SALT, VEGETABLE OIL), SHRIMP, SOYBEAN OIL, CABBAGE, WATER CHESTNUTS, RICE NOODLES (RICE, WATER), CARROTS, ONIONS, CONTAINS 2% OR LESS OF EACH OF THE FOLLOWING: DRIED GARLIC, FISH SAUCE (ANCHOVIES, WATER, SALT, SUGAR), OYSTER SAUCE (SOY SAUCE, [SOYBEANS, WHEAT, SALT, WATER], OYSTER EXTRACTIVES [OYSTER, DEXTRIN, SALT), MODIFIED TAPIOCA STARCH, SALT, OYSTER FLAVOR), PEPPER, SALT, SODIUM TRIPOLYSPHSPHATE (TO RETAIN MOISTURE), SUGAR, WATER. SAUCE: WATER, SUGAR, CHILI PEPPERS, VINEGAR, CONTAINS 2% OR LESS OF EACH OF THE FOLLOWING: FRUCTOSE, GINGER, MODIFIED WHEAT STARCH, SALT, SPICE." Date available: 07/14/2017 Date last updated by company: 07/14/2017
