Source: USDA Branded Food Products Database Release December 2017 Software v.3.8.6.4 2017-10-02
Report Run at: December 17, 2017 19:29 EST
"Nutrient data for: 45215732, SEA SALT CARAMEL CHOCOLATE CREME PIE, UPC: 078742077116"
Food Group:  Branded Food Products Database
Common Name:

Nutrient,Unit,Data points,Std. Error,"0.16667 PIE = 122.0g",1Value per 100 g,
Proximates
"Energy",kcal,--,--,410,336
"Protein",g,--,--,3.00,2.46
"Total lipid (fat)",g,--,--,22.00,18.03
"Carbohydrate, by difference",g,--,--,49.00,40.16
"Fiber, total dietary",g,--,--,1.0,0.8
"Sugars, total",g,--,--,26.00,21.31
Minerals
"Calcium, Ca",mg,--,--,40,33
"Iron, Fe",mg,--,--,1.11,0.91
"Sodium, Na",mg,--,--,310,254
Vitamins
"Vitamin C, total ascorbic acid",mg,--,--,0.0,0.0
"Vitamin A, IU",IU,--,--,205,168
Lipids
"Fatty acids, total saturated",g,--,--,14.006,11.480
"Fatty acids, total trans",g,--,--,0.000,0.000
"Cholesterol",mg,--,--,15,12
Amino Acids
Other
Ingredients
"SUGAR, WATER, ENRICHED FLOUR (WHEAT FLOUR, NIACIN, REDUCED IRON, THIAMINE MONONITRATE, RIBOFLAVIN, FOLIC ACID), CORN SYRUP, PALM OIL, HIGH FRUCTOSE CORN SYRUP, SKIM MILK, FOOD STARCH-MODIFIED, EGGS, LESS THAN 2% OF: SEA SALT, MARGARINE (PARTIALLY HYDROGENATED SOY OIL, WATER, MONO-AND DIGLYCERIDES, SOY LECITHIN, SALT, SODIUM BENZOATE [PRESERVATIVE], ARTIFICIAL FLAVOR, BETA-CAROTENE [COLOR], VITAMIN A PALMITATE), COCOA, DEXTROSE, SALT, SWEETENED CONDENSED MILK (WHOLE MILK, SUGAR), SWEET CREAM BUTTER, COCOA (PROCESSED WITH ALKALI), SOY LECITHIN, COCONUT OIL, MILK, SWEET CHOCOLATE CHIPS (COCOA BUTTER, CHOCOLATE LIQUOR, SUGAR, SOY LECITHIN, NATURAL FLAVOR), SOY PROTEIN CONCENTRATE, NATURAL AND ARTIFICIAL FLAVOR, SODIUM CASEINATE (A MILK DERIVATIVE), CARRAGEENAN, MONO-AND DIGLYCERIDES, CHOCOLATE LIQUOR, GUAR GUM, POLYSORBATE 60, POLYGLYCEROL ESTERS OF FATTY ACIDS, PRESERVATIVES (POTASSIUM SORBATE, CITRIC ACID, SORBIC, CALCIUM PROPIONATE), XANTHAN GUM, APPLE CIDER VINEGAR." Date available: 07/14/2017 Date last updated by company: 07/14/2017
