Source: USDA Branded Food Products Database Release December 2017 Software v.3.8.6.4 2017-10-02
Report Run at: December 17, 2017 19:32 EST
"Nutrient data for: 45279922, SEA SALT MULTIGRAIN QUINOA CRISPS, UPC: 050428501122"
Food Group:  Branded Food Products Database
Common Name:

Nutrient,Unit,Data points,Std. Error,"21.0 CRISPS | ABOUT = 28.0g",1Value per 100 g,
Proximates
"Energy",kcal,--,--,100,357
"Protein",g,--,--,2.00,7.14
"Total lipid (fat)",g,--,--,1.50,5.36
"Carbohydrate, by difference",g,--,--,20.00,71.43
"Fiber, total dietary",g,--,--,2.0,7.1
"Sugars, total",g,--,--,1.00,3.57
Minerals
"Calcium, Ca",mg,--,--,0,0
"Iron, Fe",mg,--,--,0.64,2.29
"Sodium, Na",mg,--,--,290,1036
Vitamins
"Vitamin C, total ascorbic acid",mg,--,--,0.0,0.0
"Vitamin A, IU",IU,--,--,0,0
Lipids
"Fatty acids, total saturated",g,--,--,0.000,0.000
"Fatty acids, total monounsaturated",g,--,--,0.000,0.000
"Fatty acids, total polyunsaturated",g,--,--,0.000,0.000
"Fatty acids, total trans",g,--,--,0.000,0.000
"Cholesterol",mg,--,--,0,0
Amino Acids
Other
Ingredients
"QUINOA CRISPS (BROWN RICE FLOUR, WHOLE GRAIN CORN FLOUR, POTATO STARCH, WHITE RICE FLOUR, TEFF FLOUR, QUINOA FLOUR, SUGAR, VEGETABLE OIL [CONTAINS ONE OR MORE OF THE FOLLOWING: CANOLA, CORN, SUNFLOWER, SAFFLOWER], SEA SALT), NON-GMO CANOLA OIL, SEA SALT." Date available: 07/14/2017 Date last updated by company: 07/14/2017
