Source: USDA Branded Food Products Database Release December 2017 Software v.3.8.6.4 2017-10-02
Report Run at: December 17, 2017 19:23 EST
"Nutrient data for: 45292551, SEAFOOD COCKTAIL SALAS, UPC: 00826520904877"
Food Group:  Branded Food Products Database
Common Name:

Nutrient,Unit,Data points,Std. Error,"0.5 cup = 100.0g",1Value per 100 g,
Proximates
"Energy",kcal,--,--,70,70
"Protein",g,--,--,5.00,5.00
"Total lipid (fat)",g,--,--,0.00,0.00
"Carbohydrate, by difference",g,--,--,13.00,13.00
"Fiber, total dietary",g,--,--,0.0,0.0
"Sugars, total",g,--,--,5.00,5.00
Minerals
"Calcium, Ca",mg,--,--,14,14
"Iron, Fe",mg,--,--,0.00,0.00
"Potassium, K",mg,--,--,78,78
"Sodium, Na",mg,--,--,740,740
Vitamins
"Vitamin D",IU,--,--,0,0
Lipids
"Fatty acids, total saturated",g,--,--,0.000,0.000
"Fatty acids, total trans",g,--,--,0.000,0.000
"Cholesterol",mg,--,--,25,25
Amino Acids
Other
Ingredients
"SURIMI (ALASKA POLLOCK, WATER, WHEAT STARCH, SUGAR, EGG WHITE, POTATO STARCH, SORBITOL, SALT, WHEAT FLOUR, NATURAL AND ARTIFICIAL FLAVORS {HYDROLYZED SOY PROTEIN, CRAB EXTRACT}, SODIUM TRIPOLYPHOSPHATE, TETRASODIUM PYROPHOSPHATE, COLOR ADDED, CARMINE COLOR), CHILI SAUCE (TOMATO PUREE {TOMATO PASTE, WATER}, DISTILLED WHITE VINEGAR, HIGH FRUCTOSE CORN SYRUP, SALT, CORN SYRUP, DEHYDRATED ONIONS, SPICE, GARLIC POWDER, NATURAL FLAVORING), SHRIMP (SHRIMP, SALT, NATURAL FLAVORINGS, COLOR ADDED {RED #40}), TOMATO, CUCUMBER, CLAM JUICE (OCEAN CLAM JUICE, SALT), JALAPENO PEPPERS, CELERY, ONIONS, LEMON JUICE (FILTERED WATER, LEMON JUICE CONCENTRATE, LEMON OIL, PRESERVED WITH 1/10 OF 1% SODIUM BENZOATE, AND 1/50 OF 1% SODIUM BISULFITE), CILANTRO, TAPATIO (WATER, RED PEPPERS, SALT, SPICES, GARLIC, ACETIC ACID, XANTHAN GUM, SODIUM BENZOATE AS A PRESERVATIVE), SALT, POTASSIUM SORBATE, SODIUM BENZOATE, OREGANO." Date available: 09/23/2017 Date last updated by company: 09/23/2017
