Source: USDA Branded Food Products Database Release December 2017 Software v.3.8.6.4 2017-10-02
Report Run at: December 17, 2017 19:23 EST
"Nutrient data for: 45262673, SEAFOOD CHEESE SPREAD, UPC: 615433180078"
Food Group:  Branded Food Products Database
Common Name:

Nutrient,Unit,Data points,Std. Error,"2.0 Tbsp = 27.0g",1Value per 100 g,
Proximates
"Energy",kcal,--,--,65,241
"Protein",g,--,--,3.00,11.11
"Total lipid (fat)",g,--,--,5.00,18.52
"Carbohydrate, by difference",g,--,--,3.00,11.11
"Fiber, total dietary",g,--,--,0.0,0.0
"Sugars, total",g,--,--,0.00,0.00
Minerals
"Calcium, Ca",mg,--,--,20,74
"Iron, Fe",mg,--,--,0.00,0.00
"Sodium, Na",mg,--,--,125,463
Vitamins
"Vitamin C, total ascorbic acid",mg,--,--,0.0,0.0
"Vitamin A, IU",IU,--,--,370,1372
Lipids
"Fatty acids, total saturated",g,--,--,2.001,7.410
"Fatty acids, total trans",g,--,--,0.000,0.000
"Cholesterol",mg,--,--,10,37
Amino Acids
Other
Ingredients
"CREAM CHEESE (PASTEURIZED MILK AND CREAM, CHEESE CULTURE, SALT, CAROB BEAN GUM), IMITATION CRABMEAT (FISH PROTEIN OF POLLOCK, WHITING, COD AND/OR THREADTIN BREAM, SUGAR, POLYPHOSPHATE), WATER, CORN/WHEAT STARCH, TAPIOCA STARCH, SUGAR, SORBITOL, SALT, SOYBEAN OIL, MIRIN (FLAVORING SUBSTANCES, WATER, GLUCOSE SYRUP ETHYL ALCOHOL), CRAB EXTRACT (NATURAL FLAVORING, GLUCOSE SYRUP, WATER, SALT, MONOSODIUM GLUTAMATE, RIBONUCLEOTIDES, POTASSIUM SORBATE, XANTHAN GUM), CRAB FLAVOR (NATURAL FLAVOR, FLAVORING SUBSTANCES, WATER, GLUCOSE SYRUP, ETHYL ALCOHOL, GLYCERINE, RIBONUCLEOTIDES, XANTHAN GUM, POTASSIUM SORBATE), CALCIUM CARBONATE, CARMINE AND PAPRIKA], MAYONNAISE [SOYBEAN AND/OR CANOLA OIL, EGG YOLKS, VINEGAR, WATER, SALT, SUGAR, SPICES AND OLEORESIN PAPRIKA, SPICE EXTRACT (FOR FRESHNESS)], IMITATION CHEDDAR CHEESE (WATER, HYDROGENATED SOYBEAN OIL, CASEIN, MODIFIED FOOD STARCH, SODIUM ALUMINUM PHOSPHATE, SALT, MALTODEXTRIN, LACTIC ACID, GUAR GUM, TRICALCIUM PHOSPHATE, CALCIUM PROPIONATE, CITRIC ACID, SODIUM CITRATE, DISODIUM PHOSPHATE, CALCIUM SULFATE, ARTIFICIAL COLORING, ARTIFICIAL FLAVORING, ANTI-CAKING AGENT), CHEDDAR CHEESE SAUCE [WATER, CHEESE WHEY, AGED CHEDDAR CHEESE (CULTURED MILK, SALT, ENZYMES, ANNATTO COLOR), PARTIALLY HYDROGENATED SOYBEAN OIL, CORN STARCH-MODIFIED, CONTAINS 2% OR LESS OF SODIUM PHOSPHATE, SALT, YEAST EXTRACT, MONOGLYCERIDES, LACTIC ACID, ANNATTO COLOR, FD & C YELLOW NO.6, MALTODEXTRIN, NATURAL FLAVOR], PIMIENTOS (PIMIENTOS, WATER, AND CITRIC ACID), CORN SYRUP, WATER, DRIED VINEGAR, NATURAL BUTTER FLAVOR, GRANULATED GARLIC, SODIUM BENZOATE, POTASSIUM SORBATE, SALT, NONFAT DRIED MILK, SPICE EXTRACT, PARSLEY, LEMON JUICE CONCENTRATE AND SPICES." Date available: 09/28/2017 Date last updated by company: 09/28/2017
