Source: USDA Branded Food Products Database Release December 2017 Software v.3.8.6.4 2017-10-02
Report Run at: December 17, 2017 19:23 EST
"Nutrient data for: 45197312, SEAFOOD COCKTAIL SAUCE, UPC: 071851001508"
Food Group:  Branded Food Products Database
Common Name:

Nutrient,Unit,Data points,Std. Error,"0.25 cup = 60.0g",1Value per 100 g,
Proximates
"Energy",kcal,--,--,50,83
"Protein",g,--,--,1.00,1.67
"Total lipid (fat)",g,--,--,0.00,0.00
"Carbohydrate, by difference",g,--,--,12.00,20.00
"Fiber, total dietary",g,--,--,1.0,1.7
"Sugars, total",g,--,--,14.00,23.33
Minerals
"Calcium, Ca",mg,--,--,20,33
"Iron, Fe",mg,--,--,0.73,1.22
"Sodium, Na",mg,--,--,970,1617
Vitamins
"Vitamin C, total ascorbic acid",mg,--,--,9.1,15.2
"Vitamin A, IU",IU,--,--,507,845
Lipids
"Fatty acids, total trans",g,--,--,0.000,0.000
Amino Acids
Other
Ingredients
"TOMATO PASTE, WATER, HIGH FRUCTOSE CORN SYRUP, DISTILLED VINEGAR, HORSERADISH, SALT, LEMON JUICE CONCENTRATE, SOYBEAN OIL, BEET POWDER, NATURAL FLAVOR & ARTIFICIAL FLAVOR, XANTHAN GUM, POTASSIUM SORBATE AND SODIUM BENZOATE (USED AS PRESERVATIVES), AND EDTA-CALCIUM DISODIUM (TO PROTECT QUALITY)." Date available: 07/14/2017 Date last updated by company: 07/14/2017
