Source: USDA Branded Food Products Database Release December 2017 Software v.3.8.6.4 2017-10-02
Report Run at: December 17, 2017 19:26 EST
"Nutrient data for: 45260260, SEAFOOD SEASONING, UPC: 089836194879"
Food Group:  Branded Food Products Database
Common Name:

Nutrient,Unit,Data points,Std. Error,"0.25 tsp = 0.7g",1Value per 100 g,
Proximates
"Energy",kcal,--,--,0,0
"Protein",g,--,--,0.00,0.00
"Total lipid (fat)",g,--,--,0.00,0.00
"Carbohydrate, by difference",g,--,--,0.00,0.00
Minerals
"Sodium, Na",mg,--,--,95,13571
Vitamins
"Vitamin A, IU",IU,--,--,14286,2040786
Lipids
Amino Acids
Other
Ingredients
"ORGANIC PAPRIKA, SEA SALT, ORGANIC CELERY SEED, ORGANIC BLACK PEPPER, ORGANIC MUSTARD, ORGANIC CAYENNE, SILICON DIOXIDE, ORGANIC BAY LEAF, ORGANIC GINGER, ORGANIC CINNAMON, ORGANIC MACE, ORGANIC CLOVES, ORGANIC ALLSPICE, ORGANIC CARDAMOM." Date available: 07/14/2017 Date last updated by company: 07/14/2017
