Source: USDA Branded Food Products Database Release December 2017 Software v.3.8.6.4 2017-10-02
Report Run at: December 17, 2017 19:27 EST
"Nutrient data for: 45293057, SEAFOOD, UPC: 028029058017"
Food Group:  Branded Food Products Database
Common Name:

Nutrient,Unit,Data points,Std. Error,"0.5 cup = 85.0g",1Value per 100 g,
Proximates
"Energy",kcal,--,--,90,106
"Protein",g,--,--,6.00,7.06
"Total lipid (fat)",g,--,--,0.00,0.00
"Carbohydrate, by difference",g,--,--,15.00,17.65
"Fiber, total dietary",g,--,--,0.0,0.0
"Sugars, total",g,--,--,3.00,3.53
Minerals
"Calcium, Ca",mg,--,--,0,0
"Iron, Fe",mg,--,--,0.00,0.00
"Sodium, Na",mg,--,--,520,612
Vitamins
"Vitamin C, total ascorbic acid",mg,--,--,0.0,0.0
"Vitamin A, IU",IU,--,--,400,471
Lipids
"Fatty acids, total saturated",g,--,--,0.000,0.000
"Fatty acids, total trans",g,--,--,0.000,0.000
"Cholesterol",mg,--,--,5,6
Amino Acids
Other
Ingredients
"FISH PROTEIN (ALASKA POLLOCK AND/OR PACIFIC WHITING), WATER, WHEAT STARCH, POTATO STARCH, SUGAR, CONTAINS 2% OR LESS OF: SNOW CRABMEAT, TAPIOCA STARCH, SORBITOL, EGG WHITES, SALT, ARTIFICIAL CRAB FLAVORS, POTASSIUM CHLORIDE, CARRAGEENAN, SODIUM TRIPOLYPHOSPHATE, TETRASODIUM PYROPHOSPHATE, COLOR ADDED, CARMINE, PAPRIKA OLEORESIN, MODIFIED FOOD STARCH, SOY LECITHIN, HYDROLYZED SOY PROTEIN." Date available: 09/07/2017 Date last updated by company: 09/07/2017
