Source: USDA Branded Food Products Database Release December 2017 Software v.3.8.6.4 2017-10-02
Report Run at: December 17, 2017 19:28 EST
"Nutrient data for: 45149373, SEAPOINT FARMS, SEAWEED CRISPS, PUMPKIN SEASAME, UPC: 711575004217"
Food Group:  Branded Food Products Database
Common Name:

Nutrient,Unit,Data points,Std. Error,"8.0 PIECES. | ABOUT = 10.0g",1Value per 100 g,
Proximates
"Energy",kcal,--,--,55,550
"Protein",g,--,--,2.00,20.00
"Total lipid (fat)",g,--,--,3.50,35.00
"Carbohydrate, by difference",g,--,--,3.50,35.00
"Fiber, total dietary",g,--,--,1.0,10.0
"Sugars, total",g,--,--,2.00,20.00
Minerals
"Calcium, Ca",mg,--,--,0,0
"Iron, Fe",mg,--,--,5.40,54.00
"Sodium, Na",mg,--,--,75,750
Vitamins
"Vitamin C, total ascorbic acid",mg,--,--,30.0,300.0
"Vitamin A, IU",IU,--,--,2500,25000
Lipids
"Fatty acids, total saturated",g,--,--,0.500,5.000
"Fatty acids, total trans",g,--,--,0.000,0.000
"Cholesterol",mg,--,--,0,0
Amino Acids
Other
Ingredients
"WHITE SESAME SEEDS, MALTOSE, NORI (SEAWEED), PUMPKIN SEEDS, KELP POWDER, SEA SALT." Date available: 07/14/2017 Date last updated by company: 07/14/2017
