Source: USDA Branded Food Products Database Release December 2017 Software v.3.8.6.4 2017-10-02
Report Run at: December 17, 2017 19:43 EST
"Nutrient data for: 45220249, SEASONED MINI BEEF BURGER SLIDER, UPC: 087706842103"
Food Group:  Branded Food Products Database
Common Name:

Nutrient,Unit,Data points,Std. Error,"2.0 SLIDERS = 113.0g",1Value per 100 g,
Proximates
"Energy",kcal,--,--,270,239
"Protein",g,--,--,23.00,20.35
"Total lipid (fat)",g,--,--,19.00,16.81
"Carbohydrate, by difference",g,--,--,0.99,0.88
"Fiber, total dietary",g,--,--,0.0,0.0
"Sugars, total",g,--,--,0.00,0.00
Minerals
"Calcium, Ca",mg,--,--,99,88
"Iron, Fe",mg,--,--,1.08,0.96
"Sodium, Na",mg,--,--,115,102
Vitamins
"Vitamin C, total ascorbic acid",mg,--,--,0.0,0.0
"Vitamin A, IU",IU,--,--,75,66
Lipids
"Fatty acids, total saturated",g,--,--,8.995,7.960
"Cholesterol",mg,--,--,75,66
Amino Acids
Other
Ingredients
"BEEF, CHEDDAR CHEESE (PASTEURIZED MILK, CHEESE CULTURE, SALT, ENZYMES, ANNATTO [COLOR]), MONTEREY JACK CHEESE (PASTEURIZED MILK, CHEESE CULTURE, SALT, ENZYMES), SWISS CHEESE (PART-SKIM MILK, CHEESE CULTURE, SALT, ENZYMES)." Date available: 09/06/2017 Date last updated by company: 09/06/2017
