Source: USDA Branded Food Products Database Release December 2017 Software v.3.8.6.4 2017-10-02
Report Run at: December 17, 2017 19:41 EST
"Nutrient data for: 45284328, SEASONED CURLY FRIES, UPC: 853420002303"
Food Group:  Branded Food Products Database
Common Name:

Nutrient,Unit,Data points,Std. Error,"3.0 ONZ = 85.0g",1Value per 100 g,
Proximates
"Energy",kcal,--,--,150,176
"Protein",g,--,--,2.00,2.35
"Total lipid (fat)",g,--,--,7.00,8.24
"Carbohydrate, by difference",g,--,--,21.00,24.71
"Fiber, total dietary",g,--,--,2.0,2.4
"Sugars, total",g,--,--,0.00,0.00
Minerals
"Calcium, Ca",mg,--,--,0,0
"Iron, Fe",mg,--,--,0.72,0.85
"Potassium, K",mg,--,--,220,259
"Sodium, Na",mg,--,--,420,494
Vitamins
"Vitamin C, total ascorbic acid",mg,--,--,4.8,5.6
"Vitamin A, IU",IU,--,--,0,0
Lipids
"Fatty acids, total saturated",g,--,--,1.003,1.180
"Fatty acids, total monounsaturated",g,--,--,3.502,4.120
"Fatty acids, total polyunsaturated",g,--,--,3.001,3.530
"Fatty acids, total trans",g,--,--,0.000,0.000
"Cholesterol",mg,--,--,0,0
Amino Acids
Other
Ingredients
"POTATOES, VEGETABLE OIL (CONTAINS ONE OR MORE OF THE FOLLOWING OILS: CANOLA, SOYBEAN, COTTONSEED, SUNFLOWER, CORN), BLEACHED ENRICHED WHEAT FLOUR (FLOUR, NIACIN, REDUCED IRON, THIAMINE MONONITRATE, RIBOFLAVIN, FOLIC ACID). CONTAINS 2% OR LESS OF ANNATTO (COLOR), DEXTROSE, DEXTRIN, EXTRACTIVES OF CAPSICUM, EXTRACTIVES OF PAPRIKA (COLOR), GARLIC POWDER, LEAVENING (SODIUM ACID PYROPHOSPHATE, SODIUM BICARBONATE), ONION POWDER, PAPRIKA (COLOR), SALT, SODIUM ACID PYROPHOSPHATE ADDED TO MAINTAIN NATURAL COLOR, SPICES, TAPIOCA STARCH, TAPIOCA STARCH - MODIFIED, XANTHAN GUM." Date available: 07/14/2017 Date last updated by company: 07/14/2017
