Source: USDA Branded Food Products Database Release December 2017 Software v.3.8.6.4 2017-10-02
Report Run at: December 17, 2017 19:37 EST
"Nutrient data for: 45225955, SEASONAL FRUIT BLEND, UPC: 077745245171"
Food Group:  Branded Food Products Database
Common Name:

Nutrient,Unit,Data points,Std. Error,"1 cup = 140.0g",1Value per 100 g,
Proximates
"Energy",kcal,--,--,70,50
"Protein",g,--,--,0.99,0.71
"Total lipid (fat)",g,--,--,0.00,0.00
"Carbohydrate, by difference",g,--,--,17.00,12.14
"Fiber, total dietary",g,--,--,2.0,1.4
"Sugars, total",g,--,--,14.00,10.00
Minerals
"Calcium, Ca",mg,--,--,20,14
"Iron, Fe",mg,--,--,0.36,0.26
"Sodium, Na",mg,--,--,10,7
Vitamins
"Vitamin C, total ascorbic acid",mg,--,--,42.0,30.0
"Vitamin A, IU",IU,--,--,1000,714
Lipids
"Fatty acids, total saturated",g,--,--,0.000,0.000
"Fatty acids, total trans",g,--,--,0.000,0.000
"Cholesterol",mg,--,--,0,0
Amino Acids
Other
Ingredients
"PINEAPPLE, CANTALOUPE, HONEYDEW, GRAPES, APPLES (CALCIUM ASCORBATE [ADDED TO MAINTAIN FRESHNESS AND COLOR])." Date available: 07/14/2017 Date last updated by company: 07/14/2017
