Source: USDA Branded Food Products Database Release December 2017 Software v.3.8.6.4 2017-10-02
Report Run at: December 17, 2017 19:43 EST
"Nutrient data for: 45056965, SEASONED ITALIAN STYLE CROUTONS, UPC: 070678002330"
Food Group:  Branded Food Products Database
Common Name:

Nutrient,Unit,Data points,Std. Error,"0.25 OZ = 7.0g",1Value per 100 g,
Proximates
"Energy",kcal,--,--,30,429
"Protein",g,--,--,1.00,14.29
"Total lipid (fat)",g,--,--,1.00,14.29
"Carbohydrate, by difference",g,--,--,5.00,71.43
"Fiber, total dietary",g,--,--,0.0,0.0
"Sugars, total",g,--,--,0.00,0.00
Minerals
"Calcium, Ca",mg,--,--,0,0
"Iron, Fe",mg,--,--,2.57,36.75
"Sodium, Na",mg,--,--,105,1500
Vitamins
"Vitamin C, total ascorbic acid",mg,--,--,0.0,0.0
"Vitamin A, IU",IU,--,--,0,0
Lipids
"Fatty acids, total saturated",g,--,--,0.000,0.000
"Fatty acids, total trans",g,--,--,0.000,0.000
"Cholesterol",mg,--,--,0,0
Amino Acids
Other
Ingredients
"ENRICHED WHEAT FLOUR (WHEAT FLOUR, NIACIN, REDUCED IRON, THIAMINE MONONITRATE, RIBOFLAVIN, FOLIC ACID), CANOLA OIL, SALT, SUGAR, RICE FLOUR, GARLIC POWDER, YEAST, ROMANO CHEESE POWDER (PART SKIM MILK, CULTURE, SALT, ENZYMES), DEHYDRATED PARSLEY, ONION POWDER, YEAST EXTRACT, NATURAL FLAVOR, SPICES, ROSEMARY EXTRACTIVES (ANTIOXIDANT)." Date available: 07/14/2017 Date last updated by company: 07/14/2017
