Source: USDA Branded Food Products Database Release December 2017 Software v.3.8.6.4 2017-10-02
Report Run at: December 17, 2017 19:45 EST
"Nutrient data for: 45286787, SEASONED ROOT FUSION, UPC: 855500002739"
Food Group:  Branded Food Products Database
Common Name:

Nutrient,Unit,Data points,Std. Error,"0.66 cup = 85.0g",1Value per 100 g,
Proximates
"Energy",kcal,--,--,60,71
"Protein",g,--,--,1.00,1.18
"Total lipid (fat)",g,--,--,1.00,1.18
"Carbohydrate, by difference",g,--,--,11.00,12.94
"Fiber, total dietary",g,--,--,2.0,2.4
"Sugars, total",g,--,--,5.00,5.88
Minerals
"Calcium, Ca",mg,--,--,20,24
"Iron, Fe",mg,--,--,1.44,1.69
"Sodium, Na",mg,--,--,135,159
Vitamins
"Vitamin C, total ascorbic acid",mg,--,--,12.0,14.1
"Vitamin A, IU",IU,--,--,9000,10588
Lipids
"Fatty acids, total saturated",g,--,--,0.000,0.000
"Fatty acids, total trans",g,--,--,0.000,0.000
"Cholesterol",mg,--,--,0,0
Amino Acids
Other
Ingredients
"SLICED CARROTS, DICED SWEET POTATOES, BEETS, FUJI APPLES, EXTRA VIRGIN OLIVE OIL, TOMMY'S SAGE SEASONING (SPICES, SEA SALT, GARLIC)." Date available: 07/14/2017 Date last updated by company: 07/14/2017
