Source: USDA Branded Food Products Database Release December 2017 Software v.3.8.6.4 2017-10-02
Report Run at: December 17, 2017 19:47 EST
"Nutrient data for: 45058829, SEASONED SOUTHERN STYLE SPINACH, UPC: 736393106325"
Food Group:  Branded Food Products Database
Common Name:

Nutrient,Unit,Data points,Std. Error,"0.5 cup = 118.0g",1Value per 100 g,
Proximates
"Energy",kcal,--,--,20,17
"Protein",g,--,--,1.99,1.69
"Total lipid (fat)",g,--,--,0.00,0.00
"Carbohydrate, by difference",g,--,--,4.00,3.39
"Fiber, total dietary",g,--,--,2.0,1.7
"Sugars, total",g,--,--,1.00,0.85
Minerals
"Calcium, Ca",mg,--,--,80,68
"Iron, Fe",mg,--,--,2.97,2.52
"Sodium, Na",mg,--,--,510,432
Vitamins
"Vitamin C, total ascorbic acid",mg,--,--,4.0,3.4
"Vitamin A, IU",IU,--,--,3305,2801
Lipids
"Fatty acids, total saturated",g,--,--,0.000,0.000
"Fatty acids, total trans",g,--,--,0.000,0.000
"Cholesterol",mg,--,--,0,0
Amino Acids
Other
Ingredients
"SPINACH, WATER, LESS THAN 2% OF: SALT, HYDROLYZED SOY PROTEIN, CARAMEL COLOR, DRIED ONION, BROWN SUGAR, NATURAL SMOKE FLAVOR, DISODIUM INOSINATE AND GUANYLATE, SPICE, DRIED GARLIC, NATURAL HICKORY SMOKE FLAVOR." Date available: 07/14/2017 Date last updated by company: 07/14/2017
