Source: USDA Branded Food Products Database Release December 2017 Software v.3.8.6.4 2017-10-02
Report Run at: December 17, 2017 19:36 EST
"Nutrient data for: 45019094, SEASNAX, STIX, CRISPY SEAWEED STRIPS, ALMOND, UPC: 811201020434"
Food Group:  Branded Food Products Database
Common Name:

Nutrient,Unit,Data points,Std. Error,"0.5 PACK = 10.0g",1Value per 100 g,
Proximates
"Energy",kcal,--,--,30,300
"Protein",g,--,--,1.00,10.00
"Total lipid (fat)",g,--,--,2.50,25.00
"Carbohydrate, by difference",g,--,--,3.00,30.00
"Fiber, total dietary",g,--,--,1.0,10.0
"Sugars, total",g,--,--,1.00,10.00
Minerals
"Calcium, Ca",mg,--,--,20,200
"Iron, Fe",mg,--,--,1.80,18.00
"Sodium, Na",mg,--,--,95,950
Vitamins
"Vitamin C, total ascorbic acid",mg,--,--,6.0,60.0
"Vitamin A, IU",IU,--,--,1000,10000
Lipids
"Fatty acids, total saturated",g,--,--,0.500,5.000
"Fatty acids, total trans",g,--,--,0.000,0.000
"Cholesterol",mg,--,--,0,0
Amino Acids
Other
Ingredients
"SEAWEED, ALMOND, GLUTINOUS RICE FLOUR, RICE FLOUR, ORGANIC EXTRA VIRGIN OLIVE OIL, TAPIOCA STARCH, ORGANIC COCONUT SUGAR, ISOMALTO-OLIGOSACCHARIDE, SEA SALT." Date available: 08/28/2017 Date last updated by company: 08/28/2017
