Source: USDA Branded Food Products Database Release December 2017 Software v.3.8.6.4 2017-10-02
Report Run at: December 17, 2017 19:50 EST
"Nutrient data for: 45184988, SEASONING BLEND, UPC: 692243754019"
Food Group:  Branded Food Products Database
Common Name:

Nutrient,Unit,Data points,Std. Error,"85.0 GRM = 85.0g",1Value per 100 g,
Proximates
"Energy",kcal,--,--,25,29
"Protein",g,--,--,1.00,1.18
"Total lipid (fat)",g,--,--,0.00,0.00
"Carbohydrate, by difference",g,--,--,5.00,5.88
"Fiber, total dietary",g,--,--,1.0,1.2
"Sugars, total",g,--,--,3.00,3.53
Minerals
"Calcium, Ca",mg,--,--,0,0
"Iron, Fe",mg,--,--,0.00,0.00
"Sodium, Na",mg,--,--,10,12
Vitamins
"Vitamin C, total ascorbic acid",mg,--,--,6.0,7.1
"Vitamin A, IU",IU,--,--,0,0
Lipids
"Fatty acids, total saturated",g,--,--,0.000,0.000
"Fatty acids, total trans",g,--,--,0.000,0.000
"Cholesterol",mg,--,--,0,0
Amino Acids
Other
Ingredients
"DICED ONIONS, DICED RED AND GREEN PEPPERS, DICED CELERY" Date available: 07/14/2017 Date last updated by company: 07/14/2017
