Source: USDA Branded Food Products Database Release December 2017 Software v.3.8.6.4 2017-10-02
Report Run at: December 17, 2017 19:36 EST
"Nutrient data for: 45252611, SEASIDE MARKET, NEON SOUR WORMS, UPC: 724212521909"
Food Group:  Branded Food Products Database
Common Name:

Nutrient,Unit,Data points,Std. Error,"4.0 PIECES = 39.0g",1Value per 100 g,
Proximates
"Energy",kcal,--,--,120,308
"Protein",g,--,--,2.00,5.13
"Total lipid (fat)",g,--,--,0.00,0.00
"Carbohydrate, by difference",g,--,--,29.00,74.36
"Fiber, total dietary",g,--,--,0.0,0.0
"Sugars, total",g,--,--,20.00,51.28
Minerals
"Calcium, Ca",mg,--,--,0,0
"Iron, Fe",mg,--,--,0.00,0.00
"Sodium, Na",mg,--,--,15,38
Vitamins
"Vitamin C, total ascorbic acid",mg,--,--,0.0,0.0
"Vitamin A, IU",IU,--,--,0,0
Lipids
"Fatty acids, total saturated",g,--,--,0.000,0.000
"Fatty acids, total trans",g,--,--,0.000,0.000
"Cholesterol",mg,--,--,0,0
Amino Acids
Other
Ingredients
"CORN SYRUP, SUGAR, GELATIN, WHITE GRAPE JUICE CONCENTRATE, LACTIC ACID, NATURAL & ART FLAVOR, MODIFIED POTATO STARCH, MALTIC / CITRIC ACID, TART ARIC ACID, AAART COLOR, TITANIUM DIOXIDE, YELLOW 5&6, RED 3&40, BLUE 1." Date available: 07/14/2017 Date last updated by company: 07/14/2017
