Source: USDA Branded Food Products Database Release December 2017 Software v.3.8.6.4 2017-10-02
Report Run at: December 17, 2017 19:35 EST
"Nutrient data for: 45211676, SEASAME BREADSTICKS, UPC: 6210600801035"
Food Group:  Branded Food Products Database
Common Name:

Nutrient,Unit,Data points,Std. Error,"100.0 GRM = 100.0g",1Value per 100 g,
Proximates
"Energy",kcal,--,--,425,425
"Protein",g,--,--,10.70,10.70
"Total lipid (fat)",g,--,--,9.60,9.60
"Carbohydrate, by difference",g,--,--,73.80,73.80
"Fiber, total dietary",g,--,--,3.7,3.7
"Sugars, total",g,--,--,10.30,10.30
Minerals
"Calcium, Ca",mg,--,--,50,50
"Iron, Fe",mg,--,--,0.79,0.79
"Sodium, Na",mg,--,--,34,34
Vitamins
"Vitamin C, total ascorbic acid",mg,--,--,0.0,0.0
"Vitamin A, IU",IU,--,--,28,28
Lipids
"Fatty acids, total saturated",g,--,--,3.800,3.800
"Cholesterol",mg,--,--,0,0
Amino Acids
Other
Ingredients
"FLOUR, SUGAR, VEGETABLE GHEE, SESAME, MAHLEB." Date available: 07/14/2017 Date last updated by company: 07/14/2017
