Source: USDA Branded Food Products Database Release December 2017 Software v.3.8.6.4 2017-10-02
Report Run at: December 17, 2017 19:41 EST
"Nutrient data for: 45088035, SEASONED DICED TOMATOES, UPC: 070900208233"
Food Group:  Branded Food Products Database
Common Name:

Nutrient,Unit,Data points,Std. Error,"0.5 cup = 123.0g",1Value per 100 g,
Proximates
"Energy",kcal,--,--,46,37
"Protein",g,--,--,1.00,0.81
"Total lipid (fat)",g,--,--,0.00,0.00
"Carbohydrate, by difference",g,--,--,10.00,8.13
"Fiber, total dietary",g,--,--,1.0,0.8
"Sugars, total",g,--,--,7.00,5.69
Minerals
"Calcium, Ca",mg,--,--,20,16
"Iron, Fe",mg,--,--,0.76,0.62
"Potassium, K",mg,--,--,300,244
"Sodium, Na",mg,--,--,300,244
Vitamins
"Vitamin C, total ascorbic acid",mg,--,--,12.7,10.3
"Vitamin A, IU",IU,--,--,529,430
Lipids
"Fatty acids, total saturated",g,--,--,0.000,0.000
"Fatty acids, total trans",g,--,--,0.000,0.000
"Cholesterol",mg,--,--,0,0
Amino Acids
Other
Ingredients
"TOMATOES, TOMATO JUICE, CANE SUGAR, PEPPERS, SEA SALT, CORN STARCH, DEHYDRATED ONION, VINEGAR, CITRIC ACID, DEHYDRATED CELERY, CALCIUM CHLORIDE, DEHYDRATED GARLIC." Date available: 07/14/2017 Date last updated by company: 07/14/2017
