Source: USDA Branded Food Products Database Release December 2017 Software v.3.8.6.4 2017-10-02
Report Run at: December 17, 2017 19:43 EST
"Nutrient data for: 45059543, SEASONED MIXED GREENS, UPC: 736393101160"
Food Group:  Branded Food Products Database
Common Name:

Nutrient,Unit,Data points,Std. Error,"0.5 cup = 118.0g",1Value per 100 g,
Proximates
"Energy",kcal,--,--,60,51
"Protein",g,--,--,3.00,2.54
"Total lipid (fat)",g,--,--,1.99,1.69
"Carbohydrate, by difference",g,--,--,5.99,5.08
"Fiber, total dietary",g,--,--,4.0,3.4
"Sugars, total",g,--,--,1.99,1.69
Minerals
"Calcium, Ca",mg,--,--,100,85
"Iron, Fe",mg,--,--,1.19,1.01
"Sodium, Na",mg,--,--,560,475
Vitamins
"Vitamin C, total ascorbic acid",mg,--,--,6.6,5.6
"Vitamin A, IU",IU,--,--,11016,9336
Lipids
"Fatty acids, total saturated",g,--,--,1.003,0.850
"Fatty acids, total trans",g,--,--,0.000,0.000
"Cholesterol",mg,--,--,9,8
Amino Acids
Other
Ingredients
"INGREDIENTS: MIXED GREENS (TURNIP GREENS AND MUSTARD GREENS), WATER, LESS THAN 2% OF SUGAR, SALT, HYDROLYZED SOY PROTEIN, DRIED ONION, SPICE, NATURAL FLAVOR, DRIED RED BELL PEPPER, BACON FAT, SODIUM DIACETATE FOR VINEGAR FLAVOR, NATURAL SMOKE FLAVOR, GARLIC POWDER, CARAMEL COLOR, PORK BROTH, COUNTRY HAM BROTH, BROWN SUGAR, PORK, YEAST EXTRACT." Date available: 07/14/2017 Date last updated by company: 07/14/2017
