Source: USDA Branded Food Products Database Release December 2017 Software v.3.8.6.4 2017-10-02
Report Run at: December 17, 2017 19:54 EST
"Nutrient data for: 45094083, SEATTLE CHOCOLATES, DARK CHOCOLATE TRUFFLE BAR WITH CHERRIES AND STRAWBERRIES, WHIDBEY WILDBERRY, UPC: 081014090973"
Food Group:  Branded Food Products Database
Common Name:

Nutrient,Unit,Data points,Std. Error,"0.5 BAR = 35.0g",1Value per 100 g,
Proximates
"Energy",kcal,--,--,180,514
"Protein",g,--,--,2.00,5.71
"Total lipid (fat)",g,--,--,13.00,37.14
"Carbohydrate, by difference",g,--,--,18.00,51.43
"Fiber, total dietary",g,--,--,3.0,8.6
"Sugars, total",g,--,--,13.00,37.14
Minerals
"Calcium, Ca",mg,--,--,20,57
"Iron, Fe",mg,--,--,6.43,18.37
"Sodium, Na",mg,--,--,0,0
Vitamins
"Vitamin C, total ascorbic acid",mg,--,--,3.4,9.8
"Vitamin A, IU",IU,--,--,0,0
Lipids
"Fatty acids, total saturated",g,--,--,8.001,22.860
"Fatty acids, total trans",g,--,--,0.000,0.000
"Cholesterol",mg,--,--,0,0
Amino Acids
Other
Ingredients
"DARK CHOCOLATE (CHOCOLATE LIQUOR*, CANE SUGAR, COCOA BUTTER*, SOYA LECITHIN, NATURAL VANILLA), STRAWBERRY JELLIES (STRAWBERRY, PLUM, APPLE, APPLE JUICE, BAOBAB POWDER, BLACK CARROT JUICE, CITRUS PECTIN, STRAWBERRY PUREE, RICE FLOUR, COCONUT OIL), NON-HYDROGENATED COCONUT OIL, DRIED CHERRIES (CHERRIES, CANE SUGAR, SUNFLOWER OIL), NATURAL BLACKBERRY FLAVOR, COCOA POWDER, CITRIC ACID." Date available: 06/25/2017 Date last updated by company: 06/25/2017
