Source: USDA Branded Food Products Database Release December 2017 Software v.3.8.6.4 2017-10-02
Report Run at: December 17, 2017 19:56 EST
"Nutrient data for: 45100499, SEAWINGS, PEPPER SEASONING, UPC: 4571286958256"
Food Group:  Branded Food Products Database
Common Name:

Nutrient,Unit,Data points,Std. Error,"6.0 GRM = 6.0g",1Value per 100 g,
Proximates
"Energy",kcal,--,--,16,267
"Protein",g,--,--,1.00,16.67
"Total lipid (fat)",g,--,--,1.00,16.67
"Carbohydrate, by difference",g,--,--,2.00,33.33
"Fiber, total dietary",g,--,--,0.0,0.0
"Sugars, total",g,--,--,0.00,0.00
Minerals
"Sodium, Na",mg,--,--,781,13017
Vitamins
Lipids
"Fatty acids, total saturated",g,--,--,0.000,0.000
"Fatty acids, total trans",g,--,--,0.000,0.000
"Cholesterol",mg,--,--,0,0
Amino Acids
Other
Ingredients
"SALT. PEPPER. BLACK SOY BEAN" Date available: 09/30/2017 Date last updated by company: 09/30/2017
