Source: USDA Branded Food Products Database Release December 2017 Software v.3.8.6.4 2017-10-02
Report Run at: December 17, 2017 20:00 EST
"Nutrient data for: 45145594, SEE'S CANDIES, CELEBRATION HEARTS, UPC: 737666009244"
Food Group:  Branded Food Products Database
Common Name:

Nutrient,Unit,Data points,Std. Error,"5.0 PCS | ABOUT = 41.0g",1Value per 100 g,
Proximates
"Energy",kcal,--,--,230,561
"Protein",g,--,--,3.00,7.32
"Total lipid (fat)",g,--,--,14.00,34.15
"Carbohydrate, by difference",g,--,--,24.00,58.54
"Fiber, total dietary",g,--,--,1.0,2.4
"Sugars, total",g,--,--,22.00,53.66
Minerals
"Calcium, Ca",mg,--,--,80,195
"Iron, Fe",mg,--,--,0.88,2.14
"Sodium, Na",mg,--,--,30,73
Vitamins
"Vitamin C, total ascorbic acid",mg,--,--,0.0,0.0
"Vitamin A, IU",IU,--,--,0,0
Lipids
"Fatty acids, total saturated",g,--,--,7.999,19.510
"Fatty acids, total trans",g,--,--,0.000,0.000
"Cholesterol",mg,--,--,10,24
Amino Acids
Other
Ingredients
"SUGAR, COCOA BUTTER, MILK, CHOCOLATE, SOY LECITHIN (AN EMULSIFIER), VANILLIN (AN ARTIFICIAL FLAVORS)." Date available: 07/14/2017 Date last updated by company: 07/14/2017
