Source: USDA Branded Food Products Database Release December 2017 Software v.3.8.6.4 2017-10-02
Report Run at: December 17, 2017 20:01 EST
"Nutrient data for: 45169204, SEGGIANO, OVEN ROASTED CHERRY TOMATOES IN EXTRA VIRGIN OLIVE OIL, UPC: 812603020282"
Food Group:  Branded Food Products Database
Common Name:

Nutrient,Unit,Data points,Std. Error,"1 Tbsp = 15.0g",1Value per 100 g,
Proximates
"Energy",kcal,--,--,25,167
"Protein",g,--,--,0.00,0.00
"Total lipid (fat)",g,--,--,2.00,13.33
"Carbohydrate, by difference",g,--,--,1.00,6.67
"Fiber, total dietary",g,--,--,1.0,6.7
"Sugars, total",g,--,--,1.00,6.67
Minerals
"Iron, Fe",mg,--,--,1.20,8.00
"Sodium, Na",mg,--,--,80,533
Vitamins
"Vitamin C, total ascorbic acid",mg,--,--,16.0,106.7
"Vitamin A, IU",IU,--,--,333,2223
Lipids
"Fatty acids, total saturated",g,--,--,0.000,0.000
"Fatty acids, total trans",g,--,--,0.000,0.000
"Cholesterol",mg,--,--,0,0
Amino Acids
Other
Ingredients
"SICILIAN CHERRY TOMATOES 70%, EXTRA VIRGIN OLIVE OIL 27%, SALT, GARLIC, OREGANO." Date available: 07/14/2017 Date last updated by company: 07/14/2017
