Source: USDA Branded Food Products Database Release December 2017 Software v.3.8.6.4 2017-10-02
Report Run at: December 17, 2017 20:03 EST
"Nutrient data for: 45262225, SELECTA PREMIUM POTATO CHIPS, UPC: 8426944001101"
Food Group:  Branded Food Products Database
Common Name:

Nutrient,Unit,Data points,Std. Error,"15.0 CHIPS) | (ABOUT = 28.0g",1Value per 100 g,
Proximates
"Energy",kcal,--,--,165,589
"Protein",g,--,--,2.00,7.14
"Total lipid (fat)",g,--,--,12.00,42.86
"Carbohydrate, by difference",g,--,--,13.00,46.43
"Fiber, total dietary",g,--,--,1.0,3.6
"Sugars, total",g,--,--,1.00,3.57
"Starch",g,--,--,13.20,47.14
Minerals
"Sodium, Na",mg,--,--,125,446
Vitamins
Lipids
"Fatty acids, total saturated",g,--,--,1.501,5.360
"Fatty acids, total trans",g,--,--,0.000,0.000
"Cholesterol",mg,--,--,0,0
Amino Acids
Other
Ingredients
"SELECT POTATOES, SUNFLOWER OIL, SALT, DEHY DRATED BLACK SUMMER TRUFFLES (T. AESTIVUM VITT.) AND AROMAS." Date available: 10/19/2017 Date last updated by company: 10/19/2017
