Source: USDA Branded Food Products Database Release December 2017 Software v.3.8.6.4 2017-10-02
Report Run at: December 17, 2017 20:08 EST
"Nutrient data for: 45168954, SELINA NATURALLY, CELTIC SEA SALT, MAKAI PURE DEEP SEA SALT, UPC: 728060901012"
Food Group:  Branded Food Products Database
Common Name:

Nutrient,Unit,Data points,Std. Error,"0.25 tsp = 1.35g",1Value per 100 g,
Proximates
"Energy",kcal,--,--,0,0
"Protein",g,--,--,0.00,0.00
"Total lipid (fat)",g,--,--,0.00,0.00
"Carbohydrate, by difference",g,--,--,0.00,0.00
Minerals
"Calcium, Ca",mg,--,--,20,1481
"Magnesium, Mg",mg,--,--,296,21947
"Sodium, Na",mg,--,--,390,28889
Vitamins
Lipids
Amino Acids
Other
Ingredients
"UNREFINED RAW DEEP SEA SALT" Date available: 07/14/2017 Date last updated by company: 07/14/2017
