Source: USDA Branded Food Products Database Release December 2017 Software v.3.8.6.4 2017-10-02
Report Run at: December 17, 2017 20:15 EST
"Nutrient data for: 45011703, SEMPIO, GOCHU JANG HOT & SWEET CHILI SAUCE, UPC: 8801005172707"
Food Group:  Branded Food Products Database
Common Name:

Nutrient,Unit,Data points,Std. Error,"1 Tbsp = 30.0g",1Value per 100 g,
Proximates
"Energy",kcal,--,--,65,217
"Protein",g,--,--,1.00,3.33
"Total lipid (fat)",g,--,--,0.50,1.67
"Carbohydrate, by difference",g,--,--,14.00,46.67
"Fiber, total dietary",g,--,--,1.0,3.3
"Sugars, total",g,--,--,6.00,20.00
Minerals
"Calcium, Ca",mg,--,--,0,0
"Iron, Fe",mg,--,--,1.22,4.06
"Sodium, Na",mg,--,--,650,2167
Vitamins
"Vitamin C, total ascorbic acid",mg,--,--,4.0,13.5
"Vitamin A, IU",IU,--,--,676,2255
Lipids
"Fatty acids, total saturated",g,--,--,0.000,0.000
"Fatty acids, total trans",g,--,--,0.000,0.000
"Cholesterol",mg,--,--,0,0
Amino Acids
Other
Ingredients
"FERMENTED RICE PASTER (RICE, SALT, KOJI-STARTER, WATER), CORN SYRUP, HOT PEPPER POWDER, WATER, SOYBEAN PASTE (SOYBEAN, WATER, SALT, KOJI-STARTER), DISTILLED ALCOHOL (DERIVED FROM AGRICULTURAL PRODUCTS), SALT, WHEAT EXTRACT, FERMENTED SOY SEASONING (SOYBEAN, WATER, SEA SALT, WHEAT EXTRACT, DISTILLED ALCOHOL, YEAST EXTRACT)." Date available: 06/24/2017 Date last updated by company: 06/24/2017
