Source: USDA Branded Food Products Database Release December 2017 Software v.3.8.6.4 2017-10-02
Report Run at: December 17, 2017 20:18 EST
"Nutrient data for: 45190324, SERIOUS VEGETABLE PIZZA, UPC: 030223007678"
Food Group:  Branded Food Products Database
Common Name:

Nutrient,Unit,Data points,Std. Error,"0.33 PIZZA = 195.0g",1Value per 100 g,
Proximates
"Energy",kcal,--,--,390,200
"Protein",g,--,--,20.01,10.26
"Total lipid (fat)",g,--,--,14.00,7.18
"Carbohydrate, by difference",g,--,--,45.01,23.08
"Fiber, total dietary",g,--,--,4.1,2.1
"Sugars, total",g,--,--,4.00,2.05
Minerals
"Calcium, Ca",mg,--,--,300,154
"Iron, Fe",mg,--,--,3.61,1.85
"Sodium, Na",mg,--,--,729,374
Vitamins
"Vitamin C, total ascorbic acid",mg,--,--,30.0,15.4
"Vitamin A, IU",IU,--,--,1000,513
Lipids
"Fatty acids, total saturated",g,--,--,6.006,3.080
"Fatty acids, total trans",g,--,--,0.000,0.000
"Cholesterol",mg,--,--,25,13
Amino Acids
Other
Ingredients
"WHOLE WHEAT CRUST (FLOUR [WHOLE WHEAT, ENRICHED WHEAT FLOUR {WHEAT FLOUR, NIACIN, IRON, AMYLASE, ASCORBIC ACID, THIAMINE MONONITRATE, RIBOFLAVIN, FOLIC ACID}], WATER, HONEY, YEAST, EXTRA VIRGIN OLIVE OIL, SALT, SUGAR, CANOLA OIL AS MANUFACTURING AID), FOUR CHEESE BLEND (LOW MOISTURE PART SKIM MOZZARELLA CHEESE [PASTEURIZED MILK, CHEESE CULTURES, SALT, ENZYMES], PROVOLONE CHEESE [PASTEURIZED MILK, CHEESE CULTURES, SALT, ENZYMES], ASIAGO MEDIUM CHEESE [PASTEURIZED MILK, CHEESE CULTURES, SALT, ENZYMES], IMPORTED ROMANO CHEESE [PASTEURIZED SHEEP'S MILK, CHEESE CULTURES, SALT, ENZYMES], PRODUCT OF FRANCE, RICE FLOUR AND CELLULOSE POWDER ADDED TO PREVENT CAKING, NATAMYCIN [A NATURAL MOLD INHIBITOR]), YELLOW SQUASH, ZUCCHINI, RED BELL PEPPER, PARMESAN CHEESE (PASTEURIZED COW'S MILK, CHEESE CULTURES, SALT, ENZYMES, RICE FLOUR AND CELLULOSE POWDER ADDED TO PREVENT CAKING, NATAMYCIN [A NATURAL MOLD INHIBITOR]), RED ONION, FRESH GARLIC, EXTRA VIRGIN OLIVE OIL, ITALIAN SEASONING (MARJORAM, THYME, ROSEMARY, SAVORY, SAGE, OREGANO, BASIL)." Date available: 07/14/2017 Date last updated by company: 07/14/2017
