Source: USDA Branded Food Products Database Release December 2017 Software v.3.8.6.4 2017-10-02
Report Run at: December 17, 2017 20:19 EST
"Nutrient data for: 45038474, SERV-A-GRAVY, BROWN GRAVY MIX, UPC: 070092029005"
Food Group:  Branded Food Products Database
Common Name:

Nutrient,Unit,Data points,Std. Error,"2.0 tsp = 5.0g",1Value per 100 g,
Proximates
"Energy",kcal,--,--,15,300
"Protein",g,--,--,0.00,0.00
"Total lipid (fat)",g,--,--,0.00,0.00
"Carbohydrate, by difference",g,--,--,3.00,60.00
Minerals
"Sodium, Na",mg,--,--,200,4000
Vitamins
Lipids
Amino Acids
Other
Ingredients
"WHEAT FLOUR, SALT, CARAMEL COLOR, HYDROLYZED CORN PROTEIN, ONION AND CELERY POWDER, CORN STARCH, DEXTROSE, MONOSODIUM GLUTAMATE, FOOD STARCH-MODIFIED AND SPICES." Date available: 06/24/2017 Date last updated by company: 06/24/2017
