Source: USDA Branded Food Products Database Release December 2017 Software v.3.8.6.4 2017-10-02
Report Run at: December 17, 2017 20:22 EST
"Nutrient data for: 45240806, SESAME & MISO DRESSING, UPC: 737229001128"
Food Group:  Branded Food Products Database
Common Name:

Nutrient,Unit,Data points,Std. Error,"2.0 Tbsp = 30.0g",1Value per 100 g,
Proximates
"Energy",kcal,--,--,150,500
"Protein",g,--,--,1.00,3.33
"Total lipid (fat)",g,--,--,15.00,50.00
"Carbohydrate, by difference",g,--,--,4.00,13.33
"Fiber, total dietary",g,--,--,0.0,0.0
"Sugars, total",g,--,--,3.00,10.00
Minerals
"Calcium, Ca",mg,--,--,20,67
"Iron, Fe",mg,--,--,0.60,2.00
"Sodium, Na",mg,--,--,540,1800
Vitamins
"Vitamin C, total ascorbic acid",mg,--,--,0.0,0.0
"Vitamin A, IU",IU,--,--,0,0
Lipids
"Fatty acids, total saturated",g,--,--,1.500,5.000
"Fatty acids, total trans",g,--,--,0.000,0.000
"Cholesterol",mg,--,--,0,0
Amino Acids
Other
Ingredients
"EXPELLER PRESSED CANOLA OIL, WATER, BROWN SUGAR, RICE VINEGAR, SESAME OIL, SESAME SEEDS, ONIONS, SALT, DISTILLED VINEGAR, MISO PASTE (SOYBEANS, RICE, SALT, WATER, YEAST, KOJI CULTURE), CONTAINS 2% OR LESS OF: WHEAT, COTTONSEED OIL, SOYBEANS, YEAST EXTRACT, GARLIC, CITRIC ACID, SARDINES, MALTODEXTRIN, TANGLE (SEAWEED) EXTRACT, MALTOSE SYRUP, SUGAR, SPICES, XANTHAN GUM." Date available: 07/14/2017 Date last updated by company: 07/14/2017
