Source: USDA Branded Food Products Database Release December 2017 Software v.3.8.6.4 2017-10-02
Report Run at: December 17, 2017 20:22 EST
"Nutrient data for: 45281297, SESAME HAMBURGER BUNS, UPC: 021130184866"
Food Group:  Branded Food Products Database
Common Name:

Nutrient,Unit,Data points,Std. Error,"1 BUN = 66.0g",1Value per 100 g,
Proximates
"Energy",kcal,--,--,170,258
"Protein",g,--,--,6.00,9.09
"Total lipid (fat)",g,--,--,2.50,3.79
"Carbohydrate, by difference",g,--,--,30.00,45.45
"Fiber, total dietary",g,--,--,1.0,1.5
"Sugars, total",g,--,--,2.00,3.03
Minerals
"Calcium, Ca",mg,--,--,100,152
"Iron, Fe",mg,--,--,1.37,2.07
"Sodium, Na",mg,--,--,290,439
Vitamins
"Vitamin C, total ascorbic acid",mg,--,--,0.0,0.0
"Thiamin",mg,--,--,0.000,0.000
"Riboflavin",mg,--,--,0.193,0.293
"Niacin",mg,--,--,2.272,3.442
"Vitamin A, IU",IU,--,--,0,0
Lipids
"Fatty acids, total saturated",g,--,--,0.000,0.000
"Fatty acids, total trans",g,--,--,0.000,0.000
"Cholesterol",mg,--,--,0,0
Amino Acids
Other
Ingredients
"UNBLEACHED ENRICHED FLOUR (WHEAT FLOUR, MALTED BARLEY FLOUR, NIACIN, REDUCED IRON, THIAMIN MONONITRATE, RIBOFLAVIN, FOLIC ACID), WATER, YEAST, LIQUID SUGAR, CONTAINS 2 PERCENT OR LESS OF: SOYBEAN OIL AND/OR CANOLA OIL, SEA SALT, WHEAT GLUTEN, DOUGH CONDITIONERS (MAY CONTAIN ONE OR MORE OF: SODIUM STEAROYL LACTYLATE, ETHOXYLATED MONO- AND DIGLYCERIDES, CALCIUM SULFATE, MONOCALCIUM PHOSPHATE, ASCORBIC ACID), MONO- AND DIGLYCERIDES, CALCIUM PROPIONATE AND SORBIC ACID (TO RETARD SPOILAGE), CULTURED WHEAT, VINEGAR, SESAME SEEDS, ENZYMES." Date available: 07/14/2017 Date last updated by company: 07/14/2017
