Source: USDA Branded Food Products Database Release December 2017 Software v.3.8.6.4 2017-10-02
Report Run at: December 17, 2017 20:23 EST
"Nutrient data for: 45274246, SESAME ORGANIC CHICKEN, UPC: 782796019328"
Food Group:  Branded Food Products Database
Common Name:

Nutrient,Unit,Data points,Std. Error,"0.5 CONTAINER = 170.0g",1Value per 100 g,
Proximates
"Energy",kcal,--,--,330,194
"Protein",g,--,--,12.00,7.06
"Total lipid (fat)",g,--,--,8.99,5.29
"Carbohydrate, by difference",g,--,--,51.00,30.00
"Fiber, total dietary",g,--,--,0.0,0.0
"Sugars, total",g,--,--,27.00,15.88
Minerals
"Calcium, Ca",mg,--,--,0,0
"Iron, Fe",mg,--,--,0.59,0.35
"Sodium, Na",mg,--,--,680,400
Vitamins
"Vitamin C, total ascorbic acid",mg,--,--,2.0,1.2
"Vitamin A, IU",IU,--,--,0,0
Lipids
"Fatty acids, total saturated",g,--,--,1.496,0.880
"Fatty acids, total trans",g,--,--,0.000,0.000
"Cholesterol",mg,--,--,41,24
Amino Acids
Other
Ingredients
"TEMPURA BREADED CHICKEN BREAST CHUNKS (CHICKEN BREAST MEAT, WATER, CORNSTARCH, BLEACHED ENRICHED FLOUR [WHEAT FLOUR, NIACIN, IRON, THIAMINE MONONITRATE, RIBOFLAVIN, FOLIC ACID], CONTAINS LESS THAN 2% OF DEXTRIN, EGG WHITES, LEAVENING [SODIUM AND PYROPHOSPHATE, SODIUM BICARBONATE, MONOCALCIUM PHOSPHATE], MODIFIED POTATO STARCH, NONFAT DRY MILK, RICE FLOUR, SALT, SODIUM PHOSPHATE, XANTHAN GUM. COOKED IN VEGETABLE OIL), ORANGE SAUCE (WATER, HIGH FRUCTOSE CORN SYRUP, SUCROSE, DISTILLED VINEGAR, MODIFIED FOOD STARCH, RED BELL PEPPERS, SALT, ORANGE JUICE CONCENTRATE, DEHYDRATED GARLIC, GARLIC, SOYBEAN OIL, GUAJILLO PEPPERS, XANTHAN GUM, GARLIC POWDER, SODIUM BENZOATE AND POTASSIUM SORBATE [PRESERVATIVES], NATURAL AND ARTIFICIAL ORANGE FLAVOR, SPICES, DEHYDRATED RED BELL PEPPERS, CITRIC ACID, RED SHADE #40), WHITE SESAME SEEDS." Date available: 07/14/2017 Date last updated by company: 07/14/2017
