Source: USDA Branded Food Products Database Release December 2017 Software v.3.8.6.4 2017-10-02
Report Run at: December 17, 2017 20:26 EST
"Nutrient data for: 45027104, SETTER MOUNTAIN, CHUNKY STYLE MARINARA SAUCE, UPC: 854168003027"
Food Group:  Branded Food Products Database
Common Name:

Nutrient,Unit,Data points,Std. Error,"0.5 cup = 125.0g",1Value per 100 g,
Proximates
"Energy",kcal,--,--,80,64
"Protein",g,--,--,3.00,2.40
"Total lipid (fat)",g,--,--,1.50,1.20
"Carbohydrate, by difference",g,--,--,13.00,10.40
"Fiber, total dietary",g,--,--,4.0,3.2
"Sugars, total",g,--,--,7.00,5.60
Minerals
"Calcium, Ca",mg,--,--,40,32
"Iron, Fe",mg,--,--,2.85,2.28
"Sodium, Na",mg,--,--,350,280
Vitamins
"Vitamin C, total ascorbic acid",mg,--,--,12.6,10.1
"Vitamin A, IU",IU,--,--,792,634
Lipids
"Fatty acids, total saturated",g,--,--,0.000,0.000
"Fatty acids, total trans",g,--,--,0.000,0.000
"Cholesterol",mg,--,--,0,0
Amino Acids
Other
Ingredients
"TOMATO SAUCE (DICED TOMATOES AND TOMATO PUREE), OLIVE OIL, GREEN PEPPER, ONION, GARLIC, SHALLOTS, PARMESAN CHEESE, BREAD CRUMBS, HERBS AND PARSLEY." Date available: 07/14/2017 Date last updated by company: 07/14/2017
