Source: USDA Branded Food Products Database Release December 2017 Software v.3.8.6.4 2017-10-02
Report Run at: December 17, 2017 20:26 EST
"Nutrient data for: 45118834, SETTON FARMS, DRIED BEET CHIPS, UPC: 034325100725"
Food Group:  Branded Food Products Database
Common Name:

Nutrient,Unit,Data points,Std. Error,"1.4 ONZ = 40.0g",1Value per 100 g,
Proximates
"Energy",kcal,--,--,230,575
"Protein",g,--,--,4.00,10.00
"Total lipid (fat)",g,--,--,16.00,40.00
"Carbohydrate, by difference",g,--,--,19.00,47.50
"Fiber, total dietary",g,--,--,7.0,17.5
"Sugars, total",g,--,--,6.00,15.00
Minerals
"Calcium, Ca",mg,--,--,60,150
"Iron, Fe",mg,--,--,4.72,11.81
"Sodium, Na",mg,--,--,135,338
Vitamins
"Vitamin C, total ascorbic acid",mg,--,--,0.0,0.0
"Vitamin A, IU",IU,--,--,0,0
Lipids
"Fatty acids, total saturated",g,--,--,2.000,5.000
"Fatty acids, total trans",g,--,--,0.000,0.000
"Cholesterol",mg,--,--,0,0
Amino Acids
Other
Ingredients
"BEETROOT, NON-HYDROGENATED CANOLA OIL, FRUCTOSE, SEA SALT" Date available: 06/25/2017 Date last updated by company: 06/25/2017
