Source: USDA Branded Food Products Database Release December 2017 Software v.3.8.6.4 2017-10-02
Report Run at: December 17, 2017 20:28 EST
"Nutrient data for: 45167198, SEVERINO, CHEESE FILLED TORTELLINI, UPC: 029737002590"
Food Group:  Branded Food Products Database
Common Name:

Nutrient,Unit,Data points,Std. Error,"23.0 PIECES = 138.0g",1Value per 100 g,
Proximates
"Energy",kcal,--,--,280,203
"Protein",g,--,--,12.01,8.70
"Total lipid (fat)",g,--,--,3.51,2.54
"Carbohydrate, by difference",g,--,--,125.00,90.58
"Fiber, total dietary",g,--,--,50.0,36.2
"Sugars, total",g,--,--,2.99,2.17
Minerals
"Calcium, Ca",mg,--,--,80,58
"Iron, Fe",mg,--,--,2.70,1.96
"Sodium, Na",mg,--,--,471,341
Vitamins
"Vitamin C, total ascorbic acid",mg,--,--,0.0,0.0
"Vitamin A, IU",IU,--,--,99,72
Lipids
"Fatty acids, total saturated",g,--,--,1.504,1.090
"Fatty acids, total trans",g,--,--,0.000,0.000
"Cholesterol",mg,--,--,15,11
Amino Acids
Other
Ingredients
"DOUGH: ENRICHED SEMOLINA FLOUR (SEMOLINA FLOUR, NIACIN, FERROUS SULFATE, THIAMINE MONONITRATE, RIBOFLAVIN, FOLIC ACID), WATER, PASTEURIZED CAGE FREE EGGS, TURMERIC. FILLING: RBST FREE RICOTTA CHEESE (WHEY, CREAM, VINEGAR, SALT, STABILIZERS), CRACKER MEAL (ENRICHED WHEAT FLOUR (NIACIN, FERROUS SULFATE, THIAMINE MONONITRATE, RIBOFLAVIN, FOLIC ACID), SOYBEAN OIL), ROMANO CHEESE (PASTEURIZED SHEEP'S MILK, CHEESE CULTURE, SALT, ENZYMES), SALT, GARLIC POWDER, NATURAL FLAVORING, SPICES." Date available: 03/05/2017 Date last updated by company: 03/05/2017
