Source: USDA Branded Food Products Database Release December 2017 Software v.3.8.6.4 2017-10-02
Report Run at: December 17, 2017 20:28 EST
"Nutrient data for: 45205242, SEVERINO HOMEMADE PASTA, FUSILLI CALABRESE PASTA, UPC: 029737000145"
Food Group:  Branded Food Products Database
Common Name:

Nutrient,Unit,Data points,Std. Error,"0.5 cup = 56.0g",1Value per 100 g,
Proximates
"Energy",kcal,--,--,210,375
"Protein",g,--,--,7.00,12.50
"Total lipid (fat)",g,--,--,1.00,1.79
"Carbohydrate, by difference",g,--,--,41.00,73.21
"Fiber, total dietary",g,--,--,2.0,3.6
"Sugars, total",g,--,--,2.00,3.57
Minerals
"Calcium, Ca",mg,--,--,0,0
"Iron, Fe",mg,--,--,4.50,8.04
"Sodium, Na",mg,--,--,0,0
Vitamins
"Vitamin C, total ascorbic acid",mg,--,--,0.0,0.0
"Vitamin A, IU",IU,--,--,0,0
Lipids
"Fatty acids, total saturated",g,--,--,0.000,0.000
"Fatty acids, total trans",g,--,--,0.000,0.000
"Cholesterol",mg,--,--,0,0
Amino Acids
Other
Ingredients
"DURUM WHEAT SEMOLINA FLOUR (NIACIN, FERROUS SULFATE (IRON), THIAMINE MONONITRATE, RIBOFLAVIN, FOLIC ACID), WATER." Date available: 09/07/2017 Date last updated by company: 09/07/2017
