Source: USDA Branded Food Products Database Release December 2017 Software v.3.8.6.4 2017-10-02
Report Run at: December 17, 2017 20:28 EST
"Nutrient data for: 45205268, SEVERINO HOMEMADE PASTA, FIRE ROASTED TOMATO & BASIL RAVIOLI, UPC: 029737007366"
Food Group:  Branded Food Products Database
Common Name:

Nutrient,Unit,Data points,Std. Error,"4.0 RAVIOLI = 112.0g",1Value per 100 g,
Proximates
"Energy",kcal,--,--,280,250
"Protein",g,--,--,14.00,12.50
"Total lipid (fat)",g,--,--,9.00,8.04
"Carbohydrate, by difference",g,--,--,37.00,33.04
"Fiber, total dietary",g,--,--,3.0,2.7
"Sugars, total",g,--,--,3.00,2.68
Minerals
"Calcium, Ca",mg,--,--,200,179
"Iron, Fe",mg,--,--,1.80,1.61
"Sodium, Na",mg,--,--,410,366
Vitamins
"Vitamin C, total ascorbic acid",mg,--,--,3.0,2.7
"Vitamin A, IU",IU,--,--,125,112
Lipids
"Fatty acids, total saturated",g,--,--,3.998,3.570
"Fatty acids, total trans",g,--,--,0.000,0.000
"Cholesterol",mg,--,--,55,49
Amino Acids
Other
Ingredients
"WHOLE MILK RICOTTA CHEESE (PASTEURIZED WHOLE MILK, VINEGAR, SALT), DURUM WHEAT FLOUR (UNENRICHED), EGGS (LIQUID, CAGE-FREE, PASTEURIZED), TOMATOES (VINE RIPENED TOMATOES, TOMATO PUREE, SALT, AND NATURALLY DERIVED CITRIC ACID), WATER, TOMATO PUREE (FRESH VINE-RIPENED CALIFORNIA TOMATOES, CITRIC ACID), SALT, PARSLEY, PARMESAN CHEESE (PASTEURIZED COW'S MILK, CHEESE CULTURES, SALT, ENZYMES), BASIL, TURMERIC, BLACK PEPPER, SAFFRON." Date available: 07/14/2017 Date last updated by company: 07/14/2017
