Source: USDA Branded Food Products Database Release December 2017 Software v.3.8.6.4 2017-10-02
Report Run at: December 17, 2017 20:31 EST
"Nutrient data for: 45328790, SFILATI OVEN BAKED BREADSTICKS WITH GREEN AND BLACK OLIVES, UPC: 076808007350"
Food Group:  Branded Food Products Database
Common Name:

Nutrient,Unit,Data points,Std. Error,"2.0 PIECES = 16.0g",1Value per 100 g,
Proximates
"Energy",kcal,--,--,70,438
"Protein",g,--,--,2.00,12.50
"Total lipid (fat)",g,--,--,2.50,15.62
"Carbohydrate, by difference",g,--,--,11.00,68.75
"Fiber, total dietary",g,--,--,0.0,0.0
"Sugars, total",g,--,--,0.00,0.00
Minerals
"Calcium, Ca",mg,--,--,20,125
"Iron, Fe",mg,--,--,0.00,0.00
"Sodium, Na",mg,--,--,120,750
Vitamins
"Vitamin C, total ascorbic acid",mg,--,--,0.0,0.0
"Vitamin A, IU",IU,--,--,0,0
Lipids
"Fatty acids, total saturated",g,--,--,0.000,0.000
"Fatty acids, total trans",g,--,--,0.000,0.000
"Cholesterol",mg,--,--,0,0
Amino Acids
Other
Ingredients
"WHEAT FLOUR, GREEN AND BLACK OLIVES (GREEN OLIVES, BLACK OLIVES, SALT), SUNFLOWER OIL, CRUNCHY CEREAL PREPARATION (RICE, BARLEY, SUGAR, OATS, RYE, WHEAT, MALTED BARLEY, SALT), YEAST, SALT, MALT EXTRACT FROM BARLEY AND CORN, MONO AND DIGLYCERIDES, ARTIFICIAL OLIVE FLAVOR, PARSLEY." Date available: 10/13/2017 Date last updated by company: 10/13/2017
