Source: USDA Branded Food Products Database Release December 2017 Software v.3.8.6.4 2017-10-02
Report Run at: December 17, 2017 20:32 EST
"Nutrient data for: 45138222, SHADY MAPLE SYRUP, 100% PURE ORGANIC MAPLE SYRUP, UPC: 066676283758"
Food Group:  Branded Food Products Database
Common Name:

Nutrient,Unit,Data points,Std. Error,"0.25 cup = 60.0g",1Value per 100 g,
Proximates
"Energy",kcal,--,--,210,350
"Protein",g,--,--,0.00,0.00
"Total lipid (fat)",g,--,--,0.00,0.00
"Carbohydrate, by difference",g,--,--,53.00,88.33
"Sugars, total",g,--,--,53.00,88.33
Minerals
"Calcium, Ca",mg,--,--,80,133
"Iron, Fe",mg,--,--,0.36,0.60
"Sodium, Na",mg,--,--,1,2
Vitamins
"Vitamin C, total ascorbic acid",mg,--,--,0.0,0.0
"Vitamin A, IU",IU,--,--,0,0
Lipids
Amino Acids
Other
Ingredients
"FAIR FOR LIFE FAIR TRADE CERTIFIED PURE ORGANIC MAPLE SYRUP." Date available: 06/25/2017 Date last updated by company: 06/25/2017
