Source: USDA Branded Food Products Database Release December 2017 Software v.3.8.6.4 2017-10-02
Report Run at: December 17, 2017 20:32 EST
"Nutrient data for: 45138604, SHAHIA, PREMIUM GUAVA NECTAR, UPC: 783963004536"
Food Group:  Branded Food Products Database
Common Name:

Nutrient,Unit,Data points,Std. Error,"8.0 OZA = 240.0g",1Value per 100 g,
Proximates
"Energy",kcal,--,--,125,52
"Protein",g,--,--,0.00,0.00
"Total lipid (fat)",g,--,--,0.00,0.00
"Carbohydrate, by difference",g,--,--,30.00,12.50
"Fiber, total dietary",g,--,--,0.0,0.0
"Sugars, total",g,--,--,30.00,12.50
Minerals
"Calcium, Ca",mg,--,--,12,5
"Iron, Fe",mg,--,--,0.55,0.23
"Sodium, Na",mg,--,--,24,10
Vitamins
"Vitamin C, total ascorbic acid",mg,--,--,60.0,25.0
Lipids
Amino Acids
Other
Ingredients
"GUAVA PULP (35%), WATER, SUCROSE, VITAMIN C, CITRIC ACID, NATURAL STABILIZER (CMC), TOTAL SOLUBLE SOLIDS: 13% MIN." Date available: 06/25/2017 Date last updated by company: 06/25/2017
