Source: USDA Branded Food Products Database Release December 2017 Software v.3.8.6.4 2017-10-02
Report Run at: December 17, 2017 20:32 EST
"Nutrient data for: 45158627, SHAKA TEA, KOLOVA ICED TEA, GUAVA GINGERBLOSSOM, UPC: 854080006021"
Food Group:  Branded Food Products Database
Common Name:

Nutrient,Unit,Data points,Std. Error,"8.0 OZA = 8.0g",1Value per 100 g,
Proximates
"Energy",kcal,--,--,1,10
"Protein",g,--,--,0.00,0.00
"Total lipid (fat)",g,--,--,0.00,0.00
"Carbohydrate, by difference",g,--,--,0.20,2.50
"Sugars, total",g,--,--,0.17,2.08
Minerals
"Potassium, K",mg,--,--,2,25
"Sodium, Na",mg,--,--,0,2
Vitamins
Lipids
Amino Acids
Other
Ingredients
"BREWED MAMAKI TEA (FILTERED WATER, HAWAIIAN-GROWN MAMAKI TEA LEAVES), ORGANIC APPLE JUICE CONCENTRATE, GUAVA PUREE, HIBISCUS, GINGER EXTRACT." Date available: 07/14/2017 Date last updated by company: 07/14/2017
