Source: USDA Branded Food Products Database Release December 2017 Software v.3.8.6.4 2017-10-02
Report Run at: December 17, 2017 20:33 EST
"Nutrient data for: 45144540, SHAKESPEARE'S, FUDGE STICKS IN THE MUD, UPC: 602348668074"
Food Group:  Branded Food Products Database
Common Name:

Nutrient,Unit,Data points,Std. Error,"1 ONZ = 28.0g",1Value per 100 g,
Proximates
"Energy",kcal,--,--,120,429
"Protein",g,--,--,2.00,7.14
"Total lipid (fat)",g,--,--,4.50,16.07
"Carbohydrate, by difference",g,--,--,17.00,60.71
"Fiber, total dietary",g,--,--,0.0,0.0
"Sugars, total",g,--,--,9.00,32.14
Minerals
"Calcium, Ca",mg,--,--,20,71
"Iron, Fe",mg,--,--,0.64,2.29
"Sodium, Na",mg,--,--,140,500
Vitamins
"Vitamin C, total ascorbic acid",mg,--,--,0.0,0.0
"Vitamin A, IU",IU,--,--,0,0
Lipids
"Fatty acids, total saturated",g,--,--,2.500,8.930
"Fatty acids, total trans",g,--,--,0.000,0.000
"Cholesterol",mg,--,--,5,18
Amino Acids
Other
Ingredients
"PRETZELS: ENRICHED WHEAT FLOUR (NIACIN, IRON, THIAMINE MONONITRATE, RIBOFLAVIN, FOLIC ACID), CORN SYRUP, SALT, PARTIALLY HYDROGENATED SOYBEAN AND/OR COTTONSEED OIL, SODIUM BICARBONATE, YEAST, RED 40. FUDGE COATING: SUGAR, PARTIALLY HYDROGENATED VEGETABLE OIL [PALM KERNEL AND PALM OIL], WHEY POWDER, MILK POWDER, SOY LECITHIN (AN EMULSIFIER) AND ARTIFICIAL FLAVOR. WHITE COMPOUND COATING: SUGAR, PARTIALLY HYDROGENATED PALM KERNEL OIL, NONFAT MILK POWDER, SOY LECITHIN [EMULSIFIER], MONOGLYCERIDES, ARTIFICIAL COLOR [TITANIUM DIOXIDE], ARTIFICIAL FLAVOR." Date available: 07/14/2017 Date last updated by company: 07/14/2017
