Source: USDA Branded Food Products Database Release December 2017 Software v.3.8.6.4 2017-10-02
Report Run at: December 17, 2017 20:42 EST
"Nutrient data for: 45177335, SHARP CHEDDAR WITH REAL PECANS & ALMONDS, UPC: 075912041700"
Food Group:  Branded Food Products Database
Common Name:

Nutrient,Unit,Data points,Std. Error,"2.0 Tbsp = 31.0g",1Value per 100 g,
Proximates
"Energy",kcal,--,--,110,355
"Protein",g,--,--,6.00,19.35
"Total lipid (fat)",g,--,--,9.00,29.03
"Carbohydrate, by difference",g,--,--,4.00,12.90
"Fiber, total dietary",g,--,--,0.4,1.3
"Sugars, total",g,--,--,4.00,12.90
Minerals
"Calcium, Ca",mg,--,--,150,484
"Iron, Fe",mg,--,--,0.00,0.00
"Sodium, Na",mg,--,--,180,581
Vitamins
"Vitamin C, total ascorbic acid",mg,--,--,0.0,0.0
"Vitamin A, IU",IU,--,--,322,1040
Lipids
"Fatty acids, total saturated",g,--,--,3.999,12.900
"Fatty acids, total trans",g,--,--,0.000,0.000
"Cholesterol",mg,--,--,25,81
Amino Acids
Other
Ingredients
"CHEDDAR CHEESE (CULTURED PASTEURIZED MILK, SALT, ENZYMES, CALCIUM CHLORIDE), WATER, CREAM, WHEY, WHEY PROTEIN CONCENTRATE, REDUCED LACTOSE WHEY, ALMONDS, PECANS, SORBIC ACID (TO PROTECT FLAVOR), SALT, GUAR GUM, ANNATTO COLOR." Date available: 08/11/2017 Date last updated by company: 08/11/2017
