Source: USDA Branded Food Products Database Release December 2017 Software v.3.8.6.4 2017-10-02
Report Run at: December 17, 2017 20:44 EST
"Nutrient data for: 45148316, SHASTA, SODA, PINEAPPLE, UPC: 04234326"
Food Group:  Branded Food Products Database
Common Name:

Nutrient,Unit,Data points,Std. Error,"8.0 OZA = 240.0g",1Value per 100 g,
Proximates
"Energy",kcal,--,--,110,46
"Protein",g,--,--,0.00,0.00
"Total lipid (fat)",g,--,--,0.00,0.00
"Carbohydrate, by difference",g,--,--,27.00,11.25
"Sugars, total",g,--,--,27.00,11.25
Minerals
"Sodium, Na",mg,--,--,24,10
Vitamins
Lipids
Amino Acids
Other
Ingredients
"CARBONATED WATER, HIGH FRUCTOSE CORN SYRUP, CITRIC ACID, NATURAL AND ARTIFICIAL FLAVORS, GUM ACACIA, POTASSIUM BENZOATE (PRESERVATIVE), GLYCERYL ABIETATE, SUCRALOSE, BROMINATED VEGETABLE OIL, YELLOW 5." Date available: 07/14/2017 Date last updated by company: 07/14/2017
