Source: USDA Branded Food Products Database Release December 2017 Software v.3.8.6.4 2017-10-02
Report Run at: December 17, 2017 20:47 EST
"Nutrient data for: 45283786, SHEEP & GOAT CHEESE, MARINATED IN EXTRA VIRGIN OLIVE OIL BLEND, GARLIC & THYME, UPC: 9317320100053"
Food Group:  Branded Food Products Database
Common Name:

Nutrient,Unit,Data points,Std. Error,"0.88 ONZ = 28.0g",1Value per 100 g,
Proximates
"Energy",kcal,--,--,140,500
"Protein",g,--,--,3.00,10.71
"Total lipid (fat)",g,--,--,14.00,50.00
"Carbohydrate, by difference",g,--,--,0.00,0.00
"Fiber, total dietary",g,--,--,0.0,0.0
"Sugars, total",g,--,--,0.00,0.00
Minerals
"Calcium, Ca",mg,--,--,60,214
"Iron, Fe",mg,--,--,0.64,2.29
"Sodium, Na",mg,--,--,260,929
Vitamins
"Vitamin C, total ascorbic acid",mg,--,--,0.0,0.0
"Vitamin A, IU",IU,--,--,179,638
Lipids
"Fatty acids, total saturated",g,--,--,3.500,12.500
"Fatty acids, total trans",g,--,--,0.000,0.000
"Cholesterol",mg,--,--,10,36
Amino Acids
Other
Ingredients
"GOAT & SHEEP MILK, EXTRA VIRGIN OLIVE OIL, CANOLA (GMO FREE), FRESH HERBS, PEPPERCORNS, SALT, NON-ANIMAL RENNET, CHEESE CULTURES." Date available: 10/13/2017 Date last updated by company: 10/13/2017
