Source: USDA Branded Food Products Database Release December 2017 Software v.3.8.6.4 2017-10-02
Report Run at: December 17, 2017 20:48 EST
"Nutrient data for: 45178778, SHEILA G'S, BROWNIE BRITTLE, COOKIE PEANUT BUTTER CHIP, UPC: 711747012101"
Food Group:  Branded Food Products Database
Common Name:

Nutrient,Unit,Data points,Std. Error,"1 ONZ = 28.0g",1Value per 100 g,
Proximates
"Energy",kcal,--,--,120,429
"Protein",g,--,--,3.00,10.71
"Total lipid (fat)",g,--,--,5.00,17.86
"Carbohydrate, by difference",g,--,--,19.00,67.86
"Fiber, total dietary",g,--,--,1.0,3.6
"Sugars, total",g,--,--,13.00,46.43
Minerals
"Calcium, Ca",mg,--,--,0,0
"Iron, Fe",mg,--,--,1.29,4.59
"Sodium, Na",mg,--,--,85,304
Vitamins
"Vitamin C, total ascorbic acid",mg,--,--,0.0,0.0
"Vitamin A, IU",IU,--,--,0,0
Lipids
"Fatty acids, total saturated",g,--,--,2.999,10.710
"Fatty acids, total trans",g,--,--,0.000,0.000
"Cholesterol",mg,--,--,0,0
Amino Acids
Other
Ingredients
"ENRICHED WHEAT FLOUR BLEACHED (FLOUR, NIACIN, IRON, THIAMINE MONONITRATE, RIBOFLAVIN, FOLIC ACID), POWDERED SUGAR, SUGAR, PALM OIL, COCOA PROCESSED WITH ALKALI, CORN SYRUP SOLIDS, SOYBEAN OIL, DRY EGG WHITES, CORN STARCH, SALT, DEXTROSE, LEAVENING (BAKING SODA), SOY LECITHIN, NATURAL FLAVOR, NONFAT DRY MILK, PARTIALLY DEFATTED PEANUTS, PARTIALLY HYDROGENATED VEGETABLE OIL (PALM KERNEL AND SOYBEAN OIL), REDUCED MINERALS WHEY (MILK). CONTAINS 2% OR LESS: VANILLIN AND ARTIFICIAL FLAVOR" Date available: 07/14/2017 Date last updated by company: 07/14/2017
