Source: USDA Branded Food Products Database Release December 2017 Software v.3.8.6.4 2017-10-02
Report Run at: December 17, 2017 20:48 EST
"Nutrient data for: 45262698, SHELLED EDAMAME SOYBEANS, UPC: 782758110025"
Food Group:  Branded Food Products Database
Common Name:

Nutrient,Unit,Data points,Std. Error,"0.5 cup = 85.0g",1Value per 100 g,
Proximates
"Energy",kcal,--,--,120,141
"Protein",g,--,--,10.00,11.76
"Total lipid (fat)",g,--,--,5.00,5.88
"Carbohydrate, by difference",g,--,--,9.00,10.59
"Fiber, total dietary",g,--,--,4.0,4.7
"Sugars, total",g,--,--,3.00,3.53
Minerals
"Calcium, Ca",mg,--,--,100,118
"Iron, Fe",mg,--,--,1.80,2.12
"Sodium, Na",mg,--,--,10,12
Vitamins
"Vitamin C, total ascorbic acid",mg,--,--,15.0,17.6
"Vitamin A, IU",IU,--,--,100,118
Lipids
"Fatty acids, total saturated",g,--,--,0.501,0.590
"Fatty acids, total trans",g,--,--,0.000,0.000
"Cholesterol",mg,--,--,0,0
Amino Acids
Other
Ingredients
"SOYBEANS (THIS IS A NATURALLY GROWN SOYBEAN THAT DOES NOT CONTAIN GENETICALLY MODIFIED ORGANISMS)." Date available: 07/14/2017 Date last updated by company: 07/14/2017
