Source: USDA Branded Food Products Database Release December 2017 Software v.3.8.6.4 2017-10-02
Report Run at: December 17, 2017 20:51 EST
"Nutrient data for: 45061563, SHELLS & CHEDDAR MACARONI & CHEESE, UPC: 085239417218"
Food Group:  Branded Food Products Database
Common Name:

Nutrient,Unit,Data points,Std. Error,"0.5 BOX) (MAKES ABOUT 1 CUP PREPARED) | (ABOUT = 71.0g",1Value per 100 g,
Proximates
"Energy",kcal,--,--,250,352
"Protein",g,--,--,10.00,14.08
"Total lipid (fat)",g,--,--,2.50,3.52
"Carbohydrate, by difference",g,--,--,50.00,70.42
"Fiber, total dietary",g,--,--,1.0,1.4
"Sugars, total",g,--,--,5.00,7.04
Minerals
"Calcium, Ca",mg,--,--,100,141
"Iron, Fe",mg,--,--,2.53,3.57
"Sodium, Na",mg,--,--,480,676
Vitamins
"Vitamin C, total ascorbic acid",mg,--,--,0.0,0.0
"Vitamin A, IU",IU,--,--,0,0
Lipids
"Fatty acids, total saturated",g,--,--,1.001,1.410
"Fatty acids, total trans",g,--,--,0.000,0.000
"Cholesterol",mg,--,--,5,7
Amino Acids
Other
Ingredients
"ORGANIC PASTA (ORGANIC WHEAT SEMOLINA), WHEY, CHEDDAR CHEESE (CULTURED PASTEURIZED MILK, SALT, ENZYMES), WHEAT FLOUR, NONFAT DRY MILK, SALT, CORN STARCH, MILK PROTEIN CONCENTRATE, CULTURED WHOLE MILK, SODIUM PHOSPHATE, NATURAL FLAVOR, ANNATTO EXTRACT (COLOR), LACTIC ACID." Date available: 07/14/2017 Date last updated by company: 07/14/2017
