Source: USDA Branded Food Products Database Release December 2017 Software v.3.8.6.4 2017-10-02
Report Run at: December 17, 2017 20:52 EST
"Nutrient data for: 45331769, SHEPHERD'S PIE, UPC: 688267183256"
Food Group:  Branded Food Products Database
Common Name:

Nutrient,Unit,Data points,Std. Error,"1 cup = 140.0g",1Value per 100 g,
Proximates
"Energy",kcal,--,--,200,143
"Protein",g,--,--,12.00,8.57
"Total lipid (fat)",g,--,--,12.00,8.57
"Carbohydrate, by difference",g,--,--,13.01,9.29
"Fiber, total dietary",g,--,--,1.0,0.7
"Sugars, total",g,--,--,0.99,0.71
Minerals
"Calcium, Ca",mg,--,--,20,14
"Iron, Fe",mg,--,--,2.00,1.43
"Sodium, Na",mg,--,--,659,471
Vitamins
"Vitamin C, total ascorbic acid",mg,--,--,1.7,1.2
"Vitamin A, IU",IU,--,--,279,199
Lipids
"Fatty acids, total saturated",g,--,--,4.494,3.210
"Fatty acids, total trans",g,--,--,0.000,0.000
"Cholesterol",mg,--,--,45,32
Amino Acids
Other
Ingredients
"FILLING (PAN-BROWNED GROUND BEEF, WATER, YELLOW SWEET CORN, CANOLA OIL, CORNSTARCH, TOMATO PASTE [TOMATOES, CITRIC ACID], ONION, SALT, GARLIC, BEEF FLAVOR BROTH CONCENTRATE [BEEF STOCK, NATURAL FLAVOR, SALT, YEAST EXTRACT, SUGAR, BEEF FAT AND THIAMINE {VITAMIN B}], CARAMEL COLOR, BLACK PEPPER, WHITE PEPPER, BAY LEAVES), MASHED POTATOES (POTATOES, SKIM MILK, BUTTER, WHOLE MILK, NATURAL FLAVOR, SALT, DISODIUM DIHYDROGEN PYROPHOSPHATE [ADDED TO MAINTAIN COLOR], POTASSIUM SORBATE [ADDED TO MAINTAIN FRESHNESS], SPICE), PAPRIKA (PAPRIKA AND LESS THAN 2% SILICON DIOXIDE ADDED TO PREVENT CAKING)." Date available: 10/13/2017 Date last updated by company: 10/13/2017
