Source: USDA Branded Food Products Database Release December 2017 Software v.3.8.6.4 2017-10-02
Report Run at: December 17, 2017 20:54 EST
"Nutrient data for: 45276624, SHERBET, UPC: 041483003157"
Food Group:  Branded Food Products Database
Common Name:

Nutrient,Unit,Data points,Std. Error,"0.5 cup = 86.0g",1Value per 100 g,
Proximates
"Energy",kcal,--,--,120,140
"Protein",g,--,--,1.00,1.16
"Total lipid (fat)",g,--,--,0.00,0.00
"Carbohydrate, by difference",g,--,--,29.00,33.72
"Fiber, total dietary",g,--,--,0.0,0.0
"Sugars, total",g,--,--,23.00,26.74
Minerals
"Calcium, Ca",mg,--,--,20,23
"Iron, Fe",mg,--,--,0.00,0.00
"Sodium, Na",mg,--,--,25,29
Vitamins
"Vitamin C, total ascorbic acid",mg,--,--,0.0,0.0
"Vitamin A, IU",IU,--,--,0,0
Lipids
"Fatty acids, total saturated",g,--,--,0.000,0.000
"Fatty acids, total trans",g,--,--,0.000,0.000
"Cholesterol",mg,--,--,0,0
Amino Acids
Other
Ingredients
"WATER, SUGAR, CORN SYRUP, LEMON BASE (WATER, LEMON AND ORANGE JUICE CONCENTRATES, ORANGE PULP, CITRIC ACID, NATURAL FLAVORS, POLYSORBATE 80), WHEY, NONFAT MILK, CAROB BEAN GUM, NATURAL FLAVOR, GUAR GUM, MONO AND DIGLYCERIDES, METHYL CELLULOSE, PECTIN, CITRIC ACID, YELLOW 5, YELLOW 6)." Date available: 07/14/2017 Date last updated by company: 07/14/2017
