Source: USDA Branded Food Products Database Release December 2017 Software v.3.8.6.4 2017-10-02
Report Run at: December 17, 2017 20:56 EST
"Nutrient data for: 45269674, SHIMMIES WHITE DECORATING CANDIES, UPC: 879826004093"
Food Group:  Branded Food Products Database
Common Name:

Nutrient,Unit,Data points,Std. Error,"1 tsp = 4.0g",1Value per 100 g,
Proximates
"Energy",kcal,--,--,15,375
"Protein",g,--,--,0.00,0.00
"Total lipid (fat)",g,--,--,0.00,0.00
"Carbohydrate, by difference",g,--,--,4.00,100.00
"Fiber, total dietary",g,--,--,0.0,0.0
"Sugars, total",g,--,--,3.00,75.00
Minerals
"Calcium, Ca",mg,--,--,0,0
"Iron, Fe",mg,--,--,0.00,0.00
"Sodium, Na",mg,--,--,0,0
Vitamins
"Vitamin C, total ascorbic acid",mg,--,--,0.0,0.0
"Vitamin A, IU",IU,--,--,0,0
Lipids
"Fatty acids, total saturated",g,--,--,0.000,0.000
"Fatty acids, total trans",g,--,--,0.000,0.000
"Cholesterol",mg,--,--,0,0
Amino Acids
Other
Ingredients
"SPRINKLES (SUGAR, PALM OIL, WHEAT STARCH, GLUCOSE SYRUP, (TITANIUM DIOXIDE AND SHELLAC.)" Date available: 07/14/2017 Date last updated by company: 07/14/2017
