Source: USDA Branded Food Products Database Release December 2017 Software v.3.8.6.4 2017-10-02
Report Run at: December 17, 2017 20:56 EST
"Nutrient data for: 45246159, SHINE ORGANICS, REVIVE BLEND OF ORGANIC FRUITS, VEGGIES & MICRONUTRIENTS, PEAR, CELERY, COCONUT, COCONUT, LIME, GREEN TEA, CHIA, UPC: 819573012620"
Food Group:  Branded Food Products Database
Common Name:

Nutrient,Unit,Data points,Std. Error,"1 POUCH = 120.0g",1Value per 100 g,
Proximates
"Energy",kcal,--,--,70,58
"Protein",g,--,--,1.00,0.83
"Total lipid (fat)",g,--,--,0.50,0.42
"Carbohydrate, by difference",g,--,--,17.00,14.17
"Fiber, total dietary",g,--,--,3.0,2.5
"Sugars, total",g,--,--,12.00,10.00
Minerals
"Calcium, Ca",mg,--,--,20,17
"Iron, Fe",mg,--,--,0.14,0.12
"Potassium, K",mg,--,--,150,125
"Sodium, Na",mg,--,--,10,8
Vitamins
"Vitamin C, total ascorbic acid",mg,--,--,2.5,2.1
"Vitamin A, IU",IU,--,--,0,0
Lipids
"Fatty acids, total saturated",g,--,--,0.000,0.000
"Fatty acids, total trans",g,--,--,0.000,0.000
"Cholesterol",mg,--,--,0,0
Amino Acids
Other
Ingredients
"ORGANIC PEAR PUREE, ORGANIC CELERY PUREE, ORGANIC COCONUT WATER, MILLED ORGANIC CHIA SEED, ORGANIC LIME JUICE CONCENTRATE, ORGANIC LEMON JUICE CONCENTRATE,ASCORBIC ACID (VITAMIN C), ORGANIC GREEN TEA POWDER." Date available: 07/14/2017 Date last updated by company: 07/14/2017
