Source: USDA Branded Food Products Database Release December 2017 Software v.3.8.6.4 2017-10-02
Report Run at: December 17, 2017 20:59 EST
"Nutrient data for: 45022615, SHIRAKO, TOKYO SUSHIHANE ROASTED SEAWEED, UPC: 092396000047"
Food Group:  Branded Food Products Database
Common Name:

Nutrient,Unit,Data points,Std. Error,"1 SHEET = 2.5g",1Value per 100 g,
Proximates
"Energy",kcal,--,--,10,400
"Protein",g,--,--,1.00,40.00
"Total lipid (fat)",g,--,--,0.00,0.00
"Carbohydrate, by difference",g,--,--,1.00,40.00
"Fiber, total dietary",g,--,--,1.0,40.0
"Sugars, total",g,--,--,0.00,0.00
Minerals
"Calcium, Ca",mg,--,--,0,0
"Iron, Fe",mg,--,--,7.20,288.00
"Sodium, Na",mg,--,--,0,0
Vitamins
"Vitamin C, total ascorbic acid",mg,--,--,48.0,1920.0
"Vitamin A, IU",IU,--,--,6000,240000
Lipids
"Fatty acids, total saturated",g,--,--,0.000,0.000
"Fatty acids, total trans",g,--,--,0.000,0.000
"Cholesterol",mg,--,--,0,0
Amino Acids
Other
Ingredients
"SEAWEED." Date available: 06/25/2017 Date last updated by company: 06/25/2017
