Source: USDA Branded Food Products Database Release December 2017 Software v.3.8.6.4 2017-10-02
Report Run at: December 17, 2017 21:06 EST
"Nutrient data for: 45023583, SHOPRITE, CHILI SEASONING MIX, UPC: 041190034284"
Food Group:  Branded Food Products Database
Common Name:

Nutrient,Unit,Data points,Std. Error,"1 CUP CHILI = 9.0g",1Value per 100 g,
Proximates
"Energy",kcal,--,--,30,333
"Protein",g,--,--,1.00,11.11
"Total lipid (fat)",g,--,--,1.00,11.11
"Carbohydrate, by difference",g,--,--,5.00,55.56
"Fiber, total dietary",g,--,--,1.0,11.1
"Sugars, total",g,--,--,1.00,11.11
Minerals
"Calcium, Ca",mg,--,--,0,0
"Iron, Fe",mg,--,--,2.00,22.22
"Sodium, Na",mg,--,--,350,3889
Vitamins
"Vitamin C, total ascorbic acid",mg,--,--,0.0,0.0
"Vitamin A, IU",IU,--,--,1667,18517
Lipids
"Fatty acids, total saturated",g,--,--,0.000,0.000
"Fatty acids, total trans",g,--,--,0.000,0.000
"Cholesterol",mg,--,--,0,0
Amino Acids
Other
Ingredients
"CHILI PEPPER AND OTHER SPICES, ENRICHED WHEAT FLOUR (FLOUR, NIACIN, REDUCED IRON, THIAMINE MONONITRATE, RIBOFLAVIN, AND FOLIC ACID), ONION, SALT, AND GARLIC." Date available: 06/25/2017 Date last updated by company: 06/25/2017
