Source: USDA Branded Food Products Database Release December 2017 Software v.3.8.6.4 2017-10-02
Report Run at: December 17, 2017 21:38 EST
"Nutrient data for: 45023775, SHOPRITE, SWEET WHOLE KERNEL GOLDEN CORN, UPC: 041190008193"
Food Group:  Branded Food Products Database
Common Name:

Nutrient,Unit,Data points,Std. Error,"0.33 cup = 95.0g",1Value per 100 g,
Proximates
"Energy",kcal,--,--,80,84
"Protein",g,--,--,2.00,2.11
"Total lipid (fat)",g,--,--,1.00,1.05
"Carbohydrate, by difference",g,--,--,18.00,18.95
"Fiber, total dietary",g,--,--,2.0,2.1
"Sugars, total",g,--,--,4.00,4.21
Minerals
"Calcium, Ca",mg,--,--,0,0
"Iron, Fe",mg,--,--,0.00,0.00
"Sodium, Na",mg,--,--,270,284
Vitamins
"Vitamin C, total ascorbic acid",mg,--,--,3.6,3.8
"Vitamin A, IU",IU,--,--,0,0
Lipids
"Fatty acids, total saturated",g,--,--,0.00,0.00
"Fatty acids, total trans",g,--,--,0.00,0.00
"Cholesterol",mg,--,--,0,0
Amino Acids
Other
Ingredients
"CORN, WATER, SUGAR, AND SALT." Date last updated by company: 06/14/2015
