Source: USDA Branded Food Products Database Release December 2017 Software v.3.8.6.4 2017-10-02
Report Run at: December 17, 2017 21:17 EST
"Nutrient data for: 45139445, SHOPRITE, HOT COCOA, MILK CHOCOLATE, UPC: 041190052912"
Food Group:  Branded Food Products Database
Common Name:

Nutrient,Unit,Data points,Std. Error,"1 K-CUP PACK = 15.0g",1Value per 100 g,
Proximates
"Energy",kcal,--,--,70,467
"Protein",g,--,--,1.00,6.67
"Total lipid (fat)",g,--,--,3.00,20.00
"Carbohydrate, by difference",g,--,--,10.00,66.67
"Fiber, total dietary",g,--,--,1.0,6.7
"Sugars, total",g,--,--,7.00,46.67
Minerals
"Calcium, Ca",mg,--,--,20,133
"Iron, Fe",mg,--,--,2.40,16.00
"Sodium, Na",mg,--,--,200,1333
Vitamins
"Vitamin C, total ascorbic acid",mg,--,--,0.0,0.0
"Vitamin A, IU",IU,--,--,0,0
Lipids
"Fatty acids, total saturated",g,--,--,2.501,16.670
"Fatty acids, total trans",g,--,--,0.000,0.000
"Cholesterol",mg,--,--,0,0
Amino Acids
Other
Ingredients
"SUGAR, CREAMER (COCONUT OIL, CORN SYRUP, SODIUM CASEINATE (A MILK DERIVATIVE), MONO- AND DIGLYCERIDES, DIPOTASSIUM PHOSPHATE), COCOA POWDER (PROCESSED WITH ALKALI), NONFAT DRY MILK, SALT, NATURAL AND ARTIFICIAL FLAVORS, SUCRALOSE, ACESULFAME POTASSIUM." Date available: 07/14/2017 Date last updated by company: 07/14/2017
