Source: USDA Branded Food Products Database Release December 2017 Software v.3.8.6.4 2017-10-02
Report Run at: December 17, 2017 21:13 EST
"Nutrient data for: 45016950, SHOPRITE, FRUIT MEDLEY, UPC: 041190046621"
Food Group:  Branded Food Products Database
Common Name:

Nutrient,Unit,Data points,Std. Error,"0.5 cup = 122.0g",1Value per 100 g,
Proximates
"Energy",kcal,--,--,40,33
"Protein",g,--,--,0.00,0.00
"Total lipid (fat)",g,--,--,0.00,0.00
"Carbohydrate, by difference",g,--,--,10.00,8.20
"Fiber, total dietary",g,--,--,1.0,0.8
"Sugars, total",g,--,--,9.00,7.38
Minerals
"Calcium, Ca",mg,--,--,0,0
"Iron, Fe",mg,--,--,0.00,0.00
"Potassium, K",mg,--,--,60,49
"Sodium, Na",mg,--,--,10,8
Vitamins
"Vitamin C, total ascorbic acid",mg,--,--,68.8,56.4
"Vitamin A, IU",IU,--,--,229,188
Lipids
"Fatty acids, total saturated",g,--,--,0.000,0.000
"Fatty acids, total trans",g,--,--,0.000,0.000
"Cholesterol",mg,--,--,0,0
Amino Acids
Other
Ingredients
"PEACHES, WATER, PEARS, PINEAPPLE, CHERRIES COLORED WITH RED #3, ASCORBIC ACID (VITAMIN C), SUCRALOSE, NATURAL FLAVORING, CITRIC ACID." Date available: 09/13/2017 Date last updated by company: 09/13/2017
