Source: USDA Branded Food Products Database Release December 2017 Software v.3.8.6.4 2017-10-02
Report Run at: December 17, 2017 21:35 EST
"Nutrient data for: 45209334, SHOPRITE, SODA, ORANGE, UPC: 041190007394"
Food Group:  Branded Food Products Database
Common Name:

Nutrient,Unit,Data points,Std. Error,"1 CAN = 355.0g",1Value per 100 g,
Proximates
"Energy",kcal,--,--,199,56
"Protein",g,--,--,0.00,0.00
"Total lipid (fat)",g,--,--,0.00,0.00
"Carbohydrate, by difference",g,--,--,49.98,14.08
"Sugars, total",g,--,--,49.98,14.08
Minerals
"Sodium, Na",mg,--,--,21,6
Vitamins
Lipids
Amino Acids
Other
Ingredients
"CARBONATED WATER, HIGH FRUCTOSE CORN SYRUP AND/OR SUGAR, CITRIC ACID, SODIUM BENZOATE (A PRESERVATIVE), GUM ARABIC, GLYCEROL ESTER OF WOOD ROSIN, NATURAL FLAVOR, YELLOW 6, RED 40, AND BROMINATED VEGETABLE OIL." Date available: 06/25/2017 Date last updated by company: 06/25/2017
