Source: USDA Branded Food Products Database Release December 2017 Software v.3.8.6.4 2017-10-02
Report Run at: December 17, 2017 21:30 EST
"Nutrient data for: 45014549, SHOPRITE, RESTAURANT STYLE CAESAR CROUTONS, UPC: 041190048649"
Food Group:  Branded Food Products Database
Common Name:

Nutrient,Unit,Data points,Std. Error,"2.0 Tbsp = 7.0g",1Value per 100 g,
Proximates
"Energy",kcal,--,--,30,429
"Protein",g,--,--,1.00,14.29
"Total lipid (fat)",g,--,--,1.00,14.29
"Carbohydrate, by difference",g,--,--,5.00,71.43
"Fiber, total dietary",g,--,--,0.0,0.0
"Sugars, total",g,--,--,0.00,0.00
Minerals
"Calcium, Ca",mg,--,--,0,0
"Iron, Fe",mg,--,--,0.00,0.00
"Sodium, Na",mg,--,--,65,929
Vitamins
"Vitamin C, total ascorbic acid",mg,--,--,0.0,0.0
"Vitamin A, IU",IU,--,--,0,0
Lipids
"Fatty acids, total saturated",g,--,--,0.000,0.000
"Fatty acids, total trans",g,--,--,0.000,0.000
"Cholesterol",mg,--,--,0,0
Amino Acids
Other
Ingredients
"ENRICHED FLOUR (WHEAT FLOUR, MALTED BARLEY FOUR, NIACIN, REDUCED IRON, THIAMIN MONONITRATE, RIBOFLAVIN, FOLIC ACID), CANOLA AND/OR SUNFLOWER OIL, YEAST, HIGH FRUCTOSE CORN SYRUP, 2% OR LESS OF WHEAT GLUTEN, GARLIC POWDER AND ONION POWDER, SALT, WHEY POWDER, BUTTERMILK POWDER, ROMANO CHEESE POWDER ([PART SKIM COW'S MILK, CHEESE CULTURE, SALT, ENZYMES], DISODIUM PHOSPHATE, SALT, LACTIC ACID), SPICES, HYDROLYZED SOY PROTEIN, CALCIUM PROPIONATE (PRESERVATIVE), AUTOLYZED YEAST EXTRACT, ANCHOVY POWDER, NATURAL AND ARTIFICIAL FLAVORS, PARSLEY FLAKES, BLEU CHEESE POWDER ([PASTEURIZED MILK, CHEESE CULTURES, SALT, ENZYMES], CULTURED NONFAT MILK, MALTODEXTRIN, SODIUM CITRATE, SALT), VINEGAR POWDER (DISTILLED WHITE VINEGAR, MALTODEXTRIN, CORNSTARCH), CITRIC ACID, SOYBEAN OIL, ROSEMARY EXTRACTIVES, EXTRACTIVES OF TURMERIC AND ANNATTO (COLOR), ENZYMES, ASCORBIC ACID, TBHQ (TO PRESERVE FRESHNESS)." Date available: 07/14/2017 Date last updated by company: 07/14/2017
