Source: USDA Branded Food Products Database Release December 2017 Software v.3.8.6.4 2017-10-02
Report Run at: December 17, 2017 21:38 EST
"Nutrient data for: 45023765, SHOPRITE, SWEET WHOLE KERNEL GOLDEN CORN, UPC: 041190008216"
Food Group:  Branded Food Products Database
Common Name:

Nutrient,Unit,Data points,Std. Error,"0.5 cup = 125.0g",1Value per 100 g,
Proximates
"Energy",kcal,--,--,80,64
"Protein",g,--,--,2.00,1.60
"Total lipid (fat)",g,--,--,1.00,0.80
"Carbohydrate, by difference",g,--,--,17.00,13.60
"Fiber, total dietary",g,--,--,2.0,1.6
"Sugars, total",g,--,--,4.00,3.20
Minerals
"Calcium, Ca",mg,--,--,0,0
"Iron, Fe",mg,--,--,0.00,0.00
"Sodium, Na",mg,--,--,360,288
Vitamins
"Vitamin C, total ascorbic acid",mg,--,--,3.8,3.0
"Vitamin A, IU",IU,--,--,0,0
Lipids
"Fatty acids, total saturated",g,--,--,0.000,0.000
"Fatty acids, total trans",g,--,--,0.000,0.000
"Cholesterol",mg,--,--,0,0
Amino Acids
Other
Ingredients
"CORN, WATER, SUGAR, AND SALT." Date available: 06/25/2017 Date last updated by company: 06/25/2017
