Source: USDA Branded Food Products Database Release December 2017 Software v.3.8.6.4 2017-10-02
Report Run at: December 17, 2017 21:22 EST
"Nutrient data for: 45023024, SHOPRITE, MARINARA PASTA SAUCE, SPECIAL EDITION, UPC: 041190049646"
Food Group:  Branded Food Products Database
Common Name:

Nutrient,Unit,Data points,Std. Error,"0.5 cup = 113.0g",1Value per 100 g,
Proximates
"Energy",kcal,--,--,70,62
"Protein",g,--,--,2.00,1.77
"Total lipid (fat)",g,--,--,4.00,3.54
"Carbohydrate, by difference",g,--,--,8.00,7.08
"Fiber, total dietary",g,--,--,1.0,0.9
"Sugars, total",g,--,--,4.99,4.42
Minerals
"Calcium, Ca",mg,--,--,20,18
"Iron, Fe",mg,--,--,1.53,1.35
"Sodium, Na",mg,--,--,380,336
Vitamins
"Vitamin C, total ascorbic acid",mg,--,--,2.5,2.2
"Vitamin A, IU",IU,--,--,423,374
Lipids
"Fatty acids, total saturated",g,--,--,0.994,0.880
"Fatty acids, total trans",g,--,--,0.000,0.000
"Cholesterol",mg,--,--,0,0
Amino Acids
Other
Ingredients
"IMPORTED ITALIAN TOMATOES, PURE ITALIAN OLIVE OIL, FRESH ONIONS, FRESH BASIL, FRESH GARLIC, SEA SALT, AND SPICES." Date available: 06/25/2017 Date last updated by company: 06/25/2017
