Source: USDA Branded Food Products Database Release December 2017 Software v.3.8.6.4 2017-10-02
Report Run at: December 17, 2017 21:34 EST
"Nutrient data for: 45209363, SHOPRITE, SODA, CHAMPAGNE KOLA, UPC: 041190034864"
Food Group:  Branded Food Products Database
Common Name:

Nutrient,Unit,Data points,Std. Error,"8.0 OZA = 240.0g",1Value per 100 g,
Proximates
"Energy",kcal,--,--,139,58
"Protein",g,--,--,0.00,0.00
"Total lipid (fat)",g,--,--,0.00,0.00
"Carbohydrate, by difference",g,--,--,34.99,14.58
"Sugars, total",g,--,--,34.99,14.58
Minerals
"Sodium, Na",mg,--,--,24,10
Vitamins
Lipids
Amino Acids
Other
Ingredients
"CARBONATED WATER, HIGH FRUCTOSE CORN SYRUP AND/OR SUGAR, CARAMEL COLOR, CITRIC ACID, SODIUM BENZOATE (PRESERVATIVE), AND ARTIFICIAL FLAVOR." Date available: 06/25/2017 Date last updated by company: 06/25/2017
