Source: USDA Branded Food Products Database Release December 2017 Software v.3.8.6.4 2017-10-02
Report Run at: December 17, 2017 21:41 EST
"Nutrient data for: 45042162, SHOPRITE, WHITE AMERICAN CHEESE SINGLES, UPC: 041190450640"
Food Group:  Branded Food Products Database
Common Name:

Nutrient,Unit,Data points,Std. Error,"1 SLICE = 19.0g",1Value per 100 g,
Proximates
"Energy",kcal,--,--,60,316
"Protein",g,--,--,3.00,15.79
"Total lipid (fat)",g,--,--,5.00,26.32
"Carbohydrate, by difference",g,--,--,2.00,10.53
"Fiber, total dietary",g,--,--,0.0,0.0
"Sugars, total",g,--,--,1.00,5.26
Minerals
"Calcium, Ca",mg,--,--,200,1053
"Iron, Fe",mg,--,--,0.00,0.00
"Sodium, Na",mg,--,--,240,1263
Vitamins
"Vitamin C, total ascorbic acid",mg,--,--,0.0,0.0
"Vitamin A, IU",IU,--,--,526,2771
"Vitamin D",IU,--,--,40,211
Lipids
"Fatty acids, total saturated",g,--,--,3.000,15.790
"Fatty acids, total trans",g,--,--,0.000,0.000
"Cholesterol",mg,--,--,10,53
Amino Acids
Other
Ingredients
"AMERICAN CHEESE (MILK, CHEESE CULTURE, SALT, ENZYMES), WATER, MILKFAT, WHEY, MODIFIED POTATO STARCH, MILK PROTEIN CONCENTRATE, SODIUM CITRATE, TRICALCIUM PHOSPHATE, SALT, CITRIC ACID, SORBIC ACID AS A PRESERVATIVE, LACTIC ACID, VITAMIN D3." Date available: 07/14/2017 Date last updated by company: 07/14/2017
