Source: USDA Branded Food Products Database Release December 2017 Software v.3.8.6.4 2017-10-02
Report Run at: December 17, 2017 21:12 EST
"Nutrient data for: 45202075, SHOPRITE, FAT FREE RANCH DRESSING, UPC: 041190036332"
Food Group:  Branded Food Products Database
Common Name:

Nutrient,Unit,Data points,Std. Error,"2.0 Tbsp = 30.0g",1Value per 100 g,
Proximates
"Energy",kcal,--,--,40,133
"Protein",g,--,--,0.00,0.00
"Total lipid (fat)",g,--,--,0.00,0.00
"Carbohydrate, by difference",g,--,--,10.00,33.33
"Fiber, total dietary",g,--,--,0.0,0.0
"Sugars, total",g,--,--,4.00,13.33
Minerals
"Calcium, Ca",mg,--,--,0,0
"Iron, Fe",mg,--,--,0.00,0.00
"Sodium, Na",mg,--,--,330,1100
Vitamins
"Vitamin C, total ascorbic acid",mg,--,--,0.0,0.0
"Vitamin A, IU",IU,--,--,0,0
Lipids
"Fatty acids, total saturated",g,--,--,0.000,0.000
"Fatty acids, total trans",g,--,--,0.000,0.000
"Cholesterol",mg,--,--,0,0
Amino Acids
Other
Ingredients
"WATER, CORN SYRUP, DISTILLED VINEGAR, SALT, WHEY, HIGH FRUCTOSE CORN SYRUP, MODIFIED FOOD STARCH, CONTAINS LESS THAN 2% OF ONION JUICE, GARLIC JUICE, SOYBEAN OIL**, NATURAL FLAVOR (CONTAINS MILK), XANTHAN GUM, ARTIFICIAL COLOR, PHOSPHORIC ACID, POTASSIUM SORBATE (A PRESERVATIVE), PROPYLENE GLYCOL ALGINATE, SPICE (INCLUDING PARSLEY), DISODIUM INOSINATE AND DISODIUM GUANYLATE, DRIED GREEN ONION, CALCIUM DISODIUM EDTA TO PROTECT FLAVOR, YELLOW #5." Date available: 07/14/2017 Date last updated by company: 07/14/2017
