Source: USDA Branded Food Products Database Release December 2017 Software v.3.8.6.4 2017-10-02
Report Run at: December 17, 2017 21:14 EST
"Nutrient data for: 45015785, SHOPRITE, GEM PRETZELS, UPC: 041190575619"
Food Group:  Branded Food Products Database
Common Name:

Nutrient,Unit,Data points,Std. Error,"12.0 PRETZELS = 31.0g",1Value per 100 g,
Proximates
"Energy",kcal,--,--,110,355
"Protein",g,--,--,3.00,9.68
"Total lipid (fat)",g,--,--,0.00,0.00
"Carbohydrate, by difference",g,--,--,23.00,74.19
"Fiber, total dietary",g,--,--,1.0,3.2
"Sugars, total",g,--,--,1.00,3.23
Minerals
"Calcium, Ca",mg,--,--,0,0
"Iron, Fe",mg,--,--,1.74,5.62
"Sodium, Na",mg,--,--,440,1419
Vitamins
"Vitamin C, total ascorbic acid",mg,--,--,0.0,0.0
"Vitamin A, IU",IU,--,--,0,0
Lipids
"Fatty acids, total saturated",g,--,--,0.000,0.000
"Fatty acids, total trans",g,--,--,0.000,0.000
"Cholesterol",mg,--,--,0,0
Amino Acids
Other
Ingredients
"ENRICHED WHEAT FLOUR (CONTAINS: WHEAT FLOUR, NIACIN, REDUCED IRON, THIAMINE MONONITRATE RIBOFLAVIN, AND FLOIC ACID), SALT, MALT, LEAVENING (CONTAINS ONE OR MORE OF THE FOLLOWING: YEAST, SODIUM BICARBONATE, AMMONIUM BICARBONATE)." Date available: 06/25/2017 Date last updated by company: 06/25/2017
