Source: USDA Branded Food Products Database Release December 2017 Software v.3.8.6.4 2017-10-02
Report Run at: December 17, 2017 21:01 EST
"Nutrient data for: 45150076, SHOP N SAVE, GUMMY CHERRIES, UPC: 829364410122"
Food Group:  Branded Food Products Database
Common Name:

Nutrient,Unit,Data points,Std. Error,"5.0 PCS. = 42.0g",1Value per 100 g,
Proximates
"Energy",kcal,--,--,140,333
"Protein",g,--,--,3.00,7.14
"Total lipid (fat)",g,--,--,3.00,7.14
"Carbohydrate, by difference",g,--,--,31.00,73.81
"Fiber, total dietary",g,--,--,0.0,0.0
"Sugars, total",g,--,--,18.00,42.86
Minerals
"Calcium, Ca",mg,--,--,0,0
"Iron, Fe",mg,--,--,0.00,0.00
"Sodium, Na",mg,--,--,15,36
Vitamins
"Vitamin C, total ascorbic acid",mg,--,--,0.0,0.0
"Vitamin A, IU",IU,--,--,0,0
Lipids
"Fatty acids, total saturated",g,--,--,0.000,0.000
"Cholesterol",mg,--,--,0,0
Amino Acids
Other
Ingredients
"CORN SYRUP, SUGAR, GELATIN, CITRIC ACID, APPLE JUICE FROM CONCENTRATE, SODIUM CITRATE, NATURAL AND ARTIFICIAL FLAVORS, COCONUT OIL, CARNAUBA WAX, RED # 40, YELLOW # 5, BLUE # 1." Date available: 10/13/2017 Date last updated by company: 10/13/2017
