Source: USDA Branded Food Products Database Release December 2017 Software v.3.8.6.4 2017-10-02
Report Run at: December 17, 2017 21:12 EST
"Nutrient data for: 45011346, SHOPRITE, FORK SPLIT ENGLISH MUFFINS, ORIGINAL, UPC: 041190570379"
Food Group:  Branded Food Products Database
Common Name:

Nutrient,Unit,Data points,Std. Error,"1 MUFFIN = 57.0g",1Value per 100 g,
Proximates
"Energy",kcal,--,--,140,246
"Protein",g,--,--,4.00,7.02
"Total lipid (fat)",g,--,--,1.00,1.75
"Carbohydrate, by difference",g,--,--,28.00,49.12
"Fiber, total dietary",g,--,--,1.0,1.8
"Sugars, total",g,--,--,1.00,1.75
Minerals
"Calcium, Ca",mg,--,--,150,263
"Iron, Fe",mg,--,--,1.74,3.05
"Potassium, K",mg,--,--,90,158
"Sodium, Na",mg,--,--,260,456
Vitamins
"Vitamin C, total ascorbic acid",mg,--,--,0.0,0.0
"Thiamin",mg,--,--,0.570,1.000
"Riboflavin",mg,--,--,0.170,0.298
"Niacin",mg,--,--,1.930,3.386
"Vitamin A, IU",IU,--,--,0,0
Lipids
"Fatty acids, total saturated",g,--,--,0.000,0.000
"Fatty acids, total monounsaturated",g,--,--,0.000,0.000
"Fatty acids, total polyunsaturated",g,--,--,0.000,0.000
"Fatty acids, total trans",g,--,--,0.000,0.000
"Cholesterol",mg,--,--,0,0
Amino Acids
Other
Ingredients
"ENRICHED FLOUR (WHEAT FLOUR, MALTED BARLEY FLOUR, NIACIN, REDUCED IRON, THIAMIN MONONITRATE, RIBOFLAVIN, FOLIC ACID), WATER, CONTAINS 2% OR LESS OF THE FOLLOWING: HIGH FRUCTOSE CORN SYRUP, YEAST, WHITE RICE FLOUR, SALT, ENRICHED CORN FLOUR (DEGERMINATED YELLOW CORN FLOUR, REDUCED IRON, NIACIN, THIAMIN MONONITRATE, RIBOFLAVIN, FOLIC ACID), DEGERMINATED YELLOW CORN MEAL, VINEGAR, SOYBEAN OIL, SODIUM STEAROYL LACTYLATE, CALCIUM SULFATE, CALCIUM CARBONATE, MINERAL OIL." Date available: 07/14/2017 Date last updated by company: 07/14/2017
