Source: USDA Branded Food Products Database Release December 2017 Software v.3.8.6.4 2017-10-02
Report Run at: December 17, 2017 21:21 EST
"Nutrient data for: 45170686, SHOPRITE, LOW FAT GRANOLA CHEWY BARS, UPC: 041190046539"
Food Group:  Branded Food Products Database
Common Name:

Nutrient,Unit,Data points,Std. Error,"1 BAR = 24.0g",1Value per 100 g,
Proximates
"Energy",kcal,--,--,90,375
"Protein",g,--,--,1.00,4.17
"Total lipid (fat)",g,--,--,1.50,6.25
"Carbohydrate, by difference",g,--,--,19.00,79.17
"Fiber, total dietary",g,--,--,1.0,4.2
"Sugars, total",g,--,--,7.00,29.17
Minerals
"Calcium, Ca",mg,--,--,80,333
"Iron, Fe",mg,--,--,1.20,5.00
"Potassium, K",mg,--,--,45,188
"Sodium, Na",mg,--,--,60,250
Vitamins
"Vitamin C, total ascorbic acid",mg,--,--,0.0,0.0
"Vitamin A, IU",IU,--,--,0,0
Lipids
"Fatty acids, total saturated",g,--,--,0.499,2.080
"Fatty acids, total monounsaturated",g,--,--,0.499,2.080
"Fatty acids, total polyunsaturated",g,--,--,0.000,0.000
"Fatty acids, total trans",g,--,--,0.000,0.000
"Cholesterol",mg,--,--,0,0
Amino Acids
Other
Ingredients
"GRANOLA (WHOLE GRAIN ROLLED OATS, WHOLE GRAIN BROWN RICE FLOUR, SUGAR, WHOLE WHEAT FLAKES, HIGH OLEIC CANOLA OIL, MOLASSES, ENRICHED WHEAT FLOUR [BLEACHED WHEAT FLOUR, MALTED BARLEY FLOUR, NIACIN, REDUCED IRON, THIAMIN MONONITRATE, RIBOFLAVIN, FOLIC ACID], CALCIUM CARBONATE, SODIUM BICARBONATE, NONFAT DRY MILK, SOY LECITHIN, CARAMEL COLOR), CORN SYRUP, WHOLE GRAIN BROWN RICE FLOUR, SEMISWEET CHOCOLATE CHIPS (SUGAR, CHOCOLATE LIQUOR, COCOA BUTTER, SOY LECITHIN, SALT, VANILLA), SUGAR, CORN SYRUP SOLIDS, DEHYDRATED MARSHMALLOWS (SUGAR, CORN SYRUP, MODIFIED CORN STARCH, GELATIN, ARTIFICIAL FLAVOR), HONEY GRAHAM COOKIE PIECES (WHEAT FLOUR, SUGAR, WHOLE WHEAT FLOUR, CANOLA OIL, HONEY POWDER [MALTODEXTRIN, HONEY], BAKING SODA, SALT, ANNATTO EXTRACT [COLOR], CARAMEL COLOR), INVERT SUGAR, GLYCERIN, LESS THAN 2% OF: PALM OIL, SORBITOL, CALCIUM CARBONATE, MOLASSES, SALT, SOY LECITHIN, WHEY PROTEIN CONCENTRATE, NATURAL AND ARTIFICIAL FLAVORS, MIXED TOCOPHEROLS (A PRESERVATIVE), CARAMEL COLOR, CITRIC ACID." Date available: 07/14/2017 Date last updated by company: 07/14/2017
