Source: USDA Branded Food Products Database Release December 2017 Software v.3.8.6.4 2017-10-02
Report Run at: December 17, 2017 21:05 EST
"Nutrient data for: 45209330, SHOPRITE, CAFFEINE FREE SODA, ROOT BEER, UPC: 041190007400"
Food Group:  Branded Food Products Database
Common Name:

Nutrient,Unit,Data points,Std. Error,"1 CAN = 355.0g",1Value per 100 g,
Proximates
"Energy",kcal,--,--,181,51
"Protein",g,--,--,0.00,0.00
"Total lipid (fat)",g,--,--,0.00,0.00
"Carbohydrate, by difference",g,--,--,43.98,12.39
"Sugars, total",g,--,--,43.98,12.39
Minerals
"Sodium, Na",mg,--,--,25,7
Vitamins
Lipids
Amino Acids
Other
Ingredients
"CARBONATED WATER, HIGH FRUCTOSE CORN SYRUP AND/OR SUGAR, CARAMEL COLOR, SODIUM BENZOATE (A PRESERVATIVE), AND NATURAL AND ARTIFICIAL FLAVOR." Date available: 06/25/2017 Date last updated by company: 06/25/2017
