Source: USDA Branded Food Products Database Release December 2017 Software v.3.8.6.4 2017-10-02
Report Run at: December 17, 2017 21:44 EST
"Nutrient data for: 45148780, SHORTBREAD COOKIES, UPC: 085239013335"
Food Group:  Branded Food Products Database
Common Name:

Nutrient,Unit,Data points,Std. Error,"2.0 COOKIES | ABOUT = 36.0g",1Value per 100 g,
Proximates
"Energy",kcal,--,--,180,500
"Protein",g,--,--,2.00,5.56
"Total lipid (fat)",g,--,--,10.00,27.78
"Carbohydrate, by difference",g,--,--,22.00,61.11
"Fiber, total dietary",g,--,--,1.0,2.8
"Sugars, total",g,--,--,9.00,25.00
Minerals
"Calcium, Ca",mg,--,--,0,0
"Iron, Fe",mg,--,--,1.00,2.78
"Sodium, Na",mg,--,--,120,333
Vitamins
"Vitamin C, total ascorbic acid",mg,--,--,0.0,0.0
"Vitamin A, IU",IU,--,--,139,386
Lipids
"Fatty acids, total saturated",g,--,--,5.000,13.890
"Fatty acids, total trans",g,--,--,0.000,0.000
"Cholesterol",mg,--,--,5,14
Amino Acids
Other
Ingredients
"ENRICHED BLEACHED WHEAT FLOUR (FLOUR, NIACIN, REDUCED IRON, THIAMINE MONONITRATE, RIBOFLAVIN, FOLIC ACID), SUGAR, PALM OIL, MARGARINE (PALM OIL, WATER, SOYBEAN OIL, SALT, MONO AND DIGLYCERIDES, ANNATTO [COLOR], CALCIUM DISODIUM EDTA [PRESERVATIVE], ARTIFICIAL FLAVOR, VITAMIN A PALMITATE), COATING (SUGAR, PALM KERNEL AND PALM OIL, COCOA POWDER, COCOA POWDER PROCESSED WITH ALKALI, SORBITAN TRISTEARATE, SOY LECITHIN, VANILLA EXTRACT), EGGS, CONTAINS 2% OR LESS OF: SALT, NATURAL AND ARTIFICIAL FLAVORS, LEAVENING (BAKING SODA, SODIUM ALUMINUM SULFATE, AMMONIUM BICARBONATE, MONO-CALCIUM PHOSPHATE), CORN STARCH, SOY LECITHIN, BLUE 1, BLUE 1 LAKE, BLUE 2, BLUE 2 LAKE, RED 3, RED 40, RED 40 LAKE, YELLOW 5, YELLOW 5 LAKE, YELLOW 6, YELLOW 6 LAKE, WHEY, CONFECTIONER'S GLAZE, CARNAUBA WAX, CORN SYRUP." Date available: 07/14/2017 Date last updated by company: 07/14/2017
