Source: USDA Branded Food Products Database Release December 2017 Software v.3.8.6.4 2017-10-02
Report Run at: December 17, 2017 21:46 EST
"Nutrient data for: 45192297, SHORTSTACKS PANCAKE & WAFFLE MIX, UPC: 728028224542"
Food Group:  Branded Food Products Database
Common Name:

Nutrient,Unit,Data points,Std. Error,"0.33 cup = 49.0g",1Value per 100 g,
Proximates
"Energy",kcal,--,--,170,347
"Protein",g,--,--,4.00,8.16
"Total lipid (fat)",g,--,--,0.00,0.00
"Carbohydrate, by difference",g,--,--,37.00,75.51
"Fiber, total dietary",g,--,--,1.0,2.0
"Sugars, total",g,--,--,7.00,14.29
Minerals
"Calcium, Ca",mg,--,--,60,122
"Iron, Fe",mg,--,--,1.47,3.00
"Sodium, Na",mg,--,--,610,1245
Vitamins
"Vitamin C, total ascorbic acid",mg,--,--,2.0,4.0
"Vitamin A, IU",IU,--,--,0,0
Lipids
"Fatty acids, total saturated",g,--,--,0.000,0.000
"Fatty acids, total trans",g,--,--,0.000,0.000
"Cholesterol",mg,--,--,0,0
Amino Acids
Other
Ingredients
"ORGANIC FLOUR (WHEAT FLOUR), STRAWBERRIES, STRAWBERRY POWDER, ORGANIC SUGAR, LEAVENING (MONOCALCIUM PHOSPHATE, SODIUM BICARBONATE, CORN STARCH), SPICES, BAKING SODA, SALT." Date available: 07/14/2017 Date last updated by company: 07/14/2017
