Source: USDA Branded Food Products Database Release December 2017 Software v.3.8.6.4 2017-10-02
Report Run at: December 17, 2017 21:45 EST
"Nutrient data for: 45214461, SHORTCAKE DESSERT BITES, UPC: 050428486924"
Food Group:  Branded Food Products Database
Common Name:

Nutrient,Unit,Data points,Std. Error,"14.0 PIECES | ABOUT = 41.0g",1Value per 100 g,
Proximates
"Energy",kcal,--,--,170,415
"Protein",g,--,--,0.00,0.00
"Total lipid (fat)",g,--,--,4.50,10.98
"Carbohydrate, by difference",g,--,--,32.00,78.05
"Fiber, total dietary",g,--,--,0.0,0.0
"Sugars, total",g,--,--,26.00,63.41
Minerals
"Sodium, Na",mg,--,--,30,73
Vitamins
Lipids
"Fatty acids, total saturated",g,--,--,4.002,9.760
"Fatty acids, total trans",g,--,--,0.000,0.000
"Cholesterol",mg,--,--,0,0
Amino Acids
Other
Ingredients
"CANDY (SUGAR, CORN SYRUP, MODIFIED CORN STARCH, NATURAL AND ARTIFICIAL FLAVOR, CITRIC ACID, MALIC ACID, SODIUM CITRATE, RED 40), YOGURT FLAVORED CONFECTIONERY (SUGAR, MODIFIED PALM KERNEL AND PALM OIL, NONFAT DRY MILK, YOGURT POWDER, DEMINERALIZED WHEY POWDER, SOY LECITHIN, VANILLA EXTRACT, LACTIC ACID, SALT), CORN SYRUP, MODIFIED TAPIOCA STARCH, COCONUT OIL, CONFECTIONER'S GLAZE." Date available: 07/14/2017 Date last updated by company: 07/14/2017
