Source: USDA Branded Food Products Database Release December 2017 Software v.3.8.6.4 2017-10-02
Report Run at: December 17, 2017 22:47 EST
"Nutrient data for: 45152200, SHREDDERS CHEWY SOUR CANDY SHREDS, UPC: 070970479373"
Food Group:  Branded Food Products Database
Common Name:

Nutrient,Unit,Data points,Std. Error,"0.25 cup = 40.0g",1Value per 100 g,
Proximates
"Energy",kcal,--,--,120,300
"Protein",g,--,--,1.00,2.50
"Total lipid (fat)",g,--,--,0.50,1.25
"Carbohydrate, by difference",g,--,--,31.00,77.50
"Fiber, total dietary",g,--,--,0.0,0.0
"Sugars, total",g,--,--,15.00,37.50
Minerals
"Calcium, Ca",mg,--,--,0,0
"Iron, Fe",mg,--,--,0.45,1.12
"Sodium, Na",mg,--,--,35,88
Vitamins
"Vitamin C, total ascorbic acid",mg,--,--,0.0,0.0
"Vitamin A, IU",IU,--,--,0,0
Lipids
"Fatty acids, total saturated",g,--,--,0.000,0.000
"Fatty acids, total trans",g,--,--,0.000,0.000
"Cholesterol",mg,--,--,0,0
Amino Acids
Other
Ingredients
"SUGAR, CORN SYRUP, ENRICHED WHEAT FLOUR (WHEAT, IRON, NIACIN, THIAMIN, RIBOFLAVIN, FOLIC ACID), WATER, MODIFIED FOOD STARCH, SORBITOL, GLYCERINE, MALIC ACID, PALM OIL, FUMARIC ACID, CITRIC ACID, NATURAL AND ARTIFICIAL FLAVOR, SODIUM CITRATE, SOY LECITHIN, POTASSIUM SORBATE (A PRESERVATIVE), MONO AND DIGLYCERIDES (SOY), RED #40, RED #3, YELLOW #5 (TARTRAZINE), YELLOW #5 LAKE, BLUE #1, BLUE #1 LAKE." Date available: 07/14/2017 Date last updated by company: 07/14/2017
