Source: USDA Branded Food Products Database Release December 2017 Software v.3.8.6.4 2017-10-02
Report Run at: December 17, 2017 22:49 EST
"Nutrient data for: 45283995, SHRIMP FRIED RICE, UPC: 746167840140"
Food Group:  Branded Food Products Database
Common Name:

Nutrient,Unit,Data points,Std. Error,"1 POUCH = 142.0g",1Value per 100 g,
Proximates
"Energy",kcal,--,--,151,106
"Protein",g,--,--,7.99,5.63
"Total lipid (fat)",g,--,--,2.00,1.41
"Carbohydrate, by difference",g,--,--,24.00,16.90
"Fiber, total dietary",g,--,--,2.0,1.4
"Sugars, total",g,--,--,3.00,2.11
Minerals
"Calcium, Ca",mg,--,--,60,42
"Iron, Fe",mg,--,--,0.87,0.61
"Potassium, K",mg,--,--,105,74
"Sodium, Na",mg,--,--,310,218
Vitamins
"Vitamin C, total ascorbic acid",mg,--,--,8.9,6.3
"Vitamin A, IU",IU,--,--,1197,843
Lipids
"Fatty acids, total saturated",g,--,--,0.000,0.000
"Fatty acids, total trans",g,--,--,0.000,0.000
"Cholesterol",mg,--,--,65,46
Amino Acids
Other
Ingredients
"SOY FLAVORED RICE [WHITE RICE, SOY SEASONING (WHEY, HYDROLYZED SOY/CORN PROTEIN, MALTODEXTRIN, SALT, CARAMEL COLOR, ONION POWDER, SOYBEAN OIL, LESS THAN 2% SILICON DIOXIDE {ANTI CAKING AGENT} AND SOYBEAN OIL], SHRIMP: COOKED SHRIMP, WATER, SALT, SODIUM TRI POLYPHOSPHATE, NATURAL AND ARTIFICIAL COLORS (PAPRIKA AND FD&C #40), SUGAR SNAP PEAS, SUGAR PEAS PIECES, CARROTS, ONIONS, SCRAMBLED EGG [WHOLE EGGS, SKIM MILK, SOYBEAL OIL, MODIFIED FOOD STARCH, SALT, XANTHAN GUM, LIQUID PEPPER EXTRACT, CITRIC ACID, NATURAL AND ARTIFICIAL BUTTER FLAVOR (CLARIFIED BUTTER OIL, LIPOLYZED BUTTER OIL, ARTIFICIAL FLAVOR, ANNATO)]." Date available: 07/14/2017 Date last updated by company: 07/14/2017
