Source: USDA Branded Food Products Database Release December 2017 Software v.3.8.6.4 2017-10-02
Report Run at: December 17, 2017 22:51 EST
"Nutrient data for: 45215457, SHRIMP SCAMPI, UPC: 011658010273"
Food Group:  Branded Food Products Database
Common Name:

Nutrient,Unit,Data points,Std. Error,"6.0 SHRIMP PER SERVING | APPROX. = 113.0g",1Value per 100 g,
Proximates
"Energy",kcal,--,--,340,301
"Protein",g,--,--,12.00,10.62
"Total lipid (fat)",g,--,--,31.00,27.43
"Carbohydrate, by difference",g,--,--,2.99,2.65
"Fiber, total dietary",g,--,--,0.0,0.0
"Sugars, total",g,--,--,0.00,0.00
Minerals
"Calcium, Ca",mg,--,--,60,53
"Iron, Fe",mg,--,--,1.08,0.96
"Sodium, Na",mg,--,--,840,743
Vitamins
"Vitamin C, total ascorbic acid",mg,--,--,9.0,8.0
"Vitamin A, IU",IU,--,--,564,499
Lipids
"Fatty acids, total saturated",g,--,--,12.001,10.620
"Fatty acids, total trans",g,--,--,0.000,0.000
"Cholesterol",mg,--,--,120,106
Amino Acids
Other
Ingredients
"SHRIMP, BUTTER, WATER, SOYBEAN OIL, CONTAINS 2% OR LESS OF EACH OF THE FOLLOWING: AUTOLYZED YEAST EXTRACT, CITRIC ACID, CORN SYRUP SOLIDS, DEHYDRATED GARLIC AND ONION, DEHYDRATED LEMON PEELS, DEXTROSE, DRIED PARSLEY, DRIED RED BELL PEPPERS, GARLIC POWDER, LACTIC ACID, LEMON JUICE SOLIDS, LEMON OIL, MALTODEXTRIN, NATURAL FLAVOR, NATURAL SMOKE FLAVORS, ONION POWDER, RED BELL PEPPER POWDER, ROMANO CHEESE (PASTEURIZED MILK, CHEESE CULTURE, SALT, ENZYME), SALT, SODIUM BISULFITE (AS A PRESERVATIVE), SODIUM TRIPOLYPHOSPHATE (TO RETAIN MOISTURE), SPICE EXTRACTIVES, SPICE, SUGAR." Date available: 07/14/2017 Date last updated by company: 07/14/2017
