Source: USDA Branded Food Products Database Release December 2017 Software v.3.8.6.4 2017-10-02
Report Run at: December 17, 2017 22:56 EST
"Nutrient data for: 45150653, SHUR FINE, CLASSIC BLEND TRAIL MIX, UPC: 011161033592"
Food Group:  Branded Food Products Database
Common Name:

Nutrient,Unit,Data points,Std. Error,"1 PACKAGE = 42.0g",1Value per 100 g,
Proximates
"Energy",kcal,--,--,200,476
"Protein",g,--,--,6.00,14.29
"Total lipid (fat)",g,--,--,12.00,28.57
"Carbohydrate, by difference",g,--,--,20.00,47.62
"Fiber, total dietary",g,--,--,3.0,7.1
"Sugars, total",g,--,--,14.00,33.33
Minerals
"Calcium, Ca",mg,--,--,40,95
"Iron, Fe",mg,--,--,0.86,2.04
"Sodium, Na",mg,--,--,85,202
Vitamins
"Vitamin C, total ascorbic acid",mg,--,--,0.0,0.0
"Vitamin A, IU",IU,--,--,0,0
Lipids
"Fatty acids, total saturated",g,--,--,2.499,5.950
"Fatty acids, total monounsaturated",g,--,--,6.002,14.290
"Fatty acids, total polyunsaturated",g,--,--,2.999,7.140
"Fatty acids, total trans",g,--,--,0.000,0.000
"Cholesterol",mg,--,--,0,0
Amino Acids
Other
Ingredients
"RAISINS, PEANUTS, M & M'S MILK CHOCOLATE CANDIES (MILK CHOCOLATE (SUGAR, CHOCOLATE, SKIM MILK, COCOA BUTTER, LACTOSE, MILKFAT, SOY LECITHIN, SALT, ARTIFICIAL FLAVORS), SUGAR, CORNSTARCH, LESS THAN 1% - CORN SYRUP, DEXTRIN, COLORING (INCLUDES BLUE 1 LAKE, RED 40 LAKE, YELLOW 6, YELLOW 5, RED 40, BLUE 1, BLUE 2 LAKE, YELLOW 6 LAKE, YELLOW 5 LAKE, BLUE 2), GUM ACACIA), ALMONDS, CASHEWS, PEANUT OIL AND/OR SOY OIL, SALT." Date available: 07/14/2017 Date last updated by company: 07/14/2017
