Source: USDA Branded Food Products Database Release December 2017 Software v.3.8.6.4 2017-10-02
Report Run at: December 17, 2017 22:56 EST
"Nutrient data for: 45142103, SHURFINE, CAFFEINE FREE SODA, LEMON LIME, UPC: 011161024897"
Food Group:  Branded Food Products Database
Common Name:

Nutrient,Unit,Data points,Std. Error,"1 CAN = 355.0g",1Value per 100 g,
Proximates
"Energy",kcal,--,--,138,39
"Protein",g,--,--,0.00,0.00
"Total lipid (fat)",g,--,--,0.00,0.00
"Carbohydrate, by difference",g,--,--,36.99,10.42
"Sugars, total",g,--,--,36.00,10.14
Minerals
"Sodium, Na",mg,--,--,60,17
Vitamins
Lipids
Amino Acids
Other
Ingredients
"CARBONATED WATER, HIGH FRUCTOSE CORN SYRUP, CITRIC ACID, SODIUM CITRATE, NATURAL FLAVORS." Date available: 07/14/2017 Date last updated by company: 07/14/2017
