Source: USDA Branded Food Products Database Release December 2017 Software v.3.8.6.4 2017-10-02
Report Run at: December 17, 2017 23:16 EST
"Nutrient data for: 45096761, SIGNATURE KITCHENS, 4 CHEESE MASHED POTATOES, UPC: 021130502561"
Food Group:  Branded Food Products Database
Common Name:

Nutrient,Unit,Data points,Std. Error,"0.5 CUP PREPARED | DRY = 27.0g",1Value per 100 g,
Proximates
"Energy",kcal,--,--,110,407
"Protein",g,--,--,3.00,11.11
"Total lipid (fat)",g,--,--,3.00,11.11
"Carbohydrate, by difference",g,--,--,18.00,66.67
"Fiber, total dietary",g,--,--,1.0,3.7
"Sugars, total",g,--,--,2.00,7.41
Minerals
"Calcium, Ca",mg,--,--,40,148
"Iron, Fe",mg,--,--,1.87,6.91
"Sodium, Na",mg,--,--,480,1778
Vitamins
"Vitamin C, total ascorbic acid",mg,--,--,18.7,69.1
"Vitamin A, IU",IU,--,--,0,0
Lipids
"Fatty acids, total saturated",g,--,--,2.001,7.410
"Fatty acids, total trans",g,--,--,0.000,0.000
"Cholesterol",mg,--,--,0,0
Amino Acids
Other
Ingredients
"IDAHO POTATOES WITH EMULSIFIER (MONO & DIGLYCERIDES) AND PRESERVATIVES (SODIUM ACID PYROPHOSPHATE, SODIUM BISULFATE, CITRIC ACID, MIXED TOCOPHEROLS), CHEESE BLEND (WHEY, CHEESE [CHEDDAR, BLUE, PARMESAN, ROMANO {MILK, SALT, CHEESE CULTURES, ENZYMES}], REDUCED LACTOSE, WHEY, MALTODEXTRIN, CANOLA OIL, SALT, SODIUM PHOSPHATE, NONFAT DRY MILK, CITRIC ACID, VEGETABLE OIL (CONTAINS ONE OR MORE OF TH EFOLLOWING:COCONUT, PALM, SOYBEAN,COTTONSEED,SUNFLOWER,CANOLA),NONFAT DRY MILK, SALT, MALTODEXTRIN, BUTTER [CREAM, SLAT, NONFAT DRY MILK, BUTTERMILK, SALT, CANOLA OIL, SOUR CREAM [CUTURED CREAM, NONFAT DRY MILK], DISODIUM PHOSPHATE, NATURAL & ARTIFICIAL FLAVORS, LACTIC ACID,CITRIC ACID), SUGAR, SODIUM CASEINATE, YEAST EXTRACT,DEHYDRATED ONION, DIPOTASSIUM PHOSPHATE, MONO AND DIGLYCERIDES, NATURAL FLAVORS, SOY LECITHIN, DISODIUM INOSINATE, DISODIUM GUANYLATE, FD & C YELLOW #5, YELLOW #6, AND LESS THAN 2% SILICON DIOXIDE ADDED AS AN ANTICAKING AGENT." Date available: 06/25/2017 Date last updated by company: 06/25/2017
