Source: USDA Branded Food Products Database Release December 2017 Software v.3.8.6.4 2017-10-02
Report Run at: December 17, 2017 23:36 EST
"Nutrient data for: 45091278, SIGNATURE SELECT, WHOLE GRAIN MEDLEY WITH VEGETABLES, UPC: 021130503179"
Food Group:  Branded Food Products Database
Common Name:

Nutrient,Unit,Data points,Std. Error,"1 cup = 147.0g",1Value per 100 g,
Proximates
"Energy",kcal,--,--,290,197
"Protein",g,--,--,6.00,4.08
"Total lipid (fat)",g,--,--,4.00,2.72
"Carbohydrate, by difference",g,--,--,56.01,38.10
"Fiber, total dietary",g,--,--,2.9,2.0
"Sugars, total",g,--,--,3.00,2.04
Minerals
"Calcium, Ca",mg,--,--,40,27
"Iron, Fe",mg,--,--,0.54,0.37
"Sodium, Na",mg,--,--,440,299
Vitamins
"Vitamin C, total ascorbic acid",mg,--,--,0.0,0.0
"Vitamin A, IU",IU,--,--,919,625
Lipids
"Fatty acids, total saturated",g,--,--,0.500,0.340
"Fatty acids, total trans",g,--,--,0.000,0.000
"Cholesterol",mg,--,--,0,0
Amino Acids
Other
Ingredients
"WATER, PARBOILED BROWN RICE, CARROTS, WHOLE GRAIN PEARLED BARLEY, RED BELL PEPPERS, LENTILS, CANOLA OIL, SALT, DRIED ONION, GARLIC POWDER, OREGANO, CUMIN, RED PEPPER, TURMERIC, SAFFRON." Date available: 06/25/2017 Date last updated by company: 06/25/2017
