Source: USDA Branded Food Products Database Release December 2017 Software v.3.8.6.4 2017-10-02
Report Run at: December 17, 2017 23:29 EST
"Nutrient data for: 45171851, SIGNATURE SELECT, BREAD, GARLIC, UPC: 021130095346"
Food Group:  Branded Food Products Database
Common Name:

Nutrient,Unit,Data points,Std. Error,"0.125 LOAF = 57.0g",1Value per 100 g,
Proximates
"Energy",kcal,--,--,180,316
"Protein",g,--,--,5.00,8.77
"Total lipid (fat)",g,--,--,7.00,12.28
"Carbohydrate, by difference",g,--,--,25.00,43.86
"Fiber, total dietary",g,--,--,1.0,1.8
"Sugars, total",g,--,--,1.00,1.75
Minerals
"Calcium, Ca",mg,--,--,0,0
"Iron, Fe",mg,--,--,1.39,2.44
"Sodium, Na",mg,--,--,280,491
Vitamins
"Vitamin C, total ascorbic acid",mg,--,--,0.0,0.0
"Vitamin A, IU",IU,--,--,290,508
Lipids
"Fatty acids, total saturated",g,--,--,1.499,2.630
"Fatty acids, total trans",g,--,--,0.000,0.000
"Cholesterol",mg,--,--,0,0
Amino Acids
Other
Ingredients
"BREAD: ENRICHED FLOUR (BLEACHED WHEAT FLOUR, NIACIN, REDUCED IRON, THIAMINE MONONITRATE, RIBOFLAVIN, FOLIC ACID), WATER, CONTAINS LESS THAN 2% OF: PALM OIL, SALT, YEAST, WHEAT GLUTEN, MALTED BARLEY FLOUR, SUGAR, GUAR GUM, DEXTROSE, ENZYMES, ASCORBIC ACID, CORN MEAL, SPREAD: VEGETABLE OIL BLEND (SOYBEAN, PALM FRUIT, EXTRA VIRGIN OLIVE AND/OR CANOLA), WATER, GARLIC, CONTAINS LESS THAN 2% OF: ONION POWDER, SALT, SWEET CREAM BUTTERMILK, MONO-AND DIGLYCERIDES, NATURAL AND ARTIFICIAL FLAVORS, SPICES, POTASSIUM SORBATE AND SODIUM BENZOATE (TO PRESERVE QUALITY), SOY LECITHIN, CITRIC ACID, LACTIC ACID, VITAMIN A PALMITATE, BETA CAROTENE (COLOR)." Date available: 07/14/2017 Date last updated by company: 07/14/2017
