Source: USDA Branded Food Products Database Release December 2017 Software v.3.8.6.4 2017-10-02
Report Run at: December 17, 2017 23:16 EST
"Nutrient data for: 45096613, SIGNATURE KITCHENS, BROWN GRAVY MIX, UPC: 021130496006"
Food Group:  Branded Food Products Database
Common Name:

Nutrient,Unit,Data points,Std. Error,"0.25 CUP | MIX MAKES = 6.0g",1Value per 100 g,
Proximates
"Energy",kcal,--,--,25,417
"Protein",g,--,--,1.00,16.67
"Total lipid (fat)",g,--,--,0.50,8.33
"Carbohydrate, by difference",g,--,--,3.00,50.00
"Fiber, total dietary",g,--,--,0.0,0.0
"Sugars, total",g,--,--,0.00,0.00
Minerals
"Calcium, Ca",mg,--,--,0,0
"Iron, Fe",mg,--,--,0.00,0.00
"Sodium, Na",mg,--,--,340,5667
Vitamins
"Vitamin C, total ascorbic acid",mg,--,--,0.0,0.0
"Vitamin A, IU",IU,--,--,0,0
Lipids
"Fatty acids, total saturated",g,--,--,0.000,0.000
"Fatty acids, total monounsaturated",g,--,--,0.000,0.000
"Fatty acids, total polyunsaturated",g,--,--,0.000,0.000
"Fatty acids, total trans",g,--,--,0.000,0.000
"Cholesterol",mg,--,--,0,0
Amino Acids
Other
Ingredients
"ENRICHED WHEAT FLOUR (FLOUR, NIACIN, IRON, THAMINE MONONITRATE RIBOFLAVIN FOLIC ACID), WHEAT AND CORN SYRUP SOLIDS, SPICES, SODIUM CASEINATE GARLIC, NATURAL FLAVOR, DISODIUM INOSINATE AND GUANYLATE (FLAVOR ENHANCERS), ,EXTRACTIONS OF PAPRIKA, AND YEAST EXTRACT." Date available: 06/25/2017 Date last updated by company: 06/25/2017
