Source: USDA Branded Food Products Database Release December 2017 Software v.3.8.6.4 2017-10-02
Report Run at: December 17, 2017 23:17 EST
"Nutrient data for: 45171969, SIGNATURE KITCHENS, COUNTRY ITALIAN ENRICHED BREAD, UPC: 021130185245"
Food Group:  Branded Food Products Database
Common Name:

Nutrient,Unit,Data points,Std. Error,"1 SLICE = 30.0g",1Value per 100 g,
Proximates
"Energy",kcal,--,--,80,267
"Protein",g,--,--,2.00,6.67
"Total lipid (fat)",g,--,--,0.50,1.67
"Carbohydrate, by difference",g,--,--,15.00,50.00
"Fiber, total dietary",g,--,--,1.0,3.3
"Sugars, total",g,--,--,1.00,3.33
Minerals
"Calcium, Ca",mg,--,--,40,133
"Iron, Fe",mg,--,--,1.80,6.00
"Sodium, Na",mg,--,--,170,567
Vitamins
"Vitamin C, total ascorbic acid",mg,--,--,0.0,0.0
"Thiamin",mg,--,--,0.300,1.000
"Riboflavin",mg,--,--,0.068,0.227
"Niacin",mg,--,--,1.334,4.447
"Vitamin A, IU",IU,--,--,0,0
Lipids
"Fatty acids, total saturated",g,--,--,0.000,0.000
"Fatty acids, total monounsaturated",g,--,--,0.000,0.000
"Fatty acids, total polyunsaturated",g,--,--,0.000,0.000
"Fatty acids, total trans",g,--,--,0.000,0.000
"Cholesterol",mg,--,--,0,0
Amino Acids
Other
Ingredients
"ENRICHED WHEAT FLOUR (FLOUR, MALTED BARLEY FLOUR, REDUCED IRON, NIACIN, THIAMIN, MONONITRATE [VITAMIN B1], RIBOFLAVIN [VITAMIN B2], FOLIC ACID), WATER, HIGH FRUCTOSE CORN SYRUP, YEAST, SALT, SOYBEAN OIL, MONOGLYCERIDES, CALCIUM PROPIONATE (PRESERVATIVE), DATEM, CALCIUM SULFATE, SOY LECITHIN, CITRIC ACID, GRAIN VINEGAR, WHEAT GLUTEN, POTASSIUM IODATE." Date available: 07/14/2017 Date last updated by company: 07/14/2017
