Source: USDA Branded Food Products Database Release December 2017 Software v.3.8.6.4 2017-10-02
Report Run at: December 17, 2017 23:15 EST
"Nutrient data for: 45172391, SIGNATURE KITCHENS, BAKED SNACK CRACKERS, CHEDDAR CHEESE, UPC: 021130112470"
Food Group:  Branded Food Products Database
Common Name:

Nutrient,Unit,Data points,Std. Error,"28.0 CRACKERS = 30.0g",1Value per 100 g,
Proximates
"Energy",kcal,--,--,150,500
"Protein",g,--,--,3.00,10.00
"Total lipid (fat)",g,--,--,8.00,26.67
"Carbohydrate, by difference",g,--,--,18.00,60.00
"Fiber, total dietary",g,--,--,1.0,3.3
"Sugars, total",g,--,--,0.00,0.00
Minerals
"Calcium, Ca",mg,--,--,0,0
"Iron, Fe",mg,--,--,1.80,6.00
"Potassium, K",mg,--,--,30,100
"Sodium, Na",mg,--,--,230,767
Vitamins
"Vitamin C, total ascorbic acid",mg,--,--,0.0,0.0
"Vitamin A, IU",IU,--,--,334,1112
Lipids
"Fatty acids, total saturated",g,--,--,0.999,3.330
"Fatty acids, total monounsaturated",g,--,--,5.001,16.670
"Fatty acids, total polyunsaturated",g,--,--,2.001,6.670
"Fatty acids, total trans",g,--,--,0.000,0.000
"Cholesterol",mg,--,--,0,0
Amino Acids
Other
Ingredients
"ENRICHED FLOUR (WHEAT FLOUR, NIACIN, REDUCED IRON, THIAMIN MONONITRATE [VITAMIN B1], RIBOFLAVIN [VITAMIN B2], FOLIC ACID), CANOLA AND/OR SOYBEAN AND/OR PALM OIL (WITH TBHQ FOR FRESHNESS), CHEDDAR CHEESE AND CHEESE MADE FROM SKIM MILK (SKIM MILK, WHEY, MILK PROTEIN CONCENTRATE, CHEESE CULTURES, SALT, ENZYMES, ANNATTO EXTRACT [COLOR]), CONTAINS 2% OR LESS OF: SALT, PAPRIKA, YEAST EXTRACT, YEAST, COLORS (PAPRIKA OLEORESIN, ANNATTO EXTRACT, TURMERIC EXTRACT), BAKING SODA, NATURAL FLAVORS." Date available: 07/14/2017 Date last updated by company: 07/14/2017
