Source: USDA Branded Food Products Database Release December 2017 Software v.3.8.6.4 2017-10-02
Report Run at: December 17, 2017 23:25 EST
"Nutrient data for: 45171895, SIGNATURE KITCHENS, SPLIT TOP ENRICHED WHITE BREAD, UPC: 021130119721"
Food Group:  Branded Food Products Database
Common Name:

Nutrient,Unit,Data points,Std. Error,"1 SLICE = 28.0g",1Value per 100 g,
Proximates
"Energy",kcal,--,--,70,250
"Protein",g,--,--,3.00,10.71
"Total lipid (fat)",g,--,--,1.00,3.57
"Carbohydrate, by difference",g,--,--,13.00,46.43
"Fiber, total dietary",g,--,--,0.0,0.0
"Sugars, total",g,--,--,1.00,3.57
Minerals
"Calcium, Ca",mg,--,--,20,71
"Iron, Fe",mg,--,--,1.29,4.59
"Sodium, Na",mg,--,--,140,500
Vitamins
"Vitamin C, total ascorbic acid",mg,--,--,0.0,0.0
"Thiamin",mg,--,--,0.280,1.000
"Riboflavin",mg,--,--,0.102,0.364
"Niacin",mg,--,--,2.142,7.650
"Vitamin A, IU",IU,--,--,0,0
Lipids
"Fatty acids, total saturated",g,--,--,0.000,0.000
"Fatty acids, total monounsaturated",g,--,--,0.000,0.000
"Fatty acids, total polyunsaturated",g,--,--,0.000,0.000
"Fatty acids, total trans",g,--,--,0.000,0.000
"Cholesterol",mg,--,--,0,0
Amino Acids
Other
Ingredients
"UNBLEACHED ENRICHED WHEAT FLOUR (WHEAT FLOUR, MALTED BARLEY FLOUR, NIACIN, IRON, THIAMIN MONONITRATE, RIBOFLAVIN, FOLIC ACID), WATER, HIGH FRUCTOSE CORN SYRUP, YEAST, WHEAT GLUTEN, CONTAINS 2%OR LESS OF. SOYBEAN AND/OR CANOLA OIL, HONEY, SALT, DOUGH CONDITIONERS (SODIUM STEAROYL LACTYLATE, MONOGLYCERIDES, CALCIUM PEROXIDE, ASCORBIC ACID, CALCIUM PROPIONATE (PRESERVATIVE), YEAST NUTRIENTS (CALCIUM SULFATE, AMMONIUM SULFATE, AMMONIUM CHLORIDE), ORGANIC EXPELLED LECITHIN." Date available: 07/14/2017 Date last updated by company: 07/14/2017
