Source: USDA Branded Food Products Database Release December 2017 Software v.3.8.6.4 2017-10-02
Report Run at: December 17, 2017 23:35 EST
"Nutrient data for: 45241493, SIGNATURE, SELECT, VINAIGRETTE, GARLIC PARMESAN, UPC: 021130480623"
Food Group:  Branded Food Products Database
Common Name:

Nutrient,Unit,Data points,Std. Error,"2.0 Tbsp = 30.0g",1Value per 100 g,
Proximates
"Energy",kcal,--,--,130,433
"Protein",g,--,--,1.00,3.33
"Total lipid (fat)",g,--,--,14.00,46.67
"Carbohydrate, by difference",g,--,--,1.00,3.33
"Fiber, total dietary",g,--,--,0.0,0.0
"Sugars, total",g,--,--,1.00,3.33
Minerals
"Calcium, Ca",mg,--,--,0,0
"Iron, Fe",mg,--,--,0.00,0.00
"Sodium, Na",mg,--,--,340,1133
Vitamins
"Vitamin C, total ascorbic acid",mg,--,--,0.0,0.0
"Vitamin A, IU",IU,--,--,0,0
Lipids
"Fatty acids, total saturated",g,--,--,2.499,8.330
"Fatty acids, total trans",g,--,--,0.000,0.000
"Cholesterol",mg,--,--,0,0
Amino Acids
Other
Ingredients
"SOYBEAN OIL, WATER, DISTILLED VINEGAR, PARMESAN AND ROMANO CHEESE (PASTEURIZED MILK, BACTERIAL CULTURE, SALT, ENZYMES, CELLULOSE), SALT, CONTAINS LESS THAN 2%: SUGAR, DRIED GARLIC, DRIED ONION, SPICES, MONOSODIUM GLUTAMATE, CITRIC ACID, XANTHAN GUM, NATURAL FLAVOR, POTASSIUM SORBATE AND CALCIUM DISODIUM EDTA TO PROTECT QUALITY, MOLASSES, CORN SYRUP, TAMARIND, LEMON JUICE CONCENTRATE, CARAMEL COLOR." Date available: 06/25/2017 Date last updated by company: 06/25/2017
