Source: USDA Branded Food Products Database Release December 2017 Software v.3.8.6.4 2017-10-02
Report Run at: December 17, 2017 23:20 EST
"Nutrient data for: 45162909, SIGNATURE KITCHENS, GUMMI WORMS, SOUR, UPC: 021130558018"
Food Group:  Branded Food Products Database
Common Name:

Nutrient,Unit,Data points,Std. Error,"9.0 PIECES = 38.0g",1Value per 100 g,
Proximates
"Energy",kcal,--,--,130,342
"Protein",g,--,--,2.00,5.26
"Total lipid (fat)",g,--,--,0.00,0.00
"Carbohydrate, by difference",g,--,--,29.00,76.32
"Fiber, total dietary",g,--,--,0.0,0.0
"Sugars, total",g,--,--,19.00,50.00
Minerals
"Calcium, Ca",mg,--,--,0,0
"Iron, Fe",mg,--,--,0.00,0.00
"Sodium, Na",mg,--,--,40,105
Vitamins
"Vitamin C, total ascorbic acid",mg,--,--,0.0,0.0
"Vitamin A, IU",IU,--,--,0,0
Lipids
"Fatty acids, total saturated",g,--,--,0.000,0.000
"Fatty acids, total trans",g,--,--,0.000,0.000
"Cholesterol",mg,--,--,0,0
Amino Acids
Other
Ingredients
"CORN SYRUP, SUGAR, GELATIN, MODIFIED FOOD STARCH (POTATO), LACTIC ACID, APPLE JUICE FROM CONCENTRATE, MALIC ACID, SODIUM LACTATE, ADIPIC ACID, FUMARIC ACID, TARTARIC ACID, MODIFIED FOOD STARCH (CORN), SODIUM CITRATE, TITANIUM DIOXIDE [COLOR], NATURAL AND ARTIFICIAL FLAVORS, RED 40, YELLOW 5, BLUE 1." Date available: 08/15/2017 Date last updated by company: 08/15/2017
