Source: USDA Branded Food Products Database Release December 2017 Software v.3.8.6.4 2017-10-02
Report Run at: December 17, 2017 23:28 EST
"Nutrient data for: 45121684, SIGNATURE PIZZA, UPC: 031205052006"
Food Group:  Branded Food Products Database
Common Name:

Nutrient,Unit,Data points,Std. Error,"0.167 PIZZA = 151.0g",1Value per 100 g,
Proximates
"Energy",kcal,--,--,450,298
"Protein",g,--,--,23.00,15.23
"Total lipid (fat)",g,--,--,26.00,17.22
"Carbohydrate, by difference",g,--,--,32.99,21.85
"Fiber, total dietary",g,--,--,5.0,3.3
"Sugars, total",g,--,--,1.99,1.32
Minerals
"Calcium, Ca",mg,--,--,300,199
"Iron, Fe",mg,--,--,3.49,2.31
"Sodium, Na",mg,--,--,1240,821
Vitamins
"Vitamin C, total ascorbic acid",mg,--,--,3.2,2.1
"Vitamin A, IU",IU,--,--,516,342
Lipids
"Fatty acids, total saturated",g,--,--,9.000,5.960
"Fatty acids, total trans",g,--,--,0.000,0.000
"Cholesterol",mg,--,--,65,43
Amino Acids
Other
Ingredients
"CRUST: (WHEAT FLOUR, WATER, CORN OIL, YEAST, SALT), WHOLE MILK MOZZARELLA CHEESE: (PASTEURIZED MILK, CHEESE CULTURES, SALT, ENZYMES), SAUCE: (TOMATO PUREE, WATER, OREGANO, SALT, BLACK PEPPER), SAUSAGE: (PORK, SALT, SPICES, FLAVORING), FULLY COOKED ALL NATURAL *UNCURED BACON TOPPINGS: NO NITRATES OR NITRITES ADDED EXCEPT FOR THOSE NATURALLY OCCURRING IN SEASONING. PORK, WATER, SALT, TURBINADO SUGAR, SEASONING (CULTURED CELERY JUICE POWDER, SEA SALT). *MINIMALLY PROCESSED, NO ARTIFICIAL INGREDIENTS. UNCURED PEPPERONI: *NO NITRATES OR NITRITES ADDED EXCEPT FOR NATURALLY OCCURRING NITRATES FOUND IN CELERY POWDER, PORK, SALT, CONTAINS 2% OR LESS OF CANE SUGAR, NATURAL FLAVORINGS (INCLUDING CELERY POWDER), SPICES, OLEORESIN OF PAPRIKA, LACTIC ACID STARTER CULTURE, *MINIMALLY PROCESSED, NO ARTIFICIAL INGREDIENTS." Date available: 07/14/2017 Date last updated by company: 07/14/2017
