Source: USDA Branded Food Products Database Release December 2017 Software v.3.8.6.4 2017-10-02
Report Run at: December 17, 2017 23:41 EST
"Nutrient data for: 45318278, SILKY SMOOTH WHITE & MILK CHOCOLATE SWIRL, UPC: 040000417118"
Food Group:  Branded Food Products Database
Common Name:

Nutrient,Unit,Data points,Std. Error,"9.0 PIECES = 42.0g",1Value per 100 g,
Proximates
"Energy",kcal,--,--,230,548
"Protein",g,--,--,2.00,4.76
"Total lipid (fat)",g,--,--,14.00,33.33
"Carbohydrate, by difference",g,--,--,25.00,59.52
"Fiber, total dietary",g,--,--,1.0,2.4
"Sugars, total",g,--,--,24.00,57.14
Minerals
"Calcium, Ca",mg,--,--,60,143
"Iron, Fe",mg,--,--,0.00,0.00
"Sodium, Na",mg,--,--,40,95
Vitamins
"Vitamin C, total ascorbic acid",mg,--,--,0.0,0.0
"Vitamin A, IU",IU,--,--,119,283
Lipids
"Fatty acids, total saturated",g,--,--,9.001,21.430
"Fatty acids, total trans",g,--,--,0.000,0.000
"Cholesterol",mg,--,--,10,24
Amino Acids
Other
Ingredients
"MILK CHOCOLATE (SUGAR, COCOA BUTTER, CHOCOLATE, SKIM MILK, MILKFAT, LACTOSE, CHOCOLATE PROCESSED WITH ALKALI, SOY LECITHIN, NATURAL AND ARTIFICIAL FLAVORS), SUGAR, COCOA BUTTER, SKIM MILK, MILKFAT, SOY LECITHIN, SALT, PGPR, NATURAL FLAVOR." Date available: 07/14/2017 Date last updated by company: 07/14/2017
