Source: USDA Branded Food Products Database Release December 2017 Software v.3.8.6.4 2017-10-02
Report Run at: December 17, 2017 23:54 EST
"Nutrient data for: 45142062, SIMPLE TRUTH ORGANIC, DARK CHOCOLATE, UPC: 011110844026"
Food Group:  Branded Food Products Database
Common Name:

Nutrient,Unit,Data points,Std. Error,"10.0 SQUARES = 40.0g",1Value per 100 g,
Proximates
"Energy",kcal,--,--,220,550
"Protein",g,--,--,3.00,7.50
"Total lipid (fat)",g,--,--,16.00,40.00
"Carbohydrate, by difference",g,--,--,15.00,37.50
"Fiber, total dietary",g,--,--,4.0,10.0
"Sugars, total",g,--,--,12.00,30.00
Minerals
"Calcium, Ca",mg,--,--,20,50
"Iron, Fe",mg,--,--,6.75,16.88
"Sodium, Na",mg,--,--,5,12
Vitamins
"Vitamin C, total ascorbic acid",mg,--,--,0.0,0.0
"Vitamin A, IU",IU,--,--,0,0
Lipids
"Fatty acids, total saturated",g,--,--,10.000,25.000
"Fatty acids, total trans",g,--,--,0.000,0.000
"Cholesterol",mg,--,--,0,0
Amino Acids
Other
Ingredients
"ORGANIC CHOCOLATE LIQUOR*, ORGANIC SUGAR*, ORGANIC COCOA BUTTER*, ORGANIC LOW FAT COCOA POWDER*." Date available: 08/26/2017 Date last updated by company: 08/26/2017
