Source: USDA Branded Food Products Database Release December 2017 Software v.3.8.6.4 2017-10-02
Report Run at: December 18, 2017 00:01 EST
"Nutrient data for: 45227061, SIMPLY BALANCED, ALASKAN COHO SALMON FILLETS, UPC: 085239071847"
Food Group:  Branded Food Products Database
Common Name:

Nutrient,Unit,Data points,Std. Error,"1 PIECE = 170.0g",1Value per 100 g,
Proximates
"Energy",kcal,--,--,250,147
"Protein",g,--,--,36.99,21.76
"Total lipid (fat)",g,--,--,10.00,5.88
"Carbohydrate, by difference",g,--,--,0.00,0.00
"Fiber, total dietary",g,--,--,0.0,0.0
"Sugars, total",g,--,--,0.00,0.00
Minerals
"Calcium, Ca",mg,--,--,60,35
"Iron, Fe",mg,--,--,0.54,0.32
"Potassium, K",mg,--,--,721,424
"Sodium, Na",mg,--,--,80,47
Vitamins
"Vitamin C, total ascorbic acid",mg,--,--,0.7,0.4
"Vitamin A, IU",IU,--,--,100,59
Lipids
"Fatty acids, total saturated",g,--,--,2.006,1.180
"Fatty acids, total monounsaturated",g,--,--,3.502,2.060
"Fatty acids, total polyunsaturated",g,--,--,3.502,2.060
"Fatty acids, total trans",g,--,--,0.000,0.000
"Cholesterol",mg,--,--,75,44
Amino Acids
Other
Ingredients
"COHO SALMON (ONCORHYNCHUS KISUTCH)." Date available: 07/14/2017 Date last updated by company: 07/14/2017
