Source: USDA Branded Food Products Database Release December 2017 Software v.3.8.6.4 2017-10-02
Report Run at: December 18, 2017 00:19 EST
"Nutrient data for: 45118939, SIMPLY POTATOES, MASHED SWEET POTATOES, UPC: 020169221702"
Food Group:  Branded Food Products Database
Common Name:

Nutrient,Unit,Data points,Std. Error,"0.5 cup = 124.0g",1Value per 100 g,
Proximates
"Energy",kcal,--,--,110,89
"Protein",g,--,--,2.00,1.61
"Total lipid (fat)",g,--,--,1.00,0.81
"Carbohydrate, by difference",g,--,--,22.00,17.74
"Fiber, total dietary",g,--,--,2.0,1.6
"Sugars, total",g,--,--,13.00,10.48
Minerals
"Calcium, Ca",mg,--,--,60,48
"Iron, Fe",mg,--,--,0.82,0.66
"Sodium, Na",mg,--,--,160,129
Vitamins
"Vitamin C, total ascorbic acid",mg,--,--,2.7,2.2
"Vitamin A, IU",IU,--,--,5644,4552
Lipids
"Fatty acids, total saturated",g,--,--,0.397,0.320
"Fatty acids, total trans",g,--,--,0.000,0.000
"Cholesterol",mg,--,--,5,4
Amino Acids
Other
Ingredients
"SWEET POTATOES, SKIM MILK, BROWN SUGAR, BUTTER (CREAM, SALT), CONTAINS 1/2% OR LESS OF THE FOLLOWING: SALT, SPICE, XANTHAN GUM, DISODIUM PYROPHOSPHATE (TO MAINTAIN COLOR), POTASSIUM SORBATE AND SODIUM BISULFITE (TO MAINTAIN FRESHNESS)." Date available: 06/25/2017 Date last updated by company: 06/25/2017
