Source: USDA Branded Food Products Database Release December 2017 Software v.3.8.6.4 2017-10-02
Report Run at: December 17, 2017 23:54 EST
"Nutrient data for: 45092903, SIMPLE TRUTH ORGANIC, FRUIT & NUT MIX WITH DARK CHOCOLATE COVERED RAISINS, UPC: 011110912442"
Food Group:  Branded Food Products Database
Common Name:

Nutrient,Unit,Data points,Std. Error,"0.25 cup = 30.0g",1Value per 100 g,
Proximates
"Energy",kcal,--,--,140,467
"Protein",g,--,--,3.00,10.00
"Total lipid (fat)",g,--,--,8.00,26.67
"Carbohydrate, by difference",g,--,--,15.00,50.00
"Fiber, total dietary",g,--,--,2.0,6.7
"Sugars, total",g,--,--,9.00,30.00
Minerals
"Calcium, Ca",mg,--,--,20,67
"Iron, Fe",mg,--,--,2.40,8.00
"Sodium, Na",mg,--,--,10,33
Vitamins
"Vitamin C, total ascorbic acid",mg,--,--,30.0,100.0
"Vitamin A, IU",IU,--,--,166,555
Lipids
"Fatty acids, total saturated",g,--,--,1.500,5.000
"Fatty acids, total trans",g,--,--,0.000,0.000
"Cholesterol",mg,--,--,0,0
Amino Acids
Other
Ingredients
"RAISINS, PUMPKIN SEEDS, SUNFLOWER SEEDS, PAPAYA (PAPAYA EVAPORATED CANE SYRUP), DRY ROASTED ALMONDS, CRANBERRIES (CRANBERRIES, EVAPORATED CANE SYRUP, CRANBERRY SEED OIL), DARK CHOCOLATE RAISINS (DARK CHOCOLATE COATING [UNSWEETENED CHOCOLATE, EVAPORATED CANE SYRUP, COCOA BUTTER, SOY LECITHIN {AN EMULSIFIER} NATURAL VANILLA, MILK}, RAISINS, PURE FOOD GLAZE), DRY ROASTED CASHEWS, CHERRIES, WALNUTS, ORGANIC PINEAPPLE, APPLES, PINE NUTS." Date available: 06/25/2017 Date last updated by company: 06/25/2017
