Source: USDA Branded Food Products Database Release December 2017 Software v.3.8.6.4 2017-10-02
Report Run at: December 18, 2017 00:17 EST
"Nutrient data for: 45084965, SIMPLY PESTO, UPC: 072368424675"
Food Group:  Branded Food Products Database
Common Name:

Nutrient,Unit,Data points,Std. Error,"0.25 cup = 45.0g",1Value per 100 g,
Proximates
"Energy",kcal,--,--,240,533
"Protein",g,--,--,2.00,4.44
"Total lipid (fat)",g,--,--,25.00,55.56
"Carbohydrate, by difference",g,--,--,2.00,4.44
"Fiber, total dietary",g,--,--,0.0,0.0
"Sugars, total",g,--,--,2.00,4.44
Minerals
"Calcium, Ca",mg,--,--,110,244
"Iron, Fe",mg,--,--,3.04,6.76
"Sodium, Na",mg,--,--,310,689
Vitamins
"Vitamin C, total ascorbic acid",mg,--,--,5.1,11.3
"Vitamin A, IU",IU,--,--,1268,2818
Lipids
"Fatty acids, total saturated",g,--,--,0.846,1.880
"Fatty acids, total trans",g,--,--,0.000,0.000
"Cholesterol",mg,--,--,6,13
Amino Acids
Other
Ingredients
"OLIVE OIL, FRESH BASIL, CASHEW NUTS, PARMIGIANO REGGIANO PDO (PART SKIM PASTEURIZED COW'S MILK, ENZYMES, SALT), PECORINO ROMANO CHEESE (PASTEURIZED SHEEP'S MILK, CULTURE, SALT), PINE NUTS, SKIMMED POWDER MILK, GARLIC, SALT." Date available: 10/13/2017 Date last updated by company: 10/13/2017
