Source: USDA Branded Food Products Database Release December 2017 Software v.3.8.6.4 2017-10-02
Report Run at: December 18, 2017 00:10 EST
"Nutrient data for: 45043528, SIMPLY DELICIOUS BLACK FOREST HAM, UPC: 051900019036"
Food Group:  Branded Food Products Database
Common Name:

Nutrient,Unit,Data points,Std. Error,"5.0 SLICES = 51.0g",1Value per 100 g,
Proximates
"Energy",kcal,--,--,50,98
"Protein",g,--,--,9.00,17.65
"Total lipid (fat)",g,--,--,1.00,1.96
"Carbohydrate, by difference",g,--,--,1.00,1.96
"Sugars, total",g,--,--,1.00,1.96
Minerals
"Calcium, Ca",mg,--,--,0,0
"Iron, Fe",mg,--,--,0.39,0.76
"Sodium, Na",mg,--,--,390,765
Vitamins
"Vitamin C, total ascorbic acid",mg,--,--,19.4,38.1
"Vitamin A, IU",IU,--,--,0,0
Lipids
"Fatty acids, total saturated",g,--,--,0.000,0.000
"Fatty acids, total trans",g,--,--,0.000,0.000
"Cholesterol",mg,--,--,25,49
Amino Acids
Other
Ingredients
"HAM CURED WITH WATER, LESS THAT 2% OF SALT, SUGAR, SODIUM PHOSPHATES, SODIUM ASCORBATE, POTASSIUM LACTATE, MODIFIED CORN STARCH, SODIUM NITRITE, POTASSIUM CHLORIDE, CARAMEL COLOR." Date available: 07/14/2017 Date last updated by company: 07/14/2017
