Source: USDA Branded Food Products Database Release December 2017 Software v.3.8.6.4 2017-10-02
Report Run at: December 18, 2017 00:13 EST
"Nutrient data for: 45102201, SIMPLY LITE, FINE CHOCOLATE CANDY BAR, DARK CHOCOLATE, UPC: 000790200123"
Food Group:  Branded Food Products Database
Common Name:

Nutrient,Unit,Data points,Std. Error,"1 SQUARE = 25.0g",1Value per 100 g,
Proximates
"Energy",kcal,--,--,100,400
"Protein",g,--,--,1.00,4.00
"Total lipid (fat)",g,--,--,8.00,32.00
"Carbohydrate, by difference",g,--,--,15.00,60.00
"Fiber, total dietary",g,--,--,3.0,12.0
"Sugars, total",g,--,--,0.00,0.00
Minerals
"Calcium, Ca",mg,--,--,0,0
"Iron, Fe",mg,--,--,2.88,11.52
"Sodium, Na",mg,--,--,0,0
Vitamins
"Vitamin C, total ascorbic acid",mg,--,--,0.0,0.0
"Vitamin A, IU",IU,--,--,0,0
Lipids
"Fatty acids, total saturated",g,--,--,5.000,20.000
"Fatty acids, total trans",g,--,--,0.000,0.000
"Cholesterol",mg,--,--,0,0
Amino Acids
Other
Ingredients
"MALTITOL, CHOCOLATE LIQUOR, COCOA BUTTER, INULIN (NATURAL VEGETABLE FIBER), SOY LECITHIN, VANILLA, CINNAMON." Date available: 06/25/2017 Date last updated by company: 06/25/2017
