Source: USDA Branded Food Products Database Release December 2017 Software v.3.8.6.4 2017-10-02
Report Run at: December 18, 2017 00:04 EST
"Nutrient data for: 45227062, SIMPLY BALANCED, NUT CLUSTERS, VANILLA, UPC: 490710808742"
Food Group:  Branded Food Products Database
Common Name:

Nutrient,Unit,Data points,Std. Error,"0.25 cup = 28.0g",1Value per 100 g,
Proximates
"Energy",kcal,--,--,140,500
"Protein",g,--,--,5.00,17.86
"Total lipid (fat)",g,--,--,9.00,32.14
"Carbohydrate, by difference",g,--,--,14.00,50.00
"Fiber, total dietary",g,--,--,1.0,3.6
"Sugars, total",g,--,--,7.00,25.00
Minerals
"Calcium, Ca",mg,--,--,0,0
"Iron, Fe",mg,--,--,1.93,6.88
"Potassium, K",mg,--,--,110,393
"Sodium, Na",mg,--,--,150,536
Vitamins
"Vitamin C, total ascorbic acid",mg,--,--,0.0,0.0
"Vitamin A, IU",IU,--,--,0,0
Lipids
"Fatty acids, total saturated",g,--,--,1.501,5.360
"Fatty acids, total monounsaturated",g,--,--,5.001,17.860
"Fatty acids, total polyunsaturated",g,--,--,1.999,7.140
"Fatty acids, total trans",g,--,--,0.000,0.000
"Cholesterol",mg,--,--,0,0
Amino Acids
Other
Ingredients
"CASHEWS, ORGANIC RICE SYRUP, CANE SUGAR, ALMONDS, PUMPKIN SEED KERNELS, CRISPED RICE (RICE FLOUR, SUGAR, SALT), PEA PROTEIN, CRISPED BROWN RICE (BROWN RICE FLOUR [RICE FLOUR, RICE BRAN], SEA SALT, NATURAL VANILLA FLAVOR." Date available: 07/14/2017 Date last updated by company: 07/14/2017
