Source: USDA Branded Food Products Database Release December 2017 Software v.3.8.6.4 2017-10-02
Report Run at: December 18, 2017 00:04 EST
"Nutrient data for: 45226866, SIMPLY BALANCED, 100% GRASS-FED BEEF CHUNK ROAST, UPC: 085239268346"
Food Group:  Branded Food Products Database
Common Name:

Nutrient,Unit,Data points,Std. Error,"4.0 ONZ = 112.0g",1Value per 100 g,
Proximates
"Energy",kcal,--,--,280,250
"Protein",g,--,--,19.00,16.96
"Total lipid (fat)",g,--,--,22.00,19.64
"Carbohydrate, by difference",g,--,--,0.00,0.00
Minerals
"Iron, Fe",mg,--,--,1.64,1.46
"Sodium, Na",mg,--,--,75,67
Vitamins
Lipids
"Fatty acids, total saturated",g,--,--,9.005,8.040
"Fatty acids, total trans",g,--,--,0.000,0.000
"Cholesterol",mg,--,--,80,71
Amino Acids
Other
Ingredients
"BEEF." Date available: 10/17/2017 Date last updated by company: 10/17/2017
