Source: USDA Branded Food Products Database Release December 2017 Software v.3.8.6.4 2017-10-02
Report Run at: December 18, 2017 00:11 EST
"Nutrient data for: 45043670, SIMPLY ENJOY, PESTO SAUCE, UPC: 688267149849"
Food Group:  Branded Food Products Database
Common Name:

Nutrient,Unit,Data points,Std. Error,"0.25 cup = 57.0g",1Value per 100 g,
Proximates
"Energy",kcal,--,--,320,561
"Protein",g,--,--,4.00,7.02
"Total lipid (fat)",g,--,--,35.00,61.40
"Carbohydrate, by difference",g,--,--,2.00,3.51
"Fiber, total dietary",g,--,--,1.0,1.8
"Sugars, total",g,--,--,0.00,0.00
Minerals
"Calcium, Ca",mg,--,--,150,263
"Iron, Fe",mg,--,--,1.52,2.67
"Sodium, Na",mg,--,--,470,825
Vitamins
"Vitamin C, total ascorbic acid",mg,--,--,7.6,13.3
"Vitamin A, IU",IU,--,--,1585,2781
Lipids
"Fatty acids, total saturated",g,--,--,6.002,10.530
"Fatty acids, total trans",g,--,--,0.000,0.000
"Cholesterol",mg,--,--,5,9
Amino Acids
Other
Ingredients
"SUNFLOWER OIL, EXTRA VIRGIN OLIVE OIL, BASIL, PARMESAN CHEESE (COW'S MILK, VEGETARIAN RENNET, CHEESE CULTURES, SALT), GARLIC, SALT, BLACK PEPPER, PECORINO CHEESE (SHEEP'S MILK, VEGETARIAN RENNET, CHEESE CULTURES, SALT), PINE NUTS." Date available: 06/24/2017 Date last updated by company: 06/24/2017
