Source: USDA Branded Food Products Database Release December 2017 Software v.3.8.6.4 2017-10-02
Report Run at: December 18, 2017 00:28 EST
"Nutrient data for: 45169407, SINLESS RAW, 85% DARK CHOCOLATE, SMOKY HOT PEPPER, UPC: 850686003358"
Food Group:  Branded Food Products Database
Common Name:

Nutrient,Unit,Data points,Std. Error,"1 ONZ = 28.0g",1Value per 100 g,
Proximates
"Energy",kcal,--,--,136,486
"Protein",g,--,--,1.00,3.57
"Total lipid (fat)",g,--,--,14.00,50.00
"Carbohydrate, by difference",g,--,--,12.00,42.86
"Fiber, total dietary",g,--,--,2.0,7.1
"Sugars, total",g,--,--,0.00,0.00
Minerals
"Sodium, Na",mg,--,--,33,118
Vitamins
Lipids
"Fatty acids, total saturated",g,--,--,8.999,32.140
"Fatty acids, total trans",g,--,--,0.000,0.000
"Cholesterol",mg,--,--,0,0
Amino Acids
Other
Ingredients
"RAW ORGANIC CACAO, NATURAL ERYTHTITOL, ORGANIC VANILLA, RAW ORGANIC ACAI, RAW ORGANIC HEMP, RAW ORGANIC GREENS, HIMALAYAN SEA SALT, ORGANIC CAYENNE, ORGANIC SMOKED MESQUITE, LOVE" Date available: 10/18/2017 Date last updated by company: 10/18/2017
