Source: USDA Branded Food Products Database Release December 2017 Software v.3.8.6.4 2017-10-02
Report Run at: December 18, 2017 00:36 EST
"Nutrient data for: 45166748, SKINNYGIRL, BELGIAN DARK CHOCOLATE TRUFFLES, UPC: 851342006607"
Food Group:  Branded Food Products Database
Common Name:

Nutrient,Unit,Data points,Std. Error,"2.0 TRUFFLES = 17.0g",1Value per 100 g,
Proximates
"Energy",kcal,--,--,100,588
"Protein",g,--,--,1.00,5.88
"Total lipid (fat)",g,--,--,8.00,47.06
"Carbohydrate, by difference",g,--,--,8.00,47.06
"Fiber, total dietary",g,--,--,1.0,5.9
"Sugars, total",g,--,--,6.00,35.29
Minerals
"Calcium, Ca",mg,--,--,0,0
"Iron, Fe",mg,--,--,4.23,24.91
"Sodium, Na",mg,--,--,0,0
Vitamins
"Vitamin C, total ascorbic acid",mg,--,--,0.0,0.0
"Vitamin A, IU",IU,--,--,0,0
Lipids
"Fatty acids, total saturated",g,--,--,5.000,29.410
"Fatty acids, total trans",g,--,--,0.000,0.000
"Cholesterol",mg,--,--,0,0
Amino Acids
Other
Ingredients
"BELGIAN CHOCOLATE (UNSWEETENED CHOCOLATE (PROCESSED WITH ALKALI), SUGAR, COCOA BUTTER, CREAM, SOY LECITHIN (A NATURAL EMULSIFIER), NATURAL VANILLA EXTRACT), ORGANIC COCONUT OIL, ALMONDS" Date available: 07/14/2017 Date last updated by company: 07/14/2017
