Source: USDA Branded Food Products Database Release December 2017 Software v.3.8.6.4 2017-10-02
Report Run at: December 18, 2017 00:39 EST
"Nutrient data for: 45024797, SKIP'S DIP, MEDITERRANEAN SALSA, UPC: 744335611417"
Food Group:  Branded Food Products Database
Common Name:

Nutrient,Unit,Data points,Std. Error,"1 ONZ = 28.0g",1Value per 100 g,
Proximates
"Energy",kcal,--,--,16,57
"Protein",g,--,--,0.00,0.00
"Total lipid (fat)",g,--,--,1.00,3.57
"Carbohydrate, by difference",g,--,--,1.00,3.57
"Fiber, total dietary",g,--,--,0.3,0.9
"Sugars, total",g,--,--,1.00,3.57
Minerals
"Calcium, Ca",mg,--,--,10,36
"Iron, Fe",mg,--,--,0.32,1.15
"Sodium, Na",mg,--,--,98,350
Vitamins
"Vitamin C, total ascorbic acid",mg,--,--,8.6,30.6
"Vitamin A, IU",IU,--,--,268,957
Lipids
"Fatty acids, total saturated",g,--,--,0.000,0.000
"Fatty acids, total trans",g,--,--,0.000,0.000
"Cholesterol",mg,--,--,0,0
Amino Acids
Other
Ingredients
"TOMATOES, ARTICHOKE HEARTS, MANZANILLA OLIVES, RIPE OLIVES, RED PEPPERS, ONIONS, GARLIC, RED WINE VINEGAR, PARSLEY, MINCED PIMENTOS, OLIVE OIL, SALT, OREGANO, CITRIC ACID, LACTIC ACID, CALCIUM CHLORIDE, FERROUS GLUCONATE." Date available: 07/14/2017 Date last updated by company: 07/14/2017
