Source: USDA Branded Food Products Database Release December 2017 Software v.3.8.6.4 2017-10-02
Report Run at: December 18, 2017 00:38 EST
"Nutrient data for: 45061537, SKIPPY, SINGLES CREAMY PEANUT BUTTER, UPC: 037600234757"
Food Group:  Branded Food Products Database
Common Name:

Nutrient,Unit,Data points,Std. Error,"1 CONTAINER = 42.0g",1Value per 100 g,
Proximates
"Energy",kcal,--,--,270,643
"Protein",g,--,--,9.00,21.43
"Total lipid (fat)",g,--,--,22.00,52.38
"Carbohydrate, by difference",g,--,--,8.00,19.05
"Fiber, total dietary",g,--,--,3.0,7.1
"Sugars, total",g,--,--,4.00,9.52
Minerals
"Calcium, Ca",mg,--,--,0,0
"Iron, Fe",mg,--,--,0.43,1.02
"Sodium, Na",mg,--,--,230,548
Vitamins
"Vitamin C, total ascorbic acid",mg,--,--,0.0,0.0
"Niacin",mg,--,--,5.952,14.171
"Vitamin A, IU",IU,--,--,0,0
Lipids
"Fatty acids, total saturated",g,--,--,4.498,10.710
"Fatty acids, total trans",g,--,--,0.000,0.000
"Cholesterol",mg,--,--,0,0
Amino Acids
Other
Ingredients
"ROASTED PEANUTS, SUGAR, HYDROGENATED VEGETABLE OIL (COTTONSEED, SOYBEAN AND RAPESEED OIL) TO PREVENT SEPARATION, SALT." Date available: 07/14/2017 Date last updated by company: 07/14/2017
