Source: USDA Branded Food Products Database Release December 2017 Software v.3.8.6.4 2017-10-02
Report Run at: December 18, 2017 00:40 EST
"Nutrient data for: 45293438, SKYR SMOOTHIE ICELANDIC YOGURT, UPC: 859118002013"
Food Group:  Branded Food Products Database
Common Name:

Nutrient,Unit,Data points,Std. Error,"8.0 ONZ = 227.0g",1Value per 100 g,
Proximates
"Energy",kcal,--,--,100,44
"Protein",g,--,--,16.00,7.05
"Total lipid (fat)",g,--,--,0.00,0.00
"Carbohydrate, by difference",g,--,--,8.99,3.96
"Fiber, total dietary",g,--,--,0.9,0.4
"Sugars, total",g,--,--,6.99,3.08
Minerals
"Calcium, Ca",mg,--,--,141,62
"Iron, Fe",mg,--,--,0.00,0.00
"Sodium, Na",mg,--,--,61,27
Vitamins
"Vitamin C, total ascorbic acid",mg,--,--,0.0,0.0
"Vitamin A, IU",IU,--,--,0,0
Lipids
"Fatty acids, total saturated",g,--,--,0.000,0.000
"Fatty acids, total trans",g,--,--,0.000,0.000
"Cholesterol",mg,--,--,2,1
Amino Acids
Other
Ingredients
"PASTEURIZED ORGANIC SKIMMED MILK, ORGANIC STRAWBERRY PUREE, ORGANIC STRAWBERRY FLAVOR EXTRACT, ORGANIC STEVIA EXTRACT POWDER, LIVE ACTIVE YOGURT CULTURES (L. BULGARICUS, S. THERMOPHILUS)" Date available: 07/14/2017 Date last updated by company: 07/14/2017
