Source: USDA Branded Food Products Database Release December 2017 Software v.3.8.6.4 2017-10-02
Report Run at: December 18, 2017 01:16 EST
"Nutrient data for: 45192326, SL PIE CHERRY CRUMB HALF, UPC: 733147205549"
Food Group:  Branded Food Products Database
Common Name:

Nutrient,Unit,Data points,Std. Error,"0.167 PIE = 113.0g",1Value per 100 g,
Proximates
"Energy",kcal,--,--,350,310
"Protein",g,--,--,2.99,2.65
"Total lipid (fat)",g,--,--,15.00,13.27
"Carbohydrate, by difference",g,--,--,49.00,43.36
"Fiber, total dietary",g,--,--,1.0,0.9
"Sugars, total",g,--,--,21.00,18.58
Minerals
"Calcium, Ca",mg,--,--,23,20
"Iron, Fe",mg,--,--,0.40,0.35
"Potassium, K",mg,--,--,200,177
"Sodium, Na",mg,--,--,200,177
Vitamins
"Vitamin C, total ascorbic acid",mg,--,--,4.7,4.2
"Vitamin A, IU",IU,--,--,553,489
Lipids
"Fatty acids, total saturated",g,--,--,8.000,7.080
"Fatty acids, total trans",g,--,--,0.000,0.000
"Cholesterol",mg,--,--,0,0
Amino Acids
Other
Ingredients
"CHERRIES, ENRICHED UNBLEACHED FLOUR (WHEATFLOUR, NIACIN, REDUCED IRON, THIAMINE MONONITRATE, RIBOFLAVIN, FOLIC ACID),PALM OIL, HIGH FRUCTOSE CORN SYRUP, SUGAR, WATER, MODIFIED FOOD STARCH, ROLLED OATS, SALT, DEXTROSE, XANTHAN GUM, SPICES, NATURAL & ARTIFICIAL FLAVORS, CALCIUM PROPIONATE AND POTASSIUM SORBATE (PRESERVATIVES)." Date available: 10/13/2017 Date last updated by company: 10/13/2017
