Source: USDA Branded Food Products Database Release December 2017 Software v.3.8.6.4 2017-10-02
Report Run at: December 18, 2017 01:17 EST
"Nutrient data for: 45257994, SL ROLL FOCACCIA JALAPENO CH, UPC: 733147205396"
Food Group:  Branded Food Products Database
Common Name:

Nutrient,Unit,Data points,Std. Error,"1 ROLL = 115.0g",1Value per 100 g,
Proximates
"Energy",kcal,--,--,360,313
"Protein",g,--,--,14.00,12.17
"Total lipid (fat)",g,--,--,8.00,6.96
"Carbohydrate, by difference",g,--,--,56.01,48.70
"Fiber, total dietary",g,--,--,3.0,2.6
"Sugars, total",g,--,--,2.00,1.74
Minerals
"Calcium, Ca",mg,--,--,150,130
"Iron, Fe",mg,--,--,1.56,1.36
"Sodium, Na",mg,--,--,1230,1070
Vitamins
"Vitamin C, total ascorbic acid",mg,--,--,0.6,0.5
"Vitamin A, IU",IU,--,--,130,113
Lipids
"Fatty acids, total saturated",g,--,--,3.001,2.610
"Fatty acids, total trans",g,--,--,0.000,0.000
"Cholesterol",mg,--,--,15,13
Amino Acids
Other
Ingredients
"FOCACCIA (ENRICHED FLOUR [WHEAT FLOUR, MALTED BARLEY FLOUR, NIACIN, REDUCED IRON, THIAMIN MONONITRATE, RIBOFLAVIN, FOLIC ACID], WATER, YEAST, SALT, EXTRA VIRGIN OLIVE OIL, OREGANO, BASIL, ROSEMARY, ASCORBIC ACID, WHEAT GLUTEN, ENZYMES, CULTURED WHEAT FLOUR, LACTIC ACID), CHEDDAR CHEESE (PASTEURIZED MILK, CHEESE CULTURE, SALT, ENZYMES AND ANNATTO VEGETABLE COLOR), JALAPENO PEPPERS (JALAPENO PEPPERS, WATER, VINEGAR, SALT, DEHYDRATED ONIONS, CALCIUM CHLORIDE, SODIUM BENZOATE [PRESERVATIVE], SPICES, YELLOW 5), OLIVE OIL." Date available: 08/10/2017 Date last updated by company: 08/10/2017
