Source: USDA Branded Food Products Database Release December 2017 Software v.3.8.6.4 2017-10-02
Report Run at: December 18, 2017 01:08 EST
"Nutrient data for: 45279673, SLICED WHITE POTATOES, UPC: 04131802024"
Food Group:  Branded Food Products Database
Common Name:

Nutrient,Unit,Data points,Std. Error,"0.66 cup = 163.0g",1Value per 100 g,
Proximates
"Energy",kcal,--,--,70,43
"Protein",g,--,--,2.00,1.23
"Total lipid (fat)",g,--,--,0.00,0.00
"Carbohydrate, by difference",g,--,--,14.00,8.59
"Fiber, total dietary",g,--,--,2.0,1.2
"Sugars, total",g,--,--,0.99,0.61
Minerals
"Calcium, Ca",mg,--,--,150,92
"Iron, Fe",mg,--,--,0.36,0.22
"Potassium, K",mg,--,--,240,147
"Sodium, Na",mg,--,--,261,160
Vitamins
"Vitamin C, total ascorbic acid",mg,--,--,0.0,0.0
"Vitamin A, IU",IU,--,--,0,0
Lipids
"Fatty acids, total saturated",g,--,--,0.000,0.000
"Fatty acids, total trans",g,--,--,0.000,0.000
"Cholesterol",mg,--,--,0,0
Amino Acids
Other
Ingredients
"WHITE POTATOES, WATER, SALT, CALCIUM CHLORIDE ADDED TO HELP MAINTAIN FIRMNESS, CALCIUM DISODIUM EDTA ADDED TO HELP PROMOTE COLOR RETENTION." Date available: 07/14/2017 Date last updated by company: 07/14/2017
