Source: USDA Branded Food Products Database Release December 2017 Software v.3.8.6.4 2017-10-02
Report Run at: December 18, 2017 01:02 EST
"Nutrient data for: 45281686, SLICED PROVOLONE CHEESE, UPC: 07078401632"
Food Group:  Branded Food Products Database
Common Name:

Nutrient,Unit,Data points,Std. Error,"1 SILCE = 23.0g",1Value per 100 g,
Proximates
"Energy",kcal,--,--,80,348
"Protein",g,--,--,6.00,26.09
"Total lipid (fat)",g,--,--,6.00,26.09
"Carbohydrate, by difference",g,--,--,0.00,0.00
"Fiber, total dietary",g,--,--,0.0,0.0
"Sugars, total",g,--,--,0.00,0.00
Minerals
"Calcium, Ca",mg,--,--,150,652
"Iron, Fe",mg,--,--,0.00,0.00
"Sodium, Na",mg,--,--,200,870
Vitamins
"Vitamin C, total ascorbic acid",mg,--,--,0.0,0.0
"Vitamin A, IU",IU,--,--,435,1891
Lipids
"Fatty acids, total saturated",g,--,--,4.000,17.390
"Fatty acids, total trans",g,--,--,0.000,0.000
"Cholesterol",mg,--,--,15,65
Amino Acids
Other
Ingredients
"PROVOLONE CHEESE (PASTEURIZED MILK, CHEESE CULTURE, SALT, ENZYMES)." Date available: 07/14/2017 Date last updated by company: 07/14/2017
