Source: USDA Branded Food Products Database Release December 2017 Software v.3.8.6.4 2017-10-02
Report Run at: December 18, 2017 00:56 EST
"Nutrient data for: 45218516, SLICED MUSHROOMS, UPC: 072036710420"
Food Group:  Branded Food Products Database
Common Name:

Nutrient,Unit,Data points,Std. Error,"0.5 cup = 130.0g",1Value per 100 g,
Proximates
"Energy",kcal,--,--,35,27
"Protein",g,--,--,2.00,1.54
"Total lipid (fat)",g,--,--,0.00,0.00
"Carbohydrate, by difference",g,--,--,6.99,5.38
"Fiber, total dietary",g,--,--,3.0,2.3
"Sugars, total",g,--,--,3.00,2.31
Minerals
"Calcium, Ca",mg,--,--,20,15
"Iron, Fe",mg,--,--,1.08,0.83
"Sodium, Na",mg,--,--,390,300
Vitamins
"Vitamin C, total ascorbic acid",mg,--,--,0.0,0.0
"Vitamin A, IU",IU,--,--,0,0
Lipids
"Fatty acids, total saturated",g,--,--,0.000,0.000
"Fatty acids, total trans",g,--,--,0.000,0.000
"Cholesterol",mg,--,--,0,0
Amino Acids
Other
Ingredients
"MUSHROOMS, WATER, SALT, CITRIC ACID." Date available: 07/14/2017 Date last updated by company: 07/14/2017
