Source: USDA Branded Food Products Database Release December 2017 Software v.3.8.6.4 2017-10-02
Report Run at: December 18, 2017 00:52 EST
"Nutrient data for: 45189721, SLICED HAMBURGER DILL PICKLE, UPC: 011161143673"
Food Group:  Branded Food Products Database
Common Name:

Nutrient,Unit,Data points,Std. Error,"8.0 SLICES) | (ABOUT = 28.0g",1Value per 100 g,
Proximates
"Energy",kcal,--,--,0,0
"Protein",g,--,--,0.00,0.00
"Total lipid (fat)",g,--,--,0.00,0.00
"Carbohydrate, by difference",g,--,--,0.00,0.00
"Sugars, total",g,--,--,0.00,0.00
Minerals
"Sodium, Na",mg,--,--,370,1321
Vitamins
Lipids
Amino Acids
Other
Ingredients
"CUCUMBERS, WATER, VINEGAR, SALT, ALUM, SODIUM BENZOATE (PRESERVATIVE), CALCIUM CHLORIDE, POTASSIUM SORBATE (PRESERVATIVE), NATURAL FLAVORS, POLYSORBATE 80, YELLOW 5, BLUE 1." Date available: 07/14/2017 Date last updated by company: 07/14/2017
