Source: USDA Branded Food Products Database Release December 2017 Software v.3.8.6.4 2017-10-02
Report Run at: December 18, 2017 01:02 EST
"Nutrient data for: 45331548, SLICED POUND CAKE, UPC: 072036952752"
Food Group:  Branded Food Products Database
Common Name:

Nutrient,Unit,Data points,Std. Error,"1 SLICE = 45.0g",1Value per 100 g,
Proximates
"Energy",kcal,--,--,160,356
"Protein",g,--,--,2.00,4.44
"Total lipid (fat)",g,--,--,9.00,20.00
"Carbohydrate, by difference",g,--,--,19.00,42.22
"Fiber, total dietary",g,--,--,0.0,0.0
"Sugars, total",g,--,--,11.00,24.44
Minerals
"Calcium, Ca",mg,--,--,0,0
"Iron, Fe",mg,--,--,2.56,5.69
"Sodium, Na",mg,--,--,150,333
Vitamins
"Vitamin C, total ascorbic acid",mg,--,--,0.0,0.0
"Vitamin A, IU",IU,--,--,178,396
Lipids
"Fatty acids, total saturated",g,--,--,1.498,3.330
"Fatty acids, total trans",g,--,--,0.000,0.000
"Cholesterol",mg,--,--,30,67
Amino Acids
Other
Ingredients
"SUGAR, BLEACHED WHEAT FLOUR (ENRICHED WITH NIACIN, REDUCED IRON, THIAMIN MONONITRATE, RIBOFLAVIN AND FOLIC ACID), WHOLE EGGS, SOYBEAN OIL, WATER, MODIFIED CORN STARCH, WHEY(MILK) LEAVENING (SODIUM ALUMINUM PHOSPHATE, ALUMINUM SULFATE, SODIUM BICARBONATE), WHEAT GLUTEN, SALT, SOY LECITHIN, PROPYLENE GLYCOL, MONOESTERS, NATURAL AND ARTIFICIAL FLAVOR, MONO AND DIGLYCERIDES, SODIUM STEAROYL LACTYLATE, POTASSIUM SORBATE (PRESERVATIVE)." Date available: 10/13/2017 Date last updated by company: 10/13/2017
