Source: USDA Branded Food Products Database Release December 2017 Software v.3.8.6.4 2017-10-02
Report Run at: December 18, 2017 00:59 EST
"Nutrient data for: 45059088, SLICED PEPPERONCINI, UPC: 009300000925"
Food Group:  Branded Food Products Database
Common Name:

Nutrient,Unit,Data points,Std. Error,"15.0 SLICES | ABOUT = 28.0g",1Value per 100 g,
Proximates
"Energy",kcal,--,--,10,36
"Protein",g,--,--,0.00,0.00
"Total lipid (fat)",g,--,--,0.00,0.00
"Carbohydrate, by difference",g,--,--,1.00,3.57
Minerals
"Sodium, Na",mg,--,--,450,1607
Vitamins
Lipids
Amino Acids
Other
Ingredients
"IMPORTED PEPPERS, WATER, VINEGAR, SALT, CITRIC ACID, CALCIUM CHLORIDE, 0.1% SODIUM BENZOATE (PRESERVATIVE), SODIUM BISULFITE (PRESERVATIVE), AND YELLOW 5." Date available: 06/24/2017 Date last updated by company: 06/24/2017
