Source: USDA Branded Food Products Database Release December 2017 Software v.3.8.6.4 2017-10-02
Report Run at: December 18, 2017 00:54 EST
"Nutrient data for: 45225307, SLICED LOAF CAKE, UPC: 041303780725"
Food Group:  Branded Food Products Database
Common Name:

Nutrient,Unit,Data points,Std. Error,"2.0 SLICES = 90.0g",1Value per 100 g,
Proximates
"Energy",kcal,--,--,330,367
"Protein",g,--,--,5.00,5.56
"Total lipid (fat)",g,--,--,17.00,18.89
"Carbohydrate, by difference",g,--,--,39.00,43.33
"Fiber, total dietary",g,--,--,1.0,1.1
"Sugars, total",g,--,--,22.00,24.44
Minerals
"Calcium, Ca",mg,--,--,60,67
"Iron, Fe",mg,--,--,1.28,1.42
"Sodium, Na",mg,--,--,120,133
Vitamins
"Vitamin C, total ascorbic acid",mg,--,--,2.2,2.4
"Vitamin A, IU",IU,--,--,89,99
Lipids
"Fatty acids, total saturated",g,--,--,2.997,3.330
"Fatty acids, total trans",g,--,--,0.000,0.000
"Cholesterol",mg,--,--,55,61
Amino Acids
Other
Ingredients
"SUGAR, ENRICHED BLEACHED FLOUR (WHEAT FLOUR, NIACIN, FERROUS SULFATE, THIAMIN MONONITRATE, RIBOFLAVIN, FOLIC ACID), EGGS, SOYBEAN OIL, WATER, BANANAS WITH ASCORBIC ACID AND CITRIC ACID, MILK, MODIFIED CORN STARCH. CONTAINS 2% OR LESS OF EACH OF THE FOLLOWING: WALNUTS, WHEY, WHEAT GLUTEN, EMULSIFIER (MONOGLYCERIDES, PROPYLENE GLYCOL MONOESTERS, SODIUM STEAROYL LACTYLATE, CALCIUM SILICATE), WHEAT STARCH, BANANA EMULSION (ARTIFICIAL FLAVOR, WATER, PROPYLENE GLYCOL, TRAGACANTH GUM, CITRIC ACID, SODIUM BENZOATE), SALT, ACIDIC SODIUM ALUMINUM PHOSPHATE WITH ALUMINUM SULFATE, SODIUM BICARBONATE, POTASSIUM SORBATE (PRESERVATIVE), CALCIUM PROPIONATE (PRESERVATIVE), CARAMEL COLOR, SOY LECITHIN, ALMOND FLOUR." Date available: 07/14/2017 Date last updated by company: 07/14/2017
