Source: USDA Branded Food Products Database Release December 2017 Software v.3.8.6.4 2017-10-02
Report Run at: December 18, 2017 00:46 EST
"Nutrient data for: 45216192, SLICED BEETS, UPC: 030034027261"
Food Group:  Branded Food Products Database
Common Name:

Nutrient,Unit,Data points,Std. Error,"0.5 cup = 120.0g",1Value per 100 g,
Proximates
"Energy",kcal,--,--,40,33
"Protein",g,--,--,1.00,0.83
"Total lipid (fat)",g,--,--,0.00,0.00
"Carbohydrate, by difference",g,--,--,8.00,6.67
"Fiber, total dietary",g,--,--,1.0,0.8
"Sugars, total",g,--,--,6.00,5.00
Minerals
"Calcium, Ca",mg,--,--,0,0
"Iron, Fe",mg,--,--,0.48,0.40
"Sodium, Na",mg,--,--,250,208
Vitamins
"Vitamin C, total ascorbic acid",mg,--,--,1.6,1.3
"Vitamin A, IU",IU,--,--,0,0
Lipids
"Fatty acids, total saturated",g,--,--,0.000,0.000
"Fatty acids, total trans",g,--,--,0.000,0.000
"Cholesterol",mg,--,--,0,0
Amino Acids
Other
Ingredients
"BEETS, WATER, SALT." Date available: 10/19/2017 Date last updated by company: 10/19/2017
