Source: USDA Branded Food Products Database Release December 2017 Software v.3.8.6.4 2017-10-02
Report Run at: December 18, 2017 01:08 EST
"Nutrient data for: 45317740, SLICED WHITE POTATOES, UPC: 037100049745"
Food Group:  Branded Food Products Database
Common Name:

Nutrient,Unit,Data points,Std. Error,"0.67 cup = 165.0g",1Value per 100 g,
Proximates
"Energy",kcal,--,--,69,42
"Protein",g,--,--,1.01,0.61
"Total lipid (fat)",g,--,--,0.00,0.00
"Carbohydrate, by difference",g,--,--,13.99,8.48
"Fiber, total dietary",g,--,--,2.0,1.2
"Sugars, total",g,--,--,1.01,0.61
Minerals
"Calcium, Ca",mg,--,--,40,24
"Iron, Fe",mg,--,--,0.35,0.21
"Potassium, K",mg,--,--,290,176
"Sodium, Na",mg,--,--,280,170
Vitamins
"Vitamin C, total ascorbic acid",mg,--,--,11.7,7.1
"Vitamin A, IU",IU,--,--,0,0
Lipids
"Fatty acids, total saturated",g,--,--,0.000,0.000
"Fatty acids, total trans",g,--,--,0.000,0.000
"Cholesterol",mg,--,--,0,0
Amino Acids
Other
Ingredients
"INGREDIENTS: POTATOES, WATER, SALT AND CALCIUM CHLORIDE." Date available: 06/24/2017 Date last updated by company: 06/24/2017
