Source: USDA Branded Food Products Database Release December 2017 Software v.3.8.6.4 2017-10-02
Report Run at: December 18, 2017 01:00 EST
"Nutrient data for: 45213711, SLICED PEPPERONI, UPC: 031506337130"
Food Group:  Branded Food Products Database
Common Name:

Nutrient,Unit,Data points,Std. Error,"1 ONZ = 28.0g",1Value per 100 g,
Proximates
"Energy",kcal,--,--,130,464
"Protein",g,--,--,6.00,21.43
"Total lipid (fat)",g,--,--,11.00,39.29
"Carbohydrate, by difference",g,--,--,1.00,3.57
"Fiber, total dietary",g,--,--,0.0,0.0
"Sugars, total",g,--,--,1.00,3.57
Minerals
"Calcium, Ca",mg,--,--,0,0
"Iron, Fe",mg,--,--,0.71,2.53
"Sodium, Na",mg,--,--,550,1964
Vitamins
"Vitamin C, total ascorbic acid",mg,--,--,0.0,0.0
"Vitamin A, IU",IU,--,--,0,0
Lipids
"Fatty acids, total saturated",g,--,--,4.001,14.290
"Fatty acids, total trans",g,--,--,0.000,0.000
"Cholesterol",mg,--,--,15,54
Amino Acids
Other
Ingredients
"PORK, SALT, CONTAINS 2% OR LESS OF BEEF, DEXTROSE, GARLIC POWDER, LACTIC ACID STARTER CULTURE, PAPRIKA, SPICES, SODIUM NITRITE, BHA, BHT, CITRIC ACID." Date available: 07/14/2017 Date last updated by company: 07/14/2017
