Source: USDA Branded Food Products Database Release December 2017 Software v.3.8.6.4 2017-10-02
Report Run at: December 18, 2017 01:07 EST
"Nutrient data for: 45174606, SLICED SWISS CHEESE, UPC: 041268197422"
Food Group:  Branded Food Products Database
Common Name:

Nutrient,Unit,Data points,Std. Error,"1 SLICE = 20.0g",1Value per 100 g,
Proximates
"Energy",kcal,--,--,80,400
"Protein",g,--,--,5.00,25.00
"Total lipid (fat)",g,--,--,6.00,30.00
"Carbohydrate, by difference",g,--,--,1.00,5.00
"Fiber, total dietary",g,--,--,0.0,0.0
"Sugars, total",g,--,--,0.00,0.00
Minerals
"Calcium, Ca",mg,--,--,150,750
"Iron, Fe",mg,--,--,0.00,0.00
"Sodium, Na",mg,--,--,40,200
Vitamins
"Vitamin C, total ascorbic acid",mg,--,--,0.0,0.0
"Vitamin A, IU",IU,--,--,500,2500
Lipids
"Fatty acids, total saturated",g,--,--,3.500,17.500
"Fatty acids, total trans",g,--,--,0.000,0.000
"Cholesterol",mg,--,--,20,100
Amino Acids
Other
Ingredients
"PASTEURIZED PART-SKIM MILK, CHEESE CULTURE, SALT AND ENZYMES." Date available: 07/14/2017 Date last updated by company: 07/14/2017
