Source: USDA Branded Food Products Database Release December 2017 Software v.3.8.6.4 2017-10-02
Report Run at: December 18, 2017 00:48 EST
"Nutrient data for: 45195894, SLICED CARROTS, UPC: 041268109586"
Food Group:  Branded Food Products Database
Common Name:

Nutrient,Unit,Data points,Std. Error,"0.5 cup = 120.0g",1Value per 100 g,
Proximates
"Energy",kcal,--,--,30,25
"Protein",g,--,--,1.00,0.83
"Total lipid (fat)",g,--,--,1.30,1.08
"Carbohydrate, by difference",g,--,--,6.00,5.00
"Fiber, total dietary",g,--,--,2.0,1.7
"Sugars, total",g,--,--,4.00,3.33
Minerals
"Calcium, Ca",mg,--,--,0,0
"Iron, Fe",mg,--,--,0.00,0.00
"Potassium, K",mg,--,--,90,75
"Sodium, Na",mg,--,--,250,208
Vitamins
"Vitamin C, total ascorbic acid",mg,--,--,0.0,0.0
"Vitamin A, IU",IU,--,--,8125,6771
Lipids
"Fatty acids, total saturated",g,--,--,0.000,0.000
"Fatty acids, total trans",g,--,--,0.000,0.000
"Cholesterol",mg,--,--,0,0
Amino Acids
Other
Ingredients
"CARROTS, WATER, SALT, CALCIUM CHLORIDE." Date available: 07/14/2017 Date last updated by company: 07/14/2017
