Source: USDA Branded Food Products Database Release December 2017 Software v.3.8.6.4 2017-10-02
Report Run at: December 18, 2017 00:53 EST
"Nutrient data for: 45063153, SLICED JALAPENO PEPPERS, UPC: 011110840073"
Food Group:  Branded Food Products Database
Common Name:

Nutrient,Unit,Data points,Std. Error,"1 ONZ = 30.0g",1Value per 100 g,
Proximates
"Energy",kcal,--,--,5,17
"Protein",g,--,--,0.00,0.00
"Total lipid (fat)",g,--,--,0.00,0.00
"Carbohydrate, by difference",g,--,--,1.00,3.33
"Fiber, total dietary",g,--,--,0.0,0.0
"Sugars, total",g,--,--,1.00,3.33
Minerals
"Sodium, Na",mg,--,--,310,1033
Vitamins
"Vitamin C, total ascorbic acid",mg,--,--,15.0,50.0
"Vitamin A, IU",IU,--,--,166,555
Lipids
"Cholesterol",mg,--,--,0,0
Amino Acids
Other
Ingredients
"JALAPENO PEPPERS, WATER, DISTILLED VINEGAR, SALT, CONTAINS 2% OR LESS OF: CALCIUM CHLORIDE, SODIUM METABISULFITE (PRESERVATIVE), TURMERIC." Date available: 07/14/2017 Date last updated by company: 07/14/2017
