Source: USDA Branded Food Products Database Release December 2017 Software v.3.8.6.4 2017-10-02
Report Run at: December 18, 2017 00:58 EST
"Nutrient data for: 45279761, SLICED PEACHES, UPC: 075450016086"
Food Group:  Branded Food Products Database
Common Name:

Nutrient,Unit,Data points,Std. Error,"0.75 cup = 140.0g",1Value per 100 g,
Proximates
"Energy",kcal,--,--,60,43
"Protein",g,--,--,0.99,0.71
"Total lipid (fat)",g,--,--,0.00,0.00
"Carbohydrate, by difference",g,--,--,13.01,9.29
"Fiber, total dietary",g,--,--,2.0,1.4
"Sugars, total",g,--,--,12.00,8.57
Minerals
"Calcium, Ca",mg,--,--,0,0
"Iron, Fe",mg,--,--,0.36,0.26
"Sodium, Na",mg,--,--,0,0
Vitamins
"Vitamin C, total ascorbic acid",mg,--,--,138.0,98.6
"Vitamin A, IU",IU,--,--,500,357
Lipids
"Fatty acids, total saturated",g,--,--,0.000,0.000
"Fatty acids, total trans",g,--,--,0.000,0.000
"Cholesterol",mg,--,--,0,0
Amino Acids
Other
Ingredients
"PEACHES, ASCORBIC ACID AND CITRIC ACID TO PROMOTE COLOR." Date available: 07/14/2017 Date last updated by company: 07/14/2017
