Source: USDA Branded Food Products Database Release December 2017 Software v.3.8.6.4 2017-10-02
Report Run at: December 18, 2017 01:19 EST
"Nutrient data for: 45285753, SMALL CURD COTTAGE CHEESE, UPC: 070322001191"
Food Group:  Branded Food Products Database
Common Name:

Nutrient,Unit,Data points,Std. Error,"0.5 cup = 113.0g",1Value per 100 g,
Proximates
"Energy",kcal,--,--,120,106
"Protein",g,--,--,12.99,11.50
"Total lipid (fat)",g,--,--,4.99,4.42
"Carbohydrate, by difference",g,--,--,4.00,3.54
"Fiber, total dietary",g,--,--,0.0,0.0
"Sugars, total",g,--,--,2.99,2.65
Minerals
"Calcium, Ca",mg,--,--,90,80
"Iron, Fe",mg,--,--,0.00,0.00
"Potassium, K",mg,--,--,440,389
"Sodium, Na",mg,--,--,299,265
Vitamins
"Vitamin D",IU,--,--,0,0
Lipids
"Fatty acids, total saturated",g,--,--,2.994,2.650
"Fatty acids, total trans",g,--,--,0.000,0.000
"Cholesterol",mg,--,--,25,22
Amino Acids
Other
Ingredients
"CULTURED NONFAT MILK, MILK, CREAM, CONTAINS LESS THAN 2% OF NONFAT MILK, SEA SALT, POTASSIUM CHLORIDE, GUAR GUM, MONO & DIGLYCERIDES, XANTHAN GUM, CAROB BEAN GUM, POTASSIUM SORBATE AND CARBON DIOXIDE (PRESERVATIVES), NATURAL FLAVOR, PHOSPHORIC ACID, ENZYMES." Date available: 10/13/2017 Date last updated by company: 10/13/2017
