Source: USDA Branded Food Products Database Release December 2017 Software v.3.8.6.4 2017-10-02
Report Run at: December 18, 2017 01:19 EST
"Nutrient data for: 45038293, SMALL CURD COTTAGE CHEESE, UPC: 071600024512"
Food Group:  Branded Food Products Database
Common Name:

Nutrient,Unit,Data points,Std. Error,"0.5 cup = 113.0g",1Value per 100 g,
Proximates
"Energy",kcal,--,--,120,106
"Protein",g,--,--,12.00,10.62
"Total lipid (fat)",g,--,--,4.99,4.42
"Carbohydrate, by difference",g,--,--,4.99,4.42
"Fiber, total dietary",g,--,--,0.0,0.0
"Sugars, total",g,--,--,4.00,3.54
Minerals
"Calcium, Ca",mg,--,--,80,71
"Iron, Fe",mg,--,--,0.00,0.00
"Sodium, Na",mg,--,--,480,425
Vitamins
"Vitamin C, total ascorbic acid",mg,--,--,1.1,1.0
"Vitamin A, IU",IU,--,--,194,172
Lipids
"Fatty acids, total saturated",g,--,--,3.503,3.100
"Fatty acids, total trans",g,--,--,0.000,0.000
"Cholesterol",mg,--,--,25,22
Amino Acids
Other
Ingredients
"CULTURED NONFAT MILK, MILK, CREAM, CONTAINS LESS THAN 2% OF THE FOLLOWING: SALT, WHEY, MALTODEXTRIN, GUAR GUM, CITRIC ACID, CARRAGEENAN, MONO AND DIGLYCERIDES, LOCUST BEAN GUM, PROPYLENE GLYCOL, LACTIC ACID, PROPIONIC ACID, ACETIC ACID, NATURAL AND ARTIFICIAL FLAVORINGS, DEXTROSE, POTASSIUM SORBATE (PRESERVATIVE) AND MICROBIAL ENZYMES." Date available: 06/24/2017 Date last updated by company: 06/24/2017
