Source: USDA Branded Food Products Database Release December 2017 Software v.3.8.6.4 2017-10-02
Report Run at: December 18, 2017 01:18 EST
"Nutrient data for: 45256558, SMALL BATCH HANDCRAFTED BEEF JERKY, UPC: 851015004329"
Food Group:  Branded Food Products Database
Common Name:

Nutrient,Unit,Data points,Std. Error,"1 ONZ = 28.0g",1Value per 100 g,
Proximates
"Energy",kcal,--,--,90,321
"Protein",g,--,--,11.00,39.29
"Total lipid (fat)",g,--,--,1.00,3.57
"Carbohydrate, by difference",g,--,--,8.00,28.57
"Fiber, total dietary",g,--,--,0.0,0.0
"Sugars, total",g,--,--,8.00,28.57
Minerals
"Calcium, Ca",mg,--,--,0,0
"Iron, Fe",mg,--,--,3.21,11.48
"Sodium, Na",mg,--,--,640,2286
Vitamins
"Vitamin C, total ascorbic acid",mg,--,--,0.0,0.0
"Vitamin A, IU",IU,--,--,0,0
Lipids
"Fatty acids, total saturated",g,--,--,0.000,0.000
"Fatty acids, total trans",g,--,--,0.000,0.000
"Cholesterol",mg,--,--,10,36
Amino Acids
Other
Ingredients
"GRASSFED BEEF, EVAPORATED CANE SYRUP, GLUTEN FREE SOY SAUCE (WATER, SOYBEANS, SALT), SEA SALT, CELERY POWDER, SPICES, ONION POWDER, +EXCEPT THOSE OCCURRING NATURALLY IN SEA SALT AND CELERY POWDER EXCEPT THAT WHICH OCCURS NATURALLY IN SOY SAUCE." Date available: 07/14/2017 Date last updated by company: 07/14/2017
