Source: USDA Branded Food Products Database Release December 2017 Software v.3.8.6.4 2017-10-02
Report Run at: December 18, 2017 01:18 EST
"Nutrient data for: 45055303, SMALL CURD COTTAGE CHEESE, UPC: 072036708809"
Food Group:  Branded Food Products Database
Common Name:

Nutrient,Unit,Data points,Std. Error,"0.5 cup = 114.0g",1Value per 100 g,
Proximates
"Energy",kcal,--,--,120,105
"Protein",g,--,--,14.00,12.28
"Total lipid (fat)",g,--,--,5.00,4.39
"Carbohydrate, by difference",g,--,--,5.00,4.39
"Fiber, total dietary",g,--,--,0.0,0.0
"Sugars, total",g,--,--,3.00,2.63
Minerals
"Calcium, Ca",mg,--,--,80,70
"Iron, Fe",mg,--,--,0.00,0.00
"Sodium, Na",mg,--,--,450,395
Vitamins
"Vitamin C, total ascorbic acid",mg,--,--,0.0,0.0
"Vitamin A, IU",IU,--,--,290,254
Lipids
"Fatty acids, total saturated",g,--,--,2.998,2.630
"Fatty acids, total trans",g,--,--,0.000,0.000
"Cholesterol",mg,--,--,30,26
Amino Acids
Other
Ingredients
"CULTURED PASTEURIZED SKIM MILK, WHEY PROTEIN CONCENTRATE, CREAM, WHEY, SALT, MODIFIED CORN STARCH, POTASSIUM SORBATE AND CARBON DIOXIDE (TO PRESERVE FRESHNESS), GUAR GUM, CARRAGEENAN, LOCUST BEAN GUM AND ENZYME." Date available: 06/24/2017 Date last updated by company: 06/24/2017
