Source: USDA Branded Food Products Database Release December 2017 Software v.3.8.6.4 2017-10-02
Report Run at: December 18, 2017 01:29 EST
"Nutrient data for: 45091925, SMART SENSE, DRIED FRUIT BERRY MEDLEY, UPC: 883967381210"
Food Group:  Branded Food Products Database
Common Name:

Nutrient,Unit,Data points,Std. Error,"0.25 cup = 40.0g",1Value per 100 g,
Proximates
"Energy",kcal,--,--,140,350
"Protein",g,--,--,0.00,0.00
"Total lipid (fat)",g,--,--,0.00,0.00
"Carbohydrate, by difference",g,--,--,34.00,85.00
"Fiber, total dietary",g,--,--,3.0,7.5
"Sugars, total",g,--,--,23.00,57.50
Minerals
"Calcium, Ca",mg,--,--,20,50
"Iron, Fe",mg,--,--,0.00,0.00
"Potassium, K",mg,--,--,35,88
"Sodium, Na",mg,--,--,0,0
Vitamins
"Vitamin C, total ascorbic acid",mg,--,--,0.0,0.0
"Vitamin A, IU",IU,--,--,200,500
Lipids
"Fatty acids, total saturated",g,--,--,0.000,0.000
"Fatty acids, total trans",g,--,--,0.000,0.000
"Cholesterol",mg,--,--,0,0
Amino Acids
Other
Ingredients
"DRIED CRANBERRIES (CRANBERRIES,SUGAR,CITRIC ACID,SUNFLOWER OIL,ELDERBERRY JUICE CONCENTRATE (COLOR),DRIED CHERRIES (CHERRIES,SUGAR SUNFLOWER OIL),DRIED BLUEBERRIES(BLUEBERRIES,SUGAR,SUNFLOWER OIL)," Date available: 06/25/2017 Date last updated by company: 06/25/2017
