Source: USDA Branded Food Products Database Release December 2017 Software v.3.8.6.4 2017-10-02
Report Run at: December 18, 2017 01:24 EST
"Nutrient data for: 45234527, SMART BALANCE, OMEGA-3S FAT FREE MILK, UPC: 033776130138"
Food Group:  Branded Food Products Database
Common Name:

Nutrient,Unit,Data points,Std. Error,"1 cup = 240.0g",1Value per 100 g,
Proximates
"Energy",kcal,--,--,101,42
"Protein",g,--,--,10.01,4.17
"Total lipid (fat)",g,--,--,0.00,0.00
"Carbohydrate, by difference",g,--,--,13.99,5.83
"Sugars, total",g,--,--,13.99,5.83
Minerals
"Calcium, Ca",mg,--,--,350,146
"Potassium, K",mg,--,--,379,158
"Sodium, Na",mg,--,--,120,50
Vitamins
"Vitamin A, IU",IU,--,--,499,208
"Vitamin D",IU,--,--,101,42
Lipids
"Fatty acids, total saturated",g,--,--,0.000,0.000
"Fatty acids, total monounsaturated",g,--,--,0.000,0.000
"Fatty acids, total polyunsaturated",g,--,--,0.000,0.000
"Fatty acids, total trans",g,--,--,0.000,0.000
"Cholesterol",mg,--,--,5,2
Amino Acids
Other
Ingredients
"GRADE A FAT FREE MILK, NONFAT MILK SOLIDS, OMEGA-3 OIL BLEND** (PURIFIED FISH OIL AND BUTTER OIL - TO HELP MAINTAIN FRESHNESS)3, VITAMIN A PALMITATE, VITAMIN D3." Date available: 09/23/2016 Date last updated by company: 09/23/2016
