Source: USDA Branded Food Products Database Release December 2017 Software v.3.8.6.4 2017-10-02
Report Run at: December 18, 2017 01:32 EST
"Nutrient data for: 45159078, SMART SENSE, SODA, ORANGE, UPC: 883967303670"
Food Group:  Branded Food Products Database
Common Name:

Nutrient,Unit,Data points,Std. Error,"1 CAN = 355.0g",1Value per 100 g,
Proximates
"Energy",kcal,--,--,160,45
"Protein",g,--,--,0.00,0.00
"Total lipid (fat)",g,--,--,0.00,0.00
"Carbohydrate, by difference",g,--,--,42.99,12.11
"Sugars, total",g,--,--,42.99,12.11
Minerals
"Sodium, Na",mg,--,--,46,13
Vitamins
Lipids
Amino Acids
Other
Ingredients
"CARBONATED WATER, HIGH FRUCTOSE CORN SYRUP, NATURAL FLAVOR, CITRIC ACID, SODIUM BENZOATE (PRESERVATIVE), GUM ACACIA, ESTER GUM, YELLOW 6, RED 40." Date available: 07/14/2017 Date last updated by company: 07/14/2017
