Source: USDA Branded Food Products Database Release December 2017 Software v.3.8.6.4 2017-10-02
Report Run at: December 18, 2017 01:23 EST
"Nutrient data for: 45167440, SMART BALANCE, BUTTERY SPREAD, UPC: 033776011543"
Food Group:  Branded Food Products Database
Common Name:

Nutrient,Unit,Data points,Std. Error,"1 Tbsp = 14.0g",1Value per 100 g,
Proximates
"Energy",kcal,--,--,50,357
"Protein",g,--,--,0.00,0.00
"Total lipid (fat)",g,--,--,5.00,35.71
"Carbohydrate, by difference",g,--,--,0.00,0.00
Minerals
"Sodium, Na",mg,--,--,80,571
Vitamins
"Vitamin A, IU",IU,--,--,1690,12075
"Vitamin D",IU,--,--,80,571
Lipids
"Fatty acids, total saturated",g,--,--,1.499,10.710
"Fatty acids, total monounsaturated",g,--,--,2.500,17.860
"Fatty acids, total polyunsaturated",g,--,--,1.000,7.140
"Fatty acids, total trans",g,--,--,0.000,0.000
"Cholesterol",mg,--,--,0,0
Amino Acids
Other
Ingredients
"WATER, OIL BLEND (CANOLA, PALM, FLAXSEED, FISH, SOYBEAN, OLIVE OILS), LESS THAN 2% OF SALT, NATURAL AND ARTIFICIAL FLAVORS, SUNFLOWER LECITHIN, VITAMIN A PALMITATE, BETA-CAROTENE COLOR, VITAMIN D) VEGETABLE MONOGLYCERIDES AND SORBITAN ESTER OF VEGETABLE FATTY ACIDS (EMULSIFIER), POTASSIUM SORBATE, LACTIC ACID, TBHQ AND CALCIUM DISODIUM EDTA (TO PRESERVE FRESHNESS)." Date available: 07/14/2017 Date last updated by company: 07/14/2017
