Source: USDA Branded Food Products Database Release December 2017 Software v.3.8.6.4 2017-10-02
Report Run at: December 18, 2017 01:31 EST
"Nutrient data for: 45160027, SMART SENSE, OLD FASHIONED PRETZEL STICKS, UPC: 883967391615"
Food Group:  Branded Food Products Database
Common Name:

Nutrient,Unit,Data points,Std. Error,"7.0 PRETZEIS = 29.0g",1Value per 100 g,
Proximates
"Energy",kcal,--,--,110,379
"Protein",g,--,--,3.00,10.34
"Total lipid (fat)",g,--,--,1.00,3.45
"Carbohydrate, by difference",g,--,--,23.00,79.31
"Fiber, total dietary",g,--,--,1.0,3.4
"Sugars, total",g,--,--,1.00,3.45
Minerals
"Calcium, Ca",mg,--,--,0,0
"Iron, Fe",mg,--,--,1.86,6.42
"Sodium, Na",mg,--,--,310,1069
Vitamins
"Vitamin C, total ascorbic acid",mg,--,--,0.0,0.0
"Vitamin A, IU",IU,--,--,0,0
Lipids
"Fatty acids, total saturated",g,--,--,0.000,0.000
"Fatty acids, total monounsaturated",g,--,--,0.000,0.000
"Fatty acids, total polyunsaturated",g,--,--,0.499,1.720
"Fatty acids, total trans",g,--,--,0.000,0.000
"Cholesterol",mg,--,--,0,0
Amino Acids
Other
Ingredients
"ENRICHED WHEAT FLOUR [WHEAT FLOUR, NIACIN, REDUCED IRON, THIAMIN MONONITRATE, RIBOFLAVIN, FOLIC ACID], SALT, LESS THAN 2% OF: CANOLA OIL AND/OR SOYBEAN OIL, CORN SYRUP, BARLEY MALT EXTRACT, LEAVENING (CONTAINS ONE OR MORE OF YEAST, SODIUM BICARBONATE, AMMONIUM BICARBONATE)." Date available: 07/14/2017 Date last updated by company: 07/14/2017
