Source: USDA Branded Food Products Database Release December 2017 Software v.3.8.6.4 2017-10-02
Report Run at: December 18, 2017 01:24 EST
"Nutrient data for: 45021096, SMART BALANCE, NON-STICK COOKING SPRAY, BUTTER, UPC: 033776045203"
Food Group:  Branded Food Products Database
Common Name:

Nutrient,Unit,Data points,Std. Error,"0.25 SEC SPRAY = 0.25g",1Value per 100 g,
Proximates
"Energy",kcal,--,--,0,0
"Protein",g,--,--,0.00,0.00
"Total lipid (fat)",g,--,--,0.00,0.00
"Carbohydrate, by difference",g,--,--,0.00,0.00
Minerals
"Sodium, Na",mg,--,--,0,0
Vitamins
Lipids
"Fatty acids, total saturated",g,--,--,0.000,0.000
"Fatty acids, total monounsaturated",g,--,--,0.000,0.000
"Fatty acids, total polyunsaturated",g,--,--,0.000,0.000
"Fatty acids, total trans",g,--,--,0.000,0.000
Amino Acids
Other
Ingredients
"VEGETABLE OIL BLEND* (CANOLA, SOY AND OLIVES OILS), SOY LECITHIN, NATURAL FLAVOR, GRAIN ALCOHOL (PRESERVATIVE), DIMETHYLPOLYSILOXANE, BETA CAROTENE (COLOR) AMD PROPELLANT." Date available: 07/14/2017 Date last updated by company: 07/14/2017
