Source: USDA Branded Food Products Database Release December 2017 Software v.3.8.6.4 2017-10-02
Report Run at: December 18, 2017 01:35 EST
"Nutrient data for: 45255312, SMOCKED SCOTTISH STYLE SALMON, UPC: 077890370810"
Food Group:  Branded Food Products Database
Common Name:

Nutrient,Unit,Data points,Std. Error,"2.0 ONZ = 56.0g",1Value per 100 g,
Proximates
"Energy",kcal,--,--,70,125
"Protein",g,--,--,13.00,23.21
"Total lipid (fat)",g,--,--,2.50,4.46
"Carbohydrate, by difference",g,--,--,0.00,0.00
"Fiber, total dietary",g,--,--,0.0,0.0
"Sugars, total",g,--,--,0.00,0.00
Minerals
"Calcium, Ca",mg,--,--,20,36
"Iron, Fe",mg,--,--,0.55,0.98
"Sodium, Na",mg,--,--,600,1071
Vitamins
"Vitamin C, total ascorbic acid",mg,--,--,0.0,0.0
"Vitamin A, IU",IU,--,--,0,0
Lipids
"Fatty acids, total saturated",g,--,--,0.498,0.890
"Fatty acids, total trans",g,--,--,0.000,0.000
"Cholesterol",mg,--,--,30000,53571
Amino Acids
Other
Ingredients
"ATLANTIC SALMON, SALT, SUGAR, NATURAL GREEN TEA EXTRACT, CELERY EXTRACT, NISIN, NATURAL HARDWOOD SMOKE." Date available: 10/13/2017 Date last updated by company: 10/13/2017
