Source: USDA Branded Food Products Database Release December 2017 Software v.3.8.6.4 2017-10-02
Report Run at: December 18, 2017 01:48 EST
"Nutrient data for: 45231487, SMOKED SAUSAGE, UPC: 075094003145"
Food Group:  Branded Food Products Database
Common Name:

Nutrient,Unit,Data points,Std. Error,"1 LINK = 74.0g",1Value per 100 g,
Proximates
"Energy",kcal,--,--,280,378
"Protein",g,--,--,9.00,12.16
"Total lipid (fat)",g,--,--,25.00,33.78
"Carbohydrate, by difference",g,--,--,3.00,4.05
"Sugars, total",g,--,--,0.00,0.00
Minerals
"Calcium, Ca",mg,--,--,40,54
"Iron, Fe",mg,--,--,0.00,0.00
"Sodium, Na",mg,--,--,510,689
Vitamins
"Vitamin C, total ascorbic acid",mg,--,--,0.0,0.0
"Vitamin A, IU",IU,--,--,0,0
Lipids
"Fatty acids, total saturated",g,--,--,8.998,12.160
"Fatty acids, total trans",g,--,--,0.000,0.000
"Cholesterol",mg,--,--,45,61
Amino Acids
Other
Ingredients
"PORK, WATER, PEPPER JACK CHEESE (CULTURED MILK, WATER, SKIM MILK, WHEY, SODIUM PHOSPHATES, JALAPENO PEPPERS, CREAM, SALT, SORBIC ACID (A PRESERVATIVE), NATURAL FLAVORING, ENZYMES, POWDERED CELLULOSE (TO PREVENT CAKING), POTASSIUM SORBATE AND NATAMYCIN (PRESERVATIVES)], CONTAINS LESS THAN 2% OF THE FOLLOWING: SALT, POTASSIUM LACTATE, CORN SYRUP, SODIUM PHOSPHATES, NATURAL SPICES, SODIUM DIACETATE, SODIUM ERYTHORBATE, SPICE EXTRACTIVES, SODIUM NITRITE, NATURAL CASING (PORK AND/OR LAMB)." Date available: 07/14/2017 Date last updated by company: 07/14/2017
