Source: USDA Branded Food Products Database Release December 2017 Software v.3.8.6.4 2017-10-02
Report Run at: December 18, 2017 01:42 EST
"Nutrient data for: 45216963, SMOKED KIELBASA SAUSAGE, UPC: 041130592492"
Food Group:  Branded Food Products Database
Common Name:

Nutrient,Unit,Data points,Std. Error,"2.0 ONZ = 56.0g",1Value per 100 g,
Proximates
"Energy",kcal,--,--,150,268
"Protein",g,--,--,10.00,17.86
"Total lipid (fat)",g,--,--,10.00,17.86
"Carbohydrate, by difference",g,--,--,3.00,5.36
"Sugars, total",g,--,--,1.00,1.79
Minerals
"Iron, Fe",mg,--,--,1.06,1.89
"Sodium, Na",mg,--,--,690,1232
Vitamins
"Vitamin C, total ascorbic acid",mg,--,--,17.7,31.6
Lipids
"Fatty acids, total saturated",g,--,--,3.500,6.250
"Fatty acids, total trans",g,--,--,0.000,0.000
"Cholesterol",mg,--,--,40,71
Amino Acids
Other
Ingredients
"PORK, BEEF, WATER, SEASONING (SALT, HYDROLYZED SOY FLOUR, SPICES (INCLUDE GROUND MUSTARD, DEXTROSE, CORN SYRUP SOLIDS, WHEY PROTEIN, MALTODEXTRIN, MONOSODIUM GLUTAMATE, GARLIC POWDER, SODIUM ACETATE, SODIUM DIACETATE, ASCORBIC ACID, SODIUM CITRATE), CURE (SALT, SODIUM NITRITE)." Date available: 10/13/2017 Date last updated by company: 10/13/2017
