Source: USDA Branded Food Products Database Release December 2017 Software v.3.8.6.4 2017-10-02
Report Run at: December 18, 2017 01:36 EST
"Nutrient data for: 45220696, SMOKED AND SEASONED ST. LOUIS-STYLE PORK RIBS, UPC: 681131065863"
Food Group:  Branded Food Products Database
Common Name:

Nutrient,Unit,Data points,Std. Error,"3.0 RIBS | ABOUT = 140.0g",1Value per 100 g,
Proximates
"Energy",kcal,--,--,360,257
"Protein",g,--,--,21.99,15.71
"Total lipid (fat)",g,--,--,24.00,17.14
"Carbohydrate, by difference",g,--,--,12.00,8.57
"Fiber, total dietary",g,--,--,0.0,0.0
"Sugars, total",g,--,--,12.00,8.57
Minerals
"Calcium, Ca",mg,--,--,41,29
"Iron, Fe",mg,--,--,0.00,0.00
"Sodium, Na",mg,--,--,910,650
Vitamins
"Vitamin C, total ascorbic acid",mg,--,--,0.0,0.0
"Vitamin A, IU",IU,--,--,300,214
Lipids
"Fatty acids, total saturated",g,--,--,9.002,6.430
"Fatty acids, total trans",g,--,--,0.000,0.000
"Cholesterol",mg,--,--,95,68
Amino Acids
Other
Ingredients
"PORK RIBS: PORK RIBS, BROWN SUGAR, SALT, SUGAR, SPICES, DEHYDRATED GARLIC, LACTOSE, HYDROLYZED SOY PROTEIN, SOYBEAN OIL, GARLIC POWDER, MALTODEXTRIN, DEHYDRATED ONION, DISODIUM INOSINATE, DISODIUM GUANYLATE, NATURAL FLAVORS, NATURAL SMOKE FLAVOR, CITRIC ACID, CORN SYRUP SOLIDS, MAPLE SYRUP, SPICE EXTRACTIVES, MOLASSES, VANILLA EXTRACT, LEMON JUICE SOLIDS, CONTAINS 2% OR LESS OF SILICON DIOXIDE AND CALCIUM SILICATE (ADDED TO PREVENT CAKING). GLAZE: HIGH FRUCTOSE CORN SYRUP, WATER, TOMATO PASTE, VINEGAR, BROWN SUGAR, MALT VINEGAR, MOLASSES, SALT, SUGAR, PINEAPPLE JUICE CONCENTRATE, HONEY, SOY SAUCE (WATER, WHEAT, SOYBEANS, SALT), DEXTROSE, MALTED BARLEY FLOUR, MODIFIED CORNSTARCH, SOYBEAN OIL, RAISIN JUICE CONCENTRATE, SPICES, HYDROLYZED SOY PROTEIN, TAMARIND EXTRACT, POTASSIUM SORBATE AND SODIUM BENZOATE (PRESERVATIVE), ONION POWDER, GARLIC POWDER, MUSTARD BRAN, CITRIC ACID, MALTODEXTRIN, MUSTARD, NATURAL SMOKE FLAVOR, DEHYDRATED ONION, CARAMEL COLOR, COFFEE, NATURAL AND ARTIFICIAL FLAVORS, TUMERIC." Date available: 07/14/2017 Date last updated by company: 07/14/2017
