Source: USDA Branded Food Products Database Release December 2017 Software v.3.8.6.4 2017-10-02
Report Run at: December 18, 2017 01:52 EST
"Nutrient data for: 45264926, SMOKED WILD ALASKAN SALMON SPREAD, UPC: 023384146072"
Food Group:  Branded Food Products Database
Common Name:

Nutrient,Unit,Data points,Std. Error,"4.0 Tbsp = 56.0g",1Value per 100 g,
Proximates
"Energy",kcal,--,--,200,357
"Protein",g,--,--,9.00,16.07
"Total lipid (fat)",g,--,--,19.00,33.93
"Carbohydrate, by difference",g,--,--,1.00,1.79
"Fiber, total dietary",g,--,--,0.0,0.0
"Sugars, total",g,--,--,1.00,1.79
Minerals
"Calcium, Ca",mg,--,--,0,0
"Iron, Fe",mg,--,--,0.00,0.00
"Potassium, K",mg,--,--,59,106
"Sodium, Na",mg,--,--,280,500
Vitamins
"Vitamin D",IU,--,--,100,179
Lipids
"Fatty acids, total saturated",g,--,--,3.002,5.360
"Fatty acids, total trans",g,--,--,0.000,0.000
"Cholesterol",mg,--,--,20,36
Amino Acids
Other
Ingredients
"SMOKED WILD ALASKAN SALMON (ALASKAN SALMON, SALT AND NATURAL HARDWOOD SMOKE), MAYONNAISE [SOYBEAN OIL AND/OR CANOLA OIL (OR COTTONSEED OIL (DURING PASSOVER)), EGG YOLKS, VINEGAR, WATER, SALT, SUGAR, EDTA ADDED AS A PRESERVATIVE], LESS THAN 1/10 OF 1% OF POTASSIUM SORBATE AS A PRESERVATIVE, AND NISIN." Date available: 07/14/2017 Date last updated by company: 07/14/2017
