Source: USDA Branded Food Products Database Release December 2017 Software v.3.8.6.4 2017-10-02
Report Run at: December 18, 2017 01:40 EST
"Nutrient data for: 45195234, SMOKED HAM BREAKFAST BURRITO, UPC: 027086184301"
Food Group:  Branded Food Products Database
Common Name:

Nutrient,Unit,Data points,Std. Error,"1 BURRITO = 198.0g",1Value per 100 g,
Proximates
"Energy",kcal,--,--,410,207
"Protein",g,--,--,20.00,10.10
"Total lipid (fat)",g,--,--,15.01,7.58
"Carbohydrate, by difference",g,--,--,47.01,23.74
"Fiber, total dietary",g,--,--,2.0,1.0
"Sugars, total",g,--,--,0.00,0.00
Minerals
"Calcium, Ca",mg,--,--,101,51
"Iron, Fe",mg,--,--,2.55,1.29
"Sodium, Na",mg,--,--,1079,545
Vitamins
"Vitamin C, total ascorbic acid",mg,--,--,2.6,1.3
"Vitamin A, IU",IU,--,--,283,143
Lipids
"Fatty acids, total saturated",g,--,--,4.495,2.270
"Fatty acids, total trans",g,--,--,0.000,0.000
"Cholesterol",mg,--,--,206,104
Amino Acids
Other
Ingredients
"FILLING: WHOLE EGGS, SMOKED HAM & WATER PRODUCT 30% OF WEIGHT IS ADDED INGREDIENTS (CURED WITH WATER, SALT, DEXTROSE, MODIFIED FOOD STARCH, SODIUM LACTATE, SODIUM PHOSPHATES, SODIUM DIACETATE, SODIUM ERYTHORBATE, SODIUM NITRITE), THREE CHEESES (PASTEURIZED PROCESS AMERICAN CHEESE [AMERICAN CHEESE {MILK, CHEESE CULTURE, SALT, ENZYMES}, WATER, MILKFAT, SODIUM CITRATE, SALT, SODIUM PHOSPHATES, COLOR {ANNATTO AND APOCAROTENAL}], CHEDDAR CHEESE [PASTEURIZED MILK, CHEESE CULTURE, SALT ENZYMES AND ANNATTO], MONTEREY JACK CHEESE [PASTEURIZED MILK, CHEESE CULTURE, SALT, ENZYMES]), ONIONS, GREEN CHILES, BELL PEPPERS (BELL PEPPERS, [BELL PEPPERS, WATER, CITRIC ACID]), CONTAINS 2% OR LESS OF: MODIFIED FOOD STARCH, WATER, SOYBEAN OIL, VINEGAR, SALT, FLAVORINGS, CHILE PEPPERS (RED CHILE PEPPERS, CITRIC ACID), CITRIC ACID. TORTILLA: BLEACHED WHEAT FLOUR ENRICHED (NIACIN, REDUCED IRON, THIAMINE MONONITRATE, RIBOFLAVIN & FOLIC ACID), WATER, SOYBEAN OIL, SALT, BAKING POWDER (CORN STARCH, SODIUM BICARBONATE, SODIUM ALUMINUM SULFATE, MONOCALCIUM PHOSPHATE), EMULSIFIER (GUAR GUM, MONO-DIGLYCERIDES, RICE FLOUR), GUAR GUM, SODIUM METABISULFITE." Date available: 07/14/2017 Date last updated by company: 07/14/2017
