Source: USDA Branded Food Products Database Release December 2017 Software v.3.8.6.4 2017-10-02
Report Run at: December 18, 2017 01:50 EST
"Nutrient data for: 45287233, SMOKED SAUSAGE WITH REAL CHEDDAR CHEESE, UPC: 011291022367"
Food Group:  Branded Food Products Database
Common Name:

Nutrient,Unit,Data points,Std. Error,"1 LINK = 91.0g",1Value per 100 g,
Proximates
"Energy",kcal,--,--,290,319
"Protein",g,--,--,11.00,12.09
"Total lipid (fat)",g,--,--,25.00,27.47
"Carbohydrate, by difference",g,--,--,6.00,6.59
"Fiber, total dietary",g,--,--,0.0,0.0
"Sugars, total",g,--,--,3.00,3.30
Minerals
"Calcium, Ca",mg,--,--,0,0
"Iron, Fe",mg,--,--,0.44,0.48
"Sodium, Na",mg,--,--,810,890
Vitamins
"Vitamin C, total ascorbic acid",mg,--,--,0.0,0.0
"Vitamin A, IU",IU,--,--,0,0
Lipids
"Fatty acids, total saturated",g,--,--,9.000,9.890
"Fatty acids, total trans",g,--,--,0.000,0.000
"Cholesterol",mg,--,--,55,60
Amino Acids
Other
Ingredients
"PORK, WATER, CHEDDAR CHEESE (CULTURED PASTEURIZED MILK, SALT, ENZYMES) MILK FAT, SODIUM PHOSPHATE, SALT, POTASSIUM SORBATE, ANNATTO FOR COLORING, POTATO STARCH & POWDERED CELLULOSE, (USED AS ANTI-CAKING AGENT) NATAMYACIN (USED AS MOLD INHIBITOR), BEEF, DEXTROSE, SALT, MUSTARD, CORN SYRUP SOLIDS, CONTAINS LESS THAN 2% OF SODIUM LACTATE, SODIUM PHOSPHATE, FLAVORINGS (SPICES & SPICE EXTRACTIVES), PAPRIKA, GARLIC POWDER, SODIUM DIACETATE, ONION POWDER, SODIUM ERYTHORBATE, SODIUM NITRITE." Date available: 07/14/2017 Date last updated by company: 07/14/2017
