Source: USDA Branded Food Products Database Release December 2017 Software v.3.8.6.4 2017-10-02
Report Run at: December 18, 2017 01:52 EST
"Nutrient data for: 45324095, SMOKED UNCURED ANGUS BEEF FRANKS, UPC: 044700063774"
Food Group:  Branded Food Products Database
Common Name:

Nutrient,Unit,Data points,Std. Error,"1 LINK = 50.0g",1Value per 100 g,
Proximates
"Energy",kcal,--,--,170,340
"Protein",g,--,--,6.00,12.00
"Total lipid (fat)",g,--,--,15.00,30.00
"Carbohydrate, by difference",g,--,--,2.00,4.00
"Sugars, total",g,--,--,1.00,2.00
Minerals
"Iron, Fe",mg,--,--,0.79,1.58
"Sodium, Na",mg,--,--,370,740
Vitamins
"Vitamin C, total ascorbic acid",mg,--,--,6.6,13.2
Lipids
"Fatty acids, total saturated",g,--,--,6.000,12.000
"Fatty acids, total trans",g,--,--,1.000,2.000
"Cholesterol",mg,--,--,35,70
Amino Acids
Other
Ingredients
"ANGUS BEEF, WATER, CULTURED DEXTROSE*, CONTAINS LESS THAN 2% OF DEXTROSE, SALT, CULTURED CELERY JUICE*, VINEGAR*, SEA SALT, CHERRY POWDER, FLAVOR, EXTRACTIVES OF PAPRIKA." Date available: 09/25/2017 Date last updated by company: 09/25/2017
