Source: USDA Branded Food Products Database Release December 2017 Software v.3.8.6.4 2017-10-02
Report Run at: December 18, 2017 01:53 EST
"Nutrient data for: 45105104, SMOKE ROASTED SALMON, UPC: 082674039043"
Food Group:  Branded Food Products Database
Common Name:

Nutrient,Unit,Data points,Std. Error,"2.0 ONZ = 57.0g",1Value per 100 g,
Proximates
"Energy",kcal,--,--,100,175
"Protein",g,--,--,11.00,19.30
"Total lipid (fat)",g,--,--,6.00,10.53
"Carbohydrate, by difference",g,--,--,0.00,0.00
"Fiber, total dietary",g,--,--,0.0,0.0
"Sugars, total",g,--,--,0.00,0.00
Minerals
"Calcium, Ca",mg,--,--,0,0
"Iron, Fe",mg,--,--,0.54,0.94
"Sodium, Na",mg,--,--,590,1035
Vitamins
"Vitamin C, total ascorbic acid",mg,--,--,3.6,6.3
"Vitamin A, IU",IU,--,--,0,0
Lipids
"Fatty acids, total saturated",g,--,--,0.998,1.750
"Fatty acids, total trans",g,--,--,0.000,0.000
"Cholesterol",mg,--,--,35,61
Amino Acids
Other
Ingredients
"ATLANTIC SALMON, SALT, EVAPORATED CANE JUICE, PEPPER & GARLIC, FRUITWOOD & HARDWOOD SMOKE." Date available: 06/25/2017 Date last updated by company: 06/25/2017
