Source: USDA Branded Food Products Database Release December 2017 Software v.3.8.6.4 2017-10-02
Report Run at: December 18, 2017 01:53 EST
"Nutrient data for: 45216980, SMOKEHOUSE FRESH MILD ITALIAN SAUSAGE, UPC: 04130592362"
Food Group:  Branded Food Products Database
Common Name:

Nutrient,Unit,Data points,Std. Error,"1 LINK = 112.0g",1Value per 100 g,
Proximates
"Energy",kcal,--,--,260,232
"Protein",g,--,--,19.00,16.96
"Total lipid (fat)",g,--,--,20.00,17.86
"Carbohydrate, by difference",g,--,--,0.00,0.00
Minerals
"Calcium, Ca",mg,--,--,20,18
"Iron, Fe",mg,--,--,0.71,0.63
"Sodium, Na",mg,--,--,670,598
Vitamins
"Vitamin A, IU",IU,--,--,49,44
Lipids
"Fatty acids, total saturated",g,--,--,7.000,6.250
"Fatty acids, total trans",g,--,--,0.000,0.000
"Cholesterol",mg,--,--,75,67
Amino Acids
Other
Ingredients
"PORK, WATER, SEASONING (SALT, SPICES (INCLUDING FENNEL), PAPRIKA, DEXTROSE, GARLIC POWDER, BHA, BHT, CITRIC ACID)." Date available: 07/14/2017 Date last updated by company: 07/14/2017
