Source: USDA Branded Food Products Database Release December 2017 Software v.3.8.6.4 2017-10-02
Report Run at: December 18, 2017 01:48 EST
"Nutrient data for: 45225603, SMOKED SAUSAGE, UPC: 051933746244"
Food Group:  Branded Food Products Database
Common Name:

Nutrient,Unit,Data points,Std. Error,"1 LINK = 81.0g",1Value per 100 g,
Proximates
"Energy",kcal,--,--,260,321
"Protein",g,--,--,9.00,11.11
"Total lipid (fat)",g,--,--,20.00,24.69
"Carbohydrate, by difference",g,--,--,9.00,11.11
"Fiber, total dietary",g,--,--,0.0,0.0
"Sugars, total",g,--,--,4.00,4.94
Minerals
"Calcium, Ca",mg,--,--,40,49
"Iron, Fe",mg,--,--,0.49,0.60
"Sodium, Na",mg,--,--,960,1185
Vitamins
"Vitamin C, total ascorbic acid",mg,--,--,0.0,0.0
"Vitamin A, IU",IU,--,--,0,0
Lipids
"Fatty acids, total saturated",g,--,--,6.998,8.640
"Fatty acids, total trans",g,--,--,0.000,0.000
"Cholesterol",mg,--,--,70,86
Amino Acids
Other
Ingredients
"MECHANICALLY SEPARATED CHICKEN, PORK, WATER, CORN SYRUP, PORK HEARTS AND BEEF HEARTS. CONTAINS 2% OR LESS OF MODIFIED FOOD STARCH, SALT, FLAVORING, POTASSIUM LACTATE, SODIUM LACTATE, DEXTROSE, BEEF, SODIUM PHOSPHATES, SODIUM DIACETATE, SUGAR, SODIUM ERYTHORBATE, SODIUM NITRITE." Date available: 07/14/2017 Date last updated by company: 07/14/2017
