Source: USDA Branded Food Products Database Release December 2017 Software v.3.8.6.4 2017-10-02
Report Run at: December 18, 2017 01:50 EST
"Nutrient data for: 45207614, SMOKED SLICED TURKEY BACON, UPC: 031506509049"
Food Group:  Branded Food Products Database
Common Name:

Nutrient,Unit,Data points,Std. Error,"1 SLICE = 28.0g",1Value per 100 g,
Proximates
"Energy",kcal,--,--,40,143
"Protein",g,--,--,6.00,21.43
"Total lipid (fat)",g,--,--,1.50,5.36
"Carbohydrate, by difference",g,--,--,1.00,3.57
Minerals
"Iron, Fe",mg,--,--,0.64,2.29
"Sodium, Na",mg,--,--,200,714
Vitamins
Lipids
"Cholesterol",mg,--,--,20,71
Amino Acids
Other
Ingredients
"CURED WITH: WATER, POTASSIUM LACTATE, DEXTROSE, SALT, SODIUM PHOSPHATE, SUGAR, SODIUM DIACETATE, SODIUM ERYTHORBATE, SODIUM NITRITE." Date available: 10/19/2017 Date last updated by company: 10/19/2017
