Source: USDA Branded Food Products Database Release December 2017 Software v.3.8.6.4 2017-10-02
Report Run at: December 18, 2017 01:44 EST
"Nutrient data for: 45194552, SMOKED PORK SAUSAGE, UPC: 029599002646"
Food Group:  Branded Food Products Database
Common Name:

Nutrient,Unit,Data points,Std. Error,"2.0 ONZ = 58.0g",1Value per 100 g,
Proximates
"Energy",kcal,--,--,150,259
"Protein",g,--,--,9.00,15.52
"Total lipid (fat)",g,--,--,12.00,20.69
"Carbohydrate, by difference",g,--,--,1.00,1.72
"Fiber, total dietary",g,--,--,0.0,0.0
"Sugars, total",g,--,--,1.00,1.72
Minerals
"Calcium, Ca",mg,--,--,20,34
"Iron, Fe",mg,--,--,0.34,0.59
"Sodium, Na",mg,--,--,470,810
Vitamins
"Vitamin C, total ascorbic acid",mg,--,--,0.0,0.0
"Vitamin A, IU",IU,--,--,95,164
Lipids
"Fatty acids, total saturated",g,--,--,4.501,7.760
"Fatty acids, total trans",g,--,--,0.000,0.000
"Cholesterol",mg,--,--,25,43
Amino Acids
Other
Ingredients
"PORK, PORK BROTH (WATER, PORK STOCK), WATER, AND 2% OR LESS OF SALT, CORN SYRUP SOLIDS, DEXTROSE, SUGAR, SODIUM PHOSPHATE, PAPRIKA, FLAVORINGS, SODIUM ERYTHORBATE, AUTOLYZED YEAST EXTRACT, SODIUM NITRITE." Date available: 07/14/2017 Date last updated by company: 07/14/2017
