Source: USDA Branded Food Products Database Release December 2017 Software v.3.8.6.4 2017-10-02
Report Run at: December 18, 2017 01:53 EST
"Nutrient data for: 45264629, SMOKEHOUSE CAJUN SEASONING, UPC: 014321620663"
Food Group:  Branded Food Products Database
Common Name:

Nutrient,Unit,Data points,Std. Error,"0.5 tsp = 2.0g",1Value per 100 g,
Proximates
"Energy",kcal,--,--,0,0
"Protein",g,--,--,0.00,0.00
"Total lipid (fat)",g,--,--,0.00,0.00
"Carbohydrate, by difference",g,--,--,1.00,50.00
"Fiber, total dietary",g,--,--,0.0,0.0
"Sugars, total",g,--,--,0.00,0.00
Minerals
"Calcium, Ca",mg,--,--,0,0
"Iron, Fe",mg,--,--,9.00,450.00
"Sodium, Na",mg,--,--,270,13500
Vitamins
"Vitamin C, total ascorbic acid",mg,--,--,30.0,1500.0
"Vitamin A, IU",IU,--,--,12500,625000
Lipids
"Fatty acids, total saturated",g,--,--,0.000,0.000
"Fatty acids, total trans",g,--,--,0.000,0.000
"Cholesterol",mg,--,--,0,0
Amino Acids
Other
Ingredients
"ORGANIC SPICES (INCLUDING PAPRIKA), SEA SALT, ORGANIC DEHYDRATED GARLIC, NATURAL HICKORY SMOKE POWDER (MALTODEXTRIN [POTATO], NATURAL HICKORY SMOKE FLAVORING, HYDRATED SILICON DIOXIDE [TO PREVENT CAKING]), SPICE EXTRACTIVE." Date available: 07/14/2017 Date last updated by company: 07/14/2017
