Source: USDA Branded Food Products Database Release December 2017 Software v.3.8.6.4 2017-10-02
Report Run at: December 18, 2017 01:49 EST
"Nutrient data for: 45283846, SMOKED SAUSAGE, UPC: 028042001977"
Food Group:  Branded Food Products Database
Common Name:

Nutrient,Unit,Data points,Std. Error,"2.0 ONZ = 56.0g",1Value per 100 g,
Proximates
"Energy",kcal,--,--,190,339
"Protein",g,--,--,9.00,16.07
"Total lipid (fat)",g,--,--,16.00,28.57
"Carbohydrate, by difference",g,--,--,1.00,1.79
"Fiber, total dietary",g,--,--,0.0,0.0
"Sugars, total",g,--,--,1.00,1.79
Minerals
"Calcium, Ca",mg,--,--,0,0
"Iron, Fe",mg,--,--,0.35,0.63
"Sodium, Na",mg,--,--,390,696
Vitamins
"Vitamin C, total ascorbic acid",mg,--,--,0.0,0.0
"Vitamin A, IU",IU,--,--,0,0
Lipids
"Fatty acids, total saturated",g,--,--,5.998,10.710
"Cholesterol",mg,--,--,45,80
Amino Acids
Other
Ingredients
"PORK, WATER, SALT, VINEGAR, SUGAR, SPICES, POTASSIUM LACTATE, DEXTROSE, MONOSODIUM GLUTAMATE, SODIUM ERYTHORBATE, SODIUM NITRITE." Date available: 07/14/2017 Date last updated by company: 07/14/2017
