Source: USDA Branded Food Products Database Release December 2017 Software v.3.8.6.4 2017-10-02
Report Run at: December 18, 2017 01:51 EST
"Nutrient data for: 45280571, SMOKED TURKEY BREAST, UPC: 079893106212"
Food Group:  Branded Food Products Database
Common Name:

Nutrient,Unit,Data points,Std. Error,"2.0 ONZ = 56.0g",1Value per 100 g,
Proximates
"Energy",kcal,--,--,60,107
"Protein",g,--,--,10.00,17.86
"Total lipid (fat)",g,--,--,1.00,1.79
"Carbohydrate, by difference",g,--,--,2.00,3.57
"Fiber, total dietary",g,--,--,0.0,0.0
"Sugars, total",g,--,--,1.00,1.79
Minerals
"Calcium, Ca",mg,--,--,0,0
"Iron, Fe",mg,--,--,0.00,0.00
"Sodium, Na",mg,--,--,510,911
Vitamins
"Vitamin C, total ascorbic acid",mg,--,--,1.2,2.1
"Vitamin A, IU",IU,--,--,0,0
Lipids
"Fatty acids, total saturated",g,--,--,0.000,0.000
"Fatty acids, total trans",g,--,--,0.000,0.000
"Cholesterol",mg,--,--,25,45
Amino Acids
Other
Ingredients
"TURKEY BREAST, WATER, CONTAINS 2% OR LESS OF SEA SALT, EVAPORATED CANE SYRUP, RICE STARCH, LEMON JUICE CONCENTRATE, CARRAGEENAN (FROM SEAWEED), CELERY JUICE POWDER, VINEGAR." Date available: 07/14/2017 Date last updated by company: 07/14/2017
