Source: USDA Branded Food Products Database Release December 2017 Software v.3.8.6.4 2017-10-02
Report Run at: December 18, 2017 01:36 EST
"Nutrient data for: 45326452, SMOKED ALMONDS, UPC: 041512115295"
Food Group:  Branded Food Products Database
Common Name:

Nutrient,Unit,Data points,Std. Error,"0.25 CUP) | (ABOUT = 28.0g",1Value per 100 g,
Proximates
"Energy",kcal,--,--,170,607
"Protein",g,--,--,6.00,21.43
"Total lipid (fat)",g,--,--,15.00,53.57
"Carbohydrate, by difference",g,--,--,5.00,17.86
"Fiber, total dietary",g,--,--,3.0,10.7
"Sugars, total",g,--,--,1.00,3.57
Minerals
"Calcium, Ca",mg,--,--,80,286
"Iron, Fe",mg,--,--,1.93,6.88
"Potassium, K",mg,--,--,220,786
"Sodium, Na",mg,--,--,220,786
Vitamins
"Vitamin C, total ascorbic acid",mg,--,--,0.0,0.0
"Vitamin A, IU",IU,--,--,0,0
Lipids
"Fatty acids, total saturated",g,--,--,1.000,3.570
"Fatty acids, total trans",g,--,--,0.000,0.000
"Cholesterol",mg,--,--,0,0
Amino Acids
Other
Ingredients
"ALMONDS (ROASTED WITH PEANUT AND/OR COTTONSEED AND/OR SUNFLOWER SEED AND/OR CANOLA OIL), SALT, HYDROLYZED SOY PROTEIN, DEXTROSE, TORULA YEAST, ONION POWDER, NATURAL SMOKE FLAVOR, SPICE EXTRACTIVES, DISODIUM INOSINATE, DISODIUM GUANYLATE." Date available: 10/13/2017 Date last updated by company: 10/13/2017
