Source: USDA Branded Food Products Database Release December 2017 Software v.3.8.6.4 2017-10-02
Report Run at: December 18, 2017 01:36 EST
"Nutrient data for: 45143340, SMOKED ALMONDS, UPC: 046567031071"
Food Group:  Branded Food Products Database
Common Name:

Nutrient,Unit,Data points,Std. Error,"0.25 cup = 30.0g",1Value per 100 g,
Proximates
"Energy",kcal,--,--,170,567
"Protein",g,--,--,6.00,20.00
"Total lipid (fat)",g,--,--,15.00,50.00
"Carbohydrate, by difference",g,--,--,7.00,23.33
"Fiber, total dietary",g,--,--,3.0,10.0
"Sugars, total",g,--,--,1.00,3.33
Minerals
"Calcium, Ca",mg,--,--,80,267
"Iron, Fe",mg,--,--,1.80,6.00
"Sodium, Na",mg,--,--,240,800
Vitamins
"Vitamin C, total ascorbic acid",mg,--,--,0.0,0.0
"Vitamin A, IU",IU,--,--,0,0
Lipids
"Fatty acids, total saturated",g,--,--,0.999,3.330
"Fatty acids, total trans",g,--,--,0.000,0.000
"Cholesterol",mg,--,--,0,0
Amino Acids
Other
Ingredients
"ALMONDS, SMOKED ALMOND SEASONING (SALT, CORN STARCH, HYDROLYZED SOY PROTEIN, DEXTROSE, NATURAL SMOKE FLAVOR [MALTODEXTRIN, NATURAL HICKORY SMOKE FLAVOR, HYDRATED SILICON DIOXIDE FOR ANTICAKING], GARLIC, ONION POWDER, WITH NO MORE THAN 2% SILICON DIOXIDE AS ANTICAKING AGENT AND FULLY REFINED SOYBEAN OIL AS PROCESSING AID), VEGETABLE OIL (MAY CONTAIN ONE OR MORE OF THE FOLLOWING: PEANUT, CANOLA, SUNFLOWER AND/OR SOYBEAN OIL)." Date available: 09/29/2017 Date last updated by company: 09/29/2017
