Source: USDA Branded Food Products Database Release December 2017 Software v.3.8.6.4 2017-10-02
Report Run at: December 18, 2017 01:52 EST
"Nutrient data for: 45287449, SMOKED UNCURED POLSKA KIELBASA, UPC: 044500341898"
Food Group:  Branded Food Products Database
Common Name:

Nutrient,Unit,Data points,Std. Error,"1 LINK = 85.0g",1Value per 100 g,
Proximates
"Energy",kcal,--,--,280,329
"Protein",g,--,--,12.00,14.12
"Total lipid (fat)",g,--,--,24.00,28.24
"Carbohydrate, by difference",g,--,--,2.00,2.35
"Fiber, total dietary",g,--,--,0.0,0.0
"Sugars, total",g,--,--,2.00,2.35
Minerals
"Calcium, Ca",mg,--,--,20,24
"Iron, Fe",mg,--,--,0.47,0.55
"Sodium, Na",mg,--,--,720,847
Vitamins
"Vitamin C, total ascorbic acid",mg,--,--,0.0,0.0
"Vitamin A, IU",IU,--,--,0,0
Lipids
"Fatty acids, total saturated",g,--,--,7.998,9.410
"Fatty acids, total trans",g,--,--,0.000,0.000
"Cholesterol",mg,--,--,55,65
Amino Acids
Other
Ingredients
"PORK, CHICKEN, WATER, CONTAINS 2% OR LESS: SALT, NATURAL FLAVOR AND SPICE, DEXTROSE, PORK STOCK, SUGAR, CELERY JUICE POWDER, SEA SALT. MADE WITH COLLAGEN CASING." Date available: 07/14/2017 Date last updated by company: 07/14/2017
