Source: USDA Branded Food Products Database Release December 2017 Software v.3.8.6.4 2017-10-02
Report Run at: December 18, 2017 01:55 EST
"Nutrient data for: 45314093, SMOKY BACON CHEDDAR NATURAL CHEESE, UPC: 021000063505"
Food Group:  Branded Food Products Database
Common Name:

Nutrient,Unit,Data points,Std. Error,"1 SLICE = 21.0g",1Value per 100 g,
Proximates
"Energy",kcal,--,--,80,381
"Protein",g,--,--,5.00,23.81
"Total lipid (fat)",g,--,--,7.00,33.33
"Carbohydrate, by difference",g,--,--,1.00,4.76
"Fiber, total dietary",g,--,--,0.0,0.0
"Sugars, total",g,--,--,0.00,0.00
Minerals
"Calcium, Ca",mg,--,--,150,714
"Iron, Fe",mg,--,--,0.00,0.00
"Sodium, Na",mg,--,--,140,667
Vitamins
"Vitamin C, total ascorbic acid",mg,--,--,0.0,0.0
"Vitamin A, IU",IU,--,--,476,2267
Lipids
"Fatty acids, total saturated",g,--,--,3.501,16.670
"Fatty acids, total trans",g,--,--,0.000,0.000
"Cholesterol",mg,--,--,25,119
Amino Acids
Other
Ingredients
"PASTEURIZED MILK, BACON (CURED WITH WATER, SALT, SUGAR, NATURAL SMOKE FLAVOR, SODIUM PHOSPHATES, SODIUM ERYTHORBATE, SODIUM NITRITE), CHEESE CULTURE, SALT, NATURAL FLAVOR, ENZYMES" Date available: 07/14/2017 Date last updated by company: 07/14/2017
