Source: USDA Branded Food Products Database Release December 2017 Software v.3.8.6.4 2017-10-02
Report Run at: December 18, 2017 01:58 EST
"Nutrient data for: 45139339, SMOOTHIE DRINK, UPC: 845901031384"
Food Group:  Branded Food Products Database
Common Name:

Nutrient,Unit,Data points,Std. Error,"1 CONTAINER = 236.0g",1Value per 100 g,
Proximates
"Energy",kcal,--,--,45,19
"Protein",g,--,--,0.00,0.00
"Total lipid (fat)",g,--,--,0.00,0.00
"Carbohydrate, by difference",g,--,--,11.00,4.66
"Fiber, total dietary",g,--,--,0.9,0.4
"Sugars, total",g,--,--,8.00,3.39
Minerals
"Calcium, Ca",mg,--,--,0,0
"Iron, Fe",mg,--,--,0.73,0.31
"Sodium, Na",mg,--,--,5,2
Vitamins
"Vitamin C, total ascorbic acid",mg,--,--,6.1,2.6
"Vitamin A, IU",IU,--,--,101,43
Lipids
"Fatty acids, total saturated",g,--,--,0.000,0.000
"Fatty acids, total trans",g,--,--,0.000,0.000
"Cholesterol",mg,--,--,0,0
Amino Acids
Other
Ingredients
"WATER, ORGANIC APPLES, ORGANIC GREEN BEANS, ORGANIC ZUCCHINI." Date available: 10/11/2017 Date last updated by company: 10/11/2017
