Source: USDA Branded Food Products Database Release December 2017 Software v.3.8.6.4 2017-10-02
Report Run at: December 18, 2017 01:58 EST
"Nutrient data for: 45327228, SMOOTHIE BOOST, UPC: 052100039626"
Food Group:  Branded Food Products Database
Common Name:

Nutrient,Unit,Data points,Std. Error,"1 PACKET = 9.0g",1Value per 100 g,
Proximates
"Energy",kcal,--,--,35,389
"Protein",g,--,--,5.00,55.56
"Total lipid (fat)",g,--,--,0.00,0.00
"Carbohydrate, by difference",g,--,--,3.00,33.33
"Fiber, total dietary",g,--,--,0.0,0.0
"Sugars, total",g,--,--,2.00,22.22
Minerals
"Calcium, Ca",mg,--,--,0,0
"Iron, Fe",mg,--,--,0.00,0.00
"Sodium, Na",mg,--,--,45,500
Vitamins
"Vitamin C, total ascorbic acid",mg,--,--,0.0,0.0
"Vitamin A, IU",IU,--,--,0,0
Lipids
"Fatty acids, total saturated",g,--,--,0.000,0.000
"Fatty acids, total trans",g,--,--,0.000,0.000
"Cholesterol",mg,--,--,0,0
Amino Acids
Other
Ingredients
"WHEY PROTEIN ISOLATE (MILK), SUGAR, MALIC ACID, CORN MALTODEXTRIN, SPICES (GINGER, TURMERIC) & NATURAL FLAVOR." Date available: 09/06/2017 Date last updated by company: 09/06/2017
