Source: USDA Branded Food Products Database Release December 2017 Software v.3.8.6.4 2017-10-02
Report Run at: December 18, 2017 01:59 EST
"Nutrient data for: 45150569, SMOOTHIE, UPC: 009542025731"
Food Group:  Branded Food Products Database
Common Name:

Nutrient,Unit,Data points,Std. Error,"4.0 PIECES = 40.0g",1Value per 100 g,
Proximates
"Energy",kcal,--,--,210,525
"Protein",g,--,--,2.00,5.00
"Total lipid (fat)",g,--,--,14.00,35.00
"Carbohydrate, by difference",g,--,--,22.00,55.00
"Fiber, total dietary",g,--,--,1.0,2.5
"Sugars, total",g,--,--,21.00,52.50
Minerals
"Calcium, Ca",mg,--,--,60,150
"Iron, Fe",mg,--,--,0.45,1.12
"Sodium, Na",mg,--,--,35,88
Vitamins
"Vitamin C, total ascorbic acid",mg,--,--,1.5,3.8
"Vitamin A, IU",IU,--,--,125,312
Lipids
"Fatty acids, total saturated",g,--,--,8.000,20.000
"Fatty acids, total trans",g,--,--,0.000,0.000
"Cholesterol",mg,--,--,5,12
Amino Acids
Other
Ingredients
"SUGAR, COCOA BUTTER, MILK, PALM OIL, CHOCOLATE, SKIM MILK YOGURT, LACTOSE, SKIM MILK, GLUCOSE SYRUP (FROM WHEAT), MANGO POWDER, SOYA LECITHIN (EMULSIFIER), NATURAL AND ARTIFICIAL FLAVORS, LEMON JUICE CONCETRATE, SALT, ROSE WATER." Date available: 07/14/2017 Date last updated by company: 07/14/2017
