Source: USDA Branded Food Products Database Release December 2017 Software v.3.8.6.4 2017-10-02
Report Run at: December 18, 2017 01:56 EST
"Nutrient data for: 45175971, SMOOOTH WHEAT ORGANIC BREAD, UPC: 073132025777"
Food Group:  Branded Food Products Database
Common Name:

Nutrient,Unit,Data points,Std. Error,"1 SLICE = 28.0g",1Value per 100 g,
Proximates
"Energy",kcal,--,--,70,250
"Protein",g,--,--,3.00,10.71
"Total lipid (fat)",g,--,--,0.50,1.79
"Carbohydrate, by difference",g,--,--,14.00,50.00
"Fiber, total dietary",g,--,--,2.0,7.1
"Sugars, total",g,--,--,3.00,10.71
Minerals
"Calcium, Ca",mg,--,--,20,71
"Iron, Fe",mg,--,--,0.64,2.29
"Sodium, Na",mg,--,--,140,500
Vitamins
"Vitamin C, total ascorbic acid",mg,--,--,0.0,0.0
"Thiamin",mg,--,--,0.000,0.000
"Niacin",mg,--,--,0.714,2.550
"Vitamin A, IU",IU,--,--,0,0
Lipids
"Fatty acids, total saturated",g,--,--,0.000,0.000
"Fatty acids, total monounsaturated",g,--,--,0.000,0.000
"Fatty acids, total polyunsaturated",g,--,--,0.000,0.000
"Fatty acids, total trans",g,--,--,0.000,0.000
"Cholesterol",mg,--,--,0,0
Amino Acids
Other
Ingredients
"ORGANIC WHOLE WHEAT FLOUR, WATER, ORGANIC WHEAT FLOUR, ORGANIC SUGAR, ORGANIC WHEAT GLUTEN, ORGANIC OAT FIBER, ORGANIC WHEAT BRAN, SEA SALT, ORGANIC CANOLA OIL, ORGANIC MOLASSES, YEAST, ORGANIC CULTURED WHEAT FLOUR, ORGANIC GRAIN VINEGAR, CALCIUM SULFATE." Date available: 07/14/2017 Date last updated by company: 07/14/2017
