Source: USDA Branded Food Products Database Release December 2017 Software v.3.8.6.4 2017-10-02
Report Run at: December 18, 2017 01:58 EST
"Nutrient data for: 45260813, SMOOTHIE CUPS, UPC: 041311122012"
Food Group:  Branded Food Products Database
Common Name:

Nutrient,Unit,Data points,Std. Error,"2.0 PIECES = 46.0g",1Value per 100 g,
Proximates
"Energy",kcal,--,--,250,543
"Protein",g,--,--,4.00,8.70
"Total lipid (fat)",g,--,--,14.00,30.43
"Carbohydrate, by difference",g,--,--,26.00,56.52
"Fiber, total dietary",g,--,--,1.0,2.2
"Sugars, total",g,--,--,20.00,43.48
Minerals
"Calcium, Ca",mg,--,--,40,87
"Iron, Fe",mg,--,--,0.00,0.00
"Sodium, Na",mg,--,--,135,293
Vitamins
"Vitamin C, total ascorbic acid",mg,--,--,0.0,0.0
"Vitamin A, IU",IU,--,--,0,0
Lipids
"Fatty acids, total saturated",g,--,--,9.002,19.570
"Fatty acids, total trans",g,--,--,0.000,0.000
"Cholesterol",mg,--,--,0,0
Amino Acids
Other
Ingredients
"BUTTERSCOTCH COATING (SUGAR, PARTIALLY HYDROGENATED PALM KERNEL AND COTTONSEED OILS, NONFAT DRY MILK, MILK, GLYCERYL LACTO ESTERS OF FATTY ACIDS, SOY LECITHIN, RED 40 LAKE, YELLOW 5 LAKE, SALT, AND ARTIFICIAL FLAVORING), PEANUT BUTTER (ROASTED PEANUTS, HYDROGENATED RAPESEED AND COTTONSEED OIL), SUGAR, COTTONSEED OIL, SALT, SOY LECITHIN, DEXTROSE, AND TENOX (A PRESERVATIVE)." Date available: 07/14/2017 Date last updated by company: 07/14/2017
