Source: USDA Branded Food Products Database Release December 2017 Software v.3.8.6.4 2017-10-02
Report Run at: December 18, 2017 02:08 EST
"Nutrient data for: 45130165, SNACK PACK Gel Strawberry Orange, UNPREPARED, GTIN: 00027000419212"
Food Group:  Branded Food Products Database
Common Name:

Nutrient,Unit,Data points,Std. Error,"1 gel snack (92g) = 92.0g",1Value per 100 g,
Proximates
"Energy",kcal,--,--,100,109
"Total lipid (fat)",g,--,--,0.00,0.00
"Carbohydrate, by difference",g,--,--,24.00,26.09
"Fiber, total dietary",g,--,--,0.0,0.0
"Sugars, total",g,--,--,20.00,21.74
Minerals
"Calcium, Ca",mg,--,--,0,0
"Iron, Fe",mg,--,--,0.00,0.00
"Potassium, K",mg,--,--,95,103
"Sodium, Na",mg,--,--,35,38
Vitamins
"Vitamin C, total ascorbic acid",mg,--,--,0.0,0.0
"Vitamin A, IU",IU,--,--,0,0
Lipids
"Fatty acids, total saturated",g,--,--,0.000,0.000
"Fatty acids, total monounsaturated",g,--,--,0.000,0.000
"Fatty acids, total polyunsaturated",g,--,--,0.000,0.000
"Fatty acids, total trans",g,--,--,0.000,0.000
"Cholesterol",mg,--,--,0,0
Amino Acids
Other
Ingredients
"Filtered Water, Sugar, Fruit Juice from Concentrate (Water, Apple, Pear, Peach, Pineapple), Less than 2% of: Carageenan, Natural and Artificial Flavor, Adipic Acid, Citric Acid, Potassium Citrate, Carob Bean Gum, Sodium Citrate, Red 40." Date available: 10/12/2017 Date last updated by company: 07/29/2016
