Source: USDA Branded Food Products Database Release December 2017 Software v.3.8.6.4 2017-10-02
Report Run at: December 18, 2017 02:10 EST
"Nutrient data for: 45134352, SNACK PACK Vanilla Pudding, UNPREPARED, GTIN: 00027000419816"
Food Group:  Branded Food Products Database
Common Name:

Nutrient,Unit,Data points,Std. Error,"1 Pudding Cup (156g) = 156.0g",1Value per 100 g,
Proximates
"Energy",kcal,--,--,170,109
"Protein",g,--,--,1.00,0.64
"Total lipid (fat)",g,--,--,4.49,2.88
"Carbohydrate, by difference",g,--,--,32.00,20.51
"Fiber, total dietary",g,--,--,0.9,0.6
"Sugars, total",g,--,--,22.99,14.74
Minerals
"Calcium, Ca",mg,--,--,601,385
"Iron, Fe",mg,--,--,0.36,0.23
"Potassium, K",mg,--,--,20,13
"Sodium, Na",mg,--,--,211,135
Vitamins
"Vitamin C, total ascorbic acid",mg,--,--,1.2,0.8
"Vitamin A, IU",IU,--,--,0,0
Lipids
"Fatty acids, total saturated",g,--,--,1.997,1.280
"Fatty acids, total monounsaturated",g,--,--,1.498,0.960
"Fatty acids, total polyunsaturated",g,--,--,0.000,0.000
"Fatty acids, total trans",g,--,--,0.000,0.000
"Cholesterol",mg,--,--,0,0
Amino Acids
Other
Ingredients
"Water, Nonfat Milk, Sugar, Modified Corn Starch, Palm Oil, Less than 2% of: Calcium Carbonate, Salt, Sodium Stearoyl Lactylate, Disodium Phosphate, Natural and Artificial Flavors, Color Added (Including Yellow 5, Yellow 6). CONTAINS: MILK" Date available: 10/12/2017 Date last updated by company: 10/12/2017
