Source: USDA Branded Food Products Database Release December 2017 Software v.3.8.6.4 2017-10-02
Report Run at: December 18, 2017 02:13 EST
"Nutrient data for: 45277990, SNACK TRAY, UPC: 085239412305"
Food Group:  Branded Food Products Database
Common Name:

Nutrient,Unit,Data points,Std. Error,"0.33 cup = 40.0g",1Value per 100 g,
Proximates
"Energy",kcal,--,--,190,475
"Protein",g,--,--,2.00,5.00
"Total lipid (fat)",g,--,--,7.00,17.50
"Carbohydrate, by difference",g,--,--,30.00,75.00
"Fiber, total dietary",g,--,--,1.0,2.5
"Sugars, total",g,--,--,19.00,47.50
Minerals
"Calcium, Ca",mg,--,--,20,50
"Iron, Fe",mg,--,--,1.35,3.38
"Sodium, Na",mg,--,--,170,425
Vitamins
"Vitamin C, total ascorbic acid",mg,--,--,1.5,3.8
"Vitamin A, IU",IU,--,--,125,312
Lipids
"Fatty acids, total saturated",g,--,--,5.000,12.500
"Fatty acids, total trans",g,--,--,0.000,0.000
"Cholesterol",mg,--,--,0,0
Amino Acids
Other
Ingredients
"SUGAR, ENRICHED WHEAT FLOUR (WHEAT FLOUR, NIACIN, REDUCED IRON, THIAMIN MONONITRATE, RIBOFLAVIN, FOLIC ACID), VEGETABLE OIL (PALM KERNEL, PARTIALLY HYDROGENATED PALM KERNEL AND COCONUT, HYDROGENATED PALM AND PALM KERNEL), COCOA POWDER, CORN MEAL, SKIM MILK, WHEY POWDER, CORN BRAN, MOLASSES, SALT, LACTOSE, CORN SYRUP, POWDER SUGAR (SUGAR, CORNSTARCH), POTASSIUM CHLORIDE, TITANIUM DIOXIDE (COLOR), SODIUM BICARBONATE, CALCIUM CARBONATE, MILK CHOCOLATE (SUGAR, COCOA BUTTER, WHOLE MILK, CHOCOLATE LIQUOR, SOY LECITHIN, VANILLIN), PARTIALLY DEFATTED PEANUT FLOUR, REDUCED MINERAL WHEY POWDER, DISTILLED MONOGLYCERIDES, YEAST, WHOLE MILK SOLIDS, NONFAT DRY MILK SOLIDS, YELLOW 5 LAKE, YELLOW 6 LAKE, BLUE 2 LAKE, NATURAL AND ARTIFICIAL FLAVORS, SOY LECITHIN, VANILLIN." Date available: 07/14/2017 Date last updated by company: 07/14/2017
