Source: USDA Branded Food Products Database Release December 2017 Software v.3.8.6.4 2017-10-02
Report Run at: December 18, 2017 02:14 EST
"Nutrient data for: 45317446, SNACK WELL'S, FAT FREE COOKIE CAKES, UPC: 819898019229"
Food Group:  Branded Food Products Database
Common Name:

Nutrient,Unit,Data points,Std. Error,"1 PACK = 31.0g",1Value per 100 g,
Proximates
"Energy",kcal,--,--,100,323
"Protein",g,--,--,1.00,3.23
"Total lipid (fat)",g,--,--,0.00,0.00
"Carbohydrate, by difference",g,--,--,23.00,74.19
"Fiber, total dietary",g,--,--,1.0,3.2
"Sugars, total",g,--,--,14.00,45.16
Minerals
"Calcium, Ca",mg,--,--,0,0
"Iron, Fe",mg,--,--,1.16,3.75
"Potassium, K",mg,--,--,80,258
"Sodium, Na",mg,--,--,45,145
Vitamins
"Vitamin C, total ascorbic acid",mg,--,--,0.0,0.0
"Vitamin A, IU",IU,--,--,0,0
Lipids
"Fatty acids, total saturated",g,--,--,0.000,0.000
"Fatty acids, total monounsaturated",g,--,--,0.000,0.000
"Fatty acids, total polyunsaturated",g,--,--,0.000,0.000
"Fatty acids, total trans",g,--,--,0.000,0.000
"Cholesterol",mg,--,--,0,0
Amino Acids
Other
Ingredients
"SUGAR, UNBLEACHED ENRICHED FLOUR (WHEAT FLOUR, NIACIN, REDUCED IRON, THIAMINE MONONITRATE {VITAMIN B1}, RIBOFLAVIN {VITAMIN B2}, FOLIC ACID), CORN SYRUP, HIGH FRUCTOSE CORN SYRUP, COCOA* (PROCESSED WITH ALKALI), SKIM MILK, GELATIN, GLYCERIN, LEAVENING (BAKING SODA AND/OR SODIUM ACID PYROPHOSPHATE AND/OR CALCIUM PHOSPHATE), EMULSIFIERS* (MONO- AND DIGLYCERIDES, SOY LECITHIN), CORNSTARCH, CHOCOLATE, MODIFIED CORNSTARCH, SALT, POTASSIUM SORBATE ADDED TO PRESERVE FRESHNESS, ARTIFICIAL FLAVOR." Date available: 06/24/2017 Date last updated by company: 06/24/2017
