Source: USDA Branded Food Products Database Release December 2017 Software v.3.8.6.4 2017-10-02
Report Run at: December 18, 2017 02:06 EST
"Nutrient data for: 45149957, SNACKITUDES, TWISTED YOGURT PRETZELS, NATURAL LEMON FLAVOR, UPC: 816512011270"
Food Group:  Branded Food Products Database
Common Name:

Nutrient,Unit,Data points,Std. Error,"9.0 PRETZELS = 40.0g",1Value per 100 g,
Proximates
"Energy",kcal,--,--,190,475
"Protein",g,--,--,2.00,5.00
"Total lipid (fat)",g,--,--,8.00,20.00
"Carbohydrate, by difference",g,--,--,29.00,72.50
"Fiber, total dietary",g,--,--,0.0,0.0
"Sugars, total",g,--,--,18.00,45.00
Minerals
"Calcium, Ca",mg,--,--,20,50
"Iron, Fe",mg,--,--,0.90,2.25
"Sodium, Na",mg,--,--,130,325
Vitamins
"Vitamin C, total ascorbic acid",mg,--,--,0.0,0.0
"Vitamin A, IU",IU,--,--,500,1250
Lipids
"Fatty acids, total saturated",g,--,--,6.000,15.000
"Fatty acids, total trans",g,--,--,0.000,0.000
"Cholesterol",mg,--,--,0,0
Amino Acids
Other
Ingredients
"LEMON YOGURT COATING (SUGAR, VEGETABLE OIL [PALM KERNEL AND/OR PALM], WHEY POWDER [MILK], DRY NONFAT YOGURT [MILK], SOY LECITHIN [AN EMULSIFIER], SALT, NATURAL VANILLA EXTRACT, NATURAL LEMON FLAVOR [SWEET ALMOND OIL], NATURAL YELLOW COLOR [NATURAL EXTRACTIVES OF CARROT, CANOLA OIL, NATURAL FLAVOR]), PRETZELS (UNBLEACHED ENRICHED WHEAT FLOUR [FLOUR, NIACIN, REDUCED IRON, THIAMINE MONONITRATE-B1, RIBOFLAVIN-B2, FOLIC ACID], MALT, SALT, SOYBEAN AND/OR CANOLA OIL, AND YEAST)" Date available: 07/14/2017 Date last updated by company: 07/14/2017
