Source: USDA Branded Food Products Database Release December 2017 Software v.3.8.6.4 2017-10-02
Report Run at: December 18, 2017 02:15 EST
"Nutrient data for: 45144410, SNAK CLUB, TRAIL MIX, SWEET & SALTY, UPC: 087076644390"
Food Group:  Branded Food Products Database
Common Name:

Nutrient,Unit,Data points,Std. Error,"0.25 cup = 30.0g",1Value per 100 g,
Proximates
"Energy",kcal,--,--,155,517
"Protein",g,--,--,4.00,13.33
"Total lipid (fat)",g,--,--,10.00,33.33
"Carbohydrate, by difference",g,--,--,14.00,46.67
"Fiber, total dietary",g,--,--,2.0,6.7
"Sugars, total",g,--,--,9.00,30.00
Minerals
"Calcium, Ca",mg,--,--,30,100
"Iron, Fe",mg,--,--,1.50,5.00
"Sodium, Na",mg,--,--,95,317
Vitamins
"Vitamin C, total ascorbic acid",mg,--,--,1.0,3.3
"Vitamin A, IU",IU,--,--,83,278
Lipids
"Fatty acids, total saturated",g,--,--,2.001,6.670
"Fatty acids, total trans",g,--,--,0.000,0.000
"Cholesterol",mg,--,--,0,0
Amino Acids
Other
Ingredients
"PRODUCT CONTAINS: PEANUTS, CHOCOLATE BUTTONS [SUGAR, COCOA, PARTIALLY HYDROGENATED PALM KERNEL OIL, WHEY (CONTAINS MILK), ARTIFICIAL COLOR (FD&C BLUE #1, BLUE #1 LAKE, BLUE #2 LAKE, YELLOW #5, YELLOW #5 LAKE, YELLOW #6, YELLOW #6 LAKE, RED #40, RED #40 LAKE), SORBITOL, TITANIUM DIOXIDE, PHOSPHORIC ACID, METHYL & PROPYL PARABENS, CARAMEL], NONFAT MILK POWDER, CORN SYRUP, SOY LECITHIN ADDED AS AN EMULSIFIER, WAX, DEXTRIN, VANILLIN (AN ARTIFICIAL FLAVOR), PEANUT BUTTER TOFFEE [PEANUTS, SUGAR, BUTTER (SWEET CREAM (CONTAINS MILK), SALT, ANNATTO COLOR ADDED SEASONALLY)], ALMONDS, TOASTED CORN (CORN, HYDROGENATED SOYBEAN OIL, AND SALT), HONEY SESAME STICKS (UNBLEACHED WHEAT FLOUR [CONTAINS MALTED BARLEY FLOUR AS A NATURAL ENZYME ADDITIVE), SOYBEAN OIL, SESAME SEEDS, HONEY COATING [SUCROSE, WHEAT STARCH, HONEY], BULGUR WHEAT, TACK BLEND [MALTODEXTRIN, ZANTHAN GUM, SALT, BEET POWDER (COLOR), TURMERIC (COLOR), VEGETABLE OIL (MAY CONTAIN ONE OR MORE OF THE FOLLOWING: PEANUT, CANOLA, SUNFLOWER, SOYBEAN) AND SALT." Date available: 07/14/2017 Date last updated by company: 07/14/2017
