Source: USDA Branded Food Products Database Release December 2017 Software v.3.8.6.4 2017-10-02
Report Run at: December 18, 2017 02:16 EST
"Nutrient data for: 45212966, SNAP PEAS + CARROT CHIPS WITH GINGER HOISIN DIP, UPC: 5051379084011"
Food Group:  Branded Food Products Database
Common Name:

Nutrient,Unit,Data points,Std. Error,"1 PACK = 142.0g",1Value per 100 g,
Proximates
"Energy",kcal,--,--,131,92
"Protein",g,--,--,2.00,1.41
"Total lipid (fat)",g,--,--,0.50,0.35
"Carbohydrate, by difference",g,--,--,30.00,21.13
"Fiber, total dietary",g,--,--,3.0,2.1
"Sugars, total",g,--,--,21.00,14.79
Minerals
"Calcium, Ca",mg,--,--,40,28
"Iron, Fe",mg,--,--,0.51,0.36
"Sodium, Na",mg,--,--,770,542
Vitamins
"Vitamin C, total ascorbic acid",mg,--,--,12.6,8.9
"Vitamin A, IU",IU,--,--,3522,2480
Lipids
"Fatty acids, total saturated",g,--,--,0.000,0.000
"Fatty acids, total trans",g,--,--,0.000,0.000
"Cholesterol",mg,--,--,0,0
Amino Acids
Other
Ingredients
"CARROTS, SNAP PEAS, GINGER HOISIN DIP {HOISIN SAUCE (SUGAR, WATER, SWEET POTATO, SALT, MODIFIED CORN STARCH, SOYBEAN, SPICES, SESAME SEED, WHEAT FLOUR, GARLIC, CHILI PEPPER, ACETIC ACID), SUGAR, GINGER PUREE, CHILI GARLIC PASTE [RED CHILI PEPPER, VINEGAR, SALT, GARLIC, XANTHAN GUM, GUAR GUM, NATURAL FLAVOR (NATURAL FLAVOR, CANOLA OIL)}." Date available: 10/13/2017 Date last updated by company: 10/13/2017
