Source: USDA Branded Food Products Database Release December 2017 Software v.3.8.6.4 2017-10-02
Report Run at: December 18, 2017 02:17 EST
"Nutrient data for: 45193196, SNEAKZ, ORGANIC CHOCOLATE MILKSHAKE, CHOCOLATE, UPC: 853840004062"
Food Group:  Branded Food Products Database
Common Name:

Nutrient,Unit,Data points,Std. Error,"1 CONTAINER = 8.0g",1Value per 100 g,
Proximates
"Energy",kcal,--,--,4,54
"Protein",g,--,--,0.20,2.50
"Total lipid (fat)",g,--,--,0.02,0.21
"Carbohydrate, by difference",g,--,--,0.80,10.00
"Fiber, total dietary",g,--,--,0.1,0.8
"Sugars, total",g,--,--,0.63,7.92
Minerals
"Calcium, Ca",mg,--,--,7,83
"Iron, Fe",mg,--,--,0.04,0.46
"Sodium, Na",mg,--,--,3,42
Vitamins
"Vitamin C, total ascorbic acid",mg,--,--,0.1,1.5
"Vitamin A, IU",IU,--,--,169,2113
Lipids
"Fatty acids, total saturated",g,--,--,0.000,0.000
"Fatty acids, total trans",g,--,--,0.000,0.000
"Cholesterol",mg,--,--,0,2
Amino Acids
Other
Ingredients
"ORGANIC SKIM MILK, SNEAKZ ORGANIC VEGGIE PUREE BLEND (FILTERED WATER, ORGANIC DRIED [SWEET POTATO, CARROT, BEET AND SPINACH]), FILTERED WATER, ORGANIC CANE SUGAR, ORGANIC DUTCH COCOA, NATURAL FLAVORS, CARRAGEENAN" Date available: 06/25/2017 Date last updated by company: 06/25/2017
