Source: USDA Branded Food Products Database Release December 2017 Software v.3.8.6.4 2017-10-02
Report Run at: December 18, 2017 02:19 EST
"Nutrient data for: 45248517, SNICKERS, BARS, UPC: 040000512554"
Food Group:  Branded Food Products Database
Common Name:

Nutrient,Unit,Data points,Std. Error,"2.0 BARS = 35.0g",1Value per 100 g,
Proximates
"Energy",kcal,--,--,170,486
"Protein",g,--,--,2.00,5.71
"Total lipid (fat)",g,--,--,8.00,22.86
"Carbohydrate, by difference",g,--,--,23.00,65.71
"Fiber, total dietary",g,--,--,1.0,2.9
"Sugars, total",g,--,--,18.00,51.43
Minerals
"Calcium, Ca",mg,--,--,20,57
"Iron, Fe",mg,--,--,0.26,0.73
"Sodium, Na",mg,--,--,75,214
Vitamins
"Vitamin A, IU",IU,--,--,100,286
Lipids
"Fatty acids, total saturated",g,--,--,4.501,12.860
"Fatty acids, total trans",g,--,--,0.000,0.000
"Cholesterol",mg,--,--,5,14
Amino Acids
Other
Ingredients
"MILK CHOCOLATE (SUGAR, COCOA BUTTER, CHOCOLATE, SKIM MILK, LACTOSE, MILKFAT, SOY LECITHIN, ARTIFICIAL FLAVOR), INVERT SUGAR, PEANUTS, CRISP RICE (RICE FLOUR, RICE BRAN, RAISIN JUICE CONCENTRATE, HONEY, SALT), HYDROGENATED PALM KERNEL OIL, CORN SYRUP, SUGAR, DEXTROSE, GLYCERIN, SKIM MILK, LESS THAN 2% - LACTOSE, SALT, PALM OIL, ARTIFICIAL FLAVOR, TBHQ TO MAINTAIN FRESHNESS." Date available: 10/11/2017 Date last updated by company: 10/11/2017
