Source: USDA Branded Food Products Database Release December 2017 Software v.3.8.6.4 2017-10-02
Report Run at: December 18, 2017 02:18 EST
"Nutrient data for: 45174894, SNICKERDOODLE COOKE MIX, UPC: 051933562981"
Food Group:  Branded Food Products Database
Common Name:

Nutrient,Unit,Data points,Std. Error,"2.0 -2 INCH COOKIES | DRY MIX, MAKES = 26.0g",1Value per 100 g,
Proximates
"Energy",kcal,--,--,100,385
"Protein",g,--,--,1.00,3.85
"Total lipid (fat)",g,--,--,1.50,5.77
"Carbohydrate, by difference",g,--,--,21.00,80.77
"Fiber, total dietary",g,--,--,1.0,3.8
"Sugars, total",g,--,--,12.00,46.15
Minerals
"Calcium, Ca",mg,--,--,0,0
"Iron, Fe",mg,--,--,1.11,4.26
"Potassium, K",mg,--,--,15,58
"Sodium, Na",mg,--,--,70,269
Vitamins
"Vitamin C, total ascorbic acid",mg,--,--,0.0,0.0
"Vitamin A, IU",IU,--,--,0,0
Lipids
"Fatty acids, total saturated",g,--,--,0.000,0.000
"Fatty acids, total monounsaturated",g,--,--,0.499,1.920
"Fatty acids, total polyunsaturated",g,--,--,0.000,0.000
"Fatty acids, total trans",g,--,--,0.000,0.000
"Cholesterol",mg,--,--,0,0
Amino Acids
Other
Ingredients
"SUGAR, ENRICHED BLEACHED FLOUR (BLEACHED WHEAT FLOUR, MALTED BARLEY FLOUR, NIACIN, IRON, THIAMINE MONONITRATE, RIBOFLAVIN, FOLIC ACID),VEGETABLE SHORTENING (CONTAINS ONE OR MORE OF THE FOLLOWING: CANOLA AND/OR PALM OIL) WITH PRESERVATIVE (TBHQ). CONTAINS 2% OR LESS OF EACH OF THE FOLLOWING: CINNAMON, CREAM OF TARTAR, CORN STARCH, LEAVENING (BAKING SODA), SALT, SOYBEAN OIL." Date available: 07/14/2017 Date last updated by company: 07/14/2017
