Source: USDA Branded Food Products Database Release December 2017 Software v.3.8.6.4 2017-10-02
Report Run at: December 18, 2017 02:18 EST
"Nutrient data for: 45112219, SNICKERDOODLE MUFFINS, UPC: 072030020587"
Food Group:  Branded Food Products Database
Common Name:

Nutrient,Unit,Data points,Std. Error,"1 POUCH = 47.0g",1Value per 100 g,
Proximates
"Energy",kcal,--,--,190,404
"Protein",g,--,--,2.00,4.26
"Total lipid (fat)",g,--,--,8.00,17.02
"Carbohydrate, by difference",g,--,--,28.00,59.57
"Fiber, total dietary",g,--,--,1.0,2.1
"Sugars, total",g,--,--,17.00,36.17
Minerals
"Calcium, Ca",mg,--,--,40,85
"Iron, Fe",mg,--,--,0.00,0.00
"Sodium, Na",mg,--,--,170,362
Vitamins
"Vitamin C, total ascorbic acid",mg,--,--,0.0,0.0
"Vitamin A, IU",IU,--,--,0,0
Lipids
"Fatty acids, total saturated",g,--,--,1.499,3.190
"Fatty acids, total monounsaturated",g,--,--,2.002,4.260
"Fatty acids, total polyunsaturated",g,--,--,4.000,8.510
"Fatty acids, total trans",g,--,--,0.000,0.000
"Cholesterol",mg,--,--,20,43
Amino Acids
Other
Ingredients
"SUGAR, BLEACHED WHEAT FLOUR, WATER, SOYBEAN OIL, EGGS, DEXTROSE, MODIFIED CORNSTARCH, BROWN SUGAR, WHEY (MILK), FRUCTOSE, GLYCERIN, LEAVENING (BAKING SODA, SODIUM PHOSPHATE, SODIUM ACID PYROPHOSPHATE, MONOCALCIUM PHOSPHATE), NATURAL & ARTIFICIAL FLAVORS, CINNAMON, CANOLA OIL, WHEAT STARCH, MONO- AND DIGLYCERIDES, SALT, CORN FLOUR, XANTHAN GUM, WHEY PROTEIN CONCENTRATE, SOY LECITHIN, SODIUM STEAROYL LACTYLATE, POTASSIUM SORBATE (PRESERVATIVE), SORBITAN MONOSTEARATE, CARAMEL COLOR, POLYSORBATE 60, CELLULOSE GUM, RED 40 LAKE, CALCIUM SULFATE, CALCIUM PHOSPHATE, CORNSTARCH." Date available: 07/14/2017 Date last updated by company: 07/14/2017
