Source: USDA Branded Food Products Database Release December 2017 Software v.3.8.6.4 2017-10-02
Report Run at: December 18, 2017 02:23 EST
"Nutrient data for: 45152894, SNOWFUN COOKIES & CREAMS, UPC: 087724003944"
Food Group:  Branded Food Products Database
Common Name:

Nutrient,Unit,Data points,Std. Error,"8.0 PIECES = 41.0g",1Value per 100 g,
Proximates
"Energy",kcal,--,--,220,537
"Protein",g,--,--,2.00,4.88
"Total lipid (fat)",g,--,--,12.00,29.27
"Carbohydrate, by difference",g,--,--,26.00,63.41
"Sugars, total",g,--,--,25.00,60.98
Minerals
"Calcium, Ca",mg,--,--,80,195
"Iron, Fe",mg,--,--,0.00,0.00
"Sodium, Na",mg,--,--,45,110
Vitamins
"Vitamin C, total ascorbic acid",mg,--,--,0.0,0.0
"Vitamin A, IU",IU,--,--,0,0
Lipids
"Fatty acids, total trans",g,--,--,0.000,0.000
Amino Acids
Other
Ingredients
"SUGAR, HYDROGENATED VEGETABLE OIL (PALM KERNEL AND/OR PALM), WHEY, SKIM MILK, WHOLE MILK, COOKIES (MADE FROM BLEACHED WHEAT FLOUR, SUGAR, COCOA (PROCESSED WITH ALKALI), PALM OIL, CORN SYRUP, CORN FLOUR, SOY LECITHIN, BAKING SODA, SALT, NATURAL AND ARTIFICIAL FLAVORS), LACTOSE, SOY LECITHIN (EMULSIFIER), VANILLIN (ARTIFICIAL FLAVOR)." Date available: 07/14/2017 Date last updated by company: 07/14/2017
