Source: USDA Branded Food Products Database Release December 2017 Software v.3.8.6.4 2017-10-02
Report Run at: December 18, 2017 02:22 EST
"Nutrient data for: 45185217, SNOW CRAB LEGS, UPC: 731149115750"
Food Group:  Branded Food Products Database
Common Name:

Nutrient,Unit,Data points,Std. Error,"3.0 ONZ = 85.0g",1Value per 100 g,
Proximates
"Energy",kcal,--,--,70,82
"Protein",g,--,--,15.00,17.65
"Total lipid (fat)",g,--,--,0.50,0.59
"Carbohydrate, by difference",g,--,--,0.00,0.00
"Fiber, total dietary",g,--,--,0.0,0.0
"Sugars, total",g,--,--,0.00,0.00
Minerals
"Calcium, Ca",mg,--,--,40,47
"Iron, Fe",mg,--,--,0.36,0.42
"Sodium, Na",mg,--,--,650,765
Vitamins
"Vitamin C, total ascorbic acid",mg,--,--,0.0,0.0
"Vitamin A, IU",IU,--,--,0,0
Lipids
"Fatty acids, total saturated",g,--,--,0.000,0.000
"Fatty acids, total trans",g,--,--,0.000,0.000
"Cholesterol",mg,--,--,55,65
Amino Acids
Other
Ingredients
"SNOW CRAB, SALT CONTAINS SNOW CRAB (CRUSTACEAN SHELLFISH)." Date available: 07/14/2017 Date last updated by company: 07/14/2017
