Source: USDA Branded Food Products Database Release December 2017 Software v.3.8.6.4 2017-10-02
Report Run at: December 18, 2017 02:23 EST
"Nutrient data for: 45223227, SNOW'S, BUMBLE BEE, CORN CHOWDER CONDENSED, UPC: 798525160124"
Food Group:  Branded Food Products Database
Common Name:

Nutrient,Unit,Data points,Std. Error,"0.5 cup = 126.0g",1Value per 100 g,
Proximates
"Energy",kcal,--,--,89,71
"Protein",g,--,--,1.00,0.79
"Total lipid (fat)",g,--,--,2.00,1.59
"Carbohydrate, by difference",g,--,--,18.01,14.29
"Fiber, total dietary",g,--,--,2.0,1.6
"Sugars, total",g,--,--,3.00,2.38
Minerals
"Calcium, Ca",mg,--,--,0,0
"Iron, Fe",mg,--,--,0.00,0.00
"Sodium, Na",mg,--,--,600,476
Vitamins
"Vitamin C, total ascorbic acid",mg,--,--,2.4,1.9
"Vitamin A, IU",IU,--,--,0,0
Lipids
"Fatty acids, total saturated",g,--,--,0.000,0.000
"Fatty acids, total trans",g,--,--,0.000,0.000
"Cholesterol",mg,--,--,0,0
Amino Acids
Other
Ingredients
"WATER, CORN, DEHYDRATED POTATOES, MODIFIED CORN STARCH, PARTIALLY HYDROGENATED VEGETABLE OIL (SOYBEAN AND/OR COTTONSEED), SALT, SUGAR, DEHYDRATED ONION, MONOSODIUM GLUTAMATE (FLAVOR ENHANCER), NATURAL FLAVORINGS, DISODIUM GUANYLATE AND DISODIUM INOSINATE (FLAVOR ENHANCERS) AND ARTIFICIAL COLORING." Date available: 07/14/2017 Date last updated by company: 07/14/2017
