Source: USDA Branded Food Products Database Release December 2017 Software v.3.8.6.4 2017-10-02
Report Run at: December 18, 2017 02:32 EST
"Nutrient data for: 45183275, SO-CHEEZY, SHELLS & CHEDDAR DELUXE DINNER, BACON, UPC: 051933533288"
Food Group:  Branded Food Products Database
Common Name:

Nutrient,Unit,Data points,Std. Error,"0.2 BOX) MAKES ABOUT 1 CUP PREPARED | (ABOUT = 112.0g",1Value per 100 g,
Proximates
"Energy",kcal,--,--,370,330
"Protein",g,--,--,12.00,10.71
"Total lipid (fat)",g,--,--,15.00,13.39
"Carbohydrate, by difference",g,--,--,48.00,42.86
"Fiber, total dietary",g,--,--,2.0,1.8
"Sugars, total",g,--,--,6.00,5.36
Minerals
"Calcium, Ca",mg,--,--,150,134
"Iron, Fe",mg,--,--,4.02,3.59
"Sodium, Na",mg,--,--,1120,1000
Vitamins
"Vitamin C, total ascorbic acid",mg,--,--,0.0,0.0
"Vitamin A, IU",IU,--,--,0,0
Lipids
"Fatty acids, total saturated",g,--,--,4.502,4.020
"Fatty acids, total trans",g,--,--,0.000,0.000
"Cholesterol",mg,--,--,15,13
Amino Acids
Other
Ingredients
"CHEESE SAUCE (WATER, CHEDDAR CHEESE [PASTEURIZED MILK, CHEESE CULTURE, SALT, ENZYMES], SOYBEAN OIL, WHEY, NATURAL FLAVORS, BACON BITS [BACON (CURED WITH WATER, SALT, SODIUM ERYTHORBATE, SODIUM NITRATE), SMOKE FLAVOR, SUGAR, DEXTROSE, BROWN SUGAR, SODIUM PHOSPHATE, POTASSIUM CHLORIDE, NATURAL FLAVOR], MALTODEXTRIN, NONFAT DRY MILK, SODIUM PHOSPHATE, SALT, COLOR ADDED [BETA CAROTENE, PAPRIKA EXTRACT], LACTIC ACID, SODIUM ALGINATE MONO AND DIGLYCERIDES, XANTHAN GUM, SORBIC ACID), ENRICHED MACARONI PRODUCT (WHEAT FLOUR, NIACIN, FERROUS SULFATE, THIAMIN MONO-NITRATE, RIBOFLAVIN, FOLIC ACID)." Date available: 07/14/2017 Date last updated by company: 07/14/2017
