Source: USDA Branded Food Products Database Release December 2017 Software v.3.8.6.4 2017-10-02
Report Run at: December 18, 2017 02:32 EST
"Nutrient data for: 45174855, SO-CHEEZY, CHEESE DIP, UPC: 051933342378"
Food Group:  Branded Food Products Database
Common Name:

Nutrient,Unit,Data points,Std. Error,"2.0 Tbsp = 32.0g",1Value per 100 g,
Proximates
"Energy",kcal,--,--,90,281
"Protein",g,--,--,3.00,9.38
"Total lipid (fat)",g,--,--,7.00,21.88
"Carbohydrate, by difference",g,--,--,4.00,12.50
"Fiber, total dietary",g,--,--,0.3,0.8
"Sugars, total",g,--,--,2.00,6.25
Minerals
"Calcium, Ca",mg,--,--,80,250
"Iron, Fe",mg,--,--,0.00,0.00
"Sodium, Na",mg,--,--,440,1375
Vitamins
"Vitamin C, total ascorbic acid",mg,--,--,0.0,0.0
"Vitamin A, IU",IU,--,--,0,0
Lipids
"Fatty acids, total saturated",g,--,--,1.501,4.690
"Fatty acids, total trans",g,--,--,0.000,0.000
"Cholesterol",mg,--,--,4,12
Amino Acids
Other
Ingredients
"WATER, SOYBEAN OIL, MILK, WHEY, SODIUM PHOSPHATE, MILK PROTEIN CONCENTRATE, CONTAINS LESS THAN 2% OF MALTODEXTRIN, SALT, WHEY PROTEIN CONCENTRATE, SODIUM ALGINATE, LACTIC ACID, MUSTARD FLOUR, NATURAL FLAVOR, WORCESTERSHIRE SAUCE (VINEGAR, MOLASSES, CORN SYRUP, WATER, SALT, CARAMEL COLOR, GARLIC POWDER, SUGAR, SPICES, TAMARIND, NATURAL FLAVOR), SORBIC ACID (PRESERVATIVE), ARTIFICIAL COLOR (YELLOW #5 AND YELLOW #6), CHEESE CULTURES, AND ENZYMES." Date available: 07/14/2017 Date last updated by company: 07/14/2017
