Source: USDA Branded Food Products Database Release December 2017 Software v.3.8.6.4 2017-10-02
Report Run at: December 18, 2017 02:44 EST
"Nutrient data for: 45110876, SO DELICIOUS, DAIRY FREE, COCONUT MILK NON DAIRY FROZEN DESSERT, CHOCOLATE PEANUT BUTTER SWIRL, UPC: 744473470624"
Food Group:  Branded Food Products Database
Common Name:

Nutrient,Unit,Data points,Std. Error,"0.5 cup = 85.0g",1Value per 100 g,
Proximates
"Energy",kcal,--,--,200,235
"Protein",g,--,--,3.00,3.53
"Total lipid (fat)",g,--,--,14.00,16.47
"Carbohydrate, by difference",g,--,--,22.00,25.88
"Fiber, total dietary",g,--,--,7.0,8.2
"Sugars, total",g,--,--,15.00,17.65
Minerals
"Calcium, Ca",mg,--,--,20,24
"Iron, Fe",mg,--,--,2.54,2.99
"Sodium, Na",mg,--,--,50,59
Vitamins
"Vitamin C, total ascorbic acid",mg,--,--,0.0,0.0
"Vitamin A, IU",IU,--,--,0,0
Lipids
"Fatty acids, total saturated",g,--,--,7.998,9.410
"Fatty acids, total trans",g,--,--,0.000,0.000
"Cholesterol",mg,--,--,0,0
Amino Acids
Other
Ingredients
"ORGANIC COCONUT MILK (WATER, ORGANIC COCONUT CREAM), ORGANIC DRIED CANE SYRUP, PEANUT BUTTER (PEANUTS, PEANUT OIL, ORGANIC INVERT CANE SUGAR), CHOCOLATE FLAKE (CANE SUGAR, COCONUT OIL, COCOA PROCESSED WITH ALKALI, CHOCOLATE LIQUOR, VANILLA), INULIN, COCOA PROCESSES WITH ALKALI, CAROB BEAN GUM, GUAR GUM, NATURAL FLAVOR." Date available: 07/14/2017 Date last updated by company: 07/14/2017
