Source: USDA Branded Food Products Database Release December 2017 Software v.3.8.6.4 2017-10-02
Report Run at: December 18, 2017 02:33 EST
"Nutrient data for: 45260123, SODA CAKE, UPC: 851330005315"
Food Group:  Branded Food Products Database
Common Name:

Nutrient,Unit,Data points,Std. Error,"0.071 CAKE = 56.0g",1Value per 100 g,
Proximates
"Energy",kcal,--,--,210,375
"Protein",g,--,--,2.00,3.57
"Total lipid (fat)",g,--,--,11.00,19.64
"Carbohydrate, by difference",g,--,--,25.00,44.64
"Fiber, total dietary",g,--,--,1.0,1.8
"Sugars, total",g,--,--,16.00,28.57
Minerals
"Calcium, Ca",mg,--,--,100,179
"Iron, Fe",mg,--,--,1.54,2.75
"Sodium, Na",mg,--,--,230,411
Vitamins
"Vitamin C, total ascorbic acid",mg,--,--,0.0,0.0
"Vitamin A, IU",IU,--,--,143,255
Lipids
"Fatty acids, total saturated",g,--,--,1.999,3.570
"Fatty acids, total trans",g,--,--,0.000,0.000
"Cholesterol",mg,--,--,40,71
Amino Acids
Other
Ingredients
"SUGAR, ENRICHED WHEAT FLOUR BLEACHED (FLOUR, NIACIN, REDUCED IRON, THIAMIN MONONITRATE, RIBOFLAVIN, FOLIC ACID), EGGS, WATER, SOYBEAN OIL, MODIFIED FOOD STARCH, PARTIALLY HYDROGENATED VEGETABLE OIL (SOYBEAN AND/OR COTTONSEED OIL), DRY WHEY, CITRIC ACID, PROPYLENE GLYCOL MONO & DIESTERS WITH BHT & CITRIC ACID (PRESERVATIVES), LEAVENING (BAKING SODA, SODIUM ACID PYROPHOSPHATE, SODIUM ALUMINUM PHOSPHATE), VITAL WHEAT GLUTEN, SALT, CONTAINS 2% OR LESS OF: CORN OIL, BUTTER, CALCIUM ACETATE, SOY FLOUR, CALCIUM SILICATE, MONO & DIGLYCERIDES, CORN STARCH, SORBITAN MONOSTEARATE, SODIUM STEARYL LACTELATE, NONFAT MILK SOLIDS, DEXTROSE, CALCIUM PROPIONATE, SODIUM CITRATE, &SODIUM BENZOATE (PRESERVATIVES), GUAR GUM, XANTHAN GUM, POLYSORBATE 60, SOY LECITHIN, NATURAL & ARTIFICIAL FLAVOR, WHEAT STARCH, CALCIUM CARBONATE, AGAR, BETA CAROTENE (COLOR), ARTIFICIAL COLOR (YELLOW 5 & 6)." Date available: 10/10/2017 Date last updated by company: 10/10/2017
