Source: USDA Branded Food Products Database Release December 2017 Software v.3.8.6.4 2017-10-02
Report Run at: December 18, 2017 02:42 EST
"Nutrient data for: 45327061, SODA, UPC: 793674830331"
Food Group:  Branded Food Products Database
Common Name:

Nutrient,Unit,Data points,Std. Error,"8.0 OZA = 240.0g",1Value per 100 g,
Proximates
"Energy",kcal,--,--,103,43
"Protein",g,--,--,0.00,0.00
"Total lipid (fat)",g,--,--,0.00,0.00
"Carbohydrate, by difference",g,--,--,25.01,10.42
"Sugars, total",g,--,--,25.01,10.42
Minerals
"Sodium, Na",mg,--,--,22,9
Vitamins
Lipids
"Fatty acids, total trans",g,--,--,0.000,0.000
Amino Acids
Other
Ingredients
"CARBONATED WATER, HIGH FRUCTOSE CORN SYRUP, CITRIC ACID, SODIUM BENZOATE (AS PRESERVATIVE), SUCRALOSE, FD&C RED #40, LEMON JUICE, NATURAL AND ARTIFICIAL FLAVORS." Date available: 10/13/2017 Date last updated by company: 10/13/2017
