Source: USDA Branded Food Products Database Release December 2017 Software v.3.8.6.4 2017-10-02
Report Run at: December 18, 2017 02:40 EST
"Nutrient data for: 45261415, SODA, UPC: 012000509278"
Food Group:  Branded Food Products Database
Common Name:

Nutrient,Unit,Data points,Std. Error,"1 CAN = 473.0g",1Value per 100 g,
Proximates
"Energy",kcal,--,--,5,1
"Protein",g,--,--,0.00,0.00
"Total lipid (fat)",g,--,--,0.00,0.00
"Carbohydrate, by difference",g,--,--,0.99,0.21
"Sugars, total",g,--,--,0.00,0.00
Minerals
"Sodium, Na",mg,--,--,71,15
Vitamins
Lipids
Amino Acids
Other
Ingredients
"CARBONATED WATER, CONCENTRATED ORANGE JUICE, CITRIC ACID, NATURAL FLAVOR, CITRUS PECTIN, POTASSIUM BENZOATE (PRESERVES FRESHNESS), ASPARTAME, POTASSIUM CITRATE, CAFFEINE, SODIUM CITRATE, ACESULFAME POTASSIUM, SUCRALOSE, GUM ARABIC, SODIUM, BENZOATE (PRESERVES FRESHNESS), CALCIUM DISODIUM EDTA (TO PROTECT FLAVOR), BROMINATED VEGETABLE OIL, YELLOW 5." Date available: 02/16/2017 Date last updated by company: 02/16/2017
