Source: USDA Branded Food Products Database Release December 2017 Software v.3.8.6.4 2017-10-02
Report Run at: December 18, 2017 02:39 EST
"Nutrient data for: 45240990, SODA, UPC: 04235228"
Food Group:  Branded Food Products Database
Common Name:

Nutrient,Unit,Data points,Std. Error,"8.0 OZA = 240.0g",1Value per 100 g,
Proximates
"Energy",kcal,--,--,79,33
"Protein",g,--,--,0.00,0.00
"Total lipid (fat)",g,--,--,0.00,0.00
"Carbohydrate, by difference",g,--,--,19.99,8.33
"Sugars, total",g,--,--,19.99,8.33
Minerals
"Sodium, Na",mg,--,--,24,10
Vitamins
"Vitamin C, total ascorbic acid",mg,--,--,9.1,3.8
Lipids
Amino Acids
Other
Ingredients
"CARBONATED WATER, HIGH FRUCTOSE CORN SYRUP, CITRIC ACID, POTASSIUM CITRATE, POTASSIUM BENZOATE (PRESERVATIVE), VITAMIN C (ASCORBIC ACID), CALCIUM DISODIUM EDTA, NATURAL FLAVOR, SUCRALOSE." Date available: 10/13/2017 Date last updated by company: 10/13/2017
