Source: USDA Branded Food Products Database Release December 2017 Software v.3.8.6.4 2017-10-02
Report Run at: December 18, 2017 02:36 EST
"Nutrient data for: 45147557, SODA, UPC: 061500015512"
Food Group:  Branded Food Products Database
Common Name:

Nutrient,Unit,Data points,Std. Error,"8.0 OZA = 240.0g",1Value per 100 g,
Proximates
"Energy",kcal,--,--,60,25
"Protein",g,--,--,0.00,0.00
"Total lipid (fat)",g,--,--,0.00,0.00
"Carbohydrate, by difference",g,--,--,15.00,6.25
"Sugars, total",g,--,--,15.00,6.25
Minerals
"Sodium, Na",mg,--,--,24,10
Vitamins
Lipids
Amino Acids
Other
Ingredients
"CARBONATED WATER, HIGH FRUCTOSE CORN SYRUP, CITRIC ACID, POTASSIUM CITRATE, POTASSIUM BENZOATE (PRESERVATIVE), GUM ACACIA, NATURAL AND ARTIFICIAL FLAVOR, ASPARTAME, ACESULFAME POTASSIUM, ESTER GUM, RED 40, BROMINATED VEGETABLE OIL, CARAMEL COLOR, YELLOW 6." Date available: 07/14/2017 Date last updated by company: 07/14/2017
