Source: USDA Branded Food Products Database Release December 2017 Software v.3.8.6.4 2017-10-02
Report Run at: December 18, 2017 02:35 EST
"Nutrient data for: 45105972, SODA, UPC: 095301133861"
Food Group:  Branded Food Products Database
Common Name:

Nutrient,Unit,Data points,Std. Error,"12.0 ONZ = 340.0g",1Value per 100 g,
Proximates
"Energy",kcal,--,--,119,35
"Protein",g,--,--,0.00,0.00
"Total lipid (fat)",g,--,--,0.00,0.00
"Carbohydrate, by difference",g,--,--,29.00,8.53
"Fiber, total dietary",g,--,--,0.0,0.0
"Sugars, total",g,--,--,28.02,8.24
Minerals
"Calcium, Ca",mg,--,--,20,6
"Iron, Fe",mg,--,--,0.00,0.00
"Sodium, Na",mg,--,--,34,10
Vitamins
"Vitamin C, total ascorbic acid",mg,--,--,0.0,0.0
"Vitamin A, IU",IU,--,--,0,0
Lipids
"Fatty acids, total saturated",g,--,--,0.000,0.000
"Fatty acids, total trans",g,--,--,0.000,0.000
"Cholesterol",mg,--,--,0,0
Amino Acids
Other
Ingredients
"WATER, CANE SUGAR, ROGUE FARMS HONEY, WILD FLOWER HONEY, LEMON LIME FLAVOR, CUCUMBER FLAVOR, ROGUE FARMS CUCUMBERS, SODIUM BENZOATE & CITRIC ACID." Date available: 09/01/2017 Date last updated by company: 09/01/2017
