Source: USDA Branded Food Products Database Release December 2017 Software v.3.8.6.4 2017-10-02
Report Run at: December 18, 2017 02:36 EST
"Nutrient data for: 45145657, SODA, UPC: 746742290742"
Food Group:  Branded Food Products Database
Common Name:

Nutrient,Unit,Data points,Std. Error,"8.0 OZA = 592.0g",1Value per 100 g,
Proximates
"Energy",kcal,--,--,101,17
"Protein",g,--,--,0.00,0.00
"Total lipid (fat)",g,--,--,0.00,0.00
"Carbohydrate, by difference",g,--,--,27.00,4.56
"Sugars, total",g,--,--,27.00,4.56
Minerals
"Sodium, Na",mg,--,--,59,10
Vitamins
Lipids
Amino Acids
Other
Ingredients
"TRIPLE FILTERED CARBONATED WATER, HIGH FRUCTOSE CORN SYRUP, CITRIC ACID, ARTIFICIAL FLAVOR, CARAMEL COLOR, RED #40, SODIUM BENZOATE AS A PRESERVATIVE." Date available: 08/11/2017 Date last updated by company: 08/11/2017
