Source: USDA Branded Food Products Database Release December 2017 Software v.3.8.6.4 2017-10-02
Report Run at: December 18, 2017 02:33 EST
"Nutrient data for: 45226320, SODA POP, UPC: 686464485005"
Food Group:  Branded Food Products Database
Common Name:

Nutrient,Unit,Data points,Std. Error,"7.0 GRM = 7.0g",1Value per 100 g,
Proximates
"Energy",kcal,--,--,25,357
"Protein",g,--,--,0.00,0.00
"Total lipid (fat)",g,--,--,0.00,0.00
"Carbohydrate, by difference",g,--,--,6.00,85.71
"Sugars, total",g,--,--,6.00,85.71
Minerals
"Sodium, Na",mg,--,--,70,1000
Vitamins
Lipids
Amino Acids
Other
Ingredients
"DEXTROSE, CORN SYRUP, GUM ARABIC, GLYCERINE MONOSTEARATE, CITRIC ACID, MAGNESIUM STEARATE, SODIUM BICARBONATE, ARTIFICIAL FLAVORS & COLORS & CARAMEL COLOR (FD&C YELLOW 6, RED 3, BLUE 1)." Date available: 07/14/2017 Date last updated by company: 07/14/2017
