Source: USDA Branded Food Products Database Release December 2017 Software v.3.8.6.4 2017-10-02
Report Run at: December 18, 2017 02:34 EST
"Nutrient data for: 45161410, SODASTREAM, SPARKLING DRINK MIX, LEMON-GINGER, UPC: 811572024277"
Food Group:  Branded Food Products Database
Common Name:

Nutrient,Unit,Data points,Std. Error,"8.0 FL OZ (240ML) | MAKES = 12.0g",1Value per 100 g,
Proximates
"Energy",kcal,--,--,40,333
"Protein",g,--,--,0.00,0.00
"Total lipid (fat)",g,--,--,0.00,0.00
"Carbohydrate, by difference",g,--,--,10.00,83.33
"Sugars, total",g,--,--,10.00,83.33
Minerals
"Sodium, Na",mg,--,--,0,0
Vitamins
Lipids
Amino Acids
Other
Ingredients
"FRUCTOSE, WATER, CITRIC ACID, NATURAL FLAVORS, BURNT SUGAR SYRUP" Date available: 07/14/2017 Date last updated by company: 07/14/2017
