Source: USDA Branded Food Products Database Release December 2017 Software v.3.8.6.4 2017-10-02
Report Run at: December 18, 2017 02:36 EST
"Nutrient data for: 45144195, SODA, UPC: 078400002009"
Food Group:  Branded Food Products Database
Common Name:

Nutrient,Unit,Data points,Std. Error,"8.0 OZA = 240.0g",1Value per 100 g,
Proximates
"Energy",kcal,--,--,120,50
"Protein",g,--,--,0.00,0.00
"Total lipid (fat)",g,--,--,0.00,0.00
"Carbohydrate, by difference",g,--,--,31.01,12.92
"Sugars, total",g,--,--,30.00,12.50
Minerals
"Sodium, Na",mg,--,--,46,19
Vitamins
Lipids
Amino Acids
Other
Ingredients
"CARBONATED WATER, HIGH FRUCTOSE CORN SYRUP, CITRIC ACID, SODIUM BENZOATE (PRESERVATIVE), NATURAL AND ARTIFICIAL FLAVORS, RED 40, BLUE 1." Date available: 07/14/2017 Date last updated by company: 07/14/2017
