Source: USDA Branded Food Products Database Release December 2017 Software v.3.8.6.4 2017-10-02
Report Run at: December 18, 2017 02:46 EST
"Nutrient data for: 45210268, SOFIA THE FIRST MILK CHOCOLATE HEARTS, UPC: 768395487270"
Food Group:  Branded Food Products Database
Common Name:

Nutrient,Unit,Data points,Std. Error,"7.0 PIECES = 42.0g",1Value per 100 g,
Proximates
"Energy",kcal,--,--,220,524
"Protein",g,--,--,2.00,4.76
"Total lipid (fat)",g,--,--,12.00,28.57
"Carbohydrate, by difference",g,--,--,27.00,64.29
"Fiber, total dietary",g,--,--,1.0,2.4
"Sugars, total",g,--,--,26.00,61.90
Minerals
"Calcium, Ca",mg,--,--,60,143
"Iron, Fe",mg,--,--,0.86,2.04
"Sodium, Na",mg,--,--,20,48
Vitamins
"Vitamin C, total ascorbic acid",mg,--,--,0.0,0.0
"Vitamin A, IU",IU,--,--,0,0
Lipids
"Fatty acids, total saturated",g,--,--,7.001,16.670
"Fatty acids, total trans",g,--,--,0.000,0.000
"Cholesterol",mg,--,--,5,12
Amino Acids
Other
Ingredients
"SUGAR, COCOA BUTTER, NONFAT DRY MILK, CHOCOLATE LIQUOR, MILK FAT, SOY LECITHIN, PGPR, NATURAL VANILLA FLAVOR." Date available: 07/14/2017 Date last updated by company: 07/14/2017
