Source: USDA Branded Food Products Database Release December 2017 Software v.3.8.6.4 2017-10-02
Report Run at: December 18, 2017 02:55 EST
"Nutrient data for: 45197079, SOFT PASTRY WITH HONEY SWIRLS AND SWEET ICING, UPC: 052548562052"
Food Group:  Branded Food Products Database
Common Name:

Nutrient,Unit,Data points,Std. Error,"1 HONEY BUN = 170.0g",1Value per 100 g,
Proximates
"Energy",kcal,--,--,670,394
"Protein",g,--,--,8.99,5.29
"Total lipid (fat)",g,--,--,29.00,17.06
"Carbohydrate, by difference",g,--,--,93.01,54.71
"Fiber, total dietary",g,--,--,2.0,1.2
"Sugars, total",g,--,--,50.00,29.41
Minerals
"Calcium, Ca",mg,--,--,150,88
"Iron, Fe",mg,--,--,1.99,1.17
"Sodium, Na",mg,--,--,450,265
Vitamins
"Vitamin C, total ascorbic acid",mg,--,--,0.0,0.0
"Vitamin A, IU",IU,--,--,0,0
Lipids
"Fatty acids, total saturated",g,--,--,10.999,6.470
"Fatty acids, total trans",g,--,--,0.000,0.000
"Cholesterol",mg,--,--,0,0
Amino Acids
Other
Ingredients
"ENRICHED BLEACHED WHEAT FLOUR (BLEACHED FLOUR, MALTED BARLEY FLOUR, NIACIN, REDUCED IRON, THIAMIN MONONITRATE, RIBOFLAVIN, FOLIC ACID), SUGAR, VEGETABLE OIL, (CONTAINS ONE OR MORE OF THE FOLLOWING OILS: COTTONSEED OIL, PALM OIL, SOYBEAN OIL), WATER, HIGH FRUCTOSE CORN SYRUP, CONTAINS 2% OR LESS OF THE FOLLOWING: YEAST, SOY FLOUR, DEXTROSE, HONEY, MONO- AND DIGLYCERIDES, WHEY, WHEAT STARCH, SALT, VITAL WHEAT GLUTEN, YELLOW CORN FLOUR, NONFAT MILK, AGAR, LEAVENING (SODIUM ACID PYROPHOSPHATE, BAKING SODA), PRESERVATIVES (CALCIUM PROPIONATE, POTASSIUM SORBATE, SODIUM BENZOATE, METHYL AND PROPYL PARABENS), SPICES, ARTIFICIAL COLOR, SODIUM STEAROYL LACTYLATE, DATEM, GUAR GUM, NATURAL AND ARTIFICIAL FLAVOR, YEAST NUTRIENTS (CALCIUM CARBONATE, AMMONIUM SULFATE AND/OR AMMONIUM CHLORIDE, CORNSTARCH, AND CALCIUM SULFATE), XANTHAN GUM, ASCORBIC ACID, ENZYMES, COLORED WITH EXTRACTS OF ANNATTO AND TURMERIC, L-CYSTEINE, EGGS." Date available: 07/14/2017 Date last updated by company: 07/14/2017
