Source: USDA Branded Food Products Database Release December 2017 Software v.3.8.6.4 2017-10-02
Report Run at: December 18, 2017 02:49 EST
"Nutrient data for: 45265946, SOFT & CHEWY CANDY, UPC: 041420026225"
Food Group:  Branded Food Products Database
Common Name:

Nutrient,Unit,Data points,Std. Error,"14.0 PIECES = 39.0g",1Value per 100 g,
Proximates
"Energy",kcal,--,--,130,333
"Protein",g,--,--,0.00,0.00
"Total lipid (fat)",g,--,--,0.00,0.00
"Carbohydrate, by difference",g,--,--,33.00,84.62
"Sugars, total",g,--,--,20.00,51.28
Minerals
"Sodium, Na",mg,--,--,0,0
Vitamins
Lipids
Amino Acids
Other
Ingredients
"ORGANIC TAPIOCA SYRUP, ORGANIC CANE SUGAR, ORGANIC POTATO STARCH, ORGANIC LEMON JUICE CONCENTRATE, CORNSTARCH, CITRIC ACID, NATURAL FLAVORS, COLORS (BLACK CARROT JUICE, CARROT JUICE, TURMERIC)." Date available: 07/14/2017 Date last updated by company: 07/14/2017
