Source: USDA Branded Food Products Database Release December 2017 Software v.3.8.6.4 2017-10-02
Report Run at: December 18, 2017 02:57 EST
"Nutrient data for: 45283705, SOFT SNACK WITH BILBERRIES MIX, UPC: 8057737400087"
Food Group:  Branded Food Products Database
Common Name:

Nutrient,Unit,Data points,Std. Error,"1 BAR = 30.0g",1Value per 100 g,
Proximates
"Energy",kcal,--,--,60,200
"Protein",g,--,--,0.00,0.00
"Total lipid (fat)",g,--,--,0.00,0.00
"Carbohydrate, by difference",g,--,--,13.00,43.33
"Fiber, total dietary",g,--,--,2.0,6.7
"Sugars, total",g,--,--,12.00,40.00
Minerals
"Calcium, Ca",mg,--,--,10,33
"Iron, Fe",mg,--,--,0.24,0.80
"Sodium, Na",mg,--,--,15,50
Vitamins
"Vitamin C, total ascorbic acid",mg,--,--,0.0,0.0
"Vitamin A, IU",IU,--,--,0,0
Lipids
"Fatty acids, total saturated",g,--,--,0.000,0.000
"Fatty acids, total trans",g,--,--,0.000,0.000
"Cholesterol",mg,--,--,0,0
Amino Acids
Other
Ingredients
"INGREDIENTS*: DEHYDRATED APPLE 60%, RED BILBERRIES WITH RASPBERRY 25% (RED BILBERRY, SACCHAROSE, ELDERBERRY JUICE, RASPBERRY NATURAL FLAVOUR), APPLE JUICE, APPLE PUREE, DRIED LEMON." Date available: 07/14/2017 Date last updated by company: 07/14/2017
