Source: USDA Branded Food Products Database Release December 2017 Software v.3.8.6.4 2017-10-02
Report Run at: December 18, 2017 02:58 EST
"Nutrient data for: 45041902, SOFT TACO FLOUR TORTILLAS, UPC: 048564071043"
Food Group:  Branded Food Products Database
Common Name:

Nutrient,Unit,Data points,Std. Error,"1 TORTILLA = 41.0g",1Value per 100 g,
Proximates
"Energy",kcal,--,--,130,317
"Protein",g,--,--,3.00,7.32
"Total lipid (fat)",g,--,--,3.50,8.54
"Carbohydrate, by difference",g,--,--,20.00,48.78
"Fiber, total dietary",g,--,--,0.0,0.0
"Sugars, total",g,--,--,0.00,0.00
Minerals
"Calcium, Ca",mg,--,--,80,195
"Iron, Fe",mg,--,--,1.45,3.53
"Sodium, Na",mg,--,--,270,659
Vitamins
"Vitamin C, total ascorbic acid",mg,--,--,0.0,0.0
"Vitamin A, IU",IU,--,--,0,0
Lipids
"Fatty acids, total saturated",g,--,--,1.000,2.440
"Fatty acids, total monounsaturated",g,--,--,0.500,1.220
"Fatty acids, total polyunsaturated",g,--,--,1.501,3.660
"Fatty acids, total trans",g,--,--,0.000,0.000
"Cholesterol",mg,--,--,0,0
Amino Acids
Other
Ingredients
"ENRICHED BLEACHED FLOUR (FLOUR, NIACIN, REDUCED IRON, THIAMINE MONONITRATE, RIBOFLAVIN, FOLIC ACID), WATER, SHORTENING AND MARGARINE BLEND (INTERESTERIFIED SOYBEAN OIL, HYDROGENATED SOYBEAN AND/OR COTTONSEED OILS, MONO- AND DIGLYCERIDES, SOY LECITHIN, ARTIFICIAL FLAVOR, BETA-CAROTENE [COLOR], VITAMIN A PALMITATE), CONTAINS 2% OR LESS OF: SALT, BAKING SODA, SODIUM ACID PYROPHOSPHATE, YEAST, MOLASSES, FUMARIC ACID, AND CALCIUM PROPIONATE AND SORBIC ACID (TO MAINTAIN FRESHNESS)." Date available: 07/14/2017 Date last updated by company: 07/14/2017
