Source: USDA Branded Food Products Database Release December 2017 Software v.3.8.6.4 2017-10-02
Report Run at: December 18, 2017 02:49 EST
"Nutrient data for: 45229921, SOFT & CHEWY CANDY, UPC: 073390009168"
Food Group:  Branded Food Products Database
Common Name:

Nutrient,Unit,Data points,Std. Error,"1 BAG = 57.0g",1Value per 100 g,
Proximates
"Energy",kcal,--,--,210,368
"Protein",g,--,--,0.00,0.00
"Total lipid (fat)",g,--,--,0.00,0.00
"Carbohydrate, by difference",g,--,--,49.00,85.96
"Sugars, total",g,--,--,37.00,64.91
Minerals
"Sodium, Na",mg,--,--,25,44
Vitamins
Lipids
Amino Acids
Other
Ingredients
"SUGAR, GLUCOSE SYRUP, HIGH FRUCTOSE CORN SYRUP, CORN STARCH, MALIC ACID, FOOD STARCH - MODIFIED (POTATO); CONTAINS LESS THAN 2% OF: CITRIC ACID, DEXTROSE, LACTIC ACID, GELATIN, SODIUM MALATES, YELLOW 6, YELLOW 5, BLUE 1, RED 40, ARTIFICIAL FLAVOR, HYDROGENATED PALM OIL, ARTIFICIAL COLOR, SORBITOL SYRUP, GLYCEROL, FUMARIC ACID, SALT." Date available: 07/14/2017 Date last updated by company: 07/14/2017
