Source: USDA Branded Food Products Database Release December 2017 Software v.3.8.6.4 2017-10-02
Report Run at: December 18, 2017 02:53 EST
"Nutrient data for: 45235612, SOFT HAZELNUT AND ALMOND PRALINE, UPC: 611825503180"
Food Group:  Branded Food Products Database
Common Name:

Nutrient,Unit,Data points,Std. Error,"4.0 PIECES = 42.0g",1Value per 100 g,
Proximates
"Energy",kcal,--,--,240,571
"Protein",g,--,--,3.00,7.14
"Total lipid (fat)",g,--,--,16.00,38.10
"Carbohydrate, by difference",g,--,--,20.00,47.62
"Fiber, total dietary",g,--,--,2.0,4.8
"Sugars, total",g,--,--,19.00,45.24
Minerals
"Calcium, Ca",mg,--,--,60,143
"Iron, Fe",mg,--,--,2.14,5.10
"Sodium, Na",mg,--,--,20,48
Vitamins
"Vitamin C, total ascorbic acid",mg,--,--,0.0,0.0
"Vitamin A, IU",IU,--,--,0,0
Lipids
"Fatty acids, total saturated",g,--,--,6.002,14.290
"Fatty acids, total trans",g,--,--,0.000,0.000
"Cholesterol",mg,--,--,4,10
Amino Acids
Other
Ingredients
"SUGAR, HAZELNUTS, COCOA BUTTER, COCOA PASTE, MILK POWDER, ALMONDS, LACTOSE, SKIM MILK POWDER, SOY LECITHIN, VANILLA EXTRACT, VANILLA FLAVOR, HAZELNUT FLAVOR." Date available: 06/24/2017 Date last updated by company: 06/24/2017
