Source: USDA Branded Food Products Database Release December 2017 Software v.3.8.6.4 2017-10-02
Report Run at: December 18, 2017 02:52 EST
"Nutrient data for: 45141784, SOFT EATING LIQUORICE, UPC: 045134214985"
Food Group:  Branded Food Products Database
Common Name:

Nutrient,Unit,Data points,Std. Error,"4.0 PIECES ABOUT = 40.0g",1Value per 100 g,
Proximates
"Energy",kcal,--,--,140,350
"Protein",g,--,--,1.00,2.50
"Total lipid (fat)",g,--,--,1.00,2.50
"Carbohydrate, by difference",g,--,--,31.00,77.50
"Fiber, total dietary",g,--,--,0.0,0.0
"Sugars, total",g,--,--,17.00,42.50
Minerals
"Sodium, Na",mg,--,--,70,175
Vitamins
Lipids
"Fatty acids, total saturated",g,--,--,1.000,2.500
"Fatty acids, total trans",g,--,--,0.000,0.000
"Cholesterol",mg,--,--,0,0
Amino Acids
Other
Ingredients
"GLUCOSE SYRUP (FROM WHEAT, CONTAINS SULFITES), SUGAR, WHEAT FLOUR, INVERT SUGAR, WATER, HYDROGENATED COCONUT OIL, CITRIC ACID, SODIUM CITRATE, NATURAL FLAVORS, CITRIC ACID ESTERS OF MONO-AND DIGLYCERIDES (EMULSIFIER), WHEAT FIBER, COLOR (BETA CAROTENE), POTASSIUM SORBATE (PRESERVATIVE), VEGETABLE OIL (COCONUT) AND CARNAUBA WAX (GLAZING AGENT), SALT, LIQUORICE EXTRACT." Date available: 07/14/2017 Date last updated by company: 07/14/2017
