Source: USDA Branded Food Products Database Release December 2017 Software v.3.8.6.4 2017-10-02
Report Run at: December 18, 2017 02:48 EST
"Nutrient data for: 45322756, SOFT BAKED FILLED SNACK, UPC: 044000048211"
Food Group:  Branded Food Products Database
Common Name:

Nutrient,Unit,Data points,Std. Error,"1 SOFT BAKED FILLED SNACK = 30.0g",1Value per 100 g,
Proximates
"Energy",kcal,--,--,120,400
"Protein",g,--,--,2.00,6.67
"Total lipid (fat)",g,--,--,4.50,15.00
"Carbohydrate, by difference",g,--,--,18.00,60.00
"Fiber, total dietary",g,--,--,0.0,0.0
"Sugars, total",g,--,--,9.00,30.00
Minerals
"Calcium, Ca",mg,--,--,20,67
"Iron, Fe",mg,--,--,1.20,4.00
"Potassium, K",mg,--,--,50,167
"Sodium, Na",mg,--,--,105,350
Vitamins
"Vitamin C, total ascorbic acid",mg,--,--,0.0,0.0
"Vitamin A, IU",IU,--,--,0,0
Lipids
"Fatty acids, total saturated",g,--,--,0.999,3.330
"Fatty acids, total trans",g,--,--,0.000,0.000
"Cholesterol",mg,--,--,15,50
Amino Acids
Other
Ingredients
"ENRICHED UNBLEACHED FLOUR (WHEAT FLOUR, NIACIN, REDUCED IRON, THIAMINE MONONITRATE {VITAMIN B1}, RIBOFLAVIN {VITAMIN B2}, FOLIC ACID), BLEND OF GLUCOSE SYRUP AND INVERT SUGAR, SUGAR, CANOLA OIL, SEMI-SWEET CHOCOLATE (CHOCOLATE, SUGAR, COCOA BUTTER, SOY LECITHIN, VANILLA EXTRACT, MILK), SKIM MILK, STABILIZER (GLYCEROL), EGGS, WHEAT STARCH, LEAVENING (DISODIUM PYROPHOSPHATE, BAKING SODA), EMULSIFIERS (LACTIC AND FATTY ACID ESTERS OF GLYCEROL, POLYGLYCEROL ESTERS OF FATTY ACIDS, SOY LECITHIN), SALT, COCOA POWDER, NATURAL FLAVOR." Date available: 07/20/2017 Date last updated by company: 07/20/2017
