Source: USDA Branded Food Products Database Release December 2017 Software v.3.8.6.4 2017-10-02
Report Run at: December 18, 2017 02:49 EST
"Nutrient data for: 45283827, SOFT & CHEWY BITES, UPC: 022224507530"
Food Group:  Branded Food Products Database
Common Name:

Nutrient,Unit,Data points,Std. Error,"18.0 PIECES = 40.0g",1Value per 100 g,
Proximates
"Energy",kcal,--,--,120,300
"Protein",g,--,--,1.00,2.50
"Total lipid (fat)",g,--,--,0.50,1.25
"Carbohydrate, by difference",g,--,--,29.00,72.50
"Fiber, total dietary",g,--,--,0.0,0.0
"Sugars, total",g,--,--,12.00,30.00
Minerals
"Calcium, Ca",mg,--,--,0,0
"Iron, Fe",mg,--,--,0.45,1.12
"Sodium, Na",mg,--,--,35,88
Vitamins
"Vitamin C, total ascorbic acid",mg,--,--,0.0,0.0
"Vitamin A, IU",IU,--,--,0,0
Lipids
"Fatty acids, total saturated",g,--,--,0.000,0.000
"Fatty acids, total trans",g,--,--,0.000,0.000
"Cholesterol",mg,--,--,0,0
Amino Acids
Other
Ingredients
"SUGAR, CORN SYRUP, ENRICHED WHEAT FLOUR (WHEAT, IRON, NIACIN, THIAMIN, RIBOFLAVIN & FOLIC ACID), WATER, CANE SYRUP, MODIFIED FOOD STARCH (CORN), ARTIFICIAL FLAVOR, PALM OIL, ORANGE CRUSH CONCENTRATE (WATER, ACACIA GUM, ESTER GUM, NATURAL FLAVORS, YELLOW 6, CITRIC ACID, RED 40) CITRIC ACID, TITANIUM DIOXIDE, MALIC ACID, SOY MONO & DIGLYCERIDES, POTASSIUM SORBATE, ARTIFICIAL COLOR (FD&C YELLOW NO. 5, FD&C RED NO. 40), SALT." Date available: 07/14/2017 Date last updated by company: 07/14/2017
