Source: USDA Branded Food Products Database Release December 2017 Software v.3.8.6.4 2017-10-02
Report Run at: December 18, 2017 03:02 EST
"Nutrient data for: 45237300, SOLID MILK CHOCOLATE, UPC: 076740071440"
Food Group:  Branded Food Products Database
Common Name:

Nutrient,Unit,Data points,Std. Error,"0.0 none = 57.0g",1Value per 100 g,
Proximates
"Energy",kcal,--,--,310,544
"Protein",g,--,--,4.00,7.02
"Total lipid (fat)",g,--,--,18.00,31.58
"Carbohydrate, by difference",g,--,--,33.00,57.89
"Fiber, total dietary",g,--,--,1.0,1.8
"Sugars, total",g,--,--,31.00,54.39
Minerals
"Calcium, Ca",mg,--,--,100,175
"Iron, Fe",mg,--,--,1.27,2.22
"Sodium, Na",mg,--,--,40,70
Vitamins
"Vitamin C, total ascorbic acid",mg,--,--,1.0,1.8
"Vitamin A, IU",IU,--,--,88,154
Lipids
"Fatty acids, total saturated",g,--,--,11.001,19.300
"Fatty acids, total trans",g,--,--,0.000,0.000
"Cholesterol",mg,--,--,10,18
Amino Acids
Other
Ingredients
"INGREDIENTS CONSIST OF MILK CHOCOLATE [SUGAR, WHOLE MILK, COCOA BUTTER, CHOCOLATE, SOY LECITHIN (AN EMULSIFIER), VANILLIN (AN ARTIFICIAL FLAVOR)]" Date available: 06/24/2017 Date last updated by company: 06/24/2017
