Source: USDA Branded Food Products Database Release December 2017 Software v.3.8.6.4 2017-10-02
Report Run at: December 18, 2017 03:02 EST
"Nutrient data for: 45284028, SOLID MILK CHOCOLATE SANTAS, UPC: 031290112760"
Food Group:  Branded Food Products Database
Common Name:

Nutrient,Unit,Data points,Std. Error,"6.0 PIECES = 42.0g",1Value per 100 g,
Proximates
"Energy",kcal,--,--,220,524
"Protein",g,--,--,3.00,7.14
"Total lipid (fat)",g,--,--,13.00,30.95
"Carbohydrate, by difference",g,--,--,24.00,57.14
"Fiber, total dietary",g,--,--,1.0,2.4
"Sugars, total",g,--,--,22.00,52.38
Minerals
"Calcium, Ca",mg,--,--,80,190
"Iron, Fe",mg,--,--,2.14,5.10
"Sodium, Na",mg,--,--,35,83
Vitamins
"Vitamin C, total ascorbic acid",mg,--,--,0.0,0.0
"Vitamin A, IU",IU,--,--,0,0
Lipids
"Fatty acids, total saturated",g,--,--,8.001,19.050
"Fatty acids, total trans",g,--,--,0.000,0.000
"Cholesterol",mg,--,--,5,12
Amino Acids
Other
Ingredients
"SUGAR, COCOA BUTTER, UNSWEETENED CHOCOLATE, SKIM MILK POWDER, MILK POWDER, BUTTER OIL (MILK), EMULSIFIER (SOY LECITHIN), NATURAL FLAVOR." Date available: 07/14/2017 Date last updated by company: 07/14/2017
