Source: USDA Branded Food Products Database Release December 2017 Software v.3.8.6.4 2017-10-02
Report Run at: December 18, 2017 03:05 EST
"Nutrient data for: 45180608, SOMERDALE, WENSLEYDALE & BLUEBERRIES CHEESE, UPC: 735006005963"
Food Group:  Branded Food Products Database
Common Name:

Nutrient,Unit,Data points,Std. Error,"1 ONZ = 28.0g",1Value per 100 g,
Proximates
"Energy",kcal,--,--,95,339
"Protein",g,--,--,5.50,19.64
"Total lipid (fat)",g,--,--,6.50,23.21
"Carbohydrate, by difference",g,--,--,3.80,13.57
"Fiber, total dietary",g,--,--,0.6,2.1
"Sugars, total",g,--,--,3.40,12.14
Minerals
"Calcium, Ca",mg,--,--,14,50
"Iron, Fe",mg,--,--,0.16,0.57
"Sodium, Na",mg,--,--,145,518
Vitamins
"Vitamin C, total ascorbic acid",mg,--,--,0.0,0.0
"Vitamin A, IU",IU,--,--,447,1595
Lipids
"Fatty acids, total saturated",g,--,--,3.900,13.930
"Fatty acids, total trans",g,--,--,0.000,0.000
"Cholesterol",mg,--,--,16,57
Amino Acids
Other
Ingredients
"PASTEURIZED COW'S MILK, SWEETENED DRIED BLUEBERRIES (8%) (BLUEBERRIES, SUCROSE, SUNFLOWER OIL, SUGAR, NATURAL FLAVORING), SALT, STARTER CULTURE, VEGETARIAN RENNET" Date available: 07/14/2017 Date last updated by company: 07/14/2017
