Source: USDA Branded Food Products Database Release December 2017 Software v.3.8.6.4 2017-10-02
Report Run at: December 18, 2017 03:06 EST
"Nutrient data for: 45192013, SOMETHING SWEET, PECAN PIE, UPC: 647466123326"
Food Group:  Branded Food Products Database
Common Name:

Nutrient,Unit,Data points,Std. Error,"0.076 PIE = 126.0g",1Value per 100 g,
Proximates
"Energy",kcal,--,--,470,373
"Protein",g,--,--,5.00,3.97
"Total lipid (fat)",g,--,--,24.00,19.05
"Carbohydrate, by difference",g,--,--,57.00,45.24
"Fiber, total dietary",g,--,--,3.0,2.4
"Sugars, total",g,--,--,29.01,23.02
Minerals
"Calcium, Ca",mg,--,--,20,16
"Iron, Fe",mg,--,--,1.42,1.13
"Sodium, Na",mg,--,--,180,143
Vitamins
"Vitamin C, total ascorbic acid",mg,--,--,0.0,0.0
"Vitamin A, IU",IU,--,--,199,158
Lipids
"Fatty acids, total saturated",g,--,--,8.001,6.350
"Fatty acids, total trans",g,--,--,0.000,0.000
"Cholesterol",mg,--,--,71,56
Amino Acids
Other
Ingredients
"CORN SYRUP, SUGAR, WHEAT FLOUR ENRICHED (WHEAT FLOUR, NIACIN, REDUCED IRON, THIAMINE MONONITRATE, RIBOFLAVIN, FOLIC ACID), WHOLE EGGS, PECANS, WATER, PALM OIL, BUTTER, FOOD STARCH MODIFIED; CONTAINS LESS THAN 2% OF THE FOLLOWING: DEXTROSE, SALT, MARGARINE (SOYBEAN OIL, PALM OIL, WATER, SALT, MONO & DIGLYCERIDES, NON-FAT MILK POWDER, SOY LECITHIN, SODIUM BENZOATE, NATURAL BUTTER FLAVOR, ANNATTO COLOR, VITAMIN A PALMITATE), MOLASSES, NATURAL AND ARTIFICIAL FLAVORS, XANTHAN GUM, POTASSIUM SORBATE (PRESERVATIVE)." Date available: 07/14/2017 Date last updated by company: 07/14/2017
