Source: USDA Branded Food Products Database Release December 2017 Software v.3.8.6.4 2017-10-02
Report Run at: December 18, 2017 03:08 EST
"Nutrient data for: 45153094, SOPHIA, WAFERS WITH HAZELNUT CREAM FILLING, NO CHOLESTEROLL! NO ARTIFICIAL COLORS! NO PRESERVATIVES!, UPC: 619309000460"
Food Group:  Branded Food Products Database
Common Name:

Nutrient,Unit,Data points,Std. Error,"4.0 WAFERS = 35.0g",1Value per 100 g,
Proximates
"Energy",kcal,--,--,180,514
"Protein",g,--,--,2.00,5.71
"Total lipid (fat)",g,--,--,10.00,28.57
"Carbohydrate, by difference",g,--,--,22.00,62.86
"Fiber, total dietary",g,--,--,1.0,2.9
"Sugars, total",g,--,--,11.00,31.43
Minerals
"Calcium, Ca",mg,--,--,40,114
"Iron, Fe",mg,--,--,0.51,1.47
"Sodium, Na",mg,--,--,55,157
Vitamins
"Vitamin C, total ascorbic acid",mg,--,--,0.0,0.0
"Vitamin A, IU",IU,--,--,0,0
Lipids
"Fatty acids, total saturated",g,--,--,8.998,25.710
"Fatty acids, total trans",g,--,--,0.000,0.000
"Cholesterol",mg,--,--,0,0
Amino Acids
Other
Ingredients
"WHEAT FLOUR, VEGETABLE OILS (FROM HIGHLY REFINED COCONUT OIL AND PALM AND OIL), GLUCOSE SYRUP, SUGAR, HAZELNUTS, COCOA POWDER PROCESSED WITH ALKALI, DEXTROSE, WHEY POWDER, SKIM MILK POWDER, BARLEY MALT EXTRACT, LEAVENING (SODIUM BICARBONATE, DISODIUMDIPHOSPHATE), SOY LECITHIN; SALT, ARTIFICIAL FLAVORINGS." Date available: 07/14/2017 Date last updated by company: 07/14/2017
