Source: USDA Branded Food Products Database Release December 2017 Software v.3.8.6.4 2017-10-02
Report Run at: December 18, 2017 03:10 EST
"Nutrient data for: 45214918, SORBET & GREEK FROZEN YOGURT, UPC: 072586902504"
Food Group:  Branded Food Products Database
Common Name:

Nutrient,Unit,Data points,Std. Error,"1 CUP = 236.0g",1Value per 100 g,
Proximates
"Energy",kcal,--,--,201,85
"Protein",g,--,--,8.00,3.39
"Total lipid (fat)",g,--,--,0.99,0.42
"Carbohydrate, by difference",g,--,--,43.99,18.64
"Fiber, total dietary",g,--,--,0.9,0.4
"Sugars, total",g,--,--,42.01,17.80
Minerals
"Calcium, Ca",mg,--,--,250,106
"Iron, Fe",mg,--,--,0.00,0.00
"Sodium, Na",mg,--,--,31,13
Vitamins
"Vitamin C, total ascorbic acid",mg,--,--,3.3,1.4
"Vitamin A, IU",IU,--,--,706,299
Lipids
"Fatty acids, total saturated",g,--,--,0.496,0.210
"Fatty acids, total trans",g,--,--,0.000,0.000
"Cholesterol",mg,--,--,9,4
Amino Acids
Other
Ingredients
"MANGOS, WATER, SUGAR, SKIM MILK, MILK PROTEIN CONCENTRATE, CREAM, GUAR GUM, LOCUST BEAN GUM, CARRAGEENAN, PECTIN, CITRIC ACID, NATURAL FLAVOR, ANNATTO (FOR COLOR), AND DAIRY CULTURES (BIFIDOBACTERIUM, LACTOBACILLUS ACIDOPHILUS, STREPTOCOCCUS THERMOPHILUS, LACTOBACILLUS DELBRUECKI SUBSP. BULGARICUS)." Date available: 08/23/2017 Date last updated by company: 08/23/2017
