Source: USDA Branded Food Products Database Release December 2017 Software v.3.8.6.4 2017-10-02
Report Run at: December 18, 2017 03:09 EST
"Nutrient data for: 45136027, SORBET BARS, UPC: 072609741059"
Food Group:  Branded Food Products Database
Common Name:

Nutrient,Unit,Data points,Std. Error,"1 BAR = 55.0g",1Value per 100 g,
Proximates
"Energy",kcal,--,--,60,109
"Protein",g,--,--,0.00,0.00
"Total lipid (fat)",g,--,--,0.00,0.00
"Carbohydrate, by difference",g,--,--,15.00,27.27
"Fiber, total dietary",g,--,--,0.0,0.0
"Sugars, total",g,--,--,12.00,21.82
Minerals
"Calcium, Ca",mg,--,--,0,0
"Iron, Fe",mg,--,--,0.00,0.00
"Sodium, Na",mg,--,--,0,0
Vitamins
"Vitamin C, total ascorbic acid",mg,--,--,2.4,4.4
"Vitamin A, IU",IU,--,--,0,0
Lipids
"Fatty acids, total saturated",g,--,--,0.000,0.000
"Fatty acids, total trans",g,--,--,0.000,0.000
"Cholesterol",mg,--,--,0,0
Amino Acids
Other
Ingredients
"ORGANIC ORANGE JUICE (FROM CONCENTRATE), ORGANIC CANE SUGAR, ORGANIC TAPIOCA SYRUP, ORGANIC LOCUST BEAN GUM, ORGANIC GUAR GUM, ORGANIC LEMON JUICE CONTENTRATE, ORGANIC ANNATTO EXTRACT (COLOR), NATURAL ORANGE FLAVOR, CITRIC ACID." Date available: 07/14/2017 Date last updated by company: 07/14/2017
