Source: USDA Branded Food Products Database Release December 2017 Software v.3.8.6.4 2017-10-02
Report Run at: December 18, 2017 03:12 EST
"Nutrient data for: 45170158, SOUL VEGAN, KALE GREENS, UPC: 878425007351"
Food Group:  Branded Food Products Database
Common Name:

Nutrient,Unit,Data points,Std. Error,"3.4 ONZ = 96.0g",1Value per 100 g,
Proximates
"Energy",kcal,--,--,60,62
"Protein",g,--,--,8.00,8.33
"Total lipid (fat)",g,--,--,3.00,3.12
"Carbohydrate, by difference",g,--,--,7.00,7.29
"Fiber, total dietary",g,--,--,2.0,2.1
"Sugars, total",g,--,--,0.00,0.00
Minerals
"Calcium, Ca",mg,--,--,360,375
"Iron, Fe",mg,--,--,7.87,8.20
"Sodium, Na",mg,--,--,113,118
Vitamins
"Vitamin C, total ascorbic acid",mg,--,--,0.0,0.0
"Vitamin A, IU",IU,--,--,219,228
Lipids
"Fatty acids, total saturated",g,--,--,0.000,0.000
"Fatty acids, total trans",g,--,--,0.000,0.000
Amino Acids
Other
Ingredients
"KALE GREENS, OLIVE OIL, APPLE CIDER VINEGAR, FRESH GARLIC, FRESH BASIL, SEA SALT, ONION, RED PEPPER." Date available: 10/11/2017 Date last updated by company: 10/11/2017
