Source: USDA Branded Food Products Database Release December 2017 Software v.3.8.6.4 2017-10-02
Report Run at: December 18, 2017 03:13 EST
"Nutrient data for: 45324447, SOUP BOWL, UPC: 760263400039"
Food Group:  Branded Food Products Database
Common Name:

Nutrient,Unit,Data points,Std. Error,"0.5 CONTAINER = 27.0g",1Value per 100 g,
Proximates
"Energy",kcal,--,--,90,333
"Protein",g,--,--,4.00,14.81
"Total lipid (fat)",g,--,--,1.00,3.70
"Carbohydrate, by difference",g,--,--,18.00,66.67
"Fiber, total dietary",g,--,--,3.0,11.1
"Sugars, total",g,--,--,3.00,11.11
Minerals
"Calcium, Ca",mg,--,--,40,148
"Iron, Fe",mg,--,--,1.33,4.94
"Sodium, Na",mg,--,--,610,2259
Vitamins
"Vitamin C, total ascorbic acid",mg,--,--,4.5,16.5
"Vitamin A, IU",IU,--,--,926,3430
Lipids
"Fatty acids, total saturated",g,--,--,0.000,0.000
"Fatty acids, total trans",g,--,--,0.000,0.000
"Cholesterol",mg,--,--,0,0
Amino Acids
Other
Ingredients
"COOKED PINTO BEANS*, POTATOES*, MODIFIED CORN STARCH, ONION*, YEAST EXTRACT, COOKED RED BEANS*, SALT, CARROTS*, SUGAR, WHEY, CORN SYRUP SOLIDS, CORN*, TOMATO*, DISODIUM INOSINATE AND DISODIUM GUANYLATE, RED AND GREEN BELL PEPPERS*, SPICES, HYDROLYZED SOY PROTEIN, PALM OIL, ACETYLATED MONOGLYCERIDES, GARLIC*, CORN STARCH, CARAMEL COLOR, CHICKEN FAT, BEEF STOCK, NATURAL AND ARTIFICIAL FLAVORS, DIPOTASSIUM PHOSPHATE, TURMERIC EXTRACT (COLOR), PARSLEY, SODIUM CASEINATE, MONO AND DIGLYCERIDES, CITRIC ACID, ANNATTO EXTRACT (COLOR), YELLOW 6, BEEF FAT, SODIUM BISULFITE (PRESERVATIVE), SODIUM ACID PYROPHOSPHATE." Date available: 10/13/2017 Date last updated by company: 10/13/2017
