Source: USDA Branded Food Products Database Release December 2017 Software v.3.8.6.4 2017-10-02
Report Run at: December 18, 2017 03:13 EST
"Nutrient data for: 45211027, SOUP CRACKERS, UPC: 073490132278"
Food Group:  Branded Food Products Database
Common Name:

Nutrient,Unit,Data points,Std. Error,"0.5 ONZ = 14.0g",1Value per 100 g,
Proximates
"Energy",kcal,--,--,60,429
"Protein",g,--,--,0.30,2.14
"Total lipid (fat)",g,--,--,2.00,14.29
"Carbohydrate, by difference",g,--,--,11.00,78.57
"Fiber, total dietary",g,--,--,0.3,2.1
"Sugars, total",g,--,--,0.20,1.43
Minerals
"Sodium, Na",mg,--,--,50,357
Vitamins
Lipids
"Fatty acids, total saturated",g,--,--,0.700,5.000
"Fatty acids, total trans",g,--,--,0.000,0.000
"Cholesterol",mg,--,--,5,36
Amino Acids
Other
Ingredients
"TAPIOCA STARCH, WATER, POTATO STARCH, POTATO FLOUR, EXPELLER PRESSED PALM OIL, NATURAL VINEGAR, HONEY, EGG YOLKS, SALT." Date available: 10/19/2017 Date last updated by company: 10/19/2017
