Source: USDA Branded Food Products Database Release December 2017 Software v.3.8.6.4 2017-10-02
Report Run at: December 18, 2017 03:28 EST
"Nutrient data for: 45214458, SOUR JACKS WATERMELON GUMMY CANDY, UPC: 050428485224"
Food Group:  Branded Food Products Database
Common Name:

Nutrient,Unit,Data points,Std. Error,"11.0 PIECES = 40.0g",1Value per 100 g,
Proximates
"Energy",kcal,--,--,140,350
"Protein",g,--,--,2.00,5.00
"Total lipid (fat)",g,--,--,0.00,0.00
"Carbohydrate, by difference",g,--,--,31.00,77.50
"Fiber, total dietary",g,--,--,0.0,0.0
"Sugars, total",g,--,--,24.00,60.00
Minerals
"Calcium, Ca",mg,--,--,0,0
"Iron, Fe",mg,--,--,0.00,0.00
"Sodium, Na",mg,--,--,30,75
Vitamins
"Vitamin C, total ascorbic acid",mg,--,--,0.0,0.0
"Vitamin A, IU",IU,--,--,0,0
Lipids
"Fatty acids, total saturated",g,--,--,0.000,0.000
"Fatty acids, total trans",g,--,--,0.000,0.000
"Cholesterol",mg,--,--,0,0
Amino Acids
Other
Ingredients
"CORN SYRUP, SUGAR, CORN STARCH, GELATIN, CITRIC ACID, FUMARIC ACID, MALIC ACID, NATURAL AND ARTIFICIAL FLAVOR, SODIUM CITRATE, YELLOW 5, RED 40, AND BLUE 1." Date available: 07/14/2017 Date last updated by company: 07/14/2017
