Source: USDA Branded Food Products Database Release December 2017 Software v.3.8.6.4 2017-10-02
Report Run at: December 18, 2017 03:27 EST
"Nutrient data for: 45229914, SOURFULS SOFT & CHEWY CANDY, UPC: 073390009144"
Food Group:  Branded Food Products Database
Common Name:

Nutrient,Unit,Data points,Std. Error,"13.0 PIECES = 40.0g",1Value per 100 g,
Proximates
"Energy",kcal,--,--,150,375
"Protein",g,--,--,0.00,0.00
"Total lipid (fat)",g,--,--,0.00,0.00
"Carbohydrate, by difference",g,--,--,35.00,87.50
"Sugars, total",g,--,--,26.00,65.00
Minerals
"Sodium, Na",mg,--,--,15,38
Vitamins
Lipids
Amino Acids
Other
Ingredients
"SUGAR, GLUCOSE SYRUP, HIGH FRUCTOSE CORN SYRUP, CORN STARCH, MALIC ACID, FOOD STARCH MODIFIED (POTATO); CONTAINS LESS THAN 2% OF: CITRIC ACID, DEXTROSE, LACTIC ACID, GELATIN, SODIUM MALATES, YELLOW 6, YELLOW 5, BLUE 1, RED 40, ARTIFICIAL FLAVOR, HYDROGENATED PALM OIL, ARTIFICIAL COLOR, SORBITOL SYRUP, GLYCEROL, FUMARIC ACID, SALT." Date available: 07/14/2017 Date last updated by company: 07/14/2017
