Source: USDA Branded Food Products Database Release December 2017 Software v.3.8.6.4 2017-10-02
Report Run at: December 18, 2017 03:31 EST
"Nutrient data for: 45235765, SOURSOP, UPC: 838452003436"
Food Group:  Branded Food Products Database
Common Name:

Nutrient,Unit,Data points,Std. Error,"8.45 OZA = 250.0g",1Value per 100 g,
Proximates
"Energy",kcal,--,--,130,52
"Protein",g,--,--,0.00,0.00
"Total lipid (fat)",g,--,--,0.00,0.00
"Carbohydrate, by difference",g,--,--,33.00,13.20
"Fiber, total dietary",g,--,--,1.0,0.4
"Sugars, total",g,--,--,21.00,8.40
Minerals
"Calcium, Ca",mg,--,--,60,24
"Iron, Fe",mg,--,--,1.02,0.41
"Sodium, Na",mg,--,--,20,8
Vitamins
"Vitamin C, total ascorbic acid",mg,--,--,57.5,23.0
"Vitamin A, IU",IU,--,--,385,154
Lipids
"Fatty acids, total trans",g,--,--,0.000,0.000
Amino Acids
Other
Ingredients
"SOURSOP JUICE(SOURSOP CONCENTRATE, FILTERED WATER)" Date available: 06/25/2017 Date last updated by company: 06/25/2017
