Source: USDA Branded Food Products Database Release December 2017 Software v.3.8.6.4 2017-10-02
Report Run at: December 18, 2017 03:16 EST
"Nutrient data for: 45272403, SOUR BLACK CHERRIES IN SYRUP, UPC: 027484120833"
Food Group:  Branded Food Products Database
Common Name:

Nutrient,Unit,Data points,Std. Error,"2.0 Tbsp = 30.0g",1Value per 100 g,
Proximates
"Energy",kcal,--,--,80,267
"Protein",g,--,--,0.00,0.00
"Total lipid (fat)",g,--,--,0.00,0.00
"Carbohydrate, by difference",g,--,--,21.00,70.00
"Sugars, total",g,--,--,14.00,46.67
Minerals
"Sodium, Na",mg,--,--,0,0
Vitamins
Lipids
Amino Acids
Other
Ingredients
"SOUR BLACK CHERRIES, SUGAR, WATER, GLUCOSE SYRUP, SOUR CHERRY JUICE, COLOURING: ANTHOCYANINS (GRAPE SKIN EXTRACT), CITRIC ACID, NATURAL FLAVORS." Date available: 07/14/2017 Date last updated by company: 07/14/2017
