Source: USDA Branded Food Products Database Release December 2017 Software v.3.8.6.4 2017-10-02
Report Run at: December 18, 2017 03:19 EST
"Nutrient data for: 45118924, SOUR CREAM & CHIVE MASHED POTATOES, UPC: 020169221405"
Food Group:  Branded Food Products Database
Common Name:

Nutrient,Unit,Data points,Std. Error,"0.5 cup = 124.0g",1Value per 100 g,
Proximates
"Energy",kcal,--,--,120,97
"Protein",g,--,--,3.00,2.42
"Total lipid (fat)",g,--,--,5.00,4.03
"Carbohydrate, by difference",g,--,--,16.00,12.90
"Fiber, total dietary",g,--,--,1.0,0.8
"Sugars, total",g,--,--,2.00,1.61
Minerals
"Calcium, Ca",mg,--,--,40,32
"Iron, Fe",mg,--,--,0.41,0.33
"Sodium, Na",mg,--,--,480,387
Vitamins
"Vitamin C, total ascorbic acid",mg,--,--,1.4,1.1
"Vitamin A, IU",IU,--,--,113,91
Lipids
"Fatty acids, total saturated",g,--,--,2.505,2.020
"Fatty acids, total trans",g,--,--,0.000,0.000
"Cholesterol",mg,--,--,10,8
Amino Acids
Other
Ingredients
"POTATOES, WHOLE MILK, WATER, CULTURED SOUR CREAM (SKIM MILK, CREAM, WHEY, FOOD STARCH MODIFIED, SODIUM PHOSPHATE, GUAR GUM, CARRAGEENAN, SODIUM CITRATE, POTASSIUM SORBATE (A PRESERVATIVE), AND LOCUST BEAN GUM), BUTTER (CREAM, SALT), MARGARINE (SOYBEAN OIL, WATER, VEGETABLE MONO & DIGLYCERIDES, SALT, NATURAL FLAVOR (INCLUDES MILK), VITAMIN A PALMITATE ADDED, VITAMIN D3), NATURAL FLAVORS, SALT, CONTAINS 1/2% OR LESS OF THE FOLLOWING: CHIVES, DISODIUM PYROPHOSPHATE (ADDED TO MAINTAIN COLOR), POTASSIUM SORBATE AND SODIUM BISULFITE (ADDED TO MAINTAIN FRESHNESS)" Date available: 07/14/2017 Date last updated by company: 07/14/2017
