Source: USDA Branded Food Products Database Release December 2017 Software v.3.8.6.4 2017-10-02
Report Run at: December 18, 2017 03:16 EST
"Nutrient data for: 45266073, SOUR BRITE BITES, UPC: 041420411090"
Food Group:  Branded Food Products Database
Common Name:

Nutrient,Unit,Data points,Std. Error,"12.0 PIECES = 39.0g",1Value per 100 g,
Proximates
"Energy",kcal,--,--,140,359
"Protein",g,--,--,1.00,2.56
"Total lipid (fat)",g,--,--,2.00,5.13
"Carbohydrate, by difference",g,--,--,31.00,79.49
"Fiber, total dietary",g,--,--,0.0,0.0
"Sugars, total",g,--,--,16.00,41.03
Minerals
"Calcium, Ca",mg,--,--,20,51
"Iron, Fe",mg,--,--,0.46,1.18
"Sodium, Na",mg,--,--,0,0
Vitamins
"Vitamin C, total ascorbic acid",mg,--,--,0.0,0.0
"Vitamin A, IU",IU,--,--,0,0
Lipids
"Fatty acids, total saturated",g,--,--,0.000,0.000
"Fatty acids, total trans",g,--,--,0.000,0.000
"Cholesterol",mg,--,--,0,0
Amino Acids
Other
Ingredients
"SUGAR, CORN SYRUP, WHEAT FLOUR (ENRICHED WITH THIAMINE, RIBOFLAVIN, NIACIN, FOLIC ACID, IRON, AND ZINC), MODIFIED FOOD STARCH (CORN), SUNFLOWER OIL, FUMARIC ACID, CITRIC ACID, MALIC ACID, NATURAL AND ARTIFICIAL FLAVORS, LACTIC ACID, CALCIUM LACTATE, GLYCERINE, MONO- AND DIGLYCERIDES, SODIUM CITRATE, SILICONE DIOXIDE, BLUE 1, RED 40, YELLOW 5." Date available: 07/14/2017 Date last updated by company: 07/14/2017
