Source: USDA Branded Food Products Database Release December 2017 Software v.3.8.6.4 2017-10-02
Report Run at: December 18, 2017 03:30 EST
"Nutrient data for: 45180487, SOUR PINEAPPLE, UPC: 852661005074"
Food Group:  Branded Food Products Database
Common Name:

Nutrient,Unit,Data points,Std. Error,"1.3 ONZ = 37.0g",1Value per 100 g,
Proximates
"Energy",kcal,--,--,110,297
"Protein",g,--,--,1.00,2.70
"Total lipid (fat)",g,--,--,0.00,0.00
"Carbohydrate, by difference",g,--,--,25.00,67.57
"Fiber, total dietary",g,--,--,2.0,5.4
"Sugars, total",g,--,--,22.00,59.46
Minerals
"Calcium, Ca",mg,--,--,20,54
"Iron, Fe",mg,--,--,0.78,2.10
"Sodium, Na",mg,--,--,10,27
Vitamins
"Vitamin C, total ascorbic acid",mg,--,--,0.0,0.0
"Vitamin A, IU",IU,--,--,0,0
Lipids
"Fatty acids, total saturated",g,--,--,0.000,0.000
"Fatty acids, total trans",g,--,--,0.000,0.000
"Cholesterol",mg,--,--,0,0
Amino Acids
Other
Ingredients
"RAISINS, ALL NATURAL FRUIT FLAVORS, CITRIC ACID" Date available: 07/14/2017 Date last updated by company: 07/14/2017
