Source: USDA Branded Food Products Database Release December 2017 Software v.3.8.6.4 2017-10-02
Report Run at: December 18, 2017 03:29 EST
"Nutrient data for: 45141753, SOUR N' SWEET SOFT & CHEWY CANDY, UPC: 041420980251"
Food Group:  Branded Food Products Database
Common Name:

Nutrient,Unit,Data points,Std. Error,"1 PACKAGE = 57.0g",1Value per 100 g,
Proximates
"Energy",kcal,--,--,190,333
"Protein",g,--,--,0.00,0.00
"Total lipid (fat)",g,--,--,0.00,0.00
"Carbohydrate, by difference",g,--,--,48.00,84.21
"Fiber, total dietary",g,--,--,1.0,1.8
"Sugars, total",g,--,--,30.00,52.63
Minerals
"Sodium, Na",mg,--,--,0,0
Vitamins
Lipids
Amino Acids
Other
Ingredients
"ORGANIC TAPIOCA SYRUP, ORGANIC CANE SUGAR, CORNSTARCH, ORGANIC LEMON JUICE CONCENTRATE, ORGANIC POTATO STARCH, CITRIC ACID, NATURAL FLAVORS, COLORS (BLACK CARROT JUICE, CARROT JUICE, TURMERIC)." Date available: 07/14/2017 Date last updated by company: 07/14/2017
