Source: USDA Branded Food Products Database Release December 2017 Software v.3.8.6.4 2017-10-02
Report Run at: December 18, 2017 03:28 EST
"Nutrient data for: 45146685, SOUR JACKS, GOOD LIVIN' CANDY, UPC: 812707021161"
Food Group:  Branded Food Products Database
Common Name:

Nutrient,Unit,Data points,Std. Error,"16.0 PCS = 40.0g",1Value per 100 g,
Proximates
"Energy",kcal,--,--,140,350
"Protein",g,--,--,0.00,0.00
"Total lipid (fat)",g,--,--,0.00,0.00
"Carbohydrate, by difference",g,--,--,34.00,85.00
"Fiber, total dietary",g,--,--,0.0,0.0
"Sugars, total",g,--,--,25.00,62.50
Minerals
"Calcium, Ca",mg,--,--,0,0
"Iron, Fe",mg,--,--,0.00,0.00
"Sodium, Na",mg,--,--,35,88
Vitamins
"Vitamin C, total ascorbic acid",mg,--,--,0.0,0.0
"Vitamin A, IU",IU,--,--,0,0
Lipids
"Fatty acids, total saturated",g,--,--,0.000,0.000
"Fatty acids, total trans",g,--,--,0.000,0.000
"Cholesterol",mg,--,--,0,0
Amino Acids
Other
Ingredients
"SUGAR, CORN SYRUP, MODIFIED CORNSTARCH, FUMARIC ACID, LACTIC ACID, MALIC ACID, SODIUM LACTATE, NATURAL AND ARTIFICIAL FLAVORS, RED #40, BLUE #1 AND YELLOW #5." Date available: 07/14/2017 Date last updated by company: 07/14/2017
