Source: USDA Branded Food Products Database Release December 2017 Software v.3.8.6.4 2017-10-02
Report Run at: December 18, 2017 03:25 EST
"Nutrient data for: 45259571, SOURDOUGH FLUTE, UPC: 039677073505"
Food Group:  Branded Food Products Database
Common Name:

Nutrient,Unit,Data points,Std. Error,"0.2 OF LOAF = 54.0g",1Value per 100 g,
Proximates
"Energy",kcal,--,--,130,241
"Protein",g,--,--,4.00,7.41
"Total lipid (fat)",g,--,--,0.00,0.00
"Carbohydrate, by difference",g,--,--,28.00,51.85
"Fiber, total dietary",g,--,--,1.0,1.9
"Sugars, total",g,--,--,0.00,0.00
Minerals
"Calcium, Ca",mg,--,--,20,37
"Iron, Fe",mg,--,--,1.33,2.47
"Sodium, Na",mg,--,--,250,463
Vitamins
"Vitamin C, total ascorbic acid",mg,--,--,0.0,0.0
"Vitamin A, IU",IU,--,--,0,0
Lipids
"Fatty acids, total saturated",g,--,--,0.000,0.000
"Fatty acids, total trans",g,--,--,0.000,0.000
"Cholesterol",mg,--,--,0,0
Amino Acids
Other
Ingredients
"ENRICHED WHEAT FLOUR (WHEAT FLOUR, MALTED BARLEY FLOUR, NIACIN, REDUCED IRON, THIAMIN MONONITRATE, RIBOFLAVIN, FOLIC ACID), WATER, RICE FLOUR, SALT, DEHYDRATED POTATOES (POTATOES MONO AND DIGLYCERIDES, SODIUM ACID PYROPHOSPHATE, CITRIC ACID), VINEGAR, FERMENTED WHEAT FLOUR, YEAST, ENZYMES (DOUGH CONDITIONER)." Date available: 07/14/2017 Date last updated by company: 07/14/2017
