Source: USDA Branded Food Products Database Release December 2017 Software v.3.8.6.4 2017-10-02
Report Run at: December 18, 2017 03:35 EST
"Nutrient data for: 45146808, SOUTHERN GROVE, ROASTED & SALTED PISTACHIOS, UPC: 041498218577"
Food Group:  Branded Food Products Database
Common Name:

Nutrient,Unit,Data points,Std. Error,"1 PACKAGE = 43.0g",1Value per 100 g,
Proximates
"Energy",kcal,--,--,120,279
"Protein",g,--,--,4.00,9.30
"Total lipid (fat)",g,--,--,9.00,20.93
"Carbohydrate, by difference",g,--,--,6.00,13.95
"Fiber, total dietary",g,--,--,2.0,4.7
"Sugars, total",g,--,--,2.00,4.65
Minerals
"Calcium, Ca",mg,--,--,20,47
"Iron, Fe",mg,--,--,0.84,1.95
"Potassium, K",mg,--,--,210,488
"Sodium, Na",mg,--,--,80,186
Vitamins
"Vitamin C, total ascorbic acid",mg,--,--,0.0,0.0
"Vitamin A, IU",IU,--,--,0,0
Lipids
"Fatty acids, total saturated",g,--,--,1.002,2.330
"Fatty acids, total monounsaturated",g,--,--,5.001,11.630
"Fatty acids, total polyunsaturated",g,--,--,3.001,6.980
"Fatty acids, total trans",g,--,--,0.000,0.000
"Cholesterol",mg,--,--,0,0
Amino Acids
Other
Ingredients
"PISTACHIOS & SEA SALT." Date available: 07/14/2017 Date last updated by company: 07/14/2017
