Source: USDA Branded Food Products Database Release December 2017 Software v.3.8.6.4 2017-10-02
Report Run at: December 18, 2017 03:34 EST
"Nutrient data for: 45194495, SOUTHERN COLE SLAW, UPC: 021130067220"
Food Group:  Branded Food Products Database
Common Name:

Nutrient,Unit,Data points,Std. Error,"0.5 cup = 110.0g",1Value per 100 g,
Proximates
"Energy",kcal,--,--,130,118
"Protein",g,--,--,1.00,0.91
"Total lipid (fat)",g,--,--,9.00,8.18
"Carbohydrate, by difference",g,--,--,12.00,10.91
"Fiber, total dietary",g,--,--,2.0,1.8
"Sugars, total",g,--,--,9.00,8.18
Minerals
"Calcium, Ca",mg,--,--,40,36
"Iron, Fe",mg,--,--,0.91,0.83
"Sodium, Na",mg,--,--,250,227
Vitamins
"Vitamin C, total ascorbic acid",mg,--,--,6.2,5.6
"Vitamin A, IU",IU,--,--,1591,1446
Lipids
"Fatty acids, total saturated",g,--,--,1.496,1.360
"Fatty acids, total trans",g,--,--,0.000,0.000
"Cholesterol",mg,--,--,10,9
Amino Acids
Other
Ingredients
"CABBAGE, MAYONNAISE (SOYBEAN OIL, WATER, EGG YOLKS, VINEGAR, SALT), SUGAR, CARROT, VINEGAR, SALT, ASCORBIC ACID, CELERY SEED, MODIFIED CORN STARCH, POTASSIUM SORBATE AND SODIUM BENZOATE TO PROTECT FLAVOR, SODIUM ERYTHORBATE, CITRIC ACID, XANTHAN GUM, SPICE, CELLULOSE GUM, GUAR GUM." Date available: 07/14/2017 Date last updated by company: 07/14/2017
