Source: USDA Branded Food Products Database Release December 2017 Software v.3.8.6.4 2017-10-02
Report Run at: December 18, 2017 03:46 EST
"Nutrient data for: 45042977, SOUTHWEST STYLE HASH BROWNS, UPC: 020169222365"
Food Group:  Branded Food Products Database
Common Name:

Nutrient,Unit,Data points,Std. Error,"0.67 cup = 80.0g",1Value per 100 g,
Proximates
"Energy",kcal,--,--,80,100
"Protein",g,--,--,2.00,2.50
"Total lipid (fat)",g,--,--,0.00,0.00
"Carbohydrate, by difference",g,--,--,18.00,22.50
"Fiber, total dietary",g,--,--,2.0,2.5
"Sugars, total",g,--,--,1.00,1.25
Minerals
"Calcium, Ca",mg,--,--,0,0
"Iron, Fe",mg,--,--,0.31,0.39
"Sodium, Na",mg,--,--,280,350
Vitamins
"Vitamin C, total ascorbic acid",mg,--,--,13.1,16.4
"Vitamin A, IU",IU,--,--,175,219
Lipids
"Fatty acids, total saturated",g,--,--,0.000,0.000
"Fatty acids, total trans",g,--,--,0.000,0.000
"Cholesterol",mg,--,--,0,0
Amino Acids
Other
Ingredients
"POTATOES, SEASONING [DEHYDRATED VEGETABLES (ONION, GREEN AND RED BELL PEPPERS, GARLIC, TOMATO, JALAPENO PEPPERS), SALT, DEXTROSE, SPICES, AUTOLYZED YEAST EXTRACT, GARLIC POWDER, CITRIC ACID, HYDROLYZED SOY PROTEIN (WITH CARAMEL COLOR), CILANTRO, SOYBEAN OIL, TORULA YEAST, EXTRACTIVES OF PAPRIKA, NATURAL AND ARTIFICIAL FLAVORS, DISODIUM INOSINATE, DISODIUM GUANYLATE, LESS THAN 2% SILICON DIOXIDE ADDED TO PREVENT CAKING], DEXTROSE, DISODIUM PYROPHOSPHATE (ADDED TO MAINTAIN COLOR), POTASSIUM SORBATE AND SODIUM BISULFITE (ADDED TO MAINTAIN FRESHNESS)." Date available: 07/14/2017 Date last updated by company: 07/14/2017
