Source: USDA Branded Food Products Database Release December 2017 Software v.3.8.6.4 2017-10-02
Report Run at: December 18, 2017 03:37 EST
"Nutrient data for: 45322889, SOUTHERN HOMESTYLE BISCUITS, UPC: 01811205"
Food Group:  Branded Food Products Database
Common Name:

Nutrient,Unit,Data points,Std. Error,"1 BISCUITS = 34.0g",1Value per 100 g,
Proximates
"Energy",kcal,--,--,100,294
"Protein",g,--,--,2.00,5.88
"Total lipid (fat)",g,--,--,3.50,10.29
"Carbohydrate, by difference",g,--,--,15.00,44.12
"Fiber, total dietary",g,--,--,0.0,0.0
"Sugars, total",g,--,--,2.00,5.88
Minerals
"Calcium, Ca",mg,--,--,0,0
"Iron, Fe",mg,--,--,1.06,3.11
"Sodium, Na",mg,--,--,280,824
Vitamins
"Vitamin C, total ascorbic acid",mg,--,--,0.0,0.0
"Vitamin A, IU",IU,--,--,0,0
Lipids
"Fatty acids, total saturated",g,--,--,1.499,4.410
"Fatty acids, total trans",g,--,--,0.000,0.000
"Cholesterol",mg,--,--,0,0
Amino Acids
Other
Ingredients
"ENRICHED FLOUR BLEACHED (WHEAT FLOUR, NIACIN, FERROUS SULFATE, THIAMIN MONONITRATE, RIBOFLAVIN, FOLIC ACID), WATER, SOYBEAN AND PALM OIL, DEXTROSE, BAKING POWDER (BAKING SODA, SODIUM ACID PYROPHOSPHATE, SODIUM ALUMINUM PHOSPHATE). CONTAINS 2% OR LESS OF: SUGAR, HYDROGENATED SOYBEAN OIL, SALT, POTASSIUM CHLORIDE, NATURAL AND ARTIFICIAL FLAVOR." Date available: 07/14/2017 Date last updated by company: 07/14/2017
