Source: USDA Branded Food Products Database Release December 2017 Software v.3.8.6.4 2017-10-02
Report Run at: December 18, 2017 03:46 EST
"Nutrient data for: 45288190, SOUTHWEST STYLE FIESTA FROZEN MICROWAVE MEAL, UPC: 046567032795"
Food Group:  Branded Food Products Database
Common Name:

Nutrient,Unit,Data points,Std. Error,"9.0 ONZ = 255.0g",1Value per 100 g,
Proximates
"Energy",kcal,--,--,280,110
"Protein",g,--,--,10.99,4.31
"Total lipid (fat)",g,--,--,10.00,3.92
"Carbohydrate, by difference",g,--,--,36.01,14.12
"Fiber, total dietary",g,--,--,5.1,2.0
"Sugars, total",g,--,--,3.01,1.18
Minerals
"Calcium, Ca",mg,--,--,150,59
"Iron, Fe",mg,--,--,1.38,0.54
"Sodium, Na",mg,--,--,599,235
Vitamins
"Vitamin C, total ascorbic acid",mg,--,--,1.8,0.7
"Vitamin A, IU",IU,--,--,230,90
Lipids
"Fatty acids, total saturated",g,--,--,4.998,1.960
"Fatty acids, total monounsaturated",g,--,--,1.989,0.780
"Fatty acids, total polyunsaturated",g,--,--,0.510,0.200
"Fatty acids, total trans",g,--,--,0.000,0.000
"Cholesterol",mg,--,--,20,8
Amino Acids
Other
Ingredients
"COOKED BROWN RICE (WATER, BROWN RICE), WATER, COOKED BLACK BEANS (WATER, BLACK BEANS), COOKED RED QUINOA (WATER, QUINOA), CORN, CHEDDAR CHEESE (MILK, BACTERIAL CULTURE, SALT, CALCIUM CHLORIDE, ANNATTO, MICROBIAL ENZYME), TOMATOES, SOUR CREAM (MILK INGREDIENTS, BACTERIAL CULTURE, MICROBIAL ENZYMES), RED AND GREEN PEPPERS, TOMATOES (TOMATOES, TOMATO JUICE, SALT), GREEN ONIONS, POBLANO CHILI PEPPERS, ONIONS, CREAM (CREAM, MILK), CORN STARCH, OLIVE OIL, SEA SALT, GARLIC PUREE (GARLIC, OLIVE OIL), SPICES, CHIPOTLE CHILI CONCENTRATE (RED CHILI PEPPERS, CHIPOTLE PEPPERS, SALT AND FLAVORING [NATURAL LIQUID SMOKE FLAVORINGS]), CILANTRO, ORGANIC CANE SUGAR, LIME JUICE (WATER, LIME JUICE CONCENTRATE AND LIME OIL)." Date available: 08/07/2017 Date last updated by company: 08/07/2017
