Source: USDA Branded Food Products Database Release December 2017 Software v.3.8.6.4 2017-10-02
Report Run at: December 18, 2017 03:40 EST
"Nutrient data for: 45101498, SOUTHERN STYLE NUTS, NOMADIC BLEND GOURMET, UPC: 085839810044"
Food Group:  Branded Food Products Database
Common Name:

Nutrient,Unit,Data points,Std. Error,"1 ONZ = 28.0g",1Value per 100 g,
Proximates
"Energy",kcal,--,--,150,536
"Protein",g,--,--,4.00,14.29
"Total lipid (fat)",g,--,--,10.00,35.71
"Carbohydrate, by difference",g,--,--,12.00,42.86
"Fiber, total dietary",g,--,--,1.0,3.6
"Sugars, total",g,--,--,8.00,28.57
Minerals
"Calcium, Ca",mg,--,--,20,71
"Iron, Fe",mg,--,--,1.29,4.59
"Sodium, Na",mg,--,--,70,250
Vitamins
"Vitamin C, total ascorbic acid",mg,--,--,2.2,7.7
"Vitamin A, IU",IU,--,--,0,0
Lipids
"Fatty acids, total saturated",g,--,--,1.501,5.360
"Fatty acids, total trans",g,--,--,0.000,0.000
"Cholesterol",mg,--,--,0,0
Amino Acids
Other
Ingredients
"PEANUTS, RAISINS (COATED WITH <1% PARTIALLY HYDROGENATED SOYBEAN AND COTTONSEED OIL OR CANOLA OIL), CASHEWS, WALNUTS, SUGAR, DRIED SWEETENED CRANBERRIES (CRANBERRIES, SUGAR, SUNFLOWER OIL), CONTAINS LESS THAN 2% OF THE FOLLOWING: HONEY, VEGETABLE OIL (PEANUT, COTTONSEED, SOYBEAN AND/OR SUNFLOWER SEED), SALT, MODIFIED POTATO STARCH, MALTODEXTRIN, XANTHAN GUM, MODIFIED CORN STARCH, GUM ACACIA, NATURAL AND ARTIFICIAL FLAVOR (CONTAINS GLUTEN), PROPYLENE GLYCOL, PROPYLENE GLYOL ALGINATE AND CARAMEL COLOR." Date available: 06/25/2017 Date last updated by company: 06/25/2017
