Source: USDA Branded Food Products Database Release December 2017 Software v.3.8.6.4 2017-10-02
Report Run at: December 18, 2017 03:42 EST
"Nutrient data for: 45193930, SOUTHWEST CAESAR DRESSING, UPC: 018959003607"
Food Group:  Branded Food Products Database
Common Name:

Nutrient,Unit,Data points,Std. Error,"2.0 Tbsp = 30.0g",1Value per 100 g,
Proximates
"Energy",kcal,--,--,120,400
"Protein",g,--,--,1.00,3.33
"Total lipid (fat)",g,--,--,11.00,36.67
"Carbohydrate, by difference",g,--,--,2.00,6.67
"Fiber, total dietary",g,--,--,0.0,0.0
"Sugars, total",g,--,--,1.00,3.33
Minerals
"Calcium, Ca",mg,--,--,20,67
"Iron, Fe",mg,--,--,0.00,0.00
"Sodium, Na",mg,--,--,140,467
Vitamins
"Vitamin C, total ascorbic acid",mg,--,--,2.0,6.8
"Vitamin A, IU",IU,--,--,338,1127
Lipids
"Fatty acids, total saturated",g,--,--,2.001,6.670
"Fatty acids, total trans",g,--,--,0.000,0.000
"Cholesterol",mg,--,--,10,33
Amino Acids
Other
Ingredients
"SOYBEAN OIL, FILTERED WATER, PARMESAN CHEESE [PASTEURIZED MILK, CHEESE CULTURES, SALT, ENZYMES], DISTILLED VINEGAR, CORN SYRUP, EGG YOLK, CONTAINS LESS THAN 2% OF SUGAR, SALT, SPICES, CHIPOTLE PEPPER PUREE [RED CHIPOTLE PEPPERS, VINEGAR, SUGAR, SALT, ONIONS], CHIPOTLE IN ADOBO [CHIPOTLE PEPPERS, WATER, TOMATO PASTE, SALT, OLEORESIN PAPRIKA, NATURAL FLAVOR, AND OLEORESIN CAPSICUM], DEHYDRATED ONIONS AND GARLIC, LEMON JUICE CONCENTRATE, XANTHAN GUM, ANCHOVY PASTE [ANCHOVIES, SALT AND OLIVE OIL], DEHYDRATED RED BELL PEPPERS, MALTODEXTRIN, SOY SAUCE [SOYBEANS, WHEAT, SALT], YEAST EXTRACT, CITRIC ACID." Date available: 07/14/2017 Date last updated by company: 07/14/2017
