Source: USDA Branded Food Products Database Release December 2017 Software v.3.8.6.4 2017-10-02
Report Run at: December 18, 2017 03:45 EST
"Nutrient data for: 45314660, SOUTHWEST GUACAMOLE, UPC: 736798901914"
Food Group:  Branded Food Products Database
Common Name:

Nutrient,Unit,Data points,Std. Error,"2.0 Tbsp = 33.0g",1Value per 100 g,
Proximates
"Energy",kcal,--,--,35,106
"Protein",g,--,--,1.00,3.03
"Total lipid (fat)",g,--,--,2.50,7.58
"Carbohydrate, by difference",g,--,--,3.00,9.09
"Fiber, total dietary",g,--,--,1.0,3.0
"Sugars, total",g,--,--,0.00,0.00
Minerals
"Calcium, Ca",mg,--,--,0,0
"Iron, Fe",mg,--,--,0.54,1.65
"Sodium, Na",mg,--,--,150,455
Vitamins
"Vitamin C, total ascorbic acid",mg,--,--,3.6,11.0
"Vitamin A, IU",IU,--,--,303,918
Lipids
"Fatty acids, total saturated",g,--,--,0.000,0.000
"Fatty acids, total trans",g,--,--,0.000,0.000
"Cholesterol",mg,--,--,0,0
Amino Acids
Other
Ingredients
"HASS AVOCADOS, ROASTED CORN, BLACK BEANS, TOMATOES (TOMATOES, TOMATO JUICE, SALT, CITRIC ACID, CALCIUM CHLORIDE), ROASTED POBLANO PEPPERS, RED ONIONS, LIME JUICE, CILANTRO, SEA SALT, JALAPENO PEPPERS, GARLIC, BLACK PEPPER." Date available: 07/14/2017 Date last updated by company: 07/14/2017
