Source: USDA Branded Food Products Database Release December 2017 Software v.3.8.6.4 2017-10-02
Report Run at: December 18, 2017 03:41 EST
"Nutrient data for: 45285594, SOUTHERN STYLE SWEET TEA, UPC: 708615003699"
Food Group:  Branded Food Products Database
Common Name:

Nutrient,Unit,Data points,Std. Error,"16.0 OZA = 473.0g",1Value per 100 g,
Proximates
"Energy",kcal,--,--,161,34
"Total lipid (fat)",g,--,--,0.00,0.00
"Carbohydrate, by difference",g,--,--,41.01,8.67
"Fiber, total dietary",g,--,--,0.0,0.0
"Sugars, total",g,--,--,41.01,8.67
Minerals
"Sodium, Na",mg,--,--,0,0
Vitamins
Lipids
"Fatty acids, total saturated",g,--,--,0.000,0.000
"Fatty acids, total trans",g,--,--,0.000,0.000
Amino Acids
Other
Ingredients
"TEA (FILTERED WATER, BREWED TEA CONCENTRATE), SUGAR, NATURAL FLAVOR, PHOSPHORIC ACID, CARAMEL COLOR." Date available: 10/13/2017 Date last updated by company: 10/13/2017
