Source: USDA Branded Food Products Database Release December 2017 Software v.3.8.6.4 2017-10-02
Report Run at: December 18, 2017 03:47 EST
"Nutrient data for: 45323175, SOUTHWEST VEGGIE BURGERS, UPC: 077890415061"
Food Group:  Branded Food Products Database
Common Name:

Nutrient,Unit,Data points,Std. Error,"1 PATTY = 100.0g",1Value per 100 g,
Proximates
"Energy",kcal,--,--,190,190
"Protein",g,--,--,12.00,12.00
"Total lipid (fat)",g,--,--,6.00,6.00
"Carbohydrate, by difference",g,--,--,22.00,22.00
"Fiber, total dietary",g,--,--,4.0,4.0
"Sugars, total",g,--,--,1.00,1.00
Minerals
"Calcium, Ca",mg,--,--,80,80
"Iron, Fe",mg,--,--,0.79,0.79
"Sodium, Na",mg,--,--,350,350
Vitamins
"Vitamin C, total ascorbic acid",mg,--,--,14.8,14.8
"Vitamin A, IU",IU,--,--,412,412
Lipids
"Fatty acids, total saturated",g,--,--,1.500,1.500
"Fatty acids, total trans",g,--,--,0.000,0.000
"Cholesterol",mg,--,--,45,45
Amino Acids
Other
Ingredients
"BLACK BEANS, FLOUR TORTILLA (ENRICHED, UNBLEACHED FLOUR [WHEAT FLOUR, MALTED BARLEY FLOUR, REDUCED IRON, NIACIN, THIAMIN MONONITRATE, RIBOFLAVIN, FOLIC ACID], WATER, PALM SHORTENING, CULTURED WHEAT FLOUR, WHEAT GLUTEN, SALT, MONO AND DIGLYCERIDES, CITRIC ACID, YEAST, GUAR GUM, XANTHAN GUM, ENZYMES, SODIUM BICARBONATE, SODIUM ACID PYROPHOSPHATE), WATER, MONTEREY JACK CHEESE (CULTURED PASTEURIZED MILK, SALT, ENZYMES, POTATO STARCH AND CELLULOSE POWDER [TO PREVENT CAKING]), EGG, RED PEPPER, TEXTURED WHEAT PROTEIN (WHEAT GLUTEN), CORN, POBLANO PEPPERS, CORN STARCH, BROWN RICE, CILANTRO, JALAPENO PEPPER, CORN OIL, SCALLIONS, ENRICHED FLOUR (WHEAT FLOUR, MALTED BARLEY FLOUR, NIACIN, REDUCED IRON, THIAMIN MONONITRATE, RIBOFLAVIN, FOLIC ACID), CUMIN, JALAPENO PEPPER SAUCE (DISTILLED VINEGAR, JALAPENO PEPPER, WATER, SALT, CORNSTARCH, XANTHAN GUM, ASCORBIC ACID), SEA SALT, CHIPOTLE PEPPER SAUCE (CHIPOTLE PEPPER, DISTILLED VINEGAR, WATER, SALT, SUGAR, ONION POWDER, GARLIC POWDER, SPICES, NATURAL FLAVOR, PEPPER PULP [DISTILLED VINEGAR, RED PEPPER, SALT]), CHILI POWDER (CHILI POWDER, PAPRIKA, SALT, SPICES, GARLIC), OREGANO, GARLIC (CHOPPED GARLIC, WATER, SOYBEAN OIL, CITRIC ACID), CINNAMON POWDER, ANCHO POWDER." Date available: 07/14/2017 Date last updated by company: 07/14/2017
