Source: USDA Branded Food Products Database Release December 2017 Software v.3.8.6.4 2017-10-02
Report Run at: December 18, 2017 03:35 EST
"Nutrient data for: 45185222, SOUTHERN HOME, CHOCOLATE ICE CREAM, UPC: 607880040937"
Food Group:  Branded Food Products Database
Common Name:

Nutrient,Unit,Data points,Std. Error,"0.5 cup = 68.0g",1Value per 100 g,
Proximates
"Energy",kcal,--,--,140,206
"Protein",g,--,--,3.00,4.41
"Total lipid (fat)",g,--,--,7.00,10.29
"Carbohydrate, by difference",g,--,--,17.00,25.00
"Fiber, total dietary",g,--,--,1.0,1.5
"Sugars, total",g,--,--,14.00,20.59
Minerals
"Calcium, Ca",mg,--,--,100,147
"Iron, Fe",mg,--,--,0.81,1.19
"Sodium, Na",mg,--,--,75,110
Vitamins
"Vitamin C, total ascorbic acid",mg,--,--,0.0,0.0
"Vitamin A, IU",IU,--,--,337,496
Lipids
"Fatty acids, total saturated",g,--,--,4.998,7.350
"Fatty acids, total trans",g,--,--,0.000,0.000
"Cholesterol",mg,--,--,30,44
Amino Acids
Other
Ingredients
"SKIM MILK, CREAM, SUGAR, CORN SYRUP, COCOA PROCESSED WITH ALKALI, WHEY, CONTAINS 2% OR LESS OF MONO- AND DIGLYCERIDES, GUAR GUM, CALCIUM SULFATE, LOCUST BEAN GUM, CARRAGEENAN." Date available: 07/14/2017 Date last updated by company: 07/14/2017
