Source: USDA Branded Food Products Database Release December 2017 Software v.3.8.6.4 2017-10-02
Report Run at: December 18, 2017 03:38 EST
"Nutrient data for: 45170111, SOUTHERN LINKS BBQ, SWEET & TANGY SAUCE, UPC: 869294000048"
Food Group:  Branded Food Products Database
Common Name:

Nutrient,Unit,Data points,Std. Error,"2.0 Tbsp = 30.0g",1Value per 100 g,
Proximates
"Energy",kcal,--,--,30,100
"Protein",g,--,--,0.00,0.00
"Total lipid (fat)",g,--,--,0.00,0.00
"Carbohydrate, by difference",g,--,--,7.00,23.33
"Fiber, total dietary",g,--,--,1.0,3.3
"Sugars, total",g,--,--,6.00,20.00
Minerals
"Iron, Fe",mg,--,--,1.22,4.06
"Sodium, Na",mg,--,--,135,450
Vitamins
"Vitamin A, IU",IU,--,--,169,563
Lipids
Amino Acids
Other
Ingredients
"WATER, TOMATO PASTE, VINEGAR, LIGHT BROWN SUGAR (SUGAR, MOLASSES), CORN SYRUP, MOLASSES (100% CANE SYRUP), APPLE CIDER VINEGAR, SUGAR, PREPARED MUSTARD (DISTILLED VINEGAR, WATER, NO. 1 MUSTARD SEED, SALT, TURMERIC, OLEORESIN PAPRIKA, SPICES), KOSHER SALT, SPICES, XANTHAN GUM." Date available: 07/14/2017 Date last updated by company: 07/14/2017
