Source: USDA Branded Food Products Database Release December 2017 Software v.3.8.6.4 2017-10-02
Report Run at: December 18, 2017 03:42 EST
"Nutrient data for: 45050731, SOUTHGATE, BEANS & FRANKS, UPC: 071846930035"
Food Group:  Branded Food Products Database
Common Name:

Nutrient,Unit,Data points,Std. Error,"1 cup = 240.0g",1Value per 100 g,
Proximates
"Energy",kcal,--,--,281,117
"Protein",g,--,--,13.99,5.83
"Total lipid (fat)",g,--,--,10.01,4.17
"Carbohydrate, by difference",g,--,--,34.99,14.58
"Fiber, total dietary",g,--,--,7.9,3.3
"Sugars, total",g,--,--,10.01,4.17
Minerals
"Calcium, Ca",mg,--,--,60,25
"Iron, Fe",mg,--,--,2.86,1.19
"Sodium, Na",mg,--,--,1080,450
Vitamins
"Vitamin C, total ascorbic acid",mg,--,--,0.0,0.0
"Vitamin A, IU",IU,--,--,211,88
Lipids
"Fatty acids, total saturated",g,--,--,3.504,1.460
"Fatty acids, total trans",g,--,--,0.000,0.000
"Cholesterol",mg,--,--,46,19
Amino Acids
Other
Ingredients
"WATER, FRANKS MADE WITH CHICKEN. PORK AND BEEF (MECHANICALLY SEPARATED CHICKEN, PORK, WATER, BEEF, DEXTROSE, SALT, CORN SYRUP, SPICES, SODIUM PHOSPHATE, SODIUM ERYTHORABATE, FLAVORINGS, GARLIC POWDER, SODIUM NITRITE), BEANS, TOMATO PASTE, MODIFIED FOOD STARCH, SUGAR, SALT, ONION POWDER, GARLIC POWDER," Date available: 06/25/2017 Date last updated by company: 06/25/2017
