Source: USDA Branded Food Products Database Release December 2017 Software v.3.8.6.4 2017-10-02
Report Run at: December 18, 2017 03:39 EST
"Nutrient data for: 45290488, SOUTHERN ROASTED PECAN PREMIUM GELATO, UPC: 041172813128"
Food Group:  Branded Food Products Database
Common Name:

Nutrient,Unit,Data points,Std. Error,"0.5 cup = 93.0g",1Value per 100 g,
Proximates
"Energy",kcal,--,--,180,194
"Protein",g,--,--,4.00,4.30
"Total lipid (fat)",g,--,--,8.00,8.60
"Carbohydrate, by difference",g,--,--,24.00,25.81
"Fiber, total dietary",g,--,--,1.0,1.1
"Sugars, total",g,--,--,21.00,22.58
Minerals
"Calcium, Ca",mg,--,--,100,108
"Iron, Fe",mg,--,--,0.00,0.00
"Potassium, K",mg,--,--,150,161
"Sodium, Na",mg,--,--,55,59
Vitamins
"Vitamin C, total ascorbic acid",mg,--,--,1.4,1.5
"Vitamin A, IU",IU,--,--,113,121
Lipids
"Fatty acids, total saturated",g,--,--,5.003,5.380
"Fatty acids, total trans",g,--,--,0.000,0.000
"Cholesterol",mg,--,--,10,11
Amino Acids
Other
Ingredients
"MILK, CANE SUGAR, PECANS, CREAM, COCONUT OIL, DEXTROSE, GLUCOSE, VEGETABLE FIBER, HONEY, SALT, MOLASSES, NATURAL FLAVORS, GUAR GUM, TARA GUM, PECTIN, XANTHAN GUM, SOYBEAN OIL, CITRIC ACID." Date available: 07/14/2017 Date last updated by company: 07/14/2017
