Source: USDA Branded Food Products Database Release December 2017 Software v.3.8.6.4 2017-10-02
Report Run at: December 18, 2017 03:45 EST
"Nutrient data for: 45274600, SOUTHWEST INSPIRED CORN & BLACK BEAN, UPC: 085239148143"
Food Group:  Branded Food Products Database
Common Name:

Nutrient,Unit,Data points,Std. Error,"0.5 cup = 85.0g",1Value per 100 g,
Proximates
"Energy",kcal,--,--,100,118
"Protein",g,--,--,3.00,3.53
"Total lipid (fat)",g,--,--,2.00,2.35
"Carbohydrate, by difference",g,--,--,16.00,18.82
"Fiber, total dietary",g,--,--,3.0,3.5
"Sugars, total",g,--,--,4.00,4.71
Minerals
"Calcium, Ca",mg,--,--,0,0
"Iron, Fe",mg,--,--,0.72,0.85
"Sodium, Na",mg,--,--,280,329
Vitamins
"Vitamin C, total ascorbic acid",mg,--,--,6.0,7.1
"Vitamin A, IU",IU,--,--,0,0
Lipids
"Fatty acids, total saturated",g,--,--,0.000,0.000
"Fatty acids, total trans",g,--,--,0.000,0.000
"Cholesterol",mg,--,--,0,0
Amino Acids
Other
Ingredients
"YELLOW CUT CORN, BLACK BEANS (BLACK BEANS, WATER), DICED RED AND GREEN PEPPERS, DICED ONION, SEASONING (SALT, SUGAR, ONION POWDER, GARLIC POWDER, NATURAL FLAVORS [INCLUDING MALTODEXTRIN, MODIFIED CORN STARCH, CORN SYRUP SOLIDS, MILK], SPICES [INCLUDING CILANTRO], CILANTRO OIL), PARTIALLY HYDROGENATED SOYBEAN OIL." Date available: 07/14/2017 Date last updated by company: 07/14/2017
