Source: USDA Branded Food Products Database Release December 2017 Software v.3.8.6.4 2017-10-02
Report Run at: December 18, 2017 03:39 EST
"Nutrient data for: 45271277, SOUTHERN STYLE CHICKEN BISCUITS, UPC: 070800405886"
Food Group:  Branded Food Products Database
Common Name:

Nutrient,Unit,Data points,Std. Error,"1 PIECE = 84.0g",1Value per 100 g,
Proximates
"Energy",kcal,--,--,230,274
"Protein",g,--,--,10.00,11.90
"Total lipid (fat)",g,--,--,11.00,13.10
"Carbohydrate, by difference",g,--,--,23.00,27.38
"Fiber, total dietary",g,--,--,1.0,1.2
"Sugars, total",g,--,--,3.00,3.57
Minerals
"Calcium, Ca",mg,--,--,60,71
"Iron, Fe",mg,--,--,1.46,1.74
"Sodium, Na",mg,--,--,600,714
Vitamins
"Vitamin C, total ascorbic acid",mg,--,--,0.0,0.0
"Vitamin A, IU",IU,--,--,0,0
Lipids
"Fatty acids, total saturated",g,--,--,4.998,5.950
"Fatty acids, total trans",g,--,--,0.000,0.000
"Cholesterol",mg,--,--,20,24
Amino Acids
Other
Ingredients
"BUTTERMILK BISCUIT: ENRICHED BLEACHED WHEAT FLOUR (NIACIN, REDUCED IRON, THIAMIN MONONITRATE, RIBOFLAVIN, FOLIC ACID, ENZYME), WATER, SHORTENING FLAKES (PALMOIL WITH NATURAL BUTTER FLAVOR AND SOY LECITHIN), DEXTROSE, HIGH ACID BUTTERMILK BLEND (BUTTERMILK SOLIDS, WHEY SOLIDS, MILK PROTEIN, LACTIC ACID), SUGAR, SALT, DOUGH CONDITIONER (SOY FIBER, DATEM, GUAR GUM, CELLULOSE GUM, XANTHAN GUM), SODIUM BICARBONATE, SODIUM ALUMINUM PHOSPHATE, SODIUM ACID PYROPHOSPHATE, CALCIUM PROPIONATE, L-CYSTEINE. FULLY COOKED BREADED CHICKEN BREAST FILLET SHAPED PATTIES WITH RIB MEAT: CHICKEN BREAST WITH RIB MEAT, WATER, BLEACHED WHEAT FLOUR, WHEAT FLOUR, SALT, FLAVORINGS, SODIUM PHOSPHATES, LEAVENING (SODIUM ACID PYROPHOSPHATE, SODIUM BICARBONATE, MONOCALCIUM PHOSPHATE), AUTOLYZED YEAST, SUGAR, SET IN VEGETABLE OIL." Date available: 07/14/2017 Date last updated by company: 07/14/2017
