Source: USDA Branded Food Products Database Release December 2017 Software v.3.8.6.4 2017-10-02
Report Run at: December 18, 2017 03:47 EST
"Nutrient data for: 45325739, SOUVLAKI SAUCE, UPC: 011225191459"
Food Group:  Branded Food Products Database
Common Name:

Nutrient,Unit,Data points,Std. Error,"1 Tbsp = 15.0g",1Value per 100 g,
Proximates
"Energy",kcal,--,--,50,333
"Protein",g,--,--,0.00,0.00
"Total lipid (fat)",g,--,--,5.00,33.33
"Carbohydrate, by difference",g,--,--,1.00,6.67
"Fiber, total dietary",g,--,--,0.0,0.0
"Sugars, total",g,--,--,0.00,0.00
Minerals
"Calcium, Ca",mg,--,--,0,0
"Iron, Fe",mg,--,--,0.00,0.00
"Potassium, K",mg,--,--,0,0
"Sodium, Na",mg,--,--,210,1400
Vitamins
"Vitamin D",IU,--,--,0,0
Lipids
"Fatty acids, total saturated",g,--,--,0.000,0.000
"Fatty acids, total trans",g,--,--,0.000,0.000
"Cholesterol",mg,--,--,0,0
Amino Acids
Other
Ingredients
"WATER, CANOLA OIL, LEMONS, RED WINE VINEGAR, DISTILLED VINEGAR, SALT, DEHYDRATED GARLIC, GARLIC, SPICES, SUGAR, MODIFIED CORN STARCH, LEMON JUICE CONCENTRATE, PREPARED DIJON MUSTARD (DISTILLED VINEGAR, MUSTARD SEEDS, WATER, WHITE WINE, CITRIC ACID, TURMERIC, TARTARIC ACID, SPICES), PARSLEY, CITRIC ACID, SODIUM BENZOATE (PRESERVATIVE), LEMON OIL, XANTHAN GUM, DISODIUM EDTA (TO PROTECT FLAVOR)." Date available: 08/11/2017 Date last updated by company: 08/11/2017
