Source: USDA Branded Food Products Database Release December 2017 Software v.3.8.6.4 2017-10-02
Report Run at: December 18, 2017 03:50 EST
"Nutrient data for: 45219955, SOY GINGER GLAZED SALMON FILLETS, UPC: 085239073780"
Food Group:  Branded Food Products Database
Common Name:

Nutrient,Unit,Data points,Std. Error,"1 FILLET | ABOUT = 140.0g",1Value per 100 g,
Proximates
"Energy",kcal,--,--,181,129
"Protein",g,--,--,26.00,18.57
"Total lipid (fat)",g,--,--,6.01,4.29
"Carbohydrate, by difference",g,--,--,4.00,2.86
"Fiber, total dietary",g,--,--,0.0,0.0
"Sugars, total",g,--,--,0.99,0.71
Minerals
"Calcium, Ca",mg,--,--,20,14
"Iron, Fe",mg,--,--,0.43,0.31
"Sodium, Na",mg,--,--,260,186
Vitamins
"Vitamin C, total ascorbic acid",mg,--,--,0.7,0.5
"Vitamin A, IU",IU,--,--,60,43
Lipids
"Fatty acids, total saturated",g,--,--,0.994,0.710
"Fatty acids, total trans",g,--,--,0.000,0.000
"Cholesterol",mg,--,--,55,39
Amino Acids
Other
Ingredients
"SALMON, WATER, CONTAINS 2% OR LESS OF: SUGAR, DEHYDRATED GARLIC, DEHYDRATED SOY SAUCE (SOYBEANS, WHEAT, SALT), DEHYDRATED ONION, CORN STARCH, FISH GELATIN (TILAPIA), MALTODEXTRIN, SESAME SEEDS, SPICES (INCLUDING GINGER), DEHYDRATED GREEN ONION, SESAME OIL, DEHYDRATED PARSLEY, NATURAL FLAVORINGS." Date available: 07/14/2017 Date last updated by company: 07/14/2017
