Source: USDA Branded Food Products Database Release December 2017 Software v.3.8.6.4 2017-10-02
Report Run at: December 18, 2017 03:53 EST
"Nutrient data for: 45332855, SOY SAUCE, UPC: 073575543005"
Food Group:  Branded Food Products Database
Common Name:

Nutrient,Unit,Data points,Std. Error,"1 Tbsp = 15.0g",1Value per 100 g,
Proximates
"Energy",kcal,--,--,10,67
"Protein",g,--,--,0.00,0.00
"Total lipid (fat)",g,--,--,0.00,0.00
"Carbohydrate, by difference",g,--,--,2.00,13.33
"Sugars, total",g,--,--,1.00,6.67
Minerals
"Sodium, Na",mg,--,--,350,2333
Vitamins
Lipids
"Fatty acids, total saturated",g,--,--,0.000,0.000
"Fatty acids, total trans",g,--,--,0.000,0.000
"Cholesterol",mg,--,--,0,0
Amino Acids
Other
Ingredients
"WATER, SOY SAUCE (WATER, WHEAT, SOYBEANS AND SALT), HIGH FRUCTOSE CORN SYRUP, DISTILLED VINEGAR, RICE VINEGAR, SALT, ORANGE JUICE FROM CONCENTRATE, YEAST EXTRACT, LEMON JUICE FROM CONCENTRATE, NATURAL ORANGE FLAVOR, CITRIC ACID, SUCCINIC ACID AND SODIUM BENZOATE (AS PRESERVATIVE)." Date available: 10/19/2017 Date last updated by company: 10/19/2017
