Source: USDA Branded Food Products Database Release December 2017 Software v.3.8.6.4 2017-10-02
Report Run at: December 18, 2017 04:27 EST
"Nutrient data for: 45199262, SPAGHETTI SAUCE MIX, UPC: 092825109556"
Food Group:  Branded Food Products Database
Common Name:

Nutrient,Unit,Data points,Std. Error,"2.0 tsp = 7.0g",1Value per 100 g,
Proximates
"Energy",kcal,--,--,25,357
"Protein",g,--,--,0.00,0.00
"Total lipid (fat)",g,--,--,0.00,0.00
"Carbohydrate, by difference",g,--,--,5.00,71.43
"Fiber, total dietary",g,--,--,0.0,0.0
"Sugars, total",g,--,--,2.00,28.57
Minerals
"Calcium, Ca",mg,--,--,0,0
"Iron, Fe",mg,--,--,0.00,0.00
"Sodium, Na",mg,--,--,350,5000
Vitamins
"Vitamin C, total ascorbic acid",mg,--,--,8.6,122.5
"Vitamin A, IU",IU,--,--,1428,20407
Lipids
"Fatty acids, total saturated",g,--,--,0.000,0.000
"Fatty acids, total trans",g,--,--,0.000,0.000
"Cholesterol",mg,--,--,0,0
Amino Acids
Other
Ingredients
"POTATO STARCH-MODIFIED, SUGAR, SALT, WHEY, SPICE AND COLORING, MALTODEXTRIN, NONFAT MILK, ROMANO CHEESE (PASTEURIZED MILK, CHEESE CULTURES, SALT AND ENZYMES), ONION, CONTAINS LESS THAN 2%: CHEDDAR CHEESE, BUTTERMILK, SWEET CREAM, SODIUM CASEINATE, BUTTER, CORN OIL, GARLIC POWDER, GREEN BELL PEPPERS, NATURAL FLAVOR, LACTIC ACID, CALCIUM LACTATE, SODIUM CITRATE, DISODIUM PHOSPHATE, YELLOW 5 LAKE, YELLOW 6 LAKE." Date available: 07/14/2017 Date last updated by company: 07/14/2017
