Source: USDA Branded Food Products Database Release December 2017 Software v.3.8.6.4 2017-10-02
Report Run at: December 18, 2017 04:31 EST
"Nutrient data for: 45324292, SPAGHETTI WITH MEAT SAUCE, UPC: 078742141039"
Food Group:  Branded Food Products Database
Common Name:

Nutrient,Unit,Data points,Std. Error,"1 TRAY = 283.0g",1Value per 100 g,
Proximates
"Energy",kcal,--,--,359,127
"Protein",g,--,--,15.99,5.65
"Total lipid (fat)",g,--,--,12.00,4.24
"Carbohydrate, by difference",g,--,--,48.00,16.96
"Fiber, total dietary",g,--,--,4.0,1.4
"Sugars, total",g,--,--,6.99,2.47
Minerals
"Calcium, Ca",mg,--,--,99,35
"Iron, Fe",mg,--,--,1.25,0.44
"Potassium, K",mg,--,--,640,226
"Sodium, Na",mg,--,--,770,272
Vitamins
"Vitamin C, total ascorbic acid",mg,--,--,8.2,2.9
"Vitamin A, IU",IU,--,--,688,243
Lipids
"Fatty acids, total saturated",g,--,--,3.990,1.410
"Fatty acids, total monounsaturated",g,--,--,6.000,2.120
"Fatty acids, total polyunsaturated",g,--,--,2.009,0.710
"Fatty acids, total trans",g,--,--,0.000,0.000
"Cholesterol",mg,--,--,34,12
Amino Acids
Other
Ingredients
"COOKED PASTA (WATER, SEMOLINA [MILLED WHEAT], EGG WHITES), WATER, TOMATO PASTE, COOKED ITALIAN SAUSAGE (PORK, WATER, SPICES, SALT, GARLIC POWDER), COOKED BEEF, TOMATOES (TOMATOES, TOMATO JUICE, CITRIC ACID), PARMESAN CHEESE (PASTEURIZED PART-SKIM MILK, CHEESE CULTURES, SALT, ENZYMES), MODIFIED CORNSTARCH, CANOLA OIL, GARLIC (GARLIC, WATER), SALT, SUGAR, ONION, SPICES, XANTHAN GUM." Date available: 10/13/2017 Date last updated by company: 10/13/2017
