Source: USDA Branded Food Products Database Release December 2017 Software v.3.8.6.4 2017-10-02
Report Run at: December 18, 2017 03:56 EST
"Nutrient data for: 45111096, SPAGHETTI MARINARA, UPC: 073369060558"
Food Group:  Branded Food Products Database
Common Name:

Nutrient,Unit,Data points,Std. Error,"1 PACKAGE = 213.0g",1Value per 100 g,
Proximates
"Energy",kcal,--,--,241,113
"Protein",g,--,--,8.01,3.76
"Total lipid (fat)",g,--,--,4.00,1.88
"Carbohydrate, by difference",g,--,--,44.01,20.66
"Fiber, total dietary",g,--,--,3.0,1.4
"Sugars, total",g,--,--,3.00,1.41
Minerals
"Calcium, Ca",mg,--,--,40,19
"Iron, Fe",mg,--,--,1.64,0.77
"Sodium, Na",mg,--,--,349,164
Vitamins
"Vitamin C, total ascorbic acid",mg,--,--,4.5,2.1
"Vitamin A, IU",IU,--,--,275,129
Lipids
"Fatty acids, total saturated",g,--,--,0.490,0.230
"Fatty acids, total trans",g,--,--,0.000,0.000
"Cholesterol",mg,--,--,0,0
Amino Acids
Other
Ingredients
"COOKED ENRICHED MACARONI PRODUCT (WATER, DURUM SEMOLINA [ENRICHED WITH NIACIN, FERROUS SULFATE, THIAMINE MONONITRATE, RIBOFLAVIN, FOLIC ACID]), WATER, TOMATO PASTE, DICED TOMATOES (TOMATOES, TOMATO JUICE, CITRIC ACID, CALCIUM CHLORIDE), LESS THAN 2% OF ONIONS, CANOLA OIL, SALT, PARMESAN CHEESE (PASTEURIZED PART SKIM MILK, CHEESE CULTURES, SALT, ENZYMES), MODIFIED FOOD STARCH, SPICES, GRANULATED GARLIC, XANTHAN GUM." Date available: 07/14/2017 Date last updated by company: 07/14/2017
