Source: USDA Branded Food Products Database Release December 2017 Software v.3.8.6.4 2017-10-02
Report Run at: December 18, 2017 04:29 EST
"Nutrient data for: 45203949, SPAGHETTI, UPC: 896392001424"
Food Group:  Branded Food Products Database
Common Name:

Nutrient,Unit,Data points,Std. Error,"4.5 ONZ = 128.0g",1Value per 100 g,
Proximates
"Energy",kcal,--,--,340,266
"Protein",g,--,--,12.01,9.38
"Total lipid (fat)",g,--,--,2.30,1.80
"Carbohydrate, by difference",g,--,--,61.00,47.66
"Fiber, total dietary",g,--,--,2.9,2.3
"Sugars, total",g,--,--,1.00,0.78
Minerals
"Calcium, Ca",mg,--,--,20,16
"Iron, Fe",mg,--,--,0.79,0.62
"Sodium, Na",mg,--,--,15,12
Vitamins
"Vitamin C, total ascorbic acid",mg,--,--,9.9,7.7
"Vitamin A, IU",IU,--,--,1367,1068
Lipids
"Fatty acids, total saturated",g,--,--,0.000,0.000
"Fatty acids, total trans",g,--,--,0.000,0.000
"Cholesterol",mg,--,--,60,47
Amino Acids
Other
Ingredients
"SEMOLINA, DURUM, EGGS, WATER" Date available: 08/21/2017 Date last updated by company: 08/21/2017
