Source: USDA Branded Food Products Database Release December 2017 Software v.3.8.6.4 2017-10-02
Report Run at: December 18, 2017 04:31 EST
"Nutrient data for: 45312647, SPAM, LITE CANNED MEAT, UPC: 037600175340"
Food Group:  Branded Food Products Database
Common Name:

Nutrient,Unit,Data points,Std. Error,"2.0 ONZ = 56.0g",1Value per 100 g,
Proximates
"Energy",kcal,--,--,110,196
"Protein",g,--,--,9.00,16.07
"Total lipid (fat)",g,--,--,8.00,14.29
"Carbohydrate, by difference",g,--,--,1.00,1.79
"Fiber, total dietary",g,--,--,0.0,0.0
"Sugars, total",g,--,--,0.00,0.00
Minerals
"Calcium, Ca",mg,--,--,0,0
"Iron, Fe",mg,--,--,0.35,0.63
"Sodium, Na",mg,--,--,580,1036
Vitamins
"Vitamin C, total ascorbic acid",mg,--,--,17.7,31.6
"Vitamin A, IU",IU,--,--,0,0
Lipids
"Fatty acids, total saturated",g,--,--,3.002,5.360
"Fatty acids, total trans",g,--,--,0.000,0.000
"Cholesterol",mg,--,--,40,71
Amino Acids
Other
Ingredients
"PORK WITH HAM, MECHANICALLY SEPARATED CHICKEN, WATER, SALT, MODIFIED POTATO STARCH, SUGAR, SODIUM PHOSPHATES, POTASSIUM CHLORIDE, SODIUM ASCORBATE, SODIUM NITRITE." Date available: 09/08/2017 Date last updated by company: 09/08/2017
