Source: USDA Branded Food Products Database Release December 2017 Software v.3.8.6.4 2017-10-02
Report Run at: December 18, 2017 04:34 EST
"Nutrient data for: 45323498, SPANISH SLICED MANZANILLA OLIVES WITH MINCED PIMIENTO, UPC: 072036721754"
Food Group:  Branded Food Products Database
Common Name:

Nutrient,Unit,Data points,Std. Error,"2.0 Tbsp = 15.0g",1Value per 100 g,
Proximates
"Energy",kcal,--,--,20,133
"Protein",g,--,--,0.00,0.00
"Total lipid (fat)",g,--,--,2.00,13.33
"Carbohydrate, by difference",g,--,--,1.00,6.67
Minerals
"Sodium, Na",mg,--,--,300,2000
Vitamins
Lipids
"Fatty acids, total saturated",g,--,--,0.000,0.000
"Fatty acids, total trans",g,--,--,0.000,0.000
"Cholesterol",mg,--,--,0,0
Amino Acids
Other
Ingredients
"MANZANILLA OLIVES, WATER, MINCED PIMIENTO (PIMIENTO, GELLING AGENTS [SODIUM ALGINATE, GUAR GUM], FIRMING AGENT [CALCIUM CHLORIDE]), SALT, LACTIC ACID (FOR ACIDITY), CITRIC ACID (FOR ACIDITY)." Date available: 07/14/2017 Date last updated by company: 07/14/2017
