Source: USDA Branded Food Products Database Release December 2017 Software v.3.8.6.4 2017-10-02
Report Run at: December 18, 2017 04:33 EST
"Nutrient data for: 45053192, SPANISH OLIVES (STUFFED MANZANILLA), UPC: 033698815687"
Food Group:  Branded Food Products Database
Common Name:

Nutrient,Unit,Data points,Std. Error,"4.0 OLIVES = 14.0g",1Value per 100 g,
Proximates
"Energy",kcal,--,--,15,107
"Protein",g,--,--,0.00,0.00
"Total lipid (fat)",g,--,--,1.50,10.71
"Carbohydrate, by difference",g,--,--,1.00,7.14
"Fiber, total dietary",g,--,--,1.0,7.1
"Sugars, total",g,--,--,0.00,0.00
Minerals
"Sodium, Na",mg,--,--,300,2143
Vitamins
Lipids
"Fatty acids, total saturated",g,--,--,0.000,0.000
"Fatty acids, total trans",g,--,--,0.000,0.000
"Cholesterol",mg,--,--,0,0
Amino Acids
Other
Ingredients
"OLIVES STUFFED WITH MINCED PIMIENTO, SODIUM ALGINATE, GUAR GUM AND CALCIUM CHLORIDE, WATER SALT, LATIC ACID ADDED." Date available: 06/25/2017 Date last updated by company: 06/25/2017
