Source: USDA Branded Food Products Database Release December 2017 Software v.3.8.6.4 2017-10-02
Report Run at: December 18, 2017 04:35 EST
"Nutrient data for: 45199488, SPANISH STYLE COOKED RICE, UPC: 085239201954"
Food Group:  Branded Food Products Database
Common Name:

Nutrient,Unit,Data points,Std. Error,"1 cup = 135.0g",1Value per 100 g,
Proximates
"Energy",kcal,--,--,170,126
"Protein",g,--,--,3.00,2.22
"Total lipid (fat)",g,--,--,3.50,2.59
"Carbohydrate, by difference",g,--,--,31.00,22.96
"Fiber, total dietary",g,--,--,0.9,0.7
"Sugars, total",g,--,--,2.00,1.48
Minerals
"Calcium, Ca",mg,--,--,0,0
"Iron, Fe",mg,--,--,0.36,0.27
"Sodium, Na",mg,--,--,560,415
Vitamins
"Vitamin C, total ascorbic acid",mg,--,--,2.0,1.5
"Vitamin A, IU",IU,--,--,100,74
Lipids
"Fatty acids, total saturated",g,--,--,0.000,0.000
"Fatty acids, total trans",g,--,--,0.000,0.000
"Cholesterol",mg,--,--,0,0
Amino Acids
Other
Ingredients
"RICE WATER, ENRICHED PARBOILED RICE [LONG GRAIN RICE, NIACIN, IRON PHOSPHATE, THIAMIN MONONITRATE, FOLIC ACID]), TOMATOES, ONION, TOMATO SAUCE (TOMATO PUREE, SALT, RED PEPPER, DEHYDRATED ONION, DEHYDRATED GARLIC, NATURAL FLAVOR, CITRIC ACID), FIRE ROASTED VEGETABLES (ONIONS, GREEN BELL PEPPERS, RED BELL PEPPERS), FIRE ROASTED CORN, CANOLA OIL, VEGETABLE BASE (VEGETABLES AND CONCENTRATED VEGETABLES [ONION, CARROTS, CELERY], SEA SALT, SUGAR, SAFFLOWER OIL, MALTODEXTRIN, DEHYDRATED POTATO, YEAST EXTRACT, CELERY EXTRACTIVE), GARLIC, CULTURED DEXTROSE, SEA SALT, CILANTRO." Date available: 07/14/2017 Date last updated by company: 07/14/2017
