Source: USDA Branded Food Products Database Release December 2017 Software v.3.8.6.4 2017-10-02
Report Run at: December 18, 2017 04:34 EST
"Nutrient data for: 45199366, SPANISH RICE WITH FIRE ROASTED VEGETABLE, UPC: 082964701384"
Food Group:  Branded Food Products Database
Common Name:

Nutrient,Unit,Data points,Std. Error,"1 cup = 160.0g",1Value per 100 g,
Proximates
"Energy",kcal,--,--,200,125
"Protein",g,--,--,4.00,2.50
"Total lipid (fat)",g,--,--,4.00,2.50
"Carbohydrate, by difference",g,--,--,36.00,22.50
"Fiber, total dietary",g,--,--,1.0,0.6
"Sugars, total",g,--,--,3.01,1.88
Minerals
"Calcium, Ca",mg,--,--,19,12
"Iron, Fe",mg,--,--,0.40,0.25
"Sodium, Na",mg,--,--,499,312
Vitamins
"Vitamin C, total ascorbic acid",mg,--,--,3.4,2.1
"Vitamin A, IU",IU,--,--,112,70
Lipids
"Fatty acids, total saturated",g,--,--,0.000,0.000
"Fatty acids, total trans",g,--,--,0.000,0.000
"Cholesterol",mg,--,--,0,0
Amino Acids
Other
Ingredients
"RICE (WATER, ENRICHED PARBOILED RICE [LONG GRAIN RICE, NIACIN, IRON PHOSPHATE, THIAMIN MONONITRATE, FOLIC ACID]), PLUM TOMATOES, ONION, TOMATO PUREE (TOMATOES, SALT, CITRIC ACID, FIRE ROASTED VEGETABLES (ONION RED BELL PEPPER, GREEN BELL PEPPER), CORN, CANOLA OIL, VEGETABLE BASE (COOKED VEGETABLES [CARROTS, ONIONS, CELERY], SALT, SUGAR, CORN OIL, POTATO FLOUR, CARROT POWDER), GARLIC, CULTURED DEXTROSE, SALT, CILANTRO." Date available: 07/14/2017 Date last updated by company: 07/14/2017
