Source: USDA Branded Food Products Database Release December 2017 Software v.3.8.6.4 2017-10-02
Report Run at: December 18, 2017 04:32 EST
"Nutrient data for: 45261994, SPANAKOPITA, UPC: 754807070758"
Food Group:  Branded Food Products Database
Common Name:

Nutrient,Unit,Data points,Std. Error,"5.0 PIECES = 142.0g",1Value per 100 g,
Proximates
"Energy",kcal,--,--,270,190
"Protein",g,--,--,10.00,7.04
"Total lipid (fat)",g,--,--,14.00,9.86
"Carbohydrate, by difference",g,--,--,26.99,19.01
"Fiber, total dietary",g,--,--,2.0,1.4
"Sugars, total",g,--,--,6.01,4.23
Minerals
"Calcium, Ca",mg,--,--,200,141
"Iron, Fe",mg,--,--,1.08,0.76
"Sodium, Na",mg,--,--,601,423
Vitamins
"Vitamin C, total ascorbic acid",mg,--,--,0.0,0.0
"Vitamin A, IU",IU,--,--,179,126
Lipids
"Fatty acids, total saturated",g,--,--,4.998,3.520
"Fatty acids, total trans",g,--,--,0.000,0.000
"Cholesterol",mg,--,--,30,21
Amino Acids
Other
Ingredients
"FILLING: SPINACH, FETA CHEESE (PASTEURIZED MILK, BACTERIAL CULTURE, SALT, MICROBIAL ENZYME, CALCIUM CHLORIDE, LIPASE), ONION, CREAM CHEESE (PASTEURIZED NON FAT MILK AND MILKFAT, CHEESE CULTURE, SALT, STABILIZER [CAROB BEAN GUM]), RICOTTA CHEESE (WHEY, MILK, CHEESE CULTURE, CITRIC ACID, SALT), TOASTED WHEAT CRUMBS [WHEAT FLOUR, SUGAR, BAKING POWDER, VINEGAR, HIGH MONOUNSATURATED VEGETABLE OIL (CANOLA AND/OR SOYBEAN AND/OR SUNFLOWER SEED), SALT, ACETYLATED TARTARIC ACID ESTERS OF MONO AND DIGLYCERIDES, MONOGLYCERIDES, YEAST, CALCIUM SULPHATE), SPICES, DOUGH CONDITIONERS (L-CYSTEINE MONOHYDROCHLORIDE, AZODICARBONAMIDE)], CANOLA OIL, MODIFIED CORN STARCH, SALT, DEHYDRATED GARLIC, HERBS AND SPICE. PHYLLO PASTRY: ENRICHED FLOUR (WHEAT FLOUR, NIACIN, REDUCED IRON, THIAMINE MONONITRATE, RIBOFLAVIN, FOLIC ACID), WATER, VEGETABLE OIL BLEND (PALM OIL, WATER, MODIFIED PALM OIL, CANOLA OIL, SUGAR, WHEY POWDER, VEGETABLE MONOGLYCERIDES, SOYA LECITHIN, POTASSIUM SORBATE, CITRIC ACID, ARTIFICIAL FLAVOR, COLOUR, VITAMIN A PALMITATE, VITAMIN D3), MODIFIED CORN STARCH, CANOLA OIL, DEXTROSE, SALT, WHEAT GLUTEN, YEAST." Date available: 09/25/2017 Date last updated by company: 09/25/2017
