Source: USDA Branded Food Products Database Release December 2017 Software v.3.8.6.4 2017-10-02
Report Run at: December 18, 2017 05:18 EST
"Nutrient data for: 45098885, SPARTAN, RISING CRUST PEPPERONI PIZZA, UPC: 011213041933"
Food Group:  Branded Food Products Database
Common Name:

Nutrient,Unit,Data points,Std. Error,"0.1666 PIZZA = 134.0g",1Value per 100 g,
Proximates
"Energy",kcal,--,--,310,231
"Protein",g,--,--,12.01,8.96
"Total lipid (fat)",g,--,--,11.00,8.21
"Carbohydrate, by difference",g,--,--,40.00,29.85
"Fiber, total dietary",g,--,--,2.0,1.5
"Sugars, total",g,--,--,4.01,2.99
Minerals
"Calcium, Ca",mg,--,--,150,112
"Iron, Fe",mg,--,--,1.57,1.17
"Sodium, Na",mg,--,--,880,657
Vitamins
"Vitamin C, total ascorbic acid",mg,--,--,7.0,5.2
"Vitamin A, IU",IU,--,--,437,326
Lipids
"Fatty acids, total saturated",g,--,--,4.502,3.360
"Fatty acids, total monounsaturated",g,--,--,1.997,1.490
"Fatty acids, total polyunsaturated",g,--,--,1.501,1.120
"Fatty acids, total trans",g,--,--,0.000,0.000
"Cholesterol",mg,--,--,25,19
Amino Acids
Other
Ingredients
"CRUST (WHEAT FLOUR, WATER, SOYBEAN OIL, SUGAR, CORNMEAL, VITAL WHEAT GLUTEN, YEAST, DOUGH CONDITIONERS [DATEM, ASCORBIC ACID, ENZYMES, SODIUM STEAROYL LACTYLATE], SALT, SODIUM BICARBONATE, SODIUM ALUMINUM PHOSPHATE, DEXTROSE, ARTIFICIAL FLAVOR, SOY LECITHIN [PROCESSING AID]), SAUCE (WATER, TOMATO PASTE, SALT, SPICES, DEHYDRATED GARLIC, NATURAL FLAVORS, SUGAR, MALIC ACID), LOW MOISTURE PART-SKIM MOZZARELLA CHEESE (PASTEURIZED PART-SKIM MILK, CHEESE CULTURES, SALT, ENZYMES), PEPPERONI MADE WITH PORK, CHICKEN, AND BEEF (PORK, MECHANICALLY SEPARATED CHICKEN, BEEF, SALT, SPICES, DEXTROSE, LACTIC ACID STARTER CULTURE, OLEORESIN OF PAPRIKA, SODIUM ASCORBATE, FLAVORING, SODIUM NITRITE, BHA, BHT, CITRIC ACID)." Date available: 07/14/2017 Date last updated by company: 07/14/2017
