Source: USDA Branded Food Products Database Release December 2017 Software v.3.8.6.4 2017-10-02
Report Run at: December 18, 2017 04:42 EST
"Nutrient data for: 45236908, SPARKLING LIMONADE, UPC: 076606660993"
Food Group:  Branded Food Products Database
Common Name:

Nutrient,Unit,Data points,Std. Error,"8.0 OZA = 240.0g",1Value per 100 g,
Proximates
"Energy",kcal,--,--,84,35
"Protein",g,--,--,0.00,0.00
"Total lipid (fat)",g,--,--,0.00,0.00
"Carbohydrate, by difference",g,--,--,21.00,8.75
"Sugars, total",g,--,--,21.00,8.75
Minerals
"Sodium, Na",mg,--,--,0,0
Vitamins
Lipids
"Fatty acids, total saturated",g,--,--,0.000,0.000
"Fatty acids, total trans",g,--,--,0.000,0.000
Amino Acids
Other
Ingredients
"CARBONATED WATER, BEET SUGAR, CITRIC ACID, NATURAL BLOOD ORANGE FLAVOR, GLYCEROL ESTER OF WOOD ROSIN (STABILIZER), FD & C RED NO 40 AND FD & C YELLOW NO. 5 (AS COLOR)." Date available: 06/25/2017 Date last updated by company: 06/25/2017
