Source: USDA Branded Food Products Database Release December 2017 Software v.3.8.6.4 2017-10-02
Report Run at: December 18, 2017 05:19 EST
"Nutrient data for: 45113958, SPARTAN, SPANISH PEANUTS, SALTED, UPC: 011213256245"
Food Group:  Branded Food Products Database
Common Name:

Nutrient,Unit,Data points,Std. Error,"65.0 PIECES = 28.0g",1Value per 100 g,
Proximates
"Energy",kcal,--,--,160,571
"Protein",g,--,--,8.00,28.57
"Total lipid (fat)",g,--,--,14.00,50.00
"Carbohydrate, by difference",g,--,--,5.00,17.86
"Fiber, total dietary",g,--,--,2.0,7.1
"Sugars, total",g,--,--,0.00,0.00
Minerals
"Calcium, Ca",mg,--,--,20,71
"Iron, Fe",mg,--,--,1.29,4.59
"Magnesium, Mg",mg,--,--,71,255
"Phosphorus, P",mg,--,--,179,638
"Potassium, K",mg,--,--,220,786
"Sodium, Na",mg,--,--,100,357
"Copper, Cu",mg,--,--,0.200,0.714
"Manganese, Mn",mg,--,--,0.560,2.000
Vitamins
"Vitamin C, total ascorbic acid",mg,--,--,0.0,0.0
"Niacin",mg,--,--,7.142,25.507
"Vitamin A, IU",IU,--,--,0,0
Lipids
"Fatty acids, total saturated",g,--,--,1.999,7.140
"Fatty acids, total monounsaturated",g,--,--,6.000,21.430
"Fatty acids, total polyunsaturated",g,--,--,4.500,16.070
"Fatty acids, total trans",g,--,--,0.000,0.000
"Cholesterol",mg,--,--,0,0
Amino Acids
Other
Ingredients
"PEANUTS, PEANUT AND/OR CANOLA AND/OR COTTONSEED OIL, SEA SALT." Date available: 06/25/2017 Date last updated by company: 06/25/2017
