Source: USDA Branded Food Products Database Release December 2017 Software v.3.8.6.4 2017-10-02
Report Run at: December 18, 2017 05:12 EST
"Nutrient data for: 45142122, SPARTAN, MIXED HARD CANDIES, CINNAMON, BUTTERSCOTCH, PEPPERMINT & SPEARMINT NATURALLY AND ARTIFICIALLY FLAVORED, UPC: 011213033792"
Food Group:  Branded Food Products Database
Common Name:

Nutrient,Unit,Data points,Std. Error,"3.0 PIECES = 15.0g",1Value per 100 g,
Proximates
"Energy",kcal,--,--,60,400
"Protein",g,--,--,0.00,0.00
"Total lipid (fat)",g,--,--,0.00,0.00
"Carbohydrate, by difference",g,--,--,15.00,100.00
"Fiber, total dietary",g,--,--,0.0,0.0
"Sugars, total",g,--,--,10.00,66.67
Minerals
"Calcium, Ca",mg,--,--,0,0
"Iron, Fe",mg,--,--,0.00,0.00
"Sodium, Na",mg,--,--,20,133
Vitamins
"Vitamin C, total ascorbic acid",mg,--,--,0.0,0.0
"Vitamin A, IU",IU,--,--,0,0
Lipids
"Fatty acids, total saturated",g,--,--,0.000,0.000
"Fatty acids, total trans",g,--,--,0.000,0.000
"Cholesterol",mg,--,--,0,0
Amino Acids
Other
Ingredients
"CINNAMON DISCS - SUGAR, CORN SYRUP, ARTIFICIAL FLAVOR, FD&C RED 40, BLUE 1 AND RED 3. BUTTERSCOTCH DISCS - SUGAR, CORN SYRUP, SALT, ARTIFICIAL FLAVOR, FD&C YELLOW 5, YELLOW 6, RED 40 AND BLUE 1. PEPPERMINT DISCS - SUGAR, CORN SYRUP, NATURAL PEPPERMINT OIL, TITANIUM DIOXIDE (FOR COLOR), FD&C RED 40. SPEARMINT DISCS - SUGAR, CORN SYRUP, NATURAL SPEARMINT OIL, TITANIUM DIOXIDE (FOR COLOR), ARTIFICIAL COLORS INCLUDING YELLOW 5 AND BLUE 1." Date available: 07/14/2017 Date last updated by company: 07/14/2017
