Source: USDA Branded Food Products Database Release December 2017 Software v.3.8.6.4 2017-10-02
Report Run at: December 18, 2017 05:00 EST
"Nutrient data for: 45142119, SPARTAN, CANDY SHOPPE CHICO-O-STICKS, UPC: 011213033389"
Food Group:  Branded Food Products Database
Common Name:

Nutrient,Unit,Data points,Std. Error,"3.0 PIECE = 17.0g",1Value per 100 g,
Proximates
"Energy",kcal,--,--,70,412
"Protein",g,--,--,1.00,5.88
"Total lipid (fat)",g,--,--,2.50,14.71
"Carbohydrate, by difference",g,--,--,12.00,70.59
"Fiber, total dietary",g,--,--,0.0,0.0
"Sugars, total",g,--,--,8.00,47.06
Minerals
"Calcium, Ca",mg,--,--,0,0
"Iron, Fe",mg,--,--,0.00,0.00
"Sodium, Na",mg,--,--,30,176
Vitamins
"Vitamin C, total ascorbic acid",mg,--,--,0.0,0.0
"Vitamin A, IU",IU,--,--,0,0
Lipids
"Fatty acids, total saturated",g,--,--,1.000,5.880
"Fatty acids, total trans",g,--,--,0.000,0.000
"Cholesterol",mg,--,--,0,0
Amino Acids
Other
Ingredients
"SUGAR, CORN SYRUP, PEANUT BUTTER (CONTAINS FRESH GROUND DRY ROASTED PEANUTS, SALT & TOCOPHEROL TO MAINTAIN FRESHNESS), TOASTED COCONUT (CONTAINS SODIUM METABUSULFITE, A PRESERVATIVES), FD&C YELLOW 5, RED 3, RED 40 AND BLUE 1, NATURAL AND ARTIFICIAL FLAVOR." Date available: 07/14/2017 Date last updated by company: 07/14/2017
