Source: USDA Branded Food Products Database Release December 2017 Software v.3.8.6.4 2017-10-02
Report Run at: December 18, 2017 04:58 EST
"Nutrient data for: 45259966, SPARK OF FREEDOM CUPCAKES, UPC: 736613630784"
Food Group:  Branded Food Products Database
Common Name:

Nutrient,Unit,Data points,Std. Error,"0.83 ONZ = 24.0g",1Value per 100 g,
Proximates
"Energy",kcal,--,--,90,375
"Protein",g,--,--,1.00,4.17
"Total lipid (fat)",g,--,--,4.00,16.67
"Carbohydrate, by difference",g,--,--,12.00,50.00
"Fiber, total dietary",g,--,--,0.0,0.0
"Sugars, total",g,--,--,6.00,25.00
Minerals
"Calcium, Ca",mg,--,--,0,0
"Iron, Fe",mg,--,--,1.20,5.00
"Sodium, Na",mg,--,--,70,292
Vitamins
"Vitamin C, total ascorbic acid",mg,--,--,0.0,0.0
"Vitamin A, IU",IU,--,--,0,0
Lipids
"Cholesterol",mg,--,--,15,62
Amino Acids
Other
Ingredients
"WHEAT FLOUR, SUGAR, WATER, EGGS, PALM/COTTONSEED/BEAN OIL, COCOA, SYRUP, CORN STARCH, CHOCOLATE LIQUOR, SALT, MODIFIED FOOD STARCH, VANILLA, CALCIUM PROPIONATE, AGAR, CITRIC ACID, FD&C YELLOW #5&6, RED #3, BLUE #1." Date available: 10/19/2017 Date last updated by company: 10/19/2017
