Source: USDA Branded Food Products Database Release December 2017 Software v.3.8.6.4 2017-10-02
Report Run at: December 18, 2017 05:14 EST
"Nutrient data for: 45087690, SPARTAN, PANCAKES, BUTTERMILK, UPC: 011213026640"
Food Group:  Branded Food Products Database
Common Name:

Nutrient,Unit,Data points,Std. Error,"3.0 PANCAKE = 117.0g",1Value per 100 g,
Proximates
"Energy",kcal,--,--,250,214
"Protein",g,--,--,5.00,4.27
"Total lipid (fat)",g,--,--,3.00,2.56
"Carbohydrate, by difference",g,--,--,50.01,42.74
"Fiber, total dietary",g,--,--,1.1,0.9
"Sugars, total",g,--,--,12.00,10.26
Minerals
"Calcium, Ca",mg,--,--,80,68
"Iron, Fe",mg,--,--,1.70,1.45
"Sodium, Na",mg,--,--,431,368
Vitamins
"Vitamin C, total ascorbic acid",mg,--,--,0.0,0.0
"Vitamin A, IU",IU,--,--,0,0
Lipids
"Fatty acids, total saturated",g,--,--,0.503,0.430
"Fatty acids, total monounsaturated",g,--,--,0.503,0.430
"Fatty acids, total polyunsaturated",g,--,--,1.498,1.280
"Fatty acids, total trans",g,--,--,0.000,0.000
"Cholesterol",mg,--,--,5,4
Amino Acids
Other
Ingredients
"ENRICHED WHEAT FLOUR (WHEAT FLOUR, MALTED BARLEY FLOUR, NIACIN, IRON, THIAMIN MONONITRATE, RIBOFLAVIN, FOLIC ACID), WHEY, WATER, SUGAR, BUTTERMILK, SOY OIL, DEXTROSE, BAKING POWDER, WHOLE EGGS, SALT, SOY LECITHIN." Date available: 06/25/2017 Date last updated by company: 06/25/2017
