Source: USDA Branded Food Products Database Release December 2017 Software v.3.8.6.4 2017-10-02
Report Run at: December 18, 2017 04:46 EST
"Nutrient data for: 45240655, SPARKLING TEA BEVERAGE, UPC: 013964107401"
Food Group:  Branded Food Products Database
Common Name:

Nutrient,Unit,Data points,Std. Error,"8.0 OZA = 240.0g",1Value per 100 g,
Proximates
"Energy",kcal,--,--,60,25
"Protein",g,--,--,0.00,0.00
"Total lipid (fat)",g,--,--,1.01,0.42
"Carbohydrate, by difference",g,--,--,13.01,5.42
"Fiber, total dietary",g,--,--,0.0,0.0
"Sugars, total",g,--,--,10.01,4.17
Minerals
"Calcium, Ca",mg,--,--,0,0
"Iron, Fe",mg,--,--,0.00,0.00
"Sodium, Na",mg,--,--,50,21
Vitamins
"Vitamin C, total ascorbic acid",mg,--,--,0.0,0.0
"Vitamin A, IU",IU,--,--,0,0
Lipids
"Fatty acids, total saturated",g,--,--,0.000,0.000
"Fatty acids, total trans",g,--,--,0.000,0.000
"Cholesterol",mg,--,--,0,0
Amino Acids
Other
Ingredients
"CARBONATED WATER, WHITE GRAPE JUICE CONCENTRATE, POMEGRANATE JUICE CONCENTRATE, DARK RED GRAPE JUICE CONCENTRATE, LEMON JUICE CONCENTRATE, NATURAL FLAVORS (INCL BERGAMOT, JUNIPER BERRY, PLUM), ELDERBERRY JUICE CONCENTRATE, BLACK CURRANT JUICE CONCENTRATE, GREEN, BLACK, AND WHITE TEAS." Date available: 06/25/2017 Date last updated by company: 06/25/2017
