Source: USDA Branded Food Products Database Release December 2017 Software v.3.8.6.4 2017-10-02
Report Run at: December 18, 2017 05:05 EST
"Nutrient data for: 45141037, SPARTAN, DRESSING & MARINADE, HOUSE ITALIAN, UPC: 011213026848"
Food Group:  Branded Food Products Database
Common Name:

Nutrient,Unit,Data points,Std. Error,"2.0 Tbsp = 30.0g",1Value per 100 g,
Proximates
"Energy",kcal,--,--,110,367
"Protein",g,--,--,0.00,0.00
"Total lipid (fat)",g,--,--,10.00,33.33
"Carbohydrate, by difference",g,--,--,3.00,10.00
"Fiber, total dietary",g,--,--,0.0,0.0
"Sugars, total",g,--,--,2.00,6.67
Minerals
"Calcium, Ca",mg,--,--,0,0
"Iron, Fe",mg,--,--,0.00,0.00
"Sodium, Na",mg,--,--,260,867
Vitamins
"Vitamin C, total ascorbic acid",mg,--,--,4.0,13.3
"Vitamin A, IU",IU,--,--,0,0
Lipids
"Fatty acids, total saturated",g,--,--,1.500,5.000
"Fatty acids, total trans",g,--,--,0.000,0.000
"Cholesterol",mg,--,--,5,17
Amino Acids
Other
Ingredients
"WATER, SOYBEAN AND CANOLA OILS, DISTILLED VINEGAR, SUGAR, GARLIC, CONTAINS LESS THAN 2% SALT, EGG YOLK, PARMESAN CHEESE (CULTURED PASTEURIZED PART SKIM MILK, SALT ENZYMES), SPICES, NATURAL FLAVOR RED BELL PEPPER*, XANTHAN GUM, ONION*, GARLIC POWDER, POTASSIUM SORBATE AND SODIUM BENZOATE (AS PRESERVATIVES), CALCIUM DISODIUM EDTA (TO PROTECT QUALITY), CARAMEL COLOR, ANNATTO AND PAPRIKA EXTRACTS (FOR COLOR)." Date available: 07/14/2017 Date last updated by company: 07/14/2017
