Source: USDA Branded Food Products Database Release December 2017 Software v.3.8.6.4 2017-10-02
Report Run at: December 18, 2017 04:41 EST
"Nutrient data for: 45330115, SPARKLING FRUIT SHRUB, UPC: 866258000229"
Food Group:  Branded Food Products Database
Common Name:

Nutrient,Unit,Data points,Std. Error,"12.0 OZA = 355.0g",1Value per 100 g,
Proximates
"Energy",kcal,--,--,82,23
"Protein",g,--,--,0.00,0.00
"Total lipid (fat)",g,--,--,0.00,0.00
"Carbohydrate, by difference",g,--,--,24.00,6.76
"Fiber, total dietary",g,--,--,0.0,0.0
"Sugars, total",g,--,--,16.01,4.51
Minerals
"Calcium, Ca",mg,--,--,0,0
"Iron, Fe",mg,--,--,0.25,0.07
"Sodium, Na",mg,--,--,14,4
Vitamins
"Vitamin C, total ascorbic acid",mg,--,--,0.0,0.0
"Vitamin A, IU",IU,--,--,0,0
Lipids
"Fatty acids, total saturated",g,--,--,0.000,0.000
"Fatty acids, total trans",g,--,--,0.000,0.000
"Cholesterol",mg,--,--,0,0
Amino Acids
Other
Ingredients
"CARBONATED WATER, PEAR JUICE CONCENTRATE, CANE SUGAR, APPLE CIDER VINEGAR, GINGER JUICE, NATURAL FLAVORS, HIMALAYAN PINK SALT." Date available: 10/13/2017 Date last updated by company: 10/13/2017
