Source: USDA Branded Food Products Database Release December 2017 Software v.3.8.6.4 2017-10-02
Report Run at: December 18, 2017 05:12 EST
"Nutrient data for: 45077164, SPARTAN, MASHED POTATOES, SOUR CREAM & CHIVES, UPC: 011213162096"
Food Group:  Branded Food Products Database
Common Name:

Nutrient,Unit,Data points,Std. Error,"0.33 cup = 22.0g",1Value per 100 g,
Proximates
"Energy",kcal,--,--,80,364
"Protein",g,--,--,2.00,9.09
"Total lipid (fat)",g,--,--,0.50,2.27
"Carbohydrate, by difference",g,--,--,16.00,72.73
"Fiber, total dietary",g,--,--,1.0,4.5
"Sugars, total",g,--,--,1.00,4.55
Minerals
"Calcium, Ca",mg,--,--,20,91
"Iron, Fe",mg,--,--,2.29,10.42
"Potassium, K",mg,--,--,260,1182
"Sodium, Na",mg,--,--,440,2000
Vitamins
"Vitamin C, total ascorbic acid",mg,--,--,15.3,69.4
"Vitamin A, IU",IU,--,--,0,0
Lipids
"Fatty acids, total saturated",g,--,--,0.000,0.000
"Fatty acids, total trans",g,--,--,0.000,0.000
"Cholesterol",mg,--,--,0,0
Amino Acids
Other
Ingredients
"IDAHO POTATOES*, WHEY (FROM MILK), SALT, MALTODEXTRIN (FROM CORN), SOUR CREAM (CREAM, NONFAT DRY MILK, CULTURES), MONOSODIUM GLUTAMATE, CULTURED NONFAT DRY MILK, GARLIC*, ONION*, ARTIFICIAL FLAVOR, CHIVES*, LACTIC ACID, PARSLEY*, CELERY*, CITRIC ACID, BETA CAROTENE (COLOR). (FRESHNESS PROTECTED BY SODIUM ACID PYROPHOSPHATE, SODIUM BISULFITE, AND CITRIC ACID.)" Date available: 07/14/2017 Date last updated by company: 07/14/2017
