Source: USDA Branded Food Products Database Release December 2017 Software v.3.8.6.4 2017-10-02
Report Run at: December 18, 2017 05:19 EST
"Nutrient data for: 45137119, SPARTAN, SODA, ORANGE, UPC: 011213072364"
Food Group:  Branded Food Products Database
Common Name:

Nutrient,Unit,Data points,Std. Error,"8.0 OZA = 240.0g",1Value per 100 g,
Proximates
"Energy",kcal,--,--,130,54
"Protein",g,--,--,0.00,0.00
"Total lipid (fat)",g,--,--,0.00,0.00
"Carbohydrate, by difference",g,--,--,33.00,13.75
"Sugars, total",g,--,--,33.00,13.75
Minerals
"Sodium, Na",mg,--,--,5,2
Vitamins
Lipids
Amino Acids
Other
Ingredients
"CARBONATED WATER, HIGH FRUCTOSE CORN SYRUP, CITRIC ACID, POTASSIUM BENZOATE (PRESERVATIVE), GUM ACACIA, GLYCEROL ESTER OR WOOD ROSIN, YELLOW 6, RED 40, BROMINATED VEGETABLE OIL." Date available: 06/25/2017 Date last updated by company: 06/25/2017
