Source: USDA Branded Food Products Database Release December 2017 Software v.3.8.6.4 2017-10-02
Report Run at: December 18, 2017 05:05 EST
"Nutrient data for: 45162649, SPARTAN, DIET SODA, ORANGE, UPC: 011213024240"
Food Group:  Branded Food Products Database
Common Name:

Nutrient,Unit,Data points,Std. Error,"1 CAN = 355.0g",1Value per 100 g,
Proximates
"Energy",kcal,--,--,0,0
"Protein",g,--,--,0.00,0.00
"Total lipid (fat)",g,--,--,0.00,0.00
"Carbohydrate, by difference",g,--,--,0.00,0.00
"Sugars, total",g,--,--,0.00,0.00
Minerals
"Sodium, Na",mg,--,--,11,3
Vitamins
Lipids
Amino Acids
Other
Ingredients
"CARBONATED WATER, CITRIC ACID, POTASSIUM BENZOATE (PRESERVATIVE), ASPARTAME, NATURAL FLAVOR, GUM ACACIA, ACESULFAME POTASSIUM, YELLOW 6, GLYCEROL ESTER OF WOOD ROSIN, SUNFLOWER OIL, BROMINATED VEGETABLE OIL, RED 40." Date available: 07/14/2017 Date last updated by company: 07/14/2017
