Source: USDA Branded Food Products Database Release December 2017 Software v.3.8.6.4 2017-10-02
Report Run at: December 18, 2017 04:37 EST
"Nutrient data for: 45150328, SPARKLING BEVERAGE, UPC: 852793005096"
Food Group:  Branded Food Products Database
Common Name:

Nutrient,Unit,Data points,Std. Error,"1 BOTTLE = 591.0g",1Value per 100 g,
Proximates
"Energy",kcal,--,--,248,42
"Protein",g,--,--,0.00,0.00
"Total lipid (fat)",g,--,--,0.00,0.00
"Carbohydrate, by difference",g,--,--,63.00,10.66
"Sugars, total",g,--,--,62.00,10.49
Minerals
"Sodium, Na",mg,--,--,0,0
Vitamins
Lipids
Amino Acids
Other
Ingredients
"CARBONATED WATER, SUGAR (CANE), PINEAPPLE JUICE CONCENTRATE, NATURAL FLAVORS, CITRIC ACID." Date available: 07/14/2017 Date last updated by company: 07/14/2017
