Source: USDA Branded Food Products Database Release December 2017 Software v.3.8.6.4 2017-10-02
Report Run at: December 18, 2017 05:08 EST
"Nutrient data for: 45060402, SPARTAN, GOLDEN HOMINY, UPC: 011213056043"
Food Group:  Branded Food Products Database
Common Name:

Nutrient,Unit,Data points,Std. Error,"0.5 cup = 125.0g",1Value per 100 g,
Proximates
"Energy",kcal,--,--,70,56
"Protein",g,--,--,1.00,0.80
"Total lipid (fat)",g,--,--,0.50,0.40
"Carbohydrate, by difference",g,--,--,15.00,12.00
"Fiber, total dietary",g,--,--,1.0,0.8
"Sugars, total",g,--,--,1.00,0.80
Minerals
"Calcium, Ca",mg,--,--,0,0
"Iron, Fe",mg,--,--,0.76,0.61
"Sodium, Na",mg,--,--,460,368
Vitamins
"Vitamin C, total ascorbic acid",mg,--,--,0.0,0.0
"Vitamin A, IU",IU,--,--,211,169
Lipids
"Fatty acids, total saturated",g,--,--,0.000,0.000
"Fatty acids, total monounsaturated",g,--,--,0.000,0.000
"Fatty acids, total polyunsaturated",g,--,--,0.000,0.000
"Fatty acids, total trans",g,--,--,0.000,0.000
"Cholesterol",mg,--,--,0,0
Amino Acids
Other
Ingredients
"PREPARED YELLOW CORN, WATER, SALT, SODIUM BISULFITE ADDED TO HELP PROMOTE COLOR." Date available: 07/14/2017 Date last updated by company: 07/14/2017
