Source: USDA Branded Food Products Database Release December 2017 Software v.3.8.6.4 2017-10-02
Report Run at: December 18, 2017 04:37 EST
"Nutrient data for: 45228933, SPARKLING BEVERAGE, UPC: 851818001051"
Food Group:  Branded Food Products Database
Common Name:

Nutrient,Unit,Data points,Std. Error,"1 BOTTLE = 355.0g",1Value per 100 g,
Proximates
"Energy",kcal,--,--,71,20
"Protein",g,--,--,0.00,0.00
"Total lipid (fat)",g,--,--,0.00,0.00
"Carbohydrate, by difference",g,--,--,18.99,5.35
"Sugars, total",g,--,--,18.99,5.35
Minerals
"Sodium, Na",mg,--,--,0,0
Vitamins
Lipids
Amino Acids
Other
Ingredients
"PURIFIED CARBONATED WATER, PURE CANE SUGAR, NATURAL FLAVOR, PHOSPHORIC ACID." Date available: 07/14/2017 Date last updated by company: 07/14/2017
