Source: USDA Branded Food Products Database Release December 2017 Software v.3.8.6.4 2017-10-02
Report Run at: December 18, 2017 05:09 EST
"Nutrient data for: 45085023, SPARTAN, ICE CREAM, MACKINAC ISLAND FUDGE, UPC: 011213011486"
Food Group:  Branded Food Products Database
Common Name:

Nutrient,Unit,Data points,Std. Error,"0.5 cup = 68.0g",1Value per 100 g,
Proximates
"Energy",kcal,--,--,160,235
"Protein",g,--,--,2.00,2.94
"Total lipid (fat)",g,--,--,8.00,11.76
"Carbohydrate, by difference",g,--,--,20.00,29.41
"Fiber, total dietary",g,--,--,0.0,0.0
"Sugars, total",g,--,--,16.00,23.53
Minerals
"Calcium, Ca",mg,--,--,60,88
"Iron, Fe",mg,--,--,0.00,0.00
"Sodium, Na",mg,--,--,50,74
Vitamins
"Vitamin C, total ascorbic acid",mg,--,--,0.0,0.0
"Vitamin A, IU",IU,--,--,337,496
Lipids
"Fatty acids, total saturated",g,--,--,5.998,8.820
"Fatty acids, total trans",g,--,--,0.000,0.000
"Cholesterol",mg,--,--,25,37
Amino Acids
Other
Ingredients
"MILKFAT AND NONFAT MILK, BUTTER FUDGE SYRUP (CORN SYRUP, HIGH FRUCTOSE CORN SYRUP, BUTTERMILK, SUGAR, NONFAT MILK, CHOCOLATE LIQUOR, WHEY, BUTTER, COCOA (PROCESSED WITH ALKALI), PECTIN, MONO- AND DIGLYCERIDES, SALT, POTASSIUM SORBATE (PRESERVATIVE), SOY LECITHIN, XANTHAN GUM, NATURAL FLAVOR), CORN SYRUP, HIGH FRUCTOSE FRUCTOSE CORN SYRUP, BROWNIE FUDGE PIECES (POWDERED SUGAR (SUGAR, CORN STARCH), PARTIALLY HYDROGENATED NONFAT MILK, SUGAR), COCONUT OIL, SUGAR, COCOA (PROCESSED WITH ALKALI), ENRICHED BLEACHED WHEAT FLOUR (FLOUR, NIACIN, REDUCED IRON, THIAMIN MONONITRATE, RIBOFLAVIN, FOLIC ACID), WATER, NONFAT MILK, DEXTROSE, VEGETABLE SHORTENING (CONTAINS ONE OR MORE OF THE FOLLOWING: SOYBEAN OIL, PARTIALLY HYDROGENATED SOYBEAN OIL AND/OR COTTONSEED OIL), CORN SYRUP, EGGS, NATURAL FLAVORS, SOY LECITHIN, SALT, WHEY, LEAVENINGS (SODIUM ACID PYROPHOSPHATE, CORN STARCH, XANTHAN GUM), SWEETCREAM BUTTERMILK, SUGAR, CONTAINS LESS THAN 2% OF WHEY, GUAR GUM, MONO- & DIGLYCERIDES, XANTHAN GUM, POLYSORBATE 80, CELLULOSE GUM, CARRAGEENAN, NATURAL AND ARTIFICIAL FLAVOR, ANNATTO (COLOR)." Date available: 07/14/2017 Date last updated by company: 07/14/2017
