Source: USDA Branded Food Products Database Release December 2017 Software v.3.8.6.4 2017-10-02
Report Run at: December 18, 2017 05:12 EST
"Nutrient data for: 45098724, SPARTAN, MINIS CORN DOGS, HONEY, UPC: 011213019833"
Food Group:  Branded Food Products Database
Common Name:

Nutrient,Unit,Data points,Std. Error,"4.0 PIECES = 76.0g",1Value per 100 g,
Proximates
"Energy",kcal,--,--,200,263
"Protein",g,--,--,6.00,7.89
"Total lipid (fat)",g,--,--,9.00,11.84
"Carbohydrate, by difference",g,--,--,25.00,32.89
"Fiber, total dietary",g,--,--,1.0,1.3
"Sugars, total",g,--,--,9.00,11.84
Minerals
"Calcium, Ca",mg,--,--,40,53
"Iron, Fe",mg,--,--,0.40,0.53
"Sodium, Na",mg,--,--,600,789
Vitamins
"Vitamin C, total ascorbic acid",mg,--,--,0.0,0.0
"Vitamin A, IU",IU,--,--,0,0
Lipids
"Fatty acids, total saturated",g,--,--,3.504,4.610
"Fatty acids, total trans",g,--,--,0.000,0.000
"Cholesterol",mg,--,--,30,39
Amino Acids
Other
Ingredients
"BATTER INGREDIENTS: WATER, ENRICHED FLOUR (WHEAT FLOUR, NIACIN, IRON, THIAMINE MONONITRATE, RIBOFLAVIN, FOLIC ACID), SUGAR, DEGERMED YELLOW CORN MEAL, SALT, LEAVENING (SODIUM ACID PYROPHOSPHATE, SODIUM BICARBONATE), SOY FLOUR, SOYBEAN OIL, DRIED HONEY, ONION POWDER, SOY LECITHIN, NONFAT MILK, EGG. COOKED IN VEGETABLE OIL (CONTAINS ONE OR MORE OF: CORN OIL, COTTONSEED OIL, SOYBEAN OIL). CHICKEN FRANK INGREDIENTS: MECHANICALLY SEPARATED CHICKEN, WATER, DEXTROSE, SALT, CONTAINS 2% OR LESS OF CORN SYRUP, FLAVORINGS, SODIUM PHOSPHATE, PAPRIKA AND PAPRIKA OLEORESIN, SODIUM ERYTHORBATE, SODIUM NITRITE. PREDUST INGREDIENTS: ENRICHED WHEAT FLOUR (ENRICHED WITH NIACIN, REDUCED IRON, THIAMINE MONONITRATE, RIBOFLAVIN, FOLIC ACID), WHEAT FLOUR, WHEY POWDER, SALT." Date available: 07/14/2017 Date last updated by company: 07/14/2017
