Source: USDA Branded Food Products Database Release December 2017 Software v.3.8.6.4 2017-10-02
Report Run at: December 18, 2017 05:32 EST
"Nutrient data for: 45056472, SPECTRUM NATURALS, CANOLA MAYONNAISE, UPC: 022506003019"
Food Group:  Branded Food Products Database
Common Name:

Nutrient,Unit,Data points,Std. Error,"1 Tbsp = 14.0g",1Value per 100 g,
Proximates
"Energy",kcal,--,--,100,714
"Protein",g,--,--,0.00,0.00
"Total lipid (fat)",g,--,--,11.00,78.57
"Carbohydrate, by difference",g,--,--,0.00,0.00
Minerals
"Sodium, Na",mg,--,--,90,643
Vitamins
Lipids
"Fatty acids, total saturated",g,--,--,0.500,3.570
"Fatty acids, total monounsaturated",g,--,--,7.000,50.000
"Fatty acids, total polyunsaturated",g,--,--,3.000,21.430
"Fatty acids, total trans",g,--,--,0.000,0.000
"Cholesterol",mg,--,--,5,36
Amino Acids
Other
Ingredients
"EXPELLER PRESSED CANOLA OIL, PASTEURIZED WHOLE EGGS, FILTERED WATER, HONEY, DISTILLED WHITE VINEGAR, SEA SALT, MUSTARD (DISTILLED VINEGAR, WATER, MUSTARD SEED, SALT), LEMON JUICE CONCENTRATE." Date available: 07/14/2017 Date last updated by company: 07/14/2017
