Source: USDA Branded Food Products Database Release December 2017 Software v.3.8.6.4 2017-10-02
Report Run at: December 18, 2017 05:28 EST
"Nutrient data for: 45171337, SPECIALTY BAKERS, CHOCOLATE CAKE ROLL, BUTTER CREME FILLING, UPC: 012900060251"
Food Group:  Branded Food Products Database
Common Name:

Nutrient,Unit,Data points,Std. Error,"0.167 CAKE = 85.0g",1Value per 100 g,
Proximates
"Energy",kcal,--,--,350,412
"Protein",g,--,--,5.00,5.88
"Total lipid (fat)",g,--,--,17.00,20.00
"Carbohydrate, by difference",g,--,--,46.00,54.12
"Fiber, total dietary",g,--,--,1.0,1.2
"Sugars, total",g,--,--,33.00,38.82
Minerals
"Calcium, Ca",mg,--,--,20,24
"Iron, Fe",mg,--,--,2.12,2.49
"Sodium, Na",mg,--,--,260,306
Vitamins
"Vitamin C, total ascorbic acid",mg,--,--,0.0,0.0
"Vitamin A, IU",IU,--,--,147,173
Lipids
"Fatty acids, total saturated",g,--,--,7.004,8.240
"Fatty acids, total trans",g,--,--,0.000,0.000
"Cholesterol",mg,--,--,125,147
Amino Acids
Other
Ingredients
"SUGAR, EGGS, VEGETABLE SHORTENING (SOYBEAN OIL, INTERESTERIFIED SOYBEAN OIL, HYDROGENATED PALM OIL, WITH MONO-AND DIGLYCERIDES, POLYSORBATE 60, TBHQ AND CITRIC ACID ADDED TO HELP PROTECT FLAVOR), BLEACHED FLOUR (BLEACHED WHEAT, FLOUR, NIACIN, IRON, THIAMINE MONONITRATE, RIBOFLAVIN, FOLIC ACID), WATER, HIGH FRUCTOSE CORN SYRUP, CONTAINS 2% OR LESS OF EACH OF THE FOLLOWING: CELLULOSE GUM, CITRIC ACID, COCOA (ALKALIZED), COLOR (FD&C YELLOW #5, YELLOW #6), DEXTROSE, GLUCOSE SYRUP, GUAR GUM, GLYCERYL-LACTO ESTERS OF FATTY ACIDS, LEAVENING (SODIUM BICARBONATE, SODIUM ACID PYROPHOSPHATE, MONOCALCIUM PHOSPHATE), MODIFIED CORN STARCH, NATURAL AND ARTIFICIAL FLAVORS, PARTIALLY HYDROGENATED PALM OIL, POTATO STARCH, POLYSORBATE 60, POTASSIUM SORBATE, PROPYLENE GLYCOL ESTERS OF MONO AND DIESTERS OF FAT AND FATTY ACIDS, SALT, SODIUM PROPIONATE, SORBITAN MONOSTEARATE, SOY FLOUR, TITANIUM DIOXIDE, WHEAT STARCH, XANTHAN GUM." Date available: 07/14/2017 Date last updated by company: 07/14/2017
