Source: USDA Branded Food Products Database Release December 2017 Software v.3.8.6.4 2017-10-02
Report Run at: December 18, 2017 05:27 EST
"Nutrient data for: 45232658, SPECIALLY SELECTED, 100% PURE MAPLE SYRUP, UPC: 041498139674"
Food Group:  Branded Food Products Database
Common Name:

Nutrient,Unit,Data points,Std. Error,"0.25 cup = 60.0g",1Value per 100 g,
Proximates
"Energy",kcal,--,--,210,350
"Protein",g,--,--,0.00,0.00
"Total lipid (fat)",g,--,--,0.00,0.00
"Carbohydrate, by difference",g,--,--,54.00,90.00
"Sugars, total",g,--,--,48.00,80.00
Minerals
"Calcium, Ca",mg,--,--,40,67
"Sodium, Na",mg,--,--,10,17
Vitamins
Lipids
Amino Acids
Other
Ingredients
"PURE MAPLE SYRUP." Date available: 06/24/2017 Date last updated by company: 06/24/2017
