Source: USDA Branded Food Products Database Release December 2017 Software v.3.8.6.4 2017-10-02
Report Run at: December 18, 2017 05:28 EST
"Nutrient data for: 45086571, SPECIALTY BREWED BARS, UPC: 859422003140"
Food Group:  Branded Food Products Database
Common Name:

Nutrient,Unit,Data points,Std. Error,"1 BAR = 50.0g",1Value per 100 g,
Proximates
"Energy",kcal,--,--,30,60
"Protein",g,--,--,0.00,0.00
"Total lipid (fat)",g,--,--,0.00,0.00
"Carbohydrate, by difference",g,--,--,8.00,16.00
"Fiber, total dietary",g,--,--,1.0,2.0
"Sugars, total",g,--,--,5.00,10.00
Minerals
"Calcium, Ca",mg,--,--,0,0
"Iron, Fe",mg,--,--,0.00,0.00
"Potassium, K",mg,--,--,60,120
"Sodium, Na",mg,--,--,5,10
Vitamins
"Vitamin C, total ascorbic acid",mg,--,--,10.2,20.4
"Vitamin A, IU",IU,--,--,85,170
Lipids
"Cholesterol",mg,--,--,0,0
Amino Acids
Other
Ingredients
"WATER, PINEAPPLE JUICE CONCENTRATE, MANGO PUREE, MANGO JUICE CONCENTRATE, BANANA PUREE, WHITE TEA, ELECTROLYTES (SODIUM CHLORIDE, SODIUM CITRATE, TRICALCIUM PHOSPHATE, DIPOTASSIUM PHOSPHATE AND MAGNESIUM CHLORIDE), NATURAL FLAVOR, XANTHAN GUM, GUAR GUM." Date available: 06/25/2017 Date last updated by company: 06/25/2017
