Source: USDA Branded Food Products Database Release December 2017 Software v.3.8.6.4 2017-10-02
Report Run at: December 18, 2017 05:33 EST
"Nutrient data for: 45166642, SPEEDY CHOICE, CHERRY SOURS, UPC: 841112100970"
Food Group:  Branded Food Products Database
Common Name:

Nutrient,Unit,Data points,Std. Error,"11.0 PIECES = 40.0g",1Value per 100 g,
Proximates
"Energy",kcal,--,--,150,375
"Protein",g,--,--,0.00,0.00
"Total lipid (fat)",g,--,--,0.00,0.00
"Carbohydrate, by difference",g,--,--,38.00,95.00
"Fiber, total dietary",g,--,--,0.0,0.0
"Sugars, total",g,--,--,34.00,85.00
Minerals
"Calcium, Ca",mg,--,--,0,0
"Iron, Fe",mg,--,--,0.00,0.00
"Sodium, Na",mg,--,--,10,25
Vitamins
"Vitamin C, total ascorbic acid",mg,--,--,0.0,0.0
"Vitamin A, IU",IU,--,--,0,0
Lipids
"Fatty acids, total saturated",g,--,--,0.000,0.000
"Fatty acids, total trans",g,--,--,0.000,0.000
"Cholesterol",mg,--,--,0,0
Amino Acids
Other
Ingredients
"SUGAR, DEXTROSE, CORN SYRUP, CORNSTARCH, MODIFIED CORN STARCH, ACACIA GUM, MALIC ACID, CITRIC ACID, MALTODEXTRIN, NATURAL AND ARTIFICIAL FLAVOR, CARNAUBA WAX, BEESWAX, ARTIFICIAL COLORS INCLUDING (RED 40)." Date available: 07/14/2017 Date last updated by company: 07/14/2017
