Source: USDA Branded Food Products Database Release December 2017 Software v.3.8.6.4 2017-10-02
Report Run at: December 18, 2017 05:44 EST
"Nutrient data for: 45114776, SPICY CHILI LIME SEASONING BLEND, UPC: 635519140956"
Food Group:  Branded Food Products Database
Common Name:

Nutrient,Unit,Data points,Std. Error,"0.25 tsp = 0.6g",1Value per 100 g,
Proximates
"Energy",kcal,--,--,0,0
"Protein",g,--,--,0.00,0.00
"Total lipid (fat)",g,--,--,0.00,0.00
"Carbohydrate, by difference",g,--,--,0.00,0.00
"Sugars, total",g,--,--,0.00,0.00
Minerals
"Sodium, Na",mg,--,--,140,23333
Vitamins
Lipids
Amino Acids
Other
Ingredients
"SALT, DEXTROSE, SPICES (CHILI PEPPER, CAYENNE PEPPER, BLACK PEPPER, PARSLEY), MALTODEXTRIN, DEHYDRATED ONION & GARLIC, CITRIC ACID, NATURAL FLAVORS (INCLUDING SMOKE AND LIME), LESS THAN 2% TRICALCIUM PHOSPHATE (ANTI-CAKING)." Date available: 07/14/2017 Date last updated by company: 07/14/2017
