Source: USDA Branded Food Products Database Release December 2017 Software v.3.8.6.4 2017-10-02
Report Run at: December 18, 2017 05:45 EST
"Nutrient data for: 45273054, SPICY FALAFEL WITH TAHINI, UPC: 854212007087"
Food Group:  Branded Food Products Database
Common Name:

Nutrient,Unit,Data points,Std. Error,"3.0 ONZ = 85.0g",1Value per 100 g,
Proximates
"Energy",kcal,--,--,410,482
"Protein",g,--,--,17.00,20.00
"Total lipid (fat)",g,--,--,18.00,21.18
"Carbohydrate, by difference",g,--,--,50.00,58.82
"Fiber, total dietary",g,--,--,15.0,17.6
"Sugars, total",g,--,--,9.00,10.59
Minerals
"Calcium, Ca",mg,--,--,150,176
"Iron, Fe",mg,--,--,6.30,7.41
"Sodium, Na",mg,--,--,560,659
Vitamins
"Vitamin C, total ascorbic acid",mg,--,--,15.0,17.6
"Vitamin A, IU",IU,--,--,750,882
Lipids
"Fatty acids, total saturated",g,--,--,1.998,2.350
"Fatty acids, total trans",g,--,--,0.000,0.000
"Cholesterol",mg,--,--,0,0
Amino Acids
Other
Ingredients
"SPICY FALAFEL (CHICKPEAS, ONIONS, PARSLEY, CILANTRO, GARLIC, CAYENNE PEPPER, SALT, BLACK PEPPER, SPICES, CANOLA OIL). TAHINI (TAHINI PASTE (SESAME SEEDS), GARLIC, CITRIC ACID, SALT)." Date available: 07/14/2017 Date last updated by company: 07/14/2017
