Source: USDA Branded Food Products Database Release December 2017 Software v.3.8.6.4 2017-10-02
Report Run at: December 18, 2017 05:46 EST
"Nutrient data for: 45160449, SPICY GUYS, EXTRA SPICY PRETZELS, UPC: 615872396085"
Food Group:  Branded Food Products Database
Common Name:

Nutrient,Unit,Data points,Std. Error,"1.25 ONZ = 43.0g",1Value per 100 g,
Proximates
"Energy",kcal,--,--,170,395
"Protein",g,--,--,3.00,6.98
"Total lipid (fat)",g,--,--,7.00,16.28
"Carbohydrate, by difference",g,--,--,26.00,60.47
"Fiber, total dietary",g,--,--,1.0,2.3
"Sugars, total",g,--,--,1.00,2.33
Minerals
"Calcium, Ca",mg,--,--,0,0
"Iron, Fe",mg,--,--,1.67,3.89
"Sodium, Na",mg,--,--,460,1070
Vitamins
"Vitamin C, total ascorbic acid",mg,--,--,0.0,0.0
"Vitamin A, IU",IU,--,--,0,0
Lipids
"Fatty acids, total saturated",g,--,--,0.400,0.930
"Fatty acids, total trans",g,--,--,0.000,0.000
"Cholesterol",mg,--,--,0,0
Amino Acids
Other
Ingredients
"ENRICHED FLOUR, WATER, SALT, MALT, DEXTROSE, CANOLA OIL, YEAST, SODA, SOYBEAN OIL, MALTODEXTRIN, BUTTERMILK, MONOSODIUM GLUTAMATE, LACTIC ACID, DRIED GARLIC, ONION POWDER SPICES, PEPPER RED OR CAYENNE, SPICES, CITRIC ACID LESS THAN 1% OF NATURAL FLAVOR (MILK, SOY) CALCIUM STEARATE, ARTIFICIAL FLAVOR, XANTHAN GUM, CARBOXYMETHYLCELLULOSE, GUAR, GUM." Date available: 07/14/2017 Date last updated by company: 07/14/2017
