Source: USDA Branded Food Products Database Release December 2017 Software v.3.8.6.4 2017-10-02
Report Run at: December 18, 2017 05:41 EST
"Nutrient data for: 45120181, SPICE TIME, AU JUS GRAVY MIX, UPC: 079679100106"
Food Group:  Branded Food Products Database
Common Name:

Nutrient,Unit,Data points,Std. Error,"1 tsp = 3.5g",1Value per 100 g,
Proximates
"Energy",kcal,--,--,10,286
"Protein",g,--,--,0.00,0.00
"Total lipid (fat)",g,--,--,0.00,0.00
"Carbohydrate, by difference",g,--,--,2.00,57.14
"Fiber, total dietary",g,--,--,0.0,0.0
"Sugars, total",g,--,--,1.00,28.57
Minerals
"Calcium, Ca",mg,--,--,0,0
"Iron, Fe",mg,--,--,0.00,0.00
"Sodium, Na",mg,--,--,350,10000
Vitamins
"Vitamin C, total ascorbic acid",mg,--,--,0.0,0.0
"Vitamin A, IU",IU,--,--,0,0
Lipids
"Fatty acids, total saturated",g,--,--,0.000,0.000
"Fatty acids, total trans",g,--,--,0.000,0.000
"Cholesterol",mg,--,--,0,0
Amino Acids
Other
Ingredients
"HYDROLYZED SOY PROTEIN AND CORN GLUTEN (DISODIUM GUANYLATE, LACTIC ACID), MALTODEXTRIN, WHEAT STARCH, SALT, SUGAR, AUTOLYZED YEAST EXTRACT, DEXTROSE, CARMEL COLOR, DEHYDRATED ONION AND GARLIC, PARTIALLY HYDROGENATED SOYBEAN OIL, NATURAL AND ARTIFICIAL FLAVORS, BEEF POWDER, DISODIUM INOSINATE. NOT MORE THAN 2% SILICON DIOXIDE ADDED TO PREVENT CAKING." Date available: 06/25/2017 Date last updated by company: 06/25/2017
