Source: USDA Branded Food Products Database Release December 2017 Software v.3.8.6.4 2017-10-02
Report Run at: December 18, 2017 05:35 EST
"Nutrient data for: 45017980, SPICE CAKE MIX, UPC: 850403000066"
Food Group:  Branded Food Products Database
Common Name:

Nutrient,Unit,Data points,Std. Error,"0.062 PKG. (MIX) = 46.0g",1Value per 100 g,
Proximates
"Energy",kcal,--,--,140,304
"Protein",g,--,--,1.00,2.17
"Total lipid (fat)",g,--,--,0.00,0.00
"Carbohydrate, by difference",g,--,--,37.00,80.43
"Fiber, total dietary",g,--,--,0.0,0.0
"Sugars, total",g,--,--,20.00,43.48
Minerals
"Calcium, Ca",mg,--,--,0,0
"Iron, Fe",mg,--,--,0.31,0.68
"Sodium, Na",mg,--,--,210,457
Vitamins
"Vitamin C, total ascorbic acid",mg,--,--,0.0,0.0
"Vitamin A, IU",IU,--,--,0,0
Lipids
"Fatty acids, total saturated",g,--,--,0.000,0.000
"Fatty acids, total trans",g,--,--,0.000,0.000
"Cholesterol",mg,--,--,0,0
Amino Acids
Other
Ingredients
"CANE SUGAR, SWEET BROWN RICE FLOUR, BROWN SUGAR, TAPIOCA STARCH, ARROWROOT POWDER, RICE SYRUP SOLIDS (RICE SYRUP SOLIDS, RICE PROTEIN, TOCOPHEROLS), CITRUS FIBER, BAKING SODA, SALT, CREAM OF TARTAR, CINNAMON, NUTMEG AND CLOVES." Date available: 07/15/2017 Date last updated by company: 07/15/2017
