Source: USDA Branded Food Products Database Release December 2017 Software v.3.8.6.4 2017-10-02
Report Run at: December 18, 2017 05:42 EST
"Nutrient data for: 45212300, SPICY BLEND, UPC: 736211937742"
Food Group:  Branded Food Products Database
Common Name:

Nutrient,Unit,Data points,Std. Error,"0.5 tsp = 2.0g",1Value per 100 g,
Proximates
"Energy",kcal,--,--,5,250
"Protein",g,--,--,0.00,0.00
"Total lipid (fat)",g,--,--,0.00,0.00
"Carbohydrate, by difference",g,--,--,1.00,50.00
"Sugars, total",g,--,--,1.00,50.00
Minerals
"Sodium, Na",mg,--,--,260,13000
Vitamins
"Vitamin A, IU",IU,--,--,5000,250000
Lipids
Amino Acids
Other
Ingredients
"SALT, SUGAR, SPICES, PAPRIKA, ONION, GARLIC." Date available: 07/14/2017 Date last updated by company: 07/14/2017
