Source: USDA Branded Food Products Database Release December 2017 Software v.3.8.6.4 2017-10-02
Report Run at: December 18, 2017 05:49 EST
"Nutrient data for: 45232266, SPICY RED PEPPER CHICKEN MEATBALLS, UPC: 085239020876"
Food Group:  Branded Food Products Database
Common Name:

Nutrient,Unit,Data points,Std. Error,"4.0 MEATBALLS = 85.0g",1Value per 100 g,
Proximates
"Energy",kcal,--,--,110,129
"Protein",g,--,--,14.00,16.47
"Total lipid (fat)",g,--,--,4.00,4.71
"Carbohydrate, by difference",g,--,--,5.00,5.88
"Fiber, total dietary",g,--,--,0.0,0.0
"Sugars, total",g,--,--,0.00,0.00
Minerals
"Calcium, Ca",mg,--,--,0,0
"Iron, Fe",mg,--,--,0.51,0.60
"Potassium, K",mg,--,--,240,282
"Sodium, Na",mg,--,--,400,471
Vitamins
"Vitamin C, total ascorbic acid",mg,--,--,6.8,8.0
"Vitamin A, IU",IU,--,--,564,664
Lipids
"Fatty acids, total saturated",g,--,--,1.003,1.180
"Fatty acids, total trans",g,--,--,0.000,0.000
"Cholesterol",mg,--,--,50,59
Amino Acids
Other
Ingredients
"CHICKEN, WATER, ROASTED RED PEPPER, BREAD CRUMBS (WHEAT FLOUR, SALT, YEAST), EGGS, SALT, ROASTED GARLIC, RED PEPPER, BLACK PEPPER." Date available: 07/14/2017 Date last updated by company: 07/14/2017
