Source: USDA Branded Food Products Database Release December 2017 Software v.3.8.6.4 2017-10-02
Report Run at: December 18, 2017 05:35 EST
"Nutrient data for: 45214246, SPICED APPLE CIDER, UPC: 043600005228"
Food Group:  Branded Food Products Database
Common Name:

Nutrient,Unit,Data points,Std. Error,"8.0 OZA = 240.0g",1Value per 100 g,
Proximates
"Energy",kcal,--,--,120,50
"Protein",g,--,--,0.00,0.00
"Total lipid (fat)",g,--,--,0.00,0.00
"Carbohydrate, by difference",g,--,--,30.00,12.50
"Sugars, total",g,--,--,25.99,10.83
Minerals
"Sodium, Na",mg,--,--,24,10
Vitamins
Lipids
"Fatty acids, total saturated",g,--,--,0.000,0.000
"Fatty acids, total trans",g,--,--,0.000,0.000
Amino Acids
Other
Ingredients
"WATER, CONCENTRATED APPLE JUICE, SPICES, NATURAL FLAVOR, ORANGE OIL, LEMON OIL." Date available: 07/14/2017 Date last updated by company: 07/14/2017
