Source: USDA Branded Food Products Database Release December 2017 Software v.3.8.6.4 2017-10-02
Report Run at: December 18, 2017 05:46 EST
"Nutrient data for: 45179892, SPICY GUACAMOLE, UPC: 826766116904"
Food Group:  Branded Food Products Database
Common Name:

Nutrient,Unit,Data points,Std. Error,"2.0 Tbsp = 50.0g",1Value per 100 g,
Proximates
"Energy",kcal,--,--,45,90
"Protein",g,--,--,1.00,2.00
"Total lipid (fat)",g,--,--,3.50,7.00
"Carbohydrate, by difference",g,--,--,4.00,8.00
"Fiber, total dietary",g,--,--,2.0,4.0
"Sugars, total",g,--,--,1.00,2.00
Minerals
"Calcium, Ca",mg,--,--,0,0
"Iron, Fe",mg,--,--,0.00,0.00
"Sodium, Na",mg,--,--,220,440
Vitamins
"Vitamin C, total ascorbic acid",mg,--,--,9.0,18.0
"Vitamin A, IU",IU,--,--,200,400
Lipids
"Fatty acids, total saturated",g,--,--,0.000,0.000
"Fatty acids, total trans",g,--,--,0.000,0.000
"Cholesterol",mg,--,--,0,0
Amino Acids
Other
Ingredients
"GUACAMOLE (HASS AVOCADO, TOMATILLO, ONION, JALAPENO PEPPER, SEA SALT, CILANTRO, GARLIC), TOMATOES, YELLOW ONION JALAPENO PEPPER, SERRANO PEPPER, LIME JUICE (LIME JUICE FROM CONCENTRATE [WATER, CONCENTRATED LIME JUICE] AND LESS THAN 2% OF LIME OIL, SODIUM BENZOATE [PRESERVATIVE], SODIUM METABISULFITE [PRESERVATIVE]), CILANTRO, MINCED GARLIC IN WATER (GARLIC, WATER, CITRIC ACID), SALT." Date available: 07/14/2017 Date last updated by company: 07/14/2017
