Source: USDA Branded Food Products Database Release December 2017 Software v.3.8.6.4 2017-10-02
Report Run at: December 18, 2017 05:51 EST
"Nutrient data for: 45290999, SPICY SWEET POTATO BEAN DIP, UPC: 011110190963"
Food Group:  Branded Food Products Database
Common Name:

Nutrient,Unit,Data points,Std. Error,"2.0 Tbsp = 28.0g",1Value per 100 g,
Proximates
"Energy",kcal,--,--,30,107
"Protein",g,--,--,1.00,3.57
"Total lipid (fat)",g,--,--,0.50,1.79
"Carbohydrate, by difference",g,--,--,5.00,17.86
"Fiber, total dietary",g,--,--,1.0,3.6
"Sugars, total",g,--,--,1.00,3.57
Minerals
"Calcium, Ca",mg,--,--,20,71
"Iron, Fe",mg,--,--,0.64,2.29
"Sodium, Na",mg,--,--,190,679
Vitamins
"Vitamin C, total ascorbic acid",mg,--,--,8.6,30.6
"Vitamin A, IU",IU,--,--,1340,4784
Lipids
"Fatty acids, total saturated",g,--,--,0.000,0.000
"Fatty acids, total trans",g,--,--,0.000,0.000
"Cholesterol",mg,--,--,0,0
Amino Acids
Other
Ingredients
"BEANS (GREAT NORTHERN BEANS, WATER), SWEET POTATOES, TOMATO PUREE, RED BELL PEPPER, LIME JUICE, CONTAINS 2% OR LESS SEA SALT, GARLIC, CANOLA OIL, CILANTRO, SPICES (CHIPOTLE CHILE PEPPER, CUMIN, CAYENNE PEPPER, CORIANDER, PAPRIKA), VINEGAR, SUGAR, GARLIC POWDER, DEHYDRATED ONION, CITRIC ACID." Date available: 07/14/2017 Date last updated by company: 07/14/2017
