Source: USDA Branded Food Products Database Release December 2017 Software v.3.8.6.4 2017-10-02
Report Run at: December 18, 2017 05:45 EST
"Nutrient data for: 45066338, SPICY FAIR BBQ SAUCE, UPC: 852661004022"
Food Group:  Branded Food Products Database
Common Name:

Nutrient,Unit,Data points,Std. Error,"1.2 ONZ = 33.0g",1Value per 100 g,
Proximates
"Energy",kcal,--,--,45,136
"Protein",g,--,--,0.00,0.00
"Total lipid (fat)",g,--,--,1.00,3.03
"Carbohydrate, by difference",g,--,--,8.00,24.24
"Fiber, total dietary",g,--,--,0.0,0.0
"Sugars, total",g,--,--,5.00,15.15
Minerals
"Calcium, Ca",mg,--,--,0,0
"Iron, Fe",mg,--,--,0.36,1.09
"Sodium, Na",mg,--,--,410,1242
Vitamins
"Vitamin C, total ascorbic acid",mg,--,--,4.8,14.5
"Vitamin A, IU",IU,--,--,200,606
Lipids
"Fatty acids, total saturated",g,--,--,0.000,0.000
"Fatty acids, total trans",g,--,--,0.000,0.000
"Cholesterol",mg,--,--,0,0
Amino Acids
Other
Ingredients
"WATER, TOMATO PASTE, SUGAR, WHITE VINEGAR, BROWN SUGAR, SALT, SPICES, NATURAL SMOKE FLAVORS, PAPRIKA, SOYBEAN OR CANOLA OIL, WORCESTERSHIRE SAUCE (DISTILLED VINEGAR, MOLASSES, CORN SYRUP, WATER, SALT, CARAMEL COLOR, SUGAR, SPICES, ANCHOVY PUREE, NATURAL FLAVOR [CONTAINS SOY], AND TAMARIND), CARAMEL COLOR, DEHYDRATED GARLIC, POTASSIUM SORBATE AND SODIUM BENZOATE (AS PRESERVATIVES), XANTHAN GUM, DEHYDRATED ONION." Date available: 10/13/2017 Date last updated by company: 10/13/2017
