Source: USDA Branded Food Products Database Release December 2017 Software v.3.8.6.4 2017-10-02
Report Run at: December 18, 2017 05:40 EST
"Nutrient data for: 45268263, SPICE PUMPKIN JAM, UPC: 741643039179"
Food Group:  Branded Food Products Database
Common Name:

Nutrient,Unit,Data points,Std. Error,"0.7 OZ = 19.0g",1Value per 100 g,
Proximates
"Energy",kcal,--,--,50,263
"Protein",g,--,--,0.00,0.00
"Total lipid (fat)",g,--,--,0.00,0.00
"Carbohydrate, by difference",g,--,--,14.00,73.68
"Fiber, total dietary",g,--,--,0.0,0.0
"Sugars, total",g,--,--,13.00,68.42
Minerals
"Calcium, Ca",mg,--,--,0,0
"Iron, Fe",mg,--,--,1.22,6.40
"Sodium, Na",mg,--,--,10,53
Vitamins
"Vitamin C, total ascorbic acid",mg,--,--,71.0,373.7
"Vitamin A, IU",IU,--,--,5918,31145
Lipids
"Fatty acids, total saturated",g,--,--,0.000,0.000
"Fatty acids, total trans",g,--,--,0.000,0.000
"Cholesterol",mg,--,--,0,0
Amino Acids
Other
Ingredients
"PUMPKIN, PURE CANE SUGAR, BROWN SUGAR, LEMON JUICE CONCENTRATE, SPICES, PECTIN, ASCORBIC ACID, NATURAL FLAVOR AND SALT." Date available: 07/14/2017 Date last updated by company: 07/14/2017
