Source: USDA Branded Food Products Database Release December 2017 Software v.3.8.6.4 2017-10-02
Report Run at: December 18, 2017 05:36 EST
"Nutrient data for: 45213690, SPICED JELLY BIRD EGGS, UPC: 030243737333"
Food Group:  Branded Food Products Database
Common Name:

Nutrient,Unit,Data points,Std. Error,"14.0 PIECES = 42.0g",1Value per 100 g,
Proximates
"Energy",kcal,--,--,150,357
"Protein",g,--,--,0.00,0.00
"Total lipid (fat)",g,--,--,0.00,0.00
"Carbohydrate, by difference",g,--,--,38.00,90.48
"Fiber, total dietary",g,--,--,0.0,0.0
"Sugars, total",g,--,--,25.00,59.52
Minerals
"Calcium, Ca",mg,--,--,0,0
"Iron, Fe",mg,--,--,0.00,0.00
"Sodium, Na",mg,--,--,15,36
Vitamins
"Vitamin C, total ascorbic acid",mg,--,--,0.0,0.0
"Vitamin A, IU",IU,--,--,0,0
Lipids
"Fatty acids, total saturated",g,--,--,0.000,0.000
"Fatty acids, total trans",g,--,--,0.000,0.000
"Cholesterol",mg,--,--,0,0
Amino Acids
Other
Ingredients
"SUGAR, CORN SYRUP, CORNSTARCH, MODIFIED CORNSTARCH, MALTODEXTRIN, FD&C RED #40, YELLOW #6, YELLOW #5, TITANIUM DIOXIDE (FOR COLOR), BLUE #1, RED #3, NATURAL AND ARTIFICIAL FLAVORS, CARNAUBA WAX, BEES WAX, CONFECTIONER'S GLAZE." Date available: 07/14/2017 Date last updated by company: 07/14/2017
