Source: USDA Branded Food Products Database Release December 2017 Software v.3.8.6.4 2017-10-02
Report Run at: December 18, 2017 05:35 EST
"Nutrient data for: 45030355, SPICE CLASSICS, ONION SALT, UPC: 052100020303"
Food Group:  Branded Food Products Database
Common Name:

Nutrient,Unit,Data points,Std. Error,"0.25 tsp = 1.1g",1Value per 100 g,
Proximates
"Energy",kcal,--,--,0,0
"Protein",g,--,--,0.00,0.00
"Total lipid (fat)",g,--,--,0.00,0.00
"Carbohydrate, by difference",g,--,--,0.00,0.00
Minerals
"Sodium, Na",mg,--,--,390,35455
Vitamins
Lipids
Amino Acids
Other
Ingredients
"SALT, ONION, SODIUM SILICO ALUMINATE (ADDED TO MAKE FREE FLOWING), AND ONION EXTRACTIVES" Date available: 07/14/2017 Date last updated by company: 07/14/2017
