Source: USDA Branded Food Products Database Release December 2017 Software v.3.8.6.4 2017-10-02
Report Run at: December 18, 2017 05:50 EST
"Nutrient data for: 45200807, SPICY SAUSAGE LINKS, UPC: 731956088124"
Food Group:  Branded Food Products Database
Common Name:

Nutrient,Unit,Data points,Std. Error,"1 SAUSAGE = 57.0g",1Value per 100 g,
Proximates
"Energy",kcal,--,--,160,281
"Protein",g,--,--,8.00,14.04
"Total lipid (fat)",g,--,--,14.00,24.56
"Carbohydrate, by difference",g,--,--,1.00,1.75
"Fiber, total dietary",g,--,--,0.0,0.0
"Sugars, total",g,--,--,0.00,0.00
Minerals
"Calcium, Ca",mg,--,--,0,0
"Iron, Fe",mg,--,--,0.70,1.22
"Sodium, Na",mg,--,--,500,877
Vitamins
"Vitamin C, total ascorbic acid",mg,--,--,0.0,0.0
"Vitamin A, IU",IU,--,--,96,169
Lipids
"Fatty acids, total saturated",g,--,--,6.002,10.530
"Fatty acids, total trans",g,--,--,0.000,0.000
"Cholesterol",mg,--,--,35,61
Amino Acids
Other
Ingredients
"BEEF, WATER, LESS THAN 2% OF THE FOLLOWING: SALT, SEASONING (SPICES, SUGAR, NATURAL FLAVORS, NATURAL SMOKE FLAVOR), SODIUM LACTATE, SODIUM NITRITE, SODIUM DIACETATE." Date available: 07/14/2017 Date last updated by company: 07/14/2017
