Source: USDA Branded Food Products Database Release December 2017 Software v.3.8.6.4 2017-10-02
Report Run at: December 18, 2017 05:55 EST
"Nutrient data for: 45202516, SPINACH BERRY SALAD WITH SWEET ONION VINAIGRETTE, UPC: 782796020317"
Food Group:  Branded Food Products Database
Common Name:

Nutrient,Unit,Data points,Std. Error,"1 SALAD = 255.0g",1Value per 100 g,
Proximates
"Energy",kcal,--,--,291,114
"Protein",g,--,--,5.00,1.96
"Total lipid (fat)",g,--,--,15.99,6.27
"Carbohydrate, by difference",g,--,--,33.00,12.94
"Fiber, total dietary",g,--,--,5.1,2.0
"Sugars, total",g,--,--,24.00,9.41
Minerals
"Calcium, Ca",mg,--,--,150,59
"Iron, Fe",mg,--,--,1.99,0.78
"Sodium, Na",mg,--,--,339,133
Vitamins
"Vitamin C, total ascorbic acid",mg,--,--,32.9,12.9
"Vitamin A, IU",IU,--,--,5215,2045
Lipids
"Fatty acids, total saturated",g,--,--,0.995,0.390
"Fatty acids, total trans",g,--,--,0.000,0.000
"Cholesterol",mg,--,--,0,0
Amino Acids
Other
Ingredients
"BABY SPINACH, SWEET ONION VINAIGRETTE (CANOLA OIL, HIGH FRUCTOSE CORN SYRUP, WATER, DIJON MUSTARD [WATER, MUSTARD SEED, DISTILLED VINEGAR, SALT, WHITE WINE, CITRIC ACID, TURMERIC (COLOR), TARTARIC ACID, SPICES], ONION, RED WINE VINEGAR, WHITE WINE VINEGAR, SWEET ONION (SWEET ONION, VINEGAR, SALT), SALT, LEMON JUICE CONCENTRATE, DRIED ONION, SPICES, XANTHAN GUM, NATURAL SMOKE FLAVOR), STRAWBERRIES, MANDARIN ORANGES (MANDARIN ORANGE SEGMENTS, WATER, SUGAR), CRANBERRIES (CRANBERRIES, SUGAR, SUNFLOWER OIL), ALMONDS, RED ONION." Date available: 07/14/2017 Date last updated by company: 07/14/2017
