Source: USDA Branded Food Products Database Release December 2017 Software v.3.8.6.4 2017-10-02
Report Run at: December 18, 2017 05:57 EST
"Nutrient data for: 45232261, SPINACH & GARLIC TURKEY MEATBALLS, UPC: 085239020852"
Food Group:  Branded Food Products Database
Common Name:

Nutrient,Unit,Data points,Std. Error,"4.0 MEATBALLS = 85.0g",1Value per 100 g,
Proximates
"Energy",kcal,--,--,130,153
"Protein",g,--,--,14.00,16.47
"Total lipid (fat)",g,--,--,7.00,8.24
"Carbohydrate, by difference",g,--,--,3.00,3.53
"Fiber, total dietary",g,--,--,0.0,0.0
"Sugars, total",g,--,--,0.00,0.00
Minerals
"Calcium, Ca",mg,--,--,20,24
"Iron, Fe",mg,--,--,1.52,1.79
"Potassium, K",mg,--,--,220,259
"Sodium, Na",mg,--,--,350,412
Vitamins
"Vitamin C, total ascorbic acid",mg,--,--,3.4,4.0
"Vitamin A, IU",IU,--,--,706,831
Lipids
"Fatty acids, total saturated",g,--,--,1.998,2.350
"Fatty acids, total trans",g,--,--,0.000,0.000
"Cholesterol",mg,--,--,55,65
Amino Acids
Other
Ingredients
"TURKEY, RED ONION, WATER, SPINACH, BREAD CRUMBS (WHEAT FLOUR, SALT, YEAST), EGGS, GARLIC, SALT, BLACK PEPPER." Date available: 07/14/2017 Date last updated by company: 07/14/2017
