Source: USDA Branded Food Products Database Release December 2017 Software v.3.8.6.4 2017-10-02
Report Run at: December 18, 2017 05:54 EST
"Nutrient data for: 45282658, SPINACH & ARTICHOKE CHEESE DIP, UPC: 049022699953"
Food Group:  Branded Food Products Database
Common Name:

Nutrient,Unit,Data points,Std. Error,"2.0 Tbsp = 28.0g",1Value per 100 g,
Proximates
"Energy",kcal,--,--,30,107
"Protein",g,--,--,2.00,7.14
"Total lipid (fat)",g,--,--,1.50,5.36
"Carbohydrate, by difference",g,--,--,2.00,7.14
"Fiber, total dietary",g,--,--,0.0,0.0
"Sugars, total",g,--,--,1.00,3.57
Minerals
"Calcium, Ca",mg,--,--,60,214
"Iron, Fe",mg,--,--,0.00,0.00
"Sodium, Na",mg,--,--,110,393
Vitamins
"Vitamin C, total ascorbic acid",mg,--,--,0.0,0.0
"Vitamin A, IU",IU,--,--,893,3189
Lipids
"Fatty acids, total saturated",g,--,--,1.000,3.570
"Fatty acids, total trans",g,--,--,0.000,0.000
"Cholesterol",mg,--,--,5,18
Amino Acids
Other
Ingredients
"BECHAMEL SAUCE (WATER, WHOLE MILK POWDER, MODIFIED FOOD STARCH [CORN], SALT, SUGAR, NATURAL FLAVOR, YEAST EXTRACT AND ONION POWDER), SPINACH, MOZZARELLA CHEESE (PASTEURIZED PART SKIM MILK, CHEESE CULTURES, SALT, ENZYMES, POWDERED CELLULOSE ADDED TO PREVENT CAKING, AND NATAMYACIN), ARTICHOKE HEARTS (ARTICHOKE HEARTS, WATER, SALT, CITRIC ACID), SWISS CHEESE (PART-SKIM MILK, CHEESE CULTURES, SALT, ENZYMES), PARMESAN CHEESE (PASTEURIZED MILK, CHEESE CULTURES, SALT, ENZYMES), MODIFIED FOOD STARCH, HOT SAUCE (AGED CAYENNE PEPPERS, DISTILLED VINEGAR, WATER, SALT, NATURAL FLAVOR AND GARLIC POWDER), SALT, ONION POWDER, GARLIC POWDER, BLACK PEPPER." Date available: 07/14/2017 Date last updated by company: 07/14/2017
