Source: USDA Branded Food Products Database Release December 2017 Software v.3.8.6.4 2017-10-02
Report Run at: December 18, 2017 06:01 EST
"Nutrient data for: 45280811, SPINACH, UPC: 075450016666"
Food Group:  Branded Food Products Database
Common Name:

Nutrient,Unit,Data points,Std. Error,"0.5 cup = 115.0g",1Value per 100 g,
Proximates
"Energy",kcal,--,--,30,26
"Protein",g,--,--,2.00,1.74
"Total lipid (fat)",g,--,--,0.00,0.00
"Carbohydrate, by difference",g,--,--,4.00,3.48
"Fiber, total dietary",g,--,--,2.0,1.7
"Sugars, total",g,--,--,0.00,0.00
Minerals
"Calcium, Ca",mg,--,--,100,87
"Iron, Fe",mg,--,--,1.22,1.06
"Sodium, Na",mg,--,--,300,261
Vitamins
"Vitamin C, total ascorbic acid",mg,--,--,16.9,14.7
"Vitamin A, IU",IU,--,--,2826,2457
Lipids
Amino Acids
Other
Ingredients
"SPINACH, WATER, SALT." Date available: 09/27/2017 Date last updated by company: 09/27/2017
