Source: USDA Branded Food Products Database Release December 2017 Software v.3.8.6.4 2017-10-02
Report Run at: December 18, 2017 05:58 EST
"Nutrient data for: 45232668, SPINACH PIZZA IN A POCKET SANDWICH, UPC: 042272001736"
Food Group:  Branded Food Products Database
Common Name:

Nutrient,Unit,Data points,Std. Error,"128.0 GRM = 128.0g",1Value per 100 g,
Proximates
"Energy",kcal,--,--,280,219
"Protein",g,--,--,13.00,10.16
"Total lipid (fat)",g,--,--,9.00,7.03
"Carbohydrate, by difference",g,--,--,37.00,28.91
"Fiber, total dietary",g,--,--,4.0,3.1
"Sugars, total",g,--,--,3.00,2.34
Minerals
"Calcium, Ca",mg,--,--,200,156
"Iron, Fe",mg,--,--,0.96,0.75
"Sodium, Na",mg,--,--,460,359
Vitamins
"Vitamin C, total ascorbic acid",mg,--,--,1.5,1.2
"Vitamin A, IU",IU,--,--,198,155
Lipids
"Fatty acids, total saturated",g,--,--,3.994,3.120
"Fatty acids, total trans",g,--,--,0.000,0.000
"Cholesterol",mg,--,--,15,12
Amino Acids
Other
Ingredients
"ORGANIC UNBLEACHED WHEAT FLOUR, FILTERED WATER, ORGANIC TOMATO PUREE, PART-SKIM MOZZARELLA CHEESE (PASTEURIZED PART-SKIM MILK, CULTURE, SALT, ENZYMES [WITHOUT ANIMAL ENZYMES OR RENNET]), ORGANIC WHOLE WHEAT FLOUR, ORGANIC SPINACH, FETA CHEESE (PASTEURIZED MILK, SALT, CULTURE, ENZYMES [WITHOUT ANIMAL ENZYMES OR RENNET]), ORGANIC ONIONS, ORGANIC TOFU (FILTERED WATER, ORGANIC SOYBEANS, MAGNESIUM CHLORIDE), EXTRA VIRGIN OLIVE OIL, HONEY, ORGANIC CORNMEAL, ORGANIC GARLIC, BUTTER (CREAM, SALT), BASIL, SEA SALT, WHEAT GLUTEN, SPICES, YEAST, ORGANIC EVAPORATED CANE SYRUP, BLACK PEPPER." Date available: 07/14/2017 Date last updated by company: 07/14/2017
