Source: USDA Branded Food Products Database Release December 2017 Software v.3.8.6.4 2017-10-02
Report Run at: December 18, 2017 06:04 EST
"Nutrient data for: 45217845, SPLIT PEA & HAM SOUP, UPC: 20043032"
Food Group:  Branded Food Products Database
Common Name:

Nutrient,Unit,Data points,Std. Error,"1 CONTAINER = 312.0g",1Value per 100 g,
Proximates
"Energy",kcal,--,--,168,54
"Protein",g,--,--,12.01,3.85
"Total lipid (fat)",g,--,--,4.99,1.60
"Carbohydrate, by difference",g,--,--,20.00,6.41
"Fiber, total dietary",g,--,--,6.9,2.2
"Sugars, total",g,--,--,4.99,1.60
Minerals
"Calcium, Ca",mg,--,--,41,13
"Iron, Fe",mg,--,--,1.12,0.36
"Sodium, Na",mg,--,--,771,247
Vitamins
"Vitamin C, total ascorbic acid",mg,--,--,2.8,0.9
"Vitamin A, IU",IU,--,--,1569,503
Lipids
"Fatty acids, total saturated",g,--,--,0.998,0.320
"Fatty acids, total trans",g,--,--,0.000,0.000
"Cholesterol",mg,--,--,16,5
Amino Acids
Other
Ingredients
"SPLIT PEA AND HAM SOUP {WATER, SPLIT PEAS, HAM (PORK, WATER, SALT, SUGAR), ONION, CARROT, CELERY, CELERY JUICE POWDER, GARLIC PUREE, CANOLA OIL, SALT, VEGETABLE BASE [CONCENTRATED VEGETABLE EXTRACT (TOMATO, MUSHROOM, ONION, CARROT, CELERY, SUNFLOWER OIL), SALT, YEAST EXTRACT], BLACK PEPPER, PARSLEY, BAY LEAF}." Date available: 07/14/2017 Date last updated by company: 07/14/2017
