Source: USDA Branded Food Products Database Release December 2017 Software v.3.8.6.4 2017-10-02
Report Run at: December 18, 2017 06:07 EST
"Nutrient data for: 45316635, SPONGE PETIT CAKE, UPC: 852160006107"
Food Group:  Branded Food Products Database
Common Name:

Nutrient,Unit,Data points,Std. Error,"1 SPONGE CAKE = 30.0g",1Value per 100 g,
Proximates
"Energy",kcal,--,--,110,367
"Protein",g,--,--,1.00,3.33
"Total lipid (fat)",g,--,--,4.00,13.33
"Carbohydrate, by difference",g,--,--,17.00,56.67
"Fiber, total dietary",g,--,--,1.0,3.3
"Sugars, total",g,--,--,10.00,33.33
Minerals
"Calcium, Ca",mg,--,--,40,133
"Iron, Fe",mg,--,--,1.20,4.00
"Sodium, Na",mg,--,--,110,367
Vitamins
"Vitamin C, total ascorbic acid",mg,--,--,0.0,0.0
"Vitamin A, IU",IU,--,--,166,555
Lipids
"Fatty acids, total saturated",g,--,--,0.000,0.000
"Fatty acids, total trans",g,--,--,0.000,0.000
"Cholesterol",mg,--,--,15,50
Amino Acids
Other
Ingredients
"WHEAT FLOUR, EGGS, SUGAR, CANOLA OIL, GLYCEROL, FRUCTO-OLIGOSACCHARIDES, NATURAL FLAVOR, SKIMMED-MILK POWDER, BAKING POWDER (DIPHOSPHATE - SODIUM CARBONATE), SALT, WHEAT STARCH, NATURAL VANILLA FLAVOR. STRAWBERRY FILLING: SUGAR, STRAWBERRY PUREE CONCENTRATE, INVERT SUGAR SYRUP, GLYCEROL, PECTIN, LACTIC ACID, STRAWBERRY NATURAL FLAVOR, NATURAL FLAVOR, SALT." Date available: 07/14/2017 Date last updated by company: 07/14/2017
