Source: USDA Branded Food Products Database Release December 2017 Software v.3.8.6.4 2017-10-02
Report Run at: December 18, 2017 06:08 EST
"Nutrient data for: 45174342, SPOOKY VILLAGE, MONSTER MARSHMALLOW DECORATING KIT, UPC: 050428518083"
Food Group:  Branded Food Products Database
Common Name:

Nutrient,Unit,Data points,Std. Error,"0.25 PACKAGE (6 MARSHMALLOW POPS WITH DECORATIONS) = 50.0g",1Value per 100 g,
Proximates
"Energy",kcal,--,--,190,380
"Protein",g,--,--,1.00,2.00
"Total lipid (fat)",g,--,--,2.50,5.00
"Carbohydrate, by difference",g,--,--,41.00,82.00
"Sugars, total",g,--,--,25.00,50.00
Minerals
"Sodium, Na",mg,--,--,15,30
Vitamins
Lipids
"Fatty acids, total saturated",g,--,--,2.500,5.000
"Fatty acids, total trans",g,--,--,0.000,0.000
Amino Acids
Other
Ingredients
"MARSHMALLOWS (CORN SYRUP, SUGAR, WATER, GELATIN, CORNSTARCH, HYDROXYPROPYL DISTARCH PHOSPHATE, SORBITOL, ARTIFICIAL FLAVOR, YELLOW 5, YELLOW 6, BLUE 1), SPRINKLES (SUGAR, CORNSTARCH, PARTIALLY HYDROGENATED PALM OIL, DEXTRIN, CARNAUBA WAX, SOY LECITHIN, YELLOW 5, RED 40, BLUE 1), CANDY EYES (GLUCOSE POWDER, CORNSTARCH, DEXTRIN, MAGNESIUM STEARATE, GUM ARABIC, ARTIFICIAL FLAVOR, CARNAUBA WAX, SHELLAC, YELLOW 5, RED 40, BLUE 1), GEL (SUGAR, WATER, CORN SYRUP, PARTIALLY HYDROGENATED PALM OIL, WHEY POWDER, SODIUM CASEINATE, ARTIFICIAL FLAVOR, MICROCRYSTALLINE CELLULOSE, GLYCERYL MONOSTEARATE, CARRAGEENAN, POTASSIUM SORBATE, SODIUM BENZOATE, YELLOW 5, RED 40, BLUE 1)." Date available: 07/14/2017 Date last updated by company: 07/14/2017
