Source: USDA Branded Food Products Database Release December 2017 Software v.3.8.6.4 2017-10-02
Report Run at: December 18, 2017 06:09 EST
"Nutrient data for: 45220012, SPORTS DRINK, UPC: 898999006109"
Food Group:  Branded Food Products Database
Common Name:

Nutrient,Unit,Data points,Std. Error,"8.0 OZA = 236.0g",1Value per 100 g,
Proximates
"Energy",kcal,--,--,50,21
"Protein",g,--,--,0.00,0.00
"Total lipid (fat)",g,--,--,0.00,0.00
"Carbohydrate, by difference",g,--,--,11.99,5.08
"Sugars, total",g,--,--,10.01,4.24
Minerals
"Potassium, K",mg,--,--,210,89
"Sodium, Na",mg,--,--,120,51
Vitamins
"Vitamin C, total ascorbic acid",mg,--,--,0.0,0.0
"Vitamin A, IU",IU,--,--,0,0
Lipids
"Fatty acids, total saturated",g,--,--,0.000,0.000
"Fatty acids, total trans",g,--,--,0.000,0.000
"Cholesterol",mg,--,--,0,0
Amino Acids
Other
Ingredients
"COCONUT WATER, FILTERED WATER, SUGAR, NATURAL FLAVOR, CITRIC ACID, SEA SALT, FRUIT AND VEGETABLE JUICES (FOR COLOR)." Date available: 07/14/2017 Date last updated by company: 07/14/2017
