Source: USDA Branded Food Products Database Release December 2017 Software v.3.8.6.4 2017-10-02
Report Run at: December 18, 2017 06:10 EST
"Nutrient data for: 45214528, SPORTS SHAPES & CHEESE, MACARONI & CHEESE DINNER, UPC: 051933340756"
Food Group:  Branded Food Products Database
Common Name:

Nutrient,Unit,Data points,Std. Error,"0.5 BOX | ABOUT = 70.0g",1Value per 100 g,
Proximates
"Energy",kcal,--,--,250,357
"Protein",g,--,--,8.00,11.43
"Total lipid (fat)",g,--,--,1.00,1.43
"Carbohydrate, by difference",g,--,--,52.00,74.29
"Fiber, total dietary",g,--,--,2.0,2.9
"Sugars, total",g,--,--,3.00,4.29
Minerals
"Calcium, Ca",mg,--,--,20,29
"Iron, Fe",mg,--,--,6.43,9.18
"Sodium, Na",mg,--,--,610,871
Vitamins
"Vitamin C, total ascorbic acid",mg,--,--,0.0,0.0
"Vitamin A, IU",IU,--,--,0,0
Lipids
"Fatty acids, total saturated",g,--,--,0.000,0.000
"Fatty acids, total trans",g,--,--,0.000,0.000
"Cholesterol",mg,--,--,0,0
Amino Acids
Other
Ingredients
"ENRICHED MACARONI PRODUCT (WHEAT FLOUR, DURUM FLOUR, NIACIN FERROUS SULFATE, THIAMIN MONONITRATE RIBOFLAVIN, FOLIC ACID), CHEESE SAUCE MIX (WHEAT FLOUR, MALTODEXTRIN, WHEY, SALT, SOYBEAN OIL, SODIUM PHOSPHATE, NATURAL FLAVOR, CITRIC ACID, CHEDDAR CHEESE [PASTEURIZED MILK, CHEESE CULTURES, SALT, ENZYMES], COLORS ADDED [YELLOW 5, YELLOW 6, YELLOW 6 LAKE, YELLOW 5 LAKE], SODIUM CASEINATE, BUTTER OIL)." Date available: 07/14/2017 Date last updated by company: 07/14/2017
