Source: USDA Branded Food Products Database Release December 2017 Software v.3.8.6.4 2017-10-02
Report Run at: December 18, 2017 06:11 EST
"Nutrient data for: 45331655, SPREADABLE BUTTER WITH CANOLA OIL, UPC: 673803100101"
Food Group:  Branded Food Products Database
Common Name:

Nutrient,Unit,Data points,Std. Error,"1 Tbsp = 14.0g",1Value per 100 g,
Proximates
"Energy",kcal,--,--,90,643
"Protein",g,--,--,0.00,0.00
"Total lipid (fat)",g,--,--,10.00,71.43
"Carbohydrate, by difference",g,--,--,0.00,0.00
"Fiber, total dietary",g,--,--,0.0,0.0
"Sugars, total",g,--,--,0.00,0.00
Minerals
"Calcium, Ca",mg,--,--,0,0
"Iron, Fe",mg,--,--,0.00,0.00
"Potassium, K",mg,--,--,0,0
"Sodium, Na",mg,--,--,35,250
Vitamins
"Vitamin D",IU,--,--,0,0
Lipids
"Fatty acids, total saturated",g,--,--,4.000,28.570
"Fatty acids, total trans",g,--,--,0.000,0.000
"Cholesterol",mg,--,--,15,107
Amino Acids
Other
Ingredients
"BUTTER (PASTEURIZED CREAM, SALT), CANOLA OIL**, WATER**, MILK MINERAL CONCENTRATE**." Date available: 10/13/2017 Date last updated by company: 10/13/2017
