Source: USDA Branded Food Products Database Release December 2017 Software v.3.8.6.4 2017-10-02
Report Run at: December 18, 2017 06:15 EST
"Nutrient data for: 45144261, SPREE, FLAVORED CANDY, ORIGINAL, UPC: 079200150266"
Food Group:  Branded Food Products Database
Common Name:

Nutrient,Unit,Data points,Std. Error,"8.0 PIECES = 15.0g",1Value per 100 g,
Proximates
"Energy",kcal,--,--,50,333
"Protein",g,--,--,0.00,0.00
"Total lipid (fat)",g,--,--,0.50,3.33
"Carbohydrate, by difference",g,--,--,12.00,80.00
"Sugars, total",g,--,--,12.00,80.00
Minerals
"Sodium, Na",mg,--,--,0,0
Vitamins
Lipids
"Fatty acids, total saturated",g,--,--,0.500,3.330
Amino Acids
Other
Ingredients
"DEXTROSE, MALTODEXTRIN, MALIC ACID, AND LESS THAN 2% OF CALCIUM STEARATE, CORN SYRUP, NATURAL FLAVORS, CARNAUBA WAX, COLOR ADDED, BLUE 1, BLUE 2 LAKE, RED 40 LAKE, YELLOW 5, YELLOW 5 LAKE, YELLOW 6." Date available: 07/14/2017 Date last updated by company: 07/14/2017
