Source: USDA Branded Food Products Database Release December 2017 Software v.3.8.6.4 2017-10-02
Report Run at: December 18, 2017 06:13 EST
"Nutrient data for: 45184992, SPREAD, UPC: 087822193455"
Food Group:  Branded Food Products Database
Common Name:

Nutrient,Unit,Data points,Std. Error,"1 Tbsp = 20.0g",1Value per 100 g,
Proximates
"Energy",kcal,--,--,30,150
"Protein",g,--,--,0.00,0.00
"Total lipid (fat)",g,--,--,0.00,0.00
"Carbohydrate, by difference",g,--,--,7.00,35.00
"Fiber, total dietary",g,--,--,7.0,35.0
Minerals
"Sodium, Na",mg,--,--,0,0
Vitamins
"Vitamin C, total ascorbic acid",mg,--,--,8.1,40.6
"Vitamin A, IU",IU,--,--,0,0
Lipids
Amino Acids
Other
Ingredients
"STRAWBERRIES, SUGAR, WINE PECTIN AND CITRIC ACID" Date available: 07/14/2017 Date last updated by company: 07/14/2017
