Source: USDA Branded Food Products Database Release December 2017 Software v.3.8.6.4 2017-10-02
Report Run at: December 18, 2017 06:26 EST
"Nutrient data for: 45261246, SPRINKLE CUPCAKE TREATS, UPC: 655956011428"
Food Group:  Branded Food Products Database
Common Name:

Nutrient,Unit,Data points,Std. Error,"40.0 GRM = 40.0g",1Value per 100 g,
Proximates
"Energy",kcal,--,--,200,500
"Protein",g,--,--,1.00,2.50
"Total lipid (fat)",g,--,--,9.00,22.50
"Carbohydrate, by difference",g,--,--,27.00,67.50
"Fiber, total dietary",g,--,--,0.0,0.0
"Sugars, total",g,--,--,19.00,47.50
Minerals
"Calcium, Ca",mg,--,--,40,100
"Iron, Fe",mg,--,--,0.00,0.00
"Sodium, Na",mg,--,--,85,212
Vitamins
"Vitamin C, total ascorbic acid",mg,--,--,0.0,0.0
"Vitamin A, IU",IU,--,--,0,0
Lipids
"Fatty acids, total saturated",g,--,--,9.000,22.500
"Fatty acids, total trans",g,--,--,0.000,0.000
"Cholesterol",mg,--,--,0,0
Amino Acids
Other
Ingredients
"WHITE BIRTHDAY CAKE (SUGAR, WHEAT FLOUR, PARTIALLY HYDROGENATED PALM KERNEL OIL, GLYCERINE, HIGH FRUCTOSE CORN SYRUP, PALM OIL, NATURAL FLAVORS, SALT SOY LECITHIN, XANTHAN GUM, SODIUM BICARBONATE), WHITE KREEMY COATING (SUGAR, PARTIALLY HYDROGENATED PALM KERNEL OIL, NONFAT MILK POWDER, SOY LECITHIN [ADDED AS AN EMULSIFIER], MONOGLYCERIDES, ARTIFICIAL COLOR [TITANIUM DIOXIDE], ARTIFICIAL FLAVOR), RAINBOW DECORETTES (SUGAR, CORN STARCH, PARTIALLY HYDROGENATED VEGETABLE OIL [COTTONSEED AND/OR SOYBEAN], SOY LECITHIN, DEXTRIN, CONFECTIONER'S GLAZE, RED 40 LAKE, YELLOW 5 LAKE, YELLOW 6 LAKE, NATURAL AND ARTIFICIAL FLAVOR, BLUE 1 LAKE, CARNAUBA WAX, RED 3, BLUE 1, RED 40)." Date available: 09/28/2017 Date last updated by company: 09/28/2017
