Source: USDA Branded Food Products Database Release December 2017 Software v.3.8.6.4 2017-10-02
Report Run at: December 18, 2017 06:17 EST
"Nutrient data for: 45026412, SPRINGFIELD, CORNED BEEF HASH, UPC: 041380114024"
Food Group:  Branded Food Products Database
Common Name:

Nutrient,Unit,Data points,Std. Error,"1 cup = 236.0g",1Value per 100 g,
Proximates
"Energy",kcal,--,--,380,161
"Protein",g,--,--,19.99,8.47
"Total lipid (fat)",g,--,--,24.00,10.17
"Carbohydrate, by difference",g,--,--,22.00,9.32
"Fiber, total dietary",g,--,--,1.9,0.8
"Sugars, total",g,--,--,0.99,0.42
Minerals
"Calcium, Ca",mg,--,--,19,8
"Iron, Fe",mg,--,--,1.91,0.81
"Sodium, Na",mg,--,--,1001,424
Vitamins
"Vitamin C, total ascorbic acid",mg,--,--,0.0,0.0
"Vitamin A, IU",IU,--,--,0,0
Lipids
"Fatty acids, total saturated",g,--,--,10.998,4.660
"Fatty acids, total trans",g,--,--,0.991,0.420
"Cholesterol",mg,--,--,80,34
Amino Acids
Other
Ingredients
"BEEF AND COOKED CORNED BEEF (CURED WITH SALT, SUGAR, WATER, SODIUM NITRITE), REHYDRATED POTATOES, WATER, SALT, FLAVORING, SUGAR, SPICE, SODIUM NITRITE." Date available: 07/14/2017 Date last updated by company: 07/14/2017
