Source: USDA Branded Food Products Database Release December 2017 Software v.3.8.6.4 2017-10-02
Report Run at: December 18, 2017 06:17 EST
"Nutrient data for: 45043847, SPRINGFIELD, CHICKEN BROTH, UPC: 041380126041"
Food Group:  Branded Food Products Database
Common Name:

Nutrient,Unit,Data points,Std. Error,"1 cup = 245.0g",1Value per 100 g,
Proximates
"Energy",kcal,--,--,20,8
"Protein",g,--,--,1.00,0.41
"Total lipid (fat)",g,--,--,1.00,0.41
"Carbohydrate, by difference",g,--,--,1.00,0.41
"Fiber, total dietary",g,--,--,0.0,0.0
"Sugars, total",g,--,--,0.00,0.00
Minerals
"Calcium, Ca",mg,--,--,0,0
"Iron, Fe",mg,--,--,0.00,0.00
"Sodium, Na",mg,--,--,1039,424
Vitamins
"Vitamin C, total ascorbic acid",mg,--,--,0.0,0.0
"Vitamin A, IU",IU,--,--,0,0
Lipids
"Fatty acids, total saturated",g,--,--,0.490,0.200
"Fatty acids, total trans",g,--,--,0.000,0.000
"Cholesterol",mg,--,--,5,2
Amino Acids
Other
Ingredients
"CHICKEN BROTH, SALT, CHICKEN FAT, MONOSODIUM GLUTAMATE, SUGAR, NATURAL FLAVOR, MALTODEXTRIN, AUTOLYZED YEAST EXTRACT, HYDROLYZED WHEY PROTEIN (MILK), MODIFIED CORN STARCH, HYDROLYZED WHEAT BRAN, PARTIALLY HYDROGENATED SOYBEAN OIL, DISODIUM INOSINATE, DISODIUM GUANYLATE, CARAMEL COLOR, BETA CAROTENE (FOR COLOR)" Date available: 06/24/2017 Date last updated by company: 06/24/2017
