Source: USDA Branded Food Products Database Release December 2017 Software v.3.8.6.4 2017-10-02
Report Run at: December 18, 2017 06:24 EST
"Nutrient data for: 45150372, SPRING2O, 100% NATURAL SPRING WATER, FRUIT PUNCH, UPC: 853613004251"
Food Group:  Branded Food Products Database
Common Name:

Nutrient,Unit,Data points,Std. Error,"8.0 OZA = 237.0g",1Value per 100 g,
Proximates
"Energy",kcal,--,--,81,34
"Protein",g,--,--,0.00,0.00
"Total lipid (fat)",g,--,--,0.00,0.00
"Carbohydrate, by difference",g,--,--,20.00,8.44
"Sugars, total",g,--,--,20.00,8.44
Minerals
"Sodium, Na",mg,--,--,14,6
Vitamins
Lipids
Amino Acids
Other
Ingredients
"SPRING WATER HIGH FRUCTOSE CORN, SYRUP, CITRIC ACID, NATURAL FLAVOR, SODIUM BENZOATE (PRESERVATIVE), POTASSIUM SORBATE (PRESERVATIVE), AND POTASSIUM CITRATE." Date available: 07/14/2017 Date last updated by company: 07/14/2017
