Source: USDA Branded Food Products Database Release December 2017 Software v.3.8.6.4 2017-10-02
Report Run at: December 18, 2017 06:22 EST
"Nutrient data for: 45180916, SPRING HERB, UPC: 011110788153"
Food Group:  Branded Food Products Database
Common Name:

Nutrient,Unit,Data points,Std. Error,"0.75 cup = 85.0g",1Value per 100 g,
Proximates
"Energy",kcal,--,--,100,118
"Protein",g,--,--,3.00,3.53
"Total lipid (fat)",g,--,--,3.00,3.53
"Carbohydrate, by difference",g,--,--,15.00,17.65
"Fiber, total dietary",g,--,--,2.0,2.4
"Sugars, total",g,--,--,1.00,1.18
Minerals
"Calcium, Ca",mg,--,--,20,24
"Iron, Fe",mg,--,--,1.08,1.27
"Sodium, Na",mg,--,--,420,494
Vitamins
"Vitamin C, total ascorbic acid",mg,--,--,36.0,42.4
"Vitamin A, IU",IU,--,--,400,471
Lipids
"Fatty acids, total saturated",g,--,--,0.000,0.000
"Fatty acids, total trans",g,--,--,0.000,0.000
"Cholesterol",mg,--,--,0,0
Amino Acids
Other
Ingredients
"POTATOES, ASPARAGUS, YELLOW BELL PEPPERS, GREEN ONIONS, VEGETABLE OIL (CANOLA OIL AND OLIVE OIL), SALT, SPICES, GARLIC, DEHYDRATED POTATOES, ONION POWDER, GARLIC POWDER, PARSLEY, CHIVES." Date available: 07/14/2017 Date last updated by company: 07/14/2017
