Source: USDA Branded Food Products Database Release December 2017 Software v.3.8.6.4 2017-10-02
Report Run at: December 18, 2017 06:16 EST
"Nutrient data for: 45021383, SPRINGFIELD, ASSORTED SANDWICH CREME COOKIES, UPC: 041380234289"
Food Group:  Branded Food Products Database
Common Name:

Nutrient,Unit,Data points,Std. Error,"2.0 COOKIES = 30.0g",1Value per 100 g,
Proximates
"Energy",kcal,--,--,140,467
"Protein",g,--,--,1.00,3.33
"Total lipid (fat)",g,--,--,6.00,20.00
"Carbohydrate, by difference",g,--,--,21.00,70.00
"Fiber, total dietary",g,--,--,0.0,0.0
"Sugars, total",g,--,--,9.00,30.00
Minerals
"Calcium, Ca",mg,--,--,20,67
"Iron, Fe",mg,--,--,1.20,4.00
"Potassium, K",mg,--,--,30,100
"Sodium, Na",mg,--,--,120,400
Vitamins
"Vitamin C, total ascorbic acid",mg,--,--,0.0,0.0
"Vitamin A, IU",IU,--,--,0,0
Lipids
"Fatty acids, total saturated",g,--,--,2.001,6.670
"Fatty acids, total monounsaturated",g,--,--,3.000,10.000
"Fatty acids, total polyunsaturated",g,--,--,0.999,3.330
"Fatty acids, total trans",g,--,--,0.000,0.000
"Cholesterol",mg,--,--,0,0
Amino Acids
Other
Ingredients
"ENRICHED WHEAT FLOUR (FLOUR, NIACIN, REDUCED IRON, THIAMINE MONONITRATE, RIBOFLAVIN, FOLIC ACID), VEGETABLE SHORTENING (CONTAINS ONE OR MORE OF THE FOLLOWING: CANOLA OIL, CORN OIL, PALM OIL, SOYBEAN OIL, AND/OR INTERESTERIFIED SOYBEAN OIL), SUGAR, DEXTROSE, CORN SYRUP, HIGH FRUCTOSE CORN SYRUP, CONTAINS 2% OR LESS OF THE FOLLOWING: COCOA (PROCESSED WITH ALKALI), CORNSTARCH, CARAMEL COLOR, LEAVENING (SODIUM BICARBONATE, MONOCALCIUM PHOSPHATE), SALT, ARTIFICIAL FLAVOR, SOY LECITHIN" Date available: 06/25/2017 Date last updated by company: 06/25/2017
