Source: USDA Branded Food Products Database Release December 2017 Software v.3.8.6.4 2017-10-02
Report Run at: December 18, 2017 06:32 EST
"Nutrient data for: 45105620, SPROUTED TRAIL MIX, UPC: 813700020151"
Food Group:  Branded Food Products Database
Common Name:

Nutrient,Unit,Data points,Std. Error,"1 ONZ = 28.0g",1Value per 100 g,
Proximates
"Energy",kcal,--,--,130,464
"Protein",g,--,--,5.00,17.86
"Total lipid (fat)",g,--,--,9.00,32.14
"Carbohydrate, by difference",g,--,--,11.00,39.29
"Fiber, total dietary",g,--,--,1.0,3.6
"Sugars, total",g,--,--,6.00,21.43
Minerals
"Calcium, Ca",mg,--,--,20,71
"Iron, Fe",mg,--,--,4.50,16.07
"Sodium, Na",mg,--,--,75,268
Vitamins
"Vitamin C, total ascorbic acid",mg,--,--,2.2,7.7
"Vitamin A, IU",IU,--,--,1072,3827
Lipids
"Fatty acids, total saturated",g,--,--,1.000,3.570
"Fatty acids, total trans",g,--,--,0.000,0.000
"Cholesterol",mg,--,--,0,0
Amino Acids
Other
Ingredients
"SPROUTED ORGANIC ALMONDS, ORGANIC MANGO, ORGANIC RAW CASHEWS, ORGANIC GOJI BERRIES, ORGANIC GREEN RAISINS, ORGANIC SULTANAS, SPROUTED ORGANIC PUMPKIN SEEDS, ORGANIC CURRANTS, SPROUTED ORGANIC SUNFLOWER SEEDS, HIMALAYAN CRYSTAL, SALT AND ORGANIC HABANERO." Date available: 06/25/2017 Date last updated by company: 06/25/2017
