Source: USDA Branded Food Products Database Release December 2017 Software v.3.8.6.4 2017-10-02
Report Run at: December 18, 2017 06:32 EST
"Nutrient data for: 45105268, SPROUTED TRAIL MIX, UPC: 813700020175"
Food Group:  Branded Food Products Database
Common Name:

Nutrient,Unit,Data points,Std. Error,"1 ONZ = 28.0g",1Value per 100 g,
Proximates
"Energy",kcal,--,--,115,411
"Protein",g,--,--,3.00,10.71
"Total lipid (fat)",g,--,--,7.00,25.00
"Carbohydrate, by difference",g,--,--,13.00,46.43
"Fiber, total dietary",g,--,--,2.0,7.1
"Sugars, total",g,--,--,7.00,25.00
Minerals
"Calcium, Ca",mg,--,--,20,71
"Iron, Fe",mg,--,--,3.21,11.48
"Sodium, Na",mg,--,--,171,612
Vitamins
"Vitamin C, total ascorbic acid",mg,--,--,3.2,11.5
"Vitamin A, IU",IU,--,--,1340,4784
Lipids
"Fatty acids, total saturated",g,--,--,1.000,3.570
"Fatty acids, total trans",g,--,--,0.000,0.000
"Cholesterol",mg,--,--,0,0
Amino Acids
Other
Ingredients
"SPROUTED ORGANIC PUMPKIN SEEDS, ORGANIC RAW CASHEWS, ORGANIC MULBERRIES, ORGANIC GREEN RAISINS, ORGANIC GOJI BERRIES, ORGANIC GOLDENBERRIES, ORGANIC CURRANTS, ORGANIC RAW CACAO NIBS AND ORGANIC SULTANAS." Date available: 06/25/2017 Date last updated by company: 06/25/2017
