Source: USDA Branded Food Products Database Release December 2017 Software v.3.8.6.4 2017-10-02
Report Run at: December 18, 2017 06:29 EST
"Nutrient data for: 45172286, SPROUTED CINNAMON RAISIN BREAD, UPC: 028833011123"
Food Group:  Branded Food Products Database
Common Name:

Nutrient,Unit,Data points,Std. Error,"1 SLICE = 32.0g",1Value per 100 g,
Proximates
"Energy",kcal,--,--,80,250
"Protein",g,--,--,5.00,15.62
"Total lipid (fat)",g,--,--,0.00,0.00
"Carbohydrate, by difference",g,--,--,17.00,53.12
"Fiber, total dietary",g,--,--,2.0,6.2
"Sugars, total",g,--,--,5.00,15.62
Minerals
"Calcium, Ca",mg,--,--,20,62
"Iron, Fe",mg,--,--,1.13,3.52
"Phosphorus, P",mg,--,--,94,293
"Potassium, K",mg,--,--,90,281
"Sodium, Na",mg,--,--,100,312
Vitamins
"Vitamin C, total ascorbic acid",mg,--,--,0.0,0.0
"Vitamin A, IU",IU,--,--,0,0
Lipids
"Fatty acids, total saturated",g,--,--,0.000,0.000
"Fatty acids, total trans",g,--,--,0.000,0.000
"Cholesterol",mg,--,--,0,0
Amino Acids
Other
Ingredients
"SPROUTED ORGANIC WHOLE WHEAT BERRIES, ORGANIC RAISINS, FILTERED WATER, ORGANIC WHOLE WHEAT FLOUR, WHEAT GLUTEN, HONEY, FRESH YEAST, CINNAMON, SEA SALT, SUNFLOWER LECITHIN, CULTURED WHEAT, ALLSPICE" Date available: 07/14/2017 Date last updated by company: 07/14/2017
