Source: USDA Branded Food Products Database Release December 2017 Software v.3.8.6.4 2017-10-02
Report Run at: December 18, 2017 06:33 EST
"Nutrient data for: 45273851, SPROUTED WHOLE GRAIN BREAD, UPC: 055991049811"
Food Group:  Branded Food Products Database
Common Name:

Nutrient,Unit,Data points,Std. Error,"1 SLICE = 38.0g",1Value per 100 g,
Proximates
"Energy",kcal,--,--,100,263
"Protein",g,--,--,6.00,15.79
"Total lipid (fat)",g,--,--,1.50,3.95
"Carbohydrate, by difference",g,--,--,17.00,44.74
"Fiber, total dietary",g,--,--,4.0,10.5
"Sugars, total",g,--,--,2.00,5.26
Minerals
"Calcium, Ca",mg,--,--,20,53
"Iron, Fe",mg,--,--,1.42,3.74
"Magnesium, Mg",mg,--,--,53,139
"Phosphorus, P",mg,--,--,131,346
"Potassium, K",mg,--,--,85,224
"Sodium, Na",mg,--,--,160,421
"Zinc, Zn",mg,--,--,0.90,2.37
"Manganese, Mn",mg,--,--,0.760,2.000
Vitamins
"Vitamin C, total ascorbic acid",mg,--,--,0.0,0.0
"Thiamin",mg,--,--,0.000,0.000
"Riboflavin",mg,--,--,0.089,0.235
"Niacin",mg,--,--,1.578,4.153
"Pantothenic acid",mg,--,--,0.400,1.053
"Vitamin B-6",mg,--,--,0.105,0.277
"Vitamin A, IU",IU,--,--,0,0
Lipids
"Fatty acids, total saturated",g,--,--,0.000,0.000
"Fatty acids, total monounsaturated",g,--,--,0.000,0.000
"Fatty acids, total polyunsaturated",g,--,--,0.999,2.630
"Fatty acids, total trans",g,--,--,0.000,0.000
"Cholesterol",mg,--,--,0,0
Amino Acids
Other
Ingredients
"ORGANIC WHOLE SPROUTED WHEAT, VITAL WHEAT GLUTEN, HULLED HEMP SEEDS, ORGANIC CANE SUGAR, WATER, CULTURED WHEAT FLOUR, YEAST, SEA SALT, ASCORBIC ACID." Date available: 07/14/2017 Date last updated by company: 07/14/2017
