Source: USDA Branded Food Products Database Release December 2017 Software v.3.8.6.4 2017-10-02
Report Run at: December 18, 2017 06:31 EST
"Nutrient data for: 45316415, SPROUTED QUICK OATS, UPC: 675625372070"
Food Group:  Branded Food Products Database
Common Name:

Nutrient,Unit,Data points,Std. Error,"0.333 cup = 35.0g",1Value per 100 g,
Proximates
"Energy",kcal,--,--,140,400
"Protein",g,--,--,6.00,17.14
"Total lipid (fat)",g,--,--,2.50,7.14
"Carbohydrate, by difference",g,--,--,23.00,65.71
"Fiber, total dietary",g,--,--,4.0,11.4
"Sugars, total",g,--,--,0.00,0.00
Minerals
"Calcium, Ca",mg,--,--,20,57
"Iron, Fe",mg,--,--,2.83,8.08
"Potassium, K",mg,--,--,150,429
"Sodium, Na",mg,--,--,0,0
Vitamins
"Vitamin C, total ascorbic acid",mg,--,--,0.0,0.0
"Vitamin A, IU",IU,--,--,0,0
Lipids
"Fatty acids, total saturated",g,--,--,0.000,0.000
"Fatty acids, total trans",g,--,--,0.000,0.000
"Cholesterol",mg,--,--,0,0
Amino Acids
Other
Ingredients
"ORGANIC GLUTEN-FREE SPROUTED WHOLE GRAIN OATS" Date available: 07/14/2017 Date last updated by company: 07/14/2017
