Source: USDA Branded Food Products Database Release December 2017 Software v.3.8.6.4 2017-10-02
Report Run at: December 18, 2017 06:34 EST
"Nutrient data for: 45005778, SPROUT, ORGANIC MORNING MULTIGRAIN CRUNCH BITES, RED BERRY & BEET, UPC: 818512017238"
Food Group:  Branded Food Products Database
Common Name:

Nutrient,Unit,Data points,Std. Error,"21.0 g = 21.0g",1Value per 100 g,
Proximates
"Energy",kcal,--,--,80,381
"Protein",g,--,--,1.00,4.76
"Total lipid (fat)",g,--,--,0.50,2.38
"Carbohydrate, by difference",g,--,--,18.00,85.71
"Fiber, total dietary",g,--,--,1.0,4.8
"Sugars, total",g,--,--,6.00,28.57
Minerals
"Calcium, Ca",mg,--,--,32,152
"Iron, Fe",mg,--,--,0.40,1.90
"Sodium, Na",mg,--,--,40,190
Vitamins
"Vitamin C, total ascorbic acid",mg,--,--,0.0,0.0
"Vitamin A, IU",IU,--,--,0,0
Lipids
"Fatty acids, total saturated",g,--,--,0.000,0.000
"Fatty acids, total trans",g,--,--,0.000,0.000
"Cholesterol",mg,--,--,0,0
Amino Acids
Other
Ingredients
"ORGANIC CEREAL SHELL: ORGANIC CORN FLOUR, ORGANIC WHOLE WHEAT FLOUR, ORGANIC WHOLE OAT FLOUR, ORGANIC DRIED CANE SYRUP, ORGANIC BROWN RICE FLOUR, CALCIUM CARBONATE, SEA SALT, MIXED TOCOPHEROLS (NATURAL ANTI-OXIDANT). ORGANIC FRUIT AND VEGETABLE FILLING: ORGANIC FRUIT AND VEGETABLES (ORGANIC CONCENTRATED APPLE JUICE, ORGANIC CONCENTRATED APPLE PUREE, ORGANIC CONCENTRATED RED BEET JUICE, ORGANIC CONCENTRATED RED PLUM JUICE, ORGANIC RASPBERRY PUREE, ORGANIC STRAWBERRY PUREE), ORGANIC VEGETABLE GLYCEROL, MALIC ACID, NATURAL FRUIT FLAVOR." Date last updated by company: 08/08/2014
