Source: USDA Branded Food Products Database Release December 2017 Software v.3.8.6.4 2017-10-02
Report Run at: December 18, 2017 06:36 EST
"Nutrient data for: 45268922, SQUASH RISOTTO, UPC: 825306011907"
Food Group:  Branded Food Products Database
Common Name:

Nutrient,Unit,Data points,Std. Error,"1 ONZ = 28.0g",1Value per 100 g,
Proximates
"Energy",kcal,--,--,30,107
"Protein",g,--,--,1.00,3.57
"Total lipid (fat)",g,--,--,1.00,3.57
"Carbohydrate, by difference",g,--,--,3.00,10.71
"Fiber, total dietary",g,--,--,1.0,3.6
"Sugars, total",g,--,--,1.00,3.57
Minerals
"Calcium, Ca",mg,--,--,10,36
"Iron, Fe",mg,--,--,0.90,3.21
"Sodium, Na",mg,--,--,60,214
Vitamins
"Vitamin C, total ascorbic acid",mg,--,--,9.0,32.1
"Vitamin A, IU",IU,--,--,3000,10714
Lipids
"Fatty acids, total saturated",g,--,--,0.300,1.070
"Fatty acids, total trans",g,--,--,0.000,0.000
"Cholesterol",mg,--,--,3,11
Amino Acids
Other
Ingredients
"BROWN RICE, BUTTERNUT SQUASH, ONION, PUMPKIN SEEDS, PARMESAN CHEESE (PASTEURIZED CULTURED PART - SKIM COW'S MILK, CELLULOSE, SALT, ENZYMES), WHITE WINE, PARSLEY, CILANTRO, SALT, GROUND CORIANDER, CAYENNE PEPPER, SOYBEAN OIL." Date available: 08/28/2017 Date last updated by company: 08/28/2017
