Source: USDA Branded Food Products Database Release December 2017 Software v.3.8.6.4 2017-10-02
Report Run at: December 18, 2017 06:39 EST
"Nutrient data for: 45275833, SQUEEZABLE SAUERKRAUT, UPC: 850567005006"
Food Group:  Branded Food Products Database
Common Name:

Nutrient,Unit,Data points,Std. Error,"2.0 Tbsp = 30.0g",1Value per 100 g,
Proximates
"Energy",kcal,--,--,10,33
"Protein",g,--,--,0.00,0.00
"Total lipid (fat)",g,--,--,0.00,0.00
"Carbohydrate, by difference",g,--,--,2.00,6.67
"Fiber, total dietary",g,--,--,2.0,6.7
"Sugars, total",g,--,--,0.00,0.00
Minerals
"Calcium, Ca",mg,--,--,20,67
"Iron, Fe",mg,--,--,0.61,2.03
"Sodium, Na",mg,--,--,250,833
Vitamins
"Vitamin C, total ascorbic acid",mg,--,--,10.1,33.8
"Vitamin A, IU",IU,--,--,0,0
Lipids
"Fatty acids, total saturated",g,--,--,0.000,0.000
"Fatty acids, total trans",g,--,--,0.000,0.000
"Cholesterol",mg,--,--,0,0
Amino Acids
Other
Ingredients
"CABBAGE, WATER, SALT, MODIFIED FOOD STARCH, CITRUS FIBER, GUAR GUM, SODIUM BENZOATE (FOR PRESERVATIVE), AND SODIUM BISULFITE (FOR COLOR RETENTION)" Date available: 07/14/2017 Date last updated by company: 07/14/2017
