Source: USDA Branded Food Products Database Release December 2017 Software v.3.8.6.4 2017-10-02
Report Run at: December 18, 2017 06:40 EST
"Nutrient data for: 45330989, SQUEEZE GARNISHING SAUCE, UPC: 619360008139"
Food Group:  Branded Food Products Database
Common Name:

Nutrient,Unit,Data points,Std. Error,"1 Tbsp = 15.0g",1Value per 100 g,
Proximates
"Energy",kcal,--,--,80,533
"Protein",g,--,--,0.00,0.00
"Total lipid (fat)",g,--,--,8.00,53.33
"Carbohydrate, by difference",g,--,--,1.00,6.67
"Fiber, total dietary",g,--,--,0.0,0.0
"Sugars, total",g,--,--,0.00,0.00
Minerals
"Calcium, Ca",mg,--,--,0,0
"Iron, Fe",mg,--,--,0.00,0.00
"Sodium, Na",mg,--,--,135,900
Vitamins
"Vitamin C, total ascorbic acid",mg,--,--,0.0,0.0
"Vitamin A, IU",IU,--,--,0,0
Lipids
"Fatty acids, total saturated",g,--,--,1.000,6.670
"Fatty acids, total trans",g,--,--,0.000,0.000
"Cholesterol",mg,--,--,5,33
Amino Acids
Other
Ingredients
"(VEGETABLE) OIL, VINEGAR, WATER, WHOLE EGGS, DIJON MUSTARD (VINEGAR, WATER, MUSTARD SEED, SALT, WHITE WINE, CITRIC AND TARTARIC ACID, SPICE), GARLIC, CANE SUGAR, BACON ((CURED WITH WATER, SALT, SODIUM ERYTHORBATE, SODIUM NITRITE), SMOKE FLAVORING, SUGAR, DEXTROSE, BROWN SUGAR, SODIUM PHOSPHATE, POTASSIUM CHLORIDE, FLAVORING), SALT, LEMON JUICE, NATURAL FLAVORS, SPICE AND SPICE EXTRACTIVE, XANTHAN GUM" Date available: 10/13/2017 Date last updated by company: 10/13/2017
