Source: USDA Branded Food Products Database Release December 2017 Software v.3.8.6.4 2017-10-02
Report Run at: December 18, 2017 06:41 EST
"Nutrient data for: 45198901, SQUIDS CHUNKS, UPC: 083795054700"
Food Group:  Branded Food Products Database
Common Name:

Nutrient,Unit,Data points,Std. Error,"0.25 cup = 55.0g",1Value per 100 g,
Proximates
"Energy",kcal,--,--,130,236
"Protein",g,--,--,8.00,14.55
"Total lipid (fat)",g,--,--,10.00,18.18
"Carbohydrate, by difference",g,--,--,2.00,3.64
"Fiber, total dietary",g,--,--,0.0,0.0
"Sugars, total",g,--,--,0.00,0.00
Minerals
"Calcium, Ca",mg,--,--,40,73
"Iron, Fe",mg,--,--,1.39,2.53
"Sodium, Na",mg,--,--,395,718
Vitamins
"Vitamin C, total ascorbic acid",mg,--,--,0.0,0.0
"Vitamin A, IU",IU,--,--,155,281
Lipids
"Fatty acids, total saturated",g,--,--,1.502,2.730
"Fatty acids, total trans",g,--,--,0.000,0.000
"Cholesterol",mg,--,--,33,60
Amino Acids
Other
Ingredients
"SQUIDS, VEGETABLE OIL, TOMATO, ONION, SPICES AND SALT." Date available: 10/19/2017 Date last updated by company: 10/19/2017
