Source: USDA Branded Food Products Database Release December 2017 Software v.3.8.6.4 2017-10-02
Report Run at: December 18, 2017 06:42 EST
"Nutrient data for: 45067006, SRIRACHA CHILI KETCHUP., UPC: 078895142938"
Food Group:  Branded Food Products Database
Common Name:

Nutrient,Unit,Data points,Std. Error,"1 Tbsp = 18.0g",1Value per 100 g,
Proximates
"Energy",kcal,--,--,25,139
"Protein",g,--,--,0.00,0.00
"Total lipid (fat)",g,--,--,0.00,0.00
"Carbohydrate, by difference",g,--,--,6.00,33.33
"Fiber, total dietary",g,--,--,0.0,0.0
"Sugars, total",g,--,--,4.00,22.22
Minerals
"Calcium, Ca",mg,--,--,0,0
"Iron, Fe",mg,--,--,0.00,0.00
"Sodium, Na",mg,--,--,180,1000
Vitamins
"Vitamin C, total ascorbic acid",mg,--,--,4.0,22.5
"Vitamin A, IU",IU,--,--,338,1878
Lipids
"Fatty acids, total saturated",g,--,--,0.000,0.000
"Fatty acids, total trans",g,--,--,0.000,0.000
"Cholesterol",mg,--,--,0,0
Amino Acids
Other
Ingredients
"TOMATO KETCHUP (TOMATO PATE, DISTILLED VINEGAR, HIGH FRUCTOSE CORN SYRUP, CORN SYRUP, CORN SYRUP SOLIDS, SALT, SPICES, ONION POWDER, NATURAL FLAVORING), SRIRACHA CHILI SAUCE (RED CHILI PEPPER, DISTILLED VINEGAR, SUGAR, GARLIC POWDER, SALT)." Date available: 10/04/2017 Date last updated by company: 10/04/2017
