Source: USDA Branded Food Products Database Release December 2017 Software v.3.8.6.4 2017-10-02
Report Run at: December 18, 2017 06:48 EST
"Nutrient data for: 45151076, STACY'S, PITA CHIPS, UPC: 028400424653"
Food Group:  Branded Food Products Database
Common Name:

Nutrient,Unit,Data points,Std. Error,"9.0 CHIPS | ABOUT = 28.0g",1Value per 100 g,
Proximates
"Energy",kcal,--,--,130,464
"Protein",g,--,--,3.00,10.71
"Total lipid (fat)",g,--,--,5.00,17.86
"Carbohydrate, by difference",g,--,--,18.00,64.29
"Fiber, total dietary",g,--,--,1.0,3.6
"Sugars, total",g,--,--,1.00,3.57
Minerals
"Calcium, Ca",mg,--,--,0,0
"Iron, Fe",mg,--,--,1.80,6.43
"Sodium, Na",mg,--,--,250,893
Vitamins
"Vitamin C, total ascorbic acid",mg,--,--,6.0,21.4
"Vitamin A, IU",IU,--,--,200,714
Lipids
"Fatty acids, total saturated",g,--,--,0.000,0.000
"Fatty acids, total monounsaturated",g,--,--,4.001,14.290
"Fatty acids, total polyunsaturated",g,--,--,0.501,1.790
"Fatty acids, total trans",g,--,--,0.000,0.000
"Cholesterol",mg,--,--,0,0
Amino Acids
Other
Ingredients
"ENRICHED WHEAT FLOUR (WHEAT FLOUR, NIACIN, REDUCED IRON, THIAMINE MONONITRATE, RIBOFLAVIN, FOLIC ACID), SUNFLOWER OIL AND/OR CANOLA OIL, SEA SALT, ORGANIC CANE SUGAR, AND LESS THAN 2% OF THE FOLLOWING: DRIED RED BELL PEPPER, DRIED JALAPENOS, WHEAT GLUTEN, MALTODEXTRIN (MADE FROM ORGANIC CORN), SPICES (INCLUDING PAPRIKA), SUGAR, YEAST, GARLIC POWDER, YEAST EXTRACT, GREEN BELL PEPPER, FIRE ROASTED JALAPENO PEPPER, ONION POWDER, CITRIC ACID, NATURAL FLAVORS (INCLUDING NATURAL EXTRACTIVES OF MUSTARD SEED), MALTED BARLEY FLOUR, ROSEMARY EXTRACT (ANTIOXIDANT), AND ASCORBIC ACID (ANTIOXIDANT)" Date available: 09/23/2016 Date last updated by company: 09/23/2016
