Source: USDA Branded Food Products Database Release December 2017 Software v.3.8.6.4 2017-10-02
Report Run at: December 18, 2017 06:49 EST
"Nutrient data for: 45063840, STADIUM STYLE CHEDDAR CHEESE SAUCE, UPC: 733590853137"
Food Group:  Branded Food Products Database
Common Name:

Nutrient,Unit,Data points,Std. Error,"2.0 Tbsp = 32.0g",1Value per 100 g,
Proximates
"Energy",kcal,--,--,45,141
"Protein",g,--,--,1.00,3.12
"Total lipid (fat)",g,--,--,3.00,9.38
"Carbohydrate, by difference",g,--,--,4.00,12.50
"Fiber, total dietary",g,--,--,0.0,0.0
"Sugars, total",g,--,--,0.00,0.00
Minerals
"Calcium, Ca",mg,--,--,20,62
"Iron, Fe",mg,--,--,0.00,0.00
"Sodium, Na",mg,--,--,280,875
Vitamins
"Vitamin C, total ascorbic acid",mg,--,--,0.0,0.0
"Vitamin A, IU",IU,--,--,0,0
Lipids
"Fatty acids, total saturated",g,--,--,0.499,1.560
"Fatty acids, total trans",g,--,--,0.000,0.000
"Cholesterol",mg,--,--,0,0
Amino Acids
Other
Ingredients
"WATER, SOYBEAN OIL, MILK, MALTODEXTRIN, MODIFIED CORN STARCH, CONTAINS LESS THAN 2% OF WHEY PROTEIN CONCENTRATE, SALT, NATURAL FLAVOR, DATEM, SODIUM ALGINATE, XANTHAN GUM, SODIUM PHOSPHATE, SODIUM CITRATE, LACTIC ACID, CHEESE CULTURE, SORBIC ACID (PRESERVATIVES), MONOSODIUM GLUTAMATE, ENZYMES, AND ARTIFICIAL COLOR (YELLOW #5 AND YELLOW #6)." Date available: 07/14/2017 Date last updated by company: 07/14/2017
