Source: USDA Branded Food Products Database Release December 2017 Software v.3.8.6.4 2017-10-02
Report Run at: December 18, 2017 06:52 EST
"Nutrient data for: 45109423, STARBUCKS, VIA INSTANT CARAMEL LATTE, UPC: 762111019226"
Food Group:  Branded Food Products Database
Common Name:

Nutrient,Unit,Data points,Std. Error,"1 PACKET = 32.0g",1Value per 100 g,
Proximates
"Energy",kcal,--,--,140,438
"Protein",g,--,--,4.00,12.50
"Total lipid (fat)",g,--,--,3.50,10.94
"Carbohydrate, by difference",g,--,--,22.00,68.75
"Fiber, total dietary",g,--,--,0.0,0.0
"Sugars, total",g,--,--,20.00,62.50
Minerals
"Calcium, Ca",mg,--,--,150,469
"Iron, Fe",mg,--,--,0.00,0.00
"Sodium, Na",mg,--,--,65,203
Vitamins
"Vitamin C, total ascorbic acid",mg,--,--,3.7,11.7
"Vitamin A, IU",IU,--,--,156,488
Lipids
"Fatty acids, total saturated",g,--,--,2.000,6.250
"Fatty acids, total trans",g,--,--,0.000,0.000
"Cholesterol",mg,--,--,10,31
Amino Acids
Other
Ingredients
"DAIRY POWDER, SUGAR, INSTANT AND MICROGROUND COFFEE, NATURAL FALVORS." Date available: 07/14/2017 Date last updated by company: 07/14/2017
