Source: USDA Branded Food Products Database Release December 2017 Software v.3.8.6.4 2017-10-02
Report Run at: December 18, 2017 07:01 EST
"Nutrient data for: 45203136, STAR WARS PREMIUM POPCORN, UPC: 844718010537"
Food Group:  Branded Food Products Database
Common Name:

Nutrient,Unit,Data points,Std. Error,"5.0 CUPS POPPED) | (MAKES = 29.0g",1Value per 100 g,
Proximates
"Energy",kcal,--,--,110,379
"Protein",g,--,--,3.00,10.34
"Total lipid (fat)",g,--,--,2.00,6.90
"Carbohydrate, by difference",g,--,--,19.00,65.52
"Fiber, total dietary",g,--,--,4.0,13.8
Minerals
"Iron, Fe",mg,--,--,1.24,4.28
"Potassium, K",mg,--,--,0,0
"Sodium, Na",mg,--,--,270,931
Vitamins
Lipids
"Fatty acids, total saturated",g,--,--,0.499,1.720
"Fatty acids, total monounsaturated",g,--,--,0.000,0.000
"Fatty acids, total polyunsaturated",g,--,--,0.499,1.720
"Fatty acids, total trans",g,--,--,0.000,0.000
"Cholesterol",mg,--,--,0,0
Amino Acids
Other
Ingredients
"WHOLE GRAIN POPCORN, SALT, PALM OIL, NATURAL AND ARTIFICIAL FLAVOR (MILK), COLOR ADDED, FRESHNESS PRESERVED BY TBHQ." Date available: 07/14/2017 Date last updated by company: 07/14/2017
