Source: USDA Branded Food Products Database Release December 2017 Software v.3.8.6.4 2017-10-02
Report Run at: December 18, 2017 07:00 EST
"Nutrient data for: 45273883, STAR SUGAR COOKIES, UPC: 085239412565"
Food Group:  Branded Food Products Database
Common Name:

Nutrient,Unit,Data points,Std. Error,"2.0 COOKIES | ABOUT = 29.0g",1Value per 100 g,
Proximates
"Energy",kcal,--,--,140,483
"Protein",g,--,--,1.00,3.45
"Total lipid (fat)",g,--,--,5.00,17.24
"Carbohydrate, by difference",g,--,--,20.00,68.97
"Fiber, total dietary",g,--,--,0.0,0.0
"Sugars, total",g,--,--,9.00,31.03
Minerals
"Calcium, Ca",mg,--,--,0,0
"Iron, Fe",mg,--,--,1.24,4.28
"Sodium, Na",mg,--,--,100,345
Vitamins
"Vitamin C, total ascorbic acid",mg,--,--,0.0,0.0
"Vitamin A, IU",IU,--,--,0,0
Lipids
"Fatty acids, total saturated",g,--,--,2.999,10.340
"Fatty acids, total trans",g,--,--,0.000,0.000
"Cholesterol",mg,--,--,0,0
Amino Acids
Other
Ingredients
"ENRICHED BLEACHED WHEAT FLOUR (FLOUR, NIACIN, REDUCED IRON, THIAMINE MONONITRATE, RIBOFLAVIN, FOLIC ACID), SUGAR, PALM OIL, WHITE COATING (SUGAR, PALM KERNEL AND PALM OIL, NONFAT DRY MILK, TITANIUM DIOXIDE [COLOR], SOY LECITHIN, VANILLA EXTRACT), CONTAINS 2% OR LESS OF: NATURAL & ARTIFICIAL FLAVORS, SALT, LEAVENING (AMMONIUM BICARBONATE, BAKING SODA, SODIUM ALUMINUM SULFATE, MONOCALCIUM PHOSPHATE), EGGS, CORN SYRUP, ANNATTO (COLOR), BLUE 1, BLUE 1 LAKE, BLUE 2, BLUE 2 LAKE, RED 3, RED 40, RED 40 LAKE, YELLOW 5, YELLOW 5 LAKE, YELLOW 6, YELLOW 6 LAKE, SOY LECITHIN, WHEY, CONFECTIONER'S GLAZE, CARNAUBA WAX, CORN STARCH, SODIUM PROPIONATE (PRESERVATIVE)." Date available: 07/14/2017 Date last updated by company: 07/14/2017
