Source: USDA Branded Food Products Database Release December 2017 Software v.3.8.6.4 2017-10-02
Report Run at: December 18, 2017 06:50 EST
"Nutrient data for: 45318067, STARBUCKS, CAFFE MOCHA CHILLED ESPRESSO BEVERAGE, UPC: 048500021880"
Food Group:  Branded Food Products Database
Common Name:

Nutrient,Unit,Data points,Std. Error,"8.0 OZA = 240.0g",1Value per 100 g,
Proximates
"Energy",kcal,--,--,120,50
"Protein",g,--,--,3.00,1.25
"Total lipid (fat)",g,--,--,1.99,0.83
"Carbohydrate, by difference",g,--,--,19.99,8.33
"Fiber, total dietary",g,--,--,0.0,0.0
"Sugars, total",g,--,--,16.99,7.08
Minerals
"Calcium, Ca",mg,--,--,101,42
"Iron, Fe",mg,--,--,0.55,0.23
"Sodium, Na",mg,--,--,50,21
Vitamins
"Vitamin C, total ascorbic acid",mg,--,--,0.0,0.0
"Vitamin A, IU",IU,--,--,300,125
Lipids
"Fatty acids, total saturated",g,--,--,1.488,0.620
"Fatty acids, total trans",g,--,--,0.000,0.000
"Cholesterol",mg,--,--,10,4
Amino Acids
Other
Ingredients
"REDUCED-FAT MILK, BREWED STARBUCKS ESPRESSO COFFEE (WATER, COFFEE), SUGAR, COCOA, CARAGEENAN, ASCORBIC ACID (TO PROTECT FLAVOR)." Date available: 06/25/2017 Date last updated by company: 06/25/2017
