Source: USDA Branded Food Products Database Release December 2017 Software v.3.8.6.4 2017-10-02
Report Run at: December 18, 2017 06:50 EST
"Nutrient data for: 45169653, STAR ANISE FOODS, GARLIC LEMONGRASS VIETNAMESE SIMMER SAUCE, UPC: 854775002147"
Food Group:  Branded Food Products Database
Common Name:

Nutrient,Unit,Data points,Std. Error,"50.0 GRM = 50.0g",1Value per 100 g,
Proximates
"Energy",kcal,--,--,35,70
"Protein",g,--,--,1.00,2.00
"Total lipid (fat)",g,--,--,0.50,1.00
"Carbohydrate, by difference",g,--,--,7.00,14.00
"Fiber, total dietary",g,--,--,1.0,2.0
"Sugars, total",g,--,--,4.00,8.00
Minerals
"Calcium, Ca",mg,--,--,10,20
"Iron, Fe",mg,--,--,0.00,0.00
"Sodium, Na",mg,--,--,271,542
Vitamins
"Vitamin C, total ascorbic acid",mg,--,--,0.0,0.0
"Vitamin A, IU",IU,--,--,0,0
Lipids
"Fatty acids, total saturated",g,--,--,0.000,0.000
"Fatty acids, total trans",g,--,--,0.000,0.000
"Cholesterol",mg,--,--,0,0
Amino Acids
Other
Ingredients
"WATER, GARLIC, RICE VINEGAR, COCONUT PALM SUGAR, SHALLOT, COCONUT MILK, ORGANIC LEMONGRASS, BROWN RICE, CASSAVA, GINGER, RICE BRAN OIL, SALT, TURMERIC." Date available: 07/14/2017 Date last updated by company: 07/14/2017
