Source: USDA Branded Food Products Database Release December 2017 Software v.3.8.6.4 2017-10-02
Report Run at: December 18, 2017 06:59 EST
"Nutrient data for: 45081672, STAR, PIMIENTO STUFFED MANZANILLA OLIVES, UPC: 073210009774"
Food Group:  Branded Food Products Database
Common Name:

Nutrient,Unit,Data points,Std. Error,"5.0 OLIVES = 15.0g",1Value per 100 g,
Proximates
"Energy",kcal,--,--,15,100
"Protein",g,--,--,0.00,0.00
"Total lipid (fat)",g,--,--,1.00,6.67
"Carbohydrate, by difference",g,--,--,1.00,6.67
Minerals
"Sodium, Na",mg,--,--,260,1733
Vitamins
Lipids
"Fatty acids, total saturated",g,--,--,0.000,0.000
"Fatty acids, total monounsaturated",g,--,--,1.000,6.670
"Fatty acids, total polyunsaturated",g,--,--,0.000,0.000
"Fatty acids, total trans",g,--,--,0.000,0.000
"Cholesterol",mg,--,--,0,0
Amino Acids
Other
Ingredients
"OLIVES, WATER, MINCED PIMIENTO, SALT, LACTIC ACID, SODIUM ALGINATE, GUAR GUM, CALCIUM CHLORIDE, POTASSIUM SORBATE AS A PRESERVATIVE." Date available: 07/14/2017 Date last updated by company: 07/14/2017
