Source: USDA Branded Food Products Database Release December 2017 Software v.3.8.6.4 2017-10-02
Report Run at: December 18, 2017 07:02 EST
"Nutrient data for: 45175691, STATER BROS., CREAM CHEESE SPREAD SALSA, UPC: 074175440077"
Food Group:  Branded Food Products Database
Common Name:

Nutrient,Unit,Data points,Std. Error,"2.0 Tbsp = 30.0g",1Value per 100 g,
Proximates
"Energy",kcal,--,--,80,267
"Protein",g,--,--,1.00,3.33
"Total lipid (fat)",g,--,--,8.00,26.67
"Carbohydrate, by difference",g,--,--,2.00,6.67
"Fiber, total dietary",g,--,--,0.0,0.0
"Sugars, total",g,--,--,1.00,3.33
Minerals
"Calcium, Ca",mg,--,--,20,67
"Iron, Fe",mg,--,--,0.00,0.00
"Sodium, Na",mg,--,--,160,533
Vitamins
"Vitamin C, total ascorbic acid",mg,--,--,0.0,0.0
"Vitamin A, IU",IU,--,--,334,1112
Lipids
"Fatty acids, total saturated",g,--,--,5.001,16.670
"Fatty acids, total trans",g,--,--,0.000,0.000
"Cholesterol",mg,--,--,25,83
Amino Acids
Other
Ingredients
"PASTEURIZED MILK AND CREAM, TOMATO, TOMATO PUREE, WATER, SALT, CHEESE CULTURE, JALAPENO PEPPER, VINEGAR, VEGETABLES (ONION**, BELL PEPPER**, GARLIC**, TOMATO**), STABILIZERS (CAROB BEAN AND/OR XANTHAN AND/OR GUAR GUMS), ONION**, POTASSIUM SORBATE (PRESERVATIVE), RED PEPPER, GARLIC PUREE, JALAPENO PEPPER**, SUGAR, HABANERO PEPPER**, YEAST EXTRACT, LIME PEEL**, SPICE, CITRIC ACID, NATURAL FLAVOR." Date available: 07/14/2017 Date last updated by company: 07/14/2017
