Source: USDA Branded Food Products Database Release December 2017 Software v.3.8.6.4 2017-10-02
Report Run at: December 18, 2017 07:09 EST
"Nutrient data for: 45054738, STEAK SAUCE, UPC: 077890226971"
Food Group:  Branded Food Products Database
Common Name:

Nutrient,Unit,Data points,Std. Error,"1 Tbsp = 17.0g",1Value per 100 g,
Proximates
"Energy",kcal,--,--,15,88
"Protein",g,--,--,0.00,0.00
"Total lipid (fat)",g,--,--,0.00,0.00
"Carbohydrate, by difference",g,--,--,3.00,17.65
"Sugars, total",g,--,--,2.00,11.76
Minerals
"Sodium, Na",mg,--,--,280,1647
Vitamins
Lipids
Amino Acids
Other
Ingredients
"TOMATO PUREE (WATER, TOMATO PASTE), DISTILLED VINEGAR, CORN SYRUP, SALT, RAISIN PASTE, CONTAINS 2% OR LESS OF: CRUSHED ORANGE PUREE, SPICES AND HERBS, DRIED GARLIC AND ONION, CARAMEL COLOR, POTASSIUM SORBATE (PRESERVATIVE), XANTHAN GUM." Date available: 08/11/2017 Date last updated by company: 08/11/2017
