Source: USDA Branded Food Products Database Release December 2017 Software v.3.8.6.4 2017-10-02
Report Run at: December 18, 2017 07:06 EST
"Nutrient data for: 45195048, STEAK & CHEESE CALZONE, UPC: 039528201361"
Food Group:  Branded Food Products Database
Common Name:

Nutrient,Unit,Data points,Std. Error,"0.2 CALZONE = 130.0g",1Value per 100 g,
Proximates
"Energy",kcal,--,--,350,269
"Protein",g,--,--,19.99,15.38
"Total lipid (fat)",g,--,--,15.00,11.54
"Carbohydrate, by difference",g,--,--,35.00,26.92
"Fiber, total dietary",g,--,--,1.9,1.5
"Sugars, total",g,--,--,4.00,3.08
Minerals
"Calcium, Ca",mg,--,--,200,154
"Iron, Fe",mg,--,--,8.10,6.23
"Sodium, Na",mg,--,--,699,538
Vitamins
"Vitamin C, total ascorbic acid",mg,--,--,0.0,0.0
"Vitamin A, IU",IU,--,--,450,346
Lipids
"Fatty acids, total saturated",g,--,--,6.994,5.380
"Fatty acids, total trans",g,--,--,0.000,0.000
"Cholesterol",mg,--,--,49,38
Amino Acids
Other
Ingredients
"CRUST {UNENRICHED WHEAT FLOUR (WHEAT FLOUR, MALTED BARLEY FLOUR), WATER, VEGETABLE OIL (MAY CONTAIN CANOLA AND/OR SOYBEAN OIL), SEA SALT, SUGAR, HONEY, YEAST], SEASONED BEEF STEAK (BEEF, WATER, DEXTROSE, MODIFIED FOOD STARCH, SALT, SPICES, SODIUM PHOSPHATE, TOMATO POWDER, GARLIC POWDER, ONION POWDER, AUTOLYZED YEAST, HYDROLYZED SOY PROTEIN, CARAMEL COLOR NATURAL SPICE OILS, SILICA GEL), UNSMOKED PROVOLONE CHEESE (PASTEURIZED MILK, CHEESE CULTURES, SALT, ENZYMES), CHEDDAR CHEESE (PASTEURIZED MILK, CHEESE CULTURE, SALT, ENZYMES), BLACK PEPPER." Date available: 08/30/2017 Date last updated by company: 08/30/2017
