Source: USDA Branded Food Products Database Release December 2017 Software v.3.8.6.4 2017-10-02
Report Run at: December 18, 2017 07:11 EST
"Nutrient data for: 45280926, STEAM ABLE BRUSSELS SPROUTS WITH BUTTER SAUCE, UPC: 070253105258"
Food Group:  Branded Food Products Database
Common Name:

Nutrient,Unit,Data points,Std. Error,"1 cup = 115.0g",1Value per 100 g,
Proximates
"Energy",kcal,--,--,60,52
"Protein",g,--,--,4.00,3.48
"Total lipid (fat)",g,--,--,1.00,0.87
"Carbohydrate, by difference",g,--,--,10.00,8.70
"Fiber, total dietary",g,--,--,4.0,3.5
"Sugars, total",g,--,--,3.00,2.61
Minerals
"Calcium, Ca",mg,--,--,20,17
"Iron, Fe",mg,--,--,0.26,0.23
"Sodium, Na",mg,--,--,181,157
Vitamins
"Vitamin C, total ascorbic acid",mg,--,--,44.4,38.6
"Vitamin A, IU",IU,--,--,148,129
Lipids
"Fatty acids, total saturated",g,--,--,0.000,0.000
"Fatty acids, total trans",g,--,--,0.000,0.000
"Cholesterol",mg,--,--,0,0
Amino Acids
Other
Ingredients
"BRUSSELS SPROUTS, WATER, CONTAINS LESS THAN 2% OF ANNATTO (VEGETABLE COLOR), BETA CAROTENE (COLOR), BUTTER (PASTEURIZED CREAM, SALT), BUTTER OIL, ENZYME MODIFIED BUTTER, UNSALTED BUTTER (PASTEURIZED CREAM, NATURAL FLAVORS), CREAM, MODIFIED CORN STARCH, GELATIN, GUAR GUM, MONO AND DIGLYCERIDES, MALTODEXTRIN, MILK, NATURAL FLAVOR, PALM OIL, PARTIALLY HYDROGENATED SOYBEAN OIL, SALT, SODIUM PHOSPHATE, SOYBEAN OIL, SUGAR, TOCOPHEROL, TURMERIC (COLOR), VITAMIN A PALMITATE, WHEAT FLOUR, WHEY, XANTHAN GUM." Date available: 07/14/2017 Date last updated by company: 07/14/2017
