Source: USDA Branded Food Products Database Release December 2017 Software v.3.8.6.4 2017-10-02
Report Run at: December 18, 2017 07:07 EST
"Nutrient data for: 45212545, STEAKHOUSE CREAMED SPINACH, UPC: 815712011738"
Food Group:  Branded Food Products Database
Common Name:

Nutrient,Unit,Data points,Std. Error,"0.5 cup = 120.0g",1Value per 100 g,
Proximates
"Energy",kcal,--,--,140,117
"Protein",g,--,--,5.00,4.17
"Total lipid (fat)",g,--,--,10.00,8.33
"Carbohydrate, by difference",g,--,--,8.00,6.67
"Fiber, total dietary",g,--,--,2.0,1.7
"Sugars, total",g,--,--,2.00,1.67
Minerals
"Calcium, Ca",mg,--,--,150,125
"Iron, Fe",mg,--,--,0.42,0.35
"Sodium, Na",mg,--,--,420,350
Vitamins
"Vitamin C, total ascorbic acid",mg,--,--,2.8,2.3
"Vitamin A, IU",IU,--,--,2041,1701
Lipids
"Fatty acids, total saturated",g,--,--,5.004,4.170
"Fatty acids, total trans",g,--,--,0.000,0.000
"Cholesterol",mg,--,--,30,25
Amino Acids
Other
Ingredients
"ALFREDO SAUCE (MILK [MILK, VITAMIN D3], HEAVY CREAM [CREAM, MILK], WATER, PARMESEAN CHEESE [PASTEURIZED PART-SKIM MILK, CHEESE CULTURE, SALT, ENZYMES, POWDERED CELLULOSE (ANTI-CAKING AGENT)], ROMANO CHEESE [PASTEURIZED SHEEP'S MILK, CHEESE CULTURES, SALT, ENZYMES, POWDERED CELLULOSE (ANTI-CAKING AGENT)], CORNSTARCH, WHEAT FLOUR, SALT, WHITE PEPPER, GARLIC POWDER, LEMON PEEL), SPINACH, ONION, SHALLOTS, OIL BLEND (CANOLA OIL, EXTRA VIRGIN OLIVE OIL), GARLIC, SALT, BLACK PEPPER." Date available: 07/14/2017 Date last updated by company: 07/14/2017
