Source: USDA Branded Food Products Database Release December 2017 Software v.3.8.6.4 2017-10-02
Report Run at: December 18, 2017 07:09 EST
"Nutrient data for: 45211912, STEAK RUB, UPC: 604485507469"
Food Group:  Branded Food Products Database
Common Name:

Nutrient,Unit,Data points,Std. Error,"10.0 GRM = 10.0g",1Value per 100 g,
Proximates
"Energy",kcal,--,--,27,274
"Protein",g,--,--,0.80,8.00
"Total lipid (fat)",g,--,--,0.50,5.00
"Carbohydrate, by difference",g,--,--,5.20,52.00
"Fiber, total dietary",g,--,--,1.5,15.0
Minerals
"Calcium, Ca",mg,--,--,27,268
"Iron, Fe",mg,--,--,0.70,7.00
"Sodium, Na",mg,--,--,905,9052
Vitamins
"Vitamin C, total ascorbic acid",mg,--,--,0.2,2.0
"Vitamin A, IU",IU,--,--,493,4933
Lipids
Amino Acids
Other
Ingredients
"SPICES, SALT, DEHYDRATED GARLIC AND ONION, SUGAR, PAPRIKA, SILICON DIOXIDE TO PREVENT CAKING." Date available: 07/14/2017 Date last updated by company: 07/14/2017
