Source: USDA Branded Food Products Database Release December 2017 Software v.3.8.6.4 2017-10-02
Report Run at: December 18, 2017 07:06 EST
"Nutrient data for: 45211190, STEAK & BURGER SEASONING, UPC: 075450138597"
Food Group:  Branded Food Products Database
Common Name:

Nutrient,Unit,Data points,Std. Error,"0.25 tsp = 0.85g",1Value per 100 g,
Proximates
"Energy",kcal,--,--,0,0
"Protein",g,--,--,0.00,0.00
"Total lipid (fat)",g,--,--,0.00,0.00
"Carbohydrate, by difference",g,--,--,0.00,0.00
Minerals
"Sodium, Na",mg,--,--,180,21176
Vitamins
Lipids
Amino Acids
Other
Ingredients
"SEA SALT, BLACK PEPPER, OTHER SPICES, DEHYDRATED GARLIC." Date available: 07/14/2017 Date last updated by company: 07/14/2017
