Source: USDA Branded Food Products Database Release December 2017 Software v.3.8.6.4 2017-10-02
Report Run at: December 18, 2017 07:10 EST
"Nutrient data for: 45326756, STEAK SAUCE 1824, UPC: 876045004606"
Food Group:  Branded Food Products Database
Common Name:

Nutrient,Unit,Data points,Std. Error,"1 Tbsp = 17.0g",1Value per 100 g,
Proximates
"Energy",kcal,--,--,15,88
"Protein",g,--,--,0.00,0.00
"Total lipid (fat)",g,--,--,0.00,0.00
"Carbohydrate, by difference",g,--,--,3.00,17.65
"Fiber, total dietary",g,--,--,0.0,0.0
"Sugars, total",g,--,--,3.00,17.65
Minerals
"Calcium, Ca",mg,--,--,0,0
"Iron, Fe",mg,--,--,1.22,7.16
"Sodium, Na",mg,--,--,150,882
Vitamins
"Vitamin C, total ascorbic acid",mg,--,--,4.1,23.9
"Vitamin A, IU",IU,--,--,0,0
Lipids
"Fatty acids, total saturated",g,--,--,0.000,0.000
"Fatty acids, total trans",g,--,--,0.000,0.000
"Cholesterol",mg,--,--,0,0
Amino Acids
Other
Ingredients
"WATER, WORCESTERSHIRE SAUCE (VINEGAR, MOLASSES, CORN SYRUP, WATER, SALT, CARAMEL COLOR, GARLIC POWDER, SUGAR, SPICES, ANCHOVIES, TAMARIND, NATURAL FLAVOR), SUGAR, TOMATO PASTE, WHITE VINEGAR, FOOD STARCH-MODIFIED, SALT, ORANGE PEEL, SPICES, ONION POWDER, POTASSIUM SORBATE AND SODIUM BENZOATE (PRESERVATIVES), CITRIC ACID, CARAMEL COLOR." Date available: 10/13/2017 Date last updated by company: 10/13/2017
