Source: USDA Branded Food Products Database Release December 2017 Software v.3.8.6.4 2017-10-02
Report Run at: December 18, 2017 07:11 EST
"Nutrient data for: 45184484, STEAMABLE BROCCOLI WITH CHEESE SAUCE, UPC: 60788003628"
Food Group:  Branded Food Products Database
Common Name:

Nutrient,Unit,Data points,Std. Error,"0.5 cup = 85.0g",1Value per 100 g,
Proximates
"Energy",kcal,--,--,35,41
"Protein",g,--,--,3.00,3.53
"Total lipid (fat)",g,--,--,1.00,1.18
"Carbohydrate, by difference",g,--,--,4.00,4.71
"Fiber, total dietary",g,--,--,2.0,2.4
"Sugars, total",g,--,--,1.00,1.18
Minerals
"Calcium, Ca",mg,--,--,40,47
"Iron, Fe",mg,--,--,0.47,0.55
"Potassium, K",mg,--,--,90,106
"Sodium, Na",mg,--,--,200,235
Vitamins
"Vitamin C, total ascorbic acid",mg,--,--,31.0,36.5
"Vitamin A, IU",IU,--,--,971,1142
Lipids
"Fatty acids, total saturated",g,--,--,0.501,0.590
"Fatty acids, total trans",g,--,--,0.000,0.000
"Cholesterol",mg,--,--,5,6
Amino Acids
Other
Ingredients
"BROCCOLI, CHEESE SAUCE (WATER, PROCESSED AMERICAN CHEESE [(MILK, CULTURES, SALT, ENZYMES), CREAM, NONFAT DRY MILK, SALT, SODIUM PHOSPHATE], MODIFIED CORNSTARCH, CHEDDAR CHEESE (MILK, SALT, CHEESE CULTURES, ENZYMES), WHEY, BUTTERMILK, SALT, DISODIUM PHOSPHATE], CONTAINS LESS THAN 2%: MONTEREY JACK CHEESE [(CULTURES, PASTEURIZED MILK, SALT, ENZYMES), DISODIUM PHOSPHATE], SALT, SOYBEAN OIL, LACTIC ACID, XANTHAN GUM, ARTIFICIAL COLOR, FD&C YELLOW #5.)" Date available: 09/06/2017 Date last updated by company: 09/06/2017
