Source: USDA Branded Food Products Database Release December 2017 Software v.3.8.6.4 2017-10-02
Report Run at: December 18, 2017 07:17 EST
"Nutrient data for: 45024193, STELLA D'ORO, COFFEE TREATS, ROMAN EGG BISCUITS COOKIES, UPC: 073510002697"
Food Group:  Branded Food Products Database
Common Name:

Nutrient,Unit,Data points,Std. Error,"1 COOKIE = 31.0g",1Value per 100 g,
Proximates
"Energy",kcal,--,--,130,419
"Protein",g,--,--,3.00,9.68
"Total lipid (fat)",g,--,--,4.50,14.52
"Carbohydrate, by difference",g,--,--,19.00,61.29
"Fiber, total dietary",g,--,--,1.0,3.2
"Sugars, total",g,--,--,7.00,22.58
Minerals
"Calcium, Ca",mg,--,--,20,65
"Iron, Fe",mg,--,--,1.16,3.75
"Sodium, Na",mg,--,--,110,355
Vitamins
"Vitamin C, total ascorbic acid",mg,--,--,0.0,0.0
"Vitamin A, IU",IU,--,--,0,0
Lipids
"Fatty acids, total saturated",g,--,--,2.000,6.450
"Fatty acids, total trans",g,--,--,0.000,0.000
"Cholesterol",mg,--,--,10,32
Amino Acids
Other
Ingredients
"ENRICHED FLOUR (BLEACHED AND UNBLEACHED WHEAT FLOUR, MALTED BARLEY, NIACIN, REDUCED IRON, THIAMINE MONONITRATE, RIBOFLAVIN, FOLIC ACID), SUGAR, VEGETABLE OIL (CONTAINING ONE OR MORE OF THE FOLLOWING: CANOLA OIL, PALM OIL, SOYBEAN OIL), INVERT SUGAR, EGGS, LEAVENING (BAKING SODA, SODIUM ALUMINUM PHOSPHATE, AMMONIUM BICARBONATE), CALCIUM PROPIONATE (PRESERVATIVE), NATURAL AND ARTIFICIAL FLAVORS, SALT, SOY LECITHIN." Date available: 07/14/2017 Date last updated by company: 07/14/2017
