Source: USDA Branded Food Products Database Release December 2017 Software v.3.8.6.4 2017-10-02
Report Run at: December 18, 2017 07:23 EST
"Nutrient data for: 45147877, STEVIC, FRUIT WAVE H2O, CHERRY, UPC: 856913003160"
Food Group:  Branded Food Products Database
Common Name:

Nutrient,Unit,Data points,Std. Error,"12.0 OZA = 355.0g",1Value per 100 g,
Proximates
"Energy",kcal,--,--,0,0
"Protein",g,--,--,0.00,0.00
"Total lipid (fat)",g,--,--,0.00,0.00
"Carbohydrate, by difference",g,--,--,12.99,3.66
"Sugars, total",g,--,--,0.00,0.00
Minerals
"Iron, Fe",mg,--,--,0.00,0.00
"Potassium, K",mg,--,--,18,5
"Sodium, Na",mg,--,--,21,6
Vitamins
"Vitamin C, total ascorbic acid",mg,--,--,0.0,0.0
Lipids
Amino Acids
Other
Ingredients
"TRIPLE FILTERED REVERSE OSMOSIS AERATED WATER, ERYTHRITOL, NATURAL FLAVORS, CITRIC ACID, MALIC ACID, POTASSIUM CITRATE, STEVIA, AND SODIUM CHLORIDE." Date available: 07/14/2017 Date last updated by company: 07/14/2017
