Source: USDA Branded Food Products Database Release December 2017 Software v.3.8.6.4 2017-10-02
Report Run at: December 18, 2017 07:20 EST
"Nutrient data for: 45148144, STEVE'S & ED'S, EXTRA HOT WING SAUCE, UPC: 021065000064"
Food Group:  Branded Food Products Database
Common Name:

Nutrient,Unit,Data points,Std. Error,"1 Tbsp = 15.0g",1Value per 100 g,
Proximates
"Energy",kcal,--,--,5,33
"Protein",g,--,--,0.00,0.00
"Total lipid (fat)",g,--,--,0.00,0.00
"Carbohydrate, by difference",g,--,--,1.00,6.67
Minerals
"Sodium, Na",mg,--,--,390,2600
Vitamins
Lipids
Amino Acids
Other
Ingredients
"DISTILLED VINEGAR, AGED RED CAYENNE PEPPERS, SALT, WATER, SOYBEAN OIL, NATURAL BUTTER FLAVOR, XANTHAN GUM, CITRIC ACID (TO PROTECT FRESHNESS), GRANULATED GARLIC, NATURAL FLAVOR." Date available: 07/14/2017 Date last updated by company: 07/14/2017
