Source: USDA Branded Food Products Database Release December 2017 Software v.3.8.6.4 2017-10-02
Report Run at: December 18, 2017 07:23 EST
"Nutrient data for: 45248735, STEWART'S, FOUNTAIN CLASSICS, SODA, ROOT BEER, UPC: 098794000269"
Food Group:  Branded Food Products Database
Common Name:

Nutrient,Unit,Data points,Std. Error,"1 BOTTLE = 355.0g",1Value per 100 g,
Proximates
"Energy",kcal,--,--,149,42
"Protein",g,--,--,0.00,0.00
"Total lipid (fat)",g,--,--,0.00,0.00
"Carbohydrate, by difference",g,--,--,37.98,10.70
"Sugars, total",g,--,--,37.98,10.70
Minerals
"Sodium, Na",mg,--,--,71,20
Vitamins
Lipids
Amino Acids
Other
Ingredients
"CARBONATED WATER, SUGAR, CARAMEL COLOR, SODIUM BENZOATE (PRESERVATIVE), NATURAL AND ARTIFICIAL FLAVORS, CITRIC ACID, QUILLAIA EXTRACT, ACACIA GUM, YUCCA EXTRACT." Date available: 07/14/2017 Date last updated by company: 07/14/2017
