Source: USDA Branded Food Products Database Release December 2017 Software v.3.8.6.4 2017-10-02
Report Run at: December 18, 2017 07:23 EST
"Nutrient data for: 45224882, STEW BLEND, UPC: 014500014788"
Food Group:  Branded Food Products Database
Common Name:

Nutrient,Unit,Data points,Std. Error,"0.75 cup = 85.0g",1Value per 100 g,
Proximates
"Energy",kcal,--,--,50,59
"Protein",g,--,--,1.00,1.18
"Total lipid (fat)",g,--,--,0.00,0.00
"Carbohydrate, by difference",g,--,--,11.00,12.94
"Fiber, total dietary",g,--,--,2.0,2.4
"Sugars, total",g,--,--,3.00,3.53
Minerals
"Calcium, Ca",mg,--,--,0,0
"Iron, Fe",mg,--,--,0.00,0.00
"Sodium, Na",mg,--,--,45,53
Vitamins
"Vitamin C, total ascorbic acid",mg,--,--,0.0,0.0
"Vitamin A, IU",IU,--,--,750,882
Lipids
"Fatty acids, total saturated",g,--,--,0.000,0.000
"Fatty acids, total trans",g,--,--,0.000,0.000
"Cholesterol",mg,--,--,0,0
Amino Acids
Other
Ingredients
"CARROTS, ONIONS, POTATOES, CELERY." Date available: 07/14/2017 Date last updated by company: 07/14/2017
