Source: USDA Branded Food Products Database Release December 2017 Software v.3.8.6.4 2017-10-02
Report Run at: December 18, 2017 07:27 EST
"Nutrient data for: 45209356, STIR-FRY OIL, UPC: 011152047300"
Food Group:  Branded Food Products Database
Common Name:

Nutrient,Unit,Data points,Std. Error,"1 Tbsp = 15.0g",1Value per 100 g,
Proximates
"Energy",kcal,--,--,120,800
"Protein",g,--,--,0.00,0.00
"Total lipid (fat)",g,--,--,13.00,86.67
"Carbohydrate, by difference",g,--,--,0.00,0.00
Minerals
"Sodium, Na",mg,--,--,0,0
Vitamins
Lipids
"Fatty acids, total saturated",g,--,--,1.999,13.330
"Fatty acids, total trans",g,--,--,3.000,20.000
Amino Acids
Other
Ingredients
"SOYBEAN OIL, SESAME OIL, GINGER OIL AND GARLIC OIL." Date available: 07/14/2017 Date last updated by company: 07/14/2017
