Source: USDA Branded Food Products Database Release December 2017 Software v.3.8.6.4 2017-10-02
Report Run at: December 18, 2017 07:29 EST
"Nutrient data for: 45281263, STIR FRY WITH SUGAR SNAP PEAS, UPC: 075450136845"
Food Group:  Branded Food Products Database
Common Name:

Nutrient,Unit,Data points,Std. Error,"0.75 cup = 86.0g",1Value per 100 g,
Proximates
"Energy",kcal,--,--,35,41
"Protein",g,--,--,1.00,1.16
"Total lipid (fat)",g,--,--,0.00,0.00
"Carbohydrate, by difference",g,--,--,7.00,8.14
"Fiber, total dietary",g,--,--,2.0,2.3
"Sugars, total",g,--,--,3.00,3.49
Minerals
"Calcium, Ca",mg,--,--,20,23
"Iron, Fe",mg,--,--,0.35,0.41
"Sodium, Na",mg,--,--,25,29
Vitamins
"Vitamin C, total ascorbic acid",mg,--,--,4.7,5.5
"Vitamin A, IU",IU,--,--,741,862
Lipids
"Fatty acids, total saturated",g,--,--,0.000,0.000
"Fatty acids, total trans",g,--,--,0.000,0.000
"Cholesterol",mg,--,--,0,0
Amino Acids
Other
Ingredients
"SUGAR SNAP PEAS, CARROTS, YELLOW CARROTS, WATER CHESTNUTS, MUSHROOMS, ONIONS." Date available: 07/14/2017 Date last updated by company: 07/14/2017
