Source: USDA Branded Food Products Database Release December 2017 Software v.3.8.6.4 2017-10-02
Report Run at: December 18, 2017 07:29 EST
"Nutrient data for: 45112332, STIR-IN PASTE, UPC: 875208000646"
Food Group:  Branded Food Products Database
Common Name:

Nutrient,Unit,Data points,Std. Error,"0.75 tsp = 4.0g",1Value per 100 g,
Proximates
"Energy",kcal,--,--,10,250
"Protein",g,--,--,0.00,0.00
"Total lipid (fat)",g,--,--,0.00,0.00
"Carbohydrate, by difference",g,--,--,1.00,25.00
"Sugars, total",g,--,--,0.00,0.00
Minerals
"Sodium, Na",mg,--,--,120,3000
Vitamins
Lipids
Amino Acids
Other
Ingredients
"GARLIC, NON-GMO CANOLA OIL, WHEY (MILK), SODIUM LACTATE, SEA SALT, DEXTROSE, GLYCERIN, CITRIC ACID, CALCIUM CHLORIDE, XANTHAN GUM." Date available: 08/31/2017 Date last updated by company: 08/31/2017
