Source: USDA Branded Food Products Database Release December 2017 Software v.3.8.6.4 2017-10-02
Report Run at: December 18, 2017 07:30 EST
"Nutrient data for: 45329320, STOCK BEEF, UPC: 713733318006"
Food Group:  Branded Food Products Database
Common Name:

Nutrient,Unit,Data points,Std. Error,"1 cup = 245.0g",1Value per 100 g,
Proximates
"Energy",kcal,--,--,24,10
"Protein",g,--,--,5.00,2.04
"Total lipid (fat)",g,--,--,0.00,0.00
"Carbohydrate, by difference",g,--,--,1.00,0.41
"Fiber, total dietary",g,--,--,0.0,0.0
"Sugars, total",g,--,--,1.00,0.41
Minerals
"Calcium, Ca",mg,--,--,0,0
"Iron, Fe",mg,--,--,0.00,0.00
"Sodium, Na",mg,--,--,571,233
Vitamins
"Vitamin C, total ascorbic acid",mg,--,--,0.0,0.0
"Vitamin A, IU",IU,--,--,201,82
Lipids
"Fatty acids, total saturated",g,--,--,0.000,0.000
"Fatty acids, total trans",g,--,--,0.000,0.000
"Cholesterol",mg,--,--,0,0
Amino Acids
Other
Ingredients
"BEEF STOCK, CONTAINS LESS THAN 2% OF YEAST EXTRACT (FROM BARLEY), TOMATO PASTE, SEA SALT, CARROT JUICE CONCENTRATE, ONION JUICE CONCENTRATE, SALT, MALTODEXTRIN, HONEY, NATURAL FLAVOR, SUGAR, CABBAGE JUICE CONCENTRATE, CELERY JUICE CONCENTRATE, SUNFLOWER OIL*, CARAMEL COLOR, BEEF FAT*." Date available: 10/13/2017 Date last updated by company: 10/13/2017
