Source: USDA Branded Food Products Database Release December 2017 Software v.3.8.6.4 2017-10-02
Report Run at: December 18, 2017 07:31 EST
"Nutrient data for: 45323164, STOCK TURKEY, UPC: 713733317955"
Food Group:  Branded Food Products Database
Common Name:

Nutrient,Unit,Data points,Std. Error,"1 cup = 245.0g",1Value per 100 g,
Proximates
"Energy",kcal,--,--,10,4
"Protein",g,--,--,1.00,0.41
"Total lipid (fat)",g,--,--,0.00,0.00
"Carbohydrate, by difference",g,--,--,2.01,0.82
"Fiber, total dietary",g,--,--,0.0,0.0
"Sugars, total",g,--,--,1.00,0.41
Minerals
"Calcium, Ca",mg,--,--,0,0
"Iron, Fe",mg,--,--,0.00,0.00
"Potassium, K",mg,--,--,0,0
"Sodium, Na",mg,--,--,490,200
Vitamins
Lipids
"Fatty acids, total saturated",g,--,--,0.000,0.000
"Fatty acids, total monounsaturated",g,--,--,0.000,0.000
"Fatty acids, total polyunsaturated",g,--,--,0.000,0.000
"Fatty acids, total trans",g,--,--,0.000,0.000
"Cholesterol",mg,--,--,0,0
Amino Acids
Other
Ingredients
"TURKEY STOCK (WATER, TURKEY STOCK CONCENTRATE [TURKEY BROTH, TURKEY FAT*, SALT, NATURAL FLAVOR, ONION POWDER]), CONTAINS LESS THAN 2% OF VEGETABLE FLAVOR CONCENTRATE (VEGETABLE JUICE CONCENTRATE [CARROT, CELERIAC, ONION], COOKED VEGETABLES [CARROT, ONION, CELERY], TOMATO PASTE, YEAST EXTRACT, SEA SALT, CANE SUGAR, MOLASSES, ONION POWDER, POTATO FLOUR, NATURAL FLAVOR, CANOLA OIL*), HONEY, SALT, CHICKEN BROTH CONCENTRATE, CARROT JUICE CONCENTRATE." Date available: 07/14/2017 Date last updated by company: 07/14/2017
