Source: USDA Branded Food Products Database Release December 2017 Software v.3.8.6.4 2017-10-02
Report Run at: December 18, 2017 07:40 EST
"Nutrient data for: 45081782, STONYFIELD, ORGANIC NONFAT YOGURT, AFTER DARK CHOCOLATE, UPC: 052159002022"
Food Group:  Branded Food Products Database
Common Name:

Nutrient,Unit,Data points,Std. Error,"0.5 cup = 85.0g",1Value per 100 g,
Proximates
"Energy",kcal,--,--,100,118
"Protein",g,--,--,4.00,4.71
"Total lipid (fat)",g,--,--,0.00,0.00
"Carbohydrate, by difference",g,--,--,22.00,25.88
"Fiber, total dietary",g,--,--,1.0,1.2
"Sugars, total",g,--,--,19.00,22.35
Minerals
"Calcium, Ca",mg,--,--,150,176
"Iron, Fe",mg,--,--,0.81,0.95
"Potassium, K",mg,--,--,170,200
"Sodium, Na",mg,--,--,50,59
Vitamins
"Vitamin C, total ascorbic acid",mg,--,--,0.0,0.0
"Vitamin A, IU",IU,--,--,0,0
Lipids
"Fatty acids, total saturated",g,--,--,0.000,0.000
"Fatty acids, total trans",g,--,--,0.000,0.000
"Cholesterol",mg,--,--,5,6
Amino Acids
Other
Ingredients
"CULTURED PASTEURIZED ORGANIC NONFAT MILK, ORGANIC SUGAR, ORGANIC COCOA, ORGANIC RICE SYRUP, ORGANIC WHEY PROTEIN CONCENTRATE, ORGANIC CAROB BEAN GUM, ORGANIC GUAR GUM, ORGANIC NATURAL VANILLA FLAVOR. CONTAINS LIVE ACTIVE CULTURES: S. THERMOPHILUS, L. BULGARICUS, L. ACIDOPHILUS, BIFIDUS, AND L. CASEI." Date available: 07/14/2017 Date last updated by company: 07/14/2017
