Source: USDA Branded Food Products Database Release December 2017 Software v.3.8.6.4 2017-10-02
Report Run at: December 18, 2017 07:35 EST
"Nutrient data for: 45102604, STONERIDGE, CHEESE CELLAR, BRICK CHEESE, WIDMERS AGED, UPC: 264390505082"
Food Group:  Branded Food Products Database
Common Name:

Nutrient,Unit,Data points,Std. Error,"1 ONZ = 28.0g",1Value per 100 g,
Proximates
"Energy",kcal,--,--,110,393
"Protein",g,--,--,7.00,25.00
"Total lipid (fat)",g,--,--,9.00,32.14
"Carbohydrate, by difference",g,--,--,0.00,0.00
"Fiber, total dietary",g,--,--,0.0,0.0
Minerals
"Calcium, Ca",mg,--,--,286,1020
"Sodium, Na",mg,--,--,135,482
Vitamins
"Vitamin A, IU",IU,--,--,535,1912
Lipids
"Fatty acids, total saturated",g,--,--,6.000,21.430
"Cholesterol",mg,--,--,20,71
Amino Acids
Other
Ingredients
"PASTEURIZED MILK, SALT, ENZYMES, CULTURE." Date available: 10/04/2017 Date last updated by company: 10/04/2017
