Source: USDA Branded Food Products Database Release December 2017 Software v.3.8.6.4 2017-10-02
Report Run at: December 18, 2017 07:33 EST
"Nutrient data for: 45170147, STONEFIRE, TANDOOR BAKED MINI NAAN, UPC: 876681001892"
Food Group:  Branded Food Products Database
Common Name:

Nutrient,Unit,Data points,Std. Error,"1 NAAN = 45.0g",1Value per 100 g,
Proximates
"Energy",kcal,--,--,130,289
"Protein",g,--,--,4.00,8.89
"Total lipid (fat)",g,--,--,3.50,7.78
"Carbohydrate, by difference",g,--,--,21.00,46.67
"Fiber, total dietary",g,--,--,1.0,2.2
"Sugars, total",g,--,--,2.00,4.44
Minerals
"Calcium, Ca",mg,--,--,40,89
"Iron, Fe",mg,--,--,1.20,2.67
"Sodium, Na",mg,--,--,340,756
Vitamins
"Vitamin C, total ascorbic acid",mg,--,--,0.0,0.0
"Vitamin A, IU",IU,--,--,0,0
Lipids
"Fatty acids, total saturated",g,--,--,0.999,2.220
"Fatty acids, total trans",g,--,--,0.000,0.000
"Cholesterol",mg,--,--,5,11
Amino Acids
Other
Ingredients
"ENRICHED WHEAT FLOUR (WHEAT FLOUR, ASCORBIC ACID, NIACIN, REDUCED IRON, THIAMINE MONONITRATE, RIBOFLAVIN, ENZYMES, FOLIC ACID, BUTTERMILK (SKIM MILK, DRY BUTTERMILK, BACTERIAL CULTURE), WATER, SOYBEAN OIL, CULTURED WHEAT FLOUR, EGGS, SUGAR, BAKING POWDER (SODIUM ACID PYROPHOSPHATE, SODIUM BICARBONATE, CORN STARCH, MONOCALCIUM PHOSPHATE), SEA SALT, DEXTROSE, GHEE (CLARIFIED BUTTER), DEXTRIN, WHEAT GLUTEN, VEGETABLE FIBER, YEAST." Date available: 07/14/2017 Date last updated by company: 07/14/2017
