Source: USDA Branded Food Products Database Release December 2017 Software v.3.8.6.4 2017-10-02
Report Run at: December 18, 2017 07:39 EST
"Nutrient data for: 45081781, STONYFIELD, FROZEN LOWFAT YOGURT, MINTY CHOCOLATE CHIP, UPC: 052159002121"
Food Group:  Branded Food Products Database
Common Name:

Nutrient,Unit,Data points,Std. Error,"0.5 cup = 87.0g",1Value per 100 g,
Proximates
"Energy",kcal,--,--,140,161
"Protein",g,--,--,5.00,5.75
"Total lipid (fat)",g,--,--,2.50,2.87
"Carbohydrate, by difference",g,--,--,26.00,29.89
"Fiber, total dietary",g,--,--,1.0,1.1
"Sugars, total",g,--,--,22.00,25.29
Minerals
"Calcium, Ca",mg,--,--,100,115
"Iron, Fe",mg,--,--,0.81,0.93
"Potassium, K",mg,--,--,160,184
"Sodium, Na",mg,--,--,45,52
Vitamins
"Vitamin C, total ascorbic acid",mg,--,--,0.0,0.0
"Vitamin A, IU",IU,--,--,0,0
Lipids
"Fatty acids, total saturated",g,--,--,1.496,1.720
"Fatty acids, total trans",g,--,--,0.000,0.000
"Cholesterol",mg,--,--,5,6
Amino Acids
Other
Ingredients
"CULTURED PASTEURIZED ORGANIC NONFAT MILK, ORGANIC SUGAR, ORGANIC CHOCOLATE CHIPS (ORGANIC SUGAR, ORGANIC CHOCOLATE LIQUOR, ORGANIC COCOA BUTTER, SOY LECITHIN, ORGANIC NATURAL VANILLA FLAVOR), ORGANIC COCOA, ORGANIC RICE SYRUP, ORGANIC WHEY PROTEIN CONCENTRATE, ORGANIC CAROB BEAN GUM, ORGANIC GUAR GUM, NATURAL FLAVOR, ORGANIC NATURAL VANILLA FLAVOR. CONTAINS LIVE ACTIVE CULTURES: S. THERMOPHILUS, L. BULGARICUS, L. ACIDOPHILUS, BIFIDUS, AND L. CASEI." Date available: 07/14/2017 Date last updated by company: 07/14/2017
