Source: USDA Branded Food Products Database Release December 2017 Software v.3.8.6.4 2017-10-02
Report Run at: December 18, 2017 07:36 EST
"Nutrient data for: 45101531, STONEWALL KITCHEN, ASIAGO CHEESE DOWN EAST CRACKERS, UPC: 711381030967"
Food Group:  Branded Food Products Database
Common Name:

Nutrient,Unit,Data points,Std. Error,"9.0 CRACKERS = 30.0g",1Value per 100 g,
Proximates
"Energy",kcal,--,--,120,400
"Protein",g,--,--,3.00,10.00
"Total lipid (fat)",g,--,--,3.50,11.67
"Carbohydrate, by difference",g,--,--,18.00,60.00
"Fiber, total dietary",g,--,--,1.0,3.3
"Sugars, total",g,--,--,2.00,6.67
Minerals
"Calcium, Ca",mg,--,--,20,67
"Iron, Fe",mg,--,--,1.80,6.00
"Potassium, K",mg,--,--,40,133
"Sodium, Na",mg,--,--,240,800
Vitamins
"Vitamin C, total ascorbic acid",mg,--,--,0.0,0.0
"Vitamin A, IU",IU,--,--,166,555
Lipids
"Fatty acids, total saturated",g,--,--,2.499,8.330
"Fatty acids, total monounsaturated",g,--,--,0.999,3.330
"Fatty acids, total polyunsaturated",g,--,--,0.000,0.000
"Fatty acids, total trans",g,--,--,0.000,0.000
"Cholesterol",mg,--,--,10,33
Amino Acids
Other
Ingredients
"UNBLEACHED ENRICHED WHEAT FLOUR (WHEAT FLOUR, NIACIN, REDUCED IRON, THIAMIN MONONITRATE, RIBOFLAVIN, FOLIC ACID), WHOLE MILK, BUTTER (CREAM, SALT), SUGAR, SEA SALT,ASIAGO CHEESE (PASTEURIZED PART SKIM MILK, CHEESE CULTURES, SALT, ENZYMES), NATURAL AND ARTIFICIAL ASIAGO- TYPE FLAVOR (AUTOLYZED YEAST EXTRACT, BUTTERMILK POWDER, SILICON DIOXIDE [AS ANTI-CAKING AGENT], DEHYDRATED CHEESE [CULTURED PASTEURIZED MILK, SALT, ENZYMES], MALTODEXTRIN, SALT)." Date available: 10/12/2017 Date last updated by company: 10/12/2017
