Source: USDA Branded Food Products Database Release December 2017 Software v.3.8.6.4 2017-10-02
Report Run at: December 18, 2017 07:34 EST
"Nutrient data for: 45217463, STONE GROUND TOP DOG MUSTARD, UPC: 042285009514"
Food Group:  Branded Food Products Database
Common Name:

Nutrient,Unit,Data points,Std. Error,"1 tsp = 5.0g",1Value per 100 g,
Proximates
"Energy",kcal,--,--,5,100
"Protein",g,--,--,0.00,0.00
"Total lipid (fat)",g,--,--,0.00,0.00
"Carbohydrate, by difference",g,--,--,1.00,20.00
"Sugars, total",g,--,--,0.00,0.00
Minerals
"Sodium, Na",mg,--,--,45,900
Vitamins
Lipids
"Fatty acids, total trans",g,--,--,0.000,0.000
Amino Acids
Other
Ingredients
"DEEP WELL WATER, BLENDED WHOLE MUSTARD SEEDS, DISTILLED VINEGAR, SALT, TURMERIC, AND CHILI" Date available: 07/14/2017 Date last updated by company: 07/14/2017
