Source: USDA Branded Food Products Database Release December 2017 Software v.3.8.6.4 2017-10-02
Report Run at: December 18, 2017 07:34 EST
"Nutrient data for: 45092665, STONE GROUND WHOLE WHEAT FIG BAR, UPC: 047495210019"
Food Group:  Branded Food Products Database
Common Name:

Nutrient,Unit,Data points,Std. Error,"1 ONZ = 28.0g",1Value per 100 g,
Proximates
"Energy",kcal,--,--,110,393
"Protein",g,--,--,2.00,7.14
"Total lipid (fat)",g,--,--,2.50,8.93
"Carbohydrate, by difference",g,--,--,20.00,71.43
"Fiber, total dietary",g,--,--,2.0,7.1
"Sugars, total",g,--,--,10.00,35.71
Minerals
"Calcium, Ca",mg,--,--,0,0
"Iron, Fe",mg,--,--,1.03,3.67
"Sodium, Na",mg,--,--,35,125
Vitamins
"Vitamin C, total ascorbic acid",mg,--,--,0.0,0.0
"Vitamin A, IU",IU,--,--,0,0
Lipids
"Fatty acids, total saturated",g,--,--,0.000,0.000
"Cholesterol",mg,--,--,0,0
Amino Acids
Other
Ingredients
"STONE GROUND WHOLE WHEAT FLOUR, DRIED CANE SYRUP, BROWN RICE SYRUP, FIG PASTE, CANOLA OIL, BLUEBERRY PASTE (ORGANIC DRIED CANE SYRUP, NATURALLY MILLED SUGAR, RICE STARCH, BLUEBERRIES, APPLE POWDER, GLYCERIN, NATURAL FLAVORS, PECTIN, CITRIC ACID, LOCUST BEAN GUM, RED CABBAGE EXTRACT FOR COLOR), ROLLED OATS, OAT FIBER, CARAMEL COLOR (AMMONIA-FREE), SEA SALT, CITRIC ACID, NATURAL FLAVORS, BAKING SODA." Date available: 07/14/2017 Date last updated by company: 07/14/2017
