Source: USDA Branded Food Products Database Release December 2017 Software v.3.8.6.4 2017-10-02
Report Run at: December 18, 2017 07:41 EST
"Nutrient data for: 45153307, STOP & SHOP, POPCORN, BUTTER, UPC: 688267177767"
Food Group:  Branded Food Products Database
Common Name:

Nutrient,Unit,Data points,Std. Error,"3.0 CHIPS | ABOUT = 28.0g",1Value per 100 g,
Proximates
"Energy",kcal,--,--,160,571
"Protein",g,--,--,2.00,7.14
"Total lipid (fat)",g,--,--,12.00,42.86
"Carbohydrate, by difference",g,--,--,13.00,46.43
"Fiber, total dietary",g,--,--,2.0,7.1
"Sugars, total",g,--,--,0.00,0.00
Minerals
"Calcium, Ca",mg,--,--,0,0
"Iron, Fe",mg,--,--,0.64,2.29
"Sodium, Na",mg,--,--,240,857
Vitamins
"Vitamin C, total ascorbic acid",mg,--,--,0.0,0.0
"Vitamin A, IU",IU,--,--,0,0
Lipids
"Fatty acids, total saturated",g,--,--,1.501,5.360
"Fatty acids, total trans",g,--,--,0.000,0.000
"Cholesterol",mg,--,--,0,0
Amino Acids
Other
Ingredients
"POPCORN, VEGETABLE OIL (CORN AND/OR SUNFLOWER), SEASONING (CORN MALTODEXTRIN, SALT, BUTTER [CREAM (MILK), SALT, ANNATTO], MODIFIED CORNSTARCH, NONFAT MILK SOLIDS, WHEY, FD%C YELLOW NO.5 LAKE, SODIUM CASHINATE, EXTRACTIVES OF PAPRIKA, NATURAL FLAVOR & NOT MORE THAN 2% SILICON DIOXIDE ADDED (AS ANTICAKING AGENT])." Date available: 07/14/2017 Date last updated by company: 07/14/2017
