Source: USDA Branded Food Products Database Release December 2017 Software v.3.8.6.4 2017-10-02
Report Run at: December 18, 2017 07:44 EST
"Nutrient data for: 45268088, STRAINED YOGURT, UPC: 742906125042"
Food Group:  Branded Food Products Database
Common Name:

Nutrient,Unit,Data points,Std. Error,"5.3 ONZ = 150.0g",1Value per 100 g,
Proximates
"Energy",kcal,--,--,120,80
"Protein",g,--,--,10.99,7.33
"Total lipid (fat)",g,--,--,0.00,0.00
"Carbohydrate, by difference",g,--,--,19.00,12.67
"Fiber, total dietary",g,--,--,0.0,0.0
"Sugars, total",g,--,--,17.00,11.33
Minerals
"Calcium, Ca",mg,--,--,160,107
"Iron, Fe",mg,--,--,0.00,0.00
"Sodium, Na",mg,--,--,50,33
Vitamins
"Vitamin C, total ascorbic acid",mg,--,--,1.4,0.9
"Vitamin A, IU",IU,--,--,0,0
Lipids
"Fatty acids, total saturated",g,--,--,0.000,0.000
"Fatty acids, total trans",g,--,--,0.000,0.000
"Cholesterol",mg,--,--,10,7
Amino Acids
Other
Ingredients
"CULTURED PASTEURIZED GRADE A SKIM MILK, LIVE & ACTIVE CULTURES: L. BULGARICUS, S. THERMOPHILUS. NATURAL MANGO PUREE, NATURAL MANGO FLAVOR, CANE SUGAR, NO PRESERVATIVES, AND A LOT OF LOVE!" Date available: 07/14/2017 Date last updated by company: 07/14/2017
