Source: USDA Branded Food Products Database Release December 2017 Software v.3.8.6.4 2017-10-02
Report Run at: December 18, 2017 08:02 EST
"Nutrient data for: 45231101, STRAWS CANDY, UPC: 041364080512"
Food Group:  Branded Food Products Database
Common Name:

Nutrient,Unit,Data points,Std. Error,"1 PACKAGE = 57.0g",1Value per 100 g,
Proximates
"Energy",kcal,--,--,210,368
"Protein",g,--,--,1.00,1.75
"Total lipid (fat)",g,--,--,1.00,1.75
"Carbohydrate, by difference",g,--,--,49.00,85.96
"Fiber, total dietary",g,--,--,1.0,1.8
"Sugars, total",g,--,--,26.00,45.61
Minerals
"Calcium, Ca",mg,--,--,0,0
"Iron, Fe",mg,--,--,0.00,0.00
"Sodium, Na",mg,--,--,10,18
Vitamins
"Vitamin C, total ascorbic acid",mg,--,--,0.0,0.0
"Vitamin A, IU",IU,--,--,0,0
Lipids
"Fatty acids, total saturated",g,--,--,0.502,0.880
"Fatty acids, total trans",g,--,--,0.000,0.000
"Cholesterol",mg,--,--,0,0
Amino Acids
Other
Ingredients
"CORN SYRUP, WHEAT FLOUR, SUGAR, CITRIC ACID, MALIC ACID, TARTARIC ACID, GLYCERYL MONOSTEARATE, GLYCERINE, ARTIFICIAL FLAVOR, COLOR ADDED (INCLUDING BLUE 1, BLUE 2)." Date available: 07/14/2017 Date last updated by company: 07/14/2017
