Source: USDA Branded Food Products Database Release December 2017 Software v.3.8.6.4 2017-10-02
Report Run at: December 18, 2017 08:01 EST
"Nutrient data for: 45289730, STRAWBERRY SWIRL ICE CREAM, UPC: 717544301264"
Food Group:  Branded Food Products Database
Common Name:

Nutrient,Unit,Data points,Std. Error,"0.5 cup = 64.0g",1Value per 100 g,
Proximates
"Energy",kcal,--,--,120,188
"Protein",g,--,--,2.00,3.12
"Total lipid (fat)",g,--,--,5.00,7.81
"Carbohydrate, by difference",g,--,--,16.00,25.00
"Fiber, total dietary",g,--,--,0.0,0.0
"Sugars, total",g,--,--,12.00,18.75
Minerals
"Calcium, Ca",mg,--,--,40,62
"Iron, Fe",mg,--,--,0.00,0.00
"Sodium, Na",mg,--,--,25,39
Vitamins
"Vitamin C, total ascorbic acid",mg,--,--,0.0,0.0
"Vitamin A, IU",IU,--,--,225,352
Lipids
"Fatty acids, total saturated",g,--,--,3.501,5.470
"Fatty acids, total trans",g,--,--,0.000,0.000
"Cholesterol",mg,--,--,20,31
Amino Acids
Other
Ingredients
"MILK, CREAM, SUGAR, STRAWBERRY FLAVORED SAUCE [CORN SYRUP, WATER, HIGH FRUCTOSE CORN SYRUP, STRAWBERRY PUREE, MODIFIED CORN STARCH, SUGAR, NATURAL AND ARTIFICIAL FLAVORS, GUAR GUM, CITRIC ACID, SODIUM BENZOATE (PRESERVATIVE), RED #40], CORN SYRUP, NONFAT MILK, WHEY POWDER, BUTTERMILK POWDER, MONO- AND DIGLYCERIDES (PLANT DERIVED), CONTAINS ONE OR MORE OF THE FOLLOWING GUMS (GUAR, CELLULOSE, LOCUST BEAN, XANTHAN, AND/OR CARRAGEENAN), POLYSORBATE 80, DEXTROSE, ARTIFICIAL VANILLA FLAVOR, ANNATTO (COLOR)." Date available: 07/14/2017 Date last updated by company: 07/14/2017
