Source: USDA Branded Food Products Database Release December 2017 Software v.3.8.6.4 2017-10-02
Report Run at: December 18, 2017 08:02 EST
"Nutrient data for: 45324461, STRAWBERRY YOGURT WITH MIXED BERRIES, UPC: 826766139644"
Food Group:  Branded Food Products Database
Common Name:

Nutrient,Unit,Data points,Std. Error,"1 CONTAINER = 283.0g",1Value per 100 g,
Proximates
"Energy",kcal,--,--,289,102
"Protein",g,--,--,8.01,2.83
"Total lipid (fat)",g,--,--,1.50,0.53
"Carbohydrate, by difference",g,--,--,62.01,21.91
"Fiber, total dietary",g,--,--,3.1,1.1
"Sugars, total",g,--,--,39.99,14.13
Minerals
"Calcium, Ca",mg,--,--,501,177
"Iron, Fe",mg,--,--,0.65,0.23
"Sodium, Na",mg,--,--,221,78
Vitamins
"Vitamin C, total ascorbic acid",mg,--,--,18.1,6.4
"Vitamin A, IU",IU,--,--,181,64
Lipids
"Fatty acids, total saturated",g,--,--,0.000,0.000
"Fatty acids, total trans",g,--,--,0.000,0.000
"Cholesterol",mg,--,--,6,2
Amino Acids
Other
Ingredients
"STRAWBERRY YOGURT (CULTURED PASTEURIZED GRADE A NONFAT MILK, SUGAR, WATER, STRAWBERRIES, MODIFIED CORN STARCH, WHEY, NATURAL FLAVORS, TRICALCIUM PHOSPHATE, GELLAN GUM, POTASSIUM SORBATE [FOR FRESHNESS], CITRIC ACID, PURPLE CARROT JUICE CONCENTRATE, CAROB BEAN GUM, VITAMIN D3), STRAWBERRIES, GRANOLA (WHOLE GRAIN ROLLED OATS, SUGAR, WHOLE GRAIN WHEAT FLAKES, RICE, CORN SYRUP, ALMONDS, SALT, MODIFIED CORN STARCH, CANOLA OIL, MOLASSES, CINNAMON, NONFAT DRY MILK, MALTED BARLEY EXTRACT, VITAMINS AND MINERALS [ALPHA TOCOPHEROL ACETATE (VITAMIN E), FERRIC OTHOPHOSPHATE (IRON), NIACINAMIDE, ZINC OXIDE, PYRIDOXINE HYDROCHLORIDE (VITAMIN B6), RIBOFLAVIN (VITAMIN B2), FOLIC ACID, THIAMIN MONONITRATE (VITAMIN B1), VITAMIN A PALMITATE, VITAMIN B12, VITAMIN D, SODIUM ASCORBATE (VITAMIN C)]), BLUEBERRIES." Date available: 08/10/2017 Date last updated by company: 08/10/2017
