Source: USDA Branded Food Products Database Release December 2017 Software v.3.8.6.4 2017-10-02
Report Run at: December 18, 2017 07:54 EST
"Nutrient data for: 45088426, STRAWBERRY GUAVA JAM, UPC: 079800000633"
Food Group:  Branded Food Products Database
Common Name:

Nutrient,Unit,Data points,Std. Error,"1 Tbsp = 15.0g",1Value per 100 g,
Proximates
"Energy",kcal,--,--,45,300
"Protein",g,--,--,0.00,0.00
"Total lipid (fat)",g,--,--,0.00,0.00
"Carbohydrate, by difference",g,--,--,11.00,73.33
"Sugars, total",g,--,--,9.00,60.00
Minerals
"Sodium, Na",mg,--,--,1,7
Vitamins
"Vitamin C, total ascorbic acid",mg,--,--,8.1,54.1
Lipids
Amino Acids
Other
Ingredients
"HIGH FRUCTOSE CORN SYRUP, SUGAR, STRAWBERRIES, GUAVA PUREE, CITRIC ACID AND PECTIN." Date available: 07/14/2017 Date last updated by company: 07/14/2017
