Source: USDA Branded Food Products Database Release December 2017 Software v.3.8.6.4 2017-10-02
Report Run at: December 18, 2017 07:43 EST
"Nutrient data for: 45287079, STRAINED GREEK YOGURT, UPC: 011110904553"
Food Group:  Branded Food Products Database
Common Name:

Nutrient,Unit,Data points,Std. Error,"1 CONTAINER = 150.0g",1Value per 100 g,
Proximates
"Energy",kcal,--,--,190,127
"Protein",g,--,--,10.99,7.33
"Total lipid (fat)",g,--,--,2.50,1.67
"Carbohydrate, by difference",g,--,--,33.00,22.00
"Fiber, total dietary",g,--,--,1.1,0.7
"Sugars, total",g,--,--,25.99,17.33
Minerals
"Calcium, Ca",mg,--,--,150,100
"Iron, Fe",mg,--,--,0.00,0.00
"Sodium, Na",mg,--,--,75,50
Vitamins
"Vitamin C, total ascorbic acid",mg,--,--,0.0,0.0
"Vitamin A, IU",IU,--,--,114,76
Lipids
"Fatty acids, total saturated",g,--,--,1.500,1.000
"Fatty acids, total trans",g,--,--,0.000,0.000
"Cholesterol",mg,--,--,15,10
Amino Acids
Other
Ingredients
"GREEK YOGURT (PASTEURIZED GRADE A SKIM MILK, CREAM, LIVE AND ACTIVE BACTERIAL CULTURES [S. THERMOPHILUS, L. BULGARICUS, L. ACIDOPHILUS, B. LACTIS]), HONEY." Date available: 07/14/2017 Date last updated by company: 07/14/2017
