Source: USDA Branded Food Products Database Release December 2017 Software v.3.8.6.4 2017-10-02
Report Run at: December 18, 2017 07:50 EST
"Nutrient data for: 45226106, STRAWBERRY BANANA STREUSEL POUND CAKE, UPC: 078742040622"
Food Group:  Branded Food Products Database
Common Name:

Nutrient,Unit,Data points,Std. Error,"0.1 CAKE = 79.0g",1Value per 100 g,
Proximates
"Energy",kcal,--,--,290,367
"Protein",g,--,--,3.00,3.80
"Total lipid (fat)",g,--,--,12.00,15.19
"Carbohydrate, by difference",g,--,--,42.00,53.16
"Fiber, total dietary",g,--,--,1.0,1.3
"Sugars, total",g,--,--,24.00,30.38
Minerals
"Calcium, Ca",mg,--,--,20,25
"Iron, Fe",mg,--,--,0.73,0.92
"Sodium, Na",mg,--,--,240,304
Vitamins
"Vitamin C, total ascorbic acid",mg,--,--,0.0,0.0
"Thiamin",mg,--,--,0.000,0.000
"Riboflavin",mg,--,--,0.102,0.129
"Niacin",mg,--,--,0.406,0.514
"Vitamin A, IU",IU,--,--,0,0
Lipids
"Fatty acids, total saturated",g,--,--,2.496,3.160
"Fatty acids, total trans",g,--,--,0.000,0.000
"Cholesterol",mg,--,--,40,51
Amino Acids
Other
Ingredients
"SUGAR, WATER, BLEACHED WHEAT FLOUR, EGGS, SOYBEAN OIL, BANANA PUREE, ENRICHED FLOUR (WHEAT FLOUR, MALTED BARLEY FLOUR, NIACIN, REDUCED IRON, THIAMINE MONONITRATE, RIBOFLAVIN, FOLIC ACID), FOOD STARCH-MODIFIED, WALNUTS, CONTAINS LESS THAN 2% OF EACH OF THE FOLLOWING: STRAWBERRY PUREE, WHEY, VEGETABLE SHORTENING (PARTIALLY HYDROGENATED SOYBEAN OIL, HYDROGENATED COTTONSEED OIL, POLYGLYCEROL ESTERS OF FATTY ACIDS, MONOGLYCERIDES, TBHQ PRESERVATIVE, CITRIC ACID PRESERVATIVE), PARTIALLY HYDROGENATED SOYBEAN AND/OR COTTONSEED OILS, CORN SYRUP, FLAKED YELLOW CORN, CANOLA OIL AND/OR SOYBEAN OIL, CORN STARCH, SALT, BAKING SODA, DEXTROSE, COCONUT, SODIUM ALUMINUM PHOSPHATE, WHEAT GLUTEN, MONO- & DIGLYCERIDES, NATURAL & ARTIFICIAL FLAVORS, SOY LECITHIN, BUTTER (CREAM, SALT), SODIUM ALUMINUM SULFATE, SODIUM STEAROYL LACTYLATE, MONOCALCIUM PHOSPHATE, CITRIC ACID PRESERVATIVE, PARTIALLY HYDROGENATED COTTONSEED OIL AND/OR PARTIALLY HYDROGENATED CANOLA OIL, CARAMEL COLOR, CELLULOSE GUM, POTASSIUM SORBATE PRESERVATIVE, SODIUM PROPIONATE PRESERVATIVE, RED 40, ETHYL ALCOHOL, TRICALCIUM PHOSPHATE, ANNATTO EXTRACT COLOR, TURMERIC COLOR, TBHQ PRESERVATIVE, ENZYMES, TOCOPHEROLS PRESERVATIVE, BETA-APO-8'-CAROTENAL COLOR." Date available: 07/14/2017 Date last updated by company: 07/14/2017
