Source: USDA Branded Food Products Database Release December 2017 Software v.3.8.6.4 2017-10-02
Report Run at: December 18, 2017 07:53 EST
"Nutrient data for: 45280151, STRAWBERRY FLAVORED ICE CREAM, UPC: 070038602965"
Food Group:  Branded Food Products Database
Common Name:

Nutrient,Unit,Data points,Std. Error,"0.5 cup = 64.0g",1Value per 100 g,
Proximates
"Energy",kcal,--,--,130,203
"Protein",g,--,--,2.00,3.12
"Total lipid (fat)",g,--,--,6.00,9.38
"Carbohydrate, by difference",g,--,--,15.00,23.44
"Fiber, total dietary",g,--,--,0.0,0.0
"Sugars, total",g,--,--,12.00,18.75
Minerals
"Calcium, Ca",mg,--,--,60,94
"Iron, Fe",mg,--,--,0.00,0.00
"Sodium, Na",mg,--,--,45,70
Vitamins
"Vitamin C, total ascorbic acid",mg,--,--,0.0,0.0
"Vitamin A, IU",IU,--,--,225,352
Lipids
"Fatty acids, total saturated",g,--,--,4.000,6.250
"Fatty acids, total trans",g,--,--,0.000,0.000
"Cholesterol",mg,--,--,25,39
Amino Acids
Other
Ingredients
"MILKFAT AND NONFAT MILK, BUTTERMILK, CORN SYRUP, STRAWBERRY PUREE (STRAWBERRY PUREE, HIGH FRUCTOSE CORN SYRUP, NATURAL FLAVOR, WATER, LOCUST BEAN GUM, CITRIC ACID, SODIUM BENZOATE AND POTASSIUM SORBATE ADDED AS A PRESERVATIVE, RED #40), SUGAR, HIGH FRUCTOSE CORN SYRUP, WHEY (MILK), STABILIZED AND EMULSIFIED BY MONO AND DIGLYCERIDES, GUAR GUM, CELLULOSE GUM, AND CARRAGEENAN, NATURAL AND ARTIFICIAL FLAVOR, RED #40 AND BLUE #1." Date available: 07/14/2017 Date last updated by company: 07/14/2017
