Source: USDA Branded Food Products Database Release December 2017 Software v.3.8.6.4 2017-10-02
Report Run at: December 18, 2017 07:56 EST
"Nutrient data for: 45324902, STRAWBERRY LOW FAT MOUSSE MIX, UPC: 073347355027"
Food Group:  Branded Food Products Database
Common Name:

Nutrient,Unit,Data points,Std. Error,"0.125 PACKAGE = 11.0g",1Value per 100 g,
Proximates
"Energy",kcal,--,--,50,455
"Protein",g,--,--,0.00,0.00
"Total lipid (fat)",g,--,--,2.50,22.73
"Carbohydrate, by difference",g,--,--,7.00,63.64
"Fiber, total dietary",g,--,--,0.0,0.0
"Sugars, total",g,--,--,0.00,0.00
Minerals
"Calcium, Ca",mg,--,--,0,0
"Iron, Fe",mg,--,--,0.00,0.00
"Sodium, Na",mg,--,--,25,227
Vitamins
"Vitamin C, total ascorbic acid",mg,--,--,0.0,0.0
"Vitamin A, IU",IU,--,--,0,0
Lipids
"Fatty acids, total saturated",g,--,--,2.500,22.730
"Fatty acids, total trans",g,--,--,0.000,0.000
"Cholesterol",mg,--,--,0,0
Amino Acids
Other
Ingredients
"MALTODEXTRIN, WHIPPING BASE (PARTIALLY HYDROGENATED PALM KERNAL OIL, MALTODEXTRIN, PROPYLENE GLYCOL ESTERS OF FATTY ACIDS, SODIUM CASEINATE, ACETIC ACID ESTERS OF MONOGLYCERIDES, DIPOTASSIUM PHOSPHATE, MICROCRYSTALLINE CELLULOSE, HYDROXYPROPYL METHYL CELLULOSE, MONO AND DIGLYCERIDES, SODIUM ALUMINOSILICATE), MODIFIED CORN STARCH, ADIPIC ACID, CARRAGEENAN, ARTIFICIAL FLAVOR, TETRASODIUM PYROPHOSPHATE, SUCRALOSE (SPLENDA BRAND), RED #40." Date available: 08/11/2017 Date last updated by company: 08/11/2017
