Source: USDA Branded Food Products Database Release December 2017 Software v.3.8.6.4 2017-10-02
Report Run at: December 18, 2017 07:53 EST
"Nutrient data for: 45085977, STRAWBERRY FRUIT SPREAD, UPC: 084672701335"
Food Group:  Branded Food Products Database
Common Name:

Nutrient,Unit,Data points,Std. Error,"1 Tbsp = 18.0g",1Value per 100 g,
Proximates
"Energy",kcal,--,--,30,167
"Protein",g,--,--,0.00,0.00
"Total lipid (fat)",g,--,--,0.30,1.67
"Carbohydrate, by difference",g,--,--,7.00,38.89
"Fiber, total dietary",g,--,--,1.0,5.6
"Sugars, total",g,--,--,5.00,27.78
Minerals
"Sodium, Na",mg,--,--,0,0
Vitamins
Lipids
Amino Acids
Other
Ingredients
"STRAWBERRIES, ORGANIC AGAVE NECTAR, ORGANIC CHIA SEEDS, LIME JUICE." Date available: 07/14/2017 Date last updated by company: 07/14/2017
