Source: USDA Branded Food Products Database Release December 2017 Software v.3.8.6.4 2017-10-02
Report Run at: December 18, 2017 07:56 EST
"Nutrient data for: 45149000, STRAWBERRY LEMONADE, UPC: 613008743406"
Food Group:  Branded Food Products Database
Common Name:

Nutrient,Unit,Data points,Std. Error,"8.0 OZA = 240.0g",1Value per 100 g,
Proximates
"Energy",kcal,--,--,70,29
"Protein",g,--,--,0.00,0.00
"Total lipid (fat)",g,--,--,0.00,0.00
"Carbohydrate, by difference",g,--,--,18.00,7.50
"Fiber, total dietary",g,--,--,0.0,0.0
"Sugars, total",g,--,--,16.99,7.08
Minerals
"Calcium, Ca",mg,--,--,0,0
"Iron, Fe",mg,--,--,0.00,0.00
"Sodium, Na",mg,--,--,10,4
Vitamins
"Vitamin C, total ascorbic acid",mg,--,--,14.9,6.2
"Vitamin A, IU",IU,--,--,0,0
Lipids
"Fatty acids, total saturated",g,--,--,0.000,0.000
"Fatty acids, total trans",g,--,--,0.000,0.000
"Cholesterol",mg,--,--,0,0
Amino Acids
Other
Ingredients
"FILTERED WATER, HIGH FRUCTOSE CORN SYRUP (GLUCOSE-FRUCTOSE SYRUP), STRAWBERRY PUREE, LEMON JUICE FROM CONCENTRATE, PEAR JUICE FROM CONCENTRATE, HONEY, CITRIC ACID, FRUIT AND VEGETABLE JUICE FOR COLOR, NATURAL FLAVORS, ASCORBIC ACID (VITAMIN C), SUCRALOSE, SUCROSE, ACESULFAME POTASSIUM." Date available: 06/25/2017 Date last updated by company: 06/25/2017
