Source: USDA Branded Food Products Database Release December 2017 Software v.3.8.6.4 2017-10-02
Report Run at: December 18, 2017 07:43 EST
"Nutrient data for: 45264492, STRAINED PLAIN LOWFAT GREEK YOGURT, UPC: 011110904751"
Food Group:  Branded Food Products Database
Common Name:

Nutrient,Unit,Data points,Std. Error,"1 cup = 227.0g",1Value per 100 g,
Proximates
"Energy",kcal,--,--,170,75
"Protein",g,--,--,22.00,9.69
"Total lipid (fat)",g,--,--,4.49,1.98
"Carbohydrate, by difference",g,--,--,10.01,4.41
"Fiber, total dietary",g,--,--,0.9,0.4
"Sugars, total",g,--,--,5.99,2.64
Minerals
"Calcium, Ca",mg,--,--,250,110
"Iron, Fe",mg,--,--,0.00,0.00
"Potassium, K",mg,--,--,291,128
"Sodium, Na",mg,--,--,91,40
Vitamins
"Vitamin C, total ascorbic acid",mg,--,--,0.0,0.0
"Vitamin A, IU",IU,--,--,150,66
Lipids
"Fatty acids, total saturated",g,--,--,2.996,1.320
"Fatty acids, total trans",g,--,--,0.000,0.000
"Cholesterol",mg,--,--,25,11
Amino Acids
Other
Ingredients
"CULTURED PASTEURIZED NONFAT GRADE A MILK, GRADE A CREAM, CONTAINS THE FOLLOWING LIVE CULTURES: LACTOBACILLUS BULGARICUS, STREPTOCOCCUS THERMOPHILUS, LACTOBACILLUS, ACIDOPHILUS, BIFIDUS, LACTOBACILLUS CASEI." Date available: 07/14/2017 Date last updated by company: 07/14/2017
