Source: USDA Branded Food Products Database Release December 2017 Software v.3.8.6.4 2017-10-02
Report Run at: December 18, 2017 08:02 EST
"Nutrient data for: 45086020, STRAW PROPELLER GOURMET FOODS, MAPLE OATS, UPC: 858117003328"
Food Group:  Branded Food Products Database
Common Name:

Nutrient,Unit,Data points,Std. Error,"1 CONTAINER = 63.0g",1Value per 100 g,
Proximates
"Energy",kcal,--,--,198,314
"Protein",g,--,--,7.00,11.11
"Total lipid (fat)",g,--,--,3.00,4.76
"Carbohydrate, by difference",g,--,--,34.00,53.97
"Fiber, total dietary",g,--,--,5.0,7.9
"Sugars, total",g,--,--,6.00,9.52
Minerals
"Calcium, Ca",mg,--,--,20,32
"Iron, Fe",mg,--,--,1.57,2.49
"Sodium, Na",mg,--,--,140,222
Vitamins
"Vitamin C, total ascorbic acid",mg,--,--,0.0,0.0
"Vitamin A, IU",IU,--,--,0,0
Lipids
"Fatty acids, total saturated",g,--,--,0.000,0.000
"Fatty acids, total trans",g,--,--,0.000,0.000
"Cholesterol",mg,--,--,0,0
Amino Acids
Other
Ingredients
"CERTIFIED GLUTEN-FREE ROLLED OAT ORGANIC MAPLE SUGAR, SEA SALT." Date available: 06/25/2017 Date last updated by company: 06/25/2017
