Source: USDA Branded Food Products Database Release December 2017 Software v.3.8.6.4 2017-10-02
Report Run at: December 18, 2017 08:07 EST
"Nutrient data for: 45190910, STRIPED FIVE CHEESE RAVIOLI, UPC: 048769480213"
Food Group:  Branded Food Products Database
Common Name:

Nutrient,Unit,Data points,Std. Error,"6.0 ONZ = 170.0g",1Value per 100 g,
Proximates
"Energy",kcal,--,--,430,253
"Protein",g,--,--,22.00,12.94
"Total lipid (fat)",g,--,--,18.00,10.59
"Carbohydrate, by difference",g,--,--,44.00,25.88
"Fiber, total dietary",g,--,--,2.0,1.2
"Sugars, total",g,--,--,2.99,1.76
Minerals
"Calcium, Ca",mg,--,--,400,235
"Iron, Fe",mg,--,--,2.06,1.21
"Sodium, Na",mg,--,--,790,465
Vitamins
"Vitamin C, total ascorbic acid",mg,--,--,4.1,2.4
"Vitamin A, IU",IU,--,--,1720,1012
Lipids
"Fatty acids, total saturated",g,--,--,9.996,5.880
"Fatty acids, total trans",g,--,--,0.000,0.000
"Cholesterol",mg,--,--,100,59
Amino Acids
Other
Ingredients
"RICOTTA CHEESE (PASTEURIZED) MILK, PASTEURIZED WHEY, PASTEURIZED CREAM, VINEGAR, XANTHAN GUM, LOCUST BEAN GUM, GUAR GUM), CREAM, MILK, PARMESAN CHEESE (PASTEURIZED PART-SKIM MILK, CHEESE CULTURES, SALT, ENZYMES), ROMANO CHEESE BLEND (ROMANO CHEESE [CULTURED COW'S MILK, SALT, ENZYMES], ENZYME MODIFIED ROMANO CHEESE [CULTURED COW'S MILK, WATER, SALT, ENZYMES], SALT), FONTINA CHEESE (PASTEURIZED MILK, CHEESE CULTURES, SALT, ENZYMES), LOW MOISTURE PART SKIM, CHEESE CULTURES, SALT, ENZYMES), EGGS, BREAD CRUMBS (WHEAT FLOUR, DEXTROSE, YEAST, SALT), 2% OR LESS OF: MODIFIED CORNSTARCH, SALT, DRIED EGG WHITES, CARRAGEENAN, BLACK PEPPER, NUTMEG, PASTA: SEMOLINA, WATER, EGGS, SPINACH POWDER, SALT, BETA CAROTENE (COLOR)." Date available: 07/14/2017 Date last updated by company: 07/14/2017
