Source: USDA Branded Food Products Database Release December 2017 Software v.3.8.6.4 2017-10-02
Report Run at: December 18, 2017 08:08 EST
"Nutrient data for: 45138638, STROH'S, PREMIUM ICE CREAM, CHOCOLATE CHIP COOKIE DOUGH, UPC: 738248000109"
Food Group:  Branded Food Products Database
Common Name:

Nutrient,Unit,Data points,Std. Error,"0.5 cup = 71.0g",1Value per 100 g,
Proximates
"Energy",kcal,--,--,160,225
"Protein",g,--,--,2.00,2.82
"Total lipid (fat)",g,--,--,8.00,11.27
"Carbohydrate, by difference",g,--,--,21.00,29.58
"Fiber, total dietary",g,--,--,0.0,0.0
"Sugars, total",g,--,--,15.00,21.13
Minerals
"Calcium, Ca",mg,--,--,60,85
"Iron, Fe",mg,--,--,0.00,0.00
"Sodium, Na",mg,--,--,60,85
Vitamins
"Vitamin C, total ascorbic acid",mg,--,--,0.0,0.0
"Vitamin A, IU",IU,--,--,337,475
Lipids
"Fatty acids, total saturated",g,--,--,4.998,7.040
"Fatty acids, total trans",g,--,--,0.000,0.000
"Cholesterol",mg,--,--,25,35
Amino Acids
Other
Ingredients
"MILKFAT AND NONFAT MILK, COOKIE DOUGH WITH CHIPS {COOKIE DOUGH [WHEAT FLOUR, SUGAR, BROWN SUGAR (SUGAR, MOLASSES), MARGARINE (SOYBEAN OIL, PARTIALLY HYDROGENATED SOYBEAN OIL, WATER, SALT, WHEY, MONO & DIGLYCERIDES, SOY LECITHIN, SODIUM BENZOATE (PRESERVATIVE), ARTIFICIAL FLAVOR, BETA CAROTENE (COLOR), VITAMIN A PALMITATE], CHOCOLATE CHIPS [SUGAR, CHOCOLATE LIQUOR, COCOA BUTTER, SOY LECITHIN (EMULSIFIER)], WATER, VANILLA, SALT, BAKING SODA}, SUGAR, CORN SYRUP, CHOCOLATE FLAVORED FLAKES (SUGAR, PARTIALLY HYDROGENATED COCONUT OIL, COCOA, COCOA PROCESSED WITH ALKALI, COCONUT OIL, SOY LECITHIN, SALT, VANILLA EXTRACT), BROWN SUGAR, HIGH FRUCTOSE CORN SYRUP, SWEETCREAM BUTTERMILK, WHEY, CONTAINS LESS THAN 2% OF MOLASSES, GUAR GUM, MONO & DIGLYCERIDES, XANTHAN GUM, POLYSORBATE 80, CELLULOSE GUM, CARRAGEENAN, NATURAL AND ARTIFICIAL FLAVORS, ANNATTO (COLOR), SALT." Date available: 07/14/2017 Date last updated by company: 07/14/2017
