Source: USDA Branded Food Products Database Release December 2017 Software v.3.8.6.4 2017-10-02
Report Run at: December 18, 2017 08:08 EST
"Nutrient data for: 45037004, STROOPWAFELS, CARAMEL, UPC: 853754003052"
Food Group:  Branded Food Products Database
Common Name:

Nutrient,Unit,Data points,Std. Error,"1 WAFFLE = 39.0g",1Value per 100 g,
Proximates
"Energy",kcal,--,--,180,462
"Protein",g,--,--,1.00,2.56
"Total lipid (fat)",g,--,--,8.00,20.51
"Carbohydrate, by difference",g,--,--,25.00,64.10
"Fiber, total dietary",g,--,--,0.5,1.3
"Sugars, total",g,--,--,13.00,33.33
Minerals
"Calcium, Ca",mg,--,--,0,0
"Iron, Fe",mg,--,--,1.57,4.02
"Sodium, Na",mg,--,--,100,256
Vitamins
"Vitamin C, total ascorbic acid",mg,--,--,0.0,0.0
"Vitamin A, IU",IU,--,--,0,0
Lipids
"Fatty acids, total saturated",g,--,--,4.501,11.540
"Fatty acids, total trans",g,--,--,0.000,0.000
"Cholesterol",mg,--,--,15,38
Amino Acids
Other
Ingredients
"GLUCOSE SYRUP, WHEAT FLOUR, BUTTER (CREAM), SUGAR, PALM OIL, TREACLE SYRUP, CANOLA OIL, SOY FLOUR, SALT, SOY LECITHIN, SODIUM PYROPHOSPHATE, BAKING SODA, CINNAMON, VANILLA PODS, EGGS, MONO- AND DIGLYCERIDES, CITRIC ACID." Date available: 07/14/2017 Date last updated by company: 07/14/2017
