Source: USDA Branded Food Products Database Release December 2017 Software v.3.8.6.4 2017-10-02
Report Run at: December 18, 2017 08:09 EST
"Nutrient data for: 45109993, STUBB'S, ALL NATURAL SPICE RUB PORK, UPC: 734756008415"
Food Group:  Branded Food Products Database
Common Name:

Nutrient,Unit,Data points,Std. Error,"0.25 tsp = 0.8g",1Value per 100 g,
Proximates
"Energy",kcal,--,--,0,0
"Protein",g,--,--,0.00,0.00
"Total lipid (fat)",g,--,--,0.00,0.00
"Carbohydrate, by difference",g,--,--,0.00,0.00
"Sugars, total",g,--,--,0.00,0.00
Minerals
"Calcium, Ca",mg,--,--,0,0
"Iron, Fe",mg,--,--,0.00,0.00
"Sodium, Na",mg,--,--,45,5625
Vitamins
"Vitamin C, total ascorbic acid",mg,--,--,0.0,0.0
"Vitamin A, IU",IU,--,--,6250,781250
Lipids
Amino Acids
Other
Ingredients
"CHILE PEPPERS, SALT, SUGAR, LIME JUICE (CORN SYRUP SOLIDS, LIME JUICE, LIME OIL), PAPRIKA, MUSTARD SEED, SPICES, GARLIC, ONION, RED PEPPER." Date available: 07/14/2017 Date last updated by company: 07/14/2017
