Source: USDA Branded Food Products Database Release December 2017 Software v.3.8.6.4 2017-10-02
Report Run at: December 18, 2017 08:19 EST
"Nutrient data for: 45080616, STUFFING MIX, UPC: 719283518217"
Food Group:  Branded Food Products Database
Common Name:

Nutrient,Unit,Data points,Std. Error,"0.16 BOX (MADES 0.50 CUP CUP PREPARED) = 28.0g",1Value per 100 g,
Proximates
"Energy",kcal,--,--,110,393
"Protein",g,--,--,4.00,14.29
"Carbohydrate, by difference",g,--,--,20.00,71.43
"Fiber, total dietary",g,--,--,1.0,3.6
"Sugars, total",g,--,--,2.00,7.14
Minerals
"Calcium, Ca",mg,--,--,20,71
"Iron, Fe",mg,--,--,3.86,13.78
"Potassium, K",mg,--,--,30,107
"Sodium, Na",mg,--,--,430,1536
Vitamins
"Vitamin C, total ascorbic acid",mg,--,--,4.3,15.3
"Vitamin A, IU",IU,--,--,0,0
"Vitamin D",IU,--,--,0,0
Lipids
"Fatty acids, total saturated",g,--,--,0.000,0.000
"Fatty acids, total monounsaturated",g,--,--,0.000,0.000
"Fatty acids, total polyunsaturated",g,--,--,0.000,0.000
"Fatty acids, total trans",g,--,--,0.000,0.000
"Cholesterol",mg,--,--,0,0
Amino Acids
Other
Ingredients
"BREAD CRUMBS (ENRICHED UNBLEACHED WHEAT FLOUR [WHEAT FLOUR, NIACIN, IRON, THIAMINE MONONITRATE, RIBOFLAVIN, FOLIC ACID], WHOLE WHEAT FLOUR, SUGAR, PALM KERNEL OIL, SALT, WHEAT GLUTEN, YEAST, GRAIN VINEGAR, NATURAL FLAVOR, SOY LECITHIN, SOY FLOUR), DEHYDRATED ONION, MALTODEXTRIN, CONTAINS 2% OR LESS OF THE FOLLOWING: DEHYDRATED CELERY, HYDROLYZED CORN, SOY AND WHEAT PROTEIN, SALT, SPICE, YEAST EXTRACT, AUTOLYZED YEAST EXTRACT, COLOR (CARAMEL, TURMERIC), DEHYDRATED GARLIC, CITRIC ACID, ANTI-CAKING AGENT (CALCIUM SILICATE), DEXTROSE, NATURAL FLAVOR, LACTIC ACID, DISODIUM GUANYLATE, DISODIUM INOSINATE, MODIFIED FOOD STARCH, DEHYDRATED CHICKEN, CHICKEN FAT." Date available: 07/14/2017 Date last updated by company: 07/14/2017
