Source: USDA Branded Food Products Database Release December 2017 Software v.3.8.6.4 2017-10-02
Report Run at: December 18, 2017 08:20 EST
"Nutrient data for: 45210303, STUFFING, UPC: 780982999003"
Food Group:  Branded Food Products Database
Common Name:

Nutrient,Unit,Data points,Std. Error,"0.75 CUP (99 G) 0REPARED | MAKES = 28.0g",1Value per 100 g,
Proximates
"Energy",kcal,--,--,110,393
"Protein",g,--,--,1.00,3.57
"Total lipid (fat)",g,--,--,4.00,14.29
"Carbohydrate, by difference",g,--,--,16.00,57.14
"Fiber, total dietary",g,--,--,1.0,3.6
"Sugars, total",g,--,--,1.00,3.57
Minerals
"Calcium, Ca",mg,--,--,20,71
"Iron, Fe",mg,--,--,3.86,13.78
"Sodium, Na",mg,--,--,200,714
Vitamins
"Vitamin C, total ascorbic acid",mg,--,--,4.3,15.3
"Vitamin A, IU",IU,--,--,0,0
Lipids
"Fatty acids, total saturated",g,--,--,0.000,0.000
"Fatty acids, total trans",g,--,--,0.000,0.000
"Cholesterol",mg,--,--,0,0
Amino Acids
Other
Ingredients
"GLUTEN FREE BREAD (MILLET, SORGHUM, BROWN RICE AND WHITE RICE FLOURS, EGG WHITE, ARROWROOT, POTATO AND TAPIOCA STARCHES, CIDER VINEGAR, CERTIFIED NON-GMO CANOLA OIL, WATER, SEA SALT, HONEY, YEAST, XANTHAN GUM) CERTIFIED NON-GMO CANOLA OIL, GRANULATED ONION AND GARLIC, ROSEMARY, SAGE, THYME, CELERY SEED, SEA SALT, PEPPER." Date available: 07/14/2017 Date last updated by company: 07/14/2017
