Source: USDA Branded Food Products Database Release December 2017 Software v.3.8.6.4 2017-10-02
Report Run at: December 18, 2017 08:11 EST
"Nutrient data for: 45267874, STUFFED BABY BELLAS, UPC: 681131148221"
Food Group:  Branded Food Products Database
Common Name:

Nutrient,Unit,Data points,Std. Error,"2.0 STUFFED MUSHROOMS = 66.0g",1Value per 100 g,
Proximates
"Energy",kcal,--,--,70,106
"Protein",g,--,--,4.00,6.06
"Total lipid (fat)",g,--,--,3.00,4.55
"Carbohydrate, by difference",g,--,--,6.00,9.09
"Fiber, total dietary",g,--,--,1.0,1.5
"Sugars, total",g,--,--,1.00,1.52
Minerals
"Calcium, Ca",mg,--,--,80,121
"Iron, Fe",mg,--,--,0.77,1.16
"Sodium, Na",mg,--,--,220,333
Vitamins
"Vitamin C, total ascorbic acid",mg,--,--,0.0,0.0
"Vitamin A, IU",IU,--,--,0,0
Lipids
"Fatty acids, total saturated",g,--,--,1.498,2.270
"Fatty acids, total trans",g,--,--,0.000,0.000
"Cholesterol",mg,--,--,10,15
Amino Acids
Other
Ingredients
"CRIMINI MUSHROOM, MILD CHEDDAR CHEESE (PASTEURIZED MILK, CHEESE CULTURE, SALT, ENZYMES, ANNATTO [VEGETABLE COLOR], POTATO STARCH AND POWDERED CELLULOSE [TO PREVENT CAKING], NATAMYCIN [A NATURAL MOLD INHIBITOR]), PANKO BREAD CRUMBS (BLEACHED WHEAT FLOUR, CANE SUGAR, YEAST, SALT), ONION, SALT, CHILI PEPPER CHIPOTLE (CHIPOTLE CHILI PEPPER, AND SILICON DIOXIDE [ADDED TO MAKE FREE FLOWING]), BBQ SAUCE (TOMATO PUREE [WATER, TOMATO PASTE], SUGAR, DISTILLED VINEGAR, CORN STARCH, CONTAINS LESS THEN 2% OF SALT, PINEAPPLE JUICE CONCENTRATE, SPICES, CARAMEL COLOR, NATURAL HICKORY SMOKE FLAVOR, GARLIC, WATER, MOLASSES, NATURAL FLAVORS [INCLUDES CELERY], CELERY SEED, TAMARIND CONCENTRATE)." Date available: 07/14/2017 Date last updated by company: 07/14/2017
