Source: USDA Branded Food Products Database Release December 2017 Software v.3.8.6.4 2017-10-02
Report Run at: December 18, 2017 08:15 EST
"Nutrient data for: 45016685, STUFFED MANZANILLA SPINACH OLIVES, UPC: 041497134755"
Food Group:  Branded Food Products Database
Common Name:

Nutrient,Unit,Data points,Std. Error,"5.0 OLIVES, PER CONTAINER USUALLY = 15.0g",1Value per 100 g,
Proximates
"Energy",kcal,--,--,25,167
"Protein",g,--,--,0.00,0.00
"Total lipid (fat)",g,--,--,2.50,16.67
"Carbohydrate, by difference",g,--,--,0.00,0.00
Minerals
"Sodium, Na",mg,--,--,210,1400
Vitamins
Lipids
"Fatty acids, total trans",g,--,--,0.000,0.000
Amino Acids
Other
Ingredients
"MANZANILLA OLIVES, WATER, MINCED PIMENTO (PIMENTO, SODIUM ALGINATE AND GUAR GUM, CALCIUM CHLORIDE), SALT, LACTIC ACID, ASCORBIC ACID." Date available: 10/04/2017 Date last updated by company: 10/04/2017
