Source: USDA Branded Food Products Database Release December 2017 Software v.3.8.6.4 2017-10-02
Report Run at: December 18, 2017 08:18 EST
"Nutrient data for: 45278193, STUFFING CORNBREAD, UPC: 011161021650"
Food Group:  Branded Food Products Database
Common Name:

Nutrient,Unit,Data points,Std. Error,"0.67 cup = 34.0g",1Value per 100 g,
Proximates
"Energy",kcal,--,--,130,382
"Protein",g,--,--,4.00,11.76
"Total lipid (fat)",g,--,--,1.00,2.94
"Carbohydrate, by difference",g,--,--,26.00,76.47
"Fiber, total dietary",g,--,--,0.0,0.0
"Sugars, total",g,--,--,2.00,5.88
Minerals
"Calcium, Ca",mg,--,--,20,59
"Iron, Fe",mg,--,--,4.24,12.46
"Sodium, Na",mg,--,--,380,1118
Vitamins
"Vitamin C, total ascorbic acid",mg,--,--,0.0,0.0
"Vitamin A, IU",IU,--,--,0,0
Lipids
"Fatty acids, total saturated",g,--,--,0.000,0.000
"Fatty acids, total monounsaturated",g,--,--,0.000,0.000
"Fatty acids, total polyunsaturated",g,--,--,0.000,0.000
"Fatty acids, total trans",g,--,--,0.000,0.000
"Cholesterol",mg,--,--,0,0
Amino Acids
Other
Ingredients
"ENRICHED FLOUR (WHEAT FLOUR, NIACIN, IRON, THIAMIN MONONITRATE [VITAMIN B1], RIBOFLAVIN [VITAMIN B2], FOLIC ACID), YELLOW CORN MEAL, HIGH FRUCTOSE CORN SYRUP, SALT, CONTAINS 2% OR LESS OF EACH OF THE FOLLOWING: YEAST, PARTIALLY HYDROGENATED VEGETABLE OIL (SOYBEAN AND/OR COTTONSEED OILS), CORN FLOUR, DEHYDRATED ONION, SPICES, DEXTROSE, EXTRACTIVES OF SPICE, CALCIUM PROPIONATE (PRESERVATIVE), YEAST NUTRIENTS (MONOCALCIUM PHOSPHATE, CALCIUM SULFATE, AMMONIUM SULFATE), COLORED WITH (TURMERIC EXTRACT AND PAPRIKA), VEGETABLE OIL (SOYBEAN AND/OR COTTONSEED OIL), GLYCEROL MONOLEATE, POLYSORBATE 60, NATURAL FLAVOR, CORN STARCH, SOY LECITHIN, SOY FLOUR." Date available: 07/14/2017 Date last updated by company: 07/14/2017
