Source: USDA Branded Food Products Database Release December 2017 Software v.3.8.6.4 2017-10-02
Report Run at: December 18, 2017 08:11 EST
"Nutrient data for: 45080078, STUFFED CABBAGE LEAVES, UPC: 052851051847"
Food Group:  Branded Food Products Database
Common Name:

Nutrient,Unit,Data points,Std. Error,"120.0 GRM = 120.0g",1Value per 100 g,
Proximates
"Energy",kcal,--,--,205,171
"Protein",g,--,--,2.00,1.67
"Total lipid (fat)",g,--,--,11.00,9.17
"Carbohydrate, by difference",g,--,--,23.00,19.17
"Fiber, total dietary",g,--,--,4.0,3.3
"Sugars, total",g,--,--,2.00,1.67
Minerals
"Calcium, Ca",mg,--,--,30,25
"Iron, Fe",mg,--,--,0.00,0.00
"Sodium, Na",mg,--,--,500,417
Vitamins
"Vitamin C, total ascorbic acid",mg,--,--,1.6,1.3
"Vitamin A, IU",IU,--,--,733,611
Lipids
"Fatty acids, total saturated",g,--,--,0.996,0.830
"Fatty acids, total trans",g,--,--,0.000,0.000
"Cholesterol",mg,--,--,0,0
Amino Acids
Other
Ingredients
"RICE, WHITE CABBAGE, ONIONS, WATER, SUNFLOWER OIL, TOMATO PASTE, SALT, SPICES, CITRIC ACID." Date available: 07/14/2017 Date last updated by company: 07/14/2017
