Source: USDA Branded Food Products Database Release December 2017 Software v.3.8.6.4 2017-10-02
Report Run at: December 18, 2017 08:12 EST
"Nutrient data for: 45197815, STUFFED CLAMS, UPC: 070120279471"
Food Group:  Branded Food Products Database
Common Name:

Nutrient,Unit,Data points,Std. Error,"2.23 ONZ = 63.0g",1Value per 100 g,
Proximates
"Energy",kcal,--,--,80,127
"Protein",g,--,--,3.00,4.76
"Total lipid (fat)",g,--,--,3.00,4.76
"Carbohydrate, by difference",g,--,--,12.00,19.05
"Fiber, total dietary",g,--,--,1.0,1.6
"Sugars, total",g,--,--,2.00,3.17
Minerals
"Calcium, Ca",mg,--,--,20,32
"Iron, Fe",mg,--,--,0.97,1.54
"Sodium, Na",mg,--,--,240,381
Vitamins
"Vitamin C, total ascorbic acid",mg,--,--,8.1,12.8
"Vitamin A, IU",IU,--,--,405,643
Lipids
"Fatty acids, total saturated",g,--,--,0.000,0.000
"Fatty acids, total trans",g,--,--,0.000,0.000
"Cholesterol",mg,--,--,0,0
Amino Acids
Other
Ingredients
"WATER, CRUMB (WHEAT FLOUR, DEXTROSE, SOYBEAN OIL, SUGAR, SALT, YEAST), TEXTURED VEGETABLE PROTEIN (SOY), MAYONNAISE (SOYBEAN OIL, WATER, EGGS, DISTILLED VINEGAR, CONTAINS LESS THAN 2% CORN SYRUP, SALT, SPICE, LEMON JUICE CONCENTRATE, CALCIUM DISODIUM EDTA ADDED TO PROTECT FLAVOR), CLAMS, CELERY, RED BELL PEPPER, ONIONS, GREEN BELL PEPPER, SOYBEAN OIL, NONFAT DRIED MILK, GARLIC POWDER, SALT, SUGAR, SEASONING (SALT, MALTODEXTRIN (FROM CORN), SUGAR, YEAST EXTRACT. COD FISH POWDER. RICE FLOUR, ONION POWDER, GARLIC POWDER, NATURAL FLAVORING), MALTODEXTRIN, NATURAL BUTTER FLAVOR, ANNATTO AND TURMERIC (FOR COLOR), PARSLEY, PAPRIKA." Date available: 07/14/2017 Date last updated by company: 07/14/2017
