Source: USDA Branded Food Products Database Release December 2017 Software v.3.8.6.4 2017-10-02
Report Run at: December 18, 2017 08:20 EST
"Nutrient data for: 45147595, SUAVVA, CACAO, CACAO SMOOTHIE, UPC: 853779004072"
Food Group:  Branded Food Products Database
Common Name:

Nutrient,Unit,Data points,Std. Error,"10.5 OZA = 10.5g",1Value per 100 g,
Proximates
"Energy",kcal,--,--,4,41
"Protein",g,--,--,0.07,0.63
"Total lipid (fat)",g,--,--,0.00,0.00
"Carbohydrate, by difference",g,--,--,1.03,9.84
"Fiber, total dietary",g,--,--,0.0,0.0
"Sugars, total",g,--,--,0.97,9.21
Minerals
"Calcium, Ca",mg,--,--,1,6
"Iron, Fe",mg,--,--,0.01,0.11
"Magnesium, Mg",mg,--,--,1,10
"Potassium, K",mg,--,--,7,70
"Sodium, Na",mg,--,--,0,0
Vitamins
"Vitamin C, total ascorbic acid",mg,--,--,0.0,0.0
"Thiamin",mg,--,--,0.000,0.000
"Vitamin B-6",mg,--,--,0.060,0.571
"Vitamin A, IU",IU,--,--,3,32
Lipids
"Cholesterol",mg,--,--,0,0
Amino Acids
Other
Ingredients
"CACAO JUICE (WATER, CACAO PUREE), ORGANIC AGAVE NECTAR." Date available: 10/13/2017 Date last updated by company: 10/13/2017
