Source: USDA Branded Food Products Database Release December 2017 Software v.3.8.6.4 2017-10-02
Report Run at: December 18, 2017 08:21 EST
"Nutrient data for: 45261204, SUB SAUCE, UPC: 033481055542"
Food Group:  Branded Food Products Database
Common Name:

Nutrient,Unit,Data points,Std. Error,"2.0 Tbsp = 30.0g",1Value per 100 g,
Proximates
"Energy",kcal,--,--,20,67
"Protein",g,--,--,0.00,0.00
"Total lipid (fat)",g,--,--,5.00,16.67
"Carbohydrate, by difference",g,--,--,4.00,13.33
"Fiber, total dietary",g,--,--,1.0,3.3
"Sugars, total",g,--,--,2.00,6.67
Minerals
"Calcium, Ca",mg,--,--,0,0
"Iron, Fe",mg,--,--,0.00,0.00
"Sodium, Na",mg,--,--,100,333
Vitamins
"Vitamin C, total ascorbic acid",mg,--,--,0.0,0.0
"Vitamin A, IU",IU,--,--,0,0
Lipids
"Fatty acids, total saturated",g,--,--,0.999,3.330
"Cholesterol",mg,--,--,0,0
Amino Acids
Other
Ingredients
"VINEGAR, SOYBEAN OIL, WATER, CORN SYRUP, TOMATO PUREE, MUSTARD FLOUR, DEHYDRATED GARLIC & ONION, SALT, BLACK PEPPER, CRUSHED RED PEPPERS, CAYENNE PEPPER, SPICES, NATURAL FLAVOR, GUM STABILIZERS (GUAR, CARRAGEENAN, XANTHN), MONOSODIUM GLUTAMATE (LESS THAN 1%), POTASSIUM SORBATE & SODIUM BENZOATE." Date available: 07/14/2017 Date last updated by company: 07/14/2017
