Source: USDA Branded Food Products Database Release December 2017 Software v.3.8.6.4 2017-10-02
Report Run at: December 18, 2017 08:26 EST
"Nutrient data for: 45136306, SUGAR CRACKERS, UPC: 9556390178160"
Food Group:  Branded Food Products Database
Common Name:

Nutrient,Unit,Data points,Std. Error,"3.0 PCS = 22.0g",1Value per 100 g,
Proximates
"Energy",kcal,--,--,97,441
"Protein",g,--,--,2.00,9.09
"Total lipid (fat)",g,--,--,3.00,13.64
"Carbohydrate, by difference",g,--,--,16.00,72.73
"Fiber, total dietary",g,--,--,1.0,4.5
"Sugars, total",g,--,--,2.00,9.09
Minerals
"Calcium, Ca",mg,--,--,0,0
"Iron, Fe",mg,--,--,0.41,1.86
"Sodium, Na",mg,--,--,158,718
Vitamins
"Vitamin C, total ascorbic acid",mg,--,--,0.0,0.0
"Vitamin A, IU",IU,--,--,0,0
Lipids
"Fatty acids, total saturated",g,--,--,1.001,4.550
"Fatty acids, total trans",g,--,--,0.000,0.000
"Cholesterol",mg,--,--,2,9
Amino Acids
Other
Ingredients
"WHEAT FLOUR, SUGAR, VEGETABLE FAT (PALM BASE), CORN STARCH, VEGETABLE OIL (PALM OLEIN), GLUCOSE SYRUP, LEAVENING AGENT (AMMONIUM BICARBONATE, SODIUM BICARBONATE, SODIUM ACID PYROPHOSPHATE), SALT, WHEY POWDER (CONTAINS LACTOSE), CONTAINS PERMITTED FOOD CONDITIONER (EMULSIFIER-OLEO CREAM, ENZYME), YEAST, MILK FAT, CONTAINS PERMITTED FLAVOURING (MILK, VANILLIN AND BUTTER)." Date available: 09/20/2017 Date last updated by company: 09/20/2017
