Source: USDA Branded Food Products Database Release December 2017 Software v.3.8.6.4 2017-10-02
Report Run at: December 18, 2017 08:31 EST
"Nutrient data for: 45274168, SUGARFREE GUM, UPC: 185738001168"
Food Group:  Branded Food Products Database
Common Name:

Nutrient,Unit,Data points,Std. Error,"2.0 PIECES = 2.9g",1Value per 100 g,
Proximates
"Energy",kcal,--,--,5,172
"Protein",g,--,--,0.00,0.00
"Total lipid (fat)",g,--,--,0.00,0.00
"Carbohydrate, by difference",g,--,--,2.00,68.97
"Sugars, total",g,--,--,0.00,0.00
Minerals
"Sodium, Na",mg,--,--,0,0
Vitamins
Lipids
Amino Acids
Other
Ingredients
"SORBITOL, MALTITOL, CHEWING GUM BASE, NATURAL AND ARTIFICIAL FLAVORS, GUM ARABIC, ASPARTAME*, TITANIUM DIOXIDE COLOR, ACESULFAME POTASSIUM, LECITHIN (SUNFLOWER), CARNAUBA WAX." Date available: 07/14/2017 Date last updated by company: 07/14/2017
