Source: USDA Branded Food Products Database Release December 2017 Software v.3.8.6.4 2017-10-02
Report Run at: December 18, 2017 08:32 EST
"Nutrient data for: 45295657, SUGARFREE GUM, UPC: 022000017383"
Food Group:  Branded Food Products Database
Common Name:

Nutrient,Unit,Data points,Std. Error,"1 PIECE = 1.9g",1Value per 100 g,
Proximates
"Energy",kcal,--,--,5,263
"Protein",g,--,--,0.00,0.00
"Total lipid (fat)",g,--,--,0.00,0.00
"Carbohydrate, by difference",g,--,--,1.00,52.63
"Sugars, total",g,--,--,0.00,0.00
Minerals
"Sodium, Na",mg,--,--,0,0
Vitamins
Lipids
Amino Acids
Other
Ingredients
"MADE OF: SORBITOL. GUM BASE, XYLITOL, GLYCEROL, NATURAL AND ARTIFICIAL FLAVORS, MANNITOL; LESS THAN 2% OF: SOY LECITHIN, HYDROGENATED STARCH HYDROLYSATE, ACESULFAME K, SUCRALOSE, COLORS (RED 40, RED 40 LAKE), BHT (TO M,AINTAIN FRESHNESS), ASPARTAME." Date available: 06/25/2017 Date last updated by company: 06/25/2017
