Source: USDA Branded Food Products Database Release December 2017 Software v.3.8.6.4 2017-10-02
Report Run at: December 18, 2017 08:29 EST
"Nutrient data for: 45318774, SUGAR FREE FAT FREE PUDDING, UPC: 041498113599"
Food Group:  Branded Food Products Database
Common Name:

Nutrient,Unit,Data points,Std. Error,"0.25 PACKAGE (MAKES 1/2 CUP) = 10.0g",1Value per 100 g,
Proximates
"Energy",kcal,--,--,30,300
"Protein",g,--,--,0.00,0.00
"Total lipid (fat)",g,--,--,0.00,0.00
"Carbohydrate, by difference",g,--,--,7.00,70.00
"Fiber, total dietary",g,--,--,1.0,10.0
"Sugars, total",g,--,--,0.00,0.00
Minerals
"Calcium, Ca",mg,--,--,100,1000
"Iron, Fe",mg,--,--,3.60,36.00
"Sodium, Na",mg,--,--,250,2500
Vitamins
"Vitamin C, total ascorbic acid",mg,--,--,0.0,0.0
"Vitamin A, IU",IU,--,--,0,0
Lipids
"Fatty acids, total saturated",g,--,--,0.000,0.000
"Fatty acids, total trans",g,--,--,0.000,0.000
"Cholesterol",mg,--,--,0,0
Amino Acids
Other
Ingredients
"MODIFIED FOOD STARCH, COCOA, MALTODEXTRIN, TETRASODIUM PYROPHOSHATE, CORNSTARCH, DISODIUM PHOSPHATE, SALT, SOY LECITHIN, CALCIUM SULFATE, MONO AND DIGLYCERIDES, NONFAT MILK, MODIFIED CORNSTARCH, ASPARTAME*, ACESULFAME POTASSIUM, XANTHAN GUM, TRIACETIN, PROPYLENE GLYCOL." Date available: 10/13/2017 Date last updated by company: 10/13/2017
