Source: USDA Branded Food Products Database Release December 2017 Software v.3.8.6.4 2017-10-02
Report Run at: December 18, 2017 08:26 EST
"Nutrient data for: 45161664, SUGARFINA, ICE CREAM CONES CANDY, UPC: 840278114135"
Food Group:  Branded Food Products Database
Common Name:

Nutrient,Unit,Data points,Std. Error,"9.0 PIECES = 40.0g",1Value per 100 g,
Proximates
"Energy",kcal,--,--,133,332
"Protein",g,--,--,2.00,5.00
"Total lipid (fat)",g,--,--,0.00,0.00
"Carbohydrate, by difference",g,--,--,31.00,77.50
"Fiber, total dietary",g,--,--,0.0,0.0
"Sugars, total",g,--,--,28.00,70.00
Minerals
"Calcium, Ca",mg,--,--,0,0
"Iron, Fe",mg,--,--,0.00,0.00
"Sodium, Na",mg,--,--,0,0
Vitamins
"Vitamin C, total ascorbic acid",mg,--,--,1.5,3.8
"Vitamin A, IU",IU,--,--,0,0
Lipids
"Fatty acids, total saturated",g,--,--,0.000,0.000
"Fatty acids, total trans",g,--,--,0.000,0.000
"Cholesterol",mg,--,--,0,0
Amino Acids
Other
Ingredients
"GLUCOSE SYRUP, SUGAR, INVERT SUGAR, SYRUP, PECTIN, CITRIC ACID, LACTIC ACID, HYDROLYSED MILK PROTEIN, NATURAL FLAVORING, NATURAL COLORING (BLACK CURRANT, CARROT, SWEET POTATO, RADISH, APPLE), COLOR ADDED (CURCUMIN, BLUE 1, TITANIUM DIOXIDE), PALM KERNEL OIL, BEESWAX, CARNAUBA WAX." Date available: 07/14/2017 Date last updated by company: 07/14/2017
