Source: USDA Branded Food Products Database Release December 2017 Software v.3.8.6.4 2017-10-02
Report Run at: December 18, 2017 08:30 EST
"Nutrient data for: 45328856, SUGAR-FREE GUMMI BEARS, UPC: 071567996020"
Food Group:  Branded Food Products Database
Common Name:

Nutrient,Unit,Data points,Std. Error,"25.0 PIECES = 40.0g",1Value per 100 g,
Proximates
"Energy",kcal,--,--,70,175
"Protein",g,--,--,2.00,5.00
"Total lipid (fat)",g,--,--,0.00,0.00
"Carbohydrate, by difference",g,--,--,28.00,70.00
"Fiber, total dietary",g,--,--,9.0,22.5
Minerals
"Sodium, Na",mg,--,--,10,25
Vitamins
Lipids
Amino Acids
Other
Ingredients
"MALTITOL SYRUP, POLYDEXTROSE, MALTITOL, KOSHER GELATIN, CONTAINS 2% OR LESS OF THE FOLLOWING: CITRIC ACID, MALIC ACID, SUCRALOSE, *COCONUT OIL, CARNAUBA WAX, NATURAL AND ARTIFICIAL FLAVORS, RED 40, YELLOW 5 & 6, BLUE 1." Date available: 10/13/2017 Date last updated by company: 10/13/2017
