Source: USDA Branded Food Products Database Release December 2017 Software v.3.8.6.4 2017-10-02
Report Run at: December 18, 2017 08:28 EST
"Nutrient data for: 45330022, SUGAR FREE CHEWING GUM, UPC: 830028001518"
Food Group:  Branded Food Products Database
Common Name:

Nutrient,Unit,Data points,Std. Error,"2.0 PIECES = 2.8g",1Value per 100 g,
Proximates
"Energy",kcal,--,--,5,179
"Protein",g,--,--,0.00,0.00
"Total lipid (fat)",g,--,--,0.00,0.00
"Carbohydrate, by difference",g,--,--,2.00,71.43
Minerals
"Sodium, Na",mg,--,--,0,0
Vitamins
Lipids
Amino Acids
Other
Ingredients
"XYLITOL, GUM BASE, GUM ARABIC, NATURAL FLAVORS, GLYCEROL, CARNAUBA WAX, TOCOPHEROLS." Date available: 10/13/2017 Date last updated by company: 10/13/2017
