Source: USDA Branded Food Products Database Release December 2017 Software v.3.8.6.4 2017-10-02
Report Run at: December 18, 2017 08:34 EST
"Nutrient data for: 45175991, SUGARFREE MINTS, UPC: 073390009229"
Food Group:  Branded Food Products Database
Common Name:

Nutrient,Unit,Data points,Std. Error,"1 PIECE = 0.62g",1Value per 100 g,
Proximates
"Energy",kcal,--,--,1,161
"Protein",g,--,--,0.00,0.00
"Total lipid (fat)",g,--,--,0.00,0.00
"Sugars, total",g,--,--,0.00,0.00
Minerals
Vitamins
Lipids
Amino Acids
Other
Ingredients
"KYLITOL, NATURAL AND ARTIFICIAL FLAVORS, MALTODEXTRIN, COLOR (TITANIUM DIOXIDE), MAGNESIUM SALTS OF FATTY ACIDS, ASPARTAME, COCONUT FAT, SODIUM CARBOXYMETHYLCELLULOSE, CORN STARCH, ACESULFAME K, GUM ARABIC." Date available: 07/14/2017 Date last updated by company: 07/14/2017
