Source: USDA Branded Food Products Database Release December 2017 Software v.3.8.6.4 2017-10-02
Report Run at: December 18, 2017 08:25 EST
"Nutrient data for: 45105809, SUGAR COOKIE WITH SPRINKLES MIX, UPC: 094522077817"
Food Group:  Branded Food Products Database
Common Name:

Nutrient,Unit,Data points,Std. Error,"0.083 OF DRY MIX = 35.0g",1Value per 100 g,
Proximates
"Energy",kcal,--,--,130,371
"Protein",g,--,--,2.00,5.71
"Total lipid (fat)",g,--,--,0.00,0.00
"Carbohydrate, by difference",g,--,--,29.00,82.86
"Fiber, total dietary",g,--,--,0.0,0.0
"Sugars, total",g,--,--,16.00,45.71
Minerals
"Calcium, Ca",mg,--,--,20,57
"Iron, Fe",mg,--,--,0.82,2.35
"Sodium, Na",mg,--,--,160,457
Vitamins
"Vitamin C, total ascorbic acid",mg,--,--,2.7,7.8
"Vitamin A, IU",IU,--,--,0,0
Lipids
"Fatty acids, total saturated",g,--,--,0.000,0.000
"Fatty acids, total trans",g,--,--,0.000,0.000
"Cholesterol",mg,--,--,0,0
Amino Acids
Other
Ingredients
"COOKIE MIX: ENRICHED WHEAT FLOUR (BLEACHED WHEAT FLOUR, ENZYME, NIACIN, IRON, THIAMIN MONONITRATE, RIBOFLAVIN, FOLIC ACID), SUGAR, SPRINKLES (SUGAR, CORN STARCH, PARTIALLY HYDROGENATED VEGETABLE OIL (COTTONSEED AND/OR SOYBEAN), SOY LECITHIN, DEXTRIN, CONFECTIONER'S GLAZE, NATURAL AND ARTIFICIAL FLAVORS, FD&C RED 40 LAKE, YELLOW 6 LAKE, BLUE 1 LAKE, YELLOW 5 LAKE, RED 3, BLUE 1, RED 40, CARNAUBA WAX), NON-FAT DRY MILK, CREAM OF TARTAR, LIGHT BROWN SUGAR, NATURAL AND ARTIFICIAL VANILLA FLAVOR, SODIUM BICARBONATE, SALT, BAKING POWDER (SODIUM ACID PYROPHOSPHATE, SODIUM BICARBONATE, CORN STARCH, MONOCALCIUM PHOSPHATE)." Date available: 07/14/2017 Date last updated by company: 07/14/2017
