Source: USDA Branded Food Products Database Release December 2017 Software v.3.8.6.4 2017-10-02
Report Run at: December 18, 2017 08:31 EST
"Nutrient data for: 45259874, SUGAR FREE GUM, UPC: 022000123800"
Food Group:  Branded Food Products Database
Common Name:

Nutrient,Unit,Data points,Std. Error,"2.0 PIECES = 3.0g",1Value per 100 g,
Proximates
"Energy",kcal,--,--,5,167
"Protein",g,--,--,0.00,0.00
"Total lipid (fat)",g,--,--,0.00,0.00
"Carbohydrate, by difference",g,--,--,2.00,66.67
"Sugars, total",g,--,--,0.00,0.00
Minerals
"Sodium, Na",mg,--,--,0,0
Vitamins
Lipids
Amino Acids
Other
Ingredients
"MADE OF: SORBITOL, MALTITOL, GUM BASE, GLYCEROL, LESS THAN 2% OF: ACACIA, NATURAL AND ARTIFICIAL FLAVORS, COLOR (TITANIUM DIOXIDE), MALIC ACID, ASPARTAME, CITRIC ACID, ASPARTAME-ACESULFAME, ACESULFAME K, SOY LECITHIN, CARNAUBA WAX, BHT (TO MAINTAIN FRESHNESS)." Date available: 07/14/2017 Date last updated by company: 07/14/2017
