Source: USDA Branded Food Products Database Release December 2017 Software v.3.8.6.4 2017-10-02
Report Run at: December 18, 2017 08:35 EST
"Nutrient data for: 45210018, SUGAR FREE SAMPLER COOKIE, UPC: 037695155104"
Food Group:  Branded Food Products Database
Common Name:

Nutrient,Unit,Data points,Std. Error,"2.0 COOKIES = 25.0g",1Value per 100 g,
Proximates
"Energy",kcal,--,--,110,440
"Protein",g,--,--,1.00,4.00
"Total lipid (fat)",g,--,--,7.00,28.00
"Carbohydrate, by difference",g,--,--,14.00,56.00
"Fiber, total dietary",g,--,--,2.0,8.0
"Sugars, total",g,--,--,0.00,0.00
Minerals
"Calcium, Ca",mg,--,--,0,0
"Iron, Fe",mg,--,--,1.44,5.76
"Sodium, Na",mg,--,--,30,120
Vitamins
"Vitamin C, total ascorbic acid",mg,--,--,0.0,0.0
"Vitamin A, IU",IU,--,--,200,800
Lipids
"Fatty acids, total saturated",g,--,--,4.000,16.000
"Fatty acids, total trans",g,--,--,0.000,0.000
"Cholesterol",mg,--,--,0,0
Amino Acids
Other
Ingredients
"ENRICHED WHEAT FLOUR (WHEAT FLOUR, NIACIN, REDUCED IRON, THIAMINE MONONITRATE, RIBOFLAVIN, FOLIC ACID), PALM & SOYBEAN OILS, SORBITOL, POLYDEXTROSE, NATURAL COCOA, COCOA PROCESSED WITH ALKALI, EGG WHITES, COCONUT, NATURAL & ARTIFICIAL FLAVORS (CONTAINS MILK), ASPARTAME (NUTRASWEET BRAND SWEETENER), MONO & DIGLYCERIDES, BETA CAROTENE AS COLOR, VITAMIN A PALMITATE, YELLOW 5, YELLOW 6, RED 3, RED 40, BLUE 1. SUGAR FREE COATING INGREDIENTS: MALTITOL, PARTIALLY HYDROGENATED PALM KERNEL AND PALM OILS (WITH GLYCERYL LACTO ESTERS), COCOA PROCESSED WITH ALKALI, COCOA, MILK FAT, SOY LECITHIN (ADDED AS AN EMULSIFIER), VANILLA EXTRACT. JELLY INGREDIENTS: WATER, RASPBERRIES*, SORBITOL, GLYCERINE, MODIFIED STARCH, AGAR, SODIUM SACCHARIN, NATURAL, NATURAL & ARTIFICIAL RASPBERRY FLAVOR, CITRIC ACID, RED 40, BLUE 1, POTASSIUM SORBATE & SODIUM BENZOATE (USED AS PRESERVATIVES), YELLOW 5, YELLOW 6." Date available: 07/14/2017 Date last updated by company: 07/14/2017
