Source: USDA Branded Food Products Database Release December 2017 Software v.3.8.6.4 2017-10-02
Report Run at: December 18, 2017 08:27 EST
"Nutrient data for: 45269204, SUGARFINA, UPC: 840278123953"
Food Group:  Branded Food Products Database
Common Name:

Nutrient,Unit,Data points,Std. Error,"9.0 PIECES | ABOUT = 40.0g",1Value per 100 g,
Proximates
"Energy",kcal,--,--,134,335
"Protein",g,--,--,2.00,5.00
"Total lipid (fat)",g,--,--,0.00,0.00
"Carbohydrate, by difference",g,--,--,31.00,77.50
"Fiber, total dietary",g,--,--,0.0,0.0
"Sugars, total",g,--,--,20.00,50.00
Minerals
"Calcium, Ca",mg,--,--,0,0
"Iron, Fe",mg,--,--,0.00,0.00
"Sodium, Na",mg,--,--,0,0
Vitamins
"Vitamin C, total ascorbic acid",mg,--,--,7.5,18.8
"Vitamin A, IU",IU,--,--,0,0
Lipids
"Fatty acids, total saturated",g,--,--,0.000,0.000
"Fatty acids, total trans",g,--,--,0.000,0.000
"Cholesterol",mg,--,--,0,0
Amino Acids
Other
Ingredients
"GLUCOSE SYRUP, SUGAR, GELATIN, WHISPERING ANGEL ROSE FRUIT JUICE FROM CONCENTRATE (STRAWBERRY), CITRIC ACID, LACTIC ACID, PECTIN, NATURAL FLAVOR, NATURAL COLOR (BLACK CURRANT, CARROT), VEGETABLE OILS (COCONUT, PALM KERNEL), BEESWAX CARNAUBA WAX." Date available: 07/14/2017 Date last updated by company: 07/14/2017
