Source: USDA Branded Food Products Database Release December 2017 Software v.3.8.6.4 2017-10-02
Report Run at: December 18, 2017 08:24 EST
"Nutrient data for: 45123246, SUGAR COOKIES DOUGH, UPC: 719283967787"
Food Group:  Branded Food Products Database
Common Name:

Nutrient,Unit,Data points,Std. Error,"1 -0.5"""" BALL, 1 COOKIE = 29.0g",1Value per 100 g,
Proximates
"Energy",kcal,--,--,120,414
"Protein",g,--,--,1.00,3.45
"Total lipid (fat)",g,--,--,5.00,17.24
"Carbohydrate, by difference",g,--,--,18.00,62.07
"Fiber, total dietary",g,--,--,0.0,0.0
"Sugars, total",g,--,--,9.00,31.03
Minerals
"Calcium, Ca",mg,--,--,0,0
"Iron, Fe",mg,--,--,0.99,3.43
"Sodium, Na",mg,--,--,160,552
Vitamins
"Vitamin C, total ascorbic acid",mg,--,--,0.0,0.0
"Vitamin A, IU",IU,--,--,0,0
Lipids
"Fatty acids, total saturated",g,--,--,2.001,6.900
"Fatty acids, total trans",g,--,--,0.000,0.000
"Cholesterol",mg,--,--,0,0
Amino Acids
Other
Ingredients
"ENRICHED BLEACHED FLOUR [WHEAT FLOUR, NIACIN, IRON, THIAMIN MONONITRATE (VITAMIN B1), RIBOFLAVIN (VITAMIN B2), FOLIC ACID], SUGAR, VEGETABLE OIL (PALM, SOYBEAN AND/OR COTTONSEED OILS), SKIM MILK. CONTAINS 2% OR LESS OF EACH OF THE FOLLOWING: WATER, EGGS, BAKING SODA, SALT, NATURAL AND ARTIFICIAL FLAVOR." Date available: 07/14/2017 Date last updated by company: 07/14/2017
