Source: USDA Branded Food Products Database Release December 2017 Software v.3.8.6.4 2017-10-02
Report Run at: December 18, 2017 08:42 EST
"Nutrient data for: 45147917, SUJA, ORGANIC DRINKING VINEGAR, UPC: 857529006460"
Food Group:  Branded Food Products Database
Common Name:

Nutrient,Unit,Data points,Std. Error,"1 BOTTLE = 399.0g",1Value per 100 g,
Proximates
"Energy",kcal,--,--,20,5
"Protein",g,--,--,0.00,0.00
"Total lipid (fat)",g,--,--,0.00,0.00
"Carbohydrate, by difference",g,--,--,4.99,1.25
"Fiber, total dietary",g,--,--,0.0,0.0
"Sugars, total",g,--,--,3.99,1.00
Minerals
"Calcium, Ca",mg,--,--,20,5
"Iron, Fe",mg,--,--,0.00,0.00
"Sodium, Na",mg,--,--,24,6
Vitamins
"Vitamin C, total ascorbic acid",mg,--,--,1.2,0.3
"Vitamin A, IU",IU,--,--,92,23
Lipids
"Fatty acids, total saturated",g,--,--,0.000,0.000
"Fatty acids, total trans",g,--,--,0.000,0.000
"Cholesterol",mg,--,--,0,0
Amino Acids
Other
Ingredients
"WATER, ORGANIC APPLE CIDER VINEGAR, ORGANIC HIBISCUS, ORGANIC COCONUT NECTAR, ORGANIC LEMON JUICE, ORGANIC ANCHO CHILE, BACILLUS COAGLULANS GBI-306086, ORGANIC STEVIA LEAF EXTRACT POWDER." Date available: 07/14/2017 Date last updated by company: 07/14/2017
