Source: USDA Branded Food Products Database Release December 2017 Software v.3.8.6.4 2017-10-02
Report Run at: December 18, 2017 08:42 EST
"Nutrient data for: 45170390, SUJA, ORGANIC CRUSHED PROBIOTIC ENHANCED WATER BEVERAGE, STRAWBERRY, UPC: 857529006279"
Food Group:  Branded Food Products Database
Common Name:

Nutrient,Unit,Data points,Std. Error,"1 BOTTLE = 399.0g",1Value per 100 g,
Proximates
"Energy",kcal,--,--,12,3
"Protein",g,--,--,0.00,0.00
"Total lipid (fat)",g,--,--,0.00,0.00
"Carbohydrate, by difference",g,--,--,2.00,0.50
"Fiber, total dietary",g,--,--,1.2,0.3
"Sugars, total",g,--,--,1.00,0.25
Minerals
"Calcium, Ca",mg,--,--,20,5
"Iron, Fe",mg,--,--,0.00,0.00
"Sodium, Na",mg,--,--,16,4
Vitamins
"Vitamin C, total ascorbic acid",mg,--,--,16.4,4.1
"Vitamin A, IU",IU,--,--,0,0
Lipids
"Fatty acids, total saturated",g,--,--,0.000,0.000
"Fatty acids, total trans",g,--,--,0.000,0.000
"Cholesterol",mg,--,--,0,0
Amino Acids
Other
Ingredients
"WATER, ORGANIC STRAWBERRY PUREE, PROBIOTIC BACILLUS COAGULANS GBI-30 6086" Date available: 07/14/2017 Date last updated by company: 07/14/2017
