Source: USDA Branded Food Products Database Release December 2017 Software v.3.8.6.4 2017-10-02
Report Run at: December 18, 2017 08:46 EST
"Nutrient data for: 45214075, SUMMER STRIPS SOFT CANDY, UPC: 041420013935"
Food Group:  Branded Food Products Database
Common Name:

Nutrient,Unit,Data points,Std. Error,"3.0 PIECES = 15.0g",1Value per 100 g,
Proximates
"Energy",kcal,--,--,60,400
"Protein",g,--,--,0.00,0.00
"Total lipid (fat)",g,--,--,0.00,0.00
"Carbohydrate, by difference",g,--,--,15.00,100.00
"Sugars, total",g,--,--,15.00,100.00
Minerals
"Sodium, Na",mg,--,--,10,67
Vitamins
Lipids
Amino Acids
Other
Ingredients
"SUGAR, CITRIC ACID, MALIC ACID, NATURAL AND ARTIFICIAL FLAVORS, RED 40, TITANIUM DIOXIDE [COLOR], BLUE 1, YELLOW 6, YELLOW 5, RED 40 LAKE." Date available: 07/14/2017 Date last updated by company: 07/14/2017
