Source: USDA Branded Food Products Database Release December 2017 Software v.3.8.6.4 2017-10-02
Report Run at: December 18, 2017 08:46 EST
"Nutrient data for: 45268800, SUMMER TRUFFLE CARPACCIO, UPC: 800063106219"
Food Group:  Branded Food Products Database
Common Name:

Nutrient,Unit,Data points,Std. Error,"1.3 ONZ = 38.0g",1Value per 100 g,
Proximates
"Energy",kcal,--,--,35,91
"Total lipid (fat)",g,--,--,3.20,8.42
"Carbohydrate, by difference",g,--,--,1.30,3.42
"Fiber, total dietary",g,--,--,0.5,1.3
Minerals
"Iron, Fe",mg,--,--,0.33,0.87
"Sodium, Na",mg,--,--,39,103
Vitamins
"Vitamin C, total ascorbic acid",mg,--,--,0.9,2.5
Lipids
"Fatty acids, total trans",g,--,--,0.000,0.000
"Cholesterol",mg,--,--,0,0
Amino Acids
Other
Ingredients
"BLACK SUMMER TRUFFLE, EXTRA VIRGIN OLIVE OIL, SALT, FLAVOURS." Date available: 10/19/2017 Date last updated by company: 10/19/2017
