Source: USDA Branded Food Products Database Release December 2017 Software v.3.8.6.4 2017-10-02
Report Run at: December 18, 2017 08:45 EST
"Nutrient data for: 45325282, SUMMER PEACH SALAD WITH CHICKEN, UPC: 030223018384"
Food Group:  Branded Food Products Database
Common Name:

Nutrient,Unit,Data points,Std. Error,"1 SALAD = 220.0g",1Value per 100 g,
Proximates
"Energy",kcal,--,--,209,95
"Protein",g,--,--,13.99,6.36
"Total lipid (fat)",g,--,--,11.00,5.00
"Carbohydrate, by difference",g,--,--,13.99,6.36
"Fiber, total dietary",g,--,--,2.0,0.9
"Sugars, total",g,--,--,10.01,4.55
Minerals
"Calcium, Ca",mg,--,--,251,114
"Iron, Fe",mg,--,--,1.72,0.78
"Sodium, Na",mg,--,--,649,295
Vitamins
"Vitamin C, total ascorbic acid",mg,--,--,15.2,6.9
"Vitamin A, IU",IU,--,--,3500,1591
Lipids
"Fatty acids, total saturated",g,--,--,4.004,1.820
"Fatty acids, total trans",g,--,--,0.000,0.000
"Cholesterol",mg,--,--,35,16
Amino Acids
Other
Ingredients
"ARUGULA, CHICKEN BREAST MEAT WITH RIB MEAT (CHICKEN BREAST MEAT WITH RIB MEAT, WATER, CULTURED SUGAR AND VINEGAR, POTATO STARCH, SEA SALT, NATURAL FLAVORINGS), BALSAMIC VINAIGRETTE DRESSING (WATER, BALSAMIC VINEGAR, SOYBEAN OIL, SUGAR, DISTILLED VINEGAR, SALT, CONTAINS LESS THAN 2% OF EXTRA VIRGIN OLIVE OIL, SPICES, DEHYDRATED GARLIC, MUSTARD SEED, SUN-DRIED TOMATOES, XANTHAN GUM, WHITE WINE, CITRIC ACID, TARTARIC ACID, TURMERIC, CALCIUM DISODIUM EDTA ADDED TO PROTECT FLAVOR), BABY SPINACH, MOZZARELLA (PASTEURIZED MILK, LACTIC, SALT AND RENNET), PEACHES, RED CABBAGE, CARROT." Date available: 08/11/2017 Date last updated by company: 08/11/2017
