Source: USDA Branded Food Products Database Release December 2017 Software v.3.8.6.4 2017-10-02
Report Run at: December 18, 2017 08:49 EST
"Nutrient data for: 45287221, SUN BUTTER & JELLY PROTEIN BAR, UPC: 853009004414"
Food Group:  Branded Food Products Database
Common Name:

Nutrient,Unit,Data points,Std. Error,"1 BAR = 60.0g",1Value per 100 g,
Proximates
"Energy",kcal,--,--,225,375
"Protein",g,--,--,15.00,25.00
"Total lipid (fat)",g,--,--,8.00,13.33
"Carbohydrate, by difference",g,--,--,30.00,50.00
"Fiber, total dietary",g,--,--,6.0,10.0
"Sugars, total",g,--,--,11.00,18.33
Minerals
"Calcium, Ca",mg,--,--,70,117
"Iron, Fe",mg,--,--,2.04,3.40
"Sodium, Na",mg,--,--,75,125
Vitamins
"Vitamin C, total ascorbic acid",mg,--,--,1.2,2.0
"Vitamin A, IU",IU,--,--,34,56
Lipids
"Fatty acids, total saturated",g,--,--,0.000,0.000
"Fatty acids, total trans",g,--,--,0.000,0.000
"Cholesterol",mg,--,--,0,0
Amino Acids
Other
Ingredients
"DATE PASTE, BROWN RICE PROTEIN, SUNFLOWER SEED BUTTER, SUNFLOWER SEED, COCONUT OIL, PEA CRISPS PEA PROTEIN ISOLATE, RICE FLOUR, RICE STARCH), CHIA SEEDS, DRIED BLUEBERRY, DRIED STRAWBERRY, UNSWEETENED COCONUT, CHICORY ROOT, HIMALAYAN PINK SALT." Date available: 10/06/2017 Date last updated by company: 10/06/2017
