Source: USDA Branded Food Products Database Release December 2017 Software v.3.8.6.4 2017-10-02
Report Run at: December 18, 2017 09:36 EST
"Nutrient data for: 45085357, SUN VALLEY'S, SALT & PEPPER SUN FLOWER SEEDS, UPC: 835144031111"
Food Group:  Branded Food Products Database
Common Name:

Nutrient,Unit,Data points,Std. Error,"1 ONZ = 28.0g",1Value per 100 g,
Proximates
"Energy",kcal,--,--,179,639
"Protein",g,--,--,5.00,17.86
"Total lipid (fat)",g,--,--,14.00,50.00
"Carbohydrate, by difference",g,--,--,3.00,10.71
"Fiber, total dietary",g,--,--,2.0,7.1
"Sugars, total",g,--,--,0.00,0.00
Minerals
"Calcium, Ca",mg,--,--,20,71
"Iron, Fe",mg,--,--,1.93,6.88
"Sodium, Na",mg,--,--,352,1257
Vitamins
"Vitamin C, total ascorbic acid",mg,--,--,2.2,7.7
"Vitamin A, IU",IU,--,--,0,0
Lipids
"Fatty acids, total saturated",g,--,--,1.000,3.570
"Fatty acids, total trans",g,--,--,0.000,0.000
"Cholesterol",mg,--,--,0,0
Amino Acids
Other
Ingredients
"SUNFLOWER SEEDS, SALT, VEGETABLE OIL (MAY CONTAIN ONE OR MORE OF THE FOLLOWING: COTTONSEED, SUNFLOWER), MALTODEXTRIN, SPICE." Date available: 07/14/2017 Date last updated by company: 07/14/2017
