Source: USDA Branded Food Products Database Release December 2017 Software v.3.8.6.4 2017-10-02
Report Run at: December 18, 2017 08:56 EST
"Nutrient data for: 45018011, SUN FLOUR MILLS, WHOLE GRAIN PIZZA CRUST & FRENCH BREAD, UPC: 850683004037"
Food Group:  Branded Food Products Database
Common Name:

Nutrient,Unit,Data points,Std. Error,"41.0 g = 41.0g",1Value per 100 g,
Proximates
"Energy",kcal,--,--,140,341
"Protein",g,--,--,2.00,4.88
"Total lipid (fat)",g,--,--,0.00,0.00
"Carbohydrate, by difference",g,--,--,29.00,70.73
"Fiber, total dietary",g,--,--,3.0,7.3
"Sugars, total",g,--,--,2.00,4.88
Minerals
"Calcium, Ca",mg,--,--,10,24
"Iron, Fe",mg,--,--,0.54,1.32
"Sodium, Na",mg,--,--,391,954
Vitamins
"Vitamin C, total ascorbic acid",mg,--,--,0.0,0.0
"Vitamin A, IU",IU,--,--,0,0
Lipids
"Fatty acids, total saturated",g,--,--,0.00,0.00
"Fatty acids, total trans",g,--,--,0.00,0.00
"Cholesterol",mg,--,--,0,0
Amino Acids
Other
Ingredients
"BROWN RICE FLOUR, CORNSTARCH, TAPIOCA STARCH, CANE SUGAR, SALT, XANTHAN GUM, YEAST." Date last updated by company: 04/29/2015
