Source: USDA Branded Food Products Database Release December 2017 Software v.3.8.6.4 2017-10-02
Report Run at: December 18, 2017 08:54 EST
"Nutrient data for: 45330474, SUN-DRIED TOMATOES IN OIL, UPC: 8005695009514"
Food Group:  Branded Food Products Database
Common Name:

Nutrient,Unit,Data points,Std. Error,"0.5 cup = 120.0g",1Value per 100 g,
Proximates
"Energy",kcal,--,--,230,192
"Protein",g,--,--,6.00,5.00
"Total lipid (fat)",g,--,--,14.00,11.67
"Carbohydrate, by difference",g,--,--,17.00,14.17
"Fiber, total dietary",g,--,--,6.0,5.0
"Sugars, total",g,--,--,3.00,2.50
Minerals
"Calcium, Ca",mg,--,--,80,67
"Iron, Fe",mg,--,--,1.04,0.87
"Potassium, K",mg,--,--,306,255
"Sodium, Na",mg,--,--,2100,1750
Vitamins
"Vitamin D",IU,--,--,0,0
Lipids
"Fatty acids, total saturated",g,--,--,1.500,1.250
"Fatty acids, total trans",g,--,--,0.000,0.000
"Cholesterol",mg,--,--,0,0
Amino Acids
Other
Ingredients
"DRIED TOMATOES 50%, SUNFLOWER OIL, PEPPERS, CAPERS, WINE VINEGAR, SALT, OREGANO, HOT CHILLY, GARLIC AROMA, CITRIC ACID, PRESERVATIVE ASCORBIC ACID." Date available: 10/13/2017 Date last updated by company: 10/13/2017
