Source: USDA Branded Food Products Database Release December 2017 Software v.3.8.6.4 2017-10-02
Report Run at: December 18, 2017 09:13 EST
"Nutrient data for: 45032461, SUN OF ITALY, SPAGHETTI SAUCE, TOMATO & BASIL, UPC: 033698816882"
Food Group:  Branded Food Products Database
Common Name:

Nutrient,Unit,Data points,Std. Error,"0.5 cup = 124.0g",1Value per 100 g,
Proximates
"Energy",kcal,--,--,81,65
"Protein",g,--,--,2.00,1.61
"Total lipid (fat)",g,--,--,2.50,2.02
"Carbohydrate, by difference",g,--,--,13.00,10.48
"Fiber, total dietary",g,--,--,2.0,1.6
"Sugars, total",g,--,--,8.00,6.45
Minerals
"Calcium, Ca",mg,--,--,20,16
"Iron, Fe",mg,--,--,0.76,0.61
"Sodium, Na",mg,--,--,440,355
Vitamins
"Vitamin C, total ascorbic acid",mg,--,--,0.0,0.0
"Vitamin A, IU",IU,--,--,792,639
Lipids
"Fatty acids, total saturated",g,--,--,0.000,0.000
"Fatty acids, total trans",g,--,--,0.000,0.000
"Cholesterol",mg,--,--,0,0
Amino Acids
Other
Ingredients
"TOMATO PUREE (WATER, TOMATO PASTE, CITRIC ACID), DICED TOMATOES IN TOMATO JUICE, SUGAR, SOYBEAN OIL, SALT, EXTRA VIRGIN OLIVE OIL, DRIED ONION, SPICES, BASIL, DRIED GARLIC." Date available: 07/14/2017 Date last updated by company: 07/14/2017
