Source: USDA Branded Food Products Database Release December 2017 Software v.3.8.6.4 2017-10-02
Report Run at: December 18, 2017 08:56 EST
"Nutrient data for: 45240337, SUN EXOTIC, SPARKLING TROPICAL JUICE SOFT DRINK, TROPICAL FRUIT, UPC: 5011898005713"
Food Group:  Branded Food Products Database
Common Name:

Nutrient,Unit,Data points,Std. Error,"100.0 MLT = 100.0g",1Value per 100 g,
Proximates
"Energy",kcal,--,--,54,54
"Protein",g,--,--,0.00,0.00
"Total lipid (fat)",g,--,--,0.00,0.00
"Carbohydrate, by difference",g,--,--,13.10,13.10
Minerals
Vitamins
Lipids
Amino Acids
Other
Ingredients
"CARBONATED WATER, SUGAR, FRUIT JUICE FROM CONCENTRATE 8% (ORANGE, PINEAPPLE, APPLE, GUAVA, PASSIONFRUIT), FRUIT PUREE 3% (MANGO, BANANA), CITRIC ACID, ACIDITY REGULATOR (SODIUM CITRATE), FLAVOURING, COLOUR (BETA CAROTENE, ANTHOCYANIN), PRESERVATIVE (E211)." Date available: 07/14/2017 Date last updated by company: 07/14/2017
