Source: USDA Branded Food Products Database Release December 2017 Software v.3.8.6.4 2017-10-02
Report Run at: December 18, 2017 08:47 EST
"Nutrient data for: 45207270, SUNBELT BAKERY, CHEWY GRANOLA BAR, PEANUT BUTTER CHOCOLATE CHIP, UPC: 024300031120"
Food Group:  Branded Food Products Database
Common Name:

Nutrient,Unit,Data points,Std. Error,"1 GRANOLA BAR = 29.0g",1Value per 100 g,
Proximates
"Energy",kcal,--,--,130,448
"Protein",g,--,--,2.00,6.90
"Total lipid (fat)",g,--,--,5.00,17.24
"Carbohydrate, by difference",g,--,--,19.00,65.52
"Fiber, total dietary",g,--,--,1.0,3.4
"Sugars, total",g,--,--,9.00,31.03
Minerals
"Calcium, Ca",mg,--,--,0,0
"Iron, Fe",mg,--,--,0.50,1.71
"Potassium, K",mg,--,--,70,241
"Sodium, Na",mg,--,--,90,310
Vitamins
"Vitamin C, total ascorbic acid",mg,--,--,0.0,0.0
"Vitamin A, IU",IU,--,--,0,0
Lipids
"Fatty acids, total saturated",g,--,--,2.999,10.340
"Fatty acids, total monounsaturated",g,--,--,1.001,3.450
"Fatty acids, total polyunsaturated",g,--,--,1.001,3.450
"Fatty acids, total trans",g,--,--,0.000,0.000
"Cholesterol",mg,--,--,0,0
Amino Acids
Other
Ingredients
"GRANOLA (WHOLE GRAIN OATS, SUGAR, PALM KERNEL AND SOYBEAN OILS, CORN SYRUP, COCONUT, HONEY, MOLASSES, SOY LECITHIN, SALT, CORN STARCH, PEANUTS, ALMONDS, SOY FLOUR, EGG WHITES), CORN SYRUP, CHOCOLATE CHIPS (SUGAR, CHOCOLATE, COCOA BUTTER, DEXTROSE, SOY LECITHIN, VANILLA, MILK), CRISP RICE (RICE FLOUR, SUGAR, WHEY, SALT, BARLEY MALT, WHEAT FLOUR, DEXTROSE), PALM KERNEL AND SOYBEAN OILS, PEANUT BUTTER (PEANUTS, PEANUT OIL, SLAT), WATER, NONFAT DRY MILK, SORBITOL, SALT, SOY LECITHIN, SUGAR, CARRAGEENAN." Date available: 07/14/2017 Date last updated by company: 07/14/2017
