Source: USDA Branded Food Products Database Release December 2017 Software v.3.8.6.4 2017-10-02
Report Run at: December 18, 2017 08:50 EST
"Nutrient data for: 45263999, SUNDAE CONES ICE CREAM, UPC: 492880701748"
Food Group:  Branded Food Products Database
Common Name:

Nutrient,Unit,Data points,Std. Error,"1 CONE = 87.0g",1Value per 100 g,
Proximates
"Energy",kcal,--,--,280,322
"Protein",g,--,--,4.00,4.60
"Total lipid (fat)",g,--,--,14.00,16.09
"Carbohydrate, by difference",g,--,--,35.00,40.23
"Fiber, total dietary",g,--,--,1.0,1.1
"Sugars, total",g,--,--,22.00,25.29
Minerals
"Calcium, Ca",mg,--,--,80,92
"Iron, Fe",mg,--,--,0.21,0.24
"Potassium, K",mg,--,--,140,161
"Sodium, Na",mg,--,--,100,115
Vitamins
"Vitamin C, total ascorbic acid",mg,--,--,0.0,0.0
"Vitamin A, IU",IU,--,--,115,132
Lipids
"Fatty acids, total saturated",g,--,--,8.996,10.340
"Fatty acids, total trans",g,--,--,0.000,0.000
"Cholesterol",mg,--,--,20,23
Amino Acids
Other
Ingredients
"VANILLA FLAVORED ICE CREAM [MILK, CREAM, SKIM MILK, BUTTERMILK, WHEY, SUGAR, CORN SYRUP, CONTAINS 1% OR LESS OF VANILLA EXTRACT, ARTIFICIAL FLAVOR, MONO & DIGLYCERIDES, GUAR GUM, CALCIUM SULFATE, CAROB BEAN GUM, CELLULOSE GUM, CARRAGEENAN, ANNATTO FOR COLOR]. CARAMEL CORE {SWEETENED CONDENSED WHOLE MILK (WHOLE MILK, SUGAR), SUGAR, CORN SYRUP, WATER, COCONUT OIL, PECTIN, SALT, SODIUM BICARBONATE, VANILLA EXTRACT}. CONE AND CONE PIECES (BLEACHED WHEAT FLOUR, SUGAR, MOLASSES, CANOLA OIL, SALT, SOY LECITHIN, CARAMEL COLOR). CHOCOLATE FLAVORED COATING (COCONUT OIL, SUGAR, MILK, CHOCOLATE LIQUOR, COCOA, COCOA BUTTER, HYDROGENATED COCONUT OIL, SOYBEAN OIL, WHEY, COCOA PROCESSED WITH ALKALI, SOY LECITHIN, SALT, VANILLIN). DRY ROASTED PEANUTS." Date available: 07/14/2017 Date last updated by company: 07/14/2017
