Source: USDA Branded Food Products Database Release December 2017 Software v.3.8.6.4 2017-10-02
Report Run at: December 18, 2017 08:58 EST
"Nutrient data for: 45290093, SUNFLOWER OIL & AVOCADO OIL, UPC: 040232341953"
Food Group:  Branded Food Products Database
Common Name:

Nutrient,Unit,Data points,Std. Error,"1 Tbsp = 15.0g",1Value per 100 g,
Proximates
"Energy",kcal,--,--,120,800
"Protein",g,--,--,0.00,0.00
"Total lipid (fat)",g,--,--,13.80,92.00
"Carbohydrate, by difference",g,--,--,0.00,0.00
Minerals
"Sodium, Na",mg,--,--,0,0
Vitamins
Lipids
"Fatty acids, total saturated",g,--,--,1.800,12.000
"Fatty acids, total monounsaturated",g,--,--,10.500,70.000
"Fatty acids, total polyunsaturated",g,--,--,1.500,10.000
"Fatty acids, total trans",g,--,--,0.000,0.000
"Cholesterol",mg,--,--,0,0
Amino Acids
Other
Ingredients
"75% SUNFLOWER OIL & 25% AVOCADO OIL" Date available: 07/14/2017 Date last updated by company: 07/14/2017
