Source: USDA Branded Food Products Database Release December 2017 Software v.3.8.6.4 2017-10-02
Report Run at: December 18, 2017 09:01 EST
"Nutrient data for: 45103521, SUNKIST, TRAIL MIX, STRAWBERRY BANANA BLEND, UPC: 856916005109"
Food Group:  Branded Food Products Database
Common Name:

Nutrient,Unit,Data points,Std. Error,"1 ONZ = 28.0g",1Value per 100 g,
Proximates
"Energy",kcal,--,--,110,393
"Protein",g,--,--,2.00,7.14
"Total lipid (fat)",g,--,--,4.00,14.29
"Carbohydrate, by difference",g,--,--,19.00,67.86
"Fiber, total dietary",g,--,--,2.0,7.1
"Sugars, total",g,--,--,11.00,39.29
Minerals
"Calcium, Ca",mg,--,--,20,71
"Iron, Fe",mg,--,--,1.93,6.88
"Sodium, Na",mg,--,--,20,71
Vitamins
"Vitamin C, total ascorbic acid",mg,--,--,32.1,114.8
"Vitamin A, IU",IU,--,--,0,0
Lipids
"Fatty acids, total saturated",g,--,--,0.501,1.790
"Fatty acids, total trans",g,--,--,0.000,0.000
"Cholesterol",mg,--,--,0,0
Amino Acids
Other
Ingredients
"DRIED CRANBERRIES (CRANBERRIES, SUGAR, SUNFLOWER OIL), DRIED BANANA, DRIED PAPAYA (PAPAYA, SUGAR, SULFUR DIOXIDE), DRIED STRAWBERRIES (STRAWBERRIES, SUGAR, ASCORBIC ACID, SUNFLOWER OIL), ROASTED ALMONDS (ALMONDS, COTTONSEED OIL, SALT), AND ROASTED CASHEWS (CASHEWS, COTTONSEED OIL, SALT)" Date available: 06/25/2017 Date last updated by company: 06/25/2017
