Source: USDA Branded Food Products Database Release December 2017 Software v.3.8.6.4 2017-10-02
Report Run at: December 18, 2017 09:01 EST
"Nutrient data for: 45263720, SUNLAND MANGO PEACH, UPC: 028300057395"
Food Group:  Branded Food Products Database
Common Name:

Nutrient,Unit,Data points,Std. Error,"1 cup = 240.0g",1Value per 100 g,
Proximates
"Energy",kcal,--,--,130,54
"Protein",g,--,--,0.00,0.00
"Total lipid (fat)",g,--,--,0.00,0.00
"Carbohydrate, by difference",g,--,--,31.99,13.33
"Sugars, total",g,--,--,30.00,12.50
Minerals
"Sodium, Na",mg,--,--,91,38
Vitamins
"Vitamin C, total ascorbic acid",mg,--,--,90.0,37.5
Lipids
Amino Acids
Other
Ingredients
"WATER, HIGH FRUCTOSE CORN SYRUP, CITRIC ACID, MODIFIED FOOD STARCH, XANTHAN GUM, CORN OIL, SODIUM CITRATE, NATURAL & ARTIFICIAL FLAVORS, ASCORBIC ACID (VITAMIN C), SODIUM BENZOATE (PRESERVATIVE), YELLOW #5 & #6, EDTA (TO PRESERVE FRESHNESS)." Date available: 07/14/2017 Date last updated by company: 07/14/2017
