Source: USDA Branded Food Products Database Release December 2017 Software v.3.8.6.4 2017-10-02
Report Run at: December 18, 2017 09:03 EST
"Nutrient data for: 45177788, SUNNIE GROVE, MANDARIN ORANGE, UPC: 691430004265"
Food Group:  Branded Food Products Database
Common Name:

Nutrient,Unit,Data points,Std. Error,"1 PACKET = 35.0g",1Value per 100 g,
Proximates
"Energy",kcal,--,--,120,343
"Protein",g,--,--,0.00,0.00
"Total lipid (fat)",g,--,--,0.00,0.00
"Carbohydrate, by difference",g,--,--,31.00,88.57
"Fiber, total dietary",g,--,--,1.0,2.9
"Sugars, total",g,--,--,27.00,77.14
Minerals
"Calcium, Ca",mg,--,--,20,57
"Iron, Fe",mg,--,--,0.41,1.18
"Sodium, Na",mg,--,--,95,271
Vitamins
"Vitamin C, total ascorbic acid",mg,--,--,2.7,7.8
"Vitamin A, IU",IU,--,--,0,0
Lipids
"Fatty acids, total saturated",g,--,--,0.000,0.000
"Fatty acids, total trans",g,--,--,0.000,0.000
"Cholesterol",mg,--,--,0,0
Amino Acids
Other
Ingredients
"MANDARIN ORANGES, SUGAR, CITRIC ACID, SULFUR DIOXIDE TO PRESERVE COLOR." Date available: 07/14/2017 Date last updated by company: 07/14/2017
