Source: USDA Branded Food Products Database Release December 2017 Software v.3.8.6.4 2017-10-02
Report Run at: December 18, 2017 09:10 EST
"Nutrient data for: 45186343, SUNNYSIDE FARMS, CHICKEN SALAD WITH CRACKERS AND GRAPES, UPC: 793573069399"
Food Group:  Branded Food Products Database
Common Name:

Nutrient,Unit,Data points,Std. Error,"1 PACKAGE = 116.0g",1Value per 100 g,
Proximates
"Energy",kcal,--,--,210,181
"Protein",g,--,--,2.00,1.72
"Total lipid (fat)",g,--,--,20.00,17.24
"Carbohydrate, by difference",g,--,--,18.00,15.52
"Fiber, total dietary",g,--,--,0.0,0.0
"Sugars, total",g,--,--,4.00,3.45
Minerals
"Calcium, Ca",mg,--,--,0,0
"Iron, Fe",mg,--,--,0.43,0.37
"Sodium, Na",mg,--,--,350,302
Vitamins
"Vitamin C, total ascorbic acid",mg,--,--,2.9,2.5
"Vitamin A, IU",IU,--,--,0,0
Lipids
"Fatty acids, total saturated",g,--,--,3.004,2.590
"Fatty acids, total trans",g,--,--,0.000,0.000
"Cholesterol",mg,--,--,20,17
Amino Acids
Other
Ingredients
"COOKED WHITE CHICKEN MEAT, MAYONNAISE [SOYBEAN OIL, WATER, EGG YOLKS, DISTILLED VINEGAR, CONTAINS LESS THAN 2% SUGAR, SALT, CALCIUM DISODIUM EDTA (ADDED TO PROTECT FLAVOR), NATURAL FLAVORS], CELERY, GRAPES, CROSTINI CRACKER (UNBLEACHED WHEAT FLOUR, NON-HYDROGENATED EXPELLER-PRESSED PALM KERNEL OIL, EXTRA VIRGIN OLIVE OIL, SEA SALT, BREWER'S YEAST, WHEAT MALT, NATURAL FLAVORS. MAY CONTAIN TRACES OF SESAME), BREAD CRUMBS (BLEACHED WHEAT FLOUR, YEAST, SUGAR, SALT), SPICE (SALT, SUGAR, YEAST EXTRACT, ONION POWDER, WHITE PEPPER, GARLIC POWDER, NOT MORE THAN 2% SILICON DIOXIDE ADDED TO PREVENT CAKING), WHITE PEPPER." Date available: 07/14/2017 Date last updated by company: 07/14/2017
