Source: USDA Branded Food Products Database Release December 2017 Software v.3.8.6.4 2017-10-02
Report Run at: December 18, 2017 09:17 EST
"Nutrient data for: 45157673, SUNRISE, FRUIT SLICES, UPC: 076500325059"
Food Group:  Branded Food Products Database
Common Name:

Nutrient,Unit,Data points,Std. Error,"3.0 PIECES = 40.0g",1Value per 100 g,
Proximates
"Energy",kcal,--,--,140,350
"Protein",g,--,--,0.00,0.00
"Total lipid (fat)",g,--,--,0.00,0.00
"Carbohydrate, by difference",g,--,--,34.00,85.00
"Sugars, total",g,--,--,29.00,72.50
Minerals
"Sodium, Na",mg,--,--,0,0
Vitamins
Lipids
Amino Acids
Other
Ingredients
"SUGAR, CORN SYRUP, CORN STARCH, MODIFIED CORN STARCH, NATURAL & ARTIFICIAL FLAVORS, ARTIFICIAL COLORS INCLUDING (RED 40, YELLOW 6, YELLOW 5, BLUE 1)." Date available: 07/14/2017 Date last updated by company: 07/14/2017
