Source: USDA Branded Food Products Database Release December 2017 Software v.3.8.6.4 2017-10-02
Report Run at: December 18, 2017 09:13 EST
"Nutrient data for: 45024094, SUNRICE, KIMCHI, UPC: 824615000046"
Food Group:  Branded Food Products Database
Common Name:

Nutrient,Unit,Data points,Std. Error,"4.0 ONZ = 113.0g",1Value per 100 g,
Proximates
"Energy",kcal,--,--,40,35
"Protein",g,--,--,0.99,0.88
"Total lipid (fat)",g,--,--,0.00,0.00
"Carbohydrate, by difference",g,--,--,8.00,7.08
"Fiber, total dietary",g,--,--,1.0,0.9
"Sugars, total",g,--,--,4.99,4.42
Minerals
"Calcium, Ca",mg,--,--,150,133
"Iron, Fe",mg,--,--,4.78,4.23
"Sodium, Na",mg,--,--,470,416
Vitamins
"Vitamin C, total ascorbic acid",mg,--,--,26.6,23.5
"Vitamin A, IU",IU,--,--,1106,979
Lipids
"Fatty acids, total saturated",g,--,--,0.000,0.000
"Fatty acids, total trans",g,--,--,0.000,0.000
"Cholesterol",mg,--,--,0,0
Amino Acids
Other
Ingredients
"NAPA CABBAGE, FRESH CRUSHED GARLIC, KOREAN RED PEPPERS POWDER,GREEN ONIONS, SEA SALT, GRANULATED GARLIC, TRACE OF BROWN SUGAR." Date available: 06/25/2017 Date last updated by company: 06/25/2017
