Source: USDA Branded Food Products Database Release December 2017 Software v.3.8.6.4 2017-10-02
Report Run at: December 18, 2017 10:10 EST
"Nutrient data for: 45214657, SUPER PREMIUM ICE CREAM, UPC: 070640006908"
Food Group:  Branded Food Products Database
Common Name:

Nutrient,Unit,Data points,Std. Error,"0.5 cup = 93.0g",1Value per 100 g,
Proximates
"Energy",kcal,--,--,220,237
"Protein",g,--,--,4.00,4.30
"Total lipid (fat)",g,--,--,14.00,15.05
"Carbohydrate, by difference",g,--,--,20.00,21.51
"Fiber, total dietary",g,--,--,2.0,2.2
"Sugars, total",g,--,--,19.00,20.43
Minerals
"Calcium, Ca",mg,--,--,100,108
"Iron, Fe",mg,--,--,2.03,2.18
"Potassium, K",mg,--,--,240,258
"Sodium, Na",mg,--,--,45,48
Vitamins
"Vitamin C, total ascorbic acid",mg,--,--,0.0,0.0
"Vitamin A, IU",IU,--,--,562,604
Lipids
"Fatty acids, total saturated",g,--,--,9.002,9.680
"Fatty acids, total trans",g,--,--,0.000,0.000
"Cholesterol",mg,--,--,70,75
Amino Acids
Other
Ingredients
"CREAM, MILK, SKIM MILK, SUGAR, COCOA, EGG, YOLKS, CAROB BEAN GUM, GUAR GUM, CARRAGEENAN." Date available: 07/14/2017 Date last updated by company: 07/14/2017
