Source: USDA Branded Food Products Database Release December 2017 Software v.3.8.6.4 2017-10-02
Report Run at: December 18, 2017 10:19 EST
"Nutrient data for: 45151458, SUPERVALU, SOUR NEON WORMS, UPC: 041130599255"
Food Group:  Branded Food Products Database
Common Name:

Nutrient,Unit,Data points,Std. Error,"11.0 PIECES | ABOUT = 39.0g",1Value per 100 g,
Proximates
"Energy",kcal,--,--,150,385
"Protein",g,--,--,1.00,2.56
"Total lipid (fat)",g,--,--,0.00,0.00
"Carbohydrate, by difference",g,--,--,35.00,89.74
"Fiber, total dietary",g,--,--,0.0,0.0
"Sugars, total",g,--,--,20.00,51.28
Minerals
"Calcium, Ca",mg,--,--,0,0
"Iron, Fe",mg,--,--,0.00,0.00
"Sodium, Na",mg,--,--,5,13
Vitamins
"Vitamin C, total ascorbic acid",mg,--,--,0.0,0.0
"Vitamin A, IU",IU,--,--,0,0
Lipids
"Fatty acids, total saturated",g,--,--,0.000,0.000
"Fatty acids, total trans",g,--,--,0.000,0.000
"Cholesterol",mg,--,--,0,0
Amino Acids
Other
Ingredients
"CORN SYRUP, SUGAR, CORN STARCH, BEEF GELATIN, TARTARIC ACID, CITRIC ACID, MALIC ACID, APPLE JUICE CONCENTRATE, ARTIFICIAL FLAVORS AND COLORS (FD&C YELLOW 5, YELLOW 6, BLUE 1, RED 40, TITANIUM DIOXIDE)." Date available: 07/14/2017 Date last updated by company: 07/14/2017
