Source: USDA Branded Food Products Database Release December 2017 Software v.3.8.6.4 2017-10-02
Report Run at: December 18, 2017 10:06 EST
"Nutrient data for: 45159689, SUPERIOR ON MAIN, ICED COOKIES, VANILLA HOLIDAY DRIZZLE, UPC: 895939001651"
Food Group:  Branded Food Products Database
Common Name:

Nutrient,Unit,Data points,Std. Error,"1 COOKIE = 25.0g",1Value per 100 g,
Proximates
"Energy",kcal,--,--,100,400
"Protein",g,--,--,1.00,4.00
"Total lipid (fat)",g,--,--,5.00,20.00
"Carbohydrate, by difference",g,--,--,13.00,52.00
"Fiber, total dietary",g,--,--,0.0,0.0
"Sugars, total",g,--,--,10.00,40.00
Minerals
"Calcium, Ca",mg,--,--,0,0
"Iron, Fe",mg,--,--,0.00,0.00
"Sodium, Na",mg,--,--,60,240
Vitamins
"Vitamin C, total ascorbic acid",mg,--,--,0.0,0.0
"Vitamin A, IU",IU,--,--,0,0
Lipids
"Fatty acids, total saturated",g,--,--,1.500,6.000
"Fatty acids, total monounsaturated",g,--,--,1.000,4.000
"Fatty acids, total polyunsaturated",g,--,--,1.500,6.000
"Fatty acids, total trans",g,--,--,0.000,0.000
"Cholesterol",mg,--,--,10,40
Amino Acids
Other
Ingredients
"SUGAR, WATER, CORN SYRUP, EGGS, SOYBEAN OIL, BLEACHED WHEAT FLOUR, ENRICHED FLOUR BLEACHED (WHEAT FLOUR, MALTED BARLEY FLOUR, NIACIN, REDUCED IRON, THIAMINE MONONITRATE, RIBOFLAVIN, FOLIC ACID), VEGETABLE SHORTENING (PALM OIL, FRACTIONATED PALM OIL, SOY LECITHIN), EMULSIFIER BLEND (PROPYLENE GLYCOL MONOESTERS, MONO AND DIGLYCERIDES, SOY LECITHIN, BHT, CITRIC ACID), CONTAINS LESS THAN 2% OF EACH OF THE FOLLOWING: FOOD STARCH-MODIFIED, WHEY, LEAVENING (SODIUM ALUMINUM PHOSPHATE, BAKING SODA), SALT, POTASSIUM SORBATE PRESERVATIVE, WHEAT STARCH, WHEAT GLUTEN, NATURAL AND ARTIFICIAL FLAVORS, CELLULOSE GUM, TITANIUM DIOXIDE COLOR, ETHYL ALCOHOL, SODIUM STEAROYL LACTYLATE, POLYGLYCEROL ESTERS OF FATTY ACIDS, AGAR-AGAR, SORBITOL, LOCUST BEAN GUM, CITRIC ACID, SODIUM BENZOATE, PRESERVATIVES, XANTHAN GUM, ARTIFICIAL COLOR (RED 40), PROPYL PARABEN PRESERVATIVE, METHYL PARABEN PRESERVATIVE." Date available: 07/14/2017 Date last updated by company: 07/14/2017
