Source: USDA Branded Food Products Database Release December 2017 Software v.3.8.6.4 2017-10-02
Report Run at: December 18, 2017 09:48 EST
"Nutrient data for: 45269268, SUPER ENERGIZER ROASTED YERBA MATE, UPC: 851008000031"
Food Group:  Branded Food Products Database
Common Name:

Nutrient,Unit,Data points,Std. Error,"1 BAG, MAKES 8-16 FL. OZ. = 2.0g",1Value per 100 g,
Proximates
"Energy",kcal,--,--,5,250
"Protein",g,--,--,0.00,0.00
"Total lipid (fat)",g,--,--,0.00,0.00
"Carbohydrate, by difference",g,--,--,1.00,50.00
"Sugars, total",g,--,--,0.00,0.00
Minerals
"Sodium, Na",mg,--,--,0,0
Vitamins
Lipids
Amino Acids
Other
Ingredients
"ROASTED YERBA MATE, GUARANA, AND NATURAL FLAVORINGS." Date available: 10/13/2017 Date last updated by company: 10/13/2017
