Source: USDA Branded Food Products Database Release December 2017 Software v.3.8.6.4 2017-10-02
Report Run at: December 18, 2017 10:03 EST
"Nutrient data for: 45029519, SUPERIOR NUT & CANDY, ROASTED SALTED ALMONDS, UPC: 722648715657"
Food Group:  Branded Food Products Database
Common Name:

Nutrient,Unit,Data points,Std. Error,"0.25 cup = 36.0g",1Value per 100 g,
Proximates
"Energy",kcal,--,--,220,611
"Protein",g,--,--,8.00,22.22
"Total lipid (fat)",g,--,--,20.00,55.56
"Carbohydrate, by difference",g,--,--,6.00,16.67
"Fiber, total dietary",g,--,--,4.0,11.1
"Sugars, total",g,--,--,2.00,5.56
Minerals
"Calcium, Ca",mg,--,--,100,278
"Iron, Fe",mg,--,--,2.00,5.55
"Sodium, Na",mg,--,--,120,333
Vitamins
"Vitamin C, total ascorbic acid",mg,--,--,0.0,0.0
"Vitamin A, IU",IU,--,--,0,0
Lipids
"Fatty acids, total saturated",g,--,--,1.501,4.170
"Fatty acids, total trans",g,--,--,0.000,0.000
"Cholesterol",mg,--,--,0,0
Amino Acids
Other
Ingredients
"ALMONDS, COTTONSEED AND PEANUT OILS AND SALT." Date available: 06/24/2017 Date last updated by company: 06/24/2017
