Source: USDA Branded Food Products Database Release December 2017 Software v.3.8.6.4 2017-10-02
Report Run at: December 18, 2017 10:01 EST
"Nutrient data for: 45029516, SUPERIOR NUT & CANDY, DRIED APRICOTS, UPC: 722648715619"
Food Group:  Branded Food Products Database
Common Name:

Nutrient,Unit,Data points,Std. Error,"6.0 PIECES = 40.0g",1Value per 100 g,
Proximates
"Energy",kcal,--,--,120,300
"Protein",g,--,--,1.00,2.50
"Total lipid (fat)",g,--,--,0.00,0.00
"Carbohydrate, by difference",g,--,--,29.00,72.50
"Fiber, total dietary",g,--,--,2.0,5.0
"Sugars, total",g,--,--,12.00,30.00
Minerals
"Calcium, Ca",mg,--,--,0,0
"Iron, Fe",mg,--,--,0.72,1.80
"Sodium, Na",mg,--,--,10,25
Vitamins
"Vitamin C, total ascorbic acid",mg,--,--,0.0,0.0
"Vitamin A, IU",IU,--,--,100,250
Lipids
"Fatty acids, total saturated",g,--,--,0.000,0.000
"Fatty acids, total trans",g,--,--,0.000,0.000
"Cholesterol",mg,--,--,0,0
Amino Acids
Other
Ingredients
"DRIED APRICOTS, SULFUR DIOXIDE (ADDED AS A PRESERVATIVE)." Date available: 06/24/2017 Date last updated by company: 06/24/2017
