Source: USDA Branded Food Products Database Release December 2017 Software v.3.8.6.4 2017-10-02
Report Run at: December 18, 2017 10:09 EST
"Nutrient data for: 45063998, SUPER PREMIUM ICE CREAM, UPC: 837152006136"
Food Group:  Branded Food Products Database
Common Name:

Nutrient,Unit,Data points,Std. Error,"4.0 oz = 113.0g",1Value per 100 g,
Proximates
"Energy",kcal,--,--,270,239
"Protein",g,--,--,4.00,3.54
"Total lipid (fat)",g,--,--,17.00,15.04
"Carbohydrate, by difference",g,--,--,30.00,26.55
"Fiber, total dietary",g,--,--,0.0,0.0
"Sugars, total",g,--,--,28.00,24.78
Minerals
"Calcium, Ca",mg,--,--,150,133
"Iron, Fe",mg,--,--,1.44,1.27
"Sodium, Na",mg,--,--,95,84
Vitamins
"Vitamin C, total ascorbic acid",mg,--,--,0.0,0.0
"Vitamin A, IU",IU,--,--,750,664
Lipids
"Fatty acids, total saturated",g,--,--,10.995,9.730
"Fatty acids, total trans",g,--,--,0.497,0.440
"Cholesterol",mg,--,--,60,53
Amino Acids
Other
Ingredients
"MILK, CREAM, CANE SUGAR, COCOA POWDER (COCOA PROCESSED WITH ALKALI), WHEY SOLIDS, NONFAT MILK, VANILLA EXTRACT, TAPIOCA STARCH, GUAR GUM, LOCUST BEAN GUM, SEA SALT." Date available: 03/22/2017 Date last updated by company: 03/22/2017
