Source: USDA Branded Food Products Database Release December 2017 Software v.3.8.6.4 2017-10-02
Report Run at: December 18, 2017 09:56 EST
"Nutrient data for: 45274588, SUPERFRUIT BLEND DRIED FRUIT, UPC: 085239973400"
Food Group:  Branded Food Products Database
Common Name:

Nutrient,Unit,Data points,Std. Error,"0.25 cup = 40.0g",1Value per 100 g,
Proximates
"Energy",kcal,--,--,140,350
"Protein",g,--,--,1.00,2.50
"Total lipid (fat)",g,--,--,0.00,0.00
"Carbohydrate, by difference",g,--,--,33.00,82.50
"Fiber, total dietary",g,--,--,3.0,7.5
"Sugars, total",g,--,--,22.00,55.00
Minerals
"Calcium, Ca",mg,--,--,0,0
"Iron, Fe",mg,--,--,0.36,0.90
"Sodium, Na",mg,--,--,0,0
Vitamins
"Vitamin C, total ascorbic acid",mg,--,--,0.0,0.0
"Vitamin A, IU",IU,--,--,0,0
Lipids
"Fatty acids, total saturated",g,--,--,0.000,0.000
"Fatty acids, total trans",g,--,--,0.000,0.000
"Cholesterol",mg,--,--,0,0
Amino Acids
Other
Ingredients
"DRIED CRANBERRIES (CRANBERRIES, SUGAR, SUNFLOWER OIL, NATURAL FLAVORS), DRIED BLUEBERRIES (BLUEBERRIES, SUGAR), POMEGRANATE ARILS (POMEGRANATE ARILS, SUGAR, CITRIC ACID, POMEGRANATE JUICE CONCENTRATE, NATURAL FLAVORS, LEMON JUICE CONCENTRATE)." Date available: 07/14/2017 Date last updated by company: 07/14/2017
