Source: USDA Branded Food Products Database Release December 2017 Software v.3.8.6.4 2017-10-02
Report Run at: December 18, 2017 10:18 EST
"Nutrient data for: 45223900, SUPER TEA, UPC: 628586262195"
Food Group:  Branded Food Products Database
Common Name:

Nutrient,Unit,Data points,Std. Error,"2.0 tsp = 8.0g",1Value per 100 g,
Proximates
"Energy",kcal,--,--,38,475
"Protein",g,--,--,1.00,12.50
"Total lipid (fat)",g,--,--,0.00,0.00
"Carbohydrate, by difference",g,--,--,4.00,50.00
"Fiber, total dietary",g,--,--,3.1,39.1
"Sugars, total",g,--,--,3.50,43.75
Minerals
"Calcium, Ca",mg,--,--,20,250
"Iron, Fe",mg,--,--,2.25,28.12
"Sodium, Na",mg,--,--,7,88
Vitamins
"Vitamin C, total ascorbic acid",mg,--,--,3.8,46.9
"Vitamin A, IU",IU,--,--,1875,23438
Lipids
"Fatty acids, total saturated",g,--,--,0.000,0.000
"Fatty acids, total trans",g,--,--,0.000,0.000
"Cholesterol",mg,--,--,0,0
Amino Acids
Other
Ingredients
"*COCONUT SUGAR, *JAPANESE MATCHA GREEN TEA, *RAW GREEN STEVIA, *MAQUI BERRY, *POMEGRANATE, *STRAWBERRY, **CRANBERRY, *GOJI, *ACAI, *VANILLA POWDER & CHERRY POWDER." Date available: 07/14/2017 Date last updated by company: 07/14/2017
