Source: USDA Branded Food Products Database Release December 2017 Software v.3.8.6.4 2017-10-02
Report Run at: December 18, 2017 09:54 EST
"Nutrient data for: 45232883, SUPERFOOD SNACK BAR, UPC: 058449153238"
Food Group:  Branded Food Products Database
Common Name:

Nutrient,Unit,Data points,Std. Error,"1 BAR, 12 BARS = 38.0g",1Value per 100 g,
Proximates
"Energy",kcal,--,--,190,500
"Protein",g,--,--,4.00,10.53
"Total lipid (fat)",g,--,--,10.00,26.32
"Carbohydrate, by difference",g,--,--,20.00,52.63
"Fiber, total dietary",g,--,--,6.0,15.8
"Sugars, total",g,--,--,6.00,15.79
Minerals
"Calcium, Ca",mg,--,--,20,53
"Iron, Fe",mg,--,--,1.14,2.99
"Sodium, Na",mg,--,--,10,26
Vitamins
"Vitamin C, total ascorbic acid",mg,--,--,0.0,0.0
"Vitamin A, IU",IU,--,--,0,0
Lipids
"Fatty acids, total saturated",g,--,--,6.000,15.790
"Fatty acids, total monounsaturated",g,--,--,2.998,7.890
"Fatty acids, total polyunsaturated",g,--,--,0.999,2.630
"Fatty acids, total trans",g,--,--,0.000,0.000
"Cholesterol",mg,--,--,0,0
Amino Acids
Other
Ingredients
"DRIED COCONUT*, CHOCOLATE COVERED COCOA NIBS* (UNSWEETENED CHOCOLATE*, CANE SUGAR*, COCOA BUTTER*, COCOA NIBS*), TAPIOCA SYRUP*, BROWN RICE SYRUP*, ROASTED HAZELNUTS*, CHIA SEEDS*, HEMP SEEDS*, FAIR TRADE COCOA POWDER*, MOCHA FLAVOR*, FAIR TRADE COFFEE*, TOCOPHEROLS (VITAMIN E)." Date available: 07/14/2017 Date last updated by company: 07/14/2017
