Source: USDA Branded Food Products Database Release December 2017 Software v.3.8.6.4 2017-10-02
Report Run at: December 18, 2017 10:12 EST
"Nutrient data for: 45269953, SUPER ROLL, UPC: 6253002434371"
Food Group:  Branded Food Products Database
Common Name:

Nutrient,Unit,Data points,Std. Error,"55.0 GRM = 55.0g",1Value per 100 g,
Proximates
"Energy",kcal,--,--,217,395
"Protein",g,--,--,2.10,3.82
"Total lipid (fat)",g,--,--,7.60,13.82
"Carbohydrate, by difference",g,--,--,35.00,63.64
"Fiber, total dietary",g,--,--,0.5,0.9
"Sugars, total",g,--,--,15.00,27.27
Minerals
"Calcium, Ca",mg,--,--,60,109
"Iron, Fe",mg,--,--,0.65,1.19
"Sodium, Na",mg,--,--,102,185
Vitamins
"Vitamin C, total ascorbic acid",mg,--,--,0.2,0.4
"Vitamin A, IU",IU,--,--,23,41
Lipids
"Fatty acids, total saturated",g,--,--,6.199,11.270
"Fatty acids, total trans",g,--,--,0.000,0.000
"Cholesterol",mg,--,--,0,0
Amino Acids
Other
Ingredients
"WHEAT FLOUR, SUGAR, EGGS, COCOA POWDER, EMULSIFIER (VEGETABLE) (MONO AND DIGLYCERIDES OF FATTY ACIDS AND POLYGLYCEROL ESTER OF FATTY ACID FROM PALM, SOYA AND RAPESEEDS), CORN STARCH, SWEETENER (SORBITOL), GLYCEROL, GLUCOSE SYRUP, VANILLA FLAVOR FROM NATURAL IDENTICAL RESOURCES, SALT, ACIDIFIER (CITRIC ACID), PRESERVATIVES (POTASSIUM SORBATE AND CALCIUM PROPIONATE) WITHIN THE ANNOUNCED HEALTH LIMITS, SKIMMED MILK POWDER (COW MILK), PALM OIL AND / OR SUNFLOWER OIL, RAISING AGENTS (SODIUM ACID PYROPHOSPHATE AND SODIUM BICARBONATE), WATER. STRAWBERRY JAM FILLING: STRAWBERRIES (50%), GLUCOSE, FRUCTOSE, SUGAR, GELLING AGENT (PECTIN), ACIDIFIER (CITRIC ACID), NATURAL COLOUR (CAROTENE), STRAWBERRY FLAVOR FROM NATURAL IDENTICAL RESOURCES, PRESERVATIVE (SODIUM BENZOATE WITHIN THE ANNOUNCED HEALTH LIMITS, WATER. VANILLA CREAM FILLING: SUGAR, VEGETABLE PALM FAT, CORN SYRUP, INVERT SUGAR SYRUP, SKIMMED MILK POWDER (COW MILK), SALT, VANILLA FLAVOR FROM NATURAL IDENTICAL RESOURCES, PRESERVATIVE (POTASSIUM SORBATE) WITHIN THE ANNOUNCED HEALTH LIMITS, WATER. FLAVORED CHOCOLATE: SUGAR, SKIMMED MILK POWDER (COW MILK), HYDROGENATED PALM KERNEL OIL, VANILLIN, SOYA LECITHIN, COCOA POWDER." Date available: 07/14/2017 Date last updated by company: 07/14/2017
