Source: USDA Branded Food Products Database Release December 2017 Software v.3.8.6.4 2017-10-02
Report Run at: December 18, 2017 10:23 EST
"Nutrient data for: 45270656, SUPREME PIZZA, UPC: 070038643425"
Food Group:  Branded Food Products Database
Common Name:

Nutrient,Unit,Data points,Std. Error,"0.16 PIZZA = 149.0g",1Value per 100 g,
Proximates
"Energy",kcal,--,--,329,221
"Protein",g,--,--,12.99,8.72
"Total lipid (fat)",g,--,--,11.99,8.05
"Carbohydrate, by difference",g,--,--,42.00,28.19
"Fiber, total dietary",g,--,--,1.9,1.3
"Sugars, total",g,--,--,3.99,2.68
Minerals
"Calcium, Ca",mg,--,--,200,134
"Iron, Fe",mg,--,--,3.53,2.37
"Sodium, Na",mg,--,--,840,564
Vitamins
"Vitamin C, total ascorbic acid",mg,--,--,23.5,15.8
"Vitamin A, IU",IU,--,--,654,439
Lipids
"Fatty acids, total saturated",g,--,--,5.006,3.360
"Fatty acids, total trans",g,--,--,0.000,0.000
"Cholesterol",mg,--,--,30,20
Amino Acids
Other
Ingredients
"CRUST (ENRICHED WHEAT FLOUR [FLOUR, NIACIN, REDUCED IRON, THIAMINE MONONITRATE, RIBOFLAVIN, FOLIC ACID, ENZYMES], WATER, YEAST, DEXTROSE, SOYBEAN OIL CORNMEAL, SUGAR, SALT, SODIUM BICARBONATE, SODIUM ALUMINUM PHOSPHATE, DOUGH CONDITIONERS, [WHEAT FLOUR, DEXTROSE, DIACETYL TARTARIC ACID ESTERS OF MONO AND DIGLYCERIDES, SOYBEAN OIL, ASCORBIC ACID, ENZYMES, L-CYSTEINE]), PART-SKIM MOZZARELLA CHEESE (PASTEURIZED PART-SKIM MILK, CHEESE CULTURES, SALT, ENZYMES), COOKED SAUSAGE (PORK, MECHANICALLY SEPARATED CHICKEN, WATER, TEXTURED VEGETABLE PROTEIN [SOY FLOUR, CARAMEL COLOR], SPICES, SALT, SODIUM PHOSPHATES, PAPRIKA, MODIFIED CORN STARCH, NATURAL FLAVORING, YEAST EXTRACT, DISODIUM INOSINATE AND DISODIUM GUANYLATE BHA, BHT, CITRIC ACID), WATER, VEGETABLE BLEND (GREEN PEPPERS, RED PEPPERS, BLACK OLIVES, ONIONS), TOMATO PASTE, PEPPERONI (PORK, MECHANICALLY SEPARATED CHICKEN, BEEF, SALT, SPICES, DEXTROSE, LACTIC ACID STARTER CULTURE, OLEORESIN OF PAPRIKA, SODIUM ASCORBATE, FLAVORING, SODIUM NITRITE, BHA, BHT, CITRIC ACID), SEASONING (SUGAR, SALT, ONION AND GARLIC, CORN STARCH, SPICES, GUAR GUM AND XANTHAN GUM, CITRIC ACID, MALTODEXTRIN), MODIFIED FOOD STARCH, SOYBEAN OIL." Date available: 07/14/2017 Date last updated by company: 07/14/2017
