Source: USDA Branded Food Products Database Release December 2017 Software v.3.8.6.4 2017-10-02
Report Run at: December 18, 2017 10:22 EST
"Nutrient data for: 45089028, SUPREME MUFFIN MIX, UPC: 041449301709"
Food Group:  Branded Food Products Database
Common Name:

Nutrient,Unit,Data points,Std. Error,"0.33 cup = 47.0g",1Value per 100 g,
Proximates
"Energy",kcal,--,--,200,426
"Protein",g,--,--,2.00,4.26
"Total lipid (fat)",g,--,--,4.00,8.51
"Carbohydrate, by difference",g,--,--,38.00,80.85
"Fiber, total dietary",g,--,--,2.0,4.3
"Sugars, total",g,--,--,23.00,48.94
Minerals
"Calcium, Ca",mg,--,--,0,0
"Iron, Fe",mg,--,--,1.53,3.26
"Sodium, Na",mg,--,--,240,511
Vitamins
"Vitamin C, total ascorbic acid",mg,--,--,0.0,0.0
"Vitamin A, IU",IU,--,--,0,0
Lipids
"Fatty acids, total saturated",g,--,--,2.500,5.320
"Fatty acids, total trans",g,--,--,0.000,0.000
"Cholesterol",mg,--,--,0,0
Amino Acids
Other
Ingredients
"SUGAR, ENRICHED BLEACHED FLOUR (WHEAT FLOUR, NIACIN, REDUCED IRON, THIAMIN MONONITRATE, RIBOFLAVIN, FOLIC ACID, MAY CONTAIN MALTED BARLEY FLOUR), CHOCOLATE CHIPS (SUGAR, CHOCOLATE LIQUOR, COCOA BUTTER, MILK FAT, SOY LECITHIN [EMULSIFIER], ARTIFICIAL FLAVOR), COCOA (PROCESSED WITH ALKALI), FOOD STARCH-MODIFIED. CONTAINS 2% OR LESS OF THE FOLLOWING: PROPYLENE GLYCOL MONOESTER, MONO-DIGLYCERIDES, SODIUM STEAROYL LACTYLATE, ARABIC GUM, SODIUM ALUMINUM PHOSPHATE, SODIUM BICARBONATE, SALT, CANOLA OR SOYBEAN OIL, ARTIFICIAL FLAVOR, XANTHAN GUM." Date available: 07/14/2017 Date last updated by company: 07/14/2017
