Source: USDA Branded Food Products Database Release December 2017 Software v.3.8.6.4 2017-10-02
Report Run at: December 18, 2017 10:22 EST
"Nutrient data for: 45098708, SUPREME PIZZA, UPC: 042197012077"
Food Group:  Branded Food Products Database
Common Name:

Nutrient,Unit,Data points,Std. Error,"0.25 PIZZA = 122.0g",1Value per 100 g,
Proximates
"Energy",kcal,--,--,270,221
"Protein",g,--,--,15.99,13.11
"Total lipid (fat)",g,--,--,13.01,10.66
"Carbohydrate, by difference",g,--,--,21.00,17.21
"Fiber, total dietary",g,--,--,2.0,1.6
"Sugars, total",g,--,--,3.00,2.46
Minerals
"Calcium, Ca",mg,--,--,250,205
"Iron, Fe",mg,--,--,2.88,2.36
"Sodium, Na",mg,--,--,600,492
Vitamins
"Vitamin C, total ascorbic acid",mg,--,--,19.2,15.7
"Vitamin A, IU",IU,--,--,160,131
Lipids
"Fatty acids, total saturated",g,--,--,6.002,4.920
"Fatty acids, total trans",g,--,--,0.000,0.000
"Cholesterol",mg,--,--,35,29
Amino Acids
Other
Ingredients
"MOZZARELLA CHEESE (PASTEURIZED PART SKIM MILK, CHEESE CULTURES, SALT, ENZYMES), CRUST (WHEAT FLOUR [BLEACHED WHEAT FLOUR, NIACIN, REDUCED IRON, THIAMIN MONONITRATE, RIBOFLAVIN, ENZYME, FOLIC ACID], WATER, LARD [BHA, PROPYL GALLATE WITH CITRIC ACID ADDED TO HELP PROTECT FLAVOR], SOY BEAN OIL, DOUGH CONDITIONER [WHEY, L-CYSTEINE, MONO-HYDROCHLORIDE], SALT, SUGAR, YEAST), SAUCE (WATER, TOMATO PUREE, ROMANO CHEESE [PASTEURIZED COW'S MILK, CHEESE CULTURES, SALT, ENZYMES], SALT, SPICES, SUGAR, GARLIC POWDER), COOKED ITALIAN SAUSAGE (PORK, SPICES, SALT, DEXTROSE, GARLIC POWDER, PAPRIKA, FLAVORING), MUSHROOM, PEPPERONI (PORK, BEEF, SALT, DEXTROSE, SODIUM NITRITE, BHA, BHT, CITRIC ACID, MAY CONTAIN WATER, SPICES, FLAVORING, SMOKE FLAVORING, PAPRIKA, OLEORESIN OF PAPRIKA, LACTIC ACID STARTER CULTURE, SODIUM ASCORBATE, GARLIC POWDER, DEHYDRATED GARLIC), GREEN PEPPER, RED PEPPER, ONION." Date available: 07/14/2017 Date last updated by company: 07/14/2017
