Source: USDA Branded Food Products Database Release December 2017 Software v.3.8.6.4 2017-10-02
Report Run at: December 18, 2017 10:22 EST
"Nutrient data for: 45089021, SUPREME MUFFIN MIX, UPC: 041449301488"
Food Group:  Branded Food Products Database
Common Name:

Nutrient,Unit,Data points,Std. Error,"1 TBSP CRANBERRIES (8G) (AMOUNT FOR ONE MUFFIN) = 36.0g",1Value per 100 g,
Proximates
"Energy",kcal,--,--,140,389
"Protein",g,--,--,1.00,2.78
"Total lipid (fat)",g,--,--,0.00,0.00
"Carbohydrate, by difference",g,--,--,33.00,91.67
"Fiber, total dietary",g,--,--,2.0,5.6
"Sugars, total",g,--,--,17.00,47.22
Minerals
"Calcium, Ca",mg,--,--,20,56
"Iron, Fe",mg,--,--,1.00,2.78
"Sodium, Na",mg,--,--,290,806
Vitamins
"Vitamin C, total ascorbic acid",mg,--,--,0.0,0.0
"Vitamin A, IU",IU,--,--,278,772
Lipids
"Fatty acids, total saturated",g,--,--,0.000,0.000
"Fatty acids, total trans",g,--,--,0.000,0.000
"Cholesterol",mg,--,--,0,0
Amino Acids
Other
Ingredients
"ENRICHED BLEACHED FLOUR (WHEAT FLOUR, NIACIN, REDUCED IRON, THIAMIN MONONITRATE, RIBOFLAVIN, FOLIC ACID, MALTED BARLEY FLOUR), SUGAR, DEXTROSE, CELLULOSE. CONTAINS 2% OR LESS OF THE FOLLOWING: BAKING SODA, SODIUM ACID PYROPHOSPHATE, SODIUM ALUMINUM PHOSPHATE, MONOCALCIUM PHOSPHATE, ARABIC GUM, FOOD STARCH-MODIFIED, SALT, PROPYLENE GLYCOL MONOESTER*, MONO-DIGLYCERIDES*, SODIUM STEAROYL LACTYLATE*, SOY LECITHIN*, DRIED ORANGE PEEL, NATURAL AND ARTIFICIAL FLAVORS (CONTAINS MILK DERIVATIVES), XANTHAN GUM, CITRIC ACID, BETA CAROTENE (COLOR). FRESHNESS PRESERVED WITH BHA. CRANBERRIES AND ORANGE PEEL: SLICED CRANBERRIES, WATER, HIGH FRUCTOSE CORN SYRUP, ORANGE PEEL." Date available: 07/14/2017 Date last updated by company: 07/14/2017
