Source: USDA Branded Food Products Database Release December 2017 Software v.3.8.6.4 2017-10-02
Report Run at: December 18, 2017 10:25 EST
"Nutrient data for: 45092236, SURA, 10 SEAWEED SALAD MIX, UPC: 087703188709"
Food Group:  Branded Food Products Database
Common Name:

Nutrient,Unit,Data points,Std. Error,"0.5 PACKAGE = 42.5g",1Value per 100 g,
Proximates
"Energy",kcal,--,--,10,24
"Total lipid (fat)",g,--,--,0.00,0.00
"Carbohydrate, by difference",g,--,--,2.00,4.71
"Fiber, total dietary",g,--,--,0.0,0.0
"Sugars, total",g,--,--,0.00,0.00
Minerals
"Calcium, Ca",mg,--,--,0,0
"Iron, Fe",mg,--,--,1.44,3.39
"Sodium, Na",mg,--,--,240,565
Vitamins
"Vitamin C, total ascorbic acid",mg,--,--,0.0,0.0
"Vitamin A, IU",IU,--,--,0,0
Lipids
"Fatty acids, total saturated",g,--,--,0.000,0.000
"Fatty acids, total trans",g,--,--,0.000,0.000
"Cholesterol",mg,--,--,0,0
Amino Acids
Other
Ingredients
"WAKAME, SEA STRING, SEAWEED STEM, KELP, C.COSTARIA, Z. LATIFOLIA (GREEN), Z. LATIFOLIA (RED), AGAR, S. FUSLTORME, G. AMANSIL, SEA SALT." Date available: 06/25/2017 Date last updated by company: 06/25/2017
