Source: USDA Branded Food Products Database Release December 2017 Software v.3.8.6.4 2017-10-02
Report Run at: December 18, 2017 10:25 EST
"Nutrient data for: 45156798, SURVIVAL SNACK MIX, UPC: 041130599811"
Food Group:  Branded Food Products Database
Common Name:

Nutrient,Unit,Data points,Std. Error,"0.25 CUP | ABOUT = 30.0g",1Value per 100 g,
Proximates
"Energy",kcal,--,--,220,733
"Protein",g,--,--,7.00,23.33
"Total lipid (fat)",g,--,--,6.00,20.00
"Carbohydrate, by difference",g,--,--,23.00,76.67
"Fiber, total dietary",g,--,--,6.0,20.0
"Sugars, total",g,--,--,6.00,20.00
Minerals
"Calcium, Ca",mg,--,--,0,0
"Iron, Fe",mg,--,--,3.00,10.00
"Sodium, Na",mg,--,--,55,183
Vitamins
"Vitamin C, total ascorbic acid",mg,--,--,4.0,13.3
"Vitamin A, IU",IU,--,--,0,0
Lipids
"Fatty acids, total saturated",g,--,--,0.999,3.330
"Fatty acids, total trans",g,--,--,0.000,0.000
"Cholesterol",mg,--,--,0,0
Amino Acids
Other
Ingredients
"ALMONDS, CURRANTS+ (TRISUN OIL), CRANBERRIES+ (WITH SUGAR, SUNFLOWER OIL), APRICOTS+ (RICE FLOUR, SULFUR DIOXIDE*), PISTACHIO KERNELS, JUMBO RAISINS (SULFUR DIOXIDE*, SUNFLOWER OIL), JUMBO DARK RAISIN (SUNFLOWER OIL), CHERRIES+ (WITH SUGAR, CORN SYRUP, SUNFLOWER OIL)." Date available: 07/14/2017 Date last updated by company: 07/14/2017
