Source: USDA Branded Food Products Database Release December 2017 Software v.3.8.6.4 2017-10-02
Report Run at: December 18, 2017 10:28 EST
"Nutrient data for: 45333771, SUTTER BUTTES, OLIVE OIL, GARLIC, UPC: 013964697131"
Food Group:  Branded Food Products Database
Common Name:

Nutrient,Unit,Data points,Std. Error,"1 TBSP = 15.0g",1Value per 100 g,
Proximates
"Energy",kcal,--,--,120,800
"Total lipid (fat)",g,--,--,14.00,93.33
Minerals
Vitamins
Lipids
"Fatty acids, total saturated",g,--,--,1.999,13.330
"Cholesterol",mg,--,--,0,0
Amino Acids
Other
Ingredients
"CALIFORNIA EXTRA VIRGIN OLIVE OIL, CANOLA OIL, NATURAL GARLIC FLAVOR" Date available: 10/13/2017 Date last updated by company: 10/13/2017
