Source: USDA Branded Food Products Database Release December 2017 Software v.3.8.6.4 2017-10-02
Report Run at: December 18, 2017 10:30 EST
"Nutrient data for: 45183817, SWAI FILLETS, UPC: 078742046334"
Food Group:  Branded Food Products Database
Common Name:

Nutrient,Unit,Data points,Std. Error,"4.0 ONZ = 113.0g",1Value per 100 g,
Proximates
"Energy",kcal,--,--,60,53
"Protein",g,--,--,12.00,10.62
"Total lipid (fat)",g,--,--,1.50,1.33
"Carbohydrate, by difference",g,--,--,0.00,0.00
"Fiber, total dietary",g,--,--,0.0,0.0
"Sugars, total",g,--,--,0.00,0.00
Minerals
"Calcium, Ca",mg,--,--,20,18
"Iron, Fe",mg,--,--,0.00,0.00
"Sodium, Na",mg,--,--,400,354
Vitamins
"Vitamin C, total ascorbic acid",mg,--,--,0.9,0.8
"Vitamin A, IU",IU,--,--,0,0
Lipids
"Fatty acids, total saturated",g,--,--,0.497,0.440
"Fatty acids, total trans",g,--,--,0.000,0.000
"Cholesterol",mg,--,--,40,35
Amino Acids
Other
Ingredients
"SWAI FILLETS, POTASSIUM BICARBONATE AND SODIUM ASCORBATE AND CITRIC ACID (ADDED TO RETAIN MOISTURE)." Date available: 07/14/2017 Date last updated by company: 07/14/2017
