Source: USDA Branded Food Products Database Release December 2017 Software v.3.8.6.4 2017-10-02
Report Run at: December 18, 2017 11:22 EST
"Nutrient data for: 45220593, SWEET PEACH SALSA, UPC: 632434020967"
Food Group:  Branded Food Products Database
Common Name:

Nutrient,Unit,Data points,Std. Error,"2.0 Tbsp = 31.0g",1Value per 100 g,
Proximates
"Energy",kcal,--,--,20,65
"Protein",g,--,--,0.00,0.00
"Total lipid (fat)",g,--,--,0.00,0.00
"Carbohydrate, by difference",g,--,--,5.00,16.13
"Fiber, total dietary",g,--,--,0.0,0.0
"Sugars, total",g,--,--,5.00,16.13
Minerals
"Calcium, Ca",mg,--,--,0,0
"Iron, Fe",mg,--,--,0.00,0.00
"Sodium, Na",mg,--,--,35,113
Vitamins
"Vitamin C, total ascorbic acid",mg,--,--,2.0,6.3
"Vitamin A, IU",IU,--,--,162,521
Lipids
"Fatty acids, total saturated",g,--,--,0.000,0.000
"Fatty acids, total trans",g,--,--,0.000,0.000
"Cholesterol",mg,--,--,0,0
Amino Acids
Other
Ingredients
"TOMATOES, PEACHES, ONION, VINEGAR, BROWN SUGAR, PEPPERS, SUGAR, SPICES, GRANULATED GARLIC, LESS THAN 2% OF SALT, GARLIC POWDER, ONION POWDER, PAPRIKA, NATURAL FLAVORS" Date available: 07/14/2017 Date last updated by company: 07/14/2017
