Source: USDA Branded Food Products Database Release December 2017 Software v.3.8.6.4 2017-10-02
Report Run at: December 18, 2017 11:33 EST
"Nutrient data for: 45059186, SWEET RELISH, UPC: 009300000079"
Food Group:  Branded Food Products Database
Common Name:

Nutrient,Unit,Data points,Std. Error,"1 Tbsp = 15.0g",1Value per 100 g,
Proximates
"Energy",kcal,--,--,20,133
"Protein",g,--,--,0.00,0.00
"Total lipid (fat)",g,--,--,0.00,0.00
"Carbohydrate, by difference",g,--,--,4.00,26.67
"Sugars, total",g,--,--,2.00,13.33
Minerals
"Sodium, Na",mg,--,--,90,600
Vitamins
Lipids
Amino Acids
Other
Ingredients
"CUCUMBERS, CORN SYRUP, HIGH FRUCTOSE CORN SYRUP, VINEGAR, SALT, WATER, RED BELL PEPPER, 0.1% SODIUM BENZOATE (PRESERVATIVE), ALUM, XANTHAN GUM, CALCIUM CHLORIDE, NATURAL FLAVORS, POLYSORBATE 80, AND YELLOW 5." Date available: 06/24/2017 Date last updated by company: 06/24/2017
