Source: USDA Branded Food Products Database Release December 2017 Software v.3.8.6.4 2017-10-02
Report Run at: December 18, 2017 10:43 EST
"Nutrient data for: 45327408, SWEET BBQ POPPED POTATO CRISPS, UPC: 817974022286"
Food Group:  Branded Food Products Database
Common Name:

Nutrient,Unit,Data points,Std. Error,"24.0 CRISPS) | (ABOUT = 28.0g",1Value per 100 g,
Proximates
"Energy",kcal,--,--,120,429
"Protein",g,--,--,2.00,7.14
"Total lipid (fat)",g,--,--,4.00,14.29
"Carbohydrate, by difference",g,--,--,19.00,67.86
"Fiber, total dietary",g,--,--,1.0,3.6
"Sugars, total",g,--,--,3.00,10.71
Minerals
"Calcium, Ca",mg,--,--,10,36
"Iron, Fe",mg,--,--,0.00,0.00
"Potassium, K",mg,--,--,125,446
"Sodium, Na",mg,--,--,190,679
Vitamins
"Vitamin D",IU,--,--,0,0
Lipids
"Fatty acids, total saturated",g,--,--,0.501,1.790
"Fatty acids, total trans",g,--,--,0.000,0.000
"Cholesterol",mg,--,--,0,0
Amino Acids
Other
Ingredients
"POTATO CRISP (POTATO, RICE FLOUR, POTATO STARCH, MONO AND DIGLYCERIDES), BBQ SEASONING (CANE SUGAR, SALT, DEHYDRATED ONION, TOMATO, HONEY POWDER, CHILI PEPPER, YEAST EXTRACT, DEHYDRATED GARLIC, EXTRACTIVES OF PAPRIKA, NATURAL SMOKE FLAVOR, CITRIC ACID, SPICE), SUNFLOWER OIL, SHALLOTS." Date available: 10/13/2017 Date last updated by company: 10/13/2017
