Source: USDA Branded Food Products Database Release December 2017 Software v.3.8.6.4 2017-10-02
Report Run at: December 18, 2017 10:44 EST
"Nutrient data for: 45109742, SWEET BOURBON PORK, UPC: 717854470063"
Food Group:  Branded Food Products Database
Common Name:

Nutrient,Unit,Data points,Std. Error,"1 PACKAGE = 284.0g",1Value per 100 g,
Proximates
"Energy",kcal,--,--,400,141
"Protein",g,--,--,18.01,6.34
"Total lipid (fat)",g,--,--,9.00,3.17
"Carbohydrate, by difference",g,--,--,62.99,22.18
"Fiber, total dietary",g,--,--,2.0,0.7
"Sugars, total",g,--,--,14.00,4.93
Minerals
"Calcium, Ca",mg,--,--,60,21
"Iron, Fe",mg,--,--,1.25,0.44
"Sodium, Na",mg,--,--,1071,377
Vitamins
"Vitamin C, total ascorbic acid",mg,--,--,14.5,5.1
"Vitamin A, IU",IU,--,--,207,73
Lipids
"Fatty acids, total saturated",g,--,--,1.505,0.530
"Fatty acids, total trans",g,--,--,0.000,0.000
"Cholesterol",mg,--,--,31,11
Amino Acids
Other
Ingredients
"COOKED LONG GRAIN RICE, COOKED PULLED STYLE PORK WITH STARCH PRODUCT (PORK, WATER, LESS THAN 2% RICE STARCH, LEMON JUICE CONCENTRATE, SALT, VINEGAR), WATER, SOY SAUCE (WATER, SOYBEANS, WHEAT, SALT, VINEGAR), CORN, BLACK BEANS (WITH WATER), RED BELL PEPPERS, BROWN SUGAR, BOURBON (WITH SALT), LESS THAN 2% OF APPLE JUICE CONCENTRATE, CANOLA OIL, MODIFIED FOOD STARCH, SALTED MIRIN (WATER, RICE, DEXTROSE, CORN SYRUP, SALT), GARLIC (WITH WATER AND CITRIC ACID), GINGER PUREE (GINGER, WATER), SALT, PARSLEY, GRANULATED ONION, GRANULATED GARLIC, SPICE, LIME FLAVOR WITH OTHER NATURAL FLAVORS (SUNFLOWER OIL, NATURAL FLAVOR)." Date available: 07/14/2017 Date last updated by company: 07/14/2017
