Source: USDA Branded Food Products Database Release December 2017 Software v.3.8.6.4 2017-10-02
Report Run at: December 18, 2017 11:37 EST
"Nutrient data for: 45158917, SWEET & SALTY TRAIL MIX, UPC: 077232136449"
Food Group:  Branded Food Products Database
Common Name:

Nutrient,Unit,Data points,Std. Error,"0.5 cup = 30.0g",1Value per 100 g,
Proximates
"Energy",kcal,--,--,130,433
"Protein",g,--,--,2.00,6.67
"Total lipid (fat)",g,--,--,4.00,13.33
"Carbohydrate, by difference",g,--,--,23.00,76.67
"Fiber, total dietary",g,--,--,0.0,0.0
"Sugars, total",g,--,--,8.00,26.67
Minerals
"Calcium, Ca",mg,--,--,20,67
"Iron, Fe",mg,--,--,3.00,10.00
"Sodium, Na",mg,--,--,200,667
Vitamins
"Vitamin C, total ascorbic acid",mg,--,--,2.0,6.7
"Vitamin A, IU",IU,--,--,334,1112
Lipids
"Fatty acids, total saturated",g,--,--,3.000,10.000
"Fatty acids, total trans",g,--,--,0.000,0.000
"Cholesterol",mg,--,--,0,0
Amino Acids
Other
Ingredients
"SUGAR, ENRICHED WHEAT FLOUR (WHEAT FLOUR, NIACIN, REDUCED IRON, THIAMINE MONONITRATE, RIBOFLAVIN, FOLIC ACID), VEGETABLE OIL (HYDROGENATED PALM KERNEL, MAY CONTAIN ONE OR MORE OF THE FOLLOWING, CORN, CANOLA, COTTONSEED, SOYBEAN), SKIM MILK,SALT, LACTOSE, TITANIUM DIOXIDE (AN ARTIFICIAL COLOR), CORN SYRUP, DISTILLED MONOGLYCERIDE, SODIUM BICARBONATE, YEAST, SOY LECITHIN (AN EMULSIFIER), VANILLIN (AN ARTIFICIAL FLAVOR), CORN MEAL, WHOLE GRAIN OAT FLOUR (INCLUDES OATBRAN), CORN BRAN, WHEAT STARCH, MOLASSES, FOOD STARCH-MODIFIED, OAT FIBER, OAT EXTRACT, POTASSIUM CHLORIDE, DICALCIUM PHOSPHATE, TRIPOTASSIUM PHOSPHATE, WHEY, COCOA, BLUE 1, BLUE 1 LAKE, BLUE 2 LAKE. YELLOW 5, YELLOW 5 LAKE, YELLOW 6, YELLOW 6 LAKE, RED 40, RED 40 LAKE, SORBITOL, PHOSPHORIC ACID, METHYL AND PROPYL PARABENS, CARAMEL, NONFAT MILK POWDER, WAX, DEXTRIN, VITAMIN E (MIXED TOCOPHEROLS) ADDED TO PRESERVE FRESHNESS." Date available: 07/14/2017 Date last updated by company: 07/14/2017
