Source: USDA Branded Food Products Database Release December 2017 Software v.3.8.6.4 2017-10-02
Report Run at: December 18, 2017 10:45 EST
"Nutrient data for: 45101704, SWEET CANDY, BANANA TAFFY, UPC: 071443031876"
Food Group:  Branded Food Products Database
Common Name:

Nutrient,Unit,Data points,Std. Error,"7.0 PIECES = 42.0g",1Value per 100 g,
Proximates
"Energy",kcal,--,--,160,381
"Protein",g,--,--,0.00,0.00
"Total lipid (fat)",g,--,--,2.00,4.76
"Carbohydrate, by difference",g,--,--,38.00,90.48
"Sugars, total",g,--,--,23.00,54.76
Minerals
"Sodium, Na",mg,--,--,60,143
Vitamins
Lipids
"Fatty acids, total saturated",g,--,--,1.499,3.570
Amino Acids
Other
Ingredients
"CORN SYRUP, SUGAR, COCONUT OIL, EGG WHITES, NATURAL AND ARTIFICIAL FLAVOR, SALT, YELLOW #5." Date available: 06/25/2017 Date last updated by company: 06/25/2017
