Source: USDA Branded Food Products Database Release December 2017 Software v.3.8.6.4 2017-10-02
Report Run at: December 18, 2017 11:40 EST
"Nutrient data for: 45065748, SWEET SLICED MANGO CHUTNEY, UPC: 841905030125"
Food Group:  Branded Food Products Database
Common Name:

Nutrient,Unit,Data points,Std. Error,"1 Tbsp = 25.0g",1Value per 100 g,
Proximates
"Energy",kcal,--,--,70,280
"Protein",g,--,--,1.00,4.00
"Total lipid (fat)",g,--,--,0.00,0.00
"Carbohydrate, by difference",g,--,--,17.00,68.00
"Fiber, total dietary",g,--,--,0.0,0.0
"Sugars, total",g,--,--,16.00,64.00
Minerals
"Calcium, Ca",mg,--,--,0,0
"Iron, Fe",mg,--,--,2.16,8.64
"Sodium, Na",mg,--,--,55,220
Vitamins
"Vitamin C, total ascorbic acid",mg,--,--,0.0,0.0
"Vitamin A, IU",IU,--,--,0,0
Lipids
"Fatty acids, total saturated",g,--,--,0.000,0.000
"Fatty acids, total trans",g,--,--,0.000,0.000
"Cholesterol",mg,--,--,0,0
Amino Acids
Other
Ingredients
"SUGAR, MANGO, CANE VINEGAR, WATER, SALT, GINGER, GARLIC, RED CHILLI POWDER, CITRIC ACID AND ACETIC ACID." Date available: 07/14/2017 Date last updated by company: 07/14/2017
