Source: USDA Branded Food Products Database Release December 2017 Software v.3.8.6.4 2017-10-02
Report Run at: December 18, 2017 10:39 EST
"Nutrient data for: 45239465, SWEET ASIAN HOISIN SAUCE, UPC: 011206000855"
Food Group:  Branded Food Products Database
Common Name:

Nutrient,Unit,Data points,Std. Error,"1 Tbsp = 15.0g",1Value per 100 g,
Proximates
"Energy",kcal,--,--,15,100
"Protein",g,--,--,0.00,0.00
"Total lipid (fat)",g,--,--,0.00,0.00
"Carbohydrate, by difference",g,--,--,3.00,20.00
"Fiber, total dietary",g,--,--,0.0,0.0
"Sugars, total",g,--,--,2.00,13.33
Minerals
"Calcium, Ca",mg,--,--,0,0
"Iron, Fe",mg,--,--,0.00,0.00
"Potassium, K",mg,--,--,40,267
"Sodium, Na",mg,--,--,160,1067
Vitamins
"Vitamin C, total ascorbic acid",mg,--,--,0.0,0.0
"Vitamin A, IU",IU,--,--,0,0
Lipids
"Fatty acids, total saturated",g,--,--,0.000,0.000
"Fatty acids, total trans",g,--,--,0.000,0.000
"Cholesterol",mg,--,--,0,0
Amino Acids
Other
Ingredients
"FILTERED WATER, WHEAT-FREE TAMARI* (WATER, SOYBEANS*, SALT), APPLE CIDER VINEGAR*, EVAPORATED CANE SYRUP*, MOLASSES*, MISO* (SOYBEANS*, CULTURED RICE*, [KOJI] SEA SALT, WATER), ORANGE JUICE CONCENTRATE*, TAPIOCA STARCH*, TOASTED SESAME OIL*, CHILI PEPPER*, GINGER PUREE*, XANTHAN GUM, GARLIC*, TAMARIND*, CINNAMON*, BLACK PEPPER*, ANISE*, FENNEL*, CLOVES*." Date available: 07/14/2017 Date last updated by company: 07/14/2017
