Source: USDA Branded Food Products Database Release December 2017 Software v.3.8.6.4 2017-10-02
Report Run at: December 18, 2017 11:18 EST
"Nutrient data for: 45051197, SWEET MATE, ALL NATURAL MADE WITH STEVIA EXTRACT, UPC: 300258901082"
Food Group:  Branded Food Products Database
Common Name:

Nutrient,Unit,Data points,Std. Error,"1 PACKET = 2.0g",1Value per 100 g,
Proximates
"Energy",kcal,--,--,0,0
"Protein",g,--,--,0.00,0.00
"Total lipid (fat)",g,--,--,0.00,0.00
"Carbohydrate, by difference",g,--,--,2.00,100.00
"Sugars, total",g,--,--,0.00,0.00
Minerals
"Sodium, Na",mg,--,--,0,0
Vitamins
Lipids
Amino Acids
Other
Ingredients
"ERYTHRITOL, REBIANA, NATURAL FLAVORS." Date available: 06/25/2017 Date last updated by company: 06/25/2017
