Source: USDA Branded Food Products Database Release December 2017 Software v.3.8.6.4 2017-10-02
Report Run at: December 18, 2017 11:47 EST
"Nutrient data for: 45180795, SWEET TAMARIND WITH CHILE, UPC: 871783004109"
Food Group:  Branded Food Products Database
Common Name:

Nutrient,Unit,Data points,Std. Error,"14.0 GRM = 14.0g",1Value per 100 g,
Proximates
"Energy",kcal,--,--,10,71
"Protein",g,--,--,0.00,0.00
"Total lipid (fat)",g,--,--,0.00,0.00
"Carbohydrate, by difference",g,--,--,2.00,14.29
"Fiber, total dietary",g,--,--,1.0,7.1
"Sugars, total",g,--,--,7.00,50.00
Minerals
"Calcium, Ca",mg,--,--,22,157
"Iron, Fe",mg,--,--,1.35,9.64
"Sodium, Na",mg,--,--,0,0
Vitamins
"Vitamin C, total ascorbic acid",mg,--,--,5.4,38.3
"Vitamin A, IU",IU,--,--,0,0
Lipids
"Fatty acids, total saturated",g,--,--,0.000,0.000
"Fatty acids, total trans",g,--,--,0.000,0.000
"Cholesterol",mg,--,--,0,0
Amino Acids
Other
Ingredients
"SUGAR, TAMARIND PULP, CHILE." Date available: 09/13/2017 Date last updated by company: 09/13/2017
