Source: USDA Branded Food Products Database Release December 2017 Software v.3.8.6.4 2017-10-02
Report Run at: December 18, 2017 11:29 EST
"Nutrient data for: 45208796, SWEET POTATO GRATIN, UPC: 20042172"
Food Group:  Branded Food Products Database
Common Name:

Nutrient,Unit,Data points,Std. Error,"1 cup = 110.0g",1Value per 100 g,
Proximates
"Energy",kcal,--,--,170,155
"Protein",g,--,--,6.00,5.45
"Total lipid (fat)",g,--,--,9.00,8.18
"Carbohydrate, by difference",g,--,--,19.00,17.27
"Fiber, total dietary",g,--,--,2.0,1.8
"Sugars, total",g,--,--,2.00,1.82
Minerals
"Calcium, Ca",mg,--,--,150,136
"Iron, Fe",mg,--,--,0.46,0.42
"Sodium, Na",mg,--,--,280,255
Vitamins
"Vitamin C, total ascorbic acid",mg,--,--,11.4,10.4
"Vitamin A, IU",IU,--,--,509,463
Lipids
"Fatty acids, total saturated",g,--,--,5.005,4.550
"Fatty acids, total trans",g,--,--,0.000,0.000
"Cholesterol",mg,--,--,25,23
Amino Acids
Other
Ingredients
"SWEET POTATO, SWEET POTATO SAUCE [REDUCED FAT MILK, WATER, CREAM, PARMESAN CHEESE (PASTEURIZED PART-SKIM COW'S MILK, CHEESE CULTURE, SALT, ENZYMES), CHEDDAR CHEESE (PASTEURIZED MILK, CHEESE CULTURE, SALT, ENZYMES, ANNATTO), CORN STARCH, SHALLOT, CANOLA OIL, SALT, MUSTARD SEED, BLACK PEPPER, PAPRIKA], SWISS CHEESE (CULTURED PART-SKIM MILK, SALT, ENZYMES), PARSLEY." Date available: 07/14/2017 Date last updated by company: 07/14/2017
