Source: USDA Branded Food Products Database Release December 2017 Software v.3.8.6.4 2017-10-02
Report Run at: December 18, 2017 11:28 EST
"Nutrient data for: 45269390, SWEET POTATO ECLAIR ICE CREAM, UPC: 855802003915"
Food Group:  Branded Food Products Database
Common Name:

Nutrient,Unit,Data points,Std. Error,"0.5 cup = 98.0g",1Value per 100 g,
Proximates
"Energy",kcal,--,--,260,265
"Protein",g,--,--,5.00,5.10
"Total lipid (fat)",g,--,--,14.00,14.29
"Carbohydrate, by difference",g,--,--,28.00,28.57
"Fiber, total dietary",g,--,--,0.0,0.0
"Sugars, total",g,--,--,26.00,26.53
Minerals
"Calcium, Ca",mg,--,--,150,153
"Iron, Fe",mg,--,--,0.00,0.00
"Sodium, Na",mg,--,--,125,128
Vitamins
"Vitamin C, total ascorbic acid",mg,--,--,2.7,2.8
"Vitamin A, IU",IU,--,--,2529,2581
Lipids
"Fatty acids, total saturated",g,--,--,8.996,9.180
"Fatty acids, total trans",g,--,--,0.000,0.000
"Cholesterol",mg,--,--,50,51
Amino Acids
Other
Ingredients
"NONFAT MILK, CREAM, CANE SUGAR, SWEET POTATO, WHITE CHOCOLATE [SUGAR, COCOA BUTTER, WHOLE MILK, WHEY POWDER, LACTOSE, SOY LECITHIN (EMULSIFIER), NATURAL VANILLA FLAVORING], HONEY, BISCUIT FLAKES [WHEAT FLOUR, SUGAR, MILK FAT, MILK SUGAR, MILK PROTEIN CONCENTRATE, SALT, MALT EXTRACT, SODIUM BICARBONATE], TAPIOCA STARCH, MADAGASCAR BOURBON VANILLA EXTRACT, SEA SALT, CINNAMON." Date available: 07/14/2017 Date last updated by company: 07/14/2017
