Source: USDA Branded Food Products Database Release December 2017 Software v.3.8.6.4 2017-10-02
Report Run at: December 18, 2017 11:20 EST
"Nutrient data for: 45277796, SWEET NUT & BERRY MUNCH TRAIL MIX, UPC: 071725728203"
Food Group:  Branded Food Products Database
Common Name:

Nutrient,Unit,Data points,Std. Error,"0.25 cup = 30.0g",1Value per 100 g,
Proximates
"Energy",kcal,--,--,160,533
"Protein",g,--,--,5.00,16.67
"Total lipid (fat)",g,--,--,9.00,30.00
"Carbohydrate, by difference",g,--,--,14.00,46.67
"Fiber, total dietary",g,--,--,2.0,6.7
"Sugars, total",g,--,--,10.00,33.33
Minerals
"Calcium, Ca",mg,--,--,20,67
"Iron, Fe",mg,--,--,1.20,4.00
"Sodium, Na",mg,--,--,35,117
Vitamins
"Vitamin C, total ascorbic acid",mg,--,--,0.0,0.0
"Vitamin A, IU",IU,--,--,0,0
Lipids
"Fatty acids, total saturated",g,--,--,2.499,8.330
"Fatty acids, total trans",g,--,--,0.000,0.000
"Cholesterol",mg,--,--,0,0
Amino Acids
Other
Ingredients
"HONEY ROASTED PEANUTS (PEANUTS, SUGAR, HONEY, TAPIOCA DEXTRIN, CORN STARCH, COTTONSEED OIL, SALT), DRY ROASTED PEPITAS, ORANGE FLAVORED DRIED CRANBERRIES (CANE SUGAR, CRANBERRIES, CITRIC ACID, NATURAL ORANGE FLAVOR WITH OTHER NATURAL FLAVORS, ELDERBERRY JUICE CONCENTRATE (COLOR), SUNFLOWER OIL (PROCESSING AID)), WHITE CANDY CHIPS (SUGAR, PARTIALLY HYDROGENATED PALM KERNEL OIL, NONFAT MILK POWDER, SOY LECITHIN (AN EMULSIFIER), MONOGLYCERIDES, COLOR ADDED (TITANIUM DIOXIDE), NATURAL AND ARTIFICIAL VANILLA), CHOCOLATE CHIPS (SUGAR, PARTIALLY HYDROGENATED VEGETABLE OIL (PALM KERNEL, COCONUT, PALM), COCOA POWDER (MAY BE PROCESSED WITH ALKALI), DEXTROSE, WHEY, SOY LECITHIN (AN EMULSIFIER), VANILLIN (AN ARTIFICIAL FLAVOR)." Date available: 07/14/2017 Date last updated by company: 07/14/2017
