Source: USDA Branded Food Products Database Release December 2017 Software v.3.8.6.4 2017-10-02
Report Run at: December 18, 2017 10:42 EST
"Nutrient data for: 45066716, SWEET BABY WHOLES, UPC: 041820103281"
Food Group:  Branded Food Products Database
Common Name:

Nutrient,Unit,Data points,Std. Error,"1 PICKLE | ABOUT = 28.0g",1Value per 100 g,
Proximates
"Energy",kcal,--,--,30,107
"Protein",g,--,--,0.00,0.00
"Total lipid (fat)",g,--,--,0.00,0.00
"Carbohydrate, by difference",g,--,--,8.00,28.57
"Sugars, total",g,--,--,8.00,28.57
Minerals
"Sodium, Na",mg,--,--,140,500
Vitamins
Lipids
Amino Acids
Other
Ingredients
"CUCUMBERS, SUGAR, VINEGAR, SALT, WATER, CALCIUM CHLORIDE, ALUM, ARTIFICIAL FLAVORS, YELLOW 5." Date available: 10/04/2017 Date last updated by company: 10/04/2017
