Source: USDA Branded Food Products Database Release December 2017 Software v.3.8.6.4 2017-10-02
Report Run at: December 18, 2017 10:36 EST
"Nutrient data for: 45314444, SWEETARTS CANDY, SOFT & CHEWY ROPES, CHERRY PUNCH, UPC: 079200249113"
Food Group:  Branded Food Products Database
Common Name:

Nutrient,Unit,Data points,Std. Error,"3.0 ROPES = 42.0g",1Value per 100 g,
Proximates
"Energy",kcal,--,--,150,357
"Protein",g,--,--,0.00,0.00
"Total lipid (fat)",g,--,--,0.00,0.00
"Carbohydrate, by difference",g,--,--,35.00,83.33
"Sugars, total",g,--,--,24.00,57.14
Minerals
"Sodium, Na",mg,--,--,90,214
Vitamins
Lipids
"Fatty acids, total saturated",g,--,--,0.000,0.000
"Fatty acids, total trans",g,--,--,0.000,0.000
Amino Acids
Other
Ingredients
"SUGAR, WHEAT FLOUR, CORN SYRUP, AND LESS THAN 2% OF WATER, CITRIC ACID, SORBITOL, MALTODEXTRIN, SODIUM CITRATE, GLYCERIN, MALIC ACID, NATURAL FLAVORS, GELATIN, SALT, VEGETABLE JUICE COLOR, BETA CAROTENE (COLOR), CONFECTIONER'S GLAZE (LAC-RESIN)." Date available: 07/14/2017 Date last updated by company: 07/14/2017
