Source: USDA Branded Food Products Database Release December 2017 Software v.3.8.6.4 2017-10-02
Report Run at: December 18, 2017 11:23 EST
"Nutrient data for: 45197331, SWEET PEAS, UPC: 070522474511"
Food Group:  Branded Food Products Database
Common Name:

Nutrient,Unit,Data points,Std. Error,"0.5 cup = 129.0g",1Value per 100 g,
Proximates
"Energy",kcal,--,--,90,70
"Protein",g,--,--,4.00,3.10
"Total lipid (fat)",g,--,--,0.50,0.39
"Carbohydrate, by difference",g,--,--,16.00,12.40
"Fiber, total dietary",g,--,--,6.1,4.7
"Sugars, total",g,--,--,4.00,3.10
Minerals
"Calcium, Ca",mg,--,--,21,16
"Iron, Fe",mg,--,--,1.44,1.12
"Potassium, K",mg,--,--,170,132
"Sodium, Na",mg,--,--,141,109
Vitamins
"Vitamin C, total ascorbic acid",mg,--,--,0.0,0.0
"Vitamin A, IU",IU,--,--,402,312
Lipids
"Fatty acids, total saturated",g,--,--,0.000,0.000
"Fatty acids, total monounsaturated",g,--,--,0.000,0.000
"Fatty acids, total polyunsaturated",g,--,--,0.000,0.000
"Fatty acids, total trans",g,--,--,0.000,0.000
"Cholesterol",mg,--,--,0,0
Amino Acids
Other
Ingredients
"SWEET PEAS, WATER, SALT." Date available: 07/14/2017 Date last updated by company: 07/14/2017
