Source: USDA Branded Food Products Database Release December 2017 Software v.3.8.6.4 2017-10-02
Report Run at: December 18, 2017 11:42 EST
"Nutrient data for: 45152222, SWEET'S, ORANGE SLICES CANDY, UPC: 071443010604"
Food Group:  Branded Food Products Database
Common Name:

Nutrient,Unit,Data points,Std. Error,"4.0 PIECES = 42.0g",1Value per 100 g,
Proximates
"Energy",kcal,--,--,150,357
"Protein",g,--,--,0.00,0.00
"Total lipid (fat)",g,--,--,0.00,0.00
"Carbohydrate, by difference",g,--,--,40.00,95.24
"Fiber, total dietary",g,--,--,0.0,0.0
"Sugars, total",g,--,--,28.00,66.67
Minerals
"Calcium, Ca",mg,--,--,0,0
"Iron, Fe",mg,--,--,0.00,0.00
"Sodium, Na",mg,--,--,15,36
Vitamins
"Vitamin C, total ascorbic acid",mg,--,--,0.0,0.0
"Vitamin A, IU",IU,--,--,0,0
Lipids
"Fatty acids, total saturated",g,--,--,0.000,0.000
"Fatty acids, total trans",g,--,--,0.000,0.000
"Cholesterol",mg,--,--,0,0
Amino Acids
Other
Ingredients
"CORN SYRUP, SUGAR, CORN STARCH-MODIFIED, NATURAL FLAVOR, MALIC ACID, YELLOW #6, RED #3." Date available: 07/14/2017 Date last updated by company: 07/14/2017
