Source: USDA Branded Food Products Database Release December 2017 Software v.3.8.6.4 2017-10-02
Report Run at: December 18, 2017 10:39 EST
"Nutrient data for: 45262876, SWEETARTS, WHIPPED & TANGY CANDY, UPC: 079200390266"
Food Group:  Branded Food Products Database
Common Name:

Nutrient,Unit,Data points,Std. Error,"20.0 PIECES = 40.0g",1Value per 100 g,
Proximates
"Energy",kcal,--,--,140,350
"Protein",g,--,--,0.00,0.00
"Total lipid (fat)",g,--,--,0.00,0.00
"Carbohydrate, by difference",g,--,--,33.00,82.50
"Sugars, total",g,--,--,29.00,72.50
Minerals
"Sodium, Na",mg,--,--,45,112
Vitamins
Lipids
Amino Acids
Other
Ingredients
"SUGAR, GLUCOSE SYRUP (FROM CORN OR WHEAT), GELATIN, AND LESS THAN 2% OF CITRIC ACID, MALIC ACID, NATURAL FLAVORS, FRUIT AND VEGETABLE JUICE COLOR, SPIRULINA EXTRACT COLOR, PAPRIKA OLEORESIN COLOR, TURMERIC OLEORESIN COLOR, BETA-CAROTENE COLOR." Date available: 07/14/2017 Date last updated by company: 07/14/2017
