Source: USDA Branded Food Products Database Release December 2017 Software v.3.8.6.4 2017-10-02
Report Run at: December 18, 2017 11:16 EST
"Nutrient data for: 45105076, SWEET KERNEL CORN, UPC: 014500002952"
Food Group:  Branded Food Products Database
Common Name:

Nutrient,Unit,Data points,Std. Error,"0.5 cup = 74.0g",1Value per 100 g,
Proximates
"Energy",kcal,--,--,60,81
"Protein",g,--,--,2.00,2.70
"Total lipid (fat)",g,--,--,1.00,1.35
"Carbohydrate, by difference",g,--,--,11.00,14.86
"Fiber, total dietary",g,--,--,2.0,2.7
"Sugars, total",g,--,--,5.00,6.76
Minerals
"Calcium, Ca",mg,--,--,0,0
"Iron, Fe",mg,--,--,0.00,0.00
"Sodium, Na",mg,--,--,0,0
Vitamins
"Vitamin C, total ascorbic acid",mg,--,--,5.5,7.5
"Vitamin A, IU",IU,--,--,0,0
Lipids
"Fatty acids, total saturated",g,--,--,0.000,0.000
"Fatty acids, total trans",g,--,--,0.000,0.000
"Cholesterol",mg,--,--,0,0
Amino Acids
Other
Ingredients
"CORN." Date available: 06/25/2017 Date last updated by company: 06/25/2017
