Source: USDA Branded Food Products Database Release December 2017 Software v.3.8.6.4 2017-10-02
Report Run at: December 18, 2017 11:12 EST
"Nutrient data for: 45038272, SWEET HICKORY CHICKEN BARBECUE SAUCE, UPC: 889379125091"
Food Group:  Branded Food Products Database
Common Name:

Nutrient,Unit,Data points,Std. Error,"2.0 Tbsp = 30.0g",1Value per 100 g,
Proximates
"Energy",kcal,--,--,20,67
"Protein",g,--,--,0.00,0.00
"Total lipid (fat)",g,--,--,0.00,0.00
"Carbohydrate, by difference",g,--,--,4.00,13.33
"Fiber, total dietary",g,--,--,0.0,0.0
"Sugars, total",g,--,--,3.00,10.00
Minerals
"Calcium, Ca",mg,--,--,0,0
"Iron, Fe",mg,--,--,0.61,2.03
"Sodium, Na",mg,--,--,370,1233
Vitamins
"Vitamin C, total ascorbic acid",mg,--,--,1.2,4.0
"Vitamin A, IU",IU,--,--,338,1127
Lipids
"Fatty acids, total saturated",g,--,--,0.000,0.000
"Fatty acids, total trans",g,--,--,0.000,0.000
"Cholesterol",mg,--,--,0,0
Amino Acids
Other
Ingredients
"TOMATO PUREE (FILTERED WATER, TOMATO PASTE), EVAPORATED CANE SUGAR, APPLE CIDER VINEGAR, WORCESTERSHIRE SAUCE (DISTILLED WHITE VINEGAR, MOLASSES, WATER SUGAR, ONIONS, ANCHOVIES*, SALT GARLIC, CLOVES, TAMARIND EXTRACT, NATURAL FLAVORINGS, CHILI PEPPER EXTRACT), AGAVE NECTAR, SALT, ORANGE JUICE CONCENTRATE, ANCHO CHILE, CHILE POWDER, BLACK PEPPER, LIQUID HICKORY SMOKE (WATER, NATURAL HICKORY SMOKE CONCENTRATE). *CONTAINS FISH" Date available: 10/13/2017 Date last updated by company: 10/13/2017
