Source: USDA Branded Food Products Database Release December 2017 Software v.3.8.6.4 2017-10-02
Report Run at: December 18, 2017 11:13 EST
"Nutrient data for: 45061063, SWEET ITALIAN OIL & VINEGAR, UPC: 758669678909"
Food Group:  Branded Food Products Database
Common Name:

Nutrient,Unit,Data points,Std. Error,"2.0 Tbsp = 30.0g",1Value per 100 g,
Proximates
"Energy",kcal,--,--,150,500
"Protein",g,--,--,0.00,0.00
"Total lipid (fat)",g,--,--,14.00,46.67
"Carbohydrate, by difference",g,--,--,6.00,20.00
"Fiber, total dietary",g,--,--,0.0,0.0
"Sugars, total",g,--,--,6.00,20.00
Minerals
"Calcium, Ca",mg,--,--,0,0
"Iron, Fe",mg,--,--,0.00,0.00
"Sodium, Na",mg,--,--,290,967
Vitamins
"Vitamin C, total ascorbic acid",mg,--,--,0.0,0.0
"Vitamin A, IU",IU,--,--,0,0
Lipids
"Fatty acids, total saturated",g,--,--,2.001,6.670
"Fatty acids, total trans",g,--,--,0.000,0.000
"Cholesterol",mg,--,--,0,0
Amino Acids
Other
Ingredients
"SOYBEAN OIL, RED WINE VINEGAR WITH SULFITES, SUGAR, OLIVE OIL, FILTERED WATER, SALT, CONTAINS LESS THAN 2% OF PARMESAN CHEESE (MILK, CHEESE CULTURE, SALT, ENZYMES), SPICE DEHYDRATED GARLIC, XANTHAN GUM (PROVIDES THICKNESS), CALCIUM DISODIUM EDTA ADDED TO PROTECT FLAVOR." Date available: 07/14/2017 Date last updated by company: 07/14/2017
