Source: USDA Branded Food Products Database Release December 2017 Software v.3.8.6.4 2017-10-02
Report Run at: December 18, 2017 10:42 EST
"Nutrient data for: 45062999, SWEET BARBECUE SAUCE, UPC: 085239045473"
Food Group:  Branded Food Products Database
Common Name:

Nutrient,Unit,Data points,Std. Error,"2.0 Tbsp = 37.0g",1Value per 100 g,
Proximates
"Energy",kcal,--,--,70,189
"Protein",g,--,--,0.00,0.00
"Total lipid (fat)",g,--,--,0.00,0.00
"Carbohydrate, by difference",g,--,--,17.00,45.95
"Sugars, total",g,--,--,15.00,40.54
Minerals
"Sodium, Na",mg,--,--,300,811
Vitamins
Lipids
Amino Acids
Other
Ingredients
"HIGH FRUCTOSE CORN SYRUP, TOMATO PUREE (WATER, TOMATO PASTE), DISTILLED VINEGAR, MODIFIED CORN STARCH, CONTAINS LESS THAN 2% OF: SALT, PINEAPPLE JUICE CONCENTRATE, NATURAL SMOKE FLAVOR, SPICES, CARAMEL COLOR, SODIUM BENZOATE (PRESERVATIVE), MOLASSES, CORN SYRUP, GARLIC*, SUGAR, TAMARIND. *DRIED." Date available: 07/14/2017 Date last updated by company: 07/14/2017
