Source: USDA Branded Food Products Database Release December 2017 Software v.3.8.6.4 2017-10-02
Report Run at: December 18, 2017 11:23 EST
"Nutrient data for: 45216570, SWEET PEAS, UPC: 036800406704"
Food Group:  Branded Food Products Database
Common Name:

Nutrient,Unit,Data points,Std. Error,"1 BOWL = 113.0g",1Value per 100 g,
Proximates
"Energy",kcal,--,--,31,27
"Protein",g,--,--,2.00,1.77
"Total lipid (fat)",g,--,--,0.00,0.00
"Carbohydrate, by difference",g,--,--,4.99,4.42
"Fiber, total dietary",g,--,--,2.0,1.8
"Sugars, total",g,--,--,2.99,2.65
Minerals
"Calcium, Ca",mg,--,--,0,0
"Iron, Fe",mg,--,--,0.42,0.37
"Potassium, K",mg,--,--,60,53
"Sodium, Na",mg,--,--,140,124
Vitamins
"Vitamin C, total ascorbic acid",mg,--,--,69.0,61.1
"Vitamin A, IU",IU,--,--,231,204
Lipids
"Fatty acids, total saturated",g,--,--,0.000,0.000
"Fatty acids, total trans",g,--,--,0.000,0.000
"Cholesterol",mg,--,--,0,0
Amino Acids
Other
Ingredients
"WATER, PEAS, SUGAR, SEA SALT, ASCORBIC ACID." Date available: 07/14/2017 Date last updated by company: 07/14/2017
