Source: USDA Branded Food Products Database Release December 2017 Software v.3.8.6.4 2017-10-02
Report Run at: December 18, 2017 11:22 EST
"Nutrient data for: 45117032, SWEET PEAS, UPC: 024000013150"
Food Group:  Branded Food Products Database
Common Name:

Nutrient,Unit,Data points,Std. Error,"0.5 cup = 125.0g",1Value per 100 g,
Proximates
"Energy",kcal,--,--,80,64
"Protein",g,--,--,4.00,3.20
"Total lipid (fat)",g,--,--,0.00,0.00
"Carbohydrate, by difference",g,--,--,16.00,12.80
"Fiber, total dietary",g,--,--,4.0,3.2
"Sugars, total",g,--,--,6.00,4.80
Minerals
"Calcium, Ca",mg,--,--,20,16
"Iron, Fe",mg,--,--,1.50,1.20
"Potassium, K",mg,--,--,190,152
"Sodium, Na",mg,--,--,380,304
Vitamins
"Vitamin C, total ascorbic acid",mg,--,--,9.4,7.5
"Vitamin A, IU",IU,--,--,416,333
Lipids
"Fatty acids, total saturated",g,--,--,0.000,0.000
"Fatty acids, total trans",g,--,--,0.000,0.000
"Cholesterol",mg,--,--,0,0
Amino Acids
Other
Ingredients
"PEAS, WATER, SUGAR, SEA SALT." Date available: 07/14/2017 Date last updated by company: 07/14/2017
