Source: USDA Branded Food Products Database Release December 2017 Software v.3.8.6.4 2017-10-02
Report Run at: December 18, 2017 10:35 EST
"Nutrient data for: 45169487, SWEET ALI'S, VEGAN CHOCOLATE CHUNK COOKIES, UPC: 852748002828"
Food Group:  Branded Food Products Database
Common Name:

Nutrient,Unit,Data points,Std. Error,"1 COOKIE = 105.0g",1Value per 100 g,
Proximates
"Energy",kcal,--,--,430,410
"Protein",g,--,--,3.00,2.86
"Total lipid (fat)",g,--,--,18.00,17.14
"Carbohydrate, by difference",g,--,--,65.00,61.90
"Fiber, total dietary",g,--,--,2.0,1.9
"Sugars, total",g,--,--,38.00,36.19
Minerals
"Calcium, Ca",mg,--,--,40,38
"Iron, Fe",mg,--,--,1.28,1.22
"Sodium, Na",mg,--,--,410,390
Vitamins
"Vitamin C, total ascorbic acid",mg,--,--,0.0,0.0
"Vitamin A, IU",IU,--,--,0,0
Lipids
"Fatty acids, total saturated",g,--,--,8.998,8.570
"Fatty acids, total trans",g,--,--,0.000,0.000
"Cholesterol",mg,--,--,0,0
Amino Acids
Other
Ingredients
"SWEET ALI'S FLOUR MIX (BROWN RICE FLOUR, POTATO STARCH, WHITE RICE FLOUR, TAPIOCA STARCH, SWEET RICE FLOUR, XANTHAN GUM), ENJOY LIFE CHOCOLATE CHUNKS (EVAPORATED CANE JUICE, NATURAL CHOCOLATE LIQUOR (NON-ALCOHOLIC), NON-DAIRY COCA BUTTER), BROWN SUGAR, SPECTRUM PALM OIL, NATURAL APPLESAUCE (APPLES, WATER, ASCORBIC ACID), SUGAR, VANILLA, BAKING POWDER, BAKING SODA, SEA SALT." Date available: 07/14/2017 Date last updated by company: 07/14/2017
