Source: USDA Branded Food Products Database Release December 2017 Software v.3.8.6.4 2017-10-02
Report Run at: December 18, 2017 11:17 EST
"Nutrient data for: 45241750, SWEET LORRAINE'S, POPPYSEED DRESSING, UPC: 713006001000"
Food Group:  Branded Food Products Database
Common Name:

Nutrient,Unit,Data points,Std. Error,"0.5 ONZ = 15.0g",1Value per 100 g,
Proximates
"Energy",kcal,--,--,90,600
"Protein",g,--,--,0.00,0.00
"Total lipid (fat)",g,--,--,8.50,56.67
"Carbohydrate, by difference",g,--,--,4.00,26.67
"Sugars, total",g,--,--,4.00,26.67
Minerals
"Sodium, Na",mg,--,--,43,287
Vitamins
Lipids
"Fatty acids, total saturated",g,--,--,0.500,3.330
Amino Acids
Other
Ingredients
"RED WINE VINEGAR, CANOLA OIL, SUGAR, PROPPY SEEDS, DIJON MUSTARD (BLCK MASTARD SEED, VINEGAR, VINEGAR, WHITE WINE, SALT, SPICES), SALT, XANTHN GUM, A NATURAL THICKNER, SPICES. ALL NATURAL, NO PRESERVATIVES" Date available: 10/13/2017 Date last updated by company: 10/13/2017
