Source: USDA Branded Food Products Database Release December 2017 Software v.3.8.6.4 2017-10-02
Report Run at: December 18, 2017 11:34 EST
"Nutrient data for: 45201982, SWEET RELISH, UPC: 741643010871"
Food Group:  Branded Food Products Database
Common Name:

Nutrient,Unit,Data points,Std. Error,"1 Tbsp = 15.0g",1Value per 100 g,
Proximates
"Energy",kcal,--,--,15,100
"Protein",g,--,--,0.00,0.00
"Total lipid (fat)",g,--,--,0.00,0.00
"Carbohydrate, by difference",g,--,--,3.00,20.00
"Sugars, total",g,--,--,3.00,20.00
Minerals
"Sodium, Na",mg,--,--,120,800
Vitamins
Lipids
Amino Acids
Other
Ingredients
"CUCUMBERS, HIGH FRUCTOSE CORN SYRUP, WATER, VINEGAR, SALT, SPICES, LACTIC ACID, CALCIUM CHLORIDE, XANTHAN GUM, MALIC ACID, SODIUM BENZOATE (PRESERVATIVE), ALUM, POTASSIUM SORBATE (PRESERVATIVE), DEHYDRATED RED BELL PEPPERS, NATURAL FLAVORS, POLYSORBATE 80, YELLOW 5, BLUE 1." Date available: 07/14/2017 Date last updated by company: 07/14/2017
