Source: USDA Branded Food Products Database Release December 2017 Software v.3.8.6.4 2017-10-02
Report Run at: December 18, 2017 11:37 EST
"Nutrient data for: 45263826, SWEET & SALTY TRAIL MIX, UPC: 092825015697"
Food Group:  Branded Food Products Database
Common Name:

Nutrient,Unit,Data points,Std. Error,"0.25 cup = 30.0g",1Value per 100 g,
Proximates
"Energy",kcal,--,--,170,567
"Protein",g,--,--,5.00,16.67
"Total lipid (fat)",g,--,--,11.00,36.67
"Carbohydrate, by difference",g,--,--,12.00,40.00
"Fiber, total dietary",g,--,--,2.0,6.7
"Sugars, total",g,--,--,4.00,13.33
Minerals
"Calcium, Ca",mg,--,--,20,67
"Iron, Fe",mg,--,--,1.20,4.00
"Sodium, Na",mg,--,--,160,533
Vitamins
"Vitamin C, total ascorbic acid",mg,--,--,0.0,0.0
"Vitamin A, IU",IU,--,--,0,0
Lipids
"Fatty acids, total saturated",g,--,--,1.500,5.000
"Fatty acids, total trans",g,--,--,0.000,0.000
"Cholesterol",mg,--,--,0,0
Amino Acids
Other
Ingredients
"PEANUTS, SUGAR, ENRICHED WHEAT FLOUR (UNBLEACHED WHEAT FLOUR, MALTED BARLEY FLOUR, NIACIN, REDUCED IRON, THIAMIN MONONITRATE, RIBOFLAVIN, FOLIC ACID), CORN, ALMONDS, OILS (SOYBEAN AND/OR PEANUT, CORN), SESAME SEEDS, BULGUR WHEAT, SALT, STARCH (CORN, WHEAT), HONEY, TOMATO POWDER, SPICES, DEXTROSE, MALTODEXTRIN, XANTHAN GUM, AUTOLYZED YEAST EXTRACT, MONOSODIUM GLUTAMATE (FLAVOR ENHANCER), ACIDS (CITRIC, MALIC ACETIC), TORULA YEAST, BROWN SUGAR, COCOA POWDER (PROCESSED WITH ALKALI), SODIUM DIACETATE, SILICON DIOXIDE, DRIED MOLASSES, GLUCOSE, SUCRALOSE, SOY MARGARINE (SOYBEAN OIL, HYDROGENATED SOY OIL, WATER, SALT, MODIFIED MILK INGREDIENTS, SOY LECITHIN [EMULSIFIER], POTASSIUM SORBATE [PRESERVATIVE], MONOGLYCERIDES, ARTIFICIAL FLAVOR, VITAMIN A PALMITATE, VITAMIN D 3), SOY LECITHIN (EMULSIFIER), NATURAL FLAVORS, COLORS (CARAMEL, OLEORESIN PAPRIKA, BEET POWDER, TURMERIC)." Date available: 07/14/2017 Date last updated by company: 07/14/2017
