Source: USDA Branded Food Products Database Release December 2017 Software v.3.8.6.4 2017-10-02
Report Run at: December 18, 2017 11:33 EST
"Nutrient data for: 45061810, SWEET RED PEPPER SAUCE, UPC: 018959000958"
Food Group:  Branded Food Products Database
Common Name:

Nutrient,Unit,Data points,Std. Error,"2.0 Tbsp = 30.0g",1Value per 100 g,
Proximates
"Energy",kcal,--,--,70,233
"Protein",g,--,--,0.00,0.00
"Total lipid (fat)",g,--,--,0.00,0.00
"Carbohydrate, by difference",g,--,--,17.00,56.67
"Fiber, total dietary",g,--,--,0.0,0.0
"Sugars, total",g,--,--,15.00,50.00
Minerals
"Calcium, Ca",mg,--,--,0,0
"Iron, Fe",mg,--,--,0.00,0.00
"Sodium, Na",mg,--,--,90,300
Vitamins
"Vitamin C, total ascorbic acid",mg,--,--,10.1,33.8
"Vitamin A, IU",IU,--,--,338,1127
Lipids
"Fatty acids, total saturated",g,--,--,0.000,0.000
"Fatty acids, total trans",g,--,--,0.000,0.000
"Cholesterol",mg,--,--,0,0
Amino Acids
Other
Ingredients
"INGREDIENTS: SUGAR, HIGH FRUCTOSE CORN SYRUP, RED PEPPERS, WATER, JALAPENO PEPPERS (JALAPENO PEPPERS, SALT, VINEGAR), ONIONS, FOOD STARCH-MODIFIED, DISTILLED VINEGAR, CITRIC ACID, NATURAL FLAVOR, YELLOW #6, RED #40." Date available: 07/14/2017 Date last updated by company: 07/14/2017
