Source: USDA Branded Food Products Database Release December 2017 Software v.3.8.6.4 2017-10-02
Report Run at: December 18, 2017 11:43 EST
"Nutrient data for: 45086663, SWEET & SOUR SAUCE, UPC: 816125000326"
Food Group:  Branded Food Products Database
Common Name:

Nutrient,Unit,Data points,Std. Error,"2.0 Tbsp = 36.0g",1Value per 100 g,
Proximates
"Energy",kcal,--,--,70,194
"Protein",g,--,--,0.00,0.00
"Total lipid (fat)",g,--,--,0.00,0.00
"Carbohydrate, by difference",g,--,--,16.00,44.44
"Fiber, total dietary",g,--,--,0.0,0.0
"Sugars, total",g,--,--,12.00,33.33
Minerals
"Calcium, Ca",mg,--,--,0,0
"Iron, Fe",mg,--,--,0.00,0.00
"Sodium, Na",mg,--,--,132,367
Vitamins
"Vitamin C, total ascorbic acid",mg,--,--,0.0,0.0
"Vitamin A, IU",IU,--,--,1521,4226
Lipids
"Fatty acids, total saturated",g,--,--,0.000,0.000
"Fatty acids, total trans",g,--,--,0.000,0.000
"Cholesterol",mg,--,--,0,0
Amino Acids
Other
Ingredients
"WATER, PINEAPPLE (29%), SUGAR, TOMATO (15%), MALTODEXTRIN, THICKENER (MODIFIED CORN STARCH : E1422), SALT, ACIDITY REGULATORS (ACETIC ACID : E260, CITRIC ACID : E330), STABILIZER (XANTHAN GUM : E415), COLOUR (PAPRIKA OLEORESIN : E160C), PRESERVATIVE (SODIUM BENZOATE : E211)" Date available: 07/14/2017 Date last updated by company: 07/14/2017
