Source: USDA Branded Food Products Database Release December 2017 Software v.3.8.6.4 2017-10-02
Report Run at: December 18, 2017 11:29 EST
"Nutrient data for: 45270877, SWEET POTATO KUGEL, UPC: 723055856674"
Food Group:  Branded Food Products Database
Common Name:

Nutrient,Unit,Data points,Std. Error,"0.75 cup = 146.0g",1Value per 100 g,
Proximates
"Energy",kcal,--,--,180,123
"Protein",g,--,--,4.99,3.42
"Total lipid (fat)",g,--,--,2.50,1.71
"Carbohydrate, by difference",g,--,--,38.00,26.03
"Fiber, total dietary",g,--,--,3.9,2.7
"Sugars, total",g,--,--,12.99,8.90
Minerals
"Calcium, Ca",mg,--,--,39,27
"Iron, Fe",mg,--,--,0.50,0.34
"Sodium, Na",mg,--,--,200,137
Vitamins
"Vitamin C, total ascorbic acid",mg,--,--,5.1,3.5
"Vitamin A, IU",IU,--,--,4452,3049
Lipids
"Fatty acids, total saturated",g,--,--,0.000,0.000
"Fatty acids, total trans",g,--,--,0.000,0.000
"Cholesterol",mg,--,--,39,27
Amino Acids
Other
Ingredients
"SWEET POTATOES, APPLES, BREADCRUMBS (WHEAT FLOUR, SUGAR, YEAST, SALT), EGGS, APPLE JUICE (WATER, APPLE JUICE CONCENTRATE, VITAMIN C), EGG WHITES, MAPLE SYRUP, RAISINS (RAISINS, SUNFLOWER OIL), ALMONDS (TREE NUTS), SALT CINNAMON, NUTMEG." Date available: 07/14/2017 Date last updated by company: 07/14/2017
