Source: USDA Branded Food Products Database Release December 2017 Software v.3.8.6.4 2017-10-02
Report Run at: December 18, 2017 10:35 EST
"Nutrient data for: 45187513, SWEET ACTION, ICE CREAM, VEGAN STRAWBERRY, UPC: 751570510498"
Food Group:  Branded Food Products Database
Common Name:

Nutrient,Unit,Data points,Std. Error,"4.0 ONZ = 2091.0g",1Value per 100 g,
Proximates
"Energy",kcal,--,--,230,11
"Protein",g,--,--,2.93,0.14
"Total lipid (fat)",g,--,--,11.92,0.57
"Carbohydrate, by difference",g,--,--,38.06,1.82
"Fiber, total dietary",g,--,--,2.1,0.1
"Sugars, total",g,--,--,25.93,1.24
Minerals
"Calcium, Ca",mg,--,--,63,3
"Iron, Fe",mg,--,--,0.00,0.00
"Sodium, Na",mg,--,--,188,9
Vitamins
"Vitamin C, total ascorbic acid",mg,--,--,0.0,0.0
"Vitamin A, IU",IU,--,--,0,0
Lipids
"Fatty acids, total saturated",g,--,--,10.037,0.480
"Fatty acids, total trans",g,--,--,0.000,0.000
"Cholesterol",mg,--,--,0,0
Amino Acids
Other
Ingredients
"ORGANIC SOY MILK, ORGANIC COCONUT CREAM (COCONUT, WATER, GUAR GUM), STRAWBERRIES, EVAPORATED CANE JUICE, CITRIC ACID, VANILLA, SODIUM CITRATE, DEXTROSE, CELLULOSE GUM, GUAR GUM" Date available: 07/14/2017 Date last updated by company: 07/14/2017
