Source: USDA Branded Food Products Database Release December 2017 Software v.3.8.6.4 2017-10-02
Report Run at: December 18, 2017 11:15 EST
"Nutrient data for: 45225793, SWEET ITALIAN TURKEY SAUSAGE, UPC: 072745543098"
Food Group:  Branded Food Products Database
Common Name:

Nutrient,Unit,Data points,Std. Error,"1 LINK = 91.0g",1Value per 100 g,
Proximates
"Energy",kcal,--,--,150,165
"Protein",g,--,--,15.00,16.48
"Total lipid (fat)",g,--,--,9.00,9.89
"Carbohydrate, by difference",g,--,--,1.00,1.10
"Fiber, total dietary",g,--,--,0.0,0.0
"Sugars, total",g,--,--,1.00,1.10
Minerals
"Calcium, Ca",mg,--,--,20,22
"Iron, Fe",mg,--,--,1.08,1.19
"Sodium, Na",mg,--,--,360,396
Vitamins
"Vitamin C, total ascorbic acid",mg,--,--,0.0,0.0
"Vitamin A, IU",IU,--,--,121,133
Lipids
"Fatty acids, total saturated",g,--,--,2.502,2.750
"Fatty acids, total trans",g,--,--,0.000,0.000
"Cholesterol",mg,--,--,70,77
Amino Acids
Other
Ingredients
"TURKEY CONTAINING LESS THAN 2% OF WATER, NATURAL FLAVORS, LEMON JUICE CONCENTRATE, SALT, SUGAR, PAPRIKA, VINEGAR, PACKED INTO A NATURAL PORK CASING." Date available: 07/14/2017 Date last updated by company: 07/14/2017
