Source: USDA Branded Food Products Database Release December 2017 Software v.3.8.6.4 2017-10-02
Report Run at: December 18, 2017 11:14 EST
"Nutrient data for: 45221196, SWEET ITALIAN SAUSAGE, UPC: 759661811202"
Food Group:  Branded Food Products Database
Common Name:

Nutrient,Unit,Data points,Std. Error,"4.0 ONZ = 112.0g",1Value per 100 g,
Proximates
"Energy",kcal,--,--,340,304
"Protein",g,--,--,17.00,15.18
"Total lipid (fat)",g,--,--,30.00,26.79
"Carbohydrate, by difference",g,--,--,1.00,0.89
"Fiber, total dietary",g,--,--,0.0,0.0
"Sugars, total",g,--,--,1.00,0.89
Minerals
"Calcium, Ca",mg,--,--,40,36
"Iron, Fe",mg,--,--,0.36,0.32
"Sodium, Na",mg,--,--,629,562
Vitamins
"Vitamin C, total ascorbic acid",mg,--,--,0.0,0.0
"Vitamin A, IU",IU,--,--,0,0
Lipids
"Fatty acids, total saturated",g,--,--,10.002,8.930
"Fatty acids, total trans",g,--,--,0.000,0.000
"Cholesterol",mg,--,--,75,67
Amino Acids
Other
Ingredients
"PORK, SAUSAGE SEASONING MIX (SEA SALT, SPICES, EVAPORATED CANE JUICE, SPICE EXTRACTIVES, PAPRIKA), VINEGAR, WATER, HOG CASING." Date available: 07/14/2017 Date last updated by company: 07/14/2017
