Source: USDA Branded Food Products Database Release December 2017 Software v.3.8.6.4 2017-10-02
Report Run at: December 18, 2017 11:20 EST
"Nutrient data for: 45044271, SWEET 'N SALTY MIX, UPC: 077034018653"
Food Group:  Branded Food Products Database
Common Name:

Nutrient,Unit,Data points,Std. Error,"0.25 CUP | ABOUT = 28.0g",1Value per 100 g,
Proximates
"Energy",kcal,--,--,140,500
"Protein",g,--,--,4.00,14.29
"Total lipid (fat)",g,--,--,9.00,32.14
"Carbohydrate, by difference",g,--,--,14.00,50.00
"Fiber, total dietary",g,--,--,2.0,7.1
"Sugars, total",g,--,--,6.00,21.43
Minerals
"Calcium, Ca",mg,--,--,20,71
"Iron, Fe",mg,--,--,1.29,4.59
"Potassium, K",mg,--,--,140,500
"Sodium, Na",mg,--,--,55,196
Vitamins
"Vitamin C, total ascorbic acid",mg,--,--,0.0,0.0
"Vitamin A, IU",IU,--,--,0,0
Lipids
"Fatty acids, total saturated",g,--,--,2.500,8.930
"Fatty acids, total trans",g,--,--,0.000,0.000
"Cholesterol",mg,--,--,0,0
Amino Acids
Other
Ingredients
"PEANUTS ROASTED IN PEANUT, SUNFLOWER AND/OR COTTONSEED OIL, SALT. RAISINS. CHOCOLATE CANDIES (( CONFECTIONERY COATING [SUGAR, PARTIALLY HYDROGENATED PALM KERNEL OIL,COCOA POWDER, WHEY POWDER, NONFAT MILK POWDER, SOY LECITHIN, VANILLIN (AN ARTIFICIAL FLAVOR 0)], SUGAR, ARTIFICIAL COLORING 9INCLUDES YELLOW 6 LAKE, YELLOW 6, YELLOW 5 LAKE, BLUE 1 LAKE, RED 40 LAKE, BLUE 2 LAKE), GUM ARABIC, CORN SYRUP, CONFECTIONER'S GLAZE). SUNFLOWER KERNELS ROASTED IN PEANUT, SUNFLOWER AND/OR COTTONSEED OIL, SALT" Date available: 09/20/2017 Date last updated by company: 09/20/2017
