Source: USDA Branded Food Products Database Release December 2017 Software v.3.8.6.4 2017-10-02
Report Run at: December 18, 2017 10:59 EST
"Nutrient data for: 45285549, SWEETENED & DRIED FRUIT MIX, UPC: 034952587241"
Food Group:  Branded Food Products Database
Common Name:

Nutrient,Unit,Data points,Std. Error,"0.25 cup = 31.0g",1Value per 100 g,
Proximates
"Energy",kcal,--,--,130,419
"Protein",g,--,--,0.00,0.00
"Total lipid (fat)",g,--,--,3.00,9.68
"Carbohydrate, by difference",g,--,--,25.00,80.65
"Fiber, total dietary",g,--,--,1.0,3.2
"Sugars, total",g,--,--,17.00,54.84
Minerals
"Calcium, Ca",mg,--,--,20,65
"Iron, Fe",mg,--,--,0.47,1.50
"Sodium, Na",mg,--,--,55,177
Vitamins
"Vitamin C, total ascorbic acid",mg,--,--,3.1,10.0
"Vitamin A, IU",IU,--,--,0,0
Lipids
"Fatty acids, total saturated",g,--,--,3.001,9.680
"Fatty acids, total trans",g,--,--,0.000,0.000
"Cholesterol",mg,--,--,0,0
Amino Acids
Other
Ingredients
"PAPAYA AND PINEAPPLE (SUGAR, CITRIC ACID, SULFUR DIOXIDE ADDED AS A PRESERVATIVE, YELLOW 6), BANANA CHIPS (BANANAS, COCONUT OIL, SUGAR, BANANA FLAVOR)." Date available: 07/14/2017 Date last updated by company: 07/14/2017
