Source: USDA Branded Food Products Database Release December 2017 Software v.3.8.6.4 2017-10-02
Report Run at: December 18, 2017 11:53 EST
"Nutrient data for: 45060522, SWEETWORKS, CELEBRATION, SHIMMER LAVENDER SIXLETS CANDY, UPC: 800093033042"
Food Group:  Branded Food Products Database
Common Name:

Nutrient,Unit,Data points,Std. Error,"8.0 PCS, PER CONTAINER ABOUT = 7.0g",1Value per 100 g,
Proximates
"Energy",kcal,--,--,30,429
"Protein",g,--,--,0.00,0.00
"Total lipid (fat)",g,--,--,1.50,21.43
"Carbohydrate, by difference",g,--,--,5.00,71.43
"Sugars, total",g,--,--,5.00,71.43
Minerals
"Sodium, Na",mg,--,--,15,214
Vitamins
Lipids
"Fatty acids, total saturated",g,--,--,1.000,14.290
Amino Acids
Other
Ingredients
"SUGAR, DEXTROSE, PARTIALLY HYDROGENATED PALM KERNEL OIL, REDUCED PROTEIN WHEY (MILK), COCOA, CORN SYRUP, CAROB, TAPIOCA DEXTRIN, LECITHIN (SOYA), NATURAL AND ARTIFICIAL FLAVORS, SALT, HPMC, CARNAUBA WAX, BEES WAX, MICA BASED PEARLESCENT PIGMENT, COLORS (RED 3, LAKE BLUE 1, TITANIUM DIOXIDE)." Date available: 08/15/2017 Date last updated by company: 08/15/2017
