Source: USDA Branded Food Products Database Release December 2017 Software v.3.8.6.4 2017-10-02
Report Run at: December 18, 2017 11:16 EST
"Nutrient data for: 45144482, SWEET JUBILEE GOURMET, BRITTLE BARK, UPC: 094922436160"
Food Group:  Branded Food Products Database
Common Name:

Nutrient,Unit,Data points,Std. Error,"2.0 -1/2 PIECES | ABOUT = 43.0g",1Value per 100 g,
Proximates
"Energy",kcal,--,--,210,488
"Protein",g,--,--,1.00,2.33
"Total lipid (fat)",g,--,--,9.00,20.93
"Carbohydrate, by difference",g,--,--,31.00,72.09
"Fiber, total dietary",g,--,--,1.0,2.3
"Sugars, total",g,--,--,23.00,53.49
Minerals
"Calcium, Ca",mg,--,--,20,47
"Iron, Fe",mg,--,--,0.84,1.95
"Sodium, Na",mg,--,--,180,419
Vitamins
"Vitamin C, total ascorbic acid",mg,--,--,0.0,0.0
"Vitamin A, IU",IU,--,--,349,812
Lipids
"Fatty acids, total saturated",g,--,--,5.998,13.950
"Fatty acids, total trans",g,--,--,0.000,0.000
"Cholesterol",mg,--,--,15,35
Amino Acids
Other
Ingredients
"SUGAR, LIGHT CORN SYRUP (CORN SYRUP, HIGH FRUCTOSE CORN SYRUP, VANILLA, SALT), BUTTER (PASTEURIZED CREAM, SALT), WHITE CHOCOLATE (SUGAR, PARTIALLY HYDROGENATED PALM KERNEL AND COTTONSEED OILS, NONFAT DRY MILK, MILK, GLYCERYL-LACTO ESTERS OF FATTY ACIDS, SOY LECITHIN [AN EMULSIFIER], SALT, AND ARTIFICIAL FLAVOR), CINNAMON CRISPS (WHOLE WHITE WHEAT FLOUR, SUGAR, RICE FLOUR, CANOLA OIL, FRUCTOSE, DEXTROSE, MALTODEXTRIN, SALT, CALCIUM CARBONATE, CINNAMON, TRISODIUM PHOSPHATE, VITAMIN C, [SODIUM ASCORBATE], COLOR [CARAMEL, ANNATTO EXTRACT], SOY LECITHIN, NATURAL FLAVOR, VITAMIN A [PALMITATE], IRON [FERROUS FUMARATE], NIACINAMIDE, VITAMIN B1 [THIAMINE MONONITRATE], VITMAIN B6 [PYRIDOXINE HYDROCHLORIDE], VITAMIN D [CHOLECALCIFEROL], VITAMIN B2 [RIBOFLAVIN], FOLIC ACID, BHT ADDED TO PACKAGING TO HELP PRESERVE FRESHNESS), WATER. POPCORN (MADE WITH SOYBEAN OIL), CINNAMON, BAKING SODA." Date available: 07/14/2017 Date last updated by company: 07/14/2017
