Source: USDA Branded Food Products Database Release December 2017 Software v.3.8.6.4 2017-10-02
Report Run at: December 18, 2017 11:28 EST
"Nutrient data for: 45322303, SWEET POTATO CRINKLE CUT FRIES, UPC: 050700569635"
Food Group:  Branded Food Products Database
Common Name:

Nutrient,Unit,Data points,Std. Error,"18.0 PIECES | ABOUT = 85.0g",1Value per 100 g,
Proximates
"Energy",kcal,--,--,160,188
"Protein",g,--,--,1.00,1.18
"Total lipid (fat)",g,--,--,8.00,9.41
"Carbohydrate, by difference",g,--,--,23.00,27.06
"Fiber, total dietary",g,--,--,3.0,3.5
"Sugars, total",g,--,--,7.00,8.24
Minerals
"Calcium, Ca",mg,--,--,20,24
"Iron, Fe",mg,--,--,0.36,0.42
"Sodium, Na",mg,--,--,120,141
Vitamins
"Vitamin C, total ascorbic acid",mg,--,--,6.0,7.1
"Vitamin A, IU",IU,--,--,3500,4118
Lipids
"Fatty acids, total saturated",g,--,--,1.496,1.760
"Fatty acids, total trans",g,--,--,0.000,0.000
"Cholesterol",mg,--,--,0,0
Amino Acids
Other
Ingredients
"SWEET POTATOES, VEGETABLE OIL (SOYBEAN OIL AND/OR CANOLA OIL AND/OR SAFFLOWER OIL AND/OR SUNFLOWER OIL), FOOD STARCH MODIFIED, RICE FLOUR, CORN STARCH, DEXTRIN, SALT, LEAVENING (SODIUM ACID PYROPHOSPHATE, SODIUM BICARBONATE), OLEORESIN PAPRIKA (COLOR), XANTHAN GUM." Date available: 08/11/2017 Date last updated by company: 08/11/2017
