Source: USDA Branded Food Products Database Release December 2017 Software v.3.8.6.4 2017-10-02
Report Run at: December 18, 2017 11:24 EST
"Nutrient data for: 45282225, SWEET PEAS, UPC: 078742053363"
Food Group:  Branded Food Products Database
Common Name:

Nutrient,Unit,Data points,Std. Error,"0.66 cup = 89.0g",1Value per 100 g,
Proximates
"Energy",kcal,--,--,70,79
"Protein",g,--,--,5.00,5.62
"Total lipid (fat)",g,--,--,0.00,0.00
"Carbohydrate, by difference",g,--,--,12.00,13.48
"Fiber, total dietary",g,--,--,4.0,4.5
"Sugars, total",g,--,--,4.00,4.49
Minerals
"Calcium, Ca",mg,--,--,0,0
"Iron, Fe",mg,--,--,1.03,1.16
"Potassium, K",mg,--,--,100,112
"Sodium, Na",mg,--,--,0,0
Vitamins
"Vitamin C, total ascorbic acid",mg,--,--,5.7,6.4
"Vitamin A, IU",IU,--,--,382,429
Lipids
"Fatty acids, total saturated",g,--,--,0.000,0.000
"Fatty acids, total monounsaturated",g,--,--,0.000,0.000
"Fatty acids, total polyunsaturated",g,--,--,0.000,0.000
"Fatty acids, total trans",g,--,--,0.000,0.000
"Cholesterol",mg,--,--,0,0
Amino Acids
Other
Ingredients
"PEAS." Date available: 07/14/2017 Date last updated by company: 07/14/2017
