Source: USDA Branded Food Products Database Release December 2017 Software v.3.8.6.4 2017-10-02
Report Run at: December 18, 2017 11:55 EST
"Nutrient data for: 45239957, SWIRL CUPS, UPC: 657243046069"
Food Group:  Branded Food Products Database
Common Name:

Nutrient,Unit,Data points,Std. Error,"103.5 ML) | ( = 3.5g",1Value per 100 g,
Proximates
"Energy",kcal,--,--,3,95
"Protein",g,--,--,0.00,0.00
"Total lipid (fat)",g,--,--,0.00,0.00
"Carbohydrate, by difference",g,--,--,0.80,22.86
"Fiber, total dietary",g,--,--,0.0,0.0
"Sugars, total",g,--,--,0.80,22.86
Minerals
"Sodium, Na",mg,--,--,0,10
Vitamins
Lipids
"Fatty acids, total saturated",g,--,--,0.000,0.000
"Fatty acids, total trans",g,--,--,0.000,0.000
"Cholesterol",mg,--,--,0,0
Amino Acids
Other
Ingredients
"INGREDIENTS (CUPS): WATER, SUGAR, NATURAL & ARTIFICIAL FLAVORS, CITRIC ACID, CELLULOSE GUM, XANTHAN GUM, PECTIN, SODIUM CITRATE, LOCUST BEAN GUM, FD&C RED #40, FD&C BLUE #1, FD&C YELLOW #6. INGREDIENTS (SPOONS): SUGAR, CORN SYRUP, WATER, CITRIC ACID, TARTARIC ACID, ARTIFICIAL FLAVORS, ARTIFICIAL COLORS (RED #40 & #3, BLUE #1, & YELLOW #6 & #5), TITANIUM DIOXIDE." Date available: 09/06/2017 Date last updated by company: 09/06/2017
