Source: USDA Branded Food Products Database Release December 2017 Software v.3.8.6.4 2017-10-02
Report Run at: December 18, 2017 12:05 EST
"Nutrient data for: 45133959, SWISS MISS Gift Pack Cookie Ornaments, UNPREPARED, GTIN: 00070920474892"
Food Group:  Branded Food Products Database
Common Name:

Nutrient,Unit,Data points,Std. Error,"1 Cookie (26g) = 26.0g",1Value per 100 g,
Proximates
"Energy",kcal,--,--,130,500
"Protein",g,--,--,1.00,3.85
"Total lipid (fat)",g,--,--,7.00,26.92
"Carbohydrate, by difference",g,--,--,18.00,69.23
"Fiber, total dietary",g,--,--,1.0,3.8
"Sugars, total",g,--,--,13.00,50.00
Minerals
"Calcium, Ca",mg,--,--,0,0
"Iron, Fe",mg,--,--,1.08,4.15
"Sodium, Na",mg,--,--,45,173
Vitamins
"Vitamin C, total ascorbic acid",mg,--,--,0.0,0.0
"Vitamin A, IU",IU,--,--,0,0
Lipids
"Fatty acids, total saturated",g,--,--,3.500,13.460
"Fatty acids, total trans",g,--,--,0.000,0.000
"Cholesterol",mg,--,--,0,0
Amino Acids
Other
Ingredients
"Sandwich Cookie (Sugar, Enriched Flour [Bleached Wheat Flour, Niacin, Reduced Iron, Thiamin Mononitrate, Riboflavin, Folic Acid], Canola And/Or Soybean [With TBHQ For Freshness] And/Or Palm Oil, Dextrose, Cocoa [Processed With Alkali], Peppermint Flavored Powder [Sugar, Corn Syrup, Titanium Dioxide {Color}, Natural Flavor, Red 40], Corn Starch, 2% Or Less Of: High Fructose Corn Syrup, Salt, Leavening [Baking Soda, Calcium Phosphate], Soy Lecithin, Natural And Artificial Flavor), Dark Chocolate Coating (Sugar, Chocolate Liquor, Cocoa Butter, Milk Fat, Soy Lecithin, Vanilla).  Contains: Milk, Soy, Wheat  May Contain: Egg, Peanuts, Tree Nuts (Almonds, Cashews, Coconut, Pecans)" Date available: 10/24/2017 Date last updated by company: 10/24/2017
