Source: USDA Branded Food Products Database Release December 2017 Software v.3.8.6.4 2017-10-02
Report Run at: December 18, 2017 12:03 EST
"Nutrient data for: 45133905, SWISS MISS Chocolate Pudding, UNPREPARED, GTIN: 00015700058985"
Food Group:  Branded Food Products Database
Common Name:

Nutrient,Unit,Data points,Std. Error,"1 pudding cup (99g) = 99.0g",1Value per 100 g,
Proximates
"Energy",kcal,--,--,70,71
"Protein",g,--,--,1.00,1.01
"Total lipid (fat)",g,--,--,3.50,3.54
"Carbohydrate, by difference",g,--,--,15.00,15.15
"Fiber, total dietary",g,--,--,1.0,1.0
"Sugars, total",g,--,--,0.00,0.00
Minerals
"Calcium, Ca",mg,--,--,100,101
"Iron, Fe",mg,--,--,0.72,0.73
"Sodium, Na",mg,--,--,110,111
Vitamins
"Vitamin C, total ascorbic acid",mg,--,--,0.0,0.0
"Vitamin A, IU",IU,--,--,0,0
Lipids
"Fatty acids, total saturated",g,--,--,2.000,2.020
"Fatty acids, total trans",g,--,--,0.000,0.000
"Cholesterol",mg,--,--,0,0
Amino Acids
Other
Ingredients
"WATER, MALTITOL, MODIFIED CORN STARCH, NONFAT MILK*, COCOA (PROCESSED WITH ALKALI), VEGETABLE OIL (CONTAINS ONE OR MORE OF THE FOLLOWING: PALM OIL, PARTIALLY HYDROGENATED PALM OIL, SUNFLOWER OIL, PARTIALLY HYDROGENATED SOYBEAN OIL), ERYTHRITOL, LESS THAN 2% OF: CALCIUM CARBONATE, SALT, MILK PROTEIN ISOLATE, SODIUM STEAROYL LACTYLATE, CARRAGEENAN, ARTIFICIAL FLAVOR, SUCRALOSE, ACESULFAME POTASSIUM. *ADDS AN INSIGNIFICANT AMOUNT OF SUGARS. CONTAINS: MILK." Date available: 10/11/2017 Date last updated by company: 10/10/2017
