Source: USDA Branded Food Products Database Release December 2017 Software v.3.8.6.4 2017-10-02
Report Run at: December 18, 2017 12:28 EST
"Nutrient data for: 45108820, TACOMA BOYS, WALLA WALLA SWEET ONION MARINARA SAUCE, UPC: 041695174195"
Food Group:  Branded Food Products Database
Common Name:

Nutrient,Unit,Data points,Std. Error,"0.5 cup = 120.0g",1Value per 100 g,
Proximates
"Energy",kcal,--,--,100,83
"Protein",g,--,--,3.00,2.50
"Total lipid (fat)",g,--,--,5.00,4.17
"Carbohydrate, by difference",g,--,--,11.00,9.17
"Fiber, total dietary",g,--,--,2.0,1.7
"Sugars, total",g,--,--,4.00,3.33
Minerals
"Calcium, Ca",mg,--,--,20,17
"Iron, Fe",mg,--,--,1.52,1.27
"Sodium, Na",mg,--,--,340,283
Vitamins
"Vitamin C, total ascorbic acid",mg,--,--,9.5,7.9
"Vitamin A, IU",IU,--,--,792,660
Lipids
"Fatty acids, total saturated",g,--,--,0.000,0.000
"Fatty acids, total trans",g,--,--,0.000,0.000
"Cholesterol",mg,--,--,0,0
Amino Acids
Other
Ingredients
"TOMATOES (TOMATOES, WATER, SALT, MAY CONTAIN CITRIC ACID AND/OR CALCIUM CHLORIDE), FRESH GARLIC, CANOLA OIL, ONIONS, EXTRA VIRGIN OLIVE OIL, CANE SUGAR, SALT, HERBS, AND SPICES, LEMON JUICE CONCENTRATE, AND CITRIC ACID." Date available: 06/25/2017 Date last updated by company: 06/25/2017
