Source: USDA Branded Food Products Database Release December 2017 Software v.3.8.6.4 2017-10-02
Report Run at: December 18, 2017 12:26 EST
"Nutrient data for: 45243805, TACOMA BOYS, DRIED SHIITAKE MUSHROOMS, UPC: 604485202258"
Food Group:  Branded Food Products Database
Common Name:

Nutrient,Unit,Data points,Std. Error,"10.0 GRM = 10.0g",1Value per 100 g,
Proximates
"Energy",kcal,--,--,30,300
"Total lipid (fat)",g,--,--,0.10,1.00
"Carbohydrate, by difference",g,--,--,7.50,75.00
"Fiber, total dietary",g,--,--,1.2,12.0
"Sugars, total",g,--,--,0.20,2.00
Minerals
"Sodium, Na",mg,--,--,1,13
Vitamins
Lipids
"Fatty acids, total saturated",g,--,--,2.400,24.000
"Cholesterol",mg,--,--,0,0
Amino Acids
Other
Ingredients
"DRIED SHIITAKE MUSHROOMS." Date available: 10/13/2017 Date last updated by company: 10/13/2017
