Source: USDA Branded Food Products Database Release December 2017 Software v.3.8.6.4 2017-10-02
Report Run at: December 18, 2017 12:33 EST
"Nutrient data for: 45079797, TACO SHELLS, UPC: 024335112160"
Food Group:  Branded Food Products Database
Common Name:

Nutrient,Unit,Data points,Std. Error,"2.0 TACO SHELLS = 26.0g",1Value per 100 g,
Proximates
"Energy",kcal,--,--,140,538
"Protein",g,--,--,2.00,7.69
"Total lipid (fat)",g,--,--,8.00,30.77
"Carbohydrate, by difference",g,--,--,14.00,53.85
"Fiber, total dietary",g,--,--,1.0,3.8
"Sugars, total",g,--,--,0.00,0.00
Minerals
"Calcium, Ca",mg,--,--,20,77
"Iron, Fe",mg,--,--,0.69,2.67
"Sodium, Na",mg,--,--,5,19
Vitamins
"Vitamin C, total ascorbic acid",mg,--,--,0.0,0.0
"Vitamin A, IU",IU,--,--,0,0
Lipids
"Fatty acids, total saturated",g,--,--,0.499,1.920
"Fatty acids, total trans",g,--,--,0.000,0.000
"Cholesterol",mg,--,--,0,0
Amino Acids
Other
Ingredients
"ORGANIC STONEGROUND YELLOW CORN MASA FLOUR, EXPELLER PRESSED CANOLA OIL AND/OR SAFFLOWER OIL AND/OR SUNFLOWER OIL." Date available: 06/24/2017 Date last updated by company: 06/24/2017
