Source: USDA Branded Food Products Database Release December 2017 Software v.3.8.6.4 2017-10-02
Report Run at: December 18, 2017 12:44 EST
"Nutrient data for: 45123303, TALENTI, GELATO, SOUTHERN BUTTER PECAN, UPC: 186852000600"
Food Group:  Branded Food Products Database
Common Name:

Nutrient,Unit,Data points,Std. Error,"1 cup = 98.0g",1Value per 100 g,
Proximates
"Energy",kcal,--,--,220,224
"Protein",g,--,--,4.00,4.08
"Total lipid (fat)",g,--,--,12.00,12.24
"Carbohydrate, by difference",g,--,--,24.00,24.49
"Fiber, total dietary",g,--,--,1.0,1.0
"Sugars, total",g,--,--,23.00,23.47
Minerals
"Calcium, Ca",mg,--,--,100,102
"Iron, Fe",mg,--,--,0.00,0.00
"Sodium, Na",mg,--,--,75,77
Vitamins
"Vitamin C, total ascorbic acid",mg,--,--,0.0,0.0
"Vitamin A, IU",IU,--,--,0,0
Lipids
"Fatty acids, total saturated",g,--,--,5.998,6.120
"Fatty acids, total trans",g,--,--,0.000,0.000
"Cholesterol",mg,--,--,55,56
Amino Acids
Other
Ingredients
"MILK, SUGAR, CREAM, PECANS, EGG YOLK AND EGG, DEXTROSE, MOLASSES, SKIM MILK, COTTONSEED OIL, VANILLA EXTRACT, CAROB GUM, CORN SYRUP, SALT, NATURAL FLAVOR, SEA SALT." Date available: 07/14/2017 Date last updated by company: 07/14/2017
