Source: USDA Branded Food Products Database Release December 2017 Software v.3.8.6.4 2017-10-02
Report Run at: December 18, 2017 12:43 EST
"Nutrient data for: 45123295, TALENTI, GELATO, BANANA CHOCOLATE SWIRL, UPC: 186852000143"
Food Group:  Branded Food Products Database
Common Name:

Nutrient,Unit,Data points,Std. Error,"1 cup = 101.0g",1Value per 100 g,
Proximates
"Energy",kcal,--,--,210,208
"Protein",g,--,--,3.00,2.97
"Total lipid (fat)",g,--,--,9.00,8.91
"Carbohydrate, by difference",g,--,--,30.00,29.70
"Fiber, total dietary",g,--,--,1.0,1.0
"Sugars, total",g,--,--,28.00,27.72
Minerals
"Calcium, Ca",mg,--,--,100,99
"Iron, Fe",mg,--,--,0.00,0.00
"Sodium, Na",mg,--,--,45,45
Vitamins
"Vitamin C, total ascorbic acid",mg,--,--,0.0,0.0
"Vitamin A, IU",IU,--,--,0,0
Lipids
"Fatty acids, total saturated",g,--,--,5.999,5.940
"Fatty acids, total trans",g,--,--,0.000,0.000
"Cholesterol",mg,--,--,20,20
Amino Acids
Other
Ingredients
"MILK, BANANAS, SUGAR, CREAM, CHOCOLATE (PROCESSED WITH ALKALI), SKIM MILK, DEXTROSE, LEMON JUICE, COCONUT OIL, CORN SYRUP, VANILLA EXTRACT, CAROB GUM, SOYBEAN OIL, SOY LECITHIN, NATURAL FLAVOR." Date available: 07/14/2017 Date last updated by company: 07/14/2017
