Source: USDA Branded Food Products Database Release December 2017 Software v.3.8.6.4 2017-10-02
Report Run at: December 18, 2017 12:46 EST
"Nutrient data for: 45090224, TAMANOI SUSHINOKO, POWDERED SUSHI FLAVORING, UPC: 074586004677"
Food Group:  Branded Food Products Database
Common Name:

Nutrient,Unit,Data points,Std. Error,"1 tsp = 5.0g",1Value per 100 g,
Proximates
"Energy",kcal,--,--,15,300
"Protein",g,--,--,0.00,0.00
"Total lipid (fat)",g,--,--,0.00,0.00
"Carbohydrate, by difference",g,--,--,4.00,80.00
"Fiber, total dietary",g,--,--,0.0,0.0
"Sugars, total",g,--,--,3.00,60.00
Minerals
"Calcium, Ca",mg,--,--,20,400
"Iron, Fe",mg,--,--,3.60,72.00
"Sodium, Na",mg,--,--,460,9200
Vitamins
"Vitamin C, total ascorbic acid",mg,--,--,12.0,240.0
"Vitamin A, IU",IU,--,--,1000,20000
Lipids
"Fatty acids, total saturated",g,--,--,0.000,0.000
"Fatty acids, total trans",g,--,--,0.000,0.000
"Cholesterol",mg,--,--,0,0
Amino Acids
Other
Ingredients
"SUGAR, SALT, POWDERED VINEGAR (SUGARCANE, CORN, TAPIOCA), SOUR AGENT (L-TARTARIC ACID, MONOSODIUM FUMARATE, DL-MALIC ACID, SUCCINIC ACID)." Date available: 06/25/2017 Date last updated by company: 06/25/2017
