Source: USDA Branded Food Products Database Release December 2017 Software v.3.8.6.4 2017-10-02
Report Run at: December 18, 2017 12:45 EST
"Nutrient data for: 45040624, TAMALES BEEF IN CHILI SAUCE, UPC: 037600216296"
Food Group:  Branded Food Products Database
Common Name:

Nutrient,Unit,Data points,Std. Error,"2.0 TAMALES WITH SAUCE = 213.0g",1Value per 100 g,
Proximates
"Energy",kcal,--,--,170,80
"Protein",g,--,--,6.01,2.82
"Total lipid (fat)",g,--,--,8.01,3.76
"Carbohydrate, by difference",g,--,--,20.00,9.39
"Fiber, total dietary",g,--,--,1.9,0.9
"Sugars, total",g,--,--,1.00,0.47
Minerals
"Calcium, Ca",mg,--,--,0,0
"Iron, Fe",mg,--,--,0.72,0.34
"Sodium, Na",mg,--,--,990,465
Vitamins
"Vitamin C, total ascorbic acid",mg,--,--,0.0,0.0
"Vitamin A, IU",IU,--,--,300,141
Lipids
"Fatty acids, total saturated",g,--,--,3.003,1.410
"Fatty acids, total trans",g,--,--,0.000,0.000
"Cholesterol",mg,--,--,15,7
Amino Acids
Other
Ingredients
"WATER, BEEF, TOMATOES (WATER, TOMATO PASTE), CORN MEAL, CORN FLOUR, CONTAINS 2% OR LESS OF MODIFIED CORNSTARCH (CONTAINS ERYTHORBIC ACID), MASA FLOUR (GROUND YELLOW CORN, TRACE OF LIME), SALT, CHILI POWDER (CHILI PEPPERS, FLAVORING), PAPRIKA, SPICE." Date available: 07/14/2017 Date last updated by company: 07/14/2017
