Source: USDA Branded Food Products Database Release December 2017 Software v.3.8.6.4 2017-10-02
Report Run at: December 18, 2017 12:48 EST
"Nutrient data for: 45315594, TAMED FIRE-ROASTED JALAPENOS WITH CHIPOTLE PEPPERS, UPC: 073214005338"
Food Group:  Branded Food Products Database
Common Name:

Nutrient,Unit,Data points,Std. Error,"0.25 cup = 30.0g",1Value per 100 g,
Proximates
"Energy",kcal,--,--,5,17
"Protein",g,--,--,0.00,0.00
"Total lipid (fat)",g,--,--,0.00,0.00
"Carbohydrate, by difference",g,--,--,1.00,3.33
"Fiber, total dietary",g,--,--,0.0,0.0
"Sugars, total",g,--,--,0.00,0.00
Minerals
"Calcium, Ca",mg,--,--,20,67
"Iron, Fe",mg,--,--,0.00,0.00
"Sodium, Na",mg,--,--,380,1267
Vitamins
"Vitamin C, total ascorbic acid",mg,--,--,10.0,33.3
"Vitamin A, IU",IU,--,--,334,1112
Lipids
"Fatty acids, total saturated",g,--,--,0.000,0.000
"Fatty acids, total trans",g,--,--,0.000,0.000
"Cholesterol",mg,--,--,0,0
Amino Acids
Other
Ingredients
"JALAPENO PEPPERS, WATER, DISTILLED VINEGAR, SEA SALT, CHIPOTLE PEPPERS, RED BELL PEPPERS, CALCIUM CHLORIDE, SODIUM BISULFITE (ADDED AS A COLOR STABILIZER), NATURAL FLAVOR, TURMERIC." Date available: 07/14/2017 Date last updated by company: 07/14/2017
