Source: USDA Branded Food Products Database Release December 2017 Software v.3.8.6.4 2017-10-02
Report Run at: December 18, 2017 12:48 EST
"Nutrient data for: 45067004, TAMICON, TAMARIND CONCENTRATE, UPC: 812664009158"
Food Group:  Branded Food Products Database
Common Name:

Nutrient,Unit,Data points,Std. Error,"1 Tbsp = 16.0g",1Value per 100 g,
Proximates
"Energy",kcal,--,--,40,250
"Protein",g,--,--,0.50,3.12
"Total lipid (fat)",g,--,--,0.00,0.00
"Carbohydrate, by difference",g,--,--,9.45,59.06
"Fiber, total dietary",g,--,--,1.0,6.2
Minerals
"Sodium, Na",mg,--,--,50,312
Vitamins
Lipids
"Fatty acids, total saturated",g,--,--,0.000,0.000
"Cholesterol",mg,--,--,0,0
Amino Acids
Other
Ingredients
"TAMARIND EXTRACT, EXTRAIT DE TAMARIN." Date available: 10/13/2017 Date last updated by company: 10/13/2017
