Source: USDA Branded Food Products Database Release December 2017 Software v.3.8.6.4 2017-10-02
Report Run at: December 18, 2017 12:49 EST
"Nutrient data for: 45157873, TAMPICO, TROPICAL PUNCH, CHERRY, ORANGE, PINEAPPLE, UPC: 095188030529"
Food Group:  Branded Food Products Database
Common Name:

Nutrient,Unit,Data points,Std. Error,"8.0 OZA = 240.0g",1Value per 100 g,
Proximates
"Energy",kcal,--,--,60,25
"Protein",g,--,--,0.00,0.00
"Total lipid (fat)",g,--,--,0.00,0.00
"Carbohydrate, by difference",g,--,--,13.99,5.83
"Sugars, total",g,--,--,12.00,5.00
Minerals
"Sodium, Na",mg,--,--,19,8
Vitamins
"Vitamin C, total ascorbic acid",mg,--,--,60.0,25.0
Lipids
Amino Acids
Other
Ingredients
"WATER, HIGH FRUCTOSE CORN SYRUP, CITRIC ACID, CORN OIL, FOOD STARCH-MODIFIED, POTASSIUM CITRATE, XANTHAN GUM, ASCORBIC ACID (VITAMIN C), POTASSIUM SORBATE (PRESERVATIVE), SODIUM CITRATE, ORANGE JUICE FROM CONCENTRATE, MALIC ACID, NATURAL AND ARTIFICIAL FLAVORS, SUCRALOSE (ARTIFICIAL SWEETENER), ACESULFAME POTASSIUM (ARTIFICIAL SWEETENER), FD&C RED 40, CHERRY JUICE FROM CONCENTRATE, EDTA (TO PRESERVE FRESHNESS), PINEAPPLE JUICE FROM CONCENTRATE, NEOTAME (ARTIFICIAL SWEETENER)." Date available: 08/18/2017 Date last updated by company: 08/18/2017
