Source: USDA Branded Food Products Database Release December 2017 Software v.3.8.6.4 2017-10-02
Report Run at: December 18, 2017 12:48 EST
"Nutrient data for: 45165377, TAMPICO, BLUE RASPBERRY PUNCH, BLUEBERRY-RASPBERRY, UPC: 095188006654"
Food Group:  Branded Food Products Database
Common Name:

Nutrient,Unit,Data points,Std. Error,"8.0 OZA = 240.0g",1Value per 100 g,
Proximates
"Energy",kcal,--,--,60,25
"Protein",g,--,--,0.00,0.00
"Total lipid (fat)",g,--,--,0.00,0.00
"Carbohydrate, by difference",g,--,--,13.99,5.83
"Sugars, total",g,--,--,12.00,5.00
Minerals
"Sodium, Na",mg,--,--,0,0
Vitamins
"Vitamin C, total ascorbic acid",mg,--,--,60.0,25.0
Lipids
Amino Acids
Other
Ingredients
"WATER, HIGH FRUCTOSE CORN SYRUP, CITRIC ACID, GRAPE JUICE FROM CONCENTRATE, CORN OIL, FOOD STARCH-MODIFIED, XANTHAN GUM, POTASSIUM CITRATE, ASCORBIC ACID (VITAMIN C), RASPBERRY JUICE FROM CONCENTRATE, POTASSIUM SORBATE (PRESERVATIVE), NATURAL AND ARTIFICIAL FLAVORS, BLUEBERRY JUICE FROM CONCENTRATE, SUCRALOSE (ARTIFICIAL SWEETENERS), ACESULFAME POTASSIUM (ARTIFICIAL SWEETENERS), EDTA (TO PRESERVE FRESHNESS), FD&C BLUE 1, NEOTAME (ARTIFICIAL SWEETENER)." Date available: 08/18/2017 Date last updated by company: 08/18/2017
