Source: USDA Branded Food Products Database Release December 2017 Software v.3.8.6.4 2017-10-02
Report Run at: December 18, 2017 12:54 EST
"Nutrient data for: 45311754, TANGY FRUIT SALAD JELLY CANDY, UPC: 799441547884"
Food Group:  Branded Food Products Database
Common Name:

Nutrient,Unit,Data points,Std. Error,"9.0 PIECES = 35.0g",1Value per 100 g,
Proximates
"Energy",kcal,--,--,121,346
"Protein",g,--,--,0.00,0.00
"Total lipid (fat)",g,--,--,0.00,0.00
"Carbohydrate, by difference",g,--,--,30.00,85.71
"Fiber, total dietary",g,--,--,0.0,0.0
"Sugars, total",g,--,--,23.00,65.71
Minerals
"Sodium, Na",mg,--,--,19,54
Vitamins
Lipids
"Fatty acids, total saturated",g,--,--,0.000,0.000
"Fatty acids, total trans",g,--,--,0.000,0.000
"Cholesterol",mg,--,--,0,0
Amino Acids
Other
Ingredients
"GLUCOSE SYRUP (NOT FROM WHEAT), SUGAR, MODIFIED STARCH, GELLING AGENT: CARRAGEENAN, ACIDULANT: CITRIC ACID, MALIC ACID, ACIDITY REGULATOR: SODIUM CITRATES, SODIUM MALATES, NATURAL FLAVOURS, NATURAL ORANGE FLAVOUR, NATURAL GRAPE FLAVOUR WITH OTHER NATURAL FLAVOURS, CONCENTRATED DYES (RADISH, APPLE, BLACKCURANT, PUMPKIN, CARROT), CURCUMA EXTRACT, STINGING NETTLE EXTRACT, SPINACH EXTRACT." Date available: 07/14/2017 Date last updated by company: 07/14/2017
