Source: USDA Branded Food Products Database Release December 2017 Software v.3.8.6.4 2017-10-02
Report Run at: December 18, 2017 12:51 EST
"Nutrient data for: 45252471, TANG, DRINK MIX, GUAVA-PINEAPPLE, UPC: 070221006693"
Food Group:  Branded Food Products Database
Common Name:

Nutrient,Unit,Data points,Std. Error,"0.125 CAP (MAKES 8 OZ FL) = 21.0g",1Value per 100 g,
Proximates
"Energy",kcal,--,--,80,381
"Protein",g,--,--,0.00,0.00
"Total lipid (fat)",g,--,--,0.00,0.00
"Carbohydrate, by difference",g,--,--,20.00,95.24
"Sugars, total",g,--,--,19.00,90.48
Minerals
"Calcium, Ca",mg,--,--,238,1134
"Sodium, Na",mg,--,--,55,262
Vitamins
"Vitamin C, total ascorbic acid",mg,--,--,60.0,285.7
"Riboflavin",mg,--,--,0.170,0.810
"Niacin",mg,--,--,4.762,22.676
"Vitamin B-6",mg,--,--,0.476,2.268
"Vitamin A, IU",IU,--,--,1190,5669
Lipids
Amino Acids
Other
Ingredients
"SUGAR, CITRIC ACID, CONTAINS LESS THAN 2% OF NATURAL AND ARTIFICIAL FLAVOR, ASCORBIC ACID (VITAMIN C), VITAMIN E ACETATE, NIACINAMIDE, VITAMIN B6, VITAMIN A PALMITATE, RIBOFLAVIN (VITAMIN B2), BETACAROTENE, CALCIUM PHOSPHATE, SUCRALOSE, ACESULFAME POTASSIUM, AND NEOTAME (SWEETENERS), CELLULOSE GUM (PROVIDES BODY), SODIUM CITRATE, ARTIFICIAL COLOR, RED 40 LAKE, RED 40, YELLOW 6, BLUE 1." Date available: 08/12/2017 Date last updated by company: 08/12/2017
