Source: USDA Branded Food Products Database Release December 2017 Software v.3.8.6.4 2017-10-02
Report Run at: December 18, 2017 12:52 EST
"Nutrient data for: 45252090, TANGLED TREE, CHERRY CHOCOLATE MUNCH, UPC: 884853800099"
Food Group:  Branded Food Products Database
Common Name:

Nutrient,Unit,Data points,Std. Error,"0.25 cup = 38.0g",1Value per 100 g,
Proximates
"Energy",kcal,--,--,210,553
"Protein",g,--,--,1.00,2.63
"Total lipid (fat)",g,--,--,7.00,18.42
"Carbohydrate, by difference",g,--,--,28.00,73.68
"Fiber, total dietary",g,--,--,1.0,2.6
"Sugars, total",g,--,--,3.00,7.89
Minerals
"Calcium, Ca",mg,--,--,10,26
"Iron, Fe",mg,--,--,0.47,1.25
"Sodium, Na",mg,--,--,65,171
Vitamins
"Vitamin C, total ascorbic acid",mg,--,--,0.0,0.0
"Vitamin A, IU",IU,--,--,0,0
Lipids
"Fatty acids, total saturated",g,--,--,2.998,7.890
"Fatty acids, total trans",g,--,--,0.000,0.000
"Cholesterol",mg,--,--,0,0
Amino Acids
Other
Ingredients
"PEANUTS (SUNFLOWER OIL, SEA SALT), CHOCOLATE RAISINS (MILK CHOCOLATE, SUGAR, COCOA BUTTER, MILK, CHOCOLATE LIQUOR, SOY LECITHIN, VANILLA), RAISINS (GUM ARABIC, CORN SYRUP SUGAR, CERTIFIED CONFECTIONERS GLAZE), DRIED RED TART CHERRIES (SUGAR, SUNFLOWER OIL), CHOCOLATE STARS (MILK CHOCOLATE, SUGAR, COCOA BUTTER, WHOLE MILK POWDER, CHOCOLATE LIQUOR, SOYBEAN LECITHIN [AN EMULSIFIER], VANILLIN, ARTIFICIAL FLAVOR), WHITE CONFECTIONERY CHIPS (SUGAR, NONFAT MILK POWDER, PARTIALLY HYDROGENATED PALM KERNEL OIL, SOY LECITHIN [AN EMULSIFIER], MONOGLYCERIDES, ARTIFICIAL COLOR, TITANIUM DIOXIDE, ARTIFICIAL FLAVOR), CHOCOLATE CHIPS (SUGAR, CHOCOLATE LIQUOR, COCOA BUTTER, SOY LECITHIN, VANILLA), ALMONDS" Date available: 08/26/2017 Date last updated by company: 08/26/2017
