Source: USDA Branded Food Products Database Release December 2017 Software v.3.8.6.4 2017-10-02
Report Run at: December 18, 2017 12:54 EST
"Nutrient data for: 45237080, TANGY SWEET & SOUR DRESSING, UPC: 041497115433"
Food Group:  Branded Food Products Database
Common Name:

Nutrient,Unit,Data points,Std. Error,"2.0 Tbsp = 30.0g",1Value per 100 g,
Proximates
"Energy",kcal,--,--,120,400
"Protein",g,--,--,0.00,0.00
"Total lipid (fat)",g,--,--,9.00,30.00
"Carbohydrate, by difference",g,--,--,10.00,33.33
"Fiber, total dietary",g,--,--,0.0,0.0
"Sugars, total",g,--,--,10.00,33.33
Minerals
"Calcium, Ca",mg,--,--,0,0
"Iron, Fe",mg,--,--,0.00,0.00
"Sodium, Na",mg,--,--,140,467
Vitamins
"Vitamin C, total ascorbic acid",mg,--,--,0.0,0.0
"Vitamin A, IU",IU,--,--,0,0
Lipids
"Fatty acids, total saturated",g,--,--,1.500,5.000
"Fatty acids, total monounsaturated",g,--,--,2.001,6.670
"Fatty acids, total polyunsaturated",g,--,--,5.001,16.670
"Fatty acids, total trans",g,--,--,0.000,0.000
"Cholesterol",mg,--,--,0,0
Amino Acids
Other
Ingredients
"HIGH FRUCTOSE CORN SYRUP, VEGETABLE OIL (SOYBEAN AND/OR CANOLA), WATER, VINEGAR (CIDER, DISTILLED), ONION, SALT, CONTAINS LESS THAN 1% XANTHAN GUM, MUSTARD FLOUR, CELERY SEED, POTASSIUM SORBATE AND SODIUM BENZOATE (AS PRESERVATIVES), POLYSORBATE 60, DRIED GARLIC, PROPYLENE GLYCOL ALGINATE, CALCIUM DISODIUM EDTA TO PROTECT FLAVOR, YELLOW #5." Date available: 06/25/2017 Date last updated by company: 06/25/2017
