Source: USDA Branded Food Products Database Release December 2017 Software v.3.8.6.4 2017-10-02
Report Run at: December 18, 2017 13:01 EST
"Nutrient data for: 45179838, TARGET CORPORATION, DIP CHEESEBALL MIX, BACON CHEDDAR, UPC: 819893021326"
Food Group:  Branded Food Products Database
Common Name:

Nutrient,Unit,Data points,Std. Error,"0.111 POUCH = 3.0g",1Value per 100 g,
Proximates
"Energy",kcal,--,--,10,333
"Protein",g,--,--,1.00,33.33
"Total lipid (fat)",g,--,--,0.00,0.00
"Carbohydrate, by difference",g,--,--,2.00,66.67
"Fiber, total dietary",g,--,--,0.0,0.0
"Sugars, total",g,--,--,1.00,33.33
Minerals
"Calcium, Ca",mg,--,--,20,667
"Iron, Fe",mg,--,--,0.00,0.00
"Sodium, Na",mg,--,--,160,5333
Vitamins
"Vitamin C, total ascorbic acid",mg,--,--,0.0,0.0
"Vitamin A, IU",IU,--,--,0,0
Lipids
"Fatty acids, total saturated",g,--,--,0.000,0.000
"Fatty acids, total trans",g,--,--,0.000,0.000
"Cholesterol",mg,--,--,0,0
Amino Acids
Other
Ingredients
"WHEY, CHEESE POWDER (CHEDDAR CHEESE MILK, SALT, CHEESE CULTURES, ENZYMES), WHEY, BUTTERMILK, SALT, DISODIUM PHOSPHATE, ARTIFICIAL COLOR [YELLOW 5, YELLOW 6)), IMITATION BACON BITS (TEXTURED VEGETABLE PROTEIN [SOY FLOUR, CARAMEL COLOR], SOYBEAN OIL, SALT, NATURAL FLAVOR), SALT, MALTODEXTRIN, TORULA YEAST YEAST EXTRACT, ONION POWDER, DEHYDRATED ONION, LESS THAN 2% OF HYDROLYZED CORN, WHEAT, AND SOY GLUTEN, YEAST EXTRACT, HYDROLYZED CORN GLUTEN, NATURAL AND ARTIFICIAL FLAVOR, PARTIALLY HYDROGENATED SOYBEAN AND COTTONSEED OIL, DISODIUM INOSINATE, DISODIUM GUANYLATE, NATURAL CHEDDAR CHEESE FLAVOR (CHEDDAR CHEESE [PASTEURIZED MILK, CULTURES, SALT, ENZYMES], MALTODEXTRIN, WHEY, NATURAL FLAVORS, DISODIUM PHOSPHATE, SILICON DIOXIDE), NATURAL GRILL FLAVOR (MALTODEXTRIN, NATURAL FLAVOR, MODIFIED CORN STARCH, CORN SYRUP SOLIDS, TRICALCIUM PHOSPHATE), NATURAL BLUE CHEESE FLAVOR (BLUE CHEESE [PASTEURIZED MILK, CULTURES, SALT, ENZYMES], WHEY, MALTODEXTRIN, SALT, DISODIUM PHOSPHATE), SPICES, NATURAL FLAVOR, NATURAL SMOKE FLAVOR, CANOLA OIL (ANTIDUSTING), SILICON DIOXIDE (ANTICAKING)." Date available: 08/19/2017 Date last updated by company: 08/19/2017
