Source: USDA Branded Food Products Database Release December 2017 Software v.3.8.6.4 2017-10-02
Report Run at: December 18, 2017 13:04 EST
"Nutrient data for: 45150011, TARGET, SCARY! COTTON CANDY COBWEBS, CHERRY ARTIFICIAL FLAVORED, UPC: 819893020466"
Food Group:  Branded Food Products Database
Common Name:

Nutrient,Unit,Data points,Std. Error,"1 PACKAGE = 28.0g",1Value per 100 g,
Proximates
"Energy",kcal,--,--,110,393
"Protein",g,--,--,0.00,0.00
"Total lipid (fat)",g,--,--,0.00,0.00
"Carbohydrate, by difference",g,--,--,28.00,100.00
"Sugars, total",g,--,--,28.00,100.00
Minerals
"Sodium, Na",mg,--,--,0,0
Vitamins
Lipids
Amino Acids
Other
Ingredients
"SUGAR, ARTIFICIAL FLAVOR, RED 40." Date available: 08/24/2017 Date last updated by company: 08/24/2017
