Source: USDA Branded Food Products Database Release December 2017 Software v.3.8.6.4 2017-10-02
Report Run at: December 18, 2017 13:01 EST
"Nutrient data for: 45180165, TARGET CORPORATION, GRAVEYARD CAKE KIT, UPC: 819893021562"
Food Group:  Branded Food Products Database
Common Name:

Nutrient,Unit,Data points,Std. Error,"0.083 PACKAGE = 30.0g",1Value per 100 g,
Proximates
"Energy",kcal,--,--,110,367
"Protein",g,--,--,2.00,6.67
"Total lipid (fat)",g,--,--,1.50,5.00
"Carbohydrate, by difference",g,--,--,23.00,76.67
"Fiber, total dietary",g,--,--,1.0,3.3
"Sugars, total",g,--,--,13.00,43.33
Minerals
"Calcium, Ca",mg,--,--,0,0
"Iron, Fe",mg,--,--,1.44,4.80
"Sodium, Na",mg,--,--,110,367
Vitamins
"Vitamin C, total ascorbic acid",mg,--,--,0.0,0.0
"Vitamin A, IU",IU,--,--,0,0
Lipids
"Fatty acids, total saturated",g,--,--,0.501,1.670
"Fatty acids, total trans",g,--,--,0.000,0.000
"Cholesterol",mg,--,--,5,17
Amino Acids
Other
Ingredients
"CAKE (SUGAR, WHEAT FLOUR [ENRICHED WHEAT FLOUR, NIACIN, IRON, THIAMIN MONONITRATE, RIBOFLAVIN, FOLIC ACID], CORN STARCH, DUTCH COCOA [PROCESSED WITH ALKALI], EGGS, DARK CHOCOLATE COCOA, BAKING POWDER [CORNSTARCH, SODIUM BICARBONATE, SODIUM ALUMINUM SULFATE, MONOCALCIUM PHOSPHATE], NATURAL AND ARTIFICIAL FLAVOR, SALT), COOKIE CRUMBLES (ENRICHED FLOUR [WHEAT FLOUR, NIACIN, REDUCED IRON, THIAMINE MONONITRATE, RIBOFLAVIN, FOLIC ACID], SUGAR, PALM OIL, COCOA PROCESSED WITH ALKALI, HIGH FRUCTOSE CORN SYRUP, CORN STARCH, CARAMEL COLOR, CORN FLOUR, WHEY, SALT, SODIUM BICARBONATE, NATURAL AND ARTIFICIAL FLAVOR, SOY LECITHIN), GUMMY WORMS (CORN SYRUP, SUGAR, GELATIN, CITRIC ACID, SORBITOL, NATURAL AND ARTIFICIAL FLAVORS, YELLOW 5, YELLOW 6, BLUE 1, RED 40, VEGETABLE OIL [COCONUT], CARNAUBA WAX [FOR ANTI-STICKING])." Date available: 07/14/2017 Date last updated by company: 07/14/2017
