Source: USDA Branded Food Products Database Release December 2017 Software v.3.8.6.4 2017-10-02
Report Run at: December 18, 2017 13:00 EST
"Nutrient data for: 45180149, TARGET CORPORATION, CAULDRON MUG CAKE MIX, PUMPKIN, UPC: 819893020695"
Food Group:  Branded Food Products Database
Common Name:

Nutrient,Unit,Data points,Std. Error,"1 PACKAGE = 59.0g",1Value per 100 g,
Proximates
"Energy",kcal,--,--,230,390
"Protein",g,--,--,5.00,8.47
"Total lipid (fat)",g,--,--,3.00,5.08
"Carbohydrate, by difference",g,--,--,46.00,77.97
"Fiber, total dietary",g,--,--,1.0,1.7
"Sugars, total",g,--,--,30.00,50.85
Minerals
"Calcium, Ca",mg,--,--,60,102
"Iron, Fe",mg,--,--,0.49,0.83
"Sodium, Na",mg,--,--,570,966
Vitamins
"Vitamin C, total ascorbic acid",mg,--,--,0.0,0.0
"Vitamin A, IU",IU,--,--,204,345
Lipids
"Fatty acids, total saturated",g,--,--,0.997,1.690
"Fatty acids, total trans",g,--,--,0.501,0.850
"Cholesterol",mg,--,--,20,34
Amino Acids
Other
Ingredients
"SUGAR, ENRICHED FLOUR BLEACHED (WHEAT FLOUR, NIACIN, IRON, THIAMIN MONONITRATE, RIBOFLAVIN, FOLIC ACID), EGG WHITE, PARTIALLY HYDROGENATED SOYBEAN OIL, WHEAT STARCH, EGG YOLK WITH SODIUM SILICOALUMINATE, NONFAT MILK, CONTAINS 2% OR LESS OF: LEAVENING (BAKING SODA, SODIUM ALUMINUM PHOSPHATE, MONOCALCIUM PHOSPHATE), NATURAL AND ARTIFICIAL FLAVOR, SALT, FUMARIC ACID, CREAM OF TARTAR, CELLULOSE GUM, XANTHAN GUM, GUAR GUM, SODIUM LAURYL SULFATE (A WHIPPING AID), PROPYLENE GLYCOL MONO AND DIESTERS OF FATTY ACIDS, DEXTROSE, MODIFIED TAPIOCA STARCH, MONO AND DIGLYCERIDE, SORBITAN MONOSTEARATE, SODIUM PYROPHOSPHATE, SODIUM STEAROYL LACTYLATE, POLYSORBATE 60, CALCIUM ACETATE, SOY LECITHIN, GROUND CINNAMON, YELLOW 5, YELLOW 6." Date available: 07/14/2017 Date last updated by company: 07/14/2017
