Source: USDA Branded Food Products Database Release December 2017 Software v.3.8.6.4 2017-10-02
Report Run at: December 18, 2017 13:06 EST
"Nutrient data for: 45189955, TARIYAKI BEEF JERKY, UPC: 017082877161"
Food Group:  Branded Food Products Database
Common Name:

Nutrient,Unit,Data points,Std. Error,"1 PACKAGE = 26.0g",1Value per 100 g,
Proximates
"Energy",kcal,--,--,70,269
"Protein",g,--,--,11.00,42.31
"Total lipid (fat)",g,--,--,1.00,3.85
"Carbohydrate, by difference",g,--,--,5.00,19.23
"Fiber, total dietary",g,--,--,0.0,0.0
"Sugars, total",g,--,--,5.00,19.23
Minerals
"Calcium, Ca",mg,--,--,0,0
"Iron, Fe",mg,--,--,2.08,7.99
"Sodium, Na",mg,--,--,430,1654
Vitamins
"Vitamin C, total ascorbic acid",mg,--,--,0.0,0.0
"Vitamin A, IU",IU,--,--,0,0
Lipids
"Fatty acids, total saturated",g,--,--,0.000,0.000
"Fatty acids, total trans",g,--,--,0.000,0.000
"Cholesterol",mg,--,--,25,96
Amino Acids
Other
Ingredients
"BEEF, WATER, SUGAR, LESS THAN 2% SOY SAUCE [(WHEAT, SOY BEANS, SALT), MALTODEXTRIN], FLAVORINGS, SALT, YEAST EXTRACT, CITRIC ACID." Date available: 07/14/2017 Date last updated by company: 07/14/2017
