Source: USDA Branded Food Products Database Release December 2017 Software v.3.8.6.4 2017-10-02
Report Run at: December 18, 2017 13:07 EST
"Nutrient data for: 45315266, TARTAR SAUCE, UPC: 041234111766"
Food Group:  Branded Food Products Database
Common Name:

Nutrient,Unit,Data points,Std. Error,"2.0 Tbsp = 30.0g",1Value per 100 g,
Proximates
"Energy",kcal,--,--,90,300
"Protein",g,--,--,0.00,0.00
"Total lipid (fat)",g,--,--,8.00,26.67
"Carbohydrate, by difference",g,--,--,5.00,16.67
"Sugars, total",g,--,--,2.00,6.67
Minerals
"Sodium, Na",mg,--,--,250,833
Vitamins
Lipids
"Fatty acids, total saturated",g,--,--,1.500,5.000
"Cholesterol",mg,--,--,20,67
Amino Acids
Other
Ingredients
"SOYBEAN OIL, WATER, DISTILLED VINEGAR, SUGAR, SWEET PICKLES, EGG YOLKS, MODIFIED CORN STARCH, SALT, LEMON JUICE CONCENTRATE, MUSTARD, MODIFIED TAPIOCA STARCH, XANTHAN GUM (THICKENER), ONION, CALCIUM DISODIUM EDTA (TO PROTECT QUALITY) & NATURAL FLAVOR." Date available: 07/14/2017 Date last updated by company: 07/14/2017
