Source: USDA Branded Food Products Database Release December 2017 Software v.3.8.6.4 2017-10-02
Report Run at: December 18, 2017 13:09 EST
"Nutrient data for: 45228909, TART JUICE, UPC: 895192001214"
Food Group:  Branded Food Products Database
Common Name:

Nutrient,Unit,Data points,Std. Error,"8.0 OZA = 240.0g",1Value per 100 g,
Proximates
"Energy",kcal,--,--,130,54
"Protein",g,--,--,1.01,0.42
"Total lipid (fat)",g,--,--,0.00,0.00
"Carbohydrate, by difference",g,--,--,31.99,13.33
"Sugars, total",g,--,--,28.01,11.67
Minerals
"Calcium, Ca",mg,--,--,19,8
"Iron, Fe",mg,--,--,0.72,0.30
"Potassium, K",mg,--,--,290,121
"Sodium, Na",mg,--,--,5,2
Vitamins
"Vitamin C, total ascorbic acid",mg,--,--,0.0,0.0
"Vitamin A, IU",IU,--,--,300,125
Lipids
Amino Acids
Other
Ingredients
"TART CHERRY JUICE (NOT FROM CONCENTRATE), APPLE JUICE (APPLE JUICE CONCENTRATE, WATER)" Date available: 07/14/2017 Date last updated by company: 07/14/2017
