Source: USDA Branded Food Products Database Release December 2017 Software v.3.8.6.4 2017-10-02
Report Run at: December 18, 2017 13:11 EST
"Nutrient data for: 45206151, TASTE ELEVATED, HABAPENO MUSTARD SEEDS, UPC: 858026004096"
Food Group:  Branded Food Products Database
Common Name:

Nutrient,Unit,Data points,Std. Error,"1 Tbsp = 15.0g",1Value per 100 g,
Proximates
"Energy",kcal,--,--,20,133
"Protein",g,--,--,1.00,6.67
"Total lipid (fat)",g,--,--,1.00,6.67
"Carbohydrate, by difference",g,--,--,3.00,20.00
"Fiber, total dietary",g,--,--,0.0,0.0
"Sugars, total",g,--,--,2.00,13.33
Minerals
"Calcium, Ca",mg,--,--,20,133
"Iron, Fe",mg,--,--,1.20,8.00
"Sodium, Na",mg,--,--,120,800
Vitamins
"Vitamin C, total ascorbic acid",mg,--,--,0.0,0.0
"Vitamin A, IU",IU,--,--,0,0
Lipids
"Fatty acids, total saturated",g,--,--,0.000,0.000
"Fatty acids, total trans",g,--,--,0.000,0.000
"Cholesterol",mg,--,--,0,0
Amino Acids
Other
Ingredients
"WATER, SUGAR, DISTILLED VINEGAR, MUSTARD SEEDS, SALT, GARLIC POWDER, CRUSHED RED PEPPER, CRUSHED JALAPENO, HABANERO POWDER." Date available: 07/14/2017 Date last updated by company: 07/14/2017
