Source: USDA Branded Food Products Database Release December 2017 Software v.3.8.6.4 2017-10-02
Report Run at: December 18, 2017 13:23 EST
"Nutrient data for: 45223406, TASTYKAKE, JACK-O-LANTERN JUNIORS ORANGE LAYER CAKE, UPC: 025600000267"
Food Group:  Branded Food Products Database
Common Name:

Nutrient,Unit,Data points,Std. Error,"1 CAKE = 85.0g",1Value per 100 g,
Proximates
"Energy",kcal,--,--,330,388
"Protein",g,--,--,3.00,3.53
"Total lipid (fat)",g,--,--,13.00,15.29
"Carbohydrate, by difference",g,--,--,51.00,60.00
"Fiber, total dietary",g,--,--,0.0,0.0
"Sugars, total",g,--,--,36.00,42.35
Minerals
"Calcium, Ca",mg,--,--,40,47
"Iron, Fe",mg,--,--,0.68,0.80
"Sodium, Na",mg,--,--,220,259
Vitamins
"Vitamin C, total ascorbic acid",mg,--,--,0.0,0.0
"Vitamin A, IU",IU,--,--,94,111
Lipids
"Fatty acids, total saturated",g,--,--,4.003,4.710
"Fatty acids, total trans",g,--,--,0.000,0.000
"Cholesterol",mg,--,--,65,76
Amino Acids
Other
Ingredients
"SUGAR, BLEACHED ENRICHED FLOUR (WHEAT FLOUR, NIACIN, REDUCED IRON, THIAMINE MONONITRATE-B1, RIBOFLAVIN-B2, FOLIC ACID), VEGETABLE SHORTENING (SOYBEAN OIL, PALM OIL, PARTIALLY HYDROGENATED SOYBEAN OIL, COTTONSEED OIL, PARTIALLY HYDROGENATED COTTONSEED OIL, AND/OR HYDROGENATED COTTONSEED OIL WITH TBHQ AND CITRIC ACID ADDED TO PRESERVE FRESHNESS), EGGS, WATER, CORN SYRUP, HIGH FRUCTOSE CORN SYRUP, ORANGE PUREE, CONTAINS 2 PERCENT OR LESS OF: SKIM MILK, FOOD STARCH - MODIFIED,M LEAVENING (SODIUM ACID PYROPHOSPHATE, BAKING SODA, MONOCALCIUM PHOSPHATE, CALCIUM SULFATE), CORNSTARCH, MONO & DIGLYCERIDES, WHEY (MILK), SALT, NATURAL & ARTIFICIAL FLAVORS, BUTTER, SOY LECITHIN, COCONUT OIL, CORN FLOUR, XANTHAN GUM, SORBITAN MONOSTEARATE, SORBIC ACID (TO PRESERVE FRESHNESS), FD&C YELLOW #6 ALUMINUM LAKE, POLYSORBATE 60, AGAR, NUTMEG, CINNAMON." Date available: 07/14/2017 Date last updated by company: 07/14/2017
