Source: USDA Branded Food Products Database Release December 2017 Software v.3.8.6.4 2017-10-02
Report Run at: December 18, 2017 13:11 EST
"Nutrient data for: 45172946, TASTABLE, AMARETTO RING CAKE, UPC: 040232038655"
Food Group:  Branded Food Products Database
Common Name:

Nutrient,Unit,Data points,Std. Error,"2.0 ONZ = 56.0g",1Value per 100 g,
Proximates
"Energy",kcal,--,--,240,429
"Protein",g,--,--,5.00,8.93
"Total lipid (fat)",g,--,--,13.00,23.21
"Carbohydrate, by difference",g,--,--,27.00,48.21
"Fiber, total dietary",g,--,--,0.0,0.0
"Sugars, total",g,--,--,16.00,28.57
Minerals
"Calcium, Ca",mg,--,--,20,36
"Iron, Fe",mg,--,--,1.54,2.75
"Sodium, Na",mg,--,--,250,446
Vitamins
"Vitamin C, total ascorbic acid",mg,--,--,1.7,3.1
"Vitamin A, IU",IU,--,--,143,255
Lipids
"Fatty acids, total saturated",g,--,--,3.002,5.360
"Fatty acids, total trans",g,--,--,0.000,0.000
"Cholesterol",mg,--,--,40,71
Amino Acids
Other
Ingredients
"ENRICHED WHEAT FLOUR (FERROUS SULFITE, NIACIN, THIAMIN MONONITRATE, RIBOFLAVIN, FOLIC ACID), SUGAR, WHOLE EGGS, MODIFIED CORN STARCH, SLICED ALMONDS, VEGETABLE OIL (SOYBEAN OR COTTONSEED), NONFAT MILK, BAKING POWDER (LEAVENING), EMULSIFIER (PROPYLENE GLYCOL MONOESTERS), SALT, SOY LECITHIN, MONO AND DIGLYCERIDES, ALMOND EMULSION, NATURAL AND ARTIFICIAL FLAVORS, XANTHAN GUM, SODIUM BENZOATE, POTASSIUM SORBATE, AND CITRIC ACID (PRESERVATIVES)." Date available: 10/09/2017 Date last updated by company: 10/09/2017
