Source: USDA Branded Food Products Database Release December 2017 Software v.3.8.6.4 2017-10-02
Report Run at: December 18, 2017 13:15 EST
"Nutrient data for: 45034997, TASTE OF INSPIRATIONS, NONFAT GREEK YOGURT, PINEAPPLE, UPC: 725439980098"
Food Group:  Branded Food Products Database
Common Name:

Nutrient,Unit,Data points,Std. Error,"1 CONTAINER = 150.0g",1Value per 100 g,
Proximates
"Energy",kcal,--,--,130,87
"Protein",g,--,--,12.00,8.00
"Total lipid (fat)",g,--,--,0.00,0.00
"Carbohydrate, by difference",g,--,--,21.00,14.00
"Fiber, total dietary",g,--,--,1.1,0.7
"Sugars, total",g,--,--,20.00,13.33
Minerals
"Calcium, Ca",mg,--,--,150,100
"Sodium, Na",mg,--,--,50,33
Vitamins
Lipids
"Fatty acids, total saturated",g,--,--,0.000,0.000
"Cholesterol",mg,--,--,10,7
Amino Acids
Other
Ingredients
"CULTURED PASTEURIZED SKIM MILK, SUGAR, PINEAPPLE, PINEAPPLE JUICE, PECTIN, NATURAL FLAVOR, LOCUST BEAN GUM, TURMERIC (FOR COLOR). CONTAINS FIVE LIVE ACTIVE CULTURES INCLUDING; S. THERMOPHILUS, L. BULGARICUS, L. ACIDOPHILUS, BIFIDUS AND L.CASEI." Date available: 10/04/2017 Date last updated by company: 10/04/2017
