Source: USDA Branded Food Products Database Release December 2017 Software v.3.8.6.4 2017-10-02
Report Run at: December 18, 2017 13:14 EST
"Nutrient data for: 45180374, TASTE OF INSPIRATIONS, CRUMBLES GOAT CHEESE, SUNDRIED TOMATO & BASIL, UPC: 725439984911"
Food Group:  Branded Food Products Database
Common Name:

Nutrient,Unit,Data points,Std. Error,"1 ONZ = 28.0g",1Value per 100 g,
Proximates
"Energy",kcal,--,--,80,286
"Protein",g,--,--,4.00,14.29
"Total lipid (fat)",g,--,--,6.00,21.43
"Carbohydrate, by difference",g,--,--,1.00,3.57
"Sugars, total",g,--,--,1.00,3.57
Minerals
"Calcium, Ca",mg,--,--,40,143
"Iron, Fe",mg,--,--,0.97,3.45
"Sodium, Na",mg,--,--,80,286
Vitamins
"Vitamin A, IU",IU,--,--,447,1595
Lipids
"Fatty acids, total saturated",g,--,--,4.001,14.290
"Cholesterol",mg,--,--,13,46
Amino Acids
Other
Ingredients
"PASTEURIZED GOAT MILK, POWDERED CELLULOSE, SUN-DRIED TOMATO, SALT, BASIL, CHEESE CULTURES, VEGETAL RENNET, NATAMYCIN (NATURAL YEAST & MOLD INHIBITOR)." Date available: 10/17/2017 Date last updated by company: 10/17/2017
