Source: USDA Branded Food Products Database Release December 2017 Software v.3.8.6.4 2017-10-02
Report Run at: December 18, 2017 13:16 EST
"Nutrient data for: 45186862, TASTE OF ITALY, SPECK WOOD SMOKED PROSCIUTTO, UPC: 852600006025"
Food Group:  Branded Food Products Database
Common Name:

Nutrient,Unit,Data points,Std. Error,"0.5 TRAY = 57.0g",1Value per 100 g,
Proximates
"Energy",kcal,--,--,170,298
"Protein",g,--,--,15.00,26.32
"Total lipid (fat)",g,--,--,12.00,21.05
"Carbohydrate, by difference",g,--,--,0.00,0.00
"Fiber, total dietary",g,--,--,0.0,0.0
"Sugars, total",g,--,--,0.00,0.00
Minerals
"Calcium, Ca",mg,--,--,0,0
"Iron, Fe",mg,--,--,0.70,1.22
"Sodium, Na",mg,--,--,872,1530
Vitamins
"Vitamin C, total ascorbic acid",mg,--,--,0.0,0.0
"Vitamin A, IU",IU,--,--,0,0
Lipids
"Fatty acids, total saturated",g,--,--,2.998,5.260
"Fatty acids, total trans",g,--,--,0.000,0.000
"Cholesterol",mg,--,--,51,89
Amino Acids
Other
Ingredients
"PORK, SALT, SUGAR, SPICES AND COLOR, FLAVORS, SODIUM NITRATE (PRESERVATIVE)" Date available: 07/14/2017 Date last updated by company: 07/14/2017
