Source: USDA Branded Food Products Database Release December 2017 Software v.3.8.6.4 2017-10-02
Report Run at: December 18, 2017 13:19 EST
"Nutrient data for: 45106502, TASTY BRAND, ORGANIC SANDWICH COOKIES, VANILLA CUPCAKE, UPC: 897261001774"
Food Group:  Branded Food Products Database
Common Name:

Nutrient,Unit,Data points,Std. Error,"2.0 COOKIES = 26.0g",1Value per 100 g,
Proximates
"Energy",kcal,--,--,130,500
"Protein",g,--,--,1.00,3.85
"Total lipid (fat)",g,--,--,5.00,19.23
"Carbohydrate, by difference",g,--,--,19.00,73.08
"Fiber, total dietary",g,--,--,0.0,0.0
"Sugars, total",g,--,--,9.00,34.62
Minerals
"Calcium, Ca",mg,--,--,0,0
"Iron, Fe",mg,--,--,0.00,0.00
"Sodium, Na",mg,--,--,120,462
Vitamins
"Vitamin C, total ascorbic acid",mg,--,--,0.0,0.0
"Vitamin A, IU",IU,--,--,0,0
Lipids
"Fatty acids, total saturated",g,--,--,0.499,1.920
"Fatty acids, total trans",g,--,--,0.000,0.000
"Cholesterol",mg,--,--,0,0
Amino Acids
Other
Ingredients
"ORGANIC WHEAT FLOUR, ORGANIC POWDERED SUGAR WITH ORGANIC CORN STARCH, ORGANIC EXPELLER PRESSED SUNFLOWER OIL OR ORGANIC SAFFLOWER OIL, ORGANIC CANE SUGAR, ORGANIC CANE SYRUP, BAKING SODA, ORGANIC VANILLA EXTRACT, SEA SALT, SOY LECITHIN, NATURAL FLAVOR" Date available: 06/25/2017 Date last updated by company: 06/25/2017
