Source: USDA Branded Food Products Database Release December 2017 Software v.3.8.6.4 2017-10-02
Report Run at: December 18, 2017 13:14 EST
"Nutrient data for: 45185816, TASTE OF INSPIRATIONS, GREEK FROZEN YOGURT, BLACK CHERRY, UPC: 725439981828"
Food Group:  Branded Food Products Database
Common Name:

Nutrient,Unit,Data points,Std. Error,"0.5 cup = 87.0g",1Value per 100 g,
Proximates
"Energy",kcal,--,--,160,184
"Protein",g,--,--,4.00,4.60
"Total lipid (fat)",g,--,--,4.00,4.60
"Carbohydrate, by difference",g,--,--,27.00,31.03
"Fiber, total dietary",g,--,--,0.0,0.0
"Sugars, total",g,--,--,20.00,22.99
Minerals
"Calcium, Ca",mg,--,--,150,172
"Iron, Fe",mg,--,--,0.00,0.00
"Sodium, Na",mg,--,--,10,11
Vitamins
"Vitamin C, total ascorbic acid",mg,--,--,0.0,0.0
"Vitamin A, IU",IU,--,--,112,129
Lipids
"Fatty acids, total saturated",g,--,--,2.497,2.870
"Fatty acids, total trans",g,--,--,0.000,0.000
"Cholesterol",mg,--,--,20,23
Amino Acids
Other
Ingredients
"SKIM MILK, DARK CHERRIES (CHERRIES, WATER, CORN SYRUP, SUGAR, CITRIC ACID, SODIUM BENZOATE AND POTASSIUM SORBATE, NATURAL FLAVORS, BEET JUICE EXTRACT (COLOR), SULFITES), SUGAR, CREAM, WHEY PROTEIN CONCENTRATE, CULTURED DAIRY SOLIDS (WHEY PROTEIN CONCENTRATE, WHEY, SKIM MILK, NATURAL FLAVOR, MILK PROTEIN CONCENTRATE, SODIUM CITRATE, NATURAL FLAVORS, DEXTROSE), CORN SYRUP, CONTAINS 2% OR LESS OF MONO- AND DIGLYCERIDES, CAROB BEAN GUM, PECTIN, CARRAGEENAN, YOGURT CULTURE (L. ACIDOPHILUS, L. BULGARICUS, L. CASEI, S. THERMOPHILUS)." Date available: 07/14/2017 Date last updated by company: 07/14/2017
