Source: USDA Branded Food Products Database Release December 2017 Software v.3.8.6.4 2017-10-02
Report Run at: December 18, 2017 13:24 EST
"Nutrient data for: 45223196, TASTYKAKE, MINI DONUTS, PUMPKIN SPICE, UPC: 025600091548"
Food Group:  Branded Food Products Database
Common Name:

Nutrient,Unit,Data points,Std. Error,"1 PACKAGE = 85.0g",1Value per 100 g,
Proximates
"Energy",kcal,--,--,350,412
"Protein",g,--,--,4.00,4.71
"Total lipid (fat)",g,--,--,16.00,18.82
"Carbohydrate, by difference",g,--,--,47.00,55.29
"Fiber, total dietary",g,--,--,2.0,2.4
"Sugars, total",g,--,--,21.00,24.71
Minerals
"Calcium, Ca",mg,--,--,40,47
"Iron, Fe",mg,--,--,1.16,1.37
"Sodium, Na",mg,--,--,390,459
Vitamins
"Vitamin C, total ascorbic acid",mg,--,--,0.0,0.0
"Vitamin A, IU",IU,--,--,0,0
Lipids
"Fatty acids, total saturated",g,--,--,7.998,9.410
"Fatty acids, total monounsaturated",g,--,--,4.998,5.880
"Fatty acids, total polyunsaturated",g,--,--,1.998,2.350
"Fatty acids, total trans",g,--,--,0.000,0.000
"Cholesterol",mg,--,--,15,18
Amino Acids
Other
Ingredients
"UNBLEACHED AND BLEACHED ENRICHED FLOUR (WHEAT FLOUR, NIACIN, REDUCED IRON, THIAMIN MONONITRATE, RIBOFLAVIN, FOLIC ACID), WATER, VIGETABLE OILS (PALM OIL AND SOYBEAN OIL), CINNAMON SUGAR COATING (DEXTROSE, CORNSTARCH, PARTIALLY HYDROGENATED VEGETABLE OIL [SOYBEAN AND/OR COTTONSEED OIL], CINNAMON, ARTIFICIAL FLAVOR, TITANIUM DIOXIDE [COLOR], WHEAT STARCH, HYDROGENATED COTTONSEED OIL, POTASSIUM SORBATE, CALCIUM PROPIONATE [PRESERVATIVE]), SUGAR, CONTAINS 2% OR LESS OF EACH OF THE FOLLOWING: SOY FLOUR, EGG YOLKS, LEAVENING (SODIUM BICARBONATE, SODIUM ACID PYROPHOSPHATE, SODIUM ALUMINUM PHOSPHATE), NONFAT MILK SOLIDS, SOYBEAN OIL, GLYCERINE, CORN SYRUP SOLIDS, SALT, NATURAL AND ARTIFICIAL FLAVORS, BLEACHED WHEAT FLOUR, WHEAT STARCH, CINNAMON, SPICES, DEXTROSE, SOY LECITHIN, CARAMEL COLOR, DISTILLED MONOGLYCERIDES, MOLASSES, GUAR GUM, SODIUM STEAROYL LACTYLATE, ENZYMES, XANTHAN GUM, PROPYLENE GLYCOL MONOESTER, TAPIOCA DEXTRIN, CORN DEXTRIN, FD&C YELLOW # 6, KARAYA GUM, COLORED WITH TURMERIC AND ANNATTO, PRESERVED WITH SODIUM PROPIONATE POTASSIUM SORBATE AND SORBIC ACID." Date available: 07/14/2017 Date last updated by company: 07/14/2017
