Source: USDA Branded Food Products Database Release December 2017 Software v.3.8.6.4 2017-10-02
Report Run at: December 18, 2017 13:28 EST
"Nutrient data for: 45092919, TAYLOR FARMS, HOMESTYLE MASHED POTATOES, UPC: 030223008927"
Food Group:  Branded Food Products Database
Common Name:

Nutrient,Unit,Data points,Std. Error,"0.5 cup = 140.0g",1Value per 100 g,
Proximates
"Energy",kcal,--,--,140,100
"Protein",g,--,--,3.00,2.14
"Total lipid (fat)",g,--,--,6.01,4.29
"Carbohydrate, by difference",g,--,--,20.01,14.29
"Fiber, total dietary",g,--,--,2.0,1.4
"Sugars, total",g,--,--,2.00,1.43
Minerals
"Calcium, Ca",mg,--,--,20,14
"Iron, Fe",mg,--,--,0.71,0.51
"Sodium, Na",mg,--,--,500,357
Vitamins
"Vitamin C, total ascorbic acid",mg,--,--,12.0,8.6
"Vitamin A, IU",IU,--,--,200,143
Lipids
"Fatty acids, total saturated",g,--,--,4.004,2.860
"Fatty acids, total trans",g,--,--,0.000,0.000
"Cholesterol",mg,--,--,15,11
Amino Acids
Other
Ingredients
"COOKED RUSSET POTATOES (RUSSET POTATOES, WATER), WHOLE MILK (MILK, VITAMIN D3), UNSALTED BUTTER (CREAM [MILK], NATURAL FLAVORINGS), SALT, BLACK PEPPER." Date available: 06/25/2017 Date last updated by company: 06/25/2017
