Source: USDA Branded Food Products Database Release December 2017 Software v.3.8.6.4 2017-10-02
Report Run at: December 18, 2017 13:27 EST
"Nutrient data for: 45100845, TAYLOR FARMS, BBQ STYLE SALAD WITH CHICKEN, UPC: 030223010173"
Food Group:  Branded Food Products Database
Common Name:

Nutrient,Unit,Data points,Std. Error,"1 SALAD = 170.0g",1Value per 100 g,
Proximates
"Energy",kcal,--,--,270,159
"Protein",g,--,--,10.00,5.88
"Total lipid (fat)",g,--,--,14.99,8.82
"Carbohydrate, by difference",g,--,--,25.01,14.71
"Fiber, total dietary",g,--,--,4.1,2.4
"Sugars, total",g,--,--,7.00,4.12
Minerals
"Calcium, Ca",mg,--,--,150,88
"Iron, Fe",mg,--,--,2.23,1.31
"Sodium, Na",mg,--,--,490,288
Vitamins
"Vitamin C, total ascorbic acid",mg,--,--,7.5,4.4
"Vitamin A, IU",IU,--,--,4940,2906
Lipids
"Fatty acids, total saturated",g,--,--,3.502,2.060
"Fatty acids, total trans",g,--,--,0.000,0.000
"Cholesterol",mg,--,--,31,18
Amino Acids
Other
Ingredients
"ROMAINE LETTUCE, BBQ RANCH DRESSING (WATER, CANOLA OIL, LOW FAT BUTTERMILK [SKIM MILK, WHEY, WATER, SKIM MILK SOLIDS, WHEY SOLIDS, CORN STARCH, TAPIOCA STARCH, DISODIUM PHOSPHATE, CARRAGEENEN GUM, LOCUST BEAN GUM, CULTURE], SUGAR, TOMATO PASTE, DISTILLED VINEGAR, MOLASSES, EGG YOLK, SALT, CIDER VINEGAR, MODIFIED CORN STARCH, ONION, NATURAL SMOKE FLAVOR, MUSTARD FLOUR, GREEN ONION, SPICES, DRIED ONION, POTASSIUM SORBATE AND SODIUM BENZOATE [PRESERVATIVES], XANTHAN GUM, DRIED CHIPOTLE PEPPER, CARAMEL COLOR, GUAR GUM, DRIED GARLIC, CALCIUM DISODIUM EDTA [ADDED TO PROTECT QUALITY], DRIED RED PEPPER, PAPRIKA), WHITE CHICKEN MEAT (CHICKEN BREAST MEAT WITH RIB MEAT, WATER, CULTURED SUGAR AND VINEGAR, POTATO STARCH, SEA SALT, NATURAL FLAVORINGS), CHEDDAR CHEESE (CHEDDAR CHEESE [PASTEURIZED MILK, CHEESE CULTURE, SALT, ENZYMES, ANNATTO {VEGETABLE COLOR}], POTATO STARCH AND POWDERED CELLULOSE [TO PREVENT CAKING], NATAMYCIN [A NATURAL MOLD INHIBITOR]), TORTILLA STRIPS (STONE GROUND YELLOW CORN, STONE GROUND BLUE CORN, SUNFLOWER OIL OR COM OIL, SEA SALT, WATER, TRACE OF LIME), ROASTED CORN, COOKED BLACK BEANS, RED CABBAGE, CARROT." Date available: 07/14/2017 Date last updated by company: 07/14/2017
