Source: USDA Branded Food Products Database Release December 2017 Software v.3.8.6.4 2017-10-02
Report Run at: December 18, 2017 13:31 EST
"Nutrient data for: 45149525, TAZAH, BLUEBERRY JUICE, UPC: 738960311415"
Food Group:  Branded Food Products Database
Common Name:

Nutrient,Unit,Data points,Std. Error,"8.0 OZA = 240.0g",1Value per 100 g,
Proximates
"Energy",kcal,--,--,130,54
"Protein",g,--,--,1.01,0.42
"Total lipid (fat)",g,--,--,0.00,0.00
"Carbohydrate, by difference",g,--,--,33.00,13.75
"Fiber, total dietary",g,--,--,0.0,0.0
"Sugars, total",g,--,--,28.01,11.67
Minerals
"Calcium, Ca",mg,--,--,19,8
"Iron, Fe",mg,--,--,0.72,0.30
"Potassium, K",mg,--,--,401,167
"Sodium, Na",mg,--,--,10,4
Vitamins
"Vitamin C, total ascorbic acid",mg,--,--,1.2,0.5
"Vitamin A, IU",IU,--,--,0,0
Lipids
"Fatty acids, total saturated",g,--,--,0.000,0.000
"Fatty acids, total trans",g,--,--,0.000,0.000
"Cholesterol",mg,--,--,0,0
Amino Acids
Other
Ingredients
"100% NATURAL JUICE FRESHLY PRESSED FROM SELECTED BLUEBERRY; PASTEURISED." Date available: 07/14/2017 Date last updated by company: 07/14/2017
