Source: USDA Branded Food Products Database Release December 2017 Software v.3.8.6.4 2017-10-02
Report Run at: December 18, 2017 13:38 EST
"Nutrient data for: 45151275, TEA WITH LEMONADE, UPC: 035036011270"
Food Group:  Branded Food Products Database
Common Name:

Nutrient,Unit,Data points,Std. Error,"8.0 OZA = 240.0g",1Value per 100 g,
Proximates
"Energy",kcal,--,--,101,42
"Total lipid (fat)",g,--,--,0.00,0.00
"Carbohydrate, by difference",g,--,--,25.99,10.83
"Fiber, total dietary",g,--,--,0.0,0.0
"Sugars, total",g,--,--,24.00,10.00
Minerals
"Iron, Fe",mg,--,--,0.55,0.23
"Potassium, K",mg,--,--,0,0
"Sodium, Na",mg,--,--,5,2
Vitamins
"Vitamin C, total ascorbic acid",mg,--,--,5.3,2.2
Lipids
"Fatty acids, total saturated",g,--,--,0.000,0.000
"Fatty acids, total monounsaturated",g,--,--,0.000,0.000
"Fatty acids, total polyunsaturated",g,--,--,0.000,0.000
"Fatty acids, total trans",g,--,--,0.000,0.000
Amino Acids
Other
Ingredients
"FILTERED WATER, SUGAR, BREWED TEA, LEMON JUICE CONCENTRATE, LEMON AND ORANGE PULP, NATURAL LEMON FLAVORS, CARAMEL COLOR, CITRIC ACID, POTASSIUM SORBATE (FOR FRESHNESS)." Date available: 10/13/2017 Date last updated by company: 10/13/2017
