Source: USDA Branded Food Products Database Release December 2017 Software v.3.8.6.4 2017-10-02
Report Run at: December 18, 2017 13:34 EST
"Nutrient data for: 45153848, TEA BISCUIT, UPC: 794711002544"
Food Group:  Branded Food Products Database
Common Name:

Nutrient,Unit,Data points,Std. Error,"6.0 PIECES = 32.0g",1Value per 100 g,
Proximates
"Energy",kcal,--,--,152,475
"Protein",g,--,--,1.00,3.12
"Total lipid (fat)",g,--,--,6.00,18.75
"Carbohydrate, by difference",g,--,--,23.00,71.88
"Fiber, total dietary",g,--,--,0.0,0.0
"Sugars, total",g,--,--,13.00,40.62
Minerals
"Calcium, Ca",mg,--,--,31,98
"Sodium, Na",mg,--,--,21,66
Vitamins
"Vitamin C, total ascorbic acid",mg,--,--,1.2,3.8
"Vitamin A, IU",IU,--,--,156,488
Lipids
"Fatty acids, total saturated",g,--,--,3.002,9.380
"Fatty acids, total trans",g,--,--,0.000,0.000
"Cholesterol",mg,--,--,0,0
Amino Acids
Other
Ingredients
"WHEAT FLOUR, SUGAR, HYDROGENATED VEGETABLE OIL, CACAO POWDER, SOY LECITHIN, SALT, BAKING POWDER (AMMONIUM BICARBONATE, SODIUM BICARBONATE)." Date available: 07/14/2017 Date last updated by company: 07/14/2017
