Source: USDA Branded Food Products Database Release December 2017 Software v.3.8.6.4 2017-10-02
Report Run at: December 18, 2017 13:37 EST
"Nutrient data for: 45166612, TEAS' TEA, PEACH GINGER BLACK TEA, UPC: 835143011800"
Food Group:  Branded Food Products Database
Common Name:

Nutrient,Unit,Data points,Std. Error,"1 BOTTLE = 500.0g",1Value per 100 g,
Proximates
"Energy",kcal,--,--,80,16
"Protein",g,--,--,0.00,0.00
"Total lipid (fat)",g,--,--,0.00,0.00
"Carbohydrate, by difference",g,--,--,20.00,4.00
"Sugars, total",g,--,--,20.00,4.00
Minerals
"Sodium, Na",mg,--,--,10,2
Vitamins
"Vitamin C, total ascorbic acid",mg,--,--,86.5,17.3
Lipids
Amino Acids
Other
Ingredients
"PURIFIED WATER, ORGANIC CANE SUGAR, ORGANIC BLACK TEA, ORGANIC GINGER ROOT, NATURAL FLAVOR, ASCORBIC ACID (VITAMIN C)." Date available: 08/27/2017 Date last updated by company: 08/27/2017
