Source: USDA Branded Food Products Database Release December 2017 Software v.3.8.6.4 2017-10-02
Report Run at: December 18, 2017 13:36 EST
"Nutrient data for: 45012308, TEASDALE, MEXICAN STYLE HOMINY, UPC: 071240012382"
Food Group:  Branded Food Products Database
Common Name:

Nutrient,Unit,Data points,Std. Error,"0.5 cup = 124.0g",1Value per 100 g,
Proximates
"Energy",kcal,--,--,60,48
"Protein",g,--,--,2.00,1.61
"Total lipid (fat)",g,--,--,0.00,0.00
"Carbohydrate, by difference",g,--,--,9.99,8.06
"Fiber, total dietary",g,--,--,6.0,4.8
"Sugars, total",g,--,--,4.01,3.23
Minerals
"Iron, Fe",mg,--,--,0.76,0.61
"Sodium, Na",mg,--,--,160,129
Vitamins
"Vitamin C, total ascorbic acid",mg,--,--,1.2,1.0
Lipids
"Fatty acids, total saturated",g,--,--,0.000,0.000
"Fatty acids, total trans",g,--,--,0.000,0.000
"Cholesterol",mg,--,--,0,0
Amino Acids
Other
Ingredients
"WHITE HOMINY PREPARED WITH WATER, SALT, CITRIC ACID AND HYDRATED LIME TO ENHANCE FLAVOR." Date available: 06/25/2017 Date last updated by company: 06/25/2017
