Source: USDA Branded Food Products Database Release December 2017 Software v.3.8.6.4 2017-10-02
Report Run at: December 18, 2017 13:43 EST
"Nutrient data for: 45224458, TEMPT, HEMP, DAIRY-FREE YOGURT, GREEK STYLE STRAWBERRY, UPC: 875386000650"
Food Group:  Branded Food Products Database
Common Name:

Nutrient,Unit,Data points,Std. Error,"1 CONTAINER = 150.0g",1Value per 100 g,
Proximates
"Energy",kcal,--,--,130,87
"Protein",g,--,--,8.00,5.33
"Total lipid (fat)",g,--,--,4.00,2.67
"Carbohydrate, by difference",g,--,--,15.00,10.00
"Fiber, total dietary",g,--,--,3.0,2.0
"Sugars, total",g,--,--,9.00,6.00
Minerals
"Calcium, Ca",mg,--,--,20,13
"Iron, Fe",mg,--,--,3.06,2.04
"Sodium, Na",mg,--,--,26,17
Vitamins
"Vitamin C, total ascorbic acid",mg,--,--,0.0,0.0
"Vitamin A, IU",IU,--,--,0,0
Lipids
"Fatty acids, total saturated",g,--,--,0.495,0.330
"Fatty acids, total monounsaturated",g,--,--,1.005,0.670
"Fatty acids, total polyunsaturated",g,--,--,3.000,2.000
"Fatty acids, total trans",g,--,--,0.000,0.000
"Cholesterol",mg,--,--,0,0
Amino Acids
Other
Ingredients
"HEMP YOGURT (FILTERED WATER, SHELLED HEMP SEED, CANE SUGAR, INULIN, TAPIOCA STARCH, VANILLA EXTRACT, SUNFLOWER LECITHIN, NATURAL GUM BLEND, ALGIN, ACTIVE CULTURES), STRAWBERRIES, PECTIN, JUICE CONCENTRATES (BLACK CURRANT, APPLE, LEMON, RADISH), NATURAL STRAWBERRY FLAVOR." Date available: 07/14/2017 Date last updated by company: 07/14/2017
