Source: USDA Branded Food Products Database Release December 2017 Software v.3.8.6.4 2017-10-02
Report Run at: December 18, 2017 13:42 EST
"Nutrient data for: 45243769, TEMPLE, FERMENTED SALTED BLACK BEANS, UPC: 4800217051019"
Food Group:  Branded Food Products Database
Common Name:

Nutrient,Unit,Data points,Std. Error,"2.0 Tbsp = 30.0g",1Value per 100 g,
Proximates
"Energy",kcal,--,--,29,97
"Protein",g,--,--,3.00,10.00
"Total lipid (fat)",g,--,--,1.00,3.33
"Carbohydrate, by difference",g,--,--,1.00,3.33
"Fiber, total dietary",g,--,--,2.0,6.7
Minerals
"Calcium, Ca",mg,--,--,70,233
"Iron, Fe",mg,--,--,9.36,31.20
"Sodium, Na",mg,--,--,2043,6810
Vitamins
Lipids
Amino Acids
Other
Ingredients
"BLACK SOYA BEANS, SALT, WATER AND SUGAR." Date available: 06/25/2017 Date last updated by company: 06/25/2017
