Source: USDA Branded Food Products Database Release December 2017 Software v.3.8.6.4 2017-10-02
Report Run at: December 18, 2017 13:46 EST
"Nutrient data for: 45087723, TENDER GARDEN PEAS, UPC: 034700049663"
Food Group:  Branded Food Products Database
Common Name:

Nutrient,Unit,Data points,Std. Error,"0.5 cup = 129.0g",1Value per 100 g,
Proximates
"Energy",kcal,--,--,80,62
"Protein",g,--,--,4.00,3.10
"Total lipid (fat)",g,--,--,1.01,0.78
"Carbohydrate, by difference",g,--,--,14.00,10.85
"Fiber, total dietary",g,--,--,4.0,3.1
"Sugars, total",g,--,--,6.00,4.65
Minerals
"Calcium, Ca",mg,--,--,21,16
"Iron, Fe",mg,--,--,1.08,0.84
"Potassium, K",mg,--,--,160,124
"Sodium, Na",mg,--,--,10,8
Vitamins
"Vitamin C, total ascorbic acid",mg,--,--,9.0,7.0
"Vitamin A, IU",IU,--,--,1007,781
Lipids
"Fatty acids, total saturated",g,--,--,0.000,0.000
"Fatty acids, total monounsaturated",g,--,--,0.000,0.000
"Fatty acids, total polyunsaturated",g,--,--,0.000,0.000
"Fatty acids, total trans",g,--,--,0.000,0.000
"Cholesterol",mg,--,--,0,0
Amino Acids
Other
Ingredients
"SWEET PEAS, WATER, AND SUGAR." Date available: 07/14/2017 Date last updated by company: 07/14/2017
