Source: USDA Branded Food Products Database Release December 2017 Software v.3.8.6.4 2017-10-02
Report Run at: December 18, 2017 13:44 EST
"Nutrient data for: 45278849, TENDER BITES TERIYAKI BEEF STICKS, UPC: 017082460714"
Food Group:  Branded Food Products Database
Common Name:

Nutrient,Unit,Data points,Std. Error,"1 PACKAGE = 35.0g",1Value per 100 g,
Proximates
"Energy",kcal,--,--,90,257
"Protein",g,--,--,13.00,37.14
"Total lipid (fat)",g,--,--,1.50,4.29
"Carbohydrate, by difference",g,--,--,6.00,17.14
"Fiber, total dietary",g,--,--,0.0,0.0
"Sugars, total",g,--,--,6.00,17.14
Minerals
"Calcium, Ca",mg,--,--,0,0
"Iron, Fe",mg,--,--,2.06,5.88
"Sodium, Na",mg,--,--,600,1714
Vitamins
"Vitamin C, total ascorbic acid",mg,--,--,0.0,0.0
"Vitamin A, IU",IU,--,--,0,0
Lipids
"Fatty acids, total saturated",g,--,--,0.500,1.430
"Fatty acids, total trans",g,--,--,0.000,0.000
"Cholesterol",mg,--,--,25,71
Amino Acids
Other
Ingredients
"BEEF, WATER, SUGAR, LESS THAN 2% SALT, DRIED SOY SAUCE (SOYBEANS, SALT, WHEAT), MALTODEXTRIN, FRUCTOSE, FLAVORINGS, MONOSODIUM GLUTAMATE, HYDROLYZED CORN PROTEIN, SODIUM ERYTHORBATE, PAPRIKA EXTRACT, SODIUM NITRITE." Date available: 07/14/2017 Date last updated by company: 07/14/2017
