Source: USDA Branded Food Products Database Release December 2017 Software v.3.8.6.4 2017-10-02
Report Run at: December 18, 2017 13:47 EST
"Nutrient data for: 45197992, TENNESSEE STYLE BBQ SAUCE, UPC: 074964065351"
Food Group:  Branded Food Products Database
Common Name:

Nutrient,Unit,Data points,Std. Error,"2.0 Tbsp = 33.0g",1Value per 100 g,
Proximates
"Energy",kcal,--,--,40,121
"Protein",g,--,--,0.00,0.00
"Total lipid (fat)",g,--,--,0.00,0.00
"Carbohydrate, by difference",g,--,--,9.00,27.27
"Fiber, total dietary",g,--,--,1.0,3.0
"Sugars, total",g,--,--,8.00,24.24
Minerals
"Calcium, Ca",mg,--,--,0,0
"Iron, Fe",mg,--,--,0.61,1.84
"Sodium, Na",mg,--,--,350,1061
Vitamins
"Vitamin C, total ascorbic acid",mg,--,--,4.1,12.3
"Vitamin A, IU",IU,--,--,676,2050
Lipids
"Fatty acids, total saturated",g,--,--,0.000,0.000
"Fatty acids, total trans",g,--,--,0.000,0.000
"Cholesterol",mg,--,--,0,0
Amino Acids
Other
Ingredients
"WATER, SUGAR, TOMATO PASTE, DISTILLED VINEGAR, SALT, PAPRIKA, MODIFIED FOOD STARCH, NATURAL SMOKE FLAVOR, CHILI POWDER (CHILI PEPPER, SPICES, SALT, GARLIC POWDER), SPICES, DRIED ONION, ROCHESTER SAUCE (DISTILLED VINEGAR, CORN SYRUP, WATER, GARLIC POWDER, SPICES, TAMARIND, NATURAL FLAVOR), DRIED GARLIC, CITRIC ACID." Date available: 07/14/2017 Date last updated by company: 07/14/2017
