Source: USDA Branded Food Products Database Release December 2017 Software v.3.8.6.4 2017-10-02
Report Run at: December 18, 2017 13:51 EST
"Nutrient data for: 45290874, TERIYAKI CHICKEN STIR FRY, UPC: 717854160032"
Food Group:  Branded Food Products Database
Common Name:

Nutrient,Unit,Data points,Std. Error,"1 PACKAGE = 255.0g",1Value per 100 g,
Proximates
"Energy",kcal,--,--,311,122
"Protein",g,--,--,10.99,4.31
"Total lipid (fat)",g,--,--,7.01,2.75
"Carbohydrate, by difference",g,--,--,51.00,20.00
"Fiber, total dietary",g,--,--,2.0,0.8
"Sugars, total",g,--,--,14.00,5.49
Minerals
"Calcium, Ca",mg,--,--,61,24
"Iron, Fe",mg,--,--,1.10,0.43
"Sodium, Na",mg,--,--,839,329
Vitamins
"Vitamin C, total ascorbic acid",mg,--,--,27.5,10.8
"Vitamin A, IU",IU,--,--,574,225
Lipids
"Fatty acids, total saturated",g,--,--,0.995,0.390
"Fatty acids, total trans",g,--,--,0.000,0.000
"Cholesterol",mg,--,--,15,6
Amino Acids
Other
Ingredients
"COOKED BROWN RICE, WATER, COOKED SEASONED NATURAL* CHICKEN BREAST STRIPS WITH RIB MEAT (CHICKEN BREAST WITH RIB MEAT, WATER, SUGAR, RICE STARCH, SALT, LEMON JUICE CONCENTRATE, VINEGAR, SPICES, NATURAL FLAVORS), SUGAR SNAP PEAS, RED BELL PEPPERS, SOY SAUCE (WATER, WHEAT, SOYBEANS, SALT, ALCOHOL, VINEGAR, LACTIC ACID), WATER CHESTNUTS, BROWN SUGAR, LESS THAN 2% OF MODIFIED FOOD STARCH, TOASTED SESAME OIL, CANOLA OIL, GINGER PUREE (GINGER, WATER), GARLIC, ORANGE JUICE CONCENTRATE, TOASTED SESAME SEEDS, RICE WINE VINEGAR (WATER, RICE), XANTHAN GUM, SPICE." Date available: 07/14/2017 Date last updated by company: 07/14/2017
