Source: USDA Branded Food Products Database Release December 2017 Software v.3.8.6.4 2017-10-02
Report Run at: December 18, 2017 13:51 EST
"Nutrient data for: 45189963, TERIYAKI BEEF STEAK TENDER BITES, UPC: 017082879271"
Food Group:  Branded Food Products Database
Common Name:

Nutrient,Unit,Data points,Std. Error,"1 ONZ = 28.0g",1Value per 100 g,
Proximates
"Energy",kcal,--,--,70,250
"Protein",g,--,--,10.00,35.71
"Total lipid (fat)",g,--,--,1.00,3.57
"Carbohydrate, by difference",g,--,--,5.00,17.86
"Fiber, total dietary",g,--,--,0.0,0.0
"Sugars, total",g,--,--,5.00,17.86
Minerals
"Calcium, Ca",mg,--,--,0,0
"Iron, Fe",mg,--,--,1.93,6.88
"Sodium, Na",mg,--,--,480,1714
Vitamins
"Vitamin C, total ascorbic acid",mg,--,--,0.0,0.0
"Vitamin A, IU",IU,--,--,0,0
Lipids
"Fatty acids, total saturated",g,--,--,0.501,1.790
"Fatty acids, total trans",g,--,--,0.000,0.000
"Cholesterol",mg,--,--,20,71
Amino Acids
Other
Ingredients
"BEEF, WATER, SUGAR, LESS THAN 2% SALT, DRIED SOY SAUCE (SOYBEANS, SALT, WHEAT), MALTODEXTRIN, FRUCTOSE, FLAVORINGS, MONOSODIUM GLUTAMATE, HYDROLYZED CORN PROTEIN, SODIUM ERYTHORBATE, PAPRIKA EXTRACT, SODIUM NITRITE." Date available: 07/14/2017 Date last updated by company: 07/14/2017
