Source: USDA Branded Food Products Database Release December 2017 Software v.3.8.6.4 2017-10-02
Report Run at: December 18, 2017 13:55 EST
"Nutrient data for: 45194239, TERIYAKI VEGGIE BURGER, UPC: 016741833227"
Food Group:  Branded Food Products Database
Common Name:

Nutrient,Unit,Data points,Std. Error,"3.0 ONZ = 85.0g",1Value per 100 g,
Proximates
"Energy",kcal,--,--,170,200
"Protein",g,--,--,14.00,16.47
"Total lipid (fat)",g,--,--,3.50,4.12
"Carbohydrate, by difference",g,--,--,22.00,25.88
"Fiber, total dietary",g,--,--,3.0,3.5
"Sugars, total",g,--,--,4.00,4.71
Minerals
"Calcium, Ca",mg,--,--,40,47
"Iron, Fe",mg,--,--,1.16,1.37
"Sodium, Na",mg,--,--,290,341
Vitamins
"Vitamin C, total ascorbic acid",mg,--,--,0.8,0.9
"Vitamin A, IU",IU,--,--,194,228
Lipids
"Fatty acids, total saturated",g,--,--,0.000,0.000
"Fatty acids, total trans",g,--,--,0.000,0.000
"Cholesterol",mg,--,--,0,0
Amino Acids
Other
Ingredients
"WHEAT GLUTEN FLOUR, TOFU* (SOYBEANS, WATER, SEA SALT, VINEGAR*, CALCIUM CHLORIDE), NATURAL SOY SAUCE (WATER, NON-GMO SOYBEANS, WHEAT, SALT), BROWN RICE*, BULGUR*, RED QUINOA*, BARLEY*, TEXTURED SOY PROTEIN, SOY FIBER*, POTATO STARCH, GREEN ONIONS, EVAPORATED CANE JUICE*, TAPIOCA FLOUR, CANOLA OIL, CARROT, ONION, CELERY, GINGER, GARLIC, SESAME OIL, RICE VINEGAR, SEA SALT, SPICES, KOMBU." Date available: 07/14/2017 Date last updated by company: 07/14/2017
