Source: USDA Branded Food Products Database Release December 2017 Software v.3.8.6.4 2017-10-02
Report Run at: December 18, 2017 13:51 EST
"Nutrient data for: 45330912, TERIYAKI CHICKEN, UPC: 078742249476"
Food Group:  Branded Food Products Database
Common Name:

Nutrient,Unit,Data points,Std. Error,"1 TRAY = 368.0g",1Value per 100 g,
Proximates
"Energy",kcal,--,--,420,114
"Protein",g,--,--,26.02,7.07
"Total lipid (fat)",g,--,--,5.00,1.36
"Carbohydrate, by difference",g,--,--,67.01,18.21
"Fiber, total dietary",g,--,--,7.0,1.9
"Sugars, total",g,--,--,21.01,5.71
Minerals
"Calcium, Ca",mg,--,--,96,26
"Iron, Fe",mg,--,--,3.02,0.82
"Potassium, K",mg,--,--,699,190
"Sodium, Na",mg,--,--,979,266
Vitamins
Lipids
"Fatty acids, total saturated",g,--,--,0.994,0.270
"Fatty acids, total trans",g,--,--,0.000,0.000
"Cholesterol",mg,--,--,52,14
Amino Acids
Other
Ingredients
"COOKED BROWN RICE, GRILLED SEASONED CHICKEN WHITE MEAT (CHICKEN WHITE MEAT, WATER, LESS THAN 2% LEMON JUICE CONCENTRATE, SALT, VINEGAR), WATER, CARROT, BROCCOLI, SOY SAUCE (WATER, WHEAT, SOYBEANS, SALT, ALCOHOL, VINEGAR, LACTIC ACID), EDAMAME (SOYBEANS), BROWN SUGAR, RED BELL PEPPER, HONEY, RICE STARCH, SPICE, GARLIC (GARLIC, WATER)." Date available: 10/13/2017 Date last updated by company: 10/13/2017
