Source: USDA Branded Food Products Database Release December 2017 Software v.3.8.6.4 2017-10-02
Report Run at: December 18, 2017 13:49 EST
"Nutrient data for: 45277169, TERIYAKI ASIAN SAUCE, UPC: 03003407325"
Food Group:  Branded Food Products Database
Common Name:

Nutrient,Unit,Data points,Std. Error,"2.0 Tbsp = 30.0g",1Value per 100 g,
Proximates
"Energy",kcal,--,--,50,167
"Protein",g,--,--,1.00,3.33
"Total lipid (fat)",g,--,--,0.00,0.00
"Carbohydrate, by difference",g,--,--,11.00,36.67
"Fiber, total dietary",g,--,--,1.0,3.3
"Sugars, total",g,--,--,10.00,33.33
Minerals
"Iron, Fe",mg,--,--,0.61,2.03
"Sodium, Na",mg,--,--,380,1267
Vitamins
Lipids
Amino Acids
Other
Ingredients
"WATER, SUGAR, SOY SAUCE (WATER, SOYBEANS, WHEAT, SALT), GARLIC PUREE (GARLIC, WATER), PINEAPPLE IN PINEAPPLE JUICE, PINEAPPLE JUICE CONCENTRATE, GINGER PUREE (GINGER, WATER), RICE VINEGAR, CORNSTARCH, TAMARI POWDER (TAMARI SOY SAUCE [SOYBEANS, SALT, WHEAT], MALTODEXTRIN, SALT), SESAME SEEDS, SESAME OIL, GARLIC, ONIONS, ONION POWDER, GINGER POWDER, XANTHAN GUM." Date available: 07/14/2017 Date last updated by company: 07/14/2017
