Source: USDA Branded Food Products Database Release December 2017 Software v.3.8.6.4 2017-10-02
Report Run at: December 18, 2017 13:56 EST
"Nutrient data for: 45147269, TERRAFINA, ORIENTAL PARTY MIX, UPC: 847938025138"
Food Group:  Branded Food Products Database
Common Name:

Nutrient,Unit,Data points,Std. Error,"0.333 cup = 30.0g",1Value per 100 g,
Proximates
"Energy",kcal,--,--,160,533
"Protein",g,--,--,5.00,16.67
"Total lipid (fat)",g,--,--,8.00,26.67
"Carbohydrate, by difference",g,--,--,15.00,50.00
"Fiber, total dietary",g,--,--,2.0,6.7
"Sugars, total",g,--,--,2.00,6.67
Minerals
"Calcium, Ca",mg,--,--,40,133
"Iron, Fe",mg,--,--,1.80,6.00
"Sodium, Na",mg,--,--,5,17
Vitamins
"Vitamin C, total ascorbic acid",mg,--,--,20.0,66.7
"Vitamin A, IU",IU,--,--,833,2778
Lipids
"Fatty acids, total saturated",g,--,--,0.999,3.330
"Fatty acids, total trans",g,--,--,0.000,0.000
"Cholesterol",mg,--,--,0,0
Amino Acids
Other
Ingredients
"RICE CRACKERS (GLUTINOUS RICE, SOY SAUCE (WHEAT, SOYBEAN, WATER, AND SALT), SUGAR, STARCH, SESAME SEED, SEAWEED, CHILL, FD&C YELLOW # 5 & #6), WALNUTS, ALMONDS, FILBERTS, GREEN PEAS (SALT , VEGETABLE OIL,SALT, POTATO FLOUR, POWDERS." Date available: 07/14/2017 Date last updated by company: 07/14/2017
