Source: USDA Branded Food Products Database Release December 2017 Software v.3.8.6.4 2017-10-02
Report Run at: December 18, 2017 13:59 EST
"Nutrient data for: 45169707, TESSEMAE'S, DRESSING & MARINADE, LEMON CHESAPEAKE, UPC: 855482006145"
Food Group:  Branded Food Products Database
Common Name:

Nutrient,Unit,Data points,Std. Error,"1 Tbsp = 14.28g",1Value per 100 g,
Proximates
"Energy",kcal,--,--,90,630
"Protein",g,--,--,0.00,0.00
"Total lipid (fat)",g,--,--,10.00,70.03
"Carbohydrate, by difference",g,--,--,0.00,0.00
"Sugars, total",g,--,--,0.00,0.00
Minerals
"Sodium, Na",mg,--,--,230,1611
Vitamins
Lipids
"Fatty acids, total saturated",g,--,--,1.499,10.500
Amino Acids
Other
Ingredients
"ORGANIC EXTRA VIRGIN OLIVE OIL, ORGANIC SUNFLOWER OIL, ORGANIC LEMON JUICE, ORGANIC SEAFOOD SEASONING (ORGANIC SALT, ORGANIC SPICES, ORGANIC PAPRIKA), ORGANIC BLACK PEPPER, ORGANIC GARLIC, ORGANIC MUSTARD (ORGANIC VINEGAR, WATER, ORGANIC MUSTARD SEED, SEA SALT, ORGANIC TURMERIC, ORGANIC SPICES), SEA SALT." Date available: 07/14/2017 Date last updated by company: 07/14/2017
