Source: USDA Branded Food Products Database Release December 2017 Software v.3.8.6.4 2017-10-02
Report Run at: December 18, 2017 14:05 EST
"Nutrient data for: 45225689, TEXAS TOAST, UPC: 071052000546"
Food Group:  Branded Food Products Database
Common Name:

Nutrient,Unit,Data points,Std. Error,"1 SLICE = 50.0g",1Value per 100 g,
Proximates
"Energy",kcal,--,--,170,340
"Protein",g,--,--,4.00,8.00
"Total lipid (fat)",g,--,--,8.00,16.00
"Carbohydrate, by difference",g,--,--,20.00,40.00
"Fiber, total dietary",g,--,--,1.0,2.0
"Sugars, total",g,--,--,1.00,2.00
Minerals
"Calcium, Ca",mg,--,--,40,80
"Iron, Fe",mg,--,--,1.08,2.16
"Potassium, K",mg,--,--,45,90
"Sodium, Na",mg,--,--,470,940
Vitamins
"Vitamin C, total ascorbic acid",mg,--,--,0.0,0.0
"Vitamin A, IU",IU,--,--,0,0
Lipids
"Fatty acids, total saturated",g,--,--,3.000,6.000
"Fatty acids, total trans",g,--,--,0.000,0.000
"Cholesterol",mg,--,--,3,6
Amino Acids
Other
Ingredients
"DOUGH INGREDIENTS: ENRICHED FLOUR (WHEAT FLOUR, MALTED BARLEY FLOUR, NIACIN, REDUCED IRON, THIAMINE MONONITRATE, RIBOFLAVIN, FOLIC ACID), WATER, CONTAINS LESS THAN 2% OF EACH OF THE FOLLOWING: INTERESTERIFIED SOYBEAN OIL, DEXTROSE, SALT, WHEAT GLUTEN, YEAST, WHEAT FLOUR, CALCIUM SULFATE, DATEM, MONO- AND DIGLYCERIDES, DEODORIZED GARLIC POWDER, CALCIUM ACID PYROPHOSPHATE, AZODICARBONAMIDE, SORBITAN MONOSTEARATE, L-CYSTEINE, ENZYMES, CELLULOSE GUM, ASCORBIC ACID ADDED AS A DOUGH CONDITIONER. SPREAD INGREDIENTS: INTERESTERIFIED SOYBEAN OIL, WATER, MALTODEXTRIN, CONTAINS LESS THAN 2% OF EACH OF THE FOLLOWING: BUTTER (CREAM, SALT), SALT, BUTTERMILK, DEHYDRATED GARLIC, DEHYDRATED ONION, MONOSODIUM GLUTAMATE, LACTIC ACID, CALCIUM LACTATE, SPICES, CITRIC ACID, CALCIUM STEARATE, NATURAL AND ARTIFICIAL FLAVORS, XANTHAN GUM, SODIUM CARBOXYMETHYLCELLULOSE, GUAR GUM, SOYBEAN OIL, ANNATTO EXTRACT COLOR." Date available: 07/14/2017 Date last updated by company: 07/14/2017
