Source: USDA Branded Food Products Database Release December 2017 Software v.3.8.6.4 2017-10-02
Report Run at: December 18, 2017 14:02 EST
"Nutrient data for: 45217764, TEXAS RANCH BEANS, UPC: 050700559742"
Food Group:  Branded Food Products Database
Common Name:

Nutrient,Unit,Data points,Std. Error,"0.5 cup = 129.0g",1Value per 100 g,
Proximates
"Energy",kcal,--,--,120,93
"Protein",g,--,--,7.00,5.43
"Total lipid (fat)",g,--,--,1.01,0.78
"Carbohydrate, by difference",g,--,--,21.00,16.28
"Fiber, total dietary",g,--,--,7.0,5.4
"Sugars, total",g,--,--,2.00,1.55
Minerals
"Calcium, Ca",mg,--,--,61,47
"Iron, Fe",mg,--,--,1.82,1.41
"Potassium, K",mg,--,--,470,364
"Sodium, Na",mg,--,--,480,372
Vitamins
"Vitamin C, total ascorbic acid",mg,--,--,0.0,0.0
"Vitamin A, IU",IU,--,--,201,156
Lipids
"Fatty acids, total saturated",g,--,--,0.000,0.000
"Fatty acids, total trans",g,--,--,0.000,0.000
"Cholesterol",mg,--,--,0,0
Amino Acids
Other
Ingredients
"PREPARED PINTO BEANS, WATER, TOMATO PASTE, SPICE, SALT, FOOD STARCH-MODIFIED, VEGETABLE SHORTENING, RICE FLOUR." Date available: 07/14/2017 Date last updated by company: 07/14/2017
