Source: USDA Branded Food Products Database Release December 2017 Software v.3.8.6.4 2017-10-02
Report Run at: December 18, 2017 14:04 EST
"Nutrient data for: 45186384, TEXAS SWEETHEART HONEY, UPC: 798304311457"
Food Group:  Branded Food Products Database
Common Name:

Nutrient,Unit,Data points,Std. Error,"1 Tbsp = 21.0g",1Value per 100 g,
Proximates
"Energy",kcal,--,--,64,305
"Protein",g,--,--,1.78,8.50
"Total lipid (fat)",g,--,--,0.00,0.00
"Carbohydrate, by difference",g,--,--,17.00,80.95
"Sugars, total",g,--,--,16.00,76.19
Minerals
Vitamins
Lipids
Amino Acids
Other
Ingredients
"RAW, WILDFLOWER HONEY" Date available: 10/13/2017 Date last updated by company: 10/13/2017
