Source: USDA Branded Food Products Database Release December 2017 Software v.3.8.6.4 2017-10-02
Report Run at: December 18, 2017 14:04 EST
"Nutrient data for: 45079022, TEXAS STYLE RICE & BEANS, UPC: 041220329496"
Food Group:  Branded Food Products Database
Common Name:

Nutrient,Unit,Data points,Std. Error,"1 CUP PREPARED | MAKES ABOUT = 57.0g",1Value per 100 g,
Proximates
"Energy",kcal,--,--,200,351
"Protein",g,--,--,7.00,12.28
"Total lipid (fat)",g,--,--,1.00,1.75
"Carbohydrate, by difference",g,--,--,42.00,73.68
"Fiber, total dietary",g,--,--,6.0,10.5
"Sugars, total",g,--,--,2.00,3.51
Minerals
"Calcium, Ca",mg,--,--,40,70
"Iron, Fe",mg,--,--,0.57,1.00
"Potassium, K",mg,--,--,280,491
"Sodium, Na",mg,--,--,320,561
Vitamins
"Vitamin C, total ascorbic acid",mg,--,--,0.0,0.0
"Vitamin A, IU",IU,--,--,0,0
Lipids
"Fatty acids, total saturated",g,--,--,0.399,0.700
"Fatty acids, total trans",g,--,--,0.000,0.000
"Cholesterol",mg,--,--,0,0
Amino Acids
Other
Ingredients
"ENRICHED PARBOILED LONG GRAIN RICE (IRON [FERRIC ORTHOPHOSPHATE], NIACIN, THIAMINE [THIAMINE MONONITRATE, FOLIC ACID]), COOKED DEHYDRATED PINTO BEANS, SPICE BLEND (TOMATO POWDER, GARLIC, ONION, SEA SALT, VINEGAR POWDER AND MODIFIED CORN STARCH], PAPRIKA, SPICES, CHILE PEPPERS, SILICON DIOXIDE [FREE FLOW AGENT])." Date available: 06/24/2017 Date last updated by company: 06/24/2017
