Source: USDA Branded Food Products Database Release December 2017 Software v.3.8.6.4 2017-10-02
Report Run at: December 18, 2017 14:04 EST
"Nutrient data for: 45216131, TEXAS TOAST PIZZA, UPC: 092825104810"
Food Group:  Branded Food Products Database
Common Name:

Nutrient,Unit,Data points,Std. Error,"1 SLICE = 53.0g",1Value per 100 g,
Proximates
"Energy",kcal,--,--,150,283
"Protein",g,--,--,6.00,11.32
"Total lipid (fat)",g,--,--,9.00,16.98
"Carbohydrate, by difference",g,--,--,14.00,26.42
"Fiber, total dietary",g,--,--,1.0,1.9
"Sugars, total",g,--,--,2.00,3.77
Minerals
"Calcium, Ca",mg,--,--,100,189
"Iron, Fe",mg,--,--,3.98,7.50
"Sodium, Na",mg,--,--,310,585
Vitamins
"Vitamin C, total ascorbic acid",mg,--,--,0.0,0.0
"Vitamin A, IU",IU,--,--,1104,2083
Lipids
"Fatty acids, total saturated",g,--,--,3.000,5.660
"Fatty acids, total monounsaturated",g,--,--,3.000,5.660
"Fatty acids, total polyunsaturated",g,--,--,2.502,4.720
"Fatty acids, total trans",g,--,--,0.000,0.000
"Cholesterol",mg,--,--,10,19
Amino Acids
Other
Ingredients
"TOPPING: LOW MOISTURE PART-SKIM MOZZARELLA (PASTEURIZED PART-SKIM MILK, CHEESE CULTURES, SALT, ENZYMES), WATER, PEPPERONI (PORK, BEEF, SALT, CONTAINS LESS THAN 2% OR LESS OF: WATER, DEXTROSE, SPICES, LACTIC ACID STARTER CULTURE, OLEORESIN OF PAPRIKA, *GARLIC, SODIUM NITIRITE, BHA, BHT, CITRIC ACID), TOMATO PASTE, SOYBEAN OIL, SPICES, LESS THAN 2% OF: EXTRA VIRGIN OLIVE OIL, SUGAR, GARLIC, *ONION, SALT, MODIFIED FOOD STARCH. BREAD: ENRICHED FLOUR (BLEACHED WHEAT FLOUR, NIACIN, REDUCED IRON, THIAMINE MONONITRATE, RIBOFLAVIN, FOLIC ACID), WATER, CONTAINS LESS THAN 2% OF: PALM OIL, WHEAT GLUTEN, SALT, YEAST, SUGAR, SOY FLOUR, MALTED BARLEY FLOUR, CORN SYRUP SOLIDS, DEXTROSE, OAT FIBER, SODIUM STEAROYL LACTYLATE, MONOGLYCERIDES, SODIUM ALGINATE, ENZYMES, XANTHAN GUM, ASCORBIC ACID, CORN MEAL." Date available: 07/14/2017 Date last updated by company: 07/14/2017
