Source: USDA Branded Food Products Database Release December 2017 Software v.3.8.6.4 2017-10-02
Report Run at: December 18, 2017 14:01 EST
"Nutrient data for: 45198422, TEXAS BRATS, UPC: 077782001419"
Food Group:  Branded Food Products Database
Common Name:

Nutrient,Unit,Data points,Std. Error,"0.5 OF A GRILLED LINK = 62.0g",1Value per 100 g,
Proximates
"Energy",kcal,--,--,200,323
"Protein",g,--,--,10.00,16.13
"Total lipid (fat)",g,--,--,16.00,25.81
"Carbohydrate, by difference",g,--,--,2.00,3.23
"Sugars, total",g,--,--,1.00,1.61
Minerals
"Calcium, Ca",mg,--,--,0,0
"Iron, Fe",mg,--,--,0.32,0.51
"Sodium, Na",mg,--,--,490,790
Vitamins
"Vitamin C, total ascorbic acid",mg,--,--,0.0,0.0
"Vitamin A, IU",IU,--,--,0,0
Lipids
"Fatty acids, total saturated",g,--,--,6.002,9.680
"Fatty acids, total trans",g,--,--,0.000,0.000
"Cholesterol",mg,--,--,45,73
Amino Acids
Other
Ingredients
"PORK, WATER, CORN SYRUP AND LESS THAN 2% OF THE FOLLOWING: NATURAL PORK BROTH WITH NATURAL FLAVORINGS, SALT, SPICES, DEXTROSE, MONOSODIUM GLUTAMATE, GARLIC POWDER, ONION POWDER, NATURAL FLAVOR, SPICE EXTRACTIVES, OLEORESIN OF PAPRIKA, TABASCO POWDER (AGED RED PEPPER, VINEGAR, SALT), BHA, PROPYL GALLATE, CITRIC ACID." Date available: 07/14/2017 Date last updated by company: 07/14/2017
