Source: USDA Branded Food Products Database Release December 2017 Software v.3.8.6.4 2017-10-02
Report Run at: December 18, 2017 14:18 EST
"Nutrient data for: 45203435, THAI VEGETABLE FRIED RICE, UPC: 895812001471"
Food Group:  Branded Food Products Database
Common Name:

Nutrient,Unit,Data points,Std. Error,"0.5 PACK = 125.0g",1Value per 100 g,
Proximates
"Energy",kcal,--,--,180,144
"Protein",g,--,--,4.00,3.20
"Total lipid (fat)",g,--,--,3.50,2.80
"Carbohydrate, by difference",g,--,--,33.00,26.40
"Fiber, total dietary",g,--,--,3.0,2.4
"Sugars, total",g,--,--,4.00,3.20
Minerals
"Calcium, Ca",mg,--,--,0,0
"Iron, Fe",mg,--,--,0.26,0.21
"Sodium, Na",mg,--,--,660,528
Vitamins
"Vitamin C, total ascorbic acid",mg,--,--,0.0,0.0
"Vitamin A, IU",IU,--,--,0,0
Lipids
"Fatty acids, total saturated",g,--,--,1.000,0.800
"Fatty acids, total trans",g,--,--,0.000,0.000
"Cholesterol",mg,--,--,0,0
Amino Acids
Other
Ingredients
"COOKED LONG GRAIN RICE, SWEET CORN, CARROT, CARROT, GREEN PEAS, WATER, RICE BRAN OIL, SOY SAUCE (SOYBEAN, WHEAT FLOUR, WATER, SALT, SUGAR), SPRING ONION, THAI RED CHILI, SUGAR, GARLIC, YEAST EXTRACT, GINGER, SPICES (PEPPER POWDER, GARLIC POWDER), XANTHAN GUM." Date available: 08/28/2017 Date last updated by company: 08/28/2017
