Source: USDA Branded Food Products Database Release December 2017 Software v.3.8.6.4 2017-10-02
Report Run at: December 18, 2017 14:12 EST
"Nutrient data for: 45324112, THAI INSPIRED COCONUT CHICKEN, UPC: 888649502686"
Food Group:  Branded Food Products Database
Common Name:

Nutrient,Unit,Data points,Std. Error,"5.0 ONZ = 140.0g",1Value per 100 g,
Proximates
"Energy",kcal,--,--,200,143
"Protein",g,--,--,21.99,15.71
"Total lipid (fat)",g,--,--,7.99,5.71
"Carbohydrate, by difference",g,--,--,9.00,6.43
"Fiber, total dietary",g,--,--,0.0,0.0
"Sugars, total",g,--,--,6.01,4.29
Minerals
"Calcium, Ca",mg,--,--,20,14
"Iron, Fe",mg,--,--,0.66,0.47
"Sodium, Na",mg,--,--,729,521
Vitamins
"Vitamin C, total ascorbic acid",mg,--,--,0.0,0.0
"Vitamin A, IU",IU,--,--,0,0
Lipids
"Fatty acids, total saturated",g,--,--,3.500,2.500
"Fatty acids, total monounsaturated",g,--,--,1.498,1.070
"Fatty acids, total polyunsaturated",g,--,--,0.994,0.710
"Fatty acids, total trans",g,--,--,0.000,0.000
"Cholesterol",mg,--,--,99,71
Amino Acids
Other
Ingredients
"FULLY COOKED SEASONED AND GRILLED CHICKEN THIGH MEAT (CHICKEN THIGH MEAT, WATER, SEASONING [SUGAR, BROWN SUGAR, SALT, SOY SAUCE {WHEAT, SOYBEAN, SALT}, MALTODEXTRIN, CORN STARCH, SPICES, ONION POWDER, SOYBEAN OIL, CARAMEL COLOR, GARLIC POWDER], AND 2% OR LESS OF: PINEAPPLE JUICE SOLIDS, CORN SYRUP SOLIDS, VINEGAR POWDER, SODIUM PHOSPHATE, CORN STARCH) AND THAI COCONUT SAUCE (COCONUT MILK [COCONUT MILK, WATER, XANTHAN GUM], WATER, VINEGAR, SUGAR, BROWN SUGAR, GARLIC, SEA SALT, CHICKEN BROTH CONCENTRATE [CHICKEN STOCK, NATURAL FLAVOR, SALT, SUGAR, YEAST EXTRACT], CORN STARCH, EXPELLER PRESSED CANOLA OIL, RED CHILE FLAKES, TURMERIC, ANNATTO [ANNATTO EXTRACT, NATURAL FLAVORS], JALAPENO, ONION POWDER, GARLIC POWDER, LIME JUICE CONCENTRATE, CITRIC ACID, GUM [XANTHAN, GUAR, CARRAGEENAN], PAPRIKA OLEORESIN)." Date available: 08/10/2017 Date last updated by company: 08/10/2017
