Source: USDA Branded Food Products Database Release December 2017 Software v.3.8.6.4 2017-10-02
Report Run at: December 18, 2017 14:19 EST
"Nutrient data for: 45042217, THAI VEGETABLE PEANUT, UPC: 782733010012"
Food Group:  Branded Food Products Database
Common Name:

Nutrient,Unit,Data points,Std. Error,"0.5 PACK = 142.5g",1Value per 100 g,
Proximates
"Energy",kcal,--,--,170,119
"Protein",g,--,--,5.00,3.51
"Total lipid (fat)",g,--,--,10.00,7.02
"Carbohydrate, by difference",g,--,--,18.00,12.63
"Fiber, total dietary",g,--,--,3.0,2.1
"Sugars, total",g,--,--,9.01,6.32
Minerals
"Calcium, Ca",mg,--,--,30,21
"Iron, Fe",mg,--,--,1.05,0.74
"Sodium, Na",mg,--,--,460,323
Vitamins
"Vitamin C, total ascorbic acid",mg,--,--,0.0,0.0
"Vitamin A, IU",IU,--,--,98,69
Lipids
"Fatty acids, total saturated",g,--,--,1.995,1.400
"Fatty acids, total trans",g,--,--,0.000,0.000
"Cholesterol",mg,--,--,0,0
Amino Acids
Other
Ingredients
"WATER, CARROTS, BABY CORN, PEANUTS, WATER CHESTNUTS, POTATOES, RAW SUGAR, COCONUT MILK, ONIONS, SUNFLOWER OIL, YEAST EXTRACT, SPICES, GALANGAL, GARLIC, CREAM, SALT, THAI BASIL, CORIANDER, LEMON JUICE, KAFFIR LIME, CORNSTARCH, TURMERIC." Date available: 07/14/2017 Date last updated by company: 07/14/2017
