Source: USDA Branded Food Products Database Release December 2017 Software v.3.8.6.4 2017-10-02
Report Run at: December 18, 2017 14:11 EST
"Nutrient data for: 45087903, THAI COCONUT MILK SOUP, UPC: 865007000008"
Food Group:  Branded Food Products Database
Common Name:

Nutrient,Unit,Data points,Std. Error,"9.0 ONZ = 255.0g",1Value per 100 g,
Proximates
"Energy",kcal,--,--,370,145
"Protein",g,--,--,4.00,1.57
"Total lipid (fat)",g,--,--,37.00,14.51
"Carbohydrate, by difference",g,--,--,13.01,5.10
"Fiber, total dietary",g,--,--,2.0,0.8
"Sugars, total",g,--,--,5.00,1.96
Minerals
"Calcium, Ca",mg,--,--,41,16
"Iron, Fe",mg,--,--,6.04,2.37
"Sodium, Na",mg,--,--,1020,400
Vitamins
"Vitamin C, total ascorbic acid",mg,--,--,8.7,3.4
"Vitamin A, IU",IU,--,--,385,151
Lipids
"Fatty acids, total saturated",g,--,--,32.002,12.550
"Fatty acids, total trans",g,--,--,0.000,0.000
"Cholesterol",mg,--,--,0,0
Amino Acids
Other
Ingredients
"COCONUT MILK, WATER, FRESH LIME JUICE, FISH SAUCE (ANCHOVIES, SALT, SUGAR), CANE SUGAR, FRESH GALANGAL, CARROTS, CELERY, THAI CHILI PEPPERS, ONIONS, LEMONGRASS, KAFFIR LIME, SHALLOTS, TAPIOCA STARCH, GARLIC, DRIED CHILES, KAFFIR LIME LEAF POWDER." Date available: 07/14/2017 Date last updated by company: 07/14/2017
