Source: USDA Branded Food Products Database Release December 2017 Software v.3.8.6.4 2017-10-02
Report Run at: December 18, 2017 14:19 EST
"Nutrient data for: 45016323, THAI WONDER, PEANUT SATAY SAUCE, ZESTY ORANGE, UPC: 016459800221"
Food Group:  Branded Food Products Database
Common Name:

Nutrient,Unit,Data points,Std. Error,"2.0 ONZ = 57.0g",1Value per 100 g,
Proximates
"Energy",kcal,--,--,80,140
"Protein",g,--,--,3.00,5.26
"Total lipid (fat)",g,--,--,1.50,2.63
"Carbohydrate, by difference",g,--,--,12.00,21.05
"Fiber, total dietary",g,--,--,1.0,1.8
"Sugars, total",g,--,--,4.00,7.02
Minerals
"Calcium, Ca",mg,--,--,0,0
"Iron, Fe",mg,--,--,0.00,0.00
"Sodium, Na",mg,--,--,210,368
Vitamins
"Vitamin C, total ascorbic acid",mg,--,--,3.6,6.3
"Vitamin A, IU",IU,--,--,0,0
Lipids
"Fatty acids, total saturated",g,--,--,0.000,0.000
"Fatty acids, total trans",g,--,--,0.000,0.000
"Cholesterol",mg,--,--,0,0
Amino Acids
Other
Ingredients
"BETTER'N PEANUT BUTTER (DEFATTED PEANUT FLOUR, PEANUT BUTTER, PEANUT FLAVORS, WATER, TAPIOCA & GRAIN SYRUPS, GLYCERIN, CANE SYRUP, SALT, LECITHIN, NATURAL COLORS & FLAVORS, VITAMINS C & E), WATER, ORANGE JUICE, ORANGE MARMALADE, LIME JUICE, GARLIC, TAPIOCA STARCH, SOY SAUCE, GINGER, CURRY, RED PEPPER." Date available: 06/25/2017 Date last updated by company: 06/25/2017
