Source: USDA Branded Food Products Database Release December 2017 Software v.3.8.6.4 2017-10-02
Report Run at: December 18, 2017 14:11 EST
"Nutrient data for: 45162473, THAI COCO, COCONUT MILK DRINK, STRAWBERRY, BANANA, UPC: 850227023272"
Food Group:  Branded Food Products Database
Common Name:

Nutrient,Unit,Data points,Std. Error,"1 BOTTLE = 280.0g",1Value per 100 g,
Proximates
"Energy",kcal,--,--,120,43
"Protein",g,--,--,1.01,0.36
"Total lipid (fat)",g,--,--,4.51,1.61
"Carbohydrate, by difference",g,--,--,19.99,7.14
"Fiber, total dietary",g,--,--,0.0,0.0
"Sugars, total",g,--,--,15.01,5.36
Minerals
"Calcium, Ca",mg,--,--,20,7
"Iron, Fe",mg,--,--,0.31,0.11
"Potassium, K",mg,--,--,350,125
"Sodium, Na",mg,--,--,90,32
Vitamins
"Vitamin C, total ascorbic acid",mg,--,--,0.0,0.0
"Vitamin A, IU",IU,--,--,0,0
Lipids
"Fatty acids, total saturated",g,--,--,4.004,1.430
"Fatty acids, total trans",g,--,--,0.000,0.000
"Cholesterol",mg,--,--,0,0
Amino Acids
Other
Ingredients
"COCONUT WATER, COCONUT EXTRACTED, NATURAL CANE SUGAR, STRAWBERRY PUREE, BANANA SYRUP, NATURAL BANANA FLAVOUR, SUCROSE ESTERS OF FATTY ACID, NATURAL STRAWBERRY FLAVOUR, PECTIN, GUAR GUM, FD&C RED, XANTHAN GUM, STEVIA, WATER" Date available: 07/14/2017 Date last updated by company: 07/14/2017
