Source: USDA Branded Food Products Database Release December 2017 Software v.3.8.6.4 2017-10-02
Report Run at: December 18, 2017 14:15 EST
"Nutrient data for: 45232565, THAI RED CURRY, UPC: 042272009749"
Food Group:  Branded Food Products Database
Common Name:

Nutrient,Unit,Data points,Std. Error,"1 cup = 232.0g",1Value per 100 g,
Proximates
"Energy",kcal,--,--,320,138
"Protein",g,--,--,8.00,3.45
"Total lipid (fat)",g,--,--,17.01,7.33
"Carbohydrate, by difference",g,--,--,32.99,14.22
"Fiber, total dietary",g,--,--,3.0,1.3
"Sugars, total",g,--,--,7.01,3.02
Minerals
"Calcium, Ca",mg,--,--,60,26
"Iron, Fe",mg,--,--,1.51,0.65
"Sodium, Na",mg,--,--,659,284
Vitamins
"Vitamin C, total ascorbic acid",mg,--,--,10.0,4.3
"Vitamin A, IU",IU,--,--,1262,544
Lipids
"Fatty acids, total saturated",g,--,--,8.004,3.450
"Fatty acids, total trans",g,--,--,0.000,0.000
"Cholesterol",mg,--,--,0,0
Amino Acids
Other
Ingredients
"(VEGAN): ORGANIC JASMINE RICE, ORGANIC COCONUT MILK, ORGANIC BUTTERNUT SQUASH, ORGANIC BROCCOLI, ORGANIC TOFU (FILTERED WATER, ORGANIC SOYBEANS, NIGARI [MAGNESIUM CHLORIDE, A NATURAL FIRMING AGENT]), ORGANIC TAMARI (WATER, ORGANIC SOYBEANS, SALT), ORGANIC CARROTS, FILTERED WATER, EXPELLER PRESSED HIGH OLEIC SAFFLOWER AND/OR SUNFLOWER OIL, ORGANIC BELL PEPPERS, ORGANIC GREEN BEANS, ORGANIC SAUTEED ONIONS (ORGANIC ONIONS, ORGANIC SUNFLOWER OIL), ORGANIC BROWN CANE SUGAR (ORGANIC CANE SUGAR, ORGANIC BLACKSTRAP MOLASSES), ORGANIC CANE SUGAR, ORGANIC CORNSTARCH, ORGANIC RED ONIONS, SEA SALT, SPICES, ORGANIC JALAPENO PEPPERS, ORGANIC GARLIC, PAPRIKA, BLACK PEPPER." Date available: 07/14/2017 Date last updated by company: 07/14/2017
