Source: USDA Branded Food Products Database Release December 2017 Software v.3.8.6.4 2017-10-02
Report Run at: December 18, 2017 14:19 EST
"Nutrient data for: 45233934, THAT INDIAN DRINK, PROBIOTIC LOWFAT DRINKABLE YOGURT, RASPBERRY CINNAMON LASSI, UPC: 854791004026"
Food Group:  Branded Food Products Database
Common Name:

Nutrient,Unit,Data points,Std. Error,"237.0 MLT = 237.0g",1Value per 100 g,
Proximates
"Energy",kcal,--,--,130,55
"Protein",g,--,--,6.99,2.95
"Total lipid (fat)",g,--,--,2.49,1.05
"Carbohydrate, by difference",g,--,--,21.00,8.86
"Fiber, total dietary",g,--,--,4.0,1.7
"Sugars, total",g,--,--,16.00,6.75
Minerals
"Calcium, Ca",mg,--,--,249,105
"Iron, Fe",mg,--,--,0.26,0.11
"Sodium, Na",mg,--,--,95,40
Vitamins
"Vitamin C, total ascorbic acid",mg,--,--,10.7,4.5
"Vitamin A, IU",IU,--,--,0,0
Lipids
"Fatty acids, total saturated",g,--,--,1.493,0.630
"Fatty acids, total trans",g,--,--,0.000,0.000
"Cholesterol",mg,--,--,9,4
Amino Acids
Other
Ingredients
"PASTEURIZED LOWFAT MILK, RASPBERRIES, NATURAL CANE SUGAR, CINNAMON, GINGER, LIVE ACTIVE CULTURES." Date available: 07/14/2017 Date last updated by company: 07/14/2017
