Source: USDA Branded Food Products Database Release December 2017 Software v.3.8.6.4 2017-10-02
Report Run at: December 18, 2017 14:48 EST
"Nutrient data for: 45097695, THE GOURMET COLLECTION, SPICE BLEND, SMOKED PAPRIKA, GARLIC, CHILI & CHIVES, UPC: 092719373773"
Food Group:  Branded Food Products Database
Common Name:

Nutrient,Unit,Data points,Std. Error,"0.25 tsp = 1.0g",1Value per 100 g,
Proximates
"Energy",kcal,--,--,0,0
"Total lipid (fat)",g,--,--,0.00,0.00
"Carbohydrate, by difference",g,--,--,0.00,0.00
"Sugars, total",g,--,--,0.00,0.00
Minerals
"Sodium, Na",mg,--,--,0,0
Vitamins
Lipids
"Fatty acids, total saturated",g,--,--,0.000,0.000
Amino Acids
Other
Ingredients
"PAPRIKA 27%, GARLIC 27%, ONION, SUGAR, RED BELL PEPPER, BLACK PEPPER, TOMATO, CHILI 3%, OREGANO, LEMON PEEL, ROSE MARY, CHIVES 1%, SMOKED FLAVOR," Date available: 10/13/2017 Date last updated by company: 10/13/2017
