Source: USDA Branded Food Products Database Release December 2017 Software v.3.8.6.4 2017-10-02
Report Run at: December 18, 2017 14:24 EST
"Nutrient data for: 45152759, THE BAKERY BAKED WITH PRIDE, THUMBPRINT COOCKIES, UPC: 078742141138"
Food Group:  Branded Food Products Database
Common Name:

Nutrient,Unit,Data points,Std. Error,"2.0 COOKIES = 33.0g",1Value per 100 g,
Proximates
"Energy",kcal,--,--,170,515
"Protein",g,--,--,1.00,3.03
"Total lipid (fat)",g,--,--,9.00,27.27
"Carbohydrate, by difference",g,--,--,22.00,66.67
"Fiber, total dietary",g,--,--,0.0,0.0
"Sugars, total",g,--,--,14.00,42.42
Minerals
"Calcium, Ca",mg,--,--,0,0
"Iron, Fe",mg,--,--,0.54,1.65
"Potassium, K",mg,--,--,0,0
"Sodium, Na",mg,--,--,150,455
Vitamins
"Vitamin C, total ascorbic acid",mg,--,--,0.0,0.0
"Vitamin A, IU",IU,--,--,454,1377
Lipids
"Fatty acids, total saturated",g,--,--,4.501,13.640
"Fatty acids, total monounsaturated",g,--,--,3.000,9.090
"Fatty acids, total polyunsaturated",g,--,--,1.502,4.550
"Fatty acids, total trans",g,--,--,0.000,0.000
"Cholesterol",mg,--,--,5,15
Amino Acids
Other
Ingredients
"SUGAR, ENRICHED UNBLEACHED WHEAT FLOUR (FLOUR, NIACIN, REDUCED IRON, THIAMINE MONONITRATE, RIBOFLAVIN, FOLIC ACID), MARGARINE (PALM OIL, WATER, SOYBEAN OIL, SALT, MONO- AND DIGLYCERIDES, SOY LECITHIN, PRESERVATIVE [POTASSIUM SORBATE], VITAMIN A PALMITATE), CREAM CHEESE (MILK, CREAM, BACTERIAL CULTURE, SALT, CAROB BEAN GUM), INVERT SUGAR, PALM AND SOYBEAN OILS, CONTAINS LESS THAN 2% OF THE FOLLOWING: MODIFIED CORNSTARCH, LEAVENING (BAKING SODA, SODIUM ACID PYROPHOSPHATE, MONOCALCIUM, PHOSPHATE), BUTTER (CREAM, SALT), EGGS, NATURAL FLAVOR, NATURAL AND ARTIFICIAL FLAVOR, SOY LECITHIN, SALT, CORN SYRUP SOLIDS POLYSORBATE 60, CALCIUM PHOSPHATE, EGG WHITES, YELLOW 5 LAKE." Date available: 07/14/2017 Date last updated by company: 07/14/2017
