Source: USDA Branded Food Products Database Release December 2017 Software v.3.8.6.4 2017-10-02
Report Run at: December 18, 2017 14:50 EST
"Nutrient data for: 45185362, THE JAM SHOPPE, JAM, RED RASPBERRY, UPC: 648194500663"
Food Group:  Branded Food Products Database
Common Name:

Nutrient,Unit,Data points,Std. Error,"1 Tbsp = 16.0g",1Value per 100 g,
Proximates
"Energy",kcal,--,--,25,156
"Protein",g,--,--,0.00,0.00
"Total lipid (fat)",g,--,--,0.00,0.00
"Carbohydrate, by difference",g,--,--,6.00,37.50
"Fiber, total dietary",g,--,--,0.0,0.0
"Sugars, total",g,--,--,6.00,37.50
Minerals
"Sodium, Na",mg,--,--,0,0
Vitamins
Lipids
"Fatty acids, total saturated",g,--,--,0.000,0.000
"Fatty acids, total trans",g,--,--,0.000,0.000
Amino Acids
Other
Ingredients
"WHITE GRAPE JUICE CONCENTRATE, RED RASPBERRIES, WATER, FRUIT PECTIN, CITRIC ACID, CALCIUM." Date available: 07/14/2017 Date last updated by company: 07/14/2017
