Source: USDA Branded Food Products Database Release December 2017 Software v.3.8.6.4 2017-10-02
Report Run at: December 18, 2017 14:45 EST
"Nutrient data for: 45166010, THE FRESH MARKET, ROASTED BRAZIL NUTS LIGHTLY SALTED, UPC: 737094218447"
Food Group:  Branded Food Products Database
Common Name:

Nutrient,Unit,Data points,Std. Error,"0.25 cup = 30.0g",1Value per 100 g,
Proximates
"Energy",kcal,--,--,200,667
"Protein",g,--,--,4.00,13.33
"Total lipid (fat)",g,--,--,20.00,66.67
"Carbohydrate, by difference",g,--,--,4.00,13.33
"Fiber, total dietary",g,--,--,2.0,6.7
"Sugars, total",g,--,--,0.00,0.00
Minerals
"Calcium, Ca",mg,--,--,0,0
"Iron, Fe",mg,--,--,0.00,0.00
"Sodium, Na",mg,--,--,120,400
Vitamins
"Vitamin C, total ascorbic acid",mg,--,--,0.0,0.0
"Vitamin A, IU",IU,--,--,0,0
Lipids
"Fatty acids, total saturated",g,--,--,5.001,16.670
"Fatty acids, total trans",g,--,--,0.000,0.000
"Cholesterol",mg,--,--,0,0
Amino Acids
Other
Ingredients
"BRAZIL NUTS, CANOLA OIL, SALT." Date available: 08/26/2017 Date last updated by company: 08/26/2017
