Source: USDA Branded Food Products Database Release December 2017 Software v.3.8.6.4 2017-10-02
Report Run at: December 18, 2017 14:23 EST
"Nutrient data for: 45176835, THE BAKERY, ASSORTED SWIRL DANISHES, APPLE CHEESE RASPBERRY, UPC: 078742075969"
Food Group:  Branded Food Products Database
Common Name:

Nutrient,Unit,Data points,Std. Error,"1 DANISH = 113.0g",1Value per 100 g,
Proximates
"Energy",kcal,--,--,490,434
"Protein",g,--,--,4.99,4.42
"Total lipid (fat)",g,--,--,23.00,20.35
"Carbohydrate, by difference",g,--,--,65.00,57.52
"Fiber, total dietary",g,--,--,1.0,0.9
"Sugars, total",g,--,--,36.00,31.86
Minerals
"Calcium, Ca",mg,--,--,150,133
"Iron, Fe",mg,--,--,0.70,0.62
"Sodium, Na",mg,--,--,299,265
Vitamins
"Vitamin C, total ascorbic acid",mg,--,--,0.0,0.0
"Vitamin A, IU",IU,--,--,365,323
Lipids
"Fatty acids, total saturated",g,--,--,10.995,9.730
"Fatty acids, total trans",g,--,--,0.000,0.000
"Cholesterol",mg,--,--,15,13
Amino Acids
Other
Ingredients
"WATER, SUGAR, ENRICHED FLOUR (WHEAT FLOUR, MALTED BARLEY FLOUR, NIACIN, REDUCED IRON, THIAMINE MONONITRATE, RIBOFLAVIN, FOLIC ACID), MARGARINE (PALM OIL, WATER, SOYBEAN OIL, SUGAR, SOY LECITHIN, MONO- AND DIGLYCERIDES, POTASSIUM SORBATE PRESERVATIVE, CITRIC ACID PRESERVATIVE, NATURAL AND ARTIFICIAL FLAVOR, BETA-CAROTENE COLOR, VITAMIN A PALMITATE), WHEAT FLOUR, HIGH FRUCTOSE CORN SYRUP, VEGETABLE SHORTENING (PALM OIL, FRACTIONATED PALM OIL, SOY LECITHIN), DEXTROSE, CORN SYRUP, CONTAINS LESS THAN 2 % OF EACH OF THE FOLLOWING: REHYDRATED APPLES (WATER, EVAPORATED APPLES), YEAST, MILK, FOOD STARCH-MODIFIED, NEUFCHATEL CHEESE (PASTEURIZED MILK AND CREAM, CHEESE CULTURE, SALT, CAROB BEAN GUM), WHEY, SALT, EGGS, DEFATTED SOY FLOUR, EGG YOLKS, SKIM MILK, RASPBERRY PUREE, CORN STARCH, MONO- AND DIGLYCERIDES, DEXTRIN, PALM OIL, DISTILLED MONO- AND DIGLYCERIDES, EGG WHITES, RASPBERRY JUICE FROM CONCENTRATE, CALCIUM SULFATE, CALCIUM CARBONATE, NATURAL AND ARTIFICIAL FLAVORS, GLYCERIN, DEGERMINATED YELLOW CORN FLOUR, MALTODEXTRIN, PECTIN, MALIC ACID, MILK PROTEIN CONCENTRATE, SOYBEAN OIL, CITRIC ACID PRESERVATIVE, POTASSIUM SORBATE PRESERVATIVE, BAKING POWDER (SODIUM ACID PYROPHOSPHATE, BAKING SODA, CORN STARCH, MONOCALCIUM PHOSPHATE), SODIUM STEAROYL LACTYLATE, CHEESE CULTURE, AMMONIUM SULFATE, SHERRY WINE, PROPYLENE GLYCOL, ENZYMES, LEMON JUICE CONCENTRATE, CAROB BEAN GUM, LACTIC ACID, TITANIUM DIOXIDE COLOR, CINNAMON, CARAMEL COLOR, TURMERIC OLEORESIN COLOR, XANTHAN GUM, SOY LECITHIN, BETA-APO-B'-CAROTENAL COLOR SODIUM CITRATE, HIGH OLEIC CANOLA OIL, LOCUST BEAN GUM, AGAR-AGAR, SODIUM PHOSPHATE, INVEST SUGAR, PAPRIKA OLEORESIN COLOR, RED 40, GLYCERYL MONOOLEATE, SULFUR DIOXIDE PRESERVATIVE, BLUE 1, TOCOPHEROLS PRESERVATIVE, POLYSORBATE 60, ASCORBIC ACID PRESERVATIVE, ETHYL ALCOHOL." Date available: 07/14/2017 Date last updated by company: 07/14/2017
