Source: USDA Branded Food Products Database Release December 2017 Software v.3.8.6.4 2017-10-02
Report Run at: December 18, 2017 15:06 EST
"Nutrient data for: 45275525, THE ORIGINAL MARSHMALLOW SANDWICH, UPC: 072108246017"
Food Group:  Branded Food Products Database
Common Name:

Nutrient,Unit,Data points,Std. Error,"1 PACKAGE = 57.0g",1Value per 100 g,
Proximates
"Energy",kcal,--,--,220,386
"Protein",g,--,--,3.00,5.26
"Total lipid (fat)",g,--,--,6.00,10.53
"Carbohydrate, by difference",g,--,--,39.00,68.42
"Fiber, total dietary",g,--,--,1.0,1.8
"Sugars, total",g,--,--,19.00,33.33
Minerals
"Sodium, Na",mg,--,--,180,316
Vitamins
Lipids
"Fatty acids, total saturated",g,--,--,4.001,7.020
"Fatty acids, total trans",g,--,--,0.000,0.000
"Cholesterol",mg,--,--,0,0
Amino Acids
Other
Ingredients
"ENRICHED FLOUR (WHEAT FLOUR, NIACIN, REDUCED IRON, THIAMINE MONONITRATE, RIBOFLAVIN, FOLIC ACID), CORN SYRUP, HIGH FRUCTOSE CORN SYRUP, SUGAR, PALM AND PALM KERNEL OIL, DEFATTED SOY FLOUR, SOYBEAN OIL, GELATIN, BAKING SODA, COCOA PROCESSED WITH ALKALI, SALT, SOY LECITHIN, COCOA, SODIUM ACID PYROPHOSPHATE, SODIUM SULFITE, NATURAL & ARTIFICIAL FLAVORS, POTASSIUM SORBATE TO RETAIN FRESHNESS." Date available: 10/13/2017 Date last updated by company: 10/13/2017
