Source: USDA Branded Food Products Database Release December 2017 Software v.3.8.6.4 2017-10-02
Report Run at: December 18, 2017 14:34 EST
"Nutrient data for: 45234429, THE CHIA CO, BLACK CHIA, UPC: 9340224000518"
Food Group:  Branded Food Products Database
Common Name:

Nutrient,Unit,Data points,Std. Error,"0.5 ONZ = 15.0g",1Value per 100 g,
Proximates
"Energy",kcal,--,--,77,513
"Protein",g,--,--,3.00,20.00
"Total lipid (fat)",g,--,--,5.00,33.33
"Carbohydrate, by difference",g,--,--,0.70,4.67
"Fiber, total dietary",g,--,--,6.0,40.0
Minerals
"Calcium, Ca",mg,--,--,80,533
"Iron, Fe",mg,--,--,2.70,18.00
"Magnesium, Mg",mg,--,--,168,1120
"Phosphorus, P",mg,--,--,330,2200
"Potassium, K",mg,--,--,90,600
"Sodium, Na",mg,--,--,0,0
Vitamins
"Vitamin C, total ascorbic acid",mg,--,--,0.0,0.0
"Vitamin A, IU",IU,--,--,0,0
Lipids
"Fatty acids, total saturated",g,--,--,0.600,4.000
"Fatty acids, total monounsaturated",g,--,--,0.500,3.330
"Fatty acids, total polyunsaturated",g,--,--,4.000,26.670
"Fatty acids, total trans",g,--,--,0.000,0.000
"Cholesterol",mg,--,--,0,0
Amino Acids
Other
Ingredients
"100% CHIA SEED (SALVIA HISPANICA)." Date available: 07/14/2017 Date last updated by company: 07/14/2017
