Source: USDA Branded Food Products Database Release December 2017 Software v.3.8.6.4 2017-10-02
Report Run at: December 18, 2017 14:47 EST
"Nutrient data for: 45219056, THE GOOD-FOR-YOU ICE CREAM, UPC: 852109331253"
Food Group:  Branded Food Products Database
Common Name:

Nutrient,Unit,Data points,Std. Error,"1 BAR = 74.0g",1Value per 100 g,
Proximates
"Energy",kcal,--,--,70,95
"Protein",g,--,--,8.00,10.81
"Total lipid (fat)",g,--,--,2.00,2.70
"Carbohydrate, by difference",g,--,--,14.00,18.92
"Fiber, total dietary",g,--,--,5.0,6.8
"Sugars, total",g,--,--,3.00,4.05
Minerals
"Calcium, Ca",mg,--,--,200,270
"Iron, Fe",mg,--,--,0.00,0.00
"Sodium, Na",mg,--,--,40,54
Vitamins
"Vitamin C, total ascorbic acid",mg,--,--,0.0,0.0
"Vitamin A, IU",IU,--,--,100,135
Lipids
"Fatty acids, total saturated",g,--,--,0.999,1.350
"Fatty acids, total trans",g,--,--,0.000,0.000
"Cholesterol",mg,--,--,10,14
Amino Acids
Other
Ingredients
"SKIM MILK, MILK PROTEIN ISOLATE, ERYTHRITOL (NATURAL SWEETENER), NON-GMO SOLUBLE CORN FIBER, CREAM, NATURAL FLAVOR, ALMONDS, LOCUST BEAN GUM, GUAR GUM, MONK FRUIT EXTRACT." Date available: 08/10/2017 Date last updated by company: 08/10/2017
