Source: USDA Branded Food Products Database Release December 2017 Software v.3.8.6.4 2017-10-02
Report Run at: December 18, 2017 14:42 EST
"Nutrient data for: 45158297, THE FRESH MARKET, EUROPEAN SODA, PINK LEMONADE, UPC: 737094215675"
Food Group:  Branded Food Products Database
Common Name:

Nutrient,Unit,Data points,Std. Error,"8.0 OZA = 240.0g",1Value per 100 g,
Proximates
"Energy",kcal,--,--,101,42
"Protein",g,--,--,0.00,0.00
"Total lipid (fat)",g,--,--,0.00,0.00
"Carbohydrate, by difference",g,--,--,25.01,10.42
"Sugars, total",g,--,--,25.01,10.42
Minerals
"Sodium, Na",mg,--,--,0,0
Vitamins
Lipids
Amino Acids
Other
Ingredients
"CARBONATED WATER, SUGAR, LEMON AND LIME FLAVOR (INCLUDING LEMON JUICE) CITRIC ACID, GRAPE SKIN EXTRACT (AS COLOR)." Date available: 07/14/2017 Date last updated by company: 07/14/2017
