Source: USDA Branded Food Products Database Release December 2017 Software v.3.8.6.4 2017-10-02
Report Run at: December 18, 2017 14:44 EST
"Nutrient data for: 45153576, THE FRESH MARKET, PRETZEL NUGGETS, CHOCOLATE PEANUT BUTTER, UPC: 737094218638"
Food Group:  Branded Food Products Database
Common Name:

Nutrient,Unit,Data points,Std. Error,"2.0 PIECES = 40.0g",1Value per 100 g,
Proximates
"Energy",kcal,--,--,200,500
"Protein",g,--,--,3.00,7.50
"Total lipid (fat)",g,--,--,11.00,27.50
"Carbohydrate, by difference",g,--,--,25.00,62.50
"Fiber, total dietary",g,--,--,2.0,5.0
"Sugars, total",g,--,--,17.00,42.50
Minerals
"Calcium, Ca",mg,--,--,40,100
"Iron, Fe",mg,--,--,2.25,5.62
"Sodium, Na",mg,--,--,130,325
Vitamins
"Vitamin C, total ascorbic acid",mg,--,--,0.0,0.0
"Vitamin A, IU",IU,--,--,0,0
Lipids
"Fatty acids, total saturated",g,--,--,8.000,20.000
"Fatty acids, total trans",g,--,--,0.000,0.000
"Cholesterol",mg,--,--,0,0
Amino Acids
Other
Ingredients
"CONFECTIONERY COATING (SUGAR, PALM KERNEL AND/OR PALM OIL, COCOA POWDER, WHEY POWDER, NONFAT DRY MILK, SOY LECITHIN, NATURAL VANILLA EXTRACT), PEANUT BUTTER PRETZEL GEMS (ENRICHED WHEAT FLOUR [WHEAT FLOUR, NIACIN, REDUCED IRON, THIAMINE MONONITRATE, RIBOFLAVIN, FOLIC ACID], PEANUT BUTTER [ROASTED PEANUTS, SUGAR, MONO- AND DIGLYCERIDES, SALT], SALT, LESS THAN 2% OF: PALM OIL, CORN SYRUP, LEAVENING [YEAST, SODIUM BICARBONATE AND/OR AMMONIUM BICARBONATE], L-CYSTEINE), CORN SYRUP, MODIFIED STARCH (TAPIOCA), CONFECTIONER'S GLAZE." Date available: 07/14/2017 Date last updated by company: 07/14/2017
