Source: USDA Branded Food Products Database Release December 2017 Software v.3.8.6.4 2017-10-02
Report Run at: December 18, 2017 14:49 EST
"Nutrient data for: 45169941, THE HONEST STAND, CHEESY SAUCE, SMOKED, UPC: 859484005007"
Food Group:  Branded Food Products Database
Common Name:

Nutrient,Unit,Data points,Std. Error,"2.0 Tbsp = 24.0g",1Value per 100 g,
Proximates
"Energy",kcal,--,--,25,104
"Protein",g,--,--,1.00,4.17
"Total lipid (fat)",g,--,--,1.50,6.25
"Carbohydrate, by difference",g,--,--,3.00,12.50
"Fiber, total dietary",g,--,--,0.0,0.0
"Sugars, total",g,--,--,0.00,0.00
Minerals
"Calcium, Ca",mg,--,--,0,0
"Iron, Fe",mg,--,--,0.73,3.04
"Sodium, Na",mg,--,--,170,708
Vitamins
"Vitamin C, total ascorbic acid",mg,--,--,2.4,10.2
"Vitamin A, IU",IU,--,--,1014,4227
Lipids
"Fatty acids, total saturated",g,--,--,0.000,0.000
"Fatty acids, total trans",g,--,--,0.000,0.000
"Cholesterol",mg,--,--,0,0
Amino Acids
Other
Ingredients
"*YUKON GOLD POTATOES, WATER, *CARROTS, *CASHEWS, *YELLOW ONIONS, *LIME JUICE, SEA SALT, NATURAL FLAVOR (OBTAINED FROM NON-GMO PLANTS), *GARLIC POWDER." Date available: 07/14/2017 Date last updated by company: 07/14/2017
