Source: USDA Branded Food Products Database Release December 2017 Software v.3.8.6.4 2017-10-02
Report Run at: December 18, 2017 14:29 EST
"Nutrient data for: 45193978, THE BALSAMIC VINEGAR, UPC: 033717730373"
Food Group:  Branded Food Products Database
Common Name:

Nutrient,Unit,Data points,Std. Error,"1 Tbsp = 15.0g",1Value per 100 g,
Proximates
"Energy",kcal,--,--,22,147
"Protein",g,--,--,0.00,0.00
"Total lipid (fat)",g,--,--,0.00,0.00
"Carbohydrate, by difference",g,--,--,5.00,33.33
"Fiber, total dietary",g,--,--,0.0,0.0
"Sugars, total",g,--,--,5.00,33.33
Minerals
"Sodium, Na",mg,--,--,0,0
Vitamins
Lipids
"Fatty acids, total saturated",g,--,--,0.000,0.000
"Fatty acids, total trans",g,--,--,0.000,0.000
"Cholesterol",mg,--,--,0,0
Amino Acids
Other
Ingredients
"COOKED GRAPE MUST, BALSAMIC VINEGAR OF MODENA 36% (WINE VINEGAR, COOKED GRAPE MUST), MODIFIED CORN STARCH, XANTHAN, STRAWBERRY JUICE (1%), NATURAL STRAWBERRY FLAVOR." Date available: 07/14/2017 Date last updated by company: 07/14/2017
