Source: USDA Branded Food Products Database Release December 2017 Software v.3.8.6.4 2017-10-02
Report Run at: December 18, 2017 14:48 EST
"Nutrient data for: 45093945, THE GOURMET COLLECTION, PAPRIKA LEMON & LIME SPICE BLEND, UPC: 092719363736"
Food Group:  Branded Food Products Database
Common Name:

Nutrient,Unit,Data points,Std. Error,"0.25 tsp = 0.6g",1Value per 100 g,
Proximates
"Energy",kcal,--,--,0,0
"Total lipid (fat)",g,--,--,0.00,0.00
"Carbohydrate, by difference",g,--,--,0.00,0.00
"Sugars, total",g,--,--,0.00,0.00
Minerals
"Sodium, Na",mg,--,--,40,6667
Vitamins
Lipids
"Fatty acids, total saturated",g,--,--,0.000,0.000
Amino Acids
Other
Ingredients
"PAPRIKA 20%, RED BELL PEPPER, SALT, SOY BEAN, CITRIC ACID, ONION, GARLIC, SUGAR, CELERY SEED, CHILI, CORIANDER, BLACK PEPPER, PARSLEY, LIME LEAF POWDER 2%, LEMON PEEL 1%." Date available: 10/13/2017 Date last updated by company: 10/13/2017
