Source: USDA Branded Food Products Database Release December 2017 Software v.3.8.6.4 2017-10-02
Report Run at: December 18, 2017 14:33 EST
"Nutrient data for: 45035839, THE CAPTAIN'S, GOURMET COCKTAIL SAUCE, UPC: 038882900187"
Food Group:  Branded Food Products Database
Common Name:

Nutrient,Unit,Data points,Std. Error,"2.0 Tbsp = 30.0g",1Value per 100 g,
Proximates
"Energy",kcal,--,--,30,100
"Protein",g,--,--,0.00,0.00
"Total lipid (fat)",g,--,--,1.00,3.33
"Carbohydrate, by difference",g,--,--,5.00,16.67
"Sugars, total",g,--,--,3.00,10.00
Minerals
"Sodium, Na",mg,--,--,280,933
Vitamins
Lipids
"Fatty acids, total saturated",g,--,--,0.000,0.000
"Fatty acids, total trans",g,--,--,0.000,0.000
"Cholesterol",mg,--,--,0,0
Amino Acids
Other
Ingredients
"WATER, TOMATO PASTE, FRESH GROUND HORSERADISH, SUGAR, VINEGAR, SOYBEAN OIL, SALT, XANTHAN GUM, BEET POWDER, SPICES, MUSTARD OIL AND LESS THAN 1/10 OF 1% ASCORBIC ACID, POTASSIUM SORBATE AND SODIUM BENZOATE." Date available: 07/14/2017 Date last updated by company: 07/14/2017
