Source: USDA Branded Food Products Database Release December 2017 Software v.3.8.6.4 2017-10-02
Report Run at: December 18, 2017 14:42 EST
"Nutrient data for: 45145572, THE FRESH MARKET, CRANBERRY QUINOA COOKIES WITH OATMEAL, UPC: 737094210809"
Food Group:  Branded Food Products Database
Common Name:

Nutrient,Unit,Data points,Std. Error,"2.0 COOKIES = 28.0g",1Value per 100 g,
Proximates
"Energy",kcal,--,--,130,464
"Protein",g,--,--,1.00,3.57
"Total lipid (fat)",g,--,--,6.00,21.43
"Carbohydrate, by difference",g,--,--,18.00,64.29
"Fiber, total dietary",g,--,--,1.0,3.6
"Sugars, total",g,--,--,10.00,35.71
Minerals
"Calcium, Ca",mg,--,--,0,0
"Iron, Fe",mg,--,--,0.64,2.29
"Sodium, Na",mg,--,--,190,679
Vitamins
"Vitamin C, total ascorbic acid",mg,--,--,0.0,0.0
"Vitamin A, IU",IU,--,--,357,1275
Lipids
"Fatty acids, total saturated",g,--,--,3.500,12.500
"Fatty acids, total trans",g,--,--,0.000,0.000
"Cholesterol",mg,--,--,25,89
Amino Acids
Other
Ingredients
"SALTED BUTTER (CREAM [MILK], WATER, SALT), ENRICHED FLOUR (WHEAT FLOUR, NIACIN, REDUCED IRON, THIAMINE MONONITRATE, RIBOFLAVIN, FOLIC ACID), GRANULATED SUGAR, DRIED CRANBERRIES (SUGAR, CITRIC ACID, ELDERBERRY JUICE CONCENTRATE, SUNFLOWER OIL), BROWN SUGAR, WHOLE EGGS, OATS, QUINOA FLAKES, SALT, BAKING SODA, VANILLA EXTRACT, CINNAMON." Date available: 07/14/2017 Date last updated by company: 07/14/2017
