Source: USDA Branded Food Products Database Release December 2017 Software v.3.8.6.4 2017-10-02
Report Run at: December 18, 2017 14:33 EST
"Nutrient data for: 45165477, THE CANDY TREE, SOUR GUMMY WORMS, UPC: 611190365581"
Food Group:  Branded Food Products Database
Common Name:

Nutrient,Unit,Data points,Std. Error,"5.0 PIECES = 39.0g",1Value per 100 g,
Proximates
"Energy",kcal,--,--,130,333
"Protein",g,--,--,2.00,5.13
"Total lipid (fat)",g,--,--,0.00,0.00
"Carbohydrate, by difference",g,--,--,30.00,76.92
"Fiber, total dietary",g,--,--,0.0,0.0
"Sugars, total",g,--,--,20.00,51.28
Minerals
"Calcium, Ca",mg,--,--,0,0
"Iron, Fe",mg,--,--,0.00,0.00
"Sodium, Na",mg,--,--,40,103
Vitamins
"Vitamin C, total ascorbic acid",mg,--,--,0.0,0.0
"Vitamin A, IU",IU,--,--,0,0
Lipids
"Fatty acids, total saturated",g,--,--,0.000,0.000
"Fatty acids, total trans",g,--,--,0.000,0.000
"Cholesterol",mg,--,--,0,0
Amino Acids
Other
Ingredients
"CORN SYRUP, SUGAR, GELATIN, MODIFIED POTATO STARCH, LACTIC ACID, APPLE JUICE FROM CONCENTRATE, MALIC ACID, SODIUM LACTATE, ADIPIC ACID, FUMARIC ACID, TARTARIC ACID, MODIFIED CORN STARCH, SODIUM CITRATE, TITANIUM DIOXIDE, NATURAL AND ARTIFICIAL FLAVORS, ARTIFICIAL COLORS: FD&C RED NO. 40, YELLOW NO. 5, BLUE NO, 1." Date available: 07/14/2017 Date last updated by company: 07/14/2017
