Source: USDA Branded Food Products Database Release December 2017 Software v.3.8.6.4 2017-10-02
Report Run at: December 18, 2017 14:51 EST
"Nutrient data for: 45213772, THE LATE NIGHTER PIZZA, UPC: 035826085078"
Food Group:  Branded Food Products Database
Common Name:

Nutrient,Unit,Data points,Std. Error,"0.125 PIZZA = 127.0g",1Value per 100 g,
Proximates
"Energy",kcal,--,--,290,228
"Protein",g,--,--,14.00,11.02
"Total lipid (fat)",g,--,--,12.00,9.45
"Carbohydrate, by difference",g,--,--,32.00,25.20
"Fiber, total dietary",g,--,--,1.0,0.8
"Sugars, total",g,--,--,3.00,2.36
Minerals
"Calcium, Ca",mg,--,--,150,118
"Iron, Fe",mg,--,--,2.77,2.18
"Sodium, Na",mg,--,--,759,598
Vitamins
"Vitamin C, total ascorbic acid",mg,--,--,9.3,7.3
"Vitamin A, IU",IU,--,--,307,242
Lipids
"Fatty acids, total saturated",g,--,--,4.496,3.540
"Fatty acids, total monounsaturated",g,--,--,2.997,2.360
"Fatty acids, total polyunsaturated",g,--,--,2.997,2.360
"Fatty acids, total trans",g,--,--,0.000,0.000
"Cholesterol",mg,--,--,25,20
Amino Acids
Other
Ingredients
"CRUST: ENRICHED WHEAT FLOUR (FLOUR, NIACIN, IRON, THIAMINE MONONITRATE, RIBOFLAVIN, FOLIC ACID, ENZYME, ASCORBIC ACID), WATER, SOYBEAN OIL, YEAST, BREAD CRUMBS (WHEAT FLOUR, YEAST, SUGAR, SALT), OLIVE OIL, SUGAR, SALT, CULTURED WHEAT STARCH, HONEY, SODIUM BICARBONATE, SODIUM ALUMINUM PHOSPHATE, L-CYSTEINE, CITRIC ACID. TOPPINGS: CHEESES (LOW MOISTURE PART-SKIM MOZZARELLA [PASTEURIZED PART-SKIM MILK, CHEESE CULTURE, SALT, ENZYMES], CHEDDAR [PASTEURIZED MILK, CHEESE CULTURE, SALT, ENZYMES, ANNATTO COLOR]), RANCH SAUCE (WATER, RANCH SEASONING [NONFAT DRY MILK, RANCH SEASONING {MALTODEXTRIN, SALT, DEHYDRATED ONION, DISODIUM INOSINATE AND DISODIUM GUANYLATE, DEHYDRATED GARLIC, PARSLEY, CARRAGEENAN, SPICE, SOYBEAN OIL AND LESS THAN 2% CALCIUM STEARATE TO PREVENT CAKING}, MODIFIED FOOD STARCH, BUTTERMILK SOLIDS, MALTODEXTRIN, SALT, SOY LECITHIN, XANTHAN GUM AND SPICE], SOYBEAN OIL), FULLY COOKED CHICKEN BREAST MEAT WITH RIB MEAT (CHICKEN BREAST MEAT WITH RIB MEAT, WATER, CHICKEN FLAVOR [DEHYDRATED CHICKEN BROTH, CHICKEN POWDER, AND NATURAL FLAVOR], CARRAGEENAN, SALT, CORNSTARCH, SPICE), FULLY COOKED BACON TOPPING (CURED WITH WATER, SALT, SUGAR, SODIUM ERYTHORBATE, AND/OR SODIUM ASCORBATE, SODIUM NITRITE. MAY CONTAIN NATURAL SMOKE FLAVORING, SODIUM PHOSPHATE), CARAMELIZED ONIONS (ONION, NATURAL ONION FLAVORING), PARSLEY." Date available: 07/14/2017 Date last updated by company: 07/14/2017
