Source: USDA Branded Food Products Database Release December 2017 Software v.3.8.6.4 2017-10-02
Report Run at: December 18, 2017 14:45 EST
"Nutrient data for: 45160975, THE FRESH MARKET, SWEET 'N SPICY, UPC: 737094218232"
Food Group:  Branded Food Products Database
Common Name:

Nutrient,Unit,Data points,Std. Error,"0.25 cup = 30.0g",1Value per 100 g,
Proximates
"Energy",kcal,--,--,170,567
"Protein",g,--,--,5.00,16.67
"Total lipid (fat)",g,--,--,13.00,43.33
"Carbohydrate, by difference",g,--,--,11.00,36.67
"Fiber, total dietary",g,--,--,2.0,6.7
"Sugars, total",g,--,--,3.00,10.00
Minerals
"Calcium, Ca",mg,--,--,20,67
"Iron, Fe",mg,--,--,1.20,4.00
"Sodium, Na",mg,--,--,300,1000
Vitamins
"Vitamin C, total ascorbic acid",mg,--,--,0.0,0.0
"Vitamin A, IU",IU,--,--,0,0
Lipids
"Fatty acids, total saturated",g,--,--,1.500,5.000
"Fatty acids, total trans",g,--,--,0.000,0.000
"Cholesterol",mg,--,--,0,0
Amino Acids
Other
Ingredients
"NACHO PEANUTS (PEANUTS, CANOLA OIL, NACHO SEASONING [SALT, CHEESE* (PASTEURIZED MILK, CHEESE CULTURE, SALT, ENZYMES), SALT, SODIUM PHOSPHATE, CALCIUM PHOSPHATE, LACTIC ACID], WHEY*, MALTODEXTRIN, BUTTERMILK*, CORN STARCH, DEHYDRATED JALAPENO PEPPER, WHEY PROTEIN CONCENTRATE, SPICES, DISODIUM INOSINATE, DISODIUM GUANYLATE, ONION*, POWDERED SUNFLOWER OIL SHORTENING [SUNFLOWER OIL, NONFAT MILK, SODIUM CASEINATE, TOCOPHEROL, EXTRACT OF ROSEMARY], DEXTROSE, GARLIC*, EXTRACTIVES OF PAPRIKA, ANNATTO, TURMERIC, NATURAL FLAVOR, CITRIC ACID, LACTIC ACID, SUGAR, NONFAT DRIED MILK), ALE NUTS (PEANUTS, SUGAR, SALTED BUTTER [PASTEURIZED CREAM, SALT], SALT), HOT CORN STICKS (YELLOW CORN MASA, SOYBEAN OIL, CAJUN SEASONING [POTATO FLOUR, SPICES & HERBS, SALT, ONION*, TOMATO*, GARLIC*, NATURAL FLAVORING, MALTODEXTRIN, MODIFIED CORNSTARCH, GREEN PEPPER*], SALT), CAJUN STICK (ENRICHED WHEAT FLOUR [UNBLEACHED WHEAT FLOUR, MALTED BARLEY FLOUR, NIACIN, IRON (REDUCED IRON), THIAMINE MONONITRATE, RIBOFLAVIN, FOLIC ACID], SOYBEAN OIL, SESAME SEEDS, BULGUR WHEAT, CAJUN SEASONING (SALT, SPICES (INCLUDES PAPRIKA FOR COLOR), DEHYDRATED ONION, TORULA YEAST, GREEN BELL PEPPER, DEHYDRATED GARLIC, COCOA POWDER (PROCESSED WITH ALKALI), PAPRIKA OLEORESIN (COLOR)], SALT, BEET* [COLOR], TURMERIC [COLOR)), CAJUN PECANS (PECANS, CANOLA OIL, CAJUN SPICE [SALT, RED PEPPER, SPICES, GARLIC]), HONEY ROASTED, PEANUTS (PEANUTS, EVAPORATED SUGAR CANE, LIGHT AMBER HONEY, PEANUT OIL, SUGAR, POTATO STARCH, SALT, AND XANTHAN GUM)." Date available: 10/13/2017 Date last updated by company: 10/13/2017
