Source: USDA Branded Food Products Database Release December 2017 Software v.3.8.6.4 2017-10-02
Report Run at: December 18, 2017 14:55 EST
"Nutrient data for: 45187815, THE NATURAL HAPA, BAMBOO BUNDLE STICKY RICE MEALS WRAPPED IN BAMBOO LEAVES, UPC: 853955004032"
Food Group:  Branded Food Products Database
Common Name:

Nutrient,Unit,Data points,Std. Error,"1 BUNDLE = 142.0g",1Value per 100 g,
Proximates
"Energy",kcal,--,--,109,77
"Protein",g,--,--,4.00,2.82
"Total lipid (fat)",g,--,--,1.51,1.06
"Carbohydrate, by difference",g,--,--,22.00,15.49
"Fiber, total dietary",g,--,--,3.0,2.1
"Sugars, total",g,--,--,0.99,0.70
Minerals
"Calcium, Ca",mg,--,--,20,14
"Iron, Fe",mg,--,--,0.23,0.16
"Sodium, Na",mg,--,--,105,74
Vitamins
"Vitamin C, total ascorbic acid",mg,--,--,0.4,0.3
"Vitamin A, IU",IU,--,--,237,167
Lipids
"Fatty acids, total saturated",g,--,--,0.000,0.000
"Fatty acids, total trans",g,--,--,0.000,0.000
"Cholesterol",mg,--,--,0,0
Amino Acids
Other
Ingredients
"ORGANIC BROWN CALIFORNIA PEARL RICE, ORGANIC FRENCH GREEN LENTILS, ONIONS, CELERY, ORGANIC CARROTS, CALIFORNIA GARLIC, SAFFLOWER OIL, SALT, SPICES." Date available: 10/16/2017 Date last updated by company: 10/16/2017
