Source: USDA Branded Food Products Database Release December 2017 Software v.3.8.6.4 2017-10-02
Report Run at: December 18, 2017 14:26 EST
"Nutrient data for: 45165126, THE BAKERY, ESPRESSO COOKIES, COFFEE CHIPS, UPC: 078742120584"
Food Group:  Branded Food Products Database
Common Name:

Nutrient,Unit,Data points,Std. Error,"1 COOKIE = 40.0g",1Value per 100 g,
Proximates
"Energy",kcal,--,--,190,475
"Protein",g,--,--,2.00,5.00
"Total lipid (fat)",g,--,--,9.00,22.50
"Carbohydrate, by difference",g,--,--,26.00,65.00
"Fiber, total dietary",g,--,--,0.0,0.0
"Sugars, total",g,--,--,17.00,42.50
Minerals
"Calcium, Ca",mg,--,--,20,50
"Iron, Fe",mg,--,--,0.45,1.12
"Sodium, Na",mg,--,--,100,250
Vitamins
"Vitamin C, total ascorbic acid",mg,--,--,0.0,0.0
"Vitamin A, IU",IU,--,--,125,312
Lipids
"Fatty acids, total saturated",g,--,--,4.500,11.250
"Fatty acids, total trans",g,--,--,0.000,0.000
"Cholesterol",mg,--,--,20,50
Amino Acids
Other
Ingredients
"WHEAT FLOUR, COFFEE CHIPS (SUGAR, COCOA BUTTER, ROASTED COFFEE, WHEY, LACTOSE, MALTODEXTRIN, LESS THAN 2% OF THE FOLLOWING: SOYBEAN LECITHIN [AN EMULSIFIER], PGPR [AN EMULSIFIER], NATURAL VANILLA FLAVOR, SALT), BROWN SUGAR, SWEET CREAM BUTTER, SUGAR, EGGS, INVERT SUGAR, CANOLA OIL, CRYSTALLINE FRUCTOSE, WATER, SALT, BAKING SODA." Date available: 07/14/2017 Date last updated by company: 07/14/2017
