Source: USDA Branded Food Products Database Release December 2017 Software v.3.8.6.4 2017-10-02
Report Run at: December 18, 2017 15:17 EST
"Nutrient data for: 45030841, THE SPICE HUNTER, ORGANIC GRINDER SALT FREE BLACK & WHITE PEPPER, UPC: 081057020333"
Food Group:  Branded Food Products Database
Common Name:

Nutrient,Unit,Data points,Std. Error,"0.25 tsp = 0.7g",1Value per 100 g,
Proximates
"Energy",kcal,--,--,0,0
"Protein",g,--,--,0.00,0.00
"Total lipid (fat)",g,--,--,0.00,0.00
"Carbohydrate, by difference",g,--,--,0.00,0.00
Minerals
"Sodium, Na",mg,--,--,0,0
Vitamins
Lipids
Amino Acids
Other
Ingredients
"100% ORGANIC INGREDIENTS: BLACK PEPPERCORNS, WHITE PEPPERCORNS" Date available: 07/14/2017 Date last updated by company: 07/14/2017
