Source: USDA Branded Food Products Database Release December 2017 Software v.3.8.6.4 2017-10-02
Report Run at: December 18, 2017 14:39 EST
"Nutrient data for: 45047120, THE FARMER'S HEN, 12 GRADE A MEDIUM EGGS, UPC: 856209005137"
Food Group:  Branded Food Products Database
Common Name:

Nutrient,Unit,Data points,Std. Error,"1 EGG = 44.0g",1Value per 100 g,
Proximates
"Energy",kcal,--,--,60,136
"Protein",g,--,--,6.00,13.64
"Total lipid (fat)",g,--,--,4.00,9.09
"Carbohydrate, by difference",g,--,--,0.00,0.00
Minerals
"Calcium, Ca",mg,--,--,20,45
"Iron, Fe",mg,--,--,0.82,1.86
"Sodium, Na",mg,--,--,60,136
Vitamins
"Vitamin C, total ascorbic acid",mg,--,--,0.0,0.0
"Vitamin A, IU",IU,--,--,227,517
Lipids
"Fatty acids, total saturated",g,--,--,1.500,3.410
"Fatty acids, total trans",g,--,--,0.000,0.000
"Cholesterol",mg,--,--,165,375
Amino Acids
Other
Ingredients
"12 GRADE A MEDIUM EGGS." Date available: 07/14/2017 Date last updated by company: 07/14/2017
