Source: USDA Branded Food Products Database Release December 2017 Software v.3.8.6.4 2017-10-02
Report Run at: December 18, 2017 14:35 EST
"Nutrient data for: 45267728, THE COLOSSAL CHUNKY CHOCOLATE CHIP COOKIE, UPC: 698768866213"
Food Group:  Branded Food Products Database
Common Name:

Nutrient,Unit,Data points,Std. Error,"1 SLICE = 28.0g",1Value per 100 g,
Proximates
"Energy",kcal,--,--,110,393
"Protein",g,--,--,1.00,3.57
"Total lipid (fat)",g,--,--,4.50,16.07
"Carbohydrate, by difference",g,--,--,18.00,64.29
"Fiber, total dietary",g,--,--,0.0,0.0
"Sugars, total",g,--,--,11.00,39.29
Minerals
"Calcium, Ca",mg,--,--,0,0
"Iron, Fe",mg,--,--,1.29,4.59
"Sodium, Na",mg,--,--,135,482
Vitamins
"Vitamin C, total ascorbic acid",mg,--,--,0.0,0.0
"Vitamin A, IU",IU,--,--,0,0
Lipids
"Fatty acids, total saturated",g,--,--,2.500,8.930
"Fatty acids, total trans",g,--,--,0.000,0.000
"Cholesterol",mg,--,--,10,36
Amino Acids
Other
Ingredients
"SUGAR, BLEACHED FLOUR (ENRICHED WITH NIACIN, IRON, THIAMIN MONONITRATE, RIBOFLAVIN, FOLIC ACID), PALM OIL, SEMI-SWEET CHOCOLATE CHIPS/CHUNKS (SUGAR, CHOCOLATE LIQUOR, COCOA BUTTER, DEXTROSE, SOY LECITHIN (ADDED AS AN EMULSIFIER), VANILLIN (AN ARTIFICIAL FLAVORING)), UNBLEACHED FLOUR, WHEY PROTEIN CONCENTRATE, INVERT SUGAR, SODIUM BICARBONATE, SALT, NATURAL AND ARTIFICIAL FLAVORING." Date available: 07/14/2017 Date last updated by company: 07/14/2017
