Source: USDA Branded Food Products Database Release December 2017 Software v.3.8.6.4 2017-10-02
Report Run at: December 18, 2017 14:44 EST
"Nutrient data for: 45145577, THE FRESH MARKET, MERRY CHRISTMAS PRETZEL TRAY, UPC: 737094217396"
Food Group:  Branded Food Products Database
Common Name:

Nutrient,Unit,Data points,Std. Error,"9.0 PRETZELS = 40.0g",1Value per 100 g,
Proximates
"Energy",kcal,--,--,190,475
"Protein",g,--,--,2.00,5.00
"Total lipid (fat)",g,--,--,8.00,20.00
"Carbohydrate, by difference",g,--,--,29.00,72.50
"Fiber, total dietary",g,--,--,1.0,2.5
"Sugars, total",g,--,--,16.00,40.00
Minerals
"Calcium, Ca",mg,--,--,0,0
"Iron, Fe",mg,--,--,0.90,2.25
"Sodium, Na",mg,--,--,210,525
Vitamins
"Vitamin C, total ascorbic acid",mg,--,--,0.0,0.0
"Vitamin A, IU",IU,--,--,0,0
Lipids
"Fatty acids, total saturated",g,--,--,6.000,15.000
"Fatty acids, total trans",g,--,--,0.000,0.000
"Cholesterol",mg,--,--,5,12
Amino Acids
Other
Ingredients
"SALTED CARAMEL PRETZELS - SALTED CARAMEL COATING (SUGAR, PALM KERNEL OIL, NONFAT DRY MILK SOLIDS, WHOLE MILK SOLIDS, ARTIFICIAL COLOR [YELLOW LAKE #6, YELLOW LAKE #5, BLUE LAKE #2], SOY LECITHIN (AN EMULSIFIER), NATURAL FLAVOR), PRETZELS (UNBLEACHED ENRICHED WHEAT FLOUR [FLOUR, NIACIN, REDUCED IRON, THIAMINE MONONITRATE-B1, RIBOFLAVIN-B2, FOLIC ACID], MALT, SALT, SOYBEAN AND/OR CANOLA OIL AND YEAST), YOGURT PRETZELS - NATURAL YOGURT COATING (SUGAR, VEGETABLE OILS [PALM KERNEL, PALM], WHEY, YOGURT POWDER [NON FAT MILK, LACTIC ACID], SOY LECITHIN [AN EMULSIFIER], SALT AND VANILLA), PRETZELS (UNBLEACHED ENRICHED WHEAT FLOUR [FLOUR, NIACIN, REDUCED IRON, THIAMINE MONONITRATE-B1, RIBOFLAVIN-B2, FOLIC ACID], MALT, SALT, SOYBEAN OIL OR CANOLA OIL AND YEAST), APPLE CIDER YOGURT PRETZELS - APPLE CIDER YOGURT COATING (SUGAR, PALM AND/OR PALM KERNEL OILS, WHEY POWDER [MILK], DRY NONFAT YOGURT [MILK], SOY LECITHIN [AN EMULSIFIER], SALT, NATURAL VANILLA EXTRACT, NATURAL FLAVORING [SWEET ALMOND OIL], PALM KERNEL OIL, NATURAL RED PIGMENT [BEET], RICE BRAN EXTRACT [AN EMULSIFIER]), NATURAL ORANGE PIGMENT [ANNATTO], GROUND CINNAMON), PRETZELS (UNBLEACHED ENRICHED WHEAT FLOUR [FLOUR, NIACIN, REDUCED IRON, THIAMINE MONONITRATE-B1, RIBOFLAVIN-B2, FOLIC ACID], MALT, SALT, SOYBEAN AND/OR CANOLA OIL, YEAST), DARK CHOCOLATE PRETZELS - DARK CHOCOLATE (SUGAR, CHOCOLATE LIQUOR [PROCESSED WITH ALKALI], COCOA BUTTER, MILK FAT, SOY LECITHIN [AN EMULSIFIER], AND VANILLA), PRETZELS (UNBLEACHED ENRICHED WHEAT FLOUR [FLOUR, NIACIN, REDUCED IRON, THIAMINE MONONITRATE-B1, RIBOFLAVIN-B2, FOLIC ACID], MALT, SALT, SOYBEAN OR CANOLA OIL, YEAST)." Date available: 09/26/2017 Date last updated by company: 09/26/2017
