Source: USDA Branded Food Products Database Release December 2017 Software v.3.8.6.4 2017-10-02
Report Run at: December 18, 2017 14:33 EST
"Nutrient data for: 45161091, THE CAROLINA NUT CO., HONEY ROASTED CHIPOTLE PEANUTS, UPC: 753695261248"
Food Group:  Branded Food Products Database
Common Name:

Nutrient,Unit,Data points,Std. Error,"1 ONZ = 28.0g",1Value per 100 g,
Proximates
"Energy",kcal,--,--,160,571
"Protein",g,--,--,6.00,21.43
"Total lipid (fat)",g,--,--,12.00,42.86
"Carbohydrate, by difference",g,--,--,8.00,28.57
"Fiber, total dietary",g,--,--,2.0,7.1
"Sugars, total",g,--,--,5.00,17.86
Minerals
"Calcium, Ca",mg,--,--,40,143
"Iron, Fe",mg,--,--,1.93,6.88
"Sodium, Na",mg,--,--,200,714
Vitamins
"Vitamin C, total ascorbic acid",mg,--,--,2.2,7.7
Lipids
"Fatty acids, total saturated",g,--,--,1.501,5.360
"Fatty acids, total trans",g,--,--,0.000,0.000
Amino Acids
Other
Ingredients
"PEANUTS, SUGAR, HONEY, SALT,. CANOLA, PEANUT AND/OR SOYBEAN OIL, POTATO STARCH, CELLULOSE GUM, SPICES, ONION POWDER, CORN SYRUP SOLIDS, CORN STARCH, GARLIC POWDER, NATURAL FLAVORS, XANTHAN GUM, CITRIC ACID, VINEGAR POWDER, SPICE EXTRACTIVE, EXTRACTIVES OF PAPRIKA." Date available: 10/13/2017 Date last updated by company: 10/13/2017
