Source: USDA Branded Food Products Database Release December 2017 Software v.3.8.6.4 2017-10-02
Report Run at: December 18, 2017 14:48 EST
"Nutrient data for: 45327855, THE GOOD TABLE SAUCE/CRUST MX CHCKN SW TORTILLA, UNPREPARED, GTIN: 00016000463745"
Food Group:  Branded Food Products Database
Common Name:

Nutrient,Unit,Data points,Std. Error,"2.0 tsp sauce & 3 tbsp crust mix (33g) = 33.0g",1Value per 100 g,
Proximates
"Energy",kcal,--,--,80,242
"Protein",g,--,--,2.00,6.06
"Total lipid (fat)",g,--,--,1.50,4.55
"Carbohydrate, by difference",g,--,--,15.00,45.45
"Fiber, total dietary",g,--,--,1.0,3.0
"Sugars, total",g,--,--,1.00,3.03
Minerals
"Calcium, Ca",mg,--,--,0,0
"Iron, Fe",mg,--,--,0.36,1.09
"Sodium, Na",mg,--,--,350,1061
Vitamins
"Vitamin C, total ascorbic acid",mg,--,--,0.0,0.0
"Vitamin A, IU",IU,--,--,200,606
Lipids
"Fatty acids, total saturated",g,--,--,0.000,0.000
"Fatty acids, total monounsaturated",g,--,--,0.000,0.000
"Fatty acids, total polyunsaturated",g,--,--,0.000,0.000
"Fatty acids, total trans",g,--,--,0.000,0.000
"Cholesterol",mg,--,--,0,0
Amino Acids
Other
Ingredients
"ROASTED TOMATO SAUCE (WATER, ROASTED DICED TOMATOES, CHILI PEPPER PUREE, TOMATO PASTE, ONIONS, GROUND CHILE PEPPER, VINEGAR, ROASTED GARLIC, SPICE, SALT, SUGAR, SOYBEAN OIL, GARLIC POWDER, ONION POWDER, MODIFIED CORN STARCH, NATURAL FLAVOR, CITRIC ACID), WHEAT FLOUR, WHITE CORN FLOUR, YELLOW CORN FLOUR, CORN STARCH, VEGETABLE OIL (CORN AND/OR SOYBEAN AND/OR SUNFLOWER OIL), SALT, SPICES, RED BELL PEPPER*, SUGAR, ONION*, GARLIC*, GUAR GUM, YEAST, LIME JUICE SOLIDS, YEAST EXTRACT, MALTODEXTRIN, PAPRIKA, LIME OIL, CITRIC ACID.*DRIED" Date available: 10/23/2017 Date last updated by company: 10/22/2017
