Source: USDA Branded Food Products Database Release December 2017 Software v.3.8.6.4 2017-10-02
Report Run at: December 18, 2017 14:45 EST
"Nutrient data for: 45160980, THE FRESH MARKET, SUPREME NUT MIX, HONEY ROASTED, UPC: 737094218362"
Food Group:  Branded Food Products Database
Common Name:

Nutrient,Unit,Data points,Std. Error,"0.25 cup = 30.0g",1Value per 100 g,
Proximates
"Energy",kcal,--,--,180,600
"Protein",g,--,--,5.00,16.67
"Total lipid (fat)",g,--,--,15.00,50.00
"Carbohydrate, by difference",g,--,--,8.00,26.67
"Fiber, total dietary",g,--,--,3.0,10.0
"Sugars, total",g,--,--,5.00,16.67
Minerals
"Calcium, Ca",mg,--,--,20,67
"Iron, Fe",mg,--,--,1.80,6.00
"Sodium, Na",mg,--,--,120,400
Vitamins
"Vitamin C, total ascorbic acid",mg,--,--,0.0,0.0
"Vitamin A, IU",IU,--,--,0,0
Lipids
"Fatty acids, total saturated",g,--,--,1.500,5.000
"Fatty acids, total trans",g,--,--,0.000,0.000
"Cholesterol",mg,--,--,0,0
Amino Acids
Other
Ingredients
"HONEY ROASTED ALMONDS (ALMONDS EVAPORATED SUGAR CANE, LIGHT AMBER HONEY, PEANUT OIL, SUGAR, POTATO STARCH, SALT, XANTHAN GUM), HONEY ROASTED PEANUTS (PEANUTS, EVAPORATED SUGAR CANE, LIGHT AMBER HONEY, PEANUT OIL, SUGAR, POTATO STARCH, SALT, XANTHAN GUM), HONEY ROASTED CASHEWS (CASHEWS, EVAPORATED SUGAR CANE, LIGHT AMBER HONEY, PEANUTS OI, SUGAR, POTATO STARCH, SALT, XANTHAN GUM), HONEY ROASTED PECANS (PECANS, EVAPORATED SUGAR CANE, LIGHT AMBER HONEY, PEANUT OIL, SUGAR, POTATO STARCH, SALT, XANTHAN GUM)." Date available: 07/14/2017 Date last updated by company: 07/14/2017
