Source: USDA Branded Food Products Database Release December 2017 Software v.3.8.6.4 2017-10-02
Report Run at: December 18, 2017 15:21 EST
"Nutrient data for: 45328444, THICK & CHUNKY MILD SALSA, UPC: 041501807439"
Food Group:  Branded Food Products Database
Common Name:

Nutrient,Unit,Data points,Std. Error,"2.0 Tbsp = 30.0g",1Value per 100 g,
Proximates
"Energy",kcal,--,--,10,33
"Protein",g,--,--,0.00,0.00
"Total lipid (fat)",g,--,--,0.00,0.00
"Carbohydrate, by difference",g,--,--,3.00,10.00
"Sugars, total",g,--,--,1.00,3.33
Minerals
"Sodium, Na",mg,--,--,170,567
Vitamins
"Vitamin C, total ascorbic acid",mg,--,--,8.1,27.1
"Vitamin A, IU",IU,--,--,169,563
Lipids
Amino Acids
Other
Ingredients
"TOMATOES, WATER, JALAPENO PEPPERS, TOMATO PASTE, ONIONS, DRIED ONION, SALT, DISTILLED VINEGAR, DRIED GARLIC, NATURAL FLAVOR." Date available: 07/14/2017 Date last updated by company: 07/14/2017
