Source: USDA Branded Food Products Database Release December 2017 Software v.3.8.6.4 2017-10-02
Report Run at: December 18, 2017 15:24 EST
"Nutrient data for: 45322143, THICK CUT CRISPY BATTERED 100% ALASKA POLLOCK FILLETS, UPC: 044400157803"
Food Group:  Branded Food Products Database
Common Name:

Nutrient,Unit,Data points,Std. Error,"1 FILLET = 84.0g",1Value per 100 g,
Proximates
"Energy",kcal,--,--,180,214
"Protein",g,--,--,7.00,8.33
"Total lipid (fat)",g,--,--,8.00,9.52
"Carbohydrate, by difference",g,--,--,19.00,22.62
"Fiber, total dietary",g,--,--,1.0,1.2
"Sugars, total",g,--,--,2.00,2.38
Minerals
"Calcium, Ca",mg,--,--,20,24
"Potassium, K",mg,--,--,110,131
"Sodium, Na",mg,--,--,470,560
Vitamins
Lipids
"Fatty acids, total saturated",g,--,--,1.999,2.380
"Fatty acids, total monounsaturated",g,--,--,1.504,1.790
"Fatty acids, total polyunsaturated",g,--,--,4.502,5.360
"Fatty acids, total trans",g,--,--,0.000,0.000
"Cholesterol",mg,--,--,25,30
Amino Acids
Other
Ingredients
"ALASKA POLLOCK FILLETS, BATTER COATING, VEGETABLE OIL. ALASKA POLLOCK FILLETS - ALASKA POLLOCK, SODIUM TRIPOLYPHOSPHATE (TO RETAIN MOISTURE). BATTER COATING - WATER, RICE FLOUR, WHEAT FLOUR, TAPIOCA DEXTRIN, SALT, WHEY, ONION POWDER, BAKING POWDER (BAKING SODA, SODIUM ALUMINUM PHOSPHATE), DEXTROSE, SUGAR, SUNFLOWER LECITHIN, XANTHAN GUM, YEAST, SPICE, NATURAL FLAVOR. VEGETABLE OIL - COTTONSEED AND/OR CANOLA OIL, ROSEMARY EXTRACT (TO PROTECT FLAVOR)." Date available: 10/19/2017 Date last updated by company: 10/19/2017
