Source: USDA Branded Food Products Database Release December 2017 Software v.3.8.6.4 2017-10-02
Report Run at: December 18, 2017 15:32 EST
"Nutrient data for: 45121114, THIN CRUST PIZZA, UPC: 072180633033"
Food Group:  Branded Food Products Database
Common Name:

Nutrient,Unit,Data points,Std. Error,"0.333 PIZZA = 120.0g",1Value per 100 g,
Proximates
"Energy",kcal,--,--,320,267
"Protein",g,--,--,12.00,10.00
"Total lipid (fat)",g,--,--,15.00,12.50
"Carbohydrate, by difference",g,--,--,33.00,27.50
"Fiber, total dietary",g,--,--,1.0,0.8
"Sugars, total",g,--,--,7.00,5.83
Minerals
"Calcium, Ca",mg,--,--,150,125
"Iron, Fe",mg,--,--,4.39,3.66
"Potassium, K",mg,--,--,450,375
"Sodium, Na",mg,--,--,570,475
Vitamins
"Vitamin C, total ascorbic acid",mg,--,--,0.0,0.0
"Vitamin A, IU",IU,--,--,325,271
Lipids
"Fatty acids, total saturated",g,--,--,6.996,5.830
"Fatty acids, total trans",g,--,--,0.000,0.000
"Cholesterol",mg,--,--,30,25
Amino Acids
Other
Ingredients
"ENRICHED FLOUR (WHEAT FLOUR, MALTED BARLEY FLOUR, NIACIN, REDUCED IRON, THIAMINE MONONITRATE, RIBOFLAVIN, FOLIC ACID), WATER, LOW MOISTURE PART SKIM MOZZARELLA CHEESE (CULTURED PASTEURIZED PART SKIM MILK, SALT, ENZYMES), CANADIAN STYLE BACON WATER ADDED CHUNKED AND FORMED FROM PORK SIRLOIN HIPS (CURED WITH WATER, SALT, POTASSIUM LACTATE, SUGAR, SODIUM PHOSPHATES, SMOKE FLAVORING, SODIUM DIACETATE, SODIUM ERYTHORBATE, SODIUM NITRITE), PRECOOKED BACON ENDS AND PIECES (BACON [CURED WITH WATER, SUGAR, SALT, SODIUM PHOSPHATE, NATURAL FLAVOR], SODIUM ERYTHORBATE, SODIUM NITRITE), TOMATO PASTE, PANCETTA (PORK BELLY, SALT, SUGAR, SPICES, GARLIC, SODIUM ERYTHORBATE SODIUM NITRITE), CARAMELIZED ONION, CONTAINS 2% OR LESS OF: VEGETABLE OIL (SOYBEAN AND/OR CANOLA OIL), PALM OIL, YEAST, SUGAR, SEA SALT, BUTTER (CREAM, SALT), MODIFIED FOOD STARCH, DRIED GARLIC, NONFAT MILK, SPICE, DATEM, WHEAT STARCH, SALT, L-CYSTEINE HYDROCHLORIDE, AMMONIUM SULFATE, SOY LECITHIN, NATURAL FLAVOR." Date available: 07/14/2017 Date last updated by company: 07/14/2017
