Source: USDA Branded Food Products Database Release December 2017 Software v.3.8.6.4 2017-10-02
Report Run at: December 18, 2017 15:43 EST
"Nutrient data for: 45287358, THINS THIN CUT & CRISPY CRUST, UPC: 020593000287"
Food Group:  Branded Food Products Database
Common Name:

Nutrient,Unit,Data points,Std. Error,"1 UNBAKED BISCUIT = 37.0g",1Value per 100 g,
Proximates
"Energy",kcal,--,--,112,303
"Protein",g,--,--,2.00,5.41
"Total lipid (fat)",g,--,--,6.00,16.22
"Carbohydrate, by difference",g,--,--,12.00,32.43
"Fiber, total dietary",g,--,--,0.6,1.6
"Sugars, total",g,--,--,1.00,2.70
Minerals
"Calcium, Ca",mg,--,--,0,0
"Iron, Fe",mg,--,--,0.24,0.66
"Sodium, Na",mg,--,--,307,830
Vitamins
"Vitamin C, total ascorbic acid",mg,--,--,0.0,0.0
"Thiamin",mg,--,--,0.000,0.000
"Riboflavin",mg,--,--,0.102,0.276
"Niacin",mg,--,--,0.540,1.459
"Vitamin A, IU",IU,--,--,0,0
Lipids
"Fatty acids, total saturated",g,--,--,1.498,4.050
"Fatty acids, total trans",g,--,--,1.798,4.860
"Cholesterol",mg,--,--,0,0
Amino Acids
Other
Ingredients
"ENRICHED BLEACHED FLOUR (BLEACHED FLOUR, NIACIN, REDUCED IRON, THIAMINE MONONITRATE [VITAMIN B1], RIBOFLAVIN [VITAMIN B2], FOLIC ACID), BUTTERMILK, PARTIALLY HYDROGENATED VEGETABLE SHORTENING (SOYBEAN OIL AND/OR COTTONSEED OIL), WATER, NONFAT MILK, LEAVENING (SODIUM BICARBONATE, SODIUM ACID PYROPHOSPHATE, SODIUM ALUMINUM PHOSPHATE). CONTAINS 2% OR LESS OF SUGAR, SALT, SODIUM CASEINATE, DATEM (EMULSIFIER), ARTIFICIAL FLAVORS." Date available: 09/30/2017 Date last updated by company: 09/30/2017
