Source: USDA Branded Food Products Database Release December 2017 Software v.3.8.6.4 2017-10-02
Report Run at: December 18, 2017 15:33 EST
"Nutrient data for: 45202777, THIN CRUST PIZZA, UPC: 795404154441"
Food Group:  Branded Food Products Database
Common Name:

Nutrient,Unit,Data points,Std. Error,"0.333 PIZZA = 146.0g",1Value per 100 g,
Proximates
"Energy",kcal,--,--,291,199
"Protein",g,--,--,12.99,8.90
"Total lipid (fat)",g,--,--,12.00,8.22
"Carbohydrate, by difference",g,--,--,34.00,23.29
"Fiber, total dietary",g,--,--,2.0,1.4
"Sugars, total",g,--,--,2.99,2.05
Minerals
"Calcium, Ca",mg,--,--,250,171
"Iron, Fe",mg,--,--,1.45,0.99
"Sodium, Na",mg,--,--,600,411
Vitamins
"Vitamin C, total ascorbic acid",mg,--,--,12.0,8.2
"Vitamin A, IU",IU,--,--,1336,915
Lipids
"Fatty acids, total saturated",g,--,--,6.001,4.110
"Fatty acids, total trans",g,--,--,0.000,0.000
"Cholesterol",mg,--,--,31,21
Amino Acids
Other
Ingredients
"CRUST: WHEAT FLOUR, WATER, CORN OIL, YEAST, SUGAR, SALT, BAKING POWDER (CREAM OF TARTAR, SODIUM BICARBONATE, CORN STARCH), CHEESE MIX: PART SKIM MILK MOZZARELLA CHEESE (PASTEURIZED MILK, CHEESE CULTURES, SALT, ENZYMES), PARMESAN CHEESE (PASTEURIZED MILK, CHEESE CULTURES, SALT, ENZYMES), ROMANO CHEESE (PASTEURIZED SHEEP'S MILK, CHEESE CULTURES, SALT, ENZYMES AND POWDERED CELLULOSE [ANTI-CAKING AGENT]), BASIL, ROASTED TOMATOES, SAUCE: FRESH VINE-RIPENED CRUSHED TOMATOES, (SEA SALT, NATURALLY DERIVED CITRIC ACID), WATER, SUGAR, SEASONING (DEHYDRATED GARLIC, SPICES, DEHYDRATED ONION), SALT, ROMANO CHEESE (PASTEURIZED SHEEP'S MILK, CHEESE CULTURES, SALT, ENZYMES AND POWDERED CELLULOSE [ANTI-CAKING AGENT]), BASIL, OLIVE OIL, WHITE VINEGAR (MADE FROM SELECT SUN-RIPENED GRAIN), ONION POWDER, WHITE PEPPER, RED PEPPER." Date available: 07/14/2017 Date last updated by company: 07/14/2017
