Source: USDA Branded Food Products Database Release December 2017 Software v.3.8.6.4 2017-10-02
Report Run at: December 18, 2017 15:39 EST
"Nutrient data for: 45183215, THIN SLICED PREMIUM HAM, UPC: 051022605247"
Food Group:  Branded Food Products Database
Common Name:

Nutrient,Unit,Data points,Std. Error,"9.0 OZ: 4.5 = 56.0g",1Value per 100 g,
Proximates
"Energy",kcal,--,--,50,89
"Protein",g,--,--,9.00,16.07
"Total lipid (fat)",g,--,--,1.50,2.68
"Carbohydrate, by difference",g,--,--,1.00,1.79
"Fiber, total dietary",g,--,--,0.0,0.0
"Sugars, total",g,--,--,1.00,1.79
Minerals
"Calcium, Ca",mg,--,--,0,0
"Iron, Fe",mg,--,--,0.35,0.63
"Sodium, Na",mg,--,--,410,732
Vitamins
"Vitamin C, total ascorbic acid",mg,--,--,0.0,0.0
"Vitamin A, IU",IU,--,--,0,0
Lipids
"Fatty acids, total saturated",g,--,--,0.498,0.890
"Fatty acids, total trans",g,--,--,0.000,0.000
"Cholesterol",mg,--,--,20,36
Amino Acids
Other
Ingredients
"CURED WITH WATER, CONTAINS 2% OR LESS OF THE FOLLOWING: DEXTROSE, SALT, POTASSIUM LACTATE, SODIUM PHOSPHATE, SODIUM DIACETATE, FLAVORING (DEXTROSE, NATURAL AND ARTIFICIAL FLAVORS, POLYSORBATE 80), SODIUM ERYTHORBATE, SODIUM NITRITE, FLAVORING." Date available: 07/14/2017 Date last updated by company: 07/14/2017
