Source: USDA Branded Food Products Database Release December 2017 Software v.3.8.6.4 2017-10-02
Report Run at: December 18, 2017 15:32 EST
"Nutrient data for: 45200258, THIN CRUST PIZZA, UPC: 643130101157"
Food Group:  Branded Food Products Database
Common Name:

Nutrient,Unit,Data points,Std. Error,"4.0 ONZ = 113.0g",1Value per 100 g,
Proximates
"Energy",kcal,--,--,250,221
"Protein",g,--,--,15.00,13.27
"Total lipid (fat)",g,--,--,12.00,10.62
"Carbohydrate, by difference",g,--,--,21.00,18.58
"Fiber, total dietary",g,--,--,1.0,0.9
"Sugars, total",g,--,--,0.99,0.88
Minerals
"Calcium, Ca",mg,--,--,400,354
"Iron, Fe",mg,--,--,1.24,1.10
"Sodium, Na",mg,--,--,410,363
Vitamins
"Vitamin C, total ascorbic acid",mg,--,--,8.2,7.3
"Vitamin A, IU",IU,--,--,518,458
Lipids
"Fatty acids, total saturated",g,--,--,6.000,5.310
"Fatty acids, total trans",g,--,--,0.000,0.000
"Cholesterol",mg,--,--,35,31
Amino Acids
Other
Ingredients
"CRUST: (WHEAT FLOUR, WATER, PALM OIL, YEAST, SALT, CALCIUM PROPIONATE, SUGAR, AND L-CYSTEINE). SAUCE: (VINE RIPENED FRESH PEELED GROUND TOMATOES, SALT, CALCIUM CHLORIDE, SPICES (SALT, GARLIC, SPICES, AND BASIL) AND VEGETABLE OIL). MOZZARELLA CHEESE: (PASTEURIZED MILK, CHEESE CULTURES, SALT, ENZYMES). SPICE TOPPING BLEND: PARMESAN CHEESE: (PASTEURIZED MILK, CHEESE CULTURES, SALT, AND ENZYMES), OREGANO." Date available: 07/14/2017 Date last updated by company: 07/14/2017
