Source: USDA Branded Food Products Database Release December 2017 Software v.3.8.6.4 2017-10-02
Report Run at: December 18, 2017 15:48 EST
"Nutrient data for: 45329141, THOUSAND ISLAND DRESSING & SPREAD, UPC: 078728503196"
Food Group:  Branded Food Products Database
Common Name:

Nutrient,Unit,Data points,Std. Error,"2.0 Tbsp = 31.0g",1Value per 100 g,
Proximates
"Energy",kcal,--,--,50,161
"Protein",g,--,--,0.00,0.00
"Total lipid (fat)",g,--,--,2.00,6.45
"Carbohydrate, by difference",g,--,--,7.00,22.58
"Fiber, total dietary",g,--,--,0.0,0.0
"Sugars, total",g,--,--,5.00,16.13
Minerals
"Calcium, Ca",mg,--,--,0,0
"Iron, Fe",mg,--,--,0.00,0.00
"Sodium, Na",mg,--,--,240,774
Vitamins
"Vitamin C, total ascorbic acid",mg,--,--,0.0,0.0
"Vitamin A, IU",IU,--,--,0,0
Lipids
"Fatty acids, total saturated",g,--,--,0.000,0.000
"Fatty acids, total trans",g,--,--,0.000,0.000
"Cholesterol",mg,--,--,5,16
Amino Acids
Other
Ingredients
"TOMATO CONCENTRATE (WATER, TOMATO PASTE), WATER, HIGH FRUCTOSE CORN SYRUP, DISTILLED VINEGAR, CHOPPED PICKLES, SOYBEAN OIL, MODIFIED FOOD STARCH, CORN SYRUP, LESS THAN 2% OF: SALT, NATURAL FLAVORS, EGG YOLKS, BUTTERMILK POWDER, PAPRIKA (COLOR), SODIUM BENZOATE AND POTASSIUM SORBATE (PRESERVATIVES), DEXTROSE, DEHYDRATED ONION, DEHYDRATED GARLIC, PHOSPHORIC ACID, MALTODEXTRIN, POLYSORBATE 60, XANTHAN GUM, ALUM, TURMERIC, TITANIUM DIOXIDE (COLOR), GUAR GUM, SPICES, CALCIUM DISODIUM EDTA (TO PROTECT FLAVOR)." Date available: 10/13/2017 Date last updated by company: 10/13/2017
