Source: USDA Branded Food Products Database Release December 2017 Software v.3.8.6.4 2017-10-02
Report Run at: December 18, 2017 15:50 EST
"Nutrient data for: 45277897, THOUSAND ISLAND SALAD DRESSING, UPC: 075450820140"
Food Group:  Branded Food Products Database
Common Name:

Nutrient,Unit,Data points,Std. Error,"2.0 Tbsp = 31.0g",1Value per 100 g,
Proximates
"Energy",kcal,--,--,80,258
"Protein",g,--,--,0.00,0.00
"Total lipid (fat)",g,--,--,6.00,19.35
"Carbohydrate, by difference",g,--,--,6.00,19.35
"Fiber, total dietary",g,--,--,0.0,0.0
"Sugars, total",g,--,--,6.00,19.35
Minerals
"Calcium, Ca",mg,--,--,0,0
"Iron, Fe",mg,--,--,0.00,0.00
"Sodium, Na",mg,--,--,290,935
Vitamins
"Vitamin C, total ascorbic acid",mg,--,--,0.0,0.0
"Vitamin A, IU",IU,--,--,0,0
Lipids
"Fatty acids, total saturated",g,--,--,1.001,3.230
"Fatty acids, total trans",g,--,--,0.000,0.000
"Cholesterol",mg,--,--,5,16
Amino Acids
Other
Ingredients
"WATER, HIGH FRUCTOSE CORN SYRUP, SOYBEAN OIL, VINEGAR, CUCUMBERS, TOMATO PASTE, SALT, CONTAINS LESS THAN 2% OF: EGG YOLKS, FOOD STARCH-MODIFIED, XANTHAN GUM, DRIED ONION, PHOSPHORIC ACID, POTASSIUM SORBATE AND CALCIUM DISODIUM EDTA AS PRESERVATIVES, POLYSORBATE 60, SPICES, ARTIFICIAL COLOR, DRIED GARLIC, YELLOW 5, RED 40, NATURAL FLAVORS, TURMERIC." Date available: 07/14/2017 Date last updated by company: 07/14/2017
