Source: USDA Branded Food Products Database Release December 2017 Software v.3.8.6.4 2017-10-02
Report Run at: December 18, 2017 15:49 EST
"Nutrient data for: 45195975, THOUSAND ISLAND NON-DAIRY DRESSING, UPC: 043427007627"
Food Group:  Branded Food Products Database
Common Name:

Nutrient,Unit,Data points,Std. Error,"2.0 Tbsp = 29.0g",1Value per 100 g,
Proximates
"Energy",kcal,--,--,35,121
"Protein",g,--,--,0.00,0.00
"Total lipid (fat)",g,--,--,1.00,3.45
"Carbohydrate, by difference",g,--,--,5.00,17.24
"Fiber, total dietary",g,--,--,0.0,0.0
"Sugars, total",g,--,--,0.00,0.00
Minerals
"Calcium, Ca",mg,--,--,0,0
"Iron, Fe",mg,--,--,0.00,0.00
"Sodium, Na",mg,--,--,55,190
Vitamins
"Vitamin C, total ascorbic acid",mg,--,--,0.0,0.0
"Vitamin A, IU",IU,--,--,0,0
Lipids
"Fatty acids, total saturated",g,--,--,0.000,0.000
"Fatty acids, total trans",g,--,--,0.000,0.000
"Cholesterol",mg,--,--,0,0
Amino Acids
Other
Ingredients
"COTTONSEED OIL, WATER, SOUR PICKLE (CUCUMBER, VINEGAR, SALT, WATER, PICKLING SPICE), DISTILLED VINEGAR, TOMATO PASTE, SALT, SPICES, DEHYDRATED ONION, XANTHAN GUM, CALCIUM DISODIUM EDTA (ADDED TO PROTECT FLAVOR), NATURAL FLAVOR, SUCRALOSE, POTASSIUM SORBATE AND SODIUM BENZOATE (ADDED TO ENHANCE FRESHNESS)" Date available: 07/14/2017 Date last updated by company: 07/14/2017
