Source: USDA Branded Food Products Database Release December 2017 Software v.3.8.6.4 2017-10-02
Report Run at: December 18, 2017 16:06 EST
"Nutrient data for: 45144947, THREE SAINTS BAKING CO, CINNAMON PECAN CRESCENT, UPC: 012265003191"
Food Group:  Branded Food Products Database
Common Name:

Nutrient,Unit,Data points,Std. Error,"2.5 COOKIES = 30.0g",1Value per 100 g,
Proximates
"Energy",kcal,--,--,150,500
"Protein",g,--,--,1.00,3.33
"Total lipid (fat)",g,--,--,9.00,30.00
"Carbohydrate, by difference",g,--,--,16.00,53.33
"Fiber, total dietary",g,--,--,0.0,0.0
"Sugars, total",g,--,--,7.00,23.33
Minerals
"Calcium, Ca",mg,--,--,0,0
"Iron, Fe",mg,--,--,1.20,4.00
"Sodium, Na",mg,--,--,55,183
Vitamins
"Vitamin C, total ascorbic acid",mg,--,--,0.0,0.0
"Vitamin A, IU",IU,--,--,0,0
Lipids
"Fatty acids, total saturated",g,--,--,2.001,6.670
"Fatty acids, total trans",g,--,--,2.001,6.670
"Cholesterol",mg,--,--,0,0
Amino Acids
Other
Ingredients
"ENRICHED BLEACHED WHEAT FLOUR (WHEAT FLOUR, NIACIN, REDUCED IRON, THIAMINE MONONITRATE, RIBOFLAVIN AND FOLIC ACID), VEGETABLE SHORTENING (HYDROGENATED SOYBEAN AND COTTONSEED OILS), SUGAR, POWDERED SUGAR (DEXTROSE, CORN STARCH, PARTIALLY HYDROGENATED VEGETABLE OIL [SOY OR COTTONSEED OILS], TITANIUM DIOXIDE, RICE FLOUR, HYDROGENATED COTTONSEED OIL, ARTIFICIAL FLAVORS), PECANS, WATER, NATURAL AND ARTIFICIAL FLAVORS), (MILK), SALT, SODIUM BICARBONATE" Date available: 07/14/2017 Date last updated by company: 07/14/2017
