Source: USDA Branded Food Products Database Release December 2017 Software v.3.8.6.4 2017-10-02
Report Run at: December 18, 2017 16:01 EST
"Nutrient data for: 45240924, THREE CHEESE ZITI, UPC: 030099119710"
Food Group:  Branded Food Products Database
Common Name:

Nutrient,Unit,Data points,Std. Error,"1 MEAL = 240.0g",1Value per 100 g,
Proximates
"Energy",kcal,--,--,259,108
"Protein",g,--,--,10.01,4.17
"Total lipid (fat)",g,--,--,6.00,2.50
"Carbohydrate, by difference",g,--,--,42.00,17.50
"Fiber, total dietary",g,--,--,5.0,2.1
"Sugars, total",g,--,--,7.01,2.92
Minerals
"Calcium, Ca",mg,--,--,149,62
"Iron, Fe",mg,--,--,1.80,0.75
"Phosphorus, P",mg,--,--,199,83
"Potassium, K",mg,--,--,470,196
"Sodium, Na",mg,--,--,401,167
Vitamins
"Vitamin C, total ascorbic acid",mg,--,--,6.0,2.5
"Vitamin A, IU",IU,--,--,499,208
Lipids
"Fatty acids, total saturated",g,--,--,2.496,1.040
"Fatty acids, total trans",g,--,--,0.000,0.000
"Cholesterol",mg,--,--,10,4
Amino Acids
Other
Ingredients
"CHEESE SAUCE BLEND (WATER, TOMATO PASTE [ TOMATOES, WATER, CITRIC ACID], PARMESAN CHEESE [PART-SKIM MILK, CHEESE CULTURE, SALT, ENZYMES]. LESS THAN 2% OF SUGAR, MODIFIED CORN STARCH, SOYBEAN OIL, CRUSHED GARLIC, WORCESTERSHIRE SAUCE[ VINEGAR, MOLASSES, HI" Date available: 09/23/2016 Date last updated by company: 09/23/2016
