Source: USDA Branded Food Products Database Release December 2017 Software v.3.8.6.4 2017-10-02
Report Run at: December 18, 2017 15:52 EST
"Nutrient data for: 45269840, THREE CHEESE STUFFED SHELLS, UPC: 873036000227"
Food Group:  Branded Food Products Database
Common Name:

Nutrient,Unit,Data points,Std. Error,"3.0 SHELLS = 157.0g",1Value per 100 g,
Proximates
"Energy",kcal,--,--,225,143
"Protein",g,--,--,14.00,8.92
"Total lipid (fat)",g,--,--,13.00,8.28
"Carbohydrate, by difference",g,--,--,14.00,8.92
"Fiber, total dietary",g,--,--,0.9,0.6
"Sugars, total",g,--,--,1.99,1.27
Minerals
"Calcium, Ca",mg,--,--,330,210
"Iron, Fe",mg,--,--,2.06,1.31
"Sodium, Na",mg,--,--,203,129
Vitamins
"Vitamin C, total ascorbic acid",mg,--,--,1.4,0.9
"Vitamin A, IU",IU,--,--,802,511
Lipids
"Fatty acids, total saturated",g,--,--,8.007,5.100
"Fatty acids, total trans",g,--,--,0.000,0.000
"Cholesterol",mg,--,--,85,54
Amino Acids
Other
Ingredients
"DOUGH: DURUM SEMOLINA (WITH NIACIN, FERROUS SULFATE, THIAMINE MONONITRATE, RIBOFLAVIN, FOLIC ACID), FILLING: RICOTTA (PASTEURIZED WHOLE MILK, SKIM MILK, SALT), WATER, ROMANO CHEESE (SHEEP'S MILK, CULTURE, SALT), MOZZARELLA CHEESE (PASTEURIZED WHOLE MILK, CULTURES, SALT, VINEGAR, ENZYMES), WHOLE EGGS, ORGANIC PARSLEY, CITRIC ACID, SEA SALT AND BLACK PEPPER." Date available: 07/14/2017 Date last updated by company: 07/14/2017
