Source: USDA Branded Food Products Database Release December 2017 Software v.3.8.6.4 2017-10-02
Report Run at: December 18, 2017 15:50 EST
"Nutrient data for: 45111908, THREE BAKERS, RYE STYLE WHOLE GRAIN BREAD, UPC: 817350010012"
Food Group:  Branded Food Products Database
Common Name:

Nutrient,Unit,Data points,Std. Error,"2.0 SLICES = 68.0g",1Value per 100 g,
Proximates
"Energy",kcal,--,--,140,206
"Protein",g,--,--,2.00,2.94
"Total lipid (fat)",g,--,--,2.50,3.68
"Carbohydrate, by difference",g,--,--,31.00,45.59
"Fiber, total dietary",g,--,--,5.0,7.4
"Sugars, total",g,--,--,3.00,4.41
Minerals
"Calcium, Ca",mg,--,--,40,59
"Iron, Fe",mg,--,--,0.53,0.78
"Sodium, Na",mg,--,--,230,338
Vitamins
"Vitamin C, total ascorbic acid",mg,--,--,0.0,0.0
"Vitamin A, IU",IU,--,--,0,0
Lipids
"Fatty acids, total saturated",g,--,--,0.000,0.000
"Fatty acids, total trans",g,--,--,0.000,0.000
"Cholesterol",mg,--,--,0,0
Amino Acids
Other
Ingredients
"WATER, WHOLE GRAIN BROWN RICE FLOUR, TAPIOCA STARCH, CORN STARCH, EGGS, CORN DEXTRIN, SUGAR, NON-GMO CANOLA OIL, POTATO FLOUR, HONEY, BAKING POWDER, YEAST, RICE BRAN, XANTHAN GUM, GLUTEN FREE NATURAL FLAVORS, SALT, VINEGAR, CARAWAY SEEDS, ENZYMES (CALCIUM SULFATE & ENZYMES)." Date available: 07/14/2017 Date last updated by company: 07/14/2017
