Source: USDA Branded Food Products Database Release December 2017 Software v.3.8.6.4 2017-10-02
Report Run at: December 18, 2017 16:05 EST
"Nutrient data for: 45282434, THREE MEAT PIZZA, UPC: 092825093640"
Food Group:  Branded Food Products Database
Common Name:

Nutrient,Unit,Data points,Std. Error,"0.16 PIZZA = 144.0g",1Value per 100 g,
Proximates
"Energy",kcal,--,--,360,250
"Protein",g,--,--,14.00,9.72
"Total lipid (fat)",g,--,--,14.00,9.72
"Carbohydrate, by difference",g,--,--,43.00,29.86
"Fiber, total dietary",g,--,--,2.0,1.4
"Sugars, total",g,--,--,5.00,3.47
Minerals
"Calcium, Ca",mg,--,--,150,104
"Iron, Fe",mg,--,--,3.66,2.54
"Sodium, Na",mg,--,--,801,556
Vitamins
"Vitamin C, total ascorbic acid",mg,--,--,4.9,3.4
"Vitamin A, IU",IU,--,--,406,282
Lipids
"Fatty acids, total saturated",g,--,--,4.997,3.470
"Fatty acids, total trans",g,--,--,0.000,0.000
"Cholesterol",mg,--,--,30,21
Amino Acids
Other
Ingredients
"CRUST (ENRICHED FLOUR [WHEAT FLOUR, NIACIN, REDUCED IRON, THIAMIN MONONITRATE, RIBOFLAVIN, FOLIC ACID], WATER, SOYBEAN OIL, SUGAR, YEAST, 2% OR LESS: LEAVENING [SODIUM BICARBONATE, SODIUM ALUMINUM PHOSPHATE], SALT, CORN MEAL SOY LECITHIN [PROCESSING AID]), CHEESES (LOW-MOISTURE PART-SKIM MOZZARELLA CHEESE [PASTEURIZED MILK, CHEESE CULTURES, SALT, ENZYMES], PARMESAN CHEESE [PASTEURIZED COW'S MILK, CHEESE CULTURES, SALT, ENZYMES], RAMANO CHEESE [PASTEURIZED COW'S MILK, CHEESE CULTURES, SALT, ENZYMES], ASIAGO CHEESE [PASTEURIZED MILK, CHEESE CULTURES, SALT, ENZYMES]), SAUCE (WATER, TOMATOES, SUGAR, SALT, SPICES, ONION POWDER, XANTHAN GUM, GARLIC POWDER), ITALIAN SAUSAGE (PORK, WATER, SPICES, SALT, CORN SYRUP SOLIDS, PAPRIKA, NATURAL FLAVORING, SUGAR), PEPPERONI (PORK, BEEF, SALT, LESS THAN 2% OF: SPICES, DEXTROSE, LACTIC ACID STARTER CULTURE, OLEORESIN OF PAPRIKA, SODIUM ASCORBATE, FLAVORING, SODIUM NITRITE, BHA, BHT, CITRIC ACID), GROUND BEEF (BEEF, SALT, HYDROLYZED SOY, CORN PROTEIN, SUGAR, DEHYDRATED GARLIC POWDER, DEHYDRATED ONION, SPICES, HYDROLYZED SOY, CORN, WHEAT PROTEIN)." Date available: 07/14/2017 Date last updated by company: 07/14/2017
