Source: USDA Branded Food Products Database Release December 2017 Software v.3.8.6.4 2017-10-02
Report Run at: December 18, 2017 16:09 EST
"Nutrient data for: 45264398, TICKLED PINK COOKIE ICING, UPC: 071169233752"
Food Group:  Branded Food Products Database
Common Name:

Nutrient,Unit,Data points,Std. Error,"2.0 Tbsp = 35.0g",1Value per 100 g,
Proximates
"Energy",kcal,--,--,120,343
"Protein",g,--,--,0.00,0.00
"Total lipid (fat)",g,--,--,0.00,0.00
"Carbohydrate, by difference",g,--,--,30.00,85.71
"Sugars, total",g,--,--,29.00,82.86
Minerals
"Sodium, Na",mg,--,--,0,0
Vitamins
Lipids
Amino Acids
Other
Ingredients
"SUGAR, WATER, CORN SYRUP, GUM ACACIA, PROPYLENE GLYCOL ALGINATE, XANTHAN GUM, POTASSIUM SORBATE (PRESERVATIVE), NATURAL & ARTIFICIAL FLAVOR, CITRIC ACID, RED 3, RED 40." Date available: 07/14/2017 Date last updated by company: 07/14/2017
