Source: USDA Branded Food Products Database Release December 2017 Software v.3.8.6.4 2017-10-02
Report Run at: December 18, 2017 16:11 EST
"Nutrient data for: 45001856, TIKKA MASALA, UPC: 011110857934"
Food Group:  Branded Food Products Database
Common Name:

Nutrient,Unit,Data points,Std. Error,"0.5 cup = 120.0g",1Value per 100 g,
Proximates
"Energy",kcal,--,--,140,117
"Protein",g,--,--,2.00,1.67
"Total lipid (fat)",g,--,--,10.00,8.33
"Carbohydrate, by difference",g,--,--,12.00,10.00
"Fiber, total dietary",g,--,--,2.0,1.7
"Sugars, total",g,--,--,8.00,6.67
Minerals
"Calcium, Ca",mg,--,--,40,33
"Iron, Fe",mg,--,--,0.54,0.45
"Sodium, Na",mg,--,--,620,517
Vitamins
"Vitamin C, total ascorbic acid",mg,--,--,2.4,2.0
"Vitamin A, IU",IU,--,--,200,167
Lipids
"Fatty acids, total saturated",g,--,--,6.000,5.000
"Fatty acids, total trans",g,--,--,0.000,0.000
"Cholesterol",mg,--,--,20,17
Amino Acids
Other
Ingredients
"TOMATO PUREE (WATER, TOMATO PASTE), HEAVY CREAM, TOMATOES, COCONUT CREME (COCONUT EXTRACT, WATER, GUM), SUGAR, ONIONS, NATURAL YOGURT FLAVOR (NATURAL FLAVOR, WHEY, MALTODEXTRIN), SOYBEAN OIL, SALT, GINGER PUREE, CORN STARCH, GARAM MASALA SPICE, GARLIC, GARLIC POWDER, LEMON JUICE CONCENTRATE, GINGER POWDER, ONION POWDER, CORIANDER, CILANTRO, PAPRIKA EXTRACT (SOY LECITHIN), CAYENNE PEPPERS, XANTHAN GUM." Date available: 08/16/2017 Date last updated by company: 08/16/2017
