Source: USDA Branded Food Products Database Release December 2017 Software v.3.8.6.4 2017-10-02
Report Run at: December 18, 2017 16:13 EST
"Nutrient data for: 45196699, TILAPIA PARMESAN CRUSTED, UPC: 041220934430"
Food Group:  Branded Food Products Database
Common Name:

Nutrient,Unit,Data points,Std. Error,"1 FILLET = 142.0g",1Value per 100 g,
Proximates
"Energy",kcal,--,--,290,204
"Protein",g,--,--,19.99,14.08
"Total lipid (fat)",g,--,--,16.00,11.27
"Carbohydrate, by difference",g,--,--,16.00,11.27
"Fiber, total dietary",g,--,--,4.0,2.8
"Sugars, total",g,--,--,3.00,2.11
Minerals
"Calcium, Ca",mg,--,--,60,42
"Iron, Fe",mg,--,--,0.43,0.30
"Potassium, K",mg,--,--,410,289
"Sodium, Na",mg,--,--,790,556
Vitamins
"Vitamin C, total ascorbic acid",mg,--,--,0.0,0.0
"Vitamin A, IU",IU,--,--,0,0
Lipids
"Fatty acids, total saturated",g,--,--,2.499,1.760
"Fatty acids, total trans",g,--,--,0.000,0.000
"Cholesterol",mg,--,--,26,18
Amino Acids
Other
Ingredients
"TILAPIA, BLEACHED WHEAT FLOUR, YELLOW CORN FLOUR, WHITE CORN FLOUR, PARMESAN AND ROMANO CHEESE (PASTEURIZED COW'S MILK, CHEESE CULTURE, SALT, ENZYMES), MODIFIED CORN STARCH, SALT, SUGAR, MALTODEXTRIN, GARLIC POWDER, EGG WHITES, WHEY, LEAVENING (SODIUM ACID PYROPHOSPHATE, SODIUM BICARBONATE, CORN STARCH, MONOCALCIUM PHOSPHATE), OLIVE OIL, PARTIALLY HYDROGENATED SOYBEAN AND COTTONSEED OIL, PALM OIL, TOMATO POWDER, DEHYDRATED PARSLEY, ONION POWDER, DISODIUM INOSINATE, DISODIUM GUANYLATE, YEAST EXTRACT, SPICES, SOY SAUCE (WHEAT, SOYBEANS, SALT). CITRIC ACID, ENZYME MODIFIED BUTTER OIL, YEAST, MONO AND DIGLYCERIDES, LACTIC ACID, DEHYDRATED BUTTER, SHORTENING POWDER (PARTIALLY HYDROGENATED SOYBEAN OIL, CORN SYRUP SOLIDS, SODIUM CASEINATE), SOY LECITHIN, GUAR GUM, EXTRACTIVES OF ANNATTO AND TURMERIC, PARTIALLY FRIED IN CANOLA OIL." Date available: 07/14/2017 Date last updated by company: 07/14/2017
