Source: USDA Branded Food Products Database Release December 2017 Software v.3.8.6.4 2017-10-02
Report Run at: December 18, 2017 16:16 EST
"Nutrient data for: 45227683, TILLAMOOK, ICE CREAM, COFFEE, ALMOND FUDGE, UPC: 072830070102"
Food Group:  Branded Food Products Database
Common Name:

Nutrient,Unit,Data points,Std. Error,"0.5 cup = 70.0g",1Value per 100 g,
Proximates
"Energy",kcal,--,--,160,229
"Protein",g,--,--,3.00,4.29
"Total lipid (fat)",g,--,--,10.00,14.29
"Carbohydrate, by difference",g,--,--,17.00,24.29
"Fiber, total dietary",g,--,--,0.0,0.0
"Sugars, total",g,--,--,16.00,22.86
Minerals
"Calcium, Ca",mg,--,--,100,143
"Iron, Fe",mg,--,--,0.41,0.58
"Sodium, Na",mg,--,--,45,64
Vitamins
"Vitamin C, total ascorbic acid",mg,--,--,1.3,1.9
"Vitamin A, IU",IU,--,--,337,482
Lipids
"Fatty acids, total saturated",g,--,--,4.998,7.140
"Fatty acids, total trans",g,--,--,0.000,0.000
"Cholesterol",mg,--,--,35,50
Amino Acids
Other
Ingredients
"CREAM, SUGAR, CONDENSED SKIM MILK, WHOLE MILK, CHOCOLATE FUDGE MARBLE (WATER, SUGAR, COCOA [PROCESSED WITH ALKALI], CORN STARCH, NATURAL FLAVOR, SALT), ALMONDS (ALMONDS, SAFFLOWER OIL, SALT), NATURAL COFFEE FLAVOR, NATURAL FLAVORS, EGG YOLKS, TARA GUM, GUAR GUM." Date available: 07/14/2017 Date last updated by company: 07/14/2017
