Source: USDA Branded Food Products Database Release December 2017 Software v.3.8.6.4 2017-10-02
Report Run at: December 18, 2017 16:19 EST
"Nutrient data for: 45014888, TILLAMOOK, TILLABARS, ICE CREAM BARS, LEMONILLA, UPC: 072830020022"
Food Group:  Branded Food Products Database
Common Name:

Nutrient,Unit,Data points,Std. Error,"1 BAR = 75.0g",1Value per 100 g,
Proximates
"Energy",kcal,--,--,230,307
"Protein",g,--,--,2.00,2.67
"Total lipid (fat)",g,--,--,14.00,18.67
"Carbohydrate, by difference",g,--,--,23.00,30.67
"Fiber, total dietary",g,--,--,0.0,0.0
"Sugars, total",g,--,--,18.00,24.00
Minerals
"Calcium, Ca",mg,--,--,80,107
"Iron, Fe",mg,--,--,0.00,0.00
"Sodium, Na",mg,--,--,40,53
Vitamins
"Vitamin C, total ascorbic acid",mg,--,--,1.2,1.6
"Vitamin A, IU",IU,--,--,200,267
Lipids
"Fatty acids, total saturated",g,--,--,9.998,13.330
"Fatty acids, total trans",g,--,--,0.000,0.000
"Cholesterol",mg,--,--,20,27
Amino Acids
Other
Ingredients
"MILK, WHITE CHOCOLATE COATING (SUGAR, COCOA BUTTER, WHOLE MILK POWDER, COCONUT OIL, BUTTER OIL, SOY LECITHIN, SALT, VANILLA), SUGAR, CREAM, CORN SYRUP, MALTODEXTRIN, LEMON JUICE CONCENTRATE, LEMON PEEL, VANILLA EXTRACT, GUAR GUM, XANTHAN GUM, LOCUST BEAN GUM, TURMERIC EXTRACT (COLOR), CITRIC ACID, LEMON OIL." Date available: 07/14/2017 Date last updated by company: 07/14/2017
