Source: USDA Branded Food Products Database Release December 2017 Software v.3.8.6.4 2017-10-02
Report Run at: December 18, 2017 16:19 EST
"Nutrient data for: 45014884, TILLAMOOK, TILLABARS, ICE CREAM BARS, SALTED CARAMEL SWIRL, UPC: 072830020039"
Food Group:  Branded Food Products Database
Common Name:

Nutrient,Unit,Data points,Std. Error,"1 BAR = 75.0g",1Value per 100 g,
Proximates
"Energy",kcal,--,--,250,333
"Protein",g,--,--,3.00,4.00
"Total lipid (fat)",g,--,--,17.00,22.67
"Carbohydrate, by difference",g,--,--,24.00,32.00
"Fiber, total dietary",g,--,--,0.0,0.0
"Sugars, total",g,--,--,17.00,22.67
Minerals
"Calcium, Ca",mg,--,--,100,133
"Iron, Fe",mg,--,--,0.00,0.00
"Sodium, Na",mg,--,--,110,147
Vitamins
"Vitamin C, total ascorbic acid",mg,--,--,1.2,1.6
"Vitamin A, IU",IU,--,--,300,400
Lipids
"Fatty acids, total saturated",g,--,--,11.002,14.670
"Fatty acids, total trans",g,--,--,0.000,0.000
"Cholesterol",mg,--,--,25,33
Amino Acids
Other
Ingredients
"MILK, MILK CHOCOLATE COATING (SUGAR, COCOA BUTTER, MILK SOLIDS, COCONUT OIL, CHOCOLATE LIQUOR, BUTTER OIL, SOY LECITHIN, VANILLA), CREAM, SUGAR, SALTED CARAMEL (CORN SYRUP, SWEETENED CONDENSED WHOLE MILK, SUGAR, WATER, BUTTER [CREAM, SALT], SEA SALT, PECTIN, NATURAL FLAVOR), CORN SYRUP, VANILLA EXTRACT, GUAR GUM, XANTHAN GUM, LOCUST BEAN GUM, NATURAL CARAMEL FLAVOR, CARAMEL (COLOR), ANNATTO (COLOR)." Date available: 07/14/2017 Date last updated by company: 07/14/2017
