Source: USDA Branded Food Products Database Release December 2017 Software v.3.8.6.4 2017-10-02
Report Run at: December 18, 2017 16:20 EST
"Nutrient data for: 45163598, TIME 4 ORGANIC, ORGANIC HOME STYLE CHIPS, BLUE CORN, UPC: 040232067075"
Food Group:  Branded Food Products Database
Common Name:

Nutrient,Unit,Data points,Std. Error,"1 ONZ = 28.35g",1Value per 100 g,
Proximates
"Energy",kcal,--,--,140,494
"Protein",g,--,--,2.00,7.05
"Total lipid (fat)",g,--,--,1.50,5.29
"Carbohydrate, by difference",g,--,--,19.00,67.02
"Fiber, total dietary",g,--,--,2.0,7.1
"Sugars, total",g,--,--,0.00,0.00
Minerals
"Calcium, Ca",mg,--,--,0,0
"Iron, Fe",mg,--,--,0.00,0.00
"Sodium, Na",mg,--,--,115,406
Vitamins
"Vitamin C, total ascorbic acid",mg,--,--,0.0,0.0
"Vitamin A, IU",IU,--,--,0,0
Lipids
"Fatty acids, total saturated",g,--,--,1.763,6.220
"Fatty acids, total trans",g,--,--,0.000,0.000
"Cholesterol",mg,--,--,0,0
Amino Acids
Other
Ingredients
"ORGANIC BLUE CORN, PALM/CANOLA OIL AND SALT BLUE CORN WATER, SOY OIL, SEA SALT." Date available: 10/13/2017 Date last updated by company: 10/13/2017
