Source: USDA Branded Food Products Database Release December 2017 Software v.3.8.6.4 2017-10-02
Report Run at: December 18, 2017 16:21 EST
"Nutrient data for: 45284359, TIN ROOF SUNDAE ICE CREAM, UPC: 021333991179"
Food Group:  Branded Food Products Database
Common Name:

Nutrient,Unit,Data points,Std. Error,"0.5 cup = 65.0g",1Value per 100 g,
Proximates
"Energy",kcal,--,--,140,215
"Protein",g,--,--,2.00,3.08
"Total lipid (fat)",g,--,--,7.00,10.77
"Carbohydrate, by difference",g,--,--,18.00,27.69
"Fiber, total dietary",g,--,--,0.0,0.0
"Sugars, total",g,--,--,12.00,18.46
Minerals
"Calcium, Ca",mg,--,--,80,123
"Iron, Fe",mg,--,--,0.00,0.00
"Potassium, K",mg,--,--,140,215
"Sodium, Na",mg,--,--,80,123
Vitamins
"Vitamin C, total ascorbic acid",mg,--,--,0.0,0.0
"Vitamin A, IU",IU,--,--,225,346
Lipids
"Fatty acids, total saturated",g,--,--,3.998,6.150
"Fatty acids, total trans",g,--,--,0.000,0.000
"Cholesterol",mg,--,--,25,38
Amino Acids
Other
Ingredients
"MILK, CREAM, BUTTERMILK, SKIM MILK, CORN SYRUP, WHEY, FUDGE REVEL (CORN SYRUP, SUGAR, WATER, PALM OIL, CHOCOLATE LIQUOR PROCESSED WITH ALKALI, COCOA PROCESSED WITH ALKALI, PECTIN, MONO & DIGLYCERIDES, POLYSORBATE 80), HIGH FRUCTOSE CORN SYRUP, CHOCOLATE COATED PEANUTS (PEANUTS, SUGAR, COCONUT OIL, COCOA POWDER, CHOCOLATE LIQUOR, SALT, SOY LECITHIN, NATURAL VANILLA POWDER), SUGAR, CONTAINS 2% OR LESS OF MONO & DIGLYCERIDES, GUAR GUM, SODIUM PHOSPHATE, CELLULOSE GUM, SODIUM CITRATE, POLYSORBATE 80, CARRAGEENAN, VANILLA EXTRACT, ARTIFICIAL FLAVOR, ANNATTO FOR COLOR." Date available: 07/14/2017 Date last updated by company: 07/14/2017
