Source: USDA Branded Food Products Database Release December 2017 Software v.3.8.6.4 2017-10-02
Report Run at: December 18, 2017 16:22 EST
"Nutrient data for: 45329653, TINY JELLY EGGS, UPC: 076500082822"
Food Group:  Branded Food Products Database
Common Name:

Nutrient,Unit,Data points,Std. Error,"26.0 PIECES = 40.0g",1Value per 100 g,
Proximates
"Energy",kcal,--,--,140,350
"Protein",g,--,--,0.00,0.00
"Total lipid (fat)",g,--,--,0.00,0.00
"Carbohydrate, by difference",g,--,--,36.00,90.00
"Sugars, total",g,--,--,32.00,80.00
Minerals
"Sodium, Na",mg,--,--,0,0
Vitamins
Lipids
Amino Acids
Other
Ingredients
"SUGAR, CORN SYRUP, CORN STARCH, MODIFIED CORN STARCH, NATURAL AND ARTIFICIAL FLAVORS, MALTODEXTRIN, CONFECTIONER'S GLAZE, CARNAUBA WAX, BEESWAX, ARTIFICIAL COLORS INCLUDING (YELLOW 5, YELLOW 6, RED 40, BLUE 1, RED 3)." Date available: 10/13/2017 Date last updated by company: 10/13/2017
