Source: USDA Branded Food Products Database Release December 2017 Software v.3.8.6.4 2017-10-02
Report Run at: December 18, 2017 16:24 EST
"Nutrient data for: 45185491, TJ FARMS, ONION RINGS, UPC: 755440005657"
Food Group:  Branded Food Products Database
Common Name:

Nutrient,Unit,Data points,Std. Error,"5.0 RINGS = 70.0g",1Value per 100 g,
Proximates
"Energy",kcal,--,--,150,214
"Protein",g,--,--,2.00,2.86
"Total lipid (fat)",g,--,--,7.00,10.00
"Carbohydrate, by difference",g,--,--,22.00,31.43
"Fiber, total dietary",g,--,--,2.0,2.9
"Sugars, total",g,--,--,2.00,2.86
Minerals
"Calcium, Ca",mg,--,--,40,57
"Iron, Fe",mg,--,--,0.88,1.25
"Sodium, Na",mg,--,--,310,443
Vitamins
"Vitamin C, total ascorbic acid",mg,--,--,0.0,0.0
"Vitamin A, IU",IU,--,--,0,0
Lipids
"Fatty acids, total saturated",g,--,--,1.001,1.430
"Fatty acids, total monounsaturated",g,--,--,4.970,7.100
"Fatty acids, total polyunsaturated",g,--,--,2.359,3.370
"Fatty acids, total trans",g,--,--,0.000,0.000
"Cholesterol",mg,--,--,0,0
Amino Acids
Other
Ingredients
"FRESH CHOPPED ONION, BLEACHED WHEAT FLOUR, WATER, CORN STARCH, SOYBEAN OIL, YELLOW CORN FLOUR, SALT, MODIFIED FOOD STARCH, SODIUM ALGINATE, DEXTROSE, SUGAR, POTATO STARCH, CALCIUM CHLORIDE, PAPRIKA, PALM OIL, LEAVENING (SODIUM ACID, PYROPHOSPHATE, SODIUM BICARBONATE), NON FAT DRY MILK, SPICES (INCLUDING MUSTARD), GUAR GUM, WHEY, PAPRIKA EXTRACTS, SPICES EXTRACT, MONOGLYCERIDES, DIGLYCERIDES." Date available: 08/10/2017 Date last updated by company: 08/10/2017
