Source: USDA Branded Food Products Database Release December 2017 Software v.3.8.6.4 2017-10-02
Report Run at: December 18, 2017 17:27 EST
"Nutrient data for: 45041614, TOASTED WHITE BREAD, UPC: 074323091038"
Food Group:  Branded Food Products Database
Common Name:

Nutrient,Unit,Data points,Std. Error,"2.0 SLICES = 30.0g",1Value per 100 g,
Proximates
"Energy",kcal,--,--,120,400
"Protein",g,--,--,3.00,10.00
"Total lipid (fat)",g,--,--,2.00,6.67
"Carbohydrate, by difference",g,--,--,22.00,73.33
"Fiber, total dietary",g,--,--,0.0,0.0
"Sugars, total",g,--,--,4.00,13.33
Minerals
"Calcium, Ca",mg,--,--,20,67
"Iron, Fe",mg,--,--,1.80,6.00
"Sodium, Na",mg,--,--,170,567
"Zinc, Zn",mg,--,--,0.90,3.00
Vitamins
"Vitamin C, total ascorbic acid",mg,--,--,0.0,0.0
"Thiamin",mg,--,--,0.300,1.000
"Riboflavin",mg,--,--,0.068,0.227
"Niacin",mg,--,--,2.000,6.667
"Vitamin A, IU",IU,--,--,0,0
Lipids
"Fatty acids, total saturated",g,--,--,0.501,1.670
"Fatty acids, total monounsaturated",g,--,--,0.999,3.330
"Fatty acids, total polyunsaturated",g,--,--,0.501,1.670
"Fatty acids, total trans",g,--,--,0.000,0.000
"Cholesterol",mg,--,--,0,0
Amino Acids
Other
Ingredients
"WHEAT FLOUR, HIGH FRUCTOSE CORN SYRUP, PALM AND CANOLA OIL, WATER, YEAST, WHEAT GLUTEN, IODIZED SALT, MONOCALCIUM PHOSPHATE, AMMONIUM CHLORIDE, DATEM, ENZYMES, COTTONSEED OIL, THIAMIN MONONITRATE, RIBOFLAVIN, NIACIN, FERROUS FUMARATE, TBHQ (ANTIOXIDANT), SOY LECITHIN, FOLIC ACID, FERROUS SULFATE, ZINC OXIDE." Date available: 07/14/2017 Date last updated by company: 07/14/2017
