Source: USDA Branded Food Products Database Release December 2017 Software v.3.8.6.4 2017-10-02
Report Run at: December 18, 2017 16:53 EST
"Nutrient data for: 45296426, TOASTED ONION DIP MIX, UPC: 015500183764"
Food Group:  Branded Food Products Database
Common Name:

Nutrient,Unit,Data points,Std. Error,"0.75 tsp = 1.8g",1Value per 100 g,
Proximates
"Energy",kcal,--,--,5,278
"Protein",g,--,--,0.00,0.00
"Total lipid (fat)",g,--,--,0.00,0.00
"Carbohydrate, by difference",g,--,--,1.00,55.56
"Sugars, total",g,--,--,0.00,0.00
Minerals
"Sodium, Na",mg,--,--,140,7778
Vitamins
Lipids
"Fatty acids, total trans",g,--,--,0.000,0.000
Amino Acids
Other
Ingredients
"TOASTED ONION, SALT, SUGAR, GUAR GUM, CARAMEL COLOR, MONOSODIUM GLUTAMATE, PARTIALLY HYDROGENATED SOYBEAN AND COTTON- SEED OIL, AND TRICALCIUM PHOSPHATE (AS ANTICAKING AGENT)." Date available: 07/14/2017 Date last updated by company: 07/14/2017
