Source: USDA Branded Food Products Database Release December 2017 Software v.3.8.6.4 2017-10-02
Report Run at: December 18, 2017 17:32 EST
"Nutrient data for: 45211219, TOASTY CRACKERS, UPC: 076410901206"
Food Group:  Branded Food Products Database
Common Name:

Nutrient,Unit,Data points,Std. Error,"4.0 CRACKERS = 24.3g",1Value per 100 g,
Proximates
"Energy",kcal,--,--,120,494
"Protein",g,--,--,3.00,12.35
"Total lipid (fat)",g,--,--,6.00,24.69
"Carbohydrate, by difference",g,--,--,14.00,57.61
"Fiber, total dietary",g,--,--,1.0,4.1
"Sugars, total",g,--,--,2.00,8.23
Minerals
"Calcium, Ca",mg,--,--,20,82
"Iron, Fe",mg,--,--,2.22,9.15
"Sodium, Na",mg,--,--,120,494
Vitamins
"Vitamin C, total ascorbic acid",mg,--,--,0.0,0.0
"Vitamin A, IU",IU,--,--,0,0
Lipids
"Fatty acids, total saturated",g,--,--,1.499,6.170
"Fatty acids, total monounsaturated",g,--,--,2.500,10.290
"Fatty acids, total polyunsaturated",g,--,--,2.000,8.230
"Fatty acids, total trans",g,--,--,0.000,0.000
"Cholesterol",mg,--,--,0,0
Amino Acids
Other
Ingredients
"ENRICHED FLOUR (WHEAT FLOUR, NIACIN, REDUCED IRON, THIAMINE MONONITRATE, RIBOFLAVIN, FOLIC ACID), PEANUTS, VEGETABLE OIL (CONTAINS ONE OR MORE OF THE FOLLOWING: CANOLA OIL, CORN OIL, PALM OIL, SOYBEAN OIL), DEXTROSE, SUGAR, LEAVENING (SODIUM BICARBONATE, AMMONIUM BICARBONATE, MONOCALCIUM PHOSPHATE), CORN SYRUP, SALT, SOY LECITHIN (EMULSIFIER)." Date available: 07/14/2017 Date last updated by company: 07/14/2017
