Source: USDA Branded Food Products Database Release December 2017 Software v.3.8.6.4 2017-10-02
Report Run at: December 18, 2017 16:36 EST
"Nutrient data for: 45325929, TOASTED MUESLI, UPC: 854995003436"
Food Group:  Branded Food Products Database
Common Name:

Nutrient,Unit,Data points,Std. Error,"0.667 cup = 64.0g",1Value per 100 g,
Proximates
"Energy",kcal,--,--,240,375
"Protein",g,--,--,7.00,10.94
"Total lipid (fat)",g,--,--,8.00,12.50
"Carbohydrate, by difference",g,--,--,31.00,48.44
"Fiber, total dietary",g,--,--,16.0,25.0
"Sugars, total",g,--,--,9.00,14.06
Minerals
"Calcium, Ca",mg,--,--,24,38
"Iron, Fe",mg,--,--,1.70,2.66
"Potassium, K",mg,--,--,211,330
"Sodium, Na",mg,--,--,10,16
Vitamins
"Vitamin D",IU,--,--,0,0
Lipids
"Fatty acids, total saturated",g,--,--,0.902,1.410
"Fatty acids, total trans",g,--,--,0.000,0.000
"Cholesterol",mg,--,--,0,0
Amino Acids
Other
Ingredients
"WHOLE GRAIN ROLLED BARLEY FLAKES[caret] (56%), WHOLE GRAIN ROLLED OATS (15%), MAPLE SYRUP (6%), ALMONDS (5%), BROWN RICE SYRUP, COCONUT, SUGAR, SUNFLOWER SEEDS, HAZELNUTS (2%), INULIN SYRUP, NATURAL FLAVOR, INULIN POWDER, PECANS (0.3%), D-GAMMA-TOCOPHEROL (PRESERVATIVE), D-DELTA-TOCOPHEROL (PRESERVATIVE), D-ALPHA-TOCOPHEROL (PRESERVATIVE), D-BETA-TOCOPHEROL (PRESERVATIVE)." Date available: 10/18/2017 Date last updated by company: 10/18/2017
