Source: USDA Branded Food Products Database Release December 2017 Software v.3.8.6.4 2017-10-02
Report Run at: December 18, 2017 17:32 EST
"Nutrient data for: 45319800, TOBLERONE, SWEET DARK CHOCOLATE WITH HONEY & ALMOND HOUGAT, UPC: 070221011727"
Food Group:  Branded Food Products Database
Common Name:

Nutrient,Unit,Data points,Std. Error,"0.33 BAR = 33.0g",1Value per 100 g,
Proximates
"Energy",kcal,--,--,180,545
"Protein",g,--,--,2.00,6.06
"Total lipid (fat)",g,--,--,10.00,30.30
"Carbohydrate, by difference",g,--,--,20.00,60.61
"Fiber, total dietary",g,--,--,3.0,9.1
"Sugars, total",g,--,--,15.00,45.45
Minerals
"Calcium, Ca",mg,--,--,0,0
"Iron, Fe",mg,--,--,2.73,8.26
"Sodium, Na",mg,--,--,0,0
Vitamins
"Vitamin C, total ascorbic acid",mg,--,--,0.0,0.0
"Vitamin A, IU",IU,--,--,0,0
Lipids
"Fatty acids, total saturated",g,--,--,5.999,18.180
"Fatty acids, total trans",g,--,--,0.000,0.000
"Cholesterol",mg,--,--,5,15
Amino Acids
Other
Ingredients
"BITTERSWEET CHOCOLATE (CHOCOLATE, SUGAR, MILKFAT, COCOA BUTTER, SOY LECITHIN- AN EMULSIFIER), SUGAR, HONEY, ALMONDS, INVERT SUGAR, EGG WHITES." Date available: 06/25/2017 Date last updated by company: 06/25/2017
