Source: USDA Branded Food Products Database Release December 2017 Software v.3.8.6.4 2017-10-02
Report Run at: December 18, 2017 17:34 EST
"Nutrient data for: 45081727, TOFFEE BARS, UPC: 076197002554"
Food Group:  Branded Food Products Database
Common Name:

Nutrient,Unit,Data points,Std. Error,"1 BAR = 49.0g",1Value per 100 g,
Proximates
"Energy",kcal,--,--,160,327
"Protein",g,--,--,2.00,4.08
"Total lipid (fat)",g,--,--,12.00,24.49
"Carbohydrate, by difference",g,--,--,14.00,28.57
"Fiber, total dietary",g,--,--,0.0,0.0
"Sugars, total",g,--,--,11.00,22.45
Minerals
"Calcium, Ca",mg,--,--,60,122
"Iron, Fe",mg,--,--,0.00,0.00
"Sodium, Na",mg,--,--,40,82
Vitamins
"Vitamin C, total ascorbic acid",mg,--,--,0.0,0.0
"Vitamin A, IU",IU,--,--,100,204
Lipids
"Fatty acids, total saturated",g,--,--,9.001,18.370
"Fatty acids, total trans",g,--,--,0.000,0.000
"Cholesterol",mg,--,--,15,31
Amino Acids
Other
Ingredients
"ICE CREAM: MILKFAT AND NONFAT MILK, CORN SYRUP, SUGAR, WHEY, CONTAINS LESS THAN 2% OF NATURAL AND ARTIFICIAL FLAVORS, PARTIALLY HYDROGENATED SOYBEAN OIL, EVAPORATED MILK (MILK, DIPOTASSIUM PHOSPHATE, CARRAGEENAN, ANNATTO (COLOR), SALT, SOY LECITHIN. COATING: COCONUT OIL, SUGAR, DRY WHOLE MILK, CHOCOLATE LIQUOR, PARTIALLY HYDROGENATED COCONUT OIL, SOY LECITHIN, SALT, ARTIFICIAL FLAVORS. CANDY: SUGAR, CORN SYRUP, PARTIALLY HYDROGENATED SOYBEAN OIL, EVAPORATED MILK (MILK, DIPOTASSIUM PHOSPHATE, CARRAGEENAN, VITAMIN D3), SALT, NATURAL FLAVOR, SOY LECITHIN." Date available: 07/14/2017 Date last updated by company: 07/14/2017
