Source: USDA Branded Food Products Database Release December 2017 Software v.3.8.6.4 2017-10-02
Report Run at: December 18, 2017 17:38 EST
"Nutrient data for: 45206368, TOFU YU, SOY SUSHI, UPC: 898437002441"
Food Group:  Branded Food Products Database
Common Name:

Nutrient,Unit,Data points,Std. Error,"226.0 GRM = 226.0g",1Value per 100 g,
Proximates
"Energy",kcal,--,--,219,97
"Protein",g,--,--,24.00,10.62
"Total lipid (fat)",g,--,--,12.99,5.75
"Carbohydrate, by difference",g,--,--,8.00,3.54
"Fiber, total dietary",g,--,--,2.9,1.3
"Sugars, total",g,--,--,1.99,0.88
Minerals
"Calcium, Ca",mg,--,--,499,221
"Iron, Fe",mg,--,--,3.91,1.73
"Sodium, Na",mg,--,--,339,150
Vitamins
"Vitamin C, total ascorbic acid",mg,--,--,2.9,1.3
"Vitamin A, IU",IU,--,--,619,274
Lipids
"Fatty acids, total saturated",g,--,--,2.509,1.110
"Fatty acids, total trans",g,--,--,0.000,0.000
"Cholesterol",mg,--,--,0,0
Amino Acids
Other
Ingredients
"TOFU (ORGANIC SOYBEANS, FILTERED WATER, MAGNESIUM CHLORIDE), ORGANIC SEAWEED, ORGANIC GREEN ONION, ORGANIC CILANTRO, ORGANIC SOY MILK, ORGANIC OLIVE OIL, ORGANIC SESAME SEED, ORGANIC SESAME OIL, SEA SALT." Date available: 07/14/2017 Date last updated by company: 07/14/2017
