Source: USDA Branded Food Products Database Release December 2017 Software v.3.8.6.4 2017-10-02
Report Run at: December 18, 2017 17:38 EST
"Nutrient data for: 45078797, TOFU, UPC: 074326000143"
Food Group:  Branded Food Products Database
Common Name:

Nutrient,Unit,Data points,Std. Error,"3.2 ONZ = 91.0g",1Value per 100 g,
Proximates
"Energy",kcal,--,--,45,49
"Protein",g,--,--,4.00,4.40
"Total lipid (fat)",g,--,--,2.00,2.20
"Carbohydrate, by difference",g,--,--,1.00,1.10
"Fiber, total dietary",g,--,--,0.0,0.0
"Sugars, total",g,--,--,0.00,0.00
Minerals
"Calcium, Ca",mg,--,--,60,66
"Iron, Fe",mg,--,--,0.67,0.74
"Sodium, Na",mg,--,--,15,16
Vitamins
"Vitamin C, total ascorbic acid",mg,--,--,0.0,0.0
"Vitamin A, IU",IU,--,--,0,0
Lipids
"Fatty acids, total saturated",g,--,--,0.000,0.000
"Fatty acids, total monounsaturated",g,--,--,0.501,0.550
"Fatty acids, total polyunsaturated",g,--,--,1.001,1.100
"Fatty acids, total trans",g,--,--,0.000,0.000
"Cholesterol",mg,--,--,0,0
Amino Acids
Other
Ingredients
"WATER, WHOLE SOYBEANS, CALCIUM SULFATE, NIGARI (SEA WATER EXTRACT)" Date available: 07/14/2017 Date last updated by company: 07/14/2017
