Source: USDA Branded Food Products Database Release December 2017 Software v.3.8.6.4 2017-10-02
Report Run at: December 18, 2017 18:06 EST
"Nutrient data for: 45235366, TOM STURGIS ARTISAN, LOW SODIUM PRETZELS, UPC: 070104000039"
Food Group:  Branded Food Products Database
Common Name:

Nutrient,Unit,Data points,Std. Error,"5.0 PERTZELS | ABOUT = 28.0g",1Value per 100 g,
Proximates
"Energy",kcal,--,--,120,429
"Protein",g,--,--,3.00,10.71
"Total lipid (fat)",g,--,--,2.00,7.14
"Carbohydrate, by difference",g,--,--,24.00,85.71
"Fiber, total dietary",g,--,--,2.0,7.1
"Sugars, total",g,--,--,0.00,0.00
Minerals
"Calcium, Ca",mg,--,--,20,71
"Iron, Fe",mg,--,--,1.93,6.88
"Sodium, Na",mg,--,--,40,143
Vitamins
"Vitamin C, total ascorbic acid",mg,--,--,2.2,7.7
"Vitamin A, IU",IU,--,--,179,638
Lipids
"Fatty acids, total saturated",g,--,--,0.501,1.790
"Fatty acids, total trans",g,--,--,0.000,0.000
"Cholesterol",mg,--,--,0,0
Amino Acids
Other
Ingredients
"CHOICE BLENDED WHEAT FLOUR, VEGETABLE SHORTENING (CONTAINS ONE OR MORE OF THE FOLLOWING: CORN, CANOLA, COTTONSEED, SUNFLOWER, SOYBEAN OIL), YEAST, MALT SYRUP, SALT, AND SODA." Date available: 07/14/2017 Date last updated by company: 07/14/2017
