Source: USDA Branded Food Products Database Release December 2017 Software v.3.8.6.4 2017-10-02
Report Run at: December 18, 2017 17:49 EST
"Nutrient data for: 45276834, TOMATO GARLIC & ONION PASTA SAUCE, UPC: 02114060028"
Food Group:  Branded Food Products Database
Common Name:

Nutrient,Unit,Data points,Std. Error,"0.5 cup = 128.0g",1Value per 100 g,
Proximates
"Energy",kcal,--,--,90,70
"Protein",g,--,--,2.00,1.56
"Total lipid (fat)",g,--,--,2.50,1.95
"Carbohydrate, by difference",g,--,--,14.00,10.94
"Fiber, total dietary",g,--,--,2.9,2.3
"Sugars, total",g,--,--,10.00,7.81
Minerals
"Calcium, Ca",mg,--,--,40,31
"Iron, Fe",mg,--,--,1.14,0.89
"Potassium, K",mg,--,--,420,328
"Sodium, Na",mg,--,--,460,359
Vitamins
"Vitamin C, total ascorbic acid",mg,--,--,3.8,3.0
"Vitamin A, IU",IU,--,--,529,413
Lipids
"Fatty acids, total saturated",g,--,--,0.000,0.000
"Fatty acids, total trans",g,--,--,0.000,0.000
"Cholesterol",mg,--,--,0,0
Amino Acids
Other
Ingredients
"TOMATO PUREE (WATER, TOMATO PASTE), DICED TOMATOES IN PUREE, SUGAR, SOYBEAN OIL, SALT, DRIED ONION, GARLIC POWDER, SPICES, CITRIC ACID, PARSLEY, NATURAL FLAVORS." Date available: 07/14/2017 Date last updated by company: 07/14/2017
