Source: USDA Branded Food Products Database Release December 2017 Software v.3.8.6.4 2017-10-02
Report Run at: December 18, 2017 17:59 EST
"Nutrient data for: 45276551, TOMATO RED BELL PEPPER, UPC: 074682200270"
Food Group:  Branded Food Products Database
Common Name:

Nutrient,Unit,Data points,Std. Error,"8.0 OZA = 240.0g",1Value per 100 g,
Proximates
"Energy",kcal,--,--,46,19
"Protein",g,--,--,1.99,0.83
"Total lipid (fat)",g,--,--,0.00,0.00
"Carbohydrate, by difference",g,--,--,10.01,4.17
"Fiber, total dietary",g,--,--,1.9,0.8
"Sugars, total",g,--,--,7.99,3.33
Minerals
"Calcium, Ca",mg,--,--,19,8
"Iron, Fe",mg,--,--,1.08,0.45
"Potassium, K",mg,--,--,521,217
"Sodium, Na",mg,--,--,641,267
Vitamins
"Vitamin C, total ascorbic acid",mg,--,--,14.9,6.2
"Vitamin A, IU",IU,--,--,1001,417
Lipids
"Fatty acids, total saturated",g,--,--,0.000,0.000
"Fatty acids, total trans",g,--,--,0.000,0.000
"Cholesterol",mg,--,--,0,0
Amino Acids
Other
Ingredients
"FILTERED WATER, ORGANIC TOMATO PASTE, ORGANIC RED BELL PEPPER PUREE, SALT, ORGANIC LEMON JUICE CONCENTRATE." Date available: 07/14/2017 Date last updated by company: 07/14/2017
