Source: USDA Branded Food Products Database Release December 2017 Software v.3.8.6.4 2017-10-02
Report Run at: December 18, 2017 17:45 EST
"Nutrient data for: 45316593, TOMATOES DICED WITH JALAPENOS IN RICH JUICE, UPC: 011194370893"
Food Group:  Branded Food Products Database
Common Name:

Nutrient,Unit,Data points,Std. Error,"0.5 cup = 126.0g",1Value per 100 g,
Proximates
"Energy",kcal,--,--,30,24
"Protein",g,--,--,1.00,0.79
"Total lipid (fat)",g,--,--,0.00,0.00
"Carbohydrate, by difference",g,--,--,7.01,5.56
"Fiber, total dietary",g,--,--,2.0,1.6
"Sugars, total",g,--,--,3.99,3.17
Minerals
"Calcium, Ca",mg,--,--,20,16
"Iron, Fe",mg,--,--,0.74,0.59
"Sodium, Na",mg,--,--,381,302
Vitamins
"Vitamin C, total ascorbic acid",mg,--,--,9.3,7.4
"Vitamin A, IU",IU,--,--,774,614
Lipids
"Fatty acids, total saturated",g,--,--,0.000,0.000
"Fatty acids, total trans",g,--,--,0.000,0.000
"Cholesterol",mg,--,--,0,0
Amino Acids
Other
Ingredients
"TOMATOES, TOMATO JUICE, TOMATO PUREE, JALAPENO PEPPERS, SALT, CITRIC ACID, CALCIUM CHLORIDE, NATURAL FLAVOR, DRIED ONION, SPICES, DRIED GARLIC." Date available: 07/14/2017 Date last updated by company: 07/14/2017
