Source: USDA Branded Food Products Database Release December 2017 Software v.3.8.6.4 2017-10-02
Report Run at: December 18, 2017 17:43 EST
"Nutrient data for: 45333385, TOMATO BASIL SOUP, UPC: 078742233093"
Food Group:  Branded Food Products Database
Common Name:

Nutrient,Unit,Data points,Std. Error,"1 cup = 245.0g",1Value per 100 g,
Proximates
"Energy",kcal,--,--,270,110
"Protein",g,--,--,5.00,2.04
"Total lipid (fat)",g,--,--,17.00,6.94
"Carbohydrate, by difference",g,--,--,24.99,10.20
"Fiber, total dietary",g,--,--,9.1,3.7
"Sugars, total",g,--,--,13.99,5.71
Minerals
"Calcium, Ca",mg,--,--,96,39
"Iron, Fe",mg,--,--,2.99,1.22
"Potassium, K",mg,--,--,953,389
"Sodium, Na",mg,--,--,1149,469
Vitamins
"Vitamin D",IU,--,--,0,0
Lipids
"Fatty acids, total saturated",g,--,--,8.011,3.270
"Fatty acids, total trans",g,--,--,0.000,0.000
"Cholesterol",mg,--,--,39,16
Amino Acids
Other
Ingredients
"TOMATO PUREE (TOMATO PUREE, CITRIC ACID), WATER, HEAVY CREAM (PASTEURIZED MILK, CREAM), TOMATO IN JUICE (TOMATO, TOMATO JUICE, CITRIC ACID, CALCIUM CHLORIDE), TOMATO PASTE, BUTTER (CREAM, NATURAL FLAVORING), HONEY FLAVORED GRANULES (SUGAR, HONEY), VEGETABLE STOCK (ONION, CELERY, CARROT, WATER, GARLIC, SEA SALT, PAPRIKA, EXTRA VIRGIN OLIVE OIL, THYME, BLACK PEPPER, TURMERIC, GREEN PEAS, PARSLEY), ONION, KOSHER SALT, SEASONINGS (SUGAR, BASIL, CITRIC ACID, KOSHER SALT, WHITE PEPPER)." Date available: 10/13/2017 Date last updated by company: 10/13/2017
