Source: USDA Branded Food Products Database Release December 2017 Software v.3.8.6.4 2017-10-02
Report Run at: December 18, 2017 17:45 EST
"Nutrient data for: 45229793, TOMATO CONDENSED SOUP, UPC: 07078425211"
Food Group:  Branded Food Products Database
Common Name:

Nutrient,Unit,Data points,Std. Error,"0.5 cup = 123.0g",1Value per 100 g,
Proximates
"Energy",kcal,--,--,90,73
"Protein",g,--,--,2.00,1.63
"Total lipid (fat)",g,--,--,0.00,0.00
"Carbohydrate, by difference",g,--,--,21.00,17.07
"Fiber, total dietary",g,--,--,1.0,0.8
"Sugars, total",g,--,--,12.00,9.76
Minerals
"Calcium, Ca",mg,--,--,0,0
"Iron, Fe",mg,--,--,1.44,1.17
"Sodium, Na",mg,--,--,419,341
Vitamins
"Vitamin C, total ascorbic acid",mg,--,--,119.6,97.2
"Vitamin A, IU",IU,--,--,598,486
Lipids
"Fatty acids, total saturated",g,--,--,0.000,0.000
"Fatty acids, total trans",g,--,--,0.000,0.000
"Cholesterol",mg,--,--,0,0
Amino Acids
Other
Ingredients
"TOMATO PUREE (WATER, TOMATO PASTE), HIGH FRUCTOSE CORN SYRUP, WHEAT FLOUR, WATER, CONTAINS LESS THAN 2% OF SALT, POTASSIUM CHLORIDE, CITRIC ACID, ASCORBIC ACID, NATURAL FLAVOR." Date available: 07/14/2017 Date last updated by company: 07/14/2017
