Source: USDA Branded Food Products Database Release December 2017 Software v.3.8.6.4 2017-10-02
Report Run at: December 18, 2017 18:01 EST
"Nutrient data for: 45195839, TOMATO SAUCE, UPC: 041735082695"
Food Group:  Branded Food Products Database
Common Name:

Nutrient,Unit,Data points,Std. Error,"0.5 cup = 123.0g",1Value per 100 g,
Proximates
"Energy",kcal,--,--,90,73
"Protein",g,--,--,3.00,2.44
"Total lipid (fat)",g,--,--,2.50,2.03
"Carbohydrate, by difference",g,--,--,15.01,12.20
"Fiber, total dietary",g,--,--,3.0,2.4
"Sugars, total",g,--,--,6.00,4.88
Minerals
"Calcium, Ca",mg,--,--,60,49
"Iron, Fe",mg,--,--,0.53,0.43
"Sodium, Na",mg,--,--,339,276
Vitamins
"Vitamin C, total ascorbic acid",mg,--,--,11.7,9.5
"Vitamin A, IU",IU,--,--,488,397
Lipids
"Fatty acids, total saturated",g,--,--,0.000,0.000
"Fatty acids, total trans",g,--,--,0.000,0.000
"Cholesterol",mg,--,--,0,0
Amino Acids
Other
Ingredients
"WHOLE TOMATOES, CRUSHED TOMATOES, WATER,. PURE OLIVE OIL, FRESH ROASTED GARLIC, FRESH ONIONS, SPICE MIX, CITRIC ACID (AN ACIDIFIER)." Date available: 10/13/2017 Date last updated by company: 10/13/2017
