Source: USDA Branded Food Products Database Release December 2017 Software v.3.8.6.4 2017-10-02
Report Run at: December 18, 2017 17:52 EST
"Nutrient data for: 45049862, TOMATO KETCHUP, UPC: 811371011898"
Food Group:  Branded Food Products Database
Common Name:

Nutrient,Unit,Data points,Std. Error,"1 Tbsp = 17.0g",1Value per 100 g,
Proximates
"Energy",kcal,--,--,20,118
"Protein",g,--,--,0.00,0.00
"Total lipid (fat)",g,--,--,0.00,0.00
"Carbohydrate, by difference",g,--,--,5.00,29.41
"Sugars, total",g,--,--,4.00,23.53
Minerals
"Sodium, Na",mg,--,--,160,941
Vitamins
Lipids
Amino Acids
Other
Ingredients
"TOMATO CONCENTRATE, HIGH FRUCTOSE CORN SYRUP, VINEGAR, CORN SYRUP, SALT, ONION POWDER, SPICE, NATURAL FLAVORS." Date available: 08/11/2017 Date last updated by company: 08/11/2017
