Source: USDA Branded Food Products Database Release December 2017 Software v.3.8.6.4 2017-10-02
Report Run at: December 18, 2017 17:53 EST
"Nutrient data for: 45222338, TOMATO KETCHUP, UPC: 5051379077709"
Food Group:  Branded Food Products Database
Common Name:

Nutrient,Unit,Data points,Std. Error,"1 Tbsp = 17.0g",1Value per 100 g,
Proximates
"Energy",kcal,--,--,15,88
"Protein",g,--,--,0.00,0.00
"Total lipid (fat)",g,--,--,0.00,0.00
"Carbohydrate, by difference",g,--,--,3.00,17.65
"Sugars, total",g,--,--,3.00,17.65
Minerals
"Sodium, Na",mg,--,--,130,765
Vitamins
Lipids
Amino Acids
Other
Ingredients
"TOMATO CONCENTRATE, VINEGAR, SUCROSE, SALT, ONION POWDER, SPICES, STEVIA, NATURAL FLAVORS." Date available: 07/14/2017 Date last updated by company: 07/14/2017
