Source: USDA Branded Food Products Database Release December 2017 Software v.3.8.6.4 2017-10-02
Report Run at: December 18, 2017 17:51 EST
"Nutrient data for: 45078572, TOMATO KETCHUP, UPC: 725439300346"
Food Group:  Branded Food Products Database
Common Name:

Nutrient,Unit,Data points,Std. Error,"1 Tbsp = 17.0g",1Value per 100 g,
Proximates
"Energy",kcal,--,--,20,118
"Protein",g,--,--,0.00,0.00
"Total lipid (fat)",g,--,--,0.00,0.00
"Carbohydrate, by difference",g,--,--,5.00,29.41
"Fiber, total dietary",g,--,--,0.0,0.0
"Sugars, total",g,--,--,4.00,23.53
Minerals
"Calcium, Ca",mg,--,--,0,0
"Iron, Fe",mg,--,--,0.00,0.00
"Potassium, K",mg,--,--,35,206
"Sodium, Na",mg,--,--,160,941
Vitamins
"Vitamin C, total ascorbic acid",mg,--,--,4.1,23.9
"Vitamin A, IU",IU,--,--,338,1988
Lipids
"Fatty acids, total saturated",g,--,--,0.000,0.000
"Fatty acids, total trans",g,--,--,0.000,0.000
"Cholesterol",mg,--,--,0,0
Amino Acids
Other
Ingredients
"TOMATO CONCENTRATE, HIGH FRUCTOSE CORN SYRUP, DISTILLED VINEGAR, CORN SYRUP, SALT, LESS THAN 2% OF: SPICE, ONION POWDER, NATURAL FLAVORS." Date available: 07/14/2017 Date last updated by company: 07/14/2017
