Source: USDA Branded Food Products Database Release December 2017 Software v.3.8.6.4 2017-10-02
Report Run at: December 18, 2017 17:44 EST
"Nutrient data for: 45204378, TOMATO BOMB, UPC: 887334000063"
Food Group:  Branded Food Products Database
Common Name:

Nutrient,Unit,Data points,Std. Error,"1 Tbsp = 15.0g",1Value per 100 g,
Proximates
"Energy",kcal,--,--,22,147
"Protein",g,--,--,0.50,3.33
"Total lipid (fat)",g,--,--,0.80,5.33
"Carbohydrate, by difference",g,--,--,2.70,18.00
"Fiber, total dietary",g,--,--,0.8,5.3
"Sugars, total",g,--,--,2.40,16.00
Minerals
"Calcium, Ca",mg,--,--,8,53
"Iron, Fe",mg,--,--,0.84,5.60
"Sodium, Na",mg,--,--,83,551
Vitamins
"Vitamin C, total ascorbic acid",mg,--,--,14.0,93.3
"Vitamin A, IU",IU,--,--,1167,7777
Lipids
"Fatty acids, total saturated",g,--,--,0.000,0.000
"Fatty acids, total trans",g,--,--,0.000,0.000
"Cholesterol",mg,--,--,1,6
Amino Acids
Other
Ingredients
"TRIPLE CONCENTRATE, TOMATO PASTE, RED WINE, MIXED VEGETABLE (CARROT, CELERY, ONION), SUNFLOWER OIL, COOKED GRAPE MUST, HERBS, SPICES, SALT, RAW CANE SUGAR." Date available: 07/14/2017 Date last updated by company: 07/14/2017
