Source: USDA Branded Food Products Database Release December 2017 Software v.3.8.6.4 2017-10-02
Report Run at: December 18, 2017 17:42 EST
"Nutrient data for: 45318133, TOMATO & BASIL PIZZA VEGGIE BURGERS, UPC: 028989100702"
Food Group:  Branded Food Products Database
Common Name:

Nutrient,Unit,Data points,Std. Error,"1 BURGER = 67.0g",1Value per 100 g,
Proximates
"Energy",kcal,--,--,110,164
"Protein",g,--,--,10.00,14.93
"Total lipid (fat)",g,--,--,6.00,8.96
"Carbohydrate, by difference",g,--,--,9.00,13.43
"Fiber, total dietary",g,--,--,6.0,9.0
"Sugars, total",g,--,--,2.00,2.99
Minerals
"Calcium, Ca",mg,--,--,100,149
"Iron, Fe",mg,--,--,1.37,2.04
"Potassium, K",mg,--,--,250,373
"Sodium, Na",mg,--,--,280,418
Vitamins
"Vitamin C, total ascorbic acid",mg,--,--,0.0,0.0
"Vitamin A, IU",IU,--,--,0,0
Lipids
"Fatty acids, total saturated",g,--,--,1.501,2.240
"Fatty acids, total monounsaturated",g,--,--,1.501,2.240
"Fatty acids, total polyunsaturated",g,--,--,2.003,2.990
"Fatty acids, total trans",g,--,--,0.000,0.000
"Cholesterol",mg,--,--,5,7
Amino Acids
Other
Ingredients
"WATER, ONION, MUSHROOMS, SOY FLOUR, TOMATO PASTE (TOMATOES, SALT, CITRIC ACID), CORN OIL, MOZZARELLA CHEESE (PASTEURIZED PART-SKIM MILK, CULTURES, SALT, ENZYMES), PROVOLONE CHEESE (PASTEURIZED PART SKIM MILK, CULTURES, SALT, ENZYMES), EGG WHITES, SOY PROTEIN CONCENTRATE, RED BELL PEPPERS, TOMATO FLAKES, CONTAINS TWO PERCENT OR LESS OF WHEAT GLUTEN, POTATO STARCH, METHYLCELLULOSE, AUTOLYZED YEAST EXTRACT, CHEDDAR CHEESE POWDER (CHEDDAR CHEESE [MILK, CHEESE CULTURES, SALT, ENZYMES], WHEY, BUTTERMILK SOLIDS, SALT, DISODIUM PHOSPHATE), GARLIC (GARLIC, WATER), SPICES, NATURAL AND ARTIFICIAL FLAVORS, SOYBEAN OIL, MODIFIED CORN STARCH WITH CORN SYRUP SOLIDS, LACTIC ACID, SALT, ONION POWDER, BASIL, CANOLA OIL, PAPRIKA (COLOR), GARLIC POWDER, HYDROLYZED SOY PROTEIN, SOY LECITHIN, CITRIC ACID, TORULA YEAST, CARAMEL COLOR, BARLEY MALT FLOUR, DEXTROSE, PAPRIKA EXTRACT (COLOR)." Date available: 09/09/2017 Date last updated by company: 09/09/2017
