Source: USDA Branded Food Products Database Release December 2017 Software v.3.8.6.4 2017-10-02
Report Run at: December 18, 2017 17:41 EST
"Nutrient data for: 45201274, TOMATO AND BASIL SAUCE, UPC: 760229005506"
Food Group:  Branded Food Products Database
Common Name:

Nutrient,Unit,Data points,Std. Error,"0.5 cup = 120.0g",1Value per 100 g,
Proximates
"Energy",kcal,--,--,60,50
"Protein",g,--,--,1.00,0.83
"Total lipid (fat)",g,--,--,3.00,2.50
"Carbohydrate, by difference",g,--,--,7.00,5.83
"Fiber, total dietary",g,--,--,1.0,0.8
"Sugars, total",g,--,--,4.00,3.33
Minerals
"Calcium, Ca",mg,--,--,0,0
"Iron, Fe",mg,--,--,0.18,0.15
"Sodium, Na",mg,--,--,380,317
Vitamins
"Vitamin C, total ascorbic acid",mg,--,--,0.0,0.0
"Vitamin A, IU",IU,--,--,500,417
Lipids
"Fatty acids, total saturated",g,--,--,0.504,0.420
"Fatty acids, total trans",g,--,--,0.000,0.000
"Cholesterol",mg,--,--,0,0
Amino Acids
Other
Ingredients
"DICED TOMATOES, TOMATO PUREE (WATER, TOMATO PASTE), OLIVE OIL, BASIL, ONIONS, SALT, GARLIC, SEASONINGS, SPICES." Date available: 07/14/2017 Date last updated by company: 07/14/2017
