Source: USDA Branded Food Products Database Release December 2017 Software v.3.8.6.4 2017-10-02
Report Run at: December 18, 2017 18:09 EST
"Nutrient data for: 45160569, TOO GOOD GOURMET, MEXICAN WEDDING COOKIES, UPC: 659422092256"
Food Group:  Branded Food Products Database
Common Name:

Nutrient,Unit,Data points,Std. Error,"1 ONZ = 28.0g",1Value per 100 g,
Proximates
"Energy",kcal,--,--,140,500
"Protein",g,--,--,1.00,3.57
"Total lipid (fat)",g,--,--,8.00,28.57
"Carbohydrate, by difference",g,--,--,16.00,57.14
"Fiber, total dietary",g,--,--,0.0,0.0
"Sugars, total",g,--,--,6.00,21.43
Minerals
"Calcium, Ca",mg,--,--,0,0
"Iron, Fe",mg,--,--,1.29,4.59
"Sodium, Na",mg,--,--,10,36
Vitamins
"Vitamin C, total ascorbic acid",mg,--,--,0.0,0.0
"Vitamin A, IU",IU,--,--,0,0
Lipids
"Fatty acids, total saturated",g,--,--,6.000,21.430
"Fatty acids, total trans",g,--,--,0.000,0.000
"Cholesterol",mg,--,--,0,0
Amino Acids
Other
Ingredients
"ENRICHED WHEAT FLOUR (WHEAT, MALTED BARLEY FLOUR, NIACIN, REDUCED IRON, THIAMINE MONONITRATE, RIBOFLAVIN, FOLIC ACID), PALM OIL, COATING SUGAR (DEXTROSE, MODIFIED CORN STARCH, PARTIALLY HYDROGENATED SOYBEAN AND/OR COTTONSEED OIL, ARTIFICIAL COLOR, CALCIUM PROPIONATE [PRESERVATIVE], ARTIFICIAL FLAVOR), SUGAR, BUTTER (CREAM [MILK]), ALMOND MEAL, NATURAL FLAVORS, SALT." Date available: 07/14/2017 Date last updated by company: 07/14/2017
