Source: USDA Branded Food Products Database Release December 2017 Software v.3.8.6.4 2017-10-02
Report Run at: December 18, 2017 18:09 EST
"Nutrient data for: 45160578, TOO GOOD GOURMET, CHOCOLATE CREME SANDWICH COOKIES, UPC: 659422312620"
Food Group:  Branded Food Products Database
Common Name:

Nutrient,Unit,Data points,Std. Error,"1 ONZ = 28.0g",1Value per 100 g,
Proximates
"Energy",kcal,--,--,140,500
"Protein",g,--,--,1.00,3.57
"Total lipid (fat)",g,--,--,8.00,28.57
"Carbohydrate, by difference",g,--,--,18.00,64.29
"Fiber, total dietary",g,--,--,1.0,3.6
"Sugars, total",g,--,--,14.00,50.00
Minerals
"Calcium, Ca",mg,--,--,0,0
"Iron, Fe",mg,--,--,0.72,2.57
"Sodium, Na",mg,--,--,55,196
Vitamins
"Vitamin C, total ascorbic acid",mg,--,--,0.0,0.0
"Vitamin A, IU",IU,--,--,0,0
Lipids
"Fatty acids, total saturated",g,--,--,6.000,21.430
"Fatty acids, total trans",g,--,--,0.000,0.000
"Cholesterol",mg,--,--,0,0
Amino Acids
Other
Ingredients
"CHOCOLATE CREME FILLED COOKIES (ENRICHED FLOUR (WHEAT FLOUR, NIACIN, REDUCED IRON, THIAMINE MONONITRATE [VITAMIN B1], RIBOFLAVIN [VITAMIN B2], FOLIC ACID), SUGAR, INTERESTERIFIED SOYBEAN OIL, DEXTROSE, HIGH FRUCTOSE CORN SYRUP, CARAMEL COLOR, CONTAINS TWO PERCENT OR LESS OF COCOA (PROCESSED WITH ALKALI), SALT, SODIUM BICARBONATE, SOY LECITHIN, CORN STARCH, NATURAL FLAVOR), DARK COATING (SUGAR, FRACTIONATED PALM KERNEL OIL, COCOA POWDER [PROCESSED WITH ALKALI], SOY LECITHIN, NONFAT MILK POWDER, VANILLA)" Date available: 09/30/2016 Date last updated by company: 09/30/2016
