Source: USDA Branded Food Products Database Release December 2017 Software v.3.8.6.4 2017-10-02
Report Run at: December 18, 2017 18:12 EST
"Nutrient data for: 45094513, TOOTSIE ROLL, POPS, POPS FILLED WITH CHEWY TOOTSIE ROLL, CHERRY, UPC: 071720047729"
Food Group:  Branded Food Products Database
Common Name:

Nutrient,Unit,Data points,Std. Error,"1 POP = 17.0g",1Value per 100 g,
Proximates
"Energy",kcal,--,--,60,353
"Protein",g,--,--,0.00,0.00
"Total lipid (fat)",g,--,--,0.00,0.00
"Carbohydrate, by difference",g,--,--,15.00,88.24
"Sugars, total",g,--,--,10.00,58.82
Minerals
"Sodium, Na",mg,--,--,0,0
Vitamins
Lipids
Amino Acids
Other
Ingredients
"SUGAR, CORN SYRUP, PALM OIL*, CITRIC ACID (MAY CONTAIN MALIC ACID), CONDENSED SKIM MILK, COCOA, WHEY, ARTIFICIAL AND NATURAL FLAVORS, SOY LECITHIN, ARTIFICIAL COLORS (INCLUDING FD&C RED 40, YELLOW 5, BLUE 1), STRAWBERRY POWDER." Date available: 07/14/2017 Date last updated by company: 07/14/2017
