Source: USDA Branded Food Products Database Release December 2017 Software v.3.8.6.4 2017-10-02
Report Run at: December 18, 2017 18:17 EST
"Nutrient data for: 45176599, TOPS, FRENCH VANILLA ALMOND GRANOLA, UPC: 07078450265"
Food Group:  Branded Food Products Database
Common Name:

Nutrient,Unit,Data points,Std. Error,"0.5 cup = 55.0g",1Value per 100 g,
Proximates
"Energy",kcal,--,--,250,455
"Protein",g,--,--,5.00,9.09
"Total lipid (fat)",g,--,--,8.00,14.55
"Carbohydrate, by difference",g,--,--,40.00,72.73
"Fiber, total dietary",g,--,--,3.0,5.5
"Sugars, total",g,--,--,15.00,27.27
Minerals
"Calcium, Ca",mg,--,--,20,36
"Iron, Fe",mg,--,--,1.44,2.62
"Sodium, Na",mg,--,--,60,109
Vitamins
"Vitamin C, total ascorbic acid",mg,--,--,0.0,0.0
"Vitamin A, IU",IU,--,--,0,0
Lipids
"Fatty acids, total saturated",g,--,--,1.001,1.820
"Fatty acids, total trans",g,--,--,0.000,0.000
"Cholesterol",mg,--,--,0,0
Amino Acids
Other
Ingredients
"WHOLE ROLLED OATS, MILLED CANE SUGAR, VEGETABLE OIL (CANOLA AND/OR SAFFLOWER AND/OR SUNFLOWER OIL), RICE FLOUR, CORN STARCH, ALMONDS, HONEY, SALT, NATURAL FLAVOR, BARLEY MALT SYRUP, CARDAMOM SEED, FENNEL SEED, FENUGREEK SEED, NUTMEG." Date available: 07/14/2017 Date last updated by company: 07/14/2017
