Source: USDA Branded Food Products Database Release December 2017 Software v.3.8.6.4 2017-10-02
Report Run at: December 18, 2017 18:18 EST
"Nutrient data for: 45154849, TOPS, JUJU PUMPKINS CANDY, UPC: 023637429815"
Food Group:  Branded Food Products Database
Common Name:

Nutrient,Unit,Data points,Std. Error,"6.0 PCS = 37.0g",1Value per 100 g,
Proximates
"Energy",kcal,--,--,130,351
"Protein",g,--,--,0.00,0.00
"Total lipid (fat)",g,--,--,0.00,0.00
"Carbohydrate, by difference",g,--,--,32.00,86.49
"Fiber, total dietary",g,--,--,0.0,0.0
"Sugars, total",g,--,--,19.00,51.35
Minerals
"Calcium, Ca",mg,--,--,0,0
"Iron, Fe",mg,--,--,0.00,0.00
"Sodium, Na",mg,--,--,20,54
Vitamins
"Vitamin C, total ascorbic acid",mg,--,--,0.0,0.0
"Vitamin A, IU",IU,--,--,0,0
Lipids
"Fatty acids, total saturated",g,--,--,0.000,0.000
"Fatty acids, total trans",g,--,--,0.000,0.000
"Cholesterol",mg,--,--,0,0
Amino Acids
Other
Ingredients
"CORN SYRUP, SUGAR, MODIFIED FOOD STARCH, NATURAL AND ARTIFICIAL FLAVORS, SODIUM CITRATE, CITRIC ACID, MINERAL OIL, CARNAUBA WAX, ARTIFICIAL COLORS (FD&C YELLOW #6, RED # 40, BLUE 1, YELLOW # 5, RED #3)." Date available: 07/14/2017 Date last updated by company: 07/14/2017
