Source: USDA Branded Food Products Database Release December 2017 Software v.3.8.6.4 2017-10-02
Report Run at: December 18, 2017 18:18 EST
"Nutrient data for: 45152160, TOPS, JUICE CONCENTRATE, LEMONADE, UPC: 070784058528"
Food Group:  Branded Food Products Database
Common Name:

Nutrient,Unit,Data points,Std. Error,"3.0 Tbsp = 45.0g",1Value per 100 g,
Proximates
"Energy",kcal,--,--,110,244
"Protein",g,--,--,0.00,0.00
"Total lipid (fat)",g,--,--,0.00,0.00
"Carbohydrate, by difference",g,--,--,29.00,64.44
"Sugars, total",g,--,--,27.00,60.00
Minerals
"Sodium, Na",mg,--,--,0,0
Vitamins
"Vitamin C, total ascorbic acid",mg,--,--,9.0,20.0
Lipids
"Fatty acids, total saturated",g,--,--,0.000,0.000
"Fatty acids, total trans",g,--,--,0.000,0.000
Amino Acids
Other
Ingredients
"HIGH FRUCTOSE CORN SYRUP, WATER, CONCENTRATED LEMON JUICE, LEMON PULP, SUGAR SYRUP, LEMON OIL." Date available: 07/14/2017 Date last updated by company: 07/14/2017
