Source: USDA Branded Food Products Database Release December 2017 Software v.3.8.6.4 2017-10-02
Report Run at: December 18, 2017 18:23 EST
"Nutrient data for: 45156304, TOPS, TROLLI GUMMI OCTOPUS, UPC: 070784506876"
Food Group:  Branded Food Products Database
Common Name:

Nutrient,Unit,Data points,Std. Error,"3.0 PCS = 37.0g",1Value per 100 g,
Proximates
"Energy",kcal,--,--,120,324
"Protein",g,--,--,1.00,2.70
"Total lipid (fat)",g,--,--,0.00,0.00
"Carbohydrate, by difference",g,--,--,28.00,75.68
"Fiber, total dietary",g,--,--,0.0,0.0
"Sugars, total",g,--,--,23.00,62.16
Minerals
"Calcium, Ca",mg,--,--,0,0
"Iron, Fe",mg,--,--,0.00,0.00
"Sodium, Na",mg,--,--,35,95
Vitamins
"Vitamin C, total ascorbic acid",mg,--,--,0.0,0.0
"Vitamin A, IU",IU,--,--,0,0
Lipids
"Fatty acids, total saturated",g,--,--,0.000,0.000
"Fatty acids, total trans",g,--,--,0.000,0.000
"Cholesterol",mg,--,--,0,0
Amino Acids
Other
Ingredients
"CORN SYRUP, SUGAR, GELATIN, SORBITOL, LACTIC ACID, CITRIC ACID, FUMARIC ACID, SODIUM LACTATE, CALCIUM LACTATE, TITANIUM DIOXIDE COLOR, NATURAL AND ARTIFICIAL FLAVOR, YELLOW #5, RED #40, YELLOW #6, BLUE #1." Date available: 07/14/2017 Date last updated by company: 07/14/2017
