Source: USDA Branded Food Products Database Release December 2017 Software v.3.8.6.4 2017-10-02
Report Run at: December 18, 2017 18:24 EST
"Nutrient data for: 45242334, TORANI, CLASSIC SYRUP, HAZELNUT, UPC: 089036442008"
Food Group:  Branded Food Products Database
Common Name:

Nutrient,Unit,Data points,Std. Error,"1 FL OZ = 30.0g",1Value per 100 g,
Proximates
"Energy",kcal,--,--,0,0
"Protein",g,--,--,0.00,0.00
"Total lipid (fat)",g,--,--,0.00,0.00
"Carbohydrate, by difference",g,--,--,0.00,0.00
"Sugars, total",g,--,--,0.00,0.00
Minerals
"Sodium, Na",mg,--,--,10,33
Vitamins
Lipids
Amino Acids
Other
Ingredients
"PURIFIED WATER, NATURAL AND ARTIFICIAL FLAVORS, CITRIC ACID, ACESULFAME POTASSIUM, SODIUM BENZOATE (TO PRESERVE FRESHNESS), POTASSIUM SORBATE (TO PRESERVE FRESHNESS), XANTHAN GUM, SUCRALOSE (SPLENDA BRAND), CARAMEL COLOR, CONTAINS HAZELNUT AND PEANUT ALLERGENS." Date available: 06/25/2017 Date last updated by company: 06/25/2017
