Source: USDA Branded Food Products Database Release December 2017 Software v.3.8.6.4 2017-10-02
Report Run at: December 18, 2017 18:24 EST
"Nutrient data for: 45242335, TORANI, CLASSIC FLAVORING SYRUP, HAZELNUT, UPC: 089036422000"
Food Group:  Branded Food Products Database
Common Name:

Nutrient,Unit,Data points,Std. Error,"1 FL.OZ = 30.0g",1Value per 100 g,
Proximates
"Energy",kcal,--,--,80,267
"Protein",g,--,--,0.00,0.00
"Total lipid (fat)",g,--,--,0.00,0.00
"Carbohydrate, by difference",g,--,--,19.00,63.33
"Sugars, total",g,--,--,19.00,63.33
Minerals
"Sodium, Na",mg,--,--,0,0
Vitamins
Lipids
Amino Acids
Other
Ingredients
"PURE CANE SUGAR, WATER, NUTURAL AND ARTIFICIAL FLAVORS, CITRIC ACID SODIUM, BENZOATE AND POTASSIUM SORBATE (TO PRESERVE FRESHNESS), CARAMEL COLOR, CONTAINS HAZELNUT AND PEANUT ALLERGENS." Date available: 06/25/2017 Date last updated by company: 06/25/2017
