Source: USDA Branded Food Products Database Release December 2017 Software v.3.8.6.4 2017-10-02
Report Run at: December 18, 2017 18:24 EST
"Nutrient data for: 45137083, TORANI, WHITE CHOCOLATE SAUCE, AUTHENTIC COFFEEHOUSE, UPC: 089036781008"
Food Group:  Branded Food Products Database
Common Name:

Nutrient,Unit,Data points,Std. Error,"30.0 ML) | ( = 1.0g",1Value per 100 g,
Proximates
"Energy",kcal,--,--,3,333
"Protein",g,--,--,0.03,3.33
"Total lipid (fat)",g,--,--,0.02,1.67
"Carbohydrate, by difference",g,--,--,0.80,80.00
"Sugars, total",g,--,--,0.80,80.00
Minerals
"Calcium, Ca",mg,--,--,2,200
"Sodium, Na",mg,--,--,2,250
Vitamins
Lipids
"Fatty acids, total trans",g,--,--,0.000,0.000
"Cholesterol",mg,--,--,0,0
Amino Acids
Other
Ingredients
"SUGAR, WATER, SWEETENED CONDENSED SKIM MILK, NONFAT MILK, COCOA BUTTER, NATURAL FLAVOR, SALT, MONO- AND DIGLYCERIDES, POTASSIUM SORBATE (TO PRESERVE FRESHNESS), SOY LECITHIN, CARRAGEENAN GUM." Date available: 10/11/2017 Date last updated by company: 10/11/2017
