Source: USDA Branded Food Products Database Release December 2017 Software v.3.8.6.4 2017-10-02
Report Run at: December 18, 2017 18:27 EST
"Nutrient data for: 45175562, TORN & GLASSER, VERY BERRY BLEND, UPC: 072488987104"
Food Group:  Branded Food Products Database
Common Name:

Nutrient,Unit,Data points,Std. Error,"0.25 cup = 40.0g",1Value per 100 g,
Proximates
"Energy",kcal,--,--,140,350
"Protein",g,--,--,0.00,0.00
"Total lipid (fat)",g,--,--,0.50,1.25
"Carbohydrate, by difference",g,--,--,32.00,80.00
"Fiber, total dietary",g,--,--,2.0,5.0
"Sugars, total",g,--,--,24.00,60.00
Minerals
"Calcium, Ca",mg,--,--,20,50
"Iron, Fe",mg,--,--,0.72,1.80
"Sodium, Na",mg,--,--,5,12
Vitamins
"Vitamin C, total ascorbic acid",mg,--,--,0.0,0.0
"Vitamin A, IU",IU,--,--,0,0
Lipids
"Fatty acids, total saturated",g,--,--,0.000,0.000
"Fatty acids, total trans",g,--,--,0.000,0.000
"Cholesterol",mg,--,--,0,0
Amino Acids
Other
Ingredients
"CRANBERRIES (CRANBERRIES, SUGAR, SUNFLOWER OIL), GOLDEN RAISINS (RAISINS, SULFUR DIOXIDE [ADDED AS A COLOR PRESERVATIVE]), TART RED CHERRIES (CHERRIES, CANE SUGAR, SUNFLOWER OIL)." Date available: 07/14/2017 Date last updated by company: 07/14/2017
