Source: USDA Branded Food Products Database Release December 2017 Software v.3.8.6.4 2017-10-02
Report Run at: December 18, 2017 18:27 EST
"Nutrient data for: 45109884, TORTELLINI ALFREDO, UPC: 717854105941"
Food Group:  Branded Food Products Database
Common Name:

Nutrient,Unit,Data points,Std. Error,"1 PACKAGE = 213.0g",1Value per 100 g,
Proximates
"Energy",kcal,--,--,249,117
"Protein",g,--,--,9.01,4.23
"Total lipid (fat)",g,--,--,11.99,5.63
"Carbohydrate, by difference",g,--,--,25.01,11.74
"Fiber, total dietary",g,--,--,1.9,0.9
"Sugars, total",g,--,--,4.00,1.88
Minerals
"Calcium, Ca",mg,--,--,200,94
"Iron, Fe",mg,--,--,1.32,0.62
"Sodium, Na",mg,--,--,1110,521
Vitamins
"Vitamin C, total ascorbic acid",mg,--,--,8.3,3.9
"Vitamin A, IU",IU,--,--,366,172
Lipids
"Fatty acids, total saturated",g,--,--,7.008,3.290
"Fatty acids, total trans",g,--,--,0.000,0.000
"Cholesterol",mg,--,--,45,21
Amino Acids
Other
Ingredients
"CHEESE TORTELLINI (WATER, DOUGH [ENRICHED SEMOLINA FLOUR {SEMOLINA FLOUR [NIACIN, FERROUS SULFATE, THIAMINE MONONITRATE, RIBOFLAVIN, FOLIC ACID]}, WATER], FILLING [RICOTTA CHEESE {WHEY, PASTEURIZED WHOLE MILK, SKIM MILK, VINEGAR, SALT}, PARMESAN CHEESE {PART SKIM MILK, CHEESE CULTURE, SALT, ENZYMES}, ROMANO CHEESE {PASTEURIZED SHEEP'S MILK, CHEESE CULTURES, SALT, ENZYMES}, CRACKER MEAL {ENRICHED WHEAT FLOUR [NIACIN, FERROUS SULFATE, THIAMINE MONONITRATE, RIBOFLAVIN, FOLIC ACID], SOYBEAN OIL}, GARLIC POWDER, SALT, PARSLEY, SPICES]), HALF AND HALF (MILK, CREAM), BROCCOLI, WATER, LOW MOISTURE PART SKIM MOZZARELLA CHEESE (CHEESE [CULTURED PASTEURIZED PART SKIM MILK, SALT, ENZYMES], MODIFIED FOOD STARCH), LESS THAN 2% OF PARMESAN CHEESE (PASTEURIZED PART-SKIM MILK, CHEESE CULTURES, SALT, ENZYMES), MODIFIED FOOD STARCH, SALT, DISODIUM PHOSPHATE, PARMESAN CHEESE FLAVOR (PARMESAN CHEESE [MILK, STARTER CULTURE, SALT, ENZYMES], WATER, SKIM MILK POWDER, SALT), CANOLA OIL, YEAST EXTRACT, XANTHAN GUM, SPICE." Date available: 07/14/2017 Date last updated by company: 07/14/2017
