Source: USDA Branded Food Products Database Release December 2017 Software v.3.8.6.4 2017-10-02
Report Run at: December 18, 2017 18:32 EST
"Nutrient data for: 45221827, TORTILLA CHIPS, UPC: 815506015416"
Food Group:  Branded Food Products Database
Common Name:

Nutrient,Unit,Data points,Std. Error,"1 PACKAGE = 49.0g",1Value per 100 g,
Proximates
"Energy",kcal,--,--,250,510
"Protein",g,--,--,3.00,6.12
"Total lipid (fat)",g,--,--,11.00,22.45
"Carbohydrate, by difference",g,--,--,34.00,69.39
"Fiber, total dietary",g,--,--,2.0,4.1
"Sugars, total",g,--,--,2.00,4.08
Minerals
"Calcium, Ca",mg,--,--,40,82
"Iron, Fe",mg,--,--,0.73,1.50
"Sodium, Na",mg,--,--,135,276
Vitamins
"Vitamin C, total ascorbic acid",mg,--,--,42.9,87.5
"Vitamin A, IU",IU,--,--,510,1041
Lipids
"Fatty acids, total saturated",g,--,--,1.000,2.040
"Fatty acids, total trans",g,--,--,0.000,0.000
"Cholesterol",mg,--,--,0,0
Amino Acids
Other
Ingredients
"GROUND CORN MASA FLOUR, VEGETABLE OIL, (CONTAINS ONE OR MORE OF THE FOLLOWING: SUNFLOWER, SAFFLOWER, CORN OR CANOLA), VEGETABLE MEDLEY (RED & GREEN BELL PEPPERS, BROCCOLI, TOMATO AND CARROT), TOASTED CORN GERM, SPROUTED ANCIENT WHOLE GRAIN MEDLEY (BUCKWHEAT, SORGHUM, MILLET, AMARANTH, AND QUINOA), DRIED CANE SYRUP, SEA SALT AND A TRACE OF LIME." Date available: 07/14/2017 Date last updated by company: 07/14/2017
