Source: USDA Branded Food Products Database Release December 2017 Software v.3.8.6.4 2017-10-02
Report Run at: December 18, 2017 18:38 EST
"Nutrient data for: 45219330, TORTILLA, UPC: 048564071111"
Food Group:  Branded Food Products Database
Common Name:

Nutrient,Unit,Data points,Std. Error,"1 TORTILLA = 41.0g",1Value per 100 g,
Proximates
"Energy",kcal,--,--,130,317
"Protein",g,--,--,3.00,7.32
"Total lipid (fat)",g,--,--,4.00,9.76
"Carbohydrate, by difference",g,--,--,20.00,48.78
"Fiber, total dietary",g,--,--,1.0,2.4
"Sugars, total",g,--,--,1.00,2.44
Minerals
"Calcium, Ca",mg,--,--,60,146
"Iron, Fe",mg,--,--,2.41,5.89
"Sodium, Na",mg,--,--,160,390
Vitamins
"Vitamin C, total ascorbic acid",mg,--,--,0.0,0.0
"Vitamin A, IU",IU,--,--,0,0
Lipids
"Fatty acids, total saturated",g,--,--,2.001,4.880
"Fatty acids, total monounsaturated",g,--,--,0.500,1.220
"Fatty acids, total polyunsaturated",g,--,--,1.501,3.660
"Fatty acids, total trans",g,--,--,0.000,0.000
"Cholesterol",mg,--,--,0,0
Amino Acids
Other
Ingredients
"ENRICHED BLEACHED WHEAT FLOUR (WHEAT FLOUR, NIACIN, REDUCED IRON, THIAMINE MONONITRATE, RIBOFLAVIN, FOLIC ACID), WATER, VEGETABLE SHORTENING (INTERESTERIFIED SOYBEAN OIL, HYDROGENATED SOYBEAN OIL AND/OR PALM OIL), CONTAINS 2% OR LESS OF: LEAVENING (SODIUM BICARBONATE, SODIUM ALUMINUM SULFATE, CORN STARCH, MONOCALCIUM PHOSPHATE AND/OR SODIUM ACID PYROPHOSPHATE, CALCIUM SULFATE), SALT, PRESERVATIVES (CALCIUM PROPIONATE, SORBIC ACID AND/OR CITRIC ACID), YEAST, MOLASSES, DOUGH CONDITIONERS (FUMARIC ACID, SODIUM METABISULFITE AND/OR MONO- AND DIGLYCERIDES)." Date available: 07/14/2017 Date last updated by company: 07/14/2017
