Source: USDA Branded Food Products Database Release December 2017 Software v.3.8.6.4 2017-10-02
Report Run at: December 18, 2017 18:29 EST
"Nutrient data for: 45104603, TORTILLA CHIPS, UPC: 015839009407"
Food Group:  Branded Food Products Database
Common Name:

Nutrient,Unit,Data points,Std. Error,"11.0 CHIPS = 28.0g",1Value per 100 g,
Proximates
"Energy",kcal,--,--,130,464
"Protein",g,--,--,2.00,7.14
"Total lipid (fat)",g,--,--,7.00,25.00
"Carbohydrate, by difference",g,--,--,16.00,57.14
"Fiber, total dietary",g,--,--,2.0,7.1
"Sugars, total",g,--,--,1.00,3.57
Minerals
"Calcium, Ca",mg,--,--,0,0
"Iron, Fe",mg,--,--,0.64,2.29
"Sodium, Na",mg,--,--,110,393
Vitamins
"Vitamin C, total ascorbic acid",mg,--,--,0.0,0.0
"Vitamin A, IU",IU,--,--,0,0
Lipids
"Fatty acids, total saturated",g,--,--,0.501,1.790
"Fatty acids, total trans",g,--,--,0.000,0.000
"Cholesterol",mg,--,--,0,0
Amino Acids
Other
Ingredients
"ORGANIC BLUE CORN, EXPELLER PRESSED CANOLA OIL AND/OR SAFFLOWER OIL AND/OR SUNFLOWER OIL, ORGANIC STEEL CUT OATS, ORGANIC BUCKWHEAT GRITS, ORGANIC YELLOW CORN GRITS, ORGANIC EVAPORATED CANE SYRUP, CHIA SEEDS, ORGANIC BARLEY GRITS, SEA SALT, ORGANIC HULLED MILLET, ORGANIC QUINOA, ORGANIC AMARANTH SEEDS, ORGANIC RYE GRITS." Date available: 06/25/2017 Date last updated by company: 06/25/2017
