Source: USDA Branded Food Products Database Release December 2017 Software v.3.8.6.4 2017-10-02
Report Run at: December 18, 2017 18:28 EST
"Nutrient data for: 45228544, TORTELLINI TENDER PASTA, UPC: 713733176682"
Food Group:  Branded Food Products Database
Common Name:

Nutrient,Unit,Data points,Std. Error,"1 cup = 127.0g",1Value per 100 g,
Proximates
"Energy",kcal,--,--,199,157
"Protein",g,--,--,7.00,5.51
"Total lipid (fat)",g,--,--,1.99,1.57
"Carbohydrate, by difference",g,--,--,40.01,31.50
"Fiber, total dietary",g,--,--,3.9,3.1
"Sugars, total",g,--,--,1.99,1.57
Minerals
"Calcium, Ca",mg,--,--,80,63
"Iron, Fe",mg,--,--,2.97,2.34
"Sodium, Na",mg,--,--,679,535
Vitamins
"Vitamin C, total ascorbic acid",mg,--,--,0.0,0.0
"Vitamin A, IU",IU,--,--,110,87
Lipids
"Fatty acids, total saturated",g,--,--,1.003,0.790
"Fatty acids, total trans",g,--,--,0.000,0.000
"Cholesterol",mg,--,--,5,4
Amino Acids
Other
Ingredients
"ENRICHED SEMOLINA FLOUR (SEMOLINA FLOUR [NIACIN, FERROUS SULFATE, THIAMINE MONONITRATE, RIBOFLAVIN, FOLIC ACID]), WATER, CRACKER MEAL (ENRICHED WHEAT FLOUR [ENRICHED WITH NIACIN, FERROUS SULFATE, THIAMINE MONONITRATE, RIBOFLAVIN, FOLIC ACID] SOYBEAN OIL, SALT), RICOTTA CHEESE (WHEY, VINEGAR, SALT), FIBER (CELLULOSE AND PSYLLIUM POWDER), ROMANO CHEESE (PASTEURIZED COW'S AND/OR SHEEP'S MILK, CHEESE CULTURE, SALT, ENZYMES), SALT, MILK, GARLIC, CANOLA OIL (HIGH OLEIC LOW LINOLEIC CANOLA OIL), ONION, PASTEURIZED EGGS, SPICES, NATURAL FLAVORS, TURMERIC." Date available: 07/14/2017 Date last updated by company: 07/14/2017
