Source: USDA Branded Food Products Database Release December 2017 Software v.3.8.6.4 2017-10-02
Report Run at: December 18, 2017 18:33 EST
"Nutrient data for: 45248949, TORTILLA CHIPS, UPC: 028400565585"
Food Group:  Branded Food Products Database
Common Name:

Nutrient,Unit,Data points,Std. Error,"6.0 CHIPS | ABOUT = 28.0g",1Value per 100 g,
Proximates
"Energy",kcal,--,--,150,536
"Protein",g,--,--,2.00,7.14
"Total lipid (fat)",g,--,--,7.00,25.00
"Carbohydrate, by difference",g,--,--,18.00,64.29
"Fiber, total dietary",g,--,--,1.0,3.6
"Sugars, total",g,--,--,1.00,3.57
Minerals
"Calcium, Ca",mg,--,--,20,71
"Iron, Fe",mg,--,--,0.36,1.29
"Sodium, Na",mg,--,--,125,446
Vitamins
"Vitamin C, total ascorbic acid",mg,--,--,0.0,0.0
"Vitamin A, IU",IU,--,--,0,0
Lipids
"Fatty acids, total saturated",g,--,--,1.000,3.570
"Fatty acids, total trans",g,--,--,0.000,0.000
"Cholesterol",mg,--,--,0,0
Amino Acids
Other
Ingredients
"CORN, VEGETABLE OIL (CORN, CANOLA AND/OR SUNFLOWER OIL), MALTODEXTRIN (MADE FROM CORN), SALT SUGAR, NATURAL FLAVORS (INCLUDING NATURAL LIME FLAVOR), DEXTROSE, SOUR CREAM (CULTURED CREAM, SKIM MILK),CORN BRAN, WHEY, SPICE, AND YEAST EXTRACT." Date available: 09/23/2016 Date last updated by company: 09/23/2016
