Source: USDA Branded Food Products Database Release December 2017 Software v.3.8.6.4 2017-10-02
Report Run at: December 18, 2017 18:32 EST
"Nutrient data for: 45220612, TORTILLA CHIPS, UPC: 082666320050"
Food Group:  Branded Food Products Database
Common Name:

Nutrient,Unit,Data points,Std. Error,"15.0 CHIPS | ABOUT = 28.0g",1Value per 100 g,
Proximates
"Energy",kcal,--,--,130,464
"Protein",g,--,--,2.00,7.14
"Total lipid (fat)",g,--,--,4.50,16.07
"Carbohydrate, by difference",g,--,--,19.00,67.86
"Fiber, total dietary",g,--,--,1.0,3.6
"Sugars, total",g,--,--,2.00,7.14
Minerals
"Calcium, Ca",mg,--,--,80,286
"Iron, Fe",mg,--,--,0.64,2.29
"Sodium, Na",mg,--,--,180,643
Vitamins
"Vitamin C, total ascorbic acid",mg,--,--,0.0,0.0
"Vitamin A, IU",IU,--,--,0,0
Lipids
"Fatty acids, total saturated",g,--,--,0.000,0.000
"Fatty acids, total monounsaturated",g,--,--,2.999,10.710
"Fatty acids, total polyunsaturated",g,--,--,1.000,3.570
"Fatty acids, total trans",g,--,--,0.000,0.000
"Cholesterol",mg,--,--,0,0
Amino Acids
Other
Ingredients
"STONE-GROUND WHOLE CORN MASA TREATED WITH LIME, SUNFLOWER, SAFFLOWER, AND/OR CANOLA OIL, SEASONING (BUTTERMILK POWDER, SALT, WHEY., TOMATO POWDER, DEXTROSE, SUGAR, NATURAL FLAVORS, ONION POWDER, GARLIC POWDER, YEAST EXTRACT, SPICES, CITRIC ACID, DEHYDRATED PARSELY, LACTIC ACID, TURMERIC EXTRACT [COLOR], ANNATTO EXTRACT [COLOR]), CORN GERM." Date available: 07/14/2017 Date last updated by company: 07/14/2017
