Source: USDA Branded Food Products Database Release December 2017 Software v.3.8.6.4 2017-10-02
Report Run at: December 18, 2017 18:37 EST
"Nutrient data for: 45289024, TORTILLA STRIPS, UPC: 078742194882"
Food Group:  Branded Food Products Database
Common Name:

Nutrient,Unit,Data points,Std. Error,"2.0 Tbsp = 7.0g",1Value per 100 g,
Proximates
"Energy",kcal,--,--,35,500
"Protein",g,--,--,0.00,0.00
"Total lipid (fat)",g,--,--,2.00,28.57
"Carbohydrate, by difference",g,--,--,4.00,57.14
"Fiber, total dietary",g,--,--,0.0,0.0
"Sugars, total",g,--,--,0.00,0.00
Minerals
"Calcium, Ca",mg,--,--,7,100
"Iron, Fe",mg,--,--,0.00,0.00
"Potassium, K",mg,--,--,13,186
"Sodium, Na",mg,--,--,15,214
Vitamins
Lipids
"Fatty acids, total saturated",g,--,--,0.000,0.000
"Fatty acids, total trans",g,--,--,0.000,0.000
"Cholesterol",mg,--,--,0,0
Amino Acids
Other
Ingredients
"CORN MASA FLOUR, SUNFLOWER AND/OR SAFFLOWER AND/OR CANOLA OIL, SALT, FD&C RED 40, FD&C BLUE 1, FD&C BLUE 2." Date available: 07/14/2017 Date last updated by company: 07/14/2017
