Source: USDA Branded Food Products Database Release December 2017 Software v.3.8.6.4 2017-10-02
Report Run at: December 18, 2017 18:36 EST
"Nutrient data for: 45089094, TORTILLA SOUP MIX, UPC: 760263000901"
Food Group:  Branded Food Products Database
Common Name:

Nutrient,Unit,Data points,Std. Error,"1 CUP PREPARED | DRY, = 31.0g",1Value per 100 g,
Proximates
"Energy",kcal,--,--,110,355
"Protein",g,--,--,4.00,12.90
"Total lipid (fat)",g,--,--,1.00,3.23
"Carbohydrate, by difference",g,--,--,22.00,70.97
"Fiber, total dietary",g,--,--,4.0,12.9
"Sugars, total",g,--,--,3.00,9.68
Minerals
"Calcium, Ca",mg,--,--,40,129
"Iron, Fe",mg,--,--,1.16,3.75
"Sodium, Na",mg,--,--,810,2613
Vitamins
"Vitamin C, total ascorbic acid",mg,--,--,0.0,0.0
"Vitamin A, IU",IU,--,--,322,1040
Lipids
"Fatty acids, total saturated",g,--,--,0.000,0.000
"Fatty acids, total trans",g,--,--,0.000,0.000
"Cholesterol",mg,--,--,0,0
Amino Acids
Other
Ingredients
"PINTO BEANS, MODIFIED CORN STARCH, POTATOES, ONIONS, RED BEANS, SALT, NATURAL FLAVOR, SUGAR, WHEY (FROM MILK), CARROTS, CORN, CORN SYRUP SOLIDS, TOMATOES, BELL PEPPERS, BEEF FLAVOR, CHICKEN FAT, PALM OIL, GARLIC, CARAMEL (COLOR), SPICES, PARSLEY, SODIUM CASEINATE (FROM MILK), HYDROLYZED SOY PROTEIN, MALTODEXTRIN (FROM CORN), AUTOLYZED YEAST EXTRACT, DISODIUM INOSINATE AND DISODIUM GUANYLATE (FLAVOR ENHANCERS), MONO AND DIGLYCERIDES, DIPOTASSIUM PHOSPHATE, TURMERIC (COLOR), PAPRIKA (COLOR), ANNATTO (COLOR), YELLOW 6." Date available: 07/14/2017 Date last updated by company: 07/14/2017
