Source: USDA Branded Food Products Database Release December 2017 Software v.3.8.6.4 2017-10-02
Report Run at: December 18, 2017 18:28 EST
"Nutrient data for: 45190858, TORTELLINI, UPC: 04656702642"
Food Group:  Branded Food Products Database
Common Name:

Nutrient,Unit,Data points,Std. Error,"1 cup = 139.0g",1Value per 100 g,
Proximates
"Energy",kcal,--,--,360,259
"Protein",g,--,--,17.00,12.23
"Total lipid (fat)",g,--,--,6.00,4.32
"Carbohydrate, by difference",g,--,--,60.99,43.88
"Fiber, total dietary",g,--,--,3.1,2.2
"Sugars, total",g,--,--,2.00,1.44
Minerals
"Calcium, Ca",mg,--,--,150,108
"Iron, Fe",mg,--,--,1.45,1.04
"Potassium, K",mg,--,--,220,158
"Sodium, Na",mg,--,--,310,223
Vitamins
"Vitamin C, total ascorbic acid",mg,--,--,0.0,0.0
"Vitamin A, IU",IU,--,--,202,145
Lipids
"Fatty acids, total saturated",g,--,--,3.002,2.160
"Fatty acids, total trans",g,--,--,0.000,0.000
"Cholesterol",mg,--,--,31,22
Amino Acids
Other
Ingredients
"PASTA: EXTRA FANCY DURUM FLOUR (DURUM WHEAT FLOUR, NIACIN, FERROUS SULFATE, THIAMINE MONONITRATE, RIBOFLAVIN, FOLIC ACID), WATER, WHOLE EGGS. FILLING: RICOTTA CHEESE (WHEY, PASTEURIZED MILK, VINEGAR, SALT), ROMANO CHEESE (PASTEURIZED COW'S MILK, CHEESE CULTURE, SALT, ENZYMES), BREAD CRUMBS (ENRICHED UNBLEACHED WHEAT FLOUR [MALTED BARLEY FLOUR, ASCORBIC ACID {ADDED AS A DOUGH CONDITIONER}, NIACIN, FERROUS SULFATE, THIAMINE MONONITRATE, RIBOFLAVIN, FOLIC ACID], WATER, CANOLA OIL, SUGAR, SALT, GRANULATED GARLIC, YEAST), SEA SALT, BLACK PEPPER, NUTMEG." Date available: 07/14/2017 Date last updated by company: 07/14/2017
