Source: USDA Branded Food Products Database Release December 2017 Software v.3.8.6.4 2017-10-02
Report Run at: December 18, 2017 18:40 EST
"Nutrient data for: 45034097, TOSTONES FRIED PLANTAINS, UPC: 041331090476"
Food Group:  Branded Food Products Database
Common Name:

Nutrient,Unit,Data points,Std. Error,"2.0 PIECES | ABOUT = 84.0g",1Value per 100 g,
Proximates
"Energy",kcal,--,--,170,202
"Protein",g,--,--,1.00,1.19
"Total lipid (fat)",g,--,--,2.50,2.98
"Carbohydrate, by difference",g,--,--,35.00,41.67
"Fiber, total dietary",g,--,--,2.0,2.4
"Sugars, total",g,--,--,1.00,1.19
Minerals
"Calcium, Ca",mg,--,--,0,0
"Iron, Fe",mg,--,--,0.36,0.43
"Sodium, Na",mg,--,--,0,0
Vitamins
"Vitamin C, total ascorbic acid",mg,--,--,9.1,10.8
"Vitamin A, IU",IU,--,--,2024,2410
Lipids
"Fatty acids, total saturated",g,--,--,0.000,0.000
"Fatty acids, total trans",g,--,--,0.000,0.000
"Cholesterol",mg,--,--,0,0
Amino Acids
Other
Ingredients
"PLANTAINS AND SOYBEAN OIL." Date available: 09/26/2017 Date last updated by company: 09/26/2017
