Source: USDA Branded Food Products Database Release December 2017 Software v.3.8.6.4 2017-10-02
Report Run at: December 18, 2017 18:40 EST
"Nutrient data for: 45199927, TOSTONES PLANTAIN PATTIES, UPC: 188314000975"
Food Group:  Branded Food Products Database
Common Name:

Nutrient,Unit,Data points,Std. Error,"1 OUNCE) | ( = 28.0g",1Value per 100 g,
Proximates
"Energy",kcal,--,--,104,371
"Protein",g,--,--,0.00,0.00
"Total lipid (fat)",g,--,--,9.00,32.14
"Carbohydrate, by difference",g,--,--,6.00,21.43
"Fiber, total dietary",g,--,--,1.5,5.4
"Sugars, total",g,--,--,3.00,10.71
Minerals
"Calcium, Ca",mg,--,--,0,0
"Iron, Fe",mg,--,--,0.55,1.95
"Sodium, Na",mg,--,--,1,4
Vitamins
"Vitamin C, total ascorbic acid",mg,--,--,5.5,19.5
"Vitamin A, IU",IU,--,--,456,1627
Lipids
"Fatty acids, total saturated",g,--,--,1.000,3.570
"Fatty acids, total trans",g,--,--,0.000,0.000
"Cholesterol",mg,--,--,0,0
Amino Acids
Other
Ingredients
"GREEN PLANTAINS, CANOLA OIL." Date available: 09/25/2017 Date last updated by company: 09/25/2017
