Source: USDA Branded Food Products Database Release December 2017 Software v.3.8.6.4 2017-10-02
Report Run at: December 18, 2017 18:40 EST
"Nutrient data for: 45177593, TOTALLY ORIGINAL WAFFLES, UPC: 089947302873"
Food Group:  Branded Food Products Database
Common Name:

Nutrient,Unit,Data points,Std. Error,"2.0 WAFFLES = 85.0g",1Value per 100 g,
Proximates
"Energy",kcal,--,--,200,235
"Protein",g,--,--,2.00,2.35
"Total lipid (fat)",g,--,--,6.00,7.06
"Carbohydrate, by difference",g,--,--,33.00,38.82
"Fiber, total dietary",g,--,--,1.0,1.2
"Sugars, total",g,--,--,1.00,1.18
Minerals
"Calcium, Ca",mg,--,--,40,47
"Iron, Fe",mg,--,--,0.72,0.85
"Sodium, Na",mg,--,--,330,388
Vitamins
"Vitamin C, total ascorbic acid",mg,--,--,1.2,1.4
"Vitamin A, IU",IU,--,--,0,0
Lipids
"Fatty acids, total saturated",g,--,--,0.501,0.590
"Fatty acids, total trans",g,--,--,0.000,0.000
"Cholesterol",mg,--,--,0,0
Amino Acids
Other
Ingredients
"(THAT WE ARE PROUD OF!) WATER, VAN'S GLUTEN FREE MIX (BROWN RICE FLOUR, POTATO STARCH, RICE FLOUR, SOY FLOUR), NON-GMO EXPELLER PRESSED CANOLA OIL, BAKING POWDER (SODIUM ACID PYROPHOSPHATE, BAKING SODA, RICE FLOUR, MONOCALCIUM PHOSPHATE), VAN'S NATURAL FRUIT JUICE BLEND (PINEAPPLE, PEACH AND PEAR JUICE CONCENTRATES), SEA SALT, GUAR GUM, SOY LECITHIN." Date available: 07/14/2017 Date last updated by company: 07/14/2017
