Source: USDA Branded Food Products Database Release December 2017 Software v.3.8.6.4 2017-10-02
Report Run at: December 18, 2017 18:41 EST
"Nutrient data for: 45158138, TOWER CLUB, GINGER ALE, UPC: 643639161249"
Food Group:  Branded Food Products Database
Common Name:

Nutrient,Unit,Data points,Std. Error,"8.0 OZA = 240.0g",1Value per 100 g,
Proximates
"Energy",kcal,--,--,101,42
"Protein",g,--,--,0.00,0.00
"Total lipid (fat)",g,--,--,0.00,0.00
"Carbohydrate, by difference",g,--,--,49.99,20.83
"Sugars, total",g,--,--,49.99,20.83
Minerals
"Sodium, Na",mg,--,--,50,21
Vitamins
Lipids
Amino Acids
Other
Ingredients
"CARBONATED WATER, PURE CANE SUGAR, GINGER, LEMON AND LIME OILS, NATURAL FLAVORS, CITRIC ACID, CARAMEL COLOR." Date available: 08/10/2017 Date last updated by company: 08/10/2017
