Source: USDA Branded Food Products Database Release December 2017 Software v.3.8.6.4 2017-10-02
Report Run at: December 18, 2017 18:42 EST
"Nutrient data for: 45210920, TOY SURPRISE CHOCOLATE, UPC: 852923002223"
Food Group:  Branded Food Products Database
Common Name:

Nutrient,Unit,Data points,Std. Error,"0.5 EGG = 12.0g",1Value per 100 g,
Proximates
"Energy",kcal,--,--,60,500
"Protein",g,--,--,2.00,16.67
"Total lipid (fat)",g,--,--,4.00,33.33
"Carbohydrate, by difference",g,--,--,7.00,58.33
"Fiber, total dietary",g,--,--,0.0,0.0
"Sugars, total",g,--,--,6.00,50.00
Minerals
"Calcium, Ca",mg,--,--,30,250
"Iron, Fe",mg,--,--,0.00,0.00
"Sodium, Na",mg,--,--,13,108
Vitamins
"Vitamin C, total ascorbic acid",mg,--,--,2.5,20.9
"Vitamin A, IU",IU,--,--,0,0
Lipids
"Fatty acids, total saturated",g,--,--,2.000,16.670
"Fatty acids, total trans",g,--,--,0.000,0.000
"Cholesterol",mg,--,--,0,0
Amino Acids
Other
Ingredients
"SUGAR, COCOA BUTTER, WHEY POWDER, WHOLE MILK POWDER, SKIM MILK POWDER, COCOA MASS, HYDROGENATED VEGETABLE OIL (PALM), EMULSIFIER (SOY LECITHIN), VANILLIN." Date available: 07/14/2017 Date last updated by company: 07/14/2017
