Source: USDA Branded Food Products Database Release December 2017 Software v.3.8.6.4 2017-10-02
Report Run at: December 18, 2017 18:42 EST
"Nutrient data for: 45266202, TRACE & DECORATE, UPC: 071169235428"
Food Group:  Branded Food Products Database
Common Name:

Nutrient,Unit,Data points,Std. Error,"1 tsp = 6.0g",1Value per 100 g,
Proximates
"Energy",kcal,--,--,15,250
"Protein",g,--,--,0.00,0.00
"Total lipid (fat)",g,--,--,0.00,0.00
"Carbohydrate, by difference",g,--,--,4.00,66.67
"Sugars, total",g,--,--,3.00,50.00
Minerals
"Sodium, Na",mg,--,--,10,167
Vitamins
Lipids
Amino Acids
Other
Ingredients
"CORN SYRUP, SUGAR, WATER, MODIFIED CORNSTARCH, SALT, CARRAGEENAN, SODIUM BENZOATE (PRESERVATIVE), CITRIC ACID." Date available: 07/14/2017 Date last updated by company: 07/14/2017
