Source: USDA Branded Food Products Database Release December 2017 Software v.3.8.6.4 2017-10-02
Report Run at: December 18, 2017 18:45 EST
"Nutrient data for: 45099693, TRADER JOE'S, CHEDDAR ROCKET CRACKERS, CHEDDAR CHEESE, UPC: 00990837"
Food Group:  Branded Food Products Database
Common Name:

Nutrient,Unit,Data points,Std. Error,"46.0 CRACKERS = 30.0g",1Value per 100 g,
Proximates
"Energy",kcal,--,--,140,467
"Protein",g,--,--,4.00,13.33
"Total lipid (fat)",g,--,--,5.00,16.67
"Carbohydrate, by difference",g,--,--,19.00,63.33
"Fiber, total dietary",g,--,--,1.0,3.3
"Sugars, total",g,--,--,1.00,3.33
Minerals
"Calcium, Ca",mg,--,--,60,200
"Iron, Fe",mg,--,--,2.40,8.00
"Sodium, Na",mg,--,--,240,800
Vitamins
"Vitamin C, total ascorbic acid",mg,--,--,0.0,0.0
"Vitamin A, IU",IU,--,--,0,0
Lipids
"Fatty acids, total saturated",g,--,--,2.001,6.670
"Fatty acids, total trans",g,--,--,0.000,0.000
"Cholesterol",mg,--,--,5,17
Amino Acids
Other
Ingredients
"UNBLEACHED ENRICHED FLOUR (WHEAT FLOUR, NIACIN, CALCIUM CARBONATE, REDUCED IRON, THIAMINE MONONITRATE, RIBOFLAVIN, FOLIC ACID), CHEDDAR CHEESE (CULTURED MILK, SALT, MICROBIAL ENZYME), SUNFLOWER OIL, SALT, CONTAINS 2% OR LESS OF EACH OF THE FOLLOWING: SUGAR, LEAVING (AMMONIUM BICARBONATE, BAKING SODA), NATURAL CHEESE FLAVOR (CHEDDAR CHEESE [MILK, CULTURES, SALT, ENZYMES], WATER, DISODIUM PHOSPHATE, ENZYMES), ANNATTO (FOR COLOR), SPICES (CAYENNE PEPPER, PAPRIKA [FOR COLOR]), ONION POWDER, ENZYMES, SOY LECITHIN (AN EMULSIFIER)." Date available: 06/25/2017 Date last updated by company: 06/25/2017
