Source: USDA Branded Food Products Database Release December 2017 Software v.3.8.6.4 2017-10-02
Report Run at: December 18, 2017 18:52 EST
"Nutrient data for: 45240300, TRADER JOE'S, SPARKLING CLEMENTINE FLAVORED JUICE BEVERAGE, UPC: 00940207"
Food Group:  Branded Food Products Database
Common Name:

Nutrient,Unit,Data points,Std. Error,"8.0 OZA = 240.0g",1Value per 100 g,
Proximates
"Energy",kcal,--,--,130,54
"Protein",g,--,--,1.01,0.42
"Total lipid (fat)",g,--,--,0.00,0.00
"Carbohydrate, by difference",g,--,--,30.00,12.50
"Sugars, total",g,--,--,30.00,12.50
Minerals
"Calcium, Ca",mg,--,--,19,8
"Iron, Fe",mg,--,--,0.36,0.15
"Potassium, K",mg,--,--,180,75
"Sodium, Na",mg,--,--,14,6
Vitamins
"Vitamin C, total ascorbic acid",mg,--,--,9.1,3.8
"Vitamin A, IU",IU,--,--,101,42
Lipids
Amino Acids
Other
Ingredients
"SPARKLING FILTERED WATER, WHITE GRAPE JUICE CONCENTRATE, CLEMENTINE JUICE CONCENTRATE, NATURAL FLAVORS." Date available: 07/14/2017 Date last updated by company: 07/14/2017
