Source: USDA Branded Food Products Database Release December 2017 Software v.3.8.6.4 2017-10-02
Report Run at: December 18, 2017 18:56 EST
"Nutrient data for: 45222117, TRADITIONAL EGG FLAN, UPC: 859949003036"
Food Group:  Branded Food Products Database
Common Name:

Nutrient,Unit,Data points,Std. Error,"1 UNIT = 110.0g",1Value per 100 g,
Proximates
"Energy",kcal,--,--,190,173
"Protein",g,--,--,6.00,5.45
"Total lipid (fat)",g,--,--,2.50,2.27
"Carbohydrate, by difference",g,--,--,35.00,31.82
"Sugars, total",g,--,--,31.00,28.18
Minerals
"Sodium, Na",mg,--,--,100,91
Vitamins
Lipids
"Fatty acids, total saturated",g,--,--,1.001,0.910
Amino Acids
Other
Ingredients
"NONFAT MILK, EGGS, SUGAR, MILK, CARAMEL COLORING, ARTIFICIAL FLAVOR." Date available: 07/14/2017 Date last updated by company: 07/14/2017
