Source: USDA Branded Food Products Database Release December 2017 Software v.3.8.6.4 2017-10-02
Report Run at: December 18, 2017 18:48 EST
"Nutrient data for: 45094015, TRADER JOE'S, KALE CHIPS, UPC: 00981477"
Food Group:  Branded Food Products Database
Common Name:

Nutrient,Unit,Data points,Std. Error,"1 ONZ = 28.0g",1Value per 100 g,
Proximates
"Energy",kcal,--,--,150,536
"Protein",g,--,--,6.00,21.43
"Total lipid (fat)",g,--,--,9.00,32.14
"Carbohydrate, by difference",g,--,--,11.00,39.29
"Fiber, total dietary",g,--,--,3.0,10.7
"Sugars, total",g,--,--,4.00,14.29
Minerals
"Calcium, Ca",mg,--,--,150,536
"Iron, Fe",mg,--,--,3.21,11.48
"Sodium, Na",mg,--,--,220,786
Vitamins
"Vitamin C, total ascorbic acid",mg,--,--,10.7,38.3
"Vitamin A, IU",IU,--,--,11607,41454
Lipids
"Fatty acids, total saturated",g,--,--,1.000,3.570
"Fatty acids, total trans",g,--,--,0.000,0.000
"Cholesterol",mg,--,--,0,0
Amino Acids
Other
Ingredients
"KALE, CASHEWS, SUNFLOWER SEEDS, CARROT POWDER, RED BELL PEPPER POWDER, ONION POWDER, APPLE CIDER VINEGAR, LEMON JUICE CONCENTRATE, SALT, GARLIC POWDER, CHIPOTLE POWDER." Date available: 06/25/2017 Date last updated by company: 06/25/2017
