Source: USDA Branded Food Products Database Release December 2017 Software v.3.8.6.4 2017-10-02
Report Run at: December 18, 2017 18:50 EST
"Nutrient data for: 45035205, TRADER JOE'S, ORGANIC LOWFAT YOGURT, VANILLA BEAN, UPC: 00560740"
Food Group:  Branded Food Products Database
Common Name:

Nutrient,Unit,Data points,Std. Error,"6.0 ONZ = 170.0g",1Value per 100 g,
Proximates
"Energy",kcal,--,--,150,88
"Protein",g,--,--,6.00,3.53
"Total lipid (fat)",g,--,--,2.50,1.47
"Carbohydrate, by difference",g,--,--,25.99,15.29
"Fiber, total dietary",g,--,--,0.0,0.0
"Sugars, total",g,--,--,23.00,13.53
Minerals
"Calcium, Ca",mg,--,--,250,147
"Iron, Fe",mg,--,--,0.36,0.21
"Potassium, K",mg,--,--,240,141
"Sodium, Na",mg,--,--,80,47
Vitamins
"Vitamin C, total ascorbic acid",mg,--,--,0.0,0.0
"Vitamin A, IU",IU,--,--,100,59
Lipids
"Fatty acids, total saturated",g,--,--,1.496,0.880
"Fatty acids, total trans",g,--,--,0.000,0.000
"Cholesterol",mg,--,--,15,9
Amino Acids
Other
Ingredients
"ORGANIC CULTURED PASTEURIZED REDUCED FAT MILK, ORGANIC VANILLA BEAN BASE (ORGANIC CANE SUGAR, NATURAL FLAVOR, ORGANIC LOCUST BEAN GUM, PECTIN, ORGANIC VANILLA BEANS), LIVE ACTIVE CULTURES: L. ACIDOPHILUS, BIFIDUS, L. BULGARICUS, S. THERMOPHILUS, L. RHAMNOSUS. CULTURED AFTER PASTEURIZATION." Date available: 07/14/2017 Date last updated by company: 07/14/2017
