Source: USDA Branded Food Products Database Release December 2017 Software v.3.8.6.4 2017-10-02
Report Run at: December 18, 2017 18:45 EST
"Nutrient data for: 45085345, TRADER JOE'S, CAROLINA GOLD BARBEQUE SAUCE, UPC: 00514385"
Food Group:  Branded Food Products Database
Common Name:

Nutrient,Unit,Data points,Std. Error,"2.0 Tbsp = 35.0g",1Value per 100 g,
Proximates
"Energy",kcal,--,--,60,171
"Protein",g,--,--,0.00,0.00
"Total lipid (fat)",g,--,--,0.00,0.00
"Carbohydrate, by difference",g,--,--,14.00,40.00
"Fiber, total dietary",g,--,--,0.8,2.4
"Sugars, total",g,--,--,13.00,37.14
Minerals
"Calcium, Ca",mg,--,--,0,0
"Iron, Fe",mg,--,--,0.61,1.74
"Sodium, Na",mg,--,--,410,1171
Vitamins
"Vitamin C, total ascorbic acid",mg,--,--,2.0,5.8
"Vitamin A, IU",IU,--,--,0,0
Lipids
"Fatty acids, total saturated",g,--,--,0.000,0.000
"Fatty acids, total trans",g,--,--,0.000,0.000
"Cholesterol",mg,--,--,0,0
Amino Acids
Other
Ingredients
"CANE SUGAR, YELLOW MUSTARD (DISTILLED VINEGAR, WATER, MUSTARD SEED), DISTILLED VINEGAR, TOMATO PUREE (WATER, TOMATO PASTE), SEA SALT, CORN STARCH, WORCESTERSHIRE SAUCE (DISTILLED VINEGAR, MOLASSES, SEA SALT, SUGAR, SPICES, TAMARIND), MOLASSES, SPICES, GARLIC, ONION, NATURAL SMOKE FLAVOR, XANTHAN GUM." Date available: 07/14/2017 Date last updated by company: 07/14/2017
