Source: USDA Branded Food Products Database Release December 2017 Software v.3.8.6.4 2017-10-02
Report Run at: December 18, 2017 18:43 EST
"Nutrient data for: 45094261, TRADER JOE'S, ALBACORE TUNA IN WATER, UPC: 00958363"
Food Group:  Branded Food Products Database
Common Name:

Nutrient,Unit,Data points,Std. Error,"2.0 oz = 56.0g",1Value per 100 g,
Proximates
"Energy",kcal,--,--,60,107
"Protein",g,--,--,13.00,23.21
"Total lipid (fat)",g,--,--,1.00,1.79
"Carbohydrate, by difference",g,--,--,0.00,0.00
"Fiber, total dietary",g,--,--,0.0,0.0
"Sugars, total",g,--,--,0.00,0.00
Minerals
"Calcium, Ca",mg,--,--,0,0
"Iron, Fe",mg,--,--,0.00,0.00
"Sodium, Na",mg,--,--,90,161
Vitamins
"Vitamin C, total ascorbic acid",mg,--,--,0.0,0.0
"Vitamin A, IU",IU,--,--,0,0
Lipids
"Fatty acids, total saturated",g,--,--,0.000,0.000
"Fatty acids, total trans",g,--,--,0.000,0.000
"Cholesterol",mg,--,--,20,36
Amino Acids
Other
Ingredients
"ALBACORE TUNA IN WATER." Date available: 09/23/2016 Date last updated by company: 09/23/2016
