Source: USDA Branded Food Products Database Release December 2017 Software v.3.8.6.4 2017-10-02
Report Run at: December 18, 2017 18:53 EST
"Nutrient data for: 45094051, TRADER JOE'S, UNCURED BACON JERKY, UPC: 00537704"
Food Group:  Branded Food Products Database
Common Name:

Nutrient,Unit,Data points,Std. Error,"0.5 PACKAGE = 28.0g",1Value per 100 g,
Proximates
"Energy",kcal,--,--,140,500
"Protein",g,--,--,6.00,21.43
"Total lipid (fat)",g,--,--,10.00,35.71
"Carbohydrate, by difference",g,--,--,6.00,21.43
"Fiber, total dietary",g,--,--,0.0,0.0
"Sugars, total",g,--,--,6.00,21.43
Minerals
"Calcium, Ca",mg,--,--,0,0
"Iron, Fe",mg,--,--,0.00,0.00
"Sodium, Na",mg,--,--,600,2143
Vitamins
"Vitamin C, total ascorbic acid",mg,--,--,4.3,15.3
"Vitamin A, IU",IU,--,--,179,638
Lipids
"Fatty acids, total saturated",g,--,--,2.999,10.710
"Fatty acids, total trans",g,--,--,0.000,0.000
"Cholesterol",mg,--,--,15,54
Amino Acids
Other
Ingredients
"NATURAL* UNCURED BACON - NO NITRATES OR NITRITES ADDED EXCEPT FOR THOSE NATURALLY OCCURRING IN CELERY POWDER & SEA SALT (PORK, WATER, SALT, TURBINADO SUGAR, CELERY POWDER, LACTIC ACID STARTER CULTURE [NOT FROM MILK]), WHITE SUGAR, SRIRACHA SAUCE (GROUND RED CHILI PEPPERS, WATER, SUGAR, GROUND GARLIC, SALT, CONTAINS 2% OR LESS OF: GARLIC POWDER, CULTURED DEXTROSE [FOR FRESHNESS], VEGETABLE EXTRACT [POTATO], NATURAL FLAVOR, VINEGAR, CITRIC ACID, XANTHAN GUM), GLUTEN FREE SOY SAUCE (WATER, RICE, SOY BEANS, SALT), WATER, HONEY, CAYENNE POWDER, GRANULATED GARLIC, GROUND PEPPER, SEA SALT, RED WINE VINEGAR, GINGER." Date available: 08/17/2017 Date last updated by company: 08/17/2017
