Source: USDA Branded Food Products Database Release December 2017 Software v.3.8.6.4 2017-10-02
Report Run at: December 18, 2017 18:53 EST
"Nutrient data for: 45035201, TRADER JOSE'S, BEEF STEAK BURRITOS WITH SEASONED BEANS, UPC: 00245951"
Food Group:  Branded Food Products Database
Common Name:

Nutrient,Unit,Data points,Std. Error,"1 BURRITO = 227.0g",1Value per 100 g,
Proximates
"Energy",kcal,--,--,390,172
"Protein",g,--,--,19.00,8.37
"Total lipid (fat)",g,--,--,8.99,3.96
"Carbohydrate, by difference",g,--,--,57.00,25.11
"Fiber, total dietary",g,--,--,5.0,2.2
"Sugars, total",g,--,--,2.00,0.88
Minerals
"Calcium, Ca",mg,--,--,41,18
"Iron, Fe",mg,--,--,2.59,1.14
"Sodium, Na",mg,--,--,1069,471
Vitamins
"Vitamin C, total ascorbic acid",mg,--,--,3.4,1.5
"Vitamin A, IU",IU,--,--,114,50
Lipids
"Fatty acids, total saturated",g,--,--,1.498,0.660
"Fatty acids, total trans",g,--,--,0.000,0.000
"Cholesterol",mg,--,--,25,11
Amino Acids
Other
Ingredients
"FILLING: WATER, COOKED SEASONED BEEF STEAK STRIPS (BEEF, WATER, LESS THAN 2% SALT, DEHYDRATED GARLIC, DEHYDRATED ONION, CHILI PEPPER, SPICE, CANE SUGAR, GRILL FLAVOR [TAPIOCA DEXTRIN, SUNFLOWER OIL, TRICALCIUM PHOSPHATE], NATURAL FLAVORS, FLAVORING), PINTO BEANS, TOMATOES (TOMATOES, TOMATO PUREE, CITRIC ACID [FOR FRESHNESS]), ONIONS, CONTAINS 2% OR LESS OF: GREEN BELL PEPPERS, RED BELL PEPPERS, GREEN CHILES, VINEGAR, FLAVORINGS, NATURAL GRILL FLAVOR (GUM ARABIC, NATURAL FLAVOR, TRICALCIUM PHOSPHATE), JALAPENOS (JALAPENO PEPPERS, SALT, ACETIC ACID, WATER, CALCIUM CHLORIDE), SOYBEAN OIL, SALT, CILANTRO FLAVOR (DEXTROSE, EXTRACTIVES OF CILANTRO, NATURAL FLAVOR), MODIFIED FOOD STARCH, GUAR GUM. TORTILLA: ENRICHED WHEAT FLOUR (NIACIN, REDUCED IRON, THIAMINE MONONITRATE, RIBOFLAVIN, FOLIC ACID), WATER, SOYBEAN OIL, SALT, BAKING POWDER (CORN STARCH, SODIUM ACID PYROPHOSPHATE, SODIUM BICARBONATE, MONOCALCIUM PHOSPHATE), EMULSIFIERS (GUAR GUM, MONO-DIGLYCERIDES), GUAR GUM." Date available: 07/14/2017 Date last updated by company: 07/14/2017
