Source: USDA Branded Food Products Database Release December 2017 Software v.3.8.6.4 2017-10-02
Report Run at: December 18, 2017 18:58 EST
"Nutrient data for: 45194147, TRADITIONAL GREEK YOGURT, UPC: 036632019233"
Food Group:  Branded Food Products Database
Common Name:

Nutrient,Unit,Data points,Std. Error,"4.0 PACKAGE = 150.0g",1Value per 100 g,
Proximates
"Energy",kcal,--,--,160,107
"Protein",g,--,--,10.99,7.33
"Total lipid (fat)",g,--,--,4.50,3.00
"Carbohydrate, by difference",g,--,--,19.00,12.67
"Fiber, total dietary",g,--,--,0.0,0.0
"Sugars, total",g,--,--,19.00,12.67
Minerals
"Calcium, Ca",mg,--,--,150,100
"Iron, Fe",mg,--,--,0.00,0.00
"Potassium, K",mg,--,--,135,90
"Sodium, Na",mg,--,--,45,30
Vitamins
"Vitamin C, total ascorbic acid",mg,--,--,0.0,0.0
"Vitamin A, IU",IU,--,--,0,0
"Vitamin D",IU,--,--,16,11
Lipids
"Fatty acids, total saturated",g,--,--,3.000,2.000
"Fatty acids, total trans",g,--,--,0.000,0.000
"Cholesterol",mg,--,--,15,10
Amino Acids
Other
Ingredients
"CULTURED GRADE A MILK, SUGAR, WATER, CONTAINS LESS THAN 1% OF FRUIT JUICE AND BLACK CARROT JUICE (FOR COLOR), PECTIN, CAROB BEAN GUM, NATURAL COFFEE FLAVOR (INCLUDING COFFEE POWDER), LEMON JUICE CONCENTRATE, POTASSIUM SORBATE (TO MAINTAIN FRESHNESS), XANTHAM GUM." Date available: 07/14/2017 Date last updated by company: 07/14/2017
