Source: USDA Branded Food Products Database Release December 2017 Software v.3.8.6.4 2017-10-02
Report Run at: December 18, 2017 18:49 EST
"Nutrient data for: 45233516, TRADER JOE'S, MANGO CREAM BARS, UPC: 00923736"
Food Group:  Branded Food Products Database
Common Name:

Nutrient,Unit,Data points,Std. Error,"1 BAR, PER CONTAINER = 40.0g",1Value per 100 g,
Proximates
"Energy",kcal,--,--,60,150
"Protein",g,--,--,1.00,2.50
"Total lipid (fat)",g,--,--,2.00,5.00
"Carbohydrate, by difference",g,--,--,10.00,25.00
"Fiber, total dietary",g,--,--,0.0,0.0
"Sugars, total",g,--,--,9.00,22.50
Minerals
"Calcium, Ca",mg,--,--,20,50
"Iron, Fe",mg,--,--,0.00,0.00
"Sodium, Na",mg,--,--,5,12
Vitamins
"Vitamin C, total ascorbic acid",mg,--,--,1.2,3.0
"Vitamin A, IU",IU,--,--,200,500
Lipids
"Fatty acids, total saturated",g,--,--,1.500,3.750
"Fatty acids, total trans",g,--,--,0.000,0.000
"Cholesterol",mg,--,--,5,12
Amino Acids
Other
Ingredients
"WATER, MANGO, SUGAR, CREAM, GLUCOSE SYRUP (CORN), FAT FREE MILK POWDER, CITRIC ACID, ANNATTO (COLOR)." Date available: 09/12/2017 Date last updated by company: 09/12/2017
