Source: USDA Branded Food Products Database Release December 2017 Software v.3.8.6.4 2017-10-02
Report Run at: December 18, 2017 19:04 EST
"Nutrient data for: 45311564, TRADITIONAL PUB BLEND, UPC: 071725750693"
Food Group:  Branded Food Products Database
Common Name:

Nutrient,Unit,Data points,Std. Error,"0.333 cup = 29.0g",1Value per 100 g,
Proximates
"Energy",kcal,--,--,150,517
"Protein",g,--,--,5.00,17.24
"Total lipid (fat)",g,--,--,10.00,34.48
"Carbohydrate, by difference",g,--,--,12.00,41.38
"Fiber, total dietary",g,--,--,2.0,6.9
"Sugars, total",g,--,--,3.00,10.34
Minerals
"Calcium, Ca",mg,--,--,20,69
"Iron, Fe",mg,--,--,2.48,8.56
"Sodium, Na",mg,--,--,150,517
Vitamins
"Vitamin C, total ascorbic acid",mg,--,--,0.0,0.0
"Vitamin A, IU",IU,--,--,173,595
Lipids
"Fatty acids, total saturated",g,--,--,1.499,5.170
"Fatty acids, total trans",g,--,--,0.000,0.000
"Cholesterol",mg,--,--,0,0
Amino Acids
Other
Ingredients
"PEANUTS (PEANUTS, PEANUT OIL, SALT), HONEY ROASTED PEANUTS (PEANUTS, SUGAR, HONEY, TAPIOCA DEXTRIN, CORN STARCH, COTTONSEED OIL, PEANUT OIL, SALT), CHEESE FLAVORED CORN STICKS (YELLOW CORN MASA FLOUR, SOYBEAN OIL, SEASONING [DEHYDRATED CHEESE FLAVOR {CHEDDAR CHEESE [PASTEURIZED MILK, CHEESE CULTURES, SALT, ENZYMES], WHEY, SALT, DISODIUM PHOSPHATE, YELLOW 5, YELLOW 6}, DRIED WHEY, SALT, BUTTERMILK POWDER, DEXTROSE MONOHYDRATE, NATURAL AND ARTIFICIAL FLAVORING, ONION AND GARLIC POWDERS, EXTRACTIVES OF TURMERIC AND PAPRIKA, CITRIC ACID, YELLOW 6 LAKE, LACTIC ACID]), PRETZELS (ENRICHED WHEAT FLOUR [WHEAT FLOUR, NIACIN, REDUCED IRON, THIAMINE MONONITRATE, RIBOFLAVIN, FOLIC ACID], SALT, VEGETABLE OIL [CORN, CANOLA AND/OR SOYBEAN OIL], CORN SYRUP, SODIUM BICARBONATE, YEAST), HONEY NUT SQUARES (CORN MEAL, SUGAR, HONEY, SOLUBLE CORN FIBER, SALT, CANOLA OIL, MOLASSES, BROWN SUGAR SYRUP, NATURAL AND ARTIFICIAL FLAVOR, POTASSIUM CHLORIDE, CARAMEL COLOR, NATURAL ALMOND FLAVOR, SODIUM BICARBONATE, CALCIUM CARBONATE, REDUCED IRON AND ZINC OXIDE, SODIUM ASCORBATE, NIACINAMIDE, VITAMIN A PALMITATE, PYRIDOXINE HYDROCHLORIDE, RIBOFLAVIN, THIAMINE MONONITRATE, FOLIC ACID, VITAMIN D, VITAMIN B12)." Date available: 07/14/2017 Date last updated by company: 07/14/2017
