Source: USDA Branded Food Products Database Release December 2017 Software v.3.8.6.4 2017-10-02
Report Run at: December 18, 2017 18:50 EST
"Nutrient data for: 45085336, TRADER JOE'S, ORGANIC SWEET PICKLE RELISH, UPC: 00925907"
Food Group:  Branded Food Products Database
Common Name:

Nutrient,Unit,Data points,Std. Error,"1 Tbsp = 15.0g",1Value per 100 g,
Proximates
"Energy",kcal,--,--,15,100
"Protein",g,--,--,0.00,0.00
"Total lipid (fat)",g,--,--,0.00,0.00
"Carbohydrate, by difference",g,--,--,4.00,26.67
"Sugars, total",g,--,--,3.00,20.00
Minerals
"Sodium, Na",mg,--,--,120,800
Vitamins
Lipids
Amino Acids
Other
Ingredients
"ORGANIC CUCUMBERS, ORGANIC CANE SUGAR, WATER, ORGANIC DISTILLED VINEGAR, SALT, ORGANIC DEHYDRATED PEPPERS, CALCIUM CHLORIDE, XANTHAN GUM, ORGANIC NATURAL SPICE FLAVORS, ORGANIC GUM ARABIC." Date available: 07/14/2017 Date last updated by company: 07/14/2017
