Source: USDA Branded Food Products Database Release December 2017 Software v.3.8.6.4 2017-10-02
Report Run at: December 18, 2017 19:10 EST
"Nutrient data for: 45136452, TRAIL MIX, UPC: 690166227276"
Food Group:  Branded Food Products Database
Common Name:

Nutrient,Unit,Data points,Std. Error,"0.25 cup = 30.0g",1Value per 100 g,
Proximates
"Energy",kcal,--,--,130,433
"Protein",g,--,--,3.00,10.00
"Total lipid (fat)",g,--,--,7.00,23.33
"Carbohydrate, by difference",g,--,--,16.00,53.33
"Fiber, total dietary",g,--,--,2.0,6.7
"Sugars, total",g,--,--,12.00,40.00
Minerals
"Calcium, Ca",mg,--,--,20,67
"Iron, Fe",mg,--,--,1.80,6.00
"Sodium, Na",mg,--,--,55,183
Vitamins
"Vitamin C, total ascorbic acid",mg,--,--,0.0,0.0
"Vitamin A, IU",IU,--,--,0,0
Lipids
"Fatty acids, total saturated",g,--,--,2.001,6.670
"Fatty acids, total trans",g,--,--,0.000,0.000
"Cholesterol",mg,--,--,0,0
Amino Acids
Other
Ingredients
"RAISINS, PEANUTS, CHOCOLATEY PIECES (SUGAR, COCOA, PARTIALLY HYDROGENATED PALM KERNEL OIL, WHEY, ARTIFICIAL COLOR [ BLUE 1, BLUE 1 LAKE, BLUE 2 LAKE, YELLOW 5, YELLOW 5 LAKE, YELLOW 6, YELLOW 6 LAKE, RED 40, RED 40 LAKE, SORBITOL, TITANIUM DIOXIDE, PHOSPHORIC ACID, METHYL AND PROPYL PARABENS, AND CARAMEL], NONFAT MILK POWDER, CORN SYRUP, SOY LECITHIN [ EMULSIFIER], WAX, DEXTRIN, VANILLIN [ ARTIFICIAL FLAVOR]), ALMONDS, CASHEWS, VEGETABLE OIL (MAY CONTAIN ONE OR MORE OF THE FOLLOWING: PEANUT, CANOLA, SUNFLOWER AND/OR SOYBEAN OIL), SALT." Date available: 06/25/2017 Date last updated by company: 06/25/2017
