Source: USDA Branded Food Products Database Release December 2017 Software v.3.8.6.4 2017-10-02
Report Run at: December 18, 2017 19:12 EST
"Nutrient data for: 45265951, TRAIL MIX, UPC: 050428548202"
Food Group:  Branded Food Products Database
Common Name:

Nutrient,Unit,Data points,Std. Error,"0.25 cup = 30.0g",1Value per 100 g,
Proximates
"Energy",kcal,--,--,140,467
"Protein",g,--,--,3.00,10.00
"Total lipid (fat)",g,--,--,8.00,26.67
"Carbohydrate, by difference",g,--,--,17.00,56.67
"Fiber, total dietary",g,--,--,1.0,3.3
"Sugars, total",g,--,--,11.00,36.67
Minerals
"Calcium, Ca",mg,--,--,0,0
"Iron, Fe",mg,--,--,1.80,6.00
"Sodium, Na",mg,--,--,5,17
"Manganese, Mn",mg,--,--,0.300,1.000
Vitamins
"Vitamin C, total ascorbic acid",mg,--,--,0.0,0.0
"Vitamin A, IU",IU,--,--,0,0
Lipids
"Fatty acids, total saturated",g,--,--,3.000,10.000
"Fatty acids, total monounsaturated",g,--,--,3.000,10.000
"Fatty acids, total polyunsaturated",g,--,--,0.999,3.330
"Fatty acids, total trans",g,--,--,0.000,0.000
"Cholesterol",mg,--,--,0,0
Amino Acids
Other
Ingredients
"ORGANIC DARK CHOCOLATE DROPS (ORGANIC DRIED CANE SYRUP, ORGANIC CHOCOLATE LIQUOR, ORGANIC COCOA BUTTER, ORGANIC DEXTROSE, ORGANIC VANILLA), ORGANIC CASHEWS, ORGANIC DRIED CRANBERRIES (ORGANIC CRANBERRIES, ORGANIC DRIED CANE SYRUP, ORGANIC SUNFLOWER OIL), ORGANIC DRIED CHERRIES (ORGANIC CHERRIES, ORGANIC SUGAR, ORGANIC SUNFLOWER OIL), ORGANIC PUMPKIN KERNELS, ORGANIC BANANA CHIPS (ORGANIC BANANAS, ORGANIC COCONUT OIL, ORGANIC CANE SUGAR)." Date available: 07/14/2017 Date last updated by company: 07/14/2017
