Source: USDA Branded Food Products Database Release December 2017 Software v.3.8.6.4 2017-10-02
Report Run at: December 18, 2017 19:13 EST
"Nutrient data for: 45325644, TRAIL MIX, UPC: 038259103906"
Food Group:  Branded Food Products Database
Common Name:

Nutrient,Unit,Data points,Std. Error,"0.25 CUP) | (ABOUT = 28.0g",1Value per 100 g,
Proximates
"Energy",kcal,--,--,120,429
"Protein",g,--,--,2.00,7.14
"Total lipid (fat)",g,--,--,5.00,17.86
"Carbohydrate, by difference",g,--,--,18.00,64.29
"Fiber, total dietary",g,--,--,1.0,3.6
"Sugars, total",g,--,--,14.00,50.00
Minerals
"Calcium, Ca",mg,--,--,0,0
"Iron, Fe",mg,--,--,1.29,4.59
"Sodium, Na",mg,--,--,15,54
Vitamins
"Vitamin C, total ascorbic acid",mg,--,--,0.0,0.0
"Vitamin A, IU",IU,--,--,0,0
Lipids
"Fatty acids, total saturated",g,--,--,1.000,3.570
"Fatty acids, total trans",g,--,--,0.000,0.000
"Cholesterol",mg,--,--,0,0
Amino Acids
Other
Ingredients
"GLAZED CASHEWS (CASHEWS, SUGAR, DRIED CRANBERRIES [CRANBERRIES, SUGAR], DRIED BLUEBERRIES [BLUEBERRIES, SUGAR], QUINOA, GUM ARABIC, WATER, NATURAL FLAVOR, SEA SALT), CRANBERRIES (CRANBERRIES, SUGAR, SUNFLOWER OIL)." Date available: 08/11/2017 Date last updated by company: 08/11/2017
