Source: USDA Branded Food Products Database Release December 2017 Software v.3.8.6.4 2017-10-02
Report Run at: December 18, 2017 19:09 EST
"Nutrient data for: 45232866, TRAIL MIX CRUNCHY GRANOLA BARS, UPC: 058449892113"
Food Group:  Branded Food Products Database
Common Name:

Nutrient,Unit,Data points,Std. Error,"2.0 BARS = 40.0g",1Value per 100 g,
Proximates
"Energy",kcal,--,--,190,475
"Protein",g,--,--,3.00,7.50
"Total lipid (fat)",g,--,--,7.00,17.50
"Carbohydrate, by difference",g,--,--,28.00,70.00
"Fiber, total dietary",g,--,--,3.0,7.5
"Sugars, total",g,--,--,9.00,22.50
Minerals
"Calcium, Ca",mg,--,--,0,0
"Iron, Fe",mg,--,--,1.08,2.70
"Sodium, Na",mg,--,--,60,150
Vitamins
"Vitamin C, total ascorbic acid",mg,--,--,0.0,0.0
"Vitamin A, IU",IU,--,--,0,0
Lipids
"Fatty acids, total saturated",g,--,--,1.000,2.500
"Fatty acids, total monounsaturated",g,--,--,5.000,12.500
"Fatty acids, total polyunsaturated",g,--,--,1.500,3.750
"Fatty acids, total trans",g,--,--,0.000,0.000
"Cholesterol",mg,--,--,0,0
Amino Acids
Other
Ingredients
"ROLLED OATS*, CANE SUGAR*, SUNFLOWER OIL*, FLAXSEED*, HONEY*, INVERT CANE SYRUP*, OAT FIBER*, OAT SYRUP SOLIDS* (OAT SYRUP SOLIDS*, TOCOPHEROLS), SEA SALT." Date available: 08/12/2017 Date last updated by company: 08/12/2017
