Source: USDA Branded Food Products Database Release December 2017 Software v.3.8.6.4 2017-10-02
Report Run at: December 18, 2017 19:11 EST
"Nutrient data for: 45218369, TRAIL MIX, UPC: 021140022639"
Food Group:  Branded Food Products Database
Common Name:

Nutrient,Unit,Data points,Std. Error,"0.25 cup = 30.0g",1Value per 100 g,
Proximates
"Energy",kcal,--,--,150,500
"Protein",g,--,--,4.00,13.33
"Total lipid (fat)",g,--,--,10.00,33.33
"Carbohydrate, by difference",g,--,--,15.00,50.00
"Fiber, total dietary",g,--,--,2.0,6.7
"Sugars, total",g,--,--,11.00,36.67
Minerals
"Calcium, Ca",mg,--,--,40,133
"Iron, Fe",mg,--,--,1.20,4.00
"Sodium, Na",mg,--,--,70,233
Vitamins
"Vitamin C, total ascorbic acid",mg,--,--,0.0,0.0
"Vitamin A, IU",IU,--,--,166,555
Lipids
"Fatty acids, total saturated",g,--,--,2.499,8.330
"Fatty acids, total trans",g,--,--,0.000,0.000
"Cholesterol",mg,--,--,0,0
Amino Acids
Other
Ingredients
"WHITE CHOCOLATE DROPS (SUGAR, COCOA BUTTER, WHOLE MILK POWDER, NONFAT MILK POWDER, SOY LECITHIN [AN EMULSIFIER], VANILLA [NATURAL FLAVOR], NATURAL FLAVOR), PISTACHIOS (PISTACHIOS, SALT, MALTODEXTIN), DRIED CRANBERRIES (CRANBERRIES, SUGAR, CITRIC ACID, SUNFLOWER OIL [PROCESSING AID], ELDERBERRY JUICE CONCENTRATE [COLOR]), ALMONDS (ALMONDS, PEANUT OIL, SALT), CASHEWS, (CASHEWS, PEANUT OIL, SALT), DRIED CHERRIES (CHERRIES, SUGAR, SUNFLOWER OIL [PROCESSING AID])." Date available: 07/14/2017 Date last updated by company: 07/14/2017
