Source: USDA Branded Food Products Database Release December 2017 Software v.3.8.6.4 2017-10-02
Report Run at: December 18, 2017 19:12 EST
"Nutrient data for: 45232179, TRAIL MIX, UPC: 708820106994"
Food Group:  Branded Food Products Database
Common Name:

Nutrient,Unit,Data points,Std. Error,"3.0 Tbsp = 28.0g",1Value per 100 g,
Proximates
"Energy",kcal,--,--,140,500
"Protein",g,--,--,4.00,14.29
"Total lipid (fat)",g,--,--,10.00,35.71
"Carbohydrate, by difference",g,--,--,12.00,42.86
"Fiber, total dietary",g,--,--,2.0,7.1
"Sugars, total",g,--,--,10.00,35.71
Minerals
"Calcium, Ca",mg,--,--,20,71
"Iron, Fe",mg,--,--,0.64,2.29
"Sodium, Na",mg,--,--,50,179
Vitamins
"Vitamin C, total ascorbic acid",mg,--,--,0.0,0.0
"Vitamin A, IU",IU,--,--,0,0
Lipids
"Fatty acids, total saturated",g,--,--,2.999,10.710
"Fatty acids, total trans",g,--,--,0.000,0.000
"Cholesterol",mg,--,--,0,0
Amino Acids
Other
Ingredients
"BUTTER TOFFEE PEANUTS (SUGAR, SALTED BUTTER [PASTEURIZED CREAM, SALT], SALT), PEANUTS (ROASTED IN PEANUT, SUNFLOWER AND/OR COTTONSEED OIL, SALT), BITTERSWEET CHOCOLATE CHUNKS (SUGAR, CHOCOLATE LIQUOR, COCOA BUTTER, SOY LECITHIN, SALT AND VANILLA), PEANUT BUTTER FLAVORED CANDIES (PEANUT BUTTER FLAVORED COATING [SUGAR, PARTIALLY DEFATTED PEANUT FLOUR, PARTIALLY HYDROGENATED PALM KERNEL OIL, NONFAT DRY MILK, DEXTROSE, SOY LECITHIN, SALT], SUGAR, HYDROGENATED PALM KERNEL OIL, ARTIFICIAL COLORING {INCLUDES YELLOW 5 LAKE, YELLOW 6 LAKE, YELLOW 6, BLUE 2 LAKE, RED 40 LAKE}, CORN SYRUP, GUM ARABIC, CONFECTIONER'S GLAZE)." Date available: 07/14/2017 Date last updated by company: 07/14/2017
