Source: USDA Branded Food Products Database Release December 2017 Software v.3.8.6.4 2017-10-02
Report Run at: December 18, 2017 19:19 EST
"Nutrient data for: 45159026, TREAT STREET, ZOMBIE TREAT DECORATIONS HANDS GUMMY, FRUIT, UPC: 876247007290"
Food Group:  Branded Food Products Database
Common Name:

Nutrient,Unit,Data points,Std. Error,"1 PIECE = 13.0g",1Value per 100 g,
Proximates
"Energy",kcal,--,--,45,346
"Protein",g,--,--,0.00,0.00
"Total lipid (fat)",g,--,--,0.00,0.00
"Carbohydrate, by difference",g,--,--,11.00,84.62
"Fiber, total dietary",g,--,--,0.0,0.0
"Sugars, total",g,--,--,10.00,76.92
Minerals
"Calcium, Ca",mg,--,--,0,0
"Iron, Fe",mg,--,--,0.00,0.00
"Sodium, Na",mg,--,--,5,38
Vitamins
"Vitamin C, total ascorbic acid",mg,--,--,0.0,0.0
"Vitamin A, IU",IU,--,--,0,0
Lipids
"Fatty acids, total saturated",g,--,--,0.000,0.000
"Fatty acids, total trans",g,--,--,0.000,0.000
"Cholesterol",mg,--,--,0,0
Amino Acids
Other
Ingredients
"SUGAR, CORN SYRUP, GELATIN, WATER, SORBITOL, MALIC ACID, CITRIC ACID, SODIUM CITRATE, POTASSIUM SORBATE, CORN STARCH, ARTIFICIAL FLAVORS, ARTIFICIAL COLORS (FD&C BLUE 1, RED 3, RED 40, YELLOW 5, TITANIUM DIOXIDE)." Date available: 07/14/2017 Date last updated by company: 07/14/2017
