Source: USDA Branded Food Products Database Release December 2017 Software v.3.8.6.4 2017-10-02
Report Run at: December 18, 2017 19:20 EST
"Nutrient data for: 45011709, TRECHAS, SPICY POWDER WITH REAL LIME, UPC: 725810000193"
Food Group:  Branded Food Products Database
Common Name:

Nutrient,Unit,Data points,Std. Error,"0.25 tsp = 1.2g",1Value per 100 g,
Proximates
"Energy",kcal,--,--,0,0
"Protein",g,--,--,0.00,0.00
"Total lipid (fat)",g,--,--,0.00,0.00
"Carbohydrate, by difference",g,--,--,1.00,83.33
Minerals
"Sodium, Na",mg,--,--,150,12500
Vitamins
Lipids
Amino Acids
Other
Ingredients
"IODIZED SALT, CITRIC ACID, GUAJILLO PEPPERS, SUGAR, DEHYDRATED LIME JUICE, SILICON DIOXIDE TO PRESERVE FRESHNESS, FD&C YELLOW #5." Date available: 06/24/2017 Date last updated by company: 06/24/2017
