Source: USDA Branded Food Products Database Release December 2017 Software v.3.8.6.4 2017-10-02
Report Run at: December 18, 2017 19:20 EST
"Nutrient data for: 45149131, TREE FORT, FLAVORED SODA, JUICY ORANGE, UPC: 680474012787"
Food Group:  Branded Food Products Database
Common Name:

Nutrient,Unit,Data points,Std. Error,"1 BOTTLE = 355.0g",1Value per 100 g,
Proximates
"Energy",kcal,--,--,138,39
"Protein",g,--,--,0.00,0.00
"Total lipid (fat)",g,--,--,0.00,0.00
"Carbohydrate, by difference",g,--,--,36.00,10.14
"Sugars, total",g,--,--,35.00,9.86
Minerals
"Sodium, Na",mg,--,--,0,0
Vitamins
"Vitamin C, total ascorbic acid",mg,--,--,6.0,1.7
"Vitamin A, IU",IU,--,--,202,57
Lipids
Amino Acids
Other
Ingredients
"CARBONATED WATER, CANE SUGAR, ORANGE JUICE CONCENTRATE, NATURAL FLAVORS, CITRIC ACID, CARAMEL COLOR, BETA CAROTENE." Date available: 07/14/2017 Date last updated by company: 07/14/2017
