Source: USDA Branded Food Products Database Release December 2017 Software v.3.8.6.4 2017-10-02
Report Run at: December 18, 2017 19:21 EST
"Nutrient data for: 45159415, TREFF, CHOCOLATE FLAVOURED CREAM BISCUITS, UPC: 904006207053"
Food Group:  Branded Food Products Database
Common Name:

Nutrient,Unit,Data points,Std. Error,"3.0 COOKIES = 30.0g",1Value per 100 g,
Proximates
"Energy",kcal,--,--,135,450
"Protein",g,--,--,2.00,6.67
"Total lipid (fat)",g,--,--,5.00,16.67
"Carbohydrate, by difference",g,--,--,22.00,73.33
"Fiber, total dietary",g,--,--,0.0,0.0
"Sugars, total",g,--,--,10.00,33.33
Minerals
"Calcium, Ca",mg,--,--,0,0
"Iron, Fe",mg,--,--,0.00,0.00
"Sodium, Na",mg,--,--,70,233
Vitamins
"Vitamin C, total ascorbic acid",mg,--,--,0.0,0.0
"Vitamin A, IU",IU,--,--,0,0
Lipids
"Fatty acids, total saturated",g,--,--,2.001,6.670
"Fatty acids, total trans",g,--,--,0.000,0.000
"Cholesterol",mg,--,--,0,0
Amino Acids
Other
Ingredients
"WHEAT FLOUR, SUGAR, EDIBLE VEGETABLE PALM OIL, INVERT SYRUP, CORN STARCH, SKIM MILK POWDER, COCOA POWDER, SALT, LEAVENING AGENTS, SODIUM BI CARBONATE, AMMONIUM BI CARBONATE, EMULSIFIERS SOY LECITHIN, MONO - AND DIGLYCERIDES OF VEGETABLE ORIGIN, ANTI OXIDANT - TBHQ. CONTAINS PERMITTED NATURAL FOOD COLOUR CARAMEL AND ADDED ARTIFICIAL FLAVOURS (CHOCOLATE & VANILLA)." Date available: 07/14/2017 Date last updated by company: 07/14/2017
