Source: USDA Branded Food Products Database Release December 2017 Software v.3.8.6.4 2017-10-02
Report Run at: December 18, 2017 19:21 EST
"Nutrient data for: 45226513, TRES LECHES CAKE, UPC: 737741003204"
Food Group:  Branded Food Products Database
Common Name:

Nutrient,Unit,Data points,Std. Error,"4.0 ONZ = 112.0g",1Value per 100 g,
Proximates
"Energy",kcal,--,--,270,241
"Protein",g,--,--,7.00,6.25
"Total lipid (fat)",g,--,--,7.00,6.25
"Carbohydrate, by difference",g,--,--,48.00,42.86
"Fiber, total dietary",g,--,--,0.0,0.0
"Sugars, total",g,--,--,43.00,38.39
Minerals
"Calcium, Ca",mg,--,--,200,179
"Iron, Fe",mg,--,--,0.26,0.23
"Sodium, Na",mg,--,--,150,134
Vitamins
"Vitamin C, total ascorbic acid",mg,--,--,0.9,0.8
"Vitamin A, IU",IU,--,--,143,128
Lipids
"Fatty acids, total saturated",g,--,--,3.998,3.570
"Fatty acids, total trans",g,--,--,0.000,0.000
"Cholesterol",mg,--,--,50,45
Amino Acids
Other
Ingredients
"EVAPORATED MILK (MILK, DIPOTASSIUM PHOSPHATE, CARRAGEENAN, VITAMIN D3), CONDENSED MILK (WHOLE MILK, SUCROSE(SUGAR)), SUGAR, WHOLE EGGS, BLEACHED WHEAT FLOUR, CORN SYRUP, WATER, MARSHMALLOW POWDER (DEXTROSE, DRIED EGG WHITES, CORNSTARCH, CREAM OF TARTAR, GELATIN, SODIUM ALUMINUM SULFATE, CONTAINS LESS THAN 2% OF SALT, NATURAL AND ARTIFICIAL FLAVOR), NONFAT DRY MILK (MILK SOLIDS), SHORTENING (WATER, SORBITAN MONOSTEARATE, POLYSORBATE 60, MONO-DIGLYCERIDES, CONTAINS 2% OR LESS OF: SODIUM PROPIONATE, PHOSPHORIC ACID), BAKING POWDER (SODIUM ACID PYROPHOSPHATE, SODIUM BICARBONATE, CORNSTARCH, MONOCALCIUM PHOSPHATE), SALT, POTASSIUM SORBATE TO PRESERVE FRESHNESS, MERENGUE STABILIZER (PECTIN, CITRIC ACID SALT, CORNSTARCH, SODIUM BENZOATE), AND CHERRY (CHERRY, CORN SYRUP, HIGH FRUCTOSE CORN SYRUP, WATER, CITRIC ACID, NATURAL AND ARTIFICIAL FLAVOR, FD & C RED #40, PRESERVE WITH 1/10 OF 1% OF POTASSIUM SORBATE, SODIUM BENZOATE, SULFUR DIOXIDE)." Date available: 07/14/2017 Date last updated by company: 07/14/2017
