Source: USDA Branded Food Products Database Release December 2017 Software v.3.8.6.4 2017-10-02
Report Run at: December 18, 2017 19:21 EST
"Nutrient data for: 45159041, TRESOR DORE, SEASHELLS CHOCOLATE, FINE BELGIAN, UPC: 876416157566"
Food Group:  Branded Food Products Database
Common Name:

Nutrient,Unit,Data points,Std. Error,"4.0 PIECES = 45.0g",1Value per 100 g,
Proximates
"Energy",kcal,--,--,260,578
"Protein",g,--,--,3.00,6.67
"Total lipid (fat)",g,--,--,17.00,37.78
"Carbohydrate, by difference",g,--,--,23.00,51.11
"Fiber, total dietary",g,--,--,1.0,2.2
"Sugars, total",g,--,--,22.00,48.89
Minerals
"Calcium, Ca",mg,--,--,80,178
"Iron, Fe",mg,--,--,0.00,0.00
"Sodium, Na",mg,--,--,45,100
Vitamins
"Vitamin C, total ascorbic acid",mg,--,--,0.0,0.0
"Vitamin A, IU",IU,--,--,0,0
Lipids
"Fatty acids, total saturated",g,--,--,9.000,20.000
"Fatty acids, total trans",g,--,--,0.000,0.000
"Cholesterol",mg,--,--,10,22
Amino Acids
Other
Ingredients
"SUGAR, DRY WHOLE MILK, COCOA BUTTER, CHOCOLATE LIQUOR, VEGETABLE OIL, HAZELNUTS, LACTOSE, COCOA POWDER, NONFAT DRY MILK, WHEY POWDER, SOY LECITHIN, POLYGLYCEROL POLYRICINOLEATE, VANILLIN (ARTIFICIAL FLAVOR)." Date available: 07/14/2017 Date last updated by company: 07/14/2017
