Source: USDA Branded Food Products Database Release December 2017 Software v.3.8.6.4 2017-10-02
Report Run at: December 18, 2017 19:22 EST
"Nutrient data for: 45265740, TRIAL MIX SIMPLE NUT BLEND, ALMONDS, CASHEWS AND MACADAMIA NUTS, UPC: 038718709618"
Food Group:  Branded Food Products Database
Common Name:

Nutrient,Unit,Data points,Std. Error,"0.25 cup = 34.0g",1Value per 100 g,
Proximates
"Energy",kcal,--,--,200,588
"Protein",g,--,--,6.00,17.65
"Total lipid (fat)",g,--,--,18.00,52.94
"Carbohydrate, by difference",g,--,--,7.00,20.59
"Fiber, total dietary",g,--,--,2.0,5.9
"Sugars, total",g,--,--,2.00,5.88
Minerals
"Calcium, Ca",mg,--,--,60,176
"Iron, Fe",mg,--,--,2.12,6.23
"Magnesium, Mg",mg,--,--,118,346
"Phosphorus, P",mg,--,--,221,649
"Sodium, Na",mg,--,--,135,397
"Copper, Cu",mg,--,--,0.400,1.176
"Manganese, Mn",mg,--,--,0.680,2.000
Vitamins
"Vitamin C, total ascorbic acid",mg,--,--,0.0,0.0
"Vitamin A, IU",IU,--,--,0,0
Lipids
"Fatty acids, total saturated",g,--,--,1.999,5.880
"Fatty acids, total monounsaturated",g,--,--,10.999,32.350
"Fatty acids, total polyunsaturated",g,--,--,3.998,11.760
"Fatty acids, total trans",g,--,--,0.000,0.000
"Cholesterol",mg,--,--,0,0
Amino Acids
Other
Ingredients
"ALMONDS (ALMONDS, PEANUT OIL, SALT), CASHEWS (CASHEWS, PEANUT OIL, SALT), MACADAMIA NUTS (MACADAMIA NUTS, SALT)." Date available: 07/14/2017 Date last updated by company: 07/14/2017
