Source: USDA Branded Food Products Database Release December 2017 Software v.3.8.6.4 2017-10-02
Report Run at: December 18, 2017 19:29 EST
"Nutrient data for: 45231309, TRIPLE CREME - SOFT RIPENED CHEESE, UPC: 265150025505"
Food Group:  Branded Food Products Database
Common Name:

Nutrient,Unit,Data points,Std. Error,"1 ONZ = 28.0g",1Value per 100 g,
Proximates
"Energy",kcal,--,--,120,429
"Protein",g,--,--,3.00,10.71
"Total lipid (fat)",g,--,--,12.00,42.86
"Carbohydrate, by difference",g,--,--,0.00,0.00
"Fiber, total dietary",g,--,--,0.0,0.0
"Sugars, total",g,--,--,0.00,0.00
Minerals
"Calcium, Ca",mg,--,--,80,286
"Iron, Fe",mg,--,--,0.00,0.00
"Sodium, Na",mg,--,--,190,679
Vitamins
"Vitamin C, total ascorbic acid",mg,--,--,0.0,0.0
"Vitamin A, IU",IU,--,--,715,2552
Lipids
"Fatty acids, total saturated",g,--,--,8.000,28.570
"Fatty acids, total trans",g,--,--,1.000,3.570
"Cholesterol",mg,--,--,35,125
Amino Acids
Other
Ingredients
"PASTEURIZED MILK AND CREAM, SALT, LACTIC STARTERS, ENZYME, PENICILLIUM CANDIDUM AND GEOTRICHUM (HARMLESS WHITE MOLD)." Date available: 07/14/2017 Date last updated by company: 07/14/2017
