Source: USDA Branded Food Products Database Release December 2017 Software v.3.8.6.4 2017-10-02
Report Run at: December 18, 2017 19:28 EST
"Nutrient data for: 45270996, TRIPLE CHOCOLATE TOFFEE, UPC: 811455012377"
Food Group:  Branded Food Products Database
Common Name:

Nutrient,Unit,Data points,Std. Error,"9.0 PCS = 40.0g",1Value per 100 g,
Proximates
"Energy",kcal,--,--,210,525
"Protein",g,--,--,2.00,5.00
"Total lipid (fat)",g,--,--,14.00,35.00
"Carbohydrate, by difference",g,--,--,22.00,55.00
"Fiber, total dietary",g,--,--,1.0,2.5
"Sugars, total",g,--,--,20.00,50.00
Minerals
"Calcium, Ca",mg,--,--,40,100
"Iron, Fe",mg,--,--,0.45,1.12
"Sodium, Na",mg,--,--,160,400
Vitamins
"Vitamin C, total ascorbic acid",mg,--,--,0.0,0.0
"Vitamin A, IU",IU,--,--,250,625
Lipids
"Fatty acids, total saturated",g,--,--,8.000,20.000
"Fatty acids, total trans",g,--,--,0.000,0.000
"Cholesterol",mg,--,--,20,50
Amino Acids
Other
Ingredients
"DARK CHOCOLATE (SUGAR, COCOA MASS (PROCESSED WITH ALKALI), COCOA BUTTER, BUTTER OIL, SOY LECITHIN, VANILLA), MILK CHOCOLATE (SUGAR, WHOLE MILK, COCOA BUTTER, COCOA MASS, SOY LECITHIN, VANILLA), SUGAR, AA GRADE BUTTER (CREAM, SALT), WHITE CHOCOLATE (SUGAR, COCOA BUTTER, WHOLE MILK, SOY LECITHIN, VANILLA), ALMONDS, COCOA POWDER (PROCESSED WITH ALKALI), SALT, SOY LECITHIN, TAPIOCA SYRUP, TAPIOCA DEXTRIN, CONFECTIONER'S GLAZE." Date available: 07/14/2017 Date last updated by company: 07/14/2017
