Source: USDA Branded Food Products Database Release December 2017 Software v.3.8.6.4 2017-10-02
Report Run at: December 18, 2017 19:28 EST
"Nutrient data for: 45142533, TRIPLE CHOCOLATE COOKIE, UPC: 029030003416"
Food Group:  Branded Food Products Database
Common Name:

Nutrient,Unit,Data points,Std. Error,"4.5 ONZ = 128.0g",1Value per 100 g,
Proximates
"Energy",kcal,--,--,570,445
"Protein",g,--,--,7.00,5.47
"Total lipid (fat)",g,--,--,28.01,21.88
"Carbohydrate, by difference",g,--,--,78.00,60.94
"Fiber, total dietary",g,--,--,2.9,2.3
"Sugars, total",g,--,--,48.00,37.50
Minerals
"Calcium, Ca",mg,--,--,40,31
"Iron, Fe",mg,--,--,2.11,1.65
"Sodium, Na",mg,--,--,291,227
Vitamins
"Vitamin C, total ascorbic acid",mg,--,--,0.0,0.0
"Vitamin A, IU",IU,--,--,293,229
Lipids
"Fatty acids, total saturated",g,--,--,14.003,10.940
"Cholesterol",mg,--,--,45,35
Amino Acids
Other
Ingredients
"ENRICHED WHEAT FLOUR (WHEAT, BARLEY, NIACIN, REDUCED IRON, THIAMINE MONONITRATE, RIBOFLAVIN, FOLIC ACID), CHOCOLATE CHUNKS (SUGAR, CHOCOLATE LIQUOR, COCOA BUTTER, SOY LECITHIN, VANILLA, SALT), SUGAR, BROWN SUGAR, VEGETABLE OIL BLEND (PALM FRUIT, SOYBEAN AND OLIVE OILS, WATER, SALT, NON-FAT MILK, MONO AND DIGLYCERIDES, SOY LECITHIN, POTASSIUM SORBATE AS A PRESERVATIVE, NATURAL AND ARTIFICIAL FLAVOR, VITAMIN A PALMITATE, BETA CAROTENE COLOR), BUTTER, EGGS, HERSHEYS MILK CHOCOLATE (SUGAR, MILK, CHOCOLATE, COCOA BUTTER, LACTOSE, MILK FAT, SOY LECITHIN, PGPR, VANILLIN), MILK CHOCOLATE CHUNKS (SUGAR, MILK POWDER, COCOA BUTTER, CHOCOLATE LIQUOR PROCESSED WITH ALKALI, DEXTROSE, MILK FAT, SOY LECITHIN, VANILLIN), INVERT SUGAR, SOY FLOUR, SALT, BAKING SODA, ARTIFICIAL VANILLA FLAVOR." Date available: 08/28/2017 Date last updated by company: 08/28/2017
