Source: USDA Branded Food Products Database Release December 2017 Software v.3.8.6.4 2017-10-02
Report Run at: December 18, 2017 19:30 EST
"Nutrient data for: 45261653, TRIPLE LEAF TEA, HERBAL LAXATIVE TEA DIETARY SUPPLEMENT, UPC: 023991000187"
Food Group:  Branded Food Products Database
Common Name:

Nutrient,Unit,Data points,Std. Error,"1 TEA BAG = 240.0g",1Value per 100 g,
Proximates
Minerals
Vitamins
Lipids
Amino Acids
Other
Ingredients
"PROPRIETARY BLEND OF HERBS: SENNA LEAF, STEM, LICORICE ROOT, GINGER ROOT, DANDELION LEAF, FO-TI (HE SHOU WU) ROOT, RHUBARB ROOT, SICKLE-POD SENNA SEED. OTHER INGREDIENTS: NATURAL ORANGE FLAVOR WITH OTHER NATURAL CITRUS FLAVORS." Date available: 09/23/2016 Date last updated by company: 09/23/2016
