Source: USDA Branded Food Products Database Release December 2017 Software v.3.8.6.4 2017-10-02
Report Run at: December 18, 2017 19:29 EST
"Nutrient data for: 45174110, TRIPLE LAYER FRUIT SNACKS, UPC: 041420746888"
Food Group:  Branded Food Products Database
Common Name:

Nutrient,Unit,Data points,Std. Error,"11.0 PIECES = 30.0g",1Value per 100 g,
Proximates
"Energy",kcal,--,--,100,333
"Protein",g,--,--,1.00,3.33
"Total lipid (fat)",g,--,--,0.00,0.00
"Carbohydrate, by difference",g,--,--,23.00,76.67
"Sugars, total",g,--,--,16.00,53.33
Minerals
"Sodium, Na",mg,--,--,15,50
Vitamins
"Vitamin C, total ascorbic acid",mg,--,--,80.0,266.7
Lipids
Amino Acids
Other
Ingredients
"APPLE JUICE FROM CONCENTRATE, CORN SYRUP, SUGAR, MODIFIED FOOD STARCH (CORN), GELATIN, LACTIC ACID, CITRIC ACID, ASCORBIC ACID (VITAMIN C), SODIUM LACTATE, FRUIT AND VEGETABLE JUICES ADDED FOR COLOR (BLACK CARROT, PURPLE CARROT, BLACKCURRANT, BLUEBERRY), COCONUT OIL*, NATURAL AND ARTIFICIAL FLAVORS, SODIUM CITRATE, TURMERIC (COLOR), BETA-CAROTENE (COLOR), CARNAUBA WAX*." Date available: 10/13/2017 Date last updated by company: 10/13/2017
