Source: USDA Branded Food Products Database Release December 2017 Software v.3.8.6.4 2017-10-02
Report Run at: December 18, 2017 19:29 EST
"Nutrient data for: 45285203, TRIPLE FUDGE DING DONGS, UPC: 888109112028"
Food Group:  Branded Food Products Database
Common Name:

Nutrient,Unit,Data points,Std. Error,"1 CAKE = 48.0g",1Value per 100 g,
Proximates
"Energy",kcal,--,--,210,438
"Protein",g,--,--,1.00,2.08
"Total lipid (fat)",g,--,--,10.00,20.83
"Carbohydrate, by difference",g,--,--,28.00,58.33
"Fiber, total dietary",g,--,--,1.0,2.1
"Sugars, total",g,--,--,21.00,43.75
Minerals
"Calcium, Ca",mg,--,--,20,42
"Iron, Fe",mg,--,--,2.40,5.00
"Sodium, Na",mg,--,--,180,375
Vitamins
"Vitamin C, total ascorbic acid",mg,--,--,0.0,0.0
"Vitamin A, IU",IU,--,--,0,0
Lipids
"Fatty acids, total saturated",g,--,--,6.998,14.580
"Fatty acids, total trans",g,--,--,0.000,0.000
"Cholesterol",mg,--,--,0,0
Amino Acids
Other
Ingredients
"DARK CHOCOLATE FLAVORED COATING [SUGAR, PALM KERNEL OIL, COCOA POWDER (PROCESSED WITH ALKALI), SOY LECITHIN (AN EMULSIFIER), NATURAL FLAVOR, WHOLE MILK POWDER AND SALT], SUGAR, WATER, BLEACHED ENRICHED WHEAT FLOUR [WHEAT FLOUR, NIACIN, FERROUS SULFATE (IRON), THIAMIN MONONITRATE, RIBOFLAVIN, FOLIC ACID], HYDROGENATED PALM KERNEL OIL, HIGH FRUCTOSE CORN SYRUP, CORN SYRUP, WHITE SUGAR DRIZZLE [PALM KERNEL OIL, NONFAT DRY MILK, WHOLE MILK POWDER, COCOA BUTTER, SOY LECITHIN (AN EMULSIFIER), NATURAL FLAVOR AND SALT], SHORTENING (PALM OIL, MONO AND DIGLYCERIDES), CONTAINS 2% OR LESS: COCOA (PROCESSED WITH ALKALI), PALM OIL, COCOA, SOY LECITHIN, GLYCERIN, SOYBEAN OIL, WHEY, MODIFIED CORN STARCH, BAKING SODA, SALT, MODIFIED CORN STARCH, NATURAL AND ARTIFICIAL FLAVOR, DISTILLED MONOGLYCERIDES, SOY PROTEIN ISOLATE, SORBIC ACID, POTASSIUM SORBATE AND NATAMYCIN (TO RETAIN FRESHNESS), WHEY PROTEIN CONCENTRATE, SODIUM ACID PYROPHOSPHATE, XANTHAN GUM, SODIUM STEAROYL LACTYLATE, MONOGLYCERIDE, CELLULOSE GUM, ENZYMES, MONOCALCIUM PHOSPHATE, ASCORBIC ACID." Date available: 07/14/2017 Date last updated by company: 07/14/2017
