Source: USDA Branded Food Products Database Release December 2017 Software v.3.8.6.4 2017-10-02
Report Run at: December 18, 2017 19:32 EST
"Nutrient data for: 45143083, TROLLI, SOUR BRITE CRAWLERS MINIS GUMMI CANDY, WATERMELON, UPC: 041420102769"
Food Group:  Branded Food Products Database
Common Name:

Nutrient,Unit,Data points,Std. Error,"20.0 PIECES = 40.0g",1Value per 100 g,
Proximates
"Energy",kcal,--,--,130,325
"Protein",g,--,--,2.00,5.00
"Total lipid (fat)",g,--,--,0.00,0.00
"Carbohydrate, by difference",g,--,--,31.00,77.50
"Sugars, total",g,--,--,18.00,45.00
Minerals
"Sodium, Na",mg,--,--,40,100
Vitamins
Lipids
Amino Acids
Other
Ingredients
"CORN SYRUP, SUGAR, GELATIN, MODIFIED FOOD STARCH (CORN), FUMARIC ACID, LACTIC ACID, CITRIC ACID, NATURAL AND ARTIFICIAL FLAVORS, SODIUM CITRATE, CALCIUM LACTATE, SODIUM LACTATE, TITANIUM DIOXIDE [COLOR], YELLOW 5, RED 40, BLUE 1" Date available: 07/14/2017 Date last updated by company: 07/14/2017
