Source: USDA Branded Food Products Database Release December 2017 Software v.3.8.6.4 2017-10-02
Report Run at: December 18, 2017 19:38 EST
"Nutrient data for: 45214752, TROPICAL HEAT CANDIES, UPC: 070970474095"
Food Group:  Branded Food Products Database
Common Name:

Nutrient,Unit,Data points,Std. Error,"20.0 PIECES = 40.0g",1Value per 100 g,
Proximates
"Energy",kcal,--,--,140,350
"Protein",g,--,--,0.00,0.00
"Total lipid (fat)",g,--,--,0.00,0.00
"Carbohydrate, by difference",g,--,--,36.00,90.00
"Sugars, total",g,--,--,25.00,62.50
Minerals
"Sodium, Na",mg,--,--,30,75
Vitamins
Lipids
"Fatty acids, total saturated",g,--,--,0.000,0.000
"Fatty acids, total trans",g,--,--,0.000,0.000
"Cholesterol",mg,--,--,0,0
Amino Acids
Other
Ingredients
"SUGAR, CORN SYRUP, MODIFIED FOOD STARCH, CONTAINS LESS THAN 0.5% OF THE FOLLOWING INGREDIENTS: FUMARIC ACID, NATURAL AND ARTIFICIAL FLAVORS, SODIUM CITRATE, DEXTRIN, CITRIC ACID, MALIC ACID, ARTIFICIAL COLOR, CONFECTIONERS GLAZE, RED #40, CARNAUBA WAX, MEDIUM CHAIN TRIGLYCERIDES, YELLOW #5 (TARTRAZINE), YELLOW #6, BLUE #1." Date available: 07/14/2017 Date last updated by company: 07/14/2017
