Source: USDA Branded Food Products Database Release December 2017 Software v.3.8.6.4 2017-10-02
Report Run at: December 18, 2017 19:45 EST
"Nutrient data for: 45099261, TROPICS, PEELED GUAVA, UPC: 030283012117"
Food Group:  Branded Food Products Database
Common Name:

Nutrient,Unit,Data points,Std. Error,"1.5 cup = 110.0g",1Value per 100 g,
Proximates
"Energy",kcal,--,--,117,106
"Protein",g,--,--,1.00,0.91
"Total lipid (fat)",g,--,--,1.00,0.91
"Carbohydrate, by difference",g,--,--,27.00,24.55
"Fiber, total dietary",g,--,--,8.0,7.3
"Sugars, total",g,--,--,0.00,0.00
Minerals
"Calcium, Ca",mg,--,--,50,45
"Iron, Fe",mg,--,--,1.44,1.31
"Sodium, Na",mg,--,--,7,6
Vitamins
"Vitamin C, total ascorbic acid",mg,--,--,199.8,181.6
"Vitamin A, IU",IU,--,--,150,136
Lipids
"Fatty acids, total saturated",g,--,--,0.00,0.00
"Fatty acids, total trans",g,--,--,0.00,0.00
"Cholesterol",mg,--,--,0,0
Amino Acids
Other
Ingredients
"GUAVA" Date last updated by company: 04/27/2016
