Source: USDA Branded Food Products Database Release December 2017 Software v.3.8.6.4 2017-10-02
Report Run at: December 18, 2017 19:40 EST
"Nutrient data for: 45170786, TROPICAL PEPPER CO., SCORPION PEPPER SAUCE, UPC: 076606247316"
Food Group:  Branded Food Products Database
Common Name:

Nutrient,Unit,Data points,Std. Error,"1 tsp = 5.0g",1Value per 100 g,
Proximates
"Energy",kcal,--,--,0,0
"Protein",g,--,--,0.00,0.00
"Total lipid (fat)",g,--,--,0.00,0.00
"Carbohydrate, by difference",g,--,--,0.00,0.00
"Sugars, total",g,--,--,0.00,0.00
Minerals
"Sodium, Na",mg,--,--,140,2800
Vitamins
Lipids
Amino Acids
Other
Ingredients
"SCORPION PEPPERS, WATER, SALT, ACETIC ACID, XANTHAN GUM." Date available: 06/25/2017 Date last updated by company: 06/25/2017
