Source: USDA Branded Food Products Database Release December 2017 Software v.3.8.6.4 2017-10-02
Report Run at: December 18, 2017 19:42 EST
"Nutrient data for: 45326932, TROPICAL TRAIL MIX, UPC: 038259104040"
Food Group:  Branded Food Products Database
Common Name:

Nutrient,Unit,Data points,Std. Error,"0.25 CUP | ABOUT = 28.0g",1Value per 100 g,
Proximates
"Energy",kcal,--,--,130,464
"Protein",g,--,--,2.00,7.14
"Total lipid (fat)",g,--,--,7.00,25.00
"Carbohydrate, by difference",g,--,--,16.00,57.14
"Fiber, total dietary",g,--,--,2.0,7.1
"Sugars, total",g,--,--,10.00,35.71
Minerals
"Calcium, Ca",mg,--,--,20,71
"Iron, Fe",mg,--,--,1.29,4.59
"Sodium, Na",mg,--,--,45,161
Vitamins
"Vitamin C, total ascorbic acid",mg,--,--,2.2,7.7
"Vitamin A, IU",IU,--,--,0,0
Lipids
"Fatty acids, total saturated",g,--,--,1.501,5.360
"Fatty acids, total monounsaturated",g,--,--,3.500,12.500
"Fatty acids, total polyunsaturated",g,--,--,0.501,1.790
"Fatty acids, total trans",g,--,--,0.000,0.000
"Cholesterol",mg,--,--,0,0
Amino Acids
Other
Ingredients
"BANANA CHIPS (BANANAS, COCONUT OIL, SUGAR, NATURAL BANANA FLAVOR), PAPAYA (PAPAYA, CANE SUGAR), PINEAPPLE (PINEAPPLE, CANE SUGAR, CITRIC ACID), CRANBERRIES (CRANBERRIES, SUGAR, REFINED SUNFLOWER OIL), RAISINS (RAISINS, VEGETABLE OIL AND/OR SUNFLOWER OIL), CASHEWS, ALMONDS, MACADAMIAS SEA SALT, PEANUT OIL." Date available: 10/13/2017 Date last updated by company: 10/13/2017
