Source: USDA Branded Food Products Database Release December 2017 Software v.3.8.6.4 2017-10-02
Report Run at: December 18, 2017 19:45 EST
"Nutrient data for: 45270086, TROPICS ICE CREAM, UPC: 098102480783"
Food Group:  Branded Food Products Database
Common Name:

Nutrient,Unit,Data points,Std. Error,"0.5 cup = 69.0g",1Value per 100 g,
Proximates
"Energy",kcal,--,--,160,232
"Protein",g,--,--,3.00,4.35
"Total lipid (fat)",g,--,--,9.00,13.04
"Carbohydrate, by difference",g,--,--,17.00,24.64
"Fiber, total dietary",g,--,--,0.0,0.0
"Sugars, total",g,--,--,17.00,24.64
Minerals
"Calcium, Ca",mg,--,--,80,116
"Iron, Fe",mg,--,--,0.41,0.59
"Sodium, Na",mg,--,--,120,174
Vitamins
"Vitamin C, total ascorbic acid",mg,--,--,0.7,1.0
"Vitamin A, IU",IU,--,--,337,489
Lipids
"Fatty acids, total saturated",g,--,--,6.003,8.700
"Fatty acids, total trans",g,--,--,0.000,0.000
"Cholesterol",mg,--,--,20,29
Amino Acids
Other
Ingredients
"MILKFAT AND NONFAT MILK SOLIDS, CANE SUGAR, CHOCOLATE CHIPS (SUGAR, CHOCOLATE LIQUOR, COCOA PROCESSED WITH ALKALI, COCOA BUTTER, COCONUT OIL, CORN SYRUP SOLIDS, LECITHIN, SALT, NATURAL FLAVORS), CORN SYRUP SOLIDS, MONO AND DIGLYCERIDES, NATURAL FLAVOR, LOCUST BEAN GUM, GUAR GUM, CARRAGEENAN, FD&C YELLOW #5, FD&C BLUE #1." Date available: 07/14/2017 Date last updated by company: 07/14/2017
