Source: USDA Branded Food Products Database Release December 2017 Software v.3.8.6.4 2017-10-02
Report Run at: December 18, 2017 19:40 EST
"Nutrient data for: 45170788, TROPICAL PEPPER CO., PAPAYA CURRY SAUCE, UPC: 076606527807"
Food Group:  Branded Food Products Database
Common Name:

Nutrient,Unit,Data points,Std. Error,"1 Tbsp = 15.0g",1Value per 100 g,
Proximates
"Energy",kcal,--,--,0,0
"Protein",g,--,--,0.00,0.00
"Total lipid (fat)",g,--,--,0.00,0.00
"Carbohydrate, by difference",g,--,--,3.00,20.00
"Sugars, total",g,--,--,2.00,13.33
Minerals
"Sodium, Na",mg,--,--,350,2333
Vitamins
"Vitamin C, total ascorbic acid",mg,--,--,4.8,32.0
Lipids
Amino Acids
Other
Ingredients
"SUGAR, CHAYOTE PULP, SALT, GREEN CAYENNE PEPPER PULP, CARROTS, CRUSHED FRESH CELERY, STARCH, ACETIC ACID, SOYA PROTEIN, CUMIN, PAPAYA, CUCUMBERS, CURRY, GARLIC PULP, ONION, CILANTRO POWDER." Date available: 06/25/2017 Date last updated by company: 06/25/2017
