Source: USDA Branded Food Products Database Release December 2017 Software v.3.8.6.4 2017-10-02
Report Run at: December 18, 2017 19:38 EST
"Nutrient data for: 45204606, TROPICAL GRAINLESS GRANOLA BAR, UPC: 858201005108"
Food Group:  Branded Food Products Database
Common Name:

Nutrient,Unit,Data points,Std. Error,"1.5 ONZ = 43.0g",1Value per 100 g,
Proximates
"Energy",kcal,--,--,188,437
"Protein",g,--,--,6.00,13.95
"Total lipid (fat)",g,--,--,12.00,27.91
"Carbohydrate, by difference",g,--,--,14.00,32.56
"Fiber, total dietary",g,--,--,6.0,14.0
"Sugars, total",g,--,--,6.00,13.95
Minerals
"Calcium, Ca",mg,--,--,60,140
"Iron, Fe",mg,--,--,1.34,3.11
"Sodium, Na",mg,--,--,45,105
Vitamins
"Vitamin C, total ascorbic acid",mg,--,--,2.2,5.2
"Vitamin A, IU",IU,--,--,0,0
Lipids
"Fatty acids, total saturated",g,--,--,5.001,11.630
"Cholesterol",mg,--,--,0,0
Amino Acids
Other
Ingredients
"RAW ALMONDS, SHREDDED COCONUT, MACADAMIA NUTS, DRIED PINEAPPLES, RAW SUNFLOWER SEEDS, RAW PUMPKIN SEED, COCONUT OIL, HONEY, SEA SALT, VANILLA EXTRACT." Date available: 07/14/2017 Date last updated by company: 07/14/2017
