Source: USDA Branded Food Products Database Release December 2017 Software v.3.8.6.4 2017-10-02
Report Run at: December 18, 2017 19:41 EST
"Nutrient data for: 45213327, TROPICAL SPLASH COCKTAIL, UPC: 011822181334"
Food Group:  Branded Food Products Database
Common Name:

Nutrient,Unit,Data points,Std. Error,"8.0 OZA = 240.0g",1Value per 100 g,
Proximates
"Energy",kcal,--,--,70,29
"Protein",g,--,--,0.00,0.00
"Total lipid (fat)",g,--,--,0.00,0.00
"Carbohydrate, by difference",g,--,--,18.00,7.50
"Fiber, total dietary",g,--,--,0.0,0.0
"Sugars, total",g,--,--,16.01,6.67
Minerals
"Calcium, Ca",mg,--,--,0,0
"Iron, Fe",mg,--,--,0.00,0.00
"Potassium, K",mg,--,--,50,21
"Sodium, Na",mg,--,--,50,21
Vitamins
"Vitamin C, total ascorbic acid",mg,--,--,60.0,25.0
"Vitamin A, IU",IU,--,--,2501,1042
Lipids
"Fatty acids, total saturated",g,--,--,0.000,0.000
"Fatty acids, total trans",g,--,--,0.000,0.000
"Cholesterol",mg,--,--,0,0
Amino Acids
Other
Ingredients
"FILTERED WATER, HIGH FRUCTOSE CORN SYRUP, CARROT JUICE FROM CONCENTRATE, FRUIT JUICES FROM CONCENTRATE (FILTERED WATER, APPLE JUICE CONCENTRATE, PINEAPPLE JUICE CONCENTRATE, KIWI JUICE CONCENTRATE, LIME JUICE CONCENTRATE), MALIC ACID, NATURAL FLAVORING, ASCORBIC ACID (VITAMIN C), MANGO PUREE, VITAMIN E ACETATE, BETA CAROTENE, SUCRALOSE." Date available: 07/14/2017 Date last updated by company: 07/14/2017
