Source: USDA Branded Food Products Database Release December 2017 Software v.3.8.6.4 2017-10-02
Report Run at: December 18, 2017 19:44 EST
"Nutrient data for: 45233168, TROPI-COLA, SPARKLING COLA CHAMPAGNE SODA, UPC: 041331040600"
Food Group:  Branded Food Products Database
Common Name:

Nutrient,Unit,Data points,Std. Error,"1 CAN = 355.0g",1Value per 100 g,
Proximates
"Energy",kcal,--,--,231,65
"Protein",g,--,--,0.00,0.00
"Total lipid (fat)",g,--,--,0.00,0.00
"Carbohydrate, by difference",g,--,--,57.01,16.06
"Sugars, total",g,--,--,57.01,16.06
Minerals
"Sodium, Na",mg,--,--,21,6
Vitamins
Lipids
Amino Acids
Other
Ingredients
"CONTAINS: CARBONATED WATER (WATER, CARBON DIOXIDE), HIGH FRUCTOSE CORN SYRUP, ARTIFICIAL FLAVOR, CARAMEL COLOR, CITRIC ACID AND SODIUM BENZOATE (PRESERVATIVE)." Date available: 06/24/2017 Date last updated by company: 06/24/2017
