Source: USDA Branded Food Products Database Release December 2017 Software v.3.8.6.4 2017-10-02
Report Run at: December 18, 2017 19:42 EST
"Nutrient data for: 45282517, TROPICAL TREAT TRAIL MIX, UPC: 688267141706"
Food Group:  Branded Food Products Database
Common Name:

Nutrient,Unit,Data points,Std. Error,"3.0 Tbsp = 30.0g",1Value per 100 g,
Proximates
"Energy",kcal,--,--,120,400
"Protein",g,--,--,1.00,3.33
"Total lipid (fat)",g,--,--,4.50,15.00
"Carbohydrate, by difference",g,--,--,21.00,70.00
"Fiber, total dietary",g,--,--,1.0,3.3
"Sugars, total",g,--,--,16.00,53.33
Minerals
"Calcium, Ca",mg,--,--,20,67
"Iron, Fe",mg,--,--,0.60,2.00
"Sodium, Na",mg,--,--,50,167
Vitamins
"Vitamin C, total ascorbic acid",mg,--,--,0.0,0.0
"Vitamin A, IU",IU,--,--,0,0
Lipids
"Fatty acids, total saturated",g,--,--,2.499,8.330
"Fatty acids, total trans",g,--,--,0.000,0.000
"Cholesterol",mg,--,--,0,0
Amino Acids
Other
Ingredients
"DRIED PAPAYA (PAPAYA, SUGAR, CITRIC ACID, SULFUR DIOXIDE [TO PRESERVE COLOR], YELLOW 5, YELLOW 6), BANANA CHIPS (BANANAS, COCONUT OIL, SUGAR, NATURAL FLAVOR), DRIED PINEAPPLE (PINEAPPLE, SUGAR, CITRIC ACID, SULFUR DIOXIDE [TO PRESERVE COLOR]), RAISINS, CASHEWS (CASHEWS, PEANUT OIL, SALT), DRIED CRANBERRIES (CRANBERRIES, SUGAR, CITRIC ACID, SUNFLOWER OIL, ELDERBERRY JUICE CONCENTRATE [COLOR]), GOLDEN RAISINS (RAISINS, SULFUR DIOXIDE [TO PRESERVE COLOR]), ALMONDS (ALMONDS, PEANUT OIL, SALT), DRIED COCONUT (COCONUT, SUGAR, CITRIC ACID, SULFUR DIOXIDE [PRESERVATIVE])." Date available: 07/14/2017 Date last updated by company: 07/14/2017
