Source: USDA Branded Food Products Database Release December 2017 Software v.3.8.6.4 2017-10-02
Report Run at: December 18, 2017 19:48 EST
"Nutrient data for: 45186615, TRUE STORY, ORGANIC UNCURED BEEF HOT DOGS, UPC: 850388783053"
Food Group:  Branded Food Products Database
Common Name:

Nutrient,Unit,Data points,Std. Error,"1 LINK = 56.0g",1Value per 100 g,
Proximates
"Energy",kcal,--,--,200,357
"Protein",g,--,--,11.00,19.64
"Total lipid (fat)",g,--,--,15.00,26.79
"Carbohydrate, by difference",g,--,--,2.00,3.57
"Fiber, total dietary",g,--,--,0.0,0.0
"Sugars, total",g,--,--,1.00,1.79
Minerals
"Calcium, Ca",mg,--,--,0,0
"Iron, Fe",mg,--,--,1.06,1.89
"Sodium, Na",mg,--,--,500,893
Vitamins
"Vitamin C, total ascorbic acid",mg,--,--,0.0,0.0
"Vitamin A, IU",IU,--,--,295,526
Lipids
"Fatty acids, total saturated",g,--,--,7.000,12.500
"Fatty acids, total trans",g,--,--,0.000,0.000
"Cholesterol",mg,--,--,45,80
Amino Acids
Other
Ingredients
"ORGANIC BEEF, WATER, 2% OR LESS OF: ORGANIC SPICES, ORGANIC EVAPORATED CANE SUGAR, ORGANIC ONION POWDER, SEA SALT, ORGANIC PAPRIKA, ORGANIC GARLIC POWDER, SODIUM LACTATE, CELERY POWDER, NATURAL FLAVORS." Date available: 07/14/2017 Date last updated by company: 07/14/2017
