Source: USDA Branded Food Products Database Release December 2017 Software v.3.8.6.4 2017-10-02
Report Run at: December 18, 2017 19:47 EST
"Nutrient data for: 45261783, TRUE GREEN TEA, UPC: 899804002132"
Food Group:  Branded Food Products Database
Common Name:

Nutrient,Unit,Data points,Std. Error,"8.0 OZA = 237.0g",1Value per 100 g,
Proximates
"Energy",kcal,--,--,0,0
"Protein",g,--,--,0.00,0.00
"Total lipid (fat)",g,--,--,0.00,0.00
"Carbohydrate, by difference",g,--,--,0.00,0.00
"Sugars, total",g,--,--,0.00,0.00
Minerals
"Sodium, Na",mg,--,--,0,0
Vitamins
Lipids
Amino Acids
Other
Ingredients
"REVERSE OSMOSIS WATER, ORGANIC GREEN TEA, ALPHA-GLYCERYL PHOSPHORYL CHOLINE (ALPHA -GPC), CITRIC ACID, SODIUM CITRATE, STEVIA, PLANT STEROLS, ORGANIC GUAR GUM, ORGANIC GUM ACACIA." Date available: 07/14/2017 Date last updated by company: 07/14/2017
