Source: USDA Branded Food Products Database Release December 2017 Software v.3.8.6.4 2017-10-02
Report Run at: December 18, 2017 19:48 EST
"Nutrient data for: 45139843, TRUENORTH, ALMOND PECAN CASHEW CLUSTERS, UPC: 872181004319"
Food Group:  Branded Food Products Database
Common Name:

Nutrient,Unit,Data points,Std. Error,"5.0 CLUSTERS | ABOUT = 28.0g",1Value per 100 g,
Proximates
"Energy",kcal,--,--,170,607
"Protein",g,--,--,5.00,17.86
"Total lipid (fat)",g,--,--,12.00,42.86
"Carbohydrate, by difference",g,--,--,9.00,32.14
"Fiber, total dietary",g,--,--,3.0,10.7
"Sugars, total",g,--,--,5.00,17.86
Minerals
"Calcium, Ca",mg,--,--,40,143
"Iron, Fe",mg,--,--,1.29,4.59
"Magnesium, Mg",mg,--,--,71,255
"Phosphorus, P",mg,--,--,143,510
"Sodium, Na",mg,--,--,90,321
"Zinc, Zn",mg,--,--,0.60,2.14
"Manganese, Mn",mg,--,--,0.280,1.000
Vitamins
"Vitamin C, total ascorbic acid",mg,--,--,0.0,0.0
"Vitamin A, IU",IU,--,--,0,0
Lipids
"Fatty acids, total saturated",g,--,--,1.000,3.570
"Fatty acids, total monounsaturated",g,--,--,8.000,28.570
"Fatty acids, total polyunsaturated",g,--,--,2.999,10.710
"Fatty acids, total trans",g,--,--,0.000,0.000
"Cholesterol",mg,--,--,0,0
Amino Acids
Other
Ingredients
"ALMONDS, BROWN RICE SYRUP, PECANS, CASHEWS, ORGANIC SUGAR, SEA SALT, AND SUNFLOWER OIL." Date available: 07/14/2017 Date last updated by company: 07/14/2017
