Source: USDA Branded Food Products Database Release December 2017 Software v.3.8.6.4 2017-10-02
Report Run at: December 18, 2017 19:47 EST
"Nutrient data for: 45149851, TRUE LEMON, FRUIT ORCHARD, DRINK MIX, SUMMER BERRY MEDLEY, UPC: 810979002659"
Food Group:  Branded Food Products Database
Common Name:

Nutrient,Unit,Data points,Std. Error,"1 PACKET = 9.0g",1Value per 100 g,
Proximates
"Energy",kcal,--,--,30,333
"Protein",g,--,--,0.00,0.00
"Total lipid (fat)",g,--,--,0.00,0.00
"Carbohydrate, by difference",g,--,--,8.00,88.89
"Sugars, total",g,--,--,6.00,66.67
Minerals
"Sodium, Na",mg,--,--,0,0
Vitamins
"Vitamin C, total ascorbic acid",mg,--,--,333.3,3703.7
Lipids
Amino Acids
Other
Ingredients
"SUGAR, LEMON JUICE POWDER [CITRIC ACID, LEMON JUICE, LEMON OIL, ASCORBIC ACID (VITAMIN C)], WHOLE APPLE POWDER, NATURAL BERRY FLAVOR, RASPBERRY JUICE POWDER, WHOLE STRAWBERRY POWDER, WHOLE BLUEBERRY POWDER, STEVIA LEAF EXTRACT*, CARAMEL AND GRAPE JUICE (FOR COLOR)." Date available: 07/14/2017 Date last updated by company: 07/14/2017
