Source: USDA Branded Food Products Database Release December 2017 Software v.3.8.6.4 2017-10-02
Report Run at: December 18, 2017 19:48 EST
"Nutrient data for: 45012390, TRUE ORANGE, DRINK MIX, MANGO, ORANGE, UPC: 810979004318"
Food Group:  Branded Food Products Database
Common Name:

Nutrient,Unit,Data points,Std. Error,"1 PACKET = 3.0g",1Value per 100 g,
Proximates
"Energy",kcal,--,--,10,333
"Protein",g,--,--,0.00,0.00
"Total lipid (fat)",g,--,--,0.00,0.00
"Carbohydrate, by difference",g,--,--,1.00,33.33
"Sugars, total",g,--,--,1.00,33.33
Minerals
"Sodium, Na",mg,--,--,0,0
Vitamins
"Vitamin C, total ascorbic acid",mg,--,--,1000.0,33333.4
Lipids
Amino Acids
Other
Ingredients
"CRYSTALLIZED ORANGE [CITRIC ACID, MALIC ACID, ORANGE OIL, ORANGE JUICE, ASCORBIC ACID (VITAMIN C)], SUGAR, NATURAL MANGO FLAVOR, STEVIA LEAF EXTRACT*, BEET JUICE AND BETA-CAROTENE (FOR COLOR)." Date available: 06/25/2017 Date last updated by company: 06/25/2017
