Source: USDA Branded Food Products Database Release December 2017 Software v.3.8.6.4 2017-10-02
Report Run at: December 18, 2017 19:47 EST
"Nutrient data for: 45010416, TRUE LEMON, UNSWEETENED LEMON DRINK MIX, LEMON, UPC: 810979001249"
Food Group:  Branded Food Products Database
Common Name:

Nutrient,Unit,Data points,Std. Error,"1 PACKET = 1.0g",1Value per 100 g,
Proximates
"Energy",kcal,--,--,0,0
"Protein",g,--,--,0.00,0.00
"Total lipid (fat)",g,--,--,0.00,0.00
"Carbohydrate, by difference",g,--,--,1.00,100.00
"Sugars, total",g,--,--,0.00,0.00
Minerals
"Sodium, Na",mg,--,--,0,0
Vitamins
"Vitamin C, total ascorbic acid",mg,--,--,750.0,75000.0
Lipids
Amino Acids
Other
Ingredients
"CRYSTALLIZED LEMON [CITRIC ACID, LEMON OIL, LEMON JUICE, ASCORBIC ACID (VITAMIN C)]." Date available: 06/24/2017 Date last updated by company: 06/24/2017
