Source: USDA Branded Food Products Database Release December 2017 Software v.3.8.6.4 2017-10-02
Report Run at: December 18, 2017 19:52 EST
"Nutrient data for: 45136593, TRUMOO, 1% LOWFAT MILK, VANILLA, UPC: 041900075262"
Food Group:  Branded Food Products Database
Common Name:

Nutrient,Unit,Data points,Std. Error,"1 CONTAINER = 236.0g",1Value per 100 g,
Proximates
"Energy",kcal,--,--,130,55
"Protein",g,--,--,8.00,3.39
"Total lipid (fat)",g,--,--,2.50,1.06
"Carbohydrate, by difference",g,--,--,19.00,8.05
"Fiber, total dietary",g,--,--,0.0,0.0
"Sugars, total",g,--,--,18.01,7.63
Minerals
"Calcium, Ca",mg,--,--,300,127
"Iron, Fe",mg,--,--,0.00,0.00
"Sodium, Na",mg,--,--,130,55
Vitamins
"Vitamin C, total ascorbic acid",mg,--,--,0.0,0.0
"Vitamin A, IU",IU,--,--,507,215
"Vitamin D",IU,--,--,99,42
Lipids
"Fatty acids, total saturated",g,--,--,1.510,0.640
"Fatty acids, total trans",g,--,--,0.000,0.000
"Cholesterol",mg,--,--,9,4
Amino Acids
Other
Ingredients
"LOWFAT MILK, SUGAR, CONTAINS LESS THAN 1% OF: NATURAL FLAVOR, CARRAGEENAN, VITAMIN A PALMITATE, VITAMIN D3." Date available: 07/14/2017 Date last updated by company: 07/14/2017
