Source: USDA Branded Food Products Database Release December 2017 Software v.3.8.6.4 2017-10-02
Report Run at: December 18, 2017 19:51 EST
"Nutrient data for: 45038914, TRUMOO, ICE CREAM CUPS, CHOCOLATE VANILLA SWIRL, UPC: 041900077600"
Food Group:  Branded Food Products Database
Common Name:

Nutrient,Unit,Data points,Std. Error,"1 UNIT = 53.0g",1Value per 100 g,
Proximates
"Energy",kcal,--,--,90,170
"Protein",g,--,--,3.00,5.66
"Total lipid (fat)",g,--,--,1.50,2.83
"Carbohydrate, by difference",g,--,--,15.00,28.30
"Fiber, total dietary",g,--,--,0.0,0.0
"Sugars, total",g,--,--,14.00,26.42
Minerals
"Calcium, Ca",mg,--,--,100,189
"Iron, Fe",mg,--,--,0.00,0.00
"Sodium, Na",mg,--,--,50,94
Vitamins
"Vitamin C, total ascorbic acid",mg,--,--,0.0,0.0
"Vitamin A, IU",IU,--,--,200,377
Lipids
"Fatty acids, total saturated",g,--,--,1.002,1.890
"Fatty acids, total trans",g,--,--,0.000,0.000
"Cholesterol",mg,--,--,5,9
Amino Acids
Other
Ingredients
"MILKFAT AND NONFAT MILK, SUGAR, WHEY, CONTAINS LESS THAN 2% OF COCOA (PROCESSED WITH ALKALI), MALTODEXTRIN, MONO AND DIGLYCERIDES, CELLULOSE GUM, GUAR GUM, CARRAGEENAN, CORNSTARCH, SALT, NATURAL FLAVORS, ANNATTO (COLOR), VITAMIN A PALMITATE." Date available: 06/24/2017 Date last updated by company: 06/24/2017
