Source: USDA Branded Food Products Database Release December 2017 Software v.3.8.6.4 2017-10-02
Report Run at: December 18, 2017 19:52 EST
"Nutrient data for: 45028051, TRY ME, OYSTER & SHRIMP SAUCE, UPC: 075076100190"
Food Group:  Branded Food Products Database
Common Name:

Nutrient,Unit,Data points,Std. Error,"1 tsp = 6.0g",1Value per 100 g,
Proximates
"Energy",kcal,--,--,10,167
"Protein",g,--,--,0.00,0.00
"Total lipid (fat)",g,--,--,0.00,0.00
"Carbohydrate, by difference",g,--,--,2.00,33.33
"Sugars, total",g,--,--,2.00,33.33
Minerals
"Sodium, Na",mg,--,--,100,1667
Vitamins
Lipids
Amino Acids
Other
Ingredients
"VINEGAR, SUGAR, AGED RED PEPPERS, WORCESTERSHIRE SAUCE (WATER, VINEGAR, CORN SYRUP, SUGAR, HYDROLYZED CORN PROTEIN, SALT, CARAMEL COLOR, ANCHOVY, SPICES, TAMARIND, NATURAL FLAVORINGS), SALT, WATER, CONTAINS 2% OR LESS OF SPICES, VEGETABLE GUM AND 0.1% OF SODIUM BENZOATE AS A PRESERVATIVE." Date available: 06/24/2017 Date last updated by company: 06/24/2017
