Source: USDA Branded Food Products Database Release December 2017 Software v.3.8.6.4 2017-10-02
Report Run at: December 18, 2017 19:56 EST
"Nutrient data for: 45267386, TUNA STEAKS, UPC: 615433300247"
Food Group:  Branded Food Products Database
Common Name:

Nutrient,Unit,Data points,Std. Error,"5.0 ONZ = 142.0g",1Value per 100 g,
Proximates
"Energy",kcal,--,--,75,53
"Protein",g,--,--,17.00,11.97
"Total lipid (fat)",g,--,--,0.99,0.70
"Carbohydrate, by difference",g,--,--,0.00,0.00
"Fiber, total dietary",g,--,--,0.0,0.0
"Sugars, total",g,--,--,0.00,0.00
Minerals
"Calcium, Ca",mg,--,--,20,14
"Iron, Fe",mg,--,--,0.43,0.30
"Sodium, Na",mg,--,--,26,18
Vitamins
"Vitamin C, total ascorbic acid",mg,--,--,0.7,0.5
"Vitamin A, IU",IU,--,--,60,42
Lipids
"Fatty acids, total saturated",g,--,--,0.000,0.000
"Fatty acids, total trans",g,--,--,0.000,0.000
"Cholesterol",mg,--,--,30,21
Amino Acids
Other
Ingredients
"WILD CAUGHT TUNA, TASTELESS SMOKE (A COLOR PRESERVATIVE)." Date available: 07/14/2017 Date last updated by company: 07/14/2017
