Source: USDA Branded Food Products Database Release December 2017 Software v.3.8.6.4 2017-10-02
Report Run at: December 18, 2017 19:57 EST
"Nutrient data for: 45186728, TUPAT'S HAWAIIAN, ORANGE MANGO SEASONING, UPC: 850609005049"
Food Group:  Branded Food Products Database
Common Name:

Nutrient,Unit,Data points,Std. Error,"0.25 tsp = 0.5g",1Value per 100 g,
Proximates
"Energy",kcal,--,--,0,0
"Protein",g,--,--,0.00,0.00
"Total lipid (fat)",g,--,--,0.00,0.00
"Carbohydrate, by difference",g,--,--,0.00,0.00
Minerals
"Sodium, Na",mg,--,--,35,7000
Vitamins
Lipids
Amino Acids
Other
Ingredients
"MALTODEXTRIN, SOY SAUCE POWDER (SOY SAUCE (FERMENTED SOYBEANS AND SALT), MALTODEXTRIN AND SALT), GARLIC POWDER, SALT, MANGO POWDER, SUGAR, ORANGE JUICE POWDER (CORN SYRUP SOLIDS, ORANGE JUICE SOLIDS, ORANGE OIL), FISH SAUCE POWDER (FERMENTED ANCHOVIES (ANCHOVIES AND SALT), MALTODEXTRIN, SALT), SPICES, VINEGAR POWDER (MALTODEXTRIN, DISTILLED WHITE VINEGAR, MODIFIED WAXY CORN STARCH), SESAME OIL, DEHYDRATED ONION, BLACK SESAME SEEDS, CARAMEL COLOR, LEMON GRASS POWDER, LIME JUICE POWDER (CORN SYRUP SOLIDS, LIME JUICE SOLIDS, LIME OIL), SPICE EXTRACTIVES INCLUDING PAPRIKA (COLOR), WITH NO MORE THAN 2% TRICALCIUM PHOSPHATE AS ANTICAKING AGENT." Date available: 08/30/2017 Date last updated by company: 08/30/2017
