Source: USDA Branded Food Products Database Release December 2017 Software v.3.8.6.4 2017-10-02
Report Run at: December 18, 2017 20:13 EST
"Nutrient data for: 45326881, TURKEY SANDWICH ON CROISSANT, UPC: 826766143269"
Food Group:  Branded Food Products Database
Common Name:

Nutrient,Unit,Data points,Std. Error,"1 CONTAINER = 213.0g",1Value per 100 g,
Proximates
"Energy",kcal,--,--,501,235
"Protein",g,--,--,26.01,12.21
"Total lipid (fat)",g,--,--,26.01,12.21
"Carbohydrate, by difference",g,--,--,40.00,18.78
"Fiber, total dietary",g,--,--,1.9,0.9
"Sugars, total",g,--,--,5.01,2.35
Minerals
"Calcium, Ca",mg,--,--,300,141
"Iron, Fe",mg,--,--,1.77,0.83
"Sodium, Na",mg,--,--,1091,512
Vitamins
"Vitamin C, total ascorbic acid",mg,--,--,6.0,2.8
"Vitamin A, IU",IU,--,--,492,231
Lipids
"Fatty acids, total saturated",g,--,--,13.994,6.570
"Fatty acids, total trans",g,--,--,0.000,0.000
"Cholesterol",mg,--,--,104,49
Amino Acids
Other
Ingredients
"CROISSANT (ENRICHED FLOUR [WHEAT FLOUR, BARLEY MALT, NIACIN, IRON, THIAMINE MONONITRATE, RIBOFLAVIN, FOLIC ACID], WATER, CULTURED BUTTER [CREAM (MILK), LACTIC ACID], SUGAR, CONTAINS 2% OR LESS OF: YEAST, EGG WHITES, HIGH FRUCTOSE CORN SYRUP, SALT, EGGS, CALCIUM PROPIONATE [PRESERVATIVE], DOUGH CONDITIONERS [SODIUM STEAROYL LACTYLATE, ASCORBIC ACID, ENZYMES, L-CYSTEINE], SOY FLOUR, NATURAL AND ARTIFICIAL FLAVOR), FULLY COOKED TURKEY BREAST (TURKEY BREAST, TURKEY BROTH, LESS THAN 2% OF SALT, DEXTROSE, CARRAGEENAN, SODIUM PHOSPHATE), MILD CHEDDAR CHEESE (PASTEURIZED MILK, CHEESE CULTURE, SALT, ENZYMES, ANNATTO [COLOR]), ROMAINE LETTUCE." Date available: 10/13/2017 Date last updated by company: 10/13/2017
