Source: USDA Branded Food Products Database Release December 2017 Software v.3.8.6.4 2017-10-02
Report Run at: December 18, 2017 20:15 EST
"Nutrient data for: 45120782, TURKEY SMOKED SAUSAGE, UPC: 077782020021"
Food Group:  Branded Food Products Database
Common Name:

Nutrient,Unit,Data points,Std. Error,"1 LINK = 64.0g",1Value per 100 g,
Proximates
"Energy",kcal,--,--,110,172
"Protein",g,--,--,10.00,15.62
"Total lipid (fat)",g,--,--,6.00,9.38
"Carbohydrate, by difference",g,--,--,4.00,6.25
"Fiber, total dietary",g,--,--,0.0,0.0
"Sugars, total",g,--,--,2.00,3.12
Minerals
"Calcium, Ca",mg,--,--,20,31
"Iron, Fe",mg,--,--,0.62,0.97
"Sodium, Na",mg,--,--,710,1109
Vitamins
"Vitamin C, total ascorbic acid",mg,--,--,0.0,0.0
"Vitamin A, IU",IU,--,--,0,0
Lipids
"Fatty acids, total saturated",g,--,--,1.498,2.340
"Fatty acids, total trans",g,--,--,0.000,0.000
"Cholesterol",mg,--,--,45,70
Amino Acids
Other
Ingredients
"TURKEY, WATER AND LESS THAN 2% OF THE FOLLOWING: CORN SYRUP, POTASSIUM LACTATE, SALT, HYDROLYZED WHEY PROTEIN (FROM MILK), SUGAR, MODIFIED FOOD STARCH, MONOSODIUM GLUTAMATE, SODIUM DIACETATE, SODIUM PHOSPHATE, SODIUM ERYTHORBATE, SODIUM NITRITE, NATURAL AND ARTIFICIAL FLAVORS, COLLAGEN CASING." Date available: 07/14/2017 Date last updated by company: 07/14/2017
