Source: USDA Branded Food Products Database Release December 2017 Software v.3.8.6.4 2017-10-02
Report Run at: December 18, 2017 20:06 EST
"Nutrient data for: 45290672, TURKEY & HAVARATI SOURDOUGH, UPC: 049022857513"
Food Group:  Branded Food Products Database
Common Name:

Nutrient,Unit,Data points,Std. Error,"1 SERVING = 104.8g",1Value per 100 g,
Proximates
"Energy",kcal,--,--,210,200
"Protein",g,--,--,12.00,11.45
"Total lipid (fat)",g,--,--,8.00,7.63
"Carbohydrate, by difference",g,--,--,24.00,22.90
"Fiber, total dietary",g,--,--,3.0,2.9
"Sugars, total",g,--,--,2.00,1.91
Minerals
"Sodium, Na",mg,--,--,590,563
Vitamins
Lipids
"Fatty acids, total saturated",g,--,--,2.997,2.860
"Fatty acids, total trans",g,--,--,0.000,0.000
"Cholesterol",mg,--,--,20,19
Amino Acids
Other
Ingredients
"SOUR DOUGH BREAD (UNBLEACHED ENRICHED FLOUR (WHEAT FLOUR, MALT BARLEY FLOUR, NIACIN, FERROUS SULFATE, THIAMIN MONONITRATE, RIBOFLAVIN, FOLIC ACID), WATER, SUGAR CANE FIBER, CANE SUGAR, NON-GMO CANOLA AND/OR NON-GMO SOYBEAN OIL, SALT, VINEGAR, NON-GMO SOY LECITHIN, CULTURED WHEAT FOUR, YEAST, ENZYME (PLANT BASE), CALCIUM SULFATE & ASCORBIC ACID (VITAMIN C)); TURKEY (TURKEY BREAST, WHITE TURKEY, NATURAL TURKEY BROTH, MODIFIED FOOD STARCH, CONTAINS LESS THAN 2% OF DEXTROSE, CARRAGEENAN, SODIUM PHOSPHATE, NATURAL FLAVORINGS); HAVARTI CHEESE (PASTEURIZED MILK, SALT, CHEESE CULTURES, RENNET); TOMATO; LETTUCE; RED ONION." Date available: 09/22/2017 Date last updated by company: 09/22/2017
