Source: USDA Branded Food Products Database Release December 2017 Software v.3.8.6.4 2017-10-02
Report Run at: December 18, 2017 20:15 EST
"Nutrient data for: 45316783, TURKEY STOCK CONCENTRATE, UPC: 712102000467"
Food Group:  Branded Food Products Database
Common Name:

Nutrient,Unit,Data points,Std. Error,"2.0 tsp = 12.0g",1Value per 100 g,
Proximates
"Energy",kcal,--,--,15,125
"Protein",g,--,--,0.00,0.00
"Total lipid (fat)",g,--,--,0.00,0.00
"Carbohydrate, by difference",g,--,--,3.00,25.00
"Fiber, total dietary",g,--,--,0.0,0.0
"Sugars, total",g,--,--,0.00,0.00
Minerals
"Calcium, Ca",mg,--,--,0,0
"Iron, Fe",mg,--,--,0.00,0.00
"Sodium, Na",mg,--,--,370,3083
Vitamins
Lipids
"Fatty acids, total saturated",g,--,--,0.000,0.000
"Fatty acids, total trans",g,--,--,0.000,0.000
"Cholesterol",mg,--,--,0,0
Amino Acids
Other
Ingredients
"CHICKEN STOCK, MALTODEXTRIN, SEA SALT, TAPIOCA STARCH, CHICKEN FAT, NATURAL FLAVORS, YEAST EXTRACT, CONTAINS 1% OR LESS OF THE FOLLOWING: APPLEWOOD SMOKE FLAVOR, NATURAL TURKEY FLAVOR, SAUTEED CARROT STOCK (CARROT STOCK, SUNFLOWER OIL), CARROT STOCK, SALT, CELERY STOCK, ONION STOCK, XANTHAN GUM, FRESH HAM FAT, SPICE, TOASTED SESAME OIL, NATURAL SMOKE FLAVOR." Date available: 07/14/2017 Date last updated by company: 07/14/2017
