Source: USDA Branded Food Products Database Release December 2017 Software v.3.8.6.4 2017-10-02
Report Run at: December 18, 2017 20:16 EST
"Nutrient data for: 45260692, TURKEY WRAP GARDEN SALAD COMBO, UPC: 018894903840"
Food Group:  Branded Food Products Database
Common Name:

Nutrient,Unit,Data points,Std. Error,"0.5 WRAP/SALAD = 247.0g",1Value per 100 g,
Proximates
"Energy",kcal,--,--,299,121
"Protein",g,--,--,20.01,8.10
"Total lipid (fat)",g,--,--,10.00,4.05
"Carbohydrate, by difference",g,--,--,35.99,14.57
"Fiber, total dietary",g,--,--,4.9,2.0
"Sugars, total",g,--,--,6.99,2.83
Minerals
"Calcium, Ca",mg,--,--,220,89
"Iron, Fe",mg,--,--,1.24,0.50
"Sodium, Na",mg,--,--,659,267
Vitamins
"Vitamin C, total ascorbic acid",mg,--,--,4.7,1.9
"Vitamin A, IU",IU,--,--,1218,493
Lipids
"Fatty acids, total saturated",g,--,--,4.989,2.020
"Fatty acids, total trans",g,--,--,0.000,0.000
"Cholesterol",mg,--,--,44,18
Amino Acids
Other
Ingredients
"WRAP: TURKEY: TURKEY BREAST, WATER, CONTAINS LESS THAN 2% OF NONFAT DRY MILK, SALT, SODIUM PHOSPHATE, POTASSIUM CHLORIDE, BROWNED IN CANOLA OIL. WHEAT WRAP: STONE GROUND WHOLE WHEAT FLOUR, WATER, INTERESTERIFIED SOYBEAN AND COTTONSEED OIL, SALT, BAKING POWDER (CALCIUM ACID PHOSPHATE, BICARBONATE OF SODA, CORN STARCH), CULTURED WHEAT STARCH. SWISS CHEESE: CULTURED PASTEURIZED PART-SKIM MILK, SALT, ENZYMES. AGED OVER 80 DAYS. LETTUCE: FRESH LETTUCE. TOMATO: FRESH TOMATO. MAYONNAISE: SOYBEAN OIL, EGG YOLK, VINEGAR, CORN SYRUP, WATER, SALT AND SPICE. CREAM CHEESE: PASTEURIZED CREAM AND SKIM MILK, MODIFIED FOOD STARCH, SODIUM CASEINATE (MILK), SALT, SODIUM STEAROYL LACTYLE, SODIUM PHOSPHATE, LOCUST BEAN GUM, MALIC ACID, POTASSIUM SORBATE, NATURAL AND ARTIFICIAL FLAVORS. SALAD: LETTUCE: FRESH LETTUCE. CUCUMBER: FRESH CUCUMBER. ONION: RED ONION. TOMATO: FRESH TOMATO. CARROTS: FRESH CARROT." Date available: 07/14/2017 Date last updated by company: 07/14/2017
