Source: USDA Branded Food Products Database Release December 2017 Software v.3.8.6.4 2017-10-02
Report Run at: December 18, 2017 20:07 EST
"Nutrient data for: 45227328, TURKEY HILL, HAYMAKERS PUNCH, BERRY, UPC: 020735096734"
Food Group:  Branded Food Products Database
Common Name:

Nutrient,Unit,Data points,Std. Error,"1 cup = 240.0g",1Value per 100 g,
Proximates
"Energy",kcal,--,--,101,42
"Protein",g,--,--,0.00,0.00
"Total lipid (fat)",g,--,--,0.00,0.00
"Carbohydrate, by difference",g,--,--,25.01,10.42
"Sugars, total",g,--,--,25.01,10.42
Minerals
"Sodium, Na",mg,--,--,10,4
Vitamins
Lipids
Amino Acids
Other
Ingredients
"WATER, SUGAR, LEMON JUICE CONCENTRATE, APPLE CIDER VINEGAR, APPLE JUICE CONCENTRATE, RASPBERRY JUICE CONCENTRATE, NATURAL FLAVORS, POTASSIUM SORBATE, SODIUM BENZOATE, FRUIT & VEGETABLE JUICE FOR COLOR, HONEY, MOLASSES, GINGER ROOT EXTRACT." Date available: 07/14/2017 Date last updated by company: 07/14/2017
