Source: USDA Branded Food Products Database Release December 2017 Software v.3.8.6.4 2017-10-02
Report Run at: December 18, 2017 20:02 EST
"Nutrient data for: 45040734, TURKEY BURGERS, UPC: 042222268066"
Food Group:  Branded Food Products Database
Common Name:

Nutrient,Unit,Data points,Std. Error,"1 BURGER = 149.0g",1Value per 100 g,
Proximates
"Energy",kcal,--,--,259,174
"Protein",g,--,--,23.01,15.44
"Total lipid (fat)",g,--,--,18.00,12.08
"Carbohydrate, by difference",g,--,--,0.00,0.00
"Fiber, total dietary",g,--,--,0.0,0.0
"Sugars, total",g,--,--,0.00,0.00
Minerals
"Calcium, Ca",mg,--,--,60,40
"Iron, Fe",mg,--,--,0.82,0.55
"Sodium, Na",mg,--,--,390,262
Vitamins
"Vitamin C, total ascorbic acid",mg,--,--,1.3,0.9
"Vitamin A, IU",IU,--,--,57,38
Lipids
"Fatty acids, total saturated",g,--,--,4.500,3.020
"Fatty acids, total trans",g,--,--,0.000,0.000
"Cholesterol",mg,--,--,115,77
Amino Acids
Other
Ingredients
"TURKEY, CONTAINS 2% OR LESS SEASONING (SPICES INCLUDING BLACK PEPPER, DEHYDRATED GARLIC, ONION POWDER), SALT, SEA SALT, ROSEMARY EXTRACT." Date available: 07/14/2017 Date last updated by company: 07/14/2017
