Source: USDA Branded Food Products Database Release December 2017 Software v.3.8.6.4 2017-10-02
Report Run at: December 18, 2017 20:11 EST
"Nutrient data for: 45262161, TURKEY MEATBALLS, UPC: 872408004740"
Food Group:  Branded Food Products Database
Common Name:

Nutrient,Unit,Data points,Std. Error,"2.0 MEATBALLS & 0.33 CUP OF SAUCE = 142.0g",1Value per 100 g,
Proximates
"Energy",kcal,--,--,109,77
"Protein",g,--,--,9.00,6.34
"Total lipid (fat)",g,--,--,5.00,3.52
"Carbohydrate, by difference",g,--,--,7.99,5.63
"Fiber, total dietary",g,--,--,1.0,0.7
"Sugars, total",g,--,--,4.00,2.82
Minerals
"Calcium, Ca",mg,--,--,80,56
"Iron, Fe",mg,--,--,0.65,0.46
"Sodium, Na",mg,--,--,440,310
Vitamins
"Vitamin C, total ascorbic acid",mg,--,--,0.7,0.5
"Vitamin A, IU",IU,--,--,300,211
Lipids
"Fatty acids, total saturated",g,--,--,1.505,1.060
"Fatty acids, total trans",g,--,--,0.000,0.000
"Cholesterol",mg,--,--,40,28
Amino Acids
Other
Ingredients
"SAUCE: ITALIAN PLUM TOMATOES (PEELED TOMATOES, TOMATO PUREE, BASIL, SALT, CITRIC ACID), ONION, OLIVE OIL, GARLIC, BAY LEAVES, SALT, PEPPER. MEATBALL: GROUND TURKEY, ONIONS, PUFFED WHOLE GRAIN BROWN RICE, PECORINO ROMANO CHEESE (PASTEURIZED SHEEP'S MILK, CHEESE CULTURE, SALT, ENZYMES), WHOLE EGGS, PARSLEY, DIJON MUSTARD (MUSTARD SEED, VINEGAR, WATER, SALT, SPICES), SALT, PEPPER, SPICES." Date available: 07/14/2017 Date last updated by company: 07/14/2017
