Source: USDA Branded Food Products Database Release December 2017 Software v.3.8.6.4 2017-10-02
Report Run at: December 18, 2017 20:03 EST
"Nutrient data for: 45284907, TURKEY CLUB CIABATTA, UPC: 045009854285"
Food Group:  Branded Food Products Database
Common Name:

Nutrient,Unit,Data points,Std. Error,"1 SANDWICH = 213.0g",1Value per 100 g,
Proximates
"Energy",kcal,--,--,490,230
"Protein",g,--,--,30.99,14.55
"Total lipid (fat)",g,--,--,15.00,7.04
"Carbohydrate, by difference",g,--,--,56.00,26.29
"Fiber, total dietary",g,--,--,1.9,0.9
"Sugars, total",g,--,--,2.00,0.94
Minerals
"Calcium, Ca",mg,--,--,300,141
"Iron, Fe",mg,--,--,2.96,1.39
"Sodium, Na",mg,--,--,1429,671
Vitamins
"Vitamin C, total ascorbic acid",mg,--,--,0.9,0.4
"Vitamin A, IU",IU,--,--,492,231
Lipids
"Fatty acids, total saturated",g,--,--,6.007,2.820
"Fatty acids, total trans",g,--,--,0.000,0.000
"Cholesterol",mg,--,--,60,28
Amino Acids
Other
Ingredients
"BREAD (ENRICHED FLOUR [WHEAT FLOUR {MAY CONTAIN MALTED BARLEY FLOUR}, NIACIN, REDUCED IRON, THIAMIN MONONITRATE, RIBOFLAVIN, FOLIC ACID], WATER, OLIVE OIL BLEND [CANOLA OIL, EXTRA VIRGIN OLIVE OIL], SALT, DRY MALT, FRESH YEAST, CALCIUM PROPIONATE) TURKEY BREAST (TURKEY BROTH AND 2% OR LESS OF: SALT, CARRAGEENAN, SODIUM CITRATE, SODIUM PHOSPHATE, SODIUM DIACETATE), HAM (CURED WITH WATER, HONEY, CULTURED SUGAR AND VINEGAR, NATURAL FLAVORINGS, BROWN SUGAR, SEA SALT, SODIUM PHOSPHATE, SALT, SODIUM ERYTHORBATE, SODIUM NITRITE), SWISS CHEESE (CULTURED PART - SKIM MILK, SALT, ENZYMES), BACON (CURED WITH WATER, SALT, SUGAR, NATURAL SMOKE FLAVOR, SODIUM PHOSPHATE, SODIUM ERYTHORBATE AND SODIUM NITRITE), LETTUCE." Date available: 07/14/2017 Date last updated by company: 07/14/2017
