Source: USDA Branded Food Products Database Release December 2017 Software v.3.8.6.4 2017-10-02
Report Run at: December 18, 2017 20:08 EST
"Nutrient data for: 45227227, TURKEY HILL, LEMONADE, UPC: 020735096437"
Food Group:  Branded Food Products Database
Common Name:

Nutrient,Unit,Data points,Std. Error,"1 cup = 240.0g",1Value per 100 g,
Proximates
"Energy",kcal,--,--,120,50
"Protein",g,--,--,0.00,0.00
"Total lipid (fat)",g,--,--,0.00,0.00
"Carbohydrate, by difference",g,--,--,28.99,12.08
"Sugars, total",g,--,--,25.99,10.83
Minerals
"Sodium, Na",mg,--,--,10,4
Vitamins
"Vitamin C, total ascorbic acid",mg,--,--,9.1,3.8
Lipids
Amino Acids
Other
Ingredients
"WATER, CORN SYRUP, SUGAR, CONCENTRATED LEMON JUICE, CITRIC ACID, LEMON PULP, NATURAL CITRUS BLEND (LEMON / ORANGE), ACACIA GUM, NATURAL FLAVORS, POTASSIUM SORBATE & SODIUM BENZOATE (PRESERVE FRESHNESS)." Date available: 07/14/2017 Date last updated by company: 07/14/2017
