Source: USDA Branded Food Products Database Release December 2017 Software v.3.8.6.4 2017-10-02
Report Run at: December 18, 2017 20:17 EST
"Nutrient data for: 45269853, TURKISH DELIGHT ASSORTED FRUIT, UPC: 8697407918551"
Food Group:  Branded Food Products Database
Common Name:

Nutrient,Unit,Data points,Std. Error,"25.0 GRM = 25.0g",1Value per 100 g,
Proximates
"Energy",kcal,--,--,48,194
"Protein",g,--,--,0.22,0.88
"Total lipid (fat)",g,--,--,0.02,0.08
"Carbohydrate, by difference",g,--,--,12.07,48.28
"Fiber, total dietary",g,--,--,0.2,0.8
"Sugars, total",g,--,--,11.69,46.76
Minerals
"Potassium, K",mg,--,--,11340,45360
"Sodium, Na",mg,--,--,2,8
Vitamins
Lipids
"Fatty acids, total saturated",g,--,--,0.007,0.030
"Fatty acids, total trans",g,--,--,0.000,0.000
"Cholesterol",mg,--,--,0,0
Amino Acids
Other
Ingredients
"SUGAR, WATER, CORNSTARCH, FLAVOURINGS (ORANGE, LEMON, RASPBERRY, PLUM), CITRIC ACID, COLOURANTS (BETA CAROTENE, RED BEET)" Date available: 10/13/2017 Date last updated by company: 10/13/2017
