Source: USDA Branded Food Products Database Release December 2017 Software v.3.8.6.4 2017-10-02
Report Run at: December 18, 2017 20:19 EST
"Nutrient data for: 45237493, TUSCAN GARDEN, ITALIAN DRESSING, UPC: 041498121785"
Food Group:  Branded Food Products Database
Common Name:

Nutrient,Unit,Data points,Std. Error,"2.0 Tbsp = 30.0g",1Value per 100 g,
Proximates
"Energy",kcal,--,--,80,267
"Protein",g,--,--,0.00,0.00
"Total lipid (fat)",g,--,--,7.00,23.33
"Carbohydrate, by difference",g,--,--,5.00,16.67
"Fiber, total dietary",g,--,--,0.0,0.0
"Sugars, total",g,--,--,4.00,13.33
Minerals
"Calcium, Ca",mg,--,--,0,0
"Iron, Fe",mg,--,--,0.00,0.00
"Sodium, Na",mg,--,--,340,1133
Vitamins
"Vitamin C, total ascorbic acid",mg,--,--,0.0,0.0
"Vitamin A, IU",IU,--,--,0,0
Lipids
"Fatty acids, total saturated",g,--,--,0.999,3.330
"Fatty acids, total trans",g,--,--,0.000,0.000
"Cholesterol",mg,--,--,0,0
Amino Acids
Other
Ingredients
"WATER, VEGETABLE OIL (SOYBEAN OIL, CANOLA OIL), DISTILLED VINEGAR, SUGAR, SALT, CONTAINS LESS THAN 2% GARLIC*, ONION*, RED BELL PEPPER*, MALTODEXTRIN, XANTHAN GUM, SPICES, YEAST EXTRACT, CALCIUM DISODIUM EDTA TO PROTECT FLAVOR, NATURAL FLAVOR, LEMON JUICE CONCENTRATE, CARAMEL COLOR, ANNATTO EXTRACT (FOR COLOR)." Date available: 07/14/2017 Date last updated by company: 07/14/2017
