Source: USDA Branded Food Products Database Release December 2017 Software v.3.8.6.4 2017-10-02
Report Run at: December 18, 2017 20:23 EST
"Nutrient data for: 45116649, TUV TAAM, DELI STYLE MATJES HERRING, UPC: 716184110731"
Food Group:  Branded Food Products Database
Common Name:

Nutrient,Unit,Data points,Std. Error,"4.0 PC. = 55.0g",1Value per 100 g,
Proximates
"Energy",kcal,--,--,70,127
"Protein",g,--,--,7.00,12.73
"Total lipid (fat)",g,--,--,4.50,8.18
"Carbohydrate, by difference",g,--,--,2.00,3.64
"Fiber, total dietary",g,--,--,0.0,0.0
"Sugars, total",g,--,--,1.00,1.82
Minerals
"Calcium, Ca",mg,--,--,20,36
"Iron, Fe",mg,--,--,0.56,1.01
"Sodium, Na",mg,--,--,30,55
Vitamins
"Vitamin C, total ascorbic acid",mg,--,--,1.9,3.4
"Vitamin A, IU",IU,--,--,0,0
Lipids
"Fatty acids, total saturated",g,--,--,1.001,1.820
"Fatty acids, total trans",g,--,--,0.000,0.000
"Cholesterol",mg,--,--,20,36
Amino Acids
Other
Ingredients
"HERRING CURED, (WATER, SALT, *DEXTROSE /OR SUGAR, BROWN SUGAR, ACETIC ACID, FD&C RED #40, BEETROOT, CITRIC ACID, POTASSIUM SORBATE & SODIUM BENZOATE AS PRESERVATIVES), *SOYA OIL/OR COTTONSEED OIL, ONION." Date available: 06/25/2017 Date last updated by company: 06/25/2017
