Source: USDA Branded Food Products Database Release December 2017 Software v.3.8.6.4 2017-10-02
Report Run at: December 18, 2017 20:24 EST
"Nutrient data for: 45209603, TWANG A RITA COCKTAIL SEASONING, UPC: 023604314007"
Food Group:  Branded Food Products Database
Common Name:

Nutrient,Unit,Data points,Std. Error,"0.25 tsp = 1.4g",1Value per 100 g,
Proximates
"Energy",kcal,--,--,0,0
"Protein",g,--,--,0.00,0.00
"Total lipid (fat)",g,--,--,0.00,0.00
"Carbohydrate, by difference",g,--,--,0.00,0.00
Minerals
"Sodium, Na",mg,--,--,420,30000
Vitamins
Lipids
Amino Acids
Other
Ingredients
"SALT, CITRIC ACID, GREEN CHILE (HATCH), SODIUM CITRATE AND TRICALCIUM PHOSPHATE (FLOW AGENT)." Date available: 07/14/2017 Date last updated by company: 07/14/2017
