Source: USDA Branded Food Products Database Release December 2017 Software v.3.8.6.4 2017-10-02
Report Run at: December 18, 2017 20:24 EST
"Nutrient data for: 45325043, TWICE BAKED BISCOTTI, UPC: 072368215600"
Food Group:  Branded Food Products Database
Common Name:

Nutrient,Unit,Data points,Std. Error,"1 PIECE = 25.0g",1Value per 100 g,
Proximates
"Energy",kcal,--,--,120,480
"Total lipid (fat)",g,--,--,4.00,16.00
Minerals
"Calcium, Ca",mg,--,--,40,160
"Iron, Fe",mg,--,--,0.72,2.88
"Sodium, Na",mg,--,--,60,240
Vitamins
"Vitamin C, total ascorbic acid",mg,--,--,0.0,0.0
"Vitamin A, IU",IU,--,--,0,0
Lipids
"Fatty acids, total saturated",g,--,--,1.000,4.000
"Fatty acids, total trans",g,--,--,0.000,0.000
"Cholesterol",mg,--,--,15,60
Amino Acids
Other
Ingredients
"ENRICHED UNBLEACHED UNBROMINATED WHEAT FLOUR (WHEAT FLOUR, NIACIN, REDUCED IRON, THIAMINE MONONITRATE, RIBOFLAVIN, FOLIC ACID), MALTED BARLEY FLOUR, SUGAR, ALMONDS, EGGS, BUTTER (CREAM, SALT), ALUMINUM FREE BAKING POWDER (SODIUM ACID PYROPHOSPHATE, SODIUM BICARBONATE, CORNSTARCH, MONOCALCIUM PHOSPHATE), NATURAL ALMOND FLAVOR." Date available: 09/25/2017 Date last updated by company: 09/25/2017
