Source: USDA Branded Food Products Database Release December 2017 Software v.3.8.6.4 2017-10-02
Report Run at: December 18, 2017 20:25 EST
"Nutrient data for: 45166729, TWIG'S, ROOT BEER, UPC: 850174000432"
Food Group:  Branded Food Products Database
Common Name:

Nutrient,Unit,Data points,Std. Error,"8.0 OZA = 240.0g",1Value per 100 g,
Proximates
"Energy",kcal,--,--,115,48
"Protein",g,--,--,0.00,0.00
"Total lipid (fat)",g,--,--,0.00,0.00
"Carbohydrate, by difference",g,--,--,28.99,12.08
"Sugars, total",g,--,--,28.99,12.08
Minerals
"Sodium, Na",mg,--,--,29,12
Vitamins
Lipids
Amino Acids
Other
Ingredients
"CARBONATED WATER, SUGAR, CARAMEL COLOR, NATURAL AND ARTIFICIAL FLAVOR, GUM ARABIC, PHOSPHORIC ACID, SODIUM BENZOATE, AND CITRIC ACID." Date available: 07/14/2017 Date last updated by company: 07/14/2017
