Source: USDA Branded Food Products Database Release December 2017 Software v.3.8.6.4 2017-10-02
Report Run at: December 18, 2017 20:27 EST
"Nutrient data for: 45195532, TWISTED STROMBOLINI, UPC: 03003408850"
Food Group:  Branded Food Products Database
Common Name:

Nutrient,Unit,Data points,Std. Error,"1 STROMBOLINI = 180.0g",1Value per 100 g,
Proximates
"Energy",kcal,--,--,419,233
"Protein",g,--,--,20.00,11.11
"Total lipid (fat)",g,--,--,14.00,7.78
"Carbohydrate, by difference",g,--,--,52.00,28.89
"Fiber, total dietary",g,--,--,2.0,1.1
"Sugars, total",g,--,--,4.00,2.22
Minerals
"Calcium, Ca",mg,--,--,349,194
"Iron, Fe",mg,--,--,13.64,7.58
"Sodium, Na",mg,--,--,790,439
Vitamins
"Vitamin C, total ascorbic acid",mg,--,--,1.3,0.7
"Vitamin A, IU",IU,--,--,542,301
Lipids
"Fatty acids, total saturated",g,--,--,5.994,3.330
"Fatty acids, total trans",g,--,--,0.000,0.000
"Cholesterol",mg,--,--,45,25
Amino Acids
Other
Ingredients
"ENRICHED WHEAT FLOUR (WHEAT FLOUR, MALTED BARLEY FLOUR, NIACIN, REDUCED IRON, THIAMINE MONONITRATE [VITAMIN B2], FOLIC ACID), WATER, SHREDDED MOZZARELLA (PASTEURIZED PART-SKIM MILK, CHEESE CULTURES, SALT, ENZYMES), PIZZA SAUCE (TOMATO PUREE (WATER, TOMATO PASTE), DICED TOMATOES (TOMATOES, TOMATO JUICE, CALCIUM CHLORIDE, CITRIC ACID), SUGAR, SOYBEAN OIL, SALT, SPICES, PARMESAN CHEESE (PASTEURIZED COW'S MILK, CHEESE CULTURES, SALT, ENZYMES), GARLIC, CITRIC ACID, NATURAL EXTRACTIVES OF PAPRIKA, CANOLA OIL), SHREDDED CHEDDAR CHEESE (PASTEURIZED MILK, CHEESE CULTURES, SALT, ENZYMES, ANNATTO COLOR), SUGAR, SALT, YEAST." Date available: 07/14/2017 Date last updated by company: 07/14/2017
