Source: USDA Branded Food Products Database Release December 2017 Software v.3.8.6.4 2017-10-02
Report Run at: December 18, 2017 20:27 EST
"Nutrient data for: 45281306, TWIST & SHOUT CHOCOLATE SANDWICH COOKIES, UPC: 078742084954"
Food Group:  Branded Food Products Database
Common Name:

Nutrient,Unit,Data points,Std. Error,"3.0 COOKIES = 34.0g",1Value per 100 g,
Proximates
"Energy",kcal,--,--,160,471
"Protein",g,--,--,2.00,5.88
"Total lipid (fat)",g,--,--,7.00,20.59
"Carbohydrate, by difference",g,--,--,24.00,70.59
"Fiber, total dietary",g,--,--,1.0,2.9
"Sugars, total",g,--,--,13.00,38.24
Minerals
"Calcium, Ca",mg,--,--,0,0
"Iron, Fe",mg,--,--,2.12,6.23
"Potassium, K",mg,--,--,55,162
"Sodium, Na",mg,--,--,160,471
Vitamins
"Vitamin C, total ascorbic acid",mg,--,--,0.0,0.0
"Vitamin A, IU",IU,--,--,0,0
Lipids
"Fatty acids, total saturated",g,--,--,1.999,5.880
"Fatty acids, total monounsaturated",g,--,--,1.999,5.880
"Fatty acids, total polyunsaturated",g,--,--,2.499,7.350
"Fatty acids, total trans",g,--,--,0.000,0.000
"Cholesterol",mg,--,--,0,0
Amino Acids
Other
Ingredients
"ENRICHED FLOUR (WHEAT FLOUR, NIACIN, REDUCED IRON, THIAMINE MONONITRATE, RIBOFLAVIN, FOLIC ACID), SUGAR, VEGETABLE OIL (CONTAINS ONE OR MORE OF THE FOLLOWING: CANOLA OIL, CORN OIL, PALM OIL, SOYBEAN OIL), COCOA (PROCESSED WITH ALKALI), HIGH FRUCTOSE CORN SYRUP, SALT, SODIUM BICARBONATE (LEAVENING), ARTIFICIAL FLAVOR, SOY LECITHIN (EMULSIFIER), CHOCOLATE." Date available: 07/14/2017 Date last updated by company: 07/14/2017
