Source: USDA Branded Food Products Database Release December 2017 Software v.3.8.6.4 2017-10-02
Report Run at: December 18, 2017 20:28 EST
"Nutrient data for: 45249089, TWIX, CREAMY COOKIE BARS, PEANUT BUTTER, UPC: 040000490838"
Food Group:  Branded Food Products Database
Common Name:

Nutrient,Unit,Data points,Std. Error,"2.0 COOKIES = 47.6g",1Value per 100 g,
Proximates
"Energy",kcal,--,--,250,525
"Protein",g,--,--,5.00,10.50
"Total lipid (fat)",g,--,--,16.00,33.61
"Carbohydrate, by difference",g,--,--,25.00,52.52
"Fiber, total dietary",g,--,--,2.0,4.2
"Sugars, total",g,--,--,17.00,35.71
Minerals
"Calcium, Ca",mg,--,--,40,84
"Iron, Fe",mg,--,--,0.76,1.59
"Sodium, Na",mg,--,--,150,315
Vitamins
Lipids
"Fatty acids, total saturated",g,--,--,6.002,12.610
"Fatty acids, total trans",g,--,--,0.000,0.000
"Cholesterol",mg,--,--,5,11
Amino Acids
Other
Ingredients
"MILK CHOCOLATE (SUGAR, COCOA BUTTER, CHOCOLATE, SKIM MILK, MILKFAT, SOY LECITHIN, ARTIFICIAL FLAVOR), PEANUTS, WHEAT FLOUR WITH FOLIC ACID AND IRON (FERROUS FUMARATE), SUGAR, PALM OIL, MALTODEXTRIN, LESS THAN 1.5% - FULLY HYDROGENATED RAPESEED AND COTTONSEED OIL, PARTIALLY HYDROGENATED COTTONSEED OIL, FOOD STARCH-MODIFIED, SALT, NATURAL FLAVOR, SOY LECITHIN, BAKING SODA, CORN SYRUP, PROPYL GALLATE TO MAINTAIN FRESHNESS." Date available: 07/14/2017 Date last updated by company: 07/14/2017
