Source: USDA Branded Food Products Database Release December 2017 Software v.3.8.6.4 2017-10-02
Report Run at: December 18, 2017 20:28 EST
"Nutrient data for: 45318313, TWIX, LIGHT ICE CREAM, PEANUT BUTTER, UPC: 047677432918"
Food Group:  Branded Food Products Database
Common Name:

Nutrient,Unit,Data points,Std. Error,"0.5 cup = 65.0g",1Value per 100 g,
Proximates
"Energy",kcal,--,--,160,246
"Protein",g,--,--,3.00,4.62
"Total lipid (fat)",g,--,--,8.00,12.31
"Carbohydrate, by difference",g,--,--,19.00,29.23
"Fiber, total dietary",g,--,--,1.0,1.5
"Sugars, total",g,--,--,12.00,18.46
Minerals
"Calcium, Ca",mg,--,--,60,92
"Iron, Fe",mg,--,--,0.40,0.62
"Sodium, Na",mg,--,--,45,69
Vitamins
"Vitamin C, total ascorbic acid",mg,--,--,1.2,1.8
"Vitamin A, IU",IU,--,--,112,173
Lipids
"Fatty acids, total saturated",g,--,--,3.998,6.150
"Fatty acids, total trans",g,--,--,0.000,0.000
"Cholesterol",mg,--,--,15,23
Amino Acids
Other
Ingredients
"ICE CREAM: MILK, CORN SYRUP, CREAM, SKIM MILK, HIGH FRUCTOSE CORN SYRUP, WHEY, PEANUT BUTTER (PEANUTS), BUTTERMILK, SUGAR, CAROB BEAN GUM, GUAR GUM, CARRAGEENAN, MONO AND DIGLYCERIDES, NATURAL AND ARTIFICIAL FLAVORS, CELLULOSE GEL, CELLULOSE GUM, POLYSORBATE 80. CHOCOLATE VARIEGATE: SUGAR, SOYBEAN OIL, COCOA POWDER PROCESSED WITH ALKALI, SKIM MILK, COCONUT OIL, SOY LECITHIN, MONO AND DIGLYCERIDES, SALT. CHOPPED TWIX: MILK CHOCOLATE (SUGAR, COCOA BUTTER, CHOCOLATE, SKIM MILK, LACTOSE, MILKFAT, SOY LECITHIN, PGPR, ARTIFICIAL FLAVORS), SUGAR, ENRICHED WHEAT FLOUR (WHEAT FLOUR, NIACIN, REDUCED IRON, THIAMINE MONONITRATE, RIBOFLAVIN, FOLIC ACID), PALM OIL, CORN SYRUP, SKIM MILK, DEXTROSE, FOOD STARCH-MODIFIED, SALT, COCOA POWDER, BAKING SODA, SOY LECITHIN, ARTIFICIAL FLAVOR. COATED COOKIE PIECES: COOKIE PIECES (WHEAT FLOUR, SUGAR, CANOLA OIL, MALTODEXTRIN, HONEY, BAKING SODA, SOY LECITHIN, SALT, NATURAL AND ARTIFICIAL FLAVOR), COCONUT OIL, COCOA POWDER." Date available: 07/14/2017 Date last updated by company: 07/14/2017
