Source: USDA Branded Food Products Database Release December 2017 Software v.3.8.6.4 2017-10-02
Report Run at: December 18, 2017 20:31 EST
"Nutrient data for: 45020505, TWO MOMS IN THE RAW, GRANOLA, GOLDENBERRY, UPC: 894356001343"
Food Group:  Branded Food Products Database
Common Name:

Nutrient,Unit,Data points,Std. Error,"2.0 ONZ = 56.0g",1Value per 100 g,
Proximates
"Energy",kcal,--,--,210,375
"Protein",g,--,--,6.00,10.71
"Total lipid (fat)",g,--,--,7.00,12.50
"Carbohydrate, by difference",g,--,--,34.00,60.71
"Fiber, total dietary",g,--,--,4.0,7.1
"Sugars, total",g,--,--,18.00,32.14
Minerals
"Calcium, Ca",mg,--,--,40,71
"Iron, Fe",mg,--,--,1.77,3.16
"Sodium, Na",mg,--,--,45,80
Vitamins
"Vitamin C, total ascorbic acid",mg,--,--,0.0,0.0
"Vitamin A, IU",IU,--,--,0,0
Lipids
"Fatty acids, total saturated",g,--,--,1.002,1.790
"Fatty acids, total trans",g,--,--,0.000,0.000
"Cholesterol",mg,--,--,0,0
Amino Acids
Other
Ingredients
"ORGANIC OAT GROATS*, ORGANIC AGAVE, ORGANIC SUNFLOWER SEEDS, ORGANIC BUCKWHEAT, ORGANIC PUMPKIN SEEDS, ORGANIC GOLDENBERRIES, ORGANIC MILLET, ORGANIC APPLES, ORGANIC SESAME SEEDS, ORGANIC FLAX SEEDS, ORGANIC PECANS, ORGANIC ALMONDS, ORGANIC CINNAMON, SEA SALT." Date available: 07/14/2017 Date last updated by company: 07/14/2017
