Source: USDA Branded Food Products Database Release December 2017 Software v.3.8.6.4 2017-10-02
Report Run at: December 18, 2017 20:38 EST
"Nutrient data for: 45170990, UDI'S, SWEET POTATO RAVIOLI, UPC: 698997807568"
Food Group:  Branded Food Products Database
Common Name:

Nutrient,Unit,Data points,Std. Error,"0.5 BAG = 255.0g",1Value per 100 g,
Proximates
"Energy",kcal,--,--,319,125
"Protein",g,--,--,5.99,2.35
"Total lipid (fat)",g,--,--,8.01,3.14
"Carbohydrate, by difference",g,--,--,56.99,22.35
"Fiber, total dietary",g,--,--,3.1,1.2
"Sugars, total",g,--,--,5.00,1.96
Minerals
"Calcium, Ca",mg,--,--,79,31
"Iron, Fe",mg,--,--,1.10,0.43
"Sodium, Na",mg,--,--,630,247
Vitamins
"Vitamin C, total ascorbic acid",mg,--,--,13.8,5.4
"Vitamin A, IU",IU,--,--,4587,1799
Lipids
"Fatty acids, total saturated",g,--,--,2.499,0.980
"Fatty acids, total trans",g,--,--,0.000,0.000
"Cholesterol",mg,--,--,84,33
Amino Acids
Other
Ingredients
"GLUTEN FREE SWEET POTATO RAVIOLI (SWEET POTATO PUREE, GLUTEN FREE FLOUR [RICE FLOUR, CORN FLOUR, CORN STARCH, TAPIOCA STARCH, POTATO STARCH, XANTHAN GUM}, EGGS, WATER, ONIONS, CANOLA OIL, ORANGE JUICE CONCENTRATE, SEA SALT, BROWN SUGAR, GARLIC POWDER, SPICE, THYME), WATER, KALE, PORTOBELLO MUSHROOMS, RED BELL PEPPERS, CREAM, CORN STARCH, EXTRA VIRGIN OLIVE OIL, VEGETABLE BASE (COOKED VEGETABLES [CARROT, CELERY, ONIONS], SUGAR, SALT, CORN OIL, YEAST EXTRACT, FLAVORINGS), PARMESAN CHEESE (CULTURED MILK, SALT, ENZYMES) SEA SALT, LEMON JUICE FROM CONCENTRATE (WATER, CONCENTRATED LEMON JUICE), SAGE, GARLIC PUREE, THYME, SPICES." Date available: 08/07/2017 Date last updated by company: 08/07/2017
