Source: USDA Branded Food Products Database Release December 2017 Software v.3.8.6.4 2017-10-02
Report Run at: December 18, 2017 20:36 EST
"Nutrient data for: 45029290, UDI'S GLUTEN FREE, CHERRY WALNUT GRANOLA CLUSTERS, UPC: 698997807391"
Food Group:  Branded Food Products Database
Common Name:

Nutrient,Unit,Data points,Std. Error,"0.25 cup = 30.0g",1Value per 100 g,
Proximates
"Energy",kcal,--,--,120,400
"Protein",g,--,--,3.00,10.00
"Total lipid (fat)",g,--,--,3.50,11.67
"Carbohydrate, by difference",g,--,--,21.00,70.00
"Fiber, total dietary",g,--,--,3.0,10.0
"Sugars, total",g,--,--,9.00,30.00
Minerals
"Calcium, Ca",mg,--,--,20,67
"Iron, Fe",mg,--,--,3.30,11.00
"Sodium, Na",mg,--,--,0,0
Vitamins
"Vitamin C, total ascorbic acid",mg,--,--,0.0,0.0
"Vitamin A, IU",IU,--,--,0,0
Lipids
"Fatty acids, total saturated",g,--,--,0.000,0.000
"Fatty acids, total trans",g,--,--,0.000,0.000
"Cholesterol",mg,--,--,0,0
Amino Acids
Other
Ingredients
"GLUTEN FREE OATS, DRIED CANE SYRUP, HONEY, FLAX SEED, RICE CRISPS (RICE MEAL, WATER), INULIN, CHIA SEEDS, DRIED CHERRIES (CHERRIES, SUGAR, SUNFLOWER OIL), WALNUTS, CANOLA OIL, MILLET SEED, AMARANTH, CASHEWS." Date available: 06/24/2017 Date last updated by company: 06/24/2017
