Source: USDA Branded Food Products Database Release December 2017 Software v.3.8.6.4 2017-10-02
Report Run at: December 18, 2017 20:38 EST
"Nutrient data for: 45025118, UDI'S, SOFT-BAKED COOKIES, PEANUT BUTTER COCONUT, UPC: 698997807599"
Food Group:  Branded Food Products Database
Common Name:

Nutrient,Unit,Data points,Std. Error,"1 COOKIE = 26.0g",1Value per 100 g,
Proximates
"Energy",kcal,--,--,120,462
"Protein",g,--,--,1.00,3.85
"Total lipid (fat)",g,--,--,6.00,23.08
"Carbohydrate, by difference",g,--,--,15.00,57.69
"Fiber, total dietary",g,--,--,1.0,3.8
"Sugars, total",g,--,--,6.00,23.08
Minerals
"Calcium, Ca",mg,--,--,0,0
"Iron, Fe",mg,--,--,0.69,2.67
"Sodium, Na",mg,--,--,70,269
Vitamins
"Vitamin C, total ascorbic acid",mg,--,--,0.0,0.0
"Vitamin A, IU",IU,--,--,0,0
Lipids
"Fatty acids, total saturated",g,--,--,3.000,11.540
"Fatty acids, total trans",g,--,--,0.000,0.000
"Cholesterol",mg,--,--,10,38
Amino Acids
Other
Ingredients
"TAPIOCA STARCH, DRIED CANE SYRUP, PALM OIL, PEANUT BUTTER (ROASTED PEANUTS, BROWN RICE FLOUR, EGGS, TAPIOCA SYRUP, ORGANIC COCONUT, POTATO STARCH, APPLE JUICE CONCENTRATE, MOLASSES, NATURAL FLAVORS, VANILLA EXTRACT, SALT, XANTHAN GUM, BAKING SODA, CARAMEL COLOR." Date available: 07/14/2017 Date last updated by company: 07/14/2017
