Source: USDA Branded Food Products Database Release December 2017 Software v.3.8.6.4 2017-10-02
Report Run at: December 18, 2017 20:39 EST
"Nutrient data for: 45189693, ULIMANA, PEPPERMINT TRUFFLES, UPC: 589047001224"
Food Group:  Branded Food Products Database
Common Name:

Nutrient,Unit,Data points,Std. Error,"1 TRUFFLE = 11.0g",1Value per 100 g,
Proximates
"Energy",kcal,--,--,50,455
"Protein",g,--,--,1.00,9.09
"Total lipid (fat)",g,--,--,3.00,27.27
"Carbohydrate, by difference",g,--,--,6.00,54.55
"Fiber, total dietary",g,--,--,1.0,9.1
"Sugars, total",g,--,--,4.00,36.36
Minerals
"Calcium, Ca",mg,--,--,10,91
"Iron, Fe",mg,--,--,1.64,14.87
"Sodium, Na",mg,--,--,60,545
Vitamins
"Vitamin C, total ascorbic acid",mg,--,--,10.9,99.2
"Vitamin A, IU",IU,--,--,0,0
Lipids
"Fatty acids, total saturated",g,--,--,2.000,18.180
"Fatty acids, total trans",g,--,--,0.000,0.000
"Cholesterol",mg,--,--,0,0
Amino Acids
Other
Ingredients
"ORGANIC CACAO POWDER, ORGANIC AGAVE, ORGANIC CACAO BUTTER, ORGANIC PEPPERMINT OIL, CELTIC SEA SALT, ORGANIC VANILLA, ORGANIC CACAO NIBS." Date available: 07/14/2017 Date last updated by company: 07/14/2017
