Source: USDA Branded Food Products Database Release December 2017 Software v.3.8.6.4 2017-10-02
Report Run at: December 18, 2017 20:45 EST
"Nutrient data for: 45319531, ULTRA THIN OVEN ROASTED TURKEY BREAST, UPC: 044500976502"
Food Group:  Branded Food Products Database
Common Name:

Nutrient,Unit,Data points,Std. Error,"2.0 ONZ = 56.0g",1Value per 100 g,
Proximates
"Energy",kcal,--,--,50,89
"Protein",g,--,--,9.00,16.07
"Total lipid (fat)",g,--,--,0.50,0.89
"Carbohydrate, by difference",g,--,--,2.00,3.57
"Fiber, total dietary",g,--,--,0.0,0.0
"Sugars, total",g,--,--,0.00,0.00
Minerals
"Calcium, Ca",mg,--,--,0,0
"Iron, Fe",mg,--,--,0.71,1.26
"Sodium, Na",mg,--,--,490,875
Vitamins
"Vitamin C, total ascorbic acid",mg,--,--,0.0,0.0
"Vitamin A, IU",IU,--,--,0,0
Lipids
"Fatty acids, total saturated",g,--,--,0.000,0.000
"Fatty acids, total trans",g,--,--,0.000,0.000
"Cholesterol",mg,--,--,25,45
Amino Acids
Other
Ingredients
"TURKEY BREAST, TURKEY BROTH, MODIFIED CORN STARCH, CONTAINS 2% OR LESS: SALT, NATURAL FLAVOR, CARRAGEENAN, SODIUM PHOSPHATE, YEAST EXTRACT, SODIUM NITRITE, SODIUM PROPIONATE, CARAMEL COLOR." Date available: 09/01/2017 Date last updated by company: 09/01/2017
