Source: USDA Branded Food Products Database Release December 2017 Software v.3.8.6.4 2017-10-02
Report Run at: December 18, 2017 20:46 EST
"Nutrient data for: 45178320, ULTRA THIN SWISS CHEESE SLICES, UPC: 086854061527"
Food Group:  Branded Food Products Database
Common Name:

Nutrient,Unit,Data points,Std. Error,"3.0 SLICES = 32.0g",1Value per 100 g,
Proximates
"Energy",kcal,--,--,120,375
"Protein",g,--,--,9.00,28.12
"Total lipid (fat)",g,--,--,9.00,28.12
"Carbohydrate, by difference",g,--,--,2.00,6.25
"Fiber, total dietary",g,--,--,0.0,0.0
"Sugars, total",g,--,--,0.00,0.00
Minerals
"Calcium, Ca",mg,--,--,250,781
"Iron, Fe",mg,--,--,0.00,0.00
"Sodium, Na",mg,--,--,60,188
Vitamins
"Vitamin C, total ascorbic acid",mg,--,--,0.0,0.0
"Vitamin A, IU",IU,--,--,469,1466
Lipids
"Fatty acids, total saturated",g,--,--,6.000,18.750
"Fatty acids, total trans",g,--,--,0.000,0.000
"Cholesterol",mg,--,--,30,94
Amino Acids
Other
Ingredients
"PASTEURIZED PART-SKIM MILK, CHEESE CULTURE, SALT AND ENZYMES." Date available: 07/14/2017 Date last updated by company: 07/14/2017
