Source: USDA Branded Food Products Database Release December 2017 Software v.3.8.6.4 2017-10-02
Report Run at: December 18, 2017 20:42 EST
"Nutrient data for: 45217361, ULTRA-PASTEURIZED FAT FREE MILK, UPC: 717544206958"
Food Group:  Branded Food Products Database
Common Name:

Nutrient,Unit,Data points,Std. Error,"1 cup = 240.0g",1Value per 100 g,
Proximates
"Energy",kcal,--,--,91,38
"Protein",g,--,--,9.00,3.75
"Total lipid (fat)",g,--,--,0.00,0.00
"Carbohydrate, by difference",g,--,--,13.01,5.42
"Fiber, total dietary",g,--,--,0.0,0.0
"Sugars, total",g,--,--,12.00,5.00
Minerals
"Calcium, Ca",mg,--,--,317,132
"Iron, Fe",mg,--,--,0.00,0.00
"Potassium, K",mg,--,--,430,179
"Sodium, Na",mg,--,--,130,54
Vitamins
Lipids
"Fatty acids, total saturated",g,--,--,0.000,0.000
"Fatty acids, total monounsaturated",g,--,--,0.000,0.000
"Fatty acids, total polyunsaturated",g,--,--,0.000,0.000
"Fatty acids, total trans",g,--,--,0.000,0.000
"Cholesterol",mg,--,--,5,2
Amino Acids
Other
Ingredients
"FAT FREE MILK, CONTAINS LESS THAN 1% OF: LACTASE ENZYME*, VITAMIN A PALMITATE, VITAMIN D3." Date available: 09/22/2017 Date last updated by company: 09/22/2017
