Source: USDA Branded Food Products Database Release December 2017 Software v.3.8.6.4 2017-10-02
Report Run at: December 18, 2017 20:45 EST
"Nutrient data for: 45282621, ULTRA THIN CRUST PIZZA, UPC: 60788002165"
Food Group:  Branded Food Products Database
Common Name:

Nutrient,Unit,Data points,Std. Error,"0.333 PIZZA = 133.0g",1Value per 100 g,
Proximates
"Energy",kcal,--,--,270,203
"Protein",g,--,--,16.00,12.03
"Total lipid (fat)",g,--,--,10.00,7.52
"Carbohydrate, by difference",g,--,--,31.00,23.31
"Fiber, total dietary",g,--,--,1.1,0.8
"Sugars, total",g,--,--,5.00,3.76
Minerals
"Calcium, Ca",mg,--,--,200,150
"Iron, Fe",mg,--,--,1.58,1.19
"Sodium, Na",mg,--,--,529,398
Vitamins
"Vitamin C, total ascorbic acid",mg,--,--,7.0,5.3
"Vitamin A, IU",IU,--,--,440,331
Lipids
"Fatty acids, total saturated",g,--,--,4.495,3.380
"Fatty acids, total trans",g,--,--,0.000,0.000
"Cholesterol",mg,--,--,35,26
Amino Acids
Other
Ingredients
"CRUST (WHEAT FLOUR, WATER, SOYBEAN OIL, CONTAINS 2% OR LESS OF: YEAST, SUGAR, SALT, CALCIUM PROPIONATE [PRESERVATIVE], SOY LECITHIN [PROCESSING AID]), BBQ SAUCE (WATER, TOMATO PASTE, VINEGAR, BBQ SPICE MIX [FRUCTOSE, MODIFIED FOOD STARCH, MOLASSES POWDER {REFINERY SYRUP, CANE MOLASSES, CANE CARAMEL COLOR}, SALT, SPICE, NATURAL FLAVORS INCLUDING SMOKE, GARLIC POWDER, CARAMEL COLOR, XANTHAN GUM, CITRIC ACID]), WHITE CHICKEN (CHICKEN, WATER, MODIFIED POTATO STARCH, SALT, SEASONING [NATURAL FLAVOR {CONTAINS TORULA YEAST}, SODIUM PHOSPHATE]), LOW MOISTURE PART-SKIM MOZZARELLA CHEESE (PART-SKIM MILK, CHEESE CULTURE, SALT, ENZYMES), ROASTED RED ONIONS, SMOKED GOUDA CHEESE (PASTEURIZED MILK, CHEESE CULTURE, SALT, ENZYMES, ANNATTO COLOR AND NATURAL FLAVORS), PARSLEY." Date available: 07/14/2017 Date last updated by company: 07/14/2017
