Source: USDA Branded Food Products Database Release December 2017 Software v.3.8.6.4 2017-10-02
Report Run at: December 18, 2017 20:47 EST
"Nutrient data for: 45242494, UMEYA, ORIANTAL SNACKS TERIYAKI MIX, UPC: 070935007795"
Food Group:  Branded Food Products Database
Common Name:

Nutrient,Unit,Data points,Std. Error,"0.5 cup = 30.0g",1Value per 100 g,
Proximates
"Energy",kcal,--,--,120,400
"Protein",g,--,--,1.00,3.33
"Total lipid (fat)",g,--,--,1.00,3.33
"Carbohydrate, by difference",g,--,--,27.00,90.00
"Fiber, total dietary",g,--,--,1.0,3.3
"Sugars, total",g,--,--,6.00,20.00
Minerals
"Calcium, Ca",mg,--,--,0,0
"Iron, Fe",mg,--,--,0.00,0.00
"Sodium, Na",mg,--,--,100,333
Vitamins
"Vitamin C, total ascorbic acid",mg,--,--,0.0,0.0
"Vitamin A, IU",IU,--,--,0,0
Lipids
"Fatty acids, total saturated",g,--,--,0.000,0.000
"Fatty acids, total trans",g,--,--,0.000,0.000
"Cholesterol",mg,--,--,0,0
Amino Acids
Other
Ingredients
"SWEET RICE, SOY SAUCE (WATER, WHEAT, SOYBEANS, SALT), SUGAR, OATS, FLAX SEED, SESAME SEED, COCONUT FLAKE, GINGER, RICE WINE, CHICKEN FLAVOR (SALT, CHICKEN FAT, PARTIALLY HYDROGENATED SOYBEAN AND/OR COTTON OIL, MONOSODIUM GLUTAMATE, MALTODEXTRIN, FOOD STARCH-MODIFIED, DEHYDRATED ONION, GROUND TURMERIC, SPICES, HYDROLYZED CORN PROTEIN, NATURAL FLAVORINGS), CORN SYRUP, XANTHAN GUM, ARTIFICIAL RED #3, YELLOW #6, AND CARAMEL COLORING." Date available: 06/25/2017 Date last updated by company: 06/25/2017
