Source: USDA Branded Food Products Database Release December 2017 Software v.3.8.6.4 2017-10-02
Report Run at: December 18, 2017 20:49 EST
"Nutrient data for: 45020659, UNCLE PHIL'S, SWEET & SASSY MUSTARD, UPC: 021487766159"
Food Group:  Branded Food Products Database
Common Name:

Nutrient,Unit,Data points,Std. Error,"1 tsp = 5.0g",1Value per 100 g,
Proximates
"Energy",kcal,--,--,10,200
"Protein",g,--,--,0.00,0.00
"Total lipid (fat)",g,--,--,0.00,0.00
"Carbohydrate, by difference",g,--,--,1.00,20.00
"Sugars, total",g,--,--,1.00,20.00
Minerals
"Sodium, Na",mg,--,--,55,1100
Vitamins
Lipids
Amino Acids
Other
Ingredients
"WATER, SUGAR, VINEGAR, MUSTARD SEED, HONEY, SALT, SOYBEAN OIL, CORN SYRUP SOLIDS, CITRIC ACID, GARLIC POWDER, SPICES, LEMON JUICE SOLIDS, XANTHAN GUM, TURMERIC, NATURAL FLAVOR." Date available: 06/25/2017 Date last updated by company: 06/25/2017
