Source: USDA Branded Food Products Database Release December 2017 Software v.3.8.6.4 2017-10-02
Report Run at: December 18, 2017 20:48 EST
"Nutrient data for: 45240551, UNCLE DOUGIE'S, SNEAKY SPICY SMALL BATCH BARBECUE SAUCE, UPC: 094282183025"
Food Group:  Branded Food Products Database
Common Name:

Nutrient,Unit,Data points,Std. Error,"1 Tbsp = 30.0g",1Value per 100 g,
Proximates
"Energy",kcal,--,--,30,100
"Protein",g,--,--,0.00,0.00
"Total lipid (fat)",g,--,--,0.00,0.00
"Carbohydrate, by difference",g,--,--,8.00,26.67
"Fiber, total dietary",g,--,--,0.0,0.0
"Sugars, total",g,--,--,7.00,23.33
Minerals
"Calcium, Ca",mg,--,--,0,0
"Iron, Fe",mg,--,--,0.60,2.00
"Sodium, Na",mg,--,--,140,467
Vitamins
"Vitamin C, total ascorbic acid",mg,--,--,6.0,20.0
"Vitamin A, IU",IU,--,--,500,1667
Lipids
"Fatty acids, total saturated",g,--,--,0.000,0.000
"Fatty acids, total trans",g,--,--,0.000,0.000
"Cholesterol",mg,--,--,0,0
Amino Acids
Other
Ingredients
"TOMATO PASTE MADE FROM RED RIPE CALIFORNIA TOMATOES, RED PEPPERS, CAYENNE PEPPERS, CAYENNE PEPPERS, DISTILLED MALT VINEGAR, CHILE PEPPERS, SWEET BELL PEPPERS, FRESH GROUND BLACK PEPPER, PURE HONEY, DISTILLED VINEGAR, GARLIC, ONION, PAPRIKA, PARSLEY, SALT, FILTERED WATER, BROWN SUGAR, NATURAL MAPLE FLAVOR, NATURAL HICKORY FLAVOR, XANTHAN GUM" Date available: 07/14/2017 Date last updated by company: 07/14/2017
