Source: USDA Branded Food Products Database Release December 2017 Software v.3.8.6.4 2017-10-02
Report Run at: December 18, 2017 20:50 EST
"Nutrient data for: 45196360, UNCOMPROMISINGLY ITALIAN STYLE SHRIMP SCAMP, UPC: 037363986498"
Food Group:  Branded Food Products Database
Common Name:

Nutrient,Unit,Data points,Std. Error,"1 TRAY = 283.0g",1Value per 100 g,
Proximates
"Energy",kcal,--,--,560,198
"Protein",g,--,--,21.99,7.77
"Total lipid (fat)",g,--,--,27.00,9.54
"Carbohydrate, by difference",g,--,--,57.00,20.14
"Fiber, total dietary",g,--,--,4.0,1.4
"Sugars, total",g,--,--,0.99,0.35
Minerals
"Calcium, Ca",mg,--,--,40,14
"Iron, Fe",mg,--,--,0.99,0.35
"Sodium, Na",mg,--,--,750,265
Vitamins
"Vitamin C, total ascorbic acid",mg,--,--,2.5,0.9
"Vitamin A, IU",IU,--,--,207,73
Lipids
"Fatty acids, total saturated",g,--,--,15.989,5.650
"Fatty acids, total trans",g,--,--,0.000,0.000
"Cholesterol",mg,--,--,156,55
Amino Acids
Other
Ingredients
"WATER, PASTA (DURUM SEMOLINA), SHRIMP (SHRIMP, SALT, SODIUM TRIPOLYPHOSPHATE [TO RETAIN MOISTURE]), BUTTER (CREAM), TOMATO STRIPS (DICED TOMATOES, TOMATO JUICE, SALT, FRESH BASIL), GARLIC, LEMON JUICE, SALT, CITRUS FLOUR (DRIED ORANGE PULP), SPICES." Date available: 08/07/2017 Date last updated by company: 08/07/2017
