Source: USDA Branded Food Products Database Release December 2017 Software v.3.8.6.4 2017-10-02
Report Run at: December 18, 2017 20:50 EST
"Nutrient data for: 45222319, UNCOOKED BREADED CHICKEN BREAST CHUNK PIECES, UPC: 899732002105"
Food Group:  Branded Food Products Database
Common Name:

Nutrient,Unit,Data points,Std. Error,"4.0 PIECES = 120.0g",1Value per 100 g,
Proximates
"Energy",kcal,--,--,200,167
"Protein",g,--,--,21.00,17.50
"Total lipid (fat)",g,--,--,4.00,3.33
"Carbohydrate, by difference",g,--,--,20.00,16.67
"Fiber, total dietary",g,--,--,1.0,0.8
"Sugars, total",g,--,--,1.00,0.83
Minerals
"Calcium, Ca",mg,--,--,20,17
"Iron, Fe",mg,--,--,0.77,0.64
"Sodium, Na",mg,--,--,900,750
Vitamins
"Vitamin C, total ascorbic acid",mg,--,--,0.0,0.0
"Vitamin A, IU",IU,--,--,71,59
Lipids
"Fatty acids, total saturated",g,--,--,0.504,0.420
"Cholesterol",mg,--,--,46,38
Amino Acids
Other
Ingredients
"CONTAINING UP TO A 15% SOLUTION OF WATER, MODIFIED FOOD STARCH, SALT, SODIUM PHOSPHATE. BREADED WITH: BLEACHED ENRICHED WHEAT FLOUR (WHEAT FLOUR, NIACIN, REDUCED IRON, THIAMINE MONONITRATE, RIBOFLAVIN, FOLIC ACID), SALT, DEHYDRATED GARLIC, SUGAR, PAPRIKA SPICES, DEHYDRATED ONION. CORN STARCH, TURMERIC, EXTRACTIVES OF PAPRIKA, TRICALCIUM PHOSPHATE, PREDUSTED WITH: ENRICHED WHEAT FLOUR (WHEAT FLOUR, NIACIN, REDUCED IRON, THIAMINE MONONITRATE, RIBOFLAVIN, FOLIC ACID), WHEAT FLOUR, WHEAT GLUTEN, EGG WHITES, SALT, BATTERED WITH: WATER, BLEACHED WHEAT FLOUR, DRIED BUTTERMILK, SALT, LEAVENING (MONOCALCIUM PHOSPHATE, SODIUM BICARBONATE), SPICE, GUAR GUM. BREADING SET IN VEGETABLE OIL." Date available: 07/14/2017 Date last updated by company: 07/14/2017
