Source: USDA Branded Food Products Database Release December 2017 Software v.3.8.6.4 2017-10-02
Report Run at: December 18, 2017 20:51 EST
"Nutrient data for: 45189261, UNCURED ABSINTHE SALAMI, UPC: 857750003771"
Food Group:  Branded Food Products Database
Common Name:

Nutrient,Unit,Data points,Std. Error,"1 ONZ = 28.0g",1Value per 100 g,
Proximates
"Energy",kcal,--,--,80,286
"Protein",g,--,--,7.00,25.00
"Total lipid (fat)",g,--,--,4.50,16.07
"Carbohydrate, by difference",g,--,--,1.00,3.57
"Fiber, total dietary",g,--,--,0.0,0.0
"Sugars, total",g,--,--,1.00,3.57
Minerals
"Sodium, Na",mg,--,--,530,1893
Vitamins
Lipids
"Fatty acids, total saturated",g,--,--,1.501,5.360
"Fatty acids, total trans",g,--,--,0.000,0.000
"Cholesterol",mg,--,--,20,71
Amino Acids
Other
Ingredients
"PORK, NON FAT DRY MILK, SEA SALT, CONTAINS LESS THAN 2% OF THE FOLLOWING: CANE SUGAR, ABSINTHE LIQUER, NEW MEXICAN CHILE PEPPER, PAPRIKA, SPICES, NATURAL FLAVORING, GARLIC, LACTIC ACID STARTER CULTURE." Date available: 10/19/2017 Date last updated by company: 10/19/2017
