Source: USDA Branded Food Products Database Release December 2017 Software v.3.8.6.4 2017-10-02
Report Run at: December 18, 2017 20:52 EST
"Nutrient data for: 45255275, UNCURED BEEF FRANKFURTERS, UPC: 054500193571"
Food Group:  Branded Food Products Database
Common Name:

Nutrient,Unit,Data points,Std. Error,"1 FRANK = 57.0g",1Value per 100 g,
Proximates
"Energy",kcal,--,--,170,298
"Protein",g,--,--,7.00,12.28
"Total lipid (fat)",g,--,--,15.00,26.32
"Carbohydrate, by difference",g,--,--,2.00,3.51
"Fiber, total dietary",g,--,--,0.0,0.0
"Sugars, total",g,--,--,0.00,0.00
Minerals
"Calcium, Ca",mg,--,--,0,0
"Iron, Fe",mg,--,--,0.70,1.22
"Potassium, K",mg,--,--,150,263
"Sodium, Na",mg,--,--,610,1070
Vitamins
"Vitamin C, total ascorbic acid",mg,--,--,0.0,0.0
"Vitamin A, IU",IU,--,--,0,0
Lipids
"Fatty acids, total saturated",g,--,--,7.000,12.280
"Fatty acids, total trans",g,--,--,0.000,0.000
"Cholesterol",mg,--,--,35,61
Amino Acids
Other
Ingredients
"BEEF, WATER, CORN SYRUP, CONTAINS 2% OR LESS: SALT, SEASONING (FLAVOR, POTATO MALTODEXTRIN, SAFFLOWER OIL, GUM ACACIA, MIXED TRIGLYCERIDES, SUNFLOWER OIL, PROLINE), DRIED VINEGAR*, BEEF STOCK, CULTURED CELERY JUICE POWDER*, SODIUM PHOSPHATE, MINCED ONION, CULTURED DEXTROSE, YEAST EXTRACT, GRANULATED GARLIC, MALTODEXTRIN, PAPRIKA EXTRACT." Date available: 08/11/2017 Date last updated by company: 08/11/2017
