Source: USDA Branded Food Products Database Release December 2017 Software v.3.8.6.4 2017-10-02
Report Run at: December 18, 2017 20:52 EST
"Nutrient data for: 45267821, UNCURED BEEF FRANKFURTERS, UPC: 614832100175"
Food Group:  Branded Food Products Database
Common Name:

Nutrient,Unit,Data points,Std. Error,"1 FRANK = 112.0g",1Value per 100 g,
Proximates
"Energy",kcal,--,--,320,286
"Protein",g,--,--,16.00,14.29
"Total lipid (fat)",g,--,--,28.00,25.00
"Carbohydrate, by difference",g,--,--,2.00,1.79
"Fiber, total dietary",g,--,--,0.0,0.0
"Sugars, total",g,--,--,0.00,0.00
Minerals
"Calcium, Ca",mg,--,--,40,36
"Iron, Fe",mg,--,--,0.71,0.63
"Sodium, Na",mg,--,--,980,875
Vitamins
"Vitamin C, total ascorbic acid",mg,--,--,0.0,0.0
"Vitamin A, IU",IU,--,--,99,88
Lipids
"Fatty acids, total saturated",g,--,--,11.995,10.710
"Fatty acids, total trans",g,--,--,0.000,0.000
"Cholesterol",mg,--,--,69,62
Amino Acids
Other
Ingredients
"BEEF, WATER, SALT, MUSTARD, TURBINADO SUGAR, SPICES, GARLIC POWDER, CELERY POWDER, CHERRY POWDER, YEAST EXTRACT." Date available: 07/14/2017 Date last updated by company: 07/14/2017
