Source: USDA Branded Food Products Database Release December 2017 Software v.3.8.6.4 2017-10-02
Report Run at: December 18, 2017 20:56 EST
"Nutrient data for: 45048472, UNCURED RUSTIC BACON, UPC: 858893002003"
Food Group:  Branded Food Products Database
Common Name:

Nutrient,Unit,Data points,Std. Error,"2.0 SLICED = 57.0g",1Value per 100 g,
Proximates
"Energy",kcal,--,--,250,439
"Protein",g,--,--,4.00,7.02
"Total lipid (fat)",g,--,--,25.00,43.86
"Carbohydrate, by difference",g,--,--,0.00,0.00
"Fiber, total dietary",g,--,--,0.0,0.0
"Sugars, total",g,--,--,0.00,0.00
Minerals
"Calcium, Ca",mg,--,--,0,0
"Iron, Fe",mg,--,--,0.31,0.55
"Sodium, Na",mg,--,--,410,719
Vitamins
"Vitamin C, total ascorbic acid",mg,--,--,0.0,0.0
"Vitamin A, IU",IU,--,--,0,0
Lipids
"Fatty acids, total saturated",g,--,--,9.000,15.790
"Fatty acids, total trans",g,--,--,0.000,0.000
"Cholesterol",mg,--,--,35,61
Amino Acids
Other
Ingredients
"PORK(FOOD ALLIANCE CERTIFIED), WATER, SEA SALT, CELERY POWDER" Date available: 06/25/2017 Date last updated by company: 06/25/2017
