Source: USDA Branded Food Products Database Release December 2017 Software v.3.8.6.4 2017-10-02
Report Run at: December 18, 2017 20:57 EST
"Nutrient data for: 45330117, UNCURED TURKEY BACON CRUMBLES, UPC: 791241500526"
Food Group:  Branded Food Products Database
Common Name:

Nutrient,Unit,Data points,Std. Error,"1 Tbsp = 7.0g",1Value per 100 g,
Proximates
"Energy",kcal,--,--,25,357
"Protein",g,--,--,3.00,42.86
"Total lipid (fat)",g,--,--,1.00,14.29
"Carbohydrate, by difference",g,--,--,1.00,14.29
"Fiber, total dietary",g,--,--,0.0,0.0
"Sugars, total",g,--,--,0.00,0.00
Minerals
"Calcium, Ca",mg,--,--,0,0
"Iron, Fe",mg,--,--,2.57,36.75
"Sodium, Na",mg,--,--,150,2143
Vitamins
"Vitamin C, total ascorbic acid",mg,--,--,0.0,0.0
"Vitamin A, IU",IU,--,--,0,0
Lipids
"Fatty acids, total saturated",g,--,--,0.000,0.000
"Fatty acids, total trans",g,--,--,0.000,0.000
"Cholesterol",mg,--,--,10,143
Amino Acids
Other
Ingredients
"TURKEY, WATER, SEA SALT, VINEGAR, RAW SUGAR, CELERY POWDER & ROSEMARY EXTRACT, COATED WITH ANCHO CHILI SEASONING (DRIED CHILIES, SALT, NATURAL FLAVORS, PAPRIKA, DEHYDRATED ONION, DEHYDRATED GARLIC, SUGAR, CITRIC ACID, SPICE) & LIME JUICE POWDER (MALTODEXTRIN, LIME JUICE, LIME OIL)" Date available: 10/13/2017 Date last updated by company: 10/13/2017
