Source: USDA Branded Food Products Database Release December 2017 Software v.3.8.6.4 2017-10-02
Report Run at: December 18, 2017 21:00 EST
"Nutrient data for: 45325720, UNGRANOLA, UPC: 680474067572"
Food Group:  Branded Food Products Database
Common Name:

Nutrient,Unit,Data points,Std. Error,"0.33 cup = 28.0g",1Value per 100 g,
Proximates
"Energy",kcal,--,--,160,571
"Protein",g,--,--,3.00,10.71
"Total lipid (fat)",g,--,--,14.00,50.00
"Carbohydrate, by difference",g,--,--,11.00,39.29
"Fiber, total dietary",g,--,--,4.0,14.3
"Sugars, total",g,--,--,6.00,21.43
Minerals
"Potassium, K",mg,--,--,150,536
"Sodium, Na",mg,--,--,80,286
Vitamins
Lipids
"Fatty acids, total saturated",g,--,--,7.000,25.000
Amino Acids
Other
Ingredients
"COCONUT, ALMONDS, HONEY, PECANS, EGG WHITES, ORGANIC APPLES, CINNAMON, VANILLA EXTRACT, SEA SALT, ALL SPICE, NUTMEG, CARDAMOM, GINGER." Date available: 09/26/2017 Date last updated by company: 09/26/2017
