Source: USDA Branded Food Products Database Release December 2017 Software v.3.8.6.4 2017-10-02
Report Run at: December 18, 2017 21:04 EST
"Nutrient data for: 45200303, UNREFINED COCONUT SUGAR ORGANIC SUPERFOOD, UPC: 692752106224"
Food Group:  Branded Food Products Database
Common Name:

Nutrient,Unit,Data points,Std. Error,"1 tsp = 5.0g",1Value per 100 g,
Proximates
"Energy",kcal,--,--,18,360
"Protein",g,--,--,0.00,0.00
"Total lipid (fat)",g,--,--,0.00,0.00
"Carbohydrate, by difference",g,--,--,5.00,100.00
"Fiber, total dietary",g,--,--,0.0,0.0
"Sugars, total",g,--,--,5.00,100.00
Minerals
"Iron, Fe",mg,--,--,1.80,36.00
"Potassium, K",mg,--,--,65,1300
"Sodium, Na",mg,--,--,2,40
"Zinc, Zn",mg,--,--,0.15,3.00
"Copper, Cu",mg,--,--,0.020,0.400
Vitamins
"Vitamin C, total ascorbic acid",mg,--,--,12.0,240.0
"Thiamin",mg,--,--,0.150,3.000
Lipids
"Fatty acids, total saturated",g,--,--,0.000,0.000
"Fatty acids, total trans",g,--,--,0.000,0.000
"Cholesterol",mg,--,--,0,0
Amino Acids
Other
Ingredients
"ORGANIC COCONUT SUGAR." Date available: 10/13/2017 Date last updated by company: 10/13/2017
