Source: USDA Branded Food Products Database Release December 2017 Software v.3.8.6.4 2017-10-02
Report Run at: December 18, 2017 21:03 EST
"Nutrient data for: 45158651, UNREAL, CANDY COATED MILK CHOCOLATE PEANUTS, UPC: 855571005011"
Food Group:  Branded Food Products Database
Common Name:

Nutrient,Unit,Data points,Std. Error,"19.0 PIECES = 42.0g",1Value per 100 g,
Proximates
"Energy",kcal,--,--,200,476
"Protein",g,--,--,6.00,14.29
"Total lipid (fat)",g,--,--,11.00,26.19
"Carbohydrate, by difference",g,--,--,20.00,47.62
"Fiber, total dietary",g,--,--,3.0,7.1
"Sugars, total",g,--,--,16.00,38.10
Minerals
"Calcium, Ca",mg,--,--,450,1071
"Iron, Fe",mg,--,--,1.71,4.08
"Sodium, Na",mg,--,--,20,48
Vitamins
"Vitamin C, total ascorbic acid",mg,--,--,0.0,0.0
"Vitamin A, IU",IU,--,--,0,0
Lipids
"Fatty acids, total saturated",g,--,--,4.998,11.900
"Fatty acids, total trans",g,--,--,0.000,0.000
"Cholesterol",mg,--,--,0,0
Amino Acids
Other
Ingredients
"MILK CHOCOLATE (CACAO*, ORGANIC MILK POWDER, CANE SUGAR,* COCOA BUTTER,* ORGANIC BLUE AGAVE INULIN, ORGANIC SUNFLOWER LECITHIN, VANILLA), PEANUTS, CANE SUGAR, CALCIUM CARBONATE, COLORED WITH WITH (RED CABBAGE JUICE, BEETROOT JUICE, CARROT JUICE, HIBISCUS JUICE, ANNATTO EXTRACT, TURMERIC EXTRACT), GUM ARABIC, VANILLA EXTRACT, CARNAUBA WAX & BEESWAX." Date available: 07/14/2017 Date last updated by company: 07/14/2017
