Source: USDA Branded Food Products Database Release December 2017 Software v.3.8.6.4 2017-10-02
Report Run at: December 18, 2017 21:08 EST
"Nutrient data for: 45239175, UNSALTED VEGETABLE STOCK, UPC: 611443320282"
Food Group:  Branded Food Products Database
Common Name:

Nutrient,Unit,Data points,Std. Error,"1 cup = 240.0g",1Value per 100 g,
Proximates
"Energy",kcal,--,--,24,10
"Protein",g,--,--,0.00,0.00
"Total lipid (fat)",g,--,--,0.00,0.00
"Carbohydrate, by difference",g,--,--,6.00,2.50
"Fiber, total dietary",g,--,--,0.0,0.0
"Sugars, total",g,--,--,4.01,1.67
Minerals
"Calcium, Ca",mg,--,--,0,0
"Iron, Fe",mg,--,--,0.00,0.00
"Potassium, K",mg,--,--,101,42
"Sodium, Na",mg,--,--,211,88
Vitamins
"Vitamin C, total ascorbic acid",mg,--,--,0.0,0.0
"Vitamin A, IU",IU,--,--,499,208
Lipids
"Fatty acids, total saturated",g,--,--,0.000,0.000
"Fatty acids, total trans",g,--,--,0.000,0.000
"Cholesterol",mg,--,--,0,0
Amino Acids
Other
Ingredients
"VEGETABLE STOCK (CARROT, MUSHROOM, TOMATO, ONION, CELERY, AND RED BELL PEPPER), NATURAL FLAVOR, AND SPICE AND HERBS (BAY LEAF, THYME, BLACK PEPPER)." Date available: 10/13/2017 Date last updated by company: 10/13/2017
