Source: USDA Branded Food Products Database Release December 2017 Software v.3.8.6.4 2017-10-02
Report Run at: December 18, 2017 21:17 EST
"Nutrient data for: 45269365, UNSWEET TEA, UPC: 856598003417"
Food Group:  Branded Food Products Database
Common Name:

Nutrient,Unit,Data points,Std. Error,"1 BOTTLE = 500.0g",1Value per 100 g,
Proximates
"Energy",kcal,--,--,5,1
"Protein",g,--,--,0.00,0.00
"Total lipid (fat)",g,--,--,0.00,0.00
"Carbohydrate, by difference",g,--,--,1.00,0.20
"Sugars, total",g,--,--,0.00,0.00
Minerals
"Sodium, Na",mg,--,--,0,0
Vitamins
Lipids
Amino Acids
Other
Ingredients
"FILTERED WATER, ORGANIC ROOIBOS TEA EXTRACT, ORGANIC ROOIBOS TEA ESSENCE, CITRIC ACID." Date available: 07/14/2017 Date last updated by company: 07/14/2017
