Source: USDA Branded Food Products Database Release December 2017 Software v.3.8.6.4 2017-10-02
Report Run at: December 18, 2017 21:19 EST
"Nutrient data for: 45019544, UPTON'S NATURALS, ITALIAN SEITAN, UPC: 689076762878"
Food Group:  Branded Food Products Database
Common Name:

Nutrient,Unit,Data points,Std. Error,"2.0 ONZ = 57.0g",1Value per 100 g,
Proximates
"Energy",kcal,--,--,100,175
"Protein",g,--,--,15.00,26.32
"Total lipid (fat)",g,--,--,1.50,2.63
"Carbohydrate, by difference",g,--,--,7.00,12.28
"Sugars, total",g,--,--,0.00,0.00
Minerals
"Sodium, Na",mg,--,--,264,463
Vitamins
Lipids
"Fatty acids, total trans",g,--,--,0.000,0.000
"Cholesterol",mg,--,--,0,0
Amino Acids
Other
Ingredients
"WATER, VITAL WHEAT GLUTEN, SOY SAUCE (WATER, WHEAT, SOYBEAN SALT), WHOLE WHEAT FLOUR, GARLIC, OREGANO, SEA SALT, ONION. FENNEL, BLACK PEPPER, RED PEPPER" Date available: 10/13/2017 Date last updated by company: 10/13/2017
