Source: USDA Branded Food Products Database Release December 2017 Software v.3.8.6.4 2017-10-02
Report Run at: December 18, 2017 21:20 EST
"Nutrient data for: 45035117, URBAN ACCENTS, SONOMA PEPPER, UPC: 635519115077"
Food Group:  Branded Food Products Database
Common Name:

Nutrient,Unit,Data points,Std. Error,"0.25 tsp = 0.6g",1Value per 100 g,
Proximates
"Energy",kcal,--,--,0,0
"Protein",g,--,--,0.00,0.00
"Total lipid (fat)",g,--,--,0.00,0.00
"Carbohydrate, by difference",g,--,--,0.00,0.00
Minerals
"Sodium, Na",mg,--,--,0,0
Vitamins
Lipids
Amino Acids
Other
Ingredients
"BLACK PEPPER, MINCED LEMON, ORANGE PEEL, CITRIC ACID, GARLIC, ONION, AND LESS THAN 2% SOYBEAN OIL ADDED AS A PROCESSING AID" Date available: 09/29/2017 Date last updated by company: 09/29/2017
