Source: USDA Branded Food Products Database Release December 2017 Software v.3.8.6.4 2017-10-02
Report Run at: December 18, 2017 21:24 EST
"Nutrient data for: 45051713, UTZ, POTATO CHIPS, UPC: 041780000088"
Food Group:  Branded Food Products Database
Common Name:

Nutrient,Unit,Data points,Std. Error,"1 BAG = 14.0g",1Value per 100 g,
Proximates
"Energy",kcal,--,--,80,571
"Protein",g,--,--,1.00,7.14
"Total lipid (fat)",g,--,--,4.50,32.14
"Carbohydrate, by difference",g,--,--,7.00,50.00
"Fiber, total dietary",g,--,--,1.0,7.1
"Sugars, total",g,--,--,0.00,0.00
Minerals
"Calcium, Ca",mg,--,--,0,0
"Iron, Fe",mg,--,--,0.00,0.00
"Potassium, K",mg,--,--,190,1357
"Sodium, Na",mg,--,--,50,357
Vitamins
"Vitamin C, total ascorbic acid",mg,--,--,12.9,91.8
"Vitamin A, IU",IU,--,--,0,0
Lipids
"Fatty acids, total saturated",g,--,--,1.000,7.140
"Fatty acids, total trans",g,--,--,0.000,0.000
"Cholesterol",mg,--,--,0,0
Amino Acids
Other
Ingredients
"WHOLE FRESH POTATOES, SLICED AND COOKED IN 100% PURE COTTONSEED OIL, WITH SALT ADDED." Date available: 07/14/2017 Date last updated by company: 07/14/2017
