Source: USDA Branded Food Products Database Release December 2017 Software v.3.8.6.4 2017-10-02
Report Run at: December 18, 2017 21:23 EST
"Nutrient data for: 45051703, UTZ, POTATO CHIPS, ORIGINAL, UPC: 041780020079"
Food Group:  Branded Food Products Database
Common Name:

Nutrient,Unit,Data points,Std. Error,"20.0 CHIPS = 28.0g",1Value per 100 g,
Proximates
"Energy",kcal,--,--,150,536
"Protein",g,--,--,2.00,7.14
"Total lipid (fat)",g,--,--,9.00,32.14
"Carbohydrate, by difference",g,--,--,14.00,50.00
"Fiber, total dietary",g,--,--,1.0,3.6
"Sugars, total",g,--,--,0.00,0.00
Minerals
"Calcium, Ca",mg,--,--,0,0
"Iron, Fe",mg,--,--,0.64,2.29
"Magnesium, Mg",mg,--,--,29,102
"Phosphorus, P",mg,--,--,71,255
"Potassium, K",mg,--,--,370,1321
"Sodium, Na",mg,--,--,95,339
Vitamins
"Vitamin C, total ascorbic acid",mg,--,--,10.7,38.3
"Thiamin",mg,--,--,0.000,0.000
"Niacin",mg,--,--,2.858,10.207
"Vitamin B-6",mg,--,--,0.143,0.510
"Vitamin A, IU",IU,--,--,0,0
Lipids
"Fatty acids, total saturated",g,--,--,1.999,7.140
"Fatty acids, total monounsaturated",g,--,--,1.999,7.140
"Fatty acids, total polyunsaturated",g,--,--,5.001,17.860
"Fatty acids, total trans",g,--,--,0.000,0.000
"Cholesterol",mg,--,--,0,0
Amino Acids
Other
Ingredients
"POTATOES, COTTONSEED OIL AND SALT." Date available: 07/14/2017 Date last updated by company: 07/14/2017
