Source: USDA Branded Food Products Database Release December 2017 Software v.3.8.6.4 2017-10-02
Report Run at: December 18, 2017 23:01 EST
"Nutrient data for: 45135304, V8 V-FUSION BEVERAGE ORANGE KIWI, UNPREPARED, GTIN: 00051000222664"
Food Group:  Branded Food Products Database
Common Name:

Nutrient,Unit,Data points,Std. Error,"8.0 FL. OZ. (240 mL) = 8.0g",1Value per 100 g,
Proximates
"Protein",g,--,--,0.00,0.00
"Total lipid (fat)",g,--,--,0.00,0.00
"Carbohydrate, by difference",g,--,--,0.57,7.08
"Fiber, total dietary",g,--,--,0.0,0.0
"Sugars, total",g,--,--,0.50,6.25
Minerals
"Calcium, Ca",mg,--,--,0,0
"Iron, Fe",mg,--,--,0.00,0.00
"Potassium, K",mg,--,--,9,108
"Sodium, Na",mg,--,--,3,38
Vitamins
"Vitamin C, total ascorbic acid",mg,--,--,2.0,25.0
"Vitamin A, IU",IU,--,--,133,1667
Lipids
"Fatty acids, total saturated",g,--,--,0.000,0.000
"Fatty acids, total trans",g,--,--,0.000,0.000
"Cholesterol",mg,--,--,0,0
Amino Acids
Other
Ingredients
"WATER, CONCENTRATED VEGETABLE JUICES OF (SWEET POTATOES, CARROTS), CONCENTRATED FRUIT JUICES OF (APPLES, MANDARIN ORANGES, WHITE GRAPES, KIWI), NATURAL FLAVORING, CITRIC ACID, VITAMIN C (ASCORBIC ACID), VITAMIN E (ALPHA TOCOPHEROL ACETATE)." Date available: 10/05/2017 Date last updated by company: 07/10/2017
