Source: USDA Branded Food Products Database Release December 2017 Software v.3.8.6.4 2017-10-02
Report Run at: December 18, 2017 21:25 EST
"Nutrient data for: 45222505, VACUUM FRIED VEGETABLE SNAP BEANS, UPC: 6946479000803"
Food Group:  Branded Food Products Database
Common Name:

Nutrient,Unit,Data points,Std. Error,"1 PACK = 50.0g",1Value per 100 g,
Proximates
"Energy",kcal,--,--,214,428
"Protein",g,--,--,3.00,6.00
"Total lipid (fat)",g,--,--,7.00,14.00
"Carbohydrate, by difference",g,--,--,33.00,66.00
"Fiber, total dietary",g,--,--,5.0,10.0
"Sugars, total",g,--,--,17.00,34.00
Minerals
"Calcium, Ca",mg,--,--,110,220
"Iron, Fe",mg,--,--,0.72,1.44
"Sodium, Na",mg,--,--,9,18
Vitamins
"Vitamin C, total ascorbic acid",mg,--,--,6.6,13.2
"Vitamin A, IU",IU,--,--,0,0
Lipids
"Fatty acids, total saturated",g,--,--,1.000,2.000
"Fatty acids, total trans",g,--,--,0.000,0.000
"Cholesterol",mg,--,--,0,0
Amino Acids
Other
Ingredients
"SNAP BEANS, PALM OIL, MALTOSE" Date available: 10/13/2017 Date last updated by company: 10/13/2017
