Source: USDA Branded Food Products Database Release December 2017 Software v.3.8.6.4 2017-10-02
Report Run at: December 18, 2017 21:25 EST
"Nutrient data for: 45241966, VALDE FRANCE, ORGANIC SPARKLING JUICE, PEACH, UPC: 851231000129"
Food Group:  Branded Food Products Database
Common Name:

Nutrient,Unit,Data points,Std. Error,"8.0 OZA = 240.0g",1Value per 100 g,
Proximates
"Energy",kcal,--,--,91,38
"Protein",g,--,--,0.50,0.21
"Total lipid (fat)",g,--,--,0.00,0.00
"Carbohydrate, by difference",g,--,--,19.99,8.33
"Sugars, total",g,--,--,19.01,7.92
Minerals
"Sodium, Na",mg,--,--,0,0
Vitamins
Lipids
"Fatty acids, total saturated",g,--,--,0.000,0.000
"Fatty acids, total trans",g,--,--,0.000,0.000
"Cholesterol",mg,--,--,0,0
Amino Acids
Other
Ingredients
"ORGANIC APPLE JUICE FROM CONCENTRATE (90%, WATER, CARBON DIOXIDE, PEACH FLAVOR, CITRIC ACID." Date available: 06/25/2017 Date last updated by company: 06/25/2017
