Source: USDA Branded Food Products Database Release December 2017 Software v.3.8.6.4 2017-10-02
Report Run at: December 18, 2017 21:26 EST
"Nutrient data for: 45143052, VALENTINE CRISPY CHOCOLATY MINI BARS AND HEARTS, UPC: 041376509575"
Food Group:  Branded Food Products Database
Common Name:

Nutrient,Unit,Data points,Std. Error,"4.0 PIECES = 48.0g",1Value per 100 g,
Proximates
"Energy",kcal,--,--,250,521
"Protein",g,--,--,1.00,2.08
"Total lipid (fat)",g,--,--,15.00,31.25
"Carbohydrate, by difference",g,--,--,32.00,66.67
"Fiber, total dietary",g,--,--,1.0,2.1
"Sugars, total",g,--,--,28.00,58.33
Minerals
"Calcium, Ca",mg,--,--,40,83
"Iron, Fe",mg,--,--,1.12,2.34
"Sodium, Na",mg,--,--,20,42
Vitamins
"Vitamin C, total ascorbic acid",mg,--,--,0.0,0.0
"Vitamin A, IU",IU,--,--,0,0
Lipids
"Fatty acids, total saturated",g,--,--,14.002,29.170
"Fatty acids, total trans",g,--,--,0.000,0.000
"Cholesterol",mg,--,--,0,0
Amino Acids
Other
Ingredients
"SUGAR, HYDROGENATED VEGETABLE OIL ( PALM KERNEL, COCONUT AND PALM), COCOA POWDER, CRISPED RICE (RICE FLOUR, SUGAR, SALT, MALT), COCOA (PROCESSED WITH ALKALI), EMULSIFIERS (SORBITAN TRISTEARATE AND SOY LECITHIN), WHEY (MILK), VANILLIN (AN ARTIFICIAL FLAVOR)" Date available: 07/14/2017 Date last updated by company: 07/14/2017
