Source: USDA Branded Food Products Database Release December 2017 Software v.3.8.6.4 2017-10-02
Report Run at: December 18, 2017 21:26 EST
"Nutrient data for: 45047602, VALENTINE COOKIES, UPC: 073664008439"
Food Group:  Branded Food Products Database
Common Name:

Nutrient,Unit,Data points,Std. Error,"3.0 COOKIES = 28.0g",1Value per 100 g,
Proximates
"Energy",kcal,--,--,140,500
"Protein",g,--,--,2.00,7.14
"Total lipid (fat)",g,--,--,8.00,28.57
"Carbohydrate, by difference",g,--,--,16.00,57.14
"Fiber, total dietary",g,--,--,0.0,0.0
"Sugars, total",g,--,--,5.00,17.86
Minerals
"Calcium, Ca",mg,--,--,0,0
"Iron, Fe",mg,--,--,1.29,4.59
"Sodium, Na",mg,--,--,105,375
Vitamins
"Vitamin C, total ascorbic acid",mg,--,--,0.0,0.0
"Vitamin A, IU",IU,--,--,0,0
Lipids
"Fatty acids, total saturated",g,--,--,2.999,10.710
"Fatty acids, total trans",g,--,--,0.000,0.000
"Cholesterol",mg,--,--,5,18
Amino Acids
Other
Ingredients
"ENRICHED WHEAT FLOUR (MALTED BARLEY FLOUR, NIACIN, REDUCED IRON, THIAMINE MONONITRATE, RIBOFLAVIN, FOLIC ACID), SHORTENING (BEEF FAT, PARTIALLY HYDROGENATED SOYBEAN AND/OR COTTONSEED OIL), SUGAR, EGGS, CORN SYRUP, SALT, NATURAL AND ARTIFICIAL FLAVORS, BAKING SODA, SOY LECITHIN - AN EMULSIFIER, VEGETABLE OIL (PARTIALLY HYDROGENATED COTTONSEED OIL AND/OR SOYBEAN OIL), CORN STARCH, CONFECTIONER'S GLAZE, CARNUABA WAX, COLORING (INCLUDES YELLOW 5 & 6, RED 3& 4, RED 3 & 40 LAKE, ARTIFICIAL COLOR)." Date available: 07/14/2017 Date last updated by company: 07/14/2017
