Source: USDA Branded Food Products Database Release December 2017 Software v.3.8.6.4 2017-10-02
Report Run at: December 18, 2017 21:35 EST
"Nutrient data for: 45171770, VALU TIME, FRENCH ONION DIP, UPC: 011225030062"
Food Group:  Branded Food Products Database
Common Name:

Nutrient,Unit,Data points,Std. Error,"2.0 Tbsp = 31.0g",1Value per 100 g,
Proximates
"Energy",kcal,--,--,50,161
"Protein",g,--,--,1.00,3.23
"Total lipid (fat)",g,--,--,4.50,14.52
"Carbohydrate, by difference",g,--,--,2.00,6.45
"Fiber, total dietary",g,--,--,0.0,0.0
"Sugars, total",g,--,--,2.00,6.45
Minerals
"Calcium, Ca",mg,--,--,40,129
"Iron, Fe",mg,--,--,0.00,0.00
"Sodium, Na",mg,--,--,140,452
Vitamins
"Vitamin C, total ascorbic acid",mg,--,--,0.0,0.0
"Vitamin A, IU",IU,--,--,322,1040
Lipids
"Fatty acids, total saturated",g,--,--,3.001,9.680
"Fatty acids, total trans",g,--,--,0.000,0.000
"Cholesterol",mg,--,--,20,65
Amino Acids
Other
Ingredients
"CULTURED PASTEURIZED LIGHT CREAM, NONFAT MILK, MODIFIED CORN STARCH, GELATIN, SALT, DEHYDRATED ONION, SUGAR, DEXTROSE, MONOSODIUM GLUTAMATE, MALTODEXTRIN, PARSLEY, AUTILYZED YEAST EXTRACT, SOYBEAN OIL, POTASSIUM SORBATE (PRESERVATIVE), CARAMEL COLOR, AND ENZYME." Date available: 07/14/2017 Date last updated by company: 07/14/2017
