Source: USDA Branded Food Products Database Release December 2017 Software v.3.8.6.4 2017-10-02
Report Run at: December 18, 2017 21:38 EST
"Nutrient data for: 45133743, VAN CAMPS Beanee Weenee, UNPREPARED, GTIN: 00052000311181"
Food Group:  Branded Food Products Database
Common Name:

Nutrient,Unit,Data points,Std. Error,"1 can (220g) = 220.0g",1Value per 100 g,
Proximates
"Energy",kcal,--,--,260,118
"Total lipid (fat)",g,--,--,8.01,3.64
"Carbohydrate, by difference",g,--,--,33.00,15.00
"Fiber, total dietary",g,--,--,9.0,4.1
"Sugars, total",g,--,--,8.01,3.64
Minerals
"Calcium, Ca",mg,--,--,99,45
"Iron, Fe",mg,--,--,1.80,0.82
"Potassium, K",mg,--,--,550,250
"Sodium, Na",mg,--,--,849,386
Vitamins
"Vitamin C, total ascorbic acid",mg,--,--,1.1,0.5
"Vitamin A, IU",IU,--,--,99,45
Lipids
"Fatty acids, total saturated",g,--,--,2.508,1.140
"Fatty acids, total monounsaturated",g,--,--,2.992,1.360
"Fatty acids, total polyunsaturated",g,--,--,2.002,0.910
"Fatty acids, total trans",g,--,--,0.000,0.000
"Cholesterol",mg,--,--,35,16
Amino Acids
Other
Ingredients
"Prepared White Beans (Water, White Beans), Chicken Franks (Mechanically Separated Chicken, Water, Salt, Corn Syrup, Dextrose, Sodium Phosphate, Natural Flavorings, Paprika, Sodium Erythorbate, Sodium Nitrite, Extractives of Paprika), Tomato Puree (Water, Tomato Paste), Water, Sugar, Less than 2% of: High Fructose Corn Syrup, Salt, Onion Powder, Natural and Artificial Flavors. MAY CONTAIN: SOY." Date available: 10/12/2017 Date last updated by company: 10/21/2016
