Source: USDA Branded Food Products Database Release December 2017 Software v.3.8.6.4 2017-10-02
Report Run at: December 18, 2017 21:45 EST
"Nutrient data for: 45179519, VANILLA PANQUE, UPC: 760064123434"
Food Group:  Branded Food Products Database
Common Name:

Nutrient,Unit,Data points,Std. Error,"2.5 ONZ = 72.0g",1Value per 100 g,
Proximates
"Energy",kcal,--,--,238,331
"Protein",g,--,--,2.50,3.47
"Total lipid (fat)",g,--,--,13.00,18.06
"Carbohydrate, by difference",g,--,--,29.00,40.28
"Fiber, total dietary",g,--,--,0.0,0.0
"Sugars, total",g,--,--,18.00,25.00
Minerals
"Calcium, Ca",mg,--,--,20,28
"Iron, Fe",mg,--,--,0.27,0.38
"Sodium, Na",mg,--,--,310,431
Vitamins
"Vitamin C, total ascorbic acid",mg,--,--,0.0,0.0
"Vitamin A, IU",IU,--,--,0,0
Lipids
"Fatty acids, total saturated",g,--,--,2.002,2.780
"Cholesterol",mg,--,--,50,69
Amino Acids
Other
Ingredients
"BLEACHED WHEAT FLOUR (ENRICHED WITH NIACIN, REDUCED IRON, THIAMINE MONONITRATE, RIBOFLAVIN AND FOLIC ACID), SUGAR, PARTIALLY HYDROGENATED SOYBEAN OIL, LEAVENING (SODIUM ALUMINUM PHOSPHATE, SODIUM BICARBONATE, MONOCALCIUM PHOSPHATE), NONFAT MILK, WATER, FD&C YELLOW#5, WHOLE EGGS, SALT, HONEY, HIGH FRUCTOSE CORN SYRUP, WHEAT STARCH, CORN SYRUP, SOY FLOUR, NULOMOLINE (SUGAR INVERT), POTASSIUM SORBATE TO PRESERVE FRESHNESS." Date available: 07/14/2017 Date last updated by company: 07/14/2017
