Source: USDA Branded Food Products Database Release December 2017 Software v.3.8.6.4 2017-10-02
Report Run at: December 18, 2017 21:42 EST
"Nutrient data for: 45210617, VANILLA CREME SANDWICH COOKIES, UPC: 051933053519"
Food Group:  Branded Food Products Database
Common Name:

Nutrient,Unit,Data points,Std. Error,"3.0 COOKIES = 36.0g",1Value per 100 g,
Proximates
"Energy",kcal,--,--,170,472
"Protein",g,--,--,2.00,5.56
"Total lipid (fat)",g,--,--,7.00,19.44
"Carbohydrate, by difference",g,--,--,26.00,72.22
"Fiber, total dietary",g,--,--,0.0,0.0
"Sugars, total",g,--,--,11.00,30.56
Minerals
"Calcium, Ca",mg,--,--,0,0
"Iron, Fe",mg,--,--,1.00,2.78
"Potassium, K",mg,--,--,20,56
"Sodium, Na",mg,--,--,95,264
Vitamins
"Vitamin C, total ascorbic acid",mg,--,--,0.0,0.0
"Vitamin A, IU",IU,--,--,0,0
Lipids
"Fatty acids, total saturated",g,--,--,2.002,5.560
"Fatty acids, total monounsaturated",g,--,--,2.002,5.560
"Fatty acids, total polyunsaturated",g,--,--,2.999,8.330
"Fatty acids, total trans",g,--,--,0.000,0.000
"Cholesterol",mg,--,--,0,0
Amino Acids
Other
Ingredients
"ENRICHED FLOUR (WHEAT FLOUR, NIACIN, REDUCED IRON, THIAMINE MONONITRATE, RIBOFLAVIN, FOLIC ACID), SUGAR, VEGETABLE OIL (CONTAINS ONE OR MORE OF THE FOLLOWING: CANOLA OIL, CORN OIL, PALM OIL, SOYBEAN OIL), DEXTROSE, HIGH FRUCTOSE CORN SYRUP, CORN SYRUP, CONTAINS 2% OR LESS OF THE FOLLOWING CORNSTARCH, LEAVENING (SODIUM BICARBONATE, MONOCALCIUM PHOSPHATE), SALT, ARTIFICIAL FLAVOR, SOY LECITHIN (EMULSIFIER)." Date available: 07/14/2017 Date last updated by company: 07/14/2017
