Source: USDA Branded Food Products Database Release December 2017 Software v.3.8.6.4 2017-10-02
Report Run at: December 18, 2017 21:41 EST
"Nutrient data for: 45286319, VANILLA CAPPUCCINO, UPC: 041303063279"
Food Group:  Branded Food Products Database
Common Name:

Nutrient,Unit,Data points,Std. Error,"1 K-CUP POD = 15.0g",1Value per 100 g,
Proximates
"Energy",kcal,--,--,70,467
"Protein",g,--,--,1.00,6.67
"Total lipid (fat)",g,--,--,2.50,16.67
"Carbohydrate, by difference",g,--,--,10.00,66.67
"Fiber, total dietary",g,--,--,0.0,0.0
"Sugars, total",g,--,--,7.00,46.67
Minerals
"Calcium, Ca",mg,--,--,20,133
"Iron, Fe",mg,--,--,0.00,0.00
"Sodium, Na",mg,--,--,260,1733
Vitamins
"Vitamin C, total ascorbic acid",mg,--,--,0.0,0.0
"Vitamin A, IU",IU,--,--,0,0
Lipids
"Fatty acids, total saturated",g,--,--,2.501,16.670
"Fatty acids, total trans",g,--,--,0.000,0.000
"Cholesterol",mg,--,--,0,0
Amino Acids
Other
Ingredients
"SUGAR, CREAMER (HYDROGENATED COCONUT OIL, GLUCOSE SYRUP, SALT, SODIUM CASEINATE (A MILK DERIVATIVE), SODIUM POLYPHOSPHATE, DIPOTASSIUM PHOSPHATE, SODIUM STEAROYL-2-LACTYLATE, NATURAL AND ARTIFICIAL FLAVOR), NONFAT DRY MILK, ARABICA COFFEE, SALT, COCOA (PROCESSED WITH ALKALI), MODIFIED CORN STRACH, CAPRIC/CAPRYLIC TRIGLYCERIDES, NATURAL AND ARTIFICIAL FLAVORS, SUCRALOSE, ACESULFAME POTASSIUM." Date available: 09/12/2017 Date last updated by company: 09/12/2017
