Source: USDA Branded Food Products Database Release December 2017 Software v.3.8.6.4 2017-10-02
Report Run at: December 18, 2017 21:45 EST
"Nutrient data for: 45240126, VANILLA PROTEIN+ PEANUT BUTTER, UPC: 853547003825"
Food Group:  Branded Food Products Database
Common Name:

Nutrient,Unit,Data points,Std. Error,"1 PACK = 32.0g",1Value per 100 g,
Proximates
"Energy",kcal,--,--,180,562
"Protein",g,--,--,12.00,37.50
"Total lipid (fat)",g,--,--,14.00,43.75
"Carbohydrate, by difference",g,--,--,7.00,21.88
"Fiber, total dietary",g,--,--,2.0,6.2
"Sugars, total",g,--,--,2.00,6.25
Minerals
"Calcium, Ca",mg,--,--,80,250
"Iron, Fe",mg,--,--,1.69,5.28
"Sodium, Na",mg,--,--,55,172
Vitamins
"Vitamin C, total ascorbic acid",mg,--,--,0.0,0.0
"Vitamin A, IU",IU,--,--,0,0
Lipids
"Fatty acids, total saturated",g,--,--,2.000,6.250
"Fatty acids, total trans",g,--,--,0.000,0.000
"Cholesterol",mg,--,--,0,0
Amino Acids
Other
Ingredients
"ROASTED PEANUTS, WHEY PROTEIN ISOLATE, ORGANIC CLOVER HONEY, PEANUT OIL, ORGANIC VANILLA, SEA SALT." Date available: 07/14/2017 Date last updated by company: 07/14/2017
