Source: USDA Branded Food Products Database Release December 2017 Software v.3.8.6.4 2017-10-02
Report Run at: December 18, 2017 21:40 EST
"Nutrient data for: 45001612, VANILLA BEAN ICE CREAM, UPC: 5051379049775"
Food Group:  Branded Food Products Database
Common Name:

Nutrient,Unit,Data points,Std. Error,"0.5 cup = 65.0g",1Value per 100 g,
Proximates
"Energy",kcal,--,--,110,169
"Protein",g,--,--,3.00,4.62
"Total lipid (fat)",g,--,--,4.00,6.15
"Carbohydrate, by difference",g,--,--,13.00,20.00
"Fiber, total dietary",g,--,--,1.0,1.5
"Sugars, total",g,--,--,11.00,16.92
Minerals
"Calcium, Ca",mg,--,--,100,154
"Iron, Fe",mg,--,--,0.00,0.00
"Sodium, Na",mg,--,--,55,85
Vitamins
"Vitamin C, total ascorbic acid",mg,--,--,0.0,0.0
"Vitamin A, IU",IU,--,--,337,519
Lipids
"Fatty acids, total saturated",g,--,--,2.002,3.080
"Fatty acids, total trans",g,--,--,0.000,0.000
"Cholesterol",mg,--,--,15,23
Amino Acids
Other
Ingredients
"MILK, SUGAR ,CORN SYRUP, CREAM, TAPIOCA STARCH, WHEY PROTEIN ISOLATE, MONO- AND DI-GLYCERIDES, GUAR GUM, TARA GUM, CELLULOSE GUM, XANTHAN GUM, CARRAGEENAN, DEXTROSE, NATURAL VANILLA FLAVOR, VANILLA BEAN, VITAMIN A PALMITATE." Date available: 07/14/2017 Date last updated by company: 07/14/2017
