Source: USDA Branded Food Products Database Release December 2017 Software v.3.8.6.4 2017-10-02
Report Run at: December 18, 2017 21:43 EST
"Nutrient data for: 45118981, VANILLA FROSTING, UPC: 713733845762"
Food Group:  Branded Food Products Database
Common Name:

Nutrient,Unit,Data points,Std. Error,"2.0 Tbsp = 34.0g",1Value per 100 g,
Proximates
"Energy",kcal,--,--,140,412
"Protein",g,--,--,0.00,0.00
"Total lipid (fat)",g,--,--,5.00,14.71
"Carbohydrate, by difference",g,--,--,24.00,70.59
"Fiber, total dietary",g,--,--,1.0,2.9
"Sugars, total",g,--,--,21.00,61.76
Minerals
"Calcium, Ca",mg,--,--,0,0
"Iron, Fe",mg,--,--,0.00,0.00
"Sodium, Na",mg,--,--,65,191
Vitamins
"Vitamin C, total ascorbic acid",mg,--,--,0.0,0.0
"Vitamin A, IU",IU,--,--,0,0
Lipids
"Fatty acids, total saturated",g,--,--,2.499,7.350
"Fatty acids, total trans",g,--,--,1.499,4.410
"Cholesterol",mg,--,--,0,0
Amino Acids
Other
Ingredients
"SUGAR, PARTIALLY HYDROGENATED VEGETABLE OIL (SOYBEAN, SUNFLOWER AND/OR COTTONSEED OILS), WATER, CORN SYRUP, CORN STARCH, CONTAINS 2% OR LESS OF SALT, MONO AND DIGLYCERIDES, CELLULOSE GUM, YELLOW 5, YELLOW 6, TITANIUM DIOXIDE, POLYSORBATE 60, SODIUM STEAROYL LACTYLATE, SODIUM ACID PYROPHOSPHATE, ARTIFICIAL FLAVOR, CITRIC ACID, NONFAT MILK, POTASSIUM SORBATE (PRESERVATIVE)." Date available: 08/24/2017 Date last updated by company: 08/24/2017
