Source: USDA Branded Food Products Database Release December 2017 Software v.3.8.6.4 2017-10-02
Report Run at: December 18, 2017 21:52 EST
"Nutrient data for: 45180426, VEGAN BROWNIE RECTANGLE, UPC: 852748002804"
Food Group:  Branded Food Products Database
Common Name:

Nutrient,Unit,Data points,Std. Error,"0.25 BROWNIE = 100.0g",1Value per 100 g,
Proximates
"Energy",kcal,--,--,380,380
"Protein",g,--,--,2.00,2.00
"Total lipid (fat)",g,--,--,19.00,19.00
"Carbohydrate, by difference",g,--,--,56.00,56.00
"Fiber, total dietary",g,--,--,3.0,3.0
"Sugars, total",g,--,--,34.00,34.00
Minerals
"Calcium, Ca",mg,--,--,20,20
"Iron, Fe",mg,--,--,0.43,0.43
"Sodium, Na",mg,--,--,210,210
Vitamins
"Vitamin C, total ascorbic acid",mg,--,--,0.0,0.0
"Vitamin A, IU",IU,--,--,0,0
Lipids
"Fatty acids, total saturated",g,--,--,1.000,1.000
"Fatty acids, total trans",g,--,--,0.000,0.000
"Cholesterol",mg,--,--,0,0
Amino Acids
Other
Ingredients
"SWEET ALI'S FLOUR MIX (BROWN RICE FLOUR, POTATO STARCH, TAPIOCA STARCH, SWEET RICE FLOUR, WHITE RICE FLOUR, XANTHAN GUM), SUGAR, FILTERED WATER, NON-GMO CANOLA OIL, BROWN SUGAR, COCOA POWDER, FLAXSEED, VANILLA, BAKING POWDER, SEA SALT." Date available: 07/14/2017 Date last updated by company: 07/14/2017
