Source: USDA Branded Food Products Database Release December 2017 Software v.3.8.6.4 2017-10-02
Report Run at: December 18, 2017 21:52 EST
"Nutrient data for: 45267891, VEGAN CITRUS SPARERIB CUTLETS, UPC: 683061303107"
Food Group:  Branded Food Products Database
Common Name:

Nutrient,Unit,Data points,Std. Error,"2.5 ONZ = 71.0g",1Value per 100 g,
Proximates
"Energy",kcal,--,--,210,296
"Protein",g,--,--,12.00,16.90
"Total lipid (fat)",g,--,--,8.00,11.27
"Carbohydrate, by difference",g,--,--,23.00,32.39
"Fiber, total dietary",g,--,--,3.0,4.2
"Sugars, total",g,--,--,6.00,8.45
Minerals
"Calcium, Ca",mg,--,--,60,85
"Iron, Fe",mg,--,--,1.39,1.96
"Sodium, Na",mg,--,--,530,746
Vitamins
"Vitamin C, total ascorbic acid",mg,--,--,0.0,0.0
"Vitamin A, IU",IU,--,--,0,0
Lipids
"Fatty acids, total saturated",g,--,--,2.499,3.520
"Fatty acids, total trans",g,--,--,0.000,0.000
"Cholesterol",mg,--,--,0,0
Amino Acids
Other
Ingredients
"WATER, TEXTURED SOYBEAN PROTEIN (SOYBEAN PROTEIN, WHEAT STARCH, WHEAT PROTEIN, SOYBEAN OIL), SOYBEAN OIL, SOYBEAN PROTEIN, RAW CANE SUGAR, WHEAT PROTEIN, TAPIOCA STARCH, SOY SAUCE (WATER, SOYBEAN, WHEAT, SALT, RAW CANE SUGAR), TREHALOSE, SEA SALT, YEAST PEPTONE POWDER, NATURAL VEGAN FLAVOR, WHITE PEPPER, MALTOSE, PLUM JUICE, VINEGAR, SPICES, XANTHAN GUM." Date available: 07/14/2017 Date last updated by company: 07/14/2017
