Source: USDA Branded Food Products Database Release December 2017 Software v.3.8.6.4 2017-10-02
Report Run at: December 18, 2017 22:03 EST
"Nutrient data for: 45042104, VEGETABLE OIL SPREAD, UPC: 041190461509"
Food Group:  Branded Food Products Database
Common Name:

Nutrient,Unit,Data points,Std. Error,"1 Tbsp = 14.0g",1Value per 100 g,
Proximates
"Energy",kcal,--,--,60,429
"Protein",g,--,--,0.00,0.00
"Total lipid (fat)",g,--,--,7.00,50.00
"Carbohydrate, by difference",g,--,--,0.00,0.00
Minerals
"Sodium, Na",mg,--,--,105,750
Vitamins
"Vitamin A, IU",IU,--,--,1690,12075
Lipids
"Fatty acids, total saturated",g,--,--,2.001,14.290
"Fatty acids, total trans",g,--,--,0.000,0.000
"Cholesterol",mg,--,--,0,0
Amino Acids
Other
Ingredients
"VEGETABLE OIL BLEND (SOYBEAN OIL, PALM OIL, AND PALM KERNEL OIL), WATER, SALT, WHEY (MILK), MONO AND DIGLYCERIDES, POTASSIUM SORBATE AND LACTIC ACID ADDED AS PRESERVATIVES, SOY LECITHIN (SOY), NATURAL AND ARTIFICIAL FLAVOR, CALCIUM DISODIUM EDTA USED TO PROTECT QUALITY, COLORED WITH BETA CAROTENE, VITAMIN A PALMITATE ADDED." Date available: 06/24/2017 Date last updated by company: 06/24/2017
