Source: USDA Branded Food Products Database Release December 2017 Software v.3.8.6.4 2017-10-02
Report Run at: December 18, 2017 22:10 EST
"Nutrient data for: 45200957, VEGETABLE TRAY WITH BUTTERMILK RANCH DIP, UPC: 709351301384"
Food Group:  Branded Food Products Database
Common Name:

Nutrient,Unit,Data points,Std. Error,"0.5 CUP VEGGIES AND 2 TBSP. DIP = 113.0g",1Value per 100 g,
Proximates
"Energy",kcal,--,--,110,97
"Protein",g,--,--,2.00,1.77
"Total lipid (fat)",g,--,--,8.00,7.08
"Carbohydrate, by difference",g,--,--,8.00,7.08
"Fiber, total dietary",g,--,--,2.0,1.8
"Sugars, total",g,--,--,4.00,3.54
Minerals
"Calcium, Ca",mg,--,--,40,35
"Iron, Fe",mg,--,--,0.32,0.28
"Sodium, Na",mg,--,--,220,195
Vitamins
"Vitamin C, total ascorbic acid",mg,--,--,13.2,11.7
"Vitamin A, IU",IU,--,--,1991,1762
Lipids
"Fatty acids, total saturated",g,--,--,0.994,0.880
"Fatty acids, total trans",g,--,--,0.000,0.000
"Cholesterol",mg,--,--,10,9
Amino Acids
Other
Ingredients
"CARROTS, GRAPE TOMATOES, BUTTERMILK RANCH DIP (CULTURED BUTTERMILK, CANOLA OIL, WATER, SOYBEAN OIL, EGG YOLK, SALT, SUGAR, MALTODEXTRIN, CULTURED DEXTROSE, DISTILLED VINEGAR, MODIFIED CORN STARCH, DRIED ONION, DRIED GARLIC, XANTHAN GUM, SPICES, GUAR GUM, MUSTARD FLOUR, YEAST EXTRACT, NATURAL FLAVOR, DRIED GREEN ONION, CORN SYRUP SOLIDS, DRIED BELL PEPPERS, LEMON JUICE CONCENTRATE), CELERY, SWEET PEPPERS AND/OR CARROTS, SUGAR SNAP PEAS AND/OR CARROTS, BROCCOLI FLORETS." Date available: 07/14/2017 Date last updated by company: 07/14/2017
