Source: USDA Branded Food Products Database Release December 2017 Software v.3.8.6.4 2017-10-02
Report Run at: December 18, 2017 22:10 EST
"Nutrient data for: 45279257, VEGETABLE WITH BEEF STOCK CONDENSED SOUP, UPC: 075450018684"
Food Group:  Branded Food Products Database
Common Name:

Nutrient,Unit,Data points,Std. Error,"0.5 cup = 123.0g",1Value per 100 g,
Proximates
"Energy",kcal,--,--,100,81
"Protein",g,--,--,4.00,3.25
"Total lipid (fat)",g,--,--,0.50,0.41
"Carbohydrate, by difference",g,--,--,21.00,17.07
"Fiber, total dietary",g,--,--,2.0,1.6
"Sugars, total",g,--,--,6.00,4.88
Minerals
"Calcium, Ca",mg,--,--,20,16
"Iron, Fe",mg,--,--,1.44,1.17
"Potassium, K",mg,--,--,310,252
"Sodium, Na",mg,--,--,740,602
Vitamins
"Vitamin C, total ascorbic acid",mg,--,--,9.6,7.8
"Vitamin A, IU",IU,--,--,4481,3643
Lipids
"Fatty acids, total saturated",g,--,--,0.000,0.000
"Fatty acids, total monounsaturated",g,--,--,0.000,0.000
"Fatty acids, total polyunsaturated",g,--,--,0.000,0.000
"Fatty acids, total trans",g,--,--,0.000,0.000
"Cholesterol",mg,--,--,0,0
Amino Acids
Other
Ingredients
"BEEF STOCK REHYDRATED POTATOES, CARROTS, TOMATO PASTE, GREEN BEANS, GREEN PEAS, ENRICHED MACARONI PRODUCT (SEMOLINA [WHEAT], EGG WHITES, NIACIN, FERROUS SULFATE [IRON], THIAMINE MONONITRATE, RIBOFLAVIN, FOLIC ACID), HIGH FRUCTOSE CORN SYRUP, CELERY, CORN, CORN STARCH, CONTAINS LESS THAN 2% OF: CARROT PUREE, SALT, MONOSODIUM GLUTAMATE, DEHYDRATED ONION, BEEF FAT, HYDROLYZED CORN AND WHEAT GLUTEN, HYDROLYZED SOY PROTEIN, ONION POWDER, DISODIUM INOSINATE AND DISODIUM GUANYLATE, GARLIC POWDER, SPICE, CITRIC ACID, NATURAL FLAVORS." Date available: 07/14/2017 Date last updated by company: 07/14/2017
