Source: USDA Branded Food Products Database Release December 2017 Software v.3.8.6.4 2017-10-02
Report Run at: December 18, 2017 22:03 EST
"Nutrient data for: 45006917, VEGETABLE OIL SPREAD, UPC: 051933190511"
Food Group:  Branded Food Products Database
Common Name:

Nutrient,Unit,Data points,Std. Error,"1 Tbsp = 14.0g",1Value per 100 g,
Proximates
"Energy",kcal,--,--,70,500
"Protein",g,--,--,0.00,0.00
"Total lipid (fat)",g,--,--,7.00,50.00
"Carbohydrate, by difference",g,--,--,0.00,0.00
"Fiber, total dietary",g,--,--,0.0,0.0
"Sugars, total",g,--,--,0.00,0.00
Minerals
"Calcium, Ca",mg,--,--,0,0
"Iron, Fe",mg,--,--,0.00,0.00
"Sodium, Na",mg,--,--,100,714
Vitamins
"Vitamin C, total ascorbic acid",mg,--,--,0.0,0.0
"Vitamin A, IU",IU,--,--,1690,12075
Lipids
"Fatty acids, total saturated",g,--,--,2.001,14.290
"Fatty acids, total monounsaturated",g,--,--,1.499,10.710
"Fatty acids, total polyunsaturated",g,--,--,3.500,25.000
"Fatty acids, total trans",g,--,--,0.000,0.000
"Cholesterol",mg,--,--,0,0
Amino Acids
Other
Ingredients
"VEGETABLE OIL BLEND (SOYBEAN OIL, PALM OIL, PALM KERNEL OIL), WATER, WHEY (MILK), SALT, MONO & DIGLYCERIDES, SOY LECITHIN, (POTASSIUM SORBATE, CALCIUM DISODIUM EDTA) USED TO PROTECT QUALITY, CITRIC ACID, ARTIFICIAL FLAVOR, VITAMIN A PALMITATE, BETA CAROTENE (FOR COLOR)." Date available: 06/25/2017 Date last updated by company: 06/25/2017
