Source: USDA Branded Food Products Database Release December 2017 Software v.3.8.6.4 2017-10-02
Report Run at: December 18, 2017 22:01 EST
"Nutrient data for: 45287576, VEGETABLE LASAGNA, UPC: 041268206568"
Food Group:  Branded Food Products Database
Common Name:

Nutrient,Unit,Data points,Std. Error,"140.0 GRM = 140.0g",1Value per 100 g,
Proximates
"Energy",kcal,--,--,245,175
"Protein",g,--,--,10.00,7.14
"Total lipid (fat)",g,--,--,10.00,7.14
"Carbohydrate, by difference",g,--,--,24.00,17.14
"Fiber, total dietary",g,--,--,4.1,2.9
"Sugars, total",g,--,--,4.00,2.86
Minerals
"Calcium, Ca",mg,--,--,160,114
"Iron, Fe",mg,--,--,1.26,0.90
"Sodium, Na",mg,--,--,750,536
Vitamins
"Vitamin C, total ascorbic acid",mg,--,--,17.4,12.4
"Vitamin A, IU",IU,--,--,7500,5357
Lipids
"Fatty acids, total saturated",g,--,--,5.796,4.140
"Fatty acids, total trans",g,--,--,0.000,0.000
"Cholesterol",mg,--,--,29,21
Amino Acids
Other
Ingredients
"CHEESE SAUCE (WATER, HEAVY CREAM [MILK, CREAM], PARMESAN CHEESE [MADE FROM PASTEURIZED COWS MILK, CHEESE CULTURE, SALT, ENZYMES, POWDERED CELLULOSE [ANTI CAKING AGENT], CALCIUM PROPIONATE], MODIFIED FOOD STARCH, VEGETABLE CHICKEN FLAVOR [MALTODEXTRIN, SALT, HYDROLYZED CORN PROTEIN, CORN STARCH, SUGAR, ONION AND GARLIC POWDER, YEAST EXTRACT, PARSLEY, SPICES, NATURAL FLAVORS, OLEORESIN TURMERIC, SILICON DIOXIDE], SALT, POTASSIUM SORBATE, GARLIC, NISIN, PHOSPHORIC ACID, WHITE PEPPER), PASTA (ENRICHED DURUM FLOUR [NIACIN, FERROUS SULFATE, THIAMINE, MONONITRATE, RIBOFLAVIN FOLIC ACID], WATER, WHOLE EGGS, YELLOW CORN FLOUR, VEGETABLE OIL (SOYBEAN OIL), ARTIFICIAL COLOR), CARROTS, BROCCOLI, SPINACH, ONION, PARMESAN CHEESE (MADE FROM PASTEURIZED COW'S MILK, CHEESE CULTURE, SALT, ENZYMES, POWDERED CELLULOSE [ANTI CAKING AGENT], CALCIUM PROPIONATE)." Date available: 07/14/2017 Date last updated by company: 07/14/2017
