Source: USDA Branded Food Products Database Release December 2017 Software v.3.8.6.4 2017-10-02
Report Run at: December 18, 2017 22:01 EST
"Nutrient data for: 45269058, VEGETABLE LASAGNE WITH TOMATO SAUCE, UPC: 835008007214"
Food Group:  Branded Food Products Database
Common Name:

Nutrient,Unit,Data points,Std. Error,"1 cup = 226.0g",1Value per 100 g,
Proximates
"Energy",kcal,--,--,240,106
"Protein",g,--,--,12.00,5.31
"Total lipid (fat)",g,--,--,8.99,3.98
"Carbohydrate, by difference",g,--,--,28.00,12.39
"Fiber, total dietary",g,--,--,6.1,2.7
"Sugars, total",g,--,--,9.99,4.42
Minerals
"Calcium, Ca",mg,--,--,251,111
"Iron, Fe",mg,--,--,3.10,1.37
"Sodium, Na",mg,--,--,570,252
Vitamins
"Vitamin C, total ascorbic acid",mg,--,--,12.9,5.7
"Vitamin A, IU",IU,--,--,2588,1145
Lipids
"Fatty acids, total saturated",g,--,--,4.000,1.770
"Cholesterol",mg,--,--,45,20
Amino Acids
Other
Ingredients
"TOMATO SAUCE (TOMATOES, ONIONS, OLIVE OIL, SUNFLOWER OIL, CARROT PUREE, GARLIC PUREE, SALT, SUGAR, BASIL, SPICES, CITRIC ACID), COOKED PASTA (EXTRA FANCY DURUM WHEAT FLOUR ENRICHED (DURUM WHEAT FLOUR, NIACIN, FERROUS SULFATE, THIAMIN MONONITRATE, RIBOFLAVIN, FOLIC ACID), WHOLE EGGS, WATER, BETA-CAROTENE), MOZZARELLA CHEESE (PASTEURIZED WHOLE AND PART SKIM MILK, CHEESE CULTURE, SALT, ENZYMES), WHOLE MILK RICOTTA CHEESE (WHOLE MILK, WHEY, CREAM, DAIRY SOLIDS, SKIM MILK, VINEGAR, SALT) SPINACH, CARROTS, ZUCCHINI, YELLOW SQUASH, POWDERED SUGAR, MODIFIED FOOD STARCH, GARLIC, SALT, AND SPICES." Date available: 07/14/2017 Date last updated by company: 07/14/2017
