Source: USDA Branded Food Products Database Release December 2017 Software v.3.8.6.4 2017-10-02
Report Run at: December 18, 2017 22:18 EST
"Nutrient data for: 45178193, VEGGIE SNACKERS, UPC: 732313858817"
Food Group:  Branded Food Products Database
Common Name:

Nutrient,Unit,Data points,Std. Error,"1 TRAY = 134.0g",1Value per 100 g,
Proximates
"Energy",kcal,--,--,90,67
"Protein",g,--,--,2.00,1.49
"Total lipid (fat)",g,--,--,5.00,3.73
"Carbohydrate, by difference",g,--,--,9.00,6.72
"Fiber, total dietary",g,--,--,2.0,1.5
"Sugars, total",g,--,--,5.00,3.73
Minerals
"Calcium, Ca",mg,--,--,40,30
"Iron, Fe",mg,--,--,0.75,0.56
"Sodium, Na",mg,--,--,230,172
Vitamins
"Vitamin C, total ascorbic acid",mg,--,--,37.7,28.1
"Vitamin A, IU",IU,--,--,4702,3509
Lipids
"Fatty acids, total saturated",g,--,--,0.000,0.000
"Fatty acids, total trans",g,--,--,0.000,0.000
"Cholesterol",mg,--,--,5,4
Amino Acids
Other
Ingredients
"BROCCOLI, CARROTS, TOMATOES, LITE COUNTRY RANCH DRESSING: LOW FAT BUTTERMILK (SKIM MILK, WHEY, WATER, SKIM MILK SOLIDS, WHEY SOLIDS, CORN STARCH, TAPIOCA STARCH, DISODIUM PHOSPHATE, CARRAGEENAN GUM, LOCUST BEAN GUM, CULTURE), WATER, CANOLA OIL, EGG YOLK, SUGAR, MODIFIED CORN STARCH, SALT, DISTILLED VINEGAR, MALTODEXTRIN, CIDER VINEGAR, DRIED GARLIC, SPICES, DRIED ONION, POTASSIUM SORBATE AND SODIUM BENZOATE (PRESERVATIVES), XANTHAN GUM, MUSTARD FLOUR." Date available: 07/14/2017 Date last updated by company: 07/14/2017
