Source: USDA Branded Food Products Database Release December 2017 Software v.3.8.6.4 2017-10-02
Report Run at: December 18, 2017 22:18 EST
"Nutrient data for: 45292100, VEGGIE STEAK & GRAVY, MASHED POTATOES & GREEN BEANS, UPC: 042272000500"
Food Group:  Branded Food Products Database
Common Name:

Nutrient,Unit,Data points,Std. Error,"1 MEAL = 312.0g",1Value per 100 g,
Proximates
"Energy",kcal,--,--,390,125
"Protein",g,--,--,12.01,3.85
"Total lipid (fat)",g,--,--,16.01,5.13
"Carbohydrate, by difference",g,--,--,50.01,16.03
"Fiber, total dietary",g,--,--,6.9,2.2
"Sugars, total",g,--,--,6.99,2.24
Minerals
"Calcium, Ca",mg,--,--,150,48
"Iron, Fe",mg,--,--,1.68,0.54
"Sodium, Na",mg,--,--,680,218
Vitamins
"Vitamin C, total ascorbic acid",mg,--,--,7.5,2.4
"Vitamin A, IU",IU,--,--,624,200
Lipids
"Fatty acids, total saturated",g,--,--,6.989,2.240
"Fatty acids, total trans",g,--,--,0.000,0.000
"Cholesterol",mg,--,--,31,10
Amino Acids
Other
Ingredients
"ORGANIC POTATOES, ORGANIC GREEN BEANS, ORGANIC MUSHROOMS, ORGANIC ONIONS, ORGANIC BULGUR WHEAT, ORGANIC LOWFAT MILK, ORGANIC CELERY, ORGANIC CARROTS, GRADE AA BUTTER (CREAM, SALT), ORGANIC OATS, WHITE CHEDDAR CHEESE (PASTEURIZED MILK, CULTURE, SALT, ENZYMES [WITHOUT ANIMAL ENZYMES OR RENNET]), ORGANIC SWEET RICE FLOUR, ORGANIC WALNUTS, WHEAT GLUTEN, SEA SALT, EXPELLER PRESSED HIGH OLEIC SAFFLOWER AND/OR SUNFLOWER OIL, ORGANIC GARLIC, SPICES." Date available: 07/14/2017 Date last updated by company: 07/14/2017
