Source: USDA Branded Food Products Database Release December 2017 Software v.3.8.6.4 2017-10-02
Report Run at: December 18, 2017 22:20 EST
"Nutrient data for: 45258125, VEGGIE WRAP, UPC: 782796028986"
Food Group:  Branded Food Products Database
Common Name:

Nutrient,Unit,Data points,Std. Error,"0.5 WRAP = 135.0g",1Value per 100 g,
Proximates
"Energy",kcal,--,--,370,274
"Protein",g,--,--,13.00,9.63
"Total lipid (fat)",g,--,--,17.00,12.59
"Carbohydrate, by difference",g,--,--,45.00,33.33
"Fiber, total dietary",g,--,--,5.9,4.4
"Sugars, total",g,--,--,4.00,2.96
Minerals
"Calcium, Ca",mg,--,--,80,59
"Iron, Fe",mg,--,--,4.67,3.46
"Sodium, Na",mg,--,--,310,230
Vitamins
"Vitamin C, total ascorbic acid",mg,--,--,9.3,6.9
"Vitamin A, IU",IU,--,--,1555,1152
Lipids
"Fatty acids, total saturated",g,--,--,1.998,1.480
"Fatty acids, total trans",g,--,--,0.000,0.000
"Cholesterol",mg,--,--,0,0
Amino Acids
Other
Ingredients
"WHEAT TORTILLA (ENRICHED BLEACHED FLOUR, WHOLE WHEAT FLOUR (WHEAT FLOUR, NIACIN, IRON, THIAMINE, RIBOFLAVIN, MONONITRATE, FOLIC ACID), WATER, SOYBEAN OIL, HONEY, MOLASSES, SUGAR, BAKING POWDER, SALT, WHEY, TORTILLA SUAVE, CALCIUM PROPIONATE AND BETA TABS), HUMMUS (GARBANZO BEANS (GARBANZO BEANS, WATER, SALT, CALCIUM CHLORIDE ADDED TO HELP MAINTAIN FIRMNESS, DISODIUM EDTA ADDED TO HELP PROMOTE COLOR RETENTION), WATER, TAHINI PASTE (PURE GROUND SESAME SEED), LEMON JUICE, OLIVE OIL (EXTRA VIRGIN OLIVE OIL), GARLIC (GARLIC, WATER, SOY OIL, PHOSPHORIC ACID, SODIUM BENZOATE AND POTASSIUM SORBATE ADDED AS PRESERVATIVES), SOY SAUCE (WATER, WHEAT, SOYBEANS, SALT, SODIUM BENZOATE: LESS THAN 1/10 OF 1% AS A PRESERVATIVE), PARSLEY, BLACK PEPPER, WORCESTERSHIRE SAUCE (DISTILLED WHITE VINEGAR, MOLASSES, WATER, SUGAR, ONIONS, ANCHOVIES, SALT, GARLIC, CLOVES, TAMARIND EXTRACT, NATURAL FLAVORINGS, CHILI PEPPER EXTRACT)), GREEN LEAF LETTUCE, TAHINI PASTE (SESAME SEED), EDAMAME BEANS, RED QUINOA, WHITE QUINOA, KALE." Date available: 07/14/2017 Date last updated by company: 07/14/2017
