Source: USDA Branded Food Products Database Release December 2017 Software v.3.8.6.4 2017-10-02
Report Run at: December 18, 2017 22:18 EST
"Nutrient data for: 45288651, VEGGIE ROASTER SEASONING BLEND, UPC: 635519140802"
Food Group:  Branded Food Products Database
Common Name:

Nutrient,Unit,Data points,Std. Error,"0.25 tsp = 0.8g",1Value per 100 g,
Proximates
"Energy",kcal,--,--,0,0
"Protein",g,--,--,0.00,0.00
"Total lipid (fat)",g,--,--,0.00,0.00
"Carbohydrate, by difference",g,--,--,0.00,0.00
Minerals
"Sodium, Na",mg,--,--,90,11250
Vitamins
"Vitamin C, total ascorbic acid",mg,--,--,750.0,93750.0
Lipids
Amino Acids
Other
Ingredients
"SEA SALT, DEHYDRATED ONION & GARLIC, BROWN SUGAR, BLACK PEPPER, ROSEMARY, THYME, VINEGAR POWDER (MALTODEXTRIN, WHITE DISTILLED VINEGAR, BALSAMIC VINEGAR), SHERRY WINE POWDER (MALTODEXTRIN, SHERRY WINE SOLIDS), MALIC ACID, ASCORBIC ACID, NATURAL FLAVOR, YEAST EXTRACT AND LESS THAN 2% SOYBEAN OIL & SILICON DIOXIDE ADDED AS PROCESSING AIDS." Date available: 08/22/2017 Date last updated by company: 08/22/2017
