Source: USDA Branded Food Products Database Release December 2017 Software v.3.8.6.4 2017-10-02
Report Run at: December 18, 2017 22:14 EST
"Nutrient data for: 45203182, VEGGIE BURGER, UPC: 851515003037"
Food Group:  Branded Food Products Database
Common Name:

Nutrient,Unit,Data points,Std. Error,"1 BURGER = 85.0g",1Value per 100 g,
Proximates
"Energy",kcal,--,--,280,329
"Protein",g,--,--,10.00,11.76
"Total lipid (fat)",g,--,--,22.00,25.88
"Carbohydrate, by difference",g,--,--,15.00,17.65
"Fiber, total dietary",g,--,--,4.0,4.7
"Sugars, total",g,--,--,2.00,2.35
Minerals
"Calcium, Ca",mg,--,--,40,47
"Iron, Fe",mg,--,--,2.70,3.18
"Sodium, Na",mg,--,--,105,124
Vitamins
"Vitamin C, total ascorbic acid",mg,--,--,3.6,4.2
"Vitamin A, IU",IU,--,--,500,588
Lipids
"Fatty acids, total saturated",g,--,--,1.998,2.350
"Fatty acids, total trans",g,--,--,0.000,0.000
"Cholesterol",mg,--,--,0,0
Amino Acids
Other
Ingredients
"SUNFLOWER SEEDS, BROWN RICE, FRESH ONIONS, FRESH CARROTS, FRESH ZUCCHINI, FRESH RED CABBAGE, FRESH CELERY, BASIL, PARSLEY, GARLIC POWDER, SEA SALT" Date available: 07/14/2017 Date last updated by company: 07/14/2017
