Source: USDA Branded Food Products Database Release December 2017 Software v.3.8.6.4 2017-10-02
Report Run at: December 18, 2017 22:21 EST
"Nutrient data for: 45166809, VERDANT KITCHEN, GEORGIA GINGER ALE, UPC: 852516005389"
Food Group:  Branded Food Products Database
Common Name:

Nutrient,Unit,Data points,Std. Error,"1 BOTTLE = 353.0g",1Value per 100 g,
Proximates
"Energy",kcal,--,--,148,42
"Protein",g,--,--,0.00,0.00
"Total lipid (fat)",g,--,--,0.00,0.00
"Carbohydrate, by difference",g,--,--,37.98,10.76
"Fiber, total dietary",g,--,--,0.0,0.0
"Sugars, total",g,--,--,36.99,10.48
Minerals
"Calcium, Ca",mg,--,--,0,0
"Iron, Fe",mg,--,--,0.00,0.00
"Sodium, Na",mg,--,--,0,0
Vitamins
"Vitamin A, IU",IU,--,--,0,0
Lipids
"Fatty acids, total saturated",g,--,--,0.000,0.000
"Fatty acids, total trans",g,--,--,0.000,0.000
"Cholesterol",mg,--,--,0,0
Amino Acids
Other
Ingredients
"CARBONATED WATER, ORGANIC GINGER SYRUP (ORGANIC CANE SUGAR, ORGANIC GROUND GINGER, ORGANIC MOLASSES, ORGANIC LEMONS, CITRIC ACID)" Date available: 07/14/2017 Date last updated by company: 07/14/2017
