Source: USDA Branded Food Products Database Release December 2017 Software v.3.8.6.4 2017-10-02
Report Run at: December 18, 2017 22:22 EST
"Nutrient data for: 45179247, VERI, ORGANIC SODA COLA, UPC: 810137020037"
Food Group:  Branded Food Products Database
Common Name:

Nutrient,Unit,Data points,Std. Error,"1 Can = 355.0g",1Value per 100 g,
Proximates
"Energy",kcal,--,--,60,17
"Protein",g,--,--,0.00,0.00
"Total lipid (fat)",g,--,--,0.00,0.00
"Carbohydrate, by difference",g,--,--,15.02,4.23
"Sugars, total",g,--,--,15.02,4.23
Minerals
"Sodium, Na",mg,--,--,0,0
Vitamins
Lipids
Amino Acids
Other
Ingredients
"SPARKLING WATER, ORGANIC CANE SUGAR, ORGANIC LEMON JUICE FROM CONCENTRATE, ORGANIC CARAMEL COLOR, ORGANIC FLAVORS, AND ORGANIC STEVIA LEAF EXTRACT." Date available: 06/25/2017 Date last updated by company: 06/25/2017
