Source: USDA Branded Food Products Database Release December 2017 Software v.3.8.6.4 2017-10-02
Report Run at: December 18, 2017 22:25 EST
"Nutrient data for: 45003486, VERONICA, DULCE DE LECHE, MILK CARAMEL SPREAD, UPC: 7794710005037"
Food Group:  Branded Food Products Database
Common Name:

Nutrient,Unit,Data points,Std. Error,"30.0 GRM = 30.0g",1Value per 100 g,
Proximates
"Energy",kcal,--,--,89,297
"Total lipid (fat)",g,--,--,1.90,6.33
"Carbohydrate, by difference",g,--,--,16.20,54.00
"Fiber, total dietary",g,--,--,1.9,6.3
Minerals
"Calcium, Ca",mg,--,--,850,2833
"Iron, Fe",mg,--,--,0.01,0.04
"Sodium, Na",mg,--,--,37,123
Vitamins
"Vitamin C, total ascorbic acid",mg,--,--,0.0,0.0
Lipids
"Fatty acids, total saturated",g,--,--,1.101,3.670
"Fatty acids, total trans",g,--,--,0.000,0.000
"Cholesterol",mg,--,--,4,13
Amino Acids
Other
Ingredients
"PASTEURIZED MILK, SUGAR, GLUCOSE, POTASSIUM SORBATE, VANILLA." Date available: 06/25/2017 Date last updated by company: 06/25/2017
