Source: USDA Branded Food Products Database Release December 2017 Software v.3.8.6.4 2017-10-02
Report Run at: December 18, 2017 22:25 EST
"Nutrient data for: 45145107, VERONA VALLEY, PREMIUM SELECTIONS BEER MIX, UPC: 700598993899"
Food Group:  Branded Food Products Database
Common Name:

Nutrient,Unit,Data points,Std. Error,"0.33 cup = 28.0g",1Value per 100 g,
Proximates
"Energy",kcal,--,--,100,357
"Protein",g,--,--,5.00,17.86
"Total lipid (fat)",g,--,--,6.00,21.43
"Carbohydrate, by difference",g,--,--,13.00,46.43
"Fiber, total dietary",g,--,--,2.0,7.1
"Sugars, total",g,--,--,0.00,0.00
Minerals
"Calcium, Ca",mg,--,--,143,510
"Iron, Fe",mg,--,--,1.93,6.88
"Sodium, Na",mg,--,--,210,750
Vitamins
"Vitamin C, total ascorbic acid",mg,--,--,0.0,0.0
"Vitamin A, IU",IU,--,--,0,0
Lipids
"Fatty acids, total saturated",g,--,--,1.000,3.570
"Fatty acids, total trans",g,--,--,0.000,0.000
"Cholesterol",mg,--,--,0,0
Amino Acids
Other
Ingredients
"SESAME STICKS (UNBLEACHED WHEAT FLOUR, SESAME SEEDS, BULGUR WHEAT SUNFLOWER OIL, SALT, BEET POWDER AND TURMERIC). PEANUTS (PEANUT OIL, SALT), PRETZELS (FLOUR, SALT, SOYBEAN OIL, YEAST, CARBONATE OF SODIUM)." Date available: 08/11/2017 Date last updated by company: 08/11/2017
