Source: USDA Branded Food Products Database Release December 2017 Software v.3.8.6.4 2017-10-02
Report Run at: December 18, 2017 22:30 EST
"Nutrient data for: 45015899, VICTORIA, JULIENNE CUT SUN DRIED TOMATOES FOR SALADS & COOKING, UPC: 070234003054"
Food Group:  Branded Food Products Database
Common Name:

Nutrient,Unit,Data points,Std. Error,"0.25 cup = 40.0g",1Value per 100 g,
Proximates
"Energy",kcal,--,--,100,250
"Protein",g,--,--,2.00,5.00
"Total lipid (fat)",g,--,--,6.00,15.00
"Carbohydrate, by difference",g,--,--,10.00,25.00
"Fiber, total dietary",g,--,--,4.0,10.0
"Sugars, total",g,--,--,4.00,10.00
Minerals
"Calcium, Ca",mg,--,--,20,50
"Iron, Fe",mg,--,--,1.26,3.15
"Sodium, Na",mg,--,--,40,100
Vitamins
"Vitamin C, total ascorbic acid",mg,--,--,0.0,0.0
"Vitamin A, IU",IU,--,--,875,2188
Lipids
"Fatty acids, total saturated",g,--,--,1.000,2.500
"Fatty acids, total trans",g,--,--,0.000,0.000
"Cholesterol",mg,--,--,0,0
Amino Acids
Other
Ingredients
"TOMATOES, CANOLA OIL, ITALIAN OLIVE OIL, RED WINE VINEGAR SPICES, SEA SALT, CITRIC ACID, SODIUM BISULFITE (TO RETAIN COLOR), AND NATURAL FLAVORINGS." Date available: 06/25/2017 Date last updated by company: 06/25/2017
