Source: USDA Branded Food Products Database Release December 2017 Software v.3.8.6.4 2017-10-02
Report Run at: December 18, 2017 22:29 EST
"Nutrient data for: 45029876, VICTORIA, DICED PIMENTOS, UPC: 070234000633"
Food Group:  Branded Food Products Database
Common Name:

Nutrient,Unit,Data points,Std. Error,"1 JAR = 113.0g",1Value per 100 g,
Proximates
"Energy",kcal,--,--,20,18
"Protein",g,--,--,0.99,0.88
"Total lipid (fat)",g,--,--,0.00,0.00
"Carbohydrate, by difference",g,--,--,4.00,3.54
"Fiber, total dietary",g,--,--,1.0,0.9
"Sugars, total",g,--,--,2.99,2.65
Minerals
"Calcium, Ca",mg,--,--,20,18
"Iron, Fe",mg,--,--,0.24,0.21
"Sodium, Na",mg,--,--,299,265
Vitamins
"Vitamin C, total ascorbic acid",mg,--,--,15.9,14.1
"Vitamin A, IU",IU,--,--,177,157
Lipids
"Fatty acids, total saturated",g,--,--,0.000,0.000
"Fatty acids, total trans",g,--,--,0.000,0.000
"Cholesterol",mg,--,--,0,0
Amino Acids
Other
Ingredients
"PIMENTOS, WATER, SALT, CITRIC ACID, SUGAR." Date available: 07/14/2017 Date last updated by company: 07/14/2017
