Source: USDA Branded Food Products Database Release December 2017 Software v.3.8.6.4 2017-10-02
Report Run at: December 18, 2017 22:34 EST
"Nutrient data for: 45162672, VIGNERI, CREAMY MILK CHOCOLATE EGG WITH JELLY BEANS INSIDE, UPC: 011677005373"
Food Group:  Branded Food Products Database
Common Name:

Nutrient,Unit,Data points,Std. Error,"1 ONZ = 28.0g",1Value per 100 g,
Proximates
"Energy",kcal,--,--,160,571
"Protein",g,--,--,2.00,7.14
"Total lipid (fat)",g,--,--,10.00,35.71
"Carbohydrate, by difference",g,--,--,17.00,60.71
"Sugars, total",g,--,--,16.00,57.14
Minerals
"Calcium, Ca",mg,--,--,80,286
"Iron, Fe",mg,--,--,0.64,2.29
"Sodium, Na",mg,--,--,20,71
Vitamins
Lipids
"Fatty acids, total saturated",g,--,--,6.000,21.430
"Cholesterol",mg,--,--,5,18
Amino Acids
Other
Ingredients
"MILK CHOCOLATE SUGAR, COCOA BUTTER, MILK, CHOCOLATE, SOY LECITHIN (AN EMULSIFIER) AND VANILLA" Date available: 10/13/2017 Date last updated by company: 10/13/2017
