Source: USDA Branded Food Products Database Release December 2017 Software v.3.8.6.4 2017-10-02
Report Run at: December 18, 2017 22:37 EST
"Nutrient data for: 45067169, VINAIGRETTE, UPC: 645288007060"
Food Group:  Branded Food Products Database
Common Name:

Nutrient,Unit,Data points,Std. Error,"2.0 Tbsp = 30.0g",1Value per 100 g,
Proximates
"Energy",kcal,--,--,50,167
"Protein",g,--,--,0.00,0.00
"Total lipid (fat)",g,--,--,3.00,10.00
"Carbohydrate, by difference",g,--,--,7.00,23.33
"Sugars, total",g,--,--,5.00,16.67
Minerals
"Sodium, Na",mg,--,--,60,200
Vitamins
"Vitamin C, total ascorbic acid",mg,--,--,4.0,13.5
Lipids
Amino Acids
Other
Ingredients
"BLACKBERRY PUREE, BALSAMIC VINEGAR (CONTAINS SULFITES), LEMON JUICE, CANE SUGAR, WATER, DIJON MUSTARD (VINEGAR AND WATER, MUSTARD SEED, SALT, WHITE WINE, CITRIC ACID, SPICES, NATURAL FLAVORINGS), OLIVE OIL, SHALLOTS, CANDIED GINGER (GINGER, CANE SUGAR, RICE VINEGAR, WATER), ROASTED GARLIC, PEPPER, SEA SALT." Date available: 10/19/2017 Date last updated by company: 10/19/2017
