Source: USDA Branded Food Products Database Release December 2017 Software v.3.8.6.4 2017-10-02
Report Run at: December 18, 2017 22:38 EST
"Nutrient data for: 45021843, VINCENT'S, ALL NATURAL MILD SAUCE, MILD, UPC: 701111512634"
Food Group:  Branded Food Products Database
Common Name:

Nutrient,Unit,Data points,Std. Error,"0.5 cup = 113.0g",1Value per 100 g,
Proximates
"Energy",kcal,--,--,110,97
"Protein",g,--,--,2.99,2.65
"Total lipid (fat)",g,--,--,8.00,7.08
"Carbohydrate, by difference",g,--,--,8.99,7.96
"Fiber, total dietary",g,--,--,3.1,2.7
"Sugars, total",g,--,--,6.00,5.31
Minerals
"Calcium, Ca",mg,--,--,0,0
"Iron, Fe",mg,--,--,0.38,0.34
"Sodium, Na",mg,--,--,370,327
Vitamins
"Vitamin C, total ascorbic acid",mg,--,--,5.1,4.5
"Vitamin A, IU",IU,--,--,318,281
Lipids
"Fatty acids, total saturated",g,--,--,0.497,0.440
"Fatty acids, total trans",g,--,--,0.000,0.000
"Cholesterol",mg,--,--,0,0
Amino Acids
Other
Ingredients
"TOMATO PUREE (WATER, TOMATO PASTE), CANOLA OIL, SUGAR, FRESH VIDALIA ONIONS, SALT, BLACK PEPPER, CRUSHED RED PEPPER AND DRY BASIL." Date available: 06/25/2017 Date last updated by company: 06/25/2017
