Source: USDA Branded Food Products Database Release December 2017 Software v.3.8.6.4 2017-10-02
Report Run at: December 18, 2017 22:38 EST
"Nutrient data for: 45021845, VINCENT'S, MARINARA SAUCE, ORIGINAL, UPC: 4339559563565"
Food Group:  Branded Food Products Database
Common Name:

Nutrient,Unit,Data points,Std. Error,"0.5 cup = 118.0g",1Value per 100 g,
Proximates
"Energy",kcal,--,--,90,76
"Protein",g,--,--,1.00,0.85
"Total lipid (fat)",g,--,--,5.99,5.08
"Carbohydrate, by difference",g,--,--,9.00,7.63
"Fiber, total dietary",g,--,--,2.0,1.7
"Sugars, total",g,--,--,5.99,5.08
Minerals
"Calcium, Ca",mg,--,--,80,68
"Iron, Fe",mg,--,--,0.77,0.65
"Sodium, Na",mg,--,--,320,271
Vitamins
"Vitamin C, total ascorbic acid",mg,--,--,12.6,10.7
"Vitamin A, IU",IU,--,--,422,358
Lipids
"Fatty acids, total saturated",g,--,--,0.496,0.420
"Fatty acids, total trans",g,--,--,0.000,0.000
"Cholesterol",mg,--,--,0,0
Amino Acids
Other
Ingredients
"DICED TOMATOES, TOMATO PUREE (WATER, TOMATO PASTE), FRESH VIDALIA ONIONS, CANOLA OIL, FRESH GARLIC, SUGAR, SALT, EXTRA VIRGIN OLIVE OIL AND BLACK PEPPER." Date available: 06/25/2017 Date last updated by company: 06/25/2017
