Source: USDA Branded Food Products Database Release December 2017 Software v.3.8.6.4 2017-10-02
Report Run at: December 18, 2017 22:41 EST
"Nutrient data for: 45025935, VINTAGE 5 YEAR, AGED 5 YEARS GOUDA CHEESE, UPC: 207798507357"
Food Group:  Branded Food Products Database
Common Name:

Nutrient,Unit,Data points,Std. Error,"1 ONZ = 28.0g",1Value per 100 g,
Proximates
"Energy",kcal,--,--,140,500
"Protein",g,--,--,9.00,32.14
"Total lipid (fat)",g,--,--,11.00,39.29
"Carbohydrate, by difference",g,--,--,0.00,0.00
Minerals
"Calcium, Ca",mg,--,--,350,1250
"Sodium, Na",mg,--,--,310,1107
Vitamins
Lipids
"Fatty acids, total saturated",g,--,--,8.000,28.570
"Fatty acids, total trans",g,--,--,0.000,0.000
"Cholesterol",mg,--,--,35,125
Amino Acids
Other
Ingredients
"PASTEURIZED COW'S MILK, SALT, CHEESE CULTURE, ANIMAL RENNET, ANNATTO (COLOR)." Date available: 10/13/2017 Date last updated by company: 10/13/2017
