Source: USDA Branded Food Products Database Release December 2017 Software v.3.8.6.4 2017-10-02
Report Run at: December 18, 2017 22:54 EST
"Nutrient data for: 45205976, VIVRA, ORANGE PASSION BAR, UPC: 854564005038"
Food Group:  Branded Food Products Database
Common Name:

Nutrient,Unit,Data points,Std. Error,"1.5 ONZ = 43.0g",1Value per 100 g,
Proximates
"Energy",kcal,--,--,230,535
"Protein",g,--,--,3.00,6.98
"Total lipid (fat)",g,--,--,14.00,32.56
"Carbohydrate, by difference",g,--,--,24.00,55.81
"Fiber, total dietary",g,--,--,3.0,7.0
"Sugars, total",g,--,--,17.00,39.53
Minerals
"Calcium, Ca",mg,--,--,20,47
"Iron, Fe",mg,--,--,4.19,9.74
"Sodium, Na",mg,--,--,25,58
Vitamins
"Vitamin C, total ascorbic acid",mg,--,--,1.4,3.3
"Vitamin A, IU",IU,--,--,0,0
Lipids
"Fatty acids, total saturated",g,--,--,7.998,18.600
"Fatty acids, total trans",g,--,--,0.000,0.000
"Cholesterol",mg,--,--,0,0
Amino Acids
Other
Ingredients
"PREMIUM DARK CHOCOLATE (65% CACAO MASS, SUGAR, COCOA BUTTER, SOY LECITHIN-AN EMULSIFIER, NATURAL VANILLA), ORANGE ZEST, PASSION FRUIT POWDER, SEA SALT." Date available: 07/14/2017 Date last updated by company: 07/14/2017
