Source: USDA Branded Food Products Database Release December 2017 Software v.3.8.6.4 2017-10-02
Report Run at: December 18, 2017 22:55 EST
"Nutrient data for: 45126703, VLASIC, PEPPERONCINI PEPPERS, MILD, UPC: 054100007056"
Food Group:  Branded Food Products Database
Common Name:

Nutrient,Unit,Data points,Std. Error,"2.0 PEPPERS | ABOUT = 28.0g",1Value per 100 g,
Proximates
"Energy",kcal,--,--,5,18
"Protein",g,--,--,0.00,0.00
"Total lipid (fat)",g,--,--,0.00,0.00
"Carbohydrate, by difference",g,--,--,1.00,3.57
"Sugars, total",g,--,--,0.00,0.00
Minerals
"Sodium, Na",mg,--,--,440,1571
Vitamins
Lipids
Amino Acids
Other
Ingredients
"PEPPERS, WATER, DISTILLED VINEGAR, SALT, CONTAINS 2% OR LESS OF: CITRIC ACID, CALCIUM CHLORIDE, PRESERVATIVES (SODIUM BENZOATE, SODIUM BISULFITE), NATURAL FLAVOR, YELLOW 5, POLYSORBATE 80." Date available: 07/14/2017 Date last updated by company: 07/14/2017
