Source: USDA Branded Food Products Database Release December 2017 Software v.3.8.6.4 2017-10-02
Report Run at: December 18, 2017 22:58 EST
"Nutrient data for: 45143569, VOORTMAN, VANILLA WAFERS, UPC: 067312006939"
Food Group:  Branded Food Products Database
Common Name:

Nutrient,Unit,Data points,Std. Error,"4.0 WAFERS = 34.0g",1Value per 100 g,
Proximates
"Energy",kcal,--,--,160,471
"Protein",g,--,--,1.00,2.94
"Total lipid (fat)",g,--,--,7.00,20.59
"Carbohydrate, by difference",g,--,--,23.00,67.65
"Fiber, total dietary",g,--,--,0.0,0.0
"Sugars, total",g,--,--,14.00,41.18
Minerals
"Calcium, Ca",mg,--,--,0,0
"Iron, Fe",mg,--,--,0.53,1.56
"Sodium, Na",mg,--,--,20,59
Vitamins
"Vitamin C, total ascorbic acid",mg,--,--,0.0,0.0
"Vitamin A, IU",IU,--,--,0,0
Lipids
"Fatty acids, total saturated",g,--,--,1.499,4.410
"Fatty acids, total monounsaturated",g,--,--,2.499,7.350
"Fatty acids, total polyunsaturated",g,--,--,2.499,7.350
"Fatty acids, total trans",g,--,--,0.000,0.000
"Cholesterol",mg,--,--,0,0
Amino Acids
Other
Ingredients
"SUGAR, VEGETABLE OIL (CANOLA, SOYBEAN, PALM AND KERNEL, SUNFLOWER), ENRICHED WHEAT FLOUR (FLOUR, NIACIN, REDUCED IRON, THIAMINE MONONITRATE, RIBOFLAVIN, FOLIC ACID), CORN STARCH, SOY LECITHIN, SALT, ARTIFICIAL FLAVOR, CITRIC ACID, SODIUM BICARBONATE, COLOR (FD&C YELLOW #6, FD&C YELLOW #5)." Date available: 07/14/2017 Date last updated by company: 07/14/2017
