Source: USDA Branded Food Products Database Release December 2017 Software v.3.8.6.4 2017-10-02
Report Run at: December 18, 2017 22:58 EST
"Nutrient data for: 45158776, VOSGES, CARAMEL TOFFEE, UPC: 891807000993"
Food Group:  Branded Food Products Database
Common Name:

Nutrient,Unit,Data points,Std. Error,"43.0 GRM = 43.0g",1Value per 100 g,
Proximates
"Energy",kcal,--,--,240,558
"Protein",g,--,--,2.00,4.65
"Total lipid (fat)",g,--,--,19.00,44.19
"Carbohydrate, by difference",g,--,--,17.00,39.53
"Fiber, total dietary",g,--,--,2.0,4.7
"Sugars, total",g,--,--,14.00,32.56
Minerals
"Calcium, Ca",mg,--,--,20,47
"Iron, Fe",mg,--,--,0.84,1.95
"Sodium, Na",mg,--,--,100,233
Vitamins
"Vitamin C, total ascorbic acid",mg,--,--,0.0,0.0
"Vitamin A, IU",IU,--,--,233,541
Lipids
"Fatty acids, total saturated",g,--,--,5.998,13.950
"Fatty acids, total trans",g,--,--,0.000,0.000
"Cholesterol",mg,--,--,15,35
Amino Acids
Other
Ingredients
"TOFFEE (ORGANIC SUGAR, ORGANIC BUTTER, WATER, RICE SYRUP, SALT, SOY LECITHIN-AN EMULSIFIER), MILK CHOCOLATE (SUGAR, COCOA BUTTER, COCOA MASS, WHOLE MILK POWDER, SOY LECITHIN, VANILLA), PECANS, WALNUTS, HIMALAYAN SEA SALT." Date available: 07/14/2017 Date last updated by company: 07/14/2017
