Source: USDA Branded Food Products Database Release December 2017 Software v.3.8.6.4 2017-10-02
Report Run at: December 18, 2017 22:59 EST
"Nutrient data for: 45014728, VOSKOS, REAL FRUIT GREEK YOGURT, STRAWBERRY, UPC: 758543305006"
Food Group:  Branded Food Products Database
Common Name:

Nutrient,Unit,Data points,Std. Error,"6.0 ONZ = 170.0g",1Value per 100 g,
Proximates
"Energy",kcal,--,--,139,82
"Protein",g,--,--,14.99,8.82
"Total lipid (fat)",g,--,--,0.00,0.00
"Carbohydrate, by difference",g,--,--,19.01,11.18
"Fiber, total dietary",g,--,--,0.0,0.0
"Sugars, total",g,--,--,17.00,10.00
Minerals
"Calcium, Ca",mg,--,--,150,88
"Iron, Fe",mg,--,--,0.00,0.00
"Potassium, K",mg,--,--,214,126
"Sodium, Na",mg,--,--,60,35
Vitamins
"Vitamin C, total ascorbic acid",mg,--,--,0.0,0.0
"Vitamin A, IU",IU,--,--,0,0
"Vitamin D",IU,--,--,80,47
Lipids
"Fatty acids, total saturated",g,--,--,0.000,0.000
"Fatty acids, total trans",g,--,--,0.000,0.000
"Cholesterol",mg,--,--,10,6
Amino Acids
Other
Ingredients
"YOGURT: GRADE A PASTEURIZED SKIM MILK, LIVE AND ACTIVE PROBIOTIC CULTURES: S. THERMOPHILUS, L. BULGARICUS, L. ACIDOPHILUS, L. CASEI AND BIFIDUS. FRUIT: NATURAL MILLED CANE SUGAR, STRAWBERRIES, MODIFIED CORN STARCH, NATURAL FLAVOR, CITRIC ACID, RED RADISH EXTRACT FOR COLOR, VITAMIN D3 ADDED." Date available: 07/14/2017 Date last updated by company: 07/14/2017
