Source: USDA Branded Food Products Database Release December 2017 Software v.3.8.6.4 2017-10-02
Report Run at: December 18, 2017 23:04 EST
"Nutrient data for: 45260623, WAFER, UPC: 896158002252"
Food Group:  Branded Food Products Database
Common Name:

Nutrient,Unit,Data points,Std. Error,"6.0 WAFERS = 30.0g",1Value per 100 g,
Proximates
"Energy",kcal,--,--,145,483
"Protein",g,--,--,1.00,3.33
"Total lipid (fat)",g,--,--,5.50,18.33
"Carbohydrate, by difference",g,--,--,18.00,60.00
"Fiber, total dietary",g,--,--,1.0,3.3
"Sugars, total",g,--,--,8.00,26.67
Minerals
"Calcium, Ca",mg,--,--,0,0
"Iron, Fe",mg,--,--,0.60,2.00
"Sodium, Na",mg,--,--,34,113
Vitamins
"Vitamin C, total ascorbic acid",mg,--,--,0.0,0.0
"Vitamin A, IU",IU,--,--,0,0
Lipids
"Fatty acids, total saturated",g,--,--,1.401,4.670
"Fatty acids, total trans",g,--,--,2.400,8.000
"Cholesterol",mg,--,--,0,0
Amino Acids
Other
Ingredients
"REFINED SUGAR, HYDROGENATED VEGETABLE FAT, ENRICHED WHEAT FLOUR (WHEAT FLOUR, REDUCED IRON AND FOLIC ACID), CORN STARCH, POWDER MILK, SOYBEAN OIL, REFINED SALT, STABILIZER SOY LECITHIN (INS 322), SODIUM BICARBONATE LEAVENING (INS 500III), MALTODEXTRIN, IDENTICAL NATURAL TO VANILLA FLAVOR AND TRACES OF PEANUT." Date available: 07/14/2017 Date last updated by company: 07/14/2017
