Source: USDA Branded Food Products Database Release December 2017 Software v.3.8.6.4 2017-10-02
Report Run at: December 18, 2017 23:06 EST
"Nutrient data for: 45282692, WAFFLES, UPC: 74164300704"
Food Group:  Branded Food Products Database
Common Name:

Nutrient,Unit,Data points,Std. Error,"2.0 WAFFLES = 70.0g",1Value per 100 g,
Proximates
"Energy",kcal,--,--,170,243
"Protein",g,--,--,3.00,4.29
"Total lipid (fat)",g,--,--,6.00,8.57
"Carbohydrate, by difference",g,--,--,24.00,34.29
"Fiber, total dietary",g,--,--,1.0,1.4
"Sugars, total",g,--,--,5.00,7.14
Minerals
"Calcium, Ca",mg,--,--,200,286
"Iron, Fe",mg,--,--,4.38,6.25
"Sodium, Na",mg,--,--,320,457
Vitamins
"Vitamin C, total ascorbic acid",mg,--,--,0.0,0.0
"Vitamin A, IU",IU,--,--,1214,1735
Lipids
"Fatty acids, total saturated",g,--,--,1.498,2.140
"Fatty acids, total monounsaturated",g,--,--,1.001,1.430
"Fatty acids, total polyunsaturated",g,--,--,3.003,4.290
"Fatty acids, total trans",g,--,--,0.000,0.000
"Cholesterol",mg,--,--,5,7
Amino Acids
Other
Ingredients
"ENRICHED FLOUR (WHEAT FLOUR, MALTED BARLEY FLOUR, NIACIN, IRON, THIAMIN MONONITRATE, RIBOFLAVIN, FOLIC ACID), NONFAT MILK, WATER, BLUEBERRY BITS (DEXTROSE, PARTIALLY HYDROGENATED PALM OIL, CORN FLOUR, ARTIFICIAL FLAVOR, BLUE 2 LAKE, RED 40 LAKE), SOYBEAN OIL, WHOLE EGGS, SUGAR, LEAVENING (SODIUM ACID PYROPHOSPHATE, SODIUM BICARBONATE, MONOCALCIUM PHOSPHATE), SOY LECITHIN, SALT, CALCIUM PHOSPHATE, CALCIUM CARBONATE, VITAMIN A PALMITATE, NIACIN, REDUCED IRON, PYRIDOXINE HYDROCHLORIDE, RIBOFLAVIN, THIAMIN MONONITRATE, CYANOCOBALAMIN, NATURAL AND ARTIFICIAL BLUEBERRY FLAVOR." Date available: 07/14/2017 Date last updated by company: 07/14/2017
