Source: USDA Branded Food Products Database Release December 2017 Software v.3.8.6.4 2017-10-02
Report Run at: December 18, 2017 23:04 EST
"Nutrient data for: 45318046, WAFFLE CONES, UPC: 030100120056"
Food Group:  Branded Food Products Database
Common Name:

Nutrient,Unit,Data points,Std. Error,"1 CONE = 13.0g",1Value per 100 g,
Proximates
"Energy",kcal,--,--,50,385
"Protein",g,--,--,1.00,7.69
"Total lipid (fat)",g,--,--,0.50,3.85
"Carbohydrate, by difference",g,--,--,11.00,84.62
"Fiber, total dietary",g,--,--,0.0,0.0
"Sugars, total",g,--,--,4.00,30.77
Minerals
"Calcium, Ca",mg,--,--,0,0
"Iron, Fe",mg,--,--,1.38,10.65
"Sodium, Na",mg,--,--,20,154
Vitamins
"Vitamin C, total ascorbic acid",mg,--,--,0.0,0.0
"Vitamin A, IU",IU,--,--,0,0
Lipids
"Fatty acids, total saturated",g,--,--,0.000,0.000
"Fatty acids, total trans",g,--,--,0.000,0.000
"Cholesterol",mg,--,--,0,0
Amino Acids
Other
Ingredients
"BLEACHED AND ENRICHED FLOUR (WHEAT FLOUR, NIACIN, REDUCED IRON, VITAMIN B1 [THIAMINE MONONITRATE], VITAMIN B2 [RIBOFLAVIN], FOLIC ACID), SUGAR, PARTIALLY HYDROGENATED SOYBEAN OIL, CONTAINS 2% OR LESS OF SOY LECITHIN, SALT." Date available: 06/24/2017 Date last updated by company: 06/24/2017
