Source: USDA Branded Food Products Database Release December 2017 Software v.3.8.6.4 2017-10-02
Report Run at: December 18, 2017 23:10 EST
"Nutrient data for: 45141026, WALDEN FARMS, VINAIGRETTE, RASPBERRY, UPC: 072457331136"
Food Group:  Branded Food Products Database
Common Name:

Nutrient,Unit,Data points,Std. Error,"2.0 Tbsp = 30.0g",1Value per 100 g,
Proximates
"Energy",kcal,--,--,0,0
"Protein",g,--,--,0.00,0.00
"Total lipid (fat)",g,--,--,0.00,0.00
"Carbohydrate, by difference",g,--,--,0.00,0.00
"Fiber, total dietary",g,--,--,0.0,0.0
"Sugars, total",g,--,--,0.00,0.00
Minerals
"Calcium, Ca",mg,--,--,0,0
"Iron, Fe",mg,--,--,0.00,0.00
"Sodium, Na",mg,--,--,250,833
Vitamins
"Vitamin C, total ascorbic acid",mg,--,--,0.0,0.0
"Vitamin A, IU",IU,--,--,0,0
Lipids
"Fatty acids, total saturated",g,--,--,0.000,0.000
"Fatty acids, total trans",g,--,--,0.000,0.000
"Cholesterol",mg,--,--,0,0
Amino Acids
Other
Ingredients
"TRIPLE FILTERED PURIFIED WATER*, APPLE CIDER VINEGAR*, WHITE VINEGAR*, SALT*, VEGETABLE FIBER*, RASPBERRY FLAVOR*, XANTHAN GUM*, CELLULOSE GEL*, PURPLE SWEET POTATO COLOR, POTASSIUM SORBATE*, SODIUM BENZOATE (TO PRESERVE FRESHNESS)*, SUCRALOSE*, CARAMEL COLOR, FD&C RED #40" Date available: 07/14/2017 Date last updated by company: 07/14/2017
