Source: USDA Branded Food Products Database Release December 2017 Software v.3.8.6.4 2017-10-02
Report Run at: December 18, 2017 23:11 EST
"Nutrient data for: 45151903, WALGREENS, FRIGHTFULLY YUMMY GUMMY BODY PARTS, UPC: 049022902947"
Food Group:  Branded Food Products Database
Common Name:

Nutrient,Unit,Data points,Std. Error,"6.0 PIECES = 39.0g",1Value per 100 g,
Proximates
"Energy",kcal,--,--,120,308
"Protein",g,--,--,2.00,5.13
"Total lipid (fat)",g,--,--,0.00,0.00
"Carbohydrate, by difference",g,--,--,29.00,74.36
"Fiber, total dietary",g,--,--,0.0,0.0
"Sugars, total",g,--,--,29.00,74.36
Minerals
"Calcium, Ca",mg,--,--,0,0
"Iron, Fe",mg,--,--,0.00,0.00
"Sodium, Na",mg,--,--,0,0
Vitamins
"Vitamin C, total ascorbic acid",mg,--,--,0.0,0.0
"Vitamin A, IU",IU,--,--,0,0
Lipids
"Fatty acids, total saturated",g,--,--,0.000,0.000
"Fatty acids, total trans",g,--,--,0.000,0.000
"Cholesterol",mg,--,--,0,0
Amino Acids
Other
Ingredients
"CORN SYRUP, SUGAR, WATER, GELATIN, SORBITOL, CITRIC ACID, MALIC ACID, PECTIN, ARTIFICIAL FLAVOR, COCONUT OIL, CARNAUBA WAX, SODIUM CITRATE, TITANIUM DIOXIDE, CARAMEL, FD&C RED NO. 40, FD&C YELLOW NO. 6, FD & C BLUE NO. 1 FD&C YELLOW NO. 5." Date available: 07/14/2017 Date last updated by company: 07/14/2017
