Source: USDA Branded Food Products Database Release December 2017 Software v.3.8.6.4 2017-10-02
Report Run at: December 18, 2017 23:13 EST
"Nutrient data for: 45109368, WALLABY ORGANIC, CREAMY AUSTRALIAN STYLE ORGANIC LOW FAT YOGURT, MAPLE, UPC: 795709010121"
Food Group:  Branded Food Products Database
Common Name:

Nutrient,Unit,Data points,Std. Error,"1 CONTAINER = 170.0g",1Value per 100 g,
Proximates
"Energy",kcal,--,--,139,82
"Protein",g,--,--,6.00,3.53
"Total lipid (fat)",g,--,--,2.50,1.47
"Carbohydrate, by difference",g,--,--,24.00,14.12
"Fiber, total dietary",g,--,--,0.0,0.0
"Sugars, total",g,--,--,19.99,11.76
Minerals
"Calcium, Ca",mg,--,--,250,147
"Iron, Fe",mg,--,--,1.45,0.85
"Sodium, Na",mg,--,--,85,50
Vitamins
"Vitamin C, total ascorbic acid",mg,--,--,1.2,0.7
"Vitamin A, IU",IU,--,--,100,59
Lipids
"Fatty acids, total saturated",g,--,--,1.496,0.880
"Fatty acids, total trans",g,--,--,0.000,0.000
"Cholesterol",mg,--,--,15,9
Amino Acids
Other
Ingredients
"ALL NATURAL INGREDIENTS: ORGANIC CULTURED PASTEURIZED REDUCED FAT MILK, ORGANIC CANE SUGAR, ORGANIC MAPLE SYRUP, ORGANIC LOCUST BEAN GUM, NATURAL FLAVOR, ORGANIC LEMON JUICE CONCENTRATE, PECTIN." Date available: 07/14/2017 Date last updated by company: 07/14/2017
