Source: USDA Branded Food Products Database Release December 2017 Software v.3.8.6.4 2017-10-02
Report Run at: December 18, 2017 23:13 EST
"Nutrient data for: 45109681, WALLABY ORGANIC, GREEK PLAIN LOWFAT YOGURT, UPC: 795709070026"
Food Group:  Branded Food Products Database
Common Name:

Nutrient,Unit,Data points,Std. Error,"1 cup = 225.0g",1Value per 100 g,
Proximates
"Energy",kcal,--,--,171,76
"Protein",g,--,--,23.00,10.22
"Total lipid (fat)",g,--,--,4.50,2.00
"Carbohydrate, by difference",g,--,--,9.99,4.44
"Fiber, total dietary",g,--,--,0.0,0.0
"Sugars, total",g,--,--,6.01,2.67
Minerals
"Calcium, Ca",mg,--,--,250,111
"Iron, Fe",mg,--,--,0.00,0.00
"Sodium, Na",mg,--,--,130,58
Vitamins
"Vitamin C, total ascorbic acid",mg,--,--,0.0,0.0
"Vitamin A, IU",IU,--,--,76,34
Lipids
"Fatty acids, total saturated",g,--,--,2.993,1.330
"Fatty acids, total trans",g,--,--,0.000,0.000
"Cholesterol",mg,--,--,20,9
Amino Acids
Other
Ingredients
"STRAINED YOGURT: ORGANIC CULTURED PASTEURIZED NONFAT MILK AND CREAM. LIVE AND ACTIVE PROBIOTIC CULTURES: L. ACIDOPHILUS, L. BULGARICUS, S. THERMOPHILUS, BIFIDUS, L. PARACASEI." Date available: 07/14/2017 Date last updated by company: 07/14/2017
