Source: USDA Branded Food Products Database Release December 2017 Software v.3.8.6.4 2017-10-02
Report Run at: December 18, 2017 23:19 EST
"Nutrient data for: 45269465, WALNUT, UPC: 856978002016"
Food Group:  Branded Food Products Database
Common Name:

Nutrient,Unit,Data points,Std. Error,"29.0 GRM = 29.0g",1Value per 100 g,
Proximates
"Energy",kcal,--,--,140,483
"Protein",g,--,--,3.00,10.34
"Total lipid (fat)",g,--,--,11.00,37.93
"Carbohydrate, by difference",g,--,--,11.00,37.93
"Fiber, total dietary",g,--,--,2.0,6.9
"Sugars, total",g,--,--,8.00,27.59
Minerals
"Calcium, Ca",mg,--,--,60,207
"Iron, Fe",mg,--,--,1.49,5.14
"Sodium, Na",mg,--,--,15,52
Vitamins
"Vitamin C, total ascorbic acid",mg,--,--,0.0,0.0
"Vitamin A, IU",IU,--,--,0,0
Lipids
"Fatty acids, total saturated",g,--,--,3.500,12.070
"Fatty acids, total trans",g,--,--,0.000,0.000
"Cholesterol",mg,--,--,5,17
Amino Acids
Other
Ingredients
"SWEETENED CONDENSED MILK, AMERICAN WALNUTS, CHOCOLATE LIQUOR, VEGAN CALLEBAUT 51%, UNSWEETENED COCONUT, CHIA SEEDS, HEMP SEEDS, GREEN TEA EXTRACT, ROSEMARY EXTRACT." Date available: 07/14/2017 Date last updated by company: 07/14/2017
