Source: USDA Branded Food Products Database Release December 2017 Software v.3.8.6.4 2017-10-02
Report Run at: December 19, 2017 00:07 EST
"Nutrient data for: 45055484, WASABI TERIYAKI SAUCE, UPC: 093133737288"
Food Group:  Branded Food Products Database
Common Name:

Nutrient,Unit,Data points,Std. Error,"1 Tbsp = 15.0g",1Value per 100 g,
Proximates
"Energy",kcal,--,--,35,233
"Protein",g,--,--,1.00,6.67
"Total lipid (fat)",g,--,--,1.00,6.67
"Carbohydrate, by difference",g,--,--,5.00,33.33
"Fiber, total dietary",g,--,--,0.0,0.0
"Sugars, total",g,--,--,5.00,33.33
Minerals
"Sodium, Na",mg,--,--,420,2800
Vitamins
Lipids
"Fatty acids, total saturated",g,--,--,0.000,0.000
"Fatty acids, total trans",g,--,--,0.000,0.000
"Cholesterol",mg,--,--,0,0
Amino Acids
Other
Ingredients
"SOY SAUCE (WATER, WHEAT, SOYBEANS, AND SEA SALT), SUGAR, DRIED ONION, FRESH GARLIC, SESAME SEEDS, SESAME OIL, WASABI, FRESH GINGER, NATURAL FLAVOR." Date available: 06/24/2017 Date last updated by company: 06/24/2017
