Source: USDA Branded Food Products Database Release December 2017 Software v.3.8.6.4 2017-10-02
Report Run at: December 19, 2017 00:06 EST
"Nutrient data for: 45042197, WASABI CRUNCHY CHICKPEAS, UPC: 857063002423"
Food Group:  Branded Food Products Database
Common Name:

Nutrient,Unit,Data points,Std. Error,"0.25 cup = 30.0g",1Value per 100 g,
Proximates
"Energy",kcal,--,--,130,433
"Protein",g,--,--,6.00,20.00
"Total lipid (fat)",g,--,--,4.00,13.33
"Carbohydrate, by difference",g,--,--,18.00,60.00
"Fiber, total dietary",g,--,--,5.0,16.7
"Sugars, total",g,--,--,2.00,6.67
Minerals
"Calcium, Ca",mg,--,--,20,67
"Iron, Fe",mg,--,--,2.40,8.00
"Sodium, Na",mg,--,--,230,767
Vitamins
"Vitamin C, total ascorbic acid",mg,--,--,2.0,6.7
"Vitamin A, IU",IU,--,--,0,0
Lipids
"Fatty acids, total saturated",g,--,--,0.000,0.000
"Fatty acids, total trans",g,--,--,0.000,0.000
"Cholesterol",mg,--,--,0,0
Amino Acids
Other
Ingredients
"ORGANIC CHICKPEAS, EXPELLER PRESSED CANOLA AND/OR SUNFLOWER OIL, ORGANIC ROSEMARY EXTRACT, ASCORBIC ACID. SEASONED WITH: CANE SUGAR, SALT, MUSTARD, ONION, NATURAL FLAVORS, GARLIC, SPICES, WASABI, CITRIC ACID, SPINACH." Date available: 07/14/2017 Date last updated by company: 07/14/2017
