Source: USDA Branded Food Products Database Release December 2017 Software v.3.8.6.4 2017-10-02
Report Run at: December 19, 2017 00:08 EST
"Nutrient data for: 45137152, WASATCH, BRIGHAM'S BREW ROOT BEER, UPC: 015203274448"
Food Group:  Branded Food Products Database
Common Name:

Nutrient,Unit,Data points,Std. Error,"1 BOTTLE = 355.0g",1Value per 100 g,
Proximates
"Energy",kcal,--,--,209,59
"Protein",g,--,--,0.00,0.00
"Total lipid (fat)",g,--,--,0.00,0.00
"Carbohydrate, by difference",g,--,--,54.00,15.21
"Sugars, total",g,--,--,54.00,15.21
Minerals
"Sodium, Na",mg,--,--,39,11
Vitamins
Lipids
Amino Acids
Other
Ingredients
"CARBONATED WATER, CANE SUGAR, MALTODEXTRIN, HONEY, NATURAL AND ARTIFICIAL FLAVORS, VANILLA EXTRACT, YUCCA EXTRACT, SODIUM BENZOATE (A PRESERVATIVE) CITRIC ACID." Date available: 07/14/2017 Date last updated by company: 07/14/2017
