Source: USDA Branded Food Products Database Release December 2017 Software v.3.8.6.4 2017-10-02
Report Run at: December 19, 2017 00:10 EST
"Nutrient data for: 45287795, WATER CRACKERS, UPC: 021130112258"
Food Group:  Branded Food Products Database
Common Name:

Nutrient,Unit,Data points,Std. Error,"4.0 CRACKERS = 14.0g",1Value per 100 g,
Proximates
"Energy",kcal,--,--,60,429
"Protein",g,--,--,1.00,7.14
"Total lipid (fat)",g,--,--,1.00,7.14
"Carbohydrate, by difference",g,--,--,11.00,78.57
"Fiber, total dietary",g,--,--,1.0,7.1
"Sugars, total",g,--,--,0.00,0.00
Minerals
"Calcium, Ca",mg,--,--,0,0
"Iron, Fe",mg,--,--,0.00,0.00
"Potassium, K",mg,--,--,15,109
"Sodium, Na",mg,--,--,105,750
Vitamins
"Vitamin C, total ascorbic acid",mg,--,--,0.0,0.0
"Vitamin A, IU",IU,--,--,0,0
Lipids
"Fatty acids, total saturated",g,--,--,0.000,0.000
"Fatty acids, total trans",g,--,--,0.000,0.000
"Cholesterol",mg,--,--,0,0
Amino Acids
Other
Ingredients
"UNBLEACHED WHEAT FLOUR, OLIVE OIL, SALT." Date available: 08/15/2017 Date last updated by company: 08/15/2017
