Source: USDA Branded Food Products Database Release December 2017 Software v.3.8.6.4 2017-10-02
Report Run at: December 19, 2017 00:10 EST
"Nutrient data for: 45264189, WATER DRINK, UPC: 642998000237"
Food Group:  Branded Food Products Database
Common Name:

Nutrient,Unit,Data points,Std. Error,"1 BOTTLE = 296.0g",1Value per 100 g,
Proximates
"Energy",kcal,--,--,0,0
"Protein",g,--,--,0.00,0.00
"Total lipid (fat)",g,--,--,0.00,0.00
"Carbohydrate, by difference",g,--,--,0.00,0.00
"Sugars, total",g,--,--,0.00,0.00
Minerals
"Sodium, Na",mg,--,--,0,0
Vitamins
"Vitamin C, total ascorbic acid",mg,--,--,7.4,2.5
"Niacin",mg,--,--,4.055,1.370
"Pantothenic acid",mg,--,--,2.501,0.845
"Vitamin B-6",mg,--,--,0.406,0.137
Lipids
Amino Acids
Other
Ingredients
"WATER, CITRIC ACID, MALIC ACID, STEVIA REBAUDIANA LEAF EXTRACT, NATURAL FLAVOR, VITAMIN C, VITAMIN B5, VITAMIN B3, VITAMIN B6" Date available: 07/14/2017 Date last updated by company: 07/14/2017
