Source: USDA Branded Food Products Database Release December 2017 Software v.3.8.6.4 2017-10-02
Report Run at: December 19, 2017 00:09 EST
"Nutrient data for: 45325638, WATER BEVERAGE WITH NATURAL FRUIT FLAVORS & TOUCH OF SWEETNESS, UPC: 071698012415"
Food Group:  Branded Food Products Database
Common Name:

Nutrient,Unit,Data points,Std. Error,"1 BOTTLE = 591.0g",1Value per 100 g,
Proximates
"Energy",kcal,--,--,0,0
"Protein",g,--,--,0.00,0.00
"Total lipid (fat)",g,--,--,0.00,0.00
"Carbohydrate, by difference",g,--,--,0.00,0.00
Minerals
"Potassium, K",mg,--,--,71,12
"Sodium, Na",mg,--,--,0,0
Vitamins
Lipids
Amino Acids
Other
Ingredients
"CONTAINS CARBONATED WATER, CITRIC ACID, NATURAL FLAVOR, POTASSIUM BENZOATE (A PRESERVATIVE), SUCRALOSE, ACESULFAME POTASSIUM" Date available: 08/11/2017 Date last updated by company: 08/11/2017
