Source: USDA Branded Food Products Database Release December 2017 Software v.3.8.6.4 2017-10-02
Report Run at: December 19, 2017 00:10 EST
"Nutrient data for: 45239983, WATER ENHANCER, UPC: 813314013532"
Food Group:  Branded Food Products Database
Common Name:

Nutrient,Unit,Data points,Std. Error,"0.042 BOTTLE = 2.0g",1Value per 100 g,
Proximates
"Energy",kcal,--,--,5,250
"Protein",g,--,--,0.00,0.00
"Total lipid (fat)",g,--,--,0.00,0.00
"Carbohydrate, by difference",g,--,--,0.00,0.00
"Sugars, total",g,--,--,0.00,0.00
Minerals
"Sodium, Na",mg,--,--,0,0
Vitamins
Lipids
Amino Acids
Other
Ingredients
"WATER, NATURAL FLAVOR, CITRIC ACID, CANE SUGAR, STEVIA EXTRACT (SWEETENER), APPLE ESSENCE, CONTAINS LESS THAN 2% OF: CARAMEL COLOR, POTASSIUM SORBATE AND SODIUM BENZOATE (PRESERVATIVES)." Date available: 06/25/2017 Date last updated by company: 06/25/2017
