Source: USDA Branded Food Products Database Release December 2017 Software v.3.8.6.4 2017-10-02
Report Run at: December 19, 2017 00:15 EST
"Nutrient data for: 45262141, WATER, UPC: 851842005018"
Food Group:  Branded Food Products Database
Common Name:

Nutrient,Unit,Data points,Std. Error,"8.0 OZA = 8.0g",1Value per 100 g,
Proximates
"Energy",kcal,--,--,0,0
"Protein",g,--,--,0.00,0.00
"Total lipid (fat)",g,--,--,0.00,0.00
"Carbohydrate, by difference",g,--,--,0.00,0.00
"Sugars, total",g,--,--,0.00,0.00
Minerals
"Sodium, Na",mg,--,--,2,23
Vitamins
"Vitamin C, total ascorbic acid",mg,--,--,400.0,5000.0
Lipids
Amino Acids
Other
Ingredients
"WATER, NATURAL FLAVORS, CITRIC ACID, SODIUM HEXAMETAPHOSPHATE, POTASSIUM SORBATE (PRESERVATIVE), STEVIA EXTRACT, ASCORBIC ACID (VITAMIN C)." Date available: 09/08/2017 Date last updated by company: 09/08/2017
