Source: USDA Branded Food Products Database Release December 2017 Software v.3.8.6.4 2017-10-02
Report Run at: December 19, 2017 00:18 EST
"Nutrient data for: 45018569, WAX ORCHARDS, DARK CHOCOLATE SAUCE, FUDGE FANTASY, UPC: 035461000689"
Food Group:  Branded Food Products Database
Common Name:

Nutrient,Unit,Data points,Std. Error,"1 Tbsp = 15.0g",1Value per 100 g,
Proximates
"Energy",kcal,--,--,45,300
"Protein",g,--,--,1.00,6.67
"Total lipid (fat)",g,--,--,0.00,0.00
"Carbohydrate, by difference",g,--,--,11.00,73.33
"Fiber, total dietary",g,--,--,2.0,13.3
"Sugars, total",g,--,--,9.00,60.00
Minerals
"Calcium, Ca",mg,--,--,30,200
"Iron, Fe",mg,--,--,3.04,20.29
"Sodium, Na",mg,--,--,20,133
Vitamins
"Vitamin C, total ascorbic acid",mg,--,--,0.0,0.0
"Vitamin A, IU",IU,--,--,0,0
Lipids
"Fatty acids, total saturated",g,--,--,0.000,0.000
"Cholesterol",mg,--,--,0,0
Amino Acids
Other
Ingredients
"UNSWEETENED PINEAPPLE JUICE CONCENTRATE, PEAR JUICE CONCENTRATE, DUTCH COCOA, NATURAL VANILLA." Date available: 07/14/2017 Date last updated by company: 07/14/2017
