Source: USDA Branded Food Products Database Release December 2017 Software v.3.8.6.4 2017-10-02
Report Run at: December 19, 2017 00:20 EST
"Nutrient data for: 45100728, WEBER, BEER CAN CHICKEN SEASONING, UPC: 047600011227"
Food Group:  Branded Food Products Database
Common Name:

Nutrient,Unit,Data points,Std. Error,"1 tsp = 3.0g",1Value per 100 g,
Proximates
"Energy",kcal,--,--,10,333
"Protein",g,--,--,0.00,0.00
"Total lipid (fat)",g,--,--,0.00,0.00
"Carbohydrate, by difference",g,--,--,2.00,66.67
Minerals
"Sodium, Na",mg,--,--,290,9667
Vitamins
"Vitamin C, total ascorbic acid",mg,--,--,80.0,2666.6
Lipids
Amino Acids
Other
Ingredients
"SALT, ONION, GARLIC, SPICES, SUGAR, RED BELL PEPPER, LEMON PEEL, CITRIC ACID, PAPRIKA EXTRACTIVES (COLOR) AND NATURAL FLAVOR." Date available: 07/14/2017 Date last updated by company: 07/14/2017
