Source: USDA Branded Food Products Database Release December 2017 Software v.3.8.6.4 2017-10-02
Report Run at: December 19, 2017 00:21 EST
"Nutrient data for: 45188927, WEDGE WITH ALMONDS, UPC: 8437007488470"
Food Group:  Branded Food Products Database
Common Name:

Nutrient,Unit,Data points,Std. Error,"0.125 OF WEDGE. = 31.0g",1Value per 100 g,
Proximates
"Energy",kcal,--,--,110,355
"Protein",g,--,--,2.00,6.45
"Total lipid (fat)",g,--,--,3.00,9.68
"Carbohydrate, by difference",g,--,--,19.00,61.29
"Fiber, total dietary",g,--,--,4.0,12.9
"Sugars, total",g,--,--,10.00,32.26
Minerals
"Calcium, Ca",mg,--,--,40,129
"Iron, Fe",mg,--,--,0.93,3.00
"Sodium, Na",mg,--,--,5,16
Vitamins
"Vitamin C, total ascorbic acid",mg,--,--,0.0,0.0
"Vitamin A, IU",IU,--,--,0,0
Lipids
"Fatty acids, total saturated",g,--,--,0.400,1.290
"Fatty acids, total trans",g,--,--,0.000,0.000
"Cholesterol",mg,--,--,0,0
Amino Acids
Other
Ingredients
"DRIED APRICOTS, ALMONDS, SULFUR DIOXIDE ADDED AS A PRESERVATIVE." Date available: 07/14/2017 Date last updated by company: 07/14/2017
