Source: USDA Branded Food Products Database Release December 2017 Software v.3.8.6.4 2017-10-02
Report Run at: December 19, 2017 00:30 EST
"Nutrient data for: 45177567, WEGMANS, ORGANIC GRANOLA, PUMPKIN FLAX, UPC: 077890370834"
Food Group:  Branded Food Products Database
Common Name:

Nutrient,Unit,Data points,Std. Error,"0.25 cup = 30.0g",1Value per 100 g,
Proximates
"Energy",kcal,--,--,140,467
"Protein",g,--,--,4.00,13.33
"Total lipid (fat)",g,--,--,5.00,16.67
"Carbohydrate, by difference",g,--,--,20.00,66.67
"Fiber, total dietary",g,--,--,2.0,6.7
"Sugars, total",g,--,--,6.00,20.00
Minerals
"Calcium, Ca",mg,--,--,20,67
"Iron, Fe",mg,--,--,1.98,6.60
"Sodium, Na",mg,--,--,25,83
Vitamins
"Vitamin C, total ascorbic acid",mg,--,--,0.0,0.0
"Vitamin A, IU",IU,--,--,0,0
Lipids
"Fatty acids, total saturated",g,--,--,0.501,1.670
"Fatty acids, total trans",g,--,--,0.000,0.000
"Cholesterol",mg,--,--,0,0
Amino Acids
Other
Ingredients
"ORGANIC WHOLE ROLLED OATS, ORGANIC MILLED CANE SUGAR, ORGANIC CRISP BROWN RICE (ORGANIC BROWN RICE, ORGANIC BROWN RICE SYRUP, SALT), ORGANIC FAX SEED, ORGANIC VEGETABLE OIL (ORGANIC CANOLA AND/OR ORGANIC SAFFLOWER AND/OR ORGANIC SUNFLOWER OIL), ORGANIC PUMPKIN SEEDS, ORGANIC MOLASSES, ORGANIC CINNAMON BARK, SALT, MIXED TOCOPHEROLS (NATURAL VITAMIN E TO MAINTAIN FRESHNESS)" Date available: 07/14/2017 Date last updated by company: 07/14/2017
