Source: USDA Branded Food Products Database Release December 2017 Software v.3.8.6.4 2017-10-02
Report Run at: December 19, 2017 00:34 EST
"Nutrient data for: 45177614, WEGMANS, ULTRA THIN SLICED PROVOLONE CHEESE, UPC: 077890387481"
Food Group:  Branded Food Products Database
Common Name:

Nutrient,Unit,Data points,Std. Error,"3.0 SLICES = 32.0g",1Value per 100 g,
Proximates
"Energy",kcal,--,--,110,344
"Protein",g,--,--,8.00,25.00
"Total lipid (fat)",g,--,--,9.00,28.12
"Carbohydrate, by difference",g,--,--,1.00,3.12
"Fiber, total dietary",g,--,--,0.0,0.0
"Sugars, total",g,--,--,0.00,0.00
Minerals
"Calcium, Ca",mg,--,--,250,781
"Iron, Fe",mg,--,--,0.00,0.00
"Sodium, Na",mg,--,--,280,875
Vitamins
"Vitamin C, total ascorbic acid",mg,--,--,0.0,0.0
"Vitamin A, IU",IU,--,--,469,1466
Lipids
"Fatty acids, total saturated",g,--,--,4.998,15.620
"Fatty acids, total trans",g,--,--,0.000,0.000
"Cholesterol",mg,--,--,20,62
Amino Acids
Other
Ingredients
"PASTEURIZED MILK, CHEESE CULTURE, SALT, ENZYMES." Date available: 07/14/2017 Date last updated by company: 07/14/2017
