Source: USDA Branded Food Products Database Release December 2017 Software v.3.8.6.4 2017-10-02
Report Run at: December 19, 2017 00:27 EST
"Nutrient data for: 45144179, WEGMANS, GUMMI BEARS, UPC: 077890409206"
Food Group:  Branded Food Products Database
Common Name:

Nutrient,Unit,Data points,Std. Error,"17.0 PIECES = 41.0g",1Value per 100 g,
Proximates
"Energy",kcal,--,--,130,317
"Protein",g,--,--,3.00,7.32
"Total lipid (fat)",g,--,--,0.00,0.00
"Carbohydrate, by difference",g,--,--,31.00,75.61
"Fiber, total dietary",g,--,--,0.0,0.0
"Sugars, total",g,--,--,26.00,63.41
Minerals
"Calcium, Ca",mg,--,--,0,0
"Iron, Fe",mg,--,--,0.00,0.00
"Sodium, Na",mg,--,--,20,49
Vitamins
"Vitamin C, total ascorbic acid",mg,--,--,0.0,0.0
"Vitamin A, IU",IU,--,--,0,0
Lipids
"Fatty acids, total saturated",g,--,--,0.000,0.000
"Fatty acids, total trans",g,--,--,0.000,0.000
"Cholesterol",mg,--,--,0,0
Amino Acids
Other
Ingredients
"CORN SYRUP, SUGAR, GELATIN, CITRIC ACID, LACTIC ACID, SODIUM LACTATE, NATURAL AND ARTIFICIAL FLAVORS, COCONUT OIL, CARNAUBA WAX, RED # 40, YELLOW #5, YELLOW #6, BLUE #1." Date available: 07/14/2017 Date last updated by company: 07/14/2017
