Source: USDA Branded Food Products Database Release December 2017 Software v.3.8.6.4 2017-10-02
Report Run at: December 19, 2017 00:26 EST
"Nutrient data for: 45176121, WEGMANS, GLAZED DONUT HOLES, UPC: 077890376690"
Food Group:  Branded Food Products Database
Common Name:

Nutrient,Unit,Data points,Std. Error,"4.0 DONUT HOLES = 51.0g",1Value per 100 g,
Proximates
"Energy",kcal,--,--,190,373
"Protein",g,--,--,2.00,3.92
"Total lipid (fat)",g,--,--,8.00,15.69
"Carbohydrate, by difference",g,--,--,26.00,50.98
"Fiber, total dietary",g,--,--,1.0,2.0
"Sugars, total",g,--,--,15.00,29.41
Minerals
"Calcium, Ca",mg,--,--,100,196
"Iron, Fe",mg,--,--,0.39,0.76
"Sodium, Na",mg,--,--,220,431
Vitamins
"Vitamin C, total ascorbic acid",mg,--,--,0.0,0.0
"Vitamin A, IU",IU,--,--,108,212
Lipids
"Fatty acids, total saturated",g,--,--,2.999,5.880
"Fatty acids, total trans",g,--,--,2.499,4.900
"Cholesterol",mg,--,--,10,20
Amino Acids
Other
Ingredients
"ENRICHED WHEAT FLOUR (WHEAT FLOUR, NIACIN, REDUCED IRON, THIAMIN MONONITRATE [VITAMIN B1], RIBOFLAVIN [VITAMIN B2], FOLIC ACID), SUGAR, VEGETABLE OILS (PALM, SOYBEAN, COTTONSEED AND/OR PARTIALLY HYDROGENATED SOYBEAN & COTTONSEED OILS), WATER. CONTAINS 2% OR LESS OFTHE FOLLOWING: LEAVENING (BAKING SODA, SODIUM ACID PYROPHOSPHATE, MONOCALCIUM PHOSPHATE), DEXTROSE, NONFAT MILK, SOY FLOUR, EGG YOLK, CORN STARCH, CALCIUM CARBONATE, EMULSIFIERS (MONO AND DIGLYCERIDES, SOY LECITHIN, SODIUM HEXAMETAPHOSPHATE), CALCIUM SULFATE, SALT, WHEAT STARCH, WHEAT GERM, AGAR, LOCUST BEAN GUM, NATURAL & ARTIFICIAL FLAVOR, BETA CAROTENE (FOR COLOR)." Date available: 07/14/2017 Date last updated by company: 07/14/2017
