Source: USDA Branded Food Products Database Release December 2017 Software v.3.8.6.4 2017-10-02
Report Run at: December 19, 2017 00:27 EST
"Nutrient data for: 45152671, WEGMANS, GUMMI WORMS, UPC: 077890409213"
Food Group:  Branded Food Products Database
Common Name:

Nutrient,Unit,Data points,Std. Error,"5.0 PCS = 38.0g",1Value per 100 g,
Proximates
"Energy",kcal,--,--,120,316
"Protein",g,--,--,2.00,5.26
"Total lipid (fat)",g,--,--,0.00,0.00
"Carbohydrate, by difference",g,--,--,28.00,73.68
"Fiber, total dietary",g,--,--,0.0,0.0
"Sugars, total",g,--,--,24.00,63.16
Minerals
"Calcium, Ca",mg,--,--,0,0
"Iron, Fe",mg,--,--,0.00,0.00
"Sodium, Na",mg,--,--,20,53
Vitamins
"Vitamin C, total ascorbic acid",mg,--,--,0.0,0.0
"Vitamin A, IU",IU,--,--,0,0
Lipids
"Fatty acids, total saturated",g,--,--,0.000,0.000
"Fatty acids, total trans",g,--,--,0.000,0.000
"Cholesterol",mg,--,--,0,0
Amino Acids
Other
Ingredients
"CORN SYRUP, SUGAR, GELATIN, CITRIC ACID, LACTIC ACID, SODIUM LACTATE, NATURAL AND ARTIFICIAL FLAVORS, COCONUT OIL, CARNAUBA WAX, RED #40, YELLOW #5, YELLOW #6, BLUE #1." Date available: 07/14/2017 Date last updated by company: 07/14/2017
