Source: USDA Branded Food Products Database Release December 2017 Software v.3.8.6.4 2017-10-02
Report Run at: December 19, 2017 00:25 EST
"Nutrient data for: 45152660, WEGMANS, FIRE ROASTED HATCH GREEN CHILE CASHEWS, UPC: 077890390283"
Food Group:  Branded Food Products Database
Common Name:

Nutrient,Unit,Data points,Std. Error,"0.25 cup = 30.0g",1Value per 100 g,
Proximates
"Energy",kcal,--,--,170,567
"Protein",g,--,--,5.00,16.67
"Total lipid (fat)",g,--,--,14.00,46.67
"Carbohydrate, by difference",g,--,--,9.00,30.00
"Fiber, total dietary",g,--,--,1.0,3.3
"Sugars, total",g,--,--,2.00,6.67
Minerals
"Calcium, Ca",mg,--,--,20,67
"Iron, Fe",mg,--,--,3.00,10.00
"Sodium, Na",mg,--,--,110,367
Vitamins
"Vitamin C, total ascorbic acid",mg,--,--,4.0,13.3
"Vitamin A, IU",IU,--,--,0,0
Lipids
"Fatty acids, total saturated",g,--,--,2.499,8.330
"Fatty acids, total trans",g,--,--,0.000,0.000
"Cholesterol",mg,--,--,0,0
Amino Acids
Other
Ingredients
"ROASTED CASHEWS (SUNFLOWER AND/OR CANOLA OIL), HATCH GREEN CHILE SEASONING (ORGANIC CHEDDAR CHEESE POWDER {ORGANIC CHEDDAR CHEESE [CULTURED PASTEURIZED MILK, SALT, ENZYMES], ORGANIC NONFAT MILK, ORGANIC WHEY, SALT, DISODIUM PHOSPHATE}, SALT, HATCH GREEN CHILE PEPPER, EVAPORATED CANE SUGAR, ONION, PARSLEY, NATURAL FLAVORS, GARLIC, MALTODEXTRIN, SPICES, SPICE EXTRACTIVES, CITRIC ACID) EXPELLER PRESSED CANOLA OIL." Date available: 09/27/2017 Date last updated by company: 09/27/2017
