Source: USDA Branded Food Products Database Release December 2017 Software v.3.8.6.4 2017-10-02
Report Run at: December 19, 2017 00:30 EST
"Nutrient data for: 45157174, WEGMANS, ORGANIC MANGO GOJI FIRE SPROUTED TRAIL MIX, UPC: 077890392836"
Food Group:  Branded Food Products Database
Common Name:

Nutrient,Unit,Data points,Std. Error,"28.0 GRM = 28.0g",1Value per 100 g,
Proximates
"Energy",kcal,--,--,130,464
"Protein",g,--,--,5.00,17.86
"Total lipid (fat)",g,--,--,9.00,32.14
"Carbohydrate, by difference",g,--,--,11.00,39.29
"Fiber, total dietary",g,--,--,1.0,3.6
"Sugars, total",g,--,--,6.00,21.43
Minerals
"Calcium, Ca",mg,--,--,20,71
"Iron, Fe",mg,--,--,4.82,17.22
"Sodium, Na",mg,--,--,75,268
Vitamins
"Vitamin C, total ascorbic acid",mg,--,--,2.2,7.7
"Vitamin A, IU",IU,--,--,893,3189
Lipids
"Fatty acids, total saturated",g,--,--,1.000,3.570
"Fatty acids, total trans",g,--,--,0.000,0.000
"Cholesterol",mg,--,--,0,0
Amino Acids
Other
Ingredients
"SPROUTED ALMONDS (PESTICIDE FREE), MANGO*, RAW CASHEWS*, WILD GOJI BERRIES, HIMALAYAN GOLD RAISINS*, SULTANAS*, SPROUTED PUMKIN SEEDS*, CURRANTS*, SPROUTED SUNFLOWER SEEDS*, HIMALAYAN CRYSTAL SALT, HABENERO*." Date available: 07/14/2017 Date last updated by company: 07/14/2017
