Source: USDA Branded Food Products Database Release December 2017 Software v.3.8.6.4 2017-10-02
Report Run at: December 19, 2017 01:00 EST
"Nutrient data for: 45051107, WEIS QUALITY, LIGHT NONFAT YOGURT, VANILLA, UPC: 041497094585"
Food Group:  Branded Food Products Database
Common Name:

Nutrient,Unit,Data points,Std. Error,"1 CONTAINER = 170.0g",1Value per 100 g,
Proximates
"Energy",kcal,--,--,90,53
"Protein",g,--,--,6.00,3.53
"Total lipid (fat)",g,--,--,0.00,0.00
"Carbohydrate, by difference",g,--,--,14.99,8.82
"Fiber, total dietary",g,--,--,0.0,0.0
"Sugars, total",g,--,--,11.00,6.47
Minerals
"Calcium, Ca",mg,--,--,201,118
"Iron, Fe",mg,--,--,0.00,0.00
"Potassium, K",mg,--,--,240,141
"Sodium, Na",mg,--,--,90,53
Vitamins
"Vitamin C, total ascorbic acid",mg,--,--,1.2,0.7
"Vitamin A, IU",IU,--,--,0,0
Lipids
"Fatty acids, total saturated",g,--,--,0.000,0.000
"Fatty acids, total trans",g,--,--,0.000,0.000
"Cholesterol",mg,--,--,5,3
Amino Acids
Other
Ingredients
"CULTURED PASTEURIZED GRADE A NONFAT MILK, FRUCTOSE, MODIFIED CORNSTARCH, KOSHER GELATIN, NATURAL FLAVORS, ASPARTAME**, CITRIC ACID, MALIC ACID, POTASSIUM SORBATE (TO MAINTAIN FRESHNESS) AND CARAMEL COLOR. CONTAINS ACTIVE YOGURT CULTURES WITH L. BULGARICUS, S. THERMOPHILUS, BIFIDOBACTERIUM BB-12, L. ACIDOPHILUS, AND L. CASEI." Date available: 06/25/2017 Date last updated by company: 06/25/2017
