Source: USDA Branded Food Products Database Release December 2017 Software v.3.8.6.4 2017-10-02
Report Run at: December 19, 2017 00:39 EST
"Nutrient data for: 45233513, WEIS, CHEWY GRANOLA BARS, PEANUT BUTTER CHOCOLATE, UPC: 041497542949"
Food Group:  Branded Food Products Database
Common Name:

Nutrient,Unit,Data points,Std. Error,"1 BAR = 24.0g",1Value per 100 g,
Proximates
"Energy",kcal,--,--,100,417
"Protein",g,--,--,2.00,8.33
"Total lipid (fat)",g,--,--,3.00,12.50
"Carbohydrate, by difference",g,--,--,18.00,75.00
"Fiber, total dietary",g,--,--,1.0,4.2
"Sugars, total",g,--,--,7.00,29.17
Minerals
"Calcium, Ca",mg,--,--,80,333
"Iron, Fe",mg,--,--,1.20,5.00
"Potassium, K",mg,--,--,60,250
"Sodium, Na",mg,--,--,60,250
Vitamins
"Vitamin C, total ascorbic acid",mg,--,--,0.0,0.0
"Vitamin A, IU",IU,--,--,0,0
Lipids
"Fatty acids, total saturated",g,--,--,0.499,2.080
"Fatty acids, total monounsaturated",g,--,--,1.001,4.170
"Fatty acids, total polyunsaturated",g,--,--,0.000,0.000
"Fatty acids, total trans",g,--,--,0.000,0.000
"Cholesterol",mg,--,--,0,0
Amino Acids
Other
Ingredients
"GRANOLA [WHOLE GRAIN ROLLED OATS, CRISP RICE (RICE, SUGAR, BARLEY MALT EXTRACT, SALT), SUGAR, WHOLE WHEAT FLAKES, CANOLA OIL, MOLASSES, ENRICHED WHEAT FLOUR (BLEACHED WHEAT FLOUR, MALTED BARLEY FLOUR, NIACIN, REDUCED IRON, THIAMINE MONONITRATE, RIBOFLAVIN, FOLIC ACID), SOY LECITHIN, SODIUM BICARBONATE, NONFAT DRY MILK, CARAMEL COLOR], CRISP RICE (RICE, SUGAR, BARLEY MALT EXTRACT, SALT), CORN SYRUP, HIGH FRUCTOSE CORN SYRUP, SEMISWEET CHOCOLATE CHIPS [SUGAR, CHOCOLATE LIQUOR, COCOA BUTTER, SOY LECITHIN, SALT, VANILLA], PEANUT BUTTER FLAVORED CHIPS (SUGAR, PARTIALLY HYDROGENATED SOYBEAN AND COTTONSEED OIL, PARTIALLY DEFATTED PEANUT FLOUR, LACTOSE, DRY WHEY, DEXTROSE, CORN SYRUP SOLIDS, SOY LECITHIN, DRY WHEY DEXTROSE, CORN SYRUP SOLIDS, SOY LECITHIN, SALT, ARTIFICIAL FLAVOR), PEANUT BUTTER (PEANUTS, DEXTROSE, PARTIALLY HYDROGENATED COTTONSEED OIL, SALT), CORN SYRUP SOLIDS, GLYCERIN, LESS THAN 2% OF: SUGAR, CALCIUM CARBONATE, NATURAL AND ARTIFICIAL FLAVORS, MOLASSES, SALT, HONEY, MAPLE SYRUP, BROWN SUGAR, CITRIC ACID, BHT (A PRESERVATIVE)." Date available: 07/14/2017 Date last updated by company: 07/14/2017
