Source: USDA Branded Food Products Database Release December 2017 Software v.3.8.6.4 2017-10-02
Report Run at: December 19, 2017 00:41 EST
"Nutrient data for: 45004867, WEIS, COUNTRY STYLE SOFT COOKIES, SNICKERDOODLE, UPC: 041497560325"
Food Group:  Branded Food Products Database
Common Name:

Nutrient,Unit,Data points,Std. Error,"1 COOKIE = 28.0g",1Value per 100 g,
Proximates
"Energy",kcal,--,--,110,393
"Protein",g,--,--,1.00,3.57
"Total lipid (fat)",g,--,--,4.00,14.29
"Carbohydrate, by difference",g,--,--,18.00,64.29
"Fiber, total dietary",g,--,--,0.0,0.0
"Sugars, total",g,--,--,9.00,32.14
Minerals
"Calcium, Ca",mg,--,--,0,0
"Iron, Fe",mg,--,--,0.00,0.00
"Sodium, Na",mg,--,--,115,411
Vitamins
"Vitamin C, total ascorbic acid",mg,--,--,0.0,0.0
"Vitamin A, IU",IU,--,--,0,0
Lipids
"Fatty acids, total saturated",g,--,--,1.000,3.570
"Fatty acids, total trans",g,--,--,1.000,3.570
"Cholesterol",mg,--,--,0,0
Amino Acids
Other
Ingredients
"ENRICHED BLEACHED AND UNBLEACHED FLOUR (WHEAT FLOUR, NIACIN, IRON, THIAMIN MONONITRATE, RIBOFLAVIN, FOLIC ACID), HIGH FRUCTOSE CORN SYRUP, SUGAR, VEGETABLE SHORTENING (PARTIALLY HYDROGENATED SOYBEAN AND/OR COTTONSEED OILS), WATER, CORN SYRUP, LEAVENING (BAKING SODA, BAKING POWDER [SODIUM ACID PYROPHOSPHATE, BAKING SODA, CORN STARCH, MONOCALCIUM PHOSPHATE]), NONFAT DRY MILK, NATURAL AND ARTIFICIAL FLAVORS, DRIED EGGS, SALT, CINNAMON SOY LECITHIN (EMULSIFIER)." Date available: 07/14/2017 Date last updated by company: 07/14/2017
