Source: USDA Branded Food Products Database Release December 2017 Software v.3.8.6.4 2017-10-02
Report Run at: December 19, 2017 00:55 EST
"Nutrient data for: 45020941, WEIS QUALITY, CREAM OF MUSHROOM CONDENSED SOUP, UPC: 041497327782"
Food Group:  Branded Food Products Database
Common Name:

Nutrient,Unit,Data points,Std. Error,"0.5 cup = 125.0g",1Value per 100 g,
Proximates
"Energy",kcal,--,--,100,80
"Protein",g,--,--,2.00,1.60
"Total lipid (fat)",g,--,--,6.00,4.80
"Carbohydrate, by difference",g,--,--,10.00,8.00
"Fiber, total dietary",g,--,--,2.0,1.6
"Sugars, total",g,--,--,1.00,0.80
Minerals
"Calcium, Ca",mg,--,--,20,16
"Iron, Fe",mg,--,--,0.70,0.56
"Sodium, Na",mg,--,--,800,640
Vitamins
"Vitamin C, total ascorbic acid",mg,--,--,0.0,0.0
"Vitamin A, IU",IU,--,--,0,0
Lipids
"Fatty acids, total saturated",g,--,--,1.000,0.800
"Fatty acids, total monounsaturated",g,--,--,1.000,0.800
"Fatty acids, total polyunsaturated",g,--,--,4.000,3.200
"Fatty acids, total trans",g,--,--,0.000,0.000
"Cholesterol",mg,--,--,0,0
Amino Acids
Other
Ingredients
"WATER, MUSHROOMS, WHEAT FLOUR, SOYBEAN OIL CONTAINS LESS THAN 2% OF: UNMODIFIED FOOD STARCH, SALT, MODIFIED CORN STARCH, WHEY, MONOSODIUM GLUTAMATE, CREAM, SOY PROTEIN CONCENTRATE, AUTOLYZED YEAST EXTRACT, ONION POWDER, GARLIC POWDER" Date available: 06/25/2017 Date last updated by company: 06/25/2017
