Source: USDA Branded Food Products Database Release December 2017 Software v.3.8.6.4 2017-10-02
Report Run at: December 19, 2017 00:53 EST
"Nutrient data for: 45005898, WEIS QUALITY, CHICKEN WITH WILD RICE READY-TO-SERVE SOUP, UPC: 041497336333"
Food Group:  Branded Food Products Database
Common Name:

Nutrient,Unit,Data points,Std. Error,"1 cup = 245.0g",1Value per 100 g,
Proximates
"Energy",kcal,--,--,91,37
"Protein",g,--,--,6.00,2.45
"Total lipid (fat)",g,--,--,1.00,0.41
"Carbohydrate, by difference",g,--,--,14.99,6.12
"Fiber, total dietary",g,--,--,0.0,0.0
"Sugars, total",g,--,--,1.00,0.41
Minerals
"Calcium, Ca",mg,--,--,39,16
"Iron, Fe",mg,--,--,0.37,0.15
"Sodium, Na",mg,--,--,870,355
Vitamins
"Vitamin C, total ascorbic acid",mg,--,--,0.0,0.0
"Vitamin A, IU",IU,--,--,4001,1633
Lipids
"Fatty acids, total saturated",g,--,--,0.000,0.000
"Fatty acids, total trans",g,--,--,0.000,0.000
"Cholesterol",mg,--,--,5,2
Amino Acids
Other
Ingredients
"CHICKEN BROTH, CARROTS, WILD RICE, RICE, CHICKEN MEAT (COOKED WHITE CHICKEN MEAT, WATER, MODIFIED FOOD STARCH, SLAT, SODIUM PHOSPHATE), DICED TOMATOES (TOMATOES, CALCIUM CHLORIDE), CELERY, CONTAINS LESS THAN 2% OF: MONOSODIUM GLUTAMATE, HYDROLYZED CORN PROTEIN, MODIFIED CORN STARCH, CHICKEN FAT, ONION POWDER, CHICKEN FLAVORING (YEAST EXTRACT, SALT), WHEAT FLOUR, PARSELEY FLASKS, BETA CARBOTENE (FOR COLOR), NATURAL FLAVOR, ASCORBIC ACID, SPICE EXTRACT." Date available: 06/25/2017 Date last updated by company: 06/25/2017
