Source: USDA Branded Food Products Database Release December 2017 Software v.3.8.6.4 2017-10-02
Report Run at: December 19, 2017 00:53 EST
"Nutrient data for: 45051011, WEIS QUALITY, CHEESE, MOZZARELLA, UPC: 041497083602"
Food Group:  Branded Food Products Database
Common Name:

Nutrient,Unit,Data points,Std. Error,"0.25 cup = 28.0g",1Value per 100 g,
Proximates
"Energy",kcal,--,--,80,286
"Protein",g,--,--,8.00,28.57
"Total lipid (fat)",g,--,--,6.00,21.43
"Carbohydrate, by difference",g,--,--,1.00,3.57
"Fiber, total dietary",g,--,--,0.0,0.0
"Sugars, total",g,--,--,0.00,0.00
Minerals
"Calcium, Ca",mg,--,--,200,714
"Iron, Fe",mg,--,--,0.00,0.00
"Sodium, Na",mg,--,--,170,607
Vitamins
"Vitamin C, total ascorbic acid",mg,--,--,0.0,0.0
"Vitamin A, IU",IU,--,--,357,1275
Lipids
"Fatty acids, total saturated",g,--,--,3.500,12.500
"Fatty acids, total monounsaturated",g,--,--,1.501,5.360
"Fatty acids, total polyunsaturated",g,--,--,0.000,0.000
"Fatty acids, total trans",g,--,--,0.000,0.000
"Cholesterol",mg,--,--,15,54
Amino Acids
Other
Ingredients
"LOW-MOISTURE PART-SKIM MOZZARELLA CHEESE (CULTURED PASTEURIZED REDUCED FAT MILK, SALT, ENZYMES, ANTICAKE (POTATO STARCH, CORN STARCH, POWDERED CELLULOSE), NATAMYCIN (A NATURAL MOLD INHIBITOR)." Date available: 06/25/2017 Date last updated by company: 06/25/2017
