Source: USDA Branded Food Products Database Release December 2017 Software v.3.8.6.4 2017-10-02
Report Run at: December 19, 2017 01:10 EST
"Nutrient data for: 45017538, WEIS, SOFT TACO FLOUR TORTILLAS, UPC: 041497754267"
Food Group:  Branded Food Products Database
Common Name:

Nutrient,Unit,Data points,Std. Error,"1 TORTILLA = 28.0g",1Value per 100 g,
Proximates
"Energy",kcal,--,--,80,286
"Protein",g,--,--,2.00,7.14
"Total lipid (fat)",g,--,--,2.50,8.93
"Carbohydrate, by difference",g,--,--,13.00,46.43
"Fiber, total dietary",g,--,--,1.0,3.6
"Sugars, total",g,--,--,0.00,0.00
Minerals
"Calcium, Ca",mg,--,--,0,0
"Iron, Fe",mg,--,--,0.71,2.53
"Sodium, Na",mg,--,--,150,536
Vitamins
"Vitamin C, total ascorbic acid",mg,--,--,0.0,0.0
"Vitamin A, IU",IU,--,--,0,0
Lipids
"Fatty acids, total saturated",g,--,--,1.000,3.570
"Fatty acids, total monounsaturated",g,--,--,0.501,1.790
"Fatty acids, total polyunsaturated",g,--,--,1.000,3.570
"Fatty acids, total trans",g,--,--,0.000,0.000
"Cholesterol",mg,--,--,0,0
Amino Acids
Other
Ingredients
"ENRICHED FLOUR (BLEACHED WHEAT FLOUR, NIACIN, REDUCED IRON, THIAMINE MONONITRATE, RIBOFLAVIN, FOLIC ACID), WATER, SHORTENING (SOYBEAN OIL AND HYDROGENATED SOYBEAN OIL), CONTAINS 2% OR LESS OF LEAVENING (SODIUM BICARBONATE, SODIUM ALUMINUM SULFATE, SODIUM ALUMINUM PHOSPHATE), DOUGH CONDITIONERS (MONO- AND DIGLYCERIDES, CALCIUM SULFATE, ENZYMES, L-CYSTEINE MONOHYDROCHLORIDE), VITAL WHEAT GLUTEN, SODIUM PROPIONATE (PRESERVATIVE), FUMARIC ACID, SALT, POTASSIUM SORBATE (PRESERVATIVE), CORNSTARCH, SOY FLOUR, CELLULOSE GUM, WHEAT STARCH, CANOLA OIL, XANTHAN GUM, MICROCRYSTALLINE CELLULOSE" Date available: 06/25/2017 Date last updated by company: 06/25/2017
