Source: USDA Branded Food Products Database Release December 2017 Software v.3.8.6.4 2017-10-02
Report Run at: December 19, 2017 00:54 EST
"Nutrient data for: 45155533, WEIS QUALITY, CHRISTMAS CHOCOLATE PRETZELS, UPC: 041497133024"
Food Group:  Branded Food Products Database
Common Name:

Nutrient,Unit,Data points,Std. Error,"1 ONZ = 28.0g",1Value per 100 g,
Proximates
"Energy",kcal,--,--,190,679
"Protein",g,--,--,2.00,7.14
"Total lipid (fat)",g,--,--,9.00,32.14
"Carbohydrate, by difference",g,--,--,27.00,96.43
"Fiber, total dietary",g,--,--,1.0,3.6
"Sugars, total",g,--,--,17.00,60.71
Minerals
"Calcium, Ca",mg,--,--,40,143
"Iron, Fe",mg,--,--,0.00,0.00
"Sodium, Na",mg,--,--,96,343
Vitamins
"Vitamin C, total ascorbic acid",mg,--,--,0.0,0.0
"Vitamin A, IU",IU,--,--,0,0
Lipids
"Fatty acids, total saturated",g,--,--,7.000,25.000
"Fatty acids, total trans",g,--,--,0.000,0.000
"Cholesterol",mg,--,--,0,0
Amino Acids
Other
Ingredients
"CHOCOLATE COATING (SUGAR, PALM KERNEL OIL, COCOA POWDER, NONFAT DRY MILK SOLIDS, WHOLE MILK SOLIDS, REDUCED MINERAL WHEY POWDER, SOY LECITHIN (AN EMULSIFIER), SALT AND NATURAL FLAVOR), PRETZELS (UNBLEACHED ENRICHED WHEAT FLOUR, (FLOUR, NIACIN, REDUCED IRON, THIAMINE MONONITRATE, B1, RIBOFLAVIN, B2, FOLIC ACID), MALT, SALT, SOYBEAN OIL AND YEAST). MONPAREILS (SUGAR, CORN STARCH, CONFECTIONER'S GLAZE, FD&C RED 3, FD&C RED 40, FD&C YELLOW 6, FD&C BLUE 2, YELLOW 5, BLUE 1 AND CARNAUBA WAX). AND FISH PRODUCTS 6711158." Date available: 07/14/2017 Date last updated by company: 07/14/2017
