Source: USDA Branded Food Products Database Release December 2017 Software v.3.8.6.4 2017-10-02
Report Run at: December 19, 2017 01:05 EST
"Nutrient data for: 45143144, WEIS QUALITY, SOFT & CHEWY COOKIES MOLASSES, UPC: 041497560424"
Food Group:  Branded Food Products Database
Common Name:

Nutrient,Unit,Data points,Std. Error,"1 COOKIE = 28.0g",1Value per 100 g,
Proximates
"Energy",kcal,--,--,120,429
"Protein",g,--,--,1.00,3.57
"Total lipid (fat)",g,--,--,3.50,12.50
"Carbohydrate, by difference",g,--,--,20.00,71.43
"Fiber, total dietary",g,--,--,0.0,0.0
"Sugars, total",g,--,--,9.00,32.14
Minerals
"Calcium, Ca",mg,--,--,20,71
"Iron, Fe",mg,--,--,1.29,4.59
"Sodium, Na",mg,--,--,140,500
Vitamins
"Vitamin C, total ascorbic acid",mg,--,--,0.0,0.0
"Vitamin A, IU",IU,--,--,0,0
Lipids
"Fatty acids, total saturated",g,--,--,1.999,7.140
"Fatty acids, total trans",g,--,--,0.000,0.000
"Cholesterol",mg,--,--,5,18
Amino Acids
Other
Ingredients
"EENRICHED BLEACHED FLOUR (BLEACHED WHEAT FLOUR, IRON, REDUCED IRON, THIAMINE MONONITRATE, RIBOFLAVIN, FOLIC ACID), MOLASSES, SUGAR, PALM OIL, HIGH FRUCTOSE CORN SYRUP, CORN SYRUP, RAISIN PASTE, CONTAINS 2% OR LESS OF EGGS, MONO AND DIGLYCERIDES, BAKING SODA, MODIFIED CORN STARCH, SALT, SPICES, ARTIFICIAL FLAVOR, POTASSIUM SORBATE (PRESERVATIVE), NONFAT DRY MILK, SOY LECITHIN." Date available: 09/06/2017 Date last updated by company: 09/06/2017
