Source: USDA Branded Food Products Database Release December 2017 Software v.3.8.6.4 2017-10-02
Report Run at: December 19, 2017 00:42 EST
"Nutrient data for: 45006635, WEIS, DANISH RING, RASPBERRY, UPC: 041497108930"
Food Group:  Branded Food Products Database
Common Name:

Nutrient,Unit,Data points,Std. Error,"0.125 CAKE = 53.0g",1Value per 100 g,
Proximates
"Energy",kcal,--,--,170,321
"Protein",g,--,--,2.00,3.77
"Total lipid (fat)",g,--,--,8.00,15.09
"Carbohydrate, by difference",g,--,--,22.00,41.51
"Fiber, total dietary",g,--,--,1.0,1.9
"Sugars, total",g,--,--,10.00,18.87
Minerals
"Calcium, Ca",mg,--,--,0,0
"Iron, Fe",mg,--,--,1.70,3.20
"Sodium, Na",mg,--,--,190,358
Vitamins
"Vitamin C, total ascorbic acid",mg,--,--,0.0,0.0
"Vitamin A, IU",IU,--,--,708,1335
Lipids
"Fatty acids, total saturated",g,--,--,3.498,6.600
"Fatty acids, total trans",g,--,--,0.000,0.000
"Cholesterol",mg,--,--,15,28
Amino Acids
Other
Ingredients
"ENRICHED WHEAT FLOUR (WHEAT FLOUR, NIACIN, REDUCED IRON, THIAMINE MONONITRATE, RIBOFLAVIN AND FOLIC ACID), RASPBERRY FILLING [HIGH FRUCTOSE CORN SYRUP, SUGAR, RASPBERRY PUREE, WATER, MODIFIED FOOD STARCH, ALGINS, CITRIC ACID, POTASSIUM SORBATE (USED AS A PRESERVATIVE), ARTIFICIAL FLAVOR, LOCUST BEAN GUM, CARRAGEENAN, FD&C RED 40, BLUE 1], MARGARINE [PALM OIL, SOYBEAN OIL, WATER, SALT, VEGETABLE MONOGLYCERIDES, SOY LECITHIN, SODIUM BENZOATE AND CITRIC ACID (PRESERVATIVES), ARTIFICIAL FLAVOR, BETA CAROTENE (COLOR), VITAMIN A PALMITATE ADDED], WATER, WHOLE EGGS, POWDERED SUGAR (SUGAR, CORNSTARCH), HIGH FRUCTOSE CORN SYRUP, EMULSIFIER [WATER AND MONOGLYCERIDES WITH PROPIONIC ACID AND PHOSPHORIC ACID (ADDED AS PRESERVATIVES)]. CONTAINS 2% OR LESS OF EACH OF THE FOLLOWING: CORN SYRUP, YEAST, SALT, PALM OIL WITH SOYA LECITHIN, MICROCRYSTALLINE CELLULOSE, SUGAR, TAPIOCA DEXTRIN, SODIUM STEAROYL LACTYLATE, CASEIN (MILK), NON-FAT MILK AND WHEY SOLIDS, AGAR, FOOD STARCH- MODIFIED, DEXTROSE, ARTIFICIAL COLOR, SODIUM BICARBONATE, ASCORBIC ACID, POTASSIUM SORBATE (PRESERVATIVE)" Date available: 06/25/2017 Date last updated by company: 06/25/2017
