Source: USDA Branded Food Products Database Release December 2017 Software v.3.8.6.4 2017-10-02
Report Run at: December 19, 2017 00:47 EST
"Nutrient data for: 45051399, WEIS, ITALIAN STYLE VEGETABLE, UPC: 041497331161"
Food Group:  Branded Food Products Database
Common Name:

Nutrient,Unit,Data points,Std. Error,"1 cup = 242.0g",1Value per 100 g,
Proximates
"Energy",kcal,--,--,60,25
"Protein",g,--,--,2.01,0.83
"Total lipid (fat)",g,--,--,0.00,0.00
"Carbohydrate, by difference",g,--,--,13.00,5.37
"Fiber, total dietary",g,--,--,2.9,1.2
"Sugars, total",g,--,--,3.99,1.65
Minerals
"Calcium, Ca",mg,--,--,60,25
"Iron, Fe",mg,--,--,1.09,0.45
"Potassium, K",mg,--,--,409,169
"Sodium, Na",mg,--,--,670,277
Vitamins
"Vitamin C, total ascorbic acid",mg,--,--,0.0,0.0
"Vitamin A, IU",IU,--,--,1012,418
Lipids
"Fatty acids, total saturated",g,--,--,0.000,0.000
"Fatty acids, total monounsaturated",g,--,--,0.000,0.000
"Fatty acids, total polyunsaturated",g,--,--,0.000,0.000
"Fatty acids, total trans",g,--,--,0.000,0.000
"Cholesterol",mg,--,--,0,0
Amino Acids
Other
Ingredients
"WATER, DICED TOMATOES IN TOMATO JUICE, CELERY, GREEN BEANS, CARROTS, TOMATO PASTE, PEAS, POTATO STARCH, ENRICHED PENNE PASTA* (DURUM WHEAT FLOUR, WATER, EGG WHITE SOLIDS, NIACIN, FERROUS SULFATE [IRON], THIAMIN MONONITRATE, RIBOFLAVIN FOLIC ACID), SPINACH, CONTAINS LESS THAN 1% OF: CHICORY ROOT EXTRACT, SALT, YEAST EXTRACT, HYDROLYZED CORN PROTEIN, SUGAR, POTASSIUM CHLORIDE, SUNFLOWER OIL, XANTHAN GUM, GARLIC POWDER, SPICE, NATURAL FLAVOR, CITRIC ACID. *ADDS A TRIVIAL AMOUNT OF FAT." Date available: 06/25/2017 Date last updated by company: 06/25/2017
