Source: USDA Branded Food Products Database Release December 2017 Software v.3.8.6.4 2017-10-02
Report Run at: December 19, 2017 00:50 EST
"Nutrient data for: 45021419, WEIS, PARMESAN STYLE GRATED TOPPING, UPC: 041497275618"
Food Group:  Branded Food Products Database
Common Name:

Nutrient,Unit,Data points,Std. Error,"1 Tbsp = 5.0g",1Value per 100 g,
Proximates
"Energy",kcal,--,--,20,400
"Protein",g,--,--,1.00,20.00
"Total lipid (fat)",g,--,--,1.00,20.00
"Carbohydrate, by difference",g,--,--,0.00,0.00
"Fiber, total dietary",g,--,--,0.0,0.0
"Sugars, total",g,--,--,0.00,0.00
Minerals
"Calcium, Ca",mg,--,--,0,0
"Iron, Fe",mg,--,--,0.00,0.00
"Sodium, Na",mg,--,--,75,1500
Vitamins
"Vitamin C, total ascorbic acid",mg,--,--,0.0,0.0
"Vitamin A, IU",IU,--,--,0,0
Lipids
"Fatty acids, total saturated",g,--,--,0.000,0.000
"Fatty acids, total trans",g,--,--,0.000,0.000
"Cholesterol",mg,--,--,5,100
Amino Acids
Other
Ingredients
"GRATED CHEESE (PARMESAN AND ROMANO) MADE FROM COW'S MILK (PART-SKIM MILK, CHEESE CULTURE, SALT, ENZYMES), RICE FLOUR, STARCH, PARTIALLY HYDROGENATED SOYBEAN OIL, WATER, CASEIN, MALTODEXTRIN, LESS THAN 2% SALT, SODIUM PHOSPHATE, LACTIC ACID, POWDERED CELLULOSE TO PREVENT CAKING, POTASSIUM SORBATE TO PROTECT FLAVOR, ARTIFICIAL COLOR." Date available: 06/25/2017 Date last updated by company: 06/25/2017
