Source: USDA Branded Food Products Database Release December 2017 Software v.3.8.6.4 2017-10-02
Report Run at: December 19, 2017 00:44 EST
"Nutrient data for: 45051389, WEIS, GENERAL TSO'S CHICKEN, UPC: 041497034208"
Food Group:  Branded Food Products Database
Common Name:

Nutrient,Unit,Data points,Std. Error,"1 PACKAGE, PER CONTAINER = 283.0g",1Value per 100 g,
Proximates
"Energy",kcal,--,--,371,131
"Protein",g,--,--,9.00,3.18
"Total lipid (fat)",g,--,--,6.00,2.12
"Carbohydrate, by difference",g,--,--,68.00,24.03
"Fiber, total dietary",g,--,--,2.0,0.7
"Sugars, total",g,--,--,24.99,8.83
Minerals
"Calcium, Ca",mg,--,--,79,28
"Iron, Fe",mg,--,--,1.87,0.66
"Sodium, Na",mg,--,--,1070,378
Vitamins
"Vitamin C, total ascorbic acid",mg,--,--,10.5,3.7
"Vitamin A, IU",IU,--,--,1206,426
Lipids
"Fatty acids, total saturated",g,--,--,0.990,0.350
"Fatty acids, total trans",g,--,--,0.000,0.000
"Cholesterol",mg,--,--,11,4
Amino Acids
Other
Ingredients
"COOKED RICE SAUCE: WATER, BROWN SUGAR, SOY SAUCE (WATER. WHEAT, SOYBEANS. SALT), MOLASSES, VINEGAR, MODIFIED FOOD STARCH, LESS THAN 2% OF THE FOLLOWING: MIRIN [ SAKE, WATER. RICE KOJI. (ASPERGILLUS ORYZAE). SUGAR, WATER. SALT. YEAST EXTRACT], VEGETABLE OIL (SOYBEAN, CORN, AND/OR SUNFLOWER OIL), CHICKEN BASE (ROASTED CHICKEN, SALT, SUGAR, ONION POWDER, SPICE EXTRACTIVES), YEAST EXTRACT. GINGER, GARLIC, SPICES. SALT. TEMPURA CHICKEN: CHICKEN WHITE MEAT, WATER, POTATO AND CORN STARCH, SALT, YEAST EXTRACT, SPICES. COATING: WATER, ENRICHED FLOUR. (WHEAT FLOUR, NIACIN, IRON, THIAMINE MONONITRATE, RIBOFLAVIN, FOLIC ACID), CORN STARCH. VEGETABLE OIL (SOYBEAN, CORN. AND/OR SUNFLOWER OIL). LEAVENING (SODIUM ACID PYROPHOSPHATE, SODIUM BICARBONATE). SALT. YEAST EXTRACT, EGGS, VEGETABLE: BROCCOLI. CARROTS." Date available: 10/16/2017 Date last updated by company: 10/16/2017
