Source: USDA Branded Food Products Database Release December 2017 Software v.3.8.6.4 2017-10-02
Report Run at: December 19, 2017 00:42 EST
"Nutrient data for: 45156973, WEIS, EGGTRAVAGANT GUMMI, UPC: 041497133093"
Food Group:  Branded Food Products Database
Common Name:

Nutrient,Unit,Data points,Std. Error,"8.0 PCS = 40.0g",1Value per 100 g,
Proximates
"Energy",kcal,--,--,120,300
"Protein",g,--,--,2.00,5.00
"Total lipid (fat)",g,--,--,0.00,0.00
"Carbohydrate, by difference",g,--,--,28.00,70.00
"Fiber, total dietary",g,--,--,0.0,0.0
"Sugars, total",g,--,--,18.00,45.00
Minerals
"Calcium, Ca",mg,--,--,0,0
"Iron, Fe",mg,--,--,1.80,4.50
"Sodium, Na",mg,--,--,25,62
Vitamins
"Vitamin C, total ascorbic acid",mg,--,--,0.0,0.0
"Vitamin A, IU",IU,--,--,0,0
Lipids
"Fatty acids, total saturated",g,--,--,0.000,0.000
"Fatty acids, total trans",g,--,--,0.000,0.000
"Cholesterol",mg,--,--,0,0
Amino Acids
Other
Ingredients
"CORN SYRUP (FROM CORN), SUGAR (FROM BEETS), WATER, GELATIN, CITRIC ACID, NATURAL AND ARTIFICIAL FLAVORS, PECTIN (DERIVED FROM FRUIT), TITANIUM DIOXIDE, FD&C YELLOW #6, BLUE#1, RED#40, YELLOW#5, VEGETABLE OIL (COCONUT), AND CARNAUBA LEAF WAX (TO PREVENT STICKING)." Date available: 07/14/2017 Date last updated by company: 07/14/2017
