Source: USDA Branded Food Products Database Release December 2017 Software v.3.8.6.4 2017-10-02
Report Run at: December 19, 2017 01:24 EST
"Nutrient data for: 45090067, WEL PAC, BROILED MACKEREL, UPC: 011152225968"
Food Group:  Branded Food Products Database
Common Name:

Nutrient,Unit,Data points,Std. Error,"3.5 ONZ = 100.0g",1Value per 100 g,
Proximates
"Energy",kcal,--,--,190,190
"Protein",g,--,--,17.00,17.00
"Total lipid (fat)",g,--,--,8.00,8.00
"Carbohydrate, by difference",g,--,--,12.00,12.00
"Fiber, total dietary",g,--,--,0.0,0.0
"Sugars, total",g,--,--,12.00,12.00
Minerals
"Calcium, Ca",mg,--,--,200,200
"Iron, Fe",mg,--,--,1.22,1.22
"Sodium, Na",mg,--,--,920,920
Vitamins
"Vitamin C, total ascorbic acid",mg,--,--,0.0,0.0
"Vitamin A, IU",IU,--,--,0,0
Lipids
"Fatty acids, total saturated",g,--,--,2.000,2.000
"Fatty acids, total trans",g,--,--,0.000,0.000
"Cholesterol",mg,--,--,65,65
Amino Acids
Other
Ingredients
"MACKEREL, WATER, SUGAR, SOY SAUCE (WATER, SOY-BEANS, WHEAT, SALT), SALT." Date available: 06/25/2017 Date last updated by company: 06/25/2017
