Source: USDA Branded Food Products Database Release December 2017 Software v.3.8.6.4 2017-10-02
Report Run at: December 19, 2017 01:19 EST
"Nutrient data for: 45037901, WELCH'S, SPREAD, STRAWBERRY, UPC: 041800501526"
Food Group:  Branded Food Products Database
Common Name:

Nutrient,Unit,Data points,Std. Error,"1 Tbsp = 20.0g",1Value per 100 g,
Proximates
"Energy",kcal,--,--,50,250
"Protein",g,--,--,0.00,0.00
"Total lipid (fat)",g,--,--,0.00,0.00
"Carbohydrate, by difference",g,--,--,13.00,65.00
"Sugars, total",g,--,--,13.00,65.00
Minerals
"Sodium, Na",mg,--,--,10,50
Vitamins
Lipids
Amino Acids
Other
Ingredients
"STRAWBERRIES, CORN SYRUP, HIGH FRUCTOSE CORN SYRUP, SUGAR, FRUIT PECTIN, RED GRAPE JUICE CONCENTRATE (FOR COLOR), CITRIC ACID, NATURAL FLAVOR." Date available: 07/14/2017 Date last updated by company: 07/14/2017
