Source: USDA Branded Food Products Database Release December 2017 Software v.3.8.6.4 2017-10-02
Report Run at: December 19, 2017 01:16 EST
"Nutrient data for: 45139654, WELCH'S, FRUIT SPREAD, APPLE CINNAMON, UPC: 041800501854"
Food Group:  Branded Food Products Database
Common Name:

Nutrient,Unit,Data points,Std. Error,"1 Tbsp = 20.0g",1Value per 100 g,
Proximates
"Energy",kcal,--,--,50,250
"Protein",g,--,--,0.00,0.00
"Total lipid (fat)",g,--,--,0.00,0.00
"Carbohydrate, by difference",g,--,--,13.00,65.00
"Sugars, total",g,--,--,11.00,55.00
Minerals
"Sodium, Na",mg,--,--,10,50
Vitamins
Lipids
Amino Acids
Other
Ingredients
"CORN SYRUP, APPLES, HIGH FRUCTOSE CORN SYRUP, NIAGARA GRAPES, SUGAR, CITRIC ACID, FRUIT PECTIN, CINNAMON, NATURAL FLAVOR." Date available: 07/14/2017 Date last updated by company: 07/14/2017
