Source: USDA Branded Food Products Database Release December 2017 Software v.3.8.6.4 2017-10-02
Report Run at: December 19, 2017 01:18 EST
"Nutrient data for: 45038463, WELCH'S, PB&J BITE SIZE SNACKS, STRAWBERRY, UPC: 034856908357"
Food Group:  Branded Food Products Database
Common Name:

Nutrient,Unit,Data points,Std. Error,"1 POUCH = 22.7g",1Value per 100 g,
Proximates
"Energy",kcal,--,--,100,441
"Protein",g,--,--,1.00,4.41
"Total lipid (fat)",g,--,--,3.50,15.42
"Carbohydrate, by difference",g,--,--,16.00,70.48
"Fiber, total dietary",g,--,--,1.0,4.4
"Sugars, total",g,--,--,12.00,52.86
Minerals
"Sodium, Na",mg,--,--,80,352
Vitamins
"Vitamin C, total ascorbic acid",mg,--,--,132.2,582.2
"Vitamin A, IU",IU,--,--,1101,4852
Lipids
"Fatty acids, total saturated",g,--,--,3.001,13.220
"Fatty acids, total trans",g,--,--,0.000,0.000
Amino Acids
Other
Ingredients
"FRUIT CENTER (WHITE GRAPE, PEAR AND STRAWBERRY PUREES, SUGAR, CORN SYRUP, MODIFIED CORN STARCH, PECTIN, CITRIC ACID, SODIUM CITRATE, STRAWBERRY FLAVOR ASCORBIC ACID, PAPRIKA [COLOR], ALPHA TOCOPHEROL ACETATE [VITAMIN E], VITAMIN A PALMITATE), PEANUT COATING (SUGAR, PALM KERNEL AND PALM OIL, PEANUT FLOUR, NONFAT MILK, WHEY POWDER, PEANUT BUTTER, SALT, SOY LECITHIN), COCONUT OIL, CARNAUBA WAX AND CONFECTIONER'S GLAZE (LAC-RESIN)." Date available: 10/13/2017 Date last updated by company: 10/13/2017
