Source: USDA Branded Food Products Database Release December 2017 Software v.3.8.6.4 2017-10-02
Report Run at: December 19, 2017 01:19 EST
"Nutrient data for: 45007465, WELCH'S, SPREAD, STRAAWBERRY, UPC: 041800501403"
Food Group:  Branded Food Products Database
Common Name:

Nutrient,Unit,Data points,Std. Error,"1 Tbsp = 19.0g",1Value per 100 g,
Proximates
"Energy",kcal,--,--,40,211
"Protein",g,--,--,0.00,0.00
"Total lipid (fat)",g,--,--,0.00,0.00
"Carbohydrate, by difference",g,--,--,10.00,52.63
"Sugars, total",g,--,--,10.00,52.63
Minerals
"Sodium, Na",mg,--,--,15,79
Vitamins
Lipids
Amino Acids
Other
Ingredients
"SUGAR, STRAWBERRY, FRUIT PECTIN, CITRIC ACID, NATURAL FLAVOR." Date available: 07/14/2017 Date last updated by company: 07/14/2017
