Source: USDA Branded Food Products Database Release December 2017 Software v.3.8.6.4 2017-10-02
Report Run at: December 19, 2017 01:17 EST
"Nutrient data for: 45139825, WELCH'S, JUICE DRINK, GRAPE, UPC: 041800337002"
Food Group:  Branded Food Products Database
Common Name:

Nutrient,Unit,Data points,Std. Error,"10.0 OZA = 296.0g",1Value per 100 g,
Proximates
"Energy",kcal,--,--,139,47
"Protein",g,--,--,0.00,0.00
"Total lipid (fat)",g,--,--,0.00,0.00
"Carbohydrate, by difference",g,--,--,34.01,11.49
"Sugars, total",g,--,--,33.00,11.15
Minerals
"Sodium, Na",mg,--,--,24,8
Vitamins
Lipids
Amino Acids
Other
Ingredients
"FILTERED WATER, HIGH FRUCTOSE CORN SYRUP, GRAPE JUICE, CITRIC ACID (FOR TARTNESS), NATURAL FLAVOR, PECTIN, SODIUM CITRATE, RED 40, SUCRALOSE." Date available: 07/14/2017 Date last updated by company: 07/14/2017
