Source: USDA Branded Food Products Database Release December 2017 Software v.3.8.6.4 2017-10-02
Report Run at: December 19, 2017 01:22 EST
"Nutrient data for: 45159119, WELLSLEY FARMS, MILK CHOCOLATE COVERED RAISINS, UPC: 888670002902"
Food Group:  Branded Food Products Database
Common Name:

Nutrient,Unit,Data points,Std. Error,"29.0 PIECES = 40.0g",1Value per 100 g,
Proximates
"Energy",kcal,--,--,180,450
"Protein",g,--,--,2.00,5.00
"Total lipid (fat)",g,--,--,8.00,20.00
"Carbohydrate, by difference",g,--,--,26.00,65.00
"Fiber, total dietary",g,--,--,2.0,5.0
"Sugars, total",g,--,--,24.00,60.00
Minerals
"Calcium, Ca",mg,--,--,40,100
"Iron, Fe",mg,--,--,0.90,2.25
"Sodium, Na",mg,--,--,15,38
Vitamins
Lipids
"Fatty acids, total saturated",g,--,--,4.500,11.250
"Fatty acids, total trans",g,--,--,0.000,0.000
"Cholesterol",mg,--,--,5,12
Amino Acids
Other
Ingredients
"MILK CHOCOLATE (SUGAR, COCOA BUTTER, CHOCOLATE LIQUOR, WHOLE MILK POWDER, SOY LECITHIN ADDED AS AN EMULSIFIER AND VANILLIN [AN ARTIFICIAL FLAVOR]), RAISINS, CANOLA OIL, CORN SYRUP, TAPIOCA DEXTRIN, CONFECTIONER'S GLAZE (REFINED LAC)." Date available: 10/13/2017 Date last updated by company: 10/13/2017
