Source: USDA Branded Food Products Database Release December 2017 Software v.3.8.6.4 2017-10-02
Report Run at: December 19, 2017 01:25 EST
"Nutrient data for: 45008876, WERTHER'S ORIGINAL, CHEWY CARAMELS, UPC: 072799032159"
Food Group:  Branded Food Products Database
Common Name:

Nutrient,Unit,Data points,Std. Error,"6.0 PIECES = 38.0g",1Value per 100 g,
Proximates
"Energy",kcal,--,--,170,447
"Protein",g,--,--,1.00,2.63
"Total lipid (fat)",g,--,--,5.00,13.16
"Carbohydrate, by difference",g,--,--,28.00,73.68
"Fiber, total dietary",g,--,--,0.0,0.0
"Sugars, total",g,--,--,16.00,42.11
Minerals
"Calcium, Ca",mg,--,--,40,105
"Iron, Fe",mg,--,--,0.00,0.00
"Sodium, Na",mg,--,--,95,250
Vitamins
"Vitamin C, total ascorbic acid",mg,--,--,0.0,0.0
"Vitamin A, IU",IU,--,--,0,0
Lipids
"Fatty acids, total saturated",g,--,--,2.998,7.890
"Fatty acids, total trans",g,--,--,0.000,0.000
"Cholesterol",mg,--,--,5,13
Amino Acids
Other
Ingredients
"GLUCOSE SYRUP (FROM WHEAT OR CORN), SUGAR CONDENSED SKIM MILK, PALM OIL, SORBITOL SYRUP HUMECTANT, CREAM, CONDENSED WHEY, BUTTER, WHEY PRODUCT, SALT, CANE SUGAR SYRUP, SOY LECITHIN EMULSIFIER, ARTIFICIAL FLAVOR." Date available: 06/24/2017 Date last updated by company: 06/24/2017
