Source: USDA Branded Food Products Database Release December 2017 Software v.3.8.6.4 2017-10-02
Report Run at: December 19, 2017 01:26 EST
"Nutrient data for: 45134112, WESSON Vegetable Oil, UNPREPARED, GTIN: 00027000612842"
Food Group:  Branded Food Products Database
Common Name:

Nutrient,Unit,Data points,Std. Error,"1 tbsp (15 mL) = 13.8g",1Value per 100 g,
Proximates
"Energy",kcal,--,--,130,942
"Protein",g,--,--,0.00,0.00
"Carbohydrate, by difference",g,--,--,0.00,0.00
"Sugars, total",g,--,--,0.00,0.00
Minerals
"Calcium, Ca",mg,--,--,0,0
"Iron, Fe",mg,--,--,0.00,0.00
"Sodium, Na",mg,--,--,0,0
Vitamins
"Vitamin C, total ascorbic acid",mg,--,--,0.0,0.0
"Vitamin A, IU",IU,--,--,0,0
Lipids
"Fatty acids, total saturated",g,--,--,2.00,14.49
"Fatty acids, total monounsaturated",g,--,--,3.00,21.74
"Fatty acids, total polyunsaturated",g,--,--,8.00,57.97
"Fatty acids, total trans",g,--,--,0.00,0.00
"Cholesterol",mg,--,--,0,0
Amino Acids
Other
Ingredients
"Soybean Oil" Date last updated by company: 09/08/2016
