Source: USDA Branded Food Products Database Release December 2017 Software v.3.8.6.4 2017-10-02
Report Run at: December 19, 2017 01:30 EST
"Nutrient data for: 45103359, WESTERN FAMILY, CREAM OF CHICKEN CONDENSED SOUP, UPC: 015400018999"
Food Group:  Branded Food Products Database
Common Name:

Nutrient,Unit,Data points,Std. Error,"0.5 cup = 123.0g",1Value per 100 g,
Proximates
"Energy",kcal,--,--,109,89
"Protein",g,--,--,2.00,1.63
"Total lipid (fat)",g,--,--,7.00,5.69
"Carbohydrate, by difference",g,--,--,10.00,8.13
"Fiber, total dietary",g,--,--,0.0,0.0
"Sugars, total",g,--,--,1.00,0.81
Minerals
"Calcium, Ca",mg,--,--,0,0
"Iron, Fe",mg,--,--,0.00,0.00
"Potassium, K",mg,--,--,41,33
"Sodium, Na",mg,--,--,870,707
Vitamins
"Vitamin C, total ascorbic acid",mg,--,--,0.0,0.0
"Vitamin A, IU",IU,--,--,996,810
Lipids
"Fatty acids, total saturated",g,--,--,1.501,1.220
"Fatty acids, total monounsaturated",g,--,--,2.005,1.630
"Fatty acids, total polyunsaturated",g,--,--,3.506,2.850
"Fatty acids, total trans",g,--,--,0.000,0.000
"Cholesterol",mg,--,--,5,4
Amino Acids
Other
Ingredients
"CHICKEN BROTH, MODIFIED FOOD STARCH, SOYBEAN OIL, COOKED CHICKEN MEAT, WHEAT FLOUR , CONTAINS 2% LESS OF SALT, WHEY POWDER, CHICKEN FAT, COOKED MECHANICALLY SEPARATED CHICKEN, MONOSODIUM GLUTAMATE, CREAM, SOY PROTEIN CONCENTRATE, SUGAR, AUTOLYZED YEAST EXTRACT, ISOLATED SOY PROTEIN, DISODIUM PHOSPHATE, ONION POWDER, NATURAL FLAVOR, YEAST EXTRACT, MALTODEXTRIN, BETA CAROTENE (COLOR), SOY LECITHIN." Date available: 06/25/2017 Date last updated by company: 06/25/2017
