Source: USDA Branded Food Products Database Release December 2017 Software v.3.8.6.4 2017-10-02
Report Run at: December 19, 2017 01:28 EST
"Nutrient data for: 45137155, WESTERN FAMILY, CAFFEINE FREE ORANGE SODA, ORANGE, UPC: 015400126724"
Food Group:  Branded Food Products Database
Common Name:

Nutrient,Unit,Data points,Std. Error,"12.0 OZA = 355.0g",1Value per 100 g,
Proximates
"Energy",kcal,--,--,209,59
"Protein",g,--,--,0.00,0.00
"Total lipid (fat)",g,--,--,0.00,0.00
"Carbohydrate, by difference",g,--,--,52.01,14.65
"Sugars, total",g,--,--,49.98,14.08
Minerals
"Sodium, Na",mg,--,--,25,7
Vitamins
Lipids
Amino Acids
Other
Ingredients
"CARBONATED WATER, HIGH FRUCTOSE CORN SYRUP, CITRIC ACID, SODIUM BENZOATE (AS A PRESERVATIVE), GUM ARABIC, NATURAL FLAVOR, GLYCEROL ESTER OF WOOD ROSIN, YELLOW 6, RED 40, AND BROMINATED VEGETABLE OIL." Date available: 07/14/2017 Date last updated by company: 07/14/2017
