Source: USDA Branded Food Products Database Release December 2017 Software v.3.8.6.4 2017-10-02
Report Run at: December 19, 2017 01:37 EST
"Nutrient data for: 45101129, WESTERN FAMILY, SPAGHETTI SAUCE MIX, UPC: 015400020367"
Food Group:  Branded Food Products Database
Common Name:

Nutrient,Unit,Data points,Std. Error,"2.0 tsp = 7.0g",1Value per 100 g,
Proximates
"Energy",kcal,--,--,20,286
"Protein",g,--,--,0.00,0.00
"Total lipid (fat)",g,--,--,0.00,0.00
"Carbohydrate, by difference",g,--,--,5.00,71.43
"Fiber, total dietary",g,--,--,0.0,0.0
"Sugars, total",g,--,--,2.00,28.57
Minerals
"Calcium, Ca",mg,--,--,0,0
"Iron, Fe",mg,--,--,0.00,0.00
"Sodium, Na",mg,--,--,560,8000
Vitamins
"Vitamin C, total ascorbic acid",mg,--,--,8.6,122.5
"Vitamin A, IU",IU,--,--,0,0
Lipids
"Fatty acids, total saturated",g,--,--,0.000,0.000
"Fatty acids, total trans",g,--,--,0.000,0.000
"Cholesterol",mg,--,--,0,0
Amino Acids
Other
Ingredients
"SUGAR, SALT, CORN STARCH, MODIFIED CORN STARCH, DEHYDRATED ONION AND GARLIC, HYDROLYZED SOY PROTEIN (DISODIUM GUANYLATE), SPICE AND COLOR, MALTODEXTRIN, CHEDDAR AND ROMANO CHEESE POEDERS [CHESSE (PASTEURIZED MILK, CHEESE CULTURES, SALT, ENZYMES), WHEY, BUTTER, CORN SYRUP SOLIDS, SALT, NATURAL FLAVOR, SODIUM CITRATE, DISODIUM PHOSPHATE], DEXTROSE, AUTOLYZED YEAST EXTRACT, NATURAL FLAVORS (DEXTRIN, PARTIALLY HYDROGENATED SOYBEAN OIL), CARAMEL COLOR, BEET POWDER, DISODIUM INOSINATE, CITRIC ACID. NOT MORE THAT 2% TRICALCIUM PHOSPHATE ADDED TO PREVENT CAKING." Date available: 06/25/2017 Date last updated by company: 06/25/2017
