Source: USDA Branded Food Products Database Release December 2017 Software v.3.8.6.4 2017-10-02
Report Run at: December 19, 2017 01:38 EST
"Nutrient data for: 45138315, WESTERN, LIGHT SWEET & SMOOTH DRESSING, UPC: 041321301254"
Food Group:  Branded Food Products Database
Common Name:

Nutrient,Unit,Data points,Std. Error,"2.0 Tbsp = 30.0g",1Value per 100 g,
Proximates
"Energy",kcal,--,--,70,233
"Protein",g,--,--,0.00,0.00
"Total lipid (fat)",g,--,--,2.00,6.67
"Carbohydrate, by difference",g,--,--,13.00,43.33
"Fiber, total dietary",g,--,--,0.0,0.0
"Sugars, total",g,--,--,12.00,40.00
Minerals
"Calcium, Ca",mg,--,--,0,0
"Iron, Fe",mg,--,--,0.00,0.00
"Potassium, K",mg,--,--,25,83
"Sodium, Na",mg,--,--,270,900
Vitamins
"Vitamin C, total ascorbic acid",mg,--,--,0.0,0.0
"Vitamin A, IU",IU,--,--,166,555
Lipids
"Fatty acids, total saturated",g,--,--,0.000,0.000
"Fatty acids, total trans",g,--,--,0.000,0.000
"Cholesterol",mg,--,--,0,0
Amino Acids
Other
Ingredients
"HIGH FRUCTOSE CORN SYRUP, WATER, DISTILLED VINEGAR, TOMATO PASTE, SOYBEAN OIL, MALTODEXTRIN (CORN), CONTAINS 2% OR LESS OF: SALT, PAPRIKA, PROPYLENE GLYCOL ALGINATE, XANTHAN GUM, SPICES, APPLE JUICE CONCENTRATE, NATURAL FLAVORS, APPLE CIDER VINEGAR, PROPYLENE GLYCOL, DEXTROSE, COLOR ADDED, DL-ALPHA-TOCOPHEROL ACETATE (VITAMIN E) DRIED ONION, YELLOW 5, CALCIUM DISODIUM EDTA AND SODIUM BENZOATE AND CITRIC ACID (USED TO PROTECT QUALITY), RED 40, PHOSPHORIC ACID." Date available: 07/14/2017 Date last updated by company: 07/14/2017
