Source: USDA Branded Food Products Database Release December 2017 Software v.3.8.6.4 2017-10-02
Report Run at: December 19, 2017 01:35 EST
"Nutrient data for: 45103267, WESTERN FAMILY, ORIGINAL FANCY APPLE SAUCE, UPC: 015400012072"
Food Group:  Branded Food Products Database
Common Name:

Nutrient,Unit,Data points,Std. Error,"0.5 cup = 138.0g",1Value per 100 g,
Proximates
"Energy",kcal,--,--,90,65
"Protein",g,--,--,0.00,0.00
"Total lipid (fat)",g,--,--,0.00,0.00
"Carbohydrate, by difference",g,--,--,23.00,16.67
"Fiber, total dietary",g,--,--,1.0,0.7
"Sugars, total",g,--,--,18.00,13.04
Minerals
"Calcium, Ca",mg,--,--,0,0
"Iron, Fe",mg,--,--,0.91,0.66
"Potassium, K",mg,--,--,86,62
"Sodium, Na",mg,--,--,15,11
Vitamins
"Vitamin C, total ascorbic acid",mg,--,--,1.2,0.9
"Vitamin A, IU",IU,--,--,0,0
Lipids
"Fatty acids, total saturated",g,--,--,0.000,0.000
"Fatty acids, total trans",g,--,--,0.000,0.000
"Cholesterol",mg,--,--,0,0
Amino Acids
Other
Ingredients
"APPLES, WATER, HIGH FRUCTOSE CORN SYRUP AND CORN SYRUP." Date available: 06/25/2017 Date last updated by company: 06/25/2017
