Source: USDA Branded Food Products Database Release December 2017 Software v.3.8.6.4 2017-10-02
Report Run at: December 19, 2017 01:38 EST
"Nutrient data for: 45084348, WESTERN FAMILY, WHIPPED DRESSING, UPC: 015400171298"
Food Group:  Branded Food Products Database
Common Name:

Nutrient,Unit,Data points,Std. Error,"1 Tbsp = 15.0g",1Value per 100 g,
Proximates
"Energy",kcal,--,--,70,467
"Protein",g,--,--,0.00,0.00
"Total lipid (fat)",g,--,--,7.00,46.67
"Carbohydrate, by difference",g,--,--,2.00,13.33
"Sugars, total",g,--,--,2.00,13.33
Minerals
"Sodium, Na",mg,--,--,115,767
Vitamins
Lipids
"Fatty acids, total saturated",g,--,--,1.000,6.670
"Fatty acids, total trans",g,--,--,0.000,0.000
"Cholesterol",mg,--,--,10,67
Amino Acids
Other
Ingredients
"SOYBEAN OIL, WATER, HIGH FRUCTOSE CORN SYRUP, DISTILLED VINEGAR, WHOLE EGG, YOLKS, FOOD STARCH-MODIFIED (CORN), CONTAINS LESS THAN 2% OF SALT, SPICE, SODIUM BENZOATE AND POTASSIUM SORBATE (AS PRESERVATIVES), PAPRIKA, GARLIC*, NATURAL FLAVORS (INCLUDES SOYBEAN, CELERY), ONION*, CALCIUM DISODIUM EDTA ADDED TO PROTECT FLAVOR" Date available: 06/25/2017 Date last updated by company: 06/25/2017
