Source: USDA Branded Food Products Database Release December 2017 Software v.3.8.6.4 2017-10-02
Report Run at: December 19, 2017 01:37 EST
"Nutrient data for: 45104096, WESTERN FAMILY, UNSWEETENED APPLE SAUCE, UPC: 015400056465"
Food Group:  Branded Food Products Database
Common Name:

Nutrient,Unit,Data points,Std. Error,"0.5 cup = 126.0g",1Value per 100 g,
Proximates
"Energy",kcal,--,--,71,56
"Protein",g,--,--,0.00,0.00
"Total lipid (fat)",g,--,--,0.00,0.00
"Carbohydrate, by difference",g,--,--,18.01,14.29
"Fiber, total dietary",g,--,--,2.0,1.6
"Sugars, total",g,--,--,14.99,11.90
Minerals
"Potassium, K",mg,--,--,150,119
"Sodium, Na",mg,--,--,0,0
Vitamins
"Vitamin C, total ascorbic acid",mg,--,--,36.7,29.1
Lipids
Amino Acids
Other
Ingredients
"APPLES, WATER, ASCORBIC ACID (VITAMIN C)." Date available: 06/25/2017 Date last updated by company: 06/25/2017
