Source: USDA Branded Food Products Database Release December 2017 Software v.3.8.6.4 2017-10-02
Report Run at: December 19, 2017 01:35 EST
"Nutrient data for: 45101139, WESTERN FAMILY, PREMIUM CHUNK CHICKEN BREAST WITH RIB MEAT IN WATER, UPC: 015400063227"
Food Group:  Branded Food Products Database
Common Name:

Nutrient,Unit,Data points,Std. Error,"2.0 ONZ = 56.0g",1Value per 100 g,
Proximates
"Energy",kcal,--,--,45,80
"Protein",g,--,--,9.00,16.07
"Total lipid (fat)",g,--,--,1.00,1.79
"Carbohydrate, by difference",g,--,--,0.00,0.00
Minerals
"Sodium, Na",mg,--,--,260,464
Vitamins
Lipids
"Cholesterol",mg,--,--,25,45
Amino Acids
Other
Ingredients
"CHICKEN BREAST MEAT WITH RIB MEAT, WATER, CONTAINS 2% OR LESS OF SEA SALT, MODIFIED FOODS STARCH, SODIUM PHOSPHATES, CHICKEN FLAVOR (SALT, CHICKEN BROTH, NATURAL FLAVORS), FLAVORING." Date available: 10/13/2017 Date last updated by company: 10/13/2017
