Source: USDA Branded Food Products Database Release December 2017 Software v.3.8.6.4 2017-10-02
Report Run at: December 19, 2017 01:38 EST
"Nutrient data for: 45191204, WESTERN STYLE PANCAKE & WAFFLE MIX, UPC: 071982000043"
Food Group:  Branded Food Products Database
Common Name:

Nutrient,Unit,Data points,Std. Error,"0.25 CUP MAKES 2-3 PANCAKES = 40.0g",1Value per 100 g,
Proximates
"Energy",kcal,--,--,140,350
"Protein",g,--,--,4.00,10.00
"Total lipid (fat)",g,--,--,0.00,0.00
"Carbohydrate, by difference",g,--,--,29.00,72.50
"Fiber, total dietary",g,--,--,1.0,2.5
"Sugars, total",g,--,--,2.00,5.00
Minerals
"Calcium, Ca",mg,--,--,80,200
"Iron, Fe",mg,--,--,1.80,4.50
"Sodium, Na",mg,--,--,530,1325
Vitamins
"Vitamin C, total ascorbic acid",mg,--,--,0.0,0.0
"Vitamin A, IU",IU,--,--,0,0
Lipids
"Fatty acids, total saturated",g,--,--,0.000,0.000
"Fatty acids, total trans",g,--,--,0.000,0.000
"Cholesterol",mg,--,--,0,0
Amino Acids
Other
Ingredients
"ENRICHED WHEAT FLOUR, (WHEAT FLOUR BLEACHED, NIACIN, IRON, THIAMINE MONONITRATE, RIBOFLAVIN), CORN SUGAR, SALT, DRY BUTTERMILK POWDER, LEAVENING: (SODIUM BI-CARBONATE, SODIUM ALUMINIUM PHOSPHATE, MONOCALCIUM PHOSPHATE)" Date available: 07/14/2017 Date last updated by company: 07/14/2017
