Source: USDA Branded Food Products Database Release December 2017 Software v.3.8.6.4 2017-10-02
Report Run at: December 19, 2017 01:42 EST
"Nutrient data for: 45194846, WHEAT BULKIE ROLLS, UPC: 035826086723"
Food Group:  Branded Food Products Database
Common Name:

Nutrient,Unit,Data points,Std. Error,"1 ROLL = 57.0g",1Value per 100 g,
Proximates
"Energy",kcal,--,--,160,281
"Protein",g,--,--,7.00,12.28
"Total lipid (fat)",g,--,--,2.00,3.51
"Carbohydrate, by difference",g,--,--,28.00,49.12
"Fiber, total dietary",g,--,--,4.0,7.0
"Sugars, total",g,--,--,3.00,5.26
Minerals
"Calcium, Ca",mg,--,--,60,105
"Iron, Fe",mg,--,--,1.58,2.77
"Sodium, Na",mg,--,--,290,509
Vitamins
"Vitamin C, total ascorbic acid",mg,--,--,0.0,0.0
"Vitamin A, IU",IU,--,--,0,0
Lipids
"Fatty acids, total saturated",g,--,--,0.502,0.880
"Fatty acids, total monounsaturated",g,--,--,0.000,0.000
"Fatty acids, total polyunsaturated",g,--,--,0.000,0.000
"Fatty acids, total trans",g,--,--,0.000,0.000
"Cholesterol",mg,--,--,0,0
Amino Acids
Other
Ingredients
"UNBLEACHED ENRICHED FLOUR (WHEAT FLOUR, MALTED BARLEY FLOUR, NIACIN, REDUCED IRON, THIAMIN MONONITRATE, RIBOFLAVIN, FOLIC ACID), WATER, WHOLE WHEAT FLOUR, SUGAR, WHEAT GLUTEN, YEAST, CONTAINS 2% OR LESS OF EACH OF THE FOLLOWING: WHEAT BRAN, WHEAT FLOUR, SALT, MOLASSES, HIGH FRUCTOSE CORN SYRUP, CULTURED WHEAT FLOUR, DOUGH CONDITIONERS (CONTAINS ONE OR MORE OF THE FOLLOWING: SODIUM STEAROYL LACTYLATE, CALCIUM STEAROYL LACTYLATE, MONOGLYCERIDES, MONO- AND DIGLYCERIDES, DISTILLED MONOGLYCERIDES, CALCIUM PEROXIDE, CALCIUM IODATE, DATEM, ETHOXYLATED MONO- AND DIGLYCERIDES, ENZYMES, ASCORBIC ACID), ROLLED WHEAT, RYE MEAL, SOYBEAN OIL, FIBER (CONTAINS ONE OR MORE OF THE FOLLOWING: SOY, OAT, COTTONSEED, OR CELLULOSE), CANOLA OIL, CALCIUM SULFATE, WHEAT STARCH, SOY LECITHIN, L-CYSTEINE, AMMONIUM SULFATE, CALCIUM CARBONATE, MONOCALCIUM PHOSPHATE, SOY FLOUR" Date available: 07/14/2017 Date last updated by company: 07/14/2017
