Source: USDA Branded Food Products Database Release December 2017 Software v.3.8.6.4 2017-10-02
Report Run at: December 19, 2017 01:44 EST
"Nutrient data for: 45057742, WHEAT & GLUTEN FREE COOKIES, UPC: 854287005797"
Food Group:  Branded Food Products Database
Common Name:

Nutrient,Unit,Data points,Std. Error,"4.0 COOKIES | APPROX = 57.0g",1Value per 100 g,
Proximates
"Energy",kcal,--,--,260,456
"Protein",g,--,--,2.00,3.51
"Total lipid (fat)",g,--,--,11.00,19.30
"Carbohydrate, by difference",g,--,--,37.00,64.91
"Fiber, total dietary",g,--,--,1.0,1.8
"Sugars, total",g,--,--,16.00,28.07
Minerals
"Calcium, Ca",mg,--,--,0,0
"Iron, Fe",mg,--,--,0.63,1.11
"Sodium, Na",mg,--,--,125,219
Vitamins
"Vitamin C, total ascorbic acid",mg,--,--,0.0,0.0
"Vitamin A, IU",IU,--,--,438,769
Lipids
"Fatty acids, total saturated",g,--,--,7.000,12.280
"Fatty acids, total trans",g,--,--,0.000,0.000
"Cholesterol",mg,--,--,45,79
Amino Acids
Other
Ingredients
"GLUTEN FREE FLOUR (BROWN RICE, SWEET RICE, TAPIOCA), BUTTER (MILK), CANE SUGAR, UNSULPHURED MOLASSES, EGGS, CORN STARCH, POTATO STARCH, GINGER, XANTHAN GUM, SALT, BAKING SODA." Date available: 07/14/2017 Date last updated by company: 07/14/2017
