Source: USDA Branded Food Products Database Release December 2017 Software v.3.8.6.4 2017-10-02
Report Run at: December 19, 2017 01:43 EST
"Nutrient data for: 45264521, WHEAT CRISP CRACKES, UPC: 011110904256"
Food Group:  Branded Food Products Database
Common Name:

Nutrient,Unit,Data points,Std. Error,"16.0 CRACKERS = 31.0g",1Value per 100 g,
Proximates
"Energy",kcal,--,--,140,452
"Protein",g,--,--,2.00,6.45
"Total lipid (fat)",g,--,--,5.00,16.13
"Carbohydrate, by difference",g,--,--,22.00,70.97
"Fiber, total dietary",g,--,--,3.0,9.7
"Sugars, total",g,--,--,4.00,12.90
Minerals
"Calcium, Ca",mg,--,--,20,65
"Iron, Fe",mg,--,--,1.74,5.62
"Sodium, Na",mg,--,--,230,742
Vitamins
"Vitamin C, total ascorbic acid",mg,--,--,0.0,0.0
"Vitamin A, IU",IU,--,--,0,0
Lipids
"Fatty acids, total saturated",g,--,--,1.001,3.230
"Fatty acids, total trans",g,--,--,0.000,0.000
"Cholesterol",mg,--,--,0,0
Amino Acids
Other
Ingredients
"WHOLE WHEAT FLOUR, CANOLA AND/OR SOYBEAN AND/OR PALM OIL WITH TBHQ ADDED TO PRESERVE FRESHNESS, SUGAR, CORN STARCH, CONTAIN 2% OR LESS OF: SALT, MALTED BARLEY SYRUP, INVERT SUGAR, LEAVENING (CALCIUM PHOSPHATE AND/OR BAKING SODA), COLOR (ANNATTO EXTRACT AND OLEORESIN TURMERIC), SODIUM SULFITE." Date available: 07/14/2017 Date last updated by company: 07/14/2017
