Source: USDA Branded Food Products Database Release December 2017 Software v.3.8.6.4 2017-10-02
Report Run at: December 19, 2017 01:43 EST
"Nutrient data for: 45314650, WHEAT CRACKERS, UPC: 817974021197"
Food Group:  Branded Food Products Database
Common Name:

Nutrient,Unit,Data points,Std. Error,"14.0 CRACKERS = 30.0g",1Value per 100 g,
Proximates
"Energy",kcal,--,--,140,467
"Protein",g,--,--,2.00,6.67
"Total lipid (fat)",g,--,--,6.00,20.00
"Carbohydrate, by difference",g,--,--,21.00,70.00
"Fiber, total dietary",g,--,--,1.0,3.3
"Sugars, total",g,--,--,3.00,10.00
Minerals
"Calcium, Ca",mg,--,--,20,67
"Iron, Fe",mg,--,--,0.50,1.67
"Potassium, K",mg,--,--,60,200
"Sodium, Na",mg,--,--,190,633
Vitamins
"Vitamin D",IU,--,--,0,0
Lipids
"Fatty acids, total saturated",g,--,--,0.501,1.670
"Fatty acids, total trans",g,--,--,0.000,0.000
"Cholesterol",mg,--,--,0,0
Amino Acids
Other
Ingredients
"ORGANIC WHEAT FLOUR, ORGANIC WHOLE WHEAT FLOUR, ORGANIC HIGH OLEIC SUNFLOWER OIL, AND/OR ORGANIC HIGH OLEIC SAFFLOWER, AND/OR ORGANIC PALM OIL, ORGANIC SUGAR, ORGANIC CRACKED WHEAT, CONTAINS LESS THAN 2% OF EACH OF THE FOLLOWING: ORGANIC CANE SYRUP, ORGANIC CORN STARCH, SEA SALT, ORGANIC MALT EXTRACT, MONOCALCIUM PHOSPHATE, BAKING SODA, ORGANIC ANNATTO EXTRACT COLOR, TOCOPHEROLS PRESERVATIVE." Date available: 09/23/2017 Date last updated by company: 09/23/2017
