Source: USDA Branded Food Products Database Release December 2017 Software v.3.8.6.4 2017-10-02
Report Run at: December 19, 2017 01:47 EST
"Nutrient data for: 45219572, WHEAT SUB ROLLS, UPC: 078742051543"
Food Group:  Branded Food Products Database
Common Name:

Nutrient,Unit,Data points,Std. Error,"1 ROLL = 90.0g",1Value per 100 g,
Proximates
"Energy",kcal,--,--,240,267
"Protein",g,--,--,8.00,8.89
"Total lipid (fat)",g,--,--,3.00,3.33
"Carbohydrate, by difference",g,--,--,46.00,51.11
"Fiber, total dietary",g,--,--,3.0,3.3
"Sugars, total",g,--,--,4.00,4.44
Minerals
"Calcium, Ca",mg,--,--,100,111
"Iron, Fe",mg,--,--,2.50,2.78
"Sodium, Na",mg,--,--,410,456
Vitamins
"Vitamin C, total ascorbic acid",mg,--,--,0.0,0.0
"Thiamin",mg,--,--,0.000,0.000
"Riboflavin",mg,--,--,0.425,0.472
"Niacin",mg,--,--,2.778,3.087
"Vitamin A, IU",IU,--,--,0,0
Lipids
"Fatty acids, total saturated",g,--,--,0.000,0.000
"Fatty acids, total trans",g,--,--,0.000,0.000
"Cholesterol",mg,--,--,0,0
Amino Acids
Other
Ingredients
"FLOUR, WATER, YEAST, WHOLE WHEAT FLOUR, WHEAT BRAN, CRACKED WHEAT BERRIES, SUGAR, SOYBEAN OIL, WHOLE GRAIN OATMEAL, WHEAT GLUTEN, CULTURED WHEAT FLOUR, SALT, RYE FLOUR, BARLEY FLAKES, VINEGAR, CITRIC ACID, CALCIUM SULFATE, MALTED BARLEY FLOUR, WHEAT STARCH, ENRICHMENT [FERROUS SULFATE (IRON), THIAMINE MONONITRATE, RIBOFLAVIN, NIACIN, FOLIC ACID], ASCORBIC ACID." Date available: 07/14/2017 Date last updated by company: 07/14/2017
