Source: USDA Branded Food Products Database Release December 2017 Software v.3.8.6.4 2017-10-02
Report Run at: December 19, 2017 01:44 EST
"Nutrient data for: 45258765, WHEAT FLOUR TORTILLA, UPC: 7506302800025"
Food Group:  Branded Food Products Database
Common Name:

Nutrient,Unit,Data points,Std. Error,"1 PIECES = 25.0g",1Value per 100 g,
Proximates
"Energy",kcal,--,--,80,320
"Protein",g,--,--,2.00,8.00
"Total lipid (fat)",g,--,--,2.50,10.00
"Carbohydrate, by difference",g,--,--,12.00,48.00
"Fiber, total dietary",g,--,--,1.0,4.0
"Sugars, total",g,--,--,0.00,0.00
Minerals
"Calcium, Ca",mg,--,--,20,80
"Iron, Fe",mg,--,--,0.79,3.17
"Sodium, Na",mg,--,--,150,600
Vitamins
"Vitamin C, total ascorbic acid",mg,--,--,0.0,0.0
"Vitamin A, IU",IU,--,--,0,0
Lipids
"Fatty acids, total saturated",g,--,--,1.500,6.000
"Fatty acids, total trans",g,--,--,0.000,0.000
"Cholesterol",mg,--,--,0,0
Amino Acids
Other
Ingredients
"WHEAT FLOUR, WATER,MARGARINE (PALM OIL, HYDROGENATED PALM OLEIN, SOYBEAN OIL, SODIUM BENZOATE, ANNATTO EXTRACT), WHEAT TORTILLA ADDITIVE (SODIUM BICARBONATE, PHOSPHATES, CARBOXYMETHLCELLULSOSES), SALTED BUTTER (MILKFAT, WATER, NONFAT DRY MILK, IODIZED SALT, MONO AND DIGLYCERIDES, SOY LECITHIN), PRESERVATIVE (WATER, SORBIC ACID, CARBOXYMETHYLCELLULOSES, PROPIONIC ACID), SALT." Date available: 07/14/2017 Date last updated by company: 07/14/2017
