Source: USDA Branded Food Products Database Release December 2017 Software v.3.8.6.4 2017-10-02
Report Run at: December 19, 2017 01:41 EST
"Nutrient data for: 45178792, WHEAT BREAD, UPC: 713733106955"
Food Group:  Branded Food Products Database
Common Name:

Nutrient,Unit,Data points,Std. Error,"2.0 SLICES = 45.0g",1Value per 100 g,
Proximates
"Energy",kcal,--,--,120,267
"Protein",g,--,--,4.00,8.89
"Total lipid (fat)",g,--,--,2.00,4.44
"Carbohydrate, by difference",g,--,--,23.00,51.11
"Fiber, total dietary",g,--,--,1.0,2.2
"Sugars, total",g,--,--,2.00,4.44
Minerals
"Calcium, Ca",mg,--,--,60,133
"Iron, Fe",mg,--,--,2.00,4.44
"Sodium, Na",mg,--,--,220,489
Vitamins
"Vitamin C, total ascorbic acid",mg,--,--,0.0,0.0
"Thiamin",mg,--,--,0.450,1.000
"Riboflavin",mg,--,--,0.170,0.378
"Niacin",mg,--,--,3.334,7.409
"Vitamin A, IU",IU,--,--,0,0
Lipids
"Fatty acids, total saturated",g,--,--,0.000,0.000
"Fatty acids, total monounsaturated",g,--,--,0.000,0.000
"Fatty acids, total polyunsaturated",g,--,--,0.500,1.110
"Fatty acids, total trans",g,--,--,0.000,0.000
"Cholesterol",mg,--,--,0,0
Amino Acids
Other
Ingredients
"ENRICHED UNBLEACHED FLOUR [WHEAT FLOUR, MALTED BARLEY FLOUR, REDUCED IRON, THIAMINE MONONITRATE (VITAMIN B1), RIBOFLAVIN (VITAMIN B2), NIACIN (VITAMIN B3), FOLIC ACID], WATER, WHOLE GRAIN WHEAT FLOUR, YEAST, HIGH FRUCTOSE CORN SYRUP, SOYBEAN OIL, WHEAT BRAN, SALT, WHEAT GLUTEN, MOLASSES, MONOGLYCERIDES, SODIUM STEAROYL LACTYLATE, CALCIUM PROPIONATE (A PRESERVATIVE), CARAMEL COLOR, VINEGAR, CALCIUM SULFATE, CITRIC ACID, ASCORBIC ACID, SOY LECITHIN." Date available: 07/14/2017 Date last updated by company: 07/14/2017
