Source: USDA Branded Food Products Database Release December 2017 Software v.3.8.6.4 2017-10-02
Report Run at: December 19, 2017 01:41 EST
"Nutrient data for: 45278172, WHEAT BERRY BREAD, UPC: 041130483431"
Food Group:  Branded Food Products Database
Common Name:

Nutrient,Unit,Data points,Std. Error,"1 SLICE = 34.0g",1Value per 100 g,
Proximates
"Energy",kcal,--,--,80,235
"Protein",g,--,--,3.00,8.82
"Total lipid (fat)",g,--,--,1.00,2.94
"Carbohydrate, by difference",g,--,--,17.00,50.00
"Fiber, total dietary",g,--,--,1.0,2.9
"Sugars, total",g,--,--,2.00,5.88
Minerals
"Calcium, Ca",mg,--,--,20,59
"Iron, Fe",mg,--,--,1.06,3.11
"Sodium, Na",mg,--,--,180,529
Vitamins
"Vitamin C, total ascorbic acid",mg,--,--,0.0,0.0
"Thiamin",mg,--,--,0.000,0.000
"Riboflavin",mg,--,--,0.100,0.294
"Niacin",mg,--,--,1.176,3.459
"Vitamin A, IU",IU,--,--,0,0
Lipids
"Fatty acids, total saturated",g,--,--,0.000,0.000
"Fatty acids, total trans",g,--,--,0.000,0.000
"Cholesterol",mg,--,--,0,0
Amino Acids
Other
Ingredients
"ENRICHED UNBLEACHED FLOUR (WHEAT FLOUR, MALTED BARLEY FLOUR, NIACIN, REDUCED IRON, THIAMINE MONONITRATE, RIBOFLAVIN, FOLIC ACID), WATER, COARSE GROUND WHOLE WHEAT FLOUR, SUGAR, WHEAT BRAN, CONTAINS 2% OR LESS OF THE FOLLOWING: SOYBEAN OIL, WHEAT GLUTEN, SALT, YEAST, HONEY, MOLASSES, DOUGH CONDITIONERS (MONOGLYCERIDES, SODIUM STEAROYL LACTYLATE, ASCORBIC ACID, CALCIUM SULFATE, ENZYMES), CARAMEL COLOR, MONOCALCIUM PHOSPHATE, CALCIUM PROPIONATE (PRESERVATIVE)." Date available: 07/14/2017 Date last updated by company: 07/14/2017
