Source: USDA Branded Food Products Database Release December 2017 Software v.3.8.6.4 2017-10-02
Report Run at: December 19, 2017 01:50 EST
"Nutrient data for: 45024904, WHIDNEY ISLAND ICE CREAM COMPANY, ALL NATURAL ICE CREAM BARS, VANILLA, UPC: 856510001651"
Food Group:  Branded Food Products Database
Common Name:

Nutrient,Unit,Data points,Std. Error,"1 BAR = 92.0g",1Value per 100 g,
Proximates
"Energy",kcal,--,--,310,337
"Protein",g,--,--,4.00,4.35
"Total lipid (fat)",g,--,--,23.00,25.00
"Carbohydrate, by difference",g,--,--,25.00,27.17
"Fiber, total dietary",g,--,--,1.0,1.1
"Sugars, total",g,--,--,24.00,26.09
Minerals
"Calcium, Ca",mg,--,--,80,87
"Iron, Fe",mg,--,--,0.72,0.78
"Sodium, Na",mg,--,--,50,54
Vitamins
"Vitamin C, total ascorbic acid",mg,--,--,0.0,0.0
"Vitamin A, IU",IU,--,--,750,815
Lipids
"Fatty acids, total saturated",g,--,--,14.002,15.220
"Fatty acids, total trans",g,--,--,0.000,0.000
"Cholesterol",mg,--,--,75,82
Amino Acids
Other
Ingredients
"RBST FREE CREAM, WHOLE MILK, ORGANIC SUGAR, NON-FAT MILK POWDER, EGG YOLKS, GUAR GUM, CARRAGEENAN (NATURAL STABILIZER), VANILLA (VANILLA BEAN, WATER, ALCOHOL). CHOCOLATE (SEMISWEET CHOCOLATE [SUGAR, CHOCOLATE LIQUOR PROCESSED WITH POTASSIUM CARBONATE, COCOA BUTTER] COCONUT OIL, SOYA LECITHIN AND PURE VANILLA)." Date available: 07/14/2017 Date last updated by company: 07/14/2017
