Source: USDA Branded Food Products Database Release December 2017 Software v.3.8.6.4 2017-10-02
Report Run at: December 19, 2017 01:53 EST
"Nutrient data for: 45066663, WHIPPED PEANUT SPREAD, UPC: 072457660113"
Food Group:  Branded Food Products Database
Common Name:

Nutrient,Unit,Data points,Std. Error,"2.0 Tbsp = 28.0g",1Value per 100 g,
Proximates
"Energy",kcal,--,--,0,0
"Protein",g,--,--,0.00,0.00
"Total lipid (fat)",g,--,--,0.00,0.00
"Carbohydrate, by difference",g,--,--,0.00,0.00
"Fiber, total dietary",g,--,--,0.0,0.0
"Sugars, total",g,--,--,0.00,0.00
Minerals
"Sodium, Na",mg,--,--,210,750
Vitamins
Lipids
"Fatty acids, total saturated",g,--,--,0.000,0.000
"Fatty acids, total trans",g,--,--,0.000,0.000
"Cholesterol",mg,--,--,0,0
Amino Acids
Other
Ingredients
"*PURIFIED WATER, VEGETABLE FIBER, SEA SALT, XANTHAN GUM, NATURAL ROASTED PEANUT FLAVOR, NATURAL PEANUT EXTRACT, CARAMEL COLOR, LACTIC ACID, SODIUM BENZOATE (TO PRESERVE FRESHNESS) SUCRALOSE, FD &C YELLOW #5, YELLOW #6." Date available: 10/13/2017 Date last updated by company: 10/13/2017
