Source: USDA Branded Food Products Database Release December 2017 Software v.3.8.6.4 2017-10-02
Report Run at: December 19, 2017 01:50 EST
"Nutrient data for: 45173811, WHIPPED CREAM CHEESE SPREAD, UPC: 041268140336"
Food Group:  Branded Food Products Database
Common Name:

Nutrient,Unit,Data points,Std. Error,"2.0 Tbsp = 21.0g",1Value per 100 g,
Proximates
"Energy",kcal,--,--,50,238
"Protein",g,--,--,1.00,4.76
"Total lipid (fat)",g,--,--,4.50,21.43
"Carbohydrate, by difference",g,--,--,2.00,9.52
"Fiber, total dietary",g,--,--,0.0,0.0
"Sugars, total",g,--,--,1.00,4.76
Minerals
"Calcium, Ca",mg,--,--,20,95
"Iron, Fe",mg,--,--,0.00,0.00
"Sodium, Na",mg,--,--,90,429
Vitamins
"Vitamin C, total ascorbic acid",mg,--,--,0.0,0.0
"Vitamin A, IU",IU,--,--,476,2267
Lipids
"Fatty acids, total saturated",g,--,--,3.001,14.290
"Fatty acids, total trans",g,--,--,0.000,0.000
"Cholesterol",mg,--,--,15,71
Amino Acids
Other
Ingredients
"PASTEURIZED MILK AND CREAM, WHEY PROTEIN CONCENTRATE, MODIFIED FOOD STARCH, SALT, CHEESE CULTURE, GUAR GUM, LACTIC ACID, CAROB BEAN GUM, XANTHAN GUM, NATAMYCIN (A NATURAL MOLD INHIBITOR)." Date available: 07/14/2017 Date last updated by company: 07/14/2017
