Source: USDA Branded Food Products Database Release December 2017 Software v.3.8.6.4 2017-10-02
Report Run at: December 19, 2017 01:53 EST
"Nutrient data for: 45055443, WHIPPED TOPPING, UPC: 041497036530"
Food Group:  Branded Food Products Database
Common Name:

Nutrient,Unit,Data points,Std. Error,"2.0 Tbsp = 9.0g",1Value per 100 g,
Proximates
"Energy",kcal,--,--,25,278
"Protein",g,--,--,0.00,0.00
"Total lipid (fat)",g,--,--,1.50,16.67
"Carbohydrate, by difference",g,--,--,2.00,22.22
"Fiber, total dietary",g,--,--,0.0,0.0
"Sugars, total",g,--,--,1.00,11.11
Minerals
"Calcium, Ca",mg,--,--,0,0
"Iron, Fe",mg,--,--,0.00,0.00
"Sodium, Na",mg,--,--,0,0
Vitamins
"Vitamin C, total ascorbic acid",mg,--,--,0.0,0.0
"Vitamin A, IU",IU,--,--,0,0
Lipids
"Fatty acids, total saturated",g,--,--,1.500,16.670
"Fatty acids, total trans",g,--,--,0.000,0.000
"Cholesterol",mg,--,--,0,0
Amino Acids
Other
Ingredients
"WATER, HYDROGENATED VEGETABLE OIL (COCONUT OIL, PALM KERNEL OIL), HIGH FRUCTOSE CORN SYRUP, CORN SYRUP, SKIM MILK, LIGHT CREAM, LESS THAN TWO PERCENT OF SODIUM CASEINATE (FROM MILK), NATURAL FLAVORS, XANTHAN GUM, GUAR GUM,   POLYSORBATE 60, SORBITAN MONOSTEARATE, AND BETA CAROTENE (FOR COLOR)." Date available: 06/24/2017 Date last updated by company: 06/24/2017
