Source: USDA Branded Food Products Database Release December 2017 Software v.3.8.6.4 2017-10-02
Report Run at: December 19, 2017 01:50 EST
"Nutrient data for: 45052906, WHIPPED CREAM CHEESE SPREAD, UPC: 072036540478"
Food Group:  Branded Food Products Database
Common Name:

Nutrient,Unit,Data points,Std. Error,"2.0 Tbsp = 20.0g",1Value per 100 g,
Proximates
"Energy",kcal,--,--,70,350
"Protein",g,--,--,1.00,5.00
"Total lipid (fat)",g,--,--,7.00,35.00
"Carbohydrate, by difference",g,--,--,1.00,5.00
"Fiber, total dietary",g,--,--,0.0,0.0
"Sugars, total",g,--,--,1.00,5.00
Minerals
"Calcium, Ca",mg,--,--,0,0
"Iron, Fe",mg,--,--,0.00,0.00
"Sodium, Na",mg,--,--,65,325
Vitamins
"Vitamin C, total ascorbic acid",mg,--,--,0.0,0.0
"Vitamin A, IU",IU,--,--,500,2500
Lipids
"Fatty acids, total saturated",g,--,--,4.500,22.500
"Fatty acids, total trans",g,--,--,0.000,0.000
"Cholesterol",mg,--,--,20,100
Amino Acids
Other
Ingredients
"PASTEURIZED MILK AND CREAM, CHEESE CULTURE, SALT, STABILIZERS (CARBON BEAN AND/OR XANTHAN AND/OR GUAR GUMS), NATAMYCIN (A NATURAL MOLD INHIBITOR)." Date available: 06/25/2017 Date last updated by company: 06/25/2017
