Source: USDA Branded Food Products Database Release December 2017 Software v.3.8.6.4 2017-10-02
Report Run at: December 19, 2017 01:55 EST
"Nutrient data for: 45289545, WHIPPING CREAM, UPC: 041303025277"
Food Group:  Branded Food Products Database
Common Name:

Nutrient,Unit,Data points,Std. Error,"1 Tbsp = 15.0g",1Value per 100 g,
Proximates
"Energy",kcal,--,--,45,300
"Protein",g,--,--,0.00,0.00
"Total lipid (fat)",g,--,--,4.50,30.00
"Carbohydrate, by difference",g,--,--,1.00,6.67
"Fiber, total dietary",g,--,--,0.0,0.0
"Sugars, total",g,--,--,1.00,6.67
Minerals
"Calcium, Ca",mg,--,--,20,133
"Iron, Fe",mg,--,--,0.00,0.00
"Sodium, Na",mg,--,--,5,33
Vitamins
"Vitamin D",IU,--,--,0,0
Lipids
"Fatty acids, total saturated",g,--,--,3.000,20.000
"Fatty acids, total trans",g,--,--,0.000,0.000
"Cholesterol",mg,--,--,20,133
Amino Acids
Other
Ingredients
"CREAM, MILK, CONTAINS LESS THAN 0.5% OF: CARRAGEENAN, MONO AND DIGLYCERIDES, POLYSORBATE 80." Date available: 09/22/2017 Date last updated by company: 09/22/2017
