Source: USDA Branded Food Products Database Release December 2017 Software v.3.8.6.4 2017-10-02
Report Run at: December 19, 2017 02:05 EST
"Nutrient data for: 45055726, WHITE CHICKEN IN CHIPOTLE SAUCE, UPC: 019722165324"
Food Group:  Branded Food Products Database
Common Name:

Nutrient,Unit,Data points,Std. Error,"1 CONTAINER = 56.0g",1Value per 100 g,
Proximates
"Energy",kcal,--,--,45,80
"Protein",g,--,--,7.00,12.50
"Total lipid (fat)",g,--,--,1.00,1.79
"Carbohydrate, by difference",g,--,--,3.00,5.36
"Fiber, total dietary",g,--,--,0.0,0.0
"Sugars, total",g,--,--,0.00,0.00
Minerals
"Calcium, Ca",mg,--,--,0,0
"Iron, Fe",mg,--,--,0.35,0.63
"Sodium, Na",mg,--,--,330,589
Vitamins
"Vitamin C, total ascorbic acid",mg,--,--,0.0,0.0
"Vitamin A, IU",IU,--,--,98,175
Lipids
"Fatty acids, total saturated",g,--,--,0.000,0.000
"Fatty acids, total trans",g,--,--,0.000,0.000
"Cholesterol",mg,--,--,20,36
Amino Acids
Other
Ingredients
"INGREDIENTS: WHITE CHICKEN MEAT, WATER, SALT, MODIFIED FOOD STARCH, SODIUM PHOSPHATE), SAUCE (WATER, SPICES [INCLUDING CHIPOTLE CHILI PEPPER], MODIFIED CORN STARCH, MALTODEXTRIN, SUGAR, TOMATO POWDER, ONION POWDER, DEXTROSE, SALT, GARLIC POWDER, GREEN BELL PEPPER POWDER, NATURAL FLAVORS [INCLUDING NATURAL SMOKE FLAVOR], XANTHAN GUM)." Date available: 06/24/2017 Date last updated by company: 06/24/2017
