Source: USDA Branded Food Products Database Release December 2017 Software v.3.8.6.4 2017-10-02
Report Run at: December 19, 2017 02:13 EST
"Nutrient data for: 45171961, WHITE ENRICHED BREAD, UPC: 021130184057"
Food Group:  Branded Food Products Database
Common Name:

Nutrient,Unit,Data points,Std. Error,"2.0 SLICES = 47.0g",1Value per 100 g,
Proximates
"Energy",kcal,--,--,120,255
"Protein",g,--,--,3.00,6.38
"Total lipid (fat)",g,--,--,1.00,2.13
"Carbohydrate, by difference",g,--,--,24.00,51.06
"Fiber, total dietary",g,--,--,1.0,2.1
"Sugars, total",g,--,--,3.00,6.38
Minerals
"Calcium, Ca",mg,--,--,40,85
"Iron, Fe",mg,--,--,1.53,3.26
"Sodium, Na",mg,--,--,220,468
Vitamins
"Vitamin C, total ascorbic acid",mg,--,--,0.0,0.0
"Thiamin",mg,--,--,0.470,1.000
"Riboflavin",mg,--,--,0.145,0.308
"Niacin",mg,--,--,1.702,3.621
"Vitamin A, IU",IU,--,--,0,0
Lipids
"Fatty acids, total saturated",g,--,--,0.000,0.000
"Fatty acids, total trans",g,--,--,0.000,0.000
"Cholesterol",mg,--,--,0,0
Amino Acids
Other
Ingredients
"ENRICHED WHEAT FLOUR [FLOUR, MALTED BARLEY FLOUR, REDUCED IRON, NIACIN, THIAMIN MONONITRATE (VITAMIN B1), RIBOFLAVIN (VITAMIN B2), FOLIC ACID], WATER, HIGH FRUCTOSE CORN SYRUP, YEAST, SOYBEAN OIL, SALT, CALCIUM PROPIONATE (PRESERVATIVE), MONOGLYCERIDES, DATEM, CALCIUM SULFATE, SOY LECITHIN, CITRIC ACID, GRAIN VINEGAR, WHEAT GLUTEN, POTASSIUM IODATE, MONOCALCIUM PHOSPHATE." Date available: 07/14/2017 Date last updated by company: 07/14/2017
