Source: USDA Branded Food Products Database Release December 2017 Software v.3.8.6.4 2017-10-02
Report Run at: December 19, 2017 02:14 EST
"Nutrient data for: 45198114, WHITE ENRICHED HOT DOG BUNS, UPC: 075450172980"
Food Group:  Branded Food Products Database
Common Name:

Nutrient,Unit,Data points,Std. Error,"1 BUN = 39.0g",1Value per 100 g,
Proximates
"Energy",kcal,--,--,110,282
"Protein",g,--,--,3.00,7.69
"Total lipid (fat)",g,--,--,1.00,2.56
"Carbohydrate, by difference",g,--,--,20.00,51.28
"Fiber, total dietary",g,--,--,1.0,2.6
"Sugars, total",g,--,--,2.00,5.13
Minerals
"Calcium, Ca",mg,--,--,40,103
"Iron, Fe",mg,--,--,1.38,3.55
"Sodium, Na",mg,--,--,180,462
Vitamins
"Vitamin C, total ascorbic acid",mg,--,--,0.0,0.0
"Thiamin",mg,--,--,0.000,0.000
"Riboflavin",mg,--,--,0.102,0.262
"Niacin",mg,--,--,1.538,3.944
"Vitamin A, IU",IU,--,--,0,0
Lipids
"Fatty acids, total saturated",g,--,--,0.000,0.000
"Fatty acids, total monounsaturated",g,--,--,0.000,0.000
"Fatty acids, total polyunsaturated",g,--,--,0.000,0.000
"Fatty acids, total trans",g,--,--,0.000,0.000
"Cholesterol",mg,--,--,0,0
Amino Acids
Other
Ingredients
"ENRICHED WHEAT FLOUR (FLOUR, MALTED BARLEY FLOUR, REDUCED IRON, NIACIN, THIAMIN MONONITRATE {VITAMIN B1], RIBOFLAVIN [VITAMIN B2], FOLIC ACID), WATER, HIGH FRUCTOSE CORN SYRUP, YEAST, SOYBEAN OIL, WHEAT GLUTEN SALT, MONOGLYCERIDES, CALCIUM PROPIONATE (PRESERVATIVE), DATEM GRAIN VINEGAR, CALCIUM SULFATE, CITRIC ACID, CORNSTARCH, SOY LECITHIN, POTASSIUM IODATE, MONOCALCIUM PHOSPHATE, CALCIUM PHOSPHATE." Date available: 07/14/2017 Date last updated by company: 07/14/2017
