Source: USDA Branded Food Products Database Release December 2017 Software v.3.8.6.4 2017-10-02
Report Run at: December 19, 2017 02:27 EST
"Nutrient data for: 45285140, WHITE SANDWICH SLICES, UPC: 070038644637"
Food Group:  Branded Food Products Database
Common Name:

Nutrient,Unit,Data points,Std. Error,"1 SLICE = 19.0g",1Value per 100 g,
Proximates
"Energy",kcal,--,--,45,237
"Protein",g,--,--,0.00,0.00
"Total lipid (fat)",g,--,--,3.50,18.42
"Carbohydrate, by difference",g,--,--,3.00,15.79
"Fiber, total dietary",g,--,--,0.0,0.0
"Sugars, total",g,--,--,1.00,5.26
Minerals
"Calcium, Ca",mg,--,--,150,789
"Iron, Fe",mg,--,--,0.00,0.00
"Sodium, Na",mg,--,--,200,1053
Vitamins
"Vitamin C, total ascorbic acid",mg,--,--,0.0,0.0
"Vitamin A, IU",IU,--,--,0,0
Lipids
"Fatty acids, total saturated",g,--,--,1.499,7.890
"Fatty acids, total trans",g,--,--,0.000,0.000
"Cholesterol",mg,--,--,0,0
Amino Acids
Other
Ingredients
"WATER, INTERESTERIFIED SOYBEAN OIL, MODIFIED FOOD STARCH, WHEY, SALT, CONTAINS 2% OR LESS OF CALCIUM PHOSPHATE, CAROB BEAN GUM, CARRAGEENAN, COLOR ADDED, ENZYME-MODIFIED CHEESE (MILK, WATER, SALT, SODIUM CITRATE, MILKFAT, CHEESE CULTURE, SORBIC ACID [PRESERVATIVE], ENZYMES), GELATIN, GUAR GUM, NATURAL FLAVOR, SODIUM PHOSPHATE, SORBIC ACID (PRESERVATIVE), XANTHAN GUM." Date available: 07/14/2017 Date last updated by company: 07/14/2017
