Source: USDA Branded Food Products Database Release December 2017 Software v.3.8.6.4 2017-10-02
Report Run at: December 19, 2017 01:58 EST
"Nutrient data for: 45221879, WHITE BASMATI RICE, UPC: 853087004351"
Food Group:  Branded Food Products Database
Common Name:

Nutrient,Unit,Data points,Std. Error,"4.4 ONZ = 125.0g",1Value per 100 g,
Proximates
"Energy",kcal,--,--,200,160
"Protein",g,--,--,5.00,4.00
"Total lipid (fat)",g,--,--,3.00,2.40
"Carbohydrate, by difference",g,--,--,37.00,29.60
"Fiber, total dietary",g,--,--,2.0,1.6
"Sugars, total",g,--,--,0.00,0.00
Minerals
"Calcium, Ca",mg,--,--,0,0
"Iron, Fe",mg,--,--,0.00,0.00
"Sodium, Na",mg,--,--,35,28
Vitamins
"Vitamin C, total ascorbic acid",mg,--,--,0.0,0.0
"Vitamin A, IU",IU,--,--,0,0
Lipids
"Fatty acids, total saturated",g,--,--,0.000,0.000
"Fatty acids, total trans",g,--,--,0.000,0.000
"Cholesterol",mg,--,--,0,0
Amino Acids
Other
Ingredients
"COOKED BASMATI RICE (97%), CANOLA OIL (3%)." Date available: 08/30/2017 Date last updated by company: 08/30/2017
