Source: USDA Branded Food Products Database Release December 2017 Software v.3.8.6.4 2017-10-02
Report Run at: December 19, 2017 02:22 EST
"Nutrient data for: 45220216, WHITE POLENTA WITH TRUFFLE, UPC: 8005417012044"
Food Group:  Branded Food Products Database
Common Name:

Nutrient,Unit,Data points,Std. Error,"83.0 GRM = 83.0g",1Value per 100 g,
Proximates
"Energy",kcal,--,--,273,329
"Protein",g,--,--,5.10,6.14
"Total lipid (fat)",g,--,--,0.40,0.48
"Carbohydrate, by difference",g,--,--,60.50,72.89
"Fiber, total dietary",g,--,--,1.0,1.2
"Sugars, total",g,--,--,0.10,0.12
Minerals
"Calcium, Ca",mg,--,--,18,22
"Iron, Fe",mg,--,--,1.52,1.83
"Sodium, Na",mg,--,--,27,33
Vitamins
"Vitamin C, total ascorbic acid",mg,--,--,0.0,0.0
"Vitamin A, IU",IU,--,--,0,0
Lipids
"Fatty acids, total saturated",g,--,--,0.116,0.140
"Fatty acids, total trans",g,--,--,0.000,0.000
"Cholesterol",mg,--,--,0,0
Amino Acids
Other
Ingredients
"WHITE INSTANT POLENTA, PORCINI MUSHROOMS, TRUFFLE 0,5%, IODIZED SALT, VEGETABLE BROTH, TRUFFLE AROMA." Date available: 09/27/2017 Date last updated by company: 09/27/2017
