Source: USDA Branded Food Products Database Release December 2017 Software v.3.8.6.4 2017-10-02
Report Run at: December 19, 2017 02:00 EST
"Nutrient data for: 45292455, WHITE BREAD, UPC: 011110010094"
Food Group:  Branded Food Products Database
Common Name:

Nutrient,Unit,Data points,Std. Error,"1 SLICE = 29.0g",1Value per 100 g,
Proximates
"Energy",kcal,--,--,70,241
"Protein",g,--,--,2.00,6.90
"Total lipid (fat)",g,--,--,1.00,3.45
"Carbohydrate, by difference",g,--,--,14.00,48.28
"Fiber, total dietary",g,--,--,0.0,0.0
"Sugars, total",g,--,--,1.00,3.45
Minerals
"Calcium, Ca",mg,--,--,0,0
"Iron, Fe",mg,--,--,1.00,3.45
"Sodium, Na",mg,--,--,140,483
Vitamins
"Vitamin D",IU,--,--,0,0
Lipids
"Fatty acids, total saturated",g,--,--,0.000,0.000
"Fatty acids, total trans",g,--,--,0.000,0.000
"Cholesterol",mg,--,--,0,0
Amino Acids
Other
Ingredients
"ORGANIC UNBLEACHED FLOUR, WATER, ORGANIC EVAPORATED CANE SUGAR, YEAST, CONTAINS 2% OR LESS OF THE FOLLOWING: ORGANIC SOYBEAN OIL, ORGANIC CULTURED WHEAT FLOUR, SEA SALT, ORGANIC SOY FLOUR, ENZYMES, ORGANIC VINEGAR, ASCORBIC ACID." Date available: 09/23/2017 Date last updated by company: 09/23/2017
