Source: USDA Branded Food Products Database Release December 2017 Software v.3.8.6.4 2017-10-02
Report Run at: December 19, 2017 01:57 EST
"Nutrient data for: 45172809, WHITE AMERICAN SLICES, UPC: 021130048977"
Food Group:  Branded Food Products Database
Common Name:

Nutrient,Unit,Data points,Std. Error,"1 SLICE = 19.0g",1Value per 100 g,
Proximates
"Energy",kcal,--,--,45,237
"Protein",g,--,--,3.00,15.79
"Total lipid (fat)",g,--,--,2.50,13.16
"Carbohydrate, by difference",g,--,--,2.00,10.53
"Fiber, total dietary",g,--,--,0.0,0.0
"Sugars, total",g,--,--,2.00,10.53
Minerals
"Calcium, Ca",mg,--,--,150,789
"Iron, Fe",mg,--,--,0.00,0.00
"Sodium, Na",mg,--,--,300,1579
Vitamins
"Vitamin C, total ascorbic acid",mg,--,--,0.0,0.0
"Vitamin A, IU",IU,--,--,263,1384
Lipids
"Fatty acids, total saturated",g,--,--,1.499,7.890
"Fatty acids, total trans",g,--,--,0.000,0.000
"Cholesterol",mg,--,--,10,53
Amino Acids
Other
Ingredients
"AMERICAN CHEESE (MILK, CHEESE CULTURES, SALT, ENZYMES), WATER, SKIM MILK CHEESE (SKIM MILK, CHEESE CULTURE, SALT, ENZYMES), WHEY, MILK PROTEIN CONCENTRATE, SODIUM CITRATE, TRICALCIUM PHOSPHATE, SALT, SORBIC ACID (PRESERVATIVE), VITAMIN D3 AND VITAMIN A PALMITATE." Date available: 07/14/2017 Date last updated by company: 07/14/2017
