Source: USDA Branded Food Products Database Release December 2017 Software v.3.8.6.4 2017-10-02
Report Run at: December 19, 2017 02:30 EST
"Nutrient data for: 45269937, WHITE TRUFFLE EXTRA VIRGIN OLIVE OIL, UPC: 8033224176024"
Food Group:  Branded Food Products Database
Common Name:

Nutrient,Unit,Data points,Std. Error,"1 Tbsp = 15.0g",1Value per 100 g,
Proximates
"Energy",kcal,--,--,120,800
"Protein",g,--,--,0.00,0.00
"Total lipid (fat)",g,--,--,14.00,93.33
Minerals
"Sodium, Na",mg,--,--,0,0
Vitamins
Lipids
Amino Acids
Other
Ingredients
"EXTRA VIRGIN OLIVE OIL, WHITE TRUFFLES (TUBER MAGNATUM PICO) 0, 1%, FLAVORING." Date available: 10/19/2017 Date last updated by company: 10/19/2017
