Source: USDA Branded Food Products Database Release December 2017 Software v.3.8.6.4 2017-10-02
Report Run at: December 19, 2017 01:59 EST
"Nutrient data for: 45204781, WHITE BEAN & SPINACH SOUP, UPC: 5051379095918"
Food Group:  Branded Food Products Database
Common Name:

Nutrient,Unit,Data points,Std. Error,"1 CONTAINER = 312.0g",1Value per 100 g,
Proximates
"Energy",kcal,--,--,100,32
"Protein",g,--,--,2.00,0.64
"Total lipid (fat)",g,--,--,0.50,0.16
"Carbohydrate, by difference",g,--,--,18.00,5.77
"Fiber, total dietary",g,--,--,5.9,1.9
"Sugars, total",g,--,--,3.99,1.28
Minerals
"Calcium, Ca",mg,--,--,59,19
"Iron, Fe",mg,--,--,1.40,0.45
"Sodium, Na",mg,--,--,811,260
Vitamins
"Vitamin C, total ascorbic acid",mg,--,--,14.0,4.5
"Vitamin A, IU",IU,--,--,2356,755
Lipids
"Fatty acids, total saturated",g,--,--,0.000,0.000
"Fatty acids, total trans",g,--,--,0.000,0.000
"Cholesterol",mg,--,--,0,0
Amino Acids
Other
Ingredients
"WATER, TOMATOES (TOMATO, TOMATO JUICE, CITRIC ACID, CALCIUM CHLORIDE), CANNELLINI BEANS (WHITE KIDNEY BEANS, WATER, SALT), SPINACH, PARSNIP, CARROT, ZUCCHINI, CELERY, ONION, GARLIC PUREE, CORN STARCH, SALT, VEGETABLE BASE [VEGETABLE JUICES (TOMATO, MUSHROOM ONION, CARROT, CELERY, SUNFLOWER OIL), YEAST EXTRACT, SALT], OLIVE OIL, THYME, SAGE, BLACK PEPPER." Date available: 09/27/2017 Date last updated by company: 09/27/2017
