Source: USDA Branded Food Products Database Release December 2017 Software v.3.8.6.4 2017-10-02
Report Run at: December 19, 2017 01:59 EST
"Nutrient data for: 45263326, WHITE BREAD LOAVES, UPC: 070022007004"
Food Group:  Branded Food Products Database
Common Name:

Nutrient,Unit,Data points,Std. Error,"1 -1"""" SLICE, PER LOAF 9 = 50.0g",1Value per 100 g,
Proximates
"Energy",kcal,--,--,120,240
"Protein",g,--,--,3.00,6.00
"Total lipid (fat)",g,--,--,1.50,3.00
"Carbohydrate, by difference",g,--,--,24.00,48.00
"Fiber, total dietary",g,--,--,1.0,2.0
"Sugars, total",g,--,--,2.00,4.00
Minerals
"Calcium, Ca",mg,--,--,20,40
"Iron, Fe",mg,--,--,1.44,2.88
"Sodium, Na",mg,--,--,230,460
Vitamins
"Vitamin C, total ascorbic acid",mg,--,--,0.0,0.0
"Vitamin A, IU",IU,--,--,0,0
Lipids
"Fatty acids, total saturated",g,--,--,0.000,0.000
"Fatty acids, total trans",g,--,--,0.000,0.000
"Cholesterol",mg,--,--,0,0
Amino Acids
Other
Ingredients
"UNBLEACHED ENRICHED WHITE FLOUR (WHEAT FLOUR, MALTED BARLEY FLOUR, NIACIN, FERROUS SULFATE OR REDUCED IRON, THIAMIN MONONITRATE, RIBOFLAVIN, FOLIC ACID), WATER, YEAST, GRANULATED SUGAR, SOYBEAN OIL, SALT, MALT, SODIUM STEAROYL LACTYLATE, YEAST NUTRIENTS (CALCIUM SULFATE, AMMONIUM CHLORIDE), ASCORBIC ACID, ENZYME (ADDED FOR IMPROVED BAKING)." Date available: 07/14/2017 Date last updated by company: 07/14/2017
