Source: USDA Branded Food Products Database Release December 2017 Software v.3.8.6.4 2017-10-02
Report Run at: December 19, 2017 02:11 EST
"Nutrient data for: 45236450, WHITE CRANBERRY PEACH COCKTAIL IN A BLEND WITH GRAPE JUICE, UPC: 041497256990"
Food Group:  Branded Food Products Database
Common Name:

Nutrient,Unit,Data points,Std. Error,"8.0 OZA = 240.0g",1Value per 100 g,
Proximates
"Energy",kcal,--,--,110,46
"Protein",g,--,--,0.00,0.00
"Total lipid (fat)",g,--,--,0.00,0.00
"Carbohydrate, by difference",g,--,--,27.00,11.25
"Sugars, total",g,--,--,27.00,11.25
Minerals
"Sodium, Na",mg,--,--,36,15
Vitamins
"Vitamin C, total ascorbic acid",mg,--,--,60.0,25.0
Lipids
"Fatty acids, total saturated",g,--,--,0.000,0.000
"Fatty acids, total trans",g,--,--,0.000,0.000
"Cholesterol",mg,--,--,0,0
Amino Acids
Other
Ingredients
"WATER, GRAPE JUICE FROM CONCENTRATE, CANE OR BEET SUGAR, CLARIFIED PEACH JUICE FROM CONCENTRATE, WHITE CRANBERRY JUICE FROM CONCENTRATE, CITRIC ACID, NATURAL FLAVORS, ASCORBIC ACID (VITAMIN C), SODIUM CITRATE." Date available: 06/25/2017 Date last updated by company: 06/25/2017
