Source: USDA Branded Food Products Database Release December 2017 Software v.3.8.6.4 2017-10-02
Report Run at: December 19, 2017 02:18 EST
"Nutrient data for: 45207228, WHITE ICE CREAM CONE CAKE, UPC: 011110458759"
Food Group:  Branded Food Products Database
Common Name:

Nutrient,Unit,Data points,Std. Error,"0.125 CAKE = 85.0g",1Value per 100 g,
Proximates
"Energy",kcal,--,--,370,435
"Protein",g,--,--,3.00,3.53
"Total lipid (fat)",g,--,--,17.00,20.00
"Carbohydrate, by difference",g,--,--,53.00,62.35
"Fiber, total dietary",g,--,--,1.0,1.2
"Sugars, total",g,--,--,41.00,48.24
Minerals
"Calcium, Ca",mg,--,--,20,24
"Iron, Fe",mg,--,--,0.68,0.80
"Sodium, Na",mg,--,--,340,400
Vitamins
"Vitamin C, total ascorbic acid",mg,--,--,0.0,0.0
"Vitamin A, IU",IU,--,--,0,0
Lipids
"Fatty acids, total saturated",g,--,--,4.003,4.710
"Fatty acids, total trans",g,--,--,0.000,0.000
"Cholesterol",mg,--,--,25,29
Amino Acids
Other
Ingredients
"CAKE - SUGAR, ENRICHED BLEACHED WHEAT FLOUR (BLEACHED WHEAT FLOUR, NIACIN, REDUCED IRON, THIAMINE MONONITRATE, RIBOFLAVIN, FOLIC ACID), WATER, SOYBEAN OIL, EGGS, EGG WHITES, MODIFIED CORN STARCH. CONTAINS 2% OR LESS OF PARTIALLY HYDROGENATED SOYBEAN AND COTTONSEED OIL, NONFAT MILK, SALT, LEAVENING (SODIUM ACID PYROPHOSPHATE, SODIUM BICARBONATE, CORN STARCH, MONOCALCIUM PHOSPHATE), CORN STARCH, VITAL WHEAT GLUTEN, EMULSIFIERS (SORBITAN MONOSTEARATE, MONO AND DIGLYCERIDES, POLYSORBATE 60, SODIUM STEAROYL LACTYLATE, SOY LECITHIN), DEXTROSE, ANNATTO COLOR, ARTIFICIAL AND NATURAL FLAVORS. ICING - SUGAR, VEGETABLE SHORTENING (INTERESTERFIED SOYBEAN OIL, SOYBEAN OIL, HYDROGENATED COTTONSEED OIL, MONO- AND DIGLYCERIDES, POLYSORBATE 60, VEGETABLE OIL (PALM, CANOLA), CORN SYRUP, HIGH FRUCTOSE CORN SYRUP, COCOA (PROCESSED WITH ALKALI), WATER. CONTAINS LESS THAN 2% OF SALT, SWEETENED CONDENSED MILK (MILK, SUGAR), CITRIC ACID, CORNSTARCH, NATURAL AND ARTIFICIAL FLAVOR, DEXTROSE, SOY LECITHIN, TITANIUM DIOXIDE (FOR COLOR), POTASSIUM SORBATE (PRESERVATIVE), SEQUINS ALSO CONTAIN SUGAR. RICE FLOUR, CORN STARCH, GUM ARABIC, XANTHAN GUM, TITANIUM DIOXIDE (FOR COLOR), YELLOW 5, YELLOW 6, BLUE 1, RED 3, RED 40, BLUE 1 LAKE, POLYSORBATE 60." Date available: 10/08/2017 Date last updated by company: 10/08/2017
