Source: USDA Branded Food Products Database Release December 2017 Software v.3.8.6.4 2017-10-02
Report Run at: December 19, 2017 03:19 EST
"Nutrient data for: 45315678, WHOLE GRAIN PASTA, UPC: 04656701662"
Food Group:  Branded Food Products Database
Common Name:

Nutrient,Unit,Data points,Std. Error,"0.66 cup = 56.0g",1Value per 100 g,
Proximates
"Energy",kcal,--,--,200,357
"Protein",g,--,--,7.00,12.50
"Total lipid (fat)",g,--,--,1.50,2.68
"Carbohydrate, by difference",g,--,--,41.00,73.21
"Fiber, total dietary",g,--,--,6.0,10.7
"Sugars, total",g,--,--,2.00,3.57
Minerals
"Calcium, Ca",mg,--,--,20,36
"Iron, Fe",mg,--,--,4.50,8.04
"Sodium, Na",mg,--,--,5,9
Vitamins
"Vitamin C, total ascorbic acid",mg,--,--,0.0,0.0
"Thiamin",mg,--,--,0.560,1.000
"Riboflavin",mg,--,--,0.134,0.239
"Niacin",mg,--,--,2.946,5.261
"Vitamin A, IU",IU,--,--,0,0
Lipids
"Fatty acids, total saturated",g,--,--,0.000,0.000
"Fatty acids, total monounsaturated",g,--,--,0.000,0.000
"Fatty acids, total polyunsaturated",g,--,--,0.498,0.890
"Fatty acids, total trans",g,--,--,0.000,0.000
"Cholesterol",mg,--,--,0,0
Amino Acids
Other
Ingredients
"WHOLE DURUM WHEAT FLOUR, ENRICHED SEMOLINA (SEMOLINA, NIACIN, FERROUS SULFATE [IRON], THIAMINE MONONITRATE, RIBOFLAVIN, FOLIC ACID), OAT FIBER." Date available: 07/14/2017 Date last updated by company: 07/14/2017
