Source: USDA Branded Food Products Database Release December 2017 Software v.3.8.6.4 2017-10-02
Report Run at: December 19, 2017 03:10 EST
"Nutrient data for: 45252767, WHOLE FOODS MARKET, VEGGIE CHIPS, UPC: 076958621376"
Food Group:  Branded Food Products Database
Common Name:

Nutrient,Unit,Data points,Std. Error,"0.33 cup = 30.0g",1Value per 100 g,
Proximates
"Energy",kcal,--,--,140,467
"Protein",g,--,--,1.00,3.33
"Total lipid (fat)",g,--,--,4.00,13.33
"Carbohydrate, by difference",g,--,--,24.00,80.00
"Fiber, total dietary",g,--,--,2.0,6.7
"Sugars, total",g,--,--,4.00,13.33
Minerals
"Calcium, Ca",mg,--,--,20,67
"Iron, Fe",mg,--,--,0.60,2.00
"Sodium, Na",mg,--,--,130,433
Vitamins
"Vitamin C, total ascorbic acid",mg,--,--,2.0,6.7
"Vitamin A, IU",IU,--,--,3334,11112
Lipids
"Fatty acids, total saturated",g,--,--,0.000,0.000
"Fatty acids, total trans",g,--,--,0.000,0.000
"Cholesterol",mg,--,--,0,0
Amino Acids
Other
Ingredients
"SWEET POTATO, SQUASH, TARO, CARROT, GREEN BEAN, PURPLE SWEET POTATO, NON-HYDROGENATED CANOLA OIL, DEXTRIN, SEA SALT." Date available: 07/14/2017 Date last updated by company: 07/14/2017
