Source: USDA Branded Food Products Database Release December 2017 Software v.3.8.6.4 2017-10-02
Report Run at: December 19, 2017 03:16 EST
"Nutrient data for: 45330288, WHOLE GRAIN GRANOLA, UPC: 072431016646"
Food Group:  Branded Food Products Database
Common Name:

Nutrient,Unit,Data points,Std. Error,"0.5 cup = 60.0g",1Value per 100 g,
Proximates
"Energy",kcal,--,--,280,467
"Protein",g,--,--,8.00,13.33
"Total lipid (fat)",g,--,--,12.00,20.00
"Carbohydrate, by difference",g,--,--,37.00,61.67
"Fiber, total dietary",g,--,--,4.0,6.7
"Sugars, total",g,--,--,10.00,16.67
Minerals
"Calcium, Ca",mg,--,--,57,95
"Iron, Fe",mg,--,--,2.00,3.33
"Potassium, K",mg,--,--,280,467
"Sodium, Na",mg,--,--,45,75
Vitamins
"Vitamin D",IU,--,--,0,0
Lipids
"Fatty acids, total saturated",g,--,--,2.502,4.170
"Fatty acids, total trans",g,--,--,0.000,0.000
"Cholesterol",mg,--,--,0,0
Amino Acids
Other
Ingredients
"WHOLE ROLLED OATS, HONEY, EXPELLER PRESSED CANOLA OIL, BRAZIL NUTS, CASHEWS, DRY WHEY*, COCONUT (UNSULPHURED), CINNAMON." Date available: 10/13/2017 Date last updated by company: 10/13/2017
