Source: USDA Branded Food Products Database Release December 2017 Software v.3.8.6.4 2017-10-02
Report Run at: December 19, 2017 03:45 EST
"Nutrient data for: 45195081, WHOLE PELLED TOMATOES WITH BASIL, UPC: 03003408589"
Food Group:  Branded Food Products Database
Common Name:

Nutrient,Unit,Data points,Std. Error,"0.5 cup = 123.0g",1Value per 100 g,
Proximates
"Energy",kcal,--,--,30,24
"Protein",g,--,--,1.00,0.81
"Total lipid (fat)",g,--,--,0.00,0.00
"Carbohydrate, by difference",g,--,--,7.00,5.69
"Fiber, total dietary",g,--,--,2.0,1.6
"Sugars, total",g,--,--,5.01,4.07
Minerals
"Calcium, Ca",mg,--,--,60,49
"Iron, Fe",mg,--,--,0.76,0.62
"Sodium, Na",mg,--,--,34,28
Vitamins
"Vitamin C, total ascorbic acid",mg,--,--,22.1,18.0
"Vitamin A, IU",IU,--,--,1321,1074
Lipids
"Fatty acids, total saturated",g,--,--,0.000,0.000
"Fatty acids, total trans",g,--,--,0.000,0.000
"Cholesterol",mg,--,--,0,0
Amino Acids
Other
Ingredients
"SAN MARZANO PLUM PEELED TOMATOES, SAN MARZANO TOMATO JUICE, SALT, BASIL LEAF, CITRIC ACID (AS ACIDITY REGULATOR)." Date available: 07/14/2017 Date last updated by company: 07/14/2017
