Source: USDA Branded Food Products Database Release December 2017 Software v.3.8.6.4 2017-10-02
Report Run at: December 19, 2017 02:52 EST
"Nutrient data for: 45168638, WHOLE FOODS MARKET, GRANOLA, NUT & HONEY, UPC: 655852005132"
Food Group:  Branded Food Products Database
Common Name:

Nutrient,Unit,Data points,Std. Error,"0.5 cup = 52.0g",1Value per 100 g,
Proximates
"Energy",kcal,--,--,240,462
"Protein",g,--,--,6.00,11.54
"Total lipid (fat)",g,--,--,10.00,19.23
"Carbohydrate, by difference",g,--,--,34.00,65.38
"Fiber, total dietary",g,--,--,4.0,7.7
"Sugars, total",g,--,--,10.00,19.23
Minerals
"Calcium, Ca",mg,--,--,40,77
"Iron, Fe",mg,--,--,1.90,3.66
"Sodium, Na",mg,--,--,40,77
Vitamins
"Vitamin C, total ascorbic acid",mg,--,--,0.0,0.0
"Vitamin A, IU",IU,--,--,0,0
Lipids
"Fatty acids, total saturated",g,--,--,2.501,4.810
"Fatty acids, total trans",g,--,--,0.000,0.000
"Cholesterol",mg,--,--,0,0
Amino Acids
Other
Ingredients
"ROLLED OATS, HONEY, CANOLA OIL, COCONUT, SUNFLOWER SEEDS, VANILLA, WATER, ALMONDS, MOLASSES, SUGAR, WALNUTS, CASHEWS, SESAME SEEDS, SALT." Date available: 08/24/2017 Date last updated by company: 08/24/2017
