Source: USDA Branded Food Products Database Release December 2017 Software v.3.8.6.4 2017-10-02
Report Run at: December 19, 2017 02:59 EST
"Nutrient data for: 45168249, WHOLE FOODS MARKET, ORGANIC DATE & FIG NONFAT GREEK YOGURT, UPC: 099482454937"
Food Group:  Branded Food Products Database
Common Name:

Nutrient,Unit,Data points,Std. Error,"1 CONTAINER = 150.0g",1Value per 100 g,
Proximates
"Energy",kcal,--,--,140,93
"Protein",g,--,--,13.99,9.33
"Total lipid (fat)",g,--,--,0.00,0.00
"Carbohydrate, by difference",g,--,--,20.00,13.33
"Fiber, total dietary",g,--,--,1.1,0.7
"Sugars, total",g,--,--,17.00,11.33
Minerals
"Calcium, Ca",mg,--,--,200,133
"Iron, Fe",mg,--,--,0.41,0.27
"Potassium, K",mg,--,--,270,180
"Sodium, Na",mg,--,--,90,60
Vitamins
"Vitamin C, total ascorbic acid",mg,--,--,0.0,0.0
"Vitamin A, IU",IU,--,--,0,0
Lipids
"Fatty acids, total saturated",g,--,--,0.000,0.000
"Fatty acids, total trans",g,--,--,0.000,0.000
"Cholesterol",mg,--,--,4,3
Amino Acids
Other
Ingredients
"ORGANIC YOGURT (CULTURED PASTEURIZED ORGANIC NONFAT MILK, LIVE AND ACTIVE CULTURES [S. THERMOPHILUS, L. BULGARICUS, L. ACIDOPHILUS, BIFIDUS, L. CASEI]), ORGANIC DATE-FIG FRUIT PREPARATION (ORGANIC DATES, ORGANIC CARAMEL COLOR, ORGANIC CANE SUGAR, ORGANIC FIGS, CITRIC ACID)." Date available: 07/14/2017 Date last updated by company: 07/14/2017
