Source: USDA Branded Food Products Database Release December 2017 Software v.3.8.6.4 2017-10-02
Report Run at: December 19, 2017 03:19 EST
"Nutrient data for: 45273759, WHOLE GRAIN POPCORN, UPC: 085239403068"
Food Group:  Branded Food Products Database
Common Name:

Nutrient,Unit,Data points,Std. Error,"4.0 cup = 28.0g",1Value per 100 g,
Proximates
"Energy",kcal,--,--,130,464
"Protein",g,--,--,3.00,10.71
"Total lipid (fat)",g,--,--,5.00,17.86
"Carbohydrate, by difference",g,--,--,18.00,64.29
"Fiber, total dietary",g,--,--,3.0,10.7
"Sugars, total",g,--,--,1.00,3.57
Minerals
"Calcium, Ca",mg,--,--,20,71
"Iron, Fe",mg,--,--,1.29,4.59
"Sodium, Na",mg,--,--,210,750
Vitamins
"Vitamin C, total ascorbic acid",mg,--,--,0.0,0.0
"Vitamin A, IU",IU,--,--,0,0
Lipids
"Fatty acids, total saturated",g,--,--,0.501,1.790
"Fatty acids, total monounsaturated",g,--,--,2.500,8.930
"Fatty acids, total polyunsaturated",g,--,--,1.501,5.360
"Fatty acids, total trans",g,--,--,0.000,0.000
"Cholesterol",mg,--,--,0,0
Amino Acids
Other
Ingredients
"POPCORN, SUNFLOWER OIL AND/OR CORN OIL, WHEY, SALT, GARLIC POWDER, PARMESAN CHEESE (PART SKIM MILK, CHEESE CULTURE, SALT, ENZYMES), MALTODEXTRIN, CULTURED BUTTERMILK, SPICES (INCLUDING ROSEMARY), NATURAL FLAVORS, BUTTERMILK SOLIDS, NATURAL BUTTER FLAVOR, CITRIC ACID, DEHYDRATED PARSLEY." Date available: 07/14/2017 Date last updated by company: 07/14/2017
