Source: USDA Branded Food Products Database Release December 2017 Software v.3.8.6.4 2017-10-02
Report Run at: December 19, 2017 03:53 EST
"Nutrient data for: 45216329, WHOLE TART CHERRY PRESERVES, UPC: 602813500038"
Food Group:  Branded Food Products Database
Common Name:

Nutrient,Unit,Data points,Std. Error,"1 Tbsp = 16.0g",1Value per 100 g,
Proximates
"Energy",kcal,--,--,56,350
"Protein",g,--,--,0.00,0.00
"Total lipid (fat)",g,--,--,0.00,0.00
"Carbohydrate, by difference",g,--,--,14.00,87.50
"Fiber, total dietary",g,--,--,0.3,1.6
"Sugars, total",g,--,--,10.00,62.50
Minerals
"Calcium, Ca",mg,--,--,0,0
"Iron, Fe",mg,--,--,0.61,3.80
"Potassium, K",mg,--,--,15,94
"Sodium, Na",mg,--,--,6,38
Vitamins
"Vitamin C, total ascorbic acid",mg,--,--,6.1,38.0
"Vitamin A, IU",IU,--,--,0,0
Lipids
"Fatty acids, total saturated",g,--,--,0.000,0.000
"Fatty acids, total trans",g,--,--,0.000,0.000
"Cholesterol",mg,--,--,0,0
Amino Acids
Other
Ingredients
"MICHIGAN WHOLE RED TART CHERRIES, SUGAR, PECTIN" Date available: 07/14/2017 Date last updated by company: 07/14/2017
