Source: USDA Branded Food Products Database Release December 2017 Software v.3.8.6.4 2017-10-02
Report Run at: December 19, 2017 03:36 EST
"Nutrient data for: 45190748, WHOLE MILK, UPC: 041900078720"
Food Group:  Branded Food Products Database
Common Name:

Nutrient,Unit,Data points,Std. Error,"1 CONTAINER = 414.0g",1Value per 100 g,
Proximates
"Energy",kcal,--,--,282,68
"Protein",g,--,--,14.99,3.62
"Total lipid (fat)",g,--,--,14.99,3.62
"Carbohydrate, by difference",g,--,--,21.98,5.31
"Fiber, total dietary",g,--,--,0.0,0.0
"Sugars, total",g,--,--,20.99,5.07
Minerals
"Calcium, Ca",mg,--,--,501,121
"Iron, Fe",mg,--,--,0.00,0.00
"Sodium, Na",mg,--,--,219,53
Vitamins
"Vitamin C, total ascorbic acid",mg,--,--,0.8,0.2
"Vitamin A, IU",IU,--,--,290,70
"Vitamin D",IU,--,--,161,39
Lipids
"Fatty acids, total saturated",g,--,--,8.984,2.170
"Fatty acids, total trans",g,--,--,0.497,0.120
"Cholesterol",mg,--,--,66,16
Amino Acids
Other
Ingredients
"MILK, VITAMIN D3." Date available: 07/14/2017 Date last updated by company: 07/14/2017
