Source: USDA Branded Food Products Database Release December 2017 Software v.3.8.6.4 2017-10-02
Report Run at: December 19, 2017 03:46 EST
"Nutrient data for: 45234773, WHOLE POLISH DILL PICKLES IN VINEGAR, UPC: 074854350987"
Food Group:  Branded Food Products Database
Common Name:

Nutrient,Unit,Data points,Std. Error,"0.0 none = 100.0g",1Value per 100 g,
Proximates
"Energy",kcal,--,--,13,13
"Protein",g,--,--,1.00,1.00
"Total lipid (fat)",g,--,--,0.00,0.00
"Carbohydrate, by difference",g,--,--,2.00,2.00
"Fiber, total dietary",g,--,--,1.0,1.0
"Sugars, total",g,--,--,0.50,0.50
Minerals
"Calcium, Ca",mg,--,--,100,100
"Iron, Fe",mg,--,--,0.45,0.45
"Potassium, K",mg,--,--,80,80
"Sodium, Na",mg,--,--,560,560
Vitamins
"Vitamin C, total ascorbic acid",mg,--,--,6.0,6.0
"Vitamin A, IU",IU,--,--,50,50
Lipids
"Fatty acids, total saturated",g,--,--,0.000,0.000
"Fatty acids, total trans",g,--,--,0.000,0.000
"Cholesterol",mg,--,--,0,0
Amino Acids
Other
Ingredients
"CUCUMBERS, WATER, VINEGAR, SALT, SUGAR, SPICES, AROMATIC-FLAVOUR (SODIUM, SACCHARIN ACESULFAME K) SWEETENERS." Date available: 08/11/2017 Date last updated by company: 08/11/2017
