Source: USDA Branded Food Products Database Release December 2017 Software v.3.8.6.4 2017-10-02
Report Run at: December 19, 2017 03:18 EST
"Nutrient data for: 45177130, WHOLE GRAIN OAT CRACKERS, UPC: 612322030124"
Food Group:  Branded Food Products Database
Common Name:

Nutrient,Unit,Data points,Std. Error,"2.0 CRACKERS = 11.0g",1Value per 100 g,
Proximates
"Energy",kcal,--,--,50,455
"Protein",g,--,--,1.00,9.09
"Total lipid (fat)",g,--,--,2.00,18.18
"Carbohydrate, by difference",g,--,--,7.00,63.64
"Fiber, total dietary",g,--,--,1.0,9.1
"Sugars, total",g,--,--,0.00,0.00
Minerals
"Calcium, Ca",mg,--,--,0,0
"Iron, Fe",mg,--,--,1.64,14.87
"Sodium, Na",mg,--,--,80,727
Vitamins
"Vitamin C, total ascorbic acid",mg,--,--,0.0,0.0
"Vitamin A, IU",IU,--,--,0,0
Lipids
"Fatty acids, total saturated",g,--,--,1.000,9.090
"Fatty acids, total trans",g,--,--,0.000,0.000
"Cholesterol",mg,--,--,0,0
Amino Acids
Other
Ingredients
"WHOLE GRAIN OATS (79%), SUSTAINABLE PALM OIL, MAIZE STARCH, RAISING AGENT (AMMONIUM BICARBONATE), SEA SALT, HONEY." Date available: 07/14/2017 Date last updated by company: 07/14/2017
