Source: USDA Branded Food Products Database Release December 2017 Software v.3.8.6.4 2017-10-02
Report Run at: December 19, 2017 02:57 EST
"Nutrient data for: 45187392, WHOLE FOODS MARKET, MOM'S WHEAT DINNER ROLLS, UPC: 723055032559"
Food Group:  Branded Food Products Database
Common Name:

Nutrient,Unit,Data points,Std. Error,"2.0 ONZ = 57.0g",1Value per 100 g,
Proximates
"Energy",kcal,--,--,170,298
"Protein",g,--,--,5.00,8.77
"Total lipid (fat)",g,--,--,5.00,8.77
"Carbohydrate, by difference",g,--,--,26.00,45.61
"Fiber, total dietary",g,--,--,2.0,3.5
"Sugars, total",g,--,--,4.00,7.02
Minerals
"Calcium, Ca",mg,--,--,20,35
"Iron, Fe",mg,--,--,0.95,1.66
"Sodium, Na",mg,--,--,240,421
Vitamins
"Vitamin C, total ascorbic acid",mg,--,--,2.1,3.7
"Vitamin A, IU",IU,--,--,88,154
Lipids
"Fatty acids, total saturated",g,--,--,2.001,3.510
"Fatty acids, total trans",g,--,--,0.000,0.000
"Cholesterol",mg,--,--,30,53
Amino Acids
Other
Ingredients
"UNBLEACHED WHEAT (WHEAT FLOUR, MELTED BARLEY FLOUR, NIACIN, IRON, THIAMIN MONONITRATE, RIBOFLAVIN, FOLIC ACID); FILTERED WATER; WHOLE WHEAT FLOUR ; CAGE-FREE EGGS; HONEY; CANOLA OIL; RBGH-FREE BUTTER (CREAM); SUGAR; SALT: YEAST; DOUGH IMPROVER (ORGANIC WHEAT FLOUR, NATURAL ENZYMES, ASCORBIC ACID)." Date available: 07/14/2017 Date last updated by company: 07/14/2017
