Source: USDA Branded Food Products Database Release December 2017 Software v.3.8.6.4 2017-10-02
Report Run at: December 19, 2017 03:07 EST
"Nutrient data for: 45168897, WHOLE FOODS MARKET, SPINACH QUESO, UPC: 723055851334"
Food Group:  Branded Food Products Database
Common Name:

Nutrient,Unit,Data points,Std. Error,"2.0 Tbsp = 30.0g",1Value per 100 g,
Proximates
"Energy",kcal,--,--,50,167
"Protein",g,--,--,2.00,6.67
"Total lipid (fat)",g,--,--,4.00,13.33
"Carbohydrate, by difference",g,--,--,2.00,6.67
"Fiber, total dietary",g,--,--,0.0,0.0
"Sugars, total",g,--,--,1.00,3.33
Minerals
"Calcium, Ca",mg,--,--,60,200
"Iron, Fe",mg,--,--,0.60,2.00
"Sodium, Na",mg,--,--,135,450
Vitamins
"Vitamin C, total ascorbic acid",mg,--,--,3.0,10.0
"Vitamin A, IU",IU,--,--,833,2778
Lipids
"Fatty acids, total saturated",g,--,--,2.499,8.330
"Fatty acids, total trans",g,--,--,0.000,0.000
"Cholesterol",mg,--,--,10,33
Amino Acids
Other
Ingredients
"MILK AMERICAN CHEESE, SPINACH, TOMATOES, BUTTERMILK, BELL PEPPERS, UNSALTED BUTTER, ONIONS, CREAM CHEESE (PASTEURIZED MILK AND CREAM CULTURES, SALT, CAROB BEAN GUM), WHEAT FLOUR (WHEAT, NIACIN, REDUCED IRON, THIAMIN MONONITRATE, RIBOFLAVIN, FOLIC ACID), JALAPENO, HEAVY CREAM, GARLIC CLOVES, CORNSTARCH, SALT, CANOLA OIL, WHITE PEPPER" Date available: 07/14/2017 Date last updated by company: 07/14/2017
