Source: USDA Branded Food Products Database Release December 2017 Software v.3.8.6.4 2017-10-02
Report Run at: December 19, 2017 02:49 EST
"Nutrient data for: 45167338, WHOLE FOODS MARKET, DICED MIREPOIX, UPC: 036406304800"
Food Group:  Branded Food Products Database
Common Name:

Nutrient,Unit,Data points,Std. Error,"0.33 cup = 85.0g",1Value per 100 g,
Proximates
"Energy",kcal,--,--,25,29
"Protein",g,--,--,1.00,1.18
"Total lipid (fat)",g,--,--,0.00,0.00
"Carbohydrate, by difference",g,--,--,6.00,7.06
"Fiber, total dietary",g,--,--,2.0,2.4
"Sugars, total",g,--,--,3.00,3.53
Minerals
"Calcium, Ca",mg,--,--,20,24
"Iron, Fe",mg,--,--,0.36,0.42
"Sodium, Na",mg,--,--,45,53
Vitamins
"Vitamin C, total ascorbic acid",mg,--,--,4.8,5.6
"Vitamin A, IU",IU,--,--,5000,5882
Lipids
"Fatty acids, total saturated",g,--,--,0.000,0.000
"Fatty acids, total trans",g,--,--,0.000,0.000
"Cholesterol",mg,--,--,0,0
Amino Acids
Other
Ingredients
"CARROT, CELERY, ONION." Date available: 09/06/2017 Date last updated by company: 09/06/2017
