Source: USDA Branded Food Products Database Release December 2017 Software v.3.8.6.4 2017-10-02
Report Run at: December 19, 2017 03:26 EST
"Nutrient data for: 45228217, WHOLE GREEN PEAS, UPC: 041331024754"
Food Group:  Branded Food Products Database
Common Name:

Nutrient,Unit,Data points,Std. Error,"0.25 cup = 43.0g",1Value per 100 g,
Proximates
"Energy",kcal,--,--,150,349
"Protein",g,--,--,11.00,25.58
"Total lipid (fat)",g,--,--,0.00,0.00
"Carbohydrate, by difference",g,--,--,26.00,60.47
"Fiber, total dietary",g,--,--,11.0,25.6
"Sugars, total",g,--,--,3.00,6.98
Minerals
"Calcium, Ca",mg,--,--,20,47
"Iron, Fe",mg,--,--,1.80,4.19
"Potassium, K",mg,--,--,350,814
"Sodium, Na",mg,--,--,5,12
Vitamins
"Vitamin C, total ascorbic acid",mg,--,--,1.2,2.8
"Vitamin A, IU",IU,--,--,100,233
Lipids
"Fatty acids, total saturated",g,--,--,0.000,0.000
"Fatty acids, total trans",g,--,--,0.000,0.000
"Cholesterol",mg,--,--,0,0
Amino Acids
Other
Ingredients
"WHOLE GREEN PEAS" Date available: 03/22/2017 Date last updated by company: 03/22/2017
