Source: USDA Branded Food Products Database Release December 2017 Software v.3.8.6.4 2017-10-02
Report Run at: December 19, 2017 03:45 EST
"Nutrient data for: 45059075, WHOLE PEPPERONCINI, UPC: 041318190946"
Food Group:  Branded Food Products Database
Common Name:

Nutrient,Unit,Data points,Std. Error,"3.0 PEPPERS | ABOUT = 28.0g",1Value per 100 g,
Proximates
"Energy",kcal,--,--,5,18
"Protein",g,--,--,0.00,0.00
"Total lipid (fat)",g,--,--,0.00,0.00
"Carbohydrate, by difference",g,--,--,1.00,3.57
Minerals
"Sodium, Na",mg,--,--,330,1179
Vitamins
Lipids
Amino Acids
Other
Ingredients
"IMPORTED PEPPERS, WATER, VINEGAR, SALT, SODIUM BENZOATE (PRESERVATIVE), SODIUM BISULFITE (COLOR PROTECTANT), YELLOW 5." Date available: 06/24/2017 Date last updated by company: 06/24/2017
