Source: USDA Branded Food Products Database Release December 2017 Software v.3.8.6.4 2017-10-02
Report Run at: December 19, 2017 03:05 EST
"Nutrient data for: 45168833, WHOLE FOODS MARKET, SALTED CARAMEL MOUSSE CAKE, UPC: 723055035567"
Food Group:  Branded Food Products Database
Common Name:

Nutrient,Unit,Data points,Std. Error,"2.0 ONZ = 57.0g",1Value per 100 g,
Proximates
"Energy",kcal,--,--,210,368
"Protein",g,--,--,3.00,5.26
"Total lipid (fat)",g,--,--,13.00,22.81
"Carbohydrate, by difference",g,--,--,21.00,36.84
"Fiber, total dietary",g,--,--,1.0,1.8
"Sugars, total",g,--,--,14.00,24.56
Minerals
"Calcium, Ca",mg,--,--,20,35
"Iron, Fe",mg,--,--,1.52,2.66
"Sodium, Na",mg,--,--,240,421
Vitamins
"Vitamin C, total ascorbic acid",mg,--,--,0.9,1.5
"Vitamin A, IU",IU,--,--,421,739
Lipids
"Fatty acids, total saturated",g,--,--,6.002,10.530
"Fatty acids, total trans",g,--,--,0.000,0.000
"Cholesterol",mg,--,--,50,88
Amino Acids
Other
Ingredients
"CARAMEL (CREAM [MILK], SUGAR, GLUCOSE SYRUP, BUTTER [CREAM, SALT], VANILLA, SEA SALT), CAGE-FREE EGGS, SUGAR, WHIPPED TOPPING (WATER, PALM KERNEL OIL, CORN SYRUP, SUGAR, CONTAINS LESS THAN 2% OF COCONUT OIL, SODIUM CASEINATE (A MILK DERIVATIVE), DEXTROSE, GUM ARABIC, CARBOHYDRATE GUM, SALT, XANTHAN GUM, NATURAL FLAVOR, RICE EXTRACT, COLORED WITH BETA CAROTENE), RBGH-FREE HEAVY CREAM (HEAVY CREAM: CONTAINS LESS THAN 1% SKIM MILK, CARRAGEENAN, POLYSORBATE 80, MONO & DIGLYCERIDES)CANOLA OIL, RBGH-FREE BUTTERMILK (CULTURED MILK, MODIFIED CORNSTARCH, SALT, CARRAGEENAN, PECTIN, VITAMIN D), RICE FLOUR, COCOA POWDER, CHOCOLATE CURLS (COCOA MASS, SUGAR, COCOA BUTTER, MILKFAT, SOY LECITHIN, VANILLA), POTATO STARCH, STABILIZER (GELATIN, DEXTROSE), BAKING POWDER (SODIUM ACID PYROPHOSPHATE, SODIUM BICARBONATE, CORNSTARCH, MONOCALCIUM PHOSPHATE), TAPIOCA STARCH, SALT, VANILLA, COFFEE EXTRACT, XANTHAN GUM" Date available: 10/13/2017 Date last updated by company: 10/13/2017
