Source: USDA Branded Food Products Database Release December 2017 Software v.3.8.6.4 2017-10-02
Report Run at: December 19, 2017 02:52 EST
"Nutrient data for: 45170322, WHOLE FOODS MARKET, GLAZED PECANS, UPC: 999482000229"
Food Group:  Branded Food Products Database
Common Name:

Nutrient,Unit,Data points,Std. Error,"0.25 cup = 25.0g",1Value per 100 g,
Proximates
"Energy",kcal,--,--,150,600
"Protein",g,--,--,2.00,8.00
"Total lipid (fat)",g,--,--,14.00,56.00
"Carbohydrate, by difference",g,--,--,7.00,28.00
"Fiber, total dietary",g,--,--,2.0,8.0
"Sugars, total",g,--,--,5.00,20.00
Minerals
"Calcium, Ca",mg,--,--,20,80
"Iron, Fe",mg,--,--,1.44,5.76
"Sodium, Na",mg,--,--,0,0
Vitamins
"Vitamin C, total ascorbic acid",mg,--,--,0.0,0.0
"Vitamin A, IU",IU,--,--,0,0
Lipids
"Fatty acids, total saturated",g,--,--,1.000,4.000
"Fatty acids, total trans",g,--,--,0.000,0.000
"Cholesterol",mg,--,--,0,0
Amino Acids
Other
Ingredients
"PECANS, SUGAR, CINNAMON, VANILLA EXTRACT." Date available: 07/14/2017 Date last updated by company: 07/14/2017
