Source: USDA Branded Food Products Database Release December 2017 Software v.3.8.6.4 2017-10-02
Report Run at: December 19, 2017 04:03 EST
"Nutrient data for: 45219221, WHOLE WHEAT MUFFINS SANDWICH, UPC: 075450132830"
Food Group:  Branded Food Products Database
Common Name:

Nutrient,Unit,Data points,Std. Error,"1 SANDWICH = 146.0g",1Value per 100 g,
Proximates
"Energy",kcal,--,--,250,171
"Protein",g,--,--,18.00,12.33
"Total lipid (fat)",g,--,--,8.00,5.48
"Carbohydrate, by difference",g,--,--,23.00,15.75
"Fiber, total dietary",g,--,--,2.0,1.4
"Sugars, total",g,--,--,0.99,0.68
Minerals
"Calcium, Ca",mg,--,--,250,171
"Iron, Fe",mg,--,--,1.58,1.08
"Sodium, Na",mg,--,--,710,486
Vitamins
"Vitamin C, total ascorbic acid",mg,--,--,0.7,0.5
"Vitamin A, IU",IU,--,--,117,80
Lipids
"Fatty acids, total saturated",g,--,--,3.504,2.400
"Fatty acids, total trans",g,--,--,0.000,0.000
"Cholesterol",mg,--,--,39,27
Amino Acids
Other
Ingredients
"ENGLISH MUFFIN (WATER, WHOLE WHEAT FLOUR, ENRICHED BLEACHED WHEAT FLOUR [WHEAT FLOUR, MALTED BARLEY FLOUR, NIACIN, REDUCED IRON, THIAMINE MONONITRATE, RIBOFLAVIN, FOLIC ACID], YEAST, CONTAINS 2% OR LESS OF THE FOLLOWING: AZODICARBONAMIDE, DEGERMINATED YELLOW CORN FLOUR, DEGERMINATED YELLOW CORN MEAL, SUGAR, DATEM, CITRIC ACID, ASCORBIC ACID, FUMARIC ACID, CALCIUM PROPIONATE AND POTASSIUM SORBATE [PRESERVATIVES], SALT, SOYBEAN OIL, VINEGAR, WHEAT GLUTEN); TURKEY SAUSAGE (TURKEY, DEXTROSE, SALT, POTASSIUM CHLORIDE, SPICES, SUGAR, DEHYDRATED ONION, GROUND CELERY SEED); EGG WHITE PATTY (EGG WHITES, WATER, CONTAINS 2% OR LESS OF THE FOLLOWING: MODIFIED FOOD STARCH, DICALCIUM PHOSPHATE, SODIUM BICARBONATE, NATURAL FLAVOR, GUAR GUM, XANTHAN GUM); PASTEURIZED PROCESS AMERICAN CHEESE (CULTURED MILK, WATER, CREAM, SODIUM CITRATE, SALT, SODIUM PHOSPHATE, SORBIC ACID [PRESERVATIVE], LACTIC ACID, ARTIFICIAL COLOR, ENZYMES, SOY LECITHIN)." Date available: 07/14/2017 Date last updated by company: 07/14/2017
