Source: USDA Branded Food Products Database Release December 2017 Software v.3.8.6.4 2017-10-02
Report Run at: December 19, 2017 03:50 EST
"Nutrient data for: 45002909, WHOLESOME SWEETENERS, DEMERARA TURBINADO SUGAR, UPC: 000000018562"
Food Group:  Branded Food Products Database
Common Name:

Nutrient,Unit,Data points,Std. Error,"1 tsp = 4.0g",1Value per 100 g,
Proximates
"Energy",kcal,--,--,15,375
"Carbohydrate, by difference",g,--,--,4.00,100.00
"Sugars, total",g,--,--,4.00,100.00
Minerals
Vitamins
Lipids
Amino Acids
Other
Ingredients
"RAW CANE DEMERARA SUGAR." Date last updated by company: 05/07/2014
