Source: USDA Branded Food Products Database Release December 2017 Software v.3.8.6.4 2017-10-02
Report Run at: December 19, 2017 02:58 EST
"Nutrient data for: 45169180, WHOLE FOODS MARKET, NATURAL FRUIT SLICES, UPC: 811455012032"
Food Group:  Branded Food Products Database
Common Name:

Nutrient,Unit,Data points,Std. Error,"5.0 PCS = 45.0g",1Value per 100 g,
Proximates
"Energy",kcal,--,--,170,378
"Protein",g,--,--,0.00,0.00
"Total lipid (fat)",g,--,--,0.00,0.00
"Carbohydrate, by difference",g,--,--,41.00,91.11
"Fiber, total dietary",g,--,--,0.0,0.0
"Sugars, total",g,--,--,24.00,53.33
Minerals
"Calcium, Ca",mg,--,--,0,0
"Iron, Fe",mg,--,--,0.00,0.00
"Sodium, Na",mg,--,--,60,133
Vitamins
"Vitamin C, total ascorbic acid",mg,--,--,0.0,0.0
"Vitamin A, IU",IU,--,--,0,0
Lipids
"Fatty acids, total saturated",g,--,--,0.000,0.000
"Fatty acids, total trans",g,--,--,0.000,0.000
"Cholesterol",mg,--,--,0,0
Amino Acids
Other
Ingredients
"CANE SUGAR, TAPIOCA SYRUP, CORN STARCH, MODIFIED (NON GMO), DEXTROSE (NON GMO CORN), NATURAL FLAVORS, CITRIC ACID, SODIUM CITRATE, TARTARIC ACID, COLORED WITH VEGETABLE EXTRACTS (PAPRIKA, TURMERIC, RED CABBAGE)." Date available: 07/14/2017 Date last updated by company: 07/14/2017
