Source: USDA Branded Food Products Database Release December 2017 Software v.3.8.6.4 2017-10-02
Report Run at: December 19, 2017 02:54 EST
"Nutrient data for: 45167464, WHOLE FOODS MARKET, ITALIAN WAFFLE COOKIE, UPC: 063054543237"
Food Group:  Branded Food Products Database
Common Name:

Nutrient,Unit,Data points,Std. Error,"6.0 COOKIES = 30.0g",1Value per 100 g,
Proximates
"Energy",kcal,--,--,150,500
"Protein",g,--,--,3.00,10.00
"Total lipid (fat)",g,--,--,7.00,23.33
"Carbohydrate, by difference",g,--,--,19.00,63.33
"Fiber, total dietary",g,--,--,1.0,3.3
"Sugars, total",g,--,--,8.00,26.67
Minerals
"Calcium, Ca",mg,--,--,20,67
"Iron, Fe",mg,--,--,5.10,17.00
"Sodium, Na",mg,--,--,30,100
Vitamins
"Vitamin C, total ascorbic acid",mg,--,--,0.0,0.0
"Vitamin A, IU",IU,--,--,0,0
Lipids
"Fatty acids, total saturated",g,--,--,0.999,3.330
"Fatty acids, total trans",g,--,--,0.000,0.000
"Cholesterol",mg,--,--,30,100
Amino Acids
Other
Ingredients
"FLOUR, SUGAR, LIQUID WHOLE EGG, CANOLA OIL, COCOA, SOY LECITHIN, VANILLA FLAVOR, BAKING POWDER, SALT." Date available: 07/14/2017 Date last updated by company: 07/14/2017
