Source: USDA Branded Food Products Database Release December 2017 Software v.3.8.6.4 2017-10-02
Report Run at: December 19, 2017 03:12 EST
"Nutrient data for: 45277383, WHOLE GRAIN ANIMAL COOKIES, UPC: 688267159770"
Food Group:  Branded Food Products Database
Common Name:

Nutrient,Unit,Data points,Std. Error,"1 PACK = 28.0g",1Value per 100 g,
Proximates
"Energy",kcal,--,--,110,393
"Protein",g,--,--,2.00,7.14
"Total lipid (fat)",g,--,--,4.00,14.29
"Carbohydrate, by difference",g,--,--,19.00,67.86
"Fiber, total dietary",g,--,--,2.0,7.1
"Sugars, total",g,--,--,6.00,21.43
Minerals
"Calcium, Ca",mg,--,--,0,0
"Iron, Fe",mg,--,--,0.64,2.29
"Sodium, Na",mg,--,--,100,357
Vitamins
"Vitamin C, total ascorbic acid",mg,--,--,0.0,0.0
"Vitamin A, IU",IU,--,--,0,0
Lipids
"Fatty acids, total saturated",g,--,--,0.000,0.000
"Fatty acids, total trans",g,--,--,0.000,0.000
"Cholesterol",mg,--,--,0,0
Amino Acids
Other
Ingredients
"WHOLE WHEAT FLOUR, SUGAR, HIGH OLEIC SAFFLOWER OIL, INVERT SUGAR, SALT, LEAVENING (SODIUM BICARBONATE, AMMONIUM BICARBONATE, MONOCALCIUM PHOSPHATE), NATURAL FLAVORS, SOY LECITHIN, WHOLE EGG SOLIDS, CORN SYRUP SOLIDS." Date available: 07/14/2017 Date last updated by company: 07/14/2017
