Source: USDA Branded Food Products Database Release December 2017 Software v.3.8.6.4 2017-10-02
Report Run at: December 19, 2017 03:22 EST
"Nutrient data for: 45186809, WHOLE GRAIN, UPC: 852035004009"
Food Group:  Branded Food Products Database
Common Name:

Nutrient,Unit,Data points,Std. Error,"138.0 GRM = 138.0g",1Value per 100 g,
Proximates
"Energy",kcal,--,--,460,333
"Protein",g,--,--,18.00,13.04
"Total lipid (fat)",g,--,--,22.00,15.94
"Carbohydrate, by difference",g,--,--,52.00,37.68
"Fiber, total dietary",g,--,--,5.9,4.3
"Sugars, total",g,--,--,18.00,13.04
Minerals
"Calcium, Ca",mg,--,--,250,181
"Iron, Fe",mg,--,--,3.66,2.65
"Sodium, Na",mg,--,--,709,514
Vitamins
"Vitamin C, total ascorbic acid",mg,--,--,3.6,2.6
"Vitamin A, IU",IU,--,--,1268,919
Lipids
"Fatty acids, total saturated",g,--,--,8.998,6.520
"Fatty acids, total trans",g,--,--,0.000,0.000
"Cholesterol",mg,--,--,40,29
Amino Acids
Other
Ingredients
"OVEN ROASTED TURKEY: TURKEY, WATER, CONTAINS LESS THAN 2% LOCAL POTATO STARCH, SEA SALT WHOLE GRAIN CRACKERS: WHOLE WHEAT, SOYBEAN AND/OR PALM OIL, SALT. REAL CHEDDAR CHEESE: PASTEURIZED MILK, CHEESE CULTURE, SALT, AND ENZYMES CHOCOLATE COVERED PRETZELS: NATURAL MILK CHOCOLATE (SUGAR, COCOA, BUTTER, MILK, CHOCOLATE LIQUOR SOY LECITHIN (EMULSIFIER), VANILLA, SALT), PRETZELS (ENRICHED WHEAT FLOUR (WHEAT FLOUR, NIACIN, REDUCED IRON, THIAMINE, MONONITRATE, RIBOFLAVIN, FOLIC ACID), CORN SYRUP, VEGETABLE OIL, SALT SODIUM BICARBONATE, YEAST. ANTIOXIDANT FRUIT MIX: DRIED CURRANT, DRIED BLUEBERRIES (BLUEBERRIES, SUGAR, NATURAL FLAVOR, CITRIC ACID, SUNFLOWER OIL), DRIED CRANBERRIES (SUGAR, CRANBERRIES, CITRIC ACID, NATURAL FLAVORS, ELDERBERRY JUICE CONCENTRATE (COLOR), CHOCOLATE CHIPS, (SEMI-SWEET CHOCOLATE (SUGAR, CHOCOLATE, COCOA BUTTER, MILKFAT, SOY LECITIHIN, NATURAL FLAVORS) EAT YOUR VEGETABLES: NAVY BEANS, DRIED POTATOES, RICE FLOUR, SUNFLOWER OIL, CANOLA OIL, POTATO STARCH, CARROT, SWEET POTATO, MALTODEXTRIN, SEA SALT, SUGAR, GARLIC POWDER, KONJAC FLOUR, ONION POWDER, CITRIC ACID, NATURAL FLAVOR." Date available: 09/27/2017 Date last updated by company: 09/27/2017
