Source: USDA Branded Food Products Database Release December 2017 Software v.3.8.6.4 2017-10-02
Report Run at: December 19, 2017 03:48 EST
"Nutrient data for: 45270985, WHOLE SEED MUSTARD, UPC: 799705971240"
Food Group:  Branded Food Products Database
Common Name:

Nutrient,Unit,Data points,Std. Error,"1 tsp = 6.0g",1Value per 100 g,
Proximates
"Energy",kcal,--,--,15,250
"Protein",g,--,--,1.00,16.67
"Total lipid (fat)",g,--,--,1.00,16.67
"Carbohydrate, by difference",g,--,--,1.00,16.67
"Sugars, total",g,--,--,1.00,16.67
Minerals
"Sodium, Na",mg,--,--,40,667
Vitamins
Lipids
Amino Acids
Other
Ingredients
"CIDER VINEGAR, YELLOW MUSTARD SEED, HONEY, SALT, TURMERIC" Date available: 07/14/2017 Date last updated by company: 07/14/2017
