Source: USDA Branded Food Products Database Release December 2017 Software v.3.8.6.4 2017-10-02
Report Run at: December 19, 2017 03:42 EST
"Nutrient data for: 45169812, WHOLE NOTE, NON-DAIRY WAFFLE MIX, UPC: 857069004209"
Food Group:  Branded Food Products Database
Common Name:

Nutrient,Unit,Data points,Std. Error,"30.5 WAFFLE (MIX) | ONE = 48.0g",1Value per 100 g,
Proximates
"Energy",kcal,--,--,170,354
"Protein",g,--,--,3.00,6.25
"Total lipid (fat)",g,--,--,1.50,3.12
"Carbohydrate, by difference",g,--,--,35.00,72.92
"Fiber, total dietary",g,--,--,3.0,6.2
"Sugars, total",g,--,--,4.00,8.33
Minerals
"Calcium, Ca",mg,--,--,30,62
"Iron, Fe",mg,--,--,1.35,2.81
"Sodium, Na",mg,--,--,548,1142
Vitamins
"Vitamin C, total ascorbic acid",mg,--,--,0.0,0.0
"Vitamin A, IU",IU,--,--,0,0
Lipids
"Fatty acids, total saturated",g,--,--,0.000,0.000
"Fatty acids, total trans",g,--,--,0.000,0.000
"Cholesterol",mg,--,--,0,0
Amino Acids
Other
Ingredients
"SEVEN-WHOLE-GRAIN GLUTEN-FREE FLOUR BLEND (WHOLE-GRAIN BROWN RICE FLOUR, WHOLE-GRAIN MILLET FLOUR, WHOLE-GRAIN BUCKWHEAT FLOUR, TAPIOCA FLOUR, POTATO STARCH, WHOLE-GRAIN OAT FLOUR, MODIFIED TAPIOCA STARCH, GARBANZO & FAVA BEAN FLOUR, CORNSTARCH, WHOLE-GRAIN SORGHUM FLOUR, WHOLE FLAXSEED MEAL, WHOLE-GRAIN TEFF FLOUR), EVAPORATED CANE JUICE, BAKING POWDER (SODIUM ACID PYROPHOSPHATE, SODIUM BICARBONATE, CORNSTARCH, MONOCALCIUM PHOSPHATE), CONTAINS LESS THAN 2% OF: DEXTROSE, GUAR GUM, SEA SALT, VANILLA POWDER (VANILLA BEAN EXTRACTIVES, DEXTROSE), XANTHAN GUM" Date available: 07/14/2017 Date last updated by company: 07/14/2017
