Source: USDA Branded Food Products Database Release December 2017 Software v.3.8.6.4 2017-10-02
Report Run at: December 19, 2017 03:07 EST
"Nutrient data for: 45169570, WHOLE FOODS MARKET, SPICY TOMATO SAUCE, UPC: 853594006107"
Food Group:  Branded Food Products Database
Common Name:

Nutrient,Unit,Data points,Std. Error,"0.5 cup = 125.0g",1Value per 100 g,
Proximates
"Energy",kcal,--,--,70,56
"Protein",g,--,--,2.00,1.60
"Total lipid (fat)",g,--,--,3.00,2.40
"Carbohydrate, by difference",g,--,--,9.00,7.20
"Fiber, total dietary",g,--,--,2.0,1.6
"Sugars, total",g,--,--,5.00,4.00
Minerals
"Calcium, Ca",mg,--,--,0,0
"Iron, Fe",mg,--,--,0.86,0.69
"Sodium, Na",mg,--,--,420,336
Vitamins
"Vitamin C, total ascorbic acid",mg,--,--,11.5,9.2
"Vitamin A, IU",IU,--,--,240,192
Lipids
"Fatty acids, total saturated",g,--,--,0.000,0.000
"Fatty acids, total trans",g,--,--,0.000,0.000
"Cholesterol",mg,--,--,0,0
Amino Acids
Other
Ingredients
"CRUSHED TOMATOES (TOMATOES, SALT), WHITE WINE (CHABLIS WINE, SALT), SWEET ONIONS, EXTRA-VIRGIN OLIVE OIL, WATER, GARLIC, SEA SALT, RED PEPPER, BASIL, OREGANO." Date available: 07/14/2017 Date last updated by company: 07/14/2017
