Source: USDA Branded Food Products Database Release December 2017 Software v.3.8.6.4 2017-10-02
Report Run at: December 19, 2017 04:06 EST
"Nutrient data for: 45197041, WHOLE WHEAT TORTILLAS, UPC: 092825108054"
Food Group:  Branded Food Products Database
Common Name:

Nutrient,Unit,Data points,Std. Error,"1 TORTILLA = 45.0g",1Value per 100 g,
Proximates
"Energy",kcal,--,--,130,289
"Protein",g,--,--,4.00,8.89
"Total lipid (fat)",g,--,--,3.00,6.67
"Carbohydrate, by difference",g,--,--,22.00,48.89
"Fiber, total dietary",g,--,--,3.0,6.7
"Sugars, total",g,--,--,2.00,4.44
Minerals
"Calcium, Ca",mg,--,--,80,178
"Iron, Fe",mg,--,--,1.76,3.91
"Sodium, Na",mg,--,--,290,644
Vitamins
"Vitamin C, total ascorbic acid",mg,--,--,0.0,0.0
"Vitamin A, IU",IU,--,--,0,0
Lipids
"Fatty acids, total saturated",g,--,--,0.999,2.220
"Fatty acids, total monounsaturated",g,--,--,0.500,1.110
"Fatty acids, total polyunsaturated",g,--,--,0.999,2.220
"Fatty acids, total trans",g,--,--,0.000,0.000
"Cholesterol",mg,--,--,0,0
Amino Acids
Other
Ingredients
"WHOLE WHEAT FLOUR, WATER, VEGETABLE SHORTENING (INTERESTERIFIED AND HYDROGENATED SOYBEAN OILS), CONTAINS 2% OR LESS OF: SALT, SUGAR, BAKING SODA, SODIUM ACID PYROPHOSPHATE, CELLULOSE GUM, DISTILLED MONOGLYCERIDES, ENZYMES, ASCORBIC ACID, FUMARIC ACID, AND CALCIUM PROPIONATE, SORBIC ACID AND CITRIC ACID (TO MAINTAIN FRESHNESS)." Date available: 07/14/2017 Date last updated by company: 07/14/2017
