Source: USDA Branded Food Products Database Release December 2017 Software v.3.8.6.4 2017-10-02
Report Run at: December 19, 2017 03:35 EST
"Nutrient data for: 45286729, WHOLE MILK RASPBERRY YOGURT, UPC: 742365005671"
Food Group:  Branded Food Products Database
Common Name:

Nutrient,Unit,Data points,Std. Error,"1 CONTAINER = 170.0g",1Value per 100 g,
Proximates
"Energy",kcal,--,--,170,100
"Protein",g,--,--,7.00,4.12
"Total lipid (fat)",g,--,--,5.00,2.94
"Carbohydrate, by difference",g,--,--,25.01,14.71
"Fiber, total dietary",g,--,--,0.0,0.0
"Sugars, total",g,--,--,19.99,11.76
Minerals
"Calcium, Ca",mg,--,--,250,147
"Iron, Fe",mg,--,--,0.00,0.00
"Sodium, Na",mg,--,--,85,50
Vitamins
"Vitamin C, total ascorbic acid",mg,--,--,0.0,0.0
"Vitamin A, IU",IU,--,--,201,118
Lipids
"Fatty acids, total saturated",g,--,--,3.502,2.060
"Fatty acids, total trans",g,--,--,0.000,0.000
"Cholesterol",mg,--,--,20,12
Amino Acids
Other
Ingredients
"CULTURED PASTEURIZED ORGANIC WHOLE MILK, ORGANIC CANE SUGAR, ORGANIC RASPBERRIES, WATER, NATURAL FLAVOR, ORGANIC LOCUST BEAN GUM, PECTIN, VEGETABLE JUICE (FOR COLOR)." Date available: 07/14/2017 Date last updated by company: 07/14/2017
