Source: USDA Branded Food Products Database Release December 2017 Software v.3.8.6.4 2017-10-02
Report Run at: December 19, 2017 03:00 EST
"Nutrient data for: 45167124, WHOLE FOODS MARKET, ORGANIC SANTA MARIA GRILL COOKING SEASONING, UPC: 014321621059"
Food Group:  Branded Food Products Database
Common Name:

Nutrient,Unit,Data points,Std. Error,"1 tsp = 4.5g",1Value per 100 g,
Proximates
"Energy",kcal,--,--,10,222
"Protein",g,--,--,0.00,0.00
"Total lipid (fat)",g,--,--,0.00,0.00
"Carbohydrate, by difference",g,--,--,2.00,44.44
"Fiber, total dietary",g,--,--,0.0,0.0
"Sugars, total",g,--,--,1.00,22.22
Minerals
"Calcium, Ca",mg,--,--,0,0
"Iron, Fe",mg,--,--,4.00,88.88
"Sodium, Na",mg,--,--,650,14444
Vitamins
"Vitamin C, total ascorbic acid",mg,--,--,13.3,296.3
"Vitamin A, IU",IU,--,--,0,0
Lipids
"Fatty acids, total saturated",g,--,--,0.000,0.000
"Fatty acids, total trans",g,--,--,0.000,0.000
"Cholesterol",mg,--,--,0,0
Amino Acids
Other
Ingredients
"ORGANIC DEHYDRATED GARLIC AND ONION, SEA SALT, ORGANIC SPICE, ORGANIC SUGAR." Date available: 07/14/2017 Date last updated by company: 07/14/2017
