Source: USDA Branded Food Products Database Release December 2017 Software v.3.8.6.4 2017-10-02
Report Run at: December 19, 2017 02:58 EST
"Nutrient data for: 45168078, WHOLE FOODS MARKET, ORGANIC BERBERE SEASONING, UPC: 099482445713"
Food Group:  Branded Food Products Database
Common Name:

Nutrient,Unit,Data points,Std. Error,"1 tsp = 3.0g",1Value per 100 g,
Proximates
"Energy",kcal,--,--,10,333
"Protein",g,--,--,0.00,0.00
"Total lipid (fat)",g,--,--,0.00,0.00
"Carbohydrate, by difference",g,--,--,1.00,33.33
"Fiber, total dietary",g,--,--,1.0,33.3
"Sugars, total",g,--,--,0.00,0.00
Minerals
"Calcium, Ca",mg,--,--,0,0
"Iron, Fe",mg,--,--,6.00,199.98
"Sodium, Na",mg,--,--,230,7667
Vitamins
"Vitamin C, total ascorbic acid",mg,--,--,20.0,666.6
"Vitamin A, IU",IU,--,--,16666,555550
Lipids
"Fatty acids, total saturated",g,--,--,0.000,0.000
"Fatty acids, total trans",g,--,--,0.000,0.000
"Cholesterol",mg,--,--,0,0
Amino Acids
Other
Ingredients
"ORGANIC PAPRIKA, SEA SALT, ORGANIC CAYENNE PEPPER, ORGANIC FENUGREEK, ORGANIC CORIANDER, ORGANIC CUMIN, ORGANIC BLACK PEPPER, ORGANIC CARDAMOM, ORGANIC CINNAMON, ORGANIC CLOVES, ORGANIC GINGER, ORGANIC TURMERIC." Date available: 07/14/2017 Date last updated by company: 07/14/2017
