Source: USDA Branded Food Products Database Release December 2017 Software v.3.8.6.4 2017-10-02
Report Run at: December 19, 2017 03:47 EST
"Nutrient data for: 45196338, WHOLE PURPLE PLUMS IN LIGHT SYRUP, UPC: 042396301101"
Food Group:  Branded Food Products Database
Common Name:

Nutrient,Unit,Data points,Std. Error,"0.5 cup = 125.0g",1Value per 100 g,
Proximates
"Energy",kcal,--,--,100,80
"Protein",g,--,--,1.00,0.80
"Total lipid (fat)",g,--,--,0.00,0.00
"Carbohydrate, by difference",g,--,--,25.00,20.00
"Fiber, total dietary",g,--,--,2.0,1.6
"Sugars, total",g,--,--,23.00,18.40
Minerals
"Calcium, Ca",mg,--,--,0,0
"Iron, Fe",mg,--,--,0.40,0.32
"Sodium, Na",mg,--,--,10,8
Vitamins
"Vitamin C, total ascorbic acid",mg,--,--,0.0,0.0
"Vitamin A, IU",IU,--,--,336,269
Lipids
"Fatty acids, total saturated",g,--,--,0.000,0.000
"Fatty acids, total trans",g,--,--,0.000,0.000
"Cholesterol",mg,--,--,0,0
Amino Acids
Other
Ingredients
"WHOLE PURPLE PLUMS, WATER, HIGH FRUCTOSE CORN SYRUP, CORN SYRUP." Date available: 07/14/2017 Date last updated by company: 07/14/2017
