Source: USDA Branded Food Products Database Release December 2017 Software v.3.8.6.4 2017-10-02
Report Run at: December 19, 2017 03:25 EST
"Nutrient data for: 45098870, WHOLE GREEN CHILIES, UPC: 077153900204"
Food Group:  Branded Food Products Database
Common Name:

Nutrient,Unit,Data points,Std. Error,"1 CHILE = 35.0g",1Value per 100 g,
Proximates
"Energy",kcal,--,--,5,14
"Protein",g,--,--,0.00,0.00
"Total lipid (fat)",g,--,--,0.00,0.00
"Carbohydrate, by difference",g,--,--,1.00,2.86
"Fiber, total dietary",g,--,--,1.0,2.9
"Sugars, total",g,--,--,0.00,0.00
Minerals
"Calcium, Ca",mg,--,--,0,0
"Iron, Fe",mg,--,--,0.00,0.00
"Sodium, Na",mg,--,--,110,314
Vitamins
"Vitamin C, total ascorbic acid",mg,--,--,22.3,63.7
"Vitamin A, IU",IU,--,--,0,0
Lipids
"Fatty acids, total saturated",g,--,--,0.000,0.000
"Fatty acids, total trans",g,--,--,0.000,0.000
"Cholesterol",mg,--,--,0,0
Amino Acids
Other
Ingredients
"GREEN CHILE PEPPERS, WATER, CONTAINS LESS THAN 2% OF CALCIUM CHLORIDE, CITRIC ACID, SALT" Date available: 07/14/2017 Date last updated by company: 07/14/2017
