Source: USDA Branded Food Products Database Release December 2017 Software v.3.8.6.4 2017-10-02
Report Run at: December 19, 2017 03:35 EST
"Nutrient data for: 45326840, WHOLE MILK KEFIR, UPC: 081312400320"
Food Group:  Branded Food Products Database
Common Name:

Nutrient,Unit,Data points,Std. Error,"8.0 OZA = 240.0g",1Value per 100 g,
Proximates
"Energy",kcal,--,--,199,83
"Protein",g,--,--,12.00,5.00
"Total lipid (fat)",g,--,--,7.99,3.33
"Carbohydrate, by difference",g,--,--,19.99,8.33
"Fiber, total dietary",g,--,--,0.0,0.0
"Sugars, total",g,--,--,19.01,7.92
Minerals
"Calcium, Ca",mg,--,--,401,167
"Iron, Fe",mg,--,--,0.00,0.00
"Sodium, Na",mg,--,--,125,52
Vitamins
"Vitamin C, total ascorbic acid",mg,--,--,3.6,1.5
"Vitamin A, IU",IU,--,--,101,42
Lipids
"Fatty acids, total saturated",g,--,--,4.992,2.080
"Fatty acids, total trans",g,--,--,0.000,0.000
"Cholesterol",mg,--,--,36,15
Amino Acids
Other
Ingredients
"ORGANIC PASTEURIZED CULTURED WHOLE MILK, ORGANIC FRUIT BLEND (ORGANIC CANE SUGAR, ORGANIC STRAWBERRY PUREE, WATER, NATURAL FLAVOR, PECTIN, ORGANIC LOCUST BEAN GUM, FRUIT AND VEGETABLE JUICE (FOR COLOR), ORGANIC LEMON JUICE CONCENTRATE), LACTASE ENZYME, LIVE AND ACTIVE CULTURES." Date available: 10/13/2017 Date last updated by company: 10/13/2017
