Source: USDA Branded Food Products Database Release December 2017 Software v.3.8.6.4 2017-10-02
Report Run at: December 19, 2017 02:59 EST
"Nutrient data for: 45187427, WHOLE FOODS MARKET, ORGANIC GARLICKY KALE HUMMUS, UPC: 723055864228"
Food Group:  Branded Food Products Database
Common Name:

Nutrient,Unit,Data points,Std. Error,"2.0 Tbsp = 30.0g",1Value per 100 g,
Proximates
"Energy",kcal,--,--,60,200
"Protein",g,--,--,2.00,6.67
"Total lipid (fat)",g,--,--,3.00,10.00
"Carbohydrate, by difference",g,--,--,6.00,20.00
"Fiber, total dietary",g,--,--,2.0,6.7
"Sugars, total",g,--,--,1.00,3.33
Minerals
"Calcium, Ca",mg,--,--,20,67
"Iron, Fe",mg,--,--,1.20,4.00
"Sodium, Na",mg,--,--,170,567
Vitamins
"Vitamin C, total ascorbic acid",mg,--,--,10.0,33.3
"Vitamin A, IU",IU,--,--,1250,4167
Lipids
"Fatty acids, total saturated",g,--,--,0.000,0.000
"Fatty acids, total trans",g,--,--,0.000,0.000
"Cholesterol",mg,--,--,0,0
Amino Acids
Other
Ingredients
"ORGANIC GARBANZO BEANS (ORGANIC CHICKPEAS, WATER, SEA SALT), ORGANIC LEMON JUICE, ORGANIC KALE, ORGANIC TAHINI (ORGANIC SESAME SEEDS), ORGANIC GARLIC, ORGANIC OLIVE OIL, SEA SALT, ORGANIC BLACK PEPPER, ORGANIC CUMIN, ORGANIC CANOLA OIL." Date available: 07/14/2017 Date last updated by company: 07/14/2017
