Source: USDA Branded Food Products Database Release December 2017 Software v.3.8.6.4 2017-10-02
Report Run at: December 19, 2017 03:47 EST
"Nutrient data for: 45291104, WHOLE PURPLE PLUMS WITH SUGAR, UPC: 041303017357"
Food Group:  Branded Food Products Database
Common Name:

Nutrient,Unit,Data points,Std. Error,"0.75 cup = 140.0g",1Value per 100 g,
Proximates
"Energy",kcal,--,--,125,89
"Protein",g,--,--,0.99,0.71
"Total lipid (fat)",g,--,--,0.00,0.00
"Carbohydrate, by difference",g,--,--,33.00,23.57
"Fiber, total dietary",g,--,--,1.0,0.7
"Sugars, total",g,--,--,31.00,22.14
Minerals
"Calcium, Ca",mg,--,--,10,7
"Iron, Fe",mg,--,--,0.99,0.71
"Sodium, Na",mg,--,--,25,18
Vitamins
"Vitamin C, total ascorbic acid",mg,--,--,0.0,0.0
"Vitamin D",IU,--,--,0,0
Lipids
"Fatty acids, total saturated",g,--,--,0.000,0.000
"Fatty acids, total trans",g,--,--,0.000,0.000
"Cholesterol",mg,--,--,0,0
Amino Acids
Other
Ingredients
"WHOLE PURPLE PLUMS, WATER, SUGAR." Date available: 07/14/2017 Date last updated by company: 07/14/2017
