Source: USDA Branded Food Products Database Release December 2017 Software v.3.8.6.4 2017-10-02
Report Run at: December 19, 2017 03:17 EST
"Nutrient data for: 45102230, WHOLE GRAIN HOT DOG BUNS, UPC: 07131405881"
Food Group:  Branded Food Products Database
Common Name:

Nutrient,Unit,Data points,Std. Error,"1 BUN = 44.0g",1Value per 100 g,
Proximates
"Energy",kcal,--,--,80,182
"Protein",g,--,--,4.00,9.09
"Total lipid (fat)",g,--,--,1.00,2.27
"Carbohydrate, by difference",g,--,--,19.00,43.18
"Fiber, total dietary",g,--,--,4.0,9.1
"Sugars, total",g,--,--,2.00,4.55
Minerals
"Calcium, Ca",mg,--,--,60,136
"Iron, Fe",mg,--,--,1.23,2.79
"Potassium, K",mg,--,--,60,136
"Sodium, Na",mg,--,--,135,307
Vitamins
"Vitamin C, total ascorbic acid",mg,--,--,0.0,0.0
"Thiamin",mg,--,--,0.000,0.000
"Riboflavin",mg,--,--,0.193,0.439
"Niacin",mg,--,--,3.410,7.750
"Vitamin A, IU",IU,--,--,0,0
Lipids
"Fatty acids, total saturated",g,--,--,0.000,0.000
"Fatty acids, total monounsaturated",g,--,--,0.000,0.000
"Fatty acids, total polyunsaturated",g,--,--,0.000,0.000
"Fatty acids, total trans",g,--,--,0.000,0.000
"Cholesterol",mg,--,--,0,0
Amino Acids
Other
Ingredients
"WATER, WHOLE GRAIN WHEAT FLOUR, ENRICHED UNBLEACHED FLOUR [WHEAT FLOUR, MALTED BARLEY FLOUR, REDUCED IRON, THIAMINE MONONITRATE (VITAMIN B1), RIBOFLAVIN (VITAMIN B2), NIACIN (VITAMIN B3), FOLIC ACID], OAT FIBER, WHEAT GLUTEN, YEAST, SUGAR, MODIFIED WHEAT STARCH, SOYBEAN OIL, SALT, MALT, VINEGAR, MONOGLYCERIDES, POTASSIUM CHLORIDE, CALCIUM PROPIONATE (A PRESERVATIVE), CELLULOSE GUM, DATEM, SODIUM GLUCONATE, SODIUM STEAROYL LACTYLATE, CALCIUM SULFATE, MELTODEXTRIN, CARRAGEENAN, MODIFIED CORN STARCH, CITRIC ACID, ASCORBIC ACID, DIGLYCERIDES, SODIUM ALGINATE, POLYSORBATE 60." Date available: 07/14/2017 Date last updated by company: 07/14/2017
