Source: USDA Branded Food Products Database Release December 2017 Software v.3.8.6.4 2017-10-02
Report Run at: December 19, 2017 03:52 EST
"Nutrient data for: 45198442, WHOLESUM BAR, UPC: 077890371404"
Food Group:  Branded Food Products Database
Common Name:

Nutrient,Unit,Data points,Std. Error,"1 BAR = 40.0g",1Value per 100 g,
Proximates
"Energy",kcal,--,--,180,450
"Protein",g,--,--,3.00,7.50
"Total lipid (fat)",g,--,--,9.00,22.50
"Carbohydrate, by difference",g,--,--,24.00,60.00
"Fiber, total dietary",g,--,--,3.0,7.5
"Sugars, total",g,--,--,13.00,32.50
Minerals
"Calcium, Ca",mg,--,--,20,50
"Iron, Fe",mg,--,--,0.72,1.80
"Potassium, K",mg,--,--,140,350
"Sodium, Na",mg,--,--,30,75
Vitamins
"Vitamin C, total ascorbic acid",mg,--,--,30.0,75.0
"Vitamin A, IU",IU,--,--,2500,6250
Lipids
"Fatty acids, total saturated",g,--,--,2.000,5.000
"Fatty acids, total trans",g,--,--,0.000,0.000
"Cholesterol",mg,--,--,0,0
Amino Acids
Other
Ingredients
"DARK CHOCOLATE COATING (ORGANIC SUGAR, CHOCOLATE LIQUOR, COCOA BUTTER, COCOA POWDER [PROCESSED WITH ALKALI], SUNFLOWER LECITHIN), ALMONDS, CASHEWS, PEANUTS, TAPIOCA SYRUP, DRIED CHERRIES (CHERRIES, SUGAR, SUNFLOWER OIL), RAISINS, DRIED CRANBERRIES (CRANBERRIES, SUGAR, SUNFLOWER OIL), HONEY, CRISP RICE (RICE FLOUR SUGAR, SALT, CALCIUM CARBONATE), CHICORY ROOT FIBER, TAPIOCA MALTODEXTRIN, ASCORBIC ACID, VITAMIN E ACETATE, VITAMIN A PALMITATE, NATURAL FLAVOR, SOY LECITHIN." Date available: 07/14/2017 Date last updated by company: 07/14/2017
