Source: USDA Branded Food Products Database Release December 2017 Software v.3.8.6.4 2017-10-02
Report Run at: December 19, 2017 03:33 EST
"Nutrient data for: 45204048, WHOLE MANZANILLA OLIVES, UPC: 8413636201161"
Food Group:  Branded Food Products Database
Common Name:

Nutrient,Unit,Data points,Std. Error,"3.0 OLIVES = 15.0g",1Value per 100 g,
Proximates
"Energy",kcal,--,--,20,133
"Protein",g,--,--,0.00,0.00
"Total lipid (fat)",g,--,--,2.00,13.33
"Carbohydrate, by difference",g,--,--,0.00,0.00
Minerals
"Sodium, Na",mg,--,--,160,1067
Vitamins
Lipids
"Fatty acids, total saturated",g,--,--,1.000,6.670
"Fatty acids, total trans",g,--,--,0.000,0.000
Amino Acids
Other
Ingredients
"WHOLE MANZANILLA OLIVES, WATER AND SALT, DISODIUM GUANYLATE, DISODIUM INOSINATE AND MONOSODIUM GLUTAMATE, CITRIC ACID, LACTIC ACID AND ASCORBIC ACID." Date available: 09/30/2017 Date last updated by company: 09/30/2017
