Source: USDA Branded Food Products Database Release December 2017 Software v.3.8.6.4 2017-10-02
Report Run at: December 19, 2017 03:57 EST
"Nutrient data for: 45208126, WHOLE WHEAT BREAD, UPC: 050400739864"
Food Group:  Branded Food Products Database
Common Name:

Nutrient,Unit,Data points,Std. Error,"2.0 SLICES = 57.0g",1Value per 100 g,
Proximates
"Energy",kcal,--,--,130,228
"Protein",g,--,--,6.00,10.53
"Total lipid (fat)",g,--,--,2.00,3.51
"Carbohydrate, by difference",g,--,--,23.00,40.35
"Fiber, total dietary",g,--,--,3.0,5.3
"Sugars, total",g,--,--,3.00,5.26
Minerals
"Calcium, Ca",mg,--,--,60,105
"Iron, Fe",mg,--,--,1.27,2.22
"Sodium, Na",mg,--,--,250,439
Vitamins
"Vitamin C, total ascorbic acid",mg,--,--,0.0,0.0
"Thiamin",mg,--,--,0.000,0.000
"Riboflavin",mg,--,--,0.060,0.105
"Niacin",mg,--,--,1.404,2.463
"Vitamin A, IU",IU,--,--,0,0
Lipids
"Fatty acids, total saturated",g,--,--,0.000,0.000
"Fatty acids, total monounsaturated",g,--,--,0.000,0.000
"Fatty acids, total polyunsaturated",g,--,--,0.502,0.880
"Fatty acids, total trans",g,--,--,0.000,0.000
"Cholesterol",mg,--,--,0,0
Amino Acids
Other
Ingredients
"WHOLE WHEAT FLOUR, WATER, HIGH FRUCTOSE CORN SYRUP, WHEAT GLUTEN, YEAST, SOYBEAN OIL, SALT, MOLASSES, MONO- AND DIGLYCERIDES, CALCIUM PROPIONATE (PRESERVATIVE), DATEM, GRAIN VINEGAR, CALCIUM SULFATE, MONOCALCIUM PHOSPHATE, CORNSTARCH, SOY LECITHIN, POTASSIUM IODATE, SOY FLOUR." Date available: 10/13/2017 Date last updated by company: 10/13/2017
