Source: USDA Branded Food Products Database Release December 2017 Software v.3.8.6.4 2017-10-02
Report Run at: December 19, 2017 03:38 EST
"Nutrient data for: 45237297, WHOLE MILK, UPC: 072050401502"
Food Group:  Branded Food Products Database
Common Name:

Nutrient,Unit,Data points,Std. Error,"1 cup = 236.0g",1Value per 100 g,
Proximates
"Energy",kcal,--,--,151,64
"Protein",g,--,--,8.00,3.39
"Total lipid (fat)",g,--,--,8.00,3.39
"Carbohydrate, by difference",g,--,--,11.99,5.08
"Fiber, total dietary",g,--,--,0.0,0.0
"Sugars, total",g,--,--,11.00,4.66
Minerals
"Calcium, Ca",mg,--,--,300,127
"Iron, Fe",mg,--,--,0.00,0.00
"Sodium, Na",mg,--,--,120,51
Vitamins
"Vitamin C, total ascorbic acid",mg,--,--,2.4,1.0
"Vitamin A, IU",IU,--,--,304,129
"Vitamin D",IU,--,--,99,42
Lipids
"Fatty acids, total saturated",g,--,--,5.003,2.120
"Fatty acids, total trans",g,--,--,0.000,0.000
"Cholesterol",mg,--,--,35,15
Amino Acids
Other
Ingredients
"MILK, VITAMIN D3" Date available: 06/24/2017 Date last updated by company: 06/24/2017
