Source: USDA Branded Food Products Database Release December 2017 Software v.3.8.6.4 2017-10-02
Report Run at: December 19, 2017 04:07 EST
"Nutrient data for: 45282563, WHOLE WHEAT TORTILLAS, UPC: 688267123153"
Food Group:  Branded Food Products Database
Common Name:

Nutrient,Unit,Data points,Std. Error,"1 TORTILLA = 45.0g",1Value per 100 g,
Proximates
"Energy",kcal,--,--,130,289
"Protein",g,--,--,4.00,8.89
"Total lipid (fat)",g,--,--,4.00,8.89
"Carbohydrate, by difference",g,--,--,21.00,46.67
"Fiber, total dietary",g,--,--,3.0,6.7
"Sugars, total",g,--,--,1.00,2.22
Minerals
"Calcium, Ca",mg,--,--,20,44
"Iron, Fe",mg,--,--,1.32,2.93
"Sodium, Na",mg,--,--,290,644
Vitamins
"Vitamin C, total ascorbic acid",mg,--,--,0.0,0.0
"Vitamin A, IU",IU,--,--,0,0
Lipids
"Fatty acids, total saturated",g,--,--,0.000,0.000
"Fatty acids, total monounsaturated",g,--,--,1.998,4.440
"Fatty acids, total polyunsaturated",g,--,--,1.498,3.330
"Fatty acids, total trans",g,--,--,0.000,0.000
"Cholesterol",mg,--,--,0,0
Amino Acids
Other
Ingredients
"ORGANIC WHOLE WHEAT FLOUR, WATER, SUNFLOWER OIL, CULTURED STARCH, CONTAINS 2% OR LESS OF: SUGAR, SALT, SOY LECITHIN, GUAR GUM, CITRIC ACID, BAKING POWDER (SODIUM ACID PYROPHOSPHATE, SODIUM BICARBONATE, CORNSTARCH, MONOCALCIUM PHOSPHATE), SODIUM BICARBONATE." Date available: 07/14/2017 Date last updated by company: 07/14/2017
