Source: USDA Branded Food Products Database Release December 2017 Software v.3.8.6.4 2017-10-02
Report Run at: December 19, 2017 04:06 EST
"Nutrient data for: 45088619, WHOLE WHEAT SPINACH SPAGHETTI, UPC: 071518000226"
Food Group:  Branded Food Products Database
Common Name:

Nutrient,Unit,Data points,Std. Error,"2.0 ONZ = 57.0g",1Value per 100 g,
Proximates
"Energy",kcal,--,--,210,368
"Protein",g,--,--,9.00,15.79
"Total lipid (fat)",g,--,--,1.00,1.75
"Carbohydrate, by difference",g,--,--,41.00,71.93
"Fiber, total dietary",g,--,--,6.0,10.5
"Sugars, total",g,--,--,1.00,1.75
Minerals
"Calcium, Ca",mg,--,--,40,70
"Iron, Fe",mg,--,--,6.63,11.63
"Sodium, Na",mg,--,--,25,44
Vitamins
"Vitamin C, total ascorbic acid",mg,--,--,14.8,25.9
"Thiamin",mg,--,--,0.570,1.000
"Riboflavin",mg,--,--,0.068,0.119
"Niacin",mg,--,--,2.894,5.077
"Vitamin A, IU",IU,--,--,3684,6463
Lipids
"Fatty acids, total saturated",g,--,--,0.000,0.000
"Fatty acids, total trans",g,--,--,0.000,0.000
"Cholesterol",mg,--,--,0,0
Amino Acids
Other
Ingredients
"100% DURUM WHOLE WHEAT FLOUR, SPINACH POWDER" Date available: 06/25/2017 Date last updated by company: 06/25/2017
