Source: USDA Branded Food Products Database Release December 2017 Software v.3.8.6.4 2017-10-02
Report Run at: December 19, 2017 02:51 EST
"Nutrient data for: 45168889, WHOLE FOODS MARKET, 100% FRESH PRESSED JUICE, GREEN LEMONADE, UPC: 723055840222"
Food Group:  Branded Food Products Database
Common Name:

Nutrient,Unit,Data points,Std. Error,"8.0 OZA = 240.0g",1Value per 100 g,
Proximates
"Energy",kcal,--,--,79,33
"Protein",g,--,--,1.01,0.42
"Total lipid (fat)",g,--,--,0.00,0.00
"Carbohydrate, by difference",g,--,--,19.01,7.92
"Fiber, total dietary",g,--,--,0.0,0.0
"Sugars, total",g,--,--,16.01,6.67
Minerals
"Calcium, Ca",mg,--,--,19,8
"Iron, Fe",mg,--,--,0.00,0.00
"Sodium, Na",mg,--,--,24,10
Vitamins
"Vitamin C, total ascorbic acid",mg,--,--,14.9,6.2
"Vitamin A, IU",IU,--,--,300,125
Lipids
Amino Acids
Other
Ingredients
"APPLES, CUCUMBERS, LEMONS, KALE, & SPINACH" Date available: 09/21/2017 Date last updated by company: 09/21/2017
