Source: USDA Branded Food Products Database Release December 2017 Software v.3.8.6.4 2017-10-02
Report Run at: December 19, 2017 02:53 EST
"Nutrient data for: 45187069, WHOLE FOODS MARKET, HONEY SRIRACHA MARINADE, UPC: 034683351142"
Food Group:  Branded Food Products Database
Common Name:

Nutrient,Unit,Data points,Std. Error,"1 Tbsp = 14.0g",1Value per 100 g,
Proximates
"Energy",kcal,--,--,20,143
"Protein",g,--,--,0.00,0.00
"Total lipid (fat)",g,--,--,0.00,0.00
"Carbohydrate, by difference",g,--,--,5.00,35.71
"Fiber, total dietary",g,--,--,0.0,0.0
"Sugars, total",g,--,--,3.00,21.43
Minerals
"Calcium, Ca",mg,--,--,0,0
"Iron, Fe",mg,--,--,0.00,0.00
"Sodium, Na",mg,--,--,190,1357
Vitamins
"Vitamin C, total ascorbic acid",mg,--,--,8.6,61.2
"Vitamin A, IU",IU,--,--,715,5104
Lipids
"Fatty acids, total saturated",g,--,--,0.000,0.000
"Fatty acids, total trans",g,--,--,0.000,0.000
"Cholesterol",mg,--,--,0,0
Amino Acids
Other
Ingredients
"RED BELL PEPPER PUREE (RED BELL PEPPERS, WATER, CITRIC ACID), GARLIC CHILI SAUCE (CHILI PEPPERS, DISTILLED VINEGAR, GARLIC SALT), HONEY, TAPIOCA SYRUP, GARLIC (GARLIC, CITRIC ACID), WHITE VINEGAR, SRIRACHA CHILI SAUCE (RED CHILI PEPPER, SALT, VINEGAR, SUGAR, GARLIC, NATURAL FLAVOR), ROASTED GARLIC PUREE (ROASTED GARLIC, WATER), SALT, LEMON JUICE CONCENTRATE, XANTHAN GUM." Date available: 07/14/2017 Date last updated by company: 07/14/2017
