Source: USDA Branded Food Products Database Release December 2017 Software v.3.8.6.4 2017-10-02
Report Run at: December 19, 2017 02:45 EST
"Nutrient data for: 45168401, WHOLE FOODS MARKET, CHICKEN NOODLE SOUP, UPC: 099482801687"
Food Group:  Branded Food Products Database
Common Name:

Nutrient,Unit,Data points,Std. Error,"8.0 ONZ = 227.0g",1Value per 100 g,
Proximates
"Energy",kcal,--,--,120,53
"Protein",g,--,--,8.99,3.96
"Total lipid (fat)",g,--,--,3.50,1.54
"Carbohydrate, by difference",g,--,--,18.00,7.93
"Fiber, total dietary",g,--,--,0.9,0.4
"Sugars, total",g,--,--,2.00,0.88
Minerals
"Calcium, Ca",mg,--,--,20,9
"Iron, Fe",mg,--,--,3.88,1.71
"Sodium, Na",mg,--,--,640,282
Vitamins
"Vitamin C, total ascorbic acid",mg,--,--,1.4,0.6
"Vitamin A, IU",IU,--,--,1889,832
Lipids
"Fatty acids, total saturated",g,--,--,0.999,0.440
"Fatty acids, total trans",g,--,--,0.000,0.000
"Cholesterol",mg,--,--,25,11
Amino Acids
Other
Ingredients
"CHICKEN BROTH (WATER, CHICKEN STOCK, CHICKEN WITH JUICES, NATURAL FLAVOR, SALT, MALTODEXTRIN, SUGAR, ONION POWDER, POTATO STARCH. GARLIC POWDER, TURMERIC, CELERIAC JUICE CONCENTRATE), PASTA (SEMOLINA, NIACIN, IRON [FERROUS SULFATE], THIAMIN MONONITRATE, RIBOFLAVIN AND FOLIC ACID, WATER, EGG WHITES), BONELESS SKINLESS CHICKEN (CHICKEN MEAT, WATER, RICE STARCH AND SALT), CARROT, ONION, CELERY, SALT." Date available: 07/14/2017 Date last updated by company: 07/14/2017
