Source: USDA Branded Food Products Database Release December 2017 Software v.3.8.6.4 2017-10-02
Report Run at: December 19, 2017 02:57 EST
"Nutrient data for: 45169033, WHOLE FOODS MARKET, MULTIGRAIN BAGEL SLIMS, UPC: 754643005068"
Food Group:  Branded Food Products Database
Common Name:

Nutrient,Unit,Data points,Std. Error,"1 BAGEL SLIM = 46.0g",1Value per 100 g,
Proximates
"Energy",kcal,--,--,110,239
"Protein",g,--,--,5.00,10.87
"Total lipid (fat)",g,--,--,1.00,2.17
"Carbohydrate, by difference",g,--,--,22.00,47.83
"Fiber, total dietary",g,--,--,4.0,8.7
"Sugars, total",g,--,--,3.00,6.52
Minerals
"Calcium, Ca",mg,--,--,60,130
"Iron, Fe",mg,--,--,3.45,7.49
"Sodium, Na",mg,--,--,170,370
Vitamins
"Vitamin C, total ascorbic acid",mg,--,--,5.8,12.5
"Thiamin",mg,--,--,0.000,0.000
"Riboflavin",mg,--,--,0.068,0.148
"Niacin",mg,--,--,0.956,2.078
"Vitamin A, IU",IU,--,--,0,0
Lipids
"Fatty acids, total saturated",g,--,--,0.000,0.000
"Fatty acids, total monounsaturated",g,--,--,0.000,0.000
"Fatty acids, total polyunsaturated",g,--,--,0.000,0.000
"Fatty acids, total trans",g,--,--,0.000,0.000
"Cholesterol",mg,--,--,0,0
Amino Acids
Other
Ingredients
"WATER, WHOLE WHEAT FLOUR, UNBLEACHED, UNBROMATED, ENRICHED WHEAT FLOUR, [FLOUR, MALTED BARLEY FLOUR, NIACIN (VITAMIN B2), FOLIC ACID], CELLULOSE FIBER, SUGAR, WHEAT GLUTEN, SUGARCANE FIBER, YEAST, CONTAINS 2% OR LESS OF: WHEAT, OATS, BARLEY, RYE, TRITICALE, MILLET, BROWN RICE, BULGUR, BUCKWHEAT, SPELT, AMARANTH, FLAX SEEDS, MONOGLYCERIDES, CULTURED WHEAT FLOUR, SALT, GUAR GUM, XANTHAN GUM, CARRAGINEAN GUM, HIGH OLEIC SUNFLOWER OIL, ENZYMES, YELLOW CORN MEAL." Date available: 07/14/2017 Date last updated by company: 07/14/2017
