Source: USDA Branded Food Products Database Release December 2017 Software v.3.8.6.4 2017-10-02
Report Run at: December 19, 2017 04:13 EST
"Nutrient data for: 45122777, WIEJSKE WYROBY, PETITE DILL PICKLES, UPC: 073147144753"
Food Group:  Branded Food Products Database
Common Name:

Nutrient,Unit,Data points,Std. Error,"3.0 PICKLES = 28.0g",1Value per 100 g,
Proximates
"Energy",kcal,--,--,0,0
"Protein",g,--,--,0.00,0.00
"Total lipid (fat)",g,--,--,0.00,0.00
"Carbohydrate, by difference",g,--,--,1.00,3.57
Minerals
"Sodium, Na",mg,--,--,280,1000
Vitamins
Lipids
Amino Acids
Other
Ingredients
"CUCUMBERS, WATER, DISTILLED VINEGAR, SALT, DEHYDRATED GARLIC, DEHYDRATED ONION, CALCIUM CHLORIDE, POLYSORBATE 80, NATURAL FLAVOR, YELLOW 5, POTASSIUM METABISULFITE (PRESERVATIVE)." Date available: 06/25/2017 Date last updated by company: 06/25/2017
