Source: USDA Branded Food Products Database Release December 2017 Software v.3.8.6.4 2017-10-02
Report Run at: December 19, 2017 04:14 EST
"Nutrient data for: 45278436, WILD ALASKAN PINK SALMON, UPC: 888670032206"
Food Group:  Branded Food Products Database
Common Name:

Nutrient,Unit,Data points,Std. Error,"0.25 CUP | ABOUT = 58.0g",1Value per 100 g,
Proximates
"Energy",kcal,--,--,60,103
"Protein",g,--,--,13.00,22.41
"Total lipid (fat)",g,--,--,0.50,0.86
"Carbohydrate, by difference",g,--,--,0.00,0.00
"Fiber, total dietary",g,--,--,0.0,0.0
"Sugars, total",g,--,--,0.00,0.00
Minerals
"Calcium, Ca",mg,--,--,0,0
"Iron, Fe",mg,--,--,0.00,0.00
"Sodium, Na",mg,--,--,210,362
Vitamins
"Vitamin C, total ascorbic acid",mg,--,--,0.0,0.0
"Vitamin A, IU",IU,--,--,0,0
Lipids
"Fatty acids, total saturated",g,--,--,0.000,0.000
"Fatty acids, total trans",g,--,--,0.000,0.000
"Cholesterol",mg,--,--,20,34
Amino Acids
Other
Ingredients
"PINK SALMON, SALT." Date available: 07/14/2017 Date last updated by company: 07/14/2017
