Source: USDA Branded Food Products Database Release December 2017 Software v.3.8.6.4 2017-10-02
Report Run at: December 19, 2017 04:36 EST
"Nutrient data for: 45203386, WILD RICE, MUSHROOM AND 3 CHEESE STUFFED CHICKEN BREAST, UPC: 888649000373"
Food Group:  Branded Food Products Database
Common Name:

Nutrient,Unit,Data points,Std. Error,"5.0 ONZ = 140.0g",1Value per 100 g,
Proximates
"Energy",kcal,--,--,230,164
"Protein",g,--,--,16.00,11.43
"Total lipid (fat)",g,--,--,13.01,9.29
"Carbohydrate, by difference",g,--,--,13.01,9.29
"Fiber, total dietary",g,--,--,0.0,0.0
"Sugars, total",g,--,--,11.00,7.86
Minerals
"Calcium, Ca",mg,--,--,20,14
"Iron, Fe",mg,--,--,0.22,0.16
"Sodium, Na",mg,--,--,449,321
Vitamins
"Vitamin C, total ascorbic acid",mg,--,--,1.4,1.0
"Riboflavin",mg,--,--,0.083,0.059
"Vitamin A, IU",IU,--,--,0,0
Lipids
"Fatty acids, total saturated",g,--,--,4.494,3.210
"Fatty acids, total monounsaturated",g,--,--,4.998,3.570
"Fatty acids, total polyunsaturated",g,--,--,0.000,0.000
"Fatty acids, total trans",g,--,--,0.504,0.360
"Cholesterol",mg,--,--,0,0
Amino Acids
Other
Ingredients
"CHICKEN BREAST WITH RIB MEAT, 3 CHEESE BLEND (MOZZARELLA CHEESE AND WHITE CHEDDAR CHEESE [PASTEURIZED MILK, CHEESE CULTURES, SALT, ENZYMES], AND PARMESAN CHEESE [PASTEURIZED PART-SKIM COW'S MILK, SALT, CHEESE CULTURES, ENZYMES]), WATER, WILD RICE AND MUSHROOM STUFFING (INSTANT WHITE AND WILD RICE, BREADCRUMBS [WHEAT FLOUR, SUGAR, SOYBEAN OIL, SALT, YEAST], DEHYDRATED VEGETABLES [ONION, MUSHROOM, BELL PEPPER, CELERY], CHICKEN FAT, SALT, SPICES, GARLIC POWDER), CARAMELIZED MUSHROOM, CARAMELIZED ONION, RED BELL PEPPER, INSTANT RICE (WILD RICE AND WHITE RICE), NATURAL FLAVOR (YEAST EXTRACT, SALT, NATURAL FLAVOR)." Date available: 10/13/2017 Date last updated by company: 10/13/2017
