Source: USDA Branded Food Products Database Release December 2017 Software v.3.8.6.4 2017-10-02
Report Run at: December 19, 2017 04:18 EST
"Nutrient data for: 45167256, WILD BOAR, DARK CHOCOLATE, SOUR CHERRY ALMONDS, UPC: 031044708706"
Food Group:  Branded Food Products Database
Common Name:

Nutrient,Unit,Data points,Std. Error,"65.0 GRM = 65.0g",1Value per 100 g,
Proximates
"Energy",kcal,--,--,380,585
"Protein",g,--,--,5.00,7.69
"Total lipid (fat)",g,--,--,24.00,36.92
"Carbohydrate, by difference",g,--,--,33.00,50.77
"Fiber, total dietary",g,--,--,7.0,10.8
"Sugars, total",g,--,--,21.00,32.31
Minerals
"Calcium, Ca",mg,--,--,40,62
"Iron, Fe",mg,--,--,8.31,12.78
"Sodium, Na",mg,--,--,0,0
Vitamins
"Vitamin C, total ascorbic acid",mg,--,--,0.0,0.0
"Vitamin A, IU",IU,--,--,100,154
Lipids
"Fatty acids, total saturated",g,--,--,14.001,21.540
"Fatty acids, total trans",g,--,--,0.000,0.000
"Cholesterol",mg,--,--,0,0
Amino Acids
Other
Ingredients
"ORGANIC DARK CHOCOLATE (ORGANIC COCOA BEANS FROM PERU, ORGANIC SUGAR CANE, ORGANIC COCOA BUTTER, SOY LECITHIN, ORGANIC BOURBON VANILLA), ORGANIC DRY ROASTED ALMONDS AND ORGANIC DRIED SOUR CHERRIES." Date available: 10/13/2017 Date last updated by company: 10/13/2017
