Source: USDA Branded Food Products Database Release December 2017 Software v.3.8.6.4 2017-10-02
Report Run at: December 19, 2017 04:33 EST
"Nutrient data for: 45028643, WILD OATS MARKET PLACE, ORGANIC HOMESTYLE SOUP, CHICKEN NOODLE, UPC: 848737003471"
Food Group:  Branded Food Products Database
Common Name:

Nutrient,Unit,Data points,Std. Error,"1 cup = 245.0g",1Value per 100 g,
Proximates
"Energy",kcal,--,--,91,37
"Protein",g,--,--,7.01,2.86
"Total lipid (fat)",g,--,--,1.00,0.41
"Carbohydrate, by difference",g,--,--,12.01,4.90
"Fiber, total dietary",g,--,--,1.0,0.4
"Sugars, total",g,--,--,2.01,0.82
Minerals
"Calcium, Ca",mg,--,--,20,8
"Iron, Fe",mg,--,--,0.37,0.15
"Sodium, Na",mg,--,--,691,282
Vitamins
"Vitamin C, total ascorbic acid",mg,--,--,0.0,0.0
"Vitamin A, IU",IU,--,--,2499,1020
Lipids
"Fatty acids, total saturated",g,--,--,0.000,0.000
"Fatty acids, total trans",g,--,--,0.000,0.000
"Cholesterol",mg,--,--,20,8
Amino Acids
Other
Ingredients
"WATER, ORGANIC CARROTS, ORGANIC COOKED WHITE CHICKEN MEAT (ORGANIC WHITE CHICKEN MEAT, WATER, ORGANIC CORN STARCH, ORGANIC SOY PROTEIN CONCENTRATE, SEA SALT, ORGANIC NATURAL FLAVOR), ORGANIC EGG NOODLES (ORGANIC SEMOLINA WHEAT FLOUR, ORGANIC EGG WHITE, ORGANIC WHOLE EGG), ORGANIC CELERY, CONTAINS LESS THAN 2% OF ORGANIC CORN STARCH, ORGANIC CHICKEN STOCK CONCENTRATE, ORGANIC CHICKEN FLAVOR, SEA SALT, ORGANIC ONION POWDER, ORGANIC YEAST EXTRACT, ORGANIC CANE SUGAR, ORGANIC GARLIC POWDER, ORGANIC VEGETABLE BROTH CONCENTRATE, ORGANIC CHIVES, ORGANIC TURMERIC EXTRACT (COLOR), ORGANIC DEHYDRATED PARSLEY, CITRIC ACID, ORGANIC VEGETABLE CONCENTRATE (ORGANIC CARROT, ORGANIC ONION, ORGANIC CELERY)." Date available: 07/14/2017 Date last updated by company: 07/14/2017
