Source: USDA Branded Food Products Database Release December 2017 Software v.3.8.6.4 2017-10-02
Report Run at: December 19, 2017 04:31 EST
"Nutrient data for: 45313205, WILD HERRING IN WINE SAUCE, UPC: 022635400116"
Food Group:  Branded Food Products Database
Common Name:

Nutrient,Unit,Data points,Std. Error,"2.0 ONZ = 57.0g",1Value per 100 g,
Proximates
"Energy",kcal,--,--,90,158
"Protein",g,--,--,7.00,12.28
"Total lipid (fat)",g,--,--,4.00,7.02
"Carbohydrate, by difference",g,--,--,7.00,12.28
"Fiber, total dietary",g,--,--,0.0,0.0
"Sugars, total",g,--,--,1.00,1.75
Minerals
"Calcium, Ca",mg,--,--,0,0
"Iron, Fe",mg,--,--,1.07,1.88
"Sodium, Na",mg,--,--,440,772
Vitamins
"Vitamin C, total ascorbic acid",mg,--,--,0.0,0.0
"Vitamin A, IU",IU,--,--,0,0
Lipids
"Fatty acids, total saturated",g,--,--,2.502,4.390
"Fatty acids, total monounsaturated",g,--,--,0.502,0.880
"Fatty acids, total polyunsaturated",g,--,--,0.998,1.750
"Fatty acids, total trans",g,--,--,0.000,0.000
"Cholesterol",mg,--,--,20,35
Amino Acids
Other
Ingredients
"WILD HERRING, WATER, ONIONS, CANE SUGAR, VINEGAR, WINE, SALT, NATURAL FLAVORS." Date available: 07/14/2017 Date last updated by company: 07/14/2017
