Source: USDA Branded Food Products Database Release December 2017 Software v.3.8.6.4 2017-10-02
Report Run at: December 19, 2017 04:20 EST
"Nutrient data for: 45212472, WILD CAUGHT GULF SHRIMP, UPC: 788767006564"
Food Group:  Branded Food Products Database
Common Name:

Nutrient,Unit,Data points,Std. Error,"4.0 ONZ = 112.0g",1Value per 100 g,
Proximates
"Energy",kcal,--,--,144,129
"Protein",g,--,--,29.00,25.89
"Total lipid (fat)",g,--,--,2.00,1.79
"Carbohydrate, by difference",g,--,--,1.00,0.89
"Fiber, total dietary",g,--,--,0.0,0.0
"Sugars, total",g,--,--,0.00,0.00
Minerals
"Calcium, Ca",mg,--,--,60,54
"Iron, Fe",mg,--,--,1.37,1.22
"Sodium, Na",mg,--,--,365,326
Vitamins
"Vitamin C, total ascorbic acid",mg,--,--,0.9,0.8
"Vitamin A, IU",IU,--,--,76,68
Lipids
"Fatty acids, total saturated",g,--,--,0.000,0.000
"Fatty acids, total monounsaturated",g,--,--,0.000,0.000
"Fatty acids, total polyunsaturated",g,--,--,0.000,0.000
"Fatty acids, total trans",g,--,--,0.000,0.000
"Cholesterol",mg,--,--,190,170
Amino Acids
Other
Ingredients
"SHRIMP, WATER, SALT, SODIUM BISULFITE (AS A PRESERVATIVE) AND SODIUM TRIPOLYPHOSPHATE." Date available: 07/14/2017 Date last updated by company: 07/14/2017
