Source: USDA Branded Food Products Database Release December 2017 Software v.3.8.6.4 2017-10-02
Report Run at: December 19, 2017 04:33 EST
"Nutrient data for: 45058038, WILD OATS MARKET PLACE, ORGANIC CRUSHED TOMATOES, UPC: 848737002009"
Food Group:  Branded Food Products Database
Common Name:

Nutrient,Unit,Data points,Std. Error,"0.25 cup = 61.0g",1Value per 100 g,
Proximates
"Energy",kcal,--,--,20,33
"Protein",g,--,--,1.00,1.64
"Total lipid (fat)",g,--,--,0.00,0.00
"Carbohydrate, by difference",g,--,--,4.00,6.56
"Fiber, total dietary",g,--,--,2.0,3.3
"Sugars, total",g,--,--,2.00,3.28
Minerals
"Calcium, Ca",mg,--,--,20,33
"Iron, Fe",mg,--,--,0.77,1.26
"Sodium, Na",mg,--,--,85,139
Vitamins
"Vitamin C, total ascorbic acid",mg,--,--,2.6,4.2
"Vitamin A, IU",IU,--,--,1066,1747
Lipids
"Fatty acids, total saturated",g,--,--,0.000,0.000
"Fatty acids, total trans",g,--,--,0.000,0.000
"Cholesterol",mg,--,--,0,0
Amino Acids
Other
Ingredients
"ORGANIC TOMATO PUREE, ORGANIC TOMATOES, SEA SALT, DRIED ORGANIC BASIL, CITRIC ACID." Date available: 07/14/2017 Date last updated by company: 07/14/2017
