Source: USDA Branded Food Products Database Release December 2017 Software v.3.8.6.4 2017-10-02
Report Run at: December 19, 2017 04:37 EST
"Nutrient data for: 45269125, WILD SARDINES, SKINLESS & BONELESS FILLETS IN EXTRA VIRGIN OLIVE OIL, UPC: 829696001708"
Food Group:  Branded Food Products Database
Common Name:

Nutrient,Unit,Data points,Std. Error,"2.0 ONZ = 56.0g",1Value per 100 g,
Proximates
"Energy",kcal,--,--,140,250
"Protein",g,--,--,13.00,23.21
"Total lipid (fat)",g,--,--,9.00,16.07
"Carbohydrate, by difference",g,--,--,0.00,0.00
Minerals
"Calcium, Ca",mg,--,--,60,107
"Iron, Fe",mg,--,--,2.18,3.90
"Sodium, Na",mg,--,--,130,232
Vitamins
"Vitamin C, total ascorbic acid",mg,--,--,0.0,0.0
"Vitamin A, IU",IU,--,--,0,0
Lipids
"Fatty acids, total saturated",g,--,--,2.498,4.460
"Fatty acids, total trans",g,--,--,0.000,0.000
"Cholesterol",mg,--,--,20,36
Amino Acids
Other
Ingredients
"SARDINES (SARDINA PILCHARDUS), ORGANIC EXTRA VIRGIN OLIVE OIL AND SEA SALT." Date available: 10/19/2017 Date last updated by company: 10/19/2017
