Source: USDA Branded Food Products Database Release December 2017 Software v.3.8.6.4 2017-10-02
Report Run at: December 19, 2017 04:27 EST
"Nutrient data for: 45106710, WILD HARVEST, MACARONI SHELLS & WHITE CHEDDAR CHEESE DINNER, UPC: 011535504888"
Food Group:  Branded Food Products Database
Common Name:

Nutrient,Unit,Data points,Std. Error,"0.5 BOX, MAKES ABOUT 1 CUP PREPARED = 70.0g",1Value per 100 g,
Proximates
"Energy",kcal,--,--,260,371
"Protein",g,--,--,10.00,14.29
"Total lipid (fat)",g,--,--,3.00,4.29
"Carbohydrate, by difference",g,--,--,48.00,68.57
"Fiber, total dietary",g,--,--,1.0,1.4
"Sugars, total",g,--,--,5.00,7.14
Minerals
"Calcium, Ca",mg,--,--,100,143
"Iron, Fe",mg,--,--,2.57,3.67
"Sodium, Na",mg,--,--,590,843
Vitamins
"Vitamin C, total ascorbic acid",mg,--,--,0.0,0.0
"Vitamin A, IU",IU,--,--,0,0
Lipids
"Fatty acids, total saturated",g,--,--,1.498,2.140
"Fatty acids, total monounsaturated",g,--,--,0.497,0.710
"Fatty acids, total polyunsaturated",g,--,--,0.000,0.000
"Fatty acids, total trans",g,--,--,0.000,0.000
"Cholesterol",mg,--,--,10,14
Amino Acids
Other
Ingredients
"MACARONI PRODUCT (WHEAT FLOUR), CHEESE SAUCE MIX (CHEDDAR CHEESE [CULTURED PASTEURIZED MILK, SALT, ENZYMES], WHEY, BUTTERMILK SOLIDS, SALT)." Date available: 06/25/2017 Date last updated by company: 06/25/2017
