Source: USDA Branded Food Products Database Release December 2017 Software v.3.8.6.4 2017-10-02
Report Run at: December 19, 2017 04:38 EST
"Nutrient data for: 45036367, WILD SOCKEYE SALMON PORTIONS, UPC: 630557197344"
Food Group:  Branded Food Products Database
Common Name:

Nutrient,Unit,Data points,Std. Error,"1 PORTION = 170.0g",1Value per 100 g,
Proximates
"Energy",kcal,--,--,260,153
"Protein",g,--,--,36.99,21.76
"Total lipid (fat)",g,--,--,12.00,7.06
"Carbohydrate, by difference",g,--,--,0.00,0.00
"Fiber, total dietary",g,--,--,0.0,0.0
"Sugars, total",g,--,--,0.00,0.00
Minerals
"Calcium, Ca",mg,--,--,20,12
"Iron, Fe",mg,--,--,0.54,0.32
"Potassium, K",mg,--,--,610,359
"Sodium, Na",mg,--,--,100,59
Vitamins
"Vitamin C, total ascorbic acid",mg,--,--,0.0,0.0
"Vitamin A, IU",IU,--,--,150,88
Lipids
"Fatty acids, total saturated",g,--,--,1.496,0.880
"Fatty acids, total trans",g,--,--,0.000,0.000
"Cholesterol",mg,--,--,110,65
Amino Acids
Other
Ingredients
"WILD CAUGHT SOCKEYE SALMON" Date available: 07/14/2017 Date last updated by company: 07/14/2017
