Source: USDA Branded Food Products Database Release December 2017 Software v.3.8.6.4 2017-10-02
Report Run at: December 19, 2017 04:17 EST
"Nutrient data for: 45319216, WILD BERRIES GUMMIES, UPC: 019000083449"
Food Group:  Branded Food Products Database
Common Name:

Nutrient,Unit,Data points,Std. Error,"10.0 PIECES = 40.0g",1Value per 100 g,
Proximates
"Energy",kcal,--,--,130,325
"Protein",g,--,--,1.00,2.50
"Total lipid (fat)",g,--,--,0.00,0.00
"Carbohydrate, by difference",g,--,--,31.00,77.50
"Sugars, total",g,--,--,25.00,62.50
Minerals
"Sodium, Na",mg,--,--,5,12
Vitamins
Lipids
Amino Acids
Other
Ingredients
"CORN SYRUP, SUGAR, WATER, MODIFIED CORN STARCH, GELATIN; LESS THAN 2% OF: CITRIC ACID, NATURAL AND ARTIFICIAL FLAVORS, MINERAL OIL, COLORS (RED 40, BLUE 1, YELLOW 5), CARNAUBA WAX." Date available: 07/14/2017 Date last updated by company: 07/14/2017
