Source: USDA Branded Food Products Database Release December 2017 Software v.3.8.6.4 2017-10-02
Report Run at: December 19, 2017 04:36 EST
"Nutrient data for: 45167374, WILD ROOTS, REAL FOOD FOR REAL PEOPLE, TOASTED WHEAT GERM, UPC: 041449470511"
Food Group:  Branded Food Products Database
Common Name:

Nutrient,Unit,Data points,Std. Error,"2.0 Tbsp = 15.0g",1Value per 100 g,
Proximates
"Energy",kcal,--,--,60,400
"Protein",g,--,--,4.00,26.67
"Total lipid (fat)",g,--,--,1.50,10.00
"Carbohydrate, by difference",g,--,--,8.00,53.33
"Fiber, total dietary",g,--,--,2.0,13.3
"Sugars, total",g,--,--,1.00,6.67
Minerals
"Calcium, Ca",mg,--,--,0,0
"Iron, Fe",mg,--,--,3.60,24.00
"Magnesium, Mg",mg,--,--,133,889
"Phosphorus, P",mg,--,--,500,3333
"Potassium, K",mg,--,--,140,933
"Sodium, Na",mg,--,--,0,0
"Zinc, Zn",mg,--,--,1.50,10.00
Vitamins
"Vitamin C, total ascorbic acid",mg,--,--,0.0,0.0
"Thiamin",mg,--,--,0.750,5.000
"Vitamin A, IU",IU,--,--,0,0
Lipids
"Fatty acids, total saturated",g,--,--,0.500,3.330
"Fatty acids, total monounsaturated",g,--,--,0.000,0.000
"Fatty acids, total polyunsaturated",g,--,--,1.000,6.670
"Fatty acids, total trans",g,--,--,0.000,0.000
"Cholesterol",mg,--,--,0,0
Amino Acids
Other
Ingredients
"WHEAT GERM." Date available: 07/14/2017 Date last updated by company: 07/14/2017
