Source: USDA Branded Food Products Database Release December 2017 Software v.3.8.6.4 2017-10-02
Report Run at: December 19, 2017 04:35 EST
"Nutrient data for: 45153880, WILD OPHELIA, PEANUT BUTTER CUPS, UPC: 810048014323"
Food Group:  Branded Food Products Database
Common Name:

Nutrient,Unit,Data points,Std. Error,"4.0 cup = 40.0g",1Value per 100 g,
Proximates
"Energy",kcal,--,--,210,525
"Protein",g,--,--,4.00,10.00
"Total lipid (fat)",g,--,--,15.00,37.50
"Carbohydrate, by difference",g,--,--,18.00,45.00
"Fiber, total dietary",g,--,--,2.0,5.0
"Sugars, total",g,--,--,15.00,37.50
Minerals
"Calcium, Ca",mg,--,--,40,100
"Iron, Fe",mg,--,--,3.38,8.44
"Sodium, Na",mg,--,--,50,125
Vitamins
"Vitamin C, total ascorbic acid",mg,--,--,0.0,0.0
"Vitamin A, IU",IU,--,--,0,0
Lipids
"Fatty acids, total saturated",g,--,--,7.000,17.500
"Fatty acids, total trans",g,--,--,0.000,0.000
"Cholesterol",mg,--,--,5,12
Amino Acids
Other
Ingredients
"MILK CHOCOLATE [*SUGAR, COCOA BUTTER, *UNSWEETENED CHOCOLATE, WHOLE MILK POWDER, NONFAT DRY MILK, MILK FAT, SOY LECITHIN- AN EMULSIFIER, *NATURAL VANILLA FLAVOR], PEANUT BUTTER [PEANUTS], DARK CHOCOLATE [* COCOA MASS, *SUGAR, *COCOA BUTTER, SOY LECITHIN- AN EMULSIFIER, *VANILLA], CARAMEL [CREAM, NON-GMO CORN SYRUP, CANE SUGAR, NON-GMO SOY LECITHIN, SODIUM BICARBONATE], SMOKED SEA SALT." Date available: 07/14/2017 Date last updated by company: 07/14/2017
