Source: USDA Branded Food Products Database Release December 2017 Software v.3.8.6.4 2017-10-02
Report Run at: December 19, 2017 04:37 EST
"Nutrient data for: 45113008, WILD SELECTIONS, TINY PINK SHRIMP, UPC: 086600265001"
Food Group:  Branded Food Products Database
Common Name:

Nutrient,Unit,Data points,Std. Error,"0.25 CUP | ABOUT = 56.0g",1Value per 100 g,
Proximates
"Energy",kcal,--,--,50,89
"Protein",g,--,--,11.00,19.64
"Total lipid (fat)",g,--,--,1.00,1.79
"Carbohydrate, by difference",g,--,--,0.00,0.00
"Fiber, total dietary",g,--,--,0.0,0.0
"Sugars, total",g,--,--,0.00,0.00
Minerals
"Calcium, Ca",mg,--,--,20,36
"Iron, Fe",mg,--,--,0.00,0.00
"Sodium, Na",mg,--,--,370,661
Vitamins
"Vitamin C, total ascorbic acid",mg,--,--,0.0,0.0
"Vitamin A, IU",IU,--,--,0,0
Lipids
"Fatty acids, total saturated",g,--,--,0.000,0.000
"Fatty acids, total trans",g,--,--,0.000,0.000
"Cholesterol",mg,--,--,50,89
Amino Acids
Other
Ingredients
"SHRIMP, WATER, SALT, CITRIC ACID" Date available: 07/14/2017 Date last updated by company: 07/14/2017
