Source: USDA Branded Food Products Database Release December 2017 Software v.3.8.6.4 2017-10-02
Report Run at: December 19, 2017 04:27 EST
"Nutrient data for: 45294330, WILD HARVEST, COCONUT WATER, UPC: 011535505236"
Food Group:  Branded Food Products Database
Common Name:

Nutrient,Unit,Data points,Std. Error,"1 CAN = 236.0g",1Value per 100 g,
Proximates
"Energy",kcal,--,--,50,21
"Protein",g,--,--,0.00,0.00
"Total lipid (fat)",g,--,--,0.00,0.00
"Carbohydrate, by difference",g,--,--,11.99,5.08
"Sugars, total",g,--,--,7.01,2.97
Minerals
"Calcium, Ca",mg,--,--,40,17
"Potassium, K",mg,--,--,460,195
"Sodium, Na",mg,--,--,54,23
Vitamins
Lipids
Amino Acids
Other
Ingredients
"100% COCONUT WATER." Date available: 06/24/2017 Date last updated by company: 06/24/2017
