Source: USDA Branded Food Products Database Release December 2017 Software v.3.8.6.4 2017-10-02
Report Run at: December 19, 2017 04:36 EST
"Nutrient data for: 45228744, WILD POPPY JUICE - GRAPEFRUIT GINGER, UPC: 793573940292"
Food Group:  Branded Food Products Database
Common Name:

Nutrient,Unit,Data points,Std. Error,"10.0 OZA = 296.0g",1Value per 100 g,
Proximates
"Energy",kcal,--,--,101,34
"Protein",g,--,--,2.01,0.68
"Total lipid (fat)",g,--,--,0.00,0.00
"Carbohydrate, by difference",g,--,--,24.01,8.11
"Fiber, total dietary",g,--,--,0.0,0.0
"Sugars, total",g,--,--,21.99,7.43
Minerals
"Calcium, Ca",mg,--,--,0,0
"Iron, Fe",mg,--,--,0.00,0.00
"Sodium, Na",mg,--,--,0,0
Vitamins
"Vitamin C, total ascorbic acid",mg,--,--,12.1,4.1
"Vitamin A, IU",IU,--,--,0,0
Lipids
Amino Acids
Other
Ingredients
"FILTERED WATER, ORGANIC GRAPEFRUIT JUICE, ORGANIC CANE SUGAR, ORGANIC GINGER" Date available: 07/14/2017 Date last updated by company: 07/14/2017
