Source: USDA Branded Food Products Database Release December 2017 Software v.3.8.6.4 2017-10-02
Report Run at: December 19, 2017 04:22 EST
"Nutrient data for: 45288244, WILD CAUGHT PATAGONIAN RED RAW SHRIMP, UPC: 713733072816"
Food Group:  Branded Food Products Database
Common Name:

Nutrient,Unit,Data points,Std. Error,"4.0 ONZ = 110.0g",1Value per 100 g,
Proximates
"Energy",kcal,--,--,100,91
"Protein",g,--,--,22.00,20.00
"Total lipid (fat)",g,--,--,0.00,0.00
"Carbohydrate, by difference",g,--,--,3.00,2.73
"Fiber, total dietary",g,--,--,0.0,0.0
"Sugars, total",g,--,--,0.00,0.00
Minerals
"Calcium, Ca",mg,--,--,390,355
"Iron, Fe",mg,--,--,2.50,2.27
"Potassium, K",mg,--,--,336,305
"Sodium, Na",mg,--,--,125,114
Vitamins
Lipids
"Fatty acids, total saturated",g,--,--,0.000,0.000
"Fatty acids, total trans",g,--,--,0.000,0.000
"Cholesterol",mg,--,--,143,130
Amino Acids
Other
Ingredients
"SHRIMP (PLEOTICUS MUELLERI), SODIUM METABISULFITE (AS A PRESERVATIVE)." Date available: 07/14/2017 Date last updated by company: 07/14/2017
