Source: USDA Branded Food Products Database Release December 2017 Software v.3.8.6.4 2017-10-02
Report Run at: December 19, 2017 04:41 EST
"Nutrient data for: 45234035, WILLIAMS CHEESE, SMOKEY SWISS PASTEURIZED CHEESE SPREAD, UPC: 077017773227"
Food Group:  Branded Food Products Database
Common Name:

Nutrient,Unit,Data points,Std. Error,"14.0 GRM = 14.0g",1Value per 100 g,
Proximates
"Energy",kcal,--,--,100,714
"Protein",g,--,--,6.00,42.86
"Total lipid (fat)",g,--,--,7.00,50.00
"Carbohydrate, by difference",g,--,--,2.00,14.29
"Fiber, total dietary",g,--,--,0.0,0.0
"Sugars, total",g,--,--,0.00,0.00
Minerals
"Calcium, Ca",mg,--,--,150,1071
"Sodium, Na",mg,--,--,320,2286
Vitamins
"Vitamin A, IU",IU,--,--,1072,7654
Lipids
"Fatty acids, total saturated",g,--,--,6.000,42.860
"Fatty acids, total trans",g,--,--,0.000,0.000
"Cholesterol",mg,--,--,30,214
Amino Acids
Other
Ingredients
"SWISS CHEESE (CULTURED PASTEURIZED MILK, SALT, ENZYMES), WHEY, WATER, SKIM MILK, SALT, ACETIC ACID, LIQUID SMOKE, GUAR GUM, SORBIC ACID (TO PROTECT FRESHNESS)." Date available: 08/16/2017 Date last updated by company: 08/16/2017
