Source: USDA Branded Food Products Database Release December 2017 Software v.3.8.6.4 2017-10-02
Report Run at: December 19, 2017 04:41 EST
"Nutrient data for: 45248741, WILLIAMS & BENNETT, BELGIAN MILK CHOCOLATE DRENCHED PEANUT BUTTER DREAMS, UPC: 605419111134"
Food Group:  Branded Food Products Database
Common Name:

Nutrient,Unit,Data points,Std. Error,"30.0 GRM = 30.0g",1Value per 100 g,
Proximates
"Energy",kcal,--,--,150,500
"Protein",g,--,--,2.00,6.67
"Total lipid (fat)",g,--,--,8.00,26.67
"Carbohydrate, by difference",g,--,--,20.00,66.67
"Fiber, total dietary",g,--,--,1.0,3.3
"Sugars, total",g,--,--,12.00,40.00
Minerals
"Sodium, Na",mg,--,--,76,253
Vitamins
Lipids
"Fatty acids, total saturated",g,--,--,3.999,13.330
"Cholesterol",mg,--,--,5,17
Amino Acids
Other
Ingredients
"COOKIE: UNBLEACHED ENRICHED FLOUR, (WHEAT FLOUR, NIACIN, REDUCED IRON, THIAMINE MONONITRATE (VITAMIN B1), RIBOFLAVIN, (VITAMIN B2), FOLIC ACID), SUGAR, PEANUT BUTTER (PEANUTS, CORN SYRUP SOLIDS, HYDROGENATED RAPESEED AND/OR COTTONSEED AND/OR SOYBEAN OILS, PEANUT OIL, SALT), SOYBEAN AND/OR PALM OIL, HIGH FRUCTOSE COM SYRUP, WHOLE GRAIN WHEAT FLOUR, PARTIALLY HYDROGENATED COTTONSEED OIL, SALT, LEAVENING (BAKING SODA AND/OR CALCIUM PHOSPHATE), CORNSTARCH, SOY LECITHIN, VANILLIN - AN ARTIFICIAL FLAVOR. COCONUT CRUNCH: COCONUT & SUGAR. MILK CHOCOLATE: SUGAR, WHOLE MILK POWDER, COCOA BUTTER, BELGIAN UNSWEETENED CHOCOLATE, SOY LECITHIN (AN EMULSIFIER), NATURAL VANILLA EXTRACT." Date available: 10/13/2017 Date last updated by company: 10/13/2017
