Source: USDA Branded Food Products Database Release December 2017 Software v.3.8.6.4 2017-10-02
Report Run at: December 19, 2017 04:43 EST
"Nutrient data for: 45175226, WILTON, CUPCAKE DECORATING KIT, UPC: 070896319555"
Food Group:  Branded Food Products Database
Common Name:

Nutrient,Unit,Data points,Std. Error,"0.041 KIT = 1.1g",1Value per 100 g,
Proximates
"Energy",kcal,--,--,5,455
"Protein",g,--,--,0.00,0.00
"Total lipid (fat)",g,--,--,0.00,0.00
"Carbohydrate, by difference",g,--,--,1.00,90.91
"Sugars, total",g,--,--,1.00,90.91
Minerals
"Sodium, Na",mg,--,--,0,0
Vitamins
Lipids
Amino Acids
Other
Ingredients
"DEXTROSE, CORN STARCH, DEXTRIN, CARNAUBA WAX, ARTIFICIAL COLOR, TITANIUM DIOXIDE (COLOR)." Date available: 07/14/2017 Date last updated by company: 07/14/2017
