Source: USDA Branded Food Products Database Release December 2017 Software v.3.8.6.4 2017-10-02
Report Run at: December 19, 2017 04:43 EST
"Nutrient data for: 45175517, WILTON, DECORATING CANDY, UPC: 070896790224"
Food Group:  Branded Food Products Database
Common Name:

Nutrient,Unit,Data points,Std. Error,"4.0 AVERAGE PIECES = 10.0g",1Value per 100 g,
Proximates
"Energy",kcal,--,--,35,350
"Protein",g,--,--,0.00,0.00
"Total lipid (fat)",g,--,--,0.00,0.00
"Carbohydrate, by difference",g,--,--,10.00,100.00
"Sugars, total",g,--,--,8.00,80.00
Minerals
"Sodium, Na",mg,--,--,0,0
Vitamins
Lipids
Amino Acids
Other
Ingredients
"LIPS - DEXTROSE, CORN SYRUP, MALTODEXTRIN, MAGNESIUM STEARATE, CITRIC ACID, WATER, ARTIFICIAL FLAVOR, GUM ARABIC, GLYCEROL MONOSTEARATE, CONFECTIONERS' GLAZE, FD&C YELLOW #5, FD&C BLUE #1, CARNAUBA WAX. EYES - SUGAR, CORN STARCH, CORN SYRUP, WATER, GUM ARABIC, CREAM OF TARTAR, MALTODEXTRIN, FD&C RED #40, FD&C YELLOW #5, FD&C BLUE # 1, TITANIUM DIOXIDE (COLOR). TONGUES - SUGAR, CORN SYRUP, WATER, PECTIN, LACTIC ACID, CITRIC ACID, ARTIFICIAL FLAVOR, SODIUM CITRATE, FD&C RED #40. SPIKES - DEXTROSE, CORN SYRUP, MALTODEXTRIN, MAGNESIUM STEARATE, CITRIC ACID, WATER, ARTIFICIAL FLAVOR, GUM ARABIC, GLYCEROL MONOSTEARATE, CONFECTIONERS' GLAZE, CARNAUBA WAX." Date available: 07/14/2017 Date last updated by company: 07/14/2017
