Source: USDA Branded Food Products Database Release December 2017 Software v.3.8.6.4 2017-10-02
Report Run at: December 19, 2017 04:46 EST
"Nutrient data for: 45175510, WILTON, ICING DECORATIONS, UPC: 070896761156"
Food Group:  Branded Food Products Database
Common Name:

Nutrient,Unit,Data points,Std. Error,"1 PIECE = 1.2g",1Value per 100 g,
Proximates
"Energy",kcal,--,--,5,417
"Protein",g,--,--,0.00,0.00
"Total lipid (fat)",g,--,--,0.00,0.00
"Carbohydrate, by difference",g,--,--,1.00,83.33
"Sugars, total",g,--,--,1.00,83.33
Minerals
"Sodium, Na",mg,--,--,0,0
Vitamins
Lipids
Amino Acids
Other
Ingredients
"SUGAR, CORN SYRUP, CORN STARCH, XANTHAN GUM, WATER, GUM ARABIC, MALTODEXTRIN, CREAM OF TARTAR, FD&C RED #40, FD&C RED #3." Date available: 07/14/2017 Date last updated by company: 07/14/2017
