Source: USDA Branded Food Products Database Release December 2017 Software v.3.8.6.4 2017-10-02
Report Run at: December 19, 2017 04:47 EST
"Nutrient data for: 45156330, WILTON, POPS KIT, UPC: 070896807014"
Food Group:  Branded Food Products Database
Common Name:

Nutrient,Unit,Data points,Std. Error,"1 DECORATED POP = 50.0g",1Value per 100 g,
Proximates
"Energy",kcal,--,--,250,500
"Protein",g,--,--,1.00,2.00
"Total lipid (fat)",g,--,--,11.00,22.00
"Carbohydrate, by difference",g,--,--,36.00,72.00
"Fiber, total dietary",g,--,--,0.0,0.0
"Sugars, total",g,--,--,28.00,56.00
Minerals
"Calcium, Ca",mg,--,--,20,40
"Iron, Fe",mg,--,--,0.00,0.00
"Sodium, Na",mg,--,--,70,140
Vitamins
"Vitamin C, total ascorbic acid",mg,--,--,0.0,0.0
"Vitamin A, IU",IU,--,--,0,0
Lipids
"Fatty acids, total saturated",g,--,--,10.000,20.000
"Fatty acids, total trans",g,--,--,1.000,2.000
"Cholesterol",mg,--,--,5,10
Amino Acids
Other
Ingredients
"WHITE CANDY MELTS: SUGAR, PARTIALLY HYDROGENATED PALM KERNEL OIL, REDUCED MINERAL WHEY POWDER, WHOLE MILK SOLIDS, NONFAT DRY MILK SOLIDS, SOY LECITHIN, SALT, ARTIFICIAL FLAVOR. SMALL EYEBALLS: DEXTROSE CORN STARCH, DEXTRIN, SUGAR, MAGNESIUM STEARATE, GUM ARABIC, CONFECTIONERS GLAZE, ARTIFICIAL FLAVOR, CARNAUBA WAX, GELATIN, FD&C RED #40, FD&C BLUE #1, FD&C YELLOW #5. CANDY MOUTHS: DEXTROSE, CORN STARCH, DEXTRIN, MAGNESIUM STEARATE, GUM ARABIC, CONFECTIONERS GLAZE, ARTIFICIAL FLAVOR, CARNAUBA WAX, FD&C RED #40, FD&C YELLOW #5, FD&C BLUE #1. COOKIE CRUMBS: ENRICHED WHEAT FLOUR (WHEAT FLOUR, NIACIN, IRON, FUNGAL - AMYLASE, ASCORBIC ACID, THIAMINE MONONITRATE RIBOFLAVIN, FOLIC ACID), SUGAR VEGETABLE SHORTENING (HYDROGENATED SOYBEAN AND COTTONSEED OIL), WATER, INVERT SUGAR SYRUP, WHOLE DRIED EGGS, SKIM MILK, POWDER LEAVENING (BAKING SODA), SALT, ARTIFICIAL FLAVOR. WHITE ICING: SUGAR, WATER, VEGETABLE SHORTENING (HYDROGENATED SOYBEAN OIL, MODIFIED PALM OIL, HYDROGENATED MODIFIED PALM OIL, MONO AND DIGELYCERIDES), CORN SYRUP, CORN STARCH, FOOD STARCH-MODIFIED (CORN), SALT MONO AND DIGLYCERIDES ARTIFICIAL FLAVOR, TITANIUM DIOXIDE (COLOR), POLYSORBATE 60, POTASSIUM SORBATE (PRESERVATIVE), CITRIC ACID)." Date available: 05/24/2017 Date last updated by company: 05/24/2017
