Source: USDA Branded Food Products Database Release December 2017 Software v.3.8.6.4 2017-10-02
Report Run at: December 19, 2017 04:43 EST
"Nutrient data for: 45175211, WILTON, COOKIE KIT, CANDY MELTS, UPC: 070896247018"
Food Group:  Branded Food Products Database
Common Name:

Nutrient,Unit,Data points,Std. Error,"0.08333 KIT = 25.0g",1Value per 100 g,
Proximates
"Energy",kcal,--,--,140,560
"Protein",g,--,--,0.00,0.00
"Total lipid (fat)",g,--,--,7.00,28.00
"Carbohydrate, by difference",g,--,--,17.00,68.00
"Fiber, total dietary",g,--,--,0.0,0.0
"Sugars, total",g,--,--,17.00,68.00
Minerals
"Calcium, Ca",mg,--,--,0,0
"Iron, Fe",mg,--,--,0.00,0.00
"Sodium, Na",mg,--,--,30,120
Vitamins
"Vitamin C, total ascorbic acid",mg,--,--,0.0,0.0
"Vitamin A, IU",IU,--,--,0,0
Lipids
"Fatty acids, total saturated",g,--,--,6.000,24.000
"Fatty acids, total trans",g,--,--,0.000,0.000
"Cholesterol",mg,--,--,0,0
Amino Acids
Other
Ingredients
"BRIGHT WHITE CANDY MELTS CANDY: SUGAR, PARTIALLY HYDROGENATED PALM KERNEL OIL, TITANIUM DIOXIDE (COLOR), WHOLE MILK SOLIDS, REDUCED MINERAL WHEY POWDER, NONFAT DRY MILK SOLIDS, NONFAT DRY MILK SOLIDS, SOY LECITHIN, SALT, ARTIFICAL FLAVOR. BLACK ICING TUBE: SUGAR, WATER, VEGETABLE SHORTENING,(HYDROGENATED SOYBEAN OIL, MODIFIED PALM OIL, HYDROGENATED PALM OIL, MONO AND DIGLYCERIDES), CORN SYRUP, CORN STARCH, FOOD STARCH-MODIFIED (CORN), SALT, MONO AND DIGLYCERIDES, FD&C YELLOW #5, FD&C RED #40, FD&C BLUE #1, ARTIFICIAL FLAVOR, POLYSORBATE 60, POTASSIUM SORBATE (PRESERVATIVE), CITRIC ACID. HEARTS: DEXTROSE, CORN STARCH, DEXTRIN, MAGNESIUM STEARATE, GUM ARABIC, ARTIFICIAL FLAVOR, CONFECTIONERS' GLAZE, CARNAUBA WAX, FD&C RED #3." Date available: 07/14/2017 Date last updated by company: 07/14/2017
