Source: USDA Branded Food Products Database Release December 2017 Software v.3.8.6.4 2017-10-02
Report Run at: December 19, 2017 04:55 EST
"Nutrient data for: 45096308, WINCO FOODS, UNFLAVORED GELATIN, UPC: 070552903203"
Food Group:  Branded Food Products Database
Common Name:

Nutrient,Unit,Data points,Std. Error,"7.0 g = 7.0g",1Value per 100 g,
Proximates
"Energy",kcal,--,--,30,429
"Protein",g,--,--,7.00,100.00
"Total lipid (fat)",g,--,--,0.00,0.00
"Carbohydrate, by difference",g,--,--,0.00,0.00
"Sugars, total",g,--,--,0.00,0.00
Minerals
"Sodium, Na",mg,--,--,10,143
Vitamins
Lipids
"Fatty acids, total saturated",g,--,--,0.00,0.00
"Fatty acids, total trans",g,--,--,0.00,0.00
Amino Acids
Other
Ingredients
"GELATIN." Date last updated by company: 04/13/2016
