Source: USDA Branded Food Products Database Release December 2017 Software v.3.8.6.4 2017-10-02
Report Run at: December 19, 2017 04:58 EST
"Nutrient data for: 45197860, WING SAUCE, UPC: 074175682828"
Food Group:  Branded Food Products Database
Common Name:

Nutrient,Unit,Data points,Std. Error,"1 Tbsp = 15.0g",1Value per 100 g,
Proximates
"Energy",kcal,--,--,35,233
"Protein",g,--,--,0.00,0.00
"Total lipid (fat)",g,--,--,3.50,23.33
"Carbohydrate, by difference",g,--,--,1.00,6.67
"Fiber, total dietary",g,--,--,0.0,0.0
"Sugars, total",g,--,--,1.00,6.67
Minerals
"Calcium, Ca",mg,--,--,0,0
"Iron, Fe",mg,--,--,0.00,0.00
"Sodium, Na",mg,--,--,300,2000
Vitamins
"Vitamin C, total ascorbic acid",mg,--,--,4.0,26.7
"Vitamin A, IU",IU,--,--,0,0
Lipids
"Fatty acids, total saturated",g,--,--,0.500,3.330
"Fatty acids, total trans",g,--,--,0.000,0.000
"Cholesterol",mg,--,--,5,33
Amino Acids
Other
Ingredients
"WATER, SOYBEAN OIL, DISTILLED VINEGAR, HIGH FRUCTOSE CORN SYRUP, SALT, PARMESAN CHEESE (CULTURED PASTEURIZED PART SKIM MILK, SALT, ENZYMES), CONTAINS LESS THAN 2% OF MODIFIED FOOD STARCH, EGG YOLKS, RED BELL PEPPER**, GARLIC**, SPICE, NATURAL FLAVOR, XANTHAN FUM, LACTIC ACID, LEMON JUICE CONCENTRATE, POTASSIUM SORBATE AND SODIUM BENZOATE (AS PRESERVATIVES), PROPYLENE GLYCOL ALGINATE, ONION**, CALCIUM DISODIUM EDTA TO PROTECT FLAVOR." Date available: 07/14/2017 Date last updated by company: 07/14/2017
