Source: USDA Branded Food Products Database Release December 2017 Software v.3.8.6.4 2017-10-02
Report Run at: December 19, 2017 04:58 EST
"Nutrient data for: 45217871, WING SAUCE, UPC: 051933052871"
Food Group:  Branded Food Products Database
Common Name:

Nutrient,Unit,Data points,Std. Error,"1 Tbsp = 15.0g",1Value per 100 g,
Proximates
"Energy",kcal,--,--,0,0
"Protein",g,--,--,0.00,0.00
"Total lipid (fat)",g,--,--,0.00,0.00
"Carbohydrate, by difference",g,--,--,0.00,0.00
"Sugars, total",g,--,--,0.00,0.00
Minerals
"Sodium, Na",mg,--,--,460,3067
Vitamins
Lipids
Amino Acids
Other
Ingredients
"DISTILLED VINEGAR, AGED RED CAYENNE PEPPERS, SALT, WATER, CANOLA OIL, PAPRIKA, GARLIC POWDER, XANTHAN GUM, SODIUM BENZOATE (PRESERVATIVE), NATURAL AND ARTIFICIAL BUTTER TYPE FLAVOR." Date available: 07/14/2017 Date last updated by company: 07/14/2017
