Source: USDA Branded Food Products Database Release December 2017 Software v.3.8.6.4 2017-10-02
Report Run at: December 19, 2017 04:59 EST
"Nutrient data for: 45186761, WINK, FROZEN DESSERTS, COCOA-DOUGH, UPC: 851209004067"
Food Group:  Branded Food Products Database
Common Name:

Nutrient,Unit,Data points,Std. Error,"0.5 cup = 58.0g",1Value per 100 g,
Proximates
"Energy",kcal,--,--,25,43
"Protein",g,--,--,2.00,3.45
"Total lipid (fat)",g,--,--,0.00,0.00
"Carbohydrate, by difference",g,--,--,4.00,6.90
"Fiber, total dietary",g,--,--,1.0,1.7
"Sugars, total",g,--,--,0.00,0.00
Minerals
"Calcium, Ca",mg,--,--,0,0
"Iron, Fe",mg,--,--,0.00,0.00
"Sodium, Na",mg,--,--,45,78
Vitamins
"Vitamin C, total ascorbic acid",mg,--,--,0.0,0.0
"Vitamin A, IU",IU,--,--,0,0
Lipids
"Fatty acids, total saturated",g,--,--,0.000,0.000
"Fatty acids, total trans",g,--,--,0.000,0.000
"Cholesterol",mg,--,--,0,0
Amino Acids
Other
Ingredients
"WATER, PEA PROTEIN*, VEGETABLE GLYCERIN, ORGANIC AGAVE INULIN**, ORGANIC FLAVORS**, ORGANIC TAPIOCA, MONK FRUIT, BAKING SODA, XANTHAN GUM, ORGANIC STEVIA, GUAR GUM, ORGANIC COCOA POWDER*." Date available: 07/14/2017 Date last updated by company: 07/14/2017
