Source: USDA Branded Food Products Database Release December 2017 Software v.3.8.6.4 2017-10-02
Report Run at: December 19, 2017 05:03 EST
"Nutrient data for: 45181629, WINN DIXIE, ICE CREAM, CHERRY VANILLA, UPC: 021140015280"
Food Group:  Branded Food Products Database
Common Name:

Nutrient,Unit,Data points,Std. Error,"0.5 cup = 68.0g",1Value per 100 g,
Proximates
"Energy",kcal,--,--,130,191
"Protein",g,--,--,2.00,2.94
"Total lipid (fat)",g,--,--,6.00,8.82
"Carbohydrate, by difference",g,--,--,18.00,26.47
"Fiber, total dietary",g,--,--,0.0,0.0
"Sugars, total",g,--,--,15.00,22.06
Minerals
"Calcium, Ca",mg,--,--,80,118
"Iron, Fe",mg,--,--,0.00,0.00
"Sodium, Na",mg,--,--,40,59
Vitamins
"Vitamin C, total ascorbic acid",mg,--,--,0.0,0.0
"Vitamin A, IU",IU,--,--,225,331
Lipids
"Fatty acids, total saturated",g,--,--,3.998,5.880
"Fatty acids, total trans",g,--,--,0.000,0.000
"Cholesterol",mg,--,--,25,37
Amino Acids
Other
Ingredients
"SKIM MILK, CREAM, RED CHERRIES (CHERRIES, CORN SYRUP, HIGH FRUCTOSE CORN SYRUP, NATURAL FLAVOR, CITRIC ACID, MODIFIED CORNSTARCH, GUAR GUM, RED 40, SODIUM BENZOATE AND POTASSIUM SORBATE, SULFUR DIOXIDE), SUGAR, SUGAR, CORN SYRUP, HIGH FRUCTOSE CORN SYRUP, WHEY, MONO-AND DIGLYCERIDES, GUAR GUM, CALCIUM SULFATE, LOCUST BEAN GUM, CARRAGEENAN, ARTIFICIAL VANILLA." Date available: 07/14/2017 Date last updated by company: 07/14/2017
