Source: USDA Branded Food Products Database Release December 2017 Software v.3.8.6.4 2017-10-02
Report Run at: December 19, 2017 05:01 EST
"Nutrient data for: 45194233, WINN-DIXIE, CHICKEN GRAVY MIX, UPC: 021140027238"
Food Group:  Branded Food Products Database
Common Name:

Nutrient,Unit,Data points,Std. Error,"2.0 tsp = 6.0g",1Value per 100 g,
Proximates
"Energy",kcal,--,--,20,333
"Protein",g,--,--,0.00,0.00
"Total lipid (fat)",g,--,--,0.50,8.33
"Carbohydrate, by difference",g,--,--,4.00,66.67
"Fiber, total dietary",g,--,--,0.0,0.0
"Sugars, total",g,--,--,1.00,16.67
Minerals
"Calcium, Ca",mg,--,--,0,0
"Iron, Fe",mg,--,--,0.00,0.00
"Sodium, Na",mg,--,--,310,5167
Vitamins
"Vitamin C, total ascorbic acid",mg,--,--,0.0,0.0
"Vitamin A, IU",IU,--,--,0,0
Lipids
"Fatty acids, total saturated",g,--,--,0.000,0.000
"Fatty acids, total trans",g,--,--,0.000,0.000
"Cholesterol",mg,--,--,0,0
Amino Acids
Other
Ingredients
"ENRICHED WHEAT FLOUR (FLOUR, NIACIN, IRON, THIAMINE MONONITRATE, RIBOFLAVIN, FOLIC ACID), WHEAT STARCH, DEXTROSE, SALT, WHEY (MILK), CHICKEN FAT, CHICKEN, SILICON DIOXIDE (ADDED TO MAKE FREE FLOWING), ONION, HYDROLYZED CORN GLUTEN, YEAST EXTRACT, MALTODEXTRIN, CHICKEN BROTH, MODIFIED CORNSTARCH, PAPRIKA, XANTHAN GUM, DISODIUM INOSINATE AND DISODIUM GUANYLATE, SPICE, CHICKEN SKIN, NATURAL FLAVOR, TURMERIC, SOY SAUCE (SOYBEAN WHEAT, SALT), SUGAR." Date available: 07/14/2017 Date last updated by company: 07/14/2017
