Source: USDA Branded Food Products Database Release December 2017 Software v.3.8.6.4 2017-10-02
Report Run at: December 19, 2017 05:03 EST
"Nutrient data for: 45145389, WINN-DIXIE, GUMMI PEACH RINGS, UPC: 021140027405"
Food Group:  Branded Food Products Database
Common Name:

Nutrient,Unit,Data points,Std. Error,"5.0 PCS = 40.0g",1Value per 100 g,
Proximates
"Energy",kcal,--,--,130,325
"Protein",g,--,--,2.00,5.00
"Total lipid (fat)",g,--,--,0.00,0.00
"Carbohydrate, by difference",g,--,--,30.00,75.00
"Fiber, total dietary",g,--,--,0.0,0.0
"Sugars, total",g,--,--,19.00,47.50
Minerals
"Calcium, Ca",mg,--,--,0,0
"Iron, Fe",mg,--,--,0.00,0.00
"Sodium, Na",mg,--,--,20,50
Vitamins
"Vitamin C, total ascorbic acid",mg,--,--,0.0,0.0
"Vitamin A, IU",IU,--,--,0,0
Lipids
"Fatty acids, total saturated",g,--,--,0.000,0.000
"Fatty acids, total trans",g,--,--,0.000,0.000
"Cholesterol",mg,--,--,0,0
Amino Acids
Other
Ingredients
"CORN SYRUP, SUGAR, GELATIN, MODIFIED FOOD STARCH (POTATO, CORN), CITRIC ACID, FUMARIC ACID, SODIUM CITRATE, APPLE JUICE CONCENTRATE, NATURAL AND ARTIFICIAL FLAVOR, TARTARIC ACID, RED 40, YELLOW 5." Date available: 07/14/2017 Date last updated by company: 07/14/2017
