Source: USDA Branded Food Products Database Release December 2017 Software v.3.8.6.4 2017-10-02
Report Run at: December 19, 2017 05:02 EST
"Nutrient data for: 45235853, WINN DIXIE, DRESSING & MARINADE, CLASSIC ITALIAN, UPC: 021140608369"
Food Group:  Branded Food Products Database
Common Name:

Nutrient,Unit,Data points,Std. Error,"2.0 Tbsp = 30.0g",1Value per 100 g,
Proximates
"Energy",kcal,--,--,90,300
"Protein",g,--,--,0.00,0.00
"Total lipid (fat)",g,--,--,8.00,26.67
"Carbohydrate, by difference",g,--,--,3.00,10.00
"Fiber, total dietary",g,--,--,0.0,0.0
"Sugars, total",g,--,--,3.00,10.00
Minerals
"Calcium, Ca",mg,--,--,0,0
"Iron, Fe",mg,--,--,0.00,0.00
"Sodium, Na",mg,--,--,490,1633
Vitamins
"Vitamin C, total ascorbic acid",mg,--,--,4.0,13.3
"Vitamin A, IU",IU,--,--,0,0
Lipids
"Fatty acids, total saturated",g,--,--,0.999,3.330
"Fatty acids, total trans",g,--,--,0.000,0.000
"Cholesterol",mg,--,--,0,0
Amino Acids
Other
Ingredients
"WATER, VEGETABLE OIL (SOYBEAN AND/OR CANOLA), DISTILLED VINEGAR, HIGH FRUCTOSE CORN SYRUP, SALT, GARLIC*, CONTAINS LESS THAN 1% OF ONION*, RED BELL PEPPERS*, XANTHAN GUM, SPICE, NATURAL FLAVORS, CARAMEL COLOR, CALCIUM DISODIUM EDTA TO PROTECT FLAVOR, LEMON JUICE CONCENTRATE, ANNATTO (FOR COLOR)." Date available: 06/25/2017 Date last updated by company: 06/25/2017
