Source: USDA Branded Food Products Database Release December 2017 Software v.3.8.6.4 2017-10-02
Report Run at: December 19, 2017 04:59 EST
"Nutrient data for: 45172030, WINN-DIXIE, BELGIAN WAFFLES, UPC: 021140027771"
Food Group:  Branded Food Products Database
Common Name:

Nutrient,Unit,Data points,Std. Error,"1 WAFFLE = 65.0g",1Value per 100 g,
Proximates
"Energy",kcal,--,--,220,338
"Protein",g,--,--,4.00,6.15
"Total lipid (fat)",g,--,--,9.00,13.85
"Carbohydrate, by difference",g,--,--,30.00,46.15
"Fiber, total dietary",g,--,--,1.0,1.5
"Sugars, total",g,--,--,7.00,10.77
Minerals
"Calcium, Ca",mg,--,--,20,31
"Iron, Fe",mg,--,--,2.35,3.62
"Potassium, K",mg,--,--,45,69
"Sodium, Na",mg,--,--,400,615
Vitamins
"Vitamin C, total ascorbic acid",mg,--,--,0.0,0.0
"Vitamin A, IU",IU,--,--,0,0
Lipids
"Fatty acids, total saturated",g,--,--,1.001,1.540
"Fatty acids, total monounsaturated",g,--,--,4.998,7.690
"Fatty acids, total polyunsaturated",g,--,--,2.502,3.850
"Fatty acids, total trans",g,--,--,0.000,0.000
"Cholesterol",mg,--,--,20,31
Amino Acids
Other
Ingredients
"ENRICHED WHEAT FLOUR (WHEAT FLOUR, NIACIN, REDUCED IRON, THIAMIN MONONITRATE [VITAMIN B1], RIBOFLAVIN [VITAMIN B2], FOLIC ACID), WHEY, VEGETABLE OIL (CANOLA AND/OR SOYBEAN OIL), SUGAR, EGGS, CONTAINS 2% OR LESS OF: SOY LECITHIN (EMULSIFIER), LEAVENING (SODIUM ACID PYROPHOSPHATE, SODIUM BICARBONATE, MONOCALCIUM PHOSPHATE), SALT, NATURAL FLAVORS." Date available: 07/14/2017 Date last updated by company: 07/14/2017
