Source: USDA Branded Food Products Database Release December 2017 Software v.3.8.6.4 2017-10-02
Report Run at: December 19, 2017 05:05 EST
"Nutrient data for: 45162915, WINN DIXIE, SNACK MIX, CHEDDAR, UPC: 021140026774"
Food Group:  Branded Food Products Database
Common Name:

Nutrient,Unit,Data points,Std. Error,"0.5 cup = 30.0g",1Value per 100 g,
Proximates
"Energy",kcal,--,--,130,433
"Protein",g,--,--,2.00,6.67
"Total lipid (fat)",g,--,--,3.50,11.67
"Carbohydrate, by difference",g,--,--,22.00,73.33
"Fiber, total dietary",g,--,--,1.0,3.3
"Sugars, total",g,--,--,3.00,10.00
Minerals
"Calcium, Ca",mg,--,--,20,67
"Iron, Fe",mg,--,--,3.00,10.00
"Sodium, Na",mg,--,--,220,733
Vitamins
"Vitamin C, total ascorbic acid",mg,--,--,0.0,0.0
"Vitamin A, IU",IU,--,--,166,555
Lipids
"Fatty acids, total saturated",g,--,--,0.000,0.000
"Fatty acids, total monounsaturated",g,--,--,2.001,6.670
"Fatty acids, total polyunsaturated",g,--,--,0.999,3.330
"Fatty acids, total trans",g,--,--,0.000,0.000
"Cholesterol",mg,--,--,0,0
Amino Acids
Other
Ingredients
"ENRICHED WHEAT FLOUR (WHEAT FLOUR, NIACINAMIDE, REDUCED IRON, THIAMINE MONONITRATE, RIBOFLAVIN, FOLIC ACID), DEGERMED YELLOW CORNMEAL, WHOLE WHEAT, VEGETABLE OIL (CONTAINS ONE OR MORE OF THE FOLLOWING OILS: CANOLA, SUNFLOWER, SOYBEAN), SUGAR, WHEY, CONTAINS 2% OR LESS OF: BUTTERMILK, CORN SYRUP SOLIDS, SALT, CHEDDAR CHEESE (CULTURED MILK, CALCIUM CHLORIDE, SALT, ENZYMES), YEAST, SOUR CREAM POWDER (CREAM, NONFAT DRY MILK, CULTURES), NATURAL FLAVOR, MALTODEXTRIN, MOLASSES, SODIUM BICARBONATE, ONION POWDER, MALT SYRUP, CALCIUM CARBONATE, AMMONIUM BICARBONATE, COLOR (YELLOW LAKES 5 AND 6 AND OTHER COLOR ADDED), MONOCALCIUM PHOSPHATE, TRISODIUM PHOSPHATE, SPICES, SODIUM ASCORBATE, ENZYMES, BHT (A PRESERVATIVE), REDUCED IRON, VITAMIN A PALMITATE, ZINC OXIDE, NIACINAMIDE, VITAMIN D, FOLIC ACID, PYRIDOXINE HYDROCHLORIDE, RIBOFLAVIN, THIAMINE MONONITRATE, VITAMIN B12." Date available: 07/14/2017 Date last updated by company: 07/14/2017
