Source: USDA Branded Food Products Database Release December 2017 Software v.3.8.6.4 2017-10-02
Report Run at: December 19, 2017 05:00 EST
"Nutrient data for: 45137221, WINN DIXIE, CHEK, LEMONADE SODA, LEMONADE, UPC: 02114061626"
Food Group:  Branded Food Products Database
Common Name:

Nutrient,Unit,Data points,Std. Error,"1 CAN = 355.0g",1Value per 100 g,
Proximates
"Energy",kcal,--,--,199,56
"Protein",g,--,--,0.00,0.00
"Total lipid (fat)",g,--,--,0.00,0.00
"Carbohydrate, by difference",g,--,--,48.99,13.80
"Sugars, total",g,--,--,48.00,13.52
Minerals
"Sodium, Na",mg,--,--,60,17
Vitamins
Lipids
Amino Acids
Other
Ingredients
"CARBONATED WATER, HIGH FRUCTOSE CORN SYRUP, CITRIC ACID, SODIUM BENZOATE (A PRESERVATIVE), SODIUM CITRATE, MODIFIED FOOD STARCH, GLYCEROL ESTER OF WOOD ROSIN, NATURAL FLAVOR, BROMINATED VEGETABLE OIL, YELLOW 5." Date available: 07/14/2017 Date last updated by company: 07/14/2017
