Source: USDA Branded Food Products Database Release December 2017 Software v.3.8.6.4 2017-10-02
Report Run at: December 19, 2017 05:07 EST
"Nutrient data for: 45154825, WINTER WONDERLAND TRAIL MIX, UPC: 021130480791"
Food Group:  Branded Food Products Database
Common Name:

Nutrient,Unit,Data points,Std. Error,"0.25 cup = 32.0g",1Value per 100 g,
Proximates
"Energy",kcal,--,--,170,531
"Protein",g,--,--,4.00,12.50
"Total lipid (fat)",g,--,--,12.00,37.50
"Carbohydrate, by difference",g,--,--,14.00,43.75
"Fiber, total dietary",g,--,--,2.0,6.2
"Sugars, total",g,--,--,8.00,25.00
Minerals
"Calcium, Ca",mg,--,--,40,125
"Iron, Fe",mg,--,--,1.69,5.28
"Sodium, Na",mg,--,--,35,109
Vitamins
"Vitamin C, total ascorbic acid",mg,--,--,0.0,0.0
"Vitamin A, IU",IU,--,--,0,0
Lipids
"Fatty acids, total saturated",g,--,--,2.499,7.810
"Fatty acids, total monounsaturated",g,--,--,6.000,18.750
"Fatty acids, total polyunsaturated",g,--,--,2.000,6.250
"Fatty acids, total trans",g,--,--,0.000,0.000
"Cholesterol",mg,--,--,0,0
Amino Acids
Other
Ingredients
"ALMONDS, CASHEWS, DRIED SWEETENED CRANBERRIES (CRANBERRIES, SUGAR, SUNFLOWER OIL), DARK CHOCOLATE (CHOCOLATE LIQUOR, SUGAR, COCOA BUTTER, SOY LECITHIN, VANILLA), WHITE CHOCOLATE (SUGAR, COCOA BUTTER, WHOLE MILK POWDER, SOY LECITHIN, NATURAL VANILLA FLAVOR), VEGETABLE OIL (PEANUT, COTTONSEED, SOYBEAN AND/OR SUNFLOWER SEED), CONTAINS LESS THAN 1% OF: SUGAR, SEA SALT, MEDIUM CHAIN TRIGLYCERIDES, GUM ACACIA, CORNSTARCH, NATURAL PEPPERMINT FLAVOR, CONFECTIONER'S GLAZE." Date available: 07/14/2017 Date last updated by company: 07/14/2017
