Source: USDA Branded Food Products Database Release December 2017 Software v.3.8.6.4 2017-10-02
Report Run at: December 19, 2017 05:07 EST
"Nutrient data for: 45258401, WISCONSIN BEER BRAT, UPC: 857498003675"
Food Group:  Branded Food Products Database
Common Name:

Nutrient,Unit,Data points,Std. Error,"1 SLICE = 60.0g",1Value per 100 g,
Proximates
"Energy",kcal,--,--,230,383
"Protein",g,--,--,10.00,16.67
"Total lipid (fat)",g,--,--,15.00,25.00
"Carbohydrate, by difference",g,--,--,13.00,21.67
"Fiber, total dietary",g,--,--,1.0,1.7
"Sugars, total",g,--,--,0.00,0.00
Minerals
"Calcium, Ca",mg,--,--,200,333
"Iron, Fe",mg,--,--,0.72,1.20
"Potassium, K",mg,--,--,65,108
"Sodium, Na",mg,--,--,360,600
Vitamins
"Vitamin C, total ascorbic acid",mg,--,--,0.0,0.0
"Vitamin A, IU",IU,--,--,300,500
Lipids
"Fatty acids, total saturated",g,--,--,9.000,15.000
"Fatty acids, total trans",g,--,--,0.000,0.000
"Cholesterol",mg,--,--,30,50
Amino Acids
Other
Ingredients
"MPCO CRUST (ENRICHED UNBLEACHED FLOUR (WHEAT FLOURS, MALTED BARLEY FLOUR, NIACIN, IRON, THIAMIN, RIBOFLAVIN, FOLIC ACID), WATER, COCONUT OIL, OLIVE OIL, SALT (POTASSIUM IODIDE, GLUCOSE, CALCIUM SILICATE), BUTTER (CREAM, SALT, WATER), YEAST (YEAST, SORBITAN, MONOSTEARATE, ASCORBIC ACID), CREAM OF TARTAR, BAKING SODA (SODIUM BICARBONATE)), MOZZARELLA CHEESE (PASTEURIZED PART SKIM MILK, CHEESE CULTURES, SALT, ENZYMES, POTATO STARCH, CORN STARCH, POWDERED CELLULOSE), MPCO. BEER BRAT SAUCE (SPRECHER AMBER BEER (WATER, MALT, HOPS, YEAST), WATER, CHEDDAR CHEESE (PASTEURIZED MILK, CHEESE CULTURE, SALT, ENZYMES, ANNATTO (VEGETABLE COLOR), POTATO STARCH, POWDERED CELLULOSE), CREAM, PARMESAN, (MILK, RENNET, SALT), CORN STARCH, GARLIC POWDER), BRATWURST (PORK, WATER, SALT, SUGAR, SPICES), CHEDDAR CHEESE (PASTEURIZED MILK, CHEESE CULTURE, SALT, ENZYMES, ANNATTO (VEGETABLE COLOR), POTATO STARCH, POWDERED CELLULOSE), ONIONS, PROVOLONE CHEESE (MILK PASTEURIZED, CULTURE, SALT, ENZYME(S)), GREEN ONIONS." Date available: 02/01/2017 Date last updated by company: 02/01/2017
