Source: USDA Branded Food Products Database Release December 2017 Software v.3.8.6.4 2017-10-02
Report Run at: December 19, 2017 05:07 EST
"Nutrient data for: 45281526, WISCONSIN CHEESE SOUP, UPC: 075450501384"
Food Group:  Branded Food Products Database
Common Name:

Nutrient,Unit,Data points,Std. Error,"1 cup = 245.0g",1Value per 100 g,
Proximates
"Energy",kcal,--,--,179,73
"Protein",g,--,--,8.99,3.67
"Total lipid (fat)",g,--,--,8.99,3.67
"Carbohydrate, by difference",g,--,--,17.00,6.94
"Fiber, total dietary",g,--,--,0.0,0.0
"Sugars, total",g,--,--,7.01,2.86
Minerals
"Calcium, Ca",mg,--,--,250,102
"Iron, Fe",mg,--,--,0.37,0.15
"Sodium, Na",mg,--,--,1110,453
Vitamins
"Vitamin C, total ascorbic acid",mg,--,--,2.5,1.0
"Vitamin A, IU",IU,--,--,500,204
Lipids
"Fatty acids, total saturated",g,--,--,4.508,1.840
"Fatty acids, total trans",g,--,--,0.000,0.000
"Cholesterol",mg,--,--,24,10
Amino Acids
Other
Ingredients
"WATER, PASTEURIZED PROCESS CHEESE SPREAD (AMERICAN CHEESE [PASTEURIZED MILK, CHEESE CULTURE, SALT, ENZYMES], WATER, WHEY, SODIUM PHOSPHATE, WHEY PROTEIN CONCENTRATE, SKIM MILK, SALT, MILKFAT, ARTIFICIAL COLOR), NONFAT DRY MILK, FOOD STARCH-MODIFIED, CELERY, FLOUR (BLEACHED WHEAT FLOUR, POTASSIUM BROMATE, ENZYME), PARMESAN CHEESE (PASTEURIZED PART-SKIM MILK, CHEESE CULTURES, SALT, ENZYMES, POWDERED CELLULOSE [TO PREVENT CAKING]), CHEESE POWDER BLEND (WHEY SOLIDS, MILK FAT, WHEY PROTEIN CONCENTRATE, SALT, CORN SYRUP SOLIDS, NONFAT MILK, CHEESE [PASTEURIZED MILK, CULTURES, SALT, ENZYMES], DISODIUM PHOSPHATE, LACTIC ACID, CITRIC ACID), RENDERED BACON FAT, GREEN PEPPER, BACON (CURED WITH WATER, SALT, SUGAR, SODIUM ERYTHORBATE, SODIUM NITRITE, MAY ALSO CONTAIN DEXTROSE, FLAVORING, HONEY, POTASSIUM CHLORIDE, POTASSIUM LACTATE, SMOKE FLAVORING, SODIUM DIACETATE, SODIUM PHOSPHATE), SALT, DEHYDRATED ONION, SUGAR, YEAST EXTRACT, HYDROLYZED CORN PROTEIN (HYDROLYZED CORN PROTEIN, PARTIALLY HYDROGENATED VEGETABLE OIL [COTTONSEED, SOYBEAN]), TURMERIC POWDER (SALT, OLEORESIN TURMERIC [COLOR]), CHICKEN FLAVOR (HYDROLYZED CORN GLUTEN, SALT, MALTODEXTRIN, CHICKEN FAT, SODIUM PHOSPHATE, SPICES, SUGAR, NATURAL FLAVORS, DISODIUM INOSINATE, DISODIUM GUANYLATE), CARROT POWDER (SALT, OLEORESIN CARROT [COLOR]), ORANGE FOOD COLOR (YELLOW #5 AND 6, CITRIC ACID, SODIUM BENZOATE, RED #40), LIQUID SMOKE (WATER, NATURAL HICKORY SMOKE FLAVOR, MOLASSES, CARAMEL COLOR, WHITE DISTILLED VINEGAR, SULFITES), GARLIC, PARSLEY." Date available: 07/14/2017 Date last updated by company: 07/14/2017
