Source: USDA Branded Food Products Database Release December 2017 Software v.3.8.6.4 2017-10-02
Report Run at: December 19, 2017 05:09 EST
"Nutrient data for: 45104923, WISE COMPANY, VANILLA PUDDING, VANILLA, UPC: 851238005196"
Food Group:  Branded Food Products Database
Common Name:

Nutrient,Unit,Data points,Std. Error,"0.25 POUCH = 39.0g",1Value per 100 g,
Proximates
"Energy",kcal,--,--,150,385
"Protein",g,--,--,0.00,0.00
"Total lipid (fat)",g,--,--,2.00,5.13
"Carbohydrate, by difference",g,--,--,32.00,82.05
"Fiber, total dietary",g,--,--,0.0,0.0
"Sugars, total",g,--,--,25.00,64.10
Minerals
"Calcium, Ca",mg,--,--,80,205
"Iron, Fe",mg,--,--,0.00,0.00
"Sodium, Na",mg,--,--,380,974
Vitamins
"Vitamin C, total ascorbic acid",mg,--,--,0.0,0.0
"Vitamin A, IU",IU,--,--,0,0
Lipids
"Fatty acids, total saturated",g,--,--,0.998,2.560
"Fatty acids, total trans",g,--,--,0.000,0.000
"Cholesterol",mg,--,--,0,0
Amino Acids
Other
Ingredients
"SUGAR, DEXTROSE, FOOD STARCH - MODIFIED, NONFAT DRY MILK, PALM OIL CORN SYRUP SOLIDS, SODIUM PHOSPHATE, DISODIUM PHOSPHATE, SALT, SODIUM ACID PYROPHOSPHATE, TITANIUM DIOXIDE (COLOR), SODIUM CASEINATE, DIPOTASSIUM PHOSPHATE, CARRAGEENAN, MONOGLYCERIDES, CORN STARCH, ARTIFICIAL FLAVOR, PROPYLENE GLYCOL, YELLOW 5, YELLOW 6, WATER." Date available: 06/25/2017 Date last updated by company: 06/25/2017
