Source: USDA Branded Food Products Database Release December 2017 Software v.3.8.6.4 2017-10-02
Report Run at: December 19, 2017 05:09 EST
"Nutrient data for: 45015535, WISE, DIP MIX, GREEN ONION, UPC: 041262270787"
Food Group:  Branded Food Products Database
Common Name:

Nutrient,Unit,Data points,Std. Error,"0.125 PACKAGE = 1.8g",1Value per 100 g,
Proximates
"Energy",kcal,--,--,5,278
"Protein",g,--,--,0.00,0.00
"Total lipid (fat)",g,--,--,0.00,0.00
"Carbohydrate, by difference",g,--,--,1.00,55.56
"Sugars, total",g,--,--,1.00,55.56
Minerals
"Sodium, Na",mg,--,--,180,10000
Vitamins
Lipids
Amino Acids
Other
Ingredients
"DEHYDRATED GREEN ONION. WHEY (MILK DERIVATIVE), SALT, PARSLEY, MONOSODIUM GLUTAMATE, HYDROLYZED CORN GLUTEN, PARTIALLY HYDROGENATED SOYBEAN AND COTTONSEED OIL, SPICE, NATURAL FLAVORS, EXTRACTIVES OF TURMERIC, AND SILICON DIOXIDE." Date available: 07/14/2017 Date last updated by company: 07/14/2017
