Source: USDA Branded Food Products Database Release December 2017 Software v.3.8.6.4 2017-10-02
Report Run at: December 19, 2017 05:13 EST
"Nutrient data for: 45239203, WISH-BONE, LIGHT BLUE CHEESE DRESSING, UPC: 041000012006"
Food Group:  Branded Food Products Database
Common Name:

Nutrient,Unit,Data points,Std. Error,"2.0 Tbsp = 30.0g",1Value per 100 g,
Proximates
"Energy",kcal,--,--,70,233
"Protein",g,--,--,1.00,3.33
"Total lipid (fat)",g,--,--,6.00,20.00
"Carbohydrate, by difference",g,--,--,2.00,6.67
"Fiber, total dietary",g,--,--,0.0,0.0
"Sugars, total",g,--,--,1.00,3.33
Minerals
"Calcium, Ca",mg,--,--,0,0
"Iron, Fe",mg,--,--,0.00,0.00
"Sodium, Na",mg,--,--,280,933
Vitamins
"Vitamin C, total ascorbic acid",mg,--,--,0.0,0.0
"Vitamin A, IU",IU,--,--,0,0
Lipids
"Fatty acids, total saturated",g,--,--,0.999,3.330
"Fatty acids, total monounsaturated",g,--,--,1.500,5.000
"Fatty acids, total polyunsaturated",g,--,--,3.501,11.670
"Fatty acids, total trans",g,--,--,0.000,0.000
"Cholesterol",mg,--,--,0,0
Amino Acids
Other
Ingredients
"WATER, SOYBEAN OIL, DISTILLED VINEGAR, BLUE CHEESE CHUNKS [WATER, AGED BLUE CHEESE (MILK, CHEESE CULTURES, SALT, ENZYMES), PALM OIL, SODIUM AND CALCIUM CASEINATES, SALT, LACTIC ACID, CELLULOSE GUM, SODIUM PHOSPHATE, POTASSIUM SORBATE (PRESERVATIVE), XANTHAN GUM AND LOCUST BEAN GUM], MODIFIED CORN STARCH, CORN SYRUP, CONTAINS 2% OR LESS OF EACH OF THE FOLLOWING: SWEET CREAM BUTTERMILK POWDER, CULTURED BUTTERMILK, SALT, SUGAR, HYDROLYZED VEGETABLE PROTEIN (CORN), GARLIC POWDER, XANTHAN GUM, PHOSPHORIC ACID, YEAST EXTRACT, COLOR ADDED, SORBIC ACID AND SODIUM BENZOATE AND CALCIUM DISODIUM EDTA (USED TO PROTECT QUALITY), POLYSORBATE 60, PROPYLENE GLYCOL ALGINATE, SPICE, NATURAL FLAVOR, DL ALPHA TOCOPHERYL ACETATE (VITAMIN E)." Date available: 07/14/2017 Date last updated by company: 07/14/2017
