Source: USDA Branded Food Products Database Release December 2017 Software v.3.8.6.4 2017-10-02
Report Run at: December 19, 2017 05:22 EST
"Nutrient data for: 45118055, WONDERFUL, PISTACHIOS, SWEET CHILI, UPC: 014113912976"
Food Group:  Branded Food Products Database
Common Name:

Nutrient,Unit,Data points,Std. Error,"0.5 cup = 30.0g",1Value per 100 g,
Proximates
"Energy",kcal,--,--,160,533
"Protein",g,--,--,6.00,20.00
"Total lipid (fat)",g,--,--,14.00,46.67
"Carbohydrate, by difference",g,--,--,8.00,26.67
"Fiber, total dietary",g,--,--,3.0,10.0
"Sugars, total",g,--,--,3.00,10.00
Minerals
"Calcium, Ca",mg,--,--,20,67
"Iron, Fe",mg,--,--,1.08,3.60
"Magnesium, Mg",mg,--,--,32,107
"Phosphorus, P",mg,--,--,150,500
"Potassium, K",mg,--,--,260,867
"Sodium, Na",mg,--,--,290,967
"Copper, Cu",mg,--,--,0.300,1.000
"Manganese, Mn",mg,--,--,0.300,1.000
Vitamins
"Vitamin C, total ascorbic acid",mg,--,--,0.0,0.0
"Thiamin",mg,--,--,1.200,4.000
"Vitamin B-6",mg,--,--,0.400,1.333
"Vitamin A, IU",IU,--,--,0,0
Lipids
"Fatty acids, total saturated",g,--,--,1.50,5.00
"Fatty acids, total trans",g,--,--,0.00,0.00
"Cholesterol",mg,--,--,0,0
Amino Acids
Other
Ingredients
"PISTACHIOS, SUGAR, SALT, ONION POWDER, MALIC ACID, RED CHILI PEPPER, YEAST EXTRACT, EXTRACTIVES OF PAPRIKA, NATURAL FLAVOR, DISTILLED VINEGAR." Date last updated by company: 06/24/2016
