Source: USDA Branded Food Products Database Release December 2017 Software v.3.8.6.4 2017-10-02
Report Run at: December 19, 2017 05:21 EST
"Nutrient data for: 45102249, WONDER, CLASSIC ENRICHED HAMBURGER BUNS, UPC: 071315050547"
Food Group:  Branded Food Products Database
Common Name:

Nutrient,Unit,Data points,Std. Error,"1 BUN = 43.0g",1Value per 100 g,
Proximates
"Energy",kcal,--,--,120,279
"Protein",g,--,--,4.00,9.30
"Total lipid (fat)",g,--,--,1.50,3.49
"Carbohydrate, by difference",g,--,--,24.00,55.81
"Fiber, total dietary",g,--,--,1.0,2.3
"Sugars, total",g,--,--,4.00,9.30
Minerals
"Calcium, Ca",mg,--,--,40,93
"Iron, Fe",mg,--,--,1.26,2.92
"Sodium, Na",mg,--,--,220,512
Vitamins
"Vitamin C, total ascorbic acid",mg,--,--,0.0,0.0
"Thiamin",mg,--,--,0.430,1.000
"Riboflavin",mg,--,--,0.136,0.316
"Niacin",mg,--,--,1.860,4.326
"Vitamin A, IU",IU,--,--,0,0
Lipids
"Fatty acids, total saturated",g,--,--,0.000,0.000
"Fatty acids, total monounsaturated",g,--,--,0.000,0.000
"Fatty acids, total polyunsaturated",g,--,--,1.002,2.330
"Fatty acids, total trans",g,--,--,0.000,0.000
"Cholesterol",mg,--,--,0,0
Amino Acids
Other
Ingredients
"UNBLEACHED ENRICHED FLOUR (WHEAT FLOUR, MALTED BARLEY FLOUR, NIACIN, REDUCED IRON, THIAMIN MONONITRATE, RIBOFLAVIN, FOLIC ACID), WATER, HIGH FRUCTOSE CORN SYRUP, VEGETABLE OIL (SOYBEAN OIL OR CANOLA OIL), CONTAINS 2% OR LESS OF EACH OF THE FOLLOWING: YEAST, WHEAT GLUTEN, SALT, DOUGH CONDITIONERS (CONTAINS ONE OR MORE OF THE FOLLOWING: SODIUM STEAROYL LACTYLATE, CALCIUM STEAROYL LACTYLATE, MONOGLYCERIDES AND/OR DIGLYCERIDES, CALCIUM PEROXIDE, CALCIUM IODATE, DATEM, ETHOXYLATED MONO- AND DIGLYCERIDES, ENZYMES), CALCIUM SULFATE, CALCIUM CARBONATE, AMMONIUM SULFATE, ASCORBIC ACID, SORBIC ACID, SOY FLOUR, MONOCALCIUM PHOSPHATE, SOY LECITHIN, CALCIUM PROPIONATE (TO RETARD SPOILAGE). IF SEEDED, SESAME SEEDS ADDED. IF YELLOW CONTAINS TURMERIC, PAPRIKA AND CORN FLOUR." Date available: 07/14/2017 Date last updated by company: 07/14/2017
