Source: USDA Branded Food Products Database Release December 2017 Software v.3.8.6.4 2017-10-02
Report Run at: December 19, 2017 05:27 EST
"Nutrient data for: 45328066, WOOPEE, CHOCOLATE CREMES COOKIES, UPC: 745527330147"
Food Group:  Branded Food Products Database
Common Name:

Nutrient,Unit,Data points,Std. Error,"3.0 COOKIES = 28.0g",1Value per 100 g,
Proximates
"Energy",kcal,--,--,130,464
"Protein",g,--,--,1.00,3.57
"Total lipid (fat)",g,--,--,5.00,17.86
"Carbohydrate, by difference",g,--,--,20.00,71.43
"Fiber, total dietary",g,--,--,1.0,3.6
"Sugars, total",g,--,--,9.00,32.14
Minerals
"Calcium, Ca",mg,--,--,0,0
"Iron, Fe",mg,--,--,0.00,0.00
"Sodium, Na",mg,--,--,125,446
Vitamins
"Vitamin C, total ascorbic acid",mg,--,--,0.0,0.0
"Vitamin A, IU",IU,--,--,0,0
Lipids
"Fatty acids, total saturated",g,--,--,2.500,8.930
"Fatty acids, total trans",g,--,--,0.000,0.000
"Cholesterol",mg,--,--,0,0
Amino Acids
Other
Ingredients
"ENRICHED FLOUR (WHEAT FLOUR, NIACIN, THIAMINE MONONITRATE [VITAMIN B1], RIBOFLAVIN [VITAMIN B2], FOLIC ACID), SUGAR, INTERESTERIFIED SOYBEAN OIL DEXTROSE, HIGH FRUCTOSE CORN SYRUP, CARAMEL COLOR, CONTAINS TWO PERCENT OR LESS OF COCOA (PROCESSED WITH ALKALI). SALT. SODIUM BICARBONATE, SOY LECITHIN. CORN STARCH, NATURAL FLAVOR." Date available: 07/14/2017 Date last updated by company: 07/14/2017
