Source: USDA Branded Food Products Database Release December 2017 Software v.3.8.6.4 2017-10-02
Report Run at: December 19, 2017 05:28 EST
"Nutrient data for: 45085701, WOORI ASIA FOODS, SLICED KIMCHI, UPC: 753182169620"
Food Group:  Branded Food Products Database
Common Name:

Nutrient,Unit,Data points,Std. Error,"30.0 GRM = 30.0g",1Value per 100 g,
Proximates
"Energy",kcal,--,--,10,33
"Protein",g,--,--,1.00,3.33
"Total lipid (fat)",g,--,--,0.00,0.00
"Carbohydrate, by difference",g,--,--,2.00,6.67
"Fiber, total dietary",g,--,--,1.0,3.3
"Sugars, total",g,--,--,1.00,3.33
Minerals
"Calcium, Ca",mg,--,--,20,67
"Iron, Fe",mg,--,--,0.00,0.00
"Sodium, Na",mg,--,--,270,900
Vitamins
"Vitamin C, total ascorbic acid",mg,--,--,16.0,53.3
"Vitamin A, IU",IU,--,--,1666,5555
Lipids
"Fatty acids, total saturated",g,--,--,0.000,0.000
"Fatty acids, total trans",g,--,--,0.000,0.000
"Cholesterol",mg,--,--,0,0
Amino Acids
Other
Ingredients
"CABBAGE, RADISH, RED PEPPER POWDER, GARLIC, SALTED SHRIMP, GREEN ONION, GINGER, SALT, SUGAR, FISH SAUCE, MUSTARD LEAF, ONION, LEEK, AND WATER." Date available: 06/25/2017 Date last updated by company: 06/25/2017
