Source: USDA Branded Food Products Database Release December 2017 Software v.3.8.6.4 2017-10-02
Report Run at: December 19, 2017 05:29 EST
"Nutrient data for: 45265667, WORCESTERSHIRE SAUCE, UPC: 032982560579"
Food Group:  Branded Food Products Database
Common Name:

Nutrient,Unit,Data points,Std. Error,"1 tsp = 5.0g",1Value per 100 g,
Proximates
"Energy",kcal,--,--,0,0
"Protein",g,--,--,0.00,0.00
"Total lipid (fat)",g,--,--,0.00,0.00
"Carbohydrate, by difference",g,--,--,1.00,20.00
"Sugars, total",g,--,--,1.00,20.00
Minerals
"Sodium, Na",mg,--,--,45,900
Vitamins
Lipids
Amino Acids
Other
Ingredients
"WATER, VINEGAR, SUGAR, SALT, MOLASSES, DEXTROSE, CITRIC ACID, CARAMEL COLOR, SPICES, GARLIC, CELLULOSE GUM, NATURAL FLAVOR (SPICE EXTRACTIVES), CHILI PEPPER, MALIC ACID, AND ONION." Date available: 07/14/2017 Date last updated by company: 07/14/2017
