Source: USDA Branded Food Products Database Release December 2017 Software v.3.8.6.4 2017-10-02
Report Run at: December 19, 2017 05:30 EST
"Nutrient data for: 45158530, WORLD FOOD PRODUCTS, ANTIOXIDANT CRANMIX DARK CHOCOLATE, UPC: 835144037021"
Food Group:  Branded Food Products Database
Common Name:

Nutrient,Unit,Data points,Std. Error,"1 ONZ = 28.0g",1Value per 100 g,
Proximates
"Energy",kcal,--,--,130,464
"Protein",g,--,--,2.00,7.14
"Total lipid (fat)",g,--,--,8.00,28.57
"Carbohydrate, by difference",g,--,--,15.00,53.57
"Fiber, total dietary",g,--,--,2.0,7.1
"Sugars, total",g,--,--,11.00,39.29
Minerals
"Calcium, Ca",mg,--,--,20,71
"Iron, Fe",mg,--,--,1.93,6.88
"Sodium, Na",mg,--,--,0,0
Vitamins
"Vitamin C, total ascorbic acid",mg,--,--,0.0,0.0
"Vitamin A, IU",IU,--,--,0,0
Lipids
"Fatty acids, total saturated",g,--,--,1.999,7.140
"Fatty acids, total trans",g,--,--,0.000,0.000
Amino Acids
Other
Ingredients
"CRANBERRIES (CRANBERRIES, SUGAR, SUNFLOWER OIL), BITTERSWEET CHOCOLATE CALETS (BELGIAN CHOCOLATE LIQUOR, SUGAR, COCOA BUTTER, SOY LECITHIN (ADDED AS AN EMULSIFIER), VANILLA EXTRACT). ROASTED SALTED ALMONDS (ALMONDS, CANOLA OIL, SALT), ROASTED SALTED CASHEWS (CASHEWS, SOYBEAN OIL, SALT), WALNUTS, DRIED BLUEBERRIES (BLUEBERRIES, SUCROSE, SUNFLOWER OIL)." Date available: 07/14/2017 Date last updated by company: 07/14/2017
