Source: USDA Branded Food Products Database Release December 2017 Software v.3.8.6.4 2017-10-02
Report Run at: December 19, 2017 05:36 EST
"Nutrient data for: 45326939, WRAPS & SANDWICHES ON WHEAT BREAD, UPC: 073508757790"
Food Group:  Branded Food Products Database
Common Name:

Nutrient,Unit,Data points,Std. Error,"1 SANDWICH = 190.0g",1Value per 100 g,
Proximates
"Energy",kcal,--,--,390,205
"Protein",g,--,--,25.99,13.68
"Total lipid (fat)",g,--,--,12.01,6.32
"Carbohydrate, by difference",g,--,--,44.99,23.68
"Fiber, total dietary",g,--,--,3.0,1.6
"Sugars, total",g,--,--,6.99,3.68
Minerals
"Calcium, Ca",mg,--,--,148,78
"Sodium, Na",mg,--,--,770,405
Vitamins
"Vitamin C, total ascorbic acid",mg,--,--,1.7,0.9
"Vitamin A, IU",IU,--,--,1250,658
Lipids
"Fatty acids, total saturated",g,--,--,6.004,3.160
"Fatty acids, total trans",g,--,--,0.000,0.000
"Cholesterol",mg,--,--,65,34
Amino Acids
Other
Ingredients
"WHEAT BREAD (ENRICHED WHEAT FLOUR [WHEAT FLOUR, MALTED BARLEY FLOUR, NIACIN, IRON, THIAMINE MONONITRATE, RIBOFLAVIN, FOLIC ACID], WATER, CRACKED WHEAT, SUGAR, PALM OIL, YEAST, SALT, DOUGH CONDITIONER [CALCIUM SULFATE, WHEAT STARCH, WHEAT FLOUR, CONTAINS 2% OR LESS OF: ENZYMES {WHEAT}, SALT], CALCIUM PROPIONATE, DOUGH STRENGTHENER [SODIUM STEAROYL LACTYLATE], DOUGH CONDITIONER [WHEAT FLOUR, DIACETYL TARTARIC ACID ESTERS OF MONO-DIGLYCERIDES {DATEM}, CONTAINS 2% OR LESS OF: SOYBEAN OIL, ENZYME {WHEAT}, ASCORBIC ACID, L. CYSTEINE HYDROCHLORIDE, AZODICARBONAMIDE {ADA}]), TURKEY BREAST (TURKEY BREAST, WATER, SALT, SUGAR), HAVARTI CHEESE (PASTEURIZED MILK, CHEESE CULTURE, SALT, ENZYMES), LETTUCE." Date available: 09/02/2017 Date last updated by company: 09/02/2017
