Source: USDA Branded Food Products Database Release December 2017 Software v.3.8.6.4 2017-10-02
Report Run at: December 19, 2017 05:39 EST
"Nutrient data for: 45096140, WU CHUNG, MIXED CONGEE IN SYRUP, UPC: 4710597051915"
Food Group:  Branded Food Products Database
Common Name:

Nutrient,Unit,Data points,Std. Error,"0.5 CAN = 240.0g",1Value per 100 g,
Proximates
"Energy",kcal,--,--,187,78
"Protein",g,--,--,4.01,1.67
"Total lipid (fat)",g,--,--,1.99,0.83
"Carbohydrate, by difference",g,--,--,37.99,15.83
"Fiber, total dietary",g,--,--,1.9,0.8
"Sugars, total",g,--,--,22.01,9.17
Minerals
"Calcium, Ca",mg,--,--,29,12
"Iron, Fe",mg,--,--,1.10,0.46
"Sodium, Na",mg,--,--,82,34
Vitamins
"Vitamin C, total ascorbic acid",mg,--,--,1.2,0.5
"Vitamin A, IU",IU,--,--,0,0
Lipids
"Fatty acids, total saturated",g,--,--,0.000,0.000
"Fatty acids, total trans",g,--,--,0.000,0.000
"Cholesterol",mg,--,--,0,0
Amino Acids
Other
Ingredients
"WATER55%, SUGAR 10%, PEAS9%, WHEAT FLAKE 9%, GLUTINOUS, MUNG BEAN, RED BEAN, MILLET, PEANUTS, LONGANS" Date available: 06/25/2017 Date last updated by company: 06/25/2017
