Source: USDA Branded Food Products Database Release December 2017 Software v.3.8.6.4 2017-10-02
Report Run at: December 19, 2017 05:39 EST
"Nutrient data for: 45044142, WUNDERBAR, GERMAN BRAND, BOLOGNA, MADE WITH PORK, CHICKEN, BEEF, UPC: 208549400002"
Food Group:  Branded Food Products Database
Common Name:

Nutrient,Unit,Data points,Std. Error,"2.0 ONZ = 56.0g",1Value per 100 g,
Proximates
"Energy",kcal,--,--,160,286
"Protein",g,--,--,6.00,10.71
"Total lipid (fat)",g,--,--,14.00,25.00
"Carbohydrate, by difference",g,--,--,3.00,5.36
"Fiber, total dietary",g,--,--,0.0,0.0
"Sugars, total",g,--,--,3.00,5.36
Minerals
"Calcium, Ca",mg,--,--,40,71
"Iron, Fe",mg,--,--,0.71,1.26
"Sodium, Na",mg,--,--,490,875
Vitamins
"Vitamin C, total ascorbic acid",mg,--,--,0.0,0.0
"Vitamin A, IU",IU,--,--,0,0
Lipids
"Fatty acids, total saturated",g,--,--,5.998,10.710
"Cholesterol",mg,--,--,35,62
Amino Acids
Other
Ingredients
"PORK MECHANICALLY SEPARATED CHICKEN, DEXTROSE, WATER, CORN SYRUP, SALT, CONTAINS 2% OR LESS OF; POTASSIUM LACTATE, FLAVORINGS, BEEF, SODIUM PHOSPHATE, SODIUM DIACETATE, SODIUM ERYTHORBATE, SODIUM NITRITE, EXTRACTIVE OF PAPRIKA." Date available: 07/14/2017 Date last updated by company: 07/14/2017
