Source: USDA Branded Food Products Database Release December 2017 Software v.3.8.6.4 2017-10-02
Report Run at: December 19, 2017 05:39 EST
"Nutrient data for: 45021947, WYLER'S AUTHENTIC, ITALIAN ICES, TROPICAL, UPC: 072392988150"
Food Group:  Branded Food Products Database
Common Name:

Nutrient,Unit,Data points,Std. Error,"1 BAR = 57.0g",1Value per 100 g,
Proximates
"Energy",kcal,--,--,60,105
"Protein",g,--,--,0.00,0.00
"Total lipid (fat)",g,--,--,0.00,0.00
"Carbohydrate, by difference",g,--,--,14.00,24.56
"Sugars, total",g,--,--,12.00,21.05
Minerals
"Sodium, Na",mg,--,--,10,18
Vitamins
Lipids
Amino Acids
Other
Ingredients
"WATER, HIGH FRUCTOSE CORN SYRUP, MALTODEXTRIN, CONTAINS 2% OR LESS OF THE FOLLOWING: APPLE AND PEAR JUICE FROM CONCENTRATE, CITRIC ACID, PECTIN, SODIUM CITRATE, NATURAL AND ARTIFICIAL FLAVORS, SODIUM BENZOATE AND POTASSIUM SORBATE (PRESERVATIVES), RED 40, YELLOW 5, YELLOW 6, BLUE 1." Date available: 07/14/2017 Date last updated by company: 07/14/2017
