Source: USDA Branded Food Products Database Release December 2017 Software v.3.8.6.4 2017-10-02
Report Run at: December 19, 2017 05:42 EST
"Nutrient data for: 45146127, XAVIER, ROSE MOCKTAIL SPARKLING JUICE, ROSE, UPC: 778998117108"
Food Group:  Branded Food Products Database
Common Name:

Nutrient,Unit,Data points,Std. Error,"8.0 OZA = 240.0g",1Value per 100 g,
Proximates
"Energy",kcal,--,--,48,20
"Protein",g,--,--,0.00,0.00
"Total lipid (fat)",g,--,--,0.00,0.00
"Carbohydrate, by difference",g,--,--,12.00,5.00
"Sugars, total",g,--,--,12.00,5.00
Minerals
"Potassium, K",mg,--,--,192,80
"Sodium, Na",mg,--,--,5,2
Vitamins
Lipids
Amino Acids
Other
Ingredients
"APPALACHIAN SPRING WATER, GRAPE JUICE CONCENTRATE, NATURAL ROSE FLAVOR, TARTARIC ACID, MALIC ACID, TANNIC ACID, FRUIT AND VEGETABLE JUICE (FOR COLOR), CARBON DIOXIDE" Date available: 07/14/2017 Date last updated by company: 07/14/2017
