Source: USDA Branded Food Products Database Release December 2017 Software v.3.8.6.4 2017-10-02
Report Run at: December 19, 2017 05:43 EST
"Nutrient data for: 45154331, XOCHITL, WHITE CORN CHIPS, SEA SALT, UPC: 854137000637"
Food Group:  Branded Food Products Database
Common Name:

Nutrient,Unit,Data points,Std. Error,"1 ONZ = 28.0g",1Value per 100 g,
Proximates
"Energy",kcal,--,--,135,482
"Protein",g,--,--,2.00,7.14
"Total lipid (fat)",g,--,--,6.00,21.43
"Carbohydrate, by difference",g,--,--,16.00,57.14
"Fiber, total dietary",g,--,--,2.0,7.1
"Sugars, total",g,--,--,0.00,0.00
Minerals
"Calcium, Ca",mg,--,--,20,71
"Iron, Fe",mg,--,--,0.64,2.29
"Sodium, Na",mg,--,--,103,368
Vitamins
"Vitamin C, total ascorbic acid",mg,--,--,5.3,19.1
"Vitamin A, IU",IU,--,--,0,0
Lipids
"Fatty acids, total saturated",g,--,--,1.000,3.570
"Fatty acids, total trans",g,--,--,0.000,0.000
"Cholesterol",mg,--,--,0,0
Amino Acids
Other
Ingredients
"ORGANIC WHITE CORN, WATER, ONE OF THE FOLLOWING NON-HYDROGENATED ORGANIC OILST ORGANIC PALM OLEIN, SUNFLOWER, OR CANOLA, LIME, SEA SALT." Date available: 07/14/2017 Date last updated by company: 07/14/2017
