Source: USDA Branded Food Products Database Release December 2017 Software v.3.8.6.4 2017-10-02
Report Run at: December 19, 2017 05:45 EST
"Nutrient data for: 45204481, YAKISOBA SAUCE, UPC: 4970077115296"
Food Group:  Branded Food Products Database
Common Name:

Nutrient,Unit,Data points,Std. Error,"2.0 Tbsp = 36.0g",1Value per 100 g,
Proximates
"Energy",kcal,--,--,40,111
"Protein",g,--,--,0.00,0.00
"Total lipid (fat)",g,--,--,0.00,0.00
"Carbohydrate, by difference",g,--,--,9.00,25.00
"Fiber, total dietary",g,--,--,0.3,0.7
"Sugars, total",g,--,--,9.00,25.00
Minerals
"Calcium, Ca",mg,--,--,0,0
"Iron, Fe",mg,--,--,0.00,0.00
"Sodium, Na",mg,--,--,890,2472
Vitamins
"Vitamin C, total ascorbic acid",mg,--,--,0.0,0.0
"Vitamin A, IU",IU,--,--,0,0
Lipids
"Fatty acids, total saturated",g,--,--,0.000,0.000
"Fatty acids, total trans",g,--,--,0.000,0.000
"Cholesterol",mg,--,--,0,0
Amino Acids
Other
Ingredients
"WATER, WORCESTERSHIRE SAUCE, FRUITS AND VEGETABLES (TOMATO, ONION, APPLE, CARROT DATE, PEACH, ORANGE AND GARLIC), SUGAR, VINEGAR, SALT, SOY SAUCE, HIGH FRUCTOSE CORN SYRUP, CARAMEL COLORING HYDROLYZED SOY PROTEIN, MODIFIED FOOD STARCH, SPICES, OYSTER EXTRACT, YEAST EXTRACT, SOY SAUCE POWDER, KELP, GUAR GUM." Date available: 07/14/2017 Date last updated by company: 07/14/2017
