Source: USDA Branded Food Products Database Release December 2017 Software v.3.8.6.4 2017-10-02
Report Run at: December 19, 2017 05:48 EST
"Nutrient data for: 45083874, YASAI TENPURA FRIED FISH CAKE WITH VEGETABLES, UPC: 070516370003"
Food Group:  Branded Food Products Database
Common Name:

Nutrient,Unit,Data points,Std. Error,"2.0 ONZ = 55.0g",1Value per 100 g,
Proximates
"Energy",kcal,--,--,80,145
"Protein",g,--,--,5.00,9.09
"Total lipid (fat)",g,--,--,1.50,2.73
"Carbohydrate, by difference",g,--,--,12.00,21.82
"Fiber, total dietary",g,--,--,0.0,0.0
"Sugars, total",g,--,--,4.00,7.27
Minerals
"Calcium, Ca",mg,--,--,0,0
"Iron, Fe",mg,--,--,0.00,0.00
"Sodium, Na",mg,--,--,720,1309
Vitamins
"Vitamin C, total ascorbic acid",mg,--,--,1.9,3.4
"Vitamin A, IU",IU,--,--,309,562
Lipids
"Fatty acids, total saturated",g,--,--,0.000,0.000
"Fatty acids, total trans",g,--,--,0.000,0.000
"Cholesterol",mg,--,--,10,18
Amino Acids
Other
Ingredients
"ALASKA POLLOCK (FISH), WATER, MODIFIED FOOD STARCH, GREEN PEAS, CORN SUGAR, SALT, SORBITOL, SOY BEAN OIL, ONION, CARROT, SWEET RICE WINE, DEXTROSE, NATURAL AND ARTIFICIAL FLAVOR (BONITO), PARSLEY, MONOSODIUM GLUTAMATE, SODIUM TRIPOLYPHOSPHATE, TERASODIUM PYROPHOSPHATE, SODIUM PYROPHOSPHATE, COOKED IN SOY BEAN OIL." Date available: 09/07/2017 Date last updated by company: 09/07/2017
