Source: USDA Branded Food Products Database Release December 2017 Software v.3.8.6.4 2017-10-02
Report Run at: December 19, 2017 06:03 EST
"Nutrient data for: 45185780, YELLOW QUINOA, UPC: 799491276758"
Food Group:  Branded Food Products Database
Common Name:

Nutrient,Unit,Data points,Std. Error,"1 cup = 170.0g",1Value per 100 g,
Proximates
"Energy",kcal,--,--,626,368
"Protein",g,--,--,24.00,14.12
"Total lipid (fat)",g,--,--,10.00,5.88
"Carbohydrate, by difference",g,--,--,99.01,58.24
"Fiber, total dietary",g,--,--,12.1,7.1
"Sugars, total",g,--,--,0.00,0.00
Minerals
"Calcium, Ca",mg,--,--,80,47
"Iron, Fe",mg,--,--,2.04,1.20
"Sodium, Na",mg,--,--,8,5
Vitamins
"Vitamin C, total ascorbic acid",mg,--,--,0.0,0.0
"Vitamin A, IU",IU,--,--,0,0
Lipids
"Fatty acids, total saturated",g,--,--,1.003,0.590
"Fatty acids, total trans",g,--,--,0.000,0.000
"Cholesterol",mg,--,--,0,0
Amino Acids
Other
Ingredients
"YELLOW QUINOA." Date available: 07/14/2017 Date last updated by company: 07/14/2017
