Source: USDA Branded Food Products Database Release December 2017 Software v.3.8.6.4 2017-10-02
Report Run at: December 19, 2017 05:55 EST
"Nutrient data for: 45053651, YELLOW CLING SLICED PEACHES, UPC: 041497211654"
Food Group:  Branded Food Products Database
Common Name:

Nutrient,Unit,Data points,Std. Error,"0.5 cup = 124.0g",1Value per 100 g,
Proximates
"Energy",kcal,--,--,50,40
"Protein",g,--,--,1.00,0.81
"Total lipid (fat)",g,--,--,0.00,0.00
"Carbohydrate, by difference",g,--,--,12.00,9.68
"Fiber, total dietary",g,--,--,1.0,0.8
"Sugars, total",g,--,--,9.99,8.06
Minerals
"Calcium, Ca",mg,--,--,0,0
"Iron, Fe",mg,--,--,0.00,0.00
"Potassium, K",mg,--,--,180,145
"Sodium, Na",mg,--,--,5,4
Vitamins
"Vitamin C, total ascorbic acid",mg,--,--,1.4,1.1
"Vitamin A, IU",IU,--,--,339,273
Lipids
"Fatty acids, total saturated",g,--,--,0.000,0.000
"Fatty acids, total trans",g,--,--,0.000,0.000
"Cholesterol",mg,--,--,0,0
Amino Acids
Other
Ingredients
"PEACHES, WATER, PEAR JUICE CONCENTRATE." Date available: 06/25/2017 Date last updated by company: 06/25/2017
