Source: USDA Branded Food Products Database Release December 2017 Software v.3.8.6.4 2017-10-02
Report Run at: December 19, 2017 05:57 EST
"Nutrient data for: 45053964, YELLOW CUPCAKES, UPC: 014821160096"
Food Group:  Branded Food Products Database
Common Name:

Nutrient,Unit,Data points,Std. Error,"1 CUPCAKE = 57.0g",1Value per 100 g,
Proximates
"Energy",kcal,--,--,260,456
"Protein",g,--,--,2.00,3.51
"Total lipid (fat)",g,--,--,17.00,29.82
"Carbohydrate, by difference",g,--,--,28.00,49.12
"Fiber, total dietary",g,--,--,0.0,0.0
"Sugars, total",g,--,--,0.00,0.00
Minerals
"Calcium, Ca",mg,--,--,20,35
"Iron, Fe",mg,--,--,0.51,0.89
"Sodium, Na",mg,--,--,130,228
Vitamins
"Vitamin C, total ascorbic acid",mg,--,--,0.0,0.0
"Vitamin A, IU",IU,--,--,0,0
Lipids
"Fatty acids, total saturated",g,--,--,8.003,14.040
"Fatty acids, total trans",g,--,--,0.000,0.000
"Cholesterol",mg,--,--,15,26
Amino Acids
Other
Ingredients
"MALTITOL* AND SORBITOL* SYRUP, PALM OIL WITH MONO&DIGLYCERIDES AND POLYSORBATE 60, ENRICHED FLOUR (BLEACHED WHEAT FLOUR, NIACIN, REDUCED IRON, THIAMINE MONONITRATE, RIBOFLAVIN, FOLIC ACID), MALTITOL*, WATER, SOYBEAN OIL (WITH MONO- AND DIGLYCERIDES, PROPYLENE GLYCOL MONO- AND DISTERS OF FATTY ACIDS, GLYCERYL-LACTO ESTERS OF FATTY ACIDS), EGGS, PALM OIL WITH PROPYLENE GLYCOL MONO DIESTERS OF FATS AND FATTY ACIDS, MONO AND DIGLYCERIDES AND SOYBEAN LECITHIN, EGG WHITES, MODIFIED FOOD STARCH, MALTODEXTRIN, NON-FAT MILK SOLIDS W/VITAMIN A, TITANIUM DIOXIDE, EMULSIFIER (PROPYLENE GLYCOL MONO- AND DIESTERS OF FATS AND FATTY ACIDS, MONO- AND DIGLCERIDES, LECITHIN, WITH BHT AND CITRIC ACID TO HELP PROTECT FLAVOR), NATURAL AND ARTIFICIAL FLAVOR (CONTAINS WHEAT AND MILK), SODIUM ACID PYROPHOSPHATE, SALT, EMULSIFIER (PROPYLENE GLYCOL MONOSTEARATE, MONOGLYCERIDES, SODIUM STEORYL LACTILATE, CALCIUM SILICATE, ASCORBIC ACID, CITRIC ACID), BAKING SODA, MONOCALCIUM PHOSPHATE, XANTHAN GUM, VANILLIN, GUAR GUM, LEMON PUREE (LEMON JUICE CONCENTRATE, LEMON PULP CELLS, LEMON OIL AND WATER), SORBIC ACID (PRESERVATIVE), CALCIUM PHOSPHATE, ANNATTO EXTRACT/TURMERIC (COLOR), SUCRALOSE, ACESULFAME POTASSIUM." Date available: 06/25/2017 Date last updated by company: 06/25/2017
