Source: USDA Branded Food Products Database Release December 2017 Software v.3.8.6.4 2017-10-02
Report Run at: December 19, 2017 05:53 EST
"Nutrient data for: 45279388, YELLOW CLING PEACH SLICES, UPC: 092825102489"
Food Group:  Branded Food Products Database
Common Name:

Nutrient,Unit,Data points,Std. Error,"0.5 cup = 122.0g",1Value per 100 g,
Proximates
"Energy",kcal,--,--,60,49
"Protein",g,--,--,1.00,0.82
"Total lipid (fat)",g,--,--,0.00,0.00
"Carbohydrate, by difference",g,--,--,14.01,11.48
"Fiber, total dietary",g,--,--,2.0,1.6
"Sugars, total",g,--,--,11.00,9.02
Minerals
"Calcium, Ca",mg,--,--,0,0
"Iron, Fe",mg,--,--,0.41,0.34
"Potassium, K",mg,--,--,140,115
"Sodium, Na",mg,--,--,10,8
Vitamins
"Vitamin C, total ascorbic acid",mg,--,--,20.6,16.9
"Vitamin A, IU",IU,--,--,344,282
Lipids
"Fatty acids, total saturated",g,--,--,0.000,0.000
"Fatty acids, total trans",g,--,--,0.000,0.000
"Cholesterol",mg,--,--,0,0
Amino Acids
Other
Ingredients
"PEACHES, WATER, PEACH PULP AND JUICE, PEAR JUICE CONCENTRATE, ASCORBIC ACID (VITAMIN C) TO PROTECT COLOR, CITRIC ACID." Date available: 07/14/2017 Date last updated by company: 07/14/2017
