Source: USDA Branded Food Products Database Release December 2017 Software v.3.8.6.4 2017-10-02
Report Run at: December 19, 2017 06:19 EST
"Nutrient data for: 45264344, YO LITE FAT FREE YOGURT, UPC: 071043008513"
Food Group:  Branded Food Products Database
Common Name:

Nutrient,Unit,Data points,Std. Error,"6.0 ONZ = 170.0g",1Value per 100 g,
Proximates
"Energy",kcal,--,--,80,47
"Protein",g,--,--,7.00,4.12
"Total lipid (fat)",g,--,--,0.00,0.00
"Carbohydrate, by difference",g,--,--,13.01,7.65
"Fiber, total dietary",g,--,--,3.1,1.8
"Sugars, total",g,--,--,8.99,5.29
Minerals
"Calcium, Ca",mg,--,--,201,118
"Iron, Fe",mg,--,--,0.00,0.00
"Potassium, K",mg,--,--,320,188
"Sodium, Na",mg,--,--,100,59
Vitamins
"Vitamin C, total ascorbic acid",mg,--,--,1.2,0.7
"Vitamin A, IU",IU,--,--,0,0
"Vitamin D",IU,--,--,80,47
Lipids
"Fatty acids, total saturated",g,--,--,0.000,0.000
"Fatty acids, total trans",g,--,--,0.000,0.000
"Cholesterol",mg,--,--,5,3
Amino Acids
Other
Ingredients
"CULTURED NONFAT MILK, RASPBERRIES, WHEY PROTEIN CONCENTRATE, CHICORY ROOT (VEGETABLE FIBER), MODIFIED CORN STARCH, RASPBERRY FLAVOR, NATURAL FLAVORS, KOSHER GELATIN, SUCRALOSE, COLORED WITH FRUIT JUICE, VITAMIN D3, PROBIOTICS: STREPTOCOCCUS THERMOPHILUS, L. BULGARICUS, L. ACIDOPHILUS, BIFIDOBACTERIUM LACTIS." Date available: 09/09/2017 Date last updated by company: 09/09/2017
