Source: USDA Branded Food Products Database Release December 2017 Software v.3.8.6.4 2017-10-02
Report Run at: December 19, 2017 06:24 EST
"Nutrient data for: 45222056, YO YUMMY NATURAL TOGURT, UPC: 851587003621"
Food Group:  Branded Food Products Database
Common Name:

Nutrient,Unit,Data points,Std. Error,"1 CONTAINER = 100.0g",1Value per 100 g,
Proximates
"Energy",kcal,--,--,90,90
"Protein",g,--,--,5.00,5.00
"Total lipid (fat)",g,--,--,1.50,1.50
"Carbohydrate, by difference",g,--,--,15.00,15.00
"Fiber, total dietary",g,--,--,0.0,0.0
"Sugars, total",g,--,--,14.00,14.00
Minerals
"Calcium, Ca",mg,--,--,150,150
"Iron, Fe",mg,--,--,0.00,0.00
"Potassium, K",mg,--,--,120,120
"Sodium, Na",mg,--,--,55,55
Vitamins
"Vitamin C, total ascorbic acid",mg,--,--,4.1,4.1
"Vitamin A, IU",IU,--,--,1275,1275
"Vitamin D",IU,--,--,80,80
Lipids
"Fatty acids, total saturated",g,--,--,1.000,1.000
"Fatty acids, total trans",g,--,--,0.000,0.000
"Cholesterol",mg,--,--,5,5
Amino Acids
Other
Ingredients
"CULTURED PASTEURIZED GRADE A LOWFAT MILK, SUGAR, CASEIN, WHEY PROTEIN, STRAWBERRY PUREE CONCENTRATE, NATIVE CORN STARCH, KOSHER GELATIN, FRUIT AND VEGETABLE JUICE CONCENTRATE (FOR COLOR), NATURAL FLAVOR, LOCUST BEAN GUM, VITAMIN A ACETATE, VITAMIN D3, TRICALCIUM PHOSPHATE." Date available: 07/14/2017 Date last updated by company: 07/14/2017
