Source: USDA Branded Food Products Database Release December 2017 Software v.3.8.6.4 2017-10-02
Report Run at: December 19, 2017 06:07 EST
"Nutrient data for: 45060606, YOCRUNCH, LOW FAT YOGURT WITH SNICKERS, VANILLA, UPC: 046675001126"
Food Group:  Branded Food Products Database
Common Name:

Nutrient,Unit,Data points,Std. Error,"1 CONTAINER = 170.0g",1Value per 100 g,
Proximates
"Energy",kcal,--,--,180,106
"Protein",g,--,--,6.00,3.53
"Total lipid (fat)",g,--,--,4.00,2.35
"Carbohydrate, by difference",g,--,--,31.01,18.24
"Fiber, total dietary",g,--,--,0.0,0.0
"Sugars, total",g,--,--,25.99,15.29
Minerals
"Calcium, Ca",mg,--,--,201,118
"Iron, Fe",mg,--,--,0.00,0.00
"Phosphorus, P",mg,--,--,150,88
"Sodium, Na",mg,--,--,105,62
Vitamins
"Vitamin C, total ascorbic acid",mg,--,--,0.0,0.0
"Vitamin A, IU",IU,--,--,400,235
"Vitamin D",IU,--,--,80,47
Lipids
"Fatty acids, total saturated",g,--,--,2.006,1.180
"Fatty acids, total trans",g,--,--,0.000,0.000
"Cholesterol",mg,--,--,10,6
Amino Acids
Other
Ingredients
"LOWFAT YOGURT: CULTURED PASTEURIZED GRADE A LOWFAT MILK, SUGAR, FOOD STARCH - MODIFIED, NATURAL FLAVORS, POTASSIUM SORBATE (TO PRESERVE FRESHNESS), VITAMIN A PALMITATE, VITAMIN D3. SNICKERS PIECES: MILK CHOCOLATE (SUGAR, COCOA BUTTER, CHOCOLATE, SKIM MILK, LACTOSE, MILKFAT, SOY LECITHIN, ARTIFICIAL FLAVOR), PEANUTS, CORN SYRUP, SUGAR, PALM OIL, SKIM MILK, LACTOSE, PARTIALLY HYDROGENATED SOYBEAN OIL, SALT, EGG WHITES, ARTIFICIAL FLAVOR. CONTAINS ACTIVE YOGURT CULTURES INCLUDING L. ACIDOPHILUS & BIFIDUS." Date available: 07/14/2017 Date last updated by company: 07/14/2017
