Source: USDA Branded Food Products Database Release December 2017 Software v.3.8.6.4 2017-10-02
Report Run at: December 19, 2017 06:08 EST
"Nutrient data for: 45256020, YOGI, HEALTHY FASTING TEA HERBAL SUPPLEMENT, UPC: 076950450141"
Food Group:  Branded Food Products Database
Common Name:

Nutrient,Unit,Data points,Std. Error,"1 TEA BAG = 8.0g",1Value per 100 g,
Proximates
Minerals
Vitamins
Lipids
Amino Acids
Other
Ingredients
"ORGANIC TOASTED BROWN RICE, ORGANIC BROWN RICE FLAVOR, ORGANIC CARAMEL FLAVOR, NATURAL PASSION FRUIT FLAVOR, NATURAL PLUM FLAVOR, NATURAL CINNAMON BARK OIL, NATURAL CARDAMOM SEED OIL, NATURAL GINGER ROOT OIL." Date available: 06/25/2017 Date last updated by company: 06/25/2017
