Source: USDA Branded Food Products Database Release December 2017 Software v.3.8.6.4 2017-10-02
Report Run at: December 19, 2017 06:09 EST
"Nutrient data for: 45109456, YOGURT ALTERNATIVE, UPC: 025293003750"
Food Group:  Branded Food Products Database
Common Name:

Nutrient,Unit,Data points,Std. Error,"1 cup = 225.0g",1Value per 100 g,
Proximates
"Energy",kcal,--,--,160,71
"Protein",g,--,--,11.00,4.89
"Total lipid (fat)",g,--,--,6.01,2.67
"Carbohydrate, by difference",g,--,--,13.99,6.22
"Fiber, total dietary",g,--,--,2.9,1.3
"Sugars, total",g,--,--,8.01,3.56
Minerals
"Calcium, Ca",mg,--,--,400,178
"Iron, Fe",mg,--,--,1.08,0.48
"Sodium, Na",mg,--,--,94,42
Vitamins
"Vitamin C, total ascorbic acid",mg,--,--,0.0,0.0
"Vitamin A, IU",IU,--,--,0,0
"Vitamin D",IU,--,--,160,71
Lipids
"Fatty acids, total saturated",g,--,--,0.990,0.440
"Fatty acids, total trans",g,--,--,0.000,0.000
"Cholesterol",mg,--,--,0,0
Amino Acids
Other
Ingredients
"SOYMILK (FILTERED WATER, SOYBEANS), CANE SUGAR, CONTAINS 2% OR LESS OF: CORN STARCH, NATURAL FLAVOR, PECTIN, TRICALCIUM PHOSPHATE, CITRIC ACID, DIPOTASSIUM PHOSPHATE, SEA SALT, LIVE AND ACTIVE CULTURES, VITAMIN D2, VITAMIN C ESTER, MIXED TOCOPHEROLS (TO PROTECT FLAVOR)." Date available: 10/13/2017 Date last updated by company: 10/13/2017
