Source: USDA Branded Food Products Database Release December 2017 Software v.3.8.6.4 2017-10-02
Report Run at: December 19, 2017 06:13 EST
"Nutrient data for: 45272499, YOGURT PRETZELS, UPC: 038718709854"
Food Group:  Branded Food Products Database
Common Name:

Nutrient,Unit,Data points,Std. Error,"8.0 PIECES = 42.0g",1Value per 100 g,
Proximates
"Energy",kcal,--,--,200,476
"Protein",g,--,--,1.00,2.38
"Total lipid (fat)",g,--,--,7.00,16.67
"Carbohydrate, by difference",g,--,--,32.00,76.19
"Fiber, total dietary",g,--,--,0.0,0.0
"Sugars, total",g,--,--,20.00,47.62
Minerals
"Calcium, Ca",mg,--,--,0,0
"Iron, Fe",mg,--,--,0.86,2.04
"Sodium, Na",mg,--,--,210,500
Vitamins
"Vitamin C, total ascorbic acid",mg,--,--,0.0,0.0
"Vitamin A, IU",IU,--,--,0,0
Lipids
"Fatty acids, total saturated",g,--,--,6.002,14.290
"Fatty acids, total trans",g,--,--,0.000,0.000
"Cholesterol",mg,--,--,0,0
Amino Acids
Other
Ingredients
"SUGAR, ENRICHED WHEAT FLOUR (WHEAT FLOUR, NIACIN, REDUCE IRON, THIAMINE MONONITRATE, RIBOFLAVIN, FOLIC ACID), PARTIALLY HYDROGENATED PALM KERNEL OIL, TITANIUM DIOXIDE (COLOR), YOGURT POWDER (CULTURED WHEY PROTEIN CONCENTRATE, CULTURED SKIM MILK), WHEY POWDER, CORN SYRUP, SALT, SODIUM BICARBONATE, YEAST, SOY LECITHIN, LACTIC ACID, ARTIFICIAL FLAVOR." Date available: 07/14/2017 Date last updated by company: 07/14/2017
