Source: USDA Branded Food Products Database Release December 2017 Software v.3.8.6.4 2017-10-02
Report Run at: December 19, 2017 06:12 EST
"Nutrient data for: 45057440, YOGURT PRETZELS, UPC: 816512013960"
Food Group:  Branded Food Products Database
Common Name:

Nutrient,Unit,Data points,Std. Error,"9.0 PRETZELS = 40.0g",1Value per 100 g,
Proximates
"Energy",kcal,--,--,190,475
"Protein",g,--,--,2.00,5.00
"Total lipid (fat)",g,--,--,7.00,17.50
"Carbohydrate, by difference",g,--,--,31.00,77.50
"Fiber, total dietary",g,--,--,1.0,2.5
"Sugars, total",g,--,--,18.00,45.00
Minerals
"Calcium, Ca",mg,--,--,20,50
"Iron, Fe",mg,--,--,0.90,2.25
"Sodium, Na",mg,--,--,130,325
Vitamins
"Vitamin C, total ascorbic acid",mg,--,--,0.0,0.0
"Vitamin A, IU",IU,--,--,0,0
Lipids
"Fatty acids, total saturated",g,--,--,5.000,12.500
"Fatty acids, total trans",g,--,--,0.000,0.000
"Cholesterol",mg,--,--,0,0
Amino Acids
Other
Ingredients
"YOGURT COATING (SUGAR, PALM/ PALM KERNEL OILS, WHEY POWDER [MILK], DRY NONFAT YOGURT [MILK], SOY LECITHIN [AN EMULSIFIER], SALT, NATURAL VANILLA EXTRACT), PRETZELS (UNBLEACHED ENRICHED WHEAT FLOUR [FLOUR, NIACIN, REDUCED IRON, THIAMINE MONONITRATE-B1, RIBOFLAVIN-B2, FOLIC ACID], MALT, SALT, SOYBEAN AND/OR CANOLA OIL, AND YEAST), PEPPERMINT FLAKES (SUGAR, CORN SYRUP, VEGETABLE JUICE CONCENTRATE, CARAMEL COLOR, NATURAL PEPPERMINT OIL)." Date available: 07/14/2017 Date last updated by company: 07/14/2017
