Source: USDA Branded Food Products Database Release December 2017 Software v.3.8.6.4 2017-10-02
Report Run at: December 19, 2017 06:16 EST
"Nutrient data for: 45241396, YOGURT SMOOTHIE, UPC: 814633018062"
Food Group:  Branded Food Products Database
Common Name:

Nutrient,Unit,Data points,Std. Error,"7.0 OZA = 7.0g",1Value per 100 g,
Proximates
"Energy",kcal,--,--,7,105
"Protein",g,--,--,0.23,3.33
"Total lipid (fat)",g,--,--,0.13,1.90
"Carbohydrate, by difference",g,--,--,1.40,20.00
"Fiber, total dietary",g,--,--,0.2,2.4
"Sugars, total",g,--,--,1.13,16.19
Minerals
"Calcium, Ca",mg,--,--,10,143
"Iron, Fe",mg,--,--,0.01,0.20
"Potassium, K",mg,--,--,11,157
"Sodium, Na",mg,--,--,4,52
Vitamins
"Vitamin C, total ascorbic acid",mg,--,--,0.0,0.7
"Vitamin A, IU",IU,--,--,8,110
Lipids
"Fatty acids, total saturated",g,--,--,0.100,1.430
"Fatty acids, total trans",g,--,--,0.000,0.000
"Cholesterol",mg,--,--,1,10
Amino Acids
Other
Ingredients
"CREAM, SKIM MILK, SUGAR, WATER, PEACH PUREE, NONFAT DRIED MILK, POLYDEXTROSE (FIBER), MODIFIED FOOD STARCH, GELATIN, TRICALCIUM PHOSPHATE, MONO AND DIGLYCERIDES, NATURAL FLAVOR, PECTIN, CITRIC ACID, SODIUM BENZOATE, POTASSIUM SORBATE, ARTIFICIAL COLOR (YELLOW #6)." Date available: 06/25/2017 Date last updated by company: 06/25/2017
