Source: USDA Branded Food Products Database Release December 2017 Software v.3.8.6.4 2017-10-02
Report Run at: December 19, 2017 06:16 EST
"Nutrient data for: 45237822, YOGURT SMOOTHIE, UPC: 815473011138"
Food Group:  Branded Food Products Database
Common Name:

Nutrient,Unit,Data points,Std. Error,"1 BOTTLE = 207.0g",1Value per 100 g,
Proximates
"Energy",kcal,--,--,180,87
"Protein",g,--,--,5.01,2.42
"Total lipid (fat)",g,--,--,4.49,2.17
"Carbohydrate, by difference",g,--,--,29.00,14.01
"Fiber, total dietary",g,--,--,0.0,0.0
"Sugars, total",g,--,--,25.01,12.08
Minerals
"Calcium, Ca",mg,--,--,201,97
"Iron, Fe",mg,--,--,0.00,0.00
"Potassium, K",mg,--,--,269,130
"Sodium, Na",mg,--,--,99,48
Vitamins
"Vitamin C, total ascorbic acid",mg,--,--,1.0,0.5
"Vitamin A, IU",IU,--,--,410,198
"Vitamin D",IU,--,--,99,48
Lipids
"Fatty acids, total saturated",g,--,--,3.001,1.450
"Fatty acids, total trans",g,--,--,0.000,0.000
"Cholesterol",mg,--,--,14,7
Amino Acids
Other
Ingredients
"GRADE A PASTEURIZED CULTURED REDUCED FAT MILK, SUGAR, BLACKBERRY PUREE, STRAWBERRY PUREE, RASPBERRY PUREE, WATER, POMEGRANATE JUICE CONCENTRATE, CORN STARCH-MODIFIED, NATURAL FLAVORS, FRUIT AND VEGETABLE JUICE (FOR COLOR), PECTIN, SODIUM CITRATE, POTASSIUM SORBATE (TO MAINTAIN FRESHNESS), STEVIA LEAF EXTRACT (NATURAL SWEETENER), VITAMIN A PALMITATE, VITAMIN D3." Date available: 06/24/2017 Date last updated by company: 06/24/2017
