Source: USDA Branded Food Products Database Release December 2017 Software v.3.8.6.4 2017-10-02
Report Run at: December 19, 2017 06:24 EST
"Nutrient data for: 45329962, YUCA CHIPS, UPC: 856414002648"
Food Group:  Branded Food Products Database
Common Name:

Nutrient,Unit,Data points,Std. Error,"1 ONZ = 30.0g",1Value per 100 g,
Proximates
"Energy",kcal,--,--,140,467
"Protein",g,--,--,0.00,0.00
"Total lipid (fat)",g,--,--,6.00,20.00
"Carbohydrate, by difference",g,--,--,22.00,73.33
"Fiber, total dietary",g,--,--,0.0,0.0
"Sugars, total",g,--,--,0.00,0.00
Minerals
"Calcium, Ca",mg,--,--,20,67
"Iron, Fe",mg,--,--,1.20,4.00
"Sodium, Na",mg,--,--,85,283
Vitamins
"Vitamin C, total ascorbic acid",mg,--,--,10.0,33.3
"Vitamin A, IU",IU,--,--,0,0
Lipids
"Fatty acids, total saturated",g,--,--,2.499,8.330
"Fatty acids, total monounsaturated",g,--,--,2.499,8.330
"Fatty acids, total polyunsaturated",g,--,--,0.501,1.670
"Cholesterol",mg,--,--,0,0
Amino Acids
Other
Ingredients
"CASSAVA, VEGETABLE OIL (PALM OIL) AND SALT." Date available: 10/13/2017 Date last updated by company: 10/13/2017
