Source: USDA Branded Food Products Database Release December 2017 Software v.3.8.6.4 2017-10-02
Report Run at: December 19, 2017 06:26 EST
"Nutrient data for: 45269087, YUKON SELECT GARLIC FRIES WITH PARSLEY AND SEA SALT, UPC: 834183100314"
Food Group:  Branded Food Products Database
Common Name:

Nutrient,Unit,Data points,Std. Error,"12.0 , 2-3"""" PIECES | ABOUT = 84.0g",1Value per 100 g,
Proximates
"Energy",kcal,--,--,150,179
"Protein",g,--,--,2.00,2.38
"Total lipid (fat)",g,--,--,7.00,8.33
"Carbohydrate, by difference",g,--,--,19.00,22.62
"Fiber, total dietary",g,--,--,1.0,1.2
"Sugars, total",g,--,--,1.00,1.19
Minerals
"Calcium, Ca",mg,--,--,0,0
"Iron, Fe",mg,--,--,0.73,0.87
"Potassium, K",mg,--,--,310,369
"Sodium, Na",mg,--,--,330,393
Vitamins
"Vitamin C, total ascorbic acid",mg,--,--,4.9,5.8
"Vitamin A, IU",IU,--,--,0,0
Lipids
"Fatty acids, total saturated",g,--,--,0.504,0.600
"Fatty acids, total monounsaturated",g,--,--,4.502,5.360
"Fatty acids, total polyunsaturated",g,--,--,1.999,2.380
"Fatty acids, total trans",g,--,--,0.000,0.000
"Cholesterol",mg,--,--,0,0
Amino Acids
Other
Ingredients
"POTATOES, VEGETABLE OIL (OLIVE [MAY CONTAIN ONE OR MORE OF THE FOLLOWING: HIGH OLEIC CANOLA, CANOLA, SUNFLOWER), RICE FLOUR, TAPIOCA STARCH, CORN STARCH, DEXTRIN, SEA SALT, GARLIC POWDER, DEHYDRATED PARSLEY, NATURAL GARLIC FLAVOR, XANTHAN GUM." Date available: 07/14/2017 Date last updated by company: 07/14/2017
