Source: USDA Branded Food Products Database Release December 2017 Software v.3.8.6.4 2017-10-02
Report Run at: December 19, 2017 06:28 EST
"Nutrient data for: 45156139, YVES THURIE'S, ASSORTED CHOCOLATE TRUFFLES, FRENCH CHOCOLATE MACARONS, UPC: 066909100203"
Food Group:  Branded Food Products Database
Common Name:

Nutrient,Unit,Data points,Std. Error,"3.0 PIECES = 36.0g",1Value per 100 g,
Proximates
"Energy",kcal,--,--,190,528
"Protein",g,--,--,1.00,2.78
"Total lipid (fat)",g,--,--,12.00,33.33
"Carbohydrate, by difference",g,--,--,20.00,55.56
"Fiber, total dietary",g,--,--,1.0,2.8
"Sugars, total",g,--,--,19.00,52.78
Minerals
"Calcium, Ca",mg,--,--,20,56
"Iron, Fe",mg,--,--,2.50,6.95
"Sodium, Na",mg,--,--,20,56
Vitamins
"Vitamin C, total ascorbic acid",mg,--,--,0.0,0.0
"Vitamin A, IU",IU,--,--,69,193
Lipids
"Fatty acids, total saturated",g,--,--,6.998,19.440
"Fatty acids, total trans",g,--,--,0.000,0.000
"Cholesterol",mg,--,--,10,28
Amino Acids
Other
Ingredients
"SUGAR, COCOA, COCOA BUTTER, DRY WHOLE MILK, ALMONDS, CLARIFIED BUTTER, HAZELNUTS, LACTOSE, GLUCOSE SYRUP, DEXTROSE, PART-SKIM MILK, INVERT SUGAR SYRUP, SORBITOL, SOY LECITHIN, VANILLA NATURAL FLAVORS, SALT, PAPRIKA OLEORESIN COLOR." Date available: 07/14/2017 Date last updated by company: 07/14/2017
