Source: USDA Branded Food Products Database Release December 2017 Software v.3.8.6.4 2017-10-02
Report Run at: December 19, 2017 06:28 EST
"Nutrient data for: 45147601, YVES THURIES, DARK CHOCOLATE, UPC: 066909100852"
Food Group:  Branded Food Products Database
Common Name:

Nutrient,Unit,Data points,Std. Error,"4.0 PIECES = 32.0g",1Value per 100 g,
Proximates
"Energy",kcal,--,--,180,562
"Protein",g,--,--,2.00,6.25
"Total lipid (fat)",g,--,--,13.00,40.62
"Carbohydrate, by difference",g,--,--,12.00,37.50
"Fiber, total dietary",g,--,--,3.0,9.4
"Sugars, total",g,--,--,11.00,34.38
Minerals
"Calcium, Ca",mg,--,--,20,62
"Iron, Fe",mg,--,--,2.81,8.79
"Sodium, Na",mg,--,--,10,31
Vitamins
"Vitamin C, total ascorbic acid",mg,--,--,0.0,0.0
"Vitamin A, IU",IU,--,--,0,0
Lipids
"Fatty acids, total saturated",g,--,--,7.002,21.880
"Fatty acids, total trans",g,--,--,0.000,0.000
"Cholesterol",mg,--,--,0,0
Amino Acids
Other
Ingredients
"COCOA MASS, SUGAR, COCOA BUTTER, CARAMELIZED ALMONDS 9% (ALMONDS, SUGAR GLUCOSE SYRUP, HONEY), ORANGE SPLITS 9% (ORANGE PULP, SUCROSE, APPLE, PINEAPPLE FIBERS, SODIUM ALGINATE, DICALCIUM PHOSPHATE, ORANGE NATURAL FLAVOR, CITRIC ACID), SOY LECITHIN. DARK CHOCOLATE: COCOA MINIMUM 70%." Date available: 07/14/2017 Date last updated by company: 07/14/2017
