Source: USDA Branded Food Products Database Release December 2017 Software v.3.8.6.4 2017-10-02
Report Run at: December 19, 2017 06:31 EST
"Nutrient data for: 45187890, ZARO'S FAMILY BAKERY, COFFEE CAKE, CINNAMON WALNUT, UPC: 854135006129"
Food Group:  Branded Food Products Database
Common Name:

Nutrient,Unit,Data points,Std. Error,"1 SLICE` = 56.0g",1Value per 100 g,
Proximates
"Energy",kcal,--,--,260,464
"Protein",g,--,--,3.00,5.36
"Total lipid (fat)",g,--,--,13.00,23.21
"Carbohydrate, by difference",g,--,--,33.00,58.93
"Fiber, total dietary",g,--,--,1.0,1.8
"Sugars, total",g,--,--,21.00,37.50
Minerals
"Calcium, Ca",mg,--,--,80,143
"Iron, Fe",mg,--,--,0.35,0.63
"Sodium, Na",mg,--,--,160,286
Vitamins
"Vitamin C, total ascorbic acid",mg,--,--,0.0,0.0
"Vitamin A, IU",IU,--,--,98,175
Lipids
"Fatty acids, total saturated",g,--,--,3.002,5.360
"Fatty acids, total trans",g,--,--,0.000,0.000
"Cholesterol",mg,--,--,20,36
Amino Acids
Other
Ingredients
"SUGAR, BLEACHED WHEAT FLOUR, SOUR CREAM (CULTURED PASTEURIZED LIGHT CREAM, NONFAT MILK AND ENZYMES), SOYBEAN OIL, WALNUTS, EGGS, WATER, PALM OIL, EMULSIFIER (PROPYLENE GLYCOL MONO AND DIESTERS OF FATS AND FATTY ACIDS, MONO AND DIGLYCERIDES, SOY LECITHIN), MODIFIED FOOD STARCH, LEAVENING (MONOCALCIUM PHOSPHATE, BAKING SODA), CINNAMON, DEXTROSE, WHEY PROTEIN, NATURAL FLAVOR, SALT, CELLULOSE GUM, TURMERIC ADDED FOR COLOR." Date available: 07/14/2017 Date last updated by company: 07/14/2017
