Source: USDA Branded Food Products Database Release December 2017 Software v.3.8.6.4 2017-10-02
Report Run at: December 19, 2017 06:31 EST
"Nutrient data for: 45108066, ZATARAIN'S, BIG EASY RICE, GARDEN VEGETABLE BROWN RICE, UPC: 071429011816"
Food Group:  Branded Food Products Database
Common Name:

Nutrient,Unit,Data points,Std. Error,"1 cup = 140.0g",1Value per 100 g,
Proximates
"Energy",kcal,--,--,251,179
"Protein",g,--,--,6.01,4.29
"Total lipid (fat)",g,--,--,2.51,1.79
"Carbohydrate, by difference",g,--,--,51.00,36.43
"Fiber, total dietary",g,--,--,2.0,1.4
"Sugars, total",g,--,--,2.00,1.43
Minerals
"Calcium, Ca",mg,--,--,20,14
"Iron, Fe",mg,--,--,0.35,0.25
"Sodium, Na",mg,--,--,620,443
Vitamins
"Vitamin C, total ascorbic acid",mg,--,--,2.9,2.1
"Vitamin A, IU",IU,--,--,241,172
Lipids
"Fatty acids, total saturated",g,--,--,0.000,0.000
"Fatty acids, total trans",g,--,--,0.000,0.000
"Cholesterol",mg,--,--,0,0
Amino Acids
Other
Ingredients
"COOKED LONG GRAIN BROWN RICE (BROWN RICE, WATER), GREEN AND RED BELL PEPPERS, CARROTS, CORN, MODIFIED POTATO STARCH, SALT, ONIONS, SOYBEAN OIL, YEAST EXTRACT, GARLIC, SUGAR, TOMATOES, SPICES (INCLUDING TURMERIC [FOR COLOR])." Date available: 07/14/2017 Date last updated by company: 07/14/2017
