Source: USDA Branded Food Products Database Release December 2017 Software v.3.8.6.4 2017-10-02
Report Run at: December 19, 2017 06:33 EST
"Nutrient data for: 45107773, ZATARAIN'S, FISH FRI CRISPY SOUTHERN SEAFOOD BREADING MIX, UPC: 071429027503"
Food Group:  Branded Food Products Database
Common Name:

Nutrient,Unit,Data points,Std. Error,"2.0 Tbsp = 17.0g",1Value per 100 g,
Proximates
"Energy",kcal,--,--,60,353
"Protein",g,--,--,1.00,5.88
"Total lipid (fat)",g,--,--,0.00,0.00
"Carbohydrate, by difference",g,--,--,12.00,70.59
Minerals
"Iron, Fe",mg,--,--,1.06,6.23
"Sodium, Na",mg,--,--,630,3706
Vitamins
"Vitamin A, IU",IU,--,--,294,1729
Lipids
Amino Acids
Other
Ingredients
"ENRICHED YELLOW CORN MEAL (CORN MEAL, IRON, NIACIN, THIAMINE MONONITRATE, RIBOFLAVIN, FOLIC ACID), SALT, SPICES (INCLUDING RED PEPPER), NATURAL FLAVOR, MONOSODIUM GLUTAMATE (FLAVOR ENHANCER), GARLIC, ONION, AND LEMON JUICE CONCENTRATE." Date available: 10/05/2017 Date last updated by company: 10/05/2017
