Source: USDA Branded Food Products Database Release December 2017 Software v.3.8.6.4 2017-10-02
Report Run at: December 19, 2017 06:34 EST
"Nutrient data for: 45107571, ZATARAIN'S, GARLIC & HERB RICE MIX, UPC: 071429091955"
Food Group:  Branded Food Products Database
Common Name:

Nutrient,Unit,Data points,Std. Error,"1 CUP PREPARED) | ( = 38.0g",1Value per 100 g,
Proximates
"Energy",kcal,--,--,130,342
"Protein",g,--,--,3.00,7.89
"Total lipid (fat)",g,--,--,0.50,1.32
"Carbohydrate, by difference",g,--,--,29.00,76.32
"Fiber, total dietary",g,--,--,1.0,2.6
"Sugars, total",g,--,--,1.00,2.63
Minerals
"Calcium, Ca",mg,--,--,20,53
"Iron, Fe",mg,--,--,2.13,5.61
"Sodium, Na",mg,--,--,740,1947
Vitamins
"Vitamin C, total ascorbic acid",mg,--,--,0.0,0.0
"Vitamin A, IU",IU,--,--,0,0
Lipids
"Fatty acids, total saturated",g,--,--,0.000,0.000
"Fatty acids, total trans",g,--,--,0.000,0.000
"Cholesterol",mg,--,--,0,0
Amino Acids
Other
Ingredients
"ENRICHED LONG GRAIN PARBOILED RICE (RICE, IRON, NIACIN, THIAMINE MONONITRATE, FOLIC ACID), ORZO PASTA (ENRICHED WHEAT FLOUR {FLOUR, NIACIN, IRON, THIAMINE MONONITRATE, RIBOFLAVIN, FOLIC ACID}, WHEAT BRAN, TOMATO, GARLIC, SALT, ONION, MONOSODIUM GLUTAMATE (FLAVOR ENHANCER), YEAST EXTRACT, SPICES (INCLUDING RED PEPPER, TURMERIC), SUGAR, SOY SAUCE (HYDROLYZED SOY PROTEIN, CORN SYRUP SOLIDS, SALT), HYDROLYZED CORN GLUTEN AND SOY PROTEIN, CORN STARCH, DISODIUM INOSINATE AND DISODIUM GUANYLATE (FLAVOR ENHANCERS), AND NATURAL FLAVOR." Date available: 07/14/2017 Date last updated by company: 07/14/2017
