Source: USDA Branded Food Products Database Release December 2017 Software v.3.8.6.4 2017-10-02
Report Run at: December 19, 2017 06:31 EST
"Nutrient data for: 45107712, ZATARAIN'S, BIG EASY HEAT & SERVE RICE, WILD BROWN RICE, UPC: 071429012196"
Food Group:  Branded Food Products Database
Common Name:

Nutrient,Unit,Data points,Std. Error,"1 cup = 140.0g",1Value per 100 g,
Proximates
"Energy",kcal,--,--,230,164
"Protein",g,--,--,5.00,3.57
"Total lipid (fat)",g,--,--,4.00,2.86
"Carbohydrate, by difference",g,--,--,44.00,31.43
"Fiber, total dietary",g,--,--,2.0,1.4
"Sugars, total",g,--,--,0.99,0.71
Minerals
"Calcium, Ca",mg,--,--,20,14
"Iron, Fe",mg,--,--,0.35,0.25
"Sodium, Na",mg,--,--,480,343
Vitamins
"Vitamin C, total ascorbic acid",mg,--,--,2.0,1.4
"Vitamin A, IU",IU,--,--,97,69
Lipids
"Fatty acids, total saturated",g,--,--,0.504,0.360
"Fatty acids, total trans",g,--,--,0.000,0.000
"Cholesterol",mg,--,--,0,0
Amino Acids
Other
Ingredients
"WATER, LONG GRAIN PARBOILED BROWN RICE, RED AND GREEN BELL PEPPERS, WILD RICE, SOYBEAN OIL, MODIFIED POTATO STARCH, ONION, SEA SALT, YEAST EXTRACT, SPICES (INCLUDING RED PEPPER), GARLIC, SALT TURBINADO SUGAR, SOY SAUCE (HYDROLYZED SOY PROTEIN, CORN SYRUP SOLIDS, SALT), CORN MALTODEXTRIN, NATURAL FLAVORING, CARROTS." Date available: 07/14/2017 Date last updated by company: 07/14/2017
