Source: USDA Branded Food Products Database Release December 2017 Software v.3.8.6.4 2017-10-02
Report Run at: December 19, 2017 06:34 EST
"Nutrient data for: 45107178, ZATARAIN'S, FLAVORED RICE, CAJUN CHICKEN, UPC: 071429012455"
Food Group:  Branded Food Products Database
Common Name:

Nutrient,Unit,Data points,Std. Error,"1 CUP PREPARED) | ( = 45.0g",1Value per 100 g,
Proximates
"Energy",kcal,--,--,160,356
"Protein",g,--,--,4.00,8.89
"Total lipid (fat)",g,--,--,0.50,1.11
"Carbohydrate, by difference",g,--,--,34.00,75.56
"Fiber, total dietary",g,--,--,2.0,4.4
"Sugars, total",g,--,--,2.00,4.44
Minerals
"Calcium, Ca",mg,--,--,40,89
"Iron, Fe",mg,--,--,1.80,4.00
"Sodium, Na",mg,--,--,450,1000
Vitamins
"Vitamin C, total ascorbic acid",mg,--,--,18.0,40.0
"Vitamin A, IU",IU,--,--,500,1111
Lipids
"Fatty acids, total saturated",g,--,--,0.000,0.000
"Fatty acids, total trans",g,--,--,0.000,0.000
"Cholesterol",mg,--,--,0,0
Amino Acids
Other
Ingredients
"ENRICHED LONG GRAIN PARBOILED RICE (RICE, IRON, NIACIN, THIAMINE MONONITRATE, FOLIC ACID), ONION, SEA SALT, GARLIC, SPICES (INCLUDING PARSLEY, PAPRIKA, CHILI PEPPER, RED PEPPER, TURMERIC), RED & GREEN BELL PEPPER, SUGAR, YEAST EXTRACT, SALT, HYDROLYZED SOY PROTEIN AND CORN PROTEIN, CHICKEN, CHICKEN FAT, CARAMEL COLOR, AND NATURAL FLAVOR." Date available: 07/14/2017 Date last updated by company: 07/14/2017
