Source: USDA Branded Food Products Database Release December 2017 Software v.3.8.6.4 2017-10-02
Report Run at: December 19, 2017 06:36 EST
"Nutrient data for: 45230391, ZBAR PROTEIN BAR, UPC: 722252354037"
Food Group:  Branded Food Products Database
Common Name:

Nutrient,Unit,Data points,Std. Error,"1 BAR = 36.0g",1Value per 100 g,
Proximates
"Energy",kcal,--,--,130,361
"Protein",g,--,--,5.00,13.89
"Total lipid (fat)",g,--,--,2.50,6.94
"Carbohydrate, by difference",g,--,--,23.00,63.89
"Fiber, total dietary",g,--,--,2.0,5.6
"Sugars, total",g,--,--,8.00,22.22
Minerals
"Calcium, Ca",mg,--,--,200,556
"Iron, Fe",mg,--,--,3.00,8.34
"Magnesium, Mg",mg,--,--,67,185
"Potassium, K",mg,--,--,105,292
"Sodium, Na",mg,--,--,85,236
"Zinc, Zn",mg,--,--,1.50,4.17
Vitamins
"Vitamin C, total ascorbic acid",mg,--,--,0.0,0.0
"Vitamin A, IU",IU,--,--,0,0
"Vitamin D",IU,--,--,40,111
Lipids
"Fatty acids, total saturated",g,--,--,1.001,2.780
"Fatty acids, total monounsaturated",g,--,--,0.500,1.390
"Fatty acids, total polyunsaturated",g,--,--,0.000,0.000
"Fatty acids, total trans",g,--,--,0.000,0.000
"Cholesterol",mg,--,--,5,14
Amino Acids
Other
Ingredients
"ORGANIC TAPIOCA SYRUP, ORGANIC BROWN RICE FLOUR, ORGANIC ROLLED OATS, ORGANIC CANE SYRUP, WHEY PROTEIN CONCENTRATE, ORGANIC DRIED CANE SYRUP, CHICORY FIBER SYRUP, WHEY PROTEIN ISOLATE, ORGANIC ALKALIZED COCOA, ORGANIC OAT FLOUR, RICE FLOUR, VEGETABLE GLYCERIN, ORGANIC TAPIOCA SYRUP SOLIDS, ORGANIC PEA PROTEIN, ORGANIC COCOA, PALM KERNEL OIL?, ORGANIC PALM KERNEL SOLIDS, ORGANIC HIGH OLEIC SUNFLOWER OIL, NATURAL FLAVORS, SEA SALT, ORGANIC SOY LECITHIN, ORGANIC VANILLA EXTRACT, SALT. VITAMINS & MINERALS: CALCIUM CARBONATE, MAGNESIUM OXIDE, FERRIC ORTHOPHOSPHATE (IRON), ZINC OXIDE, ERGOCALCIFEROL (VIT. D2)." Date available: 07/14/2017 Date last updated by company: 07/14/2017
