Source: USDA Branded Food Products Database Release December 2017 Software v.3.8.6.4 2017-10-02
Report Run at: December 19, 2017 06:37 EST
"Nutrient data for: 45169585, ZEN EVO, CHOCOLATE SQUARES, UPC: 854167004070"
Food Group:  Branded Food Products Database
Common Name:

Nutrient,Unit,Data points,Std. Error,"1 PIECE = 10.0g",1Value per 100 g,
Proximates
"Energy",kcal,--,--,48,475
"Protein",g,--,--,0.50,5.00
"Total lipid (fat)",g,--,--,3.25,32.50
"Carbohydrate, by difference",g,--,--,6.00,60.00
"Fiber, total dietary",g,--,--,0.8,7.5
"Sugars, total",g,--,--,4.50,45.00
Minerals
"Calcium, Ca",mg,--,--,0,0
"Iron, Fe",mg,--,--,0.00,0.00
"Sodium, Na",mg,--,--,4,38
Vitamins
"Vitamin C, total ascorbic acid",mg,--,--,0.0,0.0
Lipids
"Fatty acids, total saturated",g,--,--,2.000,20.000
"Fatty acids, total trans",g,--,--,0.000,0.000
"Cholesterol",mg,--,--,0,0
Amino Acids
Other
Ingredients
"CHOCOLATE LIQUOR, COCOA BUTTER, SUGAR, SOYA LECITHIN(SOY), PURE VANILLA, GREEN COFFEE BEAN EXTRACT (100MG), RASPBERRY KETONE (100MG)." Date available: 07/14/2017 Date last updated by company: 07/14/2017
