Source: USDA Branded Food Products Database Release December 2017 Software v.3.8.6.4 2017-10-02
Report Run at: December 19, 2017 06:38 EST
"Nutrient data for: 45097854, ZERGUT, MARINATED EGGPLANT, UPC: 043717295703"
Food Group:  Branded Food Products Database
Common Name:

Nutrient,Unit,Data points,Std. Error,"0.5 cup = 95.0g",1Value per 100 g,
Proximates
"Energy",kcal,--,--,190,200
"Protein",g,--,--,2.00,2.11
"Total lipid (fat)",g,--,--,18.00,18.95
"Carbohydrate, by difference",g,--,--,5.00,5.26
"Fiber, total dietary",g,--,--,2.0,2.1
"Sugars, total",g,--,--,2.00,2.11
Minerals
"Calcium, Ca",mg,--,--,20,21
"Iron, Fe",mg,--,--,0.49,0.52
"Sodium, Na",mg,--,--,560,589
Vitamins
"Vitamin C, total ascorbic acid",mg,--,--,0.0,0.0
"Vitamin A, IU",IU,--,--,0,0
Lipids
"Fatty acids, total saturated",g,--,--,2.004,2.110
"Fatty acids, total trans",g,--,--,0.000,0.000
"Cholesterol",mg,--,--,0,0
Amino Acids
Other
Ingredients
"EGGPLANT, WATER, SUNFLOWER OIL, SPICES (GARLIC, PARSLEY, DILL),SALT, SUGAR, ACETIC ACID (E260)." Date available: 09/13/2017 Date last updated by company: 09/13/2017
