Source: USDA Branded Food Products Database Release December 2017 Software v.3.8.6.4 2017-10-02
Report Run at: December 19, 2017 06:43 EST
"Nutrient data for: 45275642, ZESTY COCKTAIL SAUCE, UPC: 03003401410"
Food Group:  Branded Food Products Database
Common Name:

Nutrient,Unit,Data points,Std. Error,"0.25 cup = 66.0g",1Value per 100 g,
Proximates
"Energy",kcal,--,--,60,91
"Protein",g,--,--,1.00,1.52
"Total lipid (fat)",g,--,--,0.00,0.00
"Carbohydrate, by difference",g,--,--,15.00,22.73
"Fiber, total dietary",g,--,--,1.0,1.5
"Sugars, total",g,--,--,11.00,16.67
Minerals
"Calcium, Ca",mg,--,--,0,0
"Iron, Fe",mg,--,--,0.00,0.00
"Sodium, Na",mg,--,--,690,1045
Vitamins
"Vitamin C, total ascorbic acid",mg,--,--,0.0,0.0
"Vitamin A, IU",IU,--,--,364,551
Lipids
"Fatty acids, total saturated",g,--,--,0.000,0.000
"Fatty acids, total trans",g,--,--,0.000,0.000
"Cholesterol",mg,--,--,0,0
Amino Acids
Other
Ingredients
"TOMATO CONCENTRATE (TOMATO PASTE, WATER), DISTILLED WHITE VINEGAR, HIGH FRUCTOSE CORN SYRUP, HORSERADISH, SALT, CORN SYRUP, CONTAINS 2% OR LESS OF: SOYBEAN OIL, DEHYDRATED ONIONS, NATURAL FLAVORINGS, ONION POWDER, SPICE, GARLIC POWDER." Date available: 07/14/2017 Date last updated by company: 07/14/2017
