Source: USDA Branded Food Products Database Release December 2017 Software v.3.8.6.4 2017-10-02
Report Run at: December 19, 2017 06:44 EST
"Nutrient data for: 45280077, ZESTY ITALIAN DRESSING, UPC: 07203671490"
Food Group:  Branded Food Products Database
Common Name:

Nutrient,Unit,Data points,Std. Error,"2.0 Tbsp = 31.0g",1Value per 100 g,
Proximates
"Energy",kcal,--,--,80,258
"Protein",g,--,--,0.00,0.00
"Total lipid (fat)",g,--,--,7.00,22.58
"Carbohydrate, by difference",g,--,--,4.00,12.90
"Fiber, total dietary",g,--,--,0.0,0.0
"Sugars, total",g,--,--,4.00,12.90
Minerals
"Calcium, Ca",mg,--,--,0,0
"Iron, Fe",mg,--,--,0.00,0.00
"Sodium, Na",mg,--,--,340,1097
Vitamins
"Vitamin C, total ascorbic acid",mg,--,--,2.0,6.5
"Vitamin A, IU",IU,--,--,169,545
Lipids
"Fatty acids, total saturated",g,--,--,1.001,3.230
"Fatty acids, total trans",g,--,--,0.000,0.000
"Cholesterol",mg,--,--,0,0
Amino Acids
Other
Ingredients
"WATER, SOYBEAN OIL, HIGH FRUCTOSE CORN SYRUP, DISTILLED VINEGAR, SALT, CONTAINS 2% OR LESS OF: DRIED GARLIC, DRIED ONION, DRIED RED BELL PEPPERS, AUTOLYZED YEAST EXTRACT, XANTHAN GUM, SPICE, LEMON JUICE CONCENTRATE, ANNATTO AND CARAMEL (FOR COLOR), CALCIUM DISODIUM EDTA (TO PRESERVE FRESHNESS)." Date available: 07/14/2017 Date last updated by company: 07/14/2017
