Source: USDA Branded Food Products Database Release December 2017 Software v.3.8.6.4 2017-10-02
Report Run at: December 19, 2017 06:47 EST
"Nutrient data for: 45231589, ZEVIA, ZERO CALORIE SODA, CREAM SODA, UPC: 894773001315"
Food Group:  Branded Food Products Database
Common Name:

Nutrient,Unit,Data points,Std. Error,"8.0 OZA = 236.0g",1Value per 100 g,
Proximates
"Energy",kcal,--,--,0,0
"Protein",g,--,--,0.00,0.00
"Total lipid (fat)",g,--,--,0.00,0.00
"Carbohydrate, by difference",g,--,--,3.00,1.27
"Sugars, total",g,--,--,0.00,0.00
Minerals
"Sodium, Na",mg,--,--,0,0
Vitamins
Lipids
Amino Acids
Other
Ingredients
"CARBONATED WATER, ERYTHRITOL, NATURAL FLAVORS, REB A (STEVIA EXTRACT) CITRIC ACID CARAMEL COLOR MONK FRUIT EXTRACT" Date available: 06/25/2017 Date last updated by company: 06/25/2017
