Source: USDA Branded Food Products Database Release December 2017 Software v.3.8.6.4 2017-10-02
Report Run at: December 19, 2017 06:48 EST
"Nutrient data for: 45233909, ZICO, NATURAL PURE PREMIUM COCONUT WATER FROM CONCENTRATE, UPC: 180127000500"
Food Group:  Branded Food Products Database
Common Name:

Nutrient,Unit,Data points,Std. Error,"1 BOTTLE = 414.0g",1Value per 100 g,
Proximates
"Energy",kcal,--,--,70,17
"Protein",g,--,--,0.00,0.00
"Total lipid (fat)",g,--,--,0.00,0.00
"Carbohydrate, by difference",g,--,--,15.98,3.86
"Sugars, total",g,--,--,14.99,3.62
Minerals
"Calcium, Ca",mg,--,--,41,10
"Magnesium, Mg",mg,--,--,33,8
"Phosphorus, P",mg,--,--,21,5
"Potassium, K",mg,--,--,609,147
"Sodium, Na",mg,--,--,178,43
Vitamins
Lipids
Amino Acids
Other
Ingredients
"ALL NATURAL COCONUT WATER FROM CONCENTRATE, NATURAL FLAVOR." Date available: 06/24/2017 Date last updated by company: 06/24/2017
