Source: USDA Branded Food Products Database Release December 2017 Software v.3.8.6.4 2017-10-02
Report Run at: December 19, 2017 06:49 EST
"Nutrient data for: 45150293, ZIGGY'S, KETTLE CORN, KICKIN' BUFFALO WING, UPC: 852074004176"
Food Group:  Branded Food Products Database
Common Name:

Nutrient,Unit,Data points,Std. Error,"1.5 ONZ = 42.5g",1Value per 100 g,
Proximates
"Energy",kcal,--,--,130,306
"Protein",g,--,--,1.00,2.35
"Total lipid (fat)",g,--,--,6.00,14.12
"Carbohydrate, by difference",g,--,--,19.00,44.71
"Fiber, total dietary",g,--,--,1.0,2.4
"Sugars, total",g,--,--,11.00,25.88
Minerals
"Calcium, Ca",mg,--,--,0,0
"Iron, Fe",mg,--,--,0.42,1.00
"Sodium, Na",mg,--,--,190,447
Vitamins
"Vitamin C, total ascorbic acid",mg,--,--,0.0,0.0
"Vitamin A, IU",IU,--,--,0,0
Lipids
"Fatty acids, total saturated",g,--,--,0.501,1.180
"Fatty acids, total trans",g,--,--,0.000,0.000
"Cholesterol",mg,--,--,0,0
Amino Acids
Other
Ingredients
"CORN, PURE CORN OIL, SUGAR, HIMALAYAN PINK SALT, BUFFALO WING SEASONING." Date available: 07/14/2017 Date last updated by company: 07/14/2017
