Source: USDA Branded Food Products Database Release December 2017 Software v.3.8.6.4 2017-10-02
Report Run at: December 19, 2017 06:49 EST
"Nutrient data for: 45213614, ZILLION TANGY CANDY, UPC: 025675300934"
Food Group:  Branded Food Products Database
Common Name:

Nutrient,Unit,Data points,Std. Error,"1 BOX = 40.0g",1Value per 100 g,
Proximates
"Energy",kcal,--,--,61,152
"Protein",g,--,--,0.00,0.00
"Total lipid (fat)",g,--,--,0.00,0.00
"Carbohydrate, by difference",g,--,--,14.00,35.00
"Fiber, total dietary",g,--,--,0.0,0.0
"Sugars, total",g,--,--,14.00,35.00
Minerals
"Calcium, Ca",mg,--,--,0,0
"Iron, Fe",mg,--,--,0.00,0.00
"Sodium, Na",mg,--,--,10,25
Vitamins
"Vitamin C, total ascorbic acid",mg,--,--,0.0,0.0
"Vitamin A, IU",IU,--,--,0,0
Lipids
"Fatty acids, total saturated",g,--,--,0.000,0.000
"Fatty acids, total trans",g,--,--,0.000,0.000
"Cholesterol",mg,--,--,0,0
Amino Acids
Other
Ingredients
"SUGAR, MALIC ACID, DEXTRIN, CORN STARCH, CELLULOSE GUM, ARTIFICIAL FLAVORS, FD&C RED 40, BLUE 1, CARNAUBA WAX." Date available: 07/14/2017 Date last updated by company: 07/14/2017
