Source: USDA Branded Food Products Database Release December 2017 Software v.3.8.6.4 2017-10-02
Report Run at: December 19, 2017 06:49 EST
"Nutrient data for: 45166659, ZINGERMAN'S CANDY MANUFACTORY, CHOCOLATE COVERED PEANUT BRITTLE, UPC: 844397001888"
Food Group:  Branded Food Products Database
Common Name:

Nutrient,Unit,Data points,Std. Error,"2.0 ONZ = 56.7g",1Value per 100 g,
Proximates
"Energy",kcal,--,--,240,423
"Protein",g,--,--,4.00,7.05
"Total lipid (fat)",g,--,--,14.00,24.69
"Carbohydrate, by difference",g,--,--,28.00,49.38
"Fiber, total dietary",g,--,--,3.0,5.3
"Sugars, total",g,--,--,22.00,38.80
Minerals
"Calcium, Ca",mg,--,--,20,35
"Iron, Fe",mg,--,--,0.64,1.12
"Sodium, Na",mg,--,--,280,494
Vitamins
"Vitamin C, total ascorbic acid",mg,--,--,0.0,0.0
"Vitamin A, IU",IU,--,--,0,0
Lipids
"Fatty acids, total saturated",g,--,--,5.001,8.820
"Fatty acids, total trans",g,--,--,0.000,0.000
"Cholesterol",mg,--,--,5,9
Amino Acids
Other
Ingredients
"DARK CHOCOLATE (COCOA BEANS, SUGAR, COCOA BUTTER, SOY LECITHIN, ANTURAL VANILLA EXTRACT), PEANUTS, CANE SUGAR, CORN SYRUP, DARK CHOCOLATE (COCOA BEANS, CANE SUGAR, COCOA BUTTER, SOY LECITHIN, VANILLA BEANS), BUTTER (PASTEURIZED CREAM, NATURAL FLAVORINGS (LACTIC ACID, STARTER DISTLATE, CULTUROMA) SEA SALT, VANILLA EXTRACT (WATER, ALCOHOL, SUGAR, VANILLA BEAN EXTRACTIVES), BAKING SODA" Date available: 10/13/2017 Date last updated by company: 10/13/2017
