Source: USDA Branded Food Products Database Release December 2017 Software v.3.8.6.4 2017-10-02
Report Run at: December 19, 2017 06:50 EST
"Nutrient data for: 45293238, ZITI, UPC: 030223018650"
Food Group:  Branded Food Products Database
Common Name:

Nutrient,Unit,Data points,Std. Error,"1 CONTAINER = 340.0g",1Value per 100 g,
Proximates
"Energy",kcal,--,--,799,235
"Protein",g,--,--,31.01,9.12
"Total lipid (fat)",g,--,--,17.99,5.29
"Carbohydrate, by difference",g,--,--,113.02,33.24
"Fiber, total dietary",g,--,--,6.1,1.8
"Sugars, total",g,--,--,11.02,3.24
Minerals
"Calcium, Ca",mg,--,--,252,74
"Iron, Fe",mg,--,--,2.21,0.65
"Sodium, Na",mg,--,--,1119,329
Vitamins
"Vitamin C, total ascorbic acid",mg,--,--,5.1,1.5
"Vitamin A, IU",IU,--,--,309,91
Lipids
"Fatty acids, total saturated",g,--,--,5.984,1.760
"Fatty acids, total trans",g,--,--,0.000,0.000
"Cholesterol",mg,--,--,41,12
Amino Acids
Other
Ingredients
"ZITI PASTA (WATER, PASTA [SEMOLINA {WHEAT}, DURUM WHEAT FLOUR, NIACIN, IRON {FERROUS SULFATE}, THIAMINE MONONITRATE, RIBOFLAVIN, FOLIC ACID), ZITI SAUCE (VINE-RIPENED DICED TOMATOES IN JUICE, WATER, TOMATO PASTE, ONIONS, BURGUNDY WINE [CONTAINS POTASSIUM METABISULFITE {SULFITE}], MODIFIED CORNSTARCH, OLIVE OIL, SUGAR, SALT, GARLIC, CULTURED DEXTROSE, PARSLEY, SPICES, CRUSHED RED PEPPERS), RICOTTA CHEESE (PASTEURIZED WHEY, PASTEURIZED MILK, VINEGAR, SALT), COOKED ITALIAN SAUSAGE (PORK, WATER, SALT, SODIUM LACTATE, SPICES, CORN SYRUP SOLIDS, PAPRIKA, FLAVORING, DISODIUM INOSINATE AND DISODIUM GUANYLATE, BHA, BHT, PROPYL GALLATE, SOY LECITHIN USED AS A PROCESSING AID), PARMESAN CHEESE (PARMESAN CHEESE [PASTEURIZED MILK, CHEESE CULTURE, SALT, ENZYMES], POTATO STARCH AND POWDERED CELLULOSE [TO PREVENT CAKING]), PARSLEY." Date available: 07/14/2017 Date last updated by company: 07/14/2017
