Source: USDA Branded Food Products Database Release December 2017 Software v.3.8.6.4 2017-10-02
Report Run at: December 19, 2017 06:52 EST
"Nutrient data for: 45144020, ZOET, DARK CHOCOLATE WITH TOASTED COCONUT, UPC: 075450228090"
Food Group:  Branded Food Products Database
Common Name:

Nutrient,Unit,Data points,Std. Error,"4.0 SQUARES = 40.0g",1Value per 100 g,
Proximates
"Energy",kcal,--,--,200,500
"Protein",g,--,--,2.00,5.00
"Total lipid (fat)",g,--,--,13.00,32.50
"Carbohydrate, by difference",g,--,--,19.00,47.50
"Fiber, total dietary",g,--,--,3.0,7.5
"Sugars, total",g,--,--,16.00,40.00
Minerals
"Calcium, Ca",mg,--,--,0,0
"Iron, Fe",mg,--,--,5.40,13.50
"Sodium, Na",mg,--,--,0,0
Vitamins
"Vitamin C, total ascorbic acid",mg,--,--,0.0,0.0
"Vitamin A, IU",IU,--,--,0,0
Lipids
"Fatty acids, total saturated",g,--,--,8.000,20.000
"Fatty acids, total trans",g,--,--,0.000,0.000
"Cholesterol",mg,--,--,0,0
Amino Acids
Other
Ingredients
"COCOA MASS, SUGAR, CARAMELIZED COCONUT (COCONUT, SUGAR), COCOA BUTTER, ANHYDROUS MILKFAT, NATURAL FLAVORS, SOY LECITHIN (EMULSIFIER). DARK CHOCOLATE: COCOA SOLIDS MINIMUM 50%." Date available: 09/22/2017 Date last updated by company: 09/22/2017
