Source: USDA Branded Food Products Database Release December 2017 Software v.3.8.6.4 2017-10-02
Report Run at: December 19, 2017 06:54 EST
"Nutrient data for: 45233279, ZONE 8, CAFFEIN FREE HIBISCUS TEA, HIBISCUS, UPC: 799471921029"
Food Group:  Branded Food Products Database
Common Name:

Nutrient,Unit,Data points,Std. Error,"1 BOTTLE = 500.0g",1Value per 100 g,
Proximates
"Energy",kcal,--,--,140,28
"Protein",g,--,--,0.00,0.00
"Total lipid (fat)",g,--,--,0.00,0.00
"Carbohydrate, by difference",g,--,--,34.00,6.80
"Sugars, total",g,--,--,31.00,6.20
Minerals
"Calcium, Ca",mg,--,--,20,4
"Iron, Fe",mg,--,--,0.25,0.05
"Sodium, Na",mg,--,--,0,0
Vitamins
"Vitamin C, total ascorbic acid",mg,--,--,1.5,0.3
Lipids
Amino Acids
Other
Ingredients
"WATER, BREWED ORGANIC HIBISCUS TEA, ORGANIC CANE SUGAR, ORGANIC LIME JUICE CONCENTRATE." Date available: 08/28/2017 Date last updated by company: 08/28/2017
