Source: USDA Branded Food Products Database Release December 2017 Software v.3.8.6.4 2017-10-02
Report Run at: December 19, 2017 06:55 EST
"Nutrient data for: 45193093, ZONE PERFECT, PERFECTLY SIMPLE, LIMITED INGREDIENT NUTRITION BAR, TOASTED COCONUT, UPC: 638102623027"
Food Group:  Branded Food Products Database
Common Name:

Nutrient,Unit,Data points,Std. Error,"1 BAR = 45.0g",1Value per 100 g,
Proximates
"Energy",kcal,--,--,200,444
"Protein",g,--,--,10.00,22.22
"Total lipid (fat)",g,--,--,8.00,17.78
"Carbohydrate, by difference",g,--,--,20.00,44.44
"Fiber, total dietary",g,--,--,2.0,4.4
"Sugars, total",g,--,--,16.00,35.56
Minerals
"Potassium, K",mg,--,--,140,311
"Sodium, Na",mg,--,--,120,267
Vitamins
Lipids
"Fatty acids, total saturated",g,--,--,4.500,10.000
"Fatty acids, total trans",g,--,--,0.000,0.000
"Cholesterol",mg,--,--,0,0
Amino Acids
Other
Ingredients
"INVERT DRIED CANE SYRUP, DATE PASTE, SOY PROTEIN ISOLATE, TOASTED COCONUT, ROASTED ALMONDS (ALMONDS, HIGH OLEIC SUNFLOWER OIL), WHEY PROTEIN ISOLATE AND NATURAL VANILLA FLAVOR." Date available: 07/14/2017 Date last updated by company: 07/14/2017
