Source: USDA Branded Food Products Database Release December 2017 Software v.3.8.6.4 2017-10-02
Report Run at: December 19, 2017 06:57 EST
"Nutrient data for: 45279795, ZUCCHINI MARINARA, UPC: 704863017136"
Food Group:  Branded Food Products Database
Common Name:

Nutrient,Unit,Data points,Std. Error,"7.0 ONZ = 198.0g",1Value per 100 g,
Proximates
"Energy",kcal,--,--,111,56
"Protein",g,--,--,3.01,1.52
"Total lipid (fat)",g,--,--,4.00,2.02
"Carbohydrate, by difference",g,--,--,19.01,9.60
"Fiber, total dietary",g,--,--,4.0,2.0
"Sugars, total",g,--,--,6.00,3.03
Minerals
"Calcium, Ca",mg,--,--,40,20
"Iron, Fe",mg,--,--,1.43,0.72
"Sodium, Na",mg,--,--,459,232
Vitamins
"Vitamin C, total ascorbic acid",mg,--,--,47.3,23.9
"Vitamin A, IU",IU,--,--,1232,622
Lipids
"Fatty acids, total saturated",g,--,--,0.495,0.250
"Fatty acids, total trans",g,--,--,0.000,0.000
"Cholesterol",mg,--,--,0,0
Amino Acids
Other
Ingredients
"ALL NATURAL INGREDIENTS: ZUCCHINI, CRUSHED TOMATOES (TOMATOES, SALT, CITRIC ACID), ONION, RED PEPPER, GREEN PEPPER, TOMATO PASTE (TOMATOES, SALT), EVAPORATED CANE JUICE, FILTERED WATER, CANOLA OIL, CORN STARCH, SEA SALT, LEMON JUICE, GARLIC, BASIL, OREGANO, BLACK PEPPER." Date available: 10/13/2017 Date last updated by company: 10/13/2017
